ISO-10303-21;
HEADER;
/* Generated by software containing ST-Developer
 * from STEP Tools, Inc. (www.steptools.com) 
 */

FILE_DESCRIPTION(
/* description */ (''),
/* implementation_level */ '2;1');

FILE_NAME(
/* name */ 'G:\\Applications\\Altium\\CernLib\\StepLib\\BIVAR_ELM 2-26
5.stp',
/* time_stamp */ '2017-02-06T09:29:11+01:00',
/* author */ ('jchouvet'),
/* organization */ (''),
/* preprocessor_version */ 'ST-DEVELOPER v16.1',
/* originating_system */ 'AutoCAD Mechanical',
/* authorisation */ '');

FILE_SCHEMA (('AUTOMOTIVE_DESIGN { 1 0 10303 214 3 1 1 }'));
ENDSEC;

DATA;
#10=MECHANICAL_DESIGN_GEOMETRIC_PRESENTATION_REPRESENTATION('',(#17),#591);
#11=DIMENSIONAL_EXPONENTS(0.,0.,0.,0.,0.,0.,0.);
#12=(
CONVERSION_BASED_UNIT('degree',#13)
NAMED_UNIT(#11)
PLANE_ANGLE_UNIT()
);
#13=PLANE_ANGLE_MEASURE_WITH_UNIT(PLANE_ANGLE_MEASURE(0.01745329252),#594);
#14=PRESENTATION_LAYER_ASSIGNMENT('3','3D',(#18));
#15=SHAPE_REPRESENTATION_RELATIONSHIP('SRR','None',#597,#16);
#16=ADVANCED_BREP_SHAPE_REPRESENTATION('',(#18),#590);
#17=STYLED_ITEM('',(#607),#18);
#18=MANIFOLD_SOLID_BREP('3240',#351);
#19=FACE_BOUND('',#66,.T.);
#20=FACE_BOUND('',#68,.T.);
#21=PLANE('',#356);
#22=PLANE('',#360);
#23=PLANE('',#364);
#24=PLANE('',#368);
#25=PLANE('',#372);
#26=PLANE('',#376);
#27=PLANE('',#380);
#28=PLANE('',#384);
#29=PLANE('',#385);
#30=PLANE('',#386);
#31=FACE_OUTER_BOUND('',#49,.T.);
#32=FACE_OUTER_BOUND('',#50,.T.);
#33=FACE_OUTER_BOUND('',#51,.T.);
#34=FACE_OUTER_BOUND('',#52,.T.);
#35=FACE_OUTER_BOUND('',#53,.T.);
#36=FACE_OUTER_BOUND('',#54,.T.);
#37=FACE_OUTER_BOUND('',#55,.T.);
#38=FACE_OUTER_BOUND('',#56,.T.);
#39=FACE_OUTER_BOUND('',#57,.T.);
#40=FACE_OUTER_BOUND('',#58,.T.);
#41=FACE_OUTER_BOUND('',#59,.T.);
#42=FACE_OUTER_BOUND('',#60,.T.);
#43=FACE_OUTER_BOUND('',#61,.T.);
#44=FACE_OUTER_BOUND('',#62,.T.);
#45=FACE_OUTER_BOUND('',#63,.T.);
#46=FACE_OUTER_BOUND('',#64,.T.);
#47=FACE_OUTER_BOUND('',#65,.T.);
#48=FACE_OUTER_BOUND('',#67,.T.);
#49=EDGE_LOOP('',(#229,#230,#231,#232));
#50=EDGE_LOOP('',(#233,#234,#235,#236));
#51=EDGE_LOOP('',(#237,#238,#239,#240));
#52=EDGE_LOOP('',(#241,#242,#243,#244));
#53=EDGE_LOOP('',(#245,#246,#247,#248));
#54=EDGE_LOOP('',(#249,#250,#251,#252));
#55=EDGE_LOOP('',(#253,#254,#255,#256));
#56=EDGE_LOOP('',(#257,#258,#259,#260));
#57=EDGE_LOOP('',(#261,#262,#263,#264));
#58=EDGE_LOOP('',(#265,#266,#267,#268));
#59=EDGE_LOOP('',(#269,#270,#271,#272));
#60=EDGE_LOOP('',(#273,#274,#275,#276));
#61=EDGE_LOOP('',(#277,#278,#279,#280));
#62=EDGE_LOOP('',(#281,#282,#283,#284));
#63=EDGE_LOOP('',(#285,#286,#287,#288));
#64=EDGE_LOOP('',(#289,#290,#291,#292));
#65=EDGE_LOOP('',(#293,#294,#295,#296,#297,#298,#299,#300));
#66=EDGE_LOOP('',(#301,#302,#303,#304,#305,#306,#307,#308));
#67=EDGE_LOOP('',(#309,#310,#311,#312,#313,#314,#315,#316));
#68=EDGE_LOOP('',(#317,#318,#319,#320,#321,#322,#323,#324));
#69=LINE('',#495,#101);
#70=LINE('',#498,#102);
#71=LINE('',#501,#103);
#72=LINE('',#503,#104);
#73=LINE('',#504,#105);
#74=LINE('',#509,#106);
#75=LINE('',#513,#107);
#76=LINE('',#515,#108);
#77=LINE('',#516,#109);
#78=LINE('',#521,#110);
#79=LINE('',#525,#111);
#80=LINE('',#527,#112);
#81=LINE('',#528,#113);
#82=LINE('',#533,#114);
#83=LINE('',#536,#115);
#84=LINE('',#537,#116);
#85=LINE('',#543,#117);
#86=LINE('',#546,#118);
#87=LINE('',#549,#119);
#88=LINE('',#551,#120);
#89=LINE('',#552,#121);
#90=LINE('',#558,#122);
#91=LINE('',#561,#123);
#92=LINE('',#563,#124);
#93=LINE('',#564,#125);
#94=LINE('',#570,#126);
#95=LINE('',#573,#127);
#96=LINE('',#575,#128);
#97=LINE('',#576,#129);
#98=LINE('',#582,#130);
#99=LINE('',#584,#131);
#100=LINE('',#585,#132);
#101=VECTOR('',#393,6.73);
#102=VECTOR('',#396,6.73);
#103=VECTOR('',#399,0.76199999367102);
#104=VECTOR('',#400,6.73);
#105=VECTOR('',#401,0.76199999367102);
#106=VECTOR('',#406,6.73);
#107=VECTOR('',#411,0.761999988052796);
#108=VECTOR('',#412,6.73);
#109=VECTOR('',#413,0.761999988052796);
#110=VECTOR('',#418,6.73);
#111=VECTOR('',#423,0.762);
#112=VECTOR('',#424,6.73);
#113=VECTOR('',#425,0.761999999999999);
#114=VECTOR('',#430,6.73);
#115=VECTOR('',#435,0.761999995764719);
#116=VECTOR('',#436,0.761999995764719);
#117=VECTOR('',#441,6.73);
#118=VECTOR('',#444,6.73);
#119=VECTOR('',#447,1.09916867343562);
#120=VECTOR('',#448,1.09916867343562);
#121=VECTOR('',#449,6.73);
#122=VECTOR('',#456,6.73);
#123=VECTOR('',#459,1.02679845642741);
#124=VECTOR('',#460,1.02679845642741);
#125=VECTOR('',#461,6.73);
#126=VECTOR('',#468,6.73);
#127=VECTOR('',#471,1.0267984564274);
#128=VECTOR('',#472,1.0267984564274);
#129=VECTOR('',#473,6.73);
#130=VECTOR('',#480,6.73);
#131=VECTOR('',#483,1.09916867353975);
#132=VECTOR('',#484,1.09916867353975);
#133=CIRCLE('',#354,0.508);
#134=CIRCLE('',#355,0.508);
#135=CIRCLE('',#358,0.7903258514);
#136=CIRCLE('',#359,0.7903258514);
#137=CIRCLE('',#362,0.508);
#138=CIRCLE('',#363,0.508);
#139=CIRCLE('',#366,0.811694531868989);
#140=CIRCLE('',#367,0.811694531868989);
#141=CIRCLE('',#370,0.406399998086752);
#142=CIRCLE('',#371,0.406399998086752);
#143=CIRCLE('',#374,2.4050858087899);
#144=CIRCLE('',#375,2.4050858087899);
#145=CIRCLE('',#378,0.406400002027405);
#146=CIRCLE('',#379,0.406400002027405);
#147=CIRCLE('',#382,2.4050858087899);
#148=CIRCLE('',#383,2.4050858087899);
#149=VERTEX_POINT('',#491);
#150=VERTEX_POINT('',#492);
#151=VERTEX_POINT('',#494);
#152=VERTEX_POINT('',#496);
#153=VERTEX_POINT('',#500);
#154=VERTEX_POINT('',#502);
#155=VERTEX_POINT('',#506);
#156=VERTEX_POINT('',#508);
#157=VERTEX_POINT('',#512);
#158=VERTEX_POINT('',#514);
#159=VERTEX_POINT('',#518);
#160=VERTEX_POINT('',#520);
#161=VERTEX_POINT('',#524);
#162=VERTEX_POINT('',#526);
#163=VERTEX_POINT('',#530);
#164=VERTEX_POINT('',#532);
#165=VERTEX_POINT('',#539);
#166=VERTEX_POINT('',#540);
#167=VERTEX_POINT('',#542);
#168=VERTEX_POINT('',#544);
#169=VERTEX_POINT('',#548);
#170=VERTEX_POINT('',#550);
#171=VERTEX_POINT('',#554);
#172=VERTEX_POINT('',#556);
#173=VERTEX_POINT('',#560);
#174=VERTEX_POINT('',#562);
#175=VERTEX_POINT('',#566);
#176=VERTEX_POINT('',#568);
#177=VERTEX_POINT('',#572);
#178=VERTEX_POINT('',#574);
#179=VERTEX_POINT('',#578);
#180=VERTEX_POINT('',#580);
#181=EDGE_CURVE('',#149,#150,#133,.T.);
#182=EDGE_CURVE('',#149,#151,#69,.T.);
#183=EDGE_CURVE('',#152,#151,#134,.T.);
#184=EDGE_CURVE('',#150,#152,#70,.T.);
#185=EDGE_CURVE('',#153,#149,#71,.T.);
#186=EDGE_CURVE('',#153,#154,#72,.T.);
#187=EDGE_CURVE('',#151,#154,#73,.T.);
#188=EDGE_CURVE('',#155,#153,#135,.T.);
#189=EDGE_CURVE('',#155,#156,#74,.T.);
#190=EDGE_CURVE('',#154,#156,#136,.T.);
#191=EDGE_CURVE('',#157,#155,#75,.T.);
#192=EDGE_CURVE('',#157,#158,#76,.T.);
#193=EDGE_CURVE('',#156,#158,#77,.T.);
#194=EDGE_CURVE('',#159,#157,#137,.T.);
#195=EDGE_CURVE('',#159,#160,#78,.T.);
#196=EDGE_CURVE('',#158,#160,#138,.T.);
#197=EDGE_CURVE('',#161,#159,#79,.T.);
#198=EDGE_CURVE('',#161,#162,#80,.T.);
#199=EDGE_CURVE('',#160,#162,#81,.T.);
#200=EDGE_CURVE('',#163,#161,#139,.T.);
#201=EDGE_CURVE('',#163,#164,#82,.T.);
#202=EDGE_CURVE('',#162,#164,#140,.T.);
#203=EDGE_CURVE('',#150,#163,#83,.T.);
#204=EDGE_CURVE('',#164,#152,#84,.T.);
#205=EDGE_CURVE('',#165,#166,#141,.T.);
#206=EDGE_CURVE('',#166,#167,#85,.T.);
#207=EDGE_CURVE('',#168,#167,#142,.T.);
#208=EDGE_CURVE('',#165,#168,#86,.T.);
#209=EDGE_CURVE('',#169,#165,#87,.T.);
#210=EDGE_CURVE('',#170,#168,#88,.T.);
#211=EDGE_CURVE('',#169,#170,#89,.T.);
#212=EDGE_CURVE('',#171,#169,#143,.T.);
#213=EDGE_CURVE('',#172,#170,#144,.T.);
#214=EDGE_CURVE('',#171,#172,#90,.T.);
#215=EDGE_CURVE('',#173,#171,#91,.T.);
#216=EDGE_CURVE('',#174,#172,#92,.T.);
#217=EDGE_CURVE('',#173,#174,#93,.T.);
#218=EDGE_CURVE('',#175,#173,#145,.T.);
#219=EDGE_CURVE('',#176,#174,#146,.T.);
#220=EDGE_CURVE('',#175,#176,#94,.T.);
#221=EDGE_CURVE('',#177,#175,#95,.T.);
#222=EDGE_CURVE('',#178,#176,#96,.T.);
#223=EDGE_CURVE('',#177,#178,#97,.T.);
#224=EDGE_CURVE('',#179,#177,#147,.T.);
#225=EDGE_CURVE('',#180,#178,#148,.T.);
#226=EDGE_CURVE('',#179,#180,#98,.T.);
#227=EDGE_CURVE('',#166,#179,#99,.T.);
#228=EDGE_CURVE('',#167,#180,#100,.T.);
#229=ORIENTED_EDGE('',*,*,#181,.F.);
#230=ORIENTED_EDGE('',*,*,#182,.T.);
#231=ORIENTED_EDGE('',*,*,#183,.F.);
#232=ORIENTED_EDGE('',*,*,#184,.F.);
#233=ORIENTED_EDGE('',*,*,#185,.F.);
#234=ORIENTED_EDGE('',*,*,#186,.T.);
#235=ORIENTED_EDGE('',*,*,#187,.F.);
#236=ORIENTED_EDGE('',*,*,#182,.F.);
#237=ORIENTED_EDGE('',*,*,#188,.F.);
#238=ORIENTED_EDGE('',*,*,#189,.T.);
#239=ORIENTED_EDGE('',*,*,#190,.F.);
#240=ORIENTED_EDGE('',*,*,#186,.F.);
#241=ORIENTED_EDGE('',*,*,#191,.F.);
#242=ORIENTED_EDGE('',*,*,#192,.T.);
#243=ORIENTED_EDGE('',*,*,#193,.F.);
#244=ORIENTED_EDGE('',*,*,#189,.F.);
#245=ORIENTED_EDGE('',*,*,#194,.F.);
#246=ORIENTED_EDGE('',*,*,#195,.T.);
#247=ORIENTED_EDGE('',*,*,#196,.F.);
#248=ORIENTED_EDGE('',*,*,#192,.F.);
#249=ORIENTED_EDGE('',*,*,#197,.F.);
#250=ORIENTED_EDGE('',*,*,#198,.T.);
#251=ORIENTED_EDGE('',*,*,#199,.F.);
#252=ORIENTED_EDGE('',*,*,#195,.F.);
#253=ORIENTED_EDGE('',*,*,#200,.F.);
#254=ORIENTED_EDGE('',*,*,#201,.T.);
#255=ORIENTED_EDGE('',*,*,#202,.F.);
#256=ORIENTED_EDGE('',*,*,#198,.F.);
#257=ORIENTED_EDGE('',*,*,#203,.F.);
#258=ORIENTED_EDGE('',*,*,#184,.T.);
#259=ORIENTED_EDGE('',*,*,#204,.F.);
#260=ORIENTED_EDGE('',*,*,#201,.F.);
#261=ORIENTED_EDGE('',*,*,#205,.T.);
#262=ORIENTED_EDGE('',*,*,#206,.T.);
#263=ORIENTED_EDGE('',*,*,#207,.F.);
#264=ORIENTED_EDGE('',*,*,#208,.F.);
#265=ORIENTED_EDGE('',*,*,#209,.T.);
#266=ORIENTED_EDGE('',*,*,#208,.T.);
#267=ORIENTED_EDGE('',*,*,#210,.F.);
#268=ORIENTED_EDGE('',*,*,#211,.F.);
#269=ORIENTED_EDGE('',*,*,#212,.T.);
#270=ORIENTED_EDGE('',*,*,#211,.T.);
#271=ORIENTED_EDGE('',*,*,#213,.F.);
#272=ORIENTED_EDGE('',*,*,#214,.F.);
#273=ORIENTED_EDGE('',*,*,#215,.T.);
#274=ORIENTED_EDGE('',*,*,#214,.T.);
#275=ORIENTED_EDGE('',*,*,#216,.F.);
#276=ORIENTED_EDGE('',*,*,#217,.F.);
#277=ORIENTED_EDGE('',*,*,#218,.T.);
#278=ORIENTED_EDGE('',*,*,#217,.T.);
#279=ORIENTED_EDGE('',*,*,#219,.F.);
#280=ORIENTED_EDGE('',*,*,#220,.F.);
#281=ORIENTED_EDGE('',*,*,#221,.T.);
#282=ORIENTED_EDGE('',*,*,#220,.T.);
#283=ORIENTED_EDGE('',*,*,#222,.F.);
#284=ORIENTED_EDGE('',*,*,#223,.F.);
#285=ORIENTED_EDGE('',*,*,#224,.T.);
#286=ORIENTED_EDGE('',*,*,#223,.T.);
#287=ORIENTED_EDGE('',*,*,#225,.F.);
#288=ORIENTED_EDGE('',*,*,#226,.F.);
#289=ORIENTED_EDGE('',*,*,#227,.T.);
#290=ORIENTED_EDGE('',*,*,#226,.T.);
#291=ORIENTED_EDGE('',*,*,#228,.F.);
#292=ORIENTED_EDGE('',*,*,#206,.F.);
#293=ORIENTED_EDGE('',*,*,#228,.T.);
#294=ORIENTED_EDGE('',*,*,#225,.T.);
#295=ORIENTED_EDGE('',*,*,#222,.T.);
#296=ORIENTED_EDGE('',*,*,#219,.T.);
#297=ORIENTED_EDGE('',*,*,#216,.T.);
#298=ORIENTED_EDGE('',*,*,#213,.T.);
#299=ORIENTED_EDGE('',*,*,#210,.T.);
#300=ORIENTED_EDGE('',*,*,#207,.T.);
#301=ORIENTED_EDGE('',*,*,#183,.T.);
#302=ORIENTED_EDGE('',*,*,#187,.T.);
#303=ORIENTED_EDGE('',*,*,#190,.T.);
#304=ORIENTED_EDGE('',*,*,#193,.T.);
#305=ORIENTED_EDGE('',*,*,#196,.T.);
#306=ORIENTED_EDGE('',*,*,#199,.T.);
#307=ORIENTED_EDGE('',*,*,#202,.T.);
#308=ORIENTED_EDGE('',*,*,#204,.T.);
#309=ORIENTED_EDGE('',*,*,#227,.F.);
#310=ORIENTED_EDGE('',*,*,#205,.F.);
#311=ORIENTED_EDGE('',*,*,#209,.F.);
#312=ORIENTED_EDGE('',*,*,#212,.F.);
#313=ORIENTED_EDGE('',*,*,#215,.F.);
#314=ORIENTED_EDGE('',*,*,#218,.F.);
#315=ORIENTED_EDGE('',*,*,#221,.F.);
#316=ORIENTED_EDGE('',*,*,#224,.F.);
#317=ORIENTED_EDGE('',*,*,#181,.T.);
#318=ORIENTED_EDGE('',*,*,#203,.T.);
#319=ORIENTED_EDGE('',*,*,#200,.T.);
#320=ORIENTED_EDGE('',*,*,#197,.T.);
#321=ORIENTED_EDGE('',*,*,#194,.T.);
#322=ORIENTED_EDGE('',*,*,#191,.T.);
#323=ORIENTED_EDGE('',*,*,#188,.T.);
#324=ORIENTED_EDGE('',*,*,#185,.T.);
#325=CYLINDRICAL_SURFACE('',#353,0.508);
#326=CYLINDRICAL_SURFACE('',#357,0.7903258514);
#327=CYLINDRICAL_SURFACE('',#361,0.508);
#328=CYLINDRICAL_SURFACE('',#365,0.811694531868989);
#329=CYLINDRICAL_SURFACE('',#369,0.406399998086752);
#330=CYLINDRICAL_SURFACE('',#373,2.4050858087899);
#331=CYLINDRICAL_SURFACE('',#377,0.406400002027405);
#332=CYLINDRICAL_SURFACE('',#381,2.4050858087899);
#333=ADVANCED_FACE('',(#31),#325,.F.);
#334=ADVANCED_FACE('',(#32),#21,.F.);
#335=ADVANCED_FACE('',(#33),#326,.T.);
#336=ADVANCED_FACE('',(#34),#22,.F.);
#337=ADVANCED_FACE('',(#35),#327,.F.);
#338=ADVANCED_FACE('',(#36),#23,.F.);
#339=ADVANCED_FACE('',(#37),#328,.T.);
#340=ADVANCED_FACE('',(#38),#24,.F.);
#341=ADVANCED_FACE('',(#39),#329,.F.);
#342=ADVANCED_FACE('',(#40),#25,.T.);
#343=ADVANCED_FACE('',(#41),#330,.T.);
#344=ADVANCED_FACE('',(#42),#26,.T.);
#345=ADVANCED_FACE('',(#43),#331,.F.);
#346=ADVANCED_FACE('',(#44),#27,.T.);
#347=ADVANCED_FACE('',(#45),#332,.T.);
#348=ADVANCED_FACE('',(#46),#28,.T.);
#349=ADVANCED_FACE('',(#47,#19),#29,.T.);
#350=ADVANCED_FACE('',(#48,#20),#30,.F.);
#351=CLOSED_SHELL('',(#333,#334,#335,#336,#337,#338,#339,#340,#341,#342,
#343,#344,#345,#346,#347,#348,#349,#350));
#352=AXIS2_PLACEMENT_3D('placement',#489,#387,#388);
#353=AXIS2_PLACEMENT_3D('',#490,#389,#390);
#354=AXIS2_PLACEMENT_3D('',#493,#391,#392);
#355=AXIS2_PLACEMENT_3D('',#497,#394,#395);
#356=AXIS2_PLACEMENT_3D('',#499,#397,#398);
#357=AXIS2_PLACEMENT_3D('',#505,#402,#403);
#358=AXIS2_PLACEMENT_3D('',#507,#404,#405);
#359=AXIS2_PLACEMENT_3D('',#510,#407,#408);
#360=AXIS2_PLACEMENT_3D('',#511,#409,#410);
#361=AXIS2_PLACEMENT_3D('',#517,#414,#415);
#362=AXIS2_PLACEMENT_3D('',#519,#416,#417);
#363=AXIS2_PLACEMENT_3D('',#522,#419,#420);
#364=AXIS2_PLACEMENT_3D('',#523,#421,#422);
#365=AXIS2_PLACEMENT_3D('',#529,#426,#427);
#366=AXIS2_PLACEMENT_3D('',#531,#428,#429);
#367=AXIS2_PLACEMENT_3D('',#534,#431,#432);
#368=AXIS2_PLACEMENT_3D('',#535,#433,#434);
#369=AXIS2_PLACEMENT_3D('',#538,#437,#438);
#370=AXIS2_PLACEMENT_3D('',#541,#439,#440);
#371=AXIS2_PLACEMENT_3D('',#545,#442,#443);
#372=AXIS2_PLACEMENT_3D('',#547,#445,#446);
#373=AXIS2_PLACEMENT_3D('',#553,#450,#451);
#374=AXIS2_PLACEMENT_3D('',#555,#452,#453);
#375=AXIS2_PLACEMENT_3D('',#557,#454,#455);
#376=AXIS2_PLACEMENT_3D('',#559,#457,#458);
#377=AXIS2_PLACEMENT_3D('',#565,#462,#463);
#378=AXIS2_PLACEMENT_3D('',#567,#464,#465);
#379=AXIS2_PLACEMENT_3D('',#569,#466,#467);
#380=AXIS2_PLACEMENT_3D('',#571,#469,#470);
#381=AXIS2_PLACEMENT_3D('',#577,#474,#475);
#382=AXIS2_PLACEMENT_3D('',#579,#476,#477);
#383=AXIS2_PLACEMENT_3D('',#581,#478,#479);
#384=AXIS2_PLACEMENT_3D('',#583,#481,#482);
#385=AXIS2_PLACEMENT_3D('',#586,#485,#486);
#386=AXIS2_PLACEMENT_3D('',#587,#487,#488);
#387=DIRECTION('axis',(0.,0.,1.));
#388=DIRECTION('refdir',(1.,0.,0.));
#389=DIRECTION('center_axis',(0.,0.,1.));
#390=DIRECTION('ref_axis',(1.,0.,0.));
#391=DIRECTION('center_axis',(0.,0.,1.));
#392=DIRECTION('ref_axis',(1.,0.,0.));
#393=DIRECTION('',(0.,0.,1.));
#394=DIRECTION('center_axis',(0.,0.,-1.));
#395=DIRECTION('ref_axis',(1.,0.,0.));
#396=DIRECTION('',(0.,0.,1.));
#397=DIRECTION('center_axis',(-1.,8.68909981809889E-9,0.));
#398=DIRECTION('ref_axis',(-8.68909977302934E-9,-1.,0.));
#399=DIRECTION('',(-8.68909981809889E-9,-1.,0.));
#400=DIRECTION('',(0.,0.,1.));
#401=DIRECTION('',(8.68909981809889E-9,1.,0.));
#402=DIRECTION('center_axis',(0.,0.,1.));
#403=DIRECTION('ref_axis',(0.7228730900144,-0.690980821537785,0.));
#404=DIRECTION('center_axis',(0.,0.,-1.));
#405=DIRECTION('ref_axis',(0.7228730900144,-0.690980821537785,0.));
#406=DIRECTION('',(0.,0.,1.));
#407=DIRECTION('center_axis',(0.,0.,1.));
#408=DIRECTION('ref_axis',(0.7228730900144,-0.690980821537785,0.));
#409=DIRECTION('center_axis',(-1.,-1.02406215764515E-9,0.));
#410=DIRECTION('ref_axis',(1.02406216839768E-9,-1.,0.));
#411=DIRECTION('',(1.02406215764515E-9,-1.,0.));
#412=DIRECTION('',(0.,0.,1.));
#413=DIRECTION('',(-1.02406215764515E-9,1.,0.));
#414=DIRECTION('center_axis',(0.,0.,1.));
#415=DIRECTION('ref_axis',(-1.,8.74191357972564E-16,0.));
#416=DIRECTION('center_axis',(0.,0.,1.));
#417=DIRECTION('ref_axis',(-1.,8.74191357972564E-16,0.));
#418=DIRECTION('',(0.,0.,1.));
#419=DIRECTION('center_axis',(0.,0.,-1.));
#420=DIRECTION('ref_axis',(-1.,8.74191357972564E-16,0.));
#421=DIRECTION('center_axis',(1.,2.91397119324188E-16,0.));
#422=DIRECTION('ref_axis',(-3.33066907387547E-16,1.,0.));
#423=DIRECTION('',(-2.91397119324188E-16,1.,0.));
#424=DIRECTION('',(0.,0.,1.));
#425=DIRECTION('',(2.91397119324188E-16,-1.,0.));
#426=DIRECTION('center_axis',(0.,0.,1.));
#427=DIRECTION('ref_axis',(-0.739833462692464,0.672790047102719,0.));
#428=DIRECTION('center_axis',(0.,0.,-1.));
#429=DIRECTION('ref_axis',(-0.739833462692464,0.672790047102719,0.));
#430=DIRECTION('',(0.,0.,1.));
#431=DIRECTION('center_axis',(0.,0.,1.));
#432=DIRECTION('ref_axis',(-0.739833462692464,0.672790047102719,0.));
#433=DIRECTION('center_axis',(1.,5.0485381685309E-10,0.));
#434=DIRECTION('ref_axis',(-5.04853825411544E-10,1.,0.));
#435=DIRECTION('',(-5.0485381685309E-10,1.,0.));
#436=DIRECTION('',(5.0485381685309E-10,-1.,0.));
#437=DIRECTION('center_axis',(0.,0.,1.));
#438=DIRECTION('ref_axis',(0.,1.,0.));
#439=DIRECTION('center_axis',(0.,0.,-1.));
#440=DIRECTION('ref_axis',(0.,1.,0.));
#441=DIRECTION('',(0.,0.,1.));
#442=DIRECTION('center_axis',(0.,0.,-1.));
#443=DIRECTION('ref_axis',(0.,1.,0.));
#444=DIRECTION('',(0.,0.,1.));
#445=DIRECTION('center_axis',(-4.03381503962005E-9,-1.,0.));
#446=DIRECTION('ref_axis',(1.,-4.03381505975631E-9,0.));
#447=DIRECTION('',(1.,-4.03381503962005E-9,0.));
#448=DIRECTION('',(1.,-4.03381503962005E-9,0.));
#449=DIRECTION('',(0.,0.,1.));
#450=DIRECTION('center_axis',(0.,0.,1.));
#451=DIRECTION('ref_axis',(0.985620293353565,0.168975256560338,0.));
#452=DIRECTION('center_axis',(0.,0.,1.));
#453=DIRECTION('ref_axis',(0.985620293353565,0.168975256560338,0.));
#454=DIRECTION('center_axis',(0.,0.,1.));
#455=DIRECTION('ref_axis',(0.985620293353565,0.168975256560338,0.));
#456=DIRECTION('',(0.,0.,1.));
#457=DIRECTION('center_axis',(1.02718490351418E-15,-1.,0.));
#458=DIRECTION('ref_axis',(1.,1.0547118733939E-15,0.));
#459=DIRECTION('',(1.,1.02718490351418E-15,0.));
#460=DIRECTION('',(1.,1.02718490351418E-15,0.));
#461=DIRECTION('',(0.,0.,1.));
#462=DIRECTION('center_axis',(0.,0.,1.));
#463=DIRECTION('ref_axis',(0.,-1.,0.));
#464=DIRECTION('center_axis',(0.,0.,-1.));
#465=DIRECTION('ref_axis',(0.,-1.,0.));
#466=DIRECTION('center_axis',(0.,0.,-1.));
#467=DIRECTION('ref_axis',(0.,-1.,0.));
#468=DIRECTION('',(0.,0.,1.));
#469=DIRECTION('center_axis',(-3.94898160007555E-9,1.,0.));
#470=DIRECTION('ref_axis',(-1.,-3.94898158617707E-9,0.));
#471=DIRECTION('',(-1.,-3.94898160007555E-9,0.));
#472=DIRECTION('',(-1.,-3.94898160007555E-9,0.));
#473=DIRECTION('',(0.,0.,1.));
#474=DIRECTION('center_axis',(0.,0.,1.));
#475=DIRECTION('ref_axis',(-0.985620293353565,-0.168975256560338,0.));
#476=DIRECTION('center_axis',(0.,0.,1.));
#477=DIRECTION('ref_axis',(-0.985620293353565,-0.168975256560338,0.));
#478=DIRECTION('center_axis',(0.,0.,1.));
#479=DIRECTION('ref_axis',(-0.985620293353565,-0.168975256560338,0.));
#480=DIRECTION('',(0.,0.,1.));
#481=DIRECTION('center_axis',(1.3635769644137E-15,1.,0.));
#482=DIRECTION('ref_axis',(-1.,1.38777878078145E-15,0.));
#483=DIRECTION('',(-1.,1.3635769644137E-15,0.));
#484=DIRECTION('',(-1.,1.3635769644137E-15,0.));
#485=DIRECTION('center_axis',(0.,0.,1.));
#486=DIRECTION('ref_axis',(1.,0.,0.));
#487=DIRECTION('center_axis',(0.,0.,1.));
#488=DIRECTION('ref_axis',(1.,0.,0.));
#489=CARTESIAN_POINT('',(0.,0.,0.));
#490=CARTESIAN_POINT('Origin',(3.6417293608589E-16,-1.3081,0.));
#491=CARTESIAN_POINT('',(-0.508,-1.3081,0.));
#492=CARTESIAN_POINT('',(0.508,-1.3081,0.));
#493=CARTESIAN_POINT('Origin',(3.6417293608589E-16,-1.3081,0.));
#494=CARTESIAN_POINT('',(-0.507999999999999,-1.3081,6.73));
#495=CARTESIAN_POINT('',(-0.508,-1.3081,0.));
#496=CARTESIAN_POINT('',(0.508,-1.3081,6.73));
#497=CARTESIAN_POINT('Origin',(3.6417293608589E-16,-1.3081,6.73));
#498=CARTESIAN_POINT('',(0.508,-1.3081,0.));
#499=CARTESIAN_POINT('Origin',(-0.507999993378906,-0.54610000632898,0.));
#500=CARTESIAN_POINT('',(-0.507999993378906,-0.54610000632898,0.));
#501=CARTESIAN_POINT('',(-0.507999991006347,-0.273050001230772,0.));
#502=CARTESIAN_POINT('',(-0.507999993378906,-0.54610000632898,6.73));
#503=CARTESIAN_POINT('',(-0.507999993378906,-0.54610000632898,0.));
#504=CARTESIAN_POINT('',(-0.507999991006347,-0.273050001230772,6.73));
#505=CARTESIAN_POINT('Origin',(-1.07930528369869,-2.46058414809374E-10,
0.));
#506=CARTESIAN_POINT('',(-0.507999999219665,0.546100011947203,0.));
#507=CARTESIAN_POINT('Origin',(-1.07930528369869,-2.46058414809374E-10,
0.));
#508=CARTESIAN_POINT('',(-0.507999999219665,0.546100011947203,6.73));
#509=CARTESIAN_POINT('',(-0.507999999219665,0.546100011947203,0.));
#510=CARTESIAN_POINT('Origin',(-1.07930528369869,-2.46058414809374E-10,
6.73));
#511=CARTESIAN_POINT('Origin',(-0.508,1.3081,0.));
#512=CARTESIAN_POINT('',(-0.508,1.3081,0.));
#513=CARTESIAN_POINT('',(-0.507999999330212,0.654049999502367,0.));
#514=CARTESIAN_POINT('',(-0.508,1.3081,6.73));
#515=CARTESIAN_POINT('',(-0.508,1.3081,0.));
#516=CARTESIAN_POINT('',(-0.507999999330212,0.654049999502367,6.73));
#517=CARTESIAN_POINT('Origin',(-3.22192747938153E-16,1.3081,0.));
#518=CARTESIAN_POINT('',(0.508,1.3081,0.));
#519=CARTESIAN_POINT('Origin',(-3.22192747938153E-16,1.3081,0.));
#520=CARTESIAN_POINT('',(0.508,1.3081,6.73));
#521=CARTESIAN_POINT('',(0.508,1.3081,0.));
#522=CARTESIAN_POINT('Origin',(-3.22192747938153E-16,1.3081,6.73));
#523=CARTESIAN_POINT('Origin',(0.508,0.5461,0.));
#524=CARTESIAN_POINT('',(0.508,0.5461,0.));
#525=CARTESIAN_POINT('',(0.508,0.273049999758706,0.));
#526=CARTESIAN_POINT('',(0.508,0.5461,6.73));
#527=CARTESIAN_POINT('',(0.508,0.5461,0.));
#528=CARTESIAN_POINT('',(0.508,0.273049999758706,6.73));
#529=CARTESIAN_POINT('Origin',(1.10851877616117,-2.32915686286499E-9,0.));
#530=CARTESIAN_POINT('',(0.507999999615302,-0.54610000423528,0.));
#531=CARTESIAN_POINT('Origin',(1.10851877616117,-2.32915686286499E-9,0.));
#532=CARTESIAN_POINT('',(0.507999999615302,-0.54610000423528,6.73));
#533=CARTESIAN_POINT('',(0.507999999615302,-0.54610000423528,0.));
#534=CARTESIAN_POINT('Origin',(1.10851877616117,-2.32915686286499E-9,6.73));
#535=CARTESIAN_POINT('Origin',(0.508,-1.3081,0.));
#536=CARTESIAN_POINT('',(0.507999999669801,-0.654050000111201,0.));
#537=CARTESIAN_POINT('',(0.507999999669801,-0.654050000111201,6.73));
#538=CARTESIAN_POINT('Origin',(-1.27133270686025,-1.91324905918222E-9,0.));
#539=CARTESIAN_POINT('',(-1.27133270686025,0.406399996173502,0.));
#540=CARTESIAN_POINT('',(-1.27133270686025,-0.406400000000001,0.));
#541=CARTESIAN_POINT('Origin',(-1.27133270686025,-1.91324905918222E-9,0.));
#542=CARTESIAN_POINT('',(-1.27133270686025,-0.406400000000001,6.73));
#543=CARTESIAN_POINT('',(-1.27133270686025,-0.406400000000001,0.));
#544=CARTESIAN_POINT('',(-1.27133270686025,0.406399996173502,6.73));
#545=CARTESIAN_POINT('Origin',(-1.27133270686025,-1.91324905918222E-9,6.73));
#546=CARTESIAN_POINT('',(-1.27133270686025,0.406399996173502,0.));
#547=CARTESIAN_POINT('Origin',(-2.37050138029588,0.406400000607346,0.));
#548=CARTESIAN_POINT('',(-2.37050138029588,0.406400000607347,0.));
#549=CARTESIAN_POINT('',(-2.37050138029588,0.406400000607346,0.));
#550=CARTESIAN_POINT('',(-2.37050138029588,0.406400000607347,6.73));
#551=CARTESIAN_POINT('',(-2.37050138029588,0.406400000607346,6.73));
#552=CARTESIAN_POINT('',(-2.37050138029588,0.406400000607347,0.));
#553=CARTESIAN_POINT('Origin',(4.78147908712682E-16,8.41009972774032E-9,
0.));
#554=CARTESIAN_POINT('',(2.3705013804,0.406400000000001,0.));
#555=CARTESIAN_POINT('Origin',(4.78147908712682E-16,8.41009972774032E-9,
0.));
#556=CARTESIAN_POINT('',(2.3705013804,0.406400000000001,6.73));
#557=CARTESIAN_POINT('Origin',(4.78147908712682E-16,8.41009972774032E-9,
6.73));
#558=CARTESIAN_POINT('',(2.3705013804,0.406400000000001,0.));
#559=CARTESIAN_POINT('Origin',(1.34370292397259,0.4064,0.));
#560=CARTESIAN_POINT('',(1.34370292397259,0.4064,0.));
#561=CARTESIAN_POINT('',(1.34370292397259,0.4064,0.));
#562=CARTESIAN_POINT('',(1.34370292397259,0.4064,6.73));
#563=CARTESIAN_POINT('',(1.34370292397259,0.4064,6.73));
#564=CARTESIAN_POINT('',(1.34370292397259,0.4064,0.));
#565=CARTESIAN_POINT('Origin',(1.34370292397259,-2.02740450821828E-9,0.));
#566=CARTESIAN_POINT('',(1.34370292397259,-0.406400004054809,0.));
#567=CARTESIAN_POINT('Origin',(1.34370292397259,-2.02740450821828E-9,0.));
#568=CARTESIAN_POINT('',(1.34370292397259,-0.406400004054809,6.73));
#569=CARTESIAN_POINT('Origin',(1.34370292397259,-2.02740450821828E-9,6.73));
#570=CARTESIAN_POINT('',(1.34370292397259,-0.406400004054809,0.));
#571=CARTESIAN_POINT('Origin',(2.3705013804,-0.406400000000001,0.));
#572=CARTESIAN_POINT('',(2.3705013804,-0.406400000000001,0.));
#573=CARTESIAN_POINT('',(2.3705013804,-0.406400000000001,0.));
#574=CARTESIAN_POINT('',(2.3705013804,-0.406400000000001,6.73));
#575=CARTESIAN_POINT('',(2.3705013804,-0.406400000000001,6.73));
#576=CARTESIAN_POINT('',(2.3705013804,-0.406400000000001,0.));
#577=CARTESIAN_POINT('Origin',(1.357618736674E-16,-8.41009750729427E-9,
0.));
#578=CARTESIAN_POINT('',(-2.3705013804,-0.406399999999999,0.));
#579=CARTESIAN_POINT('Origin',(1.357618736674E-16,-8.41009750729427E-9,
0.));
#580=CARTESIAN_POINT('',(-2.3705013804,-0.406399999999999,6.73));
#581=CARTESIAN_POINT('Origin',(1.357618736674E-16,-8.41009750729427E-9,
6.73));
#582=CARTESIAN_POINT('',(-2.3705013804,-0.406399999999999,0.));
#583=CARTESIAN_POINT('Origin',(-1.27133270686025,-0.406400000000001,0.));
#584=CARTESIAN_POINT('',(-1.27133270686025,-0.406400000000001,0.));
#585=CARTESIAN_POINT('',(-1.27133270686025,-0.406400000000001,6.73));
#586=CARTESIAN_POINT('Origin',(-0.00737002152571483,-4.82588364407582E-10,
6.73));
#587=CARTESIAN_POINT('Origin',(-0.00737002152571483,-4.82588364407582E-10,
0.));
#588=UNCERTAINTY_MEASURE_WITH_UNIT(LENGTH_MEASURE(0.01),#592,
'DISTANCE_ACCURACY_VALUE',
'Maximum model space distance between geometric entities at asserted c
onnectivities');
#589=UNCERTAINTY_MEASURE_WITH_UNIT(LENGTH_MEASURE(1.E-6),#592,
'DISTANCE_ACCURACY_VALUE',
'Maximum model space distance between geometric entities at asserted c
onnectivities');
#590=(
GEOMETRIC_REPRESENTATION_CONTEXT(3)
GLOBAL_UNCERTAINTY_ASSIGNED_CONTEXT((#588))
GLOBAL_UNIT_ASSIGNED_CONTEXT((#592,#594,#593))
REPRESENTATION_CONTEXT('','3D')
);
#591=(
GEOMETRIC_REPRESENTATION_CONTEXT(3)
GLOBAL_UNCERTAINTY_ASSIGNED_CONTEXT((#589))
GLOBAL_UNIT_ASSIGNED_CONTEXT((#592,#12,#593))
REPRESENTATION_CONTEXT('','3D')
);
#592=(
LENGTH_UNIT()
NAMED_UNIT(*)
SI_UNIT(.MILLI.,.METRE.)
);
#593=(
NAMED_UNIT(*)
SI_UNIT($,.STERADIAN.)
SOLID_ANGLE_UNIT()
);
#594=(
NAMED_UNIT(*)
PLANE_ANGLE_UNIT()
SI_UNIT($,.RADIAN.)
);
#595=SHAPE_DEFINITION_REPRESENTATION(#596,#597);
#596=PRODUCT_DEFINITION_SHAPE('',$,#599);
#597=SHAPE_REPRESENTATION('',(#352),#590);
#598=PRODUCT_DEFINITION_CONTEXT('part definition',#603,'design');
#599=PRODUCT_DEFINITION('Product','Product',#600,#598);
#600=PRODUCT_DEFINITION_FORMATION('',$,#605);
#601=PRODUCT_RELATED_PRODUCT_CATEGORY('Product','Product',(#605));
#602=APPLICATION_PROTOCOL_DEFINITION('international standard',
'automotive_design',2009,#603);
#603=APPLICATION_CONTEXT(
'Core Data for Automotive Mechanical Design Process');
#604=PRODUCT_CONTEXT('part definition',#603,'mechanical');
#605=PRODUCT('Product','Product',$,(#604));
#606=PRESENTATION_STYLE_ASSIGNMENT((#608));
#607=PRESENTATION_STYLE_ASSIGNMENT((#609));
#608=SURFACE_STYLE_USAGE(.BOTH.,#610);
#609=SURFACE_STYLE_USAGE(.BOTH.,#611);
#610=SURFACE_SIDE_STYLE('',(#612));
#611=SURFACE_SIDE_STYLE('',(#613));
#612=SURFACE_STYLE_FILL_AREA(#614);
#613=SURFACE_STYLE_FILL_AREA(#615);
#614=FILL_AREA_STYLE('',(#616));
#615=FILL_AREA_STYLE('',(#617));
#616=FILL_AREA_STYLE_COLOUR('',#618);
#617=FILL_AREA_STYLE_COLOUR('',#619);
#618=COLOUR_RGB('',1.,1.,1.);
#619=COLOUR_RGB('',0.329411764705882,0.329411764705882,0.329411764705882);
ENDSEC;
END-ISO-10303-21;
