ISO-10303-21;
HEADER;
/****************************************************************
 * Generated by software with PDElib inside                    *
 * PDElib Version v51a, created Fri 09/10/2010                  *
 * ITI Transcendata (http://www.transcendata.com/)              *
 ****************************************************************/
FILE_DESCRIPTION((''),'2;1');
FILE_NAME('BOSSARD_BN651-1577123_v.stp','2015-12-04T17:54:47',(''),(''),'Mechanical Desktop 2011','Mechanical Desktop 2011',', , ');
FILE_SCHEMA(('AUTOMOTIVE_DESIGN { 1 2 10303 214 1 1 1 1 }'));
ENDSEC;
DATA;
#10=(NAMED_UNIT(*)PLANE_ANGLE_UNIT()SI_UNIT($,.RADIAN.));
#11=DIMENSIONAL_EXPONENTS(0.0,0.0,0.0,0.0,0.0,0.0,0.0);
#12=PLANE_ANGLE_MEASURE_WITH_UNIT(PLANE_ANGLE_MEASURE(0.0174532925),#10);
#16=(CONVERSION_BASED_UNIT('DEGREE',#12)NAMED_UNIT(#11)PLANE_ANGLE_UNIT());
#20=(NAMED_UNIT(*)SI_UNIT($,.STERADIAN.)SOLID_ANGLE_UNIT());
#24=(LENGTH_UNIT()NAMED_UNIT(*)SI_UNIT(.MILLI.,.METRE.));
#26=UNCERTAINTY_MEASURE_WITH_UNIT(LENGTH_MEASURE(0.000001),#24,'DISTANCE_ACCURACY_VALUE','');
#28=(GEOMETRIC_REPRESENTATION_CONTEXT(3)GLOBAL_UNCERTAINTY_ASSIGNED_CONTEXT((#26))GLOBAL_UNIT_ASSIGNED_CONTEXT((#16,#20,#24))REPRESENTATION_CONTEXT('','3D'));
#29=APPLICATION_CONTEXT('automotive design');
#30=APPLICATION_PROTOCOL_DEFINITION('INTERNATIONAL_STANDARD','automotive_design',1998,#29);
#31=PRODUCT_CONTEXT('3D Mechanical Parts',#29,'mechanical');
#32=PRODUCT('Product','Product','',(#31));
#33=PRODUCT_RELATED_PRODUCT_CATEGORY('part',$,(#32));
#34=PRODUCT_CATEGORY('part',$);
#35=PERSON('1','Design','Joe',$,$,$);
#36=ORGANIZATION($,'None','None');
#37=PERSON_AND_ORGANIZATION(#35,#36);
#38=PERSON_AND_ORGANIZATION_ROLE('design_owner');
#39=APPLIED_PERSON_AND_ORGANIZATION_ASSIGNMENT(#37,#38,(#32));
#40=PRODUCT_DEFINITION_FORMATION_WITH_SPECIFIED_SOURCE('None','',#32,.BOUGHT.);
#41=PERSON('2','Creator','Joe',$,$,$);
#42=ORGANIZATION($,'None','None');
#43=PERSON_AND_ORGANIZATION(#41,#42);
#44=PERSON_AND_ORGANIZATION_ROLE('creator');
#45=APPLIED_PERSON_AND_ORGANIZATION_ASSIGNMENT(#43,#44,(#40));
#46=PERSON('3','Supplier','Joe',$,$,$);
#47=ORGANIZATION($,'None','None');
#48=PERSON_AND_ORGANIZATION(#46,#47);
#49=PERSON_AND_ORGANIZATION_ROLE('design_supplier');
#50=APPLIED_PERSON_AND_ORGANIZATION_ASSIGNMENT(#48,#49,(#40));
#51=PRODUCT_DEFINITION_CONTEXT('part definition',#29,'design');
#52=PRODUCT_DEFINITION('None','',#40,#51);
#53=PERSON('4','Creator','Joe',$,$,$);
#54=ORGANIZATION($,'None','None');
#55=PERSON_AND_ORGANIZATION(#53,#54);
#56=PERSON_AND_ORGANIZATION_ROLE('creator');
#57=APPLIED_PERSON_AND_ORGANIZATION_ASSIGNMENT(#55,#56,(#52));
#58=CARTESIAN_POINT('NONE',(0.0,0.0,0.0));
#59=DIRECTION('NONE',(0.0,0.0,1.0));
#60=DIRECTION('NONE',(1.0,0.0,0.0));
#61=AXIS2_PLACEMENT_3D('NONE',#58,#59,#60);
#62=SHAPE_REPRESENTATION('SR1',(#61),#28);
#63=PRODUCT_DEFINITION_SHAPE('PDS1','Test Part',#52);
#64=SHAPE_DEFINITION_REPRESENTATION(#63,#62);
#65=CARTESIAN_POINT('',(0.0,0.0,-0.295036371071086));
#66=DIRECTION('',(0.0,0.0,1.0));
#67=DIRECTION('',(1.0,0.0,0.0));
#68=AXIS2_PLACEMENT_3D('',#65,#66,#67);
#69=CONICAL_SURFACE('',#68,0.733040569872301,36.24292819449439);
#70=CARTESIAN_POINT('',(0.919348241871919,0.0,-0.040878989260589));
#71=VERTEX_POINT('',#70);
#72=CARTESIAN_POINT('',(0.69275,0.0,-0.35));
#73=VERTEX_POINT('',#72);
#74=CARTESIAN_POINT('',(0.919348241871919,0.0,-0.040878989260589));
#75=DIRECTION('',(-0.591210107394112,0.0,-0.806517581280807));
#76=VECTOR('',#75,0.383278700817042);
#77=LINE('',#74,#76);
#78=EDGE_CURVE('',#71,#73,#77,.T.);
#79=ORIENTED_EDGE('',*,*,#78,.F.);
#80=CARTESIAN_POINT('',(-0.919348241871919,0.0,-0.040878989260589));
#81=VERTEX_POINT('',#80);
#82=CARTESIAN_POINT('',(-9.076959E-018,0.0,-0.040878989260589));
#83=DIRECTION('',(0.0,0.0,-1.0));
#84=DIRECTION('',(-1.0,0.0,0.0));
#85=AXIS2_PLACEMENT_3D('',#82,#83,#84);
#86=CIRCLE('',#85,0.919348241871919);
#87=EDGE_CURVE('',#71,#81,#86,.T.);
#88=ORIENTED_EDGE('',*,*,#87,.T.);
#89=CARTESIAN_POINT('',(-0.69275,0.0,-0.35));
#90=VERTEX_POINT('',#89);
#91=CARTESIAN_POINT('',(-0.919348241871919,-1.125877E-016,-0.040878989260589));
#92=DIRECTION('',(0.591210107394112,7.240236E-017,-0.806517581280807));
#93=VECTOR('',#92,0.383278700817042);
#94=LINE('',#91,#93);
#95=EDGE_CURVE('',#81,#90,#94,.T.);
#96=ORIENTED_EDGE('',*,*,#95,.T.);
#97=CARTESIAN_POINT('',(-7.771561E-017,0.0,-0.35));
#98=DIRECTION('',(0.0,0.0,-1.0));
#99=DIRECTION('',(-1.0,0.0,0.0));
#100=AXIS2_PLACEMENT_3D('',#97,#98,#99);
#101=CIRCLE('',#100,0.69275);
#102=EDGE_CURVE('',#73,#90,#101,.T.);
#103=ORIENTED_EDGE('',*,*,#102,.F.);
#104=EDGE_LOOP('',(#79,#88,#96,#103));
#105=FACE_OUTER_BOUND('',#104,.T.);
#106=ADVANCED_FACE('',(#105),#69,.T.);
#107=CARTESIAN_POINT('',(0.0,0.0,16.145078454142052));
#108=DIRECTION('',(0.0,0.0,-1.0));
#109=DIRECTION('',(-1.0,0.0,0.0));
#110=AXIS2_PLACEMENT_3D('',#107,#108,#109);
#111=CONICAL_SURFACE('',#110,0.087488663525924,4.999999999999989);
#112=CARTESIAN_POINT('',(-1.5,0.0,0.0));
#113=VERTEX_POINT('',#112);
#114=CARTESIAN_POINT('',(-1.451881235060742,0.0,0.550000000000001));
#115=VERTEX_POINT('',#114);
#116=CARTESIAN_POINT('',(-1.5,0.0,0.0));
#117=DIRECTION('',(0.087155742747658,0.0,0.996194698091745));
#118=VECTOR('',#117,0.552100910648842);
#119=LINE('',#116,#118);
#120=EDGE_CURVE('',#113,#115,#119,.T.);
#121=ORIENTED_EDGE('',*,*,#120,.F.);
#122=CARTESIAN_POINT('',(1.5,1.836970E-016,-3.330669E-016));
#123=VERTEX_POINT('',#122);
#124=CARTESIAN_POINT('',(0.0,0.0,0.0));
#125=DIRECTION('',(0.0,0.0,-1.0));
#126=DIRECTION('',(-1.0,0.0,0.0));
#127=AXIS2_PLACEMENT_3D('',#124,#125,#126);
#128=CIRCLE('',#127,1.5);
#129=EDGE_CURVE('',#123,#113,#128,.T.);
#130=ORIENTED_EDGE('',*,*,#129,.F.);
#131=CARTESIAN_POINT('',(1.451881235060742,-1.778042E-016,0.550000000000001));
#132=VERTEX_POINT('',#131);
#133=CARTESIAN_POINT('',(1.5,-1.836970E-016,0.0));
#134=DIRECTION('',(-0.087155742747658,1.067350E-017,0.996194698091745));
#135=VECTOR('',#134,0.552100910648842);
#136=LINE('',#133,#135);
#137=EDGE_CURVE('',#123,#132,#136,.T.);
#138=ORIENTED_EDGE('',*,*,#137,.T.);
#139=CARTESIAN_POINT('',(1.438040027510189,-0.2,0.55));
#140=VERTEX_POINT('',#139);
#141=CARTESIAN_POINT('',(1.221245E-016,0.0,0.55));
#142=DIRECTION('',(0.0,0.0,1.0));
#143=DIRECTION('',(1.0,0.0,0.0));
#144=AXIS2_PLACEMENT_3D('',#141,#142,#143);
#145=CIRCLE('',#144,1.451881235060742);
#146=EDGE_CURVE('',#140,#132,#145,.T.);
#147=ORIENTED_EDGE('',*,*,#146,.F.);
#148=CARTESIAN_POINT('',(1.398280471031396,-0.2,1.0));
#149=VERTEX_POINT('',#148);
#150=CARTESIAN_POINT('',(1.398280471031429,-0.2,1.000000000000003));
#151=CARTESIAN_POINT('',(1.4041475903984,-0.2,0.933614154348773));
#152=CARTESIAN_POINT('',(1.410013975291592,-0.2,0.867228243781636));
#153=CARTESIAN_POINT('',(1.415879652756918,-0.2,0.800842270712259));
#154=CARTESIAN_POINT('',(1.423267549469077,-0.2,0.717228278113451));
#155=CARTESIAN_POINT('',(1.430654324027201,-0.2,0.633614186357367));
#156=CARTESIAN_POINT('',(1.438040027510261,-0.2,0.550000000000006));
#157=B_SPLINE_CURVE_WITH_KNOTS('',3,(#150,#151,#152,#153,#154,#155,#156),.UNSPECIFIED.,.F.,.U.,(4,3,4),(0.002430665174322,0.002630598992041,0.002882418224388),.UNSPECIFIED.);
#158=EDGE_CURVE('',#149,#140,#157,.T.);
#159=ORIENTED_EDGE('',*,*,#158,.F.);
#160=CARTESIAN_POINT('',(-1.398280471031395,-0.2,1.0));
#161=VERTEX_POINT('',#160);
#162=CARTESIAN_POINT('',(2.220446E-016,0.0,1.0));
#163=DIRECTION('',(0.0,0.0,1.0));
#164=DIRECTION('',(1.0,0.0,0.0));
#165=AXIS2_PLACEMENT_3D('',#162,#163,#164);
#166=CIRCLE('',#165,1.412511336474076);
#167=EDGE_CURVE('',#161,#149,#166,.T.);
#168=ORIENTED_EDGE('',*,*,#167,.F.);
#169=CARTESIAN_POINT('',(-1.438040027510189,-0.2,0.55));
#170=VERTEX_POINT('',#169);
#171=CARTESIAN_POINT('',(-1.438040027510261,-0.2,0.550000000000007));
#172=CARTESIAN_POINT('',(-1.4306543240272,-0.2,0.633614186357367));
#173=CARTESIAN_POINT('',(-1.423267549469077,-0.2,0.717228278113451));
#174=CARTESIAN_POINT('',(-1.415879652756917,-0.2,0.800842270712259));
#175=CARTESIAN_POINT('',(-1.410013975291591,-0.2,0.867228243781636));
#176=CARTESIAN_POINT('',(-1.404147590398399,-0.2,0.933614154348773));
#177=CARTESIAN_POINT('',(-1.398280471031428,-0.2,1.000000000000003));
#178=B_SPLINE_CURVE_WITH_KNOTS('',3,(#171,#172,#173,#174,#175,#176,#177),.UNSPECIFIED.,.F.,.U.,(4,3,4),(0.002378779740163,0.002630598973454,0.002830532792233),.UNSPECIFIED.);
#179=EDGE_CURVE('',#170,#161,#178,.T.);
#180=ORIENTED_EDGE('',*,*,#179,.F.);
#181=CARTESIAN_POINT('',(1.221245E-016,0.0,0.55));
#182=DIRECTION('',(0.0,0.0,1.0));
#183=DIRECTION('',(1.0,0.0,0.0));
#184=AXIS2_PLACEMENT_3D('',#181,#182,#183);
#185=CIRCLE('',#184,1.451881235060742);
#186=EDGE_CURVE('',#115,#170,#185,.T.);
#187=ORIENTED_EDGE('',*,*,#186,.F.);
#188=EDGE_LOOP('',(#121,#130,#138,#147,#159,#168,#180,#187));
#189=FACE_OUTER_BOUND('',#188,.T.);
#190=ADVANCED_FACE('',(#189),#111,.T.);
#191=CARTESIAN_POINT('',(-2.220446E-017,0.0,-0.099999999999999));
#192=DIRECTION('',(0.0,0.0,-1.0));
#193=DIRECTION('',(-1.0,0.0,0.0));
#194=AXIS2_PLACEMENT_3D('',#191,#192,#193);
#195=TOROIDAL_SURFACE('',#194,1.0,0.099999999999999);
#196=CARTESIAN_POINT('',(-1.0,0.0,-5.551115E-017));
#197=VERTEX_POINT('',#196);
#198=CARTESIAN_POINT('',(-1.0,0.0,-0.099999999999999));
#199=DIRECTION('',(0.0,-1.0,0.0));
#200=DIRECTION('',(-1.0,0.0,0.0));
#201=AXIS2_PLACEMENT_3D('',#198,#199,#200);
#202=CIRCLE('',#201,0.099999999999999);
#203=EDGE_CURVE('',#81,#197,#202,.T.);
#204=ORIENTED_EDGE('',*,*,#203,.F.);
#205=ORIENTED_EDGE('',*,*,#87,.F.);
#206=CARTESIAN_POINT('',(1.0,-1.224647E-016,-2.775558E-016));
#207=VERTEX_POINT('',#206);
#208=CARTESIAN_POINT('',(1.0,-1.224647E-016,-0.099999999999999));
#209=DIRECTION('',(0.0,1.0,0.0));
#210=DIRECTION('',(1.0,0.0,0.0));
#211=AXIS2_PLACEMENT_3D('',#208,#209,#210);
#212=CIRCLE('',#211,0.099999999999999);
#213=EDGE_CURVE('',#71,#207,#212,.T.);
#214=ORIENTED_EDGE('',*,*,#213,.T.);
#215=CARTESIAN_POINT('',(-1.203706E-032,0.0,-5.421011E-017));
#216=DIRECTION('',(0.0,0.0,-1.0));
#217=DIRECTION('',(-1.0,0.0,0.0));
#218=AXIS2_PLACEMENT_3D('',#215,#216,#217);
#219=CIRCLE('',#218,1.0);
#220=EDGE_CURVE('',#207,#197,#219,.T.);
#221=ORIENTED_EDGE('',*,*,#220,.T.);
#222=EDGE_LOOP('',(#204,#205,#214,#221));
#223=FACE_OUTER_BOUND('',#222,.T.);
#224=ADVANCED_FACE('',(#223),#195,.F.);
#225=CARTESIAN_POINT('',(-7.771561E-017,0.0,0.910722610722608));
#226=DIRECTION('',(0.0,0.0,-1.0));
#227=DIRECTION('',(-1.0,0.0,0.0));
#228=AXIS2_PLACEMENT_3D('',#225,#226,#227);
#229=CONICAL_SURFACE('',#228,0.306428571428572,17.036560946208489);
#230=CARTESIAN_POINT('',(-0.800000000000002,0.0,-0.699999999999999));
#231=VERTEX_POINT('',#230);
#232=CARTESIAN_POINT('',(-0.8,0.0,-0.699999999999999));
#233=DIRECTION('',(0.292981871722296,0.0,0.956117996296535));
#234=VECTOR('',#233,0.366063604446002);
#235=LINE('',#232,#234);
#236=EDGE_CURVE('',#231,#90,#235,.T.);
#237=ORIENTED_EDGE('',*,*,#236,.F.);
#238=CARTESIAN_POINT('',(0.8,9.797174E-017,-0.7));
#239=VERTEX_POINT('',#238);
#240=CARTESIAN_POINT('',(-1.554312E-016,0.0,-0.699999999999999));
#241=DIRECTION('',(0.0,0.0,-1.0));
#242=DIRECTION('',(-1.0,0.0,0.0));
#243=AXIS2_PLACEMENT_3D('',#240,#241,#242);
#244=CIRCLE('',#243,0.8);
#245=EDGE_CURVE('',#239,#231,#244,.T.);
#246=ORIENTED_EDGE('',*,*,#245,.F.);
#247=CARTESIAN_POINT('',(0.8,-9.797174E-017,-0.699999999999999));
#248=DIRECTION('',(-0.292981871722296,3.587993E-017,0.956117996296535));
#249=VECTOR('',#248,0.366063604446002);
#250=LINE('',#247,#249);
#251=EDGE_CURVE('',#239,#73,#250,.T.);
#252=ORIENTED_EDGE('',*,*,#251,.T.);
#253=ORIENTED_EDGE('',*,*,#102,.T.);
#254=EDGE_LOOP('',(#237,#246,#252,#253));
#255=FACE_OUTER_BOUND('',#254,.T.);
#256=ADVANCED_FACE('',(#255),#229,.T.);
#257=CARTESIAN_POINT('',(-1.776357E-015,0.0,-8.0));
#258=DIRECTION('',(0.0,0.0,1.0));
#259=DIRECTION('',(-1.0,0.0,0.0));
#260=AXIS2_PLACEMENT_3D('',#257,#258,#259);
#261=CYLINDRICAL_SURFACE('',#260,0.8);
#262=CARTESIAN_POINT('',(-0.800000000000002,0.0,-7.7855));
#263=VERTEX_POINT('',#262);
#264=CARTESIAN_POINT('',(-0.800000000000002,0.0,-0.699999999999999));
#265=DIRECTION('',(0.0,0.0,-1.0));
#266=VECTOR('',#265,7.085500000000001);
#267=LINE('',#264,#266);
#268=EDGE_CURVE('',#231,#263,#267,.T.);
#269=ORIENTED_EDGE('',*,*,#268,.F.);
#270=CARTESIAN_POINT('',(-1.554312E-016,0.0,-0.699999999999999));
#271=DIRECTION('',(0.0,0.0,-1.0));
#272=DIRECTION('',(-1.0,0.0,0.0));
#273=AXIS2_PLACEMENT_3D('',#270,#271,#272);
#274=CIRCLE('',#273,0.8);
#275=EDGE_CURVE('',#231,#239,#274,.T.);
#276=ORIENTED_EDGE('',*,*,#275,.T.);
#277=CARTESIAN_POINT('',(0.799999999999998,0.0,-7.7855));
#278=VERTEX_POINT('',#277);
#279=CARTESIAN_POINT('',(0.799999999999998,9.797174E-017,-0.699999999999999));
#280=DIRECTION('',(0.0,0.0,-1.0));
#281=VECTOR('',#280,7.085500000000001);
#282=LINE('',#279,#281);
#283=EDGE_CURVE('',#239,#278,#282,.T.);
#284=ORIENTED_EDGE('',*,*,#283,.T.);
#285=CARTESIAN_POINT('',(-1.728728E-015,0.0,-7.7855));
#286=DIRECTION('',(0.0,0.0,-1.0));
#287=DIRECTION('',(-1.0,0.0,0.0));
#288=AXIS2_PLACEMENT_3D('',#285,#286,#287);
#289=CIRCLE('',#288,0.8);
#290=EDGE_CURVE('',#263,#278,#289,.T.);
#291=ORIENTED_EDGE('',*,*,#290,.F.);
#292=EDGE_LOOP('',(#269,#276,#284,#291));
#293=FACE_OUTER_BOUND('',#292,.T.);
#294=ADVANCED_FACE('',(#293),#261,.T.);
#295=CARTESIAN_POINT('',(-1.728728E-015,0.0,-7.585500000000002));
#296=DIRECTION('',(0.0,0.0,1.0));
#297=DIRECTION('',(1.0,0.0,0.0));
#298=AXIS2_PLACEMENT_3D('',#295,#296,#297);
#299=CONICAL_SURFACE('',#298,0.999999999999998,44.999999999999943);
#300=CARTESIAN_POINT('',(0.585499999999998,0.0,-8.0));
#301=VERTEX_POINT('',#300);
#302=CARTESIAN_POINT('',(0.799999999999998,0.0,-7.7855));
#303=DIRECTION('',(-0.707106781186547,0.0,-0.707106781186548));
#304=VECTOR('',#303,0.303348809129029);
#305=LINE('',#302,#304);
#306=EDGE_CURVE('',#278,#301,#305,.T.);
#307=ORIENTED_EDGE('',*,*,#306,.F.);
#308=CARTESIAN_POINT('',(-1.728728E-015,0.0,-7.7855));
#309=DIRECTION('',(0.0,0.0,-1.0));
#310=DIRECTION('',(-1.0,0.0,0.0));
#311=AXIS2_PLACEMENT_3D('',#308,#309,#310);
#312=CIRCLE('',#311,0.8);
#313=EDGE_CURVE('',#278,#263,#312,.T.);
#314=ORIENTED_EDGE('',*,*,#313,.T.);
#315=CARTESIAN_POINT('',(-0.585500000000002,0.0,-8.0));
#316=VERTEX_POINT('',#315);
#317=CARTESIAN_POINT('',(-0.800000000000002,-9.797174E-017,-7.7855));
#318=DIRECTION('',(0.707106781186547,8.659561E-017,-0.707106781186548));
#319=VECTOR('',#318,0.303348809129029);
#320=LINE('',#317,#319);
#321=EDGE_CURVE('',#263,#316,#320,.T.);
#322=ORIENTED_EDGE('',*,*,#321,.T.);
#323=CARTESIAN_POINT('',(-1.776357E-015,0.0,-8.0));
#324=DIRECTION('',(0.0,0.0,-1.0));
#325=DIRECTION('',(-1.0,0.0,0.0));
#326=AXIS2_PLACEMENT_3D('',#323,#324,#325);
#327=CIRCLE('',#326,0.5855);
#328=EDGE_CURVE('',#301,#316,#327,.T.);
#329=ORIENTED_EDGE('',*,*,#328,.F.);
#330=EDGE_LOOP('',(#307,#314,#322,#329));
#331=FACE_OUTER_BOUND('',#330,.T.);
#332=ADVANCED_FACE('',(#331),#299,.T.);
#333=CARTESIAN_POINT('',(-1.728728E-015,0.0,-7.585500000000002));
#334=DIRECTION('',(0.0,0.0,1.0));
#335=DIRECTION('',(1.0,0.0,0.0));
#336=AXIS2_PLACEMENT_3D('',#333,#334,#335);
#337=CONICAL_SURFACE('',#336,0.999999999999998,44.999999999999943);
#338=ORIENTED_EDGE('',*,*,#306,.T.);
#339=CARTESIAN_POINT('',(-1.776357E-015,0.0,-8.0));
#340=DIRECTION('',(0.0,0.0,-1.0));
#341=DIRECTION('',(-1.0,0.0,0.0));
#342=AXIS2_PLACEMENT_3D('',#339,#340,#341);
#343=CIRCLE('',#342,0.5855);
#344=EDGE_CURVE('',#316,#301,#343,.T.);
#345=ORIENTED_EDGE('',*,*,#344,.F.);
#346=ORIENTED_EDGE('',*,*,#321,.F.);
#347=ORIENTED_EDGE('',*,*,#290,.T.);
#348=EDGE_LOOP('',(#338,#345,#346,#347));
#349=FACE_OUTER_BOUND('',#348,.T.);
#350=ADVANCED_FACE('',(#349),#337,.T.);
#351=CARTESIAN_POINT('',(-1.776357E-015,0.0,-8.0));
#352=DIRECTION('',(0.0,0.0,1.0));
#353=DIRECTION('',(-1.0,0.0,0.0));
#354=AXIS2_PLACEMENT_3D('',#351,#352,#353);
#355=CYLINDRICAL_SURFACE('',#354,0.8);
#356=ORIENTED_EDGE('',*,*,#268,.T.);
#357=ORIENTED_EDGE('',*,*,#313,.F.);
#358=ORIENTED_EDGE('',*,*,#283,.F.);
#359=ORIENTED_EDGE('',*,*,#245,.T.);
#360=EDGE_LOOP('',(#356,#357,#358,#359));
#361=FACE_OUTER_BOUND('',#360,.T.);
#362=ADVANCED_FACE('',(#361),#355,.T.);
#363=CARTESIAN_POINT('',(-7.771561E-017,0.0,0.910722610722608));
#364=DIRECTION('',(0.0,0.0,-1.0));
#365=DIRECTION('',(-1.0,0.0,0.0));
#366=AXIS2_PLACEMENT_3D('',#363,#364,#365);
#367=CONICAL_SURFACE('',#366,0.306428571428572,17.036560946208489);
#368=ORIENTED_EDGE('',*,*,#236,.T.);
#369=CARTESIAN_POINT('',(-7.771561E-017,0.0,-0.35));
#370=DIRECTION('',(0.0,0.0,-1.0));
#371=DIRECTION('',(-1.0,0.0,0.0));
#372=AXIS2_PLACEMENT_3D('',#369,#370,#371);
#373=CIRCLE('',#372,0.69275);
#374=EDGE_CURVE('',#90,#73,#373,.T.);
#375=ORIENTED_EDGE('',*,*,#374,.T.);
#376=ORIENTED_EDGE('',*,*,#251,.F.);
#377=ORIENTED_EDGE('',*,*,#275,.F.);
#378=EDGE_LOOP('',(#368,#375,#376,#377));
#379=FACE_OUTER_BOUND('',#378,.T.);
#380=ADVANCED_FACE('',(#379),#367,.T.);
#381=CARTESIAN_POINT('',(-2.220446E-017,0.0,-0.099999999999999));
#382=DIRECTION('',(0.0,0.0,-1.0));
#383=DIRECTION('',(-1.0,0.0,0.0));
#384=AXIS2_PLACEMENT_3D('',#381,#382,#383);
#385=TOROIDAL_SURFACE('',#384,1.0,0.099999999999999);
#386=ORIENTED_EDGE('',*,*,#203,.T.);
#387=CARTESIAN_POINT('',(-1.203706E-032,0.0,-5.421011E-017));
#388=DIRECTION('',(0.0,0.0,-1.0));
#389=DIRECTION('',(-1.0,0.0,0.0));
#390=AXIS2_PLACEMENT_3D('',#387,#388,#389);
#391=CIRCLE('',#390,1.0);
#392=EDGE_CURVE('',#197,#207,#391,.T.);
#393=ORIENTED_EDGE('',*,*,#392,.T.);
#394=ORIENTED_EDGE('',*,*,#213,.F.);
#395=CARTESIAN_POINT('',(-9.076959E-018,0.0,-0.040878989260589));
#396=DIRECTION('',(0.0,0.0,-1.0));
#397=DIRECTION('',(-1.0,0.0,0.0));
#398=AXIS2_PLACEMENT_3D('',#395,#396,#397);
#399=CIRCLE('',#398,0.919348241871919);
#400=EDGE_CURVE('',#81,#71,#399,.T.);
#401=ORIENTED_EDGE('',*,*,#400,.F.);
#402=EDGE_LOOP('',(#386,#393,#394,#401));
#403=FACE_OUTER_BOUND('',#402,.T.);
#404=ADVANCED_FACE('',(#403),#385,.F.);
#405=CARTESIAN_POINT('',(0.0,0.0,16.145078454142052));
#406=DIRECTION('',(0.0,0.0,-1.0));
#407=DIRECTION('',(-1.0,0.0,0.0));
#408=AXIS2_PLACEMENT_3D('',#405,#406,#407);
#409=CONICAL_SURFACE('',#408,0.087488663525924,4.999999999999989);
#410=ORIENTED_EDGE('',*,*,#120,.T.);
#411=CARTESIAN_POINT('',(-1.438040027510189,0.2,0.55));
#412=VERTEX_POINT('',#411);
#413=CARTESIAN_POINT('',(1.221245E-016,0.0,0.55));
#414=DIRECTION('',(0.0,0.0,1.0));
#415=DIRECTION('',(1.0,0.0,0.0));
#416=AXIS2_PLACEMENT_3D('',#413,#414,#415);
#417=CIRCLE('',#416,1.451881235060742);
#418=EDGE_CURVE('',#412,#115,#417,.T.);
#419=ORIENTED_EDGE('',*,*,#418,.F.);
#420=CARTESIAN_POINT('',(-1.398280471031395,0.2,1.0));
#421=VERTEX_POINT('',#420);
#422=CARTESIAN_POINT('',(-1.398280471031428,0.2,1.000000000000004));
#423=CARTESIAN_POINT('',(-1.404147590398399,0.2,0.933614154348773));
#424=CARTESIAN_POINT('',(-1.410013975291591,0.2,0.867228243781636));
#425=CARTESIAN_POINT('',(-1.415879652756917,0.2,0.80084227071226));
#426=CARTESIAN_POINT('',(-1.423267549469077,0.2,0.717228278113452));
#427=CARTESIAN_POINT('',(-1.4306543240272,0.2,0.633614186357367));
#428=CARTESIAN_POINT('',(-1.438040027510261,0.2,0.550000000000007));
#429=B_SPLINE_CURVE_WITH_KNOTS('',3,(#422,#423,#424,#425,#426,#427,#428),.UNSPECIFIED.,.F.,.U.,(4,3,4),(0.002430665174322,0.002630598992041,0.002882418224388),.UNSPECIFIED.);
#430=EDGE_CURVE('',#421,#412,#429,.T.);
#431=ORIENTED_EDGE('',*,*,#430,.F.);
#432=CARTESIAN_POINT('',(1.398280471031396,0.2,1.0));
#433=VERTEX_POINT('',#432);
#434=CARTESIAN_POINT('',(2.220446E-016,0.0,1.0));
#435=DIRECTION('',(0.0,0.0,1.0));
#436=DIRECTION('',(1.0,0.0,0.0));
#437=AXIS2_PLACEMENT_3D('',#434,#435,#436);
#438=CIRCLE('',#437,1.412511336474076);
#439=EDGE_CURVE('',#433,#421,#438,.T.);
#440=ORIENTED_EDGE('',*,*,#439,.F.);
#441=CARTESIAN_POINT('',(1.438040027510189,0.2,0.55));
#442=VERTEX_POINT('',#441);
#443=CARTESIAN_POINT('',(1.438040027510261,0.2,0.550000000000006));
#444=CARTESIAN_POINT('',(1.430654324027201,0.2,0.633614186357367));
#445=CARTESIAN_POINT('',(1.423267549469077,0.2,0.717228278113451));
#446=CARTESIAN_POINT('',(1.415879652756918,0.2,0.800842270712259));
#447=CARTESIAN_POINT('',(1.410013975291592,0.2,0.867228243781635));
#448=CARTESIAN_POINT('',(1.4041475903984,0.2,0.933614154348772));
#449=CARTESIAN_POINT('',(1.398280471031429,0.2,1.000000000000003));
#450=B_SPLINE_CURVE_WITH_KNOTS('',3,(#443,#444,#445,#446,#447,#448,#449),.UNSPECIFIED.,.F.,.U.,(4,3,4),(0.002378779740163,0.002630598973454,0.002830532792233),.UNSPECIFIED.);
#451=EDGE_CURVE('',#442,#433,#450,.T.);
#452=ORIENTED_EDGE('',*,*,#451,.F.);
#453=CARTESIAN_POINT('',(1.221245E-016,0.0,0.55));
#454=DIRECTION('',(0.0,0.0,1.0));
#455=DIRECTION('',(1.0,0.0,0.0));
#456=AXIS2_PLACEMENT_3D('',#453,#454,#455);
#457=CIRCLE('',#456,1.451881235060742);
#458=EDGE_CURVE('',#132,#442,#457,.T.);
#459=ORIENTED_EDGE('',*,*,#458,.F.);
#460=ORIENTED_EDGE('',*,*,#137,.F.);
#461=CARTESIAN_POINT('',(0.0,0.0,0.0));
#462=DIRECTION('',(0.0,0.0,-1.0));
#463=DIRECTION('',(-1.0,0.0,0.0));
#464=AXIS2_PLACEMENT_3D('',#461,#462,#463);
#465=CIRCLE('',#464,1.5);
#466=EDGE_CURVE('',#113,#123,#465,.T.);
#467=ORIENTED_EDGE('',*,*,#466,.F.);
#468=EDGE_LOOP('',(#410,#419,#431,#440,#452,#459,#460,#467));
#469=FACE_OUTER_BOUND('',#468,.T.);
#470=ADVANCED_FACE('',(#469),#409,.T.);
#471=CARTESIAN_POINT('',(0.0,0.0,-0.295036371071086));
#472=DIRECTION('',(0.0,0.0,1.0));
#473=DIRECTION('',(1.0,0.0,0.0));
#474=AXIS2_PLACEMENT_3D('',#471,#472,#473);
#475=CONICAL_SURFACE('',#474,0.733040569872301,36.24292819449439);
#476=ORIENTED_EDGE('',*,*,#78,.T.);
#477=ORIENTED_EDGE('',*,*,#374,.F.);
#478=ORIENTED_EDGE('',*,*,#95,.F.);
#479=ORIENTED_EDGE('',*,*,#400,.T.);
#480=EDGE_LOOP('',(#476,#477,#478,#479));
#481=FACE_OUTER_BOUND('',#480,.T.);
#482=ADVANCED_FACE('',(#481),#475,.T.);
#483=CARTESIAN_POINT('',(1.538108518134536,-1.47313690329778,1.0));
#484=DIRECTION('',(0.0,0.0,-1.0));
#485=DIRECTION('',(-1.0,0.0,0.0));
#486=AXIS2_PLACEMENT_3D('',#483,#484,#485);
#487=PLANE('',#486);
#488=CARTESIAN_POINT('',(-1.398280471031395,-0.2,1.0));
#489=DIRECTION('',(1.0,0.0,0.0));
#490=VECTOR('',#489,2.796560942062791);
#491=LINE('',#488,#490);
#492=EDGE_CURVE('',#161,#149,#491,.T.);
#493=ORIENTED_EDGE('',*,*,#492,.F.);
#494=ORIENTED_EDGE('',*,*,#167,.T.);
#495=EDGE_LOOP('',(#493,#494));
#496=FACE_OUTER_BOUND('',#495,.T.);
#497=ADVANCED_FACE('',(#496),#487,.F.);
#498=CARTESIAN_POINT('',(-1.597069358566816,-0.22,0.549999999999999));
#499=DIRECTION('',(0.0,0.0,1.0));
#500=DIRECTION('',(1.0,0.0,0.0));
#501=AXIS2_PLACEMENT_3D('',#498,#499,#500);
#502=PLANE('',#501);
#503=ORIENTED_EDGE('',*,*,#418,.T.);
#504=ORIENTED_EDGE('',*,*,#186,.T.);
#505=CARTESIAN_POINT('',(1.438040027510189,-0.2,0.55));
#506=DIRECTION('',(-1.0,0.0,0.0));
#507=VECTOR('',#506,2.876080055020378);
#508=LINE('',#505,#507);
#509=EDGE_CURVE('',#140,#170,#508,.T.);
#510=ORIENTED_EDGE('',*,*,#509,.F.);
#511=ORIENTED_EDGE('',*,*,#146,.T.);
#512=ORIENTED_EDGE('',*,*,#458,.T.);
#513=CARTESIAN_POINT('',(1.438040027510189,0.2,0.55));
#514=DIRECTION('',(-1.0,0.0,0.0));
#515=VECTOR('',#514,2.876080055020378);
#516=LINE('',#513,#515);
#517=EDGE_CURVE('',#442,#412,#516,.T.);
#518=ORIENTED_EDGE('',*,*,#517,.T.);
#519=EDGE_LOOP('',(#503,#504,#510,#511,#512,#518));
#520=FACE_OUTER_BOUND('',#519,.T.);
#521=ADVANCED_FACE('',(#520),#502,.T.);
#522=CARTESIAN_POINT('',(1.581844030261287,0.2,1.022500000000004));
#523=DIRECTION('',(0.0,-1.0,0.0));
#524=DIRECTION('',(0.0,0.0,-1.0));
#525=AXIS2_PLACEMENT_3D('',#522,#523,#524);
#526=PLANE('',#525);
#527=ORIENTED_EDGE('',*,*,#430,.T.);
#528=ORIENTED_EDGE('',*,*,#517,.F.);
#529=ORIENTED_EDGE('',*,*,#451,.T.);
#530=CARTESIAN_POINT('',(1.398280471031396,0.2,1.0));
#531=DIRECTION('',(-1.0,0.0,0.0));
#532=VECTOR('',#531,2.796560942062791);
#533=LINE('',#530,#532);
#534=EDGE_CURVE('',#433,#421,#533,.T.);
#535=ORIENTED_EDGE('',*,*,#534,.T.);
#536=EDGE_LOOP('',(#527,#528,#529,#535));
#537=FACE_OUTER_BOUND('',#536,.T.);
#538=ADVANCED_FACE('',(#537),#526,.T.);
#539=CARTESIAN_POINT('',(1.538108518134536,0.139374433176296,1.0));
#540=DIRECTION('',(0.0,0.0,-1.0));
#541=DIRECTION('',(-1.0,0.0,0.0));
#542=AXIS2_PLACEMENT_3D('',#539,#540,#541);
#543=PLANE('',#542);
#544=ORIENTED_EDGE('',*,*,#534,.F.);
#545=ORIENTED_EDGE('',*,*,#439,.T.);
#546=EDGE_LOOP('',(#544,#545));
#547=FACE_OUTER_BOUND('',#546,.T.);
#548=ADVANCED_FACE('',(#547),#543,.F.);
#549=CARTESIAN_POINT('',(-1.581844030261287,-0.2,1.022500000000003));
#550=DIRECTION('',(0.0,1.0,0.0));
#551=DIRECTION('',(0.0,0.0,1.0));
#552=AXIS2_PLACEMENT_3D('',#549,#550,#551);
#553=PLANE('',#552);
#554=ORIENTED_EDGE('',*,*,#179,.T.);
#555=ORIENTED_EDGE('',*,*,#492,.T.);
#556=ORIENTED_EDGE('',*,*,#158,.T.);
#557=ORIENTED_EDGE('',*,*,#509,.T.);
#558=EDGE_LOOP('',(#554,#555,#556,#557));
#559=FACE_OUTER_BOUND('',#558,.T.);
#560=ADVANCED_FACE('',(#559),#553,.T.);
#561=CARTESIAN_POINT('',(-0.644050000000002,-0.64405,-8.0));
#562=DIRECTION('',(0.0,0.0,1.0));
#563=DIRECTION('',(1.0,0.0,0.0));
#564=AXIS2_PLACEMENT_3D('',#561,#562,#563);
#565=PLANE('',#564);
#566=ORIENTED_EDGE('',*,*,#344,.T.);
#567=ORIENTED_EDGE('',*,*,#328,.T.);
#568=EDGE_LOOP('',(#566,#567));
#569=FACE_OUTER_BOUND('',#568,.T.);
#570=ADVANCED_FACE('',(#569),#565,.F.);
#571=CARTESIAN_POINT('',(-1.65,-1.65,0.0));
#572=DIRECTION('',(0.0,0.0,1.0));
#573=DIRECTION('',(1.0,0.0,0.0));
#574=AXIS2_PLACEMENT_3D('',#571,#572,#573);
#575=PLANE('',#574);
#576=ORIENTED_EDGE('',*,*,#129,.T.);
#577=ORIENTED_EDGE('',*,*,#466,.T.);
#578=EDGE_LOOP('',(#576,#577));
#579=FACE_OUTER_BOUND('',#578,.T.);
#580=ORIENTED_EDGE('',*,*,#220,.F.);
#581=ORIENTED_EDGE('',*,*,#392,.F.);
#582=EDGE_LOOP('',(#580,#581));
#583=FACE_BOUND('',#582,.T.);
#584=ADVANCED_FACE('',(#579,#583),#575,.F.);
#585=CLOSED_SHELL('',(#106,#190,#224,#256,#294,#332,#350,#362,#380,#404,#470,#482,#497,#521,#538,#548,#560,#570,#584));
#586=MANIFOLD_SOLID_BREP('224',#585);
#587=COLOUR_RGB('254',0.866,0.866,0.866);
#588=SURFACE_STYLE_USAGE(.BOTH.,#589);
#589=SURFACE_SIDE_STYLE('NONE',(#590));
#590=SURFACE_STYLE_FILL_AREA(#591);
#591=FILL_AREA_STYLE('NONE',(#592));
#592=FILL_AREA_STYLE_COLOUR('NONE',#587);
#593=PRESENTATION_STYLE_ASSIGNMENT((#588));
#594=STYLED_ITEM('NONE',(#593),#586);
#595=MECHANICAL_DESIGN_GEOMETRIC_PRESENTATION_REPRESENTATION('NONE',(#594),#28);
#596=PRESENTATION_LAYER_ASSIGNMENT('3D','None',(#586));
#597=ADVANCED_BREP_SHAPE_REPRESENTATION('ABSR1',(#586),#28);
#598=SHAPE_REPRESENTATION_RELATIONSHIP('SRRPL1','',#597,#62);
ENDSEC;
END-ISO-10303-21;
