ISO-10303-21;
HEADER;
/****************************************************************
 * Generated by software with PDElib inside                    *
 * PDElib Version v51a, created Fri 09/10/2010                  *
 * ITI Transcendata (http://www.transcendata.com/)              *
 ****************************************************************/
FILE_DESCRIPTION((''),'2;1');
FILE_NAME('BOSSARD_BN5687-3061616_h.stp','2013-06-26T16:18:32',(''),(''),'Mechanical Desktop 2011','Mechanical Desktop 2011',', , ');
FILE_SCHEMA(('AUTOMOTIVE_DESIGN { 1 2 10303 214 1 1 1 1 }'));
ENDSEC;
DATA;
#10=(NAMED_UNIT(*)PLANE_ANGLE_UNIT()SI_UNIT($,.RADIAN.));
#11=DIMENSIONAL_EXPONENTS(0.0,0.0,0.0,0.0,0.0,0.0,0.0);
#12=PLANE_ANGLE_MEASURE_WITH_UNIT(PLANE_ANGLE_MEASURE(0.0174532925),#10);
#16=(CONVERSION_BASED_UNIT('DEGREE',#12)NAMED_UNIT(#11)PLANE_ANGLE_UNIT());
#20=(NAMED_UNIT(*)SI_UNIT($,.STERADIAN.)SOLID_ANGLE_UNIT());
#24=(LENGTH_UNIT()NAMED_UNIT(*)SI_UNIT(.MILLI.,.METRE.));
#26=UNCERTAINTY_MEASURE_WITH_UNIT(LENGTH_MEASURE(0.000001),#24,'DISTANCE_ACCURACY_VALUE','');
#28=(GEOMETRIC_REPRESENTATION_CONTEXT(3)GLOBAL_UNCERTAINTY_ASSIGNED_CONTEXT((#26))GLOBAL_UNIT_ASSIGNED_CONTEXT((#16,#20,#24))REPRESENTATION_CONTEXT('','3D'));
#29=APPLICATION_CONTEXT('automotive design');
#30=APPLICATION_PROTOCOL_DEFINITION('INTERNATIONAL_STANDARD','automotive_design',1998,#29);
#31=PRODUCT_CONTEXT('3D Mechanical Parts',#29,'mechanical');
#32=PRODUCT('Product','Product','',(#31));
#33=PRODUCT_RELATED_PRODUCT_CATEGORY('part',$,(#32));
#34=PRODUCT_CATEGORY('part',$);
#35=PERSON('1','Design','Joe',$,$,$);
#36=ORGANIZATION($,'None','None');
#37=PERSON_AND_ORGANIZATION(#35,#36);
#38=PERSON_AND_ORGANIZATION_ROLE('design_owner');
#39=APPLIED_PERSON_AND_ORGANIZATION_ASSIGNMENT(#37,#38,(#32));
#40=PRODUCT_DEFINITION_FORMATION_WITH_SPECIFIED_SOURCE('None','',#32,.BOUGHT.);
#41=PERSON('2','Creator','Joe',$,$,$);
#42=ORGANIZATION($,'None','None');
#43=PERSON_AND_ORGANIZATION(#41,#42);
#44=PERSON_AND_ORGANIZATION_ROLE('creator');
#45=APPLIED_PERSON_AND_ORGANIZATION_ASSIGNMENT(#43,#44,(#40));
#46=PERSON('3','Supplier','Joe',$,$,$);
#47=ORGANIZATION($,'None','None');
#48=PERSON_AND_ORGANIZATION(#46,#47);
#49=PERSON_AND_ORGANIZATION_ROLE('design_supplier');
#50=APPLIED_PERSON_AND_ORGANIZATION_ASSIGNMENT(#48,#49,(#40));
#51=PRODUCT_DEFINITION_CONTEXT('part definition',#29,'design');
#52=PRODUCT_DEFINITION('None','',#40,#51);
#53=PERSON('4','Creator','Joe',$,$,$);
#54=ORGANIZATION($,'None','None');
#55=PERSON_AND_ORGANIZATION(#53,#54);
#56=PERSON_AND_ORGANIZATION_ROLE('creator');
#57=APPLIED_PERSON_AND_ORGANIZATION_ASSIGNMENT(#55,#56,(#52));
#58=CARTESIAN_POINT('NONE',(0.0,0.0,0.0));
#59=DIRECTION('NONE',(0.0,0.0,1.0));
#60=DIRECTION('NONE',(1.0,0.0,0.0));
#61=AXIS2_PLACEMENT_3D('NONE',#58,#59,#60);
#62=SHAPE_REPRESENTATION('SR1',(#61),#28);
#63=PRODUCT_DEFINITION_SHAPE('PDS1','Test Part',#52);
#64=SHAPE_DEFINITION_REPRESENTATION(#63,#62);
#65=CARTESIAN_POINT('',(1.83174168128168,-1.112502E-015,0.0));
#66=DIRECTION('',(1.0,-1.224647E-016,0.0));
#67=DIRECTION('',(0.0,0.0,1.0));
#68=AXIS2_PLACEMENT_3D('',#65,#66,#67);
#69=TOROIDAL_SURFACE('',#68,3.6,0.399999999999999);
#70=CARTESIAN_POINT('',(2.15465505183237,-1.152048E-015,3.83606557377049));
#71=VERTEX_POINT('',#70);
#72=CARTESIAN_POINT('',(1.83174168128168,-6.226595E-016,4.0));
#73=VERTEX_POINT('',#72);
#74=CARTESIAN_POINT('',(1.83174168128168,-1.112502E-015,3.6));
#75=DIRECTION('',(0.0,-1.0,0.0));
#76=DIRECTION('',(0.0,0.0,1.0));
#77=AXIS2_PLACEMENT_3D('',#74,#75,#76);
#78=CIRCLE('',#77,0.399999999999999);
#79=EDGE_CURVE('',#71,#73,#78,.T.);
#80=ORIENTED_EDGE('',*,*,#79,.F.);
#81=CARTESIAN_POINT('',(2.15465505183237,-6.822650E-016,-3.83606557377049));
#82=VERTEX_POINT('',#81);
#83=CARTESIAN_POINT('',(2.15465505183237,-1.022138E-015,0.0));
#84=DIRECTION('',(1.0,0.0,0.0));
#85=DIRECTION('',(0.0,-1.0,0.0));
#86=AXIS2_PLACEMENT_3D('',#83,#84,#85);
#87=CIRCLE('',#86,3.83606557377049);
#88=EDGE_CURVE('',#82,#71,#87,.T.);
#89=ORIENTED_EDGE('',*,*,#88,.F.);
#90=CARTESIAN_POINT('',(1.83174168128168,-6.226434E-016,-4.0));
#91=VERTEX_POINT('',#90);
#92=CARTESIAN_POINT('',(1.83174168128168,-6.716292E-016,-3.6));
#93=DIRECTION('',(0.0,1.0,0.0));
#94=DIRECTION('',(0.0,0.0,-1.0));
#95=AXIS2_PLACEMENT_3D('',#92,#93,#94);
#96=CIRCLE('',#95,0.399999999999999);
#97=EDGE_CURVE('',#82,#91,#96,.T.);
#98=ORIENTED_EDGE('',*,*,#97,.T.);
#99=CARTESIAN_POINT('',(1.83174168128168,4.0,-4.898587E-016));
#100=VERTEX_POINT('',#99);
#101=CARTESIAN_POINT('',(1.83174168128168,-2.243237E-016,0.0));
#102=DIRECTION('',(-1.0,0.0,0.0));
#103=DIRECTION('',(0.0,-1.0,0.0));
#104=AXIS2_PLACEMENT_3D('',#101,#102,#103);
#105=CIRCLE('',#104,4.0);
#106=EDGE_CURVE('',#100,#91,#105,.T.);
#107=ORIENTED_EDGE('',*,*,#106,.F.);
#108=CARTESIAN_POINT('',(1.83174168128168,-2.243237E-016,0.0));
#109=DIRECTION('',(-1.0,0.0,0.0));
#110=DIRECTION('',(0.0,-1.0,0.0));
#111=AXIS2_PLACEMENT_3D('',#108,#109,#110);
#112=CIRCLE('',#111,4.0);
#113=EDGE_CURVE('',#73,#100,#112,.T.);
#114=ORIENTED_EDGE('',*,*,#113,.F.);
#115=EDGE_LOOP('',(#80,#89,#98,#107,#114));
#116=FACE_OUTER_BOUND('',#115,.T.);
#117=ADVANCED_FACE('',(#116),#69,.T.);
#118=CARTESIAN_POINT('',(1.923328765345764,-2.355398E-016,0.0));
#119=DIRECTION('',(-1.0,1.224647E-016,0.0));
#120=DIRECTION('',(0.0,-1.0,0.0));
#121=AXIS2_PLACEMENT_3D('',#118,#119,#120);
#122=CYLINDRICAL_SURFACE('',#121,4.0);
#123=CARTESIAN_POINT('',(-4.440892E-016,-4.0,0.0));
#124=VERTEX_POINT('',#123);
#125=CARTESIAN_POINT('',(1.831741681281679,-4.0,0.0));
#126=VERTEX_POINT('',#125);
#127=CARTESIAN_POINT('',(-4.440892E-016,-4.0,0.0));
#128=DIRECTION('',(1.0,0.0,0.0));
#129=VECTOR('',#128,1.83174168128168);
#130=LINE('',#127,#129);
#131=EDGE_CURVE('',#124,#126,#130,.T.);
#132=ORIENTED_EDGE('',*,*,#131,.F.);
#133=CARTESIAN_POINT('',(4.898587E-016,4.0,4.898425E-016));
#134=VERTEX_POINT('',#133);
#135=CARTESIAN_POINT('',(0.0,0.0,0.0));
#136=DIRECTION('',(1.0,0.0,0.0));
#137=DIRECTION('',(0.0,-1.0,0.0));
#138=AXIS2_PLACEMENT_3D('',#135,#136,#137);
#139=CIRCLE('',#138,4.0);
#140=EDGE_CURVE('',#124,#134,#139,.T.);
#141=ORIENTED_EDGE('',*,*,#140,.T.);
#142=CARTESIAN_POINT('',(4.440892E-016,4.0,-4.898587E-016));
#143=DIRECTION('',(1.0,0.0,0.0));
#144=VECTOR('',#143,1.83174168128168);
#145=LINE('',#142,#144);
#146=EDGE_CURVE('',#134,#100,#145,.T.);
#147=ORIENTED_EDGE('',*,*,#146,.T.);
#148=ORIENTED_EDGE('',*,*,#106,.T.);
#149=CARTESIAN_POINT('',(1.83174168128168,-2.243237E-016,0.0));
#150=DIRECTION('',(-1.0,0.0,0.0));
#151=DIRECTION('',(0.0,-1.0,0.0));
#152=AXIS2_PLACEMENT_3D('',#149,#150,#151);
#153=CIRCLE('',#152,4.0);
#154=EDGE_CURVE('',#91,#126,#153,.T.);
#155=ORIENTED_EDGE('',*,*,#154,.T.);
#156=EDGE_LOOP('',(#132,#141,#147,#148,#155));
#157=FACE_OUTER_BOUND('',#156,.T.);
#158=ADVANCED_FACE('',(#157),#122,.T.);
#159=CARTESIAN_POINT('',(1.029647177682104,1.206172E-015,-2.1138662884624));
#160=DIRECTION('',(1.0,-1.224647E-016,0.0));
#161=DIRECTION('',(8.906522E-017,0.727272727272727,0.686348585024614));
#162=AXIS2_PLACEMENT_3D('',#159,#160,#161);
#163=CYLINDRICAL_SURFACE('',#162,0.691250000000001);
#164=CARTESIAN_POINT('',(1.439999999999997,-0.502727272727272,-1.63942782906414));
#165=VERTEX_POINT('',#164);
#166=CARTESIAN_POINT('',(1.439999999999997,0.502727272727274,-1.63942782906414));
#167=VERTEX_POINT('',#166);
#168=CARTESIAN_POINT('',(1.439999999999997,1.155918E-015,-2.1138662884624));
#169=DIRECTION('',(-1.0,6.477471E-017,6.112979E-017));
#170=DIRECTION('',(8.906522E-017,0.727272727272727,0.686348585024614));
#171=AXIS2_PLACEMENT_3D('',#168,#169,#170);
#172=CIRCLE('',#171,0.691250000000001);
#173=EDGE_CURVE('',#165,#167,#172,.T.);
#174=ORIENTED_EDGE('',*,*,#173,.F.);
#175=CARTESIAN_POINT('',(2.94975987076172,-0.502727272727272,-1.63942782906414));
#176=VERTEX_POINT('',#175);
#177=CARTESIAN_POINT('',(2.94975987076172,-0.502727272727272,-1.63942782906414));
#178=DIRECTION('',(-1.0,0.0,0.0));
#179=VECTOR('',#178,1.509759870761723);
#180=LINE('',#177,#179);
#181=EDGE_CURVE('',#176,#165,#180,.T.);
#182=ORIENTED_EDGE('',*,*,#181,.F.);
#183=CARTESIAN_POINT('',(2.94975987076172,0.502727272727274,-1.63942782906414));
#184=VERTEX_POINT('',#183);
#185=CARTESIAN_POINT('',(3.293669435640164,0.685006376389028,-2.206563790081244));
#186=CARTESIAN_POINT('',(3.235615783274149,0.699878800758815,-2.096661092082353));
#187=CARTESIAN_POINT('',(3.172477913743024,0.686890709805882,-1.985051697410077));
#188=CARTESIAN_POINT('',(3.072792776917185,0.630429696493238,-1.821884502521925));
#189=CARTESIAN_POINT('',(3.029047804041986,0.595141569894637,-1.754068480832938));
#190=CARTESIAN_POINT('',(2.945999713959214,0.502343892444304,-1.632931136136783));
#191=CARTESIAN_POINT('',(2.906741612442528,0.444821220652259,-1.579589008508875));
#192=CARTESIAN_POINT('',(2.848910732504464,0.3320014479617,-1.504459533306992));
#193=CARTESIAN_POINT('',(2.824152464808146,0.27041453142331,-1.473933226259488));
#194=CARTESIAN_POINT('',(2.790083819191795,0.137868276641736,-1.432961965277337));
#195=CARTESIAN_POINT('',(2.781081115447795,0.066799388557664,-1.422616288462399));
#196=CARTESIAN_POINT('',(2.781081115447795,-0.066799388557663,-1.422616288462399));
#197=CARTESIAN_POINT('',(2.790083819191795,-0.137868276641734,-1.432961965277337));
#198=CARTESIAN_POINT('',(2.824152464808145,-0.270414531423309,-1.473933226259489));
#199=CARTESIAN_POINT('',(2.848910732504464,-0.332001447961699,-1.504459533306992));
#200=CARTESIAN_POINT('',(2.906741612442528,-0.444821220652258,-1.579589008508876));
#201=CARTESIAN_POINT('',(2.945999713959214,-0.502343892444302,-1.632931136136784));
#202=CARTESIAN_POINT('',(3.029047804041986,-0.595141569894635,-1.754068480832939));
#203=CARTESIAN_POINT('',(3.072792776917185,-0.630429696493236,-1.821884502521926));
#204=CARTESIAN_POINT('',(3.113076781358747,-0.653246294669104,-1.887822396704438));
#205=CARTESIAN_POINT('',(3.172477913743024,-0.68689070980588,-1.985051697410077));
#206=CARTESIAN_POINT('',(3.235615798474652,-0.69987888521358,-2.096661095481781));
#207=CARTESIAN_POINT('',(3.293669435640202,-0.685006376389226,-2.206563790081253));
#208=B_SPLINE_CURVE_WITH_KNOTS('',3,(#185,#186,#187,#188,#189,#190,#191,#192,#193,#194,#195,#196,#197,#198,#199,#200,#201,#202,#203,#204,#205,#206,#207),.UNSPECIFIED.,.F.,.U.,(4,2,2,2,2,2,2,2,2,3,4),(-2.124815563595092,-1.768408769289427,-1.526704742640061,-1.285000715990695,-1.084602550317705,-0.884204384644714,-0.683806218971723,-0.483408053298731,-0.241704026649366,0.0,0.356406794305665),.UNSPECIFIED.);
#209=EDGE_CURVE('',#184,#176,#208,.T.);
#210=ORIENTED_EDGE('',*,*,#209,.F.);
#211=CARTESIAN_POINT('',(2.94975987076172,0.502727272727274,-1.63942782906414));
#212=DIRECTION('',(-1.0,0.0,0.0));
#213=VECTOR('',#212,1.509759870761723);
#214=LINE('',#211,#213);
#215=EDGE_CURVE('',#184,#167,#214,.T.);
#216=ORIENTED_EDGE('',*,*,#215,.T.);
#217=EDGE_LOOP('',(#174,#182,#210,#216));
#218=FACE_OUTER_BOUND('',#217,.T.);
#219=ADVANCED_FACE('',(#218),#163,.T.);
#220=CARTESIAN_POINT('',(1.199247864299806,-0.789999999999998,-1.36832013797941));
#221=DIRECTION('',(1.0,-1.224647E-016,0.0));
#222=DIRECTION('',(8.906522E-017,0.727272727272726,-0.686348585024615));
#223=AXIS2_PLACEMENT_3D('',#220,#221,#222);
#224=CYLINDRICAL_SURFACE('',#223,0.395000000000001);
#225=CARTESIAN_POINT('',(1.439999999999997,-1.16842251127708,-1.25508850388915));
#226=VERTEX_POINT('',#225);
#227=CARTESIAN_POINT('',(1.439999999999997,-0.789999999999998,-1.36832013797941));
#228=DIRECTION('',(1.0,-6.477471E-017,6.112979E-017));
#229=DIRECTION('',(8.906522E-017,0.727272727272726,-0.686348585024615));
#230=AXIS2_PLACEMENT_3D('',#227,#228,#229);
#231=CIRCLE('',#230,0.395000000000001);
#232=EDGE_CURVE('',#226,#165,#231,.T.);
#233=ORIENTED_EDGE('',*,*,#232,.F.);
#234=CARTESIAN_POINT('',(2.94975987076172,-1.168422511277081,-1.25508850388915));
#235=VERTEX_POINT('',#234);
#236=CARTESIAN_POINT('',(2.94975987076172,-1.168422511277081,-1.25508850388915));
#237=DIRECTION('',(-1.0,0.0,0.0));
#238=VECTOR('',#237,1.509759870761723);
#239=LINE('',#236,#238);
#240=EDGE_CURVE('',#235,#226,#239,.T.);
#241=ORIENTED_EDGE('',*,*,#240,.F.);
#242=CARTESIAN_POINT('',(3.1,-0.987499999999999,-1.71040017247427));
#243=VERTEX_POINT('',#242);
#244=CARTESIAN_POINT('',(2.842980069462897,-1.071842569167155,-1.091571576636704));
#245=CARTESIAN_POINT('',(2.818563467418297,-1.042212400168698,-1.061396016139243));
#246=CARTESIAN_POINT('',(2.792102983496397,-1.005030229742199,-1.03377529173216));
#247=CARTESIAN_POINT('',(2.742110681015689,-0.922048284371028,-0.993191464190164));
#248=CARTESIAN_POINT('',(2.718606014070074,-0.876233862071497,-0.980224870387112));
#249=CARTESIAN_POINT('',(2.683984351376065,-0.79396979581566,-0.971547477918798));
#250=CARTESIAN_POINT('',(2.669267954989815,-0.751867423626612,-0.972886233968639));
#251=CARTESIAN_POINT('',(2.649153437770194,-0.668825478225574,-0.989983243575218));
#252=CARTESIAN_POINT('',(2.643893287340188,-0.627868717640521,-1.005819964833908));
#253=CARTESIAN_POINT('',(2.643893287340188,-0.557131282359474,-1.046660242135204));
#254=CARTESIAN_POINT('',(2.649153437770194,-0.522937899144269,-1.074211476629233));
#255=CARTESIAN_POINT('',(2.669267954989815,-0.466610481795706,-1.137579406122922));
#256=CARTESIAN_POINT('',(2.683984351376065,-0.44439989895255,-1.173371751973306));
#257=CARTESIAN_POINT('',(2.718606014070075,-0.4107827081408,-1.248953219403623));
#258=CARTESIAN_POINT('',(2.74211068101569,-0.399104896625031,-1.295112969876251));
#259=CARTESIAN_POINT('',(2.792102983496398,-0.392760549573621,-1.387269356394135));
#260=CARTESIAN_POINT('',(2.818563467418298,-0.398089713367834,-1.433280422754867));
#261=CARTESIAN_POINT('',(2.875441520777998,-0.424454141010502,-1.52820279007175));
#262=CARTESIAN_POINT('',(2.910068224287396,-0.452743762069973,-1.582738421758273));
#263=CARTESIAN_POINT('',(2.973984753407772,-0.532777022358401,-1.674184913941602));
#264=CARTESIAN_POINT('',(3.003342475503121,-0.58452183995661,-1.711047267849469));
#265=CARTESIAN_POINT('',(3.048673102174295,-0.692067917610502,-1.755020894250345));
#266=CARTESIAN_POINT('',(3.067785197395351,-0.752879423196661,-1.76627904479491));
#267=CARTESIAN_POINT('',(3.093415949938572,-0.874710632848266,-1.758926502124815));
#268=CARTESIAN_POINT('',(3.099999999999991,-0.935715493262306,-1.740297971379123));
#269=CARTESIAN_POINT('',(3.099999999999991,-1.039284506737692,-1.680502373569405));
#270=CARTESIAN_POINT('',(3.093415949938572,-1.085919717805661,-1.636984880069369));
#271=CARTESIAN_POINT('',(3.067785197395351,-1.153202811366174,-1.535152228872338));
#272=CARTESIAN_POINT('',(3.048673102174295,-1.173858719788031,-1.476858844920063));
#273=CARTESIAN_POINT('',(3.003342475503121,-1.189549481055293,-1.361734396393981));
#274=CARTESIAN_POINT('',(2.973984753407772,-1.183498154926891,-1.298490892885806));
#275=CARTESIAN_POINT('',(2.910068224287396,-1.144319799753367,-1.183456810236671));
#276=CARTESIAN_POINT('',(2.875441520777998,-1.111235367831143,-1.131689463892473));
#277=CARTESIAN_POINT('',(2.842980069462897,-1.071842569167155,-1.091571576636704));
#278=B_SPLINE_CURVE_WITH_KNOTS('',3,(#244,#245,#246,#247,#248,#249,#250,#251,#252,#253,#254,#255,#256,#257,#258,#259,#260,#261,#262,#263,#264,#265,#266,#267,#268,#269,#270,#271,#272,#273,#274,#275,#276,#277),.UNSPECIFIED.,.T.,.U.,(4,2,2,2,2,2,2,2,2,2,2,2,2,2,2,2,4),(0.0,0.146499612267599,0.292999224535197,0.415520056439085,0.538040888342973,0.66056172024686,0.783082552150748,0.929582164418346,1.076081776685944,1.270850484576549,1.465619192467153,1.645005985896307,1.824392779325462,2.003779572754616,2.18316636618377,2.377935074074375,2.572703781964979),.UNSPECIFIED.);
#279=EDGE_CURVE('',#243,#235,#278,.T.);
#280=ORIENTED_EDGE('',*,*,#279,.F.);
#281=CARTESIAN_POINT('',(2.659210696380005,-0.494774190469987,-1.105895441376077));
#282=CARTESIAN_POINT('',(2.669267954989815,-0.466610481795706,-1.137579406122922));
#283=CARTESIAN_POINT('',(2.683984351376065,-0.44439989895255,-1.173371751973306));
#284=CARTESIAN_POINT('',(2.718606014070075,-0.4107827081408,-1.248953219403623));
#285=CARTESIAN_POINT('',(2.74211068101569,-0.399104896625031,-1.295112969876251));
#286=CARTESIAN_POINT('',(2.792102983496398,-0.392760549573621,-1.387269356394135));
#287=CARTESIAN_POINT('',(2.818563467418298,-0.398089713367834,-1.433280422754867));
#288=CARTESIAN_POINT('',(2.875441520777998,-0.424454141010502,-1.52820279007175));
#289=CARTESIAN_POINT('',(2.910068224287396,-0.452743762069973,-1.582738421758273));
#290=CARTESIAN_POINT('',(2.973984753407772,-0.532777022358401,-1.674184913941602));
#291=CARTESIAN_POINT('',(3.003342475503121,-0.58452183995661,-1.711047267849469));
#292=CARTESIAN_POINT('',(3.048673102174295,-0.692067917610502,-1.755020894250345));
#293=CARTESIAN_POINT('',(3.067785197395351,-0.752879423196661,-1.76627904479491));
#294=CARTESIAN_POINT('',(3.093415949938572,-0.874710632848266,-1.758926502124815));
#295=CARTESIAN_POINT('',(3.099999999999991,-0.935715493262306,-1.740297971379123));
#296=CARTESIAN_POINT('',(3.099999999999991,-1.039284506737692,-1.680502373569405));
#297=CARTESIAN_POINT('',(3.093415949938572,-1.085919717805661,-1.636984880069369));
#298=CARTESIAN_POINT('',(3.067785197395351,-1.153202811366174,-1.535152228872338));
#299=CARTESIAN_POINT('',(3.048673102174295,-1.173858719788031,-1.476858844920063));
#300=CARTESIAN_POINT('',(3.003342475503121,-1.189549481055293,-1.361734396393981));
#301=CARTESIAN_POINT('',(2.973984753407772,-1.183498154926891,-1.298490892885806));
#302=CARTESIAN_POINT('',(2.910068224287396,-1.144319799753367,-1.183456810236671));
#303=CARTESIAN_POINT('',(2.875441520777998,-1.111235367831143,-1.131689463892473));
#304=CARTESIAN_POINT('',(2.842980069462897,-1.071842569167155,-1.091571576636704));
#305=B_SPLINE_CURVE_WITH_KNOTS('',3,(#281,#282,#283,#284,#285,#286,#287,#288,#289,#290,#291,#292,#293,#294,#295,#296,#297,#298,#299,#300,#301,#302,#303,#304),.UNSPECIFIED.,.F.,.U.,(4,2,2,2,2,2,2,2,2,2,2,4),(0.0,0.122520831903888,0.269020444171486,0.415520056439084,0.610288764329688,0.805057472220293,0.984444265649447,1.163831059078601,1.343217852507755,1.52260464593691,1.717373353827514,1.912142061718118),.UNSPECIFIED.);
#306=EDGE_CURVE('',#176,#243,#305,.T.);
#307=ORIENTED_EDGE('',*,*,#306,.F.);
#308=ORIENTED_EDGE('',*,*,#181,.T.);
#309=EDGE_LOOP('',(#233,#241,#280,#307,#308));
#310=FACE_OUTER_BOUND('',#309,.T.);
#311=ADVANCED_FACE('',(#310),#224,.F.);
#312=CARTESIAN_POINT('',(1.029647177348119,-1.83066190601196,-1.0569331442312));
#313=DIRECTION('',(1.0,-1.224647E-016,0.0));
#314=DIRECTION('',(1.173250E-016,0.958031674119183,-0.286662364785466));
#315=AXIS2_PLACEMENT_3D('',#312,#313,#314);
#316=CYLINDRICAL_SURFACE('',#315,0.691250000000001);
#317=CARTESIAN_POINT('',(1.439999999999997,-1.67114979656085,-0.384339322197087));
#318=VERTEX_POINT('',#317);
#319=CARTESIAN_POINT('',(1.439999999999997,-1.83066190601196,-1.0569331442312));
#320=DIRECTION('',(-1.0,1.124011E-016,-3.363267E-017));
#321=DIRECTION('',(1.173250E-016,0.958031674119183,-0.286662364785466));
#322=AXIS2_PLACEMENT_3D('',#319,#320,#321);
#323=CIRCLE('',#322,0.691250000000001);
#324=EDGE_CURVE('',#318,#226,#323,.T.);
#325=ORIENTED_EDGE('',*,*,#324,.F.);
#326=CARTESIAN_POINT('',(2.94975987744142,-1.671149796560851,-0.384339322197087));
#327=VERTEX_POINT('',#326);
#328=CARTESIAN_POINT('',(2.94975987744142,-1.671149796560851,-0.384339322197087));
#329=DIRECTION('',(-1.0,0.0,0.0));
#330=VECTOR('',#329,1.509759877441423);
#331=LINE('',#328,#330);
#332=EDGE_CURVE('',#327,#318,#331,.T.);
#333=ORIENTED_EDGE('',*,*,#332,.F.);
#334=CARTESIAN_POINT('',(3.293669435640163,-1.568437109086715,-1.696514818747845));
#335=CARTESIAN_POINT('',(3.235615783274148,-1.465822368490333,-1.654443367068497));
#336=CARTESIAN_POINT('',(3.172477913743022,-1.375659842879603,-1.587390653020456));
#337=CARTESIAN_POINT('',(3.072792776917185,-1.26258341369854,-1.456910383724219));
#338=CARTESIAN_POINT('',(3.029047804041984,-1.221497079431582,-1.392441958793376));
#339=CARTESIAN_POINT('',(2.945999713959213,-1.162987900302886,-1.251508140361115));
#340=CARTESIAN_POINT('',(2.906741612442526,-1.145553598581228,-1.175020981481696));
#341=CARTESIAN_POINT('',(2.848910732504463,-1.136899450828683,-1.039751454681545));
#342=CARTESIAN_POINT('',(2.824152464808144,-1.141256351711017,-0.971152466894795));
#343=CARTESIAN_POINT('',(2.790083819191794,-1.172047326266178,-0.835878412586391));
#344=CARTESIAN_POINT('',(2.781081115447794,-1.198622151367135,-0.769158111679403));
#345=CARTESIAN_POINT('',(2.781081115447794,-1.265421539924798,-0.653458176782995));
#346=CARTESIAN_POINT('',(2.790083819191793,-1.309915602907914,-0.597083552690945));
#347=CARTESIAN_POINT('',(2.824152464808143,-1.411670883134327,-0.502780759364693));
#348=CARTESIAN_POINT('',(2.848910732504463,-1.468900898790384,-0.464708078625446));
#349=CARTESIAN_POINT('',(2.906741612442526,-1.590374819233487,-0.404568027027178));
#350=CARTESIAN_POINT('',(2.945999713959212,-1.665331792747189,-0.381422995775667));
#351=CARTESIAN_POINT('',(3.029047804041983,-1.816638649326218,-0.361626522039562));
#352=CARTESIAN_POINT('',(3.072792776917183,-1.893013110191778,-0.364974118797706));
#353=CARTESIAN_POINT('',(3.113076781358744,-1.961525300713817,-0.378183312240718));
#354=CARTESIAN_POINT('',(3.172477913743022,-2.062550552685486,-0.39766104438962));
#355=CARTESIAN_POINT('',(3.23561579847465,-2.165701214420521,-0.442217653573596));
#356=CARTESIAN_POINT('',(3.293669435640199,-2.25344348547585,-0.510048971333231));
#357=B_SPLINE_CURVE_WITH_KNOTS('',3,(#334,#335,#336,#337,#338,#339,#340,#341,#342,#343,#344,#345,#346,#347,#348,#349,#350,#351,#352,#353,#354,#355,#356),.UNSPECIFIED.,.F.,.U.,(4,2,2,2,2,2,2,2,2,3,4),(-2.124815563595091,-1.768408769289426,-1.52670474264006,-1.285000715990694,-1.084602550317704,-0.884204384644713,-0.683806218971722,-0.483408053298731,-0.241704026649366,0.0,0.356406794305665),.UNSPECIFIED.);
#358=EDGE_CURVE('',#235,#327,#357,.T.);
#359=ORIENTED_EDGE('',*,*,#358,.F.);
#360=ORIENTED_EDGE('',*,*,#240,.T.);
#361=EDGE_LOOP('',(#325,#333,#359,#360));
#362=FACE_OUTER_BOUND('',#361,.T.);
#363=ADVANCED_FACE('',(#362),#316,.T.);
#364=CARTESIAN_POINT('',(1.199247864299806,-1.58,-6.106227E-016));
#365=DIRECTION('',(1.0,-1.224647E-016,0.0));
#366=DIRECTION('',(-2.825982E-017,-0.230758978635054,-0.973010942271107));
#367=AXIS2_PLACEMENT_3D('',#364,#365,#366);
#368=CYLINDRICAL_SURFACE('',#367,0.395);
#369=CARTESIAN_POINT('',(1.439999999999997,-1.67114978400435,0.384339325174981));
#370=VERTEX_POINT('',#369);
#371=CARTESIAN_POINT('',(1.439999999999997,-1.58,-6.106227E-016));
#372=DIRECTION('',(1.0,-6.521208E-018,-2.749712E-017));
#373=DIRECTION('',(-2.825982E-017,-0.230758978635054,-0.973010942271107));
#374=AXIS2_PLACEMENT_3D('',#371,#372,#373);
#375=CIRCLE('',#374,0.395);
#376=EDGE_CURVE('',#370,#318,#375,.T.);
#377=ORIENTED_EDGE('',*,*,#376,.F.);
#378=CARTESIAN_POINT('',(2.94975987076172,-1.67114978400435,0.384339325174981));
#379=VERTEX_POINT('',#378);
#380=CARTESIAN_POINT('',(2.94975987076172,-1.67114978400435,0.384339325174981));
#381=DIRECTION('',(-1.0,0.0,0.0));
#382=VECTOR('',#381,1.509759870761723);
#383=LINE('',#380,#382);
#384=EDGE_CURVE('',#379,#370,#383,.T.);
#385=ORIENTED_EDGE('',*,*,#384,.F.);
#386=CARTESIAN_POINT('',(3.1,-1.975000000000001,-4.837195E-016));
#387=VERTEX_POINT('',#386);
#388=CARTESIAN_POINT('',(2.8429800694629,-1.481250000000001,0.382457105437982));
#389=CARTESIAN_POINT('',(2.8185634674183,-1.440302113536537,0.371884406615623));
#390=CARTESIAN_POINT('',(2.7921029834964,-1.397790779315824,0.353494064661973));
#391=CARTESIAN_POINT('',(2.742110681015693,-1.321153180996064,0.301921505686086));
#392=CARTESIAN_POINT('',(2.718606014070077,-1.287016570212302,0.268728349016509));
#393=CARTESIAN_POINT('',(2.683984351376068,-1.238369694768216,0.201824274054506));
#394=CARTESIAN_POINT('',(2.669267954989818,-1.218477905422323,0.164693172154282));
#395=CARTESIAN_POINT('',(2.649153437770197,-1.191763377369848,0.084228233054014));
#396=CARTESIAN_POINT('',(2.64389328734019,-1.185,0.040840277301295));
#397=CARTESIAN_POINT('',(2.64389328734019,-1.185,-0.040840277301296));
#398=CARTESIAN_POINT('',(2.649153437770198,-1.191763377369848,-0.084228233054015));
#399=CARTESIAN_POINT('',(2.669267954989818,-1.218477905422323,-0.164693172154283));
#400=CARTESIAN_POINT('',(2.683984351376068,-1.238369694768216,-0.201824274054507));
#401=CARTESIAN_POINT('',(2.718606014070077,-1.287016570212302,-0.26872834901651));
#402=CARTESIAN_POINT('',(2.742110681015693,-1.321153180996064,-0.301921505686087));
#403=CARTESIAN_POINT('',(2.7921029834964,-1.397790779315824,-0.353494064661975));
#404=CARTESIAN_POINT('',(2.8185634674183,-1.440302113536536,-0.371884406615624));
#405=CARTESIAN_POINT('',(2.875441520778,-1.535689508841649,-0.396513326179278));
#406=CARTESIAN_POINT('',(2.910068224287398,-1.597063561823345,-0.399281611521602));
#407=CARTESIAN_POINT('',(2.973984753407774,-1.716275177285295,-0.375694021055796));
#408=CARTESIAN_POINT('',(3.003342475503123,-1.774071321011905,-0.349312871455488));
#409=CARTESIAN_POINT('',(3.048673102174296,-1.865926637398536,-0.278162049330282));
#410=CARTESIAN_POINT('',(3.067785197395353,-1.906082234562837,-0.231126815922572));
#411=CARTESIAN_POINT('',(3.093415949938573,-1.960630350653929,-0.121941622055447));
#412=CARTESIAN_POINT('',(3.099999999999992,-1.975000000000001,-0.059795597809719));
#413=CARTESIAN_POINT('',(3.099999999999992,-1.975000000000001,0.059795597809717));
#414=CARTESIAN_POINT('',(3.093415949938573,-1.96063035065393,0.121941622055446));
#415=CARTESIAN_POINT('',(3.067785197395352,-1.906082234562838,0.23112681592257));
#416=CARTESIAN_POINT('',(3.048673102174296,-1.865926637398536,0.27816204933028));
#417=CARTESIAN_POINT('',(3.003342475503123,-1.774071321011906,0.349312871455487));
#418=CARTESIAN_POINT('',(2.973984753407774,-1.716275177285296,0.375694021055794));
#419=CARTESIAN_POINT('',(2.910068224287398,-1.597063561823345,0.399281611521601));
#420=CARTESIAN_POINT('',(2.875441520778,-1.535689508841649,0.396513326179276));
#421=CARTESIAN_POINT('',(2.8429800694629,-1.481250000000001,0.382457105437982));
#422=B_SPLINE_CURVE_WITH_KNOTS('',3,(#388,#389,#390,#391,#392,#393,#394,#395,#396,#397,#398,#399,#400,#401,#402,#403,#404,#405,#406,#407,#408,#409,#410,#411,#412,#413,#414,#415,#416,#417,#418,#419,#420,#421),.UNSPECIFIED.,.T.,.U.,(4,2,2,2,2,2,2,2,2,2,2,2,2,2,2,2,4),(0.0,0.146499612267598,0.292999224535196,0.415520056439084,0.538040888342971,0.660561720246859,0.783082552150746,0.929582164418344,1.076081776685943,1.270850484576546,1.46561919246715,1.645005985896304,1.824392779325457,2.003779572754612,2.183166366183765,2.377935074074369,2.572703781964972),.UNSPECIFIED.);
#423=EDGE_CURVE('',#387,#379,#422,.T.);
#424=ORIENTED_EDGE('',*,*,#423,.F.);
#425=CARTESIAN_POINT('',(2.8429800694629,-1.481250000000001,0.382457105437982));
#426=CARTESIAN_POINT('',(2.8185634674183,-1.440302113536537,0.371884406615623));
#427=CARTESIAN_POINT('',(2.7921029834964,-1.397790779315824,0.353494064661973));
#428=CARTESIAN_POINT('',(2.742110681015693,-1.321153180996064,0.301921505686086));
#429=CARTESIAN_POINT('',(2.718606014070077,-1.287016570212302,0.268728349016509));
#430=CARTESIAN_POINT('',(2.683984351376068,-1.238369694768216,0.201824274054506));
#431=CARTESIAN_POINT('',(2.669267954989818,-1.218477905422323,0.164693172154282));
#432=CARTESIAN_POINT('',(2.649153437770197,-1.191763377369848,0.084228233054014));
#433=CARTESIAN_POINT('',(2.64389328734019,-1.185,0.040840277301295));
#434=CARTESIAN_POINT('',(2.64389328734019,-1.185,-0.040840277301296));
#435=CARTESIAN_POINT('',(2.649153437770198,-1.191763377369848,-0.084228233054015));
#436=CARTESIAN_POINT('',(2.669267954989818,-1.218477905422323,-0.164693172154283));
#437=CARTESIAN_POINT('',(2.683984351376068,-1.238369694768216,-0.201824274054507));
#438=CARTESIAN_POINT('',(2.718606014070077,-1.287016570212302,-0.26872834901651));
#439=CARTESIAN_POINT('',(2.742110681015693,-1.321153180996064,-0.301921505686087));
#440=CARTESIAN_POINT('',(2.7921029834964,-1.397790779315824,-0.353494064661975));
#441=CARTESIAN_POINT('',(2.8185634674183,-1.440302113536536,-0.371884406615624));
#442=CARTESIAN_POINT('',(2.875441520778,-1.535689508841649,-0.396513326179278));
#443=CARTESIAN_POINT('',(2.910068224287398,-1.597063561823345,-0.399281611521602));
#444=CARTESIAN_POINT('',(2.973984753407774,-1.716275177285295,-0.375694021055796));
#445=CARTESIAN_POINT('',(3.003342475503123,-1.774071321011905,-0.349312871455488));
#446=CARTESIAN_POINT('',(3.048673102174296,-1.865926637398536,-0.278162049330282));
#447=CARTESIAN_POINT('',(3.067785197395353,-1.906082234562837,-0.231126815922572));
#448=CARTESIAN_POINT('',(3.093415949938573,-1.960630350653929,-0.121941622055447));
#449=CARTESIAN_POINT('',(3.099999999999992,-1.975000000000001,-0.059795597809719));
#450=CARTESIAN_POINT('',(3.099999999999992,-1.975000000000001,0.059795597809717));
#451=CARTESIAN_POINT('',(3.093415949938573,-1.96063035065393,0.121941622055446));
#452=CARTESIAN_POINT('',(3.067785197395352,-1.906082234562838,0.23112681592257));
#453=CARTESIAN_POINT('',(3.048673102174296,-1.865926637398536,0.27816204933028));
#454=CARTESIAN_POINT('',(3.003342475503123,-1.774071321011906,0.349312871455487));
#455=CARTESIAN_POINT('',(2.973984753407774,-1.716275177285296,0.375694021055794));
#456=CARTESIAN_POINT('',(2.910068224287398,-1.597063561823345,0.399281611521601));
#457=CARTESIAN_POINT('',(2.875441520778,-1.535689508841649,0.396513326179276));
#458=CARTESIAN_POINT('',(2.8429800694629,-1.481250000000001,0.382457105437982));
#459=B_SPLINE_CURVE_WITH_KNOTS('',3,(#425,#426,#427,#428,#429,#430,#431,#432,#433,#434,#435,#436,#437,#438,#439,#440,#441,#442,#443,#444,#445,#446,#447,#448,#449,#450,#451,#452,#453,#454,#455,#456,#457,#458),.UNSPECIFIED.,.T.,.U.,(4,2,2,2,2,2,2,2,2,2,2,2,2,2,2,2,4),(0.0,0.146499612267598,0.292999224535196,0.415520056439084,0.538040888342971,0.660561720246859,0.783082552150746,0.929582164418344,1.076081776685943,1.270850484576546,1.46561919246715,1.645005985896304,1.824392779325457,2.003779572754612,2.183166366183765,2.377935074074369,2.572703781964972),.UNSPECIFIED.);
#460=EDGE_CURVE('',#327,#387,#459,.T.);
#461=ORIENTED_EDGE('',*,*,#460,.F.);
#462=ORIENTED_EDGE('',*,*,#332,.T.);
#463=EDGE_LOOP('',(#377,#385,#424,#461,#462));
#464=FACE_OUTER_BOUND('',#463,.T.);
#465=ADVANCED_FACE('',(#464),#368,.F.);
#466=CARTESIAN_POINT('',(1.029647177682104,-1.83066190601196,1.0569331442312));
#467=DIRECTION('',(1.0,-1.224647E-016,0.0));
#468=DIRECTION('',(2.825982E-017,0.230758946846456,-0.97301094981008));
#469=AXIS2_PLACEMENT_3D('',#466,#467,#468);
#470=CYLINDRICAL_SURFACE('',#469,0.69125);
#471=CARTESIAN_POINT('',(1.439999999999997,-1.16842250757776,1.25508849152596));
#472=VERTEX_POINT('',#471);
#473=CARTESIAN_POINT('',(1.439999999999997,-1.83066190601196,1.0569331442312));
#474=DIRECTION('',(-1.0,6.521206E-018,-2.749711E-017));
#475=DIRECTION('',(2.825982E-017,0.230758946846456,-0.97301094981008));
#476=AXIS2_PLACEMENT_3D('',#473,#474,#475);
#477=CIRCLE('',#476,0.69125);
#478=EDGE_CURVE('',#472,#370,#477,.T.);
#479=ORIENTED_EDGE('',*,*,#478,.F.);
#480=CARTESIAN_POINT('',(2.94975986408201,-1.16842250757776,1.25508849152596));
#481=VERTEX_POINT('',#480);
#482=CARTESIAN_POINT('',(2.94975986408201,-1.16842250757776,1.25508849152596));
#483=DIRECTION('',(-1.0,0.0,0.0));
#484=VECTOR('',#483,1.509759864082013);
#485=LINE('',#482,#484);
#486=EDGE_CURVE('',#481,#472,#485,.T.);
#487=ORIENTED_EDGE('',*,*,#486,.F.);
#488=CARTESIAN_POINT('',(3.293669435640162,-2.253443485475743,0.510048971333401));
#489=CARTESIAN_POINT('',(3.235615783274147,-2.165701169249148,0.442217725013857));
#490=CARTESIAN_POINT('',(3.172477913743022,-2.062550552685486,0.397661044389621));
#491=CARTESIAN_POINT('',(3.072792776917184,-1.893013110191779,0.364974118797707));
#492=CARTESIAN_POINT('',(3.029047804041984,-1.816638649326219,0.361626522039563));
#493=CARTESIAN_POINT('',(2.945999713959213,-1.66533179274719,0.381422995775668));
#494=CARTESIAN_POINT('',(2.906741612442527,-1.590374819233487,0.40456802702718));
#495=CARTESIAN_POINT('',(2.848910732504463,-1.468900898790384,0.464708078625447));
#496=CARTESIAN_POINT('',(2.824152464808144,-1.411670883134327,0.502780759364694));
#497=CARTESIAN_POINT('',(2.790083819191794,-1.309915602907914,0.597083552690946));
#498=CARTESIAN_POINT('',(2.781081115447794,-1.265421539924799,0.653458176782996));
#499=CARTESIAN_POINT('',(2.781081115447794,-1.198622151367135,0.769158111679404));
#500=CARTESIAN_POINT('',(2.790083819191794,-1.17204732626618,0.835878412586392));
#501=CARTESIAN_POINT('',(2.824152464808144,-1.141256351711018,0.971152466894796));
#502=CARTESIAN_POINT('',(2.848910732504463,-1.136899450828685,1.039751454681546));
#503=CARTESIAN_POINT('',(2.906741612442527,-1.145553598581229,1.175020981481697));
#504=CARTESIAN_POINT('',(2.945999713959213,-1.162987900302887,1.251508140361115));
#505=CARTESIAN_POINT('',(3.029047804041984,-1.221497079431583,1.392441958793375));
#506=CARTESIAN_POINT('',(3.072792776917185,-1.262583413698541,1.456910383724219));
#507=CARTESIAN_POINT('',(3.113076781358746,-1.308279006044712,1.509639084463718));
#508=CARTESIAN_POINT('',(3.172477913743023,-1.375659842879604,1.587390653020456));
#509=CARTESIAN_POINT('',(3.235615798474651,-1.465822329206939,1.654443441908183));
#510=CARTESIAN_POINT('',(3.2936694356402,-1.568437109086622,1.69651481874802));
#511=B_SPLINE_CURVE_WITH_KNOTS('',3,(#488,#489,#490,#491,#492,#493,#494,#495,#496,#497,#498,#499,#500,#501,#502,#503,#504,#505,#506,#507,#508,#509,#510),.UNSPECIFIED.,.F.,.U.,(4,2,2,2,2,2,2,2,2,3,4),(-2.124815563595089,-1.768408769289424,-1.526704742640059,-1.285000715990694,-1.084602550317703,-0.884204384644712,-0.683806218971721,-0.483408053298731,-0.241704026649365,0.0,0.356406794305664),.UNSPECIFIED.);
#512=EDGE_CURVE('',#379,#481,#511,.T.);
#513=ORIENTED_EDGE('',*,*,#512,.F.);
#514=ORIENTED_EDGE('',*,*,#384,.T.);
#515=EDGE_LOOP('',(#479,#487,#513,#514));
#516=FACE_OUTER_BOUND('',#515,.T.);
#517=ADVANCED_FACE('',(#516),#470,.T.);
#518=CARTESIAN_POINT('',(1.199247857286111,-0.790000000000001,1.36832013797941));
#519=DIRECTION('',(1.0,-1.224647E-016,0.0));
#520=DIRECTION('',(-1.173250E-016,-0.958031664753826,-0.286662396084687));
#521=AXIS2_PLACEMENT_3D('',#518,#519,#520);
#522=CYLINDRICAL_SURFACE('',#521,0.395);
#523=CARTESIAN_POINT('',(1.439999999999996,-0.502727272727274,1.63942782906414));
#524=VERTEX_POINT('',#523);
#525=CARTESIAN_POINT('',(1.439999999999997,-0.790000000000001,1.36832013797941));
#526=DIRECTION('',(1.0,-1.124011E-016,-3.363268E-017));
#527=DIRECTION('',(-1.173250E-016,-0.958031664753826,-0.286662396084687));
#528=AXIS2_PLACEMENT_3D('',#525,#526,#527);
#529=CIRCLE('',#528,0.395);
#530=EDGE_CURVE('',#524,#472,#529,.T.);
#531=ORIENTED_EDGE('',*,*,#530,.F.);
#532=CARTESIAN_POINT('',(2.94975987076172,-0.502727272727274,1.63942782906414));
#533=VERTEX_POINT('',#532);
#534=CARTESIAN_POINT('',(2.94975987076172,-0.502727272727274,1.63942782906414));
#535=DIRECTION('',(-1.0,0.0,0.0));
#536=VECTOR('',#535,1.509759870761724);
#537=LINE('',#534,#536);
#538=EDGE_CURVE('',#533,#524,#537,.T.);
#539=ORIENTED_EDGE('',*,*,#538,.F.);
#540=CARTESIAN_POINT('',(3.1,-0.987500000000001,1.71040017247427));
#541=VERTEX_POINT('',#540);
#542=CARTESIAN_POINT('',(2.842980069462898,-1.071842569167158,1.091571576636705));
#543=CARTESIAN_POINT('',(2.875441520777999,-1.111235367831145,1.131689463892473));
#544=CARTESIAN_POINT('',(2.910068224287397,-1.144319799753369,1.183456810236671));
#545=CARTESIAN_POINT('',(2.973984753407772,-1.183498154926893,1.298490892885805));
#546=CARTESIAN_POINT('',(3.003342475503121,-1.189549481055295,1.36173439639398));
#547=CARTESIAN_POINT('',(3.048673102174295,-1.173858719788033,1.476858844920062));
#548=CARTESIAN_POINT('',(3.067785197395351,-1.153202811366177,1.535152228872337));
#549=CARTESIAN_POINT('',(3.093415949938572,-1.085919717805664,1.636984880069368));
#550=CARTESIAN_POINT('',(3.099999999999991,-1.039284506737695,1.680502373569404));
#551=CARTESIAN_POINT('',(3.099999999999991,-0.935715493262309,1.740297971379122));
#552=CARTESIAN_POINT('',(3.093415949938572,-0.874710632848269,1.758926502124815));
#553=CARTESIAN_POINT('',(3.067785197395352,-0.752879423196664,1.766279044794909));
#554=CARTESIAN_POINT('',(3.048673102174295,-0.692067917610506,1.755020894250344));
#555=CARTESIAN_POINT('',(3.003342475503121,-0.584521839956614,1.711047267849469));
#556=CARTESIAN_POINT('',(2.973984753407773,-0.532777022358405,1.674184913941601));
#557=CARTESIAN_POINT('',(2.910068224287397,-0.452743762069977,1.582738421758273));
#558=CARTESIAN_POINT('',(2.875441520777999,-0.424454141010507,1.528202790071751));
#559=CARTESIAN_POINT('',(2.842980069462898,-0.409407430832845,1.474028682074688));
#560=CARTESIAN_POINT('',(2.818563467418299,-0.398089713367838,1.433280422754868));
#561=CARTESIAN_POINT('',(2.792102983496399,-0.392760549573625,1.387269356394136));
#562=CARTESIAN_POINT('',(2.742110681015691,-0.399104896625034,1.295112969876252));
#563=CARTESIAN_POINT('',(2.718606014070076,-0.410782708140804,1.248953219403624));
#564=CARTESIAN_POINT('',(2.683984351376067,-0.444399898952554,1.173371751973306));
#565=CARTESIAN_POINT('',(2.669267952804855,-0.466610479288289,1.137579404587649));
#566=CARTESIAN_POINT('',(2.659210696380007,-0.494774190469992,1.105895441376078));
#567=B_SPLINE_CURVE_WITH_KNOTS('',3,(#542,#543,#544,#545,#546,#547,#548,#549,#550,#551,#552,#553,#554,#555,#556,#557,#558,#559,#560,#561,#562,#563,#564,#565,#566),.UNSPECIFIED.,.F.,.U.,(4,2,2,2,2,2,2,2,3,2,2,4),(-0.415520056439084,-0.220751348548481,-0.025982640657877,0.153404152771277,0.332790946200431,0.512177739629585,0.691564533058738,0.886333240949342,1.081101948839946,1.227601561107544,1.374101173375142,1.49662200527903),.UNSPECIFIED.);
#568=EDGE_CURVE('',#541,#533,#567,.T.);
#569=ORIENTED_EDGE('',*,*,#568,.F.);
#570=CARTESIAN_POINT('',(2.842980069462898,-0.409407430832845,1.474028682074688));
#571=CARTESIAN_POINT('',(2.818563467418299,-0.398089713367838,1.433280422754868));
#572=CARTESIAN_POINT('',(2.792102983496399,-0.392760549573625,1.387269356394136));
#573=CARTESIAN_POINT('',(2.742110681015691,-0.399104896625034,1.295112969876252));
#574=CARTESIAN_POINT('',(2.718606014070076,-0.410782708140804,1.248953219403624));
#575=CARTESIAN_POINT('',(2.683984351376067,-0.444399898952554,1.173371751973306));
#576=CARTESIAN_POINT('',(2.669267954989816,-0.46661048179571,1.137579406122923));
#577=CARTESIAN_POINT('',(2.649153437770196,-0.522937899144272,1.074211476629233));
#578=CARTESIAN_POINT('',(2.643893287340189,-0.557131282359478,1.046660242135205));
#579=CARTESIAN_POINT('',(2.643893287340189,-0.627868717640524,1.005819964833909));
#580=CARTESIAN_POINT('',(2.649153437770196,-0.668825478225578,0.989983243575219));
#581=CARTESIAN_POINT('',(2.669267954989816,-0.751867423626615,0.97288623396864));
#582=CARTESIAN_POINT('',(2.683984351376067,-0.793969795815664,0.9715474779188));
#583=CARTESIAN_POINT('',(2.718606014070076,-0.8762338620715,0.980224870387114));
#584=CARTESIAN_POINT('',(2.742110681015692,-0.922048284371031,0.993191464190165));
#585=CARTESIAN_POINT('',(2.792102983496399,-1.005030229742201,1.033775291732161));
#586=CARTESIAN_POINT('',(2.818563467418299,-1.042212400168701,1.061396016139244));
#587=CARTESIAN_POINT('',(2.875441520777999,-1.111235367831145,1.131689463892473));
#588=CARTESIAN_POINT('',(2.910068224287397,-1.144319799753369,1.183456810236671));
#589=CARTESIAN_POINT('',(2.973984753407772,-1.183498154926893,1.298490892885805));
#590=CARTESIAN_POINT('',(3.003342475503121,-1.189549481055295,1.36173439639398));
#591=CARTESIAN_POINT('',(3.048673102174295,-1.173858719788033,1.476858844920062));
#592=CARTESIAN_POINT('',(3.067785197395351,-1.153202811366177,1.535152228872337));
#593=CARTESIAN_POINT('',(3.093415949938572,-1.085919717805664,1.636984880069368));
#594=CARTESIAN_POINT('',(3.099999999999991,-1.039284506737695,1.680502373569404));
#595=CARTESIAN_POINT('',(3.099999999999991,-0.935715493262309,1.740297971379122));
#596=CARTESIAN_POINT('',(3.093415949938572,-0.874710632848269,1.758926502124815));
#597=CARTESIAN_POINT('',(3.067785197395352,-0.752879423196664,1.766279044794909));
#598=CARTESIAN_POINT('',(3.048673102174295,-0.692067917610506,1.755020894250344));
#599=CARTESIAN_POINT('',(3.003342475503121,-0.584521839956614,1.711047267849469));
#600=CARTESIAN_POINT('',(2.973984753407773,-0.532777022358405,1.674184913941601));
#601=CARTESIAN_POINT('',(2.910068224287397,-0.452743762069977,1.582738421758273));
#602=CARTESIAN_POINT('',(2.875441520777999,-0.424454141010507,1.528202790071751));
#603=CARTESIAN_POINT('',(2.842980069462898,-0.409407430832845,1.474028682074688));
#604=B_SPLINE_CURVE_WITH_KNOTS('',3,(#570,#571,#572,#573,#574,#575,#576,#577,#578,#579,#580,#581,#582,#583,#584,#585,#586,#587,#588,#589,#590,#591,#592,#593,#594,#595,#596,#597,#598,#599,#600,#601,#602,#603),.UNSPECIFIED.,.T.,.U.,(4,2,2,2,2,2,2,2,2,2,2,2,2,2,2,2,4),(0.0,0.146499612267598,0.292999224535196,0.415520056439084,0.538040888342972,0.66056172024686,0.783082552150747,0.929582164418345,1.076081776685943,1.270850484576547,1.465619192467151,1.645005985896305,1.824392779325459,2.003779572754612,2.183166366183766,2.37793507407437,2.572703781964973),.UNSPECIFIED.);
#605=EDGE_CURVE('',#481,#541,#604,.T.);
#606=ORIENTED_EDGE('',*,*,#605,.F.);
#607=ORIENTED_EDGE('',*,*,#486,.T.);
#608=EDGE_LOOP('',(#531,#539,#569,#606,#607));
#609=FACE_OUTER_BOUND('',#608,.T.);
#610=ADVANCED_FACE('',(#609),#522,.F.);
#611=CARTESIAN_POINT('',(1.923328765345764,-2.355398E-016,0.0));
#612=DIRECTION('',(-1.0,1.224647E-016,0.0));
#613=DIRECTION('',(0.0,-1.0,0.0));
#614=AXIS2_PLACEMENT_3D('',#611,#612,#613);
#615=CYLINDRICAL_SURFACE('',#614,4.0);
#616=ORIENTED_EDGE('',*,*,#131,.T.);
#617=CARTESIAN_POINT('',(1.83174168128168,-2.243237E-016,0.0));
#618=DIRECTION('',(-1.0,0.0,0.0));
#619=DIRECTION('',(0.0,-1.0,0.0));
#620=AXIS2_PLACEMENT_3D('',#617,#618,#619);
#621=CIRCLE('',#620,4.0);
#622=EDGE_CURVE('',#126,#73,#621,.T.);
#623=ORIENTED_EDGE('',*,*,#622,.T.);
#624=ORIENTED_EDGE('',*,*,#113,.T.);
#625=ORIENTED_EDGE('',*,*,#146,.F.);
#626=CARTESIAN_POINT('',(0.0,0.0,0.0));
#627=DIRECTION('',(1.0,0.0,0.0));
#628=DIRECTION('',(0.0,-1.0,0.0));
#629=AXIS2_PLACEMENT_3D('',#626,#627,#628);
#630=CIRCLE('',#629,4.0);
#631=EDGE_CURVE('',#134,#124,#630,.T.);
#632=ORIENTED_EDGE('',*,*,#631,.T.);
#633=EDGE_LOOP('',(#616,#623,#624,#625,#632));
#634=FACE_OUTER_BOUND('',#633,.T.);
#635=ADVANCED_FACE('',(#634),#615,.T.);
#636=CARTESIAN_POINT('',(1.83174168128168,-1.112502E-015,0.0));
#637=DIRECTION('',(1.0,-1.224647E-016,0.0));
#638=DIRECTION('',(0.0,0.0,1.0));
#639=AXIS2_PLACEMENT_3D('',#636,#637,#638);
#640=TOROIDAL_SURFACE('',#639,3.6,0.399999999999999);
#641=ORIENTED_EDGE('',*,*,#79,.T.);
#642=ORIENTED_EDGE('',*,*,#622,.F.);
#643=ORIENTED_EDGE('',*,*,#154,.F.);
#644=ORIENTED_EDGE('',*,*,#97,.F.);
#645=CARTESIAN_POINT('',(2.15465505183237,-3.836065573770491,-9.395341E-016));
#646=VERTEX_POINT('',#645);
#647=CARTESIAN_POINT('',(2.15465505183237,-1.022138E-015,0.0));
#648=DIRECTION('',(1.0,0.0,0.0));
#649=DIRECTION('',(0.0,-1.0,0.0));
#650=AXIS2_PLACEMENT_3D('',#647,#648,#649);
#651=CIRCLE('',#650,3.83606557377049);
#652=EDGE_CURVE('',#646,#82,#651,.T.);
#653=ORIENTED_EDGE('',*,*,#652,.F.);
#654=CARTESIAN_POINT('',(2.15465505183237,-1.022138E-015,0.0));
#655=DIRECTION('',(1.0,0.0,0.0));
#656=DIRECTION('',(0.0,-1.0,0.0));
#657=AXIS2_PLACEMENT_3D('',#654,#655,#656);
#658=CIRCLE('',#657,3.83606557377049);
#659=EDGE_CURVE('',#71,#646,#658,.T.);
#660=ORIENTED_EDGE('',*,*,#659,.F.);
#661=EDGE_LOOP('',(#641,#642,#643,#644,#653,#660));
#662=FACE_OUTER_BOUND('',#661,.T.);
#663=ADVANCED_FACE('',(#662),#640,.T.);
#664=CARTESIAN_POINT('',(-3.09268721961639,3.787450E-016,0.0));
#665=DIRECTION('',(0.0,0.0,1.0));
#666=DIRECTION('',(1.0,0.0,0.0));
#667=AXIS2_PLACEMENT_3D('',#664,#665,#666);
#668=SPHERICAL_SURFACE('',#667,6.50000000000001);
#669=CARTESIAN_POINT('',(3.1,0.987499999999999,1.71040017247427));
#670=VERTEX_POINT('',#669);
#671=CARTESIAN_POINT('',(3.1,-6.016851E-016,0.0));
#672=DIRECTION('',(-1.0,0.0,0.0));
#673=DIRECTION('',(0.0,-1.0,0.0));
#674=AXIS2_PLACEMENT_3D('',#671,#672,#673);
#675=CIRCLE('',#674,1.975);
#676=EDGE_CURVE('',#541,#670,#675,.T.);
#677=ORIENTED_EDGE('',*,*,#676,.T.);
#678=CARTESIAN_POINT('',(3.100000000000001,1.975,1.249001E-015));
#679=VERTEX_POINT('',#678);
#680=CARTESIAN_POINT('',(3.1,-6.016851E-016,0.0));
#681=DIRECTION('',(-1.0,0.0,0.0));
#682=DIRECTION('',(0.0,-1.0,0.0));
#683=AXIS2_PLACEMENT_3D('',#680,#681,#682);
#684=CIRCLE('',#683,1.975);
#685=EDGE_CURVE('',#670,#679,#684,.T.);
#686=ORIENTED_EDGE('',*,*,#685,.T.);
#687=CARTESIAN_POINT('',(3.1,0.987500000000001,-1.71040017247427));
#688=VERTEX_POINT('',#687);
#689=CARTESIAN_POINT('',(3.1,-6.016851E-016,0.0));
#690=DIRECTION('',(-1.0,0.0,0.0));
#691=DIRECTION('',(0.0,-1.0,0.0));
#692=AXIS2_PLACEMENT_3D('',#689,#690,#691);
#693=CIRCLE('',#692,1.975);
#694=EDGE_CURVE('',#679,#688,#693,.T.);
#695=ORIENTED_EDGE('',*,*,#694,.T.);
#696=CARTESIAN_POINT('',(3.1,-6.016851E-016,0.0));
#697=DIRECTION('',(-1.0,0.0,0.0));
#698=DIRECTION('',(0.0,-1.0,0.0));
#699=AXIS2_PLACEMENT_3D('',#696,#697,#698);
#700=CIRCLE('',#699,1.975);
#701=EDGE_CURVE('',#688,#243,#700,.T.);
#702=ORIENTED_EDGE('',*,*,#701,.T.);
#703=CARTESIAN_POINT('',(3.1,-6.016851E-016,0.0));
#704=DIRECTION('',(-1.0,0.0,0.0));
#705=DIRECTION('',(0.0,-1.0,0.0));
#706=AXIS2_PLACEMENT_3D('',#703,#704,#705);
#707=CIRCLE('',#706,1.975);
#708=EDGE_CURVE('',#243,#387,#707,.T.);
#709=ORIENTED_EDGE('',*,*,#708,.T.);
#710=CARTESIAN_POINT('',(3.1,-6.016851E-016,0.0));
#711=DIRECTION('',(-1.0,0.0,0.0));
#712=DIRECTION('',(0.0,-1.0,0.0));
#713=AXIS2_PLACEMENT_3D('',#710,#711,#712);
#714=CIRCLE('',#713,1.975);
#715=EDGE_CURVE('',#387,#541,#714,.T.);
#716=ORIENTED_EDGE('',*,*,#715,.T.);
#717=EDGE_LOOP('',(#677,#686,#695,#702,#709,#716));
#718=FACE_OUTER_BOUND('',#717,.T.);
#719=ORIENTED_EDGE('',*,*,#652,.T.);
#720=ORIENTED_EDGE('',*,*,#88,.T.);
#721=ORIENTED_EDGE('',*,*,#659,.T.);
#722=EDGE_LOOP('',(#719,#720,#721));
#723=FACE_BOUND('',#722,.T.);
#724=ADVANCED_FACE('',(#718,#723),#668,.T.);
#725=CARTESIAN_POINT('',(-5.388446E-016,-4.4,4.4));
#726=DIRECTION('',(-1.0,0.0,0.0));
#727=DIRECTION('',(0.0,0.0,-1.0));
#728=AXIS2_PLACEMENT_3D('',#725,#726,#727);
#729=PLANE('',#728);
#730=ORIENTED_EDGE('',*,*,#631,.F.);
#731=ORIENTED_EDGE('',*,*,#140,.F.);
#732=EDGE_LOOP('',(#730,#731));
#733=FACE_OUTER_BOUND('',#732,.T.);
#734=ADVANCED_FACE('',(#733),#729,.T.);
#735=CARTESIAN_POINT('',(2.959733218350487,-5.845074E-016,0.0));
#736=DIRECTION('',(1.0,-1.224647E-016,0.0));
#737=DIRECTION('',(0.0,-1.0,0.0));
#738=AXIS2_PLACEMENT_3D('',#735,#736,#737);
#739=CONICAL_SURFACE('',#738,1.732050807568886,60.000000000000121);
#740=ORIENTED_EDGE('',*,*,#568,.T.);
#741=CARTESIAN_POINT('',(2.94975987076172,0.502727272727272,1.63942782906414));
#742=VERTEX_POINT('',#741);
#743=CARTESIAN_POINT('',(3.293669435640165,-0.685006376389028,2.206563790081246));
#744=CARTESIAN_POINT('',(3.23561578327415,-0.699878800758815,2.096661092082355));
#745=CARTESIAN_POINT('',(3.172477913743024,-0.686890709805882,1.985051697410077));
#746=CARTESIAN_POINT('',(3.072792776917186,-0.630429696493238,1.821884502521926));
#747=CARTESIAN_POINT('',(3.029047804041986,-0.595141569894637,1.754068480832939));
#748=CARTESIAN_POINT('',(2.945999713959215,-0.502343892444304,1.632931136136784));
#749=CARTESIAN_POINT('',(2.906741612442529,-0.444821220652259,1.579589008508877));
#750=CARTESIAN_POINT('',(2.848910732504465,-0.332001447961701,1.504459533306993));
#751=CARTESIAN_POINT('',(2.824152464808146,-0.270414531423311,1.47393322625949));
#752=CARTESIAN_POINT('',(2.790083819191796,-0.137868276641737,1.432961965277338));
#753=CARTESIAN_POINT('',(2.781081115447796,-0.066799388557665,1.4226162884624));
#754=CARTESIAN_POINT('',(2.781081115447796,0.066799388557662,1.4226162884624));
#755=CARTESIAN_POINT('',(2.790083819191796,0.137868276641733,1.432961965277338));
#756=CARTESIAN_POINT('',(2.824152464808146,0.270414531423308,1.47393322625949));
#757=CARTESIAN_POINT('',(2.848910732504464,0.332001447961698,1.504459533306993));
#758=CARTESIAN_POINT('',(2.906741612442528,0.444821220652257,1.579589008508876));
#759=CARTESIAN_POINT('',(2.945999713959214,0.502343892444301,1.632931136136784));
#760=CARTESIAN_POINT('',(3.029047804041986,0.595141569894635,1.75406848083294));
#761=CARTESIAN_POINT('',(3.072792776917186,0.630429696493236,1.821884502521926));
#762=CARTESIAN_POINT('',(3.113076781358747,0.653246294669104,1.887822396704438));
#763=CARTESIAN_POINT('',(3.172477913743024,0.686890709805879,1.985051697410078));
#764=CARTESIAN_POINT('',(3.235615798474652,0.699878885213579,2.09666109548178));
#765=CARTESIAN_POINT('',(3.293669435640201,0.685006376389225,2.206563790081252));
#766=B_SPLINE_CURVE_WITH_KNOTS('',3,(#743,#744,#745,#746,#747,#748,#749,#750,#751,#752,#753,#754,#755,#756,#757,#758,#759,#760,#761,#762,#763,#764,#765),.UNSPECIFIED.,.F.,.U.,(4,2,2,2,2,2,2,2,2,3,4),(-2.124815563595091,-1.768408769289426,-1.52670474264006,-1.285000715990695,-1.084602550317705,-0.884204384644713,-0.683806218971722,-0.483408053298731,-0.241704026649366,0.0,0.356406794305665),.UNSPECIFIED.);
#767=EDGE_CURVE('',#533,#742,#766,.T.);
#768=ORIENTED_EDGE('',*,*,#767,.T.);
#769=CARTESIAN_POINT('',(2.659210696380006,0.494774190469988,1.105895441376078));
#770=CARTESIAN_POINT('',(2.669267954989816,0.466610481795707,1.137579406122923));
#771=CARTESIAN_POINT('',(2.683984351376066,0.444399898952551,1.173371751973306));
#772=CARTESIAN_POINT('',(2.718606014070075,0.410782708140801,1.248953219403624));
#773=CARTESIAN_POINT('',(2.742110681015691,0.399104896625032,1.295112969876251));
#774=CARTESIAN_POINT('',(2.792102983496398,0.392760549573622,1.387269356394135));
#775=CARTESIAN_POINT('',(2.818563467418298,0.398089713367835,1.433280422754867));
#776=CARTESIAN_POINT('',(2.875441520777998,0.424454141010504,1.528202790071751));
#777=CARTESIAN_POINT('',(2.910068224287397,0.452743762069975,1.582738421758273));
#778=CARTESIAN_POINT('',(2.973984753407772,0.532777022358402,1.674184913941601));
#779=CARTESIAN_POINT('',(3.003342475503121,0.584521839956611,1.711047267849468));
#780=CARTESIAN_POINT('',(3.048673102174295,0.692067917610503,1.755020894250344));
#781=CARTESIAN_POINT('',(3.067785197395351,0.752879423196661,1.766279044794909));
#782=CARTESIAN_POINT('',(3.093415949938571,0.874710632848266,1.758926502124815));
#783=CARTESIAN_POINT('',(3.099999999999991,0.935715493262306,1.740297971379122));
#784=CARTESIAN_POINT('',(3.099999999999991,1.039284506737692,1.680502373569404));
#785=CARTESIAN_POINT('',(3.093415949938571,1.08591971780566,1.636984880069369));
#786=CARTESIAN_POINT('',(3.067785197395351,1.153202811366173,1.535152228872338));
#787=CARTESIAN_POINT('',(3.048673102174295,1.17385871978803,1.476858844920063));
#788=CARTESIAN_POINT('',(3.003342475503121,1.189549481055292,1.36173439639398));
#789=CARTESIAN_POINT('',(2.973984753407772,1.18349815492689,1.298490892885806));
#790=CARTESIAN_POINT('',(2.910068224287397,1.144319799753367,1.183456810236671));
#791=CARTESIAN_POINT('',(2.875441520777998,1.111235367831142,1.131689463892473));
#792=CARTESIAN_POINT('',(2.842980069462898,1.071842569167155,1.091571576636705));
#793=B_SPLINE_CURVE_WITH_KNOTS('',3,(#769,#770,#771,#772,#773,#774,#775,#776,#777,#778,#779,#780,#781,#782,#783,#784,#785,#786,#787,#788,#789,#790,#791,#792),.UNSPECIFIED.,.F.,.U.,(4,2,2,2,2,2,2,2,2,2,2,4),(0.0,0.122520831903888,0.269020444171485,0.415520056439084,0.610288764329687,0.805057472220291,0.984444265649445,1.163831059078599,1.343217852507753,1.522604645936907,1.717373353827511,1.912142061718115),.UNSPECIFIED.);
#794=EDGE_CURVE('',#742,#670,#793,.T.);
#795=ORIENTED_EDGE('',*,*,#794,.T.);
#796=ORIENTED_EDGE('',*,*,#676,.F.);
#797=EDGE_LOOP('',(#740,#768,#795,#796));
#798=FACE_OUTER_BOUND('',#797,.T.);
#799=ADVANCED_FACE('',(#798),#739,.F.);
#800=CARTESIAN_POINT('',(2.959733218350487,-5.845074E-016,0.0));
#801=DIRECTION('',(1.0,-1.224647E-016,0.0));
#802=DIRECTION('',(0.0,-1.0,0.0));
#803=AXIS2_PLACEMENT_3D('',#800,#801,#802);
#804=CONICAL_SURFACE('',#803,1.732050807568886,60.000000000000121);
#805=ORIENTED_EDGE('',*,*,#423,.T.);
#806=ORIENTED_EDGE('',*,*,#512,.T.);
#807=ORIENTED_EDGE('',*,*,#605,.T.);
#808=ORIENTED_EDGE('',*,*,#715,.F.);
#809=EDGE_LOOP('',(#805,#806,#807,#808));
#810=FACE_OUTER_BOUND('',#809,.T.);
#811=ADVANCED_FACE('',(#810),#804,.F.);
#812=CARTESIAN_POINT('',(2.959733218350487,-5.845074E-016,0.0));
#813=DIRECTION('',(1.0,-1.224647E-016,0.0));
#814=DIRECTION('',(0.0,-1.0,0.0));
#815=AXIS2_PLACEMENT_3D('',#812,#813,#814);
#816=CONICAL_SURFACE('',#815,1.732050807568886,60.000000000000121);
#817=ORIENTED_EDGE('',*,*,#279,.T.);
#818=ORIENTED_EDGE('',*,*,#358,.T.);
#819=ORIENTED_EDGE('',*,*,#460,.T.);
#820=ORIENTED_EDGE('',*,*,#708,.F.);
#821=EDGE_LOOP('',(#817,#818,#819,#820));
#822=FACE_OUTER_BOUND('',#821,.T.);
#823=ADVANCED_FACE('',(#822),#816,.F.);
#824=CARTESIAN_POINT('',(2.959733218350487,-5.845074E-016,0.0));
#825=DIRECTION('',(1.0,-1.224647E-016,0.0));
#826=DIRECTION('',(0.0,-1.0,0.0));
#827=AXIS2_PLACEMENT_3D('',#824,#825,#826);
#828=CONICAL_SURFACE('',#827,1.732050807568886,60.000000000000121);
#829=ORIENTED_EDGE('',*,*,#306,.T.);
#830=ORIENTED_EDGE('',*,*,#701,.F.);
#831=CARTESIAN_POINT('',(2.842980069462898,1.071842569167156,-1.091571576636704));
#832=CARTESIAN_POINT('',(2.875441520777999,1.111235367831144,-1.131689463892472));
#833=CARTESIAN_POINT('',(2.910068224287397,1.144319799753369,-1.183456810236671));
#834=CARTESIAN_POINT('',(2.973984753407773,1.183498154926892,-1.298490892885805));
#835=CARTESIAN_POINT('',(3.003342475503122,1.189549481055294,-1.36173439639398));
#836=CARTESIAN_POINT('',(3.048673102174296,1.173858719788032,-1.476858844920063));
#837=CARTESIAN_POINT('',(3.067785197395352,1.153202811366176,-1.535152228872337));
#838=CARTESIAN_POINT('',(3.093415949938572,1.085919717805663,-1.636984880069368));
#839=CARTESIAN_POINT('',(3.099999999999991,1.039284506737694,-1.680502373569405));
#840=CARTESIAN_POINT('',(3.099999999999992,0.935715493262308,-1.740297971379123));
#841=CARTESIAN_POINT('',(3.093415949938572,0.874710632848267,-1.758926502124816));
#842=CARTESIAN_POINT('',(3.067785197395352,0.752879423196662,-1.76627904479491));
#843=CARTESIAN_POINT('',(3.048673102174296,0.692067917610504,-1.755020894250345));
#844=CARTESIAN_POINT('',(3.003342475503122,0.584521839956612,-1.71104726784947));
#845=CARTESIAN_POINT('',(2.973984753407773,0.532777022358403,-1.674184913941602));
#846=CARTESIAN_POINT('',(2.910068224287397,0.452743762069975,-1.582738421758274));
#847=CARTESIAN_POINT('',(2.875441520777999,0.424454141010504,-1.528202790071751));
#848=CARTESIAN_POINT('',(2.842980069462898,0.409407430832842,-1.474028682074688));
#849=CARTESIAN_POINT('',(2.818563467418298,0.398089713367835,-1.433280422754867));
#850=CARTESIAN_POINT('',(2.792102983496398,0.392760549573622,-1.387269356394135));
#851=CARTESIAN_POINT('',(2.742110681015691,0.399104896625032,-1.295112969876251));
#852=CARTESIAN_POINT('',(2.718606014070076,0.410782708140801,-1.248953219403623));
#853=CARTESIAN_POINT('',(2.683984351376066,0.444399898952552,-1.173371751973305));
#854=CARTESIAN_POINT('',(2.669267952804854,0.466610479288287,-1.137579404587648));
#855=CARTESIAN_POINT('',(2.659210696380006,0.49477419046999,-1.105895441376077));
#856=B_SPLINE_CURVE_WITH_KNOTS('',3,(#831,#832,#833,#834,#835,#836,#837,#838,#839,#840,#841,#842,#843,#844,#845,#846,#847,#848,#849,#850,#851,#852,#853,#854,#855),.UNSPECIFIED.,.F.,.U.,(4,2,2,2,2,2,2,2,3,2,2,4),(-0.415520056439084,-0.22075134854848,-0.025982640657876,0.153404152771278,0.332790946200432,0.512177739629587,0.691564533058741,0.886333240949346,1.08110194883995,1.227601561107548,1.374101173375147,1.496622005279034),.UNSPECIFIED.);
#857=EDGE_CURVE('',#688,#184,#856,.T.);
#858=ORIENTED_EDGE('',*,*,#857,.T.);
#859=ORIENTED_EDGE('',*,*,#209,.T.);
#860=EDGE_LOOP('',(#829,#830,#858,#859));
#861=FACE_OUTER_BOUND('',#860,.T.);
#862=ADVANCED_FACE('',(#861),#828,.F.);
#863=CARTESIAN_POINT('',(2.959733218350487,-5.845074E-016,0.0));
#864=DIRECTION('',(1.0,-1.224647E-016,0.0));
#865=DIRECTION('',(0.0,-1.0,0.0));
#866=AXIS2_PLACEMENT_3D('',#863,#864,#865);
#867=CONICAL_SURFACE('',#866,1.732050807568886,60.000000000000121);
#868=CARTESIAN_POINT('',(2.94975987076172,1.16842251127708,-1.25508850388915));
#869=VERTEX_POINT('',#868);
#870=CARTESIAN_POINT('',(2.842980069462898,0.409407430832842,-1.474028682074688));
#871=CARTESIAN_POINT('',(2.818563467418298,0.398089713367835,-1.433280422754867));
#872=CARTESIAN_POINT('',(2.792102983496398,0.392760549573622,-1.387269356394135));
#873=CARTESIAN_POINT('',(2.742110681015691,0.399104896625032,-1.295112969876251));
#874=CARTESIAN_POINT('',(2.718606014070076,0.410782708140801,-1.248953219403623));
#875=CARTESIAN_POINT('',(2.683984351376066,0.444399898952552,-1.173371751973305));
#876=CARTESIAN_POINT('',(2.669267954989815,0.466610481795708,-1.137579406122922));
#877=CARTESIAN_POINT('',(2.649153437770195,0.52293789914427,-1.074211476629232));
#878=CARTESIAN_POINT('',(2.643893287340188,0.557131282359476,-1.046660242135204));
#879=CARTESIAN_POINT('',(2.643893287340188,0.627868717640522,-1.005819964833908));
#880=CARTESIAN_POINT('',(2.649153437770195,0.668825478225576,-0.989983243575218));
#881=CARTESIAN_POINT('',(2.669267954989815,0.751867423626613,-0.972886233968639));
#882=CARTESIAN_POINT('',(2.683984351376066,0.793969795815662,-0.971547477918799));
#883=CARTESIAN_POINT('',(2.718606014070076,0.876233862071498,-0.980224870387113));
#884=CARTESIAN_POINT('',(2.742110681015691,0.922048284371029,-0.993191464190164));
#885=CARTESIAN_POINT('',(2.792102983496398,1.005030229742199,-1.033775291732159));
#886=CARTESIAN_POINT('',(2.818563467418298,1.042212400168699,-1.061396016139243));
#887=CARTESIAN_POINT('',(2.875441520777999,1.111235367831144,-1.131689463892472));
#888=CARTESIAN_POINT('',(2.910068224287397,1.144319799753369,-1.183456810236671));
#889=CARTESIAN_POINT('',(2.973984753407773,1.183498154926892,-1.298490892885805));
#890=CARTESIAN_POINT('',(3.003342475503122,1.189549481055294,-1.36173439639398));
#891=CARTESIAN_POINT('',(3.048673102174296,1.173858719788032,-1.476858844920063));
#892=CARTESIAN_POINT('',(3.067785197395352,1.153202811366176,-1.535152228872337));
#893=CARTESIAN_POINT('',(3.093415949938572,1.085919717805663,-1.636984880069368));
#894=CARTESIAN_POINT('',(3.099999999999991,1.039284506737694,-1.680502373569405));
#895=CARTESIAN_POINT('',(3.099999999999992,0.935715493262308,-1.740297971379123));
#896=CARTESIAN_POINT('',(3.093415949938572,0.874710632848267,-1.758926502124816));
#897=CARTESIAN_POINT('',(3.067785197395352,0.752879423196662,-1.76627904479491));
#898=CARTESIAN_POINT('',(3.048673102174296,0.692067917610504,-1.755020894250345));
#899=CARTESIAN_POINT('',(3.003342475503122,0.584521839956612,-1.71104726784947));
#900=CARTESIAN_POINT('',(2.973984753407773,0.532777022358403,-1.674184913941602));
#901=CARTESIAN_POINT('',(2.910068224287397,0.452743762069975,-1.582738421758274));
#902=CARTESIAN_POINT('',(2.875441520777999,0.424454141010504,-1.528202790071751));
#903=CARTESIAN_POINT('',(2.842980069462898,0.409407430832842,-1.474028682074688));
#904=B_SPLINE_CURVE_WITH_KNOTS('',3,(#870,#871,#872,#873,#874,#875,#876,#877,#878,#879,#880,#881,#882,#883,#884,#885,#886,#887,#888,#889,#890,#891,#892,#893,#894,#895,#896,#897,#898,#899,#900,#901,#902,#903),.UNSPECIFIED.,.T.,.U.,(4,2,2,2,2,2,2,2,2,2,2,2,2,2,2,2,4),(0.0,0.146499612267598,0.292999224535197,0.415520056439084,0.538040888342972,0.66056172024686,0.783082552150748,0.929582164418346,1.076081776685944,1.270850484576549,1.465619192467153,1.645005985896307,1.824392779325461,2.003779572754616,2.18316636618377,2.377935074074375,2.572703781964979),.UNSPECIFIED.);
#905=EDGE_CURVE('',#869,#688,#904,.T.);
#906=ORIENTED_EDGE('',*,*,#905,.T.);
#907=ORIENTED_EDGE('',*,*,#694,.F.);
#908=CARTESIAN_POINT('',(2.94975987076172,1.671149784004349,-0.384339325174981));
#909=VERTEX_POINT('',#908);
#910=CARTESIAN_POINT('',(2.8429800694629,1.48125,-0.382457105437982));
#911=CARTESIAN_POINT('',(2.8185634674183,1.440302113536536,-0.371884406615622));
#912=CARTESIAN_POINT('',(2.792102983496401,1.397790779315823,-0.353494064661973));
#913=CARTESIAN_POINT('',(2.742110681015693,1.321153180996063,-0.301921505686086));
#914=CARTESIAN_POINT('',(2.718606014070078,1.287016570212302,-0.268728349016509));
#915=CARTESIAN_POINT('',(2.683984351376068,1.238369694768216,-0.201824274054506));
#916=CARTESIAN_POINT('',(2.669267954989818,1.218477905422323,-0.164693172154282));
#917=CARTESIAN_POINT('',(2.649153437770197,1.191763377369848,-0.084228233054014));
#918=CARTESIAN_POINT('',(2.643893287340191,1.185,-0.040840277301295));
#919=CARTESIAN_POINT('',(2.643893287340191,1.185,0.040840277301297));
#920=CARTESIAN_POINT('',(2.649153437770198,1.191763377369848,0.084228233054016));
#921=CARTESIAN_POINT('',(2.669267954989818,1.218477905422323,0.164693172154284));
#922=CARTESIAN_POINT('',(2.683984351376068,1.238369694768215,0.201824274054508));
#923=CARTESIAN_POINT('',(2.718606014070078,1.287016570212301,0.268728349016511));
#924=CARTESIAN_POINT('',(2.742110681015693,1.321153180996063,0.301921505686087));
#925=CARTESIAN_POINT('',(2.7921029834964,1.397790779315823,0.353494064661975));
#926=CARTESIAN_POINT('',(2.8185634674183,1.440302113536535,0.371884406615624));
#927=CARTESIAN_POINT('',(2.875441520778,1.535689508841648,0.396513326179278));
#928=CARTESIAN_POINT('',(2.910068224287398,1.597063561823344,0.399281611521602));
#929=CARTESIAN_POINT('',(2.973984753407774,1.716275177285294,0.375694021055796));
#930=CARTESIAN_POINT('',(3.003342475503123,1.774071321011905,0.349312871455489));
#931=CARTESIAN_POINT('',(3.048673102174297,1.865926637398535,0.278162049330282));
#932=CARTESIAN_POINT('',(3.067785197395354,1.906082234562837,0.231126815922572));
#933=CARTESIAN_POINT('',(3.093415949938574,1.960630350653929,0.121941622055448));
#934=CARTESIAN_POINT('',(3.099999999999993,1.975,0.059795597809719));
#935=CARTESIAN_POINT('',(3.099999999999993,1.975,-0.059795597809717));
#936=CARTESIAN_POINT('',(3.093415949938574,1.960630350653929,-0.121941622055445));
#937=CARTESIAN_POINT('',(3.067785197395354,1.906082234562837,-0.23112681592257));
#938=CARTESIAN_POINT('',(3.048673102174297,1.865926637398535,-0.27816204933028));
#939=CARTESIAN_POINT('',(3.003342475503123,1.774071321011905,-0.349312871455486));
#940=CARTESIAN_POINT('',(2.973984753407774,1.716275177285295,-0.375694021055794));
#941=CARTESIAN_POINT('',(2.910068224287398,1.597063561823344,-0.3992816115216));
#942=CARTESIAN_POINT('',(2.875441520778,1.535689508841649,-0.396513326179276));
#943=CARTESIAN_POINT('',(2.8429800694629,1.48125,-0.382457105437982));
#944=B_SPLINE_CURVE_WITH_KNOTS('',3,(#910,#911,#912,#913,#914,#915,#916,#917,#918,#919,#920,#921,#922,#923,#924,#925,#926,#927,#928,#929,#930,#931,#932,#933,#934,#935,#936,#937,#938,#939,#940,#941,#942,#943),.UNSPECIFIED.,.T.,.U.,(4,2,2,2,2,2,2,2,2,2,2,2,2,2,2,2,4),(0.0,0.146499612267598,0.292999224535196,0.415520056439084,0.538040888342972,0.660561720246859,0.783082552150747,0.929582164418345,1.076081776685943,1.270850484576547,1.46561919246715,1.645005985896304,1.824392779325458,2.003779572754612,2.183166366183766,2.377935074074369,2.572703781964973),.UNSPECIFIED.);
#945=EDGE_CURVE('',#679,#909,#944,.T.);
#946=ORIENTED_EDGE('',*,*,#945,.T.);
#947=CARTESIAN_POINT('',(3.293669435640163,2.253443485475741,-0.510048971333401));
#948=CARTESIAN_POINT('',(3.235615783274148,2.165701169249146,-0.442217725013857));
#949=CARTESIAN_POINT('',(3.172477913743023,2.062550552685485,-0.397661044389621));
#950=CARTESIAN_POINT('',(3.072792776917185,1.893013110191778,-0.364974118797707));
#951=CARTESIAN_POINT('',(3.029047804041985,1.816638649326218,-0.361626522039563));
#952=CARTESIAN_POINT('',(2.945999713959213,1.665331792747189,-0.381422995775668));
#953=CARTESIAN_POINT('',(2.906741612442527,1.590374819233486,-0.40456802702718));
#954=CARTESIAN_POINT('',(2.848910732504463,1.468900898790383,-0.464708078625447));
#955=CARTESIAN_POINT('',(2.824152464808144,1.411670883134326,-0.502780759364694));
#956=CARTESIAN_POINT('',(2.790083819191794,1.309915602907914,-0.597083552690945));
#957=CARTESIAN_POINT('',(2.781081115447795,1.265421539924799,-0.653458176782995));
#958=CARTESIAN_POINT('',(2.781081115447795,1.198622151367135,-0.769158111679404));
#959=CARTESIAN_POINT('',(2.790083819191795,1.172047326266179,-0.835878412586391));
#960=CARTESIAN_POINT('',(2.824152464808145,1.141256351711017,-0.971152466894795));
#961=CARTESIAN_POINT('',(2.848910732504463,1.136899450828684,-1.039751454681545));
#962=CARTESIAN_POINT('',(2.906741612442527,1.145553598581228,-1.175020981481696));
#963=CARTESIAN_POINT('',(2.945999713959213,1.162987900302886,-1.251508140361115));
#964=CARTESIAN_POINT('',(3.029047804041984,1.221497079431582,-1.392441958793375));
#965=CARTESIAN_POINT('',(3.072792776917185,1.262583413698541,-1.456910383724219));
#966=CARTESIAN_POINT('',(3.113076781358746,1.308279006044712,-1.509639084463718));
#967=CARTESIAN_POINT('',(3.172477913743023,1.375659842879604,-1.587390653020456));
#968=CARTESIAN_POINT('',(3.235615798474651,1.465822329206939,-1.654443441908184));
#969=CARTESIAN_POINT('',(3.2936694356402,1.568437109086621,-1.696514818748021));
#970=B_SPLINE_CURVE_WITH_KNOTS('',3,(#947,#948,#949,#950,#951,#952,#953,#954,#955,#956,#957,#958,#959,#960,#961,#962,#963,#964,#965,#966,#967,#968,#969),.UNSPECIFIED.,.F.,.U.,(4,2,2,2,2,2,2,2,2,3,4),(-2.124815563595089,-1.768408769289424,-1.526704742640059,-1.285000715990694,-1.084602550317703,-0.884204384644713,-0.683806218971722,-0.483408053298731,-0.241704026649366,0.0,0.356406794305664),.UNSPECIFIED.);
#971=EDGE_CURVE('',#909,#869,#970,.T.);
#972=ORIENTED_EDGE('',*,*,#971,.T.);
#973=EDGE_LOOP('',(#906,#907,#946,#972));
#974=FACE_OUTER_BOUND('',#973,.T.);
#975=ADVANCED_FACE('',(#974),#867,.F.);
#976=CARTESIAN_POINT('',(2.959733218350487,-5.845074E-016,0.0));
#977=DIRECTION('',(1.0,-1.224647E-016,0.0));
#978=DIRECTION('',(0.0,-1.0,0.0));
#979=AXIS2_PLACEMENT_3D('',#976,#977,#978);
#980=CONICAL_SURFACE('',#979,1.732050807568886,60.000000000000121);
#981=CARTESIAN_POINT('',(2.94975987076172,1.671149784004349,0.384339325174983));
#982=VERTEX_POINT('',#981);
#983=CARTESIAN_POINT('',(2.8429800694629,1.48125,-0.382457105437982));
#984=CARTESIAN_POINT('',(2.8185634674183,1.440302113536536,-0.371884406615622));
#985=CARTESIAN_POINT('',(2.792102983496401,1.397790779315823,-0.353494064661973));
#986=CARTESIAN_POINT('',(2.742110681015693,1.321153180996063,-0.301921505686086));
#987=CARTESIAN_POINT('',(2.718606014070078,1.287016570212302,-0.268728349016509));
#988=CARTESIAN_POINT('',(2.683984351376068,1.238369694768216,-0.201824274054506));
#989=CARTESIAN_POINT('',(2.669267954989818,1.218477905422323,-0.164693172154282));
#990=CARTESIAN_POINT('',(2.649153437770197,1.191763377369848,-0.084228233054014));
#991=CARTESIAN_POINT('',(2.643893287340191,1.185,-0.040840277301295));
#992=CARTESIAN_POINT('',(2.643893287340191,1.185,0.040840277301297));
#993=CARTESIAN_POINT('',(2.649153437770198,1.191763377369848,0.084228233054016));
#994=CARTESIAN_POINT('',(2.669267954989818,1.218477905422323,0.164693172154284));
#995=CARTESIAN_POINT('',(2.683984351376068,1.238369694768215,0.201824274054508));
#996=CARTESIAN_POINT('',(2.718606014070078,1.287016570212301,0.268728349016511));
#997=CARTESIAN_POINT('',(2.742110681015693,1.321153180996063,0.301921505686087));
#998=CARTESIAN_POINT('',(2.7921029834964,1.397790779315823,0.353494064661975));
#999=CARTESIAN_POINT('',(2.8185634674183,1.440302113536535,0.371884406615624));
#1000=CARTESIAN_POINT('',(2.875441520778,1.535689508841648,0.396513326179278));
#1001=CARTESIAN_POINT('',(2.910068224287398,1.597063561823344,0.399281611521602));
#1002=CARTESIAN_POINT('',(2.973984753407774,1.716275177285294,0.375694021055796));
#1003=CARTESIAN_POINT('',(3.003342475503123,1.774071321011905,0.349312871455489));
#1004=CARTESIAN_POINT('',(3.048673102174297,1.865926637398535,0.278162049330282));
#1005=CARTESIAN_POINT('',(3.067785197395354,1.906082234562837,0.231126815922572));
#1006=CARTESIAN_POINT('',(3.093415949938574,1.960630350653929,0.121941622055448));
#1007=CARTESIAN_POINT('',(3.099999999999993,1.975,0.059795597809719));
#1008=CARTESIAN_POINT('',(3.099999999999993,1.975,-0.059795597809717));
#1009=CARTESIAN_POINT('',(3.093415949938574,1.960630350653929,-0.121941622055445));
#1010=CARTESIAN_POINT('',(3.067785197395354,1.906082234562837,-0.23112681592257));
#1011=CARTESIAN_POINT('',(3.048673102174297,1.865926637398535,-0.27816204933028));
#1012=CARTESIAN_POINT('',(3.003342475503123,1.774071321011905,-0.349312871455486));
#1013=CARTESIAN_POINT('',(2.973984753407774,1.716275177285295,-0.375694021055794));
#1014=CARTESIAN_POINT('',(2.910068224287398,1.597063561823344,-0.3992816115216));
#1015=CARTESIAN_POINT('',(2.875441520778,1.535689508841649,-0.396513326179276));
#1016=CARTESIAN_POINT('',(2.8429800694629,1.48125,-0.382457105437982));
#1017=B_SPLINE_CURVE_WITH_KNOTS('',3,(#983,#984,#985,#986,#987,#988,#989,#990,#991,#992,#993,#994,#995,#996,#997,#998,#999,#1000,#1001,#1002,#1003,#1004,#1005,#1006,#1007,#1008,#1009,#1010,#1011,#1012,#1013,#1014,#1015,#1016),.UNSPECIFIED.,.T.,.U.,(4,2,2,2,2,2,2,2,2,2,2,2,2,2,2,2,4),(0.0,0.146499612267598,0.292999224535196,0.415520056439084,0.538040888342972,0.660561720246859,0.783082552150747,0.929582164418345,1.076081776685943,1.270850484576547,1.46561919246715,1.645005985896304,1.824392779325458,2.003779572754612,2.183166366183766,2.377935074074369,2.572703781964973),.UNSPECIFIED.);
#1018=EDGE_CURVE('',#982,#679,#1017,.T.);
#1019=ORIENTED_EDGE('',*,*,#1018,.T.);
#1020=ORIENTED_EDGE('',*,*,#685,.F.);
#1021=CARTESIAN_POINT('',(2.94975987076172,1.16842251127708,1.25508850388915));
#1022=VERTEX_POINT('',#1021);
#1023=CARTESIAN_POINT('',(2.842980069462898,1.071842569167155,1.091571576636705));
#1024=CARTESIAN_POINT('',(2.818563467418298,1.042212400168698,1.061396016139244));
#1025=CARTESIAN_POINT('',(2.792102983496398,1.005030229742198,1.033775291732161));
#1026=CARTESIAN_POINT('',(2.74211068101569,0.922048284371028,0.993191464190165));
#1027=CARTESIAN_POINT('',(2.718606014070076,0.876233862071497,0.980224870387114));
#1028=CARTESIAN_POINT('',(2.683984351376067,0.793969795815661,0.9715474779188));
#1029=CARTESIAN_POINT('',(2.669267954989816,0.751867423626613,0.97288623396864));
#1030=CARTESIAN_POINT('',(2.649153437770195,0.668825478225575,0.989983243575219));
#1031=CARTESIAN_POINT('',(2.643893287340188,0.627868717640521,1.005819964833909));
#1032=CARTESIAN_POINT('',(2.643893287340188,0.557131282359475,1.046660242135205));
#1033=CARTESIAN_POINT('',(2.649153437770196,0.522937899144269,1.074211476629233));
#1034=CARTESIAN_POINT('',(2.669267954989816,0.466610481795707,1.137579406122923));
#1035=CARTESIAN_POINT('',(2.683984351376066,0.444399898952551,1.173371751973306));
#1036=CARTESIAN_POINT('',(2.718606014070075,0.410782708140801,1.248953219403624));
#1037=CARTESIAN_POINT('',(2.742110681015691,0.399104896625032,1.295112969876251));
#1038=CARTESIAN_POINT('',(2.792102983496398,0.392760549573622,1.387269356394135));
#1039=CARTESIAN_POINT('',(2.818563467418298,0.398089713367835,1.433280422754867));
#1040=CARTESIAN_POINT('',(2.875441520777998,0.424454141010504,1.528202790071751));
#1041=CARTESIAN_POINT('',(2.910068224287397,0.452743762069975,1.582738421758273));
#1042=CARTESIAN_POINT('',(2.973984753407772,0.532777022358402,1.674184913941601));
#1043=CARTESIAN_POINT('',(3.003342475503121,0.584521839956611,1.711047267849468));
#1044=CARTESIAN_POINT('',(3.048673102174295,0.692067917610503,1.755020894250344));
#1045=CARTESIAN_POINT('',(3.067785197395351,0.752879423196661,1.766279044794909));
#1046=CARTESIAN_POINT('',(3.093415949938571,0.874710632848266,1.758926502124815));
#1047=CARTESIAN_POINT('',(3.099999999999991,0.935715493262306,1.740297971379122));
#1048=CARTESIAN_POINT('',(3.099999999999991,1.039284506737692,1.680502373569404));
#1049=CARTESIAN_POINT('',(3.093415949938571,1.08591971780566,1.636984880069369));
#1050=CARTESIAN_POINT('',(3.067785197395351,1.153202811366173,1.535152228872338));
#1051=CARTESIAN_POINT('',(3.048673102174295,1.17385871978803,1.476858844920063));
#1052=CARTESIAN_POINT('',(3.003342475503121,1.189549481055292,1.36173439639398));
#1053=CARTESIAN_POINT('',(2.973984753407772,1.18349815492689,1.298490892885806));
#1054=CARTESIAN_POINT('',(2.910068224287397,1.144319799753367,1.183456810236671));
#1055=CARTESIAN_POINT('',(2.875441520777998,1.111235367831142,1.131689463892473));
#1056=CARTESIAN_POINT('',(2.842980069462898,1.071842569167155,1.091571576636705));
#1057=B_SPLINE_CURVE_WITH_KNOTS('',3,(#1023,#1024,#1025,#1026,#1027,#1028,#1029,#1030,#1031,#1032,#1033,#1034,#1035,#1036,#1037,#1038,#1039,#1040,#1041,#1042,#1043,#1044,#1045,#1046,#1047,#1048,#1049,#1050,#1051,#1052,#1053,#1054,#1055,#1056),.UNSPECIFIED.,.T.,.U.,(4,2,2,2,2,2,2,2,2,2,2,2,2,2,2,2,4),(0.0,0.146499612267598,0.292999224535196,0.415520056439084,0.538040888342971,0.660561720246859,0.783082552150746,0.929582164418344,1.076081776685942,1.270850484576546,1.46561919246715,1.645005985896304,1.824392779325458,2.003779572754612,2.183166366183766,2.37793507407437,2.572703781964973),.UNSPECIFIED.);
#1058=EDGE_CURVE('',#670,#1022,#1057,.T.);
#1059=ORIENTED_EDGE('',*,*,#1058,.T.);
#1060=CARTESIAN_POINT('',(3.293669435640163,1.568437109086714,1.696514818747844));
#1061=CARTESIAN_POINT('',(3.235615783274148,1.465822368490333,1.654443367068496));
#1062=CARTESIAN_POINT('',(3.172477913743023,1.375659842879604,1.587390653020456));
#1063=CARTESIAN_POINT('',(3.072792776917185,1.262583413698541,1.456910383724219));
#1064=CARTESIAN_POINT('',(3.029047804041984,1.221497079431582,1.392441958793376));
#1065=CARTESIAN_POINT('',(2.945999713959214,1.162987900302886,1.251508140361115));
#1066=CARTESIAN_POINT('',(2.906741612442527,1.145553598581228,1.175020981481696));
#1067=CARTESIAN_POINT('',(2.848910732504463,1.136899450828684,1.039751454681545));
#1068=CARTESIAN_POINT('',(2.824152464808144,1.141256351711017,0.971152466894795));
#1069=CARTESIAN_POINT('',(2.790083819191794,1.172047326266179,0.835878412586392));
#1070=CARTESIAN_POINT('',(2.781081115447795,1.198622151367135,0.769158111679404));
#1071=CARTESIAN_POINT('',(2.781081115447795,1.265421539924798,0.653458176782995));
#1072=CARTESIAN_POINT('',(2.790083819191794,1.309915602907914,0.597083552690945));
#1073=CARTESIAN_POINT('',(2.824152464808144,1.411670883134327,0.502780759364693));
#1074=CARTESIAN_POINT('',(2.848910732504463,1.468900898790384,0.464708078625447));
#1075=CARTESIAN_POINT('',(2.906741612442527,1.590374819233487,0.404568027027179));
#1076=CARTESIAN_POINT('',(2.945999713959214,1.665331792747189,0.381422995775668));
#1077=CARTESIAN_POINT('',(3.029047804041985,1.816638649326218,0.361626522039563));
#1078=CARTESIAN_POINT('',(3.072792776917185,1.893013110191777,0.364974118797707));
#1079=CARTESIAN_POINT('',(3.113076781358746,1.961525300713817,0.378183312240719));
#1080=CARTESIAN_POINT('',(3.172477913743023,2.062550552685484,0.397661044389621));
#1081=CARTESIAN_POINT('',(3.235615798474651,2.165701214420519,0.442217653573597));
#1082=CARTESIAN_POINT('',(3.2936694356402,2.253443485475847,0.510048971333232));
#1083=B_SPLINE_CURVE_WITH_KNOTS('',3,(#1060,#1061,#1062,#1063,#1064,#1065,#1066,#1067,#1068,#1069,#1070,#1071,#1072,#1073,#1074,#1075,#1076,#1077,#1078,#1079,#1080,#1081,#1082),.UNSPECIFIED.,.F.,.U.,(4,2,2,2,2,2,2,2,2,3,4),(-2.124815563595089,-1.768408769289425,-1.526704742640059,-1.285000715990694,-1.084602550317703,-0.884204384644712,-0.683806218971721,-0.483408053298731,-0.241704026649366,0.0,0.356406794305664),.UNSPECIFIED.);
#1084=EDGE_CURVE('',#1022,#982,#1083,.T.);
#1085=ORIENTED_EDGE('',*,*,#1084,.T.);
#1086=EDGE_LOOP('',(#1019,#1020,#1059,#1085));
#1087=FACE_OUTER_BOUND('',#1086,.T.);
#1088=ADVANCED_FACE('',(#1087),#980,.F.);
#1089=CARTESIAN_POINT('',(1.029647177682105,1.83066190601196,-1.0569331442312));
#1090=DIRECTION('',(1.0,-1.224647E-016,0.0));
#1091=DIRECTION('',(-2.825982E-017,-0.230758946846457,0.97301094981008));
#1092=AXIS2_PLACEMENT_3D('',#1089,#1090,#1091);
#1093=CYLINDRICAL_SURFACE('',#1092,0.69125);
#1094=CARTESIAN_POINT('',(1.439999999999997,1.16842251127708,-1.25508850388915));
#1095=VERTEX_POINT('',#1094);
#1096=CARTESIAN_POINT('',(1.439999999999997,1.67114978400435,-0.384339325174981));
#1097=VERTEX_POINT('',#1096);
#1098=CARTESIAN_POINT('',(1.439999999999997,1.83066190601196,-1.0569331442312));
#1099=DIRECTION('',(-1.0,6.521206E-018,-2.749711E-017));
#1100=DIRECTION('',(-2.825982E-017,-0.230758946846457,0.97301094981008));
#1101=AXIS2_PLACEMENT_3D('',#1098,#1099,#1100);
#1102=CIRCLE('',#1101,0.69125);
#1103=EDGE_CURVE('',#1095,#1097,#1102,.T.);
#1104=ORIENTED_EDGE('',*,*,#1103,.F.);
#1105=CARTESIAN_POINT('',(2.94975987076172,1.16842251127708,-1.25508850388915));
#1106=DIRECTION('',(-1.0,0.0,0.0));
#1107=VECTOR('',#1106,1.509759870761723);
#1108=LINE('',#1105,#1107);
#1109=EDGE_CURVE('',#869,#1095,#1108,.T.);
#1110=ORIENTED_EDGE('',*,*,#1109,.F.);
#1111=ORIENTED_EDGE('',*,*,#971,.F.);
#1112=CARTESIAN_POINT('',(2.94975987076172,1.671149784004349,-0.384339325174981));
#1113=DIRECTION('',(-1.0,0.0,0.0));
#1114=VECTOR('',#1113,1.509759870761723);
#1115=LINE('',#1112,#1114);
#1116=EDGE_CURVE('',#909,#1097,#1115,.T.);
#1117=ORIENTED_EDGE('',*,*,#1116,.T.);
#1118=EDGE_LOOP('',(#1104,#1110,#1111,#1117));
#1119=FACE_OUTER_BOUND('',#1118,.T.);
#1120=ADVANCED_FACE('',(#1119),#1093,.T.);
#1121=CARTESIAN_POINT('',(1.199247864299806,1.58,9.992007E-016));
#1122=DIRECTION('',(1.0,-1.224647E-016,0.0));
#1123=DIRECTION('',(2.825982E-017,0.230758946846456,0.97301094981008));
#1124=AXIS2_PLACEMENT_3D('',#1121,#1122,#1123);
#1125=CYLINDRICAL_SURFACE('',#1124,0.395);
#1126=CARTESIAN_POINT('',(1.439999999999997,1.67114978400435,0.384339325174983));
#1127=VERTEX_POINT('',#1126);
#1128=CARTESIAN_POINT('',(1.439999999999997,1.58,9.992007E-016));
#1129=DIRECTION('',(1.0,-6.521206E-018,-2.749711E-017));
#1130=DIRECTION('',(2.825982E-017,0.230758946846456,0.97301094981008));
#1131=AXIS2_PLACEMENT_3D('',#1128,#1129,#1130);
#1132=CIRCLE('',#1131,0.395);
#1133=EDGE_CURVE('',#1097,#1127,#1132,.T.);
#1134=ORIENTED_EDGE('',*,*,#1133,.F.);
#1135=ORIENTED_EDGE('',*,*,#1116,.F.);
#1136=ORIENTED_EDGE('',*,*,#945,.F.);
#1137=ORIENTED_EDGE('',*,*,#1018,.F.);
#1138=CARTESIAN_POINT('',(2.94975987076172,1.671149784004349,0.384339325174983));
#1139=DIRECTION('',(-1.0,0.0,0.0));
#1140=VECTOR('',#1139,1.509759870761723);
#1141=LINE('',#1138,#1140);
#1142=EDGE_CURVE('',#982,#1127,#1141,.T.);
#1143=ORIENTED_EDGE('',*,*,#1142,.T.);
#1144=EDGE_LOOP('',(#1134,#1135,#1136,#1137,#1143));
#1145=FACE_OUTER_BOUND('',#1144,.T.);
#1146=ADVANCED_FACE('',(#1145),#1125,.F.);
#1147=CARTESIAN_POINT('',(1.029647177682105,1.83066190601196,1.0569331442312));
#1148=DIRECTION('',(1.0,-1.224647E-016,0.0));
#1149=DIRECTION('',(-1.173250E-016,-0.958031674119183,0.286662364785465));
#1150=AXIS2_PLACEMENT_3D('',#1147,#1148,#1149);
#1151=CYLINDRICAL_SURFACE('',#1150,0.69125);
#1152=CARTESIAN_POINT('',(1.439999999999997,1.16842251127708,1.25508850388915));
#1153=VERTEX_POINT('',#1152);
#1154=CARTESIAN_POINT('',(1.439999999999997,1.83066190601196,1.0569331442312));
#1155=DIRECTION('',(-1.0,1.124011E-016,-3.363267E-017));
#1156=DIRECTION('',(-1.173250E-016,-0.958031674119183,0.286662364785465));
#1157=AXIS2_PLACEMENT_3D('',#1154,#1155,#1156);
#1158=CIRCLE('',#1157,0.69125);
#1159=EDGE_CURVE('',#1127,#1153,#1158,.T.);
#1160=ORIENTED_EDGE('',*,*,#1159,.F.);
#1161=ORIENTED_EDGE('',*,*,#1142,.F.);
#1162=ORIENTED_EDGE('',*,*,#1084,.F.);
#1163=CARTESIAN_POINT('',(2.94975987076172,1.16842251127708,1.25508850388915));
#1164=DIRECTION('',(-1.0,0.0,0.0));
#1165=VECTOR('',#1164,1.509759870761723);
#1166=LINE('',#1163,#1165);
#1167=EDGE_CURVE('',#1022,#1153,#1166,.T.);
#1168=ORIENTED_EDGE('',*,*,#1167,.T.);
#1169=EDGE_LOOP('',(#1160,#1161,#1162,#1168));
#1170=FACE_OUTER_BOUND('',#1169,.T.);
#1171=ADVANCED_FACE('',(#1170),#1151,.T.);
#1172=CARTESIAN_POINT('',(1.199247864299806,0.789999999999999,1.36832013797941));
#1173=DIRECTION('',(1.0,-1.224647E-016,0.0));
#1174=DIRECTION('',(-8.906522E-017,-0.727272727272726,0.686348585024615));
#1175=AXIS2_PLACEMENT_3D('',#1172,#1173,#1174);
#1176=CYLINDRICAL_SURFACE('',#1175,0.395);
#1177=CARTESIAN_POINT('',(1.439999999999996,0.502727272727272,1.63942782906414));
#1178=VERTEX_POINT('',#1177);
#1179=CARTESIAN_POINT('',(1.439999999999997,0.789999999999999,1.36832013797941));
#1180=DIRECTION('',(1.0,-6.477471E-017,6.112979E-017));
#1181=DIRECTION('',(-8.906522E-017,-0.727272727272726,0.686348585024615));
#1182=AXIS2_PLACEMENT_3D('',#1179,#1180,#1181);
#1183=CIRCLE('',#1182,0.395);
#1184=EDGE_CURVE('',#1153,#1178,#1183,.T.);
#1185=ORIENTED_EDGE('',*,*,#1184,.F.);
#1186=ORIENTED_EDGE('',*,*,#1167,.F.);
#1187=ORIENTED_EDGE('',*,*,#1058,.F.);
#1188=ORIENTED_EDGE('',*,*,#794,.F.);
#1189=CARTESIAN_POINT('',(2.94975987076172,0.502727272727272,1.63942782906414));
#1190=DIRECTION('',(-1.0,0.0,0.0));
#1191=VECTOR('',#1190,1.509759870761724);
#1192=LINE('',#1189,#1191);
#1193=EDGE_CURVE('',#742,#1178,#1192,.T.);
#1194=ORIENTED_EDGE('',*,*,#1193,.T.);
#1195=EDGE_LOOP('',(#1185,#1186,#1187,#1188,#1194));
#1196=FACE_OUTER_BOUND('',#1195,.T.);
#1197=ADVANCED_FACE('',(#1196),#1176,.F.);
#1198=CARTESIAN_POINT('',(1.199247864299806,0.79,-1.36832013797941));
#1199=DIRECTION('',(1.0,-1.224647E-016,0.0));
#1200=DIRECTION('',(1.173250E-016,0.958031674119183,0.286662364785465));
#1201=AXIS2_PLACEMENT_3D('',#1198,#1199,#1200);
#1202=CYLINDRICAL_SURFACE('',#1201,0.395000000000001);
#1203=CARTESIAN_POINT('',(1.439999999999997,0.79,-1.36832013797941));
#1204=DIRECTION('',(1.0,-1.124011E-016,-3.363267E-017));
#1205=DIRECTION('',(1.173250E-016,0.958031674119183,0.286662364785465));
#1206=AXIS2_PLACEMENT_3D('',#1203,#1204,#1205);
#1207=CIRCLE('',#1206,0.395000000000001);
#1208=EDGE_CURVE('',#167,#1095,#1207,.T.);
#1209=ORIENTED_EDGE('',*,*,#1208,.F.);
#1210=ORIENTED_EDGE('',*,*,#215,.F.);
#1211=ORIENTED_EDGE('',*,*,#857,.F.);
#1212=ORIENTED_EDGE('',*,*,#905,.F.);
#1213=ORIENTED_EDGE('',*,*,#1109,.T.);
#1214=EDGE_LOOP('',(#1209,#1210,#1211,#1212,#1213));
#1215=FACE_OUTER_BOUND('',#1214,.T.);
#1216=ADVANCED_FACE('',(#1215),#1202,.F.);
#1217=CARTESIAN_POINT('',(1.029647177682104,-1.125296E-015,2.1138662884624));
#1218=DIRECTION('',(1.0,-1.224647E-016,0.0));
#1219=DIRECTION('',(-8.906522E-017,-0.727272727272727,-0.686348585024614));
#1220=AXIS2_PLACEMENT_3D('',#1217,#1218,#1219);
#1221=CYLINDRICAL_SURFACE('',#1220,0.69125);
#1222=CARTESIAN_POINT('',(1.439999999999997,-1.175550E-015,2.1138662884624));
#1223=DIRECTION('',(-1.0,6.477471E-017,6.112979E-017));
#1224=DIRECTION('',(-8.906522E-017,-0.727272727272727,-0.686348585024614));
#1225=AXIS2_PLACEMENT_3D('',#1222,#1223,#1224);
#1226=CIRCLE('',#1225,0.69125);
#1227=EDGE_CURVE('',#1178,#524,#1226,.T.);
#1228=ORIENTED_EDGE('',*,*,#1227,.F.);
#1229=ORIENTED_EDGE('',*,*,#1193,.F.);
#1230=ORIENTED_EDGE('',*,*,#767,.F.);
#1231=ORIENTED_EDGE('',*,*,#538,.T.);
#1232=EDGE_LOOP('',(#1228,#1229,#1230,#1231));
#1233=FACE_OUTER_BOUND('',#1232,.T.);
#1234=ADVANCED_FACE('',(#1233),#1221,.T.);
#1235=CARTESIAN_POINT('',(1.439999999999997,-1.195483E-015,-7.504584E-016));
#1236=DIRECTION('',(1.0,0.0,0.0));
#1237=DIRECTION('',(0.0,0.0,-1.0));
#1238=AXIS2_PLACEMENT_3D('',#1235,#1236,#1237);
#1239=PLANE('',#1238);
#1240=ORIENTED_EDGE('',*,*,#530,.T.);
#1241=ORIENTED_EDGE('',*,*,#478,.T.);
#1242=ORIENTED_EDGE('',*,*,#376,.T.);
#1243=ORIENTED_EDGE('',*,*,#324,.T.);
#1244=ORIENTED_EDGE('',*,*,#232,.T.);
#1245=ORIENTED_EDGE('',*,*,#173,.T.);
#1246=ORIENTED_EDGE('',*,*,#1208,.T.);
#1247=ORIENTED_EDGE('',*,*,#1103,.T.);
#1248=ORIENTED_EDGE('',*,*,#1133,.T.);
#1249=ORIENTED_EDGE('',*,*,#1159,.T.);
#1250=ORIENTED_EDGE('',*,*,#1184,.T.);
#1251=ORIENTED_EDGE('',*,*,#1227,.T.);
#1252=EDGE_LOOP('',(#1240,#1241,#1242,#1243,#1244,#1245,#1246,#1247,#1248,#1249,#1250,#1251));
#1253=FACE_OUTER_BOUND('',#1252,.T.);
#1254=ADVANCED_FACE('',(#1253),#1239,.T.);
#1255=CLOSED_SHELL('',(#117,#158,#219,#311,#363,#465,#517,#610,#635,#663,#724,#734,#799,#811,#823,#862,#975,#1088,#1120,#1146,#1171,#1197,#1216,#1234,#1254));
#1256=MANIFOLD_SOLID_BREP('43C9',#1255);
#1257=COLOUR_RGB('254',0.866,0.866,0.866);
#1258=SURFACE_STYLE_USAGE(.BOTH.,#1259);
#1259=SURFACE_SIDE_STYLE('NONE',(#1260));
#1260=SURFACE_STYLE_FILL_AREA(#1261);
#1261=FILL_AREA_STYLE('NONE',(#1262));
#1262=FILL_AREA_STYLE_COLOUR('NONE',#1257);
#1263=PRESENTATION_STYLE_ASSIGNMENT((#1258));
#1264=STYLED_ITEM('NONE',(#1263),#1256);
#1265=MECHANICAL_DESIGN_GEOMETRIC_PRESENTATION_REPRESENTATION('NONE',(#1264,#1405),#28);
#1266=PRESENTATION_LAYER_ASSIGNMENT('3D','None',(#1256,#1404));
#1267=CARTESIAN_POINT('',(-8.0,9.797174E-016,0.0));
#1268=DIRECTION('',(1.0,0.0,2.220446E-016));
#1269=DIRECTION('',(0.0,1.0,0.0));
#1270=AXIS2_PLACEMENT_3D('',#1267,#1268,#1269);
#1271=CYLINDRICAL_SURFACE('',#1270,2.0);
#1272=CARTESIAN_POINT('',(0.0,2.000000000000001,1.776357E-015));
#1273=VERTEX_POINT('',#1272);
#1274=CARTESIAN_POINT('',(-7.724,2.000000000000001,-1.836450E-016));
#1275=VERTEX_POINT('',#1274);
#1276=CARTESIAN_POINT('',(0.0,2.000000000000001,1.776357E-015));
#1277=DIRECTION('',(-1.0,0.0,0.0));
#1278=VECTOR('',#1277,7.724);
#1279=LINE('',#1276,#1278);
#1280=EDGE_CURVE('',#1273,#1275,#1279,.T.);
#1281=ORIENTED_EDGE('',*,*,#1280,.F.);
#1282=CARTESIAN_POINT('',(0.0,-1.999999999999999,1.531427E-015));
#1283=VERTEX_POINT('',#1282);
#1284=CARTESIAN_POINT('',(0.0,9.797174E-016,1.776357E-015));
#1285=DIRECTION('',(-1.0,0.0,0.0));
#1286=DIRECTION('',(0.0,1.0,0.0));
#1287=AXIS2_PLACEMENT_3D('',#1284,#1285,#1286);
#1288=CIRCLE('',#1287,2.0);
#1289=EDGE_CURVE('',#1273,#1283,#1288,.T.);
#1290=ORIENTED_EDGE('',*,*,#1289,.T.);
#1291=CARTESIAN_POINT('',(-7.724,-1.999999999999999,6.128431E-017));
#1292=VERTEX_POINT('',#1291);
#1293=CARTESIAN_POINT('',(0.0,-1.999999999999999,1.531427E-015));
#1294=DIRECTION('',(-1.0,0.0,0.0));
#1295=VECTOR('',#1294,7.724);
#1296=LINE('',#1293,#1295);
#1297=EDGE_CURVE('',#1283,#1292,#1296,.T.);
#1298=ORIENTED_EDGE('',*,*,#1297,.T.);
#1299=CARTESIAN_POINT('',(-7.724,9.797174E-016,6.128431E-017));
#1300=DIRECTION('',(-1.0,0.0,0.0));
#1301=DIRECTION('',(0.0,-1.0,0.0));
#1302=AXIS2_PLACEMENT_3D('',#1299,#1300,#1301);
#1303=CIRCLE('',#1302,2.0);
#1304=EDGE_CURVE('',#1275,#1292,#1303,.T.);
#1305=ORIENTED_EDGE('',*,*,#1304,.F.);
#1306=EDGE_LOOP('',(#1281,#1290,#1298,#1305));
#1307=FACE_OUTER_BOUND('',#1306,.T.);
#1308=ADVANCED_FACE('',(#1307),#1271,.T.);
#1309=CARTESIAN_POINT('',(-7.862,9.797174E-016,3.064216E-017));
#1310=DIRECTION('',(1.0,0.0,2.220446E-016));
#1311=DIRECTION('',(0.0,-1.0,0.0));
#1312=AXIS2_PLACEMENT_3D('',#1309,#1310,#1311);
#1313=CONICAL_SURFACE('',#1312,1.862,45.000000000000021);
#1314=CARTESIAN_POINT('',(-8.0,-1.723999999999999,-1.232595E-032));
#1315=VERTEX_POINT('',#1314);
#1316=CARTESIAN_POINT('',(-7.724,-1.999999999999999,6.128431E-017));
#1317=DIRECTION('',(-0.707106781186547,0.707106781186548,-1.570092E-016));
#1318=VECTOR('',#1317,0.390322943214974);
#1319=LINE('',#1316,#1318);
#1320=EDGE_CURVE('',#1292,#1315,#1319,.T.);
#1321=ORIENTED_EDGE('',*,*,#1320,.F.);
#1322=CARTESIAN_POINT('',(-7.724,9.797174E-016,6.128431E-017));
#1323=DIRECTION('',(-1.0,0.0,0.0));
#1324=DIRECTION('',(0.0,-1.0,0.0));
#1325=AXIS2_PLACEMENT_3D('',#1322,#1323,#1324);
#1326=CIRCLE('',#1325,2.0);
#1327=EDGE_CURVE('',#1292,#1275,#1326,.T.);
#1328=ORIENTED_EDGE('',*,*,#1327,.T.);
#1329=CARTESIAN_POINT('',(-8.0,1.724000000000001,2.111291E-016));
#1330=VERTEX_POINT('',#1329);
#1331=CARTESIAN_POINT('',(-7.724,2.000000000000001,3.062137E-016));
#1332=DIRECTION('',(-0.707106781186547,-0.707106781186548,-2.436049E-016));
#1333=VECTOR('',#1332,0.390322943214974);
#1334=LINE('',#1331,#1333);
#1335=EDGE_CURVE('',#1275,#1330,#1334,.T.);
#1336=ORIENTED_EDGE('',*,*,#1335,.T.);
#1337=CARTESIAN_POINT('',(-8.0,9.797174E-016,0.0));
#1338=DIRECTION('',(1.0,0.0,0.0));
#1339=DIRECTION('',(0.0,-1.0,0.0));
#1340=AXIS2_PLACEMENT_3D('',#1337,#1338,#1339);
#1341=CIRCLE('',#1340,1.724);
#1342=EDGE_CURVE('',#1330,#1315,#1341,.T.);
#1343=ORIENTED_EDGE('',*,*,#1342,.T.);
#1344=EDGE_LOOP('',(#1321,#1328,#1336,#1343));
#1345=FACE_OUTER_BOUND('',#1344,.T.);
#1346=ADVANCED_FACE('',(#1345),#1313,.T.);
#1347=CARTESIAN_POINT('',(-7.862,9.797174E-016,3.064216E-017));
#1348=DIRECTION('',(1.0,0.0,2.220446E-016));
#1349=DIRECTION('',(0.0,-1.0,0.0));
#1350=AXIS2_PLACEMENT_3D('',#1347,#1348,#1349);
#1351=CONICAL_SURFACE('',#1350,1.862,45.000000000000021);
#1352=ORIENTED_EDGE('',*,*,#1320,.T.);
#1353=CARTESIAN_POINT('',(-8.0,9.797174E-016,0.0));
#1354=DIRECTION('',(1.0,0.0,0.0));
#1355=DIRECTION('',(0.0,-1.0,0.0));
#1356=AXIS2_PLACEMENT_3D('',#1353,#1354,#1355);
#1357=CIRCLE('',#1356,1.724);
#1358=EDGE_CURVE('',#1315,#1330,#1357,.T.);
#1359=ORIENTED_EDGE('',*,*,#1358,.T.);
#1360=ORIENTED_EDGE('',*,*,#1335,.F.);
#1361=ORIENTED_EDGE('',*,*,#1304,.T.);
#1362=EDGE_LOOP('',(#1352,#1359,#1360,#1361));
#1363=FACE_OUTER_BOUND('',#1362,.T.);
#1364=ADVANCED_FACE('',(#1363),#1351,.T.);
#1365=CARTESIAN_POINT('',(-8.0,9.797174E-016,0.0));
#1366=DIRECTION('',(1.0,0.0,2.220446E-016));
#1367=DIRECTION('',(0.0,1.0,0.0));
#1368=AXIS2_PLACEMENT_3D('',#1365,#1366,#1367);
#1369=CYLINDRICAL_SURFACE('',#1368,2.0);
#1370=ORIENTED_EDGE('',*,*,#1280,.T.);
#1371=ORIENTED_EDGE('',*,*,#1327,.F.);
#1372=ORIENTED_EDGE('',*,*,#1297,.F.);
#1373=CARTESIAN_POINT('',(0.0,9.797174E-016,1.776357E-015));
#1374=DIRECTION('',(-1.0,0.0,0.0));
#1375=DIRECTION('',(0.0,1.0,0.0));
#1376=AXIS2_PLACEMENT_3D('',#1373,#1374,#1375);
#1377=CIRCLE('',#1376,2.0);
#1378=EDGE_CURVE('',#1283,#1273,#1377,.T.);
#1379=ORIENTED_EDGE('',*,*,#1378,.T.);
#1380=EDGE_LOOP('',(#1370,#1371,#1372,#1379));
#1381=FACE_OUTER_BOUND('',#1380,.T.);
#1382=ADVANCED_FACE('',(#1381),#1369,.T.);
#1383=CARTESIAN_POINT('',(-8.0,9.797174E-016,0.0));
#1384=DIRECTION('',(1.0,0.0,0.0));
#1385=DIRECTION('',(0.0,0.0,-1.0));
#1386=AXIS2_PLACEMENT_3D('',#1383,#1384,#1385);
#1387=PLANE('',#1386);
#1388=ORIENTED_EDGE('',*,*,#1342,.F.);
#1389=ORIENTED_EDGE('',*,*,#1358,.F.);
#1390=EDGE_LOOP('',(#1388,#1389));
#1391=FACE_OUTER_BOUND('',#1390,.T.);
#1392=ADVANCED_FACE('',(#1391),#1387,.F.);
#1393=CARTESIAN_POINT('',(0.0,9.797174E-016,1.776357E-015));
#1394=DIRECTION('',(1.0,0.0,0.0));
#1395=DIRECTION('',(0.0,0.0,-1.0));
#1396=AXIS2_PLACEMENT_3D('',#1393,#1394,#1395);
#1397=PLANE('',#1396);
#1398=ORIENTED_EDGE('',*,*,#1289,.F.);
#1399=ORIENTED_EDGE('',*,*,#1378,.F.);
#1400=EDGE_LOOP('',(#1398,#1399));
#1401=FACE_OUTER_BOUND('',#1400,.T.);
#1402=ADVANCED_FACE('',(#1401),#1397,.T.);
#1403=CLOSED_SHELL('',(#1308,#1346,#1364,#1382,#1392,#1402));
#1404=MANIFOLD_SOLID_BREP('4387',#1403);
#1405=STYLED_ITEM('NONE',(#1263),#1404);
#1406=ADVANCED_BREP_SHAPE_REPRESENTATION('ABSR1',(#1256,#1404),#28);
#1407=SHAPE_REPRESENTATION_RELATIONSHIP('SRRPL1','',#1406,#62);
ENDSEC;
END-ISO-10303-21;
