ISO-10303-21;
HEADER;
/****************************************************************
 * Generated by software with PDElib inside                    *
 * PDElib Version v51a, created Fri 09/10/2010                  *
 * ITI Transcendata (http://www.transcendata.com/)              *
 ****************************************************************/
FILE_DESCRIPTION((''),'2;1');
FILE_NAME('BOSSARD_BN759-1275003_v.stp','2015-10-22T14:13:07',(''),(''),'Mechanical Desktop 2011','Mechanical Desktop 2011',', , ');
FILE_SCHEMA(('AUTOMOTIVE_DESIGN { 1 2 10303 214 1 1 1 1 }'));
ENDSEC;
DATA;
#10=(NAMED_UNIT(*)PLANE_ANGLE_UNIT()SI_UNIT($,.RADIAN.));
#11=DIMENSIONAL_EXPONENTS(0.0,0.0,0.0,0.0,0.0,0.0,0.0);
#12=PLANE_ANGLE_MEASURE_WITH_UNIT(PLANE_ANGLE_MEASURE(0.0174532925),#10);
#16=(CONVERSION_BASED_UNIT('DEGREE',#12)NAMED_UNIT(#11)PLANE_ANGLE_UNIT());
#20=(NAMED_UNIT(*)SI_UNIT($,.STERADIAN.)SOLID_ANGLE_UNIT());
#24=(LENGTH_UNIT()NAMED_UNIT(*)SI_UNIT(.MILLI.,.METRE.));
#26=UNCERTAINTY_MEASURE_WITH_UNIT(LENGTH_MEASURE(0.000001),#24,'DISTANCE_ACCURACY_VALUE','');
#28=(GEOMETRIC_REPRESENTATION_CONTEXT(3)GLOBAL_UNCERTAINTY_ASSIGNED_CONTEXT((#26))GLOBAL_UNIT_ASSIGNED_CONTEXT((#16,#20,#24))REPRESENTATION_CONTEXT('','3D'));
#29=APPLICATION_CONTEXT('automotive design');
#30=APPLICATION_PROTOCOL_DEFINITION('INTERNATIONAL_STANDARD','automotive_design',1998,#29);
#31=PRODUCT_CONTEXT('3D Mechanical Parts',#29,'mechanical');
#32=PRODUCT('Product','Product','',(#31));
#33=PRODUCT_RELATED_PRODUCT_CATEGORY('part',$,(#32));
#34=PRODUCT_CATEGORY('part',$);
#35=PERSON('1','Design','Joe',$,$,$);
#36=ORGANIZATION($,'None','None');
#37=PERSON_AND_ORGANIZATION(#35,#36);
#38=PERSON_AND_ORGANIZATION_ROLE('design_owner');
#39=APPLIED_PERSON_AND_ORGANIZATION_ASSIGNMENT(#37,#38,(#32));
#40=PRODUCT_DEFINITION_FORMATION_WITH_SPECIFIED_SOURCE('None','',#32,.BOUGHT.);
#41=PERSON('2','Creator','Joe',$,$,$);
#42=ORGANIZATION($,'None','None');
#43=PERSON_AND_ORGANIZATION(#41,#42);
#44=PERSON_AND_ORGANIZATION_ROLE('creator');
#45=APPLIED_PERSON_AND_ORGANIZATION_ASSIGNMENT(#43,#44,(#40));
#46=PERSON('3','Supplier','Joe',$,$,$);
#47=ORGANIZATION($,'None','None');
#48=PERSON_AND_ORGANIZATION(#46,#47);
#49=PERSON_AND_ORGANIZATION_ROLE('design_supplier');
#50=APPLIED_PERSON_AND_ORGANIZATION_ASSIGNMENT(#48,#49,(#40));
#51=PRODUCT_DEFINITION_CONTEXT('part definition',#29,'design');
#52=PRODUCT_DEFINITION('None','',#40,#51);
#53=PERSON('4','Creator','Joe',$,$,$);
#54=ORGANIZATION($,'None','None');
#55=PERSON_AND_ORGANIZATION(#53,#54);
#56=PERSON_AND_ORGANIZATION_ROLE('creator');
#57=APPLIED_PERSON_AND_ORGANIZATION_ASSIGNMENT(#55,#56,(#52));
#58=CARTESIAN_POINT('NONE',(0.0,0.0,0.0));
#59=DIRECTION('NONE',(0.0,0.0,1.0));
#60=DIRECTION('NONE',(1.0,0.0,0.0));
#61=AXIS2_PLACEMENT_3D('NONE',#58,#59,#60);
#62=SHAPE_REPRESENTATION('SR1',(#61),#28);
#63=PRODUCT_DEFINITION_SHAPE('PDS1','Test Part',#52);
#64=SHAPE_DEFINITION_REPRESENTATION(#63,#62);
#65=CARTESIAN_POINT('',(7.6,-0.045,-1.0));
#66=DIRECTION('',(0.0,-0.997003710874575,-0.077353736188545));
#67=DIRECTION('',(0.0,-0.077353736188545,0.997003710874575));
#68=AXIS2_PLACEMENT_3D('',#65,#66,#67);
#69=PLANE('',#68);
#70=CARTESIAN_POINT('',(3.795125417192894,-0.192413793103448,0.9));
#71=VERTEX_POINT('',#70);
#72=CARTESIAN_POINT('',(3.798022198707995,-0.122586206896552,2.220446E-016));
#73=VERTEX_POINT('',#72);
#74=CARTESIAN_POINT('',(0.0,0.0,-1.579999999999999));
#75=DIRECTION('',(0.0,-0.997003710874575,-0.077353736188545));
#76=DIRECTION('',(0.0,0.077353736188545,-0.997003710874575));
#77=AXIS2_PLACEMENT_3D('',#74,#75,#76);
#78=ELLIPSE('',#77,49.124970392351194,3.799999999999999);
#79=EDGE_CURVE('',#71,#73,#78,.F.);
#80=ORIENTED_EDGE('',*,*,#79,.T.);
#81=CARTESIAN_POINT('',(2.196582031675283,-0.122586206896552,2.220446E-016));
#82=VERTEX_POINT('',#81);
#83=CARTESIAN_POINT('',(3.798022198707995,-0.122586206896552,2.220446E-016));
#84=DIRECTION('',(-1.0,0.0,0.0));
#85=VECTOR('',#84,1.601440167032712);
#86=LINE('',#83,#85);
#87=EDGE_CURVE('',#73,#82,#86,.T.);
#88=ORIENTED_EDGE('',*,*,#87,.T.);
#89=CARTESIAN_POINT('',(2.191569513436328,-0.192413793103448,0.9));
#90=VERTEX_POINT('',#89);
#91=CARTESIAN_POINT('',(0.0,0.0,-1.579999999999999));
#92=DIRECTION('',(0.0,-0.997003710874575,-0.077353736188545));
#93=DIRECTION('',(0.0,0.077353736188545,-0.997003710874575));
#94=AXIS2_PLACEMENT_3D('',#91,#92,#93);
#95=ELLIPSE('',#94,28.440772332413857,2.200000000000001);
#96=EDGE_CURVE('',#82,#90,#95,.T.);
#97=ORIENTED_EDGE('',*,*,#96,.T.);
#98=CARTESIAN_POINT('',(2.191569513436328,-0.192413793103448,0.9));
#99=DIRECTION('',(1.0,0.0,0.0));
#100=VECTOR('',#99,1.603555903756566);
#101=LINE('',#98,#100);
#102=EDGE_CURVE('',#90,#71,#101,.T.);
#103=ORIENTED_EDGE('',*,*,#102,.T.);
#104=EDGE_LOOP('',(#80,#88,#97,#103));
#105=FACE_OUTER_BOUND('',#104,.T.);
#106=ADVANCED_FACE('',(#105),#69,.F.);
#107=CARTESIAN_POINT('',(7.6,0.045,1.9));
#108=DIRECTION('',(0.0,0.997003710874575,0.077353736188545));
#109=DIRECTION('',(0.0,0.077353736188545,-0.997003710874575));
#110=AXIS2_PLACEMENT_3D('',#107,#108,#109);
#111=PLANE('',#110);
#112=CARTESIAN_POINT('',(3.795125417192894,0.192413793103448,2.220446E-016));
#113=VERTEX_POINT('',#112);
#114=CARTESIAN_POINT('',(3.798022198707995,0.122586206896551,0.9));
#115=VERTEX_POINT('',#114);
#116=CARTESIAN_POINT('',(0.0,0.0,2.48));
#117=DIRECTION('',(0.0,0.997003710874575,0.077353736188545));
#118=DIRECTION('',(0.0,0.077353736188545,-0.997003710874575));
#119=AXIS2_PLACEMENT_3D('',#116,#117,#118);
#120=ELLIPSE('',#119,49.124970392351194,3.799999999999999);
#121=EDGE_CURVE('',#113,#115,#120,.F.);
#122=ORIENTED_EDGE('',*,*,#121,.T.);
#123=CARTESIAN_POINT('',(2.196582031675284,0.122586206896552,0.9));
#124=VERTEX_POINT('',#123);
#125=CARTESIAN_POINT('',(3.798022198707995,0.122586206896551,0.9));
#126=DIRECTION('',(-1.0,0.0,0.0));
#127=VECTOR('',#126,1.601440167032711);
#128=LINE('',#125,#127);
#129=EDGE_CURVE('',#115,#124,#128,.T.);
#130=ORIENTED_EDGE('',*,*,#129,.T.);
#131=CARTESIAN_POINT('',(2.191569513436328,0.192413793103448,2.220446E-016));
#132=VERTEX_POINT('',#131);
#133=CARTESIAN_POINT('',(0.0,0.0,2.48));
#134=DIRECTION('',(0.0,0.997003710874575,0.077353736188545));
#135=DIRECTION('',(0.0,0.077353736188545,-0.997003710874575));
#136=AXIS2_PLACEMENT_3D('',#133,#134,#135);
#137=ELLIPSE('',#136,28.440772332413857,2.200000000000001);
#138=EDGE_CURVE('',#124,#132,#137,.T.);
#139=ORIENTED_EDGE('',*,*,#138,.T.);
#140=CARTESIAN_POINT('',(2.191569513436327,0.192413793103448,2.220446E-016));
#141=DIRECTION('',(1.0,0.0,0.0));
#142=VECTOR('',#141,1.603555903756566);
#143=LINE('',#140,#142);
#144=EDGE_CURVE('',#132,#113,#143,.T.);
#145=ORIENTED_EDGE('',*,*,#144,.T.);
#146=EDGE_LOOP('',(#122,#130,#139,#145));
#147=FACE_OUTER_BOUND('',#146,.T.);
#148=ADVANCED_FACE('',(#147),#111,.F.);
#149=CARTESIAN_POINT('',(0.0,0.0,2.220446E-016));
#150=DIRECTION('',(0.0,0.0,1.0));
#151=DIRECTION('',(0.0,-1.0,0.0));
#152=AXIS2_PLACEMENT_3D('',#149,#150,#151);
#153=CYLINDRICAL_SURFACE('',#152,3.799999999999999);
#154=ORIENTED_EDGE('',*,*,#121,.F.);
#155=CARTESIAN_POINT('',(0.0,0.0,2.220446E-016));
#156=DIRECTION('',(0.0,0.0,-1.0));
#157=DIRECTION('',(0.0,-1.0,0.0));
#158=AXIS2_PLACEMENT_3D('',#155,#156,#157);
#159=CIRCLE('',#158,3.799999999999999);
#160=EDGE_CURVE('',#73,#113,#159,.T.);
#161=ORIENTED_EDGE('',*,*,#160,.F.);
#162=ORIENTED_EDGE('',*,*,#79,.F.);
#163=CARTESIAN_POINT('',(0.0,0.0,0.9));
#164=DIRECTION('',(0.0,0.0,-1.0));
#165=DIRECTION('',(0.0,-1.0,0.0));
#166=AXIS2_PLACEMENT_3D('',#163,#164,#165);
#167=CIRCLE('',#166,3.8);
#168=EDGE_CURVE('',#71,#115,#167,.T.);
#169=ORIENTED_EDGE('',*,*,#168,.T.);
#170=EDGE_LOOP('',(#154,#161,#162,#169));
#171=FACE_OUTER_BOUND('',#170,.T.);
#172=ADVANCED_FACE('',(#171),#153,.T.);
#173=CARTESIAN_POINT('',(0.0,-3.8,0.9));
#174=DIRECTION('',(0.0,0.0,1.0));
#175=DIRECTION('',(0.0,1.0,0.0));
#176=AXIS2_PLACEMENT_3D('',#173,#174,#175);
#177=PLANE('',#176);
#178=ORIENTED_EDGE('',*,*,#129,.F.);
#179=ORIENTED_EDGE('',*,*,#168,.F.);
#180=ORIENTED_EDGE('',*,*,#102,.F.);
#181=CARTESIAN_POINT('',(0.0,0.0,0.9));
#182=DIRECTION('',(0.0,0.0,-1.0));
#183=DIRECTION('',(0.0,-1.0,0.0));
#184=AXIS2_PLACEMENT_3D('',#181,#182,#183);
#185=CIRCLE('',#184,2.200000000000001);
#186=EDGE_CURVE('',#90,#124,#185,.T.);
#187=ORIENTED_EDGE('',*,*,#186,.T.);
#188=EDGE_LOOP('',(#178,#179,#180,#187));
#189=FACE_OUTER_BOUND('',#188,.T.);
#190=ADVANCED_FACE('',(#189),#177,.T.);
#191=CARTESIAN_POINT('',(0.0,0.0,2.220446E-016));
#192=DIRECTION('',(0.0,0.0,1.0));
#193=DIRECTION('',(0.0,-1.0,0.0));
#194=AXIS2_PLACEMENT_3D('',#191,#192,#193);
#195=CYLINDRICAL_SURFACE('',#194,2.200000000000001);
#196=ORIENTED_EDGE('',*,*,#138,.F.);
#197=ORIENTED_EDGE('',*,*,#186,.F.);
#198=ORIENTED_EDGE('',*,*,#96,.F.);
#199=CARTESIAN_POINT('',(0.0,0.0,2.220446E-016));
#200=DIRECTION('',(0.0,0.0,-1.0));
#201=DIRECTION('',(0.0,-1.0,0.0));
#202=AXIS2_PLACEMENT_3D('',#199,#200,#201);
#203=CIRCLE('',#202,2.2);
#204=EDGE_CURVE('',#82,#132,#203,.T.);
#205=ORIENTED_EDGE('',*,*,#204,.T.);
#206=EDGE_LOOP('',(#196,#197,#198,#205));
#207=FACE_OUTER_BOUND('',#206,.T.);
#208=ADVANCED_FACE('',(#207),#195,.F.);
#209=CARTESIAN_POINT('',(0.0,-2.2,2.220446E-016));
#210=DIRECTION('',(0.0,0.0,-1.0));
#211=DIRECTION('',(0.0,-1.0,0.0));
#212=AXIS2_PLACEMENT_3D('',#209,#210,#211);
#213=PLANE('',#212);
#214=ORIENTED_EDGE('',*,*,#144,.F.);
#215=ORIENTED_EDGE('',*,*,#204,.F.);
#216=ORIENTED_EDGE('',*,*,#87,.F.);
#217=ORIENTED_EDGE('',*,*,#160,.T.);
#218=EDGE_LOOP('',(#214,#215,#216,#217));
#219=FACE_OUTER_BOUND('',#218,.T.);
#220=ADVANCED_FACE('',(#219),#213,.T.);
#221=CLOSED_SHELL('',(#106,#148,#172,#190,#208,#220));
#222=MANIFOLD_SOLID_BREP('4691',#221);
#223=COLOUR_RGB('250',0.33,0.33,0.33);
#224=SURFACE_STYLE_USAGE(.BOTH.,#225);
#225=SURFACE_SIDE_STYLE('NONE',(#226));
#226=SURFACE_STYLE_FILL_AREA(#227);
#227=FILL_AREA_STYLE('NONE',(#228));
#228=FILL_AREA_STYLE_COLOUR('NONE',#223);
#229=PRESENTATION_STYLE_ASSIGNMENT((#224));
#230=STYLED_ITEM('NONE',(#229),#222);
#231=MECHANICAL_DESIGN_GEOMETRIC_PRESENTATION_REPRESENTATION('NONE',(#230),#28);
#232=PRESENTATION_LAYER_ASSIGNMENT('3D','None',(#222));
#233=ADVANCED_BREP_SHAPE_REPRESENTATION('ABSR1',(#222),#28);
#234=SHAPE_REPRESENTATION_RELATIONSHIP('SRRPL1','',#233,#62);
ENDSEC;
END-ISO-10303-21;
