ISO-10303-21;
HEADER;
/* Generated by software containing ST-Developer
 * from STEP Tools, Inc. (www.steptools.com) 
 */

FILE_DESCRIPTION(
/* description */ (''),
/* implementation_level */ '2;1');

FILE_NAME(
/* name */ 
'G:\\Applications\\Altium\\CernLib\\StepLib\\BOSSARD_BN5687-3061612_v.
stp',
/* time_stamp */ '2017-03-09T12:40:28+01:00',
/* author */ ('riccim'),
/* organization */ (''),
/* preprocessor_version */ 'ST-DEVELOPER v15.5',
/* originating_system */ 'AutoCAD Mechanical',
/* authorisation */ '');

FILE_SCHEMA (('AUTOMOTIVE_DESIGN { 1 0 10303 214 3 1 1 }'));
ENDSEC;

DATA;
#10=MECHANICAL_DESIGN_GEOMETRIC_PRESENTATION_REPRESENTATION('',(#17),#847);
#11=DIMENSIONAL_EXPONENTS(0.,0.,0.,0.,0.,0.,0.);
#12=(
CONVERSION_BASED_UNIT('degree',#13)
NAMED_UNIT(#11)
PLANE_ANGLE_UNIT()
);
#13=PLANE_ANGLE_MEASURE_WITH_UNIT(PLANE_ANGLE_MEASURE(0.01745329252),#850);
#14=PRESENTATION_LAYER_ASSIGNMENT('3D','',(#399));
#15=SHAPE_REPRESENTATION_RELATIONSHIP('SRR','None',#853,#16);
#16=ADVANCED_BREP_SHAPE_REPRESENTATION($,(#399),#846);
#17=STYLED_ITEM($,(#863),#399);
#18=SPHERICAL_SURFACE($,#431,5.);
#19=TOROIDAL_SURFACE($,#429,2.52,0.279999999999999);
#20=B_SPLINE_CURVE_WITH_KNOTS($,3,(#604,#605,#606,#607,#608,#609,#610,#611),
 .UNSPECIFIED.,.F.,.F.,(4,2,2,4),(-0.530448305668518,-0.403288047035194,
-0.276127788401871,-0.149273982749143),.UNSPECIFIED.);
#21=B_SPLINE_CURVE_WITH_KNOTS($,3,(#613,#614,#615,#616,#617,#618,#619,#620),
 .UNSPECIFIED.,.F.,.F.,(4,2,2,4),(-0.9116226285879,-0.784768822935168,-0.657608564301843,
-0.530448305668518),.UNSPECIFIED.);
#22=B_SPLINE_CURVE_WITH_KNOTS($,3,(#625,#626,#627,#628,#629,#630,#631,#632,
#633,#634,#635,#636,#637,#638),.UNSPECIFIED.,.F.,.F.,(4,2,2,2,2,2,4),(-1.02918411940707,
-0.910886583487079,-0.768832187566984,-0.62677779164689,-0.484723395726796,
-0.342668999806701,-0.22437147348977),.UNSPECIFIED.);
#23=B_SPLINE_CURVE_WITH_KNOTS($,3,(#643,#644,#645,#646,#647,#648,#649,#650),
 .UNSPECIFIED.,.F.,.F.,(4,2,2,4),(-0.53044830566852,-0.403288047035195,
-0.276127788401871,-0.149273988364144),.UNSPECIFIED.);
#24=B_SPLINE_CURVE_WITH_KNOTS($,3,(#651,#652,#653,#654,#655,#656,#657,#658),
 .UNSPECIFIED.,.F.,.F.,(4,2,2,4),(-0.911622638313364,-0.784768822935169,
-0.657608564301844,-0.53044830566852),.UNSPECIFIED.);
#25=B_SPLINE_CURVE_WITH_KNOTS($,3,(#662,#663,#664,#665,#666,#667,#668,#669,
#670,#671,#672,#673,#674,#675),.UNSPECIFIED.,.F.,.F.,(4,2,2,2,2,2,4),(-1.0291841249514,
-0.910886583487078,-0.768832187566983,-0.626777791646889,-0.484723395726795,
-0.3426689998067,-0.22437145604585),.UNSPECIFIED.);
#26=B_SPLINE_CURVE_WITH_KNOTS($,3,(#680,#681,#682,#683,#684,#685,#686,#687),
 .UNSPECIFIED.,.F.,.F.,(4,2,2,4),(-0.530448305668523,-0.403288047035197,
-0.276127788401872,-0.149273974808337),.UNSPECIFIED.);
#27=B_SPLINE_CURVE_WITH_KNOTS($,3,(#688,#689,#690,#691,#692,#693,#694,#695),
 .UNSPECIFIED.,.F.,.F.,(4,2,2,4),(-0.91162262064709,-0.78476882293517,-0.657608564301846,
-0.530448305668523),.UNSPECIFIED.);
#28=B_SPLINE_CURVE_WITH_KNOTS($,3,(#699,#700,#701,#702,#703,#704,#705,#706,
#707,#708,#709,#710,#711,#712),.UNSPECIFIED.,.F.,.F.,(4,2,2,2,2,2,4),(-1.02918411156621,
-0.910886583487078,-0.768832187566984,-0.626777791646889,-0.484723395726795,
-0.3426689998067,-0.22437146388671),.UNSPECIFIED.);
#29=B_SPLINE_CURVE_WITH_KNOTS($,3,(#733,#734,#735,#736,#737,#738,#739,#740),
 .UNSPECIFIED.,.F.,.F.,(4,2,2,4),(-0.911622628587901,-0.784768822935168,
-0.657608564301843,-0.530448305668518),.UNSPECIFIED.);
#30=B_SPLINE_CURVE_WITH_KNOTS($,3,(#745,#746,#747,#748,#749,#750,#751,#752),
 .UNSPECIFIED.,.F.,.F.,(4,2,2,4),(-0.530448305668522,-0.403288047035197,
-0.276127788401872,-0.149273994660354),.UNSPECIFIED.);
#31=B_SPLINE_CURVE_WITH_KNOTS($,3,(#753,#754,#755,#756,#757,#758,#759,#760,
#761,#762,#763,#764,#765,#766),.UNSPECIFIED.,.F.,.F.,(4,2,2,2,2,2,4),(-1.02918413116836,
-0.910886583487077,-0.768832187566983,-0.626777791646889,-0.484723395726794,
-0.342668999806699,-0.22437146388671),.UNSPECIFIED.);
#32=B_SPLINE_CURVE_WITH_KNOTS($,3,(#769,#770,#771,#772,#773,#774,#775,#776),
 .UNSPECIFIED.,.F.,.F.,(4,2,2,4),(-0.911622628587898,-0.78476882293517,
-0.657608564301845,-0.530448305668522),.UNSPECIFIED.);
#33=B_SPLINE_CURVE_WITH_KNOTS($,3,(#778,#779,#780,#781,#782,#783,#784,#785),
 .UNSPECIFIED.,.F.,.F.,(4,2,2,4),(-0.530448305668519,-0.403288047035195,
-0.276127788401871,-0.149273994660352),.UNSPECIFIED.);
#34=B_SPLINE_CURVE_WITH_KNOTS($,3,(#786,#787,#788,#789,#790,#791,#792,#793,
#794,#795,#796,#797,#798,#799),.UNSPECIFIED.,.F.,.F.,(4,2,2,2,2,2,4),(-1.02918413116836,
-0.910886583487078,-0.768832187566983,-0.626777791646889,-0.484723395726795,
-0.342668999806701,-0.224371463886711),.UNSPECIFIED.);
#35=B_SPLINE_CURVE_WITH_KNOTS($,3,(#802,#803,#804,#805,#806,#807,#808,#809),
 .UNSPECIFIED.,.F.,.F.,(4,2,2,4),(-0.911622628587895,-0.784768822935168,
-0.657608564301844,-0.530448305668519),.UNSPECIFIED.);
#36=B_SPLINE_CURVE_WITH_KNOTS($,3,(#811,#812,#813,#814,#815,#816,#817,#818),
 .UNSPECIFIED.,.F.,.F.,(4,2,2,4),(-0.530448305668518,-0.403288047035195,
-0.276127788401871,-0.149273974808335),.UNSPECIFIED.);
#37=B_SPLINE_CURVE_WITH_KNOTS($,3,(#819,#820,#821,#822,#823,#824,#825,#826,
#827,#828,#829,#830,#831,#832),.UNSPECIFIED.,.F.,.F.,(4,2,2,2,2,2,4),(-1.02918411156621,
-0.910886583487078,-0.768832187566983,-0.62677779164689,-0.484723395726795,
-0.3426689998067,-0.224371463886709),.UNSPECIFIED.);
#38=LINE($,#602,#50);
#39=LINE($,#621,#51);
#40=LINE($,#624,#52);
#41=LINE($,#641,#53);
#42=LINE($,#661,#54);
#43=LINE($,#678,#55);
#44=LINE($,#698,#56);
#45=LINE($,#834,#57);
#46=LINE($,#835,#58);
#47=LINE($,#837,#59);
#48=LINE($,#839,#60);
#49=LINE($,#841,#61);
#50=VECTOR($,#493,1.16350066788172);
#51=VECTOR($,#494,1.16350066788172);
#52=VECTOR($,#497,1.16350066315845);
#53=VECTOR($,#500,1.1635006706087);
#54=VECTOR($,#503,1.16350067173825);
#55=VECTOR($,#506,1.16350066402519);
#56=VECTOR($,#509,1.16350066788172);
#57=VECTOR($,#550,1.16350066788172);
#58=VECTOR($,#551,1.16350067366652);
#59=VECTOR($,#554,1.16350067366652);
#60=VECTOR($,#557,1.16350066788172);
#61=VECTOR($,#560,1.16350066402519);
#62=PLANE($,#406);
#63=PLANE($,#407);
#64=PLANE($,#438);
#65=CYLINDRICAL_SURFACE($,#404,1.5);
#66=CYLINDRICAL_SURFACE($,#420,0.28);
#67=CYLINDRICAL_SURFACE($,#421,0.49);
#68=CYLINDRICAL_SURFACE($,#422,0.28);
#69=CYLINDRICAL_SURFACE($,#423,0.49);
#70=CYLINDRICAL_SURFACE($,#424,0.28);
#71=CYLINDRICAL_SURFACE($,#425,0.49);
#72=CYLINDRICAL_SURFACE($,#426,2.8);
#73=CYLINDRICAL_SURFACE($,#445,0.49);
#74=CYLINDRICAL_SURFACE($,#446,0.49);
#75=CYLINDRICAL_SURFACE($,#447,0.28);
#76=CYLINDRICAL_SURFACE($,#448,0.49);
#77=CYLINDRICAL_SURFACE($,#449,0.28);
#78=CYLINDRICAL_SURFACE($,#450,0.28);
#79=FACE_BOUND($,#112,.T.);
#80=FACE_BOUND($,#114,.T.);
#81=FACE_BOUND($,#124,.T.);
#82=FACE_BOUND($,#126,.T.);
#83=FACE_BOUND($,#128,.T.);
#84=FACE_BOUND($,#130,.T.);
#85=FACE_OUTER_BOUND($,#111,.T.);
#86=FACE_OUTER_BOUND($,#113,.T.);
#87=FACE_OUTER_BOUND($,#115,.T.);
#88=FACE_OUTER_BOUND($,#116,.T.);
#89=FACE_OUTER_BOUND($,#117,.T.);
#90=FACE_OUTER_BOUND($,#118,.T.);
#91=FACE_OUTER_BOUND($,#119,.T.);
#92=FACE_OUTER_BOUND($,#120,.T.);
#93=FACE_OUTER_BOUND($,#121,.T.);
#94=FACE_OUTER_BOUND($,#122,.T.);
#95=FACE_OUTER_BOUND($,#123,.T.);
#96=FACE_OUTER_BOUND($,#125,.T.);
#97=FACE_OUTER_BOUND($,#127,.T.);
#98=FACE_OUTER_BOUND($,#129,.T.);
#99=FACE_OUTER_BOUND($,#131,.T.);
#100=FACE_OUTER_BOUND($,#132,.T.);
#101=FACE_OUTER_BOUND($,#133,.T.);
#102=FACE_OUTER_BOUND($,#134,.T.);
#103=FACE_OUTER_BOUND($,#135,.T.);
#104=FACE_OUTER_BOUND($,#136,.T.);
#105=FACE_OUTER_BOUND($,#137,.T.);
#106=FACE_OUTER_BOUND($,#138,.T.);
#107=FACE_OUTER_BOUND($,#139,.T.);
#108=FACE_OUTER_BOUND($,#140,.T.);
#109=FACE_OUTER_BOUND($,#141,.T.);
#110=FACE_OUTER_BOUND($,#142,.T.);
#111=EDGE_LOOP($,(#257));
#112=EDGE_LOOP($,(#258));
#113=EDGE_LOOP($,(#259));
#114=EDGE_LOOP($,(#260));
#115=EDGE_LOOP($,(#261));
#116=EDGE_LOOP($,(#262,#263,#264,#265,#266,#267,#268,#269,#270,#271,#272,
#273));
#117=EDGE_LOOP($,(#274,#275,#276,#277,#278));
#118=EDGE_LOOP($,(#279,#280,#281,#282));
#119=EDGE_LOOP($,(#283,#284,#285,#286,#287));
#120=EDGE_LOOP($,(#288,#289,#290,#291));
#121=EDGE_LOOP($,(#292,#293,#294,#295,#296));
#122=EDGE_LOOP($,(#297,#298,#299,#300));
#123=EDGE_LOOP($,(#301));
#124=EDGE_LOOP($,(#302));
#125=EDGE_LOOP($,(#303));
#126=EDGE_LOOP($,(#304));
#127=EDGE_LOOP($,(#305,#306,#307,#308,#309,#310));
#128=EDGE_LOOP($,(#311));
#129=EDGE_LOOP($,(#312));
#130=EDGE_LOOP($,(#313));
#131=EDGE_LOOP($,(#314,#315,#316,#317));
#132=EDGE_LOOP($,(#318,#319,#320,#321));
#133=EDGE_LOOP($,(#322,#323,#324,#325));
#134=EDGE_LOOP($,(#326,#327,#328,#329));
#135=EDGE_LOOP($,(#330,#331,#332,#333));
#136=EDGE_LOOP($,(#334,#335,#336,#337));
#137=EDGE_LOOP($,(#338,#339,#340,#341));
#138=EDGE_LOOP($,(#342,#343,#344,#345));
#139=EDGE_LOOP($,(#346,#347,#348,#349,#350));
#140=EDGE_LOOP($,(#351,#352,#353,#354));
#141=EDGE_LOOP($,(#355,#356,#357,#358,#359));
#142=EDGE_LOOP($,(#360,#361,#362,#363,#364));
#143=CIRCLE($,#402,1.5);
#144=CIRCLE($,#403,1.224);
#145=CIRCLE($,#405,1.5);
#146=CIRCLE($,#408,0.28);
#147=CIRCLE($,#409,0.49);
#148=CIRCLE($,#410,0.28);
#149=CIRCLE($,#411,0.49);
#150=CIRCLE($,#412,0.28);
#151=CIRCLE($,#413,0.49);
#152=CIRCLE($,#414,0.28);
#153=CIRCLE($,#415,0.49);
#154=CIRCLE($,#416,0.28);
#155=CIRCLE($,#417,0.49);
#156=CIRCLE($,#418,0.28);
#157=CIRCLE($,#419,0.49);
#158=CIRCLE($,#427,2.8);
#159=CIRCLE($,#428,2.8);
#160=CIRCLE($,#430,2.66949152542373);
#161=CIRCLE($,#432,1.4);
#162=CIRCLE($,#433,1.4);
#163=CIRCLE($,#434,1.4);
#164=CIRCLE($,#435,1.4);
#165=CIRCLE($,#436,1.4);
#166=CIRCLE($,#437,1.4);
#167=VERTEX_POINT($,#567);
#168=VERTEX_POINT($,#569);
#169=VERTEX_POINT($,#572);
#170=VERTEX_POINT($,#576);
#171=VERTEX_POINT($,#577);
#172=VERTEX_POINT($,#579);
#173=VERTEX_POINT($,#581);
#174=VERTEX_POINT($,#583);
#175=VERTEX_POINT($,#585);
#176=VERTEX_POINT($,#587);
#177=VERTEX_POINT($,#589);
#178=VERTEX_POINT($,#591);
#179=VERTEX_POINT($,#593);
#180=VERTEX_POINT($,#595);
#181=VERTEX_POINT($,#597);
#182=VERTEX_POINT($,#601);
#183=VERTEX_POINT($,#603);
#184=VERTEX_POINT($,#612);
#185=VERTEX_POINT($,#623);
#186=VERTEX_POINT($,#640);
#187=VERTEX_POINT($,#642);
#188=VERTEX_POINT($,#660);
#189=VERTEX_POINT($,#677);
#190=VERTEX_POINT($,#679);
#191=VERTEX_POINT($,#697);
#192=VERTEX_POINT($,#714);
#193=VERTEX_POINT($,#716);
#194=VERTEX_POINT($,#719);
#195=VERTEX_POINT($,#722);
#196=VERTEX_POINT($,#724);
#197=VERTEX_POINT($,#726);
#198=VERTEX_POINT($,#744);
#199=VERTEX_POINT($,#768);
#200=VERTEX_POINT($,#777);
#201=VERTEX_POINT($,#801);
#202=VERTEX_POINT($,#810);
#203=EDGE_CURVE($,#167,#167,#143,.T.);
#204=EDGE_CURVE($,#168,#168,#144,.T.);
#205=EDGE_CURVE($,#169,#169,#145,.T.);
#206=EDGE_CURVE($,#170,#171,#146,.T.);
#207=EDGE_CURVE($,#172,#170,#147,.T.);
#208=EDGE_CURVE($,#173,#172,#148,.T.);
#209=EDGE_CURVE($,#174,#173,#149,.T.);
#210=EDGE_CURVE($,#175,#174,#150,.T.);
#211=EDGE_CURVE($,#176,#175,#151,.T.);
#212=EDGE_CURVE($,#177,#176,#152,.T.);
#213=EDGE_CURVE($,#178,#177,#153,.T.);
#214=EDGE_CURVE($,#179,#178,#154,.T.);
#215=EDGE_CURVE($,#180,#179,#155,.T.);
#216=EDGE_CURVE($,#181,#180,#156,.T.);
#217=EDGE_CURVE($,#171,#181,#157,.T.);
#218=EDGE_CURVE($,#182,#176,#38,.T.);
#219=EDGE_CURVE($,#183,#182,#20,.T.);
#220=EDGE_CURVE($,#184,#183,#21,.T.);
#221=EDGE_CURVE($,#184,#177,#39,.T.);
#222=EDGE_CURVE($,#185,#175,#40,.T.);
#223=EDGE_CURVE($,#182,#185,#22,.T.);
#224=EDGE_CURVE($,#186,#174,#41,.T.);
#225=EDGE_CURVE($,#187,#186,#23,.T.);
#226=EDGE_CURVE($,#185,#187,#24,.T.);
#227=EDGE_CURVE($,#188,#173,#42,.T.);
#228=EDGE_CURVE($,#186,#188,#25,.T.);
#229=EDGE_CURVE($,#189,#172,#43,.T.);
#230=EDGE_CURVE($,#190,#189,#26,.T.);
#231=EDGE_CURVE($,#188,#190,#27,.T.);
#232=EDGE_CURVE($,#191,#170,#44,.T.);
#233=EDGE_CURVE($,#189,#191,#28,.T.);
#234=EDGE_CURVE($,#192,#192,#158,.T.);
#235=EDGE_CURVE($,#193,#193,#159,.T.);
#236=EDGE_CURVE($,#194,#194,#160,.T.);
#237=EDGE_CURVE($,#190,#195,#161,.T.);
#238=EDGE_CURVE($,#195,#196,#162,.T.);
#239=EDGE_CURVE($,#196,#197,#163,.T.);
#240=EDGE_CURVE($,#197,#183,#164,.T.);
#241=EDGE_CURVE($,#183,#187,#165,.T.);
#242=EDGE_CURVE($,#187,#190,#166,.T.);
#243=EDGE_CURVE($,#191,#195,#29,.T.);
#244=EDGE_CURVE($,#197,#198,#30,.T.);
#245=EDGE_CURVE($,#198,#184,#31,.T.);
#246=EDGE_CURVE($,#199,#197,#32,.T.);
#247=EDGE_CURVE($,#196,#200,#33,.T.);
#248=EDGE_CURVE($,#200,#199,#34,.T.);
#249=EDGE_CURVE($,#201,#196,#35,.T.);
#250=EDGE_CURVE($,#195,#202,#36,.T.);
#251=EDGE_CURVE($,#202,#201,#37,.T.);
#252=EDGE_CURVE($,#199,#179,#45,.T.);
#253=EDGE_CURVE($,#200,#180,#46,.T.);
#254=EDGE_CURVE($,#198,#178,#47,.T.);
#255=EDGE_CURVE($,#201,#181,#48,.T.);
#256=EDGE_CURVE($,#202,#171,#49,.T.);
#257=ORIENTED_EDGE($,*,*,#203,.T.);
#258=ORIENTED_EDGE($,*,*,#204,.T.);
#259=ORIENTED_EDGE($,*,*,#205,.F.);
#260=ORIENTED_EDGE($,*,*,#203,.F.);
#261=ORIENTED_EDGE($,*,*,#204,.F.);
#262=ORIENTED_EDGE($,*,*,#206,.F.);
#263=ORIENTED_EDGE($,*,*,#207,.F.);
#264=ORIENTED_EDGE($,*,*,#208,.F.);
#265=ORIENTED_EDGE($,*,*,#209,.F.);
#266=ORIENTED_EDGE($,*,*,#210,.F.);
#267=ORIENTED_EDGE($,*,*,#211,.F.);
#268=ORIENTED_EDGE($,*,*,#212,.F.);
#269=ORIENTED_EDGE($,*,*,#213,.F.);
#270=ORIENTED_EDGE($,*,*,#214,.F.);
#271=ORIENTED_EDGE($,*,*,#215,.F.);
#272=ORIENTED_EDGE($,*,*,#216,.F.);
#273=ORIENTED_EDGE($,*,*,#217,.F.);
#274=ORIENTED_EDGE($,*,*,#212,.T.);
#275=ORIENTED_EDGE($,*,*,#218,.F.);
#276=ORIENTED_EDGE($,*,*,#219,.F.);
#277=ORIENTED_EDGE($,*,*,#220,.F.);
#278=ORIENTED_EDGE($,*,*,#221,.T.);
#279=ORIENTED_EDGE($,*,*,#211,.T.);
#280=ORIENTED_EDGE($,*,*,#222,.F.);
#281=ORIENTED_EDGE($,*,*,#223,.F.);
#282=ORIENTED_EDGE($,*,*,#218,.T.);
#283=ORIENTED_EDGE($,*,*,#210,.T.);
#284=ORIENTED_EDGE($,*,*,#224,.F.);
#285=ORIENTED_EDGE($,*,*,#225,.F.);
#286=ORIENTED_EDGE($,*,*,#226,.F.);
#287=ORIENTED_EDGE($,*,*,#222,.T.);
#288=ORIENTED_EDGE($,*,*,#209,.T.);
#289=ORIENTED_EDGE($,*,*,#227,.F.);
#290=ORIENTED_EDGE($,*,*,#228,.F.);
#291=ORIENTED_EDGE($,*,*,#224,.T.);
#292=ORIENTED_EDGE($,*,*,#208,.T.);
#293=ORIENTED_EDGE($,*,*,#229,.F.);
#294=ORIENTED_EDGE($,*,*,#230,.F.);
#295=ORIENTED_EDGE($,*,*,#231,.F.);
#296=ORIENTED_EDGE($,*,*,#227,.T.);
#297=ORIENTED_EDGE($,*,*,#207,.T.);
#298=ORIENTED_EDGE($,*,*,#232,.F.);
#299=ORIENTED_EDGE($,*,*,#233,.F.);
#300=ORIENTED_EDGE($,*,*,#229,.T.);
#301=ORIENTED_EDGE($,*,*,#234,.T.);
#302=ORIENTED_EDGE($,*,*,#235,.T.);
#303=ORIENTED_EDGE($,*,*,#236,.F.);
#304=ORIENTED_EDGE($,*,*,#234,.F.);
#305=ORIENTED_EDGE($,*,*,#237,.T.);
#306=ORIENTED_EDGE($,*,*,#238,.T.);
#307=ORIENTED_EDGE($,*,*,#239,.T.);
#308=ORIENTED_EDGE($,*,*,#240,.T.);
#309=ORIENTED_EDGE($,*,*,#241,.T.);
#310=ORIENTED_EDGE($,*,*,#242,.T.);
#311=ORIENTED_EDGE($,*,*,#236,.T.);
#312=ORIENTED_EDGE($,*,*,#235,.F.);
#313=ORIENTED_EDGE($,*,*,#205,.T.);
#314=ORIENTED_EDGE($,*,*,#230,.T.);
#315=ORIENTED_EDGE($,*,*,#233,.T.);
#316=ORIENTED_EDGE($,*,*,#243,.T.);
#317=ORIENTED_EDGE($,*,*,#237,.F.);
#318=ORIENTED_EDGE($,*,*,#225,.T.);
#319=ORIENTED_EDGE($,*,*,#228,.T.);
#320=ORIENTED_EDGE($,*,*,#231,.T.);
#321=ORIENTED_EDGE($,*,*,#242,.F.);
#322=ORIENTED_EDGE($,*,*,#219,.T.);
#323=ORIENTED_EDGE($,*,*,#223,.T.);
#324=ORIENTED_EDGE($,*,*,#226,.T.);
#325=ORIENTED_EDGE($,*,*,#241,.F.);
#326=ORIENTED_EDGE($,*,*,#220,.T.);
#327=ORIENTED_EDGE($,*,*,#240,.F.);
#328=ORIENTED_EDGE($,*,*,#244,.T.);
#329=ORIENTED_EDGE($,*,*,#245,.T.);
#330=ORIENTED_EDGE($,*,*,#246,.T.);
#331=ORIENTED_EDGE($,*,*,#239,.F.);
#332=ORIENTED_EDGE($,*,*,#247,.T.);
#333=ORIENTED_EDGE($,*,*,#248,.T.);
#334=ORIENTED_EDGE($,*,*,#249,.T.);
#335=ORIENTED_EDGE($,*,*,#238,.F.);
#336=ORIENTED_EDGE($,*,*,#250,.T.);
#337=ORIENTED_EDGE($,*,*,#251,.T.);
#338=ORIENTED_EDGE($,*,*,#215,.T.);
#339=ORIENTED_EDGE($,*,*,#252,.F.);
#340=ORIENTED_EDGE($,*,*,#248,.F.);
#341=ORIENTED_EDGE($,*,*,#253,.T.);
#342=ORIENTED_EDGE($,*,*,#213,.T.);
#343=ORIENTED_EDGE($,*,*,#221,.F.);
#344=ORIENTED_EDGE($,*,*,#245,.F.);
#345=ORIENTED_EDGE($,*,*,#254,.T.);
#346=ORIENTED_EDGE($,*,*,#216,.T.);
#347=ORIENTED_EDGE($,*,*,#253,.F.);
#348=ORIENTED_EDGE($,*,*,#247,.F.);
#349=ORIENTED_EDGE($,*,*,#249,.F.);
#350=ORIENTED_EDGE($,*,*,#255,.T.);
#351=ORIENTED_EDGE($,*,*,#217,.T.);
#352=ORIENTED_EDGE($,*,*,#255,.F.);
#353=ORIENTED_EDGE($,*,*,#251,.F.);
#354=ORIENTED_EDGE($,*,*,#256,.T.);
#355=ORIENTED_EDGE($,*,*,#206,.T.);
#356=ORIENTED_EDGE($,*,*,#256,.F.);
#357=ORIENTED_EDGE($,*,*,#250,.F.);
#358=ORIENTED_EDGE($,*,*,#243,.F.);
#359=ORIENTED_EDGE($,*,*,#232,.T.);
#360=ORIENTED_EDGE($,*,*,#214,.T.);
#361=ORIENTED_EDGE($,*,*,#254,.F.);
#362=ORIENTED_EDGE($,*,*,#244,.F.);
#363=ORIENTED_EDGE($,*,*,#246,.F.);
#364=ORIENTED_EDGE($,*,*,#252,.T.);
#365=CONICAL_SURFACE($,#401,1.362,0.785398163397449);
#366=CONICAL_SURFACE($,#439,1.73205080756881,1.04719755119658);
#367=CONICAL_SURFACE($,#440,1.73205080756881,1.04719755119658);
#368=CONICAL_SURFACE($,#441,1.73205080756881,1.04719755119658);
#369=CONICAL_SURFACE($,#442,1.73205080756881,1.04719755119658);
#370=CONICAL_SURFACE($,#443,1.73205080756881,1.04719755119658);
#371=CONICAL_SURFACE($,#444,1.73205080756881,1.04719755119658);
#372=ADVANCED_FACE($,(#85,#79),#365,.T.);
#373=ADVANCED_FACE($,(#86,#80),#65,.T.);
#374=ADVANCED_FACE($,(#87),#62,.T.);
#375=ADVANCED_FACE($,(#88),#63,.T.);
#376=ADVANCED_FACE($,(#89),#66,.F.);
#377=ADVANCED_FACE($,(#90),#67,.T.);
#378=ADVANCED_FACE($,(#91),#68,.F.);
#379=ADVANCED_FACE($,(#92),#69,.T.);
#380=ADVANCED_FACE($,(#93),#70,.F.);
#381=ADVANCED_FACE($,(#94),#71,.T.);
#382=ADVANCED_FACE($,(#95,#81),#72,.T.);
#383=ADVANCED_FACE($,(#96,#82),#19,.T.);
#384=ADVANCED_FACE($,(#97,#83),#18,.T.);
#385=ADVANCED_FACE($,(#98,#84),#64,.T.);
#386=ADVANCED_FACE($,(#99),#366,.F.);
#387=ADVANCED_FACE($,(#100),#367,.F.);
#388=ADVANCED_FACE($,(#101),#368,.F.);
#389=ADVANCED_FACE($,(#102),#369,.F.);
#390=ADVANCED_FACE($,(#103),#370,.F.);
#391=ADVANCED_FACE($,(#104),#371,.F.);
#392=ADVANCED_FACE($,(#105),#73,.T.);
#393=ADVANCED_FACE($,(#106),#74,.T.);
#394=ADVANCED_FACE($,(#107),#75,.F.);
#395=ADVANCED_FACE($,(#108),#76,.T.);
#396=ADVANCED_FACE($,(#109),#77,.F.);
#397=ADVANCED_FACE($,(#110),#78,.F.);
#398=CLOSED_SHELL($,(#372,#373,#374,#375,#376,#377,#378,#379,#380,#381,
#382,#383,#384,#385,#386,#387,#388,#389,#390,#391,#392,#393,#394,#395,#396,
#397));
#399=MANIFOLD_SOLID_BREP('1CC5',#398);
#400=AXIS2_PLACEMENT_3D('placement',#565,#451,#452);
#401=AXIS2_PLACEMENT_3D($,#566,#453,#454);
#402=AXIS2_PLACEMENT_3D($,#568,#455,#456);
#403=AXIS2_PLACEMENT_3D($,#570,#457,#458);
#404=AXIS2_PLACEMENT_3D($,#571,#459,#460);
#405=AXIS2_PLACEMENT_3D($,#573,#461,#462);
#406=AXIS2_PLACEMENT_3D($,#574,#463,#464);
#407=AXIS2_PLACEMENT_3D($,#575,#465,#466);
#408=AXIS2_PLACEMENT_3D($,#578,#467,#468);
#409=AXIS2_PLACEMENT_3D($,#580,#469,#470);
#410=AXIS2_PLACEMENT_3D($,#582,#471,#472);
#411=AXIS2_PLACEMENT_3D($,#584,#473,#474);
#412=AXIS2_PLACEMENT_3D($,#586,#475,#476);
#413=AXIS2_PLACEMENT_3D($,#588,#477,#478);
#414=AXIS2_PLACEMENT_3D($,#590,#479,#480);
#415=AXIS2_PLACEMENT_3D($,#592,#481,#482);
#416=AXIS2_PLACEMENT_3D($,#594,#483,#484);
#417=AXIS2_PLACEMENT_3D($,#596,#485,#486);
#418=AXIS2_PLACEMENT_3D($,#598,#487,#488);
#419=AXIS2_PLACEMENT_3D($,#599,#489,#490);
#420=AXIS2_PLACEMENT_3D($,#600,#491,#492);
#421=AXIS2_PLACEMENT_3D($,#622,#495,#496);
#422=AXIS2_PLACEMENT_3D($,#639,#498,#499);
#423=AXIS2_PLACEMENT_3D($,#659,#501,#502);
#424=AXIS2_PLACEMENT_3D($,#676,#504,#505);
#425=AXIS2_PLACEMENT_3D($,#696,#507,#508);
#426=AXIS2_PLACEMENT_3D($,#713,#510,#511);
#427=AXIS2_PLACEMENT_3D($,#715,#512,#513);
#428=AXIS2_PLACEMENT_3D($,#717,#514,#515);
#429=AXIS2_PLACEMENT_3D($,#718,#516,#517);
#430=AXIS2_PLACEMENT_3D($,#720,#518,#519);
#431=AXIS2_PLACEMENT_3D($,#721,#520,#521);
#432=AXIS2_PLACEMENT_3D($,#723,#522,#523);
#433=AXIS2_PLACEMENT_3D($,#725,#524,#525);
#434=AXIS2_PLACEMENT_3D($,#727,#526,#527);
#435=AXIS2_PLACEMENT_3D($,#728,#528,#529);
#436=AXIS2_PLACEMENT_3D($,#729,#530,#531);
#437=AXIS2_PLACEMENT_3D($,#730,#532,#533);
#438=AXIS2_PLACEMENT_3D($,#731,#534,#535);
#439=AXIS2_PLACEMENT_3D($,#732,#536,#537);
#440=AXIS2_PLACEMENT_3D($,#741,#538,#539);
#441=AXIS2_PLACEMENT_3D($,#742,#540,#541);
#442=AXIS2_PLACEMENT_3D($,#743,#542,#543);
#443=AXIS2_PLACEMENT_3D($,#767,#544,#545);
#444=AXIS2_PLACEMENT_3D($,#800,#546,#547);
#445=AXIS2_PLACEMENT_3D($,#833,#548,#549);
#446=AXIS2_PLACEMENT_3D($,#836,#552,#553);
#447=AXIS2_PLACEMENT_3D($,#838,#555,#556);
#448=AXIS2_PLACEMENT_3D($,#840,#558,#559);
#449=AXIS2_PLACEMENT_3D($,#842,#561,#562);
#450=AXIS2_PLACEMENT_3D($,#843,#563,#564);
#451=DIRECTION('axis',(0.,0.,1.));
#452=DIRECTION('refdir',(1.,0.,0.));
#453=DIRECTION('center_axis',(-1.60812264967664E-16,2.22044604925031E-16,
1.));
#454=DIRECTION('ref_axis',(-1.,-2.22044604925031E-16,-1.60812264967664E-16));
#455=DIRECTION('center_axis',(1.60812264967664E-16,-2.22044604925031E-16,
-1.));
#456=DIRECTION('ref_axis',(-1.,-2.22044604925031E-16,-1.60812264967664E-16));
#457=DIRECTION('center_axis',(-1.60812264967664E-16,2.22044604925031E-16,
1.));
#458=DIRECTION('ref_axis',(-1.,-2.22044604925031E-16,-1.60812264967664E-16));
#459=DIRECTION('center_axis',(-1.60812264967664E-16,2.22044604925031E-16,
1.));
#460=DIRECTION('ref_axis',(1.,2.22044604925031E-16,1.60812264967664E-16));
#461=DIRECTION('center_axis',(6.12323399573677E-17,9.9579925010296E-17,
1.));
#462=DIRECTION('ref_axis',(1.,2.22044604925031E-16,1.60812264967664E-16));
#463=DIRECTION('center_axis',(1.60812264967664E-16,-2.22044604925031E-16,
-1.));
#464=DIRECTION('ref_axis',(-1.,-2.22044604925031E-16,0.));
#465=DIRECTION('center_axis',(6.12323399573677E-17,2.22044604925031E-16,
1.));
#466=DIRECTION('ref_axis',(-2.22044604925031E-16,1.,-2.22044604925031E-16));
#467=DIRECTION('center_axis',(-6.12323399573677E-17,-2.22044604925031E-16,
-1.));
#468=DIRECTION('ref_axis',(-0.686348585024613,-0.727272727272728,1.14448493531337E-16));
#469=DIRECTION('center_axis',(6.12323399573677E-17,2.22044604925031E-16,
1.));
#470=DIRECTION('ref_axis',(0.686348596082989,-0.727272716836615,3.03950320400087E-17));
#471=DIRECTION('center_axis',(-6.12323399573677E-17,-2.22044604925031E-16,
-1.));
#472=DIRECTION('ref_axis',(0.286662339292994,-0.958031681747043,7.78477172132954E-17));
#473=DIRECTION('center_axis',(6.12323399573677E-17,2.22044604925031E-16,
1.));
#474=DIRECTION('ref_axis',(0.973010952291142,0.230758936384888,-8.25586949935961E-17));
#475=DIRECTION('center_axis',(-6.12323399573677E-17,-2.22044604925031E-16,
-1.));
#476=DIRECTION('ref_axis',(0.973010957330399,-0.230758915136513,-3.66007822567476E-17));
#477=DIRECTION('center_axis',(6.12323399573677E-17,2.22044604925031E-16,
1.));
#478=DIRECTION('ref_axis',(0.286662364785467,0.958031674119183,-1.12953729639803E-16));
#479=DIRECTION('center_axis',(-6.12323399573677E-17,-2.22044604925031E-16,
-1.));
#480=DIRECTION('ref_axis',(0.686348585024613,0.727272727272728,-1.14448493531337E-16));
#481=DIRECTION('center_axis',(6.12323399573677E-17,2.22044604925031E-16,
1.));
#482=DIRECTION('ref_axis',(-0.686348568437051,0.727272742926896,-3.03950363309024E-17));
#483=DIRECTION('center_axis',(-6.12323399573677E-17,-2.22044604925031E-16,
-1.));
#484=DIRECTION('ref_axis',(-0.286662364785468,0.958031674119182,-7.78477148927497E-17));
#485=DIRECTION('center_axis',(6.12323399573677E-17,2.22044604925031E-16,
1.));
#486=DIRECTION('ref_axis',(-0.973010955073207,-0.23075892465412,8.25586939957994E-17));
#487=DIRECTION('center_axis',(-6.12323399573677E-17,-2.22044604925031E-16,
-1.));
#488=DIRECTION('ref_axis',(-0.97301094981008,0.230758946846455,3.66007786385872E-17));
#489=DIRECTION('center_axis',(6.12323399573677E-17,2.22044604925031E-16,
1.));
#490=DIRECTION('ref_axis',(-0.286662350218339,-0.958031678477961,1.12953729181871E-16));
#491=DIRECTION('center_axis',(6.12323399573677E-17,9.9579925010296E-17,
1.));
#492=DIRECTION('ref_axis',(0.686348585024613,0.727272727272728,-1.14448493531337E-16));
#493=DIRECTION($,(-6.12323399573677E-17,-9.9579925010296E-17,-1.));
#494=DIRECTION($,(-6.12323399573677E-17,-9.9579925010296E-17,-1.));
#495=DIRECTION('center_axis',(6.12323399573677E-17,9.9579925010296E-17,
1.));
#496=DIRECTION('ref_axis',(0.286662364785467,0.958031674119183,-1.12953729639803E-16));
#497=DIRECTION($,(-6.12323399573677E-17,-9.9579925010296E-17,-1.));
#498=DIRECTION('center_axis',(6.12323399573677E-17,9.9579925010296E-17,
1.));
#499=DIRECTION('ref_axis',(0.973010957330399,-0.230758915136513,-3.66007822567476E-17));
#500=DIRECTION($,(-6.12323399573677E-17,-9.9579925010296E-17,-1.));
#501=DIRECTION('center_axis',(6.12323399573677E-17,9.9579925010296E-17,
1.));
#502=DIRECTION('ref_axis',(0.973010952291142,0.230758936384888,-8.25586949935961E-17));
#503=DIRECTION($,(-6.12323399573677E-17,-9.9579925010296E-17,-1.));
#504=DIRECTION('center_axis',(6.12323399573677E-17,9.9579925010296E-17,
1.));
#505=DIRECTION('ref_axis',(0.286662339292994,-0.958031681747043,7.78477172132954E-17));
#506=DIRECTION($,(-6.12323399573677E-17,-9.9579925010296E-17,-1.));
#507=DIRECTION('center_axis',(6.12323399573677E-17,9.9579925010296E-17,
1.));
#508=DIRECTION('ref_axis',(0.686348596082989,-0.727272716836615,3.03950320400087E-17));
#509=DIRECTION($,(-6.12323399573677E-17,-9.9579925010296E-17,-1.));
#510=DIRECTION('center_axis',(-6.12323399573677E-17,-9.9579925010296E-17,
-1.));
#511=DIRECTION('ref_axis',(2.22044604925031E-16,-1.,9.9579925010296E-17));
#512=DIRECTION('center_axis',(-6.12323399573677E-17,-9.9579925010296E-17,
-1.));
#513=DIRECTION('ref_axis',(2.22044604925031E-16,-1.,9.9579925010296E-17));
#514=DIRECTION('center_axis',(6.12323399573677E-17,9.9579925010296E-17,
1.));
#515=DIRECTION('ref_axis',(2.22044604925031E-16,-1.,9.9579925010296E-17));
#516=DIRECTION('center_axis',(6.12323399573677E-17,9.9579925010296E-17,
1.));
#517=DIRECTION('ref_axis',(-1.,-2.22044604925031E-16,7.93016446160826E-17));
#518=DIRECTION('center_axis',(6.12323399573677E-17,9.9579925010296E-17,
1.));
#519=DIRECTION('ref_axis',(2.22044604925031E-16,-1.,9.9579925010296E-17));
#520=DIRECTION('center_axis',(6.12323399573677E-17,0.,1.));
#521=DIRECTION('ref_axis',(1.,0.,0.));
#522=DIRECTION('center_axis',(-6.12323399573677E-17,-9.9579925010296E-17,
-1.));
#523=DIRECTION('ref_axis',(2.22044604925031E-16,-1.,9.9579925010296E-17));
#524=DIRECTION('center_axis',(-6.12323399573677E-17,-9.9579925010296E-17,
-1.));
#525=DIRECTION('ref_axis',(2.22044604925031E-16,-1.,9.9579925010296E-17));
#526=DIRECTION('center_axis',(-6.12323399573677E-17,-9.9579925010296E-17,
-1.));
#527=DIRECTION('ref_axis',(2.22044604925031E-16,-1.,9.9579925010296E-17));
#528=DIRECTION('center_axis',(-6.12323399573677E-17,-9.9579925010296E-17,
-1.));
#529=DIRECTION('ref_axis',(2.22044604925031E-16,-1.,9.9579925010296E-17));
#530=DIRECTION('center_axis',(-6.12323399573677E-17,-9.9579925010296E-17,
-1.));
#531=DIRECTION('ref_axis',(2.22044604925031E-16,-1.,9.9579925010296E-17));
#532=DIRECTION('center_axis',(-6.12323399573677E-17,-9.9579925010296E-17,
-1.));
#533=DIRECTION('ref_axis',(2.22044604925031E-16,-1.,9.9579925010296E-17));
#534=DIRECTION('center_axis',(-6.12323399573677E-17,-9.9579925010296E-17,
-1.));
#535=DIRECTION('ref_axis',(1.,4.44089209850063E-16,-6.12323399573677E-17));
#536=DIRECTION('center_axis',(6.12323399573677E-17,9.9579925010296E-17,
1.));
#537=DIRECTION('ref_axis',(2.22044604925031E-16,-1.,9.9579925010296E-17));
#538=DIRECTION('center_axis',(6.12323399573677E-17,9.9579925010296E-17,
1.));
#539=DIRECTION('ref_axis',(2.22044604925031E-16,-1.,9.9579925010296E-17));
#540=DIRECTION('center_axis',(6.12323399573677E-17,9.9579925010296E-17,
1.));
#541=DIRECTION('ref_axis',(2.22044604925031E-16,-1.,9.9579925010296E-17));
#542=DIRECTION('center_axis',(6.12323399573677E-17,9.9579925010296E-17,
1.));
#543=DIRECTION('ref_axis',(2.22044604925031E-16,-1.,9.9579925010296E-17));
#544=DIRECTION('center_axis',(6.12323399573677E-17,9.9579925010296E-17,
1.));
#545=DIRECTION('ref_axis',(2.22044604925031E-16,-1.,9.9579925010296E-17));
#546=DIRECTION('center_axis',(6.12323399573677E-17,9.9579925010296E-17,
1.));
#547=DIRECTION('ref_axis',(2.22044604925031E-16,-1.,9.9579925010296E-17));
#548=DIRECTION('center_axis',(6.12323399573677E-17,9.9579925010296E-17,
1.));
#549=DIRECTION('ref_axis',(-0.973010955073207,-0.23075892465412,8.25586939957994E-17));
#550=DIRECTION($,(-6.12323399573677E-17,-9.9579925010296E-17,-1.));
#551=DIRECTION($,(-6.12323399573677E-17,-9.9579925010296E-17,-1.));
#552=DIRECTION('center_axis',(6.12323399573677E-17,9.9579925010296E-17,
1.));
#553=DIRECTION('ref_axis',(-0.686348568437051,0.727272742926896,-3.03950363309024E-17));
#554=DIRECTION($,(-6.12323399573677E-17,-9.9579925010296E-17,-1.));
#555=DIRECTION('center_axis',(6.12323399573677E-17,9.9579925010296E-17,
1.));
#556=DIRECTION('ref_axis',(-0.97301094981008,0.230758946846455,3.66007786385872E-17));
#557=DIRECTION($,(-6.12323399573677E-17,-9.9579925010296E-17,-1.));
#558=DIRECTION('center_axis',(6.12323399573677E-17,9.9579925010296E-17,
1.));
#559=DIRECTION('ref_axis',(-0.286662350218339,-0.958031678477961,1.12953729181871E-16));
#560=DIRECTION($,(-6.12323399573677E-17,-9.9579925010296E-17,-1.));
#561=DIRECTION('center_axis',(6.12323399573677E-17,9.9579925010296E-17,
1.));
#562=DIRECTION('ref_axis',(-0.686348585024613,-0.727272727272728,1.14448493531337E-16));
#563=DIRECTION('center_axis',(6.12323399573677E-17,9.9579925010296E-17,
1.));
#564=DIRECTION('ref_axis',(-0.286662364785468,0.958031674119182,-7.78477148927497E-17));
#565=CARTESIAN_POINT('',(0.,0.,0.));
#566=CARTESIAN_POINT('Origin',(-3.89586132309744E-16,-5.66837394582122E-16,
-24.862));
#567=CARTESIAN_POINT('',(1.5,-3.86825351587023E-16,-24.724));
#568=CARTESIAN_POINT('Origin',(-4.11778224875281E-16,-5.36195239102467E-16,
-24.724));
#569=CARTESIAN_POINT('',(1.224,-1.75800185417902E-16,-25.));
#570=CARTESIAN_POINT('Origin',(-3.67394039744206E-16,-5.97479550061776E-16,
-25.));
#571=CARTESIAN_POINT('Origin',(-8.49830834647197E-16,6.86542647133178E-17,
-1.));
#572=CARTESIAN_POINT('',(-1.5,1.41328982122905E-16,-2.41218397451495E-16));
#573=CARTESIAN_POINT('Origin',(-1.01064309961486E-15,2.90698869638349E-16,
2.22044604925031E-16));
#574=CARTESIAN_POINT('Origin',(-3.67394039744206E-16,-5.97479550061776E-16,
-25.));
#575=CARTESIAN_POINT('Origin',(-5.96941270623269E-16,-2.66453525910043E-17,
1.13));
#576=CARTESIAN_POINT('',(-1.16212605604546,0.356363636363636,1.13));
#577=CARTESIAN_POINT('',(-0.889682982960749,0.828248866617569,1.13));
#578=CARTESIAN_POINT('Origin',(-0.969948452238572,0.56,1.13));
#579=CARTESIAN_POINT('',(-1.16212605062686,-0.356363631249941,1.13));
#580=CARTESIAN_POINT('Origin',(-1.49843686270752,-6.08772564542165E-16,
1.13));
#581=CARTESIAN_POINT('',(-0.889682997236533,-0.828248870889173,1.13));
#582=CARTESIAN_POINT('Origin',(-0.969948452238571,-0.56,1.13));
#583=CARTESIAN_POINT('',(-0.272443064731102,-1.18461251024318,1.13));
#584=CARTESIAN_POINT('Origin',(-0.749218431353761,-1.29768438907177,1.13));
#585=CARTESIAN_POINT('',(0.272443068052512,-1.18461249623822,1.13));
#586=CARTESIAN_POINT('Origin',(6.50949409055407E-16,-1.12,1.13));
#587=CARTESIAN_POINT('',(0.889682990098641,-0.828248868753371,1.13));
#588=CARTESIAN_POINT('Origin',(0.749218431353762,-1.29768438907177,1.13));
#589=CARTESIAN_POINT('',(1.16212605604546,-0.356363636363635,1.13));
#590=CARTESIAN_POINT('Origin',(0.969948452238571,-0.56,1.13));
#591=CARTESIAN_POINT('',(1.16212606417337,0.35636364403418,1.13));
#592=CARTESIAN_POINT('Origin',(1.49843686270752,1.88853506845933E-15,1.13));
#593=CARTESIAN_POINT('',(0.88968299009864,0.828248868753372,1.13));
#594=CARTESIAN_POINT('Origin',(0.969948452238571,0.560000000000001,1.13));
#595=CARTESIAN_POINT('',(0.272443063367889,1.18461251599125,1.13));
#596=CARTESIAN_POINT('Origin',(0.749218431353761,1.29768438907177,1.13));
#597=CARTESIAN_POINT('',(-0.272443065946823,1.18461250511701,1.13));
#598=CARTESIAN_POINT('Origin',(-7.34608925676788E-16,1.12,1.13));
#599=CARTESIAN_POINT('Origin',(-0.749218431353763,1.29768438907177,1.13));
#600=CARTESIAN_POINT('Origin',(0.969948452238571,-0.56,0.954675701275806));
#601=CARTESIAN_POINT('',(0.889682990098641,-0.828248868753371,2.29350066788172));
#602=CARTESIAN_POINT($,(0.889682990098641,-0.828248868753371,2.29350066788172));
#603=CARTESIAN_POINT('',(1.21243556529821,-0.7,2.4));
#604=CARTESIAN_POINT('Ctrl Pts',(1.21243556529821,-0.7,2.4));
#605=CARTESIAN_POINT('Ctrl Pts',(1.19124218885933,-0.736708004776086,2.4));
#606=CARTESIAN_POINT('Ctrl Pts',(1.16039434536563,-0.769765875912874,2.39533282527292));
#607=CARTESIAN_POINT('Ctrl Pts',(1.08820917489685,-0.817460220715263,2.37716419055874));
#608=CARTESIAN_POINT('Ctrl Pts',(1.04688728247498,-0.832102383647212,2.36361637622483));
#609=CARTESIAN_POINT('Ctrl Pts',(0.968729326850515,-0.842754837044745,2.33284142656683));
#610=CARTESIAN_POINT('Ctrl Pts',(0.927691191758048,-0.839621687902535,2.31403611330576));
#611=CARTESIAN_POINT('Ctrl Pts',(0.88968299009864,-0.828248868753371,2.29350066788172));
#612=CARTESIAN_POINT('',(1.16212605604546,-0.356363636363635,2.29350066788172));
#613=CARTESIAN_POINT('Ctrl Pts',(1.16212605604546,-0.356363636363633,2.29350066788172));
#614=CARTESIAN_POINT('Ctrl Pts',(1.19097930717099,-0.383593294978261,2.31403611330576));
#615=CARTESIAN_POINT('Ctrl Pts',(1.21421176146822,-0.417566787921171,2.33284142656683));
#616=CARTESIAN_POINT('Ctrl Pts',(1.24406544402556,-0.490579789698585,2.36361637622483));
#617=CARTESIAN_POINT('Ctrl Pts',(1.25204590517108,-0.533686679734343,2.37716419055874));
#618=CARTESIAN_POINT('Ctrl Pts',(1.24683397618974,-0.620048043538012,2.39533282527292));
#619=CARTESIAN_POINT('Ctrl Pts',(1.2336289417371,-0.663291995223914,2.4));
#620=CARTESIAN_POINT('Ctrl Pts',(1.21243556529821,-0.7,2.4));
#621=CARTESIAN_POINT($,(1.16212605604546,-0.356363636363635,2.29350066788172));
#622=CARTESIAN_POINT('Origin',(0.749218431353762,-1.29768438907177,0.834452429749341));
#623=CARTESIAN_POINT('',(0.272443068052512,-1.18461249623822,2.29350066315845));
#624=CARTESIAN_POINT($,(0.272443068052512,-1.18461249623822,2.29350066315845));
#625=CARTESIAN_POINT('Ctrl Pts',(0.88968299009864,-0.828248868753369,2.29350066788172));
#626=CARTESIAN_POINT('Ctrl Pts',(0.853789281885389,-0.817508748614032,2.27410766179623));
#627=CARTESIAN_POINT('Ctrl Pts',(0.816698603185647,-0.810999795680392,2.25606900828201));
#628=CARTESIAN_POINT('Ctrl Pts',(0.737039005850209,-0.805903408182359,2.22201267114241));
#629=CARTESIAN_POINT('Ctrl Pts',(0.688411875267197,-0.808991844250849,2.20446250669945));
#630=CARTESIAN_POINT('Ctrl Pts',(0.592521406390354,-0.83081835785957,2.18031258069292));
#631=CARTESIAN_POINT('Ctrl Pts',(0.545226003215781,-0.849656208564046,2.17393091727945));
#632=CARTESIAN_POINT('Ctrl Pts',(0.463210859491745,-0.897007673870744,2.17393091727945));
#633=CARTESIAN_POINT('Ctrl Pts',(0.423249100641684,-0.928547769149914,2.18031258069292));
#634=CARTESIAN_POINT('Ctrl Pts',(0.356401550942063,-1.0006780943737,2.20446250669945));
#635=CARTESIAN_POINT('Ctrl Pts',(0.32941332155728,-1.04124620673749,2.22201267114241));
#636=CARTESIAN_POINT('Ctrl Pts',(0.29399712523671,-1.11278163279565,2.25606900702584));
#637=CARTESIAN_POINT('Ctrl Pts',(0.28108870525315,-1.14815757615147,2.27410765886356));
#638=CARTESIAN_POINT('Ctrl Pts',(0.272443068052514,-1.18461249623822,2.29350066315845));
#639=CARTESIAN_POINT('Origin',(6.40213891689464E-16,-1.12,0.954675696316383));
#640=CARTESIAN_POINT('',(-0.272443064731102,-1.18461251024318,2.2935006706087));
#641=CARTESIAN_POINT($,(-0.272443064731102,-1.18461251024318,2.2935006706087));
#642=CARTESIAN_POINT('',(8.00709841862992E-16,-1.4,2.4));
#643=CARTESIAN_POINT('Ctrl Pts',(1.12063136548102E-15,-1.4,2.4));
#644=CARTESIAN_POINT('Ctrl Pts',(-0.0423867528777737,-1.4,2.4));
#645=CARTESIAN_POINT('Ctrl Pts',(-0.086439630824113,-1.38981391945089,2.39533282527292));
#646=CARTESIAN_POINT('Ctrl Pts',(-0.163836730274227,-1.35114690044961,2.37716419055874));
#647=CARTESIAN_POINT('Ctrl Pts',(-0.197178161550578,-1.3226821733458,2.36361637622483));
#648=CARTESIAN_POINT('Ctrl Pts',(-0.245482433549936,-1.2603216263444,2.33284142724711));
#649=CARTESIAN_POINT('Ctrl Pts',(-0.263288113865495,-1.22321498617084,2.31403611497617));
#650=CARTESIAN_POINT('Ctrl Pts',(-0.272443064731101,-1.18461251024318,2.2935006706087));
#651=CARTESIAN_POINT('Ctrl Pts',(0.272443068052514,-1.18461249623822,2.29350066315845));
#652=CARTESIAN_POINT('Ctrl Pts',(0.263288118093196,-1.22321497718228,2.31403611041251));
#653=CARTESIAN_POINT('Ctrl Pts',(0.245482436467139,-1.26032162257831,2.33284142538854));
#654=CARTESIAN_POINT('Ctrl Pts',(0.19717816155058,-1.3226821733458,2.36361637622483));
#655=CARTESIAN_POINT('Ctrl Pts',(0.163836730274229,-1.35114690044961,2.37716419055874));
#656=CARTESIAN_POINT('Ctrl Pts',(0.0864396308241152,-1.38981391945089,2.39533282527292));
#657=CARTESIAN_POINT('Ctrl Pts',(0.042386752877776,-1.4,2.4));
#658=CARTESIAN_POINT('Ctrl Pts',(1.12063136548102E-15,-1.4,2.4));
#659=CARTESIAN_POINT('Origin',(-0.749218431353761,-1.29768438907177,0.834452429556515));
#660=CARTESIAN_POINT('',(-0.889682997236533,-0.828248870889173,2.29350067173825));
#661=CARTESIAN_POINT($,(-0.889682997236533,-0.828248870889173,2.29350067173825));
#662=CARTESIAN_POINT('Ctrl Pts',(-0.2724430647311,-1.18461251024318,2.2935006706087));
#663=CARTESIAN_POINT('Ctrl Pts',(-0.281088701972159,-1.14815758521676,2.27410766348941));
#664=CARTESIAN_POINT('Ctrl Pts',(-0.293997123176179,-1.11278163695762,2.25606900900726));
#665=CARTESIAN_POINT('Ctrl Pts',(-0.329413321557278,-1.04124620673749,2.22201267114241));
#666=CARTESIAN_POINT('Ctrl Pts',(-0.35640155094206,-1.0006780943737,2.20446250669945));
#667=CARTESIAN_POINT('Ctrl Pts',(-0.423249100641682,-0.928547769149914,
2.18031258069292));
#668=CARTESIAN_POINT('Ctrl Pts',(-0.463210859491743,-0.897007673870744,
2.17393091727945));
#669=CARTESIAN_POINT('Ctrl Pts',(-0.545226003215779,-0.849656208564046,
2.17393091727945));
#670=CARTESIAN_POINT('Ctrl Pts',(-0.592521406390352,-0.830818357859571,
2.18031258069292));
#671=CARTESIAN_POINT('Ctrl Pts',(-0.688411875267195,-0.808991844250849,
2.20446250669944));
#672=CARTESIAN_POINT('Ctrl Pts',(-0.737039005850207,-0.80590340818236,2.22201267114241));
#673=CARTESIAN_POINT('Ctrl Pts',(-0.816698605584705,-0.810999795833877,
2.25606900930766));
#674=CARTESIAN_POINT('Ctrl Pts',(-0.853789286798424,-0.817508749489475,
2.27410766419075));
#675=CARTESIAN_POINT('Ctrl Pts',(-0.889682997236532,-0.828248870889171,
2.29350067173825));
#676=CARTESIAN_POINT('Origin',(-0.969948452238571,-0.56,0.95467569722645));
#677=CARTESIAN_POINT('',(-1.16212605062686,-0.356363631249941,2.29350066402519));
#678=CARTESIAN_POINT($,(-1.16212605062686,-0.356363631249941,2.29350066402519));
#679=CARTESIAN_POINT('',(-1.21243556529821,-0.700000000000001,2.4));
#680=CARTESIAN_POINT('Ctrl Pts',(-1.21243556529821,-0.7,2.4));
#681=CARTESIAN_POINT('Ctrl Pts',(-1.2336289417371,-0.663291995223914,2.4));
#682=CARTESIAN_POINT('Ctrl Pts',(-1.24683397618974,-0.620048043538012,2.39533282527292));
#683=CARTESIAN_POINT('Ctrl Pts',(-1.25204590517108,-0.533686679734343,2.37716419055874));
#684=CARTESIAN_POINT('Ctrl Pts',(-1.24406544402556,-0.490579789698585,2.36361637622483));
#685=CARTESIAN_POINT('Ctrl Pts',(-1.21421176053496,-0.417566785638692,2.33284142560476));
#686=CARTESIAN_POINT('Ctrl Pts',(-1.19097930423574,-0.383593290756628,2.31403611094343));
#687=CARTESIAN_POINT('Ctrl Pts',(-1.16212605062686,-0.356363631249941,2.29350066402519));
#688=CARTESIAN_POINT('Ctrl Pts',(-0.889682997236531,-0.828248870889172,
2.29350067173825));
#689=CARTESIAN_POINT('Ctrl Pts',(-0.927691196881718,-0.839621688333722,
2.31403611566808));
#690=CARTESIAN_POINT('Ctrl Pts',(-0.968729329293833,-0.842754836711736,
2.33284142752889));
#691=CARTESIAN_POINT('Ctrl Pts',(-1.04688728247498,-0.832102383647212,2.36361637622483));
#692=CARTESIAN_POINT('Ctrl Pts',(-1.08820917489685,-0.817460220715263,2.37716419055874));
#693=CARTESIAN_POINT('Ctrl Pts',(-1.16039434536563,-0.769765875912874,2.39533282527292));
#694=CARTESIAN_POINT('Ctrl Pts',(-1.19124218885933,-0.736708004776086,2.4));
#695=CARTESIAN_POINT('Ctrl Pts',(-1.21243556529821,-0.7,2.4));
#696=CARTESIAN_POINT('Origin',(-1.49843686270752,-6.38203169424701E-16,
0.834452429749341));
#697=CARTESIAN_POINT('',(-1.16212605604546,0.356363636363636,2.29350066788172));
#698=CARTESIAN_POINT($,(-1.16212605604546,0.356363636363636,2.29350066788172));
#699=CARTESIAN_POINT('Ctrl Pts',(-1.16212605062686,-0.356363631249943,2.29350066402519));
#700=CARTESIAN_POINT('Ctrl Pts',(-1.1348779818438,-0.33064882946751,2.27410765940171));
#701=CARTESIAN_POINT('Ctrl Pts',(-1.11069572578358,-0.301781837752937,2.25606900725635));
#702=CARTESIAN_POINT('Ctrl Pts',(-1.06645232740748,-0.235342798555129,2.2220126711424));
#703=CARTESIAN_POINT('Ctrl Pts',(-1.04481342620925,-0.191686250122852,2.20446250669944));
#704=CARTESIAN_POINT('Ctrl Pts',(-1.01577050703203,-0.0977294112903442,
2.18031258069292));
#705=CARTESIAN_POINT('Ctrl Pts',(-1.00843686270752,-0.0473514653066989,
2.17393091727945));
#706=CARTESIAN_POINT('Ctrl Pts',(-1.00843686270752,0.0473514653066975,2.17393091727945));
#707=CARTESIAN_POINT('Ctrl Pts',(-1.01577050703203,0.0977294112903429,2.18031258069292));
#708=CARTESIAN_POINT('Ctrl Pts',(-1.04481342620925,0.191686250122851,2.20446250669944));
#709=CARTESIAN_POINT('Ctrl Pts',(-1.06645232740748,0.235342798555127,2.2220126711424));
#710=CARTESIAN_POINT('Ctrl Pts',(-1.11069572711603,0.301781839753839,2.25606900828201));
#711=CARTESIAN_POINT('Ctrl Pts',(-1.13487798505847,0.330648833284602,2.27410766179623));
#712=CARTESIAN_POINT('Ctrl Pts',(-1.16212605604546,0.356363636363636,2.29350066788172));
#713=CARTESIAN_POINT('Origin',(1.02291033070638E-16,1.66352182678169E-16,
1.6705393447622));
#714=CARTESIAN_POINT('',(-2.8,-1.20404464550137E-16,1.59098985215448));
#715=CARTESIAN_POINT('Origin',(9.74200314958453E-17,1.58430650169685E-16,
1.59098985215448));
#716=CARTESIAN_POINT('',(-9.64614672860354E-16,2.8,-2.78823790028829E-16));
#717=CARTESIAN_POINT('Origin',(0.,0.,0.));
#718=CARTESIAN_POINT('Origin',(9.74200314958453E-17,1.58430650169685E-16,
1.59098985215448));
#719=CARTESIAN_POINT('',(1.35847845839372E-15,-2.66949152542373,1.82774348745178));
#720=CARTESIAN_POINT('Origin',(1.11917010578512E-16,1.82006559418505E-16,
1.82774348745178));
#721=CARTESIAN_POINT('Origin',(-1.46957615897682E-16,-2.3899182002471E-16,
-2.4));
#722=CARTESIAN_POINT('',(-1.21243556529821,0.699999999999999,2.4));
#723=CARTESIAN_POINT('Origin',(1.46957615897682E-16,2.3899182002471E-16,
2.4));
#724=CARTESIAN_POINT('',(-8.57794221388084E-16,1.4,2.4));
#725=CARTESIAN_POINT('Origin',(1.46957615897682E-16,2.3899182002471E-16,
2.4));
#726=CARTESIAN_POINT('',(1.21243556529821,0.700000000000001,2.4));
#727=CARTESIAN_POINT('Origin',(1.46957615897682E-16,2.3899182002471E-16,
2.4));
#728=CARTESIAN_POINT('Origin',(1.46957615897682E-16,2.3899182002471E-16,
2.4));
#729=CARTESIAN_POINT('Origin',(1.46957615897682E-16,2.3899182002471E-16,
2.4));
#730=CARTESIAN_POINT('Origin',(1.46957615897682E-16,2.3899182002471E-16,
2.4));
#731=CARTESIAN_POINT('Origin',(-3.08,-3.08,4.95301776100404E-16));
#732=CARTESIAN_POINT('Origin',(1.58696444714553E-16,2.58082249920196E-16,
2.5917096231345));
#733=CARTESIAN_POINT('Ctrl Pts',(-1.16212605604546,0.356363636363634,2.29350066788172));
#734=CARTESIAN_POINT('Ctrl Pts',(-1.19097930717099,0.383593294978261,2.31403611330576));
#735=CARTESIAN_POINT('Ctrl Pts',(-1.21421176146822,0.417566787921171,2.33284142656683));
#736=CARTESIAN_POINT('Ctrl Pts',(-1.24406544402556,0.490579789698585,2.36361637622483));
#737=CARTESIAN_POINT('Ctrl Pts',(-1.25204590517108,0.533686679734343,2.37716419055874));
#738=CARTESIAN_POINT('Ctrl Pts',(-1.24683397618975,0.620048043538012,2.39533282527292));
#739=CARTESIAN_POINT('Ctrl Pts',(-1.2336289417371,0.663291995223914,2.4));
#740=CARTESIAN_POINT('Ctrl Pts',(-1.21243556529821,0.7,2.4));
#741=CARTESIAN_POINT('Origin',(1.58696444714553E-16,2.58082249920196E-16,
2.5917096231345));
#742=CARTESIAN_POINT('Origin',(1.58696444714553E-16,2.58082249920196E-16,
2.5917096231345));
#743=CARTESIAN_POINT('Origin',(1.58696444714553E-16,2.58082249920196E-16,
2.5917096231345));
#744=CARTESIAN_POINT('',(1.16212606417337,0.356363644034181,2.29350067366652));
#745=CARTESIAN_POINT('Ctrl Pts',(1.21243556529821,0.700000000000002,2.4));
#746=CARTESIAN_POINT('Ctrl Pts',(1.2336289417371,0.663291995223915,2.4));
#747=CARTESIAN_POINT('Ctrl Pts',(1.24683397618974,0.620048043538014,2.39533282527292));
#748=CARTESIAN_POINT('Ctrl Pts',(1.25204590517108,0.533686679734344,2.37716419055874));
#749=CARTESIAN_POINT('Ctrl Pts',(1.24406544402556,0.490579789698587,2.36361637622483));
#750=CARTESIAN_POINT('Ctrl Pts',(1.21421176286812,0.417566791344895,2.33284142800992));
#751=CARTESIAN_POINT('Ctrl Pts',(1.19097931157387,0.383593301310719,2.31403611684925));
#752=CARTESIAN_POINT('Ctrl Pts',(1.16212606417337,0.356363644034182,2.29350067366652));
#753=CARTESIAN_POINT('Ctrl Pts',(1.16212606417337,0.356363644034184,2.29350067366652));
#754=CARTESIAN_POINT('Ctrl Pts',(1.13487798988048,0.330648839010247,2.27410766538801));
#755=CARTESIAN_POINT('Ctrl Pts',(1.11069572911471,0.301781842755199,2.25606900982049));
#756=CARTESIAN_POINT('Ctrl Pts',(1.06645232740748,0.235342798555129,2.2220126711424));
#757=CARTESIAN_POINT('Ctrl Pts',(1.04481342620925,0.191686250122853,2.20446250669944));
#758=CARTESIAN_POINT('Ctrl Pts',(1.01577050703203,0.0977294112903449,2.18031258069292));
#759=CARTESIAN_POINT('Ctrl Pts',(1.00843686270752,0.0473514653066995,2.17393091727945));
#760=CARTESIAN_POINT('Ctrl Pts',(1.00843686270752,-0.047351465306697,2.17393091727945));
#761=CARTESIAN_POINT('Ctrl Pts',(1.01577050703203,-0.0977294112903426,2.18031258069292));
#762=CARTESIAN_POINT('Ctrl Pts',(1.04481342620926,-0.19168625012285,2.20446250669944));
#763=CARTESIAN_POINT('Ctrl Pts',(1.06645232740748,-0.235342798555127,2.2220126711424));
#764=CARTESIAN_POINT('Ctrl Pts',(1.11069572711603,-0.301781839753838,2.25606900828201));
#765=CARTESIAN_POINT('Ctrl Pts',(1.13487798505847,-0.330648833284601,2.27410766179623));
#766=CARTESIAN_POINT('Ctrl Pts',(1.16212605604546,-0.356363636363635,2.29350066788172));
#767=CARTESIAN_POINT('Origin',(1.58696444714553E-16,2.58082249920196E-16,
2.5917096231345));
#768=CARTESIAN_POINT('',(0.88968299009864,0.828248868753373,2.29350066788172));
#769=CARTESIAN_POINT('Ctrl Pts',(0.889682990098639,0.828248868753372,2.29350066788172));
#770=CARTESIAN_POINT('Ctrl Pts',(0.927691191758047,0.839621687902537,2.31403611330576));
#771=CARTESIAN_POINT('Ctrl Pts',(0.968729326850514,0.842754837044747,2.33284142656683));
#772=CARTESIAN_POINT('Ctrl Pts',(1.04688728247498,0.832102383647214,2.36361637622483));
#773=CARTESIAN_POINT('Ctrl Pts',(1.08820917489685,0.817460220715265,2.37716419055874));
#774=CARTESIAN_POINT('Ctrl Pts',(1.16039434536563,0.769765875912876,2.39533282527292));
#775=CARTESIAN_POINT('Ctrl Pts',(1.19124218885933,0.736708004776088,2.4));
#776=CARTESIAN_POINT('Ctrl Pts',(1.21243556529821,0.700000000000002,2.4));
#777=CARTESIAN_POINT('',(0.272443063367889,1.18461251599125,2.29350067366652));
#778=CARTESIAN_POINT('Ctrl Pts',(-5.93275428784068E-16,1.4,2.4));
#779=CARTESIAN_POINT('Ctrl Pts',(0.0423867528777742,1.4,2.4));
#780=CARTESIAN_POINT('Ctrl Pts',(0.0864396308241136,1.38981391945089,2.39533282527292));
#781=CARTESIAN_POINT('Ctrl Pts',(0.163836730274227,1.35114690044961,2.37716419055874));
#782=CARTESIAN_POINT('Ctrl Pts',(0.197178161550578,1.3226821733458,2.36361637622483));
#783=CARTESIAN_POINT('Ctrl Pts',(0.245482432352625,1.26032162789012,2.33284142800992));
#784=CARTESIAN_POINT('Ctrl Pts',(0.263288112130316,1.22321498986003,2.31403611684924));
#785=CARTESIAN_POINT('Ctrl Pts',(0.27244306336789,1.18461251599125,2.29350067366652));
#786=CARTESIAN_POINT('Ctrl Pts',(0.27244306336789,1.18461251599125,2.29350067366652));
#787=CARTESIAN_POINT('Ctrl Pts',(0.281088700625539,1.14815758893744,2.27410766538801));
#788=CARTESIAN_POINT('Ctrl Pts',(0.293997122330473,1.11278163866582,2.25606900982049));
#789=CARTESIAN_POINT('Ctrl Pts',(0.329413321557278,1.04124620673749,2.22201267114241));
#790=CARTESIAN_POINT('Ctrl Pts',(0.356401550942061,1.0006780943737,2.20446250669944));
#791=CARTESIAN_POINT('Ctrl Pts',(0.423249100641682,0.928547769149915,2.18031258069292));
#792=CARTESIAN_POINT('Ctrl Pts',(0.463210859491743,0.897007673870745,2.17393091727945));
#793=CARTESIAN_POINT('Ctrl Pts',(0.545226003215779,0.849656208564047,2.17393091727945));
#794=CARTESIAN_POINT('Ctrl Pts',(0.592521406390352,0.830818357859571,2.18031258069292));
#795=CARTESIAN_POINT('Ctrl Pts',(0.688411875267195,0.808991844250849,2.20446250669944));
#796=CARTESIAN_POINT('Ctrl Pts',(0.737039005850207,0.80590340818236,2.22201267114241));
#797=CARTESIAN_POINT('Ctrl Pts',(0.816698603185645,0.810999795680392,2.25606900828201));
#798=CARTESIAN_POINT('Ctrl Pts',(0.853789281885387,0.817508748614034,2.27410766179623));
#799=CARTESIAN_POINT('Ctrl Pts',(0.889682990098639,0.828248868753371,2.29350066788172));
#800=CARTESIAN_POINT('Origin',(1.58696444714553E-16,2.58082249920196E-16,
2.5917096231345));
#801=CARTESIAN_POINT('',(-0.272443065946823,1.18461250511701,2.29350066788172));
#802=CARTESIAN_POINT('Ctrl Pts',(-0.272443065946823,1.18461250511701,2.29350066788172));
#803=CARTESIAN_POINT('Ctrl Pts',(-0.263288115412942,1.2232149828808,2.31403611330576));
#804=CARTESIAN_POINT('Ctrl Pts',(-0.245482434617707,1.26032162496592,2.33284142656683));
#805=CARTESIAN_POINT('Ctrl Pts',(-0.19717816155058,1.3226821733458,2.36361637622483));
#806=CARTESIAN_POINT('Ctrl Pts',(-0.163836730274228,1.35114690044961,2.37716419055874));
#807=CARTESIAN_POINT('Ctrl Pts',(-0.0864396308241147,1.38981391945089,2.39533282527292));
#808=CARTESIAN_POINT('Ctrl Pts',(-0.0423867528777754,1.4,2.4));
#809=CARTESIAN_POINT('Ctrl Pts',(-5.93275428784068E-16,1.4,2.4));
#810=CARTESIAN_POINT('',(-0.889682982960749,0.828248866617569,2.29350066402519));
#811=CARTESIAN_POINT('Ctrl Pts',(-1.21243556529821,0.7,2.4));
#812=CARTESIAN_POINT('Ctrl Pts',(-1.19124218885933,0.736708004776086,2.4));
#813=CARTESIAN_POINT('Ctrl Pts',(-1.16039434536563,0.769765875912874,2.39533282527292));
#814=CARTESIAN_POINT('Ctrl Pts',(-1.08820917489685,0.817460220715263,2.37716419055874));
#815=CARTESIAN_POINT('Ctrl Pts',(-1.04688728247498,0.832102383647212,2.36361637622483));
#816=CARTESIAN_POINT('Ctrl Pts',(-0.968729324407197,0.842754837377754,2.33284142560476));
#817=CARTESIAN_POINT('Ctrl Pts',(-0.927691186634378,0.839621687471349,2.31403611094343));
#818=CARTESIAN_POINT('Ctrl Pts',(-0.889682982960748,0.82824886661757,2.29350066402519));
#819=CARTESIAN_POINT('Ctrl Pts',(-0.889682982960748,0.828248866617569,2.29350066402519));
#820=CARTESIAN_POINT('Ctrl Pts',(-0.853789276972351,0.817508747738592,2.27410765940171));
#821=CARTESIAN_POINT('Ctrl Pts',(-0.816698600786587,0.810999795526907,2.25606900725635));
#822=CARTESIAN_POINT('Ctrl Pts',(-0.737039005850209,0.805903408182359,2.22201267114241));
#823=CARTESIAN_POINT('Ctrl Pts',(-0.688411875267197,0.808991844250849,2.20446250669945));
#824=CARTESIAN_POINT('Ctrl Pts',(-0.592521406390354,0.830818357859571,2.18031258069292));
#825=CARTESIAN_POINT('Ctrl Pts',(-0.545226003215781,0.849656208564046,2.17393091727945));
#826=CARTESIAN_POINT('Ctrl Pts',(-0.463210859491745,0.897007673870744,2.17393091727945));
#827=CARTESIAN_POINT('Ctrl Pts',(-0.423249100641684,0.928547769149915,2.18031258069292));
#828=CARTESIAN_POINT('Ctrl Pts',(-0.356401550942063,1.0006780943737,2.20446250669945));
#829=CARTESIAN_POINT('Ctrl Pts',(-0.329413321557281,1.04124620673749,2.22201267114241));
#830=CARTESIAN_POINT('Ctrl Pts',(-0.293997123930387,1.11278163543423,2.25606900828201));
#831=CARTESIAN_POINT('Ctrl Pts',(-0.281088703173087,1.14815758189864,2.27410766179623));
#832=CARTESIAN_POINT('Ctrl Pts',(-0.272443065946823,1.18461250511701,2.29350066788172));
#833=CARTESIAN_POINT('Origin',(0.749218431353761,1.29768438907177,0.834452429460102));
#834=CARTESIAN_POINT($,(0.88968299009864,0.828248868753373,2.29350066788172));
#835=CARTESIAN_POINT($,(0.272443063367889,1.18461251599125,2.29350067366652));
#836=CARTESIAN_POINT('Origin',(1.49843686270752,1.85910446354799E-15,0.834452429460102));
#837=CARTESIAN_POINT($,(1.16212606417337,0.356363644034181,2.29350067366652));
#838=CARTESIAN_POINT('Origin',(-7.45344442739055E-16,1.12,0.954675701275806));
#839=CARTESIAN_POINT($,(-0.272443065946823,1.18461250511701,2.29350066788172));
#840=CARTESIAN_POINT('Origin',(-0.749218431353763,1.29768438907177,0.834452429749342));
#841=CARTESIAN_POINT($,(-0.889682982960749,0.828248866617569,2.29350066402519));
#842=CARTESIAN_POINT('Origin',(-0.969948452238572,0.56,0.95467569722645));
#843=CARTESIAN_POINT('Origin',(0.969948452238571,0.560000000000001,0.954675701275806));
#844=UNCERTAINTY_MEASURE_WITH_UNIT(LENGTH_MEASURE(0.01),#848,
'DISTANCE_ACCURACY_VALUE',
'Maximum model space distance between geometric entities at asserted c
onnectivities');
#845=UNCERTAINTY_MEASURE_WITH_UNIT(LENGTH_MEASURE(1.E-6),#848,
'DISTANCE_ACCURACY_VALUE',
'Maximum model space distance between geometric entities at asserted c
onnectivities');
#846=(
GEOMETRIC_REPRESENTATION_CONTEXT(3)
GLOBAL_UNCERTAINTY_ASSIGNED_CONTEXT((#844))
GLOBAL_UNIT_ASSIGNED_CONTEXT((#848,#850,#849))
REPRESENTATION_CONTEXT('','3D')
);
#847=(
GEOMETRIC_REPRESENTATION_CONTEXT(3)
GLOBAL_UNCERTAINTY_ASSIGNED_CONTEXT((#845))
GLOBAL_UNIT_ASSIGNED_CONTEXT((#848,#12,#849))
REPRESENTATION_CONTEXT('','3D')
);
#848=(
LENGTH_UNIT()
NAMED_UNIT(*)
SI_UNIT(.MILLI.,.METRE.)
);
#849=(
NAMED_UNIT(*)
SI_UNIT($,.STERADIAN.)
SOLID_ANGLE_UNIT()
);
#850=(
NAMED_UNIT(*)
PLANE_ANGLE_UNIT()
SI_UNIT($,.RADIAN.)
);
#851=SHAPE_DEFINITION_REPRESENTATION(#852,#853);
#852=PRODUCT_DEFINITION_SHAPE('',$,#855);
#853=SHAPE_REPRESENTATION('',(#400),#846);
#854=PRODUCT_DEFINITION_CONTEXT('part definition',#859,'design');
#855=PRODUCT_DEFINITION('Product','Product',#856,#854);
#856=PRODUCT_DEFINITION_FORMATION('',$,#861);
#857=PRODUCT_RELATED_PRODUCT_CATEGORY('Product','Product',(#861));
#858=APPLICATION_PROTOCOL_DEFINITION('international standard',
'automotive_design',2009,#859);
#859=APPLICATION_CONTEXT(
'Core Data for Automotive Mechanical Design Process');
#860=PRODUCT_CONTEXT('part definition',#859,'mechanical');
#861=PRODUCT('Product','Product',$,(#860));
#862=PRESENTATION_STYLE_ASSIGNMENT((#864));
#863=PRESENTATION_STYLE_ASSIGNMENT((#865));
#864=SURFACE_STYLE_USAGE(.BOTH.,#866);
#865=SURFACE_STYLE_USAGE(.BOTH.,#867);
#866=SURFACE_SIDE_STYLE($,(#868));
#867=SURFACE_SIDE_STYLE($,(#869));
#868=SURFACE_STYLE_FILL_AREA(#870);
#869=SURFACE_STYLE_FILL_AREA(#871);
#870=FILL_AREA_STYLE($,(#872));
#871=FILL_AREA_STYLE($,(#873));
#872=FILL_AREA_STYLE_COLOUR($,#874);
#873=FILL_AREA_STYLE_COLOUR($,#875);
#874=COLOUR_RGB('',1.,1.,1.);
#875=COLOUR_RGB('',0.733333333333333,0.733333333333333,0.733333333333333);
ENDSEC;
END-ISO-10303-21;
