ISO-10303-21;
HEADER;
/****************************************************************
 * Generated by software with PDElib inside                    *
 * PDElib Version v51a, created Wed 11/30/2011                  *
 * ITI Transcendata (http://www.transcendata.com/)              *
 ****************************************************************/
FILE_DESCRIPTION((''),'2;1');
FILE_NAME('BOSSARD_BN1074-1404849_h.stp','2014-04-17T13:32:04',(''),(''),'Mechanical Desktop 2011','Mechanical Desktop 2011',', , ');
FILE_SCHEMA(('AUTOMOTIVE_DESIGN { 1 2 10303 214 1 1 1 1 }'));
ENDSEC;
DATA;
#10=(NAMED_UNIT(*)PLANE_ANGLE_UNIT()SI_UNIT($,.RADIAN.));
#11=DIMENSIONAL_EXPONENTS(0.0,0.0,0.0,0.0,0.0,0.0,0.0);
#12=PLANE_ANGLE_MEASURE_WITH_UNIT(PLANE_ANGLE_MEASURE(0.0174532925),#10);
#16=(CONVERSION_BASED_UNIT('DEGREE',#12)NAMED_UNIT(#11)PLANE_ANGLE_UNIT());
#20=(NAMED_UNIT(*)SI_UNIT($,.STERADIAN.)SOLID_ANGLE_UNIT());
#24=(LENGTH_UNIT()NAMED_UNIT(*)SI_UNIT(.MILLI.,.METRE.));
#26=UNCERTAINTY_MEASURE_WITH_UNIT(LENGTH_MEASURE(0.000001),#24,'DISTANCE_ACCURACY_VALUE','');
#28=(GEOMETRIC_REPRESENTATION_CONTEXT(3)GLOBAL_UNCERTAINTY_ASSIGNED_CONTEXT((#26))GLOBAL_UNIT_ASSIGNED_CONTEXT((#16,#20,#24))REPRESENTATION_CONTEXT('','3D'));
#29=APPLICATION_CONTEXT('automotive design');
#30=APPLICATION_PROTOCOL_DEFINITION('INTERNATIONAL_STANDARD','automotive_design',1998,#29);
#31=PRODUCT_CONTEXT('3D Mechanical Parts',#29,'mechanical');
#32=PRODUCT('Product','Product','',(#31));
#33=PRODUCT_RELATED_PRODUCT_CATEGORY('part',$,(#32));
#34=PRODUCT_CATEGORY('part',$);
#35=PERSON('1','Design','Joe',$,$,$);
#36=ORGANIZATION($,'None','None');
#37=PERSON_AND_ORGANIZATION(#35,#36);
#38=PERSON_AND_ORGANIZATION_ROLE('design_owner');
#39=APPLIED_PERSON_AND_ORGANIZATION_ASSIGNMENT(#37,#38,(#32));
#40=PRODUCT_DEFINITION_FORMATION_WITH_SPECIFIED_SOURCE('None','',#32,.BOUGHT.);
#41=PERSON('2','Creator','Joe',$,$,$);
#42=ORGANIZATION($,'None','None');
#43=PERSON_AND_ORGANIZATION(#41,#42);
#44=PERSON_AND_ORGANIZATION_ROLE('creator');
#45=APPLIED_PERSON_AND_ORGANIZATION_ASSIGNMENT(#43,#44,(#40));
#46=PERSON('3','Supplier','Joe',$,$,$);
#47=ORGANIZATION($,'None','None');
#48=PERSON_AND_ORGANIZATION(#46,#47);
#49=PERSON_AND_ORGANIZATION_ROLE('design_supplier');
#50=APPLIED_PERSON_AND_ORGANIZATION_ASSIGNMENT(#48,#49,(#40));
#51=PRODUCT_DEFINITION_CONTEXT('part definition',#29,'design');
#52=PRODUCT_DEFINITION('None','',#40,#51);
#53=PERSON('4','Creator','Joe',$,$,$);
#54=ORGANIZATION($,'None','None');
#55=PERSON_AND_ORGANIZATION(#53,#54);
#56=PERSON_AND_ORGANIZATION_ROLE('creator');
#57=APPLIED_PERSON_AND_ORGANIZATION_ASSIGNMENT(#55,#56,(#52));
#58=CARTESIAN_POINT('NONE',(0.0,0.0,0.0));
#59=DIRECTION('NONE',(0.0,0.0,1.0));
#60=DIRECTION('NONE',(1.0,0.0,0.0));
#61=AXIS2_PLACEMENT_3D('NONE',#58,#59,#60);
#62=SHAPE_REPRESENTATION('SR1',(#61),#28);
#63=PRODUCT_DEFINITION_SHAPE('PDS1','Test Part',#52);
#64=SHAPE_DEFINITION_REPRESENTATION(#63,#62);
#65=CARTESIAN_POINT('',(0.4,-2.511145E-016,-7.347881E-017));
#66=DIRECTION('',(1.0,-6.277862E-016,-1.836970E-016));
#67=DIRECTION('',(0.0,-1.0,0.0));
#68=AXIS2_PLACEMENT_3D('',#65,#66,#67);
#69=CYLINDRICAL_SURFACE('',#68,4.5);
#70=CARTESIAN_POINT('',(0.799999999999997,-4.5,-1.469576E-016));
#71=VERTEX_POINT('',#70);
#72=CARTESIAN_POINT('',(-2.825038E-015,-4.5,0.0));
#73=VERTEX_POINT('',#72);
#74=CARTESIAN_POINT('',(0.799999999999997,-4.5,-1.469576E-016));
#75=DIRECTION('',(-1.0,0.0,0.0));
#76=VECTOR('',#75,0.8);
#77=LINE('',#74,#76);
#78=EDGE_CURVE('',#71,#73,#77,.T.);
#79=ORIENTED_EDGE('',*,*,#78,.F.);
#80=CARTESIAN_POINT('',(0.800000000000003,4.5,4.041334E-016));
#81=VERTEX_POINT('',#80);
#82=CARTESIAN_POINT('',(0.8,-5.022290E-016,-1.469576E-016));
#83=DIRECTION('',(1.0,0.0,0.0));
#84=DIRECTION('',(0.0,-1.0,0.0));
#85=AXIS2_PLACEMENT_3D('',#82,#83,#84);
#86=CIRCLE('',#85,4.5);
#87=EDGE_CURVE('',#81,#71,#86,.T.);
#88=ORIENTED_EDGE('',*,*,#87,.F.);
#89=CARTESIAN_POINT('',(2.831069E-015,4.5,5.510911E-016));
#90=VERTEX_POINT('',#89);
#91=CARTESIAN_POINT('',(0.800000000000003,4.5,4.041334E-016));
#92=DIRECTION('',(-1.0,0.0,0.0));
#93=VECTOR('',#92,0.8);
#94=LINE('',#91,#93);
#95=EDGE_CURVE('',#81,#90,#94,.T.);
#96=ORIENTED_EDGE('',*,*,#95,.T.);
#97=CARTESIAN_POINT('',(0.0,0.0,0.0));
#98=DIRECTION('',(-1.0,0.0,0.0));
#99=DIRECTION('',(0.0,-1.0,0.0));
#100=AXIS2_PLACEMENT_3D('',#97,#98,#99);
#101=CIRCLE('',#100,4.5);
#102=EDGE_CURVE('',#73,#90,#101,.T.);
#103=ORIENTED_EDGE('',*,*,#102,.F.);
#104=EDGE_LOOP('',(#79,#88,#96,#103));
#105=FACE_OUTER_BOUND('',#104,.T.);
#106=ADVANCED_FACE('',(#105),#69,.T.);
#107=CARTESIAN_POINT('',(0.4,-2.511145E-016,-7.347881E-017));
#108=DIRECTION('',(1.0,-6.277862E-016,-1.836970E-016));
#109=DIRECTION('',(0.0,-1.0,0.0));
#110=AXIS2_PLACEMENT_3D('',#107,#108,#109);
#111=CYLINDRICAL_SURFACE('',#110,2.15);
#112=CARTESIAN_POINT('',(-1.349740E-015,-2.15,0.0));
#113=VERTEX_POINT('',#112);
#114=CARTESIAN_POINT('',(0.799999999999999,-2.15,-1.469576E-016));
#115=VERTEX_POINT('',#114);
#116=CARTESIAN_POINT('',(-1.332268E-015,-2.15,0.0));
#117=DIRECTION('',(1.0,0.0,0.0));
#118=VECTOR('',#117,0.8);
#119=LINE('',#116,#118);
#120=EDGE_CURVE('',#113,#115,#119,.T.);
#121=ORIENTED_EDGE('',*,*,#120,.F.);
#122=CARTESIAN_POINT('',(1.332268E-015,2.15,2.632991E-016));
#123=VERTEX_POINT('',#122);
#124=CARTESIAN_POINT('',(0.0,0.0,0.0));
#125=DIRECTION('',(1.0,0.0,0.0));
#126=DIRECTION('',(0.0,-1.0,0.0));
#127=AXIS2_PLACEMENT_3D('',#124,#125,#126);
#128=CIRCLE('',#127,2.15);
#129=EDGE_CURVE('',#123,#113,#128,.T.);
#130=ORIENTED_EDGE('',*,*,#129,.F.);
#131=CARTESIAN_POINT('',(0.800000000000001,2.149999999999999,1.163414E-016));
#132=VERTEX_POINT('',#131);
#133=CARTESIAN_POINT('',(1.332268E-015,2.15,2.632991E-016));
#134=DIRECTION('',(1.0,0.0,0.0));
#135=VECTOR('',#134,0.8);
#136=LINE('',#133,#135);
#137=EDGE_CURVE('',#123,#132,#136,.T.);
#138=ORIENTED_EDGE('',*,*,#137,.T.);
#139=CARTESIAN_POINT('',(0.8,-5.022290E-016,-1.469576E-016));
#140=DIRECTION('',(-1.0,0.0,0.0));
#141=DIRECTION('',(0.0,-1.0,0.0));
#142=AXIS2_PLACEMENT_3D('',#139,#140,#141);
#143=CIRCLE('',#142,2.15);
#144=EDGE_CURVE('',#115,#132,#143,.T.);
#145=ORIENTED_EDGE('',*,*,#144,.F.);
#146=EDGE_LOOP('',(#121,#130,#138,#145));
#147=FACE_OUTER_BOUND('',#146,.T.);
#148=ADVANCED_FACE('',(#147),#111,.F.);
#149=CARTESIAN_POINT('',(0.4,-2.511145E-016,-7.347881E-017));
#150=DIRECTION('',(1.0,-6.277862E-016,-1.836970E-016));
#151=DIRECTION('',(0.0,-1.0,0.0));
#152=AXIS2_PLACEMENT_3D('',#149,#150,#151);
#153=CYLINDRICAL_SURFACE('',#152,2.15);
#154=ORIENTED_EDGE('',*,*,#120,.T.);
#155=CARTESIAN_POINT('',(0.8,-5.022290E-016,-1.469576E-016));
#156=DIRECTION('',(-1.0,0.0,0.0));
#157=DIRECTION('',(0.0,-1.0,0.0));
#158=AXIS2_PLACEMENT_3D('',#155,#156,#157);
#159=CIRCLE('',#158,2.15);
#160=EDGE_CURVE('',#132,#115,#159,.T.);
#161=ORIENTED_EDGE('',*,*,#160,.F.);
#162=ORIENTED_EDGE('',*,*,#137,.F.);
#163=CARTESIAN_POINT('',(0.0,0.0,0.0));
#164=DIRECTION('',(1.0,0.0,0.0));
#165=DIRECTION('',(0.0,-1.0,0.0));
#166=AXIS2_PLACEMENT_3D('',#163,#164,#165);
#167=CIRCLE('',#166,2.15);
#168=EDGE_CURVE('',#113,#123,#167,.T.);
#169=ORIENTED_EDGE('',*,*,#168,.F.);
#170=EDGE_LOOP('',(#154,#161,#162,#169));
#171=FACE_OUTER_BOUND('',#170,.T.);
#172=ADVANCED_FACE('',(#171),#153,.F.);
#173=CARTESIAN_POINT('',(0.4,-2.511145E-016,-7.347881E-017));
#174=DIRECTION('',(1.0,-6.277862E-016,-1.836970E-016));
#175=DIRECTION('',(0.0,-1.0,0.0));
#176=AXIS2_PLACEMENT_3D('',#173,#174,#175);
#177=CYLINDRICAL_SURFACE('',#176,4.5);
#178=ORIENTED_EDGE('',*,*,#78,.T.);
#179=CARTESIAN_POINT('',(0.0,0.0,0.0));
#180=DIRECTION('',(-1.0,0.0,0.0));
#181=DIRECTION('',(0.0,-1.0,0.0));
#182=AXIS2_PLACEMENT_3D('',#179,#180,#181);
#183=CIRCLE('',#182,4.5);
#184=EDGE_CURVE('',#90,#73,#183,.T.);
#185=ORIENTED_EDGE('',*,*,#184,.F.);
#186=ORIENTED_EDGE('',*,*,#95,.F.);
#187=CARTESIAN_POINT('',(0.8,-5.022290E-016,-1.469576E-016));
#188=DIRECTION('',(1.0,0.0,0.0));
#189=DIRECTION('',(0.0,-1.0,0.0));
#190=AXIS2_PLACEMENT_3D('',#187,#188,#189);
#191=CIRCLE('',#190,4.5);
#192=EDGE_CURVE('',#71,#81,#191,.T.);
#193=ORIENTED_EDGE('',*,*,#192,.F.);
#194=EDGE_LOOP('',(#178,#185,#186,#193));
#195=FACE_OUTER_BOUND('',#194,.T.);
#196=ADVANCED_FACE('',(#195),#177,.T.);
#197=CARTESIAN_POINT('',(0.0,0.0,0.0));
#198=DIRECTION('',(-1.0,0.0,0.0));
#199=DIRECTION('',(0.0,1.0,0.0));
#200=AXIS2_PLACEMENT_3D('',#197,#198,#199);
#201=PLANE('',#200);
#202=ORIENTED_EDGE('',*,*,#102,.T.);
#203=ORIENTED_EDGE('',*,*,#184,.T.);
#204=EDGE_LOOP('',(#202,#203));
#205=FACE_OUTER_BOUND('',#204,.T.);
#206=ORIENTED_EDGE('',*,*,#168,.T.);
#207=ORIENTED_EDGE('',*,*,#129,.T.);
#208=EDGE_LOOP('',(#206,#207));
#209=FACE_BOUND('',#208,.T.);
#210=ADVANCED_FACE('',(#205,#209),#201,.T.);
#211=CARTESIAN_POINT('',(0.8,-5.022290E-016,-1.469576E-016));
#212=DIRECTION('',(1.0,0.0,0.0));
#213=DIRECTION('',(0.0,-1.0,0.0));
#214=AXIS2_PLACEMENT_3D('',#211,#212,#213);
#215=PLANE('',#214);
#216=ORIENTED_EDGE('',*,*,#192,.T.);
#217=ORIENTED_EDGE('',*,*,#87,.T.);
#218=EDGE_LOOP('',(#216,#217));
#219=FACE_OUTER_BOUND('',#218,.T.);
#220=ORIENTED_EDGE('',*,*,#144,.T.);
#221=ORIENTED_EDGE('',*,*,#160,.T.);
#222=EDGE_LOOP('',(#220,#221));
#223=FACE_BOUND('',#222,.T.);
#224=ADVANCED_FACE('',(#219,#223),#215,.T.);
#225=CLOSED_SHELL('',(#106,#148,#172,#196,#210,#224));
#226=MANIFOLD_SOLID_BREP('1E0D',#225);
#227=DRAUGHTING_PRE_DEFINED_COLOUR('white');
#228=SURFACE_STYLE_USAGE(.BOTH.,#229);
#229=SURFACE_SIDE_STYLE('NONE',(#230));
#230=SURFACE_STYLE_FILL_AREA(#231);
#231=FILL_AREA_STYLE('NONE',(#232));
#232=FILL_AREA_STYLE_COLOUR('NONE',#227);
#233=PRESENTATION_STYLE_ASSIGNMENT((#228));
#234=STYLED_ITEM('NONE',(#233),#226);
#235=MECHANICAL_DESIGN_GEOMETRIC_PRESENTATION_REPRESENTATION('NONE',(#234),#28);
#236=PRESENTATION_LAYER_ASSIGNMENT('3D','None',(#226));
#237=ADVANCED_BREP_SHAPE_REPRESENTATION('ABSR1',(#226),#28);
#238=SHAPE_REPRESENTATION_RELATIONSHIP('SRRPL1','',#237,#62);
ENDSEC;
END-ISO-10303-21;
