ISO-10303-21;
HEADER;
/****************************************************************
 * Generated by software with PDE/Lib inside                    *
 * PDE/Lib Version 3.2.2, created Thu Mar 23, 2000 at 18:38:49  *
 * International Technegroup Inc. (www.iti-oh.com)              *
 ****************************************************************/
FILE_DESCRIPTION((''),'2;1');
FILE_NAME('CAPAE660X540N.stp','2009-07-06T14:45:02',(''),(''),'Mechanical Desktop 2006','Mechanical Desktop 2006',', , ');
FILE_SCHEMA(('AUTOMOTIVE_DESIGN { 1 2 10303 214 0 1 1 1 }'));
ENDSEC;
DATA;
#8=(NAMED_UNIT(*)PLANE_ANGLE_UNIT()SI_UNIT($,.RADIAN.));
#9=DIMENSIONAL_EXPONENTS(0.0,0.0,0.0,0.0,0.0,0.0,0.0);
#10=PLANE_ANGLE_MEASURE_WITH_UNIT(PLANE_ANGLE_MEASURE(0.017453292500000),#8);
#14=(CONVERSION_BASED_UNIT('DEGREE',#10)NAMED_UNIT(#9)PLANE_ANGLE_UNIT());
#18=(NAMED_UNIT(*)SI_UNIT($,.STERADIAN.)SOLID_ANGLE_UNIT());
#22=(LENGTH_UNIT()NAMED_UNIT(*)SI_UNIT(.MILLI.,.METRE.));
#23=UNCERTAINTY_MEASURE_WITH_UNIT(LENGTH_MEASURE(0.000001000000000),#22,'DISTANCE_ACCURACY_VALUE','');
#28=(GEOMETRIC_REPRESENTATION_CONTEXT(3)GLOBAL_UNCERTAINTY_ASSIGNED_CONTEXT((#23))GLOBAL_UNIT_ASSIGNED_CONTEXT((#14,#18,#22))REPRESENTATION_CONTEXT('None','None'));
#29=APPLICATION_CONTEXT('automotive design');
#30=APPLICATION_PROTOCOL_DEFINITION('DRAFT_INTERNATIONAL_STANDARD','automotive_design',1998,#29);
#31=PRODUCT_CONTEXT('3D Mechanical Parts',#29,'mechanical');
#32=PRODUCT('Product','Product','',(#31));
#33=PRODUCT_RELATED_PRODUCT_CATEGORY('part',$,(#32));
#34=PRODUCT_CATEGORY('part',$);
#35=PERSON('1','Design','Joe',$,$,$);
#36=ORGANIZATION($,'None','None');
#37=PERSON_AND_ORGANIZATION(#35,#36);
#38=PERSON_AND_ORGANIZATION_ROLE('design_owner');
#39=APPLIED_PERSON_AND_ORGANIZATION_ASSIGNMENT(#37,#38,(#32));
#40=PRODUCT_DEFINITION_FORMATION_WITH_SPECIFIED_SOURCE('None','',#32,.BOUGHT.);
#41=PERSON('2','Creator','Joe',$,$,$);
#42=ORGANIZATION($,'None','None');
#43=PERSON_AND_ORGANIZATION(#41,#42);
#44=PERSON_AND_ORGANIZATION_ROLE('creator');
#45=APPLIED_PERSON_AND_ORGANIZATION_ASSIGNMENT(#43,#44,(#40));
#46=PERSON('3','Supplier','Joe',$,$,$);
#47=ORGANIZATION($,'None','None');
#48=PERSON_AND_ORGANIZATION(#46,#47);
#49=PERSON_AND_ORGANIZATION_ROLE('design_supplier');
#50=APPLIED_PERSON_AND_ORGANIZATION_ASSIGNMENT(#48,#49,(#40));
#51=PRODUCT_DEFINITION_CONTEXT('part definition',#29,'design');
#52=PRODUCT_DEFINITION('None','',#40,#51);
#53=PERSON('4','Creator','Joe',$,$,$);
#54=ORGANIZATION($,'None','None');
#55=PERSON_AND_ORGANIZATION(#53,#54);
#56=PERSON_AND_ORGANIZATION_ROLE('creator');
#57=APPLIED_PERSON_AND_ORGANIZATION_ASSIGNMENT(#55,#56,(#52));
#58=CARTESIAN_POINT('NONE',(0.0,0.0,0.0));
#59=DIRECTION('NONE',(0.0,0.0,1.0));
#60=DIRECTION('NONE',(1.0,0.0,0.0));
#61=AXIS2_PLACEMENT_3D('NONE',#58,#59,#60);
#62=SHAPE_REPRESENTATION('SR1',(#61),#28);
#63=PRODUCT_DEFINITION_SHAPE('PDS1','Test Part',#52);
#64=SHAPE_DEFINITION_REPRESENTATION(#63,#62);
#65=CARTESIAN_POINT('',(1.300000000000000,-0.350000000000000,0.300000000000000));
#66=DIRECTION('',(0.0,-1.0,0.0));
#67=DIRECTION('',(0.0,0.0,-1.0));
#68=AXIS2_PLACEMENT_3D('',#65,#66,#67);
#69=PLANE('',#68);
#70=CARTESIAN_POINT('',(1.300000000000000,-0.350000000000000,-1.665335E-016));
#71=VERTEX_POINT('',#70);
#72=CARTESIAN_POINT('',(3.900000000000000,-0.350000000000000,-1.665335E-016));
#73=VERTEX_POINT('',#72);
#74=CARTESIAN_POINT('',(1.300000000000000,-0.350000000000000,-1.665335E-016));
#75=DIRECTION('',(1.0,0.0,0.0));
#76=VECTOR('',#75,2.600000000000000);
#77=LINE('',#74,#76);
#78=EDGE_CURVE('',#71,#73,#77,.T.);
#79=ORIENTED_EDGE('',*,*,#78,.T.);
#80=CARTESIAN_POINT('',(3.900000000000000,-0.350000000000000,0.300000000000000));
#81=VERTEX_POINT('',#80);
#82=CARTESIAN_POINT('',(3.900000000000000,-0.350000000000000,0.300000000000000));
#83=DIRECTION('',(0.0,0.0,-1.0));
#84=VECTOR('',#83,0.300000000000000);
#85=LINE('',#82,#84);
#86=EDGE_CURVE('',#81,#73,#85,.T.);
#87=ORIENTED_EDGE('',*,*,#86,.F.);
#88=CARTESIAN_POINT('',(1.300000000000000,-0.350000000000000,0.300000000000000));
#89=VERTEX_POINT('',#88);
#90=CARTESIAN_POINT('',(3.900000000000000,-0.350000000000000,0.300000000000000));
#91=DIRECTION('',(-1.0,0.0,0.0));
#92=VECTOR('',#91,2.600000000000000);
#93=LINE('',#90,#92);
#94=EDGE_CURVE('',#81,#89,#93,.T.);
#95=ORIENTED_EDGE('',*,*,#94,.T.);
#96=CARTESIAN_POINT('',(1.300000000000000,-0.350000000000000,0.300000000000000));
#97=DIRECTION('',(0.0,0.0,-1.0));
#98=VECTOR('',#97,0.300000000000000);
#99=LINE('',#96,#98);
#100=EDGE_CURVE('',#89,#71,#99,.T.);
#101=ORIENTED_EDGE('',*,*,#100,.T.);
#102=EDGE_LOOP('',(#79,#87,#95,#101));
#103=FACE_OUTER_BOUND('',#102,.T.);
#104=ADVANCED_FACE('',(#103),#69,.T.);
#105=CARTESIAN_POINT('',(3.900000000000000,-0.350000000000000,0.300000000000000));
#106=DIRECTION('',(1.0,0.0,0.0));
#107=DIRECTION('',(0.0,0.0,-1.0));
#108=AXIS2_PLACEMENT_3D('',#105,#106,#107);
#109=PLANE('',#108);
#110=CARTESIAN_POINT('',(3.900000000000000,0.350000000000000,-1.665335E-016));
#111=VERTEX_POINT('',#110);
#112=CARTESIAN_POINT('',(3.900000000000000,-0.350000000000000,-1.665335E-016));
#113=DIRECTION('',(0.0,1.0,0.0));
#114=VECTOR('',#113,0.699999999999999);
#115=LINE('',#112,#114);
#116=EDGE_CURVE('',#73,#111,#115,.T.);
#117=ORIENTED_EDGE('',*,*,#116,.T.);
#118=CARTESIAN_POINT('',(3.900000000000000,0.350000000000000,0.300000000000000));
#119=VERTEX_POINT('',#118);
#120=CARTESIAN_POINT('',(3.900000000000000,0.350000000000000,0.300000000000000));
#121=DIRECTION('',(0.0,0.0,-1.0));
#122=VECTOR('',#121,0.300000000000000);
#123=LINE('',#120,#122);
#124=EDGE_CURVE('',#119,#111,#123,.T.);
#125=ORIENTED_EDGE('',*,*,#124,.F.);
#126=CARTESIAN_POINT('',(3.900000000000000,0.350000000000000,0.300000000000000));
#127=DIRECTION('',(0.0,-1.0,0.0));
#128=VECTOR('',#127,0.699999999999999);
#129=LINE('',#126,#128);
#130=EDGE_CURVE('',#119,#81,#129,.T.);
#131=ORIENTED_EDGE('',*,*,#130,.T.);
#132=ORIENTED_EDGE('',*,*,#86,.T.);
#133=EDGE_LOOP('',(#117,#125,#131,#132));
#134=FACE_OUTER_BOUND('',#133,.T.);
#135=ADVANCED_FACE('',(#134),#109,.T.);
#136=CARTESIAN_POINT('',(3.900000000000000,0.350000000000000,0.300000000000000));
#137=DIRECTION('',(0.0,1.0,0.0));
#138=DIRECTION('',(0.0,0.0,1.0));
#139=AXIS2_PLACEMENT_3D('',#136,#137,#138);
#140=PLANE('',#139);
#141=CARTESIAN_POINT('',(1.300000000000000,0.349999999999998,-1.665335E-016));
#142=VERTEX_POINT('',#141);
#143=CARTESIAN_POINT('',(3.900000000000000,0.350000000000000,-1.665335E-016));
#144=DIRECTION('',(-1.0,0.0,0.0));
#145=VECTOR('',#144,2.600000000000000);
#146=LINE('',#143,#145);
#147=EDGE_CURVE('',#111,#142,#146,.T.);
#148=ORIENTED_EDGE('',*,*,#147,.T.);
#149=CARTESIAN_POINT('',(1.300000000000000,0.349999999999998,0.300000000000000));
#150=VERTEX_POINT('',#149);
#151=CARTESIAN_POINT('',(1.300000000000000,0.349999999999998,0.300000000000000));
#152=DIRECTION('',(0.0,0.0,-1.0));
#153=VECTOR('',#152,0.300000000000000);
#154=LINE('',#151,#153);
#155=EDGE_CURVE('',#150,#142,#154,.T.);
#156=ORIENTED_EDGE('',*,*,#155,.F.);
#157=CARTESIAN_POINT('',(1.300000000000000,0.349999999999998,0.300000000000000));
#158=DIRECTION('',(1.0,0.0,0.0));
#159=VECTOR('',#158,2.600000000000000);
#160=LINE('',#157,#159);
#161=EDGE_CURVE('',#150,#119,#160,.T.);
#162=ORIENTED_EDGE('',*,*,#161,.T.);
#163=ORIENTED_EDGE('',*,*,#124,.T.);
#164=EDGE_LOOP('',(#148,#156,#162,#163));
#165=FACE_OUTER_BOUND('',#164,.T.);
#166=ADVANCED_FACE('',(#165),#140,.T.);
#167=CARTESIAN_POINT('',(1.300000000000000,0.349999999999998,0.300000000000000));
#168=DIRECTION('',(-1.0,0.0,0.0));
#169=DIRECTION('',(0.0,0.0,1.0));
#170=AXIS2_PLACEMENT_3D('',#167,#168,#169);
#171=PLANE('',#170);
#172=CARTESIAN_POINT('',(1.300000000000000,0.349999999999998,-1.665335E-016));
#173=DIRECTION('',(0.0,-1.0,0.0));
#174=VECTOR('',#173,0.699999999999998);
#175=LINE('',#172,#174);
#176=EDGE_CURVE('',#142,#71,#175,.T.);
#177=ORIENTED_EDGE('',*,*,#176,.T.);
#178=ORIENTED_EDGE('',*,*,#100,.F.);
#179=CARTESIAN_POINT('',(1.300000000000000,-0.350000000000000,0.300000000000000));
#180=DIRECTION('',(0.0,1.0,0.0));
#181=VECTOR('',#180,0.699999999999998);
#182=LINE('',#179,#181);
#183=EDGE_CURVE('',#89,#150,#182,.T.);
#184=ORIENTED_EDGE('',*,*,#183,.T.);
#185=ORIENTED_EDGE('',*,*,#155,.T.);
#186=EDGE_LOOP('',(#177,#178,#184,#185));
#187=FACE_OUTER_BOUND('',#186,.T.);
#188=ADVANCED_FACE('',(#187),#171,.T.);
#189=CARTESIAN_POINT('',(2.600000000000001,6.661338E-017,-1.665335E-016));
#190=DIRECTION('',(0.0,0.0,1.0));
#191=DIRECTION('',(1.0,0.0,0.0));
#192=AXIS2_PLACEMENT_3D('',#189,#190,#191);
#193=PLANE('',#192);
#194=ORIENTED_EDGE('',*,*,#78,.F.);
#195=ORIENTED_EDGE('',*,*,#176,.F.);
#196=ORIENTED_EDGE('',*,*,#147,.F.);
#197=ORIENTED_EDGE('',*,*,#116,.F.);
#198=EDGE_LOOP('',(#194,#195,#196,#197));
#199=FACE_OUTER_BOUND('',#198,.T.);
#200=ADVANCED_FACE('',(#199),#193,.F.);
#201=CARTESIAN_POINT('',(2.600000000000001,6.661338E-017,0.300000000000000));
#202=DIRECTION('',(0.0,0.0,1.0));
#203=DIRECTION('',(1.0,0.0,0.0));
#204=AXIS2_PLACEMENT_3D('',#201,#202,#203);
#205=PLANE('',#204);
#206=ORIENTED_EDGE('',*,*,#183,.F.);
#207=ORIENTED_EDGE('',*,*,#94,.F.);
#208=ORIENTED_EDGE('',*,*,#130,.F.);
#209=ORIENTED_EDGE('',*,*,#161,.F.);
#210=EDGE_LOOP('',(#206,#207,#208,#209));
#211=FACE_OUTER_BOUND('',#210,.T.);
#212=ADVANCED_FACE('',(#211),#205,.T.);
#213=CLOSED_SHELL('',(#104,#135,#166,#188,#200,#212));
#214=MANIFOLD_SOLID_BREP('7C7',#213);
#215=COLOUR_RGB('253',0.732000000000000,0.732000000000000,0.732000000000000);
#216=SURFACE_STYLE_USAGE(.BOTH.,#217);
#217=SURFACE_SIDE_STYLE('NONE',(#218));
#218=SURFACE_STYLE_FILL_AREA(#219);
#219=FILL_AREA_STYLE('NONE',(#220));
#220=FILL_AREA_STYLE_COLOUR('NONE',#215);
#221=PRESENTATION_STYLE_ASSIGNMENT((#216));
#222=STYLED_ITEM('NONE',(#221),#214);
#223=MECHANICAL_DESIGN_GEOMETRIC_PRESENTATION_REPRESENTATION('NONE',(#222,#375,#504,#915,#1136,#1357,#1838),#28);
#224=PRESENTATION_LAYER_ASSIGNMENT('3D','None',(#214,#374,#496,#907,#1135,#1356,#1837));
#225=CARTESIAN_POINT('',(-3.900000000000000,0.350000000000000,0.300000000000000));
#226=DIRECTION('',(-1.0,0.0,0.0));
#227=DIRECTION('',(0.0,0.0,1.0));
#228=AXIS2_PLACEMENT_3D('',#225,#226,#227);
#229=PLANE('',#228);
#230=CARTESIAN_POINT('',(-3.900000000000000,0.350000000000000,-1.665335E-016));
#231=VERTEX_POINT('',#230);
#232=CARTESIAN_POINT('',(-3.900000000000000,-0.350000000000000,-1.665335E-016));
#233=VERTEX_POINT('',#232);
#234=CARTESIAN_POINT('',(-3.900000000000000,0.350000000000000,-1.665335E-016));
#235=DIRECTION('',(0.0,-1.0,0.0));
#236=VECTOR('',#235,0.699999999999999);
#237=LINE('',#234,#236);
#238=EDGE_CURVE('',#231,#233,#237,.T.);
#239=ORIENTED_EDGE('',*,*,#238,.T.);
#240=CARTESIAN_POINT('',(-3.900000000000000,-0.350000000000000,0.300000000000000));
#241=VERTEX_POINT('',#240);
#242=CARTESIAN_POINT('',(-3.900000000000000,-0.350000000000000,0.300000000000000));
#243=DIRECTION('',(0.0,0.0,-1.0));
#244=VECTOR('',#243,0.300000000000000);
#245=LINE('',#242,#244);
#246=EDGE_CURVE('',#241,#233,#245,.T.);
#247=ORIENTED_EDGE('',*,*,#246,.F.);
#248=CARTESIAN_POINT('',(-3.900000000000000,0.350000000000000,0.300000000000000));
#249=VERTEX_POINT('',#248);
#250=CARTESIAN_POINT('',(-3.900000000000000,-0.350000000000000,0.300000000000000));
#251=DIRECTION('',(0.0,1.0,0.0));
#252=VECTOR('',#251,0.699999999999999);
#253=LINE('',#250,#252);
#254=EDGE_CURVE('',#241,#249,#253,.T.);
#255=ORIENTED_EDGE('',*,*,#254,.T.);
#256=CARTESIAN_POINT('',(-3.900000000000000,0.350000000000000,0.300000000000000));
#257=DIRECTION('',(0.0,0.0,-1.0));
#258=VECTOR('',#257,0.300000000000000);
#259=LINE('',#256,#258);
#260=EDGE_CURVE('',#249,#231,#259,.T.);
#261=ORIENTED_EDGE('',*,*,#260,.T.);
#262=EDGE_LOOP('',(#239,#247,#255,#261));
#263=FACE_OUTER_BOUND('',#262,.T.);
#264=ADVANCED_FACE('',(#263),#229,.T.);
#265=CARTESIAN_POINT('',(-3.900000000000000,-0.350000000000000,0.300000000000000));
#266=DIRECTION('',(0.0,-1.0,0.0));
#267=DIRECTION('',(0.0,0.0,-1.0));
#268=AXIS2_PLACEMENT_3D('',#265,#266,#267);
#269=PLANE('',#268);
#270=CARTESIAN_POINT('',(-1.300000000000000,-0.350000000000000,-1.665335E-016));
#271=VERTEX_POINT('',#270);
#272=CARTESIAN_POINT('',(-3.900000000000000,-0.350000000000000,-1.665335E-016));
#273=DIRECTION('',(1.0,0.0,0.0));
#274=VECTOR('',#273,2.600000000000000);
#275=LINE('',#272,#274);
#276=EDGE_CURVE('',#233,#271,#275,.T.);
#277=ORIENTED_EDGE('',*,*,#276,.T.);
#278=CARTESIAN_POINT('',(-1.300000000000000,-0.350000000000000,0.300000000000000));
#279=VERTEX_POINT('',#278);
#280=CARTESIAN_POINT('',(-1.300000000000000,-0.350000000000000,0.300000000000000));
#281=DIRECTION('',(0.0,0.0,-1.0));
#282=VECTOR('',#281,0.300000000000000);
#283=LINE('',#280,#282);
#284=EDGE_CURVE('',#279,#271,#283,.T.);
#285=ORIENTED_EDGE('',*,*,#284,.F.);
#286=CARTESIAN_POINT('',(-1.300000000000000,-0.350000000000000,0.300000000000000));
#287=DIRECTION('',(-1.0,0.0,0.0));
#288=VECTOR('',#287,2.600000000000000);
#289=LINE('',#286,#288);
#290=EDGE_CURVE('',#279,#241,#289,.T.);
#291=ORIENTED_EDGE('',*,*,#290,.T.);
#292=ORIENTED_EDGE('',*,*,#246,.T.);
#293=EDGE_LOOP('',(#277,#285,#291,#292));
#294=FACE_OUTER_BOUND('',#293,.T.);
#295=ADVANCED_FACE('',(#294),#269,.T.);
#296=CARTESIAN_POINT('',(-1.300000000000000,-0.350000000000000,0.300000000000000));
#297=DIRECTION('',(1.0,0.0,0.0));
#298=DIRECTION('',(0.0,0.0,-1.0));
#299=AXIS2_PLACEMENT_3D('',#296,#297,#298);
#300=PLANE('',#299);
#301=CARTESIAN_POINT('',(-1.300000000000000,0.349999999999998,-1.665335E-016));
#302=VERTEX_POINT('',#301);
#303=CARTESIAN_POINT('',(-1.300000000000000,-0.350000000000000,-1.665335E-016));
#304=DIRECTION('',(0.0,1.0,0.0));
#305=VECTOR('',#304,0.699999999999998);
#306=LINE('',#303,#305);
#307=EDGE_CURVE('',#271,#302,#306,.T.);
#308=ORIENTED_EDGE('',*,*,#307,.T.);
#309=CARTESIAN_POINT('',(-1.300000000000000,0.349999999999998,0.300000000000000));
#310=VERTEX_POINT('',#309);
#311=CARTESIAN_POINT('',(-1.300000000000000,0.349999999999998,0.300000000000000));
#312=DIRECTION('',(0.0,0.0,-1.0));
#313=VECTOR('',#312,0.300000000000000);
#314=LINE('',#311,#313);
#315=EDGE_CURVE('',#310,#302,#314,.T.);
#316=ORIENTED_EDGE('',*,*,#315,.F.);
#317=CARTESIAN_POINT('',(-1.300000000000000,0.349999999999998,0.300000000000000));
#318=DIRECTION('',(0.0,-1.0,0.0));
#319=VECTOR('',#318,0.699999999999998);
#320=LINE('',#317,#319);
#321=EDGE_CURVE('',#310,#279,#320,.T.);
#322=ORIENTED_EDGE('',*,*,#321,.T.);
#323=ORIENTED_EDGE('',*,*,#284,.T.);
#324=EDGE_LOOP('',(#308,#316,#322,#323));
#325=FACE_OUTER_BOUND('',#324,.T.);
#326=ADVANCED_FACE('',(#325),#300,.T.);
#327=CARTESIAN_POINT('',(-1.300000000000000,0.349999999999998,0.300000000000000));
#328=DIRECTION('',(0.0,1.0,0.0));
#329=DIRECTION('',(0.0,0.0,1.0));
#330=AXIS2_PLACEMENT_3D('',#327,#328,#329);
#331=PLANE('',#330);
#332=CARTESIAN_POINT('',(-1.300000000000000,0.349999999999998,-1.665335E-016));
#333=DIRECTION('',(-1.0,0.0,0.0));
#334=VECTOR('',#333,2.600000000000000);
#335=LINE('',#332,#334);
#336=EDGE_CURVE('',#302,#231,#335,.T.);
#337=ORIENTED_EDGE('',*,*,#336,.T.);
#338=ORIENTED_EDGE('',*,*,#260,.F.);
#339=CARTESIAN_POINT('',(-3.900000000000000,0.350000000000000,0.300000000000000));
#340=DIRECTION('',(1.0,0.0,0.0));
#341=VECTOR('',#340,2.600000000000000);
#342=LINE('',#339,#341);
#343=EDGE_CURVE('',#249,#310,#342,.T.);
#344=ORIENTED_EDGE('',*,*,#343,.T.);
#345=ORIENTED_EDGE('',*,*,#315,.T.);
#346=EDGE_LOOP('',(#337,#338,#344,#345));
#347=FACE_OUTER_BOUND('',#346,.T.);
#348=ADVANCED_FACE('',(#347),#331,.T.);
#349=CARTESIAN_POINT('',(-2.600000000000000,6.661338E-017,-1.665335E-016));
#350=DIRECTION('',(0.0,0.0,1.0));
#351=DIRECTION('',(1.0,0.0,0.0));
#352=AXIS2_PLACEMENT_3D('',#349,#350,#351);
#353=PLANE('',#352);
#354=ORIENTED_EDGE('',*,*,#238,.F.);
#355=ORIENTED_EDGE('',*,*,#336,.F.);
#356=ORIENTED_EDGE('',*,*,#307,.F.);
#357=ORIENTED_EDGE('',*,*,#276,.F.);
#358=EDGE_LOOP('',(#354,#355,#356,#357));
#359=FACE_OUTER_BOUND('',#358,.T.);
#360=ADVANCED_FACE('',(#359),#353,.F.);
#361=CARTESIAN_POINT('',(-2.600000000000000,6.661338E-017,0.300000000000000));
#362=DIRECTION('',(0.0,0.0,1.0));
#363=DIRECTION('',(1.0,0.0,0.0));
#364=AXIS2_PLACEMENT_3D('',#361,#362,#363);
#365=PLANE('',#364);
#366=ORIENTED_EDGE('',*,*,#343,.F.);
#367=ORIENTED_EDGE('',*,*,#254,.F.);
#368=ORIENTED_EDGE('',*,*,#290,.F.);
#369=ORIENTED_EDGE('',*,*,#321,.F.);
#370=EDGE_LOOP('',(#366,#367,#368,#369));
#371=FACE_OUTER_BOUND('',#370,.T.);
#372=ADVANCED_FACE('',(#371),#365,.T.);
#373=CLOSED_SHELL('',(#264,#295,#326,#348,#360,#372));
#374=MANIFOLD_SOLID_BREP('7C6',#373);
#375=STYLED_ITEM('NONE',(#221),#374);
#376=CARTESIAN_POINT('',(-1.998401E-015,4.218847E-016,5.600000000000001));
#377=DIRECTION('',(0.0,0.0,1.0));
#378=DIRECTION('',(1.0,0.0,0.0));
#379=AXIS2_PLACEMENT_3D('',#376,#377,#378);
#380=CYLINDRICAL_SURFACE('',#379,3.100000000000000);
#381=CARTESIAN_POINT('',(3.099999999999998,4.225678E-017,5.600000000000001));
#382=VERTEX_POINT('',#381);
#383=CARTESIAN_POINT('',(3.099999999999998,4.225678E-017,5.700000000000001));
#384=VERTEX_POINT('',#383);
#385=CARTESIAN_POINT('',(3.099999999999998,4.225678E-017,5.600000000000001));
#386=DIRECTION('',(0.0,0.0,1.0));
#387=VECTOR('',#386,0.100000000000000);
#388=LINE('',#385,#387);
#389=EDGE_CURVE('',#382,#384,#388,.T.);
#390=ORIENTED_EDGE('',*,*,#389,.F.);
#391=CARTESIAN_POINT('',(1.499999999999999,2.712931993250108,5.600000000000001));
#392=VERTEX_POINT('',#391);
#393=CARTESIAN_POINT('',(-1.998401E-015,4.218847E-016,5.600000000000001));
#394=DIRECTION('',(0.0,0.0,1.0));
#395=DIRECTION('',(1.0,0.0,0.0));
#396=AXIS2_PLACEMENT_3D('',#393,#394,#395);
#397=CIRCLE('',#396,3.100000000000000);
#398=EDGE_CURVE('',#382,#392,#397,.T.);
#399=ORIENTED_EDGE('',*,*,#398,.T.);
#400=CARTESIAN_POINT('',(1.499999999999999,2.712931993250108,5.700000000000001));
#401=VERTEX_POINT('',#400);
#402=CARTESIAN_POINT('',(1.499999999999999,2.712931993250108,5.600000000000001));
#403=DIRECTION('',(0.0,0.0,1.0));
#404=VECTOR('',#403,0.100000000000000);
#405=LINE('',#402,#404);
#406=EDGE_CURVE('',#392,#401,#405,.T.);
#407=ORIENTED_EDGE('',*,*,#406,.T.);
#408=CARTESIAN_POINT('',(-1.998401E-015,4.218847E-016,5.700000000000001));
#409=DIRECTION('',(0.0,0.0,-1.0));
#410=DIRECTION('',(1.0,0.0,0.0));
#411=AXIS2_PLACEMENT_3D('',#408,#409,#410);
#412=CIRCLE('',#411,3.100000000000000);
#413=EDGE_CURVE('',#401,#384,#412,.T.);
#414=ORIENTED_EDGE('',*,*,#413,.T.);
#415=EDGE_LOOP('',(#390,#399,#407,#414));
#416=FACE_OUTER_BOUND('',#415,.T.);
#417=ADVANCED_FACE('',(#416),#380,.T.);
#418=CARTESIAN_POINT('',(1.499999999999999,-2.712931993250107,5.600000000000001));
#419=DIRECTION('',(-1.0,0.0,0.0));
#420=DIRECTION('',(0.0,0.0,1.0));
#421=AXIS2_PLACEMENT_3D('',#418,#419,#420);
#422=PLANE('',#421);
#423=CARTESIAN_POINT('',(1.499999999999999,-2.712931993250107,5.700000000000001));
#424=VERTEX_POINT('',#423);
#425=CARTESIAN_POINT('',(1.499999999999999,-2.712931993250107,5.700000000000001));
#426=DIRECTION('',(0.0,1.0,0.0));
#427=VECTOR('',#426,5.425863986500215);
#428=LINE('',#425,#427);
#429=EDGE_CURVE('',#424,#401,#428,.T.);
#430=ORIENTED_EDGE('',*,*,#429,.T.);
#431=ORIENTED_EDGE('',*,*,#406,.F.);
#432=CARTESIAN_POINT('',(1.499999999999999,-2.712931993250107,5.600000000000001));
#433=VERTEX_POINT('',#432);
#434=CARTESIAN_POINT('',(1.499999999999999,2.712931993250108,5.600000000000001));
#435=DIRECTION('',(0.0,-1.0,0.0));
#436=VECTOR('',#435,5.425863986500215);
#437=LINE('',#434,#436);
#438=EDGE_CURVE('',#392,#433,#437,.T.);
#439=ORIENTED_EDGE('',*,*,#438,.T.);
#440=CARTESIAN_POINT('',(1.499999999999999,-2.712931993250107,5.600000000000001));
#441=DIRECTION('',(0.0,0.0,1.0));
#442=VECTOR('',#441,0.100000000000000);
#443=LINE('',#440,#442);
#444=EDGE_CURVE('',#433,#424,#443,.T.);
#445=ORIENTED_EDGE('',*,*,#444,.T.);
#446=EDGE_LOOP('',(#430,#431,#439,#445));
#447=FACE_OUTER_BOUND('',#446,.T.);
#448=ADVANCED_FACE('',(#447),#422,.T.);
#449=CARTESIAN_POINT('',(-1.998401E-015,4.218847E-016,5.600000000000001));
#450=DIRECTION('',(0.0,0.0,1.0));
#451=DIRECTION('',(1.0,0.0,0.0));
#452=AXIS2_PLACEMENT_3D('',#449,#450,#451);
#453=CYLINDRICAL_SURFACE('',#452,3.100000000000000);
#454=ORIENTED_EDGE('',*,*,#389,.T.);
#455=CARTESIAN_POINT('',(-1.998401E-015,4.218847E-016,5.700000000000001));
#456=DIRECTION('',(0.0,0.0,-1.0));
#457=DIRECTION('',(1.0,0.0,0.0));
#458=AXIS2_PLACEMENT_3D('',#455,#456,#457);
#459=CIRCLE('',#458,3.100000000000000);
#460=EDGE_CURVE('',#384,#424,#459,.T.);
#461=ORIENTED_EDGE('',*,*,#460,.T.);
#462=ORIENTED_EDGE('',*,*,#444,.F.);
#463=CARTESIAN_POINT('',(-1.998401E-015,4.218847E-016,5.600000000000001));
#464=DIRECTION('',(0.0,0.0,1.0));
#465=DIRECTION('',(1.0,0.0,0.0));
#466=AXIS2_PLACEMENT_3D('',#463,#464,#465);
#467=CIRCLE('',#466,3.100000000000000);
#468=EDGE_CURVE('',#433,#382,#467,.T.);
#469=ORIENTED_EDGE('',*,*,#468,.T.);
#470=EDGE_LOOP('',(#454,#461,#462,#469));
#471=FACE_OUTER_BOUND('',#470,.T.);
#472=ADVANCED_FACE('',(#471),#453,.T.);
#473=CARTESIAN_POINT('',(2.017140003507294,3.086982E-016,5.700000000000001));
#474=DIRECTION('',(0.0,0.0,1.0));
#475=DIRECTION('',(1.0,0.0,0.0));
#476=AXIS2_PLACEMENT_3D('',#473,#474,#475);
#477=PLANE('',#476);
#478=ORIENTED_EDGE('',*,*,#429,.F.);
#479=ORIENTED_EDGE('',*,*,#460,.F.);
#480=ORIENTED_EDGE('',*,*,#413,.F.);
#481=EDGE_LOOP('',(#478,#479,#480));
#482=FACE_OUTER_BOUND('',#481,.T.);
#483=ADVANCED_FACE('',(#482),#477,.T.);
#484=CARTESIAN_POINT('',(2.017140003507294,3.086982E-016,5.600000000000001));
#485=DIRECTION('',(0.0,0.0,1.0));
#486=DIRECTION('',(1.0,0.0,0.0));
#487=AXIS2_PLACEMENT_3D('',#484,#485,#486);
#488=PLANE('',#487);
#489=ORIENTED_EDGE('',*,*,#468,.F.);
#490=ORIENTED_EDGE('',*,*,#438,.F.);
#491=ORIENTED_EDGE('',*,*,#398,.F.);
#492=EDGE_LOOP('',(#489,#490,#491));
#493=FACE_OUTER_BOUND('',#492,.T.);
#494=ADVANCED_FACE('',(#493),#488,.F.);
#495=CLOSED_SHELL('',(#417,#448,#472,#483,#494));
#496=MANIFOLD_SOLID_BREP('7B2',#495);
#497=COLOUR_RGB('250',0.330000000000000,0.330000000000000,0.330000000000000);
#498=SURFACE_STYLE_USAGE(.BOTH.,#499);
#499=SURFACE_SIDE_STYLE('NONE',(#500));
#500=SURFACE_STYLE_FILL_AREA(#501);
#501=FILL_AREA_STYLE('NONE',(#502));
#502=FILL_AREA_STYLE_COLOUR('NONE',#497);
#503=PRESENTATION_STYLE_ASSIGNMENT((#498));
#504=STYLED_ITEM('NONE',(#503),#496);
#505=CARTESIAN_POINT('',(-7.563638E-016,-8.907879E-016,1.688248050014440));
#506=DIRECTION('',(0.0,0.0,1.0));
#507=DIRECTION('',(1.0,0.0,0.0));
#508=AXIS2_PLACEMENT_3D('',#505,#506,#507);
#509=TOROIDAL_SURFACE('',#508,3.900000000000000,0.750000000000000);
#510=CARTESIAN_POINT('',(-3.150000000000001,-5.191811E-016,1.688248050014440));
#511=VERTEX_POINT('',#510);
#512=CARTESIAN_POINT('',(3.149999999999999,-1.257176E-015,1.688248050014440));
#513=VERTEX_POINT('',#512);
#514=CARTESIAN_POINT('',(-7.563638E-016,-8.907879E-016,1.688248050014440));
#515=DIRECTION('',(0.0,0.0,1.0));
#516=DIRECTION('',(1.0,0.0,0.0));
#517=AXIS2_PLACEMENT_3D('',#514,#515,#516);
#518=CIRCLE('',#517,3.150000000000000);
#519=EDGE_CURVE('',#511,#513,#518,.T.);
#520=ORIENTED_EDGE('',*,*,#519,.F.);
#521=CARTESIAN_POINT('',(-3.400000000000000,-4.744217E-016,1.129231055639493));
#522=VERTEX_POINT('',#521);
#523=CARTESIAN_POINT('',(-3.900000000000001,-4.131914E-016,1.688248050014440));
#524=DIRECTION('',(0.0,1.0,0.0));
#525=DIRECTION('',(-1.0,0.0,0.0));
#526=AXIS2_PLACEMENT_3D('',#523,#524,#525);
#527=CIRCLE('',#526,0.750000000000000);
#528=EDGE_CURVE('',#511,#522,#527,.T.);
#529=ORIENTED_EDGE('',*,*,#528,.T.);
#530=CARTESIAN_POINT('',(3.399999999999999,-1.307154E-015,1.129231055639493));
#531=VERTEX_POINT('',#530);
#532=CARTESIAN_POINT('',(-7.563638E-016,-8.907879E-016,1.129231055639493));
#533=DIRECTION('',(0.0,0.0,-1.0));
#534=DIRECTION('',(1.0,0.0,0.0));
#535=AXIS2_PLACEMENT_3D('',#532,#533,#534);
#536=CIRCLE('',#535,3.400000000000000);
#537=EDGE_CURVE('',#531,#522,#536,.T.);
#538=ORIENTED_EDGE('',*,*,#537,.F.);
#539=CARTESIAN_POINT('',(3.899999999999999,-1.368384E-015,1.688248050014440));
#540=DIRECTION('',(0.0,1.0,0.0));
#541=DIRECTION('',(1.0,0.0,0.0));
#542=AXIS2_PLACEMENT_3D('',#539,#540,#541);
#543=CIRCLE('',#542,0.750000000000000);
#544=EDGE_CURVE('',#531,#513,#543,.T.);
#545=ORIENTED_EDGE('',*,*,#544,.T.);
#546=EDGE_LOOP('',(#520,#529,#538,#545));
#547=FACE_OUTER_BOUND('',#546,.T.);
#548=ADVANCED_FACE('',(#547),#509,.F.);
#549=CARTESIAN_POINT('',(-7.563638E-016,-8.907879E-016,1.688248050014440));
#550=DIRECTION('',(0.0,0.0,1.0));
#551=DIRECTION('',(1.0,0.0,0.0));
#552=AXIS2_PLACEMENT_3D('',#549,#550,#551);
#553=TOROIDAL_SURFACE('',#552,3.900000000000000,0.750000000000000);
#554=CARTESIAN_POINT('',(-7.563638E-016,-8.907879E-016,1.688248050014440));
#555=DIRECTION('',(0.0,0.0,1.0));
#556=DIRECTION('',(1.0,0.0,0.0));
#557=AXIS2_PLACEMENT_3D('',#554,#555,#556);
#558=CIRCLE('',#557,3.150000000000000);
#559=EDGE_CURVE('',#513,#511,#558,.T.);
#560=ORIENTED_EDGE('',*,*,#559,.F.);
#561=ORIENTED_EDGE('',*,*,#544,.F.);
#562=CARTESIAN_POINT('',(-7.563638E-016,-8.907879E-016,1.129231055639493));
#563=DIRECTION('',(0.0,0.0,-1.0));
#564=DIRECTION('',(1.0,0.0,0.0));
#565=AXIS2_PLACEMENT_3D('',#562,#563,#564);
#566=CIRCLE('',#565,3.400000000000000);
#567=EDGE_CURVE('',#522,#531,#566,.T.);
#568=ORIENTED_EDGE('',*,*,#567,.F.);
#569=ORIENTED_EDGE('',*,*,#528,.F.);
#570=EDGE_LOOP('',(#560,#561,#568,#569));
#571=FACE_OUTER_BOUND('',#570,.T.);
#572=ADVANCED_FACE('',(#571),#553,.F.);
#573=CARTESIAN_POINT('',(-7.563638E-016,3.552714E-016,0.600000000000000));
#574=DIRECTION('',(0.0,0.0,1.0));
#575=DIRECTION('',(1.0,0.0,0.0));
#576=AXIS2_PLACEMENT_3D('',#573,#574,#575);
#577=CYLINDRICAL_SURFACE('',#576,3.400000000000000);
#578=CARTESIAN_POINT('',(3.399999999999999,-1.307154E-015,2.247265044389387));
#579=VERTEX_POINT('',#578);
#580=CARTESIAN_POINT('',(3.399999999999999,1.321230E-015,5.400000000000000));
#581=VERTEX_POINT('',#580);
#582=CARTESIAN_POINT('',(3.399999999999999,-1.307154E-015,2.247265044389387));
#583=DIRECTION('',(0.0,0.0,1.0));
#584=VECTOR('',#583,3.152734955610613);
#585=LINE('',#582,#584);
#586=EDGE_CURVE('',#579,#581,#585,.T.);
#587=ORIENTED_EDGE('',*,*,#586,.F.);
#588=CARTESIAN_POINT('',(-3.400000000000000,-1.307154E-015,2.247265044389387));
#589=VERTEX_POINT('',#588);
#590=CARTESIAN_POINT('',(-7.563638E-016,-8.907879E-016,2.247265044389387));
#591=DIRECTION('',(0.0,0.0,1.0));
#592=DIRECTION('',(1.0,0.0,0.0));
#593=AXIS2_PLACEMENT_3D('',#590,#591,#592);
#594=CIRCLE('',#593,3.400000000000000);
#595=EDGE_CURVE('',#579,#589,#594,.T.);
#596=ORIENTED_EDGE('',*,*,#595,.T.);
#597=CARTESIAN_POINT('',(-3.400000000000000,-6.109479E-017,5.400000000000000));
#598=VERTEX_POINT('',#597);
#599=CARTESIAN_POINT('',(-3.400000000000000,-6.109479E-017,5.400000000000000));
#600=DIRECTION('',(0.0,0.0,-1.0));
#601=VECTOR('',#600,3.152734955610613);
#602=LINE('',#599,#601);
#603=EDGE_CURVE('',#598,#589,#602,.T.);
#604=ORIENTED_EDGE('',*,*,#603,.F.);
#605=CARTESIAN_POINT('',(-7.563638E-016,3.552714E-016,5.400000000000000));
#606=DIRECTION('',(0.0,0.0,1.0));
#607=DIRECTION('',(-1.0,0.0,0.0));
#608=AXIS2_PLACEMENT_3D('',#605,#606,#607);
#609=CIRCLE('',#608,3.400000000000000);
#610=EDGE_CURVE('',#581,#598,#609,.T.);
#611=ORIENTED_EDGE('',*,*,#610,.F.);
#612=EDGE_LOOP('',(#587,#596,#604,#611));
#613=FACE_OUTER_BOUND('',#612,.T.);
#614=ADVANCED_FACE('',(#613),#577,.T.);
#615=CARTESIAN_POINT('',(-7.563638E-016,3.552714E-016,5.400000000000000));
#616=DIRECTION('',(0.0,0.0,-1.0));
#617=DIRECTION('',(-1.0,0.0,0.0));
#618=AXIS2_PLACEMENT_3D('',#615,#616,#617);
#619=TOROIDAL_SURFACE('',#618,3.100000000000000,0.300000000000000);
#620=CARTESIAN_POINT('',(-3.100000000000001,-2.435660E-017,5.700000000000001));
#621=VERTEX_POINT('',#620);
#622=CARTESIAN_POINT('',(-3.100000000000001,-2.435660E-017,5.400000000000000));
#623=DIRECTION('',(0.0,-1.0,0.0));
#624=DIRECTION('',(-1.0,0.0,0.0));
#625=AXIS2_PLACEMENT_3D('',#622,#623,#624);
#626=CIRCLE('',#625,0.300000000000000);
#627=EDGE_CURVE('',#621,#598,#626,.T.);
#628=ORIENTED_EDGE('',*,*,#627,.F.);
#629=CARTESIAN_POINT('',(1.499999999999999,2.712931993250108,5.700000000000001));
#630=VERTEX_POINT('',#629);
#631=CARTESIAN_POINT('',(-7.563638E-016,3.552714E-016,5.700000000000001));
#632=DIRECTION('',(0.0,0.0,-1.0));
#633=DIRECTION('',(-1.0,0.0,0.0));
#634=AXIS2_PLACEMENT_3D('',#631,#632,#633);
#635=CIRCLE('',#634,3.100000000000000);
#636=EDGE_CURVE('',#621,#630,#635,.T.);
#637=ORIENTED_EDGE('',*,*,#636,.T.);
#638=CARTESIAN_POINT('',(3.099999999999999,4.225678E-017,5.700000000000001));
#639=VERTEX_POINT('',#638);
#640=CARTESIAN_POINT('',(-7.563638E-016,3.552714E-016,5.700000000000001));
#641=DIRECTION('',(0.0,0.0,-1.0));
#642=DIRECTION('',(-1.0,0.0,0.0));
#643=AXIS2_PLACEMENT_3D('',#640,#641,#642);
#644=CIRCLE('',#643,3.100000000000000);
#645=EDGE_CURVE('',#630,#639,#644,.T.);
#646=ORIENTED_EDGE('',*,*,#645,.T.);
#647=CARTESIAN_POINT('',(3.099999999999999,7.348993E-016,5.400000000000000));
#648=DIRECTION('',(0.0,-1.0,0.0));
#649=DIRECTION('',(1.0,0.0,0.0));
#650=AXIS2_PLACEMENT_3D('',#647,#648,#649);
#651=CIRCLE('',#650,0.300000000000000);
#652=EDGE_CURVE('',#581,#639,#651,.T.);
#653=ORIENTED_EDGE('',*,*,#652,.F.);
#654=ORIENTED_EDGE('',*,*,#610,.T.);
#655=EDGE_LOOP('',(#628,#637,#646,#653,#654));
#656=FACE_OUTER_BOUND('',#655,.T.);
#657=ADVANCED_FACE('',(#656),#619,.T.);
#658=CARTESIAN_POINT('',(-7.563638E-016,3.552714E-016,0.600000000000000));
#659=DIRECTION('',(0.0,0.0,1.0));
#660=DIRECTION('',(1.0,0.0,0.0));
#661=AXIS2_PLACEMENT_3D('',#658,#659,#660);
#662=CYLINDRICAL_SURFACE('',#661,3.400000000000000);
#663=CARTESIAN_POINT('',(3.399999999999999,3.552714E-016,0.600000000000000));
#664=VERTEX_POINT('',#663);
#665=CARTESIAN_POINT('',(3.399999999999999,3.552714E-016,0.600000000000000));
#666=DIRECTION('',(0.0,0.0,1.0));
#667=VECTOR('',#666,0.529231055639493);
#668=LINE('',#665,#667);
#669=EDGE_CURVE('',#664,#531,#668,.T.);
#670=ORIENTED_EDGE('',*,*,#669,.F.);
#671=CARTESIAN_POINT('',(-3.400000000000000,7.716375E-016,0.600000000000000));
#672=VERTEX_POINT('',#671);
#673=CARTESIAN_POINT('',(-7.563638E-016,3.552714E-016,0.600000000000000));
#674=DIRECTION('',(0.0,0.0,1.0));
#675=DIRECTION('',(1.0,0.0,0.0));
#676=AXIS2_PLACEMENT_3D('',#673,#674,#675);
#677=CIRCLE('',#676,3.400000000000000);
#678=EDGE_CURVE('',#664,#672,#677,.T.);
#679=ORIENTED_EDGE('',*,*,#678,.T.);
#680=CARTESIAN_POINT('',(-3.400000000000000,-4.744217E-016,1.129231055639493));
#681=DIRECTION('',(0.0,0.0,-1.0));
#682=VECTOR('',#681,0.529231055639493);
#683=LINE('',#680,#682);
#684=EDGE_CURVE('',#522,#672,#683,.T.);
#685=ORIENTED_EDGE('',*,*,#684,.F.);
#686=ORIENTED_EDGE('',*,*,#567,.T.);
#687=EDGE_LOOP('',(#670,#679,#685,#686));
#688=FACE_OUTER_BOUND('',#687,.T.);
#689=ADVANCED_FACE('',(#688),#662,.T.);
#690=CARTESIAN_POINT('',(-7.563638E-016,-8.907879E-016,1.688248050014440));
#691=DIRECTION('',(0.0,0.0,1.0));
#692=DIRECTION('',(1.0,0.0,0.0));
#693=AXIS2_PLACEMENT_3D('',#690,#691,#692);
#694=TOROIDAL_SURFACE('',#693,3.900000000000000,0.750000000000000);
#695=ORIENTED_EDGE('',*,*,#559,.T.);
#696=CARTESIAN_POINT('',(-3.900000000000001,-4.131914E-016,1.688248050014440));
#697=DIRECTION('',(0.0,1.0,0.0));
#698=DIRECTION('',(-1.0,0.0,0.0));
#699=AXIS2_PLACEMENT_3D('',#696,#697,#698);
#700=CIRCLE('',#699,0.750000000000000);
#701=EDGE_CURVE('',#589,#511,#700,.T.);
#702=ORIENTED_EDGE('',*,*,#701,.F.);
#703=ORIENTED_EDGE('',*,*,#595,.F.);
#704=CARTESIAN_POINT('',(3.899999999999999,-1.368384E-015,1.688248050014440));
#705=DIRECTION('',(0.0,1.0,0.0));
#706=DIRECTION('',(1.0,0.0,0.0));
#707=AXIS2_PLACEMENT_3D('',#704,#705,#706);
#708=CIRCLE('',#707,0.750000000000000);
#709=EDGE_CURVE('',#513,#579,#708,.T.);
#710=ORIENTED_EDGE('',*,*,#709,.F.);
#711=EDGE_LOOP('',(#695,#702,#703,#710));
#712=FACE_OUTER_BOUND('',#711,.T.);
#713=ADVANCED_FACE('',(#712),#694,.F.);
#714=CARTESIAN_POINT('',(-1.998401E-015,4.218847E-016,5.600000000000001));
#715=DIRECTION('',(0.0,0.0,1.0));
#716=DIRECTION('',(1.0,0.0,0.0));
#717=AXIS2_PLACEMENT_3D('',#714,#715,#716);
#718=CYLINDRICAL_SURFACE('',#717,3.100000000000000);
#719=CARTESIAN_POINT('',(3.099999999999998,4.225678E-017,5.600000000000001));
#720=VERTEX_POINT('',#719);
#721=CARTESIAN_POINT('',(3.099999999999999,4.225678E-017,5.700000000000001));
#722=DIRECTION('',(0.0,0.0,-1.0));
#723=VECTOR('',#722,0.100000000000000);
#724=LINE('',#721,#723);
#725=EDGE_CURVE('',#639,#720,#724,.T.);
#726=ORIENTED_EDGE('',*,*,#725,.F.);
#727=ORIENTED_EDGE('',*,*,#645,.F.);
#728=CARTESIAN_POINT('',(1.499999999999999,2.712931993250108,5.600000000000001));
#729=VERTEX_POINT('',#728);
#730=CARTESIAN_POINT('',(1.499999999999999,2.712931993250108,5.600000000000001));
#731=DIRECTION('',(0.0,0.0,1.0));
#732=VECTOR('',#731,0.100000000000000);
#733=LINE('',#730,#732);
#734=EDGE_CURVE('',#729,#630,#733,.T.);
#735=ORIENTED_EDGE('',*,*,#734,.F.);
#736=CARTESIAN_POINT('',(-1.998401E-015,4.218847E-016,5.600000000000001));
#737=DIRECTION('',(0.0,0.0,1.0));
#738=DIRECTION('',(1.0,0.0,0.0));
#739=AXIS2_PLACEMENT_3D('',#736,#737,#738);
#740=CIRCLE('',#739,3.100000000000000);
#741=EDGE_CURVE('',#720,#729,#740,.T.);
#742=ORIENTED_EDGE('',*,*,#741,.F.);
#743=EDGE_LOOP('',(#726,#727,#735,#742));
#744=FACE_OUTER_BOUND('',#743,.T.);
#745=ADVANCED_FACE('',(#744),#718,.F.);
#746=CARTESIAN_POINT('',(1.499999999999999,-2.712931993250107,5.600000000000001));
#747=DIRECTION('',(-1.0,0.0,0.0));
#748=DIRECTION('',(0.0,0.0,1.0));
#749=AXIS2_PLACEMENT_3D('',#746,#747,#748);
#750=PLANE('',#749);
#751=CARTESIAN_POINT('',(1.499999999999999,-2.712931993250107,5.700000000000001));
#752=VERTEX_POINT('',#751);
#753=CARTESIAN_POINT('',(1.499999999999999,-2.712931993250107,5.700000000000001));
#754=DIRECTION('',(0.0,1.0,0.0));
#755=VECTOR('',#754,5.425863986500215);
#756=LINE('',#753,#755);
#757=EDGE_CURVE('',#752,#630,#756,.T.);
#758=ORIENTED_EDGE('',*,*,#757,.F.);
#759=CARTESIAN_POINT('',(1.499999999999999,-2.712931993250107,5.600000000000001));
#760=VERTEX_POINT('',#759);
#761=CARTESIAN_POINT('',(1.499999999999999,-2.712931993250107,5.600000000000001));
#762=DIRECTION('',(0.0,0.0,1.0));
#763=VECTOR('',#762,0.100000000000000);
#764=LINE('',#761,#763);
#765=EDGE_CURVE('',#760,#752,#764,.T.);
#766=ORIENTED_EDGE('',*,*,#765,.F.);
#767=CARTESIAN_POINT('',(1.499999999999999,2.712931993250108,5.600000000000001));
#768=DIRECTION('',(0.0,-1.0,0.0));
#769=VECTOR('',#768,5.425863986500215);
#770=LINE('',#767,#769);
#771=EDGE_CURVE('',#729,#760,#770,.T.);
#772=ORIENTED_EDGE('',*,*,#771,.F.);
#773=ORIENTED_EDGE('',*,*,#734,.T.);
#774=EDGE_LOOP('',(#758,#766,#772,#773));
#775=FACE_OUTER_BOUND('',#774,.T.);
#776=ADVANCED_FACE('',(#775),#750,.F.);
#777=CARTESIAN_POINT('',(-1.998401E-015,4.218847E-016,5.600000000000001));
#778=DIRECTION('',(0.0,0.0,1.0));
#779=DIRECTION('',(1.0,0.0,0.0));
#780=AXIS2_PLACEMENT_3D('',#777,#778,#779);
#781=CYLINDRICAL_SURFACE('',#780,3.100000000000000);
#782=ORIENTED_EDGE('',*,*,#725,.T.);
#783=CARTESIAN_POINT('',(-1.998401E-015,4.218847E-016,5.600000000000001));
#784=DIRECTION('',(0.0,0.0,1.0));
#785=DIRECTION('',(1.0,0.0,0.0));
#786=AXIS2_PLACEMENT_3D('',#783,#784,#785);
#787=CIRCLE('',#786,3.100000000000000);
#788=EDGE_CURVE('',#760,#720,#787,.T.);
#789=ORIENTED_EDGE('',*,*,#788,.F.);
#790=ORIENTED_EDGE('',*,*,#765,.T.);
#791=CARTESIAN_POINT('',(-7.563638E-016,3.552714E-016,5.700000000000001));
#792=DIRECTION('',(0.0,0.0,-1.0));
#793=DIRECTION('',(-1.0,0.0,0.0));
#794=AXIS2_PLACEMENT_3D('',#791,#792,#793);
#795=CIRCLE('',#794,3.100000000000000);
#796=EDGE_CURVE('',#639,#752,#795,.T.);
#797=ORIENTED_EDGE('',*,*,#796,.F.);
#798=EDGE_LOOP('',(#782,#789,#790,#797));
#799=FACE_OUTER_BOUND('',#798,.T.);
#800=ADVANCED_FACE('',(#799),#781,.F.);
#801=CARTESIAN_POINT('',(2.017140003507294,3.086982E-016,5.600000000000001));
#802=DIRECTION('',(0.0,0.0,1.0));
#803=DIRECTION('',(1.0,0.0,0.0));
#804=AXIS2_PLACEMENT_3D('',#801,#802,#803);
#805=PLANE('',#804);
#806=ORIENTED_EDGE('',*,*,#788,.T.);
#807=ORIENTED_EDGE('',*,*,#741,.T.);
#808=ORIENTED_EDGE('',*,*,#771,.T.);
#809=EDGE_LOOP('',(#806,#807,#808));
#810=FACE_OUTER_BOUND('',#809,.T.);
#811=ADVANCED_FACE('',(#810),#805,.T.);
#812=CARTESIAN_POINT('',(-7.563638E-016,-8.907879E-016,1.688248050014440));
#813=DIRECTION('',(0.0,0.0,1.0));
#814=DIRECTION('',(1.0,0.0,0.0));
#815=AXIS2_PLACEMENT_3D('',#812,#813,#814);
#816=TOROIDAL_SURFACE('',#815,3.900000000000000,0.750000000000000);
#817=ORIENTED_EDGE('',*,*,#519,.T.);
#818=ORIENTED_EDGE('',*,*,#709,.T.);
#819=CARTESIAN_POINT('',(-7.563638E-016,-8.907879E-016,2.247265044389387));
#820=DIRECTION('',(0.0,0.0,1.0));
#821=DIRECTION('',(1.0,0.0,0.0));
#822=AXIS2_PLACEMENT_3D('',#819,#820,#821);
#823=CIRCLE('',#822,3.400000000000000);
#824=EDGE_CURVE('',#589,#579,#823,.T.);
#825=ORIENTED_EDGE('',*,*,#824,.F.);
#826=ORIENTED_EDGE('',*,*,#701,.T.);
#827=EDGE_LOOP('',(#817,#818,#825,#826));
#828=FACE_OUTER_BOUND('',#827,.T.);
#829=ADVANCED_FACE('',(#828),#816,.F.);
#830=CARTESIAN_POINT('',(-7.563638E-016,3.552714E-016,0.600000000000000));
#831=DIRECTION('',(0.0,0.0,1.0));
#832=DIRECTION('',(1.0,0.0,0.0));
#833=AXIS2_PLACEMENT_3D('',#830,#831,#832);
#834=CYLINDRICAL_SURFACE('',#833,3.400000000000000);
#835=ORIENTED_EDGE('',*,*,#669,.T.);
#836=ORIENTED_EDGE('',*,*,#537,.T.);
#837=ORIENTED_EDGE('',*,*,#684,.T.);
#838=CARTESIAN_POINT('',(-7.563638E-016,3.552714E-016,0.600000000000000));
#839=DIRECTION('',(0.0,0.0,1.0));
#840=DIRECTION('',(1.0,0.0,0.0));
#841=AXIS2_PLACEMENT_3D('',#838,#839,#840);
#842=CIRCLE('',#841,3.400000000000000);
#843=EDGE_CURVE('',#672,#664,#842,.T.);
#844=ORIENTED_EDGE('',*,*,#843,.T.);
#845=EDGE_LOOP('',(#835,#836,#837,#844));
#846=FACE_OUTER_BOUND('',#845,.T.);
#847=ADVANCED_FACE('',(#846),#834,.T.);
#848=CARTESIAN_POINT('',(-7.563638E-016,3.552714E-016,5.400000000000000));
#849=DIRECTION('',(0.0,0.0,-1.0));
#850=DIRECTION('',(-1.0,0.0,0.0));
#851=AXIS2_PLACEMENT_3D('',#848,#849,#850);
#852=TOROIDAL_SURFACE('',#851,3.100000000000000,0.300000000000000);
#853=ORIENTED_EDGE('',*,*,#627,.T.);
#854=CARTESIAN_POINT('',(-7.563638E-016,3.552714E-016,5.400000000000000));
#855=DIRECTION('',(0.0,0.0,1.0));
#856=DIRECTION('',(-1.0,0.0,0.0));
#857=AXIS2_PLACEMENT_3D('',#854,#855,#856);
#858=CIRCLE('',#857,3.400000000000000);
#859=EDGE_CURVE('',#598,#581,#858,.T.);
#860=ORIENTED_EDGE('',*,*,#859,.T.);
#861=ORIENTED_EDGE('',*,*,#652,.T.);
#862=ORIENTED_EDGE('',*,*,#796,.T.);
#863=CARTESIAN_POINT('',(-7.563638E-016,3.552714E-016,5.700000000000001));
#864=DIRECTION('',(0.0,0.0,-1.0));
#865=DIRECTION('',(-1.0,0.0,0.0));
#866=AXIS2_PLACEMENT_3D('',#863,#864,#865);
#867=CIRCLE('',#866,3.100000000000000);
#868=EDGE_CURVE('',#752,#621,#867,.T.);
#869=ORIENTED_EDGE('',*,*,#868,.T.);
#870=EDGE_LOOP('',(#853,#860,#861,#862,#869));
#871=FACE_OUTER_BOUND('',#870,.T.);
#872=ADVANCED_FACE('',(#871),#852,.T.);
#873=CARTESIAN_POINT('',(-7.563638E-016,3.552714E-016,0.600000000000000));
#874=DIRECTION('',(0.0,0.0,1.0));
#875=DIRECTION('',(1.0,0.0,0.0));
#876=AXIS2_PLACEMENT_3D('',#873,#874,#875);
#877=CYLINDRICAL_SURFACE('',#876,3.400000000000000);
#878=ORIENTED_EDGE('',*,*,#586,.T.);
#879=ORIENTED_EDGE('',*,*,#859,.F.);
#880=ORIENTED_EDGE('',*,*,#603,.T.);
#881=ORIENTED_EDGE('',*,*,#824,.T.);
#882=EDGE_LOOP('',(#878,#879,#880,#881));
#883=FACE_OUTER_BOUND('',#882,.T.);
#884=ADVANCED_FACE('',(#883),#877,.T.);
#885=CARTESIAN_POINT('',(-7.563638E-016,2.220446E-016,5.700000000000001));
#886=DIRECTION('',(0.0,0.0,1.0));
#887=DIRECTION('',(1.0,0.0,0.0));
#888=AXIS2_PLACEMENT_3D('',#885,#886,#887);
#889=PLANE('',#888);
#890=ORIENTED_EDGE('',*,*,#757,.T.);
#891=ORIENTED_EDGE('',*,*,#636,.F.);
#892=ORIENTED_EDGE('',*,*,#868,.F.);
#893=EDGE_LOOP('',(#890,#891,#892));
#894=FACE_OUTER_BOUND('',#893,.T.);
#895=ADVANCED_FACE('',(#894),#889,.T.);
#896=CARTESIAN_POINT('',(-7.563638E-016,3.552714E-016,0.600000000000000));
#897=DIRECTION('',(0.0,0.0,1.0));
#898=DIRECTION('',(1.0,0.0,0.0));
#899=AXIS2_PLACEMENT_3D('',#896,#897,#898);
#900=PLANE('',#899);
#901=ORIENTED_EDGE('',*,*,#678,.F.);
#902=ORIENTED_EDGE('',*,*,#843,.F.);
#903=EDGE_LOOP('',(#901,#902));
#904=FACE_OUTER_BOUND('',#903,.T.);
#905=ADVANCED_FACE('',(#904),#900,.F.);
#906=CLOSED_SHELL('',(#548,#572,#614,#657,#689,#713,#745,#776,#800,#811,#829,#847,#872,#884,#895,#905));
#907=MANIFOLD_SOLID_BREP('7A0',#906);
#908=COLOUR_RGB('254',0.866000000000000,0.866000000000000,0.866000000000000);
#909=SURFACE_STYLE_USAGE(.BOTH.,#910);
#910=SURFACE_SIDE_STYLE('NONE',(#911));
#911=SURFACE_STYLE_FILL_AREA(#912);
#912=FILL_AREA_STYLE('NONE',(#913));
#913=FILL_AREA_STYLE_COLOUR('NONE',#908);
#914=PRESENTATION_STYLE_ASSIGNMENT((#909));
#915=STYLED_ITEM('NONE',(#914),#907);
#916=CARTESIAN_POINT('',(-4.440892E-016,4.440892E-016,0.600000000000000));
#917=DIRECTION('',(0.0,0.0,1.0));
#918=DIRECTION('',(0.707106781186547,-0.707106781186548,0.0));
#919=AXIS2_PLACEMENT_3D('',#916,#917,#918);
#920=CYLINDRICAL_SURFACE('',#919,3.400000000000000);
#921=CARTESIAN_POINT('',(2.404163056034260,-2.404163056034262,0.600000000000000));
#922=VERTEX_POINT('',#921);
#923=CARTESIAN_POINT('',(2.404163056034260,-2.404163056034262,1.200000000000000));
#924=VERTEX_POINT('',#923);
#925=CARTESIAN_POINT('',(2.404163056034260,-2.404163056034262,0.600000000000000));
#926=DIRECTION('',(0.0,0.0,1.0));
#927=VECTOR('',#926,0.600000000000000);
#928=LINE('',#925,#927);
#929=EDGE_CURVE('',#922,#924,#928,.T.);
#930=ORIENTED_EDGE('',*,*,#929,.F.);
#931=CARTESIAN_POINT('',(1.749999999999999,-2.915047169429681,0.600000000000000));
#932=VERTEX_POINT('',#931);
#933=CARTESIAN_POINT('',(-4.440892E-016,4.440892E-016,0.600000000000000));
#934=DIRECTION('',(0.0,0.0,1.0));
#935=DIRECTION('',(0.707106781186547,-0.707106781186548,0.0));
#936=AXIS2_PLACEMENT_3D('',#933,#934,#935);
#937=CIRCLE('',#936,3.400000000000000);
#938=EDGE_CURVE('',#932,#922,#937,.T.);
#939=ORIENTED_EDGE('',*,*,#938,.F.);
#940=CARTESIAN_POINT('',(1.749999999999999,-2.915047169429681,1.200000000000000));
#941=VERTEX_POINT('',#940);
#942=CARTESIAN_POINT('',(1.749999999999999,-2.915047169429681,0.600000000000000));
#943=DIRECTION('',(0.0,0.0,1.0));
#944=VECTOR('',#943,0.600000000000000);
#945=LINE('',#942,#944);
#946=EDGE_CURVE('',#932,#941,#945,.T.);
#947=ORIENTED_EDGE('',*,*,#946,.T.);
#948=CARTESIAN_POINT('',(-4.440892E-016,4.440892E-016,1.200000000000000));
#949=DIRECTION('',(0.0,0.0,1.0));
#950=DIRECTION('',(0.707106781186547,-0.707106781186548,0.0));
#951=AXIS2_PLACEMENT_3D('',#948,#949,#950);
#952=CIRCLE('',#951,3.400000000000000);
#953=EDGE_CURVE('',#941,#924,#952,.T.);
#954=ORIENTED_EDGE('',*,*,#953,.T.);
#955=EDGE_LOOP('',(#930,#939,#947,#954));
#956=FACE_OUTER_BOUND('',#955,.T.);
#957=ADVANCED_FACE('',(#956),#920,.F.);
#958=CARTESIAN_POINT('',(1.749999999999999,-3.399999999999999,0.600000000000000));
#959=DIRECTION('',(-1.0,0.0,0.0));
#960=DIRECTION('',(0.0,0.0,1.0));
#961=AXIS2_PLACEMENT_3D('',#958,#959,#960);
#962=PLANE('',#961);
#963=CARTESIAN_POINT('',(1.749999999999999,-3.399999999999999,1.200000000000000));
#964=VERTEX_POINT('',#963);
#965=CARTESIAN_POINT('',(1.749999999999999,-3.399999999999999,1.200000000000000));
#966=DIRECTION('',(0.0,1.0,0.0));
#967=VECTOR('',#966,0.484952830570318);
#968=LINE('',#965,#967);
#969=EDGE_CURVE('',#964,#941,#968,.T.);
#970=ORIENTED_EDGE('',*,*,#969,.T.);
#971=ORIENTED_EDGE('',*,*,#946,.F.);
#972=CARTESIAN_POINT('',(1.749999999999999,-3.399999999999999,0.600000000000000));
#973=VERTEX_POINT('',#972);
#974=CARTESIAN_POINT('',(1.749999999999999,-3.399999999999999,0.600000000000000));
#975=DIRECTION('',(0.0,1.0,0.0));
#976=VECTOR('',#975,0.484952830570318);
#977=LINE('',#974,#976);
#978=EDGE_CURVE('',#973,#932,#977,.T.);
#979=ORIENTED_EDGE('',*,*,#978,.F.);
#980=CARTESIAN_POINT('',(1.749999999999999,-3.399999999999999,0.600000000000000));
#981=DIRECTION('',(0.0,0.0,1.0));
#982=VECTOR('',#981,0.600000000000000);
#983=LINE('',#980,#982);
#984=EDGE_CURVE('',#973,#964,#983,.T.);
#985=ORIENTED_EDGE('',*,*,#984,.T.);
#986=EDGE_LOOP('',(#970,#971,#979,#985));
#987=FACE_OUTER_BOUND('',#986,.T.);
#988=ADVANCED_FACE('',(#987),#962,.T.);
#989=CARTESIAN_POINT('',(-4.440892E-016,4.440892E-016,0.600000000000000));
#990=DIRECTION('',(0.0,0.0,1.0));
#991=DIRECTION('',(0.707106781186547,-0.707106781186548,0.0));
#992=AXIS2_PLACEMENT_3D('',#989,#990,#991);
#993=CYLINDRICAL_SURFACE('',#992,3.400000000000000);
#994=ORIENTED_EDGE('',*,*,#929,.T.);
#995=CARTESIAN_POINT('',(2.915047169429681,-1.750000000000001,1.200000000000000));
#996=VERTEX_POINT('',#995);
#997=CARTESIAN_POINT('',(-4.440892E-016,4.440892E-016,1.200000000000000));
#998=DIRECTION('',(0.0,0.0,1.0));
#999=DIRECTION('',(0.707106781186547,-0.707106781186548,0.0));
#1000=AXIS2_PLACEMENT_3D('',#997,#998,#999);
#1001=CIRCLE('',#1000,3.400000000000000);
#1002=EDGE_CURVE('',#924,#996,#1001,.T.);
#1003=ORIENTED_EDGE('',*,*,#1002,.T.);
#1004=CARTESIAN_POINT('',(2.915047169429681,-1.750000000000001,0.600000000000000));
#1005=VERTEX_POINT('',#1004);
#1006=CARTESIAN_POINT('',(2.915047169429681,-1.750000000000001,0.600000000000000));
#1007=DIRECTION('',(0.0,0.0,1.0));
#1008=VECTOR('',#1007,0.600000000000000);
#1009=LINE('',#1006,#1008);
#1010=EDGE_CURVE('',#1005,#996,#1009,.T.);
#1011=ORIENTED_EDGE('',*,*,#1010,.F.);
#1012=CARTESIAN_POINT('',(-4.440892E-016,4.440892E-016,0.600000000000000));
#1013=DIRECTION('',(0.0,0.0,1.0));
#1014=DIRECTION('',(0.707106781186547,-0.707106781186548,0.0));
#1015=AXIS2_PLACEMENT_3D('',#1012,#1013,#1014);
#1016=CIRCLE('',#1015,3.400000000000000);
#1017=EDGE_CURVE('',#922,#1005,#1016,.T.);
#1018=ORIENTED_EDGE('',*,*,#1017,.F.);
#1019=EDGE_LOOP('',(#994,#1003,#1011,#1018));
#1020=FACE_OUTER_BOUND('',#1019,.T.);
#1021=ADVANCED_FACE('',(#1020),#993,.F.);
#1022=CARTESIAN_POINT('',(2.915047169429681,-1.750000000000001,0.600000000000000));
#1023=DIRECTION('',(0.0,1.0,0.0));
#1024=DIRECTION('',(0.0,0.0,1.0));
#1025=AXIS2_PLACEMENT_3D('',#1022,#1023,#1024);
#1026=PLANE('',#1025);
#1027=CARTESIAN_POINT('',(3.400000000000000,-1.750000000000000,1.200000000000000));
#1028=VERTEX_POINT('',#1027);
#1029=CARTESIAN_POINT('',(2.915047169429681,-1.750000000000001,1.200000000000000));
#1030=DIRECTION('',(1.0,0.0,0.0));
#1031=VECTOR('',#1030,0.484952830570319);
#1032=LINE('',#1029,#1031);
#1033=EDGE_CURVE('',#996,#1028,#1032,.T.);
#1034=ORIENTED_EDGE('',*,*,#1033,.T.);
#1035=CARTESIAN_POINT('',(3.400000000000000,-1.750000000000000,0.600000000000000));
#1036=VERTEX_POINT('',#1035);
#1037=CARTESIAN_POINT('',(3.400000000000000,-1.750000000000000,0.600000000000000));
#1038=DIRECTION('',(0.0,0.0,1.0));
#1039=VECTOR('',#1038,0.600000000000000);
#1040=LINE('',#1037,#1039);
#1041=EDGE_CURVE('',#1036,#1028,#1040,.T.);
#1042=ORIENTED_EDGE('',*,*,#1041,.F.);
#1043=CARTESIAN_POINT('',(2.915047169429681,-1.750000000000001,0.600000000000000));
#1044=DIRECTION('',(1.0,0.0,0.0));
#1045=VECTOR('',#1044,0.484952830570319);
#1046=LINE('',#1043,#1045);
#1047=EDGE_CURVE('',#1005,#1036,#1046,.T.);
#1048=ORIENTED_EDGE('',*,*,#1047,.F.);
#1049=ORIENTED_EDGE('',*,*,#1010,.T.);
#1050=EDGE_LOOP('',(#1034,#1042,#1048,#1049));
#1051=FACE_OUTER_BOUND('',#1050,.T.);
#1052=ADVANCED_FACE('',(#1051),#1026,.T.);
#1053=CARTESIAN_POINT('',(3.400000000000000,-1.750000000000000,0.600000000000000));
#1054=DIRECTION('',(1.0,0.0,0.0));
#1055=DIRECTION('',(0.0,0.0,-1.0));
#1056=AXIS2_PLACEMENT_3D('',#1053,#1054,#1055);
#1057=PLANE('',#1056);
#1058=CARTESIAN_POINT('',(3.400000000000000,-3.400000000000000,1.200000000000000));
#1059=VERTEX_POINT('',#1058);
#1060=CARTESIAN_POINT('',(3.400000000000000,-1.750000000000000,1.200000000000000));
#1061=DIRECTION('',(0.0,-1.0,0.0));
#1062=VECTOR('',#1061,1.650000000000000);
#1063=LINE('',#1060,#1062);
#1064=EDGE_CURVE('',#1028,#1059,#1063,.T.);
#1065=ORIENTED_EDGE('',*,*,#1064,.T.);
#1066=CARTESIAN_POINT('',(3.400000000000000,-3.400000000000000,0.600000000000000));
#1067=VERTEX_POINT('',#1066);
#1068=CARTESIAN_POINT('',(3.400000000000000,-3.400000000000000,0.600000000000000));
#1069=DIRECTION('',(0.0,0.0,1.0));
#1070=VECTOR('',#1069,0.600000000000000);
#1071=LINE('',#1068,#1070);
#1072=EDGE_CURVE('',#1067,#1059,#1071,.T.);
#1073=ORIENTED_EDGE('',*,*,#1072,.F.);
#1074=CARTESIAN_POINT('',(3.400000000000000,-1.750000000000000,0.600000000000000));
#1075=DIRECTION('',(0.0,-1.0,0.0));
#1076=VECTOR('',#1075,1.650000000000000);
#1077=LINE('',#1074,#1076);
#1078=EDGE_CURVE('',#1036,#1067,#1077,.T.);
#1079=ORIENTED_EDGE('',*,*,#1078,.F.);
#1080=ORIENTED_EDGE('',*,*,#1041,.T.);
#1081=EDGE_LOOP('',(#1065,#1073,#1079,#1080));
#1082=FACE_OUTER_BOUND('',#1081,.T.);
#1083=ADVANCED_FACE('',(#1082),#1057,.T.);
#1084=CARTESIAN_POINT('',(3.400000000000000,-3.400000000000000,0.600000000000000));
#1085=DIRECTION('',(0.0,-1.0,0.0));
#1086=DIRECTION('',(0.0,0.0,-1.0));
#1087=AXIS2_PLACEMENT_3D('',#1084,#1085,#1086);
#1088=PLANE('',#1087);
#1089=CARTESIAN_POINT('',(3.400000000000000,-3.400000000000000,1.200000000000000));
#1090=DIRECTION('',(-1.0,0.0,0.0));
#1091=VECTOR('',#1090,1.650000000000000);
#1092=LINE('',#1089,#1091);
#1093=EDGE_CURVE('',#1059,#964,#1092,.T.);
#1094=ORIENTED_EDGE('',*,*,#1093,.T.);
#1095=ORIENTED_EDGE('',*,*,#984,.F.);
#1096=CARTESIAN_POINT('',(3.400000000000000,-3.400000000000000,0.600000000000000));
#1097=DIRECTION('',(-1.0,0.0,0.0));
#1098=VECTOR('',#1097,1.650000000000000);
#1099=LINE('',#1096,#1098);
#1100=EDGE_CURVE('',#1067,#973,#1099,.T.);
#1101=ORIENTED_EDGE('',*,*,#1100,.F.);
#1102=ORIENTED_EDGE('',*,*,#1072,.T.);
#1103=EDGE_LOOP('',(#1094,#1095,#1101,#1102));
#1104=FACE_OUTER_BOUND('',#1103,.T.);
#1105=ADVANCED_FACE('',(#1104),#1088,.T.);
#1106=CARTESIAN_POINT('',(2.728620443540429,-2.728620443540430,1.200000000000000));
#1107=DIRECTION('',(0.0,0.0,1.0));
#1108=DIRECTION('',(1.0,0.0,0.0));
#1109=AXIS2_PLACEMENT_3D('',#1106,#1107,#1108);
#1110=PLANE('',#1109);
#1111=ORIENTED_EDGE('',*,*,#969,.F.);
#1112=ORIENTED_EDGE('',*,*,#1093,.F.);
#1113=ORIENTED_EDGE('',*,*,#1064,.F.);
#1114=ORIENTED_EDGE('',*,*,#1033,.F.);
#1115=ORIENTED_EDGE('',*,*,#1002,.F.);
#1116=ORIENTED_EDGE('',*,*,#953,.F.);
#1117=EDGE_LOOP('',(#1111,#1112,#1113,#1114,#1115,#1116));
#1118=FACE_OUTER_BOUND('',#1117,.T.);
#1119=ADVANCED_FACE('',(#1118),#1110,.T.);
#1120=CARTESIAN_POINT('',(2.728620443540429,-2.728620443540430,0.600000000000000));
#1121=DIRECTION('',(0.0,0.0,1.0));
#1122=DIRECTION('',(1.0,0.0,0.0));
#1123=AXIS2_PLACEMENT_3D('',#1120,#1121,#1122);
#1124=PLANE('',#1123);
#1125=ORIENTED_EDGE('',*,*,#1100,.T.);
#1126=ORIENTED_EDGE('',*,*,#978,.T.);
#1127=ORIENTED_EDGE('',*,*,#938,.T.);
#1128=ORIENTED_EDGE('',*,*,#1017,.T.);
#1129=ORIENTED_EDGE('',*,*,#1047,.T.);
#1130=ORIENTED_EDGE('',*,*,#1078,.T.);
#1131=EDGE_LOOP('',(#1125,#1126,#1127,#1128,#1129,#1130));
#1132=FACE_OUTER_BOUND('',#1131,.T.);
#1133=ADVANCED_FACE('',(#1132),#1124,.F.);
#1134=CLOSED_SHELL('',(#957,#988,#1021,#1052,#1083,#1105,#1119,#1133));
#1135=MANIFOLD_SOLID_BREP('79D',#1134);
#1136=STYLED_ITEM('NONE',(#503),#1135);
#1137=CARTESIAN_POINT('',(-4.440892E-016,4.440892E-016,0.600000000000000));
#1138=DIRECTION('',(0.0,0.0,1.0));
#1139=DIRECTION('',(0.707106781186548,0.707106781186547,0.0));
#1140=AXIS2_PLACEMENT_3D('',#1137,#1138,#1139);
#1141=CYLINDRICAL_SURFACE('',#1140,3.399999999999999);
#1142=CARTESIAN_POINT('',(2.404163056034260,2.404163056034261,0.600000000000000));
#1143=VERTEX_POINT('',#1142);
#1144=CARTESIAN_POINT('',(2.404163056034260,2.404163056034261,1.200000000000000));
#1145=VERTEX_POINT('',#1144);
#1146=CARTESIAN_POINT('',(2.404163056034260,2.404163056034261,0.600000000000000));
#1147=DIRECTION('',(0.0,0.0,1.0));
#1148=VECTOR('',#1147,0.600000000000000);
#1149=LINE('',#1146,#1148);
#1150=EDGE_CURVE('',#1143,#1145,#1149,.T.);
#1151=ORIENTED_EDGE('',*,*,#1150,.F.);
#1152=CARTESIAN_POINT('',(2.915047169429681,1.750000000000000,0.600000000000000));
#1153=VERTEX_POINT('',#1152);
#1154=CARTESIAN_POINT('',(-4.440892E-016,4.440892E-016,0.600000000000000));
#1155=DIRECTION('',(0.0,0.0,-1.0));
#1156=DIRECTION('',(0.707106781186548,0.707106781186547,0.0));
#1157=AXIS2_PLACEMENT_3D('',#1154,#1155,#1156);
#1158=CIRCLE('',#1157,3.399999999999999);
#1159=EDGE_CURVE('',#1143,#1153,#1158,.T.);
#1160=ORIENTED_EDGE('',*,*,#1159,.T.);
#1161=CARTESIAN_POINT('',(2.915047169429681,1.750000000000000,1.200000000000000));
#1162=VERTEX_POINT('',#1161);
#1163=CARTESIAN_POINT('',(2.915047169429681,1.750000000000000,0.600000000000000));
#1164=DIRECTION('',(0.0,0.0,1.0));
#1165=VECTOR('',#1164,0.600000000000000);
#1166=LINE('',#1163,#1165);
#1167=EDGE_CURVE('',#1153,#1162,#1166,.T.);
#1168=ORIENTED_EDGE('',*,*,#1167,.T.);
#1169=CARTESIAN_POINT('',(-4.440892E-016,4.440892E-016,1.200000000000000));
#1170=DIRECTION('',(0.0,0.0,1.0));
#1171=DIRECTION('',(0.707106781186548,0.707106781186547,0.0));
#1172=AXIS2_PLACEMENT_3D('',#1169,#1170,#1171);
#1173=CIRCLE('',#1172,3.399999999999999);
#1174=EDGE_CURVE('',#1162,#1145,#1173,.T.);
#1175=ORIENTED_EDGE('',*,*,#1174,.T.);
#1176=EDGE_LOOP('',(#1151,#1160,#1168,#1175));
#1177=FACE_OUTER_BOUND('',#1176,.T.);
#1178=ADVANCED_FACE('',(#1177),#1141,.F.);
#1179=CARTESIAN_POINT('',(3.400000000000000,3.400000000000000,0.600000000000000));
#1180=DIRECTION('',(1.0,0.0,0.0));
#1181=DIRECTION('',(0.0,0.0,-1.0));
#1182=AXIS2_PLACEMENT_3D('',#1179,#1180,#1181);
#1183=PLANE('',#1182);
#1184=CARTESIAN_POINT('',(3.400000000000000,3.400000000000000,1.200000000000000));
#1185=VERTEX_POINT('',#1184);
#1186=CARTESIAN_POINT('',(3.400000000000000,1.750000000000000,1.200000000000000));
#1187=VERTEX_POINT('',#1186);
#1188=CARTESIAN_POINT('',(3.400000000000000,3.400000000000000,1.200000000000000));
#1189=DIRECTION('',(0.0,-1.0,0.0));
#1190=VECTOR('',#1189,1.650000000000000);
#1191=LINE('',#1188,#1190);
#1192=EDGE_CURVE('',#1185,#1187,#1191,.T.);
#1193=ORIENTED_EDGE('',*,*,#1192,.T.);
#1194=CARTESIAN_POINT('',(3.400000000000000,1.750000000000000,0.600000000000000));
#1195=VERTEX_POINT('',#1194);
#1196=CARTESIAN_POINT('',(3.400000000000000,1.750000000000000,0.600000000000000));
#1197=DIRECTION('',(0.0,0.0,1.0));
#1198=VECTOR('',#1197,0.600000000000000);
#1199=LINE('',#1196,#1198);
#1200=EDGE_CURVE('',#1195,#1187,#1199,.T.);
#1201=ORIENTED_EDGE('',*,*,#1200,.F.);
#1202=CARTESIAN_POINT('',(3.400000000000000,3.400000000000000,0.600000000000000));
#1203=VERTEX_POINT('',#1202);
#1204=CARTESIAN_POINT('',(3.400000000000000,1.750000000000000,0.600000000000000));
#1205=DIRECTION('',(0.0,1.0,0.0));
#1206=VECTOR('',#1205,1.650000000000000);
#1207=LINE('',#1204,#1206);
#1208=EDGE_CURVE('',#1195,#1203,#1207,.T.);
#1209=ORIENTED_EDGE('',*,*,#1208,.T.);
#1210=CARTESIAN_POINT('',(3.400000000000000,3.400000000000000,0.600000000000000));
#1211=DIRECTION('',(0.0,0.0,1.0));
#1212=VECTOR('',#1211,0.600000000000000);
#1213=LINE('',#1210,#1212);
#1214=EDGE_CURVE('',#1203,#1185,#1213,.T.);
#1215=ORIENTED_EDGE('',*,*,#1214,.T.);
#1216=EDGE_LOOP('',(#1193,#1201,#1209,#1215));
#1217=FACE_OUTER_BOUND('',#1216,.T.);
#1218=ADVANCED_FACE('',(#1217),#1183,.T.);
#1219=CARTESIAN_POINT('',(3.400000000000000,1.750000000000000,0.600000000000000));
#1220=DIRECTION('',(0.0,-1.0,0.0));
#1221=DIRECTION('',(0.0,0.0,-1.0));
#1222=AXIS2_PLACEMENT_3D('',#1219,#1220,#1221);
#1223=PLANE('',#1222);
#1224=CARTESIAN_POINT('',(3.400000000000000,1.750000000000000,1.200000000000000));
#1225=DIRECTION('',(-1.0,0.0,0.0));
#1226=VECTOR('',#1225,0.484952830570319);
#1227=LINE('',#1224,#1226);
#1228=EDGE_CURVE('',#1187,#1162,#1227,.T.);
#1229=ORIENTED_EDGE('',*,*,#1228,.T.);
#1230=ORIENTED_EDGE('',*,*,#1167,.F.);
#1231=CARTESIAN_POINT('',(2.915047169429681,1.750000000000000,0.600000000000000));
#1232=DIRECTION('',(1.0,0.0,0.0));
#1233=VECTOR('',#1232,0.484952830570319);
#1234=LINE('',#1231,#1233);
#1235=EDGE_CURVE('',#1153,#1195,#1234,.T.);
#1236=ORIENTED_EDGE('',*,*,#1235,.T.);
#1237=ORIENTED_EDGE('',*,*,#1200,.T.);
#1238=EDGE_LOOP('',(#1229,#1230,#1236,#1237));
#1239=FACE_OUTER_BOUND('',#1238,.T.);
#1240=ADVANCED_FACE('',(#1239),#1223,.T.);
#1241=CARTESIAN_POINT('',(-4.440892E-016,4.440892E-016,0.600000000000000));
#1242=DIRECTION('',(0.0,0.0,1.0));
#1243=DIRECTION('',(0.707106781186548,0.707106781186547,0.0));
#1244=AXIS2_PLACEMENT_3D('',#1241,#1242,#1243);
#1245=CYLINDRICAL_SURFACE('',#1244,3.399999999999999);
#1246=ORIENTED_EDGE('',*,*,#1150,.T.);
#1247=CARTESIAN_POINT('',(1.750000000000000,2.915047169429681,1.200000000000000));
#1248=VERTEX_POINT('',#1247);
#1249=CARTESIAN_POINT('',(-4.440892E-016,4.440892E-016,1.200000000000000));
#1250=DIRECTION('',(0.0,0.0,1.0));
#1251=DIRECTION('',(0.707106781186548,0.707106781186547,0.0));
#1252=AXIS2_PLACEMENT_3D('',#1249,#1250,#1251);
#1253=CIRCLE('',#1252,3.399999999999999);
#1254=EDGE_CURVE('',#1145,#1248,#1253,.T.);
#1255=ORIENTED_EDGE('',*,*,#1254,.T.);
#1256=CARTESIAN_POINT('',(1.750000000000000,2.915047169429681,0.600000000000000));
#1257=VERTEX_POINT('',#1256);
#1258=CARTESIAN_POINT('',(1.750000000000000,2.915047169429681,0.600000000000000));
#1259=DIRECTION('',(0.0,0.0,1.0));
#1260=VECTOR('',#1259,0.600000000000000);
#1261=LINE('',#1258,#1260);
#1262=EDGE_CURVE('',#1257,#1248,#1261,.T.);
#1263=ORIENTED_EDGE('',*,*,#1262,.F.);
#1264=CARTESIAN_POINT('',(-4.440892E-016,4.440892E-016,0.600000000000000));
#1265=DIRECTION('',(0.0,0.0,-1.0));
#1266=DIRECTION('',(0.707106781186548,0.707106781186547,0.0));
#1267=AXIS2_PLACEMENT_3D('',#1264,#1265,#1266);
#1268=CIRCLE('',#1267,3.399999999999999);
#1269=EDGE_CURVE('',#1257,#1143,#1268,.T.);
#1270=ORIENTED_EDGE('',*,*,#1269,.T.);
#1271=EDGE_LOOP('',(#1246,#1255,#1263,#1270));
#1272=FACE_OUTER_BOUND('',#1271,.T.);
#1273=ADVANCED_FACE('',(#1272),#1245,.F.);
#1274=CARTESIAN_POINT('',(1.750000000000000,2.915047169429681,0.600000000000000));
#1275=DIRECTION('',(-1.0,0.0,0.0));
#1276=DIRECTION('',(0.0,0.0,1.0));
#1277=AXIS2_PLACEMENT_3D('',#1274,#1275,#1276);
#1278=PLANE('',#1277);
#1279=CARTESIAN_POINT('',(1.750000000000000,3.400000000000000,1.200000000000000));
#1280=VERTEX_POINT('',#1279);
#1281=CARTESIAN_POINT('',(1.750000000000000,2.915047169429681,1.200000000000000));
#1282=DIRECTION('',(0.0,1.0,0.0));
#1283=VECTOR('',#1282,0.484952830570319);
#1284=LINE('',#1281,#1283);
#1285=EDGE_CURVE('',#1248,#1280,#1284,.T.);
#1286=ORIENTED_EDGE('',*,*,#1285,.T.);
#1287=CARTESIAN_POINT('',(1.750000000000000,3.400000000000000,0.600000000000000));
#1288=VERTEX_POINT('',#1287);
#1289=CARTESIAN_POINT('',(1.750000000000000,3.400000000000000,0.600000000000000));
#1290=DIRECTION('',(0.0,0.0,1.0));
#1291=VECTOR('',#1290,0.600000000000000);
#1292=LINE('',#1289,#1291);
#1293=EDGE_CURVE('',#1288,#1280,#1292,.T.);
#1294=ORIENTED_EDGE('',*,*,#1293,.F.);
#1295=CARTESIAN_POINT('',(1.750000000000000,3.400000000000000,0.600000000000000));
#1296=DIRECTION('',(0.0,-1.0,0.0));
#1297=VECTOR('',#1296,0.484952830570319);
#1298=LINE('',#1295,#1297);
#1299=EDGE_CURVE('',#1288,#1257,#1298,.T.);
#1300=ORIENTED_EDGE('',*,*,#1299,.T.);
#1301=ORIENTED_EDGE('',*,*,#1262,.T.);
#1302=EDGE_LOOP('',(#1286,#1294,#1300,#1301));
#1303=FACE_OUTER_BOUND('',#1302,.T.);
#1304=ADVANCED_FACE('',(#1303),#1278,.T.);
#1305=CARTESIAN_POINT('',(1.750000000000000,3.400000000000000,0.600000000000000));
#1306=DIRECTION('',(0.0,1.0,0.0));
#1307=DIRECTION('',(0.0,0.0,1.0));
#1308=AXIS2_PLACEMENT_3D('',#1305,#1306,#1307);
#1309=PLANE('',#1308);
#1310=CARTESIAN_POINT('',(1.750000000000000,3.400000000000000,1.200000000000000));
#1311=DIRECTION('',(1.0,0.0,0.0));
#1312=VECTOR('',#1311,1.650000000000000);
#1313=LINE('',#1310,#1312);
#1314=EDGE_CURVE('',#1280,#1185,#1313,.T.);
#1315=ORIENTED_EDGE('',*,*,#1314,.T.);
#1316=ORIENTED_EDGE('',*,*,#1214,.F.);
#1317=CARTESIAN_POINT('',(3.400000000000000,3.400000000000000,0.600000000000000));
#1318=DIRECTION('',(-1.0,0.0,0.0));
#1319=VECTOR('',#1318,1.650000000000000);
#1320=LINE('',#1317,#1319);
#1321=EDGE_CURVE('',#1203,#1288,#1320,.T.);
#1322=ORIENTED_EDGE('',*,*,#1321,.T.);
#1323=ORIENTED_EDGE('',*,*,#1293,.T.);
#1324=EDGE_LOOP('',(#1315,#1316,#1322,#1323));
#1325=FACE_OUTER_BOUND('',#1324,.T.);
#1326=ADVANCED_FACE('',(#1325),#1309,.T.);
#1327=CARTESIAN_POINT('',(2.728620443540430,2.728620443540430,1.200000000000000));
#1328=DIRECTION('',(0.0,0.0,1.0));
#1329=DIRECTION('',(1.0,0.0,0.0));
#1330=AXIS2_PLACEMENT_3D('',#1327,#1328,#1329);
#1331=PLANE('',#1330);
#1332=ORIENTED_EDGE('',*,*,#1192,.F.);
#1333=ORIENTED_EDGE('',*,*,#1314,.F.);
#1334=ORIENTED_EDGE('',*,*,#1285,.F.);
#1335=ORIENTED_EDGE('',*,*,#1254,.F.);
#1336=ORIENTED_EDGE('',*,*,#1174,.F.);
#1337=ORIENTED_EDGE('',*,*,#1228,.F.);
#1338=EDGE_LOOP('',(#1332,#1333,#1334,#1335,#1336,#1337));
#1339=FACE_OUTER_BOUND('',#1338,.T.);
#1340=ADVANCED_FACE('',(#1339),#1331,.T.);
#1341=CARTESIAN_POINT('',(2.728620443540430,2.728620443540430,0.600000000000000));
#1342=DIRECTION('',(0.0,0.0,1.0));
#1343=DIRECTION('',(1.0,0.0,0.0));
#1344=AXIS2_PLACEMENT_3D('',#1341,#1342,#1343);
#1345=PLANE('',#1344);
#1346=ORIENTED_EDGE('',*,*,#1321,.F.);
#1347=ORIENTED_EDGE('',*,*,#1208,.F.);
#1348=ORIENTED_EDGE('',*,*,#1235,.F.);
#1349=ORIENTED_EDGE('',*,*,#1159,.F.);
#1350=ORIENTED_EDGE('',*,*,#1269,.F.);
#1351=ORIENTED_EDGE('',*,*,#1299,.F.);
#1352=EDGE_LOOP('',(#1346,#1347,#1348,#1349,#1350,#1351));
#1353=FACE_OUTER_BOUND('',#1352,.T.);
#1354=ADVANCED_FACE('',(#1353),#1345,.F.);
#1355=CLOSED_SHELL('',(#1178,#1218,#1240,#1273,#1304,#1326,#1340,#1354));
#1356=MANIFOLD_SOLID_BREP('79C',#1355);
#1357=STYLED_ITEM('NONE',(#503),#1356);
#1358=CARTESIAN_POINT('',(-3.900000000000000,-0.350000000000000,0.300000000000000));
#1359=DIRECTION('',(0.0,-1.0,0.0));
#1360=DIRECTION('',(0.0,0.0,-1.0));
#1361=AXIS2_PLACEMENT_3D('',#1358,#1359,#1360);
#1362=PLANE('',#1361);
#1363=CARTESIAN_POINT('',(-3.400000000000000,-0.350000000000000,0.300000000000000));
#1364=VERTEX_POINT('',#1363);
#1365=CARTESIAN_POINT('',(-3.400000000000000,-0.350000000000000,-1.665335E-016));
#1366=VERTEX_POINT('',#1365);
#1367=CARTESIAN_POINT('',(-3.400000000000000,-0.350000000000000,0.300000000000000));
#1368=DIRECTION('',(0.0,0.0,-1.0));
#1369=VECTOR('',#1368,0.300000000000000);
#1370=LINE('',#1367,#1369);
#1371=EDGE_CURVE('',#1364,#1366,#1370,.T.);
#1372=ORIENTED_EDGE('',*,*,#1371,.F.);
#1373=CARTESIAN_POINT('',(-1.300000000000000,-0.350000000000000,0.300000000000000));
#1374=VERTEX_POINT('',#1373);
#1375=CARTESIAN_POINT('',(-1.300000000000000,-0.350000000000000,0.300000000000000));
#1376=DIRECTION('',(-1.0,0.0,0.0));
#1377=VECTOR('',#1376,2.100000000000001);
#1378=LINE('',#1375,#1377);
#1379=EDGE_CURVE('',#1374,#1364,#1378,.T.);
#1380=ORIENTED_EDGE('',*,*,#1379,.F.);
#1381=CARTESIAN_POINT('',(-1.300000000000000,-0.350000000000000,-1.665335E-016));
#1382=VERTEX_POINT('',#1381);
#1383=CARTESIAN_POINT('',(-1.300000000000000,-0.350000000000000,0.300000000000000));
#1384=DIRECTION('',(0.0,0.0,-1.0));
#1385=VECTOR('',#1384,0.300000000000000);
#1386=LINE('',#1383,#1385);
#1387=EDGE_CURVE('',#1374,#1382,#1386,.T.);
#1388=ORIENTED_EDGE('',*,*,#1387,.T.);
#1389=CARTESIAN_POINT('',(-3.400000000000000,-0.350000000000000,-1.665335E-016));
#1390=DIRECTION('',(1.0,0.0,0.0));
#1391=VECTOR('',#1390,2.100000000000001);
#1392=LINE('',#1389,#1391);
#1393=EDGE_CURVE('',#1366,#1382,#1392,.T.);
#1394=ORIENTED_EDGE('',*,*,#1393,.F.);
#1395=EDGE_LOOP('',(#1372,#1380,#1388,#1394));
#1396=FACE_OUTER_BOUND('',#1395,.T.);
#1397=ADVANCED_FACE('',(#1396),#1362,.F.);
#1398=CARTESIAN_POINT('',(-1.300000000000000,-0.350000000000000,0.300000000000000));
#1399=DIRECTION('',(1.0,0.0,0.0));
#1400=DIRECTION('',(0.0,0.0,-1.0));
#1401=AXIS2_PLACEMENT_3D('',#1398,#1399,#1400);
#1402=PLANE('',#1401);
#1403=CARTESIAN_POINT('',(-1.300000000000000,0.349999999999998,-1.665335E-016));
#1404=VERTEX_POINT('',#1403);
#1405=CARTESIAN_POINT('',(-1.300000000000000,-0.350000000000000,-1.665335E-016));
#1406=DIRECTION('',(0.0,1.0,0.0));
#1407=VECTOR('',#1406,0.699999999999998);
#1408=LINE('',#1405,#1407);
#1409=EDGE_CURVE('',#1382,#1404,#1408,.T.);
#1410=ORIENTED_EDGE('',*,*,#1409,.F.);
#1411=ORIENTED_EDGE('',*,*,#1387,.F.);
#1412=CARTESIAN_POINT('',(-1.300000000000000,0.349999999999998,0.300000000000000));
#1413=VERTEX_POINT('',#1412);
#1414=CARTESIAN_POINT('',(-1.300000000000000,0.349999999999998,0.300000000000000));
#1415=DIRECTION('',(0.0,-1.0,0.0));
#1416=VECTOR('',#1415,0.699999999999998);
#1417=LINE('',#1414,#1416);
#1418=EDGE_CURVE('',#1413,#1374,#1417,.T.);
#1419=ORIENTED_EDGE('',*,*,#1418,.F.);
#1420=CARTESIAN_POINT('',(-1.300000000000000,0.349999999999998,0.300000000000000));
#1421=DIRECTION('',(0.0,0.0,-1.0));
#1422=VECTOR('',#1421,0.300000000000000);
#1423=LINE('',#1420,#1422);
#1424=EDGE_CURVE('',#1413,#1404,#1423,.T.);
#1425=ORIENTED_EDGE('',*,*,#1424,.T.);
#1426=EDGE_LOOP('',(#1410,#1411,#1419,#1425));
#1427=FACE_OUTER_BOUND('',#1426,.T.);
#1428=ADVANCED_FACE('',(#1427),#1402,.F.);
#1429=CARTESIAN_POINT('',(-1.300000000000000,0.349999999999998,0.300000000000000));
#1430=DIRECTION('',(0.0,1.0,0.0));
#1431=DIRECTION('',(0.0,0.0,1.0));
#1432=AXIS2_PLACEMENT_3D('',#1429,#1430,#1431);
#1433=PLANE('',#1432);
#1434=CARTESIAN_POINT('',(-3.400000000000000,0.349999999999999,-1.665335E-016));
#1435=VERTEX_POINT('',#1434);
#1436=CARTESIAN_POINT('',(-3.400000000000000,0.349999999999999,0.300000000000000));
#1437=VERTEX_POINT('',#1436);
#1438=CARTESIAN_POINT('',(-3.400000000000000,0.349999999999999,-1.665335E-016));
#1439=DIRECTION('',(0.0,0.0,1.0));
#1440=VECTOR('',#1439,0.300000000000000);
#1441=LINE('',#1438,#1440);
#1442=EDGE_CURVE('',#1435,#1437,#1441,.T.);
#1443=ORIENTED_EDGE('',*,*,#1442,.F.);
#1444=CARTESIAN_POINT('',(-1.300000000000000,0.349999999999998,-1.665335E-016));
#1445=DIRECTION('',(-1.0,0.0,0.0));
#1446=VECTOR('',#1445,2.100000000000001);
#1447=LINE('',#1444,#1446);
#1448=EDGE_CURVE('',#1404,#1435,#1447,.T.);
#1449=ORIENTED_EDGE('',*,*,#1448,.F.);
#1450=ORIENTED_EDGE('',*,*,#1424,.F.);
#1451=CARTESIAN_POINT('',(-3.400000000000000,0.349999999999999,0.300000000000000));
#1452=DIRECTION('',(1.0,0.0,0.0));
#1453=VECTOR('',#1452,2.100000000000001);
#1454=LINE('',#1451,#1453);
#1455=EDGE_CURVE('',#1437,#1413,#1454,.T.);
#1456=ORIENTED_EDGE('',*,*,#1455,.F.);
#1457=EDGE_LOOP('',(#1443,#1449,#1450,#1456));
#1458=FACE_OUTER_BOUND('',#1457,.T.);
#1459=ADVANCED_FACE('',(#1458),#1433,.F.);
#1460=CARTESIAN_POINT('',(-2.600000000000000,6.661338E-017,0.300000000000000));
#1461=DIRECTION('',(0.0,0.0,1.0));
#1462=DIRECTION('',(1.0,0.0,0.0));
#1463=AXIS2_PLACEMENT_3D('',#1460,#1461,#1462);
#1464=PLANE('',#1463);
#1465=CARTESIAN_POINT('',(-3.400000000000000,0.349999999999999,0.300000000000000));
#1466=DIRECTION('',(0.0,-1.0,0.0));
#1467=VECTOR('',#1466,0.699999999999999);
#1468=LINE('',#1465,#1467);
#1469=EDGE_CURVE('',#1437,#1364,#1468,.T.);
#1470=ORIENTED_EDGE('',*,*,#1469,.F.);
#1471=ORIENTED_EDGE('',*,*,#1455,.T.);
#1472=ORIENTED_EDGE('',*,*,#1418,.T.);
#1473=ORIENTED_EDGE('',*,*,#1379,.T.);
#1474=EDGE_LOOP('',(#1470,#1471,#1472,#1473));
#1475=FACE_OUTER_BOUND('',#1474,.T.);
#1476=ADVANCED_FACE('',(#1475),#1464,.F.);
#1477=CARTESIAN_POINT('',(1.300000000000000,-0.350000000000000,0.300000000000000));
#1478=DIRECTION('',(0.0,-1.0,0.0));
#1479=DIRECTION('',(0.0,0.0,-1.0));
#1480=AXIS2_PLACEMENT_3D('',#1477,#1478,#1479);
#1481=PLANE('',#1480);
#1482=CARTESIAN_POINT('',(3.400000000000000,-0.350000000000000,-1.665335E-016));
#1483=VERTEX_POINT('',#1482);
#1484=CARTESIAN_POINT('',(3.400000000000000,-0.350000000000000,0.300000000000000));
#1485=VERTEX_POINT('',#1484);
#1486=CARTESIAN_POINT('',(3.400000000000000,-0.350000000000000,-1.665335E-016));
#1487=DIRECTION('',(0.0,0.0,1.0));
#1488=VECTOR('',#1487,0.300000000000000);
#1489=LINE('',#1486,#1488);
#1490=EDGE_CURVE('',#1483,#1485,#1489,.T.);
#1491=ORIENTED_EDGE('',*,*,#1490,.F.);
#1492=CARTESIAN_POINT('',(1.300000000000000,-0.350000000000000,-1.665335E-016));
#1493=VERTEX_POINT('',#1492);
#1494=CARTESIAN_POINT('',(1.300000000000000,-0.350000000000000,-1.665335E-016));
#1495=DIRECTION('',(1.0,0.0,0.0));
#1496=VECTOR('',#1495,2.100000000000000);
#1497=LINE('',#1494,#1496);
#1498=EDGE_CURVE('',#1493,#1483,#1497,.T.);
#1499=ORIENTED_EDGE('',*,*,#1498,.F.);
#1500=CARTESIAN_POINT('',(1.300000000000000,-0.350000000000000,0.300000000000000));
#1501=VERTEX_POINT('',#1500);
#1502=CARTESIAN_POINT('',(1.300000000000000,-0.350000000000000,0.300000000000000));
#1503=DIRECTION('',(0.0,0.0,-1.0));
#1504=VECTOR('',#1503,0.300000000000000);
#1505=LINE('',#1502,#1504);
#1506=EDGE_CURVE('',#1501,#1493,#1505,.T.);
#1507=ORIENTED_EDGE('',*,*,#1506,.F.);
#1508=CARTESIAN_POINT('',(3.400000000000000,-0.350000000000000,0.300000000000000));
#1509=DIRECTION('',(-1.0,0.0,0.0));
#1510=VECTOR('',#1509,2.100000000000000);
#1511=LINE('',#1508,#1510);
#1512=EDGE_CURVE('',#1485,#1501,#1511,.T.);
#1513=ORIENTED_EDGE('',*,*,#1512,.F.);
#1514=EDGE_LOOP('',(#1491,#1499,#1507,#1513));
#1515=FACE_OUTER_BOUND('',#1514,.T.);
#1516=ADVANCED_FACE('',(#1515),#1481,.F.);
#1517=CARTESIAN_POINT('',(2.600000000000001,6.661338E-017,0.300000000000000));
#1518=DIRECTION('',(0.0,0.0,1.0));
#1519=DIRECTION('',(1.0,0.0,0.0));
#1520=AXIS2_PLACEMENT_3D('',#1517,#1518,#1519);
#1521=PLANE('',#1520);
#1522=CARTESIAN_POINT('',(3.400000000000000,0.349999999999999,0.300000000000000));
#1523=VERTEX_POINT('',#1522);
#1524=CARTESIAN_POINT('',(3.400000000000000,-0.350000000000000,0.300000000000000));
#1525=DIRECTION('',(0.0,1.0,0.0));
#1526=VECTOR('',#1525,0.699999999999999);
#1527=LINE('',#1524,#1526);
#1528=EDGE_CURVE('',#1485,#1523,#1527,.T.);
#1529=ORIENTED_EDGE('',*,*,#1528,.F.);
#1530=ORIENTED_EDGE('',*,*,#1512,.T.);
#1531=CARTESIAN_POINT('',(1.300000000000000,0.349999999999998,0.300000000000000));
#1532=VERTEX_POINT('',#1531);
#1533=CARTESIAN_POINT('',(1.300000000000000,-0.350000000000000,0.300000000000000));
#1534=DIRECTION('',(0.0,1.0,0.0));
#1535=VECTOR('',#1534,0.699999999999998);
#1536=LINE('',#1533,#1535);
#1537=EDGE_CURVE('',#1501,#1532,#1536,.T.);
#1538=ORIENTED_EDGE('',*,*,#1537,.T.);
#1539=CARTESIAN_POINT('',(1.300000000000000,0.349999999999998,0.300000000000000));
#1540=DIRECTION('',(1.0,0.0,0.0));
#1541=VECTOR('',#1540,2.100000000000000);
#1542=LINE('',#1539,#1541);
#1543=EDGE_CURVE('',#1532,#1523,#1542,.T.);
#1544=ORIENTED_EDGE('',*,*,#1543,.T.);
#1545=EDGE_LOOP('',(#1529,#1530,#1538,#1544));
#1546=FACE_OUTER_BOUND('',#1545,.T.);
#1547=ADVANCED_FACE('',(#1546),#1521,.F.);
#1548=CARTESIAN_POINT('',(3.900000000000000,0.350000000000000,0.300000000000000));
#1549=DIRECTION('',(0.0,1.0,0.0));
#1550=DIRECTION('',(0.0,0.0,1.0));
#1551=AXIS2_PLACEMENT_3D('',#1548,#1549,#1550);
#1552=PLANE('',#1551);
#1553=CARTESIAN_POINT('',(3.400000000000000,0.349999999999999,-1.665335E-016));
#1554=VERTEX_POINT('',#1553);
#1555=CARTESIAN_POINT('',(3.400000000000000,0.349999999999999,0.300000000000000));
#1556=DIRECTION('',(0.0,0.0,-1.0));
#1557=VECTOR('',#1556,0.300000000000000);
#1558=LINE('',#1555,#1557);
#1559=EDGE_CURVE('',#1523,#1554,#1558,.T.);
#1560=ORIENTED_EDGE('',*,*,#1559,.F.);
#1561=ORIENTED_EDGE('',*,*,#1543,.F.);
#1562=CARTESIAN_POINT('',(1.300000000000000,0.349999999999998,-1.665335E-016));
#1563=VERTEX_POINT('',#1562);
#1564=CARTESIAN_POINT('',(1.300000000000000,0.349999999999998,0.300000000000000));
#1565=DIRECTION('',(0.0,0.0,-1.0));
#1566=VECTOR('',#1565,0.300000000000000);
#1567=LINE('',#1564,#1566);
#1568=EDGE_CURVE('',#1532,#1563,#1567,.T.);
#1569=ORIENTED_EDGE('',*,*,#1568,.T.);
#1570=CARTESIAN_POINT('',(3.400000000000000,0.349999999999999,-1.665335E-016));
#1571=DIRECTION('',(-1.0,0.0,0.0));
#1572=VECTOR('',#1571,2.100000000000000);
#1573=LINE('',#1570,#1572);
#1574=EDGE_CURVE('',#1554,#1563,#1573,.T.);
#1575=ORIENTED_EDGE('',*,*,#1574,.F.);
#1576=EDGE_LOOP('',(#1560,#1561,#1569,#1575));
#1577=FACE_OUTER_BOUND('',#1576,.T.);
#1578=ADVANCED_FACE('',(#1577),#1552,.F.);
#1579=CARTESIAN_POINT('',(1.300000000000000,0.349999999999998,0.300000000000000));
#1580=DIRECTION('',(-1.0,0.0,0.0));
#1581=DIRECTION('',(0.0,0.0,1.0));
#1582=AXIS2_PLACEMENT_3D('',#1579,#1580,#1581);
#1583=PLANE('',#1582);
#1584=CARTESIAN_POINT('',(1.300000000000000,0.349999999999998,-1.665335E-016));
#1585=DIRECTION('',(0.0,-1.0,0.0));
#1586=VECTOR('',#1585,0.699999999999998);
#1587=LINE('',#1584,#1586);
#1588=EDGE_CURVE('',#1563,#1493,#1587,.T.);
#1589=ORIENTED_EDGE('',*,*,#1588,.F.);
#1590=ORIENTED_EDGE('',*,*,#1568,.F.);
#1591=ORIENTED_EDGE('',*,*,#1537,.F.);
#1592=ORIENTED_EDGE('',*,*,#1506,.T.);
#1593=EDGE_LOOP('',(#1589,#1590,#1591,#1592));
#1594=FACE_OUTER_BOUND('',#1593,.T.);
#1595=ADVANCED_FACE('',(#1594),#1583,.F.);
#1596=CARTESIAN_POINT('',(0.304755185811096,-4.583160E-017,0.0));
#1597=DIRECTION('',(0.0,0.0,1.0));
#1598=DIRECTION('',(1.0,0.0,0.0));
#1599=AXIS2_PLACEMENT_3D('',#1596,#1597,#1598);
#1600=PLANE('',#1599);
#1601=ORIENTED_EDGE('',*,*,#1393,.T.);
#1602=ORIENTED_EDGE('',*,*,#1409,.T.);
#1603=ORIENTED_EDGE('',*,*,#1448,.T.);
#1604=CARTESIAN_POINT('',(-3.400000000000000,1.750000000000000,0.0));
#1605=VERTEX_POINT('',#1604);
#1606=CARTESIAN_POINT('',(-3.400000000000000,0.349999999999999,-1.665335E-016));
#1607=DIRECTION('',(0.0,1.0,0.0));
#1608=VECTOR('',#1607,1.400000000000001);
#1609=LINE('',#1606,#1608);
#1610=EDGE_CURVE('',#1435,#1605,#1609,.T.);
#1611=ORIENTED_EDGE('',*,*,#1610,.T.);
#1612=CARTESIAN_POINT('',(-1.750000000000000,3.400000000000000,0.0));
#1613=VERTEX_POINT('',#1612);
#1614=CARTESIAN_POINT('',(-3.400000000000000,1.750000000000000,0.0));
#1615=DIRECTION('',(0.707106781186548,0.707106781186547,0.0));
#1616=VECTOR('',#1615,2.333452377915607);
#1617=LINE('',#1614,#1616);
#1618=EDGE_CURVE('',#1605,#1613,#1617,.T.);
#1619=ORIENTED_EDGE('',*,*,#1618,.T.);
#1620=CARTESIAN_POINT('',(3.400000000000000,3.400000000000000,0.0));
#1621=VERTEX_POINT('',#1620);
#1622=CARTESIAN_POINT('',(-1.750000000000000,3.400000000000000,0.0));
#1623=DIRECTION('',(1.0,0.0,0.0));
#1624=VECTOR('',#1623,5.150000000000000);
#1625=LINE('',#1622,#1624);
#1626=EDGE_CURVE('',#1613,#1621,#1625,.T.);
#1627=ORIENTED_EDGE('',*,*,#1626,.T.);
#1628=CARTESIAN_POINT('',(3.400000000000000,3.400000000000000,0.0));
#1629=DIRECTION('',(0.0,-1.0,0.0));
#1630=VECTOR('',#1629,3.050000000000001);
#1631=LINE('',#1628,#1630);
#1632=EDGE_CURVE('',#1621,#1554,#1631,.T.);
#1633=ORIENTED_EDGE('',*,*,#1632,.T.);
#1634=ORIENTED_EDGE('',*,*,#1574,.T.);
#1635=ORIENTED_EDGE('',*,*,#1588,.T.);
#1636=ORIENTED_EDGE('',*,*,#1498,.T.);
#1637=CARTESIAN_POINT('',(3.400000000000000,-3.400000000000000,0.0));
#1638=VERTEX_POINT('',#1637);
#1639=CARTESIAN_POINT('',(3.400000000000000,-0.350000000000000,-1.665335E-016));
#1640=DIRECTION('',(0.0,-1.0,0.0));
#1641=VECTOR('',#1640,3.050000000000000);
#1642=LINE('',#1639,#1641);
#1643=EDGE_CURVE('',#1483,#1638,#1642,.T.);
#1644=ORIENTED_EDGE('',*,*,#1643,.T.);
#1645=CARTESIAN_POINT('',(-1.750000000000001,-3.400000000000000,0.0));
#1646=VERTEX_POINT('',#1645);
#1647=CARTESIAN_POINT('',(3.400000000000000,-3.400000000000000,0.0));
#1648=DIRECTION('',(-1.0,0.0,0.0));
#1649=VECTOR('',#1648,5.150000000000000);
#1650=LINE('',#1647,#1649);
#1651=EDGE_CURVE('',#1638,#1646,#1650,.T.);
#1652=ORIENTED_EDGE('',*,*,#1651,.T.);
#1653=CARTESIAN_POINT('',(-3.400000000000000,-1.750000000000000,0.0));
#1654=VERTEX_POINT('',#1653);
#1655=CARTESIAN_POINT('',(-1.750000000000001,-3.400000000000000,0.0));
#1656=DIRECTION('',(-0.707106781186547,0.707106781186547,0.0));
#1657=VECTOR('',#1656,2.333452377915606);
#1658=LINE('',#1655,#1657);
#1659=EDGE_CURVE('',#1646,#1654,#1658,.T.);
#1660=ORIENTED_EDGE('',*,*,#1659,.T.);
#1661=CARTESIAN_POINT('',(-3.400000000000000,-1.750000000000000,0.0));
#1662=DIRECTION('',(0.0,1.0,0.0));
#1663=VECTOR('',#1662,1.400000000000001);
#1664=LINE('',#1661,#1663);
#1665=EDGE_CURVE('',#1654,#1366,#1664,.T.);
#1666=ORIENTED_EDGE('',*,*,#1665,.T.);
#1667=EDGE_LOOP('',(#1601,#1602,#1603,#1611,#1619,#1627,#1633,#1634,#1635,#1636,#1644,#1652,#1660,#1666));
#1668=FACE_OUTER_BOUND('',#1667,.T.);
#1669=ADVANCED_FACE('',(#1668),#1600,.F.);
#1670=CARTESIAN_POINT('',(3.400000000000000,3.400000000000000,0.0));
#1671=DIRECTION('',(1.0,0.0,0.0));
#1672=DIRECTION('',(0.0,0.0,-1.0));
#1673=AXIS2_PLACEMENT_3D('',#1670,#1671,#1672);
#1674=PLANE('',#1673);
#1675=ORIENTED_EDGE('',*,*,#1490,.T.);
#1676=ORIENTED_EDGE('',*,*,#1528,.T.);
#1677=ORIENTED_EDGE('',*,*,#1559,.T.);
#1678=ORIENTED_EDGE('',*,*,#1632,.F.);
#1679=CARTESIAN_POINT('',(3.400000000000000,3.400000000000000,0.600000000000000));
#1680=VERTEX_POINT('',#1679);
#1681=CARTESIAN_POINT('',(3.400000000000000,3.400000000000000,0.0));
#1682=DIRECTION('',(0.0,0.0,1.0));
#1683=VECTOR('',#1682,0.600000000000000);
#1684=LINE('',#1681,#1683);
#1685=EDGE_CURVE('',#1621,#1680,#1684,.T.);
#1686=ORIENTED_EDGE('',*,*,#1685,.T.);
#1687=CARTESIAN_POINT('',(3.400000000000000,-3.400000000000000,0.600000000000000));
#1688=VERTEX_POINT('',#1687);
#1689=CARTESIAN_POINT('',(3.400000000000000,3.400000000000000,0.600000000000000));
#1690=DIRECTION('',(0.0,-1.0,0.0));
#1691=VECTOR('',#1690,6.799999999999999);
#1692=LINE('',#1689,#1691);
#1693=EDGE_CURVE('',#1680,#1688,#1692,.T.);
#1694=ORIENTED_EDGE('',*,*,#1693,.T.);
#1695=CARTESIAN_POINT('',(3.400000000000000,-3.400000000000000,0.0));
#1696=DIRECTION('',(0.0,0.0,1.0));
#1697=VECTOR('',#1696,0.600000000000000);
#1698=LINE('',#1695,#1697);
#1699=EDGE_CURVE('',#1638,#1688,#1698,.T.);
#1700=ORIENTED_EDGE('',*,*,#1699,.F.);
#1701=ORIENTED_EDGE('',*,*,#1643,.F.);
#1702=EDGE_LOOP('',(#1675,#1676,#1677,#1678,#1686,#1694,#1700,#1701));
#1703=FACE_OUTER_BOUND('',#1702,.T.);
#1704=ADVANCED_FACE('',(#1703),#1674,.T.);
#1705=CARTESIAN_POINT('',(-1.750000000000001,-3.400000000000000,0.0));
#1706=DIRECTION('',(-0.707106781186548,-0.707106781186548,0.0));
#1707=DIRECTION('',(0.0,0.0,1.0));
#1708=AXIS2_PLACEMENT_3D('',#1705,#1706,#1707);
#1709=PLANE('',#1708);
#1710=CARTESIAN_POINT('',(-1.750000000000001,-3.400000000000000,0.600000000000000));
#1711=VERTEX_POINT('',#1710);
#1712=CARTESIAN_POINT('',(-3.400000000000000,-1.750000000000000,0.600000000000000));
#1713=VERTEX_POINT('',#1712);
#1714=CARTESIAN_POINT('',(-1.750000000000001,-3.400000000000000,0.600000000000000));
#1715=DIRECTION('',(-0.707106781186547,0.707106781186547,0.0));
#1716=VECTOR('',#1715,2.333452377915606);
#1717=LINE('',#1714,#1716);
#1718=EDGE_CURVE('',#1711,#1713,#1717,.T.);
#1719=ORIENTED_EDGE('',*,*,#1718,.T.);
#1720=CARTESIAN_POINT('',(-3.400000000000000,-1.750000000000000,0.0));
#1721=DIRECTION('',(0.0,0.0,1.0));
#1722=VECTOR('',#1721,0.600000000000000);
#1723=LINE('',#1720,#1722);
#1724=EDGE_CURVE('',#1654,#1713,#1723,.T.);
#1725=ORIENTED_EDGE('',*,*,#1724,.F.);
#1726=ORIENTED_EDGE('',*,*,#1659,.F.);
#1727=CARTESIAN_POINT('',(-1.750000000000001,-3.400000000000000,0.0));
#1728=DIRECTION('',(0.0,0.0,1.0));
#1729=VECTOR('',#1728,0.600000000000000);
#1730=LINE('',#1727,#1729);
#1731=EDGE_CURVE('',#1646,#1711,#1730,.T.);
#1732=ORIENTED_EDGE('',*,*,#1731,.T.);
#1733=EDGE_LOOP('',(#1719,#1725,#1726,#1732));
#1734=FACE_OUTER_BOUND('',#1733,.T.);
#1735=ADVANCED_FACE('',(#1734),#1709,.T.);
#1736=CARTESIAN_POINT('',(-3.400000000000000,-1.750000000000000,0.0));
#1737=DIRECTION('',(-1.0,0.0,0.0));
#1738=DIRECTION('',(0.0,0.0,1.0));
#1739=AXIS2_PLACEMENT_3D('',#1736,#1737,#1738);
#1740=PLANE('',#1739);
#1741=ORIENTED_EDGE('',*,*,#1371,.T.);
#1742=ORIENTED_EDGE('',*,*,#1665,.F.);
#1743=ORIENTED_EDGE('',*,*,#1724,.T.);
#1744=CARTESIAN_POINT('',(-3.400000000000000,1.750000000000000,0.600000000000000));
#1745=VERTEX_POINT('',#1744);
#1746=CARTESIAN_POINT('',(-3.400000000000000,-1.750000000000000,0.600000000000000));
#1747=DIRECTION('',(0.0,1.0,0.0));
#1748=VECTOR('',#1747,3.500000000000000);
#1749=LINE('',#1746,#1748);
#1750=EDGE_CURVE('',#1713,#1745,#1749,.T.);
#1751=ORIENTED_EDGE('',*,*,#1750,.T.);
#1752=CARTESIAN_POINT('',(-3.400000000000000,1.750000000000000,0.0));
#1753=DIRECTION('',(0.0,0.0,1.0));
#1754=VECTOR('',#1753,0.600000000000000);
#1755=LINE('',#1752,#1754);
#1756=EDGE_CURVE('',#1605,#1745,#1755,.T.);
#1757=ORIENTED_EDGE('',*,*,#1756,.F.);
#1758=ORIENTED_EDGE('',*,*,#1610,.F.);
#1759=ORIENTED_EDGE('',*,*,#1442,.T.);
#1760=ORIENTED_EDGE('',*,*,#1469,.T.);
#1761=EDGE_LOOP('',(#1741,#1742,#1743,#1751,#1757,#1758,#1759,#1760));
#1762=FACE_OUTER_BOUND('',#1761,.T.);
#1763=ADVANCED_FACE('',(#1762),#1740,.T.);
#1764=CARTESIAN_POINT('',(-3.400000000000000,1.750000000000000,0.0));
#1765=DIRECTION('',(-0.707106781186547,0.707106781186548,0.0));
#1766=DIRECTION('',(0.0,0.0,1.0));
#1767=AXIS2_PLACEMENT_3D('',#1764,#1765,#1766);
#1768=PLANE('',#1767);
#1769=CARTESIAN_POINT('',(-1.750000000000000,3.400000000000000,0.600000000000000));
#1770=VERTEX_POINT('',#1769);
#1771=CARTESIAN_POINT('',(-3.400000000000000,1.750000000000000,0.600000000000000));
#1772=DIRECTION('',(0.707106781186548,0.707106781186547,0.0));
#1773=VECTOR('',#1772,2.333452377915607);
#1774=LINE('',#1771,#1773);
#1775=EDGE_CURVE('',#1745,#1770,#1774,.T.);
#1776=ORIENTED_EDGE('',*,*,#1775,.T.);
#1777=CARTESIAN_POINT('',(-1.750000000000000,3.400000000000000,0.0));
#1778=DIRECTION('',(0.0,0.0,1.0));
#1779=VECTOR('',#1778,0.600000000000000);
#1780=LINE('',#1777,#1779);
#1781=EDGE_CURVE('',#1613,#1770,#1780,.T.);
#1782=ORIENTED_EDGE('',*,*,#1781,.F.);
#1783=ORIENTED_EDGE('',*,*,#1618,.F.);
#1784=ORIENTED_EDGE('',*,*,#1756,.T.);
#1785=EDGE_LOOP('',(#1776,#1782,#1783,#1784));
#1786=FACE_OUTER_BOUND('',#1785,.T.);
#1787=ADVANCED_FACE('',(#1786),#1768,.T.);
#1788=CARTESIAN_POINT('',(-1.750000000000000,3.400000000000000,0.0));
#1789=DIRECTION('',(0.0,1.0,0.0));
#1790=DIRECTION('',(0.0,0.0,1.0));
#1791=AXIS2_PLACEMENT_3D('',#1788,#1789,#1790);
#1792=PLANE('',#1791);
#1793=CARTESIAN_POINT('',(-1.750000000000000,3.400000000000000,0.600000000000000));
#1794=DIRECTION('',(1.0,0.0,0.0));
#1795=VECTOR('',#1794,5.150000000000000);
#1796=LINE('',#1793,#1795);
#1797=EDGE_CURVE('',#1770,#1680,#1796,.T.);
#1798=ORIENTED_EDGE('',*,*,#1797,.T.);
#1799=ORIENTED_EDGE('',*,*,#1685,.F.);
#1800=ORIENTED_EDGE('',*,*,#1626,.F.);
#1801=ORIENTED_EDGE('',*,*,#1781,.T.);
#1802=EDGE_LOOP('',(#1798,#1799,#1800,#1801));
#1803=FACE_OUTER_BOUND('',#1802,.T.);
#1804=ADVANCED_FACE('',(#1803),#1792,.T.);
#1805=CARTESIAN_POINT('',(3.400000000000000,-3.400000000000000,0.0));
#1806=DIRECTION('',(0.0,-1.0,0.0));
#1807=DIRECTION('',(0.0,0.0,-1.0));
#1808=AXIS2_PLACEMENT_3D('',#1805,#1806,#1807);
#1809=PLANE('',#1808);
#1810=CARTESIAN_POINT('',(3.400000000000000,-3.400000000000000,0.600000000000000));
#1811=DIRECTION('',(-1.0,0.0,0.0));
#1812=VECTOR('',#1811,5.150000000000000);
#1813=LINE('',#1810,#1812);
#1814=EDGE_CURVE('',#1688,#1711,#1813,.T.);
#1815=ORIENTED_EDGE('',*,*,#1814,.T.);
#1816=ORIENTED_EDGE('',*,*,#1731,.F.);
#1817=ORIENTED_EDGE('',*,*,#1651,.F.);
#1818=ORIENTED_EDGE('',*,*,#1699,.T.);
#1819=EDGE_LOOP('',(#1815,#1816,#1817,#1818));
#1820=FACE_OUTER_BOUND('',#1819,.T.);
#1821=ADVANCED_FACE('',(#1820),#1809,.T.);
#1822=CARTESIAN_POINT('',(0.304755185811096,-4.583160E-017,0.600000000000000));
#1823=DIRECTION('',(0.0,0.0,1.0));
#1824=DIRECTION('',(1.0,0.0,0.0));
#1825=AXIS2_PLACEMENT_3D('',#1822,#1823,#1824);
#1826=PLANE('',#1825);
#1827=ORIENTED_EDGE('',*,*,#1718,.F.);
#1828=ORIENTED_EDGE('',*,*,#1814,.F.);
#1829=ORIENTED_EDGE('',*,*,#1693,.F.);
#1830=ORIENTED_EDGE('',*,*,#1797,.F.);
#1831=ORIENTED_EDGE('',*,*,#1775,.F.);
#1832=ORIENTED_EDGE('',*,*,#1750,.F.);
#1833=EDGE_LOOP('',(#1827,#1828,#1829,#1830,#1831,#1832));
#1834=FACE_OUTER_BOUND('',#1833,.T.);
#1835=ADVANCED_FACE('',(#1834),#1826,.T.);
#1836=CLOSED_SHELL('',(#1397,#1428,#1459,#1476,#1516,#1547,#1578,#1595,#1669,#1704,#1735,#1763,#1787,#1804,#1821,#1835));
#1837=MANIFOLD_SOLID_BREP('79B',#1836);
#1838=STYLED_ITEM('NONE',(#503),#1837);
#1839=ADVANCED_BREP_SHAPE_REPRESENTATION('ABSR1',(#214,#374,#496,#907,#1135,#1356,#1837),#28);
#1840=SHAPE_REPRESENTATION_RELATIONSHIP('SRRPL1','',#1839,#62);
ENDSEC;
END-ISO-10303-21;
