ISO-10303-21;
HEADER;
/* Generated by software containing ST-Developer
 * from STEP Tools, Inc. (www.steptools.com) 
 */

FILE_DESCRIPTION(
/* description */ (''),
/* implementation_level */ '2;1');

FILE_NAME(
/* name */ 
'G:\\Applications\\Altium\\CernLib\\StepLib\\CAPAD1524-1100X500.stp',
/* time_stamp */ '2016-05-30T16:06:04+02:00',
/* author */ ('riccim'),
/* organization */ (''),
/* preprocessor_version */ 'ST-DEVELOPER v15.5',
/* originating_system */ 'AutoCAD Mechanical',
/* authorisation */ '');

FILE_SCHEMA (('AUTOMOTIVE_DESIGN { 1 0 10303 214 3 1 1 }'));
ENDSEC;

DATA;
#10=MECHANICAL_DESIGN_GEOMETRIC_PRESENTATION_REPRESENTATION('',(#18,#17,
#19),#251);
#11=DIMENSIONAL_EXPONENTS(0.,0.,0.,0.,0.,0.,0.);
#12=(
CONVERSION_BASED_UNIT('degree',#13)
NAMED_UNIT(#11)
PLANE_ANGLE_UNIT()
);
#13=PLANE_ANGLE_MEASURE_WITH_UNIT(PLANE_ANGLE_MEASURE(0.01745329252),#254);
#14=PRESENTATION_LAYER_ASSIGNMENT('3D','',(#139,#140,#141));
#15=SHAPE_REPRESENTATION_RELATIONSHIP('SRR','None',#257,#16);
#16=ADVANCED_BREP_SHAPE_REPRESENTATION($,(#139,#140,#141),#250);
#17=STYLED_ITEM($,(#267),#139);
#18=STYLED_ITEM($,(#267),#140);
#19=STYLED_ITEM($,(#268),#141);
#20=CYLINDRICAL_SURFACE($,#148,0.3);
#21=CYLINDRICAL_SURFACE($,#149,0.3);
#22=CYLINDRICAL_SURFACE($,#154,0.3);
#23=CYLINDRICAL_SURFACE($,#158,0.3);
#24=CYLINDRICAL_SURFACE($,#161,2.5);
#25=FACE_BOUND($,#49,.T.);
#26=FACE_BOUND($,#51,.T.);
#27=FACE_BOUND($,#53,.T.);
#28=FACE_BOUND($,#57,.T.);
#29=FACE_BOUND($,#59,.T.);
#30=FACE_BOUND($,#61,.T.);
#31=FACE_BOUND($,#64,.T.);
#32=TOROIDAL_SURFACE($,#145,0.8,0.3);
#33=TOROIDAL_SURFACE($,#156,0.8,0.3);
#34=FACE_OUTER_BOUND($,#47,.T.);
#35=FACE_OUTER_BOUND($,#48,.T.);
#36=FACE_OUTER_BOUND($,#50,.T.);
#37=FACE_OUTER_BOUND($,#52,.T.);
#38=FACE_OUTER_BOUND($,#54,.T.);
#39=FACE_OUTER_BOUND($,#55,.T.);
#40=FACE_OUTER_BOUND($,#56,.T.);
#41=FACE_OUTER_BOUND($,#58,.T.);
#42=FACE_OUTER_BOUND($,#60,.T.);
#43=FACE_OUTER_BOUND($,#62,.T.);
#44=FACE_OUTER_BOUND($,#63,.T.);
#45=FACE_OUTER_BOUND($,#65,.T.);
#46=FACE_OUTER_BOUND($,#66,.T.);
#47=EDGE_LOOP($,(#97));
#48=EDGE_LOOP($,(#98));
#49=EDGE_LOOP($,(#99));
#50=EDGE_LOOP($,(#100));
#51=EDGE_LOOP($,(#101));
#52=EDGE_LOOP($,(#102));
#53=EDGE_LOOP($,(#103));
#54=EDGE_LOOP($,(#104));
#55=EDGE_LOOP($,(#105));
#56=EDGE_LOOP($,(#106));
#57=EDGE_LOOP($,(#107));
#58=EDGE_LOOP($,(#108));
#59=EDGE_LOOP($,(#109));
#60=EDGE_LOOP($,(#110));
#61=EDGE_LOOP($,(#111));
#62=EDGE_LOOP($,(#112));
#63=EDGE_LOOP($,(#113));
#64=EDGE_LOOP($,(#114));
#65=EDGE_LOOP($,(#115));
#66=EDGE_LOOP($,(#116));
#67=CIRCLE($,#144,0.3);
#68=CIRCLE($,#146,0.3);
#69=CIRCLE($,#147,0.3);
#70=CIRCLE($,#150,0.3);
#71=CIRCLE($,#153,0.3);
#72=CIRCLE($,#155,0.3);
#73=CIRCLE($,#157,0.3);
#74=CIRCLE($,#159,0.3);
#75=CIRCLE($,#162,2.5);
#76=CIRCLE($,#163,2.5);
#77=VERTEX_POINT($,#216);
#78=VERTEX_POINT($,#219);
#79=VERTEX_POINT($,#221);
#80=VERTEX_POINT($,#225);
#81=VERTEX_POINT($,#229);
#82=VERTEX_POINT($,#232);
#83=VERTEX_POINT($,#235);
#84=VERTEX_POINT($,#238);
#85=VERTEX_POINT($,#242);
#86=VERTEX_POINT($,#244);
#87=EDGE_CURVE($,#77,#77,#67,.T.);
#88=EDGE_CURVE($,#78,#78,#68,.T.);
#89=EDGE_CURVE($,#79,#79,#69,.T.);
#90=EDGE_CURVE($,#80,#80,#70,.T.);
#91=EDGE_CURVE($,#81,#81,#71,.T.);
#92=EDGE_CURVE($,#82,#82,#72,.T.);
#93=EDGE_CURVE($,#83,#83,#73,.T.);
#94=EDGE_CURVE($,#84,#84,#74,.T.);
#95=EDGE_CURVE($,#85,#85,#75,.T.);
#96=EDGE_CURVE($,#86,#86,#76,.T.);
#97=ORIENTED_EDGE($,*,*,#87,.F.);
#98=ORIENTED_EDGE($,*,*,#88,.T.);
#99=ORIENTED_EDGE($,*,*,#89,.F.);
#100=ORIENTED_EDGE($,*,*,#87,.T.);
#101=ORIENTED_EDGE($,*,*,#88,.F.);
#102=ORIENTED_EDGE($,*,*,#89,.T.);
#103=ORIENTED_EDGE($,*,*,#90,.T.);
#104=ORIENTED_EDGE($,*,*,#90,.F.);
#105=ORIENTED_EDGE($,*,*,#91,.F.);
#106=ORIENTED_EDGE($,*,*,#91,.T.);
#107=ORIENTED_EDGE($,*,*,#92,.F.);
#108=ORIENTED_EDGE($,*,*,#92,.T.);
#109=ORIENTED_EDGE($,*,*,#93,.F.);
#110=ORIENTED_EDGE($,*,*,#93,.T.);
#111=ORIENTED_EDGE($,*,*,#94,.T.);
#112=ORIENTED_EDGE($,*,*,#94,.F.);
#113=ORIENTED_EDGE($,*,*,#95,.F.);
#114=ORIENTED_EDGE($,*,*,#96,.T.);
#115=ORIENTED_EDGE($,*,*,#95,.T.);
#116=ORIENTED_EDGE($,*,*,#96,.F.);
#117=PLANE($,#143);
#118=PLANE($,#151);
#119=PLANE($,#152);
#120=PLANE($,#160);
#121=PLANE($,#164);
#122=PLANE($,#165);
#123=ADVANCED_FACE($,(#34),#117,.T.);
#124=ADVANCED_FACE($,(#35,#25),#32,.T.);
#125=ADVANCED_FACE($,(#36,#26),#20,.T.);
#126=ADVANCED_FACE($,(#37,#27),#21,.T.);
#127=ADVANCED_FACE($,(#38),#118,.F.);
#128=ADVANCED_FACE($,(#39),#119,.F.);
#129=ADVANCED_FACE($,(#40,#28),#22,.T.);
#130=ADVANCED_FACE($,(#41,#29),#33,.T.);
#131=ADVANCED_FACE($,(#42,#30),#23,.T.);
#132=ADVANCED_FACE($,(#43),#120,.F.);
#133=ADVANCED_FACE($,(#44,#31),#24,.T.);
#134=ADVANCED_FACE($,(#45),#121,.T.);
#135=ADVANCED_FACE($,(#46),#122,.F.);
#136=CLOSED_SHELL($,(#123,#124,#125,#126,#127));
#137=CLOSED_SHELL($,(#128,#129,#130,#131,#132));
#138=CLOSED_SHELL($,(#133,#134,#135));
#139=MANIFOLD_SOLID_BREP('8D5',#136);
#140=MANIFOLD_SOLID_BREP('8D5',#137);
#141=MANIFOLD_SOLID_BREP('A37',#138);
#142=AXIS2_PLACEMENT_3D('placement',#214,#166,#167);
#143=AXIS2_PLACEMENT_3D($,#215,#168,#169);
#144=AXIS2_PLACEMENT_3D($,#217,#170,#171);
#145=AXIS2_PLACEMENT_3D($,#218,#172,#173);
#146=AXIS2_PLACEMENT_3D($,#220,#174,#175);
#147=AXIS2_PLACEMENT_3D($,#222,#176,#177);
#148=AXIS2_PLACEMENT_3D($,#223,#178,#179);
#149=AXIS2_PLACEMENT_3D($,#224,#180,#181);
#150=AXIS2_PLACEMENT_3D($,#226,#182,#183);
#151=AXIS2_PLACEMENT_3D($,#227,#184,#185);
#152=AXIS2_PLACEMENT_3D($,#228,#186,#187);
#153=AXIS2_PLACEMENT_3D($,#230,#188,#189);
#154=AXIS2_PLACEMENT_3D($,#231,#190,#191);
#155=AXIS2_PLACEMENT_3D($,#233,#192,#193);
#156=AXIS2_PLACEMENT_3D($,#234,#194,#195);
#157=AXIS2_PLACEMENT_3D($,#236,#196,#197);
#158=AXIS2_PLACEMENT_3D($,#237,#198,#199);
#159=AXIS2_PLACEMENT_3D($,#239,#200,#201);
#160=AXIS2_PLACEMENT_3D($,#240,#202,#203);
#161=AXIS2_PLACEMENT_3D($,#241,#204,#205);
#162=AXIS2_PLACEMENT_3D($,#243,#206,#207);
#163=AXIS2_PLACEMENT_3D($,#245,#208,#209);
#164=AXIS2_PLACEMENT_3D($,#246,#210,#211);
#165=AXIS2_PLACEMENT_3D($,#247,#212,#213);
#166=DIRECTION('axis',(0.,0.,1.));
#167=DIRECTION('refdir',(1.,0.,0.));
#168=DIRECTION('center_axis',(0.,-2.22044604925031E-16,-1.));
#169=DIRECTION('ref_axis',(-1.,0.,0.));
#170=DIRECTION('center_axis',(1.2490009027033E-15,4.44089209850063E-16,
1.));
#171=DIRECTION('ref_axis',(-1.,2.87605538361827E-31,1.2490009027033E-15));
#172=DIRECTION('center_axis',(0.,1.,-2.22044604925031E-16));
#173=DIRECTION('ref_axis',(0.,2.22044604925031E-16,1.));
#174=DIRECTION('center_axis',(1.2490009027033E-15,4.44089209850063E-16,
1.));
#175=DIRECTION('ref_axis',(-1.,2.87605538361827E-31,1.2490009027033E-15));
#176=DIRECTION('center_axis',(-1.,2.22044604925032E-16,1.2490009027033E-15));
#177=DIRECTION('ref_axis',(-1.2490009027033E-15,-2.22044604925031E-16,-1.));
#178=DIRECTION('center_axis',(0.,-2.22044604925031E-16,-1.));
#179=DIRECTION('ref_axis',(-1.,1.02716263700652E-32,0.));
#180=DIRECTION('center_axis',(1.,7.22929715195209E-33,3.2557859959682E-17));
#181=DIRECTION('ref_axis',(3.2557859959682E-17,-2.22044604925031E-16,-1.));
#182=DIRECTION('center_axis',(1.,0.,2.22044604925031E-16));
#183=DIRECTION('ref_axis',(3.2557859959682E-17,-2.22044604925031E-16,-1.));
#184=DIRECTION('center_axis',(1.,0.,2.22044604925031E-16));
#185=DIRECTION('ref_axis',(0.,0.,-1.));
#186=DIRECTION('center_axis',(-1.,0.,-2.22044604925031E-16));
#187=DIRECTION('ref_axis',(0.,0.,1.));
#188=DIRECTION('center_axis',(-1.,0.,-2.22044604925031E-16));
#189=DIRECTION('ref_axis',(3.2557859959682E-17,-2.22044604925031E-16,-1.));
#190=DIRECTION('center_axis',(1.,7.22929715195209E-33,3.2557859959682E-17));
#191=DIRECTION('ref_axis',(3.2557859959682E-17,-2.22044604925031E-16,-1.));
#192=DIRECTION('center_axis',(-1.,2.22044604925032E-16,1.2490009027033E-15));
#193=DIRECTION('ref_axis',(-1.2490009027033E-15,-2.22044604925031E-16,-1.));
#194=DIRECTION('center_axis',(0.,1.,-2.22044604925031E-16));
#195=DIRECTION('ref_axis',(0.,2.22044604925031E-16,1.));
#196=DIRECTION('center_axis',(0.,0.,-1.));
#197=DIRECTION('ref_axis',(1.,0.,0.));
#198=DIRECTION('center_axis',(0.,2.22044604925031E-16,1.));
#199=DIRECTION('ref_axis',(1.,0.,0.));
#200=DIRECTION('center_axis',(0.,0.,1.));
#201=DIRECTION('ref_axis',(1.,0.,0.));
#202=DIRECTION('center_axis',(0.,0.,1.));
#203=DIRECTION('ref_axis',(1.,0.,0.));
#204=DIRECTION('center_axis',(1.,0.,2.05596856412066E-16));
#205=DIRECTION('ref_axis',(0.,-1.,-4.77096419372584E-48));
#206=DIRECTION('center_axis',(1.,2.32054335702666E-32,2.22044604925031E-16));
#207=DIRECTION('ref_axis',(2.32054335702666E-32,-1.,0.));
#208=DIRECTION('center_axis',(1.,2.32054335702666E-32,2.22044604925031E-16));
#209=DIRECTION('ref_axis',(2.32054335702666E-32,-1.,0.));
#210=DIRECTION('center_axis',(1.,0.,2.22044604925031E-16));
#211=DIRECTION('ref_axis',(0.,0.,-1.));
#212=DIRECTION('center_axis',(1.,0.,2.22044604925031E-16));
#213=DIRECTION('ref_axis',(0.,0.,-1.));
#214=CARTESIAN_POINT('',(0.,0.,0.));
#215=CARTESIAN_POINT('Origin',(7.62,-6.88338275267597E-16,-3.1));
#216=CARTESIAN_POINT('',(7.32,-5.91645678915759E-31,-3.1));
#217=CARTESIAN_POINT('Origin',(7.62,-1.97215226305253E-31,-3.1));
#218=CARTESIAN_POINT('Origin',(6.82,1.06581410364015E-15,1.7));
#219=CARTESIAN_POINT('',(7.32,1.06581410364015E-15,1.7));
#220=CARTESIAN_POINT('Origin',(7.62,1.06581410364015E-15,1.7));
#221=CARTESIAN_POINT('',(6.82,1.17683640610267E-15,2.2));
#222=CARTESIAN_POINT('Origin',(6.82,1.24344978758018E-15,2.5));
#223=CARTESIAN_POINT('Origin',(7.62,1.06581410364015E-15,1.7));
#224=CARTESIAN_POINT('Origin',(-6.82,1.24344978758018E-15,2.5));
#225=CARTESIAN_POINT('',(5.4,1.27332376508326E-15,2.8));
#226=CARTESIAN_POINT('Origin',(5.4,1.24344978758018E-15,2.5));
#227=CARTESIAN_POINT('Origin',(5.4,-2.33146835171283E-16,2.5));
#228=CARTESIAN_POINT('Origin',(-5.4,-2.33146835171283E-16,2.5));
#229=CARTESIAN_POINT('',(-5.4,1.34680257303211E-15,2.8));
#230=CARTESIAN_POINT('Origin',(-5.4,1.24344978758018E-15,2.5));
#231=CARTESIAN_POINT('Origin',(-6.82,1.24344978758018E-15,2.5));
#232=CARTESIAN_POINT('',(-6.82,1.17683640610267E-15,2.2));
#233=CARTESIAN_POINT('Origin',(-6.82,1.24344978758018E-15,2.5));
#234=CARTESIAN_POINT('Origin',(-6.82,1.06581410364015E-15,1.7));
#235=CARTESIAN_POINT('',(-7.32,1.06581410364015E-15,1.7));
#236=CARTESIAN_POINT('Origin',(-7.62,1.06581410364015E-15,1.7));
#237=CARTESIAN_POINT('Origin',(-7.62,0.,-3.1));
#238=CARTESIAN_POINT('',(-7.32,0.,-3.1));
#239=CARTESIAN_POINT('Origin',(-7.62,0.,-3.1));
#240=CARTESIAN_POINT('Origin',(-7.62,0.,-3.1));
#241=CARTESIAN_POINT('Origin',(-5.4,1.24344978758018E-15,2.5));
#242=CARTESIAN_POINT('',(5.5,2.5,2.5));
#243=CARTESIAN_POINT('Origin',(5.5,1.24344978758018E-15,2.5));
#244=CARTESIAN_POINT('',(-5.5,2.5,2.5));
#245=CARTESIAN_POINT('Origin',(-5.5,1.24344978758018E-15,2.5));
#246=CARTESIAN_POINT('Origin',(5.5,1.23686745868309E-15,2.5));
#247=CARTESIAN_POINT('Origin',(-5.5,1.23686745868309E-15,2.5));
#248=UNCERTAINTY_MEASURE_WITH_UNIT(LENGTH_MEASURE(0.01),#252,
'DISTANCE_ACCURACY_VALUE',
'Maximum model space distance between geometric entities at asserted c
onnectivities');
#249=UNCERTAINTY_MEASURE_WITH_UNIT(LENGTH_MEASURE(1.E-6),#252,
'DISTANCE_ACCURACY_VALUE',
'Maximum model space distance between geometric entities at asserted c
onnectivities');
#250=(
GEOMETRIC_REPRESENTATION_CONTEXT(3)
GLOBAL_UNCERTAINTY_ASSIGNED_CONTEXT((#248))
GLOBAL_UNIT_ASSIGNED_CONTEXT((#252,#254,#253))
REPRESENTATION_CONTEXT('','3D')
);
#251=(
GEOMETRIC_REPRESENTATION_CONTEXT(3)
GLOBAL_UNCERTAINTY_ASSIGNED_CONTEXT((#249))
GLOBAL_UNIT_ASSIGNED_CONTEXT((#252,#12,#253))
REPRESENTATION_CONTEXT('','3D')
);
#252=(
LENGTH_UNIT()
NAMED_UNIT(*)
SI_UNIT(.MILLI.,.METRE.)
);
#253=(
NAMED_UNIT(*)
SI_UNIT($,.STERADIAN.)
SOLID_ANGLE_UNIT()
);
#254=(
NAMED_UNIT(*)
PLANE_ANGLE_UNIT()
SI_UNIT($,.RADIAN.)
);
#255=SHAPE_DEFINITION_REPRESENTATION(#256,#257);
#256=PRODUCT_DEFINITION_SHAPE('',$,#259);
#257=SHAPE_REPRESENTATION('',(#142),#250);
#258=PRODUCT_DEFINITION_CONTEXT('part definition',#263,'design');
#259=PRODUCT_DEFINITION('Product','Product',#260,#258);
#260=PRODUCT_DEFINITION_FORMATION('',$,#265);
#261=PRODUCT_RELATED_PRODUCT_CATEGORY('Product','Product',(#265));
#262=APPLICATION_PROTOCOL_DEFINITION('international standard',
'automotive_design',2009,#263);
#263=APPLICATION_CONTEXT(
'Core Data for Automotive Mechanical Design Process');
#264=PRODUCT_CONTEXT('part definition',#263,'mechanical');
#265=PRODUCT('Product','Product',$,(#264));
#266=PRESENTATION_STYLE_ASSIGNMENT((#269));
#267=PRESENTATION_STYLE_ASSIGNMENT((#270));
#268=PRESENTATION_STYLE_ASSIGNMENT((#271));
#269=SURFACE_STYLE_USAGE(.BOTH.,#272);
#270=SURFACE_STYLE_USAGE(.BOTH.,#273);
#271=SURFACE_STYLE_USAGE(.BOTH.,#274);
#272=SURFACE_SIDE_STYLE($,(#275));
#273=SURFACE_SIDE_STYLE($,(#276));
#274=SURFACE_SIDE_STYLE($,(#277));
#275=SURFACE_STYLE_FILL_AREA(#278);
#276=SURFACE_STYLE_FILL_AREA(#279);
#277=SURFACE_STYLE_FILL_AREA(#280);
#278=FILL_AREA_STYLE($,(#281));
#279=FILL_AREA_STYLE($,(#282));
#280=FILL_AREA_STYLE($,(#283));
#281=FILL_AREA_STYLE_COLOUR($,#284);
#282=FILL_AREA_STYLE_COLOUR($,#285);
#283=FILL_AREA_STYLE_COLOUR($,#286);
#284=COLOUR_RGB('',1.,1.,1.);
#285=COLOUR_RGB('',0.749019607843137,0.749019607843137,0.749019607843137);
#286=COLOUR_RGB('',1.,1.,0.501960784313725);
ENDSEC;
END-ISO-10303-21;
