ISO-10303-21;
HEADER;
/****************************************************************
 * Generated by software with PDE/Lib inside                    *
 * PDElib Version v51a, created Mon 11/23/2009                  *
 * ITI Transcendata (http://www.transcendata.com/)              *
 ****************************************************************/
FILE_DESCRIPTION((''),'2;1');
FILE_NAME('CAPC5651X218N.stp','2011-06-27T11:25:22',(''),(''),'Mechanical Desktop 2011','Mechanical Desktop 2011',', , ');
FILE_SCHEMA(('AUTOMOTIVE_DESIGN { 1 2 10303 214 1 1 1 1 }'));
ENDSEC;
DATA;
#10=(NAMED_UNIT(*)PLANE_ANGLE_UNIT()SI_UNIT($,.RADIAN.));
#11=DIMENSIONAL_EXPONENTS(0.0,0.0,0.0,0.0,0.0,0.0,0.0);
#12=PLANE_ANGLE_MEASURE_WITH_UNIT(PLANE_ANGLE_MEASURE(0.017453292500000),#10);
#16=(CONVERSION_BASED_UNIT('DEGREE',#12)NAMED_UNIT(#11)PLANE_ANGLE_UNIT());
#20=(NAMED_UNIT(*)SI_UNIT($,.STERADIAN.)SOLID_ANGLE_UNIT());
#24=(LENGTH_UNIT()NAMED_UNIT(*)SI_UNIT(.MILLI.,.METRE.));
#26=UNCERTAINTY_MEASURE_WITH_UNIT(LENGTH_MEASURE(0.000001000000000),#24,'DISTANCE_ACCURACY_VALUE','');
#28=(GEOMETRIC_REPRESENTATION_CONTEXT(3)GLOBAL_UNCERTAINTY_ASSIGNED_CONTEXT((#26))GLOBAL_UNIT_ASSIGNED_CONTEXT((#16,#20,#24))REPRESENTATION_CONTEXT('','3D'));
#29=APPLICATION_CONTEXT('automotive design');
#30=APPLICATION_PROTOCOL_DEFINITION('INTERNATIONAL_STANDARD','automotive_design',1998,#29);
#31=PRODUCT_CONTEXT('3D Mechanical Parts',#29,'mechanical');
#32=PRODUCT('Product','Product','',(#31));
#33=PRODUCT_RELATED_PRODUCT_CATEGORY('part',$,(#32));
#34=PRODUCT_CATEGORY('part',$);
#35=PERSON('1','Design','Joe',$,$,$);
#36=ORGANIZATION($,'None','None');
#37=PERSON_AND_ORGANIZATION(#35,#36);
#38=PERSON_AND_ORGANIZATION_ROLE('design_owner');
#39=APPLIED_PERSON_AND_ORGANIZATION_ASSIGNMENT(#37,#38,(#32));
#40=PRODUCT_DEFINITION_FORMATION_WITH_SPECIFIED_SOURCE('None','',#32,.BOUGHT.);
#41=PERSON('2','Creator','Joe',$,$,$);
#42=ORGANIZATION($,'None','None');
#43=PERSON_AND_ORGANIZATION(#41,#42);
#44=PERSON_AND_ORGANIZATION_ROLE('creator');
#45=APPLIED_PERSON_AND_ORGANIZATION_ASSIGNMENT(#43,#44,(#40));
#46=PERSON('3','Supplier','Joe',$,$,$);
#47=ORGANIZATION($,'None','None');
#48=PERSON_AND_ORGANIZATION(#46,#47);
#49=PERSON_AND_ORGANIZATION_ROLE('design_supplier');
#50=APPLIED_PERSON_AND_ORGANIZATION_ASSIGNMENT(#48,#49,(#40));
#51=PRODUCT_DEFINITION_CONTEXT('part definition',#29,'design');
#52=PRODUCT_DEFINITION('None','',#40,#51);
#53=PERSON('4','Creator','Joe',$,$,$);
#54=ORGANIZATION($,'None','None');
#55=PERSON_AND_ORGANIZATION(#53,#54);
#56=PERSON_AND_ORGANIZATION_ROLE('creator');
#57=APPLIED_PERSON_AND_ORGANIZATION_ASSIGNMENT(#55,#56,(#52));
#58=CARTESIAN_POINT('NONE',(0.0,0.0,0.0));
#59=DIRECTION('NONE',(0.0,0.0,1.0));
#60=DIRECTION('NONE',(1.0,0.0,0.0));
#61=AXIS2_PLACEMENT_3D('NONE',#58,#59,#60);
#62=SHAPE_REPRESENTATION('SR1',(#61),#28);
#63=PRODUCT_DEFINITION_SHAPE('PDS1','Test Part',#52);
#64=SHAPE_DEFINITION_REPRESENTATION(#63,#62);
#65=CARTESIAN_POINT('',(2.542500000000000,-8.881784E-016,2.180000000000000));
#66=DIRECTION('',(0.0,0.0,1.0));
#67=DIRECTION('',(0.0,-1.0,0.0));
#68=AXIS2_PLACEMENT_3D('',#65,#66,#67);
#69=PLANE('',#68);
#70=CARTESIAN_POINT('',(2.289999999999999,-2.540000000000001,2.180000000000000));
#71=VERTEX_POINT('',#70);
#72=CARTESIAN_POINT('',(2.794999999999999,-2.540000000000001,2.180000000000000));
#73=VERTEX_POINT('',#72);
#74=CARTESIAN_POINT('',(2.289999999999999,-2.540000000000001,2.180000000000000));
#75=DIRECTION('',(1.0,0.0,0.0));
#76=VECTOR('',#75,0.505000000000000);
#77=LINE('',#74,#76);
#78=EDGE_CURVE('',#71,#73,#77,.T.);
#79=ORIENTED_EDGE('',*,*,#78,.T.);
#80=CARTESIAN_POINT('',(2.795000000000000,2.539999999999999,2.180000000000000));
#81=VERTEX_POINT('',#80);
#82=CARTESIAN_POINT('',(2.794999999999999,-2.540000000000001,2.180000000000000));
#83=DIRECTION('',(0.0,1.0,0.0));
#84=VECTOR('',#83,5.080000000000000);
#85=LINE('',#82,#84);
#86=EDGE_CURVE('',#73,#81,#85,.T.);
#87=ORIENTED_EDGE('',*,*,#86,.T.);
#88=CARTESIAN_POINT('',(2.290000000000000,2.539999999999999,2.180000000000000));
#89=VERTEX_POINT('',#88);
#90=CARTESIAN_POINT('',(2.795000000000000,2.539999999999999,2.180000000000000));
#91=DIRECTION('',(-1.0,0.0,0.0));
#92=VECTOR('',#91,0.505000000000000);
#93=LINE('',#90,#92);
#94=EDGE_CURVE('',#81,#89,#93,.T.);
#95=ORIENTED_EDGE('',*,*,#94,.T.);
#96=CARTESIAN_POINT('',(2.290000000000001,2.539999999999999,2.180000000000000));
#97=DIRECTION('',(0.0,-1.0,0.0));
#98=VECTOR('',#97,5.080000000000000);
#99=LINE('',#96,#98);
#100=EDGE_CURVE('',#89,#71,#99,.T.);
#101=ORIENTED_EDGE('',*,*,#100,.T.);
#102=EDGE_LOOP('',(#79,#87,#95,#101));
#103=FACE_OUTER_BOUND('',#102,.T.);
#104=ADVANCED_FACE('',(#103),#69,.T.);
#105=CARTESIAN_POINT('',(2.542500000000000,-8.881784E-016,0.0));
#106=DIRECTION('',(0.0,0.0,1.0));
#107=DIRECTION('',(0.0,-1.0,0.0));
#108=AXIS2_PLACEMENT_3D('',#105,#106,#107);
#109=PLANE('',#108);
#110=CARTESIAN_POINT('',(2.794999999999999,-2.540000000000001,0.0));
#111=VERTEX_POINT('',#110);
#112=CARTESIAN_POINT('',(2.289999999999999,-2.540000000000001,0.0));
#113=VERTEX_POINT('',#112);
#114=CARTESIAN_POINT('',(2.794999999999999,-2.540000000000001,0.0));
#115=DIRECTION('',(-1.0,0.0,0.0));
#116=VECTOR('',#115,0.505000000000000);
#117=LINE('',#114,#116);
#118=EDGE_CURVE('',#111,#113,#117,.T.);
#119=ORIENTED_EDGE('',*,*,#118,.T.);
#120=CARTESIAN_POINT('',(2.290000000000000,2.539999999999999,0.0));
#121=VERTEX_POINT('',#120);
#122=CARTESIAN_POINT('',(2.290000000000000,-2.540000000000001,0.0));
#123=DIRECTION('',(0.0,1.0,0.0));
#124=VECTOR('',#123,5.080000000000000);
#125=LINE('',#122,#124);
#126=EDGE_CURVE('',#113,#121,#125,.T.);
#127=ORIENTED_EDGE('',*,*,#126,.T.);
#128=CARTESIAN_POINT('',(2.795000000000000,2.539999999999999,0.0));
#129=VERTEX_POINT('',#128);
#130=CARTESIAN_POINT('',(2.290000000000000,2.539999999999999,0.0));
#131=DIRECTION('',(1.0,0.0,0.0));
#132=VECTOR('',#131,0.505000000000000);
#133=LINE('',#130,#132);
#134=EDGE_CURVE('',#121,#129,#133,.T.);
#135=ORIENTED_EDGE('',*,*,#134,.T.);
#136=CARTESIAN_POINT('',(2.795000000000000,2.539999999999999,0.0));
#137=DIRECTION('',(0.0,-1.0,0.0));
#138=VECTOR('',#137,5.080000000000000);
#139=LINE('',#136,#138);
#140=EDGE_CURVE('',#129,#111,#139,.T.);
#141=ORIENTED_EDGE('',*,*,#140,.T.);
#142=EDGE_LOOP('',(#119,#127,#135,#141));
#143=FACE_OUTER_BOUND('',#142,.T.);
#144=ADVANCED_FACE('',(#143),#109,.F.);
#145=CARTESIAN_POINT('',(2.290000000000000,-8.881784E-016,1.090000000000000));
#146=DIRECTION('',(1.0,0.0,0.0));
#147=DIRECTION('',(0.0,0.0,1.0));
#148=AXIS2_PLACEMENT_3D('',#145,#146,#147);
#149=PLANE('',#148);
#150=CARTESIAN_POINT('',(2.290000000000000,2.539999999999999,2.180000000000000));
#151=DIRECTION('',(0.0,0.0,-1.0));
#152=VECTOR('',#151,2.180000000000000);
#153=LINE('',#150,#152);
#154=EDGE_CURVE('',#89,#121,#153,.T.);
#155=ORIENTED_EDGE('',*,*,#154,.T.);
#156=ORIENTED_EDGE('',*,*,#126,.F.);
#157=CARTESIAN_POINT('',(2.289999999999999,-2.540000000000001,2.180000000000000));
#158=DIRECTION('',(0.0,0.0,-1.0));
#159=VECTOR('',#158,2.180000000000000);
#160=LINE('',#157,#159);
#161=EDGE_CURVE('',#71,#113,#160,.T.);
#162=ORIENTED_EDGE('',*,*,#161,.F.);
#163=ORIENTED_EDGE('',*,*,#100,.F.);
#164=EDGE_LOOP('',(#155,#156,#162,#163));
#165=FACE_OUTER_BOUND('',#164,.T.);
#166=ADVANCED_FACE('',(#165),#149,.F.);
#167=CARTESIAN_POINT('',(2.542500000000000,2.539999999999999,1.090000000000000));
#168=DIRECTION('',(0.0,-1.0,0.0));
#169=DIRECTION('',(0.0,0.0,-1.0));
#170=AXIS2_PLACEMENT_3D('',#167,#168,#169);
#171=PLANE('',#170);
#172=CARTESIAN_POINT('',(2.795000000000000,2.539999999999999,2.180000000000000));
#173=DIRECTION('',(0.0,0.0,-1.0));
#174=VECTOR('',#173,2.180000000000000);
#175=LINE('',#172,#174);
#176=EDGE_CURVE('',#81,#129,#175,.T.);
#177=ORIENTED_EDGE('',*,*,#176,.T.);
#178=ORIENTED_EDGE('',*,*,#134,.F.);
#179=ORIENTED_EDGE('',*,*,#154,.F.);
#180=ORIENTED_EDGE('',*,*,#94,.F.);
#181=EDGE_LOOP('',(#177,#178,#179,#180));
#182=FACE_OUTER_BOUND('',#181,.T.);
#183=ADVANCED_FACE('',(#182),#171,.F.);
#184=CARTESIAN_POINT('',(2.794999999999999,-8.881784E-016,1.090000000000000));
#185=DIRECTION('',(-1.0,0.0,0.0));
#186=DIRECTION('',(0.0,0.0,-1.0));
#187=AXIS2_PLACEMENT_3D('',#184,#185,#186);
#188=PLANE('',#187);
#189=CARTESIAN_POINT('',(2.794999999999999,-2.540000000000001,2.180000000000000));
#190=DIRECTION('',(0.0,0.0,-1.0));
#191=VECTOR('',#190,2.180000000000000);
#192=LINE('',#189,#191);
#193=EDGE_CURVE('',#73,#111,#192,.T.);
#194=ORIENTED_EDGE('',*,*,#193,.T.);
#195=ORIENTED_EDGE('',*,*,#140,.F.);
#196=ORIENTED_EDGE('',*,*,#176,.F.);
#197=ORIENTED_EDGE('',*,*,#86,.F.);
#198=EDGE_LOOP('',(#194,#195,#196,#197));
#199=FACE_OUTER_BOUND('',#198,.T.);
#200=ADVANCED_FACE('',(#199),#188,.F.);
#201=CARTESIAN_POINT('',(2.542499999999999,-2.540000000000001,1.090000000000000));
#202=DIRECTION('',(0.0,1.0,0.0));
#203=DIRECTION('',(0.0,0.0,1.0));
#204=AXIS2_PLACEMENT_3D('',#201,#202,#203);
#205=PLANE('',#204);
#206=ORIENTED_EDGE('',*,*,#161,.T.);
#207=ORIENTED_EDGE('',*,*,#118,.F.);
#208=ORIENTED_EDGE('',*,*,#193,.F.);
#209=ORIENTED_EDGE('',*,*,#78,.F.);
#210=EDGE_LOOP('',(#206,#207,#208,#209));
#211=FACE_OUTER_BOUND('',#210,.T.);
#212=ADVANCED_FACE('',(#211),#205,.F.);
#213=CLOSED_SHELL('',(#104,#144,#166,#183,#200,#212));
#214=MANIFOLD_SOLID_BREP('AFB',#213);
#215=COLOUR_RGB('254',0.866000000000000,0.866000000000000,0.866000000000000);
#216=SURFACE_STYLE_USAGE(.BOTH.,#217);
#217=SURFACE_SIDE_STYLE('NONE',(#218));
#218=SURFACE_STYLE_FILL_AREA(#219);
#219=FILL_AREA_STYLE('NONE',(#220));
#220=FILL_AREA_STYLE_COLOUR('NONE',#215);
#221=PRESENTATION_STYLE_ASSIGNMENT((#216));
#222=STYLED_ITEM('NONE',(#221),#214);
#223=MECHANICAL_DESIGN_GEOMETRIC_PRESENTATION_REPRESENTATION('NONE',(#222,#382,#533),#28);
#224=PRESENTATION_LAYER_ASSIGNMENT('3D','None',(#214,#374,#532));
#225=CARTESIAN_POINT('',(2.290000000000000,-1.776357E-015,1.090000000000000));
#226=DIRECTION('',(1.0,0.0,0.0));
#227=DIRECTION('',(0.0,0.0,1.0));
#228=AXIS2_PLACEMENT_3D('',#225,#226,#227);
#229=PLANE('',#228);
#230=CARTESIAN_POINT('',(2.290000000000000,2.539999999999998,2.180000000000000));
#231=VERTEX_POINT('',#230);
#232=CARTESIAN_POINT('',(2.290000000000000,2.539999999999998,0.0));
#233=VERTEX_POINT('',#232);
#234=CARTESIAN_POINT('',(2.290000000000001,2.539999999999999,2.180000000000000));
#235=DIRECTION('',(0.0,0.0,-1.0));
#236=VECTOR('',#235,2.180000000000000);
#237=LINE('',#234,#236);
#238=EDGE_CURVE('',#231,#233,#237,.T.);
#239=ORIENTED_EDGE('',*,*,#238,.F.);
#240=CARTESIAN_POINT('',(2.289999999999999,-2.540000000000002,2.180000000000000));
#241=VERTEX_POINT('',#240);
#242=CARTESIAN_POINT('',(2.289999999999999,-2.540000000000002,2.180000000000000));
#243=DIRECTION('',(0.0,1.0,0.0));
#244=VECTOR('',#243,5.080000000000000);
#245=LINE('',#242,#244);
#246=EDGE_CURVE('',#241,#231,#245,.T.);
#247=ORIENTED_EDGE('',*,*,#246,.F.);
#248=CARTESIAN_POINT('',(2.289999999999999,-2.540000000000002,0.0));
#249=VERTEX_POINT('',#248);
#250=CARTESIAN_POINT('',(2.289999999999999,-2.540000000000001,0.0));
#251=DIRECTION('',(0.0,0.0,1.0));
#252=VECTOR('',#251,2.180000000000000);
#253=LINE('',#250,#252);
#254=EDGE_CURVE('',#249,#241,#253,.T.);
#255=ORIENTED_EDGE('',*,*,#254,.F.);
#256=CARTESIAN_POINT('',(2.290000000000000,2.539999999999998,0.0));
#257=DIRECTION('',(0.0,-1.0,0.0));
#258=VECTOR('',#257,5.080000000000000);
#259=LINE('',#256,#258);
#260=EDGE_CURVE('',#233,#249,#259,.T.);
#261=ORIENTED_EDGE('',*,*,#260,.F.);
#262=EDGE_LOOP('',(#239,#247,#255,#261));
#263=FACE_OUTER_BOUND('',#262,.T.);
#264=ADVANCED_FACE('',(#263),#229,.T.);
#265=CARTESIAN_POINT('',(-2.290000000000000,0.0,1.090000000000000));
#266=DIRECTION('',(-1.0,0.0,0.0));
#267=DIRECTION('',(0.0,0.0,-1.0));
#268=AXIS2_PLACEMENT_3D('',#265,#266,#267);
#269=PLANE('',#268);
#270=CARTESIAN_POINT('',(-2.290000000000000,-2.540000000000000,2.180000000000000));
#271=VERTEX_POINT('',#270);
#272=CARTESIAN_POINT('',(-2.290000000000000,-2.540000000000000,0.0));
#273=VERTEX_POINT('',#272);
#274=CARTESIAN_POINT('',(-2.290000000000000,-2.540000000000000,2.180000000000000));
#275=DIRECTION('',(0.0,0.0,-1.0));
#276=VECTOR('',#275,2.180000000000000);
#277=LINE('',#274,#276);
#278=EDGE_CURVE('',#271,#273,#277,.T.);
#279=ORIENTED_EDGE('',*,*,#278,.F.);
#280=CARTESIAN_POINT('',(-2.289999999999999,2.540000000000000,2.180000000000000));
#281=VERTEX_POINT('',#280);
#282=CARTESIAN_POINT('',(-2.290000000000000,2.540000000000000,2.180000000000000));
#283=DIRECTION('',(0.0,-1.0,0.0));
#284=VECTOR('',#283,5.080000000000000);
#285=LINE('',#282,#284);
#286=EDGE_CURVE('',#281,#271,#285,.T.);
#287=ORIENTED_EDGE('',*,*,#286,.F.);
#288=CARTESIAN_POINT('',(-2.289999999999999,2.540000000000000,0.0));
#289=VERTEX_POINT('',#288);
#290=CARTESIAN_POINT('',(-2.290000000000000,2.540000000000000,0.0));
#291=DIRECTION('',(0.0,0.0,1.0));
#292=VECTOR('',#291,2.180000000000000);
#293=LINE('',#290,#292);
#294=EDGE_CURVE('',#289,#281,#293,.T.);
#295=ORIENTED_EDGE('',*,*,#294,.F.);
#296=CARTESIAN_POINT('',(-2.290000000000001,-2.540000000000000,0.0));
#297=DIRECTION('',(0.0,1.0,0.0));
#298=VECTOR('',#297,5.080000000000000);
#299=LINE('',#296,#298);
#300=EDGE_CURVE('',#273,#289,#299,.T.);
#301=ORIENTED_EDGE('',*,*,#300,.F.);
#302=EDGE_LOOP('',(#279,#287,#295,#301));
#303=FACE_OUTER_BOUND('',#302,.T.);
#304=ADVANCED_FACE('',(#303),#269,.T.);
#305=CARTESIAN_POINT('',(0.0,-4.440892E-016,2.180000000000000));
#306=DIRECTION('',(0.0,0.0,1.0));
#307=DIRECTION('',(0.0,-1.0,0.0));
#308=AXIS2_PLACEMENT_3D('',#305,#306,#307);
#309=PLANE('',#308);
#310=ORIENTED_EDGE('',*,*,#246,.T.);
#311=CARTESIAN_POINT('',(2.290000000000000,2.539999999999999,2.180000000000000));
#312=DIRECTION('',(-1.0,0.0,0.0));
#313=VECTOR('',#312,4.579999999999999);
#314=LINE('',#311,#313);
#315=EDGE_CURVE('',#231,#281,#314,.T.);
#316=ORIENTED_EDGE('',*,*,#315,.T.);
#317=ORIENTED_EDGE('',*,*,#286,.T.);
#318=CARTESIAN_POINT('',(-2.290000000000000,-2.540000000000000,2.180000000000000));
#319=DIRECTION('',(1.0,0.0,0.0));
#320=VECTOR('',#319,4.579999999999999);
#321=LINE('',#318,#320);
#322=EDGE_CURVE('',#271,#241,#321,.T.);
#323=ORIENTED_EDGE('',*,*,#322,.T.);
#324=EDGE_LOOP('',(#310,#316,#317,#323));
#325=FACE_OUTER_BOUND('',#324,.T.);
#326=ADVANCED_FACE('',(#325),#309,.T.);
#327=CARTESIAN_POINT('',(8.881784E-016,2.540000000000000,1.090000000000000));
#328=DIRECTION('',(0.0,-1.0,0.0));
#329=DIRECTION('',(0.0,0.0,-1.0));
#330=AXIS2_PLACEMENT_3D('',#327,#328,#329);
#331=PLANE('',#330);
#332=ORIENTED_EDGE('',*,*,#238,.T.);
#333=CARTESIAN_POINT('',(-2.289999999999999,2.540000000000000,0.0));
#334=DIRECTION('',(1.0,0.0,0.0));
#335=VECTOR('',#334,4.579999999999999);
#336=LINE('',#333,#335);
#337=EDGE_CURVE('',#289,#233,#336,.T.);
#338=ORIENTED_EDGE('',*,*,#337,.F.);
#339=ORIENTED_EDGE('',*,*,#294,.T.);
#340=ORIENTED_EDGE('',*,*,#315,.F.);
#341=EDGE_LOOP('',(#332,#338,#339,#340));
#342=FACE_OUTER_BOUND('',#341,.T.);
#343=ADVANCED_FACE('',(#342),#331,.F.);
#344=CARTESIAN_POINT('',(0.0,-4.440892E-016,0.0));
#345=DIRECTION('',(0.0,0.0,1.0));
#346=DIRECTION('',(0.0,-1.0,0.0));
#347=AXIS2_PLACEMENT_3D('',#344,#345,#346);
#348=PLANE('',#347);
#349=ORIENTED_EDGE('',*,*,#260,.T.);
#350=CARTESIAN_POINT('',(2.289999999999999,-2.540000000000001,0.0));
#351=DIRECTION('',(-1.0,0.0,0.0));
#352=VECTOR('',#351,4.579999999999999);
#353=LINE('',#350,#352);
#354=EDGE_CURVE('',#249,#273,#353,.T.);
#355=ORIENTED_EDGE('',*,*,#354,.T.);
#356=ORIENTED_EDGE('',*,*,#300,.T.);
#357=ORIENTED_EDGE('',*,*,#337,.T.);
#358=EDGE_LOOP('',(#349,#355,#356,#357));
#359=FACE_OUTER_BOUND('',#358,.T.);
#360=ADVANCED_FACE('',(#359),#348,.F.);
#361=CARTESIAN_POINT('',(-8.881784E-016,-2.540000000000001,1.090000000000000));
#362=DIRECTION('',(0.0,1.0,0.0));
#363=DIRECTION('',(0.0,0.0,1.0));
#364=AXIS2_PLACEMENT_3D('',#361,#362,#363);
#365=PLANE('',#364);
#366=ORIENTED_EDGE('',*,*,#254,.T.);
#367=ORIENTED_EDGE('',*,*,#322,.F.);
#368=ORIENTED_EDGE('',*,*,#278,.T.);
#369=ORIENTED_EDGE('',*,*,#354,.F.);
#370=EDGE_LOOP('',(#366,#367,#368,#369));
#371=FACE_OUTER_BOUND('',#370,.T.);
#372=ADVANCED_FACE('',(#371),#365,.F.);
#373=CLOSED_SHELL('',(#264,#304,#326,#343,#360,#372));
#374=MANIFOLD_SOLID_BREP('AF7',#373);
#375=COLOUR_RGB('35',0.500000000000000,0.375000000000000,0.250000000000000);
#376=SURFACE_STYLE_USAGE(.BOTH.,#377);
#377=SURFACE_SIDE_STYLE('NONE',(#378));
#378=SURFACE_STYLE_FILL_AREA(#379);
#379=FILL_AREA_STYLE('NONE',(#380));
#380=FILL_AREA_STYLE_COLOUR('NONE',#375);
#381=PRESENTATION_STYLE_ASSIGNMENT((#376));
#382=STYLED_ITEM('NONE',(#381),#374);
#383=CARTESIAN_POINT('',(-2.542500000000000,8.881784E-016,2.180000000000000));
#384=DIRECTION('',(0.0,0.0,1.0));
#385=DIRECTION('',(0.0,-1.0,0.0));
#386=AXIS2_PLACEMENT_3D('',#383,#384,#385);
#387=PLANE('',#386);
#388=CARTESIAN_POINT('',(-2.795000000000000,-2.539999999999999,2.180000000000000));
#389=VERTEX_POINT('',#388);
#390=CARTESIAN_POINT('',(-2.290000000000000,-2.539999999999999,2.180000000000000));
#391=VERTEX_POINT('',#390);
#392=CARTESIAN_POINT('',(-2.795000000000000,-2.539999999999999,2.180000000000000));
#393=DIRECTION('',(1.0,0.0,0.0));
#394=VECTOR('',#393,0.505000000000000);
#395=LINE('',#392,#394);
#396=EDGE_CURVE('',#389,#391,#395,.T.);
#397=ORIENTED_EDGE('',*,*,#396,.T.);
#398=CARTESIAN_POINT('',(-2.289999999999999,2.540000000000001,2.180000000000000));
#399=VERTEX_POINT('',#398);
#400=CARTESIAN_POINT('',(-2.290000000000001,-2.539999999999999,2.180000000000000));
#401=DIRECTION('',(0.0,1.0,0.0));
#402=VECTOR('',#401,5.080000000000000);
#403=LINE('',#400,#402);
#404=EDGE_CURVE('',#391,#399,#403,.T.);
#405=ORIENTED_EDGE('',*,*,#404,.T.);
#406=CARTESIAN_POINT('',(-2.794999999999999,2.540000000000001,2.180000000000000));
#407=VERTEX_POINT('',#406);
#408=CARTESIAN_POINT('',(-2.289999999999999,2.540000000000001,2.180000000000000));
#409=DIRECTION('',(-1.0,0.0,0.0));
#410=VECTOR('',#409,0.505000000000000);
#411=LINE('',#408,#410);
#412=EDGE_CURVE('',#399,#407,#411,.T.);
#413=ORIENTED_EDGE('',*,*,#412,.T.);
#414=CARTESIAN_POINT('',(-2.794999999999999,2.540000000000001,2.180000000000000));
#415=DIRECTION('',(0.0,-1.0,0.0));
#416=VECTOR('',#415,5.080000000000000);
#417=LINE('',#414,#416);
#418=EDGE_CURVE('',#407,#389,#417,.T.);
#419=ORIENTED_EDGE('',*,*,#418,.T.);
#420=EDGE_LOOP('',(#397,#405,#413,#419));
#421=FACE_OUTER_BOUND('',#420,.T.);
#422=ADVANCED_FACE('',(#421),#387,.T.);
#423=CARTESIAN_POINT('',(-2.542500000000000,8.881784E-016,0.0));
#424=DIRECTION('',(0.0,0.0,1.0));
#425=DIRECTION('',(0.0,-1.0,0.0));
#426=AXIS2_PLACEMENT_3D('',#423,#424,#425);
#427=PLANE('',#426);
#428=CARTESIAN_POINT('',(-2.290000000000000,-2.539999999999999,0.0));
#429=VERTEX_POINT('',#428);
#430=CARTESIAN_POINT('',(-2.795000000000000,-2.539999999999999,0.0));
#431=VERTEX_POINT('',#430);
#432=CARTESIAN_POINT('',(-2.290000000000000,-2.539999999999999,0.0));
#433=DIRECTION('',(-1.0,0.0,0.0));
#434=VECTOR('',#433,0.505000000000000);
#435=LINE('',#432,#434);
#436=EDGE_CURVE('',#429,#431,#435,.T.);
#437=ORIENTED_EDGE('',*,*,#436,.T.);
#438=CARTESIAN_POINT('',(-2.794999999999999,2.540000000000001,0.0));
#439=VERTEX_POINT('',#438);
#440=CARTESIAN_POINT('',(-2.795000000000000,-2.539999999999999,0.0));
#441=DIRECTION('',(0.0,1.0,0.0));
#442=VECTOR('',#441,5.080000000000000);
#443=LINE('',#440,#442);
#444=EDGE_CURVE('',#431,#439,#443,.T.);
#445=ORIENTED_EDGE('',*,*,#444,.T.);
#446=CARTESIAN_POINT('',(-2.289999999999999,2.540000000000001,0.0));
#447=VERTEX_POINT('',#446);
#448=CARTESIAN_POINT('',(-2.794999999999999,2.540000000000001,0.0));
#449=DIRECTION('',(1.0,0.0,0.0));
#450=VECTOR('',#449,0.505000000000000);
#451=LINE('',#448,#450);
#452=EDGE_CURVE('',#439,#447,#451,.T.);
#453=ORIENTED_EDGE('',*,*,#452,.T.);
#454=CARTESIAN_POINT('',(-2.290000000000000,2.540000000000001,0.0));
#455=DIRECTION('',(0.0,-1.0,0.0));
#456=VECTOR('',#455,5.080000000000000);
#457=LINE('',#454,#456);
#458=EDGE_CURVE('',#447,#429,#457,.T.);
#459=ORIENTED_EDGE('',*,*,#458,.T.);
#460=EDGE_LOOP('',(#437,#445,#453,#459));
#461=FACE_OUTER_BOUND('',#460,.T.);
#462=ADVANCED_FACE('',(#461),#427,.F.);
#463=CARTESIAN_POINT('',(-2.794999999999999,8.881784E-016,1.090000000000000));
#464=DIRECTION('',(1.0,0.0,0.0));
#465=DIRECTION('',(0.0,0.0,1.0));
#466=AXIS2_PLACEMENT_3D('',#463,#464,#465);
#467=PLANE('',#466);
#468=CARTESIAN_POINT('',(-2.794999999999999,2.540000000000001,2.180000000000000));
#469=DIRECTION('',(0.0,0.0,-1.0));
#470=VECTOR('',#469,2.180000000000000);
#471=LINE('',#468,#470);
#472=EDGE_CURVE('',#407,#439,#471,.T.);
#473=ORIENTED_EDGE('',*,*,#472,.T.);
#474=ORIENTED_EDGE('',*,*,#444,.F.);
#475=CARTESIAN_POINT('',(-2.795000000000000,-2.539999999999999,2.180000000000000));
#476=DIRECTION('',(0.0,0.0,-1.0));
#477=VECTOR('',#476,2.180000000000000);
#478=LINE('',#475,#477);
#479=EDGE_CURVE('',#389,#431,#478,.T.);
#480=ORIENTED_EDGE('',*,*,#479,.F.);
#481=ORIENTED_EDGE('',*,*,#418,.F.);
#482=EDGE_LOOP('',(#473,#474,#480,#481));
#483=FACE_OUTER_BOUND('',#482,.T.);
#484=ADVANCED_FACE('',(#483),#467,.F.);
#485=CARTESIAN_POINT('',(-2.542499999999999,2.540000000000001,1.090000000000000));
#486=DIRECTION('',(0.0,-1.0,0.0));
#487=DIRECTION('',(0.0,0.0,-1.0));
#488=AXIS2_PLACEMENT_3D('',#485,#486,#487);
#489=PLANE('',#488);
#490=CARTESIAN_POINT('',(-2.289999999999999,2.540000000000001,2.180000000000000));
#491=DIRECTION('',(0.0,0.0,-1.0));
#492=VECTOR('',#491,2.180000000000000);
#493=LINE('',#490,#492);
#494=EDGE_CURVE('',#399,#447,#493,.T.);
#495=ORIENTED_EDGE('',*,*,#494,.T.);
#496=ORIENTED_EDGE('',*,*,#452,.F.);
#497=ORIENTED_EDGE('',*,*,#472,.F.);
#498=ORIENTED_EDGE('',*,*,#412,.F.);
#499=EDGE_LOOP('',(#495,#496,#497,#498));
#500=FACE_OUTER_BOUND('',#499,.T.);
#501=ADVANCED_FACE('',(#500),#489,.F.);
#502=CARTESIAN_POINT('',(-2.290000000000000,8.881784E-016,1.090000000000000));
#503=DIRECTION('',(-1.0,0.0,0.0));
#504=DIRECTION('',(0.0,0.0,-1.0));
#505=AXIS2_PLACEMENT_3D('',#502,#503,#504);
#506=PLANE('',#505);
#507=CARTESIAN_POINT('',(-2.290000000000000,-2.539999999999999,2.180000000000000));
#508=DIRECTION('',(0.0,0.0,-1.0));
#509=VECTOR('',#508,2.180000000000000);
#510=LINE('',#507,#509);
#511=EDGE_CURVE('',#391,#429,#510,.T.);
#512=ORIENTED_EDGE('',*,*,#511,.T.);
#513=ORIENTED_EDGE('',*,*,#458,.F.);
#514=ORIENTED_EDGE('',*,*,#494,.F.);
#515=ORIENTED_EDGE('',*,*,#404,.F.);
#516=EDGE_LOOP('',(#512,#513,#514,#515));
#517=FACE_OUTER_BOUND('',#516,.T.);
#518=ADVANCED_FACE('',(#517),#506,.F.);
#519=CARTESIAN_POINT('',(-2.542500000000000,-2.539999999999999,1.090000000000000));
#520=DIRECTION('',(0.0,1.0,0.0));
#521=DIRECTION('',(0.0,0.0,1.0));
#522=AXIS2_PLACEMENT_3D('',#519,#520,#521);
#523=PLANE('',#522);
#524=ORIENTED_EDGE('',*,*,#479,.T.);
#525=ORIENTED_EDGE('',*,*,#436,.F.);
#526=ORIENTED_EDGE('',*,*,#511,.F.);
#527=ORIENTED_EDGE('',*,*,#396,.F.);
#528=EDGE_LOOP('',(#524,#525,#526,#527));
#529=FACE_OUTER_BOUND('',#528,.T.);
#530=ADVANCED_FACE('',(#529),#523,.F.);
#531=CLOSED_SHELL('',(#422,#462,#484,#501,#518,#530));
#532=MANIFOLD_SOLID_BREP('AEF',#531);
#533=STYLED_ITEM('NONE',(#221),#532);
#534=ADVANCED_BREP_SHAPE_REPRESENTATION('ABSR1',(#214,#374,#532),#28);
#535=SHAPE_REPRESENTATION_RELATIONSHIP('SRRPL1','',#534,#62);
ENDSEC;
END-ISO-10303-21;
