ISO-10303-21;
HEADER;
/****************************************************************
 * Generated by software with PDE/Lib inside                    *
 * PDE/Lib Version 3.2.2, created Thu Mar 23, 2000 at 18:38:49  *
 * International Technegroup Inc. (www.iti-oh.com)              *
 ****************************************************************/
FILE_DESCRIPTION((''),'2;1');
FILE_NAME('CAPC3225X168N.stp','2009-07-01T11:17:26',(''),(''),'Mechanical Desktop 2006','Mechanical Desktop 2006',', , ');
FILE_SCHEMA(('AUTOMOTIVE_DESIGN { 1 2 10303 214 0 1 1 1 }'));
ENDSEC;
DATA;
#8=(NAMED_UNIT(*)PLANE_ANGLE_UNIT()SI_UNIT($,.RADIAN.));
#9=DIMENSIONAL_EXPONENTS(0.0,0.0,0.0,0.0,0.0,0.0,0.0);
#10=PLANE_ANGLE_MEASURE_WITH_UNIT(PLANE_ANGLE_MEASURE(0.017453292500000),#8);
#14=(CONVERSION_BASED_UNIT('DEGREE',#10)NAMED_UNIT(#9)PLANE_ANGLE_UNIT());
#18=(NAMED_UNIT(*)SI_UNIT($,.STERADIAN.)SOLID_ANGLE_UNIT());
#22=(LENGTH_UNIT()NAMED_UNIT(*)SI_UNIT(.MILLI.,.METRE.));
#23=UNCERTAINTY_MEASURE_WITH_UNIT(LENGTH_MEASURE(0.000001000000000),#22,'DISTANCE_ACCURACY_VALUE','');
#28=(GEOMETRIC_REPRESENTATION_CONTEXT(3)GLOBAL_UNCERTAINTY_ASSIGNED_CONTEXT((#23))GLOBAL_UNIT_ASSIGNED_CONTEXT((#14,#18,#22))REPRESENTATION_CONTEXT('None','None'));
#29=APPLICATION_CONTEXT('automotive design');
#30=APPLICATION_PROTOCOL_DEFINITION('DRAFT_INTERNATIONAL_STANDARD','automotive_design',1998,#29);
#31=PRODUCT_CONTEXT('3D Mechanical Parts',#29,'mechanical');
#32=PRODUCT('Product','Product','',(#31));
#33=PRODUCT_RELATED_PRODUCT_CATEGORY('part',$,(#32));
#34=PRODUCT_CATEGORY('part',$);
#35=PERSON('1','Design','Joe',$,$,$);
#36=ORGANIZATION($,'None','None');
#37=PERSON_AND_ORGANIZATION(#35,#36);
#38=PERSON_AND_ORGANIZATION_ROLE('design_owner');
#39=APPLIED_PERSON_AND_ORGANIZATION_ASSIGNMENT(#37,#38,(#32));
#40=PRODUCT_DEFINITION_FORMATION_WITH_SPECIFIED_SOURCE('None','',#32,.BOUGHT.);
#41=PERSON('2','Creator','Joe',$,$,$);
#42=ORGANIZATION($,'None','None');
#43=PERSON_AND_ORGANIZATION(#41,#42);
#44=PERSON_AND_ORGANIZATION_ROLE('creator');
#45=APPLIED_PERSON_AND_ORGANIZATION_ASSIGNMENT(#43,#44,(#40));
#46=PERSON('3','Supplier','Joe',$,$,$);
#47=ORGANIZATION($,'None','None');
#48=PERSON_AND_ORGANIZATION(#46,#47);
#49=PERSON_AND_ORGANIZATION_ROLE('design_supplier');
#50=APPLIED_PERSON_AND_ORGANIZATION_ASSIGNMENT(#48,#49,(#40));
#51=PRODUCT_DEFINITION_CONTEXT('part definition',#29,'design');
#52=PRODUCT_DEFINITION('None','',#40,#51);
#53=PERSON('4','Creator','Joe',$,$,$);
#54=ORGANIZATION($,'None','None');
#55=PERSON_AND_ORGANIZATION(#53,#54);
#56=PERSON_AND_ORGANIZATION_ROLE('creator');
#57=APPLIED_PERSON_AND_ORGANIZATION_ASSIGNMENT(#55,#56,(#52));
#58=CARTESIAN_POINT('NONE',(0.0,0.0,0.0));
#59=DIRECTION('NONE',(0.0,0.0,1.0));
#60=DIRECTION('NONE',(1.0,0.0,0.0));
#61=AXIS2_PLACEMENT_3D('NONE',#58,#59,#60);
#62=SHAPE_REPRESENTATION('SR1',(#61),#28);
#63=PRODUCT_DEFINITION_SHAPE('PDS1','Test Part',#52);
#64=SHAPE_DEFINITION_REPRESENTATION(#63,#62);
#65=CARTESIAN_POINT('',(1.600000000000000,1.250000000000000,0.0));
#66=DIRECTION('',(0.0,0.0,1.0));
#67=DIRECTION('',(0.707106781186548,0.707106781186548,0.0));
#68=AXIS2_PLACEMENT_3D('',#65,#66,#67);
#69=CYLINDRICAL_SURFACE('',#68,0.100000000000000);
#70=CARTESIAN_POINT('',(1.670710678118655,1.320710678118655,0.100000000000000));
#71=VERTEX_POINT('',#70);
#72=CARTESIAN_POINT('',(1.670710678118655,1.320710678118655,1.580000000000000));
#73=VERTEX_POINT('',#72);
#74=CARTESIAN_POINT('',(1.670710678118655,1.320710678118655,0.100000000000000));
#75=DIRECTION('',(0.0,0.0,1.0));
#76=VECTOR('',#75,1.480000000000000);
#77=LINE('',#74,#76);
#78=EDGE_CURVE('',#71,#73,#77,.T.);
#79=ORIENTED_EDGE('',*,*,#78,.F.);
#80=CARTESIAN_POINT('',(1.600000000000000,1.350000000000001,0.100000000000000));
#81=VERTEX_POINT('',#80);
#82=CARTESIAN_POINT('',(1.600000000000000,1.250000000000000,0.100000000000000));
#83=DIRECTION('',(0.0,0.0,1.000000000000000));
#84=DIRECTION('',(0.707106781186547,0.707106781186547,0.0));
#85=AXIS2_PLACEMENT_3D('',#82,#83,#84);
#86=CIRCLE('',#85,0.100000000000000);
#87=EDGE_CURVE('',#71,#81,#86,.T.);
#88=ORIENTED_EDGE('',*,*,#87,.T.);
#89=CARTESIAN_POINT('',(1.600000000000000,1.350000000000001,1.580000000000000));
#90=VERTEX_POINT('',#89);
#91=CARTESIAN_POINT('',(1.600000000000000,1.350000000000001,0.100000000000000));
#92=DIRECTION('',(0.0,0.0,1.0));
#93=VECTOR('',#92,1.480000000000000);
#94=LINE('',#91,#93);
#95=EDGE_CURVE('',#81,#90,#94,.T.);
#96=ORIENTED_EDGE('',*,*,#95,.T.);
#97=CARTESIAN_POINT('',(1.600000000000000,1.250000000000000,1.580000000000000));
#98=DIRECTION('',(0.0,0.0,1.000000000000000));
#99=DIRECTION('',(0.707106781186547,0.707106781186547,0.0));
#100=AXIS2_PLACEMENT_3D('',#97,#98,#99);
#101=CIRCLE('',#100,0.100000000000000);
#102=EDGE_CURVE('',#73,#90,#101,.T.);
#103=ORIENTED_EDGE('',*,*,#102,.F.);
#104=EDGE_LOOP('',(#79,#88,#96,#103));
#105=FACE_OUTER_BOUND('',#104,.T.);
#106=ADVANCED_FACE('',(#105),#69,.T.);
#107=CARTESIAN_POINT('',(1.600000000000000,0.625000000000000,1.580000000000000));
#108=DIRECTION('',(8.881784E-017,-1.0,0.0));
#109=DIRECTION('',(0.707106781186547,0.0,0.707106781186547));
#110=AXIS2_PLACEMENT_3D('',#107,#108,#109);
#111=CYLINDRICAL_SURFACE('',#110,0.100000000000000);
#112=CARTESIAN_POINT('',(1.670710678118655,1.250000000000000,1.650710678118655));
#113=VERTEX_POINT('',#112);
#114=CARTESIAN_POINT('',(1.670710678118655,-1.250000000000000,1.650710678118655));
#115=VERTEX_POINT('',#114);
#116=CARTESIAN_POINT('',(1.670710678118655,1.250000000000000,1.650710678118655));
#117=DIRECTION('',(0.0,-1.0,0.0));
#118=VECTOR('',#117,2.500000000000000);
#119=LINE('',#116,#118);
#120=EDGE_CURVE('',#113,#115,#119,.T.);
#121=ORIENTED_EDGE('',*,*,#120,.F.);
#122=CARTESIAN_POINT('',(1.600000000000000,1.250000000000000,1.680000000000000));
#123=VERTEX_POINT('',#122);
#124=CARTESIAN_POINT('',(1.600000000000000,1.250000000000000,1.580000000000000));
#125=DIRECTION('',(0.0,-1.000000000000000,0.0));
#126=DIRECTION('',(0.707106781186547,0.0,0.707106781186547));
#127=AXIS2_PLACEMENT_3D('',#124,#125,#126);
#128=CIRCLE('',#127,0.100000000000000);
#129=EDGE_CURVE('',#113,#123,#128,.T.);
#130=ORIENTED_EDGE('',*,*,#129,.T.);
#131=CARTESIAN_POINT('',(1.600000000000000,-1.250000000000000,1.680000000000000));
#132=VERTEX_POINT('',#131);
#133=CARTESIAN_POINT('',(1.600000000000000,1.250000000000000,1.680000000000000));
#134=DIRECTION('',(0.0,-1.0,0.0));
#135=VECTOR('',#134,2.500000000000000);
#136=LINE('',#133,#135);
#137=EDGE_CURVE('',#123,#132,#136,.T.);
#138=ORIENTED_EDGE('',*,*,#137,.T.);
#139=CARTESIAN_POINT('',(1.600000000000000,-1.250000000000000,1.580000000000000));
#140=DIRECTION('',(-1.570092E-015,-1.000000000000000,-1.570092E-015));
#141=DIRECTION('',(0.707106781186547,-2.220446E-015,0.707106781186547));
#142=AXIS2_PLACEMENT_3D('',#139,#140,#141);
#143=CIRCLE('',#142,0.100000000000000);
#144=EDGE_CURVE('',#115,#132,#143,.T.);
#145=ORIENTED_EDGE('',*,*,#144,.F.);
#146=EDGE_LOOP('',(#121,#130,#138,#145));
#147=FACE_OUTER_BOUND('',#146,.T.);
#148=ADVANCED_FACE('',(#147),#111,.T.);
#149=CARTESIAN_POINT('',(1.600000000000000,-1.250000000000000,0.0));
#150=DIRECTION('',(0.0,0.0,1.0));
#151=DIRECTION('',(0.707106781186548,-0.707106781186548,0.0));
#152=AXIS2_PLACEMENT_3D('',#149,#150,#151);
#153=CYLINDRICAL_SURFACE('',#152,0.100000000000000);
#154=CARTESIAN_POINT('',(1.670710678118655,-1.320710678118655,0.100000000000000));
#155=VERTEX_POINT('',#154);
#156=CARTESIAN_POINT('',(1.670710678118655,-1.320710678118655,1.580000000000000));
#157=VERTEX_POINT('',#156);
#158=CARTESIAN_POINT('',(1.670710678118655,-1.320710678118655,0.100000000000000));
#159=DIRECTION('',(0.0,0.0,1.0));
#160=VECTOR('',#159,1.480000000000000);
#161=LINE('',#158,#160);
#162=EDGE_CURVE('',#155,#157,#161,.T.);
#163=ORIENTED_EDGE('',*,*,#162,.F.);
#164=CARTESIAN_POINT('',(1.700000000000000,-1.250000000000000,0.100000000000000));
#165=VERTEX_POINT('',#164);
#166=CARTESIAN_POINT('',(1.600000000000000,-1.250000000000000,0.100000000000000));
#167=DIRECTION('',(0.0,0.0,-1.000000000000000));
#168=DIRECTION('',(0.707106781186547,-0.707106781186547,0.0));
#169=AXIS2_PLACEMENT_3D('',#166,#167,#168);
#170=CIRCLE('',#169,0.100000000000000);
#171=EDGE_CURVE('',#165,#155,#170,.T.);
#172=ORIENTED_EDGE('',*,*,#171,.F.);
#173=CARTESIAN_POINT('',(1.700000000000000,-1.250000000000000,1.580000000000000));
#174=VERTEX_POINT('',#173);
#175=CARTESIAN_POINT('',(1.700000000000000,-1.250000000000000,0.100000000000000));
#176=DIRECTION('',(0.0,0.0,1.0));
#177=VECTOR('',#176,1.480000000000000);
#178=LINE('',#175,#177);
#179=EDGE_CURVE('',#165,#174,#178,.T.);
#180=ORIENTED_EDGE('',*,*,#179,.T.);
#181=CARTESIAN_POINT('',(1.600000000000000,-1.250000000000000,1.580000000000000));
#182=DIRECTION('',(0.0,0.0,1.000000000000000));
#183=DIRECTION('',(0.707106781186547,-0.707106781186547,0.0));
#184=AXIS2_PLACEMENT_3D('',#181,#182,#183);
#185=CIRCLE('',#184,0.100000000000000);
#186=EDGE_CURVE('',#157,#174,#185,.T.);
#187=ORIENTED_EDGE('',*,*,#186,.F.);
#188=EDGE_LOOP('',(#163,#172,#180,#187));
#189=FACE_OUTER_BOUND('',#188,.T.);
#190=ADVANCED_FACE('',(#189),#153,.T.);
#191=CARTESIAN_POINT('',(1.600000000000000,0.625000000000000,0.100000000000000));
#192=DIRECTION('',(-8.881784E-017,1.0,0.0));
#193=DIRECTION('',(0.707106781186548,0.0,-0.707106781186547));
#194=AXIS2_PLACEMENT_3D('',#191,#192,#193);
#195=CYLINDRICAL_SURFACE('',#194,0.100000000000000);
#196=CARTESIAN_POINT('',(1.670710678118655,-1.250000000000000,0.029289321881345));
#197=VERTEX_POINT('',#196);
#198=CARTESIAN_POINT('',(1.670710678118655,1.250000000000000,0.029289321881345));
#199=VERTEX_POINT('',#198);
#200=CARTESIAN_POINT('',(1.670710678118655,-1.250000000000000,0.029289321881345));
#201=DIRECTION('',(0.0,1.0,0.0));
#202=VECTOR('',#201,2.500000000000000);
#203=LINE('',#200,#202);
#204=EDGE_CURVE('',#197,#199,#203,.T.);
#205=ORIENTED_EDGE('',*,*,#204,.F.);
#206=CARTESIAN_POINT('',(1.600000000000000,-1.250000000000000,0.0));
#207=VERTEX_POINT('',#206);
#208=CARTESIAN_POINT('',(1.600000000000000,-1.250000000000000,0.100000000000000));
#209=DIRECTION('',(0.0,-1.000000000000000,0.0));
#210=DIRECTION('',(0.707106781186548,0.0,-0.707106781186547));
#211=AXIS2_PLACEMENT_3D('',#208,#209,#210);
#212=CIRCLE('',#211,0.100000000000000);
#213=EDGE_CURVE('',#207,#197,#212,.T.);
#214=ORIENTED_EDGE('',*,*,#213,.F.);
#215=CARTESIAN_POINT('',(1.600000000000000,1.250000000000000,0.0));
#216=VERTEX_POINT('',#215);
#217=CARTESIAN_POINT('',(1.600000000000000,-1.250000000000000,0.0));
#218=DIRECTION('',(0.0,1.0,0.0));
#219=VECTOR('',#218,2.500000000000000);
#220=LINE('',#217,#219);
#221=EDGE_CURVE('',#207,#216,#220,.T.);
#222=ORIENTED_EDGE('',*,*,#221,.T.);
#223=CARTESIAN_POINT('',(1.600000000000000,1.250000000000000,0.100000000000000));
#224=DIRECTION('',(0.0,1.000000000000000,0.0));
#225=DIRECTION('',(0.707106781186548,0.0,-0.707106781186547));
#226=AXIS2_PLACEMENT_3D('',#223,#224,#225);
#227=CIRCLE('',#226,0.100000000000000);
#228=EDGE_CURVE('',#199,#216,#227,.T.);
#229=ORIENTED_EDGE('',*,*,#228,.F.);
#230=EDGE_LOOP('',(#205,#214,#222,#229));
#231=FACE_OUTER_BOUND('',#230,.T.);
#232=ADVANCED_FACE('',(#231),#195,.T.);
#233=CARTESIAN_POINT('',(1.457478622478135,-1.250000000000000,0.100000000000000));
#234=DIRECTION('',(1.0,-3.364312E-016,0.0));
#235=DIRECTION('',(0.0,-0.707106781186548,-0.707106781186547));
#236=AXIS2_PLACEMENT_3D('',#233,#234,#235);
#237=CYLINDRICAL_SURFACE('',#236,0.100000000000000);
#238=CARTESIAN_POINT('',(1.095000000000000,-1.320710678118654,0.029289321881345));
#239=VERTEX_POINT('',#238);
#240=CARTESIAN_POINT('',(1.600000000000000,-1.320710678118655,0.029289321881345));
#241=VERTEX_POINT('',#240);
#242=CARTESIAN_POINT('',(1.095000000000000,-1.320710678118654,0.029289321881345));
#243=DIRECTION('',(1.0,0.0,0.0));
#244=VECTOR('',#243,0.505000000000000);
#245=LINE('',#242,#244);
#246=EDGE_CURVE('',#239,#241,#245,.T.);
#247=ORIENTED_EDGE('',*,*,#246,.F.);
#248=CARTESIAN_POINT('',(1.095000000000000,-1.250000000000000,0.0));
#249=VERTEX_POINT('',#248);
#250=CARTESIAN_POINT('',(1.095000000000000,-1.250000000000000,0.100000000000000));
#251=DIRECTION('',(1.000000000000000,0.0,0.0));
#252=DIRECTION('',(0.0,-0.707106781186548,-0.707106781186547));
#253=AXIS2_PLACEMENT_3D('',#250,#251,#252);
#254=CIRCLE('',#253,0.100000000000000);
#255=EDGE_CURVE('',#239,#249,#254,.T.);
#256=ORIENTED_EDGE('',*,*,#255,.T.);
#257=CARTESIAN_POINT('',(1.095000000000000,-1.250000000000000,0.0));
#258=DIRECTION('',(1.0,0.0,0.0));
#259=VECTOR('',#258,0.505000000000000);
#260=LINE('',#257,#259);
#261=EDGE_CURVE('',#249,#207,#260,.T.);
#262=ORIENTED_EDGE('',*,*,#261,.T.);
#263=CARTESIAN_POINT('',(1.600000000000000,-1.250000000000000,0.100000000000000));
#264=DIRECTION('',(1.000000000000000,0.0,0.0));
#265=DIRECTION('',(0.0,-0.707106781186548,-0.707106781186547));
#266=AXIS2_PLACEMENT_3D('',#263,#264,#265);
#267=CIRCLE('',#266,0.100000000000000);
#268=EDGE_CURVE('',#241,#207,#267,.T.);
#269=ORIENTED_EDGE('',*,*,#268,.F.);
#270=EDGE_LOOP('',(#247,#256,#262,#269));
#271=FACE_OUTER_BOUND('',#270,.T.);
#272=ADVANCED_FACE('',(#271),#237,.T.);
#273=CARTESIAN_POINT('',(1.457478622478135,-1.250000000000000,1.580000000000000));
#274=DIRECTION('',(-1.0,3.364312E-016,0.0));
#275=DIRECTION('',(0.0,-0.707106781186547,0.707106781186547));
#276=AXIS2_PLACEMENT_3D('',#273,#274,#275);
#277=CYLINDRICAL_SURFACE('',#276,0.100000000000000);
#278=CARTESIAN_POINT('',(1.600000000000000,-1.320710678118655,1.650710678118655));
#279=VERTEX_POINT('',#278);
#280=CARTESIAN_POINT('',(1.095000000000000,-1.320710678118654,1.650710678118655));
#281=VERTEX_POINT('',#280);
#282=CARTESIAN_POINT('',(1.600000000000000,-1.320710678118655,1.650710678118655));
#283=DIRECTION('',(-1.0,0.0,0.0));
#284=VECTOR('',#283,0.505000000000000);
#285=LINE('',#282,#284);
#286=EDGE_CURVE('',#279,#281,#285,.T.);
#287=ORIENTED_EDGE('',*,*,#286,.F.);
#288=CARTESIAN_POINT('',(1.600000000000000,-1.250000000000000,1.580000000000000));
#289=DIRECTION('',(1.000000000000000,0.0,0.0));
#290=DIRECTION('',(0.0,-0.707106781186547,0.707106781186547));
#291=AXIS2_PLACEMENT_3D('',#288,#289,#290);
#292=CIRCLE('',#291,0.100000000000000);
#293=EDGE_CURVE('',#132,#279,#292,.T.);
#294=ORIENTED_EDGE('',*,*,#293,.F.);
#295=CARTESIAN_POINT('',(1.095000000000000,-1.250000000000000,1.680000000000000));
#296=VERTEX_POINT('',#295);
#297=CARTESIAN_POINT('',(1.600000000000000,-1.250000000000000,1.680000000000000));
#298=DIRECTION('',(-1.0,0.0,0.0));
#299=VECTOR('',#298,0.505000000000000);
#300=LINE('',#297,#299);
#301=EDGE_CURVE('',#132,#296,#300,.T.);
#302=ORIENTED_EDGE('',*,*,#301,.T.);
#303=CARTESIAN_POINT('',(1.095000000000000,-1.250000000000000,1.580000000000000));
#304=DIRECTION('',(1.000000000000000,0.0,0.0));
#305=DIRECTION('',(0.0,-0.707106781186547,0.707106781186547));
#306=AXIS2_PLACEMENT_3D('',#303,#304,#305);
#307=CIRCLE('',#306,0.100000000000000);
#308=EDGE_CURVE('',#296,#281,#307,.T.);
#309=ORIENTED_EDGE('',*,*,#308,.T.);
#310=EDGE_LOOP('',(#287,#294,#302,#309));
#311=FACE_OUTER_BOUND('',#310,.T.);
#312=ADVANCED_FACE('',(#311),#277,.T.);
#313=CARTESIAN_POINT('',(1.127478622478135,1.250000000000000,1.580000000000000));
#314=DIRECTION('',(1.0,0.0,0.0));
#315=DIRECTION('',(0.0,0.707106781186547,0.707106781186547));
#316=AXIS2_PLACEMENT_3D('',#313,#314,#315);
#317=CYLINDRICAL_SURFACE('',#316,0.100000000000000);
#318=CARTESIAN_POINT('',(1.095000000000001,1.320710678118655,1.650710678118655));
#319=VERTEX_POINT('',#318);
#320=CARTESIAN_POINT('',(1.600000000000000,1.320710678118655,1.650710678118655));
#321=VERTEX_POINT('',#320);
#322=CARTESIAN_POINT('',(1.095000000000001,1.320710678118655,1.650710678118655));
#323=DIRECTION('',(1.0,0.0,0.0));
#324=VECTOR('',#323,0.504999999999999);
#325=LINE('',#322,#324);
#326=EDGE_CURVE('',#319,#321,#325,.T.);
#327=ORIENTED_EDGE('',*,*,#326,.F.);
#328=CARTESIAN_POINT('',(1.095000000000000,1.250000000000000,1.680000000000000));
#329=VERTEX_POINT('',#328);
#330=CARTESIAN_POINT('',(1.095000000000000,1.250000000000000,1.580000000000000));
#331=DIRECTION('',(1.000000000000000,0.0,0.0));
#332=DIRECTION('',(0.0,0.707106781186547,0.707106781186547));
#333=AXIS2_PLACEMENT_3D('',#330,#331,#332);
#334=CIRCLE('',#333,0.100000000000000);
#335=EDGE_CURVE('',#319,#329,#334,.T.);
#336=ORIENTED_EDGE('',*,*,#335,.T.);
#337=CARTESIAN_POINT('',(1.095000000000000,1.250000000000000,1.680000000000000));
#338=DIRECTION('',(1.0,0.0,0.0));
#339=VECTOR('',#338,0.505000000000000);
#340=LINE('',#337,#339);
#341=EDGE_CURVE('',#329,#123,#340,.T.);
#342=ORIENTED_EDGE('',*,*,#341,.T.);
#343=CARTESIAN_POINT('',(1.600000000000000,1.250000000000000,1.580000000000000));
#344=DIRECTION('',(1.000000000000000,0.0,0.0));
#345=DIRECTION('',(0.0,0.707106781186547,0.707106781186547));
#346=AXIS2_PLACEMENT_3D('',#343,#344,#345);
#347=CIRCLE('',#346,0.100000000000000);
#348=EDGE_CURVE('',#321,#123,#347,.T.);
#349=ORIENTED_EDGE('',*,*,#348,.F.);
#350=EDGE_LOOP('',(#327,#336,#342,#349));
#351=FACE_OUTER_BOUND('',#350,.T.);
#352=ADVANCED_FACE('',(#351),#317,.T.);
#353=CARTESIAN_POINT('',(1.127478622478135,1.250000000000000,0.100000000000000));
#354=DIRECTION('',(-1.0,0.0,0.0));
#355=DIRECTION('',(0.0,0.707106781186548,-0.707106781186547));
#356=AXIS2_PLACEMENT_3D('',#353,#354,#355);
#357=CYLINDRICAL_SURFACE('',#356,0.100000000000000);
#358=CARTESIAN_POINT('',(1.600000000000000,1.320710678118655,0.029289321881345));
#359=VERTEX_POINT('',#358);
#360=CARTESIAN_POINT('',(1.095000000000001,1.320710678118655,0.029289321881345));
#361=VERTEX_POINT('',#360);
#362=CARTESIAN_POINT('',(1.600000000000000,1.320710678118655,0.029289321881345));
#363=DIRECTION('',(-1.0,0.0,0.0));
#364=VECTOR('',#363,0.504999999999999);
#365=LINE('',#362,#364);
#366=EDGE_CURVE('',#359,#361,#365,.T.);
#367=ORIENTED_EDGE('',*,*,#366,.F.);
#368=CARTESIAN_POINT('',(1.600000000000000,1.250000000000000,0.100000000000000));
#369=DIRECTION('',(1.000000000000000,0.0,0.0));
#370=DIRECTION('',(0.0,0.707106781186548,-0.707106781186547));
#371=AXIS2_PLACEMENT_3D('',#368,#369,#370);
#372=CIRCLE('',#371,0.100000000000000);
#373=EDGE_CURVE('',#216,#359,#372,.T.);
#374=ORIENTED_EDGE('',*,*,#373,.F.);
#375=CARTESIAN_POINT('',(1.095000000000000,1.250000000000000,0.0));
#376=VERTEX_POINT('',#375);
#377=CARTESIAN_POINT('',(1.600000000000000,1.250000000000000,0.0));
#378=DIRECTION('',(-1.0,0.0,0.0));
#379=VECTOR('',#378,0.505000000000000);
#380=LINE('',#377,#379);
#381=EDGE_CURVE('',#216,#376,#380,.T.);
#382=ORIENTED_EDGE('',*,*,#381,.T.);
#383=CARTESIAN_POINT('',(1.095000000000000,1.250000000000000,0.100000000000000));
#384=DIRECTION('',(1.000000000000000,0.0,0.0));
#385=DIRECTION('',(0.0,0.707106781186548,-0.707106781186547));
#386=AXIS2_PLACEMENT_3D('',#383,#384,#385);
#387=CIRCLE('',#386,0.100000000000000);
#388=EDGE_CURVE('',#376,#361,#387,.T.);
#389=ORIENTED_EDGE('',*,*,#388,.T.);
#390=EDGE_LOOP('',(#367,#374,#382,#389));
#391=FACE_OUTER_BOUND('',#390,.T.);
#392=ADVANCED_FACE('',(#391),#357,.T.);
#393=CARTESIAN_POINT('',(1.314957244956269,3.053113E-016,0.0));
#394=DIRECTION('',(0.0,0.0,1.0));
#395=DIRECTION('',(1.0,0.0,0.0));
#396=AXIS2_PLACEMENT_3D('',#393,#394,#395);
#397=PLANE('',#396);
#398=ORIENTED_EDGE('',*,*,#261,.F.);
#399=CARTESIAN_POINT('',(1.095000000000000,1.250000000000000,0.0));
#400=DIRECTION('',(0.0,-1.0,0.0));
#401=VECTOR('',#400,2.500000000000000);
#402=LINE('',#399,#401);
#403=EDGE_CURVE('',#376,#249,#402,.T.);
#404=ORIENTED_EDGE('',*,*,#403,.F.);
#405=ORIENTED_EDGE('',*,*,#381,.F.);
#406=ORIENTED_EDGE('',*,*,#221,.F.);
#407=EDGE_LOOP('',(#398,#404,#405,#406));
#408=FACE_OUTER_BOUND('',#407,.T.);
#409=ADVANCED_FACE('',(#408),#397,.F.);
#410=CARTESIAN_POINT('',(1.127478622478135,1.250000000000000,0.100000000000000));
#411=DIRECTION('',(-1.0,0.0,0.0));
#412=DIRECTION('',(0.0,0.707106781186548,-0.707106781186547));
#413=AXIS2_PLACEMENT_3D('',#410,#411,#412);
#414=CYLINDRICAL_SURFACE('',#413,0.100000000000000);
#415=ORIENTED_EDGE('',*,*,#366,.T.);
#416=CARTESIAN_POINT('',(1.095000000000000,1.350000000000001,0.100000000000000));
#417=VERTEX_POINT('',#416);
#418=CARTESIAN_POINT('',(1.095000000000000,1.250000000000000,0.100000000000000));
#419=DIRECTION('',(1.000000000000000,0.0,0.0));
#420=DIRECTION('',(0.0,0.707106781186548,-0.707106781186547));
#421=AXIS2_PLACEMENT_3D('',#418,#419,#420);
#422=CIRCLE('',#421,0.100000000000000);
#423=EDGE_CURVE('',#361,#417,#422,.T.);
#424=ORIENTED_EDGE('',*,*,#423,.T.);
#425=CARTESIAN_POINT('',(1.095000000000000,1.350000000000001,0.100000000000000));
#426=DIRECTION('',(1.0,0.0,0.0));
#427=VECTOR('',#426,0.505000000000000);
#428=LINE('',#425,#427);
#429=EDGE_CURVE('',#417,#81,#428,.T.);
#430=ORIENTED_EDGE('',*,*,#429,.T.);
#431=CARTESIAN_POINT('',(1.600000000000000,1.250000000000000,0.100000000000000));
#432=DIRECTION('',(1.000000000000000,0.0,0.0));
#433=DIRECTION('',(0.0,0.707106781186548,-0.707106781186547));
#434=AXIS2_PLACEMENT_3D('',#431,#432,#433);
#435=CIRCLE('',#434,0.100000000000000);
#436=EDGE_CURVE('',#359,#81,#435,.T.);
#437=ORIENTED_EDGE('',*,*,#436,.F.);
#438=EDGE_LOOP('',(#415,#424,#430,#437));
#439=FACE_OUTER_BOUND('',#438,.T.);
#440=ADVANCED_FACE('',(#439),#414,.T.);
#441=CARTESIAN_POINT('',(0.940000000000000,1.350000000000001,0.0));
#442=DIRECTION('',(0.0,1.0,0.0));
#443=DIRECTION('',(0.0,0.0,1.0));
#444=AXIS2_PLACEMENT_3D('',#441,#442,#443);
#445=PLANE('',#444);
#446=ORIENTED_EDGE('',*,*,#429,.F.);
#447=CARTESIAN_POINT('',(1.095000000000000,1.350000000000001,1.580000000000000));
#448=VERTEX_POINT('',#447);
#449=CARTESIAN_POINT('',(1.095000000000000,1.350000000000001,0.100000000000000));
#450=DIRECTION('',(0.0,0.0,1.0));
#451=VECTOR('',#450,1.480000000000000);
#452=LINE('',#449,#451);
#453=EDGE_CURVE('',#417,#448,#452,.T.);
#454=ORIENTED_EDGE('',*,*,#453,.T.);
#455=CARTESIAN_POINT('',(1.600000000000000,1.350000000000001,1.580000000000000));
#456=DIRECTION('',(-1.0,0.0,0.0));
#457=VECTOR('',#456,0.505000000000000);
#458=LINE('',#455,#457);
#459=EDGE_CURVE('',#90,#448,#458,.T.);
#460=ORIENTED_EDGE('',*,*,#459,.F.);
#461=ORIENTED_EDGE('',*,*,#95,.F.);
#462=EDGE_LOOP('',(#446,#454,#460,#461));
#463=FACE_OUTER_BOUND('',#462,.T.);
#464=ADVANCED_FACE('',(#463),#445,.T.);
#465=CARTESIAN_POINT('',(1.127478622478135,1.250000000000000,1.580000000000000));
#466=DIRECTION('',(1.0,0.0,0.0));
#467=DIRECTION('',(0.0,0.707106781186547,0.707106781186547));
#468=AXIS2_PLACEMENT_3D('',#465,#466,#467);
#469=CYLINDRICAL_SURFACE('',#468,0.100000000000000);
#470=ORIENTED_EDGE('',*,*,#326,.T.);
#471=CARTESIAN_POINT('',(1.600000000000000,1.250000000000000,1.580000000000000));
#472=DIRECTION('',(1.000000000000000,0.0,0.0));
#473=DIRECTION('',(0.0,0.707106781186547,0.707106781186547));
#474=AXIS2_PLACEMENT_3D('',#471,#472,#473);
#475=CIRCLE('',#474,0.100000000000000);
#476=EDGE_CURVE('',#90,#321,#475,.T.);
#477=ORIENTED_EDGE('',*,*,#476,.F.);
#478=ORIENTED_EDGE('',*,*,#459,.T.);
#479=CARTESIAN_POINT('',(1.095000000000000,1.250000000000000,1.580000000000000));
#480=DIRECTION('',(1.000000000000000,0.0,0.0));
#481=DIRECTION('',(0.0,0.707106781186547,0.707106781186547));
#482=AXIS2_PLACEMENT_3D('',#479,#480,#481);
#483=CIRCLE('',#482,0.100000000000000);
#484=EDGE_CURVE('',#448,#319,#483,.T.);
#485=ORIENTED_EDGE('',*,*,#484,.T.);
#486=EDGE_LOOP('',(#470,#477,#478,#485));
#487=FACE_OUTER_BOUND('',#486,.T.);
#488=ADVANCED_FACE('',(#487),#469,.T.);
#489=CARTESIAN_POINT('',(1.314957244956269,3.053113E-016,1.680000000000000));
#490=DIRECTION('',(0.0,0.0,1.0));
#491=DIRECTION('',(1.0,0.0,0.0));
#492=AXIS2_PLACEMENT_3D('',#489,#490,#491);
#493=PLANE('',#492);
#494=ORIENTED_EDGE('',*,*,#341,.F.);
#495=CARTESIAN_POINT('',(1.095000000000000,-1.250000000000000,1.680000000000000));
#496=DIRECTION('',(0.0,1.0,0.0));
#497=VECTOR('',#496,2.500000000000000);
#498=LINE('',#495,#497);
#499=EDGE_CURVE('',#296,#329,#498,.T.);
#500=ORIENTED_EDGE('',*,*,#499,.F.);
#501=ORIENTED_EDGE('',*,*,#301,.F.);
#502=ORIENTED_EDGE('',*,*,#137,.F.);
#503=EDGE_LOOP('',(#494,#500,#501,#502));
#504=FACE_OUTER_BOUND('',#503,.T.);
#505=ADVANCED_FACE('',(#504),#493,.T.);
#506=CARTESIAN_POINT('',(1.457478622478135,-1.250000000000000,1.580000000000000));
#507=DIRECTION('',(-1.0,3.364312E-016,0.0));
#508=DIRECTION('',(0.0,-0.707106781186547,0.707106781186547));
#509=AXIS2_PLACEMENT_3D('',#506,#507,#508);
#510=CYLINDRICAL_SURFACE('',#509,0.100000000000000);
#511=ORIENTED_EDGE('',*,*,#286,.T.);
#512=CARTESIAN_POINT('',(1.095000000000000,-1.350000000000000,1.580000000000000));
#513=VERTEX_POINT('',#512);
#514=CARTESIAN_POINT('',(1.095000000000000,-1.250000000000000,1.580000000000000));
#515=DIRECTION('',(1.000000000000000,0.0,0.0));
#516=DIRECTION('',(0.0,-0.707106781186547,0.707106781186547));
#517=AXIS2_PLACEMENT_3D('',#514,#515,#516);
#518=CIRCLE('',#517,0.100000000000000);
#519=EDGE_CURVE('',#281,#513,#518,.T.);
#520=ORIENTED_EDGE('',*,*,#519,.T.);
#521=CARTESIAN_POINT('',(1.600000000000000,-1.350000000000000,1.580000000000000));
#522=VERTEX_POINT('',#521);
#523=CARTESIAN_POINT('',(1.095000000000000,-1.350000000000000,1.580000000000000));
#524=DIRECTION('',(1.0,0.0,0.0));
#525=VECTOR('',#524,0.505000000000000);
#526=LINE('',#523,#525);
#527=EDGE_CURVE('',#513,#522,#526,.T.);
#528=ORIENTED_EDGE('',*,*,#527,.T.);
#529=CARTESIAN_POINT('',(1.600000000000000,-1.250000000000000,1.580000000000000));
#530=DIRECTION('',(1.000000000000000,0.0,0.0));
#531=DIRECTION('',(0.0,-0.707106781186547,0.707106781186547));
#532=AXIS2_PLACEMENT_3D('',#529,#530,#531);
#533=CIRCLE('',#532,0.100000000000000);
#534=EDGE_CURVE('',#279,#522,#533,.T.);
#535=ORIENTED_EDGE('',*,*,#534,.F.);
#536=EDGE_LOOP('',(#511,#520,#528,#535));
#537=FACE_OUTER_BOUND('',#536,.T.);
#538=ADVANCED_FACE('',(#537),#510,.T.);
#539=CARTESIAN_POINT('',(1.600000000000000,-1.350000000000000,0.0));
#540=DIRECTION('',(0.0,-1.0,0.0));
#541=DIRECTION('',(0.0,0.0,-1.0));
#542=AXIS2_PLACEMENT_3D('',#539,#540,#541);
#543=PLANE('',#542);
#544=CARTESIAN_POINT('',(1.600000000000000,-1.350000000000000,0.100000000000000));
#545=VERTEX_POINT('',#544);
#546=CARTESIAN_POINT('',(1.095000000000000,-1.350000000000000,0.100000000000000));
#547=VERTEX_POINT('',#546);
#548=CARTESIAN_POINT('',(1.600000000000000,-1.350000000000000,0.100000000000000));
#549=DIRECTION('',(-1.0,0.0,0.0));
#550=VECTOR('',#549,0.505000000000000);
#551=LINE('',#548,#550);
#552=EDGE_CURVE('',#545,#547,#551,.T.);
#553=ORIENTED_EDGE('',*,*,#552,.F.);
#554=CARTESIAN_POINT('',(1.600000000000000,-1.350000000000000,0.100000000000000));
#555=DIRECTION('',(0.0,0.0,1.0));
#556=VECTOR('',#555,1.480000000000000);
#557=LINE('',#554,#556);
#558=EDGE_CURVE('',#545,#522,#557,.T.);
#559=ORIENTED_EDGE('',*,*,#558,.T.);
#560=ORIENTED_EDGE('',*,*,#527,.F.);
#561=CARTESIAN_POINT('',(1.095000000000000,-1.350000000000000,0.100000000000000));
#562=DIRECTION('',(0.0,0.0,1.0));
#563=VECTOR('',#562,1.480000000000000);
#564=LINE('',#561,#563);
#565=EDGE_CURVE('',#547,#513,#564,.T.);
#566=ORIENTED_EDGE('',*,*,#565,.F.);
#567=EDGE_LOOP('',(#553,#559,#560,#566));
#568=FACE_OUTER_BOUND('',#567,.T.);
#569=ADVANCED_FACE('',(#568),#543,.T.);
#570=CARTESIAN_POINT('',(1.095000000000000,-1.350000000000000,0.0));
#571=DIRECTION('',(-1.0,0.0,0.0));
#572=DIRECTION('',(0.0,0.0,1.0));
#573=AXIS2_PLACEMENT_3D('',#570,#571,#572);
#574=PLANE('',#573);
#575=CARTESIAN_POINT('',(1.095000000000000,-1.250000000000000,0.100000000000000));
#576=DIRECTION('',(1.000000000000000,0.0,0.0));
#577=DIRECTION('',(0.0,-0.707106781186548,-0.707106781186547));
#578=AXIS2_PLACEMENT_3D('',#575,#576,#577);
#579=CIRCLE('',#578,0.100000000000000);
#580=EDGE_CURVE('',#547,#239,#579,.T.);
#581=ORIENTED_EDGE('',*,*,#580,.F.);
#582=ORIENTED_EDGE('',*,*,#565,.T.);
#583=ORIENTED_EDGE('',*,*,#519,.F.);
#584=ORIENTED_EDGE('',*,*,#308,.F.);
#585=ORIENTED_EDGE('',*,*,#499,.T.);
#586=ORIENTED_EDGE('',*,*,#335,.F.);
#587=ORIENTED_EDGE('',*,*,#484,.F.);
#588=ORIENTED_EDGE('',*,*,#453,.F.);
#589=ORIENTED_EDGE('',*,*,#423,.F.);
#590=ORIENTED_EDGE('',*,*,#388,.F.);
#591=ORIENTED_EDGE('',*,*,#403,.T.);
#592=ORIENTED_EDGE('',*,*,#255,.F.);
#593=EDGE_LOOP('',(#581,#582,#583,#584,#585,#586,#587,#588,#589,#590,#591,#592));
#594=FACE_OUTER_BOUND('',#593,.T.);
#595=ADVANCED_FACE('',(#594),#574,.T.);
#596=CARTESIAN_POINT('',(1.457478622478135,-1.250000000000000,0.100000000000000));
#597=DIRECTION('',(1.0,-3.364312E-016,0.0));
#598=DIRECTION('',(0.0,-0.707106781186548,-0.707106781186547));
#599=AXIS2_PLACEMENT_3D('',#596,#597,#598);
#600=CYLINDRICAL_SURFACE('',#599,0.100000000000000);
#601=ORIENTED_EDGE('',*,*,#246,.T.);
#602=CARTESIAN_POINT('',(1.600000000000000,-1.250000000000000,0.100000000000000));
#603=DIRECTION('',(1.000000000000000,0.0,0.0));
#604=DIRECTION('',(0.0,-0.707106781186548,-0.707106781186547));
#605=AXIS2_PLACEMENT_3D('',#602,#603,#604);
#606=CIRCLE('',#605,0.100000000000000);
#607=EDGE_CURVE('',#545,#241,#606,.T.);
#608=ORIENTED_EDGE('',*,*,#607,.F.);
#609=ORIENTED_EDGE('',*,*,#552,.T.);
#610=ORIENTED_EDGE('',*,*,#580,.T.);
#611=EDGE_LOOP('',(#601,#608,#609,#610));
#612=FACE_OUTER_BOUND('',#611,.T.);
#613=ADVANCED_FACE('',(#612),#600,.T.);
#614=CARTESIAN_POINT('',(1.600000000000000,-1.250000000000000,0.100000000000000));
#615=DIRECTION('',(0.0,0.0,1.0));
#616=DIRECTION('',(1.0,0.0,0.0));
#617=AXIS2_PLACEMENT_3D('',#614,#615,#616);
#618=SPHERICAL_SURFACE('',#617,0.100000000000000);
#619=ORIENTED_EDGE('',*,*,#607,.T.);
#620=ORIENTED_EDGE('',*,*,#268,.T.);
#621=ORIENTED_EDGE('',*,*,#213,.T.);
#622=CARTESIAN_POINT('',(1.600000000000000,-1.250000000000000,0.100000000000000));
#623=DIRECTION('',(0.0,-1.000000000000000,0.0));
#624=DIRECTION('',(0.707106781186548,0.0,-0.707106781186547));
#625=AXIS2_PLACEMENT_3D('',#622,#623,#624);
#626=CIRCLE('',#625,0.100000000000000);
#627=EDGE_CURVE('',#197,#165,#626,.T.);
#628=ORIENTED_EDGE('',*,*,#627,.T.);
#629=ORIENTED_EDGE('',*,*,#171,.T.);
#630=CARTESIAN_POINT('',(1.600000000000000,-1.250000000000000,0.100000000000000));
#631=DIRECTION('',(0.0,0.0,-1.000000000000000));
#632=DIRECTION('',(0.707106781186547,-0.707106781186547,0.0));
#633=AXIS2_PLACEMENT_3D('',#630,#631,#632);
#634=CIRCLE('',#633,0.100000000000000);
#635=EDGE_CURVE('',#155,#545,#634,.T.);
#636=ORIENTED_EDGE('',*,*,#635,.T.);
#637=EDGE_LOOP('',(#619,#620,#621,#628,#629,#636));
#638=FACE_OUTER_BOUND('',#637,.T.);
#639=ADVANCED_FACE('',(#638),#618,.T.);
#640=CARTESIAN_POINT('',(1.600000000000000,0.625000000000000,0.100000000000000));
#641=DIRECTION('',(-8.881784E-017,1.0,0.0));
#642=DIRECTION('',(0.707106781186548,0.0,-0.707106781186547));
#643=AXIS2_PLACEMENT_3D('',#640,#641,#642);
#644=CYLINDRICAL_SURFACE('',#643,0.100000000000000);
#645=ORIENTED_EDGE('',*,*,#204,.T.);
#646=CARTESIAN_POINT('',(1.700000000000000,1.250000000000000,0.100000000000000));
#647=VERTEX_POINT('',#646);
#648=CARTESIAN_POINT('',(1.600000000000000,1.250000000000000,0.100000000000000));
#649=DIRECTION('',(0.0,1.000000000000000,0.0));
#650=DIRECTION('',(0.707106781186548,0.0,-0.707106781186547));
#651=AXIS2_PLACEMENT_3D('',#648,#649,#650);
#652=CIRCLE('',#651,0.100000000000000);
#653=EDGE_CURVE('',#647,#199,#652,.T.);
#654=ORIENTED_EDGE('',*,*,#653,.F.);
#655=CARTESIAN_POINT('',(1.700000000000000,1.250000000000000,0.100000000000000));
#656=DIRECTION('',(0.0,-1.0,0.0));
#657=VECTOR('',#656,2.500000000000000);
#658=LINE('',#655,#657);
#659=EDGE_CURVE('',#647,#165,#658,.T.);
#660=ORIENTED_EDGE('',*,*,#659,.T.);
#661=ORIENTED_EDGE('',*,*,#627,.F.);
#662=EDGE_LOOP('',(#645,#654,#660,#661));
#663=FACE_OUTER_BOUND('',#662,.T.);
#664=ADVANCED_FACE('',(#663),#644,.T.);
#665=CARTESIAN_POINT('',(1.600000000000000,-1.250000000000000,0.0));
#666=DIRECTION('',(0.0,0.0,1.0));
#667=DIRECTION('',(0.707106781186548,-0.707106781186548,0.0));
#668=AXIS2_PLACEMENT_3D('',#665,#666,#667);
#669=CYLINDRICAL_SURFACE('',#668,0.100000000000000);
#670=ORIENTED_EDGE('',*,*,#162,.T.);
#671=CARTESIAN_POINT('',(1.600000000000000,-1.250000000000000,1.580000000000000));
#672=DIRECTION('',(0.0,0.0,1.000000000000000));
#673=DIRECTION('',(0.707106781186547,-0.707106781186547,0.0));
#674=AXIS2_PLACEMENT_3D('',#671,#672,#673);
#675=CIRCLE('',#674,0.100000000000000);
#676=EDGE_CURVE('',#522,#157,#675,.T.);
#677=ORIENTED_EDGE('',*,*,#676,.F.);
#678=ORIENTED_EDGE('',*,*,#558,.F.);
#679=ORIENTED_EDGE('',*,*,#635,.F.);
#680=EDGE_LOOP('',(#670,#677,#678,#679));
#681=FACE_OUTER_BOUND('',#680,.T.);
#682=ADVANCED_FACE('',(#681),#669,.T.);
#683=CARTESIAN_POINT('',(1.600000000000000,1.250000000000000,0.100000000000000));
#684=DIRECTION('',(0.0,0.0,1.0));
#685=DIRECTION('',(1.0,0.0,0.0));
#686=AXIS2_PLACEMENT_3D('',#683,#684,#685);
#687=SPHERICAL_SURFACE('',#686,0.100000000000000);
#688=CARTESIAN_POINT('',(1.600000000000000,1.250000000000000,0.100000000000000));
#689=DIRECTION('',(0.0,0.0,1.000000000000000));
#690=DIRECTION('',(0.707106781186547,0.707106781186547,0.0));
#691=AXIS2_PLACEMENT_3D('',#688,#689,#690);
#692=CIRCLE('',#691,0.100000000000000);
#693=EDGE_CURVE('',#647,#71,#692,.T.);
#694=ORIENTED_EDGE('',*,*,#693,.F.);
#695=ORIENTED_EDGE('',*,*,#653,.T.);
#696=ORIENTED_EDGE('',*,*,#228,.T.);
#697=ORIENTED_EDGE('',*,*,#373,.T.);
#698=ORIENTED_EDGE('',*,*,#436,.T.);
#699=ORIENTED_EDGE('',*,*,#87,.F.);
#700=EDGE_LOOP('',(#694,#695,#696,#697,#698,#699));
#701=FACE_OUTER_BOUND('',#700,.T.);
#702=ADVANCED_FACE('',(#701),#687,.T.);
#703=CARTESIAN_POINT('',(1.700000000000000,1.250000000000000,0.0));
#704=DIRECTION('',(1.0,0.0,0.0));
#705=DIRECTION('',(0.0,0.0,-1.0));
#706=AXIS2_PLACEMENT_3D('',#703,#704,#705);
#707=PLANE('',#706);
#708=ORIENTED_EDGE('',*,*,#659,.F.);
#709=CARTESIAN_POINT('',(1.700000000000000,1.250000000000000,1.580000000000000));
#710=VERTEX_POINT('',#709);
#711=CARTESIAN_POINT('',(1.700000000000000,1.250000000000000,0.100000000000000));
#712=DIRECTION('',(0.0,0.0,1.0));
#713=VECTOR('',#712,1.480000000000000);
#714=LINE('',#711,#713);
#715=EDGE_CURVE('',#647,#710,#714,.T.);
#716=ORIENTED_EDGE('',*,*,#715,.T.);
#717=CARTESIAN_POINT('',(1.700000000000000,-1.250000000000000,1.580000000000000));
#718=DIRECTION('',(0.0,1.0,0.0));
#719=VECTOR('',#718,2.500000000000000);
#720=LINE('',#717,#719);
#721=EDGE_CURVE('',#174,#710,#720,.T.);
#722=ORIENTED_EDGE('',*,*,#721,.F.);
#723=ORIENTED_EDGE('',*,*,#179,.F.);
#724=EDGE_LOOP('',(#708,#716,#722,#723));
#725=FACE_OUTER_BOUND('',#724,.T.);
#726=ADVANCED_FACE('',(#725),#707,.T.);
#727=CARTESIAN_POINT('',(1.600000000000000,1.250000000000000,1.580000000000000));
#728=DIRECTION('',(0.0,0.0,1.0));
#729=DIRECTION('',(1.0,0.0,0.0));
#730=AXIS2_PLACEMENT_3D('',#727,#728,#729);
#731=SPHERICAL_SURFACE('',#730,0.100000000000000);
#732=CARTESIAN_POINT('',(1.600000000000000,1.250000000000000,1.580000000000000));
#733=DIRECTION('',(0.0,-1.000000000000000,0.0));
#734=DIRECTION('',(0.707106781186547,0.0,0.707106781186547));
#735=AXIS2_PLACEMENT_3D('',#732,#733,#734);
#736=CIRCLE('',#735,0.100000000000000);
#737=EDGE_CURVE('',#710,#113,#736,.T.);
#738=ORIENTED_EDGE('',*,*,#737,.F.);
#739=CARTESIAN_POINT('',(1.600000000000000,1.250000000000000,1.580000000000000));
#740=DIRECTION('',(0.0,0.0,1.000000000000000));
#741=DIRECTION('',(0.707106781186547,0.707106781186547,0.0));
#742=AXIS2_PLACEMENT_3D('',#739,#740,#741);
#743=CIRCLE('',#742,0.100000000000000);
#744=EDGE_CURVE('',#710,#73,#743,.T.);
#745=ORIENTED_EDGE('',*,*,#744,.T.);
#746=ORIENTED_EDGE('',*,*,#102,.T.);
#747=ORIENTED_EDGE('',*,*,#476,.T.);
#748=ORIENTED_EDGE('',*,*,#348,.T.);
#749=ORIENTED_EDGE('',*,*,#129,.F.);
#750=EDGE_LOOP('',(#738,#745,#746,#747,#748,#749));
#751=FACE_OUTER_BOUND('',#750,.T.);
#752=ADVANCED_FACE('',(#751),#731,.T.);
#753=CARTESIAN_POINT('',(1.600000000000000,0.625000000000000,1.580000000000000));
#754=DIRECTION('',(8.881784E-017,-1.0,0.0));
#755=DIRECTION('',(0.707106781186547,0.0,0.707106781186547));
#756=AXIS2_PLACEMENT_3D('',#753,#754,#755);
#757=CYLINDRICAL_SURFACE('',#756,0.100000000000000);
#758=ORIENTED_EDGE('',*,*,#120,.T.);
#759=CARTESIAN_POINT('',(1.600000000000000,-1.250000000000000,1.580000000000000));
#760=DIRECTION('',(-1.570092E-015,-1.000000000000000,-1.570092E-015));
#761=DIRECTION('',(0.707106781186547,-2.220446E-015,0.707106781186547));
#762=AXIS2_PLACEMENT_3D('',#759,#760,#761);
#763=CIRCLE('',#762,0.100000000000000);
#764=EDGE_CURVE('',#174,#115,#763,.T.);
#765=ORIENTED_EDGE('',*,*,#764,.F.);
#766=ORIENTED_EDGE('',*,*,#721,.T.);
#767=ORIENTED_EDGE('',*,*,#737,.T.);
#768=EDGE_LOOP('',(#758,#765,#766,#767));
#769=FACE_OUTER_BOUND('',#768,.T.);
#770=ADVANCED_FACE('',(#769),#757,.T.);
#771=CARTESIAN_POINT('',(1.600000000000000,-1.250000000000000,1.580000000000000));
#772=DIRECTION('',(0.0,0.0,1.0));
#773=DIRECTION('',(1.0,0.0,0.0));
#774=AXIS2_PLACEMENT_3D('',#771,#772,#773);
#775=SPHERICAL_SURFACE('',#774,0.100000000000000);
#776=ORIENTED_EDGE('',*,*,#764,.T.);
#777=ORIENTED_EDGE('',*,*,#144,.T.);
#778=ORIENTED_EDGE('',*,*,#293,.T.);
#779=ORIENTED_EDGE('',*,*,#534,.T.);
#780=ORIENTED_EDGE('',*,*,#676,.T.);
#781=ORIENTED_EDGE('',*,*,#186,.T.);
#782=EDGE_LOOP('',(#776,#777,#778,#779,#780,#781));
#783=FACE_OUTER_BOUND('',#782,.T.);
#784=ADVANCED_FACE('',(#783),#775,.T.);
#785=CARTESIAN_POINT('',(1.600000000000000,1.250000000000000,0.0));
#786=DIRECTION('',(0.0,0.0,1.0));
#787=DIRECTION('',(0.707106781186548,0.707106781186548,0.0));
#788=AXIS2_PLACEMENT_3D('',#785,#786,#787);
#789=CYLINDRICAL_SURFACE('',#788,0.100000000000000);
#790=ORIENTED_EDGE('',*,*,#78,.T.);
#791=ORIENTED_EDGE('',*,*,#744,.F.);
#792=ORIENTED_EDGE('',*,*,#715,.F.);
#793=ORIENTED_EDGE('',*,*,#693,.T.);
#794=EDGE_LOOP('',(#790,#791,#792,#793));
#795=FACE_OUTER_BOUND('',#794,.T.);
#796=ADVANCED_FACE('',(#795),#789,.T.);
#797=CLOSED_SHELL('',(#106,#148,#190,#232,#272,#312,#352,#392,#409,#440,#464,#488,#505,#538,#569,#595,#613,#639,#664,#682,#702,#726,#752,#770,#784,#796));
#798=MANIFOLD_SOLID_BREP('377',#797);
#799=COLOUR_RGB('254',0.866000000000000,0.866000000000000,0.866000000000000);
#800=SURFACE_STYLE_USAGE(.BOTH.,#801);
#801=SURFACE_SIDE_STYLE('NONE',(#802));
#802=SURFACE_STYLE_FILL_AREA(#803);
#803=FILL_AREA_STYLE('NONE',(#804));
#804=FILL_AREA_STYLE_COLOUR('NONE',#799);
#805=PRESENTATION_STYLE_ASSIGNMENT((#800));
#806=STYLED_ITEM('NONE',(#805),#798);
#807=MECHANICAL_DESIGN_GEOMETRIC_PRESENTATION_REPRESENTATION('NONE',(#806,#1246,#1981),#28);
#808=PRESENTATION_LAYER_ASSIGNMENT('3D','None',(#798,#1238,#1980));
#809=CARTESIAN_POINT('',(-0.470000000000001,1.250000000000000,0.100000000000000));
#810=DIRECTION('',(1.0,-1.181088E-016,0.0));
#811=DIRECTION('',(0.0,0.707106781186549,-0.707106781186546));
#812=AXIS2_PLACEMENT_3D('',#809,#810,#811);
#813=CYLINDRICAL_SURFACE('',#812,0.100000000000000);
#814=CARTESIAN_POINT('',(-1.095000000000000,1.320710678118655,0.029289321881345));
#815=VERTEX_POINT('',#814);
#816=CARTESIAN_POINT('',(1.095000000000000,1.320710678118655,0.029289321881345));
#817=VERTEX_POINT('',#816);
#818=CARTESIAN_POINT('',(-1.095000000000000,1.320710678118655,0.029289321881345));
#819=DIRECTION('',(1.0,0.0,0.0));
#820=VECTOR('',#819,2.190000000000000);
#821=LINE('',#818,#820);
#822=EDGE_CURVE('',#815,#817,#821,.T.);
#823=ORIENTED_EDGE('',*,*,#822,.F.);
#824=CARTESIAN_POINT('',(-1.095000000000002,1.350000000000001,0.100000000000000));
#825=VERTEX_POINT('',#824);
#826=CARTESIAN_POINT('',(-1.095000000000000,1.250000000000000,0.100000000000000));
#827=DIRECTION('',(1.000000000000000,0.0,0.0));
#828=DIRECTION('',(0.0,0.707106781186549,-0.707106781186546));
#829=AXIS2_PLACEMENT_3D('',#826,#827,#828);
#830=CIRCLE('',#829,0.100000000000000);
#831=EDGE_CURVE('',#815,#825,#830,.T.);
#832=ORIENTED_EDGE('',*,*,#831,.T.);
#833=CARTESIAN_POINT('',(1.095000000000000,1.350000000000001,0.100000000000000));
#834=VERTEX_POINT('',#833);
#835=CARTESIAN_POINT('',(-1.095000000000002,1.350000000000001,0.100000000000000));
#836=DIRECTION('',(1.0,0.0,0.0));
#837=VECTOR('',#836,2.190000000000002);
#838=LINE('',#835,#837);
#839=EDGE_CURVE('',#825,#834,#838,.T.);
#840=ORIENTED_EDGE('',*,*,#839,.T.);
#841=CARTESIAN_POINT('',(1.095000000000000,1.250000000000000,0.100000000000000));
#842=DIRECTION('',(-1.000000000000000,0.0,0.0));
#843=DIRECTION('',(0.0,0.707106781186549,-0.707106781186546));
#844=AXIS2_PLACEMENT_3D('',#841,#842,#843);
#845=CIRCLE('',#844,0.100000000000000);
#846=EDGE_CURVE('',#834,#817,#845,.T.);
#847=ORIENTED_EDGE('',*,*,#846,.T.);
#848=EDGE_LOOP('',(#823,#832,#840,#847));
#849=FACE_OUTER_BOUND('',#848,.T.);
#850=ADVANCED_FACE('',(#849),#813,.T.);
#851=CARTESIAN_POINT('',(-0.470000000000001,1.250000000000000,1.580000000000000));
#852=DIRECTION('',(1.0,-1.181088E-016,0.0));
#853=DIRECTION('',(0.0,0.707106781186549,0.707106781186546));
#854=AXIS2_PLACEMENT_3D('',#851,#852,#853);
#855=CYLINDRICAL_SURFACE('',#854,0.100000000000000);
#856=CARTESIAN_POINT('',(-1.095000000000000,1.320710678118655,1.650710678118655));
#857=VERTEX_POINT('',#856);
#858=CARTESIAN_POINT('',(1.095000000000000,1.320710678118655,1.650710678118655));
#859=VERTEX_POINT('',#858);
#860=CARTESIAN_POINT('',(-1.095000000000000,1.320710678118655,1.650710678118655));
#861=DIRECTION('',(1.0,0.0,0.0));
#862=VECTOR('',#861,2.190000000000000);
#863=LINE('',#860,#862);
#864=EDGE_CURVE('',#857,#859,#863,.T.);
#865=ORIENTED_EDGE('',*,*,#864,.F.);
#866=CARTESIAN_POINT('',(-1.095000000000002,1.250000000000000,1.680000000000000));
#867=VERTEX_POINT('',#866);
#868=CARTESIAN_POINT('',(-1.095000000000000,1.250000000000000,1.580000000000000));
#869=DIRECTION('',(1.000000000000000,0.0,0.0));
#870=DIRECTION('',(0.0,0.707106781186549,0.707106781186546));
#871=AXIS2_PLACEMENT_3D('',#868,#869,#870);
#872=CIRCLE('',#871,0.100000000000000);
#873=EDGE_CURVE('',#857,#867,#872,.T.);
#874=ORIENTED_EDGE('',*,*,#873,.T.);
#875=CARTESIAN_POINT('',(1.095000000000000,1.250000000000000,1.680000000000000));
#876=VERTEX_POINT('',#875);
#877=CARTESIAN_POINT('',(-1.095000000000002,1.250000000000000,1.680000000000000));
#878=DIRECTION('',(1.0,0.0,0.0));
#879=VECTOR('',#878,2.190000000000002);
#880=LINE('',#877,#879);
#881=EDGE_CURVE('',#867,#876,#880,.T.);
#882=ORIENTED_EDGE('',*,*,#881,.T.);
#883=CARTESIAN_POINT('',(1.095000000000000,1.250000000000000,1.580000000000000));
#884=DIRECTION('',(-1.000000000000000,0.0,0.0));
#885=DIRECTION('',(0.0,0.707106781186549,0.707106781186546));
#886=AXIS2_PLACEMENT_3D('',#883,#884,#885);
#887=CIRCLE('',#886,0.100000000000000);
#888=EDGE_CURVE('',#876,#859,#887,.T.);
#889=ORIENTED_EDGE('',*,*,#888,.T.);
#890=EDGE_LOOP('',(#865,#874,#882,#889));
#891=FACE_OUTER_BOUND('',#890,.T.);
#892=ADVANCED_FACE('',(#891),#855,.T.);
#893=CARTESIAN_POINT('',(0.470000000000000,-1.250000000000000,1.580000000000000));
#894=DIRECTION('',(-1.0,0.0,0.0));
#895=DIRECTION('',(0.0,-0.707106781186547,0.707106781186547));
#896=AXIS2_PLACEMENT_3D('',#893,#894,#895);
#897=CYLINDRICAL_SURFACE('',#896,0.100000000000000);
#898=CARTESIAN_POINT('',(1.095000000000000,-1.320710678118654,1.650710678118655));
#899=VERTEX_POINT('',#898);
#900=CARTESIAN_POINT('',(-1.095000000000000,-1.320710678118654,1.650710678118655));
#901=VERTEX_POINT('',#900);
#902=CARTESIAN_POINT('',(1.095000000000000,-1.320710678118654,1.650710678118655));
#903=DIRECTION('',(-1.0,0.0,0.0));
#904=VECTOR('',#903,2.190000000000000);
#905=LINE('',#902,#904);
#906=EDGE_CURVE('',#899,#901,#905,.T.);
#907=ORIENTED_EDGE('',*,*,#906,.F.);
#908=CARTESIAN_POINT('',(1.095000000000000,-1.250000000000000,1.680000000000000));
#909=VERTEX_POINT('',#908);
#910=CARTESIAN_POINT('',(1.095000000000000,-1.250000000000000,1.580000000000000));
#911=DIRECTION('',(-1.000000000000000,0.0,0.0));
#912=DIRECTION('',(0.0,-0.707106781186547,0.707106781186547));
#913=AXIS2_PLACEMENT_3D('',#910,#911,#912);
#914=CIRCLE('',#913,0.100000000000000);
#915=EDGE_CURVE('',#899,#909,#914,.T.);
#916=ORIENTED_EDGE('',*,*,#915,.T.);
#917=CARTESIAN_POINT('',(-1.095000000000000,-1.250000000000000,1.680000000000000));
#918=VERTEX_POINT('',#917);
#919=CARTESIAN_POINT('',(1.095000000000000,-1.250000000000000,1.680000000000000));
#920=DIRECTION('',(-1.0,0.0,0.0));
#921=VECTOR('',#920,2.190000000000000);
#922=LINE('',#919,#921);
#923=EDGE_CURVE('',#909,#918,#922,.T.);
#924=ORIENTED_EDGE('',*,*,#923,.T.);
#925=CARTESIAN_POINT('',(-1.095000000000000,-1.250000000000000,1.580000000000000));
#926=DIRECTION('',(1.000000000000000,0.0,0.0));
#927=DIRECTION('',(0.0,-0.707106781186547,0.707106781186547));
#928=AXIS2_PLACEMENT_3D('',#925,#926,#927);
#929=CIRCLE('',#928,0.100000000000000);
#930=EDGE_CURVE('',#918,#901,#929,.T.);
#931=ORIENTED_EDGE('',*,*,#930,.T.);
#932=EDGE_LOOP('',(#907,#916,#924,#931));
#933=FACE_OUTER_BOUND('',#932,.T.);
#934=ADVANCED_FACE('',(#933),#897,.T.);
#935=CARTESIAN_POINT('',(0.470000000000000,-1.250000000000000,0.100000000000000));
#936=DIRECTION('',(-1.0,0.0,0.0));
#937=DIRECTION('',(0.0,-0.707106781186548,-0.707106781186547));
#938=AXIS2_PLACEMENT_3D('',#935,#936,#937);
#939=CYLINDRICAL_SURFACE('',#938,0.100000000000000);
#940=CARTESIAN_POINT('',(1.095000000000000,-1.320710678118654,0.029289321881345));
#941=VERTEX_POINT('',#940);
#942=CARTESIAN_POINT('',(-1.095000000000000,-1.320710678118654,0.029289321881345));
#943=VERTEX_POINT('',#942);
#944=CARTESIAN_POINT('',(1.095000000000000,-1.320710678118654,0.029289321881345));
#945=DIRECTION('',(-1.0,0.0,0.0));
#946=VECTOR('',#945,2.190000000000000);
#947=LINE('',#944,#946);
#948=EDGE_CURVE('',#941,#943,#947,.T.);
#949=ORIENTED_EDGE('',*,*,#948,.F.);
#950=CARTESIAN_POINT('',(1.095000000000000,-1.350000000000000,0.100000000000000));
#951=VERTEX_POINT('',#950);
#952=CARTESIAN_POINT('',(1.095000000000000,-1.250000000000000,0.100000000000000));
#953=DIRECTION('',(-1.000000000000000,0.0,0.0));
#954=DIRECTION('',(0.0,-0.707106781186548,-0.707106781186547));
#955=AXIS2_PLACEMENT_3D('',#952,#953,#954);
#956=CIRCLE('',#955,0.100000000000000);
#957=EDGE_CURVE('',#941,#951,#956,.T.);
#958=ORIENTED_EDGE('',*,*,#957,.T.);
#959=CARTESIAN_POINT('',(-1.095000000000000,-1.350000000000000,0.100000000000000));
#960=VERTEX_POINT('',#959);
#961=CARTESIAN_POINT('',(1.095000000000000,-1.350000000000000,0.100000000000000));
#962=DIRECTION('',(-1.0,0.0,0.0));
#963=VECTOR('',#962,2.190000000000000);
#964=LINE('',#961,#963);
#965=EDGE_CURVE('',#951,#960,#964,.T.);
#966=ORIENTED_EDGE('',*,*,#965,.T.);
#967=CARTESIAN_POINT('',(-1.095000000000000,-1.250000000000000,0.100000000000000));
#968=DIRECTION('',(1.000000000000000,0.0,0.0));
#969=DIRECTION('',(0.0,-0.707106781186548,-0.707106781186547));
#970=AXIS2_PLACEMENT_3D('',#967,#968,#969);
#971=CIRCLE('',#970,0.100000000000000);
#972=EDGE_CURVE('',#960,#943,#971,.T.);
#973=ORIENTED_EDGE('',*,*,#972,.T.);
#974=EDGE_LOOP('',(#949,#958,#966,#973));
#975=FACE_OUTER_BOUND('',#974,.T.);
#976=ADVANCED_FACE('',(#975),#939,.T.);
#977=CARTESIAN_POINT('',(-4.440892E-016,8.961558E-016,0.0));
#978=DIRECTION('',(0.0,0.0,1.0));
#979=DIRECTION('',(1.0,0.0,0.0));
#980=AXIS2_PLACEMENT_3D('',#977,#978,#979);
#981=PLANE('',#980);
#982=CARTESIAN_POINT('',(1.095000000000000,1.250000000000000,0.0));
#983=VERTEX_POINT('',#982);
#984=CARTESIAN_POINT('',(-1.095000000000002,1.250000000000000,0.0));
#985=VERTEX_POINT('',#984);
#986=CARTESIAN_POINT('',(1.095000000000000,1.250000000000000,0.0));
#987=DIRECTION('',(-1.0,0.0,0.0));
#988=VECTOR('',#987,2.190000000000002);
#989=LINE('',#986,#988);
#990=EDGE_CURVE('',#983,#985,#989,.T.);
#991=ORIENTED_EDGE('',*,*,#990,.F.);
#992=CARTESIAN_POINT('',(1.095000000000000,-1.250000000000000,0.0));
#993=VERTEX_POINT('',#992);
#994=CARTESIAN_POINT('',(1.095000000000000,1.250000000000000,0.0));
#995=DIRECTION('',(0.0,-1.0,0.0));
#996=VECTOR('',#995,2.500000000000000);
#997=LINE('',#994,#996);
#998=EDGE_CURVE('',#983,#993,#997,.T.);
#999=ORIENTED_EDGE('',*,*,#998,.T.);
#1000=CARTESIAN_POINT('',(-1.095000000000000,-1.250000000000000,0.0));
#1001=VERTEX_POINT('',#1000);
#1002=CARTESIAN_POINT('',(-1.095000000000000,-1.250000000000000,0.0));
#1003=DIRECTION('',(1.0,0.0,0.0));
#1004=VECTOR('',#1003,2.190000000000000);
#1005=LINE('',#1002,#1004);
#1006=EDGE_CURVE('',#1001,#993,#1005,.T.);
#1007=ORIENTED_EDGE('',*,*,#1006,.F.);
#1008=CARTESIAN_POINT('',(-1.095000000000000,-1.250000000000000,0.0));
#1009=DIRECTION('',(0.0,1.0,0.0));
#1010=VECTOR('',#1009,2.500000000000000);
#1011=LINE('',#1008,#1010);
#1012=EDGE_CURVE('',#1001,#985,#1011,.T.);
#1013=ORIENTED_EDGE('',*,*,#1012,.T.);
#1014=EDGE_LOOP('',(#991,#999,#1007,#1013));
#1015=FACE_OUTER_BOUND('',#1014,.T.);
#1016=ADVANCED_FACE('',(#1015),#981,.F.);
#1017=CARTESIAN_POINT('',(0.470000000000000,-1.250000000000000,0.100000000000000));
#1018=DIRECTION('',(-1.0,0.0,0.0));
#1019=DIRECTION('',(0.0,-0.707106781186548,-0.707106781186547));
#1020=AXIS2_PLACEMENT_3D('',#1017,#1018,#1019);
#1021=CYLINDRICAL_SURFACE('',#1020,0.100000000000000);
#1022=ORIENTED_EDGE('',*,*,#948,.T.);
#1023=CARTESIAN_POINT('',(-1.095000000000000,-1.250000000000000,0.100000000000000));
#1024=DIRECTION('',(1.000000000000000,0.0,0.0));
#1025=DIRECTION('',(0.0,-0.707106781186548,-0.707106781186547));
#1026=AXIS2_PLACEMENT_3D('',#1023,#1024,#1025);
#1027=CIRCLE('',#1026,0.100000000000000);
#1028=EDGE_CURVE('',#943,#1001,#1027,.T.);
#1029=ORIENTED_EDGE('',*,*,#1028,.T.);
#1030=ORIENTED_EDGE('',*,*,#1006,.T.);
#1031=CARTESIAN_POINT('',(1.095000000000000,-1.250000000000000,0.100000000000000));
#1032=DIRECTION('',(-1.000000000000000,0.0,0.0));
#1033=DIRECTION('',(0.0,-0.707106781186548,-0.707106781186547));
#1034=AXIS2_PLACEMENT_3D('',#1031,#1032,#1033);
#1035=CIRCLE('',#1034,0.100000000000000);
#1036=EDGE_CURVE('',#993,#941,#1035,.T.);
#1037=ORIENTED_EDGE('',*,*,#1036,.T.);
#1038=EDGE_LOOP('',(#1022,#1029,#1030,#1037));
#1039=FACE_OUTER_BOUND('',#1038,.T.);
#1040=ADVANCED_FACE('',(#1039),#1021,.T.);
#1041=CARTESIAN_POINT('',(0.940000000000000,-1.350000000000000,0.0));
#1042=DIRECTION('',(0.0,-1.0,0.0));
#1043=DIRECTION('',(0.0,0.0,-1.0));
#1044=AXIS2_PLACEMENT_3D('',#1041,#1042,#1043);
#1045=PLANE('',#1044);
#1046=ORIENTED_EDGE('',*,*,#965,.F.);
#1047=CARTESIAN_POINT('',(1.095000000000000,-1.350000000000000,1.580000000000000));
#1048=VERTEX_POINT('',#1047);
#1049=CARTESIAN_POINT('',(1.095000000000000,-1.350000000000000,0.100000000000000));
#1050=DIRECTION('',(0.0,0.0,1.0));
#1051=VECTOR('',#1050,1.480000000000000);
#1052=LINE('',#1049,#1051);
#1053=EDGE_CURVE('',#951,#1048,#1052,.T.);
#1054=ORIENTED_EDGE('',*,*,#1053,.T.);
#1055=CARTESIAN_POINT('',(-1.095000000000000,-1.350000000000000,1.580000000000000));
#1056=VERTEX_POINT('',#1055);
#1057=CARTESIAN_POINT('',(-1.095000000000000,-1.350000000000000,1.580000000000000));
#1058=DIRECTION('',(1.0,0.0,0.0));
#1059=VECTOR('',#1058,2.190000000000000);
#1060=LINE('',#1057,#1059);
#1061=EDGE_CURVE('',#1056,#1048,#1060,.T.);
#1062=ORIENTED_EDGE('',*,*,#1061,.F.);
#1063=CARTESIAN_POINT('',(-1.095000000000000,-1.350000000000000,0.100000000000000));
#1064=DIRECTION('',(0.0,0.0,1.0));
#1065=VECTOR('',#1064,1.480000000000000);
#1066=LINE('',#1063,#1065);
#1067=EDGE_CURVE('',#960,#1056,#1066,.T.);
#1068=ORIENTED_EDGE('',*,*,#1067,.F.);
#1069=EDGE_LOOP('',(#1046,#1054,#1062,#1068));
#1070=FACE_OUTER_BOUND('',#1069,.T.);
#1071=ADVANCED_FACE('',(#1070),#1045,.T.);
#1072=CARTESIAN_POINT('',(0.470000000000000,-1.250000000000000,1.580000000000000));
#1073=DIRECTION('',(-1.0,0.0,0.0));
#1074=DIRECTION('',(0.0,-0.707106781186547,0.707106781186547));
#1075=AXIS2_PLACEMENT_3D('',#1072,#1073,#1074);
#1076=CYLINDRICAL_SURFACE('',#1075,0.100000000000000);
#1077=ORIENTED_EDGE('',*,*,#906,.T.);
#1078=CARTESIAN_POINT('',(-1.095000000000000,-1.250000000000000,1.580000000000000));
#1079=DIRECTION('',(1.000000000000000,0.0,0.0));
#1080=DIRECTION('',(0.0,-0.707106781186547,0.707106781186547));
#1081=AXIS2_PLACEMENT_3D('',#1078,#1079,#1080);
#1082=CIRCLE('',#1081,0.100000000000000);
#1083=EDGE_CURVE('',#901,#1056,#1082,.T.);
#1084=ORIENTED_EDGE('',*,*,#1083,.T.);
#1085=ORIENTED_EDGE('',*,*,#1061,.T.);
#1086=CARTESIAN_POINT('',(1.095000000000000,-1.250000000000000,1.580000000000000));
#1087=DIRECTION('',(-1.000000000000000,0.0,0.0));
#1088=DIRECTION('',(0.0,-0.707106781186547,0.707106781186547));
#1089=AXIS2_PLACEMENT_3D('',#1086,#1087,#1088);
#1090=CIRCLE('',#1089,0.100000000000000);
#1091=EDGE_CURVE('',#1048,#899,#1090,.T.);
#1092=ORIENTED_EDGE('',*,*,#1091,.T.);
#1093=EDGE_LOOP('',(#1077,#1084,#1085,#1092));
#1094=FACE_OUTER_BOUND('',#1093,.T.);
#1095=ADVANCED_FACE('',(#1094),#1076,.T.);
#1096=CARTESIAN_POINT('',(-4.440892E-016,8.961558E-016,1.680000000000000));
#1097=DIRECTION('',(0.0,0.0,1.0));
#1098=DIRECTION('',(1.0,0.0,0.0));
#1099=AXIS2_PLACEMENT_3D('',#1096,#1097,#1098);
#1100=PLANE('',#1099);
#1101=ORIENTED_EDGE('',*,*,#881,.F.);
#1102=CARTESIAN_POINT('',(-1.095000000000000,-1.250000000000000,1.680000000000000));
#1103=DIRECTION('',(0.0,1.0,0.0));
#1104=VECTOR('',#1103,2.500000000000000);
#1105=LINE('',#1102,#1104);
#1106=EDGE_CURVE('',#918,#867,#1105,.T.);
#1107=ORIENTED_EDGE('',*,*,#1106,.F.);
#1108=ORIENTED_EDGE('',*,*,#923,.F.);
#1109=CARTESIAN_POINT('',(1.095000000000000,1.250000000000000,1.680000000000000));
#1110=DIRECTION('',(0.0,-1.0,0.0));
#1111=VECTOR('',#1110,2.500000000000000);
#1112=LINE('',#1109,#1111);
#1113=EDGE_CURVE('',#876,#909,#1112,.T.);
#1114=ORIENTED_EDGE('',*,*,#1113,.F.);
#1115=EDGE_LOOP('',(#1101,#1107,#1108,#1114));
#1116=FACE_OUTER_BOUND('',#1115,.T.);
#1117=ADVANCED_FACE('',(#1116),#1100,.T.);
#1118=CARTESIAN_POINT('',(-0.470000000000001,1.250000000000000,1.580000000000000));
#1119=DIRECTION('',(1.0,-1.181088E-016,0.0));
#1120=DIRECTION('',(0.0,0.707106781186549,0.707106781186546));
#1121=AXIS2_PLACEMENT_3D('',#1118,#1119,#1120);
#1122=CYLINDRICAL_SURFACE('',#1121,0.100000000000000);
#1123=ORIENTED_EDGE('',*,*,#864,.T.);
#1124=CARTESIAN_POINT('',(1.095000000000000,1.350000000000001,1.580000000000000));
#1125=VERTEX_POINT('',#1124);
#1126=CARTESIAN_POINT('',(1.095000000000000,1.250000000000000,1.580000000000000));
#1127=DIRECTION('',(-1.000000000000000,0.0,0.0));
#1128=DIRECTION('',(0.0,0.707106781186549,0.707106781186546));
#1129=AXIS2_PLACEMENT_3D('',#1126,#1127,#1128);
#1130=CIRCLE('',#1129,0.100000000000000);
#1131=EDGE_CURVE('',#859,#1125,#1130,.T.);
#1132=ORIENTED_EDGE('',*,*,#1131,.T.);
#1133=CARTESIAN_POINT('',(-1.095000000000002,1.350000000000001,1.580000000000000));
#1134=VERTEX_POINT('',#1133);
#1135=CARTESIAN_POINT('',(1.095000000000000,1.350000000000001,1.580000000000000));
#1136=DIRECTION('',(-1.0,0.0,0.0));
#1137=VECTOR('',#1136,2.190000000000002);
#1138=LINE('',#1135,#1137);
#1139=EDGE_CURVE('',#1125,#1134,#1138,.T.);
#1140=ORIENTED_EDGE('',*,*,#1139,.T.);
#1141=CARTESIAN_POINT('',(-1.095000000000000,1.250000000000000,1.580000000000000));
#1142=DIRECTION('',(1.000000000000000,0.0,0.0));
#1143=DIRECTION('',(0.0,0.707106781186549,0.707106781186546));
#1144=AXIS2_PLACEMENT_3D('',#1141,#1142,#1143);
#1145=CIRCLE('',#1144,0.100000000000000);
#1146=EDGE_CURVE('',#1134,#857,#1145,.T.);
#1147=ORIENTED_EDGE('',*,*,#1146,.T.);
#1148=EDGE_LOOP('',(#1123,#1132,#1140,#1147));
#1149=FACE_OUTER_BOUND('',#1148,.T.);
#1150=ADVANCED_FACE('',(#1149),#1122,.T.);
#1151=CARTESIAN_POINT('',(-0.940000000000002,1.350000000000001,0.0));
#1152=DIRECTION('',(0.0,1.0,0.0));
#1153=DIRECTION('',(0.0,0.0,1.0));
#1154=AXIS2_PLACEMENT_3D('',#1151,#1152,#1153);
#1155=PLANE('',#1154);
#1156=ORIENTED_EDGE('',*,*,#839,.F.);
#1157=CARTESIAN_POINT('',(-1.095000000000002,1.350000000000001,0.100000000000000));
#1158=DIRECTION('',(0.0,0.0,1.0));
#1159=VECTOR('',#1158,1.480000000000000);
#1160=LINE('',#1157,#1159);
#1161=EDGE_CURVE('',#825,#1134,#1160,.T.);
#1162=ORIENTED_EDGE('',*,*,#1161,.T.);
#1163=ORIENTED_EDGE('',*,*,#1139,.F.);
#1164=CARTESIAN_POINT('',(1.095000000000000,1.350000000000001,0.100000000000000));
#1165=DIRECTION('',(0.0,0.0,1.0));
#1166=VECTOR('',#1165,1.480000000000000);
#1167=LINE('',#1164,#1166);
#1168=EDGE_CURVE('',#834,#1125,#1167,.T.);
#1169=ORIENTED_EDGE('',*,*,#1168,.F.);
#1170=EDGE_LOOP('',(#1156,#1162,#1163,#1169));
#1171=FACE_OUTER_BOUND('',#1170,.T.);
#1172=ADVANCED_FACE('',(#1171),#1155,.T.);
#1173=CARTESIAN_POINT('',(-1.095000000000000,-1.350000000000000,0.0));
#1174=DIRECTION('',(-1.0,0.0,0.0));
#1175=DIRECTION('',(0.0,0.0,1.0));
#1176=AXIS2_PLACEMENT_3D('',#1173,#1174,#1175);
#1177=PLANE('',#1176);
#1178=CARTESIAN_POINT('',(-1.095000000000000,1.250000000000000,0.100000000000000));
#1179=DIRECTION('',(1.000000000000000,0.0,0.0));
#1180=DIRECTION('',(0.0,0.707106781186549,-0.707106781186546));
#1181=AXIS2_PLACEMENT_3D('',#1178,#1179,#1180);
#1182=CIRCLE('',#1181,0.100000000000000);
#1183=EDGE_CURVE('',#985,#815,#1182,.T.);
#1184=ORIENTED_EDGE('',*,*,#1183,.F.);
#1185=ORIENTED_EDGE('',*,*,#1012,.F.);
#1186=ORIENTED_EDGE('',*,*,#1028,.F.);
#1187=ORIENTED_EDGE('',*,*,#972,.F.);
#1188=ORIENTED_EDGE('',*,*,#1067,.T.);
#1189=ORIENTED_EDGE('',*,*,#1083,.F.);
#1190=ORIENTED_EDGE('',*,*,#930,.F.);
#1191=ORIENTED_EDGE('',*,*,#1106,.T.);
#1192=ORIENTED_EDGE('',*,*,#873,.F.);
#1193=ORIENTED_EDGE('',*,*,#1146,.F.);
#1194=ORIENTED_EDGE('',*,*,#1161,.F.);
#1195=ORIENTED_EDGE('',*,*,#831,.F.);
#1196=EDGE_LOOP('',(#1184,#1185,#1186,#1187,#1188,#1189,#1190,#1191,#1192,#1193,#1194,#1195));
#1197=FACE_OUTER_BOUND('',#1196,.T.);
#1198=ADVANCED_FACE('',(#1197),#1177,.T.);
#1199=CARTESIAN_POINT('',(-0.470000000000001,1.250000000000000,0.100000000000000));
#1200=DIRECTION('',(1.0,-1.181088E-016,0.0));
#1201=DIRECTION('',(0.0,0.707106781186549,-0.707106781186546));
#1202=AXIS2_PLACEMENT_3D('',#1199,#1200,#1201);
#1203=CYLINDRICAL_SURFACE('',#1202,0.100000000000000);
#1204=ORIENTED_EDGE('',*,*,#822,.T.);
#1205=CARTESIAN_POINT('',(1.095000000000000,1.250000000000000,0.100000000000000));
#1206=DIRECTION('',(-1.000000000000000,0.0,0.0));
#1207=DIRECTION('',(0.0,0.707106781186549,-0.707106781186546));
#1208=AXIS2_PLACEMENT_3D('',#1205,#1206,#1207);
#1209=CIRCLE('',#1208,0.100000000000000);
#1210=EDGE_CURVE('',#817,#983,#1209,.T.);
#1211=ORIENTED_EDGE('',*,*,#1210,.T.);
#1212=ORIENTED_EDGE('',*,*,#990,.T.);
#1213=ORIENTED_EDGE('',*,*,#1183,.T.);
#1214=EDGE_LOOP('',(#1204,#1211,#1212,#1213));
#1215=FACE_OUTER_BOUND('',#1214,.T.);
#1216=ADVANCED_FACE('',(#1215),#1203,.T.);
#1217=CARTESIAN_POINT('',(1.095000000000000,1.350000000000001,0.0));
#1218=DIRECTION('',(1.0,0.0,0.0));
#1219=DIRECTION('',(0.0,0.0,-1.0));
#1220=AXIS2_PLACEMENT_3D('',#1217,#1218,#1219);
#1221=PLANE('',#1220);
#1222=ORIENTED_EDGE('',*,*,#846,.F.);
#1223=ORIENTED_EDGE('',*,*,#1168,.T.);
#1224=ORIENTED_EDGE('',*,*,#1131,.F.);
#1225=ORIENTED_EDGE('',*,*,#888,.F.);
#1226=ORIENTED_EDGE('',*,*,#1113,.T.);
#1227=ORIENTED_EDGE('',*,*,#915,.F.);
#1228=ORIENTED_EDGE('',*,*,#1091,.F.);
#1229=ORIENTED_EDGE('',*,*,#1053,.F.);
#1230=ORIENTED_EDGE('',*,*,#957,.F.);
#1231=ORIENTED_EDGE('',*,*,#1036,.F.);
#1232=ORIENTED_EDGE('',*,*,#998,.F.);
#1233=ORIENTED_EDGE('',*,*,#1210,.F.);
#1234=EDGE_LOOP('',(#1222,#1223,#1224,#1225,#1226,#1227,#1228,#1229,#1230,#1231,#1232,#1233));
#1235=FACE_OUTER_BOUND('',#1234,.T.);
#1236=ADVANCED_FACE('',(#1235),#1221,.T.);
#1237=CLOSED_SHELL('',(#850,#892,#934,#976,#1016,#1040,#1071,#1095,#1117,#1150,#1172,#1198,#1216,#1236));
#1238=MANIFOLD_SOLID_BREP('376',#1237);
#1239=COLOUR_RGB('35',0.500000000000000,0.375000000000000,0.250000000000000);
#1240=SURFACE_STYLE_USAGE(.BOTH.,#1241);
#1241=SURFACE_SIDE_STYLE('NONE',(#1242));
#1242=SURFACE_STYLE_FILL_AREA(#1243);
#1243=FILL_AREA_STYLE('NONE',(#1244));
#1244=FILL_AREA_STYLE_COLOUR('NONE',#1239);
#1245=PRESENTATION_STYLE_ASSIGNMENT((#1240));
#1246=STYLED_ITEM('NONE',(#1245),#1238);
#1247=CARTESIAN_POINT('',(-1.600000000000001,-0.625000000000000,1.580000000000000));
#1248=DIRECTION('',(-6.217249E-016,1.0,0.0));
#1249=DIRECTION('',(-0.707106781186547,0.0,0.707106781186547));
#1250=AXIS2_PLACEMENT_3D('',#1247,#1248,#1249);
#1251=CYLINDRICAL_SURFACE('',#1250,0.100000000000000);
#1252=CARTESIAN_POINT('',(-1.670710678118655,-1.250000000000000,1.650710678118655));
#1253=VERTEX_POINT('',#1252);
#1254=CARTESIAN_POINT('',(-1.670710678118657,1.250000000000001,1.650710678118655));
#1255=VERTEX_POINT('',#1254);
#1256=CARTESIAN_POINT('',(-1.670710678118655,-1.250000000000000,1.650710678118655));
#1257=DIRECTION('',(0.0,1.0,0.0));
#1258=VECTOR('',#1257,2.500000000000001);
#1259=LINE('',#1256,#1258);
#1260=EDGE_CURVE('',#1253,#1255,#1259,.T.);
#1261=ORIENTED_EDGE('',*,*,#1260,.F.);
#1262=CARTESIAN_POINT('',(-1.600000000000001,-1.250000000000000,1.680000000000000));
#1263=VERTEX_POINT('',#1262);
#1264=CARTESIAN_POINT('',(-1.600000000000001,-1.250000000000000,1.580000000000000));
#1265=DIRECTION('',(0.0,1.000000000000000,0.0));
#1266=DIRECTION('',(-0.707106781186547,0.0,0.707106781186547));
#1267=AXIS2_PLACEMENT_3D('',#1264,#1265,#1266);
#1268=CIRCLE('',#1267,0.100000000000000);
#1269=EDGE_CURVE('',#1253,#1263,#1268,.T.);
#1270=ORIENTED_EDGE('',*,*,#1269,.T.);
#1271=CARTESIAN_POINT('',(-1.600000000000002,1.250000000000001,1.680000000000000));
#1272=VERTEX_POINT('',#1271);
#1273=CARTESIAN_POINT('',(-1.600000000000001,-1.250000000000000,1.680000000000000));
#1274=DIRECTION('',(0.0,1.0,0.0));
#1275=VECTOR('',#1274,2.500000000000001);
#1276=LINE('',#1273,#1275);
#1277=EDGE_CURVE('',#1263,#1272,#1276,.T.);
#1278=ORIENTED_EDGE('',*,*,#1277,.T.);
#1279=CARTESIAN_POINT('',(-1.600000000000002,1.250000000000001,1.580000000000000));
#1280=DIRECTION('',(0.0,1.000000000000000,0.0));
#1281=DIRECTION('',(-0.707106781186547,0.0,0.707106781186547));
#1282=AXIS2_PLACEMENT_3D('',#1279,#1280,#1281);
#1283=CIRCLE('',#1282,0.100000000000000);
#1284=EDGE_CURVE('',#1255,#1272,#1283,.T.);
#1285=ORIENTED_EDGE('',*,*,#1284,.F.);
#1286=EDGE_LOOP('',(#1261,#1270,#1278,#1285));
#1287=FACE_OUTER_BOUND('',#1286,.T.);
#1288=ADVANCED_FACE('',(#1287),#1251,.T.);
#1289=CARTESIAN_POINT('',(-1.600000000000001,-1.250000000000000,0.0));
#1290=DIRECTION('',(0.0,0.0,1.0));
#1291=DIRECTION('',(-0.707106781186547,-0.707106781186547,0.0));
#1292=AXIS2_PLACEMENT_3D('',#1289,#1290,#1291);
#1293=CYLINDRICAL_SURFACE('',#1292,0.100000000000000);
#1294=CARTESIAN_POINT('',(-1.670710678118655,-1.320710678118655,0.100000000000000));
#1295=VERTEX_POINT('',#1294);
#1296=CARTESIAN_POINT('',(-1.670710678118655,-1.320710678118655,1.580000000000000));
#1297=VERTEX_POINT('',#1296);
#1298=CARTESIAN_POINT('',(-1.670710678118655,-1.320710678118655,0.100000000000000));
#1299=DIRECTION('',(0.0,0.0,1.0));
#1300=VECTOR('',#1299,1.480000000000000);
#1301=LINE('',#1298,#1300);
#1302=EDGE_CURVE('',#1295,#1297,#1301,.T.);
#1303=ORIENTED_EDGE('',*,*,#1302,.F.);
#1304=CARTESIAN_POINT('',(-1.600000000000001,-1.350000000000000,0.100000000000000));
#1305=VERTEX_POINT('',#1304);
#1306=CARTESIAN_POINT('',(-1.600000000000001,-1.250000000000000,0.100000000000000));
#1307=DIRECTION('',(0.0,0.0,-1.000000000000000));
#1308=DIRECTION('',(-0.707106781186547,-0.707106781186547,0.0));
#1309=AXIS2_PLACEMENT_3D('',#1306,#1307,#1308);
#1310=CIRCLE('',#1309,0.100000000000000);
#1311=EDGE_CURVE('',#1305,#1295,#1310,.T.);
#1312=ORIENTED_EDGE('',*,*,#1311,.F.);
#1313=CARTESIAN_POINT('',(-1.600000000000001,-1.350000000000000,1.580000000000000));
#1314=VERTEX_POINT('',#1313);
#1315=CARTESIAN_POINT('',(-1.600000000000001,-1.350000000000000,0.100000000000000));
#1316=DIRECTION('',(0.0,0.0,1.0));
#1317=VECTOR('',#1316,1.480000000000000);
#1318=LINE('',#1315,#1317);
#1319=EDGE_CURVE('',#1305,#1314,#1318,.T.);
#1320=ORIENTED_EDGE('',*,*,#1319,.T.);
#1321=CARTESIAN_POINT('',(-1.600000000000001,-1.250000000000000,1.580000000000000));
#1322=DIRECTION('',(0.0,0.0,1.000000000000000));
#1323=DIRECTION('',(-0.707106781186547,-0.707106781186547,0.0));
#1324=AXIS2_PLACEMENT_3D('',#1321,#1322,#1323);
#1325=CIRCLE('',#1324,0.100000000000000);
#1326=EDGE_CURVE('',#1297,#1314,#1325,.T.);
#1327=ORIENTED_EDGE('',*,*,#1326,.F.);
#1328=EDGE_LOOP('',(#1303,#1312,#1320,#1327));
#1329=FACE_OUTER_BOUND('',#1328,.T.);
#1330=ADVANCED_FACE('',(#1329),#1293,.T.);
#1331=CARTESIAN_POINT('',(-1.600000000000002,1.250000000000001,0.0));
#1332=DIRECTION('',(0.0,0.0,1.0));
#1333=DIRECTION('',(-0.707106781186548,0.707106781186548,0.0));
#1334=AXIS2_PLACEMENT_3D('',#1331,#1332,#1333);
#1335=CYLINDRICAL_SURFACE('',#1334,0.100000000000000);
#1336=CARTESIAN_POINT('',(-1.670710678118657,1.320710678118656,0.100000000000000));
#1337=VERTEX_POINT('',#1336);
#1338=CARTESIAN_POINT('',(-1.670710678118657,1.320710678118656,1.580000000000000));
#1339=VERTEX_POINT('',#1338);
#1340=CARTESIAN_POINT('',(-1.670710678118657,1.320710678118656,0.100000000000000));
#1341=DIRECTION('',(0.0,0.0,1.0));
#1342=VECTOR('',#1341,1.480000000000000);
#1343=LINE('',#1340,#1342);
#1344=EDGE_CURVE('',#1337,#1339,#1343,.T.);
#1345=ORIENTED_EDGE('',*,*,#1344,.F.);
#1346=CARTESIAN_POINT('',(-1.700000000000002,1.250000000000001,0.100000000000000));
#1347=VERTEX_POINT('',#1346);
#1348=CARTESIAN_POINT('',(-1.600000000000002,1.250000000000001,0.100000000000000));
#1349=DIRECTION('',(0.0,0.0,1.000000000000000));
#1350=DIRECTION('',(-0.707106781186547,0.707106781186547,0.0));
#1351=AXIS2_PLACEMENT_3D('',#1348,#1349,#1350);
#1352=CIRCLE('',#1351,0.100000000000000);
#1353=EDGE_CURVE('',#1337,#1347,#1352,.T.);
#1354=ORIENTED_EDGE('',*,*,#1353,.T.);
#1355=CARTESIAN_POINT('',(-1.700000000000002,1.250000000000001,1.580000000000000));
#1356=VERTEX_POINT('',#1355);
#1357=CARTESIAN_POINT('',(-1.700000000000002,1.250000000000001,0.100000000000000));
#1358=DIRECTION('',(0.0,0.0,1.0));
#1359=VECTOR('',#1358,1.480000000000000);
#1360=LINE('',#1357,#1359);
#1361=EDGE_CURVE('',#1347,#1356,#1360,.T.);
#1362=ORIENTED_EDGE('',*,*,#1361,.T.);
#1363=CARTESIAN_POINT('',(-1.600000000000002,1.250000000000001,1.580000000000000));
#1364=DIRECTION('',(0.0,0.0,1.000000000000000));
#1365=DIRECTION('',(-0.707106781186547,0.707106781186547,0.0));
#1366=AXIS2_PLACEMENT_3D('',#1363,#1364,#1365);
#1367=CIRCLE('',#1366,0.100000000000000);
#1368=EDGE_CURVE('',#1339,#1356,#1367,.T.);
#1369=ORIENTED_EDGE('',*,*,#1368,.F.);
#1370=EDGE_LOOP('',(#1345,#1354,#1362,#1369));
#1371=FACE_OUTER_BOUND('',#1370,.T.);
#1372=ADVANCED_FACE('',(#1371),#1335,.T.);
#1373=CARTESIAN_POINT('',(-1.600000000000001,-0.625000000000000,0.100000000000000));
#1374=DIRECTION('',(-6.217249E-016,1.0,0.0));
#1375=DIRECTION('',(-0.707106781186548,0.0,-0.707106781186547));
#1376=AXIS2_PLACEMENT_3D('',#1373,#1374,#1375);
#1377=CYLINDRICAL_SURFACE('',#1376,0.100000000000000);
#1378=CARTESIAN_POINT('',(-1.670710678118655,-1.250000000000000,0.029289321881345));
#1379=VERTEX_POINT('',#1378);
#1380=CARTESIAN_POINT('',(-1.670710678118657,1.250000000000001,0.029289321881345));
#1381=VERTEX_POINT('',#1380);
#1382=CARTESIAN_POINT('',(-1.670710678118655,-1.250000000000000,0.029289321881345));
#1383=DIRECTION('',(0.0,1.0,0.0));
#1384=VECTOR('',#1383,2.500000000000001);
#1385=LINE('',#1382,#1384);
#1386=EDGE_CURVE('',#1379,#1381,#1385,.T.);
#1387=ORIENTED_EDGE('',*,*,#1386,.F.);
#1388=CARTESIAN_POINT('',(-1.700000000000001,-1.250000000000000,0.100000000000000));
#1389=VERTEX_POINT('',#1388);
#1390=CARTESIAN_POINT('',(-1.600000000000001,-1.250000000000000,0.100000000000000));
#1391=DIRECTION('',(0.0,1.000000000000000,0.0));
#1392=DIRECTION('',(-0.707106781186548,0.0,-0.707106781186547));
#1393=AXIS2_PLACEMENT_3D('',#1390,#1391,#1392);
#1394=CIRCLE('',#1393,0.100000000000000);
#1395=EDGE_CURVE('',#1379,#1389,#1394,.T.);
#1396=ORIENTED_EDGE('',*,*,#1395,.T.);
#1397=CARTESIAN_POINT('',(-1.700000000000001,-1.250000000000000,0.100000000000000));
#1398=DIRECTION('',(0.0,1.0,0.0));
#1399=VECTOR('',#1398,2.500000000000001);
#1400=LINE('',#1397,#1399);
#1401=EDGE_CURVE('',#1389,#1347,#1400,.T.);
#1402=ORIENTED_EDGE('',*,*,#1401,.T.);
#1403=CARTESIAN_POINT('',(-1.600000000000002,1.250000000000001,0.100000000000000));
#1404=DIRECTION('',(0.0,1.000000000000000,0.0));
#1405=DIRECTION('',(-0.707106781186548,0.0,-0.707106781186547));
#1406=AXIS2_PLACEMENT_3D('',#1403,#1404,#1405);
#1407=CIRCLE('',#1406,0.100000000000000);
#1408=EDGE_CURVE('',#1381,#1347,#1407,.T.);
#1409=ORIENTED_EDGE('',*,*,#1408,.F.);
#1410=EDGE_LOOP('',(#1387,#1396,#1402,#1409));
#1411=FACE_OUTER_BOUND('',#1410,.T.);
#1412=ADVANCED_FACE('',(#1411),#1377,.T.);
#1413=CARTESIAN_POINT('',(-1.457478622478136,1.250000000000001,0.100000000000000));
#1414=DIRECTION('',(1.0,-3.364312E-016,0.0));
#1415=DIRECTION('',(0.0,0.707106781186548,-0.707106781186547));
#1416=AXIS2_PLACEMENT_3D('',#1413,#1414,#1415);
#1417=CYLINDRICAL_SURFACE('',#1416,0.100000000000000);
#1418=CARTESIAN_POINT('',(-1.600000000000002,1.320710678118656,0.029289321881345));
#1419=VERTEX_POINT('',#1418);
#1420=CARTESIAN_POINT('',(-1.095000000000002,1.320710678118656,0.029289321881345));
#1421=VERTEX_POINT('',#1420);
#1422=CARTESIAN_POINT('',(-1.600000000000002,1.320710678118656,0.029289321881345));
#1423=DIRECTION('',(1.0,0.0,0.0));
#1424=VECTOR('',#1423,0.505000000000000);
#1425=LINE('',#1422,#1424);
#1426=EDGE_CURVE('',#1419,#1421,#1425,.T.);
#1427=ORIENTED_EDGE('',*,*,#1426,.F.);
#1428=CARTESIAN_POINT('',(-1.600000000000002,1.350000000000001,0.100000000000000));
#1429=VERTEX_POINT('',#1428);
#1430=CARTESIAN_POINT('',(-1.600000000000002,1.250000000000001,0.100000000000000));
#1431=DIRECTION('',(-1.000000000000000,0.0,0.0));
#1432=DIRECTION('',(0.0,0.707106781186548,-0.707106781186547));
#1433=AXIS2_PLACEMENT_3D('',#1430,#1431,#1432);
#1434=CIRCLE('',#1433,0.100000000000000);
#1435=EDGE_CURVE('',#1429,#1419,#1434,.T.);
#1436=ORIENTED_EDGE('',*,*,#1435,.F.);
#1437=CARTESIAN_POINT('',(-1.095000000000002,1.350000000000001,0.100000000000000));
#1438=VERTEX_POINT('',#1437);
#1439=CARTESIAN_POINT('',(-1.600000000000002,1.350000000000001,0.100000000000000));
#1440=DIRECTION('',(1.0,0.0,0.0));
#1441=VECTOR('',#1440,0.505000000000000);
#1442=LINE('',#1439,#1441);
#1443=EDGE_CURVE('',#1429,#1438,#1442,.T.);
#1444=ORIENTED_EDGE('',*,*,#1443,.T.);
#1445=CARTESIAN_POINT('',(-1.095000000000002,1.250000000000001,0.100000000000000));
#1446=DIRECTION('',(-1.000000000000000,0.0,0.0));
#1447=DIRECTION('',(0.0,0.707106781186548,-0.707106781186547));
#1448=AXIS2_PLACEMENT_3D('',#1445,#1446,#1447);
#1449=CIRCLE('',#1448,0.100000000000000);
#1450=EDGE_CURVE('',#1438,#1421,#1449,.T.);
#1451=ORIENTED_EDGE('',*,*,#1450,.T.);
#1452=EDGE_LOOP('',(#1427,#1436,#1444,#1451));
#1453=FACE_OUTER_BOUND('',#1452,.T.);
#1454=ADVANCED_FACE('',(#1453),#1417,.T.);
#1455=CARTESIAN_POINT('',(-1.457478622478136,1.250000000000001,1.580000000000000));
#1456=DIRECTION('',(1.0,-3.364312E-016,0.0));
#1457=DIRECTION('',(0.0,0.707106781186547,0.707106781186547));
#1458=AXIS2_PLACEMENT_3D('',#1455,#1456,#1457);
#1459=CYLINDRICAL_SURFACE('',#1458,0.100000000000000);
#1460=CARTESIAN_POINT('',(-1.600000000000002,1.320710678118656,1.650710678118655));
#1461=VERTEX_POINT('',#1460);
#1462=CARTESIAN_POINT('',(-1.095000000000002,1.320710678118656,1.650710678118655));
#1463=VERTEX_POINT('',#1462);
#1464=CARTESIAN_POINT('',(-1.600000000000002,1.320710678118656,1.650710678118655));
#1465=DIRECTION('',(1.0,0.0,0.0));
#1466=VECTOR('',#1465,0.505000000000000);
#1467=LINE('',#1464,#1466);
#1468=EDGE_CURVE('',#1461,#1463,#1467,.T.);
#1469=ORIENTED_EDGE('',*,*,#1468,.F.);
#1470=CARTESIAN_POINT('',(-1.600000000000002,1.250000000000001,1.580000000000000));
#1471=DIRECTION('',(-1.000000000000000,0.0,0.0));
#1472=DIRECTION('',(0.0,0.707106781186547,0.707106781186547));
#1473=AXIS2_PLACEMENT_3D('',#1470,#1471,#1472);
#1474=CIRCLE('',#1473,0.100000000000000);
#1475=EDGE_CURVE('',#1272,#1461,#1474,.T.);
#1476=ORIENTED_EDGE('',*,*,#1475,.F.);
#1477=CARTESIAN_POINT('',(-1.095000000000002,1.250000000000001,1.680000000000000));
#1478=VERTEX_POINT('',#1477);
#1479=CARTESIAN_POINT('',(-1.600000000000002,1.250000000000001,1.680000000000000));
#1480=DIRECTION('',(1.0,0.0,0.0));
#1481=VECTOR('',#1480,0.505000000000000);
#1482=LINE('',#1479,#1481);
#1483=EDGE_CURVE('',#1272,#1478,#1482,.T.);
#1484=ORIENTED_EDGE('',*,*,#1483,.T.);
#1485=CARTESIAN_POINT('',(-1.095000000000002,1.250000000000001,1.580000000000000));
#1486=DIRECTION('',(-1.000000000000000,0.0,0.0));
#1487=DIRECTION('',(0.0,0.707106781186547,0.707106781186547));
#1488=AXIS2_PLACEMENT_3D('',#1485,#1486,#1487);
#1489=CIRCLE('',#1488,0.100000000000000);
#1490=EDGE_CURVE('',#1478,#1463,#1489,.T.);
#1491=ORIENTED_EDGE('',*,*,#1490,.T.);
#1492=EDGE_LOOP('',(#1469,#1476,#1484,#1491));
#1493=FACE_OUTER_BOUND('',#1492,.T.);
#1494=ADVANCED_FACE('',(#1493),#1459,.T.);
#1495=CARTESIAN_POINT('',(-1.127478622478136,-1.250000000000000,1.580000000000000));
#1496=DIRECTION('',(-1.0,-6.728624E-016,0.0));
#1497=DIRECTION('',(0.0,-0.707106781186547,0.707106781186547));
#1498=AXIS2_PLACEMENT_3D('',#1495,#1496,#1497);
#1499=CYLINDRICAL_SURFACE('',#1498,0.100000000000000);
#1500=CARTESIAN_POINT('',(-1.095000000000000,-1.320710678118655,1.650710678118655));
#1501=VERTEX_POINT('',#1500);
#1502=CARTESIAN_POINT('',(-1.600000000000000,-1.320710678118655,1.650710678118655));
#1503=VERTEX_POINT('',#1502);
#1504=CARTESIAN_POINT('',(-1.095000000000000,-1.320710678118655,1.650710678118655));
#1505=DIRECTION('',(-1.0,0.0,0.0));
#1506=VECTOR('',#1505,0.505000000000000);
#1507=LINE('',#1504,#1506);
#1508=EDGE_CURVE('',#1501,#1503,#1507,.T.);
#1509=ORIENTED_EDGE('',*,*,#1508,.F.);
#1510=CARTESIAN_POINT('',(-1.095000000000001,-1.250000000000000,1.680000000000000));
#1511=VERTEX_POINT('',#1510);
#1512=CARTESIAN_POINT('',(-1.095000000000000,-1.250000000000000,1.580000000000000));
#1513=DIRECTION('',(-1.000000000000000,0.0,0.0));
#1514=DIRECTION('',(0.0,-0.707106781186547,0.707106781186547));
#1515=AXIS2_PLACEMENT_3D('',#1512,#1513,#1514);
#1516=CIRCLE('',#1515,0.100000000000000);
#1517=EDGE_CURVE('',#1501,#1511,#1516,.T.);
#1518=ORIENTED_EDGE('',*,*,#1517,.T.);
#1519=CARTESIAN_POINT('',(-1.095000000000001,-1.250000000000000,1.680000000000000));
#1520=DIRECTION('',(-1.0,0.0,0.0));
#1521=VECTOR('',#1520,0.504999999999999);
#1522=LINE('',#1519,#1521);
#1523=EDGE_CURVE('',#1511,#1263,#1522,.T.);
#1524=ORIENTED_EDGE('',*,*,#1523,.T.);
#1525=CARTESIAN_POINT('',(-1.600000000000001,-1.250000000000000,1.580000000000000));
#1526=DIRECTION('',(-1.000000000000000,0.0,0.0));
#1527=DIRECTION('',(0.0,-0.707106781186547,0.707106781186547));
#1528=AXIS2_PLACEMENT_3D('',#1525,#1526,#1527);
#1529=CIRCLE('',#1528,0.100000000000000);
#1530=EDGE_CURVE('',#1503,#1263,#1529,.T.);
#1531=ORIENTED_EDGE('',*,*,#1530,.F.);
#1532=EDGE_LOOP('',(#1509,#1518,#1524,#1531));
#1533=FACE_OUTER_BOUND('',#1532,.T.);
#1534=ADVANCED_FACE('',(#1533),#1499,.T.);
#1535=CARTESIAN_POINT('',(-1.127478622478136,-1.250000000000000,0.100000000000000));
#1536=DIRECTION('',(-1.0,-6.728624E-016,0.0));
#1537=DIRECTION('',(0.0,-0.707106781186548,-0.707106781186547));
#1538=AXIS2_PLACEMENT_3D('',#1535,#1536,#1537);
#1539=CYLINDRICAL_SURFACE('',#1538,0.100000000000000);
#1540=CARTESIAN_POINT('',(-1.095000000000000,-1.320710678118655,0.029289321881345));
#1541=VERTEX_POINT('',#1540);
#1542=CARTESIAN_POINT('',(-1.600000000000000,-1.320710678118655,0.029289321881345));
#1543=VERTEX_POINT('',#1542);
#1544=CARTESIAN_POINT('',(-1.095000000000000,-1.320710678118655,0.029289321881345));
#1545=DIRECTION('',(-1.0,0.0,0.0));
#1546=VECTOR('',#1545,0.505000000000000);
#1547=LINE('',#1544,#1546);
#1548=EDGE_CURVE('',#1541,#1543,#1547,.T.);
#1549=ORIENTED_EDGE('',*,*,#1548,.F.);
#1550=CARTESIAN_POINT('',(-1.095000000000001,-1.350000000000000,0.100000000000000));
#1551=VERTEX_POINT('',#1550);
#1552=CARTESIAN_POINT('',(-1.095000000000000,-1.250000000000000,0.100000000000000));
#1553=DIRECTION('',(-1.000000000000000,0.0,0.0));
#1554=DIRECTION('',(0.0,-0.707106781186548,-0.707106781186547));
#1555=AXIS2_PLACEMENT_3D('',#1552,#1553,#1554);
#1556=CIRCLE('',#1555,0.100000000000000);
#1557=EDGE_CURVE('',#1541,#1551,#1556,.T.);
#1558=ORIENTED_EDGE('',*,*,#1557,.T.);
#1559=CARTESIAN_POINT('',(-1.095000000000001,-1.350000000000000,0.100000000000000));
#1560=DIRECTION('',(-1.0,0.0,0.0));
#1561=VECTOR('',#1560,0.504999999999999);
#1562=LINE('',#1559,#1561);
#1563=EDGE_CURVE('',#1551,#1305,#1562,.T.);
#1564=ORIENTED_EDGE('',*,*,#1563,.T.);
#1565=CARTESIAN_POINT('',(-1.600000000000001,-1.250000000000000,0.100000000000000));
#1566=DIRECTION('',(-1.000000000000000,0.0,0.0));
#1567=DIRECTION('',(0.0,-0.707106781186548,-0.707106781186547));
#1568=AXIS2_PLACEMENT_3D('',#1565,#1566,#1567);
#1569=CIRCLE('',#1568,0.100000000000000);
#1570=EDGE_CURVE('',#1543,#1305,#1569,.T.);
#1571=ORIENTED_EDGE('',*,*,#1570,.F.);
#1572=EDGE_LOOP('',(#1549,#1558,#1564,#1571));
#1573=FACE_OUTER_BOUND('',#1572,.T.);
#1574=ADVANCED_FACE('',(#1573),#1539,.T.);
#1575=CARTESIAN_POINT('',(-1.314957244956271,5.238865E-016,0.0));
#1576=DIRECTION('',(0.0,0.0,1.0));
#1577=DIRECTION('',(1.0,0.0,0.0));
#1578=AXIS2_PLACEMENT_3D('',#1575,#1576,#1577);
#1579=PLANE('',#1578);
#1580=CARTESIAN_POINT('',(-1.095000000000002,1.250000000000001,0.0));
#1581=VERTEX_POINT('',#1580);
#1582=CARTESIAN_POINT('',(-1.600000000000002,1.250000000000001,0.0));
#1583=VERTEX_POINT('',#1582);
#1584=CARTESIAN_POINT('',(-1.095000000000002,1.250000000000001,0.0));
#1585=DIRECTION('',(-1.0,0.0,0.0));
#1586=VECTOR('',#1585,0.505000000000000);
#1587=LINE('',#1584,#1586);
#1588=EDGE_CURVE('',#1581,#1583,#1587,.T.);
#1589=ORIENTED_EDGE('',*,*,#1588,.F.);
#1590=CARTESIAN_POINT('',(-1.095000000000001,-1.250000000000000,0.0));
#1591=VERTEX_POINT('',#1590);
#1592=CARTESIAN_POINT('',(-1.095000000000002,1.250000000000001,0.0));
#1593=DIRECTION('',(0.0,-1.0,0.0));
#1594=VECTOR('',#1593,2.500000000000000);
#1595=LINE('',#1592,#1594);
#1596=EDGE_CURVE('',#1581,#1591,#1595,.T.);
#1597=ORIENTED_EDGE('',*,*,#1596,.T.);
#1598=CARTESIAN_POINT('',(-1.600000000000001,-1.250000000000000,0.0));
#1599=VERTEX_POINT('',#1598);
#1600=CARTESIAN_POINT('',(-1.600000000000001,-1.250000000000000,0.0));
#1601=DIRECTION('',(1.0,0.0,0.0));
#1602=VECTOR('',#1601,0.504999999999999);
#1603=LINE('',#1600,#1602);
#1604=EDGE_CURVE('',#1599,#1591,#1603,.T.);
#1605=ORIENTED_EDGE('',*,*,#1604,.F.);
#1606=CARTESIAN_POINT('',(-1.600000000000002,1.250000000000001,0.0));
#1607=DIRECTION('',(0.0,-1.0,0.0));
#1608=VECTOR('',#1607,2.500000000000001);
#1609=LINE('',#1606,#1608);
#1610=EDGE_CURVE('',#1583,#1599,#1609,.T.);
#1611=ORIENTED_EDGE('',*,*,#1610,.F.);
#1612=EDGE_LOOP('',(#1589,#1597,#1605,#1611));
#1613=FACE_OUTER_BOUND('',#1612,.T.);
#1614=ADVANCED_FACE('',(#1613),#1579,.F.);
#1615=CARTESIAN_POINT('',(-1.127478622478136,-1.250000000000000,0.100000000000000));
#1616=DIRECTION('',(-1.0,-6.728624E-016,0.0));
#1617=DIRECTION('',(0.0,-0.707106781186548,-0.707106781186547));
#1618=AXIS2_PLACEMENT_3D('',#1615,#1616,#1617);
#1619=CYLINDRICAL_SURFACE('',#1618,0.100000000000000);
#1620=ORIENTED_EDGE('',*,*,#1548,.T.);
#1621=CARTESIAN_POINT('',(-1.600000000000001,-1.250000000000000,0.100000000000000));
#1622=DIRECTION('',(-1.000000000000000,0.0,0.0));
#1623=DIRECTION('',(0.0,-0.707106781186548,-0.707106781186547));
#1624=AXIS2_PLACEMENT_3D('',#1621,#1622,#1623);
#1625=CIRCLE('',#1624,0.100000000000000);
#1626=EDGE_CURVE('',#1599,#1543,#1625,.T.);
#1627=ORIENTED_EDGE('',*,*,#1626,.F.);
#1628=ORIENTED_EDGE('',*,*,#1604,.T.);
#1629=CARTESIAN_POINT('',(-1.095000000000000,-1.250000000000000,0.100000000000000));
#1630=DIRECTION('',(-1.000000000000000,0.0,0.0));
#1631=DIRECTION('',(0.0,-0.707106781186548,-0.707106781186547));
#1632=AXIS2_PLACEMENT_3D('',#1629,#1630,#1631);
#1633=CIRCLE('',#1632,0.100000000000000);
#1634=EDGE_CURVE('',#1591,#1541,#1633,.T.);
#1635=ORIENTED_EDGE('',*,*,#1634,.T.);
#1636=EDGE_LOOP('',(#1620,#1627,#1628,#1635));
#1637=FACE_OUTER_BOUND('',#1636,.T.);
#1638=ADVANCED_FACE('',(#1637),#1619,.T.);
#1639=CARTESIAN_POINT('',(-0.940000000000001,-1.350000000000000,0.0));
#1640=DIRECTION('',(0.0,-1.0,0.0));
#1641=DIRECTION('',(0.0,0.0,-1.0));
#1642=AXIS2_PLACEMENT_3D('',#1639,#1640,#1641);
#1643=PLANE('',#1642);
#1644=ORIENTED_EDGE('',*,*,#1563,.F.);
#1645=CARTESIAN_POINT('',(-1.095000000000001,-1.350000000000000,1.580000000000000));
#1646=VERTEX_POINT('',#1645);
#1647=CARTESIAN_POINT('',(-1.095000000000001,-1.350000000000000,0.100000000000000));
#1648=DIRECTION('',(0.0,0.0,1.0));
#1649=VECTOR('',#1648,1.480000000000000);
#1650=LINE('',#1647,#1649);
#1651=EDGE_CURVE('',#1551,#1646,#1650,.T.);
#1652=ORIENTED_EDGE('',*,*,#1651,.T.);
#1653=CARTESIAN_POINT('',(-1.600000000000001,-1.350000000000000,1.580000000000000));
#1654=DIRECTION('',(1.0,0.0,0.0));
#1655=VECTOR('',#1654,0.504999999999999);
#1656=LINE('',#1653,#1655);
#1657=EDGE_CURVE('',#1314,#1646,#1656,.T.);
#1658=ORIENTED_EDGE('',*,*,#1657,.F.);
#1659=ORIENTED_EDGE('',*,*,#1319,.F.);
#1660=EDGE_LOOP('',(#1644,#1652,#1658,#1659));
#1661=FACE_OUTER_BOUND('',#1660,.T.);
#1662=ADVANCED_FACE('',(#1661),#1643,.T.);
#1663=CARTESIAN_POINT('',(-1.127478622478136,-1.250000000000000,1.580000000000000));
#1664=DIRECTION('',(-1.0,-6.728624E-016,0.0));
#1665=DIRECTION('',(0.0,-0.707106781186547,0.707106781186547));
#1666=AXIS2_PLACEMENT_3D('',#1663,#1664,#1665);
#1667=CYLINDRICAL_SURFACE('',#1666,0.100000000000000);
#1668=ORIENTED_EDGE('',*,*,#1508,.T.);
#1669=CARTESIAN_POINT('',(-1.600000000000001,-1.250000000000000,1.580000000000000));
#1670=DIRECTION('',(-1.000000000000000,0.0,0.0));
#1671=DIRECTION('',(0.0,-0.707106781186547,0.707106781186547));
#1672=AXIS2_PLACEMENT_3D('',#1669,#1670,#1671);
#1673=CIRCLE('',#1672,0.100000000000000);
#1674=EDGE_CURVE('',#1314,#1503,#1673,.T.);
#1675=ORIENTED_EDGE('',*,*,#1674,.F.);
#1676=ORIENTED_EDGE('',*,*,#1657,.T.);
#1677=CARTESIAN_POINT('',(-1.095000000000000,-1.250000000000000,1.580000000000000));
#1678=DIRECTION('',(-1.000000000000000,0.0,0.0));
#1679=DIRECTION('',(0.0,-0.707106781186547,0.707106781186547));
#1680=AXIS2_PLACEMENT_3D('',#1677,#1678,#1679);
#1681=CIRCLE('',#1680,0.100000000000000);
#1682=EDGE_CURVE('',#1646,#1501,#1681,.T.);
#1683=ORIENTED_EDGE('',*,*,#1682,.T.);
#1684=EDGE_LOOP('',(#1668,#1675,#1676,#1683));
#1685=FACE_OUTER_BOUND('',#1684,.T.);
#1686=ADVANCED_FACE('',(#1685),#1667,.T.);
#1687=CARTESIAN_POINT('',(-1.314957244956271,5.238865E-016,1.680000000000000));
#1688=DIRECTION('',(0.0,0.0,1.0));
#1689=DIRECTION('',(1.0,0.0,0.0));
#1690=AXIS2_PLACEMENT_3D('',#1687,#1688,#1689);
#1691=PLANE('',#1690);
#1692=ORIENTED_EDGE('',*,*,#1483,.F.);
#1693=ORIENTED_EDGE('',*,*,#1277,.F.);
#1694=ORIENTED_EDGE('',*,*,#1523,.F.);
#1695=CARTESIAN_POINT('',(-1.095000000000002,1.250000000000001,1.680000000000000));
#1696=DIRECTION('',(0.0,-1.0,0.0));
#1697=VECTOR('',#1696,2.500000000000000);
#1698=LINE('',#1695,#1697);
#1699=EDGE_CURVE('',#1478,#1511,#1698,.T.);
#1700=ORIENTED_EDGE('',*,*,#1699,.F.);
#1701=EDGE_LOOP('',(#1692,#1693,#1694,#1700));
#1702=FACE_OUTER_BOUND('',#1701,.T.);
#1703=ADVANCED_FACE('',(#1702),#1691,.T.);
#1704=CARTESIAN_POINT('',(-1.457478622478136,1.250000000000001,1.580000000000000));
#1705=DIRECTION('',(1.0,-3.364312E-016,0.0));
#1706=DIRECTION('',(0.0,0.707106781186547,0.707106781186547));
#1707=AXIS2_PLACEMENT_3D('',#1704,#1705,#1706);
#1708=CYLINDRICAL_SURFACE('',#1707,0.100000000000000);
#1709=ORIENTED_EDGE('',*,*,#1468,.T.);
#1710=CARTESIAN_POINT('',(-1.095000000000002,1.350000000000001,1.580000000000000));
#1711=VERTEX_POINT('',#1710);
#1712=CARTESIAN_POINT('',(-1.095000000000002,1.250000000000001,1.580000000000000));
#1713=DIRECTION('',(-1.000000000000000,0.0,0.0));
#1714=DIRECTION('',(0.0,0.707106781186547,0.707106781186547));
#1715=AXIS2_PLACEMENT_3D('',#1712,#1713,#1714);
#1716=CIRCLE('',#1715,0.100000000000000);
#1717=EDGE_CURVE('',#1463,#1711,#1716,.T.);
#1718=ORIENTED_EDGE('',*,*,#1717,.T.);
#1719=CARTESIAN_POINT('',(-1.600000000000002,1.350000000000001,1.580000000000000));
#1720=VERTEX_POINT('',#1719);
#1721=CARTESIAN_POINT('',(-1.095000000000002,1.350000000000001,1.580000000000000));
#1722=DIRECTION('',(-1.0,0.0,0.0));
#1723=VECTOR('',#1722,0.505000000000000);
#1724=LINE('',#1721,#1723);
#1725=EDGE_CURVE('',#1711,#1720,#1724,.T.);
#1726=ORIENTED_EDGE('',*,*,#1725,.T.);
#1727=CARTESIAN_POINT('',(-1.600000000000002,1.250000000000001,1.580000000000000));
#1728=DIRECTION('',(-1.000000000000000,0.0,0.0));
#1729=DIRECTION('',(0.0,0.707106781186547,0.707106781186547));
#1730=AXIS2_PLACEMENT_3D('',#1727,#1728,#1729);
#1731=CIRCLE('',#1730,0.100000000000000);
#1732=EDGE_CURVE('',#1461,#1720,#1731,.T.);
#1733=ORIENTED_EDGE('',*,*,#1732,.F.);
#1734=EDGE_LOOP('',(#1709,#1718,#1726,#1733));
#1735=FACE_OUTER_BOUND('',#1734,.T.);
#1736=ADVANCED_FACE('',(#1735),#1708,.T.);
#1737=CARTESIAN_POINT('',(-1.600000000000002,1.350000000000001,0.0));
#1738=DIRECTION('',(0.0,1.0,0.0));
#1739=DIRECTION('',(0.0,0.0,1.0));
#1740=AXIS2_PLACEMENT_3D('',#1737,#1738,#1739);
#1741=PLANE('',#1740);
#1742=ORIENTED_EDGE('',*,*,#1443,.F.);
#1743=CARTESIAN_POINT('',(-1.600000000000002,1.350000000000001,0.100000000000000));
#1744=DIRECTION('',(0.0,0.0,1.0));
#1745=VECTOR('',#1744,1.480000000000000);
#1746=LINE('',#1743,#1745);
#1747=EDGE_CURVE('',#1429,#1720,#1746,.T.);
#1748=ORIENTED_EDGE('',*,*,#1747,.T.);
#1749=ORIENTED_EDGE('',*,*,#1725,.F.);
#1750=CARTESIAN_POINT('',(-1.095000000000002,1.350000000000001,0.100000000000000));
#1751=DIRECTION('',(0.0,0.0,1.0));
#1752=VECTOR('',#1751,1.480000000000000);
#1753=LINE('',#1750,#1752);
#1754=EDGE_CURVE('',#1438,#1711,#1753,.T.);
#1755=ORIENTED_EDGE('',*,*,#1754,.F.);
#1756=EDGE_LOOP('',(#1742,#1748,#1749,#1755));
#1757=FACE_OUTER_BOUND('',#1756,.T.);
#1758=ADVANCED_FACE('',(#1757),#1741,.T.);
#1759=CARTESIAN_POINT('',(-1.095000000000002,1.350000000000001,0.0));
#1760=DIRECTION('',(1.0,0.0,0.0));
#1761=DIRECTION('',(0.0,0.0,-1.0));
#1762=AXIS2_PLACEMENT_3D('',#1759,#1760,#1761);
#1763=PLANE('',#1762);
#1764=ORIENTED_EDGE('',*,*,#1450,.F.);
#1765=ORIENTED_EDGE('',*,*,#1754,.T.);
#1766=ORIENTED_EDGE('',*,*,#1717,.F.);
#1767=ORIENTED_EDGE('',*,*,#1490,.F.);
#1768=ORIENTED_EDGE('',*,*,#1699,.T.);
#1769=ORIENTED_EDGE('',*,*,#1517,.F.);
#1770=ORIENTED_EDGE('',*,*,#1682,.F.);
#1771=ORIENTED_EDGE('',*,*,#1651,.F.);
#1772=ORIENTED_EDGE('',*,*,#1557,.F.);
#1773=ORIENTED_EDGE('',*,*,#1634,.F.);
#1774=ORIENTED_EDGE('',*,*,#1596,.F.);
#1775=CARTESIAN_POINT('',(-1.095000000000002,1.250000000000001,0.100000000000000));
#1776=DIRECTION('',(-1.000000000000000,0.0,0.0));
#1777=DIRECTION('',(0.0,0.707106781186548,-0.707106781186547));
#1778=AXIS2_PLACEMENT_3D('',#1775,#1776,#1777);
#1779=CIRCLE('',#1778,0.100000000000000);
#1780=EDGE_CURVE('',#1421,#1581,#1779,.T.);
#1781=ORIENTED_EDGE('',*,*,#1780,.F.);
#1782=EDGE_LOOP('',(#1764,#1765,#1766,#1767,#1768,#1769,#1770,#1771,#1772,#1773,#1774,#1781));
#1783=FACE_OUTER_BOUND('',#1782,.T.);
#1784=ADVANCED_FACE('',(#1783),#1763,.T.);
#1785=CARTESIAN_POINT('',(-1.457478622478136,1.250000000000001,0.100000000000000));
#1786=DIRECTION('',(1.0,-3.364312E-016,0.0));
#1787=DIRECTION('',(0.0,0.707106781186548,-0.707106781186547));
#1788=AXIS2_PLACEMENT_3D('',#1785,#1786,#1787);
#1789=CYLINDRICAL_SURFACE('',#1788,0.100000000000000);
#1790=ORIENTED_EDGE('',*,*,#1426,.T.);
#1791=ORIENTED_EDGE('',*,*,#1780,.T.);
#1792=ORIENTED_EDGE('',*,*,#1588,.T.);
#1793=CARTESIAN_POINT('',(-1.600000000000002,1.250000000000001,0.100000000000000));
#1794=DIRECTION('',(-1.000000000000000,0.0,0.0));
#1795=DIRECTION('',(0.0,0.707106781186548,-0.707106781186547));
#1796=AXIS2_PLACEMENT_3D('',#1793,#1794,#1795);
#1797=CIRCLE('',#1796,0.100000000000000);
#1798=EDGE_CURVE('',#1419,#1583,#1797,.T.);
#1799=ORIENTED_EDGE('',*,*,#1798,.F.);
#1800=EDGE_LOOP('',(#1790,#1791,#1792,#1799));
#1801=FACE_OUTER_BOUND('',#1800,.T.);
#1802=ADVANCED_FACE('',(#1801),#1789,.T.);
#1803=CARTESIAN_POINT('',(-1.600000000000002,1.250000000000001,0.100000000000000));
#1804=DIRECTION('',(0.0,0.0,1.0));
#1805=DIRECTION('',(1.0,0.0,0.0));
#1806=AXIS2_PLACEMENT_3D('',#1803,#1804,#1805);
#1807=SPHERICAL_SURFACE('',#1806,0.100000000000000);
#1808=CARTESIAN_POINT('',(-1.600000000000002,1.250000000000001,0.100000000000000));
#1809=DIRECTION('',(0.0,0.0,1.000000000000000));
#1810=DIRECTION('',(-0.707106781186547,0.707106781186547,0.0));
#1811=AXIS2_PLACEMENT_3D('',#1808,#1809,#1810);
#1812=CIRCLE('',#1811,0.100000000000000);
#1813=EDGE_CURVE('',#1429,#1337,#1812,.T.);
#1814=ORIENTED_EDGE('',*,*,#1813,.F.);
#1815=ORIENTED_EDGE('',*,*,#1435,.T.);
#1816=ORIENTED_EDGE('',*,*,#1798,.T.);
#1817=CARTESIAN_POINT('',(-1.600000000000002,1.250000000000001,0.100000000000000));
#1818=DIRECTION('',(0.0,1.000000000000000,0.0));
#1819=DIRECTION('',(-0.707106781186548,0.0,-0.707106781186547));
#1820=AXIS2_PLACEMENT_3D('',#1817,#1818,#1819);
#1821=CIRCLE('',#1820,0.100000000000000);
#1822=EDGE_CURVE('',#1583,#1381,#1821,.T.);
#1823=ORIENTED_EDGE('',*,*,#1822,.T.);
#1824=ORIENTED_EDGE('',*,*,#1408,.T.);
#1825=ORIENTED_EDGE('',*,*,#1353,.F.);
#1826=EDGE_LOOP('',(#1814,#1815,#1816,#1823,#1824,#1825));
#1827=FACE_OUTER_BOUND('',#1826,.T.);
#1828=ADVANCED_FACE('',(#1827),#1807,.T.);
#1829=CARTESIAN_POINT('',(-1.600000000000001,-0.625000000000000,0.100000000000000));
#1830=DIRECTION('',(-6.217249E-016,1.0,0.0));
#1831=DIRECTION('',(-0.707106781186548,0.0,-0.707106781186547));
#1832=AXIS2_PLACEMENT_3D('',#1829,#1830,#1831);
#1833=CYLINDRICAL_SURFACE('',#1832,0.100000000000000);
#1834=ORIENTED_EDGE('',*,*,#1386,.T.);
#1835=ORIENTED_EDGE('',*,*,#1822,.F.);
#1836=ORIENTED_EDGE('',*,*,#1610,.T.);
#1837=CARTESIAN_POINT('',(-1.600000000000001,-1.250000000000000,0.100000000000000));
#1838=DIRECTION('',(0.0,1.000000000000000,0.0));
#1839=DIRECTION('',(-0.707106781186548,0.0,-0.707106781186547));
#1840=AXIS2_PLACEMENT_3D('',#1837,#1838,#1839);
#1841=CIRCLE('',#1840,0.100000000000000);
#1842=EDGE_CURVE('',#1599,#1379,#1841,.T.);
#1843=ORIENTED_EDGE('',*,*,#1842,.T.);
#1844=EDGE_LOOP('',(#1834,#1835,#1836,#1843));
#1845=FACE_OUTER_BOUND('',#1844,.T.);
#1846=ADVANCED_FACE('',(#1845),#1833,.T.);
#1847=CARTESIAN_POINT('',(-1.600000000000002,1.250000000000001,0.0));
#1848=DIRECTION('',(0.0,0.0,1.0));
#1849=DIRECTION('',(-0.707106781186548,0.707106781186548,0.0));
#1850=AXIS2_PLACEMENT_3D('',#1847,#1848,#1849);
#1851=CYLINDRICAL_SURFACE('',#1850,0.100000000000000);
#1852=ORIENTED_EDGE('',*,*,#1344,.T.);
#1853=CARTESIAN_POINT('',(-1.600000000000002,1.250000000000001,1.580000000000000));
#1854=DIRECTION('',(0.0,0.0,1.000000000000000));
#1855=DIRECTION('',(-0.707106781186547,0.707106781186547,0.0));
#1856=AXIS2_PLACEMENT_3D('',#1853,#1854,#1855);
#1857=CIRCLE('',#1856,0.100000000000000);
#1858=EDGE_CURVE('',#1720,#1339,#1857,.T.);
#1859=ORIENTED_EDGE('',*,*,#1858,.F.);
#1860=ORIENTED_EDGE('',*,*,#1747,.F.);
#1861=ORIENTED_EDGE('',*,*,#1813,.T.);
#1862=EDGE_LOOP('',(#1852,#1859,#1860,#1861));
#1863=FACE_OUTER_BOUND('',#1862,.T.);
#1864=ADVANCED_FACE('',(#1863),#1851,.T.);
#1865=CARTESIAN_POINT('',(-1.600000000000001,-1.250000000000000,0.100000000000000));
#1866=DIRECTION('',(0.0,0.0,1.0));
#1867=DIRECTION('',(1.0,0.0,0.0));
#1868=AXIS2_PLACEMENT_3D('',#1865,#1866,#1867);
#1869=SPHERICAL_SURFACE('',#1868,0.100000000000000);
#1870=ORIENTED_EDGE('',*,*,#1842,.F.);
#1871=ORIENTED_EDGE('',*,*,#1626,.T.);
#1872=ORIENTED_EDGE('',*,*,#1570,.T.);
#1873=ORIENTED_EDGE('',*,*,#1311,.T.);
#1874=CARTESIAN_POINT('',(-1.600000000000001,-1.250000000000000,0.100000000000000));
#1875=DIRECTION('',(0.0,0.0,-1.000000000000000));
#1876=DIRECTION('',(-0.707106781186547,-0.707106781186547,0.0));
#1877=AXIS2_PLACEMENT_3D('',#1874,#1875,#1876);
#1878=CIRCLE('',#1877,0.100000000000000);
#1879=EDGE_CURVE('',#1295,#1389,#1878,.T.);
#1880=ORIENTED_EDGE('',*,*,#1879,.T.);
#1881=ORIENTED_EDGE('',*,*,#1395,.F.);
#1882=EDGE_LOOP('',(#1870,#1871,#1872,#1873,#1880,#1881));
#1883=FACE_OUTER_BOUND('',#1882,.T.);
#1884=ADVANCED_FACE('',(#1883),#1869,.T.);
#1885=CARTESIAN_POINT('',(-1.700000000000001,-1.250000000000000,0.0));
#1886=DIRECTION('',(-1.0,0.0,0.0));
#1887=DIRECTION('',(0.0,0.0,1.0));
#1888=AXIS2_PLACEMENT_3D('',#1885,#1886,#1887);
#1889=PLANE('',#1888);
#1890=ORIENTED_EDGE('',*,*,#1401,.F.);
#1891=CARTESIAN_POINT('',(-1.700000000000001,-1.250000000000000,1.580000000000000));
#1892=VERTEX_POINT('',#1891);
#1893=CARTESIAN_POINT('',(-1.700000000000001,-1.250000000000000,0.100000000000000));
#1894=DIRECTION('',(0.0,0.0,1.0));
#1895=VECTOR('',#1894,1.480000000000000);
#1896=LINE('',#1893,#1895);
#1897=EDGE_CURVE('',#1389,#1892,#1896,.T.);
#1898=ORIENTED_EDGE('',*,*,#1897,.T.);
#1899=CARTESIAN_POINT('',(-1.700000000000002,1.250000000000001,1.580000000000000));
#1900=DIRECTION('',(0.0,-1.0,0.0));
#1901=VECTOR('',#1900,2.500000000000001);
#1902=LINE('',#1899,#1901);
#1903=EDGE_CURVE('',#1356,#1892,#1902,.T.);
#1904=ORIENTED_EDGE('',*,*,#1903,.F.);
#1905=ORIENTED_EDGE('',*,*,#1361,.F.);
#1906=EDGE_LOOP('',(#1890,#1898,#1904,#1905));
#1907=FACE_OUTER_BOUND('',#1906,.T.);
#1908=ADVANCED_FACE('',(#1907),#1889,.T.);
#1909=CARTESIAN_POINT('',(-1.600000000000001,-1.250000000000000,0.0));
#1910=DIRECTION('',(0.0,0.0,1.0));
#1911=DIRECTION('',(-0.707106781186547,-0.707106781186547,0.0));
#1912=AXIS2_PLACEMENT_3D('',#1909,#1910,#1911);
#1913=CYLINDRICAL_SURFACE('',#1912,0.100000000000000);
#1914=ORIENTED_EDGE('',*,*,#1302,.T.);
#1915=CARTESIAN_POINT('',(-1.600000000000001,-1.250000000000000,1.580000000000000));
#1916=DIRECTION('',(0.0,0.0,1.000000000000000));
#1917=DIRECTION('',(-0.707106781186547,-0.707106781186547,0.0));
#1918=AXIS2_PLACEMENT_3D('',#1915,#1916,#1917);
#1919=CIRCLE('',#1918,0.100000000000000);
#1920=EDGE_CURVE('',#1892,#1297,#1919,.T.);
#1921=ORIENTED_EDGE('',*,*,#1920,.F.);
#1922=ORIENTED_EDGE('',*,*,#1897,.F.);
#1923=ORIENTED_EDGE('',*,*,#1879,.F.);
#1924=EDGE_LOOP('',(#1914,#1921,#1922,#1923));
#1925=FACE_OUTER_BOUND('',#1924,.T.);
#1926=ADVANCED_FACE('',(#1925),#1913,.T.);
#1927=CARTESIAN_POINT('',(-1.600000000000002,1.250000000000001,1.580000000000000));
#1928=DIRECTION('',(0.0,0.0,1.0));
#1929=DIRECTION('',(1.0,0.0,0.0));
#1930=AXIS2_PLACEMENT_3D('',#1927,#1928,#1929);
#1931=SPHERICAL_SURFACE('',#1930,0.100000000000000);
#1932=CARTESIAN_POINT('',(-1.600000000000002,1.250000000000001,1.580000000000000));
#1933=DIRECTION('',(0.0,1.000000000000000,0.0));
#1934=DIRECTION('',(-0.707106781186547,0.0,0.707106781186547));
#1935=AXIS2_PLACEMENT_3D('',#1932,#1933,#1934);
#1936=CIRCLE('',#1935,0.100000000000000);
#1937=EDGE_CURVE('',#1356,#1255,#1936,.T.);
#1938=ORIENTED_EDGE('',*,*,#1937,.T.);
#1939=ORIENTED_EDGE('',*,*,#1284,.T.);
#1940=ORIENTED_EDGE('',*,*,#1475,.T.);
#1941=ORIENTED_EDGE('',*,*,#1732,.T.);
#1942=ORIENTED_EDGE('',*,*,#1858,.T.);
#1943=ORIENTED_EDGE('',*,*,#1368,.T.);
#1944=EDGE_LOOP('',(#1938,#1939,#1940,#1941,#1942,#1943));
#1945=FACE_OUTER_BOUND('',#1944,.T.);
#1946=ADVANCED_FACE('',(#1945),#1931,.T.);
#1947=CARTESIAN_POINT('',(-1.600000000000001,-0.625000000000000,1.580000000000000));
#1948=DIRECTION('',(-6.217249E-016,1.0,0.0));
#1949=DIRECTION('',(-0.707106781186547,0.0,0.707106781186547));
#1950=AXIS2_PLACEMENT_3D('',#1947,#1948,#1949);
#1951=CYLINDRICAL_SURFACE('',#1950,0.100000000000000);
#1952=ORIENTED_EDGE('',*,*,#1260,.T.);
#1953=ORIENTED_EDGE('',*,*,#1937,.F.);
#1954=ORIENTED_EDGE('',*,*,#1903,.T.);
#1955=CARTESIAN_POINT('',(-1.600000000000001,-1.250000000000000,1.580000000000000));
#1956=DIRECTION('',(0.0,1.000000000000000,0.0));
#1957=DIRECTION('',(-0.707106781186547,0.0,0.707106781186547));
#1958=AXIS2_PLACEMENT_3D('',#1955,#1956,#1957);
#1959=CIRCLE('',#1958,0.100000000000000);
#1960=EDGE_CURVE('',#1892,#1253,#1959,.T.);
#1961=ORIENTED_EDGE('',*,*,#1960,.T.);
#1962=EDGE_LOOP('',(#1952,#1953,#1954,#1961));
#1963=FACE_OUTER_BOUND('',#1962,.T.);
#1964=ADVANCED_FACE('',(#1963),#1951,.T.);
#1965=CARTESIAN_POINT('',(-1.600000000000001,-1.250000000000000,1.580000000000000));
#1966=DIRECTION('',(0.0,0.0,1.0));
#1967=DIRECTION('',(1.0,0.0,0.0));
#1968=AXIS2_PLACEMENT_3D('',#1965,#1966,#1967);
#1969=SPHERICAL_SURFACE('',#1968,0.100000000000000);
#1970=ORIENTED_EDGE('',*,*,#1960,.F.);
#1971=ORIENTED_EDGE('',*,*,#1920,.T.);
#1972=ORIENTED_EDGE('',*,*,#1326,.T.);
#1973=ORIENTED_EDGE('',*,*,#1674,.T.);
#1974=ORIENTED_EDGE('',*,*,#1530,.T.);
#1975=ORIENTED_EDGE('',*,*,#1269,.F.);
#1976=EDGE_LOOP('',(#1970,#1971,#1972,#1973,#1974,#1975));
#1977=FACE_OUTER_BOUND('',#1976,.T.);
#1978=ADVANCED_FACE('',(#1977),#1969,.T.);
#1979=CLOSED_SHELL('',(#1288,#1330,#1372,#1412,#1454,#1494,#1534,#1574,#1614,#1638,#1662,#1686,#1703,#1736,#1758,#1784,#1802,#1828,#1846,#1864,#1884,#1908,#1926,#1946,#1964,#1978));
#1980=MANIFOLD_SOLID_BREP('375',#1979);
#1981=STYLED_ITEM('NONE',(#805),#1980);
#1982=ADVANCED_BREP_SHAPE_REPRESENTATION('ABSR1',(#798,#1238,#1980),#28);
#1983=SHAPE_REPRESENTATION_RELATIONSHIP('SRRPL1','',#1982,#62);
ENDSEC;
END-ISO-10303-21;
