ISO-10303-21;
HEADER;
/* Generated by software containing ST-Developer
 * from STEP Tools, Inc. (www.steptools.com) 
 */

FILE_DESCRIPTION(
/* description */ (''),
/* implementation_level */ '2;1');

FILE_NAME(
/* name */ 'G:\\Applications\\Altium\\CernLib\\StepLib\\CAPC4663X340N.
stp',
/* time_stamp */ '2017-04-07T10:13:08+02:00',
/* author */ ('riccim'),
/* organization */ ('SolidWorks'),
/* preprocessor_version */ 'ST-DEVELOPER v16.5',
/* originating_system */ 'AutoCAD Mechanical',
/* authorisation */ ' ');

FILE_SCHEMA (('AUTOMOTIVE_DESIGN { 1 0 10303 214 3 1 1 }'));
ENDSEC;

DATA;
#10=MECHANICAL_DESIGN_GEOMETRIC_PRESENTATION_REPRESENTATION('',(#25,#26,
#27),#1158);
#11=DIMENSIONAL_EXPONENTS(0.,0.,0.,0.,0.,0.,0.);
#12=(
CONVERSION_BASED_UNIT('degree',#13)
NAMED_UNIT(#11)
PLANE_ANGLE_UNIT()
);
#13=PLANE_ANGLE_MEASURE_WITH_UNIT(PLANE_ANGLE_MEASURE(0.01745329252),#1161);
#14=PRESENTATION_LAYER_ASSIGNMENT('1','3D',(#28,#29,#30));
#15=SHAPE_REPRESENTATION_RELATIONSHIP('SRR','None',#1164,#16);
#16=ADVANCED_BREP_SHAPE_REPRESENTATION('',(#28,#29,#30),#1157);
#17=ELLIPSE('',#704,0.353553390593274,0.25);
#18=ELLIPSE('',#708,0.353553390593274,0.25);
#19=SPHERICAL_SURFACE('',#690,0.25);
#20=SPHERICAL_SURFACE('',#696,0.25);
#21=SPHERICAL_SURFACE('',#717,0.25);
#22=SPHERICAL_SURFACE('',#723,0.25);
#23=SPHERICAL_SURFACE('',#730,0.25);
#24=SPHERICAL_SURFACE('',#735,0.25);
#25=STYLED_ITEM('',(#1174),#28);
#26=STYLED_ITEM('',(#1175),#29);
#27=STYLED_ITEM('',(#1175),#30);
#28=MANIFOLD_SOLID_BREP('1B05',#668);
#29=MANIFOLD_SOLID_BREP('1B09',#669);
#30=MANIFOLD_SOLID_BREP('1B0D',#670);
#31=PLANE('',#675);
#32=PLANE('',#679);
#33=PLANE('',#684);
#34=PLANE('',#687);
#35=PLANE('',#688);
#36=PLANE('',#689);
#37=PLANE('',#711);
#38=PLANE('',#712);
#39=PLANE('',#713);
#40=PLANE('',#714);
#41=PLANE('',#715);
#42=PLANE('',#716);
#43=PLANE('',#745);
#44=PLANE('',#746);
#45=PLANE('',#747);
#46=PLANE('',#748);
#47=PLANE('',#749);
#48=PLANE('',#750);
#49=FACE_OUTER_BOUND('',#92,.T.);
#50=FACE_OUTER_BOUND('',#93,.T.);
#51=FACE_OUTER_BOUND('',#94,.T.);
#52=FACE_OUTER_BOUND('',#95,.T.);
#53=FACE_OUTER_BOUND('',#96,.T.);
#54=FACE_OUTER_BOUND('',#97,.T.);
#55=FACE_OUTER_BOUND('',#98,.T.);
#56=FACE_OUTER_BOUND('',#99,.T.);
#57=FACE_OUTER_BOUND('',#100,.T.);
#58=FACE_OUTER_BOUND('',#101,.T.);
#59=FACE_OUTER_BOUND('',#102,.T.);
#60=FACE_OUTER_BOUND('',#103,.T.);
#61=FACE_OUTER_BOUND('',#104,.T.);
#62=FACE_OUTER_BOUND('',#105,.T.);
#63=FACE_OUTER_BOUND('',#106,.T.);
#64=FACE_OUTER_BOUND('',#107,.T.);
#65=FACE_OUTER_BOUND('',#108,.T.);
#66=FACE_OUTER_BOUND('',#109,.T.);
#67=FACE_OUTER_BOUND('',#110,.T.);
#68=FACE_OUTER_BOUND('',#111,.T.);
#69=FACE_OUTER_BOUND('',#112,.T.);
#70=FACE_OUTER_BOUND('',#113,.T.);
#71=FACE_OUTER_BOUND('',#114,.T.);
#72=FACE_OUTER_BOUND('',#115,.T.);
#73=FACE_OUTER_BOUND('',#116,.T.);
#74=FACE_OUTER_BOUND('',#117,.T.);
#75=FACE_OUTER_BOUND('',#118,.T.);
#76=FACE_OUTER_BOUND('',#119,.T.);
#77=FACE_OUTER_BOUND('',#120,.T.);
#78=FACE_OUTER_BOUND('',#121,.T.);
#79=FACE_OUTER_BOUND('',#122,.T.);
#80=FACE_OUTER_BOUND('',#123,.T.);
#81=FACE_OUTER_BOUND('',#124,.T.);
#82=FACE_OUTER_BOUND('',#125,.T.);
#83=FACE_OUTER_BOUND('',#126,.T.);
#84=FACE_OUTER_BOUND('',#127,.T.);
#85=FACE_OUTER_BOUND('',#128,.T.);
#86=FACE_OUTER_BOUND('',#129,.T.);
#87=FACE_OUTER_BOUND('',#130,.T.);
#88=FACE_OUTER_BOUND('',#131,.T.);
#89=FACE_OUTER_BOUND('',#132,.T.);
#90=FACE_OUTER_BOUND('',#133,.T.);
#91=FACE_OUTER_BOUND('',#134,.T.);
#92=EDGE_LOOP('',(#424,#425,#426,#427));
#93=EDGE_LOOP('',(#428,#429,#430,#431,#432,#433,#434,#435));
#94=EDGE_LOOP('',(#436,#437,#438,#439));
#95=EDGE_LOOP('',(#440,#441,#442,#443));
#96=EDGE_LOOP('',(#444,#445,#446,#447));
#97=EDGE_LOOP('',(#448,#449,#450,#451));
#98=EDGE_LOOP('',(#452,#453,#454,#455));
#99=EDGE_LOOP('',(#456,#457,#458,#459,#460,#461,#462,#463));
#100=EDGE_LOOP('',(#464,#465,#466,#467));
#101=EDGE_LOOP('',(#468,#469,#470,#471));
#102=EDGE_LOOP('',(#472,#473,#474));
#103=EDGE_LOOP('',(#475,#476,#477,#478));
#104=EDGE_LOOP('',(#479,#480,#481));
#105=EDGE_LOOP('',(#482,#483,#484,#485));
#106=EDGE_LOOP('',(#486,#487,#488,#489));
#107=EDGE_LOOP('',(#490,#491,#492,#493));
#108=EDGE_LOOP('',(#494,#495,#496,#497));
#109=EDGE_LOOP('',(#498,#499,#500,#501));
#110=EDGE_LOOP('',(#502,#503,#504,#505));
#111=EDGE_LOOP('',(#506,#507,#508,#509));
#112=EDGE_LOOP('',(#510,#511,#512,#513));
#113=EDGE_LOOP('',(#514,#515,#516,#517,#518,#519,#520,#521));
#114=EDGE_LOOP('',(#522,#523,#524,#525));
#115=EDGE_LOOP('',(#526,#527,#528,#529));
#116=EDGE_LOOP('',(#530,#531,#532,#533));
#117=EDGE_LOOP('',(#534,#535,#536));
#118=EDGE_LOOP('',(#537,#538,#539,#540));
#119=EDGE_LOOP('',(#541,#542,#543));
#120=EDGE_LOOP('',(#544,#545,#546,#547));
#121=EDGE_LOOP('',(#548,#549,#550,#551));
#122=EDGE_LOOP('',(#552,#553,#554));
#123=EDGE_LOOP('',(#555,#556,#557,#558));
#124=EDGE_LOOP('',(#559,#560,#561));
#125=EDGE_LOOP('',(#562,#563,#564,#565));
#126=EDGE_LOOP('',(#566,#567,#568,#569));
#127=EDGE_LOOP('',(#570,#571,#572,#573));
#128=EDGE_LOOP('',(#574,#575,#576,#577));
#129=EDGE_LOOP('',(#578,#579,#580,#581));
#130=EDGE_LOOP('',(#582,#583,#584,#585,#586,#587,#588,#589));
#131=EDGE_LOOP('',(#590,#591,#592,#593));
#132=EDGE_LOOP('',(#594,#595,#596,#597));
#133=EDGE_LOOP('',(#598,#599,#600,#601));
#134=EDGE_LOOP('',(#602,#603,#604,#605));
#135=LINE('',#972,#190);
#136=LINE('',#975,#191);
#137=LINE('',#978,#192);
#138=LINE('',#982,#193);
#139=LINE('',#986,#194);
#140=LINE('',#989,#195);
#141=LINE('',#992,#196);
#142=LINE('',#993,#197);
#143=LINE('',#997,#198);
#144=LINE('',#1002,#199);
#145=LINE('',#1003,#200);
#146=LINE('',#1006,#201);
#147=LINE('',#1007,#202);
#148=LINE('',#1010,#203);
#149=LINE('',#1013,#204);
#150=LINE('',#1014,#205);
#151=LINE('',#1028,#206);
#152=LINE('',#1029,#207);
#153=LINE('',#1038,#208);
#154=LINE('',#1039,#209);
#155=LINE('',#1044,#210);
#156=LINE('',#1045,#211);
#157=LINE('',#1048,#212);
#158=LINE('',#1050,#213);
#159=LINE('',#1054,#214);
#160=LINE('',#1057,#215);
#161=LINE('',#1060,#216);
#162=LINE('',#1062,#217);
#163=LINE('',#1066,#218);
#164=LINE('',#1069,#219);
#165=LINE('',#1071,#220);
#166=LINE('',#1073,#221);
#167=LINE('',#1075,#222);
#168=LINE('',#1076,#223);
#169=LINE('',#1079,#224);
#170=LINE('',#1092,#225);
#171=LINE('',#1093,#226);
#172=LINE('',#1102,#227);
#173=LINE('',#1103,#228);
#174=LINE('',#1108,#229);
#175=LINE('',#1109,#230);
#176=LINE('',#1118,#231);
#177=LINE('',#1119,#232);
#178=LINE('',#1128,#233);
#179=LINE('',#1129,#234);
#180=LINE('',#1131,#235);
#181=LINE('',#1132,#236);
#182=LINE('',#1137,#237);
#183=LINE('',#1138,#238);
#184=LINE('',#1143,#239);
#185=LINE('',#1144,#240);
#186=LINE('',#1146,#241);
#187=LINE('',#1148,#242);
#188=LINE('',#1149,#243);
#189=LINE('',#1150,#244);
#190=VECTOR('',#757,1.);
#191=VECTOR('',#760,1.);
#192=VECTOR('',#763,1.);
#193=VECTOR('',#766,1.);
#194=VECTOR('',#769,1.);
#195=VECTOR('',#772,1.);
#196=VECTOR('',#775,1.);
#197=VECTOR('',#776,1.);
#198=VECTOR('',#781,1.);
#199=VECTOR('',#786,1.);
#200=VECTOR('',#787,1.);
#201=VECTOR('',#790,1.);
#202=VECTOR('',#791,1.);
#203=VECTOR('',#794,1.);
#204=VECTOR('',#799,1.);
#205=VECTOR('',#800,1.);
#206=VECTOR('',#817,1.);
#207=VECTOR('',#818,1.);
#208=VECTOR('',#829,1.);
#209=VECTOR('',#830,1.);
#210=VECTOR('',#835,1.);
#211=VECTOR('',#836,1.);
#212=VECTOR('',#839,1.);
#213=VECTOR('',#840,1.);
#214=VECTOR('',#845,1.);
#215=VECTOR('',#848,1.);
#216=VECTOR('',#851,1.);
#217=VECTOR('',#852,1.);
#218=VECTOR('',#857,1.);
#219=VECTOR('',#860,1.);
#220=VECTOR('',#863,1.);
#221=VECTOR('',#866,1.);
#222=VECTOR('',#869,1.);
#223=VECTOR('',#870,1.);
#224=VECTOR('',#875,1.);
#225=VECTOR('',#890,1.);
#226=VECTOR('',#891,1.);
#227=VECTOR('',#902,1.);
#228=VECTOR('',#903,1.);
#229=VECTOR('',#908,1.);
#230=VECTOR('',#909,1.);
#231=VECTOR('',#920,1.);
#232=VECTOR('',#921,1.);
#233=VECTOR('',#932,1.);
#234=VECTOR('',#933,1.);
#235=VECTOR('',#936,1.);
#236=VECTOR('',#937,1.);
#237=VECTOR('',#942,1.);
#238=VECTOR('',#943,1.);
#239=VECTOR('',#948,1.);
#240=VECTOR('',#949,1.);
#241=VECTOR('',#952,1.);
#242=VECTOR('',#955,1.);
#243=VECTOR('',#956,1.);
#244=VECTOR('',#957,1.);
#245=CIRCLE('',#673,0.25);
#246=CIRCLE('',#674,0.25);
#247=CIRCLE('',#676,0.25);
#248=CIRCLE('',#677,0.25);
#249=CIRCLE('',#678,0.25);
#250=CIRCLE('',#681,0.25);
#251=CIRCLE('',#683,0.25);
#252=CIRCLE('',#686,0.25);
#253=CIRCLE('',#691,0.25);
#254=CIRCLE('',#692,0.25);
#255=CIRCLE('',#693,0.25);
#256=CIRCLE('',#695,0.25);
#257=CIRCLE('',#697,0.25);
#258=CIRCLE('',#698,0.25);
#259=CIRCLE('',#699,0.25);
#260=CIRCLE('',#702,0.25);
#261=CIRCLE('',#706,0.25);
#262=CIRCLE('',#710,0.25);
#263=CIRCLE('',#718,0.25);
#264=CIRCLE('',#719,0.25);
#265=CIRCLE('',#720,0.25);
#266=CIRCLE('',#722,0.25);
#267=CIRCLE('',#724,0.25);
#268=CIRCLE('',#725,0.25);
#269=CIRCLE('',#726,0.25);
#270=CIRCLE('',#729,0.25);
#271=CIRCLE('',#731,0.25);
#272=CIRCLE('',#732,0.25);
#273=CIRCLE('',#733,0.25);
#274=CIRCLE('',#736,0.25);
#275=CIRCLE('',#737,0.25);
#276=CIRCLE('',#738,0.25);
#277=CIRCLE('',#742,0.25);
#278=CIRCLE('',#744,0.25);
#279=VERTEX_POINT('',#968);
#280=VERTEX_POINT('',#969);
#281=VERTEX_POINT('',#971);
#282=VERTEX_POINT('',#973);
#283=VERTEX_POINT('',#977);
#284=VERTEX_POINT('',#979);
#285=VERTEX_POINT('',#981);
#286=VERTEX_POINT('',#983);
#287=VERTEX_POINT('',#985);
#288=VERTEX_POINT('',#987);
#289=VERTEX_POINT('',#991);
#290=VERTEX_POINT('',#995);
#291=VERTEX_POINT('',#999);
#292=VERTEX_POINT('',#1000);
#293=VERTEX_POINT('',#1005);
#294=VERTEX_POINT('',#1009);
#295=VERTEX_POINT('',#1018);
#296=VERTEX_POINT('',#1019);
#297=VERTEX_POINT('',#1021);
#298=VERTEX_POINT('',#1025);
#299=VERTEX_POINT('',#1026);
#300=VERTEX_POINT('',#1031);
#301=VERTEX_POINT('',#1032);
#302=VERTEX_POINT('',#1034);
#303=VERTEX_POINT('',#1041);
#304=VERTEX_POINT('',#1042);
#305=VERTEX_POINT('',#1047);
#306=VERTEX_POINT('',#1049);
#307=VERTEX_POINT('',#1053);
#308=VERTEX_POINT('',#1055);
#309=VERTEX_POINT('',#1059);
#310=VERTEX_POINT('',#1061);
#311=VERTEX_POINT('',#1065);
#312=VERTEX_POINT('',#1067);
#313=VERTEX_POINT('',#1082);
#314=VERTEX_POINT('',#1083);
#315=VERTEX_POINT('',#1085);
#316=VERTEX_POINT('',#1089);
#317=VERTEX_POINT('',#1090);
#318=VERTEX_POINT('',#1095);
#319=VERTEX_POINT('',#1096);
#320=VERTEX_POINT('',#1098);
#321=VERTEX_POINT('',#1105);
#322=VERTEX_POINT('',#1106);
#323=VERTEX_POINT('',#1111);
#324=VERTEX_POINT('',#1112);
#325=VERTEX_POINT('',#1114);
#326=VERTEX_POINT('',#1121);
#327=VERTEX_POINT('',#1122);
#328=VERTEX_POINT('',#1124);
#329=VERTEX_POINT('',#1134);
#330=VERTEX_POINT('',#1135);
#331=VERTEX_POINT('',#1140);
#332=VERTEX_POINT('',#1141);
#333=EDGE_CURVE('',#279,#280,#245,.T.);
#334=EDGE_CURVE('',#280,#281,#135,.T.);
#335=EDGE_CURVE('',#281,#282,#246,.T.);
#336=EDGE_CURVE('',#282,#279,#136,.T.);
#337=EDGE_CURVE('',#283,#279,#137,.T.);
#338=EDGE_CURVE('',#284,#283,#247,.T.);
#339=EDGE_CURVE('',#285,#284,#138,.T.);
#340=EDGE_CURVE('',#286,#285,#248,.T.);
#341=EDGE_CURVE('',#286,#287,#139,.T.);
#342=EDGE_CURVE('',#288,#287,#249,.T.);
#343=EDGE_CURVE('',#280,#288,#140,.T.);
#344=EDGE_CURVE('',#289,#282,#141,.T.);
#345=EDGE_CURVE('',#283,#289,#142,.T.);
#346=EDGE_CURVE('',#289,#290,#250,.T.);
#347=EDGE_CURVE('',#290,#284,#143,.T.);
#348=EDGE_CURVE('',#291,#292,#251,.T.);
#349=EDGE_CURVE('',#292,#288,#144,.T.);
#350=EDGE_CURVE('',#287,#291,#145,.T.);
#351=EDGE_CURVE('',#293,#286,#146,.T.);
#352=EDGE_CURVE('',#293,#291,#147,.T.);
#353=EDGE_CURVE('',#285,#294,#148,.T.);
#354=EDGE_CURVE('',#294,#293,#252,.T.);
#355=EDGE_CURVE('',#292,#281,#149,.T.);
#356=EDGE_CURVE('',#290,#294,#150,.T.);
#357=EDGE_CURVE('',#295,#296,#253,.F.);
#358=EDGE_CURVE('',#297,#295,#254,.F.);
#359=EDGE_CURVE('',#296,#297,#255,.F.);
#360=EDGE_CURVE('',#298,#299,#256,.T.);
#361=EDGE_CURVE('',#299,#297,#151,.T.);
#362=EDGE_CURVE('',#295,#298,#152,.T.);
#363=EDGE_CURVE('',#300,#301,#257,.F.);
#364=EDGE_CURVE('',#302,#300,#258,.F.);
#365=EDGE_CURVE('',#301,#302,#259,.F.);
#366=EDGE_CURVE('',#300,#296,#153,.T.);
#367=EDGE_CURVE('',#297,#302,#154,.T.);
#368=EDGE_CURVE('',#303,#304,#260,.T.);
#369=EDGE_CURVE('',#304,#301,#155,.T.);
#370=EDGE_CURVE('',#302,#303,#156,.T.);
#371=EDGE_CURVE('',#305,#300,#157,.T.);
#372=EDGE_CURVE('',#301,#306,#158,.T.);
#373=EDGE_CURVE('',#306,#305,#17,.T.);
#374=EDGE_CURVE('',#306,#307,#159,.T.);
#375=EDGE_CURVE('',#307,#308,#261,.T.);
#376=EDGE_CURVE('',#308,#305,#160,.T.);
#377=EDGE_CURVE('',#309,#295,#161,.T.);
#378=EDGE_CURVE('',#296,#310,#162,.T.);
#379=EDGE_CURVE('',#310,#309,#18,.T.);
#380=EDGE_CURVE('',#310,#311,#163,.T.);
#381=EDGE_CURVE('',#311,#312,#262,.T.);
#382=EDGE_CURVE('',#312,#309,#164,.T.);
#383=EDGE_CURVE('',#303,#299,#165,.T.);
#384=EDGE_CURVE('',#298,#312,#166,.T.);
#385=EDGE_CURVE('',#308,#311,#167,.T.);
#386=EDGE_CURVE('',#304,#307,#168,.T.);
#387=EDGE_CURVE('',#310,#305,#169,.T.);
#388=EDGE_CURVE('',#313,#314,#263,.F.);
#389=EDGE_CURVE('',#315,#313,#264,.F.);
#390=EDGE_CURVE('',#314,#315,#265,.F.);
#391=EDGE_CURVE('',#316,#317,#266,.T.);
#392=EDGE_CURVE('',#317,#315,#170,.T.);
#393=EDGE_CURVE('',#313,#316,#171,.T.);
#394=EDGE_CURVE('',#318,#319,#267,.F.);
#395=EDGE_CURVE('',#320,#318,#268,.F.);
#396=EDGE_CURVE('',#319,#320,#269,.F.);
#397=EDGE_CURVE('',#318,#314,#172,.T.);
#398=EDGE_CURVE('',#315,#320,#173,.T.);
#399=EDGE_CURVE('',#321,#322,#270,.T.);
#400=EDGE_CURVE('',#322,#319,#174,.T.);
#401=EDGE_CURVE('',#320,#321,#175,.T.);
#402=EDGE_CURVE('',#323,#324,#271,.F.);
#403=EDGE_CURVE('',#325,#323,#272,.F.);
#404=EDGE_CURVE('',#324,#325,#273,.F.);
#405=EDGE_CURVE('',#323,#313,#176,.T.);
#406=EDGE_CURVE('',#314,#325,#177,.T.);
#407=EDGE_CURVE('',#326,#327,#274,.F.);
#408=EDGE_CURVE('',#328,#326,#275,.F.);
#409=EDGE_CURVE('',#327,#328,#276,.F.);
#410=EDGE_CURVE('',#326,#324,#178,.T.);
#411=EDGE_CURVE('',#325,#328,#179,.T.);
#412=EDGE_CURVE('',#319,#327,#180,.T.);
#413=EDGE_CURVE('',#328,#318,#181,.T.);
#414=EDGE_CURVE('',#329,#330,#277,.T.);
#415=EDGE_CURVE('',#330,#326,#182,.T.);
#416=EDGE_CURVE('',#327,#329,#183,.T.);
#417=EDGE_CURVE('',#331,#332,#278,.T.);
#418=EDGE_CURVE('',#332,#323,#184,.T.);
#419=EDGE_CURVE('',#324,#331,#185,.T.);
#420=EDGE_CURVE('',#332,#316,#186,.T.);
#421=EDGE_CURVE('',#331,#330,#187,.T.);
#422=EDGE_CURVE('',#322,#329,#188,.T.);
#423=EDGE_CURVE('',#317,#321,#189,.T.);
#424=ORIENTED_EDGE('',*,*,#333,.T.);
#425=ORIENTED_EDGE('',*,*,#334,.T.);
#426=ORIENTED_EDGE('',*,*,#335,.T.);
#427=ORIENTED_EDGE('',*,*,#336,.T.);
#428=ORIENTED_EDGE('',*,*,#333,.F.);
#429=ORIENTED_EDGE('',*,*,#337,.F.);
#430=ORIENTED_EDGE('',*,*,#338,.F.);
#431=ORIENTED_EDGE('',*,*,#339,.F.);
#432=ORIENTED_EDGE('',*,*,#340,.F.);
#433=ORIENTED_EDGE('',*,*,#341,.T.);
#434=ORIENTED_EDGE('',*,*,#342,.F.);
#435=ORIENTED_EDGE('',*,*,#343,.F.);
#436=ORIENTED_EDGE('',*,*,#336,.F.);
#437=ORIENTED_EDGE('',*,*,#344,.F.);
#438=ORIENTED_EDGE('',*,*,#345,.F.);
#439=ORIENTED_EDGE('',*,*,#337,.T.);
#440=ORIENTED_EDGE('',*,*,#346,.T.);
#441=ORIENTED_EDGE('',*,*,#347,.T.);
#442=ORIENTED_EDGE('',*,*,#338,.T.);
#443=ORIENTED_EDGE('',*,*,#345,.T.);
#444=ORIENTED_EDGE('',*,*,#348,.T.);
#445=ORIENTED_EDGE('',*,*,#349,.T.);
#446=ORIENTED_EDGE('',*,*,#342,.T.);
#447=ORIENTED_EDGE('',*,*,#350,.T.);
#448=ORIENTED_EDGE('',*,*,#350,.F.);
#449=ORIENTED_EDGE('',*,*,#341,.F.);
#450=ORIENTED_EDGE('',*,*,#351,.F.);
#451=ORIENTED_EDGE('',*,*,#352,.T.);
#452=ORIENTED_EDGE('',*,*,#340,.T.);
#453=ORIENTED_EDGE('',*,*,#353,.T.);
#454=ORIENTED_EDGE('',*,*,#354,.T.);
#455=ORIENTED_EDGE('',*,*,#351,.T.);
#456=ORIENTED_EDGE('',*,*,#335,.F.);
#457=ORIENTED_EDGE('',*,*,#355,.F.);
#458=ORIENTED_EDGE('',*,*,#348,.F.);
#459=ORIENTED_EDGE('',*,*,#352,.F.);
#460=ORIENTED_EDGE('',*,*,#354,.F.);
#461=ORIENTED_EDGE('',*,*,#356,.F.);
#462=ORIENTED_EDGE('',*,*,#346,.F.);
#463=ORIENTED_EDGE('',*,*,#344,.T.);
#464=ORIENTED_EDGE('',*,*,#347,.F.);
#465=ORIENTED_EDGE('',*,*,#356,.T.);
#466=ORIENTED_EDGE('',*,*,#353,.F.);
#467=ORIENTED_EDGE('',*,*,#339,.T.);
#468=ORIENTED_EDGE('',*,*,#334,.F.);
#469=ORIENTED_EDGE('',*,*,#343,.T.);
#470=ORIENTED_EDGE('',*,*,#349,.F.);
#471=ORIENTED_EDGE('',*,*,#355,.T.);
#472=ORIENTED_EDGE('',*,*,#357,.F.);
#473=ORIENTED_EDGE('',*,*,#358,.F.);
#474=ORIENTED_EDGE('',*,*,#359,.F.);
#475=ORIENTED_EDGE('',*,*,#360,.T.);
#476=ORIENTED_EDGE('',*,*,#361,.T.);
#477=ORIENTED_EDGE('',*,*,#358,.T.);
#478=ORIENTED_EDGE('',*,*,#362,.T.);
#479=ORIENTED_EDGE('',*,*,#363,.F.);
#480=ORIENTED_EDGE('',*,*,#364,.F.);
#481=ORIENTED_EDGE('',*,*,#365,.F.);
#482=ORIENTED_EDGE('',*,*,#364,.T.);
#483=ORIENTED_EDGE('',*,*,#366,.T.);
#484=ORIENTED_EDGE('',*,*,#359,.T.);
#485=ORIENTED_EDGE('',*,*,#367,.T.);
#486=ORIENTED_EDGE('',*,*,#368,.T.);
#487=ORIENTED_EDGE('',*,*,#369,.T.);
#488=ORIENTED_EDGE('',*,*,#365,.T.);
#489=ORIENTED_EDGE('',*,*,#370,.T.);
#490=ORIENTED_EDGE('',*,*,#371,.T.);
#491=ORIENTED_EDGE('',*,*,#363,.T.);
#492=ORIENTED_EDGE('',*,*,#372,.T.);
#493=ORIENTED_EDGE('',*,*,#373,.T.);
#494=ORIENTED_EDGE('',*,*,#374,.T.);
#495=ORIENTED_EDGE('',*,*,#375,.T.);
#496=ORIENTED_EDGE('',*,*,#376,.T.);
#497=ORIENTED_EDGE('',*,*,#373,.F.);
#498=ORIENTED_EDGE('',*,*,#377,.T.);
#499=ORIENTED_EDGE('',*,*,#357,.T.);
#500=ORIENTED_EDGE('',*,*,#378,.T.);
#501=ORIENTED_EDGE('',*,*,#379,.T.);
#502=ORIENTED_EDGE('',*,*,#380,.T.);
#503=ORIENTED_EDGE('',*,*,#381,.T.);
#504=ORIENTED_EDGE('',*,*,#382,.T.);
#505=ORIENTED_EDGE('',*,*,#379,.F.);
#506=ORIENTED_EDGE('',*,*,#370,.F.);
#507=ORIENTED_EDGE('',*,*,#367,.F.);
#508=ORIENTED_EDGE('',*,*,#361,.F.);
#509=ORIENTED_EDGE('',*,*,#383,.F.);
#510=ORIENTED_EDGE('',*,*,#362,.F.);
#511=ORIENTED_EDGE('',*,*,#377,.F.);
#512=ORIENTED_EDGE('',*,*,#382,.F.);
#513=ORIENTED_EDGE('',*,*,#384,.F.);
#514=ORIENTED_EDGE('',*,*,#368,.F.);
#515=ORIENTED_EDGE('',*,*,#383,.T.);
#516=ORIENTED_EDGE('',*,*,#360,.F.);
#517=ORIENTED_EDGE('',*,*,#384,.T.);
#518=ORIENTED_EDGE('',*,*,#381,.F.);
#519=ORIENTED_EDGE('',*,*,#385,.F.);
#520=ORIENTED_EDGE('',*,*,#375,.F.);
#521=ORIENTED_EDGE('',*,*,#386,.F.);
#522=ORIENTED_EDGE('',*,*,#369,.F.);
#523=ORIENTED_EDGE('',*,*,#386,.T.);
#524=ORIENTED_EDGE('',*,*,#374,.F.);
#525=ORIENTED_EDGE('',*,*,#372,.F.);
#526=ORIENTED_EDGE('',*,*,#371,.F.);
#527=ORIENTED_EDGE('',*,*,#387,.F.);
#528=ORIENTED_EDGE('',*,*,#378,.F.);
#529=ORIENTED_EDGE('',*,*,#366,.F.);
#530=ORIENTED_EDGE('',*,*,#376,.F.);
#531=ORIENTED_EDGE('',*,*,#385,.T.);
#532=ORIENTED_EDGE('',*,*,#380,.F.);
#533=ORIENTED_EDGE('',*,*,#387,.T.);
#534=ORIENTED_EDGE('',*,*,#388,.F.);
#535=ORIENTED_EDGE('',*,*,#389,.F.);
#536=ORIENTED_EDGE('',*,*,#390,.F.);
#537=ORIENTED_EDGE('',*,*,#391,.T.);
#538=ORIENTED_EDGE('',*,*,#392,.T.);
#539=ORIENTED_EDGE('',*,*,#389,.T.);
#540=ORIENTED_EDGE('',*,*,#393,.T.);
#541=ORIENTED_EDGE('',*,*,#394,.F.);
#542=ORIENTED_EDGE('',*,*,#395,.F.);
#543=ORIENTED_EDGE('',*,*,#396,.F.);
#544=ORIENTED_EDGE('',*,*,#395,.T.);
#545=ORIENTED_EDGE('',*,*,#397,.T.);
#546=ORIENTED_EDGE('',*,*,#390,.T.);
#547=ORIENTED_EDGE('',*,*,#398,.T.);
#548=ORIENTED_EDGE('',*,*,#399,.T.);
#549=ORIENTED_EDGE('',*,*,#400,.T.);
#550=ORIENTED_EDGE('',*,*,#396,.T.);
#551=ORIENTED_EDGE('',*,*,#401,.T.);
#552=ORIENTED_EDGE('',*,*,#402,.F.);
#553=ORIENTED_EDGE('',*,*,#403,.F.);
#554=ORIENTED_EDGE('',*,*,#404,.F.);
#555=ORIENTED_EDGE('',*,*,#403,.T.);
#556=ORIENTED_EDGE('',*,*,#405,.T.);
#557=ORIENTED_EDGE('',*,*,#388,.T.);
#558=ORIENTED_EDGE('',*,*,#406,.T.);
#559=ORIENTED_EDGE('',*,*,#407,.F.);
#560=ORIENTED_EDGE('',*,*,#408,.F.);
#561=ORIENTED_EDGE('',*,*,#409,.F.);
#562=ORIENTED_EDGE('',*,*,#408,.T.);
#563=ORIENTED_EDGE('',*,*,#410,.T.);
#564=ORIENTED_EDGE('',*,*,#404,.T.);
#565=ORIENTED_EDGE('',*,*,#411,.T.);
#566=ORIENTED_EDGE('',*,*,#394,.T.);
#567=ORIENTED_EDGE('',*,*,#412,.T.);
#568=ORIENTED_EDGE('',*,*,#409,.T.);
#569=ORIENTED_EDGE('',*,*,#413,.T.);
#570=ORIENTED_EDGE('',*,*,#414,.T.);
#571=ORIENTED_EDGE('',*,*,#415,.T.);
#572=ORIENTED_EDGE('',*,*,#407,.T.);
#573=ORIENTED_EDGE('',*,*,#416,.T.);
#574=ORIENTED_EDGE('',*,*,#417,.T.);
#575=ORIENTED_EDGE('',*,*,#418,.T.);
#576=ORIENTED_EDGE('',*,*,#402,.T.);
#577=ORIENTED_EDGE('',*,*,#419,.T.);
#578=ORIENTED_EDGE('',*,*,#393,.F.);
#579=ORIENTED_EDGE('',*,*,#405,.F.);
#580=ORIENTED_EDGE('',*,*,#418,.F.);
#581=ORIENTED_EDGE('',*,*,#420,.T.);
#582=ORIENTED_EDGE('',*,*,#391,.F.);
#583=ORIENTED_EDGE('',*,*,#420,.F.);
#584=ORIENTED_EDGE('',*,*,#417,.F.);
#585=ORIENTED_EDGE('',*,*,#421,.T.);
#586=ORIENTED_EDGE('',*,*,#414,.F.);
#587=ORIENTED_EDGE('',*,*,#422,.F.);
#588=ORIENTED_EDGE('',*,*,#399,.F.);
#589=ORIENTED_EDGE('',*,*,#423,.F.);
#590=ORIENTED_EDGE('',*,*,#419,.F.);
#591=ORIENTED_EDGE('',*,*,#410,.F.);
#592=ORIENTED_EDGE('',*,*,#415,.F.);
#593=ORIENTED_EDGE('',*,*,#421,.F.);
#594=ORIENTED_EDGE('',*,*,#397,.F.);
#595=ORIENTED_EDGE('',*,*,#413,.F.);
#596=ORIENTED_EDGE('',*,*,#411,.F.);
#597=ORIENTED_EDGE('',*,*,#406,.F.);
#598=ORIENTED_EDGE('',*,*,#392,.F.);
#599=ORIENTED_EDGE('',*,*,#423,.T.);
#600=ORIENTED_EDGE('',*,*,#401,.F.);
#601=ORIENTED_EDGE('',*,*,#398,.F.);
#602=ORIENTED_EDGE('',*,*,#400,.F.);
#603=ORIENTED_EDGE('',*,*,#422,.T.);
#604=ORIENTED_EDGE('',*,*,#416,.F.);
#605=ORIENTED_EDGE('',*,*,#412,.F.);
#606=CYLINDRICAL_SURFACE('',#672,0.25);
#607=CYLINDRICAL_SURFACE('',#680,0.25);
#608=CYLINDRICAL_SURFACE('',#682,0.25);
#609=CYLINDRICAL_SURFACE('',#685,0.25);
#610=CYLINDRICAL_SURFACE('',#694,0.25);
#611=CYLINDRICAL_SURFACE('',#700,0.25);
#612=CYLINDRICAL_SURFACE('',#701,0.25);
#613=CYLINDRICAL_SURFACE('',#703,0.25);
#614=CYLINDRICAL_SURFACE('',#705,0.25);
#615=CYLINDRICAL_SURFACE('',#707,0.25);
#616=CYLINDRICAL_SURFACE('',#709,0.25);
#617=CYLINDRICAL_SURFACE('',#721,0.25);
#618=CYLINDRICAL_SURFACE('',#727,0.25);
#619=CYLINDRICAL_SURFACE('',#728,0.25);
#620=CYLINDRICAL_SURFACE('',#734,0.25);
#621=CYLINDRICAL_SURFACE('',#739,0.25);
#622=CYLINDRICAL_SURFACE('',#740,0.25);
#623=CYLINDRICAL_SURFACE('',#741,0.25);
#624=CYLINDRICAL_SURFACE('',#743,0.25);
#625=ADVANCED_FACE('',(#49),#606,.T.);
#626=ADVANCED_FACE('',(#50),#31,.T.);
#627=ADVANCED_FACE('',(#51),#32,.T.);
#628=ADVANCED_FACE('',(#52),#607,.T.);
#629=ADVANCED_FACE('',(#53),#608,.T.);
#630=ADVANCED_FACE('',(#54),#33,.T.);
#631=ADVANCED_FACE('',(#55),#609,.T.);
#632=ADVANCED_FACE('',(#56),#34,.T.);
#633=ADVANCED_FACE('',(#57),#35,.F.);
#634=ADVANCED_FACE('',(#58),#36,.T.);
#635=ADVANCED_FACE('',(#59),#19,.T.);
#636=ADVANCED_FACE('',(#60),#610,.T.);
#637=ADVANCED_FACE('',(#61),#20,.T.);
#638=ADVANCED_FACE('',(#62),#611,.T.);
#639=ADVANCED_FACE('',(#63),#612,.T.);
#640=ADVANCED_FACE('',(#64),#613,.T.);
#641=ADVANCED_FACE('',(#65),#614,.T.);
#642=ADVANCED_FACE('',(#66),#615,.T.);
#643=ADVANCED_FACE('',(#67),#616,.T.);
#644=ADVANCED_FACE('',(#68),#37,.F.);
#645=ADVANCED_FACE('',(#69),#38,.T.);
#646=ADVANCED_FACE('',(#70),#39,.T.);
#647=ADVANCED_FACE('',(#71),#40,.T.);
#648=ADVANCED_FACE('',(#72),#41,.T.);
#649=ADVANCED_FACE('',(#73),#42,.T.);
#650=ADVANCED_FACE('',(#74),#21,.T.);
#651=ADVANCED_FACE('',(#75),#617,.T.);
#652=ADVANCED_FACE('',(#76),#22,.T.);
#653=ADVANCED_FACE('',(#77),#618,.T.);
#654=ADVANCED_FACE('',(#78),#619,.T.);
#655=ADVANCED_FACE('',(#79),#23,.T.);
#656=ADVANCED_FACE('',(#80),#620,.T.);
#657=ADVANCED_FACE('',(#81),#24,.T.);
#658=ADVANCED_FACE('',(#82),#621,.T.);
#659=ADVANCED_FACE('',(#83),#622,.T.);
#660=ADVANCED_FACE('',(#84),#623,.T.);
#661=ADVANCED_FACE('',(#85),#624,.T.);
#662=ADVANCED_FACE('',(#86),#43,.F.);
#663=ADVANCED_FACE('',(#87),#44,.T.);
#664=ADVANCED_FACE('',(#88),#45,.T.);
#665=ADVANCED_FACE('',(#89),#46,.T.);
#666=ADVANCED_FACE('',(#90),#47,.T.);
#667=ADVANCED_FACE('',(#91),#48,.T.);
#668=CLOSED_SHELL('',(#625,#626,#627,#628,#629,#630,#631,#632,#633,#634));
#669=CLOSED_SHELL('',(#635,#636,#637,#638,#639,#640,#641,#642,#643,#644,
#645,#646,#647,#648,#649));
#670=CLOSED_SHELL('',(#650,#651,#652,#653,#654,#655,#656,#657,#658,#659,
#660,#661,#662,#663,#664,#665,#666,#667));
#671=AXIS2_PLACEMENT_3D('placement',#966,#751,#752);
#672=AXIS2_PLACEMENT_3D('',#967,#753,#754);
#673=AXIS2_PLACEMENT_3D('',#970,#755,#756);
#674=AXIS2_PLACEMENT_3D('',#974,#758,#759);
#675=AXIS2_PLACEMENT_3D('',#976,#761,#762);
#676=AXIS2_PLACEMENT_3D('',#980,#764,#765);
#677=AXIS2_PLACEMENT_3D('',#984,#767,#768);
#678=AXIS2_PLACEMENT_3D('',#988,#770,#771);
#679=AXIS2_PLACEMENT_3D('',#990,#773,#774);
#680=AXIS2_PLACEMENT_3D('',#994,#777,#778);
#681=AXIS2_PLACEMENT_3D('',#996,#779,#780);
#682=AXIS2_PLACEMENT_3D('',#998,#782,#783);
#683=AXIS2_PLACEMENT_3D('',#1001,#784,#785);
#684=AXIS2_PLACEMENT_3D('',#1004,#788,#789);
#685=AXIS2_PLACEMENT_3D('',#1008,#792,#793);
#686=AXIS2_PLACEMENT_3D('',#1011,#795,#796);
#687=AXIS2_PLACEMENT_3D('',#1012,#797,#798);
#688=AXIS2_PLACEMENT_3D('',#1015,#801,#802);
#689=AXIS2_PLACEMENT_3D('',#1016,#803,#804);
#690=AXIS2_PLACEMENT_3D('',#1017,#805,#806);
#691=AXIS2_PLACEMENT_3D('',#1020,#807,#808);
#692=AXIS2_PLACEMENT_3D('',#1022,#809,#810);
#693=AXIS2_PLACEMENT_3D('',#1023,#811,#812);
#694=AXIS2_PLACEMENT_3D('',#1024,#813,#814);
#695=AXIS2_PLACEMENT_3D('',#1027,#815,#816);
#696=AXIS2_PLACEMENT_3D('',#1030,#819,#820);
#697=AXIS2_PLACEMENT_3D('',#1033,#821,#822);
#698=AXIS2_PLACEMENT_3D('',#1035,#823,#824);
#699=AXIS2_PLACEMENT_3D('',#1036,#825,#826);
#700=AXIS2_PLACEMENT_3D('',#1037,#827,#828);
#701=AXIS2_PLACEMENT_3D('',#1040,#831,#832);
#702=AXIS2_PLACEMENT_3D('',#1043,#833,#834);
#703=AXIS2_PLACEMENT_3D('',#1046,#837,#838);
#704=AXIS2_PLACEMENT_3D('',#1051,#841,#842);
#705=AXIS2_PLACEMENT_3D('',#1052,#843,#844);
#706=AXIS2_PLACEMENT_3D('',#1056,#846,#847);
#707=AXIS2_PLACEMENT_3D('',#1058,#849,#850);
#708=AXIS2_PLACEMENT_3D('',#1063,#853,#854);
#709=AXIS2_PLACEMENT_3D('',#1064,#855,#856);
#710=AXIS2_PLACEMENT_3D('',#1068,#858,#859);
#711=AXIS2_PLACEMENT_3D('',#1070,#861,#862);
#712=AXIS2_PLACEMENT_3D('',#1072,#864,#865);
#713=AXIS2_PLACEMENT_3D('',#1074,#867,#868);
#714=AXIS2_PLACEMENT_3D('',#1077,#871,#872);
#715=AXIS2_PLACEMENT_3D('',#1078,#873,#874);
#716=AXIS2_PLACEMENT_3D('',#1080,#876,#877);
#717=AXIS2_PLACEMENT_3D('',#1081,#878,#879);
#718=AXIS2_PLACEMENT_3D('',#1084,#880,#881);
#719=AXIS2_PLACEMENT_3D('',#1086,#882,#883);
#720=AXIS2_PLACEMENT_3D('',#1087,#884,#885);
#721=AXIS2_PLACEMENT_3D('',#1088,#886,#887);
#722=AXIS2_PLACEMENT_3D('',#1091,#888,#889);
#723=AXIS2_PLACEMENT_3D('',#1094,#892,#893);
#724=AXIS2_PLACEMENT_3D('',#1097,#894,#895);
#725=AXIS2_PLACEMENT_3D('',#1099,#896,#897);
#726=AXIS2_PLACEMENT_3D('',#1100,#898,#899);
#727=AXIS2_PLACEMENT_3D('',#1101,#900,#901);
#728=AXIS2_PLACEMENT_3D('',#1104,#904,#905);
#729=AXIS2_PLACEMENT_3D('',#1107,#906,#907);
#730=AXIS2_PLACEMENT_3D('',#1110,#910,#911);
#731=AXIS2_PLACEMENT_3D('',#1113,#912,#913);
#732=AXIS2_PLACEMENT_3D('',#1115,#914,#915);
#733=AXIS2_PLACEMENT_3D('',#1116,#916,#917);
#734=AXIS2_PLACEMENT_3D('',#1117,#918,#919);
#735=AXIS2_PLACEMENT_3D('',#1120,#922,#923);
#736=AXIS2_PLACEMENT_3D('',#1123,#924,#925);
#737=AXIS2_PLACEMENT_3D('',#1125,#926,#927);
#738=AXIS2_PLACEMENT_3D('',#1126,#928,#929);
#739=AXIS2_PLACEMENT_3D('',#1127,#930,#931);
#740=AXIS2_PLACEMENT_3D('',#1130,#934,#935);
#741=AXIS2_PLACEMENT_3D('',#1133,#938,#939);
#742=AXIS2_PLACEMENT_3D('',#1136,#940,#941);
#743=AXIS2_PLACEMENT_3D('',#1139,#944,#945);
#744=AXIS2_PLACEMENT_3D('',#1142,#946,#947);
#745=AXIS2_PLACEMENT_3D('',#1145,#950,#951);
#746=AXIS2_PLACEMENT_3D('',#1147,#953,#954);
#747=AXIS2_PLACEMENT_3D('',#1151,#958,#959);
#748=AXIS2_PLACEMENT_3D('',#1152,#960,#961);
#749=AXIS2_PLACEMENT_3D('',#1153,#962,#963);
#750=AXIS2_PLACEMENT_3D('',#1154,#964,#965);
#751=DIRECTION('axis',(0.,0.,1.));
#752=DIRECTION('refdir',(1.,0.,0.));
#753=DIRECTION('center_axis',(-1.,0.,0.));
#754=DIRECTION('ref_axis',(0.,0.707106781186548,0.707106781186548));
#755=DIRECTION('center_axis',(1.,-3.31409858097062E-17,0.));
#756=DIRECTION('ref_axis',(0.,0.707106781186548,0.707106781186548));
#757=DIRECTION('',(1.,0.,0.));
#758=DIRECTION('center_axis',(-1.,0.,0.));
#759=DIRECTION('ref_axis',(0.,0.707106781186548,0.707106781186548));
#760=DIRECTION('',(-1.,0.,0.));
#761=DIRECTION('center_axis',(-1.,3.31409858097062E-17,0.));
#762=DIRECTION('ref_axis',(0.,-1.,0.));
#763=DIRECTION('',(0.,0.,1.));
#764=DIRECTION('center_axis',(1.,-3.31409858097062E-17,0.));
#765=DIRECTION('ref_axis',(0.,0.707106781186548,-0.707106781186548));
#766=DIRECTION('',(3.31409858097062E-17,1.,0.));
#767=DIRECTION('center_axis',(1.,-3.31409858097062E-17,0.));
#768=DIRECTION('ref_axis',(0.,-0.707106781186548,-0.707106781186548));
#769=DIRECTION('',(0.,0.,1.));
#770=DIRECTION('center_axis',(1.,-3.31409858097062E-17,0.));
#771=DIRECTION('ref_axis',(0.,-0.707106781186548,0.707106781186548));
#772=DIRECTION('',(-3.31409858097062E-17,-1.,0.));
#773=DIRECTION('center_axis',(0.,1.,0.));
#774=DIRECTION('ref_axis',(-1.,0.,0.));
#775=DIRECTION('',(0.,0.,1.));
#776=DIRECTION('',(1.,0.,0.));
#777=DIRECTION('center_axis',(1.,0.,0.));
#778=DIRECTION('ref_axis',(0.,0.707106781186548,-0.707106781186548));
#779=DIRECTION('center_axis',(-1.,0.,0.));
#780=DIRECTION('ref_axis',(0.,0.707106781186548,-0.707106781186548));
#781=DIRECTION('',(-1.,0.,0.));
#782=DIRECTION('center_axis',(1.,0.,0.));
#783=DIRECTION('ref_axis',(0.,-0.707106781186548,0.707106781186548));
#784=DIRECTION('center_axis',(-1.,0.,0.));
#785=DIRECTION('ref_axis',(0.,-0.707106781186548,0.707106781186548));
#786=DIRECTION('',(-1.,0.,0.));
#787=DIRECTION('',(1.,0.,0.));
#788=DIRECTION('center_axis',(0.,-1.,0.));
#789=DIRECTION('ref_axis',(1.,0.,0.));
#790=DIRECTION('',(-1.,0.,0.));
#791=DIRECTION('',(0.,0.,1.));
#792=DIRECTION('center_axis',(-1.,0.,0.));
#793=DIRECTION('ref_axis',(0.,-0.707106781186548,-0.707106781186548));
#794=DIRECTION('',(1.,0.,0.));
#795=DIRECTION('center_axis',(-1.,0.,0.));
#796=DIRECTION('ref_axis',(0.,-0.707106781186548,-0.707106781186548));
#797=DIRECTION('center_axis',(1.,0.,0.));
#798=DIRECTION('ref_axis',(0.,1.,0.));
#799=DIRECTION('',(0.,1.,0.));
#800=DIRECTION('',(0.,-1.,0.));
#801=DIRECTION('center_axis',(0.,0.,1.));
#802=DIRECTION('ref_axis',(1.,0.,0.));
#803=DIRECTION('center_axis',(0.,0.,1.));
#804=DIRECTION('ref_axis',(1.,0.,0.));
#805=DIRECTION('center_axis',(-0.408248290463863,-0.816496580927726,0.408248290463863));
#806=DIRECTION('ref_axis',(0.577350269189626,-0.577350269189626,-0.577350269189626));
#807=DIRECTION('center_axis',(0.,0.,-1.));
#808=DIRECTION('ref_axis',(0.,-1.,0.));
#809=DIRECTION('center_axis',(1.,0.,0.));
#810=DIRECTION('ref_axis',(0.,0.,-1.));
#811=DIRECTION('center_axis',(0.,-1.,0.));
#812=DIRECTION('ref_axis',(1.,0.,0.));
#813=DIRECTION('center_axis',(1.,0.,0.));
#814=DIRECTION('ref_axis',(0.,-0.707106781186548,-0.707106781186548));
#815=DIRECTION('center_axis',(1.,3.31409858097062E-17,0.));
#816=DIRECTION('ref_axis',(0.,-0.707106781186548,-0.707106781186548));
#817=DIRECTION('',(1.,0.,0.));
#818=DIRECTION('',(-1.,0.,0.));
#819=DIRECTION('center_axis',(0.408248290463862,-0.816496580927727,-0.408248290463863));
#820=DIRECTION('ref_axis',(0.577350269189626,0.577350269189624,-0.577350269189627));
#821=DIRECTION('center_axis',(0.,0.,-1.));
#822=DIRECTION('ref_axis',(1.,0.,0.));
#823=DIRECTION('center_axis',(0.,1.,0.));
#824=DIRECTION('ref_axis',(0.,0.,-1.));
#825=DIRECTION('center_axis',(1.,0.,1.77635683940025E-15));
#826=DIRECTION('ref_axis',(0.,1.,0.));
#827=DIRECTION('center_axis',(-1.32563943238825E-16,1.,0.));
#828=DIRECTION('ref_axis',(0.707106781186548,0.,-0.707106781186548));
#829=DIRECTION('',(1.32563943238825E-16,-1.,0.));
#830=DIRECTION('',(-1.32563943238825E-16,1.,0.));
#831=DIRECTION('center_axis',(-1.,0.,0.));
#832=DIRECTION('ref_axis',(0.,0.707106781186548,-0.707106781186548));
#833=DIRECTION('center_axis',(1.,3.31409858097062E-17,0.));
#834=DIRECTION('ref_axis',(0.,0.707106781186548,-0.707106781186548));
#835=DIRECTION('',(1.,0.,0.));
#836=DIRECTION('',(-1.,0.,0.));
#837=DIRECTION('center_axis',(0.,0.,1.));
#838=DIRECTION('ref_axis',(0.707106781186548,0.707106781186548,0.));
#839=DIRECTION('',(0.,0.,-1.));
#840=DIRECTION('',(0.,0.,1.));
#841=DIRECTION('center_axis',(0.707106781186548,0.,-0.707106781186548));
#842=DIRECTION('ref_axis',(-0.707106781186547,0.,-0.707106781186547));
#843=DIRECTION('center_axis',(-1.,0.,0.));
#844=DIRECTION('ref_axis',(0.,0.707106781186548,0.707106781186548));
#845=DIRECTION('',(-1.,0.,0.));
#846=DIRECTION('center_axis',(1.,3.31409858097062E-17,0.));
#847=DIRECTION('ref_axis',(0.,0.707106781186548,0.707106781186548));
#848=DIRECTION('',(1.,0.,0.));
#849=DIRECTION('center_axis',(0.,0.,1.));
#850=DIRECTION('ref_axis',(0.707106781186548,-0.707106781186548,0.));
#851=DIRECTION('',(0.,0.,-1.));
#852=DIRECTION('',(0.,0.,1.));
#853=DIRECTION('center_axis',(0.707106781186548,0.,-0.707106781186548));
#854=DIRECTION('ref_axis',(-0.707106781186547,0.,-0.707106781186547));
#855=DIRECTION('center_axis',(1.,0.,0.));
#856=DIRECTION('ref_axis',(0.,-0.707106781186548,0.707106781186548));
#857=DIRECTION('',(-1.,0.,0.));
#858=DIRECTION('center_axis',(1.,3.31409858097062E-17,0.));
#859=DIRECTION('ref_axis',(0.,-0.707106781186548,0.707106781186548));
#860=DIRECTION('',(1.,0.,0.));
#861=DIRECTION('center_axis',(0.,0.,1.));
#862=DIRECTION('ref_axis',(1.,0.,0.));
#863=DIRECTION('',(3.31409858097062E-17,-1.,0.));
#864=DIRECTION('center_axis',(0.,-1.,0.));
#865=DIRECTION('ref_axis',(1.,0.,0.));
#866=DIRECTION('',(0.,0.,1.));
#867=DIRECTION('center_axis',(-1.,-3.31409858097062E-17,0.));
#868=DIRECTION('ref_axis',(0.,-1.,0.));
#869=DIRECTION('',(3.31409858097062E-17,-1.,0.));
#870=DIRECTION('',(0.,0.,1.));
#871=DIRECTION('center_axis',(0.,1.,0.));
#872=DIRECTION('ref_axis',(-1.,0.,0.));
#873=DIRECTION('center_axis',(1.,1.32563943238825E-16,0.));
#874=DIRECTION('ref_axis',(0.,1.,0.));
#875=DIRECTION('',(-1.32563943238825E-16,1.,0.));
#876=DIRECTION('center_axis',(0.,0.,1.));
#877=DIRECTION('ref_axis',(1.,0.,0.));
#878=DIRECTION('center_axis',(-0.816496580927727,0.408248290463863,0.408248290463861));
#879=DIRECTION('ref_axis',(-0.577350269189624,-0.577350269189628,-0.577350269189626));
#880=DIRECTION('center_axis',(0.,-1.,0.));
#881=DIRECTION('ref_axis',(0.,0.,-1.));
#882=DIRECTION('center_axis',(-1.,0.,-1.77635683940025E-15));
#883=DIRECTION('ref_axis',(0.,-1.,0.));
#884=DIRECTION('center_axis',(0.,0.,-1.));
#885=DIRECTION('ref_axis',(-1.,0.,0.));
#886=DIRECTION('center_axis',(-1.,0.,0.));
#887=DIRECTION('ref_axis',(0.,-0.707106781186548,-0.707106781186548));
#888=DIRECTION('center_axis',(-1.,3.31409858097062E-17,0.));
#889=DIRECTION('ref_axis',(0.,-0.707106781186548,-0.707106781186548));
#890=DIRECTION('',(-1.,0.,0.));
#891=DIRECTION('',(1.,0.,0.));
#892=DIRECTION('center_axis',(-0.816496580927727,0.408248290463863,-0.408248290463862));
#893=DIRECTION('ref_axis',(-0.577350269189625,-0.577350269189626,0.577350269189626));
#894=DIRECTION('center_axis',(0.,-1.,0.));
#895=DIRECTION('ref_axis',(-1.,0.,0.));
#896=DIRECTION('center_axis',(0.,0.,1.));
#897=DIRECTION('ref_axis',(0.,-1.,0.));
#898=DIRECTION('center_axis',(-1.,1.77635683940025E-15,0.));
#899=DIRECTION('ref_axis',(0.,0.,1.));
#900=DIRECTION('center_axis',(0.,0.,1.));
#901=DIRECTION('ref_axis',(-0.707106781186548,-0.707106781186548,0.));
#902=DIRECTION('',(0.,0.,-1.));
#903=DIRECTION('',(0.,0.,1.));
#904=DIRECTION('center_axis',(1.,0.,0.));
#905=DIRECTION('ref_axis',(0.,-0.707106781186548,0.707106781186548));
#906=DIRECTION('center_axis',(-1.,3.31409858097062E-17,0.));
#907=DIRECTION('ref_axis',(0.,-0.707106781186548,0.707106781186548));
#908=DIRECTION('',(-1.,0.,0.));
#909=DIRECTION('',(1.,0.,0.));
#910=DIRECTION('center_axis',(-0.408248290463863,-0.816496580927726,-0.408248290463863));
#911=DIRECTION('ref_axis',(-0.577350269189626,0.577350269189626,-0.577350269189626));
#912=DIRECTION('center_axis',(-1.,0.,0.));
#913=DIRECTION('ref_axis',(0.,0.,-1.));
#914=DIRECTION('center_axis',(0.,1.,0.));
#915=DIRECTION('ref_axis',(-1.,0.,0.));
#916=DIRECTION('center_axis',(0.,0.,-1.));
#917=DIRECTION('ref_axis',(0.,1.,0.));
#918=DIRECTION('center_axis',(1.32563943238825E-16,1.,0.));
#919=DIRECTION('ref_axis',(-0.707106781186548,0.,-0.707106781186548));
#920=DIRECTION('',(-1.32563943238825E-16,-1.,0.));
#921=DIRECTION('',(1.32563943238825E-16,1.,0.));
#922=DIRECTION('center_axis',(-0.408248290463863,-0.816496580927726,0.408248290463863));
#923=DIRECTION('ref_axis',(-0.577350269189626,0.577350269189626,0.577350269189626));
#924=DIRECTION('center_axis',(-1.,0.,0.));
#925=DIRECTION('ref_axis',(0.,1.,0.));
#926=DIRECTION('center_axis',(0.,0.,1.));
#927=DIRECTION('ref_axis',(-1.,0.,0.));
#928=DIRECTION('center_axis',(0.,1.,0.));
#929=DIRECTION('ref_axis',(0.,0.,1.));
#930=DIRECTION('center_axis',(0.,0.,1.));
#931=DIRECTION('ref_axis',(-0.707106781186548,0.707106781186548,0.));
#932=DIRECTION('',(0.,0.,-1.));
#933=DIRECTION('',(0.,0.,1.));
#934=DIRECTION('center_axis',(-1.32563943238825E-16,-1.,0.));
#935=DIRECTION('ref_axis',(-0.707106781186548,0.,0.707106781186548));
#936=DIRECTION('',(1.32563943238825E-16,1.,0.));
#937=DIRECTION('',(-1.32563943238825E-16,-1.,0.));
#938=DIRECTION('center_axis',(-1.,0.,0.));
#939=DIRECTION('ref_axis',(0.,0.707106781186548,0.707106781186548));
#940=DIRECTION('center_axis',(-1.,3.31409858097062E-17,0.));
#941=DIRECTION('ref_axis',(0.,0.707106781186548,0.707106781186548));
#942=DIRECTION('',(-1.,0.,0.));
#943=DIRECTION('',(1.,0.,0.));
#944=DIRECTION('center_axis',(1.,0.,0.));
#945=DIRECTION('ref_axis',(0.,0.707106781186548,-0.707106781186548));
#946=DIRECTION('center_axis',(-1.,3.31409858097062E-17,0.));
#947=DIRECTION('ref_axis',(0.,0.707106781186548,-0.707106781186548));
#948=DIRECTION('',(-1.,0.,0.));
#949=DIRECTION('',(1.,0.,0.));
#950=DIRECTION('center_axis',(0.,0.,1.));
#951=DIRECTION('ref_axis',(1.,0.,0.));
#952=DIRECTION('',(-3.31409858097062E-17,-1.,0.));
#953=DIRECTION('center_axis',(1.,-3.31409858097062E-17,0.));
#954=DIRECTION('ref_axis',(0.,1.,0.));
#955=DIRECTION('',(0.,0.,1.));
#956=DIRECTION('',(3.31409858097062E-17,1.,0.));
#957=DIRECTION('',(0.,0.,1.));
#958=DIRECTION('center_axis',(0.,1.,0.));
#959=DIRECTION('ref_axis',(-1.,0.,0.));
#960=DIRECTION('center_axis',(-1.,1.32563943238825E-16,0.));
#961=DIRECTION('ref_axis',(0.,-1.,0.));
#962=DIRECTION('center_axis',(0.,-1.,0.));
#963=DIRECTION('ref_axis',(1.,0.,0.));
#964=DIRECTION('center_axis',(0.,0.,1.));
#965=DIRECTION('ref_axis',(1.,0.,0.));
#966=CARTESIAN_POINT('',(0.,0.,0.));
#967=CARTESIAN_POINT('Origin',(0.725,3.1,3.15));
#968=CARTESIAN_POINT('',(-1.45,3.35,3.15));
#969=CARTESIAN_POINT('',(-1.45,3.1,3.4));
#970=CARTESIAN_POINT('Origin',(-1.45,3.1,3.15));
#971=CARTESIAN_POINT('',(1.45,3.1,3.4));
#972=CARTESIAN_POINT('',(0.725,3.1,3.4));
#973=CARTESIAN_POINT('',(1.45,3.35,3.15));
#974=CARTESIAN_POINT('Origin',(1.45,3.1,3.15));
#975=CARTESIAN_POINT('',(0.725,3.35,3.15));
#976=CARTESIAN_POINT('Origin',(-1.45,3.35,0.));
#977=CARTESIAN_POINT('',(-1.45,3.35,0.25));
#978=CARTESIAN_POINT('',(-1.45,3.35,0.));
#979=CARTESIAN_POINT('',(-1.45,3.1,0.));
#980=CARTESIAN_POINT('Origin',(-1.45,3.1,0.25));
#981=CARTESIAN_POINT('',(-1.45,-3.1,0.));
#982=CARTESIAN_POINT('',(-1.45,-3.35,0.));
#983=CARTESIAN_POINT('',(-1.45,-3.35,0.25));
#984=CARTESIAN_POINT('Origin',(-1.45,-3.1,0.25));
#985=CARTESIAN_POINT('',(-1.45,-3.35,3.15));
#986=CARTESIAN_POINT('',(-1.45,-3.35,0.));
#987=CARTESIAN_POINT('',(-1.45,-3.1,3.4));
#988=CARTESIAN_POINT('Origin',(-1.45,-3.1,3.15));
#989=CARTESIAN_POINT('',(-1.45,-3.35,3.4));
#990=CARTESIAN_POINT('Origin',(1.45,3.35,0.));
#991=CARTESIAN_POINT('',(1.45,3.35,0.25));
#992=CARTESIAN_POINT('',(1.45,3.35,0.));
#993=CARTESIAN_POINT('',(0.725,3.35,0.25));
#994=CARTESIAN_POINT('Origin',(0.725,3.1,0.25));
#995=CARTESIAN_POINT('',(1.45,3.1,0.));
#996=CARTESIAN_POINT('Origin',(1.45,3.1,0.25));
#997=CARTESIAN_POINT('',(0.725,3.1,0.));
#998=CARTESIAN_POINT('Origin',(-0.725000000000001,-3.1,3.15));
#999=CARTESIAN_POINT('',(1.45,-3.35,3.15));
#1000=CARTESIAN_POINT('',(1.45,-3.1,3.4));
#1001=CARTESIAN_POINT('Origin',(1.45,-3.1,3.15));
#1002=CARTESIAN_POINT('',(-0.725000000000001,-3.1,3.4));
#1003=CARTESIAN_POINT('',(-0.725000000000001,-3.35,3.15));
#1004=CARTESIAN_POINT('Origin',(-1.45,-3.35,0.));
#1005=CARTESIAN_POINT('',(1.45,-3.35,0.25));
#1006=CARTESIAN_POINT('',(-0.725000000000001,-3.35,0.25));
#1007=CARTESIAN_POINT('',(1.45,-3.35,0.));
#1008=CARTESIAN_POINT('Origin',(-0.725000000000001,-3.1,0.25));
#1009=CARTESIAN_POINT('',(1.45,-3.1,0.));
#1010=CARTESIAN_POINT('',(-0.725000000000001,-3.1,0.));
#1011=CARTESIAN_POINT('Origin',(1.45,-3.1,0.25));
#1012=CARTESIAN_POINT('Origin',(1.45,-3.35,0.));
#1013=CARTESIAN_POINT('',(1.45,3.35,3.4));
#1014=CARTESIAN_POINT('',(1.45,3.35,0.));
#1015=CARTESIAN_POINT('Origin',(-6.93889390390723E-17,-6.93889390390723E-17,
0.));
#1016=CARTESIAN_POINT('Origin',(0.,0.,3.4));
#1017=CARTESIAN_POINT('Origin',(2.3,-3.1,0.25));
#1018=CARTESIAN_POINT('',(2.3,-3.35,0.25));
#1019=CARTESIAN_POINT('',(2.55,-3.1,0.25));
#1020=CARTESIAN_POINT('Origin',(2.3,-3.1,0.25));
#1021=CARTESIAN_POINT('',(2.3,-3.1,0.));
#1022=CARTESIAN_POINT('Origin',(2.3,-3.1,0.25));
#1023=CARTESIAN_POINT('Origin',(2.3,-3.1,0.25));
#1024=CARTESIAN_POINT('Origin',(1.725,-3.1,0.25));
#1025=CARTESIAN_POINT('',(1.45,-3.35,0.25));
#1026=CARTESIAN_POINT('',(1.45,-3.1,0.));
#1027=CARTESIAN_POINT('Origin',(1.45,-3.1,0.25));
#1028=CARTESIAN_POINT('',(1.725,-3.1,0.));
#1029=CARTESIAN_POINT('',(1.725,-3.35,0.25));
#1030=CARTESIAN_POINT('Origin',(2.3,3.1,0.25));
#1031=CARTESIAN_POINT('',(2.55,3.1,0.25));
#1032=CARTESIAN_POINT('',(2.3,3.35,0.25));
#1033=CARTESIAN_POINT('Origin',(2.3,3.1,0.25));
#1034=CARTESIAN_POINT('',(2.3,3.1,0.));
#1035=CARTESIAN_POINT('Origin',(2.3,3.1,0.25));
#1036=CARTESIAN_POINT('Origin',(2.3,3.1,0.25));
#1037=CARTESIAN_POINT('Origin',(2.3,-1.675,0.25));
#1038=CARTESIAN_POINT('',(2.55,-1.675,0.25));
#1039=CARTESIAN_POINT('',(2.3,-1.675,0.));
#1040=CARTESIAN_POINT('Origin',(2.275,3.1,0.25));
#1041=CARTESIAN_POINT('',(1.45,3.1,0.));
#1042=CARTESIAN_POINT('',(1.45,3.35,0.25));
#1043=CARTESIAN_POINT('Origin',(1.45,3.1,0.25));
#1044=CARTESIAN_POINT('',(2.275,3.35,0.25));
#1045=CARTESIAN_POINT('',(2.275,3.1,0.));
#1046=CARTESIAN_POINT('Origin',(2.3,3.1,0.));
#1047=CARTESIAN_POINT('',(2.55,3.1,3.4));
#1048=CARTESIAN_POINT('',(2.55,3.1,0.));
#1049=CARTESIAN_POINT('',(2.3,3.35,3.15));
#1050=CARTESIAN_POINT('',(2.3,3.35,0.));
#1051=CARTESIAN_POINT('Origin',(2.3,3.1,3.15));
#1052=CARTESIAN_POINT('Origin',(2.275,3.1,3.15));
#1053=CARTESIAN_POINT('',(1.45,3.35,3.15));
#1054=CARTESIAN_POINT('',(2.275,3.35,3.15));
#1055=CARTESIAN_POINT('',(1.45,3.1,3.4));
#1056=CARTESIAN_POINT('Origin',(1.45,3.1,3.15));
#1057=CARTESIAN_POINT('',(2.275,3.1,3.4));
#1058=CARTESIAN_POINT('Origin',(2.3,-3.1,0.));
#1059=CARTESIAN_POINT('',(2.3,-3.35,3.15));
#1060=CARTESIAN_POINT('',(2.3,-3.35,0.));
#1061=CARTESIAN_POINT('',(2.55,-3.1,3.4));
#1062=CARTESIAN_POINT('',(2.55,-3.1,0.));
#1063=CARTESIAN_POINT('Origin',(2.3,-3.1,3.15));
#1064=CARTESIAN_POINT('Origin',(1.725,-3.1,3.15));
#1065=CARTESIAN_POINT('',(1.45,-3.1,3.4));
#1066=CARTESIAN_POINT('',(1.725,-3.1,3.4));
#1067=CARTESIAN_POINT('',(1.45,-3.35,3.15));
#1068=CARTESIAN_POINT('Origin',(1.45,-3.1,3.15));
#1069=CARTESIAN_POINT('',(1.725,-3.35,3.15));
#1070=CARTESIAN_POINT('Origin',(2.,-1.28102656687518E-16,0.));
#1071=CARTESIAN_POINT('',(1.45,3.35,0.));
#1072=CARTESIAN_POINT('Origin',(1.45,-3.35,0.));
#1073=CARTESIAN_POINT('',(1.45,-3.35,0.));
#1074=CARTESIAN_POINT('Origin',(1.45,3.35,0.));
#1075=CARTESIAN_POINT('',(1.45,3.35,3.4));
#1076=CARTESIAN_POINT('',(1.45,3.35,0.));
#1077=CARTESIAN_POINT('Origin',(2.55,3.35,0.));
#1078=CARTESIAN_POINT('Origin',(2.55,-3.35,0.));
#1079=CARTESIAN_POINT('',(2.55,-3.35,3.4));
#1080=CARTESIAN_POINT('Origin',(2.,0.,3.4));
#1081=CARTESIAN_POINT('Origin',(-2.3,-3.1,0.25));
#1082=CARTESIAN_POINT('',(-2.3,-3.1,0.));
#1083=CARTESIAN_POINT('',(-2.55,-3.1,0.25));
#1084=CARTESIAN_POINT('Origin',(-2.3,-3.1,0.25));
#1085=CARTESIAN_POINT('',(-2.3,-3.35,0.25));
#1086=CARTESIAN_POINT('Origin',(-2.3,-3.1,0.25));
#1087=CARTESIAN_POINT('Origin',(-2.3,-3.1,0.25));
#1088=CARTESIAN_POINT('Origin',(-2.275,-3.1,0.25));
#1089=CARTESIAN_POINT('',(-1.45,-3.1,0.));
#1090=CARTESIAN_POINT('',(-1.45,-3.35,0.25));
#1091=CARTESIAN_POINT('Origin',(-1.45,-3.1,0.25));
#1092=CARTESIAN_POINT('',(-2.275,-3.35,0.25));
#1093=CARTESIAN_POINT('',(-2.275,-3.1,0.));
#1094=CARTESIAN_POINT('Origin',(-2.3,-3.1,3.15));
#1095=CARTESIAN_POINT('',(-2.55,-3.1,3.15));
#1096=CARTESIAN_POINT('',(-2.3,-3.1,3.4));
#1097=CARTESIAN_POINT('Origin',(-2.3,-3.1,3.15));
#1098=CARTESIAN_POINT('',(-2.3,-3.35,3.15));
#1099=CARTESIAN_POINT('Origin',(-2.3,-3.1,3.15));
#1100=CARTESIAN_POINT('Origin',(-2.3,-3.1,3.15));
#1101=CARTESIAN_POINT('Origin',(-2.3,-3.1,0.));
#1102=CARTESIAN_POINT('',(-2.55,-3.1,0.));
#1103=CARTESIAN_POINT('',(-2.3,-3.35,0.));
#1104=CARTESIAN_POINT('Origin',(-2.275,-3.1,3.15));
#1105=CARTESIAN_POINT('',(-1.45,-3.35,3.15));
#1106=CARTESIAN_POINT('',(-1.45,-3.1,3.4));
#1107=CARTESIAN_POINT('Origin',(-1.45,-3.1,3.15));
#1108=CARTESIAN_POINT('',(-2.275,-3.1,3.4));
#1109=CARTESIAN_POINT('',(-2.275,-3.35,3.15));
#1110=CARTESIAN_POINT('Origin',(-2.3,3.1,0.25));
#1111=CARTESIAN_POINT('',(-2.3,3.1,0.));
#1112=CARTESIAN_POINT('',(-2.3,3.35,0.25));
#1113=CARTESIAN_POINT('Origin',(-2.3,3.1,0.25));
#1114=CARTESIAN_POINT('',(-2.55,3.1,0.25));
#1115=CARTESIAN_POINT('Origin',(-2.3,3.1,0.25));
#1116=CARTESIAN_POINT('Origin',(-2.3,3.1,0.25));
#1117=CARTESIAN_POINT('Origin',(-2.3,1.675,0.25));
#1118=CARTESIAN_POINT('',(-2.3,1.675,0.));
#1119=CARTESIAN_POINT('',(-2.55,1.675,0.25));
#1120=CARTESIAN_POINT('Origin',(-2.3,3.1,3.15));
#1121=CARTESIAN_POINT('',(-2.3,3.35,3.15));
#1122=CARTESIAN_POINT('',(-2.3,3.1,3.4));
#1123=CARTESIAN_POINT('Origin',(-2.3,3.1,3.15));
#1124=CARTESIAN_POINT('',(-2.55,3.1,3.15));
#1125=CARTESIAN_POINT('Origin',(-2.3,3.1,3.15));
#1126=CARTESIAN_POINT('Origin',(-2.3,3.1,3.15));
#1127=CARTESIAN_POINT('Origin',(-2.3,3.1,0.));
#1128=CARTESIAN_POINT('',(-2.3,3.35,0.));
#1129=CARTESIAN_POINT('',(-2.55,3.1,0.));
#1130=CARTESIAN_POINT('Origin',(-2.3,1.675,3.15));
#1131=CARTESIAN_POINT('',(-2.3,1.675,3.4));
#1132=CARTESIAN_POINT('',(-2.55,1.675,3.15));
#1133=CARTESIAN_POINT('Origin',(-1.725,3.1,3.15));
#1134=CARTESIAN_POINT('',(-1.45,3.1,3.4));
#1135=CARTESIAN_POINT('',(-1.45,3.35,3.15));
#1136=CARTESIAN_POINT('Origin',(-1.45,3.1,3.15));
#1137=CARTESIAN_POINT('',(-1.725,3.35,3.15));
#1138=CARTESIAN_POINT('',(-1.725,3.1,3.4));
#1139=CARTESIAN_POINT('Origin',(-1.725,3.1,0.25));
#1140=CARTESIAN_POINT('',(-1.45,3.35,0.25));
#1141=CARTESIAN_POINT('',(-1.45,3.1,0.));
#1142=CARTESIAN_POINT('Origin',(-1.45,3.1,0.25));
#1143=CARTESIAN_POINT('',(-1.725,3.1,0.));
#1144=CARTESIAN_POINT('',(-1.725,3.35,0.25));
#1145=CARTESIAN_POINT('Origin',(-2.,-1.28102656687518E-16,0.));
#1146=CARTESIAN_POINT('',(-1.45,3.35,0.));
#1147=CARTESIAN_POINT('Origin',(-1.45,-3.35,0.));
#1148=CARTESIAN_POINT('',(-1.45,3.35,0.));
#1149=CARTESIAN_POINT('',(-1.45,3.35,3.4));
#1150=CARTESIAN_POINT('',(-1.45,-3.35,0.));
#1151=CARTESIAN_POINT('Origin',(-1.45,3.35,0.));
#1152=CARTESIAN_POINT('Origin',(-2.55,3.35,0.));
#1153=CARTESIAN_POINT('Origin',(-2.55,-3.35,0.));
#1154=CARTESIAN_POINT('Origin',(-2.,0.,3.4));
#1155=UNCERTAINTY_MEASURE_WITH_UNIT(LENGTH_MEASURE(0.01),#1159,
'DISTANCE_ACCURACY_VALUE',
'Maximum model space distance between geometric entities at asserted c
onnectivities');
#1156=UNCERTAINTY_MEASURE_WITH_UNIT(LENGTH_MEASURE(1.E-6),#1159,
'DISTANCE_ACCURACY_VALUE',
'Maximum model space distance between geometric entities at asserted c
onnectivities');
#1157=(
GEOMETRIC_REPRESENTATION_CONTEXT(3)
GLOBAL_UNCERTAINTY_ASSIGNED_CONTEXT((#1155))
GLOBAL_UNIT_ASSIGNED_CONTEXT((#1159,#1161,#1160))
REPRESENTATION_CONTEXT('','3D')
);
#1158=(
GEOMETRIC_REPRESENTATION_CONTEXT(3)
GLOBAL_UNCERTAINTY_ASSIGNED_CONTEXT((#1156))
GLOBAL_UNIT_ASSIGNED_CONTEXT((#1159,#12,#1160))
REPRESENTATION_CONTEXT('','3D')
);
#1159=(
LENGTH_UNIT()
NAMED_UNIT(*)
SI_UNIT(.MILLI.,.METRE.)
);
#1160=(
NAMED_UNIT(*)
SI_UNIT($,.STERADIAN.)
SOLID_ANGLE_UNIT()
);
#1161=(
NAMED_UNIT(*)
PLANE_ANGLE_UNIT()
SI_UNIT($,.RADIAN.)
);
#1162=SHAPE_DEFINITION_REPRESENTATION(#1163,#1164);
#1163=PRODUCT_DEFINITION_SHAPE('',$,#1166);
#1164=SHAPE_REPRESENTATION('',(#671),#1157);
#1165=PRODUCT_DEFINITION_CONTEXT('part definition',#1170,'design');
#1166=PRODUCT_DEFINITION('Product','Product',#1167,#1165);
#1167=PRODUCT_DEFINITION_FORMATION('',$,#1172);
#1168=PRODUCT_RELATED_PRODUCT_CATEGORY('Product','Product',(#1172));
#1169=APPLICATION_PROTOCOL_DEFINITION('international standard',
'automotive_design',2009,#1170);
#1170=APPLICATION_CONTEXT(
'Core Data for Automotive Mechanical Design Process');
#1171=PRODUCT_CONTEXT('part definition',#1170,'mechanical');
#1172=PRODUCT('Product','Product',$,(#1171));
#1173=PRESENTATION_STYLE_ASSIGNMENT((#1176));
#1174=PRESENTATION_STYLE_ASSIGNMENT((#1177));
#1175=PRESENTATION_STYLE_ASSIGNMENT((#1178));
#1176=SURFACE_STYLE_USAGE(.BOTH.,#1179);
#1177=SURFACE_STYLE_USAGE(.BOTH.,#1180);
#1178=SURFACE_STYLE_USAGE(.BOTH.,#1181);
#1179=SURFACE_SIDE_STYLE('',(#1182));
#1180=SURFACE_SIDE_STYLE('',(#1183));
#1181=SURFACE_SIDE_STYLE('',(#1184));
#1182=SURFACE_STYLE_FILL_AREA(#1185);
#1183=SURFACE_STYLE_FILL_AREA(#1186);
#1184=SURFACE_STYLE_FILL_AREA(#1187);
#1185=FILL_AREA_STYLE('',(#1188));
#1186=FILL_AREA_STYLE('',(#1189));
#1187=FILL_AREA_STYLE('',(#1190));
#1188=FILL_AREA_STYLE_COLOUR('',#1191);
#1189=FILL_AREA_STYLE_COLOUR('',#1192);
#1190=FILL_AREA_STYLE_COLOUR('',#1193);
#1191=COLOUR_RGB('',1.,1.,1.);
#1192=COLOUR_RGB('',0.301960784313725,0.149019607843137,0.);
#1193=COLOUR_RGB('',0.749019607843137,0.749019607843137,0.749019607843137);
ENDSEC;
END-ISO-10303-21;
