ISO-10303-21;
HEADER;
/****************************************************************
 * Generated by software with PDE/Lib inside                    *
 * PDE/Lib Version 3.2.2, created Thu Mar 23, 2000 at 18:38:49  *
 * International Technegroup Inc. (www.iti-oh.com)              *
 ****************************************************************/
FILE_DESCRIPTION((''),'2;1');
FILE_NAME('CAPC3216X152N.stp','2009-07-01T11:28:17',(''),(''),'Mechanical Desktop 2006','Mechanical Desktop 2006',', , ');
FILE_SCHEMA(('AUTOMOTIVE_DESIGN { 1 2 10303 214 0 1 1 1 }'));
ENDSEC;
DATA;
#8=(NAMED_UNIT(*)PLANE_ANGLE_UNIT()SI_UNIT($,.RADIAN.));
#9=DIMENSIONAL_EXPONENTS(0.0,0.0,0.0,0.0,0.0,0.0,0.0);
#10=PLANE_ANGLE_MEASURE_WITH_UNIT(PLANE_ANGLE_MEASURE(0.017453292500000),#8);
#14=(CONVERSION_BASED_UNIT('DEGREE',#10)NAMED_UNIT(#9)PLANE_ANGLE_UNIT());
#18=(NAMED_UNIT(*)SI_UNIT($,.STERADIAN.)SOLID_ANGLE_UNIT());
#22=(LENGTH_UNIT()NAMED_UNIT(*)SI_UNIT(.MILLI.,.METRE.));
#23=UNCERTAINTY_MEASURE_WITH_UNIT(LENGTH_MEASURE(0.000001000000000),#22,'DISTANCE_ACCURACY_VALUE','');
#28=(GEOMETRIC_REPRESENTATION_CONTEXT(3)GLOBAL_UNCERTAINTY_ASSIGNED_CONTEXT((#23))GLOBAL_UNIT_ASSIGNED_CONTEXT((#14,#18,#22))REPRESENTATION_CONTEXT('None','None'));
#29=APPLICATION_CONTEXT('automotive design');
#30=APPLICATION_PROTOCOL_DEFINITION('DRAFT_INTERNATIONAL_STANDARD','automotive_design',1998,#29);
#31=PRODUCT_CONTEXT('3D Mechanical Parts',#29,'mechanical');
#32=PRODUCT('Product','Product','',(#31));
#33=PRODUCT_RELATED_PRODUCT_CATEGORY('part',$,(#32));
#34=PRODUCT_CATEGORY('part',$);
#35=PERSON('1','Design','Joe',$,$,$);
#36=ORGANIZATION($,'None','None');
#37=PERSON_AND_ORGANIZATION(#35,#36);
#38=PERSON_AND_ORGANIZATION_ROLE('design_owner');
#39=APPLIED_PERSON_AND_ORGANIZATION_ASSIGNMENT(#37,#38,(#32));
#40=PRODUCT_DEFINITION_FORMATION_WITH_SPECIFIED_SOURCE('None','',#32,.BOUGHT.);
#41=PERSON('2','Creator','Joe',$,$,$);
#42=ORGANIZATION($,'None','None');
#43=PERSON_AND_ORGANIZATION(#41,#42);
#44=PERSON_AND_ORGANIZATION_ROLE('creator');
#45=APPLIED_PERSON_AND_ORGANIZATION_ASSIGNMENT(#43,#44,(#40));
#46=PERSON('3','Supplier','Joe',$,$,$);
#47=ORGANIZATION($,'None','None');
#48=PERSON_AND_ORGANIZATION(#46,#47);
#49=PERSON_AND_ORGANIZATION_ROLE('design_supplier');
#50=APPLIED_PERSON_AND_ORGANIZATION_ASSIGNMENT(#48,#49,(#40));
#51=PRODUCT_DEFINITION_CONTEXT('part definition',#29,'design');
#52=PRODUCT_DEFINITION('None','',#40,#51);
#53=PERSON('4','Creator','Joe',$,$,$);
#54=ORGANIZATION($,'None','None');
#55=PERSON_AND_ORGANIZATION(#53,#54);
#56=PERSON_AND_ORGANIZATION_ROLE('creator');
#57=APPLIED_PERSON_AND_ORGANIZATION_ASSIGNMENT(#55,#56,(#52));
#58=CARTESIAN_POINT('NONE',(0.0,0.0,0.0));
#59=DIRECTION('NONE',(0.0,0.0,1.0));
#60=DIRECTION('NONE',(1.0,0.0,0.0));
#61=AXIS2_PLACEMENT_3D('NONE',#58,#59,#60);
#62=SHAPE_REPRESENTATION('SR1',(#61),#28);
#63=PRODUCT_DEFINITION_SHAPE('PDS1','Test Part',#52);
#64=SHAPE_DEFINITION_REPRESENTATION(#63,#62);
#65=CARTESIAN_POINT('',(1.600000000000000,0.450000000000000,0.100000000000000));
#66=DIRECTION('',(0.0,1.0,0.0));
#67=DIRECTION('',(0.707106781186548,0.0,-0.707106781186547));
#68=AXIS2_PLACEMENT_3D('',#65,#66,#67);
#69=CYLINDRICAL_SURFACE('',#68,0.100000000000000);
#70=CARTESIAN_POINT('',(1.670710678118655,-0.800000000000000,0.029289321881345));
#71=VERTEX_POINT('',#70);
#72=CARTESIAN_POINT('',(1.670710678118655,0.800000000000000,0.029289321881345));
#73=VERTEX_POINT('',#72);
#74=CARTESIAN_POINT('',(1.670710678118655,-0.800000000000000,0.029289321881345));
#75=DIRECTION('',(0.0,1.0,0.0));
#76=VECTOR('',#75,1.600000000000000);
#77=LINE('',#74,#76);
#78=EDGE_CURVE('',#71,#73,#77,.T.);
#79=ORIENTED_EDGE('',*,*,#78,.F.);
#80=CARTESIAN_POINT('',(1.600000000000000,-0.800000000000000,0.0));
#81=VERTEX_POINT('',#80);
#82=CARTESIAN_POINT('',(1.600000000000000,-0.800000000000000,0.100000000000000));
#83=DIRECTION('',(0.0,-1.000000000000000,0.0));
#84=DIRECTION('',(0.707106781186548,0.0,-0.707106781186547));
#85=AXIS2_PLACEMENT_3D('',#82,#83,#84);
#86=CIRCLE('',#85,0.100000000000000);
#87=EDGE_CURVE('',#81,#71,#86,.T.);
#88=ORIENTED_EDGE('',*,*,#87,.F.);
#89=CARTESIAN_POINT('',(1.600000000000000,0.800000000000000,0.0));
#90=VERTEX_POINT('',#89);
#91=CARTESIAN_POINT('',(1.600000000000000,-0.800000000000000,0.0));
#92=DIRECTION('',(0.0,1.0,0.0));
#93=VECTOR('',#92,1.600000000000000);
#94=LINE('',#91,#93);
#95=EDGE_CURVE('',#81,#90,#94,.T.);
#96=ORIENTED_EDGE('',*,*,#95,.T.);
#97=CARTESIAN_POINT('',(1.600000000000000,0.800000000000000,0.100000000000000));
#98=DIRECTION('',(0.0,1.000000000000000,0.0));
#99=DIRECTION('',(0.707106781186548,0.0,-0.707106781186547));
#100=AXIS2_PLACEMENT_3D('',#97,#98,#99);
#101=CIRCLE('',#100,0.100000000000000);
#102=EDGE_CURVE('',#73,#90,#101,.T.);
#103=ORIENTED_EDGE('',*,*,#102,.F.);
#104=EDGE_LOOP('',(#79,#88,#96,#103));
#105=FACE_OUTER_BOUND('',#104,.T.);
#106=ADVANCED_FACE('',(#105),#69,.T.);
#107=CARTESIAN_POINT('',(1.600000000000000,0.450000000000000,1.420000000000000));
#108=DIRECTION('',(0.0,-1.0,0.0));
#109=DIRECTION('',(0.707106781186548,0.0,0.707106781186547));
#110=AXIS2_PLACEMENT_3D('',#107,#108,#109);
#111=CYLINDRICAL_SURFACE('',#110,0.100000000000000);
#112=CARTESIAN_POINT('',(1.670710678118655,0.800000000000000,1.490710678118655));
#113=VERTEX_POINT('',#112);
#114=CARTESIAN_POINT('',(1.670710678118655,-0.800000000000000,1.490710678118655));
#115=VERTEX_POINT('',#114);
#116=CARTESIAN_POINT('',(1.670710678118655,0.800000000000000,1.490710678118655));
#117=DIRECTION('',(0.0,-1.0,0.0));
#118=VECTOR('',#117,1.600000000000000);
#119=LINE('',#116,#118);
#120=EDGE_CURVE('',#113,#115,#119,.T.);
#121=ORIENTED_EDGE('',*,*,#120,.F.);
#122=CARTESIAN_POINT('',(1.600000000000000,0.800000000000000,1.520000000000000));
#123=VERTEX_POINT('',#122);
#124=CARTESIAN_POINT('',(1.600000000000000,0.800000000000000,1.420000000000000));
#125=DIRECTION('',(0.0,1.000000000000000,0.0));
#126=DIRECTION('',(0.707106781186548,0.0,0.707106781186547));
#127=AXIS2_PLACEMENT_3D('',#124,#125,#126);
#128=CIRCLE('',#127,0.100000000000000);
#129=EDGE_CURVE('',#123,#113,#128,.T.);
#130=ORIENTED_EDGE('',*,*,#129,.F.);
#131=CARTESIAN_POINT('',(1.600000000000000,-0.800000000000000,1.520000000000000));
#132=VERTEX_POINT('',#131);
#133=CARTESIAN_POINT('',(1.600000000000000,0.800000000000000,1.520000000000000));
#134=DIRECTION('',(0.0,-1.0,0.0));
#135=VECTOR('',#134,1.600000000000000);
#136=LINE('',#133,#135);
#137=EDGE_CURVE('',#123,#132,#136,.T.);
#138=ORIENTED_EDGE('',*,*,#137,.T.);
#139=CARTESIAN_POINT('',(1.600000000000000,-0.800000000000000,1.420000000000000));
#140=DIRECTION('',(0.0,-1.000000000000000,0.0));
#141=DIRECTION('',(0.707106781186548,0.0,0.707106781186547));
#142=AXIS2_PLACEMENT_3D('',#139,#140,#141);
#143=CIRCLE('',#142,0.100000000000000);
#144=EDGE_CURVE('',#115,#132,#143,.T.);
#145=ORIENTED_EDGE('',*,*,#144,.F.);
#146=EDGE_LOOP('',(#121,#130,#138,#145));
#147=FACE_OUTER_BOUND('',#146,.T.);
#148=ADVANCED_FACE('',(#147),#111,.T.);
#149=CARTESIAN_POINT('',(1.600000000000000,0.800000000000000,0.0));
#150=DIRECTION('',(0.0,0.0,1.0));
#151=DIRECTION('',(0.707106781186548,0.707106781186547,0.0));
#152=AXIS2_PLACEMENT_3D('',#149,#150,#151);
#153=CYLINDRICAL_SURFACE('',#152,0.100000000000000);
#154=CARTESIAN_POINT('',(1.670710678118655,0.870710678118655,0.100000000000000));
#155=VERTEX_POINT('',#154);
#156=CARTESIAN_POINT('',(1.670710678118655,0.870710678118655,1.420000000000000));
#157=VERTEX_POINT('',#156);
#158=CARTESIAN_POINT('',(1.670710678118655,0.870710678118655,0.100000000000000));
#159=DIRECTION('',(0.0,0.0,1.0));
#160=VECTOR('',#159,1.320000000000000);
#161=LINE('',#158,#160);
#162=EDGE_CURVE('',#155,#157,#161,.T.);
#163=ORIENTED_EDGE('',*,*,#162,.F.);
#164=CARTESIAN_POINT('',(1.600000000000000,0.900000000000000,0.100000000000000));
#165=VERTEX_POINT('',#164);
#166=CARTESIAN_POINT('',(1.600000000000000,0.800000000000000,0.100000000000000));
#167=DIRECTION('',(0.0,0.0,1.0));
#168=DIRECTION('',(1.0,0.0,0.0));
#169=AXIS2_PLACEMENT_3D('',#166,#167,#168);
#170=CIRCLE('',#169,0.100000000000000);
#171=EDGE_CURVE('',#155,#165,#170,.T.);
#172=ORIENTED_EDGE('',*,*,#171,.T.);
#173=CARTESIAN_POINT('',(1.600000000000000,0.900000000000000,1.420000000000000));
#174=VERTEX_POINT('',#173);
#175=CARTESIAN_POINT('',(1.600000000000000,0.900000000000000,0.100000000000000));
#176=DIRECTION('',(0.0,0.0,1.0));
#177=VECTOR('',#176,1.320000000000000);
#178=LINE('',#175,#177);
#179=EDGE_CURVE('',#165,#174,#178,.T.);
#180=ORIENTED_EDGE('',*,*,#179,.T.);
#181=CARTESIAN_POINT('',(1.600000000000000,0.800000000000000,1.420000000000000));
#182=DIRECTION('',(0.0,0.0,-1.0));
#183=DIRECTION('',(0.0,1.0,0.0));
#184=AXIS2_PLACEMENT_3D('',#181,#182,#183);
#185=CIRCLE('',#184,0.100000000000000);
#186=EDGE_CURVE('',#174,#157,#185,.T.);
#187=ORIENTED_EDGE('',*,*,#186,.T.);
#188=EDGE_LOOP('',(#163,#172,#180,#187));
#189=FACE_OUTER_BOUND('',#188,.T.);
#190=ADVANCED_FACE('',(#189),#153,.T.);
#191=CARTESIAN_POINT('',(1.600000000000000,-0.800000000000000,0.0));
#192=DIRECTION('',(0.0,0.0,1.0));
#193=DIRECTION('',(0.707106781186548,-0.707106781186547,0.0));
#194=AXIS2_PLACEMENT_3D('',#191,#192,#193);
#195=CYLINDRICAL_SURFACE('',#194,0.100000000000000);
#196=CARTESIAN_POINT('',(1.670710678118655,-0.870710678118655,0.100000000000000));
#197=VERTEX_POINT('',#196);
#198=CARTESIAN_POINT('',(1.670710678118655,-0.870710678118655,1.420000000000000));
#199=VERTEX_POINT('',#198);
#200=CARTESIAN_POINT('',(1.670710678118655,-0.870710678118655,0.100000000000000));
#201=DIRECTION('',(0.0,0.0,1.0));
#202=VECTOR('',#201,1.320000000000000);
#203=LINE('',#200,#202);
#204=EDGE_CURVE('',#197,#199,#203,.T.);
#205=ORIENTED_EDGE('',*,*,#204,.F.);
#206=CARTESIAN_POINT('',(1.700000000000000,-0.800000000000000,0.100000000000000));
#207=VERTEX_POINT('',#206);
#208=CARTESIAN_POINT('',(1.600000000000000,-0.800000000000000,0.100000000000000));
#209=DIRECTION('',(0.0,0.0,1.0));
#210=DIRECTION('',(0.0,-1.0,0.0));
#211=AXIS2_PLACEMENT_3D('',#208,#209,#210);
#212=CIRCLE('',#211,0.100000000000000);
#213=EDGE_CURVE('',#197,#207,#212,.T.);
#214=ORIENTED_EDGE('',*,*,#213,.T.);
#215=CARTESIAN_POINT('',(1.700000000000000,-0.800000000000000,1.420000000000000));
#216=VERTEX_POINT('',#215);
#217=CARTESIAN_POINT('',(1.700000000000000,-0.800000000000000,0.100000000000000));
#218=DIRECTION('',(0.0,0.0,1.0));
#219=VECTOR('',#218,1.320000000000000);
#220=LINE('',#217,#219);
#221=EDGE_CURVE('',#207,#216,#220,.T.);
#222=ORIENTED_EDGE('',*,*,#221,.T.);
#223=CARTESIAN_POINT('',(1.600000000000000,-0.800000000000000,1.420000000000000));
#224=DIRECTION('',(0.0,0.0,-1.0));
#225=DIRECTION('',(1.0,0.0,0.0));
#226=AXIS2_PLACEMENT_3D('',#223,#224,#225);
#227=CIRCLE('',#226,0.100000000000000);
#228=EDGE_CURVE('',#216,#199,#227,.T.);
#229=ORIENTED_EDGE('',*,*,#228,.T.);
#230=EDGE_LOOP('',(#205,#214,#222,#229));
#231=FACE_OUTER_BOUND('',#230,.T.);
#232=ADVANCED_FACE('',(#231),#195,.T.);
#233=CARTESIAN_POINT('',(1.512500000000000,-0.800000000000000,0.100000000000000));
#234=DIRECTION('',(1.0,0.0,0.0));
#235=DIRECTION('',(0.0,-0.707106781186547,-0.707106781186548));
#236=AXIS2_PLACEMENT_3D('',#233,#234,#235);
#237=CYLINDRICAL_SURFACE('',#236,0.100000000000000);
#238=CARTESIAN_POINT('',(1.200000000000000,-0.870710678118655,0.029289321881345));
#239=VERTEX_POINT('',#238);
#240=CARTESIAN_POINT('',(1.600000000000000,-0.870710678118655,0.029289321881345));
#241=VERTEX_POINT('',#240);
#242=CARTESIAN_POINT('',(1.200000000000000,-0.870710678118655,0.029289321881345));
#243=DIRECTION('',(1.0,0.0,0.0));
#244=VECTOR('',#243,0.400000000000000);
#245=LINE('',#242,#244);
#246=EDGE_CURVE('',#239,#241,#245,.T.);
#247=ORIENTED_EDGE('',*,*,#246,.F.);
#248=CARTESIAN_POINT('',(1.200000000000000,-0.800000000000000,0.0));
#249=VERTEX_POINT('',#248);
#250=CARTESIAN_POINT('',(1.200000000000000,-0.800000000000000,0.100000000000000));
#251=DIRECTION('',(1.000000000000000,0.0,0.0));
#252=DIRECTION('',(0.0,-0.707106781186547,-0.707106781186548));
#253=AXIS2_PLACEMENT_3D('',#250,#251,#252);
#254=CIRCLE('',#253,0.100000000000000);
#255=EDGE_CURVE('',#239,#249,#254,.T.);
#256=ORIENTED_EDGE('',*,*,#255,.T.);
#257=CARTESIAN_POINT('',(1.200000000000000,-0.800000000000000,0.0));
#258=DIRECTION('',(1.0,0.0,0.0));
#259=VECTOR('',#258,0.400000000000000);
#260=LINE('',#257,#259);
#261=EDGE_CURVE('',#249,#81,#260,.T.);
#262=ORIENTED_EDGE('',*,*,#261,.T.);
#263=CARTESIAN_POINT('',(1.600000000000000,-0.800000000000000,0.100000000000000));
#264=DIRECTION('',(1.0,0.0,0.0));
#265=DIRECTION('',(0.0,-0.707106781186547,-0.707106781186548));
#266=AXIS2_PLACEMENT_3D('',#263,#264,#265);
#267=CIRCLE('',#266,0.100000000000000);
#268=EDGE_CURVE('',#241,#81,#267,.T.);
#269=ORIENTED_EDGE('',*,*,#268,.F.);
#270=EDGE_LOOP('',(#247,#256,#262,#269));
#271=FACE_OUTER_BOUND('',#270,.T.);
#272=ADVANCED_FACE('',(#271),#237,.T.);
#273=CARTESIAN_POINT('',(1.512500000000000,-0.800000000000000,1.420000000000000));
#274=DIRECTION('',(-1.0,0.0,0.0));
#275=DIRECTION('',(0.0,-0.707106781186548,0.707106781186548));
#276=AXIS2_PLACEMENT_3D('',#273,#274,#275);
#277=CYLINDRICAL_SURFACE('',#276,0.100000000000000);
#278=CARTESIAN_POINT('',(1.600000000000000,-0.870710678118655,1.490710678118655));
#279=VERTEX_POINT('',#278);
#280=CARTESIAN_POINT('',(1.200000000000000,-0.870710678118655,1.490710678118655));
#281=VERTEX_POINT('',#280);
#282=CARTESIAN_POINT('',(1.600000000000000,-0.870710678118655,1.490710678118655));
#283=DIRECTION('',(-1.0,0.0,0.0));
#284=VECTOR('',#283,0.400000000000000);
#285=LINE('',#282,#284);
#286=EDGE_CURVE('',#279,#281,#285,.T.);
#287=ORIENTED_EDGE('',*,*,#286,.F.);
#288=CARTESIAN_POINT('',(1.600000000000000,-0.800000000000000,1.420000000000000));
#289=DIRECTION('',(1.000000000000000,0.0,0.0));
#290=DIRECTION('',(0.0,-0.707106781186547,0.707106781186547));
#291=AXIS2_PLACEMENT_3D('',#288,#289,#290);
#292=CIRCLE('',#291,0.100000000000000);
#293=EDGE_CURVE('',#132,#279,#292,.T.);
#294=ORIENTED_EDGE('',*,*,#293,.F.);
#295=CARTESIAN_POINT('',(1.200000000000000,-0.800000000000000,1.520000000000000));
#296=VERTEX_POINT('',#295);
#297=CARTESIAN_POINT('',(1.600000000000000,-0.800000000000000,1.520000000000000));
#298=DIRECTION('',(-1.0,0.0,0.0));
#299=VECTOR('',#298,0.400000000000000);
#300=LINE('',#297,#299);
#301=EDGE_CURVE('',#132,#296,#300,.T.);
#302=ORIENTED_EDGE('',*,*,#301,.T.);
#303=CARTESIAN_POINT('',(1.200000000000000,-0.800000000000000,1.420000000000000));
#304=DIRECTION('',(1.000000000000000,0.0,0.0));
#305=DIRECTION('',(0.0,-0.707106781186548,0.707106781186548));
#306=AXIS2_PLACEMENT_3D('',#303,#304,#305);
#307=CIRCLE('',#306,0.100000000000000);
#308=EDGE_CURVE('',#296,#281,#307,.T.);
#309=ORIENTED_EDGE('',*,*,#308,.T.);
#310=EDGE_LOOP('',(#287,#294,#302,#309));
#311=FACE_OUTER_BOUND('',#310,.T.);
#312=ADVANCED_FACE('',(#311),#277,.T.);
#313=CARTESIAN_POINT('',(1.137500000000000,0.800000000000000,1.420000000000000));
#314=DIRECTION('',(1.0,-1.480297E-016,0.0));
#315=DIRECTION('',(0.0,0.707106781186548,0.707106781186547));
#316=AXIS2_PLACEMENT_3D('',#313,#314,#315);
#317=CYLINDRICAL_SURFACE('',#316,0.100000000000000);
#318=CARTESIAN_POINT('',(1.200000000000000,0.870710678118655,1.490710678118655));
#319=VERTEX_POINT('',#318);
#320=CARTESIAN_POINT('',(1.600000000000000,0.870710678118655,1.490710678118655));
#321=VERTEX_POINT('',#320);
#322=CARTESIAN_POINT('',(1.200000000000000,0.870710678118655,1.490710678118655));
#323=DIRECTION('',(1.0,0.0,0.0));
#324=VECTOR('',#323,0.400000000000000);
#325=LINE('',#322,#324);
#326=EDGE_CURVE('',#319,#321,#325,.T.);
#327=ORIENTED_EDGE('',*,*,#326,.F.);
#328=CARTESIAN_POINT('',(1.200000000000000,0.800000000000000,1.520000000000000));
#329=VERTEX_POINT('',#328);
#330=CARTESIAN_POINT('',(1.200000000000000,0.800000000000000,1.420000000000000));
#331=DIRECTION('',(1.0,0.0,0.0));
#332=DIRECTION('',(0.0,0.707106781186548,0.707106781186547));
#333=AXIS2_PLACEMENT_3D('',#330,#331,#332);
#334=CIRCLE('',#333,0.100000000000000);
#335=EDGE_CURVE('',#319,#329,#334,.T.);
#336=ORIENTED_EDGE('',*,*,#335,.T.);
#337=CARTESIAN_POINT('',(1.200000000000000,0.800000000000000,1.520000000000000));
#338=DIRECTION('',(1.0,0.0,0.0));
#339=VECTOR('',#338,0.400000000000000);
#340=LINE('',#337,#339);
#341=EDGE_CURVE('',#329,#123,#340,.T.);
#342=ORIENTED_EDGE('',*,*,#341,.T.);
#343=CARTESIAN_POINT('',(1.600000000000000,0.800000000000000,1.420000000000000));
#344=DIRECTION('',(1.000000000000000,0.0,0.0));
#345=DIRECTION('',(0.0,0.707106781186548,0.707106781186547));
#346=AXIS2_PLACEMENT_3D('',#343,#344,#345);
#347=CIRCLE('',#346,0.100000000000000);
#348=EDGE_CURVE('',#321,#123,#347,.T.);
#349=ORIENTED_EDGE('',*,*,#348,.F.);
#350=EDGE_LOOP('',(#327,#336,#342,#349));
#351=FACE_OUTER_BOUND('',#350,.T.);
#352=ADVANCED_FACE('',(#351),#317,.T.);
#353=CARTESIAN_POINT('',(1.137500000000000,0.800000000000000,0.100000000000000));
#354=DIRECTION('',(-1.0,1.480297E-016,0.0));
#355=DIRECTION('',(0.0,0.707106781186548,-0.707106781186547));
#356=AXIS2_PLACEMENT_3D('',#353,#354,#355);
#357=CYLINDRICAL_SURFACE('',#356,0.100000000000000);
#358=CARTESIAN_POINT('',(1.600000000000000,0.870710678118655,0.029289321881345));
#359=VERTEX_POINT('',#358);
#360=CARTESIAN_POINT('',(1.200000000000000,0.870710678118655,0.029289321881345));
#361=VERTEX_POINT('',#360);
#362=CARTESIAN_POINT('',(1.600000000000000,0.870710678118655,0.029289321881345));
#363=DIRECTION('',(-1.0,0.0,0.0));
#364=VECTOR('',#363,0.400000000000000);
#365=LINE('',#362,#364);
#366=EDGE_CURVE('',#359,#361,#365,.T.);
#367=ORIENTED_EDGE('',*,*,#366,.F.);
#368=CARTESIAN_POINT('',(1.600000000000000,0.800000000000000,0.100000000000000));
#369=DIRECTION('',(1.000000000000000,0.0,0.0));
#370=DIRECTION('',(0.0,0.707106781186548,-0.707106781186547));
#371=AXIS2_PLACEMENT_3D('',#368,#369,#370);
#372=CIRCLE('',#371,0.100000000000000);
#373=EDGE_CURVE('',#90,#359,#372,.T.);
#374=ORIENTED_EDGE('',*,*,#373,.F.);
#375=CARTESIAN_POINT('',(1.200000000000000,0.800000000000000,0.0));
#376=VERTEX_POINT('',#375);
#377=CARTESIAN_POINT('',(1.600000000000000,0.800000000000000,0.0));
#378=DIRECTION('',(-1.0,0.0,0.0));
#379=VECTOR('',#378,0.400000000000000);
#380=LINE('',#377,#379);
#381=EDGE_CURVE('',#90,#376,#380,.T.);
#382=ORIENTED_EDGE('',*,*,#381,.T.);
#383=CARTESIAN_POINT('',(1.200000000000000,0.800000000000000,0.100000000000000));
#384=DIRECTION('',(1.000000000000000,0.0,0.0));
#385=DIRECTION('',(0.0,0.707106781186548,-0.707106781186547));
#386=AXIS2_PLACEMENT_3D('',#383,#384,#385);
#387=CIRCLE('',#386,0.100000000000000);
#388=EDGE_CURVE('',#376,#361,#387,.T.);
#389=ORIENTED_EDGE('',*,*,#388,.T.);
#390=EDGE_LOOP('',(#367,#374,#382,#389));
#391=FACE_OUTER_BOUND('',#390,.T.);
#392=ADVANCED_FACE('',(#391),#357,.T.);
#393=CARTESIAN_POINT('',(1.325000000000000,2.220446E-016,0.0));
#394=DIRECTION('',(0.0,0.0,1.0));
#395=DIRECTION('',(1.0,0.0,0.0));
#396=AXIS2_PLACEMENT_3D('',#393,#394,#395);
#397=PLANE('',#396);
#398=ORIENTED_EDGE('',*,*,#261,.F.);
#399=CARTESIAN_POINT('',(1.200000000000000,0.800000000000000,0.0));
#400=DIRECTION('',(0.0,-1.0,0.0));
#401=VECTOR('',#400,1.600000000000000);
#402=LINE('',#399,#401);
#403=EDGE_CURVE('',#376,#249,#402,.T.);
#404=ORIENTED_EDGE('',*,*,#403,.F.);
#405=ORIENTED_EDGE('',*,*,#381,.F.);
#406=ORIENTED_EDGE('',*,*,#95,.F.);
#407=EDGE_LOOP('',(#398,#404,#405,#406));
#408=FACE_OUTER_BOUND('',#407,.T.);
#409=ADVANCED_FACE('',(#408),#397,.F.);
#410=CARTESIAN_POINT('',(1.137500000000000,0.800000000000000,0.100000000000000));
#411=DIRECTION('',(-1.0,1.480297E-016,0.0));
#412=DIRECTION('',(0.0,0.707106781186548,-0.707106781186547));
#413=AXIS2_PLACEMENT_3D('',#410,#411,#412);
#414=CYLINDRICAL_SURFACE('',#413,0.100000000000000);
#415=ORIENTED_EDGE('',*,*,#366,.T.);
#416=CARTESIAN_POINT('',(1.200000000000000,0.900000000000000,0.100000000000000));
#417=VERTEX_POINT('',#416);
#418=CARTESIAN_POINT('',(1.200000000000000,0.800000000000000,0.100000000000000));
#419=DIRECTION('',(1.000000000000000,0.0,0.0));
#420=DIRECTION('',(0.0,0.707106781186548,-0.707106781186547));
#421=AXIS2_PLACEMENT_3D('',#418,#419,#420);
#422=CIRCLE('',#421,0.100000000000000);
#423=EDGE_CURVE('',#361,#417,#422,.T.);
#424=ORIENTED_EDGE('',*,*,#423,.T.);
#425=CARTESIAN_POINT('',(1.200000000000000,0.900000000000000,0.100000000000000));
#426=DIRECTION('',(1.0,0.0,0.0));
#427=VECTOR('',#426,0.400000000000000);
#428=LINE('',#425,#427);
#429=EDGE_CURVE('',#417,#165,#428,.T.);
#430=ORIENTED_EDGE('',*,*,#429,.T.);
#431=CARTESIAN_POINT('',(1.600000000000000,0.800000000000000,0.100000000000000));
#432=DIRECTION('',(1.000000000000000,0.0,0.0));
#433=DIRECTION('',(0.0,0.707106781186548,-0.707106781186547));
#434=AXIS2_PLACEMENT_3D('',#431,#432,#433);
#435=CIRCLE('',#434,0.100000000000000);
#436=EDGE_CURVE('',#359,#165,#435,.T.);
#437=ORIENTED_EDGE('',*,*,#436,.F.);
#438=EDGE_LOOP('',(#415,#424,#430,#437));
#439=FACE_OUTER_BOUND('',#438,.T.);
#440=ADVANCED_FACE('',(#439),#414,.T.);
#441=CARTESIAN_POINT('',(0.950000000000000,0.900000000000000,0.0));
#442=DIRECTION('',(0.0,1.0,0.0));
#443=DIRECTION('',(0.0,0.0,1.0));
#444=AXIS2_PLACEMENT_3D('',#441,#442,#443);
#445=PLANE('',#444);
#446=ORIENTED_EDGE('',*,*,#179,.F.);
#447=ORIENTED_EDGE('',*,*,#429,.F.);
#448=CARTESIAN_POINT('',(1.200000000000000,0.900000000000000,1.420000000000000));
#449=VERTEX_POINT('',#448);
#450=CARTESIAN_POINT('',(1.200000000000000,0.900000000000000,0.100000000000000));
#451=DIRECTION('',(0.0,0.0,1.0));
#452=VECTOR('',#451,1.320000000000000);
#453=LINE('',#450,#452);
#454=EDGE_CURVE('',#417,#449,#453,.T.);
#455=ORIENTED_EDGE('',*,*,#454,.T.);
#456=CARTESIAN_POINT('',(1.600000000000000,0.900000000000000,1.420000000000000));
#457=DIRECTION('',(-1.0,0.0,0.0));
#458=VECTOR('',#457,0.400000000000000);
#459=LINE('',#456,#458);
#460=EDGE_CURVE('',#174,#449,#459,.T.);
#461=ORIENTED_EDGE('',*,*,#460,.F.);
#462=EDGE_LOOP('',(#446,#447,#455,#461));
#463=FACE_OUTER_BOUND('',#462,.T.);
#464=ADVANCED_FACE('',(#463),#445,.T.);
#465=CARTESIAN_POINT('',(1.137500000000000,0.800000000000000,1.420000000000000));
#466=DIRECTION('',(1.0,-1.480297E-016,0.0));
#467=DIRECTION('',(0.0,0.707106781186548,0.707106781186547));
#468=AXIS2_PLACEMENT_3D('',#465,#466,#467);
#469=CYLINDRICAL_SURFACE('',#468,0.100000000000000);
#470=ORIENTED_EDGE('',*,*,#326,.T.);
#471=CARTESIAN_POINT('',(1.600000000000000,0.800000000000000,1.420000000000000));
#472=DIRECTION('',(1.000000000000000,0.0,0.0));
#473=DIRECTION('',(0.0,0.707106781186548,0.707106781186547));
#474=AXIS2_PLACEMENT_3D('',#471,#472,#473);
#475=CIRCLE('',#474,0.100000000000000);
#476=EDGE_CURVE('',#174,#321,#475,.T.);
#477=ORIENTED_EDGE('',*,*,#476,.F.);
#478=ORIENTED_EDGE('',*,*,#460,.T.);
#479=CARTESIAN_POINT('',(1.200000000000000,0.800000000000000,1.420000000000000));
#480=DIRECTION('',(1.0,0.0,0.0));
#481=DIRECTION('',(0.0,0.707106781186548,0.707106781186547));
#482=AXIS2_PLACEMENT_3D('',#479,#480,#481);
#483=CIRCLE('',#482,0.100000000000000);
#484=EDGE_CURVE('',#449,#319,#483,.T.);
#485=ORIENTED_EDGE('',*,*,#484,.T.);
#486=EDGE_LOOP('',(#470,#477,#478,#485));
#487=FACE_OUTER_BOUND('',#486,.T.);
#488=ADVANCED_FACE('',(#487),#469,.T.);
#489=CARTESIAN_POINT('',(1.325000000000000,3.508305E-016,1.520000000000000));
#490=DIRECTION('',(0.0,0.0,1.0));
#491=DIRECTION('',(1.0,0.0,0.0));
#492=AXIS2_PLACEMENT_3D('',#489,#490,#491);
#493=PLANE('',#492);
#494=ORIENTED_EDGE('',*,*,#301,.F.);
#495=ORIENTED_EDGE('',*,*,#137,.F.);
#496=ORIENTED_EDGE('',*,*,#341,.F.);
#497=CARTESIAN_POINT('',(1.200000000000000,-0.800000000000000,1.520000000000000));
#498=DIRECTION('',(0.0,1.0,0.0));
#499=VECTOR('',#498,1.600000000000000);
#500=LINE('',#497,#499);
#501=EDGE_CURVE('',#296,#329,#500,.T.);
#502=ORIENTED_EDGE('',*,*,#501,.F.);
#503=EDGE_LOOP('',(#494,#495,#496,#502));
#504=FACE_OUTER_BOUND('',#503,.T.);
#505=ADVANCED_FACE('',(#504),#493,.T.);
#506=CARTESIAN_POINT('',(1.512500000000000,-0.800000000000000,1.420000000000000));
#507=DIRECTION('',(-1.0,0.0,0.0));
#508=DIRECTION('',(0.0,-0.707106781186548,0.707106781186548));
#509=AXIS2_PLACEMENT_3D('',#506,#507,#508);
#510=CYLINDRICAL_SURFACE('',#509,0.100000000000000);
#511=ORIENTED_EDGE('',*,*,#286,.T.);
#512=CARTESIAN_POINT('',(1.200000000000000,-0.900000000000000,1.420000000000000));
#513=VERTEX_POINT('',#512);
#514=CARTESIAN_POINT('',(1.200000000000000,-0.800000000000000,1.420000000000000));
#515=DIRECTION('',(1.000000000000000,0.0,0.0));
#516=DIRECTION('',(0.0,-0.707106781186548,0.707106781186548));
#517=AXIS2_PLACEMENT_3D('',#514,#515,#516);
#518=CIRCLE('',#517,0.100000000000000);
#519=EDGE_CURVE('',#281,#513,#518,.T.);
#520=ORIENTED_EDGE('',*,*,#519,.T.);
#521=CARTESIAN_POINT('',(1.600000000000000,-0.900000000000000,1.420000000000000));
#522=VERTEX_POINT('',#521);
#523=CARTESIAN_POINT('',(1.200000000000000,-0.900000000000000,1.420000000000000));
#524=DIRECTION('',(1.0,0.0,0.0));
#525=VECTOR('',#524,0.400000000000000);
#526=LINE('',#523,#525);
#527=EDGE_CURVE('',#513,#522,#526,.T.);
#528=ORIENTED_EDGE('',*,*,#527,.T.);
#529=CARTESIAN_POINT('',(1.600000000000000,-0.800000000000000,1.420000000000000));
#530=DIRECTION('',(1.000000000000000,0.0,0.0));
#531=DIRECTION('',(0.0,-0.707106781186547,0.707106781186547));
#532=AXIS2_PLACEMENT_3D('',#529,#530,#531);
#533=CIRCLE('',#532,0.100000000000000);
#534=EDGE_CURVE('',#279,#522,#533,.T.);
#535=ORIENTED_EDGE('',*,*,#534,.F.);
#536=EDGE_LOOP('',(#511,#520,#528,#535));
#537=FACE_OUTER_BOUND('',#536,.T.);
#538=ADVANCED_FACE('',(#537),#510,.T.);
#539=CARTESIAN_POINT('',(1.700000000000000,-0.900000000000000,0.0));
#540=DIRECTION('',(0.0,-1.0,0.0));
#541=DIRECTION('',(0.0,0.0,-1.0));
#542=AXIS2_PLACEMENT_3D('',#539,#540,#541);
#543=PLANE('',#542);
#544=CARTESIAN_POINT('',(1.600000000000000,-0.900000000000000,0.100000000000000));
#545=VERTEX_POINT('',#544);
#546=CARTESIAN_POINT('',(1.600000000000000,-0.900000000000000,1.420000000000000));
#547=DIRECTION('',(0.0,0.0,-1.0));
#548=VECTOR('',#547,1.320000000000000);
#549=LINE('',#546,#548);
#550=EDGE_CURVE('',#522,#545,#549,.T.);
#551=ORIENTED_EDGE('',*,*,#550,.F.);
#552=ORIENTED_EDGE('',*,*,#527,.F.);
#553=CARTESIAN_POINT('',(1.200000000000000,-0.900000000000000,0.100000000000000));
#554=VERTEX_POINT('',#553);
#555=CARTESIAN_POINT('',(1.200000000000000,-0.900000000000000,0.100000000000000));
#556=DIRECTION('',(0.0,0.0,1.0));
#557=VECTOR('',#556,1.320000000000000);
#558=LINE('',#555,#557);
#559=EDGE_CURVE('',#554,#513,#558,.T.);
#560=ORIENTED_EDGE('',*,*,#559,.F.);
#561=CARTESIAN_POINT('',(1.600000000000000,-0.900000000000000,0.100000000000000));
#562=DIRECTION('',(-1.0,0.0,0.0));
#563=VECTOR('',#562,0.400000000000000);
#564=LINE('',#561,#563);
#565=EDGE_CURVE('',#545,#554,#564,.T.);
#566=ORIENTED_EDGE('',*,*,#565,.F.);
#567=EDGE_LOOP('',(#551,#552,#560,#566));
#568=FACE_OUTER_BOUND('',#567,.T.);
#569=ADVANCED_FACE('',(#568),#543,.T.);
#570=CARTESIAN_POINT('',(1.200000000000000,-0.900000000000000,0.0));
#571=DIRECTION('',(-1.0,0.0,0.0));
#572=DIRECTION('',(0.0,0.0,1.0));
#573=AXIS2_PLACEMENT_3D('',#570,#571,#572);
#574=PLANE('',#573);
#575=CARTESIAN_POINT('',(1.200000000000000,-0.800000000000000,0.100000000000000));
#576=DIRECTION('',(1.000000000000000,0.0,0.0));
#577=DIRECTION('',(0.0,-0.707106781186547,-0.707106781186548));
#578=AXIS2_PLACEMENT_3D('',#575,#576,#577);
#579=CIRCLE('',#578,0.100000000000000);
#580=EDGE_CURVE('',#554,#239,#579,.T.);
#581=ORIENTED_EDGE('',*,*,#580,.F.);
#582=ORIENTED_EDGE('',*,*,#559,.T.);
#583=ORIENTED_EDGE('',*,*,#519,.F.);
#584=ORIENTED_EDGE('',*,*,#308,.F.);
#585=ORIENTED_EDGE('',*,*,#501,.T.);
#586=ORIENTED_EDGE('',*,*,#335,.F.);
#587=ORIENTED_EDGE('',*,*,#484,.F.);
#588=ORIENTED_EDGE('',*,*,#454,.F.);
#589=ORIENTED_EDGE('',*,*,#423,.F.);
#590=ORIENTED_EDGE('',*,*,#388,.F.);
#591=ORIENTED_EDGE('',*,*,#403,.T.);
#592=ORIENTED_EDGE('',*,*,#255,.F.);
#593=EDGE_LOOP('',(#581,#582,#583,#584,#585,#586,#587,#588,#589,#590,#591,#592));
#594=FACE_OUTER_BOUND('',#593,.T.);
#595=ADVANCED_FACE('',(#594),#574,.T.);
#596=CARTESIAN_POINT('',(1.512500000000000,-0.800000000000000,0.100000000000000));
#597=DIRECTION('',(1.0,0.0,0.0));
#598=DIRECTION('',(0.0,-0.707106781186547,-0.707106781186548));
#599=AXIS2_PLACEMENT_3D('',#596,#597,#598);
#600=CYLINDRICAL_SURFACE('',#599,0.100000000000000);
#601=ORIENTED_EDGE('',*,*,#246,.T.);
#602=CARTESIAN_POINT('',(1.600000000000000,-0.800000000000000,0.100000000000000));
#603=DIRECTION('',(1.0,0.0,0.0));
#604=DIRECTION('',(0.0,-0.707106781186547,-0.707106781186548));
#605=AXIS2_PLACEMENT_3D('',#602,#603,#604);
#606=CIRCLE('',#605,0.100000000000000);
#607=EDGE_CURVE('',#545,#241,#606,.T.);
#608=ORIENTED_EDGE('',*,*,#607,.F.);
#609=ORIENTED_EDGE('',*,*,#565,.T.);
#610=ORIENTED_EDGE('',*,*,#580,.T.);
#611=EDGE_LOOP('',(#601,#608,#609,#610));
#612=FACE_OUTER_BOUND('',#611,.T.);
#613=ADVANCED_FACE('',(#612),#600,.T.);
#614=CARTESIAN_POINT('',(1.600000000000000,-0.800000000000000,0.0));
#615=DIRECTION('',(0.0,0.0,1.0));
#616=DIRECTION('',(0.707106781186548,-0.707106781186547,0.0));
#617=AXIS2_PLACEMENT_3D('',#614,#615,#616);
#618=CYLINDRICAL_SURFACE('',#617,0.100000000000000);
#619=ORIENTED_EDGE('',*,*,#204,.T.);
#620=CARTESIAN_POINT('',(1.600000000000000,-0.800000000000000,1.420000000000000));
#621=DIRECTION('',(0.0,0.0,-1.0));
#622=DIRECTION('',(1.0,0.0,0.0));
#623=AXIS2_PLACEMENT_3D('',#620,#621,#622);
#624=CIRCLE('',#623,0.100000000000000);
#625=EDGE_CURVE('',#199,#522,#624,.T.);
#626=ORIENTED_EDGE('',*,*,#625,.T.);
#627=ORIENTED_EDGE('',*,*,#550,.T.);
#628=CARTESIAN_POINT('',(1.600000000000000,-0.800000000000000,0.100000000000000));
#629=DIRECTION('',(0.0,0.0,1.0));
#630=DIRECTION('',(0.0,-1.0,0.0));
#631=AXIS2_PLACEMENT_3D('',#628,#629,#630);
#632=CIRCLE('',#631,0.100000000000000);
#633=EDGE_CURVE('',#545,#197,#632,.T.);
#634=ORIENTED_EDGE('',*,*,#633,.T.);
#635=EDGE_LOOP('',(#619,#626,#627,#634));
#636=FACE_OUTER_BOUND('',#635,.T.);
#637=ADVANCED_FACE('',(#636),#618,.T.);
#638=CARTESIAN_POINT('',(1.600000000000000,0.800000000000000,0.0));
#639=DIRECTION('',(0.0,0.0,1.0));
#640=DIRECTION('',(0.707106781186548,0.707106781186547,0.0));
#641=AXIS2_PLACEMENT_3D('',#638,#639,#640);
#642=CYLINDRICAL_SURFACE('',#641,0.100000000000000);
#643=ORIENTED_EDGE('',*,*,#162,.T.);
#644=CARTESIAN_POINT('',(1.700000000000000,0.800000000000000,1.420000000000000));
#645=VERTEX_POINT('',#644);
#646=CARTESIAN_POINT('',(1.600000000000000,0.800000000000000,1.420000000000000));
#647=DIRECTION('',(0.0,0.0,-1.0));
#648=DIRECTION('',(0.0,1.0,0.0));
#649=AXIS2_PLACEMENT_3D('',#646,#647,#648);
#650=CIRCLE('',#649,0.100000000000000);
#651=EDGE_CURVE('',#157,#645,#650,.T.);
#652=ORIENTED_EDGE('',*,*,#651,.T.);
#653=CARTESIAN_POINT('',(1.700000000000000,0.800000000000000,0.100000000000000));
#654=VERTEX_POINT('',#653);
#655=CARTESIAN_POINT('',(1.700000000000000,0.800000000000000,1.420000000000000));
#656=DIRECTION('',(0.0,0.0,-1.0));
#657=VECTOR('',#656,1.320000000000000);
#658=LINE('',#655,#657);
#659=EDGE_CURVE('',#645,#654,#658,.T.);
#660=ORIENTED_EDGE('',*,*,#659,.T.);
#661=CARTESIAN_POINT('',(1.600000000000000,0.800000000000000,0.100000000000000));
#662=DIRECTION('',(0.0,0.0,1.0));
#663=DIRECTION('',(1.0,0.0,0.0));
#664=AXIS2_PLACEMENT_3D('',#661,#662,#663);
#665=CIRCLE('',#664,0.100000000000000);
#666=EDGE_CURVE('',#654,#155,#665,.T.);
#667=ORIENTED_EDGE('',*,*,#666,.T.);
#668=EDGE_LOOP('',(#643,#652,#660,#667));
#669=FACE_OUTER_BOUND('',#668,.T.);
#670=ADVANCED_FACE('',(#669),#642,.T.);
#671=CARTESIAN_POINT('',(1.700000000000000,0.900000000000000,0.0));
#672=DIRECTION('',(1.0,0.0,0.0));
#673=DIRECTION('',(0.0,0.0,-1.0));
#674=AXIS2_PLACEMENT_3D('',#671,#672,#673);
#675=PLANE('',#674);
#676=ORIENTED_EDGE('',*,*,#659,.F.);
#677=CARTESIAN_POINT('',(1.700000000000000,-0.800000000000000,1.420000000000000));
#678=DIRECTION('',(0.0,1.0,0.0));
#679=VECTOR('',#678,1.600000000000000);
#680=LINE('',#677,#679);
#681=EDGE_CURVE('',#216,#645,#680,.T.);
#682=ORIENTED_EDGE('',*,*,#681,.F.);
#683=ORIENTED_EDGE('',*,*,#221,.F.);
#684=CARTESIAN_POINT('',(1.700000000000000,0.800000000000000,0.100000000000000));
#685=DIRECTION('',(0.0,-1.0,0.0));
#686=VECTOR('',#685,1.600000000000000);
#687=LINE('',#684,#686);
#688=EDGE_CURVE('',#654,#207,#687,.T.);
#689=ORIENTED_EDGE('',*,*,#688,.F.);
#690=EDGE_LOOP('',(#676,#682,#683,#689));
#691=FACE_OUTER_BOUND('',#690,.T.);
#692=ADVANCED_FACE('',(#691),#675,.T.);
#693=CARTESIAN_POINT('',(1.600000000000000,-0.800000000000000,1.420000000000000));
#694=DIRECTION('',(0.0,0.0,1.0));
#695=DIRECTION('',(1.0,0.0,0.0));
#696=AXIS2_PLACEMENT_3D('',#693,#694,#695);
#697=SPHERICAL_SURFACE('',#696,0.100000000000000);
#698=ORIENTED_EDGE('',*,*,#228,.F.);
#699=CARTESIAN_POINT('',(1.600000000000000,-0.800000000000000,1.420000000000000));
#700=DIRECTION('',(0.0,-1.000000000000000,0.0));
#701=DIRECTION('',(0.707106781186548,0.0,0.707106781186547));
#702=AXIS2_PLACEMENT_3D('',#699,#700,#701);
#703=CIRCLE('',#702,0.100000000000000);
#704=EDGE_CURVE('',#216,#115,#703,.T.);
#705=ORIENTED_EDGE('',*,*,#704,.T.);
#706=ORIENTED_EDGE('',*,*,#144,.T.);
#707=ORIENTED_EDGE('',*,*,#293,.T.);
#708=ORIENTED_EDGE('',*,*,#534,.T.);
#709=ORIENTED_EDGE('',*,*,#625,.F.);
#710=EDGE_LOOP('',(#698,#705,#706,#707,#708,#709));
#711=FACE_OUTER_BOUND('',#710,.T.);
#712=ADVANCED_FACE('',(#711),#697,.T.);
#713=CARTESIAN_POINT('',(1.600000000000000,0.800000000000000,1.420000000000000));
#714=DIRECTION('',(0.0,0.0,1.0));
#715=DIRECTION('',(1.0,0.0,0.0));
#716=AXIS2_PLACEMENT_3D('',#713,#714,#715);
#717=SPHERICAL_SURFACE('',#716,0.100000000000000);
#718=ORIENTED_EDGE('',*,*,#186,.F.);
#719=ORIENTED_EDGE('',*,*,#476,.T.);
#720=ORIENTED_EDGE('',*,*,#348,.T.);
#721=ORIENTED_EDGE('',*,*,#129,.T.);
#722=CARTESIAN_POINT('',(1.600000000000000,0.800000000000000,1.420000000000000));
#723=DIRECTION('',(0.0,1.000000000000000,0.0));
#724=DIRECTION('',(0.707106781186548,0.0,0.707106781186547));
#725=AXIS2_PLACEMENT_3D('',#722,#723,#724);
#726=CIRCLE('',#725,0.100000000000000);
#727=EDGE_CURVE('',#113,#645,#726,.T.);
#728=ORIENTED_EDGE('',*,*,#727,.T.);
#729=ORIENTED_EDGE('',*,*,#651,.F.);
#730=EDGE_LOOP('',(#718,#719,#720,#721,#728,#729));
#731=FACE_OUTER_BOUND('',#730,.T.);
#732=ADVANCED_FACE('',(#731),#717,.T.);
#733=CARTESIAN_POINT('',(1.600000000000000,0.450000000000000,1.420000000000000));
#734=DIRECTION('',(0.0,-1.0,0.0));
#735=DIRECTION('',(0.707106781186548,0.0,0.707106781186547));
#736=AXIS2_PLACEMENT_3D('',#733,#734,#735);
#737=CYLINDRICAL_SURFACE('',#736,0.100000000000000);
#738=ORIENTED_EDGE('',*,*,#120,.T.);
#739=ORIENTED_EDGE('',*,*,#704,.F.);
#740=ORIENTED_EDGE('',*,*,#681,.T.);
#741=ORIENTED_EDGE('',*,*,#727,.F.);
#742=EDGE_LOOP('',(#738,#739,#740,#741));
#743=FACE_OUTER_BOUND('',#742,.T.);
#744=ADVANCED_FACE('',(#743),#737,.T.);
#745=CARTESIAN_POINT('',(1.600000000000000,0.800000000000000,0.100000000000000));
#746=DIRECTION('',(0.0,0.0,1.0));
#747=DIRECTION('',(1.0,0.0,0.0));
#748=AXIS2_PLACEMENT_3D('',#745,#746,#747);
#749=SPHERICAL_SURFACE('',#748,0.100000000000000);
#750=ORIENTED_EDGE('',*,*,#666,.F.);
#751=CARTESIAN_POINT('',(1.600000000000000,0.800000000000000,0.100000000000000));
#752=DIRECTION('',(0.0,1.000000000000000,0.0));
#753=DIRECTION('',(0.707106781186548,0.0,-0.707106781186547));
#754=AXIS2_PLACEMENT_3D('',#751,#752,#753);
#755=CIRCLE('',#754,0.100000000000000);
#756=EDGE_CURVE('',#654,#73,#755,.T.);
#757=ORIENTED_EDGE('',*,*,#756,.T.);
#758=ORIENTED_EDGE('',*,*,#102,.T.);
#759=ORIENTED_EDGE('',*,*,#373,.T.);
#760=ORIENTED_EDGE('',*,*,#436,.T.);
#761=ORIENTED_EDGE('',*,*,#171,.F.);
#762=EDGE_LOOP('',(#750,#757,#758,#759,#760,#761));
#763=FACE_OUTER_BOUND('',#762,.T.);
#764=ADVANCED_FACE('',(#763),#749,.T.);
#765=CARTESIAN_POINT('',(1.600000000000000,-0.800000000000000,0.100000000000000));
#766=DIRECTION('',(0.0,0.0,1.0));
#767=DIRECTION('',(1.0,0.0,0.0));
#768=AXIS2_PLACEMENT_3D('',#765,#766,#767);
#769=SPHERICAL_SURFACE('',#768,0.100000000000000);
#770=ORIENTED_EDGE('',*,*,#633,.F.);
#771=ORIENTED_EDGE('',*,*,#607,.T.);
#772=ORIENTED_EDGE('',*,*,#268,.T.);
#773=ORIENTED_EDGE('',*,*,#87,.T.);
#774=CARTESIAN_POINT('',(1.600000000000000,-0.800000000000000,0.100000000000000));
#775=DIRECTION('',(0.0,-1.000000000000000,0.0));
#776=DIRECTION('',(0.707106781186548,0.0,-0.707106781186547));
#777=AXIS2_PLACEMENT_3D('',#774,#775,#776);
#778=CIRCLE('',#777,0.100000000000000);
#779=EDGE_CURVE('',#71,#207,#778,.T.);
#780=ORIENTED_EDGE('',*,*,#779,.T.);
#781=ORIENTED_EDGE('',*,*,#213,.F.);
#782=EDGE_LOOP('',(#770,#771,#772,#773,#780,#781));
#783=FACE_OUTER_BOUND('',#782,.T.);
#784=ADVANCED_FACE('',(#783),#769,.T.);
#785=CARTESIAN_POINT('',(1.600000000000000,0.450000000000000,0.100000000000000));
#786=DIRECTION('',(0.0,1.0,0.0));
#787=DIRECTION('',(0.707106781186548,0.0,-0.707106781186547));
#788=AXIS2_PLACEMENT_3D('',#785,#786,#787);
#789=CYLINDRICAL_SURFACE('',#788,0.100000000000000);
#790=ORIENTED_EDGE('',*,*,#78,.T.);
#791=ORIENTED_EDGE('',*,*,#756,.F.);
#792=ORIENTED_EDGE('',*,*,#688,.T.);
#793=ORIENTED_EDGE('',*,*,#779,.F.);
#794=EDGE_LOOP('',(#790,#791,#792,#793));
#795=FACE_OUTER_BOUND('',#794,.T.);
#796=ADVANCED_FACE('',(#795),#789,.T.);
#797=CLOSED_SHELL('',(#106,#148,#190,#232,#272,#312,#352,#392,#409,#440,#464,#488,#505,#538,#569,#595,#613,#637,#670,#692,#712,#732,#744,#764,#784,#796));
#798=MANIFOLD_SOLID_BREP('3A1',#797);
#799=COLOUR_RGB('254',0.866000000000000,0.866000000000000,0.866000000000000);
#800=SURFACE_STYLE_USAGE(.BOTH.,#801);
#801=SURFACE_SIDE_STYLE('NONE',(#802));
#802=SURFACE_STYLE_FILL_AREA(#803);
#803=FILL_AREA_STYLE('NONE',(#804));
#804=FILL_AREA_STYLE_COLOUR('NONE',#799);
#805=PRESENTATION_STYLE_ASSIGNMENT((#800));
#806=STYLED_ITEM('NONE',(#805),#798);
#807=MECHANICAL_DESIGN_GEOMETRIC_PRESENTATION_REPRESENTATION('NONE',(#806,#1246,#1981),#28);
#808=PRESENTATION_LAYER_ASSIGNMENT('3D','None',(#798,#1238,#1980));
#809=CARTESIAN_POINT('',(0.475000000000000,-0.800000000000000,0.100000000000000));
#810=DIRECTION('',(-1.0,0.0,0.0));
#811=DIRECTION('',(0.0,-0.707106781186547,-0.707106781186548));
#812=AXIS2_PLACEMENT_3D('',#809,#810,#811);
#813=CYLINDRICAL_SURFACE('',#812,0.100000000000000);
#814=CARTESIAN_POINT('',(1.200000000000000,-0.870710678118655,0.029289321881345));
#815=VERTEX_POINT('',#814);
#816=CARTESIAN_POINT('',(-1.200000000000000,-0.870710678118655,0.029289321881345));
#817=VERTEX_POINT('',#816);
#818=CARTESIAN_POINT('',(1.200000000000000,-0.870710678118655,0.029289321881345));
#819=DIRECTION('',(-1.0,0.0,0.0));
#820=VECTOR('',#819,2.400000000000000);
#821=LINE('',#818,#820);
#822=EDGE_CURVE('',#815,#817,#821,.T.);
#823=ORIENTED_EDGE('',*,*,#822,.F.);
#824=CARTESIAN_POINT('',(1.200000000000000,-0.900000000000000,0.100000000000000));
#825=VERTEX_POINT('',#824);
#826=CARTESIAN_POINT('',(1.200000000000000,-0.800000000000000,0.100000000000000));
#827=DIRECTION('',(-1.000000000000000,0.0,0.0));
#828=DIRECTION('',(0.0,-0.707106781186547,-0.707106781186548));
#829=AXIS2_PLACEMENT_3D('',#826,#827,#828);
#830=CIRCLE('',#829,0.100000000000000);
#831=EDGE_CURVE('',#815,#825,#830,.T.);
#832=ORIENTED_EDGE('',*,*,#831,.T.);
#833=CARTESIAN_POINT('',(-1.200000000000000,-0.900000000000000,0.100000000000000));
#834=VERTEX_POINT('',#833);
#835=CARTESIAN_POINT('',(1.200000000000000,-0.900000000000000,0.100000000000000));
#836=DIRECTION('',(-1.0,0.0,0.0));
#837=VECTOR('',#836,2.400000000000000);
#838=LINE('',#835,#837);
#839=EDGE_CURVE('',#825,#834,#838,.T.);
#840=ORIENTED_EDGE('',*,*,#839,.T.);
#841=CARTESIAN_POINT('',(-1.200000000000000,-0.800000000000000,0.100000000000000));
#842=DIRECTION('',(1.000000000000000,0.0,0.0));
#843=DIRECTION('',(0.0,-0.707106781186547,-0.707106781186548));
#844=AXIS2_PLACEMENT_3D('',#841,#842,#843);
#845=CIRCLE('',#844,0.100000000000000);
#846=EDGE_CURVE('',#834,#817,#845,.T.);
#847=ORIENTED_EDGE('',*,*,#846,.T.);
#848=EDGE_LOOP('',(#823,#832,#840,#847));
#849=FACE_OUTER_BOUND('',#848,.T.);
#850=ADVANCED_FACE('',(#849),#813,.T.);
#851=CARTESIAN_POINT('',(-0.475000000000000,0.800000000000000,0.100000000000000));
#852=DIRECTION('',(1.0,5.843279E-017,0.0));
#853=DIRECTION('',(0.0,0.707106781186547,-0.707106781186548));
#854=AXIS2_PLACEMENT_3D('',#851,#852,#853);
#855=CYLINDRICAL_SURFACE('',#854,0.100000000000000);
#856=CARTESIAN_POINT('',(-1.200000000000000,0.870710678118655,0.029289321881345));
#857=VERTEX_POINT('',#856);
#858=CARTESIAN_POINT('',(1.200000000000000,0.870710678118655,0.029289321881345));
#859=VERTEX_POINT('',#858);
#860=CARTESIAN_POINT('',(-1.200000000000000,0.870710678118655,0.029289321881345));
#861=DIRECTION('',(1.0,0.0,0.0));
#862=VECTOR('',#861,2.400000000000000);
#863=LINE('',#860,#862);
#864=EDGE_CURVE('',#857,#859,#863,.T.);
#865=ORIENTED_EDGE('',*,*,#864,.F.);
#866=CARTESIAN_POINT('',(-1.200000000000000,0.900000000000000,0.100000000000000));
#867=VERTEX_POINT('',#866);
#868=CARTESIAN_POINT('',(-1.200000000000000,0.800000000000000,0.100000000000000));
#869=DIRECTION('',(1.000000000000000,0.0,0.0));
#870=DIRECTION('',(0.0,0.707106781186547,-0.707106781186548));
#871=AXIS2_PLACEMENT_3D('',#868,#869,#870);
#872=CIRCLE('',#871,0.100000000000000);
#873=EDGE_CURVE('',#857,#867,#872,.T.);
#874=ORIENTED_EDGE('',*,*,#873,.T.);
#875=CARTESIAN_POINT('',(1.200000000000000,0.900000000000000,0.100000000000000));
#876=VERTEX_POINT('',#875);
#877=CARTESIAN_POINT('',(-1.200000000000000,0.900000000000000,0.100000000000000));
#878=DIRECTION('',(1.0,0.0,0.0));
#879=VECTOR('',#878,2.400000000000000);
#880=LINE('',#877,#879);
#881=EDGE_CURVE('',#867,#876,#880,.T.);
#882=ORIENTED_EDGE('',*,*,#881,.T.);
#883=CARTESIAN_POINT('',(1.200000000000000,0.800000000000000,0.100000000000000));
#884=DIRECTION('',(-1.000000000000000,0.0,0.0));
#885=DIRECTION('',(0.0,0.707106781186547,-0.707106781186548));
#886=AXIS2_PLACEMENT_3D('',#883,#884,#885);
#887=CIRCLE('',#886,0.100000000000000);
#888=EDGE_CURVE('',#876,#859,#887,.T.);
#889=ORIENTED_EDGE('',*,*,#888,.T.);
#890=EDGE_LOOP('',(#865,#874,#882,#889));
#891=FACE_OUTER_BOUND('',#890,.T.);
#892=ADVANCED_FACE('',(#891),#855,.T.);
#893=CARTESIAN_POINT('',(-0.475000000000000,0.800000000000000,1.420000000000000));
#894=DIRECTION('',(1.0,5.843279E-017,0.0));
#895=DIRECTION('',(0.0,0.707106781186548,0.707106781186548));
#896=AXIS2_PLACEMENT_3D('',#893,#894,#895);
#897=CYLINDRICAL_SURFACE('',#896,0.100000000000000);
#898=CARTESIAN_POINT('',(-1.200000000000000,0.870710678118655,1.490710678118655));
#899=VERTEX_POINT('',#898);
#900=CARTESIAN_POINT('',(1.200000000000000,0.870710678118655,1.490710678118655));
#901=VERTEX_POINT('',#900);
#902=CARTESIAN_POINT('',(-1.200000000000000,0.870710678118655,1.490710678118655));
#903=DIRECTION('',(1.0,0.0,0.0));
#904=VECTOR('',#903,2.400000000000000);
#905=LINE('',#902,#904);
#906=EDGE_CURVE('',#899,#901,#905,.T.);
#907=ORIENTED_EDGE('',*,*,#906,.F.);
#908=CARTESIAN_POINT('',(-1.200000000000000,0.800000000000000,1.520000000000000));
#909=VERTEX_POINT('',#908);
#910=CARTESIAN_POINT('',(-1.200000000000000,0.800000000000000,1.420000000000000));
#911=DIRECTION('',(1.000000000000000,0.0,0.0));
#912=DIRECTION('',(0.0,0.707106781186548,0.707106781186548));
#913=AXIS2_PLACEMENT_3D('',#910,#911,#912);
#914=CIRCLE('',#913,0.100000000000000);
#915=EDGE_CURVE('',#899,#909,#914,.T.);
#916=ORIENTED_EDGE('',*,*,#915,.T.);
#917=CARTESIAN_POINT('',(1.200000000000000,0.800000000000000,1.520000000000000));
#918=VERTEX_POINT('',#917);
#919=CARTESIAN_POINT('',(-1.200000000000000,0.800000000000000,1.520000000000000));
#920=DIRECTION('',(1.0,0.0,0.0));
#921=VECTOR('',#920,2.400000000000000);
#922=LINE('',#919,#921);
#923=EDGE_CURVE('',#909,#918,#922,.T.);
#924=ORIENTED_EDGE('',*,*,#923,.T.);
#925=CARTESIAN_POINT('',(1.200000000000000,0.800000000000000,1.420000000000000));
#926=DIRECTION('',(-1.000000000000000,0.0,0.0));
#927=DIRECTION('',(0.0,0.707106781186548,0.707106781186548));
#928=AXIS2_PLACEMENT_3D('',#925,#926,#927);
#929=CIRCLE('',#928,0.100000000000000);
#930=EDGE_CURVE('',#918,#901,#929,.T.);
#931=ORIENTED_EDGE('',*,*,#930,.T.);
#932=EDGE_LOOP('',(#907,#916,#924,#931));
#933=FACE_OUTER_BOUND('',#932,.T.);
#934=ADVANCED_FACE('',(#933),#897,.T.);
#935=CARTESIAN_POINT('',(0.475000000000000,-0.800000000000000,1.420000000000000));
#936=DIRECTION('',(-1.0,0.0,0.0));
#937=DIRECTION('',(0.0,-0.707106781186548,0.707106781186548));
#938=AXIS2_PLACEMENT_3D('',#935,#936,#937);
#939=CYLINDRICAL_SURFACE('',#938,0.100000000000000);
#940=CARTESIAN_POINT('',(1.200000000000000,-0.870710678118655,1.490710678118655));
#941=VERTEX_POINT('',#940);
#942=CARTESIAN_POINT('',(-1.200000000000000,-0.870710678118655,1.490710678118655));
#943=VERTEX_POINT('',#942);
#944=CARTESIAN_POINT('',(1.200000000000000,-0.870710678118655,1.490710678118655));
#945=DIRECTION('',(-1.0,0.0,0.0));
#946=VECTOR('',#945,2.400000000000000);
#947=LINE('',#944,#946);
#948=EDGE_CURVE('',#941,#943,#947,.T.);
#949=ORIENTED_EDGE('',*,*,#948,.F.);
#950=CARTESIAN_POINT('',(1.200000000000000,-0.800000000000000,1.520000000000000));
#951=VERTEX_POINT('',#950);
#952=CARTESIAN_POINT('',(1.200000000000000,-0.800000000000000,1.420000000000000));
#953=DIRECTION('',(-1.000000000000000,0.0,0.0));
#954=DIRECTION('',(0.0,-0.707106781186548,0.707106781186548));
#955=AXIS2_PLACEMENT_3D('',#952,#953,#954);
#956=CIRCLE('',#955,0.100000000000000);
#957=EDGE_CURVE('',#941,#951,#956,.T.);
#958=ORIENTED_EDGE('',*,*,#957,.T.);
#959=CARTESIAN_POINT('',(-1.200000000000000,-0.800000000000000,1.520000000000000));
#960=VERTEX_POINT('',#959);
#961=CARTESIAN_POINT('',(1.200000000000000,-0.800000000000000,1.520000000000000));
#962=DIRECTION('',(-1.0,0.0,0.0));
#963=VECTOR('',#962,2.400000000000000);
#964=LINE('',#961,#963);
#965=EDGE_CURVE('',#951,#960,#964,.T.);
#966=ORIENTED_EDGE('',*,*,#965,.T.);
#967=CARTESIAN_POINT('',(-1.200000000000000,-0.800000000000000,1.420000000000000));
#968=DIRECTION('',(1.000000000000000,0.0,0.0));
#969=DIRECTION('',(0.0,-0.707106781186548,0.707106781186548));
#970=AXIS2_PLACEMENT_3D('',#967,#968,#969);
#971=CIRCLE('',#970,0.100000000000000);
#972=EDGE_CURVE('',#960,#943,#971,.T.);
#973=ORIENTED_EDGE('',*,*,#972,.T.);
#974=EDGE_LOOP('',(#949,#958,#966,#973));
#975=FACE_OUTER_BOUND('',#974,.T.);
#976=ADVANCED_FACE('',(#975),#939,.T.);
#977=CARTESIAN_POINT('',(0.950000000000000,-0.900000000000000,0.0));
#978=DIRECTION('',(0.0,-1.0,0.0));
#979=DIRECTION('',(0.0,0.0,-1.0));
#980=AXIS2_PLACEMENT_3D('',#977,#978,#979);
#981=PLANE('',#980);
#982=ORIENTED_EDGE('',*,*,#839,.F.);
#983=CARTESIAN_POINT('',(1.200000000000000,-0.900000000000000,1.420000000000000));
#984=VERTEX_POINT('',#983);
#985=CARTESIAN_POINT('',(1.200000000000000,-0.900000000000000,0.100000000000000));
#986=DIRECTION('',(0.0,0.0,1.0));
#987=VECTOR('',#986,1.320000000000000);
#988=LINE('',#985,#987);
#989=EDGE_CURVE('',#825,#984,#988,.T.);
#990=ORIENTED_EDGE('',*,*,#989,.T.);
#991=CARTESIAN_POINT('',(-1.200000000000000,-0.900000000000000,1.420000000000000));
#992=VERTEX_POINT('',#991);
#993=CARTESIAN_POINT('',(-1.200000000000000,-0.900000000000000,1.420000000000000));
#994=DIRECTION('',(1.0,0.0,0.0));
#995=VECTOR('',#994,2.400000000000000);
#996=LINE('',#993,#995);
#997=EDGE_CURVE('',#992,#984,#996,.T.);
#998=ORIENTED_EDGE('',*,*,#997,.F.);
#999=CARTESIAN_POINT('',(-1.200000000000000,-0.900000000000000,0.100000000000000));
#1000=DIRECTION('',(0.0,0.0,1.0));
#1001=VECTOR('',#1000,1.320000000000000);
#1002=LINE('',#999,#1001);
#1003=EDGE_CURVE('',#834,#992,#1002,.T.);
#1004=ORIENTED_EDGE('',*,*,#1003,.F.);
#1005=EDGE_LOOP('',(#982,#990,#998,#1004));
#1006=FACE_OUTER_BOUND('',#1005,.T.);
#1007=ADVANCED_FACE('',(#1006),#981,.T.);
#1008=CARTESIAN_POINT('',(0.475000000000000,-0.800000000000000,1.420000000000000));
#1009=DIRECTION('',(-1.0,0.0,0.0));
#1010=DIRECTION('',(0.0,-0.707106781186548,0.707106781186548));
#1011=AXIS2_PLACEMENT_3D('',#1008,#1009,#1010);
#1012=CYLINDRICAL_SURFACE('',#1011,0.100000000000000);
#1013=ORIENTED_EDGE('',*,*,#948,.T.);
#1014=CARTESIAN_POINT('',(-1.200000000000000,-0.800000000000000,1.420000000000000));
#1015=DIRECTION('',(1.000000000000000,0.0,0.0));
#1016=DIRECTION('',(0.0,-0.707106781186548,0.707106781186548));
#1017=AXIS2_PLACEMENT_3D('',#1014,#1015,#1016);
#1018=CIRCLE('',#1017,0.100000000000000);
#1019=EDGE_CURVE('',#943,#992,#1018,.T.);
#1020=ORIENTED_EDGE('',*,*,#1019,.T.);
#1021=ORIENTED_EDGE('',*,*,#997,.T.);
#1022=CARTESIAN_POINT('',(1.200000000000000,-0.800000000000000,1.420000000000000));
#1023=DIRECTION('',(-1.000000000000000,0.0,0.0));
#1024=DIRECTION('',(0.0,-0.707106781186548,0.707106781186548));
#1025=AXIS2_PLACEMENT_3D('',#1022,#1023,#1024);
#1026=CIRCLE('',#1025,0.100000000000000);
#1027=EDGE_CURVE('',#984,#941,#1026,.T.);
#1028=ORIENTED_EDGE('',*,*,#1027,.T.);
#1029=EDGE_LOOP('',(#1013,#1020,#1021,#1028));
#1030=FACE_OUTER_BOUND('',#1029,.T.);
#1031=ADVANCED_FACE('',(#1030),#1012,.T.);
#1032=CARTESIAN_POINT('',(1.110223E-016,3.508305E-016,1.520000000000000));
#1033=DIRECTION('',(0.0,0.0,1.0));
#1034=DIRECTION('',(1.0,0.0,0.0));
#1035=AXIS2_PLACEMENT_3D('',#1032,#1033,#1034);
#1036=PLANE('',#1035);
#1037=ORIENTED_EDGE('',*,*,#965,.F.);
#1038=CARTESIAN_POINT('',(1.200000000000000,0.800000000000000,1.520000000000000));
#1039=DIRECTION('',(0.0,-1.0,0.0));
#1040=VECTOR('',#1039,1.600000000000000);
#1041=LINE('',#1038,#1040);
#1042=EDGE_CURVE('',#918,#951,#1041,.T.);
#1043=ORIENTED_EDGE('',*,*,#1042,.F.);
#1044=ORIENTED_EDGE('',*,*,#923,.F.);
#1045=CARTESIAN_POINT('',(-1.200000000000000,-0.800000000000000,1.520000000000000));
#1046=DIRECTION('',(0.0,1.0,0.0));
#1047=VECTOR('',#1046,1.600000000000000);
#1048=LINE('',#1045,#1047);
#1049=EDGE_CURVE('',#960,#909,#1048,.T.);
#1050=ORIENTED_EDGE('',*,*,#1049,.F.);
#1051=EDGE_LOOP('',(#1037,#1043,#1044,#1050));
#1052=FACE_OUTER_BOUND('',#1051,.T.);
#1053=ADVANCED_FACE('',(#1052),#1036,.T.);
#1054=CARTESIAN_POINT('',(-0.475000000000000,0.800000000000000,1.420000000000000));
#1055=DIRECTION('',(1.0,5.843279E-017,0.0));
#1056=DIRECTION('',(0.0,0.707106781186548,0.707106781186548));
#1057=AXIS2_PLACEMENT_3D('',#1054,#1055,#1056);
#1058=CYLINDRICAL_SURFACE('',#1057,0.100000000000000);
#1059=ORIENTED_EDGE('',*,*,#906,.T.);
#1060=CARTESIAN_POINT('',(1.200000000000000,0.900000000000000,1.420000000000000));
#1061=VERTEX_POINT('',#1060);
#1062=CARTESIAN_POINT('',(1.200000000000000,0.800000000000000,1.420000000000000));
#1063=DIRECTION('',(-1.000000000000000,0.0,0.0));
#1064=DIRECTION('',(0.0,0.707106781186548,0.707106781186548));
#1065=AXIS2_PLACEMENT_3D('',#1062,#1063,#1064);
#1066=CIRCLE('',#1065,0.100000000000000);
#1067=EDGE_CURVE('',#901,#1061,#1066,.T.);
#1068=ORIENTED_EDGE('',*,*,#1067,.T.);
#1069=CARTESIAN_POINT('',(-1.200000000000000,0.900000000000000,1.420000000000000));
#1070=VERTEX_POINT('',#1069);
#1071=CARTESIAN_POINT('',(1.200000000000000,0.900000000000000,1.420000000000000));
#1072=DIRECTION('',(-1.0,0.0,0.0));
#1073=VECTOR('',#1072,2.400000000000000);
#1074=LINE('',#1071,#1073);
#1075=EDGE_CURVE('',#1061,#1070,#1074,.T.);
#1076=ORIENTED_EDGE('',*,*,#1075,.T.);
#1077=CARTESIAN_POINT('',(-1.200000000000000,0.800000000000000,1.420000000000000));
#1078=DIRECTION('',(1.000000000000000,0.0,0.0));
#1079=DIRECTION('',(0.0,0.707106781186548,0.707106781186548));
#1080=AXIS2_PLACEMENT_3D('',#1077,#1078,#1079);
#1081=CIRCLE('',#1080,0.100000000000000);
#1082=EDGE_CURVE('',#1070,#899,#1081,.T.);
#1083=ORIENTED_EDGE('',*,*,#1082,.T.);
#1084=EDGE_LOOP('',(#1059,#1068,#1076,#1083));
#1085=FACE_OUTER_BOUND('',#1084,.T.);
#1086=ADVANCED_FACE('',(#1085),#1058,.T.);
#1087=CARTESIAN_POINT('',(-0.950000000000000,0.900000000000000,0.0));
#1088=DIRECTION('',(0.0,1.0,0.0));
#1089=DIRECTION('',(0.0,0.0,1.0));
#1090=AXIS2_PLACEMENT_3D('',#1087,#1088,#1089);
#1091=PLANE('',#1090);
#1092=ORIENTED_EDGE('',*,*,#881,.F.);
#1093=CARTESIAN_POINT('',(-1.200000000000000,0.900000000000000,0.100000000000000));
#1094=DIRECTION('',(0.0,0.0,1.0));
#1095=VECTOR('',#1094,1.320000000000000);
#1096=LINE('',#1093,#1095);
#1097=EDGE_CURVE('',#867,#1070,#1096,.T.);
#1098=ORIENTED_EDGE('',*,*,#1097,.T.);
#1099=ORIENTED_EDGE('',*,*,#1075,.F.);
#1100=CARTESIAN_POINT('',(1.200000000000000,0.900000000000000,0.100000000000000));
#1101=DIRECTION('',(0.0,0.0,1.0));
#1102=VECTOR('',#1101,1.320000000000000);
#1103=LINE('',#1100,#1102);
#1104=EDGE_CURVE('',#876,#1061,#1103,.T.);
#1105=ORIENTED_EDGE('',*,*,#1104,.F.);
#1106=EDGE_LOOP('',(#1092,#1098,#1099,#1105));
#1107=FACE_OUTER_BOUND('',#1106,.T.);
#1108=ADVANCED_FACE('',(#1107),#1091,.T.);
#1109=CARTESIAN_POINT('',(-0.475000000000000,0.800000000000000,0.100000000000000));
#1110=DIRECTION('',(1.0,5.843279E-017,0.0));
#1111=DIRECTION('',(0.0,0.707106781186547,-0.707106781186548));
#1112=AXIS2_PLACEMENT_3D('',#1109,#1110,#1111);
#1113=CYLINDRICAL_SURFACE('',#1112,0.100000000000000);
#1114=ORIENTED_EDGE('',*,*,#864,.T.);
#1115=CARTESIAN_POINT('',(1.200000000000000,0.800000000000000,0.0));
#1116=VERTEX_POINT('',#1115);
#1117=CARTESIAN_POINT('',(1.200000000000000,0.800000000000000,0.100000000000000));
#1118=DIRECTION('',(-1.000000000000000,0.0,0.0));
#1119=DIRECTION('',(0.0,0.707106781186547,-0.707106781186548));
#1120=AXIS2_PLACEMENT_3D('',#1117,#1118,#1119);
#1121=CIRCLE('',#1120,0.100000000000000);
#1122=EDGE_CURVE('',#859,#1116,#1121,.T.);
#1123=ORIENTED_EDGE('',*,*,#1122,.T.);
#1124=CARTESIAN_POINT('',(-1.200000000000000,0.800000000000000,0.0));
#1125=VERTEX_POINT('',#1124);
#1126=CARTESIAN_POINT('',(1.200000000000000,0.800000000000000,0.0));
#1127=DIRECTION('',(-1.0,0.0,0.0));
#1128=VECTOR('',#1127,2.400000000000000);
#1129=LINE('',#1126,#1128);
#1130=EDGE_CURVE('',#1116,#1125,#1129,.T.);
#1131=ORIENTED_EDGE('',*,*,#1130,.T.);
#1132=CARTESIAN_POINT('',(-1.200000000000000,0.800000000000000,0.100000000000000));
#1133=DIRECTION('',(1.000000000000000,0.0,0.0));
#1134=DIRECTION('',(0.0,0.707106781186547,-0.707106781186548));
#1135=AXIS2_PLACEMENT_3D('',#1132,#1133,#1134);
#1136=CIRCLE('',#1135,0.100000000000000);
#1137=EDGE_CURVE('',#1125,#857,#1136,.T.);
#1138=ORIENTED_EDGE('',*,*,#1137,.T.);
#1139=EDGE_LOOP('',(#1114,#1123,#1131,#1138));
#1140=FACE_OUTER_BOUND('',#1139,.T.);
#1141=ADVANCED_FACE('',(#1140),#1113,.T.);
#1142=CARTESIAN_POINT('',(1.110223E-016,2.220446E-016,0.0));
#1143=DIRECTION('',(0.0,0.0,1.0));
#1144=DIRECTION('',(1.0,0.0,0.0));
#1145=AXIS2_PLACEMENT_3D('',#1142,#1143,#1144);
#1146=PLANE('',#1145);
#1147=CARTESIAN_POINT('',(-1.200000000000000,-0.800000000000000,0.0));
#1148=VERTEX_POINT('',#1147);
#1149=CARTESIAN_POINT('',(1.200000000000000,-0.800000000000000,0.0));
#1150=VERTEX_POINT('',#1149);
#1151=CARTESIAN_POINT('',(-1.200000000000000,-0.800000000000000,0.0));
#1152=DIRECTION('',(1.0,0.0,0.0));
#1153=VECTOR('',#1152,2.400000000000000);
#1154=LINE('',#1151,#1153);
#1155=EDGE_CURVE('',#1148,#1150,#1154,.T.);
#1156=ORIENTED_EDGE('',*,*,#1155,.F.);
#1157=CARTESIAN_POINT('',(-1.200000000000000,-0.800000000000000,0.0));
#1158=DIRECTION('',(0.0,1.0,0.0));
#1159=VECTOR('',#1158,1.600000000000000);
#1160=LINE('',#1157,#1159);
#1161=EDGE_CURVE('',#1148,#1125,#1160,.T.);
#1162=ORIENTED_EDGE('',*,*,#1161,.T.);
#1163=ORIENTED_EDGE('',*,*,#1130,.F.);
#1164=CARTESIAN_POINT('',(1.200000000000000,0.800000000000000,0.0));
#1165=DIRECTION('',(0.0,-1.0,0.0));
#1166=VECTOR('',#1165,1.600000000000000);
#1167=LINE('',#1164,#1166);
#1168=EDGE_CURVE('',#1116,#1150,#1167,.T.);
#1169=ORIENTED_EDGE('',*,*,#1168,.T.);
#1170=EDGE_LOOP('',(#1156,#1162,#1163,#1169));
#1171=FACE_OUTER_BOUND('',#1170,.T.);
#1172=ADVANCED_FACE('',(#1171),#1146,.F.);
#1173=CARTESIAN_POINT('',(1.200000000000000,0.900000000000000,0.0));
#1174=DIRECTION('',(1.0,0.0,0.0));
#1175=DIRECTION('',(0.0,0.0,-1.0));
#1176=AXIS2_PLACEMENT_3D('',#1173,#1174,#1175);
#1177=PLANE('',#1176);
#1178=CARTESIAN_POINT('',(1.200000000000000,-0.800000000000000,0.100000000000000));
#1179=DIRECTION('',(-1.000000000000000,0.0,0.0));
#1180=DIRECTION('',(0.0,-0.707106781186547,-0.707106781186548));
#1181=AXIS2_PLACEMENT_3D('',#1178,#1179,#1180);
#1182=CIRCLE('',#1181,0.100000000000000);
#1183=EDGE_CURVE('',#1150,#815,#1182,.T.);
#1184=ORIENTED_EDGE('',*,*,#1183,.F.);
#1185=ORIENTED_EDGE('',*,*,#1168,.F.);
#1186=ORIENTED_EDGE('',*,*,#1122,.F.);
#1187=ORIENTED_EDGE('',*,*,#888,.F.);
#1188=ORIENTED_EDGE('',*,*,#1104,.T.);
#1189=ORIENTED_EDGE('',*,*,#1067,.F.);
#1190=ORIENTED_EDGE('',*,*,#930,.F.);
#1191=ORIENTED_EDGE('',*,*,#1042,.T.);
#1192=ORIENTED_EDGE('',*,*,#957,.F.);
#1193=ORIENTED_EDGE('',*,*,#1027,.F.);
#1194=ORIENTED_EDGE('',*,*,#989,.F.);
#1195=ORIENTED_EDGE('',*,*,#831,.F.);
#1196=EDGE_LOOP('',(#1184,#1185,#1186,#1187,#1188,#1189,#1190,#1191,#1192,#1193,#1194,#1195));
#1197=FACE_OUTER_BOUND('',#1196,.T.);
#1198=ADVANCED_FACE('',(#1197),#1177,.T.);
#1199=CARTESIAN_POINT('',(0.475000000000000,-0.800000000000000,0.100000000000000));
#1200=DIRECTION('',(-1.0,0.0,0.0));
#1201=DIRECTION('',(0.0,-0.707106781186547,-0.707106781186548));
#1202=AXIS2_PLACEMENT_3D('',#1199,#1200,#1201);
#1203=CYLINDRICAL_SURFACE('',#1202,0.100000000000000);
#1204=ORIENTED_EDGE('',*,*,#822,.T.);
#1205=CARTESIAN_POINT('',(-1.200000000000000,-0.800000000000000,0.100000000000000));
#1206=DIRECTION('',(1.000000000000000,0.0,0.0));
#1207=DIRECTION('',(0.0,-0.707106781186547,-0.707106781186548));
#1208=AXIS2_PLACEMENT_3D('',#1205,#1206,#1207);
#1209=CIRCLE('',#1208,0.100000000000000);
#1210=EDGE_CURVE('',#817,#1148,#1209,.T.);
#1211=ORIENTED_EDGE('',*,*,#1210,.T.);
#1212=ORIENTED_EDGE('',*,*,#1155,.T.);
#1213=ORIENTED_EDGE('',*,*,#1183,.T.);
#1214=EDGE_LOOP('',(#1204,#1211,#1212,#1213));
#1215=FACE_OUTER_BOUND('',#1214,.T.);
#1216=ADVANCED_FACE('',(#1215),#1203,.T.);
#1217=CARTESIAN_POINT('',(-1.200000000000000,-0.900000000000000,0.0));
#1218=DIRECTION('',(-1.0,0.0,0.0));
#1219=DIRECTION('',(0.0,0.0,1.0));
#1220=AXIS2_PLACEMENT_3D('',#1217,#1218,#1219);
#1221=PLANE('',#1220);
#1222=ORIENTED_EDGE('',*,*,#846,.F.);
#1223=ORIENTED_EDGE('',*,*,#1003,.T.);
#1224=ORIENTED_EDGE('',*,*,#1019,.F.);
#1225=ORIENTED_EDGE('',*,*,#972,.F.);
#1226=ORIENTED_EDGE('',*,*,#1049,.T.);
#1227=ORIENTED_EDGE('',*,*,#915,.F.);
#1228=ORIENTED_EDGE('',*,*,#1082,.F.);
#1229=ORIENTED_EDGE('',*,*,#1097,.F.);
#1230=ORIENTED_EDGE('',*,*,#873,.F.);
#1231=ORIENTED_EDGE('',*,*,#1137,.F.);
#1232=ORIENTED_EDGE('',*,*,#1161,.F.);
#1233=ORIENTED_EDGE('',*,*,#1210,.F.);
#1234=EDGE_LOOP('',(#1222,#1223,#1224,#1225,#1226,#1227,#1228,#1229,#1230,#1231,#1232,#1233));
#1235=FACE_OUTER_BOUND('',#1234,.T.);
#1236=ADVANCED_FACE('',(#1235),#1221,.T.);
#1237=CLOSED_SHELL('',(#850,#892,#934,#976,#1007,#1031,#1053,#1086,#1108,#1141,#1172,#1198,#1216,#1236));
#1238=MANIFOLD_SOLID_BREP('3A0',#1237);
#1239=COLOUR_RGB('35',0.500000000000000,0.375000000000000,0.250000000000000);
#1240=SURFACE_STYLE_USAGE(.BOTH.,#1241);
#1241=SURFACE_SIDE_STYLE('NONE',(#1242));
#1242=SURFACE_STYLE_FILL_AREA(#1243);
#1243=FILL_AREA_STYLE('NONE',(#1244));
#1244=FILL_AREA_STYLE_COLOUR('NONE',#1239);
#1245=PRESENTATION_STYLE_ASSIGNMENT((#1240));
#1246=STYLED_ITEM('NONE',(#1245),#1238);
#1247=CARTESIAN_POINT('',(-1.600000000000000,-0.450000000000000,1.420000000000000));
#1248=DIRECTION('',(0.0,1.0,0.0));
#1249=DIRECTION('',(-0.707106781186548,0.0,0.707106781186547));
#1250=AXIS2_PLACEMENT_3D('',#1247,#1248,#1249);
#1251=CYLINDRICAL_SURFACE('',#1250,0.100000000000000);
#1252=CARTESIAN_POINT('',(-1.670710678118655,-0.800000000000000,1.490710678118655));
#1253=VERTEX_POINT('',#1252);
#1254=CARTESIAN_POINT('',(-1.670710678118655,0.800000000000000,1.490710678118655));
#1255=VERTEX_POINT('',#1254);
#1256=CARTESIAN_POINT('',(-1.670710678118655,-0.800000000000000,1.490710678118655));
#1257=DIRECTION('',(0.0,1.0,0.0));
#1258=VECTOR('',#1257,1.600000000000000);
#1259=LINE('',#1256,#1258);
#1260=EDGE_CURVE('',#1253,#1255,#1259,.T.);
#1261=ORIENTED_EDGE('',*,*,#1260,.F.);
#1262=CARTESIAN_POINT('',(-1.600000000000000,-0.800000000000000,1.520000000000000));
#1263=VERTEX_POINT('',#1262);
#1264=CARTESIAN_POINT('',(-1.600000000000000,-0.800000000000000,1.420000000000000));
#1265=DIRECTION('',(0.0,-1.000000000000000,0.0));
#1266=DIRECTION('',(-0.707106781186548,0.0,0.707106781186547));
#1267=AXIS2_PLACEMENT_3D('',#1264,#1265,#1266);
#1268=CIRCLE('',#1267,0.100000000000000);
#1269=EDGE_CURVE('',#1263,#1253,#1268,.T.);
#1270=ORIENTED_EDGE('',*,*,#1269,.F.);
#1271=CARTESIAN_POINT('',(-1.600000000000000,0.800000000000000,1.520000000000000));
#1272=VERTEX_POINT('',#1271);
#1273=CARTESIAN_POINT('',(-1.600000000000000,-0.800000000000000,1.520000000000000));
#1274=DIRECTION('',(0.0,1.0,0.0));
#1275=VECTOR('',#1274,1.600000000000000);
#1276=LINE('',#1273,#1275);
#1277=EDGE_CURVE('',#1263,#1272,#1276,.T.);
#1278=ORIENTED_EDGE('',*,*,#1277,.T.);
#1279=CARTESIAN_POINT('',(-1.600000000000000,0.800000000000000,1.420000000000000));
#1280=DIRECTION('',(0.0,1.000000000000000,0.0));
#1281=DIRECTION('',(-0.707106781186548,0.0,0.707106781186547));
#1282=AXIS2_PLACEMENT_3D('',#1279,#1280,#1281);
#1283=CIRCLE('',#1282,0.100000000000000);
#1284=EDGE_CURVE('',#1255,#1272,#1283,.T.);
#1285=ORIENTED_EDGE('',*,*,#1284,.F.);
#1286=EDGE_LOOP('',(#1261,#1270,#1278,#1285));
#1287=FACE_OUTER_BOUND('',#1286,.T.);
#1288=ADVANCED_FACE('',(#1287),#1251,.T.);
#1289=CARTESIAN_POINT('',(-1.600000000000000,-0.450000000000000,0.100000000000000));
#1290=DIRECTION('',(0.0,-1.0,0.0));
#1291=DIRECTION('',(-0.707106781186548,0.0,-0.707106781186547));
#1292=AXIS2_PLACEMENT_3D('',#1289,#1290,#1291);
#1293=CYLINDRICAL_SURFACE('',#1292,0.100000000000000);
#1294=CARTESIAN_POINT('',(-1.670710678118655,0.800000000000000,0.029289321881345));
#1295=VERTEX_POINT('',#1294);
#1296=CARTESIAN_POINT('',(-1.670710678118655,-0.800000000000000,0.029289321881345));
#1297=VERTEX_POINT('',#1296);
#1298=CARTESIAN_POINT('',(-1.670710678118655,0.800000000000000,0.029289321881345));
#1299=DIRECTION('',(0.0,-1.0,0.0));
#1300=VECTOR('',#1299,1.600000000000000);
#1301=LINE('',#1298,#1300);
#1302=EDGE_CURVE('',#1295,#1297,#1301,.T.);
#1303=ORIENTED_EDGE('',*,*,#1302,.F.);
#1304=CARTESIAN_POINT('',(-1.600000000000000,0.800000000000000,0.0));
#1305=VERTEX_POINT('',#1304);
#1306=CARTESIAN_POINT('',(-1.600000000000000,0.800000000000000,0.100000000000000));
#1307=DIRECTION('',(0.0,1.000000000000000,0.0));
#1308=DIRECTION('',(-0.707106781186548,0.0,-0.707106781186547));
#1309=AXIS2_PLACEMENT_3D('',#1306,#1307,#1308);
#1310=CIRCLE('',#1309,0.100000000000000);
#1311=EDGE_CURVE('',#1305,#1295,#1310,.T.);
#1312=ORIENTED_EDGE('',*,*,#1311,.F.);
#1313=CARTESIAN_POINT('',(-1.600000000000000,-0.800000000000000,0.0));
#1314=VERTEX_POINT('',#1313);
#1315=CARTESIAN_POINT('',(-1.600000000000000,0.800000000000000,0.0));
#1316=DIRECTION('',(0.0,-1.0,0.0));
#1317=VECTOR('',#1316,1.600000000000000);
#1318=LINE('',#1315,#1317);
#1319=EDGE_CURVE('',#1305,#1314,#1318,.T.);
#1320=ORIENTED_EDGE('',*,*,#1319,.T.);
#1321=CARTESIAN_POINT('',(-1.600000000000000,-0.800000000000000,0.100000000000000));
#1322=DIRECTION('',(0.0,-1.000000000000000,0.0));
#1323=DIRECTION('',(-0.707106781186548,0.0,-0.707106781186547));
#1324=AXIS2_PLACEMENT_3D('',#1321,#1322,#1323);
#1325=CIRCLE('',#1324,0.100000000000000);
#1326=EDGE_CURVE('',#1297,#1314,#1325,.T.);
#1327=ORIENTED_EDGE('',*,*,#1326,.F.);
#1328=EDGE_LOOP('',(#1303,#1312,#1320,#1327));
#1329=FACE_OUTER_BOUND('',#1328,.T.);
#1330=ADVANCED_FACE('',(#1329),#1293,.T.);
#1331=CARTESIAN_POINT('',(-1.600000000000000,0.800000000000000,0.0));
#1332=DIRECTION('',(0.0,0.0,1.0));
#1333=DIRECTION('',(-0.707106781186548,0.707106781186547,0.0));
#1334=AXIS2_PLACEMENT_3D('',#1331,#1332,#1333);
#1335=CYLINDRICAL_SURFACE('',#1334,0.100000000000000);
#1336=CARTESIAN_POINT('',(-1.670710678118655,0.870710678118655,0.100000000000000));
#1337=VERTEX_POINT('',#1336);
#1338=CARTESIAN_POINT('',(-1.670710678118655,0.870710678118655,1.420000000000000));
#1339=VERTEX_POINT('',#1338);
#1340=CARTESIAN_POINT('',(-1.670710678118655,0.870710678118655,0.100000000000000));
#1341=DIRECTION('',(0.0,0.0,1.0));
#1342=VECTOR('',#1341,1.320000000000000);
#1343=LINE('',#1340,#1342);
#1344=EDGE_CURVE('',#1337,#1339,#1343,.T.);
#1345=ORIENTED_EDGE('',*,*,#1344,.F.);
#1346=CARTESIAN_POINT('',(-1.700000000000000,0.800000000000000,0.100000000000000));
#1347=VERTEX_POINT('',#1346);
#1348=CARTESIAN_POINT('',(-1.600000000000000,0.800000000000000,0.100000000000000));
#1349=DIRECTION('',(0.0,0.0,1.0));
#1350=DIRECTION('',(0.0,1.0,0.0));
#1351=AXIS2_PLACEMENT_3D('',#1348,#1349,#1350);
#1352=CIRCLE('',#1351,0.100000000000000);
#1353=EDGE_CURVE('',#1337,#1347,#1352,.T.);
#1354=ORIENTED_EDGE('',*,*,#1353,.T.);
#1355=CARTESIAN_POINT('',(-1.700000000000000,0.800000000000000,1.420000000000000));
#1356=VERTEX_POINT('',#1355);
#1357=CARTESIAN_POINT('',(-1.700000000000000,0.800000000000000,0.100000000000000));
#1358=DIRECTION('',(0.0,0.0,1.0));
#1359=VECTOR('',#1358,1.320000000000000);
#1360=LINE('',#1357,#1359);
#1361=EDGE_CURVE('',#1347,#1356,#1360,.T.);
#1362=ORIENTED_EDGE('',*,*,#1361,.T.);
#1363=CARTESIAN_POINT('',(-1.600000000000000,0.800000000000000,1.420000000000000));
#1364=DIRECTION('',(0.0,0.0,-1.0));
#1365=DIRECTION('',(-1.0,0.0,0.0));
#1366=AXIS2_PLACEMENT_3D('',#1363,#1364,#1365);
#1367=CIRCLE('',#1366,0.100000000000000);
#1368=EDGE_CURVE('',#1356,#1339,#1367,.T.);
#1369=ORIENTED_EDGE('',*,*,#1368,.T.);
#1370=EDGE_LOOP('',(#1345,#1354,#1362,#1369));
#1371=FACE_OUTER_BOUND('',#1370,.T.);
#1372=ADVANCED_FACE('',(#1371),#1335,.T.);
#1373=CARTESIAN_POINT('',(-1.600000000000000,-0.800000000000000,0.0));
#1374=DIRECTION('',(0.0,0.0,1.0));
#1375=DIRECTION('',(-0.707106781186548,-0.707106781186547,0.0));
#1376=AXIS2_PLACEMENT_3D('',#1373,#1374,#1375);
#1377=CYLINDRICAL_SURFACE('',#1376,0.100000000000000);
#1378=CARTESIAN_POINT('',(-1.670710678118655,-0.870710678118655,0.100000000000000));
#1379=VERTEX_POINT('',#1378);
#1380=CARTESIAN_POINT('',(-1.670710678118655,-0.870710678118655,1.420000000000000));
#1381=VERTEX_POINT('',#1380);
#1382=CARTESIAN_POINT('',(-1.670710678118655,-0.870710678118655,0.100000000000000));
#1383=DIRECTION('',(0.0,0.0,1.0));
#1384=VECTOR('',#1383,1.320000000000000);
#1385=LINE('',#1382,#1384);
#1386=EDGE_CURVE('',#1379,#1381,#1385,.T.);
#1387=ORIENTED_EDGE('',*,*,#1386,.F.);
#1388=CARTESIAN_POINT('',(-1.600000000000000,-0.900000000000000,0.100000000000000));
#1389=VERTEX_POINT('',#1388);
#1390=CARTESIAN_POINT('',(-1.600000000000000,-0.800000000000000,0.100000000000000));
#1391=DIRECTION('',(0.0,0.0,-1.0));
#1392=DIRECTION('',(0.0,-1.0,0.0));
#1393=AXIS2_PLACEMENT_3D('',#1390,#1391,#1392);
#1394=CIRCLE('',#1393,0.100000000000000);
#1395=EDGE_CURVE('',#1389,#1379,#1394,.T.);
#1396=ORIENTED_EDGE('',*,*,#1395,.F.);
#1397=CARTESIAN_POINT('',(-1.600000000000000,-0.900000000000000,1.420000000000000));
#1398=VERTEX_POINT('',#1397);
#1399=CARTESIAN_POINT('',(-1.600000000000000,-0.900000000000000,0.100000000000000));
#1400=DIRECTION('',(0.0,0.0,1.0));
#1401=VECTOR('',#1400,1.320000000000000);
#1402=LINE('',#1399,#1401);
#1403=EDGE_CURVE('',#1389,#1398,#1402,.T.);
#1404=ORIENTED_EDGE('',*,*,#1403,.T.);
#1405=CARTESIAN_POINT('',(-1.600000000000000,-0.800000000000000,1.420000000000000));
#1406=DIRECTION('',(0.0,0.0,-1.0));
#1407=DIRECTION('',(0.0,-1.0,0.0));
#1408=AXIS2_PLACEMENT_3D('',#1405,#1406,#1407);
#1409=CIRCLE('',#1408,0.100000000000000);
#1410=EDGE_CURVE('',#1398,#1381,#1409,.T.);
#1411=ORIENTED_EDGE('',*,*,#1410,.T.);
#1412=EDGE_LOOP('',(#1387,#1396,#1404,#1411));
#1413=FACE_OUTER_BOUND('',#1412,.T.);
#1414=ADVANCED_FACE('',(#1413),#1377,.T.);
#1415=CARTESIAN_POINT('',(-1.512500000000000,0.800000000000000,0.100000000000000));
#1416=DIRECTION('',(-1.0,0.0,0.0));
#1417=DIRECTION('',(0.0,0.707106781186547,-0.707106781186548));
#1418=AXIS2_PLACEMENT_3D('',#1415,#1416,#1417);
#1419=CYLINDRICAL_SURFACE('',#1418,0.100000000000000);
#1420=CARTESIAN_POINT('',(-1.200000000000000,0.870710678118655,0.029289321881345));
#1421=VERTEX_POINT('',#1420);
#1422=CARTESIAN_POINT('',(-1.600000000000000,0.870710678118655,0.029289321881345));
#1423=VERTEX_POINT('',#1422);
#1424=CARTESIAN_POINT('',(-1.200000000000000,0.870710678118655,0.029289321881345));
#1425=DIRECTION('',(-1.0,0.0,0.0));
#1426=VECTOR('',#1425,0.400000000000000);
#1427=LINE('',#1424,#1426);
#1428=EDGE_CURVE('',#1421,#1423,#1427,.T.);
#1429=ORIENTED_EDGE('',*,*,#1428,.F.);
#1430=CARTESIAN_POINT('',(-1.200000000000000,0.800000000000000,0.0));
#1431=VERTEX_POINT('',#1430);
#1432=CARTESIAN_POINT('',(-1.200000000000000,0.800000000000000,0.100000000000000));
#1433=DIRECTION('',(-1.000000000000000,0.0,0.0));
#1434=DIRECTION('',(0.0,0.707106781186547,-0.707106781186548));
#1435=AXIS2_PLACEMENT_3D('',#1432,#1433,#1434);
#1436=CIRCLE('',#1435,0.100000000000000);
#1437=EDGE_CURVE('',#1421,#1431,#1436,.T.);
#1438=ORIENTED_EDGE('',*,*,#1437,.T.);
#1439=CARTESIAN_POINT('',(-1.200000000000000,0.800000000000000,0.0));
#1440=DIRECTION('',(-1.0,0.0,0.0));
#1441=VECTOR('',#1440,0.400000000000000);
#1442=LINE('',#1439,#1441);
#1443=EDGE_CURVE('',#1431,#1305,#1442,.T.);
#1444=ORIENTED_EDGE('',*,*,#1443,.T.);
#1445=CARTESIAN_POINT('',(-1.600000000000000,0.800000000000000,0.100000000000000));
#1446=DIRECTION('',(-1.0,0.0,0.0));
#1447=DIRECTION('',(0.0,0.707106781186547,-0.707106781186548));
#1448=AXIS2_PLACEMENT_3D('',#1445,#1446,#1447);
#1449=CIRCLE('',#1448,0.100000000000000);
#1450=EDGE_CURVE('',#1423,#1305,#1449,.T.);
#1451=ORIENTED_EDGE('',*,*,#1450,.F.);
#1452=EDGE_LOOP('',(#1429,#1438,#1444,#1451));
#1453=FACE_OUTER_BOUND('',#1452,.T.);
#1454=ADVANCED_FACE('',(#1453),#1419,.T.);
#1455=CARTESIAN_POINT('',(-1.512500000000000,0.800000000000000,1.420000000000000));
#1456=DIRECTION('',(1.0,0.0,0.0));
#1457=DIRECTION('',(0.0,0.707106781186548,0.707106781186548));
#1458=AXIS2_PLACEMENT_3D('',#1455,#1456,#1457);
#1459=CYLINDRICAL_SURFACE('',#1458,0.100000000000000);
#1460=CARTESIAN_POINT('',(-1.600000000000000,0.870710678118655,1.490710678118655));
#1461=VERTEX_POINT('',#1460);
#1462=CARTESIAN_POINT('',(-1.200000000000000,0.870710678118655,1.490710678118655));
#1463=VERTEX_POINT('',#1462);
#1464=CARTESIAN_POINT('',(-1.600000000000000,0.870710678118655,1.490710678118655));
#1465=DIRECTION('',(1.0,0.0,0.0));
#1466=VECTOR('',#1465,0.400000000000000);
#1467=LINE('',#1464,#1466);
#1468=EDGE_CURVE('',#1461,#1463,#1467,.T.);
#1469=ORIENTED_EDGE('',*,*,#1468,.F.);
#1470=CARTESIAN_POINT('',(-1.600000000000000,0.800000000000000,1.420000000000000));
#1471=DIRECTION('',(-1.000000000000000,0.0,0.0));
#1472=DIRECTION('',(0.0,0.707106781186547,0.707106781186547));
#1473=AXIS2_PLACEMENT_3D('',#1470,#1471,#1472);
#1474=CIRCLE('',#1473,0.100000000000000);
#1475=EDGE_CURVE('',#1272,#1461,#1474,.T.);
#1476=ORIENTED_EDGE('',*,*,#1475,.F.);
#1477=CARTESIAN_POINT('',(-1.200000000000000,0.800000000000000,1.520000000000000));
#1478=VERTEX_POINT('',#1477);
#1479=CARTESIAN_POINT('',(-1.600000000000000,0.800000000000000,1.520000000000000));
#1480=DIRECTION('',(1.0,0.0,0.0));
#1481=VECTOR('',#1480,0.400000000000000);
#1482=LINE('',#1479,#1481);
#1483=EDGE_CURVE('',#1272,#1478,#1482,.T.);
#1484=ORIENTED_EDGE('',*,*,#1483,.T.);
#1485=CARTESIAN_POINT('',(-1.200000000000000,0.800000000000000,1.420000000000000));
#1486=DIRECTION('',(-1.000000000000000,0.0,0.0));
#1487=DIRECTION('',(0.0,0.707106781186548,0.707106781186548));
#1488=AXIS2_PLACEMENT_3D('',#1485,#1486,#1487);
#1489=CIRCLE('',#1488,0.100000000000000);
#1490=EDGE_CURVE('',#1478,#1463,#1489,.T.);
#1491=ORIENTED_EDGE('',*,*,#1490,.T.);
#1492=EDGE_LOOP('',(#1469,#1476,#1484,#1491));
#1493=FACE_OUTER_BOUND('',#1492,.T.);
#1494=ADVANCED_FACE('',(#1493),#1459,.T.);
#1495=CARTESIAN_POINT('',(-1.137500000000000,-0.800000000000000,1.420000000000000));
#1496=DIRECTION('',(-1.0,0.0,0.0));
#1497=DIRECTION('',(0.0,-0.707106781186548,0.707106781186548));
#1498=AXIS2_PLACEMENT_3D('',#1495,#1496,#1497);
#1499=CYLINDRICAL_SURFACE('',#1498,0.100000000000000);
#1500=CARTESIAN_POINT('',(-1.200000000000000,-0.870710678118655,1.490710678118655));
#1501=VERTEX_POINT('',#1500);
#1502=CARTESIAN_POINT('',(-1.600000000000000,-0.870710678118655,1.490710678118655));
#1503=VERTEX_POINT('',#1502);
#1504=CARTESIAN_POINT('',(-1.200000000000000,-0.870710678118655,1.490710678118655));
#1505=DIRECTION('',(-1.0,0.0,0.0));
#1506=VECTOR('',#1505,0.400000000000000);
#1507=LINE('',#1504,#1506);
#1508=EDGE_CURVE('',#1501,#1503,#1507,.T.);
#1509=ORIENTED_EDGE('',*,*,#1508,.F.);
#1510=CARTESIAN_POINT('',(-1.200000000000000,-0.800000000000000,1.520000000000000));
#1511=VERTEX_POINT('',#1510);
#1512=CARTESIAN_POINT('',(-1.200000000000000,-0.800000000000000,1.420000000000000));
#1513=DIRECTION('',(-1.000000000000000,0.0,0.0));
#1514=DIRECTION('',(0.0,-0.707106781186548,0.707106781186548));
#1515=AXIS2_PLACEMENT_3D('',#1512,#1513,#1514);
#1516=CIRCLE('',#1515,0.100000000000000);
#1517=EDGE_CURVE('',#1501,#1511,#1516,.T.);
#1518=ORIENTED_EDGE('',*,*,#1517,.T.);
#1519=CARTESIAN_POINT('',(-1.200000000000000,-0.800000000000000,1.520000000000000));
#1520=DIRECTION('',(-1.0,0.0,0.0));
#1521=VECTOR('',#1520,0.400000000000000);
#1522=LINE('',#1519,#1521);
#1523=EDGE_CURVE('',#1511,#1263,#1522,.T.);
#1524=ORIENTED_EDGE('',*,*,#1523,.T.);
#1525=CARTESIAN_POINT('',(-1.600000000000000,-0.800000000000000,1.420000000000000));
#1526=DIRECTION('',(-1.000000000000000,0.0,0.0));
#1527=DIRECTION('',(0.0,-0.707106781186547,0.707106781186547));
#1528=AXIS2_PLACEMENT_3D('',#1525,#1526,#1527);
#1529=CIRCLE('',#1528,0.100000000000000);
#1530=EDGE_CURVE('',#1503,#1263,#1529,.T.);
#1531=ORIENTED_EDGE('',*,*,#1530,.F.);
#1532=EDGE_LOOP('',(#1509,#1518,#1524,#1531));
#1533=FACE_OUTER_BOUND('',#1532,.T.);
#1534=ADVANCED_FACE('',(#1533),#1499,.T.);
#1535=CARTESIAN_POINT('',(-1.137500000000000,-0.800000000000000,0.100000000000000));
#1536=DIRECTION('',(1.0,0.0,0.0));
#1537=DIRECTION('',(0.0,-0.707106781186547,-0.707106781186548));
#1538=AXIS2_PLACEMENT_3D('',#1535,#1536,#1537);
#1539=CYLINDRICAL_SURFACE('',#1538,0.100000000000000);
#1540=CARTESIAN_POINT('',(-1.600000000000000,-0.870710678118655,0.029289321881345));
#1541=VERTEX_POINT('',#1540);
#1542=CARTESIAN_POINT('',(-1.200000000000000,-0.870710678118655,0.029289321881345));
#1543=VERTEX_POINT('',#1542);
#1544=CARTESIAN_POINT('',(-1.600000000000000,-0.870710678118655,0.029289321881345));
#1545=DIRECTION('',(1.0,0.0,0.0));
#1546=VECTOR('',#1545,0.400000000000000);
#1547=LINE('',#1544,#1546);
#1548=EDGE_CURVE('',#1541,#1543,#1547,.T.);
#1549=ORIENTED_EDGE('',*,*,#1548,.F.);
#1550=CARTESIAN_POINT('',(-1.600000000000000,-0.800000000000000,0.100000000000000));
#1551=DIRECTION('',(-1.0,0.0,0.0));
#1552=DIRECTION('',(0.0,-0.707106781186547,-0.707106781186548));
#1553=AXIS2_PLACEMENT_3D('',#1550,#1551,#1552);
#1554=CIRCLE('',#1553,0.100000000000000);
#1555=EDGE_CURVE('',#1314,#1541,#1554,.T.);
#1556=ORIENTED_EDGE('',*,*,#1555,.F.);
#1557=CARTESIAN_POINT('',(-1.200000000000000,-0.800000000000000,0.0));
#1558=VERTEX_POINT('',#1557);
#1559=CARTESIAN_POINT('',(-1.600000000000000,-0.800000000000000,0.0));
#1560=DIRECTION('',(1.0,0.0,0.0));
#1561=VECTOR('',#1560,0.400000000000000);
#1562=LINE('',#1559,#1561);
#1563=EDGE_CURVE('',#1314,#1558,#1562,.T.);
#1564=ORIENTED_EDGE('',*,*,#1563,.T.);
#1565=CARTESIAN_POINT('',(-1.200000000000000,-0.800000000000000,0.100000000000000));
#1566=DIRECTION('',(-1.000000000000000,0.0,0.0));
#1567=DIRECTION('',(0.0,-0.707106781186547,-0.707106781186548));
#1568=AXIS2_PLACEMENT_3D('',#1565,#1566,#1567);
#1569=CIRCLE('',#1568,0.100000000000000);
#1570=EDGE_CURVE('',#1558,#1543,#1569,.T.);
#1571=ORIENTED_EDGE('',*,*,#1570,.T.);
#1572=EDGE_LOOP('',(#1549,#1556,#1564,#1571));
#1573=FACE_OUTER_BOUND('',#1572,.T.);
#1574=ADVANCED_FACE('',(#1573),#1539,.T.);
#1575=CARTESIAN_POINT('',(-1.325000000000000,4.440892E-016,0.0));
#1576=DIRECTION('',(0.0,0.0,1.0));
#1577=DIRECTION('',(1.0,0.0,0.0));
#1578=AXIS2_PLACEMENT_3D('',#1575,#1576,#1577);
#1579=PLANE('',#1578);
#1580=ORIENTED_EDGE('',*,*,#1443,.F.);
#1581=CARTESIAN_POINT('',(-1.200000000000000,-0.800000000000000,0.0));
#1582=DIRECTION('',(0.0,1.0,0.0));
#1583=VECTOR('',#1582,1.600000000000000);
#1584=LINE('',#1581,#1583);
#1585=EDGE_CURVE('',#1558,#1431,#1584,.T.);
#1586=ORIENTED_EDGE('',*,*,#1585,.F.);
#1587=ORIENTED_EDGE('',*,*,#1563,.F.);
#1588=ORIENTED_EDGE('',*,*,#1319,.F.);
#1589=EDGE_LOOP('',(#1580,#1586,#1587,#1588));
#1590=FACE_OUTER_BOUND('',#1589,.T.);
#1591=ADVANCED_FACE('',(#1590),#1579,.F.);
#1592=CARTESIAN_POINT('',(-1.137500000000000,-0.800000000000000,0.100000000000000));
#1593=DIRECTION('',(1.0,0.0,0.0));
#1594=DIRECTION('',(0.0,-0.707106781186547,-0.707106781186548));
#1595=AXIS2_PLACEMENT_3D('',#1592,#1593,#1594);
#1596=CYLINDRICAL_SURFACE('',#1595,0.100000000000000);
#1597=ORIENTED_EDGE('',*,*,#1548,.T.);
#1598=CARTESIAN_POINT('',(-1.200000000000000,-0.900000000000000,0.100000000000000));
#1599=VERTEX_POINT('',#1598);
#1600=CARTESIAN_POINT('',(-1.200000000000000,-0.800000000000000,0.100000000000000));
#1601=DIRECTION('',(-1.000000000000000,0.0,0.0));
#1602=DIRECTION('',(0.0,-0.707106781186547,-0.707106781186548));
#1603=AXIS2_PLACEMENT_3D('',#1600,#1601,#1602);
#1604=CIRCLE('',#1603,0.100000000000000);
#1605=EDGE_CURVE('',#1543,#1599,#1604,.T.);
#1606=ORIENTED_EDGE('',*,*,#1605,.T.);
#1607=CARTESIAN_POINT('',(-1.200000000000000,-0.900000000000000,0.100000000000000));
#1608=DIRECTION('',(-1.0,0.0,0.0));
#1609=VECTOR('',#1608,0.400000000000000);
#1610=LINE('',#1607,#1609);
#1611=EDGE_CURVE('',#1599,#1389,#1610,.T.);
#1612=ORIENTED_EDGE('',*,*,#1611,.T.);
#1613=CARTESIAN_POINT('',(-1.600000000000000,-0.800000000000000,0.100000000000000));
#1614=DIRECTION('',(-1.0,0.0,0.0));
#1615=DIRECTION('',(0.0,-0.707106781186547,-0.707106781186548));
#1616=AXIS2_PLACEMENT_3D('',#1613,#1614,#1615);
#1617=CIRCLE('',#1616,0.100000000000000);
#1618=EDGE_CURVE('',#1541,#1389,#1617,.T.);
#1619=ORIENTED_EDGE('',*,*,#1618,.F.);
#1620=EDGE_LOOP('',(#1597,#1606,#1612,#1619));
#1621=FACE_OUTER_BOUND('',#1620,.T.);
#1622=ADVANCED_FACE('',(#1621),#1596,.T.);
#1623=CARTESIAN_POINT('',(-0.950000000000000,-0.900000000000000,0.0));
#1624=DIRECTION('',(0.0,-1.0,0.0));
#1625=DIRECTION('',(0.0,0.0,-1.0));
#1626=AXIS2_PLACEMENT_3D('',#1623,#1624,#1625);
#1627=PLANE('',#1626);
#1628=ORIENTED_EDGE('',*,*,#1403,.F.);
#1629=ORIENTED_EDGE('',*,*,#1611,.F.);
#1630=CARTESIAN_POINT('',(-1.200000000000000,-0.900000000000000,1.420000000000000));
#1631=VERTEX_POINT('',#1630);
#1632=CARTESIAN_POINT('',(-1.200000000000000,-0.900000000000000,0.100000000000000));
#1633=DIRECTION('',(0.0,0.0,1.0));
#1634=VECTOR('',#1633,1.320000000000000);
#1635=LINE('',#1632,#1634);
#1636=EDGE_CURVE('',#1599,#1631,#1635,.T.);
#1637=ORIENTED_EDGE('',*,*,#1636,.T.);
#1638=CARTESIAN_POINT('',(-1.600000000000000,-0.900000000000000,1.420000000000000));
#1639=DIRECTION('',(1.0,0.0,0.0));
#1640=VECTOR('',#1639,0.400000000000000);
#1641=LINE('',#1638,#1640);
#1642=EDGE_CURVE('',#1398,#1631,#1641,.T.);
#1643=ORIENTED_EDGE('',*,*,#1642,.F.);
#1644=EDGE_LOOP('',(#1628,#1629,#1637,#1643));
#1645=FACE_OUTER_BOUND('',#1644,.T.);
#1646=ADVANCED_FACE('',(#1645),#1627,.T.);
#1647=CARTESIAN_POINT('',(-1.137500000000000,-0.800000000000000,1.420000000000000));
#1648=DIRECTION('',(-1.0,0.0,0.0));
#1649=DIRECTION('',(0.0,-0.707106781186548,0.707106781186548));
#1650=AXIS2_PLACEMENT_3D('',#1647,#1648,#1649);
#1651=CYLINDRICAL_SURFACE('',#1650,0.100000000000000);
#1652=ORIENTED_EDGE('',*,*,#1508,.T.);
#1653=CARTESIAN_POINT('',(-1.600000000000000,-0.800000000000000,1.420000000000000));
#1654=DIRECTION('',(-1.000000000000000,0.0,0.0));
#1655=DIRECTION('',(0.0,-0.707106781186547,0.707106781186547));
#1656=AXIS2_PLACEMENT_3D('',#1653,#1654,#1655);
#1657=CIRCLE('',#1656,0.100000000000000);
#1658=EDGE_CURVE('',#1398,#1503,#1657,.T.);
#1659=ORIENTED_EDGE('',*,*,#1658,.F.);
#1660=ORIENTED_EDGE('',*,*,#1642,.T.);
#1661=CARTESIAN_POINT('',(-1.200000000000000,-0.800000000000000,1.420000000000000));
#1662=DIRECTION('',(-1.000000000000000,0.0,0.0));
#1663=DIRECTION('',(0.0,-0.707106781186548,0.707106781186548));
#1664=AXIS2_PLACEMENT_3D('',#1661,#1662,#1663);
#1665=CIRCLE('',#1664,0.100000000000000);
#1666=EDGE_CURVE('',#1631,#1501,#1665,.T.);
#1667=ORIENTED_EDGE('',*,*,#1666,.T.);
#1668=EDGE_LOOP('',(#1652,#1659,#1660,#1667));
#1669=FACE_OUTER_BOUND('',#1668,.T.);
#1670=ADVANCED_FACE('',(#1669),#1651,.T.);
#1671=CARTESIAN_POINT('',(-1.325000000000000,5.728751E-016,1.520000000000000));
#1672=DIRECTION('',(0.0,0.0,1.0));
#1673=DIRECTION('',(1.0,0.0,0.0));
#1674=AXIS2_PLACEMENT_3D('',#1671,#1672,#1673);
#1675=PLANE('',#1674);
#1676=ORIENTED_EDGE('',*,*,#1483,.F.);
#1677=ORIENTED_EDGE('',*,*,#1277,.F.);
#1678=ORIENTED_EDGE('',*,*,#1523,.F.);
#1679=CARTESIAN_POINT('',(-1.200000000000000,0.800000000000000,1.520000000000000));
#1680=DIRECTION('',(0.0,-1.0,0.0));
#1681=VECTOR('',#1680,1.600000000000000);
#1682=LINE('',#1679,#1681);
#1683=EDGE_CURVE('',#1478,#1511,#1682,.T.);
#1684=ORIENTED_EDGE('',*,*,#1683,.F.);
#1685=EDGE_LOOP('',(#1676,#1677,#1678,#1684));
#1686=FACE_OUTER_BOUND('',#1685,.T.);
#1687=ADVANCED_FACE('',(#1686),#1675,.T.);
#1688=CARTESIAN_POINT('',(-1.512500000000000,0.800000000000000,1.420000000000000));
#1689=DIRECTION('',(1.0,0.0,0.0));
#1690=DIRECTION('',(0.0,0.707106781186548,0.707106781186548));
#1691=AXIS2_PLACEMENT_3D('',#1688,#1689,#1690);
#1692=CYLINDRICAL_SURFACE('',#1691,0.100000000000000);
#1693=ORIENTED_EDGE('',*,*,#1468,.T.);
#1694=CARTESIAN_POINT('',(-1.200000000000000,0.900000000000000,1.420000000000000));
#1695=VERTEX_POINT('',#1694);
#1696=CARTESIAN_POINT('',(-1.200000000000000,0.800000000000000,1.420000000000000));
#1697=DIRECTION('',(-1.000000000000000,0.0,0.0));
#1698=DIRECTION('',(0.0,0.707106781186548,0.707106781186548));
#1699=AXIS2_PLACEMENT_3D('',#1696,#1697,#1698);
#1700=CIRCLE('',#1699,0.100000000000000);
#1701=EDGE_CURVE('',#1463,#1695,#1700,.T.);
#1702=ORIENTED_EDGE('',*,*,#1701,.T.);
#1703=CARTESIAN_POINT('',(-1.600000000000000,0.900000000000000,1.420000000000000));
#1704=VERTEX_POINT('',#1703);
#1705=CARTESIAN_POINT('',(-1.200000000000000,0.900000000000000,1.420000000000000));
#1706=DIRECTION('',(-1.0,0.0,0.0));
#1707=VECTOR('',#1706,0.400000000000000);
#1708=LINE('',#1705,#1707);
#1709=EDGE_CURVE('',#1695,#1704,#1708,.T.);
#1710=ORIENTED_EDGE('',*,*,#1709,.T.);
#1711=CARTESIAN_POINT('',(-1.600000000000000,0.800000000000000,1.420000000000000));
#1712=DIRECTION('',(-1.000000000000000,0.0,0.0));
#1713=DIRECTION('',(0.0,0.707106781186547,0.707106781186547));
#1714=AXIS2_PLACEMENT_3D('',#1711,#1712,#1713);
#1715=CIRCLE('',#1714,0.100000000000000);
#1716=EDGE_CURVE('',#1461,#1704,#1715,.T.);
#1717=ORIENTED_EDGE('',*,*,#1716,.F.);
#1718=EDGE_LOOP('',(#1693,#1702,#1710,#1717));
#1719=FACE_OUTER_BOUND('',#1718,.T.);
#1720=ADVANCED_FACE('',(#1719),#1692,.T.);
#1721=CARTESIAN_POINT('',(-1.700000000000000,0.900000000000000,0.0));
#1722=DIRECTION('',(0.0,1.0,0.0));
#1723=DIRECTION('',(0.0,0.0,1.0));
#1724=AXIS2_PLACEMENT_3D('',#1721,#1722,#1723);
#1725=PLANE('',#1724);
#1726=CARTESIAN_POINT('',(-1.600000000000000,0.900000000000000,0.100000000000000));
#1727=VERTEX_POINT('',#1726);
#1728=CARTESIAN_POINT('',(-1.600000000000000,0.900000000000000,1.420000000000000));
#1729=DIRECTION('',(0.0,0.0,-1.0));
#1730=VECTOR('',#1729,1.320000000000000);
#1731=LINE('',#1728,#1730);
#1732=EDGE_CURVE('',#1704,#1727,#1731,.T.);
#1733=ORIENTED_EDGE('',*,*,#1732,.F.);
#1734=ORIENTED_EDGE('',*,*,#1709,.F.);
#1735=CARTESIAN_POINT('',(-1.200000000000000,0.900000000000000,0.100000000000000));
#1736=VERTEX_POINT('',#1735);
#1737=CARTESIAN_POINT('',(-1.200000000000000,0.900000000000000,0.100000000000000));
#1738=DIRECTION('',(0.0,0.0,1.0));
#1739=VECTOR('',#1738,1.320000000000000);
#1740=LINE('',#1737,#1739);
#1741=EDGE_CURVE('',#1736,#1695,#1740,.T.);
#1742=ORIENTED_EDGE('',*,*,#1741,.F.);
#1743=CARTESIAN_POINT('',(-1.600000000000000,0.900000000000000,0.100000000000000));
#1744=DIRECTION('',(1.0,0.0,0.0));
#1745=VECTOR('',#1744,0.400000000000000);
#1746=LINE('',#1743,#1745);
#1747=EDGE_CURVE('',#1727,#1736,#1746,.T.);
#1748=ORIENTED_EDGE('',*,*,#1747,.F.);
#1749=EDGE_LOOP('',(#1733,#1734,#1742,#1748));
#1750=FACE_OUTER_BOUND('',#1749,.T.);
#1751=ADVANCED_FACE('',(#1750),#1725,.T.);
#1752=CARTESIAN_POINT('',(-1.200000000000000,0.900000000000000,0.0));
#1753=DIRECTION('',(1.0,0.0,0.0));
#1754=DIRECTION('',(0.0,0.0,-1.0));
#1755=AXIS2_PLACEMENT_3D('',#1752,#1753,#1754);
#1756=PLANE('',#1755);
#1757=CARTESIAN_POINT('',(-1.200000000000000,0.800000000000000,0.100000000000000));
#1758=DIRECTION('',(-1.000000000000000,0.0,0.0));
#1759=DIRECTION('',(0.0,0.707106781186547,-0.707106781186548));
#1760=AXIS2_PLACEMENT_3D('',#1757,#1758,#1759);
#1761=CIRCLE('',#1760,0.100000000000000);
#1762=EDGE_CURVE('',#1736,#1421,#1761,.T.);
#1763=ORIENTED_EDGE('',*,*,#1762,.F.);
#1764=ORIENTED_EDGE('',*,*,#1741,.T.);
#1765=ORIENTED_EDGE('',*,*,#1701,.F.);
#1766=ORIENTED_EDGE('',*,*,#1490,.F.);
#1767=ORIENTED_EDGE('',*,*,#1683,.T.);
#1768=ORIENTED_EDGE('',*,*,#1517,.F.);
#1769=ORIENTED_EDGE('',*,*,#1666,.F.);
#1770=ORIENTED_EDGE('',*,*,#1636,.F.);
#1771=ORIENTED_EDGE('',*,*,#1605,.F.);
#1772=ORIENTED_EDGE('',*,*,#1570,.F.);
#1773=ORIENTED_EDGE('',*,*,#1585,.T.);
#1774=ORIENTED_EDGE('',*,*,#1437,.F.);
#1775=EDGE_LOOP('',(#1763,#1764,#1765,#1766,#1767,#1768,#1769,#1770,#1771,#1772,#1773,#1774));
#1776=FACE_OUTER_BOUND('',#1775,.T.);
#1777=ADVANCED_FACE('',(#1776),#1756,.T.);
#1778=CARTESIAN_POINT('',(-1.512500000000000,0.800000000000000,0.100000000000000));
#1779=DIRECTION('',(-1.0,0.0,0.0));
#1780=DIRECTION('',(0.0,0.707106781186547,-0.707106781186548));
#1781=AXIS2_PLACEMENT_3D('',#1778,#1779,#1780);
#1782=CYLINDRICAL_SURFACE('',#1781,0.100000000000000);
#1783=ORIENTED_EDGE('',*,*,#1428,.T.);
#1784=CARTESIAN_POINT('',(-1.600000000000000,0.800000000000000,0.100000000000000));
#1785=DIRECTION('',(-1.0,0.0,0.0));
#1786=DIRECTION('',(0.0,0.707106781186547,-0.707106781186548));
#1787=AXIS2_PLACEMENT_3D('',#1784,#1785,#1786);
#1788=CIRCLE('',#1787,0.100000000000000);
#1789=EDGE_CURVE('',#1727,#1423,#1788,.T.);
#1790=ORIENTED_EDGE('',*,*,#1789,.F.);
#1791=ORIENTED_EDGE('',*,*,#1747,.T.);
#1792=ORIENTED_EDGE('',*,*,#1762,.T.);
#1793=EDGE_LOOP('',(#1783,#1790,#1791,#1792));
#1794=FACE_OUTER_BOUND('',#1793,.T.);
#1795=ADVANCED_FACE('',(#1794),#1782,.T.);
#1796=CARTESIAN_POINT('',(-1.600000000000000,-0.800000000000000,0.0));
#1797=DIRECTION('',(0.0,0.0,1.0));
#1798=DIRECTION('',(-0.707106781186548,-0.707106781186547,0.0));
#1799=AXIS2_PLACEMENT_3D('',#1796,#1797,#1798);
#1800=CYLINDRICAL_SURFACE('',#1799,0.100000000000000);
#1801=ORIENTED_EDGE('',*,*,#1386,.T.);
#1802=CARTESIAN_POINT('',(-1.700000000000000,-0.800000000000000,1.420000000000000));
#1803=VERTEX_POINT('',#1802);
#1804=CARTESIAN_POINT('',(-1.600000000000000,-0.800000000000000,1.420000000000000));
#1805=DIRECTION('',(0.0,0.0,-1.0));
#1806=DIRECTION('',(0.0,-1.0,0.0));
#1807=AXIS2_PLACEMENT_3D('',#1804,#1805,#1806);
#1808=CIRCLE('',#1807,0.100000000000000);
#1809=EDGE_CURVE('',#1381,#1803,#1808,.T.);
#1810=ORIENTED_EDGE('',*,*,#1809,.T.);
#1811=CARTESIAN_POINT('',(-1.700000000000000,-0.800000000000000,0.100000000000000));
#1812=VERTEX_POINT('',#1811);
#1813=CARTESIAN_POINT('',(-1.700000000000000,-0.800000000000000,1.420000000000000));
#1814=DIRECTION('',(0.0,0.0,-1.0));
#1815=VECTOR('',#1814,1.320000000000000);
#1816=LINE('',#1813,#1815);
#1817=EDGE_CURVE('',#1803,#1812,#1816,.T.);
#1818=ORIENTED_EDGE('',*,*,#1817,.T.);
#1819=CARTESIAN_POINT('',(-1.600000000000000,-0.800000000000000,0.100000000000000));
#1820=DIRECTION('',(0.0,0.0,-1.0));
#1821=DIRECTION('',(0.0,-1.0,0.0));
#1822=AXIS2_PLACEMENT_3D('',#1819,#1820,#1821);
#1823=CIRCLE('',#1822,0.100000000000000);
#1824=EDGE_CURVE('',#1379,#1812,#1823,.T.);
#1825=ORIENTED_EDGE('',*,*,#1824,.F.);
#1826=EDGE_LOOP('',(#1801,#1810,#1818,#1825));
#1827=FACE_OUTER_BOUND('',#1826,.T.);
#1828=ADVANCED_FACE('',(#1827),#1800,.T.);
#1829=CARTESIAN_POINT('',(-1.700000000000000,-0.900000000000000,0.0));
#1830=DIRECTION('',(-1.0,0.0,0.0));
#1831=DIRECTION('',(0.0,0.0,1.0));
#1832=AXIS2_PLACEMENT_3D('',#1829,#1830,#1831);
#1833=PLANE('',#1832);
#1834=ORIENTED_EDGE('',*,*,#1361,.F.);
#1835=CARTESIAN_POINT('',(-1.700000000000000,-0.800000000000000,0.100000000000000));
#1836=DIRECTION('',(0.0,1.0,0.0));
#1837=VECTOR('',#1836,1.600000000000000);
#1838=LINE('',#1835,#1837);
#1839=EDGE_CURVE('',#1812,#1347,#1838,.T.);
#1840=ORIENTED_EDGE('',*,*,#1839,.F.);
#1841=ORIENTED_EDGE('',*,*,#1817,.F.);
#1842=CARTESIAN_POINT('',(-1.700000000000000,0.800000000000000,1.420000000000000));
#1843=DIRECTION('',(0.0,-1.0,0.0));
#1844=VECTOR('',#1843,1.600000000000000);
#1845=LINE('',#1842,#1844);
#1846=EDGE_CURVE('',#1356,#1803,#1845,.T.);
#1847=ORIENTED_EDGE('',*,*,#1846,.F.);
#1848=EDGE_LOOP('',(#1834,#1840,#1841,#1847));
#1849=FACE_OUTER_BOUND('',#1848,.T.);
#1850=ADVANCED_FACE('',(#1849),#1833,.T.);
#1851=CARTESIAN_POINT('',(-1.600000000000000,0.800000000000000,0.0));
#1852=DIRECTION('',(0.0,0.0,1.0));
#1853=DIRECTION('',(-0.707106781186548,0.707106781186547,0.0));
#1854=AXIS2_PLACEMENT_3D('',#1851,#1852,#1853);
#1855=CYLINDRICAL_SURFACE('',#1854,0.100000000000000);
#1856=ORIENTED_EDGE('',*,*,#1344,.T.);
#1857=CARTESIAN_POINT('',(-1.600000000000000,0.800000000000000,1.420000000000000));
#1858=DIRECTION('',(0.0,0.0,-1.0));
#1859=DIRECTION('',(-1.0,0.0,0.0));
#1860=AXIS2_PLACEMENT_3D('',#1857,#1858,#1859);
#1861=CIRCLE('',#1860,0.100000000000000);
#1862=EDGE_CURVE('',#1339,#1704,#1861,.T.);
#1863=ORIENTED_EDGE('',*,*,#1862,.T.);
#1864=ORIENTED_EDGE('',*,*,#1732,.T.);
#1865=CARTESIAN_POINT('',(-1.600000000000000,0.800000000000000,0.100000000000000));
#1866=DIRECTION('',(0.0,0.0,1.0));
#1867=DIRECTION('',(0.0,1.0,0.0));
#1868=AXIS2_PLACEMENT_3D('',#1865,#1866,#1867);
#1869=CIRCLE('',#1868,0.100000000000000);
#1870=EDGE_CURVE('',#1727,#1337,#1869,.T.);
#1871=ORIENTED_EDGE('',*,*,#1870,.T.);
#1872=EDGE_LOOP('',(#1856,#1863,#1864,#1871));
#1873=FACE_OUTER_BOUND('',#1872,.T.);
#1874=ADVANCED_FACE('',(#1873),#1855,.T.);
#1875=CARTESIAN_POINT('',(-1.600000000000000,0.800000000000000,0.100000000000000));
#1876=DIRECTION('',(0.0,0.0,1.0));
#1877=DIRECTION('',(1.0,0.0,0.0));
#1878=AXIS2_PLACEMENT_3D('',#1875,#1876,#1877);
#1879=SPHERICAL_SURFACE('',#1878,0.100000000000000);
#1880=ORIENTED_EDGE('',*,*,#1870,.F.);
#1881=ORIENTED_EDGE('',*,*,#1789,.T.);
#1882=ORIENTED_EDGE('',*,*,#1450,.T.);
#1883=ORIENTED_EDGE('',*,*,#1311,.T.);
#1884=CARTESIAN_POINT('',(-1.600000000000000,0.800000000000000,0.100000000000000));
#1885=DIRECTION('',(0.0,1.000000000000000,0.0));
#1886=DIRECTION('',(-0.707106781186548,0.0,-0.707106781186547));
#1887=AXIS2_PLACEMENT_3D('',#1884,#1885,#1886);
#1888=CIRCLE('',#1887,0.100000000000000);
#1889=EDGE_CURVE('',#1295,#1347,#1888,.T.);
#1890=ORIENTED_EDGE('',*,*,#1889,.T.);
#1891=ORIENTED_EDGE('',*,*,#1353,.F.);
#1892=EDGE_LOOP('',(#1880,#1881,#1882,#1883,#1890,#1891));
#1893=FACE_OUTER_BOUND('',#1892,.T.);
#1894=ADVANCED_FACE('',(#1893),#1879,.T.);
#1895=CARTESIAN_POINT('',(-1.600000000000000,-0.800000000000000,0.100000000000000));
#1896=DIRECTION('',(0.0,0.0,1.0));
#1897=DIRECTION('',(1.0,0.0,0.0));
#1898=AXIS2_PLACEMENT_3D('',#1895,#1896,#1897);
#1899=SPHERICAL_SURFACE('',#1898,0.100000000000000);
#1900=ORIENTED_EDGE('',*,*,#1395,.T.);
#1901=ORIENTED_EDGE('',*,*,#1824,.T.);
#1902=CARTESIAN_POINT('',(-1.600000000000000,-0.800000000000000,0.100000000000000));
#1903=DIRECTION('',(0.0,-1.000000000000000,0.0));
#1904=DIRECTION('',(-0.707106781186548,0.0,-0.707106781186547));
#1905=AXIS2_PLACEMENT_3D('',#1902,#1903,#1904);
#1906=CIRCLE('',#1905,0.100000000000000);
#1907=EDGE_CURVE('',#1812,#1297,#1906,.T.);
#1908=ORIENTED_EDGE('',*,*,#1907,.T.);
#1909=ORIENTED_EDGE('',*,*,#1326,.T.);
#1910=ORIENTED_EDGE('',*,*,#1555,.T.);
#1911=ORIENTED_EDGE('',*,*,#1618,.T.);
#1912=EDGE_LOOP('',(#1900,#1901,#1908,#1909,#1910,#1911));
#1913=FACE_OUTER_BOUND('',#1912,.T.);
#1914=ADVANCED_FACE('',(#1913),#1899,.T.);
#1915=CARTESIAN_POINT('',(-1.600000000000000,-0.450000000000000,0.100000000000000));
#1916=DIRECTION('',(0.0,-1.0,0.0));
#1917=DIRECTION('',(-0.707106781186548,0.0,-0.707106781186547));
#1918=AXIS2_PLACEMENT_3D('',#1915,#1916,#1917);
#1919=CYLINDRICAL_SURFACE('',#1918,0.100000000000000);
#1920=ORIENTED_EDGE('',*,*,#1302,.T.);
#1921=ORIENTED_EDGE('',*,*,#1907,.F.);
#1922=ORIENTED_EDGE('',*,*,#1839,.T.);
#1923=ORIENTED_EDGE('',*,*,#1889,.F.);
#1924=EDGE_LOOP('',(#1920,#1921,#1922,#1923));
#1925=FACE_OUTER_BOUND('',#1924,.T.);
#1926=ADVANCED_FACE('',(#1925),#1919,.T.);
#1927=CARTESIAN_POINT('',(-1.600000000000000,-0.800000000000000,1.420000000000000));
#1928=DIRECTION('',(0.0,0.0,1.0));
#1929=DIRECTION('',(1.0,0.0,0.0));
#1930=AXIS2_PLACEMENT_3D('',#1927,#1928,#1929);
#1931=SPHERICAL_SURFACE('',#1930,0.100000000000000);
#1932=ORIENTED_EDGE('',*,*,#1410,.F.);
#1933=ORIENTED_EDGE('',*,*,#1658,.T.);
#1934=ORIENTED_EDGE('',*,*,#1530,.T.);
#1935=ORIENTED_EDGE('',*,*,#1269,.T.);
#1936=CARTESIAN_POINT('',(-1.600000000000000,-0.800000000000000,1.420000000000000));
#1937=DIRECTION('',(0.0,-1.000000000000000,0.0));
#1938=DIRECTION('',(-0.707106781186548,0.0,0.707106781186547));
#1939=AXIS2_PLACEMENT_3D('',#1936,#1937,#1938);
#1940=CIRCLE('',#1939,0.100000000000000);
#1941=EDGE_CURVE('',#1253,#1803,#1940,.T.);
#1942=ORIENTED_EDGE('',*,*,#1941,.T.);
#1943=ORIENTED_EDGE('',*,*,#1809,.F.);
#1944=EDGE_LOOP('',(#1932,#1933,#1934,#1935,#1942,#1943));
#1945=FACE_OUTER_BOUND('',#1944,.T.);
#1946=ADVANCED_FACE('',(#1945),#1931,.T.);
#1947=CARTESIAN_POINT('',(-1.600000000000000,-0.450000000000000,1.420000000000000));
#1948=DIRECTION('',(0.0,1.0,0.0));
#1949=DIRECTION('',(-0.707106781186548,0.0,0.707106781186547));
#1950=AXIS2_PLACEMENT_3D('',#1947,#1948,#1949);
#1951=CYLINDRICAL_SURFACE('',#1950,0.100000000000000);
#1952=ORIENTED_EDGE('',*,*,#1260,.T.);
#1953=CARTESIAN_POINT('',(-1.600000000000000,0.800000000000000,1.420000000000000));
#1954=DIRECTION('',(0.0,1.000000000000000,0.0));
#1955=DIRECTION('',(-0.707106781186548,0.0,0.707106781186547));
#1956=AXIS2_PLACEMENT_3D('',#1953,#1954,#1955);
#1957=CIRCLE('',#1956,0.100000000000000);
#1958=EDGE_CURVE('',#1356,#1255,#1957,.T.);
#1959=ORIENTED_EDGE('',*,*,#1958,.F.);
#1960=ORIENTED_EDGE('',*,*,#1846,.T.);
#1961=ORIENTED_EDGE('',*,*,#1941,.F.);
#1962=EDGE_LOOP('',(#1952,#1959,#1960,#1961));
#1963=FACE_OUTER_BOUND('',#1962,.T.);
#1964=ADVANCED_FACE('',(#1963),#1951,.T.);
#1965=CARTESIAN_POINT('',(-1.600000000000000,0.800000000000000,1.420000000000000));
#1966=DIRECTION('',(0.0,0.0,1.0));
#1967=DIRECTION('',(1.0,0.0,0.0));
#1968=AXIS2_PLACEMENT_3D('',#1965,#1966,#1967);
#1969=SPHERICAL_SURFACE('',#1968,0.100000000000000);
#1970=ORIENTED_EDGE('',*,*,#1368,.F.);
#1971=ORIENTED_EDGE('',*,*,#1958,.T.);
#1972=ORIENTED_EDGE('',*,*,#1284,.T.);
#1973=ORIENTED_EDGE('',*,*,#1475,.T.);
#1974=ORIENTED_EDGE('',*,*,#1716,.T.);
#1975=ORIENTED_EDGE('',*,*,#1862,.F.);
#1976=EDGE_LOOP('',(#1970,#1971,#1972,#1973,#1974,#1975));
#1977=FACE_OUTER_BOUND('',#1976,.T.);
#1978=ADVANCED_FACE('',(#1977),#1969,.T.);
#1979=CLOSED_SHELL('',(#1288,#1330,#1372,#1414,#1454,#1494,#1534,#1574,#1591,#1622,#1646,#1670,#1687,#1720,#1751,#1777,#1795,#1828,#1850,#1874,#1894,#1914,#1926,#1946,#1964,#1978));
#1980=MANIFOLD_SOLID_BREP('39F',#1979);
#1981=STYLED_ITEM('NONE',(#805),#1980);
#1982=ADVANCED_BREP_SHAPE_REPRESENTATION('ABSR1',(#798,#1238,#1980),#28);
#1983=SHAPE_REPRESENTATION_RELATIONSHIP('SRRPL1','',#1982,#62);
ENDSEC;
END-ISO-10303-21;
