ISO-10303-21;
HEADER;
/* Generated by software containing ST-Developer
 * from STEP Tools, Inc. (www.steptools.com) 
 */

FILE_DESCRIPTION(
/* description */ (''),
/* implementation_level */ '2;1');

FILE_NAME(
/* name */ 'G:\\Applications\\Altium\\CernLib\\StepLib\\CAPC5750X340N.
stp',
/* time_stamp */ '2017-09-08T09:41:57+02:00',
/* author */ ('riccim'),
/* organization */ (''),
/* preprocessor_version */ 'ST-DEVELOPER v16.5',
/* originating_system */ 'AutoCAD Mechanical',
/* authorisation */ '');

FILE_SCHEMA (('AUTOMOTIVE_DESIGN { 1 0 10303 214 3 1 1 }'));
ENDSEC;

DATA;
#10=MECHANICAL_DESIGN_GEOMETRIC_PRESENTATION_REPRESENTATION('',(#25,#26,
#27),#1225);
#11=DIMENSIONAL_EXPONENTS(0.,0.,0.,0.,0.,0.,0.);
#12=(
CONVERSION_BASED_UNIT('degree',#13)
NAMED_UNIT(#11)
PLANE_ANGLE_UNIT()
);
#13=PLANE_ANGLE_MEASURE_WITH_UNIT(PLANE_ANGLE_MEASURE(0.01745329252),#1228);
#14=PRESENTATION_LAYER_ASSIGNMENT('1','3D',(#28,#29,#30));
#15=SHAPE_REPRESENTATION_RELATIONSHIP('SRR','None',#1231,#16);
#16=ADVANCED_BREP_SHAPE_REPRESENTATION('',(#28,#29,#30),#1224);
#17=SPHERICAL_SURFACE('',#725,0.1);
#18=SPHERICAL_SURFACE('',#729,0.1);
#19=SPHERICAL_SURFACE('',#733,0.1);
#20=SPHERICAL_SURFACE('',#737,0.1);
#21=SPHERICAL_SURFACE('',#759,0.1);
#22=SPHERICAL_SURFACE('',#763,0.1);
#23=SPHERICAL_SURFACE('',#767,0.1);
#24=SPHERICAL_SURFACE('',#771,0.1);
#25=STYLED_ITEM('',(#1241),#28);
#26=STYLED_ITEM('',(#1242),#29);
#27=STYLED_ITEM('',(#1242),#30);
#28=MANIFOLD_SOLID_BREP('408',#703);
#29=MANIFOLD_SOLID_BREP('409',#704);
#30=MANIFOLD_SOLID_BREP('40A',#705);
#31=PLANE('',#710);
#32=PLANE('',#711);
#33=PLANE('',#717);
#34=PLANE('',#718);
#35=PLANE('',#722);
#36=PLANE('',#724);
#37=PLANE('',#753);
#38=PLANE('',#754);
#39=PLANE('',#755);
#40=PLANE('',#756);
#41=PLANE('',#757);
#42=PLANE('',#758);
#43=PLANE('',#787);
#44=PLANE('',#788);
#45=PLANE('',#789);
#46=PLANE('',#790);
#47=PLANE('',#791);
#48=PLANE('',#792);
#49=FACE_OUTER_BOUND('',#95,.T.);
#50=FACE_OUTER_BOUND('',#96,.T.);
#51=FACE_OUTER_BOUND('',#97,.T.);
#52=FACE_OUTER_BOUND('',#98,.T.);
#53=FACE_OUTER_BOUND('',#99,.T.);
#54=FACE_OUTER_BOUND('',#100,.T.);
#55=FACE_OUTER_BOUND('',#101,.T.);
#56=FACE_OUTER_BOUND('',#102,.T.);
#57=FACE_OUTER_BOUND('',#103,.T.);
#58=FACE_OUTER_BOUND('',#104,.T.);
#59=FACE_OUTER_BOUND('',#105,.T.);
#60=FACE_OUTER_BOUND('',#106,.T.);
#61=FACE_OUTER_BOUND('',#107,.T.);
#62=FACE_OUTER_BOUND('',#108,.T.);
#63=FACE_OUTER_BOUND('',#109,.T.);
#64=FACE_OUTER_BOUND('',#110,.T.);
#65=FACE_OUTER_BOUND('',#111,.T.);
#66=FACE_OUTER_BOUND('',#112,.T.);
#67=FACE_OUTER_BOUND('',#113,.T.);
#68=FACE_OUTER_BOUND('',#114,.T.);
#69=FACE_OUTER_BOUND('',#115,.T.);
#70=FACE_OUTER_BOUND('',#116,.T.);
#71=FACE_OUTER_BOUND('',#117,.T.);
#72=FACE_OUTER_BOUND('',#118,.T.);
#73=FACE_OUTER_BOUND('',#119,.T.);
#74=FACE_OUTER_BOUND('',#120,.T.);
#75=FACE_OUTER_BOUND('',#121,.T.);
#76=FACE_OUTER_BOUND('',#122,.T.);
#77=FACE_OUTER_BOUND('',#123,.T.);
#78=FACE_OUTER_BOUND('',#124,.T.);
#79=FACE_OUTER_BOUND('',#125,.T.);
#80=FACE_OUTER_BOUND('',#126,.T.);
#81=FACE_OUTER_BOUND('',#127,.T.);
#82=FACE_OUTER_BOUND('',#128,.T.);
#83=FACE_OUTER_BOUND('',#129,.T.);
#84=FACE_OUTER_BOUND('',#130,.T.);
#85=FACE_OUTER_BOUND('',#131,.T.);
#86=FACE_OUTER_BOUND('',#132,.T.);
#87=FACE_OUTER_BOUND('',#133,.T.);
#88=FACE_OUTER_BOUND('',#134,.T.);
#89=FACE_OUTER_BOUND('',#135,.T.);
#90=FACE_OUTER_BOUND('',#136,.T.);
#91=FACE_OUTER_BOUND('',#137,.T.);
#92=FACE_OUTER_BOUND('',#138,.T.);
#93=FACE_OUTER_BOUND('',#139,.T.);
#94=FACE_OUTER_BOUND('',#140,.T.);
#95=EDGE_LOOP('',(#445,#446,#447,#448));
#96=EDGE_LOOP('',(#449,#450,#451,#452));
#97=EDGE_LOOP('',(#453,#454,#455,#456,#457,#458,#459,#460));
#98=EDGE_LOOP('',(#461,#462,#463,#464));
#99=EDGE_LOOP('',(#465,#466,#467,#468));
#100=EDGE_LOOP('',(#469,#470,#471,#472,#473,#474,#475,#476));
#101=EDGE_LOOP('',(#477,#478,#479,#480));
#102=EDGE_LOOP('',(#481,#482,#483,#484));
#103=EDGE_LOOP('',(#485,#486,#487,#488));
#104=EDGE_LOOP('',(#489,#490,#491,#492));
#105=EDGE_LOOP('',(#493,#494,#495));
#106=EDGE_LOOP('',(#496,#497,#498));
#107=EDGE_LOOP('',(#499,#500,#501));
#108=EDGE_LOOP('',(#502,#503,#504));
#109=EDGE_LOOP('',(#505,#506,#507,#508));
#110=EDGE_LOOP('',(#509,#510,#511,#512));
#111=EDGE_LOOP('',(#513,#514,#515,#516));
#112=EDGE_LOOP('',(#517,#518,#519,#520));
#113=EDGE_LOOP('',(#521,#522,#523,#524));
#114=EDGE_LOOP('',(#525,#526,#527,#528));
#115=EDGE_LOOP('',(#529,#530,#531,#532));
#116=EDGE_LOOP('',(#533,#534,#535,#536));
#117=EDGE_LOOP('',(#537,#538,#539,#540));
#118=EDGE_LOOP('',(#541,#542,#543,#544));
#119=EDGE_LOOP('',(#545,#546,#547,#548));
#120=EDGE_LOOP('',(#549,#550,#551,#552,#553,#554,#555,#556));
#121=EDGE_LOOP('',(#557,#558,#559,#560));
#122=EDGE_LOOP('',(#561,#562,#563,#564));
#123=EDGE_LOOP('',(#565,#566,#567));
#124=EDGE_LOOP('',(#568,#569,#570));
#125=EDGE_LOOP('',(#571,#572,#573));
#126=EDGE_LOOP('',(#574,#575,#576));
#127=EDGE_LOOP('',(#577,#578,#579,#580));
#128=EDGE_LOOP('',(#581,#582,#583,#584));
#129=EDGE_LOOP('',(#585,#586,#587,#588));
#130=EDGE_LOOP('',(#589,#590,#591,#592));
#131=EDGE_LOOP('',(#593,#594,#595,#596));
#132=EDGE_LOOP('',(#597,#598,#599,#600));
#133=EDGE_LOOP('',(#601,#602,#603,#604));
#134=EDGE_LOOP('',(#605,#606,#607,#608));
#135=EDGE_LOOP('',(#609,#610,#611,#612));
#136=EDGE_LOOP('',(#613,#614,#615,#616));
#137=EDGE_LOOP('',(#617,#618,#619,#620));
#138=EDGE_LOOP('',(#621,#622,#623,#624,#625,#626,#627,#628));
#139=EDGE_LOOP('',(#629,#630,#631,#632));
#140=EDGE_LOOP('',(#633,#634,#635,#636));
#141=LINE('',#1029,#197);
#142=LINE('',#1032,#198);
#143=LINE('',#1035,#199);
#144=LINE('',#1037,#200);
#145=LINE('',#1038,#201);
#146=LINE('',#1041,#202);
#147=LINE('',#1045,#203);
#148=LINE('',#1049,#204);
#149=LINE('',#1055,#205);
#150=LINE('',#1056,#206);
#151=LINE('',#1059,#207);
#152=LINE('',#1060,#208);
#153=LINE('',#1065,#209);
#154=LINE('',#1067,#210);
#155=LINE('',#1069,#211);
#156=LINE('',#1071,#212);
#157=LINE('',#1106,#213);
#158=LINE('',#1107,#214);
#159=LINE('',#1109,#215);
#160=LINE('',#1110,#216);
#161=LINE('',#1112,#217);
#162=LINE('',#1113,#218);
#163=LINE('',#1118,#219);
#164=LINE('',#1119,#220);
#165=LINE('',#1121,#221);
#166=LINE('',#1122,#222);
#167=LINE('',#1124,#223);
#168=LINE('',#1125,#224);
#169=LINE('',#1130,#225);
#170=LINE('',#1131,#226);
#171=LINE('',#1136,#227);
#172=LINE('',#1137,#228);
#173=LINE('',#1139,#229);
#174=LINE('',#1141,#230);
#175=LINE('',#1144,#231);
#176=LINE('',#1145,#232);
#177=LINE('',#1177,#233);
#178=LINE('',#1178,#234);
#179=LINE('',#1183,#235);
#180=LINE('',#1184,#236);
#181=LINE('',#1186,#237);
#182=LINE('',#1187,#238);
#183=LINE('',#1192,#239);
#184=LINE('',#1193,#240);
#185=LINE('',#1195,#241);
#186=LINE('',#1196,#242);
#187=LINE('',#1198,#243);
#188=LINE('',#1199,#244);
#189=LINE('',#1204,#245);
#190=LINE('',#1205,#246);
#191=LINE('',#1210,#247);
#192=LINE('',#1211,#248);
#193=LINE('',#1213,#249);
#194=LINE('',#1215,#250);
#195=LINE('',#1218,#251);
#196=LINE('',#1219,#252);
#197=VECTOR('',#799,1.);
#198=VECTOR('',#802,1.);
#199=VECTOR('',#805,1.);
#200=VECTOR('',#806,1.);
#201=VECTOR('',#807,1.);
#202=VECTOR('',#810,1.);
#203=VECTOR('',#813,1.);
#204=VECTOR('',#816,1.);
#205=VECTOR('',#823,1.);
#206=VECTOR('',#824,1.);
#207=VECTOR('',#827,1.);
#208=VECTOR('',#828,1.);
#209=VECTOR('',#833,1.);
#210=VECTOR('',#836,1.);
#211=VECTOR('',#839,1.);
#212=VECTOR('',#842,1.);
#213=VECTOR('',#883,1.);
#214=VECTOR('',#884,1.);
#215=VECTOR('',#887,1.);
#216=VECTOR('',#888,1.);
#217=VECTOR('',#891,1.);
#218=VECTOR('',#892,1.);
#219=VECTOR('',#897,1.);
#220=VECTOR('',#898,1.);
#221=VECTOR('',#901,1.);
#222=VECTOR('',#902,1.);
#223=VECTOR('',#905,1.);
#224=VECTOR('',#906,1.);
#225=VECTOR('',#911,1.);
#226=VECTOR('',#912,1.);
#227=VECTOR('',#917,1.);
#228=VECTOR('',#918,1.);
#229=VECTOR('',#921,1.);
#230=VECTOR('',#924,1.);
#231=VECTOR('',#929,1.);
#232=VECTOR('',#930,1.);
#233=VECTOR('',#969,1.);
#234=VECTOR('',#970,1.);
#235=VECTOR('',#975,1.);
#236=VECTOR('',#976,1.);
#237=VECTOR('',#979,1.);
#238=VECTOR('',#980,1.);
#239=VECTOR('',#985,1.);
#240=VECTOR('',#986,1.);
#241=VECTOR('',#989,1.);
#242=VECTOR('',#990,1.);
#243=VECTOR('',#993,1.);
#244=VECTOR('',#994,1.);
#245=VECTOR('',#999,1.);
#246=VECTOR('',#1000,1.);
#247=VECTOR('',#1005,1.);
#248=VECTOR('',#1006,1.);
#249=VECTOR('',#1009,1.);
#250=VECTOR('',#1012,1.);
#251=VECTOR('',#1017,1.);
#252=VECTOR('',#1018,1.);
#253=CIRCLE('',#708,0.05);
#254=CIRCLE('',#709,0.05);
#255=CIRCLE('',#712,0.05);
#256=CIRCLE('',#713,0.05);
#257=CIRCLE('',#714,0.05);
#258=CIRCLE('',#716,0.05);
#259=CIRCLE('',#719,0.05);
#260=CIRCLE('',#720,0.05);
#261=CIRCLE('',#726,0.0999999999999997);
#262=CIRCLE('',#727,0.1);
#263=CIRCLE('',#728,0.1);
#264=CIRCLE('',#730,0.1);
#265=CIRCLE('',#731,0.1);
#266=CIRCLE('',#732,0.1);
#267=CIRCLE('',#734,0.1);
#268=CIRCLE('',#735,0.1);
#269=CIRCLE('',#736,0.1);
#270=CIRCLE('',#738,0.1);
#271=CIRCLE('',#739,0.1);
#272=CIRCLE('',#740,0.1);
#273=CIRCLE('',#742,0.1);
#274=CIRCLE('',#746,0.1);
#275=CIRCLE('',#750,0.1);
#276=CIRCLE('',#752,0.1);
#277=CIRCLE('',#760,0.1);
#278=CIRCLE('',#761,0.1);
#279=CIRCLE('',#762,0.1);
#280=CIRCLE('',#764,0.1);
#281=CIRCLE('',#765,0.1);
#282=CIRCLE('',#766,0.1);
#283=CIRCLE('',#768,0.1);
#284=CIRCLE('',#769,0.1);
#285=CIRCLE('',#770,0.1);
#286=CIRCLE('',#772,0.1);
#287=CIRCLE('',#773,0.0999999999999997);
#288=CIRCLE('',#774,0.1);
#289=CIRCLE('',#777,0.1);
#290=CIRCLE('',#780,0.1);
#291=CIRCLE('',#784,0.1);
#292=CIRCLE('',#786,0.1);
#293=VERTEX_POINT('',#1025);
#294=VERTEX_POINT('',#1026);
#295=VERTEX_POINT('',#1028);
#296=VERTEX_POINT('',#1030);
#297=VERTEX_POINT('',#1034);
#298=VERTEX_POINT('',#1036);
#299=VERTEX_POINT('',#1040);
#300=VERTEX_POINT('',#1042);
#301=VERTEX_POINT('',#1044);
#302=VERTEX_POINT('',#1046);
#303=VERTEX_POINT('',#1048);
#304=VERTEX_POINT('',#1052);
#305=VERTEX_POINT('',#1053);
#306=VERTEX_POINT('',#1058);
#307=VERTEX_POINT('',#1062);
#308=VERTEX_POINT('',#1064);
#309=VERTEX_POINT('',#1075);
#310=VERTEX_POINT('',#1076);
#311=VERTEX_POINT('',#1078);
#312=VERTEX_POINT('',#1082);
#313=VERTEX_POINT('',#1083);
#314=VERTEX_POINT('',#1085);
#315=VERTEX_POINT('',#1089);
#316=VERTEX_POINT('',#1090);
#317=VERTEX_POINT('',#1092);
#318=VERTEX_POINT('',#1096);
#319=VERTEX_POINT('',#1097);
#320=VERTEX_POINT('',#1099);
#321=VERTEX_POINT('',#1103);
#322=VERTEX_POINT('',#1104);
#323=VERTEX_POINT('',#1115);
#324=VERTEX_POINT('',#1116);
#325=VERTEX_POINT('',#1127);
#326=VERTEX_POINT('',#1128);
#327=VERTEX_POINT('',#1133);
#328=VERTEX_POINT('',#1134);
#329=VERTEX_POINT('',#1149);
#330=VERTEX_POINT('',#1150);
#331=VERTEX_POINT('',#1152);
#332=VERTEX_POINT('',#1156);
#333=VERTEX_POINT('',#1157);
#334=VERTEX_POINT('',#1159);
#335=VERTEX_POINT('',#1163);
#336=VERTEX_POINT('',#1164);
#337=VERTEX_POINT('',#1166);
#338=VERTEX_POINT('',#1170);
#339=VERTEX_POINT('',#1171);
#340=VERTEX_POINT('',#1173);
#341=VERTEX_POINT('',#1180);
#342=VERTEX_POINT('',#1181);
#343=VERTEX_POINT('',#1189);
#344=VERTEX_POINT('',#1190);
#345=VERTEX_POINT('',#1201);
#346=VERTEX_POINT('',#1202);
#347=VERTEX_POINT('',#1207);
#348=VERTEX_POINT('',#1208);
#349=EDGE_CURVE('',#293,#294,#253,.T.);
#350=EDGE_CURVE('',#294,#295,#141,.T.);
#351=EDGE_CURVE('',#295,#296,#254,.T.);
#352=EDGE_CURVE('',#296,#293,#142,.T.);
#353=EDGE_CURVE('',#297,#294,#143,.T.);
#354=EDGE_CURVE('',#298,#297,#144,.T.);
#355=EDGE_CURVE('',#298,#295,#145,.T.);
#356=EDGE_CURVE('',#293,#299,#146,.T.);
#357=EDGE_CURVE('',#300,#299,#255,.T.);
#358=EDGE_CURVE('',#301,#300,#147,.T.);
#359=EDGE_CURVE('',#302,#301,#256,.T.);
#360=EDGE_CURVE('',#303,#302,#148,.T.);
#361=EDGE_CURVE('',#297,#303,#257,.T.);
#362=EDGE_CURVE('',#304,#305,#258,.T.);
#363=EDGE_CURVE('',#305,#300,#149,.T.);
#364=EDGE_CURVE('',#299,#304,#150,.T.);
#365=EDGE_CURVE('',#306,#305,#151,.T.);
#366=EDGE_CURVE('',#301,#306,#152,.T.);
#367=EDGE_CURVE('',#307,#298,#259,.T.);
#368=EDGE_CURVE('',#308,#307,#153,.T.);
#369=EDGE_CURVE('',#306,#308,#260,.T.);
#370=EDGE_CURVE('',#304,#296,#154,.T.);
#371=EDGE_CURVE('',#308,#302,#155,.T.);
#372=EDGE_CURVE('',#303,#307,#156,.T.);
#373=EDGE_CURVE('',#309,#310,#261,.F.);
#374=EDGE_CURVE('',#311,#309,#262,.F.);
#375=EDGE_CURVE('',#311,#310,#263,.T.);
#376=EDGE_CURVE('',#312,#313,#264,.T.);
#377=EDGE_CURVE('',#314,#313,#265,.F.);
#378=EDGE_CURVE('',#314,#312,#266,.T.);
#379=EDGE_CURVE('',#315,#316,#267,.T.);
#380=EDGE_CURVE('',#317,#316,#268,.F.);
#381=EDGE_CURVE('',#317,#315,#269,.T.);
#382=EDGE_CURVE('',#318,#319,#270,.T.);
#383=EDGE_CURVE('',#320,#319,#271,.F.);
#384=EDGE_CURVE('',#320,#318,#272,.T.);
#385=EDGE_CURVE('',#321,#322,#273,.T.);
#386=EDGE_CURVE('',#322,#320,#157,.T.);
#387=EDGE_CURVE('',#319,#321,#158,.T.);
#388=EDGE_CURVE('',#316,#318,#159,.T.);
#389=EDGE_CURVE('',#320,#317,#160,.T.);
#390=EDGE_CURVE('',#313,#319,#161,.T.);
#391=EDGE_CURVE('',#318,#314,#162,.T.);
#392=EDGE_CURVE('',#323,#324,#274,.T.);
#393=EDGE_CURVE('',#324,#315,#163,.T.);
#394=EDGE_CURVE('',#317,#323,#164,.T.);
#395=EDGE_CURVE('',#309,#316,#165,.T.);
#396=EDGE_CURVE('',#315,#311,#166,.T.);
#397=EDGE_CURVE('',#314,#309,#167,.T.);
#398=EDGE_CURVE('',#310,#312,#168,.T.);
#399=EDGE_CURVE('',#325,#326,#275,.T.);
#400=EDGE_CURVE('',#326,#313,#169,.T.);
#401=EDGE_CURVE('',#312,#325,#170,.T.);
#402=EDGE_CURVE('',#327,#328,#276,.T.);
#403=EDGE_CURVE('',#328,#310,#171,.T.);
#404=EDGE_CURVE('',#311,#327,#172,.T.);
#405=EDGE_CURVE('',#321,#326,#173,.T.);
#406=EDGE_CURVE('',#325,#328,#174,.T.);
#407=EDGE_CURVE('',#324,#327,#175,.T.);
#408=EDGE_CURVE('',#323,#322,#176,.T.);
#409=EDGE_CURVE('',#329,#330,#277,.T.);
#410=EDGE_CURVE('',#331,#330,#278,.F.);
#411=EDGE_CURVE('',#331,#329,#279,.T.);
#412=EDGE_CURVE('',#332,#333,#280,.T.);
#413=EDGE_CURVE('',#334,#333,#281,.F.);
#414=EDGE_CURVE('',#334,#332,#282,.T.);
#415=EDGE_CURVE('',#335,#336,#283,.T.);
#416=EDGE_CURVE('',#337,#336,#284,.F.);
#417=EDGE_CURVE('',#337,#335,#285,.T.);
#418=EDGE_CURVE('',#338,#339,#286,.T.);
#419=EDGE_CURVE('',#340,#339,#287,.F.);
#420=EDGE_CURVE('',#340,#338,#288,.T.);
#421=EDGE_CURVE('',#336,#340,#177,.T.);
#422=EDGE_CURVE('',#339,#337,#178,.T.);
#423=EDGE_CURVE('',#341,#342,#289,.T.);
#424=EDGE_CURVE('',#342,#339,#179,.T.);
#425=EDGE_CURVE('',#338,#341,#180,.T.);
#426=EDGE_CURVE('',#333,#338,#181,.T.);
#427=EDGE_CURVE('',#340,#334,#182,.T.);
#428=EDGE_CURVE('',#343,#344,#290,.T.);
#429=EDGE_CURVE('',#344,#335,#183,.T.);
#430=EDGE_CURVE('',#337,#343,#184,.T.);
#431=EDGE_CURVE('',#330,#336,#185,.T.);
#432=EDGE_CURVE('',#335,#331,#186,.T.);
#433=EDGE_CURVE('',#334,#330,#187,.T.);
#434=EDGE_CURVE('',#329,#332,#188,.T.);
#435=EDGE_CURVE('',#345,#346,#291,.T.);
#436=EDGE_CURVE('',#346,#333,#189,.T.);
#437=EDGE_CURVE('',#332,#345,#190,.T.);
#438=EDGE_CURVE('',#347,#348,#292,.T.);
#439=EDGE_CURVE('',#348,#329,#191,.T.);
#440=EDGE_CURVE('',#331,#347,#192,.T.);
#441=EDGE_CURVE('',#341,#346,#193,.T.);
#442=EDGE_CURVE('',#345,#348,#194,.T.);
#443=EDGE_CURVE('',#344,#347,#195,.T.);
#444=EDGE_CURVE('',#343,#342,#196,.T.);
#445=ORIENTED_EDGE('',*,*,#349,.T.);
#446=ORIENTED_EDGE('',*,*,#350,.T.);
#447=ORIENTED_EDGE('',*,*,#351,.T.);
#448=ORIENTED_EDGE('',*,*,#352,.T.);
#449=ORIENTED_EDGE('',*,*,#350,.F.);
#450=ORIENTED_EDGE('',*,*,#353,.F.);
#451=ORIENTED_EDGE('',*,*,#354,.F.);
#452=ORIENTED_EDGE('',*,*,#355,.T.);
#453=ORIENTED_EDGE('',*,*,#349,.F.);
#454=ORIENTED_EDGE('',*,*,#356,.T.);
#455=ORIENTED_EDGE('',*,*,#357,.F.);
#456=ORIENTED_EDGE('',*,*,#358,.F.);
#457=ORIENTED_EDGE('',*,*,#359,.F.);
#458=ORIENTED_EDGE('',*,*,#360,.F.);
#459=ORIENTED_EDGE('',*,*,#361,.F.);
#460=ORIENTED_EDGE('',*,*,#353,.T.);
#461=ORIENTED_EDGE('',*,*,#362,.T.);
#462=ORIENTED_EDGE('',*,*,#363,.T.);
#463=ORIENTED_EDGE('',*,*,#357,.T.);
#464=ORIENTED_EDGE('',*,*,#364,.T.);
#465=ORIENTED_EDGE('',*,*,#363,.F.);
#466=ORIENTED_EDGE('',*,*,#365,.F.);
#467=ORIENTED_EDGE('',*,*,#366,.F.);
#468=ORIENTED_EDGE('',*,*,#358,.T.);
#469=ORIENTED_EDGE('',*,*,#351,.F.);
#470=ORIENTED_EDGE('',*,*,#355,.F.);
#471=ORIENTED_EDGE('',*,*,#367,.F.);
#472=ORIENTED_EDGE('',*,*,#368,.F.);
#473=ORIENTED_EDGE('',*,*,#369,.F.);
#474=ORIENTED_EDGE('',*,*,#365,.T.);
#475=ORIENTED_EDGE('',*,*,#362,.F.);
#476=ORIENTED_EDGE('',*,*,#370,.T.);
#477=ORIENTED_EDGE('',*,*,#369,.T.);
#478=ORIENTED_EDGE('',*,*,#371,.T.);
#479=ORIENTED_EDGE('',*,*,#359,.T.);
#480=ORIENTED_EDGE('',*,*,#366,.T.);
#481=ORIENTED_EDGE('',*,*,#371,.F.);
#482=ORIENTED_EDGE('',*,*,#368,.T.);
#483=ORIENTED_EDGE('',*,*,#372,.F.);
#484=ORIENTED_EDGE('',*,*,#360,.T.);
#485=ORIENTED_EDGE('',*,*,#361,.T.);
#486=ORIENTED_EDGE('',*,*,#372,.T.);
#487=ORIENTED_EDGE('',*,*,#367,.T.);
#488=ORIENTED_EDGE('',*,*,#354,.T.);
#489=ORIENTED_EDGE('',*,*,#352,.F.);
#490=ORIENTED_EDGE('',*,*,#370,.F.);
#491=ORIENTED_EDGE('',*,*,#364,.F.);
#492=ORIENTED_EDGE('',*,*,#356,.F.);
#493=ORIENTED_EDGE('',*,*,#373,.F.);
#494=ORIENTED_EDGE('',*,*,#374,.F.);
#495=ORIENTED_EDGE('',*,*,#375,.T.);
#496=ORIENTED_EDGE('',*,*,#376,.T.);
#497=ORIENTED_EDGE('',*,*,#377,.F.);
#498=ORIENTED_EDGE('',*,*,#378,.T.);
#499=ORIENTED_EDGE('',*,*,#379,.T.);
#500=ORIENTED_EDGE('',*,*,#380,.F.);
#501=ORIENTED_EDGE('',*,*,#381,.T.);
#502=ORIENTED_EDGE('',*,*,#382,.T.);
#503=ORIENTED_EDGE('',*,*,#383,.F.);
#504=ORIENTED_EDGE('',*,*,#384,.T.);
#505=ORIENTED_EDGE('',*,*,#385,.T.);
#506=ORIENTED_EDGE('',*,*,#386,.T.);
#507=ORIENTED_EDGE('',*,*,#383,.T.);
#508=ORIENTED_EDGE('',*,*,#387,.T.);
#509=ORIENTED_EDGE('',*,*,#380,.T.);
#510=ORIENTED_EDGE('',*,*,#388,.T.);
#511=ORIENTED_EDGE('',*,*,#384,.F.);
#512=ORIENTED_EDGE('',*,*,#389,.T.);
#513=ORIENTED_EDGE('',*,*,#377,.T.);
#514=ORIENTED_EDGE('',*,*,#390,.T.);
#515=ORIENTED_EDGE('',*,*,#382,.F.);
#516=ORIENTED_EDGE('',*,*,#391,.T.);
#517=ORIENTED_EDGE('',*,*,#392,.T.);
#518=ORIENTED_EDGE('',*,*,#393,.T.);
#519=ORIENTED_EDGE('',*,*,#381,.F.);
#520=ORIENTED_EDGE('',*,*,#394,.T.);
#521=ORIENTED_EDGE('',*,*,#374,.T.);
#522=ORIENTED_EDGE('',*,*,#395,.T.);
#523=ORIENTED_EDGE('',*,*,#379,.F.);
#524=ORIENTED_EDGE('',*,*,#396,.T.);
#525=ORIENTED_EDGE('',*,*,#378,.F.);
#526=ORIENTED_EDGE('',*,*,#397,.T.);
#527=ORIENTED_EDGE('',*,*,#373,.T.);
#528=ORIENTED_EDGE('',*,*,#398,.T.);
#529=ORIENTED_EDGE('',*,*,#399,.T.);
#530=ORIENTED_EDGE('',*,*,#400,.T.);
#531=ORIENTED_EDGE('',*,*,#376,.F.);
#532=ORIENTED_EDGE('',*,*,#401,.T.);
#533=ORIENTED_EDGE('',*,*,#402,.T.);
#534=ORIENTED_EDGE('',*,*,#403,.T.);
#535=ORIENTED_EDGE('',*,*,#375,.F.);
#536=ORIENTED_EDGE('',*,*,#404,.T.);
#537=ORIENTED_EDGE('',*,*,#387,.F.);
#538=ORIENTED_EDGE('',*,*,#390,.F.);
#539=ORIENTED_EDGE('',*,*,#400,.F.);
#540=ORIENTED_EDGE('',*,*,#405,.F.);
#541=ORIENTED_EDGE('',*,*,#401,.F.);
#542=ORIENTED_EDGE('',*,*,#398,.F.);
#543=ORIENTED_EDGE('',*,*,#403,.F.);
#544=ORIENTED_EDGE('',*,*,#406,.F.);
#545=ORIENTED_EDGE('',*,*,#388,.F.);
#546=ORIENTED_EDGE('',*,*,#395,.F.);
#547=ORIENTED_EDGE('',*,*,#397,.F.);
#548=ORIENTED_EDGE('',*,*,#391,.F.);
#549=ORIENTED_EDGE('',*,*,#385,.F.);
#550=ORIENTED_EDGE('',*,*,#405,.T.);
#551=ORIENTED_EDGE('',*,*,#399,.F.);
#552=ORIENTED_EDGE('',*,*,#406,.T.);
#553=ORIENTED_EDGE('',*,*,#402,.F.);
#554=ORIENTED_EDGE('',*,*,#407,.F.);
#555=ORIENTED_EDGE('',*,*,#392,.F.);
#556=ORIENTED_EDGE('',*,*,#408,.T.);
#557=ORIENTED_EDGE('',*,*,#393,.F.);
#558=ORIENTED_EDGE('',*,*,#407,.T.);
#559=ORIENTED_EDGE('',*,*,#404,.F.);
#560=ORIENTED_EDGE('',*,*,#396,.F.);
#561=ORIENTED_EDGE('',*,*,#386,.F.);
#562=ORIENTED_EDGE('',*,*,#408,.F.);
#563=ORIENTED_EDGE('',*,*,#394,.F.);
#564=ORIENTED_EDGE('',*,*,#389,.F.);
#565=ORIENTED_EDGE('',*,*,#409,.T.);
#566=ORIENTED_EDGE('',*,*,#410,.F.);
#567=ORIENTED_EDGE('',*,*,#411,.T.);
#568=ORIENTED_EDGE('',*,*,#412,.T.);
#569=ORIENTED_EDGE('',*,*,#413,.F.);
#570=ORIENTED_EDGE('',*,*,#414,.T.);
#571=ORIENTED_EDGE('',*,*,#415,.T.);
#572=ORIENTED_EDGE('',*,*,#416,.F.);
#573=ORIENTED_EDGE('',*,*,#417,.T.);
#574=ORIENTED_EDGE('',*,*,#418,.T.);
#575=ORIENTED_EDGE('',*,*,#419,.F.);
#576=ORIENTED_EDGE('',*,*,#420,.T.);
#577=ORIENTED_EDGE('',*,*,#416,.T.);
#578=ORIENTED_EDGE('',*,*,#421,.T.);
#579=ORIENTED_EDGE('',*,*,#419,.T.);
#580=ORIENTED_EDGE('',*,*,#422,.T.);
#581=ORIENTED_EDGE('',*,*,#423,.T.);
#582=ORIENTED_EDGE('',*,*,#424,.T.);
#583=ORIENTED_EDGE('',*,*,#418,.F.);
#584=ORIENTED_EDGE('',*,*,#425,.T.);
#585=ORIENTED_EDGE('',*,*,#413,.T.);
#586=ORIENTED_EDGE('',*,*,#426,.T.);
#587=ORIENTED_EDGE('',*,*,#420,.F.);
#588=ORIENTED_EDGE('',*,*,#427,.T.);
#589=ORIENTED_EDGE('',*,*,#428,.T.);
#590=ORIENTED_EDGE('',*,*,#429,.T.);
#591=ORIENTED_EDGE('',*,*,#417,.F.);
#592=ORIENTED_EDGE('',*,*,#430,.T.);
#593=ORIENTED_EDGE('',*,*,#410,.T.);
#594=ORIENTED_EDGE('',*,*,#431,.T.);
#595=ORIENTED_EDGE('',*,*,#415,.F.);
#596=ORIENTED_EDGE('',*,*,#432,.T.);
#597=ORIENTED_EDGE('',*,*,#414,.F.);
#598=ORIENTED_EDGE('',*,*,#433,.T.);
#599=ORIENTED_EDGE('',*,*,#409,.F.);
#600=ORIENTED_EDGE('',*,*,#434,.T.);
#601=ORIENTED_EDGE('',*,*,#435,.T.);
#602=ORIENTED_EDGE('',*,*,#436,.T.);
#603=ORIENTED_EDGE('',*,*,#412,.F.);
#604=ORIENTED_EDGE('',*,*,#437,.T.);
#605=ORIENTED_EDGE('',*,*,#438,.T.);
#606=ORIENTED_EDGE('',*,*,#439,.T.);
#607=ORIENTED_EDGE('',*,*,#411,.F.);
#608=ORIENTED_EDGE('',*,*,#440,.T.);
#609=ORIENTED_EDGE('',*,*,#425,.F.);
#610=ORIENTED_EDGE('',*,*,#426,.F.);
#611=ORIENTED_EDGE('',*,*,#436,.F.);
#612=ORIENTED_EDGE('',*,*,#441,.F.);
#613=ORIENTED_EDGE('',*,*,#437,.F.);
#614=ORIENTED_EDGE('',*,*,#434,.F.);
#615=ORIENTED_EDGE('',*,*,#439,.F.);
#616=ORIENTED_EDGE('',*,*,#442,.F.);
#617=ORIENTED_EDGE('',*,*,#421,.F.);
#618=ORIENTED_EDGE('',*,*,#431,.F.);
#619=ORIENTED_EDGE('',*,*,#433,.F.);
#620=ORIENTED_EDGE('',*,*,#427,.F.);
#621=ORIENTED_EDGE('',*,*,#423,.F.);
#622=ORIENTED_EDGE('',*,*,#441,.T.);
#623=ORIENTED_EDGE('',*,*,#435,.F.);
#624=ORIENTED_EDGE('',*,*,#442,.T.);
#625=ORIENTED_EDGE('',*,*,#438,.F.);
#626=ORIENTED_EDGE('',*,*,#443,.F.);
#627=ORIENTED_EDGE('',*,*,#428,.F.);
#628=ORIENTED_EDGE('',*,*,#444,.T.);
#629=ORIENTED_EDGE('',*,*,#429,.F.);
#630=ORIENTED_EDGE('',*,*,#443,.T.);
#631=ORIENTED_EDGE('',*,*,#440,.F.);
#632=ORIENTED_EDGE('',*,*,#432,.F.);
#633=ORIENTED_EDGE('',*,*,#424,.F.);
#634=ORIENTED_EDGE('',*,*,#444,.F.);
#635=ORIENTED_EDGE('',*,*,#430,.F.);
#636=ORIENTED_EDGE('',*,*,#422,.F.);
#637=CYLINDRICAL_SURFACE('',#707,0.05);
#638=CYLINDRICAL_SURFACE('',#715,0.05);
#639=CYLINDRICAL_SURFACE('',#721,0.05);
#640=CYLINDRICAL_SURFACE('',#723,0.05);
#641=CYLINDRICAL_SURFACE('',#741,0.1);
#642=CYLINDRICAL_SURFACE('',#743,0.1);
#643=CYLINDRICAL_SURFACE('',#744,0.1);
#644=CYLINDRICAL_SURFACE('',#745,0.1);
#645=CYLINDRICAL_SURFACE('',#747,0.1);
#646=CYLINDRICAL_SURFACE('',#748,0.1);
#647=CYLINDRICAL_SURFACE('',#749,0.1);
#648=CYLINDRICAL_SURFACE('',#751,0.1);
#649=CYLINDRICAL_SURFACE('',#775,0.1);
#650=CYLINDRICAL_SURFACE('',#776,0.1);
#651=CYLINDRICAL_SURFACE('',#778,0.1);
#652=CYLINDRICAL_SURFACE('',#779,0.1);
#653=CYLINDRICAL_SURFACE('',#781,0.1);
#654=CYLINDRICAL_SURFACE('',#782,0.1);
#655=CYLINDRICAL_SURFACE('',#783,0.1);
#656=CYLINDRICAL_SURFACE('',#785,0.1);
#657=ADVANCED_FACE('',(#49),#637,.T.);
#658=ADVANCED_FACE('',(#50),#31,.T.);
#659=ADVANCED_FACE('',(#51),#32,.T.);
#660=ADVANCED_FACE('',(#52),#638,.T.);
#661=ADVANCED_FACE('',(#53),#33,.T.);
#662=ADVANCED_FACE('',(#54),#34,.T.);
#663=ADVANCED_FACE('',(#55),#639,.T.);
#664=ADVANCED_FACE('',(#56),#35,.F.);
#665=ADVANCED_FACE('',(#57),#640,.T.);
#666=ADVANCED_FACE('',(#58),#36,.T.);
#667=ADVANCED_FACE('',(#59),#17,.T.);
#668=ADVANCED_FACE('',(#60),#18,.T.);
#669=ADVANCED_FACE('',(#61),#19,.T.);
#670=ADVANCED_FACE('',(#62),#20,.T.);
#671=ADVANCED_FACE('',(#63),#641,.T.);
#672=ADVANCED_FACE('',(#64),#642,.T.);
#673=ADVANCED_FACE('',(#65),#643,.T.);
#674=ADVANCED_FACE('',(#66),#644,.T.);
#675=ADVANCED_FACE('',(#67),#645,.T.);
#676=ADVANCED_FACE('',(#68),#646,.T.);
#677=ADVANCED_FACE('',(#69),#647,.T.);
#678=ADVANCED_FACE('',(#70),#648,.T.);
#679=ADVANCED_FACE('',(#71),#37,.T.);
#680=ADVANCED_FACE('',(#72),#38,.T.);
#681=ADVANCED_FACE('',(#73),#39,.T.);
#682=ADVANCED_FACE('',(#74),#40,.T.);
#683=ADVANCED_FACE('',(#75),#41,.T.);
#684=ADVANCED_FACE('',(#76),#42,.F.);
#685=ADVANCED_FACE('',(#77),#21,.T.);
#686=ADVANCED_FACE('',(#78),#22,.T.);
#687=ADVANCED_FACE('',(#79),#23,.T.);
#688=ADVANCED_FACE('',(#80),#24,.T.);
#689=ADVANCED_FACE('',(#81),#649,.T.);
#690=ADVANCED_FACE('',(#82),#650,.T.);
#691=ADVANCED_FACE('',(#83),#651,.T.);
#692=ADVANCED_FACE('',(#84),#652,.T.);
#693=ADVANCED_FACE('',(#85),#653,.T.);
#694=ADVANCED_FACE('',(#86),#654,.T.);
#695=ADVANCED_FACE('',(#87),#655,.T.);
#696=ADVANCED_FACE('',(#88),#656,.T.);
#697=ADVANCED_FACE('',(#89),#43,.T.);
#698=ADVANCED_FACE('',(#90),#44,.T.);
#699=ADVANCED_FACE('',(#91),#45,.T.);
#700=ADVANCED_FACE('',(#92),#46,.T.);
#701=ADVANCED_FACE('',(#93),#47,.T.);
#702=ADVANCED_FACE('',(#94),#48,.F.);
#703=CLOSED_SHELL('',(#657,#658,#659,#660,#661,#662,#663,#664,#665,#666));
#704=CLOSED_SHELL('',(#667,#668,#669,#670,#671,#672,#673,#674,#675,#676,
#677,#678,#679,#680,#681,#682,#683,#684));
#705=CLOSED_SHELL('',(#685,#686,#687,#688,#689,#690,#691,#692,#693,#694,
#695,#696,#697,#698,#699,#700,#701,#702));
#706=AXIS2_PLACEMENT_3D('placement',#1023,#793,#794);
#707=AXIS2_PLACEMENT_3D('',#1024,#795,#796);
#708=AXIS2_PLACEMENT_3D('',#1027,#797,#798);
#709=AXIS2_PLACEMENT_3D('',#1031,#800,#801);
#710=AXIS2_PLACEMENT_3D('',#1033,#803,#804);
#711=AXIS2_PLACEMENT_3D('',#1039,#808,#809);
#712=AXIS2_PLACEMENT_3D('',#1043,#811,#812);
#713=AXIS2_PLACEMENT_3D('',#1047,#814,#815);
#714=AXIS2_PLACEMENT_3D('',#1050,#817,#818);
#715=AXIS2_PLACEMENT_3D('',#1051,#819,#820);
#716=AXIS2_PLACEMENT_3D('',#1054,#821,#822);
#717=AXIS2_PLACEMENT_3D('',#1057,#825,#826);
#718=AXIS2_PLACEMENT_3D('',#1061,#829,#830);
#719=AXIS2_PLACEMENT_3D('',#1063,#831,#832);
#720=AXIS2_PLACEMENT_3D('',#1066,#834,#835);
#721=AXIS2_PLACEMENT_3D('',#1068,#837,#838);
#722=AXIS2_PLACEMENT_3D('',#1070,#840,#841);
#723=AXIS2_PLACEMENT_3D('',#1072,#843,#844);
#724=AXIS2_PLACEMENT_3D('',#1073,#845,#846);
#725=AXIS2_PLACEMENT_3D('',#1074,#847,#848);
#726=AXIS2_PLACEMENT_3D('',#1077,#849,#850);
#727=AXIS2_PLACEMENT_3D('',#1079,#851,#852);
#728=AXIS2_PLACEMENT_3D('',#1080,#853,#854);
#729=AXIS2_PLACEMENT_3D('',#1081,#855,#856);
#730=AXIS2_PLACEMENT_3D('',#1084,#857,#858);
#731=AXIS2_PLACEMENT_3D('',#1086,#859,#860);
#732=AXIS2_PLACEMENT_3D('',#1087,#861,#862);
#733=AXIS2_PLACEMENT_3D('',#1088,#863,#864);
#734=AXIS2_PLACEMENT_3D('',#1091,#865,#866);
#735=AXIS2_PLACEMENT_3D('',#1093,#867,#868);
#736=AXIS2_PLACEMENT_3D('',#1094,#869,#870);
#737=AXIS2_PLACEMENT_3D('',#1095,#871,#872);
#738=AXIS2_PLACEMENT_3D('',#1098,#873,#874);
#739=AXIS2_PLACEMENT_3D('',#1100,#875,#876);
#740=AXIS2_PLACEMENT_3D('',#1101,#877,#878);
#741=AXIS2_PLACEMENT_3D('',#1102,#879,#880);
#742=AXIS2_PLACEMENT_3D('',#1105,#881,#882);
#743=AXIS2_PLACEMENT_3D('',#1108,#885,#886);
#744=AXIS2_PLACEMENT_3D('',#1111,#889,#890);
#745=AXIS2_PLACEMENT_3D('',#1114,#893,#894);
#746=AXIS2_PLACEMENT_3D('',#1117,#895,#896);
#747=AXIS2_PLACEMENT_3D('',#1120,#899,#900);
#748=AXIS2_PLACEMENT_3D('',#1123,#903,#904);
#749=AXIS2_PLACEMENT_3D('',#1126,#907,#908);
#750=AXIS2_PLACEMENT_3D('',#1129,#909,#910);
#751=AXIS2_PLACEMENT_3D('',#1132,#913,#914);
#752=AXIS2_PLACEMENT_3D('',#1135,#915,#916);
#753=AXIS2_PLACEMENT_3D('',#1138,#919,#920);
#754=AXIS2_PLACEMENT_3D('',#1140,#922,#923);
#755=AXIS2_PLACEMENT_3D('',#1142,#925,#926);
#756=AXIS2_PLACEMENT_3D('',#1143,#927,#928);
#757=AXIS2_PLACEMENT_3D('',#1146,#931,#932);
#758=AXIS2_PLACEMENT_3D('',#1147,#933,#934);
#759=AXIS2_PLACEMENT_3D('',#1148,#935,#936);
#760=AXIS2_PLACEMENT_3D('',#1151,#937,#938);
#761=AXIS2_PLACEMENT_3D('',#1153,#939,#940);
#762=AXIS2_PLACEMENT_3D('',#1154,#941,#942);
#763=AXIS2_PLACEMENT_3D('',#1155,#943,#944);
#764=AXIS2_PLACEMENT_3D('',#1158,#945,#946);
#765=AXIS2_PLACEMENT_3D('',#1160,#947,#948);
#766=AXIS2_PLACEMENT_3D('',#1161,#949,#950);
#767=AXIS2_PLACEMENT_3D('',#1162,#951,#952);
#768=AXIS2_PLACEMENT_3D('',#1165,#953,#954);
#769=AXIS2_PLACEMENT_3D('',#1167,#955,#956);
#770=AXIS2_PLACEMENT_3D('',#1168,#957,#958);
#771=AXIS2_PLACEMENT_3D('',#1169,#959,#960);
#772=AXIS2_PLACEMENT_3D('',#1172,#961,#962);
#773=AXIS2_PLACEMENT_3D('',#1174,#963,#964);
#774=AXIS2_PLACEMENT_3D('',#1175,#965,#966);
#775=AXIS2_PLACEMENT_3D('',#1176,#967,#968);
#776=AXIS2_PLACEMENT_3D('',#1179,#971,#972);
#777=AXIS2_PLACEMENT_3D('',#1182,#973,#974);
#778=AXIS2_PLACEMENT_3D('',#1185,#977,#978);
#779=AXIS2_PLACEMENT_3D('',#1188,#981,#982);
#780=AXIS2_PLACEMENT_3D('',#1191,#983,#984);
#781=AXIS2_PLACEMENT_3D('',#1194,#987,#988);
#782=AXIS2_PLACEMENT_3D('',#1197,#991,#992);
#783=AXIS2_PLACEMENT_3D('',#1200,#995,#996);
#784=AXIS2_PLACEMENT_3D('',#1203,#997,#998);
#785=AXIS2_PLACEMENT_3D('',#1206,#1001,#1002);
#786=AXIS2_PLACEMENT_3D('',#1209,#1003,#1004);
#787=AXIS2_PLACEMENT_3D('',#1212,#1007,#1008);
#788=AXIS2_PLACEMENT_3D('',#1214,#1010,#1011);
#789=AXIS2_PLACEMENT_3D('',#1216,#1013,#1014);
#790=AXIS2_PLACEMENT_3D('',#1217,#1015,#1016);
#791=AXIS2_PLACEMENT_3D('',#1220,#1019,#1020);
#792=AXIS2_PLACEMENT_3D('',#1221,#1021,#1022);
#793=DIRECTION('axis',(0.,0.,1.));
#794=DIRECTION('refdir',(1.,0.,0.));
#795=DIRECTION('center_axis',(-1.,0.,0.));
#796=DIRECTION('ref_axis',(0.,-0.707106781186548,0.707106781186548));
#797=DIRECTION('center_axis',(1.,8.22387425648264E-17,0.));
#798=DIRECTION('ref_axis',(0.,-0.707106781186548,0.707106781186548));
#799=DIRECTION('',(1.,0.,0.));
#800=DIRECTION('center_axis',(-1.,0.,0.));
#801=DIRECTION('ref_axis',(0.,-0.707106781186548,0.707106781186548));
#802=DIRECTION('',(-1.,0.,0.));
#803=DIRECTION('center_axis',(0.,-1.,0.));
#804=DIRECTION('ref_axis',(0.,0.,-1.));
#805=DIRECTION('',(0.,0.,1.));
#806=DIRECTION('',(-1.,0.,0.));
#807=DIRECTION('',(0.,0.,1.));
#808=DIRECTION('center_axis',(-1.,-8.22387425648264E-17,0.));
#809=DIRECTION('ref_axis',(0.,0.,1.));
#810=DIRECTION('',(-8.22387425648264E-17,1.,0.));
#811=DIRECTION('center_axis',(1.,8.22387425648264E-17,0.));
#812=DIRECTION('ref_axis',(0.,0.707106781186548,0.707106781186548));
#813=DIRECTION('',(0.,0.,1.));
#814=DIRECTION('center_axis',(1.,8.22387425648264E-17,0.));
#815=DIRECTION('ref_axis',(0.,0.707106781186546,-0.707106781186549));
#816=DIRECTION('',(-8.22387425648264E-17,1.,0.));
#817=DIRECTION('center_axis',(1.,8.22387425648264E-17,0.));
#818=DIRECTION('ref_axis',(0.,-0.707106781186546,-0.707106781186549));
#819=DIRECTION('center_axis',(1.,0.,0.));
#820=DIRECTION('ref_axis',(0.,0.707106781186548,0.707106781186548));
#821=DIRECTION('center_axis',(-1.,0.,0.));
#822=DIRECTION('ref_axis',(0.,0.707106781186548,0.707106781186548));
#823=DIRECTION('',(-1.,0.,0.));
#824=DIRECTION('',(1.,0.,0.));
#825=DIRECTION('center_axis',(0.,1.,0.));
#826=DIRECTION('ref_axis',(0.,0.,1.));
#827=DIRECTION('',(0.,0.,1.));
#828=DIRECTION('',(1.,0.,0.));
#829=DIRECTION('center_axis',(1.,0.,0.));
#830=DIRECTION('ref_axis',(0.,0.,-1.));
#831=DIRECTION('center_axis',(-1.,0.,0.));
#832=DIRECTION('ref_axis',(0.,-0.707106781186546,-0.707106781186549));
#833=DIRECTION('',(0.,-1.,0.));
#834=DIRECTION('center_axis',(-1.,0.,0.));
#835=DIRECTION('ref_axis',(0.,0.707106781186546,-0.707106781186549));
#836=DIRECTION('',(0.,-1.,0.));
#837=DIRECTION('center_axis',(1.,0.,0.));
#838=DIRECTION('ref_axis',(0.,0.707106781186546,-0.707106781186549));
#839=DIRECTION('',(-1.,0.,0.));
#840=DIRECTION('center_axis',(0.,0.,1.));
#841=DIRECTION('ref_axis',(1.,0.,0.));
#842=DIRECTION('',(1.,0.,0.));
#843=DIRECTION('center_axis',(-1.,0.,0.));
#844=DIRECTION('ref_axis',(0.,-0.707106781186546,-0.707106781186549));
#845=DIRECTION('center_axis',(0.,0.,1.));
#846=DIRECTION('ref_axis',(1.,0.,0.));
#847=DIRECTION('center_axis',(0.,0.,1.));
#848=DIRECTION('ref_axis',(1.,0.,0.));
#849=DIRECTION('center_axis',(0.,-1.,0.));
#850=DIRECTION('ref_axis',(-1.,0.,0.));
#851=DIRECTION('center_axis',(0.,0.,1.));
#852=DIRECTION('ref_axis',(0.,-1.,0.));
#853=DIRECTION('center_axis',(-1.,0.,-4.44089209850062E-15));
#854=DIRECTION('ref_axis',(-6.28036983473507E-15,-0.707106781186548,0.707106781186548));
#855=DIRECTION('center_axis',(0.,0.,1.));
#856=DIRECTION('ref_axis',(1.,0.,0.));
#857=DIRECTION('center_axis',(-1.,0.,-4.44089209850062E-15));
#858=DIRECTION('ref_axis',(0.,0.707106781186548,0.707106781186548));
#859=DIRECTION('center_axis',(0.,0.,1.));
#860=DIRECTION('ref_axis',(-1.,0.,0.));
#861=DIRECTION('center_axis',(0.,1.,4.44089209850062E-15));
#862=DIRECTION('ref_axis',(-0.707106781186544,0.,0.707106781186551));
#863=DIRECTION('center_axis',(0.,0.,1.));
#864=DIRECTION('ref_axis',(1.,0.,0.));
#865=DIRECTION('center_axis',(0.,0.,-1.));
#866=DIRECTION('ref_axis',(-0.707106781186548,-0.707106781186548,0.));
#867=DIRECTION('center_axis',(0.,-1.,0.));
#868=DIRECTION('ref_axis',(0.,0.,-1.));
#869=DIRECTION('center_axis',(-1.,0.,4.44089209850063E-15));
#870=DIRECTION('ref_axis',(-6.28036983473508E-15,-0.707106781186549,-0.707106781186546));
#871=DIRECTION('center_axis',(0.,0.,1.));
#872=DIRECTION('ref_axis',(1.,0.,0.));
#873=DIRECTION('center_axis',(0.,0.,-1.));
#874=DIRECTION('ref_axis',(-0.707106781186548,0.707106781186548,0.));
#875=DIRECTION('center_axis',(-1.,4.44089209850062E-15,0.));
#876=DIRECTION('ref_axis',(0.,0.,-1.));
#877=DIRECTION('center_axis',(0.,1.,-4.44089209850063E-15));
#878=DIRECTION('ref_axis',(-0.707106781186546,0.,-0.707106781186549));
#879=DIRECTION('center_axis',(-1.,0.,0.));
#880=DIRECTION('ref_axis',(0.,0.707106781186549,-0.707106781186546));
#881=DIRECTION('center_axis',(-1.,-8.22387425648264E-17,0.));
#882=DIRECTION('ref_axis',(0.,0.707106781186549,-0.707106781186546));
#883=DIRECTION('',(-1.,0.,0.));
#884=DIRECTION('',(1.,0.,0.));
#885=DIRECTION('center_axis',(8.22387425648264E-17,-1.,0.));
#886=DIRECTION('ref_axis',(-0.707106781186546,0.,-0.707106781186549));
#887=DIRECTION('',(-8.22387425648264E-17,1.,0.));
#888=DIRECTION('',(8.22387425648264E-17,-1.,0.));
#889=DIRECTION('center_axis',(0.,0.,1.));
#890=DIRECTION('ref_axis',(-0.707106781186548,0.707106781186548,0.));
#891=DIRECTION('',(0.,0.,-1.));
#892=DIRECTION('',(0.,0.,1.));
#893=DIRECTION('center_axis',(1.,0.,0.));
#894=DIRECTION('ref_axis',(0.,-0.707106781186549,-0.707106781186546));
#895=DIRECTION('center_axis',(-1.,-8.22387425648264E-17,0.));
#896=DIRECTION('ref_axis',(0.,-0.707106781186549,-0.707106781186546));
#897=DIRECTION('',(-1.,0.,0.));
#898=DIRECTION('',(1.,0.,0.));
#899=DIRECTION('center_axis',(0.,0.,1.));
#900=DIRECTION('ref_axis',(-0.707106781186548,-0.707106781186548,0.));
#901=DIRECTION('',(0.,0.,-1.));
#902=DIRECTION('',(0.,0.,1.));
#903=DIRECTION('center_axis',(-8.22387425648264E-17,1.,0.));
#904=DIRECTION('ref_axis',(-0.707106781186544,0.,0.707106781186551));
#905=DIRECTION('',(8.22387425648264E-17,-1.,0.));
#906=DIRECTION('',(-8.22387425648264E-17,1.,0.));
#907=DIRECTION('center_axis',(1.,0.,0.));
#908=DIRECTION('ref_axis',(0.,0.707106781186548,0.707106781186548));
#909=DIRECTION('center_axis',(-1.,-8.22387425648264E-17,0.));
#910=DIRECTION('ref_axis',(0.,0.707106781186548,0.707106781186548));
#911=DIRECTION('',(-1.,0.,0.));
#912=DIRECTION('',(1.,0.,0.));
#913=DIRECTION('center_axis',(-1.,0.,0.));
#914=DIRECTION('ref_axis',(0.,-0.707106781186548,0.707106781186548));
#915=DIRECTION('center_axis',(-1.,-8.22387425648264E-17,0.));
#916=DIRECTION('ref_axis',(0.,-0.707106781186548,0.707106781186548));
#917=DIRECTION('',(-1.,0.,0.));
#918=DIRECTION('',(1.,0.,0.));
#919=DIRECTION('center_axis',(0.,1.,0.));
#920=DIRECTION('ref_axis',(0.,0.,1.));
#921=DIRECTION('',(0.,0.,1.));
#922=DIRECTION('center_axis',(0.,0.,1.));
#923=DIRECTION('ref_axis',(1.,0.,0.));
#924=DIRECTION('',(8.22387425648264E-17,-1.,0.));
#925=DIRECTION('center_axis',(-1.,-8.22387425648264E-17,0.));
#926=DIRECTION('ref_axis',(0.,0.,1.));
#927=DIRECTION('center_axis',(1.,8.22387425648264E-17,0.));
#928=DIRECTION('ref_axis',(0.,0.,-1.));
#929=DIRECTION('',(0.,0.,1.));
#930=DIRECTION('',(-8.22387425648264E-17,1.,0.));
#931=DIRECTION('center_axis',(0.,-1.,0.));
#932=DIRECTION('ref_axis',(0.,0.,-1.));
#933=DIRECTION('center_axis',(0.,0.,1.));
#934=DIRECTION('ref_axis',(1.,0.,0.));
#935=DIRECTION('center_axis',(0.,0.,1.));
#936=DIRECTION('ref_axis',(1.,0.,0.));
#937=DIRECTION('center_axis',(0.,1.,0.));
#938=DIRECTION('ref_axis',(0.707106781186544,0.,0.707106781186551));
#939=DIRECTION('center_axis',(0.,0.,1.));
#940=DIRECTION('ref_axis',(0.,1.,0.));
#941=DIRECTION('center_axis',(1.,0.,-4.44089209850062E-15));
#942=DIRECTION('ref_axis',(6.28036983473507E-15,0.707106781186548,0.707106781186548));
#943=DIRECTION('center_axis',(0.,0.,1.));
#944=DIRECTION('ref_axis',(1.,0.,0.));
#945=DIRECTION('center_axis',(1.,0.,-4.44089209850062E-15));
#946=DIRECTION('ref_axis',(6.28036983473507E-15,-0.707106781186548,0.707106781186548));
#947=DIRECTION('center_axis',(0.,0.,1.));
#948=DIRECTION('ref_axis',(1.,0.,0.));
#949=DIRECTION('center_axis',(0.,-1.,4.44089209850062E-15));
#950=DIRECTION('ref_axis',(0.707106781186544,0.,0.707106781186551));
#951=DIRECTION('center_axis',(0.,0.,1.));
#952=DIRECTION('ref_axis',(1.,0.,0.));
#953=DIRECTION('center_axis',(0.,0.,-1.));
#954=DIRECTION('ref_axis',(0.707106781186548,0.707106781186548,0.));
#955=DIRECTION('center_axis',(0.,1.,0.));
#956=DIRECTION('ref_axis',(0.,0.,-1.));
#957=DIRECTION('center_axis',(1.,0.,4.44089209850063E-15));
#958=DIRECTION('ref_axis',(6.28036983473508E-15,0.707106781186549,-0.707106781186546));
#959=DIRECTION('center_axis',(0.,0.,1.));
#960=DIRECTION('ref_axis',(1.,0.,0.));
#961=DIRECTION('center_axis',(1.,0.,4.44089209850063E-15));
#962=DIRECTION('ref_axis',(6.28036983473508E-15,-0.707106781186549,-0.707106781186546));
#963=DIRECTION('center_axis',(0.,-1.,-4.44089209850063E-15));
#964=DIRECTION('ref_axis',(1.,0.,0.));
#965=DIRECTION('center_axis',(0.,0.,-1.));
#966=DIRECTION('ref_axis',(0.707106781186551,-0.707106781186544,0.));
#967=DIRECTION('center_axis',(0.,1.,0.));
#968=DIRECTION('ref_axis',(0.707106781186546,0.,-0.707106781186549));
#969=DIRECTION('',(0.,-1.,0.));
#970=DIRECTION('',(0.,1.,0.));
#971=DIRECTION('center_axis',(1.,0.,0.));
#972=DIRECTION('ref_axis',(0.,-0.707106781186549,-0.707106781186546));
#973=DIRECTION('center_axis',(1.,0.,0.));
#974=DIRECTION('ref_axis',(0.,-0.707106781186549,-0.707106781186546));
#975=DIRECTION('',(1.,0.,0.));
#976=DIRECTION('',(-1.,0.,0.));
#977=DIRECTION('center_axis',(0.,0.,1.));
#978=DIRECTION('ref_axis',(0.707106781186551,-0.707106781186544,0.));
#979=DIRECTION('',(0.,0.,-1.));
#980=DIRECTION('',(0.,0.,1.));
#981=DIRECTION('center_axis',(-1.,0.,0.));
#982=DIRECTION('ref_axis',(0.,0.707106781186549,-0.707106781186546));
#983=DIRECTION('center_axis',(1.,0.,0.));
#984=DIRECTION('ref_axis',(0.,0.707106781186549,-0.707106781186546));
#985=DIRECTION('',(1.,0.,0.));
#986=DIRECTION('',(-1.,0.,0.));
#987=DIRECTION('center_axis',(0.,0.,1.));
#988=DIRECTION('ref_axis',(0.707106781186548,0.707106781186548,0.));
#989=DIRECTION('',(0.,0.,-1.));
#990=DIRECTION('',(0.,0.,1.));
#991=DIRECTION('center_axis',(0.,-1.,0.));
#992=DIRECTION('ref_axis',(0.707106781186544,0.,0.707106781186551));
#993=DIRECTION('',(0.,1.,0.));
#994=DIRECTION('',(0.,-1.,0.));
#995=DIRECTION('center_axis',(-1.,0.,0.));
#996=DIRECTION('ref_axis',(0.,-0.707106781186548,0.707106781186548));
#997=DIRECTION('center_axis',(1.,0.,0.));
#998=DIRECTION('ref_axis',(0.,-0.707106781186548,0.707106781186548));
#999=DIRECTION('',(1.,0.,0.));
#1000=DIRECTION('',(-1.,0.,0.));
#1001=DIRECTION('center_axis',(1.,0.,0.));
#1002=DIRECTION('ref_axis',(0.,0.707106781186548,0.707106781186548));
#1003=DIRECTION('center_axis',(1.,0.,0.));
#1004=DIRECTION('ref_axis',(0.,0.707106781186548,0.707106781186548));
#1005=DIRECTION('',(1.,0.,0.));
#1006=DIRECTION('',(-1.,0.,0.));
#1007=DIRECTION('center_axis',(0.,-1.,0.));
#1008=DIRECTION('ref_axis',(0.,0.,-1.));
#1009=DIRECTION('',(0.,0.,1.));
#1010=DIRECTION('center_axis',(0.,0.,1.));
#1011=DIRECTION('ref_axis',(1.,0.,0.));
#1012=DIRECTION('',(0.,1.,0.));
#1013=DIRECTION('center_axis',(1.,0.,0.));
#1014=DIRECTION('ref_axis',(0.,0.,-1.));
#1015=DIRECTION('center_axis',(-1.,0.,0.));
#1016=DIRECTION('ref_axis',(0.,0.,1.));
#1017=DIRECTION('',(0.,0.,1.));
#1018=DIRECTION('',(0.,-1.,0.));
#1019=DIRECTION('center_axis',(0.,1.,0.));
#1020=DIRECTION('ref_axis',(0.,0.,1.));
#1021=DIRECTION('center_axis',(0.,0.,1.));
#1022=DIRECTION('ref_axis',(1.,0.,0.));
#1023=CARTESIAN_POINT('',(0.,0.,0.));
#1024=CARTESIAN_POINT('Origin',(1.205,-2.6,3.3));
#1025=CARTESIAN_POINT('',(-2.41,-2.6,3.35));
#1026=CARTESIAN_POINT('',(-2.41,-2.65,3.3));
#1027=CARTESIAN_POINT('Origin',(-2.41,-2.6,3.3));
#1028=CARTESIAN_POINT('',(2.41,-2.65,3.3));
#1029=CARTESIAN_POINT('',(1.205,-2.65,3.3));
#1030=CARTESIAN_POINT('',(2.41,-2.6,3.35));
#1031=CARTESIAN_POINT('Origin',(2.41,-2.6,3.3));
#1032=CARTESIAN_POINT('',(1.205,-2.6,3.35));
#1033=CARTESIAN_POINT('Origin',(2.41,-2.65,0.));
#1034=CARTESIAN_POINT('',(-2.41,-2.65,0.0999999999999998));
#1035=CARTESIAN_POINT('',(-2.41,-2.65,0.));
#1036=CARTESIAN_POINT('',(2.41,-2.65,0.0999999999999998));
#1037=CARTESIAN_POINT('',(1.205,-2.65,0.0999999999999998));
#1038=CARTESIAN_POINT('',(2.41,-2.65,0.));
#1039=CARTESIAN_POINT('Origin',(-2.41,-2.7,0.));
#1040=CARTESIAN_POINT('',(-2.41,2.6,3.35));
#1041=CARTESIAN_POINT('',(-2.41,-2.7,3.35));
#1042=CARTESIAN_POINT('',(-2.41,2.65,3.3));
#1043=CARTESIAN_POINT('Origin',(-2.41,2.6,3.3));
#1044=CARTESIAN_POINT('',(-2.41,2.65,0.0999999999999998));
#1045=CARTESIAN_POINT('',(-2.41,2.65,0.51));
#1046=CARTESIAN_POINT('',(-2.41,2.6,0.0499999999999998));
#1047=CARTESIAN_POINT('Origin',(-2.41,2.6,0.0999999999999998));
#1048=CARTESIAN_POINT('',(-2.41,-2.6,0.0499999999999998));
#1049=CARTESIAN_POINT('',(-2.41,-2.7,0.0499999999999998));
#1050=CARTESIAN_POINT('Origin',(-2.41,-2.6,0.0999999999999998));
#1051=CARTESIAN_POINT('Origin',(-1.205,2.6,3.3));
#1052=CARTESIAN_POINT('',(2.41,2.6,3.35));
#1053=CARTESIAN_POINT('',(2.41,2.65,3.3));
#1054=CARTESIAN_POINT('Origin',(2.41,2.6,3.3));
#1055=CARTESIAN_POINT('',(-1.205,2.65,3.3));
#1056=CARTESIAN_POINT('',(-1.205,2.6,3.35));
#1057=CARTESIAN_POINT('Origin',(-2.41,2.65,0.51));
#1058=CARTESIAN_POINT('',(2.41,2.65,0.0999999999999998));
#1059=CARTESIAN_POINT('',(2.41,2.65,0.51));
#1060=CARTESIAN_POINT('',(-1.205,2.65,0.0999999999999998));
#1061=CARTESIAN_POINT('Origin',(2.41,2.7,0.));
#1062=CARTESIAN_POINT('',(2.41,-2.6,0.0499999999999998));
#1063=CARTESIAN_POINT('Origin',(2.41,-2.6,0.0999999999999998));
#1064=CARTESIAN_POINT('',(2.41,2.6,0.0499999999999998));
#1065=CARTESIAN_POINT('',(2.41,2.7,0.0499999999999998));
#1066=CARTESIAN_POINT('Origin',(2.41,2.6,0.0999999999999998));
#1067=CARTESIAN_POINT('',(2.41,2.7,3.35));
#1068=CARTESIAN_POINT('Origin',(-1.205,2.6,0.0999999999999998));
#1069=CARTESIAN_POINT('',(-1.205,2.6,0.0499999999999998));
#1070=CARTESIAN_POINT('Origin',(0.,1.43455983813467E-16,0.0499999999999998));
#1071=CARTESIAN_POINT('',(1.205,-2.6,0.0499999999999998));
#1072=CARTESIAN_POINT('Origin',(1.205,-2.6,0.0999999999999998));
#1073=CARTESIAN_POINT('Origin',(0.,1.21251523320964E-16,3.35));
#1074=CARTESIAN_POINT('Origin',(-2.95,-2.6,3.3));
#1075=CARTESIAN_POINT('',(-3.05,-2.6,3.3));
#1076=CARTESIAN_POINT('',(-2.95,-2.6,3.4));
#1077=CARTESIAN_POINT('Origin',(-2.95,-2.6,3.3));
#1078=CARTESIAN_POINT('',(-2.95,-2.7,3.3));
#1079=CARTESIAN_POINT('Origin',(-2.95,-2.6,3.3));
#1080=CARTESIAN_POINT('Origin',(-2.95,-2.6,3.3));
#1081=CARTESIAN_POINT('Origin',(-2.95,2.6,3.3));
#1082=CARTESIAN_POINT('',(-2.95,2.6,3.4));
#1083=CARTESIAN_POINT('',(-2.95,2.7,3.3));
#1084=CARTESIAN_POINT('Origin',(-2.95,2.6,3.3));
#1085=CARTESIAN_POINT('',(-3.05,2.6,3.3));
#1086=CARTESIAN_POINT('Origin',(-2.95,2.6,3.3));
#1087=CARTESIAN_POINT('Origin',(-2.95,2.6,3.3));
#1088=CARTESIAN_POINT('Origin',(-2.95,-2.6,0.1));
#1089=CARTESIAN_POINT('',(-2.95,-2.7,0.1));
#1090=CARTESIAN_POINT('',(-3.05,-2.6,0.1));
#1091=CARTESIAN_POINT('Origin',(-2.95,-2.6,0.1));
#1092=CARTESIAN_POINT('',(-2.95,-2.6,0.));
#1093=CARTESIAN_POINT('Origin',(-2.95,-2.6,0.1));
#1094=CARTESIAN_POINT('Origin',(-2.95,-2.6,0.1));
#1095=CARTESIAN_POINT('Origin',(-2.95,2.6,0.1));
#1096=CARTESIAN_POINT('',(-3.05,2.6,0.1));
#1097=CARTESIAN_POINT('',(-2.95,2.7,0.1));
#1098=CARTESIAN_POINT('Origin',(-2.95,2.6,0.1));
#1099=CARTESIAN_POINT('',(-2.95,2.6,0.));
#1100=CARTESIAN_POINT('Origin',(-2.95,2.6,0.1));
#1101=CARTESIAN_POINT('Origin',(-2.95,2.6,0.1));
#1102=CARTESIAN_POINT('Origin',(-2.89,2.6,0.1));
#1103=CARTESIAN_POINT('',(-2.41,2.7,0.1));
#1104=CARTESIAN_POINT('',(-2.41,2.6,0.));
#1105=CARTESIAN_POINT('Origin',(-2.41,2.6,0.1));
#1106=CARTESIAN_POINT('',(-2.89,2.6,0.));
#1107=CARTESIAN_POINT('',(-2.89,2.7,0.1));
#1108=CARTESIAN_POINT('Origin',(-2.95,-1.35,0.1));
#1109=CARTESIAN_POINT('',(-3.05,-1.35,0.1));
#1110=CARTESIAN_POINT('',(-2.95,-1.35,0.));
#1111=CARTESIAN_POINT('Origin',(-2.95,2.6,0.));
#1112=CARTESIAN_POINT('',(-2.95,2.7,0.));
#1113=CARTESIAN_POINT('',(-3.05,2.6,0.));
#1114=CARTESIAN_POINT('Origin',(-2.57,-2.6,0.1));
#1115=CARTESIAN_POINT('',(-2.41,-2.6,0.));
#1116=CARTESIAN_POINT('',(-2.41,-2.7,0.1));
#1117=CARTESIAN_POINT('Origin',(-2.41,-2.6,0.1));
#1118=CARTESIAN_POINT('',(-2.57,-2.7,0.1));
#1119=CARTESIAN_POINT('',(-2.57,-2.6,0.));
#1120=CARTESIAN_POINT('Origin',(-2.95,-2.6,0.));
#1121=CARTESIAN_POINT('',(-3.05,-2.6,0.));
#1122=CARTESIAN_POINT('',(-2.95,-2.7,0.));
#1123=CARTESIAN_POINT('Origin',(-2.95,-1.35,3.3));
#1124=CARTESIAN_POINT('',(-3.05,-1.35,3.3));
#1125=CARTESIAN_POINT('',(-2.95,-1.35,3.4));
#1126=CARTESIAN_POINT('Origin',(-2.89,2.6,3.3));
#1127=CARTESIAN_POINT('',(-2.41,2.6,3.4));
#1128=CARTESIAN_POINT('',(-2.41,2.7,3.3));
#1129=CARTESIAN_POINT('Origin',(-2.41,2.6,3.3));
#1130=CARTESIAN_POINT('',(-2.89,2.7,3.3));
#1131=CARTESIAN_POINT('',(-2.89,2.6,3.4));
#1132=CARTESIAN_POINT('Origin',(-2.57,-2.6,3.3));
#1133=CARTESIAN_POINT('',(-2.41,-2.7,3.3));
#1134=CARTESIAN_POINT('',(-2.41,-2.6,3.4));
#1135=CARTESIAN_POINT('Origin',(-2.41,-2.6,3.3));
#1136=CARTESIAN_POINT('',(-2.57,-2.6,3.4));
#1137=CARTESIAN_POINT('',(-2.57,-2.7,3.3));
#1138=CARTESIAN_POINT('Origin',(-3.05,2.7,0.));
#1139=CARTESIAN_POINT('',(-2.41,2.7,0.));
#1140=CARTESIAN_POINT('Origin',(-2.73,0.,3.4));
#1141=CARTESIAN_POINT('',(-2.41,-2.7,3.4));
#1142=CARTESIAN_POINT('Origin',(-3.05,-2.7,0.));
#1143=CARTESIAN_POINT('Origin',(-2.41,2.7,0.));
#1144=CARTESIAN_POINT('',(-2.41,-2.7,0.));
#1145=CARTESIAN_POINT('',(-2.41,-2.7,0.));
#1146=CARTESIAN_POINT('Origin',(-2.41,-2.7,0.));
#1147=CARTESIAN_POINT('Origin',(-2.73,0.,0.));
#1148=CARTESIAN_POINT('Origin',(2.95,2.6,3.3));
#1149=CARTESIAN_POINT('',(2.95,2.6,3.4));
#1150=CARTESIAN_POINT('',(3.05,2.6,3.3));
#1151=CARTESIAN_POINT('Origin',(2.95,2.6,3.3));
#1152=CARTESIAN_POINT('',(2.95,2.7,3.3));
#1153=CARTESIAN_POINT('Origin',(2.95,2.6,3.3));
#1154=CARTESIAN_POINT('Origin',(2.95,2.6,3.3));
#1155=CARTESIAN_POINT('Origin',(2.95,-2.6,3.3));
#1156=CARTESIAN_POINT('',(2.95,-2.6,3.4));
#1157=CARTESIAN_POINT('',(2.95,-2.7,3.3));
#1158=CARTESIAN_POINT('Origin',(2.95,-2.6,3.3));
#1159=CARTESIAN_POINT('',(3.05,-2.6,3.3));
#1160=CARTESIAN_POINT('Origin',(2.95,-2.6,3.3));
#1161=CARTESIAN_POINT('Origin',(2.95,-2.6,3.3));
#1162=CARTESIAN_POINT('Origin',(2.95,2.6,0.1));
#1163=CARTESIAN_POINT('',(2.95,2.7,0.1));
#1164=CARTESIAN_POINT('',(3.05,2.6,0.1));
#1165=CARTESIAN_POINT('Origin',(2.95,2.6,0.1));
#1166=CARTESIAN_POINT('',(2.95,2.6,0.));
#1167=CARTESIAN_POINT('Origin',(2.95,2.6,0.1));
#1168=CARTESIAN_POINT('Origin',(2.95,2.6,0.1));
#1169=CARTESIAN_POINT('Origin',(2.95,-2.6,0.1));
#1170=CARTESIAN_POINT('',(2.95,-2.7,0.1));
#1171=CARTESIAN_POINT('',(2.95,-2.6,0.));
#1172=CARTESIAN_POINT('Origin',(2.95,-2.6,0.1));
#1173=CARTESIAN_POINT('',(3.05,-2.6,0.1));
#1174=CARTESIAN_POINT('Origin',(2.95,-2.6,0.1));
#1175=CARTESIAN_POINT('Origin',(2.95,-2.6,0.1));
#1176=CARTESIAN_POINT('Origin',(2.95,1.35,0.1));
#1177=CARTESIAN_POINT('',(3.05,1.35,0.1));
#1178=CARTESIAN_POINT('',(2.95,1.35,0.));
#1179=CARTESIAN_POINT('Origin',(2.89,-2.6,0.1));
#1180=CARTESIAN_POINT('',(2.41,-2.7,0.1));
#1181=CARTESIAN_POINT('',(2.41,-2.6,0.));
#1182=CARTESIAN_POINT('Origin',(2.41,-2.6,0.1));
#1183=CARTESIAN_POINT('',(2.89,-2.6,0.));
#1184=CARTESIAN_POINT('',(2.89,-2.7,0.1));
#1185=CARTESIAN_POINT('Origin',(2.95,-2.6,0.));
#1186=CARTESIAN_POINT('',(2.95,-2.7,0.));
#1187=CARTESIAN_POINT('',(3.05,-2.6,0.));
#1188=CARTESIAN_POINT('Origin',(2.57,2.6,0.1));
#1189=CARTESIAN_POINT('',(2.41,2.6,0.));
#1190=CARTESIAN_POINT('',(2.41,2.7,0.1));
#1191=CARTESIAN_POINT('Origin',(2.41,2.6,0.1));
#1192=CARTESIAN_POINT('',(2.57,2.7,0.1));
#1193=CARTESIAN_POINT('',(2.57,2.6,0.));
#1194=CARTESIAN_POINT('Origin',(2.95,2.6,0.));
#1195=CARTESIAN_POINT('',(3.05,2.6,0.));
#1196=CARTESIAN_POINT('',(2.95,2.7,0.));
#1197=CARTESIAN_POINT('Origin',(2.95,1.35,3.3));
#1198=CARTESIAN_POINT('',(3.05,1.35,3.3));
#1199=CARTESIAN_POINT('',(2.95,1.35,3.4));
#1200=CARTESIAN_POINT('Origin',(2.89,-2.6,3.3));
#1201=CARTESIAN_POINT('',(2.41,-2.6,3.4));
#1202=CARTESIAN_POINT('',(2.41,-2.7,3.3));
#1203=CARTESIAN_POINT('Origin',(2.41,-2.6,3.3));
#1204=CARTESIAN_POINT('',(2.89,-2.7,3.3));
#1205=CARTESIAN_POINT('',(2.89,-2.6,3.4));
#1206=CARTESIAN_POINT('Origin',(2.57,2.6,3.3));
#1207=CARTESIAN_POINT('',(2.41,2.7,3.3));
#1208=CARTESIAN_POINT('',(2.41,2.6,3.4));
#1209=CARTESIAN_POINT('Origin',(2.41,2.6,3.3));
#1210=CARTESIAN_POINT('',(2.57,2.6,3.4));
#1211=CARTESIAN_POINT('',(2.57,2.7,3.3));
#1212=CARTESIAN_POINT('Origin',(3.05,-2.7,0.));
#1213=CARTESIAN_POINT('',(2.41,-2.7,0.));
#1214=CARTESIAN_POINT('Origin',(2.73,-8.33836979662783E-18,3.4));
#1215=CARTESIAN_POINT('',(2.41,2.7,3.4));
#1216=CARTESIAN_POINT('Origin',(3.05,2.7,0.));
#1217=CARTESIAN_POINT('Origin',(2.41,-2.7,0.));
#1218=CARTESIAN_POINT('',(2.41,2.7,0.));
#1219=CARTESIAN_POINT('',(2.41,2.7,0.));
#1220=CARTESIAN_POINT('Origin',(2.41,2.7,0.));
#1221=CARTESIAN_POINT('Origin',(2.73,-8.33836979662783E-18,0.));
#1222=UNCERTAINTY_MEASURE_WITH_UNIT(LENGTH_MEASURE(0.01),#1226,
'DISTANCE_ACCURACY_VALUE',
'Maximum model space distance between geometric entities at asserted c
onnectivities');
#1223=UNCERTAINTY_MEASURE_WITH_UNIT(LENGTH_MEASURE(1.E-6),#1226,
'DISTANCE_ACCURACY_VALUE',
'Maximum model space distance between geometric entities at asserted c
onnectivities');
#1224=(
GEOMETRIC_REPRESENTATION_CONTEXT(3)
GLOBAL_UNCERTAINTY_ASSIGNED_CONTEXT((#1222))
GLOBAL_UNIT_ASSIGNED_CONTEXT((#1226,#1228,#1227))
REPRESENTATION_CONTEXT('','3D')
);
#1225=(
GEOMETRIC_REPRESENTATION_CONTEXT(3)
GLOBAL_UNCERTAINTY_ASSIGNED_CONTEXT((#1223))
GLOBAL_UNIT_ASSIGNED_CONTEXT((#1226,#12,#1227))
REPRESENTATION_CONTEXT('','3D')
);
#1226=(
LENGTH_UNIT()
NAMED_UNIT(*)
SI_UNIT(.MILLI.,.METRE.)
);
#1227=(
NAMED_UNIT(*)
SI_UNIT($,.STERADIAN.)
SOLID_ANGLE_UNIT()
);
#1228=(
NAMED_UNIT(*)
PLANE_ANGLE_UNIT()
SI_UNIT($,.RADIAN.)
);
#1229=SHAPE_DEFINITION_REPRESENTATION(#1230,#1231);
#1230=PRODUCT_DEFINITION_SHAPE('',$,#1233);
#1231=SHAPE_REPRESENTATION('',(#706),#1224);
#1232=PRODUCT_DEFINITION_CONTEXT('part definition',#1237,'design');
#1233=PRODUCT_DEFINITION('Product','Product',#1234,#1232);
#1234=PRODUCT_DEFINITION_FORMATION('',$,#1239);
#1235=PRODUCT_RELATED_PRODUCT_CATEGORY('Product','Product',(#1239));
#1236=APPLICATION_PROTOCOL_DEFINITION('international standard',
'automotive_design',2009,#1237);
#1237=APPLICATION_CONTEXT(
'Core Data for Automotive Mechanical Design Process');
#1238=PRODUCT_CONTEXT('part definition',#1237,'mechanical');
#1239=PRODUCT('Product','Product',$,(#1238));
#1240=PRESENTATION_STYLE_ASSIGNMENT((#1243));
#1241=PRESENTATION_STYLE_ASSIGNMENT((#1244));
#1242=PRESENTATION_STYLE_ASSIGNMENT((#1245));
#1243=SURFACE_STYLE_USAGE(.BOTH.,#1246);
#1244=SURFACE_STYLE_USAGE(.BOTH.,#1247);
#1245=SURFACE_STYLE_USAGE(.BOTH.,#1248);
#1246=SURFACE_SIDE_STYLE('',(#1249));
#1247=SURFACE_SIDE_STYLE('',(#1250));
#1248=SURFACE_SIDE_STYLE('',(#1251));
#1249=SURFACE_STYLE_FILL_AREA(#1252);
#1250=SURFACE_STYLE_FILL_AREA(#1253);
#1251=SURFACE_STYLE_FILL_AREA(#1254);
#1252=FILL_AREA_STYLE('',(#1255));
#1253=FILL_AREA_STYLE('',(#1256));
#1254=FILL_AREA_STYLE('',(#1257));
#1255=FILL_AREA_STYLE_COLOUR('',#1258);
#1256=FILL_AREA_STYLE_COLOUR('',#1259);
#1257=FILL_AREA_STYLE_COLOUR('',#1260);
#1258=COLOUR_RGB('',1.,1.,1.);
#1259=COLOUR_RGB('',0.501960784313725,0.376470588235294,0.250980392156863);
#1260=COLOUR_RGB('',0.866666666666667,0.866666666666667,0.866666666666667);
ENDSEC;
END-ISO-10303-21;
