ISO-10303-21;
HEADER;
/* Generated by software containing ST-Developer
 * from STEP Tools, Inc. (www.steptools.com) 
 */

FILE_DESCRIPTION(
/* description */ (''),
/* implementation_level */ '2;1');

FILE_NAME(
/* name */ 'S:\\bcivel\\Altium-Lib\\Compo\\CAPC2012X75N.stp',
/* time_stamp */ '2016-02-26T14:33:14+01:00',
/* author */ ('bcivel'),
/* organization */ (''),
/* preprocessor_version */ 'ST-DEVELOPER v15.5',
/* originating_system */ 'AutoCAD Mechanical',
/* authorisation */ '');

FILE_SCHEMA (('AUTOMOTIVE_DESIGN { 1 0 10303 214 3 1 1 }'));
ENDSEC;

DATA;
#10=MECHANICAL_DESIGN_GEOMETRIC_PRESENTATION_REPRESENTATION('',(#17,#18,
#19),#1225);
#11=DIMENSIONAL_EXPONENTS(0.,0.,0.,0.,0.,0.,0.);
#12=(
CONVERSION_BASED_UNIT('degree',#13)
NAMED_UNIT(#11)
PLANE_ANGLE_UNIT()
);
#13=PLANE_ANGLE_MEASURE_WITH_UNIT(PLANE_ANGLE_MEASURE(0.01745329252),#1228);
#14=PRESENTATION_LAYER_ASSIGNMENT('3D','',(#703,#704,#705));
#15=SHAPE_REPRESENTATION_RELATIONSHIP('SRR','None',#1231,#16);
#16=ADVANCED_BREP_SHAPE_REPRESENTATION($,(#703,#704,#705),#1224);
#17=STYLED_ITEM($,(#1241),#703);
#18=STYLED_ITEM($,(#1242),#704);
#19=STYLED_ITEM($,(#1241),#705);
#20=SPHERICAL_SURFACE($,#723,0.1);
#21=SPHERICAL_SURFACE($,#728,0.1);
#22=SPHERICAL_SURFACE($,#731,0.1);
#23=SPHERICAL_SURFACE($,#734,0.1);
#24=SPHERICAL_SURFACE($,#773,0.0999999999999997);
#25=SPHERICAL_SURFACE($,#776,0.1);
#26=SPHERICAL_SURFACE($,#785,0.0999999999999997);
#27=SPHERICAL_SURFACE($,#790,0.1);
#28=CIRCLE($,#709,0.1);
#29=CIRCLE($,#710,0.1);
#30=CIRCLE($,#713,0.1);
#31=CIRCLE($,#714,0.1);
#32=CIRCLE($,#717,0.1);
#33=CIRCLE($,#718,0.1);
#34=CIRCLE($,#719,0.1);
#35=CIRCLE($,#720,0.1);
#36=CIRCLE($,#722,0.1);
#37=CIRCLE($,#724,0.1);
#38=CIRCLE($,#727,0.1);
#39=CIRCLE($,#729,0.1);
#40=CIRCLE($,#732,0.1);
#41=CIRCLE($,#733,0.1);
#42=CIRCLE($,#735,0.1);
#43=CIRCLE($,#736,0.1);
#44=CIRCLE($,#743,0.1);
#45=CIRCLE($,#744,0.1);
#46=CIRCLE($,#745,0.1);
#47=CIRCLE($,#746,0.1);
#48=CIRCLE($,#749,0.1);
#49=CIRCLE($,#750,0.1);
#50=CIRCLE($,#751,0.1);
#51=CIRCLE($,#752,0.1);
#52=CIRCLE($,#761,0.0999999999999997);
#53=CIRCLE($,#762,0.1);
#54=CIRCLE($,#765,0.1);
#55=CIRCLE($,#766,0.1);
#56=CIRCLE($,#769,0.1);
#57=CIRCLE($,#770,0.1);
#58=CIRCLE($,#771,0.1);
#59=CIRCLE($,#772,0.1);
#60=CIRCLE($,#774,0.1);
#61=CIRCLE($,#775,0.0999999999999997);
#62=CIRCLE($,#777,0.1);
#63=CIRCLE($,#778,0.1);
#64=CIRCLE($,#784,0.1);
#65=CIRCLE($,#786,0.1);
#66=CIRCLE($,#789,0.1);
#67=CIRCLE($,#791,0.1);
#68=CYLINDRICAL_SURFACE($,#708,0.1);
#69=CYLINDRICAL_SURFACE($,#712,0.1);
#70=CYLINDRICAL_SURFACE($,#721,0.1);
#71=CYLINDRICAL_SURFACE($,#726,0.1);
#72=CYLINDRICAL_SURFACE($,#730,0.1);
#73=CYLINDRICAL_SURFACE($,#737,0.1);
#74=CYLINDRICAL_SURFACE($,#738,0.1);
#75=CYLINDRICAL_SURFACE($,#739,0.1);
#76=CYLINDRICAL_SURFACE($,#753,0.1);
#77=CYLINDRICAL_SURFACE($,#754,0.1);
#78=CYLINDRICAL_SURFACE($,#756,0.1);
#79=CYLINDRICAL_SURFACE($,#758,0.1);
#80=CYLINDRICAL_SURFACE($,#760,0.1);
#81=CYLINDRICAL_SURFACE($,#764,0.1);
#82=CYLINDRICAL_SURFACE($,#779,0.1);
#83=CYLINDRICAL_SURFACE($,#780,0.1);
#84=CYLINDRICAL_SURFACE($,#781,0.1);
#85=CYLINDRICAL_SURFACE($,#783,0.1);
#86=CYLINDRICAL_SURFACE($,#788,0.1);
#87=CYLINDRICAL_SURFACE($,#792,0.1);
#88=FACE_OUTER_BOUND($,#134,.T.);
#89=FACE_OUTER_BOUND($,#135,.T.);
#90=FACE_OUTER_BOUND($,#136,.T.);
#91=FACE_OUTER_BOUND($,#137,.T.);
#92=FACE_OUTER_BOUND($,#138,.T.);
#93=FACE_OUTER_BOUND($,#139,.T.);
#94=FACE_OUTER_BOUND($,#140,.T.);
#95=FACE_OUTER_BOUND($,#141,.T.);
#96=FACE_OUTER_BOUND($,#142,.T.);
#97=FACE_OUTER_BOUND($,#143,.T.);
#98=FACE_OUTER_BOUND($,#144,.T.);
#99=FACE_OUTER_BOUND($,#145,.T.);
#100=FACE_OUTER_BOUND($,#146,.T.);
#101=FACE_OUTER_BOUND($,#147,.T.);
#102=FACE_OUTER_BOUND($,#148,.T.);
#103=FACE_OUTER_BOUND($,#149,.T.);
#104=FACE_OUTER_BOUND($,#150,.T.);
#105=FACE_OUTER_BOUND($,#151,.T.);
#106=FACE_OUTER_BOUND($,#152,.T.);
#107=FACE_OUTER_BOUND($,#153,.T.);
#108=FACE_OUTER_BOUND($,#154,.T.);
#109=FACE_OUTER_BOUND($,#155,.T.);
#110=FACE_OUTER_BOUND($,#156,.T.);
#111=FACE_OUTER_BOUND($,#157,.T.);
#112=FACE_OUTER_BOUND($,#158,.T.);
#113=FACE_OUTER_BOUND($,#159,.T.);
#114=FACE_OUTER_BOUND($,#160,.T.);
#115=FACE_OUTER_BOUND($,#161,.T.);
#116=FACE_OUTER_BOUND($,#162,.T.);
#117=FACE_OUTER_BOUND($,#163,.T.);
#118=FACE_OUTER_BOUND($,#164,.T.);
#119=FACE_OUTER_BOUND($,#165,.T.);
#120=FACE_OUTER_BOUND($,#166,.T.);
#121=FACE_OUTER_BOUND($,#167,.T.);
#122=FACE_OUTER_BOUND($,#168,.T.);
#123=FACE_OUTER_BOUND($,#169,.T.);
#124=FACE_OUTER_BOUND($,#170,.T.);
#125=FACE_OUTER_BOUND($,#171,.T.);
#126=FACE_OUTER_BOUND($,#172,.T.);
#127=FACE_OUTER_BOUND($,#173,.T.);
#128=FACE_OUTER_BOUND($,#174,.T.);
#129=FACE_OUTER_BOUND($,#175,.T.);
#130=FACE_OUTER_BOUND($,#176,.T.);
#131=FACE_OUTER_BOUND($,#177,.T.);
#132=FACE_OUTER_BOUND($,#178,.T.);
#133=FACE_OUTER_BOUND($,#179,.T.);
#134=EDGE_LOOP($,(#444,#445,#446,#447));
#135=EDGE_LOOP($,(#448,#449,#450,#451));
#136=EDGE_LOOP($,(#452,#453,#454,#455));
#137=EDGE_LOOP($,(#456,#457,#458,#459));
#138=EDGE_LOOP($,(#460,#461,#462,#463));
#139=EDGE_LOOP($,(#464,#465,#466,#467,#468,#469,#470,#471));
#140=EDGE_LOOP($,(#472,#473,#474,#475));
#141=EDGE_LOOP($,(#476,#477,#478));
#142=EDGE_LOOP($,(#479,#480,#481,#482));
#143=EDGE_LOOP($,(#483,#484,#485,#486));
#144=EDGE_LOOP($,(#487,#488,#489));
#145=EDGE_LOOP($,(#490,#491,#492,#493));
#146=EDGE_LOOP($,(#494,#495,#496));
#147=EDGE_LOOP($,(#497,#498,#499));
#148=EDGE_LOOP($,(#500,#501,#502,#503));
#149=EDGE_LOOP($,(#504,#505,#506,#507));
#150=EDGE_LOOP($,(#508,#509,#510,#511));
#151=EDGE_LOOP($,(#512,#513,#514,#515));
#152=EDGE_LOOP($,(#516,#517,#518,#519));
#153=EDGE_LOOP($,(#520,#521,#522,#523,#524,#525,#526,#527));
#154=EDGE_LOOP($,(#528,#529,#530,#531));
#155=EDGE_LOOP($,(#532,#533,#534,#535,#536,#537,#538,#539));
#156=EDGE_LOOP($,(#540,#541,#542,#543));
#157=EDGE_LOOP($,(#544,#545,#546,#547));
#158=EDGE_LOOP($,(#548,#549,#550,#551));
#159=EDGE_LOOP($,(#552,#553,#554,#555));
#160=EDGE_LOOP($,(#556,#557,#558,#559));
#161=EDGE_LOOP($,(#560,#561,#562,#563));
#162=EDGE_LOOP($,(#564,#565,#566,#567));
#163=EDGE_LOOP($,(#568,#569,#570,#571));
#164=EDGE_LOOP($,(#572,#573,#574,#575));
#165=EDGE_LOOP($,(#576,#577,#578,#579));
#166=EDGE_LOOP($,(#580,#581,#582,#583));
#167=EDGE_LOOP($,(#584,#585,#586,#587,#588,#589,#590,#591));
#168=EDGE_LOOP($,(#592,#593,#594));
#169=EDGE_LOOP($,(#595,#596,#597));
#170=EDGE_LOOP($,(#598,#599,#600,#601));
#171=EDGE_LOOP($,(#602,#603,#604,#605));
#172=EDGE_LOOP($,(#606,#607,#608,#609));
#173=EDGE_LOOP($,(#610,#611,#612,#613));
#174=EDGE_LOOP($,(#614,#615,#616,#617));
#175=EDGE_LOOP($,(#618,#619,#620));
#176=EDGE_LOOP($,(#621,#622,#623,#624));
#177=EDGE_LOOP($,(#625,#626,#627,#628));
#178=EDGE_LOOP($,(#629,#630,#631));
#179=EDGE_LOOP($,(#632,#633,#634,#635));
#180=LINE($,#1027,#236);
#181=LINE($,#1029,#237);
#182=LINE($,#1031,#238);
#183=LINE($,#1032,#239);
#184=LINE($,#1037,#240);
#185=LINE($,#1041,#241);
#186=LINE($,#1043,#242);
#187=LINE($,#1044,#243);
#188=LINE($,#1049,#244);
#189=LINE($,#1053,#245);
#190=LINE($,#1055,#246);
#191=LINE($,#1056,#247);
#192=LINE($,#1063,#248);
#193=LINE($,#1067,#249);
#194=LINE($,#1070,#250);
#195=LINE($,#1076,#251);
#196=LINE($,#1077,#252);
#197=LINE($,#1092,#253);
#198=LINE($,#1094,#254);
#199=LINE($,#1096,#255);
#200=LINE($,#1101,#256);
#201=LINE($,#1103,#257);
#202=LINE($,#1105,#258);
#203=LINE($,#1106,#259);
#204=LINE($,#1113,#260);
#205=LINE($,#1117,#261);
#206=LINE($,#1120,#262);
#207=LINE($,#1123,#263);
#208=LINE($,#1125,#264);
#209=LINE($,#1126,#265);
#210=LINE($,#1131,#266);
#211=LINE($,#1136,#267);
#212=LINE($,#1139,#268);
#213=LINE($,#1141,#269);
#214=LINE($,#1144,#270);
#215=LINE($,#1146,#271);
#216=LINE($,#1151,#272);
#217=LINE($,#1153,#273);
#218=LINE($,#1155,#274);
#219=LINE($,#1156,#275);
#220=LINE($,#1162,#276);
#221=LINE($,#1166,#277);
#222=LINE($,#1167,#278);
#223=LINE($,#1168,#279);
#224=LINE($,#1174,#280);
#225=LINE($,#1177,#281);
#226=LINE($,#1179,#282);
#227=LINE($,#1180,#283);
#228=LINE($,#1185,#284);
#229=LINE($,#1190,#285);
#230=LINE($,#1201,#286);
#231=LINE($,#1203,#287);
#232=LINE($,#1205,#288);
#233=LINE($,#1210,#289);
#234=LINE($,#1215,#290);
#235=LINE($,#1216,#291);
#236=VECTOR($,#797,0.4);
#237=VECTOR($,#798,0.55);
#238=VECTOR($,#799,0.4);
#239=VECTOR($,#800,0.55);
#240=VECTOR($,#805,0.55);
#241=VECTOR($,#810,1.15);
#242=VECTOR($,#811,0.55);
#243=VECTOR($,#812,1.15);
#244=VECTOR($,#817,0.55);
#245=VECTOR($,#822,0.4);
#246=VECTOR($,#823,0.55);
#247=VECTOR($,#824,0.4);
#248=VECTOR($,#831,1.15);
#249=VECTOR($,#836,1.15);
#250=VECTOR($,#839,0.4);
#251=VECTOR($,#848,0.4);
#252=VECTOR($,#849,1.15);
#253=VECTOR($,#874,0.4);
#254=VECTOR($,#877,1.15);
#255=VECTOR($,#880,0.4);
#256=VECTOR($,#885,1.1);
#257=VECTOR($,#886,0.55);
#258=VECTOR($,#887,1.1);
#259=VECTOR($,#888,0.55);
#260=VECTOR($,#895,1.15);
#261=VECTOR($,#898,0.55);
#262=VECTOR($,#901,1.15);
#263=VECTOR($,#904,1.1);
#264=VECTOR($,#905,1.1);
#265=VECTOR($,#906,0.55);
#266=VECTOR($,#911,1.15);
#267=VECTOR($,#916,1.15);
#268=VECTOR($,#921,1.1);
#269=VECTOR($,#924,1.1);
#270=VECTOR($,#929,1.1);
#271=VECTOR($,#932,1.1);
#272=VECTOR($,#937,0.4);
#273=VECTOR($,#938,0.55);
#274=VECTOR($,#939,0.4);
#275=VECTOR($,#940,0.55);
#276=VECTOR($,#947,0.55);
#277=VECTOR($,#950,0.55);
#278=VECTOR($,#951,1.15);
#279=VECTOR($,#952,1.15);
#280=VECTOR($,#959,0.55);
#281=VECTOR($,#962,0.4);
#282=VECTOR($,#963,0.55);
#283=VECTOR($,#964,0.4);
#284=VECTOR($,#969,1.15);
#285=VECTOR($,#974,1.15);
#286=VECTOR($,#991,0.4);
#287=VECTOR($,#994,1.15);
#288=VECTOR($,#997,0.4);
#289=VECTOR($,#1004,0.4);
#290=VECTOR($,#1011,0.4);
#291=VECTOR($,#1012,1.15);
#292=VERTEX_POINT($,#1025);
#293=VERTEX_POINT($,#1026);
#294=VERTEX_POINT($,#1028);
#295=VERTEX_POINT($,#1030);
#296=VERTEX_POINT($,#1034);
#297=VERTEX_POINT($,#1036);
#298=VERTEX_POINT($,#1040);
#299=VERTEX_POINT($,#1042);
#300=VERTEX_POINT($,#1046);
#301=VERTEX_POINT($,#1048);
#302=VERTEX_POINT($,#1052);
#303=VERTEX_POINT($,#1054);
#304=VERTEX_POINT($,#1058);
#305=VERTEX_POINT($,#1060);
#306=VERTEX_POINT($,#1062);
#307=VERTEX_POINT($,#1065);
#308=VERTEX_POINT($,#1069);
#309=VERTEX_POINT($,#1075);
#310=VERTEX_POINT($,#1084);
#311=VERTEX_POINT($,#1088);
#312=VERTEX_POINT($,#1099);
#313=VERTEX_POINT($,#1100);
#314=VERTEX_POINT($,#1102);
#315=VERTEX_POINT($,#1104);
#316=VERTEX_POINT($,#1108);
#317=VERTEX_POINT($,#1110);
#318=VERTEX_POINT($,#1112);
#319=VERTEX_POINT($,#1114);
#320=VERTEX_POINT($,#1116);
#321=VERTEX_POINT($,#1118);
#322=VERTEX_POINT($,#1122);
#323=VERTEX_POINT($,#1124);
#324=VERTEX_POINT($,#1128);
#325=VERTEX_POINT($,#1130);
#326=VERTEX_POINT($,#1133);
#327=VERTEX_POINT($,#1135);
#328=VERTEX_POINT($,#1149);
#329=VERTEX_POINT($,#1150);
#330=VERTEX_POINT($,#1152);
#331=VERTEX_POINT($,#1154);
#332=VERTEX_POINT($,#1158);
#333=VERTEX_POINT($,#1160);
#334=VERTEX_POINT($,#1164);
#335=VERTEX_POINT($,#1165);
#336=VERTEX_POINT($,#1170);
#337=VERTEX_POINT($,#1172);
#338=VERTEX_POINT($,#1176);
#339=VERTEX_POINT($,#1178);
#340=VERTEX_POINT($,#1182);
#341=VERTEX_POINT($,#1184);
#342=VERTEX_POINT($,#1187);
#343=VERTEX_POINT($,#1189);
#344=VERTEX_POINT($,#1193);
#345=VERTEX_POINT($,#1197);
#346=VERTEX_POINT($,#1208);
#347=VERTEX_POINT($,#1214);
#348=EDGE_CURVE($,#292,#293,#180,.T.);
#349=EDGE_CURVE($,#294,#292,#181,.T.);
#350=EDGE_CURVE($,#295,#294,#182,.T.);
#351=EDGE_CURVE($,#295,#293,#183,.T.);
#352=EDGE_CURVE($,#296,#292,#28,.T.);
#353=EDGE_CURVE($,#296,#297,#184,.T.);
#354=EDGE_CURVE($,#297,#294,#29,.F.);
#355=EDGE_CURVE($,#298,#296,#185,.T.);
#356=EDGE_CURVE($,#299,#298,#186,.T.);
#357=EDGE_CURVE($,#297,#299,#187,.T.);
#358=EDGE_CURVE($,#300,#298,#30,.T.);
#359=EDGE_CURVE($,#300,#301,#188,.T.);
#360=EDGE_CURVE($,#301,#299,#31,.F.);
#361=EDGE_CURVE($,#302,#300,#189,.T.);
#362=EDGE_CURVE($,#303,#302,#190,.T.);
#363=EDGE_CURVE($,#301,#303,#191,.T.);
#364=EDGE_CURVE($,#293,#304,#32,.T.);
#365=EDGE_CURVE($,#305,#295,#33,.T.);
#366=EDGE_CURVE($,#306,#305,#192,.T.);
#367=EDGE_CURVE($,#303,#306,#34,.T.);
#368=EDGE_CURVE($,#307,#302,#35,.T.);
#369=EDGE_CURVE($,#307,#304,#193,.T.);
#370=EDGE_CURVE($,#304,#308,#194,.T.);
#371=EDGE_CURVE($,#308,#292,#36,.F.);
#372=EDGE_CURVE($,#308,#296,#37,.T.);
#373=EDGE_CURVE($,#309,#307,#195,.T.);
#374=EDGE_CURVE($,#308,#309,#196,.T.);
#375=EDGE_CURVE($,#309,#298,#38,.F.);
#376=EDGE_CURVE($,#309,#300,#39,.T.);
#377=EDGE_CURVE($,#301,#310,#40,.T.);
#378=EDGE_CURVE($,#299,#310,#41,.F.);
#379=EDGE_CURVE($,#311,#294,#42,.T.);
#380=EDGE_CURVE($,#297,#311,#43,.T.);
#381=EDGE_CURVE($,#311,#305,#197,.T.);
#382=EDGE_CURVE($,#310,#311,#198,.T.);
#383=EDGE_CURVE($,#306,#310,#199,.T.);
#384=EDGE_CURVE($,#312,#313,#200,.T.);
#385=EDGE_CURVE($,#312,#314,#201,.T.);
#386=EDGE_CURVE($,#315,#314,#202,.T.);
#387=EDGE_CURVE($,#313,#315,#203,.T.);
#388=EDGE_CURVE($,#313,#316,#44,.T.);
#389=EDGE_CURVE($,#317,#315,#45,.T.);
#390=EDGE_CURVE($,#317,#318,#204,.T.);
#391=EDGE_CURVE($,#319,#318,#46,.T.);
#392=EDGE_CURVE($,#320,#319,#205,.T.);
#393=EDGE_CURVE($,#321,#320,#47,.T.);
#394=EDGE_CURVE($,#316,#321,#206,.T.);
#395=EDGE_CURVE($,#320,#322,#207,.T.);
#396=EDGE_CURVE($,#323,#319,#208,.T.);
#397=EDGE_CURVE($,#322,#323,#209,.T.);
#398=EDGE_CURVE($,#324,#312,#48,.T.);
#399=EDGE_CURVE($,#325,#324,#210,.T.);
#400=EDGE_CURVE($,#322,#325,#49,.T.);
#401=EDGE_CURVE($,#326,#323,#50,.T.);
#402=EDGE_CURVE($,#326,#327,#211,.T.);
#403=EDGE_CURVE($,#314,#327,#51,.T.);
#404=EDGE_CURVE($,#316,#324,#212,.T.);
#405=EDGE_CURVE($,#325,#321,#213,.T.);
#406=EDGE_CURVE($,#327,#317,#214,.T.);
#407=EDGE_CURVE($,#318,#326,#215,.T.);
#408=EDGE_CURVE($,#328,#329,#216,.T.);
#409=EDGE_CURVE($,#330,#328,#217,.T.);
#410=EDGE_CURVE($,#331,#330,#218,.T.);
#411=EDGE_CURVE($,#329,#331,#219,.T.);
#412=EDGE_CURVE($,#332,#330,#52,.F.);
#413=EDGE_CURVE($,#333,#328,#53,.T.);
#414=EDGE_CURVE($,#333,#332,#220,.T.);
#415=EDGE_CURVE($,#334,#335,#221,.T.);
#416=EDGE_CURVE($,#332,#334,#222,.T.);
#417=EDGE_CURVE($,#335,#333,#223,.T.);
#418=EDGE_CURVE($,#336,#334,#54,.F.);
#419=EDGE_CURVE($,#337,#335,#55,.T.);
#420=EDGE_CURVE($,#337,#336,#224,.T.);
#421=EDGE_CURVE($,#338,#337,#225,.T.);
#422=EDGE_CURVE($,#338,#339,#226,.T.);
#423=EDGE_CURVE($,#336,#339,#227,.T.);
#424=EDGE_CURVE($,#340,#338,#56,.T.);
#425=EDGE_CURVE($,#341,#340,#228,.T.);
#426=EDGE_CURVE($,#329,#341,#57,.T.);
#427=EDGE_CURVE($,#342,#331,#58,.T.);
#428=EDGE_CURVE($,#342,#343,#229,.T.);
#429=EDGE_CURVE($,#339,#343,#59,.T.);
#430=EDGE_CURVE($,#328,#344,#60,.T.);
#431=EDGE_CURVE($,#333,#344,#61,.F.);
#432=EDGE_CURVE($,#335,#345,#62,.T.);
#433=EDGE_CURVE($,#337,#345,#63,.F.);
#434=EDGE_CURVE($,#345,#340,#230,.T.);
#435=EDGE_CURVE($,#344,#345,#231,.T.);
#436=EDGE_CURVE($,#341,#344,#232,.T.);
#437=EDGE_CURVE($,#346,#330,#64,.T.);
#438=EDGE_CURVE($,#346,#342,#233,.T.);
#439=EDGE_CURVE($,#346,#332,#65,.F.);
#440=EDGE_CURVE($,#343,#347,#234,.T.);
#441=EDGE_CURVE($,#347,#346,#235,.T.);
#442=EDGE_CURVE($,#347,#334,#66,.T.);
#443=EDGE_CURVE($,#336,#347,#67,.T.);
#444=ORIENTED_EDGE($,*,*,#348,.F.);
#445=ORIENTED_EDGE($,*,*,#349,.F.);
#446=ORIENTED_EDGE($,*,*,#350,.F.);
#447=ORIENTED_EDGE($,*,*,#351,.T.);
#448=ORIENTED_EDGE($,*,*,#352,.F.);
#449=ORIENTED_EDGE($,*,*,#353,.T.);
#450=ORIENTED_EDGE($,*,*,#354,.T.);
#451=ORIENTED_EDGE($,*,*,#349,.T.);
#452=ORIENTED_EDGE($,*,*,#353,.F.);
#453=ORIENTED_EDGE($,*,*,#355,.F.);
#454=ORIENTED_EDGE($,*,*,#356,.F.);
#455=ORIENTED_EDGE($,*,*,#357,.F.);
#456=ORIENTED_EDGE($,*,*,#358,.F.);
#457=ORIENTED_EDGE($,*,*,#359,.T.);
#458=ORIENTED_EDGE($,*,*,#360,.T.);
#459=ORIENTED_EDGE($,*,*,#356,.T.);
#460=ORIENTED_EDGE($,*,*,#361,.F.);
#461=ORIENTED_EDGE($,*,*,#362,.F.);
#462=ORIENTED_EDGE($,*,*,#363,.F.);
#463=ORIENTED_EDGE($,*,*,#359,.F.);
#464=ORIENTED_EDGE($,*,*,#364,.F.);
#465=ORIENTED_EDGE($,*,*,#351,.F.);
#466=ORIENTED_EDGE($,*,*,#365,.F.);
#467=ORIENTED_EDGE($,*,*,#366,.F.);
#468=ORIENTED_EDGE($,*,*,#367,.F.);
#469=ORIENTED_EDGE($,*,*,#362,.T.);
#470=ORIENTED_EDGE($,*,*,#368,.F.);
#471=ORIENTED_EDGE($,*,*,#369,.T.);
#472=ORIENTED_EDGE($,*,*,#364,.T.);
#473=ORIENTED_EDGE($,*,*,#370,.T.);
#474=ORIENTED_EDGE($,*,*,#371,.T.);
#475=ORIENTED_EDGE($,*,*,#348,.T.);
#476=ORIENTED_EDGE($,*,*,#352,.T.);
#477=ORIENTED_EDGE($,*,*,#371,.F.);
#478=ORIENTED_EDGE($,*,*,#372,.T.);
#479=ORIENTED_EDGE($,*,*,#370,.F.);
#480=ORIENTED_EDGE($,*,*,#369,.F.);
#481=ORIENTED_EDGE($,*,*,#373,.F.);
#482=ORIENTED_EDGE($,*,*,#374,.F.);
#483=ORIENTED_EDGE($,*,*,#375,.T.);
#484=ORIENTED_EDGE($,*,*,#355,.T.);
#485=ORIENTED_EDGE($,*,*,#372,.F.);
#486=ORIENTED_EDGE($,*,*,#374,.T.);
#487=ORIENTED_EDGE($,*,*,#358,.T.);
#488=ORIENTED_EDGE($,*,*,#375,.F.);
#489=ORIENTED_EDGE($,*,*,#376,.T.);
#490=ORIENTED_EDGE($,*,*,#368,.T.);
#491=ORIENTED_EDGE($,*,*,#361,.T.);
#492=ORIENTED_EDGE($,*,*,#376,.F.);
#493=ORIENTED_EDGE($,*,*,#373,.T.);
#494=ORIENTED_EDGE($,*,*,#377,.T.);
#495=ORIENTED_EDGE($,*,*,#378,.F.);
#496=ORIENTED_EDGE($,*,*,#360,.F.);
#497=ORIENTED_EDGE($,*,*,#379,.T.);
#498=ORIENTED_EDGE($,*,*,#354,.F.);
#499=ORIENTED_EDGE($,*,*,#380,.T.);
#500=ORIENTED_EDGE($,*,*,#365,.T.);
#501=ORIENTED_EDGE($,*,*,#350,.T.);
#502=ORIENTED_EDGE($,*,*,#379,.F.);
#503=ORIENTED_EDGE($,*,*,#381,.T.);
#504=ORIENTED_EDGE($,*,*,#378,.T.);
#505=ORIENTED_EDGE($,*,*,#382,.T.);
#506=ORIENTED_EDGE($,*,*,#380,.F.);
#507=ORIENTED_EDGE($,*,*,#357,.T.);
#508=ORIENTED_EDGE($,*,*,#367,.T.);
#509=ORIENTED_EDGE($,*,*,#383,.T.);
#510=ORIENTED_EDGE($,*,*,#377,.F.);
#511=ORIENTED_EDGE($,*,*,#363,.T.);
#512=ORIENTED_EDGE($,*,*,#381,.F.);
#513=ORIENTED_EDGE($,*,*,#382,.F.);
#514=ORIENTED_EDGE($,*,*,#383,.F.);
#515=ORIENTED_EDGE($,*,*,#366,.T.);
#516=ORIENTED_EDGE($,*,*,#384,.F.);
#517=ORIENTED_EDGE($,*,*,#385,.T.);
#518=ORIENTED_EDGE($,*,*,#386,.F.);
#519=ORIENTED_EDGE($,*,*,#387,.F.);
#520=ORIENTED_EDGE($,*,*,#388,.F.);
#521=ORIENTED_EDGE($,*,*,#387,.T.);
#522=ORIENTED_EDGE($,*,*,#389,.F.);
#523=ORIENTED_EDGE($,*,*,#390,.T.);
#524=ORIENTED_EDGE($,*,*,#391,.F.);
#525=ORIENTED_EDGE($,*,*,#392,.F.);
#526=ORIENTED_EDGE($,*,*,#393,.F.);
#527=ORIENTED_EDGE($,*,*,#394,.F.);
#528=ORIENTED_EDGE($,*,*,#395,.F.);
#529=ORIENTED_EDGE($,*,*,#392,.T.);
#530=ORIENTED_EDGE($,*,*,#396,.F.);
#531=ORIENTED_EDGE($,*,*,#397,.F.);
#532=ORIENTED_EDGE($,*,*,#398,.F.);
#533=ORIENTED_EDGE($,*,*,#399,.F.);
#534=ORIENTED_EDGE($,*,*,#400,.F.);
#535=ORIENTED_EDGE($,*,*,#397,.T.);
#536=ORIENTED_EDGE($,*,*,#401,.F.);
#537=ORIENTED_EDGE($,*,*,#402,.T.);
#538=ORIENTED_EDGE($,*,*,#403,.F.);
#539=ORIENTED_EDGE($,*,*,#385,.F.);
#540=ORIENTED_EDGE($,*,*,#388,.T.);
#541=ORIENTED_EDGE($,*,*,#404,.T.);
#542=ORIENTED_EDGE($,*,*,#398,.T.);
#543=ORIENTED_EDGE($,*,*,#384,.T.);
#544=ORIENTED_EDGE($,*,*,#400,.T.);
#545=ORIENTED_EDGE($,*,*,#405,.T.);
#546=ORIENTED_EDGE($,*,*,#393,.T.);
#547=ORIENTED_EDGE($,*,*,#395,.T.);
#548=ORIENTED_EDGE($,*,*,#404,.F.);
#549=ORIENTED_EDGE($,*,*,#394,.T.);
#550=ORIENTED_EDGE($,*,*,#405,.F.);
#551=ORIENTED_EDGE($,*,*,#399,.T.);
#552=ORIENTED_EDGE($,*,*,#389,.T.);
#553=ORIENTED_EDGE($,*,*,#386,.T.);
#554=ORIENTED_EDGE($,*,*,#403,.T.);
#555=ORIENTED_EDGE($,*,*,#406,.T.);
#556=ORIENTED_EDGE($,*,*,#407,.F.);
#557=ORIENTED_EDGE($,*,*,#390,.F.);
#558=ORIENTED_EDGE($,*,*,#406,.F.);
#559=ORIENTED_EDGE($,*,*,#402,.F.);
#560=ORIENTED_EDGE($,*,*,#401,.T.);
#561=ORIENTED_EDGE($,*,*,#396,.T.);
#562=ORIENTED_EDGE($,*,*,#391,.T.);
#563=ORIENTED_EDGE($,*,*,#407,.T.);
#564=ORIENTED_EDGE($,*,*,#408,.F.);
#565=ORIENTED_EDGE($,*,*,#409,.F.);
#566=ORIENTED_EDGE($,*,*,#410,.F.);
#567=ORIENTED_EDGE($,*,*,#411,.F.);
#568=ORIENTED_EDGE($,*,*,#412,.T.);
#569=ORIENTED_EDGE($,*,*,#409,.T.);
#570=ORIENTED_EDGE($,*,*,#413,.F.);
#571=ORIENTED_EDGE($,*,*,#414,.T.);
#572=ORIENTED_EDGE($,*,*,#415,.F.);
#573=ORIENTED_EDGE($,*,*,#416,.F.);
#574=ORIENTED_EDGE($,*,*,#414,.F.);
#575=ORIENTED_EDGE($,*,*,#417,.F.);
#576=ORIENTED_EDGE($,*,*,#418,.T.);
#577=ORIENTED_EDGE($,*,*,#415,.T.);
#578=ORIENTED_EDGE($,*,*,#419,.F.);
#579=ORIENTED_EDGE($,*,*,#420,.T.);
#580=ORIENTED_EDGE($,*,*,#421,.F.);
#581=ORIENTED_EDGE($,*,*,#422,.T.);
#582=ORIENTED_EDGE($,*,*,#423,.F.);
#583=ORIENTED_EDGE($,*,*,#420,.F.);
#584=ORIENTED_EDGE($,*,*,#424,.F.);
#585=ORIENTED_EDGE($,*,*,#425,.F.);
#586=ORIENTED_EDGE($,*,*,#426,.F.);
#587=ORIENTED_EDGE($,*,*,#411,.T.);
#588=ORIENTED_EDGE($,*,*,#427,.F.);
#589=ORIENTED_EDGE($,*,*,#428,.T.);
#590=ORIENTED_EDGE($,*,*,#429,.F.);
#591=ORIENTED_EDGE($,*,*,#422,.F.);
#592=ORIENTED_EDGE($,*,*,#430,.T.);
#593=ORIENTED_EDGE($,*,*,#431,.F.);
#594=ORIENTED_EDGE($,*,*,#413,.T.);
#595=ORIENTED_EDGE($,*,*,#432,.T.);
#596=ORIENTED_EDGE($,*,*,#433,.F.);
#597=ORIENTED_EDGE($,*,*,#419,.T.);
#598=ORIENTED_EDGE($,*,*,#424,.T.);
#599=ORIENTED_EDGE($,*,*,#421,.T.);
#600=ORIENTED_EDGE($,*,*,#433,.T.);
#601=ORIENTED_EDGE($,*,*,#434,.T.);
#602=ORIENTED_EDGE($,*,*,#431,.T.);
#603=ORIENTED_EDGE($,*,*,#435,.T.);
#604=ORIENTED_EDGE($,*,*,#432,.F.);
#605=ORIENTED_EDGE($,*,*,#417,.T.);
#606=ORIENTED_EDGE($,*,*,#426,.T.);
#607=ORIENTED_EDGE($,*,*,#436,.T.);
#608=ORIENTED_EDGE($,*,*,#430,.F.);
#609=ORIENTED_EDGE($,*,*,#408,.T.);
#610=ORIENTED_EDGE($,*,*,#434,.F.);
#611=ORIENTED_EDGE($,*,*,#435,.F.);
#612=ORIENTED_EDGE($,*,*,#436,.F.);
#613=ORIENTED_EDGE($,*,*,#425,.T.);
#614=ORIENTED_EDGE($,*,*,#427,.T.);
#615=ORIENTED_EDGE($,*,*,#410,.T.);
#616=ORIENTED_EDGE($,*,*,#437,.F.);
#617=ORIENTED_EDGE($,*,*,#438,.T.);
#618=ORIENTED_EDGE($,*,*,#437,.T.);
#619=ORIENTED_EDGE($,*,*,#412,.F.);
#620=ORIENTED_EDGE($,*,*,#439,.F.);
#621=ORIENTED_EDGE($,*,*,#440,.F.);
#622=ORIENTED_EDGE($,*,*,#428,.F.);
#623=ORIENTED_EDGE($,*,*,#438,.F.);
#624=ORIENTED_EDGE($,*,*,#441,.F.);
#625=ORIENTED_EDGE($,*,*,#439,.T.);
#626=ORIENTED_EDGE($,*,*,#416,.T.);
#627=ORIENTED_EDGE($,*,*,#442,.F.);
#628=ORIENTED_EDGE($,*,*,#441,.T.);
#629=ORIENTED_EDGE($,*,*,#442,.T.);
#630=ORIENTED_EDGE($,*,*,#418,.F.);
#631=ORIENTED_EDGE($,*,*,#443,.T.);
#632=ORIENTED_EDGE($,*,*,#429,.T.);
#633=ORIENTED_EDGE($,*,*,#440,.T.);
#634=ORIENTED_EDGE($,*,*,#443,.F.);
#635=ORIENTED_EDGE($,*,*,#423,.T.);
#636=PLANE($,#707);
#637=PLANE($,#711);
#638=PLANE($,#715);
#639=PLANE($,#716);
#640=PLANE($,#725);
#641=PLANE($,#740);
#642=PLANE($,#741);
#643=PLANE($,#742);
#644=PLANE($,#747);
#645=PLANE($,#748);
#646=PLANE($,#755);
#647=PLANE($,#757);
#648=PLANE($,#759);
#649=PLANE($,#763);
#650=PLANE($,#767);
#651=PLANE($,#768);
#652=PLANE($,#782);
#653=PLANE($,#787);
#654=ADVANCED_FACE($,(#88),#636,.T.);
#655=ADVANCED_FACE($,(#89),#68,.T.);
#656=ADVANCED_FACE($,(#90),#637,.T.);
#657=ADVANCED_FACE($,(#91),#69,.T.);
#658=ADVANCED_FACE($,(#92),#638,.T.);
#659=ADVANCED_FACE($,(#93),#639,.T.);
#660=ADVANCED_FACE($,(#94),#70,.T.);
#661=ADVANCED_FACE($,(#95),#20,.T.);
#662=ADVANCED_FACE($,(#96),#640,.T.);
#663=ADVANCED_FACE($,(#97),#71,.T.);
#664=ADVANCED_FACE($,(#98),#21,.T.);
#665=ADVANCED_FACE($,(#99),#72,.T.);
#666=ADVANCED_FACE($,(#100),#22,.T.);
#667=ADVANCED_FACE($,(#101),#23,.T.);
#668=ADVANCED_FACE($,(#102),#73,.T.);
#669=ADVANCED_FACE($,(#103),#74,.T.);
#670=ADVANCED_FACE($,(#104),#75,.T.);
#671=ADVANCED_FACE($,(#105),#641,.F.);
#672=ADVANCED_FACE($,(#106),#642,.T.);
#673=ADVANCED_FACE($,(#107),#643,.T.);
#674=ADVANCED_FACE($,(#108),#644,.T.);
#675=ADVANCED_FACE($,(#109),#645,.T.);
#676=ADVANCED_FACE($,(#110),#76,.T.);
#677=ADVANCED_FACE($,(#111),#77,.T.);
#678=ADVANCED_FACE($,(#112),#646,.F.);
#679=ADVANCED_FACE($,(#113),#78,.T.);
#680=ADVANCED_FACE($,(#114),#647,.T.);
#681=ADVANCED_FACE($,(#115),#79,.T.);
#682=ADVANCED_FACE($,(#116),#648,.T.);
#683=ADVANCED_FACE($,(#117),#80,.T.);
#684=ADVANCED_FACE($,(#118),#649,.T.);
#685=ADVANCED_FACE($,(#119),#81,.T.);
#686=ADVANCED_FACE($,(#120),#650,.T.);
#687=ADVANCED_FACE($,(#121),#651,.T.);
#688=ADVANCED_FACE($,(#122),#24,.T.);
#689=ADVANCED_FACE($,(#123),#25,.T.);
#690=ADVANCED_FACE($,(#124),#82,.T.);
#691=ADVANCED_FACE($,(#125),#83,.T.);
#692=ADVANCED_FACE($,(#126),#84,.T.);
#693=ADVANCED_FACE($,(#127),#652,.F.);
#694=ADVANCED_FACE($,(#128),#85,.T.);
#695=ADVANCED_FACE($,(#129),#26,.T.);
#696=ADVANCED_FACE($,(#130),#653,.T.);
#697=ADVANCED_FACE($,(#131),#86,.T.);
#698=ADVANCED_FACE($,(#132),#27,.T.);
#699=ADVANCED_FACE($,(#133),#87,.T.);
#700=CLOSED_SHELL($,(#654,#655,#656,#657,#658,#659,#660,#661,#662,#663,
#664,#665,#666,#667,#668,#669,#670,#671));
#701=CLOSED_SHELL($,(#672,#673,#674,#675,#676,#677,#678,#679,#680,#681));
#702=CLOSED_SHELL($,(#682,#683,#684,#685,#686,#687,#688,#689,#690,#691,
#692,#693,#694,#695,#696,#697,#698,#699));
#703=MANIFOLD_SOLID_BREP('3C4',#700);
#704=MANIFOLD_SOLID_BREP('3C5',#701);
#705=MANIFOLD_SOLID_BREP('3C6',#702);
#706=AXIS2_PLACEMENT_3D('placement',#1023,#793,#794);
#707=AXIS2_PLACEMENT_3D($,#1024,#795,#796);
#708=AXIS2_PLACEMENT_3D($,#1033,#801,#802);
#709=AXIS2_PLACEMENT_3D($,#1035,#803,#804);
#710=AXIS2_PLACEMENT_3D($,#1038,#806,#807);
#711=AXIS2_PLACEMENT_3D($,#1039,#808,#809);
#712=AXIS2_PLACEMENT_3D($,#1045,#813,#814);
#713=AXIS2_PLACEMENT_3D($,#1047,#815,#816);
#714=AXIS2_PLACEMENT_3D($,#1050,#818,#819);
#715=AXIS2_PLACEMENT_3D($,#1051,#820,#821);
#716=AXIS2_PLACEMENT_3D($,#1057,#825,#826);
#717=AXIS2_PLACEMENT_3D($,#1059,#827,#828);
#718=AXIS2_PLACEMENT_3D($,#1061,#829,#830);
#719=AXIS2_PLACEMENT_3D($,#1064,#832,#833);
#720=AXIS2_PLACEMENT_3D($,#1066,#834,#835);
#721=AXIS2_PLACEMENT_3D($,#1068,#837,#838);
#722=AXIS2_PLACEMENT_3D($,#1071,#840,#841);
#723=AXIS2_PLACEMENT_3D($,#1072,#842,#843);
#724=AXIS2_PLACEMENT_3D($,#1073,#844,#845);
#725=AXIS2_PLACEMENT_3D($,#1074,#846,#847);
#726=AXIS2_PLACEMENT_3D($,#1078,#850,#851);
#727=AXIS2_PLACEMENT_3D($,#1079,#852,#853);
#728=AXIS2_PLACEMENT_3D($,#1080,#854,#855);
#729=AXIS2_PLACEMENT_3D($,#1081,#856,#857);
#730=AXIS2_PLACEMENT_3D($,#1082,#858,#859);
#731=AXIS2_PLACEMENT_3D($,#1083,#860,#861);
#732=AXIS2_PLACEMENT_3D($,#1085,#862,#863);
#733=AXIS2_PLACEMENT_3D($,#1086,#864,#865);
#734=AXIS2_PLACEMENT_3D($,#1087,#866,#867);
#735=AXIS2_PLACEMENT_3D($,#1089,#868,#869);
#736=AXIS2_PLACEMENT_3D($,#1090,#870,#871);
#737=AXIS2_PLACEMENT_3D($,#1091,#872,#873);
#738=AXIS2_PLACEMENT_3D($,#1093,#875,#876);
#739=AXIS2_PLACEMENT_3D($,#1095,#878,#879);
#740=AXIS2_PLACEMENT_3D($,#1097,#881,#882);
#741=AXIS2_PLACEMENT_3D($,#1098,#883,#884);
#742=AXIS2_PLACEMENT_3D($,#1107,#889,#890);
#743=AXIS2_PLACEMENT_3D($,#1109,#891,#892);
#744=AXIS2_PLACEMENT_3D($,#1111,#893,#894);
#745=AXIS2_PLACEMENT_3D($,#1115,#896,#897);
#746=AXIS2_PLACEMENT_3D($,#1119,#899,#900);
#747=AXIS2_PLACEMENT_3D($,#1121,#902,#903);
#748=AXIS2_PLACEMENT_3D($,#1127,#907,#908);
#749=AXIS2_PLACEMENT_3D($,#1129,#909,#910);
#750=AXIS2_PLACEMENT_3D($,#1132,#912,#913);
#751=AXIS2_PLACEMENT_3D($,#1134,#914,#915);
#752=AXIS2_PLACEMENT_3D($,#1137,#917,#918);
#753=AXIS2_PLACEMENT_3D($,#1138,#919,#920);
#754=AXIS2_PLACEMENT_3D($,#1140,#922,#923);
#755=AXIS2_PLACEMENT_3D($,#1142,#925,#926);
#756=AXIS2_PLACEMENT_3D($,#1143,#927,#928);
#757=AXIS2_PLACEMENT_3D($,#1145,#930,#931);
#758=AXIS2_PLACEMENT_3D($,#1147,#933,#934);
#759=AXIS2_PLACEMENT_3D($,#1148,#935,#936);
#760=AXIS2_PLACEMENT_3D($,#1157,#941,#942);
#761=AXIS2_PLACEMENT_3D($,#1159,#943,#944);
#762=AXIS2_PLACEMENT_3D($,#1161,#945,#946);
#763=AXIS2_PLACEMENT_3D($,#1163,#948,#949);
#764=AXIS2_PLACEMENT_3D($,#1169,#953,#954);
#765=AXIS2_PLACEMENT_3D($,#1171,#955,#956);
#766=AXIS2_PLACEMENT_3D($,#1173,#957,#958);
#767=AXIS2_PLACEMENT_3D($,#1175,#960,#961);
#768=AXIS2_PLACEMENT_3D($,#1181,#965,#966);
#769=AXIS2_PLACEMENT_3D($,#1183,#967,#968);
#770=AXIS2_PLACEMENT_3D($,#1186,#970,#971);
#771=AXIS2_PLACEMENT_3D($,#1188,#972,#973);
#772=AXIS2_PLACEMENT_3D($,#1191,#975,#976);
#773=AXIS2_PLACEMENT_3D($,#1192,#977,#978);
#774=AXIS2_PLACEMENT_3D($,#1194,#979,#980);
#775=AXIS2_PLACEMENT_3D($,#1195,#981,#982);
#776=AXIS2_PLACEMENT_3D($,#1196,#983,#984);
#777=AXIS2_PLACEMENT_3D($,#1198,#985,#986);
#778=AXIS2_PLACEMENT_3D($,#1199,#987,#988);
#779=AXIS2_PLACEMENT_3D($,#1200,#989,#990);
#780=AXIS2_PLACEMENT_3D($,#1202,#992,#993);
#781=AXIS2_PLACEMENT_3D($,#1204,#995,#996);
#782=AXIS2_PLACEMENT_3D($,#1206,#998,#999);
#783=AXIS2_PLACEMENT_3D($,#1207,#1000,#1001);
#784=AXIS2_PLACEMENT_3D($,#1209,#1002,#1003);
#785=AXIS2_PLACEMENT_3D($,#1211,#1005,#1006);
#786=AXIS2_PLACEMENT_3D($,#1212,#1007,#1008);
#787=AXIS2_PLACEMENT_3D($,#1213,#1009,#1010);
#788=AXIS2_PLACEMENT_3D($,#1217,#1013,#1014);
#789=AXIS2_PLACEMENT_3D($,#1218,#1015,#1016);
#790=AXIS2_PLACEMENT_3D($,#1219,#1017,#1018);
#791=AXIS2_PLACEMENT_3D($,#1220,#1019,#1020);
#792=AXIS2_PLACEMENT_3D($,#1221,#1021,#1022);
#793=DIRECTION('axis',(0.,0.,1.));
#794=DIRECTION('refdir',(1.,0.,0.));
#795=DIRECTION('center_axis',(0.,-1.,0.));
#796=DIRECTION('ref_axis',(0.,0.,-1.));
#797=DIRECTION($,(1.,0.,0.));
#798=DIRECTION($,(0.,0.,1.));
#799=DIRECTION($,(-1.,0.,0.));
#800=DIRECTION($,(0.,0.,1.));
#801=DIRECTION('center_axis',(0.,0.,1.));
#802=DIRECTION('ref_axis',(-0.707106781186548,-0.707106781186548,0.));
#803=DIRECTION('center_axis',(0.,0.,1.));
#804=DIRECTION('ref_axis',(-0.707106781186548,-0.707106781186548,0.));
#805=DIRECTION($,(0.,0.,-1.));
#806=DIRECTION('center_axis',(0.,0.,-1.));
#807=DIRECTION('ref_axis',(-1.,0.,0.));
#808=DIRECTION('center_axis',(-1.,0.,0.));
#809=DIRECTION('ref_axis',(0.,0.,1.));
#810=DIRECTION($,(0.,-1.,0.));
#811=DIRECTION($,(0.,0.,1.));
#812=DIRECTION($,(0.,1.,0.));
#813=DIRECTION('center_axis',(0.,0.,1.));
#814=DIRECTION('ref_axis',(-0.707106781186548,0.707106781186548,0.));
#815=DIRECTION('center_axis',(0.,0.,1.));
#816=DIRECTION('ref_axis',(-0.707106781186548,0.707106781186548,0.));
#817=DIRECTION($,(0.,0.,-1.));
#818=DIRECTION('center_axis',(0.,0.,-1.));
#819=DIRECTION('ref_axis',(0.,1.,0.));
#820=DIRECTION('center_axis',(-8.88178419700125E-16,1.,0.));
#821=DIRECTION('ref_axis',(0.,0.,1.));
#822=DIRECTION($,(-1.,-8.88178419700125E-16,0.));
#823=DIRECTION($,(0.,0.,1.));
#824=DIRECTION($,(1.,8.88178419700125E-16,0.));
#825=DIRECTION('center_axis',(1.,0.,0.));
#826=DIRECTION('ref_axis',(0.,0.,-1.));
#827=DIRECTION('center_axis',(-1.,0.,0.));
#828=DIRECTION('ref_axis',(0.,-0.707106781186546,0.707106781186549));
#829=DIRECTION('center_axis',(-1.,0.,0.));
#830=DIRECTION('ref_axis',(0.,-0.707106781186546,-0.707106781186549));
#831=DIRECTION($,(0.,-1.,0.));
#832=DIRECTION('center_axis',(-1.,0.,0.));
#833=DIRECTION('ref_axis',(0.,0.707106781186546,-0.707106781186549));
#834=DIRECTION('center_axis',(-1.,0.,0.));
#835=DIRECTION('ref_axis',(0.,0.707106781186546,0.707106781186549));
#836=DIRECTION($,(0.,-1.,0.));
#837=DIRECTION('center_axis',(-1.,0.,0.));
#838=DIRECTION('ref_axis',(0.,-0.707106781186546,0.707106781186549));
#839=DIRECTION($,(-1.,0.,0.));
#840=DIRECTION('center_axis',(-1.,0.,0.));
#841=DIRECTION('ref_axis',(0.,0.,1.));
#842=DIRECTION('center_axis',(0.577350269189626,0.577350269189626,0.577350269189626));
#843=DIRECTION('ref_axis',(-0.707106781186548,0.,0.707106781186548));
#844=DIRECTION('center_axis',(0.,-1.,0.));
#845=DIRECTION('ref_axis',(-0.707106781186546,0.,0.707106781186549));
#846=DIRECTION('center_axis',(0.,0.,1.));
#847=DIRECTION('ref_axis',(1.,0.,0.));
#848=DIRECTION($,(1.,8.88178419700125E-16,0.));
#849=DIRECTION($,(0.,1.,0.));
#850=DIRECTION('center_axis',(0.,1.,0.));
#851=DIRECTION('ref_axis',(-0.707106781186546,0.,0.707106781186549));
#852=DIRECTION('center_axis',(0.,1.,0.));
#853=DIRECTION('ref_axis',(0.,0.,1.));
#854=DIRECTION('center_axis',(0.577350269189626,0.577350269189626,0.577350269189626));
#855=DIRECTION('ref_axis',(-0.707106781186548,0.,0.707106781186548));
#856=DIRECTION('center_axis',(-1.,0.,0.));
#857=DIRECTION('ref_axis',(0.,0.707106781186546,0.707106781186549));
#858=DIRECTION('center_axis',(1.,8.88178419700125E-16,0.));
#859=DIRECTION('ref_axis',(0.,0.707106781186546,0.707106781186549));
#860=DIRECTION('center_axis',(0.577350269189626,0.577350269189626,0.577350269189626));
#861=DIRECTION('ref_axis',(-0.707106781186547,0.,0.707106781186548));
#862=DIRECTION('center_axis',(-1.,0.,0.));
#863=DIRECTION('ref_axis',(0.,0.707106781186546,-0.707106781186549));
#864=DIRECTION('center_axis',(0.,1.,0.));
#865=DIRECTION('ref_axis',(-1.,0.,0.));
#866=DIRECTION('center_axis',(0.577350269189626,0.577350269189626,0.577350269189626));
#867=DIRECTION('ref_axis',(-0.707106781186547,0.,0.707106781186548));
#868=DIRECTION('center_axis',(-1.,0.,0.));
#869=DIRECTION('ref_axis',(0.,-0.707106781186546,-0.707106781186549));
#870=DIRECTION('center_axis',(0.,-1.,0.));
#871=DIRECTION('ref_axis',(-0.707106781186546,0.,-0.707106781186549));
#872=DIRECTION('center_axis',(-1.,0.,0.));
#873=DIRECTION('ref_axis',(0.,-0.707106781186546,-0.707106781186549));
#874=DIRECTION($,(1.,0.,0.));
#875=DIRECTION('center_axis',(0.,1.,0.));
#876=DIRECTION('ref_axis',(-0.707106781186546,0.,-0.707106781186549));
#877=DIRECTION($,(0.,-1.,0.));
#878=DIRECTION('center_axis',(1.,8.88178419700125E-16,0.));
#879=DIRECTION('ref_axis',(0.,0.707106781186546,-0.707106781186549));
#880=DIRECTION($,(-1.,-8.88178419700125E-16,0.));
#881=DIRECTION('center_axis',(0.,0.,1.));
#882=DIRECTION('ref_axis',(1.,0.,0.));
#883=DIRECTION('center_axis',(0.,-1.,0.));
#884=DIRECTION('ref_axis',(0.,0.,-1.));
#885=DIRECTION($,(-1.,0.,0.));
#886=DIRECTION($,(0.,0.,1.));
#887=DIRECTION($,(1.,0.,0.));
#888=DIRECTION($,(0.,0.,1.));
#889=DIRECTION('center_axis',(-1.,0.,0.));
#890=DIRECTION('ref_axis',(0.,0.,1.));
#891=DIRECTION('center_axis',(1.,0.,0.));
#892=DIRECTION('ref_axis',(0.,-0.707106781186546,-0.707106781186549));
#893=DIRECTION('center_axis',(1.,0.,0.));
#894=DIRECTION('ref_axis',(0.,-0.707106781186546,0.707106781186549));
#895=DIRECTION($,(0.,1.,0.));
#896=DIRECTION('center_axis',(1.,0.,0.));
#897=DIRECTION('ref_axis',(0.,0.707106781186549,0.707106781186546));
#898=DIRECTION($,(0.,0.,1.));
#899=DIRECTION('center_axis',(1.,0.,0.));
#900=DIRECTION('ref_axis',(0.,0.707106781186549,-0.707106781186546));
#901=DIRECTION($,(0.,1.,0.));
#902=DIRECTION('center_axis',(0.,1.,0.));
#903=DIRECTION('ref_axis',(0.,0.,1.));
#904=DIRECTION($,(1.,0.,0.));
#905=DIRECTION($,(-1.,0.,0.));
#906=DIRECTION($,(0.,0.,1.));
#907=DIRECTION('center_axis',(1.,0.,0.));
#908=DIRECTION('ref_axis',(0.,0.,-1.));
#909=DIRECTION('center_axis',(-1.,0.,0.));
#910=DIRECTION('ref_axis',(0.,-0.707106781186546,-0.707106781186549));
#911=DIRECTION($,(0.,-1.,0.));
#912=DIRECTION('center_axis',(-1.,0.,0.));
#913=DIRECTION('ref_axis',(0.,0.707106781186549,-0.707106781186546));
#914=DIRECTION('center_axis',(-1.,0.,0.));
#915=DIRECTION('ref_axis',(0.,0.707106781186549,0.707106781186546));
#916=DIRECTION($,(0.,-1.,0.));
#917=DIRECTION('center_axis',(-1.,0.,0.));
#918=DIRECTION('ref_axis',(0.,-0.707106781186546,0.707106781186549));
#919=DIRECTION('center_axis',(-1.,0.,0.));
#920=DIRECTION('ref_axis',(0.,-0.707106781186546,-0.707106781186549));
#921=DIRECTION($,(1.,0.,0.));
#922=DIRECTION('center_axis',(1.,0.,0.));
#923=DIRECTION('ref_axis',(0.,0.707106781186549,-0.707106781186546));
#924=DIRECTION($,(-1.,0.,0.));
#925=DIRECTION('center_axis',(0.,0.,1.));
#926=DIRECTION('ref_axis',(1.,0.,0.));
#927=DIRECTION('center_axis',(-1.,0.,0.));
#928=DIRECTION('ref_axis',(0.,-0.707106781186546,0.707106781186549));
#929=DIRECTION($,(-1.,0.,0.));
#930=DIRECTION('center_axis',(0.,0.,1.));
#931=DIRECTION('ref_axis',(1.,0.,0.));
#932=DIRECTION($,(1.,0.,0.));
#933=DIRECTION('center_axis',(1.,0.,0.));
#934=DIRECTION('ref_axis',(0.,0.707106781186549,0.707106781186546));
#935=DIRECTION('center_axis',(0.,-1.,0.));
#936=DIRECTION('ref_axis',(0.,0.,-1.));
#937=DIRECTION($,(-1.,0.,0.));
#938=DIRECTION($,(0.,0.,-1.));
#939=DIRECTION($,(1.,0.,0.));
#940=DIRECTION($,(0.,0.,1.));
#941=DIRECTION('center_axis',(0.,0.,1.));
#942=DIRECTION('ref_axis',(0.707106781186548,-0.707106781186548,0.));
#943=DIRECTION('center_axis',(0.,0.,1.));
#944=DIRECTION('ref_axis',(1.,0.,0.));
#945=DIRECTION('center_axis',(0.,0.,-1.));
#946=DIRECTION('ref_axis',(0.707106781186548,-0.707106781186548,0.));
#947=DIRECTION($,(0.,0.,1.));
#948=DIRECTION('center_axis',(1.,0.,0.));
#949=DIRECTION('ref_axis',(0.,0.,-1.));
#950=DIRECTION($,(0.,0.,-1.));
#951=DIRECTION($,(0.,1.,0.));
#952=DIRECTION($,(0.,-1.,0.));
#953=DIRECTION('center_axis',(0.,0.,1.));
#954=DIRECTION('ref_axis',(0.707106781186544,0.707106781186551,0.));
#955=DIRECTION('center_axis',(0.,0.,1.));
#956=DIRECTION('ref_axis',(0.,1.,0.));
#957=DIRECTION('center_axis',(0.,0.,-1.));
#958=DIRECTION('ref_axis',(0.707106781186544,0.707106781186551,0.));
#959=DIRECTION($,(0.,0.,1.));
#960=DIRECTION('center_axis',(0.,1.,0.));
#961=DIRECTION('ref_axis',(0.,0.,1.));
#962=DIRECTION($,(1.,0.,0.));
#963=DIRECTION($,(0.,0.,1.));
#964=DIRECTION($,(-1.,0.,0.));
#965=DIRECTION('center_axis',(-1.,0.,0.));
#966=DIRECTION('ref_axis',(0.,0.,1.));
#967=DIRECTION('center_axis',(1.,0.,0.));
#968=DIRECTION('ref_axis',(0.,0.707106781186549,-0.707106781186546));
#969=DIRECTION($,(0.,1.,0.));
#970=DIRECTION('center_axis',(1.,0.,0.));
#971=DIRECTION('ref_axis',(0.,-0.707106781186546,-0.707106781186549));
#972=DIRECTION('center_axis',(1.,0.,0.));
#973=DIRECTION('ref_axis',(0.,-0.707106781186546,0.707106781186549));
#974=DIRECTION($,(0.,1.,0.));
#975=DIRECTION('center_axis',(1.,0.,0.));
#976=DIRECTION('ref_axis',(0.,0.707106781186549,0.707106781186546));
#977=DIRECTION('center_axis',(0.577350269189626,0.577350269189626,0.577350269189626));
#978=DIRECTION('ref_axis',(-0.707106781186547,0.,0.707106781186548));
#979=DIRECTION('center_axis',(1.,0.,0.));
#980=DIRECTION('ref_axis',(0.,-0.707106781186546,-0.707106781186549));
#981=DIRECTION('center_axis',(0.,-1.,0.));
#982=DIRECTION('ref_axis',(1.,0.,0.));
#983=DIRECTION('center_axis',(0.577350269189626,0.577350269189626,0.577350269189626));
#984=DIRECTION('ref_axis',(-0.707106781186547,0.,0.707106781186548));
#985=DIRECTION('center_axis',(0.,1.,0.));
#986=DIRECTION('ref_axis',(0.707106781186546,0.,-0.707106781186549));
#987=DIRECTION('center_axis',(1.,0.,0.));
#988=DIRECTION('ref_axis',(0.,1.,0.));
#989=DIRECTION('center_axis',(1.,0.,0.));
#990=DIRECTION('ref_axis',(0.,0.707106781186549,-0.707106781186546));
#991=DIRECTION($,(-1.,0.,0.));
#992=DIRECTION('center_axis',(0.,-1.,0.));
#993=DIRECTION('ref_axis',(0.707106781186546,0.,-0.707106781186549));
#994=DIRECTION($,(0.,1.,0.));
#995=DIRECTION('center_axis',(-1.,0.,0.));
#996=DIRECTION('ref_axis',(0.,-0.707106781186546,-0.707106781186549));
#997=DIRECTION($,(1.,0.,0.));
#998=DIRECTION('center_axis',(0.,0.,1.));
#999=DIRECTION('ref_axis',(1.,0.,0.));
#1000=DIRECTION('center_axis',(-1.,0.,0.));
#1001=DIRECTION('ref_axis',(0.,-0.707106781186546,0.707106781186549));
#1002=DIRECTION('center_axis',(1.,0.,0.));
#1003=DIRECTION('ref_axis',(0.,-0.707106781186546,0.707106781186549));
#1004=DIRECTION($,(-1.,0.,0.));
#1005=DIRECTION('center_axis',(0.577350269189626,0.577350269189626,0.577350269189626));
#1006=DIRECTION('ref_axis',(-0.707106781186548,0.,0.707106781186548));
#1007=DIRECTION('center_axis',(0.,-1.,0.));
#1008=DIRECTION('ref_axis',(0.,0.,1.));
#1009=DIRECTION('center_axis',(0.,0.,1.));
#1010=DIRECTION('ref_axis',(1.,0.,0.));
#1011=DIRECTION($,(1.,0.,0.));
#1012=DIRECTION($,(0.,-1.,0.));
#1013=DIRECTION('center_axis',(0.,-1.,0.));
#1014=DIRECTION('ref_axis',(0.707106781186546,0.,0.707106781186549));
#1015=DIRECTION('center_axis',(0.,1.,4.44089209850062E-15));
#1016=DIRECTION('ref_axis',(0.707106781186546,-6.28036983473511E-15,0.707106781186549));
#1017=DIRECTION('center_axis',(0.577350269189626,0.577350269189626,0.577350269189626));
#1018=DIRECTION('ref_axis',(-0.707106781186548,0.,0.707106781186548));
#1019=DIRECTION('center_axis',(1.,0.,0.));
#1020=DIRECTION('ref_axis',(0.,0.707106781186549,0.707106781186546));
#1021=DIRECTION('center_axis',(1.,0.,0.));
#1022=DIRECTION('ref_axis',(0.,0.707106781186549,0.707106781186546));
#1023=CARTESIAN_POINT('',(0.,0.,0.));
#1024=CARTESIAN_POINT('Origin',(-0.549999999999999,-0.675,0.));
#1025=CARTESIAN_POINT('',(-0.949999999999999,-0.675,0.65));
#1026=CARTESIAN_POINT('',(-0.549999999999999,-0.675,0.65));
#1027=CARTESIAN_POINT($,(-0.675,-0.675,0.65));
#1028=CARTESIAN_POINT('',(-0.949999999999999,-0.675,0.1));
#1029=CARTESIAN_POINT($,(-0.949999999999999,-0.675,0.));
#1030=CARTESIAN_POINT('',(-0.549999999999999,-0.675,0.1));
#1031=CARTESIAN_POINT($,(-0.675,-0.675,0.1));
#1032=CARTESIAN_POINT($,(-0.549999999999999,-0.675,0.));
#1033=CARTESIAN_POINT('Origin',(-0.949999999999999,-0.575,0.));
#1034=CARTESIAN_POINT('',(-1.05,-0.575,0.65));
#1035=CARTESIAN_POINT('Origin',(-0.949999999999999,-0.575,0.65));
#1036=CARTESIAN_POINT('',(-1.05,-0.575,0.1));
#1037=CARTESIAN_POINT($,(-1.05,-0.575,0.));
#1038=CARTESIAN_POINT('Origin',(-0.949999999999999,-0.575,0.1));
#1039=CARTESIAN_POINT('Origin',(-1.05,-0.675,0.));
#1040=CARTESIAN_POINT('',(-1.05,0.575,0.65));
#1041=CARTESIAN_POINT($,(-1.05,-0.337499999999999,0.65));
#1042=CARTESIAN_POINT('',(-1.05,0.575,0.1));
#1043=CARTESIAN_POINT($,(-1.05,0.575,0.));
#1044=CARTESIAN_POINT($,(-1.05,-0.337499999999999,0.1));
#1045=CARTESIAN_POINT('Origin',(-0.949999999999999,0.575,0.));
#1046=CARTESIAN_POINT('',(-0.949999999999999,0.675,0.65));
#1047=CARTESIAN_POINT('Origin',(-0.949999999999999,0.575,0.65));
#1048=CARTESIAN_POINT('',(-0.949999999999999,0.675,0.1));
#1049=CARTESIAN_POINT($,(-0.949999999999999,0.675,0.));
#1050=CARTESIAN_POINT('Origin',(-0.949999999999999,0.575,0.1));
#1051=CARTESIAN_POINT('Origin',(-1.05,0.675,0.));
#1052=CARTESIAN_POINT('',(-0.549999999999999,0.675000000000001,0.65));
#1053=CARTESIAN_POINT($,(-0.925,0.675,0.65));
#1054=CARTESIAN_POINT('',(-0.549999999999999,0.675000000000001,0.1));
#1055=CARTESIAN_POINT($,(-0.549999999999999,0.675000000000001,0.));
#1056=CARTESIAN_POINT($,(-0.925,0.675,0.1));
#1057=CARTESIAN_POINT('Origin',(-0.549999999999999,0.675000000000001,0.));
#1058=CARTESIAN_POINT('',(-0.549999999999999,-0.575,0.75));
#1059=CARTESIAN_POINT('Origin',(-0.549999999999999,-0.575,0.65));
#1060=CARTESIAN_POINT('',(-0.549999999999999,-0.575,0.));
#1061=CARTESIAN_POINT('Origin',(-0.549999999999999,-0.575,0.1));
#1062=CARTESIAN_POINT('',(-0.549999999999999,0.575000000000001,0.));
#1063=CARTESIAN_POINT($,(-0.549999999999999,0.675000000000001,0.));
#1064=CARTESIAN_POINT('Origin',(-0.549999999999999,0.575000000000001,0.1));
#1065=CARTESIAN_POINT('',(-0.549999999999999,0.575000000000001,0.75));
#1066=CARTESIAN_POINT('Origin',(-0.549999999999999,0.575000000000001,0.65));
#1067=CARTESIAN_POINT($,(-0.549999999999999,0.675000000000001,0.75));
#1068=CARTESIAN_POINT('Origin',(-0.675,-0.575,0.65));
#1069=CARTESIAN_POINT('',(-0.949999999999999,-0.575,0.75));
#1070=CARTESIAN_POINT($,(-0.675,-0.575,0.75));
#1071=CARTESIAN_POINT('Origin',(-0.949999999999999,-0.575,0.65));
#1072=CARTESIAN_POINT('Origin',(-0.949999999999999,-0.575,0.65));
#1073=CARTESIAN_POINT('Origin',(-0.949999999999999,-0.575,0.65));
#1074=CARTESIAN_POINT('Origin',(-0.8,8.88178419700125E-16,0.75));
#1075=CARTESIAN_POINT('',(-0.949999999999999,0.575,0.75));
#1076=CARTESIAN_POINT($,(-0.925,0.575,0.75));
#1077=CARTESIAN_POINT($,(-0.949999999999999,-0.337499999999999,0.75));
#1078=CARTESIAN_POINT('Origin',(-0.949999999999999,-0.337499999999999,0.65));
#1079=CARTESIAN_POINT('Origin',(-0.949999999999999,0.575,0.65));
#1080=CARTESIAN_POINT('Origin',(-0.949999999999999,0.575,0.65));
#1081=CARTESIAN_POINT('Origin',(-0.949999999999999,0.575,0.65));
#1082=CARTESIAN_POINT('Origin',(-0.925,0.575,0.65));
#1083=CARTESIAN_POINT('Origin',(-0.949999999999999,0.575,0.1));
#1084=CARTESIAN_POINT('',(-0.949999999999999,0.575,0.));
#1085=CARTESIAN_POINT('Origin',(-0.949999999999999,0.575,0.1));
#1086=CARTESIAN_POINT('Origin',(-0.949999999999999,0.575,0.1));
#1087=CARTESIAN_POINT('Origin',(-0.949999999999999,-0.575,0.1));
#1088=CARTESIAN_POINT('',(-0.949999999999999,-0.575,0.));
#1089=CARTESIAN_POINT('Origin',(-0.949999999999999,-0.575,0.1));
#1090=CARTESIAN_POINT('Origin',(-0.949999999999999,-0.575,0.1));
#1091=CARTESIAN_POINT('Origin',(-0.675,-0.575,0.1));
#1092=CARTESIAN_POINT($,(-0.675,-0.575,0.));
#1093=CARTESIAN_POINT('Origin',(-0.949999999999999,-0.337499999999999,0.1));
#1094=CARTESIAN_POINT($,(-0.949999999999999,-0.337499999999999,0.));
#1095=CARTESIAN_POINT('Origin',(-0.925,0.575,0.1));
#1096=CARTESIAN_POINT($,(-0.925,0.575,0.));
#1097=CARTESIAN_POINT('Origin',(-0.8,8.88178419700125E-16,0.));
#1098=CARTESIAN_POINT('Origin',(0.55,-0.675,0.));
#1099=CARTESIAN_POINT('',(0.55,-0.675,0.1));
#1100=CARTESIAN_POINT('',(-0.549999999999999,-0.675,0.1));
#1101=CARTESIAN_POINT($,(0.275,-0.675,0.1));
#1102=CARTESIAN_POINT('',(0.55,-0.675,0.65));
#1103=CARTESIAN_POINT($,(0.55,-0.675,0.));
#1104=CARTESIAN_POINT('',(-0.549999999999999,-0.675,0.65));
#1105=CARTESIAN_POINT($,(0.275,-0.675,0.65));
#1106=CARTESIAN_POINT($,(-0.549999999999999,-0.675,0.));
#1107=CARTESIAN_POINT('Origin',(-0.549999999999999,-0.675,0.));
#1108=CARTESIAN_POINT('',(-0.549999999999999,-0.575,0.));
#1109=CARTESIAN_POINT('Origin',(-0.549999999999999,-0.575,0.1));
#1110=CARTESIAN_POINT('',(-0.549999999999999,-0.575,0.75));
#1111=CARTESIAN_POINT('Origin',(-0.549999999999999,-0.575,0.65));
#1112=CARTESIAN_POINT('',(-0.549999999999999,0.575,0.75));
#1113=CARTESIAN_POINT($,(-0.549999999999999,-0.675,0.75));
#1114=CARTESIAN_POINT('',(-0.549999999999999,0.675000000000001,0.65));
#1115=CARTESIAN_POINT('Origin',(-0.549999999999999,0.575,0.65));
#1116=CARTESIAN_POINT('',(-0.549999999999999,0.675000000000001,0.1));
#1117=CARTESIAN_POINT($,(-0.549999999999999,0.675000000000001,0.));
#1118=CARTESIAN_POINT('',(-0.549999999999999,0.575000000000001,0.));
#1119=CARTESIAN_POINT('Origin',(-0.549999999999999,0.575000000000001,0.1));
#1120=CARTESIAN_POINT($,(-0.549999999999999,-0.675,0.));
#1121=CARTESIAN_POINT('Origin',(-0.549999999999999,0.675000000000001,0.));
#1122=CARTESIAN_POINT('',(0.55,0.675000000000001,0.1));
#1123=CARTESIAN_POINT($,(-0.274999999999999,0.675000000000001,0.1));
#1124=CARTESIAN_POINT('',(0.55,0.675000000000001,0.65));
#1125=CARTESIAN_POINT($,(-0.274999999999999,0.675000000000001,0.65));
#1126=CARTESIAN_POINT($,(0.55,0.675000000000001,0.));
#1127=CARTESIAN_POINT('Origin',(0.55,0.675000000000001,0.));
#1128=CARTESIAN_POINT('',(0.55,-0.575,0.));
#1129=CARTESIAN_POINT('Origin',(0.55,-0.575,0.1));
#1130=CARTESIAN_POINT('',(0.55,0.575000000000001,0.));
#1131=CARTESIAN_POINT($,(0.55,0.675000000000001,0.));
#1132=CARTESIAN_POINT('Origin',(0.55,0.575000000000001,0.1));
#1133=CARTESIAN_POINT('',(0.55,0.575,0.75));
#1134=CARTESIAN_POINT('Origin',(0.55,0.575,0.65));
#1135=CARTESIAN_POINT('',(0.55,-0.575,0.75));
#1136=CARTESIAN_POINT($,(0.55,0.675000000000001,0.75));
#1137=CARTESIAN_POINT('Origin',(0.55,-0.575,0.65));
#1138=CARTESIAN_POINT('Origin',(0.275,-0.575,0.1));
#1139=CARTESIAN_POINT($,(0.275,-0.575,0.));
#1140=CARTESIAN_POINT('Origin',(-0.274999999999999,0.575000000000001,0.1));
#1141=CARTESIAN_POINT($,(-0.274999999999999,0.575000000000001,0.));
#1142=CARTESIAN_POINT('Origin',(8.88178419700125E-16,8.88178419700125E-16,
0.));
#1143=CARTESIAN_POINT('Origin',(0.275,-0.575,0.65));
#1144=CARTESIAN_POINT($,(0.275,-0.575,0.75));
#1145=CARTESIAN_POINT('Origin',(8.88178419700125E-16,8.88178419700125E-16,
0.75));
#1146=CARTESIAN_POINT($,(-0.274999999999999,0.575,0.75));
#1147=CARTESIAN_POINT('Origin',(-0.274999999999999,0.575,0.65));
#1148=CARTESIAN_POINT('Origin',(1.05,-0.675,0.));
#1149=CARTESIAN_POINT('',(0.95,-0.675,0.1));
#1150=CARTESIAN_POINT('',(0.55,-0.675,0.1));
#1151=CARTESIAN_POINT($,(0.925,-0.675,0.1));
#1152=CARTESIAN_POINT('',(0.95,-0.675,0.65));
#1153=CARTESIAN_POINT($,(0.95,-0.675,0.));
#1154=CARTESIAN_POINT('',(0.55,-0.675,0.65));
#1155=CARTESIAN_POINT($,(0.925,-0.675,0.65));
#1156=CARTESIAN_POINT($,(0.55,-0.675,0.));
#1157=CARTESIAN_POINT('Origin',(0.95,-0.575,0.));
#1158=CARTESIAN_POINT('',(1.05,-0.575,0.65));
#1159=CARTESIAN_POINT('Origin',(0.95,-0.575,0.65));
#1160=CARTESIAN_POINT('',(1.05,-0.575,0.1));
#1161=CARTESIAN_POINT('Origin',(0.95,-0.575,0.1));
#1162=CARTESIAN_POINT($,(1.05,-0.575,0.));
#1163=CARTESIAN_POINT('Origin',(1.05,0.675000000000001,0.));
#1164=CARTESIAN_POINT('',(1.05,0.575000000000001,0.65));
#1165=CARTESIAN_POINT('',(1.05,0.575000000000001,0.1));
#1166=CARTESIAN_POINT($,(1.05,0.575000000000001,0.));
#1167=CARTESIAN_POINT($,(1.05,0.337500000000001,0.65));
#1168=CARTESIAN_POINT($,(1.05,0.337500000000001,0.1));
#1169=CARTESIAN_POINT('Origin',(0.95,0.575000000000001,0.));
#1170=CARTESIAN_POINT('',(0.95,0.675000000000001,0.65));
#1171=CARTESIAN_POINT('Origin',(0.95,0.575000000000001,0.65));
#1172=CARTESIAN_POINT('',(0.95,0.675000000000001,0.1));
#1173=CARTESIAN_POINT('Origin',(0.95,0.575000000000001,0.1));
#1174=CARTESIAN_POINT($,(0.95,0.675000000000001,0.));
#1175=CARTESIAN_POINT('Origin',(0.55,0.675000000000001,0.));
#1176=CARTESIAN_POINT('',(0.55,0.675000000000001,0.1));
#1177=CARTESIAN_POINT($,(0.675,0.675000000000001,0.1));
#1178=CARTESIAN_POINT('',(0.55,0.675000000000001,0.65));
#1179=CARTESIAN_POINT($,(0.55,0.675000000000001,0.));
#1180=CARTESIAN_POINT($,(0.675,0.675000000000001,0.65));
#1181=CARTESIAN_POINT('Origin',(0.55,-0.675,0.));
#1182=CARTESIAN_POINT('',(0.55,0.575000000000001,0.));
#1183=CARTESIAN_POINT('Origin',(0.55,0.575000000000001,0.1));
#1184=CARTESIAN_POINT('',(0.55,-0.575,0.));
#1185=CARTESIAN_POINT($,(0.55,-0.675,0.));
#1186=CARTESIAN_POINT('Origin',(0.55,-0.575,0.1));
#1187=CARTESIAN_POINT('',(0.55,-0.575,0.75));
#1188=CARTESIAN_POINT('Origin',(0.55,-0.575,0.65));
#1189=CARTESIAN_POINT('',(0.55,0.575,0.75));
#1190=CARTESIAN_POINT($,(0.55,-0.675,0.75));
#1191=CARTESIAN_POINT('Origin',(0.55,0.575,0.65));
#1192=CARTESIAN_POINT('Origin',(0.95,-0.575,0.1));
#1193=CARTESIAN_POINT('',(0.95,-0.575,0.));
#1194=CARTESIAN_POINT('Origin',(0.95,-0.575,0.1));
#1195=CARTESIAN_POINT('Origin',(0.95,-0.575,0.1));
#1196=CARTESIAN_POINT('Origin',(0.95,0.575000000000001,0.1));
#1197=CARTESIAN_POINT('',(0.95,0.575000000000001,0.));
#1198=CARTESIAN_POINT('Origin',(0.95,0.575000000000001,0.1));
#1199=CARTESIAN_POINT('Origin',(0.95,0.575000000000001,0.1));
#1200=CARTESIAN_POINT('Origin',(0.675,0.575000000000001,0.1));
#1201=CARTESIAN_POINT($,(0.675,0.575000000000001,0.));
#1202=CARTESIAN_POINT('Origin',(0.95,0.337500000000001,0.1));
#1203=CARTESIAN_POINT($,(0.95,0.337500000000001,0.));
#1204=CARTESIAN_POINT('Origin',(0.925,-0.575,0.1));
#1205=CARTESIAN_POINT($,(0.925,-0.575,0.));
#1206=CARTESIAN_POINT('Origin',(0.8,8.88178419700125E-16,0.));
#1207=CARTESIAN_POINT('Origin',(0.925,-0.575,0.65));
#1208=CARTESIAN_POINT('',(0.95,-0.575,0.75));
#1209=CARTESIAN_POINT('Origin',(0.95,-0.575,0.65));
#1210=CARTESIAN_POINT($,(0.925,-0.575,0.75));
#1211=CARTESIAN_POINT('Origin',(0.95,-0.575,0.65));
#1212=CARTESIAN_POINT('Origin',(0.95,-0.575,0.65));
#1213=CARTESIAN_POINT('Origin',(0.8,8.88178419700125E-16,0.75));
#1214=CARTESIAN_POINT('',(0.95,0.575,0.75));
#1215=CARTESIAN_POINT($,(0.675,0.575,0.75));
#1216=CARTESIAN_POINT($,(0.95,0.337500000000001,0.75));
#1217=CARTESIAN_POINT('Origin',(0.95,0.337500000000001,0.65));
#1218=CARTESIAN_POINT('Origin',(0.95,0.575000000000001,0.65));
#1219=CARTESIAN_POINT('Origin',(0.95,0.575000000000001,0.65));
#1220=CARTESIAN_POINT('Origin',(0.95,0.575,0.65));
#1221=CARTESIAN_POINT('Origin',(0.675,0.575,0.65));
#1222=UNCERTAINTY_MEASURE_WITH_UNIT(LENGTH_MEASURE(0.01),#1226,
'DISTANCE_ACCURACY_VALUE',
'Maximum model space distance between geometric entities at asserted c
onnectivities');
#1223=UNCERTAINTY_MEASURE_WITH_UNIT(LENGTH_MEASURE(1.E-6),#1226,
'DISTANCE_ACCURACY_VALUE',
'Maximum model space distance between geometric entities at asserted c
onnectivities');
#1224=(
GEOMETRIC_REPRESENTATION_CONTEXT(3)
GLOBAL_UNCERTAINTY_ASSIGNED_CONTEXT((#1222))
GLOBAL_UNIT_ASSIGNED_CONTEXT((#1226,#1228,#1227))
REPRESENTATION_CONTEXT('','3D')
);
#1225=(
GEOMETRIC_REPRESENTATION_CONTEXT(3)
GLOBAL_UNCERTAINTY_ASSIGNED_CONTEXT((#1223))
GLOBAL_UNIT_ASSIGNED_CONTEXT((#1226,#12,#1227))
REPRESENTATION_CONTEXT('','3D')
);
#1226=(
LENGTH_UNIT()
NAMED_UNIT(*)
SI_UNIT(.MILLI.,.METRE.)
);
#1227=(
NAMED_UNIT(*)
SI_UNIT($,.STERADIAN.)
SOLID_ANGLE_UNIT()
);
#1228=(
NAMED_UNIT(*)
PLANE_ANGLE_UNIT()
SI_UNIT($,.RADIAN.)
);
#1229=SHAPE_DEFINITION_REPRESENTATION(#1230,#1231);
#1230=PRODUCT_DEFINITION_SHAPE('',$,#1233);
#1231=SHAPE_REPRESENTATION('',(#706),#1224);
#1232=PRODUCT_DEFINITION_CONTEXT('part definition',#1237,'design');
#1233=PRODUCT_DEFINITION('Product','Product',#1234,#1232);
#1234=PRODUCT_DEFINITION_FORMATION('',$,#1239);
#1235=PRODUCT_RELATED_PRODUCT_CATEGORY('Product','Product',(#1239));
#1236=APPLICATION_PROTOCOL_DEFINITION('international standard',
'automotive_design',2009,#1237);
#1237=APPLICATION_CONTEXT(
'Core Data for Automotive Mechanical Design Process');
#1238=PRODUCT_CONTEXT('part definition',#1237,'mechanical');
#1239=PRODUCT('Product','Product',$,(#1238));
#1240=PRESENTATION_STYLE_ASSIGNMENT((#1243));
#1241=PRESENTATION_STYLE_ASSIGNMENT((#1244));
#1242=PRESENTATION_STYLE_ASSIGNMENT((#1245));
#1243=SURFACE_STYLE_USAGE(.BOTH.,#1246);
#1244=SURFACE_STYLE_USAGE(.BOTH.,#1247);
#1245=SURFACE_STYLE_USAGE(.BOTH.,#1248);
#1246=SURFACE_SIDE_STYLE($,(#1249));
#1247=SURFACE_SIDE_STYLE($,(#1250));
#1248=SURFACE_SIDE_STYLE($,(#1251));
#1249=SURFACE_STYLE_FILL_AREA(#1252);
#1250=SURFACE_STYLE_FILL_AREA(#1253);
#1251=SURFACE_STYLE_FILL_AREA(#1254);
#1252=FILL_AREA_STYLE($,(#1255));
#1253=FILL_AREA_STYLE($,(#1256));
#1254=FILL_AREA_STYLE($,(#1257));
#1255=FILL_AREA_STYLE_COLOUR($,#1258);
#1256=FILL_AREA_STYLE_COLOUR($,#1259);
#1257=FILL_AREA_STYLE_COLOUR($,#1260);
#1258=COLOUR_RGB('',1.,1.,1.);
#1259=COLOUR_RGB('',0.866666666666667,0.866666666666667,0.866666666666667);
#1260=COLOUR_RGB('',0.501960784313725,0.376470588235294,0.250980392156863);
ENDSEC;
END-ISO-10303-21;
