ISO-10303-21;
HEADER;
/****************************************************************
 * Generated by software with PDElib inside                    *
 * PDElib Version v51a, created Fri 09/10/2010                  *
 * ITI Transcendata (http://www.transcendata.com/)              *
 ****************************************************************/
FILE_DESCRIPTION((''),'2;1');
FILE_NAME('CAPMP6032X280N.stp','2012-01-11T15:43:47',(''),(''),'Mechanical Desktop 2011','Mechanical Desktop 2011',', , ');
FILE_SCHEMA(('AUTOMOTIVE_DESIGN { 1 2 10303 214 1 1 1 1 }'));
ENDSEC;
DATA;
#10=(NAMED_UNIT(*)PLANE_ANGLE_UNIT()SI_UNIT($,.RADIAN.));
#11=DIMENSIONAL_EXPONENTS(0.0,0.0,0.0,0.0,0.0,0.0,0.0);
#12=PLANE_ANGLE_MEASURE_WITH_UNIT(PLANE_ANGLE_MEASURE(0.0174532925),#10);
#16=(CONVERSION_BASED_UNIT('DEGREE',#12)NAMED_UNIT(#11)PLANE_ANGLE_UNIT());
#20=(NAMED_UNIT(*)SI_UNIT($,.STERADIAN.)SOLID_ANGLE_UNIT());
#24=(LENGTH_UNIT()NAMED_UNIT(*)SI_UNIT(.MILLI.,.METRE.));
#26=UNCERTAINTY_MEASURE_WITH_UNIT(LENGTH_MEASURE(0.000001),#24,'DISTANCE_ACCURACY_VALUE','');
#28=(GEOMETRIC_REPRESENTATION_CONTEXT(3)GLOBAL_UNCERTAINTY_ASSIGNED_CONTEXT((#26))GLOBAL_UNIT_ASSIGNED_CONTEXT((#16,#20,#24))REPRESENTATION_CONTEXT('','3D'));
#29=APPLICATION_CONTEXT('automotive design');
#30=APPLICATION_PROTOCOL_DEFINITION('INTERNATIONAL_STANDARD','automotive_design',1998,#29);
#31=PRODUCT_CONTEXT('3D Mechanical Parts',#29,'mechanical');
#32=PRODUCT('Product','Product','',(#31));
#33=PRODUCT_RELATED_PRODUCT_CATEGORY('part',$,(#32));
#34=PRODUCT_CATEGORY('part',$);
#35=PERSON('1','Design','Joe',$,$,$);
#36=ORGANIZATION($,'None','None');
#37=PERSON_AND_ORGANIZATION(#35,#36);
#38=PERSON_AND_ORGANIZATION_ROLE('design_owner');
#39=APPLIED_PERSON_AND_ORGANIZATION_ASSIGNMENT(#37,#38,(#32));
#40=PRODUCT_DEFINITION_FORMATION_WITH_SPECIFIED_SOURCE('None','',#32,.BOUGHT.);
#41=PERSON('2','Creator','Joe',$,$,$);
#42=ORGANIZATION($,'None','None');
#43=PERSON_AND_ORGANIZATION(#41,#42);
#44=PERSON_AND_ORGANIZATION_ROLE('creator');
#45=APPLIED_PERSON_AND_ORGANIZATION_ASSIGNMENT(#43,#44,(#40));
#46=PERSON('3','Supplier','Joe',$,$,$);
#47=ORGANIZATION($,'None','None');
#48=PERSON_AND_ORGANIZATION(#46,#47);
#49=PERSON_AND_ORGANIZATION_ROLE('design_supplier');
#50=APPLIED_PERSON_AND_ORGANIZATION_ASSIGNMENT(#48,#49,(#40));
#51=PRODUCT_DEFINITION_CONTEXT('part definition',#29,'design');
#52=PRODUCT_DEFINITION('None','',#40,#51);
#53=PERSON('4','Creator','Joe',$,$,$);
#54=ORGANIZATION($,'None','None');
#55=PERSON_AND_ORGANIZATION(#53,#54);
#56=PERSON_AND_ORGANIZATION_ROLE('creator');
#57=APPLIED_PERSON_AND_ORGANIZATION_ASSIGNMENT(#55,#56,(#52));
#58=CARTESIAN_POINT('NONE',(0.0,0.0,0.0));
#59=DIRECTION('NONE',(0.0,0.0,1.0));
#60=DIRECTION('NONE',(1.0,0.0,0.0));
#61=AXIS2_PLACEMENT_3D('NONE',#58,#59,#60);
#62=SHAPE_REPRESENTATION('SR1',(#61),#28);
#63=PRODUCT_DEFINITION_SHAPE('PDS1','Test Part',#52);
#64=SHAPE_DEFINITION_REPRESENTATION(#63,#62);
#65=CARTESIAN_POINT('',(-2.05,-1.55,2.8));
#66=DIRECTION('',(0.0,-1.0,0.0));
#67=DIRECTION('',(0.0,0.0,-1.0));
#68=AXIS2_PLACEMENT_3D('',#65,#66,#67);
#69=PLANE('',#68);
#70=CARTESIAN_POINT('',(-2.05,-1.55,2.700000000000001));
#71=VERTEX_POINT('',#70);
#72=CARTESIAN_POINT('',(-1.45,-1.55,2.700000000000001));
#73=VERTEX_POINT('',#72);
#74=CARTESIAN_POINT('',(-2.05,-1.55,2.7));
#75=DIRECTION('',(1.0,0.0,0.0));
#76=VECTOR('',#75,0.6);
#77=LINE('',#74,#76);
#78=EDGE_CURVE('',#71,#73,#77,.T.);
#79=ORIENTED_EDGE('',*,*,#78,.T.);
#80=CARTESIAN_POINT('',(-1.45,-1.55,2.8));
#81=VERTEX_POINT('',#80);
#82=CARTESIAN_POINT('',(-1.45,-1.55,2.8));
#83=DIRECTION('',(0.0,0.0,-1.0));
#84=VECTOR('',#83,0.099999999999999);
#85=LINE('',#82,#84);
#86=EDGE_CURVE('',#81,#73,#85,.T.);
#87=ORIENTED_EDGE('',*,*,#86,.F.);
#88=CARTESIAN_POINT('',(-2.05,-1.55,2.8));
#89=VERTEX_POINT('',#88);
#90=CARTESIAN_POINT('',(-2.05,-1.55,2.8));
#91=DIRECTION('',(1.0,0.0,0.0));
#92=VECTOR('',#91,0.6);
#93=LINE('',#90,#92);
#94=EDGE_CURVE('',#89,#81,#93,.T.);
#95=ORIENTED_EDGE('',*,*,#94,.F.);
#96=CARTESIAN_POINT('',(-2.05,-1.55,2.8));
#97=DIRECTION('',(0.0,0.0,-1.0));
#98=VECTOR('',#97,0.099999999999999);
#99=LINE('',#96,#98);
#100=EDGE_CURVE('',#89,#71,#99,.T.);
#101=ORIENTED_EDGE('',*,*,#100,.T.);
#102=EDGE_LOOP('',(#79,#87,#95,#101));
#103=FACE_OUTER_BOUND('',#102,.T.);
#104=ADVANCED_FACE('',(#103),#69,.T.);
#105=CARTESIAN_POINT('',(-1.85,0.0,2.800000000000001));
#106=DIRECTION('',(0.0,0.0,1.0));
#107=DIRECTION('',(1.0,0.0,0.0));
#108=AXIS2_PLACEMENT_3D('',#105,#106,#107);
#109=PLANE('',#108);
#110=CARTESIAN_POINT('',(-2.05,1.550000000000001,2.8));
#111=VERTEX_POINT('',#110);
#112=CARTESIAN_POINT('',(-2.05,1.550000000000001,2.8));
#113=DIRECTION('',(0.0,-1.0,0.0));
#114=VECTOR('',#113,3.100000000000001);
#115=LINE('',#112,#114);
#116=EDGE_CURVE('',#111,#89,#115,.T.);
#117=ORIENTED_EDGE('',*,*,#116,.T.);
#118=ORIENTED_EDGE('',*,*,#94,.T.);
#119=CARTESIAN_POINT('',(-1.45,1.550000000000001,2.8));
#120=VERTEX_POINT('',#119);
#121=CARTESIAN_POINT('',(-1.45,-1.55,2.8));
#122=DIRECTION('',(0.0,1.0,0.0));
#123=VECTOR('',#122,3.100000000000001);
#124=LINE('',#121,#123);
#125=EDGE_CURVE('',#81,#120,#124,.T.);
#126=ORIENTED_EDGE('',*,*,#125,.T.);
#127=CARTESIAN_POINT('',(-1.45,1.550000000000001,2.8));
#128=DIRECTION('',(-1.0,0.0,0.0));
#129=VECTOR('',#128,0.6);
#130=LINE('',#127,#129);
#131=EDGE_CURVE('',#120,#111,#130,.T.);
#132=ORIENTED_EDGE('',*,*,#131,.T.);
#133=EDGE_LOOP('',(#117,#118,#126,#132));
#134=FACE_OUTER_BOUND('',#133,.T.);
#135=ADVANCED_FACE('',(#134),#109,.T.);
#136=CARTESIAN_POINT('',(-1.65,1.550000000000001,2.8));
#137=DIRECTION('',(0.0,1.0,0.0));
#138=DIRECTION('',(0.0,0.0,1.0));
#139=AXIS2_PLACEMENT_3D('',#136,#137,#138);
#140=PLANE('',#139);
#141=CARTESIAN_POINT('',(-1.45,1.550000000000001,2.700000000000001));
#142=VERTEX_POINT('',#141);
#143=CARTESIAN_POINT('',(-2.05,1.550000000000001,2.700000000000001));
#144=VERTEX_POINT('',#143);
#145=CARTESIAN_POINT('',(-1.45,1.550000000000001,2.7));
#146=DIRECTION('',(-1.0,0.0,0.0));
#147=VECTOR('',#146,0.6);
#148=LINE('',#145,#147);
#149=EDGE_CURVE('',#142,#144,#148,.T.);
#150=ORIENTED_EDGE('',*,*,#149,.T.);
#151=CARTESIAN_POINT('',(-2.05,1.550000000000001,2.8));
#152=DIRECTION('',(0.0,0.0,-1.0));
#153=VECTOR('',#152,0.099999999999999);
#154=LINE('',#151,#153);
#155=EDGE_CURVE('',#111,#144,#154,.T.);
#156=ORIENTED_EDGE('',*,*,#155,.F.);
#157=ORIENTED_EDGE('',*,*,#131,.F.);
#158=CARTESIAN_POINT('',(-1.45,1.550000000000001,2.8));
#159=DIRECTION('',(0.0,0.0,-1.0));
#160=VECTOR('',#159,0.099999999999999);
#161=LINE('',#158,#160);
#162=EDGE_CURVE('',#120,#142,#161,.T.);
#163=ORIENTED_EDGE('',*,*,#162,.T.);
#164=EDGE_LOOP('',(#150,#156,#157,#163));
#165=FACE_OUTER_BOUND('',#164,.T.);
#166=ADVANCED_FACE('',(#165),#140,.T.);
#167=CARTESIAN_POINT('',(-1.45,-1.55,2.8));
#168=DIRECTION('',(1.0,0.0,0.0));
#169=DIRECTION('',(0.0,0.0,-1.0));
#170=AXIS2_PLACEMENT_3D('',#167,#168,#169);
#171=PLANE('',#170);
#172=CARTESIAN_POINT('',(-1.45,-1.55,2.7));
#173=DIRECTION('',(0.0,1.0,0.0));
#174=VECTOR('',#173,3.100000000000001);
#175=LINE('',#172,#174);
#176=EDGE_CURVE('',#73,#142,#175,.T.);
#177=ORIENTED_EDGE('',*,*,#176,.T.);
#178=ORIENTED_EDGE('',*,*,#162,.F.);
#179=ORIENTED_EDGE('',*,*,#125,.F.);
#180=ORIENTED_EDGE('',*,*,#86,.T.);
#181=EDGE_LOOP('',(#177,#178,#179,#180));
#182=FACE_OUTER_BOUND('',#181,.T.);
#183=ADVANCED_FACE('',(#182),#171,.T.);
#184=CARTESIAN_POINT('',(-1.85,0.0,2.700000000000001));
#185=DIRECTION('',(0.0,0.0,1.0));
#186=DIRECTION('',(1.0,0.0,0.0));
#187=AXIS2_PLACEMENT_3D('',#184,#185,#186);
#188=PLANE('',#187);
#189=ORIENTED_EDGE('',*,*,#78,.F.);
#190=CARTESIAN_POINT('',(-2.05,1.550000000000001,2.7));
#191=DIRECTION('',(0.0,-1.0,0.0));
#192=VECTOR('',#191,3.100000000000001);
#193=LINE('',#190,#192);
#194=EDGE_CURVE('',#144,#71,#193,.T.);
#195=ORIENTED_EDGE('',*,*,#194,.F.);
#196=ORIENTED_EDGE('',*,*,#149,.F.);
#197=ORIENTED_EDGE('',*,*,#176,.F.);
#198=EDGE_LOOP('',(#189,#195,#196,#197));
#199=FACE_OUTER_BOUND('',#198,.T.);
#200=ADVANCED_FACE('',(#199),#188,.F.);
#201=CARTESIAN_POINT('',(-2.05,1.550000000000001,2.8));
#202=DIRECTION('',(-1.0,0.0,0.0));
#203=DIRECTION('',(0.0,0.0,1.0));
#204=AXIS2_PLACEMENT_3D('',#201,#202,#203);
#205=PLANE('',#204);
#206=ORIENTED_EDGE('',*,*,#194,.T.);
#207=ORIENTED_EDGE('',*,*,#100,.F.);
#208=ORIENTED_EDGE('',*,*,#116,.F.);
#209=ORIENTED_EDGE('',*,*,#155,.T.);
#210=EDGE_LOOP('',(#206,#207,#208,#209));
#211=FACE_OUTER_BOUND('',#210,.T.);
#212=ADVANCED_FACE('',(#211),#205,.T.);
#213=CLOSED_SHELL('',(#104,#135,#166,#183,#200,#212));
#214=MANIFOLD_SOLID_BREP('4DD',#213);
#215=COLOUR_RGB('254',0.866,0.866,0.866);
#216=SURFACE_STYLE_USAGE(.BOTH.,#217);
#217=SURFACE_SIDE_STYLE('NONE',(#218));
#218=SURFACE_STYLE_FILL_AREA(#219);
#219=FILL_AREA_STYLE('NONE',(#220));
#220=FILL_AREA_STYLE_COLOUR('NONE',#215);
#221=PRESENTATION_STYLE_ASSIGNMENT((#216));
#222=STYLED_ITEM('NONE',(#221),#214);
#223=MECHANICAL_DESIGN_GEOMETRIC_PRESENTATION_REPRESENTATION('NONE',(#222,#382,#540,#691,#842,#993,#1306,#1457),#28);
#224=PRESENTATION_LAYER_ASSIGNMENT('3D','None',(#214,#374,#532,#690,#841,#992,#1305,#1456));
#225=CARTESIAN_POINT('',(1.4,-1.1,0.1));
#226=DIRECTION('',(1.0,0.0,0.0));
#227=DIRECTION('',(0.0,0.0,-1.0));
#228=AXIS2_PLACEMENT_3D('',#225,#226,#227);
#229=PLANE('',#228);
#230=CARTESIAN_POINT('',(1.4,-1.65,-3.608225E-016));
#231=VERTEX_POINT('',#230);
#232=CARTESIAN_POINT('',(1.4,1.65,-3.608225E-016));
#233=VERTEX_POINT('',#232);
#234=CARTESIAN_POINT('',(1.4,-1.65,-3.608225E-016));
#235=DIRECTION('',(0.0,1.0,0.0));
#236=VECTOR('',#235,3.3);
#237=LINE('',#234,#236);
#238=EDGE_CURVE('',#231,#233,#237,.T.);
#239=ORIENTED_EDGE('',*,*,#238,.T.);
#240=CARTESIAN_POINT('',(1.4,1.65,0.1));
#241=VERTEX_POINT('',#240);
#242=CARTESIAN_POINT('',(1.4,1.65,0.1));
#243=DIRECTION('',(0.0,0.0,-1.0));
#244=VECTOR('',#243,0.1);
#245=LINE('',#242,#244);
#246=EDGE_CURVE('',#241,#233,#245,.T.);
#247=ORIENTED_EDGE('',*,*,#246,.F.);
#248=CARTESIAN_POINT('',(1.4,-1.65,0.1));
#249=VERTEX_POINT('',#248);
#250=CARTESIAN_POINT('',(1.4,-1.65,0.1));
#251=DIRECTION('',(0.0,1.0,0.0));
#252=VECTOR('',#251,3.3);
#253=LINE('',#250,#252);
#254=EDGE_CURVE('',#249,#241,#253,.T.);
#255=ORIENTED_EDGE('',*,*,#254,.F.);
#256=CARTESIAN_POINT('',(1.4,-1.65,0.1));
#257=DIRECTION('',(0.0,0.0,-1.0));
#258=VECTOR('',#257,0.1);
#259=LINE('',#256,#258);
#260=EDGE_CURVE('',#249,#231,#259,.T.);
#261=ORIENTED_EDGE('',*,*,#260,.T.);
#262=EDGE_LOOP('',(#239,#247,#255,#261));
#263=FACE_OUTER_BOUND('',#262,.T.);
#264=ADVANCED_FACE('',(#263),#229,.T.);
#265=CARTESIAN_POINT('',(1.4,1.65,0.1));
#266=DIRECTION('',(0.0,1.0,0.0));
#267=DIRECTION('',(0.0,0.0,1.0));
#268=AXIS2_PLACEMENT_3D('',#265,#266,#267);
#269=PLANE('',#268);
#270=CARTESIAN_POINT('',(-1.4,1.65,-3.608225E-016));
#271=VERTEX_POINT('',#270);
#272=CARTESIAN_POINT('',(1.4,1.65,-3.608225E-016));
#273=DIRECTION('',(-1.0,0.0,0.0));
#274=VECTOR('',#273,2.8);
#275=LINE('',#272,#274);
#276=EDGE_CURVE('',#233,#271,#275,.T.);
#277=ORIENTED_EDGE('',*,*,#276,.T.);
#278=CARTESIAN_POINT('',(-1.4,1.65,0.1));
#279=VERTEX_POINT('',#278);
#280=CARTESIAN_POINT('',(-1.4,1.65,0.1));
#281=DIRECTION('',(0.0,0.0,-1.0));
#282=VECTOR('',#281,0.1);
#283=LINE('',#280,#282);
#284=EDGE_CURVE('',#279,#271,#283,.T.);
#285=ORIENTED_EDGE('',*,*,#284,.F.);
#286=CARTESIAN_POINT('',(1.4,1.65,0.1));
#287=DIRECTION('',(-1.0,0.0,0.0));
#288=VECTOR('',#287,2.8);
#289=LINE('',#286,#288);
#290=EDGE_CURVE('',#241,#279,#289,.T.);
#291=ORIENTED_EDGE('',*,*,#290,.F.);
#292=ORIENTED_EDGE('',*,*,#246,.T.);
#293=EDGE_LOOP('',(#277,#285,#291,#292));
#294=FACE_OUTER_BOUND('',#293,.T.);
#295=ADVANCED_FACE('',(#294),#269,.T.);
#296=CARTESIAN_POINT('',(-1.4,1.1,0.1));
#297=DIRECTION('',(-1.0,0.0,0.0));
#298=DIRECTION('',(0.0,0.0,1.0));
#299=AXIS2_PLACEMENT_3D('',#296,#297,#298);
#300=PLANE('',#299);
#301=CARTESIAN_POINT('',(-1.4,-1.65,-3.608225E-016));
#302=VERTEX_POINT('',#301);
#303=CARTESIAN_POINT('',(-1.4,1.65,-3.608225E-016));
#304=DIRECTION('',(0.0,-1.0,0.0));
#305=VECTOR('',#304,3.3);
#306=LINE('',#303,#305);
#307=EDGE_CURVE('',#271,#302,#306,.T.);
#308=ORIENTED_EDGE('',*,*,#307,.T.);
#309=CARTESIAN_POINT('',(-1.4,-1.65,0.1));
#310=VERTEX_POINT('',#309);
#311=CARTESIAN_POINT('',(-1.4,-1.65,0.1));
#312=DIRECTION('',(0.0,0.0,-1.0));
#313=VECTOR('',#312,0.1);
#314=LINE('',#311,#313);
#315=EDGE_CURVE('',#310,#302,#314,.T.);
#316=ORIENTED_EDGE('',*,*,#315,.F.);
#317=CARTESIAN_POINT('',(-1.4,1.65,0.1));
#318=DIRECTION('',(0.0,-1.0,0.0));
#319=VECTOR('',#318,3.3);
#320=LINE('',#317,#319);
#321=EDGE_CURVE('',#279,#310,#320,.T.);
#322=ORIENTED_EDGE('',*,*,#321,.F.);
#323=ORIENTED_EDGE('',*,*,#284,.T.);
#324=EDGE_LOOP('',(#308,#316,#322,#323));
#325=FACE_OUTER_BOUND('',#324,.T.);
#326=ADVANCED_FACE('',(#325),#300,.T.);
#327=CARTESIAN_POINT('',(-1.4,-1.65,0.1));
#328=DIRECTION('',(0.0,-1.0,0.0));
#329=DIRECTION('',(0.0,0.0,-1.0));
#330=AXIS2_PLACEMENT_3D('',#327,#328,#329);
#331=PLANE('',#330);
#332=CARTESIAN_POINT('',(-1.4,-1.65,-3.608225E-016));
#333=DIRECTION('',(1.0,0.0,0.0));
#334=VECTOR('',#333,2.8);
#335=LINE('',#332,#334);
#336=EDGE_CURVE('',#302,#231,#335,.T.);
#337=ORIENTED_EDGE('',*,*,#336,.T.);
#338=ORIENTED_EDGE('',*,*,#260,.F.);
#339=CARTESIAN_POINT('',(-1.4,-1.65,0.1));
#340=DIRECTION('',(1.0,0.0,0.0));
#341=VECTOR('',#340,2.8);
#342=LINE('',#339,#341);
#343=EDGE_CURVE('',#310,#249,#342,.T.);
#344=ORIENTED_EDGE('',*,*,#343,.F.);
#345=ORIENTED_EDGE('',*,*,#315,.T.);
#346=EDGE_LOOP('',(#337,#338,#344,#345));
#347=FACE_OUTER_BOUND('',#346,.T.);
#348=ADVANCED_FACE('',(#347),#331,.T.);
#349=CARTESIAN_POINT('',(0.0,-1.332268E-017,-3.608225E-016));
#350=DIRECTION('',(0.0,0.0,1.0));
#351=DIRECTION('',(1.0,0.0,0.0));
#352=AXIS2_PLACEMENT_3D('',#349,#350,#351);
#353=PLANE('',#352);
#354=ORIENTED_EDGE('',*,*,#238,.F.);
#355=ORIENTED_EDGE('',*,*,#336,.F.);
#356=ORIENTED_EDGE('',*,*,#307,.F.);
#357=ORIENTED_EDGE('',*,*,#276,.F.);
#358=EDGE_LOOP('',(#354,#355,#356,#357));
#359=FACE_OUTER_BOUND('',#358,.T.);
#360=ADVANCED_FACE('',(#359),#353,.F.);
#361=CARTESIAN_POINT('',(0.0,-1.332268E-017,0.1));
#362=DIRECTION('',(0.0,0.0,1.0));
#363=DIRECTION('',(1.0,0.0,0.0));
#364=AXIS2_PLACEMENT_3D('',#361,#362,#363);
#365=PLANE('',#364);
#366=ORIENTED_EDGE('',*,*,#343,.T.);
#367=ORIENTED_EDGE('',*,*,#254,.T.);
#368=ORIENTED_EDGE('',*,*,#290,.T.);
#369=ORIENTED_EDGE('',*,*,#321,.T.);
#370=EDGE_LOOP('',(#366,#367,#368,#369));
#371=FACE_OUTER_BOUND('',#370,.T.);
#372=ADVANCED_FACE('',(#371),#365,.T.);
#373=CLOSED_SHELL('',(#264,#295,#326,#348,#360,#372));
#374=MANIFOLD_SOLID_BREP('4D5',#373);
#375=COLOUR_RGB('250',0.33,0.33,0.33);
#376=SURFACE_STYLE_USAGE(.BOTH.,#377);
#377=SURFACE_SIDE_STYLE('NONE',(#378));
#378=SURFACE_STYLE_FILL_AREA(#379);
#379=FILL_AREA_STYLE('NONE',(#380));
#380=FILL_AREA_STYLE_COLOUR('NONE',#375);
#381=PRESENTATION_STYLE_ASSIGNMENT((#376));
#382=STYLED_ITEM('NONE',(#381),#374);
#383=CARTESIAN_POINT('',(-3.150000000000004,-1.0,0.999999999999994));
#384=CARTESIAN_POINT('',(-3.150000000000002,-1.0,-6.217249E-015));
#385=CARTESIAN_POINT('',(-3.05,-1.0,0.999999999999994));
#386=CARTESIAN_POINT('',(-3.049999999999999,-1.0,-5.995204E-015));
#387=B_SPLINE_SURFACE_WITH_KNOTS('',1,1,((#383,#385),(#384,#386)),.UNSPECIFIED.,.F.,.F.,.U.,(2,2),(2,2),(0.0,1.0),(0.0,0.100000000000004),.UNSPECIFIED.);
#388=CARTESIAN_POINT('',(-3.15,-1.0,-5.925277E-015));
#389=VERTEX_POINT('',#388);
#390=CARTESIAN_POINT('',(-3.150000000000002,-1.0,0.999999999999994));
#391=VERTEX_POINT('',#390);
#392=CARTESIAN_POINT('',(-3.15,-1.0,-5.925277E-015));
#393=DIRECTION('',(0.0,0.0,1.0));
#394=VECTOR('',#393,1.0);
#395=LINE('',#392,#394);
#396=EDGE_CURVE('',#389,#391,#395,.T.);
#397=ORIENTED_EDGE('',*,*,#396,.F.);
#398=CARTESIAN_POINT('',(-3.05,-1.0,-5.750955E-015));
#399=VERTEX_POINT('',#398);
#400=CARTESIAN_POINT('',(-3.05,-1.0,-5.750955E-015));
#401=DIRECTION('',(-1.0,0.0,0.0));
#402=VECTOR('',#401,0.1);
#403=LINE('',#400,#402);
#404=EDGE_CURVE('',#399,#389,#403,.T.);
#405=ORIENTED_EDGE('',*,*,#404,.F.);
#406=CARTESIAN_POINT('',(-3.050000000000002,-1.0,0.999999999999994));
#407=VERTEX_POINT('',#406);
#408=CARTESIAN_POINT('',(-3.05,-1.0,-5.750955E-015));
#409=DIRECTION('',(0.0,0.0,1.0));
#410=VECTOR('',#409,1.0);
#411=LINE('',#408,#410);
#412=EDGE_CURVE('',#399,#407,#411,.T.);
#413=ORIENTED_EDGE('',*,*,#412,.T.);
#414=CARTESIAN_POINT('',(-3.050000000000002,-1.0,0.999999999999994));
#415=DIRECTION('',(-1.0,0.0,0.0));
#416=VECTOR('',#415,0.1);
#417=LINE('',#414,#416);
#418=EDGE_CURVE('',#407,#391,#417,.T.);
#419=ORIENTED_EDGE('',*,*,#418,.T.);
#420=EDGE_LOOP('',(#397,#405,#413,#419));
#421=FACE_OUTER_BOUND('',#420,.T.);
#422=ADVANCED_FACE('',(#421),#387,.T.);
#423=CARTESIAN_POINT('',(-3.050000000000002,1.0,0.999999999999994));
#424=CARTESIAN_POINT('',(-3.150000000000002,1.0,0.999999999999994));
#425=CARTESIAN_POINT('',(-3.050000000000002,-1.0,0.999999999999994));
#426=CARTESIAN_POINT('',(-3.150000000000003,-1.0,0.999999999999994));
#427=B_SPLINE_SURFACE_WITH_KNOTS('',1,1,((#423,#425),(#424,#426)),.UNSPECIFIED.,.F.,.F.,.U.,(2,2),(2,2),(0.0,0.1),(0.0,2.0),.UNSPECIFIED.);
#428=CARTESIAN_POINT('',(-3.150000000000002,1.0,0.999999999999994));
#429=VERTEX_POINT('',#428);
#430=CARTESIAN_POINT('',(-3.150000000000002,-1.0,0.999999999999994));
#431=DIRECTION('',(0.0,1.0,0.0));
#432=VECTOR('',#431,2.0);
#433=LINE('',#430,#432);
#434=EDGE_CURVE('',#391,#429,#433,.T.);
#435=ORIENTED_EDGE('',*,*,#434,.F.);
#436=ORIENTED_EDGE('',*,*,#418,.F.);
#437=CARTESIAN_POINT('',(-3.050000000000002,1.0,0.999999999999994));
#438=VERTEX_POINT('',#437);
#439=CARTESIAN_POINT('',(-3.050000000000002,-1.0,0.999999999999994));
#440=DIRECTION('',(0.0,1.0,0.0));
#441=VECTOR('',#440,2.0);
#442=LINE('',#439,#441);
#443=EDGE_CURVE('',#407,#438,#442,.T.);
#444=ORIENTED_EDGE('',*,*,#443,.T.);
#445=CARTESIAN_POINT('',(-3.050000000000002,1.0,0.999999999999994));
#446=DIRECTION('',(-1.0,0.0,0.0));
#447=VECTOR('',#446,0.1);
#448=LINE('',#445,#447);
#449=EDGE_CURVE('',#438,#429,#448,.T.);
#450=ORIENTED_EDGE('',*,*,#449,.T.);
#451=EDGE_LOOP('',(#435,#436,#444,#450));
#452=FACE_OUTER_BOUND('',#451,.T.);
#453=ADVANCED_FACE('',(#452),#427,.T.);
#454=CARTESIAN_POINT('',(-3.150000000000002,1.0,-6.172840E-015));
#455=CARTESIAN_POINT('',(-3.150000000000004,1.0,0.999999999999994));
#456=CARTESIAN_POINT('',(-3.049999999999999,1.0,-5.995204E-015));
#457=CARTESIAN_POINT('',(-3.050000000000001,1.0,0.999999999999994));
#458=B_SPLINE_SURFACE_WITH_KNOTS('',1,1,((#454,#456),(#455,#457)),.UNSPECIFIED.,.F.,.F.,.U.,(2,2),(2,2),(0.0,1.0),(0.0,0.100000000000004),.UNSPECIFIED.);
#459=CARTESIAN_POINT('',(-3.15,1.0,-5.925277E-015));
#460=VERTEX_POINT('',#459);
#461=CARTESIAN_POINT('',(-3.150000000000002,1.0,0.999999999999994));
#462=DIRECTION('',(0.0,0.0,-1.0));
#463=VECTOR('',#462,1.0);
#464=LINE('',#461,#463);
#465=EDGE_CURVE('',#429,#460,#464,.T.);
#466=ORIENTED_EDGE('',*,*,#465,.F.);
#467=ORIENTED_EDGE('',*,*,#449,.F.);
#468=CARTESIAN_POINT('',(-3.05,1.0,-5.750955E-015));
#469=VERTEX_POINT('',#468);
#470=CARTESIAN_POINT('',(-3.050000000000002,1.0,0.999999999999994));
#471=DIRECTION('',(0.0,0.0,-1.0));
#472=VECTOR('',#471,1.0);
#473=LINE('',#470,#472);
#474=EDGE_CURVE('',#438,#469,#473,.T.);
#475=ORIENTED_EDGE('',*,*,#474,.T.);
#476=CARTESIAN_POINT('',(-3.05,1.0,-5.750955E-015));
#477=DIRECTION('',(-1.0,0.0,0.0));
#478=VECTOR('',#477,0.1);
#479=LINE('',#476,#478);
#480=EDGE_CURVE('',#469,#460,#479,.T.);
#481=ORIENTED_EDGE('',*,*,#480,.T.);
#482=EDGE_LOOP('',(#466,#467,#475,#481));
#483=FACE_OUTER_BOUND('',#482,.T.);
#484=ADVANCED_FACE('',(#483),#458,.T.);
#485=CARTESIAN_POINT('',(-3.15,1.0,-5.925277E-015));
#486=CARTESIAN_POINT('',(-3.05,1.0,-5.750955E-015));
#487=CARTESIAN_POINT('',(-3.15,-1.0,-5.925277E-015));
#488=CARTESIAN_POINT('',(-3.050000000000001,-1.0,-5.750955E-015));
#489=B_SPLINE_SURFACE_WITH_KNOTS('',1,1,((#485,#487),(#486,#488)),.UNSPECIFIED.,.F.,.F.,.U.,(2,2),(2,2),(0.0,0.1),(0.0,2.0),.UNSPECIFIED.);
#490=CARTESIAN_POINT('',(-3.15,1.0,-5.925277E-015));
#491=DIRECTION('',(0.0,-1.0,0.0));
#492=VECTOR('',#491,2.0);
#493=LINE('',#490,#492);
#494=EDGE_CURVE('',#460,#389,#493,.T.);
#495=ORIENTED_EDGE('',*,*,#494,.F.);
#496=ORIENTED_EDGE('',*,*,#480,.F.);
#497=CARTESIAN_POINT('',(-3.05,1.0,-5.750955E-015));
#498=DIRECTION('',(0.0,-1.0,0.0));
#499=VECTOR('',#498,2.0);
#500=LINE('',#497,#499);
#501=EDGE_CURVE('',#469,#399,#500,.T.);
#502=ORIENTED_EDGE('',*,*,#501,.T.);
#503=ORIENTED_EDGE('',*,*,#404,.T.);
#504=EDGE_LOOP('',(#495,#496,#502,#503));
#505=FACE_OUTER_BOUND('',#504,.T.);
#506=ADVANCED_FACE('',(#505),#489,.T.);
#507=CARTESIAN_POINT('',(-3.150000000000002,1.0,0.999999999999994));
#508=CARTESIAN_POINT('',(-3.15,1.0,-5.995204E-015));
#509=CARTESIAN_POINT('',(-3.150000000000002,-1.0,0.999999999999994));
#510=CARTESIAN_POINT('',(-3.15,-1.0,-5.995204E-015));
#511=B_SPLINE_SURFACE_WITH_KNOTS('',1,1,((#507,#509),(#508,#510)),.UNSPECIFIED.,.F.,.F.,.U.,(2,2),(2,2),(0.0,1.0),(0.0,2.0),.UNSPECIFIED.);
#512=ORIENTED_EDGE('',*,*,#396,.T.);
#513=ORIENTED_EDGE('',*,*,#434,.T.);
#514=ORIENTED_EDGE('',*,*,#465,.T.);
#515=ORIENTED_EDGE('',*,*,#494,.T.);
#516=EDGE_LOOP('',(#512,#513,#514,#515));
#517=FACE_OUTER_BOUND('',#516,.T.);
#518=ADVANCED_FACE('',(#517),#511,.T.);
#519=CARTESIAN_POINT('',(-3.050000000000002,1.0,0.999999999999994));
#520=CARTESIAN_POINT('',(-3.05,1.0,-5.773160E-015));
#521=CARTESIAN_POINT('',(-3.050000000000002,-1.0,0.999999999999994));
#522=CARTESIAN_POINT('',(-3.05,-1.0,-5.773160E-015));
#523=B_SPLINE_SURFACE_WITH_KNOTS('',1,1,((#519,#521),(#520,#522)),.UNSPECIFIED.,.F.,.F.,.U.,(2,2),(2,2),(0.0,1.0),(0.0,2.0),.UNSPECIFIED.);
#524=ORIENTED_EDGE('',*,*,#501,.F.);
#525=ORIENTED_EDGE('',*,*,#474,.F.);
#526=ORIENTED_EDGE('',*,*,#443,.F.);
#527=ORIENTED_EDGE('',*,*,#412,.F.);
#528=EDGE_LOOP('',(#524,#525,#526,#527));
#529=FACE_OUTER_BOUND('',#528,.T.);
#530=ADVANCED_FACE('',(#529),#523,.F.);
#531=CLOSED_SHELL('',(#422,#453,#484,#506,#518,#530));
#532=MANIFOLD_SOLID_BREP('4BC',#531);
#533=COLOUR_RGB('253',0.732,0.732,0.732);
#534=SURFACE_STYLE_USAGE(.BOTH.,#535);
#535=SURFACE_SIDE_STYLE('NONE',(#536));
#536=SURFACE_STYLE_FILL_AREA(#537);
#537=FILL_AREA_STYLE('NONE',(#538));
#538=FILL_AREA_STYLE_COLOUR('NONE',#533);
#539=PRESENTATION_STYLE_ASSIGNMENT((#534));
#540=STYLED_ITEM('NONE',(#539),#532);
#541=CARTESIAN_POINT('',(-3.05,-1.0,0.099999999999998));
#542=CARTESIAN_POINT('',(-3.05,-1.0,-6.369905E-015));
#543=CARTESIAN_POINT('',(-1.75,-1.0,0.1));
#544=CARTESIAN_POINT('',(-1.75,-1.0,-4.066192E-015));
#545=B_SPLINE_SURFACE_WITH_KNOTS('',1,1,((#541,#543),(#542,#544)),.UNSPECIFIED.,.F.,.F.,.U.,(2,2),(2,2),(0.0,0.100000000000004),(0.0,1.3),.UNSPECIFIED.);
#546=CARTESIAN_POINT('',(-3.05,-1.0,0.099999999999996));
#547=VERTEX_POINT('',#546);
#548=CARTESIAN_POINT('',(-1.75,-1.0,0.099999999999998));
#549=VERTEX_POINT('',#548);
#550=CARTESIAN_POINT('',(-3.05,-1.0,0.099999999999996));
#551=DIRECTION('',(1.0,0.0,0.0));
#552=VECTOR('',#551,1.3);
#553=LINE('',#550,#552);
#554=EDGE_CURVE('',#547,#549,#553,.T.);
#555=ORIENTED_EDGE('',*,*,#554,.F.);
#556=CARTESIAN_POINT('',(-3.05,-1.0,-4.063416E-015));
#557=VERTEX_POINT('',#556);
#558=CARTESIAN_POINT('',(-3.05,-1.0,-4.063416E-015));
#559=DIRECTION('',(0.0,0.0,1.0));
#560=VECTOR('',#559,0.1);
#561=LINE('',#558,#560);
#562=EDGE_CURVE('',#557,#547,#561,.T.);
#563=ORIENTED_EDGE('',*,*,#562,.F.);
#564=CARTESIAN_POINT('',(-1.75,-1.0,-2.331468E-015));
#565=VERTEX_POINT('',#564);
#566=CARTESIAN_POINT('',(-3.05,-1.0,-4.063416E-015));
#567=DIRECTION('',(1.0,0.0,0.0));
#568=VECTOR('',#567,1.3);
#569=LINE('',#566,#568);
#570=EDGE_CURVE('',#557,#565,#569,.T.);
#571=ORIENTED_EDGE('',*,*,#570,.T.);
#572=CARTESIAN_POINT('',(-1.75,-1.0,-2.331468E-015));
#573=DIRECTION('',(0.0,0.0,1.0));
#574=VECTOR('',#573,0.1);
#575=LINE('',#572,#574);
#576=EDGE_CURVE('',#565,#549,#575,.T.);
#577=ORIENTED_EDGE('',*,*,#576,.T.);
#578=EDGE_LOOP('',(#555,#563,#571,#577));
#579=FACE_OUTER_BOUND('',#578,.T.);
#580=ADVANCED_FACE('',(#579),#545,.T.);
#581=CARTESIAN_POINT('',(-1.75,1.0,-2.331468E-015));
#582=CARTESIAN_POINT('',(-1.75,1.0,0.099999999999998));
#583=CARTESIAN_POINT('',(-1.75,-1.0,-2.331468E-015));
#584=CARTESIAN_POINT('',(-1.750000000000001,-1.0,0.099999999999998));
#585=B_SPLINE_SURFACE_WITH_KNOTS('',1,1,((#581,#583),(#582,#584)),.UNSPECIFIED.,.F.,.F.,.U.,(2,2),(2,2),(0.0,0.1),(0.0,2.0),.UNSPECIFIED.);
#586=CARTESIAN_POINT('',(-1.75,1.0,0.099999999999998));
#587=VERTEX_POINT('',#586);
#588=CARTESIAN_POINT('',(-1.75,-1.0,0.099999999999998));
#589=DIRECTION('',(0.0,1.0,0.0));
#590=VECTOR('',#589,2.0);
#591=LINE('',#588,#590);
#592=EDGE_CURVE('',#549,#587,#591,.T.);
#593=ORIENTED_EDGE('',*,*,#592,.F.);
#594=ORIENTED_EDGE('',*,*,#576,.F.);
#595=CARTESIAN_POINT('',(-1.75,1.0,-2.331468E-015));
#596=VERTEX_POINT('',#595);
#597=CARTESIAN_POINT('',(-1.75,-1.0,-2.331468E-015));
#598=DIRECTION('',(0.0,1.0,0.0));
#599=VECTOR('',#598,2.0);
#600=LINE('',#597,#599);
#601=EDGE_CURVE('',#565,#596,#600,.T.);
#602=ORIENTED_EDGE('',*,*,#601,.T.);
#603=CARTESIAN_POINT('',(-1.75,1.0,-2.331468E-015));
#604=DIRECTION('',(0.0,0.0,1.0));
#605=VECTOR('',#604,0.1);
#606=LINE('',#603,#605);
#607=EDGE_CURVE('',#596,#587,#606,.T.);
#608=ORIENTED_EDGE('',*,*,#607,.T.);
#609=EDGE_LOOP('',(#593,#594,#602,#608));
#610=FACE_OUTER_BOUND('',#609,.T.);
#611=ADVANCED_FACE('',(#610),#585,.T.);
#612=CARTESIAN_POINT('',(-3.050000000000001,1.0,-6.372680E-015));
#613=CARTESIAN_POINT('',(-3.050000000000001,1.0,0.099999999999998));
#614=CARTESIAN_POINT('',(-1.75,1.0,-4.063416E-015));
#615=CARTESIAN_POINT('',(-1.75,1.0,0.1));
#616=B_SPLINE_SURFACE_WITH_KNOTS('',1,1,((#612,#614),(#613,#615)),.UNSPECIFIED.,.F.,.F.,.U.,(2,2),(2,2),(0.0,0.100000000000004),(0.0,1.300000000000001),.UNSPECIFIED.);
#617=CARTESIAN_POINT('',(-3.05,1.0,0.099999999999996));
#618=VERTEX_POINT('',#617);
#619=CARTESIAN_POINT('',(-1.75,1.0,0.099999999999998));
#620=DIRECTION('',(-1.0,0.0,0.0));
#621=VECTOR('',#620,1.3);
#622=LINE('',#619,#621);
#623=EDGE_CURVE('',#587,#618,#622,.T.);
#624=ORIENTED_EDGE('',*,*,#623,.F.);
#625=ORIENTED_EDGE('',*,*,#607,.F.);
#626=CARTESIAN_POINT('',(-3.05,1.0,-4.063416E-015));
#627=VERTEX_POINT('',#626);
#628=CARTESIAN_POINT('',(-1.75,1.0,-2.331468E-015));
#629=DIRECTION('',(-1.0,0.0,0.0));
#630=VECTOR('',#629,1.3);
#631=LINE('',#628,#630);
#632=EDGE_CURVE('',#596,#627,#631,.T.);
#633=ORIENTED_EDGE('',*,*,#632,.T.);
#634=CARTESIAN_POINT('',(-3.05,1.0,-4.063416E-015));
#635=DIRECTION('',(0.0,0.0,1.0));
#636=VECTOR('',#635,0.1);
#637=LINE('',#634,#636);
#638=EDGE_CURVE('',#627,#618,#637,.T.);
#639=ORIENTED_EDGE('',*,*,#638,.T.);
#640=EDGE_LOOP('',(#624,#625,#633,#639));
#641=FACE_OUTER_BOUND('',#640,.T.);
#642=ADVANCED_FACE('',(#641),#616,.T.);
#643=CARTESIAN_POINT('',(-3.05,1.0,0.099999999999996));
#644=CARTESIAN_POINT('',(-3.05,1.0,-4.066192E-015));
#645=CARTESIAN_POINT('',(-3.05,-1.0,0.099999999999996));
#646=CARTESIAN_POINT('',(-3.05,-1.0,-4.066192E-015));
#647=B_SPLINE_SURFACE_WITH_KNOTS('',1,1,((#643,#645),(#644,#646)),.UNSPECIFIED.,.F.,.F.,.U.,(2,2),(2,2),(0.0,0.1),(0.0,2.0),.UNSPECIFIED.);
#648=CARTESIAN_POINT('',(-3.05,1.0,0.099999999999996));
#649=DIRECTION('',(0.0,-1.0,0.0));
#650=VECTOR('',#649,2.0);
#651=LINE('',#648,#650);
#652=EDGE_CURVE('',#618,#547,#651,.T.);
#653=ORIENTED_EDGE('',*,*,#652,.F.);
#654=ORIENTED_EDGE('',*,*,#638,.F.);
#655=CARTESIAN_POINT('',(-3.05,1.0,-4.063416E-015));
#656=DIRECTION('',(0.0,-1.0,0.0));
#657=VECTOR('',#656,2.0);
#658=LINE('',#655,#657);
#659=EDGE_CURVE('',#627,#557,#658,.T.);
#660=ORIENTED_EDGE('',*,*,#659,.T.);
#661=ORIENTED_EDGE('',*,*,#562,.T.);
#662=EDGE_LOOP('',(#653,#654,#660,#661));
#663=FACE_OUTER_BOUND('',#662,.T.);
#664=ADVANCED_FACE('',(#663),#647,.T.);
#665=CARTESIAN_POINT('',(-1.75,1.0,0.099999999999998));
#666=CARTESIAN_POINT('',(-3.050000000000001,1.0,0.099999999999996));
#667=CARTESIAN_POINT('',(-1.75,-1.0,0.099999999999998));
#668=CARTESIAN_POINT('',(-3.050000000000001,-1.0,0.099999999999996));
#669=B_SPLINE_SURFACE_WITH_KNOTS('',1,1,((#665,#667),(#666,#668)),.UNSPECIFIED.,.F.,.F.,.U.,(2,2),(2,2),(0.0,1.300000000000001),(0.0,2.0),.UNSPECIFIED.);
#670=ORIENTED_EDGE('',*,*,#554,.T.);
#671=ORIENTED_EDGE('',*,*,#592,.T.);
#672=ORIENTED_EDGE('',*,*,#623,.T.);
#673=ORIENTED_EDGE('',*,*,#652,.T.);
#674=EDGE_LOOP('',(#670,#671,#672,#673));
#675=FACE_OUTER_BOUND('',#674,.T.);
#676=ADVANCED_FACE('',(#675),#669,.T.);
#677=CARTESIAN_POINT('',(-1.75,1.0,-2.331468E-015));
#678=CARTESIAN_POINT('',(-3.05,1.0,-4.063416E-015));
#679=CARTESIAN_POINT('',(-1.75,-1.0,-2.331468E-015));
#680=CARTESIAN_POINT('',(-3.050000000000001,-1.0,-4.063416E-015));
#681=B_SPLINE_SURFACE_WITH_KNOTS('',1,1,((#677,#679),(#678,#680)),.UNSPECIFIED.,.F.,.F.,.U.,(2,2),(2,2),(0.0,1.3),(0.0,2.0),.UNSPECIFIED.);
#682=ORIENTED_EDGE('',*,*,#659,.F.);
#683=ORIENTED_EDGE('',*,*,#632,.F.);
#684=ORIENTED_EDGE('',*,*,#601,.F.);
#685=ORIENTED_EDGE('',*,*,#570,.F.);
#686=EDGE_LOOP('',(#682,#683,#684,#685));
#687=FACE_OUTER_BOUND('',#686,.T.);
#688=ADVANCED_FACE('',(#687),#681,.F.);
#689=CLOSED_SHELL('',(#580,#611,#642,#664,#676,#688));
#690=MANIFOLD_SOLID_BREP('4BB',#689);
#691=STYLED_ITEM('NONE',(#539),#690);
#692=CARTESIAN_POINT('',(3.05,-1.0,-3.330669E-016));
#693=DIRECTION('',(0.0,-1.0,0.0));
#694=DIRECTION('',(0.0,0.0,-1.0));
#695=AXIS2_PLACEMENT_3D('',#692,#693,#694);
#696=PLANE('',#695);
#697=CARTESIAN_POINT('',(3.15,-1.0,-3.297528E-016));
#698=VERTEX_POINT('',#697);
#699=CARTESIAN_POINT('',(3.15,-1.0,1.0));
#700=VERTEX_POINT('',#699);
#701=CARTESIAN_POINT('',(3.15,-1.0,-3.297528E-016));
#702=DIRECTION('',(0.0,0.0,1.0));
#703=VECTOR('',#702,1.0);
#704=LINE('',#701,#703);
#705=EDGE_CURVE('',#698,#700,#704,.T.);
#706=ORIENTED_EDGE('',*,*,#705,.T.);
#707=CARTESIAN_POINT('',(3.05,-1.0,1.0));
#708=VERTEX_POINT('',#707);
#709=CARTESIAN_POINT('',(3.05,-1.0,1.0));
#710=DIRECTION('',(1.0,0.0,0.0));
#711=VECTOR('',#710,0.1);
#712=LINE('',#709,#711);
#713=EDGE_CURVE('',#708,#700,#712,.T.);
#714=ORIENTED_EDGE('',*,*,#713,.F.);
#715=CARTESIAN_POINT('',(3.05,-1.0,-3.330669E-016));
#716=VERTEX_POINT('',#715);
#717=CARTESIAN_POINT('',(3.05,-1.0,-3.330669E-016));
#718=DIRECTION('',(0.0,0.0,1.0));
#719=VECTOR('',#718,1.0);
#720=LINE('',#717,#719);
#721=EDGE_CURVE('',#716,#708,#720,.T.);
#722=ORIENTED_EDGE('',*,*,#721,.F.);
#723=CARTESIAN_POINT('',(3.05,-1.0,-3.330669E-016));
#724=DIRECTION('',(1.0,0.0,0.0));
#725=VECTOR('',#724,0.1);
#726=LINE('',#723,#725);
#727=EDGE_CURVE('',#716,#698,#726,.T.);
#728=ORIENTED_EDGE('',*,*,#727,.T.);
#729=EDGE_LOOP('',(#706,#714,#722,#728));
#730=FACE_OUTER_BOUND('',#729,.T.);
#731=ADVANCED_FACE('',(#730),#696,.T.);
#732=CARTESIAN_POINT('',(3.05,-1.0,1.0));
#733=DIRECTION('',(0.0,0.0,1.0));
#734=DIRECTION('',(1.0,0.0,0.0));
#735=AXIS2_PLACEMENT_3D('',#732,#733,#734);
#736=PLANE('',#735);
#737=CARTESIAN_POINT('',(3.15,1.0,1.0));
#738=VERTEX_POINT('',#737);
#739=CARTESIAN_POINT('',(3.15,-1.0,1.0));
#740=DIRECTION('',(0.0,1.0,0.0));
#741=VECTOR('',#740,2.0);
#742=LINE('',#739,#741);
#743=EDGE_CURVE('',#700,#738,#742,.T.);
#744=ORIENTED_EDGE('',*,*,#743,.T.);
#745=CARTESIAN_POINT('',(3.05,1.0,1.0));
#746=VERTEX_POINT('',#745);
#747=CARTESIAN_POINT('',(3.05,1.0,1.0));
#748=DIRECTION('',(1.0,0.0,0.0));
#749=VECTOR('',#748,0.1);
#750=LINE('',#747,#749);
#751=EDGE_CURVE('',#746,#738,#750,.T.);
#752=ORIENTED_EDGE('',*,*,#751,.F.);
#753=CARTESIAN_POINT('',(3.05,-1.0,1.0));
#754=DIRECTION('',(0.0,1.0,0.0));
#755=VECTOR('',#754,2.0);
#756=LINE('',#753,#755);
#757=EDGE_CURVE('',#708,#746,#756,.T.);
#758=ORIENTED_EDGE('',*,*,#757,.F.);
#759=ORIENTED_EDGE('',*,*,#713,.T.);
#760=EDGE_LOOP('',(#744,#752,#758,#759));
#761=FACE_OUTER_BOUND('',#760,.T.);
#762=ADVANCED_FACE('',(#761),#736,.T.);
#763=CARTESIAN_POINT('',(3.05,1.0,1.0));
#764=DIRECTION('',(0.0,1.0,0.0));
#765=DIRECTION('',(0.0,0.0,1.0));
#766=AXIS2_PLACEMENT_3D('',#763,#764,#765);
#767=PLANE('',#766);
#768=CARTESIAN_POINT('',(3.15,1.0,-3.297528E-016));
#769=VERTEX_POINT('',#768);
#770=CARTESIAN_POINT('',(3.15,1.0,1.0));
#771=DIRECTION('',(0.0,0.0,-1.0));
#772=VECTOR('',#771,1.0);
#773=LINE('',#770,#772);
#774=EDGE_CURVE('',#738,#769,#773,.T.);
#775=ORIENTED_EDGE('',*,*,#774,.T.);
#776=CARTESIAN_POINT('',(3.05,1.0,-3.330669E-016));
#777=VERTEX_POINT('',#776);
#778=CARTESIAN_POINT('',(3.05,1.0,-3.330669E-016));
#779=DIRECTION('',(1.0,0.0,0.0));
#780=VECTOR('',#779,0.1);
#781=LINE('',#778,#780);
#782=EDGE_CURVE('',#777,#769,#781,.T.);
#783=ORIENTED_EDGE('',*,*,#782,.F.);
#784=CARTESIAN_POINT('',(3.05,1.0,1.0));
#785=DIRECTION('',(0.0,0.0,-1.0));
#786=VECTOR('',#785,1.0);
#787=LINE('',#784,#786);
#788=EDGE_CURVE('',#746,#777,#787,.T.);
#789=ORIENTED_EDGE('',*,*,#788,.F.);
#790=ORIENTED_EDGE('',*,*,#751,.T.);
#791=EDGE_LOOP('',(#775,#783,#789,#790));
#792=FACE_OUTER_BOUND('',#791,.T.);
#793=ADVANCED_FACE('',(#792),#767,.T.);
#794=CARTESIAN_POINT('',(3.05,1.0,-3.330669E-016));
#795=DIRECTION('',(0.0,0.0,-1.0));
#796=DIRECTION('',(-1.0,0.0,0.0));
#797=AXIS2_PLACEMENT_3D('',#794,#795,#796);
#798=PLANE('',#797);
#799=CARTESIAN_POINT('',(3.15,1.0,-3.297528E-016));
#800=DIRECTION('',(0.0,-1.0,0.0));
#801=VECTOR('',#800,2.0);
#802=LINE('',#799,#801);
#803=EDGE_CURVE('',#769,#698,#802,.T.);
#804=ORIENTED_EDGE('',*,*,#803,.T.);
#805=ORIENTED_EDGE('',*,*,#727,.F.);
#806=CARTESIAN_POINT('',(3.05,1.0,-3.330669E-016));
#807=DIRECTION('',(0.0,-1.0,0.0));
#808=VECTOR('',#807,2.0);
#809=LINE('',#806,#808);
#810=EDGE_CURVE('',#777,#716,#809,.T.);
#811=ORIENTED_EDGE('',*,*,#810,.F.);
#812=ORIENTED_EDGE('',*,*,#782,.T.);
#813=EDGE_LOOP('',(#804,#805,#811,#812));
#814=FACE_OUTER_BOUND('',#813,.T.);
#815=ADVANCED_FACE('',(#814),#798,.T.);
#816=CARTESIAN_POINT('',(3.15,0.0,0.5));
#817=DIRECTION('',(1.0,0.0,0.0));
#818=DIRECTION('',(0.0,0.0,-1.0));
#819=AXIS2_PLACEMENT_3D('',#816,#817,#818);
#820=PLANE('',#819);
#821=ORIENTED_EDGE('',*,*,#705,.F.);
#822=ORIENTED_EDGE('',*,*,#803,.F.);
#823=ORIENTED_EDGE('',*,*,#774,.F.);
#824=ORIENTED_EDGE('',*,*,#743,.F.);
#825=EDGE_LOOP('',(#821,#822,#823,#824));
#826=FACE_OUTER_BOUND('',#825,.T.);
#827=ADVANCED_FACE('',(#826),#820,.T.);
#828=CARTESIAN_POINT('',(3.05,0.0,0.5));
#829=DIRECTION('',(1.0,0.0,0.0));
#830=DIRECTION('',(0.0,0.0,-1.0));
#831=AXIS2_PLACEMENT_3D('',#828,#829,#830);
#832=PLANE('',#831);
#833=ORIENTED_EDGE('',*,*,#810,.T.);
#834=ORIENTED_EDGE('',*,*,#721,.T.);
#835=ORIENTED_EDGE('',*,*,#757,.T.);
#836=ORIENTED_EDGE('',*,*,#788,.T.);
#837=EDGE_LOOP('',(#833,#834,#835,#836));
#838=FACE_OUTER_BOUND('',#837,.T.);
#839=ADVANCED_FACE('',(#838),#832,.F.);
#840=CLOSED_SHELL('',(#731,#762,#793,#815,#827,#839));
#841=MANIFOLD_SOLID_BREP('4B6',#840);
#842=STYLED_ITEM('NONE',(#539),#841);
#843=CARTESIAN_POINT('',(3.05,-1.0,1.354472E-015));
#844=DIRECTION('',(0.0,-1.0,0.0));
#845=DIRECTION('',(0.0,0.0,-1.0));
#846=AXIS2_PLACEMENT_3D('',#843,#844,#845);
#847=PLANE('',#846);
#848=CARTESIAN_POINT('',(3.05,-1.0,0.100000000000001));
#849=VERTEX_POINT('',#848);
#850=CARTESIAN_POINT('',(1.75,-1.0,0.100000000000001));
#851=VERTEX_POINT('',#850);
#852=CARTESIAN_POINT('',(3.05,-1.0,0.100000000000001));
#853=DIRECTION('',(-1.0,0.0,0.0));
#854=VECTOR('',#853,1.3);
#855=LINE('',#852,#854);
#856=EDGE_CURVE('',#849,#851,#855,.T.);
#857=ORIENTED_EDGE('',*,*,#856,.T.);
#858=CARTESIAN_POINT('',(1.75,-1.0,7.771561E-016));
#859=VERTEX_POINT('',#858);
#860=CARTESIAN_POINT('',(1.75,-1.0,7.771561E-016));
#861=DIRECTION('',(0.0,0.0,1.0));
#862=VECTOR('',#861,0.1);
#863=LINE('',#860,#862);
#864=EDGE_CURVE('',#859,#851,#863,.T.);
#865=ORIENTED_EDGE('',*,*,#864,.F.);
#866=CARTESIAN_POINT('',(3.05,-1.0,1.354472E-015));
#867=VERTEX_POINT('',#866);
#868=CARTESIAN_POINT('',(3.05,-1.0,1.354472E-015));
#869=DIRECTION('',(-1.0,0.0,0.0));
#870=VECTOR('',#869,1.3);
#871=LINE('',#868,#870);
#872=EDGE_CURVE('',#867,#859,#871,.T.);
#873=ORIENTED_EDGE('',*,*,#872,.F.);
#874=CARTESIAN_POINT('',(3.05,-1.0,1.354472E-015));
#875=DIRECTION('',(0.0,0.0,1.0));
#876=VECTOR('',#875,0.1);
#877=LINE('',#874,#876);
#878=EDGE_CURVE('',#867,#849,#877,.T.);
#879=ORIENTED_EDGE('',*,*,#878,.T.);
#880=EDGE_LOOP('',(#857,#865,#873,#879));
#881=FACE_OUTER_BOUND('',#880,.T.);
#882=ADVANCED_FACE('',(#881),#847,.T.);
#883=CARTESIAN_POINT('',(1.75,-1.0,7.771561E-016));
#884=DIRECTION('',(-1.0,0.0,0.0));
#885=DIRECTION('',(0.0,0.0,1.0));
#886=AXIS2_PLACEMENT_3D('',#883,#884,#885);
#887=PLANE('',#886);
#888=CARTESIAN_POINT('',(1.75,1.0,0.100000000000001));
#889=VERTEX_POINT('',#888);
#890=CARTESIAN_POINT('',(1.75,-1.0,0.100000000000001));
#891=DIRECTION('',(0.0,1.0,0.0));
#892=VECTOR('',#891,2.0);
#893=LINE('',#890,#892);
#894=EDGE_CURVE('',#851,#889,#893,.T.);
#895=ORIENTED_EDGE('',*,*,#894,.T.);
#896=CARTESIAN_POINT('',(1.75,1.0,7.771561E-016));
#897=VERTEX_POINT('',#896);
#898=CARTESIAN_POINT('',(1.75,1.0,7.771561E-016));
#899=DIRECTION('',(0.0,0.0,1.0));
#900=VECTOR('',#899,0.1);
#901=LINE('',#898,#900);
#902=EDGE_CURVE('',#897,#889,#901,.T.);
#903=ORIENTED_EDGE('',*,*,#902,.F.);
#904=CARTESIAN_POINT('',(1.75,-1.0,7.771561E-016));
#905=DIRECTION('',(0.0,1.0,0.0));
#906=VECTOR('',#905,2.0);
#907=LINE('',#904,#906);
#908=EDGE_CURVE('',#859,#897,#907,.T.);
#909=ORIENTED_EDGE('',*,*,#908,.F.);
#910=ORIENTED_EDGE('',*,*,#864,.T.);
#911=EDGE_LOOP('',(#895,#903,#909,#910));
#912=FACE_OUTER_BOUND('',#911,.T.);
#913=ADVANCED_FACE('',(#912),#887,.T.);
#914=CARTESIAN_POINT('',(1.75,1.0,7.771561E-016));
#915=DIRECTION('',(0.0,1.0,0.0));
#916=DIRECTION('',(0.0,0.0,1.0));
#917=AXIS2_PLACEMENT_3D('',#914,#915,#916);
#918=PLANE('',#917);
#919=CARTESIAN_POINT('',(3.05,1.0,0.100000000000001));
#920=VERTEX_POINT('',#919);
#921=CARTESIAN_POINT('',(1.75,1.0,0.100000000000001));
#922=DIRECTION('',(1.0,0.0,0.0));
#923=VECTOR('',#922,1.3);
#924=LINE('',#921,#923);
#925=EDGE_CURVE('',#889,#920,#924,.T.);
#926=ORIENTED_EDGE('',*,*,#925,.T.);
#927=CARTESIAN_POINT('',(3.05,1.0,1.354472E-015));
#928=VERTEX_POINT('',#927);
#929=CARTESIAN_POINT('',(3.05,1.0,1.354472E-015));
#930=DIRECTION('',(0.0,0.0,1.0));
#931=VECTOR('',#930,0.1);
#932=LINE('',#929,#931);
#933=EDGE_CURVE('',#928,#920,#932,.T.);
#934=ORIENTED_EDGE('',*,*,#933,.F.);
#935=CARTESIAN_POINT('',(1.75,1.0,7.771561E-016));
#936=DIRECTION('',(1.0,0.0,0.0));
#937=VECTOR('',#936,1.3);
#938=LINE('',#935,#937);
#939=EDGE_CURVE('',#897,#928,#938,.T.);
#940=ORIENTED_EDGE('',*,*,#939,.F.);
#941=ORIENTED_EDGE('',*,*,#902,.T.);
#942=EDGE_LOOP('',(#926,#934,#940,#941));
#943=FACE_OUTER_BOUND('',#942,.T.);
#944=ADVANCED_FACE('',(#943),#918,.T.);
#945=CARTESIAN_POINT('',(3.05,1.0,1.354472E-015));
#946=DIRECTION('',(1.0,0.0,0.0));
#947=DIRECTION('',(0.0,0.0,-1.0));
#948=AXIS2_PLACEMENT_3D('',#945,#946,#947);
#949=PLANE('',#948);
#950=CARTESIAN_POINT('',(3.05,1.0,0.100000000000001));
#951=DIRECTION('',(0.0,-1.0,0.0));
#952=VECTOR('',#951,2.0);
#953=LINE('',#950,#952);
#954=EDGE_CURVE('',#920,#849,#953,.T.);
#955=ORIENTED_EDGE('',*,*,#954,.T.);
#956=ORIENTED_EDGE('',*,*,#878,.F.);
#957=CARTESIAN_POINT('',(3.05,1.0,1.354472E-015));
#958=DIRECTION('',(0.0,-1.0,0.0));
#959=VECTOR('',#958,2.0);
#960=LINE('',#957,#959);
#961=EDGE_CURVE('',#928,#867,#960,.T.);
#962=ORIENTED_EDGE('',*,*,#961,.F.);
#963=ORIENTED_EDGE('',*,*,#933,.T.);
#964=EDGE_LOOP('',(#955,#956,#962,#963));
#965=FACE_OUTER_BOUND('',#964,.T.);
#966=ADVANCED_FACE('',(#965),#949,.T.);
#967=CARTESIAN_POINT('',(2.4,0.0,0.100000000000001));
#968=DIRECTION('',(0.0,0.0,1.0));
#969=DIRECTION('',(1.0,0.0,0.0));
#970=AXIS2_PLACEMENT_3D('',#967,#968,#969);
#971=PLANE('',#970);
#972=ORIENTED_EDGE('',*,*,#856,.F.);
#973=ORIENTED_EDGE('',*,*,#954,.F.);
#974=ORIENTED_EDGE('',*,*,#925,.F.);
#975=ORIENTED_EDGE('',*,*,#894,.F.);
#976=EDGE_LOOP('',(#972,#973,#974,#975));
#977=FACE_OUTER_BOUND('',#976,.T.);
#978=ADVANCED_FACE('',(#977),#971,.T.);
#979=CARTESIAN_POINT('',(2.4,0.0,1.065814E-015));
#980=DIRECTION('',(0.0,0.0,1.0));
#981=DIRECTION('',(1.0,0.0,0.0));
#982=AXIS2_PLACEMENT_3D('',#979,#980,#981);
#983=PLANE('',#982);
#984=ORIENTED_EDGE('',*,*,#961,.T.);
#985=ORIENTED_EDGE('',*,*,#872,.T.);
#986=ORIENTED_EDGE('',*,*,#908,.T.);
#987=ORIENTED_EDGE('',*,*,#939,.T.);
#988=EDGE_LOOP('',(#984,#985,#986,#987));
#989=FACE_OUTER_BOUND('',#988,.T.);
#990=ADVANCED_FACE('',(#989),#983,.F.);
#991=CLOSED_SHELL('',(#882,#913,#944,#966,#978,#990));
#992=MANIFOLD_SOLID_BREP('4B3',#991);
#993=STYLED_ITEM('NONE',(#539),#992);
#994=CARTESIAN_POINT('',(7.209240E-018,2.220446E-016,2.8));
#995=DIRECTION('',(0.0,0.0,1.0));
#996=DIRECTION('',(1.0,0.0,0.0));
#997=AXIS2_PLACEMENT_3D('',#994,#995,#996);
#998=PLANE('',#997);
#999=CARTESIAN_POINT('',(-2.950000000000001,-1.55,2.8));
#1000=VERTEX_POINT('',#999);
#1001=CARTESIAN_POINT('',(-2.95,1.550000000000001,2.8));
#1002=VERTEX_POINT('',#1001);
#1003=CARTESIAN_POINT('',(-2.95,-1.55,2.8));
#1004=DIRECTION('',(0.0,1.0,0.0));
#1005=VECTOR('',#1004,3.100000000000001);
#1006=LINE('',#1003,#1005);
#1007=EDGE_CURVE('',#1000,#1002,#1006,.T.);
#1008=ORIENTED_EDGE('',*,*,#1007,.F.);
#1009=CARTESIAN_POINT('',(-2.05,-1.55,2.8));
#1010=VERTEX_POINT('',#1009);
#1011=CARTESIAN_POINT('',(-2.05,-1.55,2.8));
#1012=DIRECTION('',(-1.0,0.0,0.0));
#1013=VECTOR('',#1012,0.9);
#1014=LINE('',#1011,#1013);
#1015=EDGE_CURVE('',#1010,#1000,#1014,.T.);
#1016=ORIENTED_EDGE('',*,*,#1015,.F.);
#1017=CARTESIAN_POINT('',(-2.05,1.55,2.8));
#1018=VERTEX_POINT('',#1017);
#1019=CARTESIAN_POINT('',(-2.05,-1.55,2.8));
#1020=DIRECTION('',(0.0,1.0,0.0));
#1021=VECTOR('',#1020,3.1);
#1022=LINE('',#1019,#1021);
#1023=EDGE_CURVE('',#1010,#1018,#1022,.T.);
#1024=ORIENTED_EDGE('',*,*,#1023,.T.);
#1025=CARTESIAN_POINT('',(-2.95,1.55,2.8));
#1026=DIRECTION('',(1.0,0.0,0.0));
#1027=VECTOR('',#1026,0.9);
#1028=LINE('',#1025,#1027);
#1029=EDGE_CURVE('',#1002,#1018,#1028,.T.);
#1030=ORIENTED_EDGE('',*,*,#1029,.F.);
#1031=EDGE_LOOP('',(#1008,#1016,#1024,#1030));
#1032=FACE_OUTER_BOUND('',#1031,.T.);
#1033=ADVANCED_FACE('',(#1032),#998,.T.);
#1034=CARTESIAN_POINT('',(-1.45,-1.55,2.8));
#1035=DIRECTION('',(1.0,0.0,0.0));
#1036=DIRECTION('',(0.0,0.0,-1.0));
#1037=AXIS2_PLACEMENT_3D('',#1034,#1035,#1036);
#1038=PLANE('',#1037);
#1039=CARTESIAN_POINT('',(-1.45,-1.55,2.700000000000001));
#1040=VERTEX_POINT('',#1039);
#1041=CARTESIAN_POINT('',(-1.45,1.550000000000001,2.700000000000001));
#1042=VERTEX_POINT('',#1041);
#1043=CARTESIAN_POINT('',(-1.45,-1.55,2.7));
#1044=DIRECTION('',(0.0,1.0,0.0));
#1045=VECTOR('',#1044,3.100000000000001);
#1046=LINE('',#1043,#1045);
#1047=EDGE_CURVE('',#1040,#1042,#1046,.T.);
#1048=ORIENTED_EDGE('',*,*,#1047,.F.);
#1049=CARTESIAN_POINT('',(-1.45,-1.55,2.8));
#1050=VERTEX_POINT('',#1049);
#1051=CARTESIAN_POINT('',(-1.45,-1.55,2.8));
#1052=DIRECTION('',(0.0,0.0,-1.0));
#1053=VECTOR('',#1052,0.099999999999999);
#1054=LINE('',#1051,#1053);
#1055=EDGE_CURVE('',#1050,#1040,#1054,.T.);
#1056=ORIENTED_EDGE('',*,*,#1055,.F.);
#1057=CARTESIAN_POINT('',(-1.45,1.550000000000001,2.8));
#1058=VERTEX_POINT('',#1057);
#1059=CARTESIAN_POINT('',(-1.45,1.550000000000001,2.8));
#1060=DIRECTION('',(0.0,-1.0,0.0));
#1061=VECTOR('',#1060,3.100000000000001);
#1062=LINE('',#1059,#1061);
#1063=EDGE_CURVE('',#1058,#1050,#1062,.T.);
#1064=ORIENTED_EDGE('',*,*,#1063,.F.);
#1065=CARTESIAN_POINT('',(-1.45,1.550000000000001,2.8));
#1066=DIRECTION('',(0.0,0.0,-1.0));
#1067=VECTOR('',#1066,0.099999999999999);
#1068=LINE('',#1065,#1067);
#1069=EDGE_CURVE('',#1058,#1042,#1068,.T.);
#1070=ORIENTED_EDGE('',*,*,#1069,.T.);
#1071=EDGE_LOOP('',(#1048,#1056,#1064,#1070));
#1072=FACE_OUTER_BOUND('',#1071,.T.);
#1073=ADVANCED_FACE('',(#1072),#1038,.F.);
#1074=CARTESIAN_POINT('',(7.209240E-018,2.220446E-016,2.8));
#1075=DIRECTION('',(0.0,0.0,1.0));
#1076=DIRECTION('',(1.0,0.0,0.0));
#1077=AXIS2_PLACEMENT_3D('',#1074,#1075,#1076);
#1078=PLANE('',#1077);
#1079=ORIENTED_EDGE('',*,*,#1063,.T.);
#1080=CARTESIAN_POINT('',(2.95,-1.55,2.8));
#1081=VERTEX_POINT('',#1080);
#1082=CARTESIAN_POINT('',(2.95,-1.55,2.8));
#1083=DIRECTION('',(-1.0,0.0,0.0));
#1084=VECTOR('',#1083,4.4);
#1085=LINE('',#1082,#1084);
#1086=EDGE_CURVE('',#1081,#1050,#1085,.T.);
#1087=ORIENTED_EDGE('',*,*,#1086,.F.);
#1088=CARTESIAN_POINT('',(2.95,1.55,2.8));
#1089=VERTEX_POINT('',#1088);
#1090=CARTESIAN_POINT('',(2.95,1.55,2.8));
#1091=DIRECTION('',(0.0,-1.0,0.0));
#1092=VECTOR('',#1091,3.1);
#1093=LINE('',#1090,#1092);
#1094=EDGE_CURVE('',#1089,#1081,#1093,.T.);
#1095=ORIENTED_EDGE('',*,*,#1094,.F.);
#1096=CARTESIAN_POINT('',(-1.45,1.55,2.8));
#1097=DIRECTION('',(1.0,0.0,0.0));
#1098=VECTOR('',#1097,4.4);
#1099=LINE('',#1096,#1098);
#1100=EDGE_CURVE('',#1058,#1089,#1099,.T.);
#1101=ORIENTED_EDGE('',*,*,#1100,.F.);
#1102=EDGE_LOOP('',(#1079,#1087,#1095,#1101));
#1103=FACE_OUTER_BOUND('',#1102,.T.);
#1104=ADVANCED_FACE('',(#1103),#1078,.T.);
#1105=CARTESIAN_POINT('',(-2.05,-1.55,2.8));
#1106=DIRECTION('',(0.0,-1.0,0.0));
#1107=DIRECTION('',(0.0,0.0,-1.0));
#1108=AXIS2_PLACEMENT_3D('',#1105,#1106,#1107);
#1109=PLANE('',#1108);
#1110=CARTESIAN_POINT('',(-2.05,-1.55,2.700000000000001));
#1111=VERTEX_POINT('',#1110);
#1112=CARTESIAN_POINT('',(-2.05,-1.55,2.7));
#1113=DIRECTION('',(1.0,0.0,0.0));
#1114=VECTOR('',#1113,0.6);
#1115=LINE('',#1112,#1114);
#1116=EDGE_CURVE('',#1111,#1040,#1115,.T.);
#1117=ORIENTED_EDGE('',*,*,#1116,.F.);
#1118=CARTESIAN_POINT('',(-2.05,-1.55,2.8));
#1119=DIRECTION('',(0.0,0.0,-1.0));
#1120=VECTOR('',#1119,0.099999999999999);
#1121=LINE('',#1118,#1120);
#1122=EDGE_CURVE('',#1010,#1111,#1121,.T.);
#1123=ORIENTED_EDGE('',*,*,#1122,.F.);
#1124=CARTESIAN_POINT('',(-1.45,-1.55,2.8));
#1125=DIRECTION('',(-1.0,0.0,0.0));
#1126=VECTOR('',#1125,0.6);
#1127=LINE('',#1124,#1126);
#1128=EDGE_CURVE('',#1050,#1010,#1127,.T.);
#1129=ORIENTED_EDGE('',*,*,#1128,.F.);
#1130=ORIENTED_EDGE('',*,*,#1055,.T.);
#1131=EDGE_LOOP('',(#1117,#1123,#1129,#1130));
#1132=FACE_OUTER_BOUND('',#1131,.T.);
#1133=ADVANCED_FACE('',(#1132),#1109,.F.);
#1134=CARTESIAN_POINT('',(-1.65,1.55,2.8));
#1135=DIRECTION('',(0.0,1.0,0.0));
#1136=DIRECTION('',(0.0,0.0,1.0));
#1137=AXIS2_PLACEMENT_3D('',#1134,#1135,#1136);
#1138=PLANE('',#1137);
#1139=CARTESIAN_POINT('',(-2.05,1.55,2.700000000000001));
#1140=VERTEX_POINT('',#1139);
#1141=CARTESIAN_POINT('',(-1.45,1.550000000000001,2.7));
#1142=DIRECTION('',(-1.0,0.0,0.0));
#1143=VECTOR('',#1142,0.6);
#1144=LINE('',#1141,#1143);
#1145=EDGE_CURVE('',#1042,#1140,#1144,.T.);
#1146=ORIENTED_EDGE('',*,*,#1145,.F.);
#1147=ORIENTED_EDGE('',*,*,#1069,.F.);
#1148=CARTESIAN_POINT('',(-2.05,1.55,2.8));
#1149=DIRECTION('',(1.0,0.0,0.0));
#1150=VECTOR('',#1149,0.6);
#1151=LINE('',#1148,#1150);
#1152=EDGE_CURVE('',#1018,#1058,#1151,.T.);
#1153=ORIENTED_EDGE('',*,*,#1152,.F.);
#1154=CARTESIAN_POINT('',(-2.05,1.55,2.8));
#1155=DIRECTION('',(0.0,0.0,-1.0));
#1156=VECTOR('',#1155,0.099999999999999);
#1157=LINE('',#1154,#1156);
#1158=EDGE_CURVE('',#1018,#1140,#1157,.T.);
#1159=ORIENTED_EDGE('',*,*,#1158,.T.);
#1160=EDGE_LOOP('',(#1146,#1147,#1153,#1159));
#1161=FACE_OUTER_BOUND('',#1160,.T.);
#1162=ADVANCED_FACE('',(#1161),#1138,.F.);
#1163=CARTESIAN_POINT('',(-2.05,1.55,2.8));
#1164=DIRECTION('',(-1.0,0.0,0.0));
#1165=DIRECTION('',(0.0,0.0,1.0));
#1166=AXIS2_PLACEMENT_3D('',#1163,#1164,#1165);
#1167=PLANE('',#1166);
#1168=CARTESIAN_POINT('',(-2.05,1.55,2.7));
#1169=DIRECTION('',(0.0,-1.0,0.0));
#1170=VECTOR('',#1169,3.1);
#1171=LINE('',#1168,#1170);
#1172=EDGE_CURVE('',#1140,#1111,#1171,.T.);
#1173=ORIENTED_EDGE('',*,*,#1172,.F.);
#1174=ORIENTED_EDGE('',*,*,#1158,.F.);
#1175=ORIENTED_EDGE('',*,*,#1023,.F.);
#1176=ORIENTED_EDGE('',*,*,#1122,.T.);
#1177=EDGE_LOOP('',(#1173,#1174,#1175,#1176));
#1178=FACE_OUTER_BOUND('',#1177,.T.);
#1179=ADVANCED_FACE('',(#1178),#1167,.F.);
#1180=CARTESIAN_POINT('',(-1.85,2.498002E-016,2.700000000000001));
#1181=DIRECTION('',(0.0,0.0,1.0));
#1182=DIRECTION('',(1.0,0.0,0.0));
#1183=AXIS2_PLACEMENT_3D('',#1180,#1181,#1182);
#1184=PLANE('',#1183);
#1185=ORIENTED_EDGE('',*,*,#1116,.T.);
#1186=ORIENTED_EDGE('',*,*,#1047,.T.);
#1187=ORIENTED_EDGE('',*,*,#1145,.T.);
#1188=ORIENTED_EDGE('',*,*,#1172,.T.);
#1189=EDGE_LOOP('',(#1185,#1186,#1187,#1188));
#1190=FACE_OUTER_BOUND('',#1189,.T.);
#1191=ADVANCED_FACE('',(#1190),#1184,.T.);
#1192=CARTESIAN_POINT('',(-1.575,1.65,1.9));
#1193=DIRECTION('',(0.0,0.993883734673619,0.110431526074847));
#1194=DIRECTION('',(0.0,-0.110431526074847,0.993883734673619));
#1195=AXIS2_PLACEMENT_3D('',#1192,#1193,#1194);
#1196=PLANE('',#1195);
#1197=CARTESIAN_POINT('',(-3.15,1.75,1.0));
#1198=VERTEX_POINT('',#1197);
#1199=CARTESIAN_POINT('',(-2.95,1.550000000000001,2.8));
#1200=DIRECTION('',(-0.10976425998969,0.10976425998969,-0.987878339907213));
#1201=VECTOR('',#1200,1.82208671582886);
#1202=LINE('',#1199,#1201);
#1203=EDGE_CURVE('',#1002,#1198,#1202,.T.);
#1204=ORIENTED_EDGE('',*,*,#1203,.F.);
#1205=ORIENTED_EDGE('',*,*,#1029,.T.);
#1206=ORIENTED_EDGE('',*,*,#1152,.T.);
#1207=ORIENTED_EDGE('',*,*,#1100,.T.);
#1208=CARTESIAN_POINT('',(3.15,1.75,1.0));
#1209=VERTEX_POINT('',#1208);
#1210=CARTESIAN_POINT('',(2.950000000000001,1.55,2.8));
#1211=DIRECTION('',(0.10976425998969,0.10976425998969,-0.987878339907213));
#1212=VECTOR('',#1211,1.82208671582886);
#1213=LINE('',#1210,#1212);
#1214=EDGE_CURVE('',#1089,#1209,#1213,.T.);
#1215=ORIENTED_EDGE('',*,*,#1214,.T.);
#1216=CARTESIAN_POINT('',(3.15,1.75,1.0));
#1217=DIRECTION('',(-1.0,0.0,0.0));
#1218=VECTOR('',#1217,6.300000000000001);
#1219=LINE('',#1216,#1218);
#1220=EDGE_CURVE('',#1209,#1198,#1219,.T.);
#1221=ORIENTED_EDGE('',*,*,#1220,.T.);
#1222=EDGE_LOOP('',(#1204,#1205,#1206,#1207,#1215,#1221));
#1223=FACE_OUTER_BOUND('',#1222,.T.);
#1224=ADVANCED_FACE('',(#1223),#1196,.T.);
#1225=CARTESIAN_POINT('',(-3.05,-0.875,1.9));
#1226=DIRECTION('',(-0.993883734673619,0.0,0.110431526074847));
#1227=DIRECTION('',(0.110431526074847,0.0,0.993883734673619));
#1228=AXIS2_PLACEMENT_3D('',#1225,#1226,#1227);
#1229=PLANE('',#1228);
#1230=ORIENTED_EDGE('',*,*,#1007,.T.);
#1231=ORIENTED_EDGE('',*,*,#1203,.T.);
#1232=CARTESIAN_POINT('',(-3.15,-1.75,1.0));
#1233=VERTEX_POINT('',#1232);
#1234=CARTESIAN_POINT('',(-3.15,1.75,1.0));
#1235=DIRECTION('',(0.0,-1.0,0.0));
#1236=VECTOR('',#1235,3.5);
#1237=LINE('',#1234,#1236);
#1238=EDGE_CURVE('',#1198,#1233,#1237,.T.);
#1239=ORIENTED_EDGE('',*,*,#1238,.T.);
#1240=CARTESIAN_POINT('',(-3.150000000000001,-1.75,1.0));
#1241=DIRECTION('',(0.10976425998969,0.10976425998969,0.987878339907213));
#1242=VECTOR('',#1241,1.82208671582886);
#1243=LINE('',#1240,#1242);
#1244=EDGE_CURVE('',#1233,#1000,#1243,.T.);
#1245=ORIENTED_EDGE('',*,*,#1244,.T.);
#1246=EDGE_LOOP('',(#1230,#1231,#1239,#1245));
#1247=FACE_OUTER_BOUND('',#1246,.T.);
#1248=ADVANCED_FACE('',(#1247),#1229,.T.);
#1249=CARTESIAN_POINT('',(1.575,-1.65,1.9));
#1250=DIRECTION('',(0.0,-0.993883734673619,0.110431526074847));
#1251=DIRECTION('',(0.0,-0.110431526074847,-0.993883734673619));
#1252=AXIS2_PLACEMENT_3D('',#1249,#1250,#1251);
#1253=PLANE('',#1252);
#1254=ORIENTED_EDGE('',*,*,#1015,.T.);
#1255=ORIENTED_EDGE('',*,*,#1244,.F.);
#1256=CARTESIAN_POINT('',(3.15,-1.75,1.0));
#1257=VERTEX_POINT('',#1256);
#1258=CARTESIAN_POINT('',(-3.15,-1.75,1.0));
#1259=DIRECTION('',(1.0,0.0,0.0));
#1260=VECTOR('',#1259,6.300000000000001);
#1261=LINE('',#1258,#1260);
#1262=EDGE_CURVE('',#1233,#1257,#1261,.T.);
#1263=ORIENTED_EDGE('',*,*,#1262,.T.);
#1264=CARTESIAN_POINT('',(2.95,-1.55,2.8));
#1265=DIRECTION('',(0.10976425998969,-0.10976425998969,-0.987878339907213));
#1266=VECTOR('',#1265,1.82208671582886);
#1267=LINE('',#1264,#1266);
#1268=EDGE_CURVE('',#1081,#1257,#1267,.T.);
#1269=ORIENTED_EDGE('',*,*,#1268,.F.);
#1270=ORIENTED_EDGE('',*,*,#1086,.T.);
#1271=ORIENTED_EDGE('',*,*,#1128,.T.);
#1272=EDGE_LOOP('',(#1254,#1255,#1263,#1269,#1270,#1271));
#1273=FACE_OUTER_BOUND('',#1272,.T.);
#1274=ADVANCED_FACE('',(#1273),#1253,.T.);
#1275=CARTESIAN_POINT('',(3.05,0.875,1.9));
#1276=DIRECTION('',(0.993883734673619,0.0,0.110431526074847));
#1277=DIRECTION('',(0.110431526074847,0.0,-0.993883734673619));
#1278=AXIS2_PLACEMENT_3D('',#1275,#1276,#1277);
#1279=PLANE('',#1278);
#1280=ORIENTED_EDGE('',*,*,#1214,.F.);
#1281=ORIENTED_EDGE('',*,*,#1094,.T.);
#1282=ORIENTED_EDGE('',*,*,#1268,.T.);
#1283=CARTESIAN_POINT('',(3.15,-1.75,1.0));
#1284=DIRECTION('',(0.0,1.0,0.0));
#1285=VECTOR('',#1284,3.5);
#1286=LINE('',#1283,#1285);
#1287=EDGE_CURVE('',#1257,#1209,#1286,.T.);
#1288=ORIENTED_EDGE('',*,*,#1287,.T.);
#1289=EDGE_LOOP('',(#1280,#1281,#1282,#1288));
#1290=FACE_OUTER_BOUND('',#1289,.T.);
#1291=ADVANCED_FACE('',(#1290),#1279,.T.);
#1292=CARTESIAN_POINT('',(7.209240E-018,2.220446E-016,1.0));
#1293=DIRECTION('',(0.0,0.0,1.0));
#1294=DIRECTION('',(1.0,0.0,0.0));
#1295=AXIS2_PLACEMENT_3D('',#1292,#1293,#1294);
#1296=PLANE('',#1295);
#1297=ORIENTED_EDGE('',*,*,#1238,.F.);
#1298=ORIENTED_EDGE('',*,*,#1220,.F.);
#1299=ORIENTED_EDGE('',*,*,#1287,.F.);
#1300=ORIENTED_EDGE('',*,*,#1262,.F.);
#1301=EDGE_LOOP('',(#1297,#1298,#1299,#1300));
#1302=FACE_OUTER_BOUND('',#1301,.T.);
#1303=ADVANCED_FACE('',(#1302),#1296,.F.);
#1304=CLOSED_SHELL('',(#1033,#1073,#1104,#1133,#1162,#1179,#1191,#1224,#1248,#1274,#1291,#1303));
#1305=MANIFOLD_SOLID_BREP('49F',#1304);
#1306=STYLED_ITEM('NONE',(#381),#1305);
#1307=CARTESIAN_POINT('',(-3.0,-0.875,0.55));
#1308=DIRECTION('',(-0.993883734673619,0.0,-0.110431526074847));
#1309=DIRECTION('',(-0.110431526074847,0.0,0.993883734673619));
#1310=AXIS2_PLACEMENT_3D('',#1307,#1308,#1309);
#1311=PLANE('',#1310);
#1312=CARTESIAN_POINT('',(-2.95,-1.65,0.1));
#1313=VERTEX_POINT('',#1312);
#1314=CARTESIAN_POINT('',(-3.05,-1.75,1.0));
#1315=VERTEX_POINT('',#1314);
#1316=CARTESIAN_POINT('',(-2.95,-1.65,0.1));
#1317=DIRECTION('',(-0.10976425998969,-0.10976425998969,0.987878339907213));
#1318=VECTOR('',#1317,0.91104335791443);
#1319=LINE('',#1316,#1318);
#1320=EDGE_CURVE('',#1313,#1315,#1319,.T.);
#1321=ORIENTED_EDGE('',*,*,#1320,.T.);
#1322=CARTESIAN_POINT('',(-3.05,1.75,1.0));
#1323=VERTEX_POINT('',#1322);
#1324=CARTESIAN_POINT('',(-3.05,-1.75,1.0));
#1325=DIRECTION('',(0.0,1.0,0.0));
#1326=VECTOR('',#1325,3.5);
#1327=LINE('',#1324,#1326);
#1328=EDGE_CURVE('',#1315,#1323,#1327,.T.);
#1329=ORIENTED_EDGE('',*,*,#1328,.T.);
#1330=CARTESIAN_POINT('',(-2.95,1.65,0.1));
#1331=VERTEX_POINT('',#1330);
#1332=CARTESIAN_POINT('',(-3.05,1.75,1.0));
#1333=DIRECTION('',(0.10976425998969,-0.10976425998969,-0.987878339907213));
#1334=VECTOR('',#1333,0.91104335791443);
#1335=LINE('',#1332,#1334);
#1336=EDGE_CURVE('',#1323,#1331,#1335,.T.);
#1337=ORIENTED_EDGE('',*,*,#1336,.T.);
#1338=CARTESIAN_POINT('',(-2.95,1.65,0.1));
#1339=DIRECTION('',(0.0,-1.0,0.0));
#1340=VECTOR('',#1339,3.3);
#1341=LINE('',#1338,#1340);
#1342=EDGE_CURVE('',#1331,#1313,#1341,.T.);
#1343=ORIENTED_EDGE('',*,*,#1342,.T.);
#1344=EDGE_LOOP('',(#1321,#1329,#1337,#1343));
#1345=FACE_OUTER_BOUND('',#1344,.T.);
#1346=ADVANCED_FACE('',(#1345),#1311,.T.);
#1347=CARTESIAN_POINT('',(7.209240E-018,0.0,0.1));
#1348=DIRECTION('',(0.0,0.0,1.0));
#1349=DIRECTION('',(1.0,0.0,0.0));
#1350=AXIS2_PLACEMENT_3D('',#1347,#1348,#1349);
#1351=PLANE('',#1350);
#1352=ORIENTED_EDGE('',*,*,#1342,.F.);
#1353=CARTESIAN_POINT('',(2.95,1.65,0.1));
#1354=VERTEX_POINT('',#1353);
#1355=CARTESIAN_POINT('',(2.95,1.65,0.1));
#1356=DIRECTION('',(-1.0,0.0,0.0));
#1357=VECTOR('',#1356,5.9);
#1358=LINE('',#1355,#1357);
#1359=EDGE_CURVE('',#1354,#1331,#1358,.T.);
#1360=ORIENTED_EDGE('',*,*,#1359,.F.);
#1361=CARTESIAN_POINT('',(2.95,-1.65,0.1));
#1362=VERTEX_POINT('',#1361);
#1363=CARTESIAN_POINT('',(2.95,-1.65,0.1));
#1364=DIRECTION('',(0.0,1.0,0.0));
#1365=VECTOR('',#1364,3.3);
#1366=LINE('',#1363,#1365);
#1367=EDGE_CURVE('',#1362,#1354,#1366,.T.);
#1368=ORIENTED_EDGE('',*,*,#1367,.F.);
#1369=CARTESIAN_POINT('',(-2.95,-1.65,0.1));
#1370=DIRECTION('',(1.0,0.0,0.0));
#1371=VECTOR('',#1370,5.9);
#1372=LINE('',#1369,#1371);
#1373=EDGE_CURVE('',#1313,#1362,#1372,.T.);
#1374=ORIENTED_EDGE('',*,*,#1373,.F.);
#1375=EDGE_LOOP('',(#1352,#1360,#1368,#1374));
#1376=FACE_OUTER_BOUND('',#1375,.T.);
#1377=ADVANCED_FACE('',(#1376),#1351,.F.);
#1378=CARTESIAN_POINT('',(-1.575,1.7,0.55));
#1379=DIRECTION('',(0.0,0.993883734673619,-0.110431526074847));
#1380=DIRECTION('',(0.0,0.110431526074847,0.993883734673619));
#1381=AXIS2_PLACEMENT_3D('',#1378,#1379,#1380);
#1382=PLANE('',#1381);
#1383=ORIENTED_EDGE('',*,*,#1336,.F.);
#1384=CARTESIAN_POINT('',(3.05,1.75,1.0));
#1385=VERTEX_POINT('',#1384);
#1386=CARTESIAN_POINT('',(-3.050000000000001,1.75,1.0));
#1387=DIRECTION('',(1.0,0.0,0.0));
#1388=VECTOR('',#1387,6.100000000000001);
#1389=LINE('',#1386,#1388);
#1390=EDGE_CURVE('',#1323,#1385,#1389,.T.);
#1391=ORIENTED_EDGE('',*,*,#1390,.T.);
#1392=CARTESIAN_POINT('',(2.95,1.65,0.1));
#1393=DIRECTION('',(0.10976425998969,0.10976425998969,0.987878339907213));
#1394=VECTOR('',#1393,0.91104335791443);
#1395=LINE('',#1392,#1394);
#1396=EDGE_CURVE('',#1354,#1385,#1395,.T.);
#1397=ORIENTED_EDGE('',*,*,#1396,.F.);
#1398=ORIENTED_EDGE('',*,*,#1359,.T.);
#1399=EDGE_LOOP('',(#1383,#1391,#1397,#1398));
#1400=FACE_OUTER_BOUND('',#1399,.T.);
#1401=ADVANCED_FACE('',(#1400),#1382,.T.);
#1402=CARTESIAN_POINT('',(3.0,0.875,0.55));
#1403=DIRECTION('',(0.993883734673619,0.0,-0.110431526074847));
#1404=DIRECTION('',(-0.110431526074847,0.0,-0.993883734673619));
#1405=AXIS2_PLACEMENT_3D('',#1402,#1403,#1404);
#1406=PLANE('',#1405);
#1407=ORIENTED_EDGE('',*,*,#1396,.T.);
#1408=CARTESIAN_POINT('',(3.05,-1.75,1.0));
#1409=VERTEX_POINT('',#1408);
#1410=CARTESIAN_POINT('',(3.05,1.75,1.0));
#1411=DIRECTION('',(0.0,-1.0,0.0));
#1412=VECTOR('',#1411,3.5);
#1413=LINE('',#1410,#1412);
#1414=EDGE_CURVE('',#1385,#1409,#1413,.T.);
#1415=ORIENTED_EDGE('',*,*,#1414,.T.);
#1416=CARTESIAN_POINT('',(3.05,-1.75,1.0));
#1417=DIRECTION('',(-0.10976425998969,0.10976425998969,-0.987878339907213));
#1418=VECTOR('',#1417,0.91104335791443);
#1419=LINE('',#1416,#1418);
#1420=EDGE_CURVE('',#1409,#1362,#1419,.T.);
#1421=ORIENTED_EDGE('',*,*,#1420,.T.);
#1422=ORIENTED_EDGE('',*,*,#1367,.T.);
#1423=EDGE_LOOP('',(#1407,#1415,#1421,#1422));
#1424=FACE_OUTER_BOUND('',#1423,.T.);
#1425=ADVANCED_FACE('',(#1424),#1406,.T.);
#1426=CARTESIAN_POINT('',(1.575,-1.7,0.55));
#1427=DIRECTION('',(0.0,-0.993883734673619,-0.110431526074847));
#1428=DIRECTION('',(0.0,0.110431526074847,-0.993883734673619));
#1429=AXIS2_PLACEMENT_3D('',#1426,#1427,#1428);
#1430=PLANE('',#1429);
#1431=ORIENTED_EDGE('',*,*,#1320,.F.);
#1432=ORIENTED_EDGE('',*,*,#1373,.T.);
#1433=ORIENTED_EDGE('',*,*,#1420,.F.);
#1434=CARTESIAN_POINT('',(3.050000000000001,-1.75,1.0));
#1435=DIRECTION('',(-1.0,0.0,0.0));
#1436=VECTOR('',#1435,6.100000000000001);
#1437=LINE('',#1434,#1436);
#1438=EDGE_CURVE('',#1409,#1315,#1437,.T.);
#1439=ORIENTED_EDGE('',*,*,#1438,.T.);
#1440=EDGE_LOOP('',(#1431,#1432,#1433,#1439));
#1441=FACE_OUTER_BOUND('',#1440,.T.);
#1442=ADVANCED_FACE('',(#1441),#1430,.T.);
#1443=CARTESIAN_POINT('',(7.209240E-018,0.0,1.0));
#1444=DIRECTION('',(0.0,0.0,1.0));
#1445=DIRECTION('',(1.0,0.0,0.0));
#1446=AXIS2_PLACEMENT_3D('',#1443,#1444,#1445);
#1447=PLANE('',#1446);
#1448=ORIENTED_EDGE('',*,*,#1390,.F.);
#1449=ORIENTED_EDGE('',*,*,#1328,.F.);
#1450=ORIENTED_EDGE('',*,*,#1438,.F.);
#1451=ORIENTED_EDGE('',*,*,#1414,.F.);
#1452=EDGE_LOOP('',(#1448,#1449,#1450,#1451));
#1453=FACE_OUTER_BOUND('',#1452,.T.);
#1454=ADVANCED_FACE('',(#1453),#1447,.T.);
#1455=CLOSED_SHELL('',(#1346,#1377,#1401,#1425,#1442,#1454));
#1456=MANIFOLD_SOLID_BREP('49D',#1455);
#1457=STYLED_ITEM('NONE',(#381),#1456);
#1458=ADVANCED_BREP_SHAPE_REPRESENTATION('ABSR1',(#214,#374,#532,#690,#841,#992,#1305,#1456),#28);
#1459=SHAPE_REPRESENTATION_RELATIONSHIP('SRRPL1','',#1458,#62);
ENDSEC;
END-ISO-10303-21;
