ISO-10303-21;
HEADER;
/****************************************************************
 * Generated by software with PDElib inside                    *
 * PDElib Version v51a, created Fri 09/10/2010                  *
 * ITI Transcendata (http://www.transcendata.com/)              *
 ****************************************************************/
FILE_DESCRIPTION((''),'2;1');
FILE_NAME('CAPPR_KEMET_PEH200ZZ4470MU2.stp','2014-01-16T10:02:36',(''),(''),'Mechanical Desktop 2011','Mechanical Desktop 2011',', , ');
FILE_SCHEMA(('AUTOMOTIVE_DESIGN { 1 2 10303 214 1 1 1 1 }'));
ENDSEC;
DATA;
#10=(NAMED_UNIT(*)PLANE_ANGLE_UNIT()SI_UNIT($,.RADIAN.));
#11=DIMENSIONAL_EXPONENTS(0.0,0.0,0.0,0.0,0.0,0.0,0.0);
#12=PLANE_ANGLE_MEASURE_WITH_UNIT(PLANE_ANGLE_MEASURE(0.0174532925),#10);
#16=(CONVERSION_BASED_UNIT('DEGREE',#12)NAMED_UNIT(#11)PLANE_ANGLE_UNIT());
#20=(NAMED_UNIT(*)SI_UNIT($,.STERADIAN.)SOLID_ANGLE_UNIT());
#24=(LENGTH_UNIT()NAMED_UNIT(*)SI_UNIT(.MILLI.,.METRE.));
#26=UNCERTAINTY_MEASURE_WITH_UNIT(LENGTH_MEASURE(0.000001),#24,'DISTANCE_ACCURACY_VALUE','');
#28=(GEOMETRIC_REPRESENTATION_CONTEXT(3)GLOBAL_UNCERTAINTY_ASSIGNED_CONTEXT((#26))GLOBAL_UNIT_ASSIGNED_CONTEXT((#16,#20,#24))REPRESENTATION_CONTEXT('','3D'));
#29=APPLICATION_CONTEXT('automotive design');
#30=APPLICATION_PROTOCOL_DEFINITION('INTERNATIONAL_STANDARD','automotive_design',1998,#29);
#31=PRODUCT_CONTEXT('3D Mechanical Parts',#29,'mechanical');
#32=PRODUCT('Product','Product','',(#31));
#33=PRODUCT_RELATED_PRODUCT_CATEGORY('part',$,(#32));
#34=PRODUCT_CATEGORY('part',$);
#35=PERSON('1','Design','Joe',$,$,$);
#36=ORGANIZATION($,'None','None');
#37=PERSON_AND_ORGANIZATION(#35,#36);
#38=PERSON_AND_ORGANIZATION_ROLE('design_owner');
#39=APPLIED_PERSON_AND_ORGANIZATION_ASSIGNMENT(#37,#38,(#32));
#40=PRODUCT_DEFINITION_FORMATION_WITH_SPECIFIED_SOURCE('None','',#32,.BOUGHT.);
#41=PERSON('2','Creator','Joe',$,$,$);
#42=ORGANIZATION($,'None','None');
#43=PERSON_AND_ORGANIZATION(#41,#42);
#44=PERSON_AND_ORGANIZATION_ROLE('creator');
#45=APPLIED_PERSON_AND_ORGANIZATION_ASSIGNMENT(#43,#44,(#40));
#46=PERSON('3','Supplier','Joe',$,$,$);
#47=ORGANIZATION($,'None','None');
#48=PERSON_AND_ORGANIZATION(#46,#47);
#49=PERSON_AND_ORGANIZATION_ROLE('design_supplier');
#50=APPLIED_PERSON_AND_ORGANIZATION_ASSIGNMENT(#48,#49,(#40));
#51=PRODUCT_DEFINITION_CONTEXT('part definition',#29,'design');
#52=PRODUCT_DEFINITION('None','',#40,#51);
#53=PERSON('4','Creator','Joe',$,$,$);
#54=ORGANIZATION($,'None','None');
#55=PERSON_AND_ORGANIZATION(#53,#54);
#56=PERSON_AND_ORGANIZATION_ROLE('creator');
#57=APPLIED_PERSON_AND_ORGANIZATION_ASSIGNMENT(#55,#56,(#52));
#58=CARTESIAN_POINT('NONE',(0.0,0.0,0.0));
#59=DIRECTION('NONE',(0.0,0.0,1.0));
#60=DIRECTION('NONE',(1.0,0.0,0.0));
#61=AXIS2_PLACEMENT_3D('NONE',#58,#59,#60);
#62=SHAPE_REPRESENTATION('SR1',(#61),#28);
#63=PRODUCT_DEFINITION_SHAPE('PDS1','Test Part',#52);
#64=SHAPE_DEFINITION_REPRESENTATION(#63,#62);
#65=CARTESIAN_POINT('',(16.0,-1.959435E-015,0.0));
#66=DIRECTION('',(0.0,0.0,1.0));
#67=DIRECTION('',(0.0,-1.0,0.0));
#68=AXIS2_PLACEMENT_3D('',#65,#66,#67);
#69=CYLINDRICAL_SURFACE('',#68,2.5);
#70=CARTESIAN_POINT('',(15.999999999999998,-2.500000000000002,0.0));
#71=VERTEX_POINT('',#70);
#72=CARTESIAN_POINT('',(15.999999999999998,-2.500000000000002,6.0));
#73=VERTEX_POINT('',#72);
#74=CARTESIAN_POINT('',(16.0,-2.500000000000002,0.0));
#75=DIRECTION('',(0.0,0.0,1.0));
#76=VECTOR('',#75,6.0);
#77=LINE('',#74,#76);
#78=EDGE_CURVE('',#71,#73,#77,.T.);
#79=ORIENTED_EDGE('',*,*,#78,.F.);
#80=CARTESIAN_POINT('',(16.0,2.499999999999998,0.0));
#81=VERTEX_POINT('',#80);
#82=CARTESIAN_POINT('',(16.0,-1.959435E-015,0.0));
#83=DIRECTION('',(0.0,0.0,1.0));
#84=DIRECTION('',(0.0,-1.0,0.0));
#85=AXIS2_PLACEMENT_3D('',#82,#83,#84);
#86=CIRCLE('',#85,2.5);
#87=EDGE_CURVE('',#81,#71,#86,.T.);
#88=ORIENTED_EDGE('',*,*,#87,.F.);
#89=CARTESIAN_POINT('',(16.0,2.499999999999998,6.0));
#90=VERTEX_POINT('',#89);
#91=CARTESIAN_POINT('',(16.0,2.499999999999998,0.0));
#92=DIRECTION('',(0.0,0.0,1.0));
#93=VECTOR('',#92,6.0);
#94=LINE('',#91,#93);
#95=EDGE_CURVE('',#81,#90,#94,.T.);
#96=ORIENTED_EDGE('',*,*,#95,.T.);
#97=CARTESIAN_POINT('',(16.0,-1.959435E-015,6.0));
#98=DIRECTION('',(0.0,0.0,-1.0));
#99=DIRECTION('',(0.0,-1.0,0.0));
#100=AXIS2_PLACEMENT_3D('',#97,#98,#99);
#101=CIRCLE('',#100,2.5);
#102=EDGE_CURVE('',#73,#90,#101,.T.);
#103=ORIENTED_EDGE('',*,*,#102,.F.);
#104=EDGE_LOOP('',(#79,#88,#96,#103));
#105=FACE_OUTER_BOUND('',#104,.T.);
#106=ADVANCED_FACE('',(#105),#69,.F.);
#107=CARTESIAN_POINT('',(16.0,-1.959435E-015,0.0));
#108=DIRECTION('',(0.0,0.0,1.0));
#109=DIRECTION('',(0.0,-1.0,0.0));
#110=AXIS2_PLACEMENT_3D('',#107,#108,#109);
#111=CYLINDRICAL_SURFACE('',#110,2.5);
#112=ORIENTED_EDGE('',*,*,#78,.T.);
#113=CARTESIAN_POINT('',(16.0,-1.959435E-015,6.0));
#114=DIRECTION('',(0.0,0.0,-1.0));
#115=DIRECTION('',(0.0,-1.0,0.0));
#116=AXIS2_PLACEMENT_3D('',#113,#114,#115);
#117=CIRCLE('',#116,2.5);
#118=EDGE_CURVE('',#90,#73,#117,.T.);
#119=ORIENTED_EDGE('',*,*,#118,.F.);
#120=ORIENTED_EDGE('',*,*,#95,.F.);
#121=CARTESIAN_POINT('',(16.0,-1.959435E-015,0.0));
#122=DIRECTION('',(0.0,0.0,1.0));
#123=DIRECTION('',(0.0,-1.0,0.0));
#124=AXIS2_PLACEMENT_3D('',#121,#122,#123);
#125=CIRCLE('',#124,2.5);
#126=EDGE_CURVE('',#71,#81,#125,.T.);
#127=ORIENTED_EDGE('',*,*,#126,.F.);
#128=EDGE_LOOP('',(#112,#119,#120,#127));
#129=FACE_OUTER_BOUND('',#128,.T.);
#130=ADVANCED_FACE('',(#129),#111,.F.);
#131=CARTESIAN_POINT('',(16.0,-1.959435E-015,6.0));
#132=DIRECTION('',(0.0,0.0,1.0));
#133=DIRECTION('',(0.0,-1.0,0.0));
#134=AXIS2_PLACEMENT_3D('',#131,#132,#133);
#135=PLANE('',#134);
#136=ORIENTED_EDGE('',*,*,#102,.T.);
#137=ORIENTED_EDGE('',*,*,#118,.T.);
#138=EDGE_LOOP('',(#136,#137));
#139=FACE_OUTER_BOUND('',#138,.T.);
#140=ADVANCED_FACE('',(#139),#135,.F.);
#141=CARTESIAN_POINT('',(19.741657386773937,-6.500000000000003,0.0));
#142=DIRECTION('',(0.0,-1.0,0.0));
#143=DIRECTION('',(0.0,0.0,-1.0));
#144=AXIS2_PLACEMENT_3D('',#141,#142,#143);
#145=PLANE('',#144);
#146=CARTESIAN_POINT('',(19.741657386773937,-6.500000000000003,6.9));
#147=VERTEX_POINT('',#146);
#148=CARTESIAN_POINT('',(12.258342613226056,-6.500000000000002,6.9));
#149=VERTEX_POINT('',#148);
#150=CARTESIAN_POINT('',(19.741657386773937,-6.500000000000004,6.9));
#151=DIRECTION('',(-1.0,0.0,0.0));
#152=VECTOR('',#151,7.483314773547882);
#153=LINE('',#150,#152);
#154=EDGE_CURVE('',#147,#149,#153,.T.);
#155=ORIENTED_EDGE('',*,*,#154,.T.);
#156=CARTESIAN_POINT('',(12.258342613226056,-6.500000000000002,0.0));
#157=VERTEX_POINT('',#156);
#158=CARTESIAN_POINT('',(12.258342613226056,-6.500000000000002,0.0));
#159=DIRECTION('',(0.0,0.0,1.0));
#160=VECTOR('',#159,6.9);
#161=LINE('',#158,#160);
#162=EDGE_CURVE('',#157,#149,#161,.T.);
#163=ORIENTED_EDGE('',*,*,#162,.F.);
#164=CARTESIAN_POINT('',(19.741657386773937,-6.500000000000003,0.0));
#165=VERTEX_POINT('',#164);
#166=CARTESIAN_POINT('',(12.258342613226056,-6.500000000000002,0.0));
#167=DIRECTION('',(1.0,0.0,0.0));
#168=VECTOR('',#167,7.483314773547882);
#169=LINE('',#166,#168);
#170=EDGE_CURVE('',#157,#165,#169,.T.);
#171=ORIENTED_EDGE('',*,*,#170,.T.);
#172=CARTESIAN_POINT('',(19.741657386773937,-6.500000000000003,0.0));
#173=DIRECTION('',(0.0,0.0,1.0));
#174=VECTOR('',#173,6.9);
#175=LINE('',#172,#174);
#176=EDGE_CURVE('',#165,#147,#175,.T.);
#177=ORIENTED_EDGE('',*,*,#176,.T.);
#178=EDGE_LOOP('',(#155,#163,#171,#177));
#179=FACE_OUTER_BOUND('',#178,.T.);
#180=ADVANCED_FACE('',(#179),#145,.T.);
#181=CARTESIAN_POINT('',(16.0,-1.959435E-015,0.0));
#182=DIRECTION('',(0.0,0.0,1.0));
#183=DIRECTION('',(-1.0,0.0,0.0));
#184=AXIS2_PLACEMENT_3D('',#181,#182,#183);
#185=CYLINDRICAL_SURFACE('',#184,7.500000000000001);
#186=CARTESIAN_POINT('',(12.258342613226059,6.499999999999998,6.9));
#187=VERTEX_POINT('',#186);
#188=CARTESIAN_POINT('',(16.0,-1.959435E-015,6.9));
#189=DIRECTION('',(0.0,0.0,-1.0));
#190=DIRECTION('',(-1.0,0.0,0.0));
#191=AXIS2_PLACEMENT_3D('',#188,#189,#190);
#192=CIRCLE('',#191,7.500000000000001);
#193=EDGE_CURVE('',#149,#187,#192,.T.);
#194=ORIENTED_EDGE('',*,*,#193,.T.);
#195=CARTESIAN_POINT('',(12.258342613226059,6.499999999999998,0.0));
#196=VERTEX_POINT('',#195);
#197=CARTESIAN_POINT('',(12.258342613226059,6.499999999999998,0.0));
#198=DIRECTION('',(0.0,0.0,1.0));
#199=VECTOR('',#198,6.9);
#200=LINE('',#197,#199);
#201=EDGE_CURVE('',#196,#187,#200,.T.);
#202=ORIENTED_EDGE('',*,*,#201,.F.);
#203=CARTESIAN_POINT('',(16.0,-1.959435E-015,0.0));
#204=DIRECTION('',(0.0,0.0,1.0));
#205=DIRECTION('',(-1.0,0.0,0.0));
#206=AXIS2_PLACEMENT_3D('',#203,#204,#205);
#207=CIRCLE('',#206,7.500000000000001);
#208=EDGE_CURVE('',#196,#157,#207,.T.);
#209=ORIENTED_EDGE('',*,*,#208,.T.);
#210=ORIENTED_EDGE('',*,*,#162,.T.);
#211=EDGE_LOOP('',(#194,#202,#209,#210));
#212=FACE_OUTER_BOUND('',#211,.T.);
#213=ADVANCED_FACE('',(#212),#185,.T.);
#214=CARTESIAN_POINT('',(12.258342613226059,6.499999999999998,0.0));
#215=DIRECTION('',(0.0,1.0,0.0));
#216=DIRECTION('',(0.0,0.0,1.0));
#217=AXIS2_PLACEMENT_3D('',#214,#215,#216);
#218=PLANE('',#217);
#219=CARTESIAN_POINT('',(19.741657386773941,6.499999999999997,6.9));
#220=VERTEX_POINT('',#219);
#221=CARTESIAN_POINT('',(12.258342613226059,6.499999999999999,6.9));
#222=DIRECTION('',(1.0,0.0,0.0));
#223=VECTOR('',#222,7.483314773547882);
#224=LINE('',#221,#223);
#225=EDGE_CURVE('',#187,#220,#224,.T.);
#226=ORIENTED_EDGE('',*,*,#225,.T.);
#227=CARTESIAN_POINT('',(19.741657386773941,6.499999999999997,0.0));
#228=VERTEX_POINT('',#227);
#229=CARTESIAN_POINT('',(19.741657386773941,6.499999999999997,0.0));
#230=DIRECTION('',(0.0,0.0,1.0));
#231=VECTOR('',#230,6.9);
#232=LINE('',#229,#231);
#233=EDGE_CURVE('',#228,#220,#232,.T.);
#234=ORIENTED_EDGE('',*,*,#233,.F.);
#235=CARTESIAN_POINT('',(19.741657386773937,6.499999999999997,0.0));
#236=DIRECTION('',(-1.0,0.0,0.0));
#237=VECTOR('',#236,7.483314773547878);
#238=LINE('',#235,#237);
#239=EDGE_CURVE('',#228,#196,#238,.T.);
#240=ORIENTED_EDGE('',*,*,#239,.T.);
#241=ORIENTED_EDGE('',*,*,#201,.T.);
#242=EDGE_LOOP('',(#226,#234,#240,#241));
#243=FACE_OUTER_BOUND('',#242,.T.);
#244=ADVANCED_FACE('',(#243),#218,.T.);
#245=CARTESIAN_POINT('',(16.0,-1.959435E-015,4.2));
#246=DIRECTION('',(0.0,0.0,1.0));
#247=DIRECTION('',(1.0,0.0,0.0));
#248=AXIS2_PLACEMENT_3D('',#245,#246,#247);
#249=CYLINDRICAL_SURFACE('',#248,7.499999999999999);
#250=CARTESIAN_POINT('',(16.0,-1.959435E-015,6.9));
#251=DIRECTION('',(0.0,0.0,-1.0));
#252=DIRECTION('',(1.0,0.0,0.0));
#253=AXIS2_PLACEMENT_3D('',#250,#251,#252);
#254=CIRCLE('',#253,7.499999999999999);
#255=EDGE_CURVE('',#220,#147,#254,.T.);
#256=ORIENTED_EDGE('',*,*,#255,.T.);
#257=ORIENTED_EDGE('',*,*,#176,.F.);
#258=CARTESIAN_POINT('',(16.0,-1.959435E-015,0.0));
#259=DIRECTION('',(0.0,0.0,-1.0));
#260=DIRECTION('',(1.0,0.0,0.0));
#261=AXIS2_PLACEMENT_3D('',#258,#259,#260);
#262=CIRCLE('',#261,7.499999999999999);
#263=EDGE_CURVE('',#165,#228,#262,.F.);
#264=ORIENTED_EDGE('',*,*,#263,.T.);
#265=ORIENTED_EDGE('',*,*,#233,.T.);
#266=EDGE_LOOP('',(#256,#257,#264,#265));
#267=FACE_OUTER_BOUND('',#266,.T.);
#268=ADVANCED_FACE('',(#267),#249,.T.);
#269=CARTESIAN_POINT('',(15.999999999999998,-1.959435E-015,0.0));
#270=DIRECTION('',(0.0,0.0,1.0));
#271=DIRECTION('',(0.0,-1.0,0.0));
#272=AXIS2_PLACEMENT_3D('',#269,#270,#271);
#273=PLANE('',#272);
#274=ORIENTED_EDGE('',*,*,#263,.F.);
#275=ORIENTED_EDGE('',*,*,#170,.F.);
#276=ORIENTED_EDGE('',*,*,#208,.F.);
#277=ORIENTED_EDGE('',*,*,#239,.F.);
#278=EDGE_LOOP('',(#274,#275,#276,#277));
#279=FACE_OUTER_BOUND('',#278,.T.);
#280=ORIENTED_EDGE('',*,*,#126,.T.);
#281=ORIENTED_EDGE('',*,*,#87,.T.);
#282=EDGE_LOOP('',(#280,#281));
#283=FACE_BOUND('',#282,.T.);
#284=ADVANCED_FACE('',(#279,#283),#273,.F.);
#285=CARTESIAN_POINT('',(15.999999999999998,-1.959435E-015,6.9));
#286=DIRECTION('',(0.0,0.0,1.0));
#287=DIRECTION('',(0.0,-1.0,0.0));
#288=AXIS2_PLACEMENT_3D('',#285,#286,#287);
#289=PLANE('',#288);
#290=ORIENTED_EDGE('',*,*,#154,.F.);
#291=ORIENTED_EDGE('',*,*,#255,.F.);
#292=ORIENTED_EDGE('',*,*,#225,.F.);
#293=ORIENTED_EDGE('',*,*,#193,.F.);
#294=EDGE_LOOP('',(#290,#291,#292,#293));
#295=FACE_OUTER_BOUND('',#294,.T.);
#296=ADVANCED_FACE('',(#295),#289,.T.);
#297=CLOSED_SHELL('',(#106,#130,#140,#180,#213,#244,#268,#284,#296));
#298=MANIFOLD_SOLID_BREP('2220',#297);
#299=COLOUR_RGB('253',0.732,0.732,0.732);
#300=SURFACE_STYLE_USAGE(.BOTH.,#301);
#301=SURFACE_SIDE_STYLE('NONE',(#302));
#302=SURFACE_STYLE_FILL_AREA(#303);
#303=FILL_AREA_STYLE('NONE',(#304));
#304=FILL_AREA_STYLE_COLOUR('NONE',#299);
#305=PRESENTATION_STYLE_ASSIGNMENT((#300));
#306=STYLED_ITEM('NONE',(#305),#298);
#307=MECHANICAL_DESIGN_GEOMETRIC_PRESENTATION_REPRESENTATION('NONE',(#306,#543,#639,#867),#28);
#308=PRESENTATION_LAYER_ASSIGNMENT('3D','None',(#298,#542,#631,#859));
#309=CARTESIAN_POINT('',(-16.0,1.959435E-015,0.0));
#310=DIRECTION('',(0.0,0.0,1.0));
#311=DIRECTION('',(-1.0,0.0,0.0));
#312=AXIS2_PLACEMENT_3D('',#309,#310,#311);
#313=CYLINDRICAL_SURFACE('',#312,2.5);
#314=CARTESIAN_POINT('',(-18.5,2.265597E-015,0.0));
#315=VERTEX_POINT('',#314);
#316=CARTESIAN_POINT('',(-18.5,2.265597E-015,6.0));
#317=VERTEX_POINT('',#316);
#318=CARTESIAN_POINT('',(-18.5,2.265597E-015,0.0));
#319=DIRECTION('',(0.0,0.0,1.0));
#320=VECTOR('',#319,6.0);
#321=LINE('',#318,#320);
#322=EDGE_CURVE('',#315,#317,#321,.T.);
#323=ORIENTED_EDGE('',*,*,#322,.F.);
#324=CARTESIAN_POINT('',(-13.5,1.959435E-015,0.0));
#325=VERTEX_POINT('',#324);
#326=CARTESIAN_POINT('',(-16.0,1.959435E-015,0.0));
#327=DIRECTION('',(0.0,0.0,1.0));
#328=DIRECTION('',(-1.0,0.0,0.0));
#329=AXIS2_PLACEMENT_3D('',#326,#327,#328);
#330=CIRCLE('',#329,2.5);
#331=EDGE_CURVE('',#325,#315,#330,.T.);
#332=ORIENTED_EDGE('',*,*,#331,.F.);
#333=CARTESIAN_POINT('',(-13.5,1.959435E-015,6.0));
#334=VERTEX_POINT('',#333);
#335=CARTESIAN_POINT('',(-13.5,1.959435E-015,0.0));
#336=DIRECTION('',(0.0,0.0,1.0));
#337=VECTOR('',#336,6.0);
#338=LINE('',#335,#337);
#339=EDGE_CURVE('',#325,#334,#338,.T.);
#340=ORIENTED_EDGE('',*,*,#339,.T.);
#341=CARTESIAN_POINT('',(-16.0,1.959435E-015,6.0));
#342=DIRECTION('',(0.0,0.0,-1.0));
#343=DIRECTION('',(-1.0,0.0,0.0));
#344=AXIS2_PLACEMENT_3D('',#341,#342,#343);
#345=CIRCLE('',#344,2.5);
#346=EDGE_CURVE('',#317,#334,#345,.T.);
#347=ORIENTED_EDGE('',*,*,#346,.F.);
#348=EDGE_LOOP('',(#323,#332,#340,#347));
#349=FACE_OUTER_BOUND('',#348,.T.);
#350=ADVANCED_FACE('',(#349),#313,.F.);
#351=CARTESIAN_POINT('',(-16.0,1.959435E-015,0.0));
#352=DIRECTION('',(0.0,0.0,1.0));
#353=DIRECTION('',(-1.0,0.0,0.0));
#354=AXIS2_PLACEMENT_3D('',#351,#352,#353);
#355=CYLINDRICAL_SURFACE('',#354,2.5);
#356=ORIENTED_EDGE('',*,*,#322,.T.);
#357=CARTESIAN_POINT('',(-16.0,1.959435E-015,6.0));
#358=DIRECTION('',(0.0,0.0,-1.0));
#359=DIRECTION('',(-1.0,0.0,0.0));
#360=AXIS2_PLACEMENT_3D('',#357,#358,#359);
#361=CIRCLE('',#360,2.5);
#362=EDGE_CURVE('',#334,#317,#361,.T.);
#363=ORIENTED_EDGE('',*,*,#362,.F.);
#364=ORIENTED_EDGE('',*,*,#339,.F.);
#365=CARTESIAN_POINT('',(-16.0,1.959435E-015,0.0));
#366=DIRECTION('',(0.0,0.0,1.0));
#367=DIRECTION('',(-1.0,0.0,0.0));
#368=AXIS2_PLACEMENT_3D('',#365,#366,#367);
#369=CIRCLE('',#368,2.5);
#370=EDGE_CURVE('',#315,#325,#369,.T.);
#371=ORIENTED_EDGE('',*,*,#370,.F.);
#372=EDGE_LOOP('',(#356,#363,#364,#371));
#373=FACE_OUTER_BOUND('',#372,.T.);
#374=ADVANCED_FACE('',(#373),#355,.F.);
#375=CARTESIAN_POINT('',(-16.0,1.959435E-015,6.0));
#376=DIRECTION('',(0.0,0.0,1.0));
#377=DIRECTION('',(-1.0,0.0,0.0));
#378=AXIS2_PLACEMENT_3D('',#375,#376,#377);
#379=PLANE('',#378);
#380=ORIENTED_EDGE('',*,*,#346,.T.);
#381=ORIENTED_EDGE('',*,*,#362,.T.);
#382=EDGE_LOOP('',(#380,#381));
#383=FACE_OUTER_BOUND('',#382,.T.);
#384=ADVANCED_FACE('',(#383),#379,.F.);
#385=CARTESIAN_POINT('',(-22.5,-3.741657386773936,0.0));
#386=DIRECTION('',(-1.0,0.0,0.0));
#387=DIRECTION('',(0.0,0.0,-1.0));
#388=AXIS2_PLACEMENT_3D('',#385,#386,#387);
#389=PLANE('',#388);
#390=CARTESIAN_POINT('',(-22.5,-3.741657386773936,6.9));
#391=VERTEX_POINT('',#390);
#392=CARTESIAN_POINT('',(-22.5,3.741657386773946,6.9));
#393=VERTEX_POINT('',#392);
#394=CARTESIAN_POINT('',(-22.5,-3.741657386773936,6.9));
#395=DIRECTION('',(0.0,1.0,0.0));
#396=VECTOR('',#395,7.483314773547883);
#397=LINE('',#394,#396);
#398=EDGE_CURVE('',#391,#393,#397,.T.);
#399=ORIENTED_EDGE('',*,*,#398,.T.);
#400=CARTESIAN_POINT('',(-22.5,3.741657386773946,0.0));
#401=VERTEX_POINT('',#400);
#402=CARTESIAN_POINT('',(-22.5,3.741657386773946,0.0));
#403=DIRECTION('',(0.0,0.0,1.0));
#404=VECTOR('',#403,6.9);
#405=LINE('',#402,#404);
#406=EDGE_CURVE('',#401,#393,#405,.T.);
#407=ORIENTED_EDGE('',*,*,#406,.F.);
#408=CARTESIAN_POINT('',(-22.5,-3.741657386773936,0.0));
#409=VERTEX_POINT('',#408);
#410=CARTESIAN_POINT('',(-22.5,3.741657386773946,0.0));
#411=DIRECTION('',(0.0,-1.0,0.0));
#412=VECTOR('',#411,7.483314773547884);
#413=LINE('',#410,#412);
#414=EDGE_CURVE('',#401,#409,#413,.T.);
#415=ORIENTED_EDGE('',*,*,#414,.T.);
#416=CARTESIAN_POINT('',(-22.5,-3.741657386773936,0.0));
#417=DIRECTION('',(0.0,0.0,1.0));
#418=VECTOR('',#417,6.9);
#419=LINE('',#416,#418);
#420=EDGE_CURVE('',#409,#391,#419,.T.);
#421=ORIENTED_EDGE('',*,*,#420,.T.);
#422=EDGE_LOOP('',(#399,#407,#415,#421));
#423=FACE_OUTER_BOUND('',#422,.T.);
#424=ADVANCED_FACE('',(#423),#389,.T.);
#425=CARTESIAN_POINT('',(-16.0,1.071256E-015,0.0));
#426=DIRECTION('',(0.0,0.0,1.0));
#427=DIRECTION('',(0.0,1.0,0.0));
#428=AXIS2_PLACEMENT_3D('',#425,#426,#427);
#429=CYLINDRICAL_SURFACE('',#428,7.500000000000001);
#430=CARTESIAN_POINT('',(-9.5,3.741657386773942,6.9));
#431=VERTEX_POINT('',#430);
#432=CARTESIAN_POINT('',(-16.0,1.071256E-015,6.9));
#433=DIRECTION('',(0.0,0.0,-1.0));
#434=DIRECTION('',(0.0,1.0,0.0));
#435=AXIS2_PLACEMENT_3D('',#432,#433,#434);
#436=CIRCLE('',#435,7.500000000000001);
#437=EDGE_CURVE('',#393,#431,#436,.T.);
#438=ORIENTED_EDGE('',*,*,#437,.T.);
#439=CARTESIAN_POINT('',(-9.5,3.741657386773942,0.0));
#440=VERTEX_POINT('',#439);
#441=CARTESIAN_POINT('',(-9.5,3.741657386773942,0.0));
#442=DIRECTION('',(0.0,0.0,1.0));
#443=VECTOR('',#442,6.9);
#444=LINE('',#441,#443);
#445=EDGE_CURVE('',#440,#431,#444,.T.);
#446=ORIENTED_EDGE('',*,*,#445,.F.);
#447=CARTESIAN_POINT('',(-16.0,1.071256E-015,0.0));
#448=DIRECTION('',(0.0,0.0,1.0));
#449=DIRECTION('',(0.0,1.0,0.0));
#450=AXIS2_PLACEMENT_3D('',#447,#448,#449);
#451=CIRCLE('',#450,7.500000000000001);
#452=EDGE_CURVE('',#440,#401,#451,.T.);
#453=ORIENTED_EDGE('',*,*,#452,.T.);
#454=ORIENTED_EDGE('',*,*,#406,.T.);
#455=EDGE_LOOP('',(#438,#446,#453,#454));
#456=FACE_OUTER_BOUND('',#455,.T.);
#457=ADVANCED_FACE('',(#456),#429,.T.);
#458=CARTESIAN_POINT('',(-9.5,3.741657386773942,0.0));
#459=DIRECTION('',(1.0,0.0,0.0));
#460=DIRECTION('',(0.0,0.0,1.0));
#461=AXIS2_PLACEMENT_3D('',#458,#459,#460);
#462=PLANE('',#461);
#463=CARTESIAN_POINT('',(-9.5,-3.74165738677394,6.9));
#464=VERTEX_POINT('',#463);
#465=CARTESIAN_POINT('',(-9.499999999999998,3.741657386773942,6.9));
#466=DIRECTION('',(0.0,-1.0,0.0));
#467=VECTOR('',#466,7.483314773547882);
#468=LINE('',#465,#467);
#469=EDGE_CURVE('',#431,#464,#468,.T.);
#470=ORIENTED_EDGE('',*,*,#469,.T.);
#471=CARTESIAN_POINT('',(-9.5,-3.74165738677394,0.0));
#472=VERTEX_POINT('',#471);
#473=CARTESIAN_POINT('',(-9.5,-3.74165738677394,0.0));
#474=DIRECTION('',(0.0,0.0,1.0));
#475=VECTOR('',#474,6.9);
#476=LINE('',#473,#475);
#477=EDGE_CURVE('',#472,#464,#476,.T.);
#478=ORIENTED_EDGE('',*,*,#477,.F.);
#479=CARTESIAN_POINT('',(-9.5,-3.741657386773938,0.0));
#480=DIRECTION('',(0.0,1.0,0.0));
#481=VECTOR('',#480,7.48331477354788);
#482=LINE('',#479,#481);
#483=EDGE_CURVE('',#472,#440,#482,.T.);
#484=ORIENTED_EDGE('',*,*,#483,.T.);
#485=ORIENTED_EDGE('',*,*,#445,.T.);
#486=EDGE_LOOP('',(#470,#478,#484,#485));
#487=FACE_OUTER_BOUND('',#486,.T.);
#488=ADVANCED_FACE('',(#487),#462,.T.);
#489=CARTESIAN_POINT('',(-16.0,1.959435E-015,4.199999999999999));
#490=DIRECTION('',(0.0,0.0,1.0));
#491=DIRECTION('',(0.0,-1.0,0.0));
#492=AXIS2_PLACEMENT_3D('',#489,#490,#491);
#493=CYLINDRICAL_SURFACE('',#492,7.499999999999999);
#494=CARTESIAN_POINT('',(-16.0,1.959435E-015,6.9));
#495=DIRECTION('',(0.0,0.0,-1.0));
#496=DIRECTION('',(0.0,-1.0,0.0));
#497=AXIS2_PLACEMENT_3D('',#494,#495,#496);
#498=CIRCLE('',#497,7.499999999999999);
#499=EDGE_CURVE('',#464,#391,#498,.T.);
#500=ORIENTED_EDGE('',*,*,#499,.T.);
#501=ORIENTED_EDGE('',*,*,#420,.F.);
#502=CARTESIAN_POINT('',(-16.0,1.959435E-015,0.0));
#503=DIRECTION('',(0.0,0.0,-1.0));
#504=DIRECTION('',(0.0,-1.0,0.0));
#505=AXIS2_PLACEMENT_3D('',#502,#503,#504);
#506=CIRCLE('',#505,7.499999999999999);
#507=EDGE_CURVE('',#409,#472,#506,.F.);
#508=ORIENTED_EDGE('',*,*,#507,.T.);
#509=ORIENTED_EDGE('',*,*,#477,.T.);
#510=EDGE_LOOP('',(#500,#501,#508,#509));
#511=FACE_OUTER_BOUND('',#510,.T.);
#512=ADVANCED_FACE('',(#511),#493,.T.);
#513=CARTESIAN_POINT('',(-16.0,2.377492E-015,0.0));
#514=DIRECTION('',(0.0,0.0,1.0));
#515=DIRECTION('',(-1.0,0.0,0.0));
#516=AXIS2_PLACEMENT_3D('',#513,#514,#515);
#517=PLANE('',#516);
#518=ORIENTED_EDGE('',*,*,#507,.F.);
#519=ORIENTED_EDGE('',*,*,#414,.F.);
#520=ORIENTED_EDGE('',*,*,#452,.F.);
#521=ORIENTED_EDGE('',*,*,#483,.F.);
#522=EDGE_LOOP('',(#518,#519,#520,#521));
#523=FACE_OUTER_BOUND('',#522,.T.);
#524=ORIENTED_EDGE('',*,*,#370,.T.);
#525=ORIENTED_EDGE('',*,*,#331,.T.);
#526=EDGE_LOOP('',(#524,#525));
#527=FACE_BOUND('',#526,.T.);
#528=ADVANCED_FACE('',(#523,#527),#517,.F.);
#529=CARTESIAN_POINT('',(-16.0,2.336907E-015,6.9));
#530=DIRECTION('',(0.0,0.0,1.0));
#531=DIRECTION('',(-1.0,0.0,0.0));
#532=AXIS2_PLACEMENT_3D('',#529,#530,#531);
#533=PLANE('',#532);
#534=ORIENTED_EDGE('',*,*,#398,.F.);
#535=ORIENTED_EDGE('',*,*,#499,.F.);
#536=ORIENTED_EDGE('',*,*,#469,.F.);
#537=ORIENTED_EDGE('',*,*,#437,.F.);
#538=EDGE_LOOP('',(#534,#535,#536,#537));
#539=FACE_OUTER_BOUND('',#538,.T.);
#540=ADVANCED_FACE('',(#539),#533,.T.);
#541=CLOSED_SHELL('',(#350,#374,#384,#424,#457,#488,#512,#528,#540));
#542=MANIFOLD_SOLID_BREP('221C',#541);
#543=STYLED_ITEM('NONE',(#305),#542);
#544=CARTESIAN_POINT('',(0.0,0.0,6.900000000000016));
#545=DIRECTION('',(0.0,0.0,1.0));
#546=DIRECTION('',(-1.0,0.0,0.0));
#547=AXIS2_PLACEMENT_3D('',#544,#545,#546);
#548=CYLINDRICAL_SURFACE('',#547,44.799999999999997);
#549=CARTESIAN_POINT('',(-44.799999999999997,5.486418E-015,7.700000000000016));
#550=VERTEX_POINT('',#549);
#551=CARTESIAN_POINT('',(-44.799999999999997,5.486418E-015,6.900000000000016));
#552=VERTEX_POINT('',#551);
#553=CARTESIAN_POINT('',(-44.799999999999997,5.486418E-015,7.700000000000016));
#554=DIRECTION('',(0.0,0.0,-1.0));
#555=VECTOR('',#554,0.8);
#556=LINE('',#553,#555);
#557=EDGE_CURVE('',#550,#552,#556,.T.);
#558=ORIENTED_EDGE('',*,*,#557,.F.);
#559=CARTESIAN_POINT('',(44.799999999999997,0.0,7.700000000000016));
#560=VERTEX_POINT('',#559);
#561=CARTESIAN_POINT('',(0.0,0.0,7.700000000000016));
#562=DIRECTION('',(0.0,0.0,-1.0));
#563=DIRECTION('',(-1.0,0.0,0.0));
#564=AXIS2_PLACEMENT_3D('',#561,#562,#563);
#565=CIRCLE('',#564,44.799999999999997);
#566=EDGE_CURVE('',#550,#560,#565,.T.);
#567=ORIENTED_EDGE('',*,*,#566,.T.);
#568=CARTESIAN_POINT('',(44.799999999999997,0.0,6.900000000000016));
#569=VERTEX_POINT('',#568);
#570=CARTESIAN_POINT('',(44.799999999999997,0.0,7.700000000000016));
#571=DIRECTION('',(0.0,0.0,-1.0));
#572=VECTOR('',#571,0.8);
#573=LINE('',#570,#572);
#574=EDGE_CURVE('',#560,#569,#573,.T.);
#575=ORIENTED_EDGE('',*,*,#574,.T.);
#576=CARTESIAN_POINT('',(0.0,0.0,6.900000000000016));
#577=DIRECTION('',(0.0,0.0,1.0));
#578=DIRECTION('',(-1.0,0.0,0.0));
#579=AXIS2_PLACEMENT_3D('',#576,#577,#578);
#580=CIRCLE('',#579,44.799999999999997);
#581=EDGE_CURVE('',#569,#552,#580,.T.);
#582=ORIENTED_EDGE('',*,*,#581,.T.);
#583=EDGE_LOOP('',(#558,#567,#575,#582));
#584=FACE_OUTER_BOUND('',#583,.T.);
#585=ADVANCED_FACE('',(#584),#548,.T.);
#586=CARTESIAN_POINT('',(0.0,0.0,6.900000000000016));
#587=DIRECTION('',(0.0,0.0,1.0));
#588=DIRECTION('',(-1.0,0.0,0.0));
#589=AXIS2_PLACEMENT_3D('',#586,#587,#588);
#590=CYLINDRICAL_SURFACE('',#589,44.799999999999997);
#591=ORIENTED_EDGE('',*,*,#557,.T.);
#592=CARTESIAN_POINT('',(0.0,0.0,6.900000000000016));
#593=DIRECTION('',(0.0,0.0,1.0));
#594=DIRECTION('',(-1.0,0.0,0.0));
#595=AXIS2_PLACEMENT_3D('',#592,#593,#594);
#596=CIRCLE('',#595,44.799999999999997);
#597=EDGE_CURVE('',#552,#569,#596,.T.);
#598=ORIENTED_EDGE('',*,*,#597,.T.);
#599=ORIENTED_EDGE('',*,*,#574,.F.);
#600=CARTESIAN_POINT('',(0.0,0.0,7.700000000000016));
#601=DIRECTION('',(0.0,0.0,-1.0));
#602=DIRECTION('',(-1.0,0.0,0.0));
#603=AXIS2_PLACEMENT_3D('',#600,#601,#602);
#604=CIRCLE('',#603,44.799999999999997);
#605=EDGE_CURVE('',#560,#550,#604,.T.);
#606=ORIENTED_EDGE('',*,*,#605,.T.);
#607=EDGE_LOOP('',(#591,#598,#599,#606));
#608=FACE_OUTER_BOUND('',#607,.T.);
#609=ADVANCED_FACE('',(#608),#590,.T.);
#610=CARTESIAN_POINT('',(0.0,0.0,6.900000000000016));
#611=DIRECTION('',(0.0,0.0,1.0));
#612=DIRECTION('',(-1.0,0.0,0.0));
#613=AXIS2_PLACEMENT_3D('',#610,#611,#612);
#614=PLANE('',#613);
#615=ORIENTED_EDGE('',*,*,#597,.F.);
#616=ORIENTED_EDGE('',*,*,#581,.F.);
#617=EDGE_LOOP('',(#615,#616));
#618=FACE_OUTER_BOUND('',#617,.T.);
#619=ADVANCED_FACE('',(#618),#614,.F.);
#620=CARTESIAN_POINT('',(0.0,0.0,7.700000000000016));
#621=DIRECTION('',(0.0,0.0,1.0));
#622=DIRECTION('',(-1.0,0.0,0.0));
#623=AXIS2_PLACEMENT_3D('',#620,#621,#622);
#624=PLANE('',#623);
#625=ORIENTED_EDGE('',*,*,#566,.F.);
#626=ORIENTED_EDGE('',*,*,#605,.F.);
#627=EDGE_LOOP('',(#625,#626));
#628=FACE_OUTER_BOUND('',#627,.T.);
#629=ADVANCED_FACE('',(#628),#624,.T.);
#630=CLOSED_SHELL('',(#585,#609,#619,#629));
#631=MANIFOLD_SOLID_BREP('2218',#630);
#632=COLOUR_RGB('250',0.33,0.33,0.33);
#633=SURFACE_STYLE_USAGE(.BOTH.,#634);
#634=SURFACE_SIDE_STYLE('NONE',(#635));
#635=SURFACE_STYLE_FILL_AREA(#636);
#636=FILL_AREA_STYLE('NONE',(#637));
#637=FILL_AREA_STYLE_COLOUR('NONE',#632);
#638=PRESENTATION_STYLE_ASSIGNMENT((#633));
#639=STYLED_ITEM('NONE',(#638),#631);
#640=CARTESIAN_POINT('',(0.0,0.0,2.699999999999999));
#641=DIRECTION('',(0.0,0.0,1.0));
#642=DIRECTION('',(-1.0,0.0,0.0));
#643=AXIS2_PLACEMENT_3D('',#640,#641,#642);
#644=CYLINDRICAL_SURFACE('',#643,44.799999999999997);
#645=CARTESIAN_POINT('',(-44.799999999999997,5.486418E-015,2.699999999999999));
#646=VERTEX_POINT('',#645);
#647=CARTESIAN_POINT('',(-44.799999999999997,5.486418E-015,7.699999999999999));
#648=VERTEX_POINT('',#647);
#649=CARTESIAN_POINT('',(-44.799999999999997,5.486418E-015,2.699999999999999));
#650=DIRECTION('',(0.0,0.0,1.0));
#651=VECTOR('',#650,5.0);
#652=LINE('',#649,#651);
#653=EDGE_CURVE('',#646,#648,#652,.T.);
#654=ORIENTED_EDGE('',*,*,#653,.F.);
#655=CARTESIAN_POINT('',(44.799999999999997,0.0,2.699999999999999));
#656=VERTEX_POINT('',#655);
#657=CARTESIAN_POINT('',(0.0,0.0,2.699999999999999));
#658=DIRECTION('',(0.0,0.0,1.0));
#659=DIRECTION('',(-1.0,0.0,0.0));
#660=AXIS2_PLACEMENT_3D('',#657,#658,#659);
#661=CIRCLE('',#660,44.799999999999997);
#662=EDGE_CURVE('',#656,#646,#661,.T.);
#663=ORIENTED_EDGE('',*,*,#662,.F.);
#664=CARTESIAN_POINT('',(44.799999999999997,0.0,7.699999999999999));
#665=VERTEX_POINT('',#664);
#666=CARTESIAN_POINT('',(44.799999999999997,0.0,2.699999999999999));
#667=DIRECTION('',(0.0,0.0,1.0));
#668=VECTOR('',#667,5.0);
#669=LINE('',#666,#668);
#670=EDGE_CURVE('',#656,#665,#669,.T.);
#671=ORIENTED_EDGE('',*,*,#670,.T.);
#672=CARTESIAN_POINT('',(0.0,0.0,7.699999999999999));
#673=DIRECTION('',(0.0,0.0,-1.0));
#674=DIRECTION('',(-1.0,0.0,0.0));
#675=AXIS2_PLACEMENT_3D('',#672,#673,#674);
#676=CIRCLE('',#675,44.799999999999997);
#677=EDGE_CURVE('',#648,#665,#676,.T.);
#678=ORIENTED_EDGE('',*,*,#677,.F.);
#679=EDGE_LOOP('',(#654,#663,#671,#678));
#680=FACE_OUTER_BOUND('',#679,.T.);
#681=ADVANCED_FACE('',(#680),#644,.F.);
#682=CARTESIAN_POINT('',(0.0,0.0,2.699999999999999));
#683=DIRECTION('',(0.0,0.0,1.0));
#684=DIRECTION('',(-1.0,0.0,0.0));
#685=AXIS2_PLACEMENT_3D('',#682,#683,#684);
#686=CYLINDRICAL_SURFACE('',#685,46.299999999999997);
#687=CARTESIAN_POINT('',(-46.299999999999997,-5.670115E-015,221.89999999999998));
#688=VERTEX_POINT('',#687);
#689=CARTESIAN_POINT('',(-46.299999999999997,5.670115E-015,2.699999999999999));
#690=VERTEX_POINT('',#689);
#691=CARTESIAN_POINT('',(-46.299999999999997,5.670115E-015,221.89999999999998));
#692=DIRECTION('',(0.0,0.0,-1.0));
#693=VECTOR('',#692,219.19999999999999);
#694=LINE('',#691,#693);
#695=EDGE_CURVE('',#688,#690,#694,.T.);
#696=ORIENTED_EDGE('',*,*,#695,.F.);
#697=CARTESIAN_POINT('',(46.299999999999997,-5.670115E-015,221.89999999999998));
#698=VERTEX_POINT('',#697);
#699=CARTESIAN_POINT('',(0.0,0.0,221.89999999999998));
#700=DIRECTION('',(0.0,0.0,1.0));
#701=DIRECTION('',(1.0,0.0,0.0));
#702=AXIS2_PLACEMENT_3D('',#699,#700,#701);
#703=CIRCLE('',#702,46.299999999999997);
#704=EDGE_CURVE('',#698,#688,#703,.T.);
#705=ORIENTED_EDGE('',*,*,#704,.F.);
#706=CARTESIAN_POINT('',(46.299999999999997,0.0,2.699999999999999));
#707=VERTEX_POINT('',#706);
#708=CARTESIAN_POINT('',(46.299999999999997,0.0,221.89999999999998));
#709=DIRECTION('',(0.0,0.0,-1.0));
#710=VECTOR('',#709,219.19999999999999);
#711=LINE('',#708,#710);
#712=EDGE_CURVE('',#698,#707,#711,.T.);
#713=ORIENTED_EDGE('',*,*,#712,.T.);
#714=CARTESIAN_POINT('',(0.0,0.0,2.699999999999999));
#715=DIRECTION('',(0.0,0.0,1.0));
#716=DIRECTION('',(-1.0,0.0,0.0));
#717=AXIS2_PLACEMENT_3D('',#714,#715,#716);
#718=CIRCLE('',#717,46.299999999999997);
#719=EDGE_CURVE('',#707,#690,#718,.T.);
#720=ORIENTED_EDGE('',*,*,#719,.T.);
#721=EDGE_LOOP('',(#696,#705,#713,#720));
#722=FACE_OUTER_BOUND('',#721,.T.);
#723=ADVANCED_FACE('',(#722),#686,.T.);
#724=CARTESIAN_POINT('',(0.0,0.0,221.89999999999998));
#725=DIRECTION('',(0.0,0.0,-1.0));
#726=DIRECTION('',(1.0,0.0,0.0));
#727=AXIS2_PLACEMENT_3D('',#724,#725,#726);
#728=TOROIDAL_SURFACE('',#727,41.299999999999997,5.0);
#729=CARTESIAN_POINT('',(41.299999999999997,-5.057791E-015,226.89999999999998));
#730=VERTEX_POINT('',#729);
#731=CARTESIAN_POINT('',(41.299999999999997,-5.057791E-015,221.89999999999998));
#732=DIRECTION('',(0.0,-1.0,0.0));
#733=DIRECTION('',(1.0,0.0,0.0));
#734=AXIS2_PLACEMENT_3D('',#731,#732,#733);
#735=CIRCLE('',#734,5.0);
#736=EDGE_CURVE('',#698,#730,#735,.T.);
#737=ORIENTED_EDGE('',*,*,#736,.F.);
#738=ORIENTED_EDGE('',*,*,#704,.T.);
#739=CARTESIAN_POINT('',(-41.299999999999997,5.057791E-015,226.89999999999998));
#740=VERTEX_POINT('',#739);
#741=CARTESIAN_POINT('',(-41.299999999999997,1.011558E-014,221.89999999999998));
#742=DIRECTION('',(0.0,1.0,0.0));
#743=DIRECTION('',(-1.0,0.0,0.0));
#744=AXIS2_PLACEMENT_3D('',#741,#742,#743);
#745=CIRCLE('',#744,5.0);
#746=EDGE_CURVE('',#688,#740,#745,.T.);
#747=ORIENTED_EDGE('',*,*,#746,.T.);
#748=CARTESIAN_POINT('',(0.0,0.0,226.89999999999998));
#749=DIRECTION('',(0.0,0.0,-1.0));
#750=DIRECTION('',(1.0,0.0,0.0));
#751=AXIS2_PLACEMENT_3D('',#748,#749,#750);
#752=CIRCLE('',#751,41.299999999999997);
#753=EDGE_CURVE('',#740,#730,#752,.T.);
#754=ORIENTED_EDGE('',*,*,#753,.T.);
#755=EDGE_LOOP('',(#737,#738,#747,#754));
#756=FACE_OUTER_BOUND('',#755,.T.);
#757=ADVANCED_FACE('',(#756),#728,.T.);
#758=CARTESIAN_POINT('',(0.0,0.0,221.89999999999998));
#759=DIRECTION('',(0.0,0.0,-1.0));
#760=DIRECTION('',(1.0,0.0,0.0));
#761=AXIS2_PLACEMENT_3D('',#758,#759,#760);
#762=TOROIDAL_SURFACE('',#761,41.299999999999997,5.0);
#763=ORIENTED_EDGE('',*,*,#736,.T.);
#764=CARTESIAN_POINT('',(0.0,0.0,226.89999999999998));
#765=DIRECTION('',(0.0,0.0,-1.0));
#766=DIRECTION('',(1.0,0.0,0.0));
#767=AXIS2_PLACEMENT_3D('',#764,#765,#766);
#768=CIRCLE('',#767,41.299999999999997);
#769=EDGE_CURVE('',#730,#740,#768,.T.);
#770=ORIENTED_EDGE('',*,*,#769,.T.);
#771=ORIENTED_EDGE('',*,*,#746,.F.);
#772=CARTESIAN_POINT('',(0.0,0.0,221.89999999999998));
#773=DIRECTION('',(0.0,0.0,1.0));
#774=DIRECTION('',(1.0,0.0,0.0));
#775=AXIS2_PLACEMENT_3D('',#772,#773,#774);
#776=CIRCLE('',#775,46.299999999999997);
#777=EDGE_CURVE('',#688,#698,#776,.T.);
#778=ORIENTED_EDGE('',*,*,#777,.T.);
#779=EDGE_LOOP('',(#763,#770,#771,#778));
#780=FACE_OUTER_BOUND('',#779,.T.);
#781=ADVANCED_FACE('',(#780),#762,.T.);
#782=CARTESIAN_POINT('',(0.0,0.0,2.699999999999999));
#783=DIRECTION('',(0.0,0.0,1.0));
#784=DIRECTION('',(-1.0,0.0,0.0));
#785=AXIS2_PLACEMENT_3D('',#782,#783,#784);
#786=CYLINDRICAL_SURFACE('',#785,46.299999999999997);
#787=ORIENTED_EDGE('',*,*,#695,.T.);
#788=CARTESIAN_POINT('',(0.0,0.0,2.699999999999999));
#789=DIRECTION('',(0.0,0.0,1.0));
#790=DIRECTION('',(-1.0,0.0,0.0));
#791=AXIS2_PLACEMENT_3D('',#788,#789,#790);
#792=CIRCLE('',#791,46.299999999999997);
#793=EDGE_CURVE('',#690,#707,#792,.T.);
#794=ORIENTED_EDGE('',*,*,#793,.T.);
#795=ORIENTED_EDGE('',*,*,#712,.F.);
#796=ORIENTED_EDGE('',*,*,#777,.F.);
#797=EDGE_LOOP('',(#787,#794,#795,#796));
#798=FACE_OUTER_BOUND('',#797,.T.);
#799=ADVANCED_FACE('',(#798),#786,.T.);
#800=CARTESIAN_POINT('',(0.0,0.0,226.89999999999998));
#801=DIRECTION('',(0.0,0.0,1.0));
#802=DIRECTION('',(-1.0,0.0,0.0));
#803=AXIS2_PLACEMENT_3D('',#800,#801,#802);
#804=PLANE('',#803);
#805=ORIENTED_EDGE('',*,*,#753,.F.);
#806=ORIENTED_EDGE('',*,*,#769,.F.);
#807=EDGE_LOOP('',(#805,#806));
#808=FACE_OUTER_BOUND('',#807,.T.);
#809=ADVANCED_FACE('',(#808),#804,.T.);
#810=CARTESIAN_POINT('',(0.0,0.0,2.699999999999999));
#811=DIRECTION('',(0.0,0.0,1.0));
#812=DIRECTION('',(-1.0,0.0,0.0));
#813=AXIS2_PLACEMENT_3D('',#810,#811,#812);
#814=CYLINDRICAL_SURFACE('',#813,44.799999999999997);
#815=ORIENTED_EDGE('',*,*,#653,.T.);
#816=CARTESIAN_POINT('',(0.0,0.0,7.699999999999999));
#817=DIRECTION('',(0.0,0.0,-1.0));
#818=DIRECTION('',(-1.0,0.0,0.0));
#819=AXIS2_PLACEMENT_3D('',#816,#817,#818);
#820=CIRCLE('',#819,44.799999999999997);
#821=EDGE_CURVE('',#665,#648,#820,.T.);
#822=ORIENTED_EDGE('',*,*,#821,.F.);
#823=ORIENTED_EDGE('',*,*,#670,.F.);
#824=CARTESIAN_POINT('',(0.0,0.0,2.699999999999999));
#825=DIRECTION('',(0.0,0.0,1.0));
#826=DIRECTION('',(-1.0,0.0,0.0));
#827=AXIS2_PLACEMENT_3D('',#824,#825,#826);
#828=CIRCLE('',#827,44.799999999999997);
#829=EDGE_CURVE('',#646,#656,#828,.T.);
#830=ORIENTED_EDGE('',*,*,#829,.F.);
#831=EDGE_LOOP('',(#815,#822,#823,#830));
#832=FACE_OUTER_BOUND('',#831,.T.);
#833=ADVANCED_FACE('',(#832),#814,.F.);
#834=CARTESIAN_POINT('',(0.0,0.0,7.699999999999999));
#835=DIRECTION('',(0.0,0.0,1.0));
#836=DIRECTION('',(-1.0,0.0,0.0));
#837=AXIS2_PLACEMENT_3D('',#834,#835,#836);
#838=PLANE('',#837);
#839=ORIENTED_EDGE('',*,*,#677,.T.);
#840=ORIENTED_EDGE('',*,*,#821,.T.);
#841=EDGE_LOOP('',(#839,#840));
#842=FACE_OUTER_BOUND('',#841,.T.);
#843=ADVANCED_FACE('',(#842),#838,.F.);
#844=CARTESIAN_POINT('',(0.0,0.0,2.699999999999999));
#845=DIRECTION('',(0.0,0.0,1.0));
#846=DIRECTION('',(-1.0,0.0,0.0));
#847=AXIS2_PLACEMENT_3D('',#844,#845,#846);
#848=PLANE('',#847);
#849=ORIENTED_EDGE('',*,*,#793,.F.);
#850=ORIENTED_EDGE('',*,*,#719,.F.);
#851=EDGE_LOOP('',(#849,#850));
#852=FACE_OUTER_BOUND('',#851,.T.);
#853=ORIENTED_EDGE('',*,*,#829,.T.);
#854=ORIENTED_EDGE('',*,*,#662,.T.);
#855=EDGE_LOOP('',(#853,#854));
#856=FACE_BOUND('',#855,.T.);
#857=ADVANCED_FACE('',(#852,#856),#848,.F.);
#858=CLOSED_SHELL('',(#681,#723,#757,#781,#799,#809,#833,#843,#857));
#859=MANIFOLD_SOLID_BREP('2209',#858);
#860=DRAUGHTING_PRE_DEFINED_COLOUR('white');
#861=SURFACE_STYLE_USAGE(.BOTH.,#862);
#862=SURFACE_SIDE_STYLE('NONE',(#863));
#863=SURFACE_STYLE_FILL_AREA(#864);
#864=FILL_AREA_STYLE('NONE',(#865));
#865=FILL_AREA_STYLE_COLOUR('NONE',#860);
#866=PRESENTATION_STYLE_ASSIGNMENT((#861));
#867=STYLED_ITEM('NONE',(#866),#859);
#868=ADVANCED_BREP_SHAPE_REPRESENTATION('ABSR1',(#298,#542,#631,#859),#28);
#869=SHAPE_REPRESENTATION_RELATIONSHIP('SRRPL1','',#868,#62);
ENDSEC;
END-ISO-10303-21;
