ISO-10303-21;
HEADER;
/* Generated by software containing ST-Developer
 * from STEP Tools, Inc. (www.steptools.com) 
 */

FILE_DESCRIPTION(
/* description */ (''),
/* implementation_level */ '2;1');

FILE_NAME(
/* name */ 
'G:\\Applications\\Altium\\CernLib\\StepLib\\CAPPRB508-890X1550.stp',
/* time_stamp */ '2016-04-12T15:54:50+02:00',
/* author */ ('riccim'),
/* organization */ (''),
/* preprocessor_version */ 'ST-DEVELOPER v15.5',
/* originating_system */ 'AutoCAD Mechanical',
/* authorisation */ '');

FILE_SCHEMA (('AUTOMOTIVE_DESIGN { 1 0 10303 214 3 1 1 }'));
ENDSEC;

DATA;
#10=MECHANICAL_DESIGN_GEOMETRIC_PRESENTATION_REPRESENTATION('',(#32,#33,
#29,#30,#31),#445);
#11=DIMENSIONAL_EXPONENTS(0.,0.,0.,0.,0.,0.,0.);
#12=(
CONVERSION_BASED_UNIT('degree',#13)
NAMED_UNIT(#11)
PLANE_ANGLE_UNIT()
);
#13=PLANE_ANGLE_MEASURE_WITH_UNIT(PLANE_ANGLE_MEASURE(0.01745329252),#448);
#14=PRESENTATION_LAYER_ASSIGNMENT('3D','',(#221,#222,#223,#224,#225));
#15=(
BOUNDED_CURVE()
B_SPLINE_CURVE(2,(#437,#438,#439,#440,#441),.UNSPECIFIED.,.F.,.F.)
B_SPLINE_CURVE_WITH_KNOTS((3,2,3),(0.,1.5707963267949,3.14159265358979),
 .UNSPECIFIED.)
CURVE()
GEOMETRIC_REPRESENTATION_ITEM()
RATIONAL_B_SPLINE_CURVE((1.,0.707106781186548,1.,0.707106781186548,1.))
REPRESENTATION_ITEM($)
);
#16=(
BOUNDED_SURFACE()
B_SPLINE_SURFACE(2,2,((#390,#391,#392,#393,#394,#395,#396,#397,#398),(#399,
#400,#401,#402,#403,#404,#405,#406,#407),(#408,#409,#410,#411,#412,#413,
#414,#415,#416),(#417,#418,#419,#420,#421,#422,#423,#424,#425),(#426,#427,
#428,#429,#430,#431,#432,#433,#434)),.UNSPECIFIED.,.F.,.T.,.F.)
B_SPLINE_SURFACE_WITH_KNOTS((3,2,3),(3,2,2,2,3),(-3.14159265358979,-1.5707963267949,
0.),(0.,1.5707963267949,3.14159265358979,4.71238898038469,6.28318530717959),
 .UNSPECIFIED.)
GEOMETRIC_REPRESENTATION_ITEM()
RATIONAL_B_SPLINE_SURFACE(((1.,0.707106781186548,1.,0.707106781186548,1.,
0.707106781186548,1.,0.707106781186548,1.),(0.707106781186548,0.5,0.707106781186548,
0.5,0.707106781186548,0.5,0.707106781186548,0.5,0.707106781186548),(1.,
0.707106781186548,1.,0.707106781186548,1.,0.707106781186548,1.,0.707106781186548,
1.),(0.707106781186548,0.5,0.707106781186548,0.5,0.707106781186548,0.5,
0.707106781186548,0.5,0.707106781186548),(1.,0.707106781186548,1.,0.707106781186548,
1.,0.707106781186548,1.,0.707106781186548,1.)))
REPRESENTATION_ITEM($)
SURFACE()
);
#17=TOROIDAL_SURFACE($,#240,0.600000000000003,0.25);
#18=TOROIDAL_SURFACE($,#244,0.600000000000001,0.25);
#19=TOROIDAL_SURFACE($,#253,0.600000000000003,0.25);
#20=TOROIDAL_SURFACE($,#257,0.600000000000001,0.25);
#21=CYLINDRICAL_SURFACE($,#237,0.25);
#22=CYLINDRICAL_SURFACE($,#242,0.25);
#23=CYLINDRICAL_SURFACE($,#246,0.25);
#24=CYLINDRICAL_SURFACE($,#250,0.25);
#25=CYLINDRICAL_SURFACE($,#255,0.25);
#26=CYLINDRICAL_SURFACE($,#259,0.25);
#27=SHAPE_REPRESENTATION_RELATIONSHIP('SRR','None',#451,#28);
#28=ADVANCED_BREP_SHAPE_REPRESENTATION($,(#221,#222,#223,#224,#225),#444);
#29=STYLED_ITEM($,(#461),#221);
#30=STYLED_ITEM($,(#461),#222);
#31=STYLED_ITEM($,(#462),#223);
#32=STYLED_ITEM($,(#462),#224);
#33=STYLED_ITEM($,(#461),#225);
#34=FACE_BOUND($,#71,.T.);
#35=FACE_BOUND($,#75,.T.);
#36=FACE_BOUND($,#78,.T.);
#37=FACE_BOUND($,#80,.T.);
#38=FACE_BOUND($,#82,.T.);
#39=FACE_BOUND($,#84,.T.);
#40=FACE_BOUND($,#86,.T.);
#41=FACE_BOUND($,#90,.T.);
#42=FACE_BOUND($,#92,.T.);
#43=FACE_BOUND($,#94,.T.);
#44=FACE_BOUND($,#96,.T.);
#45=FACE_BOUND($,#98,.T.);
#46=CONICAL_SURFACE($,#229,0.25,0.165148677414627);
#47=CONICAL_SURFACE($,#234,0.25,0.165148677414627);
#48=FACE_OUTER_BOUND($,#69,.T.);
#49=FACE_OUTER_BOUND($,#70,.T.);
#50=FACE_OUTER_BOUND($,#72,.T.);
#51=FACE_OUTER_BOUND($,#73,.T.);
#52=FACE_OUTER_BOUND($,#74,.T.);
#53=FACE_OUTER_BOUND($,#76,.T.);
#54=FACE_OUTER_BOUND($,#77,.T.);
#55=FACE_OUTER_BOUND($,#79,.T.);
#56=FACE_OUTER_BOUND($,#81,.T.);
#57=FACE_OUTER_BOUND($,#83,.T.);
#58=FACE_OUTER_BOUND($,#85,.T.);
#59=FACE_OUTER_BOUND($,#87,.T.);
#60=FACE_OUTER_BOUND($,#88,.T.);
#61=FACE_OUTER_BOUND($,#89,.T.);
#62=FACE_OUTER_BOUND($,#91,.T.);
#63=FACE_OUTER_BOUND($,#93,.T.);
#64=FACE_OUTER_BOUND($,#95,.T.);
#65=FACE_OUTER_BOUND($,#97,.T.);
#66=FACE_OUTER_BOUND($,#99,.T.);
#67=FACE_OUTER_BOUND($,#100,.T.);
#68=FACE_OUTER_BOUND($,#101,.T.);
#69=EDGE_LOOP($,(#153));
#70=EDGE_LOOP($,(#154));
#71=EDGE_LOOP($,(#155));
#72=EDGE_LOOP($,(#156));
#73=EDGE_LOOP($,(#157));
#74=EDGE_LOOP($,(#158));
#75=EDGE_LOOP($,(#159));
#76=EDGE_LOOP($,(#160));
#77=EDGE_LOOP($,(#161));
#78=EDGE_LOOP($,(#162));
#79=EDGE_LOOP($,(#163));
#80=EDGE_LOOP($,(#164));
#81=EDGE_LOOP($,(#165));
#82=EDGE_LOOP($,(#166));
#83=EDGE_LOOP($,(#167));
#84=EDGE_LOOP($,(#168));
#85=EDGE_LOOP($,(#169));
#86=EDGE_LOOP($,(#170));
#87=EDGE_LOOP($,(#171));
#88=EDGE_LOOP($,(#172));
#89=EDGE_LOOP($,(#173));
#90=EDGE_LOOP($,(#174));
#91=EDGE_LOOP($,(#175));
#92=EDGE_LOOP($,(#176));
#93=EDGE_LOOP($,(#177));
#94=EDGE_LOOP($,(#178));
#95=EDGE_LOOP($,(#179));
#96=EDGE_LOOP($,(#180));
#97=EDGE_LOOP($,(#181));
#98=EDGE_LOOP($,(#182));
#99=EDGE_LOOP($,(#183));
#100=EDGE_LOOP($,(#184));
#101=EDGE_LOOP($,(#185,#186));
#102=CIRCLE($,#228,0.25);
#103=CIRCLE($,#230,0.5);
#104=CIRCLE($,#233,0.25);
#105=CIRCLE($,#235,0.5);
#106=CIRCLE($,#238,0.25);
#107=CIRCLE($,#239,0.25);
#108=CIRCLE($,#241,0.25);
#109=CIRCLE($,#243,0.25);
#110=CIRCLE($,#245,0.25);
#111=CIRCLE($,#247,0.25);
#112=CIRCLE($,#251,0.25);
#113=CIRCLE($,#252,0.25);
#114=CIRCLE($,#254,0.25);
#115=CIRCLE($,#256,0.25);
#116=CIRCLE($,#258,0.25);
#117=CIRCLE($,#260,0.25);
#118=VERTEX_POINT($,#339);
#119=VERTEX_POINT($,#342);
#120=VERTEX_POINT($,#346);
#121=VERTEX_POINT($,#349);
#122=VERTEX_POINT($,#353);
#123=VERTEX_POINT($,#355);
#124=VERTEX_POINT($,#358);
#125=VERTEX_POINT($,#361);
#126=VERTEX_POINT($,#364);
#127=VERTEX_POINT($,#367);
#128=VERTEX_POINT($,#372);
#129=VERTEX_POINT($,#374);
#130=VERTEX_POINT($,#377);
#131=VERTEX_POINT($,#380);
#132=VERTEX_POINT($,#383);
#133=VERTEX_POINT($,#386);
#134=VERTEX_POINT($,#435);
#135=VERTEX_POINT($,#436);
#136=EDGE_CURVE($,#118,#118,#102,.T.);
#137=EDGE_CURVE($,#119,#119,#103,.T.);
#138=EDGE_CURVE($,#120,#120,#104,.T.);
#139=EDGE_CURVE($,#121,#121,#105,.T.);
#140=EDGE_CURVE($,#122,#122,#106,.T.);
#141=EDGE_CURVE($,#123,#123,#107,.T.);
#142=EDGE_CURVE($,#124,#124,#108,.T.);
#143=EDGE_CURVE($,#125,#125,#109,.T.);
#144=EDGE_CURVE($,#126,#126,#110,.T.);
#145=EDGE_CURVE($,#127,#127,#111,.T.);
#146=EDGE_CURVE($,#128,#128,#112,.T.);
#147=EDGE_CURVE($,#129,#129,#113,.T.);
#148=EDGE_CURVE($,#130,#130,#114,.T.);
#149=EDGE_CURVE($,#131,#131,#115,.T.);
#150=EDGE_CURVE($,#132,#132,#116,.T.);
#151=EDGE_CURVE($,#133,#133,#117,.T.);
#152=EDGE_CURVE($,#134,#135,#15,.T.);
#153=ORIENTED_EDGE($,*,*,#136,.F.);
#154=ORIENTED_EDGE($,*,*,#136,.T.);
#155=ORIENTED_EDGE($,*,*,#137,.F.);
#156=ORIENTED_EDGE($,*,*,#137,.T.);
#157=ORIENTED_EDGE($,*,*,#138,.T.);
#158=ORIENTED_EDGE($,*,*,#138,.F.);
#159=ORIENTED_EDGE($,*,*,#139,.T.);
#160=ORIENTED_EDGE($,*,*,#139,.F.);
#161=ORIENTED_EDGE($,*,*,#140,.F.);
#162=ORIENTED_EDGE($,*,*,#141,.T.);
#163=ORIENTED_EDGE($,*,*,#141,.F.);
#164=ORIENTED_EDGE($,*,*,#142,.T.);
#165=ORIENTED_EDGE($,*,*,#142,.F.);
#166=ORIENTED_EDGE($,*,*,#143,.T.);
#167=ORIENTED_EDGE($,*,*,#143,.F.);
#168=ORIENTED_EDGE($,*,*,#144,.T.);
#169=ORIENTED_EDGE($,*,*,#144,.F.);
#170=ORIENTED_EDGE($,*,*,#145,.F.);
#171=ORIENTED_EDGE($,*,*,#140,.T.);
#172=ORIENTED_EDGE($,*,*,#145,.T.);
#173=ORIENTED_EDGE($,*,*,#146,.T.);
#174=ORIENTED_EDGE($,*,*,#147,.F.);
#175=ORIENTED_EDGE($,*,*,#147,.T.);
#176=ORIENTED_EDGE($,*,*,#148,.F.);
#177=ORIENTED_EDGE($,*,*,#148,.T.);
#178=ORIENTED_EDGE($,*,*,#149,.F.);
#179=ORIENTED_EDGE($,*,*,#149,.T.);
#180=ORIENTED_EDGE($,*,*,#150,.F.);
#181=ORIENTED_EDGE($,*,*,#150,.T.);
#182=ORIENTED_EDGE($,*,*,#151,.T.);
#183=ORIENTED_EDGE($,*,*,#146,.F.);
#184=ORIENTED_EDGE($,*,*,#151,.F.);
#185=ORIENTED_EDGE($,*,*,#152,.F.);
#186=ORIENTED_EDGE($,*,*,#152,.T.);
#187=PLANE($,#227);
#188=PLANE($,#231);
#189=PLANE($,#232);
#190=PLANE($,#236);
#191=PLANE($,#248);
#192=PLANE($,#249);
#193=PLANE($,#261);
#194=PLANE($,#262);
#195=ADVANCED_FACE($,(#48),#187,.F.);
#196=ADVANCED_FACE($,(#49,#34),#46,.T.);
#197=ADVANCED_FACE($,(#50),#188,.T.);
#198=ADVANCED_FACE($,(#51),#189,.T.);
#199=ADVANCED_FACE($,(#52,#35),#47,.T.);
#200=ADVANCED_FACE($,(#53),#190,.F.);
#201=ADVANCED_FACE($,(#54,#36),#21,.T.);
#202=ADVANCED_FACE($,(#55,#37),#17,.T.);
#203=ADVANCED_FACE($,(#56,#38),#22,.T.);
#204=ADVANCED_FACE($,(#57,#39),#18,.T.);
#205=ADVANCED_FACE($,(#58,#40),#23,.T.);
#206=ADVANCED_FACE($,(#59),#191,.F.);
#207=ADVANCED_FACE($,(#60),#192,.T.);
#208=ADVANCED_FACE($,(#61,#41),#24,.T.);
#209=ADVANCED_FACE($,(#62,#42),#19,.T.);
#210=ADVANCED_FACE($,(#63,#43),#25,.T.);
#211=ADVANCED_FACE($,(#64,#44),#20,.T.);
#212=ADVANCED_FACE($,(#65,#45),#26,.T.);
#213=ADVANCED_FACE($,(#66),#193,.T.);
#214=ADVANCED_FACE($,(#67),#194,.F.);
#215=ADVANCED_FACE($,(#68),#16,.T.);
#216=CLOSED_SHELL($,(#195,#196,#197));
#217=CLOSED_SHELL($,(#198,#199,#200));
#218=CLOSED_SHELL($,(#201,#202,#203,#204,#205,#206,#207));
#219=CLOSED_SHELL($,(#208,#209,#210,#211,#212,#213,#214));
#220=CLOSED_SHELL($,(#215));
#221=MANIFOLD_SOLID_BREP('156',#216);
#222=MANIFOLD_SOLID_BREP('15A',#217);
#223=MANIFOLD_SOLID_BREP('1D1',#218);
#224=MANIFOLD_SOLID_BREP('1D5',#219);
#225=MANIFOLD_SOLID_BREP('43F',#220);
#226=AXIS2_PLACEMENT_3D('placement',#337,#263,#264);
#227=AXIS2_PLACEMENT_3D($,#338,#265,#266);
#228=AXIS2_PLACEMENT_3D($,#340,#267,#268);
#229=AXIS2_PLACEMENT_3D($,#341,#269,#270);
#230=AXIS2_PLACEMENT_3D($,#343,#271,#272);
#231=AXIS2_PLACEMENT_3D($,#344,#273,#274);
#232=AXIS2_PLACEMENT_3D($,#345,#275,#276);
#233=AXIS2_PLACEMENT_3D($,#347,#277,#278);
#234=AXIS2_PLACEMENT_3D($,#348,#279,#280);
#235=AXIS2_PLACEMENT_3D($,#350,#281,#282);
#236=AXIS2_PLACEMENT_3D($,#351,#283,#284);
#237=AXIS2_PLACEMENT_3D($,#352,#285,#286);
#238=AXIS2_PLACEMENT_3D($,#354,#287,#288);
#239=AXIS2_PLACEMENT_3D($,#356,#289,#290);
#240=AXIS2_PLACEMENT_3D($,#357,#291,#292);
#241=AXIS2_PLACEMENT_3D($,#359,#293,#294);
#242=AXIS2_PLACEMENT_3D($,#360,#295,#296);
#243=AXIS2_PLACEMENT_3D($,#362,#297,#298);
#244=AXIS2_PLACEMENT_3D($,#363,#299,#300);
#245=AXIS2_PLACEMENT_3D($,#365,#301,#302);
#246=AXIS2_PLACEMENT_3D($,#366,#303,#304);
#247=AXIS2_PLACEMENT_3D($,#368,#305,#306);
#248=AXIS2_PLACEMENT_3D($,#369,#307,#308);
#249=AXIS2_PLACEMENT_3D($,#370,#309,#310);
#250=AXIS2_PLACEMENT_3D($,#371,#311,#312);
#251=AXIS2_PLACEMENT_3D($,#373,#313,#314);
#252=AXIS2_PLACEMENT_3D($,#375,#315,#316);
#253=AXIS2_PLACEMENT_3D($,#376,#317,#318);
#254=AXIS2_PLACEMENT_3D($,#378,#319,#320);
#255=AXIS2_PLACEMENT_3D($,#379,#321,#322);
#256=AXIS2_PLACEMENT_3D($,#381,#323,#324);
#257=AXIS2_PLACEMENT_3D($,#382,#325,#326);
#258=AXIS2_PLACEMENT_3D($,#384,#327,#328);
#259=AXIS2_PLACEMENT_3D($,#385,#329,#330);
#260=AXIS2_PLACEMENT_3D($,#387,#331,#332);
#261=AXIS2_PLACEMENT_3D($,#388,#333,#334);
#262=AXIS2_PLACEMENT_3D($,#389,#335,#336);
#263=DIRECTION('axis',(0.,0.,1.));
#264=DIRECTION('refdir',(1.,0.,0.));
#265=DIRECTION('center_axis',(-4.44089209850063E-16,2.88657986402541E-15,
1.));
#266=DIRECTION('ref_axis',(-1.,-2.22044604925032E-16,-4.44089209850063E-16));
#267=DIRECTION('center_axis',(-4.44089209850063E-16,2.88657986402541E-15,
1.));
#268=DIRECTION('ref_axis',(1.,2.22044604925032E-16,4.44089209850063E-16));
#269=DIRECTION('center_axis',(-4.44089209850063E-16,2.88657986402541E-15,
1.));
#270=DIRECTION('ref_axis',(1.,2.22044604925032E-16,4.44089209850063E-16));
#271=DIRECTION('center_axis',(-4.44089209850063E-16,2.88657986402541E-15,
1.));
#272=DIRECTION('ref_axis',(1.,2.22044604925032E-16,4.44089209850063E-16));
#273=DIRECTION('center_axis',(-4.44089209850063E-16,2.88657986402541E-15,
1.));
#274=DIRECTION('ref_axis',(-1.,-2.22044604925032E-16,-4.44089209850063E-16));
#275=DIRECTION('center_axis',(-4.44089209850063E-16,-2.88657986402541E-15,
-1.));
#276=DIRECTION('ref_axis',(1.,-2.22044604925032E-16,-4.44089209850063E-16));
#277=DIRECTION('center_axis',(-4.44089209850063E-16,-2.88657986402541E-15,
-1.));
#278=DIRECTION('ref_axis',(-1.,2.22044604925032E-16,4.44089209850063E-16));
#279=DIRECTION('center_axis',(4.44089209850063E-16,2.88657986402541E-15,
1.));
#280=DIRECTION('ref_axis',(-1.,2.22044604925032E-16,4.44089209850063E-16));
#281=DIRECTION('center_axis',(-4.44089209850063E-16,-2.88657986402541E-15,
-1.));
#282=DIRECTION('ref_axis',(-1.,2.22044604925032E-16,4.44089209850063E-16));
#283=DIRECTION('center_axis',(-4.44089209850063E-16,-2.88657986402541E-15,
-1.));
#284=DIRECTION('ref_axis',(1.,-2.22044604925032E-16,-4.44089209850063E-16));
#285=DIRECTION('center_axis',(0.,0.,1.));
#286=DIRECTION('ref_axis',(1.,0.,0.));
#287=DIRECTION('center_axis',(1.66533453693773E-15,2.22044604925031E-16,
1.));
#288=DIRECTION('ref_axis',(1.,0.,-1.66533453693773E-15));
#289=DIRECTION('center_axis',(1.66533453693773E-15,2.22044604925031E-16,
1.));
#290=DIRECTION('ref_axis',(1.,0.,-1.66533453693773E-15));
#291=DIRECTION('center_axis',(0.,1.,0.));
#292=DIRECTION('ref_axis',(0.,0.,1.));
#293=DIRECTION('center_axis',(-0.78567390062783,2.22044604925031E-16,0.618640866636089));
#294=DIRECTION('ref_axis',(0.618640866636089,0.,0.78567390062783));
#295=DIRECTION('center_axis',(-0.785673900627831,0.,0.618640866636088));
#296=DIRECTION('ref_axis',(0.618640866636087,0.,0.785673900627831));
#297=DIRECTION('center_axis',(-0.78567390062783,2.22044604925031E-16,0.618640866636089));
#298=DIRECTION('ref_axis',(0.618640866636089,0.,0.78567390062783));
#299=DIRECTION('center_axis',(0.,-1.,0.));
#300=DIRECTION('ref_axis',(0.,0.,-1.));
#301=DIRECTION('center_axis',(0.,2.22044604925031E-16,1.));
#302=DIRECTION('ref_axis',(1.,0.,0.));
#303=DIRECTION('center_axis',(0.,0.,1.));
#304=DIRECTION('ref_axis',(1.,0.,0.));
#305=DIRECTION('center_axis',(0.,-2.22044604925031E-16,-1.));
#306=DIRECTION('ref_axis',(1.,0.,0.));
#307=DIRECTION('center_axis',(-1.88737914186277E-15,-2.22044604925031E-16,
-1.));
#308=DIRECTION('ref_axis',(-1.,0.,1.99840144432528E-15));
#309=DIRECTION('center_axis',(0.,-2.22044604925031E-16,-1.));
#310=DIRECTION('ref_axis',(-1.,0.,0.));
#311=DIRECTION('center_axis',(0.,0.,-1.));
#312=DIRECTION('ref_axis',(-1.,0.,0.));
#313=DIRECTION('center_axis',(1.66533453693773E-15,-2.22044604925031E-16,
-1.));
#314=DIRECTION('ref_axis',(-1.,0.,-1.66533453693773E-15));
#315=DIRECTION('center_axis',(1.66533453693773E-15,-2.22044604925031E-16,
-1.));
#316=DIRECTION('ref_axis',(-1.,0.,-1.66533453693773E-15));
#317=DIRECTION('center_axis',(0.,1.,0.));
#318=DIRECTION('ref_axis',(0.,0.,1.));
#319=DIRECTION('center_axis',(-0.78567390062783,-2.22044604925031E-16,-0.618640866636089));
#320=DIRECTION('ref_axis',(-0.618640866636089,0.,0.78567390062783));
#321=DIRECTION('center_axis',(-0.785673900627831,0.,-0.618640866636088));
#322=DIRECTION('ref_axis',(-0.618640866636087,0.,0.785673900627831));
#323=DIRECTION('center_axis',(-0.78567390062783,-2.22044604925031E-16,-0.618640866636089));
#324=DIRECTION('ref_axis',(-0.618640866636089,0.,0.78567390062783));
#325=DIRECTION('center_axis',(0.,-1.,0.));
#326=DIRECTION('ref_axis',(0.,0.,-1.));
#327=DIRECTION('center_axis',(0.,-2.22044604925031E-16,-1.));
#328=DIRECTION('ref_axis',(-1.,0.,0.));
#329=DIRECTION('center_axis',(0.,0.,-1.));
#330=DIRECTION('ref_axis',(-1.,0.,0.));
#331=DIRECTION('center_axis',(0.,2.22044604925031E-16,1.));
#332=DIRECTION('ref_axis',(-1.,0.,0.));
#333=DIRECTION('center_axis',(-1.88737914186277E-15,2.22044604925031E-16,
1.));
#334=DIRECTION('ref_axis',(1.,0.,1.99840144432528E-15));
#335=DIRECTION('center_axis',(0.,2.22044604925031E-16,1.));
#336=DIRECTION('ref_axis',(1.,0.,0.));
#337=CARTESIAN_POINT('',(0.,0.,0.));
#338=CARTESIAN_POINT('Origin',(-1.27,-7.88860905221012E-31,1.89123467107091));
#339=CARTESIAN_POINT('',(-1.02,5.5511151231257E-17,1.89123467107091));
#340=CARTESIAN_POINT('Origin',(-1.27,-7.88860905221012E-31,1.89123467107091));
#341=CARTESIAN_POINT('Origin',(-1.27,-9.99200722162643E-16,1.89123467107091));
#342=CARTESIAN_POINT('',(-0.77,3.44169137633798E-15,3.39123467107091));
#343=CARTESIAN_POINT('Origin',(-1.27,3.33066907387547E-15,3.39123467107091));
#344=CARTESIAN_POINT('Origin',(-1.27,3.33066907387547E-15,3.39123467107091));
#345=CARTESIAN_POINT('Origin',(1.27,-7.88860905221012E-31,1.89123467107091));
#346=CARTESIAN_POINT('',(1.02,5.5511151231257E-17,1.89123467107091));
#347=CARTESIAN_POINT('Origin',(1.27,-7.88860905221012E-31,1.89123467107091));
#348=CARTESIAN_POINT('Origin',(1.27,-9.99200722162643E-16,1.89123467107091));
#349=CARTESIAN_POINT('',(0.77,3.44169137633798E-15,3.39123467107091));
#350=CARTESIAN_POINT('Origin',(1.27,3.33066907387547E-15,3.39123467107091));
#351=CARTESIAN_POINT('Origin',(1.27,3.33066907387547E-15,3.39123467107091));
#352=CARTESIAN_POINT('Origin',(1.27,0.,1.58246934214183));
#353=CARTESIAN_POINT('',(1.02,3.06161699786837E-17,1.89246934214183));
#354=CARTESIAN_POINT('Origin',(1.27,0.,1.89246934214183));
#355=CARTESIAN_POINT('',(1.02,3.06161699786837E-17,1.58246934214183));
#356=CARTESIAN_POINT('Origin',(1.27,0.,1.58246934214183));
#357=CARTESIAN_POINT('Origin',(1.87000000000001,0.,1.58246934214183));
#358=CARTESIAN_POINT('',(1.34415526335933,3.06161699786837E-17,0.914646526608171));
#359=CARTESIAN_POINT('Origin',(1.49881548001835,0.,1.11106500176513));
#360=CARTESIAN_POINT('Origin',(2.31118451998165,0.,0.471404340376699));
#361=CARTESIAN_POINT('',(2.15652430332263,3.06161699786838E-17,0.274985865219741));
#362=CARTESIAN_POINT('Origin',(2.31118451998165,0.,0.471404340376699));
#363=CARTESIAN_POINT('Origin',(1.94,0.,-8.88178419700125E-16));
#364=CARTESIAN_POINT('',(2.29,3.06161699786838E-17,0.));
#365=CARTESIAN_POINT('Origin',(2.54,0.,0.));
#366=CARTESIAN_POINT('Origin',(2.54,0.,-2.90876532892909));
#367=CARTESIAN_POINT('',(2.29,3.06161699786838E-17,-2.90876532892909));
#368=CARTESIAN_POINT('Origin',(2.54,0.,-2.90876532892909));
#369=CARTESIAN_POINT('Origin',(1.27,-9.25185853855674E-19,1.89246934214183));
#370=CARTESIAN_POINT('Origin',(2.54,-9.25185853855674E-19,-2.90876532892909));
#371=CARTESIAN_POINT('Origin',(-1.27,0.,1.58246934214183));
#372=CARTESIAN_POINT('',(-1.02,3.06161699786837E-17,1.89246934214183));
#373=CARTESIAN_POINT('Origin',(-1.27,0.,1.89246934214183));
#374=CARTESIAN_POINT('',(-1.02,3.06161699786837E-17,1.58246934214183));
#375=CARTESIAN_POINT('Origin',(-1.27,0.,1.58246934214183));
#376=CARTESIAN_POINT('Origin',(-1.87000000000001,0.,1.58246934214183));
#377=CARTESIAN_POINT('',(-1.34415526335933,3.06161699786837E-17,0.914646526608171));
#378=CARTESIAN_POINT('Origin',(-1.49881548001835,0.,1.11106500176513));
#379=CARTESIAN_POINT('Origin',(-2.31118451998165,0.,0.471404340376699));
#380=CARTESIAN_POINT('',(-2.15652430332263,3.06161699786838E-17,0.274985865219741));
#381=CARTESIAN_POINT('Origin',(-2.31118451998165,0.,0.471404340376699));
#382=CARTESIAN_POINT('Origin',(-1.94,0.,-8.88178419700125E-16));
#383=CARTESIAN_POINT('',(-2.29,3.06161699786838E-17,0.));
#384=CARTESIAN_POINT('Origin',(-2.54,0.,0.));
#385=CARTESIAN_POINT('Origin',(-2.54,0.,-2.90876532892909));
#386=CARTESIAN_POINT('',(-2.29,3.06161699786838E-17,-2.90876532892909));
#387=CARTESIAN_POINT('Origin',(-2.54,0.,-2.90876532892909));
#388=CARTESIAN_POINT('Origin',(-1.27,-9.25185853855674E-19,1.89246934214183));
#389=CARTESIAN_POINT('Origin',(-2.54,-9.25185853855674E-19,-2.90876532892909));
#390=CARTESIAN_POINT('Ctrl Pts',(-3.5527136788005E-15,0.,2.4));
#391=CARTESIAN_POINT('Ctrl Pts',(-3.5527136788005E-15,0.,2.4));
#392=CARTESIAN_POINT('Ctrl Pts',(-3.5527136788005E-15,0.,2.4));
#393=CARTESIAN_POINT('Ctrl Pts',(-3.5527136788005E-15,0.,2.4));
#394=CARTESIAN_POINT('Ctrl Pts',(-3.5527136788005E-15,0.,2.4));
#395=CARTESIAN_POINT('Ctrl Pts',(-3.5527136788005E-15,0.,2.4));
#396=CARTESIAN_POINT('Ctrl Pts',(-3.5527136788005E-15,0.,2.4));
#397=CARTESIAN_POINT('Ctrl Pts',(-3.5527136788005E-15,0.,2.4));
#398=CARTESIAN_POINT('Ctrl Pts',(-3.5527136788005E-15,0.,2.4));
#399=CARTESIAN_POINT('Ctrl Pts',(-4.45000000000001,0.,2.4));
#400=CARTESIAN_POINT('Ctrl Pts',(-4.45000000000001,4.45,2.4));
#401=CARTESIAN_POINT('Ctrl Pts',(-3.5527136788005E-15,4.45,2.4));
#402=CARTESIAN_POINT('Ctrl Pts',(4.45,4.45,2.4));
#403=CARTESIAN_POINT('Ctrl Pts',(4.45,0.,2.4));
#404=CARTESIAN_POINT('Ctrl Pts',(4.45,-4.45,2.4));
#405=CARTESIAN_POINT('Ctrl Pts',(-3.5527136788005E-15,-4.45,2.4));
#406=CARTESIAN_POINT('Ctrl Pts',(-4.45000000000001,-4.45,2.4));
#407=CARTESIAN_POINT('Ctrl Pts',(-4.45000000000001,0.,2.4));
#408=CARTESIAN_POINT('Ctrl Pts',(-4.45000000000001,0.,10.4));
#409=CARTESIAN_POINT('Ctrl Pts',(-4.45000000000001,4.45,10.4));
#410=CARTESIAN_POINT('Ctrl Pts',(-3.5527136788005E-15,4.45,10.4));
#411=CARTESIAN_POINT('Ctrl Pts',(4.45,4.45,10.4));
#412=CARTESIAN_POINT('Ctrl Pts',(4.45,0.,10.4));
#413=CARTESIAN_POINT('Ctrl Pts',(4.45,-4.45,10.4));
#414=CARTESIAN_POINT('Ctrl Pts',(-3.5527136788005E-15,-4.45,10.4));
#415=CARTESIAN_POINT('Ctrl Pts',(-4.45000000000001,-4.45,10.4));
#416=CARTESIAN_POINT('Ctrl Pts',(-4.45000000000001,0.,10.4));
#417=CARTESIAN_POINT('Ctrl Pts',(-4.45000000000001,0.,15.5));
#418=CARTESIAN_POINT('Ctrl Pts',(-4.45000000000001,4.45,15.5));
#419=CARTESIAN_POINT('Ctrl Pts',(-3.5527136788005E-15,4.45,15.5));
#420=CARTESIAN_POINT('Ctrl Pts',(4.45,4.45,15.5));
#421=CARTESIAN_POINT('Ctrl Pts',(4.45,0.,15.5));
#422=CARTESIAN_POINT('Ctrl Pts',(4.45,-4.45,15.5));
#423=CARTESIAN_POINT('Ctrl Pts',(-3.5527136788005E-15,-4.45,15.5));
#424=CARTESIAN_POINT('Ctrl Pts',(-4.45000000000001,-4.45,15.5));
#425=CARTESIAN_POINT('Ctrl Pts',(-4.45000000000001,0.,15.5));
#426=CARTESIAN_POINT('Ctrl Pts',(-3.5527136788005E-15,0.,15.5));
#427=CARTESIAN_POINT('Ctrl Pts',(-3.5527136788005E-15,0.,15.5));
#428=CARTESIAN_POINT('Ctrl Pts',(-3.5527136788005E-15,0.,15.5));
#429=CARTESIAN_POINT('Ctrl Pts',(-3.5527136788005E-15,0.,15.5));
#430=CARTESIAN_POINT('Ctrl Pts',(-3.5527136788005E-15,0.,15.5));
#431=CARTESIAN_POINT('Ctrl Pts',(-3.5527136788005E-15,0.,15.5));
#432=CARTESIAN_POINT('Ctrl Pts',(-3.5527136788005E-15,0.,15.5));
#433=CARTESIAN_POINT('Ctrl Pts',(-3.5527136788005E-15,0.,15.5));
#434=CARTESIAN_POINT('Ctrl Pts',(-3.5527136788005E-15,0.,15.5));
#435=CARTESIAN_POINT('',(-3.5527136788005E-15,0.,15.5));
#436=CARTESIAN_POINT('',(-3.5527136788005E-15,0.,2.4));
#437=CARTESIAN_POINT('Ctrl Pts',(-3.5527136788005E-15,0.,15.5));
#438=CARTESIAN_POINT('Ctrl Pts',(-4.45000000000001,0.,15.5));
#439=CARTESIAN_POINT('Ctrl Pts',(-4.45000000000001,0.,10.4));
#440=CARTESIAN_POINT('Ctrl Pts',(-4.45000000000001,0.,2.4));
#441=CARTESIAN_POINT('Ctrl Pts',(-3.5527136788005E-15,0.,2.4));
#442=UNCERTAINTY_MEASURE_WITH_UNIT(LENGTH_MEASURE(0.01),#446,
'DISTANCE_ACCURACY_VALUE',
'Maximum model space distance between geometric entities at asserted c
onnectivities');
#443=UNCERTAINTY_MEASURE_WITH_UNIT(LENGTH_MEASURE(1.E-6),#446,
'DISTANCE_ACCURACY_VALUE',
'Maximum model space distance between geometric entities at asserted c
onnectivities');
#444=(
GEOMETRIC_REPRESENTATION_CONTEXT(3)
GLOBAL_UNCERTAINTY_ASSIGNED_CONTEXT((#442))
GLOBAL_UNIT_ASSIGNED_CONTEXT((#446,#448,#447))
REPRESENTATION_CONTEXT('','3D')
);
#445=(
GEOMETRIC_REPRESENTATION_CONTEXT(3)
GLOBAL_UNCERTAINTY_ASSIGNED_CONTEXT((#443))
GLOBAL_UNIT_ASSIGNED_CONTEXT((#446,#12,#447))
REPRESENTATION_CONTEXT('','3D')
);
#446=(
LENGTH_UNIT()
NAMED_UNIT(*)
SI_UNIT(.MILLI.,.METRE.)
);
#447=(
NAMED_UNIT(*)
SI_UNIT($,.STERADIAN.)
SOLID_ANGLE_UNIT()
);
#448=(
NAMED_UNIT(*)
PLANE_ANGLE_UNIT()
SI_UNIT($,.RADIAN.)
);
#449=SHAPE_DEFINITION_REPRESENTATION(#450,#451);
#450=PRODUCT_DEFINITION_SHAPE('',$,#453);
#451=SHAPE_REPRESENTATION('',(#226),#444);
#452=PRODUCT_DEFINITION_CONTEXT('part definition',#457,'design');
#453=PRODUCT_DEFINITION('Product','Product',#454,#452);
#454=PRODUCT_DEFINITION_FORMATION('',$,#459);
#455=PRODUCT_RELATED_PRODUCT_CATEGORY('Product','Product',(#459));
#456=APPLICATION_PROTOCOL_DEFINITION('international standard',
'automotive_design',2009,#457);
#457=APPLICATION_CONTEXT(
'Core Data for Automotive Mechanical Design Process');
#458=PRODUCT_CONTEXT('part definition',#457,'mechanical');
#459=PRODUCT('Product','Product',$,(#458));
#460=PRESENTATION_STYLE_ASSIGNMENT((#463));
#461=PRESENTATION_STYLE_ASSIGNMENT((#464));
#462=PRESENTATION_STYLE_ASSIGNMENT((#465));
#463=SURFACE_STYLE_USAGE(.BOTH.,#466);
#464=SURFACE_STYLE_USAGE(.BOTH.,#467);
#465=SURFACE_STYLE_USAGE(.BOTH.,#468);
#466=SURFACE_SIDE_STYLE($,(#469));
#467=SURFACE_SIDE_STYLE($,(#470));
#468=SURFACE_SIDE_STYLE($,(#471));
#469=SURFACE_STYLE_FILL_AREA(#472);
#470=SURFACE_STYLE_FILL_AREA(#473);
#471=SURFACE_STYLE_FILL_AREA(#474);
#472=FILL_AREA_STYLE($,(#475));
#473=FILL_AREA_STYLE($,(#476));
#474=FILL_AREA_STYLE($,(#477));
#475=FILL_AREA_STYLE_COLOUR($,#478);
#476=FILL_AREA_STYLE_COLOUR($,#479);
#477=FILL_AREA_STYLE_COLOUR($,#480);
#478=COLOUR_RGB('',1.,1.,1.);
#479=COLOUR_RGB('',1.,0.749019607843137,0.);
#480=COLOUR_RGB('',0.866666666666667,0.866666666666667,0.866666666666667);
ENDSEC;
END-ISO-10303-21;
