ISO-10303-21;
HEADER;
/****************************************************************
 * Generated by software with PDE/Lib inside                    *
 * PDE/Lib Version 3.2.2, created Thu Mar 23, 2000 at 18:38:49  *
 * International Technegroup Inc. (www.iti-oh.com)              *
 ****************************************************************/
FILE_DESCRIPTION((''),'2;1');
FILE_NAME('CAPPRB254-550X900.stp','2009-12-16T16:19:27',(''),(''),'Mechanical Desktop 2006','Mechanical Desktop 2006',', , ');
FILE_SCHEMA(('AUTOMOTIVE_DESIGN { 1 2 10303 214 0 1 1 1 }'));
ENDSEC;
DATA;
#8=(NAMED_UNIT(*)PLANE_ANGLE_UNIT()SI_UNIT($,.RADIAN.));
#9=DIMENSIONAL_EXPONENTS(0.0,0.0,0.0,0.0,0.0,0.0,0.0);
#10=PLANE_ANGLE_MEASURE_WITH_UNIT(PLANE_ANGLE_MEASURE(0.017453292500000),#8);
#14=(CONVERSION_BASED_UNIT('DEGREE',#10)NAMED_UNIT(#9)PLANE_ANGLE_UNIT());
#18=(NAMED_UNIT(*)SI_UNIT($,.STERADIAN.)SOLID_ANGLE_UNIT());
#22=(LENGTH_UNIT()NAMED_UNIT(*)SI_UNIT(.MILLI.,.METRE.));
#23=UNCERTAINTY_MEASURE_WITH_UNIT(LENGTH_MEASURE(0.000001000000000),#22,'DISTANCE_ACCURACY_VALUE','');
#28=(GEOMETRIC_REPRESENTATION_CONTEXT(3)GLOBAL_UNCERTAINTY_ASSIGNED_CONTEXT((#23))GLOBAL_UNIT_ASSIGNED_CONTEXT((#14,#18,#22))REPRESENTATION_CONTEXT('None','None'));
#29=APPLICATION_CONTEXT('automotive design');
#30=APPLICATION_PROTOCOL_DEFINITION('DRAFT_INTERNATIONAL_STANDARD','automotive_design',1998,#29);
#31=PRODUCT_CONTEXT('3D Mechanical Parts',#29,'mechanical');
#32=PRODUCT('Product','Product','',(#31));
#33=PRODUCT_RELATED_PRODUCT_CATEGORY('part',$,(#32));
#34=PRODUCT_CATEGORY('part',$);
#35=PERSON('1','Design','Joe',$,$,$);
#36=ORGANIZATION($,'None','None');
#37=PERSON_AND_ORGANIZATION(#35,#36);
#38=PERSON_AND_ORGANIZATION_ROLE('design_owner');
#39=APPLIED_PERSON_AND_ORGANIZATION_ASSIGNMENT(#37,#38,(#32));
#40=PRODUCT_DEFINITION_FORMATION_WITH_SPECIFIED_SOURCE('None','',#32,.BOUGHT.);
#41=PERSON('2','Creator','Joe',$,$,$);
#42=ORGANIZATION($,'None','None');
#43=PERSON_AND_ORGANIZATION(#41,#42);
#44=PERSON_AND_ORGANIZATION_ROLE('creator');
#45=APPLIED_PERSON_AND_ORGANIZATION_ASSIGNMENT(#43,#44,(#40));
#46=PERSON('3','Supplier','Joe',$,$,$);
#47=ORGANIZATION($,'None','None');
#48=PERSON_AND_ORGANIZATION(#46,#47);
#49=PERSON_AND_ORGANIZATION_ROLE('design_supplier');
#50=APPLIED_PERSON_AND_ORGANIZATION_ASSIGNMENT(#48,#49,(#40));
#51=PRODUCT_DEFINITION_CONTEXT('part definition',#29,'design');
#52=PRODUCT_DEFINITION('None','',#40,#51);
#53=PERSON('4','Creator','Joe',$,$,$);
#54=ORGANIZATION($,'None','None');
#55=PERSON_AND_ORGANIZATION(#53,#54);
#56=PERSON_AND_ORGANIZATION_ROLE('creator');
#57=APPLIED_PERSON_AND_ORGANIZATION_ASSIGNMENT(#55,#56,(#52));
#58=CARTESIAN_POINT('NONE',(0.0,0.0,0.0));
#59=DIRECTION('NONE',(0.0,0.0,1.0));
#60=DIRECTION('NONE',(1.0,0.0,0.0));
#61=AXIS2_PLACEMENT_3D('NONE',#58,#59,#60);
#62=SHAPE_REPRESENTATION('SR1',(#61),#28);
#63=PRODUCT_DEFINITION_SHAPE('PDS1','Test Part',#52);
#64=SHAPE_DEFINITION_REPRESENTATION(#63,#62);
#65=CARTESIAN_POINT('',(1.853333333333334,4.433872E-015,2.000000000000003));
#66=CARTESIAN_POINT('',(1.519999999999999,-1.306093E-015,-1.091719E-015));
#67=CARTESIAN_POINT('',(1.853333333333334,0.583333333333338,2.000000000000001));
#68=CARTESIAN_POINT('',(1.519999999999999,0.249999999999998,-1.813364E-015));
#69=CARTESIAN_POINT('',(1.270000000000000,0.583333333333338,2.000000000000001));
#70=CARTESIAN_POINT('',(1.269999999999999,0.249999999999999,-1.702342E-015));
#71=CARTESIAN_POINT('',(0.686666666666667,0.583333333333338,2.000000000000002));
#72=CARTESIAN_POINT('',(1.020000000000000,0.249999999999998,-1.591320E-015));
#73=CARTESIAN_POINT('',(0.686666666666667,4.550053E-015,2.000000000000004));
#74=CARTESIAN_POINT('',(1.020000000000000,-1.256301E-015,-8.696747E-016));
#75=CARTESIAN_POINT('',(0.686666666666667,-0.583333333333329,2.000000000000005));
#76=CARTESIAN_POINT('',(1.020000000000000,-0.250000000000001,-1.480297E-016));
#77=CARTESIAN_POINT('',(1.270000000000000,-0.583333333333329,2.000000000000005));
#78=CARTESIAN_POINT('',(1.269999999999999,-0.250000000000001,-2.590520E-016));
#79=CARTESIAN_POINT('',(1.853333333333334,-0.583333333333329,2.000000000000004));
#80=CARTESIAN_POINT('',(1.519999999999999,-0.250000000000001,-3.700743E-016));
#81=CARTESIAN_POINT('',(1.853333333333334,4.433872E-015,2.000000000000003));
#82=CARTESIAN_POINT('',(1.519999999999999,-1.306093E-015,-1.091719E-015));
#90=(BOUNDED_SURFACE()B_SPLINE_SURFACE(1,2,((#65,#67,#69,#71,#73,#75,#77,#79,#81),(#66,#68,#70,#72,#74,#76,#78,#80,#82)),.UNSPECIFIED.,.F.,.T.,.U.)B_SPLINE_SURFACE_WITH_KNOTS((2,2),(3,2,2,2,3),(-8.110350040397638,3.552714E-015),(0.0,0.392699081698724,0.785398163397448,1.178097245096172,1.570796326794897),.UNSPECIFIED.)GEOMETRIC_REPRESENTATION_ITEM()RATIONAL_B_SPLINE_SURFACE(((1.0,0.707106781186548,1.0,0.707106781186548,1.0,0.707106781186548,1.0,0.707106781186548,1.0),(1.0,0.707106781186548,1.0,0.707106781186548,1.0,0.707106781186548,1.0,0.707106781186548,1.0)))REPRESENTATION_ITEM('')SURFACE());
#91=CARTESIAN_POINT('',(0.686666666666667,4.692924E-015,2.000000000000000));
#92=VERTEX_POINT('',#91);
#93=CARTESIAN_POINT('',(1.020000000000000,-2.264855E-016,0.0));
#94=VERTEX_POINT('',#93);
#95=CARTESIAN_POINT('',(0.686666666666667,4.692924E-015,2.000000000000000));
#96=DIRECTION('',(0.164398987305357,-2.426238E-015,-0.986393923832144));
#97=VECTOR('',#96,2.027587510099407);
#98=LINE('',#95,#97);
#99=EDGE_CURVE('',#92,#94,#98,.T.);
#100=ORIENTED_EDGE('',*,*,#99,.F.);
#101=CARTESIAN_POINT('',(1.853333333333334,4.433872E-015,2.000000000000000));
#102=VERTEX_POINT('',#101);
#103=CARTESIAN_POINT('',(1.270000000000000,4.491962E-015,2.0));
#104=DIRECTION('',(0.0,0.0,1.0));
#105=DIRECTION('',(-1.0,0.0,0.0));
#106=AXIS2_PLACEMENT_3D('',#103,#104,#105);
#107=CIRCLE('',#106,0.583333333333333);
#108=EDGE_CURVE('',#92,#102,#107,.F.);
#109=ORIENTED_EDGE('',*,*,#108,.T.);
#110=CARTESIAN_POINT('',(1.520000000000000,-1.367324E-015,-1.110223E-016));
#111=VERTEX_POINT('',#110);
#112=CARTESIAN_POINT('',(1.520000000000000,-1.367324E-015,-1.110223E-016));
#113=DIRECTION('',(0.164398987305357,2.861132E-015,0.986393923832144));
#114=VECTOR('',#113,2.027587510099406);
#115=LINE('',#112,#114);
#116=EDGE_CURVE('',#111,#102,#115,.T.);
#117=ORIENTED_EDGE('',*,*,#116,.F.);
#118=CARTESIAN_POINT('',(1.270000000000000,-2.819966E-016,0.0));
#119=DIRECTION('',(0.0,0.0,-1.0));
#120=DIRECTION('',(-1.0,0.0,0.0));
#121=AXIS2_PLACEMENT_3D('',#118,#119,#120);
#122=CIRCLE('',#121,0.250000000000000);
#123=EDGE_CURVE('',#94,#111,#122,.T.);
#124=ORIENTED_EDGE('',*,*,#123,.F.);
#125=EDGE_LOOP('',(#100,#109,#117,#124));
#126=FACE_OUTER_BOUND('',#125,.T.);
#127=ADVANCED_FACE('',(#126),#90,.T.);
#128=CARTESIAN_POINT('',(1.853333333333334,4.433872E-015,2.000000000000002));
#129=CARTESIAN_POINT('',(1.519999999999999,-1.306093E-015,-2.164935E-015));
#130=CARTESIAN_POINT('',(1.853333333333334,0.583333333333338,2.0));
#131=CARTESIAN_POINT('',(1.519999999999999,0.249999999999998,-2.886580E-015));
#132=CARTESIAN_POINT('',(1.270000000000000,0.583333333333338,2.000000000000000));
#133=CARTESIAN_POINT('',(1.269999999999999,0.249999999999998,-2.775558E-015));
#134=CARTESIAN_POINT('',(0.686666666666667,0.583333333333338,2.000000000000001));
#135=CARTESIAN_POINT('',(1.020000000000000,0.249999999999998,-2.664535E-015));
#136=CARTESIAN_POINT('',(0.686666666666667,4.550053E-015,2.000000000000003));
#137=CARTESIAN_POINT('',(1.020000000000000,-1.256301E-015,-1.942890E-015));
#138=CARTESIAN_POINT('',(0.686666666666667,-0.583333333333329,2.000000000000004));
#139=CARTESIAN_POINT('',(1.020000000000000,-0.250000000000001,-1.221245E-015));
#140=CARTESIAN_POINT('',(1.270000000000000,-0.583333333333329,2.000000000000004));
#141=CARTESIAN_POINT('',(1.269999999999999,-0.250000000000001,-1.332268E-015));
#142=CARTESIAN_POINT('',(1.853333333333334,-0.583333333333329,2.000000000000004));
#143=CARTESIAN_POINT('',(1.519999999999999,-0.250000000000001,-1.443290E-015));
#144=CARTESIAN_POINT('',(1.853333333333334,4.433872E-015,2.000000000000002));
#145=CARTESIAN_POINT('',(1.519999999999999,-1.306093E-015,-2.164935E-015));
#153=(BOUNDED_SURFACE()B_SPLINE_SURFACE(1,2,((#128,#130,#132,#134,#136,#138,#140,#142,#144),(#129,#131,#133,#135,#137,#139,#141,#143,#145)),.UNSPECIFIED.,.F.,.T.,.U.)B_SPLINE_SURFACE_WITH_KNOTS((2,2),(3,2,2,2,3),(-8.110350040397634,8.881784E-015),(0.0,0.392699081698724,0.785398163397448,1.178097245096172,1.570796326794897),.UNSPECIFIED.)GEOMETRIC_REPRESENTATION_ITEM()RATIONAL_B_SPLINE_SURFACE(((1.0,0.707106781186548,1.0,0.707106781186548,1.0,0.707106781186548,1.0,0.707106781186548,1.0),(1.0,0.707106781186548,1.0,0.707106781186548,1.0,0.707106781186548,1.0,0.707106781186548,1.0)))REPRESENTATION_ITEM('')SURFACE());
#154=ORIENTED_EDGE('',*,*,#99,.T.);
#155=CARTESIAN_POINT('',(1.270000000000000,-2.819966E-016,0.0));
#156=DIRECTION('',(0.0,0.0,-1.0));
#157=DIRECTION('',(-1.0,0.0,0.0));
#158=AXIS2_PLACEMENT_3D('',#155,#156,#157);
#159=CIRCLE('',#158,0.250000000000000);
#160=EDGE_CURVE('',#111,#94,#159,.T.);
#161=ORIENTED_EDGE('',*,*,#160,.F.);
#162=ORIENTED_EDGE('',*,*,#116,.T.);
#163=CARTESIAN_POINT('',(1.270000000000000,4.491962E-015,2.0));
#164=DIRECTION('',(0.0,0.0,1.0));
#165=DIRECTION('',(-1.0,0.0,0.0));
#166=AXIS2_PLACEMENT_3D('',#163,#164,#165);
#167=CIRCLE('',#166,0.583333333333333);
#168=EDGE_CURVE('',#102,#92,#167,.F.);
#169=ORIENTED_EDGE('',*,*,#168,.T.);
#170=EDGE_LOOP('',(#154,#161,#162,#169));
#171=FACE_OUTER_BOUND('',#170,.T.);
#172=ADVANCED_FACE('',(#171),#153,.T.);
#173=CARTESIAN_POINT('',(1.020000000000000,-0.250000000000000,8.326673E-016));
#174=CARTESIAN_POINT('',(1.520000000000000,-0.250000000000000,6.106227E-016));
#175=CARTESIAN_POINT('',(1.020000000000000,0.250000000000000,-6.106227E-016));
#176=CARTESIAN_POINT('',(1.520000000000000,0.250000000000000,-8.326673E-016));
#177=B_SPLINE_SURFACE_WITH_KNOTS('',1,1,((#173,#175),(#174,#176)),.UNSPECIFIED.,.F.,.F.,.U.,(2,2),(2,2),(0.0,0.500000000000000),(0.0,0.500000000000000),.UNSPECIFIED.);
#178=ORIENTED_EDGE('',*,*,#123,.T.);
#179=ORIENTED_EDGE('',*,*,#160,.T.);
#180=EDGE_LOOP('',(#178,#179));
#181=FACE_OUTER_BOUND('',#180,.T.);
#182=ADVANCED_FACE('',(#181),#177,.F.);
#183=CARTESIAN_POINT('',(0.686666666666667,-0.583333333333329,2.000000000000002));
#184=CARTESIAN_POINT('',(1.853333333333334,-0.583333333333329,2.000000000000002));
#185=CARTESIAN_POINT('',(0.686666666666667,0.583333333333338,1.999999999999999));
#186=CARTESIAN_POINT('',(1.853333333333334,0.583333333333338,1.999999999999999));
#187=B_SPLINE_SURFACE_WITH_KNOTS('',1,1,((#183,#185),(#184,#186)),.UNSPECIFIED.,.F.,.F.,.U.,(2,2),(2,2),(0.0,1.166666666666667),(0.0,1.166666666666667),.UNSPECIFIED.);
#188=ORIENTED_EDGE('',*,*,#168,.F.);
#189=ORIENTED_EDGE('',*,*,#108,.F.);
#190=EDGE_LOOP('',(#188,#189));
#191=FACE_OUTER_BOUND('',#190,.T.);
#192=ADVANCED_FACE('',(#191),#187,.T.);
#193=CLOSED_SHELL('',(#127,#172,#182,#192));
#194=MANIFOLD_SOLID_BREP('A72',#193);
#195=COLOUR_RGB('40',1.0,0.750000000000000,0.0);
#196=SURFACE_STYLE_USAGE(.BOTH.,#197);
#197=SURFACE_SIDE_STYLE('NONE',(#198));
#198=SURFACE_STYLE_FILL_AREA(#199);
#199=FILL_AREA_STYLE('NONE',(#200));
#200=FILL_AREA_STYLE_COLOUR('NONE',#195);
#201=PRESENTATION_STYLE_ASSIGNMENT((#196));
#202=STYLED_ITEM('NONE',(#201),#194);
#203=MECHANICAL_DESIGN_GEOMETRIC_PRESENTATION_REPRESENTATION('NONE',(#202,#293,#632,#728,#817),#28);
#204=PRESENTATION_LAYER_ASSIGNMENT('3D','None',(#194,#292,#631,#720,#816));
#205=CARTESIAN_POINT('',(-1.269999999999999,-1.281197E-015,1.021405E-016));
#206=DIRECTION('',(-4.440892E-016,2.886580E-015,1.0));
#207=DIRECTION('',(1.0,0.0,0.0));
#208=AXIS2_PLACEMENT_3D('',#205,#206,#207);
#209=CONICAL_SURFACE('',#208,0.250000000000000,9.462322208025617);
#210=CARTESIAN_POINT('',(-0.686666666666667,4.692924E-015,2.000000000000000));
#211=VERTEX_POINT('',#210);
#212=CARTESIAN_POINT('',(-1.020000000000000,-2.264855E-016,0.0));
#213=VERTEX_POINT('',#212);
#214=CARTESIAN_POINT('',(-0.686666666666667,4.692924E-015,2.000000000000000));
#215=DIRECTION('',(-0.164398987305357,-2.426238E-015,-0.986393923832144));
#216=VECTOR('',#215,2.027587510099407);
#217=LINE('',#214,#216);
#218=EDGE_CURVE('',#211,#213,#217,.T.);
#219=ORIENTED_EDGE('',*,*,#218,.F.);
#220=CARTESIAN_POINT('',(-1.853333333333334,4.291001E-015,2.000000000000000));
#221=VERTEX_POINT('',#220);
#222=CARTESIAN_POINT('',(-1.270000000000000,4.491962E-015,2.0));
#223=DIRECTION('',(0.0,0.0,1.0));
#224=DIRECTION('',(1.0,0.0,0.0));
#225=AXIS2_PLACEMENT_3D('',#222,#223,#224);
#226=CIRCLE('',#225,0.583333333333333);
#227=EDGE_CURVE('',#221,#211,#226,.T.);
#228=ORIENTED_EDGE('',*,*,#227,.F.);
#229=CARTESIAN_POINT('',(-1.520000000000000,-1.367324E-015,-1.110223E-016));
#230=VERTEX_POINT('',#229);
#231=CARTESIAN_POINT('',(-1.520000000000000,-1.367324E-015,-1.110223E-016));
#232=DIRECTION('',(-0.164398987305357,2.790669E-015,0.986393923832144));
#233=VECTOR('',#232,2.027587510099406);
#234=LINE('',#231,#233);
#235=EDGE_CURVE('',#230,#221,#234,.T.);
#236=ORIENTED_EDGE('',*,*,#235,.F.);
#237=CARTESIAN_POINT('',(-1.270000000000000,-2.819966E-016,0.0));
#238=DIRECTION('',(0.0,0.0,1.0));
#239=DIRECTION('',(1.0,0.0,0.0));
#240=AXIS2_PLACEMENT_3D('',#237,#238,#239);
#241=CIRCLE('',#240,0.250000000000000);
#242=EDGE_CURVE('',#230,#213,#241,.T.);
#243=ORIENTED_EDGE('',*,*,#242,.T.);
#244=EDGE_LOOP('',(#219,#228,#236,#243));
#245=FACE_OUTER_BOUND('',#244,.T.);
#246=ADVANCED_FACE('',(#245),#209,.T.);
#247=CARTESIAN_POINT('',(-1.269999999999999,-1.281197E-015,1.021405E-016));
#248=DIRECTION('',(-4.440892E-016,2.886580E-015,1.0));
#249=DIRECTION('',(1.0,0.0,0.0));
#250=AXIS2_PLACEMENT_3D('',#247,#248,#249);
#251=CONICAL_SURFACE('',#250,0.250000000000000,9.462322208025617);
#252=ORIENTED_EDGE('',*,*,#218,.T.);
#253=CARTESIAN_POINT('',(-1.270000000000000,-2.819966E-016,0.0));
#254=DIRECTION('',(0.0,0.0,1.0));
#255=DIRECTION('',(1.0,0.0,0.0));
#256=AXIS2_PLACEMENT_3D('',#253,#254,#255);
#257=CIRCLE('',#256,0.250000000000000);
#258=EDGE_CURVE('',#213,#230,#257,.T.);
#259=ORIENTED_EDGE('',*,*,#258,.T.);
#260=ORIENTED_EDGE('',*,*,#235,.T.);
#261=CARTESIAN_POINT('',(-1.270000000000000,4.491962E-015,2.0));
#262=DIRECTION('',(0.0,0.0,1.0));
#263=DIRECTION('',(1.0,0.0,0.0));
#264=AXIS2_PLACEMENT_3D('',#261,#262,#263);
#265=CIRCLE('',#264,0.583333333333333);
#266=EDGE_CURVE('',#211,#221,#265,.T.);
#267=ORIENTED_EDGE('',*,*,#266,.F.);
#268=EDGE_LOOP('',(#252,#259,#260,#267));
#269=FACE_OUTER_BOUND('',#268,.T.);
#270=ADVANCED_FACE('',(#269),#251,.T.);
#271=CARTESIAN_POINT('',(-1.270000000000000,-2.819966E-016,0.0));
#272=DIRECTION('',(0.0,0.0,1.0));
#273=DIRECTION('',(-1.0,0.0,0.0));
#274=AXIS2_PLACEMENT_3D('',#271,#272,#273);
#275=PLANE('',#274);
#276=ORIENTED_EDGE('',*,*,#258,.F.);
#277=ORIENTED_EDGE('',*,*,#242,.F.);
#278=EDGE_LOOP('',(#276,#277));
#279=FACE_OUTER_BOUND('',#278,.T.);
#280=ADVANCED_FACE('',(#279),#275,.F.);
#281=CARTESIAN_POINT('',(-1.270000000000000,3.159695E-015,2.0));
#282=DIRECTION('',(0.0,0.0,1.0));
#283=DIRECTION('',(-1.0,0.0,0.0));
#284=AXIS2_PLACEMENT_3D('',#281,#282,#283);
#285=PLANE('',#284);
#286=ORIENTED_EDGE('',*,*,#227,.T.);
#287=ORIENTED_EDGE('',*,*,#266,.T.);
#288=EDGE_LOOP('',(#286,#287));
#289=FACE_OUTER_BOUND('',#288,.T.);
#290=ADVANCED_FACE('',(#289),#285,.T.);
#291=CLOSED_SHELL('',(#246,#270,#280,#290));
#292=MANIFOLD_SOLID_BREP('A71',#291);
#293=STYLED_ITEM('NONE',(#201),#292);
#294=CARTESIAN_POINT('',(0.0,2.031708E-015,6.250000000000001));
#295=DIRECTION('',(0.0,0.0,1.0));
#296=DIRECTION('',(1.0,0.0,0.0));
#297=AXIS2_PLACEMENT_3D('',#294,#295,#296);
#298=SPHERICAL_SURFACE('',#297,2.750000000000000);
#299=CARTESIAN_POINT('',(0.0,2.642331E-015,9.0));
#300=VERTEX_POINT('',#299);
#301=CARTESIAN_POINT('',(-2.750000000000000,2.368475E-015,6.250000000000001));
#302=VERTEX_POINT('',#301);
#303=CARTESIAN_POINT('',(-3.466161E-064,2.031708E-015,6.250000000000001));
#304=DIRECTION('',(0.0,-1.0,0.0));
#305=DIRECTION('',(0.0,0.0,1.0));
#306=AXIS2_PLACEMENT_3D('',#303,#304,#305);
#307=CIRCLE('',#306,2.750000000000000);
#308=EDGE_CURVE('',#300,#302,#307,.T.);
#309=ORIENTED_EDGE('',*,*,#308,.F.);
#310=CARTESIAN_POINT('',(2.750000000000000,2.031708E-015,6.250000000000001));
#311=VERTEX_POINT('',#310);
#312=CARTESIAN_POINT('',(-3.466161E-064,2.031708E-015,6.250000000000001));
#313=DIRECTION('',(0.0,-1.0,0.0));
#314=DIRECTION('',(0.0,0.0,1.0));
#315=AXIS2_PLACEMENT_3D('',#312,#313,#314);
#316=CIRCLE('',#315,2.750000000000000);
#317=EDGE_CURVE('',#311,#300,#316,.T.);
#318=ORIENTED_EDGE('',*,*,#317,.F.);
#319=CARTESIAN_POINT('',(0.0,2.031708E-015,6.250000000000001));
#320=DIRECTION('',(0.0,0.0,1.0));
#321=DIRECTION('',(1.0,0.0,0.0));
#322=AXIS2_PLACEMENT_3D('',#319,#320,#321);
#323=CIRCLE('',#322,2.750000000000000);
#324=EDGE_CURVE('',#311,#302,#323,.T.);
#325=ORIENTED_EDGE('',*,*,#324,.T.);
#326=EDGE_LOOP('',(#309,#318,#325));
#327=FACE_OUTER_BOUND('',#326,.T.);
#328=ADVANCED_FACE('',(#327),#298,.T.);
#329=CARTESIAN_POINT('',(0.0,1.892930E-015,5.625000000000001));
#330=DIRECTION('',(0.0,2.220446E-016,1.0));
#331=DIRECTION('',(1.0,0.0,0.0));
#332=AXIS2_PLACEMENT_3D('',#329,#330,#331);
#333=CYLINDRICAL_SURFACE('',#332,2.750000000000000);
#334=CARTESIAN_POINT('',(2.750000000000000,1.754152E-015,5.000000000000001));
#335=VERTEX_POINT('',#334);
#336=CARTESIAN_POINT('',(2.750000000000000,1.754152E-015,5.000000000000001));
#337=DIRECTION('',(0.0,0.0,1.0));
#338=VECTOR('',#337,1.250000000000000);
#339=LINE('',#336,#338);
#340=EDGE_CURVE('',#335,#311,#339,.T.);
#341=ORIENTED_EDGE('',*,*,#340,.F.);
#342=CARTESIAN_POINT('',(-2.750000000000000,2.090919E-015,5.0));
#343=VERTEX_POINT('',#342);
#344=CARTESIAN_POINT('',(0.0,1.754152E-015,5.000000000000001));
#345=DIRECTION('',(0.0,0.0,1.0));
#346=DIRECTION('',(1.0,0.0,0.0));
#347=AXIS2_PLACEMENT_3D('',#344,#345,#346);
#348=CIRCLE('',#347,2.750000000000000);
#349=EDGE_CURVE('',#335,#343,#348,.T.);
#350=ORIENTED_EDGE('',*,*,#349,.T.);
#351=CARTESIAN_POINT('',(-2.750000000000000,2.368475E-015,6.250000000000001));
#352=DIRECTION('',(0.0,0.0,-1.0));
#353=VECTOR('',#352,1.250000000000001);
#354=LINE('',#351,#353);
#355=EDGE_CURVE('',#302,#343,#354,.T.);
#356=ORIENTED_EDGE('',*,*,#355,.F.);
#357=ORIENTED_EDGE('',*,*,#324,.F.);
#358=EDGE_LOOP('',(#341,#350,#356,#357));
#359=FACE_OUTER_BOUND('',#358,.T.);
#360=ADVANCED_FACE('',(#359),#333,.T.);
#361=CARTESIAN_POINT('',(-1.349457958749615,1.105244E-015,1.333333333333334));
#362=CARTESIAN_POINT('',(-2.750000000000001,1.624445E-015,2.899186938124423));
#363=CARTESIAN_POINT('',(-2.750000000000000,2.090919E-015,5.000000000000002));
#364=CARTESIAN_POINT('',(-1.349457958749615,1.349457958749616,1.333333333333334));
#365=CARTESIAN_POINT('',(-2.750000000000000,2.750000000000002,2.899186938124423));
#366=CARTESIAN_POINT('',(-2.749999999999999,2.750000000000002,5.000000000000001));
#367=CARTESIAN_POINT('',(1.652555E-016,1.349457958749616,1.333333333333334));
#368=CARTESIAN_POINT('',(3.367667E-016,2.750000000000002,2.899186938124422));
#369=CARTESIAN_POINT('',(3.367667E-016,2.750000000000002,5.000000000000001));
#370=CARTESIAN_POINT('',(1.349457958749615,1.349457958749615,1.333333333333334));
#371=CARTESIAN_POINT('',(2.750000000000001,2.750000000000001,2.899186938124423));
#372=CARTESIAN_POINT('',(2.750000000000000,2.750000000000001,5.000000000000001));
#373=CARTESIAN_POINT('',(1.349457958749615,7.747333E-016,1.333333333333334));
#374=CARTESIAN_POINT('',(2.750000000000001,9.509114E-016,2.899186938124423));
#375=CARTESIAN_POINT('',(2.750000000000000,1.417386E-015,5.000000000000002));
#376=CARTESIAN_POINT('',(1.349457958749615,-1.349457958749614,1.333333333333334));
#377=CARTESIAN_POINT('',(2.750000000000000,-2.750000000000000,2.899186938124424));
#378=CARTESIAN_POINT('',(2.749999999999999,-2.749999999999998,5.000000000000003));
#379=CARTESIAN_POINT('',(-1.652555E-016,-1.349457958749614,1.333333333333334));
#380=CARTESIAN_POINT('',(-3.367667E-016,-2.749999999999999,2.899186938124423));
#381=CARTESIAN_POINT('',(-3.367667E-016,-2.749999999999998,5.000000000000003));
#382=CARTESIAN_POINT('',(-1.349457958749615,-1.349457958749614,1.333333333333334));
#383=CARTESIAN_POINT('',(-2.750000000000001,-2.749999999999999,2.899186938124424));
#384=CARTESIAN_POINT('',(-2.750000000000000,-2.749999999999997,5.000000000000003));
#385=CARTESIAN_POINT('',(-1.349457958749615,1.105244E-015,1.333333333333334));
#386=CARTESIAN_POINT('',(-2.750000000000001,1.624445E-015,2.899186938124423));
#387=CARTESIAN_POINT('',(-2.750000000000000,2.090919E-015,5.000000000000002));
#395=(BOUNDED_SURFACE()B_SPLINE_SURFACE(2,2,((#361,#364,#367,#370,#373,#376,#379,#382,#385),(#362,#365,#368,#371,#374,#377,#380,#383,#386),(#363,#366,#369,#372,#375,#378,#381,#384,#387)),.UNSPECIFIED.,.F.,.T.,.U.)B_SPLINE_SURFACE_WITH_KNOTS((3,3),(3,2,2,2,3),(-0.729727656226966,2.725093E-016),(0.0,1.570796326794897,3.141592653589793,4.712388980384690,6.283185307179586),.UNSPECIFIED.)GEOMETRIC_REPRESENTATION_ITEM()RATIONAL_B_SPLINE_SURFACE(((1.0,0.707106781186548,1.0,0.707106781186548,1.0,0.707106781186548,1.0,0.707106781186548,1.0),(0.934172358962716,0.660559609819570,0.934172358962716,0.660559609819570,0.934172358962716,0.660559609819570,0.934172358962716,0.660559609819570,0.934172358962716),(1.0,0.707106781186548,1.0,0.707106781186548,1.0,0.707106781186548,1.0,0.707106781186548,1.0)))REPRESENTATION_ITEM('')SURFACE());
#396=CARTESIAN_POINT('',(1.349457958749614,9.399888E-016,1.333333333333334));
#397=VERTEX_POINT('',#396);
#398=CARTESIAN_POINT('',(-2.750000000000000,2.090919E-015,5.0));
#399=DIRECTION('',(0.0,-1.0,0.0));
#400=DIRECTION('',(1.0,0.0,0.0));
#401=AXIS2_PLACEMENT_3D('',#398,#399,#400);
#402=CIRCLE('',#401,5.500000000000000);
#403=EDGE_CURVE('',#397,#335,#402,.T.);
#404=ORIENTED_EDGE('',*,*,#403,.F.);
#405=CARTESIAN_POINT('',(-1.349457958749614,1.105244E-015,1.333333333333334));
#406=VERTEX_POINT('',#405);
#407=CARTESIAN_POINT('',(0.0,9.399888E-016,1.333333333333334));
#408=DIRECTION('',(0.0,0.0,1.0));
#409=DIRECTION('',(1.0,0.0,0.0));
#410=AXIS2_PLACEMENT_3D('',#407,#408,#409);
#411=CIRCLE('',#410,1.349457958749614);
#412=EDGE_CURVE('',#397,#406,#411,.T.);
#413=ORIENTED_EDGE('',*,*,#412,.T.);
#414=CARTESIAN_POINT('',(2.750000000000000,1.417386E-015,5.0));
#415=DIRECTION('',(0.0,-1.0,0.0));
#416=DIRECTION('',(-1.0,0.0,0.0));
#417=AXIS2_PLACEMENT_3D('',#414,#415,#416);
#418=CIRCLE('',#417,5.500000000000000);
#419=EDGE_CURVE('',#343,#406,#418,.T.);
#420=ORIENTED_EDGE('',*,*,#419,.F.);
#421=ORIENTED_EDGE('',*,*,#349,.F.);
#422=EDGE_LOOP('',(#404,#413,#420,#421));
#423=FACE_OUTER_BOUND('',#422,.T.);
#424=ADVANCED_FACE('',(#423),#395,.T.);
#425=CARTESIAN_POINT('',(-1.110223E-016,9.110697E-016,1.203092970056565));
#426=CARTESIAN_POINT('',(-0.734771700551525,8.773715E-016,0.646093204250376));
#427=CARTESIAN_POINT('',(-1.349457958749614,1.105244E-015,1.333333333333335));
#428=CARTESIAN_POINT('',(-1.110223E-016,1.022092E-015,1.203092970056565));
#429=CARTESIAN_POINT('',(-0.734771700551525,0.734771700551526,0.646093204250376));
#430=CARTESIAN_POINT('',(-1.349457958749614,1.349457958749615,1.333333333333335));
#431=CARTESIAN_POINT('',(0.0,1.022092E-015,1.203092970056565));
#432=CARTESIAN_POINT('',(8.998061E-017,0.734771700551526,0.646093204250376));
#433=CARTESIAN_POINT('',(1.652555E-016,1.349457958749615,1.333333333333335));
#434=CARTESIAN_POINT('',(1.110223E-016,1.022092E-015,1.203092970056565));
#435=CARTESIAN_POINT('',(0.734771700551525,0.734771700551526,0.646093204250376));
#436=CARTESIAN_POINT('',(1.349457958749614,1.349457958749615,1.333333333333335));
#437=CARTESIAN_POINT('',(1.110223E-016,9.110697E-016,1.203092970056565));
#438=CARTESIAN_POINT('',(0.734771700551525,6.974103E-016,0.646093204250376));
#439=CARTESIAN_POINT('',(1.349457958749614,7.747333E-016,1.333333333333335));
#440=CARTESIAN_POINT('',(1.110223E-016,8.000474E-016,1.203092970056565));
#441=CARTESIAN_POINT('',(0.734771700551525,-0.734771700551524,0.646093204250376));
#442=CARTESIAN_POINT('',(1.349457958749614,-1.349457958749613,1.333333333333335));
#443=CARTESIAN_POINT('',(0.0,8.000474E-016,1.203092970056565));
#444=CARTESIAN_POINT('',(-8.998061E-017,-0.734771700551525,0.646093204250376));
#445=CARTESIAN_POINT('',(-1.652555E-016,-1.349457958749613,1.333333333333335));
#446=CARTESIAN_POINT('',(-1.110223E-016,8.000474E-016,1.203092970056565));
#447=CARTESIAN_POINT('',(-0.734771700551525,-0.734771700551524,0.646093204250376));
#448=CARTESIAN_POINT('',(-1.349457958749614,-1.349457958749613,1.333333333333335));
#449=CARTESIAN_POINT('',(-1.110223E-016,9.110697E-016,1.203092970056565));
#450=CARTESIAN_POINT('',(-0.734771700551525,8.773715E-016,0.646093204250376));
#451=CARTESIAN_POINT('',(-1.349457958749614,1.105244E-015,1.333333333333335));
#459=(BOUNDED_SURFACE()B_SPLINE_SURFACE(2,2,((#425,#428,#431,#434,#437,#440,#443,#446,#449),(#426,#429,#432,#435,#438,#441,#444,#447,#450),(#427,#430,#433,#436,#439,#442,#445,#448,#451)),.UNSPECIFIED.,.F.,.T.,.U.)B_SPLINE_SURFACE_WITH_KNOTS((3,3),(3,2,2,2,3),(-2.219434813220003,-0.729727656226965),(0.0,1.570796326794897,3.141592653589793,4.712388980384690,6.283185307179586),.UNSPECIFIED.)GEOMETRIC_REPRESENTATION_ITEM()RATIONAL_B_SPLINE_SURFACE(((1.0,0.707106781186548,1.0,0.707106781186548,1.0,0.707106781186548,1.0,0.707106781186548,1.0),(0.735187164152922,0.519855829213839,0.735187164152922,0.519855829213839,0.735187164152922,0.519855829213839,0.735187164152922,0.519855829213839,0.735187164152922),(1.0,0.707106781186548,1.0,0.707106781186548,1.0,0.707106781186548,1.0,0.707106781186548,1.0)))REPRESENTATION_ITEM('')SURFACE());
#460=CARTESIAN_POINT('',(0.604101966249685,8.659740E-016,1.000000000000000));
#461=VERTEX_POINT('',#460);
#462=CARTESIAN_POINT('',(0.604101966249683,1.014040E-015,2.000000000000001));
#463=DIRECTION('',(0.0,-1.0,0.0));
#464=DIRECTION('',(1.0,0.0,0.0));
#465=AXIS2_PLACEMENT_3D('',#462,#463,#464);
#466=CIRCLE('',#465,1.000000000000001);
#467=EDGE_CURVE('',#461,#397,#466,.T.);
#468=ORIENTED_EDGE('',*,*,#467,.F.);
#469=CARTESIAN_POINT('',(-0.604101966249685,9.399527E-016,1.000000000000000));
#470=VERTEX_POINT('',#469);
#471=CARTESIAN_POINT('',(0.0,8.659740E-016,1.000000000000000));
#472=DIRECTION('',(0.0,0.0,1.0));
#473=DIRECTION('',(1.0,0.0,0.0));
#474=AXIS2_PLACEMENT_3D('',#471,#472,#473);
#475=CIRCLE('',#474,0.604101966249685);
#476=EDGE_CURVE('',#461,#470,#475,.T.);
#477=ORIENTED_EDGE('',*,*,#476,.T.);
#478=CARTESIAN_POINT('',(-0.604101966249683,1.161997E-015,2.000000000000001));
#479=DIRECTION('',(0.0,-1.0,0.0));
#480=DIRECTION('',(-1.0,0.0,0.0));
#481=AXIS2_PLACEMENT_3D('',#478,#479,#480);
#482=CIRCLE('',#481,1.000000000000001);
#483=EDGE_CURVE('',#406,#470,#482,.T.);
#484=ORIENTED_EDGE('',*,*,#483,.F.);
#485=ORIENTED_EDGE('',*,*,#412,.F.);
#486=EDGE_LOOP('',(#468,#477,#484,#485));
#487=FACE_OUTER_BOUND('',#486,.T.);
#488=ADVANCED_FACE('',(#487),#459,.T.);
#489=CARTESIAN_POINT('',(0.302050983124843,8.659740E-016,1.000000000000000));
#490=DIRECTION('',(0.0,0.0,-1.0));
#491=DIRECTION('',(-1.0,0.0,0.0));
#492=AXIS2_PLACEMENT_3D('',#489,#490,#491);
#493=PLANE('',#492);
#494=ORIENTED_EDGE('',*,*,#476,.F.);
#495=CARTESIAN_POINT('',(0.0,8.659740E-016,1.000000000000000));
#496=DIRECTION('',(0.0,0.0,1.0));
#497=DIRECTION('',(1.0,0.0,0.0));
#498=AXIS2_PLACEMENT_3D('',#495,#496,#497);
#499=CIRCLE('',#498,0.604101966249685);
#500=EDGE_CURVE('',#470,#461,#499,.T.);
#501=ORIENTED_EDGE('',*,*,#500,.F.);
#502=EDGE_LOOP('',(#494,#501));
#503=FACE_OUTER_BOUND('',#502,.T.);
#504=ADVANCED_FACE('',(#503),#493,.T.);
#505=CARTESIAN_POINT('',(-1.110223E-016,9.110697E-016,1.203092970056565));
#506=CARTESIAN_POINT('',(-0.734771700551525,8.773715E-016,0.646093204250376));
#507=CARTESIAN_POINT('',(-1.349457958749614,1.105244E-015,1.333333333333335));
#508=CARTESIAN_POINT('',(-1.110223E-016,1.022092E-015,1.203092970056565));
#509=CARTESIAN_POINT('',(-0.734771700551525,0.734771700551526,0.646093204250376));
#510=CARTESIAN_POINT('',(-1.349457958749614,1.349457958749615,1.333333333333334));
#511=CARTESIAN_POINT('',(0.0,1.022092E-015,1.203092970056565));
#512=CARTESIAN_POINT('',(8.998061E-017,0.734771700551526,0.646093204250376));
#513=CARTESIAN_POINT('',(1.652555E-016,1.349457958749615,1.333333333333334));
#514=CARTESIAN_POINT('',(1.110223E-016,1.022092E-015,1.203092970056565));
#515=CARTESIAN_POINT('',(0.734771700551525,0.734771700551526,0.646093204250376));
#516=CARTESIAN_POINT('',(1.349457958749614,1.349457958749615,1.333333333333334));
#517=CARTESIAN_POINT('',(1.110223E-016,9.110697E-016,1.203092970056565));
#518=CARTESIAN_POINT('',(0.734771700551525,6.974103E-016,0.646093204250376));
#519=CARTESIAN_POINT('',(1.349457958749614,7.747333E-016,1.333333333333335));
#520=CARTESIAN_POINT('',(1.110223E-016,8.000474E-016,1.203092970056565));
#521=CARTESIAN_POINT('',(0.734771700551525,-0.734771700551524,0.646093204250377));
#522=CARTESIAN_POINT('',(1.349457958749614,-1.349457958749613,1.333333333333335));
#523=CARTESIAN_POINT('',(0.0,8.000474E-016,1.203092970056565));
#524=CARTESIAN_POINT('',(-8.998061E-017,-0.734771700551524,0.646093204250376));
#525=CARTESIAN_POINT('',(-1.652555E-016,-1.349457958749613,1.333333333333335));
#526=CARTESIAN_POINT('',(-1.110223E-016,8.000474E-016,1.203092970056565));
#527=CARTESIAN_POINT('',(-0.734771700551525,-0.734771700551524,0.646093204250377));
#528=CARTESIAN_POINT('',(-1.349457958749614,-1.349457958749613,1.333333333333335));
#529=CARTESIAN_POINT('',(-1.110223E-016,9.110697E-016,1.203092970056565));
#530=CARTESIAN_POINT('',(-0.734771700551525,8.773715E-016,0.646093204250376));
#531=CARTESIAN_POINT('',(-1.349457958749614,1.105244E-015,1.333333333333335));
#539=(BOUNDED_SURFACE()B_SPLINE_SURFACE(2,2,((#505,#508,#511,#514,#517,#520,#523,#526,#529),(#506,#509,#512,#515,#518,#521,#524,#527,#530),(#507,#510,#513,#516,#519,#522,#525,#528,#531)),.UNSPECIFIED.,.F.,.T.,.U.)B_SPLINE_SURFACE_WITH_KNOTS((3,3),(3,2,2,2,3),(-2.219434813220003,-0.729727656226966),(0.0,1.570796326794897,3.141592653589793,4.712388980384690,6.283185307179586),.UNSPECIFIED.)GEOMETRIC_REPRESENTATION_ITEM()RATIONAL_B_SPLINE_SURFACE(((1.0,0.707106781186548,1.0,0.707106781186548,1.0,0.707106781186548,1.0,0.707106781186548,1.0),(0.735187164152922,0.519855829213839,0.735187164152922,0.519855829213839,0.735187164152922,0.519855829213839,0.735187164152922,0.519855829213839,0.735187164152922),(1.0,0.707106781186548,1.0,0.707106781186548,1.0,0.707106781186548,1.0,0.707106781186548,1.0)))REPRESENTATION_ITEM('')SURFACE());
#540=ORIENTED_EDGE('',*,*,#467,.T.);
#541=CARTESIAN_POINT('',(0.0,9.399888E-016,1.333333333333334));
#542=DIRECTION('',(0.0,0.0,1.0));
#543=DIRECTION('',(1.0,0.0,0.0));
#544=AXIS2_PLACEMENT_3D('',#541,#542,#543);
#545=CIRCLE('',#544,1.349457958749614);
#546=EDGE_CURVE('',#406,#397,#545,.T.);
#547=ORIENTED_EDGE('',*,*,#546,.F.);
#548=ORIENTED_EDGE('',*,*,#483,.T.);
#549=ORIENTED_EDGE('',*,*,#500,.T.);
#550=EDGE_LOOP('',(#540,#547,#548,#549));
#551=FACE_OUTER_BOUND('',#550,.T.);
#552=ADVANCED_FACE('',(#551),#539,.T.);
#553=CARTESIAN_POINT('',(-1.349457958749614,1.105244E-015,1.333333333333334));
#554=CARTESIAN_POINT('',(-2.750000000000001,1.624445E-015,2.899186938124423));
#555=CARTESIAN_POINT('',(-2.750000000000000,2.090919E-015,5.000000000000002));
#556=CARTESIAN_POINT('',(-1.349457958749614,1.349457958749615,1.333333333333333));
#557=CARTESIAN_POINT('',(-2.750000000000000,2.750000000000002,2.899186938124422));
#558=CARTESIAN_POINT('',(-2.749999999999999,2.750000000000002,5.000000000000001));
#559=CARTESIAN_POINT('',(1.652555E-016,1.349457958749615,1.333333333333333));
#560=CARTESIAN_POINT('',(3.367667E-016,2.750000000000002,2.899186938124422));
#561=CARTESIAN_POINT('',(3.367667E-016,2.750000000000002,5.000000000000001));
#562=CARTESIAN_POINT('',(1.349457958749614,1.349457958749615,1.333333333333333));
#563=CARTESIAN_POINT('',(2.750000000000001,2.750000000000001,2.899186938124422));
#564=CARTESIAN_POINT('',(2.750000000000000,2.750000000000001,5.000000000000001));
#565=CARTESIAN_POINT('',(1.349457958749614,7.747333E-016,1.333333333333334));
#566=CARTESIAN_POINT('',(2.750000000000001,9.509114E-016,2.899186938124423));
#567=CARTESIAN_POINT('',(2.750000000000000,1.417386E-015,5.000000000000002));
#568=CARTESIAN_POINT('',(1.349457958749614,-1.349457958749613,1.333333333333334));
#569=CARTESIAN_POINT('',(2.750000000000000,-2.750000000000000,2.899186938124423));
#570=CARTESIAN_POINT('',(2.749999999999999,-2.749999999999998,5.000000000000003));
#571=CARTESIAN_POINT('',(-1.652555E-016,-1.349457958749613,1.333333333333334));
#572=CARTESIAN_POINT('',(-3.367667E-016,-2.750000000000000,2.899186938124423));
#573=CARTESIAN_POINT('',(-3.367667E-016,-2.749999999999998,5.000000000000003));
#574=CARTESIAN_POINT('',(-1.349457958749614,-1.349457958749613,1.333333333333334));
#575=CARTESIAN_POINT('',(-2.750000000000001,-2.749999999999999,2.899186938124423));
#576=CARTESIAN_POINT('',(-2.750000000000000,-2.749999999999997,5.000000000000003));
#577=CARTESIAN_POINT('',(-1.349457958749614,1.105244E-015,1.333333333333334));
#578=CARTESIAN_POINT('',(-2.750000000000001,1.624445E-015,2.899186938124423));
#579=CARTESIAN_POINT('',(-2.750000000000000,2.090919E-015,5.000000000000002));
#587=(BOUNDED_SURFACE()B_SPLINE_SURFACE(2,2,((#553,#556,#559,#562,#565,#568,#571,#574,#577),(#554,#557,#560,#563,#566,#569,#572,#575,#578),(#555,#558,#561,#564,#567,#570,#573,#576,#579)),.UNSPECIFIED.,.F.,.T.,.U.)B_SPLINE_SURFACE_WITH_KNOTS((3,3),(3,2,2,2,3),(-0.729727656226966,3.229740E-016),(0.0,1.570796326794897,3.141592653589793,4.712388980384690,6.283185307179586),.UNSPECIFIED.)GEOMETRIC_REPRESENTATION_ITEM()RATIONAL_B_SPLINE_SURFACE(((1.0,0.707106781186548,1.0,0.707106781186548,1.0,0.707106781186548,1.0,0.707106781186548,1.0),(0.934172358962717,0.660559609819571,0.934172358962717,0.660559609819571,0.934172358962717,0.660559609819571,0.934172358962717,0.660559609819571,0.934172358962717),(1.0,0.707106781186548,1.0,0.707106781186548,1.0,0.707106781186548,1.0,0.707106781186548,1.0)))REPRESENTATION_ITEM('')SURFACE());
#588=ORIENTED_EDGE('',*,*,#403,.T.);
#589=CARTESIAN_POINT('',(0.0,1.754152E-015,5.000000000000001));
#590=DIRECTION('',(0.0,0.0,1.0));
#591=DIRECTION('',(1.0,0.0,0.0));
#592=AXIS2_PLACEMENT_3D('',#589,#590,#591);
#593=CIRCLE('',#592,2.750000000000000);
#594=EDGE_CURVE('',#343,#335,#593,.T.);
#595=ORIENTED_EDGE('',*,*,#594,.F.);
#596=ORIENTED_EDGE('',*,*,#419,.T.);
#597=ORIENTED_EDGE('',*,*,#546,.T.);
#598=EDGE_LOOP('',(#588,#595,#596,#597));
#599=FACE_OUTER_BOUND('',#598,.T.);
#600=ADVANCED_FACE('',(#599),#587,.T.);
#601=CARTESIAN_POINT('',(0.0,1.892930E-015,5.625000000000001));
#602=DIRECTION('',(0.0,2.220446E-016,1.0));
#603=DIRECTION('',(1.0,0.0,0.0));
#604=AXIS2_PLACEMENT_3D('',#601,#602,#603);
#605=CYLINDRICAL_SURFACE('',#604,2.750000000000000);
#606=ORIENTED_EDGE('',*,*,#340,.T.);
#607=CARTESIAN_POINT('',(0.0,2.031708E-015,6.250000000000001));
#608=DIRECTION('',(0.0,0.0,1.0));
#609=DIRECTION('',(1.0,0.0,0.0));
#610=AXIS2_PLACEMENT_3D('',#607,#608,#609);
#611=CIRCLE('',#610,2.750000000000000);
#612=EDGE_CURVE('',#302,#311,#611,.T.);
#613=ORIENTED_EDGE('',*,*,#612,.F.);
#614=ORIENTED_EDGE('',*,*,#355,.T.);
#615=ORIENTED_EDGE('',*,*,#594,.T.);
#616=EDGE_LOOP('',(#606,#613,#614,#615));
#617=FACE_OUTER_BOUND('',#616,.T.);
#618=ADVANCED_FACE('',(#617),#605,.T.);
#619=CARTESIAN_POINT('',(0.0,2.031708E-015,6.250000000000001));
#620=DIRECTION('',(0.0,0.0,1.0));
#621=DIRECTION('',(1.0,0.0,0.0));
#622=AXIS2_PLACEMENT_3D('',#619,#620,#621);
#623=SPHERICAL_SURFACE('',#622,2.750000000000000);
#624=ORIENTED_EDGE('',*,*,#308,.T.);
#625=ORIENTED_EDGE('',*,*,#612,.T.);
#626=ORIENTED_EDGE('',*,*,#317,.T.);
#627=EDGE_LOOP('',(#624,#625,#626));
#628=FACE_OUTER_BOUND('',#627,.T.);
#629=ADVANCED_FACE('',(#628),#623,.T.);
#630=CLOSED_SHELL('',(#328,#360,#424,#488,#504,#552,#600,#618,#629));
#631=MANIFOLD_SOLID_BREP('A51',#630);
#632=STYLED_ITEM('NONE',(#201),#631);
#633=CARTESIAN_POINT('',(1.270000000000000,-2.332875E-016,0.399999999999998));
#634=DIRECTION('',(-4.440892E-016,8.157517E-032,-1.0));
#635=DIRECTION('',(0.0,1.0,0.0));
#636=AXIS2_PLACEMENT_3D('',#633,#634,#635);
#637=CYLINDRICAL_SURFACE('',#636,0.300000000000000);
#638=CARTESIAN_POINT('',(1.270000000000000,0.300000000000002,1.899999999999998));
#639=VERTEX_POINT('',#638);
#640=CARTESIAN_POINT('',(1.269999999999998,0.300000000000000,-3.600000000000002));
#641=VERTEX_POINT('',#640);
#642=CARTESIAN_POINT('',(1.270000000000000,0.300000000000002,1.899999999999998));
#643=DIRECTION('',(0.0,0.0,-1.0));
#644=VECTOR('',#643,5.500000000000000);
#645=LINE('',#642,#644);
#646=EDGE_CURVE('',#639,#641,#645,.T.);
#647=ORIENTED_EDGE('',*,*,#646,.F.);
#648=CARTESIAN_POINT('',(1.270000000000001,-0.299999999999999,1.899999999999998));
#649=VERTEX_POINT('',#648);
#650=CARTESIAN_POINT('',(1.270000000000000,1.432047E-015,1.899999999999998));
#651=DIRECTION('',(0.0,0.0,-1.0));
#652=DIRECTION('',(0.0,1.0,0.0));
#653=AXIS2_PLACEMENT_3D('',#650,#651,#652);
#654=CIRCLE('',#653,0.300000000000000);
#655=EDGE_CURVE('',#639,#649,#654,.T.);
#656=ORIENTED_EDGE('',*,*,#655,.T.);
#657=CARTESIAN_POINT('',(1.269999999999998,-0.300000000000000,-3.600000000000002));
#658=VERTEX_POINT('',#657);
#659=CARTESIAN_POINT('',(1.269999999999998,-0.300000000000000,-3.600000000000002));
#660=DIRECTION('',(0.0,0.0,1.0));
#661=VECTOR('',#660,5.500000000000000);
#662=LINE('',#659,#661);
#663=EDGE_CURVE('',#658,#649,#662,.T.);
#664=ORIENTED_EDGE('',*,*,#663,.F.);
#665=CARTESIAN_POINT('',(1.269999999999998,-2.332875E-016,-3.600000000000002));
#666=DIRECTION('',(0.0,0.0,1.0));
#667=DIRECTION('',(0.0,1.0,0.0));
#668=AXIS2_PLACEMENT_3D('',#665,#666,#667);
#669=CIRCLE('',#668,0.300000000000000);
#670=EDGE_CURVE('',#658,#641,#669,.T.);
#671=ORIENTED_EDGE('',*,*,#670,.T.);
#672=EDGE_LOOP('',(#647,#656,#664,#671));
#673=FACE_OUTER_BOUND('',#672,.T.);
#674=ADVANCED_FACE('',(#673),#637,.T.);
#675=CARTESIAN_POINT('',(1.270000000000000,-2.332875E-016,0.399999999999998));
#676=DIRECTION('',(-4.440892E-016,8.157517E-032,-1.0));
#677=DIRECTION('',(0.0,1.0,0.0));
#678=AXIS2_PLACEMENT_3D('',#675,#676,#677);
#679=CYLINDRICAL_SURFACE('',#678,0.300000000000000);
#680=ORIENTED_EDGE('',*,*,#646,.T.);
#681=CARTESIAN_POINT('',(1.269999999999998,-2.332875E-016,-3.600000000000002));
#682=DIRECTION('',(0.0,0.0,1.0));
#683=DIRECTION('',(0.0,1.0,0.0));
#684=AXIS2_PLACEMENT_3D('',#681,#682,#683);
#685=CIRCLE('',#684,0.300000000000000);
#686=EDGE_CURVE('',#641,#658,#685,.T.);
#687=ORIENTED_EDGE('',*,*,#686,.T.);
#688=ORIENTED_EDGE('',*,*,#663,.T.);
#689=CARTESIAN_POINT('',(1.270000000000000,1.432047E-015,1.899999999999998));
#690=DIRECTION('',(0.0,0.0,-1.0));
#691=DIRECTION('',(0.0,1.0,0.0));
#692=AXIS2_PLACEMENT_3D('',#689,#690,#691);
#693=CIRCLE('',#692,0.300000000000000);
#694=EDGE_CURVE('',#649,#639,#693,.T.);
#695=ORIENTED_EDGE('',*,*,#694,.T.);
#696=EDGE_LOOP('',(#680,#687,#688,#695));
#697=FACE_OUTER_BOUND('',#696,.T.);
#698=ADVANCED_FACE('',(#697),#679,.T.);
#699=CARTESIAN_POINT('',(1.269999999999998,-2.332875E-016,-3.600000000000002));
#700=DIRECTION('',(0.0,0.0,-1.0));
#701=DIRECTION('',(0.0,1.0,0.0));
#702=AXIS2_PLACEMENT_3D('',#699,#700,#701);
#703=PLANE('',#702);
#704=ORIENTED_EDGE('',*,*,#686,.F.);
#705=ORIENTED_EDGE('',*,*,#670,.F.);
#706=EDGE_LOOP('',(#704,#705));
#707=FACE_OUTER_BOUND('',#706,.T.);
#708=ADVANCED_FACE('',(#707),#703,.T.);
#709=CARTESIAN_POINT('',(1.270000000000000,1.432047E-015,1.899999999999998));
#710=DIRECTION('',(0.0,0.0,-1.0));
#711=DIRECTION('',(0.0,1.0,0.0));
#712=AXIS2_PLACEMENT_3D('',#709,#710,#711);
#713=PLANE('',#712);
#714=ORIENTED_EDGE('',*,*,#655,.F.);
#715=ORIENTED_EDGE('',*,*,#694,.F.);
#716=EDGE_LOOP('',(#714,#715));
#717=FACE_OUTER_BOUND('',#716,.T.);
#718=ADVANCED_FACE('',(#717),#713,.F.);
#719=CLOSED_SHELL('',(#674,#698,#708,#718));
#720=MANIFOLD_SOLID_BREP('9C5',#719);
#721=COLOUR_RGB('253',0.732000000000000,0.732000000000000,0.732000000000000);
#722=SURFACE_STYLE_USAGE(.BOTH.,#723);
#723=SURFACE_SIDE_STYLE('NONE',(#724));
#724=SURFACE_STYLE_FILL_AREA(#725);
#725=FILL_AREA_STYLE('NONE',(#726));
#726=FILL_AREA_STYLE_COLOUR('NONE',#721);
#727=PRESENTATION_STYLE_ASSIGNMENT((#722));
#728=STYLED_ITEM('NONE',(#727),#720);
#729=CARTESIAN_POINT('',(-1.270000000000000,2.332875E-016,0.400000000000002));
#730=DIRECTION('',(-4.440892E-016,8.157517E-032,-1.0));
#731=DIRECTION('',(0.0,1.0,0.0));
#732=AXIS2_PLACEMENT_3D('',#729,#730,#731);
#733=CYLINDRICAL_SURFACE('',#732,0.300000000000000);
#734=CARTESIAN_POINT('',(-1.270000000000000,0.300000000000003,1.900000000000002));
#735=VERTEX_POINT('',#734);
#736=CARTESIAN_POINT('',(-1.270000000000002,0.300000000000001,-3.599999999999998));
#737=VERTEX_POINT('',#736);
#738=CARTESIAN_POINT('',(-1.270000000000000,0.300000000000003,1.900000000000002));
#739=DIRECTION('',(0.0,0.0,-1.0));
#740=VECTOR('',#739,5.500000000000000);
#741=LINE('',#738,#740);
#742=EDGE_CURVE('',#735,#737,#741,.T.);
#743=ORIENTED_EDGE('',*,*,#742,.F.);
#744=CARTESIAN_POINT('',(-1.269999999999999,-0.299999999999998,1.900000000000002));
#745=VERTEX_POINT('',#744);
#746=CARTESIAN_POINT('',(-1.270000000000000,1.898622E-015,1.900000000000002));
#747=DIRECTION('',(0.0,0.0,-1.0));
#748=DIRECTION('',(0.0,1.0,0.0));
#749=AXIS2_PLACEMENT_3D('',#746,#747,#748);
#750=CIRCLE('',#749,0.300000000000000);
#751=EDGE_CURVE('',#735,#745,#750,.T.);
#752=ORIENTED_EDGE('',*,*,#751,.T.);
#753=CARTESIAN_POINT('',(-1.270000000000002,-0.300000000000000,-3.599999999999998));
#754=VERTEX_POINT('',#753);
#755=CARTESIAN_POINT('',(-1.270000000000002,-0.300000000000000,-3.599999999999998));
#756=DIRECTION('',(0.0,0.0,1.0));
#757=VECTOR('',#756,5.500000000000000);
#758=LINE('',#755,#757);
#759=EDGE_CURVE('',#754,#745,#758,.T.);
#760=ORIENTED_EDGE('',*,*,#759,.F.);
#761=CARTESIAN_POINT('',(-1.270000000000002,2.332875E-016,-3.599999999999998));
#762=DIRECTION('',(0.0,0.0,1.0));
#763=DIRECTION('',(0.0,1.0,0.0));
#764=AXIS2_PLACEMENT_3D('',#761,#762,#763);
#765=CIRCLE('',#764,0.300000000000000);
#766=EDGE_CURVE('',#754,#737,#765,.T.);
#767=ORIENTED_EDGE('',*,*,#766,.T.);
#768=EDGE_LOOP('',(#743,#752,#760,#767));
#769=FACE_OUTER_BOUND('',#768,.T.);
#770=ADVANCED_FACE('',(#769),#733,.T.);
#771=CARTESIAN_POINT('',(-1.270000000000000,2.332875E-016,0.400000000000002));
#772=DIRECTION('',(-4.440892E-016,8.157517E-032,-1.0));
#773=DIRECTION('',(0.0,1.0,0.0));
#774=AXIS2_PLACEMENT_3D('',#771,#772,#773);
#775=CYLINDRICAL_SURFACE('',#774,0.300000000000000);
#776=ORIENTED_EDGE('',*,*,#742,.T.);
#777=CARTESIAN_POINT('',(-1.270000000000002,2.332875E-016,-3.599999999999998));
#778=DIRECTION('',(0.0,0.0,1.0));
#779=DIRECTION('',(0.0,1.0,0.0));
#780=AXIS2_PLACEMENT_3D('',#777,#778,#779);
#781=CIRCLE('',#780,0.300000000000000);
#782=EDGE_CURVE('',#737,#754,#781,.T.);
#783=ORIENTED_EDGE('',*,*,#782,.T.);
#784=ORIENTED_EDGE('',*,*,#759,.T.);
#785=CARTESIAN_POINT('',(-1.270000000000000,1.898622E-015,1.900000000000002));
#786=DIRECTION('',(0.0,0.0,-1.0));
#787=DIRECTION('',(0.0,1.0,0.0));
#788=AXIS2_PLACEMENT_3D('',#785,#786,#787);
#789=CIRCLE('',#788,0.300000000000000);
#790=EDGE_CURVE('',#745,#735,#789,.T.);
#791=ORIENTED_EDGE('',*,*,#790,.T.);
#792=EDGE_LOOP('',(#776,#783,#784,#791));
#793=FACE_OUTER_BOUND('',#792,.T.);
#794=ADVANCED_FACE('',(#793),#775,.T.);
#795=CARTESIAN_POINT('',(-1.270000000000002,2.332875E-016,-3.599999999999998));
#796=DIRECTION('',(0.0,0.0,-1.0));
#797=DIRECTION('',(0.0,1.0,0.0));
#798=AXIS2_PLACEMENT_3D('',#795,#796,#797);
#799=PLANE('',#798);
#800=ORIENTED_EDGE('',*,*,#782,.F.);
#801=ORIENTED_EDGE('',*,*,#766,.F.);
#802=EDGE_LOOP('',(#800,#801));
#803=FACE_OUTER_BOUND('',#802,.T.);
#804=ADVANCED_FACE('',(#803),#799,.T.);
#805=CARTESIAN_POINT('',(-1.270000000000000,1.898622E-015,1.900000000000002));
#806=DIRECTION('',(0.0,0.0,-1.0));
#807=DIRECTION('',(0.0,1.0,0.0));
#808=AXIS2_PLACEMENT_3D('',#805,#806,#807);
#809=PLANE('',#808);
#810=ORIENTED_EDGE('',*,*,#751,.F.);
#811=ORIENTED_EDGE('',*,*,#790,.F.);
#812=EDGE_LOOP('',(#810,#811));
#813=FACE_OUTER_BOUND('',#812,.T.);
#814=ADVANCED_FACE('',(#813),#809,.F.);
#815=CLOSED_SHELL('',(#770,#794,#804,#814));
#816=MANIFOLD_SOLID_BREP('9C4',#815);
#817=STYLED_ITEM('NONE',(#727),#816);
#818=ADVANCED_BREP_SHAPE_REPRESENTATION('ABSR1',(#194,#292,#631,#720,#816),#28);
#819=SHAPE_REPRESENTATION_RELATIONSHIP('SRRPL1','',#818,#62);
ENDSEC;
END-ISO-10303-21;
