ISO-10303-21;
HEADER;
/****************************************************************
 * Generated by software with PDElib inside                    *
 * PDElib Version v51a, created Wed 11/30/2011                  *
 * ITI Transcendata (http://www.transcendata.com/)              *
 ****************************************************************/
FILE_DESCRIPTION((''),'2;1');
FILE_NAME('CAPPR350-850X1300_a.stp','2014-08-28T13:29:33',(''),(''),'Mechanical Desktop 2011','Mechanical Desktop 2011',', , ');
FILE_SCHEMA(('AUTOMOTIVE_DESIGN { 1 2 10303 214 1 1 1 1 }'));
ENDSEC;
DATA;
#10=(NAMED_UNIT(*)PLANE_ANGLE_UNIT()SI_UNIT($,.RADIAN.));
#11=DIMENSIONAL_EXPONENTS(0.0,0.0,0.0,0.0,0.0,0.0,0.0);
#12=PLANE_ANGLE_MEASURE_WITH_UNIT(PLANE_ANGLE_MEASURE(0.0174532925),#10);
#16=(CONVERSION_BASED_UNIT('DEGREE',#12)NAMED_UNIT(#11)PLANE_ANGLE_UNIT());
#20=(NAMED_UNIT(*)SI_UNIT($,.STERADIAN.)SOLID_ANGLE_UNIT());
#24=(LENGTH_UNIT()NAMED_UNIT(*)SI_UNIT(.MILLI.,.METRE.));
#26=UNCERTAINTY_MEASURE_WITH_UNIT(LENGTH_MEASURE(0.000001),#24,'DISTANCE_ACCURACY_VALUE','');
#28=(GEOMETRIC_REPRESENTATION_CONTEXT(3)GLOBAL_UNCERTAINTY_ASSIGNED_CONTEXT((#26))GLOBAL_UNIT_ASSIGNED_CONTEXT((#16,#20,#24))REPRESENTATION_CONTEXT('','3D'));
#29=APPLICATION_CONTEXT('automotive design');
#30=APPLICATION_PROTOCOL_DEFINITION('INTERNATIONAL_STANDARD','automotive_design',1998,#29);
#31=PRODUCT_CONTEXT('3D Mechanical Parts',#29,'mechanical');
#32=PRODUCT('Product','Product','',(#31));
#33=PRODUCT_RELATED_PRODUCT_CATEGORY('part',$,(#32));
#34=PRODUCT_CATEGORY('part',$);
#35=PERSON('1','Design','Joe',$,$,$);
#36=ORGANIZATION($,'None','None');
#37=PERSON_AND_ORGANIZATION(#35,#36);
#38=PERSON_AND_ORGANIZATION_ROLE('design_owner');
#39=APPLIED_PERSON_AND_ORGANIZATION_ASSIGNMENT(#37,#38,(#32));
#40=PRODUCT_DEFINITION_FORMATION_WITH_SPECIFIED_SOURCE('None','',#32,.BOUGHT.);
#41=PERSON('2','Creator','Joe',$,$,$);
#42=ORGANIZATION($,'None','None');
#43=PERSON_AND_ORGANIZATION(#41,#42);
#44=PERSON_AND_ORGANIZATION_ROLE('creator');
#45=APPLIED_PERSON_AND_ORGANIZATION_ASSIGNMENT(#43,#44,(#40));
#46=PERSON('3','Supplier','Joe',$,$,$);
#47=ORGANIZATION($,'None','None');
#48=PERSON_AND_ORGANIZATION(#46,#47);
#49=PERSON_AND_ORGANIZATION_ROLE('design_supplier');
#50=APPLIED_PERSON_AND_ORGANIZATION_ASSIGNMENT(#48,#49,(#40));
#51=PRODUCT_DEFINITION_CONTEXT('part definition',#29,'design');
#52=PRODUCT_DEFINITION('None','',#40,#51);
#53=PERSON('4','Creator','Joe',$,$,$);
#54=ORGANIZATION($,'None','None');
#55=PERSON_AND_ORGANIZATION(#53,#54);
#56=PERSON_AND_ORGANIZATION_ROLE('creator');
#57=APPLIED_PERSON_AND_ORGANIZATION_ASSIGNMENT(#55,#56,(#52));
#58=CARTESIAN_POINT('NONE',(0.0,0.0,0.0));
#59=DIRECTION('NONE',(0.0,0.0,1.0));
#60=DIRECTION('NONE',(1.0,0.0,0.0));
#61=AXIS2_PLACEMENT_3D('NONE',#58,#59,#60);
#62=SHAPE_REPRESENTATION('SR1',(#61),#28);
#63=PRODUCT_DEFINITION_SHAPE('PDS1','Test Part',#52);
#64=SHAPE_DEFINITION_REPRESENTATION(#63,#62);
#65=CARTESIAN_POINT('',(0.0,0.0,0.1));
#66=DIRECTION('',(0.0,0.0,-1.0));
#67=DIRECTION('',(-1.0,0.0,0.0));
#68=AXIS2_PLACEMENT_3D('',#65,#66,#67);
#69=TOROIDAL_SURFACE('',#68,4.15,0.1);
#70=CARTESIAN_POINT('',(-4.15,0.0,0.0));
#71=VERTEX_POINT('',#70);
#72=CARTESIAN_POINT('',(-4.25,0.0,0.1));
#73=VERTEX_POINT('',#72);
#74=CARTESIAN_POINT('',(-4.15,0.0,0.1));
#75=DIRECTION('',(0.0,1.0,0.0));
#76=DIRECTION('',(-1.0,0.0,0.0));
#77=AXIS2_PLACEMENT_3D('',#74,#75,#76);
#78=CIRCLE('',#77,0.1);
#79=EDGE_CURVE('',#71,#73,#78,.T.);
#80=ORIENTED_EDGE('',*,*,#79,.F.);
#81=CARTESIAN_POINT('',(4.15,1.016457E-015,0.0));
#82=VERTEX_POINT('',#81);
#83=CARTESIAN_POINT('',(0.0,0.0,0.0));
#84=DIRECTION('',(0.0,0.0,1.0));
#85=DIRECTION('',(-1.0,0.0,0.0));
#86=AXIS2_PLACEMENT_3D('',#83,#84,#85);
#87=CIRCLE('',#86,4.15);
#88=EDGE_CURVE('',#71,#82,#87,.T.);
#89=ORIENTED_EDGE('',*,*,#88,.T.);
#90=CARTESIAN_POINT('',(4.25,0.0,0.1));
#91=VERTEX_POINT('',#90);
#92=CARTESIAN_POINT('',(4.15,-5.082284E-016,0.1));
#93=DIRECTION('',(0.0,-1.0,0.0));
#94=DIRECTION('',(1.0,0.0,0.0));
#95=AXIS2_PLACEMENT_3D('',#92,#93,#94);
#96=CIRCLE('',#95,0.1);
#97=EDGE_CURVE('',#82,#91,#96,.T.);
#98=ORIENTED_EDGE('',*,*,#97,.T.);
#99=CARTESIAN_POINT('',(0.0,0.0,0.1));
#100=DIRECTION('',(0.0,0.0,-1.0));
#101=DIRECTION('',(-1.0,0.0,0.0));
#102=AXIS2_PLACEMENT_3D('',#99,#100,#101);
#103=CIRCLE('',#102,4.25);
#104=EDGE_CURVE('',#91,#73,#103,.T.);
#105=ORIENTED_EDGE('',*,*,#104,.T.);
#106=EDGE_LOOP('',(#80,#89,#98,#105));
#107=FACE_OUTER_BOUND('',#106,.T.);
#108=ADVANCED_FACE('',(#107),#69,.T.);
#109=CARTESIAN_POINT('',(0.0,0.0,0.063166247903554));
#110=DIRECTION('',(0.0,0.0,1.0));
#111=DIRECTION('',(1.0,0.0,0.0));
#112=AXIS2_PLACEMENT_3D('',#109,#110,#111);
#113=CYLINDRICAL_SURFACE('',#112,4.25);
#114=CARTESIAN_POINT('',(4.25,0.0,0.83667504192892));
#115=VERTEX_POINT('',#114);
#116=CARTESIAN_POINT('',(4.25,0.0,0.83667504192892));
#117=DIRECTION('',(0.0,0.0,-1.0));
#118=VECTOR('',#117,0.73667504192892);
#119=LINE('',#116,#118);
#120=EDGE_CURVE('',#115,#91,#119,.T.);
#121=ORIENTED_EDGE('',*,*,#120,.F.);
#122=CARTESIAN_POINT('',(-4.25,0.0,0.83667504192892));
#123=VERTEX_POINT('',#122);
#124=CARTESIAN_POINT('',(0.0,0.0,0.83667504192892));
#125=DIRECTION('',(0.0,0.0,1.0));
#126=DIRECTION('',(1.0,0.0,0.0));
#127=AXIS2_PLACEMENT_3D('',#124,#125,#126);
#128=CIRCLE('',#127,4.25);
#129=EDGE_CURVE('',#123,#115,#128,.T.);
#130=ORIENTED_EDGE('',*,*,#129,.F.);
#131=CARTESIAN_POINT('',(-4.25,-5.204749E-016,0.83667504192892));
#132=DIRECTION('',(0.0,0.0,-1.0));
#133=VECTOR('',#132,0.73667504192892);
#134=LINE('',#131,#133);
#135=EDGE_CURVE('',#123,#73,#134,.T.);
#136=ORIENTED_EDGE('',*,*,#135,.T.);
#137=ORIENTED_EDGE('',*,*,#104,.F.);
#138=EDGE_LOOP('',(#121,#130,#136,#137));
#139=FACE_OUTER_BOUND('',#138,.T.);
#140=ADVANCED_FACE('',(#139),#113,.T.);
#141=CARTESIAN_POINT('',(0.0,0.0,12.5));
#142=DIRECTION('',(0.0,0.0,1.0));
#143=DIRECTION('',(1.0,0.0,0.0));
#144=AXIS2_PLACEMENT_3D('',#141,#142,#143);
#145=TOROIDAL_SURFACE('',#144,3.75,0.5);
#146=CARTESIAN_POINT('',(3.75,0.0,13.0));
#147=VERTEX_POINT('',#146);
#148=CARTESIAN_POINT('',(4.25,0.0,12.5));
#149=VERTEX_POINT('',#148);
#150=CARTESIAN_POINT('',(3.75,0.0,12.5));
#151=DIRECTION('',(0.0,1.0,0.0));
#152=DIRECTION('',(1.0,0.0,0.0));
#153=AXIS2_PLACEMENT_3D('',#150,#151,#152);
#154=CIRCLE('',#153,0.5);
#155=EDGE_CURVE('',#147,#149,#154,.T.);
#156=ORIENTED_EDGE('',*,*,#155,.F.);
#157=CARTESIAN_POINT('',(2.0,-3.172144385112381,13.0));
#158=VERTEX_POINT('',#157);
#159=CARTESIAN_POINT('',(0.0,0.0,13.0));
#160=DIRECTION('',(0.0,0.0,-1.0));
#161=DIRECTION('',(-1.0,0.0,0.0));
#162=AXIS2_PLACEMENT_3D('',#159,#160,#161);
#163=CIRCLE('',#162,3.75);
#164=EDGE_CURVE('',#147,#158,#163,.T.);
#165=ORIENTED_EDGE('',*,*,#164,.T.);
#166=CARTESIAN_POINT('',(-3.75,-4.592425E-016,13.0));
#167=VERTEX_POINT('',#166);
#168=CARTESIAN_POINT('',(0.0,0.0,13.0));
#169=DIRECTION('',(0.0,0.0,-1.0));
#170=DIRECTION('',(-1.0,0.0,0.0));
#171=AXIS2_PLACEMENT_3D('',#168,#169,#170);
#172=CIRCLE('',#171,3.75);
#173=EDGE_CURVE('',#158,#167,#172,.T.);
#174=ORIENTED_EDGE('',*,*,#173,.T.);
#175=CARTESIAN_POINT('',(-4.25,-5.204749E-016,12.5));
#176=VERTEX_POINT('',#175);
#177=CARTESIAN_POINT('',(-3.75,-4.592425E-016,12.5));
#178=DIRECTION('',(0.0,-1.0,0.0));
#179=DIRECTION('',(-1.0,0.0,0.0));
#180=AXIS2_PLACEMENT_3D('',#177,#178,#179);
#181=CIRCLE('',#180,0.5);
#182=EDGE_CURVE('',#167,#176,#181,.T.);
#183=ORIENTED_EDGE('',*,*,#182,.T.);
#184=CARTESIAN_POINT('',(0.0,0.0,12.5));
#185=DIRECTION('',(0.0,0.0,1.0));
#186=DIRECTION('',(-1.0,0.0,0.0));
#187=AXIS2_PLACEMENT_3D('',#184,#185,#186);
#188=CIRCLE('',#187,4.25);
#189=EDGE_CURVE('',#176,#149,#188,.T.);
#190=ORIENTED_EDGE('',*,*,#189,.T.);
#191=EDGE_LOOP('',(#156,#165,#174,#183,#190));
#192=FACE_OUTER_BOUND('',#191,.T.);
#193=ADVANCED_FACE('',(#192),#145,.T.);
#194=CARTESIAN_POINT('',(0.0,0.0,1.821491205974634));
#195=DIRECTION('',(0.0,0.0,1.0));
#196=DIRECTION('',(1.0,0.0,0.0));
#197=AXIS2_PLACEMENT_3D('',#194,#195,#196);
#198=CYLINDRICAL_SURFACE('',#197,4.25);
#199=CARTESIAN_POINT('',(4.25,0.0,2.16332495807108));
#200=VERTEX_POINT('',#199);
#201=CARTESIAN_POINT('',(4.25,0.0,12.5));
#202=DIRECTION('',(0.0,0.0,-1.0));
#203=VECTOR('',#202,10.33667504192892);
#204=LINE('',#201,#203);
#205=EDGE_CURVE('',#149,#200,#204,.T.);
#206=ORIENTED_EDGE('',*,*,#205,.F.);
#207=ORIENTED_EDGE('',*,*,#189,.F.);
#208=CARTESIAN_POINT('',(-4.25,5.204749E-016,2.16332495807108));
#209=VERTEX_POINT('',#208);
#210=CARTESIAN_POINT('',(-4.25,-5.204749E-016,12.5));
#211=DIRECTION('',(0.0,0.0,-1.0));
#212=VECTOR('',#211,10.33667504192892);
#213=LINE('',#210,#212);
#214=EDGE_CURVE('',#176,#209,#213,.T.);
#215=ORIENTED_EDGE('',*,*,#214,.T.);
#216=CARTESIAN_POINT('',(0.0,0.0,2.16332495807108));
#217=DIRECTION('',(0.0,0.0,-1.0));
#218=DIRECTION('',(1.0,0.0,0.0));
#219=AXIS2_PLACEMENT_3D('',#216,#217,#218);
#220=CIRCLE('',#219,4.25);
#221=EDGE_CURVE('',#200,#209,#220,.T.);
#222=ORIENTED_EDGE('',*,*,#221,.F.);
#223=EDGE_LOOP('',(#206,#207,#215,#222));
#224=FACE_OUTER_BOUND('',#223,.T.);
#225=ADVANCED_FACE('',(#224),#198,.T.);
#226=CARTESIAN_POINT('',(0.0,0.0,0.83667504192892));
#227=DIRECTION('',(0.0,0.0,-1.0));
#228=DIRECTION('',(-1.0,0.0,0.0));
#229=AXIS2_PLACEMENT_3D('',#226,#227,#228);
#230=TOROIDAL_SURFACE('',#229,3.75,0.5);
#231=CARTESIAN_POINT('',(-4.166666666666667,5.102695E-016,1.113060441125204));
#232=VERTEX_POINT('',#231);
#233=CARTESIAN_POINT('',(-3.75,0.0,0.83667504192892));
#234=DIRECTION('',(0.0,1.0,0.0));
#235=DIRECTION('',(-1.0,0.0,0.0));
#236=AXIS2_PLACEMENT_3D('',#233,#234,#235);
#237=CIRCLE('',#236,0.5);
#238=EDGE_CURVE('',#123,#232,#237,.T.);
#239=ORIENTED_EDGE('',*,*,#238,.F.);
#240=ORIENTED_EDGE('',*,*,#129,.T.);
#241=CARTESIAN_POINT('',(4.166666666666667,0.0,1.113060441125204));
#242=VERTEX_POINT('',#241);
#243=CARTESIAN_POINT('',(3.75,-4.592425E-016,0.83667504192892));
#244=DIRECTION('',(0.0,-1.0,0.0));
#245=DIRECTION('',(1.0,0.0,0.0));
#246=AXIS2_PLACEMENT_3D('',#243,#244,#245);
#247=CIRCLE('',#246,0.5);
#248=EDGE_CURVE('',#115,#242,#247,.T.);
#249=ORIENTED_EDGE('',*,*,#248,.T.);
#250=CARTESIAN_POINT('',(0.0,0.0,1.113060441125204));
#251=DIRECTION('',(0.0,0.0,-1.0));
#252=DIRECTION('',(1.0,0.0,0.0));
#253=AXIS2_PLACEMENT_3D('',#250,#251,#252);
#254=CIRCLE('',#253,4.166666666666667);
#255=EDGE_CURVE('',#242,#232,#254,.T.);
#256=ORIENTED_EDGE('',*,*,#255,.T.);
#257=EDGE_LOOP('',(#239,#240,#249,#256));
#258=FACE_OUTER_BOUND('',#257,.T.);
#259=ADVANCED_FACE('',(#258),#230,.T.);
#260=CARTESIAN_POINT('',(0.0,0.0,2.16332495807108));
#261=DIRECTION('',(0.0,0.0,1.0));
#262=DIRECTION('',(1.0,0.0,0.0));
#263=AXIS2_PLACEMENT_3D('',#260,#261,#262);
#264=TOROIDAL_SURFACE('',#263,3.75,0.5);
#265=CARTESIAN_POINT('',(4.166666666666667,0.0,1.886939558874797));
#266=VERTEX_POINT('',#265);
#267=CARTESIAN_POINT('',(3.75,0.0,2.16332495807108));
#268=DIRECTION('',(0.0,1.0,0.0));
#269=DIRECTION('',(1.0,0.0,0.0));
#270=AXIS2_PLACEMENT_3D('',#267,#268,#269);
#271=CIRCLE('',#270,0.5);
#272=EDGE_CURVE('',#200,#266,#271,.T.);
#273=ORIENTED_EDGE('',*,*,#272,.F.);
#274=ORIENTED_EDGE('',*,*,#221,.T.);
#275=CARTESIAN_POINT('',(-4.166666666666667,-5.102695E-016,1.886939558874797));
#276=VERTEX_POINT('',#275);
#277=CARTESIAN_POINT('',(-3.75,-4.592425E-016,2.16332495807108));
#278=DIRECTION('',(0.0,-1.0,0.0));
#279=DIRECTION('',(-1.0,0.0,0.0));
#280=AXIS2_PLACEMENT_3D('',#277,#278,#279);
#281=CIRCLE('',#280,0.5);
#282=EDGE_CURVE('',#209,#276,#281,.T.);
#283=ORIENTED_EDGE('',*,*,#282,.T.);
#284=CARTESIAN_POINT('',(0.0,0.0,1.886939558874797));
#285=DIRECTION('',(0.0,0.0,1.0));
#286=DIRECTION('',(1.0,0.0,0.0));
#287=AXIS2_PLACEMENT_3D('',#284,#285,#286);
#288=CIRCLE('',#287,4.166666666666667);
#289=EDGE_CURVE('',#276,#266,#288,.T.);
#290=ORIENTED_EDGE('',*,*,#289,.T.);
#291=EDGE_LOOP('',(#273,#274,#283,#290));
#292=FACE_OUTER_BOUND('',#291,.T.);
#293=ADVANCED_FACE('',(#292),#264,.T.);
#294=CARTESIAN_POINT('',(0.0,0.0,1.5));
#295=DIRECTION('',(0.0,0.0,1.0));
#296=DIRECTION('',(1.0,0.0,0.0));
#297=AXIS2_PLACEMENT_3D('',#294,#295,#296);
#298=TOROIDAL_SURFACE('',#297,4.75,0.7);
#299=CARTESIAN_POINT('',(4.75,0.0,1.5));
#300=DIRECTION('',(0.0,-1.0,0.0));
#301=DIRECTION('',(1.0,0.0,0.0));
#302=AXIS2_PLACEMENT_3D('',#299,#300,#301);
#303=CIRCLE('',#302,0.7);
#304=EDGE_CURVE('',#266,#242,#303,.T.);
#305=ORIENTED_EDGE('',*,*,#304,.F.);
#306=ORIENTED_EDGE('',*,*,#289,.F.);
#307=CARTESIAN_POINT('',(-4.75,-5.817072E-016,1.5));
#308=DIRECTION('',(0.0,1.0,0.0));
#309=DIRECTION('',(-1.0,0.0,0.0));
#310=AXIS2_PLACEMENT_3D('',#307,#308,#309);
#311=CIRCLE('',#310,0.7);
#312=EDGE_CURVE('',#276,#232,#311,.T.);
#313=ORIENTED_EDGE('',*,*,#312,.T.);
#314=ORIENTED_EDGE('',*,*,#255,.F.);
#315=EDGE_LOOP('',(#305,#306,#313,#314));
#316=FACE_OUTER_BOUND('',#315,.T.);
#317=ADVANCED_FACE('',(#316),#298,.F.);
#318=CARTESIAN_POINT('',(0.0,0.0,1.5));
#319=DIRECTION('',(0.0,0.0,1.0));
#320=DIRECTION('',(1.0,0.0,0.0));
#321=AXIS2_PLACEMENT_3D('',#318,#319,#320);
#322=TOROIDAL_SURFACE('',#321,4.75,0.7);
#323=ORIENTED_EDGE('',*,*,#304,.T.);
#324=CARTESIAN_POINT('',(0.0,0.0,1.113060441125204));
#325=DIRECTION('',(0.0,0.0,-1.0));
#326=DIRECTION('',(1.0,0.0,0.0));
#327=AXIS2_PLACEMENT_3D('',#324,#325,#326);
#328=CIRCLE('',#327,4.166666666666667);
#329=EDGE_CURVE('',#232,#242,#328,.T.);
#330=ORIENTED_EDGE('',*,*,#329,.F.);
#331=ORIENTED_EDGE('',*,*,#312,.F.);
#332=CARTESIAN_POINT('',(0.0,0.0,1.886939558874797));
#333=DIRECTION('',(0.0,0.0,1.0));
#334=DIRECTION('',(1.0,0.0,0.0));
#335=AXIS2_PLACEMENT_3D('',#332,#333,#334);
#336=CIRCLE('',#335,4.166666666666667);
#337=EDGE_CURVE('',#266,#276,#336,.T.);
#338=ORIENTED_EDGE('',*,*,#337,.F.);
#339=EDGE_LOOP('',(#323,#330,#331,#338));
#340=FACE_OUTER_BOUND('',#339,.T.);
#341=ADVANCED_FACE('',(#340),#322,.F.);
#342=CARTESIAN_POINT('',(0.0,0.0,2.16332495807108));
#343=DIRECTION('',(0.0,0.0,1.0));
#344=DIRECTION('',(1.0,0.0,0.0));
#345=AXIS2_PLACEMENT_3D('',#342,#343,#344);
#346=TOROIDAL_SURFACE('',#345,3.75,0.5);
#347=ORIENTED_EDGE('',*,*,#272,.T.);
#348=ORIENTED_EDGE('',*,*,#337,.T.);
#349=ORIENTED_EDGE('',*,*,#282,.F.);
#350=CARTESIAN_POINT('',(0.0,0.0,2.16332495807108));
#351=DIRECTION('',(0.0,0.0,-1.0));
#352=DIRECTION('',(1.0,0.0,0.0));
#353=AXIS2_PLACEMENT_3D('',#350,#351,#352);
#354=CIRCLE('',#353,4.25);
#355=EDGE_CURVE('',#209,#200,#354,.T.);
#356=ORIENTED_EDGE('',*,*,#355,.T.);
#357=EDGE_LOOP('',(#347,#348,#349,#356));
#358=FACE_OUTER_BOUND('',#357,.T.);
#359=ADVANCED_FACE('',(#358),#346,.T.);
#360=CARTESIAN_POINT('',(0.0,0.0,0.83667504192892));
#361=DIRECTION('',(0.0,0.0,-1.0));
#362=DIRECTION('',(-1.0,0.0,0.0));
#363=AXIS2_PLACEMENT_3D('',#360,#361,#362);
#364=TOROIDAL_SURFACE('',#363,3.75,0.5);
#365=ORIENTED_EDGE('',*,*,#238,.T.);
#366=ORIENTED_EDGE('',*,*,#329,.T.);
#367=ORIENTED_EDGE('',*,*,#248,.F.);
#368=CARTESIAN_POINT('',(0.0,0.0,0.83667504192892));
#369=DIRECTION('',(0.0,0.0,1.0));
#370=DIRECTION('',(1.0,0.0,0.0));
#371=AXIS2_PLACEMENT_3D('',#368,#369,#370);
#372=CIRCLE('',#371,4.25);
#373=EDGE_CURVE('',#115,#123,#372,.T.);
#374=ORIENTED_EDGE('',*,*,#373,.T.);
#375=EDGE_LOOP('',(#365,#366,#367,#374));
#376=FACE_OUTER_BOUND('',#375,.T.);
#377=ADVANCED_FACE('',(#376),#364,.T.);
#378=CARTESIAN_POINT('',(0.0,0.0,1.821491205974634));
#379=DIRECTION('',(0.0,0.0,1.0));
#380=DIRECTION('',(1.0,0.0,0.0));
#381=AXIS2_PLACEMENT_3D('',#378,#379,#380);
#382=CYLINDRICAL_SURFACE('',#381,4.25);
#383=ORIENTED_EDGE('',*,*,#205,.T.);
#384=ORIENTED_EDGE('',*,*,#355,.F.);
#385=ORIENTED_EDGE('',*,*,#214,.F.);
#386=CARTESIAN_POINT('',(0.0,0.0,12.5));
#387=DIRECTION('',(0.0,0.0,1.0));
#388=DIRECTION('',(-1.0,0.0,0.0));
#389=AXIS2_PLACEMENT_3D('',#386,#387,#388);
#390=CIRCLE('',#389,4.25);
#391=EDGE_CURVE('',#149,#176,#390,.T.);
#392=ORIENTED_EDGE('',*,*,#391,.F.);
#393=EDGE_LOOP('',(#383,#384,#385,#392));
#394=FACE_OUTER_BOUND('',#393,.T.);
#395=ADVANCED_FACE('',(#394),#382,.T.);
#396=CARTESIAN_POINT('',(0.0,0.0,12.5));
#397=DIRECTION('',(0.0,0.0,1.0));
#398=DIRECTION('',(1.0,0.0,0.0));
#399=AXIS2_PLACEMENT_3D('',#396,#397,#398);
#400=TOROIDAL_SURFACE('',#399,3.75,0.5);
#401=ORIENTED_EDGE('',*,*,#155,.T.);
#402=ORIENTED_EDGE('',*,*,#391,.T.);
#403=ORIENTED_EDGE('',*,*,#182,.F.);
#404=CARTESIAN_POINT('',(2.0,3.17214438511238,13.0));
#405=VERTEX_POINT('',#404);
#406=CARTESIAN_POINT('',(0.0,0.0,13.0));
#407=DIRECTION('',(0.0,0.0,-1.0));
#408=DIRECTION('',(-1.0,0.0,0.0));
#409=AXIS2_PLACEMENT_3D('',#406,#407,#408);
#410=CIRCLE('',#409,3.75);
#411=EDGE_CURVE('',#167,#405,#410,.T.);
#412=ORIENTED_EDGE('',*,*,#411,.T.);
#413=CARTESIAN_POINT('',(0.0,0.0,13.0));
#414=DIRECTION('',(0.0,0.0,-1.0));
#415=DIRECTION('',(-1.0,0.0,0.0));
#416=AXIS2_PLACEMENT_3D('',#413,#414,#415);
#417=CIRCLE('',#416,3.75);
#418=EDGE_CURVE('',#405,#147,#417,.T.);
#419=ORIENTED_EDGE('',*,*,#418,.T.);
#420=EDGE_LOOP('',(#401,#402,#403,#412,#419));
#421=FACE_OUTER_BOUND('',#420,.T.);
#422=ADVANCED_FACE('',(#421),#400,.T.);
#423=CARTESIAN_POINT('',(0.0,0.0,0.063166247903554));
#424=DIRECTION('',(0.0,0.0,1.0));
#425=DIRECTION('',(1.0,0.0,0.0));
#426=AXIS2_PLACEMENT_3D('',#423,#424,#425);
#427=CYLINDRICAL_SURFACE('',#426,4.25);
#428=ORIENTED_EDGE('',*,*,#120,.T.);
#429=CARTESIAN_POINT('',(0.0,0.0,0.1));
#430=DIRECTION('',(0.0,0.0,-1.0));
#431=DIRECTION('',(-1.0,0.0,0.0));
#432=AXIS2_PLACEMENT_3D('',#429,#430,#431);
#433=CIRCLE('',#432,4.25);
#434=EDGE_CURVE('',#73,#91,#433,.T.);
#435=ORIENTED_EDGE('',*,*,#434,.F.);
#436=ORIENTED_EDGE('',*,*,#135,.F.);
#437=ORIENTED_EDGE('',*,*,#373,.F.);
#438=EDGE_LOOP('',(#428,#435,#436,#437));
#439=FACE_OUTER_BOUND('',#438,.T.);
#440=ADVANCED_FACE('',(#439),#427,.T.);
#441=CARTESIAN_POINT('',(0.0,0.0,0.1));
#442=DIRECTION('',(0.0,0.0,-1.0));
#443=DIRECTION('',(-1.0,0.0,0.0));
#444=AXIS2_PLACEMENT_3D('',#441,#442,#443);
#445=TOROIDAL_SURFACE('',#444,4.15,0.1);
#446=ORIENTED_EDGE('',*,*,#79,.T.);
#447=ORIENTED_EDGE('',*,*,#434,.T.);
#448=ORIENTED_EDGE('',*,*,#97,.F.);
#449=CARTESIAN_POINT('',(0.0,0.0,0.0));
#450=DIRECTION('',(0.0,0.0,1.0));
#451=DIRECTION('',(-1.0,0.0,0.0));
#452=AXIS2_PLACEMENT_3D('',#449,#450,#451);
#453=CIRCLE('',#452,4.15);
#454=EDGE_CURVE('',#82,#71,#453,.T.);
#455=ORIENTED_EDGE('',*,*,#454,.T.);
#456=EDGE_LOOP('',(#446,#447,#448,#455));
#457=FACE_OUTER_BOUND('',#456,.T.);
#458=ADVANCED_FACE('',(#457),#445,.T.);
#459=CARTESIAN_POINT('',(4.565,-4.565,0.0));
#460=DIRECTION('',(0.0,0.0,-1.0));
#461=DIRECTION('',(-1.0,0.0,0.0));
#462=AXIS2_PLACEMENT_3D('',#459,#460,#461);
#463=PLANE('',#462);
#464=ORIENTED_EDGE('',*,*,#454,.F.);
#465=ORIENTED_EDGE('',*,*,#88,.F.);
#466=EDGE_LOOP('',(#464,#465));
#467=FACE_OUTER_BOUND('',#466,.T.);
#468=ADVANCED_FACE('',(#467),#463,.T.);
#469=CARTESIAN_POINT('',(4.440892E-016,-1.640961E-016,9.5025));
#470=DIRECTION('',(0.0,0.0,-1.0));
#471=DIRECTION('',(1.0,0.0,0.0));
#472=AXIS2_PLACEMENT_3D('',#469,#470,#471);
#473=CYLINDRICAL_SURFACE('',#472,3.75);
#474=CARTESIAN_POINT('',(2.0,-3.172144385112381,12.949999999999999));
#475=VERTEX_POINT('',#474);
#476=CARTESIAN_POINT('',(2.0,3.17214438511238,12.949999999999999));
#477=VERTEX_POINT('',#476);
#478=CARTESIAN_POINT('',(4.440892E-016,-1.640961E-016,12.949999999999999));
#479=DIRECTION('',(0.0,0.0,1.0));
#480=DIRECTION('',(1.0,0.0,0.0));
#481=AXIS2_PLACEMENT_3D('',#478,#479,#480);
#482=CIRCLE('',#481,3.75);
#483=EDGE_CURVE('',#475,#477,#482,.T.);
#484=ORIENTED_EDGE('',*,*,#483,.F.);
#485=CARTESIAN_POINT('',(2.0,-3.172144385112381,13.0));
#486=DIRECTION('',(0.0,0.0,-1.0));
#487=VECTOR('',#486,0.050000000000001);
#488=LINE('',#485,#487);
#489=EDGE_CURVE('',#158,#475,#488,.T.);
#490=ORIENTED_EDGE('',*,*,#489,.F.);
#491=ORIENTED_EDGE('',*,*,#164,.F.);
#492=ORIENTED_EDGE('',*,*,#418,.F.);
#493=CARTESIAN_POINT('',(2.0,3.17214438511238,13.0));
#494=DIRECTION('',(0.0,0.0,-1.0));
#495=VECTOR('',#494,0.050000000000001);
#496=LINE('',#493,#495);
#497=EDGE_CURVE('',#405,#477,#496,.T.);
#498=ORIENTED_EDGE('',*,*,#497,.T.);
#499=EDGE_LOOP('',(#484,#490,#491,#492,#498));
#500=FACE_OUTER_BOUND('',#499,.T.);
#501=ADVANCED_FACE('',(#500),#473,.F.);
#502=CARTESIAN_POINT('',(2.0,-3.48935882362362,9.4475));
#503=DIRECTION('',(-1.0,0.0,0.0));
#504=DIRECTION('',(0.0,0.0,1.0));
#505=AXIS2_PLACEMENT_3D('',#502,#503,#504);
#506=PLANE('',#505);
#507=CARTESIAN_POINT('',(2.0,3.17214438511238,12.949999999999999));
#508=DIRECTION('',(0.0,-1.0,0.0));
#509=VECTOR('',#508,6.344288770224761);
#510=LINE('',#507,#509);
#511=EDGE_CURVE('',#477,#475,#510,.T.);
#512=ORIENTED_EDGE('',*,*,#511,.F.);
#513=ORIENTED_EDGE('',*,*,#497,.F.);
#514=CARTESIAN_POINT('',(1.999999999999999,-3.172144385112381,13.0));
#515=DIRECTION('',(0.0,1.0,0.0));
#516=VECTOR('',#515,6.344288770224761);
#517=LINE('',#514,#516);
#518=EDGE_CURVE('',#158,#405,#517,.T.);
#519=ORIENTED_EDGE('',*,*,#518,.F.);
#520=ORIENTED_EDGE('',*,*,#489,.T.);
#521=EDGE_LOOP('',(#512,#513,#519,#520));
#522=FACE_OUTER_BOUND('',#521,.T.);
#523=ADVANCED_FACE('',(#522),#506,.F.);
#524=CARTESIAN_POINT('',(1.912499999999998,-3.489358823623621,12.949999999999999));
#525=DIRECTION('',(0.0,0.0,1.0));
#526=DIRECTION('',(1.0,0.0,0.0));
#527=AXIS2_PLACEMENT_3D('',#524,#525,#526);
#528=PLANE('',#527);
#529=ORIENTED_EDGE('',*,*,#483,.T.);
#530=ORIENTED_EDGE('',*,*,#511,.T.);
#531=EDGE_LOOP('',(#529,#530));
#532=FACE_OUTER_BOUND('',#531,.T.);
#533=ADVANCED_FACE('',(#532),#528,.T.);
#534=CARTESIAN_POINT('',(-4.0375,-4.123136936882475,13.0));
#535=DIRECTION('',(0.0,0.0,1.0));
#536=DIRECTION('',(1.0,0.0,0.0));
#537=AXIS2_PLACEMENT_3D('',#534,#535,#536);
#538=PLANE('',#537);
#539=ORIENTED_EDGE('',*,*,#518,.T.);
#540=ORIENTED_EDGE('',*,*,#411,.F.);
#541=ORIENTED_EDGE('',*,*,#173,.F.);
#542=EDGE_LOOP('',(#539,#540,#541));
#543=FACE_OUTER_BOUND('',#542,.T.);
#544=ADVANCED_FACE('',(#543),#538,.T.);
#545=CLOSED_SHELL('',(#108,#140,#193,#225,#259,#293,#317,#341,#359,#377,#395,#422,#440,#458,#468,#501,#523,#533,#544));
#546=MANIFOLD_SOLID_BREP('CF1',#545);
#547=COLOUR_RGB('254',0.866,0.866,0.866);
#548=SURFACE_STYLE_USAGE(.BOTH.,#549);
#549=SURFACE_SIDE_STYLE('NONE',(#550));
#550=SURFACE_STYLE_FILL_AREA(#551);
#551=FILL_AREA_STYLE('NONE',(#552));
#552=FILL_AREA_STYLE_COLOUR('NONE',#547);
#553=PRESENTATION_STYLE_ASSIGNMENT((#548));
#554=STYLED_ITEM('NONE',(#553),#546);
#555=MECHANICAL_DESIGN_GEOMETRIC_PRESENTATION_REPRESENTATION('NONE',(#554,#650,#739,#828),#28);
#556=PRESENTATION_LAYER_ASSIGNMENT('3D','None',(#546,#642,#738,#827));
#557=CARTESIAN_POINT('',(4.440892E-016,-1.665335E-016,13.0025));
#558=DIRECTION('',(0.0,0.0,-1.0));
#559=DIRECTION('',(1.0,0.0,0.0));
#560=AXIS2_PLACEMENT_3D('',#557,#558,#559);
#561=CYLINDRICAL_SURFACE('',#560,3.75);
#562=CARTESIAN_POINT('',(2.0,-3.172144385112381,12.949999999999999));
#563=VERTEX_POINT('',#562);
#564=CARTESIAN_POINT('',(2.0,3.17214438511238,12.949999999999999));
#565=VERTEX_POINT('',#564);
#566=CARTESIAN_POINT('',(4.440892E-016,-1.665335E-016,12.949999999999999));
#567=DIRECTION('',(0.0,0.0,1.0));
#568=DIRECTION('',(1.0,0.0,0.0));
#569=AXIS2_PLACEMENT_3D('',#566,#567,#568);
#570=CIRCLE('',#569,3.75);
#571=EDGE_CURVE('',#563,#565,#570,.T.);
#572=ORIENTED_EDGE('',*,*,#571,.T.);
#573=CARTESIAN_POINT('',(2.0,3.17214438511238,13.0));
#574=VERTEX_POINT('',#573);
#575=CARTESIAN_POINT('',(2.0,3.17214438511238,13.0));
#576=DIRECTION('',(0.0,0.0,-1.0));
#577=VECTOR('',#576,0.050000000000001);
#578=LINE('',#575,#577);
#579=EDGE_CURVE('',#574,#565,#578,.T.);
#580=ORIENTED_EDGE('',*,*,#579,.F.);
#581=CARTESIAN_POINT('',(2.0,-3.172144385112381,13.0));
#582=VERTEX_POINT('',#581);
#583=CARTESIAN_POINT('',(4.440892E-016,-1.665335E-016,13.0));
#584=DIRECTION('',(0.0,0.0,1.0));
#585=DIRECTION('',(1.0,0.0,0.0));
#586=AXIS2_PLACEMENT_3D('',#583,#584,#585);
#587=CIRCLE('',#586,3.75);
#588=EDGE_CURVE('',#582,#574,#587,.T.);
#589=ORIENTED_EDGE('',*,*,#588,.F.);
#590=CARTESIAN_POINT('',(2.0,-3.172144385112381,13.0));
#591=DIRECTION('',(0.0,0.0,-1.0));
#592=VECTOR('',#591,0.050000000000001);
#593=LINE('',#590,#592);
#594=EDGE_CURVE('',#582,#563,#593,.T.);
#595=ORIENTED_EDGE('',*,*,#594,.T.);
#596=EDGE_LOOP('',(#572,#580,#589,#595));
#597=FACE_OUTER_BOUND('',#596,.T.);
#598=ADVANCED_FACE('',(#597),#561,.T.);
#599=CARTESIAN_POINT('',(2.0,-3.48935882362362,12.9475));
#600=DIRECTION('',(-1.0,0.0,0.0));
#601=DIRECTION('',(0.0,0.0,1.0));
#602=AXIS2_PLACEMENT_3D('',#599,#600,#601);
#603=PLANE('',#602);
#604=CARTESIAN_POINT('',(2.0,3.17214438511238,12.949999999999999));
#605=DIRECTION('',(0.0,-1.0,0.0));
#606=VECTOR('',#605,6.344288770224761);
#607=LINE('',#604,#606);
#608=EDGE_CURVE('',#565,#563,#607,.T.);
#609=ORIENTED_EDGE('',*,*,#608,.T.);
#610=ORIENTED_EDGE('',*,*,#594,.F.);
#611=CARTESIAN_POINT('',(2.0,3.17214438511238,13.0));
#612=DIRECTION('',(0.0,-1.0,0.0));
#613=VECTOR('',#612,6.344288770224761);
#614=LINE('',#611,#613);
#615=EDGE_CURVE('',#574,#582,#614,.T.);
#616=ORIENTED_EDGE('',*,*,#615,.F.);
#617=ORIENTED_EDGE('',*,*,#579,.T.);
#618=EDGE_LOOP('',(#609,#610,#616,#617));
#619=FACE_OUTER_BOUND('',#618,.T.);
#620=ADVANCED_FACE('',(#619),#603,.T.);
#621=CARTESIAN_POINT('',(1.912499999999998,-3.489358823623621,12.949999999999999));
#622=DIRECTION('',(0.0,0.0,1.0));
#623=DIRECTION('',(1.0,0.0,0.0));
#624=AXIS2_PLACEMENT_3D('',#621,#622,#623);
#625=PLANE('',#624);
#626=ORIENTED_EDGE('',*,*,#571,.F.);
#627=ORIENTED_EDGE('',*,*,#608,.F.);
#628=EDGE_LOOP('',(#626,#627));
#629=FACE_OUTER_BOUND('',#628,.T.);
#630=ADVANCED_FACE('',(#629),#625,.F.);
#631=CARTESIAN_POINT('',(1.912499999999998,-3.489358823623621,13.0));
#632=DIRECTION('',(0.0,0.0,1.0));
#633=DIRECTION('',(1.0,0.0,0.0));
#634=AXIS2_PLACEMENT_3D('',#631,#632,#633);
#635=PLANE('',#634);
#636=ORIENTED_EDGE('',*,*,#615,.T.);
#637=ORIENTED_EDGE('',*,*,#588,.T.);
#638=EDGE_LOOP('',(#636,#637));
#639=FACE_OUTER_BOUND('',#638,.T.);
#640=ADVANCED_FACE('',(#639),#635,.T.);
#641=CLOSED_SHELL('',(#598,#620,#630,#640));
#642=MANIFOLD_SOLID_BREP('CF0',#641);
#643=COLOUR_RGB('242',0.65,0.0,0.1625);
#644=SURFACE_STYLE_USAGE(.BOTH.,#645);
#645=SURFACE_SIDE_STYLE('NONE',(#646));
#646=SURFACE_STYLE_FILL_AREA(#647);
#647=FILL_AREA_STYLE('NONE',(#648));
#648=FILL_AREA_STYLE_COLOUR('NONE',#643);
#649=PRESENTATION_STYLE_ASSIGNMENT((#644));
#650=STYLED_ITEM('NONE',(#649),#642);
#651=CARTESIAN_POINT('',(-1.75,0.0,0.18));
#652=DIRECTION('',(0.0,0.0,-1.0));
#653=DIRECTION('',(1.0,0.0,0.0));
#654=AXIS2_PLACEMENT_3D('',#651,#652,#653);
#655=CYLINDRICAL_SURFACE('',#654,0.3);
#656=CARTESIAN_POINT('',(-1.45,0.0,-3.600000000000001));
#657=VERTEX_POINT('',#656);
#658=CARTESIAN_POINT('',(-1.45,0.0,-2.775558E-017));
#659=VERTEX_POINT('',#658);
#660=CARTESIAN_POINT('',(-1.45,0.0,-3.600000000000001));
#661=DIRECTION('',(0.0,0.0,1.0));
#662=VECTOR('',#661,3.600000000000001);
#663=LINE('',#660,#662);
#664=EDGE_CURVE('',#657,#659,#663,.T.);
#665=ORIENTED_EDGE('',*,*,#664,.F.);
#666=CARTESIAN_POINT('',(-2.05,-1.836970E-016,-3.6));
#667=VERTEX_POINT('',#666);
#668=CARTESIAN_POINT('',(-1.75,-2.204364E-016,-3.6));
#669=DIRECTION('',(0.0,0.0,-1.0));
#670=DIRECTION('',(1.0,0.0,0.0));
#671=AXIS2_PLACEMENT_3D('',#668,#669,#670);
#672=CIRCLE('',#671,0.3);
#673=EDGE_CURVE('',#667,#657,#672,.T.);
#674=ORIENTED_EDGE('',*,*,#673,.F.);
#675=CARTESIAN_POINT('',(-2.05,2.571758E-016,-2.220446E-016));
#676=VERTEX_POINT('',#675);
#677=CARTESIAN_POINT('',(-2.05,3.673940E-017,-3.600000000000001));
#678=DIRECTION('',(0.0,0.0,1.0));
#679=VECTOR('',#678,3.600000000000001);
#680=LINE('',#677,#679);
#681=EDGE_CURVE('',#667,#676,#680,.T.);
#682=ORIENTED_EDGE('',*,*,#681,.T.);
#683=CARTESIAN_POINT('',(-1.75,2.204364E-016,0.0));
#684=DIRECTION('',(0.0,0.0,1.0));
#685=DIRECTION('',(1.0,0.0,0.0));
#686=AXIS2_PLACEMENT_3D('',#683,#684,#685);
#687=CIRCLE('',#686,0.3);
#688=EDGE_CURVE('',#659,#676,#687,.T.);
#689=ORIENTED_EDGE('',*,*,#688,.F.);
#690=EDGE_LOOP('',(#665,#674,#682,#689));
#691=FACE_OUTER_BOUND('',#690,.T.);
#692=ADVANCED_FACE('',(#691),#655,.T.);
#693=CARTESIAN_POINT('',(-1.75,0.0,0.18));
#694=DIRECTION('',(0.0,0.0,-1.0));
#695=DIRECTION('',(1.0,0.0,0.0));
#696=AXIS2_PLACEMENT_3D('',#693,#694,#695);
#697=CYLINDRICAL_SURFACE('',#696,0.3);
#698=ORIENTED_EDGE('',*,*,#664,.T.);
#699=CARTESIAN_POINT('',(-1.75,2.204364E-016,0.0));
#700=DIRECTION('',(0.0,0.0,1.0));
#701=DIRECTION('',(1.0,0.0,0.0));
#702=AXIS2_PLACEMENT_3D('',#699,#700,#701);
#703=CIRCLE('',#702,0.3);
#704=EDGE_CURVE('',#676,#659,#703,.T.);
#705=ORIENTED_EDGE('',*,*,#704,.F.);
#706=ORIENTED_EDGE('',*,*,#681,.F.);
#707=CARTESIAN_POINT('',(-1.75,-2.204364E-016,-3.6));
#708=DIRECTION('',(0.0,0.0,-1.0));
#709=DIRECTION('',(1.0,0.0,0.0));
#710=AXIS2_PLACEMENT_3D('',#707,#708,#709);
#711=CIRCLE('',#710,0.3);
#712=EDGE_CURVE('',#657,#667,#711,.T.);
#713=ORIENTED_EDGE('',*,*,#712,.F.);
#714=EDGE_LOOP('',(#698,#705,#706,#713));
#715=FACE_OUTER_BOUND('',#714,.T.);
#716=ADVANCED_FACE('',(#715),#697,.T.);
#717=CARTESIAN_POINT('',(-1.42,0.33,0.0));
#718=DIRECTION('',(0.0,0.0,1.0));
#719=DIRECTION('',(1.0,0.0,0.0));
#720=AXIS2_PLACEMENT_3D('',#717,#718,#719);
#721=PLANE('',#720);
#722=ORIENTED_EDGE('',*,*,#704,.T.);
#723=ORIENTED_EDGE('',*,*,#688,.T.);
#724=EDGE_LOOP('',(#722,#723));
#725=FACE_OUTER_BOUND('',#724,.T.);
#726=ADVANCED_FACE('',(#725),#721,.T.);
#727=CARTESIAN_POINT('',(-2.08,0.33,-3.6));
#728=DIRECTION('',(0.0,0.0,-1.0));
#729=DIRECTION('',(-1.0,0.0,0.0));
#730=AXIS2_PLACEMENT_3D('',#727,#728,#729);
#731=PLANE('',#730);
#732=ORIENTED_EDGE('',*,*,#673,.T.);
#733=ORIENTED_EDGE('',*,*,#712,.T.);
#734=EDGE_LOOP('',(#732,#733));
#735=FACE_OUTER_BOUND('',#734,.T.);
#736=ADVANCED_FACE('',(#735),#731,.T.);
#737=CLOSED_SHELL('',(#692,#716,#726,#736));
#738=MANIFOLD_SOLID_BREP('CEF',#737);
#739=STYLED_ITEM('NONE',(#553),#738);
#740=CARTESIAN_POINT('',(1.75,0.0,0.18));
#741=DIRECTION('',(0.0,0.0,-1.0));
#742=DIRECTION('',(1.0,0.0,0.0));
#743=AXIS2_PLACEMENT_3D('',#740,#741,#742);
#744=CYLINDRICAL_SURFACE('',#743,0.3);
#745=CARTESIAN_POINT('',(2.05,0.0,-3.600000000000001));
#746=VERTEX_POINT('',#745);
#747=CARTESIAN_POINT('',(2.05,0.0,-2.775558E-017));
#748=VERTEX_POINT('',#747);
#749=CARTESIAN_POINT('',(2.05,0.0,-3.600000000000001));
#750=DIRECTION('',(0.0,0.0,1.0));
#751=VECTOR('',#750,3.600000000000001);
#752=LINE('',#749,#751);
#753=EDGE_CURVE('',#746,#748,#752,.T.);
#754=ORIENTED_EDGE('',*,*,#753,.F.);
#755=CARTESIAN_POINT('',(1.45,-1.836970E-016,-3.6));
#756=VERTEX_POINT('',#755);
#757=CARTESIAN_POINT('',(1.75,-2.204364E-016,-3.6));
#758=DIRECTION('',(0.0,0.0,-1.0));
#759=DIRECTION('',(1.0,0.0,0.0));
#760=AXIS2_PLACEMENT_3D('',#757,#758,#759);
#761=CIRCLE('',#760,0.3);
#762=EDGE_CURVE('',#756,#746,#761,.T.);
#763=ORIENTED_EDGE('',*,*,#762,.F.);
#764=CARTESIAN_POINT('',(1.45,2.571758E-016,-2.220446E-016));
#765=VERTEX_POINT('',#764);
#766=CARTESIAN_POINT('',(1.45,3.673940E-017,-3.600000000000001));
#767=DIRECTION('',(0.0,0.0,1.0));
#768=VECTOR('',#767,3.600000000000001);
#769=LINE('',#766,#768);
#770=EDGE_CURVE('',#756,#765,#769,.T.);
#771=ORIENTED_EDGE('',*,*,#770,.T.);
#772=CARTESIAN_POINT('',(1.75,2.204364E-016,0.0));
#773=DIRECTION('',(0.0,0.0,1.0));
#774=DIRECTION('',(1.0,0.0,0.0));
#775=AXIS2_PLACEMENT_3D('',#772,#773,#774);
#776=CIRCLE('',#775,0.3);
#777=EDGE_CURVE('',#748,#765,#776,.T.);
#778=ORIENTED_EDGE('',*,*,#777,.F.);
#779=EDGE_LOOP('',(#754,#763,#771,#778));
#780=FACE_OUTER_BOUND('',#779,.T.);
#781=ADVANCED_FACE('',(#780),#744,.T.);
#782=CARTESIAN_POINT('',(1.75,0.0,0.18));
#783=DIRECTION('',(0.0,0.0,-1.0));
#784=DIRECTION('',(1.0,0.0,0.0));
#785=AXIS2_PLACEMENT_3D('',#782,#783,#784);
#786=CYLINDRICAL_SURFACE('',#785,0.3);
#787=ORIENTED_EDGE('',*,*,#753,.T.);
#788=CARTESIAN_POINT('',(1.75,2.204364E-016,0.0));
#789=DIRECTION('',(0.0,0.0,1.0));
#790=DIRECTION('',(1.0,0.0,0.0));
#791=AXIS2_PLACEMENT_3D('',#788,#789,#790);
#792=CIRCLE('',#791,0.3);
#793=EDGE_CURVE('',#765,#748,#792,.T.);
#794=ORIENTED_EDGE('',*,*,#793,.F.);
#795=ORIENTED_EDGE('',*,*,#770,.F.);
#796=CARTESIAN_POINT('',(1.75,-2.204364E-016,-3.6));
#797=DIRECTION('',(0.0,0.0,-1.0));
#798=DIRECTION('',(1.0,0.0,0.0));
#799=AXIS2_PLACEMENT_3D('',#796,#797,#798);
#800=CIRCLE('',#799,0.3);
#801=EDGE_CURVE('',#746,#756,#800,.T.);
#802=ORIENTED_EDGE('',*,*,#801,.F.);
#803=EDGE_LOOP('',(#787,#794,#795,#802));
#804=FACE_OUTER_BOUND('',#803,.T.);
#805=ADVANCED_FACE('',(#804),#786,.T.);
#806=CARTESIAN_POINT('',(2.08,0.33,0.0));
#807=DIRECTION('',(0.0,0.0,1.0));
#808=DIRECTION('',(1.0,0.0,0.0));
#809=AXIS2_PLACEMENT_3D('',#806,#807,#808);
#810=PLANE('',#809);
#811=ORIENTED_EDGE('',*,*,#793,.T.);
#812=ORIENTED_EDGE('',*,*,#777,.T.);
#813=EDGE_LOOP('',(#811,#812));
#814=FACE_OUTER_BOUND('',#813,.T.);
#815=ADVANCED_FACE('',(#814),#810,.T.);
#816=CARTESIAN_POINT('',(1.42,0.33,-3.6));
#817=DIRECTION('',(0.0,0.0,-1.0));
#818=DIRECTION('',(-1.0,0.0,0.0));
#819=AXIS2_PLACEMENT_3D('',#816,#817,#818);
#820=PLANE('',#819);
#821=ORIENTED_EDGE('',*,*,#762,.T.);
#822=ORIENTED_EDGE('',*,*,#801,.T.);
#823=EDGE_LOOP('',(#821,#822));
#824=FACE_OUTER_BOUND('',#823,.T.);
#825=ADVANCED_FACE('',(#824),#820,.T.);
#826=CLOSED_SHELL('',(#781,#805,#815,#825));
#827=MANIFOLD_SOLID_BREP('CEE',#826);
#828=STYLED_ITEM('NONE',(#553),#827);
#829=ADVANCED_BREP_SHAPE_REPRESENTATION('ABSR1',(#546,#642,#738,#827),#28);
#830=SHAPE_REPRESENTATION_RELATIONSHIP('SRRPL1','',#829,#62);
ENDSEC;
END-ISO-10303-21;
