ISO-10303-21;
HEADER;
/* Generated by software containing ST-Developer
 * from STEP Tools, Inc. (www.steptools.com) 
 */

FILE_DESCRIPTION(
/* description */ (''),
/* implementation_level */ '2;1');

FILE_NAME(
/* name */ 
'G:\\Applications\\Altium\\CernLib\\StepLib\\CAPPR_KEMET_PEH200MJ5220M
U2_part1.stp',
/* time_stamp */ '2016-07-11T11:43:58+02:00',
/* author */ ('riccim'),
/* organization */ (''),
/* preprocessor_version */ 'ST-DEVELOPER v15.5',
/* originating_system */ 'AutoCAD Mechanical',
/* authorisation */ '');

FILE_SCHEMA (('AUTOMOTIVE_DESIGN { 1 0 10303 214 3 1 1 }'));
ENDSEC;

DATA;
#10=MECHANICAL_DESIGN_GEOMETRIC_PRESENTATION_REPRESENTATION('',(#18,#19,
#20,#21),#572);
#11=DIMENSIONAL_EXPONENTS(0.,0.,0.,0.,0.,0.,0.);
#12=(
CONVERSION_BASED_UNIT('degree',#13)
NAMED_UNIT(#11)
PLANE_ANGLE_UNIT()
);
#13=PLANE_ANGLE_MEASURE_WITH_UNIT(PLANE_ANGLE_MEASURE(0.01745329252),#575);
#14=PRESENTATION_LAYER_ASSIGNMENT('3D','',(#326,#327,#328,#329));
#15=TOROIDAL_SURFACE($,#359,21.3,5.);
#16=SHAPE_REPRESENTATION_RELATIONSHIP('SRR','None',#578,#17);
#17=ADVANCED_BREP_SHAPE_REPRESENTATION($,(#326,#327,#328,#329),#571);
#18=STYLED_ITEM($,(#588),#326);
#19=STYLED_ITEM($,(#588),#327);
#20=STYLED_ITEM($,(#589),#328);
#21=STYLED_ITEM($,(#590),#329);
#22=LINE($,#491,#38);
#23=LINE($,#493,#39);
#24=LINE($,#495,#40);
#25=LINE($,#496,#41);
#26=LINE($,#501,#42);
#27=LINE($,#505,#43);
#28=LINE($,#507,#44);
#29=LINE($,#508,#45);
#30=LINE($,#523,#46);
#31=LINE($,#525,#47);
#32=LINE($,#527,#48);
#33=LINE($,#528,#49);
#34=LINE($,#533,#50);
#35=LINE($,#537,#51);
#36=LINE($,#539,#52);
#37=LINE($,#540,#53);
#38=VECTOR($,#387,7.48331477354789);
#39=VECTOR($,#388,7.89999999999997);
#40=VECTOR($,#389,7.48331477354788);
#41=VECTOR($,#390,7.89999999999997);
#42=VECTOR($,#395,7.89999999999997);
#43=VECTOR($,#400,7.48331477354789);
#44=VECTOR($,#401,7.89999999999997);
#45=VECTOR($,#402,7.48331477354788);
#46=VECTOR($,#423,7.48331477354789);
#47=VECTOR($,#424,7.89999999999997);
#48=VECTOR($,#425,7.48331477354788);
#49=VECTOR($,#426,7.89999999999997);
#50=VECTOR($,#431,7.89999999999997);
#51=VECTOR($,#436,7.48331477354788);
#52=VECTOR($,#437,7.89999999999997);
#53=VECTOR($,#438,7.48331477354788);
#54=PLANE($,#334);
#55=PLANE($,#335);
#56=PLANE($,#339);
#57=PLANE($,#343);
#58=PLANE($,#344);
#59=PLANE($,#348);
#60=PLANE($,#349);
#61=PLANE($,#353);
#62=PLANE($,#357);
#63=PLANE($,#358);
#64=PLANE($,#364);
#65=PLANE($,#365);
#66=PLANE($,#369);
#67=PLANE($,#373);
#68=PLANE($,#374);
#69=FACE_BOUND($,#104,.T.);
#70=FACE_BOUND($,#111,.T.);
#71=FACE_BOUND($,#114,.T.);
#72=FACE_BOUND($,#121,.T.);
#73=FACE_BOUND($,#124,.T.);
#74=FACE_BOUND($,#126,.T.);
#75=FACE_BOUND($,#130,.T.);
#76=FACE_BOUND($,#132,.T.);
#77=FACE_BOUND($,#134,.T.);
#78=FACE_OUTER_BOUND($,#103,.T.);
#79=FACE_OUTER_BOUND($,#105,.T.);
#80=FACE_OUTER_BOUND($,#106,.T.);
#81=FACE_OUTER_BOUND($,#107,.T.);
#82=FACE_OUTER_BOUND($,#108,.T.);
#83=FACE_OUTER_BOUND($,#109,.T.);
#84=FACE_OUTER_BOUND($,#110,.T.);
#85=FACE_OUTER_BOUND($,#112,.T.);
#86=FACE_OUTER_BOUND($,#113,.T.);
#87=FACE_OUTER_BOUND($,#115,.T.);
#88=FACE_OUTER_BOUND($,#116,.T.);
#89=FACE_OUTER_BOUND($,#117,.T.);
#90=FACE_OUTER_BOUND($,#118,.T.);
#91=FACE_OUTER_BOUND($,#119,.T.);
#92=FACE_OUTER_BOUND($,#120,.T.);
#93=FACE_OUTER_BOUND($,#122,.T.);
#94=FACE_OUTER_BOUND($,#123,.T.);
#95=FACE_OUTER_BOUND($,#125,.T.);
#96=FACE_OUTER_BOUND($,#127,.T.);
#97=FACE_OUTER_BOUND($,#128,.T.);
#98=FACE_OUTER_BOUND($,#129,.T.);
#99=FACE_OUTER_BOUND($,#131,.T.);
#100=FACE_OUTER_BOUND($,#133,.T.);
#101=FACE_OUTER_BOUND($,#135,.T.);
#102=FACE_OUTER_BOUND($,#136,.T.);
#103=EDGE_LOOP($,(#218));
#104=EDGE_LOOP($,(#219));
#105=EDGE_LOOP($,(#220));
#106=EDGE_LOOP($,(#221,#222,#223,#224));
#107=EDGE_LOOP($,(#225,#226,#227,#228));
#108=EDGE_LOOP($,(#229,#230,#231,#232));
#109=EDGE_LOOP($,(#233,#234,#235,#236));
#110=EDGE_LOOP($,(#237,#238,#239,#240));
#111=EDGE_LOOP($,(#241));
#112=EDGE_LOOP($,(#242,#243,#244,#245));
#113=EDGE_LOOP($,(#246));
#114=EDGE_LOOP($,(#247));
#115=EDGE_LOOP($,(#248));
#116=EDGE_LOOP($,(#249,#250,#251,#252));
#117=EDGE_LOOP($,(#253,#254,#255,#256));
#118=EDGE_LOOP($,(#257,#258,#259,#260));
#119=EDGE_LOOP($,(#261,#262,#263,#264));
#120=EDGE_LOOP($,(#265,#266,#267,#268));
#121=EDGE_LOOP($,(#269));
#122=EDGE_LOOP($,(#270,#271,#272,#273));
#123=EDGE_LOOP($,(#274));
#124=EDGE_LOOP($,(#275));
#125=EDGE_LOOP($,(#276));
#126=EDGE_LOOP($,(#277));
#127=EDGE_LOOP($,(#278));
#128=EDGE_LOOP($,(#279));
#129=EDGE_LOOP($,(#280));
#130=EDGE_LOOP($,(#281));
#131=EDGE_LOOP($,(#282));
#132=EDGE_LOOP($,(#283));
#133=EDGE_LOOP($,(#284));
#134=EDGE_LOOP($,(#285));
#135=EDGE_LOOP($,(#286));
#136=EDGE_LOOP($,(#287));
#137=CIRCLE($,#332,2.5);
#138=CIRCLE($,#333,2.5);
#139=CIRCLE($,#337,7.5);
#140=CIRCLE($,#338,7.5);
#141=CIRCLE($,#341,7.5);
#142=CIRCLE($,#342,7.5);
#143=CIRCLE($,#346,2.5);
#144=CIRCLE($,#347,2.5);
#145=CIRCLE($,#351,7.5);
#146=CIRCLE($,#352,7.5);
#147=CIRCLE($,#355,7.5);
#148=CIRCLE($,#356,7.5);
#149=CIRCLE($,#360,26.3);
#150=CIRCLE($,#361,21.3);
#151=CIRCLE($,#363,26.3);
#152=CIRCLE($,#366,24.8);
#153=CIRCLE($,#368,24.8);
#154=CIRCLE($,#371,24.8);
#155=CIRCLE($,#372,24.8);
#156=VERTEX_POINT($,#483);
#157=VERTEX_POINT($,#485);
#158=VERTEX_POINT($,#489);
#159=VERTEX_POINT($,#490);
#160=VERTEX_POINT($,#492);
#161=VERTEX_POINT($,#494);
#162=VERTEX_POINT($,#498);
#163=VERTEX_POINT($,#500);
#164=VERTEX_POINT($,#504);
#165=VERTEX_POINT($,#506);
#166=VERTEX_POINT($,#515);
#167=VERTEX_POINT($,#517);
#168=VERTEX_POINT($,#521);
#169=VERTEX_POINT($,#522);
#170=VERTEX_POINT($,#524);
#171=VERTEX_POINT($,#526);
#172=VERTEX_POINT($,#530);
#173=VERTEX_POINT($,#532);
#174=VERTEX_POINT($,#536);
#175=VERTEX_POINT($,#538);
#176=VERTEX_POINT($,#547);
#177=VERTEX_POINT($,#549);
#178=VERTEX_POINT($,#552);
#179=VERTEX_POINT($,#556);
#180=VERTEX_POINT($,#559);
#181=VERTEX_POINT($,#563);
#182=VERTEX_POINT($,#565);
#183=EDGE_CURVE($,#156,#156,#137,.T.);
#184=EDGE_CURVE($,#157,#157,#138,.T.);
#185=EDGE_CURVE($,#158,#159,#22,.F.);
#186=EDGE_CURVE($,#160,#159,#23,.T.);
#187=EDGE_CURVE($,#160,#161,#24,.T.);
#188=EDGE_CURVE($,#161,#158,#25,.T.);
#189=EDGE_CURVE($,#159,#162,#139,.F.);
#190=EDGE_CURVE($,#163,#162,#26,.T.);
#191=EDGE_CURVE($,#163,#160,#140,.T.);
#192=EDGE_CURVE($,#162,#164,#27,.F.);
#193=EDGE_CURVE($,#165,#164,#28,.T.);
#194=EDGE_CURVE($,#165,#163,#29,.T.);
#195=EDGE_CURVE($,#164,#158,#141,.F.);
#196=EDGE_CURVE($,#161,#165,#142,.F.);
#197=EDGE_CURVE($,#166,#166,#143,.T.);
#198=EDGE_CURVE($,#167,#167,#144,.T.);
#199=EDGE_CURVE($,#168,#169,#30,.F.);
#200=EDGE_CURVE($,#170,#169,#31,.T.);
#201=EDGE_CURVE($,#170,#171,#32,.T.);
#202=EDGE_CURVE($,#171,#168,#33,.T.);
#203=EDGE_CURVE($,#169,#172,#145,.F.);
#204=EDGE_CURVE($,#173,#172,#34,.T.);
#205=EDGE_CURVE($,#173,#170,#146,.T.);
#206=EDGE_CURVE($,#172,#174,#35,.F.);
#207=EDGE_CURVE($,#175,#174,#36,.T.);
#208=EDGE_CURVE($,#175,#173,#37,.T.);
#209=EDGE_CURVE($,#174,#168,#147,.F.);
#210=EDGE_CURVE($,#171,#175,#148,.F.);
#211=EDGE_CURVE($,#176,#176,#149,.T.);
#212=EDGE_CURVE($,#177,#177,#150,.T.);
#213=EDGE_CURVE($,#178,#178,#151,.T.);
#214=EDGE_CURVE($,#179,#179,#152,.T.);
#215=EDGE_CURVE($,#180,#180,#153,.T.);
#216=EDGE_CURVE($,#181,#181,#154,.T.);
#217=EDGE_CURVE($,#182,#182,#155,.T.);
#218=ORIENTED_EDGE($,*,*,#183,.F.);
#219=ORIENTED_EDGE($,*,*,#184,.F.);
#220=ORIENTED_EDGE($,*,*,#183,.T.);
#221=ORIENTED_EDGE($,*,*,#185,.T.);
#222=ORIENTED_EDGE($,*,*,#186,.F.);
#223=ORIENTED_EDGE($,*,*,#187,.T.);
#224=ORIENTED_EDGE($,*,*,#188,.T.);
#225=ORIENTED_EDGE($,*,*,#189,.T.);
#226=ORIENTED_EDGE($,*,*,#190,.F.);
#227=ORIENTED_EDGE($,*,*,#191,.T.);
#228=ORIENTED_EDGE($,*,*,#186,.T.);
#229=ORIENTED_EDGE($,*,*,#192,.T.);
#230=ORIENTED_EDGE($,*,*,#193,.F.);
#231=ORIENTED_EDGE($,*,*,#194,.T.);
#232=ORIENTED_EDGE($,*,*,#190,.T.);
#233=ORIENTED_EDGE($,*,*,#195,.T.);
#234=ORIENTED_EDGE($,*,*,#188,.F.);
#235=ORIENTED_EDGE($,*,*,#196,.T.);
#236=ORIENTED_EDGE($,*,*,#193,.T.);
#237=ORIENTED_EDGE($,*,*,#196,.F.);
#238=ORIENTED_EDGE($,*,*,#187,.F.);
#239=ORIENTED_EDGE($,*,*,#191,.F.);
#240=ORIENTED_EDGE($,*,*,#194,.F.);
#241=ORIENTED_EDGE($,*,*,#184,.T.);
#242=ORIENTED_EDGE($,*,*,#185,.F.);
#243=ORIENTED_EDGE($,*,*,#195,.F.);
#244=ORIENTED_EDGE($,*,*,#192,.F.);
#245=ORIENTED_EDGE($,*,*,#189,.F.);
#246=ORIENTED_EDGE($,*,*,#197,.F.);
#247=ORIENTED_EDGE($,*,*,#198,.F.);
#248=ORIENTED_EDGE($,*,*,#197,.T.);
#249=ORIENTED_EDGE($,*,*,#199,.T.);
#250=ORIENTED_EDGE($,*,*,#200,.F.);
#251=ORIENTED_EDGE($,*,*,#201,.T.);
#252=ORIENTED_EDGE($,*,*,#202,.T.);
#253=ORIENTED_EDGE($,*,*,#203,.T.);
#254=ORIENTED_EDGE($,*,*,#204,.F.);
#255=ORIENTED_EDGE($,*,*,#205,.T.);
#256=ORIENTED_EDGE($,*,*,#200,.T.);
#257=ORIENTED_EDGE($,*,*,#206,.T.);
#258=ORIENTED_EDGE($,*,*,#207,.F.);
#259=ORIENTED_EDGE($,*,*,#208,.T.);
#260=ORIENTED_EDGE($,*,*,#204,.T.);
#261=ORIENTED_EDGE($,*,*,#209,.T.);
#262=ORIENTED_EDGE($,*,*,#202,.F.);
#263=ORIENTED_EDGE($,*,*,#210,.T.);
#264=ORIENTED_EDGE($,*,*,#207,.T.);
#265=ORIENTED_EDGE($,*,*,#210,.F.);
#266=ORIENTED_EDGE($,*,*,#201,.F.);
#267=ORIENTED_EDGE($,*,*,#205,.F.);
#268=ORIENTED_EDGE($,*,*,#208,.F.);
#269=ORIENTED_EDGE($,*,*,#198,.T.);
#270=ORIENTED_EDGE($,*,*,#199,.F.);
#271=ORIENTED_EDGE($,*,*,#209,.F.);
#272=ORIENTED_EDGE($,*,*,#206,.F.);
#273=ORIENTED_EDGE($,*,*,#203,.F.);
#274=ORIENTED_EDGE($,*,*,#211,.T.);
#275=ORIENTED_EDGE($,*,*,#212,.T.);
#276=ORIENTED_EDGE($,*,*,#213,.T.);
#277=ORIENTED_EDGE($,*,*,#211,.F.);
#278=ORIENTED_EDGE($,*,*,#212,.F.);
#279=ORIENTED_EDGE($,*,*,#214,.F.);
#280=ORIENTED_EDGE($,*,*,#214,.T.);
#281=ORIENTED_EDGE($,*,*,#215,.F.);
#282=ORIENTED_EDGE($,*,*,#213,.F.);
#283=ORIENTED_EDGE($,*,*,#215,.T.);
#284=ORIENTED_EDGE($,*,*,#216,.T.);
#285=ORIENTED_EDGE($,*,*,#217,.F.);
#286=ORIENTED_EDGE($,*,*,#217,.T.);
#287=ORIENTED_EDGE($,*,*,#216,.F.);
#288=CYLINDRICAL_SURFACE($,#331,2.5);
#289=CYLINDRICAL_SURFACE($,#336,7.5);
#290=CYLINDRICAL_SURFACE($,#340,7.5);
#291=CYLINDRICAL_SURFACE($,#345,2.5);
#292=CYLINDRICAL_SURFACE($,#350,7.5);
#293=CYLINDRICAL_SURFACE($,#354,7.5);
#294=CYLINDRICAL_SURFACE($,#362,26.3);
#295=CYLINDRICAL_SURFACE($,#367,24.8);
#296=CYLINDRICAL_SURFACE($,#370,24.8);
#297=ADVANCED_FACE($,(#78,#69),#288,.F.);
#298=ADVANCED_FACE($,(#79),#54,.F.);
#299=ADVANCED_FACE($,(#80),#55,.T.);
#300=ADVANCED_FACE($,(#81),#289,.T.);
#301=ADVANCED_FACE($,(#82),#56,.T.);
#302=ADVANCED_FACE($,(#83),#290,.T.);
#303=ADVANCED_FACE($,(#84,#70),#57,.F.);
#304=ADVANCED_FACE($,(#85),#58,.T.);
#305=ADVANCED_FACE($,(#86,#71),#291,.F.);
#306=ADVANCED_FACE($,(#87),#59,.F.);
#307=ADVANCED_FACE($,(#88),#60,.T.);
#308=ADVANCED_FACE($,(#89),#292,.T.);
#309=ADVANCED_FACE($,(#90),#61,.T.);
#310=ADVANCED_FACE($,(#91),#293,.T.);
#311=ADVANCED_FACE($,(#92,#72),#62,.F.);
#312=ADVANCED_FACE($,(#93),#63,.T.);
#313=ADVANCED_FACE($,(#94,#73),#15,.T.);
#314=ADVANCED_FACE($,(#95,#74),#294,.T.);
#315=ADVANCED_FACE($,(#96),#64,.T.);
#316=ADVANCED_FACE($,(#97),#65,.F.);
#317=ADVANCED_FACE($,(#98,#75),#295,.F.);
#318=ADVANCED_FACE($,(#99,#76),#66,.F.);
#319=ADVANCED_FACE($,(#100,#77),#296,.T.);
#320=ADVANCED_FACE($,(#101),#67,.T.);
#321=ADVANCED_FACE($,(#102),#68,.F.);
#322=CLOSED_SHELL($,(#297,#298,#299,#300,#301,#302,#303,#304));
#323=CLOSED_SHELL($,(#305,#306,#307,#308,#309,#310,#311,#312));
#324=CLOSED_SHELL($,(#313,#314,#315,#316,#317,#318));
#325=CLOSED_SHELL($,(#319,#320,#321));
#326=MANIFOLD_SOLID_BREP('221C',#322);
#327=MANIFOLD_SOLID_BREP('2220',#323);
#328=MANIFOLD_SOLID_BREP('244D',#324);
#329=MANIFOLD_SOLID_BREP('245F',#325);
#330=AXIS2_PLACEMENT_3D('placement',#481,#375,#376);
#331=AXIS2_PLACEMENT_3D($,#482,#377,#378);
#332=AXIS2_PLACEMENT_3D($,#484,#379,#380);
#333=AXIS2_PLACEMENT_3D($,#486,#381,#382);
#334=AXIS2_PLACEMENT_3D($,#487,#383,#384);
#335=AXIS2_PLACEMENT_3D($,#488,#385,#386);
#336=AXIS2_PLACEMENT_3D($,#497,#391,#392);
#337=AXIS2_PLACEMENT_3D($,#499,#393,#394);
#338=AXIS2_PLACEMENT_3D($,#502,#396,#397);
#339=AXIS2_PLACEMENT_3D($,#503,#398,#399);
#340=AXIS2_PLACEMENT_3D($,#509,#403,#404);
#341=AXIS2_PLACEMENT_3D($,#510,#405,#406);
#342=AXIS2_PLACEMENT_3D($,#511,#407,#408);
#343=AXIS2_PLACEMENT_3D($,#512,#409,#410);
#344=AXIS2_PLACEMENT_3D($,#513,#411,#412);
#345=AXIS2_PLACEMENT_3D($,#514,#413,#414);
#346=AXIS2_PLACEMENT_3D($,#516,#415,#416);
#347=AXIS2_PLACEMENT_3D($,#518,#417,#418);
#348=AXIS2_PLACEMENT_3D($,#519,#419,#420);
#349=AXIS2_PLACEMENT_3D($,#520,#421,#422);
#350=AXIS2_PLACEMENT_3D($,#529,#427,#428);
#351=AXIS2_PLACEMENT_3D($,#531,#429,#430);
#352=AXIS2_PLACEMENT_3D($,#534,#432,#433);
#353=AXIS2_PLACEMENT_3D($,#535,#434,#435);
#354=AXIS2_PLACEMENT_3D($,#541,#439,#440);
#355=AXIS2_PLACEMENT_3D($,#542,#441,#442);
#356=AXIS2_PLACEMENT_3D($,#543,#443,#444);
#357=AXIS2_PLACEMENT_3D($,#544,#445,#446);
#358=AXIS2_PLACEMENT_3D($,#545,#447,#448);
#359=AXIS2_PLACEMENT_3D($,#546,#449,#450);
#360=AXIS2_PLACEMENT_3D($,#548,#451,#452);
#361=AXIS2_PLACEMENT_3D($,#550,#453,#454);
#362=AXIS2_PLACEMENT_3D($,#551,#455,#456);
#363=AXIS2_PLACEMENT_3D($,#553,#457,#458);
#364=AXIS2_PLACEMENT_3D($,#554,#459,#460);
#365=AXIS2_PLACEMENT_3D($,#555,#461,#462);
#366=AXIS2_PLACEMENT_3D($,#557,#463,#464);
#367=AXIS2_PLACEMENT_3D($,#558,#465,#466);
#368=AXIS2_PLACEMENT_3D($,#560,#467,#468);
#369=AXIS2_PLACEMENT_3D($,#561,#469,#470);
#370=AXIS2_PLACEMENT_3D($,#562,#471,#472);
#371=AXIS2_PLACEMENT_3D($,#564,#473,#474);
#372=AXIS2_PLACEMENT_3D($,#566,#475,#476);
#373=AXIS2_PLACEMENT_3D($,#567,#477,#478);
#374=AXIS2_PLACEMENT_3D($,#568,#479,#480);
#375=DIRECTION('axis',(0.,0.,1.));
#376=DIRECTION('refdir',(1.,0.,0.));
#377=DIRECTION('center_axis',(0.,0.,1.));
#378=DIRECTION('ref_axis',(-1.,1.22464679914735E-16,0.));
#379=DIRECTION('center_axis',(0.,0.,-1.));
#380=DIRECTION('ref_axis',(-1.,1.22464679914735E-16,0.));
#381=DIRECTION('center_axis',(0.,0.,1.));
#382=DIRECTION('ref_axis',(-1.,1.22464679914735E-16,0.));
#383=DIRECTION('center_axis',(0.,0.,1.));
#384=DIRECTION('ref_axis',(-1.,1.22464679914735E-16,0.));
#385=DIRECTION('center_axis',(-1.,1.22464679914735E-16,0.));
#386=DIRECTION('ref_axis',(0.,0.,-1.));
#387=DIRECTION($,(-1.22464679914735E-16,-1.,0.));
#388=DIRECTION($,(0.,0.,1.));
#389=DIRECTION($,(-1.22464679914735E-16,-1.,0.));
#390=DIRECTION($,(0.,0.,1.));
#391=DIRECTION('center_axis',(0.,0.,1.));
#392=DIRECTION('ref_axis',(3.27428930614764E-16,1.,0.));
#393=DIRECTION('center_axis',(0.,0.,1.));
#394=DIRECTION('ref_axis',(3.27428930614764E-16,1.,0.));
#395=DIRECTION($,(0.,0.,1.));
#396=DIRECTION('center_axis',(0.,0.,1.));
#397=DIRECTION('ref_axis',(3.27428930614764E-16,1.,0.));
#398=DIRECTION('center_axis',(1.,-1.22464679914735E-16,0.));
#399=DIRECTION('ref_axis',(0.,0.,1.));
#400=DIRECTION($,(1.22464679914735E-16,1.,0.));
#401=DIRECTION($,(0.,0.,1.));
#402=DIRECTION($,(1.22464679914735E-16,1.,0.));
#403=DIRECTION('center_axis',(0.,0.,1.));
#404=DIRECTION('ref_axis',(-2.93268222164759E-16,-1.,0.));
#405=DIRECTION('center_axis',(0.,0.,1.));
#406=DIRECTION('ref_axis',(-2.93268222164759E-16,-1.,0.));
#407=DIRECTION('center_axis',(0.,0.,-1.));
#408=DIRECTION('ref_axis',(-2.93268222164759E-16,-1.,0.));
#409=DIRECTION('center_axis',(0.,0.,1.));
#410=DIRECTION('ref_axis',(-1.,1.22464679914735E-16,0.));
#411=DIRECTION('center_axis',(0.,0.,1.));
#412=DIRECTION('ref_axis',(-1.,0.,0.));
#413=DIRECTION('center_axis',(0.,0.,1.));
#414=DIRECTION('ref_axis',(-1.83697019872103E-16,-1.,0.));
#415=DIRECTION('center_axis',(0.,0.,-1.));
#416=DIRECTION('ref_axis',(-1.83697019872103E-16,-1.,0.));
#417=DIRECTION('center_axis',(0.,0.,1.));
#418=DIRECTION('ref_axis',(-1.83697019872103E-16,-1.,0.));
#419=DIRECTION('center_axis',(0.,0.,1.));
#420=DIRECTION('ref_axis',(0.,-1.,0.));
#421=DIRECTION('center_axis',(-1.83697019872103E-16,-1.,0.));
#422=DIRECTION('ref_axis',(0.,0.,-1.));
#423=DIRECTION($,(1.,-1.83697019872103E-16,0.));
#424=DIRECTION($,(0.,0.,1.));
#425=DIRECTION($,(1.,-1.83697019872103E-16,0.));
#426=DIRECTION($,(0.,0.,1.));
#427=DIRECTION('center_axis',(0.,0.,1.));
#428=DIRECTION('ref_axis',(-1.,3.88661270572132E-16,0.));
#429=DIRECTION('center_axis',(0.,0.,1.));
#430=DIRECTION('ref_axis',(-1.,3.88661270572132E-16,0.));
#431=DIRECTION($,(0.,0.,1.));
#432=DIRECTION('center_axis',(0.,0.,1.));
#433=DIRECTION('ref_axis',(-1.,3.88661270572132E-16,0.));
#434=DIRECTION('center_axis',(1.83697019872103E-16,1.,0.));
#435=DIRECTION('ref_axis',(0.,0.,1.));
#436=DIRECTION($,(-1.,1.83697019872103E-16,0.));
#437=DIRECTION($,(0.,0.,1.));
#438=DIRECTION($,(-1.,1.83697019872103E-16,0.));
#439=DIRECTION('center_axis',(0.,0.,1.));
#440=DIRECTION('ref_axis',(1.,-3.54500562122127E-16,0.));
#441=DIRECTION('center_axis',(0.,0.,1.));
#442=DIRECTION('ref_axis',(1.,-3.54500562122127E-16,0.));
#443=DIRECTION('center_axis',(0.,0.,-1.));
#444=DIRECTION('ref_axis',(1.,-3.54500562122127E-16,0.));
#445=DIRECTION('center_axis',(0.,0.,1.));
#446=DIRECTION('ref_axis',(0.,-1.,0.));
#447=DIRECTION('center_axis',(0.,0.,1.));
#448=DIRECTION('ref_axis',(0.,-1.,0.));
#449=DIRECTION('center_axis',(0.,0.,1.));
#450=DIRECTION('ref_axis',(1.,0.,0.));
#451=DIRECTION('center_axis',(0.,0.,1.));
#452=DIRECTION('ref_axis',(-1.,0.,0.));
#453=DIRECTION('center_axis',(0.,0.,-1.));
#454=DIRECTION('ref_axis',(-1.,0.,0.));
#455=DIRECTION('center_axis',(0.,0.,1.));
#456=DIRECTION('ref_axis',(-1.,0.,0.));
#457=DIRECTION('center_axis',(0.,0.,1.));
#458=DIRECTION('ref_axis',(-1.,0.,0.));
#459=DIRECTION('center_axis',(0.,0.,1.));
#460=DIRECTION('ref_axis',(1.,0.,0.));
#461=DIRECTION('center_axis',(0.,0.,1.));
#462=DIRECTION('ref_axis',(1.,0.,0.));
#463=DIRECTION('center_axis',(0.,0.,1.));
#464=DIRECTION('ref_axis',(-1.,0.,0.));
#465=DIRECTION('center_axis',(0.,0.,1.));
#466=DIRECTION('ref_axis',(-1.,0.,0.));
#467=DIRECTION('center_axis',(0.,0.,1.));
#468=DIRECTION('ref_axis',(-1.,0.,0.));
#469=DIRECTION('center_axis',(0.,0.,1.));
#470=DIRECTION('ref_axis',(1.,0.,0.));
#471=DIRECTION('center_axis',(0.,0.,1.));
#472=DIRECTION('ref_axis',(-1.,0.,0.));
#473=DIRECTION('center_axis',(0.,0.,1.));
#474=DIRECTION('ref_axis',(-1.,0.,0.));
#475=DIRECTION('center_axis',(0.,0.,1.));
#476=DIRECTION('ref_axis',(-1.,0.,0.));
#477=DIRECTION('center_axis',(0.,0.,1.));
#478=DIRECTION('ref_axis',(1.,0.,0.));
#479=DIRECTION('center_axis',(0.,0.,1.));
#480=DIRECTION('ref_axis',(1.,0.,0.));
#481=CARTESIAN_POINT('',(0.,0.,0.));
#482=CARTESIAN_POINT('Origin',(-11.,1.95943487863577E-15,0.));
#483=CARTESIAN_POINT('',(-13.5,2.2655965784226E-15,6.));
#484=CARTESIAN_POINT('Origin',(-11.,1.95943487863577E-15,6.));
#485=CARTESIAN_POINT('',(-13.5,2.2655965784226E-15,0.));
#486=CARTESIAN_POINT('Origin',(-11.,1.95943487863577E-15,0.));
#487=CARTESIAN_POINT('Origin',(-11.,1.95943487863577E-15,6.));
#488=CARTESIAN_POINT('Origin',(-17.5,-3.74165738677394,0.));
#489=CARTESIAN_POINT('',(-17.5,-3.74165738677394,7.89999999999997));
#490=CARTESIAN_POINT('',(-17.5,3.74165738677395,7.89999999999997));
#491=CARTESIAN_POINT($,(-17.5,15.7412267997674,7.89999999999997));
#492=CARTESIAN_POINT('',(-17.5,3.74165738677395,0.));
#493=CARTESIAN_POINT($,(-17.5,3.74165738677395,0.));
#494=CARTESIAN_POINT('',(-17.5,-3.74165738677394,0.));
#495=CARTESIAN_POINT($,(-17.5,3.74165738677395,0.));
#496=CARTESIAN_POINT($,(-17.5,-3.74165738677394,4.2));
#497=CARTESIAN_POINT('Origin',(-11.,1.07125645893564E-15,0.));
#498=CARTESIAN_POINT('',(-4.49999999999999,3.74165738677394,7.89999999999997));
#499=CARTESIAN_POINT('Origin',(-11.,1.07125645893564E-15,7.89999999999997));
#500=CARTESIAN_POINT('',(-4.49999999999999,3.74165738677394,0.));
#501=CARTESIAN_POINT($,(-4.49999999999999,3.74165738677394,0.));
#502=CARTESIAN_POINT('Origin',(-11.,1.07125645893564E-15,0.));
#503=CARTESIAN_POINT('Origin',(-4.49999999999999,3.74165738677394,0.));
#504=CARTESIAN_POINT('',(-4.49999999999999,-3.74165738677394,7.89999999999997));
#505=CARTESIAN_POINT($,(-4.49999999999998,19.4828841865413,7.89999999999997));
#506=CARTESIAN_POINT('',(-4.49999999999999,-3.74165738677394,0.));
#507=CARTESIAN_POINT($,(-4.49999999999999,-3.74165738677394,4.2));
#508=CARTESIAN_POINT($,(-4.49999999999999,-3.74165738677394,0.));
#509=CARTESIAN_POINT('Origin',(-11.,1.95943487863577E-15,4.2));
#510=CARTESIAN_POINT('Origin',(-11.,1.95943487863577E-15,7.89999999999997));
#511=CARTESIAN_POINT('Origin',(-11.,1.95943487863577E-15,0.));
#512=CARTESIAN_POINT('Origin',(-11.,2.37749156012508E-15,0.));
#513=CARTESIAN_POINT('Origin',(-1.49999999999999,35.2241109863087,7.89999999999997));
#514=CARTESIAN_POINT('Origin',(11.,-1.95943487863577E-15,0.));
#515=CARTESIAN_POINT('',(11.,-2.5,6.));
#516=CARTESIAN_POINT('Origin',(11.,-1.95943487863577E-15,6.));
#517=CARTESIAN_POINT('',(11.,-2.5,0.));
#518=CARTESIAN_POINT('Origin',(11.,-1.95943487863577E-15,0.));
#519=CARTESIAN_POINT('Origin',(11.,-1.95943487863577E-15,6.));
#520=CARTESIAN_POINT('Origin',(14.741657386774,-6.5,0.));
#521=CARTESIAN_POINT('',(14.741657386774,-6.5,7.89999999999997));
#522=CARTESIAN_POINT('',(7.25834261322607,-6.5,7.89999999999997));
#523=CARTESIAN_POINT($,(3.00000000000001,-6.5,7.89999999999997));
#524=CARTESIAN_POINT('',(7.25834261322607,-6.5,0.));
#525=CARTESIAN_POINT($,(7.25834261322607,-6.5,0.));
#526=CARTESIAN_POINT('',(14.741657386774,-6.5,0.));
#527=CARTESIAN_POINT($,(7.25834261322607,-6.5,0.));
#528=CARTESIAN_POINT($,(14.741657386774,-6.5,4.2));
#529=CARTESIAN_POINT('Origin',(11.,-1.95943487863577E-15,0.));
#530=CARTESIAN_POINT('',(7.25834261322608,6.5,7.89999999999997));
#531=CARTESIAN_POINT('Origin',(11.,-1.95943487863577E-15,7.89999999999997));
#532=CARTESIAN_POINT('',(7.25834261322608,6.5,0.));
#533=CARTESIAN_POINT($,(7.25834261322608,6.5,0.));
#534=CARTESIAN_POINT('Origin',(11.,-1.95943487863577E-15,0.));
#535=CARTESIAN_POINT('Origin',(7.25834261322608,6.5,0.));
#536=CARTESIAN_POINT('',(14.741657386774,6.5,7.89999999999997));
#537=CARTESIAN_POINT($,(-0.74165738677393,6.5,7.89999999999997));
#538=CARTESIAN_POINT('',(14.741657386774,6.5,0.));
#539=CARTESIAN_POINT($,(14.741657386774,6.5,4.2));
#540=CARTESIAN_POINT($,(14.741657386774,6.5,0.));
#541=CARTESIAN_POINT('Origin',(11.,-1.95943487863577E-15,4.2));
#542=CARTESIAN_POINT('Origin',(11.,-1.95943487863577E-15,7.89999999999997));
#543=CARTESIAN_POINT('Origin',(11.,-1.95943487863577E-15,0.));
#544=CARTESIAN_POINT('Origin',(11.,-1.95943487863576E-15,0.));
#545=CARTESIAN_POINT('Origin',(-8.74165738677393,32.4657683730826,7.89999999999997));
#546=CARTESIAN_POINT('Origin',(1.4210854715202E-14,-1.4210854715202E-14,
98.4));
#547=CARTESIAN_POINT('',(26.3,-1.09900336334445E-14,98.4));
#548=CARTESIAN_POINT('Origin',(1.4210854715202E-14,-1.4210854715202E-14,
98.4));
#549=CARTESIAN_POINT('',(21.3,-1.68193523973859E-14,103.4));
#550=CARTESIAN_POINT('Origin',(1.4210854715202E-14,-1.4210854715202E-14,
103.4));
#551=CARTESIAN_POINT('Origin',(1.4210854715202E-14,-1.4210854715202E-14,
-2.8421709430404E-14));
#552=CARTESIAN_POINT('',(26.3,-1.09900336334445E-14,4.89999999999997));
#553=CARTESIAN_POINT('Origin',(1.4210854715202E-14,-1.4210854715202E-14,
4.89999999999997));
#554=CARTESIAN_POINT('Origin',(1.32220040501404E-14,-1.38506302610777E-14,
103.4));
#555=CARTESIAN_POINT('Origin',(1.24297121492705E-14,-1.4210854715202E-14,
8.89999999999997));
#556=CARTESIAN_POINT('',(24.8,-1.4210854715202E-14,8.89999999999997));
#557=CARTESIAN_POINT('Origin',(1.4210854715202E-14,-1.4210854715202E-14,
8.89999999999997));
#558=CARTESIAN_POINT('Origin',(1.4210854715202E-14,-1.4210854715202E-14,
4.89999999999997));
#559=CARTESIAN_POINT('',(24.8,-1.4210854715202E-14,4.89999999999997));
#560=CARTESIAN_POINT('Origin',(1.4210854715202E-14,-1.4210854715202E-14,
4.89999999999997));
#561=CARTESIAN_POINT('Origin',(1.32220040501404E-14,-1.38506302610777E-14,
4.89999999999997));
#562=CARTESIAN_POINT('Origin',(1.4210854715202E-14,-1.4210854715202E-14,
5.89999999999997));
#563=CARTESIAN_POINT('',(24.8,-1.4210854715202E-14,7.89999999999997));
#564=CARTESIAN_POINT('Origin',(1.4210854715202E-14,-1.4210854715202E-14,
7.89999999999997));
#565=CARTESIAN_POINT('',(24.8,-1.4210854715202E-14,8.89999999999997));
#566=CARTESIAN_POINT('Origin',(1.4210854715202E-14,-1.4210854715202E-14,
8.89999999999997));
#567=CARTESIAN_POINT('Origin',(1.24297121492705E-14,-1.4210854715202E-14,
8.89999999999997));
#568=CARTESIAN_POINT('Origin',(1.24297121492705E-14,-1.4210854715202E-14,
7.89999999999997));
#569=UNCERTAINTY_MEASURE_WITH_UNIT(LENGTH_MEASURE(0.01),#573,
'DISTANCE_ACCURACY_VALUE',
'Maximum model space distance between geometric entities at asserted c
onnectivities');
#570=UNCERTAINTY_MEASURE_WITH_UNIT(LENGTH_MEASURE(1.E-6),#573,
'DISTANCE_ACCURACY_VALUE',
'Maximum model space distance between geometric entities at asserted c
onnectivities');
#571=(
GEOMETRIC_REPRESENTATION_CONTEXT(3)
GLOBAL_UNCERTAINTY_ASSIGNED_CONTEXT((#569))
GLOBAL_UNIT_ASSIGNED_CONTEXT((#573,#575,#574))
REPRESENTATION_CONTEXT('','3D')
);
#572=(
GEOMETRIC_REPRESENTATION_CONTEXT(3)
GLOBAL_UNCERTAINTY_ASSIGNED_CONTEXT((#570))
GLOBAL_UNIT_ASSIGNED_CONTEXT((#573,#12,#574))
REPRESENTATION_CONTEXT('','3D')
);
#573=(
LENGTH_UNIT()
NAMED_UNIT(*)
SI_UNIT(.MILLI.,.METRE.)
);
#574=(
NAMED_UNIT(*)
SI_UNIT($,.STERADIAN.)
SOLID_ANGLE_UNIT()
);
#575=(
NAMED_UNIT(*)
PLANE_ANGLE_UNIT()
SI_UNIT($,.RADIAN.)
);
#576=SHAPE_DEFINITION_REPRESENTATION(#577,#578);
#577=PRODUCT_DEFINITION_SHAPE('',$,#580);
#578=SHAPE_REPRESENTATION('',(#330),#571);
#579=PRODUCT_DEFINITION_CONTEXT('part definition',#584,'design');
#580=PRODUCT_DEFINITION('Product','Product',#581,#579);
#581=PRODUCT_DEFINITION_FORMATION('',$,#586);
#582=PRODUCT_RELATED_PRODUCT_CATEGORY('Product','Product',(#586));
#583=APPLICATION_PROTOCOL_DEFINITION('international standard',
'automotive_design',2009,#584);
#584=APPLICATION_CONTEXT(
'Core Data for Automotive Mechanical Design Process');
#585=PRODUCT_CONTEXT('part definition',#584,'mechanical');
#586=PRODUCT('Product','Product',$,(#585));
#587=PRESENTATION_STYLE_ASSIGNMENT((#591));
#588=PRESENTATION_STYLE_ASSIGNMENT((#592));
#589=PRESENTATION_STYLE_ASSIGNMENT((#593));
#590=PRESENTATION_STYLE_ASSIGNMENT((#594));
#591=SURFACE_STYLE_USAGE(.BOTH.,#595);
#592=SURFACE_STYLE_USAGE(.BOTH.,#596);
#593=SURFACE_STYLE_USAGE(.BOTH.,#597);
#594=SURFACE_STYLE_USAGE(.BOTH.,#598);
#595=SURFACE_SIDE_STYLE($,(#599));
#596=SURFACE_SIDE_STYLE($,(#600));
#597=SURFACE_SIDE_STYLE($,(#601));
#598=SURFACE_SIDE_STYLE($,(#602));
#599=SURFACE_STYLE_FILL_AREA(#603);
#600=SURFACE_STYLE_FILL_AREA(#604);
#601=SURFACE_STYLE_FILL_AREA(#605);
#602=SURFACE_STYLE_FILL_AREA(#606);
#603=FILL_AREA_STYLE($,(#607));
#604=FILL_AREA_STYLE($,(#608));
#605=FILL_AREA_STYLE($,(#609));
#606=FILL_AREA_STYLE($,(#610));
#607=FILL_AREA_STYLE_COLOUR($,#611);
#608=FILL_AREA_STYLE_COLOUR($,#612);
#609=FILL_AREA_STYLE_COLOUR($,#613);
#610=FILL_AREA_STYLE_COLOUR($,#614);
#611=COLOUR_RGB('',1.,1.,1.);
#612=COLOUR_RGB('',0.733333333333333,0.733333333333333,0.733333333333333);
#613=COLOUR_RGB('',1.,1.,1.);
#614=COLOUR_RGB('',0.329411764705882,0.329411764705882,0.329411764705882);
ENDSEC;
END-ISO-10303-21;
