ISO-10303-21;
HEADER;
/****************************************************************
 * Generated by software with PDE/Lib inside                    *
 * PDE/Lib Version 3.2.2, created Thu Mar 23, 2000 at 18:38:49  *
 * International Technegroup Inc. (www.iti-oh.com)              *
 ****************************************************************/
FILE_DESCRIPTION((''),'2;1');
FILE_NAME('CAPR3750-2400X4150X4550.stp','2009-08-24T15:56:37',(''),(''),'Mechanical Desktop 2006','Mechanical Desktop 2006',', , ');
FILE_SCHEMA(('AUTOMOTIVE_DESIGN { 1 2 10303 214 0 1 1 1 }'));
ENDSEC;
DATA;
#8=(NAMED_UNIT(*)PLANE_ANGLE_UNIT()SI_UNIT($,.RADIAN.));
#9=DIMENSIONAL_EXPONENTS(0.0,0.0,0.0,0.0,0.0,0.0,0.0);
#10=PLANE_ANGLE_MEASURE_WITH_UNIT(PLANE_ANGLE_MEASURE(0.017453292500000),#8);
#14=(CONVERSION_BASED_UNIT('DEGREE',#10)NAMED_UNIT(#9)PLANE_ANGLE_UNIT());
#18=(NAMED_UNIT(*)SI_UNIT($,.STERADIAN.)SOLID_ANGLE_UNIT());
#22=(LENGTH_UNIT()NAMED_UNIT(*)SI_UNIT(.MILLI.,.METRE.));
#23=UNCERTAINTY_MEASURE_WITH_UNIT(LENGTH_MEASURE(0.000001000000000),#22,'DISTANCE_ACCURACY_VALUE','');
#28=(GEOMETRIC_REPRESENTATION_CONTEXT(3)GLOBAL_UNCERTAINTY_ASSIGNED_CONTEXT((#23))GLOBAL_UNIT_ASSIGNED_CONTEXT((#14,#18,#22))REPRESENTATION_CONTEXT('None','None'));
#29=APPLICATION_CONTEXT('automotive design');
#30=APPLICATION_PROTOCOL_DEFINITION('DRAFT_INTERNATIONAL_STANDARD','automotive_design',1998,#29);
#31=PRODUCT_CONTEXT('3D Mechanical Parts',#29,'mechanical');
#32=PRODUCT('Product','Product','',(#31));
#33=PRODUCT_RELATED_PRODUCT_CATEGORY('part',$,(#32));
#34=PRODUCT_CATEGORY('part',$);
#35=PERSON('1','Design','Joe',$,$,$);
#36=ORGANIZATION($,'None','None');
#37=PERSON_AND_ORGANIZATION(#35,#36);
#38=PERSON_AND_ORGANIZATION_ROLE('design_owner');
#39=APPLIED_PERSON_AND_ORGANIZATION_ASSIGNMENT(#37,#38,(#32));
#40=PRODUCT_DEFINITION_FORMATION_WITH_SPECIFIED_SOURCE('None','',#32,.BOUGHT.);
#41=PERSON('2','Creator','Joe',$,$,$);
#42=ORGANIZATION($,'None','None');
#43=PERSON_AND_ORGANIZATION(#41,#42);
#44=PERSON_AND_ORGANIZATION_ROLE('creator');
#45=APPLIED_PERSON_AND_ORGANIZATION_ASSIGNMENT(#43,#44,(#40));
#46=PERSON('3','Supplier','Joe',$,$,$);
#47=ORGANIZATION($,'None','None');
#48=PERSON_AND_ORGANIZATION(#46,#47);
#49=PERSON_AND_ORGANIZATION_ROLE('design_supplier');
#50=APPLIED_PERSON_AND_ORGANIZATION_ASSIGNMENT(#48,#49,(#40));
#51=PRODUCT_DEFINITION_CONTEXT('part definition',#29,'design');
#52=PRODUCT_DEFINITION('None','',#40,#51);
#53=PERSON('4','Creator','Joe',$,$,$);
#54=ORGANIZATION($,'None','None');
#55=PERSON_AND_ORGANIZATION(#53,#54);
#56=PERSON_AND_ORGANIZATION_ROLE('creator');
#57=APPLIED_PERSON_AND_ORGANIZATION_ASSIGNMENT(#55,#56,(#52));
#58=CARTESIAN_POINT('NONE',(0.0,0.0,0.0));
#59=DIRECTION('NONE',(0.0,0.0,1.0));
#60=DIRECTION('NONE',(1.0,0.0,0.0));
#61=AXIS2_PLACEMENT_3D('NONE',#58,#59,#60);
#62=SHAPE_REPRESENTATION('SR1',(#61),#28);
#63=PRODUCT_DEFINITION_SHAPE('PDS1','Test Part',#52);
#64=SHAPE_DEFINITION_REPRESENTATION(#63,#62);
#65=CARTESIAN_POINT('',(-19.949999999999989,11.199999999999989,0.0));
#66=DIRECTION('',(0.0,0.0,1.0));
#67=DIRECTION('',(-0.707106781186547,0.707106781186547,0.0));
#68=AXIS2_PLACEMENT_3D('',#65,#66,#67);
#69=CYLINDRICAL_SURFACE('',#68,0.799999999999997);
#70=CARTESIAN_POINT('',(-20.515685424949226,11.765685424949226,0.0));
#71=VERTEX_POINT('',#70);
#72=CARTESIAN_POINT('',(-20.515685424949226,11.765685424949226,44.700000000000003));
#73=VERTEX_POINT('',#72);
#74=CARTESIAN_POINT('',(-20.515685424949226,11.765685424949226,0.0));
#75=DIRECTION('',(0.0,0.0,1.0));
#76=VECTOR('',#75,44.700000000000003);
#77=LINE('',#74,#76);
#78=EDGE_CURVE('',#71,#73,#77,.T.);
#79=ORIENTED_EDGE('',*,*,#78,.F.);
#80=CARTESIAN_POINT('',(-20.749999999999986,11.199999999999974,0.0));
#81=VERTEX_POINT('',#80);
#82=CARTESIAN_POINT('',(-19.949999999999989,11.199999999999989,0.0));
#83=DIRECTION('',(0.0,0.0,1.000000000000000));
#84=DIRECTION('',(-0.707106781186547,0.707106781186547,0.0));
#85=AXIS2_PLACEMENT_3D('',#82,#83,#84);
#86=CIRCLE('',#85,0.799999999999997);
#87=EDGE_CURVE('',#71,#81,#86,.T.);
#88=ORIENTED_EDGE('',*,*,#87,.T.);
#89=CARTESIAN_POINT('',(-20.749999999999986,11.199999999999974,44.700000000000003));
#90=VERTEX_POINT('',#89);
#91=CARTESIAN_POINT('',(-20.749999999999986,11.199999999999974,0.0));
#92=DIRECTION('',(0.0,0.0,1.0));
#93=VECTOR('',#92,44.700000000000003);
#94=LINE('',#91,#93);
#95=EDGE_CURVE('',#81,#90,#94,.T.);
#96=ORIENTED_EDGE('',*,*,#95,.T.);
#97=CARTESIAN_POINT('',(-19.949999999999989,11.199999999999989,44.700000000000003));
#98=DIRECTION('',(0.0,0.0,1.000000000000000));
#99=DIRECTION('',(-0.707106781186547,0.707106781186547,0.0));
#100=AXIS2_PLACEMENT_3D('',#97,#98,#99);
#101=CIRCLE('',#100,0.799999999999998);
#102=EDGE_CURVE('',#73,#90,#101,.T.);
#103=ORIENTED_EDGE('',*,*,#102,.F.);
#104=EDGE_LOOP('',(#79,#88,#96,#103));
#105=FACE_OUTER_BOUND('',#104,.T.);
#106=ADVANCED_FACE('',(#105),#69,.T.);
#107=CARTESIAN_POINT('',(19.949999999999996,11.199999999999974,0.0));
#108=DIRECTION('',(0.0,0.0,1.0));
#109=DIRECTION('',(0.707106781186548,0.707106781186548,0.0));
#110=AXIS2_PLACEMENT_3D('',#107,#108,#109);
#111=CYLINDRICAL_SURFACE('',#110,0.799999999999997);
#112=CARTESIAN_POINT('',(20.515685424949233,11.765685424949211,0.0));
#113=VERTEX_POINT('',#112);
#114=CARTESIAN_POINT('',(20.515685424949233,11.765685424949211,44.700000000000003));
#115=VERTEX_POINT('',#114);
#116=CARTESIAN_POINT('',(20.515685424949233,11.765685424949211,0.0));
#117=DIRECTION('',(0.0,0.0,1.0));
#118=VECTOR('',#117,44.700000000000003);
#119=LINE('',#116,#118);
#120=EDGE_CURVE('',#113,#115,#119,.T.);
#121=ORIENTED_EDGE('',*,*,#120,.F.);
#122=CARTESIAN_POINT('',(19.949999999999996,11.999999999999986,0.0));
#123=VERTEX_POINT('',#122);
#124=CARTESIAN_POINT('',(19.949999999999996,11.199999999999974,0.0));
#125=DIRECTION('',(0.0,0.0,1.000000000000000));
#126=DIRECTION('',(0.707106781186548,0.707106781186548,0.0));
#127=AXIS2_PLACEMENT_3D('',#124,#125,#126);
#128=CIRCLE('',#127,0.799999999999997);
#129=EDGE_CURVE('',#113,#123,#128,.T.);
#130=ORIENTED_EDGE('',*,*,#129,.T.);
#131=CARTESIAN_POINT('',(19.949999999999996,11.999999999999986,44.700000000000003));
#132=VERTEX_POINT('',#131);
#133=CARTESIAN_POINT('',(19.949999999999996,11.999999999999986,0.0));
#134=DIRECTION('',(0.0,0.0,1.0));
#135=VECTOR('',#134,44.700000000000003);
#136=LINE('',#133,#135);
#137=EDGE_CURVE('',#123,#132,#136,.T.);
#138=ORIENTED_EDGE('',*,*,#137,.T.);
#139=CARTESIAN_POINT('',(19.949999999999996,11.199999999999974,44.700000000000003));
#140=DIRECTION('',(0.0,0.0,1.000000000000000));
#141=DIRECTION('',(0.707106781186547,0.707106781186547,0.0));
#142=AXIS2_PLACEMENT_3D('',#139,#140,#141);
#143=CIRCLE('',#142,0.799999999999998);
#144=EDGE_CURVE('',#115,#132,#143,.T.);
#145=ORIENTED_EDGE('',*,*,#144,.F.);
#146=EDGE_LOOP('',(#121,#130,#138,#145));
#147=FACE_OUTER_BOUND('',#146,.T.);
#148=ADVANCED_FACE('',(#147),#111,.T.);
#149=CARTESIAN_POINT('',(-19.949999999999974,-11.199999999999974,0.0));
#150=DIRECTION('',(0.0,0.0,1.0));
#151=DIRECTION('',(-0.707106781186548,-0.707106781186548,0.0));
#152=AXIS2_PLACEMENT_3D('',#149,#150,#151);
#153=CYLINDRICAL_SURFACE('',#152,0.799999999999997);
#154=CARTESIAN_POINT('',(-20.515685424949211,-11.765685424949210,0.0));
#155=VERTEX_POINT('',#154);
#156=CARTESIAN_POINT('',(-20.515685424949211,-11.765685424949211,44.700000000000003));
#157=VERTEX_POINT('',#156);
#158=CARTESIAN_POINT('',(-20.515685424949211,-11.765685424949210,0.0));
#159=DIRECTION('',(0.0,0.0,1.0));
#160=VECTOR('',#159,44.700000000000003);
#161=LINE('',#158,#160);
#162=EDGE_CURVE('',#155,#157,#161,.T.);
#163=ORIENTED_EDGE('',*,*,#162,.F.);
#164=CARTESIAN_POINT('',(-19.949999999999989,-11.999999999999986,0.0));
#165=VERTEX_POINT('',#164);
#166=CARTESIAN_POINT('',(-19.949999999999974,-11.199999999999974,0.0));
#167=DIRECTION('',(0.0,0.0,1.000000000000000));
#168=DIRECTION('',(-0.707106781186548,-0.707106781186548,0.0));
#169=AXIS2_PLACEMENT_3D('',#166,#167,#168);
#170=CIRCLE('',#169,0.799999999999997);
#171=EDGE_CURVE('',#155,#165,#170,.T.);
#172=ORIENTED_EDGE('',*,*,#171,.T.);
#173=CARTESIAN_POINT('',(-19.949999999999989,-11.999999999999986,44.700000000000003));
#174=VERTEX_POINT('',#173);
#175=CARTESIAN_POINT('',(-19.949999999999989,-11.999999999999986,0.0));
#176=DIRECTION('',(0.0,0.0,1.0));
#177=VECTOR('',#176,44.700000000000003);
#178=LINE('',#175,#177);
#179=EDGE_CURVE('',#165,#174,#178,.T.);
#180=ORIENTED_EDGE('',*,*,#179,.T.);
#181=CARTESIAN_POINT('',(-19.949999999999974,-11.199999999999974,44.700000000000003));
#182=DIRECTION('',(0.0,0.0,1.000000000000000));
#183=DIRECTION('',(-0.707106781186547,-0.707106781186547,0.0));
#184=AXIS2_PLACEMENT_3D('',#181,#182,#183);
#185=CIRCLE('',#184,0.799999999999998);
#186=EDGE_CURVE('',#157,#174,#185,.T.);
#187=ORIENTED_EDGE('',*,*,#186,.F.);
#188=EDGE_LOOP('',(#163,#172,#180,#187));
#189=FACE_OUTER_BOUND('',#188,.T.);
#190=ADVANCED_FACE('',(#189),#153,.T.);
#191=CARTESIAN_POINT('',(19.950000000000003,-11.199999999999974,0.0));
#192=DIRECTION('',(0.0,0.0,1.0));
#193=DIRECTION('',(0.707106781186548,-0.707106781186548,0.0));
#194=AXIS2_PLACEMENT_3D('',#191,#192,#193);
#195=CYLINDRICAL_SURFACE('',#194,0.799999999999997);
#196=CARTESIAN_POINT('',(20.515685424949240,-11.765685424949211,0.0));
#197=VERTEX_POINT('',#196);
#198=CARTESIAN_POINT('',(20.515685424949240,-11.765685424949211,44.700000000000003));
#199=VERTEX_POINT('',#198);
#200=CARTESIAN_POINT('',(20.515685424949240,-11.765685424949211,0.0));
#201=DIRECTION('',(0.0,0.0,1.0));
#202=VECTOR('',#201,44.700000000000003);
#203=LINE('',#200,#202);
#204=EDGE_CURVE('',#197,#199,#203,.T.);
#205=ORIENTED_EDGE('',*,*,#204,.F.);
#206=CARTESIAN_POINT('',(20.750000000000000,-11.199999999999989,0.0));
#207=VERTEX_POINT('',#206);
#208=CARTESIAN_POINT('',(19.950000000000003,-11.199999999999974,0.0));
#209=DIRECTION('',(0.0,0.0,1.000000000000000));
#210=DIRECTION('',(0.707106781186548,-0.707106781186548,0.0));
#211=AXIS2_PLACEMENT_3D('',#208,#209,#210);
#212=CIRCLE('',#211,0.799999999999997);
#213=EDGE_CURVE('',#197,#207,#212,.T.);
#214=ORIENTED_EDGE('',*,*,#213,.T.);
#215=CARTESIAN_POINT('',(20.750000000000000,-11.199999999999989,44.700000000000003));
#216=VERTEX_POINT('',#215);
#217=CARTESIAN_POINT('',(20.750000000000000,-11.199999999999989,0.0));
#218=DIRECTION('',(0.0,0.0,1.0));
#219=VECTOR('',#218,44.700000000000003);
#220=LINE('',#217,#219);
#221=EDGE_CURVE('',#207,#216,#220,.T.);
#222=ORIENTED_EDGE('',*,*,#221,.T.);
#223=CARTESIAN_POINT('',(19.950000000000003,-11.199999999999974,44.700000000000003));
#224=DIRECTION('',(0.0,0.0,1.000000000000000));
#225=DIRECTION('',(0.707106781186547,-0.707106781186547,0.0));
#226=AXIS2_PLACEMENT_3D('',#223,#224,#225);
#227=CIRCLE('',#226,0.799999999999998);
#228=EDGE_CURVE('',#199,#216,#227,.T.);
#229=ORIENTED_EDGE('',*,*,#228,.F.);
#230=EDGE_LOOP('',(#205,#214,#222,#229));
#231=FACE_OUTER_BOUND('',#230,.T.);
#232=ADVANCED_FACE('',(#231),#195,.T.);
#233=CARTESIAN_POINT('',(-19.949999999999974,-5.599999999999994,44.700000000000003));
#234=DIRECTION('',(0.0,1.0,0.0));
#235=DIRECTION('',(-0.707106781186554,0.0,0.707106781186541));
#236=AXIS2_PLACEMENT_3D('',#233,#234,#235);
#237=CYLINDRICAL_SURFACE('',#236,0.800000000000000);
#238=CARTESIAN_POINT('',(-20.515685424949229,-11.199999999999989,45.265685424949240));
#239=VERTEX_POINT('',#238);
#240=CARTESIAN_POINT('',(-20.515685424949218,11.199999999999974,45.265685424949233));
#241=VERTEX_POINT('',#240);
#242=CARTESIAN_POINT('',(-20.515685424949229,-11.199999999999989,45.265685424949240));
#243=DIRECTION('',(0.0,1.0,0.0));
#244=VECTOR('',#243,22.399999999999963);
#245=LINE('',#242,#244);
#246=EDGE_CURVE('',#239,#241,#245,.T.);
#247=ORIENTED_EDGE('',*,*,#246,.F.);
#248=CARTESIAN_POINT('',(-19.949999999999989,-11.199999999999989,45.500000000000000));
#249=VERTEX_POINT('',#248);
#250=CARTESIAN_POINT('',(-19.949999999999974,-11.199999999999989,44.700000000000003));
#251=DIRECTION('',(0.0,1.0,0.0));
#252=DIRECTION('',(-1.0,0.0,0.0));
#253=AXIS2_PLACEMENT_3D('',#250,#251,#252);
#254=CIRCLE('',#253,0.800000000000011);
#255=EDGE_CURVE('',#239,#249,#254,.T.);
#256=ORIENTED_EDGE('',*,*,#255,.T.);
#257=CARTESIAN_POINT('',(-19.949999999999974,11.199999999999974,45.500000000000000));
#258=VERTEX_POINT('',#257);
#259=CARTESIAN_POINT('',(-19.949999999999989,-11.199999999999989,45.500000000000000));
#260=DIRECTION('',(0.0,1.0,0.0));
#261=VECTOR('',#260,22.399999999999963);
#262=LINE('',#259,#261);
#263=EDGE_CURVE('',#249,#258,#262,.T.);
#264=ORIENTED_EDGE('',*,*,#263,.T.);
#265=CARTESIAN_POINT('',(-19.949999999999974,11.199999999999974,44.700000000000003));
#266=DIRECTION('',(0.0,-1.0,0.0));
#267=DIRECTION('',(0.0,0.0,1.0));
#268=AXIS2_PLACEMENT_3D('',#265,#266,#267);
#269=CIRCLE('',#268,0.799999999999997);
#270=EDGE_CURVE('',#258,#241,#269,.T.);
#271=ORIENTED_EDGE('',*,*,#270,.T.);
#272=EDGE_LOOP('',(#247,#256,#264,#271));
#273=FACE_OUTER_BOUND('',#272,.T.);
#274=ADVANCED_FACE('',(#273),#237,.T.);
#275=CARTESIAN_POINT('',(9.975000000000009,-11.199999999999989,44.700000000000003));
#276=DIRECTION('',(-1.0,0.0,0.0));
#277=DIRECTION('',(0.0,-0.707106781186541,0.707106781186554));
#278=AXIS2_PLACEMENT_3D('',#275,#276,#277);
#279=CYLINDRICAL_SURFACE('',#278,0.800000000000000);
#280=CARTESIAN_POINT('',(19.950000000000003,-11.765685424949218,45.265685424949247));
#281=VERTEX_POINT('',#280);
#282=CARTESIAN_POINT('',(-19.949999999999989,-11.765685424949218,45.265685424949247));
#283=VERTEX_POINT('',#282);
#284=CARTESIAN_POINT('',(19.950000000000003,-11.765685424949218,45.265685424949247));
#285=DIRECTION('',(-1.0,0.0,0.0));
#286=VECTOR('',#285,39.899999999999991);
#287=LINE('',#284,#286);
#288=EDGE_CURVE('',#281,#283,#287,.T.);
#289=ORIENTED_EDGE('',*,*,#288,.F.);
#290=CARTESIAN_POINT('',(19.950000000000010,-11.199999999999989,45.500000000000000));
#291=VERTEX_POINT('',#290);
#292=CARTESIAN_POINT('',(19.950000000000003,-11.199999999999989,44.700000000000003));
#293=DIRECTION('',(-1.0,0.0,0.0));
#294=DIRECTION('',(0.0,-1.0,0.0));
#295=AXIS2_PLACEMENT_3D('',#292,#293,#294);
#296=CIRCLE('',#295,0.799999999999997);
#297=EDGE_CURVE('',#281,#291,#296,.T.);
#298=ORIENTED_EDGE('',*,*,#297,.T.);
#299=CARTESIAN_POINT('',(19.950000000000010,-11.199999999999989,45.500000000000000));
#300=DIRECTION('',(-1.0,0.0,0.0));
#301=VECTOR('',#300,39.899999999999999);
#302=LINE('',#299,#301);
#303=EDGE_CURVE('',#291,#249,#302,.T.);
#304=ORIENTED_EDGE('',*,*,#303,.T.);
#305=CARTESIAN_POINT('',(-19.949999999999989,-11.199999999999989,44.700000000000003));
#306=DIRECTION('',(1.0,0.0,0.0));
#307=DIRECTION('',(0.0,0.0,1.0));
#308=AXIS2_PLACEMENT_3D('',#305,#306,#307);
#309=CIRCLE('',#308,0.799999999999997);
#310=EDGE_CURVE('',#249,#283,#309,.T.);
#311=ORIENTED_EDGE('',*,*,#310,.T.);
#312=EDGE_LOOP('',(#289,#298,#304,#311));
#313=FACE_OUTER_BOUND('',#312,.T.);
#314=ADVANCED_FACE('',(#313),#279,.T.);
#315=CARTESIAN_POINT('',(19.950000000000003,5.599999999999994,44.700000000000003));
#316=DIRECTION('',(3.172066E-016,-1.0,0.0));
#317=DIRECTION('',(0.707106781186541,0.0,0.707106781186554));
#318=AXIS2_PLACEMENT_3D('',#315,#316,#317);
#319=CYLINDRICAL_SURFACE('',#318,0.800000000000000);
#320=CARTESIAN_POINT('',(20.515685424949229,11.199999999999989,45.265685424949240));
#321=VERTEX_POINT('',#320);
#322=CARTESIAN_POINT('',(20.515685424949240,-11.199999999999989,45.265685424949247));
#323=VERTEX_POINT('',#322);
#324=CARTESIAN_POINT('',(20.515685424949229,11.199999999999989,45.265685424949240));
#325=DIRECTION('',(0.0,-1.0,0.0));
#326=VECTOR('',#325,22.399999999999977);
#327=LINE('',#324,#326);
#328=EDGE_CURVE('',#321,#323,#327,.T.);
#329=ORIENTED_EDGE('',*,*,#328,.F.);
#330=CARTESIAN_POINT('',(19.949999999999996,11.199999999999989,45.500000000000000));
#331=VERTEX_POINT('',#330);
#332=CARTESIAN_POINT('',(19.950000000000003,11.199999999999989,44.700000000000003));
#333=DIRECTION('',(0.0,-1.0,0.0));
#334=DIRECTION('',(1.0,0.0,0.0));
#335=AXIS2_PLACEMENT_3D('',#332,#333,#334);
#336=CIRCLE('',#335,0.799999999999990);
#337=EDGE_CURVE('',#321,#331,#336,.T.);
#338=ORIENTED_EDGE('',*,*,#337,.T.);
#339=CARTESIAN_POINT('',(19.949999999999996,11.199999999999989,45.500000000000000));
#340=DIRECTION('',(0.0,-1.0,0.0));
#341=VECTOR('',#340,22.399999999999977);
#342=LINE('',#339,#341);
#343=EDGE_CURVE('',#331,#291,#342,.T.);
#344=ORIENTED_EDGE('',*,*,#343,.T.);
#345=CARTESIAN_POINT('',(19.950000000000010,-11.199999999999989,44.700000000000003));
#346=DIRECTION('',(0.0,1.0,0.0));
#347=DIRECTION('',(0.0,0.0,1.0));
#348=AXIS2_PLACEMENT_3D('',#345,#346,#347);
#349=CIRCLE('',#348,0.799999999999997);
#350=EDGE_CURVE('',#291,#323,#349,.T.);
#351=ORIENTED_EDGE('',*,*,#350,.T.);
#352=EDGE_LOOP('',(#329,#338,#344,#351));
#353=FACE_OUTER_BOUND('',#352,.T.);
#354=ADVANCED_FACE('',(#353),#319,.T.);
#355=CARTESIAN_POINT('',(-9.974999999999980,11.199999999999974,44.700000000000003));
#356=DIRECTION('',(1.0,3.561618E-016,0.0));
#357=DIRECTION('',(0.0,0.707106781186554,0.707106781186541));
#358=AXIS2_PLACEMENT_3D('',#355,#356,#357);
#359=CYLINDRICAL_SURFACE('',#358,0.800000000000000);
#360=CARTESIAN_POINT('',(-19.949999999999989,11.765685424949218,45.265685424949233));
#361=VERTEX_POINT('',#360);
#362=CARTESIAN_POINT('',(19.949999999999996,11.765685424949229,45.265685424949233));
#363=VERTEX_POINT('',#362);
#364=CARTESIAN_POINT('',(-19.949999999999989,11.765685424949218,45.265685424949233));
#365=DIRECTION('',(1.0,0.0,0.0));
#366=VECTOR('',#365,39.899999999999984);
#367=LINE('',#364,#366);
#368=EDGE_CURVE('',#361,#363,#367,.T.);
#369=ORIENTED_EDGE('',*,*,#368,.F.);
#370=CARTESIAN_POINT('',(-19.949999999999989,11.199999999999974,44.700000000000003));
#371=DIRECTION('',(1.0,0.0,0.0));
#372=DIRECTION('',(0.0,1.0,0.0));
#373=AXIS2_PLACEMENT_3D('',#370,#371,#372);
#374=CIRCLE('',#373,0.799999999999997);
#375=EDGE_CURVE('',#361,#258,#374,.T.);
#376=ORIENTED_EDGE('',*,*,#375,.T.);
#377=CARTESIAN_POINT('',(-19.949999999999974,11.199999999999974,45.500000000000000));
#378=DIRECTION('',(1.0,0.0,0.0));
#379=VECTOR('',#378,39.899999999999970);
#380=LINE('',#377,#379);
#381=EDGE_CURVE('',#258,#331,#380,.T.);
#382=ORIENTED_EDGE('',*,*,#381,.T.);
#383=CARTESIAN_POINT('',(19.949999999999996,11.199999999999989,44.700000000000003));
#384=DIRECTION('',(-1.0,0.0,0.0));
#385=DIRECTION('',(0.0,0.0,1.0));
#386=AXIS2_PLACEMENT_3D('',#383,#384,#385);
#387=CIRCLE('',#386,0.799999999999997);
#388=EDGE_CURVE('',#331,#363,#387,.T.);
#389=ORIENTED_EDGE('',*,*,#388,.T.);
#390=EDGE_LOOP('',(#369,#376,#382,#389));
#391=FACE_OUTER_BOUND('',#390,.T.);
#392=ADVANCED_FACE('',(#391),#359,.T.);
#393=CARTESIAN_POINT('',(-9.974999999999980,11.199999999999974,44.700000000000003));
#394=DIRECTION('',(1.0,3.561618E-016,0.0));
#395=DIRECTION('',(0.0,0.707106781186554,0.707106781186541));
#396=AXIS2_PLACEMENT_3D('',#393,#394,#395);
#397=CYLINDRICAL_SURFACE('',#396,0.800000000000000);
#398=ORIENTED_EDGE('',*,*,#368,.T.);
#399=CARTESIAN_POINT('',(19.949999999999996,11.199999999999989,44.700000000000003));
#400=DIRECTION('',(-1.0,0.0,0.0));
#401=DIRECTION('',(0.0,0.0,1.0));
#402=AXIS2_PLACEMENT_3D('',#399,#400,#401);
#403=CIRCLE('',#402,0.799999999999997);
#404=EDGE_CURVE('',#363,#132,#403,.T.);
#405=ORIENTED_EDGE('',*,*,#404,.T.);
#406=CARTESIAN_POINT('',(-19.949999999999989,11.999999999999972,44.700000000000003));
#407=VERTEX_POINT('',#406);
#408=CARTESIAN_POINT('',(19.949999999999996,11.999999999999986,44.700000000000003));
#409=DIRECTION('',(-1.0,0.0,0.0));
#410=VECTOR('',#409,39.899999999999984);
#411=LINE('',#408,#410);
#412=EDGE_CURVE('',#132,#407,#411,.T.);
#413=ORIENTED_EDGE('',*,*,#412,.T.);
#414=CARTESIAN_POINT('',(-19.949999999999989,11.199999999999974,44.700000000000003));
#415=DIRECTION('',(1.0,0.0,0.0));
#416=DIRECTION('',(0.0,1.0,0.0));
#417=AXIS2_PLACEMENT_3D('',#414,#415,#416);
#418=CIRCLE('',#417,0.799999999999997);
#419=EDGE_CURVE('',#407,#361,#418,.T.);
#420=ORIENTED_EDGE('',*,*,#419,.T.);
#421=EDGE_LOOP('',(#398,#405,#413,#420));
#422=FACE_OUTER_BOUND('',#421,.T.);
#423=ADVANCED_FACE('',(#422),#397,.T.);
#424=CARTESIAN_POINT('',(19.950000000000003,5.599999999999994,44.700000000000003));
#425=DIRECTION('',(3.172066E-016,-1.0,0.0));
#426=DIRECTION('',(0.707106781186541,0.0,0.707106781186554));
#427=AXIS2_PLACEMENT_3D('',#424,#425,#426);
#428=CYLINDRICAL_SURFACE('',#427,0.800000000000000);
#429=ORIENTED_EDGE('',*,*,#328,.T.);
#430=CARTESIAN_POINT('',(19.950000000000010,-11.199999999999989,44.700000000000003));
#431=DIRECTION('',(0.0,1.0,0.0));
#432=DIRECTION('',(0.0,0.0,1.0));
#433=AXIS2_PLACEMENT_3D('',#430,#431,#432);
#434=CIRCLE('',#433,0.799999999999997);
#435=EDGE_CURVE('',#323,#216,#434,.T.);
#436=ORIENTED_EDGE('',*,*,#435,.T.);
#437=CARTESIAN_POINT('',(20.749999999999993,11.199999999999989,44.700000000000003));
#438=VERTEX_POINT('',#437);
#439=CARTESIAN_POINT('',(20.750000000000000,-11.199999999999989,44.700000000000003));
#440=DIRECTION('',(0.0,1.0,0.0));
#441=VECTOR('',#440,22.399999999999977);
#442=LINE('',#439,#441);
#443=EDGE_CURVE('',#216,#438,#442,.T.);
#444=ORIENTED_EDGE('',*,*,#443,.T.);
#445=CARTESIAN_POINT('',(19.950000000000003,11.199999999999989,44.700000000000003));
#446=DIRECTION('',(0.0,-1.0,0.0));
#447=DIRECTION('',(1.0,0.0,0.0));
#448=AXIS2_PLACEMENT_3D('',#445,#446,#447);
#449=CIRCLE('',#448,0.799999999999990);
#450=EDGE_CURVE('',#438,#321,#449,.T.);
#451=ORIENTED_EDGE('',*,*,#450,.T.);
#452=EDGE_LOOP('',(#429,#436,#444,#451));
#453=FACE_OUTER_BOUND('',#452,.T.);
#454=ADVANCED_FACE('',(#453),#428,.T.);
#455=CARTESIAN_POINT('',(9.975000000000009,-11.199999999999989,44.700000000000003));
#456=DIRECTION('',(-1.0,0.0,0.0));
#457=DIRECTION('',(0.0,-0.707106781186541,0.707106781186554));
#458=AXIS2_PLACEMENT_3D('',#455,#456,#457);
#459=CYLINDRICAL_SURFACE('',#458,0.800000000000000);
#460=ORIENTED_EDGE('',*,*,#288,.T.);
#461=CARTESIAN_POINT('',(-19.949999999999989,-11.199999999999989,44.700000000000003));
#462=DIRECTION('',(1.0,0.0,0.0));
#463=DIRECTION('',(0.0,0.0,1.0));
#464=AXIS2_PLACEMENT_3D('',#461,#462,#463);
#465=CIRCLE('',#464,0.799999999999997);
#466=EDGE_CURVE('',#283,#174,#465,.T.);
#467=ORIENTED_EDGE('',*,*,#466,.T.);
#468=CARTESIAN_POINT('',(19.950000000000003,-11.999999999999986,44.700000000000003));
#469=VERTEX_POINT('',#468);
#470=CARTESIAN_POINT('',(-19.949999999999989,-11.999999999999986,44.700000000000003));
#471=DIRECTION('',(1.0,0.0,0.0));
#472=VECTOR('',#471,39.899999999999991);
#473=LINE('',#470,#472);
#474=EDGE_CURVE('',#174,#469,#473,.T.);
#475=ORIENTED_EDGE('',*,*,#474,.T.);
#476=CARTESIAN_POINT('',(19.950000000000003,-11.199999999999989,44.700000000000003));
#477=DIRECTION('',(-1.0,0.0,0.0));
#478=DIRECTION('',(0.0,-1.0,0.0));
#479=AXIS2_PLACEMENT_3D('',#476,#477,#478);
#480=CIRCLE('',#479,0.799999999999997);
#481=EDGE_CURVE('',#469,#281,#480,.T.);
#482=ORIENTED_EDGE('',*,*,#481,.T.);
#483=EDGE_LOOP('',(#460,#467,#475,#482));
#484=FACE_OUTER_BOUND('',#483,.T.);
#485=ADVANCED_FACE('',(#484),#459,.T.);
#486=CARTESIAN_POINT('',(19.950000000000003,-11.199999999999989,44.700000000000003));
#487=DIRECTION('',(0.0,0.0,1.0));
#488=DIRECTION('',(1.0,0.0,0.0));
#489=AXIS2_PLACEMENT_3D('',#486,#487,#488);
#490=SPHERICAL_SURFACE('',#489,0.800000000000000);
#491=ORIENTED_EDGE('',*,*,#481,.F.);
#492=CARTESIAN_POINT('',(19.950000000000003,-11.199999999999974,44.700000000000003));
#493=DIRECTION('',(0.0,0.0,1.000000000000000));
#494=DIRECTION('',(0.707106781186547,-0.707106781186547,0.0));
#495=AXIS2_PLACEMENT_3D('',#492,#493,#494);
#496=CIRCLE('',#495,0.799999999999998);
#497=EDGE_CURVE('',#469,#199,#496,.T.);
#498=ORIENTED_EDGE('',*,*,#497,.T.);
#499=ORIENTED_EDGE('',*,*,#228,.T.);
#500=ORIENTED_EDGE('',*,*,#435,.F.);
#501=ORIENTED_EDGE('',*,*,#350,.F.);
#502=ORIENTED_EDGE('',*,*,#297,.F.);
#503=EDGE_LOOP('',(#491,#498,#499,#500,#501,#502));
#504=FACE_OUTER_BOUND('',#503,.T.);
#505=ADVANCED_FACE('',(#504),#490,.T.);
#506=CARTESIAN_POINT('',(-19.949999999999974,-5.599999999999994,44.700000000000003));
#507=DIRECTION('',(0.0,1.0,0.0));
#508=DIRECTION('',(-0.707106781186554,0.0,0.707106781186541));
#509=AXIS2_PLACEMENT_3D('',#506,#507,#508);
#510=CYLINDRICAL_SURFACE('',#509,0.800000000000000);
#511=ORIENTED_EDGE('',*,*,#246,.T.);
#512=CARTESIAN_POINT('',(-19.949999999999974,11.199999999999974,44.700000000000003));
#513=DIRECTION('',(0.0,-1.0,0.0));
#514=DIRECTION('',(0.0,0.0,1.0));
#515=AXIS2_PLACEMENT_3D('',#512,#513,#514);
#516=CIRCLE('',#515,0.799999999999997);
#517=EDGE_CURVE('',#241,#90,#516,.T.);
#518=ORIENTED_EDGE('',*,*,#517,.T.);
#519=CARTESIAN_POINT('',(-20.749999999999986,-11.199999999999989,44.700000000000003));
#520=VERTEX_POINT('',#519);
#521=CARTESIAN_POINT('',(-20.749999999999986,11.199999999999974,44.700000000000003));
#522=DIRECTION('',(0.0,-1.0,0.0));
#523=VECTOR('',#522,22.399999999999963);
#524=LINE('',#521,#523);
#525=EDGE_CURVE('',#90,#520,#524,.T.);
#526=ORIENTED_EDGE('',*,*,#525,.T.);
#527=CARTESIAN_POINT('',(-19.949999999999974,-11.199999999999989,44.700000000000003));
#528=DIRECTION('',(0.0,1.0,0.0));
#529=DIRECTION('',(-1.0,0.0,0.0));
#530=AXIS2_PLACEMENT_3D('',#527,#528,#529);
#531=CIRCLE('',#530,0.800000000000011);
#532=EDGE_CURVE('',#520,#239,#531,.T.);
#533=ORIENTED_EDGE('',*,*,#532,.T.);
#534=EDGE_LOOP('',(#511,#518,#526,#533));
#535=FACE_OUTER_BOUND('',#534,.T.);
#536=ADVANCED_FACE('',(#535),#510,.T.);
#537=CARTESIAN_POINT('',(-19.949999999999989,-11.199999999999989,44.700000000000003));
#538=DIRECTION('',(0.0,0.0,1.0));
#539=DIRECTION('',(1.0,0.0,0.0));
#540=AXIS2_PLACEMENT_3D('',#537,#538,#539);
#541=SPHERICAL_SURFACE('',#540,0.800000000000000);
#542=ORIENTED_EDGE('',*,*,#532,.F.);
#543=CARTESIAN_POINT('',(-19.949999999999974,-11.199999999999974,44.700000000000003));
#544=DIRECTION('',(0.0,0.0,1.000000000000000));
#545=DIRECTION('',(-0.707106781186547,-0.707106781186547,0.0));
#546=AXIS2_PLACEMENT_3D('',#543,#544,#545);
#547=CIRCLE('',#546,0.799999999999998);
#548=EDGE_CURVE('',#520,#157,#547,.T.);
#549=ORIENTED_EDGE('',*,*,#548,.T.);
#550=ORIENTED_EDGE('',*,*,#186,.T.);
#551=ORIENTED_EDGE('',*,*,#466,.F.);
#552=ORIENTED_EDGE('',*,*,#310,.F.);
#553=ORIENTED_EDGE('',*,*,#255,.F.);
#554=EDGE_LOOP('',(#542,#549,#550,#551,#552,#553));
#555=FACE_OUTER_BOUND('',#554,.T.);
#556=ADVANCED_FACE('',(#555),#541,.T.);
#557=CARTESIAN_POINT('',(19.950000000000003,11.199999999999989,44.700000000000003));
#558=DIRECTION('',(0.0,0.0,1.0));
#559=DIRECTION('',(1.0,0.0,0.0));
#560=AXIS2_PLACEMENT_3D('',#557,#558,#559);
#561=SPHERICAL_SURFACE('',#560,0.800000000000000);
#562=ORIENTED_EDGE('',*,*,#450,.F.);
#563=CARTESIAN_POINT('',(19.949999999999996,11.199999999999974,44.700000000000003));
#564=DIRECTION('',(0.0,0.0,1.000000000000000));
#565=DIRECTION('',(0.707106781186547,0.707106781186547,0.0));
#566=AXIS2_PLACEMENT_3D('',#563,#564,#565);
#567=CIRCLE('',#566,0.799999999999998);
#568=EDGE_CURVE('',#438,#115,#567,.T.);
#569=ORIENTED_EDGE('',*,*,#568,.T.);
#570=ORIENTED_EDGE('',*,*,#144,.T.);
#571=ORIENTED_EDGE('',*,*,#404,.F.);
#572=ORIENTED_EDGE('',*,*,#388,.F.);
#573=ORIENTED_EDGE('',*,*,#337,.F.);
#574=EDGE_LOOP('',(#562,#569,#570,#571,#572,#573));
#575=FACE_OUTER_BOUND('',#574,.T.);
#576=ADVANCED_FACE('',(#575),#561,.T.);
#577=CARTESIAN_POINT('',(-19.949999999999974,11.199999999999974,44.700000000000003));
#578=DIRECTION('',(0.0,0.0,1.0));
#579=DIRECTION('',(1.0,0.0,0.0));
#580=AXIS2_PLACEMENT_3D('',#577,#578,#579);
#581=SPHERICAL_SURFACE('',#580,0.800000000000000);
#582=ORIENTED_EDGE('',*,*,#419,.F.);
#583=CARTESIAN_POINT('',(-19.949999999999989,11.199999999999989,44.700000000000003));
#584=DIRECTION('',(0.0,0.0,1.000000000000000));
#585=DIRECTION('',(-0.707106781186547,0.707106781186547,0.0));
#586=AXIS2_PLACEMENT_3D('',#583,#584,#585);
#587=CIRCLE('',#586,0.799999999999998);
#588=EDGE_CURVE('',#407,#73,#587,.T.);
#589=ORIENTED_EDGE('',*,*,#588,.T.);
#590=ORIENTED_EDGE('',*,*,#102,.T.);
#591=ORIENTED_EDGE('',*,*,#517,.F.);
#592=ORIENTED_EDGE('',*,*,#270,.F.);
#593=ORIENTED_EDGE('',*,*,#375,.F.);
#594=EDGE_LOOP('',(#582,#589,#590,#591,#592,#593));
#595=FACE_OUTER_BOUND('',#594,.T.);
#596=ADVANCED_FACE('',(#595),#581,.T.);
#597=CARTESIAN_POINT('',(19.950000000000003,-11.199999999999974,0.0));
#598=DIRECTION('',(0.0,0.0,1.0));
#599=DIRECTION('',(0.707106781186548,-0.707106781186548,0.0));
#600=AXIS2_PLACEMENT_3D('',#597,#598,#599);
#601=CYLINDRICAL_SURFACE('',#600,0.799999999999997);
#602=ORIENTED_EDGE('',*,*,#204,.T.);
#603=ORIENTED_EDGE('',*,*,#497,.F.);
#604=CARTESIAN_POINT('',(19.950000000000003,-11.999999999999986,0.0));
#605=VERTEX_POINT('',#604);
#606=CARTESIAN_POINT('',(19.950000000000003,-11.999999999999986,0.0));
#607=DIRECTION('',(0.0,0.0,1.0));
#608=VECTOR('',#607,44.700000000000003);
#609=LINE('',#606,#608);
#610=EDGE_CURVE('',#605,#469,#609,.T.);
#611=ORIENTED_EDGE('',*,*,#610,.F.);
#612=CARTESIAN_POINT('',(19.950000000000003,-11.199999999999974,0.0));
#613=DIRECTION('',(0.0,0.0,1.000000000000000));
#614=DIRECTION('',(0.707106781186548,-0.707106781186548,0.0));
#615=AXIS2_PLACEMENT_3D('',#612,#613,#614);
#616=CIRCLE('',#615,0.799999999999997);
#617=EDGE_CURVE('',#605,#197,#616,.T.);
#618=ORIENTED_EDGE('',*,*,#617,.T.);
#619=EDGE_LOOP('',(#602,#603,#611,#618));
#620=FACE_OUTER_BOUND('',#619,.T.);
#621=ADVANCED_FACE('',(#620),#601,.T.);
#622=CARTESIAN_POINT('',(19.950000000000003,-11.999999999999986,0.0));
#623=DIRECTION('',(0.0,-1.0,0.0));
#624=DIRECTION('',(0.0,0.0,-1.0));
#625=AXIS2_PLACEMENT_3D('',#622,#623,#624);
#626=PLANE('',#625);
#627=ORIENTED_EDGE('',*,*,#474,.F.);
#628=ORIENTED_EDGE('',*,*,#179,.F.);
#629=CARTESIAN_POINT('',(-19.949999999999989,-11.999999999999986,0.0));
#630=DIRECTION('',(1.0,0.0,0.0));
#631=VECTOR('',#630,39.899999999999991);
#632=LINE('',#629,#631);
#633=EDGE_CURVE('',#165,#605,#632,.T.);
#634=ORIENTED_EDGE('',*,*,#633,.T.);
#635=ORIENTED_EDGE('',*,*,#610,.T.);
#636=EDGE_LOOP('',(#627,#628,#634,#635));
#637=FACE_OUTER_BOUND('',#636,.T.);
#638=ADVANCED_FACE('',(#637),#626,.T.);
#639=CARTESIAN_POINT('',(-19.949999999999974,-11.199999999999974,0.0));
#640=DIRECTION('',(0.0,0.0,1.0));
#641=DIRECTION('',(-0.707106781186548,-0.707106781186548,0.0));
#642=AXIS2_PLACEMENT_3D('',#639,#640,#641);
#643=CYLINDRICAL_SURFACE('',#642,0.799999999999997);
#644=ORIENTED_EDGE('',*,*,#162,.T.);
#645=ORIENTED_EDGE('',*,*,#548,.F.);
#646=CARTESIAN_POINT('',(-20.749999999999986,-11.199999999999989,0.0));
#647=VERTEX_POINT('',#646);
#648=CARTESIAN_POINT('',(-20.749999999999986,-11.199999999999989,0.0));
#649=DIRECTION('',(0.0,0.0,1.0));
#650=VECTOR('',#649,44.700000000000003);
#651=LINE('',#648,#650);
#652=EDGE_CURVE('',#647,#520,#651,.T.);
#653=ORIENTED_EDGE('',*,*,#652,.F.);
#654=CARTESIAN_POINT('',(-19.949999999999974,-11.199999999999974,0.0));
#655=DIRECTION('',(0.0,0.0,1.000000000000000));
#656=DIRECTION('',(-0.707106781186548,-0.707106781186548,0.0));
#657=AXIS2_PLACEMENT_3D('',#654,#655,#656);
#658=CIRCLE('',#657,0.799999999999997);
#659=EDGE_CURVE('',#647,#155,#658,.T.);
#660=ORIENTED_EDGE('',*,*,#659,.T.);
#661=EDGE_LOOP('',(#644,#645,#653,#660));
#662=FACE_OUTER_BOUND('',#661,.T.);
#663=ADVANCED_FACE('',(#662),#643,.T.);
#664=CARTESIAN_POINT('',(-20.749999999999986,-11.199999999999989,0.0));
#665=DIRECTION('',(-1.0,0.0,0.0));
#666=DIRECTION('',(0.0,0.0,1.0));
#667=AXIS2_PLACEMENT_3D('',#664,#665,#666);
#668=PLANE('',#667);
#669=ORIENTED_EDGE('',*,*,#525,.F.);
#670=ORIENTED_EDGE('',*,*,#95,.F.);
#671=CARTESIAN_POINT('',(-20.749999999999986,11.199999999999974,0.0));
#672=DIRECTION('',(0.0,-1.0,0.0));
#673=VECTOR('',#672,22.399999999999963);
#674=LINE('',#671,#673);
#675=EDGE_CURVE('',#81,#647,#674,.T.);
#676=ORIENTED_EDGE('',*,*,#675,.T.);
#677=ORIENTED_EDGE('',*,*,#652,.T.);
#678=EDGE_LOOP('',(#669,#670,#676,#677));
#679=FACE_OUTER_BOUND('',#678,.T.);
#680=ADVANCED_FACE('',(#679),#668,.T.);
#681=CARTESIAN_POINT('',(1.421085E-014,0.0,45.500000000000000));
#682=DIRECTION('',(0.0,0.0,1.0));
#683=DIRECTION('',(1.0,0.0,0.0));
#684=AXIS2_PLACEMENT_3D('',#681,#682,#683);
#685=PLANE('',#684);
#686=ORIENTED_EDGE('',*,*,#381,.F.);
#687=ORIENTED_EDGE('',*,*,#263,.F.);
#688=ORIENTED_EDGE('',*,*,#303,.F.);
#689=ORIENTED_EDGE('',*,*,#343,.F.);
#690=EDGE_LOOP('',(#686,#687,#688,#689));
#691=FACE_OUTER_BOUND('',#690,.T.);
#692=ADVANCED_FACE('',(#691),#685,.T.);
#693=CARTESIAN_POINT('',(19.949999999999996,11.199999999999974,0.0));
#694=DIRECTION('',(0.0,0.0,1.0));
#695=DIRECTION('',(0.707106781186548,0.707106781186548,0.0));
#696=AXIS2_PLACEMENT_3D('',#693,#694,#695);
#697=CYLINDRICAL_SURFACE('',#696,0.799999999999997);
#698=ORIENTED_EDGE('',*,*,#120,.T.);
#699=ORIENTED_EDGE('',*,*,#568,.F.);
#700=CARTESIAN_POINT('',(20.749999999999993,11.199999999999989,0.0));
#701=VERTEX_POINT('',#700);
#702=CARTESIAN_POINT('',(20.749999999999993,11.199999999999989,0.0));
#703=DIRECTION('',(0.0,0.0,1.0));
#704=VECTOR('',#703,44.700000000000003);
#705=LINE('',#702,#704);
#706=EDGE_CURVE('',#701,#438,#705,.T.);
#707=ORIENTED_EDGE('',*,*,#706,.F.);
#708=CARTESIAN_POINT('',(19.949999999999996,11.199999999999974,0.0));
#709=DIRECTION('',(0.0,0.0,1.000000000000000));
#710=DIRECTION('',(0.707106781186548,0.707106781186548,0.0));
#711=AXIS2_PLACEMENT_3D('',#708,#709,#710);
#712=CIRCLE('',#711,0.799999999999997);
#713=EDGE_CURVE('',#701,#113,#712,.T.);
#714=ORIENTED_EDGE('',*,*,#713,.T.);
#715=EDGE_LOOP('',(#698,#699,#707,#714));
#716=FACE_OUTER_BOUND('',#715,.T.);
#717=ADVANCED_FACE('',(#716),#697,.T.);
#718=CARTESIAN_POINT('',(20.749999999999993,11.199999999999989,0.0));
#719=DIRECTION('',(1.0,0.0,0.0));
#720=DIRECTION('',(0.0,0.0,-1.0));
#721=AXIS2_PLACEMENT_3D('',#718,#719,#720);
#722=PLANE('',#721);
#723=ORIENTED_EDGE('',*,*,#443,.F.);
#724=ORIENTED_EDGE('',*,*,#221,.F.);
#725=CARTESIAN_POINT('',(20.750000000000000,-11.199999999999989,0.0));
#726=DIRECTION('',(0.0,1.0,0.0));
#727=VECTOR('',#726,22.399999999999977);
#728=LINE('',#725,#727);
#729=EDGE_CURVE('',#207,#701,#728,.T.);
#730=ORIENTED_EDGE('',*,*,#729,.T.);
#731=ORIENTED_EDGE('',*,*,#706,.T.);
#732=EDGE_LOOP('',(#723,#724,#730,#731));
#733=FACE_OUTER_BOUND('',#732,.T.);
#734=ADVANCED_FACE('',(#733),#722,.T.);
#735=CARTESIAN_POINT('',(-19.949999999999989,11.199999999999989,0.0));
#736=DIRECTION('',(0.0,0.0,1.0));
#737=DIRECTION('',(-0.707106781186547,0.707106781186547,0.0));
#738=AXIS2_PLACEMENT_3D('',#735,#736,#737);
#739=CYLINDRICAL_SURFACE('',#738,0.799999999999997);
#740=ORIENTED_EDGE('',*,*,#78,.T.);
#741=ORIENTED_EDGE('',*,*,#588,.F.);
#742=CARTESIAN_POINT('',(-19.949999999999989,11.999999999999972,0.0));
#743=VERTEX_POINT('',#742);
#744=CARTESIAN_POINT('',(-19.949999999999989,11.999999999999972,0.0));
#745=DIRECTION('',(0.0,0.0,1.0));
#746=VECTOR('',#745,44.700000000000003);
#747=LINE('',#744,#746);
#748=EDGE_CURVE('',#743,#407,#747,.T.);
#749=ORIENTED_EDGE('',*,*,#748,.F.);
#750=CARTESIAN_POINT('',(-19.949999999999989,11.199999999999989,0.0));
#751=DIRECTION('',(0.0,0.0,1.000000000000000));
#752=DIRECTION('',(-0.707106781186547,0.707106781186547,0.0));
#753=AXIS2_PLACEMENT_3D('',#750,#751,#752);
#754=CIRCLE('',#753,0.799999999999997);
#755=EDGE_CURVE('',#743,#71,#754,.T.);
#756=ORIENTED_EDGE('',*,*,#755,.T.);
#757=EDGE_LOOP('',(#740,#741,#749,#756));
#758=FACE_OUTER_BOUND('',#757,.T.);
#759=ADVANCED_FACE('',(#758),#739,.T.);
#760=CARTESIAN_POINT('',(-19.949999999999989,11.999999999999972,0.0));
#761=DIRECTION('',(0.0,1.0,0.0));
#762=DIRECTION('',(0.0,0.0,1.0));
#763=AXIS2_PLACEMENT_3D('',#760,#761,#762);
#764=PLANE('',#763);
#765=ORIENTED_EDGE('',*,*,#412,.F.);
#766=ORIENTED_EDGE('',*,*,#137,.F.);
#767=CARTESIAN_POINT('',(19.949999999999996,11.999999999999986,0.0));
#768=DIRECTION('',(-1.0,0.0,0.0));
#769=VECTOR('',#768,39.899999999999984);
#770=LINE('',#767,#769);
#771=EDGE_CURVE('',#123,#743,#770,.T.);
#772=ORIENTED_EDGE('',*,*,#771,.T.);
#773=ORIENTED_EDGE('',*,*,#748,.T.);
#774=EDGE_LOOP('',(#765,#766,#772,#773));
#775=FACE_OUTER_BOUND('',#774,.T.);
#776=ADVANCED_FACE('',(#775),#764,.T.);
#777=CARTESIAN_POINT('',(1.421085E-014,0.0,0.0));
#778=DIRECTION('',(0.0,0.0,1.0));
#779=DIRECTION('',(1.0,0.0,0.0));
#780=AXIS2_PLACEMENT_3D('',#777,#778,#779);
#781=PLANE('',#780);
#782=ORIENTED_EDGE('',*,*,#771,.F.);
#783=ORIENTED_EDGE('',*,*,#129,.F.);
#784=ORIENTED_EDGE('',*,*,#713,.F.);
#785=ORIENTED_EDGE('',*,*,#729,.F.);
#786=ORIENTED_EDGE('',*,*,#213,.F.);
#787=ORIENTED_EDGE('',*,*,#617,.F.);
#788=ORIENTED_EDGE('',*,*,#633,.F.);
#789=ORIENTED_EDGE('',*,*,#171,.F.);
#790=ORIENTED_EDGE('',*,*,#659,.F.);
#791=ORIENTED_EDGE('',*,*,#675,.F.);
#792=ORIENTED_EDGE('',*,*,#87,.F.);
#793=ORIENTED_EDGE('',*,*,#755,.F.);
#794=EDGE_LOOP('',(#782,#783,#784,#785,#786,#787,#788,#789,#790,#791,#792,#793));
#795=FACE_OUTER_BOUND('',#794,.T.);
#796=ADVANCED_FACE('',(#795),#781,.F.);
#797=CLOSED_SHELL('',(#106,#148,#190,#232,#274,#314,#354,#392,#423,#454,#485,#505,#536,#556,#576,#596,#621,#638,#663,#680,#692,#717,#734,#759,#776,#796));
#798=MANIFOLD_SOLID_BREP('8AE',#797);
#799=COLOUR_RGB('240',1.0,0.0,0.250000000000000);
#800=SURFACE_STYLE_USAGE(.BOTH.,#801);
#801=SURFACE_SIDE_STYLE('NONE',(#802));
#802=SURFACE_STYLE_FILL_AREA(#803);
#803=FILL_AREA_STYLE('NONE',(#804));
#804=FILL_AREA_STYLE_COLOUR('NONE',#799);
#805=PRESENTATION_STYLE_ASSIGNMENT((#800));
#806=STYLED_ITEM('NONE',(#805),#798);
#807=MECHANICAL_DESIGN_GEOMETRIC_PRESENTATION_REPRESENTATION('NONE',(#806,#904,#993),#28);
#808=PRESENTATION_LAYER_ASSIGNMENT('3D','None',(#798,#896,#992));
#809=CARTESIAN_POINT('',(-18.750000000000000,1.110223E-016,0.0));
#810=DIRECTION('',(0.0,0.0,-1.0));
#811=DIRECTION('',(1.0,0.0,0.0));
#812=AXIS2_PLACEMENT_3D('',#809,#810,#811);
#813=CYLINDRICAL_SURFACE('',#812,0.500000000000000);
#814=CARTESIAN_POINT('',(-18.250000000000000,1.110223E-016,0.0));
#815=VERTEX_POINT('',#814);
#816=CARTESIAN_POINT('',(-18.250000000000000,1.110223E-016,-3.800000000000000));
#817=VERTEX_POINT('',#816);
#818=CARTESIAN_POINT('',(-18.250000000000000,1.110223E-016,0.0));
#819=DIRECTION('',(0.0,0.0,-1.0));
#820=VECTOR('',#819,3.800000000000000);
#821=LINE('',#818,#820);
#822=EDGE_CURVE('',#815,#817,#821,.T.);
#823=ORIENTED_EDGE('',*,*,#822,.F.);
#824=CARTESIAN_POINT('',(-19.250000000000000,4.979198E-017,0.0));
#825=VERTEX_POINT('',#824);
#826=CARTESIAN_POINT('',(-18.750000000000000,1.110223E-016,0.0));
#827=DIRECTION('',(0.0,0.0,1.0));
#828=DIRECTION('',(1.0,0.0,0.0));
#829=AXIS2_PLACEMENT_3D('',#826,#827,#828);
#830=CIRCLE('',#829,0.500000000000000);
#831=EDGE_CURVE('',#825,#815,#830,.T.);
#832=ORIENTED_EDGE('',*,*,#831,.F.);
#833=CARTESIAN_POINT('',(-19.250000000000000,4.979198E-017,-3.800000000000000));
#834=VERTEX_POINT('',#833);
#835=CARTESIAN_POINT('',(-19.250000000000000,4.979198E-017,-3.800000000000000));
#836=DIRECTION('',(0.0,0.0,1.0));
#837=VECTOR('',#836,3.800000000000000);
#838=LINE('',#835,#837);
#839=EDGE_CURVE('',#834,#825,#838,.T.);
#840=ORIENTED_EDGE('',*,*,#839,.F.);
#841=CARTESIAN_POINT('',(-18.750000000000000,1.110223E-016,-3.800000000000000));
#842=DIRECTION('',(0.0,0.0,1.0));
#843=DIRECTION('',(1.0,0.0,0.0));
#844=AXIS2_PLACEMENT_3D('',#841,#842,#843);
#845=CIRCLE('',#844,0.500000000000000);
#846=EDGE_CURVE('',#834,#817,#845,.T.);
#847=ORIENTED_EDGE('',*,*,#846,.T.);
#848=EDGE_LOOP('',(#823,#832,#840,#847));
#849=FACE_OUTER_BOUND('',#848,.T.);
#850=ADVANCED_FACE('',(#849),#813,.T.);
#851=CARTESIAN_POINT('',(-18.750000000000000,1.110223E-016,0.0));
#852=DIRECTION('',(0.0,0.0,-1.0));
#853=DIRECTION('',(1.0,0.0,0.0));
#854=AXIS2_PLACEMENT_3D('',#851,#852,#853);
#855=CYLINDRICAL_SURFACE('',#854,0.500000000000000);
#856=ORIENTED_EDGE('',*,*,#822,.T.);
#857=CARTESIAN_POINT('',(-18.750000000000000,1.110223E-016,-3.800000000000000));
#858=DIRECTION('',(0.0,0.0,1.0));
#859=DIRECTION('',(1.0,0.0,0.0));
#860=AXIS2_PLACEMENT_3D('',#857,#858,#859);
#861=CIRCLE('',#860,0.500000000000000);
#862=EDGE_CURVE('',#817,#834,#861,.T.);
#863=ORIENTED_EDGE('',*,*,#862,.T.);
#864=ORIENTED_EDGE('',*,*,#839,.T.);
#865=CARTESIAN_POINT('',(-18.750000000000000,1.110223E-016,0.0));
#866=DIRECTION('',(0.0,0.0,1.0));
#867=DIRECTION('',(1.0,0.0,0.0));
#868=AXIS2_PLACEMENT_3D('',#865,#866,#867);
#869=CIRCLE('',#868,0.500000000000000);
#870=EDGE_CURVE('',#815,#825,#869,.T.);
#871=ORIENTED_EDGE('',*,*,#870,.F.);
#872=EDGE_LOOP('',(#856,#863,#864,#871));
#873=FACE_OUTER_BOUND('',#872,.T.);
#874=ADVANCED_FACE('',(#873),#855,.T.);
#875=CARTESIAN_POINT('',(-18.750000000000000,1.110223E-016,-3.800000000000000));
#876=DIRECTION('',(0.0,0.0,1.0));
#877=DIRECTION('',(1.0,0.0,0.0));
#878=AXIS2_PLACEMENT_3D('',#875,#876,#877);
#879=PLANE('',#878);
#880=ORIENTED_EDGE('',*,*,#862,.F.);
#881=ORIENTED_EDGE('',*,*,#846,.F.);
#882=EDGE_LOOP('',(#880,#881));
#883=FACE_OUTER_BOUND('',#882,.T.);
#884=ADVANCED_FACE('',(#883),#879,.F.);
#885=CARTESIAN_POINT('',(-18.750000000000000,1.110223E-016,0.0));
#886=DIRECTION('',(0.0,0.0,1.0));
#887=DIRECTION('',(1.0,0.0,0.0));
#888=AXIS2_PLACEMENT_3D('',#885,#886,#887);
#889=PLANE('',#888);
#890=ORIENTED_EDGE('',*,*,#870,.T.);
#891=ORIENTED_EDGE('',*,*,#831,.T.);
#892=EDGE_LOOP('',(#890,#891));
#893=FACE_OUTER_BOUND('',#892,.T.);
#894=ADVANCED_FACE('',(#893),#889,.T.);
#895=CLOSED_SHELL('',(#850,#874,#884,#894));
#896=MANIFOLD_SOLID_BREP('89D',#895);
#897=COLOUR_RGB('255',1.0,1.0,1.0);
#898=SURFACE_STYLE_USAGE(.BOTH.,#899);
#899=SURFACE_SIDE_STYLE('NONE',(#900));
#900=SURFACE_STYLE_FILL_AREA(#901);
#901=FILL_AREA_STYLE('NONE',(#902));
#902=FILL_AREA_STYLE_COLOUR('NONE',#897);
#903=PRESENTATION_STYLE_ASSIGNMENT((#898));
#904=STYLED_ITEM('NONE',(#903),#896);
#905=CARTESIAN_POINT('',(18.750000000000000,1.110223E-016,0.0));
#906=DIRECTION('',(0.0,0.0,-1.0));
#907=DIRECTION('',(1.0,0.0,0.0));
#908=AXIS2_PLACEMENT_3D('',#905,#906,#907);
#909=CYLINDRICAL_SURFACE('',#908,0.500000000000000);
#910=CARTESIAN_POINT('',(19.250000000000000,1.110223E-016,0.0));
#911=VERTEX_POINT('',#910);
#912=CARTESIAN_POINT('',(19.250000000000000,1.110223E-016,-3.800000000000000));
#913=VERTEX_POINT('',#912);
#914=CARTESIAN_POINT('',(19.250000000000000,1.110223E-016,0.0));
#915=DIRECTION('',(0.0,0.0,-1.0));
#916=VECTOR('',#915,3.800000000000000);
#917=LINE('',#914,#916);
#918=EDGE_CURVE('',#911,#913,#917,.T.);
#919=ORIENTED_EDGE('',*,*,#918,.F.);
#920=CARTESIAN_POINT('',(18.250000000000000,4.979198E-017,0.0));
#921=VERTEX_POINT('',#920);
#922=CARTESIAN_POINT('',(18.750000000000000,1.110223E-016,0.0));
#923=DIRECTION('',(0.0,0.0,1.0));
#924=DIRECTION('',(1.0,0.0,0.0));
#925=AXIS2_PLACEMENT_3D('',#922,#923,#924);
#926=CIRCLE('',#925,0.500000000000000);
#927=EDGE_CURVE('',#921,#911,#926,.T.);
#928=ORIENTED_EDGE('',*,*,#927,.F.);
#929=CARTESIAN_POINT('',(18.250000000000000,4.979198E-017,-3.800000000000000));
#930=VERTEX_POINT('',#929);
#931=CARTESIAN_POINT('',(18.250000000000000,4.979198E-017,-3.800000000000000));
#932=DIRECTION('',(0.0,0.0,1.0));
#933=VECTOR('',#932,3.800000000000000);
#934=LINE('',#931,#933);
#935=EDGE_CURVE('',#930,#921,#934,.T.);
#936=ORIENTED_EDGE('',*,*,#935,.F.);
#937=CARTESIAN_POINT('',(18.750000000000000,1.110223E-016,-3.800000000000000));
#938=DIRECTION('',(0.0,0.0,1.0));
#939=DIRECTION('',(1.0,0.0,0.0));
#940=AXIS2_PLACEMENT_3D('',#937,#938,#939);
#941=CIRCLE('',#940,0.500000000000000);
#942=EDGE_CURVE('',#930,#913,#941,.T.);
#943=ORIENTED_EDGE('',*,*,#942,.T.);
#944=EDGE_LOOP('',(#919,#928,#936,#943));
#945=FACE_OUTER_BOUND('',#944,.T.);
#946=ADVANCED_FACE('',(#945),#909,.T.);
#947=CARTESIAN_POINT('',(18.750000000000000,1.110223E-016,0.0));
#948=DIRECTION('',(0.0,0.0,-1.0));
#949=DIRECTION('',(1.0,0.0,0.0));
#950=AXIS2_PLACEMENT_3D('',#947,#948,#949);
#951=CYLINDRICAL_SURFACE('',#950,0.500000000000000);
#952=ORIENTED_EDGE('',*,*,#918,.T.);
#953=CARTESIAN_POINT('',(18.750000000000000,1.110223E-016,-3.800000000000000));
#954=DIRECTION('',(0.0,0.0,1.0));
#955=DIRECTION('',(1.0,0.0,0.0));
#956=AXIS2_PLACEMENT_3D('',#953,#954,#955);
#957=CIRCLE('',#956,0.500000000000000);
#958=EDGE_CURVE('',#913,#930,#957,.T.);
#959=ORIENTED_EDGE('',*,*,#958,.T.);
#960=ORIENTED_EDGE('',*,*,#935,.T.);
#961=CARTESIAN_POINT('',(18.750000000000000,1.110223E-016,0.0));
#962=DIRECTION('',(0.0,0.0,1.0));
#963=DIRECTION('',(1.0,0.0,0.0));
#964=AXIS2_PLACEMENT_3D('',#961,#962,#963);
#965=CIRCLE('',#964,0.500000000000000);
#966=EDGE_CURVE('',#911,#921,#965,.T.);
#967=ORIENTED_EDGE('',*,*,#966,.F.);
#968=EDGE_LOOP('',(#952,#959,#960,#967));
#969=FACE_OUTER_BOUND('',#968,.T.);
#970=ADVANCED_FACE('',(#969),#951,.T.);
#971=CARTESIAN_POINT('',(18.750000000000000,1.110223E-016,-3.800000000000000));
#972=DIRECTION('',(0.0,0.0,1.0));
#973=DIRECTION('',(1.0,0.0,0.0));
#974=AXIS2_PLACEMENT_3D('',#971,#972,#973);
#975=PLANE('',#974);
#976=ORIENTED_EDGE('',*,*,#958,.F.);
#977=ORIENTED_EDGE('',*,*,#942,.F.);
#978=EDGE_LOOP('',(#976,#977));
#979=FACE_OUTER_BOUND('',#978,.T.);
#980=ADVANCED_FACE('',(#979),#975,.F.);
#981=CARTESIAN_POINT('',(18.750000000000000,1.110223E-016,0.0));
#982=DIRECTION('',(0.0,0.0,1.0));
#983=DIRECTION('',(1.0,0.0,0.0));
#984=AXIS2_PLACEMENT_3D('',#981,#982,#983);
#985=PLANE('',#984);
#986=ORIENTED_EDGE('',*,*,#966,.T.);
#987=ORIENTED_EDGE('',*,*,#927,.T.);
#988=EDGE_LOOP('',(#986,#987));
#989=FACE_OUTER_BOUND('',#988,.T.);
#990=ADVANCED_FACE('',(#989),#985,.T.);
#991=CLOSED_SHELL('',(#946,#970,#980,#990));
#992=MANIFOLD_SOLID_BREP('89C',#991);
#993=STYLED_ITEM('NONE',(#903),#992);
#994=ADVANCED_BREP_SHAPE_REPRESENTATION('ABSR1',(#798,#896,#992),#28);
#995=SHAPE_REPRESENTATION_RELATIONSHIP('SRRPL1','',#994,#62);
ENDSEC;
END-ISO-10303-21;
