ISO-10303-21;
HEADER;
/****************************************************************
 * Generated by software with PDE/Lib inside                    *
 * PDElib Version v51a, created Mon 11/03/2008                  *
 * International Technegroup Inc. (www.iti-oh.com)              *
 ****************************************************************/
FILE_DESCRIPTION((''),'2;1');
FILE_NAME('CAPRB_VISHAY_D229C20C0JH63L2R.stp','2010-10-06T10:57:28',(''),(''),'Mechanical Desktop 2010','Mechanical Desktop 2010',', , ');
FILE_SCHEMA(('AUTOMOTIVE_DESIGN { 1 2 10303 214 1 1 1 1 }'));
ENDSEC;
DATA;
#8=(NAMED_UNIT(*)PLANE_ANGLE_UNIT()SI_UNIT($,.RADIAN.));
#9=DIMENSIONAL_EXPONENTS(0.0,0.0,0.0,0.0,0.0,0.0,0.0);
#10=PLANE_ANGLE_MEASURE_WITH_UNIT(PLANE_ANGLE_MEASURE(0.017453292500000),#8);
#14=(CONVERSION_BASED_UNIT('DEGREE',#10)NAMED_UNIT(#9)PLANE_ANGLE_UNIT());
#18=(NAMED_UNIT(*)SI_UNIT($,.STERADIAN.)SOLID_ANGLE_UNIT());
#22=(LENGTH_UNIT()NAMED_UNIT(*)SI_UNIT(.MILLI.,.METRE.));
#23=UNCERTAINTY_MEASURE_WITH_UNIT(LENGTH_MEASURE(0.000001000000000),#22,'DISTANCE_ACCURACY_VALUE','');
#28=(GEOMETRIC_REPRESENTATION_CONTEXT(3)GLOBAL_UNCERTAINTY_ASSIGNED_CONTEXT((#23))GLOBAL_UNIT_ASSIGNED_CONTEXT((#14,#18,#22))REPRESENTATION_CONTEXT('None','None'));
#29=APPLICATION_CONTEXT('automotive design');
#30=APPLICATION_PROTOCOL_DEFINITION('INTERNATIONAL_STANDARD','automotive_design',1998,#29);
#31=PRODUCT_CONTEXT('3D Mechanical Parts',#29,'mechanical');
#32=PRODUCT('Product','Product','',(#31));
#33=PRODUCT_RELATED_PRODUCT_CATEGORY('part',$,(#32));
#34=PRODUCT_CATEGORY('part',$);
#35=PERSON('1','Design','Joe',$,$,$);
#36=ORGANIZATION($,'None','None');
#37=PERSON_AND_ORGANIZATION(#35,#36);
#38=PERSON_AND_ORGANIZATION_ROLE('design_owner');
#39=APPLIED_PERSON_AND_ORGANIZATION_ASSIGNMENT(#37,#38,(#32));
#40=PRODUCT_DEFINITION_FORMATION_WITH_SPECIFIED_SOURCE('None','',#32,.BOUGHT.);
#41=PERSON('2','Creator','Joe',$,$,$);
#42=ORGANIZATION($,'None','None');
#43=PERSON_AND_ORGANIZATION(#41,#42);
#44=PERSON_AND_ORGANIZATION_ROLE('creator');
#45=APPLIED_PERSON_AND_ORGANIZATION_ASSIGNMENT(#43,#44,(#40));
#46=PERSON('3','Supplier','Joe',$,$,$);
#47=ORGANIZATION($,'None','None');
#48=PERSON_AND_ORGANIZATION(#46,#47);
#49=PERSON_AND_ORGANIZATION_ROLE('design_supplier');
#50=APPLIED_PERSON_AND_ORGANIZATION_ASSIGNMENT(#48,#49,(#40));
#51=PRODUCT_DEFINITION_CONTEXT('part definition',#29,'design');
#52=PRODUCT_DEFINITION('None','',#40,#51);
#53=PERSON('4','Creator','Joe',$,$,$);
#54=ORGANIZATION($,'None','None');
#55=PERSON_AND_ORGANIZATION(#53,#54);
#56=PERSON_AND_ORGANIZATION_ROLE('creator');
#57=APPLIED_PERSON_AND_ORGANIZATION_ASSIGNMENT(#55,#56,(#52));
#58=CARTESIAN_POINT('NONE',(0.0,0.0,0.0));
#59=DIRECTION('NONE',(0.0,0.0,1.0));
#60=DIRECTION('NONE',(1.0,0.0,0.0));
#61=AXIS2_PLACEMENT_3D('NONE',#58,#59,#60);
#62=SHAPE_REPRESENTATION('SR1',(#61),#28);
#63=PRODUCT_DEFINITION_SHAPE('PDS1','Test Part',#52);
#64=SHAPE_DEFINITION_REPRESENTATION(#63,#62);
#65=CARTESIAN_POINT('',(1.550000000000000,9.299229E-016,0.267056342720646));
#66=CARTESIAN_POINT('',(1.550000000000000,9.299229E-016,-3.799999957279353));
#67=CARTESIAN_POINT('',(1.550000000000000,0.300000000000001,0.267056342720646));
#68=CARTESIAN_POINT('',(1.550000000000000,0.300000000000001,-3.799999957279353));
#69=CARTESIAN_POINT('',(1.250000000000000,0.300000000000001,0.267056342720646));
#70=CARTESIAN_POINT('',(1.250000000000000,0.300000000000001,-3.799999957279353));
#71=CARTESIAN_POINT('',(0.950000000000000,0.300000000000001,0.267056342720646));
#72=CARTESIAN_POINT('',(0.950000000000000,0.300000000000001,-3.799999957279353));
#73=CARTESIAN_POINT('',(0.950000000000000,8.564465E-016,0.267056342720646));
#74=CARTESIAN_POINT('',(0.950000000000000,8.564465E-016,-3.799999957279353));
#75=CARTESIAN_POINT('',(0.950000000000000,-0.299999999999999,0.267056342720646));
#76=CARTESIAN_POINT('',(0.950000000000000,-0.299999999999999,-3.799999957279353));
#77=CARTESIAN_POINT('',(1.250000000000000,-0.299999999999999,0.267056342720646));
#78=CARTESIAN_POINT('',(1.250000000000000,-0.299999999999999,-3.799999957279353));
#79=CARTESIAN_POINT('',(1.550000000000000,-0.299999999999999,0.267056342720646));
#80=CARTESIAN_POINT('',(1.550000000000000,-0.299999999999999,-3.799999957279353));
#81=CARTESIAN_POINT('',(1.550000000000000,9.299229E-016,0.267056342720646));
#82=CARTESIAN_POINT('',(1.550000000000000,9.299229E-016,-3.799999957279353));
#90=(BOUNDED_SURFACE()B_SPLINE_SURFACE(1,2,((#65,#67,#69,#71,#73,#75,#77,#79,#81),(#66,#68,#70,#72,#74,#76,#78,#80,#82)),.UNSPECIFIED.,.F.,.T.,.U.)B_SPLINE_SURFACE_WITH_KNOTS((2,2),(3,2,2,2,3),(0.0,13.556854333333330),(0.0,0.471238898038469,0.942477796076938,1.413716694115407,1.884955592153876),.UNSPECIFIED.)GEOMETRIC_REPRESENTATION_ITEM()RATIONAL_B_SPLINE_SURFACE(((1.0,0.707106781186548,1.0,0.707106781186548,1.0,0.707106781186548,1.0,0.707106781186548,1.0),(1.0,0.707106781186548,1.0,0.707106781186548,1.0,0.707106781186548,1.0,0.707106781186548,1.0)))REPRESENTATION_ITEM('')SURFACE());
#91=CARTESIAN_POINT('',(0.950000000000000,8.931847E-016,-3.799999957279353));
#92=VERTEX_POINT('',#91);
#93=CARTESIAN_POINT('',(0.950000000000000,8.931847E-016,0.267056342720646));
#94=VERTEX_POINT('',#93);
#95=CARTESIAN_POINT('',(0.950000000000000,8.931847E-016,-3.799999957279353));
#96=DIRECTION('',(0.0,0.0,1.0));
#97=VECTOR('',#96,4.067056299999999);
#98=LINE('',#95,#97);
#99=EDGE_CURVE('',#92,#94,#98,.T.);
#100=ORIENTED_EDGE('',*,*,#99,.F.);
#101=CARTESIAN_POINT('',(1.550000000000000,9.299229E-016,-3.799999957279353));
#102=VERTEX_POINT('',#101);
#103=CARTESIAN_POINT('',(1.250000000000000,8.931847E-016,-3.799999957279353));
#104=DIRECTION('',(0.0,0.0,-1.0));
#105=DIRECTION('',(-1.0,0.0,0.0));
#106=AXIS2_PLACEMENT_3D('',#103,#104,#105);
#107=CIRCLE('',#106,0.300000000000000);
#108=EDGE_CURVE('',#102,#92,#107,.T.);
#109=ORIENTED_EDGE('',*,*,#108,.F.);
#110=CARTESIAN_POINT('',(1.550000000000000,9.299229E-016,0.267056342720646));
#111=VERTEX_POINT('',#110);
#112=CARTESIAN_POINT('',(1.550000000000000,9.299229E-016,-3.799999957279353));
#113=DIRECTION('',(0.0,0.0,1.0));
#114=VECTOR('',#113,4.067056299999999);
#115=LINE('',#112,#114);
#116=EDGE_CURVE('',#102,#111,#115,.T.);
#117=ORIENTED_EDGE('',*,*,#116,.T.);
#118=CARTESIAN_POINT('',(1.250000000000000,8.931847E-016,0.267056342720646));
#119=DIRECTION('',(0.0,0.0,-1.0));
#120=DIRECTION('',(-1.0,0.0,0.0));
#121=AXIS2_PLACEMENT_3D('',#118,#119,#120);
#122=CIRCLE('',#121,0.300000000000000);
#123=EDGE_CURVE('',#111,#94,#122,.T.);
#124=ORIENTED_EDGE('',*,*,#123,.T.);
#125=EDGE_LOOP('',(#100,#109,#117,#124));
#126=FACE_OUTER_BOUND('',#125,.T.);
#127=ADVANCED_FACE('',(#126),#90,.T.);
#128=CARTESIAN_POINT('',(1.550000000000000,9.299229E-016,0.267056342720646));
#129=CARTESIAN_POINT('',(1.550000000000000,9.299229E-016,-3.799999957279353));
#130=CARTESIAN_POINT('',(1.550000000000000,0.300000000000001,0.267056342720646));
#131=CARTESIAN_POINT('',(1.550000000000000,0.300000000000001,-3.799999957279353));
#132=CARTESIAN_POINT('',(1.250000000000000,0.300000000000001,0.267056342720646));
#133=CARTESIAN_POINT('',(1.250000000000000,0.300000000000001,-3.799999957279353));
#134=CARTESIAN_POINT('',(0.950000000000000,0.300000000000001,0.267056342720646));
#135=CARTESIAN_POINT('',(0.950000000000000,0.300000000000001,-3.799999957279353));
#136=CARTESIAN_POINT('',(0.950000000000000,8.564465E-016,0.267056342720646));
#137=CARTESIAN_POINT('',(0.950000000000000,8.564465E-016,-3.799999957279353));
#138=CARTESIAN_POINT('',(0.950000000000000,-0.299999999999999,0.267056342720646));
#139=CARTESIAN_POINT('',(0.950000000000000,-0.299999999999999,-3.799999957279353));
#140=CARTESIAN_POINT('',(1.250000000000000,-0.299999999999999,0.267056342720646));
#141=CARTESIAN_POINT('',(1.250000000000000,-0.299999999999999,-3.799999957279353));
#142=CARTESIAN_POINT('',(1.550000000000000,-0.299999999999999,0.267056342720646));
#143=CARTESIAN_POINT('',(1.550000000000000,-0.299999999999999,-3.799999957279353));
#144=CARTESIAN_POINT('',(1.550000000000000,9.299229E-016,0.267056342720646));
#145=CARTESIAN_POINT('',(1.550000000000000,9.299229E-016,-3.799999957279353));
#153=(BOUNDED_SURFACE()B_SPLINE_SURFACE(1,2,((#128,#130,#132,#134,#136,#138,#140,#142,#144),(#129,#131,#133,#135,#137,#139,#141,#143,#145)),.UNSPECIFIED.,.F.,.T.,.U.)B_SPLINE_SURFACE_WITH_KNOTS((2,2),(3,2,2,2,3),(0.0,13.556854333333330),(0.0,0.471238898038469,0.942477796076938,1.413716694115407,1.884955592153876),.UNSPECIFIED.)GEOMETRIC_REPRESENTATION_ITEM()RATIONAL_B_SPLINE_SURFACE(((1.0,0.707106781186548,1.0,0.707106781186548,1.0,0.707106781186548,1.0,0.707106781186548,1.0),(1.0,0.707106781186548,1.0,0.707106781186548,1.0,0.707106781186548,1.0,0.707106781186548,1.0)))REPRESENTATION_ITEM('')SURFACE());
#154=ORIENTED_EDGE('',*,*,#99,.T.);
#155=CARTESIAN_POINT('',(1.250000000000000,8.931847E-016,0.267056342720646));
#156=DIRECTION('',(0.0,0.0,-1.0));
#157=DIRECTION('',(-1.0,0.0,0.0));
#158=AXIS2_PLACEMENT_3D('',#155,#156,#157);
#159=CIRCLE('',#158,0.300000000000000);
#160=EDGE_CURVE('',#94,#111,#159,.T.);
#161=ORIENTED_EDGE('',*,*,#160,.T.);
#162=ORIENTED_EDGE('',*,*,#116,.F.);
#163=CARTESIAN_POINT('',(1.250000000000000,8.931847E-016,-3.799999957279353));
#164=DIRECTION('',(0.0,0.0,-1.0));
#165=DIRECTION('',(-1.0,0.0,0.0));
#166=AXIS2_PLACEMENT_3D('',#163,#164,#165);
#167=CIRCLE('',#166,0.300000000000000);
#168=EDGE_CURVE('',#92,#102,#167,.T.);
#169=ORIENTED_EDGE('',*,*,#168,.F.);
#170=EDGE_LOOP('',(#154,#161,#162,#169));
#171=FACE_OUTER_BOUND('',#170,.T.);
#172=ADVANCED_FACE('',(#171),#153,.T.);
#173=CARTESIAN_POINT('',(1.550000000000000,0.300000000000001,-3.799999957279353));
#174=CARTESIAN_POINT('',(0.950000000000000,0.300000000000001,-3.799999957279353));
#175=CARTESIAN_POINT('',(1.550000000000000,-0.299999999999999,-3.799999957279353));
#176=CARTESIAN_POINT('',(0.950000000000000,-0.299999999999999,-3.799999957279353));
#177=B_SPLINE_SURFACE_WITH_KNOTS('',1,1,((#173,#175),(#174,#176)),.UNSPECIFIED.,.F.,.F.,.U.,(2,2),(2,2),(0.0,0.600000000000000),(0.0,0.600000000000000),.UNSPECIFIED.);
#178=ORIENTED_EDGE('',*,*,#168,.T.);
#179=ORIENTED_EDGE('',*,*,#108,.T.);
#180=EDGE_LOOP('',(#178,#179));
#181=FACE_OUTER_BOUND('',#180,.T.);
#182=ADVANCED_FACE('',(#181),#177,.F.);
#183=CARTESIAN_POINT('',(1.550000000000000,0.300000000000001,0.267056342720646));
#184=CARTESIAN_POINT('',(0.950000000000000,0.300000000000001,0.267056342720646));
#185=CARTESIAN_POINT('',(1.550000000000000,-0.299999999999999,0.267056342720646));
#186=CARTESIAN_POINT('',(0.950000000000000,-0.299999999999999,0.267056342720646));
#187=B_SPLINE_SURFACE_WITH_KNOTS('',1,1,((#183,#185),(#184,#186)),.UNSPECIFIED.,.F.,.F.,.U.,(2,2),(2,2),(0.0,0.600000000000000),(0.0,0.600000000000000),.UNSPECIFIED.);
#188=ORIENTED_EDGE('',*,*,#160,.F.);
#189=ORIENTED_EDGE('',*,*,#123,.F.);
#190=EDGE_LOOP('',(#188,#189));
#191=FACE_OUTER_BOUND('',#190,.T.);
#192=ADVANCED_FACE('',(#191),#187,.T.);
#193=CLOSED_SHELL('',(#127,#172,#182,#192));
#194=MANIFOLD_SOLID_BREP('8C6',#193);
#195=COLOUR_RGB('253',0.732000000000000,0.732000000000000,0.732000000000000);
#196=SURFACE_STYLE_USAGE(.BOTH.,#197);
#197=SURFACE_SIDE_STYLE('NONE',(#198));
#198=SURFACE_STYLE_FILL_AREA(#199);
#199=FILL_AREA_STYLE('NONE',(#200));
#200=FILL_AREA_STYLE_COLOUR('NONE',#195);
#201=PRESENTATION_STYLE_ASSIGNMENT((#196));
#202=STYLED_ITEM('NONE',(#201),#194);
#203=MECHANICAL_DESIGN_GEOMETRIC_PRESENTATION_REPRESENTATION('NONE',(#202,#808,#1087,#1176,#1575),#28);
#204=PRESENTATION_LAYER_ASSIGNMENT('3D','None',(#194,#800,#1086,#1175,#1574));
#205=CARTESIAN_POINT('',(1.250000000000003,0.499999999999999,0.534112685441291));
#206=CARTESIAN_POINT('',(0.750000000000001,0.500000000000000,0.534112685441292));
#207=CARTESIAN_POINT('',(0.750000000000002,-1.332268E-015,0.534112685441290));
#208=CARTESIAN_POINT('',(0.750000000000002,-0.500000000000003,0.534112685441289));
#209=CARTESIAN_POINT('',(1.250000000000004,-0.500000000000001,0.534112685441288));
#210=CARTESIAN_POINT('',(1.250000000000003,0.499999999999998,0.947062717793670));
#211=CARTESIAN_POINT('',(0.750000000000001,0.499999999999999,0.947062717793670));
#212=CARTESIAN_POINT('',(0.750000000000002,-3.441691E-015,1.360012750146049));
#213=CARTESIAN_POINT('',(0.750000000000003,-0.500000000000006,1.772962782498428));
#214=CARTESIAN_POINT('',(1.250000000000005,-0.500000000000004,1.772962782498426));
#215=CARTESIAN_POINT('',(1.250000000000003,0.905508881747693,1.025102938472276));
#216=CARTESIAN_POINT('',(0.750000000000001,0.905508881747693,1.025102938472275));
#217=CARTESIAN_POINT('',(0.750000000000002,0.811017763495385,1.516093191503259));
#218=CARTESIAN_POINT('',(0.750000000000002,0.716526645243078,2.007083444534244));
#219=CARTESIAN_POINT('',(1.250000000000004,0.716526645243079,2.007083444534241));
#227=(BOUNDED_SURFACE()B_SPLINE_SURFACE(2,2,((#205,#210,#215),(#206,#211,#216),(#207,#212,#217),(#208,#213,#218),(#209,#214,#219)),.UNSPECIFIED.,.F.,.F.,.U.)B_SPLINE_SURFACE_WITH_KNOTS((3,2,3),(3,3),(-3.141592653589797,-1.570796326794897,3.502922E-015),(0.0,1.380670723448433),.UNSPECIFIED.)GEOMETRIC_REPRESENTATION_ITEM()RATIONAL_B_SPLINE_SURFACE(((1.0,0.771032501424101,1.0),(0.707106781186546,0.545202310272207,0.707106781186546),(1.0,0.771032501424101,1.0),(0.707106781186547,0.545202310272207,0.707106781186547),(1.0,0.771032501424101,1.0)))REPRESENTATION_ITEM('')SURFACE());
#228=CARTESIAN_POINT('',(1.250000000000002,0.249999999999999,1.833150791117951));
#229=VERTEX_POINT('',#228);
#230=CARTESIAN_POINT('',(1.250000000000002,-0.500000000000001,0.534112685441292));
#231=VERTEX_POINT('',#230);
#232=CARTESIAN_POINT('',(1.250000000000000,1.000000000000000,0.534112685441293));
#233=DIRECTION('',(1.0,0.0,0.0));
#234=DIRECTION('',(0.0,0.0,-1.0));
#235=AXIS2_PLACEMENT_3D('',#232,#233,#234);
#236=CIRCLE('',#235,1.500000000000000);
#237=EDGE_CURVE('',#229,#231,#236,.T.);
#238=ORIENTED_EDGE('',*,*,#237,.F.);
#239=CARTESIAN_POINT('',(0.750000000000001,0.500000000000000,1.400138089225732));
#240=VERTEX_POINT('',#239);
#241=CARTESIAN_POINT('',(1.250000000000001,0.499999999999999,1.400138089225731));
#242=DIRECTION('',(0.0,0.866025403784439,0.500000000000000));
#243=DIRECTION('',(1.0,0.0,0.0));
#244=AXIS2_PLACEMENT_3D('',#241,#242,#243);
#245=CIRCLE('',#244,0.500000000000000);
#246=EDGE_CURVE('',#240,#229,#245,.T.);
#247=ORIENTED_EDGE('',*,*,#246,.F.);
#248=CARTESIAN_POINT('',(1.250000000000001,0.749999999999999,0.967125387333512));
#249=VERTEX_POINT('',#248);
#250=CARTESIAN_POINT('',(1.250000000000001,0.499999999999999,1.400138089225731));
#251=DIRECTION('',(0.0,0.866025403784439,0.500000000000000));
#252=DIRECTION('',(1.0,0.0,0.0));
#253=AXIS2_PLACEMENT_3D('',#250,#251,#252);
#254=CIRCLE('',#253,0.500000000000000);
#255=EDGE_CURVE('',#249,#240,#254,.T.);
#256=ORIENTED_EDGE('',*,*,#255,.F.);
#257=CARTESIAN_POINT('',(1.250000000000001,0.499999999999999,0.534112685441292));
#258=VERTEX_POINT('',#257);
#259=CARTESIAN_POINT('',(1.250000000000000,1.000000000000000,0.534112685441293));
#260=DIRECTION('',(1.0,0.0,0.0));
#261=DIRECTION('',(0.0,0.0,-1.0));
#262=AXIS2_PLACEMENT_3D('',#259,#260,#261);
#263=CIRCLE('',#262,0.500000000000000);
#264=EDGE_CURVE('',#249,#258,#263,.T.);
#265=ORIENTED_EDGE('',*,*,#264,.T.);
#266=CARTESIAN_POINT('',(0.750000000000001,-7.807365E-016,0.534112685441293));
#267=VERTEX_POINT('',#266);
#268=CARTESIAN_POINT('',(1.250000000000001,-9.031971E-016,0.534112685441292));
#269=DIRECTION('',(0.0,0.0,1.0));
#270=DIRECTION('',(1.0,0.0,0.0));
#271=AXIS2_PLACEMENT_3D('',#268,#269,#270);
#272=CIRCLE('',#271,0.500000000000000);
#273=EDGE_CURVE('',#258,#267,#272,.T.);
#274=ORIENTED_EDGE('',*,*,#273,.T.);
#275=CARTESIAN_POINT('',(1.250000000000001,-9.031971E-016,0.534112685441292));
#276=DIRECTION('',(0.0,0.0,1.0));
#277=DIRECTION('',(1.0,0.0,0.0));
#278=AXIS2_PLACEMENT_3D('',#275,#276,#277);
#279=CIRCLE('',#278,0.500000000000000);
#280=EDGE_CURVE('',#267,#231,#279,.T.);
#281=ORIENTED_EDGE('',*,*,#280,.T.);
#282=EDGE_LOOP('',(#238,#247,#256,#265,#274,#281));
#283=FACE_OUTER_BOUND('',#282,.T.);
#284=ADVANCED_FACE('',(#283),#227,.T.);
#285=CARTESIAN_POINT('',(1.250000000000000,0.344491118252305,1.919510807276593));
#286=CARTESIAN_POINT('',(1.750000000000002,0.344491118252305,1.919510807276594));
#287=CARTESIAN_POINT('',(1.750000000000001,0.438982236504613,1.428520554245610));
#288=CARTESIAN_POINT('',(1.750000000000001,0.533473354756920,0.937530301214625));
#289=CARTESIAN_POINT('',(1.249999999999999,0.533473354756919,0.937530301214627));
#290=CARTESIAN_POINT('',(1.250000000000000,0.750000000000001,1.997551027955199));
#291=CARTESIAN_POINT('',(1.750000000000001,0.750000000000000,1.997551027955199));
#292=CARTESIAN_POINT('',(1.750000000000000,1.250000000000004,1.584600995602821));
#293=CARTESIAN_POINT('',(1.750000000000000,1.750000000000008,1.171650963250442));
#294=CARTESIAN_POINT('',(1.249999999999998,1.750000000000005,1.171650963250444));
#295=CARTESIAN_POINT('',(1.250000000000000,0.749999999999999,2.410501060307579));
#296=CARTESIAN_POINT('',(1.750000000000002,0.749999999999998,2.410501060307579));
#297=CARTESIAN_POINT('',(1.750000000000001,1.249999999999999,2.410501060307581));
#298=CARTESIAN_POINT('',(1.750000000000001,1.750000000000001,2.410501060307584));
#299=CARTESIAN_POINT('',(1.249999999999999,1.749999999999998,2.410501060307584));
#307=(BOUNDED_SURFACE()B_SPLINE_SURFACE(2,2,((#285,#290,#295),(#286,#291,#296),(#287,#292,#297),(#288,#293,#298),(#289,#294,#299)),.UNSPECIFIED.,.F.,.F.,.U.)B_SPLINE_SURFACE_WITH_KNOTS((3,2,3),(3,3),(-3.141592653589797,-1.570796326794897,3.502922E-015),(0.0,1.380670723448435),.UNSPECIFIED.)GEOMETRIC_REPRESENTATION_ITEM()RATIONAL_B_SPLINE_SURFACE(((1.0,0.771032501424100,1.0),(0.707106781186548,0.545202310272208,0.707106781186548),(1.0,0.771032501424100,1.0),(0.707106781186545,0.545202310272206,0.707106781186545),(1.0,0.771032501424100,1.0)))REPRESENTATION_ITEM('')SURFACE());
#308=CARTESIAN_POINT('',(1.250000000000001,1.749999999999999,2.410501060307577));
#309=VERTEX_POINT('',#308);
#310=CARTESIAN_POINT('',(1.250000000000000,0.999999999999999,1.111462954630918));
#311=VERTEX_POINT('',#310);
#312=CARTESIAN_POINT('',(1.250000000000002,0.249999999999998,2.410501060307576));
#313=DIRECTION('',(-1.0,0.0,0.0));
#314=DIRECTION('',(0.0,0.0,1.0));
#315=AXIS2_PLACEMENT_3D('',#312,#313,#314);
#316=CIRCLE('',#315,1.500000000000000);
#317=EDGE_CURVE('',#309,#311,#316,.T.);
#318=ORIENTED_EDGE('',*,*,#317,.F.);
#319=CARTESIAN_POINT('',(1.750000000000002,1.249999999999998,2.410501060307576));
#320=VERTEX_POINT('',#319);
#321=CARTESIAN_POINT('',(1.250000000000001,1.249999999999999,2.410501060307577));
#322=DIRECTION('',(0.0,0.0,1.0));
#323=DIRECTION('',(1.0,0.0,0.0));
#324=AXIS2_PLACEMENT_3D('',#321,#322,#323);
#325=CIRCLE('',#324,0.500000000000000);
#326=EDGE_CURVE('',#320,#309,#325,.T.);
#327=ORIENTED_EDGE('',*,*,#326,.F.);
#328=CARTESIAN_POINT('',(1.250000000000002,0.749999999999999,2.410501060307577));
#329=VERTEX_POINT('',#328);
#330=CARTESIAN_POINT('',(1.250000000000001,1.249999999999999,2.410501060307577));
#331=DIRECTION('',(0.0,0.0,1.0));
#332=DIRECTION('',(1.0,0.0,0.0));
#333=AXIS2_PLACEMENT_3D('',#330,#331,#332);
#334=CIRCLE('',#333,0.500000000000000);
#335=EDGE_CURVE('',#329,#320,#334,.T.);
#336=ORIENTED_EDGE('',*,*,#335,.F.);
#337=CARTESIAN_POINT('',(1.250000000000002,0.499999999999999,1.977488358415357));
#338=VERTEX_POINT('',#337);
#339=CARTESIAN_POINT('',(1.250000000000002,0.249999999999998,2.410501060307576));
#340=DIRECTION('',(-1.0,0.0,0.0));
#341=DIRECTION('',(0.0,0.0,1.0));
#342=AXIS2_PLACEMENT_3D('',#339,#340,#341);
#343=CIRCLE('',#342,0.500000000000000);
#344=EDGE_CURVE('',#329,#338,#343,.T.);
#345=ORIENTED_EDGE('',*,*,#344,.T.);
#346=CARTESIAN_POINT('',(1.750000000000002,0.749999999999999,1.544475656523138));
#347=VERTEX_POINT('',#346);
#348=CARTESIAN_POINT('',(1.250000000000001,0.749999999999999,1.544475656523138));
#349=DIRECTION('',(0.0,0.866025403784439,0.500000000000000));
#350=DIRECTION('',(1.0,0.0,0.0));
#351=AXIS2_PLACEMENT_3D('',#348,#349,#350);
#352=CIRCLE('',#351,0.500000000000000);
#353=EDGE_CURVE('',#338,#347,#352,.T.);
#354=ORIENTED_EDGE('',*,*,#353,.T.);
#355=CARTESIAN_POINT('',(1.250000000000001,0.749999999999999,1.544475656523138));
#356=DIRECTION('',(0.0,0.866025403784439,0.500000000000000));
#357=DIRECTION('',(1.0,0.0,0.0));
#358=AXIS2_PLACEMENT_3D('',#355,#356,#357);
#359=CIRCLE('',#358,0.500000000000000);
#360=EDGE_CURVE('',#347,#311,#359,.T.);
#361=ORIENTED_EDGE('',*,*,#360,.T.);
#362=EDGE_LOOP('',(#318,#327,#336,#345,#354,#361));
#363=FACE_OUTER_BOUND('',#362,.T.);
#364=ADVANCED_FACE('',(#363),#307,.T.);
#365=CARTESIAN_POINT('',(0.750000000000001,-7.707240E-016,-4.440892E-016));
#366=CARTESIAN_POINT('',(0.750000000000001,-7.807365E-016,0.534112685441294));
#367=CARTESIAN_POINT('',(0.750000000000001,0.499999999999999,-4.347162E-016));
#368=CARTESIAN_POINT('',(0.750000000000002,0.499999999999999,0.534112685441294));
#369=CARTESIAN_POINT('',(1.250000000000001,0.499999999999999,-8.788054E-016));
#370=CARTESIAN_POINT('',(1.250000000000002,0.499999999999999,0.534112685441294));
#371=CARTESIAN_POINT('',(1.750000000000001,0.499999999999999,-1.322895E-015));
#372=CARTESIAN_POINT('',(1.750000000000002,0.499999999999999,0.534112685441293));
#373=CARTESIAN_POINT('',(1.750000000000001,-1.015645E-015,-1.332268E-015));
#374=CARTESIAN_POINT('',(1.750000000000001,-1.025658E-015,0.534112685441293));
#375=CARTESIAN_POINT('',(1.750000000000000,-0.500000000000001,-1.341641E-015));
#376=CARTESIAN_POINT('',(1.750000000000001,-0.500000000000001,0.534112685441293));
#377=CARTESIAN_POINT('',(1.250000000000001,-0.500000000000001,-8.975514E-016));
#378=CARTESIAN_POINT('',(1.250000000000001,-0.500000000000001,0.534112685441294));
#379=CARTESIAN_POINT('',(0.750000000000001,-0.500000000000001,-4.534622E-016));
#380=CARTESIAN_POINT('',(0.750000000000001,-0.500000000000001,0.534112685441294));
#381=CARTESIAN_POINT('',(0.750000000000001,-7.707240E-016,-4.440892E-016));
#382=CARTESIAN_POINT('',(0.750000000000001,-7.807365E-016,0.534112685441294));
#390=(BOUNDED_SURFACE()B_SPLINE_SURFACE(1,2,((#365,#367,#369,#371,#373,#375,#377,#379,#381),(#366,#368,#370,#372,#374,#376,#378,#380,#382)),.UNSPECIFIED.,.F.,.T.,.U.)B_SPLINE_SURFACE_WITH_KNOTS((2,2),(3,2,2,2,3),(-8.881784E-016,1.068225370882588),(0.0,0.785398163397448,1.570796326794897,2.356194490192345,3.141592653589793),.UNSPECIFIED.)GEOMETRIC_REPRESENTATION_ITEM()RATIONAL_B_SPLINE_SURFACE(((1.0,0.707106781186548,1.0,0.707106781186548,1.0,0.707106781186548,1.0,0.707106781186548,1.0),(1.0,0.707106781186548,1.0,0.707106781186548,1.0,0.707106781186548,1.0,0.707106781186548,1.0)))REPRESENTATION_ITEM('')SURFACE());
#391=CARTESIAN_POINT('',(1.750000000000001,-9.644275E-016,0.534112685441292));
#392=VERTEX_POINT('',#391);
#393=CARTESIAN_POINT('',(1.750000000000001,-9.544150E-016,-4.440892E-016));
#394=VERTEX_POINT('',#393);
#395=CARTESIAN_POINT('',(1.750000000000001,-9.644275E-016,0.534112685441292));
#396=DIRECTION('',(0.0,0.0,-1.0));
#397=VECTOR('',#396,0.534112685441292);
#398=LINE('',#395,#397);
#399=EDGE_CURVE('',#392,#394,#398,.T.);
#400=ORIENTED_EDGE('',*,*,#399,.F.);
#401=CARTESIAN_POINT('',(1.250000000000001,-9.031971E-016,0.534112685441292));
#402=DIRECTION('',(0.0,0.0,1.0));
#403=DIRECTION('',(1.0,0.0,0.0));
#404=AXIS2_PLACEMENT_3D('',#401,#402,#403);
#405=CIRCLE('',#404,0.500000000000000);
#406=EDGE_CURVE('',#231,#392,#405,.T.);
#407=ORIENTED_EDGE('',*,*,#406,.F.);
#408=ORIENTED_EDGE('',*,*,#280,.F.);
#409=CARTESIAN_POINT('',(0.750000000000001,-7.707240E-016,4.440892E-016));
#410=VERTEX_POINT('',#409);
#411=CARTESIAN_POINT('',(0.750000000000001,-7.807365E-016,0.534112685441293));
#412=DIRECTION('',(0.0,0.0,-1.0));
#413=VECTOR('',#412,0.534112685441293);
#414=LINE('',#411,#413);
#415=EDGE_CURVE('',#267,#410,#414,.T.);
#416=ORIENTED_EDGE('',*,*,#415,.T.);
#417=CARTESIAN_POINT('',(1.250000000000001,-8.931847E-016,-4.440892E-016));
#418=DIRECTION('',(0.0,0.0,-1.0));
#419=DIRECTION('',(1.0,0.0,0.0));
#420=AXIS2_PLACEMENT_3D('',#417,#418,#419);
#421=CIRCLE('',#420,0.500000000000000);
#422=EDGE_CURVE('',#394,#410,#421,.T.);
#423=ORIENTED_EDGE('',*,*,#422,.F.);
#424=EDGE_LOOP('',(#400,#407,#408,#416,#423));
#425=FACE_OUTER_BOUND('',#424,.T.);
#426=ADVANCED_FACE('',(#425),#390,.T.);
#427=CARTESIAN_POINT('',(0.750000000000001,0.312499999999999,1.291884913752676));
#428=CARTESIAN_POINT('',(0.750000000000002,0.937500000000000,1.652728831996193));
#429=CARTESIAN_POINT('',(0.750000000000001,0.562499999999999,0.858872211860457));
#430=CARTESIAN_POINT('',(0.750000000000002,1.187500000000000,1.219716130103974));
#431=CARTESIAN_POINT('',(1.250000000000001,0.562499999999999,0.858872211860457));
#432=CARTESIAN_POINT('',(1.250000000000002,1.187500000000000,1.219716130103974));
#433=CARTESIAN_POINT('',(1.750000000000002,0.562499999999998,0.858872211860457));
#434=CARTESIAN_POINT('',(1.750000000000002,1.187499999999999,1.219716130103974));
#435=CARTESIAN_POINT('',(1.750000000000001,0.312499999999998,1.291884913752676));
#436=CARTESIAN_POINT('',(1.750000000000002,0.937500000000000,1.652728831996193));
#437=CARTESIAN_POINT('',(1.750000000000002,0.062499999999998,1.724897615644896));
#438=CARTESIAN_POINT('',(1.750000000000002,0.687500000000000,2.085741533888412));
#439=CARTESIAN_POINT('',(1.250000000000001,0.062499999999999,1.724897615644896));
#440=CARTESIAN_POINT('',(1.250000000000002,0.687500000000000,2.085741533888412));
#441=CARTESIAN_POINT('',(0.750000000000001,0.062499999999999,1.724897615644896));
#442=CARTESIAN_POINT('',(0.750000000000002,0.687500000000000,2.085741533888412));
#443=CARTESIAN_POINT('',(0.750000000000001,0.312499999999999,1.291884913752676));
#444=CARTESIAN_POINT('',(0.750000000000002,0.937500000000000,1.652728831996193));
#452=(BOUNDED_SURFACE()B_SPLINE_SURFACE(1,2,((#427,#429,#431,#433,#435,#437,#439,#441,#443),(#428,#430,#432,#434,#436,#438,#440,#442,#444)),.UNSPECIFIED.,.F.,.T.,.U.)B_SPLINE_SURFACE_WITH_KNOTS((2,2),(3,2,2,2,3),(-0.433012701892220,1.010362971081847),(0.0,0.785398163397448,1.570796326794897,2.356194490192345,3.141592653589793),.UNSPECIFIED.)GEOMETRIC_REPRESENTATION_ITEM()RATIONAL_B_SPLINE_SURFACE(((1.0,0.707106781186548,1.0,0.707106781186548,1.0,0.707106781186548,1.0,0.707106781186548,1.0),(1.0,0.707106781186548,1.0,0.707106781186548,1.0,0.707106781186548,1.0,0.707106781186548,1.0)))REPRESENTATION_ITEM('')SURFACE());
#453=CARTESIAN_POINT('',(1.750000000000002,0.499999999999999,1.400138089225732));
#454=VERTEX_POINT('',#453);
#455=CARTESIAN_POINT('',(1.750000000000001,0.749999999999999,1.544475656523138));
#456=DIRECTION('',(0.0,-0.866025403784439,-0.500000000000000));
#457=VECTOR('',#456,0.288675134594813);
#458=LINE('',#455,#457);
#459=EDGE_CURVE('',#347,#454,#458,.T.);
#460=ORIENTED_EDGE('',*,*,#459,.F.);
#461=ORIENTED_EDGE('',*,*,#353,.F.);
#462=CARTESIAN_POINT('',(0.750000000000001,0.750000000000000,1.544475656523138));
#463=VERTEX_POINT('',#462);
#464=CARTESIAN_POINT('',(1.250000000000001,0.749999999999999,1.544475656523138));
#465=DIRECTION('',(0.0,0.866025403784439,0.500000000000000));
#466=DIRECTION('',(1.0,0.0,0.0));
#467=AXIS2_PLACEMENT_3D('',#464,#465,#466);
#468=CIRCLE('',#467,0.500000000000000);
#469=EDGE_CURVE('',#463,#338,#468,.T.);
#470=ORIENTED_EDGE('',*,*,#469,.F.);
#471=CARTESIAN_POINT('',(0.750000000000001,0.750000000000000,1.544475656523138));
#472=DIRECTION('',(-3.845925E-016,-0.866025403784439,-0.500000000000000));
#473=VECTOR('',#472,0.288675134594813);
#474=LINE('',#471,#473);
#475=EDGE_CURVE('',#463,#240,#474,.T.);
#476=ORIENTED_EDGE('',*,*,#475,.T.);
#477=ORIENTED_EDGE('',*,*,#246,.T.);
#478=CARTESIAN_POINT('',(1.250000000000001,0.499999999999999,1.400138089225731));
#479=DIRECTION('',(0.0,0.866025403784439,0.500000000000000));
#480=DIRECTION('',(1.0,0.0,0.0));
#481=AXIS2_PLACEMENT_3D('',#478,#479,#480);
#482=CIRCLE('',#481,0.500000000000000);
#483=EDGE_CURVE('',#229,#454,#482,.T.);
#484=ORIENTED_EDGE('',*,*,#483,.T.);
#485=EDGE_LOOP('',(#460,#461,#470,#476,#477,#484));
#486=FACE_OUTER_BOUND('',#485,.T.);
#487=ADVANCED_FACE('',(#486),#452,.T.);
#488=CARTESIAN_POINT('',(0.750000000000001,1.249999999999999,2.410501060307575));
#489=CARTESIAN_POINT('',(0.750000000000001,1.249999999999999,2.500000000000002));
#490=CARTESIAN_POINT('',(0.750000000000002,1.749999999999999,2.410501060307575));
#491=CARTESIAN_POINT('',(0.750000000000002,1.749999999999999,2.500000000000001));
#492=CARTESIAN_POINT('',(1.250000000000002,1.749999999999999,2.410501060307575));
#493=CARTESIAN_POINT('',(1.250000000000002,1.749999999999999,2.500000000000001));
#494=CARTESIAN_POINT('',(1.750000000000002,1.749999999999998,2.410501060307574));
#495=CARTESIAN_POINT('',(1.750000000000002,1.749999999999998,2.500000000000000));
#496=CARTESIAN_POINT('',(1.750000000000001,1.249999999999998,2.410501060307575));
#497=CARTESIAN_POINT('',(1.750000000000002,1.249999999999998,2.500000000000001));
#498=CARTESIAN_POINT('',(1.750000000000001,0.749999999999999,2.410501060307575));
#499=CARTESIAN_POINT('',(1.750000000000002,0.749999999999998,2.500000000000001));
#500=CARTESIAN_POINT('',(1.250000000000001,0.749999999999999,2.410501060307575));
#501=CARTESIAN_POINT('',(1.250000000000001,0.749999999999999,2.500000000000002));
#502=CARTESIAN_POINT('',(0.750000000000001,0.749999999999999,2.410501060307576));
#503=CARTESIAN_POINT('',(0.750000000000001,0.749999999999999,2.500000000000002));
#504=CARTESIAN_POINT('',(0.750000000000001,1.249999999999999,2.410501060307575));
#505=CARTESIAN_POINT('',(0.750000000000001,1.249999999999999,2.500000000000002));
#513=(BOUNDED_SURFACE()B_SPLINE_SURFACE(1,2,((#488,#490,#492,#494,#496,#498,#500,#502,#504),(#489,#491,#493,#495,#497,#499,#501,#503,#505)),.UNSPECIFIED.,.F.,.T.,.U.)B_SPLINE_SURFACE_WITH_KNOTS((2,2),(3,2,2,2,3),(-4.440892E-015,0.178997879384848),(0.0,0.785398163397448,1.570796326794897,2.356194490192345,3.141592653589793),.UNSPECIFIED.)GEOMETRIC_REPRESENTATION_ITEM()RATIONAL_B_SPLINE_SURFACE(((1.0,0.707106781186548,1.0,0.707106781186548,1.0,0.707106781186548,1.0,0.707106781186548,1.0),(1.0,0.707106781186548,1.0,0.707106781186548,1.0,0.707106781186548,1.0,0.707106781186548,1.0)))REPRESENTATION_ITEM('')SURFACE());
#514=CARTESIAN_POINT('',(1.750000000000002,1.249999999999999,2.500000000000000));
#515=VERTEX_POINT('',#514);
#516=CARTESIAN_POINT('',(1.750000000000002,1.249999999999999,2.500000000000000));
#517=DIRECTION('',(0.0,0.0,-1.0));
#518=VECTOR('',#517,0.089498939692424);
#519=LINE('',#516,#518);
#520=EDGE_CURVE('',#515,#320,#519,.T.);
#521=ORIENTED_EDGE('',*,*,#520,.F.);
#522=CARTESIAN_POINT('',(0.750000000000002,1.249999999999999,2.500000000000001));
#523=VERTEX_POINT('',#522);
#524=CARTESIAN_POINT('',(1.250000000000002,1.249999999999999,2.500000000000000));
#525=DIRECTION('',(0.0,0.0,1.0));
#526=DIRECTION('',(1.0,0.0,0.0));
#527=AXIS2_PLACEMENT_3D('',#524,#525,#526);
#528=CIRCLE('',#527,0.500000000000000);
#529=EDGE_CURVE('',#523,#515,#528,.T.);
#530=ORIENTED_EDGE('',*,*,#529,.F.);
#531=CARTESIAN_POINT('',(0.750000000000001,1.249999999999999,2.410501060307578));
#532=VERTEX_POINT('',#531);
#533=CARTESIAN_POINT('',(0.750000000000001,1.249999999999999,2.500000000000001));
#534=DIRECTION('',(0.0,0.0,-1.0));
#535=VECTOR('',#534,0.089498939692423);
#536=LINE('',#533,#535);
#537=EDGE_CURVE('',#523,#532,#536,.T.);
#538=ORIENTED_EDGE('',*,*,#537,.T.);
#539=CARTESIAN_POINT('',(1.250000000000001,1.249999999999999,2.410501060307577));
#540=DIRECTION('',(0.0,0.0,1.0));
#541=DIRECTION('',(1.0,0.0,0.0));
#542=AXIS2_PLACEMENT_3D('',#539,#540,#541);
#543=CIRCLE('',#542,0.500000000000000);
#544=EDGE_CURVE('',#532,#329,#543,.T.);
#545=ORIENTED_EDGE('',*,*,#544,.T.);
#546=ORIENTED_EDGE('',*,*,#335,.T.);
#547=EDGE_LOOP('',(#521,#530,#538,#545,#546));
#548=FACE_OUTER_BOUND('',#547,.T.);
#549=ADVANCED_FACE('',(#548),#513,.T.);
#550=CARTESIAN_POINT('',(1.250000000000002,1.249999999999999,2.500000000000000));
#551=DIRECTION('',(0.0,0.0,1.0));
#552=DIRECTION('',(1.0,0.0,0.0));
#553=AXIS2_PLACEMENT_3D('',#550,#551,#552);
#554=SPHERICAL_SURFACE('',#553,0.500000000000000);
#555=CARTESIAN_POINT('',(1.250000000000002,1.249999999999999,3.000000000000000));
#556=VERTEX_POINT('',#555);
#557=CARTESIAN_POINT('',(1.250000000000002,1.249999999999999,2.500000000000000));
#558=DIRECTION('',(0.0,1.0,0.0));
#559=DIRECTION('',(1.0,0.0,0.0));
#560=AXIS2_PLACEMENT_3D('',#557,#558,#559);
#561=CIRCLE('',#560,0.500000000000000);
#562=EDGE_CURVE('',#556,#515,#561,.T.);
#563=ORIENTED_EDGE('',*,*,#562,.F.);
#564=CARTESIAN_POINT('',(1.250000000000002,1.249999999999999,2.500000000000000));
#565=DIRECTION('',(0.0,-1.0,0.0));
#566=DIRECTION('',(-1.0,0.0,0.0));
#567=AXIS2_PLACEMENT_3D('',#564,#565,#566);
#568=CIRCLE('',#567,0.500000000000000);
#569=EDGE_CURVE('',#556,#523,#568,.T.);
#570=ORIENTED_EDGE('',*,*,#569,.T.);
#571=ORIENTED_EDGE('',*,*,#529,.T.);
#572=EDGE_LOOP('',(#563,#570,#571));
#573=FACE_OUTER_BOUND('',#572,.T.);
#574=ADVANCED_FACE('',(#573),#554,.T.);
#575=CARTESIAN_POINT('',(1.250000000000002,1.249999999999999,2.500000000000000));
#576=DIRECTION('',(0.0,0.0,1.0));
#577=DIRECTION('',(1.0,0.0,0.0));
#578=AXIS2_PLACEMENT_3D('',#575,#576,#577);
#579=SPHERICAL_SURFACE('',#578,0.500000000000000);
#580=ORIENTED_EDGE('',*,*,#562,.T.);
#581=CARTESIAN_POINT('',(1.250000000000002,1.249999999999999,2.500000000000000));
#582=DIRECTION('',(0.0,0.0,1.0));
#583=DIRECTION('',(1.0,0.0,0.0));
#584=AXIS2_PLACEMENT_3D('',#581,#582,#583);
#585=CIRCLE('',#584,0.500000000000000);
#586=EDGE_CURVE('',#515,#523,#585,.T.);
#587=ORIENTED_EDGE('',*,*,#586,.T.);
#588=ORIENTED_EDGE('',*,*,#569,.F.);
#589=EDGE_LOOP('',(#580,#587,#588));
#590=FACE_OUTER_BOUND('',#589,.T.);
#591=ADVANCED_FACE('',(#590),#579,.T.);
#592=CARTESIAN_POINT('',(0.750000000000001,1.249999999999999,2.410501060307576));
#593=CARTESIAN_POINT('',(0.750000000000001,1.249999999999999,2.500000000000002));
#594=CARTESIAN_POINT('',(0.750000000000002,1.749999999999999,2.410501060307575));
#595=CARTESIAN_POINT('',(0.750000000000002,1.749999999999999,2.500000000000002));
#596=CARTESIAN_POINT('',(1.250000000000002,1.749999999999999,2.410501060307575));
#597=CARTESIAN_POINT('',(1.250000000000002,1.749999999999999,2.500000000000001));
#598=CARTESIAN_POINT('',(1.750000000000002,1.749999999999998,2.410501060307575));
#599=CARTESIAN_POINT('',(1.750000000000002,1.749999999999998,2.500000000000001));
#600=CARTESIAN_POINT('',(1.750000000000001,1.249999999999998,2.410501060307575));
#601=CARTESIAN_POINT('',(1.750000000000002,1.249999999999998,2.500000000000001));
#602=CARTESIAN_POINT('',(1.750000000000001,0.749999999999999,2.410501060307575));
#603=CARTESIAN_POINT('',(1.750000000000002,0.749999999999998,2.500000000000002));
#604=CARTESIAN_POINT('',(1.250000000000001,0.749999999999999,2.410501060307576));
#605=CARTESIAN_POINT('',(1.250000000000001,0.749999999999999,2.500000000000002));
#606=CARTESIAN_POINT('',(0.750000000000001,0.749999999999999,2.410501060307576));
#607=CARTESIAN_POINT('',(0.750000000000001,0.749999999999999,2.500000000000003));
#608=CARTESIAN_POINT('',(0.750000000000001,1.249999999999999,2.410501060307576));
#609=CARTESIAN_POINT('',(0.750000000000001,1.249999999999999,2.500000000000002));
#617=(BOUNDED_SURFACE()B_SPLINE_SURFACE(1,2,((#592,#594,#596,#598,#600,#602,#604,#606,#608),(#593,#595,#597,#599,#601,#603,#605,#607,#609)),.UNSPECIFIED.,.F.,.T.,.U.)B_SPLINE_SURFACE_WITH_KNOTS((2,2),(3,2,2,2,3),(-3.552714E-015,0.178997879384849),(0.0,0.785398163397448,1.570796326794897,2.356194490192345,3.141592653589793),.UNSPECIFIED.)GEOMETRIC_REPRESENTATION_ITEM()RATIONAL_B_SPLINE_SURFACE(((1.0,0.707106781186548,1.0,0.707106781186548,1.0,0.707106781186548,1.0,0.707106781186548,1.0),(1.0,0.707106781186548,1.0,0.707106781186548,1.0,0.707106781186548,1.0,0.707106781186548,1.0)))REPRESENTATION_ITEM('')SURFACE());
#618=ORIENTED_EDGE('',*,*,#520,.T.);
#619=ORIENTED_EDGE('',*,*,#326,.T.);
#620=CARTESIAN_POINT('',(1.250000000000001,1.249999999999999,2.410501060307577));
#621=DIRECTION('',(0.0,0.0,1.0));
#622=DIRECTION('',(1.0,0.0,0.0));
#623=AXIS2_PLACEMENT_3D('',#620,#621,#622);
#624=CIRCLE('',#623,0.500000000000000);
#625=EDGE_CURVE('',#309,#532,#624,.T.);
#626=ORIENTED_EDGE('',*,*,#625,.T.);
#627=ORIENTED_EDGE('',*,*,#537,.F.);
#628=ORIENTED_EDGE('',*,*,#586,.F.);
#629=EDGE_LOOP('',(#618,#619,#626,#627,#628));
#630=FACE_OUTER_BOUND('',#629,.T.);
#631=ADVANCED_FACE('',(#630),#617,.T.);
#632=CARTESIAN_POINT('',(1.250000000000003,0.533473354756919,0.937530301214627));
#633=CARTESIAN_POINT('',(0.750000000000001,0.533473354756919,0.937530301214625));
#634=CARTESIAN_POINT('',(0.750000000000002,0.438982236504612,1.428520554245610));
#635=CARTESIAN_POINT('',(0.750000000000002,0.344491118252304,1.919510807276596));
#636=CARTESIAN_POINT('',(1.250000000000004,0.344491118252305,1.919510807276593));
#637=CARTESIAN_POINT('',(1.250000000000002,1.750000000000008,1.171650963250445));
#638=CARTESIAN_POINT('',(0.750000000000000,1.750000000000010,1.171650963250443));
#639=CARTESIAN_POINT('',(0.750000000000001,1.250000000000004,1.584600995602822));
#640=CARTESIAN_POINT('',(0.750000000000002,0.749999999999999,1.997551027955201));
#641=CARTESIAN_POINT('',(1.250000000000004,0.750000000000002,1.997551027955199));
#642=CARTESIAN_POINT('',(1.250000000000004,1.749999999999999,2.410501060307587));
#643=CARTESIAN_POINT('',(0.750000000000001,1.750000000000001,2.410501060307588));
#644=CARTESIAN_POINT('',(0.750000000000002,1.249999999999999,2.410501060307584));
#645=CARTESIAN_POINT('',(0.750000000000002,0.749999999999996,2.410501060307580));
#646=CARTESIAN_POINT('',(1.250000000000004,0.749999999999999,2.410501060307580));
#654=(BOUNDED_SURFACE()B_SPLINE_SURFACE(2,2,((#632,#637,#642),(#633,#638,#643),(#634,#639,#644),(#635,#640,#645),(#636,#641,#646)),.UNSPECIFIED.,.F.,.F.,.U.)B_SPLINE_SURFACE_WITH_KNOTS((3,2,3),(3,3),(-4.826753E-015,1.570796326794897,3.141592653589798),(0.0,1.380670723448437),.UNSPECIFIED.)GEOMETRIC_REPRESENTATION_ITEM()RATIONAL_B_SPLINE_SURFACE(((1.0,0.771032501424099,1.0),(0.707106781186546,0.545202310272205,0.707106781186546),(1.0,0.771032501424099,1.0),(0.707106781186547,0.545202310272206,0.707106781186547),(1.0,0.771032501424099,1.0)))REPRESENTATION_ITEM('')SURFACE());
#655=ORIENTED_EDGE('',*,*,#317,.T.);
#656=CARTESIAN_POINT('',(1.250000000000001,0.749999999999999,1.544475656523138));
#657=DIRECTION('',(0.0,0.866025403784439,0.500000000000000));
#658=DIRECTION('',(1.0,0.0,0.0));
#659=AXIS2_PLACEMENT_3D('',#656,#657,#658);
#660=CIRCLE('',#659,0.500000000000000);
#661=EDGE_CURVE('',#311,#463,#660,.T.);
#662=ORIENTED_EDGE('',*,*,#661,.T.);
#663=ORIENTED_EDGE('',*,*,#469,.T.);
#664=ORIENTED_EDGE('',*,*,#344,.F.);
#665=ORIENTED_EDGE('',*,*,#544,.F.);
#666=ORIENTED_EDGE('',*,*,#625,.F.);
#667=EDGE_LOOP('',(#655,#662,#663,#664,#665,#666));
#668=FACE_OUTER_BOUND('',#667,.T.);
#669=ADVANCED_FACE('',(#668),#654,.T.);
#670=CARTESIAN_POINT('',(0.750000000000001,0.312499999999999,1.291884913752676));
#671=CARTESIAN_POINT('',(0.750000000000002,0.937500000000000,1.652728831996193));
#672=CARTESIAN_POINT('',(0.750000000000001,0.562499999999999,0.858872211860457));
#673=CARTESIAN_POINT('',(0.750000000000002,1.187499999999999,1.219716130103974));
#674=CARTESIAN_POINT('',(1.250000000000001,0.562499999999998,0.858872211860457));
#675=CARTESIAN_POINT('',(1.250000000000002,1.187499999999999,1.219716130103973));
#676=CARTESIAN_POINT('',(1.750000000000002,0.562499999999998,0.858872211860457));
#677=CARTESIAN_POINT('',(1.750000000000002,1.187499999999999,1.219716130103974));
#678=CARTESIAN_POINT('',(1.750000000000001,0.312499999999998,1.291884913752676));
#679=CARTESIAN_POINT('',(1.750000000000002,0.937499999999999,1.652728831996193));
#680=CARTESIAN_POINT('',(1.750000000000002,0.062499999999998,1.724897615644896));
#681=CARTESIAN_POINT('',(1.750000000000002,0.687499999999999,2.085741533888412));
#682=CARTESIAN_POINT('',(1.250000000000001,0.062499999999998,1.724897615644896));
#683=CARTESIAN_POINT('',(1.250000000000002,0.687499999999999,2.085741533888412));
#684=CARTESIAN_POINT('',(0.750000000000001,0.062499999999999,1.724897615644896));
#685=CARTESIAN_POINT('',(0.750000000000002,0.687500000000000,2.085741533888412));
#686=CARTESIAN_POINT('',(0.750000000000001,0.312499999999999,1.291884913752676));
#687=CARTESIAN_POINT('',(0.750000000000002,0.937500000000000,1.652728831996193));
#695=(BOUNDED_SURFACE()B_SPLINE_SURFACE(1,2,((#670,#672,#674,#676,#678,#680,#682,#684,#686),(#671,#673,#675,#677,#679,#681,#683,#685,#687)),.UNSPECIFIED.,.F.,.T.,.U.)B_SPLINE_SURFACE_WITH_KNOTS((2,2),(3,2,2,2,3),(-0.433012701892221,1.010362971081846),(0.0,0.785398163397448,1.570796326794897,2.356194490192345,3.141592653589793),.UNSPECIFIED.)GEOMETRIC_REPRESENTATION_ITEM()RATIONAL_B_SPLINE_SURFACE(((1.0,0.707106781186548,1.0,0.707106781186548,1.0,0.707106781186548,1.0,0.707106781186548,1.0),(1.0,0.707106781186548,1.0,0.707106781186548,1.0,0.707106781186548,1.0,0.707106781186548,1.0)))REPRESENTATION_ITEM('')SURFACE());
#696=ORIENTED_EDGE('',*,*,#459,.T.);
#697=CARTESIAN_POINT('',(1.250000000000001,0.499999999999999,1.400138089225731));
#698=DIRECTION('',(0.0,0.866025403784439,0.500000000000000));
#699=DIRECTION('',(1.0,0.0,0.0));
#700=AXIS2_PLACEMENT_3D('',#697,#698,#699);
#701=CIRCLE('',#700,0.500000000000000);
#702=EDGE_CURVE('',#454,#249,#701,.T.);
#703=ORIENTED_EDGE('',*,*,#702,.T.);
#704=ORIENTED_EDGE('',*,*,#255,.T.);
#705=ORIENTED_EDGE('',*,*,#475,.F.);
#706=ORIENTED_EDGE('',*,*,#661,.F.);
#707=ORIENTED_EDGE('',*,*,#360,.F.);
#708=EDGE_LOOP('',(#696,#703,#704,#705,#706,#707));
#709=FACE_OUTER_BOUND('',#708,.T.);
#710=ADVANCED_FACE('',(#709),#695,.T.);
#711=CARTESIAN_POINT('',(1.250000000000000,-0.500000000000001,0.534112685441288));
#712=CARTESIAN_POINT('',(1.750000000000002,-0.500000000000003,0.534112685441288));
#713=CARTESIAN_POINT('',(1.750000000000002,-4.440892E-016,0.534112685441289));
#714=CARTESIAN_POINT('',(1.750000000000001,0.500000000000002,0.534112685441291));
#715=CARTESIAN_POINT('',(1.249999999999999,0.499999999999999,0.534112685441291));
#716=CARTESIAN_POINT('',(1.250000000000001,-0.500000000000004,1.772962782498426));
#717=CARTESIAN_POINT('',(1.750000000000003,-0.500000000000006,1.772962782498427));
#718=CARTESIAN_POINT('',(1.750000000000002,-2.775558E-015,1.360012750146048));
#719=CARTESIAN_POINT('',(1.750000000000002,0.500000000000001,0.947062717793668));
#720=CARTESIAN_POINT('',(1.249999999999999,0.499999999999998,0.947062717793670));
#721=CARTESIAN_POINT('',(1.250000000000000,0.716526645243078,2.007083444534241));
#722=CARTESIAN_POINT('',(1.750000000000002,0.716526645243078,2.007083444534243));
#723=CARTESIAN_POINT('',(1.750000000000002,0.811017763495386,1.516093191503258));
#724=CARTESIAN_POINT('',(1.750000000000001,0.905508881747693,1.025102938472273));
#725=CARTESIAN_POINT('',(1.249999999999999,0.905508881747692,1.025102938472276));
#733=(BOUNDED_SURFACE()B_SPLINE_SURFACE(2,2,((#711,#716,#721),(#712,#717,#722),(#713,#718,#723),(#714,#719,#724),(#715,#720,#725)),.UNSPECIFIED.,.F.,.F.,.U.)B_SPLINE_SURFACE_WITH_KNOTS((3,2,3),(3,3),(-4.382664E-015,1.570796326794897,3.141592653589798),(0.0,1.380670723448432),.UNSPECIFIED.)GEOMETRIC_REPRESENTATION_ITEM()RATIONAL_B_SPLINE_SURFACE(((1.0,0.771032501424101,1.0),(0.707106781186546,0.545202310272207,0.707106781186546),(1.0,0.771032501424101,1.0),(0.707106781186546,0.545202310272207,0.707106781186546),(1.0,0.771032501424101,1.0)))REPRESENTATION_ITEM('')SURFACE());
#734=ORIENTED_EDGE('',*,*,#237,.T.);
#735=ORIENTED_EDGE('',*,*,#406,.T.);
#736=CARTESIAN_POINT('',(1.250000000000001,-9.031971E-016,0.534112685441292));
#737=DIRECTION('',(0.0,0.0,1.0));
#738=DIRECTION('',(1.0,0.0,0.0));
#739=AXIS2_PLACEMENT_3D('',#736,#737,#738);
#740=CIRCLE('',#739,0.500000000000000);
#741=EDGE_CURVE('',#392,#258,#740,.T.);
#742=ORIENTED_EDGE('',*,*,#741,.T.);
#743=ORIENTED_EDGE('',*,*,#264,.F.);
#744=ORIENTED_EDGE('',*,*,#702,.F.);
#745=ORIENTED_EDGE('',*,*,#483,.F.);
#746=EDGE_LOOP('',(#734,#735,#742,#743,#744,#745));
#747=FACE_OUTER_BOUND('',#746,.T.);
#748=ADVANCED_FACE('',(#747),#733,.T.);
#749=CARTESIAN_POINT('',(0.750000000000001,-7.707240E-016,-4.534622E-016));
#750=CARTESIAN_POINT('',(0.750000000000001,-7.807365E-016,0.534112685441294));
#751=CARTESIAN_POINT('',(0.750000000000001,0.499999999999999,-4.440892E-016));
#752=CARTESIAN_POINT('',(0.750000000000002,0.499999999999999,0.534112685441294));
#753=CARTESIAN_POINT('',(1.250000000000001,0.499999999999999,-8.881784E-016));
#754=CARTESIAN_POINT('',(1.250000000000002,0.499999999999999,0.534112685441294));
#755=CARTESIAN_POINT('',(1.750000000000001,0.499999999999999,-1.332268E-015));
#756=CARTESIAN_POINT('',(1.750000000000002,0.499999999999999,0.534112685441293));
#757=CARTESIAN_POINT('',(1.750000000000001,-1.015645E-015,-1.341641E-015));
#758=CARTESIAN_POINT('',(1.750000000000001,-1.025658E-015,0.534112685441293));
#759=CARTESIAN_POINT('',(1.750000000000000,-0.500000000000001,-1.351014E-015));
#760=CARTESIAN_POINT('',(1.750000000000001,-0.500000000000001,0.534112685441293));
#761=CARTESIAN_POINT('',(1.250000000000001,-0.500000000000001,-9.069244E-016));
#762=CARTESIAN_POINT('',(1.250000000000001,-0.500000000000001,0.534112685441294));
#763=CARTESIAN_POINT('',(0.750000000000001,-0.500000000000001,-4.628352E-016));
#764=CARTESIAN_POINT('',(0.750000000000001,-0.500000000000001,0.534112685441294));
#765=CARTESIAN_POINT('',(0.750000000000001,-7.707240E-016,-4.534622E-016));
#766=CARTESIAN_POINT('',(0.750000000000001,-7.807365E-016,0.534112685441294));
#774=(BOUNDED_SURFACE()B_SPLINE_SURFACE(1,2,((#749,#751,#753,#755,#757,#759,#761,#763,#765),(#750,#752,#754,#756,#758,#760,#762,#764,#766)),.UNSPECIFIED.,.F.,.T.,.U.)B_SPLINE_SURFACE_WITH_KNOTS((2,2),(3,2,2,2,3),(-9.069244E-016,1.068225370882588),(0.0,0.785398163397448,1.570796326794897,2.356194490192345,3.141592653589793),.UNSPECIFIED.)GEOMETRIC_REPRESENTATION_ITEM()RATIONAL_B_SPLINE_SURFACE(((1.0,0.707106781186548,1.0,0.707106781186548,1.0,0.707106781186548,1.0,0.707106781186548,1.0),(1.0,0.707106781186548,1.0,0.707106781186548,1.0,0.707106781186548,1.0,0.707106781186548,1.0)))REPRESENTATION_ITEM('')SURFACE());
#775=ORIENTED_EDGE('',*,*,#399,.T.);
#776=CARTESIAN_POINT('',(1.250000000000001,-8.931847E-016,-4.440892E-016));
#777=DIRECTION('',(0.0,0.0,-1.0));
#778=DIRECTION('',(1.0,0.0,0.0));
#779=AXIS2_PLACEMENT_3D('',#776,#777,#778);
#780=CIRCLE('',#779,0.500000000000000);
#781=EDGE_CURVE('',#410,#394,#780,.T.);
#782=ORIENTED_EDGE('',*,*,#781,.F.);
#783=ORIENTED_EDGE('',*,*,#415,.F.);
#784=ORIENTED_EDGE('',*,*,#273,.F.);
#785=ORIENTED_EDGE('',*,*,#741,.F.);
#786=EDGE_LOOP('',(#775,#782,#783,#784,#785));
#787=FACE_OUTER_BOUND('',#786,.T.);
#788=ADVANCED_FACE('',(#787),#774,.T.);
#789=CARTESIAN_POINT('',(0.750000000000001,-0.500000000000001,-4.440892E-016));
#790=CARTESIAN_POINT('',(1.750000000000001,-0.500000000000001,-4.440892E-016));
#791=CARTESIAN_POINT('',(0.750000000000001,0.499999999999999,-4.440892E-016));
#792=CARTESIAN_POINT('',(1.750000000000001,0.499999999999999,-4.440892E-016));
#793=QUASI_UNIFORM_SURFACE('',1,1,((#789,#791),(#790,#792)),.UNSPECIFIED.,.F.,.F.,.U.);
#794=ORIENTED_EDGE('',*,*,#422,.T.);
#795=ORIENTED_EDGE('',*,*,#781,.T.);
#796=EDGE_LOOP('',(#794,#795));
#797=FACE_OUTER_BOUND('',#796,.T.);
#798=ADVANCED_FACE('',(#797),#793,.F.);
#799=CLOSED_SHELL('',(#284,#364,#426,#487,#549,#574,#591,#631,#669,#710,#748,#788,#798));
#800=MANIFOLD_SOLID_BREP('8C1',#799);
#801=COLOUR_RGB('36',0.300000000000000,0.150000000000000,0.0);
#802=SURFACE_STYLE_USAGE(.BOTH.,#803);
#803=SURFACE_SIDE_STYLE('NONE',(#804));
#804=SURFACE_STYLE_FILL_AREA(#805);
#805=FILL_AREA_STYLE('NONE',(#806));
#806=FILL_AREA_STYLE_COLOUR('NONE',#801);
#807=PRESENTATION_STYLE_ASSIGNMENT((#802));
#808=STYLED_ITEM('NONE',(#807),#800);
#809=CARTESIAN_POINT('',(4.440892E-016,0.000790569256929,4.000000249999925));
#810=CARTESIAN_POINT('',(4.441860E-016,1.250395097168042,4.000790569296456));
#811=CARTESIAN_POINT('',(5.972134E-016,1.249999937500018,5.250395284648229));
#812=CARTESIAN_POINT('',(7.502408E-016,1.249604777831994,6.500000000000000));
#813=CARTESIAN_POINT('',(7.502408E-016,9.992007E-016,6.500000000000000));
#814=CARTESIAN_POINT('',(7.502408E-016,-1.249604777831992,6.500000000000000));
#815=CARTESIAN_POINT('',(5.972134E-016,-1.249999937500017,5.250395284648229));
#816=CARTESIAN_POINT('',(4.441860E-016,-1.250395097168041,4.000790569296457));
#817=CARTESIAN_POINT('',(4.440892E-016,-0.000790569256928,4.000000249999925));
#818=CARTESIAN_POINT('',(0.000000249999925,0.000790569256929,4.000000249999925));
#819=CARTESIAN_POINT('',(0.000790569296456,1.250395097168042,4.000790569296456));
#820=CARTESIAN_POINT('',(1.250395284648230,1.249999937500018,5.250395284648229));
#821=CARTESIAN_POINT('',(2.500000000000001,1.249604777831994,6.499999999999999));
#822=CARTESIAN_POINT('',(2.500000000000000,9.992007E-016,6.499999999999999));
#823=CARTESIAN_POINT('',(2.500000000000000,-1.249604777831992,6.499999999999999));
#824=CARTESIAN_POINT('',(1.250395284648229,-1.249999937500017,5.250395284648229));
#825=CARTESIAN_POINT('',(0.000790569296457,-1.250395097168041,4.000790569296457));
#826=CARTESIAN_POINT('',(0.000000249999925,-0.000790569256928,4.000000249999925));
#827=CARTESIAN_POINT('',(0.000000249999925,0.000790569256929,4.0));
#828=CARTESIAN_POINT('',(0.000790569296456,1.250395097168042,4.000000000000000));
#829=CARTESIAN_POINT('',(1.250395284648230,1.249999937500018,4.000000000000000));
#830=CARTESIAN_POINT('',(2.500000000000001,1.249604777831994,4.000000000000000));
#831=CARTESIAN_POINT('',(2.500000000000000,4.440892E-016,4.000000000000000));
#832=CARTESIAN_POINT('',(2.500000000000000,-1.249604777831993,4.000000000000000));
#833=CARTESIAN_POINT('',(1.250395284648229,-1.249999937500017,4.0));
#834=CARTESIAN_POINT('',(0.000790569296457,-1.250395097168041,4.0));
#835=CARTESIAN_POINT('',(0.000000249999925,-0.000790569256928,4.0));
#836=CARTESIAN_POINT('',(0.000000249999925,0.000790569256929,3.999999750000075));
#837=CARTESIAN_POINT('',(0.000790569296456,1.250395097168042,3.999209430703544));
#838=CARTESIAN_POINT('',(1.250395284648229,1.249999937500018,2.749604715351770));
#839=CARTESIAN_POINT('',(2.500000000000000,1.249604777831993,1.499999999999999));
#840=CARTESIAN_POINT('',(2.500000000000000,-1.110223E-016,1.500000000000000));
#841=CARTESIAN_POINT('',(2.500000000000000,-1.249604777831993,1.500000000000000));
#842=CARTESIAN_POINT('',(1.250395284648229,-1.249999937500017,2.749604715351771));
#843=CARTESIAN_POINT('',(0.000790569296457,-1.250395097168041,3.999209430703544));
#844=CARTESIAN_POINT('',(0.000000249999925,-0.000790569256928,3.999999750000075));
#845=CARTESIAN_POINT('',(4.440892E-016,0.000790569256929,3.999999750000075));
#846=CARTESIAN_POINT('',(4.439924E-016,1.250395097168042,3.999209430703543));
#847=CARTESIAN_POINT('',(2.909650E-016,1.249999937500018,2.749604715351770));
#848=CARTESIAN_POINT('',(1.379376E-016,1.249604777831993,1.499999999999999));
#849=CARTESIAN_POINT('',(1.379376E-016,-1.110223E-016,1.500000000000000));
#850=CARTESIAN_POINT('',(1.379376E-016,-1.249604777831993,1.500000000000000));
#851=CARTESIAN_POINT('',(2.909650E-016,-1.249999937500017,2.749604715351771));
#852=CARTESIAN_POINT('',(4.439924E-016,-1.250395097168041,3.999209430703543));
#853=CARTESIAN_POINT('',(4.440892E-016,-0.000790569256928,3.999999750000075));
#854=CARTESIAN_POINT('',(-0.000000249999924,0.000790569256929,3.999999750000075));
#855=CARTESIAN_POINT('',(-0.000790569296456,1.250395097168042,3.999209430703544));
#856=CARTESIAN_POINT('',(-1.250395284648229,1.249999937500018,2.749604715351770));
#857=CARTESIAN_POINT('',(-2.500000000000000,1.249604777831993,1.500000000000000));
#858=CARTESIAN_POINT('',(-2.500000000000000,-1.110223E-016,1.500000000000000));
#859=CARTESIAN_POINT('',(-2.500000000000000,-1.249604777831993,1.500000000000000));
#860=CARTESIAN_POINT('',(-1.250395284648228,-1.249999937500017,2.749604715351771));
#861=CARTESIAN_POINT('',(-0.000790569296456,-1.250395097168041,3.999209430703544));
#862=CARTESIAN_POINT('',(-0.000000249999924,-0.000790569256928,3.999999750000075));
#863=CARTESIAN_POINT('',(-0.000000249999924,0.000790569256929,4.0));
#864=CARTESIAN_POINT('',(-0.000790569296456,1.250395097168042,4.000000000000000));
#865=CARTESIAN_POINT('',(-1.250395284648229,1.249999937500018,4.000000000000000));
#866=CARTESIAN_POINT('',(-2.500000000000000,1.249604777831994,4.0));
#867=CARTESIAN_POINT('',(-2.500000000000000,4.440892E-016,4.0));
#868=CARTESIAN_POINT('',(-2.500000000000000,-1.249604777831993,4.0));
#869=CARTESIAN_POINT('',(-1.250395284648228,-1.249999937500017,4.0));
#870=CARTESIAN_POINT('',(-0.000790569296456,-1.250395097168041,4.0));
#871=CARTESIAN_POINT('',(-0.000000249999924,-0.000790569256928,4.0));
#872=CARTESIAN_POINT('',(-0.000000249999924,0.000790569256929,4.000000249999925));
#873=CARTESIAN_POINT('',(-0.000790569296456,1.250395097168042,4.000790569296456));
#874=CARTESIAN_POINT('',(-1.250395284648228,1.249999937500018,5.250395284648229));
#875=CARTESIAN_POINT('',(-2.499999999999999,1.249604777831994,6.500000000000000));
#876=CARTESIAN_POINT('',(-2.499999999999999,9.992007E-016,6.500000000000001));
#877=CARTESIAN_POINT('',(-2.499999999999999,-1.249604777831992,6.500000000000000));
#878=CARTESIAN_POINT('',(-1.250395284648228,-1.249999937500017,5.250395284648229));
#879=CARTESIAN_POINT('',(-0.000790569296456,-1.250395097168041,4.000790569296457));
#880=CARTESIAN_POINT('',(-0.000000249999924,-0.000790569256928,4.000000249999925));
#881=CARTESIAN_POINT('',(4.440892E-016,0.000790569256929,4.000000249999925));
#882=CARTESIAN_POINT('',(4.441860E-016,1.250395097168042,4.000790569296456));
#883=CARTESIAN_POINT('',(5.972134E-016,1.249999937500018,5.250395284648229));
#884=CARTESIAN_POINT('',(7.502408E-016,1.249604777831994,6.500000000000000));
#885=CARTESIAN_POINT('',(7.502408E-016,9.992007E-016,6.500000000000000));
#886=CARTESIAN_POINT('',(7.502408E-016,-1.249604777831992,6.500000000000000));
#887=CARTESIAN_POINT('',(5.972134E-016,-1.249999937500017,5.250395284648229));
#888=CARTESIAN_POINT('',(4.441860E-016,-1.250395097168041,4.000790569296457));
#889=CARTESIAN_POINT('',(4.440892E-016,-0.000790569256928,4.000000249999925));
#897=(BOUNDED_SURFACE()B_SPLINE_SURFACE(2,2,((#809,#818,#827,#836,#845,#854,#863,#872,#881),(#810,#819,#828,#837,#846,#855,#864,#873,#882),(#811,#820,#829,#838,#847,#856,#865,#874,#883),(#812,#821,#830,#839,#848,#857,#866,#875,#884),(#813,#822,#831,#840,#849,#858,#867,#876,#885),(#814,#823,#832,#841,#850,#859,#868,#877,#886),(#815,#824,#833,#842,#851,#860,#869,#878,#887),(#816,#825,#834,#843,#852,#861,#870,#879,#888),(#817,#826,#835,#844,#853,#862,#871,#880,#889)),.UNSPECIFIED.,.F.,.T.,.U.)B_SPLINE_SURFACE_WITH_KNOTS((3,2,2,2,3),(3,2,2,2,3),(-3.140960198142087,-1.570480099071043,0.0,1.570480099071043,3.140960198142087),(0.0,1.570796326794897,3.141592653589793,4.712388980384690,6.283185307179586),.UNSPECIFIED.)GEOMETRIC_REPRESENTATION_ITEM()RATIONAL_B_SPLINE_SURFACE(((1.0,0.707106781186548,1.0,0.707106781186548,1.0,0.707106781186548,1.0,0.707106781186548,1.0),(0.707218575731217,0.500079050680636,0.707218575731217,0.500079050680636,0.707218575731217,0.500079050680636,0.707218575731217,0.500079050680636,0.707218575731217),(1.0,0.707106781186548,1.0,0.707106781186548,1.0,0.707106781186548,1.0,0.707106781186548,1.0),(0.707218575731216,0.500079050680635,0.707218575731216,0.500079050680635,0.707218575731216,0.500079050680635,0.707218575731216,0.500079050680635,0.707218575731216),(1.0,0.707106781186548,1.0,0.707106781186548,1.0,0.707106781186548,1.0,0.707106781186548,1.0),(0.707218575731218,0.500079050680636,0.707218575731218,0.500079050680636,0.707218575731218,0.500079050680636,0.707218575731218,0.500079050680636,0.707218575731218),(1.0,0.707106781186548,1.0,0.707106781186548,1.0,0.707106781186548,1.0,0.707106781186548,1.0),(0.707218575731216,0.500079050680635,0.707218575731216,0.500079050680635,0.707218575731216,0.500079050680635,0.707218575731216,0.500079050680635,0.707218575731216),(1.0,0.707106781186548,1.0,0.707106781186548,1.0,0.707106781186548,1.0,0.707106781186548,1.0)))REPRESENTATION_ITEM('')SURFACE());
#898=CARTESIAN_POINT('',(4.440892E-016,-1.250000000000000,2.750000000000000));
#899=VERTEX_POINT('',#898);
#900=CARTESIAN_POINT('',(4.440892E-016,1.250000000000000,2.750000000000000));
#901=VERTEX_POINT('',#900);
#902=CARTESIAN_POINT('',(4.440892E-016,1.665335E-016,2.750000000000000));
#903=DIRECTION('',(1.0,0.0,0.0));
#904=DIRECTION('',(0.0,0.0,-1.0));
#905=AXIS2_PLACEMENT_3D('',#902,#903,#904);
#906=CIRCLE('',#905,1.250000000000000);
#907=EDGE_CURVE('',#899,#901,#906,.T.);
#908=ORIENTED_EDGE('',*,*,#907,.F.);
#909=CARTESIAN_POINT('',(2.910134E-016,-1.250000000000000,5.250000000000000));
#910=VERTEX_POINT('',#909);
#911=CARTESIAN_POINT('',(4.440892E-016,-1.250000000000000,4.0));
#912=DIRECTION('',(0.0,1.0,0.0));
#913=DIRECTION('',(-1.0,0.0,0.0));
#914=AXIS2_PLACEMENT_3D('',#911,#912,#913);
#915=CIRCLE('',#914,1.250000000000000);
#916=EDGE_CURVE('',#899,#910,#915,.T.);
#917=ORIENTED_EDGE('',*,*,#916,.T.);
#918=CARTESIAN_POINT('',(2.910134E-016,1.250000000000000,5.250000000000000));
#919=VERTEX_POINT('',#918);
#920=CARTESIAN_POINT('',(2.910134E-016,7.216450E-016,5.250000000000000));
#921=DIRECTION('',(-1.0,0.0,0.0));
#922=DIRECTION('',(0.0,0.0,1.0));
#923=AXIS2_PLACEMENT_3D('',#920,#921,#922);
#924=CIRCLE('',#923,1.250000000000000);
#925=EDGE_CURVE('',#910,#919,#924,.T.);
#926=ORIENTED_EDGE('',*,*,#925,.T.);
#927=CARTESIAN_POINT('',(4.440892E-016,1.250000000000000,4.000000000000000));
#928=DIRECTION('',(0.0,-1.0,0.0));
#929=DIRECTION('',(-1.0,0.0,0.0));
#930=AXIS2_PLACEMENT_3D('',#927,#928,#929);
#931=CIRCLE('',#930,1.250000000000000);
#932=EDGE_CURVE('',#919,#901,#931,.T.);
#933=ORIENTED_EDGE('',*,*,#932,.T.);
#934=EDGE_LOOP('',(#908,#917,#926,#933));
#935=FACE_OUTER_BOUND('',#934,.T.);
#936=ADVANCED_FACE('',(#935),#897,.T.);
#937=CARTESIAN_POINT('',(4.440892E-016,-1.250000000000000,4.000000000000001));
#938=DIRECTION('',(0.0,-1.0,0.0));
#939=DIRECTION('',(0.0,0.0,-1.0));
#940=AXIS2_PLACEMENT_3D('',#937,#938,#939);
#941=PLANE('',#940);
#942=CARTESIAN_POINT('',(1.250000000000000,-1.250000000000000,4.000000000000000));
#943=VERTEX_POINT('',#942);
#944=CARTESIAN_POINT('',(4.440892E-016,-1.250000000000000,4.0));
#945=DIRECTION('',(0.0,1.0,0.0));
#946=DIRECTION('',(-1.0,0.0,0.0));
#947=AXIS2_PLACEMENT_3D('',#944,#945,#946);
#948=CIRCLE('',#947,1.250000000000000);
#949=EDGE_CURVE('',#943,#899,#948,.T.);
#950=ORIENTED_EDGE('',*,*,#949,.F.);
#951=CARTESIAN_POINT('',(4.440892E-016,-1.250000000000000,4.0));
#952=DIRECTION('',(0.0,1.0,0.0));
#953=DIRECTION('',(-1.0,0.0,0.0));
#954=AXIS2_PLACEMENT_3D('',#951,#952,#953);
#955=CIRCLE('',#954,1.250000000000000);
#956=EDGE_CURVE('',#910,#943,#955,.T.);
#957=ORIENTED_EDGE('',*,*,#956,.F.);
#958=ORIENTED_EDGE('',*,*,#916,.F.);
#959=EDGE_LOOP('',(#950,#957,#958));
#960=FACE_OUTER_BOUND('',#959,.T.);
#961=ADVANCED_FACE('',(#960),#941,.T.);
#962=CARTESIAN_POINT('',(4.440892E-016,0.000790569256929,4.000000249999925));
#963=CARTESIAN_POINT('',(4.441860E-016,1.250395097168042,4.000790569296456));
#964=CARTESIAN_POINT('',(5.972134E-016,1.249999937500018,5.250395284648229));
#965=CARTESIAN_POINT('',(7.502408E-016,1.249604777831994,6.500000000000000));
#966=CARTESIAN_POINT('',(7.502408E-016,9.992007E-016,6.500000000000000));
#967=CARTESIAN_POINT('',(7.502408E-016,-1.249604777831992,6.500000000000000));
#968=CARTESIAN_POINT('',(5.972134E-016,-1.249999937500017,5.250395284648229));
#969=CARTESIAN_POINT('',(4.441860E-016,-1.250395097168041,4.000790569296457));
#970=CARTESIAN_POINT('',(4.440892E-016,-0.000790569256928,4.000000249999925));
#971=CARTESIAN_POINT('',(0.000000249999925,0.000790569256929,4.000000249999925));
#972=CARTESIAN_POINT('',(0.000790569296456,1.250395097168042,4.000790569296456));
#973=CARTESIAN_POINT('',(1.250395284648230,1.249999937500018,5.250395284648229));
#974=CARTESIAN_POINT('',(2.500000000000001,1.249604777831994,6.499999999999999));
#975=CARTESIAN_POINT('',(2.500000000000000,9.992007E-016,6.499999999999999));
#976=CARTESIAN_POINT('',(2.500000000000000,-1.249604777831992,6.499999999999999));
#977=CARTESIAN_POINT('',(1.250395284648229,-1.249999937500017,5.250395284648229));
#978=CARTESIAN_POINT('',(0.000790569296457,-1.250395097168041,4.000790569296457));
#979=CARTESIAN_POINT('',(0.000000249999925,-0.000790569256928,4.000000249999925));
#980=CARTESIAN_POINT('',(0.000000249999925,0.000790569256929,4.0));
#981=CARTESIAN_POINT('',(0.000790569296456,1.250395097168042,4.000000000000000));
#982=CARTESIAN_POINT('',(1.250395284648230,1.249999937500018,4.000000000000000));
#983=CARTESIAN_POINT('',(2.500000000000001,1.249604777831994,4.000000000000000));
#984=CARTESIAN_POINT('',(2.500000000000000,4.440892E-016,4.000000000000000));
#985=CARTESIAN_POINT('',(2.500000000000000,-1.249604777831993,4.000000000000000));
#986=CARTESIAN_POINT('',(1.250395284648229,-1.249999937500017,4.0));
#987=CARTESIAN_POINT('',(0.000790569296457,-1.250395097168041,4.0));
#988=CARTESIAN_POINT('',(0.000000249999925,-0.000790569256928,4.0));
#989=CARTESIAN_POINT('',(0.000000249999925,0.000790569256929,3.999999750000075));
#990=CARTESIAN_POINT('',(0.000790569296456,1.250395097168042,3.999209430703544));
#991=CARTESIAN_POINT('',(1.250395284648229,1.249999937500018,2.749604715351770));
#992=CARTESIAN_POINT('',(2.500000000000000,1.249604777831993,1.499999999999999));
#993=CARTESIAN_POINT('',(2.500000000000000,-1.110223E-016,1.500000000000000));
#994=CARTESIAN_POINT('',(2.500000000000000,-1.249604777831993,1.500000000000000));
#995=CARTESIAN_POINT('',(1.250395284648229,-1.249999937500017,2.749604715351771));
#996=CARTESIAN_POINT('',(0.000790569296457,-1.250395097168041,3.999209430703544));
#997=CARTESIAN_POINT('',(0.000000249999925,-0.000790569256928,3.999999750000075));
#998=CARTESIAN_POINT('',(4.440892E-016,0.000790569256929,3.999999750000075));
#999=CARTESIAN_POINT('',(4.439924E-016,1.250395097168042,3.999209430703543));
#1000=CARTESIAN_POINT('',(2.909650E-016,1.249999937500018,2.749604715351770));
#1001=CARTESIAN_POINT('',(1.379376E-016,1.249604777831993,1.499999999999999));
#1002=CARTESIAN_POINT('',(1.379376E-016,-1.110223E-016,1.500000000000000));
#1003=CARTESIAN_POINT('',(1.379376E-016,-1.249604777831993,1.500000000000000));
#1004=CARTESIAN_POINT('',(2.909650E-016,-1.249999937500017,2.749604715351771));
#1005=CARTESIAN_POINT('',(4.439924E-016,-1.250395097168041,3.999209430703543));
#1006=CARTESIAN_POINT('',(4.440892E-016,-0.000790569256928,3.999999750000075));
#1007=CARTESIAN_POINT('',(-0.000000249999924,0.000790569256929,3.999999750000075));
#1008=CARTESIAN_POINT('',(-0.000790569296456,1.250395097168042,3.999209430703544));
#1009=CARTESIAN_POINT('',(-1.250395284648229,1.249999937500018,2.749604715351770));
#1010=CARTESIAN_POINT('',(-2.500000000000000,1.249604777831993,1.500000000000000));
#1011=CARTESIAN_POINT('',(-2.500000000000000,-1.110223E-016,1.500000000000000));
#1012=CARTESIAN_POINT('',(-2.500000000000000,-1.249604777831993,1.500000000000000));
#1013=CARTESIAN_POINT('',(-1.250395284648228,-1.249999937500017,2.749604715351771));
#1014=CARTESIAN_POINT('',(-0.000790569296456,-1.250395097168041,3.999209430703544));
#1015=CARTESIAN_POINT('',(-0.000000249999924,-0.000790569256928,3.999999750000075));
#1016=CARTESIAN_POINT('',(-0.000000249999924,0.000790569256929,4.0));
#1017=CARTESIAN_POINT('',(-0.000790569296456,1.250395097168042,4.000000000000000));
#1018=CARTESIAN_POINT('',(-1.250395284648229,1.249999937500018,4.000000000000000));
#1019=CARTESIAN_POINT('',(-2.500000000000000,1.249604777831994,4.0));
#1020=CARTESIAN_POINT('',(-2.500000000000000,4.440892E-016,4.0));
#1021=CARTESIAN_POINT('',(-2.500000000000000,-1.249604777831993,4.0));
#1022=CARTESIAN_POINT('',(-1.250395284648228,-1.249999937500017,4.0));
#1023=CARTESIAN_POINT('',(-0.000790569296456,-1.250395097168041,4.0));
#1024=CARTESIAN_POINT('',(-0.000000249999924,-0.000790569256928,4.0));
#1025=CARTESIAN_POINT('',(-0.000000249999924,0.000790569256929,4.000000249999925));
#1026=CARTESIAN_POINT('',(-0.000790569296456,1.250395097168042,4.000790569296456));
#1027=CARTESIAN_POINT('',(-1.250395284648228,1.249999937500018,5.250395284648229));
#1028=CARTESIAN_POINT('',(-2.499999999999999,1.249604777831994,6.500000000000000));
#1029=CARTESIAN_POINT('',(-2.499999999999999,9.992007E-016,6.500000000000001));
#1030=CARTESIAN_POINT('',(-2.499999999999999,-1.249604777831992,6.500000000000000));
#1031=CARTESIAN_POINT('',(-1.250395284648228,-1.249999937500017,5.250395284648229));
#1032=CARTESIAN_POINT('',(-0.000790569296456,-1.250395097168041,4.000790569296457));
#1033=CARTESIAN_POINT('',(-0.000000249999924,-0.000790569256928,4.000000249999925));
#1034=CARTESIAN_POINT('',(4.440892E-016,0.000790569256929,4.000000249999925));
#1035=CARTESIAN_POINT('',(4.441860E-016,1.250395097168042,4.000790569296456));
#1036=CARTESIAN_POINT('',(5.972134E-016,1.249999937500018,5.250395284648229));
#1037=CARTESIAN_POINT('',(7.502408E-016,1.249604777831994,6.500000000000000));
#1038=CARTESIAN_POINT('',(7.502408E-016,9.992007E-016,6.500000000000000));
#1039=CARTESIAN_POINT('',(7.502408E-016,-1.249604777831992,6.500000000000000));
#1040=CARTESIAN_POINT('',(5.972134E-016,-1.249999937500017,5.250395284648229));
#1041=CARTESIAN_POINT('',(4.441860E-016,-1.250395097168041,4.000790569296457));
#1042=CARTESIAN_POINT('',(4.440892E-016,-0.000790569256928,4.000000249999925));
#1050=(BOUNDED_SURFACE()B_SPLINE_SURFACE(2,2,((#962,#971,#980,#989,#998,#1007,#1016,#1025,#1034),(#963,#972,#981,#990,#999,#1008,#1017,#1026,#1035),(#964,#973,#982,#991,#1000,#1009,#1018,#1027,#1036),(#965,#974,#983,#992,#1001,#1010,#1019,#1028,#1037),(#966,#975,#984,#993,#1002,#1011,#1020,#1029,#1038),(#967,#976,#985,#994,#1003,#1012,#1021,#1030,#1039),(#968,#977,#986,#995,#1004,#1013,#1022,#1031,#1040),(#969,#978,#987,#996,#1005,#1014,#1023,#1032,#1041),(#970,#979,#988,#997,#1006,#1015,#1024,#1033,#1042)),.UNSPECIFIED.,.F.,.T.,.U.)B_SPLINE_SURFACE_WITH_KNOTS((3,2,2,2,3),(3,2,2,2,3),(-3.140960198142087,-1.570480099071043,0.0,1.570480099071043,3.140960198142087),(0.0,1.570796326794897,3.141592653589793,4.712388980384690,6.283185307179586),.UNSPECIFIED.)GEOMETRIC_REPRESENTATION_ITEM()RATIONAL_B_SPLINE_SURFACE(((1.0,0.707106781186548,1.0,0.707106781186548,1.0,0.707106781186548,1.0,0.707106781186548,1.0),(0.707218575731217,0.500079050680636,0.707218575731217,0.500079050680636,0.707218575731217,0.500079050680636,0.707218575731217,0.500079050680636,0.707218575731217),(1.0,0.707106781186548,1.0,0.707106781186548,1.0,0.707106781186548,1.0,0.707106781186548,1.0),(0.707218575731216,0.500079050680635,0.707218575731216,0.500079050680635,0.707218575731216,0.500079050680635,0.707218575731216,0.500079050680635,0.707218575731216),(1.0,0.707106781186548,1.0,0.707106781186548,1.0,0.707106781186548,1.0,0.707106781186548,1.0),(0.707218575731218,0.500079050680636,0.707218575731218,0.500079050680636,0.707218575731218,0.500079050680636,0.707218575731218,0.500079050680636,0.707218575731218),(1.0,0.707106781186548,1.0,0.707106781186548,1.0,0.707106781186548,1.0,0.707106781186548,1.0),(0.707218575731216,0.500079050680635,0.707218575731216,0.500079050680635,0.707218575731216,0.500079050680635,0.707218575731216,0.500079050680635,0.707218575731216),(1.0,0.707106781186548,1.0,0.707106781186548,1.0,0.707106781186548,1.0,0.707106781186548,1.0)))REPRESENTATION_ITEM('')SURFACE());
#1051=ORIENTED_EDGE('',*,*,#907,.T.);
#1052=CARTESIAN_POINT('',(1.250000000000000,1.250000000000000,4.000000000000000));
#1053=VERTEX_POINT('',#1052);
#1054=CARTESIAN_POINT('',(4.440892E-016,1.250000000000000,4.000000000000000));
#1055=DIRECTION('',(0.0,-1.0,0.0));
#1056=DIRECTION('',(-1.0,0.0,0.0));
#1057=AXIS2_PLACEMENT_3D('',#1054,#1055,#1056);
#1058=CIRCLE('',#1057,1.250000000000000);
#1059=EDGE_CURVE('',#901,#1053,#1058,.T.);
#1060=ORIENTED_EDGE('',*,*,#1059,.T.);
#1061=CARTESIAN_POINT('',(4.440892E-016,1.250000000000000,4.000000000000000));
#1062=DIRECTION('',(0.0,-1.0,0.0));
#1063=DIRECTION('',(-1.0,0.0,0.0));
#1064=AXIS2_PLACEMENT_3D('',#1061,#1062,#1063);
#1065=CIRCLE('',#1064,1.250000000000000);
#1066=EDGE_CURVE('',#1053,#919,#1065,.T.);
#1067=ORIENTED_EDGE('',*,*,#1066,.T.);
#1068=ORIENTED_EDGE('',*,*,#925,.F.);
#1069=ORIENTED_EDGE('',*,*,#956,.T.);
#1070=ORIENTED_EDGE('',*,*,#949,.T.);
#1071=EDGE_LOOP('',(#1051,#1060,#1067,#1068,#1069,#1070));
#1072=FACE_OUTER_BOUND('',#1071,.T.);
#1073=ADVANCED_FACE('',(#1072),#1050,.T.);
#1074=CARTESIAN_POINT('',(4.440892E-016,1.250000000000000,4.0));
#1075=DIRECTION('',(0.0,-1.0,0.0));
#1076=DIRECTION('',(0.0,0.0,-1.0));
#1077=AXIS2_PLACEMENT_3D('',#1074,#1075,#1076);
#1078=PLANE('',#1077);
#1079=ORIENTED_EDGE('',*,*,#1066,.F.);
#1080=ORIENTED_EDGE('',*,*,#1059,.F.);
#1081=ORIENTED_EDGE('',*,*,#932,.F.);
#1082=EDGE_LOOP('',(#1079,#1080,#1081));
#1083=FACE_OUTER_BOUND('',#1082,.T.);
#1084=ADVANCED_FACE('',(#1083),#1078,.F.);
#1085=CLOSED_SHELL('',(#936,#961,#1073,#1084));
#1086=MANIFOLD_SOLID_BREP('8BB',#1085);
#1087=STYLED_ITEM('NONE',(#807),#1086);
#1088=CARTESIAN_POINT('',(-1.249999999999999,8.931847E-016,0.267056342720646));
#1089=DIRECTION('',(0.0,0.0,-1.0));
#1090=DIRECTION('',(1.0,0.0,0.0));
#1091=AXIS2_PLACEMENT_3D('',#1088,#1089,#1090);
#1092=CYLINDRICAL_SURFACE('',#1091,0.300000000000000);
#1093=CARTESIAN_POINT('',(-0.949999999999999,8.931847E-016,-3.799999957279353));
#1094=VERTEX_POINT('',#1093);
#1095=CARTESIAN_POINT('',(-0.949999999999999,8.931847E-016,0.267056342720646));
#1096=VERTEX_POINT('',#1095);
#1097=CARTESIAN_POINT('',(-0.949999999999999,8.931847E-016,-3.799999957279353));
#1098=DIRECTION('',(0.0,0.0,1.0));
#1099=VECTOR('',#1098,4.067056299999999);
#1100=LINE('',#1097,#1099);
#1101=EDGE_CURVE('',#1094,#1096,#1100,.T.);
#1102=ORIENTED_EDGE('',*,*,#1101,.F.);
#1103=CARTESIAN_POINT('',(-1.549999999999999,9.299229E-016,-3.799999957279353));
#1104=VERTEX_POINT('',#1103);
#1105=CARTESIAN_POINT('',(-1.249999999999999,8.931847E-016,-3.799999957279353));
#1106=DIRECTION('',(0.0,0.0,1.0));
#1107=DIRECTION('',(1.0,0.0,0.0));
#1108=AXIS2_PLACEMENT_3D('',#1105,#1106,#1107);
#1109=CIRCLE('',#1108,0.300000000000000);
#1110=EDGE_CURVE('',#1094,#1104,#1109,.T.);
#1111=ORIENTED_EDGE('',*,*,#1110,.T.);
#1112=CARTESIAN_POINT('',(-1.549999999999999,9.299229E-016,0.267056342720646));
#1113=VERTEX_POINT('',#1112);
#1114=CARTESIAN_POINT('',(-1.549999999999999,9.299229E-016,-3.799999957279353));
#1115=DIRECTION('',(0.0,0.0,1.0));
#1116=VECTOR('',#1115,4.067056299999999);
#1117=LINE('',#1114,#1116);
#1118=EDGE_CURVE('',#1104,#1113,#1117,.T.);
#1119=ORIENTED_EDGE('',*,*,#1118,.T.);
#1120=CARTESIAN_POINT('',(-1.249999999999999,8.931847E-016,0.267056342720646));
#1121=DIRECTION('',(0.0,0.0,1.0));
#1122=DIRECTION('',(1.0,0.0,0.0));
#1123=AXIS2_PLACEMENT_3D('',#1120,#1121,#1122);
#1124=CIRCLE('',#1123,0.300000000000000);
#1125=EDGE_CURVE('',#1096,#1113,#1124,.T.);
#1126=ORIENTED_EDGE('',*,*,#1125,.F.);
#1127=EDGE_LOOP('',(#1102,#1111,#1119,#1126));
#1128=FACE_OUTER_BOUND('',#1127,.T.);
#1129=ADVANCED_FACE('',(#1128),#1092,.T.);
#1130=CARTESIAN_POINT('',(-1.249999999999999,8.931847E-016,0.267056342720646));
#1131=DIRECTION('',(0.0,0.0,-1.0));
#1132=DIRECTION('',(1.0,0.0,0.0));
#1133=AXIS2_PLACEMENT_3D('',#1130,#1131,#1132);
#1134=CYLINDRICAL_SURFACE('',#1133,0.300000000000000);
#1135=ORIENTED_EDGE('',*,*,#1101,.T.);
#1136=CARTESIAN_POINT('',(-1.249999999999999,8.931847E-016,0.267056342720646));
#1137=DIRECTION('',(0.0,0.0,1.0));
#1138=DIRECTION('',(1.0,0.0,0.0));
#1139=AXIS2_PLACEMENT_3D('',#1136,#1137,#1138);
#1140=CIRCLE('',#1139,0.300000000000000);
#1141=EDGE_CURVE('',#1113,#1096,#1140,.T.);
#1142=ORIENTED_EDGE('',*,*,#1141,.F.);
#1143=ORIENTED_EDGE('',*,*,#1118,.F.);
#1144=CARTESIAN_POINT('',(-1.249999999999999,8.931847E-016,-3.799999957279353));
#1145=DIRECTION('',(0.0,0.0,1.0));
#1146=DIRECTION('',(1.0,0.0,0.0));
#1147=AXIS2_PLACEMENT_3D('',#1144,#1145,#1146);
#1148=CIRCLE('',#1147,0.300000000000000);
#1149=EDGE_CURVE('',#1104,#1094,#1148,.T.);
#1150=ORIENTED_EDGE('',*,*,#1149,.T.);
#1151=EDGE_LOOP('',(#1135,#1142,#1143,#1150));
#1152=FACE_OUTER_BOUND('',#1151,.T.);
#1153=ADVANCED_FACE('',(#1152),#1134,.T.);
#1154=CARTESIAN_POINT('',(-1.249999999999999,8.931847E-016,-3.799999957279353));
#1155=DIRECTION('',(0.0,0.0,1.0));
#1156=DIRECTION('',(1.0,0.0,0.0));
#1157=AXIS2_PLACEMENT_3D('',#1154,#1155,#1156);
#1158=PLANE('',#1157);
#1159=ORIENTED_EDGE('',*,*,#1110,.F.);
#1160=ORIENTED_EDGE('',*,*,#1149,.F.);
#1161=EDGE_LOOP('',(#1159,#1160));
#1162=FACE_OUTER_BOUND('',#1161,.T.);
#1163=ADVANCED_FACE('',(#1162),#1158,.F.);
#1164=CARTESIAN_POINT('',(-1.249999999999999,8.931847E-016,0.267056342720646));
#1165=DIRECTION('',(0.0,0.0,1.0));
#1166=DIRECTION('',(1.0,0.0,0.0));
#1167=AXIS2_PLACEMENT_3D('',#1164,#1165,#1166);
#1168=PLANE('',#1167);
#1169=ORIENTED_EDGE('',*,*,#1125,.T.);
#1170=ORIENTED_EDGE('',*,*,#1141,.T.);
#1171=EDGE_LOOP('',(#1169,#1170));
#1172=FACE_OUTER_BOUND('',#1171,.T.);
#1173=ADVANCED_FACE('',(#1172),#1168,.T.);
#1174=CLOSED_SHELL('',(#1129,#1153,#1163,#1173));
#1175=MANIFOLD_SOLID_BREP('8B7',#1174);
#1176=STYLED_ITEM('NONE',(#201),#1175);
#1177=CARTESIAN_POINT('',(-1.250000000000000,-1.000000000000000,0.534112685441293));
#1178=DIRECTION('',(1.0,-1.110223E-015,-8.881784E-016));
#1179=DIRECTION('',(0.0,0.0,-1.0));
#1180=AXIS2_PLACEMENT_3D('',#1177,#1178,#1179);
#1181=TOROIDAL_SURFACE('',#1180,1.000000000000000,0.500000000000000);
#1182=CARTESIAN_POINT('',(-1.249999999999998,-0.249999999999999,1.833150791117951));
#1183=VERTEX_POINT('',#1182);
#1184=CARTESIAN_POINT('',(-1.249999999999998,0.500000000000001,0.534112685441292));
#1185=VERTEX_POINT('',#1184);
#1186=CARTESIAN_POINT('',(-1.250000000000000,-1.000000000000000,0.534112685441293));
#1187=DIRECTION('',(-1.0,0.0,0.0));
#1188=DIRECTION('',(0.0,0.0,-1.0));
#1189=AXIS2_PLACEMENT_3D('',#1186,#1187,#1188);
#1190=CIRCLE('',#1189,1.500000000000000);
#1191=EDGE_CURVE('',#1183,#1185,#1190,.T.);
#1192=ORIENTED_EDGE('',*,*,#1191,.F.);
#1193=CARTESIAN_POINT('',(-0.749999999999998,-0.499999999999999,1.400138089225732));
#1194=VERTEX_POINT('',#1193);
#1195=CARTESIAN_POINT('',(-1.249999999999999,-0.499999999999999,1.400138089225731));
#1196=DIRECTION('',(0.0,0.866025403784439,-0.500000000000000));
#1197=DIRECTION('',(1.0,0.0,0.0));
#1198=AXIS2_PLACEMENT_3D('',#1195,#1196,#1197);
#1199=CIRCLE('',#1198,0.500000000000000);
#1200=EDGE_CURVE('',#1183,#1194,#1199,.T.);
#1201=ORIENTED_EDGE('',*,*,#1200,.T.);
#1202=CARTESIAN_POINT('',(-1.249999999999999,-0.749999999999999,0.967125387333512));
#1203=VERTEX_POINT('',#1202);
#1204=CARTESIAN_POINT('',(-1.249999999999999,-0.499999999999999,1.400138089225731));
#1205=DIRECTION('',(0.0,0.866025403784439,-0.500000000000000));
#1206=DIRECTION('',(1.0,0.0,0.0));
#1207=AXIS2_PLACEMENT_3D('',#1204,#1205,#1206);
#1208=CIRCLE('',#1207,0.500000000000000);
#1209=EDGE_CURVE('',#1194,#1203,#1208,.T.);
#1210=ORIENTED_EDGE('',*,*,#1209,.T.);
#1211=CARTESIAN_POINT('',(-1.249999999999999,-0.499999999999999,0.534112685441292));
#1212=VERTEX_POINT('',#1211);
#1213=CARTESIAN_POINT('',(-1.250000000000000,-1.000000000000000,0.534112685441293));
#1214=DIRECTION('',(-1.0,0.0,0.0));
#1215=DIRECTION('',(0.0,0.0,-1.0));
#1216=AXIS2_PLACEMENT_3D('',#1213,#1214,#1215);
#1217=CIRCLE('',#1216,0.500000000000000);
#1218=EDGE_CURVE('',#1203,#1212,#1217,.T.);
#1219=ORIENTED_EDGE('',*,*,#1218,.T.);
#1220=CARTESIAN_POINT('',(-0.749999999999999,9.031971E-016,0.534112685441292));
#1221=VERTEX_POINT('',#1220);
#1222=CARTESIAN_POINT('',(-1.249999999999999,9.031971E-016,0.534112685441292));
#1223=DIRECTION('',(0.0,0.0,-1.0));
#1224=DIRECTION('',(1.0,0.0,0.0));
#1225=AXIS2_PLACEMENT_3D('',#1222,#1223,#1224);
#1226=CIRCLE('',#1225,0.500000000000000);
#1227=EDGE_CURVE('',#1221,#1212,#1226,.T.);
#1228=ORIENTED_EDGE('',*,*,#1227,.F.);
#1229=CARTESIAN_POINT('',(-1.249999999999999,9.031971E-016,0.534112685441292));
#1230=DIRECTION('',(0.0,0.0,-1.0));
#1231=DIRECTION('',(1.0,0.0,0.0));
#1232=AXIS2_PLACEMENT_3D('',#1229,#1230,#1231);
#1233=CIRCLE('',#1232,0.500000000000000);
#1234=EDGE_CURVE('',#1185,#1221,#1233,.T.);
#1235=ORIENTED_EDGE('',*,*,#1234,.F.);
#1236=EDGE_LOOP('',(#1192,#1201,#1210,#1219,#1228,#1235));
#1237=FACE_OUTER_BOUND('',#1236,.T.);
#1238=ADVANCED_FACE('',(#1237),#1181,.T.);
#1239=CARTESIAN_POINT('',(-1.249999999999998,-0.249999999999998,2.410501060307576));
#1240=DIRECTION('',(-1.0,1.110223E-015,8.881784E-016));
#1241=DIRECTION('',(0.0,0.0,1.0));
#1242=AXIS2_PLACEMENT_3D('',#1239,#1240,#1241);
#1243=TOROIDAL_SURFACE('',#1242,1.000000000000000,0.500000000000000);
#1244=CARTESIAN_POINT('',(-1.249999999999999,-1.749999999999999,2.410501060307577));
#1245=VERTEX_POINT('',#1244);
#1246=CARTESIAN_POINT('',(-1.250000000000000,-0.999999999999999,1.111462954630918));
#1247=VERTEX_POINT('',#1246);
#1248=CARTESIAN_POINT('',(-1.249999999999998,-0.249999999999998,2.410501060307576));
#1249=DIRECTION('',(1.0,0.0,0.0));
#1250=DIRECTION('',(0.0,0.0,1.0));
#1251=AXIS2_PLACEMENT_3D('',#1248,#1249,#1250);
#1252=CIRCLE('',#1251,1.500000000000000);
#1253=EDGE_CURVE('',#1245,#1247,#1252,.T.);
#1254=ORIENTED_EDGE('',*,*,#1253,.F.);
#1255=CARTESIAN_POINT('',(-1.749999999999999,-1.249999999999999,2.410501060307578));
#1256=VERTEX_POINT('',#1255);
#1257=CARTESIAN_POINT('',(-1.249999999999999,-1.249999999999999,2.410501060307577));
#1258=DIRECTION('',(0.0,0.0,-1.0));
#1259=DIRECTION('',(1.0,0.0,0.0));
#1260=AXIS2_PLACEMENT_3D('',#1257,#1258,#1259);
#1261=CIRCLE('',#1260,0.500000000000000);
#1262=EDGE_CURVE('',#1245,#1256,#1261,.T.);
#1263=ORIENTED_EDGE('',*,*,#1262,.T.);
#1264=CARTESIAN_POINT('',(-1.249999999999998,-0.749999999999999,2.410501060307577));
#1265=VERTEX_POINT('',#1264);
#1266=CARTESIAN_POINT('',(-1.249999999999999,-1.249999999999999,2.410501060307577));
#1267=DIRECTION('',(0.0,0.0,-1.0));
#1268=DIRECTION('',(1.0,0.0,0.0));
#1269=AXIS2_PLACEMENT_3D('',#1266,#1267,#1268);
#1270=CIRCLE('',#1269,0.500000000000000);
#1271=EDGE_CURVE('',#1256,#1265,#1270,.T.);
#1272=ORIENTED_EDGE('',*,*,#1271,.T.);
#1273=CARTESIAN_POINT('',(-1.249999999999998,-0.499999999999999,1.977488358415357));
#1274=VERTEX_POINT('',#1273);
#1275=CARTESIAN_POINT('',(-1.249999999999998,-0.249999999999998,2.410501060307576));
#1276=DIRECTION('',(1.0,0.0,0.0));
#1277=DIRECTION('',(0.0,0.0,1.0));
#1278=AXIS2_PLACEMENT_3D('',#1275,#1276,#1277);
#1279=CIRCLE('',#1278,0.500000000000000);
#1280=EDGE_CURVE('',#1265,#1274,#1279,.T.);
#1281=ORIENTED_EDGE('',*,*,#1280,.T.);
#1282=CARTESIAN_POINT('',(-1.749999999999999,-0.750000000000000,1.544475656523138));
#1283=VERTEX_POINT('',#1282);
#1284=CARTESIAN_POINT('',(-1.249999999999999,-0.749999999999999,1.544475656523138));
#1285=DIRECTION('',(0.0,0.866025403784439,-0.500000000000000));
#1286=DIRECTION('',(1.0,0.0,0.0));
#1287=AXIS2_PLACEMENT_3D('',#1284,#1285,#1286);
#1288=CIRCLE('',#1287,0.500000000000000);
#1289=EDGE_CURVE('',#1283,#1274,#1288,.T.);
#1290=ORIENTED_EDGE('',*,*,#1289,.F.);
#1291=CARTESIAN_POINT('',(-1.249999999999999,-0.749999999999999,1.544475656523138));
#1292=DIRECTION('',(0.0,0.866025403784439,-0.500000000000000));
#1293=DIRECTION('',(1.0,0.0,0.0));
#1294=AXIS2_PLACEMENT_3D('',#1291,#1292,#1293);
#1295=CIRCLE('',#1294,0.500000000000000);
#1296=EDGE_CURVE('',#1247,#1283,#1295,.T.);
#1297=ORIENTED_EDGE('',*,*,#1296,.F.);
#1298=EDGE_LOOP('',(#1254,#1263,#1272,#1281,#1290,#1297));
#1299=FACE_OUTER_BOUND('',#1298,.T.);
#1300=ADVANCED_FACE('',(#1299),#1243,.T.);
#1301=CARTESIAN_POINT('',(-1.249999999999999,8.931847E-016,-4.440892E-016));
#1302=DIRECTION('',(8.881784E-016,1.874601E-017,1.0));
#1303=DIRECTION('',(1.0,0.0,0.0));
#1304=AXIS2_PLACEMENT_3D('',#1301,#1302,#1303);
#1305=CYLINDRICAL_SURFACE('',#1304,0.500000000000000);
#1306=CARTESIAN_POINT('',(-0.749999999999999,8.931847E-016,-4.440892E-016));
#1307=VERTEX_POINT('',#1306);
#1308=CARTESIAN_POINT('',(-0.749999999999999,9.031971E-016,0.534112685441292));
#1309=DIRECTION('',(0.0,0.0,-1.0));
#1310=VECTOR('',#1309,0.534112685441292);
#1311=LINE('',#1308,#1310);
#1312=EDGE_CURVE('',#1221,#1307,#1311,.T.);
#1313=ORIENTED_EDGE('',*,*,#1312,.F.);
#1314=ORIENTED_EDGE('',*,*,#1227,.T.);
#1315=CARTESIAN_POINT('',(-1.749999999999999,8.419668E-016,0.534112685441293));
#1316=VERTEX_POINT('',#1315);
#1317=CARTESIAN_POINT('',(-1.249999999999999,9.031971E-016,0.534112685441292));
#1318=DIRECTION('',(0.0,0.0,-1.0));
#1319=DIRECTION('',(1.0,0.0,0.0));
#1320=AXIS2_PLACEMENT_3D('',#1317,#1318,#1319);
#1321=CIRCLE('',#1320,0.500000000000000);
#1322=EDGE_CURVE('',#1212,#1316,#1321,.T.);
#1323=ORIENTED_EDGE('',*,*,#1322,.T.);
#1324=CARTESIAN_POINT('',(-1.749999999999999,8.319543E-016,4.440892E-016));
#1325=VERTEX_POINT('',#1324);
#1326=CARTESIAN_POINT('',(-1.749999999999999,8.419668E-016,0.534112685441293));
#1327=DIRECTION('',(0.0,0.0,-1.0));
#1328=VECTOR('',#1327,0.534112685441293);
#1329=LINE('',#1326,#1328);
#1330=EDGE_CURVE('',#1316,#1325,#1329,.T.);
#1331=ORIENTED_EDGE('',*,*,#1330,.T.);
#1332=CARTESIAN_POINT('',(-1.249999999999999,8.931847E-016,-4.440892E-016));
#1333=DIRECTION('',(0.0,0.0,1.0));
#1334=DIRECTION('',(1.0,0.0,0.0));
#1335=AXIS2_PLACEMENT_3D('',#1332,#1333,#1334);
#1336=CIRCLE('',#1335,0.500000000000000);
#1337=EDGE_CURVE('',#1325,#1307,#1336,.T.);
#1338=ORIENTED_EDGE('',*,*,#1337,.T.);
#1339=EDGE_LOOP('',(#1313,#1314,#1323,#1331,#1338));
#1340=FACE_OUTER_BOUND('',#1339,.T.);
#1341=ADVANCED_FACE('',(#1340),#1305,.T.);
#1342=CARTESIAN_POINT('',(-1.249999999999999,-0.499999999999999,1.400138089225731));
#1343=DIRECTION('',(2.517929E-016,-0.866025403784439,0.500000000000000));
#1344=DIRECTION('',(1.0,0.0,0.0));
#1345=AXIS2_PLACEMENT_3D('',#1342,#1343,#1344);
#1346=CYLINDRICAL_SURFACE('',#1345,0.500000000000000);
#1347=CARTESIAN_POINT('',(-0.749999999999998,-0.749999999999999,1.544475656523138));
#1348=VERTEX_POINT('',#1347);
#1349=CARTESIAN_POINT('',(-0.749999999999999,-0.749999999999999,1.544475656523138));
#1350=DIRECTION('',(-3.845925E-016,0.866025403784438,-0.500000000000000));
#1351=VECTOR('',#1350,0.288675134594813);
#1352=LINE('',#1349,#1351);
#1353=EDGE_CURVE('',#1348,#1194,#1352,.T.);
#1354=ORIENTED_EDGE('',*,*,#1353,.F.);
#1355=CARTESIAN_POINT('',(-1.249999999999999,-0.749999999999999,1.544475656523138));
#1356=DIRECTION('',(0.0,0.866025403784439,-0.500000000000000));
#1357=DIRECTION('',(1.0,0.0,0.0));
#1358=AXIS2_PLACEMENT_3D('',#1355,#1356,#1357);
#1359=CIRCLE('',#1358,0.500000000000000);
#1360=EDGE_CURVE('',#1348,#1247,#1359,.T.);
#1361=ORIENTED_EDGE('',*,*,#1360,.T.);
#1362=ORIENTED_EDGE('',*,*,#1296,.T.);
#1363=CARTESIAN_POINT('',(-1.749999999999999,-0.500000000000000,1.400138089225732));
#1364=VERTEX_POINT('',#1363);
#1365=CARTESIAN_POINT('',(-1.749999999999999,-0.750000000000000,1.544475656523138));
#1366=DIRECTION('',(0.0,0.866025403784439,-0.499999999999999));
#1367=VECTOR('',#1366,0.288675134594813);
#1368=LINE('',#1365,#1367);
#1369=EDGE_CURVE('',#1283,#1364,#1368,.T.);
#1370=ORIENTED_EDGE('',*,*,#1369,.T.);
#1371=CARTESIAN_POINT('',(-1.249999999999999,-0.499999999999999,1.400138089225731));
#1372=DIRECTION('',(0.0,0.866025403784439,-0.500000000000000));
#1373=DIRECTION('',(1.0,0.0,0.0));
#1374=AXIS2_PLACEMENT_3D('',#1371,#1372,#1373);
#1375=CIRCLE('',#1374,0.500000000000000);
#1376=EDGE_CURVE('',#1203,#1364,#1375,.T.);
#1377=ORIENTED_EDGE('',*,*,#1376,.F.);
#1378=ORIENTED_EDGE('',*,*,#1209,.F.);
#1379=EDGE_LOOP('',(#1354,#1361,#1362,#1370,#1377,#1378));
#1380=FACE_OUTER_BOUND('',#1379,.T.);
#1381=ADVANCED_FACE('',(#1380),#1346,.T.);
#1382=CARTESIAN_POINT('',(-1.249999999999999,-1.249999999999999,2.410501060307577));
#1383=DIRECTION('',(1.264845E-015,-7.533333E-016,1.0));
#1384=DIRECTION('',(1.0,0.0,0.0));
#1385=AXIS2_PLACEMENT_3D('',#1382,#1383,#1384);
#1386=CYLINDRICAL_SURFACE('',#1385,0.500000000000000);
#1387=CARTESIAN_POINT('',(-0.749999999999999,-1.249999999999999,2.500000000000000));
#1388=VERTEX_POINT('',#1387);
#1389=CARTESIAN_POINT('',(-0.749999999999998,-1.249999999999998,2.410501060307576));
#1390=VERTEX_POINT('',#1389);
#1391=CARTESIAN_POINT('',(-0.749999999999999,-1.249999999999999,2.500000000000000));
#1392=DIRECTION('',(0.0,0.0,-1.0));
#1393=VECTOR('',#1392,0.089498939692424);
#1394=LINE('',#1391,#1393);
#1395=EDGE_CURVE('',#1388,#1390,#1394,.T.);
#1396=ORIENTED_EDGE('',*,*,#1395,.F.);
#1397=CARTESIAN_POINT('',(-1.749999999999999,-1.249999999999999,2.500000000000001));
#1398=VERTEX_POINT('',#1397);
#1399=CARTESIAN_POINT('',(-1.249999999999999,-1.249999999999999,2.500000000000000));
#1400=DIRECTION('',(0.0,0.0,1.0));
#1401=DIRECTION('',(1.0,0.0,0.0));
#1402=AXIS2_PLACEMENT_3D('',#1399,#1400,#1401);
#1403=CIRCLE('',#1402,0.500000000000000);
#1404=EDGE_CURVE('',#1398,#1388,#1403,.T.);
#1405=ORIENTED_EDGE('',*,*,#1404,.F.);
#1406=CARTESIAN_POINT('',(-1.749999999999999,-1.249999999999999,2.500000000000001));
#1407=DIRECTION('',(0.0,0.0,-1.0));
#1408=VECTOR('',#1407,0.089498939692423);
#1409=LINE('',#1406,#1408);
#1410=EDGE_CURVE('',#1398,#1256,#1409,.T.);
#1411=ORIENTED_EDGE('',*,*,#1410,.T.);
#1412=ORIENTED_EDGE('',*,*,#1262,.F.);
#1413=CARTESIAN_POINT('',(-1.249999999999999,-1.249999999999999,2.410501060307577));
#1414=DIRECTION('',(0.0,0.0,-1.0));
#1415=DIRECTION('',(1.0,0.0,0.0));
#1416=AXIS2_PLACEMENT_3D('',#1413,#1414,#1415);
#1417=CIRCLE('',#1416,0.500000000000000);
#1418=EDGE_CURVE('',#1390,#1245,#1417,.T.);
#1419=ORIENTED_EDGE('',*,*,#1418,.F.);
#1420=EDGE_LOOP('',(#1396,#1405,#1411,#1412,#1419));
#1421=FACE_OUTER_BOUND('',#1420,.T.);
#1422=ADVANCED_FACE('',(#1421),#1386,.T.);
#1423=CARTESIAN_POINT('',(-1.249999999999999,-1.249999999999999,2.500000000000000));
#1424=DIRECTION('',(0.0,0.0,1.0));
#1425=DIRECTION('',(1.0,0.0,0.0));
#1426=AXIS2_PLACEMENT_3D('',#1423,#1424,#1425);
#1427=SPHERICAL_SURFACE('',#1426,0.500000000000000);
#1428=CARTESIAN_POINT('',(-1.249999999999999,-1.249999999999999,3.000000000000000));
#1429=VERTEX_POINT('',#1428);
#1430=CARTESIAN_POINT('',(-1.249999999999999,-1.249999999999999,2.500000000000000));
#1431=DIRECTION('',(0.0,1.0,0.0));
#1432=DIRECTION('',(1.0,0.0,0.0));
#1433=AXIS2_PLACEMENT_3D('',#1430,#1431,#1432);
#1434=CIRCLE('',#1433,0.500000000000000);
#1435=EDGE_CURVE('',#1429,#1388,#1434,.T.);
#1436=ORIENTED_EDGE('',*,*,#1435,.F.);
#1437=CARTESIAN_POINT('',(-1.249999999999999,-1.249999999999999,2.500000000000000));
#1438=DIRECTION('',(0.0,-1.0,0.0));
#1439=DIRECTION('',(-1.0,0.0,0.0));
#1440=AXIS2_PLACEMENT_3D('',#1437,#1438,#1439);
#1441=CIRCLE('',#1440,0.500000000000000);
#1442=EDGE_CURVE('',#1429,#1398,#1441,.T.);
#1443=ORIENTED_EDGE('',*,*,#1442,.T.);
#1444=ORIENTED_EDGE('',*,*,#1404,.T.);
#1445=EDGE_LOOP('',(#1436,#1443,#1444));
#1446=FACE_OUTER_BOUND('',#1445,.T.);
#1447=ADVANCED_FACE('',(#1446),#1427,.T.);
#1448=CARTESIAN_POINT('',(-1.249999999999999,-1.249999999999999,2.500000000000000));
#1449=DIRECTION('',(0.0,0.0,1.0));
#1450=DIRECTION('',(1.0,0.0,0.0));
#1451=AXIS2_PLACEMENT_3D('',#1448,#1449,#1450);
#1452=SPHERICAL_SURFACE('',#1451,0.500000000000000);
#1453=ORIENTED_EDGE('',*,*,#1435,.T.);
#1454=CARTESIAN_POINT('',(-1.249999999999999,-1.249999999999999,2.500000000000000));
#1455=DIRECTION('',(0.0,0.0,1.0));
#1456=DIRECTION('',(1.0,0.0,0.0));
#1457=AXIS2_PLACEMENT_3D('',#1454,#1455,#1456);
#1458=CIRCLE('',#1457,0.500000000000000);
#1459=EDGE_CURVE('',#1388,#1398,#1458,.T.);
#1460=ORIENTED_EDGE('',*,*,#1459,.T.);
#1461=ORIENTED_EDGE('',*,*,#1442,.F.);
#1462=EDGE_LOOP('',(#1453,#1460,#1461));
#1463=FACE_OUTER_BOUND('',#1462,.T.);
#1464=ADVANCED_FACE('',(#1463),#1452,.T.);
#1465=CARTESIAN_POINT('',(-1.249999999999999,-1.249999999999999,2.410501060307577));
#1466=DIRECTION('',(1.264845E-015,-7.533333E-016,1.0));
#1467=DIRECTION('',(1.0,0.0,0.0));
#1468=AXIS2_PLACEMENT_3D('',#1465,#1466,#1467);
#1469=CYLINDRICAL_SURFACE('',#1468,0.500000000000000);
#1470=ORIENTED_EDGE('',*,*,#1395,.T.);
#1471=CARTESIAN_POINT('',(-1.249999999999999,-1.249999999999999,2.410501060307577));
#1472=DIRECTION('',(0.0,0.0,-1.0));
#1473=DIRECTION('',(1.0,0.0,0.0));
#1474=AXIS2_PLACEMENT_3D('',#1471,#1472,#1473);
#1475=CIRCLE('',#1474,0.500000000000000);
#1476=EDGE_CURVE('',#1265,#1390,#1475,.T.);
#1477=ORIENTED_EDGE('',*,*,#1476,.F.);
#1478=ORIENTED_EDGE('',*,*,#1271,.F.);
#1479=ORIENTED_EDGE('',*,*,#1410,.F.);
#1480=ORIENTED_EDGE('',*,*,#1459,.F.);
#1481=EDGE_LOOP('',(#1470,#1477,#1478,#1479,#1480));
#1482=FACE_OUTER_BOUND('',#1481,.T.);
#1483=ADVANCED_FACE('',(#1482),#1469,.T.);
#1484=CARTESIAN_POINT('',(-1.249999999999998,-0.249999999999998,2.410501060307576));
#1485=DIRECTION('',(-1.0,1.110223E-015,8.881784E-016));
#1486=DIRECTION('',(0.0,0.0,1.0));
#1487=AXIS2_PLACEMENT_3D('',#1484,#1485,#1486);
#1488=TOROIDAL_SURFACE('',#1487,1.000000000000000,0.500000000000000);
#1489=ORIENTED_EDGE('',*,*,#1253,.T.);
#1490=ORIENTED_EDGE('',*,*,#1360,.F.);
#1491=CARTESIAN_POINT('',(-1.249999999999999,-0.749999999999999,1.544475656523138));
#1492=DIRECTION('',(0.0,0.866025403784439,-0.500000000000000));
#1493=DIRECTION('',(1.0,0.0,0.0));
#1494=AXIS2_PLACEMENT_3D('',#1491,#1492,#1493);
#1495=CIRCLE('',#1494,0.500000000000000);
#1496=EDGE_CURVE('',#1274,#1348,#1495,.T.);
#1497=ORIENTED_EDGE('',*,*,#1496,.F.);
#1498=ORIENTED_EDGE('',*,*,#1280,.F.);
#1499=ORIENTED_EDGE('',*,*,#1476,.T.);
#1500=ORIENTED_EDGE('',*,*,#1418,.T.);
#1501=EDGE_LOOP('',(#1489,#1490,#1497,#1498,#1499,#1500));
#1502=FACE_OUTER_BOUND('',#1501,.T.);
#1503=ADVANCED_FACE('',(#1502),#1488,.T.);
#1504=CARTESIAN_POINT('',(-1.249999999999999,-0.499999999999999,1.400138089225731));
#1505=DIRECTION('',(2.517929E-016,-0.866025403784439,0.500000000000000));
#1506=DIRECTION('',(1.0,0.0,0.0));
#1507=AXIS2_PLACEMENT_3D('',#1504,#1505,#1506);
#1508=CYLINDRICAL_SURFACE('',#1507,0.500000000000000);
#1509=ORIENTED_EDGE('',*,*,#1353,.T.);
#1510=ORIENTED_EDGE('',*,*,#1200,.F.);
#1511=CARTESIAN_POINT('',(-1.249999999999999,-0.499999999999999,1.400138089225731));
#1512=DIRECTION('',(0.0,0.866025403784439,-0.500000000000000));
#1513=DIRECTION('',(1.0,0.0,0.0));
#1514=AXIS2_PLACEMENT_3D('',#1511,#1512,#1513);
#1515=CIRCLE('',#1514,0.500000000000000);
#1516=EDGE_CURVE('',#1364,#1183,#1515,.T.);
#1517=ORIENTED_EDGE('',*,*,#1516,.F.);
#1518=ORIENTED_EDGE('',*,*,#1369,.F.);
#1519=ORIENTED_EDGE('',*,*,#1289,.T.);
#1520=ORIENTED_EDGE('',*,*,#1496,.T.);
#1521=EDGE_LOOP('',(#1509,#1510,#1517,#1518,#1519,#1520));
#1522=FACE_OUTER_BOUND('',#1521,.T.);
#1523=ADVANCED_FACE('',(#1522),#1508,.T.);
#1524=CARTESIAN_POINT('',(-1.250000000000000,-1.000000000000000,0.534112685441293));
#1525=DIRECTION('',(1.0,-1.110223E-015,-8.881784E-016));
#1526=DIRECTION('',(0.0,0.0,-1.0));
#1527=AXIS2_PLACEMENT_3D('',#1524,#1525,#1526);
#1528=TOROIDAL_SURFACE('',#1527,1.000000000000000,0.500000000000000);
#1529=ORIENTED_EDGE('',*,*,#1191,.T.);
#1530=CARTESIAN_POINT('',(-1.249999999999999,9.031971E-016,0.534112685441292));
#1531=DIRECTION('',(0.0,0.0,-1.0));
#1532=DIRECTION('',(1.0,0.0,0.0));
#1533=AXIS2_PLACEMENT_3D('',#1530,#1531,#1532);
#1534=CIRCLE('',#1533,0.500000000000000);
#1535=EDGE_CURVE('',#1316,#1185,#1534,.T.);
#1536=ORIENTED_EDGE('',*,*,#1535,.F.);
#1537=ORIENTED_EDGE('',*,*,#1322,.F.);
#1538=ORIENTED_EDGE('',*,*,#1218,.F.);
#1539=ORIENTED_EDGE('',*,*,#1376,.T.);
#1540=ORIENTED_EDGE('',*,*,#1516,.T.);
#1541=EDGE_LOOP('',(#1529,#1536,#1537,#1538,#1539,#1540));
#1542=FACE_OUTER_BOUND('',#1541,.T.);
#1543=ADVANCED_FACE('',(#1542),#1528,.T.);
#1544=CARTESIAN_POINT('',(-1.249999999999999,8.931847E-016,-4.440892E-016));
#1545=DIRECTION('',(8.881784E-016,1.874601E-017,1.0));
#1546=DIRECTION('',(1.0,0.0,0.0));
#1547=AXIS2_PLACEMENT_3D('',#1544,#1545,#1546);
#1548=CYLINDRICAL_SURFACE('',#1547,0.500000000000000);
#1549=ORIENTED_EDGE('',*,*,#1312,.T.);
#1550=CARTESIAN_POINT('',(-1.249999999999999,8.931847E-016,-4.440892E-016));
#1551=DIRECTION('',(0.0,0.0,1.0));
#1552=DIRECTION('',(1.0,0.0,0.0));
#1553=AXIS2_PLACEMENT_3D('',#1550,#1551,#1552);
#1554=CIRCLE('',#1553,0.500000000000000);
#1555=EDGE_CURVE('',#1307,#1325,#1554,.T.);
#1556=ORIENTED_EDGE('',*,*,#1555,.T.);
#1557=ORIENTED_EDGE('',*,*,#1330,.F.);
#1558=ORIENTED_EDGE('',*,*,#1535,.T.);
#1559=ORIENTED_EDGE('',*,*,#1234,.T.);
#1560=EDGE_LOOP('',(#1549,#1556,#1557,#1558,#1559));
#1561=FACE_OUTER_BOUND('',#1560,.T.);
#1562=ADVANCED_FACE('',(#1561),#1548,.T.);
#1563=CARTESIAN_POINT('',(-1.249999999999999,8.931847E-016,-4.440892E-016));
#1564=DIRECTION('',(0.0,0.0,1.0));
#1565=DIRECTION('',(1.0,0.0,0.0));
#1566=AXIS2_PLACEMENT_3D('',#1563,#1564,#1565);
#1567=PLANE('',#1566);
#1568=ORIENTED_EDGE('',*,*,#1555,.F.);
#1569=ORIENTED_EDGE('',*,*,#1337,.F.);
#1570=EDGE_LOOP('',(#1568,#1569));
#1571=FACE_OUTER_BOUND('',#1570,.T.);
#1572=ADVANCED_FACE('',(#1571),#1567,.F.);
#1573=CLOSED_SHELL('',(#1238,#1300,#1341,#1381,#1422,#1447,#1464,#1483,#1503,#1523,#1543,#1562,#1572));
#1574=MANIFOLD_SOLID_BREP('8B3',#1573);
#1575=STYLED_ITEM('NONE',(#807),#1574);
#1576=ADVANCED_BREP_SHAPE_REPRESENTATION('ABSR1',(#194,#800,#1086,#1175,#1574),#28);
#1577=SHAPE_REPRESENTATION_RELATIONSHIP('SRRPL1','',#1576,#62);
ENDSEC;
END-ISO-10303-21;
