ISO-10303-21;
HEADER;
/* Generated by software containing ST-Developer
 * from STEP Tools, Inc. (www.steptools.com) 
 */

FILE_DESCRIPTION(
/* description */ (''),
/* implementation_level */ '2;1');

FILE_NAME(
/* name */ 
'G:\\Applications\\Altium\\CernLib\\StepLib\\CAPR1500-500X1750X1100.st
p',
/* time_stamp */ '2016-01-29T09:14:43+01:00',
/* author */ ('riccim'),
/* organization */ (''),
/* preprocessor_version */ 'ST-DEVELOPER v15.5',
/* originating_system */ 'AutoCAD Mechanical',
/* authorisation */ '');

FILE_SCHEMA (('AUTOMOTIVE_DESIGN { 1 0 10303 214 3 1 1 }'));
ENDSEC;

DATA;
#10=MECHANICAL_DESIGN_GEOMETRIC_PRESENTATION_REPRESENTATION('',(#19,#20,
#21),#577);
#11=DIMENSIONAL_EXPONENTS(0.,0.,0.,0.,0.,0.,0.);
#12=(
CONVERSION_BASED_UNIT('degree',#13)
NAMED_UNIT(#11)
PLANE_ANGLE_UNIT()
);
#13=PLANE_ANGLE_MEASURE_WITH_UNIT(PLANE_ANGLE_MEASURE(0.01745329252),#580);
#14=PRESENTATION_LAYER_ASSIGNMENT('3D','',(#327,#328,#329));
#15=FACE_BOUND($,#125,.T.);
#16=FACE_BOUND($,#129,.T.);
#17=SHAPE_REPRESENTATION_RELATIONSHIP('SRR','None',#583,#18);
#18=ADVANCED_BREP_SHAPE_REPRESENTATION($,(#327,#328,#329),#576);
#19=STYLED_ITEM($,(#593),#327);
#20=STYLED_ITEM($,(#594),#328);
#21=STYLED_ITEM($,(#594),#329);
#22=PLANE($,#359);
#23=PLANE($,#360);
#24=PLANE($,#361);
#25=PLANE($,#362);
#26=PLANE($,#363);
#27=PLANE($,#364);
#28=PLANE($,#368);
#29=PLANE($,#369);
#30=PLANE($,#373);
#31=PLANE($,#374);
#32=LINE($,#518,#52);
#33=LINE($,#519,#53);
#34=LINE($,#521,#54);
#35=LINE($,#522,#55);
#36=LINE($,#524,#56);
#37=LINE($,#525,#57);
#38=LINE($,#530,#58);
#39=LINE($,#531,#59);
#40=LINE($,#533,#60);
#41=LINE($,#534,#61);
#42=LINE($,#539,#62);
#43=LINE($,#540,#63);
#44=LINE($,#542,#64);
#45=LINE($,#543,#65);
#46=LINE($,#548,#66);
#47=LINE($,#549,#67);
#48=LINE($,#551,#68);
#49=LINE($,#553,#69);
#50=LINE($,#556,#70);
#51=LINE($,#558,#71);
#52=VECTOR($,#413,10.7);
#53=VECTOR($,#414,10.7);
#54=VECTOR($,#417,4.4);
#55=VECTOR($,#418,4.4);
#56=VECTOR($,#421,16.9);
#57=VECTOR($,#422,16.9);
#58=VECTOR($,#427,10.7);
#59=VECTOR($,#428,10.7);
#60=VECTOR($,#431,16.9);
#61=VECTOR($,#432,16.9);
#62=VECTOR($,#437,10.7);
#63=VECTOR($,#438,10.7);
#64=VECTOR($,#441,4.4);
#65=VECTOR($,#442,4.4);
#66=VECTOR($,#447,10.7);
#67=VECTOR($,#448,10.7);
#68=VECTOR($,#451,4.4);
#69=VECTOR($,#454,16.9);
#70=VECTOR($,#459,4.4);
#71=VECTOR($,#462,16.9);
#72=CYLINDRICAL_SURFACE($,#347,0.3);
#73=CYLINDRICAL_SURFACE($,#349,0.3);
#74=CYLINDRICAL_SURFACE($,#350,0.3);
#75=CYLINDRICAL_SURFACE($,#351,0.3);
#76=CYLINDRICAL_SURFACE($,#353,0.3);
#77=CYLINDRICAL_SURFACE($,#354,0.3);
#78=CYLINDRICAL_SURFACE($,#356,0.3);
#79=CYLINDRICAL_SURFACE($,#357,0.3);
#80=CYLINDRICAL_SURFACE($,#365,0.33);
#81=CYLINDRICAL_SURFACE($,#370,0.33);
#82=FACE_OUTER_BOUND($,#106,.T.);
#83=FACE_OUTER_BOUND($,#107,.T.);
#84=FACE_OUTER_BOUND($,#108,.T.);
#85=FACE_OUTER_BOUND($,#109,.T.);
#86=FACE_OUTER_BOUND($,#110,.T.);
#87=FACE_OUTER_BOUND($,#111,.T.);
#88=FACE_OUTER_BOUND($,#112,.T.);
#89=FACE_OUTER_BOUND($,#113,.T.);
#90=FACE_OUTER_BOUND($,#114,.T.);
#91=FACE_OUTER_BOUND($,#115,.T.);
#92=FACE_OUTER_BOUND($,#116,.T.);
#93=FACE_OUTER_BOUND($,#117,.T.);
#94=FACE_OUTER_BOUND($,#118,.T.);
#95=FACE_OUTER_BOUND($,#119,.T.);
#96=FACE_OUTER_BOUND($,#120,.T.);
#97=FACE_OUTER_BOUND($,#121,.T.);
#98=FACE_OUTER_BOUND($,#122,.T.);
#99=FACE_OUTER_BOUND($,#123,.T.);
#100=FACE_OUTER_BOUND($,#124,.T.);
#101=FACE_OUTER_BOUND($,#126,.T.);
#102=FACE_OUTER_BOUND($,#127,.T.);
#103=FACE_OUTER_BOUND($,#128,.T.);
#104=FACE_OUTER_BOUND($,#130,.T.);
#105=FACE_OUTER_BOUND($,#131,.T.);
#106=EDGE_LOOP($,(#216,#217,#218));
#107=EDGE_LOOP($,(#219,#220,#221));
#108=EDGE_LOOP($,(#222,#223,#224));
#109=EDGE_LOOP($,(#225,#226,#227));
#110=EDGE_LOOP($,(#228,#229,#230,#231));
#111=EDGE_LOOP($,(#232,#233,#234,#235));
#112=EDGE_LOOP($,(#236,#237,#238,#239));
#113=EDGE_LOOP($,(#240,#241,#242,#243));
#114=EDGE_LOOP($,(#244,#245,#246,#247));
#115=EDGE_LOOP($,(#248,#249,#250,#251));
#116=EDGE_LOOP($,(#252,#253,#254,#255));
#117=EDGE_LOOP($,(#256,#257,#258,#259));
#118=EDGE_LOOP($,(#260,#261,#262,#263));
#119=EDGE_LOOP($,(#264,#265,#266,#267));
#120=EDGE_LOOP($,(#268,#269,#270,#271));
#121=EDGE_LOOP($,(#272,#273,#274,#275));
#122=EDGE_LOOP($,(#276,#277,#278,#279));
#123=EDGE_LOOP($,(#280,#281,#282,#283,#284,#285,#286,#287));
#124=EDGE_LOOP($,(#288));
#125=EDGE_LOOP($,(#289));
#126=EDGE_LOOP($,(#290));
#127=EDGE_LOOP($,(#291));
#128=EDGE_LOOP($,(#292));
#129=EDGE_LOOP($,(#293));
#130=EDGE_LOOP($,(#294));
#131=EDGE_LOOP($,(#295));
#132=CIRCLE($,#332,0.3);
#133=CIRCLE($,#333,0.300000000000001);
#134=CIRCLE($,#334,0.3);
#135=CIRCLE($,#336,0.3);
#136=CIRCLE($,#337,0.300000000000001);
#137=CIRCLE($,#338,0.3);
#138=CIRCLE($,#340,0.3);
#139=CIRCLE($,#341,0.300000000000001);
#140=CIRCLE($,#342,0.3);
#141=CIRCLE($,#344,0.3);
#142=CIRCLE($,#345,0.300000000000001);
#143=CIRCLE($,#346,0.3);
#144=CIRCLE($,#348,0.3);
#145=CIRCLE($,#352,0.3);
#146=CIRCLE($,#355,0.3);
#147=CIRCLE($,#358,0.3);
#148=CIRCLE($,#366,0.33);
#149=CIRCLE($,#367,0.33);
#150=CIRCLE($,#371,0.33);
#151=CIRCLE($,#372,0.33);
#152=VERTEX_POINT($,#487);
#153=VERTEX_POINT($,#488);
#154=VERTEX_POINT($,#490);
#155=VERTEX_POINT($,#494);
#156=VERTEX_POINT($,#495);
#157=VERTEX_POINT($,#497);
#158=VERTEX_POINT($,#501);
#159=VERTEX_POINT($,#502);
#160=VERTEX_POINT($,#504);
#161=VERTEX_POINT($,#508);
#162=VERTEX_POINT($,#509);
#163=VERTEX_POINT($,#511);
#164=VERTEX_POINT($,#515);
#165=VERTEX_POINT($,#516);
#166=VERTEX_POINT($,#527);
#167=VERTEX_POINT($,#528);
#168=VERTEX_POINT($,#536);
#169=VERTEX_POINT($,#537);
#170=VERTEX_POINT($,#545);
#171=VERTEX_POINT($,#546);
#172=VERTEX_POINT($,#561);
#173=VERTEX_POINT($,#563);
#174=VERTEX_POINT($,#568);
#175=VERTEX_POINT($,#570);
#176=EDGE_CURVE($,#152,#153,#132,.T.);
#177=EDGE_CURVE($,#154,#153,#133,.F.);
#178=EDGE_CURVE($,#152,#154,#134,.F.);
#179=EDGE_CURVE($,#155,#156,#135,.T.);
#180=EDGE_CURVE($,#157,#156,#136,.F.);
#181=EDGE_CURVE($,#157,#155,#137,.T.);
#182=EDGE_CURVE($,#158,#159,#138,.T.);
#183=EDGE_CURVE($,#160,#159,#139,.F.);
#184=EDGE_CURVE($,#160,#158,#140,.T.);
#185=EDGE_CURVE($,#161,#162,#141,.T.);
#186=EDGE_CURVE($,#163,#162,#142,.F.);
#187=EDGE_CURVE($,#163,#161,#143,.T.);
#188=EDGE_CURVE($,#164,#165,#144,.T.);
#189=EDGE_CURVE($,#165,#163,#32,.T.);
#190=EDGE_CURVE($,#162,#164,#33,.T.);
#191=EDGE_CURVE($,#163,#160,#34,.T.);
#192=EDGE_CURVE($,#159,#161,#35,.T.);
#193=EDGE_CURVE($,#156,#162,#36,.T.);
#194=EDGE_CURVE($,#161,#157,#37,.T.);
#195=EDGE_CURVE($,#166,#167,#145,.T.);
#196=EDGE_CURVE($,#167,#158,#38,.T.);
#197=EDGE_CURVE($,#160,#166,#39,.T.);
#198=EDGE_CURVE($,#158,#152,#40,.T.);
#199=EDGE_CURVE($,#154,#159,#41,.T.);
#200=EDGE_CURVE($,#168,#169,#146,.T.);
#201=EDGE_CURVE($,#169,#156,#42,.T.);
#202=EDGE_CURVE($,#155,#168,#43,.T.);
#203=EDGE_CURVE($,#153,#155,#44,.T.);
#204=EDGE_CURVE($,#157,#154,#45,.T.);
#205=EDGE_CURVE($,#170,#171,#147,.T.);
#206=EDGE_CURVE($,#171,#153,#46,.T.);
#207=EDGE_CURVE($,#152,#170,#47,.T.);
#208=EDGE_CURVE($,#166,#165,#48,.T.);
#209=EDGE_CURVE($,#164,#169,#49,.T.);
#210=EDGE_CURVE($,#168,#171,#50,.T.);
#211=EDGE_CURVE($,#170,#167,#51,.T.);
#212=EDGE_CURVE($,#172,#172,#148,.T.);
#213=EDGE_CURVE($,#173,#173,#149,.T.);
#214=EDGE_CURVE($,#174,#174,#150,.T.);
#215=EDGE_CURVE($,#175,#175,#151,.T.);
#216=ORIENTED_EDGE($,*,*,#176,.T.);
#217=ORIENTED_EDGE($,*,*,#177,.F.);
#218=ORIENTED_EDGE($,*,*,#178,.F.);
#219=ORIENTED_EDGE($,*,*,#179,.T.);
#220=ORIENTED_EDGE($,*,*,#180,.F.);
#221=ORIENTED_EDGE($,*,*,#181,.T.);
#222=ORIENTED_EDGE($,*,*,#182,.T.);
#223=ORIENTED_EDGE($,*,*,#183,.F.);
#224=ORIENTED_EDGE($,*,*,#184,.T.);
#225=ORIENTED_EDGE($,*,*,#185,.T.);
#226=ORIENTED_EDGE($,*,*,#186,.F.);
#227=ORIENTED_EDGE($,*,*,#187,.T.);
#228=ORIENTED_EDGE($,*,*,#188,.T.);
#229=ORIENTED_EDGE($,*,*,#189,.T.);
#230=ORIENTED_EDGE($,*,*,#186,.T.);
#231=ORIENTED_EDGE($,*,*,#190,.T.);
#232=ORIENTED_EDGE($,*,*,#187,.F.);
#233=ORIENTED_EDGE($,*,*,#191,.T.);
#234=ORIENTED_EDGE($,*,*,#183,.T.);
#235=ORIENTED_EDGE($,*,*,#192,.T.);
#236=ORIENTED_EDGE($,*,*,#180,.T.);
#237=ORIENTED_EDGE($,*,*,#193,.T.);
#238=ORIENTED_EDGE($,*,*,#185,.F.);
#239=ORIENTED_EDGE($,*,*,#194,.T.);
#240=ORIENTED_EDGE($,*,*,#195,.T.);
#241=ORIENTED_EDGE($,*,*,#196,.T.);
#242=ORIENTED_EDGE($,*,*,#184,.F.);
#243=ORIENTED_EDGE($,*,*,#197,.T.);
#244=ORIENTED_EDGE($,*,*,#182,.F.);
#245=ORIENTED_EDGE($,*,*,#198,.T.);
#246=ORIENTED_EDGE($,*,*,#178,.T.);
#247=ORIENTED_EDGE($,*,*,#199,.T.);
#248=ORIENTED_EDGE($,*,*,#200,.T.);
#249=ORIENTED_EDGE($,*,*,#201,.T.);
#250=ORIENTED_EDGE($,*,*,#179,.F.);
#251=ORIENTED_EDGE($,*,*,#202,.T.);
#252=ORIENTED_EDGE($,*,*,#177,.T.);
#253=ORIENTED_EDGE($,*,*,#203,.T.);
#254=ORIENTED_EDGE($,*,*,#181,.F.);
#255=ORIENTED_EDGE($,*,*,#204,.T.);
#256=ORIENTED_EDGE($,*,*,#205,.T.);
#257=ORIENTED_EDGE($,*,*,#206,.T.);
#258=ORIENTED_EDGE($,*,*,#176,.F.);
#259=ORIENTED_EDGE($,*,*,#207,.T.);
#260=ORIENTED_EDGE($,*,*,#197,.F.);
#261=ORIENTED_EDGE($,*,*,#191,.F.);
#262=ORIENTED_EDGE($,*,*,#189,.F.);
#263=ORIENTED_EDGE($,*,*,#208,.F.);
#264=ORIENTED_EDGE($,*,*,#190,.F.);
#265=ORIENTED_EDGE($,*,*,#193,.F.);
#266=ORIENTED_EDGE($,*,*,#201,.F.);
#267=ORIENTED_EDGE($,*,*,#209,.F.);
#268=ORIENTED_EDGE($,*,*,#192,.F.);
#269=ORIENTED_EDGE($,*,*,#199,.F.);
#270=ORIENTED_EDGE($,*,*,#204,.F.);
#271=ORIENTED_EDGE($,*,*,#194,.F.);
#272=ORIENTED_EDGE($,*,*,#206,.F.);
#273=ORIENTED_EDGE($,*,*,#210,.F.);
#274=ORIENTED_EDGE($,*,*,#202,.F.);
#275=ORIENTED_EDGE($,*,*,#203,.F.);
#276=ORIENTED_EDGE($,*,*,#196,.F.);
#277=ORIENTED_EDGE($,*,*,#211,.F.);
#278=ORIENTED_EDGE($,*,*,#207,.F.);
#279=ORIENTED_EDGE($,*,*,#198,.F.);
#280=ORIENTED_EDGE($,*,*,#195,.F.);
#281=ORIENTED_EDGE($,*,*,#208,.T.);
#282=ORIENTED_EDGE($,*,*,#188,.F.);
#283=ORIENTED_EDGE($,*,*,#209,.T.);
#284=ORIENTED_EDGE($,*,*,#200,.F.);
#285=ORIENTED_EDGE($,*,*,#210,.T.);
#286=ORIENTED_EDGE($,*,*,#205,.F.);
#287=ORIENTED_EDGE($,*,*,#211,.T.);
#288=ORIENTED_EDGE($,*,*,#212,.F.);
#289=ORIENTED_EDGE($,*,*,#213,.F.);
#290=ORIENTED_EDGE($,*,*,#213,.T.);
#291=ORIENTED_EDGE($,*,*,#212,.T.);
#292=ORIENTED_EDGE($,*,*,#214,.F.);
#293=ORIENTED_EDGE($,*,*,#215,.F.);
#294=ORIENTED_EDGE($,*,*,#215,.T.);
#295=ORIENTED_EDGE($,*,*,#214,.T.);
#296=SPHERICAL_SURFACE($,#331,0.3);
#297=SPHERICAL_SURFACE($,#335,0.3);
#298=SPHERICAL_SURFACE($,#339,0.3);
#299=SPHERICAL_SURFACE($,#343,0.300000000000001);
#300=ADVANCED_FACE($,(#82),#296,.T.);
#301=ADVANCED_FACE($,(#83),#297,.T.);
#302=ADVANCED_FACE($,(#84),#298,.T.);
#303=ADVANCED_FACE($,(#85),#299,.T.);
#304=ADVANCED_FACE($,(#86),#72,.T.);
#305=ADVANCED_FACE($,(#87),#73,.T.);
#306=ADVANCED_FACE($,(#88),#74,.T.);
#307=ADVANCED_FACE($,(#89),#75,.T.);
#308=ADVANCED_FACE($,(#90),#76,.T.);
#309=ADVANCED_FACE($,(#91),#77,.T.);
#310=ADVANCED_FACE($,(#92),#78,.T.);
#311=ADVANCED_FACE($,(#93),#79,.T.);
#312=ADVANCED_FACE($,(#94),#22,.T.);
#313=ADVANCED_FACE($,(#95),#23,.T.);
#314=ADVANCED_FACE($,(#96),#24,.T.);
#315=ADVANCED_FACE($,(#97),#25,.T.);
#316=ADVANCED_FACE($,(#98),#26,.T.);
#317=ADVANCED_FACE($,(#99),#27,.F.);
#318=ADVANCED_FACE($,(#100,#15),#80,.T.);
#319=ADVANCED_FACE($,(#101),#28,.T.);
#320=ADVANCED_FACE($,(#102),#29,.F.);
#321=ADVANCED_FACE($,(#103,#16),#81,.T.);
#322=ADVANCED_FACE($,(#104),#30,.T.);
#323=ADVANCED_FACE($,(#105),#31,.F.);
#324=CLOSED_SHELL($,(#300,#301,#302,#303,#304,#305,#306,#307,#308,#309,
#310,#311,#312,#313,#314,#315,#316,#317));
#325=CLOSED_SHELL($,(#318,#319,#320));
#326=CLOSED_SHELL($,(#321,#322,#323));
#327=MANIFOLD_SOLID_BREP('21D0',#324);
#328=MANIFOLD_SOLID_BREP('21D5',#325);
#329=MANIFOLD_SOLID_BREP('21D9',#326);
#330=AXIS2_PLACEMENT_3D('placement',#485,#375,#376);
#331=AXIS2_PLACEMENT_3D($,#486,#377,#378);
#332=AXIS2_PLACEMENT_3D($,#489,#379,#380);
#333=AXIS2_PLACEMENT_3D($,#491,#381,#382);
#334=AXIS2_PLACEMENT_3D($,#492,#383,#384);
#335=AXIS2_PLACEMENT_3D($,#493,#385,#386);
#336=AXIS2_PLACEMENT_3D($,#496,#387,#388);
#337=AXIS2_PLACEMENT_3D($,#498,#389,#390);
#338=AXIS2_PLACEMENT_3D($,#499,#391,#392);
#339=AXIS2_PLACEMENT_3D($,#500,#393,#394);
#340=AXIS2_PLACEMENT_3D($,#503,#395,#396);
#341=AXIS2_PLACEMENT_3D($,#505,#397,#398);
#342=AXIS2_PLACEMENT_3D($,#506,#399,#400);
#343=AXIS2_PLACEMENT_3D($,#507,#401,#402);
#344=AXIS2_PLACEMENT_3D($,#510,#403,#404);
#345=AXIS2_PLACEMENT_3D($,#512,#405,#406);
#346=AXIS2_PLACEMENT_3D($,#513,#407,#408);
#347=AXIS2_PLACEMENT_3D($,#514,#409,#410);
#348=AXIS2_PLACEMENT_3D($,#517,#411,#412);
#349=AXIS2_PLACEMENT_3D($,#520,#415,#416);
#350=AXIS2_PLACEMENT_3D($,#523,#419,#420);
#351=AXIS2_PLACEMENT_3D($,#526,#423,#424);
#352=AXIS2_PLACEMENT_3D($,#529,#425,#426);
#353=AXIS2_PLACEMENT_3D($,#532,#429,#430);
#354=AXIS2_PLACEMENT_3D($,#535,#433,#434);
#355=AXIS2_PLACEMENT_3D($,#538,#435,#436);
#356=AXIS2_PLACEMENT_3D($,#541,#439,#440);
#357=AXIS2_PLACEMENT_3D($,#544,#443,#444);
#358=AXIS2_PLACEMENT_3D($,#547,#445,#446);
#359=AXIS2_PLACEMENT_3D($,#550,#449,#450);
#360=AXIS2_PLACEMENT_3D($,#552,#452,#453);
#361=AXIS2_PLACEMENT_3D($,#554,#455,#456);
#362=AXIS2_PLACEMENT_3D($,#555,#457,#458);
#363=AXIS2_PLACEMENT_3D($,#557,#460,#461);
#364=AXIS2_PLACEMENT_3D($,#559,#463,#464);
#365=AXIS2_PLACEMENT_3D($,#560,#465,#466);
#366=AXIS2_PLACEMENT_3D($,#562,#467,#468);
#367=AXIS2_PLACEMENT_3D($,#564,#469,#470);
#368=AXIS2_PLACEMENT_3D($,#565,#471,#472);
#369=AXIS2_PLACEMENT_3D($,#566,#473,#474);
#370=AXIS2_PLACEMENT_3D($,#567,#475,#476);
#371=AXIS2_PLACEMENT_3D($,#569,#477,#478);
#372=AXIS2_PLACEMENT_3D($,#571,#479,#480);
#373=AXIS2_PLACEMENT_3D($,#572,#481,#482);
#374=AXIS2_PLACEMENT_3D($,#573,#483,#484);
#375=DIRECTION('axis',(0.,0.,1.));
#376=DIRECTION('refdir',(1.,0.,0.));
#377=DIRECTION('center_axis',(0.577350269189627,0.577350269189624,0.577350269189627));
#378=DIRECTION('ref_axis',(-0.707106781186548,0.,0.707106781186548));
#379=DIRECTION('center_axis',(0.,0.,1.));
#380=DIRECTION('ref_axis',(0.707106781186549,-0.707106781186547,0.));
#381=DIRECTION('center_axis',(0.,-1.,0.));
#382=DIRECTION('ref_axis',(0.,0.,1.));
#383=DIRECTION('center_axis',(1.,0.,0.));
#384=DIRECTION('ref_axis',(0.,-1.,0.));
#385=DIRECTION('center_axis',(0.577350269189627,0.577350269189624,0.577350269189627));
#386=DIRECTION('ref_axis',(-0.707106781186548,0.,0.707106781186548));
#387=DIRECTION('center_axis',(0.,0.,1.));
#388=DIRECTION('ref_axis',(0.707106781186549,0.707106781186547,0.));
#389=DIRECTION('center_axis',(1.,0.,0.));
#390=DIRECTION('ref_axis',(0.,0.,1.));
#391=DIRECTION('center_axis',(0.,1.,0.));
#392=DIRECTION('ref_axis',(0.707106781186547,0.,0.707106781186547));
#393=DIRECTION('center_axis',(0.577350269189627,0.577350269189624,0.577350269189627));
#394=DIRECTION('ref_axis',(-0.707106781186548,0.,0.707106781186548));
#395=DIRECTION('center_axis',(-1.,0.,0.));
#396=DIRECTION('ref_axis',(0.,-0.707106781186547,0.707106781186549));
#397=DIRECTION('center_axis',(0.,-1.,0.));
#398=DIRECTION('ref_axis',(-1.,0.,0.));
#399=DIRECTION('center_axis',(0.,0.,1.));
#400=DIRECTION('ref_axis',(-0.707106781186549,-0.707106781186547,0.));
#401=DIRECTION('center_axis',(0.577350269189626,0.577350269189625,0.577350269189626));
#402=DIRECTION('ref_axis',(-0.707106781186548,0.,0.707106781186548));
#403=DIRECTION('center_axis',(-1.,0.,-5.92118946466749E-15));
#404=DIRECTION('ref_axis',(0.,0.707106781186547,0.707106781186549));
#405=DIRECTION('center_axis',(0.,0.,1.));
#406=DIRECTION('ref_axis',(-1.,0.,0.));
#407=DIRECTION('center_axis',(0.,1.,0.));
#408=DIRECTION('ref_axis',(-0.707106781186547,0.,0.707106781186547));
#409=DIRECTION('center_axis',(0.,0.,1.));
#410=DIRECTION('ref_axis',(-0.707106781186549,0.707106781186547,0.));
#411=DIRECTION('center_axis',(0.,0.,1.));
#412=DIRECTION('ref_axis',(-0.707106781186549,0.707106781186547,0.));
#413=DIRECTION($,(0.,0.,1.));
#414=DIRECTION($,(0.,0.,-1.));
#415=DIRECTION('center_axis',(7.105427357601E-16,1.,0.));
#416=DIRECTION('ref_axis',(-0.707106781186547,0.,0.707106781186547));
#417=DIRECTION($,(-7.105427357601E-16,-1.,0.));
#418=DIRECTION($,(7.105427357601E-16,1.,0.));
#419=DIRECTION('center_axis',(1.,0.,0.));
#420=DIRECTION('ref_axis',(0.,0.707106781186547,0.707106781186549));
#421=DIRECTION($,(-1.,0.,0.));
#422=DIRECTION($,(1.,0.,0.));
#423=DIRECTION('center_axis',(0.,0.,1.));
#424=DIRECTION('ref_axis',(-0.707106781186549,-0.707106781186547,0.));
#425=DIRECTION('center_axis',(0.,0.,1.));
#426=DIRECTION('ref_axis',(-0.707106781186549,-0.707106781186547,0.));
#427=DIRECTION($,(0.,0.,1.));
#428=DIRECTION($,(0.,0.,-1.));
#429=DIRECTION('center_axis',(-1.,0.,0.));
#430=DIRECTION('ref_axis',(0.,-0.707106781186547,0.707106781186549));
#431=DIRECTION($,(1.,0.,0.));
#432=DIRECTION($,(-1.,0.,0.));
#433=DIRECTION('center_axis',(0.,0.,1.));
#434=DIRECTION('ref_axis',(0.707106781186549,0.707106781186547,0.));
#435=DIRECTION('center_axis',(0.,0.,1.));
#436=DIRECTION('ref_axis',(0.707106781186549,0.707106781186547,0.));
#437=DIRECTION($,(0.,0.,1.));
#438=DIRECTION($,(0.,0.,-1.));
#439=DIRECTION('center_axis',(0.,-1.,0.));
#440=DIRECTION('ref_axis',(0.707106781186547,0.,0.707106781186547));
#441=DIRECTION($,(0.,1.,0.));
#442=DIRECTION($,(0.,-1.,0.));
#443=DIRECTION('center_axis',(0.,0.,1.));
#444=DIRECTION('ref_axis',(0.707106781186549,-0.707106781186547,0.));
#445=DIRECTION('center_axis',(0.,0.,1.));
#446=DIRECTION('ref_axis',(0.707106781186549,-0.707106781186547,0.));
#447=DIRECTION($,(0.,0.,1.));
#448=DIRECTION($,(0.,0.,-1.));
#449=DIRECTION('center_axis',(-1.,7.105427357601E-16,0.));
#450=DIRECTION('ref_axis',(0.,0.,1.));
#451=DIRECTION($,(7.105427357601E-16,1.,0.));
#452=DIRECTION('center_axis',(0.,1.,0.));
#453=DIRECTION('ref_axis',(0.,0.,1.));
#454=DIRECTION($,(1.,0.,0.));
#455=DIRECTION('center_axis',(0.,0.,1.));
#456=DIRECTION('ref_axis',(1.,0.,0.));
#457=DIRECTION('center_axis',(1.,0.,0.));
#458=DIRECTION('ref_axis',(0.,0.,-1.));
#459=DIRECTION($,(0.,-1.,0.));
#460=DIRECTION('center_axis',(0.,-1.,0.));
#461=DIRECTION('ref_axis',(0.,0.,-1.));
#462=DIRECTION($,(-1.,0.,0.));
#463=DIRECTION('center_axis',(0.,0.,1.));
#464=DIRECTION('ref_axis',(1.,0.,0.));
#465=DIRECTION('center_axis',(0.,0.,-1.));
#466=DIRECTION('ref_axis',(-1.,0.,0.));
#467=DIRECTION('center_axis',(0.,0.,-1.));
#468=DIRECTION('ref_axis',(-1.,0.,0.));
#469=DIRECTION('center_axis',(0.,0.,1.));
#470=DIRECTION('ref_axis',(-1.,0.,0.));
#471=DIRECTION('center_axis',(0.,0.,1.));
#472=DIRECTION('ref_axis',(1.,0.,0.));
#473=DIRECTION('center_axis',(0.,0.,1.));
#474=DIRECTION('ref_axis',(1.,0.,0.));
#475=DIRECTION('center_axis',(0.,0.,-1.));
#476=DIRECTION('ref_axis',(-1.,0.,0.));
#477=DIRECTION('center_axis',(0.,0.,-1.));
#478=DIRECTION('ref_axis',(-1.,0.,0.));
#479=DIRECTION('center_axis',(0.,0.,1.));
#480=DIRECTION('ref_axis',(-1.,0.,0.));
#481=DIRECTION('center_axis',(0.,0.,1.));
#482=DIRECTION('ref_axis',(1.,0.,0.));
#483=DIRECTION('center_axis',(0.,0.,1.));
#484=DIRECTION('ref_axis',(1.,0.,0.));
#485=CARTESIAN_POINT('',(0.,0.,0.));
#486=CARTESIAN_POINT('Origin',(8.45,-2.2,10.7));
#487=CARTESIAN_POINT('',(8.45,-2.5,10.7));
#488=CARTESIAN_POINT('',(8.75,-2.2,10.7));
#489=CARTESIAN_POINT('Origin',(8.45,-2.2,10.7));
#490=CARTESIAN_POINT('',(8.45,-2.2,11.));
#491=CARTESIAN_POINT('Origin',(8.45,-2.2,10.7));
#492=CARTESIAN_POINT('Origin',(8.45,-2.2,10.7));
#493=CARTESIAN_POINT('Origin',(8.45,2.2,10.7));
#494=CARTESIAN_POINT('',(8.75,2.2,10.7));
#495=CARTESIAN_POINT('',(8.45,2.5,10.7));
#496=CARTESIAN_POINT('Origin',(8.45,2.2,10.7));
#497=CARTESIAN_POINT('',(8.45,2.2,11.));
#498=CARTESIAN_POINT('Origin',(8.45,2.2,10.7));
#499=CARTESIAN_POINT('Origin',(8.45,2.2,10.7));
#500=CARTESIAN_POINT('Origin',(-8.45,-2.2,10.7));
#501=CARTESIAN_POINT('',(-8.45,-2.5,10.7));
#502=CARTESIAN_POINT('',(-8.45,-2.2,11.));
#503=CARTESIAN_POINT('Origin',(-8.45,-2.2,10.7));
#504=CARTESIAN_POINT('',(-8.75,-2.2,10.7));
#505=CARTESIAN_POINT('Origin',(-8.45,-2.2,10.7));
#506=CARTESIAN_POINT('Origin',(-8.45,-2.2,10.7));
#507=CARTESIAN_POINT('Origin',(-8.45,2.2,10.7));
#508=CARTESIAN_POINT('',(-8.45,2.2,11.));
#509=CARTESIAN_POINT('',(-8.45,2.5,10.7));
#510=CARTESIAN_POINT('Origin',(-8.45,2.2,10.7));
#511=CARTESIAN_POINT('',(-8.75,2.2,10.7));
#512=CARTESIAN_POINT('Origin',(-8.45,2.2,10.7));
#513=CARTESIAN_POINT('Origin',(-8.45,2.2,10.7));
#514=CARTESIAN_POINT('Origin',(-8.45,2.2,0.));
#515=CARTESIAN_POINT('',(-8.45,2.5,0.));
#516=CARTESIAN_POINT('',(-8.75,2.2,0.));
#517=CARTESIAN_POINT('Origin',(-8.45,2.2,0.));
#518=CARTESIAN_POINT($,(-8.75,2.2,0.));
#519=CARTESIAN_POINT($,(-8.45,2.5,0.));
#520=CARTESIAN_POINT('Origin',(-8.45,-1.25,10.7));
#521=CARTESIAN_POINT($,(-8.75,-1.25,10.7));
#522=CARTESIAN_POINT($,(-8.45,-1.25,11.));
#523=CARTESIAN_POINT('Origin',(-4.375,2.2,10.7));
#524=CARTESIAN_POINT($,(-4.375,2.5,10.7));
#525=CARTESIAN_POINT($,(-4.375,2.2,11.));
#526=CARTESIAN_POINT('Origin',(-8.45,-2.2,0.));
#527=CARTESIAN_POINT('',(-8.75,-2.2,0.));
#528=CARTESIAN_POINT('',(-8.45,-2.5,0.));
#529=CARTESIAN_POINT('Origin',(-8.45,-2.2,0.));
#530=CARTESIAN_POINT($,(-8.45,-2.5,0.));
#531=CARTESIAN_POINT($,(-8.75,-2.2,0.));
#532=CARTESIAN_POINT('Origin',(4.375,-2.2,10.7));
#533=CARTESIAN_POINT($,(4.375,-2.5,10.7));
#534=CARTESIAN_POINT($,(4.375,-2.2,11.));
#535=CARTESIAN_POINT('Origin',(8.45,2.2,0.));
#536=CARTESIAN_POINT('',(8.75,2.2,0.));
#537=CARTESIAN_POINT('',(8.45,2.5,0.));
#538=CARTESIAN_POINT('Origin',(8.45,2.2,0.));
#539=CARTESIAN_POINT($,(8.45,2.5,0.));
#540=CARTESIAN_POINT($,(8.75,2.2,0.));
#541=CARTESIAN_POINT('Origin',(8.45,1.25,10.7));
#542=CARTESIAN_POINT($,(8.75,1.25,10.7));
#543=CARTESIAN_POINT($,(8.45,1.25,11.));
#544=CARTESIAN_POINT('Origin',(8.45,-2.2,0.));
#545=CARTESIAN_POINT('',(8.45,-2.5,0.));
#546=CARTESIAN_POINT('',(8.75,-2.2,0.));
#547=CARTESIAN_POINT('Origin',(8.45,-2.2,0.));
#548=CARTESIAN_POINT($,(8.75,-2.2,0.));
#549=CARTESIAN_POINT($,(8.45,-2.5,0.));
#550=CARTESIAN_POINT('Origin',(-8.75,-2.5,0.));
#551=CARTESIAN_POINT($,(-8.75,-2.5,0.));
#552=CARTESIAN_POINT('Origin',(-8.75,2.5,0.));
#553=CARTESIAN_POINT($,(-8.75,2.5,0.));
#554=CARTESIAN_POINT('Origin',(5.55111512312578E-16,-2.22044604925031E-16,
11.));
#555=CARTESIAN_POINT('Origin',(8.75,2.5,0.));
#556=CARTESIAN_POINT($,(8.75,2.5,0.));
#557=CARTESIAN_POINT('Origin',(8.75,-2.5,0.));
#558=CARTESIAN_POINT($,(8.75,-2.5,0.));
#559=CARTESIAN_POINT('Origin',(5.55111512312578E-16,-2.22044604925031E-16,
0.));
#560=CARTESIAN_POINT('Origin',(-7.5,0.,0.));
#561=CARTESIAN_POINT('',(-7.17,4.04133443718627E-17,-3.2));
#562=CARTESIAN_POINT('Origin',(-7.5,0.,-3.2));
#563=CARTESIAN_POINT('',(-7.17,4.04133443718627E-17,0.));
#564=CARTESIAN_POINT('Origin',(-7.5,0.,0.));
#565=CARTESIAN_POINT('Origin',(-7.5,7.00898374132043E-18,0.));
#566=CARTESIAN_POINT('Origin',(-7.5,7.00898374132043E-18,-3.2));
#567=CARTESIAN_POINT('Origin',(7.5,0.,0.));
#568=CARTESIAN_POINT('',(7.83,4.04133443718627E-17,-3.2));
#569=CARTESIAN_POINT('Origin',(7.5,0.,-3.2));
#570=CARTESIAN_POINT('',(7.83,4.04133443718627E-17,0.));
#571=CARTESIAN_POINT('Origin',(7.5,0.,0.));
#572=CARTESIAN_POINT('Origin',(7.5,7.00898374132043E-18,0.));
#573=CARTESIAN_POINT('Origin',(7.5,7.00898374132043E-18,-3.2));
#574=UNCERTAINTY_MEASURE_WITH_UNIT(LENGTH_MEASURE(0.01),#578,
'DISTANCE_ACCURACY_VALUE',
'Maximum model space distance between geometric entities at asserted c
onnectivities');
#575=UNCERTAINTY_MEASURE_WITH_UNIT(LENGTH_MEASURE(1.E-6),#578,
'DISTANCE_ACCURACY_VALUE',
'Maximum model space distance between geometric entities at asserted c
onnectivities');
#576=(
GEOMETRIC_REPRESENTATION_CONTEXT(3)
GLOBAL_UNCERTAINTY_ASSIGNED_CONTEXT((#574))
GLOBAL_UNIT_ASSIGNED_CONTEXT((#578,#580,#579))
REPRESENTATION_CONTEXT('','3D')
);
#577=(
GEOMETRIC_REPRESENTATION_CONTEXT(3)
GLOBAL_UNCERTAINTY_ASSIGNED_CONTEXT((#575))
GLOBAL_UNIT_ASSIGNED_CONTEXT((#578,#12,#579))
REPRESENTATION_CONTEXT('','3D')
);
#578=(
LENGTH_UNIT()
NAMED_UNIT(*)
SI_UNIT(.MILLI.,.METRE.)
);
#579=(
NAMED_UNIT(*)
SI_UNIT($,.STERADIAN.)
SOLID_ANGLE_UNIT()
);
#580=(
NAMED_UNIT(*)
PLANE_ANGLE_UNIT()
SI_UNIT($,.RADIAN.)
);
#581=SHAPE_DEFINITION_REPRESENTATION(#582,#583);
#582=PRODUCT_DEFINITION_SHAPE('',$,#585);
#583=SHAPE_REPRESENTATION('',(#330),#576);
#584=PRODUCT_DEFINITION_CONTEXT('part definition',#589,'design');
#585=PRODUCT_DEFINITION('Product','Product',#586,#584);
#586=PRODUCT_DEFINITION_FORMATION('',$,#591);
#587=PRODUCT_RELATED_PRODUCT_CATEGORY('Product','Product',(#591));
#588=APPLICATION_PROTOCOL_DEFINITION('international standard',
'automotive_design',2009,#589);
#589=APPLICATION_CONTEXT(
'Core Data for Automotive Mechanical Design Process');
#590=PRODUCT_CONTEXT('part definition',#589,'mechanical');
#591=PRODUCT('Product','Product',$,(#590));
#592=PRESENTATION_STYLE_ASSIGNMENT((#595));
#593=PRESENTATION_STYLE_ASSIGNMENT((#596));
#594=PRESENTATION_STYLE_ASSIGNMENT((#597));
#595=SURFACE_STYLE_USAGE(.BOTH.,#598);
#596=SURFACE_STYLE_USAGE(.BOTH.,#599);
#597=SURFACE_STYLE_USAGE(.BOTH.,#600);
#598=SURFACE_SIDE_STYLE($,(#601));
#599=SURFACE_SIDE_STYLE($,(#602));
#600=SURFACE_SIDE_STYLE($,(#603));
#601=SURFACE_STYLE_FILL_AREA(#604);
#602=SURFACE_STYLE_FILL_AREA(#605);
#603=SURFACE_STYLE_FILL_AREA(#606);
#604=FILL_AREA_STYLE($,(#607));
#605=FILL_AREA_STYLE($,(#608));
#606=FILL_AREA_STYLE($,(#609));
#607=FILL_AREA_STYLE_COLOUR($,#610);
#608=FILL_AREA_STYLE_COLOUR($,#611);
#609=FILL_AREA_STYLE_COLOUR($,#612);
#610=COLOUR_RGB('',1.,1.,1.);
#611=COLOUR_RGB('',0.733333333333333,0.733333333333333,0.733333333333333);
#612=COLOUR_RGB('',0.866666666666667,0.866666666666667,0.866666666666667);
ENDSEC;
END-ISO-10303-21;
