ISO-10303-21;
HEADER;
/****************************************************************
 * Generated by software with PDElib inside                    *
 * PDElib Version v51a, created Wed 11/30/2011                  *
 * ITI Transcendata (http://www.transcendata.com/)              *
 ****************************************************************/
FILE_DESCRIPTION((''),'2;1');
FILE_NAME('CAPR1000-400X1300X900.stp','2014-06-24T13:24:34',(''),(''),'Mechanical Desktop 2011','Mechanical Desktop 2011',', , ');
FILE_SCHEMA(('AUTOMOTIVE_DESIGN { 1 2 10303 214 1 1 1 1 }'));
ENDSEC;
DATA;
#10=(NAMED_UNIT(*)PLANE_ANGLE_UNIT()SI_UNIT($,.RADIAN.));
#11=DIMENSIONAL_EXPONENTS(0.0,0.0,0.0,0.0,0.0,0.0,0.0);
#12=PLANE_ANGLE_MEASURE_WITH_UNIT(PLANE_ANGLE_MEASURE(0.0174532925),#10);
#16=(CONVERSION_BASED_UNIT('DEGREE',#12)NAMED_UNIT(#11)PLANE_ANGLE_UNIT());
#20=(NAMED_UNIT(*)SI_UNIT($,.STERADIAN.)SOLID_ANGLE_UNIT());
#24=(LENGTH_UNIT()NAMED_UNIT(*)SI_UNIT(.MILLI.,.METRE.));
#26=UNCERTAINTY_MEASURE_WITH_UNIT(LENGTH_MEASURE(0.000001),#24,'DISTANCE_ACCURACY_VALUE','');
#28=(GEOMETRIC_REPRESENTATION_CONTEXT(3)GLOBAL_UNCERTAINTY_ASSIGNED_CONTEXT((#26))GLOBAL_UNIT_ASSIGNED_CONTEXT((#16,#20,#24))REPRESENTATION_CONTEXT('','3D'));
#29=APPLICATION_CONTEXT('automotive design');
#30=APPLICATION_PROTOCOL_DEFINITION('INTERNATIONAL_STANDARD','automotive_design',1998,#29);
#31=PRODUCT_CONTEXT('3D Mechanical Parts',#29,'mechanical');
#32=PRODUCT('Product','Product','',(#31));
#33=PRODUCT_RELATED_PRODUCT_CATEGORY('part',$,(#32));
#34=PRODUCT_CATEGORY('part',$);
#35=PERSON('1','Design','Joe',$,$,$);
#36=ORGANIZATION($,'None','None');
#37=PERSON_AND_ORGANIZATION(#35,#36);
#38=PERSON_AND_ORGANIZATION_ROLE('design_owner');
#39=APPLIED_PERSON_AND_ORGANIZATION_ASSIGNMENT(#37,#38,(#32));
#40=PRODUCT_DEFINITION_FORMATION_WITH_SPECIFIED_SOURCE('None','',#32,.BOUGHT.);
#41=PERSON('2','Creator','Joe',$,$,$);
#42=ORGANIZATION($,'None','None');
#43=PERSON_AND_ORGANIZATION(#41,#42);
#44=PERSON_AND_ORGANIZATION_ROLE('creator');
#45=APPLIED_PERSON_AND_ORGANIZATION_ASSIGNMENT(#43,#44,(#40));
#46=PERSON('3','Supplier','Joe',$,$,$);
#47=ORGANIZATION($,'None','None');
#48=PERSON_AND_ORGANIZATION(#46,#47);
#49=PERSON_AND_ORGANIZATION_ROLE('design_supplier');
#50=APPLIED_PERSON_AND_ORGANIZATION_ASSIGNMENT(#48,#49,(#40));
#51=PRODUCT_DEFINITION_CONTEXT('part definition',#29,'design');
#52=PRODUCT_DEFINITION('None','',#40,#51);
#53=PERSON('4','Creator','Joe',$,$,$);
#54=ORGANIZATION($,'None','None');
#55=PERSON_AND_ORGANIZATION(#53,#54);
#56=PERSON_AND_ORGANIZATION_ROLE('creator');
#57=APPLIED_PERSON_AND_ORGANIZATION_ASSIGNMENT(#55,#56,(#52));
#58=CARTESIAN_POINT('NONE',(0.0,0.0,0.0));
#59=DIRECTION('NONE',(0.0,0.0,1.0));
#60=DIRECTION('NONE',(1.0,0.0,0.0));
#61=AXIS2_PLACEMENT_3D('NONE',#58,#59,#60);
#62=SHAPE_REPRESENTATION('SR1',(#61),#28);
#63=PRODUCT_DEFINITION_SHAPE('PDS1','Test Part',#52);
#64=SHAPE_DEFINITION_REPRESENTATION(#63,#62);
#65=CARTESIAN_POINT('',(-3.049999999999999,1.6,8.6));
#66=DIRECTION('',(1.0,3.640075E-017,0.0));
#67=DIRECTION('',(0.0,0.707106781186546,0.70710678118655));
#68=AXIS2_PLACEMENT_3D('',#65,#66,#67);
#69=CYLINDRICAL_SURFACE('',#68,0.4);
#70=CARTESIAN_POINT('',(-6.099999999999999,2.0,8.6));
#71=VERTEX_POINT('',#70);
#72=CARTESIAN_POINT('',(-6.099999999999999,1.6,9.0));
#73=VERTEX_POINT('',#72);
#74=CARTESIAN_POINT('',(-6.099999999999999,1.6,8.6));
#75=DIRECTION('',(1.0,0.0,0.0));
#76=DIRECTION('',(0.0,1.0,0.0));
#77=AXIS2_PLACEMENT_3D('',#74,#75,#76);
#78=CIRCLE('',#77,0.4);
#79=EDGE_CURVE('',#71,#73,#78,.T.);
#80=ORIENTED_EDGE('',*,*,#79,.T.);
#81=CARTESIAN_POINT('',(6.1,1.6,9.0));
#82=VERTEX_POINT('',#81);
#83=CARTESIAN_POINT('',(-6.099999999999999,1.6,9.0));
#84=DIRECTION('',(1.0,0.0,0.0));
#85=VECTOR('',#84,12.199999999999999);
#86=LINE('',#83,#85);
#87=EDGE_CURVE('',#73,#82,#86,.T.);
#88=ORIENTED_EDGE('',*,*,#87,.T.);
#89=CARTESIAN_POINT('',(6.1,2.0,8.6));
#90=VERTEX_POINT('',#89);
#91=CARTESIAN_POINT('',(6.1,1.6,8.6));
#92=DIRECTION('',(-1.0,0.0,0.0));
#93=DIRECTION('',(0.0,0.0,1.0));
#94=AXIS2_PLACEMENT_3D('',#91,#92,#93);
#95=CIRCLE('',#94,0.4);
#96=EDGE_CURVE('',#82,#90,#95,.T.);
#97=ORIENTED_EDGE('',*,*,#96,.T.);
#98=CARTESIAN_POINT('',(6.1,2.0,8.6));
#99=DIRECTION('',(-1.0,0.0,0.0));
#100=VECTOR('',#99,12.199999999999999);
#101=LINE('',#98,#100);
#102=EDGE_CURVE('',#90,#71,#101,.T.);
#103=ORIENTED_EDGE('',*,*,#102,.T.);
#104=EDGE_LOOP('',(#80,#88,#97,#103));
#105=FACE_OUTER_BOUND('',#104,.T.);
#106=ADVANCED_FACE('',(#105),#69,.T.);
#107=CARTESIAN_POINT('',(6.1,0.800000000000002,8.6));
#108=DIRECTION('',(5.551115E-016,-1.0,0.0));
#109=DIRECTION('',(0.707106781186546,3.925231E-016,0.707106781186549));
#110=AXIS2_PLACEMENT_3D('',#107,#108,#109);
#111=CYLINDRICAL_SURFACE('',#110,0.4);
#112=CARTESIAN_POINT('',(6.5,1.6,8.6));
#113=VERTEX_POINT('',#112);
#114=CARTESIAN_POINT('',(6.1,1.6,8.6));
#115=DIRECTION('',(0.0,-1.0,0.0));
#116=DIRECTION('',(1.0,0.0,0.0));
#117=AXIS2_PLACEMENT_3D('',#114,#115,#116);
#118=CIRCLE('',#117,0.4);
#119=EDGE_CURVE('',#113,#82,#118,.T.);
#120=ORIENTED_EDGE('',*,*,#119,.T.);
#121=CARTESIAN_POINT('',(6.100000000000001,-1.600000000000001,9.0));
#122=VERTEX_POINT('',#121);
#123=CARTESIAN_POINT('',(6.1,1.6,9.0));
#124=DIRECTION('',(0.0,-1.0,0.0));
#125=VECTOR('',#124,3.200000000000001);
#126=LINE('',#123,#125);
#127=EDGE_CURVE('',#82,#122,#126,.T.);
#128=ORIENTED_EDGE('',*,*,#127,.T.);
#129=CARTESIAN_POINT('',(6.500000000000002,-1.6,8.6));
#130=VERTEX_POINT('',#129);
#131=CARTESIAN_POINT('',(6.100000000000001,-1.600000000000001,8.6));
#132=DIRECTION('',(0.0,1.0,0.0));
#133=DIRECTION('',(0.0,0.0,1.0));
#134=AXIS2_PLACEMENT_3D('',#131,#132,#133);
#135=CIRCLE('',#134,0.4);
#136=EDGE_CURVE('',#122,#130,#135,.T.);
#137=ORIENTED_EDGE('',*,*,#136,.T.);
#138=CARTESIAN_POINT('',(6.500000000000002,-1.6,8.6));
#139=DIRECTION('',(0.0,1.0,0.0));
#140=VECTOR('',#139,3.2);
#141=LINE('',#138,#140);
#142=EDGE_CURVE('',#130,#113,#141,.T.);
#143=ORIENTED_EDGE('',*,*,#142,.T.);
#144=EDGE_LOOP('',(#120,#128,#137,#143));
#145=FACE_OUTER_BOUND('',#144,.T.);
#146=ADVANCED_FACE('',(#145),#111,.T.);
#147=CARTESIAN_POINT('',(3.050000000000001,-1.6,8.6));
#148=DIRECTION('',(-1.0,3.640075E-017,0.0));
#149=DIRECTION('',(0.0,-0.707106781186546,0.70710678118655));
#150=AXIS2_PLACEMENT_3D('',#147,#148,#149);
#151=CYLINDRICAL_SURFACE('',#150,0.4);
#152=CARTESIAN_POINT('',(6.100000000000001,-2.0,8.6));
#153=VERTEX_POINT('',#152);
#154=CARTESIAN_POINT('',(6.100000000000001,-1.6,8.6));
#155=DIRECTION('',(-1.0,0.0,0.0));
#156=DIRECTION('',(0.0,-1.0,0.0));
#157=AXIS2_PLACEMENT_3D('',#154,#155,#156);
#158=CIRCLE('',#157,0.4);
#159=EDGE_CURVE('',#153,#122,#158,.T.);
#160=ORIENTED_EDGE('',*,*,#159,.T.);
#161=CARTESIAN_POINT('',(-6.1,-1.6,9.0));
#162=VERTEX_POINT('',#161);
#163=CARTESIAN_POINT('',(6.100000000000001,-1.6,9.0));
#164=DIRECTION('',(-1.0,0.0,0.0));
#165=VECTOR('',#164,12.200000000000001);
#166=LINE('',#163,#165);
#167=EDGE_CURVE('',#122,#162,#166,.T.);
#168=ORIENTED_EDGE('',*,*,#167,.T.);
#169=CARTESIAN_POINT('',(-6.099999999999999,-2.0,8.6));
#170=VERTEX_POINT('',#169);
#171=CARTESIAN_POINT('',(-6.1,-1.6,8.6));
#172=DIRECTION('',(1.0,0.0,0.0));
#173=DIRECTION('',(0.0,0.0,1.0));
#174=AXIS2_PLACEMENT_3D('',#171,#172,#173);
#175=CIRCLE('',#174,0.4);
#176=EDGE_CURVE('',#162,#170,#175,.T.);
#177=ORIENTED_EDGE('',*,*,#176,.T.);
#178=CARTESIAN_POINT('',(-6.1,-2.0,8.6));
#179=DIRECTION('',(1.0,0.0,0.0));
#180=VECTOR('',#179,12.200000000000001);
#181=LINE('',#178,#180);
#182=EDGE_CURVE('',#170,#153,#181,.T.);
#183=ORIENTED_EDGE('',*,*,#182,.T.);
#184=EDGE_LOOP('',(#160,#168,#177,#183));
#185=FACE_OUTER_BOUND('',#184,.T.);
#186=ADVANCED_FACE('',(#185),#151,.T.);
#187=CARTESIAN_POINT('',(6.100000000000001,-1.6,8.6));
#188=DIRECTION('',(0.0,0.0,1.0));
#189=DIRECTION('',(1.0,0.0,0.0));
#190=AXIS2_PLACEMENT_3D('',#187,#188,#189);
#191=SPHERICAL_SURFACE('',#190,0.4);
#192=ORIENTED_EDGE('',*,*,#159,.F.);
#193=CARTESIAN_POINT('',(6.100000000000001,-1.6,8.6));
#194=DIRECTION('',(0.0,0.0,1.0));
#195=DIRECTION('',(0.707106781186547,-0.707106781186548,0.0));
#196=AXIS2_PLACEMENT_3D('',#193,#194,#195);
#197=CIRCLE('',#196,0.4);
#198=EDGE_CURVE('',#153,#130,#197,.T.);
#199=ORIENTED_EDGE('',*,*,#198,.T.);
#200=ORIENTED_EDGE('',*,*,#136,.F.);
#201=EDGE_LOOP('',(#192,#199,#200));
#202=FACE_OUTER_BOUND('',#201,.T.);
#203=ADVANCED_FACE('',(#202),#191,.T.);
#204=CARTESIAN_POINT('',(-6.099999999999999,-0.8,8.6));
#205=DIRECTION('',(0.0,1.0,0.0));
#206=DIRECTION('',(-0.707106781186546,0.0,0.707106781186549));
#207=AXIS2_PLACEMENT_3D('',#204,#205,#206);
#208=CYLINDRICAL_SURFACE('',#207,0.4);
#209=CARTESIAN_POINT('',(-6.499999999999999,-1.6,8.6));
#210=VERTEX_POINT('',#209);
#211=CARTESIAN_POINT('',(-6.099999999999999,-1.6,8.6));
#212=DIRECTION('',(0.0,1.0,0.0));
#213=DIRECTION('',(-1.0,0.0,0.0));
#214=AXIS2_PLACEMENT_3D('',#211,#212,#213);
#215=CIRCLE('',#214,0.4);
#216=EDGE_CURVE('',#210,#162,#215,.T.);
#217=ORIENTED_EDGE('',*,*,#216,.T.);
#218=CARTESIAN_POINT('',(-6.099999999999999,-1.6,9.0));
#219=DIRECTION('',(0.0,1.0,0.0));
#220=VECTOR('',#219,3.199999999999999);
#221=LINE('',#218,#220);
#222=EDGE_CURVE('',#162,#73,#221,.T.);
#223=ORIENTED_EDGE('',*,*,#222,.T.);
#224=CARTESIAN_POINT('',(-6.499999999999999,1.6,8.6));
#225=VERTEX_POINT('',#224);
#226=CARTESIAN_POINT('',(-6.099999999999999,1.6,8.6));
#227=DIRECTION('',(0.0,-1.0,0.0));
#228=DIRECTION('',(0.0,0.0,1.0));
#229=AXIS2_PLACEMENT_3D('',#226,#227,#228);
#230=CIRCLE('',#229,0.4);
#231=EDGE_CURVE('',#73,#225,#230,.T.);
#232=ORIENTED_EDGE('',*,*,#231,.T.);
#233=CARTESIAN_POINT('',(-6.499999999999999,1.6,8.6));
#234=DIRECTION('',(0.0,-1.0,0.0));
#235=VECTOR('',#234,3.199999999999999);
#236=LINE('',#233,#235);
#237=EDGE_CURVE('',#225,#210,#236,.T.);
#238=ORIENTED_EDGE('',*,*,#237,.T.);
#239=EDGE_LOOP('',(#217,#223,#232,#238));
#240=FACE_OUTER_BOUND('',#239,.T.);
#241=ADVANCED_FACE('',(#240),#208,.T.);
#242=CARTESIAN_POINT('',(-6.1,-1.6,8.6));
#243=DIRECTION('',(0.0,0.0,1.0));
#244=DIRECTION('',(1.0,0.0,0.0));
#245=AXIS2_PLACEMENT_3D('',#242,#243,#244);
#246=SPHERICAL_SURFACE('',#245,0.4);
#247=ORIENTED_EDGE('',*,*,#216,.F.);
#248=CARTESIAN_POINT('',(-6.099999999999999,-1.599999999999999,8.6));
#249=DIRECTION('',(0.0,0.0,1.0));
#250=DIRECTION('',(-0.707106781186548,-0.707106781186547,0.0));
#251=AXIS2_PLACEMENT_3D('',#248,#249,#250);
#252=CIRCLE('',#251,0.4);
#253=EDGE_CURVE('',#210,#170,#252,.T.);
#254=ORIENTED_EDGE('',*,*,#253,.T.);
#255=ORIENTED_EDGE('',*,*,#176,.F.);
#256=EDGE_LOOP('',(#247,#254,#255));
#257=FACE_OUTER_BOUND('',#256,.T.);
#258=ADVANCED_FACE('',(#257),#246,.T.);
#259=CARTESIAN_POINT('',(6.1,1.6,8.6));
#260=DIRECTION('',(0.0,0.0,1.0));
#261=DIRECTION('',(1.0,0.0,0.0));
#262=AXIS2_PLACEMENT_3D('',#259,#260,#261);
#263=SPHERICAL_SURFACE('',#262,0.4);
#264=ORIENTED_EDGE('',*,*,#119,.F.);
#265=CARTESIAN_POINT('',(6.1,1.6,8.6));
#266=DIRECTION('',(0.0,0.0,1.0));
#267=DIRECTION('',(0.707106781186547,0.707106781186548,0.0));
#268=AXIS2_PLACEMENT_3D('',#265,#266,#267);
#269=CIRCLE('',#268,0.4);
#270=EDGE_CURVE('',#113,#90,#269,.T.);
#271=ORIENTED_EDGE('',*,*,#270,.T.);
#272=ORIENTED_EDGE('',*,*,#96,.F.);
#273=EDGE_LOOP('',(#264,#271,#272));
#274=FACE_OUTER_BOUND('',#273,.T.);
#275=ADVANCED_FACE('',(#274),#263,.T.);
#276=CARTESIAN_POINT('',(-6.099999999999999,1.6,8.6));
#277=DIRECTION('',(0.0,0.0,1.0));
#278=DIRECTION('',(1.0,0.0,0.0));
#279=AXIS2_PLACEMENT_3D('',#276,#277,#278);
#280=SPHERICAL_SURFACE('',#279,0.4);
#281=ORIENTED_EDGE('',*,*,#79,.F.);
#282=CARTESIAN_POINT('',(-6.099999999999999,1.599999999999999,8.6));
#283=DIRECTION('',(0.0,0.0,1.0));
#284=DIRECTION('',(-0.707106781186548,0.707106781186547,0.0));
#285=AXIS2_PLACEMENT_3D('',#282,#283,#284);
#286=CIRCLE('',#285,0.4);
#287=EDGE_CURVE('',#71,#225,#286,.T.);
#288=ORIENTED_EDGE('',*,*,#287,.T.);
#289=ORIENTED_EDGE('',*,*,#231,.F.);
#290=EDGE_LOOP('',(#281,#288,#289));
#291=FACE_OUTER_BOUND('',#290,.T.);
#292=ADVANCED_FACE('',(#291),#280,.T.);
#293=CARTESIAN_POINT('',(6.100000000000001,-1.6,-0.5));
#294=DIRECTION('',(0.0,0.0,1.0));
#295=DIRECTION('',(0.707106781186547,-0.707106781186548,0.0));
#296=AXIS2_PLACEMENT_3D('',#293,#294,#295);
#297=CYLINDRICAL_SURFACE('',#296,0.4);
#298=ORIENTED_EDGE('',*,*,#198,.F.);
#299=CARTESIAN_POINT('',(6.100000000000001,-2.0,-5.551115E-017));
#300=VERTEX_POINT('',#299);
#301=CARTESIAN_POINT('',(6.100000000000001,-2.0,-5.551115E-017));
#302=DIRECTION('',(0.0,0.0,1.0));
#303=VECTOR('',#302,8.6);
#304=LINE('',#301,#303);
#305=EDGE_CURVE('',#300,#153,#304,.T.);
#306=ORIENTED_EDGE('',*,*,#305,.F.);
#307=CARTESIAN_POINT('',(6.500000000000002,-1.6,-5.551115E-017));
#308=VERTEX_POINT('',#307);
#309=CARTESIAN_POINT('',(6.100000000000001,-1.6,-5.551115E-017));
#310=DIRECTION('',(0.0,0.0,1.0));
#311=DIRECTION('',(0.707106781186547,-0.707106781186548,0.0));
#312=AXIS2_PLACEMENT_3D('',#309,#310,#311);
#313=CIRCLE('',#312,0.4);
#314=EDGE_CURVE('',#300,#308,#313,.T.);
#315=ORIENTED_EDGE('',*,*,#314,.T.);
#316=CARTESIAN_POINT('',(6.500000000000002,-1.6,-5.551115E-017));
#317=DIRECTION('',(0.0,0.0,1.0));
#318=VECTOR('',#317,8.6);
#319=LINE('',#316,#318);
#320=EDGE_CURVE('',#308,#130,#319,.T.);
#321=ORIENTED_EDGE('',*,*,#320,.T.);
#322=EDGE_LOOP('',(#298,#306,#315,#321));
#323=FACE_OUTER_BOUND('',#322,.T.);
#324=ADVANCED_FACE('',(#323),#297,.T.);
#325=CARTESIAN_POINT('',(6.100000000000001,-2.0,-0.5));
#326=DIRECTION('',(0.0,-1.0,0.0));
#327=DIRECTION('',(0.0,0.0,-1.0));
#328=AXIS2_PLACEMENT_3D('',#325,#326,#327);
#329=PLANE('',#328);
#330=ORIENTED_EDGE('',*,*,#182,.F.);
#331=CARTESIAN_POINT('',(-6.099999999999999,-2.0,-5.551115E-017));
#332=VERTEX_POINT('',#331);
#333=CARTESIAN_POINT('',(-6.099999999999999,-2.0,-5.551115E-017));
#334=DIRECTION('',(0.0,0.0,1.0));
#335=VECTOR('',#334,8.6);
#336=LINE('',#333,#335);
#337=EDGE_CURVE('',#332,#170,#336,.T.);
#338=ORIENTED_EDGE('',*,*,#337,.F.);
#339=CARTESIAN_POINT('',(-6.099999999999999,-2.0,-5.551115E-017));
#340=DIRECTION('',(1.0,0.0,0.0));
#341=VECTOR('',#340,12.199999999999999);
#342=LINE('',#339,#341);
#343=EDGE_CURVE('',#332,#300,#342,.T.);
#344=ORIENTED_EDGE('',*,*,#343,.T.);
#345=ORIENTED_EDGE('',*,*,#305,.T.);
#346=EDGE_LOOP('',(#330,#338,#344,#345));
#347=FACE_OUTER_BOUND('',#346,.T.);
#348=ADVANCED_FACE('',(#347),#329,.T.);
#349=CARTESIAN_POINT('',(-6.099999999999999,-1.599999999999999,-0.5));
#350=DIRECTION('',(0.0,0.0,1.0));
#351=DIRECTION('',(-0.707106781186547,-0.707106781186548,0.0));
#352=AXIS2_PLACEMENT_3D('',#349,#350,#351);
#353=CYLINDRICAL_SURFACE('',#352,0.4);
#354=ORIENTED_EDGE('',*,*,#253,.F.);
#355=CARTESIAN_POINT('',(-6.499999999999999,-1.6,-5.551115E-017));
#356=VERTEX_POINT('',#355);
#357=CARTESIAN_POINT('',(-6.499999999999999,-1.6,-5.551115E-017));
#358=DIRECTION('',(0.0,0.0,1.0));
#359=VECTOR('',#358,8.6);
#360=LINE('',#357,#359);
#361=EDGE_CURVE('',#356,#210,#360,.T.);
#362=ORIENTED_EDGE('',*,*,#361,.F.);
#363=CARTESIAN_POINT('',(-6.099999999999999,-1.599999999999999,-5.551115E-017));
#364=DIRECTION('',(0.0,0.0,1.0));
#365=DIRECTION('',(-0.707106781186547,-0.707106781186548,0.0));
#366=AXIS2_PLACEMENT_3D('',#363,#364,#365);
#367=CIRCLE('',#366,0.4);
#368=EDGE_CURVE('',#356,#332,#367,.T.);
#369=ORIENTED_EDGE('',*,*,#368,.T.);
#370=ORIENTED_EDGE('',*,*,#337,.T.);
#371=EDGE_LOOP('',(#354,#362,#369,#370));
#372=FACE_OUTER_BOUND('',#371,.T.);
#373=ADVANCED_FACE('',(#372),#353,.T.);
#374=CARTESIAN_POINT('',(-6.499999999999999,-1.6,-0.5));
#375=DIRECTION('',(-1.0,0.0,0.0));
#376=DIRECTION('',(0.0,0.0,1.0));
#377=AXIS2_PLACEMENT_3D('',#374,#375,#376);
#378=PLANE('',#377);
#379=ORIENTED_EDGE('',*,*,#237,.F.);
#380=CARTESIAN_POINT('',(-6.499999999999999,1.6,-5.551115E-017));
#381=VERTEX_POINT('',#380);
#382=CARTESIAN_POINT('',(-6.499999999999999,1.6,-5.551115E-017));
#383=DIRECTION('',(0.0,0.0,1.0));
#384=VECTOR('',#383,8.6);
#385=LINE('',#382,#384);
#386=EDGE_CURVE('',#381,#225,#385,.T.);
#387=ORIENTED_EDGE('',*,*,#386,.F.);
#388=CARTESIAN_POINT('',(-6.499999999999999,1.6,-5.551115E-017));
#389=DIRECTION('',(0.0,-1.0,0.0));
#390=VECTOR('',#389,3.199999999999999);
#391=LINE('',#388,#390);
#392=EDGE_CURVE('',#381,#356,#391,.T.);
#393=ORIENTED_EDGE('',*,*,#392,.T.);
#394=ORIENTED_EDGE('',*,*,#361,.T.);
#395=EDGE_LOOP('',(#379,#387,#393,#394));
#396=FACE_OUTER_BOUND('',#395,.T.);
#397=ADVANCED_FACE('',(#396),#378,.T.);
#398=CARTESIAN_POINT('',(8.604228E-016,-4.857226E-017,9.0));
#399=DIRECTION('',(0.0,0.0,1.0));
#400=DIRECTION('',(1.0,0.0,0.0));
#401=AXIS2_PLACEMENT_3D('',#398,#399,#400);
#402=PLANE('',#401);
#403=ORIENTED_EDGE('',*,*,#87,.F.);
#404=ORIENTED_EDGE('',*,*,#222,.F.);
#405=ORIENTED_EDGE('',*,*,#167,.F.);
#406=ORIENTED_EDGE('',*,*,#127,.F.);
#407=EDGE_LOOP('',(#403,#404,#405,#406));
#408=FACE_OUTER_BOUND('',#407,.T.);
#409=ADVANCED_FACE('',(#408),#402,.T.);
#410=CARTESIAN_POINT('',(-6.099999999999999,1.599999999999999,-0.5));
#411=DIRECTION('',(0.0,0.0,1.0));
#412=DIRECTION('',(-0.707106781186547,0.707106781186548,0.0));
#413=AXIS2_PLACEMENT_3D('',#410,#411,#412);
#414=CYLINDRICAL_SURFACE('',#413,0.4);
#415=ORIENTED_EDGE('',*,*,#287,.F.);
#416=CARTESIAN_POINT('',(-6.099999999999999,2.0,-5.551115E-017));
#417=VERTEX_POINT('',#416);
#418=CARTESIAN_POINT('',(-6.099999999999999,2.0,-5.551115E-017));
#419=DIRECTION('',(0.0,0.0,1.0));
#420=VECTOR('',#419,8.6);
#421=LINE('',#418,#420);
#422=EDGE_CURVE('',#417,#71,#421,.T.);
#423=ORIENTED_EDGE('',*,*,#422,.F.);
#424=CARTESIAN_POINT('',(-6.099999999999999,1.599999999999999,-5.551115E-017));
#425=DIRECTION('',(0.0,0.0,1.0));
#426=DIRECTION('',(-0.707106781186547,0.707106781186548,0.0));
#427=AXIS2_PLACEMENT_3D('',#424,#425,#426);
#428=CIRCLE('',#427,0.4);
#429=EDGE_CURVE('',#417,#381,#428,.T.);
#430=ORIENTED_EDGE('',*,*,#429,.T.);
#431=ORIENTED_EDGE('',*,*,#386,.T.);
#432=EDGE_LOOP('',(#415,#423,#430,#431));
#433=FACE_OUTER_BOUND('',#432,.T.);
#434=ADVANCED_FACE('',(#433),#414,.T.);
#435=CARTESIAN_POINT('',(-6.099999999999999,2.0,-0.5));
#436=DIRECTION('',(0.0,1.0,0.0));
#437=DIRECTION('',(0.0,0.0,1.0));
#438=AXIS2_PLACEMENT_3D('',#435,#436,#437);
#439=PLANE('',#438);
#440=ORIENTED_EDGE('',*,*,#102,.F.);
#441=CARTESIAN_POINT('',(6.1,2.0,-5.551115E-017));
#442=VERTEX_POINT('',#441);
#443=CARTESIAN_POINT('',(6.1,2.0,-5.551115E-017));
#444=DIRECTION('',(0.0,0.0,1.0));
#445=VECTOR('',#444,8.6);
#446=LINE('',#443,#445);
#447=EDGE_CURVE('',#442,#90,#446,.T.);
#448=ORIENTED_EDGE('',*,*,#447,.F.);
#449=CARTESIAN_POINT('',(6.1,2.0,-5.551115E-017));
#450=DIRECTION('',(-1.0,0.0,0.0));
#451=VECTOR('',#450,12.199999999999999);
#452=LINE('',#449,#451);
#453=EDGE_CURVE('',#442,#417,#452,.T.);
#454=ORIENTED_EDGE('',*,*,#453,.T.);
#455=ORIENTED_EDGE('',*,*,#422,.T.);
#456=EDGE_LOOP('',(#440,#448,#454,#455));
#457=FACE_OUTER_BOUND('',#456,.T.);
#458=ADVANCED_FACE('',(#457),#439,.T.);
#459=CARTESIAN_POINT('',(6.1,1.6,-0.5));
#460=DIRECTION('',(0.0,0.0,1.0));
#461=DIRECTION('',(0.707106781186547,0.707106781186548,0.0));
#462=AXIS2_PLACEMENT_3D('',#459,#460,#461);
#463=CYLINDRICAL_SURFACE('',#462,0.4);
#464=ORIENTED_EDGE('',*,*,#270,.F.);
#465=CARTESIAN_POINT('',(6.5,1.6,-5.551115E-017));
#466=VERTEX_POINT('',#465);
#467=CARTESIAN_POINT('',(6.5,1.6,-5.551115E-017));
#468=DIRECTION('',(0.0,0.0,1.0));
#469=VECTOR('',#468,8.6);
#470=LINE('',#467,#469);
#471=EDGE_CURVE('',#466,#113,#470,.T.);
#472=ORIENTED_EDGE('',*,*,#471,.F.);
#473=CARTESIAN_POINT('',(6.1,1.6,-5.551115E-017));
#474=DIRECTION('',(0.0,0.0,1.0));
#475=DIRECTION('',(0.707106781186547,0.707106781186548,0.0));
#476=AXIS2_PLACEMENT_3D('',#473,#474,#475);
#477=CIRCLE('',#476,0.4);
#478=EDGE_CURVE('',#466,#442,#477,.T.);
#479=ORIENTED_EDGE('',*,*,#478,.T.);
#480=ORIENTED_EDGE('',*,*,#447,.T.);
#481=EDGE_LOOP('',(#464,#472,#479,#480));
#482=FACE_OUTER_BOUND('',#481,.T.);
#483=ADVANCED_FACE('',(#482),#463,.T.);
#484=CARTESIAN_POINT('',(6.5,1.6,-0.5));
#485=DIRECTION('',(1.0,0.0,0.0));
#486=DIRECTION('',(0.0,0.0,-1.0));
#487=AXIS2_PLACEMENT_3D('',#484,#485,#486);
#488=PLANE('',#487);
#489=ORIENTED_EDGE('',*,*,#142,.F.);
#490=ORIENTED_EDGE('',*,*,#320,.F.);
#491=CARTESIAN_POINT('',(6.500000000000002,-1.6,-5.551115E-017));
#492=DIRECTION('',(0.0,1.0,0.0));
#493=VECTOR('',#492,3.2);
#494=LINE('',#491,#493);
#495=EDGE_CURVE('',#308,#466,#494,.T.);
#496=ORIENTED_EDGE('',*,*,#495,.T.);
#497=ORIENTED_EDGE('',*,*,#471,.T.);
#498=EDGE_LOOP('',(#489,#490,#496,#497));
#499=FACE_OUTER_BOUND('',#498,.T.);
#500=ADVANCED_FACE('',(#499),#488,.T.);
#501=CARTESIAN_POINT('',(8.604228E-016,-4.857226E-017,-5.551115E-017));
#502=DIRECTION('',(0.0,0.0,1.0));
#503=DIRECTION('',(1.0,0.0,0.0));
#504=AXIS2_PLACEMENT_3D('',#501,#502,#503);
#505=PLANE('',#504);
#506=ORIENTED_EDGE('',*,*,#392,.F.);
#507=ORIENTED_EDGE('',*,*,#429,.F.);
#508=ORIENTED_EDGE('',*,*,#453,.F.);
#509=ORIENTED_EDGE('',*,*,#478,.F.);
#510=ORIENTED_EDGE('',*,*,#495,.F.);
#511=ORIENTED_EDGE('',*,*,#314,.F.);
#512=ORIENTED_EDGE('',*,*,#343,.F.);
#513=ORIENTED_EDGE('',*,*,#368,.F.);
#514=EDGE_LOOP('',(#506,#507,#508,#509,#510,#511,#512,#513));
#515=FACE_OUTER_BOUND('',#514,.T.);
#516=ADVANCED_FACE('',(#515),#505,.F.);
#517=CLOSED_SHELL('',(#106,#146,#186,#203,#241,#258,#275,#292,#324,#348,#373,#397,#409,#434,#458,#483,#500,#516));
#518=MANIFOLD_SOLID_BREP('7C8',#517);
#519=COLOUR_RGB('142',0.0,0.4875,0.65);
#520=SURFACE_STYLE_USAGE(.BOTH.,#521);
#521=SURFACE_SIDE_STYLE('NONE',(#522));
#522=SURFACE_STYLE_FILL_AREA(#523);
#523=FILL_AREA_STYLE('NONE',(#524));
#524=FILL_AREA_STYLE_COLOUR('NONE',#519);
#525=PRESENTATION_STYLE_ASSIGNMENT((#520));
#526=STYLED_ITEM('NONE',(#525),#518);
#527=MECHANICAL_DESIGN_GEOMETRIC_PRESENTATION_REPRESENTATION('NONE',(#526,#624,#713),#28);
#528=PRESENTATION_LAYER_ASSIGNMENT('3D','None',(#518,#616,#712));
#529=CARTESIAN_POINT('',(5.0,1.110223E-016,0.0));
#530=DIRECTION('',(0.0,0.0,-1.0));
#531=DIRECTION('',(1.0,0.0,0.0));
#532=AXIS2_PLACEMENT_3D('',#529,#530,#531);
#533=CYLINDRICAL_SURFACE('',#532,0.3);
#534=CARTESIAN_POINT('',(5.3,1.110223E-016,-3.8));
#535=VERTEX_POINT('',#534);
#536=CARTESIAN_POINT('',(5.3,1.110223E-016,0.0));
#537=VERTEX_POINT('',#536);
#538=CARTESIAN_POINT('',(5.3,1.110223E-016,-3.8));
#539=DIRECTION('',(0.0,0.0,1.0));
#540=VECTOR('',#539,3.8);
#541=LINE('',#538,#540);
#542=EDGE_CURVE('',#535,#537,#541,.T.);
#543=ORIENTED_EDGE('',*,*,#542,.F.);
#544=CARTESIAN_POINT('',(4.7,1.477617E-016,-3.8));
#545=VERTEX_POINT('',#544);
#546=CARTESIAN_POINT('',(5.0,1.110223E-016,-3.8));
#547=DIRECTION('',(0.0,0.0,1.0));
#548=DIRECTION('',(1.0,0.0,0.0));
#549=AXIS2_PLACEMENT_3D('',#546,#547,#548);
#550=CIRCLE('',#549,0.3);
#551=EDGE_CURVE('',#535,#545,#550,.T.);
#552=ORIENTED_EDGE('',*,*,#551,.T.);
#553=CARTESIAN_POINT('',(4.7,1.477617E-016,0.0));
#554=VERTEX_POINT('',#553);
#555=CARTESIAN_POINT('',(4.7,1.477617E-016,-3.8));
#556=DIRECTION('',(0.0,0.0,1.0));
#557=VECTOR('',#556,3.8);
#558=LINE('',#555,#557);
#559=EDGE_CURVE('',#545,#554,#558,.T.);
#560=ORIENTED_EDGE('',*,*,#559,.T.);
#561=CARTESIAN_POINT('',(5.0,1.110223E-016,0.0));
#562=DIRECTION('',(0.0,0.0,1.0));
#563=DIRECTION('',(1.0,0.0,0.0));
#564=AXIS2_PLACEMENT_3D('',#561,#562,#563);
#565=CIRCLE('',#564,0.3);
#566=EDGE_CURVE('',#537,#554,#565,.T.);
#567=ORIENTED_EDGE('',*,*,#566,.F.);
#568=EDGE_LOOP('',(#543,#552,#560,#567));
#569=FACE_OUTER_BOUND('',#568,.T.);
#570=ADVANCED_FACE('',(#569),#533,.T.);
#571=CARTESIAN_POINT('',(5.0,1.110223E-016,0.0));
#572=DIRECTION('',(0.0,0.0,-1.0));
#573=DIRECTION('',(1.0,0.0,0.0));
#574=AXIS2_PLACEMENT_3D('',#571,#572,#573);
#575=CYLINDRICAL_SURFACE('',#574,0.3);
#576=ORIENTED_EDGE('',*,*,#542,.T.);
#577=CARTESIAN_POINT('',(5.0,1.110223E-016,0.0));
#578=DIRECTION('',(0.0,0.0,1.0));
#579=DIRECTION('',(1.0,0.0,0.0));
#580=AXIS2_PLACEMENT_3D('',#577,#578,#579);
#581=CIRCLE('',#580,0.3);
#582=EDGE_CURVE('',#554,#537,#581,.T.);
#583=ORIENTED_EDGE('',*,*,#582,.F.);
#584=ORIENTED_EDGE('',*,*,#559,.F.);
#585=CARTESIAN_POINT('',(5.0,1.110223E-016,-3.8));
#586=DIRECTION('',(0.0,0.0,1.0));
#587=DIRECTION('',(1.0,0.0,0.0));
#588=AXIS2_PLACEMENT_3D('',#585,#586,#587);
#589=CIRCLE('',#588,0.3);
#590=EDGE_CURVE('',#545,#535,#589,.T.);
#591=ORIENTED_EDGE('',*,*,#590,.T.);
#592=EDGE_LOOP('',(#576,#583,#584,#591));
#593=FACE_OUTER_BOUND('',#592,.T.);
#594=ADVANCED_FACE('',(#593),#575,.T.);
#595=CARTESIAN_POINT('',(5.0,1.110223E-016,-3.8));
#596=DIRECTION('',(0.0,0.0,1.0));
#597=DIRECTION('',(1.0,0.0,0.0));
#598=AXIS2_PLACEMENT_3D('',#595,#596,#597);
#599=PLANE('',#598);
#600=ORIENTED_EDGE('',*,*,#551,.F.);
#601=ORIENTED_EDGE('',*,*,#590,.F.);
#602=EDGE_LOOP('',(#600,#601));
#603=FACE_OUTER_BOUND('',#602,.T.);
#604=ADVANCED_FACE('',(#603),#599,.F.);
#605=CARTESIAN_POINT('',(5.0,1.110223E-016,0.0));
#606=DIRECTION('',(0.0,0.0,1.0));
#607=DIRECTION('',(1.0,0.0,0.0));
#608=AXIS2_PLACEMENT_3D('',#605,#606,#607);
#609=PLANE('',#608);
#610=ORIENTED_EDGE('',*,*,#566,.T.);
#611=ORIENTED_EDGE('',*,*,#582,.T.);
#612=EDGE_LOOP('',(#610,#611));
#613=FACE_OUTER_BOUND('',#612,.T.);
#614=ADVANCED_FACE('',(#613),#609,.T.);
#615=CLOSED_SHELL('',(#570,#594,#604,#614));
#616=MANIFOLD_SOLID_BREP('7C1',#615);
#617=COLOUR_RGB('254',0.866,0.866,0.866);
#618=SURFACE_STYLE_USAGE(.BOTH.,#619);
#619=SURFACE_SIDE_STYLE('NONE',(#620));
#620=SURFACE_STYLE_FILL_AREA(#621);
#621=FILL_AREA_STYLE('NONE',(#622));
#622=FILL_AREA_STYLE_COLOUR('NONE',#617);
#623=PRESENTATION_STYLE_ASSIGNMENT((#618));
#624=STYLED_ITEM('NONE',(#623),#616);
#625=CARTESIAN_POINT('',(-5.0,1.110223E-016,0.0));
#626=DIRECTION('',(0.0,0.0,-1.0));
#627=DIRECTION('',(1.0,0.0,0.0));
#628=AXIS2_PLACEMENT_3D('',#625,#626,#627);
#629=CYLINDRICAL_SURFACE('',#628,0.3);
#630=CARTESIAN_POINT('',(-4.7,1.110223E-016,-3.8));
#631=VERTEX_POINT('',#630);
#632=CARTESIAN_POINT('',(-4.7,1.110223E-016,0.0));
#633=VERTEX_POINT('',#632);
#634=CARTESIAN_POINT('',(-4.7,1.110223E-016,-3.8));
#635=DIRECTION('',(0.0,0.0,1.0));
#636=VECTOR('',#635,3.8);
#637=LINE('',#634,#636);
#638=EDGE_CURVE('',#631,#633,#637,.T.);
#639=ORIENTED_EDGE('',*,*,#638,.F.);
#640=CARTESIAN_POINT('',(-5.3,1.477617E-016,-3.8));
#641=VERTEX_POINT('',#640);
#642=CARTESIAN_POINT('',(-5.0,1.110223E-016,-3.8));
#643=DIRECTION('',(0.0,0.0,1.0));
#644=DIRECTION('',(1.0,0.0,0.0));
#645=AXIS2_PLACEMENT_3D('',#642,#643,#644);
#646=CIRCLE('',#645,0.3);
#647=EDGE_CURVE('',#631,#641,#646,.T.);
#648=ORIENTED_EDGE('',*,*,#647,.T.);
#649=CARTESIAN_POINT('',(-5.3,1.477617E-016,0.0));
#650=VERTEX_POINT('',#649);
#651=CARTESIAN_POINT('',(-5.3,1.477617E-016,-3.8));
#652=DIRECTION('',(0.0,0.0,1.0));
#653=VECTOR('',#652,3.8);
#654=LINE('',#651,#653);
#655=EDGE_CURVE('',#641,#650,#654,.T.);
#656=ORIENTED_EDGE('',*,*,#655,.T.);
#657=CARTESIAN_POINT('',(-5.0,1.110223E-016,0.0));
#658=DIRECTION('',(0.0,0.0,1.0));
#659=DIRECTION('',(1.0,0.0,0.0));
#660=AXIS2_PLACEMENT_3D('',#657,#658,#659);
#661=CIRCLE('',#660,0.3);
#662=EDGE_CURVE('',#633,#650,#661,.T.);
#663=ORIENTED_EDGE('',*,*,#662,.F.);
#664=EDGE_LOOP('',(#639,#648,#656,#663));
#665=FACE_OUTER_BOUND('',#664,.T.);
#666=ADVANCED_FACE('',(#665),#629,.T.);
#667=CARTESIAN_POINT('',(-5.0,1.110223E-016,0.0));
#668=DIRECTION('',(0.0,0.0,-1.0));
#669=DIRECTION('',(1.0,0.0,0.0));
#670=AXIS2_PLACEMENT_3D('',#667,#668,#669);
#671=CYLINDRICAL_SURFACE('',#670,0.3);
#672=ORIENTED_EDGE('',*,*,#638,.T.);
#673=CARTESIAN_POINT('',(-5.0,1.110223E-016,0.0));
#674=DIRECTION('',(0.0,0.0,1.0));
#675=DIRECTION('',(1.0,0.0,0.0));
#676=AXIS2_PLACEMENT_3D('',#673,#674,#675);
#677=CIRCLE('',#676,0.3);
#678=EDGE_CURVE('',#650,#633,#677,.T.);
#679=ORIENTED_EDGE('',*,*,#678,.F.);
#680=ORIENTED_EDGE('',*,*,#655,.F.);
#681=CARTESIAN_POINT('',(-5.0,1.110223E-016,-3.8));
#682=DIRECTION('',(0.0,0.0,1.0));
#683=DIRECTION('',(1.0,0.0,0.0));
#684=AXIS2_PLACEMENT_3D('',#681,#682,#683);
#685=CIRCLE('',#684,0.3);
#686=EDGE_CURVE('',#641,#631,#685,.T.);
#687=ORIENTED_EDGE('',*,*,#686,.T.);
#688=EDGE_LOOP('',(#672,#679,#680,#687));
#689=FACE_OUTER_BOUND('',#688,.T.);
#690=ADVANCED_FACE('',(#689),#671,.T.);
#691=CARTESIAN_POINT('',(-5.0,1.110223E-016,-3.8));
#692=DIRECTION('',(0.0,0.0,1.0));
#693=DIRECTION('',(1.0,0.0,0.0));
#694=AXIS2_PLACEMENT_3D('',#691,#692,#693);
#695=PLANE('',#694);
#696=ORIENTED_EDGE('',*,*,#647,.F.);
#697=ORIENTED_EDGE('',*,*,#686,.F.);
#698=EDGE_LOOP('',(#696,#697));
#699=FACE_OUTER_BOUND('',#698,.T.);
#700=ADVANCED_FACE('',(#699),#695,.F.);
#701=CARTESIAN_POINT('',(-5.0,1.110223E-016,0.0));
#702=DIRECTION('',(0.0,0.0,1.0));
#703=DIRECTION('',(1.0,0.0,0.0));
#704=AXIS2_PLACEMENT_3D('',#701,#702,#703);
#705=PLANE('',#704);
#706=ORIENTED_EDGE('',*,*,#662,.T.);
#707=ORIENTED_EDGE('',*,*,#678,.T.);
#708=EDGE_LOOP('',(#706,#707));
#709=FACE_OUTER_BOUND('',#708,.T.);
#710=ADVANCED_FACE('',(#709),#705,.T.);
#711=CLOSED_SHELL('',(#666,#690,#700,#710));
#712=MANIFOLD_SOLID_BREP('7C0',#711);
#713=STYLED_ITEM('NONE',(#623),#712);
#714=ADVANCED_BREP_SHAPE_REPRESENTATION('ABSR1',(#518,#616,#712),#28);
#715=SHAPE_REPRESENTATION_RELATIONSHIP('SRRPL1','',#714,#62);
ENDSEC;
END-ISO-10303-21;
