ISO-10303-21;
HEADER;
/****************************************************************
 * Generated by software with PDE/Lib inside                    *
 * PDE/Lib Version 3.2.2, created Thu Mar 23, 2000 at 18:38:49  *
 * International Technegroup Inc. (www.iti-oh.com)              *
 ****************************************************************/
FILE_DESCRIPTION((''),'2;1');
FILE_NAME('CAPRR508-350X500X500.stp','2009-08-24T16:52:01',(''),(''),'Mechanical Desktop 2006','Mechanical Desktop 2006',', , ');
FILE_SCHEMA(('AUTOMOTIVE_DESIGN { 1 2 10303 214 0 1 1 1 }'));
ENDSEC;
DATA;
#8=(NAMED_UNIT(*)PLANE_ANGLE_UNIT()SI_UNIT($,.RADIAN.));
#9=DIMENSIONAL_EXPONENTS(0.0,0.0,0.0,0.0,0.0,0.0,0.0);
#10=PLANE_ANGLE_MEASURE_WITH_UNIT(PLANE_ANGLE_MEASURE(0.017453292500000),#8);
#14=(CONVERSION_BASED_UNIT('DEGREE',#10)NAMED_UNIT(#9)PLANE_ANGLE_UNIT());
#18=(NAMED_UNIT(*)SI_UNIT($,.STERADIAN.)SOLID_ANGLE_UNIT());
#22=(LENGTH_UNIT()NAMED_UNIT(*)SI_UNIT(.MILLI.,.METRE.));
#23=UNCERTAINTY_MEASURE_WITH_UNIT(LENGTH_MEASURE(0.000001000000000),#22,'DISTANCE_ACCURACY_VALUE','');
#28=(GEOMETRIC_REPRESENTATION_CONTEXT(3)GLOBAL_UNCERTAINTY_ASSIGNED_CONTEXT((#23))GLOBAL_UNIT_ASSIGNED_CONTEXT((#14,#18,#22))REPRESENTATION_CONTEXT('None','None'));
#29=APPLICATION_CONTEXT('automotive design');
#30=APPLICATION_PROTOCOL_DEFINITION('DRAFT_INTERNATIONAL_STANDARD','automotive_design',1998,#29);
#31=PRODUCT_CONTEXT('3D Mechanical Parts',#29,'mechanical');
#32=PRODUCT('Product','Product','',(#31));
#33=PRODUCT_RELATED_PRODUCT_CATEGORY('part',$,(#32));
#34=PRODUCT_CATEGORY('part',$);
#35=PERSON('1','Design','Joe',$,$,$);
#36=ORGANIZATION($,'None','None');
#37=PERSON_AND_ORGANIZATION(#35,#36);
#38=PERSON_AND_ORGANIZATION_ROLE('design_owner');
#39=APPLIED_PERSON_AND_ORGANIZATION_ASSIGNMENT(#37,#38,(#32));
#40=PRODUCT_DEFINITION_FORMATION_WITH_SPECIFIED_SOURCE('None','',#32,.BOUGHT.);
#41=PERSON('2','Creator','Joe',$,$,$);
#42=ORGANIZATION($,'None','None');
#43=PERSON_AND_ORGANIZATION(#41,#42);
#44=PERSON_AND_ORGANIZATION_ROLE('creator');
#45=APPLIED_PERSON_AND_ORGANIZATION_ASSIGNMENT(#43,#44,(#40));
#46=PERSON('3','Supplier','Joe',$,$,$);
#47=ORGANIZATION($,'None','None');
#48=PERSON_AND_ORGANIZATION(#46,#47);
#49=PERSON_AND_ORGANIZATION_ROLE('design_supplier');
#50=APPLIED_PERSON_AND_ORGANIZATION_ASSIGNMENT(#48,#49,(#40));
#51=PRODUCT_DEFINITION_CONTEXT('part definition',#29,'design');
#52=PRODUCT_DEFINITION('None','',#40,#51);
#53=PERSON('4','Creator','Joe',$,$,$);
#54=ORGANIZATION($,'None','None');
#55=PERSON_AND_ORGANIZATION(#53,#54);
#56=PERSON_AND_ORGANIZATION_ROLE('creator');
#57=APPLIED_PERSON_AND_ORGANIZATION_ASSIGNMENT(#55,#56,(#52));
#58=CARTESIAN_POINT('NONE',(0.0,0.0,0.0));
#59=DIRECTION('NONE',(0.0,0.0,1.0));
#60=DIRECTION('NONE',(1.0,0.0,0.0));
#61=AXIS2_PLACEMENT_3D('NONE',#58,#59,#60);
#62=SHAPE_REPRESENTATION('SR1',(#61),#28);
#63=PRODUCT_DEFINITION_SHAPE('PDS1','Test Part',#52);
#64=SHAPE_DEFINITION_REPRESENTATION(#63,#62);
#65=CARTESIAN_POINT('',(-0.750000000000006,-1.776357E-015,3.250000000000000));
#66=DIRECTION('',(0.0,0.0,1.0));
#67=DIRECTION('',(1.0,0.0,0.0));
#68=AXIS2_PLACEMENT_3D('',#65,#66,#67);
#69=SPHERICAL_SURFACE('',#68,1.750000000000000);
#70=CARTESIAN_POINT('',(-0.750000000000003,-1.776357E-015,5.0));
#71=VERTEX_POINT('',#70);
#72=CARTESIAN_POINT('',(-0.750000000000003,-1.776357E-015,1.500000000000000));
#73=VERTEX_POINT('',#72);
#74=CARTESIAN_POINT('',(-0.750000000000006,-1.776357E-015,3.250000000000000));
#75=DIRECTION('',(0.0,-1.0,0.0));
#76=DIRECTION('',(0.0,0.0,1.0));
#77=AXIS2_PLACEMENT_3D('',#74,#75,#76);
#78=CIRCLE('',#77,1.750000000000000);
#79=EDGE_CURVE('',#71,#73,#78,.T.);
#80=ORIENTED_EDGE('',*,*,#79,.F.);
#81=CARTESIAN_POINT('',(-0.750000000000002,1.237436867076458,4.487436867076458));
#82=VERTEX_POINT('',#81);
#83=CARTESIAN_POINT('',(-0.750000000000003,0.0,3.250000000000000));
#84=DIRECTION('',(1.0,0.0,0.0));
#85=DIRECTION('',(0.0,0.0,-1.0));
#86=AXIS2_PLACEMENT_3D('',#83,#84,#85);
#87=CIRCLE('',#86,1.750000000000000);
#88=EDGE_CURVE('',#82,#71,#87,.T.);
#89=ORIENTED_EDGE('',*,*,#88,.F.);
#90=CARTESIAN_POINT('',(-0.750000000000003,0.0,3.250000000000000));
#91=DIRECTION('',(1.0,0.0,0.0));
#92=DIRECTION('',(0.0,0.0,-1.0));
#93=AXIS2_PLACEMENT_3D('',#90,#91,#92);
#94=CIRCLE('',#93,1.750000000000000);
#95=EDGE_CURVE('',#73,#82,#94,.T.);
#96=ORIENTED_EDGE('',*,*,#95,.F.);
#97=EDGE_LOOP('',(#80,#89,#96));
#98=FACE_OUTER_BOUND('',#97,.T.);
#99=ADVANCED_FACE('',(#98),#69,.T.);
#100=CARTESIAN_POINT('',(0.750000000000002,-4.440892E-016,3.250000000000000));
#101=DIRECTION('',(0.0,0.0,1.0));
#102=DIRECTION('',(1.0,0.0,0.0));
#103=AXIS2_PLACEMENT_3D('',#100,#101,#102);
#104=SPHERICAL_SURFACE('',#103,1.750000000000000);
#105=CARTESIAN_POINT('',(0.750000000000001,-4.440892E-016,1.500000000000000));
#106=VERTEX_POINT('',#105);
#107=CARTESIAN_POINT('',(0.750000000000001,-4.440892E-016,5.0));
#108=VERTEX_POINT('',#107);
#109=CARTESIAN_POINT('',(0.750000000000002,-4.440892E-016,3.250000000000000));
#110=DIRECTION('',(0.0,-1.0,0.0));
#111=DIRECTION('',(0.0,0.0,1.0));
#112=AXIS2_PLACEMENT_3D('',#109,#110,#111);
#113=CIRCLE('',#112,1.750000000000000);
#114=EDGE_CURVE('',#106,#108,#113,.T.);
#115=ORIENTED_EDGE('',*,*,#114,.F.);
#116=CARTESIAN_POINT('',(0.750000000000001,1.237436867076458,4.487436867076458));
#117=VERTEX_POINT('',#116);
#118=CARTESIAN_POINT('',(0.750000000000001,-8.881784E-016,3.250000000000000));
#119=DIRECTION('',(-1.0,0.0,0.0));
#120=DIRECTION('',(0.0,0.0,1.0));
#121=AXIS2_PLACEMENT_3D('',#118,#119,#120);
#122=CIRCLE('',#121,1.750000000000000);
#123=EDGE_CURVE('',#117,#106,#122,.T.);
#124=ORIENTED_EDGE('',*,*,#123,.F.);
#125=CARTESIAN_POINT('',(0.750000000000001,-8.881784E-016,3.250000000000000));
#126=DIRECTION('',(-1.0,0.0,0.0));
#127=DIRECTION('',(0.0,0.0,1.0));
#128=AXIS2_PLACEMENT_3D('',#125,#126,#127);
#129=CIRCLE('',#128,1.750000000000000);
#130=EDGE_CURVE('',#108,#117,#129,.T.);
#131=ORIENTED_EDGE('',*,*,#130,.F.);
#132=EDGE_LOOP('',(#115,#124,#131));
#133=FACE_OUTER_BOUND('',#132,.T.);
#134=ADVANCED_FACE('',(#133),#104,.T.);
#135=CARTESIAN_POINT('',(-0.375000000000002,-2.220446E-016,3.250000000000000));
#136=DIRECTION('',(1.0,-5.921189E-016,0.0));
#137=DIRECTION('',(4.485978E-016,0.707106781186547,0.707106781186547));
#138=AXIS2_PLACEMENT_3D('',#135,#136,#137);
#139=CYLINDRICAL_SURFACE('',#138,1.750000000000000);
#140=CARTESIAN_POINT('',(-0.750000000000002,1.237436867076458,4.487436867076458));
#141=DIRECTION('',(1.0,0.0,0.0));
#142=VECTOR('',#141,1.500000000000004);
#143=LINE('',#140,#142);
#144=EDGE_CURVE('',#82,#117,#143,.T.);
#145=ORIENTED_EDGE('',*,*,#144,.F.);
#146=ORIENTED_EDGE('',*,*,#88,.T.);
#147=CARTESIAN_POINT('',(-0.750000000000004,-1.750000000000002,3.250000000000000));
#148=VERTEX_POINT('',#147);
#149=CARTESIAN_POINT('',(-0.750000000000003,0.0,3.250000000000000));
#150=DIRECTION('',(1.0,0.0,0.0));
#151=DIRECTION('',(0.0,0.0,-1.0));
#152=AXIS2_PLACEMENT_3D('',#149,#150,#151);
#153=CIRCLE('',#152,1.750000000000000);
#154=EDGE_CURVE('',#71,#148,#153,.T.);
#155=ORIENTED_EDGE('',*,*,#154,.T.);
#156=CARTESIAN_POINT('',(-0.750000000000004,-1.237436867076458,2.012563132923543));
#157=VERTEX_POINT('',#156);
#158=CARTESIAN_POINT('',(-0.750000000000003,0.0,3.250000000000000));
#159=DIRECTION('',(1.0,0.0,0.0));
#160=DIRECTION('',(0.0,0.0,-1.0));
#161=AXIS2_PLACEMENT_3D('',#158,#159,#160);
#162=CIRCLE('',#161,1.750000000000000);
#163=EDGE_CURVE('',#148,#157,#162,.T.);
#164=ORIENTED_EDGE('',*,*,#163,.T.);
#165=CARTESIAN_POINT('',(0.750000000000000,-1.237436867076459,2.012563132923542));
#166=VERTEX_POINT('',#165);
#167=CARTESIAN_POINT('',(0.750000000000000,-1.237436867076459,2.012563132923542));
#168=DIRECTION('',(-1.0,0.0,0.0));
#169=VECTOR('',#168,1.500000000000004);
#170=LINE('',#167,#169);
#171=EDGE_CURVE('',#166,#157,#170,.T.);
#172=ORIENTED_EDGE('',*,*,#171,.F.);
#173=CARTESIAN_POINT('',(0.750000000000002,-1.750000000000000,3.250000000000000));
#174=VERTEX_POINT('',#173);
#175=CARTESIAN_POINT('',(0.750000000000001,-8.881784E-016,3.250000000000000));
#176=DIRECTION('',(-1.0,0.0,0.0));
#177=DIRECTION('',(0.0,0.0,1.0));
#178=AXIS2_PLACEMENT_3D('',#175,#176,#177);
#179=CIRCLE('',#178,1.750000000000000);
#180=EDGE_CURVE('',#166,#174,#179,.T.);
#181=ORIENTED_EDGE('',*,*,#180,.T.);
#182=CARTESIAN_POINT('',(0.750000000000001,-8.881784E-016,3.250000000000000));
#183=DIRECTION('',(-1.0,0.0,0.0));
#184=DIRECTION('',(0.0,0.0,1.0));
#185=AXIS2_PLACEMENT_3D('',#182,#183,#184);
#186=CIRCLE('',#185,1.750000000000000);
#187=EDGE_CURVE('',#174,#108,#186,.T.);
#188=ORIENTED_EDGE('',*,*,#187,.T.);
#189=ORIENTED_EDGE('',*,*,#130,.T.);
#190=EDGE_LOOP('',(#145,#146,#155,#164,#172,#181,#188,#189));
#191=FACE_OUTER_BOUND('',#190,.T.);
#192=ADVANCED_FACE('',(#191),#139,.T.);
#193=CARTESIAN_POINT('',(-0.375000000000002,-2.220446E-016,3.250000000000000));
#194=DIRECTION('',(1.0,-5.921189E-016,0.0));
#195=DIRECTION('',(4.485978E-016,0.707106781186547,0.707106781186547));
#196=AXIS2_PLACEMENT_3D('',#193,#194,#195);
#197=CYLINDRICAL_SURFACE('',#196,1.750000000000000);
#198=ORIENTED_EDGE('',*,*,#144,.T.);
#199=ORIENTED_EDGE('',*,*,#123,.T.);
#200=CARTESIAN_POINT('',(0.750000000000001,-8.881784E-016,3.250000000000000));
#201=DIRECTION('',(-1.0,0.0,0.0));
#202=DIRECTION('',(0.0,0.0,1.0));
#203=AXIS2_PLACEMENT_3D('',#200,#201,#202);
#204=CIRCLE('',#203,1.750000000000000);
#205=EDGE_CURVE('',#106,#166,#204,.T.);
#206=ORIENTED_EDGE('',*,*,#205,.T.);
#207=ORIENTED_EDGE('',*,*,#171,.T.);
#208=CARTESIAN_POINT('',(-0.750000000000003,0.0,3.250000000000000));
#209=DIRECTION('',(1.0,0.0,0.0));
#210=DIRECTION('',(0.0,0.0,-1.0));
#211=AXIS2_PLACEMENT_3D('',#208,#209,#210);
#212=CIRCLE('',#211,1.750000000000000);
#213=EDGE_CURVE('',#157,#73,#212,.T.);
#214=ORIENTED_EDGE('',*,*,#213,.T.);
#215=ORIENTED_EDGE('',*,*,#95,.T.);
#216=EDGE_LOOP('',(#198,#199,#206,#207,#214,#215));
#217=FACE_OUTER_BOUND('',#216,.T.);
#218=ADVANCED_FACE('',(#217),#197,.T.);
#219=CARTESIAN_POINT('',(0.750000000000002,-4.440892E-016,3.250000000000000));
#220=DIRECTION('',(0.0,0.0,1.0));
#221=DIRECTION('',(1.0,0.0,0.0));
#222=AXIS2_PLACEMENT_3D('',#219,#220,#221);
#223=SPHERICAL_SURFACE('',#222,1.750000000000000);
#224=ORIENTED_EDGE('',*,*,#114,.T.);
#225=ORIENTED_EDGE('',*,*,#187,.F.);
#226=ORIENTED_EDGE('',*,*,#180,.F.);
#227=ORIENTED_EDGE('',*,*,#205,.F.);
#228=EDGE_LOOP('',(#224,#225,#226,#227));
#229=FACE_OUTER_BOUND('',#228,.T.);
#230=ADVANCED_FACE('',(#229),#223,.T.);
#231=CARTESIAN_POINT('',(-0.750000000000006,-1.776357E-015,3.250000000000000));
#232=DIRECTION('',(0.0,0.0,1.0));
#233=DIRECTION('',(1.0,0.0,0.0));
#234=AXIS2_PLACEMENT_3D('',#231,#232,#233);
#235=SPHERICAL_SURFACE('',#234,1.750000000000000);
#236=ORIENTED_EDGE('',*,*,#79,.T.);
#237=ORIENTED_EDGE('',*,*,#213,.F.);
#238=ORIENTED_EDGE('',*,*,#163,.F.);
#239=ORIENTED_EDGE('',*,*,#154,.F.);
#240=EDGE_LOOP('',(#236,#237,#238,#239));
#241=FACE_OUTER_BOUND('',#240,.T.);
#242=ADVANCED_FACE('',(#241),#235,.T.);
#243=CLOSED_SHELL('',(#99,#134,#192,#218,#230,#242));
#244=MANIFOLD_SOLID_BREP('2AA',#243);
#245=COLOUR_RGB('40',1.0,0.750000000000000,0.0);
#246=SURFACE_STYLE_USAGE(.BOTH.,#247);
#247=SURFACE_SIDE_STYLE('NONE',(#248));
#248=SURFACE_STYLE_FILL_AREA(#249);
#249=FILL_AREA_STYLE('NONE',(#250));
#250=FILL_AREA_STYLE_COLOUR('NONE',#245);
#251=PRESENTATION_STYLE_ASSIGNMENT((#246));
#252=STYLED_ITEM('NONE',(#251),#244);
#253=MECHANICAL_DESIGN_GEOMETRIC_PRESENTATION_REPRESENTATION('NONE',(#252,#872,#1176),#28);
#254=PRESENTATION_LAYER_ASSIGNMENT('0','None',(#244));
#255=CARTESIAN_POINT('',(-1.290000000000021,4.689852E-016,-3.782830E-016));
#256=CARTESIAN_POINT('',(-1.290000000000020,-0.250000000000000,-3.629754E-016));
#257=CARTESIAN_POINT('',(-1.540000000000021,-0.250000000000000,-3.878714E-016));
#258=CARTESIAN_POINT('',(-1.790000000000021,-0.250000000000000,-4.127674E-016));
#259=CARTESIAN_POINT('',(-1.790000000000021,3.579629E-016,-4.280750E-016));
#260=CARTESIAN_POINT('',(-1.290000000000021,4.230625E-016,-0.750000000000000));
#261=CARTESIAN_POINT('',(-1.290000000000021,-0.250000000000000,-0.750000000000001));
#262=CARTESIAN_POINT('',(-1.540000000000020,-0.250000000000000,-0.500000000000000));
#263=CARTESIAN_POINT('',(-1.790000000000021,-0.250000000000000,-0.250000000000000));
#264=CARTESIAN_POINT('',(-1.790000000000021,3.426553E-016,-0.250000000000000));
#265=CARTESIAN_POINT('',(-2.040000000000021,2.565290E-016,-0.750000000000000));
#266=CARTESIAN_POINT('',(-2.040000000000021,-0.250000000000000,-0.750000000000001));
#267=CARTESIAN_POINT('',(-2.040000000000021,-0.250000000000000,-0.500000000000000));
#268=CARTESIAN_POINT('',(-2.040000000000021,-0.250000000000000,-0.250000000000000));
#269=CARTESIAN_POINT('',(-2.040000000000021,2.871442E-016,-0.250000000000000));
#270=CARTESIAN_POINT('',(-2.790000000000021,8.999556E-017,-0.750000000000000));
#271=CARTESIAN_POINT('',(-2.790000000000021,-0.250000000000000,-0.750000000000001));
#272=CARTESIAN_POINT('',(-2.540000000000021,-0.250000000000000,-0.500000000000000));
#273=CARTESIAN_POINT('',(-2.290000000000021,-0.250000000000000,-0.250000000000000));
#274=CARTESIAN_POINT('',(-2.290000000000021,2.316330E-016,-0.250000000000000));
#275=CARTESIAN_POINT('',(-2.790000000000021,1.359183E-016,-5.276590E-016));
#276=CARTESIAN_POINT('',(-2.790000000000021,-0.250000000000000,-5.123514E-016));
#277=CARTESIAN_POINT('',(-2.540000000000021,-0.250000000000000,-4.874554E-016));
#278=CARTESIAN_POINT('',(-2.290000000000021,-0.250000000000000,-4.625594E-016));
#279=CARTESIAN_POINT('',(-2.290000000000021,2.469406E-016,-4.778670E-016));
#280=CARTESIAN_POINT('',(-2.790000000000021,1.818410E-016,0.749999999999999));
#281=CARTESIAN_POINT('',(-2.790000000000021,-0.250000000000000,0.750000000000000));
#282=CARTESIAN_POINT('',(-2.540000000000021,-0.250000000000000,0.499999999999999));
#283=CARTESIAN_POINT('',(-2.290000000000021,-0.250000000000000,0.249999999999999));
#284=CARTESIAN_POINT('',(-2.290000000000021,2.622482E-016,0.249999999999999));
#285=CARTESIAN_POINT('',(-2.040000000000021,3.483745E-016,0.750000000000000));
#286=CARTESIAN_POINT('',(-2.040000000000021,-0.250000000000000,0.750000000000000));
#287=CARTESIAN_POINT('',(-2.040000000000021,-0.250000000000000,0.500000000000000));
#288=CARTESIAN_POINT('',(-2.040000000000021,-0.250000000000000,0.249999999999999));
#289=CARTESIAN_POINT('',(-2.040000000000021,3.177593E-016,0.250000000000000));
#290=CARTESIAN_POINT('',(-1.290000000000021,5.149079E-016,0.749999999999999));
#291=CARTESIAN_POINT('',(-1.290000000000021,-0.250000000000000,0.750000000000000));
#292=CARTESIAN_POINT('',(-1.540000000000020,-0.250000000000000,0.500000000000000));
#293=CARTESIAN_POINT('',(-1.790000000000021,-0.250000000000000,0.249999999999999));
#294=CARTESIAN_POINT('',(-1.790000000000021,3.732705E-016,0.250000000000000));
#295=CARTESIAN_POINT('',(-1.290000000000021,4.689852E-016,-3.782830E-016));
#296=CARTESIAN_POINT('',(-1.290000000000020,-0.250000000000000,-3.629754E-016));
#297=CARTESIAN_POINT('',(-1.540000000000021,-0.250000000000000,-3.878714E-016));
#298=CARTESIAN_POINT('',(-1.790000000000021,-0.250000000000000,-4.127674E-016));
#299=CARTESIAN_POINT('',(-1.790000000000021,3.579629E-016,-4.280750E-016));
#307=(BOUNDED_SURFACE()B_SPLINE_SURFACE(2,2,((#255,#260,#265,#270,#275,#280,#285,#290,#295),(#256,#261,#266,#271,#276,#281,#286,#291,#296),(#257,#262,#267,#272,#277,#282,#287,#292,#297),(#258,#263,#268,#273,#278,#283,#288,#293,#298),(#259,#264,#269,#274,#279,#284,#289,#294,#299)),.UNSPECIFIED.,.F.,.T.,.U.)B_SPLINE_SURFACE_WITH_KNOTS((3,2,3),(3,2,2,2,3),(-1.209807E-015,1.570796326794897,3.141592653589794),(0.0,1.570796326794897,3.141592653589793,4.712388980384690,6.283185307179586),.UNSPECIFIED.)GEOMETRIC_REPRESENTATION_ITEM()RATIONAL_B_SPLINE_SURFACE(((1.0,0.707106781186548,1.0,0.707106781186548,1.0,0.707106781186548,1.0,0.707106781186548,1.0),(0.707106781186547,0.499999999999999,0.707106781186547,0.499999999999999,0.707106781186547,0.499999999999999,0.707106781186547,0.499999999999999,0.707106781186547),(1.0,0.707106781186548,1.0,0.707106781186548,1.0,0.707106781186548,1.0,0.707106781186548,1.0),(0.707106781186547,0.500000000000000,0.707106781186547,0.500000000000000,0.707106781186547,0.500000000000000,0.707106781186547,0.500000000000000,0.707106781186547),(1.0,0.707106781186548,1.0,0.707106781186548,1.0,0.707106781186548,1.0,0.707106781186548,1.0)))REPRESENTATION_ITEM('')SURFACE());
#308=CARTESIAN_POINT('',(-2.790000000000021,0.0,-6.195044E-016));
#309=VERTEX_POINT('',#308);
#310=CARTESIAN_POINT('',(-2.040000000000021,0.0,0.750000000000000));
#311=VERTEX_POINT('',#310);
#312=CARTESIAN_POINT('',(-2.040000000000021,-3.061516E-017,-4.529710E-016));
#313=DIRECTION('',(0.0,1.0,0.0));
#314=DIRECTION('',(0.0,0.0,-1.0));
#315=AXIS2_PLACEMENT_3D('',#312,#313,#314);
#316=CIRCLE('',#315,0.750000000000000);
#317=EDGE_CURVE('',#309,#311,#316,.T.);
#318=ORIENTED_EDGE('',*,*,#317,.F.);
#319=CARTESIAN_POINT('',(-2.290000000000021,2.049131E-016,-4.996004E-016));
#320=VERTEX_POINT('',#319);
#321=CARTESIAN_POINT('',(-2.540000000000021,0.0,-5.639933E-016));
#322=DIRECTION('',(0.0,0.0,1.0));
#323=DIRECTION('',(-1.0,0.0,0.0));
#324=AXIS2_PLACEMENT_3D('',#321,#322,#323);
#325=CIRCLE('',#324,0.250000000000000);
#326=EDGE_CURVE('',#309,#320,#325,.T.);
#327=ORIENTED_EDGE('',*,*,#326,.T.);
#328=CARTESIAN_POINT('',(-2.040000000000021,1.530758E-017,0.250000000000000));
#329=VERTEX_POINT('',#328);
#330=CARTESIAN_POINT('',(-2.040000000000021,-3.061516E-017,-4.529710E-016));
#331=DIRECTION('',(0.0,-1.0,0.0));
#332=DIRECTION('',(0.0,0.0,-1.0));
#333=AXIS2_PLACEMENT_3D('',#330,#331,#332);
#334=CIRCLE('',#333,0.250000000000000);
#335=EDGE_CURVE('',#329,#320,#334,.T.);
#336=ORIENTED_EDGE('',*,*,#335,.F.);
#337=CARTESIAN_POINT('',(-2.040000000000021,0.0,0.500000000000000));
#338=DIRECTION('',(1.0,0.0,0.0));
#339=DIRECTION('',(0.0,0.0,1.0));
#340=AXIS2_PLACEMENT_3D('',#337,#338,#339);
#341=CIRCLE('',#340,0.250000000000000);
#342=EDGE_CURVE('',#311,#329,#341,.T.);
#343=ORIENTED_EDGE('',*,*,#342,.F.);
#344=EDGE_LOOP('',(#318,#327,#336,#343));
#345=FACE_OUTER_BOUND('',#344,.T.);
#346=ADVANCED_FACE('',(#345),#307,.T.);
#347=CARTESIAN_POINT('',(-2.520000000000010,-3.483745E-016,1.000000000000028));
#348=CARTESIAN_POINT('',(-2.520000000000010,0.250000000000000,1.000000000000028));
#349=CARTESIAN_POINT('',(-2.270000000000010,0.250000000000000,1.000000000000028));
#350=CARTESIAN_POINT('',(-2.020000000000010,0.250000000000000,1.000000000000028));
#351=CARTESIAN_POINT('',(-2.020000000000010,-2.469406E-016,1.000000000000028));
#352=CARTESIAN_POINT('',(-2.520000000000010,-3.942972E-016,0.250000000000000));
#353=CARTESIAN_POINT('',(-2.520000000000010,0.250000000000000,0.250000000000000));
#354=CARTESIAN_POINT('',(-2.270000000000010,0.250000000000000,0.499999999999999));
#355=CARTESIAN_POINT('',(-2.020000000000010,0.250000000000000,0.749999999999999));
#356=CARTESIAN_POINT('',(-2.020000000000010,-2.622482E-016,0.749999999999999));
#357=CARTESIAN_POINT('',(-1.769999999999982,-2.277638E-016,0.250000000000000));
#358=CARTESIAN_POINT('',(-1.769999999999981,0.250000000000000,0.250000000000000));
#359=CARTESIAN_POINT('',(-1.769999999999982,0.250000000000000,0.500000000000000));
#360=CARTESIAN_POINT('',(-1.769999999999982,0.250000000000000,0.749999999999999));
#361=CARTESIAN_POINT('',(-1.769999999999982,-2.067370E-016,0.750000000000000));
#362=CARTESIAN_POINT('',(-1.019999999999953,-6.123032E-017,0.250000000000000));
#363=CARTESIAN_POINT('',(-1.019999999999953,0.250000000000000,0.250000000000000));
#364=CARTESIAN_POINT('',(-1.269999999999953,0.250000000000000,0.500000000000000));
#365=CARTESIAN_POINT('',(-1.519999999999953,0.250000000000000,0.750000000000000));
#366=CARTESIAN_POINT('',(-1.519999999999953,-1.512259E-016,0.750000000000000));
#367=CARTESIAN_POINT('',(-1.019999999999953,-1.530758E-017,1.000000000000028));
#368=CARTESIAN_POINT('',(-1.019999999999953,0.250000000000000,1.000000000000028));
#369=CARTESIAN_POINT('',(-1.269999999999953,0.250000000000000,1.000000000000028));
#370=CARTESIAN_POINT('',(-1.519999999999953,0.250000000000000,1.000000000000028));
#371=CARTESIAN_POINT('',(-1.519999999999953,-1.359183E-016,1.000000000000028));
#372=CARTESIAN_POINT('',(-1.019999999999954,3.061516E-017,1.750000000000056));
#373=CARTESIAN_POINT('',(-1.019999999999954,0.250000000000000,1.750000000000056));
#374=CARTESIAN_POINT('',(-1.269999999999954,0.250000000000000,1.500000000000057));
#375=CARTESIAN_POINT('',(-1.519999999999954,0.250000000000000,1.250000000000057));
#376=CARTESIAN_POINT('',(-1.519999999999954,-1.206107E-016,1.250000000000057));
#377=CARTESIAN_POINT('',(-1.769999999999982,-1.359183E-016,1.750000000000056));
#378=CARTESIAN_POINT('',(-1.769999999999982,0.250000000000000,1.750000000000056));
#379=CARTESIAN_POINT('',(-1.769999999999982,0.250000000000000,1.500000000000056));
#380=CARTESIAN_POINT('',(-1.769999999999982,0.250000000000000,1.250000000000056));
#381=CARTESIAN_POINT('',(-1.769999999999982,-1.761219E-016,1.250000000000056));
#382=CARTESIAN_POINT('',(-2.520000000000010,-3.024517E-016,1.750000000000056));
#383=CARTESIAN_POINT('',(-2.520000000000010,0.250000000000000,1.750000000000056));
#384=CARTESIAN_POINT('',(-2.270000000000010,0.250000000000000,1.500000000000056));
#385=CARTESIAN_POINT('',(-2.020000000000010,0.250000000000000,1.250000000000056));
#386=CARTESIAN_POINT('',(-2.020000000000010,-2.316330E-016,1.250000000000056));
#387=CARTESIAN_POINT('',(-2.520000000000010,-3.483745E-016,1.000000000000028));
#388=CARTESIAN_POINT('',(-2.520000000000010,0.250000000000000,1.000000000000028));
#389=CARTESIAN_POINT('',(-2.270000000000010,0.250000000000000,1.000000000000028));
#390=CARTESIAN_POINT('',(-2.020000000000010,0.250000000000000,1.000000000000028));
#391=CARTESIAN_POINT('',(-2.020000000000010,-2.469406E-016,1.000000000000028));
#399=(BOUNDED_SURFACE()B_SPLINE_SURFACE(2,2,((#347,#352,#357,#362,#367,#372,#377,#382,#387),(#348,#353,#358,#363,#368,#373,#378,#383,#388),(#349,#354,#359,#364,#369,#374,#379,#384,#389),(#350,#355,#360,#365,#370,#375,#380,#385,#390),(#351,#356,#361,#366,#371,#376,#381,#386,#391)),.UNSPECIFIED.,.F.,.T.,.U.)B_SPLINE_SURFACE_WITH_KNOTS((3,2,3),(3,2,2,2,3),(-7.273641E-016,1.570796326794897,3.141592653589794),(0.0,1.570796326794897,3.141592653589793,4.712388980384690,6.283185307179586),.UNSPECIFIED.)GEOMETRIC_REPRESENTATION_ITEM()RATIONAL_B_SPLINE_SURFACE(((1.0,0.707106781186548,1.0,0.707106781186548,1.0,0.707106781186548,1.0,0.707106781186548,1.0),(0.707106781186549,0.500000000000001,0.707106781186549,0.500000000000001,0.707106781186549,0.500000000000001,0.707106781186549,0.500000000000001,0.707106781186549),(1.0,0.707106781186548,1.0,0.707106781186548,1.0,0.707106781186548,1.0,0.707106781186548,1.0),(0.707106781186548,0.500000000000001,0.707106781186548,0.500000000000001,0.707106781186548,0.500000000000001,0.707106781186548,0.500000000000001,0.707106781186548),(1.0,0.707106781186548,1.0,0.707106781186548,1.0,0.707106781186548,1.0,0.707106781186548,1.0)))REPRESENTATION_ITEM('')SURFACE());
#400=CARTESIAN_POINT('',(-1.769999999999982,7.525962E-017,0.250000000000000));
#401=VERTEX_POINT('',#400);
#402=CARTESIAN_POINT('',(-1.019999999999925,8.612631E-017,0.999999999999985));
#403=VERTEX_POINT('',#402);
#404=CARTESIAN_POINT('',(-1.769999999999982,3.061516E-017,1.000000000000028));
#405=DIRECTION('',(0.0,-1.0,0.0));
#406=DIRECTION('',(0.0,0.0,1.0));
#407=AXIS2_PLACEMENT_3D('',#404,#405,#406);
#408=CIRCLE('',#407,0.750000000000028);
#409=EDGE_CURVE('',#401,#403,#408,.T.);
#410=ORIENTED_EDGE('',*,*,#409,.F.);
#411=CARTESIAN_POINT('',(-1.769999999999982,0.0,0.750000000000000));
#412=VERTEX_POINT('',#411);
#413=CARTESIAN_POINT('',(-1.769999999999982,0.0,0.500000000000000));
#414=DIRECTION('',(1.0,0.0,0.0));
#415=DIRECTION('',(0.0,0.0,1.0));
#416=AXIS2_PLACEMENT_3D('',#413,#414,#415);
#417=CIRCLE('',#416,0.250000000000000);
#418=EDGE_CURVE('',#401,#412,#417,.T.);
#419=ORIENTED_EDGE('',*,*,#418,.T.);
#420=CARTESIAN_POINT('',(-1.519999999999982,0.0,1.000000000000014));
#421=VERTEX_POINT('',#420);
#422=CARTESIAN_POINT('',(-1.769999999999982,3.061516E-017,1.000000000000028));
#423=DIRECTION('',(0.0,1.0,0.0));
#424=DIRECTION('',(0.0,0.0,1.0));
#425=AXIS2_PLACEMENT_3D('',#422,#423,#424);
#426=CIRCLE('',#425,0.250000000000028);
#427=EDGE_CURVE('',#421,#412,#426,.T.);
#428=ORIENTED_EDGE('',*,*,#427,.F.);
#429=CARTESIAN_POINT('',(-1.269999999999925,0.0,1.000000000000000));
#430=DIRECTION('',(0.0,0.0,1.0));
#431=DIRECTION('',(-1.0,0.0,0.0));
#432=AXIS2_PLACEMENT_3D('',#429,#430,#431);
#433=CIRCLE('',#432,0.250000000000000);
#434=EDGE_CURVE('',#403,#421,#433,.T.);
#435=ORIENTED_EDGE('',*,*,#434,.F.);
#436=EDGE_LOOP('',(#410,#419,#428,#435));
#437=FACE_OUTER_BOUND('',#436,.T.);
#438=ADVANCED_FACE('',(#437),#399,.T.);
#439=CARTESIAN_POINT('',(-2.290000000000077,2.489599E-017,-1.939999999999999));
#440=CARTESIAN_POINT('',(-2.290000000000021,1.436828E-016,-4.440892E-016));
#441=CARTESIAN_POINT('',(-2.290000000000077,-0.250000000000000,-1.939999999999998));
#442=CARTESIAN_POINT('',(-2.290000000000021,-0.250000000000000,-4.287816E-016));
#443=CARTESIAN_POINT('',(-2.540000000000077,-0.250000000000000,-1.939999999999991));
#444=CARTESIAN_POINT('',(-2.540000000000021,-0.250000000000000,6.898690E-015));
#445=CARTESIAN_POINT('',(-2.790000000000077,-0.250000000000000,-1.939999999999984));
#446=CARTESIAN_POINT('',(-2.790000000000021,-0.250000000000000,1.422616E-014));
#447=CARTESIAN_POINT('',(-2.790000000000077,-2.489599E-017,-1.939999999999984));
#448=CARTESIAN_POINT('',(-2.790000000000021,9.389082E-017,1.421085E-014));
#449=CARTESIAN_POINT('',(-2.790000000000077,0.250000000000000,-1.939999999999984));
#450=CARTESIAN_POINT('',(-2.790000000000021,0.250000000000000,1.419555E-014));
#451=CARTESIAN_POINT('',(-2.540000000000077,0.250000000000000,-1.939999999999991));
#452=CARTESIAN_POINT('',(-2.540000000000021,0.250000000000000,6.868075E-015));
#453=CARTESIAN_POINT('',(-2.290000000000077,0.250000000000000,-1.939999999999998));
#454=CARTESIAN_POINT('',(-2.290000000000021,0.250000000000000,-4.593968E-016));
#455=CARTESIAN_POINT('',(-2.290000000000077,2.489599E-017,-1.939999999999999));
#456=CARTESIAN_POINT('',(-2.290000000000021,1.436828E-016,-4.440892E-016));
#464=(BOUNDED_SURFACE()B_SPLINE_SURFACE(1,2,((#439,#441,#443,#445,#447,#449,#451,#453,#455),(#440,#442,#444,#446,#448,#450,#452,#454,#456)),.UNSPECIFIED.,.F.,.T.,.U.)B_SPLINE_SURFACE_WITH_KNOTS((2,2),(3,2,2,2,3),(-2.842171E-014,7.759999999999964),(0.0,0.392699081698724,0.785398163397448,1.178097245096172,1.570796326794897),.UNSPECIFIED.)GEOMETRIC_REPRESENTATION_ITEM()RATIONAL_B_SPLINE_SURFACE(((1.0,0.707106781186548,1.0,0.707106781186548,1.0,0.707106781186548,1.0,0.707106781186548,1.0),(1.0,0.707106781186548,1.0,0.707106781186548,1.0,0.707106781186548,1.0,0.707106781186548,1.0)))REPRESENTATION_ITEM('')SURFACE());
#465=CARTESIAN_POINT('',(-2.790000000000077,0.0,-1.939999999999984));
#466=VERTEX_POINT('',#465);
#467=CARTESIAN_POINT('',(-2.790000000000077,0.0,-1.939999999999984));
#468=DIRECTION('',(0.0,0.0,1.0));
#469=VECTOR('',#468,1.939999999999984);
#470=LINE('',#467,#469);
#471=EDGE_CURVE('',#466,#309,#470,.T.);
#472=ORIENTED_EDGE('',*,*,#471,.F.);
#473=CARTESIAN_POINT('',(-2.290000000000077,8.612631E-017,-1.939999999999984));
#474=VERTEX_POINT('',#473);
#475=CARTESIAN_POINT('',(-2.540000000000077,0.0,-1.939999999999984));
#476=DIRECTION('',(0.0,0.0,1.0));
#477=DIRECTION('',(-1.0,0.0,0.0));
#478=AXIS2_PLACEMENT_3D('',#475,#476,#477);
#479=CIRCLE('',#478,0.250000000000000);
#480=EDGE_CURVE('',#466,#474,#479,.T.);
#481=ORIENTED_EDGE('',*,*,#480,.T.);
#482=CARTESIAN_POINT('',(-2.290000000000021,2.049131E-016,-4.996004E-016));
#483=DIRECTION('',(0.0,0.0,-1.0));
#484=VECTOR('',#483,1.939999999999984);
#485=LINE('',#482,#484);
#486=EDGE_CURVE('',#320,#474,#485,.T.);
#487=ORIENTED_EDGE('',*,*,#486,.F.);
#488=ORIENTED_EDGE('',*,*,#326,.F.);
#489=EDGE_LOOP('',(#472,#481,#487,#488));
#490=FACE_OUTER_BOUND('',#489,.T.);
#491=ADVANCED_FACE('',(#490),#464,.T.);
#492=CARTESIAN_POINT('',(-2.040000000000021,-4.592274E-017,0.250000000000000));
#493=CARTESIAN_POINT('',(-1.769999999999982,1.402931E-017,0.250000000000000));
#494=CARTESIAN_POINT('',(-2.040000000000021,-0.250000000000000,0.250000000000000));
#495=CARTESIAN_POINT('',(-1.769999999999981,-0.250000000000000,0.250000000000000));
#496=CARTESIAN_POINT('',(-2.040000000000021,-0.250000000000000,0.500000000000000));
#497=CARTESIAN_POINT('',(-1.769999999999982,-0.250000000000000,0.500000000000000));
#498=CARTESIAN_POINT('',(-2.040000000000021,-0.250000000000000,0.750000000000000));
#499=CARTESIAN_POINT('',(-1.769999999999981,-0.250000000000000,0.750000000000000));
#500=CARTESIAN_POINT('',(-2.040000000000021,4.592274E-017,0.750000000000000));
#501=CARTESIAN_POINT('',(-1.769999999999982,1.058748E-016,0.750000000000000));
#502=CARTESIAN_POINT('',(-2.040000000000021,0.250000000000000,0.749999999999999));
#503=CARTESIAN_POINT('',(-1.769999999999981,0.250000000000000,0.750000000000000));
#504=CARTESIAN_POINT('',(-2.040000000000021,0.250000000000000,0.500000000000000));
#505=CARTESIAN_POINT('',(-1.769999999999982,0.250000000000000,0.500000000000000));
#506=CARTESIAN_POINT('',(-2.040000000000021,0.250000000000000,0.250000000000000));
#507=CARTESIAN_POINT('',(-1.769999999999981,0.250000000000000,0.250000000000000));
#508=CARTESIAN_POINT('',(-2.040000000000021,-4.592274E-017,0.250000000000000));
#509=CARTESIAN_POINT('',(-1.769999999999982,1.402931E-017,0.250000000000000));
#517=(BOUNDED_SURFACE()B_SPLINE_SURFACE(1,2,((#492,#494,#496,#498,#500,#502,#504,#506,#508),(#493,#495,#497,#499,#501,#503,#505,#507,#509)),.UNSPECIFIED.,.F.,.T.,.U.)B_SPLINE_SURFACE_WITH_KNOTS((2,2),(3,2,2,2,3),(0.0,1.080000000000156),(0.0,0.392699081698724,0.785398163397448,1.178097245096172,1.570796326794897),.UNSPECIFIED.)GEOMETRIC_REPRESENTATION_ITEM()RATIONAL_B_SPLINE_SURFACE(((1.0,0.707106781186548,1.0,0.707106781186548,1.0,0.707106781186548,1.0,0.707106781186548,1.0),(1.0,0.707106781186548,1.0,0.707106781186548,1.0,0.707106781186548,1.0,0.707106781186548,1.0)))REPRESENTATION_ITEM('')SURFACE());
#518=CARTESIAN_POINT('',(-2.040000000000021,0.0,0.750000000000000));
#519=DIRECTION('',(1.0,0.0,0.0));
#520=VECTOR('',#519,0.270000000000039);
#521=LINE('',#518,#520);
#522=EDGE_CURVE('',#311,#412,#521,.T.);
#523=ORIENTED_EDGE('',*,*,#522,.F.);
#524=ORIENTED_EDGE('',*,*,#342,.T.);
#525=CARTESIAN_POINT('',(-1.769999999999982,7.525962E-017,0.250000000000000));
#526=DIRECTION('',(-1.0,0.0,0.0));
#527=VECTOR('',#526,0.270000000000039);
#528=LINE('',#525,#527);
#529=EDGE_CURVE('',#401,#329,#528,.T.);
#530=ORIENTED_EDGE('',*,*,#529,.F.);
#531=CARTESIAN_POINT('',(-1.769999999999982,0.0,0.500000000000000));
#532=DIRECTION('',(1.0,0.0,0.0));
#533=DIRECTION('',(0.0,0.0,1.0));
#534=AXIS2_PLACEMENT_3D('',#531,#532,#533);
#535=CIRCLE('',#534,0.250000000000000);
#536=EDGE_CURVE('',#412,#401,#535,.T.);
#537=ORIENTED_EDGE('',*,*,#536,.F.);
#538=EDGE_LOOP('',(#523,#524,#530,#537));
#539=FACE_OUTER_BOUND('',#538,.T.);
#540=ADVANCED_FACE('',(#539),#517,.T.);
#541=CARTESIAN_POINT('',(-1.019999999999925,2.489599E-017,0.999999999999986));
#542=CARTESIAN_POINT('',(-1.020000000000260,1.185784E-016,2.530000000000153));
#543=CARTESIAN_POINT('',(-1.019999999999925,-0.250000000000000,0.999999999999986));
#544=CARTESIAN_POINT('',(-1.020000000000260,-0.250000000000000,2.530000000000153));
#545=CARTESIAN_POINT('',(-1.269999999999925,-0.250000000000000,0.999999999999931));
#546=CARTESIAN_POINT('',(-1.270000000000260,-0.250000000000000,2.530000000000098));
#547=CARTESIAN_POINT('',(-1.519999999999925,-0.250000000000000,0.999999999999876));
#548=CARTESIAN_POINT('',(-1.520000000000260,-0.250000000000000,2.530000000000044));
#549=CARTESIAN_POINT('',(-1.519999999999925,-2.489599E-017,0.999999999999876));
#550=CARTESIAN_POINT('',(-1.520000000000260,6.878639E-017,2.530000000000044));
#551=CARTESIAN_POINT('',(-1.519999999999925,0.250000000000000,0.999999999999876));
#552=CARTESIAN_POINT('',(-1.520000000000260,0.250000000000000,2.530000000000044));
#553=CARTESIAN_POINT('',(-1.269999999999925,0.250000000000000,0.999999999999931));
#554=CARTESIAN_POINT('',(-1.270000000000260,0.250000000000000,2.530000000000098));
#555=CARTESIAN_POINT('',(-1.019999999999925,0.250000000000000,0.999999999999986));
#556=CARTESIAN_POINT('',(-1.020000000000260,0.250000000000000,2.530000000000153));
#557=CARTESIAN_POINT('',(-1.019999999999925,2.489599E-017,0.999999999999986));
#558=CARTESIAN_POINT('',(-1.020000000000260,1.185784E-016,2.530000000000153));
#566=(BOUNDED_SURFACE()B_SPLINE_SURFACE(1,2,((#541,#543,#545,#547,#549,#551,#553,#555,#557),(#542,#544,#546,#548,#550,#552,#554,#556,#558)),.UNSPECIFIED.,.F.,.T.,.U.)B_SPLINE_SURFACE_WITH_KNOTS((2,2),(3,2,2,2,3),(-2.753353E-013,6.120000000000394),(0.0,0.392699081698724,0.785398163397448,1.178097245096172,1.570796326794897),.UNSPECIFIED.)GEOMETRIC_REPRESENTATION_ITEM()RATIONAL_B_SPLINE_SURFACE(((1.0,0.707106781186548,1.0,0.707106781186548,1.0,0.707106781186548,1.0,0.707106781186548,1.0),(1.0,0.707106781186548,1.0,0.707106781186548,1.0,0.707106781186548,1.0,0.707106781186548,1.0)))REPRESENTATION_ITEM('')SURFACE());
#567=CARTESIAN_POINT('',(-1.520000000000323,0.0,2.529999999999972));
#568=VERTEX_POINT('',#567);
#569=CARTESIAN_POINT('',(-1.519999999999982,0.0,1.000000000000014));
#570=DIRECTION('',(-2.229154E-013,0.0,1.0));
#571=VECTOR('',#570,1.529999999999959);
#572=LINE('',#569,#571);
#573=EDGE_CURVE('',#421,#568,#572,.T.);
#574=ORIENTED_EDGE('',*,*,#573,.F.);
#575=CARTESIAN_POINT('',(-1.269999999999925,0.0,1.000000000000000));
#576=DIRECTION('',(0.0,0.0,1.0));
#577=DIRECTION('',(-1.0,0.0,0.0));
#578=AXIS2_PLACEMENT_3D('',#575,#576,#577);
#579=CIRCLE('',#578,0.250000000000000);
#580=EDGE_CURVE('',#421,#403,#579,.T.);
#581=ORIENTED_EDGE('',*,*,#580,.T.);
#582=CARTESIAN_POINT('',(-1.020000000000266,1.798087E-016,2.530000000000015));
#583=VERTEX_POINT('',#582);
#584=CARTESIAN_POINT('',(-1.020000000000266,1.798087E-016,2.530000000000015));
#585=DIRECTION('',(2.229154E-013,-6.123032E-017,-1.0));
#586=VECTOR('',#585,1.530000000000030);
#587=LINE('',#584,#586);
#588=EDGE_CURVE('',#583,#403,#587,.T.);
#589=ORIENTED_EDGE('',*,*,#588,.F.);
#590=CARTESIAN_POINT('',(-1.270000000000266,0.0,2.530000000000029));
#591=DIRECTION('',(0.0,0.0,-1.0));
#592=DIRECTION('',(-1.0,0.0,0.0));
#593=AXIS2_PLACEMENT_3D('',#590,#591,#592);
#594=CIRCLE('',#593,0.250000000000000);
#595=EDGE_CURVE('',#583,#568,#594,.T.);
#596=ORIENTED_EDGE('',*,*,#595,.T.);
#597=EDGE_LOOP('',(#574,#581,#589,#596));
#598=FACE_OUTER_BOUND('',#597,.T.);
#599=ADVANCED_FACE('',(#598),#566,.T.);
#600=CARTESIAN_POINT('',(-1.520000000000266,-0.250000000000000,2.529999999999975));
#601=CARTESIAN_POINT('',(-1.520000000000266,0.250000000000000,2.529999999999975));
#602=CARTESIAN_POINT('',(-1.020000000000266,-0.250000000000000,2.530000000000084));
#603=CARTESIAN_POINT('',(-1.020000000000266,0.250000000000000,2.530000000000084));
#604=B_SPLINE_SURFACE_WITH_KNOTS('',1,1,((#600,#602),(#601,#603)),.UNSPECIFIED.,.F.,.F.,.U.,(2,2),(2,2),(0.0,0.500000000000000),(0.0,0.500000000000000),.UNSPECIFIED.);
#605=CARTESIAN_POINT('',(-1.270000000000266,0.0,2.530000000000029));
#606=DIRECTION('',(0.0,0.0,-1.0));
#607=DIRECTION('',(-1.0,0.0,0.0));
#608=AXIS2_PLACEMENT_3D('',#605,#606,#607);
#609=CIRCLE('',#608,0.250000000000000);
#610=EDGE_CURVE('',#568,#583,#609,.T.);
#611=ORIENTED_EDGE('',*,*,#610,.F.);
#612=ORIENTED_EDGE('',*,*,#595,.F.);
#613=EDGE_LOOP('',(#611,#612));
#614=FACE_OUTER_BOUND('',#613,.T.);
#615=ADVANCED_FACE('',(#614),#604,.F.);
#616=CARTESIAN_POINT('',(-1.019999999999925,2.489599E-017,0.999999999999986));
#617=CARTESIAN_POINT('',(-1.020000000000260,1.185784E-016,2.530000000000153));
#618=CARTESIAN_POINT('',(-1.019999999999925,-0.250000000000000,0.999999999999986));
#619=CARTESIAN_POINT('',(-1.020000000000260,-0.250000000000000,2.530000000000153));
#620=CARTESIAN_POINT('',(-1.269999999999925,-0.250000000000000,0.999999999999931));
#621=CARTESIAN_POINT('',(-1.270000000000260,-0.250000000000000,2.530000000000098));
#622=CARTESIAN_POINT('',(-1.519999999999925,-0.250000000000000,0.999999999999876));
#623=CARTESIAN_POINT('',(-1.520000000000260,-0.250000000000000,2.530000000000044));
#624=CARTESIAN_POINT('',(-1.519999999999925,-2.489599E-017,0.999999999999876));
#625=CARTESIAN_POINT('',(-1.520000000000260,6.878639E-017,2.530000000000044));
#626=CARTESIAN_POINT('',(-1.519999999999925,0.250000000000000,0.999999999999876));
#627=CARTESIAN_POINT('',(-1.520000000000260,0.250000000000000,2.530000000000044));
#628=CARTESIAN_POINT('',(-1.269999999999925,0.250000000000000,0.999999999999931));
#629=CARTESIAN_POINT('',(-1.270000000000260,0.250000000000000,2.530000000000098));
#630=CARTESIAN_POINT('',(-1.019999999999925,0.250000000000000,0.999999999999986));
#631=CARTESIAN_POINT('',(-1.020000000000260,0.250000000000000,2.530000000000153));
#632=CARTESIAN_POINT('',(-1.019999999999925,2.489599E-017,0.999999999999986));
#633=CARTESIAN_POINT('',(-1.020000000000260,1.185784E-016,2.530000000000153));
#641=(BOUNDED_SURFACE()B_SPLINE_SURFACE(1,2,((#616,#618,#620,#622,#624,#626,#628,#630,#632),(#617,#619,#621,#623,#625,#627,#629,#631,#633)),.UNSPECIFIED.,.F.,.T.,.U.)B_SPLINE_SURFACE_WITH_KNOTS((2,2),(3,2,2,2,3),(-2.753353E-013,6.120000000000394),(0.0,0.392699081698724,0.785398163397448,1.178097245096172,1.570796326794897),.UNSPECIFIED.)GEOMETRIC_REPRESENTATION_ITEM()RATIONAL_B_SPLINE_SURFACE(((1.0,0.707106781186548,1.0,0.707106781186548,1.0,0.707106781186548,1.0,0.707106781186548,1.0),(1.0,0.707106781186548,1.0,0.707106781186548,1.0,0.707106781186548,1.0,0.707106781186548,1.0)))REPRESENTATION_ITEM('')SURFACE());
#642=ORIENTED_EDGE('',*,*,#573,.T.);
#643=ORIENTED_EDGE('',*,*,#610,.T.);
#644=ORIENTED_EDGE('',*,*,#588,.T.);
#645=ORIENTED_EDGE('',*,*,#434,.T.);
#646=EDGE_LOOP('',(#642,#643,#644,#645));
#647=FACE_OUTER_BOUND('',#646,.T.);
#648=ADVANCED_FACE('',(#647),#641,.T.);
#649=CARTESIAN_POINT('',(-2.020000000000010,1.359183E-016,1.000000000000028));
#650=CARTESIAN_POINT('',(-2.020000000000010,-0.250000000000000,1.000000000000028));
#651=CARTESIAN_POINT('',(-2.270000000000010,-0.250000000000000,1.000000000000028));
#652=CARTESIAN_POINT('',(-2.520000000000010,-0.250000000000000,1.000000000000028));
#653=CARTESIAN_POINT('',(-2.520000000000010,7.653790E-017,1.000000000000028));
#654=CARTESIAN_POINT('',(-2.020000000000010,1.206107E-016,0.749999999999999));
#655=CARTESIAN_POINT('',(-2.020000000000010,-0.250000000000000,0.749999999999999));
#656=CARTESIAN_POINT('',(-2.270000000000010,-0.250000000000000,0.499999999999999));
#657=CARTESIAN_POINT('',(-2.520000000000010,-0.250000000000000,0.250000000000000));
#658=CARTESIAN_POINT('',(-2.520000000000010,3.061516E-017,0.250000000000000));
#659=CARTESIAN_POINT('',(-1.769999999999982,1.761219E-016,0.750000000000000));
#660=CARTESIAN_POINT('',(-1.769999999999981,-0.250000000000000,0.750000000000000));
#661=CARTESIAN_POINT('',(-1.769999999999982,-0.250000000000000,0.500000000000000));
#662=CARTESIAN_POINT('',(-1.769999999999982,-0.250000000000000,0.250000000000000));
#663=CARTESIAN_POINT('',(-1.769999999999982,1.971486E-016,0.250000000000000));
#664=CARTESIAN_POINT('',(-1.519999999999953,2.316330E-016,0.750000000000000));
#665=CARTESIAN_POINT('',(-1.519999999999953,-0.250000000000000,0.750000000000000));
#666=CARTESIAN_POINT('',(-1.269999999999953,-0.250000000000000,0.500000000000000));
#667=CARTESIAN_POINT('',(-1.019999999999953,-0.250000000000000,0.250000000000000));
#668=CARTESIAN_POINT('',(-1.019999999999953,3.636821E-016,0.250000000000000));
#669=CARTESIAN_POINT('',(-1.519999999999953,2.469406E-016,1.000000000000028));
#670=CARTESIAN_POINT('',(-1.519999999999953,-0.250000000000000,1.000000000000028));
#671=CARTESIAN_POINT('',(-1.269999999999953,-0.250000000000000,1.000000000000028));
#672=CARTESIAN_POINT('',(-1.019999999999953,-0.250000000000000,1.000000000000028));
#673=CARTESIAN_POINT('',(-1.019999999999953,4.096048E-016,1.000000000000028));
#674=CARTESIAN_POINT('',(-1.519999999999954,2.622482E-016,1.250000000000057));
#675=CARTESIAN_POINT('',(-1.519999999999954,-0.250000000000000,1.250000000000057));
#676=CARTESIAN_POINT('',(-1.269999999999954,-0.250000000000000,1.500000000000057));
#677=CARTESIAN_POINT('',(-1.019999999999954,-0.250000000000000,1.750000000000056));
#678=CARTESIAN_POINT('',(-1.019999999999954,4.555275E-016,1.750000000000056));
#679=CARTESIAN_POINT('',(-1.769999999999982,2.067370E-016,1.250000000000056));
#680=CARTESIAN_POINT('',(-1.769999999999982,-0.250000000000000,1.250000000000056));
#681=CARTESIAN_POINT('',(-1.769999999999982,-0.250000000000000,1.500000000000056));
#682=CARTESIAN_POINT('',(-1.769999999999982,-0.250000000000000,1.750000000000056));
#683=CARTESIAN_POINT('',(-1.769999999999982,2.889941E-016,1.750000000000056));
#684=CARTESIAN_POINT('',(-2.020000000000010,1.512259E-016,1.250000000000056));
#685=CARTESIAN_POINT('',(-2.020000000000010,-0.250000000000000,1.250000000000056));
#686=CARTESIAN_POINT('',(-2.270000000000010,-0.250000000000000,1.500000000000056));
#687=CARTESIAN_POINT('',(-2.520000000000010,-0.250000000000000,1.750000000000056));
#688=CARTESIAN_POINT('',(-2.520000000000010,1.224606E-016,1.750000000000056));
#689=CARTESIAN_POINT('',(-2.020000000000010,1.359183E-016,1.000000000000028));
#690=CARTESIAN_POINT('',(-2.020000000000010,-0.250000000000000,1.000000000000028));
#691=CARTESIAN_POINT('',(-2.270000000000010,-0.250000000000000,1.000000000000028));
#692=CARTESIAN_POINT('',(-2.520000000000010,-0.250000000000000,1.000000000000028));
#693=CARTESIAN_POINT('',(-2.520000000000010,7.653790E-017,1.000000000000028));
#701=(BOUNDED_SURFACE()B_SPLINE_SURFACE(2,2,((#649,#654,#659,#664,#669,#674,#679,#684,#689),(#650,#655,#660,#665,#670,#675,#680,#685,#690),(#651,#656,#661,#666,#671,#676,#681,#686,#691),(#652,#657,#662,#667,#672,#677,#682,#687,#692),(#653,#658,#663,#668,#673,#678,#683,#688,#693)),.UNSPECIFIED.,.F.,.T.,.U.)B_SPLINE_SURFACE_WITH_KNOTS((3,2,3),(3,2,2,2,3),(-3.141592653589794,-1.570796326794897,9.722854E-016),(0.0,1.570796326794897,3.141592653589793,4.712388980384690,6.283185307179586),.UNSPECIFIED.)GEOMETRIC_REPRESENTATION_ITEM()RATIONAL_B_SPLINE_SURFACE(((1.0,0.707106781186548,1.0,0.707106781186548,1.0,0.707106781186548,1.0,0.707106781186548,1.0),(0.707106781186549,0.500000000000001,0.707106781186549,0.500000000000001,0.707106781186549,0.500000000000001,0.707106781186549,0.500000000000001,0.707106781186549),(1.0,0.707106781186548,1.0,0.707106781186548,1.0,0.707106781186548,1.0,0.707106781186548,1.0),(0.707106781186548,0.500000000000001,0.707106781186548,0.500000000000001,0.707106781186548,0.500000000000001,0.707106781186548,0.500000000000001,0.707106781186548),(1.0,0.707106781186548,1.0,0.707106781186548,1.0,0.707106781186548,1.0,0.707106781186548,1.0)))REPRESENTATION_ITEM('')SURFACE());
#702=ORIENTED_EDGE('',*,*,#409,.T.);
#703=ORIENTED_EDGE('',*,*,#580,.F.);
#704=ORIENTED_EDGE('',*,*,#427,.T.);
#705=ORIENTED_EDGE('',*,*,#536,.T.);
#706=EDGE_LOOP('',(#702,#703,#704,#705));
#707=FACE_OUTER_BOUND('',#706,.T.);
#708=ADVANCED_FACE('',(#707),#701,.T.);
#709=CARTESIAN_POINT('',(-2.040000000000021,-4.592274E-017,0.250000000000000));
#710=CARTESIAN_POINT('',(-1.769999999999982,1.402931E-017,0.250000000000000));
#711=CARTESIAN_POINT('',(-2.040000000000021,-0.250000000000000,0.250000000000000));
#712=CARTESIAN_POINT('',(-1.769999999999981,-0.250000000000000,0.250000000000000));
#713=CARTESIAN_POINT('',(-2.040000000000021,-0.250000000000000,0.500000000000000));
#714=CARTESIAN_POINT('',(-1.769999999999982,-0.250000000000000,0.500000000000000));
#715=CARTESIAN_POINT('',(-2.040000000000021,-0.250000000000000,0.750000000000000));
#716=CARTESIAN_POINT('',(-1.769999999999981,-0.250000000000000,0.750000000000000));
#717=CARTESIAN_POINT('',(-2.040000000000021,4.592274E-017,0.750000000000000));
#718=CARTESIAN_POINT('',(-1.769999999999982,1.058748E-016,0.750000000000000));
#719=CARTESIAN_POINT('',(-2.040000000000021,0.250000000000000,0.749999999999999));
#720=CARTESIAN_POINT('',(-1.769999999999981,0.250000000000000,0.750000000000000));
#721=CARTESIAN_POINT('',(-2.040000000000021,0.250000000000000,0.500000000000000));
#722=CARTESIAN_POINT('',(-1.769999999999982,0.250000000000000,0.500000000000000));
#723=CARTESIAN_POINT('',(-2.040000000000021,0.250000000000000,0.250000000000000));
#724=CARTESIAN_POINT('',(-1.769999999999981,0.250000000000000,0.250000000000000));
#725=CARTESIAN_POINT('',(-2.040000000000021,-4.592274E-017,0.250000000000000));
#726=CARTESIAN_POINT('',(-1.769999999999982,1.402931E-017,0.250000000000000));
#734=(BOUNDED_SURFACE()B_SPLINE_SURFACE(1,2,((#709,#711,#713,#715,#717,#719,#721,#723,#725),(#710,#712,#714,#716,#718,#720,#722,#724,#726)),.UNSPECIFIED.,.F.,.T.,.U.)B_SPLINE_SURFACE_WITH_KNOTS((2,2),(3,2,2,2,3),(0.0,1.080000000000156),(0.0,0.392699081698724,0.785398163397448,1.178097245096172,1.570796326794897),.UNSPECIFIED.)GEOMETRIC_REPRESENTATION_ITEM()RATIONAL_B_SPLINE_SURFACE(((1.0,0.707106781186548,1.0,0.707106781186548,1.0,0.707106781186548,1.0,0.707106781186548,1.0),(1.0,0.707106781186548,1.0,0.707106781186548,1.0,0.707106781186548,1.0,0.707106781186548,1.0)))REPRESENTATION_ITEM('')SURFACE());
#735=ORIENTED_EDGE('',*,*,#522,.T.);
#736=ORIENTED_EDGE('',*,*,#418,.F.);
#737=ORIENTED_EDGE('',*,*,#529,.T.);
#738=CARTESIAN_POINT('',(-2.040000000000021,0.0,0.500000000000000));
#739=DIRECTION('',(1.0,0.0,0.0));
#740=DIRECTION('',(0.0,0.0,1.0));
#741=AXIS2_PLACEMENT_3D('',#738,#739,#740);
#742=CIRCLE('',#741,0.250000000000000);
#743=EDGE_CURVE('',#329,#311,#742,.T.);
#744=ORIENTED_EDGE('',*,*,#743,.T.);
#745=EDGE_LOOP('',(#735,#736,#737,#744));
#746=FACE_OUTER_BOUND('',#745,.T.);
#747=ADVANCED_FACE('',(#746),#734,.T.);
#748=CARTESIAN_POINT('',(-1.790000000000021,-1.359183E-016,-4.280750E-016));
#749=CARTESIAN_POINT('',(-1.790000000000021,0.250000000000000,-4.433826E-016));
#750=CARTESIAN_POINT('',(-1.540000000000021,0.250000000000000,-4.184866E-016));
#751=CARTESIAN_POINT('',(-1.290000000000020,0.250000000000000,-3.935906E-016));
#752=CARTESIAN_POINT('',(-1.290000000000021,-7.653790E-017,-3.782830E-016));
#753=CARTESIAN_POINT('',(-1.790000000000021,-1.512259E-016,-0.250000000000000));
#754=CARTESIAN_POINT('',(-1.790000000000021,0.250000000000000,-0.250000000000000));
#755=CARTESIAN_POINT('',(-1.540000000000020,0.250000000000000,-0.500000000000000));
#756=CARTESIAN_POINT('',(-1.290000000000021,0.250000000000000,-0.750000000000000));
#757=CARTESIAN_POINT('',(-1.290000000000021,-1.224606E-016,-0.750000000000000));
#758=CARTESIAN_POINT('',(-2.040000000000021,-2.067370E-016,-0.250000000000000));
#759=CARTESIAN_POINT('',(-2.040000000000021,0.250000000000000,-0.250000000000000));
#760=CARTESIAN_POINT('',(-2.040000000000021,0.250000000000000,-0.500000000000000));
#761=CARTESIAN_POINT('',(-2.040000000000021,0.250000000000000,-0.750000000000001));
#762=CARTESIAN_POINT('',(-2.040000000000021,-2.889941E-016,-0.750000000000000));
#763=CARTESIAN_POINT('',(-2.290000000000021,-2.622482E-016,-0.250000000000000));
#764=CARTESIAN_POINT('',(-2.290000000000020,0.250000000000000,-0.250000000000000));
#765=CARTESIAN_POINT('',(-2.540000000000021,0.250000000000000,-0.500000000000000));
#766=CARTESIAN_POINT('',(-2.790000000000021,0.250000000000000,-0.750000000000001));
#767=CARTESIAN_POINT('',(-2.790000000000021,-4.555275E-016,-0.750000000000000));
#768=CARTESIAN_POINT('',(-2.290000000000021,-2.469406E-016,-4.778670E-016));
#769=CARTESIAN_POINT('',(-2.290000000000021,0.250000000000000,-4.931746E-016));
#770=CARTESIAN_POINT('',(-2.540000000000021,0.250000000000000,-5.180706E-016));
#771=CARTESIAN_POINT('',(-2.790000000000021,0.250000000000000,-5.429666E-016));
#772=CARTESIAN_POINT('',(-2.790000000000021,-4.096048E-016,-5.276590E-016));
#773=CARTESIAN_POINT('',(-2.290000000000021,-2.316330E-016,0.249999999999999));
#774=CARTESIAN_POINT('',(-2.290000000000020,0.250000000000000,0.249999999999999));
#775=CARTESIAN_POINT('',(-2.540000000000021,0.250000000000000,0.499999999999999));
#776=CARTESIAN_POINT('',(-2.790000000000021,0.250000000000000,0.749999999999999));
#777=CARTESIAN_POINT('',(-2.790000000000021,-3.636821E-016,0.749999999999999));
#778=CARTESIAN_POINT('',(-2.040000000000021,-1.761219E-016,0.250000000000000));
#779=CARTESIAN_POINT('',(-2.040000000000021,0.250000000000000,0.249999999999999));
#780=CARTESIAN_POINT('',(-2.040000000000021,0.250000000000000,0.500000000000000));
#781=CARTESIAN_POINT('',(-2.040000000000021,0.250000000000000,0.750000000000000));
#782=CARTESIAN_POINT('',(-2.040000000000021,-1.971486E-016,0.750000000000000));
#783=CARTESIAN_POINT('',(-1.790000000000021,-1.206107E-016,0.250000000000000));
#784=CARTESIAN_POINT('',(-1.790000000000021,0.250000000000000,0.249999999999999));
#785=CARTESIAN_POINT('',(-1.540000000000020,0.250000000000000,0.500000000000000));
#786=CARTESIAN_POINT('',(-1.290000000000021,0.250000000000000,0.750000000000000));
#787=CARTESIAN_POINT('',(-1.290000000000021,-3.061516E-017,0.749999999999999));
#788=CARTESIAN_POINT('',(-1.790000000000021,-1.359183E-016,-4.280750E-016));
#789=CARTESIAN_POINT('',(-1.790000000000021,0.250000000000000,-4.433826E-016));
#790=CARTESIAN_POINT('',(-1.540000000000021,0.250000000000000,-4.184866E-016));
#791=CARTESIAN_POINT('',(-1.290000000000020,0.250000000000000,-3.935906E-016));
#792=CARTESIAN_POINT('',(-1.290000000000021,-7.653790E-017,-3.782830E-016));
#800=(BOUNDED_SURFACE()B_SPLINE_SURFACE(2,2,((#748,#753,#758,#763,#768,#773,#778,#783,#788),(#749,#754,#759,#764,#769,#774,#779,#784,#789),(#750,#755,#760,#765,#770,#775,#780,#785,#790),(#751,#756,#761,#766,#771,#776,#781,#786,#791),(#752,#757,#762,#767,#772,#777,#782,#787,#792)),.UNSPECIFIED.,.F.,.T.,.U.)B_SPLINE_SURFACE_WITH_KNOTS((3,2,3),(3,2,2,2,3),(-3.141592653589794,-1.570796326794897,9.722854E-016),(0.0,1.570796326794897,3.141592653589793,4.712388980384690,6.283185307179586),.UNSPECIFIED.)GEOMETRIC_REPRESENTATION_ITEM()RATIONAL_B_SPLINE_SURFACE(((1.0,0.707106781186548,1.0,0.707106781186548,1.0,0.707106781186548,1.0,0.707106781186548,1.0),(0.707106781186547,0.500000000000000,0.707106781186547,0.500000000000000,0.707106781186547,0.500000000000000,0.707106781186547,0.500000000000000,0.707106781186547),(1.0,0.707106781186548,1.0,0.707106781186548,1.0,0.707106781186548,1.0,0.707106781186548,1.0),(0.707106781186547,0.500000000000000,0.707106781186547,0.500000000000000,0.707106781186547,0.500000000000000,0.707106781186547,0.500000000000000,0.707106781186547),(1.0,0.707106781186548,1.0,0.707106781186548,1.0,0.707106781186548,1.0,0.707106781186548,1.0)))REPRESENTATION_ITEM('')SURFACE());
#801=ORIENTED_EDGE('',*,*,#317,.T.);
#802=ORIENTED_EDGE('',*,*,#743,.F.);
#803=ORIENTED_EDGE('',*,*,#335,.T.);
#804=CARTESIAN_POINT('',(-2.540000000000021,0.0,-5.639933E-016));
#805=DIRECTION('',(0.0,0.0,1.0));
#806=DIRECTION('',(-1.0,0.0,0.0));
#807=AXIS2_PLACEMENT_3D('',#804,#805,#806);
#808=CIRCLE('',#807,0.250000000000000);
#809=EDGE_CURVE('',#320,#309,#808,.T.);
#810=ORIENTED_EDGE('',*,*,#809,.T.);
#811=EDGE_LOOP('',(#801,#802,#803,#810));
#812=FACE_OUTER_BOUND('',#811,.T.);
#813=ADVANCED_FACE('',(#812),#800,.T.);
#814=CARTESIAN_POINT('',(-2.290000000000077,2.489599E-017,-1.939999999999999));
#815=CARTESIAN_POINT('',(-2.290000000000021,1.436828E-016,-4.440892E-016));
#816=CARTESIAN_POINT('',(-2.290000000000077,-0.250000000000000,-1.939999999999998));
#817=CARTESIAN_POINT('',(-2.290000000000021,-0.250000000000000,-4.287816E-016));
#818=CARTESIAN_POINT('',(-2.540000000000077,-0.250000000000000,-1.939999999999991));
#819=CARTESIAN_POINT('',(-2.540000000000021,-0.250000000000000,6.898690E-015));
#820=CARTESIAN_POINT('',(-2.790000000000077,-0.250000000000000,-1.939999999999984));
#821=CARTESIAN_POINT('',(-2.790000000000021,-0.250000000000000,1.422616E-014));
#822=CARTESIAN_POINT('',(-2.790000000000077,-2.489599E-017,-1.939999999999984));
#823=CARTESIAN_POINT('',(-2.790000000000021,9.389082E-017,1.421085E-014));
#824=CARTESIAN_POINT('',(-2.790000000000077,0.250000000000000,-1.939999999999984));
#825=CARTESIAN_POINT('',(-2.790000000000021,0.250000000000000,1.419555E-014));
#826=CARTESIAN_POINT('',(-2.540000000000077,0.250000000000000,-1.939999999999991));
#827=CARTESIAN_POINT('',(-2.540000000000021,0.250000000000000,6.868075E-015));
#828=CARTESIAN_POINT('',(-2.290000000000077,0.250000000000000,-1.939999999999998));
#829=CARTESIAN_POINT('',(-2.290000000000021,0.250000000000000,-4.593968E-016));
#830=CARTESIAN_POINT('',(-2.290000000000077,2.489599E-017,-1.939999999999999));
#831=CARTESIAN_POINT('',(-2.290000000000021,1.436828E-016,-4.440892E-016));
#839=(BOUNDED_SURFACE()B_SPLINE_SURFACE(1,2,((#814,#816,#818,#820,#822,#824,#826,#828,#830),(#815,#817,#819,#821,#823,#825,#827,#829,#831)),.UNSPECIFIED.,.F.,.T.,.U.)B_SPLINE_SURFACE_WITH_KNOTS((2,2),(3,2,2,2,3),(-2.842171E-014,7.759999999999964),(0.0,0.392699081698724,0.785398163397448,1.178097245096172,1.570796326794897),.UNSPECIFIED.)GEOMETRIC_REPRESENTATION_ITEM()RATIONAL_B_SPLINE_SURFACE(((1.0,0.707106781186548,1.0,0.707106781186548,1.0,0.707106781186548,1.0,0.707106781186548,1.0),(1.0,0.707106781186548,1.0,0.707106781186548,1.0,0.707106781186548,1.0,0.707106781186548,1.0)))REPRESENTATION_ITEM('')SURFACE());
#840=ORIENTED_EDGE('',*,*,#471,.T.);
#841=ORIENTED_EDGE('',*,*,#809,.F.);
#842=ORIENTED_EDGE('',*,*,#486,.T.);
#843=CARTESIAN_POINT('',(-2.540000000000077,0.0,-1.939999999999984));
#844=DIRECTION('',(0.0,0.0,1.0));
#845=DIRECTION('',(-1.0,0.0,0.0));
#846=AXIS2_PLACEMENT_3D('',#843,#844,#845);
#847=CIRCLE('',#846,0.250000000000000);
#848=EDGE_CURVE('',#474,#466,#847,.T.);
#849=ORIENTED_EDGE('',*,*,#848,.T.);
#850=EDGE_LOOP('',(#840,#841,#842,#849));
#851=FACE_OUTER_BOUND('',#850,.T.);
#852=ADVANCED_FACE('',(#851),#839,.T.);
#853=CARTESIAN_POINT('',(-2.790000000000077,-0.250000000000000,-1.939999999999984));
#854=CARTESIAN_POINT('',(-2.790000000000077,0.250000000000000,-1.939999999999984));
#855=CARTESIAN_POINT('',(-2.290000000000077,-0.250000000000000,-1.939999999999984));
#856=CARTESIAN_POINT('',(-2.290000000000077,0.250000000000000,-1.939999999999985));
#857=B_SPLINE_SURFACE_WITH_KNOTS('',1,1,((#853,#855),(#854,#856)),.UNSPECIFIED.,.F.,.F.,.U.,(2,2),(2,2),(0.0,0.500000000000000),(0.0,0.500000000000000),.UNSPECIFIED.);
#858=ORIENTED_EDGE('',*,*,#480,.F.);
#859=ORIENTED_EDGE('',*,*,#848,.F.);
#860=EDGE_LOOP('',(#858,#859));
#861=FACE_OUTER_BOUND('',#860,.T.);
#862=ADVANCED_FACE('',(#861),#857,.T.);
#863=CLOSED_SHELL('',(#346,#438,#491,#540,#599,#615,#648,#708,#747,#813,#852,#862));
#864=MANIFOLD_SOLID_BREP('2A8',#863);
#865=COLOUR_RGB('253',0.732000000000000,0.732000000000000,0.732000000000000);
#866=SURFACE_STYLE_USAGE(.BOTH.,#867);
#867=SURFACE_SIDE_STYLE('NONE',(#868));
#868=SURFACE_STYLE_FILL_AREA(#869);
#869=FILL_AREA_STYLE('NONE',(#870));
#870=FILL_AREA_STYLE_COLOUR('NONE',#865);
#871=PRESENTATION_STYLE_ASSIGNMENT((#866));
#872=STYLED_ITEM('NONE',(#871),#864);
#873=PRESENTATION_LAYER_ASSIGNMENT('3D','None',(#864,#1175));
#874=CARTESIAN_POINT('',(2.040000000000021,0.0,4.529710E-016));
#875=DIRECTION('',(2.220446E-016,-1.0,6.123032E-017));
#876=DIRECTION('',(1.0,0.0,0.0));
#877=AXIS2_PLACEMENT_3D('',#874,#875,#876);
#878=TOROIDAL_SURFACE('',#877,0.500000000000000,0.250000000000000);
#879=CARTESIAN_POINT('',(2.790000000000021,0.0,6.195044E-016));
#880=VERTEX_POINT('',#879);
#881=CARTESIAN_POINT('',(2.040000000000021,0.0,0.750000000000000));
#882=VERTEX_POINT('',#881);
#883=CARTESIAN_POINT('',(2.040000000000021,-3.061516E-017,4.529710E-016));
#884=DIRECTION('',(0.0,-1.0,0.0));
#885=DIRECTION('',(0.0,0.0,-1.0));
#886=AXIS2_PLACEMENT_3D('',#883,#884,#885);
#887=CIRCLE('',#886,0.750000000000000);
#888=EDGE_CURVE('',#880,#882,#887,.T.);
#889=ORIENTED_EDGE('',*,*,#888,.F.);
#890=CARTESIAN_POINT('',(2.290000000000021,9.389082E-017,4.996004E-016));
#891=VERTEX_POINT('',#890);
#892=CARTESIAN_POINT('',(2.540000000000021,0.0,5.639933E-016));
#893=DIRECTION('',(0.0,0.0,-1.0));
#894=DIRECTION('',(1.0,0.0,0.0));
#895=AXIS2_PLACEMENT_3D('',#892,#893,#894);
#896=CIRCLE('',#895,0.250000000000000);
#897=EDGE_CURVE('',#891,#880,#896,.T.);
#898=ORIENTED_EDGE('',*,*,#897,.F.);
#899=CARTESIAN_POINT('',(2.040000000000021,1.530758E-017,0.250000000000000));
#900=VERTEX_POINT('',#899);
#901=CARTESIAN_POINT('',(2.040000000000021,-3.061516E-017,4.529710E-016));
#902=DIRECTION('',(0.0,1.0,0.0));
#903=DIRECTION('',(0.0,0.0,-1.0));
#904=AXIS2_PLACEMENT_3D('',#901,#902,#903);
#905=CIRCLE('',#904,0.250000000000000);
#906=EDGE_CURVE('',#900,#891,#905,.T.);
#907=ORIENTED_EDGE('',*,*,#906,.F.);
#908=CARTESIAN_POINT('',(2.040000000000021,0.0,0.500000000000000));
#909=DIRECTION('',(1.0,0.0,0.0));
#910=DIRECTION('',(0.0,0.0,1.0));
#911=AXIS2_PLACEMENT_3D('',#908,#909,#910);
#912=CIRCLE('',#911,0.250000000000000);
#913=EDGE_CURVE('',#900,#882,#912,.T.);
#914=ORIENTED_EDGE('',*,*,#913,.T.);
#915=EDGE_LOOP('',(#889,#898,#907,#914));
#916=FACE_OUTER_BOUND('',#915,.T.);
#917=ADVANCED_FACE('',(#916),#878,.T.);
#918=CARTESIAN_POINT('',(1.769999999999982,0.0,1.000000000000029));
#919=DIRECTION('',(-2.220446E-016,1.0,-6.123032E-017));
#920=DIRECTION('',(-1.0,0.0,0.0));
#921=AXIS2_PLACEMENT_3D('',#918,#919,#920);
#922=TOROIDAL_SURFACE('',#921,0.500000000000028,0.250000000000000);
#923=CARTESIAN_POINT('',(1.769999999999982,-4.464446E-017,0.250000000000000));
#924=VERTEX_POINT('',#923);
#925=CARTESIAN_POINT('',(1.019999999999925,-2.489599E-017,0.999999999999986));
#926=VERTEX_POINT('',#925);
#927=CARTESIAN_POINT('',(1.769999999999982,3.061516E-017,1.000000000000029));
#928=DIRECTION('',(0.0,1.0,0.0));
#929=DIRECTION('',(0.0,0.0,1.0));
#930=AXIS2_PLACEMENT_3D('',#927,#928,#929);
#931=CIRCLE('',#930,0.750000000000028);
#932=EDGE_CURVE('',#924,#926,#931,.T.);
#933=ORIENTED_EDGE('',*,*,#932,.F.);
#934=CARTESIAN_POINT('',(1.769999999999982,0.0,0.750000000000000));
#935=VERTEX_POINT('',#934);
#936=CARTESIAN_POINT('',(1.769999999999982,0.0,0.500000000000000));
#937=DIRECTION('',(1.0,0.0,0.0));
#938=DIRECTION('',(0.0,0.0,1.0));
#939=AXIS2_PLACEMENT_3D('',#936,#937,#938);
#940=CIRCLE('',#939,0.250000000000000);
#941=EDGE_CURVE('',#935,#924,#940,.T.);
#942=ORIENTED_EDGE('',*,*,#941,.F.);
#943=CARTESIAN_POINT('',(1.519999999999925,2.489599E-017,1.000000000000015));
#944=VERTEX_POINT('',#943);
#945=CARTESIAN_POINT('',(1.769999999999982,3.061516E-017,1.000000000000029));
#946=DIRECTION('',(0.0,-1.0,0.0));
#947=DIRECTION('',(0.0,0.0,1.0));
#948=AXIS2_PLACEMENT_3D('',#945,#946,#947);
#949=CIRCLE('',#948,0.250000000000028);
#950=EDGE_CURVE('',#944,#935,#949,.T.);
#951=ORIENTED_EDGE('',*,*,#950,.F.);
#952=CARTESIAN_POINT('',(1.269999999999925,0.0,1.000000000000000));
#953=DIRECTION('',(0.0,0.0,-1.0));
#954=DIRECTION('',(1.0,0.0,0.0));
#955=AXIS2_PLACEMENT_3D('',#952,#953,#954);
#956=CIRCLE('',#955,0.250000000000000);
#957=EDGE_CURVE('',#944,#926,#956,.T.);
#958=ORIENTED_EDGE('',*,*,#957,.T.);
#959=EDGE_LOOP('',(#933,#942,#951,#958));
#960=FACE_OUTER_BOUND('',#959,.T.);
#961=ADVANCED_FACE('',(#960),#922,.T.);
#962=CARTESIAN_POINT('',(2.540000000000077,0.0,-1.939999999999983));
#963=DIRECTION('',(-2.952278E-014,6.123032E-017,1.0));
#964=DIRECTION('',(1.0,0.0,0.0));
#965=AXIS2_PLACEMENT_3D('',#962,#963,#964);
#966=CYLINDRICAL_SURFACE('',#965,0.250000000000000);
#967=CARTESIAN_POINT('',(2.790000000000077,0.0,-1.939999999999983));
#968=VERTEX_POINT('',#967);
#969=CARTESIAN_POINT('',(2.790000000000077,0.0,-1.939999999999983));
#970=DIRECTION('',(0.0,0.0,1.0));
#971=VECTOR('',#970,1.939999999999984);
#972=LINE('',#969,#971);
#973=EDGE_CURVE('',#968,#880,#972,.T.);
#974=ORIENTED_EDGE('',*,*,#973,.F.);
#975=CARTESIAN_POINT('',(2.290000000000077,-2.489599E-017,-1.939999999999983));
#976=VERTEX_POINT('',#975);
#977=CARTESIAN_POINT('',(2.540000000000077,0.0,-1.939999999999983));
#978=DIRECTION('',(0.0,0.0,-1.0));
#979=DIRECTION('',(1.0,0.0,0.0));
#980=AXIS2_PLACEMENT_3D('',#977,#978,#979);
#981=CIRCLE('',#980,0.250000000000000);
#982=EDGE_CURVE('',#976,#968,#981,.T.);
#983=ORIENTED_EDGE('',*,*,#982,.F.);
#984=CARTESIAN_POINT('',(2.290000000000021,9.389082E-017,4.996004E-016));
#985=DIRECTION('',(0.0,0.0,-1.0));
#986=VECTOR('',#985,1.939999999999983);
#987=LINE('',#984,#986);
#988=EDGE_CURVE('',#891,#976,#987,.T.);
#989=ORIENTED_EDGE('',*,*,#988,.F.);
#990=ORIENTED_EDGE('',*,*,#897,.T.);
#991=EDGE_LOOP('',(#974,#983,#989,#990));
#992=FACE_OUTER_BOUND('',#991,.T.);
#993=ADVANCED_FACE('',(#992),#966,.T.);
#994=CARTESIAN_POINT('',(2.040000000000021,0.0,0.500000000000000));
#995=DIRECTION('',(-1.0,-2.220446E-016,-2.220446E-016));
#996=DIRECTION('',(0.0,0.0,1.0));
#997=AXIS2_PLACEMENT_3D('',#994,#995,#996);
#998=CYLINDRICAL_SURFACE('',#997,0.250000000000000);
#999=CARTESIAN_POINT('',(2.040000000000021,0.0,0.750000000000000));
#1000=DIRECTION('',(-1.0,0.0,0.0));
#1001=VECTOR('',#1000,0.270000000000039);
#1002=LINE('',#999,#1001);
#1003=EDGE_CURVE('',#882,#935,#1002,.T.);
#1004=ORIENTED_EDGE('',*,*,#1003,.F.);
#1005=ORIENTED_EDGE('',*,*,#913,.F.);
#1006=CARTESIAN_POINT('',(1.769999999999982,-4.464446E-017,0.250000000000000));
#1007=DIRECTION('',(1.0,0.0,0.0));
#1008=VECTOR('',#1007,0.270000000000039);
#1009=LINE('',#1006,#1008);
#1010=EDGE_CURVE('',#924,#900,#1009,.T.);
#1011=ORIENTED_EDGE('',*,*,#1010,.F.);
#1012=CARTESIAN_POINT('',(1.769999999999982,0.0,0.500000000000000));
#1013=DIRECTION('',(1.0,0.0,0.0));
#1014=DIRECTION('',(0.0,0.0,1.0));
#1015=AXIS2_PLACEMENT_3D('',#1012,#1013,#1014);
#1016=CIRCLE('',#1015,0.250000000000000);
#1017=EDGE_CURVE('',#924,#935,#1016,.T.);
#1018=ORIENTED_EDGE('',*,*,#1017,.T.);
#1019=EDGE_LOOP('',(#1004,#1005,#1011,#1018));
#1020=FACE_OUTER_BOUND('',#1019,.T.);
#1021=ADVANCED_FACE('',(#1020),#998,.T.);
#1022=CARTESIAN_POINT('',(1.269999999999925,0.0,1.000000000000000));
#1023=DIRECTION('',(2.184065E-013,6.123032E-017,1.0));
#1024=DIRECTION('',(1.0,2.220446E-016,-2.184065E-013));
#1025=AXIS2_PLACEMENT_3D('',#1022,#1023,#1024);
#1026=CYLINDRICAL_SURFACE('',#1025,0.250000000000000);
#1027=CARTESIAN_POINT('',(1.520000000000039,-4.867218E-013,2.529999999999973));
#1028=VERTEX_POINT('',#1027);
#1029=CARTESIAN_POINT('',(1.519999999999925,2.489599E-017,1.000000000000015));
#1030=DIRECTION('',(7.430512E-014,-3.181351E-013,1.0));
#1031=VECTOR('',#1030,1.529999999999959);
#1032=LINE('',#1029,#1031);
#1033=EDGE_CURVE('',#944,#1028,#1032,.T.);
#1034=ORIENTED_EDGE('',*,*,#1033,.F.);
#1035=CARTESIAN_POINT('',(1.269999999999925,0.250000000000000,1.000000000000142));
#1036=VERTEX_POINT('',#1035);
#1037=CARTESIAN_POINT('',(1.269999999999925,0.0,1.000000000000000));
#1038=DIRECTION('',(0.0,0.0,-1.0));
#1039=DIRECTION('',(1.0,0.0,0.0));
#1040=AXIS2_PLACEMENT_3D('',#1037,#1038,#1039);
#1041=CIRCLE('',#1040,0.250000000000000);
#1042=EDGE_CURVE('',#1036,#944,#1041,.T.);
#1043=ORIENTED_EDGE('',*,*,#1042,.F.);
#1044=CARTESIAN_POINT('',(1.269999999999925,0.0,1.000000000000000));
#1045=DIRECTION('',(0.0,0.0,-1.0));
#1046=DIRECTION('',(1.0,0.0,0.0));
#1047=AXIS2_PLACEMENT_3D('',#1044,#1045,#1046);
#1048=CIRCLE('',#1047,0.250000000000000);
#1049=EDGE_CURVE('',#926,#1036,#1048,.T.);
#1050=ORIENTED_EDGE('',*,*,#1049,.F.);
#1051=CARTESIAN_POINT('',(1.019999999999982,6.878639E-017,2.530000000000016));
#1052=VERTEX_POINT('',#1051);
#1053=CARTESIAN_POINT('',(1.019999999999982,6.878639E-017,2.530000000000016));
#1054=DIRECTION('',(0.0,0.0,-1.0));
#1055=VECTOR('',#1054,1.530000000000030);
#1056=LINE('',#1053,#1055);
#1057=EDGE_CURVE('',#1052,#926,#1056,.T.);
#1058=ORIENTED_EDGE('',*,*,#1057,.F.);
#1059=CARTESIAN_POINT('',(1.269999999999982,-4.867218E-013,2.530000000000030));
#1060=DIRECTION('',(0.0,0.0,-1.0));
#1061=DIRECTION('',(1.0,0.0,0.0));
#1062=AXIS2_PLACEMENT_3D('',#1059,#1060,#1061);
#1063=CIRCLE('',#1062,0.250000000000000);
#1064=EDGE_CURVE('',#1052,#1028,#1063,.T.);
#1065=ORIENTED_EDGE('',*,*,#1064,.T.);
#1066=EDGE_LOOP('',(#1034,#1043,#1050,#1058,#1065));
#1067=FACE_OUTER_BOUND('',#1066,.T.);
#1068=ADVANCED_FACE('',(#1067),#1026,.T.);
#1069=CARTESIAN_POINT('',(1.269999999999925,0.0,1.000000000000000));
#1070=DIRECTION('',(2.184065E-013,6.123032E-017,1.0));
#1071=DIRECTION('',(1.0,2.220446E-016,-2.184065E-013));
#1072=AXIS2_PLACEMENT_3D('',#1069,#1070,#1071);
#1073=CYLINDRICAL_SURFACE('',#1072,0.250000000000000);
#1074=ORIENTED_EDGE('',*,*,#1033,.T.);
#1075=CARTESIAN_POINT('',(1.269999999999982,-4.867218E-013,2.530000000000030));
#1076=DIRECTION('',(0.0,0.0,-1.0));
#1077=DIRECTION('',(1.0,0.0,0.0));
#1078=AXIS2_PLACEMENT_3D('',#1075,#1076,#1077);
#1079=CIRCLE('',#1078,0.250000000000000);
#1080=EDGE_CURVE('',#1028,#1052,#1079,.T.);
#1081=ORIENTED_EDGE('',*,*,#1080,.T.);
#1082=ORIENTED_EDGE('',*,*,#1057,.T.);
#1083=ORIENTED_EDGE('',*,*,#957,.F.);
#1084=EDGE_LOOP('',(#1074,#1081,#1082,#1083));
#1085=FACE_OUTER_BOUND('',#1084,.T.);
#1086=ADVANCED_FACE('',(#1085),#1073,.T.);
#1087=CARTESIAN_POINT('',(1.269999999999982,-4.867218E-013,2.530000000000030));
#1088=DIRECTION('',(-2.184065E-013,-6.123032E-017,-1.0));
#1089=DIRECTION('',(0.0,1.0,0.0));
#1090=AXIS2_PLACEMENT_3D('',#1087,#1088,#1089);
#1091=PLANE('',#1090);
#1092=ORIENTED_EDGE('',*,*,#1080,.F.);
#1093=ORIENTED_EDGE('',*,*,#1064,.F.);
#1094=EDGE_LOOP('',(#1092,#1093));
#1095=FACE_OUTER_BOUND('',#1094,.T.);
#1096=ADVANCED_FACE('',(#1095),#1091,.F.);
#1097=CARTESIAN_POINT('',(1.769999999999982,0.0,1.000000000000029));
#1098=DIRECTION('',(-2.220446E-016,1.0,-6.123032E-017));
#1099=DIRECTION('',(-1.0,0.0,0.0));
#1100=AXIS2_PLACEMENT_3D('',#1097,#1098,#1099);
#1101=TOROIDAL_SURFACE('',#1100,0.500000000000028,0.250000000000000);
#1102=ORIENTED_EDGE('',*,*,#932,.T.);
#1103=ORIENTED_EDGE('',*,*,#1049,.T.);
#1104=ORIENTED_EDGE('',*,*,#1042,.T.);
#1105=ORIENTED_EDGE('',*,*,#950,.T.);
#1106=ORIENTED_EDGE('',*,*,#1017,.F.);
#1107=EDGE_LOOP('',(#1102,#1103,#1104,#1105,#1106));
#1108=FACE_OUTER_BOUND('',#1107,.T.);
#1109=ADVANCED_FACE('',(#1108),#1101,.T.);
#1110=CARTESIAN_POINT('',(2.040000000000021,0.0,0.500000000000000));
#1111=DIRECTION('',(-1.0,-2.220446E-016,-2.220446E-016));
#1112=DIRECTION('',(0.0,0.0,1.0));
#1113=AXIS2_PLACEMENT_3D('',#1110,#1111,#1112);
#1114=CYLINDRICAL_SURFACE('',#1113,0.250000000000000);
#1115=ORIENTED_EDGE('',*,*,#1003,.T.);
#1116=ORIENTED_EDGE('',*,*,#941,.T.);
#1117=ORIENTED_EDGE('',*,*,#1010,.T.);
#1118=CARTESIAN_POINT('',(2.040000000000021,0.0,0.500000000000000));
#1119=DIRECTION('',(1.0,0.0,0.0));
#1120=DIRECTION('',(0.0,0.0,1.0));
#1121=AXIS2_PLACEMENT_3D('',#1118,#1119,#1120);
#1122=CIRCLE('',#1121,0.250000000000000);
#1123=EDGE_CURVE('',#882,#900,#1122,.T.);
#1124=ORIENTED_EDGE('',*,*,#1123,.F.);
#1125=EDGE_LOOP('',(#1115,#1116,#1117,#1124));
#1126=FACE_OUTER_BOUND('',#1125,.T.);
#1127=ADVANCED_FACE('',(#1126),#1114,.T.);
#1128=CARTESIAN_POINT('',(2.040000000000021,0.0,4.529710E-016));
#1129=DIRECTION('',(2.220446E-016,-1.0,6.123032E-017));
#1130=DIRECTION('',(1.0,0.0,0.0));
#1131=AXIS2_PLACEMENT_3D('',#1128,#1129,#1130);
#1132=TOROIDAL_SURFACE('',#1131,0.500000000000000,0.250000000000000);
#1133=ORIENTED_EDGE('',*,*,#888,.T.);
#1134=ORIENTED_EDGE('',*,*,#1123,.T.);
#1135=ORIENTED_EDGE('',*,*,#906,.T.);
#1136=CARTESIAN_POINT('',(2.540000000000021,0.0,5.639933E-016));
#1137=DIRECTION('',(0.0,0.0,-1.0));
#1138=DIRECTION('',(1.0,0.0,0.0));
#1139=AXIS2_PLACEMENT_3D('',#1136,#1137,#1138);
#1140=CIRCLE('',#1139,0.250000000000000);
#1141=EDGE_CURVE('',#880,#891,#1140,.T.);
#1142=ORIENTED_EDGE('',*,*,#1141,.F.);
#1143=EDGE_LOOP('',(#1133,#1134,#1135,#1142));
#1144=FACE_OUTER_BOUND('',#1143,.T.);
#1145=ADVANCED_FACE('',(#1144),#1132,.T.);
#1146=CARTESIAN_POINT('',(2.540000000000077,0.0,-1.939999999999983));
#1147=DIRECTION('',(-2.952278E-014,6.123032E-017,1.0));
#1148=DIRECTION('',(1.0,0.0,0.0));
#1149=AXIS2_PLACEMENT_3D('',#1146,#1147,#1148);
#1150=CYLINDRICAL_SURFACE('',#1149,0.250000000000000);
#1151=ORIENTED_EDGE('',*,*,#973,.T.);
#1152=ORIENTED_EDGE('',*,*,#1141,.T.);
#1153=ORIENTED_EDGE('',*,*,#988,.T.);
#1154=CARTESIAN_POINT('',(2.540000000000077,0.0,-1.939999999999983));
#1155=DIRECTION('',(0.0,0.0,-1.0));
#1156=DIRECTION('',(1.0,0.0,0.0));
#1157=AXIS2_PLACEMENT_3D('',#1154,#1155,#1156);
#1158=CIRCLE('',#1157,0.250000000000000);
#1159=EDGE_CURVE('',#968,#976,#1158,.T.);
#1160=ORIENTED_EDGE('',*,*,#1159,.F.);
#1161=EDGE_LOOP('',(#1151,#1152,#1153,#1160));
#1162=FACE_OUTER_BOUND('',#1161,.T.);
#1163=ADVANCED_FACE('',(#1162),#1150,.T.);
#1164=CARTESIAN_POINT('',(2.540000000000077,0.0,-1.939999999999983));
#1165=DIRECTION('',(0.0,0.0,-1.0));
#1166=DIRECTION('',(0.0,1.0,0.0));
#1167=AXIS2_PLACEMENT_3D('',#1164,#1165,#1166);
#1168=PLANE('',#1167);
#1169=ORIENTED_EDGE('',*,*,#1159,.T.);
#1170=ORIENTED_EDGE('',*,*,#982,.T.);
#1171=EDGE_LOOP('',(#1169,#1170));
#1172=FACE_OUTER_BOUND('',#1171,.T.);
#1173=ADVANCED_FACE('',(#1172),#1168,.T.);
#1174=CLOSED_SHELL('',(#917,#961,#993,#1021,#1068,#1086,#1096,#1109,#1127,#1145,#1163,#1173));
#1175=MANIFOLD_SOLID_BREP('2A7',#1174);
#1176=STYLED_ITEM('NONE',(#871),#1175);
#1177=ADVANCED_BREP_SHAPE_REPRESENTATION('ABSR1',(#244,#864,#1175),#28);
#1178=SHAPE_REPRESENTATION_RELATIONSHIP('SRRPL1','',#1177,#62);
ENDSEC;
END-ISO-10303-21;
