ISO-10303-21;
HEADER;
/****************************************************************
 * Generated by software with PDElib inside                    *
 * PDElib Version v51a, created Fri 09/10/2010                  *
 * ITI Transcendata (http://www.transcendata.com/)              *
 ****************************************************************/
FILE_DESCRIPTION((''),'2;1');
FILE_NAME('CAPRD_ELECTRONICON_E54.G95-803P30.stp','2014-01-20T13:49:08',(''),(''),'Mechanical Desktop 2011','Mechanical Desktop 2011',', , ');
FILE_SCHEMA(('AUTOMOTIVE_DESIGN { 1 2 10303 214 1 1 1 1 }'));
ENDSEC;
DATA;
#10=(NAMED_UNIT(*)PLANE_ANGLE_UNIT()SI_UNIT($,.RADIAN.));
#11=DIMENSIONAL_EXPONENTS(0.0,0.0,0.0,0.0,0.0,0.0,0.0);
#12=PLANE_ANGLE_MEASURE_WITH_UNIT(PLANE_ANGLE_MEASURE(0.0174532925),#10);
#16=(CONVERSION_BASED_UNIT('DEGREE',#12)NAMED_UNIT(#11)PLANE_ANGLE_UNIT());
#20=(NAMED_UNIT(*)SI_UNIT($,.STERADIAN.)SOLID_ANGLE_UNIT());
#24=(LENGTH_UNIT()NAMED_UNIT(*)SI_UNIT(.MILLI.,.METRE.));
#26=UNCERTAINTY_MEASURE_WITH_UNIT(LENGTH_MEASURE(0.000001),#24,'DISTANCE_ACCURACY_VALUE','');
#28=(GEOMETRIC_REPRESENTATION_CONTEXT(3)GLOBAL_UNCERTAINTY_ASSIGNED_CONTEXT((#26))GLOBAL_UNIT_ASSIGNED_CONTEXT((#16,#20,#24))REPRESENTATION_CONTEXT('','3D'));
#29=APPLICATION_CONTEXT('automotive design');
#30=APPLICATION_PROTOCOL_DEFINITION('INTERNATIONAL_STANDARD','automotive_design',1998,#29);
#31=PRODUCT_CONTEXT('3D Mechanical Parts',#29,'mechanical');
#32=PRODUCT('Product','Product','',(#31));
#33=PRODUCT_RELATED_PRODUCT_CATEGORY('part',$,(#32));
#34=PRODUCT_CATEGORY('part',$);
#35=PERSON('1','Design','Joe',$,$,$);
#36=ORGANIZATION($,'None','None');
#37=PERSON_AND_ORGANIZATION(#35,#36);
#38=PERSON_AND_ORGANIZATION_ROLE('design_owner');
#39=APPLIED_PERSON_AND_ORGANIZATION_ASSIGNMENT(#37,#38,(#32));
#40=PRODUCT_DEFINITION_FORMATION_WITH_SPECIFIED_SOURCE('None','',#32,.BOUGHT.);
#41=PERSON('2','Creator','Joe',$,$,$);
#42=ORGANIZATION($,'None','None');
#43=PERSON_AND_ORGANIZATION(#41,#42);
#44=PERSON_AND_ORGANIZATION_ROLE('creator');
#45=APPLIED_PERSON_AND_ORGANIZATION_ASSIGNMENT(#43,#44,(#40));
#46=PERSON('3','Supplier','Joe',$,$,$);
#47=ORGANIZATION($,'None','None');
#48=PERSON_AND_ORGANIZATION(#46,#47);
#49=PERSON_AND_ORGANIZATION_ROLE('design_supplier');
#50=APPLIED_PERSON_AND_ORGANIZATION_ASSIGNMENT(#48,#49,(#40));
#51=PRODUCT_DEFINITION_CONTEXT('part definition',#29,'design');
#52=PRODUCT_DEFINITION('None','',#40,#51);
#53=PERSON('4','Creator','Joe',$,$,$);
#54=ORGANIZATION($,'None','None');
#55=PERSON_AND_ORGANIZATION(#53,#54);
#56=PERSON_AND_ORGANIZATION_ROLE('creator');
#57=APPLIED_PERSON_AND_ORGANIZATION_ASSIGNMENT(#55,#56,(#52));
#58=CARTESIAN_POINT('NONE',(0.0,0.0,0.0));
#59=DIRECTION('NONE',(0.0,0.0,1.0));
#60=DIRECTION('NONE',(1.0,0.0,0.0));
#61=AXIS2_PLACEMENT_3D('NONE',#58,#59,#60);
#62=SHAPE_REPRESENTATION('SR1',(#61),#28);
#63=PRODUCT_DEFINITION_SHAPE('PDS1','Test Part',#52);
#64=SHAPE_DEFINITION_REPRESENTATION(#63,#62);
#65=CARTESIAN_POINT('',(0.0,0.0,2.0));
#66=DIRECTION('',(0.0,0.0,-1.0));
#67=DIRECTION('',(1.0,0.0,0.0));
#68=AXIS2_PLACEMENT_3D('',#65,#66,#67);
#69=CYLINDRICAL_SURFACE('',#68,24.75);
#70=CARTESIAN_POINT('',(24.75,0.0,1.0));
#71=VERTEX_POINT('',#70);
#72=CARTESIAN_POINT('',(24.75,0.0,2.0));
#73=VERTEX_POINT('',#72);
#74=CARTESIAN_POINT('',(24.75,0.0,1.0));
#75=DIRECTION('',(0.0,0.0,1.0));
#76=VECTOR('',#75,1.0);
#77=LINE('',#74,#76);
#78=EDGE_CURVE('',#71,#73,#77,.T.);
#79=ORIENTED_EDGE('',*,*,#78,.F.);
#80=CARTESIAN_POINT('',(-24.75,3.031001E-015,1.0));
#81=VERTEX_POINT('',#80);
#82=CARTESIAN_POINT('',(0.0,0.0,1.0));
#83=DIRECTION('',(0.0,0.0,1.0));
#84=DIRECTION('',(1.0,0.0,0.0));
#85=AXIS2_PLACEMENT_3D('',#82,#83,#84);
#86=CIRCLE('',#85,24.75);
#87=EDGE_CURVE('',#71,#81,#86,.T.);
#88=ORIENTED_EDGE('',*,*,#87,.T.);
#89=CARTESIAN_POINT('',(-24.75,3.031001E-015,2.0));
#90=VERTEX_POINT('',#89);
#91=CARTESIAN_POINT('',(-24.75,3.031001E-015,1.0));
#92=DIRECTION('',(0.0,0.0,1.0));
#93=VECTOR('',#92,1.0);
#94=LINE('',#91,#93);
#95=EDGE_CURVE('',#81,#90,#94,.T.);
#96=ORIENTED_EDGE('',*,*,#95,.T.);
#97=CARTESIAN_POINT('',(0.0,0.0,2.0));
#98=DIRECTION('',(0.0,0.0,1.0));
#99=DIRECTION('',(1.0,0.0,0.0));
#100=AXIS2_PLACEMENT_3D('',#97,#98,#99);
#101=CIRCLE('',#100,24.75);
#102=EDGE_CURVE('',#73,#90,#101,.T.);
#103=ORIENTED_EDGE('',*,*,#102,.F.);
#104=EDGE_LOOP('',(#79,#88,#96,#103));
#105=FACE_OUTER_BOUND('',#104,.T.);
#106=ADVANCED_FACE('',(#105),#69,.T.);
#107=CARTESIAN_POINT('',(0.0,0.0,2.0));
#108=DIRECTION('',(0.0,0.0,-1.0));
#109=DIRECTION('',(1.0,0.0,0.0));
#110=AXIS2_PLACEMENT_3D('',#107,#108,#109);
#111=CYLINDRICAL_SURFACE('',#110,24.75);
#112=ORIENTED_EDGE('',*,*,#78,.T.);
#113=CARTESIAN_POINT('',(0.0,0.0,2.0));
#114=DIRECTION('',(0.0,0.0,1.0));
#115=DIRECTION('',(1.0,0.0,0.0));
#116=AXIS2_PLACEMENT_3D('',#113,#114,#115);
#117=CIRCLE('',#116,24.75);
#118=EDGE_CURVE('',#90,#73,#117,.T.);
#119=ORIENTED_EDGE('',*,*,#118,.F.);
#120=ORIENTED_EDGE('',*,*,#95,.F.);
#121=CARTESIAN_POINT('',(0.0,0.0,1.0));
#122=DIRECTION('',(0.0,0.0,1.0));
#123=DIRECTION('',(1.0,0.0,0.0));
#124=AXIS2_PLACEMENT_3D('',#121,#122,#123);
#125=CIRCLE('',#124,24.75);
#126=EDGE_CURVE('',#81,#71,#125,.T.);
#127=ORIENTED_EDGE('',*,*,#126,.T.);
#128=EDGE_LOOP('',(#112,#119,#120,#127));
#129=FACE_OUTER_BOUND('',#128,.T.);
#130=ADVANCED_FACE('',(#129),#111,.T.);
#131=CARTESIAN_POINT('',(0.0,0.0,1.0));
#132=DIRECTION('',(0.0,0.0,1.0));
#133=DIRECTION('',(1.0,0.0,0.0));
#134=AXIS2_PLACEMENT_3D('',#131,#132,#133);
#135=PLANE('',#134);
#136=ORIENTED_EDGE('',*,*,#87,.F.);
#137=ORIENTED_EDGE('',*,*,#126,.F.);
#138=EDGE_LOOP('',(#136,#137));
#139=FACE_OUTER_BOUND('',#138,.T.);
#140=ADVANCED_FACE('',(#139),#135,.F.);
#141=CARTESIAN_POINT('',(0.0,0.0,2.0));
#142=DIRECTION('',(0.0,0.0,1.0));
#143=DIRECTION('',(1.0,0.0,0.0));
#144=AXIS2_PLACEMENT_3D('',#141,#142,#143);
#145=PLANE('',#144);
#146=ORIENTED_EDGE('',*,*,#102,.T.);
#147=ORIENTED_EDGE('',*,*,#118,.T.);
#148=EDGE_LOOP('',(#146,#147));
#149=FACE_OUTER_BOUND('',#148,.T.);
#150=ADVANCED_FACE('',(#149),#145,.T.);
#151=CLOSED_SHELL('',(#106,#130,#140,#150));
#152=MANIFOLD_SOLID_BREP('221A',#151);
#153=COLOUR_RGB('250',0.33,0.33,0.33);
#154=SURFACE_STYLE_USAGE(.BOTH.,#155);
#155=SURFACE_SIDE_STYLE('NONE',(#156));
#156=SURFACE_STYLE_FILL_AREA(#157);
#157=FILL_AREA_STYLE('NONE',(#158));
#158=FILL_AREA_STYLE_COLOUR('NONE',#153);
#159=PRESENTATION_STYLE_ASSIGNMENT((#154));
#160=STYLED_ITEM('NONE',(#159),#152);
#161=MECHANICAL_DESIGN_GEOMETRIC_PRESENTATION_REPRESENTATION('NONE',(#160,#258,#347,#436,#525,#614,#835),#28);
#162=PRESENTATION_LAYER_ASSIGNMENT('3D','None',(#152,#250,#346,#435,#524,#613,#834));
#163=CARTESIAN_POINT('',(18.75,-8.0,1.0));
#164=DIRECTION('',(0.0,0.0,-1.0));
#165=DIRECTION('',(1.0,0.0,0.0));
#166=AXIS2_PLACEMENT_3D('',#163,#164,#165);
#167=CYLINDRICAL_SURFACE('',#166,0.6);
#168=CARTESIAN_POINT('',(19.350000000000001,-8.0,-3.2));
#169=VERTEX_POINT('',#168);
#170=CARTESIAN_POINT('',(19.350000000000001,-8.0,1.0));
#171=VERTEX_POINT('',#170);
#172=CARTESIAN_POINT('',(19.350000000000001,-8.0,-3.2));
#173=DIRECTION('',(0.0,0.0,1.0));
#174=VECTOR('',#173,4.2);
#175=LINE('',#172,#174);
#176=EDGE_CURVE('',#169,#171,#175,.T.);
#177=ORIENTED_EDGE('',*,*,#176,.F.);
#178=CARTESIAN_POINT('',(18.149999999999999,-8.0,-3.2));
#179=VERTEX_POINT('',#178);
#180=CARTESIAN_POINT('',(18.75,-8.0,-3.2));
#181=DIRECTION('',(0.0,0.0,1.0));
#182=DIRECTION('',(1.0,0.0,0.0));
#183=AXIS2_PLACEMENT_3D('',#180,#181,#182);
#184=CIRCLE('',#183,0.6);
#185=EDGE_CURVE('',#169,#179,#184,.T.);
#186=ORIENTED_EDGE('',*,*,#185,.T.);
#187=CARTESIAN_POINT('',(18.149999999999999,-8.0,1.0));
#188=VERTEX_POINT('',#187);
#189=CARTESIAN_POINT('',(18.149999999999999,-8.0,-3.2));
#190=DIRECTION('',(0.0,0.0,1.0));
#191=VECTOR('',#190,4.2);
#192=LINE('',#189,#191);
#193=EDGE_CURVE('',#179,#188,#192,.T.);
#194=ORIENTED_EDGE('',*,*,#193,.T.);
#195=CARTESIAN_POINT('',(18.75,-8.0,1.0));
#196=DIRECTION('',(0.0,0.0,1.0));
#197=DIRECTION('',(1.0,0.0,0.0));
#198=AXIS2_PLACEMENT_3D('',#195,#196,#197);
#199=CIRCLE('',#198,0.6);
#200=EDGE_CURVE('',#171,#188,#199,.T.);
#201=ORIENTED_EDGE('',*,*,#200,.F.);
#202=EDGE_LOOP('',(#177,#186,#194,#201));
#203=FACE_OUTER_BOUND('',#202,.T.);
#204=ADVANCED_FACE('',(#203),#167,.T.);
#205=CARTESIAN_POINT('',(18.75,-8.0,1.0));
#206=DIRECTION('',(0.0,0.0,-1.0));
#207=DIRECTION('',(1.0,0.0,0.0));
#208=AXIS2_PLACEMENT_3D('',#205,#206,#207);
#209=CYLINDRICAL_SURFACE('',#208,0.6);
#210=ORIENTED_EDGE('',*,*,#176,.T.);
#211=CARTESIAN_POINT('',(18.75,-8.0,1.0));
#212=DIRECTION('',(0.0,0.0,1.0));
#213=DIRECTION('',(1.0,0.0,0.0));
#214=AXIS2_PLACEMENT_3D('',#211,#212,#213);
#215=CIRCLE('',#214,0.6);
#216=EDGE_CURVE('',#188,#171,#215,.T.);
#217=ORIENTED_EDGE('',*,*,#216,.F.);
#218=ORIENTED_EDGE('',*,*,#193,.F.);
#219=CARTESIAN_POINT('',(18.75,-8.0,-3.2));
#220=DIRECTION('',(0.0,0.0,1.0));
#221=DIRECTION('',(1.0,0.0,0.0));
#222=AXIS2_PLACEMENT_3D('',#219,#220,#221);
#223=CIRCLE('',#222,0.6);
#224=EDGE_CURVE('',#179,#169,#223,.T.);
#225=ORIENTED_EDGE('',*,*,#224,.T.);
#226=EDGE_LOOP('',(#210,#217,#218,#225));
#227=FACE_OUTER_BOUND('',#226,.T.);
#228=ADVANCED_FACE('',(#227),#209,.T.);
#229=CARTESIAN_POINT('',(18.75,-8.0,-3.2));
#230=DIRECTION('',(0.0,0.0,1.0));
#231=DIRECTION('',(1.0,0.0,0.0));
#232=AXIS2_PLACEMENT_3D('',#229,#230,#231);
#233=PLANE('',#232);
#234=ORIENTED_EDGE('',*,*,#185,.F.);
#235=ORIENTED_EDGE('',*,*,#224,.F.);
#236=EDGE_LOOP('',(#234,#235));
#237=FACE_OUTER_BOUND('',#236,.T.);
#238=ADVANCED_FACE('',(#237),#233,.F.);
#239=CARTESIAN_POINT('',(18.75,-8.0,1.0));
#240=DIRECTION('',(0.0,0.0,1.0));
#241=DIRECTION('',(1.0,0.0,0.0));
#242=AXIS2_PLACEMENT_3D('',#239,#240,#241);
#243=PLANE('',#242);
#244=ORIENTED_EDGE('',*,*,#200,.T.);
#245=ORIENTED_EDGE('',*,*,#216,.T.);
#246=EDGE_LOOP('',(#244,#245));
#247=FACE_OUTER_BOUND('',#246,.T.);
#248=ADVANCED_FACE('',(#247),#243,.T.);
#249=CLOSED_SHELL('',(#204,#228,#238,#248));
#250=MANIFOLD_SOLID_BREP('21FE',#249);
#251=COLOUR_RGB('254',0.866,0.866,0.866);
#252=SURFACE_STYLE_USAGE(.BOTH.,#253);
#253=SURFACE_SIDE_STYLE('NONE',(#254));
#254=SURFACE_STYLE_FILL_AREA(#255);
#255=FILL_AREA_STYLE('NONE',(#256));
#256=FILL_AREA_STYLE_COLOUR('NONE',#251);
#257=PRESENTATION_STYLE_ASSIGNMENT((#252));
#258=STYLED_ITEM('NONE',(#257),#250);
#259=CARTESIAN_POINT('',(18.75,8.0,1.0));
#260=DIRECTION('',(0.0,0.0,-1.0));
#261=DIRECTION('',(1.0,0.0,0.0));
#262=AXIS2_PLACEMENT_3D('',#259,#260,#261);
#263=CYLINDRICAL_SURFACE('',#262,0.6);
#264=CARTESIAN_POINT('',(19.350000000000001,8.0,-3.2));
#265=VERTEX_POINT('',#264);
#266=CARTESIAN_POINT('',(19.350000000000001,8.0,1.0));
#267=VERTEX_POINT('',#266);
#268=CARTESIAN_POINT('',(19.350000000000001,8.0,-3.2));
#269=DIRECTION('',(0.0,0.0,1.0));
#270=VECTOR('',#269,4.2);
#271=LINE('',#268,#270);
#272=EDGE_CURVE('',#265,#267,#271,.T.);
#273=ORIENTED_EDGE('',*,*,#272,.F.);
#274=CARTESIAN_POINT('',(18.149999999999999,8.0,-3.2));
#275=VERTEX_POINT('',#274);
#276=CARTESIAN_POINT('',(18.75,8.0,-3.2));
#277=DIRECTION('',(0.0,0.0,1.0));
#278=DIRECTION('',(1.0,0.0,0.0));
#279=AXIS2_PLACEMENT_3D('',#276,#277,#278);
#280=CIRCLE('',#279,0.6);
#281=EDGE_CURVE('',#265,#275,#280,.T.);
#282=ORIENTED_EDGE('',*,*,#281,.T.);
#283=CARTESIAN_POINT('',(18.149999999999999,8.0,1.0));
#284=VERTEX_POINT('',#283);
#285=CARTESIAN_POINT('',(18.149999999999999,8.0,-3.2));
#286=DIRECTION('',(0.0,0.0,1.0));
#287=VECTOR('',#286,4.2);
#288=LINE('',#285,#287);
#289=EDGE_CURVE('',#275,#284,#288,.T.);
#290=ORIENTED_EDGE('',*,*,#289,.T.);
#291=CARTESIAN_POINT('',(18.75,8.0,1.0));
#292=DIRECTION('',(0.0,0.0,1.0));
#293=DIRECTION('',(1.0,0.0,0.0));
#294=AXIS2_PLACEMENT_3D('',#291,#292,#293);
#295=CIRCLE('',#294,0.6);
#296=EDGE_CURVE('',#267,#284,#295,.T.);
#297=ORIENTED_EDGE('',*,*,#296,.F.);
#298=EDGE_LOOP('',(#273,#282,#290,#297));
#299=FACE_OUTER_BOUND('',#298,.T.);
#300=ADVANCED_FACE('',(#299),#263,.T.);
#301=CARTESIAN_POINT('',(18.75,8.0,1.0));
#302=DIRECTION('',(0.0,0.0,-1.0));
#303=DIRECTION('',(1.0,0.0,0.0));
#304=AXIS2_PLACEMENT_3D('',#301,#302,#303);
#305=CYLINDRICAL_SURFACE('',#304,0.6);
#306=ORIENTED_EDGE('',*,*,#272,.T.);
#307=CARTESIAN_POINT('',(18.75,8.0,1.0));
#308=DIRECTION('',(0.0,0.0,1.0));
#309=DIRECTION('',(1.0,0.0,0.0));
#310=AXIS2_PLACEMENT_3D('',#307,#308,#309);
#311=CIRCLE('',#310,0.6);
#312=EDGE_CURVE('',#284,#267,#311,.T.);
#313=ORIENTED_EDGE('',*,*,#312,.F.);
#314=ORIENTED_EDGE('',*,*,#289,.F.);
#315=CARTESIAN_POINT('',(18.75,8.0,-3.2));
#316=DIRECTION('',(0.0,0.0,1.0));
#317=DIRECTION('',(1.0,0.0,0.0));
#318=AXIS2_PLACEMENT_3D('',#315,#316,#317);
#319=CIRCLE('',#318,0.6);
#320=EDGE_CURVE('',#275,#265,#319,.T.);
#321=ORIENTED_EDGE('',*,*,#320,.T.);
#322=EDGE_LOOP('',(#306,#313,#314,#321));
#323=FACE_OUTER_BOUND('',#322,.T.);
#324=ADVANCED_FACE('',(#323),#305,.T.);
#325=CARTESIAN_POINT('',(18.75,8.0,-3.2));
#326=DIRECTION('',(0.0,0.0,1.0));
#327=DIRECTION('',(1.0,0.0,0.0));
#328=AXIS2_PLACEMENT_3D('',#325,#326,#327);
#329=PLANE('',#328);
#330=ORIENTED_EDGE('',*,*,#281,.F.);
#331=ORIENTED_EDGE('',*,*,#320,.F.);
#332=EDGE_LOOP('',(#330,#331));
#333=FACE_OUTER_BOUND('',#332,.T.);
#334=ADVANCED_FACE('',(#333),#329,.F.);
#335=CARTESIAN_POINT('',(18.75,8.0,1.0));
#336=DIRECTION('',(0.0,0.0,1.0));
#337=DIRECTION('',(1.0,0.0,0.0));
#338=AXIS2_PLACEMENT_3D('',#335,#336,#337);
#339=PLANE('',#338);
#340=ORIENTED_EDGE('',*,*,#296,.T.);
#341=ORIENTED_EDGE('',*,*,#312,.T.);
#342=EDGE_LOOP('',(#340,#341));
#343=FACE_OUTER_BOUND('',#342,.T.);
#344=ADVANCED_FACE('',(#343),#339,.T.);
#345=CLOSED_SHELL('',(#300,#324,#334,#344));
#346=MANIFOLD_SOLID_BREP('21FA',#345);
#347=STYLED_ITEM('NONE',(#257),#346);
#348=CARTESIAN_POINT('',(-18.75,8.0,1.0));
#349=DIRECTION('',(0.0,0.0,-1.0));
#350=DIRECTION('',(1.0,0.0,0.0));
#351=AXIS2_PLACEMENT_3D('',#348,#349,#350);
#352=CYLINDRICAL_SURFACE('',#351,0.6);
#353=CARTESIAN_POINT('',(-18.149999999999999,8.0,-3.2));
#354=VERTEX_POINT('',#353);
#355=CARTESIAN_POINT('',(-18.149999999999999,8.0,1.0));
#356=VERTEX_POINT('',#355);
#357=CARTESIAN_POINT('',(-18.149999999999999,8.0,-3.2));
#358=DIRECTION('',(0.0,0.0,1.0));
#359=VECTOR('',#358,4.2);
#360=LINE('',#357,#359);
#361=EDGE_CURVE('',#354,#356,#360,.T.);
#362=ORIENTED_EDGE('',*,*,#361,.F.);
#363=CARTESIAN_POINT('',(-19.350000000000001,8.0,-3.2));
#364=VERTEX_POINT('',#363);
#365=CARTESIAN_POINT('',(-18.75,8.0,-3.2));
#366=DIRECTION('',(0.0,0.0,1.0));
#367=DIRECTION('',(1.0,0.0,0.0));
#368=AXIS2_PLACEMENT_3D('',#365,#366,#367);
#369=CIRCLE('',#368,0.6);
#370=EDGE_CURVE('',#354,#364,#369,.T.);
#371=ORIENTED_EDGE('',*,*,#370,.T.);
#372=CARTESIAN_POINT('',(-19.350000000000001,8.0,1.0));
#373=VERTEX_POINT('',#372);
#374=CARTESIAN_POINT('',(-19.350000000000001,8.0,-3.2));
#375=DIRECTION('',(0.0,0.0,1.0));
#376=VECTOR('',#375,4.2);
#377=LINE('',#374,#376);
#378=EDGE_CURVE('',#364,#373,#377,.T.);
#379=ORIENTED_EDGE('',*,*,#378,.T.);
#380=CARTESIAN_POINT('',(-18.75,8.0,1.0));
#381=DIRECTION('',(0.0,0.0,1.0));
#382=DIRECTION('',(1.0,0.0,0.0));
#383=AXIS2_PLACEMENT_3D('',#380,#381,#382);
#384=CIRCLE('',#383,0.6);
#385=EDGE_CURVE('',#356,#373,#384,.T.);
#386=ORIENTED_EDGE('',*,*,#385,.F.);
#387=EDGE_LOOP('',(#362,#371,#379,#386));
#388=FACE_OUTER_BOUND('',#387,.T.);
#389=ADVANCED_FACE('',(#388),#352,.T.);
#390=CARTESIAN_POINT('',(-18.75,8.0,1.0));
#391=DIRECTION('',(0.0,0.0,-1.0));
#392=DIRECTION('',(1.0,0.0,0.0));
#393=AXIS2_PLACEMENT_3D('',#390,#391,#392);
#394=CYLINDRICAL_SURFACE('',#393,0.6);
#395=ORIENTED_EDGE('',*,*,#361,.T.);
#396=CARTESIAN_POINT('',(-18.75,8.0,1.0));
#397=DIRECTION('',(0.0,0.0,1.0));
#398=DIRECTION('',(1.0,0.0,0.0));
#399=AXIS2_PLACEMENT_3D('',#396,#397,#398);
#400=CIRCLE('',#399,0.6);
#401=EDGE_CURVE('',#373,#356,#400,.T.);
#402=ORIENTED_EDGE('',*,*,#401,.F.);
#403=ORIENTED_EDGE('',*,*,#378,.F.);
#404=CARTESIAN_POINT('',(-18.75,8.0,-3.2));
#405=DIRECTION('',(0.0,0.0,1.0));
#406=DIRECTION('',(1.0,0.0,0.0));
#407=AXIS2_PLACEMENT_3D('',#404,#405,#406);
#408=CIRCLE('',#407,0.6);
#409=EDGE_CURVE('',#364,#354,#408,.T.);
#410=ORIENTED_EDGE('',*,*,#409,.T.);
#411=EDGE_LOOP('',(#395,#402,#403,#410));
#412=FACE_OUTER_BOUND('',#411,.T.);
#413=ADVANCED_FACE('',(#412),#394,.T.);
#414=CARTESIAN_POINT('',(-18.75,8.0,-3.2));
#415=DIRECTION('',(0.0,0.0,1.0));
#416=DIRECTION('',(1.0,0.0,0.0));
#417=AXIS2_PLACEMENT_3D('',#414,#415,#416);
#418=PLANE('',#417);
#419=ORIENTED_EDGE('',*,*,#370,.F.);
#420=ORIENTED_EDGE('',*,*,#409,.F.);
#421=EDGE_LOOP('',(#419,#420));
#422=FACE_OUTER_BOUND('',#421,.T.);
#423=ADVANCED_FACE('',(#422),#418,.F.);
#424=CARTESIAN_POINT('',(-18.75,8.0,1.0));
#425=DIRECTION('',(0.0,0.0,1.0));
#426=DIRECTION('',(1.0,0.0,0.0));
#427=AXIS2_PLACEMENT_3D('',#424,#425,#426);
#428=PLANE('',#427);
#429=ORIENTED_EDGE('',*,*,#385,.T.);
#430=ORIENTED_EDGE('',*,*,#401,.T.);
#431=EDGE_LOOP('',(#429,#430));
#432=FACE_OUTER_BOUND('',#431,.T.);
#433=ADVANCED_FACE('',(#432),#428,.T.);
#434=CLOSED_SHELL('',(#389,#413,#423,#433));
#435=MANIFOLD_SOLID_BREP('21F6',#434);
#436=STYLED_ITEM('NONE',(#257),#435);
#437=CARTESIAN_POINT('',(-18.75,-8.0,1.0));
#438=DIRECTION('',(0.0,0.0,-1.0));
#439=DIRECTION('',(1.0,0.0,0.0));
#440=AXIS2_PLACEMENT_3D('',#437,#438,#439);
#441=CYLINDRICAL_SURFACE('',#440,0.6);
#442=CARTESIAN_POINT('',(-18.149999999999999,-8.0,-3.2));
#443=VERTEX_POINT('',#442);
#444=CARTESIAN_POINT('',(-18.149999999999999,-8.0,1.0));
#445=VERTEX_POINT('',#444);
#446=CARTESIAN_POINT('',(-18.149999999999999,-8.0,-3.2));
#447=DIRECTION('',(0.0,0.0,1.0));
#448=VECTOR('',#447,4.2);
#449=LINE('',#446,#448);
#450=EDGE_CURVE('',#443,#445,#449,.T.);
#451=ORIENTED_EDGE('',*,*,#450,.F.);
#452=CARTESIAN_POINT('',(-19.350000000000001,-8.0,-3.2));
#453=VERTEX_POINT('',#452);
#454=CARTESIAN_POINT('',(-18.75,-8.0,-3.2));
#455=DIRECTION('',(0.0,0.0,1.0));
#456=DIRECTION('',(1.0,0.0,0.0));
#457=AXIS2_PLACEMENT_3D('',#454,#455,#456);
#458=CIRCLE('',#457,0.6);
#459=EDGE_CURVE('',#443,#453,#458,.T.);
#460=ORIENTED_EDGE('',*,*,#459,.T.);
#461=CARTESIAN_POINT('',(-19.350000000000001,-8.0,1.0));
#462=VERTEX_POINT('',#461);
#463=CARTESIAN_POINT('',(-19.350000000000001,-8.0,-3.2));
#464=DIRECTION('',(0.0,0.0,1.0));
#465=VECTOR('',#464,4.2);
#466=LINE('',#463,#465);
#467=EDGE_CURVE('',#453,#462,#466,.T.);
#468=ORIENTED_EDGE('',*,*,#467,.T.);
#469=CARTESIAN_POINT('',(-18.75,-8.0,1.0));
#470=DIRECTION('',(0.0,0.0,1.0));
#471=DIRECTION('',(1.0,0.0,0.0));
#472=AXIS2_PLACEMENT_3D('',#469,#470,#471);
#473=CIRCLE('',#472,0.6);
#474=EDGE_CURVE('',#445,#462,#473,.T.);
#475=ORIENTED_EDGE('',*,*,#474,.F.);
#476=EDGE_LOOP('',(#451,#460,#468,#475));
#477=FACE_OUTER_BOUND('',#476,.T.);
#478=ADVANCED_FACE('',(#477),#441,.T.);
#479=CARTESIAN_POINT('',(-18.75,-8.0,1.0));
#480=DIRECTION('',(0.0,0.0,-1.0));
#481=DIRECTION('',(1.0,0.0,0.0));
#482=AXIS2_PLACEMENT_3D('',#479,#480,#481);
#483=CYLINDRICAL_SURFACE('',#482,0.6);
#484=ORIENTED_EDGE('',*,*,#450,.T.);
#485=CARTESIAN_POINT('',(-18.75,-8.0,1.0));
#486=DIRECTION('',(0.0,0.0,1.0));
#487=DIRECTION('',(1.0,0.0,0.0));
#488=AXIS2_PLACEMENT_3D('',#485,#486,#487);
#489=CIRCLE('',#488,0.6);
#490=EDGE_CURVE('',#462,#445,#489,.T.);
#491=ORIENTED_EDGE('',*,*,#490,.F.);
#492=ORIENTED_EDGE('',*,*,#467,.F.);
#493=CARTESIAN_POINT('',(-18.75,-8.0,-3.2));
#494=DIRECTION('',(0.0,0.0,1.0));
#495=DIRECTION('',(1.0,0.0,0.0));
#496=AXIS2_PLACEMENT_3D('',#493,#494,#495);
#497=CIRCLE('',#496,0.6);
#498=EDGE_CURVE('',#453,#443,#497,.T.);
#499=ORIENTED_EDGE('',*,*,#498,.T.);
#500=EDGE_LOOP('',(#484,#491,#492,#499));
#501=FACE_OUTER_BOUND('',#500,.T.);
#502=ADVANCED_FACE('',(#501),#483,.T.);
#503=CARTESIAN_POINT('',(-18.75,-8.0,-3.2));
#504=DIRECTION('',(0.0,0.0,1.0));
#505=DIRECTION('',(1.0,0.0,0.0));
#506=AXIS2_PLACEMENT_3D('',#503,#504,#505);
#507=PLANE('',#506);
#508=ORIENTED_EDGE('',*,*,#459,.F.);
#509=ORIENTED_EDGE('',*,*,#498,.F.);
#510=EDGE_LOOP('',(#508,#509));
#511=FACE_OUTER_BOUND('',#510,.T.);
#512=ADVANCED_FACE('',(#511),#507,.F.);
#513=CARTESIAN_POINT('',(-18.75,-8.0,1.0));
#514=DIRECTION('',(0.0,0.0,1.0));
#515=DIRECTION('',(1.0,0.0,0.0));
#516=AXIS2_PLACEMENT_3D('',#513,#514,#515);
#517=PLANE('',#516);
#518=ORIENTED_EDGE('',*,*,#474,.T.);
#519=ORIENTED_EDGE('',*,*,#490,.T.);
#520=EDGE_LOOP('',(#518,#519));
#521=FACE_OUTER_BOUND('',#520,.T.);
#522=ADVANCED_FACE('',(#521),#517,.T.);
#523=CLOSED_SHELL('',(#478,#502,#512,#522));
#524=MANIFOLD_SOLID_BREP('21F2',#523);
#525=STYLED_ITEM('NONE',(#257),#524);
#526=CARTESIAN_POINT('',(0.0,0.0,1.0));
#527=DIRECTION('',(0.0,0.0,-1.0));
#528=DIRECTION('',(1.0,0.0,0.0));
#529=AXIS2_PLACEMENT_3D('',#526,#527,#528);
#530=CYLINDRICAL_SURFACE('',#529,1.0);
#531=CARTESIAN_POINT('',(1.0,0.0,-3.2));
#532=VERTEX_POINT('',#531);
#533=CARTESIAN_POINT('',(1.0,0.0,1.0));
#534=VERTEX_POINT('',#533);
#535=CARTESIAN_POINT('',(1.0,0.0,-3.2));
#536=DIRECTION('',(0.0,0.0,1.0));
#537=VECTOR('',#536,4.2);
#538=LINE('',#535,#537);
#539=EDGE_CURVE('',#532,#534,#538,.T.);
#540=ORIENTED_EDGE('',*,*,#539,.F.);
#541=CARTESIAN_POINT('',(-1.0,1.224647E-016,-3.2));
#542=VERTEX_POINT('',#541);
#543=CARTESIAN_POINT('',(0.0,0.0,-3.2));
#544=DIRECTION('',(0.0,0.0,1.0));
#545=DIRECTION('',(1.0,0.0,0.0));
#546=AXIS2_PLACEMENT_3D('',#543,#544,#545);
#547=CIRCLE('',#546,1.0);
#548=EDGE_CURVE('',#532,#542,#547,.T.);
#549=ORIENTED_EDGE('',*,*,#548,.T.);
#550=CARTESIAN_POINT('',(-1.0,1.224647E-016,1.0));
#551=VERTEX_POINT('',#550);
#552=CARTESIAN_POINT('',(-1.0,1.224647E-016,-3.2));
#553=DIRECTION('',(0.0,0.0,1.0));
#554=VECTOR('',#553,4.2);
#555=LINE('',#552,#554);
#556=EDGE_CURVE('',#542,#551,#555,.T.);
#557=ORIENTED_EDGE('',*,*,#556,.T.);
#558=CARTESIAN_POINT('',(0.0,0.0,1.0));
#559=DIRECTION('',(0.0,0.0,1.0));
#560=DIRECTION('',(1.0,0.0,0.0));
#561=AXIS2_PLACEMENT_3D('',#558,#559,#560);
#562=CIRCLE('',#561,1.0);
#563=EDGE_CURVE('',#534,#551,#562,.T.);
#564=ORIENTED_EDGE('',*,*,#563,.F.);
#565=EDGE_LOOP('',(#540,#549,#557,#564));
#566=FACE_OUTER_BOUND('',#565,.T.);
#567=ADVANCED_FACE('',(#566),#530,.T.);
#568=CARTESIAN_POINT('',(0.0,0.0,1.0));
#569=DIRECTION('',(0.0,0.0,-1.0));
#570=DIRECTION('',(1.0,0.0,0.0));
#571=AXIS2_PLACEMENT_3D('',#568,#569,#570);
#572=CYLINDRICAL_SURFACE('',#571,1.0);
#573=ORIENTED_EDGE('',*,*,#539,.T.);
#574=CARTESIAN_POINT('',(0.0,0.0,1.0));
#575=DIRECTION('',(0.0,0.0,1.0));
#576=DIRECTION('',(1.0,0.0,0.0));
#577=AXIS2_PLACEMENT_3D('',#574,#575,#576);
#578=CIRCLE('',#577,1.0);
#579=EDGE_CURVE('',#551,#534,#578,.T.);
#580=ORIENTED_EDGE('',*,*,#579,.F.);
#581=ORIENTED_EDGE('',*,*,#556,.F.);
#582=CARTESIAN_POINT('',(0.0,0.0,-3.2));
#583=DIRECTION('',(0.0,0.0,1.0));
#584=DIRECTION('',(1.0,0.0,0.0));
#585=AXIS2_PLACEMENT_3D('',#582,#583,#584);
#586=CIRCLE('',#585,1.0);
#587=EDGE_CURVE('',#542,#532,#586,.T.);
#588=ORIENTED_EDGE('',*,*,#587,.T.);
#589=EDGE_LOOP('',(#573,#580,#581,#588));
#590=FACE_OUTER_BOUND('',#589,.T.);
#591=ADVANCED_FACE('',(#590),#572,.T.);
#592=CARTESIAN_POINT('',(0.0,0.0,-3.2));
#593=DIRECTION('',(0.0,0.0,1.0));
#594=DIRECTION('',(1.0,0.0,0.0));
#595=AXIS2_PLACEMENT_3D('',#592,#593,#594);
#596=PLANE('',#595);
#597=ORIENTED_EDGE('',*,*,#548,.F.);
#598=ORIENTED_EDGE('',*,*,#587,.F.);
#599=EDGE_LOOP('',(#597,#598));
#600=FACE_OUTER_BOUND('',#599,.T.);
#601=ADVANCED_FACE('',(#600),#596,.F.);
#602=CARTESIAN_POINT('',(0.0,0.0,1.0));
#603=DIRECTION('',(0.0,0.0,1.0));
#604=DIRECTION('',(1.0,0.0,0.0));
#605=AXIS2_PLACEMENT_3D('',#602,#603,#604);
#606=PLANE('',#605);
#607=ORIENTED_EDGE('',*,*,#563,.T.);
#608=ORIENTED_EDGE('',*,*,#579,.T.);
#609=EDGE_LOOP('',(#607,#608));
#610=FACE_OUTER_BOUND('',#609,.T.);
#611=ADVANCED_FACE('',(#610),#606,.T.);
#612=CLOSED_SHELL('',(#567,#591,#601,#611));
#613=MANIFOLD_SOLID_BREP('21EE',#612);
#614=STYLED_ITEM('NONE',(#257),#613);
#615=CARTESIAN_POINT('',(0.0,0.0,0.0));
#616=DIRECTION('',(0.0,0.0,1.0));
#617=DIRECTION('',(1.0,0.0,0.0));
#618=AXIS2_PLACEMENT_3D('',#615,#616,#617);
#619=CYLINDRICAL_SURFACE('',#618,25.5);
#620=CARTESIAN_POINT('',(25.5,6.245699E-015,96.5));
#621=VERTEX_POINT('',#620);
#622=CARTESIAN_POINT('',(25.5,0.0,0.0));
#623=VERTEX_POINT('',#622);
#624=CARTESIAN_POINT('',(25.5,0.0,96.5));
#625=DIRECTION('',(0.0,0.0,-1.0));
#626=VECTOR('',#625,96.5);
#627=LINE('',#624,#626);
#628=EDGE_CURVE('',#621,#623,#627,.T.);
#629=ORIENTED_EDGE('',*,*,#628,.F.);
#630=CARTESIAN_POINT('',(-25.5,0.0,96.5));
#631=VERTEX_POINT('',#630);
#632=CARTESIAN_POINT('',(0.0,0.0,96.5));
#633=DIRECTION('',(0.0,0.0,1.0));
#634=DIRECTION('',(-1.0,0.0,0.0));
#635=AXIS2_PLACEMENT_3D('',#632,#633,#634);
#636=CIRCLE('',#635,25.5);
#637=EDGE_CURVE('',#631,#621,#636,.T.);
#638=ORIENTED_EDGE('',*,*,#637,.F.);
#639=CARTESIAN_POINT('',(-25.5,-3.122849E-015,0.0));
#640=VERTEX_POINT('',#639);
#641=CARTESIAN_POINT('',(-25.5,-3.122849E-015,96.5));
#642=DIRECTION('',(0.0,0.0,-1.0));
#643=VECTOR('',#642,96.5);
#644=LINE('',#641,#643);
#645=EDGE_CURVE('',#631,#640,#644,.T.);
#646=ORIENTED_EDGE('',*,*,#645,.T.);
#647=CARTESIAN_POINT('',(0.0,0.0,0.0));
#648=DIRECTION('',(0.0,0.0,1.0));
#649=DIRECTION('',(1.0,0.0,0.0));
#650=AXIS2_PLACEMENT_3D('',#647,#648,#649);
#651=CIRCLE('',#650,25.5);
#652=EDGE_CURVE('',#640,#623,#651,.T.);
#653=ORIENTED_EDGE('',*,*,#652,.T.);
#654=EDGE_LOOP('',(#629,#638,#646,#653));
#655=FACE_OUTER_BOUND('',#654,.T.);
#656=ADVANCED_FACE('',(#655),#619,.T.);
#657=CARTESIAN_POINT('',(0.0,0.0,96.5));
#658=DIRECTION('',(0.0,0.0,-1.0));
#659=DIRECTION('',(-1.0,0.0,0.0));
#660=AXIS2_PLACEMENT_3D('',#657,#658,#659);
#661=TOROIDAL_SURFACE('',#660,25.0,0.5);
#662=CARTESIAN_POINT('',(-25.0,0.0,97.0));
#663=VERTEX_POINT('',#662);
#664=CARTESIAN_POINT('',(-25.0,0.0,96.5));
#665=DIRECTION('',(0.0,1.0,0.0));
#666=DIRECTION('',(-1.0,0.0,0.0));
#667=AXIS2_PLACEMENT_3D('',#664,#665,#666);
#668=CIRCLE('',#667,0.5);
#669=EDGE_CURVE('',#631,#663,#668,.T.);
#670=ORIENTED_EDGE('',*,*,#669,.F.);
#671=ORIENTED_EDGE('',*,*,#637,.T.);
#672=CARTESIAN_POINT('',(25.0,0.0,97.0));
#673=VERTEX_POINT('',#672);
#674=CARTESIAN_POINT('',(25.0,-3.061617E-015,96.5));
#675=DIRECTION('',(0.0,-1.0,0.0));
#676=DIRECTION('',(1.0,0.0,0.0));
#677=AXIS2_PLACEMENT_3D('',#674,#675,#676);
#678=CIRCLE('',#677,0.5);
#679=EDGE_CURVE('',#621,#673,#678,.T.);
#680=ORIENTED_EDGE('',*,*,#679,.T.);
#681=CARTESIAN_POINT('',(0.0,0.0,97.0));
#682=DIRECTION('',(0.0,0.0,-1.0));
#683=DIRECTION('',(-1.0,0.0,0.0));
#684=AXIS2_PLACEMENT_3D('',#681,#682,#683);
#685=CIRCLE('',#684,25.0);
#686=EDGE_CURVE('',#673,#663,#685,.T.);
#687=ORIENTED_EDGE('',*,*,#686,.T.);
#688=EDGE_LOOP('',(#670,#671,#680,#687));
#689=FACE_OUTER_BOUND('',#688,.T.);
#690=ADVANCED_FACE('',(#689),#661,.T.);
#691=CARTESIAN_POINT('',(0.0,0.0,0.0));
#692=DIRECTION('',(0.0,0.0,-1.0));
#693=DIRECTION('',(1.0,0.0,0.0));
#694=AXIS2_PLACEMENT_3D('',#691,#692,#693);
#695=CYLINDRICAL_SURFACE('',#694,24.75);
#696=CARTESIAN_POINT('',(24.75,0.0,2.0));
#697=VERTEX_POINT('',#696);
#698=CARTESIAN_POINT('',(24.75,0.0,0.0));
#699=VERTEX_POINT('',#698);
#700=CARTESIAN_POINT('',(24.75,0.0,2.0));
#701=DIRECTION('',(0.0,0.0,-1.0));
#702=VECTOR('',#701,2.0);
#703=LINE('',#700,#702);
#704=EDGE_CURVE('',#697,#699,#703,.T.);
#705=ORIENTED_EDGE('',*,*,#704,.F.);
#706=CARTESIAN_POINT('',(-24.75,3.031001E-015,2.0));
#707=VERTEX_POINT('',#706);
#708=CARTESIAN_POINT('',(0.0,0.0,2.0));
#709=DIRECTION('',(0.0,0.0,1.0));
#710=DIRECTION('',(1.0,0.0,0.0));
#711=AXIS2_PLACEMENT_3D('',#708,#709,#710);
#712=CIRCLE('',#711,24.75);
#713=EDGE_CURVE('',#697,#707,#712,.T.);
#714=ORIENTED_EDGE('',*,*,#713,.T.);
#715=CARTESIAN_POINT('',(-24.75,-3.031001E-015,0.0));
#716=VERTEX_POINT('',#715);
#717=CARTESIAN_POINT('',(-24.75,3.031001E-015,2.0));
#718=DIRECTION('',(0.0,0.0,-1.0));
#719=VECTOR('',#718,2.0);
#720=LINE('',#717,#719);
#721=EDGE_CURVE('',#707,#716,#720,.T.);
#722=ORIENTED_EDGE('',*,*,#721,.T.);
#723=CARTESIAN_POINT('',(0.0,0.0,0.0));
#724=DIRECTION('',(0.0,0.0,1.0));
#725=DIRECTION('',(1.0,0.0,0.0));
#726=AXIS2_PLACEMENT_3D('',#723,#724,#725);
#727=CIRCLE('',#726,24.75);
#728=EDGE_CURVE('',#699,#716,#727,.T.);
#729=ORIENTED_EDGE('',*,*,#728,.F.);
#730=EDGE_LOOP('',(#705,#714,#722,#729));
#731=FACE_OUTER_BOUND('',#730,.T.);
#732=ADVANCED_FACE('',(#731),#695,.F.);
#733=CARTESIAN_POINT('',(0.0,0.0,2.0));
#734=DIRECTION('',(0.0,0.0,1.0));
#735=DIRECTION('',(1.0,0.0,0.0));
#736=AXIS2_PLACEMENT_3D('',#733,#734,#735);
#737=PLANE('',#736);
#738=ORIENTED_EDGE('',*,*,#713,.F.);
#739=CARTESIAN_POINT('',(0.0,0.0,2.0));
#740=DIRECTION('',(0.0,0.0,1.0));
#741=DIRECTION('',(1.0,0.0,0.0));
#742=AXIS2_PLACEMENT_3D('',#739,#740,#741);
#743=CIRCLE('',#742,24.75);
#744=EDGE_CURVE('',#707,#697,#743,.T.);
#745=ORIENTED_EDGE('',*,*,#744,.F.);
#746=EDGE_LOOP('',(#738,#745));
#747=FACE_OUTER_BOUND('',#746,.T.);
#748=ADVANCED_FACE('',(#747),#737,.F.);
#749=CARTESIAN_POINT('',(0.0,0.0,0.0));
#750=DIRECTION('',(0.0,0.0,-1.0));
#751=DIRECTION('',(1.0,0.0,0.0));
#752=AXIS2_PLACEMENT_3D('',#749,#750,#751);
#753=CYLINDRICAL_SURFACE('',#752,24.75);
#754=ORIENTED_EDGE('',*,*,#704,.T.);
#755=CARTESIAN_POINT('',(0.0,0.0,0.0));
#756=DIRECTION('',(0.0,0.0,1.0));
#757=DIRECTION('',(1.0,0.0,0.0));
#758=AXIS2_PLACEMENT_3D('',#755,#756,#757);
#759=CIRCLE('',#758,24.75);
#760=EDGE_CURVE('',#716,#699,#759,.T.);
#761=ORIENTED_EDGE('',*,*,#760,.F.);
#762=ORIENTED_EDGE('',*,*,#721,.F.);
#763=ORIENTED_EDGE('',*,*,#744,.T.);
#764=EDGE_LOOP('',(#754,#761,#762,#763));
#765=FACE_OUTER_BOUND('',#764,.T.);
#766=ADVANCED_FACE('',(#765),#753,.F.);
#767=CARTESIAN_POINT('',(0.0,0.0,96.5));
#768=DIRECTION('',(0.0,0.0,-1.0));
#769=DIRECTION('',(-1.0,0.0,0.0));
#770=AXIS2_PLACEMENT_3D('',#767,#768,#769);
#771=TOROIDAL_SURFACE('',#770,25.0,0.5);
#772=ORIENTED_EDGE('',*,*,#669,.T.);
#773=CARTESIAN_POINT('',(0.0,0.0,97.0));
#774=DIRECTION('',(0.0,0.0,-1.0));
#775=DIRECTION('',(-1.0,0.0,0.0));
#776=AXIS2_PLACEMENT_3D('',#773,#774,#775);
#777=CIRCLE('',#776,25.0);
#778=EDGE_CURVE('',#663,#673,#777,.T.);
#779=ORIENTED_EDGE('',*,*,#778,.T.);
#780=ORIENTED_EDGE('',*,*,#679,.F.);
#781=CARTESIAN_POINT('',(0.0,0.0,96.5));
#782=DIRECTION('',(0.0,0.0,1.0));
#783=DIRECTION('',(-1.0,0.0,0.0));
#784=AXIS2_PLACEMENT_3D('',#781,#782,#783);
#785=CIRCLE('',#784,25.5);
#786=EDGE_CURVE('',#621,#631,#785,.T.);
#787=ORIENTED_EDGE('',*,*,#786,.T.);
#788=EDGE_LOOP('',(#772,#779,#780,#787));
#789=FACE_OUTER_BOUND('',#788,.T.);
#790=ADVANCED_FACE('',(#789),#771,.T.);
#791=CARTESIAN_POINT('',(0.0,0.0,0.0));
#792=DIRECTION('',(0.0,0.0,1.0));
#793=DIRECTION('',(1.0,0.0,0.0));
#794=AXIS2_PLACEMENT_3D('',#791,#792,#793);
#795=CYLINDRICAL_SURFACE('',#794,25.5);
#796=ORIENTED_EDGE('',*,*,#628,.T.);
#797=CARTESIAN_POINT('',(0.0,0.0,0.0));
#798=DIRECTION('',(0.0,0.0,1.0));
#799=DIRECTION('',(1.0,0.0,0.0));
#800=AXIS2_PLACEMENT_3D('',#797,#798,#799);
#801=CIRCLE('',#800,25.5);
#802=EDGE_CURVE('',#623,#640,#801,.T.);
#803=ORIENTED_EDGE('',*,*,#802,.T.);
#804=ORIENTED_EDGE('',*,*,#645,.F.);
#805=ORIENTED_EDGE('',*,*,#786,.F.);
#806=EDGE_LOOP('',(#796,#803,#804,#805));
#807=FACE_OUTER_BOUND('',#806,.T.);
#808=ADVANCED_FACE('',(#807),#795,.T.);
#809=CARTESIAN_POINT('',(0.0,0.0,97.0));
#810=DIRECTION('',(0.0,0.0,1.0));
#811=DIRECTION('',(1.0,0.0,0.0));
#812=AXIS2_PLACEMENT_3D('',#809,#810,#811);
#813=PLANE('',#812);
#814=ORIENTED_EDGE('',*,*,#686,.F.);
#815=ORIENTED_EDGE('',*,*,#778,.F.);
#816=EDGE_LOOP('',(#814,#815));
#817=FACE_OUTER_BOUND('',#816,.T.);
#818=ADVANCED_FACE('',(#817),#813,.T.);
#819=CARTESIAN_POINT('',(0.0,0.0,0.0));
#820=DIRECTION('',(0.0,0.0,1.0));
#821=DIRECTION('',(1.0,0.0,0.0));
#822=AXIS2_PLACEMENT_3D('',#819,#820,#821);
#823=PLANE('',#822);
#824=ORIENTED_EDGE('',*,*,#802,.F.);
#825=ORIENTED_EDGE('',*,*,#652,.F.);
#826=EDGE_LOOP('',(#824,#825));
#827=FACE_OUTER_BOUND('',#826,.T.);
#828=ORIENTED_EDGE('',*,*,#760,.T.);
#829=ORIENTED_EDGE('',*,*,#728,.T.);
#830=EDGE_LOOP('',(#828,#829));
#831=FACE_BOUND('',#830,.T.);
#832=ADVANCED_FACE('',(#827,#831),#823,.F.);
#833=CLOSED_SHELL('',(#656,#690,#732,#748,#766,#790,#808,#818,#832));
#834=MANIFOLD_SOLID_BREP('21E8',#833);
#835=STYLED_ITEM('NONE',(#257),#834);
#836=ADVANCED_BREP_SHAPE_REPRESENTATION('ABSR1',(#152,#250,#346,#435,#524,#613,#834),#28);
#837=SHAPE_REPRESENTATION_RELATIONSHIP('SRRPL1','',#836,#62);
ENDSEC;
END-ISO-10303-21;
