ISO-10303-21;
HEADER;
/****************************************************************
 * Generated by software with PDElib inside                    *
 * PDElib Version v51a, created Wed 11/30/2011                  *
 * ITI Transcendata (http://www.transcendata.com/)              *
 ****************************************************************/
FILE_DESCRIPTION((''),'2;1');
FILE_NAME('CLIP_FISHER_THFU 1.stp','2014-04-01T14:09:03',(''),(''),'Mechanical Desktop 2011','Mechanical Desktop 2011',', , ');
FILE_SCHEMA(('AUTOMOTIVE_DESIGN { 1 2 10303 214 1 1 1 1 }'));
ENDSEC;
DATA;
#10=(NAMED_UNIT(*)PLANE_ANGLE_UNIT()SI_UNIT($,.RADIAN.));
#11=DIMENSIONAL_EXPONENTS(0.0,0.0,0.0,0.0,0.0,0.0,0.0);
#12=PLANE_ANGLE_MEASURE_WITH_UNIT(PLANE_ANGLE_MEASURE(0.0174532925),#10);
#16=(CONVERSION_BASED_UNIT('DEGREE',#12)NAMED_UNIT(#11)PLANE_ANGLE_UNIT());
#20=(NAMED_UNIT(*)SI_UNIT($,.STERADIAN.)SOLID_ANGLE_UNIT());
#24=(LENGTH_UNIT()NAMED_UNIT(*)SI_UNIT(.MILLI.,.METRE.));
#26=UNCERTAINTY_MEASURE_WITH_UNIT(LENGTH_MEASURE(0.000001),#24,'DISTANCE_ACCURACY_VALUE','');
#28=(GEOMETRIC_REPRESENTATION_CONTEXT(3)GLOBAL_UNCERTAINTY_ASSIGNED_CONTEXT((#26))GLOBAL_UNIT_ASSIGNED_CONTEXT((#16,#20,#24))REPRESENTATION_CONTEXT('','3D'));
#29=APPLICATION_CONTEXT('automotive design');
#30=APPLICATION_PROTOCOL_DEFINITION('INTERNATIONAL_STANDARD','automotive_design',1998,#29);
#31=PRODUCT_CONTEXT('3D Mechanical Parts',#29,'mechanical');
#32=PRODUCT('Product','Product','',(#31));
#33=PRODUCT_RELATED_PRODUCT_CATEGORY('part',$,(#32));
#34=PRODUCT_CATEGORY('part',$);
#35=PERSON('1','Design','Joe',$,$,$);
#36=ORGANIZATION($,'None','None');
#37=PERSON_AND_ORGANIZATION(#35,#36);
#38=PERSON_AND_ORGANIZATION_ROLE('design_owner');
#39=APPLIED_PERSON_AND_ORGANIZATION_ASSIGNMENT(#37,#38,(#32));
#40=PRODUCT_DEFINITION_FORMATION_WITH_SPECIFIED_SOURCE('None','',#32,.BOUGHT.);
#41=PERSON('2','Creator','Joe',$,$,$);
#42=ORGANIZATION($,'None','None');
#43=PERSON_AND_ORGANIZATION(#41,#42);
#44=PERSON_AND_ORGANIZATION_ROLE('creator');
#45=APPLIED_PERSON_AND_ORGANIZATION_ASSIGNMENT(#43,#44,(#40));
#46=PERSON('3','Supplier','Joe',$,$,$);
#47=ORGANIZATION($,'None','None');
#48=PERSON_AND_ORGANIZATION(#46,#47);
#49=PERSON_AND_ORGANIZATION_ROLE('design_supplier');
#50=APPLIED_PERSON_AND_ORGANIZATION_ASSIGNMENT(#48,#49,(#40));
#51=PRODUCT_DEFINITION_CONTEXT('part definition',#29,'design');
#52=PRODUCT_DEFINITION('None','',#40,#51);
#53=PERSON('4','Creator','Joe',$,$,$);
#54=ORGANIZATION($,'None','None');
#55=PERSON_AND_ORGANIZATION(#53,#54);
#56=PERSON_AND_ORGANIZATION_ROLE('creator');
#57=APPLIED_PERSON_AND_ORGANIZATION_ASSIGNMENT(#55,#56,(#52));
#58=CARTESIAN_POINT('NONE',(0.0,0.0,0.0));
#59=DIRECTION('NONE',(0.0,0.0,1.0));
#60=DIRECTION('NONE',(1.0,0.0,0.0));
#61=AXIS2_PLACEMENT_3D('NONE',#58,#59,#60);
#62=SHAPE_REPRESENTATION('SR1',(#61),#28);
#63=PRODUCT_DEFINITION_SHAPE('PDS1','Test Part',#52);
#64=SHAPE_DEFINITION_REPRESENTATION(#63,#62);
#65=CARTESIAN_POINT('',(5.0,-7.949898693565654,15.548226139521038));
#66=DIRECTION('',(-1.0,0.0,0.0));
#67=DIRECTION('',(0.0,0.999983659996255,0.005716619673759));
#68=AXIS2_PLACEMENT_3D('',#65,#66,#67);
#69=CYLINDRICAL_SURFACE('',#68,6.19999999996753);
#70=CARTESIAN_POINT('',(-5.0,-1.779436247336793,14.943748514396066));
#71=VERTEX_POINT('',#70);
#72=CARTESIAN_POINT('',(-5.0,-1.786750570000002,16.223211477574072));
#73=VERTEX_POINT('',#72);
#74=CARTESIAN_POINT('',(-5.0,-7.949898693565654,15.548226139521038));
#75=DIRECTION('',(1.0,0.0,0.0));
#76=DIRECTION('',(0.0,0.999983659996255,0.005716619673759));
#77=AXIS2_PLACEMENT_3D('',#74,#75,#76);
#78=CIRCLE('',#77,6.199999999967529);
#79=EDGE_CURVE('',#71,#73,#78,.T.);
#80=ORIENTED_EDGE('',*,*,#79,.T.);
#81=CARTESIAN_POINT('',(5.0,-1.786750570000002,16.223211477574072));
#82=VERTEX_POINT('',#81);
#83=CARTESIAN_POINT('',(5.0,-1.786750570000002,16.223211477574072));
#84=DIRECTION('',(-1.0,0.0,0.0));
#85=VECTOR('',#84,10.0);
#86=LINE('',#83,#85);
#87=EDGE_CURVE('',#82,#73,#86,.T.);
#88=ORIENTED_EDGE('',*,*,#87,.F.);
#89=CARTESIAN_POINT('',(5.0,-1.779436247336793,14.943748514396066));
#90=VERTEX_POINT('',#89);
#91=CARTESIAN_POINT('',(5.0,-7.949898693565654,15.548226139521038));
#92=DIRECTION('',(1.0,0.0,0.0));
#93=DIRECTION('',(0.0,0.999983659996255,0.005716619673759));
#94=AXIS2_PLACEMENT_3D('',#91,#92,#93);
#95=CIRCLE('',#94,6.199999999967529);
#96=EDGE_CURVE('',#90,#82,#95,.T.);
#97=ORIENTED_EDGE('',*,*,#96,.F.);
#98=CARTESIAN_POINT('',(5.0,-1.779436247336793,14.943748514396066));
#99=DIRECTION('',(-1.0,0.0,0.0));
#100=VECTOR('',#99,10.0);
#101=LINE('',#98,#100);
#102=EDGE_CURVE('',#90,#71,#101,.T.);
#103=ORIENTED_EDGE('',*,*,#102,.T.);
#104=EDGE_LOOP('',(#80,#88,#97,#103));
#105=FACE_OUTER_BOUND('',#104,.T.);
#106=ADVANCED_FACE('',(#105),#69,.T.);
#107=CARTESIAN_POINT('',(5.0,-1.786750570000002,16.223211477574072));
#108=DIRECTION('',(0.0,0.994056148967452,0.108868602911944));
#109=DIRECTION('',(0.0,-0.108868602911944,0.994056148967452));
#110=AXIS2_PLACEMENT_3D('',#107,#108,#109);
#111=PLANE('',#110);
#112=CARTESIAN_POINT('',(-5.0,-2.805000399118743,25.520634947215132));
#113=VERTEX_POINT('',#112);
#114=CARTESIAN_POINT('',(-5.0,-1.786750570000002,16.223211477574072));
#115=DIRECTION('',(0.0,-0.108868602911944,0.994056148967452));
#116=VECTOR('',#115,9.353016405862483);
#117=LINE('',#114,#116);
#118=EDGE_CURVE('',#73,#113,#117,.T.);
#119=ORIENTED_EDGE('',*,*,#118,.T.);
#120=CARTESIAN_POINT('',(5.0,-2.805000399118743,25.520634947215132));
#121=VERTEX_POINT('',#120);
#122=CARTESIAN_POINT('',(5.0,-2.805000399118743,25.520634947215132));
#123=DIRECTION('',(-1.0,0.0,0.0));
#124=VECTOR('',#123,10.0);
#125=LINE('',#122,#124);
#126=EDGE_CURVE('',#121,#113,#125,.T.);
#127=ORIENTED_EDGE('',*,*,#126,.F.);
#128=CARTESIAN_POINT('',(5.0,-1.786750570000002,16.223211477574072));
#129=DIRECTION('',(0.0,-0.108868602911944,0.994056148967452));
#130=VECTOR('',#129,9.35301640586248);
#131=LINE('',#128,#130);
#132=EDGE_CURVE('',#82,#121,#131,.T.);
#133=ORIENTED_EDGE('',*,*,#132,.F.);
#134=ORIENTED_EDGE('',*,*,#87,.T.);
#135=EDGE_LOOP('',(#119,#127,#133,#134));
#136=FACE_OUTER_BOUND('',#135,.T.);
#137=ADVANCED_FACE('',(#136),#111,.T.);
#138=CARTESIAN_POINT('',(5.0,-1.413321790565877,25.673050991293717));
#139=DIRECTION('',(-1.0,0.0,0.0));
#140=DIRECTION('',(0.0,-0.765589195442851,0.643329762890827));
#141=AXIS2_PLACEMENT_3D('',#138,#139,#140);
#142=CYLINDRICAL_SURFACE('',#141,1.399999999998644);
#143=CARTESIAN_POINT('',(-5.0,-1.50290566071417,27.070181883588873));
#144=VERTEX_POINT('',#143);
#145=CARTESIAN_POINT('',(-5.0,-1.413321790565877,25.673050991293717));
#146=DIRECTION('',(-1.0,0.0,0.0));
#147=DIRECTION('',(0.0,-0.765589195442851,0.643329762890827));
#148=AXIS2_PLACEMENT_3D('',#145,#146,#147);
#149=CIRCLE('',#148,1.399999999998644);
#150=EDGE_CURVE('',#113,#144,#149,.T.);
#151=ORIENTED_EDGE('',*,*,#150,.T.);
#152=CARTESIAN_POINT('',(5.0,-1.50290566071417,27.070181883588873));
#153=VERTEX_POINT('',#152);
#154=CARTESIAN_POINT('',(5.0,-1.50290566071417,27.070181883588873));
#155=DIRECTION('',(-1.0,0.0,0.0));
#156=VECTOR('',#155,10.0);
#157=LINE('',#154,#156);
#158=EDGE_CURVE('',#153,#144,#157,.T.);
#159=ORIENTED_EDGE('',*,*,#158,.F.);
#160=CARTESIAN_POINT('',(5.0,-1.413321790565877,25.673050991293717));
#161=DIRECTION('',(-1.0,0.0,0.0));
#162=DIRECTION('',(0.0,-0.765589195442851,0.643329762890827));
#163=AXIS2_PLACEMENT_3D('',#160,#161,#162);
#164=CIRCLE('',#163,1.399999999998644);
#165=EDGE_CURVE('',#121,#153,#164,.T.);
#166=ORIENTED_EDGE('',*,*,#165,.F.);
#167=ORIENTED_EDGE('',*,*,#126,.T.);
#168=EDGE_LOOP('',(#151,#159,#166,#167));
#169=FACE_OUTER_BOUND('',#168,.T.);
#170=ADVANCED_FACE('',(#169),#142,.F.);
#171=CARTESIAN_POINT('',(5.0,-1.50290566071417,27.070181883588873));
#172=DIRECTION('',(0.0,0.063988478677887,-0.997950637354619));
#173=DIRECTION('',(-1.0,0.0,0.0));
#174=AXIS2_PLACEMENT_3D('',#171,#172,#173);
#175=PLANE('',#174);
#176=CARTESIAN_POINT('',(-5.0,2.179629749718081,27.306305625355947));
#177=VERTEX_POINT('',#176);
#178=CARTESIAN_POINT('',(-5.0,-1.50290566071417,27.070181883588873));
#179=DIRECTION('',(0.0,0.997950637354619,0.063988478677887));
#180=VECTOR('',#179,3.690097758937222);
#181=LINE('',#178,#180);
#182=EDGE_CURVE('',#144,#177,#181,.T.);
#183=ORIENTED_EDGE('',*,*,#182,.T.);
#184=CARTESIAN_POINT('',(5.0,2.179629749718081,27.306305625355947));
#185=VERTEX_POINT('',#184);
#186=CARTESIAN_POINT('',(5.0,2.179629749718081,27.306305625355947));
#187=DIRECTION('',(-1.0,0.0,0.0));
#188=VECTOR('',#187,10.0);
#189=LINE('',#186,#188);
#190=EDGE_CURVE('',#185,#177,#189,.T.);
#191=ORIENTED_EDGE('',*,*,#190,.F.);
#192=CARTESIAN_POINT('',(5.0,-1.50290566071417,27.070181883588873));
#193=DIRECTION('',(0.0,0.997950637354619,0.063988478677887));
#194=VECTOR('',#193,3.690097758937221);
#195=LINE('',#192,#194);
#196=EDGE_CURVE('',#153,#185,#195,.T.);
#197=ORIENTED_EDGE('',*,*,#196,.F.);
#198=ORIENTED_EDGE('',*,*,#158,.T.);
#199=EDGE_LOOP('',(#183,#191,#197,#198));
#200=FACE_OUTER_BOUND('',#199,.T.);
#201=ADVANCED_FACE('',(#200),#175,.T.);
#202=CARTESIAN_POINT('',(5.0,2.294809011338771,25.509994478120518));
#203=DIRECTION('',(-1.0,0.0,0.0));
#204=DIRECTION('',(0.0,0.314402564137255,0.949289749056588));
#205=AXIS2_PLACEMENT_3D('',#202,#203,#204);
#206=CYLINDRICAL_SURFACE('',#205,1.799999999997154);
#207=CARTESIAN_POINT('',(-5.0,3.459468498450995,26.882425998841768));
#208=VERTEX_POINT('',#207);
#209=CARTESIAN_POINT('',(-5.0,2.294809011338771,25.509994478120518));
#210=DIRECTION('',(-1.0,0.0,0.0));
#211=DIRECTION('',(0.0,0.314402564137255,0.949289749056588));
#212=AXIS2_PLACEMENT_3D('',#209,#210,#211);
#213=CIRCLE('',#212,1.799999999997154);
#214=EDGE_CURVE('',#177,#208,#213,.T.);
#215=ORIENTED_EDGE('',*,*,#214,.T.);
#216=CARTESIAN_POINT('',(5.0,3.459468498450995,26.882425998841768));
#217=VERTEX_POINT('',#216);
#218=CARTESIAN_POINT('',(5.0,3.459468498450995,26.882425998841768));
#219=DIRECTION('',(-1.0,0.0,0.0));
#220=VECTOR('',#219,10.0);
#221=LINE('',#218,#220);
#222=EDGE_CURVE('',#217,#208,#221,.T.);
#223=ORIENTED_EDGE('',*,*,#222,.F.);
#224=CARTESIAN_POINT('',(5.0,2.294809011338771,25.509994478120518));
#225=DIRECTION('',(-1.0,0.0,0.0));
#226=DIRECTION('',(0.0,0.314402564137255,0.949289749056588));
#227=AXIS2_PLACEMENT_3D('',#224,#225,#226);
#228=CIRCLE('',#227,1.799999999997154);
#229=EDGE_CURVE('',#185,#217,#228,.T.);
#230=ORIENTED_EDGE('',*,*,#229,.F.);
#231=ORIENTED_EDGE('',*,*,#190,.T.);
#232=EDGE_LOOP('',(#215,#223,#230,#231));
#233=FACE_OUTER_BOUND('',#232,.T.);
#234=ADVANCED_FACE('',(#233),#206,.F.);
#235=CARTESIAN_POINT('',(5.0,3.459468498450995,26.882425998841768));
#236=DIRECTION('',(0.0,-0.647033048396211,-0.762461955957874));
#237=DIRECTION('',(-1.0,0.0,0.0));
#238=AXIS2_PLACEMENT_3D('',#235,#236,#237);
#239=PLANE('',#238);
#240=CARTESIAN_POINT('',(-5.0,3.861215940974054,26.541498992071297));
#241=VERTEX_POINT('',#240);
#242=CARTESIAN_POINT('',(-5.0,3.459468498450995,26.882425998841768));
#243=DIRECTION('',(0.0,0.762461955957874,-0.647033048396211));
#244=VECTOR('',#243,0.526908181298499);
#245=LINE('',#242,#244);
#246=EDGE_CURVE('',#208,#241,#245,.T.);
#247=ORIENTED_EDGE('',*,*,#246,.T.);
#248=CARTESIAN_POINT('',(5.0,3.861215940974054,26.541498992071297));
#249=VERTEX_POINT('',#248);
#250=CARTESIAN_POINT('',(5.0,3.861215940974054,26.541498992071297));
#251=DIRECTION('',(-1.0,0.0,0.0));
#252=VECTOR('',#251,10.0);
#253=LINE('',#250,#252);
#254=EDGE_CURVE('',#249,#241,#253,.T.);
#255=ORIENTED_EDGE('',*,*,#254,.F.);
#256=CARTESIAN_POINT('',(5.0,3.459468498450995,26.882425998841768));
#257=DIRECTION('',(0.0,0.762461955957874,-0.647033048396211));
#258=VECTOR('',#257,0.526908181298499);
#259=LINE('',#256,#258);
#260=EDGE_CURVE('',#217,#249,#259,.T.);
#261=ORIENTED_EDGE('',*,*,#260,.F.);
#262=ORIENTED_EDGE('',*,*,#222,.T.);
#263=EDGE_LOOP('',(#247,#255,#261,#262));
#264=FACE_OUTER_BOUND('',#263,.T.);
#265=ADVANCED_FACE('',(#264),#239,.T.);
#266=CARTESIAN_POINT('',(5.0,4.702358903889152,27.532699534816729));
#267=DIRECTION('',(-1.0,0.0,0.0));
#268=DIRECTION('',(0.0,-0.03888437632834,-0.99924371665653));
#269=AXIS2_PLACEMENT_3D('',#266,#267,#268);
#270=CYLINDRICAL_SURFACE('',#269,1.300000000000165);
#271=CARTESIAN_POINT('',(-5.0,5.46393212719115,26.479131205020394));
#272=VERTEX_POINT('',#271);
#273=CARTESIAN_POINT('',(-5.0,4.702358903889152,27.532699534816729));
#274=DIRECTION('',(1.0,0.0,0.0));
#275=DIRECTION('',(0.0,-0.03888437632834,-0.99924371665653));
#276=AXIS2_PLACEMENT_3D('',#273,#274,#275);
#277=CIRCLE('',#276,1.300000000000165);
#278=EDGE_CURVE('',#241,#272,#277,.T.);
#279=ORIENTED_EDGE('',*,*,#278,.T.);
#280=CARTESIAN_POINT('',(5.0,5.46393212719115,26.479131205020394));
#281=VERTEX_POINT('',#280);
#282=CARTESIAN_POINT('',(5.0,5.46393212719115,26.479131205020394));
#283=DIRECTION('',(-1.0,0.0,0.0));
#284=VECTOR('',#283,10.0);
#285=LINE('',#282,#284);
#286=EDGE_CURVE('',#281,#272,#285,.T.);
#287=ORIENTED_EDGE('',*,*,#286,.F.);
#288=CARTESIAN_POINT('',(5.0,4.702358903889152,27.532699534816729));
#289=DIRECTION('',(1.0,0.0,0.0));
#290=DIRECTION('',(0.0,-0.03888437632834,-0.99924371665653));
#291=AXIS2_PLACEMENT_3D('',#288,#289,#290);
#292=CIRCLE('',#291,1.300000000000165);
#293=EDGE_CURVE('',#249,#281,#292,.T.);
#294=ORIENTED_EDGE('',*,*,#293,.F.);
#295=ORIENTED_EDGE('',*,*,#254,.T.);
#296=EDGE_LOOP('',(#279,#287,#294,#295));
#297=FACE_OUTER_BOUND('',#296,.T.);
#298=ADVANCED_FACE('',(#297),#270,.T.);
#299=CARTESIAN_POINT('',(5.0,5.46393212719115,26.479131205020394));
#300=DIRECTION('',(0.0,0.585825556387109,-0.810437176765561));
#301=DIRECTION('',(-1.0,0.0,0.0));
#302=AXIS2_PLACEMENT_3D('',#299,#300,#301);
#303=PLANE('',#302);
#304=CARTESIAN_POINT('',(-5.0,6.563787080475683,27.27416277369116));
#305=VERTEX_POINT('',#304);
#306=CARTESIAN_POINT('',(-5.0,5.46393212719115,26.479131205020394));
#307=DIRECTION('',(0.0,0.810437176765561,0.585825556387109));
#308=VECTOR('',#307,1.357113154253404);
#309=LINE('',#306,#308);
#310=EDGE_CURVE('',#272,#305,#309,.T.);
#311=ORIENTED_EDGE('',*,*,#310,.T.);
#312=CARTESIAN_POINT('',(5.0,6.563787080475683,27.27416277369116));
#313=VERTEX_POINT('',#312);
#314=CARTESIAN_POINT('',(5.0,6.563787080475683,27.27416277369116));
#315=DIRECTION('',(-1.0,0.0,0.0));
#316=VECTOR('',#315,10.0);
#317=LINE('',#314,#316);
#318=EDGE_CURVE('',#313,#305,#317,.T.);
#319=ORIENTED_EDGE('',*,*,#318,.F.);
#320=CARTESIAN_POINT('',(5.0,5.46393212719115,26.479131205020394));
#321=DIRECTION('',(0.0,0.810437176765561,0.585825556387109));
#322=VECTOR('',#321,1.357113154253404);
#323=LINE('',#320,#322);
#324=EDGE_CURVE('',#281,#313,#323,.T.);
#325=ORIENTED_EDGE('',*,*,#324,.F.);
#326=ORIENTED_EDGE('',*,*,#286,.T.);
#327=EDGE_LOOP('',(#311,#319,#325,#326));
#328=FACE_OUTER_BOUND('',#327,.T.);
#329=ADVANCED_FACE('',(#328),#303,.T.);
#330=CARTESIAN_POINT('',(5.0,6.563787080475683,27.27416277369116));
#331=DIRECTION('',(0.0,0.810437176765864,0.585825556386691));
#332=DIRECTION('',(1.0,0.0,0.0));
#333=AXIS2_PLACEMENT_3D('',#330,#331,#332);
#334=PLANE('',#333);
#335=CARTESIAN_POINT('',(-5.0,6.095126635366704,27.922512515103335));
#336=VERTEX_POINT('',#335);
#337=CARTESIAN_POINT('',(-5.0,6.563787080475683,27.27416277369116));
#338=DIRECTION('',(0.0,-0.585825556386691,0.810437176765864));
#339=VECTOR('',#338,0.799999999999364);
#340=LINE('',#337,#339);
#341=EDGE_CURVE('',#305,#336,#340,.T.);
#342=ORIENTED_EDGE('',*,*,#341,.T.);
#343=CARTESIAN_POINT('',(5.0,6.095126635366704,27.922512515103335));
#344=VERTEX_POINT('',#343);
#345=CARTESIAN_POINT('',(5.0,6.095126635366704,27.922512515103335));
#346=DIRECTION('',(-1.0,0.0,0.0));
#347=VECTOR('',#346,10.0);
#348=LINE('',#345,#347);
#349=EDGE_CURVE('',#344,#336,#348,.T.);
#350=ORIENTED_EDGE('',*,*,#349,.F.);
#351=CARTESIAN_POINT('',(5.0,6.563787080475683,27.27416277369116));
#352=DIRECTION('',(0.0,-0.585825556386691,0.810437176765864));
#353=VECTOR('',#352,0.799999999999364);
#354=LINE('',#351,#353);
#355=EDGE_CURVE('',#313,#344,#354,.T.);
#356=ORIENTED_EDGE('',*,*,#355,.F.);
#357=ORIENTED_EDGE('',*,*,#318,.T.);
#358=EDGE_LOOP('',(#342,#350,#356,#357));
#359=FACE_OUTER_BOUND('',#358,.T.);
#360=ADVANCED_FACE('',(#359),#334,.T.);
#361=CARTESIAN_POINT('',(5.0,6.095126635366704,27.922512515103335));
#362=DIRECTION('',(0.0,-0.585825556386614,0.810437176765919));
#363=DIRECTION('',(1.0,0.0,0.0));
#364=AXIS2_PLACEMENT_3D('',#361,#362,#363);
#365=PLANE('',#364);
#366=CARTESIAN_POINT('',(-5.0,4.995271682082169,27.127480946433593));
#367=VERTEX_POINT('',#366);
#368=CARTESIAN_POINT('',(-5.0,6.095126635366704,27.922512515103335));
#369=DIRECTION('',(0.0,-0.810437176765919,-0.585825556386614));
#370=VECTOR('',#369,1.357113154252805);
#371=LINE('',#368,#370);
#372=EDGE_CURVE('',#336,#367,#371,.T.);
#373=ORIENTED_EDGE('',*,*,#372,.T.);
#374=CARTESIAN_POINT('',(5.0,4.995271682082169,27.127480946433593));
#375=VERTEX_POINT('',#374);
#376=CARTESIAN_POINT('',(5.0,4.995271682082169,27.127480946433593));
#377=DIRECTION('',(-1.0,0.0,0.0));
#378=VECTOR('',#377,10.0);
#379=LINE('',#376,#378);
#380=EDGE_CURVE('',#375,#367,#379,.T.);
#381=ORIENTED_EDGE('',*,*,#380,.F.);
#382=CARTESIAN_POINT('',(5.0,6.095126635366704,27.922512515103335));
#383=DIRECTION('',(0.0,-0.810437176765919,-0.585825556386614));
#384=VECTOR('',#383,1.357113154252805);
#385=LINE('',#382,#384);
#386=EDGE_CURVE('',#344,#375,#385,.T.);
#387=ORIENTED_EDGE('',*,*,#386,.F.);
#388=ORIENTED_EDGE('',*,*,#349,.T.);
#389=EDGE_LOOP('',(#373,#381,#387,#388));
#390=FACE_OUTER_BOUND('',#389,.T.);
#391=ADVANCED_FACE('',(#390),#365,.T.);
#392=CARTESIAN_POINT('',(5.0,4.702358903888991,27.532699534817912));
#393=DIRECTION('',(-1.0,0.0,0.0));
#394=DIRECTION('',(0.0,-0.038884376328451,-0.999243716656526));
#395=AXIS2_PLACEMENT_3D('',#392,#393,#394);
#396=CYLINDRICAL_SURFACE('',#395,0.500000000001026);
#397=CARTESIAN_POINT('',(-5.0,4.378842379690603,27.15146855683787));
#398=VERTEX_POINT('',#397);
#399=CARTESIAN_POINT('',(-5.0,4.702358903888991,27.532699534817912));
#400=DIRECTION('',(-1.0,0.0,0.0));
#401=DIRECTION('',(0.0,-0.038884376328451,-0.999243716656526));
#402=AXIS2_PLACEMENT_3D('',#399,#400,#401);
#403=CIRCLE('',#402,0.500000000001026);
#404=EDGE_CURVE('',#367,#398,#403,.T.);
#405=ORIENTED_EDGE('',*,*,#404,.T.);
#406=CARTESIAN_POINT('',(5.0,4.378842379690603,27.15146855683787));
#407=VERTEX_POINT('',#406);
#408=CARTESIAN_POINT('',(5.0,4.378842379690603,27.15146855683787));
#409=DIRECTION('',(-1.0,0.0,0.0));
#410=VECTOR('',#409,10.0);
#411=LINE('',#408,#410);
#412=EDGE_CURVE('',#407,#398,#411,.T.);
#413=ORIENTED_EDGE('',*,*,#412,.F.);
#414=CARTESIAN_POINT('',(5.0,4.702358903888991,27.532699534817912));
#415=DIRECTION('',(-1.0,0.0,0.0));
#416=DIRECTION('',(0.0,-0.038884376328451,-0.999243716656526));
#417=AXIS2_PLACEMENT_3D('',#414,#415,#416);
#418=CIRCLE('',#417,0.500000000001026);
#419=EDGE_CURVE('',#375,#407,#418,.T.);
#420=ORIENTED_EDGE('',*,*,#419,.F.);
#421=ORIENTED_EDGE('',*,*,#380,.T.);
#422=EDGE_LOOP('',(#405,#413,#420,#421));
#423=FACE_OUTER_BOUND('',#422,.T.);
#424=ADVANCED_FACE('',(#423),#396,.F.);
#425=CARTESIAN_POINT('',(5.0,4.378842379690603,27.15146855683787));
#426=DIRECTION('',(0.0,0.647033048396787,0.762461955957385));
#427=DIRECTION('',(1.0,0.0,0.0));
#428=AXIS2_PLACEMENT_3D('',#425,#426,#427);
#429=PLANE('',#428);
#430=CARTESIAN_POINT('',(-5.0,3.977094937168225,27.492395563608284));
#431=VERTEX_POINT('',#430);
#432=CARTESIAN_POINT('',(-5.0,4.378842379690603,27.15146855683787));
#433=DIRECTION('',(0.0,-0.762461955957385,0.647033048396787));
#434=VECTOR('',#433,0.526908181297942);
#435=LINE('',#432,#434);
#436=EDGE_CURVE('',#398,#431,#435,.T.);
#437=ORIENTED_EDGE('',*,*,#436,.T.);
#438=CARTESIAN_POINT('',(5.0,3.977094937168225,27.492395563608284));
#439=VERTEX_POINT('',#438);
#440=CARTESIAN_POINT('',(5.0,3.977094937168225,27.492395563608284));
#441=DIRECTION('',(-1.0,0.0,0.0));
#442=VECTOR('',#441,10.0);
#443=LINE('',#440,#442);
#444=EDGE_CURVE('',#439,#431,#443,.T.);
#445=ORIENTED_EDGE('',*,*,#444,.F.);
#446=CARTESIAN_POINT('',(5.0,4.378842379690603,27.15146855683787));
#447=DIRECTION('',(0.0,-0.762461955957385,0.647033048396787));
#448=VECTOR('',#447,0.526908181297942);
#449=LINE('',#446,#448);
#450=EDGE_CURVE('',#407,#439,#449,.T.);
#451=ORIENTED_EDGE('',*,*,#450,.F.);
#452=ORIENTED_EDGE('',*,*,#412,.T.);
#453=EDGE_LOOP('',(#437,#445,#451,#452));
#454=FACE_OUTER_BOUND('',#453,.T.);
#455=ADVANCED_FACE('',(#454),#429,.T.);
#456=CARTESIAN_POINT('',(5.0,2.294809011338682,25.509994478118632));
#457=DIRECTION('',(-1.0,0.0,0.0));
#458=DIRECTION('',(0.0,0.314402564137059,0.949289749056653));
#459=AXIS2_PLACEMENT_3D('',#456,#457,#458);
#460=CYLINDRICAL_SURFACE('',#459,2.599999999998984);
#461=CARTESIAN_POINT('',(-5.0,2.128438966775796,28.104666135239597));
#462=VERTEX_POINT('',#461);
#463=CARTESIAN_POINT('',(-5.0,2.294809011338682,25.509994478118632));
#464=DIRECTION('',(1.0,0.0,0.0));
#465=DIRECTION('',(0.0,0.314402564137059,0.949289749056653));
#466=AXIS2_PLACEMENT_3D('',#463,#464,#465);
#467=CIRCLE('',#466,2.599999999998984);
#468=EDGE_CURVE('',#431,#462,#467,.T.);
#469=ORIENTED_EDGE('',*,*,#468,.T.);
#470=CARTESIAN_POINT('',(5.0,2.128438966775796,28.104666135239597));
#471=VERTEX_POINT('',#470);
#472=CARTESIAN_POINT('',(5.0,2.128438966775796,28.104666135239597));
#473=DIRECTION('',(-1.0,0.0,0.0));
#474=VECTOR('',#473,10.0);
#475=LINE('',#472,#474);
#476=EDGE_CURVE('',#471,#462,#475,.T.);
#477=ORIENTED_EDGE('',*,*,#476,.F.);
#478=CARTESIAN_POINT('',(5.0,2.294809011338682,25.509994478118632));
#479=DIRECTION('',(1.0,0.0,0.0));
#480=DIRECTION('',(0.0,0.314402564137059,0.949289749056653));
#481=AXIS2_PLACEMENT_3D('',#478,#479,#480);
#482=CIRCLE('',#481,2.599999999998984);
#483=EDGE_CURVE('',#439,#471,#482,.T.);
#484=ORIENTED_EDGE('',*,*,#483,.F.);
#485=ORIENTED_EDGE('',*,*,#444,.T.);
#486=EDGE_LOOP('',(#469,#477,#484,#485));
#487=FACE_OUTER_BOUND('',#486,.T.);
#488=ADVANCED_FACE('',(#487),#460,.T.);
#489=CARTESIAN_POINT('',(5.0,2.128438966775796,28.104666135239597));
#490=DIRECTION('',(0.0,-0.063988478677858,0.997950637354621));
#491=DIRECTION('',(1.0,0.0,0.0));
#492=AXIS2_PLACEMENT_3D('',#489,#490,#491);
#493=PLANE('',#492);
#494=CARTESIAN_POINT('',(-5.0,-1.554096443656455,27.86854239347263));
#495=VERTEX_POINT('',#494);
#496=CARTESIAN_POINT('',(-5.0,2.128438966775796,28.104666135239597));
#497=DIRECTION('',(0.0,-0.997950637354621,-0.063988478677858));
#498=VECTOR('',#497,3.690097758937215);
#499=LINE('',#496,#498);
#500=EDGE_CURVE('',#462,#495,#499,.T.);
#501=ORIENTED_EDGE('',*,*,#500,.T.);
#502=CARTESIAN_POINT('',(5.0,-1.554096443656455,27.86854239347263));
#503=VERTEX_POINT('',#502);
#504=CARTESIAN_POINT('',(5.0,-1.554096443656455,27.86854239347263));
#505=DIRECTION('',(-1.0,0.0,0.0));
#506=VECTOR('',#505,10.0);
#507=LINE('',#504,#506);
#508=EDGE_CURVE('',#503,#495,#507,.T.);
#509=ORIENTED_EDGE('',*,*,#508,.F.);
#510=CARTESIAN_POINT('',(5.0,2.128438966775796,28.104666135239597));
#511=DIRECTION('',(0.0,-0.997950637354621,-0.063988478677858));
#512=VECTOR('',#511,3.690097758937215);
#513=LINE('',#510,#512);
#514=EDGE_CURVE('',#471,#503,#513,.T.);
#515=ORIENTED_EDGE('',*,*,#514,.F.);
#516=ORIENTED_EDGE('',*,*,#476,.T.);
#517=EDGE_LOOP('',(#501,#509,#515,#516));
#518=FACE_OUTER_BOUND('',#517,.T.);
#519=ADVANCED_FACE('',(#518),#493,.T.);
#520=CARTESIAN_POINT('',(5.0,-1.413321790565574,25.673050991293341));
#521=DIRECTION('',(-1.0,0.0,0.0));
#522=DIRECTION('',(0.0,-0.765589195442671,0.643329762891042));
#523=AXIS2_PLACEMENT_3D('',#520,#521,#522);
#524=CYLINDRICAL_SURFACE('',#523,2.199999999999099);
#525=CARTESIAN_POINT('',(-5.0,-3.60024531829293,25.433540064885854));
#526=VERTEX_POINT('',#525);
#527=CARTESIAN_POINT('',(-5.0,-1.413321790565574,25.673050991293341));
#528=DIRECTION('',(1.0,0.0,0.0));
#529=DIRECTION('',(0.0,-0.765589195442671,0.643329762891042));
#530=AXIS2_PLACEMENT_3D('',#527,#528,#529);
#531=CIRCLE('',#530,2.199999999999099);
#532=EDGE_CURVE('',#495,#526,#531,.T.);
#533=ORIENTED_EDGE('',*,*,#532,.T.);
#534=CARTESIAN_POINT('',(5.0,-3.60024531829293,25.433540064885854));
#535=VERTEX_POINT('',#534);
#536=CARTESIAN_POINT('',(5.0,-3.60024531829293,25.433540064885854));
#537=DIRECTION('',(-1.0,0.0,0.0));
#538=VECTOR('',#537,10.0);
#539=LINE('',#536,#538);
#540=EDGE_CURVE('',#535,#526,#539,.T.);
#541=ORIENTED_EDGE('',*,*,#540,.F.);
#542=CARTESIAN_POINT('',(5.0,-1.413321790565574,25.673050991293341));
#543=DIRECTION('',(1.0,0.0,0.0));
#544=DIRECTION('',(0.0,-0.765589195442671,0.643329762891042));
#545=AXIS2_PLACEMENT_3D('',#542,#543,#544);
#546=CIRCLE('',#545,2.199999999999099);
#547=EDGE_CURVE('',#503,#535,#546,.T.);
#548=ORIENTED_EDGE('',*,*,#547,.F.);
#549=ORIENTED_EDGE('',*,*,#508,.T.);
#550=EDGE_LOOP('',(#533,#541,#548,#549));
#551=FACE_OUTER_BOUND('',#550,.T.);
#552=ADVANCED_FACE('',(#551),#524,.T.);
#553=CARTESIAN_POINT('',(5.0,-3.60024531829293,25.433540064885854));
#554=DIRECTION('',(0.0,-0.994056148967449,-0.108868602911971));
#555=DIRECTION('',(0.0,0.108868602911971,-0.994056148967449));
#556=AXIS2_PLACEMENT_3D('',#553,#554,#555);
#557=PLANE('',#556);
#558=CARTESIAN_POINT('',(-5.0,-2.600065571019278,16.301110684360065));
#559=VERTEX_POINT('',#558);
#560=CARTESIAN_POINT('',(-5.0,-3.60024531829293,25.433540064885854));
#561=DIRECTION('',(0.0,0.108868602911971,-0.994056148967449));
#562=VECTOR('',#561,9.187035752469187);
#563=LINE('',#560,#562);
#564=EDGE_CURVE('',#526,#559,#563,.T.);
#565=ORIENTED_EDGE('',*,*,#564,.T.);
#566=CARTESIAN_POINT('',(5.0,-2.600065571019278,16.301110684360065));
#567=VERTEX_POINT('',#566);
#568=CARTESIAN_POINT('',(5.0,-2.600065571019278,16.301110684360065));
#569=DIRECTION('',(-1.0,0.0,0.0));
#570=VECTOR('',#569,10.0);
#571=LINE('',#568,#570);
#572=EDGE_CURVE('',#567,#559,#571,.T.);
#573=ORIENTED_EDGE('',*,*,#572,.F.);
#574=CARTESIAN_POINT('',(5.0,-3.60024531829293,25.433540064885854));
#575=DIRECTION('',(0.0,0.108868602911971,-0.994056148967449));
#576=VECTOR('',#575,9.187035752469187);
#577=LINE('',#574,#576);
#578=EDGE_CURVE('',#535,#567,#577,.T.);
#579=ORIENTED_EDGE('',*,*,#578,.F.);
#580=ORIENTED_EDGE('',*,*,#540,.T.);
#581=EDGE_LOOP('',(#565,#573,#579,#580));
#582=FACE_OUTER_BOUND('',#581,.T.);
#583=ADVANCED_FACE('',(#582),#557,.T.);
#584=CARTESIAN_POINT('',(5.0,-9.558458613829597,15.539030463976612));
#585=DIRECTION('',(-1.0,0.0,0.0));
#586=DIRECTION('',(0.0,0.999983659996255,0.005716619673799));
#587=AXIS2_PLACEMENT_3D('',#584,#585,#586);
#588=CYLINDRICAL_SURFACE('',#587,7.000000000037908);
#589=CARTESIAN_POINT('',(-5.0,-2.591807464786562,14.856555725932708));
#590=VERTEX_POINT('',#589);
#591=CARTESIAN_POINT('',(-5.0,-9.558458613829597,15.539030463976612));
#592=DIRECTION('',(-1.0,0.0,0.0));
#593=DIRECTION('',(0.0,0.999983659996255,0.005716619673799));
#594=AXIS2_PLACEMENT_3D('',#591,#592,#593);
#595=CIRCLE('',#594,7.000000000037908);
#596=EDGE_CURVE('',#559,#590,#595,.T.);
#597=ORIENTED_EDGE('',*,*,#596,.T.);
#598=CARTESIAN_POINT('',(5.0,-2.591807464786562,14.856555725932708));
#599=VERTEX_POINT('',#598);
#600=CARTESIAN_POINT('',(5.0,-2.591807464786562,14.856555725932708));
#601=DIRECTION('',(-1.0,0.0,0.0));
#602=VECTOR('',#601,10.0);
#603=LINE('',#600,#602);
#604=EDGE_CURVE('',#599,#590,#603,.T.);
#605=ORIENTED_EDGE('',*,*,#604,.F.);
#606=CARTESIAN_POINT('',(5.0,-9.558458613829597,15.539030463976612));
#607=DIRECTION('',(-1.0,0.0,0.0));
#608=DIRECTION('',(0.0,0.999983659996255,0.005716619673799));
#609=AXIS2_PLACEMENT_3D('',#606,#607,#608);
#610=CIRCLE('',#609,7.000000000037908);
#611=EDGE_CURVE('',#567,#599,#610,.T.);
#612=ORIENTED_EDGE('',*,*,#611,.F.);
#613=ORIENTED_EDGE('',*,*,#572,.T.);
#614=EDGE_LOOP('',(#597,#605,#612,#613));
#615=FACE_OUTER_BOUND('',#614,.T.);
#616=ADVANCED_FACE('',(#615),#588,.F.);
#617=CARTESIAN_POINT('',(5.0,-2.591807464786562,14.856555725932708));
#618=DIRECTION('',(0.0,-0.995235878429324,0.097496391148651));
#619=DIRECTION('',(0.0,-0.097496391148651,-0.995235878429324));
#620=AXIS2_PLACEMENT_3D('',#617,#618,#619);
#621=PLANE('',#620);
#622=CARTESIAN_POINT('',(-5.0,-2.722916071542437,13.518208861222799));
#623=VERTEX_POINT('',#622);
#624=CARTESIAN_POINT('',(-5.0,-2.591807464786562,14.856555725932708));
#625=DIRECTION('',(0.0,-0.097496391148651,-0.995235878429324));
#626=VECTOR('',#625,1.344753433549924);
#627=LINE('',#624,#626);
#628=EDGE_CURVE('',#590,#623,#627,.T.);
#629=ORIENTED_EDGE('',*,*,#628,.T.);
#630=CARTESIAN_POINT('',(5.0,-2.722916071542437,13.518208861222799));
#631=VERTEX_POINT('',#630);
#632=CARTESIAN_POINT('',(5.0,-2.722916071542437,13.518208861222799));
#633=DIRECTION('',(-1.0,0.0,0.0));
#634=VECTOR('',#633,10.0);
#635=LINE('',#632,#634);
#636=EDGE_CURVE('',#631,#623,#635,.T.);
#637=ORIENTED_EDGE('',*,*,#636,.F.);
#638=CARTESIAN_POINT('',(5.0,-2.591807464786562,14.856555725932708));
#639=DIRECTION('',(0.0,-0.097496391148651,-0.995235878429324));
#640=VECTOR('',#639,1.344753433549924);
#641=LINE('',#638,#640);
#642=EDGE_CURVE('',#599,#631,#641,.T.);
#643=ORIENTED_EDGE('',*,*,#642,.F.);
#644=ORIENTED_EDGE('',*,*,#604,.T.);
#645=EDGE_LOOP('',(#629,#637,#643,#644));
#646=FACE_OUTER_BOUND('',#645,.T.);
#647=ADVANCED_FACE('',(#646),#621,.T.);
#648=CARTESIAN_POINT('',(5.0,-4.514340652718003,13.693702365292742));
#649=DIRECTION('',(-1.0,0.0,0.0));
#650=DIRECTION('',(0.0,0.872128982846573,-0.489276033828556));
#651=AXIS2_PLACEMENT_3D('',#648,#649,#650);
#652=CYLINDRICAL_SURFACE('',#651,1.800000000003);
#653=CARTESIAN_POINT('',(-5.0,-3.430847747502369,12.256328675413112));
#654=VERTEX_POINT('',#653);
#655=CARTESIAN_POINT('',(-5.0,-4.514340652718003,13.693702365292742));
#656=DIRECTION('',(-1.0,0.0,0.0));
#657=DIRECTION('',(0.0,0.872128982846573,-0.489276033828556));
#658=AXIS2_PLACEMENT_3D('',#655,#656,#657);
#659=CIRCLE('',#658,1.800000000003);
#660=EDGE_CURVE('',#623,#654,#659,.T.);
#661=ORIENTED_EDGE('',*,*,#660,.T.);
#662=CARTESIAN_POINT('',(5.0,-3.430847747502369,12.256328675413112));
#663=VERTEX_POINT('',#662);
#664=CARTESIAN_POINT('',(5.0,-3.430847747502369,12.256328675413112));
#665=DIRECTION('',(-1.0,0.0,0.0));
#666=VECTOR('',#665,10.0);
#667=LINE('',#664,#666);
#668=EDGE_CURVE('',#663,#654,#667,.T.);
#669=ORIENTED_EDGE('',*,*,#668,.F.);
#670=CARTESIAN_POINT('',(5.0,-4.514340652718003,13.693702365292742));
#671=DIRECTION('',(-1.0,0.0,0.0));
#672=DIRECTION('',(0.0,0.872128982846573,-0.489276033828556));
#673=AXIS2_PLACEMENT_3D('',#670,#671,#672);
#674=CIRCLE('',#673,1.800000000003);
#675=EDGE_CURVE('',#631,#663,#674,.T.);
#676=ORIENTED_EDGE('',*,*,#675,.F.);
#677=ORIENTED_EDGE('',*,*,#636,.T.);
#678=EDGE_LOOP('',(#661,#669,#676,#677));
#679=FACE_OUTER_BOUND('',#678,.T.);
#680=ADVANCED_FACE('',(#679),#652,.F.);
#681=CARTESIAN_POINT('',(5.0,-3.430847747502369,12.256328675413112));
#682=DIRECTION('',(0.0,-0.601940502895977,0.798540938821134));
#683=DIRECTION('',(1.0,0.0,0.0));
#684=AXIS2_PLACEMENT_3D('',#681,#682,#683);
#685=PLANE('',#684);
#686=CARTESIAN_POINT('',(-5.0,-4.906995290379442,11.143608023144695));
#687=VERTEX_POINT('',#686);
#688=CARTESIAN_POINT('',(-5.0,-3.430847747502369,12.256328675413112));
#689=DIRECTION('',(0.0,-0.798540938821134,-0.601940502895977));
#690=VECTOR('',#689,1.848555873736758);
#691=LINE('',#688,#690);
#692=EDGE_CURVE('',#654,#687,#691,.T.);
#693=ORIENTED_EDGE('',*,*,#692,.T.);
#694=CARTESIAN_POINT('',(5.0,-4.906995290379442,11.143608023144695));
#695=VERTEX_POINT('',#694);
#696=CARTESIAN_POINT('',(5.0,-4.906995290379442,11.143608023144695));
#697=DIRECTION('',(-1.0,0.0,0.0));
#698=VECTOR('',#697,10.0);
#699=LINE('',#696,#698);
#700=EDGE_CURVE('',#695,#687,#699,.T.);
#701=ORIENTED_EDGE('',*,*,#700,.F.);
#702=CARTESIAN_POINT('',(5.0,-3.430847747502369,12.256328675413112));
#703=DIRECTION('',(0.0,-0.798540938821134,-0.601940502895977));
#704=VECTOR('',#703,1.848555873736758);
#705=LINE('',#702,#704);
#706=EDGE_CURVE('',#663,#695,#705,.T.);
#707=ORIENTED_EDGE('',*,*,#706,.F.);
#708=ORIENTED_EDGE('',*,*,#668,.T.);
#709=EDGE_LOOP('',(#693,#701,#707,#708));
#710=FACE_OUTER_BOUND('',#709,.T.);
#711=ADVANCED_FACE('',(#710),#685,.T.);
#712=CARTESIAN_POINT('',(5.0,-4.906995290379442,11.143608023144695));
#713=DIRECTION('',(0.0,-0.798540938821008,-0.601940502896145));
#714=DIRECTION('',(-1.0,0.0,0.0));
#715=AXIS2_PLACEMENT_3D('',#712,#713,#714);
#716=PLANE('',#715);
#717=CARTESIAN_POINT('',(-5.0,-4.425442888062296,10.504775272087585));
#718=VERTEX_POINT('',#717);
#719=CARTESIAN_POINT('',(-5.0,-4.906995290379442,11.143608023144695));
#720=DIRECTION('',(0.0,0.601940502896145,-0.798540938821008));
#721=VECTOR('',#720,0.800000000000381);
#722=LINE('',#719,#721);
#723=EDGE_CURVE('',#687,#718,#722,.T.);
#724=ORIENTED_EDGE('',*,*,#723,.T.);
#725=CARTESIAN_POINT('',(5.0,-4.425442888062296,10.504775272087585));
#726=VERTEX_POINT('',#725);
#727=CARTESIAN_POINT('',(5.0,-4.425442888062296,10.504775272087585));
#728=DIRECTION('',(-1.0,0.0,0.0));
#729=VECTOR('',#728,10.0);
#730=LINE('',#727,#729);
#731=EDGE_CURVE('',#726,#718,#730,.T.);
#732=ORIENTED_EDGE('',*,*,#731,.F.);
#733=CARTESIAN_POINT('',(5.0,-4.906995290379442,11.143608023144695));
#734=DIRECTION('',(0.0,0.601940502896145,-0.798540938821008));
#735=VECTOR('',#734,0.800000000000381);
#736=LINE('',#733,#735);
#737=EDGE_CURVE('',#695,#726,#736,.T.);
#738=ORIENTED_EDGE('',*,*,#737,.F.);
#739=ORIENTED_EDGE('',*,*,#700,.T.);
#740=EDGE_LOOP('',(#724,#732,#738,#739));
#741=FACE_OUTER_BOUND('',#740,.T.);
#742=ADVANCED_FACE('',(#741),#716,.T.);
#743=CARTESIAN_POINT('',(5.0,-4.425442888062296,10.504775272087585));
#744=DIRECTION('',(0.0,0.60194050289632,-0.798540938820876));
#745=DIRECTION('',(-1.0,0.0,0.0));
#746=AXIS2_PLACEMENT_3D('',#743,#744,#745);
#747=PLANE('',#746);
#748=CARTESIAN_POINT('',(-5.0,-2.94929534518593,11.617495924356462));
#749=VERTEX_POINT('',#748);
#750=CARTESIAN_POINT('',(-5.0,-4.425442888062296,10.504775272087585));
#751=DIRECTION('',(0.0,0.798540938820876,0.60194050289632));
#752=VECTOR('',#751,1.84855587373647);
#753=LINE('',#750,#752);
#754=EDGE_CURVE('',#718,#749,#753,.T.);
#755=ORIENTED_EDGE('',*,*,#754,.T.);
#756=CARTESIAN_POINT('',(5.0,-2.94929534518593,11.617495924356462));
#757=VERTEX_POINT('',#756);
#758=CARTESIAN_POINT('',(5.0,-2.94929534518593,11.617495924356462));
#759=DIRECTION('',(-1.0,0.0,0.0));
#760=VECTOR('',#759,10.0);
#761=LINE('',#758,#760);
#762=EDGE_CURVE('',#757,#749,#761,.T.);
#763=ORIENTED_EDGE('',*,*,#762,.F.);
#764=CARTESIAN_POINT('',(5.0,-4.425442888062296,10.504775272087585));
#765=DIRECTION('',(0.0,0.798540938820876,0.60194050289632));
#766=VECTOR('',#765,1.84855587373647);
#767=LINE('',#764,#766);
#768=EDGE_CURVE('',#726,#757,#767,.T.);
#769=ORIENTED_EDGE('',*,*,#768,.F.);
#770=ORIENTED_EDGE('',*,*,#731,.T.);
#771=EDGE_LOOP('',(#755,#763,#769,#770));
#772=FACE_OUTER_BOUND('',#771,.T.);
#773=ADVANCED_FACE('',(#772),#747,.T.);
#774=CARTESIAN_POINT('',(5.0,-4.514340652716877,13.693702365292994));
#775=DIRECTION('',(-1.0,0.0,0.0));
#776=DIRECTION('',(0.0,0.872128982846421,-0.489276033828827));
#777=AXIS2_PLACEMENT_3D('',#774,#775,#776);
#778=CYLINDRICAL_SURFACE('',#777,2.600000000002111);
#779=CARTESIAN_POINT('',(-5.0,-1.926727368798811,13.44021174830344));
#780=VERTEX_POINT('',#779);
#781=CARTESIAN_POINT('',(-5.0,-4.514340652716877,13.693702365292994));
#782=DIRECTION('',(1.0,0.0,0.0));
#783=DIRECTION('',(0.0,0.872128982846421,-0.489276033828827));
#784=AXIS2_PLACEMENT_3D('',#781,#782,#783);
#785=CIRCLE('',#784,2.600000000002111);
#786=EDGE_CURVE('',#749,#780,#785,.T.);
#787=ORIENTED_EDGE('',*,*,#786,.T.);
#788=CARTESIAN_POINT('',(5.0,-1.926727368798811,13.44021174830344));
#789=VERTEX_POINT('',#788);
#790=CARTESIAN_POINT('',(5.0,-1.926727368798811,13.44021174830344));
#791=DIRECTION('',(-1.0,0.0,0.0));
#792=VECTOR('',#791,10.0);
#793=LINE('',#790,#792);
#794=EDGE_CURVE('',#789,#780,#793,.T.);
#795=ORIENTED_EDGE('',*,*,#794,.F.);
#796=CARTESIAN_POINT('',(5.0,-4.514340652716877,13.693702365292994));
#797=DIRECTION('',(1.0,0.0,0.0));
#798=DIRECTION('',(0.0,0.872128982846421,-0.489276033828827));
#799=AXIS2_PLACEMENT_3D('',#796,#797,#798);
#800=CIRCLE('',#799,2.600000000002111);
#801=EDGE_CURVE('',#757,#789,#800,.T.);
#802=ORIENTED_EDGE('',*,*,#801,.F.);
#803=ORIENTED_EDGE('',*,*,#762,.T.);
#804=EDGE_LOOP('',(#787,#795,#802,#803));
#805=FACE_OUTER_BOUND('',#804,.T.);
#806=ADVANCED_FACE('',(#805),#778,.T.);
#807=CARTESIAN_POINT('',(5.0,-1.926727368798811,13.44021174830344));
#808=DIRECTION('',(0.0,0.995235878429341,-0.097496391148485));
#809=DIRECTION('',(0.0,0.097496391148485,0.995235878429341));
#810=AXIS2_PLACEMENT_3D('',#807,#808,#809);
#811=PLANE('',#810);
#812=CARTESIAN_POINT('',(-5.0,-1.926727368798811,13.44021174830344));
#813=DIRECTION('',(0.0,0.097496391148485,0.995235878429341));
#814=VECTOR('',#813,1.510734086943765);
#815=LINE('',#812,#814);
#816=EDGE_CURVE('',#780,#71,#815,.T.);
#817=ORIENTED_EDGE('',*,*,#816,.T.);
#818=ORIENTED_EDGE('',*,*,#102,.F.);
#819=CARTESIAN_POINT('',(5.0,-1.926727368798811,13.44021174830344));
#820=DIRECTION('',(0.0,0.097496391148485,0.995235878429341));
#821=VECTOR('',#820,1.510734086943765);
#822=LINE('',#819,#821);
#823=EDGE_CURVE('',#789,#90,#822,.T.);
#824=ORIENTED_EDGE('',*,*,#823,.F.);
#825=ORIENTED_EDGE('',*,*,#794,.T.);
#826=EDGE_LOOP('',(#817,#818,#824,#825));
#827=FACE_OUTER_BOUND('',#826,.T.);
#828=ADVANCED_FACE('',(#827),#811,.T.);
#829=CARTESIAN_POINT('',(-5.0,-1.024406821406642,21.630135461052262));
#830=DIRECTION('',(1.0,0.0,0.0));
#831=DIRECTION('',(0.0,0.0,-1.0));
#832=AXIS2_PLACEMENT_3D('',#829,#830,#831);
#833=PLANE('',#832);
#834=ORIENTED_EDGE('',*,*,#79,.F.);
#835=ORIENTED_EDGE('',*,*,#816,.F.);
#836=ORIENTED_EDGE('',*,*,#786,.F.);
#837=ORIENTED_EDGE('',*,*,#754,.F.);
#838=ORIENTED_EDGE('',*,*,#723,.F.);
#839=ORIENTED_EDGE('',*,*,#692,.F.);
#840=ORIENTED_EDGE('',*,*,#660,.F.);
#841=ORIENTED_EDGE('',*,*,#628,.F.);
#842=ORIENTED_EDGE('',*,*,#596,.F.);
#843=ORIENTED_EDGE('',*,*,#564,.F.);
#844=ORIENTED_EDGE('',*,*,#532,.F.);
#845=ORIENTED_EDGE('',*,*,#500,.F.);
#846=ORIENTED_EDGE('',*,*,#468,.F.);
#847=ORIENTED_EDGE('',*,*,#436,.F.);
#848=ORIENTED_EDGE('',*,*,#404,.F.);
#849=ORIENTED_EDGE('',*,*,#372,.F.);
#850=ORIENTED_EDGE('',*,*,#341,.F.);
#851=ORIENTED_EDGE('',*,*,#310,.F.);
#852=ORIENTED_EDGE('',*,*,#278,.F.);
#853=ORIENTED_EDGE('',*,*,#246,.F.);
#854=ORIENTED_EDGE('',*,*,#214,.F.);
#855=ORIENTED_EDGE('',*,*,#182,.F.);
#856=ORIENTED_EDGE('',*,*,#150,.F.);
#857=ORIENTED_EDGE('',*,*,#118,.F.);
#858=EDGE_LOOP('',(#834,#835,#836,#837,#838,#839,#840,#841,#842,#843,#844,#845,#846,#847,#848,#849,#850,#851,#852,#853,#854,#855,#856,#857));
#859=FACE_OUTER_BOUND('',#858,.T.);
#860=ADVANCED_FACE('',(#859),#833,.F.);
#861=CARTESIAN_POINT('',(5.000000000000011,-1.024406821406642,21.630135461052262));
#862=DIRECTION('',(1.0,0.0,0.0));
#863=DIRECTION('',(0.0,0.0,-1.0));
#864=AXIS2_PLACEMENT_3D('',#861,#862,#863);
#865=PLANE('',#864);
#866=ORIENTED_EDGE('',*,*,#823,.T.);
#867=ORIENTED_EDGE('',*,*,#96,.T.);
#868=ORIENTED_EDGE('',*,*,#132,.T.);
#869=ORIENTED_EDGE('',*,*,#165,.T.);
#870=ORIENTED_EDGE('',*,*,#196,.T.);
#871=ORIENTED_EDGE('',*,*,#229,.T.);
#872=ORIENTED_EDGE('',*,*,#260,.T.);
#873=ORIENTED_EDGE('',*,*,#293,.T.);
#874=ORIENTED_EDGE('',*,*,#324,.T.);
#875=ORIENTED_EDGE('',*,*,#355,.T.);
#876=ORIENTED_EDGE('',*,*,#386,.T.);
#877=ORIENTED_EDGE('',*,*,#419,.T.);
#878=ORIENTED_EDGE('',*,*,#450,.T.);
#879=ORIENTED_EDGE('',*,*,#483,.T.);
#880=ORIENTED_EDGE('',*,*,#514,.T.);
#881=ORIENTED_EDGE('',*,*,#547,.T.);
#882=ORIENTED_EDGE('',*,*,#578,.T.);
#883=ORIENTED_EDGE('',*,*,#611,.T.);
#884=ORIENTED_EDGE('',*,*,#642,.T.);
#885=ORIENTED_EDGE('',*,*,#675,.T.);
#886=ORIENTED_EDGE('',*,*,#706,.T.);
#887=ORIENTED_EDGE('',*,*,#737,.T.);
#888=ORIENTED_EDGE('',*,*,#768,.T.);
#889=ORIENTED_EDGE('',*,*,#801,.T.);
#890=EDGE_LOOP('',(#866,#867,#868,#869,#870,#871,#872,#873,#874,#875,#876,#877,#878,#879,#880,#881,#882,#883,#884,#885,#886,#887,#888,#889));
#891=FACE_OUTER_BOUND('',#890,.T.);
#892=ADVANCED_FACE('',(#891),#865,.T.);
#893=CLOSED_SHELL('',(#106,#137,#170,#201,#234,#265,#298,#329,#360,#391,#424,#455,#488,#519,#552,#583,#616,#647,#680,#711,#742,#773,#806,#828,#860,#892));
#894=MANIFOLD_SOLID_BREP('24C9',#893);
#895=COLOUR_RGB('254',0.866,0.866,0.866);
#896=SURFACE_STYLE_USAGE(.BOTH.,#897);
#897=SURFACE_SIDE_STYLE('NONE',(#898));
#898=SURFACE_STYLE_FILL_AREA(#899);
#899=FILL_AREA_STYLE('NONE',(#900));
#900=FILL_AREA_STYLE_COLOUR('NONE',#895);
#901=PRESENTATION_STYLE_ASSIGNMENT((#896));
#902=STYLED_ITEM('NONE',(#901),#894);
#903=MECHANICAL_DESIGN_GEOMETRIC_PRESENTATION_REPRESENTATION('NONE',(#902),#28);
#904=PRESENTATION_LAYER_ASSIGNMENT('3D','None',(#894));
#905=ADVANCED_BREP_SHAPE_REPRESENTATION('ABSR1',(#894),#28);
#906=SHAPE_REPRESENTATION_RELATIONSHIP('SRRPL1','',#905,#62);
ENDSEC;
END-ISO-10303-21;
