ISO-10303-21;
HEADER;
/****************************************************************
 * Generated by software with PDElib inside                    *
 * PDElib Version v51a, created Wed 11/30/2011                  *
 * ITI Transcendata (http://www.transcendata.com/)              *
 ****************************************************************/
FILE_DESCRIPTION((''),'2;1');
FILE_NAME('CORE_EPCOS_B66395G0000X197.stp','2015-01-13T10:01:17',(''),(''),'Mechanical Desktop 2011','Mechanical Desktop 2011',', , ');
FILE_SCHEMA(('AUTOMOTIVE_DESIGN { 1 2 10303 214 1 1 1 1 }'));
ENDSEC;
DATA;
#10=(NAMED_UNIT(*)PLANE_ANGLE_UNIT()SI_UNIT($,.RADIAN.));
#11=DIMENSIONAL_EXPONENTS(0.0,0.0,0.0,0.0,0.0,0.0,0.0);
#12=PLANE_ANGLE_MEASURE_WITH_UNIT(PLANE_ANGLE_MEASURE(0.0174532925),#10);
#16=(CONVERSION_BASED_UNIT('DEGREE',#12)NAMED_UNIT(#11)PLANE_ANGLE_UNIT());
#20=(NAMED_UNIT(*)SI_UNIT($,.STERADIAN.)SOLID_ANGLE_UNIT());
#24=(LENGTH_UNIT()NAMED_UNIT(*)SI_UNIT(.MILLI.,.METRE.));
#26=UNCERTAINTY_MEASURE_WITH_UNIT(LENGTH_MEASURE(0.000001),#24,'DISTANCE_ACCURACY_VALUE','');
#28=(GEOMETRIC_REPRESENTATION_CONTEXT(3)GLOBAL_UNCERTAINTY_ASSIGNED_CONTEXT((#26))GLOBAL_UNIT_ASSIGNED_CONTEXT((#16,#20,#24))REPRESENTATION_CONTEXT('','3D'));
#29=APPLICATION_CONTEXT('automotive design');
#30=APPLICATION_PROTOCOL_DEFINITION('INTERNATIONAL_STANDARD','automotive_design',1998,#29);
#31=PRODUCT_CONTEXT('3D Mechanical Parts',#29,'mechanical');
#32=PRODUCT('Product','Product','',(#31));
#33=PRODUCT_RELATED_PRODUCT_CATEGORY('part',$,(#32));
#34=PRODUCT_CATEGORY('part',$);
#35=PERSON('1','Design','Joe',$,$,$);
#36=ORGANIZATION($,'None','None');
#37=PERSON_AND_ORGANIZATION(#35,#36);
#38=PERSON_AND_ORGANIZATION_ROLE('design_owner');
#39=APPLIED_PERSON_AND_ORGANIZATION_ASSIGNMENT(#37,#38,(#32));
#40=PRODUCT_DEFINITION_FORMATION_WITH_SPECIFIED_SOURCE('None','',#32,.BOUGHT.);
#41=PERSON('2','Creator','Joe',$,$,$);
#42=ORGANIZATION($,'None','None');
#43=PERSON_AND_ORGANIZATION(#41,#42);
#44=PERSON_AND_ORGANIZATION_ROLE('creator');
#45=APPLIED_PERSON_AND_ORGANIZATION_ASSIGNMENT(#43,#44,(#40));
#46=PERSON('3','Supplier','Joe',$,$,$);
#47=ORGANIZATION($,'None','None');
#48=PERSON_AND_ORGANIZATION(#46,#47);
#49=PERSON_AND_ORGANIZATION_ROLE('design_supplier');
#50=APPLIED_PERSON_AND_ORGANIZATION_ASSIGNMENT(#48,#49,(#40));
#51=PRODUCT_DEFINITION_CONTEXT('part definition',#29,'design');
#52=PRODUCT_DEFINITION('None','',#40,#51);
#53=PERSON('4','Creator','Joe',$,$,$);
#54=ORGANIZATION($,'None','None');
#55=PERSON_AND_ORGANIZATION(#53,#54);
#56=PERSON_AND_ORGANIZATION_ROLE('creator');
#57=APPLIED_PERSON_AND_ORGANIZATION_ASSIGNMENT(#55,#56,(#52));
#58=CARTESIAN_POINT('NONE',(0.0,0.0,0.0));
#59=DIRECTION('NONE',(0.0,0.0,1.0));
#60=DIRECTION('NONE',(1.0,0.0,0.0));
#61=AXIS2_PLACEMENT_3D('NONE',#58,#59,#60);
#62=SHAPE_REPRESENTATION('SR1',(#61),#28);
#63=PRODUCT_DEFINITION_SHAPE('PDS1','Test Part',#52);
#64=SHAPE_DEFINITION_REPRESENTATION(#63,#62);
#65=CARTESIAN_POINT('',(-9.592327E-014,5.773160E-015,27.300000000000008));
#66=DIRECTION('',(8.401846E-016,1.0,1.794300E-016));
#67=DIRECTION('',(-1.0,0.0,0.0));
#68=AXIS2_PLACEMENT_3D('',#65,#66,#67);
#69=CYLINDRICAL_SURFACE('',#68,9.65);
#70=CARTESIAN_POINT('',(-9.65000000000008,19.800000000000026,27.300000000000011));
#71=VERTEX_POINT('',#70);
#72=CARTESIAN_POINT('',(-9.650000000000102,5.773160E-015,27.300000000000008));
#73=VERTEX_POINT('',#72);
#74=CARTESIAN_POINT('',(-9.65000000000008,19.800000000000026,27.300000000000011));
#75=DIRECTION('',(0.0,-1.0,0.0));
#76=VECTOR('',#75,19.800000000000015);
#77=LINE('',#74,#76);
#78=EDGE_CURVE('',#71,#73,#77,.T.);
#79=ORIENTED_EDGE('',*,*,#78,.F.);
#80=CARTESIAN_POINT('',(-9.592327E-014,19.800000000000018,17.650000000000027));
#81=VERTEX_POINT('',#80);
#82=CARTESIAN_POINT('',(-9.592327E-014,19.800000000000018,27.300000000000011));
#83=DIRECTION('',(0.0,1.0,0.0));
#84=DIRECTION('',(-1.0,0.0,0.0));
#85=AXIS2_PLACEMENT_3D('',#82,#83,#84);
#86=CIRCLE('',#85,9.65);
#87=EDGE_CURVE('',#81,#71,#86,.T.);
#88=ORIENTED_EDGE('',*,*,#87,.F.);
#89=CARTESIAN_POINT('',(9.64999999999992,19.800000000000008,27.300000000000011));
#90=VERTEX_POINT('',#89);
#91=CARTESIAN_POINT('',(-9.592327E-014,19.800000000000018,27.300000000000011));
#92=DIRECTION('',(0.0,1.0,0.0));
#93=DIRECTION('',(-1.0,0.0,0.0));
#94=AXIS2_PLACEMENT_3D('',#91,#92,#93);
#95=CIRCLE('',#94,9.65);
#96=EDGE_CURVE('',#90,#81,#95,.T.);
#97=ORIENTED_EDGE('',*,*,#96,.F.);
#98=CARTESIAN_POINT('',(9.649999999999904,-7.117889E-015,27.300000000000008));
#99=VERTEX_POINT('',#98);
#100=CARTESIAN_POINT('',(9.64999999999992,19.800000000000008,27.300000000000011));
#101=DIRECTION('',(0.0,-1.0,0.0));
#102=VECTOR('',#101,19.800000000000015);
#103=LINE('',#100,#102);
#104=EDGE_CURVE('',#90,#99,#103,.T.);
#105=ORIENTED_EDGE('',*,*,#104,.T.);
#106=CARTESIAN_POINT('',(-9.592327E-014,5.773160E-015,27.300000000000008));
#107=DIRECTION('',(0.0,1.0,0.0));
#108=DIRECTION('',(-1.0,0.0,0.0));
#109=AXIS2_PLACEMENT_3D('',#106,#107,#108);
#110=CIRCLE('',#109,9.65);
#111=EDGE_CURVE('',#99,#73,#110,.T.);
#112=ORIENTED_EDGE('',*,*,#111,.T.);
#113=EDGE_LOOP('',(#79,#88,#97,#105,#112));
#114=FACE_OUTER_BOUND('',#113,.T.);
#115=ADVANCED_FACE('',(#114),#69,.T.);
#116=CARTESIAN_POINT('',(-9.592327E-014,5.773160E-015,27.300000000000008));
#117=DIRECTION('',(8.401846E-016,1.0,1.794300E-016));
#118=DIRECTION('',(-1.0,0.0,0.0));
#119=AXIS2_PLACEMENT_3D('',#116,#117,#118);
#120=CYLINDRICAL_SURFACE('',#119,9.65);
#121=ORIENTED_EDGE('',*,*,#78,.T.);
#122=CARTESIAN_POINT('',(-9.592327E-014,5.773160E-015,27.300000000000008));
#123=DIRECTION('',(0.0,1.0,0.0));
#124=DIRECTION('',(-1.0,0.0,0.0));
#125=AXIS2_PLACEMENT_3D('',#122,#123,#124);
#126=CIRCLE('',#125,9.65);
#127=EDGE_CURVE('',#73,#99,#126,.T.);
#128=ORIENTED_EDGE('',*,*,#127,.T.);
#129=ORIENTED_EDGE('',*,*,#104,.F.);
#130=CARTESIAN_POINT('',(-8.171241E-014,19.800000000000018,36.950000000000024));
#131=VERTEX_POINT('',#130);
#132=CARTESIAN_POINT('',(-9.592327E-014,19.800000000000018,27.300000000000011));
#133=DIRECTION('',(0.0,1.0,0.0));
#134=DIRECTION('',(-1.0,0.0,0.0));
#135=AXIS2_PLACEMENT_3D('',#132,#133,#134);
#136=CIRCLE('',#135,9.65);
#137=EDGE_CURVE('',#131,#90,#136,.T.);
#138=ORIENTED_EDGE('',*,*,#137,.F.);
#139=CARTESIAN_POINT('',(-9.592327E-014,19.800000000000018,27.300000000000011));
#140=DIRECTION('',(0.0,1.0,0.0));
#141=DIRECTION('',(-1.0,0.0,0.0));
#142=AXIS2_PLACEMENT_3D('',#139,#140,#141);
#143=CIRCLE('',#142,9.65);
#144=EDGE_CURVE('',#71,#131,#143,.T.);
#145=ORIENTED_EDGE('',*,*,#144,.F.);
#146=EDGE_LOOP('',(#121,#128,#129,#138,#145));
#147=FACE_OUTER_BOUND('',#146,.T.);
#148=ADVANCED_FACE('',(#147),#120,.T.);
#149=CARTESIAN_POINT('',(-9.592327E-014,5.773160E-015,27.300000000000008));
#150=DIRECTION('',(0.0,1.0,0.0));
#151=DIRECTION('',(0.0,0.0,-1.0));
#152=AXIS2_PLACEMENT_3D('',#149,#150,#151);
#153=PLANE('',#152);
#154=ORIENTED_EDGE('',*,*,#127,.F.);
#155=ORIENTED_EDGE('',*,*,#111,.F.);
#156=EDGE_LOOP('',(#154,#155));
#157=FACE_OUTER_BOUND('',#156,.T.);
#158=ADVANCED_FACE('',(#157),#153,.F.);
#159=CARTESIAN_POINT('',(-6.750156E-014,19.800000000000018,27.300000000000011));
#160=DIRECTION('',(0.0,1.0,0.0));
#161=DIRECTION('',(0.0,0.0,-1.0));
#162=AXIS2_PLACEMENT_3D('',#159,#160,#161);
#163=PLANE('',#162);
#164=ORIENTED_EDGE('',*,*,#87,.T.);
#165=ORIENTED_EDGE('',*,*,#144,.T.);
#166=CARTESIAN_POINT('',(-17.574982219052242,19.800000000000018,36.950000000000031));
#167=VERTEX_POINT('',#166);
#168=CARTESIAN_POINT('',(-17.574982219052242,19.800000000000029,36.950000000000024));
#169=DIRECTION('',(1.0,0.0,0.0));
#170=VECTOR('',#169,17.57498221905216);
#171=LINE('',#168,#170);
#172=EDGE_CURVE('',#167,#131,#171,.T.);
#173=ORIENTED_EDGE('',*,*,#172,.F.);
#174=CARTESIAN_POINT('',(-17.574982219052256,19.800000000000018,17.650000000000034));
#175=VERTEX_POINT('',#174);
#176=CARTESIAN_POINT('',(-6.750156E-014,19.800000000000018,27.300000000000011));
#177=DIRECTION('',(0.0,-1.0,0.0));
#178=DIRECTION('',(-1.0,0.0,0.0));
#179=AXIS2_PLACEMENT_3D('',#176,#177,#178);
#180=CIRCLE('',#179,20.050000000000001);
#181=EDGE_CURVE('',#167,#175,#180,.T.);
#182=ORIENTED_EDGE('',*,*,#181,.T.);
#183=CARTESIAN_POINT('',(-9.947598E-014,19.800000000000015,17.650000000000031));
#184=DIRECTION('',(-1.0,0.0,0.0));
#185=VECTOR('',#184,17.574982219052163);
#186=LINE('',#183,#185);
#187=EDGE_CURVE('',#81,#175,#186,.T.);
#188=ORIENTED_EDGE('',*,*,#187,.F.);
#189=EDGE_LOOP('',(#164,#165,#173,#182,#188));
#190=FACE_OUTER_BOUND('',#189,.T.);
#191=ADVANCED_FACE('',(#190),#163,.F.);
#192=CARTESIAN_POINT('',(-6.750156E-014,19.800000000000018,27.300000000000011));
#193=DIRECTION('',(0.0,1.0,0.0));
#194=DIRECTION('',(0.0,0.0,-1.0));
#195=AXIS2_PLACEMENT_3D('',#192,#193,#194);
#196=PLANE('',#195);
#197=ORIENTED_EDGE('',*,*,#137,.T.);
#198=ORIENTED_EDGE('',*,*,#96,.T.);
#199=CARTESIAN_POINT('',(17.574982219052107,19.800000000000018,17.650000000000023));
#200=VERTEX_POINT('',#199);
#201=CARTESIAN_POINT('',(17.574982219052103,19.800000000000008,17.650000000000027));
#202=DIRECTION('',(-1.0,0.0,0.0));
#203=VECTOR('',#202,17.574982219052202);
#204=LINE('',#201,#203);
#205=EDGE_CURVE('',#200,#81,#204,.T.);
#206=ORIENTED_EDGE('',*,*,#205,.F.);
#207=CARTESIAN_POINT('',(17.574982219052092,19.800000000000018,36.950000000000017));
#208=VERTEX_POINT('',#207);
#209=CARTESIAN_POINT('',(-6.750156E-014,19.800000000000018,27.300000000000011));
#210=DIRECTION('',(0.0,-1.0,0.0));
#211=DIRECTION('',(-1.0,0.0,0.0));
#212=AXIS2_PLACEMENT_3D('',#209,#210,#211);
#213=CIRCLE('',#212,20.050000000000001);
#214=EDGE_CURVE('',#200,#208,#213,.T.);
#215=ORIENTED_EDGE('',*,*,#214,.T.);
#216=CARTESIAN_POINT('',(-8.348877E-014,19.800000000000022,36.950000000000024));
#217=DIRECTION('',(1.0,0.0,0.0));
#218=VECTOR('',#217,17.574982219052181);
#219=LINE('',#216,#218);
#220=EDGE_CURVE('',#131,#208,#219,.T.);
#221=ORIENTED_EDGE('',*,*,#220,.F.);
#222=EDGE_LOOP('',(#197,#198,#206,#215,#221));
#223=FACE_OUTER_BOUND('',#222,.T.);
#224=ADVANCED_FACE('',(#223),#196,.F.);
#225=CARTESIAN_POINT('',(-9.592327E-014,5.773160E-015,27.300000000000008));
#226=DIRECTION('',(8.401846E-016,1.0,1.794300E-016));
#227=DIRECTION('',(-1.0,0.0,0.0));
#228=AXIS2_PLACEMENT_3D('',#225,#226,#227);
#229=CYLINDRICAL_SURFACE('',#228,20.050000000000001);
#230=CARTESIAN_POINT('',(17.574982219052078,5.773160E-015,36.950000000000017));
#231=VERTEX_POINT('',#230);
#232=CARTESIAN_POINT('',(17.574982219052096,19.800000000000018,36.950000000000017));
#233=DIRECTION('',(0.0,-1.0,0.0));
#234=VECTOR('',#233,19.800000000000011);
#235=LINE('',#232,#234);
#236=EDGE_CURVE('',#208,#231,#235,.T.);
#237=ORIENTED_EDGE('',*,*,#236,.F.);
#238=ORIENTED_EDGE('',*,*,#214,.F.);
#239=CARTESIAN_POINT('',(17.574982219052092,5.773160E-015,17.65000000000002));
#240=VERTEX_POINT('',#239);
#241=CARTESIAN_POINT('',(17.574982219052092,5.773160E-015,17.65000000000002));
#242=DIRECTION('',(0.0,1.0,0.0));
#243=VECTOR('',#242,19.800000000000011);
#244=LINE('',#241,#243);
#245=EDGE_CURVE('',#240,#200,#244,.T.);
#246=ORIENTED_EDGE('',*,*,#245,.F.);
#247=CARTESIAN_POINT('',(-9.592327E-014,-2.264855E-014,27.300000000000008));
#248=DIRECTION('',(0.0,1.0,0.0));
#249=DIRECTION('',(-1.0,0.0,0.0));
#250=AXIS2_PLACEMENT_3D('',#247,#248,#249);
#251=CIRCLE('',#250,20.050000000000001);
#252=EDGE_CURVE('',#231,#240,#251,.T.);
#253=ORIENTED_EDGE('',*,*,#252,.F.);
#254=EDGE_LOOP('',(#237,#238,#246,#253));
#255=FACE_OUTER_BOUND('',#254,.T.);
#256=ADVANCED_FACE('',(#255),#229,.F.);
#257=CARTESIAN_POINT('',(-9.592327E-014,5.773160E-015,27.300000000000008));
#258=DIRECTION('',(8.401846E-016,1.0,1.794300E-016));
#259=DIRECTION('',(-1.0,0.0,0.0));
#260=AXIS2_PLACEMENT_3D('',#257,#258,#259);
#261=CYLINDRICAL_SURFACE('',#260,20.050000000000001);
#262=CARTESIAN_POINT('',(-17.574982219052256,5.773160E-015,36.950000000000024));
#263=VERTEX_POINT('',#262);
#264=CARTESIAN_POINT('',(-17.574982219052256,5.773160E-015,36.950000000000024));
#265=DIRECTION('',(0.0,1.0,0.0));
#266=VECTOR('',#265,19.800000000000011);
#267=LINE('',#264,#266);
#268=EDGE_CURVE('',#263,#167,#267,.T.);
#269=ORIENTED_EDGE('',*,*,#268,.F.);
#270=CARTESIAN_POINT('',(-17.57498221905227,5.773160E-015,17.650000000000027));
#271=VERTEX_POINT('',#270);
#272=CARTESIAN_POINT('',(-9.592327E-014,-2.264855E-014,27.300000000000008));
#273=DIRECTION('',(0.0,1.0,0.0));
#274=DIRECTION('',(-1.0,0.0,0.0));
#275=AXIS2_PLACEMENT_3D('',#272,#273,#274);
#276=CIRCLE('',#275,20.050000000000001);
#277=EDGE_CURVE('',#271,#263,#276,.T.);
#278=ORIENTED_EDGE('',*,*,#277,.F.);
#279=CARTESIAN_POINT('',(-17.574982219052252,19.800000000000018,17.650000000000031));
#280=DIRECTION('',(0.0,-1.0,0.0));
#281=VECTOR('',#280,19.800000000000011);
#282=LINE('',#279,#281);
#283=EDGE_CURVE('',#175,#271,#282,.T.);
#284=ORIENTED_EDGE('',*,*,#283,.F.);
#285=ORIENTED_EDGE('',*,*,#181,.F.);
#286=EDGE_LOOP('',(#269,#278,#284,#285));
#287=FACE_OUTER_BOUND('',#286,.T.);
#288=ADVANCED_FACE('',(#287),#261,.F.);
#289=CARTESIAN_POINT('',(27.249999999999904,-8.437695E-015,36.950000000000017));
#290=DIRECTION('',(0.0,0.0,1.0));
#291=DIRECTION('',(-1.0,0.0,0.0));
#292=AXIS2_PLACEMENT_3D('',#289,#290,#291);
#293=PLANE('',#292);
#294=ORIENTED_EDGE('',*,*,#268,.T.);
#295=ORIENTED_EDGE('',*,*,#172,.T.);
#296=ORIENTED_EDGE('',*,*,#220,.T.);
#297=ORIENTED_EDGE('',*,*,#236,.T.);
#298=CARTESIAN_POINT('',(27.249999999999904,-8.437695E-015,36.950000000000017));
#299=VERTEX_POINT('',#298);
#300=CARTESIAN_POINT('',(17.574982219052071,-9.669463E-015,36.950000000000017));
#301=DIRECTION('',(1.0,0.0,0.0));
#302=VECTOR('',#301,9.675017780947826);
#303=LINE('',#300,#302);
#304=EDGE_CURVE('',#231,#299,#303,.T.);
#305=ORIENTED_EDGE('',*,*,#304,.T.);
#306=CARTESIAN_POINT('',(27.249999999999932,27.799999999999976,36.950000000000017));
#307=VERTEX_POINT('',#306);
#308=CARTESIAN_POINT('',(27.249999999999904,-8.437695E-015,36.950000000000017));
#309=DIRECTION('',(0.0,1.0,0.0));
#310=VECTOR('',#309,27.799999999999997);
#311=LINE('',#308,#310);
#312=EDGE_CURVE('',#299,#307,#311,.T.);
#313=ORIENTED_EDGE('',*,*,#312,.T.);
#314=CARTESIAN_POINT('',(-27.250000000000082,27.800000000000004,36.950000000000031));
#315=VERTEX_POINT('',#314);
#316=CARTESIAN_POINT('',(27.249999999999925,27.799999999999986,36.950000000000017));
#317=DIRECTION('',(-1.0,0.0,0.0));
#318=VECTOR('',#317,54.500000000000007);
#319=LINE('',#316,#318);
#320=EDGE_CURVE('',#307,#315,#319,.T.);
#321=ORIENTED_EDGE('',*,*,#320,.T.);
#322=CARTESIAN_POINT('',(-27.25000000000011,5.773160E-015,36.950000000000031));
#323=VERTEX_POINT('',#322);
#324=CARTESIAN_POINT('',(-27.25000000000011,5.773160E-015,36.950000000000031));
#325=DIRECTION('',(0.0,1.0,0.0));
#326=VECTOR('',#325,27.799999999999983);
#327=LINE('',#324,#326);
#328=EDGE_CURVE('',#323,#315,#327,.T.);
#329=ORIENTED_EDGE('',*,*,#328,.F.);
#330=CARTESIAN_POINT('',(-27.25000000000011,5.773160E-015,36.950000000000031));
#331=DIRECTION('',(1.0,0.0,0.0));
#332=VECTOR('',#331,9.675017780947847);
#333=LINE('',#330,#332);
#334=EDGE_CURVE('',#323,#263,#333,.T.);
#335=ORIENTED_EDGE('',*,*,#334,.T.);
#336=EDGE_LOOP('',(#294,#295,#296,#297,#305,#313,#321,#329,#335));
#337=FACE_OUTER_BOUND('',#336,.T.);
#338=ADVANCED_FACE('',(#337),#293,.T.);
#339=CARTESIAN_POINT('',(-9.592327E-014,-2.264855E-014,27.300000000000022));
#340=DIRECTION('',(0.0,-1.0,0.0));
#341=DIRECTION('',(0.0,0.0,1.0));
#342=AXIS2_PLACEMENT_3D('',#339,#340,#341);
#343=PLANE('',#342);
#344=ORIENTED_EDGE('',*,*,#252,.T.);
#345=CARTESIAN_POINT('',(27.249999999999904,-8.437695E-015,17.650000000000016));
#346=VERTEX_POINT('',#345);
#347=CARTESIAN_POINT('',(27.249999999999904,-8.437695E-015,17.650000000000016));
#348=DIRECTION('',(-1.0,0.0,0.0));
#349=VECTOR('',#348,9.675017780947805);
#350=LINE('',#347,#349);
#351=EDGE_CURVE('',#346,#240,#350,.T.);
#352=ORIENTED_EDGE('',*,*,#351,.F.);
#353=CARTESIAN_POINT('',(27.249999999999904,-8.437695E-015,36.950000000000017));
#354=DIRECTION('',(0.0,0.0,-1.0));
#355=VECTOR('',#354,19.299999999999997);
#356=LINE('',#353,#355);
#357=EDGE_CURVE('',#299,#346,#356,.T.);
#358=ORIENTED_EDGE('',*,*,#357,.F.);
#359=ORIENTED_EDGE('',*,*,#304,.F.);
#360=EDGE_LOOP('',(#344,#352,#358,#359));
#361=FACE_OUTER_BOUND('',#360,.T.);
#362=ADVANCED_FACE('',(#361),#343,.T.);
#363=CARTESIAN_POINT('',(-27.25000000000011,5.773160E-015,36.950000000000031));
#364=DIRECTION('',(-1.0,0.0,0.0));
#365=DIRECTION('',(0.0,0.0,-1.0));
#366=AXIS2_PLACEMENT_3D('',#363,#364,#365);
#367=PLANE('',#366);
#368=CARTESIAN_POINT('',(-27.250000000000082,27.800000000000004,17.650000000000038));
#369=VERTEX_POINT('',#368);
#370=CARTESIAN_POINT('',(-27.250000000000082,27.800000000000004,36.950000000000031));
#371=DIRECTION('',(0.0,0.0,-1.0));
#372=VECTOR('',#371,19.299999999999994);
#373=LINE('',#370,#372);
#374=EDGE_CURVE('',#315,#369,#373,.T.);
#375=ORIENTED_EDGE('',*,*,#374,.T.);
#376=CARTESIAN_POINT('',(-27.25000000000011,5.773160E-015,17.650000000000031));
#377=VERTEX_POINT('',#376);
#378=CARTESIAN_POINT('',(-27.25000000000011,5.773160E-015,17.650000000000031));
#379=DIRECTION('',(0.0,1.0,0.0));
#380=VECTOR('',#379,27.799999999999983);
#381=LINE('',#378,#380);
#382=EDGE_CURVE('',#377,#369,#381,.T.);
#383=ORIENTED_EDGE('',*,*,#382,.F.);
#384=CARTESIAN_POINT('',(-27.25000000000011,5.773160E-015,17.650000000000031));
#385=DIRECTION('',(0.0,0.0,1.0));
#386=VECTOR('',#385,19.300000000000001);
#387=LINE('',#384,#386);
#388=EDGE_CURVE('',#377,#323,#387,.T.);
#389=ORIENTED_EDGE('',*,*,#388,.T.);
#390=ORIENTED_EDGE('',*,*,#328,.T.);
#391=EDGE_LOOP('',(#375,#383,#389,#390));
#392=FACE_OUTER_BOUND('',#391,.T.);
#393=ADVANCED_FACE('',(#392),#367,.T.);
#394=CARTESIAN_POINT('',(-27.25000000000011,5.773160E-015,17.650000000000031));
#395=DIRECTION('',(0.0,0.0,-1.0));
#396=DIRECTION('',(1.0,0.0,0.0));
#397=AXIS2_PLACEMENT_3D('',#394,#395,#396);
#398=PLANE('',#397);
#399=ORIENTED_EDGE('',*,*,#283,.T.);
#400=CARTESIAN_POINT('',(-17.574982219052263,7.004928E-015,17.650000000000027));
#401=DIRECTION('',(-1.0,0.0,0.0));
#402=VECTOR('',#401,9.675017780947833);
#403=LINE('',#400,#402);
#404=EDGE_CURVE('',#271,#377,#403,.T.);
#405=ORIENTED_EDGE('',*,*,#404,.T.);
#406=ORIENTED_EDGE('',*,*,#382,.T.);
#407=CARTESIAN_POINT('',(27.249999999999918,27.799999999999976,17.650000000000023));
#408=VERTEX_POINT('',#407);
#409=CARTESIAN_POINT('',(-27.250000000000082,27.799999999999994,17.650000000000038));
#410=DIRECTION('',(1.0,0.0,0.0));
#411=VECTOR('',#410,54.5);
#412=LINE('',#409,#411);
#413=EDGE_CURVE('',#369,#408,#412,.T.);
#414=ORIENTED_EDGE('',*,*,#413,.T.);
#415=CARTESIAN_POINT('',(27.249999999999904,-8.437695E-015,17.650000000000016));
#416=DIRECTION('',(0.0,1.0,0.0));
#417=VECTOR('',#416,27.799999999999997);
#418=LINE('',#415,#417);
#419=EDGE_CURVE('',#346,#408,#418,.T.);
#420=ORIENTED_EDGE('',*,*,#419,.F.);
#421=ORIENTED_EDGE('',*,*,#351,.T.);
#422=ORIENTED_EDGE('',*,*,#245,.T.);
#423=ORIENTED_EDGE('',*,*,#205,.T.);
#424=ORIENTED_EDGE('',*,*,#187,.T.);
#425=EDGE_LOOP('',(#399,#405,#406,#414,#420,#421,#422,#423,#424));
#426=FACE_OUTER_BOUND('',#425,.T.);
#427=ADVANCED_FACE('',(#426),#398,.T.);
#428=CARTESIAN_POINT('',(27.249999999999904,-8.437695E-015,17.650000000000016));
#429=DIRECTION('',(1.0,0.0,0.0));
#430=DIRECTION('',(0.0,0.0,1.0));
#431=AXIS2_PLACEMENT_3D('',#428,#429,#430);
#432=PLANE('',#431);
#433=CARTESIAN_POINT('',(27.249999999999929,27.799999999999976,17.65000000000002));
#434=DIRECTION('',(0.0,0.0,1.0));
#435=VECTOR('',#434,19.299999999999997);
#436=LINE('',#433,#435);
#437=EDGE_CURVE('',#408,#307,#436,.T.);
#438=ORIENTED_EDGE('',*,*,#437,.T.);
#439=ORIENTED_EDGE('',*,*,#312,.F.);
#440=ORIENTED_EDGE('',*,*,#357,.T.);
#441=ORIENTED_EDGE('',*,*,#419,.T.);
#442=EDGE_LOOP('',(#438,#439,#440,#441));
#443=FACE_OUTER_BOUND('',#442,.T.);
#444=ADVANCED_FACE('',(#443),#432,.T.);
#445=CARTESIAN_POINT('',(-9.592327E-014,-2.264855E-014,27.300000000000022));
#446=DIRECTION('',(0.0,-1.0,0.0));
#447=DIRECTION('',(0.0,0.0,1.0));
#448=AXIS2_PLACEMENT_3D('',#445,#446,#447);
#449=PLANE('',#448);
#450=ORIENTED_EDGE('',*,*,#277,.T.);
#451=ORIENTED_EDGE('',*,*,#334,.F.);
#452=ORIENTED_EDGE('',*,*,#388,.F.);
#453=ORIENTED_EDGE('',*,*,#404,.F.);
#454=EDGE_LOOP('',(#450,#451,#452,#453));
#455=FACE_OUTER_BOUND('',#454,.T.);
#456=ADVANCED_FACE('',(#455),#449,.T.);
#457=CARTESIAN_POINT('',(-8.171241E-014,27.799999999999976,27.300000000000033));
#458=DIRECTION('',(0.0,-1.0,0.0));
#459=DIRECTION('',(0.0,0.0,1.0));
#460=AXIS2_PLACEMENT_3D('',#457,#458,#459);
#461=PLANE('',#460);
#462=ORIENTED_EDGE('',*,*,#320,.F.);
#463=ORIENTED_EDGE('',*,*,#437,.F.);
#464=ORIENTED_EDGE('',*,*,#413,.F.);
#465=ORIENTED_EDGE('',*,*,#374,.F.);
#466=EDGE_LOOP('',(#462,#463,#464,#465));
#467=FACE_OUTER_BOUND('',#466,.T.);
#468=ADVANCED_FACE('',(#467),#461,.F.);
#469=CLOSED_SHELL('',(#115,#148,#158,#191,#224,#256,#288,#338,#362,#393,#427,#444,#456,#468));
#470=MANIFOLD_SOLID_BREP('31F6',#469);
#471=COLOUR_RGB('252',0.598,0.598,0.598);
#472=SURFACE_STYLE_USAGE(.BOTH.,#473);
#473=SURFACE_SIDE_STYLE('NONE',(#474));
#474=SURFACE_STYLE_FILL_AREA(#475);
#475=FILL_AREA_STYLE('NONE',(#476));
#476=FILL_AREA_STYLE_COLOUR('NONE',#471);
#477=PRESENTATION_STYLE_ASSIGNMENT((#472));
#478=STYLED_ITEM('NONE',(#477),#470);
#479=MECHANICAL_DESIGN_GEOMETRIC_PRESENTATION_REPRESENTATION('NONE',(#478),#28);
#480=PRESENTATION_LAYER_ASSIGNMENT('3D','None',(#470));
#481=ADVANCED_BREP_SHAPE_REPRESENTATION('ABSR1',(#470),#28);
#482=SHAPE_REPRESENTATION_RELATIONSHIP('SRRPL1','',#481,#62);
ENDSEC;
END-ISO-10303-21;
