ISO-10303-21;
HEADER;
/* Generated by software containing ST-Developer
 * from STEP Tools, Inc. (www.steptools.com) 
 */

FILE_DESCRIPTION(
/* description */ (''),
/* implementation_level */ '2;1');

FILE_NAME(
/* name */ 
'G:\\Applications\\Altium\\CernLib\\StepLib\\CORE_VAC_T60006-L2020-W40
9-09_v.stp',
/* time_stamp */ '2017-02-14T09:13:55+01:00',
/* author */ ('jchouvet'),
/* organization */ (''),
/* preprocessor_version */ 'ST-DEVELOPER v16.1',
/* originating_system */ 'AutoCAD Mechanical',
/* authorisation */ '');

FILE_SCHEMA (('AUTOMOTIVE_DESIGN { 1 0 10303 214 3 1 1 }'));
ENDSEC;

DATA;
#10=MECHANICAL_DESIGN_GEOMETRIC_PRESENTATION_REPRESENTATION('',(#114,#113,
#112,#111,#115),#223);
#11=DIMENSIONAL_EXPONENTS(0.,0.,0.,0.,0.,0.,0.);
#12=(
CONVERSION_BASED_UNIT('degree',#13)
NAMED_UNIT(#11)
PLANE_ANGLE_UNIT()
);
#13=PLANE_ANGLE_MEASURE_WITH_UNIT(PLANE_ANGLE_MEASURE(0.01745329252),#226);
#14=PRESENTATION_LAYER_ASSIGNMENT('2','Mechanical 8',(#116,#117,#118,#119));
#15=PRESENTATION_LAYER_ASSIGNMENT('1','3D',(#17));
#16=ADVANCED_BREP_SHAPE_REPRESENTATION('',(#17),#222);
#17=MANIFOLD_SOLID_BREP('2D8A',#106);
#18=PLANE('',#134);
#19=PLANE('',#138);
#20=CYLINDRICAL_SURFACE('',#132,5.15);
#21=CYLINDRICAL_SURFACE('',#142,11.3);
#22=FACE_BOUND('',#39,.T.);
#23=FACE_BOUND('',#41,.T.);
#24=FACE_BOUND('',#43,.T.);
#25=FACE_BOUND('',#45,.T.);
#26=FACE_BOUND('',#47,.T.);
#27=FACE_BOUND('',#49,.T.);
#28=FACE_BOUND('',#51,.T.);
#29=FACE_BOUND('',#53,.T.);
#30=FACE_OUTER_BOUND('',#38,.T.);
#31=FACE_OUTER_BOUND('',#40,.T.);
#32=FACE_OUTER_BOUND('',#42,.T.);
#33=FACE_OUTER_BOUND('',#44,.T.);
#34=FACE_OUTER_BOUND('',#46,.T.);
#35=FACE_OUTER_BOUND('',#48,.T.);
#36=FACE_OUTER_BOUND('',#50,.T.);
#37=FACE_OUTER_BOUND('',#52,.T.);
#38=EDGE_LOOP('',(#78));
#39=EDGE_LOOP('',(#79));
#40=EDGE_LOOP('',(#80));
#41=EDGE_LOOP('',(#81));
#42=EDGE_LOOP('',(#82));
#43=EDGE_LOOP('',(#83));
#44=EDGE_LOOP('',(#84));
#45=EDGE_LOOP('',(#85));
#46=EDGE_LOOP('',(#86));
#47=EDGE_LOOP('',(#87));
#48=EDGE_LOOP('',(#88));
#49=EDGE_LOOP('',(#89));
#50=EDGE_LOOP('',(#90));
#51=EDGE_LOOP('',(#91));
#52=EDGE_LOOP('',(#92));
#53=EDGE_LOOP('',(#93));
#54=CIRCLE('',#130,5.15);
#55=CIRCLE('',#131,6.15);
#56=CIRCLE('',#133,5.15);
#57=CIRCLE('',#135,10.3);
#58=CIRCLE('',#137,6.15);
#59=CIRCLE('',#139,10.3);
#60=CIRCLE('',#141,11.3);
#61=CIRCLE('',#143,11.3);
#62=VERTEX_POINT('',#197);
#63=VERTEX_POINT('',#199);
#64=VERTEX_POINT('',#202);
#65=VERTEX_POINT('',#205);
#66=VERTEX_POINT('',#208);
#67=VERTEX_POINT('',#211);
#68=VERTEX_POINT('',#214);
#69=VERTEX_POINT('',#217);
#70=EDGE_CURVE('',#62,#62,#54,.T.);
#71=EDGE_CURVE('',#63,#63,#55,.T.);
#72=EDGE_CURVE('',#64,#64,#56,.T.);
#73=EDGE_CURVE('',#65,#65,#57,.T.);
#74=EDGE_CURVE('',#66,#66,#58,.T.);
#75=EDGE_CURVE('',#67,#67,#59,.T.);
#76=EDGE_CURVE('',#68,#68,#60,.T.);
#77=EDGE_CURVE('',#69,#69,#61,.T.);
#78=ORIENTED_EDGE('',*,*,#70,.T.);
#79=ORIENTED_EDGE('',*,*,#71,.T.);
#80=ORIENTED_EDGE('',*,*,#72,.F.);
#81=ORIENTED_EDGE('',*,*,#70,.F.);
#82=ORIENTED_EDGE('',*,*,#73,.F.);
#83=ORIENTED_EDGE('',*,*,#71,.F.);
#84=ORIENTED_EDGE('',*,*,#72,.T.);
#85=ORIENTED_EDGE('',*,*,#74,.T.);
#86=ORIENTED_EDGE('',*,*,#75,.F.);
#87=ORIENTED_EDGE('',*,*,#74,.F.);
#88=ORIENTED_EDGE('',*,*,#76,.T.);
#89=ORIENTED_EDGE('',*,*,#75,.T.);
#90=ORIENTED_EDGE('',*,*,#77,.F.);
#91=ORIENTED_EDGE('',*,*,#76,.F.);
#92=ORIENTED_EDGE('',*,*,#73,.T.);
#93=ORIENTED_EDGE('',*,*,#77,.T.);
#94=TOROIDAL_SURFACE('',#129,6.15,1.);
#95=TOROIDAL_SURFACE('',#136,6.15,1.);
#96=TOROIDAL_SURFACE('',#140,10.3,1.);
#97=TOROIDAL_SURFACE('',#144,10.3,1.);
#98=ADVANCED_FACE('',(#30,#22),#94,.T.);
#99=ADVANCED_FACE('',(#31,#23),#20,.F.);
#100=ADVANCED_FACE('',(#32,#24),#18,.F.);
#101=ADVANCED_FACE('',(#33,#25),#95,.T.);
#102=ADVANCED_FACE('',(#34,#26),#19,.T.);
#103=ADVANCED_FACE('',(#35,#27),#96,.T.);
#104=ADVANCED_FACE('',(#36,#28),#21,.T.);
#105=ADVANCED_FACE('',(#37,#29),#97,.T.);
#106=CLOSED_SHELL('',(#98,#99,#100,#101,#102,#103,#104,#105));
#107=SHAPE_REPRESENTATION_RELATIONSHIP('SRR','None',#229,#109);
#108=SHAPE_REPRESENTATION_RELATIONSHIP('SRR','None',#229,#16);
#109=GEOMETRICALLY_BOUNDED_SURFACE_SHAPE_REPRESENTATION('',(#110),#222);
#110=GEOMETRIC_SET('GEOSET',(#116,#117,#118,#119));
#111=STYLED_ITEM('',(#238),#116);
#112=STYLED_ITEM('',(#238),#117);
#113=STYLED_ITEM('',(#238),#118);
#114=STYLED_ITEM('',(#238),#119);
#115=STYLED_ITEM('',(#240),#17);
#116=TRIMMED_CURVE('2295',#120,(#185,PARAMETER_VALUE(0.)),(#186,
PARAMETER_VALUE(1.)),.T.,.PARAMETER.);
#117=TRIMMED_CURVE('2296',#121,(#188,PARAMETER_VALUE(0.)),(#189,
PARAMETER_VALUE(1.)),.T.,.PARAMETER.);
#118=TRIMMED_CURVE('2297',#122,(#191,PARAMETER_VALUE(0.)),(#192,
PARAMETER_VALUE(1.)),.T.,.PARAMETER.);
#119=TRIMMED_CURVE('2298',#123,(#194,PARAMETER_VALUE(0.)),(#195,
PARAMETER_VALUE(1.)),.T.,.PARAMETER.);
#120=LINE('',#184,#124);
#121=LINE('',#187,#125);
#122=LINE('',#190,#126);
#123=LINE('',#193,#127);
#124=VECTOR('',#147,0.5);
#125=VECTOR('',#148,0.5);
#126=VECTOR('',#149,0.5);
#127=VECTOR('',#150,0.5);
#128=AXIS2_PLACEMENT_3D('placement',#183,#145,#146);
#129=AXIS2_PLACEMENT_3D('',#196,#151,#152);
#130=AXIS2_PLACEMENT_3D('',#198,#153,#154);
#131=AXIS2_PLACEMENT_3D('',#200,#155,#156);
#132=AXIS2_PLACEMENT_3D('',#201,#157,#158);
#133=AXIS2_PLACEMENT_3D('',#203,#159,#160);
#134=AXIS2_PLACEMENT_3D('',#204,#161,#162);
#135=AXIS2_PLACEMENT_3D('',#206,#163,#164);
#136=AXIS2_PLACEMENT_3D('',#207,#165,#166);
#137=AXIS2_PLACEMENT_3D('',#209,#167,#168);
#138=AXIS2_PLACEMENT_3D('',#210,#169,#170);
#139=AXIS2_PLACEMENT_3D('',#212,#171,#172);
#140=AXIS2_PLACEMENT_3D('',#213,#173,#174);
#141=AXIS2_PLACEMENT_3D('',#215,#175,#176);
#142=AXIS2_PLACEMENT_3D('',#216,#177,#178);
#143=AXIS2_PLACEMENT_3D('',#218,#179,#180);
#144=AXIS2_PLACEMENT_3D('',#219,#181,#182);
#145=DIRECTION('axis',(0.,0.,1.));
#146=DIRECTION('refdir',(1.,0.,0.));
#147=DIRECTION('',(1.,-1.22464679914735E-16,0.));
#148=DIRECTION('',(1.22464679914735E-16,1.,0.));
#149=DIRECTION('',(-1.22464679914735E-16,-1.,0.));
#150=DIRECTION('',(1.,-1.22464679914735E-16,0.));
#151=DIRECTION('center_axis',(2.22044604925031E-16,-1.,6.12323399573677E-17));
#152=DIRECTION('ref_axis',(1.,2.48441516000035E-16,2.48441516000035E-16));
#153=DIRECTION('center_axis',(2.22044604925031E-16,-1.,6.12323399573677E-17));
#154=DIRECTION('ref_axis',(-1.,-2.22044604925031E-16,-2.22044604925031E-16));
#155=DIRECTION('center_axis',(-2.22044604925031E-16,1.,-6.12323399573677E-17));
#156=DIRECTION('ref_axis',(-1.,-2.22044604925031E-16,-2.22044604925031E-16));
#157=DIRECTION('center_axis',(2.22044604925031E-16,-1.,6.12323399573677E-17));
#158=DIRECTION('ref_axis',(-1.,-2.22044604925031E-16,-2.22044604925031E-16));
#159=DIRECTION('center_axis',(-2.22044604925031E-16,1.,-6.12323399573677E-17));
#160=DIRECTION('ref_axis',(-1.,-2.22044604925031E-16,-2.22044604925031E-16));
#161=DIRECTION('center_axis',(2.22044604925031E-16,-1.,6.12323399573677E-17));
#162=DIRECTION('ref_axis',(1.,0.,0.));
#163=DIRECTION('center_axis',(2.22044604925031E-16,-1.,6.12323399573677E-17));
#164=DIRECTION('ref_axis',(-1.,-2.22044604925031E-16,-2.22044604925031E-16));
#165=DIRECTION('center_axis',(-2.22044604925031E-16,1.,-6.12323399573677E-17));
#166=DIRECTION('ref_axis',(-1.,-2.48441516000035E-16,-2.48441516000035E-16));
#167=DIRECTION('center_axis',(2.22044604925031E-16,-1.,6.12323399573677E-17));
#168=DIRECTION('ref_axis',(-1.,-2.22044604925031E-16,-2.22044604925031E-16));
#169=DIRECTION('center_axis',(2.22044604925031E-16,-1.,6.12323399573677E-17));
#170=DIRECTION('ref_axis',(1.,0.,0.));
#171=DIRECTION('center_axis',(-2.22044604925031E-16,1.,-6.12323399573677E-17));
#172=DIRECTION('ref_axis',(-1.,-2.22044604925031E-16,-2.22044604925031E-16));
#173=DIRECTION('center_axis',(2.22044604925031E-16,-1.,6.12323399573677E-17));
#174=DIRECTION('ref_axis',(1.,2.35799580451361E-16,1.57199720300907E-16));
#175=DIRECTION('center_axis',(2.22044604925031E-16,-1.,6.12323399573677E-17));
#176=DIRECTION('ref_axis',(-1.,-2.22044604925031E-16,-2.22044604925031E-16));
#177=DIRECTION('center_axis',(2.22044604925031E-16,-1.,6.12323399573677E-17));
#178=DIRECTION('ref_axis',(-1.,-2.22044604925031E-16,-2.22044604925031E-16));
#179=DIRECTION('center_axis',(-2.22044604925031E-16,1.,-6.12323399573677E-17));
#180=DIRECTION('ref_axis',(-1.,-2.22044604925031E-16,-2.22044604925031E-16));
#181=DIRECTION('center_axis',(2.22044604925031E-16,-1.,6.12323399573677E-17));
#182=DIRECTION('ref_axis',(1.,2.35799580451361E-16,1.57199720300907E-16));
#183=CARTESIAN_POINT('',(0.,0.,0.));
#184=CARTESIAN_POINT('',(-0.5,6.12323399573677E-17,0.));
#185=CARTESIAN_POINT('',(-0.5,6.12323399573677E-17,0.));
#186=CARTESIAN_POINT('',(0.,0.,0.));
#187=CARTESIAN_POINT('',(0.,0.,0.));
#188=CARTESIAN_POINT('',(0.,0.,0.));
#189=CARTESIAN_POINT('',(6.12323399573677E-17,0.5,0.));
#190=CARTESIAN_POINT('',(0.,0.,0.));
#191=CARTESIAN_POINT('',(0.,0.,0.));
#192=CARTESIAN_POINT('',(-6.12323399573677E-17,-0.5,0.));
#193=CARTESIAN_POINT('',(0.,0.,0.));
#194=CARTESIAN_POINT('',(0.,0.,0.));
#195=CARTESIAN_POINT('',(0.5,-6.12323399573677E-17,0.));
#196=CARTESIAN_POINT('Origin',(-9.10382880192628E-16,4.1,11.3));
#197=CARTESIAN_POINT('',(5.15,4.1,11.3));
#198=CARTESIAN_POINT('Origin',(-9.10382880192628E-16,4.1,11.3));
#199=CARTESIAN_POINT('',(6.15,5.1,11.3));
#200=CARTESIAN_POINT('Origin',(-1.13242748511766E-15,5.1,11.3));
#201=CARTESIAN_POINT('Origin',(-1.13242748511766E-15,5.1,11.3));
#202=CARTESIAN_POINT('',(5.15,-4.1,11.3));
#203=CARTESIAN_POINT('Origin',(9.10382880192628E-16,-4.1,11.3));
#204=CARTESIAN_POINT('Origin',(-1.24774839203737E-15,5.1,11.3));
#205=CARTESIAN_POINT('',(10.3,5.1,11.3));
#206=CARTESIAN_POINT('Origin',(-1.13242748511766E-15,5.1,11.3));
#207=CARTESIAN_POINT('Origin',(9.10382880192628E-16,-4.1,11.3));
#208=CARTESIAN_POINT('',(6.15,-5.1,11.3));
#209=CARTESIAN_POINT('Origin',(1.13242748511766E-15,-5.1,11.3));
#210=CARTESIAN_POINT('Origin',(1.01710657819795E-15,-5.1,11.3));
#211=CARTESIAN_POINT('',(10.3,-5.1,11.3));
#212=CARTESIAN_POINT('Origin',(1.13242748511766E-15,-5.1,11.3));
#213=CARTESIAN_POINT('Origin',(9.10382880192628E-16,-4.1,11.3));
#214=CARTESIAN_POINT('',(11.3,-4.1,11.3));
#215=CARTESIAN_POINT('Origin',(9.10382880192628E-16,-4.1,11.3));
#216=CARTESIAN_POINT('Origin',(-1.13242748511766E-15,5.1,11.3));
#217=CARTESIAN_POINT('',(11.3,4.1,11.3));
#218=CARTESIAN_POINT('Origin',(-9.10382880192628E-16,4.1,11.3));
#219=CARTESIAN_POINT('Origin',(-9.10382880192628E-16,4.1,11.3));
#220=UNCERTAINTY_MEASURE_WITH_UNIT(LENGTH_MEASURE(0.01),#224,
'DISTANCE_ACCURACY_VALUE',
'Maximum model space distance between geometric entities at asserted c
onnectivities');
#221=UNCERTAINTY_MEASURE_WITH_UNIT(LENGTH_MEASURE(1.E-6),#224,
'DISTANCE_ACCURACY_VALUE',
'Maximum model space distance between geometric entities at asserted c
onnectivities');
#222=(
GEOMETRIC_REPRESENTATION_CONTEXT(3)
GLOBAL_UNCERTAINTY_ASSIGNED_CONTEXT((#220))
GLOBAL_UNIT_ASSIGNED_CONTEXT((#224,#226,#225))
REPRESENTATION_CONTEXT('','3D')
);
#223=(
GEOMETRIC_REPRESENTATION_CONTEXT(3)
GLOBAL_UNCERTAINTY_ASSIGNED_CONTEXT((#221))
GLOBAL_UNIT_ASSIGNED_CONTEXT((#224,#12,#225))
REPRESENTATION_CONTEXT('','3D')
);
#224=(
LENGTH_UNIT()
NAMED_UNIT(*)
SI_UNIT(.MILLI.,.METRE.)
);
#225=(
NAMED_UNIT(*)
SI_UNIT($,.STERADIAN.)
SOLID_ANGLE_UNIT()
);
#226=(
NAMED_UNIT(*)
PLANE_ANGLE_UNIT()
SI_UNIT($,.RADIAN.)
);
#227=SHAPE_DEFINITION_REPRESENTATION(#228,#229);
#228=PRODUCT_DEFINITION_SHAPE('',$,#231);
#229=SHAPE_REPRESENTATION('',(#128),#222);
#230=PRODUCT_DEFINITION_CONTEXT('part definition',#235,'design');
#231=PRODUCT_DEFINITION('Product','Product',#232,#230);
#232=PRODUCT_DEFINITION_FORMATION('',$,#237);
#233=PRODUCT_RELATED_PRODUCT_CATEGORY('Product','Product',(#237));
#234=APPLICATION_PROTOCOL_DEFINITION('international standard',
'automotive_design',2009,#235);
#235=APPLICATION_CONTEXT(
'Core Data for Automotive Mechanical Design Process');
#236=PRODUCT_CONTEXT('part definition',#235,'mechanical');
#237=PRODUCT('Product','Product',$,(#236));
#238=PRESENTATION_STYLE_ASSIGNMENT((#241));
#239=PRESENTATION_STYLE_ASSIGNMENT((#242));
#240=PRESENTATION_STYLE_ASSIGNMENT((#243));
#241=SURFACE_STYLE_USAGE(.BOTH.,#244);
#242=SURFACE_STYLE_USAGE(.BOTH.,#245);
#243=SURFACE_STYLE_USAGE(.BOTH.,#246);
#244=SURFACE_SIDE_STYLE('',(#247));
#245=SURFACE_SIDE_STYLE('',(#248));
#246=SURFACE_SIDE_STYLE('',(#249));
#247=SURFACE_STYLE_FILL_AREA(#250);
#248=SURFACE_STYLE_FILL_AREA(#251);
#249=SURFACE_STYLE_FILL_AREA(#252);
#250=FILL_AREA_STYLE('',(#253));
#251=FILL_AREA_STYLE('',(#254));
#252=FILL_AREA_STYLE('',(#255));
#253=FILL_AREA_STYLE_COLOUR('',#256);
#254=FILL_AREA_STYLE_COLOUR('',#257);
#255=FILL_AREA_STYLE_COLOUR('',#258);
#256=COLOUR_RGB('',0.501960784313725,0.376470588235294,0.);
#257=COLOUR_RGB('',1.,1.,1.);
#258=COLOUR_RGB('',0.462745098039216,0.462745098039216,0.462745098039216);
ENDSEC;
END-ISO-10303-21;
