ISO-10303-21;
HEADER;
/****************************************************************
 * Generated by software with PDElib inside                    *
 * PDElib Version v51a, created Fri 09/10/2010                  *
 * ITI Transcendata (http://www.transcendata.com/)              *
 ****************************************************************/
FILE_DESCRIPTION((''),'2;1');
FILE_NAME('DCDC_MURATA_MEE3.stp','2013-10-22T09:04:12',(''),(''),'Mechanical Desktop 2011','Mechanical Desktop 2011',', , ');
FILE_SCHEMA(('AUTOMOTIVE_DESIGN { 1 2 10303 214 1 1 1 1 }'));
ENDSEC;
DATA;
#10=(NAMED_UNIT(*)PLANE_ANGLE_UNIT()SI_UNIT($,.RADIAN.));
#11=DIMENSIONAL_EXPONENTS(0.0,0.0,0.0,0.0,0.0,0.0,0.0);
#12=PLANE_ANGLE_MEASURE_WITH_UNIT(PLANE_ANGLE_MEASURE(0.0174532925),#10);
#16=(CONVERSION_BASED_UNIT('DEGREE',#12)NAMED_UNIT(#11)PLANE_ANGLE_UNIT());
#20=(NAMED_UNIT(*)SI_UNIT($,.STERADIAN.)SOLID_ANGLE_UNIT());
#24=(LENGTH_UNIT()NAMED_UNIT(*)SI_UNIT(.MILLI.,.METRE.));
#26=UNCERTAINTY_MEASURE_WITH_UNIT(LENGTH_MEASURE(0.000001),#24,'DISTANCE_ACCURACY_VALUE','');
#28=(GEOMETRIC_REPRESENTATION_CONTEXT(3)GLOBAL_UNCERTAINTY_ASSIGNED_CONTEXT((#26))GLOBAL_UNIT_ASSIGNED_CONTEXT((#16,#20,#24))REPRESENTATION_CONTEXT('','3D'));
#29=APPLICATION_CONTEXT('automotive design');
#30=APPLICATION_PROTOCOL_DEFINITION('INTERNATIONAL_STANDARD','automotive_design',1998,#29);
#31=PRODUCT_CONTEXT('3D Mechanical Parts',#29,'mechanical');
#32=PRODUCT('Product','Product','',(#31));
#33=PRODUCT_RELATED_PRODUCT_CATEGORY('part',$,(#32));
#34=PRODUCT_CATEGORY('part',$);
#35=PERSON('1','Design','Joe',$,$,$);
#36=ORGANIZATION($,'None','None');
#37=PERSON_AND_ORGANIZATION(#35,#36);
#38=PERSON_AND_ORGANIZATION_ROLE('design_owner');
#39=APPLIED_PERSON_AND_ORGANIZATION_ASSIGNMENT(#37,#38,(#32));
#40=PRODUCT_DEFINITION_FORMATION_WITH_SPECIFIED_SOURCE('None','',#32,.BOUGHT.);
#41=PERSON('2','Creator','Joe',$,$,$);
#42=ORGANIZATION($,'None','None');
#43=PERSON_AND_ORGANIZATION(#41,#42);
#44=PERSON_AND_ORGANIZATION_ROLE('creator');
#45=APPLIED_PERSON_AND_ORGANIZATION_ASSIGNMENT(#43,#44,(#40));
#46=PERSON('3','Supplier','Joe',$,$,$);
#47=ORGANIZATION($,'None','None');
#48=PERSON_AND_ORGANIZATION(#46,#47);
#49=PERSON_AND_ORGANIZATION_ROLE('design_supplier');
#50=APPLIED_PERSON_AND_ORGANIZATION_ASSIGNMENT(#48,#49,(#40));
#51=PRODUCT_DEFINITION_CONTEXT('part definition',#29,'design');
#52=PRODUCT_DEFINITION('None','',#40,#51);
#53=PERSON('4','Creator','Joe',$,$,$);
#54=ORGANIZATION($,'None','None');
#55=PERSON_AND_ORGANIZATION(#53,#54);
#56=PERSON_AND_ORGANIZATION_ROLE('creator');
#57=APPLIED_PERSON_AND_ORGANIZATION_ASSIGNMENT(#55,#56,(#52));
#58=CARTESIAN_POINT('NONE',(0.0,0.0,0.0));
#59=DIRECTION('NONE',(0.0,0.0,1.0));
#60=DIRECTION('NONE',(1.0,0.0,0.0));
#61=AXIS2_PLACEMENT_3D('NONE',#58,#59,#60);
#62=SHAPE_REPRESENTATION('SR1',(#61),#28);
#63=PRODUCT_DEFINITION_SHAPE('PDS1','Test Part',#52);
#64=SHAPE_DEFINITION_REPRESENTATION(#63,#62);
#65=CARTESIAN_POINT('',(-5.724999999999999,-4.075,1.4));
#66=DIRECTION('',(0.0,1.0,0.0));
#67=DIRECTION('',(1.0,0.0,0.0));
#68=AXIS2_PLACEMENT_3D('',#65,#66,#67);
#69=CYLINDRICAL_SURFACE('',#68,0.3);
#70=CARTESIAN_POINT('',(-5.424999999999999,-4.075,1.4));
#71=VERTEX_POINT('',#70);
#72=CARTESIAN_POINT('',(-5.424999999999999,-3.975000000000001,1.4));
#73=VERTEX_POINT('',#72);
#74=CARTESIAN_POINT('',(-5.424999999999999,-4.074999999999999,1.4));
#75=DIRECTION('',(0.0,1.0,0.0));
#76=VECTOR('',#75,0.099999999999999);
#77=LINE('',#74,#76);
#78=EDGE_CURVE('',#71,#73,#77,.T.);
#79=ORIENTED_EDGE('',*,*,#78,.F.);
#80=CARTESIAN_POINT('',(-6.024999999999999,-4.074999999999999,1.4));
#81=VERTEX_POINT('',#80);
#82=CARTESIAN_POINT('',(-5.724999999999999,-4.074999999999999,1.4));
#83=DIRECTION('',(0.0,1.0,0.0));
#84=DIRECTION('',(1.0,0.0,0.0));
#85=AXIS2_PLACEMENT_3D('',#82,#83,#84);
#86=CIRCLE('',#85,0.3);
#87=EDGE_CURVE('',#81,#71,#86,.T.);
#88=ORIENTED_EDGE('',*,*,#87,.F.);
#89=CARTESIAN_POINT('',(-6.024999999999999,-3.975000000000001,1.4));
#90=VERTEX_POINT('',#89);
#91=CARTESIAN_POINT('',(-6.024999999999999,-4.074999999999999,1.4));
#92=DIRECTION('',(0.0,1.0,0.0));
#93=VECTOR('',#92,0.099999999999999);
#94=LINE('',#91,#93);
#95=EDGE_CURVE('',#81,#90,#94,.T.);
#96=ORIENTED_EDGE('',*,*,#95,.T.);
#97=CARTESIAN_POINT('',(-5.724999999999999,-3.975000000000001,1.4));
#98=DIRECTION('',(0.0,-1.0,0.0));
#99=DIRECTION('',(1.0,0.0,0.0));
#100=AXIS2_PLACEMENT_3D('',#97,#98,#99);
#101=CIRCLE('',#100,0.3);
#102=EDGE_CURVE('',#73,#90,#101,.T.);
#103=ORIENTED_EDGE('',*,*,#102,.F.);
#104=EDGE_LOOP('',(#79,#88,#96,#103));
#105=FACE_OUTER_BOUND('',#104,.T.);
#106=ADVANCED_FACE('',(#105),#69,.F.);
#107=CARTESIAN_POINT('',(-5.724999999999999,-4.075,1.4));
#108=DIRECTION('',(0.0,1.0,0.0));
#109=DIRECTION('',(1.0,0.0,0.0));
#110=AXIS2_PLACEMENT_3D('',#107,#108,#109);
#111=CYLINDRICAL_SURFACE('',#110,0.3);
#112=ORIENTED_EDGE('',*,*,#78,.T.);
#113=CARTESIAN_POINT('',(-5.724999999999999,-3.975000000000001,1.4));
#114=DIRECTION('',(0.0,-1.0,0.0));
#115=DIRECTION('',(1.0,0.0,0.0));
#116=AXIS2_PLACEMENT_3D('',#113,#114,#115);
#117=CIRCLE('',#116,0.3);
#118=EDGE_CURVE('',#90,#73,#117,.T.);
#119=ORIENTED_EDGE('',*,*,#118,.F.);
#120=ORIENTED_EDGE('',*,*,#95,.F.);
#121=CARTESIAN_POINT('',(-5.724999999999999,-4.074999999999999,1.4));
#122=DIRECTION('',(0.0,1.0,0.0));
#123=DIRECTION('',(1.0,0.0,0.0));
#124=AXIS2_PLACEMENT_3D('',#121,#122,#123);
#125=CIRCLE('',#124,0.3);
#126=EDGE_CURVE('',#71,#81,#125,.T.);
#127=ORIENTED_EDGE('',*,*,#126,.F.);
#128=EDGE_LOOP('',(#112,#119,#120,#127));
#129=FACE_OUTER_BOUND('',#128,.T.);
#130=ADVANCED_FACE('',(#129),#111,.F.);
#131=CARTESIAN_POINT('',(-5.724999999999999,-3.975000000000001,1.4));
#132=DIRECTION('',(0.0,-1.0,0.0));
#133=DIRECTION('',(0.0,0.0,-1.0));
#134=AXIS2_PLACEMENT_3D('',#131,#132,#133);
#135=PLANE('',#134);
#136=ORIENTED_EDGE('',*,*,#102,.T.);
#137=ORIENTED_EDGE('',*,*,#118,.T.);
#138=EDGE_LOOP('',(#136,#137));
#139=FACE_OUTER_BOUND('',#138,.T.);
#140=ADVANCED_FACE('',(#139),#135,.T.);
#141=CARTESIAN_POINT('',(7.074999999999999,4.075,0.4));
#142=DIRECTION('',(1.0,0.0,0.0));
#143=DIRECTION('',(0.0,0.0,-1.0));
#144=AXIS2_PLACEMENT_3D('',#141,#142,#143);
#145=PLANE('',#144);
#146=CARTESIAN_POINT('',(7.074999999999999,4.075,10.25));
#147=VERTEX_POINT('',#146);
#148=CARTESIAN_POINT('',(7.074999999999998,-4.074999999999999,10.25));
#149=VERTEX_POINT('',#148);
#150=CARTESIAN_POINT('',(7.074999999999999,4.075,10.25));
#151=DIRECTION('',(0.0,-1.0,0.0));
#152=VECTOR('',#151,8.149999999999999);
#153=LINE('',#150,#152);
#154=EDGE_CURVE('',#147,#149,#153,.T.);
#155=ORIENTED_EDGE('',*,*,#154,.T.);
#156=CARTESIAN_POINT('',(7.074999999999998,-4.074999999999999,0.4));
#157=VERTEX_POINT('',#156);
#158=CARTESIAN_POINT('',(7.074999999999998,-4.074999999999999,0.4));
#159=DIRECTION('',(0.0,0.0,1.0));
#160=VECTOR('',#159,9.85);
#161=LINE('',#158,#160);
#162=EDGE_CURVE('',#157,#149,#161,.T.);
#163=ORIENTED_EDGE('',*,*,#162,.F.);
#164=CARTESIAN_POINT('',(7.074999999999999,4.075,0.4));
#165=VERTEX_POINT('',#164);
#166=CARTESIAN_POINT('',(7.074999999999999,4.075,0.4));
#167=DIRECTION('',(0.0,-1.0,0.0));
#168=VECTOR('',#167,8.149999999999999);
#169=LINE('',#166,#168);
#170=EDGE_CURVE('',#165,#157,#169,.T.);
#171=ORIENTED_EDGE('',*,*,#170,.F.);
#172=CARTESIAN_POINT('',(7.074999999999999,4.075,0.4));
#173=DIRECTION('',(0.0,0.0,1.0));
#174=VECTOR('',#173,9.85);
#175=LINE('',#172,#174);
#176=EDGE_CURVE('',#165,#147,#175,.T.);
#177=ORIENTED_EDGE('',*,*,#176,.T.);
#178=EDGE_LOOP('',(#155,#163,#171,#177));
#179=FACE_OUTER_BOUND('',#178,.T.);
#180=ADVANCED_FACE('',(#179),#145,.T.);
#181=CARTESIAN_POINT('',(7.074999999999998,-4.074999999999999,0.4));
#182=DIRECTION('',(0.0,-1.0,0.0));
#183=DIRECTION('',(0.0,0.0,-1.0));
#184=AXIS2_PLACEMENT_3D('',#181,#182,#183);
#185=PLANE('',#184);
#186=CARTESIAN_POINT('',(-7.075000000000005,-4.075,10.25));
#187=VERTEX_POINT('',#186);
#188=CARTESIAN_POINT('',(7.074999999999998,-4.074999999999999,10.25));
#189=DIRECTION('',(-1.0,0.0,0.0));
#190=VECTOR('',#189,14.150000000000002);
#191=LINE('',#188,#190);
#192=EDGE_CURVE('',#149,#187,#191,.T.);
#193=ORIENTED_EDGE('',*,*,#192,.T.);
#194=CARTESIAN_POINT('',(-7.075000000000005,-4.075,0.4));
#195=VERTEX_POINT('',#194);
#196=CARTESIAN_POINT('',(-7.075000000000005,-4.075,0.4));
#197=DIRECTION('',(0.0,0.0,1.0));
#198=VECTOR('',#197,9.85);
#199=LINE('',#196,#198);
#200=EDGE_CURVE('',#195,#187,#199,.T.);
#201=ORIENTED_EDGE('',*,*,#200,.F.);
#202=CARTESIAN_POINT('',(7.074999999999998,-4.074999999999999,0.4));
#203=DIRECTION('',(-1.0,0.0,0.0));
#204=VECTOR('',#203,14.150000000000002);
#205=LINE('',#202,#204);
#206=EDGE_CURVE('',#157,#195,#205,.T.);
#207=ORIENTED_EDGE('',*,*,#206,.F.);
#208=ORIENTED_EDGE('',*,*,#162,.T.);
#209=EDGE_LOOP('',(#193,#201,#207,#208));
#210=FACE_OUTER_BOUND('',#209,.T.);
#211=ORIENTED_EDGE('',*,*,#126,.T.);
#212=ORIENTED_EDGE('',*,*,#87,.T.);
#213=EDGE_LOOP('',(#211,#212));
#214=FACE_BOUND('',#213,.T.);
#215=ADVANCED_FACE('',(#210,#214),#185,.T.);
#216=CARTESIAN_POINT('',(-7.075000000000005,-4.075,0.4));
#217=DIRECTION('',(-1.0,0.0,0.0));
#218=DIRECTION('',(0.0,0.0,1.0));
#219=AXIS2_PLACEMENT_3D('',#216,#217,#218);
#220=PLANE('',#219);
#221=CARTESIAN_POINT('',(-7.075,4.075,10.25));
#222=VERTEX_POINT('',#221);
#223=CARTESIAN_POINT('',(-7.075000000000005,-4.075,10.25));
#224=DIRECTION('',(0.0,1.0,0.0));
#225=VECTOR('',#224,8.15);
#226=LINE('',#223,#225);
#227=EDGE_CURVE('',#187,#222,#226,.T.);
#228=ORIENTED_EDGE('',*,*,#227,.T.);
#229=CARTESIAN_POINT('',(-7.075,4.075,0.4));
#230=VERTEX_POINT('',#229);
#231=CARTESIAN_POINT('',(-7.075,4.075,0.4));
#232=DIRECTION('',(0.0,0.0,1.0));
#233=VECTOR('',#232,9.85);
#234=LINE('',#231,#233);
#235=EDGE_CURVE('',#230,#222,#234,.T.);
#236=ORIENTED_EDGE('',*,*,#235,.F.);
#237=CARTESIAN_POINT('',(-7.075000000000005,-4.075,0.4));
#238=DIRECTION('',(0.0,1.0,0.0));
#239=VECTOR('',#238,8.15);
#240=LINE('',#237,#239);
#241=EDGE_CURVE('',#195,#230,#240,.T.);
#242=ORIENTED_EDGE('',*,*,#241,.F.);
#243=ORIENTED_EDGE('',*,*,#200,.T.);
#244=EDGE_LOOP('',(#228,#236,#242,#243));
#245=FACE_OUTER_BOUND('',#244,.T.);
#246=ADVANCED_FACE('',(#245),#220,.T.);
#247=CARTESIAN_POINT('',(-7.075,4.075,0.4));
#248=DIRECTION('',(0.0,1.0,0.0));
#249=DIRECTION('',(0.0,0.0,1.0));
#250=AXIS2_PLACEMENT_3D('',#247,#248,#249);
#251=PLANE('',#250);
#252=CARTESIAN_POINT('',(-7.075,4.075,10.25));
#253=DIRECTION('',(1.0,0.0,0.0));
#254=VECTOR('',#253,14.149999999999999);
#255=LINE('',#252,#254);
#256=EDGE_CURVE('',#222,#147,#255,.T.);
#257=ORIENTED_EDGE('',*,*,#256,.T.);
#258=ORIENTED_EDGE('',*,*,#176,.F.);
#259=CARTESIAN_POINT('',(-7.075,4.075,0.4));
#260=DIRECTION('',(1.0,0.0,0.0));
#261=VECTOR('',#260,14.149999999999999);
#262=LINE('',#259,#261);
#263=EDGE_CURVE('',#230,#165,#262,.T.);
#264=ORIENTED_EDGE('',*,*,#263,.F.);
#265=ORIENTED_EDGE('',*,*,#235,.T.);
#266=EDGE_LOOP('',(#257,#258,#264,#265));
#267=FACE_OUTER_BOUND('',#266,.T.);
#268=ADVANCED_FACE('',(#267),#251,.T.);
#269=CARTESIAN_POINT('',(-1.998401E-015,4.433651E-016,10.25));
#270=DIRECTION('',(0.0,0.0,1.0));
#271=DIRECTION('',(1.0,0.0,0.0));
#272=AXIS2_PLACEMENT_3D('',#269,#270,#271);
#273=PLANE('',#272);
#274=ORIENTED_EDGE('',*,*,#154,.F.);
#275=ORIENTED_EDGE('',*,*,#256,.F.);
#276=ORIENTED_EDGE('',*,*,#227,.F.);
#277=ORIENTED_EDGE('',*,*,#192,.F.);
#278=EDGE_LOOP('',(#274,#275,#276,#277));
#279=FACE_OUTER_BOUND('',#278,.T.);
#280=ADVANCED_FACE('',(#279),#273,.T.);
#281=CARTESIAN_POINT('',(-1.998401E-015,4.440892E-016,0.4));
#282=DIRECTION('',(0.0,0.0,1.0));
#283=DIRECTION('',(1.0,0.0,0.0));
#284=AXIS2_PLACEMENT_3D('',#281,#282,#283);
#285=PLANE('',#284);
#286=ORIENTED_EDGE('',*,*,#263,.T.);
#287=ORIENTED_EDGE('',*,*,#170,.T.);
#288=ORIENTED_EDGE('',*,*,#206,.T.);
#289=ORIENTED_EDGE('',*,*,#241,.T.);
#290=EDGE_LOOP('',(#286,#287,#288,#289));
#291=FACE_OUTER_BOUND('',#290,.T.);
#292=ADVANCED_FACE('',(#291),#285,.F.);
#293=CLOSED_SHELL('',(#106,#130,#140,#180,#215,#246,#268,#280,#292));
#294=MANIFOLD_SOLID_BREP('21FD',#293);
#295=COLOUR_RGB('250',0.33,0.33,0.33);
#296=SURFACE_STYLE_USAGE(.BOTH.,#297);
#297=SURFACE_SIDE_STYLE('NONE',(#298));
#298=SURFACE_STYLE_FILL_AREA(#299);
#299=FILL_AREA_STYLE('NONE',(#300));
#300=FILL_AREA_STYLE_COLOUR('NONE',#295);
#301=PRESENTATION_STYLE_ASSIGNMENT((#296));
#302=STYLED_ITEM('NONE',(#301),#294);
#303=MECHANICAL_DESIGN_GEOMETRIC_PRESENTATION_REPRESENTATION('NONE',(#302,#400,#558,#709,#860,#1011,#1162,#1313),#28);
#304=PRESENTATION_LAYER_ASSIGNMENT('3D','None',(#294,#392,#550,#708,#859,#1010,#1161,#1312));
#305=CARTESIAN_POINT('',(-5.725,-4.075,1.4));
#306=DIRECTION('',(0.0,1.0,0.0));
#307=DIRECTION('',(1.0,0.0,0.0));
#308=AXIS2_PLACEMENT_3D('',#305,#306,#307);
#309=CYLINDRICAL_SURFACE('',#308,0.3);
#310=CARTESIAN_POINT('',(-5.425,-3.975000000000001,1.4));
#311=VERTEX_POINT('',#310);
#312=CARTESIAN_POINT('',(-5.425,-4.075,1.4));
#313=VERTEX_POINT('',#312);
#314=CARTESIAN_POINT('',(-5.425,-3.975000000000001,1.4));
#315=DIRECTION('',(0.0,-1.0,0.0));
#316=VECTOR('',#315,0.1);
#317=LINE('',#314,#316);
#318=EDGE_CURVE('',#311,#313,#317,.T.);
#319=ORIENTED_EDGE('',*,*,#318,.F.);
#320=CARTESIAN_POINT('',(-6.025,-3.975000000000001,1.4));
#321=VERTEX_POINT('',#320);
#322=CARTESIAN_POINT('',(-5.725,-3.975000000000001,1.4));
#323=DIRECTION('',(0.0,-1.0,0.0));
#324=DIRECTION('',(1.0,0.0,0.0));
#325=AXIS2_PLACEMENT_3D('',#322,#323,#324);
#326=CIRCLE('',#325,0.3);
#327=EDGE_CURVE('',#311,#321,#326,.T.);
#328=ORIENTED_EDGE('',*,*,#327,.T.);
#329=CARTESIAN_POINT('',(-6.025,-4.075,1.4));
#330=VERTEX_POINT('',#329);
#331=CARTESIAN_POINT('',(-6.025,-3.975000000000001,1.4));
#332=DIRECTION('',(0.0,-1.0,0.0));
#333=VECTOR('',#332,0.1);
#334=LINE('',#331,#333);
#335=EDGE_CURVE('',#321,#330,#334,.T.);
#336=ORIENTED_EDGE('',*,*,#335,.T.);
#337=CARTESIAN_POINT('',(-5.725,-4.075,1.4));
#338=DIRECTION('',(0.0,-1.0,0.0));
#339=DIRECTION('',(1.0,0.0,0.0));
#340=AXIS2_PLACEMENT_3D('',#337,#338,#339);
#341=CIRCLE('',#340,0.3);
#342=EDGE_CURVE('',#313,#330,#341,.T.);
#343=ORIENTED_EDGE('',*,*,#342,.F.);
#344=EDGE_LOOP('',(#319,#328,#336,#343));
#345=FACE_OUTER_BOUND('',#344,.T.);
#346=ADVANCED_FACE('',(#345),#309,.T.);
#347=CARTESIAN_POINT('',(-5.725,-4.075,1.4));
#348=DIRECTION('',(0.0,1.0,0.0));
#349=DIRECTION('',(1.0,0.0,0.0));
#350=AXIS2_PLACEMENT_3D('',#347,#348,#349);
#351=CYLINDRICAL_SURFACE('',#350,0.3);
#352=ORIENTED_EDGE('',*,*,#318,.T.);
#353=CARTESIAN_POINT('',(-5.725,-4.075,1.4));
#354=DIRECTION('',(0.0,-1.0,0.0));
#355=DIRECTION('',(1.0,0.0,0.0));
#356=AXIS2_PLACEMENT_3D('',#353,#354,#355);
#357=CIRCLE('',#356,0.3);
#358=EDGE_CURVE('',#330,#313,#357,.T.);
#359=ORIENTED_EDGE('',*,*,#358,.F.);
#360=ORIENTED_EDGE('',*,*,#335,.F.);
#361=CARTESIAN_POINT('',(-5.725,-3.975000000000001,1.4));
#362=DIRECTION('',(0.0,-1.0,0.0));
#363=DIRECTION('',(1.0,0.0,0.0));
#364=AXIS2_PLACEMENT_3D('',#361,#362,#363);
#365=CIRCLE('',#364,0.3);
#366=EDGE_CURVE('',#321,#311,#365,.T.);
#367=ORIENTED_EDGE('',*,*,#366,.T.);
#368=EDGE_LOOP('',(#352,#359,#360,#367));
#369=FACE_OUTER_BOUND('',#368,.T.);
#370=ADVANCED_FACE('',(#369),#351,.T.);
#371=CARTESIAN_POINT('',(-5.725,-3.975000000000001,1.4));
#372=DIRECTION('',(0.0,-1.0,0.0));
#373=DIRECTION('',(0.0,0.0,-1.0));
#374=AXIS2_PLACEMENT_3D('',#371,#372,#373);
#375=PLANE('',#374);
#376=ORIENTED_EDGE('',*,*,#327,.F.);
#377=ORIENTED_EDGE('',*,*,#366,.F.);
#378=EDGE_LOOP('',(#376,#377));
#379=FACE_OUTER_BOUND('',#378,.T.);
#380=ADVANCED_FACE('',(#379),#375,.F.);
#381=CARTESIAN_POINT('',(-5.725,-4.075,1.4));
#382=DIRECTION('',(0.0,-1.0,0.0));
#383=DIRECTION('',(0.0,0.0,-1.0));
#384=AXIS2_PLACEMENT_3D('',#381,#382,#383);
#385=PLANE('',#384);
#386=ORIENTED_EDGE('',*,*,#342,.T.);
#387=ORIENTED_EDGE('',*,*,#358,.T.);
#388=EDGE_LOOP('',(#386,#387));
#389=FACE_OUTER_BOUND('',#388,.T.);
#390=ADVANCED_FACE('',(#389),#385,.T.);
#391=CLOSED_SHELL('',(#346,#370,#380,#390));
#392=MANIFOLD_SOLID_BREP('21F0',#391);
#393=DRAUGHTING_PRE_DEFINED_COLOUR('white');
#394=SURFACE_STYLE_USAGE(.BOTH.,#395);
#395=SURFACE_SIDE_STYLE('NONE',(#396));
#396=SURFACE_STYLE_FILL_AREA(#397);
#397=FILL_AREA_STYLE('NONE',(#398));
#398=FILL_AREA_STYLE_COLOUR('NONE',#393);
#399=PRESENTATION_STYLE_ASSIGNMENT((#394));
#400=STYLED_ITEM('NONE',(#399),#392);
#401=CARTESIAN_POINT('',(3.809999999999999,-2.850000000000001,-3.2));
#402=DIRECTION('',(0.0,0.0,-1.0));
#403=DIRECTION('',(1.0,0.0,0.0));
#404=AXIS2_PLACEMENT_3D('',#401,#402,#403);
#405=PLANE('',#404);
#406=CARTESIAN_POINT('',(4.084999999999999,-2.725000000000001,-3.2));
#407=VERTEX_POINT('',#406);
#408=CARTESIAN_POINT('',(4.084999999999999,-2.975000000000001,-3.2));
#409=VERTEX_POINT('',#408);
#410=CARTESIAN_POINT('',(4.084999999999999,-2.725000000000001,-3.2));
#411=DIRECTION('',(0.0,-1.0,0.0));
#412=VECTOR('',#411,0.25);
#413=LINE('',#410,#412);
#414=EDGE_CURVE('',#407,#409,#413,.T.);
#415=ORIENTED_EDGE('',*,*,#414,.T.);
#416=CARTESIAN_POINT('',(3.534999999999998,-2.975000000000001,-3.2));
#417=VERTEX_POINT('',#416);
#418=CARTESIAN_POINT('',(4.084999999999999,-2.975000000000001,-3.2));
#419=DIRECTION('',(-1.0,0.0,0.0));
#420=VECTOR('',#419,0.550000000000001);
#421=LINE('',#418,#420);
#422=EDGE_CURVE('',#409,#417,#421,.T.);
#423=ORIENTED_EDGE('',*,*,#422,.T.);
#424=CARTESIAN_POINT('',(3.534999999999998,-2.725000000000001,-3.2));
#425=VERTEX_POINT('',#424);
#426=CARTESIAN_POINT('',(3.534999999999998,-2.975000000000001,-3.2));
#427=DIRECTION('',(0.0,1.0,0.0));
#428=VECTOR('',#427,0.25);
#429=LINE('',#426,#428);
#430=EDGE_CURVE('',#417,#425,#429,.T.);
#431=ORIENTED_EDGE('',*,*,#430,.T.);
#432=CARTESIAN_POINT('',(3.534999999999998,-2.725000000000001,-3.2));
#433=DIRECTION('',(1.0,0.0,0.0));
#434=VECTOR('',#433,0.550000000000001);
#435=LINE('',#432,#434);
#436=EDGE_CURVE('',#425,#407,#435,.T.);
#437=ORIENTED_EDGE('',*,*,#436,.T.);
#438=EDGE_LOOP('',(#415,#423,#431,#437));
#439=FACE_OUTER_BOUND('',#438,.T.);
#440=ADVANCED_FACE('',(#439),#405,.T.);
#441=CARTESIAN_POINT('',(3.809999999999999,-2.850000000000001,0.4));
#442=DIRECTION('',(0.0,0.0,-1.0));
#443=DIRECTION('',(1.0,0.0,0.0));
#444=AXIS2_PLACEMENT_3D('',#441,#442,#443);
#445=PLANE('',#444);
#446=CARTESIAN_POINT('',(4.084999999999999,-2.975000000000001,0.4));
#447=VERTEX_POINT('',#446);
#448=CARTESIAN_POINT('',(4.084999999999999,-2.725000000000001,0.4));
#449=VERTEX_POINT('',#448);
#450=CARTESIAN_POINT('',(4.084999999999999,-2.975000000000001,0.4));
#451=DIRECTION('',(0.0,1.0,0.0));
#452=VECTOR('',#451,0.25);
#453=LINE('',#450,#452);
#454=EDGE_CURVE('',#447,#449,#453,.T.);
#455=ORIENTED_EDGE('',*,*,#454,.T.);
#456=CARTESIAN_POINT('',(3.534999999999998,-2.725000000000001,0.4));
#457=VERTEX_POINT('',#456);
#458=CARTESIAN_POINT('',(4.084999999999999,-2.725000000000001,0.4));
#459=DIRECTION('',(-1.0,0.0,0.0));
#460=VECTOR('',#459,0.550000000000001);
#461=LINE('',#458,#460);
#462=EDGE_CURVE('',#449,#457,#461,.T.);
#463=ORIENTED_EDGE('',*,*,#462,.T.);
#464=CARTESIAN_POINT('',(3.534999999999998,-2.975000000000001,0.4));
#465=VERTEX_POINT('',#464);
#466=CARTESIAN_POINT('',(3.534999999999998,-2.725000000000001,0.4));
#467=DIRECTION('',(0.0,-1.0,0.0));
#468=VECTOR('',#467,0.25);
#469=LINE('',#466,#468);
#470=EDGE_CURVE('',#457,#465,#469,.T.);
#471=ORIENTED_EDGE('',*,*,#470,.T.);
#472=CARTESIAN_POINT('',(3.534999999999998,-2.975000000000001,0.4));
#473=DIRECTION('',(1.0,0.0,0.0));
#474=VECTOR('',#473,0.550000000000001);
#475=LINE('',#472,#474);
#476=EDGE_CURVE('',#465,#447,#475,.T.);
#477=ORIENTED_EDGE('',*,*,#476,.T.);
#478=EDGE_LOOP('',(#455,#463,#471,#477));
#479=FACE_OUTER_BOUND('',#478,.T.);
#480=ADVANCED_FACE('',(#479),#445,.F.);
#481=CARTESIAN_POINT('',(3.809999999999999,-2.725000000000001,-1.4));
#482=DIRECTION('',(0.0,-1.0,0.0));
#483=DIRECTION('',(0.0,0.0,-1.0));
#484=AXIS2_PLACEMENT_3D('',#481,#482,#483);
#485=PLANE('',#484);
#486=CARTESIAN_POINT('',(3.534999999999998,-2.725000000000001,-3.2));
#487=DIRECTION('',(0.0,0.0,1.0));
#488=VECTOR('',#487,3.6);
#489=LINE('',#486,#488);
#490=EDGE_CURVE('',#425,#457,#489,.T.);
#491=ORIENTED_EDGE('',*,*,#490,.T.);
#492=ORIENTED_EDGE('',*,*,#462,.F.);
#493=CARTESIAN_POINT('',(4.084999999999999,-2.725000000000001,-3.2));
#494=DIRECTION('',(0.0,0.0,1.0));
#495=VECTOR('',#494,3.6);
#496=LINE('',#493,#495);
#497=EDGE_CURVE('',#407,#449,#496,.T.);
#498=ORIENTED_EDGE('',*,*,#497,.F.);
#499=ORIENTED_EDGE('',*,*,#436,.F.);
#500=EDGE_LOOP('',(#491,#492,#498,#499));
#501=FACE_OUTER_BOUND('',#500,.T.);
#502=ADVANCED_FACE('',(#501),#485,.F.);
#503=CARTESIAN_POINT('',(3.534999999999998,-2.850000000000001,-1.4));
#504=DIRECTION('',(1.0,0.0,0.0));
#505=DIRECTION('',(0.0,0.0,1.0));
#506=AXIS2_PLACEMENT_3D('',#503,#504,#505);
#507=PLANE('',#506);
#508=CARTESIAN_POINT('',(3.534999999999998,-2.975000000000001,-3.2));
#509=DIRECTION('',(0.0,0.0,1.0));
#510=VECTOR('',#509,3.6);
#511=LINE('',#508,#510);
#512=EDGE_CURVE('',#417,#465,#511,.T.);
#513=ORIENTED_EDGE('',*,*,#512,.T.);
#514=ORIENTED_EDGE('',*,*,#470,.F.);
#515=ORIENTED_EDGE('',*,*,#490,.F.);
#516=ORIENTED_EDGE('',*,*,#430,.F.);
#517=EDGE_LOOP('',(#513,#514,#515,#516));
#518=FACE_OUTER_BOUND('',#517,.T.);
#519=ADVANCED_FACE('',(#518),#507,.F.);
#520=CARTESIAN_POINT('',(3.809999999999999,-2.975000000000001,-1.4));
#521=DIRECTION('',(0.0,1.0,0.0));
#522=DIRECTION('',(0.0,0.0,1.0));
#523=AXIS2_PLACEMENT_3D('',#520,#521,#522);
#524=PLANE('',#523);
#525=CARTESIAN_POINT('',(4.084999999999999,-2.975000000000001,-3.2));
#526=DIRECTION('',(0.0,0.0,1.0));
#527=VECTOR('',#526,3.6);
#528=LINE('',#525,#527);
#529=EDGE_CURVE('',#409,#447,#528,.T.);
#530=ORIENTED_EDGE('',*,*,#529,.T.);
#531=ORIENTED_EDGE('',*,*,#476,.F.);
#532=ORIENTED_EDGE('',*,*,#512,.F.);
#533=ORIENTED_EDGE('',*,*,#422,.F.);
#534=EDGE_LOOP('',(#530,#531,#532,#533));
#535=FACE_OUTER_BOUND('',#534,.T.);
#536=ADVANCED_FACE('',(#535),#524,.F.);
#537=CARTESIAN_POINT('',(4.084999999999999,-2.850000000000001,-1.4));
#538=DIRECTION('',(-1.0,0.0,0.0));
#539=DIRECTION('',(0.0,0.0,-1.0));
#540=AXIS2_PLACEMENT_3D('',#537,#538,#539);
#541=PLANE('',#540);
#542=ORIENTED_EDGE('',*,*,#497,.T.);
#543=ORIENTED_EDGE('',*,*,#454,.F.);
#544=ORIENTED_EDGE('',*,*,#529,.F.);
#545=ORIENTED_EDGE('',*,*,#414,.F.);
#546=EDGE_LOOP('',(#542,#543,#544,#545));
#547=FACE_OUTER_BOUND('',#546,.T.);
#548=ADVANCED_FACE('',(#547),#541,.F.);
#549=CLOSED_SHELL('',(#440,#480,#502,#519,#536,#548));
#550=MANIFOLD_SOLID_BREP('21EB',#549);
#551=COLOUR_RGB('254',0.866,0.866,0.866);
#552=SURFACE_STYLE_USAGE(.BOTH.,#553);
#553=SURFACE_SIDE_STYLE('NONE',(#554));
#554=SURFACE_STYLE_FILL_AREA(#555);
#555=FILL_AREA_STYLE('NONE',(#556));
#556=FILL_AREA_STYLE_COLOUR('NONE',#551);
#557=PRESENTATION_STYLE_ASSIGNMENT((#552));
#558=STYLED_ITEM('NONE',(#557),#550);
#559=CARTESIAN_POINT('',(1.27,-2.850000000000001,-3.2));
#560=DIRECTION('',(0.0,0.0,-1.0));
#561=DIRECTION('',(1.0,0.0,0.0));
#562=AXIS2_PLACEMENT_3D('',#559,#560,#561);
#563=PLANE('',#562);
#564=CARTESIAN_POINT('',(1.545,-2.725000000000001,-3.2));
#565=VERTEX_POINT('',#564);
#566=CARTESIAN_POINT('',(1.545,-2.975000000000001,-3.2));
#567=VERTEX_POINT('',#566);
#568=CARTESIAN_POINT('',(1.545,-2.725000000000001,-3.2));
#569=DIRECTION('',(0.0,-1.0,0.0));
#570=VECTOR('',#569,0.25);
#571=LINE('',#568,#570);
#572=EDGE_CURVE('',#565,#567,#571,.T.);
#573=ORIENTED_EDGE('',*,*,#572,.T.);
#574=CARTESIAN_POINT('',(0.994999999999999,-2.975000000000001,-3.2));
#575=VERTEX_POINT('',#574);
#576=CARTESIAN_POINT('',(1.545,-2.975000000000001,-3.2));
#577=DIRECTION('',(-1.0,0.0,0.0));
#578=VECTOR('',#577,0.550000000000001);
#579=LINE('',#576,#578);
#580=EDGE_CURVE('',#567,#575,#579,.T.);
#581=ORIENTED_EDGE('',*,*,#580,.T.);
#582=CARTESIAN_POINT('',(0.994999999999999,-2.725000000000001,-3.2));
#583=VERTEX_POINT('',#582);
#584=CARTESIAN_POINT('',(0.994999999999999,-2.975000000000001,-3.2));
#585=DIRECTION('',(0.0,1.0,0.0));
#586=VECTOR('',#585,0.25);
#587=LINE('',#584,#586);
#588=EDGE_CURVE('',#575,#583,#587,.T.);
#589=ORIENTED_EDGE('',*,*,#588,.T.);
#590=CARTESIAN_POINT('',(0.994999999999999,-2.725000000000001,-3.2));
#591=DIRECTION('',(1.0,0.0,0.0));
#592=VECTOR('',#591,0.550000000000001);
#593=LINE('',#590,#592);
#594=EDGE_CURVE('',#583,#565,#593,.T.);
#595=ORIENTED_EDGE('',*,*,#594,.T.);
#596=EDGE_LOOP('',(#573,#581,#589,#595));
#597=FACE_OUTER_BOUND('',#596,.T.);
#598=ADVANCED_FACE('',(#597),#563,.T.);
#599=CARTESIAN_POINT('',(1.27,-2.850000000000001,0.4));
#600=DIRECTION('',(0.0,0.0,-1.0));
#601=DIRECTION('',(1.0,0.0,0.0));
#602=AXIS2_PLACEMENT_3D('',#599,#600,#601);
#603=PLANE('',#602);
#604=CARTESIAN_POINT('',(1.545,-2.975000000000001,0.4));
#605=VERTEX_POINT('',#604);
#606=CARTESIAN_POINT('',(1.545,-2.725000000000001,0.4));
#607=VERTEX_POINT('',#606);
#608=CARTESIAN_POINT('',(1.545,-2.975000000000001,0.4));
#609=DIRECTION('',(0.0,1.0,0.0));
#610=VECTOR('',#609,0.25);
#611=LINE('',#608,#610);
#612=EDGE_CURVE('',#605,#607,#611,.T.);
#613=ORIENTED_EDGE('',*,*,#612,.T.);
#614=CARTESIAN_POINT('',(0.994999999999999,-2.725000000000001,0.4));
#615=VERTEX_POINT('',#614);
#616=CARTESIAN_POINT('',(1.545,-2.725000000000001,0.4));
#617=DIRECTION('',(-1.0,0.0,0.0));
#618=VECTOR('',#617,0.550000000000001);
#619=LINE('',#616,#618);
#620=EDGE_CURVE('',#607,#615,#619,.T.);
#621=ORIENTED_EDGE('',*,*,#620,.T.);
#622=CARTESIAN_POINT('',(0.994999999999999,-2.975000000000001,0.4));
#623=VERTEX_POINT('',#622);
#624=CARTESIAN_POINT('',(0.994999999999999,-2.725000000000001,0.4));
#625=DIRECTION('',(0.0,-1.0,0.0));
#626=VECTOR('',#625,0.25);
#627=LINE('',#624,#626);
#628=EDGE_CURVE('',#615,#623,#627,.T.);
#629=ORIENTED_EDGE('',*,*,#628,.T.);
#630=CARTESIAN_POINT('',(0.994999999999999,-2.975000000000001,0.4));
#631=DIRECTION('',(1.0,0.0,0.0));
#632=VECTOR('',#631,0.550000000000001);
#633=LINE('',#630,#632);
#634=EDGE_CURVE('',#623,#605,#633,.T.);
#635=ORIENTED_EDGE('',*,*,#634,.T.);
#636=EDGE_LOOP('',(#613,#621,#629,#635));
#637=FACE_OUTER_BOUND('',#636,.T.);
#638=ADVANCED_FACE('',(#637),#603,.F.);
#639=CARTESIAN_POINT('',(1.27,-2.725000000000001,-1.4));
#640=DIRECTION('',(0.0,-1.0,0.0));
#641=DIRECTION('',(0.0,0.0,-1.0));
#642=AXIS2_PLACEMENT_3D('',#639,#640,#641);
#643=PLANE('',#642);
#644=CARTESIAN_POINT('',(0.994999999999999,-2.725000000000001,-3.2));
#645=DIRECTION('',(0.0,0.0,1.0));
#646=VECTOR('',#645,3.6);
#647=LINE('',#644,#646);
#648=EDGE_CURVE('',#583,#615,#647,.T.);
#649=ORIENTED_EDGE('',*,*,#648,.T.);
#650=ORIENTED_EDGE('',*,*,#620,.F.);
#651=CARTESIAN_POINT('',(1.545,-2.725000000000001,-3.2));
#652=DIRECTION('',(0.0,0.0,1.0));
#653=VECTOR('',#652,3.6);
#654=LINE('',#651,#653);
#655=EDGE_CURVE('',#565,#607,#654,.T.);
#656=ORIENTED_EDGE('',*,*,#655,.F.);
#657=ORIENTED_EDGE('',*,*,#594,.F.);
#658=EDGE_LOOP('',(#649,#650,#656,#657));
#659=FACE_OUTER_BOUND('',#658,.T.);
#660=ADVANCED_FACE('',(#659),#643,.F.);
#661=CARTESIAN_POINT('',(0.994999999999999,-2.850000000000001,-1.4));
#662=DIRECTION('',(1.0,0.0,0.0));
#663=DIRECTION('',(0.0,0.0,1.0));
#664=AXIS2_PLACEMENT_3D('',#661,#662,#663);
#665=PLANE('',#664);
#666=CARTESIAN_POINT('',(0.994999999999999,-2.975000000000001,-3.2));
#667=DIRECTION('',(0.0,0.0,1.0));
#668=VECTOR('',#667,3.6);
#669=LINE('',#666,#668);
#670=EDGE_CURVE('',#575,#623,#669,.T.);
#671=ORIENTED_EDGE('',*,*,#670,.T.);
#672=ORIENTED_EDGE('',*,*,#628,.F.);
#673=ORIENTED_EDGE('',*,*,#648,.F.);
#674=ORIENTED_EDGE('',*,*,#588,.F.);
#675=EDGE_LOOP('',(#671,#672,#673,#674));
#676=FACE_OUTER_BOUND('',#675,.T.);
#677=ADVANCED_FACE('',(#676),#665,.F.);
#678=CARTESIAN_POINT('',(1.27,-2.975000000000001,-1.4));
#679=DIRECTION('',(0.0,1.0,0.0));
#680=DIRECTION('',(0.0,0.0,1.0));
#681=AXIS2_PLACEMENT_3D('',#678,#679,#680);
#682=PLANE('',#681);
#683=CARTESIAN_POINT('',(1.545,-2.975000000000001,-3.2));
#684=DIRECTION('',(0.0,0.0,1.0));
#685=VECTOR('',#684,3.6);
#686=LINE('',#683,#685);
#687=EDGE_CURVE('',#567,#605,#686,.T.);
#688=ORIENTED_EDGE('',*,*,#687,.T.);
#689=ORIENTED_EDGE('',*,*,#634,.F.);
#690=ORIENTED_EDGE('',*,*,#670,.F.);
#691=ORIENTED_EDGE('',*,*,#580,.F.);
#692=EDGE_LOOP('',(#688,#689,#690,#691));
#693=FACE_OUTER_BOUND('',#692,.T.);
#694=ADVANCED_FACE('',(#693),#682,.F.);
#695=CARTESIAN_POINT('',(1.545,-2.850000000000001,-1.4));
#696=DIRECTION('',(-1.0,0.0,0.0));
#697=DIRECTION('',(0.0,0.0,-1.0));
#698=AXIS2_PLACEMENT_3D('',#695,#696,#697);
#699=PLANE('',#698);
#700=ORIENTED_EDGE('',*,*,#655,.T.);
#701=ORIENTED_EDGE('',*,*,#612,.F.);
#702=ORIENTED_EDGE('',*,*,#687,.F.);
#703=ORIENTED_EDGE('',*,*,#572,.F.);
#704=EDGE_LOOP('',(#700,#701,#702,#703));
#705=FACE_OUTER_BOUND('',#704,.T.);
#706=ADVANCED_FACE('',(#705),#699,.F.);
#707=CLOSED_SHELL('',(#598,#638,#660,#677,#694,#706));
#708=MANIFOLD_SOLID_BREP('21E7',#707);
#709=STYLED_ITEM('NONE',(#557),#708);
#710=CARTESIAN_POINT('',(-1.270000000000001,-2.850000000000001,-3.2));
#711=DIRECTION('',(0.0,0.0,-1.0));
#712=DIRECTION('',(1.0,0.0,0.0));
#713=AXIS2_PLACEMENT_3D('',#710,#711,#712);
#714=PLANE('',#713);
#715=CARTESIAN_POINT('',(-0.995000000000001,-2.725000000000001,-3.2));
#716=VERTEX_POINT('',#715);
#717=CARTESIAN_POINT('',(-0.995000000000001,-2.975000000000001,-3.2));
#718=VERTEX_POINT('',#717);
#719=CARTESIAN_POINT('',(-0.995000000000001,-2.725000000000001,-3.2));
#720=DIRECTION('',(0.0,-1.0,0.0));
#721=VECTOR('',#720,0.25);
#722=LINE('',#719,#721);
#723=EDGE_CURVE('',#716,#718,#722,.T.);
#724=ORIENTED_EDGE('',*,*,#723,.T.);
#725=CARTESIAN_POINT('',(-1.545000000000001,-2.975000000000001,-3.2));
#726=VERTEX_POINT('',#725);
#727=CARTESIAN_POINT('',(-0.995000000000001,-2.975000000000001,-3.2));
#728=DIRECTION('',(-1.0,0.0,0.0));
#729=VECTOR('',#728,0.550000000000001);
#730=LINE('',#727,#729);
#731=EDGE_CURVE('',#718,#726,#730,.T.);
#732=ORIENTED_EDGE('',*,*,#731,.T.);
#733=CARTESIAN_POINT('',(-1.545000000000001,-2.725000000000001,-3.2));
#734=VERTEX_POINT('',#733);
#735=CARTESIAN_POINT('',(-1.545000000000001,-2.975000000000001,-3.2));
#736=DIRECTION('',(0.0,1.0,0.0));
#737=VECTOR('',#736,0.25);
#738=LINE('',#735,#737);
#739=EDGE_CURVE('',#726,#734,#738,.T.);
#740=ORIENTED_EDGE('',*,*,#739,.T.);
#741=CARTESIAN_POINT('',(-1.545000000000001,-2.725000000000001,-3.2));
#742=DIRECTION('',(1.0,0.0,0.0));
#743=VECTOR('',#742,0.550000000000001);
#744=LINE('',#741,#743);
#745=EDGE_CURVE('',#734,#716,#744,.T.);
#746=ORIENTED_EDGE('',*,*,#745,.T.);
#747=EDGE_LOOP('',(#724,#732,#740,#746));
#748=FACE_OUTER_BOUND('',#747,.T.);
#749=ADVANCED_FACE('',(#748),#714,.T.);
#750=CARTESIAN_POINT('',(-1.270000000000001,-2.850000000000001,0.4));
#751=DIRECTION('',(0.0,0.0,-1.0));
#752=DIRECTION('',(1.0,0.0,0.0));
#753=AXIS2_PLACEMENT_3D('',#750,#751,#752);
#754=PLANE('',#753);
#755=CARTESIAN_POINT('',(-0.995000000000001,-2.975000000000001,0.4));
#756=VERTEX_POINT('',#755);
#757=CARTESIAN_POINT('',(-0.995000000000001,-2.725000000000001,0.4));
#758=VERTEX_POINT('',#757);
#759=CARTESIAN_POINT('',(-0.995000000000001,-2.975000000000001,0.4));
#760=DIRECTION('',(0.0,1.0,0.0));
#761=VECTOR('',#760,0.25);
#762=LINE('',#759,#761);
#763=EDGE_CURVE('',#756,#758,#762,.T.);
#764=ORIENTED_EDGE('',*,*,#763,.T.);
#765=CARTESIAN_POINT('',(-1.545000000000001,-2.725000000000001,0.4));
#766=VERTEX_POINT('',#765);
#767=CARTESIAN_POINT('',(-0.995000000000001,-2.725000000000001,0.4));
#768=DIRECTION('',(-1.0,0.0,0.0));
#769=VECTOR('',#768,0.550000000000001);
#770=LINE('',#767,#769);
#771=EDGE_CURVE('',#758,#766,#770,.T.);
#772=ORIENTED_EDGE('',*,*,#771,.T.);
#773=CARTESIAN_POINT('',(-1.545000000000001,-2.975000000000001,0.4));
#774=VERTEX_POINT('',#773);
#775=CARTESIAN_POINT('',(-1.545000000000001,-2.725000000000001,0.4));
#776=DIRECTION('',(0.0,-1.0,0.0));
#777=VECTOR('',#776,0.25);
#778=LINE('',#775,#777);
#779=EDGE_CURVE('',#766,#774,#778,.T.);
#780=ORIENTED_EDGE('',*,*,#779,.T.);
#781=CARTESIAN_POINT('',(-1.545000000000001,-2.975000000000001,0.4));
#782=DIRECTION('',(1.0,0.0,0.0));
#783=VECTOR('',#782,0.550000000000001);
#784=LINE('',#781,#783);
#785=EDGE_CURVE('',#774,#756,#784,.T.);
#786=ORIENTED_EDGE('',*,*,#785,.T.);
#787=EDGE_LOOP('',(#764,#772,#780,#786));
#788=FACE_OUTER_BOUND('',#787,.T.);
#789=ADVANCED_FACE('',(#788),#754,.F.);
#790=CARTESIAN_POINT('',(-1.270000000000001,-2.725000000000001,-1.4));
#791=DIRECTION('',(0.0,-1.0,0.0));
#792=DIRECTION('',(0.0,0.0,-1.0));
#793=AXIS2_PLACEMENT_3D('',#790,#791,#792);
#794=PLANE('',#793);
#795=CARTESIAN_POINT('',(-1.545000000000001,-2.725000000000001,-3.2));
#796=DIRECTION('',(0.0,0.0,1.0));
#797=VECTOR('',#796,3.6);
#798=LINE('',#795,#797);
#799=EDGE_CURVE('',#734,#766,#798,.T.);
#800=ORIENTED_EDGE('',*,*,#799,.T.);
#801=ORIENTED_EDGE('',*,*,#771,.F.);
#802=CARTESIAN_POINT('',(-0.995000000000001,-2.725000000000001,-3.2));
#803=DIRECTION('',(0.0,0.0,1.0));
#804=VECTOR('',#803,3.6);
#805=LINE('',#802,#804);
#806=EDGE_CURVE('',#716,#758,#805,.T.);
#807=ORIENTED_EDGE('',*,*,#806,.F.);
#808=ORIENTED_EDGE('',*,*,#745,.F.);
#809=EDGE_LOOP('',(#800,#801,#807,#808));
#810=FACE_OUTER_BOUND('',#809,.T.);
#811=ADVANCED_FACE('',(#810),#794,.F.);
#812=CARTESIAN_POINT('',(-1.545000000000001,-2.850000000000001,-1.4));
#813=DIRECTION('',(1.0,0.0,0.0));
#814=DIRECTION('',(0.0,0.0,1.0));
#815=AXIS2_PLACEMENT_3D('',#812,#813,#814);
#816=PLANE('',#815);
#817=CARTESIAN_POINT('',(-1.545000000000001,-2.975000000000001,-3.2));
#818=DIRECTION('',(0.0,0.0,1.0));
#819=VECTOR('',#818,3.6);
#820=LINE('',#817,#819);
#821=EDGE_CURVE('',#726,#774,#820,.T.);
#822=ORIENTED_EDGE('',*,*,#821,.T.);
#823=ORIENTED_EDGE('',*,*,#779,.F.);
#824=ORIENTED_EDGE('',*,*,#799,.F.);
#825=ORIENTED_EDGE('',*,*,#739,.F.);
#826=EDGE_LOOP('',(#822,#823,#824,#825));
#827=FACE_OUTER_BOUND('',#826,.T.);
#828=ADVANCED_FACE('',(#827),#816,.F.);
#829=CARTESIAN_POINT('',(-1.270000000000001,-2.975000000000001,-1.4));
#830=DIRECTION('',(0.0,1.0,0.0));
#831=DIRECTION('',(0.0,0.0,1.0));
#832=AXIS2_PLACEMENT_3D('',#829,#830,#831);
#833=PLANE('',#832);
#834=CARTESIAN_POINT('',(-0.995000000000001,-2.975000000000001,-3.2));
#835=DIRECTION('',(0.0,0.0,1.0));
#836=VECTOR('',#835,3.6);
#837=LINE('',#834,#836);
#838=EDGE_CURVE('',#718,#756,#837,.T.);
#839=ORIENTED_EDGE('',*,*,#838,.T.);
#840=ORIENTED_EDGE('',*,*,#785,.F.);
#841=ORIENTED_EDGE('',*,*,#821,.F.);
#842=ORIENTED_EDGE('',*,*,#731,.F.);
#843=EDGE_LOOP('',(#839,#840,#841,#842));
#844=FACE_OUTER_BOUND('',#843,.T.);
#845=ADVANCED_FACE('',(#844),#833,.F.);
#846=CARTESIAN_POINT('',(-0.995000000000001,-2.850000000000001,-1.4));
#847=DIRECTION('',(-1.0,0.0,0.0));
#848=DIRECTION('',(0.0,0.0,-1.0));
#849=AXIS2_PLACEMENT_3D('',#846,#847,#848);
#850=PLANE('',#849);
#851=ORIENTED_EDGE('',*,*,#806,.T.);
#852=ORIENTED_EDGE('',*,*,#763,.F.);
#853=ORIENTED_EDGE('',*,*,#838,.F.);
#854=ORIENTED_EDGE('',*,*,#723,.F.);
#855=EDGE_LOOP('',(#851,#852,#853,#854));
#856=FACE_OUTER_BOUND('',#855,.T.);
#857=ADVANCED_FACE('',(#856),#850,.F.);
#858=CLOSED_SHELL('',(#749,#789,#811,#828,#845,#857));
#859=MANIFOLD_SOLID_BREP('21E3',#858);
#860=STYLED_ITEM('NONE',(#557),#859);
#861=CARTESIAN_POINT('',(-3.810000000000001,-2.850000000000001,-3.2));
#862=DIRECTION('',(0.0,0.0,-1.0));
#863=DIRECTION('',(1.0,0.0,0.0));
#864=AXIS2_PLACEMENT_3D('',#861,#862,#863);
#865=PLANE('',#864);
#866=CARTESIAN_POINT('',(-3.535,-2.725000000000001,-3.2));
#867=VERTEX_POINT('',#866);
#868=CARTESIAN_POINT('',(-3.535,-2.975000000000001,-3.2));
#869=VERTEX_POINT('',#868);
#870=CARTESIAN_POINT('',(-3.535,-2.725000000000001,-3.2));
#871=DIRECTION('',(0.0,-1.0,0.0));
#872=VECTOR('',#871,0.25);
#873=LINE('',#870,#872);
#874=EDGE_CURVE('',#867,#869,#873,.T.);
#875=ORIENTED_EDGE('',*,*,#874,.T.);
#876=CARTESIAN_POINT('',(-4.085000000000001,-2.975000000000001,-3.2));
#877=VERTEX_POINT('',#876);
#878=CARTESIAN_POINT('',(-3.535,-2.975000000000001,-3.2));
#879=DIRECTION('',(-1.0,0.0,0.0));
#880=VECTOR('',#879,0.550000000000001);
#881=LINE('',#878,#880);
#882=EDGE_CURVE('',#869,#877,#881,.T.);
#883=ORIENTED_EDGE('',*,*,#882,.T.);
#884=CARTESIAN_POINT('',(-4.085000000000001,-2.725000000000001,-3.2));
#885=VERTEX_POINT('',#884);
#886=CARTESIAN_POINT('',(-4.085000000000001,-2.975000000000001,-3.2));
#887=DIRECTION('',(0.0,1.0,0.0));
#888=VECTOR('',#887,0.25);
#889=LINE('',#886,#888);
#890=EDGE_CURVE('',#877,#885,#889,.T.);
#891=ORIENTED_EDGE('',*,*,#890,.T.);
#892=CARTESIAN_POINT('',(-4.085000000000001,-2.725000000000001,-3.2));
#893=DIRECTION('',(1.0,0.0,0.0));
#894=VECTOR('',#893,0.550000000000001);
#895=LINE('',#892,#894);
#896=EDGE_CURVE('',#885,#867,#895,.T.);
#897=ORIENTED_EDGE('',*,*,#896,.T.);
#898=EDGE_LOOP('',(#875,#883,#891,#897));
#899=FACE_OUTER_BOUND('',#898,.T.);
#900=ADVANCED_FACE('',(#899),#865,.T.);
#901=CARTESIAN_POINT('',(-3.810000000000001,-2.850000000000001,0.4));
#902=DIRECTION('',(0.0,0.0,-1.0));
#903=DIRECTION('',(1.0,0.0,0.0));
#904=AXIS2_PLACEMENT_3D('',#901,#902,#903);
#905=PLANE('',#904);
#906=CARTESIAN_POINT('',(-3.535,-2.975000000000001,0.4));
#907=VERTEX_POINT('',#906);
#908=CARTESIAN_POINT('',(-3.535,-2.725000000000001,0.4));
#909=VERTEX_POINT('',#908);
#910=CARTESIAN_POINT('',(-3.535,-2.975000000000001,0.4));
#911=DIRECTION('',(0.0,1.0,0.0));
#912=VECTOR('',#911,0.25);
#913=LINE('',#910,#912);
#914=EDGE_CURVE('',#907,#909,#913,.T.);
#915=ORIENTED_EDGE('',*,*,#914,.T.);
#916=CARTESIAN_POINT('',(-4.085000000000001,-2.725000000000001,0.4));
#917=VERTEX_POINT('',#916);
#918=CARTESIAN_POINT('',(-3.535,-2.725000000000001,0.4));
#919=DIRECTION('',(-1.0,0.0,0.0));
#920=VECTOR('',#919,0.550000000000001);
#921=LINE('',#918,#920);
#922=EDGE_CURVE('',#909,#917,#921,.T.);
#923=ORIENTED_EDGE('',*,*,#922,.T.);
#924=CARTESIAN_POINT('',(-4.085000000000001,-2.975000000000001,0.4));
#925=VERTEX_POINT('',#924);
#926=CARTESIAN_POINT('',(-4.085000000000001,-2.725000000000001,0.4));
#927=DIRECTION('',(0.0,-1.0,0.0));
#928=VECTOR('',#927,0.25);
#929=LINE('',#926,#928);
#930=EDGE_CURVE('',#917,#925,#929,.T.);
#931=ORIENTED_EDGE('',*,*,#930,.T.);
#932=CARTESIAN_POINT('',(-4.085000000000001,-2.975000000000001,0.4));
#933=DIRECTION('',(1.0,0.0,0.0));
#934=VECTOR('',#933,0.550000000000001);
#935=LINE('',#932,#934);
#936=EDGE_CURVE('',#925,#907,#935,.T.);
#937=ORIENTED_EDGE('',*,*,#936,.T.);
#938=EDGE_LOOP('',(#915,#923,#931,#937));
#939=FACE_OUTER_BOUND('',#938,.T.);
#940=ADVANCED_FACE('',(#939),#905,.F.);
#941=CARTESIAN_POINT('',(-3.810000000000001,-2.725000000000001,-1.4));
#942=DIRECTION('',(0.0,-1.0,0.0));
#943=DIRECTION('',(0.0,0.0,-1.0));
#944=AXIS2_PLACEMENT_3D('',#941,#942,#943);
#945=PLANE('',#944);
#946=CARTESIAN_POINT('',(-4.085000000000001,-2.725000000000001,-3.2));
#947=DIRECTION('',(0.0,0.0,1.0));
#948=VECTOR('',#947,3.6);
#949=LINE('',#946,#948);
#950=EDGE_CURVE('',#885,#917,#949,.T.);
#951=ORIENTED_EDGE('',*,*,#950,.T.);
#952=ORIENTED_EDGE('',*,*,#922,.F.);
#953=CARTESIAN_POINT('',(-3.535,-2.725000000000001,-3.2));
#954=DIRECTION('',(0.0,0.0,1.0));
#955=VECTOR('',#954,3.6);
#956=LINE('',#953,#955);
#957=EDGE_CURVE('',#867,#909,#956,.T.);
#958=ORIENTED_EDGE('',*,*,#957,.F.);
#959=ORIENTED_EDGE('',*,*,#896,.F.);
#960=EDGE_LOOP('',(#951,#952,#958,#959));
#961=FACE_OUTER_BOUND('',#960,.T.);
#962=ADVANCED_FACE('',(#961),#945,.F.);
#963=CARTESIAN_POINT('',(-4.085000000000001,-2.850000000000001,-1.4));
#964=DIRECTION('',(1.0,0.0,0.0));
#965=DIRECTION('',(0.0,0.0,1.0));
#966=AXIS2_PLACEMENT_3D('',#963,#964,#965);
#967=PLANE('',#966);
#968=CARTESIAN_POINT('',(-4.085000000000001,-2.975000000000001,-3.2));
#969=DIRECTION('',(0.0,0.0,1.0));
#970=VECTOR('',#969,3.6);
#971=LINE('',#968,#970);
#972=EDGE_CURVE('',#877,#925,#971,.T.);
#973=ORIENTED_EDGE('',*,*,#972,.T.);
#974=ORIENTED_EDGE('',*,*,#930,.F.);
#975=ORIENTED_EDGE('',*,*,#950,.F.);
#976=ORIENTED_EDGE('',*,*,#890,.F.);
#977=EDGE_LOOP('',(#973,#974,#975,#976));
#978=FACE_OUTER_BOUND('',#977,.T.);
#979=ADVANCED_FACE('',(#978),#967,.F.);
#980=CARTESIAN_POINT('',(-3.810000000000001,-2.975000000000001,-1.4));
#981=DIRECTION('',(0.0,1.0,0.0));
#982=DIRECTION('',(0.0,0.0,1.0));
#983=AXIS2_PLACEMENT_3D('',#980,#981,#982);
#984=PLANE('',#983);
#985=CARTESIAN_POINT('',(-3.535,-2.975000000000001,-3.2));
#986=DIRECTION('',(0.0,0.0,1.0));
#987=VECTOR('',#986,3.6);
#988=LINE('',#985,#987);
#989=EDGE_CURVE('',#869,#907,#988,.T.);
#990=ORIENTED_EDGE('',*,*,#989,.T.);
#991=ORIENTED_EDGE('',*,*,#936,.F.);
#992=ORIENTED_EDGE('',*,*,#972,.F.);
#993=ORIENTED_EDGE('',*,*,#882,.F.);
#994=EDGE_LOOP('',(#990,#991,#992,#993));
#995=FACE_OUTER_BOUND('',#994,.T.);
#996=ADVANCED_FACE('',(#995),#984,.F.);
#997=CARTESIAN_POINT('',(-3.535,-2.850000000000001,-1.4));
#998=DIRECTION('',(-1.0,0.0,0.0));
#999=DIRECTION('',(0.0,0.0,-1.0));
#1000=AXIS2_PLACEMENT_3D('',#997,#998,#999);
#1001=PLANE('',#1000);
#1002=ORIENTED_EDGE('',*,*,#957,.T.);
#1003=ORIENTED_EDGE('',*,*,#914,.F.);
#1004=ORIENTED_EDGE('',*,*,#989,.F.);
#1005=ORIENTED_EDGE('',*,*,#874,.F.);
#1006=EDGE_LOOP('',(#1002,#1003,#1004,#1005));
#1007=FACE_OUTER_BOUND('',#1006,.T.);
#1008=ADVANCED_FACE('',(#1007),#1001,.F.);
#1009=CLOSED_SHELL('',(#900,#940,#962,#979,#996,#1008));
#1010=MANIFOLD_SOLID_BREP('21DE',#1009);
#1011=STYLED_ITEM('NONE',(#557),#1010);
#1012=CARTESIAN_POINT('',(7.074999999999999,-4.074999999999999,0.0));
#1013=CARTESIAN_POINT('',(6.674999999999998,-4.074999999999999,0.0));
#1014=CARTESIAN_POINT('',(7.074999999999999,4.074999999999999,0.0));
#1015=CARTESIAN_POINT('',(6.674999999999997,4.074999999999999,0.0));
#1016=B_SPLINE_SURFACE_WITH_KNOTS('',1,1,((#1012,#1014),(#1013,#1015)),.UNSPECIFIED.,.F.,.F.,.U.,(2,2),(2,2),(0.0,0.400000000000001),(0.0,8.149999999999999),.UNSPECIFIED.);
#1017=CARTESIAN_POINT('',(6.674999999999999,4.075,0.0));
#1018=VERTEX_POINT('',#1017);
#1019=CARTESIAN_POINT('',(6.674999999999998,-4.074999999999999,0.0));
#1020=VERTEX_POINT('',#1019);
#1021=CARTESIAN_POINT('',(6.674999999999999,4.075,0.0));
#1022=DIRECTION('',(0.0,-1.0,0.0));
#1023=VECTOR('',#1022,8.149999999999999);
#1024=LINE('',#1021,#1023);
#1025=EDGE_CURVE('',#1018,#1020,#1024,.T.);
#1026=ORIENTED_EDGE('',*,*,#1025,.F.);
#1027=CARTESIAN_POINT('',(7.074999999999999,4.075,0.0));
#1028=VERTEX_POINT('',#1027);
#1029=CARTESIAN_POINT('',(7.074999999999999,4.075,0.0));
#1030=DIRECTION('',(-1.0,0.0,0.0));
#1031=VECTOR('',#1030,0.4);
#1032=LINE('',#1029,#1031);
#1033=EDGE_CURVE('',#1028,#1018,#1032,.T.);
#1034=ORIENTED_EDGE('',*,*,#1033,.F.);
#1035=CARTESIAN_POINT('',(7.074999999999998,-4.074999999999999,0.0));
#1036=VERTEX_POINT('',#1035);
#1037=CARTESIAN_POINT('',(7.074999999999999,-4.074999999999999,0.0));
#1038=DIRECTION('',(0.0,1.0,0.0));
#1039=VECTOR('',#1038,8.149999999999999);
#1040=LINE('',#1037,#1039);
#1041=EDGE_CURVE('',#1036,#1028,#1040,.T.);
#1042=ORIENTED_EDGE('',*,*,#1041,.F.);
#1043=CARTESIAN_POINT('',(6.674999999999998,-4.074999999999999,0.0));
#1044=DIRECTION('',(1.0,0.0,0.0));
#1045=VECTOR('',#1044,0.4);
#1046=LINE('',#1043,#1045);
#1047=EDGE_CURVE('',#1020,#1036,#1046,.T.);
#1048=ORIENTED_EDGE('',*,*,#1047,.F.);
#1049=EDGE_LOOP('',(#1026,#1034,#1042,#1048));
#1050=FACE_OUTER_BOUND('',#1049,.T.);
#1051=ADVANCED_FACE('',(#1050),#1016,.T.);
#1052=CARTESIAN_POINT('',(7.074999999999999,-4.074999999999999,0.4));
#1053=CARTESIAN_POINT('',(6.674999999999998,-4.074999999999999,0.4));
#1054=CARTESIAN_POINT('',(7.074999999999999,4.074999999999999,0.4));
#1055=CARTESIAN_POINT('',(6.674999999999997,4.074999999999999,0.4));
#1056=B_SPLINE_SURFACE_WITH_KNOTS('',1,1,((#1052,#1054),(#1053,#1055)),.UNSPECIFIED.,.F.,.F.,.U.,(2,2),(2,2),(0.0,0.400000000000001),(0.0,8.149999999999999),.UNSPECIFIED.);
#1057=CARTESIAN_POINT('',(6.674999999999998,-4.074999999999999,0.4));
#1058=VERTEX_POINT('',#1057);
#1059=CARTESIAN_POINT('',(6.674999999999999,4.075,0.4));
#1060=VERTEX_POINT('',#1059);
#1061=CARTESIAN_POINT('',(6.674999999999999,-4.074999999999999,0.4));
#1062=DIRECTION('',(0.0,1.0,0.0));
#1063=VECTOR('',#1062,8.149999999999999);
#1064=LINE('',#1061,#1063);
#1065=EDGE_CURVE('',#1058,#1060,#1064,.T.);
#1066=ORIENTED_EDGE('',*,*,#1065,.F.);
#1067=CARTESIAN_POINT('',(7.074999999999998,-4.074999999999999,0.4));
#1068=VERTEX_POINT('',#1067);
#1069=CARTESIAN_POINT('',(7.074999999999998,-4.074999999999999,0.4));
#1070=DIRECTION('',(-1.0,0.0,0.0));
#1071=VECTOR('',#1070,0.4);
#1072=LINE('',#1069,#1071);
#1073=EDGE_CURVE('',#1068,#1058,#1072,.T.);
#1074=ORIENTED_EDGE('',*,*,#1073,.F.);
#1075=CARTESIAN_POINT('',(7.074999999999999,4.075,0.4));
#1076=VERTEX_POINT('',#1075);
#1077=CARTESIAN_POINT('',(7.074999999999999,4.075,0.4));
#1078=DIRECTION('',(0.0,-1.0,0.0));
#1079=VECTOR('',#1078,8.149999999999999);
#1080=LINE('',#1077,#1079);
#1081=EDGE_CURVE('',#1076,#1068,#1080,.T.);
#1082=ORIENTED_EDGE('',*,*,#1081,.F.);
#1083=CARTESIAN_POINT('',(6.674999999999999,4.075,0.4));
#1084=DIRECTION('',(1.0,0.0,0.0));
#1085=VECTOR('',#1084,0.4);
#1086=LINE('',#1083,#1085);
#1087=EDGE_CURVE('',#1060,#1076,#1086,.T.);
#1088=ORIENTED_EDGE('',*,*,#1087,.F.);
#1089=EDGE_LOOP('',(#1066,#1074,#1082,#1088));
#1090=FACE_OUTER_BOUND('',#1089,.T.);
#1091=ADVANCED_FACE('',(#1090),#1056,.F.);
#1092=CARTESIAN_POINT('',(6.674999999999999,4.075,0.4));
#1093=CARTESIAN_POINT('',(6.674999999999999,4.075,0.0));
#1094=CARTESIAN_POINT('',(7.074999999999999,4.075,0.4));
#1095=CARTESIAN_POINT('',(7.074999999999999,4.075,0.0));
#1096=B_SPLINE_SURFACE_WITH_KNOTS('',1,1,((#1092,#1094),(#1093,#1095)),.UNSPECIFIED.,.F.,.F.,.U.,(2,2),(2,2),(0.0,0.4),(0.0,0.4),.UNSPECIFIED.);
#1097=CARTESIAN_POINT('',(7.074999999999999,4.075,0.0));
#1098=DIRECTION('',(0.0,0.0,1.0));
#1099=VECTOR('',#1098,0.4);
#1100=LINE('',#1097,#1099);
#1101=EDGE_CURVE('',#1028,#1076,#1100,.T.);
#1102=ORIENTED_EDGE('',*,*,#1101,.F.);
#1103=ORIENTED_EDGE('',*,*,#1033,.T.);
#1104=CARTESIAN_POINT('',(6.674999999999999,4.075,0.0));
#1105=DIRECTION('',(0.0,0.0,1.0));
#1106=VECTOR('',#1105,0.4);
#1107=LINE('',#1104,#1106);
#1108=EDGE_CURVE('',#1018,#1060,#1107,.T.);
#1109=ORIENTED_EDGE('',*,*,#1108,.T.);
#1110=ORIENTED_EDGE('',*,*,#1087,.T.);
#1111=EDGE_LOOP('',(#1102,#1103,#1109,#1110));
#1112=FACE_OUTER_BOUND('',#1111,.T.);
#1113=ADVANCED_FACE('',(#1112),#1096,.F.);
#1114=CARTESIAN_POINT('',(7.074999999999999,-4.074999999999999,0.0));
#1115=CARTESIAN_POINT('',(7.074999999999999,-4.074999999999999,0.4));
#1116=CARTESIAN_POINT('',(7.074999999999999,4.074999999999999,0.0));
#1117=CARTESIAN_POINT('',(7.074999999999999,4.074999999999999,0.4));
#1118=B_SPLINE_SURFACE_WITH_KNOTS('',1,1,((#1114,#1116),(#1115,#1117)),.UNSPECIFIED.,.F.,.F.,.U.,(2,2),(2,2),(0.0,0.4),(0.0,8.149999999999999),.UNSPECIFIED.);
#1119=CARTESIAN_POINT('',(7.074999999999998,-4.074999999999999,0.0));
#1120=DIRECTION('',(0.0,0.0,1.0));
#1121=VECTOR('',#1120,0.4);
#1122=LINE('',#1119,#1121);
#1123=EDGE_CURVE('',#1036,#1068,#1122,.T.);
#1124=ORIENTED_EDGE('',*,*,#1123,.F.);
#1125=ORIENTED_EDGE('',*,*,#1041,.T.);
#1126=ORIENTED_EDGE('',*,*,#1101,.T.);
#1127=ORIENTED_EDGE('',*,*,#1081,.T.);
#1128=EDGE_LOOP('',(#1124,#1125,#1126,#1127));
#1129=FACE_OUTER_BOUND('',#1128,.T.);
#1130=ADVANCED_FACE('',(#1129),#1118,.F.);
#1131=CARTESIAN_POINT('',(6.674999999999998,-4.074999999999999,0.0));
#1132=CARTESIAN_POINT('',(6.674999999999998,-4.074999999999999,0.4));
#1133=CARTESIAN_POINT('',(7.074999999999998,-4.074999999999999,0.0));
#1134=CARTESIAN_POINT('',(7.074999999999998,-4.074999999999999,0.4));
#1135=B_SPLINE_SURFACE_WITH_KNOTS('',1,1,((#1131,#1133),(#1132,#1134)),.UNSPECIFIED.,.F.,.F.,.U.,(2,2),(2,2),(0.0,0.4),(0.0,0.4),.UNSPECIFIED.);
#1136=CARTESIAN_POINT('',(6.674999999999998,-4.074999999999999,0.0));
#1137=DIRECTION('',(0.0,0.0,1.0));
#1138=VECTOR('',#1137,0.4);
#1139=LINE('',#1136,#1138);
#1140=EDGE_CURVE('',#1020,#1058,#1139,.T.);
#1141=ORIENTED_EDGE('',*,*,#1140,.F.);
#1142=ORIENTED_EDGE('',*,*,#1047,.T.);
#1143=ORIENTED_EDGE('',*,*,#1123,.T.);
#1144=ORIENTED_EDGE('',*,*,#1073,.T.);
#1145=EDGE_LOOP('',(#1141,#1142,#1143,#1144));
#1146=FACE_OUTER_BOUND('',#1145,.T.);
#1147=ADVANCED_FACE('',(#1146),#1135,.F.);
#1148=CARTESIAN_POINT('',(6.674999999999999,-4.074999999999999,0.4));
#1149=CARTESIAN_POINT('',(6.674999999999999,-4.074999999999999,0.0));
#1150=CARTESIAN_POINT('',(6.674999999999999,4.074999999999999,0.4));
#1151=CARTESIAN_POINT('',(6.674999999999999,4.074999999999999,0.0));
#1152=B_SPLINE_SURFACE_WITH_KNOTS('',1,1,((#1148,#1150),(#1149,#1151)),.UNSPECIFIED.,.F.,.F.,.U.,(2,2),(2,2),(0.0,0.4),(0.0,8.149999999999999),.UNSPECIFIED.);
#1153=ORIENTED_EDGE('',*,*,#1108,.F.);
#1154=ORIENTED_EDGE('',*,*,#1025,.T.);
#1155=ORIENTED_EDGE('',*,*,#1140,.T.);
#1156=ORIENTED_EDGE('',*,*,#1065,.T.);
#1157=EDGE_LOOP('',(#1153,#1154,#1155,#1156));
#1158=FACE_OUTER_BOUND('',#1157,.T.);
#1159=ADVANCED_FACE('',(#1158),#1152,.F.);
#1160=CLOSED_SHELL('',(#1051,#1091,#1113,#1130,#1147,#1159));
#1161=MANIFOLD_SOLID_BREP('21B2',#1160);
#1162=STYLED_ITEM('NONE',(#301),#1161);
#1163=CARTESIAN_POINT('',(-6.675,-4.075,0.0));
#1164=CARTESIAN_POINT('',(-7.075000000000005,-4.075,0.0));
#1165=CARTESIAN_POINT('',(-6.675,4.075,0.0));
#1166=CARTESIAN_POINT('',(-7.075000000000004,4.075,0.0));
#1167=B_SPLINE_SURFACE_WITH_KNOTS('',1,1,((#1163,#1165),(#1164,#1166)),.UNSPECIFIED.,.F.,.F.,.U.,(2,2),(2,2),(0.0,0.400000000000005),(0.0,8.15),.UNSPECIFIED.);
#1168=CARTESIAN_POINT('',(-7.075,4.075,0.0));
#1169=VERTEX_POINT('',#1168);
#1170=CARTESIAN_POINT('',(-7.075000000000005,-4.075,0.0));
#1171=VERTEX_POINT('',#1170);
#1172=CARTESIAN_POINT('',(-7.075,4.075,0.0));
#1173=DIRECTION('',(0.0,-1.0,0.0));
#1174=VECTOR('',#1173,8.15);
#1175=LINE('',#1172,#1174);
#1176=EDGE_CURVE('',#1169,#1171,#1175,.T.);
#1177=ORIENTED_EDGE('',*,*,#1176,.F.);
#1178=CARTESIAN_POINT('',(-6.675,4.075,0.0));
#1179=VERTEX_POINT('',#1178);
#1180=CARTESIAN_POINT('',(-6.675,4.075,0.0));
#1181=DIRECTION('',(-1.0,0.0,0.0));
#1182=VECTOR('',#1181,0.4);
#1183=LINE('',#1180,#1182);
#1184=EDGE_CURVE('',#1179,#1169,#1183,.T.);
#1185=ORIENTED_EDGE('',*,*,#1184,.F.);
#1186=CARTESIAN_POINT('',(-6.675000000000004,-4.075,0.0));
#1187=VERTEX_POINT('',#1186);
#1188=CARTESIAN_POINT('',(-6.675,-4.075,0.0));
#1189=DIRECTION('',(0.0,1.0,0.0));
#1190=VECTOR('',#1189,8.15);
#1191=LINE('',#1188,#1190);
#1192=EDGE_CURVE('',#1187,#1179,#1191,.T.);
#1193=ORIENTED_EDGE('',*,*,#1192,.F.);
#1194=CARTESIAN_POINT('',(-7.075000000000005,-4.075,0.0));
#1195=DIRECTION('',(1.0,0.0,0.0));
#1196=VECTOR('',#1195,0.4);
#1197=LINE('',#1194,#1196);
#1198=EDGE_CURVE('',#1171,#1187,#1197,.T.);
#1199=ORIENTED_EDGE('',*,*,#1198,.F.);
#1200=EDGE_LOOP('',(#1177,#1185,#1193,#1199));
#1201=FACE_OUTER_BOUND('',#1200,.T.);
#1202=ADVANCED_FACE('',(#1201),#1167,.T.);
#1203=CARTESIAN_POINT('',(-6.675,-4.075,0.4));
#1204=CARTESIAN_POINT('',(-7.075000000000005,-4.075,0.4));
#1205=CARTESIAN_POINT('',(-6.675,4.075,0.4));
#1206=CARTESIAN_POINT('',(-7.075000000000004,4.075,0.4));
#1207=B_SPLINE_SURFACE_WITH_KNOTS('',1,1,((#1203,#1205),(#1204,#1206)),.UNSPECIFIED.,.F.,.F.,.U.,(2,2),(2,2),(0.0,0.400000000000005),(0.0,8.15),.UNSPECIFIED.);
#1208=CARTESIAN_POINT('',(-7.075000000000005,-4.075,0.4));
#1209=VERTEX_POINT('',#1208);
#1210=CARTESIAN_POINT('',(-7.075,4.075,0.4));
#1211=VERTEX_POINT('',#1210);
#1212=CARTESIAN_POINT('',(-7.075,-4.075,0.4));
#1213=DIRECTION('',(0.0,1.0,0.0));
#1214=VECTOR('',#1213,8.15);
#1215=LINE('',#1212,#1214);
#1216=EDGE_CURVE('',#1209,#1211,#1215,.T.);
#1217=ORIENTED_EDGE('',*,*,#1216,.F.);
#1218=CARTESIAN_POINT('',(-6.675000000000004,-4.075,0.4));
#1219=VERTEX_POINT('',#1218);
#1220=CARTESIAN_POINT('',(-6.675000000000004,-4.075,0.4));
#1221=DIRECTION('',(-1.0,0.0,0.0));
#1222=VECTOR('',#1221,0.4);
#1223=LINE('',#1220,#1222);
#1224=EDGE_CURVE('',#1219,#1209,#1223,.T.);
#1225=ORIENTED_EDGE('',*,*,#1224,.F.);
#1226=CARTESIAN_POINT('',(-6.675,4.075,0.4));
#1227=VERTEX_POINT('',#1226);
#1228=CARTESIAN_POINT('',(-6.675,4.075,0.4));
#1229=DIRECTION('',(0.0,-1.0,0.0));
#1230=VECTOR('',#1229,8.15);
#1231=LINE('',#1228,#1230);
#1232=EDGE_CURVE('',#1227,#1219,#1231,.T.);
#1233=ORIENTED_EDGE('',*,*,#1232,.F.);
#1234=CARTESIAN_POINT('',(-7.075,4.075,0.4));
#1235=DIRECTION('',(1.0,0.0,0.0));
#1236=VECTOR('',#1235,0.4);
#1237=LINE('',#1234,#1236);
#1238=EDGE_CURVE('',#1211,#1227,#1237,.T.);
#1239=ORIENTED_EDGE('',*,*,#1238,.F.);
#1240=EDGE_LOOP('',(#1217,#1225,#1233,#1239));
#1241=FACE_OUTER_BOUND('',#1240,.T.);
#1242=ADVANCED_FACE('',(#1241),#1207,.F.);
#1243=CARTESIAN_POINT('',(-7.075,4.075,0.4));
#1244=CARTESIAN_POINT('',(-7.075,4.075,0.0));
#1245=CARTESIAN_POINT('',(-6.675,4.075,0.4));
#1246=CARTESIAN_POINT('',(-6.675,4.075,0.0));
#1247=B_SPLINE_SURFACE_WITH_KNOTS('',1,1,((#1243,#1245),(#1244,#1246)),.UNSPECIFIED.,.F.,.F.,.U.,(2,2),(2,2),(0.0,0.4),(0.0,0.4),.UNSPECIFIED.);
#1248=CARTESIAN_POINT('',(-6.675,4.075,0.0));
#1249=DIRECTION('',(0.0,0.0,1.0));
#1250=VECTOR('',#1249,0.4);
#1251=LINE('',#1248,#1250);
#1252=EDGE_CURVE('',#1179,#1227,#1251,.T.);
#1253=ORIENTED_EDGE('',*,*,#1252,.F.);
#1254=ORIENTED_EDGE('',*,*,#1184,.T.);
#1255=CARTESIAN_POINT('',(-7.075,4.075,0.0));
#1256=DIRECTION('',(0.0,0.0,1.0));
#1257=VECTOR('',#1256,0.4);
#1258=LINE('',#1255,#1257);
#1259=EDGE_CURVE('',#1169,#1211,#1258,.T.);
#1260=ORIENTED_EDGE('',*,*,#1259,.T.);
#1261=ORIENTED_EDGE('',*,*,#1238,.T.);
#1262=EDGE_LOOP('',(#1253,#1254,#1260,#1261));
#1263=FACE_OUTER_BOUND('',#1262,.T.);
#1264=ADVANCED_FACE('',(#1263),#1247,.F.);
#1265=CARTESIAN_POINT('',(-6.675,-4.075,0.0));
#1266=CARTESIAN_POINT('',(-6.675,-4.075,0.4));
#1267=CARTESIAN_POINT('',(-6.675,4.075,0.0));
#1268=CARTESIAN_POINT('',(-6.675,4.075,0.4));
#1269=B_SPLINE_SURFACE_WITH_KNOTS('',1,1,((#1265,#1267),(#1266,#1268)),.UNSPECIFIED.,.F.,.F.,.U.,(2,2),(2,2),(0.0,0.4),(0.0,8.15),.UNSPECIFIED.);
#1270=CARTESIAN_POINT('',(-6.675000000000004,-4.075,0.0));
#1271=DIRECTION('',(0.0,0.0,1.0));
#1272=VECTOR('',#1271,0.4);
#1273=LINE('',#1270,#1272);
#1274=EDGE_CURVE('',#1187,#1219,#1273,.T.);
#1275=ORIENTED_EDGE('',*,*,#1274,.F.);
#1276=ORIENTED_EDGE('',*,*,#1192,.T.);
#1277=ORIENTED_EDGE('',*,*,#1252,.T.);
#1278=ORIENTED_EDGE('',*,*,#1232,.T.);
#1279=EDGE_LOOP('',(#1275,#1276,#1277,#1278));
#1280=FACE_OUTER_BOUND('',#1279,.T.);
#1281=ADVANCED_FACE('',(#1280),#1269,.F.);
#1282=CARTESIAN_POINT('',(-7.075000000000005,-4.075,0.0));
#1283=CARTESIAN_POINT('',(-7.075000000000005,-4.075,0.4));
#1284=CARTESIAN_POINT('',(-6.675000000000004,-4.075,0.0));
#1285=CARTESIAN_POINT('',(-6.675000000000004,-4.075,0.4));
#1286=B_SPLINE_SURFACE_WITH_KNOTS('',1,1,((#1282,#1284),(#1283,#1285)),.UNSPECIFIED.,.F.,.F.,.U.,(2,2),(2,2),(0.0,0.4),(0.0,0.4),.UNSPECIFIED.);
#1287=CARTESIAN_POINT('',(-7.075000000000005,-4.075,0.0));
#1288=DIRECTION('',(0.0,0.0,1.0));
#1289=VECTOR('',#1288,0.4);
#1290=LINE('',#1287,#1289);
#1291=EDGE_CURVE('',#1171,#1209,#1290,.T.);
#1292=ORIENTED_EDGE('',*,*,#1291,.F.);
#1293=ORIENTED_EDGE('',*,*,#1198,.T.);
#1294=ORIENTED_EDGE('',*,*,#1274,.T.);
#1295=ORIENTED_EDGE('',*,*,#1224,.T.);
#1296=EDGE_LOOP('',(#1292,#1293,#1294,#1295));
#1297=FACE_OUTER_BOUND('',#1296,.T.);
#1298=ADVANCED_FACE('',(#1297),#1286,.F.);
#1299=CARTESIAN_POINT('',(-7.075,-4.075,0.4));
#1300=CARTESIAN_POINT('',(-7.075,-4.075,0.0));
#1301=CARTESIAN_POINT('',(-7.075,4.075,0.4));
#1302=CARTESIAN_POINT('',(-7.075,4.075,0.0));
#1303=B_SPLINE_SURFACE_WITH_KNOTS('',1,1,((#1299,#1301),(#1300,#1302)),.UNSPECIFIED.,.F.,.F.,.U.,(2,2),(2,2),(0.0,0.4),(0.0,8.15),.UNSPECIFIED.);
#1304=ORIENTED_EDGE('',*,*,#1259,.F.);
#1305=ORIENTED_EDGE('',*,*,#1176,.T.);
#1306=ORIENTED_EDGE('',*,*,#1291,.T.);
#1307=ORIENTED_EDGE('',*,*,#1216,.T.);
#1308=EDGE_LOOP('',(#1304,#1305,#1306,#1307));
#1309=FACE_OUTER_BOUND('',#1308,.T.);
#1310=ADVANCED_FACE('',(#1309),#1303,.F.);
#1311=CLOSED_SHELL('',(#1202,#1242,#1264,#1281,#1298,#1310));
#1312=MANIFOLD_SOLID_BREP('21AE',#1311);
#1313=STYLED_ITEM('NONE',(#301),#1312);
#1314=ADVANCED_BREP_SHAPE_REPRESENTATION('ABSR1',(#294,#392,#550,#708,#859,#1010,#1161,#1312),#28);
#1315=SHAPE_REPRESENTATION_RELATIONSHIP('SRRPL1','',#1314,#62);
ENDSEC;
END-ISO-10303-21;
