ISO-10303-21;
HEADER;
/* Generated by software containing ST-Developer
 * from STEP Tools, Inc. (www.steptools.com) 
 */

FILE_DESCRIPTION(
/* description */ (''),
/* implementation_level */ '2;1');

FILE_NAME(
/* name */ 'S:\\bcivel\\Altium-Lib\\Compo\\DCDC_EMCO_G04CT.stp',
/* time_stamp */ '2015-09-02T09:07:13+02:00',
/* author */ ('bcivel'),
/* organization */ (''),
/* preprocessor_version */ 'ST-DEVELOPER v15.5',
/* originating_system */ 'AutoCAD Mechanical',
/* authorisation */ '');

FILE_SCHEMA (('AUTOMOTIVE_DESIGN { 1 0 10303 214 3 1 1 }'));
ENDSEC;

DATA;
#10=MECHANICAL_DESIGN_GEOMETRIC_PRESENTATION_REPRESENTATION('',(#137,#143,
#144,#138,#139,#140,#141,#142),#1278);
#11=DIMENSIONAL_EXPONENTS(0.,0.,0.,0.,0.,0.,0.);
#12=(
CONVERSION_BASED_UNIT('degree',#13)
NAMED_UNIT(#11)
PLANE_ANGLE_UNIT()
);
#13=PLANE_ANGLE_MEASURE_WITH_UNIT(PLANE_ANGLE_MEASURE(0.01745329252),#1281);
#14=PRESENTATION_LAYER_ASSIGNMENT('3D','',(#745,#746,#747,#748,#749,#750,
#751,#752));
#15=LINE($,#1104,#75);
#16=LINE($,#1106,#76);
#17=LINE($,#1108,#77);
#18=LINE($,#1109,#78);
#19=LINE($,#1112,#79);
#20=LINE($,#1114,#80);
#21=LINE($,#1115,#81);
#22=LINE($,#1118,#82);
#23=LINE($,#1120,#83);
#24=LINE($,#1121,#84);
#25=LINE($,#1123,#85);
#26=LINE($,#1124,#86);
#27=LINE($,#1130,#87);
#28=LINE($,#1132,#88);
#29=LINE($,#1134,#89);
#30=LINE($,#1135,#90);
#31=LINE($,#1140,#91);
#32=LINE($,#1144,#92);
#33=LINE($,#1146,#93);
#34=LINE($,#1147,#94);
#35=LINE($,#1152,#95);
#36=LINE($,#1156,#96);
#37=LINE($,#1158,#97);
#38=LINE($,#1159,#98);
#39=LINE($,#1164,#99);
#40=LINE($,#1168,#100);
#41=LINE($,#1170,#101);
#42=LINE($,#1171,#102);
#43=LINE($,#1178,#103);
#44=LINE($,#1180,#104);
#45=LINE($,#1182,#105);
#46=LINE($,#1183,#106);
#47=LINE($,#1189,#107);
#48=LINE($,#1192,#108);
#49=LINE($,#1194,#109);
#50=LINE($,#1195,#110);
#51=LINE($,#1201,#111);
#52=LINE($,#1204,#112);
#53=LINE($,#1206,#113);
#54=LINE($,#1207,#114);
#55=LINE($,#1213,#115);
#56=LINE($,#1216,#116);
#57=LINE($,#1218,#117);
#58=LINE($,#1219,#118);
#59=LINE($,#1228,#119);
#60=LINE($,#1230,#120);
#61=LINE($,#1232,#121);
#62=LINE($,#1233,#122);
#63=LINE($,#1239,#123);
#64=LINE($,#1242,#124);
#65=LINE($,#1244,#125);
#66=LINE($,#1245,#126);
#67=LINE($,#1251,#127);
#68=LINE($,#1254,#128);
#69=LINE($,#1256,#129);
#70=LINE($,#1257,#130);
#71=LINE($,#1263,#131);
#72=LINE($,#1266,#132);
#73=LINE($,#1268,#133);
#74=LINE($,#1269,#134);
#75=VECTOR($,#891,38.1);
#76=VECTOR($,#892,16.);
#77=VECTOR($,#893,38.1);
#78=VECTOR($,#894,16.);
#79=VECTOR($,#897,38.1);
#80=VECTOR($,#898,38.1);
#81=VECTOR($,#899,16.);
#82=VECTOR($,#902,38.1);
#83=VECTOR($,#903,38.1);
#84=VECTOR($,#904,16.);
#85=VECTOR($,#907,38.1);
#86=VECTOR($,#908,38.1);
#87=VECTOR($,#915,26.5);
#88=VECTOR($,#916,0.100000000000001);
#89=VECTOR($,#917,26.5);
#90=VECTOR($,#918,0.100000000000001);
#91=VECTOR($,#923,0.100000000000001);
#92=VECTOR($,#928,19.);
#93=VECTOR($,#929,0.100000000000001);
#94=VECTOR($,#930,19.);
#95=VECTOR($,#935,0.100000000000001);
#96=VECTOR($,#940,26.5);
#97=VECTOR($,#941,0.100000000000001);
#98=VECTOR($,#942,26.5);
#99=VECTOR($,#947,0.100000000000001);
#100=VECTOR($,#952,19.);
#101=VECTOR($,#953,0.100000000000001);
#102=VECTOR($,#954,19.);
#103=VECTOR($,#963,30.5);
#104=VECTOR($,#964,0.100000000000001);
#105=VECTOR($,#965,30.5);
#106=VECTOR($,#966,0.100000000000001);
#107=VECTOR($,#973,0.100000000000001);
#108=VECTOR($,#976,23.);
#109=VECTOR($,#977,23.);
#110=VECTOR($,#978,0.100000000000001);
#111=VECTOR($,#985,0.100000000000001);
#112=VECTOR($,#988,30.5);
#113=VECTOR($,#989,30.5);
#114=VECTOR($,#990,0.100000000000001);
#115=VECTOR($,#997,0.100000000000001);
#116=VECTOR($,#1000,23.);
#117=VECTOR($,#1001,23.);
#118=VECTOR($,#1002,0.100000000000001);
#119=VECTOR($,#1015,26.5);
#120=VECTOR($,#1016,0.100000000000001);
#121=VECTOR($,#1017,26.5);
#122=VECTOR($,#1018,0.100000000000001);
#123=VECTOR($,#1025,0.100000000000001);
#124=VECTOR($,#1028,19.);
#125=VECTOR($,#1029,19.);
#126=VECTOR($,#1030,0.100000000000001);
#127=VECTOR($,#1037,0.100000000000001);
#128=VECTOR($,#1040,26.5);
#129=VECTOR($,#1041,26.5);
#130=VECTOR($,#1042,0.100000000000001);
#131=VECTOR($,#1049,0.100000000000001);
#132=VECTOR($,#1052,19.);
#133=VECTOR($,#1053,19.);
#134=VECTOR($,#1054,0.100000000000001);
#135=SHAPE_REPRESENTATION_RELATIONSHIP('SRR','None',#1284,#136);
#136=ADVANCED_BREP_SHAPE_REPRESENTATION($,(#745,#746,#747,#748,#749,#750,
#751,#752),#1277);
#137=STYLED_ITEM($,(#1294),#745);
#138=STYLED_ITEM($,(#1294),#746);
#139=STYLED_ITEM($,(#1294),#747);
#140=STYLED_ITEM($,(#1294),#748);
#141=STYLED_ITEM($,(#1294),#749);
#142=STYLED_ITEM($,(#1295),#750);
#143=STYLED_ITEM($,(#1296),#751);
#144=STYLED_ITEM($,(#1294),#752);
#145=PLANE($,#757);
#146=PLANE($,#758);
#147=PLANE($,#762);
#148=PLANE($,#763);
#149=PLANE($,#767);
#150=PLANE($,#768);
#151=PLANE($,#772);
#152=PLANE($,#773);
#153=PLANE($,#777);
#154=PLANE($,#778);
#155=PLANE($,#779);
#156=PLANE($,#780);
#157=PLANE($,#781);
#158=PLANE($,#782);
#159=PLANE($,#783);
#160=PLANE($,#784);
#161=PLANE($,#785);
#162=PLANE($,#789);
#163=PLANE($,#793);
#164=PLANE($,#797);
#165=PLANE($,#801);
#166=PLANE($,#805);
#167=PLANE($,#809);
#168=PLANE($,#813);
#169=PLANE($,#817);
#170=PLANE($,#818);
#171=PLANE($,#819);
#172=PLANE($,#823);
#173=PLANE($,#827);
#174=PLANE($,#831);
#175=PLANE($,#835);
#176=PLANE($,#836);
#177=FACE_BOUND($,#234,.T.);
#178=FACE_BOUND($,#238,.T.);
#179=FACE_BOUND($,#242,.T.);
#180=FACE_BOUND($,#246,.T.);
#181=FACE_BOUND($,#250,.T.);
#182=FACE_BOUND($,#276,.T.);
#183=FACE_BOUND($,#278,.T.);
#184=FACE_OUTER_BOUND($,#233,.T.);
#185=FACE_OUTER_BOUND($,#235,.T.);
#186=FACE_OUTER_BOUND($,#236,.T.);
#187=FACE_OUTER_BOUND($,#237,.T.);
#188=FACE_OUTER_BOUND($,#239,.T.);
#189=FACE_OUTER_BOUND($,#240,.T.);
#190=FACE_OUTER_BOUND($,#241,.T.);
#191=FACE_OUTER_BOUND($,#243,.T.);
#192=FACE_OUTER_BOUND($,#244,.T.);
#193=FACE_OUTER_BOUND($,#245,.T.);
#194=FACE_OUTER_BOUND($,#247,.T.);
#195=FACE_OUTER_BOUND($,#248,.T.);
#196=FACE_OUTER_BOUND($,#249,.T.);
#197=FACE_OUTER_BOUND($,#251,.T.);
#198=FACE_OUTER_BOUND($,#252,.T.);
#199=FACE_OUTER_BOUND($,#253,.T.);
#200=FACE_OUTER_BOUND($,#254,.T.);
#201=FACE_OUTER_BOUND($,#255,.T.);
#202=FACE_OUTER_BOUND($,#256,.T.);
#203=FACE_OUTER_BOUND($,#257,.T.);
#204=FACE_OUTER_BOUND($,#258,.T.);
#205=FACE_OUTER_BOUND($,#259,.T.);
#206=FACE_OUTER_BOUND($,#260,.T.);
#207=FACE_OUTER_BOUND($,#261,.T.);
#208=FACE_OUTER_BOUND($,#262,.T.);
#209=FACE_OUTER_BOUND($,#263,.T.);
#210=FACE_OUTER_BOUND($,#264,.T.);
#211=FACE_OUTER_BOUND($,#265,.T.);
#212=FACE_OUTER_BOUND($,#266,.T.);
#213=FACE_OUTER_BOUND($,#267,.T.);
#214=FACE_OUTER_BOUND($,#268,.T.);
#215=FACE_OUTER_BOUND($,#269,.T.);
#216=FACE_OUTER_BOUND($,#270,.T.);
#217=FACE_OUTER_BOUND($,#271,.T.);
#218=FACE_OUTER_BOUND($,#272,.T.);
#219=FACE_OUTER_BOUND($,#273,.T.);
#220=FACE_OUTER_BOUND($,#274,.T.);
#221=FACE_OUTER_BOUND($,#275,.T.);
#222=FACE_OUTER_BOUND($,#277,.T.);
#223=FACE_OUTER_BOUND($,#279,.T.);
#224=FACE_OUTER_BOUND($,#280,.T.);
#225=FACE_OUTER_BOUND($,#281,.T.);
#226=FACE_OUTER_BOUND($,#282,.T.);
#227=FACE_OUTER_BOUND($,#283,.T.);
#228=FACE_OUTER_BOUND($,#284,.T.);
#229=FACE_OUTER_BOUND($,#285,.T.);
#230=FACE_OUTER_BOUND($,#286,.T.);
#231=FACE_OUTER_BOUND($,#287,.T.);
#232=FACE_OUTER_BOUND($,#288,.T.);
#233=EDGE_LOOP($,(#483));
#234=EDGE_LOOP($,(#484));
#235=EDGE_LOOP($,(#485));
#236=EDGE_LOOP($,(#486));
#237=EDGE_LOOP($,(#487));
#238=EDGE_LOOP($,(#488));
#239=EDGE_LOOP($,(#489));
#240=EDGE_LOOP($,(#490));
#241=EDGE_LOOP($,(#491));
#242=EDGE_LOOP($,(#492));
#243=EDGE_LOOP($,(#493));
#244=EDGE_LOOP($,(#494));
#245=EDGE_LOOP($,(#495));
#246=EDGE_LOOP($,(#496));
#247=EDGE_LOOP($,(#497));
#248=EDGE_LOOP($,(#498));
#249=EDGE_LOOP($,(#499));
#250=EDGE_LOOP($,(#500));
#251=EDGE_LOOP($,(#501));
#252=EDGE_LOOP($,(#502));
#253=EDGE_LOOP($,(#503,#504,#505,#506));
#254=EDGE_LOOP($,(#507,#508,#509,#510));
#255=EDGE_LOOP($,(#511,#512,#513,#514));
#256=EDGE_LOOP($,(#515,#516,#517,#518));
#257=EDGE_LOOP($,(#519,#520,#521,#522));
#258=EDGE_LOOP($,(#523,#524,#525,#526));
#259=EDGE_LOOP($,(#527,#528,#529,#530));
#260=EDGE_LOOP($,(#531,#532,#533,#534));
#261=EDGE_LOOP($,(#535,#536,#537,#538));
#262=EDGE_LOOP($,(#539,#540,#541,#542));
#263=EDGE_LOOP($,(#543,#544,#545,#546));
#264=EDGE_LOOP($,(#547,#548,#549,#550));
#265=EDGE_LOOP($,(#551,#552,#553,#554));
#266=EDGE_LOOP($,(#555,#556,#557,#558));
#267=EDGE_LOOP($,(#559,#560,#561,#562));
#268=EDGE_LOOP($,(#563,#564,#565,#566));
#269=EDGE_LOOP($,(#567,#568,#569,#570));
#270=EDGE_LOOP($,(#571,#572,#573,#574));
#271=EDGE_LOOP($,(#575,#576,#577,#578));
#272=EDGE_LOOP($,(#579,#580,#581,#582));
#273=EDGE_LOOP($,(#583,#584,#585,#586));
#274=EDGE_LOOP($,(#587,#588,#589,#590));
#275=EDGE_LOOP($,(#591,#592,#593,#594,#595,#596,#597,#598));
#276=EDGE_LOOP($,(#599,#600,#601,#602,#603,#604,#605,#606));
#277=EDGE_LOOP($,(#607,#608,#609,#610,#611,#612,#613,#614));
#278=EDGE_LOOP($,(#615,#616,#617,#618,#619,#620,#621,#622));
#279=EDGE_LOOP($,(#623,#624,#625,#626));
#280=EDGE_LOOP($,(#627,#628,#629,#630));
#281=EDGE_LOOP($,(#631,#632,#633,#634));
#282=EDGE_LOOP($,(#635,#636,#637,#638));
#283=EDGE_LOOP($,(#639,#640,#641,#642));
#284=EDGE_LOOP($,(#643,#644,#645,#646));
#285=EDGE_LOOP($,(#647,#648,#649,#650));
#286=EDGE_LOOP($,(#651,#652,#653,#654));
#287=EDGE_LOOP($,(#655,#656,#657,#658,#659,#660,#661,#662));
#288=EDGE_LOOP($,(#663,#664,#665,#666,#667,#668,#669,#670));
#289=CIRCLE($,#755,0.4);
#290=CIRCLE($,#756,0.4);
#291=CIRCLE($,#760,0.4);
#292=CIRCLE($,#761,0.4);
#293=CIRCLE($,#765,0.4);
#294=CIRCLE($,#766,0.4);
#295=CIRCLE($,#770,0.4);
#296=CIRCLE($,#771,0.4);
#297=CIRCLE($,#775,0.4);
#298=CIRCLE($,#776,0.4);
#299=CIRCLE($,#787,1.);
#300=CIRCLE($,#788,1.);
#301=CIRCLE($,#791,0.999999999999998);
#302=CIRCLE($,#792,0.999999999999998);
#303=CIRCLE($,#795,1.);
#304=CIRCLE($,#796,1.);
#305=CIRCLE($,#799,1.00000000000001);
#306=CIRCLE($,#800,1.00000000000001);
#307=CIRCLE($,#803,1.);
#308=CIRCLE($,#804,1.);
#309=CIRCLE($,#807,0.999999999999998);
#310=CIRCLE($,#808,0.999999999999998);
#311=CIRCLE($,#811,1.);
#312=CIRCLE($,#812,1.);
#313=CIRCLE($,#815,1.00000000000001);
#314=CIRCLE($,#816,1.00000000000001);
#315=CIRCLE($,#821,1.);
#316=CIRCLE($,#822,1.);
#317=CIRCLE($,#825,0.999999999999998);
#318=CIRCLE($,#826,0.999999999999998);
#319=CIRCLE($,#829,1.);
#320=CIRCLE($,#830,1.);
#321=CIRCLE($,#833,1.00000000000001);
#322=CIRCLE($,#834,1.00000000000001);
#323=VERTEX_POINT($,#1067);
#324=VERTEX_POINT($,#1069);
#325=VERTEX_POINT($,#1074);
#326=VERTEX_POINT($,#1076);
#327=VERTEX_POINT($,#1081);
#328=VERTEX_POINT($,#1083);
#329=VERTEX_POINT($,#1088);
#330=VERTEX_POINT($,#1090);
#331=VERTEX_POINT($,#1095);
#332=VERTEX_POINT($,#1097);
#333=VERTEX_POINT($,#1102);
#334=VERTEX_POINT($,#1103);
#335=VERTEX_POINT($,#1105);
#336=VERTEX_POINT($,#1107);
#337=VERTEX_POINT($,#1111);
#338=VERTEX_POINT($,#1113);
#339=VERTEX_POINT($,#1117);
#340=VERTEX_POINT($,#1119);
#341=VERTEX_POINT($,#1128);
#342=VERTEX_POINT($,#1129);
#343=VERTEX_POINT($,#1131);
#344=VERTEX_POINT($,#1133);
#345=VERTEX_POINT($,#1137);
#346=VERTEX_POINT($,#1139);
#347=VERTEX_POINT($,#1143);
#348=VERTEX_POINT($,#1145);
#349=VERTEX_POINT($,#1149);
#350=VERTEX_POINT($,#1151);
#351=VERTEX_POINT($,#1155);
#352=VERTEX_POINT($,#1157);
#353=VERTEX_POINT($,#1161);
#354=VERTEX_POINT($,#1163);
#355=VERTEX_POINT($,#1167);
#356=VERTEX_POINT($,#1169);
#357=VERTEX_POINT($,#1176);
#358=VERTEX_POINT($,#1177);
#359=VERTEX_POINT($,#1179);
#360=VERTEX_POINT($,#1181);
#361=VERTEX_POINT($,#1185);
#362=VERTEX_POINT($,#1187);
#363=VERTEX_POINT($,#1191);
#364=VERTEX_POINT($,#1193);
#365=VERTEX_POINT($,#1197);
#366=VERTEX_POINT($,#1199);
#367=VERTEX_POINT($,#1203);
#368=VERTEX_POINT($,#1205);
#369=VERTEX_POINT($,#1209);
#370=VERTEX_POINT($,#1211);
#371=VERTEX_POINT($,#1215);
#372=VERTEX_POINT($,#1217);
#373=VERTEX_POINT($,#1226);
#374=VERTEX_POINT($,#1227);
#375=VERTEX_POINT($,#1229);
#376=VERTEX_POINT($,#1231);
#377=VERTEX_POINT($,#1235);
#378=VERTEX_POINT($,#1237);
#379=VERTEX_POINT($,#1241);
#380=VERTEX_POINT($,#1243);
#381=VERTEX_POINT($,#1247);
#382=VERTEX_POINT($,#1249);
#383=VERTEX_POINT($,#1253);
#384=VERTEX_POINT($,#1255);
#385=VERTEX_POINT($,#1259);
#386=VERTEX_POINT($,#1261);
#387=VERTEX_POINT($,#1265);
#388=VERTEX_POINT($,#1267);
#389=EDGE_CURVE($,#323,#323,#289,.T.);
#390=EDGE_CURVE($,#324,#324,#290,.T.);
#391=EDGE_CURVE($,#325,#325,#291,.T.);
#392=EDGE_CURVE($,#326,#326,#292,.T.);
#393=EDGE_CURVE($,#327,#327,#293,.T.);
#394=EDGE_CURVE($,#328,#328,#294,.T.);
#395=EDGE_CURVE($,#329,#329,#295,.T.);
#396=EDGE_CURVE($,#330,#330,#296,.T.);
#397=EDGE_CURVE($,#331,#331,#297,.T.);
#398=EDGE_CURVE($,#332,#332,#298,.T.);
#399=EDGE_CURVE($,#333,#334,#15,.T.);
#400=EDGE_CURVE($,#333,#335,#16,.T.);
#401=EDGE_CURVE($,#336,#335,#17,.T.);
#402=EDGE_CURVE($,#334,#336,#18,.T.);
#403=EDGE_CURVE($,#334,#337,#19,.T.);
#404=EDGE_CURVE($,#338,#336,#20,.T.);
#405=EDGE_CURVE($,#337,#338,#21,.T.);
#406=EDGE_CURVE($,#337,#339,#22,.T.);
#407=EDGE_CURVE($,#340,#338,#23,.T.);
#408=EDGE_CURVE($,#339,#340,#24,.T.);
#409=EDGE_CURVE($,#339,#333,#25,.T.);
#410=EDGE_CURVE($,#335,#340,#26,.T.);
#411=EDGE_CURVE($,#341,#342,#27,.T.);
#412=EDGE_CURVE($,#341,#343,#28,.T.);
#413=EDGE_CURVE($,#344,#343,#29,.T.);
#414=EDGE_CURVE($,#342,#344,#30,.T.);
#415=EDGE_CURVE($,#345,#341,#299,.T.);
#416=EDGE_CURVE($,#345,#346,#31,.T.);
#417=EDGE_CURVE($,#343,#346,#300,.T.);
#418=EDGE_CURVE($,#347,#345,#32,.T.);
#419=EDGE_CURVE($,#347,#348,#33,.T.);
#420=EDGE_CURVE($,#346,#348,#34,.T.);
#421=EDGE_CURVE($,#349,#347,#301,.T.);
#422=EDGE_CURVE($,#349,#350,#35,.T.);
#423=EDGE_CURVE($,#348,#350,#302,.T.);
#424=EDGE_CURVE($,#351,#349,#36,.T.);
#425=EDGE_CURVE($,#351,#352,#37,.T.);
#426=EDGE_CURVE($,#350,#352,#38,.T.);
#427=EDGE_CURVE($,#353,#351,#303,.T.);
#428=EDGE_CURVE($,#353,#354,#39,.T.);
#429=EDGE_CURVE($,#352,#354,#304,.T.);
#430=EDGE_CURVE($,#355,#353,#40,.T.);
#431=EDGE_CURVE($,#355,#356,#41,.T.);
#432=EDGE_CURVE($,#354,#356,#42,.T.);
#433=EDGE_CURVE($,#342,#355,#305,.T.);
#434=EDGE_CURVE($,#356,#344,#306,.T.);
#435=EDGE_CURVE($,#357,#358,#43,.T.);
#436=EDGE_CURVE($,#357,#359,#44,.T.);
#437=EDGE_CURVE($,#360,#359,#45,.T.);
#438=EDGE_CURVE($,#358,#360,#46,.T.);
#439=EDGE_CURVE($,#358,#361,#307,.T.);
#440=EDGE_CURVE($,#362,#360,#308,.T.);
#441=EDGE_CURVE($,#361,#362,#47,.T.);
#442=EDGE_CURVE($,#361,#363,#48,.T.);
#443=EDGE_CURVE($,#364,#362,#49,.T.);
#444=EDGE_CURVE($,#363,#364,#50,.T.);
#445=EDGE_CURVE($,#363,#365,#309,.T.);
#446=EDGE_CURVE($,#366,#364,#310,.T.);
#447=EDGE_CURVE($,#365,#366,#51,.T.);
#448=EDGE_CURVE($,#365,#367,#52,.T.);
#449=EDGE_CURVE($,#368,#366,#53,.T.);
#450=EDGE_CURVE($,#367,#368,#54,.T.);
#451=EDGE_CURVE($,#367,#369,#311,.T.);
#452=EDGE_CURVE($,#370,#368,#312,.T.);
#453=EDGE_CURVE($,#369,#370,#55,.T.);
#454=EDGE_CURVE($,#369,#371,#56,.T.);
#455=EDGE_CURVE($,#372,#370,#57,.T.);
#456=EDGE_CURVE($,#371,#372,#58,.T.);
#457=EDGE_CURVE($,#371,#357,#313,.T.);
#458=EDGE_CURVE($,#359,#372,#314,.T.);
#459=EDGE_CURVE($,#373,#374,#59,.T.);
#460=EDGE_CURVE($,#373,#375,#60,.T.);
#461=EDGE_CURVE($,#376,#375,#61,.T.);
#462=EDGE_CURVE($,#374,#376,#62,.T.);
#463=EDGE_CURVE($,#374,#377,#315,.T.);
#464=EDGE_CURVE($,#378,#376,#316,.T.);
#465=EDGE_CURVE($,#377,#378,#63,.T.);
#466=EDGE_CURVE($,#377,#379,#64,.T.);
#467=EDGE_CURVE($,#380,#378,#65,.T.);
#468=EDGE_CURVE($,#379,#380,#66,.T.);
#469=EDGE_CURVE($,#379,#381,#317,.T.);
#470=EDGE_CURVE($,#382,#380,#318,.T.);
#471=EDGE_CURVE($,#381,#382,#67,.T.);
#472=EDGE_CURVE($,#381,#383,#68,.T.);
#473=EDGE_CURVE($,#384,#382,#69,.T.);
#474=EDGE_CURVE($,#383,#384,#70,.T.);
#475=EDGE_CURVE($,#383,#385,#319,.T.);
#476=EDGE_CURVE($,#386,#384,#320,.T.);
#477=EDGE_CURVE($,#385,#386,#71,.T.);
#478=EDGE_CURVE($,#385,#387,#72,.T.);
#479=EDGE_CURVE($,#388,#386,#73,.T.);
#480=EDGE_CURVE($,#387,#388,#74,.T.);
#481=EDGE_CURVE($,#387,#373,#321,.T.);
#482=EDGE_CURVE($,#375,#388,#322,.T.);
#483=ORIENTED_EDGE($,*,*,#389,.F.);
#484=ORIENTED_EDGE($,*,*,#390,.F.);
#485=ORIENTED_EDGE($,*,*,#390,.T.);
#486=ORIENTED_EDGE($,*,*,#389,.T.);
#487=ORIENTED_EDGE($,*,*,#391,.F.);
#488=ORIENTED_EDGE($,*,*,#392,.F.);
#489=ORIENTED_EDGE($,*,*,#392,.T.);
#490=ORIENTED_EDGE($,*,*,#391,.T.);
#491=ORIENTED_EDGE($,*,*,#393,.F.);
#492=ORIENTED_EDGE($,*,*,#394,.F.);
#493=ORIENTED_EDGE($,*,*,#394,.T.);
#494=ORIENTED_EDGE($,*,*,#393,.T.);
#495=ORIENTED_EDGE($,*,*,#395,.F.);
#496=ORIENTED_EDGE($,*,*,#396,.F.);
#497=ORIENTED_EDGE($,*,*,#396,.T.);
#498=ORIENTED_EDGE($,*,*,#395,.T.);
#499=ORIENTED_EDGE($,*,*,#397,.F.);
#500=ORIENTED_EDGE($,*,*,#398,.F.);
#501=ORIENTED_EDGE($,*,*,#398,.T.);
#502=ORIENTED_EDGE($,*,*,#397,.T.);
#503=ORIENTED_EDGE($,*,*,#399,.F.);
#504=ORIENTED_EDGE($,*,*,#400,.T.);
#505=ORIENTED_EDGE($,*,*,#401,.F.);
#506=ORIENTED_EDGE($,*,*,#402,.F.);
#507=ORIENTED_EDGE($,*,*,#403,.F.);
#508=ORIENTED_EDGE($,*,*,#402,.T.);
#509=ORIENTED_EDGE($,*,*,#404,.F.);
#510=ORIENTED_EDGE($,*,*,#405,.F.);
#511=ORIENTED_EDGE($,*,*,#406,.F.);
#512=ORIENTED_EDGE($,*,*,#405,.T.);
#513=ORIENTED_EDGE($,*,*,#407,.F.);
#514=ORIENTED_EDGE($,*,*,#408,.F.);
#515=ORIENTED_EDGE($,*,*,#409,.F.);
#516=ORIENTED_EDGE($,*,*,#408,.T.);
#517=ORIENTED_EDGE($,*,*,#410,.F.);
#518=ORIENTED_EDGE($,*,*,#400,.F.);
#519=ORIENTED_EDGE($,*,*,#409,.T.);
#520=ORIENTED_EDGE($,*,*,#399,.T.);
#521=ORIENTED_EDGE($,*,*,#403,.T.);
#522=ORIENTED_EDGE($,*,*,#406,.T.);
#523=ORIENTED_EDGE($,*,*,#410,.T.);
#524=ORIENTED_EDGE($,*,*,#407,.T.);
#525=ORIENTED_EDGE($,*,*,#404,.T.);
#526=ORIENTED_EDGE($,*,*,#401,.T.);
#527=ORIENTED_EDGE($,*,*,#411,.F.);
#528=ORIENTED_EDGE($,*,*,#412,.T.);
#529=ORIENTED_EDGE($,*,*,#413,.F.);
#530=ORIENTED_EDGE($,*,*,#414,.F.);
#531=ORIENTED_EDGE($,*,*,#415,.F.);
#532=ORIENTED_EDGE($,*,*,#416,.T.);
#533=ORIENTED_EDGE($,*,*,#417,.F.);
#534=ORIENTED_EDGE($,*,*,#412,.F.);
#535=ORIENTED_EDGE($,*,*,#418,.F.);
#536=ORIENTED_EDGE($,*,*,#419,.T.);
#537=ORIENTED_EDGE($,*,*,#420,.F.);
#538=ORIENTED_EDGE($,*,*,#416,.F.);
#539=ORIENTED_EDGE($,*,*,#421,.F.);
#540=ORIENTED_EDGE($,*,*,#422,.T.);
#541=ORIENTED_EDGE($,*,*,#423,.F.);
#542=ORIENTED_EDGE($,*,*,#419,.F.);
#543=ORIENTED_EDGE($,*,*,#424,.F.);
#544=ORIENTED_EDGE($,*,*,#425,.T.);
#545=ORIENTED_EDGE($,*,*,#426,.F.);
#546=ORIENTED_EDGE($,*,*,#422,.F.);
#547=ORIENTED_EDGE($,*,*,#427,.F.);
#548=ORIENTED_EDGE($,*,*,#428,.T.);
#549=ORIENTED_EDGE($,*,*,#429,.F.);
#550=ORIENTED_EDGE($,*,*,#425,.F.);
#551=ORIENTED_EDGE($,*,*,#430,.F.);
#552=ORIENTED_EDGE($,*,*,#431,.T.);
#553=ORIENTED_EDGE($,*,*,#432,.F.);
#554=ORIENTED_EDGE($,*,*,#428,.F.);
#555=ORIENTED_EDGE($,*,*,#433,.F.);
#556=ORIENTED_EDGE($,*,*,#414,.T.);
#557=ORIENTED_EDGE($,*,*,#434,.F.);
#558=ORIENTED_EDGE($,*,*,#431,.F.);
#559=ORIENTED_EDGE($,*,*,#435,.F.);
#560=ORIENTED_EDGE($,*,*,#436,.T.);
#561=ORIENTED_EDGE($,*,*,#437,.F.);
#562=ORIENTED_EDGE($,*,*,#438,.F.);
#563=ORIENTED_EDGE($,*,*,#439,.F.);
#564=ORIENTED_EDGE($,*,*,#438,.T.);
#565=ORIENTED_EDGE($,*,*,#440,.F.);
#566=ORIENTED_EDGE($,*,*,#441,.F.);
#567=ORIENTED_EDGE($,*,*,#442,.F.);
#568=ORIENTED_EDGE($,*,*,#441,.T.);
#569=ORIENTED_EDGE($,*,*,#443,.F.);
#570=ORIENTED_EDGE($,*,*,#444,.F.);
#571=ORIENTED_EDGE($,*,*,#445,.F.);
#572=ORIENTED_EDGE($,*,*,#444,.T.);
#573=ORIENTED_EDGE($,*,*,#446,.F.);
#574=ORIENTED_EDGE($,*,*,#447,.F.);
#575=ORIENTED_EDGE($,*,*,#448,.F.);
#576=ORIENTED_EDGE($,*,*,#447,.T.);
#577=ORIENTED_EDGE($,*,*,#449,.F.);
#578=ORIENTED_EDGE($,*,*,#450,.F.);
#579=ORIENTED_EDGE($,*,*,#451,.F.);
#580=ORIENTED_EDGE($,*,*,#450,.T.);
#581=ORIENTED_EDGE($,*,*,#452,.F.);
#582=ORIENTED_EDGE($,*,*,#453,.F.);
#583=ORIENTED_EDGE($,*,*,#454,.F.);
#584=ORIENTED_EDGE($,*,*,#453,.T.);
#585=ORIENTED_EDGE($,*,*,#455,.F.);
#586=ORIENTED_EDGE($,*,*,#456,.F.);
#587=ORIENTED_EDGE($,*,*,#457,.F.);
#588=ORIENTED_EDGE($,*,*,#456,.T.);
#589=ORIENTED_EDGE($,*,*,#458,.F.);
#590=ORIENTED_EDGE($,*,*,#436,.F.);
#591=ORIENTED_EDGE($,*,*,#457,.T.);
#592=ORIENTED_EDGE($,*,*,#435,.T.);
#593=ORIENTED_EDGE($,*,*,#439,.T.);
#594=ORIENTED_EDGE($,*,*,#442,.T.);
#595=ORIENTED_EDGE($,*,*,#445,.T.);
#596=ORIENTED_EDGE($,*,*,#448,.T.);
#597=ORIENTED_EDGE($,*,*,#451,.T.);
#598=ORIENTED_EDGE($,*,*,#454,.T.);
#599=ORIENTED_EDGE($,*,*,#411,.T.);
#600=ORIENTED_EDGE($,*,*,#433,.T.);
#601=ORIENTED_EDGE($,*,*,#430,.T.);
#602=ORIENTED_EDGE($,*,*,#427,.T.);
#603=ORIENTED_EDGE($,*,*,#424,.T.);
#604=ORIENTED_EDGE($,*,*,#421,.T.);
#605=ORIENTED_EDGE($,*,*,#418,.T.);
#606=ORIENTED_EDGE($,*,*,#415,.T.);
#607=ORIENTED_EDGE($,*,*,#458,.T.);
#608=ORIENTED_EDGE($,*,*,#455,.T.);
#609=ORIENTED_EDGE($,*,*,#452,.T.);
#610=ORIENTED_EDGE($,*,*,#449,.T.);
#611=ORIENTED_EDGE($,*,*,#446,.T.);
#612=ORIENTED_EDGE($,*,*,#443,.T.);
#613=ORIENTED_EDGE($,*,*,#440,.T.);
#614=ORIENTED_EDGE($,*,*,#437,.T.);
#615=ORIENTED_EDGE($,*,*,#413,.T.);
#616=ORIENTED_EDGE($,*,*,#417,.T.);
#617=ORIENTED_EDGE($,*,*,#420,.T.);
#618=ORIENTED_EDGE($,*,*,#423,.T.);
#619=ORIENTED_EDGE($,*,*,#426,.T.);
#620=ORIENTED_EDGE($,*,*,#429,.T.);
#621=ORIENTED_EDGE($,*,*,#432,.T.);
#622=ORIENTED_EDGE($,*,*,#434,.T.);
#623=ORIENTED_EDGE($,*,*,#459,.F.);
#624=ORIENTED_EDGE($,*,*,#460,.T.);
#625=ORIENTED_EDGE($,*,*,#461,.F.);
#626=ORIENTED_EDGE($,*,*,#462,.F.);
#627=ORIENTED_EDGE($,*,*,#463,.F.);
#628=ORIENTED_EDGE($,*,*,#462,.T.);
#629=ORIENTED_EDGE($,*,*,#464,.F.);
#630=ORIENTED_EDGE($,*,*,#465,.F.);
#631=ORIENTED_EDGE($,*,*,#466,.F.);
#632=ORIENTED_EDGE($,*,*,#465,.T.);
#633=ORIENTED_EDGE($,*,*,#467,.F.);
#634=ORIENTED_EDGE($,*,*,#468,.F.);
#635=ORIENTED_EDGE($,*,*,#469,.F.);
#636=ORIENTED_EDGE($,*,*,#468,.T.);
#637=ORIENTED_EDGE($,*,*,#470,.F.);
#638=ORIENTED_EDGE($,*,*,#471,.F.);
#639=ORIENTED_EDGE($,*,*,#472,.F.);
#640=ORIENTED_EDGE($,*,*,#471,.T.);
#641=ORIENTED_EDGE($,*,*,#473,.F.);
#642=ORIENTED_EDGE($,*,*,#474,.F.);
#643=ORIENTED_EDGE($,*,*,#475,.F.);
#644=ORIENTED_EDGE($,*,*,#474,.T.);
#645=ORIENTED_EDGE($,*,*,#476,.F.);
#646=ORIENTED_EDGE($,*,*,#477,.F.);
#647=ORIENTED_EDGE($,*,*,#478,.F.);
#648=ORIENTED_EDGE($,*,*,#477,.T.);
#649=ORIENTED_EDGE($,*,*,#479,.F.);
#650=ORIENTED_EDGE($,*,*,#480,.F.);
#651=ORIENTED_EDGE($,*,*,#481,.F.);
#652=ORIENTED_EDGE($,*,*,#480,.T.);
#653=ORIENTED_EDGE($,*,*,#482,.F.);
#654=ORIENTED_EDGE($,*,*,#460,.F.);
#655=ORIENTED_EDGE($,*,*,#481,.T.);
#656=ORIENTED_EDGE($,*,*,#459,.T.);
#657=ORIENTED_EDGE($,*,*,#463,.T.);
#658=ORIENTED_EDGE($,*,*,#466,.T.);
#659=ORIENTED_EDGE($,*,*,#469,.T.);
#660=ORIENTED_EDGE($,*,*,#472,.T.);
#661=ORIENTED_EDGE($,*,*,#475,.T.);
#662=ORIENTED_EDGE($,*,*,#478,.T.);
#663=ORIENTED_EDGE($,*,*,#482,.T.);
#664=ORIENTED_EDGE($,*,*,#479,.T.);
#665=ORIENTED_EDGE($,*,*,#476,.T.);
#666=ORIENTED_EDGE($,*,*,#473,.T.);
#667=ORIENTED_EDGE($,*,*,#470,.T.);
#668=ORIENTED_EDGE($,*,*,#467,.T.);
#669=ORIENTED_EDGE($,*,*,#464,.T.);
#670=ORIENTED_EDGE($,*,*,#461,.T.);
#671=CYLINDRICAL_SURFACE($,#754,0.4);
#672=CYLINDRICAL_SURFACE($,#759,0.4);
#673=CYLINDRICAL_SURFACE($,#764,0.4);
#674=CYLINDRICAL_SURFACE($,#769,0.4);
#675=CYLINDRICAL_SURFACE($,#774,0.4);
#676=CYLINDRICAL_SURFACE($,#786,1.);
#677=CYLINDRICAL_SURFACE($,#790,0.999999999999998);
#678=CYLINDRICAL_SURFACE($,#794,1.);
#679=CYLINDRICAL_SURFACE($,#798,1.00000000000001);
#680=CYLINDRICAL_SURFACE($,#802,1.);
#681=CYLINDRICAL_SURFACE($,#806,0.999999999999998);
#682=CYLINDRICAL_SURFACE($,#810,1.);
#683=CYLINDRICAL_SURFACE($,#814,1.00000000000001);
#684=CYLINDRICAL_SURFACE($,#820,1.);
#685=CYLINDRICAL_SURFACE($,#824,0.999999999999998);
#686=CYLINDRICAL_SURFACE($,#828,1.);
#687=CYLINDRICAL_SURFACE($,#832,1.00000000000001);
#688=ADVANCED_FACE($,(#184,#177),#671,.T.);
#689=ADVANCED_FACE($,(#185),#145,.T.);
#690=ADVANCED_FACE($,(#186),#146,.F.);
#691=ADVANCED_FACE($,(#187,#178),#672,.T.);
#692=ADVANCED_FACE($,(#188),#147,.T.);
#693=ADVANCED_FACE($,(#189),#148,.F.);
#694=ADVANCED_FACE($,(#190,#179),#673,.T.);
#695=ADVANCED_FACE($,(#191),#149,.T.);
#696=ADVANCED_FACE($,(#192),#150,.F.);
#697=ADVANCED_FACE($,(#193,#180),#674,.T.);
#698=ADVANCED_FACE($,(#194),#151,.T.);
#699=ADVANCED_FACE($,(#195),#152,.F.);
#700=ADVANCED_FACE($,(#196,#181),#675,.T.);
#701=ADVANCED_FACE($,(#197),#153,.T.);
#702=ADVANCED_FACE($,(#198),#154,.F.);
#703=ADVANCED_FACE($,(#199),#155,.T.);
#704=ADVANCED_FACE($,(#200),#156,.T.);
#705=ADVANCED_FACE($,(#201),#157,.T.);
#706=ADVANCED_FACE($,(#202),#158,.T.);
#707=ADVANCED_FACE($,(#203),#159,.F.);
#708=ADVANCED_FACE($,(#204),#160,.T.);
#709=ADVANCED_FACE($,(#205),#161,.F.);
#710=ADVANCED_FACE($,(#206),#676,.F.);
#711=ADVANCED_FACE($,(#207),#162,.F.);
#712=ADVANCED_FACE($,(#208),#677,.F.);
#713=ADVANCED_FACE($,(#209),#163,.F.);
#714=ADVANCED_FACE($,(#210),#678,.F.);
#715=ADVANCED_FACE($,(#211),#164,.F.);
#716=ADVANCED_FACE($,(#212),#679,.F.);
#717=ADVANCED_FACE($,(#213),#165,.T.);
#718=ADVANCED_FACE($,(#214),#680,.T.);
#719=ADVANCED_FACE($,(#215),#166,.T.);
#720=ADVANCED_FACE($,(#216),#681,.T.);
#721=ADVANCED_FACE($,(#217),#167,.T.);
#722=ADVANCED_FACE($,(#218),#682,.T.);
#723=ADVANCED_FACE($,(#219),#168,.T.);
#724=ADVANCED_FACE($,(#220),#683,.T.);
#725=ADVANCED_FACE($,(#221,#182),#169,.T.);
#726=ADVANCED_FACE($,(#222,#183),#170,.F.);
#727=ADVANCED_FACE($,(#223),#171,.T.);
#728=ADVANCED_FACE($,(#224),#684,.T.);
#729=ADVANCED_FACE($,(#225),#172,.T.);
#730=ADVANCED_FACE($,(#226),#685,.T.);
#731=ADVANCED_FACE($,(#227),#173,.T.);
#732=ADVANCED_FACE($,(#228),#686,.T.);
#733=ADVANCED_FACE($,(#229),#174,.T.);
#734=ADVANCED_FACE($,(#230),#687,.T.);
#735=ADVANCED_FACE($,(#231),#175,.T.);
#736=ADVANCED_FACE($,(#232),#176,.F.);
#737=CLOSED_SHELL($,(#688,#689,#690));
#738=CLOSED_SHELL($,(#691,#692,#693));
#739=CLOSED_SHELL($,(#694,#695,#696));
#740=CLOSED_SHELL($,(#697,#698,#699));
#741=CLOSED_SHELL($,(#700,#701,#702));
#742=CLOSED_SHELL($,(#703,#704,#705,#706,#707,#708));
#743=CLOSED_SHELL($,(#709,#710,#711,#712,#713,#714,#715,#716,#717,#718,
#719,#720,#721,#722,#723,#724,#725,#726));
#744=CLOSED_SHELL($,(#727,#728,#729,#730,#731,#732,#733,#734,#735,#736));
#745=MANIFOLD_SOLID_BREP('F80',#737);
#746=MANIFOLD_SOLID_BREP('F84',#738);
#747=MANIFOLD_SOLID_BREP('F88',#739);
#748=MANIFOLD_SOLID_BREP('F8C',#740);
#749=MANIFOLD_SOLID_BREP('F90',#741);
#750=MANIFOLD_SOLID_BREP('F9D',#742);
#751=MANIFOLD_SOLID_BREP('1008',#743);
#752=MANIFOLD_SOLID_BREP('1039',#744);
#753=AXIS2_PLACEMENT_3D('placement',#1065,#837,#838);
#754=AXIS2_PLACEMENT_3D($,#1066,#839,#840);
#755=AXIS2_PLACEMENT_3D($,#1068,#841,#842);
#756=AXIS2_PLACEMENT_3D($,#1070,#843,#844);
#757=AXIS2_PLACEMENT_3D($,#1071,#845,#846);
#758=AXIS2_PLACEMENT_3D($,#1072,#847,#848);
#759=AXIS2_PLACEMENT_3D($,#1073,#849,#850);
#760=AXIS2_PLACEMENT_3D($,#1075,#851,#852);
#761=AXIS2_PLACEMENT_3D($,#1077,#853,#854);
#762=AXIS2_PLACEMENT_3D($,#1078,#855,#856);
#763=AXIS2_PLACEMENT_3D($,#1079,#857,#858);
#764=AXIS2_PLACEMENT_3D($,#1080,#859,#860);
#765=AXIS2_PLACEMENT_3D($,#1082,#861,#862);
#766=AXIS2_PLACEMENT_3D($,#1084,#863,#864);
#767=AXIS2_PLACEMENT_3D($,#1085,#865,#866);
#768=AXIS2_PLACEMENT_3D($,#1086,#867,#868);
#769=AXIS2_PLACEMENT_3D($,#1087,#869,#870);
#770=AXIS2_PLACEMENT_3D($,#1089,#871,#872);
#771=AXIS2_PLACEMENT_3D($,#1091,#873,#874);
#772=AXIS2_PLACEMENT_3D($,#1092,#875,#876);
#773=AXIS2_PLACEMENT_3D($,#1093,#877,#878);
#774=AXIS2_PLACEMENT_3D($,#1094,#879,#880);
#775=AXIS2_PLACEMENT_3D($,#1096,#881,#882);
#776=AXIS2_PLACEMENT_3D($,#1098,#883,#884);
#777=AXIS2_PLACEMENT_3D($,#1099,#885,#886);
#778=AXIS2_PLACEMENT_3D($,#1100,#887,#888);
#779=AXIS2_PLACEMENT_3D($,#1101,#889,#890);
#780=AXIS2_PLACEMENT_3D($,#1110,#895,#896);
#781=AXIS2_PLACEMENT_3D($,#1116,#900,#901);
#782=AXIS2_PLACEMENT_3D($,#1122,#905,#906);
#783=AXIS2_PLACEMENT_3D($,#1125,#909,#910);
#784=AXIS2_PLACEMENT_3D($,#1126,#911,#912);
#785=AXIS2_PLACEMENT_3D($,#1127,#913,#914);
#786=AXIS2_PLACEMENT_3D($,#1136,#919,#920);
#787=AXIS2_PLACEMENT_3D($,#1138,#921,#922);
#788=AXIS2_PLACEMENT_3D($,#1141,#924,#925);
#789=AXIS2_PLACEMENT_3D($,#1142,#926,#927);
#790=AXIS2_PLACEMENT_3D($,#1148,#931,#932);
#791=AXIS2_PLACEMENT_3D($,#1150,#933,#934);
#792=AXIS2_PLACEMENT_3D($,#1153,#936,#937);
#793=AXIS2_PLACEMENT_3D($,#1154,#938,#939);
#794=AXIS2_PLACEMENT_3D($,#1160,#943,#944);
#795=AXIS2_PLACEMENT_3D($,#1162,#945,#946);
#796=AXIS2_PLACEMENT_3D($,#1165,#948,#949);
#797=AXIS2_PLACEMENT_3D($,#1166,#950,#951);
#798=AXIS2_PLACEMENT_3D($,#1172,#955,#956);
#799=AXIS2_PLACEMENT_3D($,#1173,#957,#958);
#800=AXIS2_PLACEMENT_3D($,#1174,#959,#960);
#801=AXIS2_PLACEMENT_3D($,#1175,#961,#962);
#802=AXIS2_PLACEMENT_3D($,#1184,#967,#968);
#803=AXIS2_PLACEMENT_3D($,#1186,#969,#970);
#804=AXIS2_PLACEMENT_3D($,#1188,#971,#972);
#805=AXIS2_PLACEMENT_3D($,#1190,#974,#975);
#806=AXIS2_PLACEMENT_3D($,#1196,#979,#980);
#807=AXIS2_PLACEMENT_3D($,#1198,#981,#982);
#808=AXIS2_PLACEMENT_3D($,#1200,#983,#984);
#809=AXIS2_PLACEMENT_3D($,#1202,#986,#987);
#810=AXIS2_PLACEMENT_3D($,#1208,#991,#992);
#811=AXIS2_PLACEMENT_3D($,#1210,#993,#994);
#812=AXIS2_PLACEMENT_3D($,#1212,#995,#996);
#813=AXIS2_PLACEMENT_3D($,#1214,#998,#999);
#814=AXIS2_PLACEMENT_3D($,#1220,#1003,#1004);
#815=AXIS2_PLACEMENT_3D($,#1221,#1005,#1006);
#816=AXIS2_PLACEMENT_3D($,#1222,#1007,#1008);
#817=AXIS2_PLACEMENT_3D($,#1223,#1009,#1010);
#818=AXIS2_PLACEMENT_3D($,#1224,#1011,#1012);
#819=AXIS2_PLACEMENT_3D($,#1225,#1013,#1014);
#820=AXIS2_PLACEMENT_3D($,#1234,#1019,#1020);
#821=AXIS2_PLACEMENT_3D($,#1236,#1021,#1022);
#822=AXIS2_PLACEMENT_3D($,#1238,#1023,#1024);
#823=AXIS2_PLACEMENT_3D($,#1240,#1026,#1027);
#824=AXIS2_PLACEMENT_3D($,#1246,#1031,#1032);
#825=AXIS2_PLACEMENT_3D($,#1248,#1033,#1034);
#826=AXIS2_PLACEMENT_3D($,#1250,#1035,#1036);
#827=AXIS2_PLACEMENT_3D($,#1252,#1038,#1039);
#828=AXIS2_PLACEMENT_3D($,#1258,#1043,#1044);
#829=AXIS2_PLACEMENT_3D($,#1260,#1045,#1046);
#830=AXIS2_PLACEMENT_3D($,#1262,#1047,#1048);
#831=AXIS2_PLACEMENT_3D($,#1264,#1050,#1051);
#832=AXIS2_PLACEMENT_3D($,#1270,#1055,#1056);
#833=AXIS2_PLACEMENT_3D($,#1271,#1057,#1058);
#834=AXIS2_PLACEMENT_3D($,#1272,#1059,#1060);
#835=AXIS2_PLACEMENT_3D($,#1273,#1061,#1062);
#836=AXIS2_PLACEMENT_3D($,#1274,#1063,#1064);
#837=DIRECTION('axis',(0.,0.,1.));
#838=DIRECTION('refdir',(1.,0.,0.));
#839=DIRECTION('center_axis',(0.,0.,-1.));
#840=DIRECTION('ref_axis',(-1.,0.,0.));
#841=DIRECTION('center_axis',(0.,0.,-1.));
#842=DIRECTION('ref_axis',(-1.,0.,0.));
#843=DIRECTION('center_axis',(0.,0.,1.));
#844=DIRECTION('ref_axis',(-1.,0.,0.));
#845=DIRECTION('center_axis',(0.,0.,1.));
#846=DIRECTION('ref_axis',(1.,0.,0.));
#847=DIRECTION('center_axis',(0.,0.,1.));
#848=DIRECTION('ref_axis',(1.,0.,0.));
#849=DIRECTION('center_axis',(0.,0.,-1.));
#850=DIRECTION('ref_axis',(-1.,0.,0.));
#851=DIRECTION('center_axis',(0.,0.,-1.));
#852=DIRECTION('ref_axis',(-1.,0.,0.));
#853=DIRECTION('center_axis',(0.,0.,1.));
#854=DIRECTION('ref_axis',(-1.,0.,0.));
#855=DIRECTION('center_axis',(0.,0.,1.));
#856=DIRECTION('ref_axis',(1.,0.,0.));
#857=DIRECTION('center_axis',(0.,0.,1.));
#858=DIRECTION('ref_axis',(1.,0.,0.));
#859=DIRECTION('center_axis',(0.,0.,-1.));
#860=DIRECTION('ref_axis',(-1.,0.,0.));
#861=DIRECTION('center_axis',(0.,0.,-1.));
#862=DIRECTION('ref_axis',(-1.,0.,0.));
#863=DIRECTION('center_axis',(0.,0.,1.));
#864=DIRECTION('ref_axis',(-1.,0.,0.));
#865=DIRECTION('center_axis',(0.,0.,1.));
#866=DIRECTION('ref_axis',(1.,0.,0.));
#867=DIRECTION('center_axis',(0.,0.,1.));
#868=DIRECTION('ref_axis',(1.,0.,0.));
#869=DIRECTION('center_axis',(0.,0.,-1.));
#870=DIRECTION('ref_axis',(-1.,0.,0.));
#871=DIRECTION('center_axis',(0.,0.,-1.));
#872=DIRECTION('ref_axis',(-1.,0.,0.));
#873=DIRECTION('center_axis',(0.,0.,1.));
#874=DIRECTION('ref_axis',(-1.,0.,0.));
#875=DIRECTION('center_axis',(0.,0.,1.));
#876=DIRECTION('ref_axis',(1.,0.,0.));
#877=DIRECTION('center_axis',(0.,0.,1.));
#878=DIRECTION('ref_axis',(1.,0.,0.));
#879=DIRECTION('center_axis',(0.,0.,-1.));
#880=DIRECTION('ref_axis',(-1.,0.,0.));
#881=DIRECTION('center_axis',(0.,0.,-1.));
#882=DIRECTION('ref_axis',(-1.,0.,0.));
#883=DIRECTION('center_axis',(0.,0.,1.));
#884=DIRECTION('ref_axis',(-1.,0.,0.));
#885=DIRECTION('center_axis',(0.,0.,1.));
#886=DIRECTION('ref_axis',(1.,0.,0.));
#887=DIRECTION('center_axis',(0.,0.,1.));
#888=DIRECTION('ref_axis',(1.,0.,0.));
#889=DIRECTION('center_axis',(0.,-1.,0.));
#890=DIRECTION('ref_axis',(1.,0.,0.));
#891=DIRECTION($,(-1.,0.,0.));
#892=DIRECTION($,(0.,0.,1.));
#893=DIRECTION($,(1.,0.,0.));
#894=DIRECTION($,(0.,0.,1.));
#895=DIRECTION('center_axis',(-1.,0.,0.));
#896=DIRECTION('ref_axis',(0.,-1.,0.));
#897=DIRECTION($,(0.,1.,0.));
#898=DIRECTION($,(0.,-1.,0.));
#899=DIRECTION($,(0.,0.,1.));
#900=DIRECTION('center_axis',(-1.8649415636748E-16,1.,0.));
#901=DIRECTION('ref_axis',(-1.,0.,0.));
#902=DIRECTION($,(1.,1.8649415636748E-16,0.));
#903=DIRECTION($,(-1.,-1.8649415636748E-16,0.));
#904=DIRECTION($,(0.,0.,1.));
#905=DIRECTION('center_axis',(1.,0.,0.));
#906=DIRECTION('ref_axis',(0.,1.,0.));
#907=DIRECTION($,(0.,-1.,0.));
#908=DIRECTION($,(0.,1.,0.));
#909=DIRECTION('center_axis',(0.,0.,1.));
#910=DIRECTION('ref_axis',(1.,0.,0.));
#911=DIRECTION('center_axis',(0.,0.,1.));
#912=DIRECTION('ref_axis',(1.,0.,0.));
#913=DIRECTION('center_axis',(0.,1.,0.));
#914=DIRECTION('ref_axis',(1.,0.,0.));
#915=DIRECTION($,(1.,0.,0.));
#916=DIRECTION($,(0.,0.,-1.));
#917=DIRECTION($,(-1.,0.,0.));
#918=DIRECTION($,(0.,0.,-1.));
#919=DIRECTION('center_axis',(0.,0.,-1.));
#920=DIRECTION('ref_axis',(0.,1.,0.));
#921=DIRECTION('center_axis',(0.,0.,-1.));
#922=DIRECTION('ref_axis',(0.,1.,0.));
#923=DIRECTION($,(0.,0.,-1.));
#924=DIRECTION('center_axis',(0.,0.,1.));
#925=DIRECTION('ref_axis',(0.,1.,0.));
#926=DIRECTION('center_axis',(-1.,0.,0.));
#927=DIRECTION('ref_axis',(0.,1.,0.));
#928=DIRECTION($,(0.,1.,0.));
#929=DIRECTION($,(0.,0.,-1.));
#930=DIRECTION($,(0.,-1.,0.));
#931=DIRECTION('center_axis',(0.,0.,-1.));
#932=DIRECTION('ref_axis',(-1.,0.,0.));
#933=DIRECTION('center_axis',(0.,0.,-1.));
#934=DIRECTION('ref_axis',(-1.,0.,0.));
#935=DIRECTION($,(0.,0.,-1.));
#936=DIRECTION('center_axis',(0.,0.,1.));
#937=DIRECTION('ref_axis',(-1.,0.,0.));
#938=DIRECTION('center_axis',(-1.13686837721616E-16,-1.,0.));
#939=DIRECTION('ref_axis',(-1.,0.,0.));
#940=DIRECTION($,(-1.,1.13686837721616E-16,0.));
#941=DIRECTION($,(0.,0.,-1.));
#942=DIRECTION($,(1.,-1.13686837721616E-16,0.));
#943=DIRECTION('center_axis',(0.,0.,-1.));
#944=DIRECTION('ref_axis',(7.10542735760098E-15,-1.,0.));
#945=DIRECTION('center_axis',(0.,0.,-1.));
#946=DIRECTION('ref_axis',(7.10542735760098E-15,-1.,0.));
#947=DIRECTION($,(0.,0.,-1.));
#948=DIRECTION('center_axis',(0.,0.,1.));
#949=DIRECTION('ref_axis',(7.10542735760098E-15,-1.,0.));
#950=DIRECTION('center_axis',(1.,0.,0.));
#951=DIRECTION('ref_axis',(0.,-1.,0.));
#952=DIRECTION($,(0.,-1.,0.));
#953=DIRECTION($,(0.,0.,-1.));
#954=DIRECTION($,(0.,1.,0.));
#955=DIRECTION('center_axis',(0.,0.,-1.));
#956=DIRECTION('ref_axis',(1.,7.10542735760095E-15,0.));
#957=DIRECTION('center_axis',(0.,0.,-1.));
#958=DIRECTION('ref_axis',(1.,7.10542735760095E-15,0.));
#959=DIRECTION('center_axis',(0.,0.,1.));
#960=DIRECTION('ref_axis',(1.,7.10542735760095E-15,0.));
#961=DIRECTION('center_axis',(0.,1.,0.));
#962=DIRECTION('ref_axis',(1.,0.,0.));
#963=DIRECTION($,(-1.,0.,0.));
#964=DIRECTION($,(0.,0.,-1.));
#965=DIRECTION($,(1.,0.,0.));
#966=DIRECTION($,(0.,0.,-1.));
#967=DIRECTION('center_axis',(0.,0.,-1.));
#968=DIRECTION('ref_axis',(0.,1.,0.));
#969=DIRECTION('center_axis',(0.,0.,1.));
#970=DIRECTION('ref_axis',(0.,1.,0.));
#971=DIRECTION('center_axis',(0.,0.,-1.));
#972=DIRECTION('ref_axis',(0.,1.,0.));
#973=DIRECTION($,(0.,0.,-1.));
#974=DIRECTION('center_axis',(-1.,0.,0.));
#975=DIRECTION('ref_axis',(0.,1.,0.));
#976=DIRECTION($,(0.,-1.,0.));
#977=DIRECTION($,(0.,1.,0.));
#978=DIRECTION($,(0.,0.,-1.));
#979=DIRECTION('center_axis',(0.,0.,-1.));
#980=DIRECTION('ref_axis',(-1.,0.,0.));
#981=DIRECTION('center_axis',(0.,0.,1.));
#982=DIRECTION('ref_axis',(-1.,0.,0.));
#983=DIRECTION('center_axis',(0.,0.,-1.));
#984=DIRECTION('ref_axis',(-1.,0.,0.));
#985=DIRECTION($,(0.,0.,-1.));
#986=DIRECTION('center_axis',(-1.13686837721616E-16,-1.,0.));
#987=DIRECTION('ref_axis',(-1.,0.,0.));
#988=DIRECTION($,(1.,-1.13686837721616E-16,0.));
#989=DIRECTION($,(-1.,1.13686837721616E-16,0.));
#990=DIRECTION($,(0.,0.,-1.));
#991=DIRECTION('center_axis',(0.,0.,-1.));
#992=DIRECTION('ref_axis',(7.10542735760098E-15,-1.,0.));
#993=DIRECTION('center_axis',(0.,0.,1.));
#994=DIRECTION('ref_axis',(7.10542735760098E-15,-1.,0.));
#995=DIRECTION('center_axis',(0.,0.,-1.));
#996=DIRECTION('ref_axis',(7.10542735760098E-15,-1.,0.));
#997=DIRECTION($,(0.,0.,-1.));
#998=DIRECTION('center_axis',(1.,0.,0.));
#999=DIRECTION('ref_axis',(0.,-1.,0.));
#1000=DIRECTION($,(0.,1.,0.));
#1001=DIRECTION($,(0.,-1.,0.));
#1002=DIRECTION($,(0.,0.,-1.));
#1003=DIRECTION('center_axis',(0.,0.,-1.));
#1004=DIRECTION('ref_axis',(1.,7.10542735760095E-15,0.));
#1005=DIRECTION('center_axis',(0.,0.,1.));
#1006=DIRECTION('ref_axis',(1.,7.10542735760095E-15,0.));
#1007=DIRECTION('center_axis',(0.,0.,-1.));
#1008=DIRECTION('ref_axis',(1.,7.10542735760095E-15,0.));
#1009=DIRECTION('center_axis',(0.,0.,1.));
#1010=DIRECTION('ref_axis',(1.,0.,0.));
#1011=DIRECTION('center_axis',(0.,0.,1.));
#1012=DIRECTION('ref_axis',(1.,0.,0.));
#1013=DIRECTION('center_axis',(0.,1.,0.));
#1014=DIRECTION('ref_axis',(1.,0.,0.));
#1015=DIRECTION($,(-1.,0.,0.));
#1016=DIRECTION($,(0.,0.,-1.));
#1017=DIRECTION($,(1.,0.,0.));
#1018=DIRECTION($,(0.,0.,-1.));
#1019=DIRECTION('center_axis',(0.,0.,-1.));
#1020=DIRECTION('ref_axis',(0.,1.,0.));
#1021=DIRECTION('center_axis',(0.,0.,1.));
#1022=DIRECTION('ref_axis',(0.,1.,0.));
#1023=DIRECTION('center_axis',(0.,0.,-1.));
#1024=DIRECTION('ref_axis',(0.,1.,0.));
#1025=DIRECTION($,(0.,0.,-1.));
#1026=DIRECTION('center_axis',(-1.,0.,0.));
#1027=DIRECTION('ref_axis',(0.,1.,0.));
#1028=DIRECTION($,(0.,-1.,0.));
#1029=DIRECTION($,(0.,1.,0.));
#1030=DIRECTION($,(0.,0.,-1.));
#1031=DIRECTION('center_axis',(0.,0.,-1.));
#1032=DIRECTION('ref_axis',(-1.,0.,0.));
#1033=DIRECTION('center_axis',(0.,0.,1.));
#1034=DIRECTION('ref_axis',(-1.,0.,0.));
#1035=DIRECTION('center_axis',(0.,0.,-1.));
#1036=DIRECTION('ref_axis',(-1.,0.,0.));
#1037=DIRECTION($,(0.,0.,-1.));
#1038=DIRECTION('center_axis',(-1.13686837721616E-16,-1.,0.));
#1039=DIRECTION('ref_axis',(-1.,0.,0.));
#1040=DIRECTION($,(1.,-1.13686837721616E-16,0.));
#1041=DIRECTION($,(-1.,1.13686837721616E-16,0.));
#1042=DIRECTION($,(0.,0.,-1.));
#1043=DIRECTION('center_axis',(0.,0.,-1.));
#1044=DIRECTION('ref_axis',(7.10542735760098E-15,-1.,0.));
#1045=DIRECTION('center_axis',(0.,0.,1.));
#1046=DIRECTION('ref_axis',(7.10542735760098E-15,-1.,0.));
#1047=DIRECTION('center_axis',(0.,0.,-1.));
#1048=DIRECTION('ref_axis',(7.10542735760098E-15,-1.,0.));
#1049=DIRECTION($,(0.,0.,-1.));
#1050=DIRECTION('center_axis',(1.,0.,0.));
#1051=DIRECTION('ref_axis',(0.,-1.,0.));
#1052=DIRECTION($,(0.,1.,0.));
#1053=DIRECTION($,(0.,-1.,0.));
#1054=DIRECTION($,(0.,0.,-1.));
#1055=DIRECTION('center_axis',(0.,0.,-1.));
#1056=DIRECTION('ref_axis',(1.,7.10542735760095E-15,0.));
#1057=DIRECTION('center_axis',(0.,0.,1.));
#1058=DIRECTION('ref_axis',(1.,7.10542735760095E-15,0.));
#1059=DIRECTION('center_axis',(0.,0.,-1.));
#1060=DIRECTION('ref_axis',(1.,7.10542735760095E-15,0.));
#1061=DIRECTION('center_axis',(0.,0.,1.));
#1062=DIRECTION('ref_axis',(1.,0.,0.));
#1063=DIRECTION('center_axis',(0.,0.,1.));
#1064=DIRECTION('ref_axis',(1.,0.,0.));
#1065=CARTESIAN_POINT('',(0.,0.,0.));
#1066=CARTESIAN_POINT('Origin',(-15.24,-10.16,0.));
#1067=CARTESIAN_POINT('',(-14.84,-10.16,-6.));
#1068=CARTESIAN_POINT('Origin',(-15.24,-10.16,-6.));
#1069=CARTESIAN_POINT('',(-14.84,-10.16,0.));
#1070=CARTESIAN_POINT('Origin',(-15.24,-10.16,0.));
#1071=CARTESIAN_POINT('Origin',(-15.24,-10.16,0.));
#1072=CARTESIAN_POINT('Origin',(-15.24,-10.16,-6.));
#1073=CARTESIAN_POINT('Origin',(-15.24,10.16,0.));
#1074=CARTESIAN_POINT('',(-14.84,10.16,-6.));
#1075=CARTESIAN_POINT('Origin',(-15.24,10.16,-6.));
#1076=CARTESIAN_POINT('',(-14.84,10.16,0.));
#1077=CARTESIAN_POINT('Origin',(-15.24,10.16,0.));
#1078=CARTESIAN_POINT('Origin',(-15.24,10.16,0.));
#1079=CARTESIAN_POINT('Origin',(-15.24,10.16,-6.));
#1080=CARTESIAN_POINT('Origin',(15.24,-12.7,0.));
#1081=CARTESIAN_POINT('',(15.64,-12.7,-6.));
#1082=CARTESIAN_POINT('Origin',(15.24,-12.7,-6.));
#1083=CARTESIAN_POINT('',(15.64,-12.7,0.));
#1084=CARTESIAN_POINT('Origin',(15.24,-12.7,0.));
#1085=CARTESIAN_POINT('Origin',(15.24,-12.7,0.));
#1086=CARTESIAN_POINT('Origin',(15.24,-12.7,-6.));
#1087=CARTESIAN_POINT('Origin',(15.24,-7.105427357601E-15,0.));
#1088=CARTESIAN_POINT('',(15.64,-7.105427357601E-15,-6.));
#1089=CARTESIAN_POINT('Origin',(15.24,-7.105427357601E-15,-6.));
#1090=CARTESIAN_POINT('',(15.64,-7.105427357601E-15,0.));
#1091=CARTESIAN_POINT('Origin',(15.24,-7.105427357601E-15,0.));
#1092=CARTESIAN_POINT('Origin',(15.24,-7.105427357601E-15,0.));
#1093=CARTESIAN_POINT('Origin',(15.24,-7.105427357601E-15,-6.));
#1094=CARTESIAN_POINT('Origin',(15.24,12.7,0.));
#1095=CARTESIAN_POINT('',(15.64,12.7,-6.));
#1096=CARTESIAN_POINT('Origin',(15.24,12.7,-6.));
#1097=CARTESIAN_POINT('',(15.64,12.7,0.));
#1098=CARTESIAN_POINT('Origin',(15.24,12.7,0.));
#1099=CARTESIAN_POINT('Origin',(15.24,12.7,0.));
#1100=CARTESIAN_POINT('Origin',(15.24,12.7,-6.));
#1101=CARTESIAN_POINT('Origin',(-19.05,-19.05,0.));
#1102=CARTESIAN_POINT('',(19.05,-19.05,0.));
#1103=CARTESIAN_POINT('',(-19.05,-19.05,0.));
#1104=CARTESIAN_POINT($,(19.05,-19.05,0.));
#1105=CARTESIAN_POINT('',(19.05,-19.05,16.));
#1106=CARTESIAN_POINT($,(19.05,-19.05,0.));
#1107=CARTESIAN_POINT('',(-19.05,-19.05,16.));
#1108=CARTESIAN_POINT($,(19.05,-19.05,16.));
#1109=CARTESIAN_POINT($,(-19.05,-19.05,0.));
#1110=CARTESIAN_POINT('Origin',(-19.05,19.05,0.));
#1111=CARTESIAN_POINT('',(-19.05,19.05,0.));
#1112=CARTESIAN_POINT($,(-19.05,-19.05,0.));
#1113=CARTESIAN_POINT('',(-19.05,19.05,16.));
#1114=CARTESIAN_POINT($,(-19.05,-19.05,16.));
#1115=CARTESIAN_POINT($,(-19.05,19.05,0.));
#1116=CARTESIAN_POINT('Origin',(19.05,19.05,0.));
#1117=CARTESIAN_POINT('',(19.05,19.05,0.));
#1118=CARTESIAN_POINT($,(-19.05,19.05,0.));
#1119=CARTESIAN_POINT('',(19.05,19.05,16.));
#1120=CARTESIAN_POINT($,(-19.05,19.05,16.));
#1121=CARTESIAN_POINT($,(19.05,19.05,0.));
#1122=CARTESIAN_POINT('Origin',(19.05,-19.05,0.));
#1123=CARTESIAN_POINT($,(19.05,19.05,0.));
#1124=CARTESIAN_POINT($,(19.05,19.05,16.));
#1125=CARTESIAN_POINT('Origin',(1.47423630608493E-14,0.,0.));
#1126=CARTESIAN_POINT('Origin',(1.4210854715202E-14,0.,16.));
#1127=CARTESIAN_POINT('Origin',(-40.25,10.5,16.1));
#1128=CARTESIAN_POINT('',(-13.25,10.5,16.1));
#1129=CARTESIAN_POINT('',(13.25,10.5,16.1));
#1130=CARTESIAN_POINT($,(-24.625,10.5,16.1));
#1131=CARTESIAN_POINT('',(-13.25,10.5,16.));
#1132=CARTESIAN_POINT($,(-13.25,10.5,16.1));
#1133=CARTESIAN_POINT('',(13.25,10.5,16.));
#1134=CARTESIAN_POINT($,(-24.625,10.5,16.));
#1135=CARTESIAN_POINT($,(13.25,10.5,16.1));
#1136=CARTESIAN_POINT('Origin',(-13.25,9.5,16.1));
#1137=CARTESIAN_POINT('',(-14.25,9.5,16.1));
#1138=CARTESIAN_POINT('Origin',(-13.25,9.5,16.1));
#1139=CARTESIAN_POINT('',(-14.25,9.5,16.));
#1140=CARTESIAN_POINT($,(-14.25,9.5,16.1));
#1141=CARTESIAN_POINT('Origin',(-13.25,9.5,16.));
#1142=CARTESIAN_POINT('Origin',(-14.25,-13.,16.1));
#1143=CARTESIAN_POINT('',(-14.25,-9.49999999999999,16.1));
#1144=CARTESIAN_POINT($,(-14.25,-2.87499999999999,16.1));
#1145=CARTESIAN_POINT('',(-14.25,-9.49999999999999,16.));
#1146=CARTESIAN_POINT($,(-14.25,-9.49999999999999,16.1));
#1147=CARTESIAN_POINT($,(-14.25,-2.87499999999999,16.));
#1148=CARTESIAN_POINT('Origin',(-13.25,-9.49999999999999,16.1));
#1149=CARTESIAN_POINT('',(-13.25,-10.5,16.1));
#1150=CARTESIAN_POINT('Origin',(-13.25,-9.49999999999999,16.1));
#1151=CARTESIAN_POINT('',(-13.25,-10.5,16.));
#1152=CARTESIAN_POINT($,(-13.25,-10.5,16.1));
#1153=CARTESIAN_POINT('Origin',(-13.25,-9.49999999999999,16.));
#1154=CARTESIAN_POINT('Origin',(22.25,-10.5,16.1));
#1155=CARTESIAN_POINT('',(13.25,-10.5,16.1));
#1156=CARTESIAN_POINT($,(6.62499999999999,-10.5,16.1));
#1157=CARTESIAN_POINT('',(13.25,-10.5,16.));
#1158=CARTESIAN_POINT($,(13.25,-10.5,16.1));
#1159=CARTESIAN_POINT($,(6.62499999999999,-10.5,16.));
#1160=CARTESIAN_POINT('Origin',(13.25,-9.5,16.1));
#1161=CARTESIAN_POINT('',(14.25,-9.5,16.1));
#1162=CARTESIAN_POINT('Origin',(13.25,-9.5,16.1));
#1163=CARTESIAN_POINT('',(14.25,-9.5,16.));
#1164=CARTESIAN_POINT($,(14.25,-9.5,16.1));
#1165=CARTESIAN_POINT('Origin',(13.25,-9.5,16.));
#1166=CARTESIAN_POINT('Origin',(14.25,27.5,16.1));
#1167=CARTESIAN_POINT('',(14.25,9.5,16.1));
#1168=CARTESIAN_POINT($,(14.25,17.375,16.1));
#1169=CARTESIAN_POINT('',(14.25,9.5,16.));
#1170=CARTESIAN_POINT($,(14.25,9.5,16.1));
#1171=CARTESIAN_POINT($,(14.25,17.375,16.));
#1172=CARTESIAN_POINT('Origin',(13.25,9.49999999999999,16.1));
#1173=CARTESIAN_POINT('Origin',(13.25,9.49999999999999,16.1));
#1174=CARTESIAN_POINT('Origin',(13.25,9.49999999999999,16.));
#1175=CARTESIAN_POINT('Origin',(-40.25,12.5,16.1));
#1176=CARTESIAN_POINT('',(15.25,12.5,16.1));
#1177=CARTESIAN_POINT('',(-15.25,12.5,16.1));
#1178=CARTESIAN_POINT($,(22.25,12.5,16.1));
#1179=CARTESIAN_POINT('',(15.25,12.5,16.));
#1180=CARTESIAN_POINT($,(15.25,12.5,16.1));
#1181=CARTESIAN_POINT('',(-15.25,12.5,16.));
#1182=CARTESIAN_POINT($,(22.25,12.5,16.));
#1183=CARTESIAN_POINT($,(-15.25,12.5,16.1));
#1184=CARTESIAN_POINT('Origin',(-15.25,11.5,16.1));
#1185=CARTESIAN_POINT('',(-16.25,11.5,16.1));
#1186=CARTESIAN_POINT('Origin',(-15.25,11.5,16.1));
#1187=CARTESIAN_POINT('',(-16.25,11.5,16.));
#1188=CARTESIAN_POINT('Origin',(-15.25,11.5,16.));
#1189=CARTESIAN_POINT($,(-16.25,11.5,16.1));
#1190=CARTESIAN_POINT('Origin',(-16.25,-13.,16.1));
#1191=CARTESIAN_POINT('',(-16.25,-11.5,16.1));
#1192=CARTESIAN_POINT($,(-16.25,27.5,16.1));
#1193=CARTESIAN_POINT('',(-16.25,-11.5,16.));
#1194=CARTESIAN_POINT($,(-16.25,27.5,16.));
#1195=CARTESIAN_POINT($,(-16.25,-11.5,16.1));
#1196=CARTESIAN_POINT('Origin',(-15.25,-11.5,16.1));
#1197=CARTESIAN_POINT('',(-15.25,-12.5,16.1));
#1198=CARTESIAN_POINT('Origin',(-15.25,-11.5,16.1));
#1199=CARTESIAN_POINT('',(-15.25,-12.5,16.));
#1200=CARTESIAN_POINT('Origin',(-15.25,-11.5,16.));
#1201=CARTESIAN_POINT($,(-15.25,-12.5,16.1));
#1202=CARTESIAN_POINT('Origin',(22.25,-12.5,16.1));
#1203=CARTESIAN_POINT('',(15.25,-12.5,16.1));
#1204=CARTESIAN_POINT($,(-40.25,-12.5,16.1));
#1205=CARTESIAN_POINT('',(15.25,-12.5,16.));
#1206=CARTESIAN_POINT($,(-40.25,-12.5,16.));
#1207=CARTESIAN_POINT($,(15.25,-12.5,16.1));
#1208=CARTESIAN_POINT('Origin',(15.25,-11.5,16.1));
#1209=CARTESIAN_POINT('',(16.25,-11.5,16.1));
#1210=CARTESIAN_POINT('Origin',(15.25,-11.5,16.1));
#1211=CARTESIAN_POINT('',(16.25,-11.5,16.));
#1212=CARTESIAN_POINT('Origin',(15.25,-11.5,16.));
#1213=CARTESIAN_POINT($,(16.25,-11.5,16.1));
#1214=CARTESIAN_POINT('Origin',(16.25,27.5,16.1));
#1215=CARTESIAN_POINT('',(16.25,11.5,16.1));
#1216=CARTESIAN_POINT($,(16.25,-13.,16.1));
#1217=CARTESIAN_POINT('',(16.25,11.5,16.));
#1218=CARTESIAN_POINT($,(16.25,-13.,16.));
#1219=CARTESIAN_POINT($,(16.25,11.5,16.1));
#1220=CARTESIAN_POINT('Origin',(15.25,11.5,16.1));
#1221=CARTESIAN_POINT('Origin',(15.25,11.5,16.1));
#1222=CARTESIAN_POINT('Origin',(15.25,11.5,16.));
#1223=CARTESIAN_POINT('Origin',(-9.00000000000001,7.25000000000001,16.1));
#1224=CARTESIAN_POINT('Origin',(-9.00000000000001,7.25000000000001,16.));
#1225=CARTESIAN_POINT('Origin',(-40.25,10.5,16.1));
#1226=CARTESIAN_POINT('',(13.25,10.5,16.1));
#1227=CARTESIAN_POINT('',(-13.25,10.5,16.1));
#1228=CARTESIAN_POINT($,(22.25,10.5,16.1));
#1229=CARTESIAN_POINT('',(13.25,10.5,16.));
#1230=CARTESIAN_POINT($,(13.25,10.5,16.1));
#1231=CARTESIAN_POINT('',(-13.25,10.5,16.));
#1232=CARTESIAN_POINT($,(22.25,10.5,16.));
#1233=CARTESIAN_POINT($,(-13.25,10.5,16.1));
#1234=CARTESIAN_POINT('Origin',(-13.25,9.5,16.1));
#1235=CARTESIAN_POINT('',(-14.25,9.5,16.1));
#1236=CARTESIAN_POINT('Origin',(-13.25,9.5,16.1));
#1237=CARTESIAN_POINT('',(-14.25,9.5,16.));
#1238=CARTESIAN_POINT('Origin',(-13.25,9.5,16.));
#1239=CARTESIAN_POINT($,(-14.25,9.5,16.1));
#1240=CARTESIAN_POINT('Origin',(-14.25,-13.,16.1));
#1241=CARTESIAN_POINT('',(-14.25,-9.49999999999999,16.1));
#1242=CARTESIAN_POINT($,(-14.25,27.5,16.1));
#1243=CARTESIAN_POINT('',(-14.25,-9.49999999999999,16.));
#1244=CARTESIAN_POINT($,(-14.25,27.5,16.));
#1245=CARTESIAN_POINT($,(-14.25,-9.49999999999999,16.1));
#1246=CARTESIAN_POINT('Origin',(-13.25,-9.49999999999999,16.1));
#1247=CARTESIAN_POINT('',(-13.25,-10.5,16.1));
#1248=CARTESIAN_POINT('Origin',(-13.25,-9.49999999999999,16.1));
#1249=CARTESIAN_POINT('',(-13.25,-10.5,16.));
#1250=CARTESIAN_POINT('Origin',(-13.25,-9.49999999999999,16.));
#1251=CARTESIAN_POINT($,(-13.25,-10.5,16.1));
#1252=CARTESIAN_POINT('Origin',(22.25,-10.5,16.1));
#1253=CARTESIAN_POINT('',(13.25,-10.5,16.1));
#1254=CARTESIAN_POINT($,(-40.25,-10.5,16.1));
#1255=CARTESIAN_POINT('',(13.25,-10.5,16.));
#1256=CARTESIAN_POINT($,(-40.25,-10.5,16.));
#1257=CARTESIAN_POINT($,(13.25,-10.5,16.1));
#1258=CARTESIAN_POINT('Origin',(13.25,-9.5,16.1));
#1259=CARTESIAN_POINT('',(14.25,-9.5,16.1));
#1260=CARTESIAN_POINT('Origin',(13.25,-9.5,16.1));
#1261=CARTESIAN_POINT('',(14.25,-9.5,16.));
#1262=CARTESIAN_POINT('Origin',(13.25,-9.5,16.));
#1263=CARTESIAN_POINT($,(14.25,-9.5,16.1));
#1264=CARTESIAN_POINT('Origin',(14.25,27.5,16.1));
#1265=CARTESIAN_POINT('',(14.25,9.5,16.1));
#1266=CARTESIAN_POINT($,(14.25,-13.,16.1));
#1267=CARTESIAN_POINT('',(14.25,9.5,16.));
#1268=CARTESIAN_POINT($,(14.25,-13.,16.));
#1269=CARTESIAN_POINT($,(14.25,9.5,16.1));
#1270=CARTESIAN_POINT('Origin',(13.25,9.49999999999999,16.1));
#1271=CARTESIAN_POINT('Origin',(13.25,9.49999999999999,16.1));
#1272=CARTESIAN_POINT('Origin',(13.25,9.49999999999999,16.));
#1273=CARTESIAN_POINT('Origin',(-9.00000000000001,7.25000000000001,16.1));
#1274=CARTESIAN_POINT('Origin',(-9.00000000000001,7.25000000000001,16.));
#1275=UNCERTAINTY_MEASURE_WITH_UNIT(LENGTH_MEASURE(0.01),#1279,
'DISTANCE_ACCURACY_VALUE',
'Maximum model space distance between geometric entities at asserted c
onnectivities');
#1276=UNCERTAINTY_MEASURE_WITH_UNIT(LENGTH_MEASURE(1.E-6),#1279,
'DISTANCE_ACCURACY_VALUE',
'Maximum model space distance between geometric entities at asserted c
onnectivities');
#1277=(
GEOMETRIC_REPRESENTATION_CONTEXT(3)
GLOBAL_UNCERTAINTY_ASSIGNED_CONTEXT((#1275))
GLOBAL_UNIT_ASSIGNED_CONTEXT((#1279,#1281,#1280))
REPRESENTATION_CONTEXT('','3D')
);
#1278=(
GEOMETRIC_REPRESENTATION_CONTEXT(3)
GLOBAL_UNCERTAINTY_ASSIGNED_CONTEXT((#1276))
GLOBAL_UNIT_ASSIGNED_CONTEXT((#1279,#12,#1280))
REPRESENTATION_CONTEXT('','3D')
);
#1279=(
LENGTH_UNIT()
NAMED_UNIT(*)
SI_UNIT(.MILLI.,.METRE.)
);
#1280=(
NAMED_UNIT(*)
SI_UNIT($,.STERADIAN.)
SOLID_ANGLE_UNIT()
);
#1281=(
NAMED_UNIT(*)
PLANE_ANGLE_UNIT()
SI_UNIT($,.RADIAN.)
);
#1282=SHAPE_DEFINITION_REPRESENTATION(#1283,#1284);
#1283=PRODUCT_DEFINITION_SHAPE('',$,#1286);
#1284=SHAPE_REPRESENTATION('',(#753),#1277);
#1285=PRODUCT_DEFINITION_CONTEXT('part definition',#1290,'design');
#1286=PRODUCT_DEFINITION('Product','Product',#1287,#1285);
#1287=PRODUCT_DEFINITION_FORMATION('',$,#1292);
#1288=PRODUCT_RELATED_PRODUCT_CATEGORY('Product','Product',(#1292));
#1289=APPLICATION_PROTOCOL_DEFINITION('international standard',
'automotive_design',2009,#1290);
#1290=APPLICATION_CONTEXT(
'Core Data for Automotive Mechanical Design Process');
#1291=PRODUCT_CONTEXT('part definition',#1290,'mechanical');
#1292=PRODUCT('Product','Product',$,(#1291));
#1293=PRESENTATION_STYLE_ASSIGNMENT((#1297));
#1294=PRESENTATION_STYLE_ASSIGNMENT((#1298));
#1295=PRESENTATION_STYLE_ASSIGNMENT((#1299));
#1296=PRESENTATION_STYLE_ASSIGNMENT((#1300));
#1297=SURFACE_STYLE_USAGE(.BOTH.,#1301);
#1298=SURFACE_STYLE_USAGE(.BOTH.,#1302);
#1299=SURFACE_STYLE_USAGE(.BOTH.,#1303);
#1300=SURFACE_STYLE_USAGE(.BOTH.,#1304);
#1301=SURFACE_SIDE_STYLE($,(#1305));
#1302=SURFACE_SIDE_STYLE($,(#1306));
#1303=SURFACE_SIDE_STYLE($,(#1307));
#1304=SURFACE_SIDE_STYLE($,(#1308));
#1305=SURFACE_STYLE_FILL_AREA(#1309);
#1306=SURFACE_STYLE_FILL_AREA(#1310);
#1307=SURFACE_STYLE_FILL_AREA(#1311);
#1308=SURFACE_STYLE_FILL_AREA(#1312);
#1309=FILL_AREA_STYLE($,(#1313));
#1310=FILL_AREA_STYLE($,(#1314));
#1311=FILL_AREA_STYLE($,(#1315));
#1312=FILL_AREA_STYLE($,(#1316));
#1313=FILL_AREA_STYLE_COLOUR($,#1317);
#1314=FILL_AREA_STYLE_COLOUR($,#1318);
#1315=FILL_AREA_STYLE_COLOUR($,#1319);
#1316=FILL_AREA_STYLE_COLOUR($,#1320);
#1317=COLOUR_RGB('',1.,1.,1.);
#1318=COLOUR_RGB('',0.866666666666667,0.866666666666667,0.866666666666667);
#1319=COLOUR_RGB('',0.329411764705882,0.329411764705882,0.329411764705882);
#1320=COLOUR_RGB('',1.,0.,0.501960784313725);
ENDSEC;
END-ISO-10303-21;
