ISO-10303-21;
HEADER;
/* Generated by software containing ST-Developer
 * from STEP Tools, Inc. (www.steptools.com) 
 */

FILE_DESCRIPTION(
/* description */ (''),
/* implementation_level */ '2;1');

FILE_NAME(
/* name */ 
'\\\\cern.ch\\dfs\\Applications\\Altium\\CernLib\\StepLib\\DELTARF_246
7-000-G91P-11_Part2.stp',
/* time_stamp */ '2017-09-14T14:47:26+02:00',
/* author */ ('jchouvet'),
/* organization */ ('SolidWorks'),
/* preprocessor_version */ 'ST-DEVELOPER v16.1',
/* originating_system */ 'AutoCAD Mechanical',
/* authorisation */ ' ');

FILE_SCHEMA (('AUTOMOTIVE_DESIGN { 1 0 10303 214 3 1 1 }'));
ENDSEC;

DATA;
#10=MECHANICAL_DESIGN_GEOMETRIC_PRESENTATION_REPRESENTATION('',(#17),#575);
#11=DIMENSIONAL_EXPONENTS(0.,0.,0.,0.,0.,0.,0.);
#12=(
CONVERSION_BASED_UNIT('degree',#13)
NAMED_UNIT(#11)
PLANE_ANGLE_UNIT()
);
#13=PLANE_ANGLE_MEASURE_WITH_UNIT(PLANE_ANGLE_MEASURE(0.01745329252),#578);
#14=PRESENTATION_LAYER_ASSIGNMENT('1','3D',(#18));
#15=SHAPE_REPRESENTATION_RELATIONSHIP('SRR','None',#581,#16);
#16=ADVANCED_BREP_SHAPE_REPRESENTATION('',(#18),#574);
#17=STYLED_ITEM('',(#591),#18);
#18=MANIFOLD_SOLID_BREP('2028',#317);
#19=CONICAL_SURFACE('',#342,2.37489999999999,1.0471975511966);
#20=CONICAL_SURFACE('',#343,2.37489999999999,1.0471975511966);
#21=CONICAL_SURFACE('',#344,2.37489999999999,1.0471975511966);
#22=CONICAL_SURFACE('',#345,2.37489999999999,1.0471975511966);
#23=CONICAL_SURFACE('',#346,2.37489999999999,1.0471975511966);
#24=CONICAL_SURFACE('',#347,2.37489999999999,1.0471975511966);
#25=CONICAL_SURFACE('',#348,2.74229830859686,1.0471975511966);
#26=CONICAL_SURFACE('',#349,2.74229830859686,1.0471975511966);
#27=CONICAL_SURFACE('',#350,2.74229830859686,1.0471975511966);
#28=CONICAL_SURFACE('',#351,2.74229830859686,1.0471975511966);
#29=CONICAL_SURFACE('',#352,2.74229830859686,1.0471975511966);
#30=CONICAL_SURFACE('',#353,2.74229830859686,1.0471975511966);
#31=LINE('',#470,#37);
#32=LINE('',#479,#38);
#33=LINE('',#489,#39);
#34=LINE('',#505,#40);
#35=LINE('',#521,#41);
#36=LINE('',#537,#42);
#37=VECTOR('',#392,0.591764975263572);
#38=VECTOR('',#393,0.591764975263572);
#39=VECTOR('',#396,0.591764975263572);
#40=VECTOR('',#399,0.591764975263572);
#41=VECTOR('',#402,0.591764975263572);
#42=VECTOR('',#405,0.591764975263572);
#43=(
BOUNDED_CURVE()
B_SPLINE_CURVE(2,(#466,#467,#468),.UNSPECIFIED.,.F.,.F.)
B_SPLINE_CURVE_WITH_KNOTS((3,3),(0.337170883120365,0.573083276412725),
 .UNSPECIFIED.)
CURVE()
GEOMETRIC_REPRESENTATION_ITEM()
RATIONAL_B_SPLINE_CURVE((1.61057163139686,1.73514978063473,1.73514978063473))
REPRESENTATION_ITEM('')
);
#44=(
BOUNDED_CURVE()
B_SPLINE_CURVE(2,(#471,#472,#473),.UNSPECIFIED.,.F.,.F.)
B_SPLINE_CURVE_WITH_KNOTS((3,3),(0.573083276412725,0.808995669705085),
 .UNSPECIFIED.)
CURVE()
GEOMETRIC_REPRESENTATION_ITEM()
RATIONAL_B_SPLINE_CURVE((1.73514978063474,1.73514978063474,1.61057163139686))
REPRESENTATION_ITEM('')
);
#45=(
BOUNDED_CURVE()
B_SPLINE_CURVE(2,(#475,#476,#477),.UNSPECIFIED.,.F.,.F.)
B_SPLINE_CURVE_WITH_KNOTS((3,3),(0.337170883120366,0.573083276412725),
 .UNSPECIFIED.)
CURVE()
GEOMETRIC_REPRESENTATION_ITEM()
RATIONAL_B_SPLINE_CURVE((1.61057163139686,1.73514978063474,1.73514978063474))
REPRESENTATION_ITEM('')
);
#46=(
BOUNDED_CURVE()
B_SPLINE_CURVE(2,(#480,#481,#482),.UNSPECIFIED.,.F.,.F.)
B_SPLINE_CURVE_WITH_KNOTS((3,3),(0.573083276412725,0.808995669705084),
 .UNSPECIFIED.)
CURVE()
GEOMETRIC_REPRESENTATION_ITEM()
RATIONAL_B_SPLINE_CURVE((1.73514978063473,1.73514978063474,1.61057163139686))
REPRESENTATION_ITEM('')
);
#47=(
BOUNDED_CURVE()
B_SPLINE_CURVE(2,(#485,#486,#487),.UNSPECIFIED.,.F.,.F.)
B_SPLINE_CURVE_WITH_KNOTS((3,3),(0.337170883120364,0.573083276412726),
 .UNSPECIFIED.)
CURVE()
GEOMETRIC_REPRESENTATION_ITEM()
RATIONAL_B_SPLINE_CURVE((1.61057163139686,1.73514978063474,1.73514978063474))
REPRESENTATION_ITEM('')
);
#48=(
BOUNDED_CURVE()
B_SPLINE_CURVE(2,(#490,#491,#492),.UNSPECIFIED.,.F.,.F.)
B_SPLINE_CURVE_WITH_KNOTS((3,3),(0.573083276412727,0.80899566970509),
 .UNSPECIFIED.)
CURVE()
GEOMETRIC_REPRESENTATION_ITEM()
RATIONAL_B_SPLINE_CURVE((1.73514978063475,1.73514978063475,1.61057163139686))
REPRESENTATION_ITEM('')
);
#49=(
BOUNDED_CURVE()
B_SPLINE_CURVE(2,(#493,#494,#495),.UNSPECIFIED.,.F.,.F.)
B_SPLINE_CURVE_WITH_KNOTS((3,3),(0.33717088312037,0.573083276412727),
 .UNSPECIFIED.)
CURVE()
GEOMETRIC_REPRESENTATION_ITEM()
RATIONAL_B_SPLINE_CURVE((1.61057163139687,1.73514978063475,1.73514978063475))
REPRESENTATION_ITEM('')
);
#50=(
BOUNDED_CURVE()
B_SPLINE_CURVE(2,(#496,#497,#498),.UNSPECIFIED.,.F.,.F.)
B_SPLINE_CURVE_WITH_KNOTS((3,3),(0.573083276412726,0.808995669705082),
 .UNSPECIFIED.)
CURVE()
GEOMETRIC_REPRESENTATION_ITEM()
RATIONAL_B_SPLINE_CURVE((1.73514978063474,1.73514978063474,1.61057163139687))
REPRESENTATION_ITEM('')
);
#51=(
BOUNDED_CURVE()
B_SPLINE_CURVE(2,(#501,#502,#503),.UNSPECIFIED.,.F.,.F.)
B_SPLINE_CURVE_WITH_KNOTS((3,3),(0.337170883120365,0.573083276412727),
 .UNSPECIFIED.)
CURVE()
GEOMETRIC_REPRESENTATION_ITEM()
RATIONAL_B_SPLINE_CURVE((1.61057163139687,1.73514978063475,1.73514978063475))
REPRESENTATION_ITEM('')
);
#52=(
BOUNDED_CURVE()
B_SPLINE_CURVE(2,(#506,#507,#508),.UNSPECIFIED.,.F.,.F.)
B_SPLINE_CURVE_WITH_KNOTS((3,3),(0.573083276412727,0.808995669705087),
 .UNSPECIFIED.)
CURVE()
GEOMETRIC_REPRESENTATION_ITEM()
RATIONAL_B_SPLINE_CURVE((1.73514978063475,1.73514978063475,1.61057163139687))
REPRESENTATION_ITEM('')
);
#53=(
BOUNDED_CURVE()
B_SPLINE_CURVE(2,(#509,#510,#511),.UNSPECIFIED.,.F.,.F.)
B_SPLINE_CURVE_WITH_KNOTS((3,3),(0.337170883120367,0.573083276412727),
 .UNSPECIFIED.)
CURVE()
GEOMETRIC_REPRESENTATION_ITEM()
RATIONAL_B_SPLINE_CURVE((1.61057163139687,1.73514978063475,1.73514978063475))
REPRESENTATION_ITEM('')
);
#54=(
BOUNDED_CURVE()
B_SPLINE_CURVE(2,(#512,#513,#514),.UNSPECIFIED.,.F.,.F.)
B_SPLINE_CURVE_WITH_KNOTS((3,3),(0.573083276412726,0.808995669705086),
 .UNSPECIFIED.)
CURVE()
GEOMETRIC_REPRESENTATION_ITEM()
RATIONAL_B_SPLINE_CURVE((1.73514978063475,1.73514978063475,1.61057163139688))
REPRESENTATION_ITEM('')
);
#55=(
BOUNDED_CURVE()
B_SPLINE_CURVE(2,(#517,#518,#519),.UNSPECIFIED.,.F.,.F.)
B_SPLINE_CURVE_WITH_KNOTS((3,3),(0.337170883120365,0.573083276412728),
 .UNSPECIFIED.)
CURVE()
GEOMETRIC_REPRESENTATION_ITEM()
RATIONAL_B_SPLINE_CURVE((1.61057163139687,1.73514978063476,1.73514978063476))
REPRESENTATION_ITEM('')
);
#56=(
BOUNDED_CURVE()
B_SPLINE_CURVE(2,(#522,#523,#524),.UNSPECIFIED.,.F.,.F.)
B_SPLINE_CURVE_WITH_KNOTS((3,3),(0.573083276412728,0.808995669705091),
 .UNSPECIFIED.)
CURVE()
GEOMETRIC_REPRESENTATION_ITEM()
RATIONAL_B_SPLINE_CURVE((1.73514978063476,1.73514978063476,1.61057163139687))
REPRESENTATION_ITEM('')
);
#57=(
BOUNDED_CURVE()
B_SPLINE_CURVE(2,(#525,#526,#527),.UNSPECIFIED.,.F.,.F.)
B_SPLINE_CURVE_WITH_KNOTS((3,3),(0.337170883120366,0.573083276412728),
 .UNSPECIFIED.)
CURVE()
GEOMETRIC_REPRESENTATION_ITEM()
RATIONAL_B_SPLINE_CURVE((1.61057163139687,1.73514978063476,1.73514978063476))
REPRESENTATION_ITEM('')
);
#58=(
BOUNDED_CURVE()
B_SPLINE_CURVE(2,(#528,#529,#530),.UNSPECIFIED.,.F.,.F.)
B_SPLINE_CURVE_WITH_KNOTS((3,3),(0.573083276412728,0.80899566970509),
 .UNSPECIFIED.)
CURVE()
GEOMETRIC_REPRESENTATION_ITEM()
RATIONAL_B_SPLINE_CURVE((1.73514978063476,1.73514978063476,1.61057163139687))
REPRESENTATION_ITEM('')
);
#59=(
BOUNDED_CURVE()
B_SPLINE_CURVE(2,(#533,#534,#535),.UNSPECIFIED.,.F.,.F.)
B_SPLINE_CURVE_WITH_KNOTS((3,3),(0.337170883120364,0.573083276412728),
 .UNSPECIFIED.)
CURVE()
GEOMETRIC_REPRESENTATION_ITEM()
RATIONAL_B_SPLINE_CURVE((1.61057163139687,1.73514978063475,1.73514978063475))
REPRESENTATION_ITEM('')
);
#60=(
BOUNDED_CURVE()
B_SPLINE_CURVE(2,(#538,#539,#540),.UNSPECIFIED.,.F.,.F.)
B_SPLINE_CURVE_WITH_KNOTS((3,3),(0.573083276412728,0.808995669705093),
 .UNSPECIFIED.)
CURVE()
GEOMETRIC_REPRESENTATION_ITEM()
RATIONAL_B_SPLINE_CURVE((1.73514978063476,1.73514978063476,1.61057163139687))
REPRESENTATION_ITEM('')
);
#61=(
BOUNDED_CURVE()
B_SPLINE_CURVE(2,(#541,#542,#543),.UNSPECIFIED.,.F.,.F.)
B_SPLINE_CURVE_WITH_KNOTS((3,3),(0.337170883120366,0.573083276412728),
 .UNSPECIFIED.)
CURVE()
GEOMETRIC_REPRESENTATION_ITEM()
RATIONAL_B_SPLINE_CURVE((1.61057163139687,1.73514978063476,1.73514978063476))
REPRESENTATION_ITEM('')
);
#62=(
BOUNDED_CURVE()
B_SPLINE_CURVE(2,(#544,#545,#546),.UNSPECIFIED.,.F.,.F.)
B_SPLINE_CURVE_WITH_KNOTS((3,3),(0.573083276412728,0.80899566970509),
 .UNSPECIFIED.)
CURVE()
GEOMETRIC_REPRESENTATION_ITEM()
RATIONAL_B_SPLINE_CURVE((1.73514978063475,1.73514978063475,1.61057163139687))
REPRESENTATION_ITEM('')
);
#63=(
BOUNDED_CURVE()
B_SPLINE_CURVE(2,(#548,#549,#550),.UNSPECIFIED.,.F.,.F.)
B_SPLINE_CURVE_WITH_KNOTS((3,3),(0.337170883120368,0.573083276412727),
 .UNSPECIFIED.)
CURVE()
GEOMETRIC_REPRESENTATION_ITEM()
RATIONAL_B_SPLINE_CURVE((1.61057163139687,1.73514978063475,1.73514978063475))
REPRESENTATION_ITEM('')
);
#64=(
BOUNDED_CURVE()
B_SPLINE_CURVE(2,(#551,#552,#553),.UNSPECIFIED.,.F.,.F.)
B_SPLINE_CURVE_WITH_KNOTS((3,3),(0.573083276412726,0.808995669705088),
 .UNSPECIFIED.)
CURVE()
GEOMETRIC_REPRESENTATION_ITEM()
RATIONAL_B_SPLINE_CURVE((1.73514978063475,1.73514978063475,1.61057163139687))
REPRESENTATION_ITEM('')
);
#65=(
BOUNDED_CURVE()
B_SPLINE_CURVE(2,(#554,#555,#556),.UNSPECIFIED.,.F.,.F.)
B_SPLINE_CURVE_WITH_KNOTS((3,3),(0.337170883120367,0.573083276412726),
 .UNSPECIFIED.)
CURVE()
GEOMETRIC_REPRESENTATION_ITEM()
RATIONAL_B_SPLINE_CURVE((1.61057163139687,1.73514978063475,1.73514978063475))
REPRESENTATION_ITEM('')
);
#66=(
BOUNDED_CURVE()
B_SPLINE_CURVE(2,(#557,#558,#559),.UNSPECIFIED.,.F.,.F.)
B_SPLINE_CURVE_WITH_KNOTS((3,3),(0.573083276412727,0.808995669705086),
 .UNSPECIFIED.)
CURVE()
GEOMETRIC_REPRESENTATION_ITEM()
RATIONAL_B_SPLINE_CURVE((1.73514978063475,1.73514978063475,1.61057163139687))
REPRESENTATION_ITEM('')
);
#67=PLANE('',#322);
#68=PLANE('',#329);
#69=PLANE('',#336);
#70=PLANE('',#337);
#71=PLANE('',#338);
#72=PLANE('',#339);
#73=PLANE('',#340);
#74=PLANE('',#341);
#75=FACE_BOUND('',#100,.T.);
#76=FACE_BOUND('',#102,.T.);
#77=FACE_BOUND('',#104,.T.);
#78=FACE_OUTER_BOUND('',#99,.T.);
#79=FACE_OUTER_BOUND('',#101,.T.);
#80=FACE_OUTER_BOUND('',#103,.T.);
#81=FACE_OUTER_BOUND('',#105,.T.);
#82=FACE_OUTER_BOUND('',#106,.T.);
#83=FACE_OUTER_BOUND('',#107,.T.);
#84=FACE_OUTER_BOUND('',#108,.T.);
#85=FACE_OUTER_BOUND('',#109,.T.);
#86=FACE_OUTER_BOUND('',#110,.T.);
#87=FACE_OUTER_BOUND('',#111,.T.);
#88=FACE_OUTER_BOUND('',#112,.T.);
#89=FACE_OUTER_BOUND('',#113,.T.);
#90=FACE_OUTER_BOUND('',#114,.T.);
#91=FACE_OUTER_BOUND('',#115,.T.);
#92=FACE_OUTER_BOUND('',#116,.T.);
#93=FACE_OUTER_BOUND('',#117,.T.);
#94=FACE_OUTER_BOUND('',#118,.T.);
#95=FACE_OUTER_BOUND('',#119,.T.);
#96=FACE_OUTER_BOUND('',#120,.T.);
#97=FACE_OUTER_BOUND('',#121,.T.);
#98=FACE_OUTER_BOUND('',#122,.T.);
#99=EDGE_LOOP('',(#207));
#100=EDGE_LOOP('',(#208));
#101=EDGE_LOOP('',(#209,#210,#211,#212,#213,#214));
#102=EDGE_LOOP('',(#215));
#103=EDGE_LOOP('',(#216,#217,#218,#219,#220,#221));
#104=EDGE_LOOP('',(#222));
#105=EDGE_LOOP('',(#223,#224,#225,#226,#227,#228));
#106=EDGE_LOOP('',(#229,#230,#231,#232,#233,#234));
#107=EDGE_LOOP('',(#235,#236,#237,#238,#239,#240));
#108=EDGE_LOOP('',(#241,#242,#243,#244,#245,#246));
#109=EDGE_LOOP('',(#247,#248,#249,#250,#251,#252));
#110=EDGE_LOOP('',(#253,#254,#255,#256,#257,#258));
#111=EDGE_LOOP('',(#259,#260,#261));
#112=EDGE_LOOP('',(#262,#263,#264));
#113=EDGE_LOOP('',(#265,#266,#267));
#114=EDGE_LOOP('',(#268,#269,#270));
#115=EDGE_LOOP('',(#271,#272,#273));
#116=EDGE_LOOP('',(#274,#275,#276));
#117=EDGE_LOOP('',(#277,#278,#279));
#118=EDGE_LOOP('',(#280,#281,#282));
#119=EDGE_LOOP('',(#283,#284,#285));
#120=EDGE_LOOP('',(#286,#287,#288));
#121=EDGE_LOOP('',(#289,#290,#291));
#122=EDGE_LOOP('',(#292,#293,#294));
#123=CIRCLE('',#320,1.785);
#124=CIRCLE('',#321,1.785);
#125=CIRCLE('',#323,2.37489999999999);
#126=CIRCLE('',#324,2.37489999999999);
#127=CIRCLE('',#325,2.37489999999999);
#128=CIRCLE('',#326,2.37489999999999);
#129=CIRCLE('',#327,2.37489999999999);
#130=CIRCLE('',#328,2.37489999999999);
#131=CIRCLE('',#330,2.37489999999999);
#132=CIRCLE('',#331,2.37489999999999);
#133=CIRCLE('',#332,2.37489999999999);
#134=CIRCLE('',#333,2.37489999999999);
#135=CIRCLE('',#334,2.37489999999999);
#136=CIRCLE('',#335,2.37489999999999);
#137=VERTEX_POINT('',#434);
#138=VERTEX_POINT('',#436);
#139=VERTEX_POINT('',#439);
#140=VERTEX_POINT('',#440);
#141=VERTEX_POINT('',#442);
#142=VERTEX_POINT('',#444);
#143=VERTEX_POINT('',#446);
#144=VERTEX_POINT('',#448);
#145=VERTEX_POINT('',#452);
#146=VERTEX_POINT('',#453);
#147=VERTEX_POINT('',#455);
#148=VERTEX_POINT('',#457);
#149=VERTEX_POINT('',#459);
#150=VERTEX_POINT('',#461);
#151=VERTEX_POINT('',#465);
#152=VERTEX_POINT('',#469);
#153=VERTEX_POINT('',#474);
#154=VERTEX_POINT('',#478);
#155=VERTEX_POINT('',#484);
#156=VERTEX_POINT('',#488);
#157=VERTEX_POINT('',#500);
#158=VERTEX_POINT('',#504);
#159=VERTEX_POINT('',#516);
#160=VERTEX_POINT('',#520);
#161=VERTEX_POINT('',#532);
#162=VERTEX_POINT('',#536);
#163=EDGE_CURVE('',#137,#137,#123,.T.);
#164=EDGE_CURVE('',#138,#138,#124,.T.);
#165=EDGE_CURVE('',#139,#140,#125,.T.);
#166=EDGE_CURVE('',#141,#139,#126,.T.);
#167=EDGE_CURVE('',#142,#141,#127,.T.);
#168=EDGE_CURVE('',#143,#142,#128,.T.);
#169=EDGE_CURVE('',#144,#143,#129,.T.);
#170=EDGE_CURVE('',#140,#144,#130,.T.);
#171=EDGE_CURVE('',#145,#146,#131,.T.);
#172=EDGE_CURVE('',#146,#147,#132,.T.);
#173=EDGE_CURVE('',#147,#148,#133,.T.);
#174=EDGE_CURVE('',#148,#149,#134,.T.);
#175=EDGE_CURVE('',#149,#150,#135,.T.);
#176=EDGE_CURVE('',#150,#145,#136,.T.);
#177=EDGE_CURVE('',#151,#142,#43,.T.);
#178=EDGE_CURVE('',#152,#151,#31,.T.);
#179=EDGE_CURVE('',#150,#152,#44,.T.);
#180=EDGE_CURVE('',#153,#150,#45,.T.);
#181=EDGE_CURVE('',#153,#154,#32,.T.);
#182=EDGE_CURVE('',#142,#154,#46,.T.);
#183=EDGE_CURVE('',#155,#141,#47,.T.);
#184=EDGE_CURVE('',#156,#155,#33,.T.);
#185=EDGE_CURVE('',#145,#156,#48,.T.);
#186=EDGE_CURVE('',#152,#145,#49,.T.);
#187=EDGE_CURVE('',#141,#151,#50,.T.);
#188=EDGE_CURVE('',#157,#139,#51,.T.);
#189=EDGE_CURVE('',#158,#157,#34,.T.);
#190=EDGE_CURVE('',#146,#158,#52,.T.);
#191=EDGE_CURVE('',#156,#146,#53,.T.);
#192=EDGE_CURVE('',#139,#155,#54,.T.);
#193=EDGE_CURVE('',#159,#140,#55,.T.);
#194=EDGE_CURVE('',#160,#159,#35,.T.);
#195=EDGE_CURVE('',#147,#160,#56,.T.);
#196=EDGE_CURVE('',#158,#147,#57,.T.);
#197=EDGE_CURVE('',#140,#157,#58,.T.);
#198=EDGE_CURVE('',#161,#144,#59,.T.);
#199=EDGE_CURVE('',#162,#161,#36,.T.);
#200=EDGE_CURVE('',#148,#162,#60,.T.);
#201=EDGE_CURVE('',#160,#148,#61,.T.);
#202=EDGE_CURVE('',#144,#159,#62,.T.);
#203=EDGE_CURVE('',#154,#143,#63,.T.);
#204=EDGE_CURVE('',#149,#153,#64,.T.);
#205=EDGE_CURVE('',#162,#149,#65,.T.);
#206=EDGE_CURVE('',#143,#161,#66,.T.);
#207=ORIENTED_EDGE('',*,*,#163,.F.);
#208=ORIENTED_EDGE('',*,*,#164,.F.);
#209=ORIENTED_EDGE('',*,*,#165,.F.);
#210=ORIENTED_EDGE('',*,*,#166,.F.);
#211=ORIENTED_EDGE('',*,*,#167,.F.);
#212=ORIENTED_EDGE('',*,*,#168,.F.);
#213=ORIENTED_EDGE('',*,*,#169,.F.);
#214=ORIENTED_EDGE('',*,*,#170,.F.);
#215=ORIENTED_EDGE('',*,*,#163,.T.);
#216=ORIENTED_EDGE('',*,*,#171,.T.);
#217=ORIENTED_EDGE('',*,*,#172,.T.);
#218=ORIENTED_EDGE('',*,*,#173,.T.);
#219=ORIENTED_EDGE('',*,*,#174,.T.);
#220=ORIENTED_EDGE('',*,*,#175,.T.);
#221=ORIENTED_EDGE('',*,*,#176,.T.);
#222=ORIENTED_EDGE('',*,*,#164,.T.);
#223=ORIENTED_EDGE('',*,*,#177,.F.);
#224=ORIENTED_EDGE('',*,*,#178,.F.);
#225=ORIENTED_EDGE('',*,*,#179,.F.);
#226=ORIENTED_EDGE('',*,*,#180,.F.);
#227=ORIENTED_EDGE('',*,*,#181,.T.);
#228=ORIENTED_EDGE('',*,*,#182,.F.);
#229=ORIENTED_EDGE('',*,*,#183,.F.);
#230=ORIENTED_EDGE('',*,*,#184,.F.);
#231=ORIENTED_EDGE('',*,*,#185,.F.);
#232=ORIENTED_EDGE('',*,*,#186,.F.);
#233=ORIENTED_EDGE('',*,*,#178,.T.);
#234=ORIENTED_EDGE('',*,*,#187,.F.);
#235=ORIENTED_EDGE('',*,*,#188,.F.);
#236=ORIENTED_EDGE('',*,*,#189,.F.);
#237=ORIENTED_EDGE('',*,*,#190,.F.);
#238=ORIENTED_EDGE('',*,*,#191,.F.);
#239=ORIENTED_EDGE('',*,*,#184,.T.);
#240=ORIENTED_EDGE('',*,*,#192,.F.);
#241=ORIENTED_EDGE('',*,*,#193,.F.);
#242=ORIENTED_EDGE('',*,*,#194,.F.);
#243=ORIENTED_EDGE('',*,*,#195,.F.);
#244=ORIENTED_EDGE('',*,*,#196,.F.);
#245=ORIENTED_EDGE('',*,*,#189,.T.);
#246=ORIENTED_EDGE('',*,*,#197,.F.);
#247=ORIENTED_EDGE('',*,*,#198,.F.);
#248=ORIENTED_EDGE('',*,*,#199,.F.);
#249=ORIENTED_EDGE('',*,*,#200,.F.);
#250=ORIENTED_EDGE('',*,*,#201,.F.);
#251=ORIENTED_EDGE('',*,*,#194,.T.);
#252=ORIENTED_EDGE('',*,*,#202,.F.);
#253=ORIENTED_EDGE('',*,*,#203,.F.);
#254=ORIENTED_EDGE('',*,*,#181,.F.);
#255=ORIENTED_EDGE('',*,*,#204,.F.);
#256=ORIENTED_EDGE('',*,*,#205,.F.);
#257=ORIENTED_EDGE('',*,*,#199,.T.);
#258=ORIENTED_EDGE('',*,*,#206,.F.);
#259=ORIENTED_EDGE('',*,*,#180,.T.);
#260=ORIENTED_EDGE('',*,*,#175,.F.);
#261=ORIENTED_EDGE('',*,*,#204,.T.);
#262=ORIENTED_EDGE('',*,*,#200,.T.);
#263=ORIENTED_EDGE('',*,*,#205,.T.);
#264=ORIENTED_EDGE('',*,*,#174,.F.);
#265=ORIENTED_EDGE('',*,*,#195,.T.);
#266=ORIENTED_EDGE('',*,*,#201,.T.);
#267=ORIENTED_EDGE('',*,*,#173,.F.);
#268=ORIENTED_EDGE('',*,*,#190,.T.);
#269=ORIENTED_EDGE('',*,*,#196,.T.);
#270=ORIENTED_EDGE('',*,*,#172,.F.);
#271=ORIENTED_EDGE('',*,*,#185,.T.);
#272=ORIENTED_EDGE('',*,*,#191,.T.);
#273=ORIENTED_EDGE('',*,*,#171,.F.);
#274=ORIENTED_EDGE('',*,*,#179,.T.);
#275=ORIENTED_EDGE('',*,*,#186,.T.);
#276=ORIENTED_EDGE('',*,*,#176,.F.);
#277=ORIENTED_EDGE('',*,*,#192,.T.);
#278=ORIENTED_EDGE('',*,*,#183,.T.);
#279=ORIENTED_EDGE('',*,*,#166,.T.);
#280=ORIENTED_EDGE('',*,*,#187,.T.);
#281=ORIENTED_EDGE('',*,*,#177,.T.);
#282=ORIENTED_EDGE('',*,*,#167,.T.);
#283=ORIENTED_EDGE('',*,*,#182,.T.);
#284=ORIENTED_EDGE('',*,*,#203,.T.);
#285=ORIENTED_EDGE('',*,*,#168,.T.);
#286=ORIENTED_EDGE('',*,*,#198,.T.);
#287=ORIENTED_EDGE('',*,*,#169,.T.);
#288=ORIENTED_EDGE('',*,*,#206,.T.);
#289=ORIENTED_EDGE('',*,*,#193,.T.);
#290=ORIENTED_EDGE('',*,*,#170,.T.);
#291=ORIENTED_EDGE('',*,*,#202,.T.);
#292=ORIENTED_EDGE('',*,*,#188,.T.);
#293=ORIENTED_EDGE('',*,*,#165,.T.);
#294=ORIENTED_EDGE('',*,*,#197,.T.);
#295=CYLINDRICAL_SURFACE('',#319,1.785);
#296=ADVANCED_FACE('',(#78,#75),#295,.F.);
#297=ADVANCED_FACE('',(#79,#76),#67,.F.);
#298=ADVANCED_FACE('',(#80,#77),#68,.T.);
#299=ADVANCED_FACE('',(#81),#69,.F.);
#300=ADVANCED_FACE('',(#82),#70,.F.);
#301=ADVANCED_FACE('',(#83),#71,.F.);
#302=ADVANCED_FACE('',(#84),#72,.F.);
#303=ADVANCED_FACE('',(#85),#73,.F.);
#304=ADVANCED_FACE('',(#86),#74,.F.);
#305=ADVANCED_FACE('',(#87),#19,.T.);
#306=ADVANCED_FACE('',(#88),#20,.T.);
#307=ADVANCED_FACE('',(#89),#21,.T.);
#308=ADVANCED_FACE('',(#90),#22,.T.);
#309=ADVANCED_FACE('',(#91),#23,.T.);
#310=ADVANCED_FACE('',(#92),#24,.T.);
#311=ADVANCED_FACE('',(#93),#25,.T.);
#312=ADVANCED_FACE('',(#94),#26,.T.);
#313=ADVANCED_FACE('',(#95),#27,.T.);
#314=ADVANCED_FACE('',(#96),#28,.T.);
#315=ADVANCED_FACE('',(#97),#29,.T.);
#316=ADVANCED_FACE('',(#98),#30,.T.);
#317=CLOSED_SHELL('',(#296,#297,#298,#299,#300,#301,#302,#303,#304,#305,
#306,#307,#308,#309,#310,#311,#312,#313,#314,#315,#316));
#318=AXIS2_PLACEMENT_3D('placement',#432,#354,#355);
#319=AXIS2_PLACEMENT_3D('',#433,#356,#357);
#320=AXIS2_PLACEMENT_3D('',#435,#358,#359);
#321=AXIS2_PLACEMENT_3D('',#437,#360,#361);
#322=AXIS2_PLACEMENT_3D('',#438,#362,#363);
#323=AXIS2_PLACEMENT_3D('',#441,#364,#365);
#324=AXIS2_PLACEMENT_3D('',#443,#366,#367);
#325=AXIS2_PLACEMENT_3D('',#445,#368,#369);
#326=AXIS2_PLACEMENT_3D('',#447,#370,#371);
#327=AXIS2_PLACEMENT_3D('',#449,#372,#373);
#328=AXIS2_PLACEMENT_3D('',#450,#374,#375);
#329=AXIS2_PLACEMENT_3D('',#451,#376,#377);
#330=AXIS2_PLACEMENT_3D('',#454,#378,#379);
#331=AXIS2_PLACEMENT_3D('',#456,#380,#381);
#332=AXIS2_PLACEMENT_3D('',#458,#382,#383);
#333=AXIS2_PLACEMENT_3D('',#460,#384,#385);
#334=AXIS2_PLACEMENT_3D('',#462,#386,#387);
#335=AXIS2_PLACEMENT_3D('',#463,#388,#389);
#336=AXIS2_PLACEMENT_3D('',#464,#390,#391);
#337=AXIS2_PLACEMENT_3D('',#483,#394,#395);
#338=AXIS2_PLACEMENT_3D('',#499,#397,#398);
#339=AXIS2_PLACEMENT_3D('',#515,#400,#401);
#340=AXIS2_PLACEMENT_3D('',#531,#403,#404);
#341=AXIS2_PLACEMENT_3D('',#547,#406,#407);
#342=AXIS2_PLACEMENT_3D('',#560,#408,#409);
#343=AXIS2_PLACEMENT_3D('',#561,#410,#411);
#344=AXIS2_PLACEMENT_3D('',#562,#412,#413);
#345=AXIS2_PLACEMENT_3D('',#563,#414,#415);
#346=AXIS2_PLACEMENT_3D('',#564,#416,#417);
#347=AXIS2_PLACEMENT_3D('',#565,#418,#419);
#348=AXIS2_PLACEMENT_3D('',#566,#420,#421);
#349=AXIS2_PLACEMENT_3D('',#567,#422,#423);
#350=AXIS2_PLACEMENT_3D('',#568,#424,#425);
#351=AXIS2_PLACEMENT_3D('',#569,#426,#427);
#352=AXIS2_PLACEMENT_3D('',#570,#428,#429);
#353=AXIS2_PLACEMENT_3D('',#571,#430,#431);
#354=DIRECTION('axis',(0.,0.,1.));
#355=DIRECTION('refdir',(1.,0.,0.));
#356=DIRECTION('center_axis',(1.,0.,-1.22464679914735E-16));
#357=DIRECTION('ref_axis',(0.,-1.,0.));
#358=DIRECTION('center_axis',(1.,2.22044604925031E-16,0.));
#359=DIRECTION('ref_axis',(0.,-1.,0.));
#360=DIRECTION('center_axis',(-1.,-2.22044604925031E-16,0.));
#361=DIRECTION('ref_axis',(0.,-1.,0.));
#362=DIRECTION('center_axis',(1.,2.22044604925031E-16,0.));
#363=DIRECTION('ref_axis',(1.04902962956708E-16,-0.499999999999995,0.866025403784441));
#364=DIRECTION('center_axis',(1.,2.22044604925031E-16,0.));
#365=DIRECTION('ref_axis',(1.11022302462515E-16,-0.499999999999995,0.866025403784442));
#366=DIRECTION('center_axis',(1.,2.22044604925031E-16,0.));
#367=DIRECTION('ref_axis',(1.11022302462515E-16,-0.499999999999995,0.866025403784442));
#368=DIRECTION('center_axis',(1.,2.22044604925031E-16,0.));
#369=DIRECTION('ref_axis',(1.11022302462515E-16,-0.499999999999995,0.866025403784442));
#370=DIRECTION('center_axis',(1.,2.22044604925031E-16,0.));
#371=DIRECTION('ref_axis',(1.11022302462515E-16,-0.499999999999995,0.866025403784442));
#372=DIRECTION('center_axis',(1.,2.22044604925031E-16,0.));
#373=DIRECTION('ref_axis',(1.11022302462515E-16,-0.499999999999995,0.866025403784442));
#374=DIRECTION('center_axis',(1.,2.22044604925031E-16,0.));
#375=DIRECTION('ref_axis',(1.11022302462515E-16,-0.499999999999995,0.866025403784442));
#376=DIRECTION('center_axis',(1.,2.22044604925031E-16,0.));
#377=DIRECTION('ref_axis',(1.04902962956708E-16,-0.499999999999995,0.866025403784441));
#378=DIRECTION('center_axis',(1.,2.22044604925031E-16,0.));
#379=DIRECTION('ref_axis',(1.11022302462515E-16,-0.499999999999995,0.866025403784442));
#380=DIRECTION('center_axis',(1.,2.22044604925031E-16,0.));
#381=DIRECTION('ref_axis',(1.11022302462515E-16,-0.499999999999995,0.866025403784442));
#382=DIRECTION('center_axis',(1.,2.22044604925031E-16,0.));
#383=DIRECTION('ref_axis',(1.11022302462515E-16,-0.499999999999995,0.866025403784442));
#384=DIRECTION('center_axis',(1.,2.22044604925031E-16,0.));
#385=DIRECTION('ref_axis',(1.11022302462515E-16,-0.499999999999995,0.866025403784442));
#386=DIRECTION('center_axis',(1.,2.22044604925031E-16,0.));
#387=DIRECTION('ref_axis',(1.11022302462515E-16,-0.499999999999995,0.866025403784442));
#388=DIRECTION('center_axis',(1.,2.22044604925031E-16,0.));
#389=DIRECTION('ref_axis',(1.11022302462515E-16,-0.499999999999995,0.866025403784442));
#390=DIRECTION('center_axis',(2.22044604925031E-16,-1.,6.12323399573677E-17));
#391=DIRECTION('ref_axis',(0.,-6.99353086378051E-17,-1.));
#392=DIRECTION('',(-1.,-2.22044604925031E-16,0.));
#393=DIRECTION('',(-1.,-2.22044604925031E-16,0.));
#394=DIRECTION('center_axis',(1.11022302462517E-16,-0.500000000000004,-0.866025403784436));
#395=DIRECTION('ref_axis',(-1.74838271594513E-16,0.866025403784436,-0.500000000000004));
#396=DIRECTION('',(-1.,-2.22044604925031E-16,0.));
#397=DIRECTION('center_axis',(-1.11022302462515E-16,0.499999999999998,-0.86602540378444));
#398=DIRECTION('ref_axis',(-1.74838271594513E-16,0.86602540378444,0.499999999999998));
#399=DIRECTION('',(-1.,-2.22044604925031E-16,0.));
#400=DIRECTION('center_axis',(-2.22044604925031E-16,1.,-1.16743491188626E-16));
#401=DIRECTION('ref_axis',(0.,1.22386790116159E-16,1.));
#402=DIRECTION('',(-1.,-2.22044604925031E-16,0.));
#403=DIRECTION('center_axis',(-1.11022302462515E-16,0.499999999999998,0.86602540378444));
#404=DIRECTION('ref_axis',(1.74838271594513E-16,-0.86602540378444,0.499999999999998));
#405=DIRECTION('',(-1.,-2.22044604925031E-16,0.));
#406=DIRECTION('center_axis',(1.11022302462517E-16,-0.500000000000004,0.866025403784436));
#407=DIRECTION('ref_axis',(1.74838271594513E-16,-0.866025403784436,-0.500000000000004));
#408=DIRECTION('center_axis',(-1.,-2.22044604925031E-16,0.));
#409=DIRECTION('ref_axis',(-1.11022302462515E-16,0.499999999999995,-0.866025403784442));
#410=DIRECTION('center_axis',(-1.,-2.22044604925031E-16,0.));
#411=DIRECTION('ref_axis',(-1.11022302462515E-16,0.499999999999995,-0.866025403784442));
#412=DIRECTION('center_axis',(-1.,-2.22044604925031E-16,0.));
#413=DIRECTION('ref_axis',(-1.11022302462515E-16,0.499999999999995,-0.866025403784442));
#414=DIRECTION('center_axis',(-1.,-2.22044604925031E-16,0.));
#415=DIRECTION('ref_axis',(-1.11022302462515E-16,0.499999999999995,-0.866025403784442));
#416=DIRECTION('center_axis',(-1.,-2.22044604925031E-16,0.));
#417=DIRECTION('ref_axis',(-1.11022302462515E-16,0.499999999999995,-0.866025403784442));
#418=DIRECTION('center_axis',(-1.,-2.22044604925031E-16,0.));
#419=DIRECTION('ref_axis',(-1.11022302462515E-16,0.499999999999995,-0.866025403784442));
#420=DIRECTION('center_axis',(1.,2.22044604925031E-16,0.));
#421=DIRECTION('ref_axis',(1.11022302462515E-16,-0.499999999999995,0.866025403784441));
#422=DIRECTION('center_axis',(1.,2.22044604925031E-16,0.));
#423=DIRECTION('ref_axis',(1.11022302462515E-16,-0.499999999999995,0.866025403784441));
#424=DIRECTION('center_axis',(1.,2.22044604925031E-16,0.));
#425=DIRECTION('ref_axis',(1.11022302462515E-16,-0.499999999999995,0.866025403784441));
#426=DIRECTION('center_axis',(1.,2.22044604925031E-16,0.));
#427=DIRECTION('ref_axis',(1.11022302462515E-16,-0.499999999999995,0.866025403784441));
#428=DIRECTION('center_axis',(1.,2.22044604925031E-16,0.));
#429=DIRECTION('ref_axis',(1.11022302462515E-16,-0.499999999999995,0.866025403784441));
#430=DIRECTION('center_axis',(1.,2.22044604925031E-16,0.));
#431=DIRECTION('ref_axis',(1.11022302462515E-16,-0.499999999999995,0.866025403784441));
#432=CARTESIAN_POINT('',(0.,0.,0.));
#433=CARTESIAN_POINT('Origin',(-5.06820104618606,0.,0.457299999999999));
#434=CARTESIAN_POINT('',(-6.96699999999998,1.785,0.457299999999999));
#435=CARTESIAN_POINT('Origin',(-6.96699999999998,0.,0.457299999999999));
#436=CARTESIAN_POINT('',(-5.95100000000002,1.785,0.457299999999999));
#437=CARTESIAN_POINT('Origin',(-5.95100000000002,0.,0.457299999999999));
#438=CARTESIAN_POINT('Origin',(-6.96699999999998,5.32907051820075E-15,0.457300000000002));
#439=CARTESIAN_POINT('',(-6.96699999999998,-1.18744999999999,2.51402373144766));
#440=CARTESIAN_POINT('',(-6.96699999999998,-2.37489999999999,0.457299999999998));
#441=CARTESIAN_POINT('Origin',(-6.96699999999998,-1.77635683940025E-15,
0.457299999999998));
#442=CARTESIAN_POINT('',(-6.96699999999998,1.18745,2.51402373144765));
#443=CARTESIAN_POINT('Origin',(-6.96699999999998,-1.77635683940025E-15,
0.457299999999998));
#444=CARTESIAN_POINT('',(-6.96699999999998,2.37489999999999,0.457299999999997));
#445=CARTESIAN_POINT('Origin',(-6.96699999999998,-1.77635683940025E-15,
0.457299999999998));
#446=CARTESIAN_POINT('',(-6.96699999999998,1.18745,-1.59942373144765));
#447=CARTESIAN_POINT('Origin',(-6.96699999999998,-1.77635683940025E-15,
0.457299999999998));
#448=CARTESIAN_POINT('',(-6.96699999999998,-1.18744999999999,-1.59942373144766));
#449=CARTESIAN_POINT('Origin',(-6.96699999999998,-1.77635683940025E-15,
0.457299999999998));
#450=CARTESIAN_POINT('Origin',(-6.96699999999998,-1.77635683940025E-15,
0.457299999999998));
#451=CARTESIAN_POINT('Origin',(-5.95100000000002,5.32907051820075E-15,0.457300000000002));
#452=CARTESIAN_POINT('',(-5.95100000000002,1.18745000000001,2.51402373144765));
#453=CARTESIAN_POINT('',(-5.95100000000002,-1.18744999999999,2.51402373144765));
#454=CARTESIAN_POINT('Origin',(-5.95100000000002,-1.77635683940025E-15,
0.457299999999998));
#455=CARTESIAN_POINT('',(-5.95100000000002,-2.37489999999998,0.457299999999998));
#456=CARTESIAN_POINT('Origin',(-5.95100000000002,-1.77635683940025E-15,
0.457299999999998));
#457=CARTESIAN_POINT('',(-5.95100000000002,-1.18744999999999,-1.59942373144765));
#458=CARTESIAN_POINT('Origin',(-5.95100000000002,-1.77635683940025E-15,
0.457299999999998));
#459=CARTESIAN_POINT('',(-5.95100000000002,1.18745,-1.59942373144765));
#460=CARTESIAN_POINT('Origin',(-5.95100000000002,-1.77635683940025E-15,
0.457299999999998));
#461=CARTESIAN_POINT('',(-5.95100000000002,2.3749,0.457299999999998));
#462=CARTESIAN_POINT('Origin',(-5.95100000000002,-1.77635683940025E-15,
0.457299999999998));
#463=CARTESIAN_POINT('Origin',(-5.95100000000002,-1.77635683940025E-15,
0.457299999999998));
#464=CARTESIAN_POINT('Origin',(-5.95100000000002,2.3749,-0.91384915429842));
#465=CARTESIAN_POINT('',(-6.75488248763179,2.37489999999998,1.82844915429844));
#466=CARTESIAN_POINT('Ctrl Pts',(-6.75488248763153,2.3749,1.82844915429937));
#467=CARTESIAN_POINT('Ctrl Pts',(-6.96700000000002,2.3749,1.09365253710505));
#468=CARTESIAN_POINT('Ctrl Pts',(-6.96700000000002,2.3749,0.457299999999998));
#469=CARTESIAN_POINT('',(-6.16311751236822,2.37489999999998,1.82844915429844));
#470=CARTESIAN_POINT('',(-5.95100000000002,2.3749,1.82844915429842));
#471=CARTESIAN_POINT('Ctrl Pts',(-5.95100000000004,2.3749,0.457299999999998));
#472=CARTESIAN_POINT('Ctrl Pts',(-5.95100000000004,2.3749,1.09365253710504));
#473=CARTESIAN_POINT('Ctrl Pts',(-6.16311751236853,2.3749,1.82844915429937));
#474=CARTESIAN_POINT('',(-6.16311751236822,2.37489999999998,-0.913849154298431));
#475=CARTESIAN_POINT('Ctrl Pts',(-6.16311751236853,2.3749,-0.913849154299364));
#476=CARTESIAN_POINT('Ctrl Pts',(-5.95100000000004,2.3749,-0.179052537105045));
#477=CARTESIAN_POINT('Ctrl Pts',(-5.95100000000004,2.3749,0.457299999999998));
#478=CARTESIAN_POINT('',(-6.75488248763179,2.37489999999998,-0.913849154298431));
#479=CARTESIAN_POINT('',(-5.95100000000002,2.3749,-0.91384915429842));
#480=CARTESIAN_POINT('Ctrl Pts',(-6.96700000000002,2.3749,0.457299999999998));
#481=CARTESIAN_POINT('Ctrl Pts',(-6.96700000000002,2.3749,-0.179052537105045));
#482=CARTESIAN_POINT('Ctrl Pts',(-6.75488248763153,2.3749,-0.913849154299364));
#483=CARTESIAN_POINT('Origin',(-5.95100000000002,2.3749,1.82844915429842));
#484=CARTESIAN_POINT('',(-6.75488248763179,-7.105427357601E-15,3.19959830859686));
#485=CARTESIAN_POINT('Ctrl Pts',(-6.75488248763153,-8.03764341478053E-13,
3.19959830859735));
#486=CARTESIAN_POINT('Ctrl Pts',(-6.96700000000002,0.636352537104353,2.83220000000018));
#487=CARTESIAN_POINT('Ctrl Pts',(-6.96700000000002,1.18745000000001,2.51402373144765));
#488=CARTESIAN_POINT('',(-6.16311751236822,-5.32907051820075E-15,3.19959830859686));
#489=CARTESIAN_POINT('',(-5.95100000000002,1.4210854715202E-14,3.19959830859687));
#490=CARTESIAN_POINT('Ctrl Pts',(-5.95100000000004,1.18745000000001,2.51402373144765));
#491=CARTESIAN_POINT('Ctrl Pts',(-5.95100000000004,0.636352537104353,2.83220000000018));
#492=CARTESIAN_POINT('Ctrl Pts',(-6.16311751236853,-8.08313950958117E-13,
3.19959830859735));
#493=CARTESIAN_POINT('Ctrl Pts',(-6.16311751236852,2.37490000000078,1.82844915429797));
#494=CARTESIAN_POINT('Ctrl Pts',(-5.95100000000004,1.73854746289565,2.19584746289513));
#495=CARTESIAN_POINT('Ctrl Pts',(-5.95100000000004,1.18745000000001,2.51402373144765));
#496=CARTESIAN_POINT('Ctrl Pts',(-6.96700000000002,1.18745,2.51402373144765));
#497=CARTESIAN_POINT('Ctrl Pts',(-6.96700000000002,1.73854746289564,2.19584746289513));
#498=CARTESIAN_POINT('Ctrl Pts',(-6.75488248763154,2.37490000000078,1.82844915429798));
#499=CARTESIAN_POINT('Origin',(-5.95100000000002,1.4210854715202E-14,3.19959830859687));
#500=CARTESIAN_POINT('',(-6.75488248763179,-2.37489999999998,1.82844915429843));
#501=CARTESIAN_POINT('Ctrl Pts',(-6.75488248763154,-2.37490000000079,1.82844915429797));
#502=CARTESIAN_POINT('Ctrl Pts',(-6.96700000000003,-1.73854746289564,2.19584746289513));
#503=CARTESIAN_POINT('Ctrl Pts',(-6.96700000000003,-1.18744999999999,2.51402373144765));
#504=CARTESIAN_POINT('',(-6.16311751236822,-2.37489999999998,1.82844915429843));
#505=CARTESIAN_POINT('',(-5.95100000000002,-2.37489999999998,1.82844915429844));
#506=CARTESIAN_POINT('Ctrl Pts',(-5.95100000000004,-1.18744999999999,2.51402373144765));
#507=CARTESIAN_POINT('Ctrl Pts',(-5.95100000000004,-1.73854746289564,2.19584746289513));
#508=CARTESIAN_POINT('Ctrl Pts',(-6.16311751236853,-2.37490000000079,1.82844915429798));
#509=CARTESIAN_POINT('Ctrl Pts',(-6.16311751236852,8.05005144063521E-13,
3.19959830859733));
#510=CARTESIAN_POINT('Ctrl Pts',(-5.95100000000004,-0.636352537104343,2.83220000000017));
#511=CARTESIAN_POINT('Ctrl Pts',(-5.95100000000004,-1.18744999999999,2.51402373144765));
#512=CARTESIAN_POINT('Ctrl Pts',(-6.96700000000003,-1.18744999999999,2.51402373144765));
#513=CARTESIAN_POINT('Ctrl Pts',(-6.96700000000003,-0.63635253710435,2.83220000000017));
#514=CARTESIAN_POINT('Ctrl Pts',(-6.75488248763154,7.96733126827038E-13,
3.19959830859732));
#515=CARTESIAN_POINT('Origin',(-5.95100000000002,-2.37489999999998,1.82844915429844));
#516=CARTESIAN_POINT('',(-6.75488248763179,-2.37489999999998,-0.913849154298438));
#517=CARTESIAN_POINT('Ctrl Pts',(-6.75488248763154,-2.37489999999998,-0.913849154299374));
#518=CARTESIAN_POINT('Ctrl Pts',(-6.96700000000003,-2.37489999999998,-0.179052537105048));
#519=CARTESIAN_POINT('Ctrl Pts',(-6.96700000000003,-2.37489999999998,0.457299999999998));
#520=CARTESIAN_POINT('',(-6.16311751236822,-2.37489999999998,-0.913849154298438));
#521=CARTESIAN_POINT('',(-5.95100000000002,-2.37489999999998,-0.913849154298437));
#522=CARTESIAN_POINT('Ctrl Pts',(-5.95100000000004,-2.37489999999998,0.457299999999998));
#523=CARTESIAN_POINT('Ctrl Pts',(-5.95100000000004,-2.37489999999998,-0.179052537105049));
#524=CARTESIAN_POINT('Ctrl Pts',(-6.16311751236853,-2.37489999999998,-0.913849154299375));
#525=CARTESIAN_POINT('Ctrl Pts',(-6.16311751236852,-2.37489999999998,1.82844915429937));
#526=CARTESIAN_POINT('Ctrl Pts',(-5.95100000000004,-2.37489999999998,1.09365253710504));
#527=CARTESIAN_POINT('Ctrl Pts',(-5.95100000000004,-2.37489999999998,0.457299999999998));
#528=CARTESIAN_POINT('Ctrl Pts',(-6.96700000000003,-2.37489999999998,0.457299999999998));
#529=CARTESIAN_POINT('Ctrl Pts',(-6.96700000000003,-2.37489999999998,1.09365253710504));
#530=CARTESIAN_POINT('Ctrl Pts',(-6.75488248763154,-2.37489999999998,1.82844915429937));
#531=CARTESIAN_POINT('Origin',(-5.95100000000002,-2.37489999999998,-0.913849154298437));
#532=CARTESIAN_POINT('',(-6.75488248763179,1.95399252334028E-14,-2.28499830859687));
#533=CARTESIAN_POINT('Ctrl Pts',(-6.75488248763153,8.25960921062606E-13,
-2.28499830859734));
#534=CARTESIAN_POINT('Ctrl Pts',(-6.96700000000003,-0.636352537104334,-1.91760000000017));
#535=CARTESIAN_POINT('Ctrl Pts',(-6.96700000000003,-1.18744999999999,-1.59942373144765));
#536=CARTESIAN_POINT('',(-6.16311751236822,1.95399252334028E-14,-2.28499830859687));
#537=CARTESIAN_POINT('',(-5.95100000000002,1.4210854715202E-14,-2.28499830859687));
#538=CARTESIAN_POINT('Ctrl Pts',(-5.95100000000004,-1.18744999999999,-1.59942373144765));
#539=CARTESIAN_POINT('Ctrl Pts',(-5.95100000000004,-0.636352537104333,-1.91760000000018));
#540=CARTESIAN_POINT('Ctrl Pts',(-6.16311751236853,8.28993994049315E-13,
-2.28499830859734));
#541=CARTESIAN_POINT('Ctrl Pts',(-6.16311751236852,-2.37490000000079,-0.913849154297968));
#542=CARTESIAN_POINT('Ctrl Pts',(-5.95100000000003,-1.73854746289564,-1.28124746289513));
#543=CARTESIAN_POINT('Ctrl Pts',(-5.95100000000004,-1.18744999999999,-1.59942373144765));
#544=CARTESIAN_POINT('Ctrl Pts',(-6.96700000000003,-1.18744999999999,-1.59942373144765));
#545=CARTESIAN_POINT('Ctrl Pts',(-6.96700000000003,-1.73854746289564,-1.28124746289513));
#546=CARTESIAN_POINT('Ctrl Pts',(-6.75488248763154,-2.37490000000079,-0.913849154297969));
#547=CARTESIAN_POINT('Origin',(-5.95100000000002,1.4210854715202E-14,-2.28499830859687));
#548=CARTESIAN_POINT('Ctrl Pts',(-6.75488248763154,2.37490000000079,-0.913849154297963));
#549=CARTESIAN_POINT('Ctrl Pts',(-6.96700000000002,1.73854746289565,-1.28124746289512));
#550=CARTESIAN_POINT('Ctrl Pts',(-6.96700000000002,1.18745,-1.59942373144765));
#551=CARTESIAN_POINT('Ctrl Pts',(-5.95100000000004,1.18745,-1.59942373144765));
#552=CARTESIAN_POINT('Ctrl Pts',(-5.95100000000004,1.73854746289565,-1.28124746289513));
#553=CARTESIAN_POINT('Ctrl Pts',(-6.16311751236853,2.3749000000008,-0.913849154297961));
#554=CARTESIAN_POINT('Ctrl Pts',(-6.16311751236852,-7.89977646083915E-13,
-2.28499830859733));
#555=CARTESIAN_POINT('Ctrl Pts',(-5.95100000000004,0.636352537104355,-1.91760000000017));
#556=CARTESIAN_POINT('Ctrl Pts',(-5.95100000000004,1.18745,-1.59942373144765));
#557=CARTESIAN_POINT('Ctrl Pts',(-6.96700000000002,1.18745,-1.59942373144765));
#558=CARTESIAN_POINT('Ctrl Pts',(-6.96700000000003,0.636352537104361,-1.91760000000017));
#559=CARTESIAN_POINT('Ctrl Pts',(-6.75488248763154,-7.81429894939551E-13,
-2.28499830859733));
#560=CARTESIAN_POINT('Origin',(-5.95100000000002,-1.77635683940025E-15,
0.457299999999998));
#561=CARTESIAN_POINT('Origin',(-5.95100000000002,-1.77635683940025E-15,
0.457299999999998));
#562=CARTESIAN_POINT('Origin',(-5.95100000000002,-1.77635683940025E-15,
0.457299999999998));
#563=CARTESIAN_POINT('Origin',(-5.95100000000002,-1.77635683940025E-15,
0.457299999999998));
#564=CARTESIAN_POINT('Origin',(-5.95100000000002,-1.77635683940025E-15,
0.457299999999998));
#565=CARTESIAN_POINT('Origin',(-5.95100000000002,-1.77635683940025E-15,
0.457299999999998));
#566=CARTESIAN_POINT('Origin',(-6.75488248763179,-1.77635683940025E-15,
0.457299999999998));
#567=CARTESIAN_POINT('Origin',(-6.75488248763179,-1.77635683940025E-15,
0.457299999999998));
#568=CARTESIAN_POINT('Origin',(-6.75488248763179,-1.77635683940025E-15,
0.457299999999998));
#569=CARTESIAN_POINT('Origin',(-6.75488248763179,-1.77635683940025E-15,
0.457299999999998));
#570=CARTESIAN_POINT('Origin',(-6.75488248763179,-1.77635683940025E-15,
0.457299999999998));
#571=CARTESIAN_POINT('Origin',(-6.75488248763179,-1.77635683940025E-15,
0.457299999999998));
#572=UNCERTAINTY_MEASURE_WITH_UNIT(LENGTH_MEASURE(0.01),#576,
'DISTANCE_ACCURACY_VALUE',
'Maximum model space distance between geometric entities at asserted c
onnectivities');
#573=UNCERTAINTY_MEASURE_WITH_UNIT(LENGTH_MEASURE(1.E-6),#576,
'DISTANCE_ACCURACY_VALUE',
'Maximum model space distance between geometric entities at asserted c
onnectivities');
#574=(
GEOMETRIC_REPRESENTATION_CONTEXT(3)
GLOBAL_UNCERTAINTY_ASSIGNED_CONTEXT((#572))
GLOBAL_UNIT_ASSIGNED_CONTEXT((#576,#578,#577))
REPRESENTATION_CONTEXT('','3D')
);
#575=(
GEOMETRIC_REPRESENTATION_CONTEXT(3)
GLOBAL_UNCERTAINTY_ASSIGNED_CONTEXT((#573))
GLOBAL_UNIT_ASSIGNED_CONTEXT((#576,#12,#577))
REPRESENTATION_CONTEXT('','3D')
);
#576=(
LENGTH_UNIT()
NAMED_UNIT(*)
SI_UNIT(.MILLI.,.METRE.)
);
#577=(
NAMED_UNIT(*)
SI_UNIT($,.STERADIAN.)
SOLID_ANGLE_UNIT()
);
#578=(
NAMED_UNIT(*)
PLANE_ANGLE_UNIT()
SI_UNIT($,.RADIAN.)
);
#579=SHAPE_DEFINITION_REPRESENTATION(#580,#581);
#580=PRODUCT_DEFINITION_SHAPE('',$,#583);
#581=SHAPE_REPRESENTATION('',(#318),#574);
#582=PRODUCT_DEFINITION_CONTEXT('part definition',#587,'design');
#583=PRODUCT_DEFINITION('Product','Product',#584,#582);
#584=PRODUCT_DEFINITION_FORMATION('',$,#589);
#585=PRODUCT_RELATED_PRODUCT_CATEGORY('Product','Product',(#589));
#586=APPLICATION_PROTOCOL_DEFINITION('international standard',
'automotive_design',2009,#587);
#587=APPLICATION_CONTEXT(
'Core Data for Automotive Mechanical Design Process');
#588=PRODUCT_CONTEXT('part definition',#587,'mechanical');
#589=PRODUCT('Product','Product',$,(#588));
#590=PRESENTATION_STYLE_ASSIGNMENT((#592));
#591=PRESENTATION_STYLE_ASSIGNMENT((#593));
#592=SURFACE_STYLE_USAGE(.BOTH.,#594);
#593=SURFACE_STYLE_USAGE(.BOTH.,#595);
#594=SURFACE_SIDE_STYLE('',(#596));
#595=SURFACE_SIDE_STYLE('',(#597));
#596=SURFACE_STYLE_FILL_AREA(#598);
#597=SURFACE_STYLE_FILL_AREA(#599);
#598=FILL_AREA_STYLE('',(#600));
#599=FILL_AREA_STYLE('',(#601));
#600=FILL_AREA_STYLE_COLOUR('',#602);
#601=FILL_AREA_STYLE_COLOUR('',#603);
#602=COLOUR_RGB('',1.,1.,1.);
#603=COLOUR_RGB('',1.,0.749019607843137,0.);
ENDSEC;
END-ISO-10303-21;
