ISO-10303-21;
HEADER;
/****************************************************************
 * Generated by software with PDE/Lib inside                    *
 * PDElib Version v51a, created Mon 11/23/2009                  *
 * ITI Transcendata (http://www.transcendata.com/)              *
 ****************************************************************/
FILE_DESCRIPTION((''),'2;1');
FILE_NAME('DIODES-INC_SOT89-3L.stp','2011-05-04T10:22:29',(''),(''),'Mechanical Desktop 2011','Mechanical Desktop 2011',', , ');
FILE_SCHEMA(('AUTOMOTIVE_DESIGN { 1 2 10303 214 1 1 1 1 }'));
ENDSEC;
DATA;
#10=(NAMED_UNIT(*)PLANE_ANGLE_UNIT()SI_UNIT($,.RADIAN.));
#11=DIMENSIONAL_EXPONENTS(0.0,0.0,0.0,0.0,0.0,0.0,0.0);
#12=PLANE_ANGLE_MEASURE_WITH_UNIT(PLANE_ANGLE_MEASURE(0.017453292500000),#10);
#16=(CONVERSION_BASED_UNIT('DEGREE',#12)NAMED_UNIT(#11)PLANE_ANGLE_UNIT());
#20=(NAMED_UNIT(*)SI_UNIT($,.STERADIAN.)SOLID_ANGLE_UNIT());
#24=(LENGTH_UNIT()NAMED_UNIT(*)SI_UNIT(.MILLI.,.METRE.));
#26=UNCERTAINTY_MEASURE_WITH_UNIT(LENGTH_MEASURE(0.000001000000000),#24,'DISTANCE_ACCURACY_VALUE','');
#28=(GEOMETRIC_REPRESENTATION_CONTEXT(3)GLOBAL_UNCERTAINTY_ASSIGNED_CONTEXT((#26))GLOBAL_UNIT_ASSIGNED_CONTEXT((#16,#20,#24))REPRESENTATION_CONTEXT('','3D'));
#29=APPLICATION_CONTEXT('automotive design');
#30=APPLICATION_PROTOCOL_DEFINITION('INTERNATIONAL_STANDARD','automotive_design',1998,#29);
#31=PRODUCT_CONTEXT('3D Mechanical Parts',#29,'mechanical');
#32=PRODUCT('Product','Product','',(#31));
#33=PRODUCT_RELATED_PRODUCT_CATEGORY('part',$,(#32));
#34=PRODUCT_CATEGORY('part',$);
#35=PERSON('1','Design','Joe',$,$,$);
#36=ORGANIZATION($,'None','None');
#37=PERSON_AND_ORGANIZATION(#35,#36);
#38=PERSON_AND_ORGANIZATION_ROLE('design_owner');
#39=APPLIED_PERSON_AND_ORGANIZATION_ASSIGNMENT(#37,#38,(#32));
#40=PRODUCT_DEFINITION_FORMATION_WITH_SPECIFIED_SOURCE('None','',#32,.BOUGHT.);
#41=PERSON('2','Creator','Joe',$,$,$);
#42=ORGANIZATION($,'None','None');
#43=PERSON_AND_ORGANIZATION(#41,#42);
#44=PERSON_AND_ORGANIZATION_ROLE('creator');
#45=APPLIED_PERSON_AND_ORGANIZATION_ASSIGNMENT(#43,#44,(#40));
#46=PERSON('3','Supplier','Joe',$,$,$);
#47=ORGANIZATION($,'None','None');
#48=PERSON_AND_ORGANIZATION(#46,#47);
#49=PERSON_AND_ORGANIZATION_ROLE('design_supplier');
#50=APPLIED_PERSON_AND_ORGANIZATION_ASSIGNMENT(#48,#49,(#40));
#51=PRODUCT_DEFINITION_CONTEXT('part definition',#29,'design');
#52=PRODUCT_DEFINITION('None','',#40,#51);
#53=PERSON('4','Creator','Joe',$,$,$);
#54=ORGANIZATION($,'None','None');
#55=PERSON_AND_ORGANIZATION(#53,#54);
#56=PERSON_AND_ORGANIZATION_ROLE('creator');
#57=APPLIED_PERSON_AND_ORGANIZATION_ASSIGNMENT(#55,#56,(#52));
#58=CARTESIAN_POINT('NONE',(0.0,0.0,0.0));
#59=DIRECTION('NONE',(0.0,0.0,1.0));
#60=DIRECTION('NONE',(1.0,0.0,0.0));
#61=AXIS2_PLACEMENT_3D('NONE',#58,#59,#60);
#62=SHAPE_REPRESENTATION('SR1',(#61),#28);
#63=PRODUCT_DEFINITION_SHAPE('PDS1','Test Part',#52);
#64=SHAPE_DEFINITION_REPRESENTATION(#63,#62);
#65=CARTESIAN_POINT('',(-2.440000000000000,-0.800000000000000,0.390000000000000));
#66=CARTESIAN_POINT('',(1.810000000000002,-0.800000000000000,0.390000000000000));
#67=CARTESIAN_POINT('',(-2.440000000000000,0.800000000000000,0.390000000000000));
#68=CARTESIAN_POINT('',(1.810000000000002,0.800000000000000,0.390000000000000));
#69=B_SPLINE_SURFACE_WITH_KNOTS('',1,1,((#65,#67),(#66,#68)),.UNSPECIFIED.,.F.,.F.,.U.,(2,2),(2,2),(0.0,4.250000000000002),(0.0,1.600000000000000),.UNSPECIFIED.);
#70=CARTESIAN_POINT('',(1.610000000000001,0.800000000000000,0.390000000000000));
#71=VERTEX_POINT('',#70);
#72=CARTESIAN_POINT('',(1.810000000000001,0.600000000000000,0.390000000000000));
#73=VERTEX_POINT('',#72);
#74=CARTESIAN_POINT('',(1.610000000000001,0.600000000000000,0.390000000000000));
#75=DIRECTION('',(0.0,0.0,-1.000000000000000));
#76=DIRECTION('',(0.707106781186547,0.707106781186548,0.0));
#77=AXIS2_PLACEMENT_3D('',#74,#75,#76);
#78=CIRCLE('',#77,0.200000000000000);
#79=EDGE_CURVE('',#71,#73,#78,.T.);
#80=ORIENTED_EDGE('',*,*,#79,.F.);
#81=CARTESIAN_POINT('',(-0.714999999999999,0.800000000000000,0.390000000000000));
#82=VERTEX_POINT('',#81);
#83=CARTESIAN_POINT('',(-0.714999999999999,0.800000000000000,0.390000000000000));
#84=DIRECTION('',(1.0,0.0,0.0));
#85=VECTOR('',#84,2.325000000000000);
#86=LINE('',#83,#85);
#87=EDGE_CURVE('',#82,#71,#86,.T.);
#88=ORIENTED_EDGE('',*,*,#87,.F.);
#89=CARTESIAN_POINT('',(-0.714999999999999,0.240000000000000,0.390000000000000));
#90=VERTEX_POINT('',#89);
#91=CARTESIAN_POINT('',(-0.714999999999999,0.240000000000000,0.390000000000000));
#92=DIRECTION('',(0.0,1.0,0.0));
#93=VECTOR('',#92,0.560000000000000);
#94=LINE('',#91,#93);
#95=EDGE_CURVE('',#90,#82,#94,.T.);
#96=ORIENTED_EDGE('',*,*,#95,.F.);
#97=CARTESIAN_POINT('',(-2.440000000000000,0.240000000000000,0.390000000000000));
#98=VERTEX_POINT('',#97);
#99=CARTESIAN_POINT('',(-0.714999999999999,0.240000000000000,0.390000000000000));
#100=DIRECTION('',(-1.0,0.0,0.0));
#101=VECTOR('',#100,1.725000000000001);
#102=LINE('',#99,#101);
#103=EDGE_CURVE('',#90,#98,#102,.T.);
#104=ORIENTED_EDGE('',*,*,#103,.T.);
#105=CARTESIAN_POINT('',(-2.440000000000000,-0.240000000000000,0.390000000000000));
#106=VERTEX_POINT('',#105);
#107=CARTESIAN_POINT('',(-2.440000000000000,0.240000000000000,0.390000000000000));
#108=DIRECTION('',(0.0,-1.0,0.0));
#109=VECTOR('',#108,0.480000000000000);
#110=LINE('',#107,#109);
#111=EDGE_CURVE('',#98,#106,#110,.T.);
#112=ORIENTED_EDGE('',*,*,#111,.T.);
#113=CARTESIAN_POINT('',(-0.714999999999999,-0.240000000000000,0.390000000000000));
#114=VERTEX_POINT('',#113);
#115=CARTESIAN_POINT('',(-2.440000000000000,-0.240000000000000,0.390000000000000));
#116=DIRECTION('',(1.0,0.0,0.0));
#117=VECTOR('',#116,1.725000000000001);
#118=LINE('',#115,#117);
#119=EDGE_CURVE('',#106,#114,#118,.T.);
#120=ORIENTED_EDGE('',*,*,#119,.T.);
#121=CARTESIAN_POINT('',(-0.714999999999999,-0.800000000000000,0.390000000000000));
#122=VERTEX_POINT('',#121);
#123=CARTESIAN_POINT('',(-0.714999999999999,-0.800000000000000,0.390000000000000));
#124=DIRECTION('',(0.0,1.0,0.0));
#125=VECTOR('',#124,0.560000000000000);
#126=LINE('',#123,#125);
#127=EDGE_CURVE('',#122,#114,#126,.T.);
#128=ORIENTED_EDGE('',*,*,#127,.F.);
#129=CARTESIAN_POINT('',(1.610000000000001,-0.800000000000000,0.390000000000000));
#130=VERTEX_POINT('',#129);
#131=CARTESIAN_POINT('',(1.610000000000001,-0.800000000000000,0.390000000000000));
#132=DIRECTION('',(-1.0,0.0,0.0));
#133=VECTOR('',#132,2.325000000000001);
#134=LINE('',#131,#133);
#135=EDGE_CURVE('',#130,#122,#134,.T.);
#136=ORIENTED_EDGE('',*,*,#135,.F.);
#137=CARTESIAN_POINT('',(1.810000000000001,-0.600000000000000,0.390000000000000));
#138=VERTEX_POINT('',#137);
#139=CARTESIAN_POINT('',(1.610000000000001,-0.600000000000000,0.390000000000000));
#140=DIRECTION('',(0.0,0.0,-1.000000000000000));
#141=DIRECTION('',(0.707106781186547,-0.707106781186548,0.0));
#142=AXIS2_PLACEMENT_3D('',#139,#140,#141);
#143=CIRCLE('',#142,0.200000000000000);
#144=EDGE_CURVE('',#138,#130,#143,.T.);
#145=ORIENTED_EDGE('',*,*,#144,.F.);
#146=CARTESIAN_POINT('',(1.810000000000001,0.600000000000000,0.390000000000000));
#147=DIRECTION('',(0.0,-1.0,0.0));
#148=VECTOR('',#147,1.200000000000000);
#149=LINE('',#146,#148);
#150=EDGE_CURVE('',#73,#138,#149,.T.);
#151=ORIENTED_EDGE('',*,*,#150,.F.);
#152=EDGE_LOOP('',(#80,#88,#96,#104,#112,#120,#128,#136,#145,#151));
#153=FACE_OUTER_BOUND('',#152,.T.);
#154=ADVANCED_FACE('',(#153),#69,.T.);
#155=CARTESIAN_POINT('',(1.610000000000001,-0.800000000000000,0.390000000000001));
#156=CARTESIAN_POINT('',(1.610000000000001,-0.800000000000000,0.0));
#157=CARTESIAN_POINT('',(-0.714999999999999,-0.800000000000000,0.390000000000001));
#158=CARTESIAN_POINT('',(-0.714999999999999,-0.800000000000000,0.0));
#159=B_SPLINE_SURFACE_WITH_KNOTS('',1,1,((#155,#157),(#156,#158)),.UNSPECIFIED.,.F.,.F.,.U.,(2,2),(2,2),(0.0,0.390000000000001),(0.0,2.325000000000001),.UNSPECIFIED.);
#160=CARTESIAN_POINT('',(1.610000000000001,-0.800000000000000,0.0));
#161=VERTEX_POINT('',#160);
#162=CARTESIAN_POINT('',(1.610000000000001,-0.800000000000000,0.390000000000000));
#163=DIRECTION('',(0.0,0.0,-1.0));
#164=VECTOR('',#163,0.390000000000000);
#165=LINE('',#162,#164);
#166=EDGE_CURVE('',#130,#161,#165,.T.);
#167=ORIENTED_EDGE('',*,*,#166,.F.);
#168=ORIENTED_EDGE('',*,*,#135,.T.);
#169=CARTESIAN_POINT('',(-0.714999999999999,-0.800000000000000,0.0));
#170=VERTEX_POINT('',#169);
#171=CARTESIAN_POINT('',(-0.714999999999999,-0.800000000000000,0.390000000000000));
#172=DIRECTION('',(0.0,0.0,-1.0));
#173=VECTOR('',#172,0.390000000000000);
#174=LINE('',#171,#173);
#175=EDGE_CURVE('',#122,#170,#174,.T.);
#176=ORIENTED_EDGE('',*,*,#175,.T.);
#177=CARTESIAN_POINT('',(-0.714999999999999,-0.800000000000000,0.0));
#178=DIRECTION('',(1.0,0.0,0.0));
#179=VECTOR('',#178,2.325000000000001);
#180=LINE('',#177,#179);
#181=EDGE_CURVE('',#170,#161,#180,.T.);
#182=ORIENTED_EDGE('',*,*,#181,.T.);
#183=EDGE_LOOP('',(#167,#168,#176,#182));
#184=FACE_OUTER_BOUND('',#183,.T.);
#185=ADVANCED_FACE('',(#184),#159,.F.);
#186=CARTESIAN_POINT('',(-2.440000000000000,-0.800000000000000,0.0));
#187=CARTESIAN_POINT('',(1.810000000000002,-0.800000000000000,0.0));
#188=CARTESIAN_POINT('',(-2.440000000000000,0.800000000000000,0.0));
#189=CARTESIAN_POINT('',(1.810000000000002,0.800000000000000,0.0));
#190=B_SPLINE_SURFACE_WITH_KNOTS('',1,1,((#186,#188),(#187,#189)),.UNSPECIFIED.,.F.,.F.,.U.,(2,2),(2,2),(0.0,4.250000000000002),(0.0,1.600000000000000),.UNSPECIFIED.);
#191=CARTESIAN_POINT('',(1.810000000000001,0.600000000000000,0.0));
#192=VERTEX_POINT('',#191);
#193=CARTESIAN_POINT('',(1.610000000000001,0.800000000000000,0.0));
#194=VERTEX_POINT('',#193);
#195=CARTESIAN_POINT('',(1.610000000000001,0.600000000000000,0.0));
#196=DIRECTION('',(0.0,0.0,1.000000000000000));
#197=DIRECTION('',(0.707106781186547,0.707106781186548,0.0));
#198=AXIS2_PLACEMENT_3D('',#195,#196,#197);
#199=CIRCLE('',#198,0.200000000000000);
#200=EDGE_CURVE('',#192,#194,#199,.T.);
#201=ORIENTED_EDGE('',*,*,#200,.F.);
#202=CARTESIAN_POINT('',(1.810000000000001,-0.600000000000000,0.0));
#203=VERTEX_POINT('',#202);
#204=CARTESIAN_POINT('',(1.810000000000001,-0.600000000000000,0.0));
#205=DIRECTION('',(0.0,1.0,0.0));
#206=VECTOR('',#205,1.200000000000000);
#207=LINE('',#204,#206);
#208=EDGE_CURVE('',#203,#192,#207,.T.);
#209=ORIENTED_EDGE('',*,*,#208,.F.);
#210=CARTESIAN_POINT('',(1.610000000000001,-0.600000000000000,0.0));
#211=DIRECTION('',(0.0,0.0,1.000000000000000));
#212=DIRECTION('',(0.707106781186547,-0.707106781186548,0.0));
#213=AXIS2_PLACEMENT_3D('',#210,#211,#212);
#214=CIRCLE('',#213,0.200000000000000);
#215=EDGE_CURVE('',#161,#203,#214,.T.);
#216=ORIENTED_EDGE('',*,*,#215,.F.);
#217=ORIENTED_EDGE('',*,*,#181,.F.);
#218=CARTESIAN_POINT('',(-0.714999999999999,-0.240000000000000,0.0));
#219=VERTEX_POINT('',#218);
#220=CARTESIAN_POINT('',(-0.714999999999999,-0.240000000000000,0.0));
#221=DIRECTION('',(0.0,-1.0,0.0));
#222=VECTOR('',#221,0.560000000000000);
#223=LINE('',#220,#222);
#224=EDGE_CURVE('',#219,#170,#223,.T.);
#225=ORIENTED_EDGE('',*,*,#224,.F.);
#226=CARTESIAN_POINT('',(-2.440000000000000,-0.240000000000000,0.0));
#227=VERTEX_POINT('',#226);
#228=CARTESIAN_POINT('',(-0.714999999999999,-0.240000000000000,0.0));
#229=DIRECTION('',(-1.0,0.0,0.0));
#230=VECTOR('',#229,1.725000000000001);
#231=LINE('',#228,#230);
#232=EDGE_CURVE('',#219,#227,#231,.T.);
#233=ORIENTED_EDGE('',*,*,#232,.T.);
#234=CARTESIAN_POINT('',(-2.440000000000000,0.240000000000000,0.0));
#235=VERTEX_POINT('',#234);
#236=CARTESIAN_POINT('',(-2.440000000000000,-0.240000000000000,0.0));
#237=DIRECTION('',(0.0,1.0,0.0));
#238=VECTOR('',#237,0.480000000000000);
#239=LINE('',#236,#238);
#240=EDGE_CURVE('',#227,#235,#239,.T.);
#241=ORIENTED_EDGE('',*,*,#240,.T.);
#242=CARTESIAN_POINT('',(-0.714999999999999,0.240000000000000,0.0));
#243=VERTEX_POINT('',#242);
#244=CARTESIAN_POINT('',(-2.440000000000000,0.240000000000000,0.0));
#245=DIRECTION('',(1.0,0.0,0.0));
#246=VECTOR('',#245,1.725000000000001);
#247=LINE('',#244,#246);
#248=EDGE_CURVE('',#235,#243,#247,.T.);
#249=ORIENTED_EDGE('',*,*,#248,.T.);
#250=CARTESIAN_POINT('',(-0.714999999999999,0.800000000000000,0.0));
#251=VERTEX_POINT('',#250);
#252=CARTESIAN_POINT('',(-0.714999999999999,0.800000000000000,0.0));
#253=DIRECTION('',(0.0,-1.0,0.0));
#254=VECTOR('',#253,0.560000000000000);
#255=LINE('',#252,#254);
#256=EDGE_CURVE('',#251,#243,#255,.T.);
#257=ORIENTED_EDGE('',*,*,#256,.F.);
#258=CARTESIAN_POINT('',(1.610000000000001,0.800000000000000,0.0));
#259=DIRECTION('',(-1.0,0.0,0.0));
#260=VECTOR('',#259,2.325000000000000);
#261=LINE('',#258,#260);
#262=EDGE_CURVE('',#194,#251,#261,.T.);
#263=ORIENTED_EDGE('',*,*,#262,.F.);
#264=EDGE_LOOP('',(#201,#209,#216,#217,#225,#233,#241,#249,#257,#263));
#265=FACE_OUTER_BOUND('',#264,.T.);
#266=ADVANCED_FACE('',(#265),#190,.F.);
#267=CARTESIAN_POINT('',(-1.615000000000000,-0.240000000000000,0.195000000000000));
#268=DIRECTION('',(0.0,1.0,0.0));
#269=DIRECTION('',(0.0,0.0,1.0));
#270=AXIS2_PLACEMENT_3D('',#267,#268,#269);
#271=PLANE('',#270);
#272=CARTESIAN_POINT('',(-2.440000000000000,-0.240000000000000,0.390000000000000));
#273=DIRECTION('',(0.0,0.0,-1.0));
#274=VECTOR('',#273,0.390000000000000);
#275=LINE('',#272,#274);
#276=EDGE_CURVE('',#106,#227,#275,.T.);
#277=ORIENTED_EDGE('',*,*,#276,.T.);
#278=ORIENTED_EDGE('',*,*,#232,.F.);
#279=CARTESIAN_POINT('',(-0.714999999999999,-0.240000000000000,0.390000000000000));
#280=DIRECTION('',(0.0,0.0,-1.0));
#281=VECTOR('',#280,0.390000000000000);
#282=LINE('',#279,#281);
#283=EDGE_CURVE('',#114,#219,#282,.T.);
#284=ORIENTED_EDGE('',*,*,#283,.F.);
#285=ORIENTED_EDGE('',*,*,#119,.F.);
#286=EDGE_LOOP('',(#277,#278,#284,#285));
#287=FACE_OUTER_BOUND('',#286,.T.);
#288=ADVANCED_FACE('',(#287),#271,.F.);
#289=CARTESIAN_POINT('',(1.610000000000001,0.800000000000000,0.0));
#290=CARTESIAN_POINT('',(1.610000000000001,0.800000000000000,0.390000000000001));
#291=CARTESIAN_POINT('',(-0.714999999999999,0.800000000000000,0.0));
#292=CARTESIAN_POINT('',(-0.714999999999999,0.800000000000000,0.390000000000001));
#293=B_SPLINE_SURFACE_WITH_KNOTS('',1,1,((#289,#291),(#290,#292)),.UNSPECIFIED.,.F.,.F.,.U.,(2,2),(2,2),(0.0,0.390000000000001),(0.0,2.325000000000000),.UNSPECIFIED.);
#294=CARTESIAN_POINT('',(1.610000000000001,0.800000000000000,2.775558E-016));
#295=DIRECTION('',(0.0,0.0,1.0));
#296=VECTOR('',#295,0.390000000000000);
#297=LINE('',#294,#296);
#298=EDGE_CURVE('',#194,#71,#297,.T.);
#299=ORIENTED_EDGE('',*,*,#298,.F.);
#300=ORIENTED_EDGE('',*,*,#262,.T.);
#301=CARTESIAN_POINT('',(-0.714999999999999,0.800000000000000,0.390000000000000));
#302=DIRECTION('',(0.0,0.0,-1.0));
#303=VECTOR('',#302,0.390000000000000);
#304=LINE('',#301,#303);
#305=EDGE_CURVE('',#82,#251,#304,.T.);
#306=ORIENTED_EDGE('',*,*,#305,.F.);
#307=ORIENTED_EDGE('',*,*,#87,.T.);
#308=EDGE_LOOP('',(#299,#300,#306,#307));
#309=FACE_OUTER_BOUND('',#308,.T.);
#310=ADVANCED_FACE('',(#309),#293,.F.);
#311=CARTESIAN_POINT('',(-1.615000000000000,0.240000000000000,0.195000000000000));
#312=DIRECTION('',(0.0,-1.0,0.0));
#313=DIRECTION('',(0.0,0.0,-1.0));
#314=AXIS2_PLACEMENT_3D('',#311,#312,#313);
#315=PLANE('',#314);
#316=CARTESIAN_POINT('',(-0.714999999999999,0.240000000000000,0.0));
#317=DIRECTION('',(0.0,0.0,1.0));
#318=VECTOR('',#317,0.390000000000000);
#319=LINE('',#316,#318);
#320=EDGE_CURVE('',#243,#90,#319,.T.);
#321=ORIENTED_EDGE('',*,*,#320,.F.);
#322=ORIENTED_EDGE('',*,*,#248,.F.);
#323=CARTESIAN_POINT('',(-2.440000000000000,0.240000000000000,0.390000000000000));
#324=DIRECTION('',(0.0,0.0,-1.0));
#325=VECTOR('',#324,0.390000000000000);
#326=LINE('',#323,#325);
#327=EDGE_CURVE('',#98,#235,#326,.T.);
#328=ORIENTED_EDGE('',*,*,#327,.F.);
#329=ORIENTED_EDGE('',*,*,#103,.F.);
#330=EDGE_LOOP('',(#321,#322,#328,#329));
#331=FACE_OUTER_BOUND('',#330,.T.);
#332=ADVANCED_FACE('',(#331),#315,.F.);
#333=CARTESIAN_POINT('',(-0.714999999999999,0.240000000000000,0.390000000000000));
#334=CARTESIAN_POINT('',(-0.714999999999999,0.240000000000000,0.0));
#335=CARTESIAN_POINT('',(-0.714999999999999,0.800000000000000,0.390000000000000));
#336=CARTESIAN_POINT('',(-0.714999999999999,0.800000000000000,0.0));
#337=B_SPLINE_SURFACE_WITH_KNOTS('',1,1,((#333,#335),(#334,#336)),.UNSPECIFIED.,.F.,.F.,.U.,(2,2),(2,2),(0.0,0.390000000000000),(0.0,0.560000000000000),.UNSPECIFIED.);
#338=ORIENTED_EDGE('',*,*,#320,.T.);
#339=ORIENTED_EDGE('',*,*,#95,.T.);
#340=ORIENTED_EDGE('',*,*,#305,.T.);
#341=ORIENTED_EDGE('',*,*,#256,.T.);
#342=EDGE_LOOP('',(#338,#339,#340,#341));
#343=FACE_OUTER_BOUND('',#342,.T.);
#344=ADVANCED_FACE('',(#343),#337,.F.);
#345=CARTESIAN_POINT('',(1.610000000000001,0.600000000000000,0.195000000000000));
#346=DIRECTION('',(0.0,0.0,-1.0));
#347=DIRECTION('',(0.707106781186547,0.707106781186548,0.0));
#348=AXIS2_PLACEMENT_3D('',#345,#346,#347);
#349=CYLINDRICAL_SURFACE('',#348,0.200000000000000);
#350=ORIENTED_EDGE('',*,*,#200,.T.);
#351=ORIENTED_EDGE('',*,*,#298,.T.);
#352=ORIENTED_EDGE('',*,*,#79,.T.);
#353=CARTESIAN_POINT('',(1.810000000000001,0.600000000000000,0.390000000000000));
#354=DIRECTION('',(0.0,0.0,-1.0));
#355=VECTOR('',#354,0.390000000000000);
#356=LINE('',#353,#355);
#357=EDGE_CURVE('',#73,#192,#356,.T.);
#358=ORIENTED_EDGE('',*,*,#357,.T.);
#359=EDGE_LOOP('',(#350,#351,#352,#358));
#360=FACE_OUTER_BOUND('',#359,.T.);
#361=ADVANCED_FACE('',(#360),#349,.T.);
#362=CARTESIAN_POINT('',(1.810000000000001,-0.600000000000000,0.0));
#363=CARTESIAN_POINT('',(1.810000000000001,-0.600000000000000,0.390000000000001));
#364=CARTESIAN_POINT('',(1.810000000000001,0.600000000000000,0.0));
#365=CARTESIAN_POINT('',(1.810000000000001,0.600000000000000,0.390000000000001));
#366=B_SPLINE_SURFACE_WITH_KNOTS('',1,1,((#362,#364),(#363,#365)),.UNSPECIFIED.,.F.,.F.,.U.,(2,2),(2,2),(0.0,0.390000000000001),(0.0,1.200000000000000),.UNSPECIFIED.);
#367=ORIENTED_EDGE('',*,*,#357,.F.);
#368=ORIENTED_EDGE('',*,*,#150,.T.);
#369=CARTESIAN_POINT('',(1.810000000000001,-0.600000000000000,2.775558E-016));
#370=DIRECTION('',(0.0,0.0,1.0));
#371=VECTOR('',#370,0.390000000000000);
#372=LINE('',#369,#371);
#373=EDGE_CURVE('',#203,#138,#372,.T.);
#374=ORIENTED_EDGE('',*,*,#373,.F.);
#375=ORIENTED_EDGE('',*,*,#208,.T.);
#376=EDGE_LOOP('',(#367,#368,#374,#375));
#377=FACE_OUTER_BOUND('',#376,.T.);
#378=ADVANCED_FACE('',(#377),#366,.F.);
#379=CARTESIAN_POINT('',(1.610000000000001,-0.600000000000000,0.195000000000000));
#380=DIRECTION('',(0.0,0.0,-1.0));
#381=DIRECTION('',(0.707106781186547,-0.707106781186548,0.0));
#382=AXIS2_PLACEMENT_3D('',#379,#380,#381);
#383=CYLINDRICAL_SURFACE('',#382,0.200000000000000);
#384=ORIENTED_EDGE('',*,*,#215,.T.);
#385=ORIENTED_EDGE('',*,*,#373,.T.);
#386=ORIENTED_EDGE('',*,*,#144,.T.);
#387=ORIENTED_EDGE('',*,*,#166,.T.);
#388=EDGE_LOOP('',(#384,#385,#386,#387));
#389=FACE_OUTER_BOUND('',#388,.T.);
#390=ADVANCED_FACE('',(#389),#383,.T.);
#391=CARTESIAN_POINT('',(-2.440000000000000,2.775558E-017,0.195000000000000));
#392=DIRECTION('',(1.0,0.0,0.0));
#393=DIRECTION('',(0.0,0.0,-1.0));
#394=AXIS2_PLACEMENT_3D('',#391,#392,#393);
#395=PLANE('',#394);
#396=ORIENTED_EDGE('',*,*,#327,.T.);
#397=ORIENTED_EDGE('',*,*,#240,.F.);
#398=ORIENTED_EDGE('',*,*,#276,.F.);
#399=ORIENTED_EDGE('',*,*,#111,.F.);
#400=EDGE_LOOP('',(#396,#397,#398,#399));
#401=FACE_OUTER_BOUND('',#400,.T.);
#402=ADVANCED_FACE('',(#401),#395,.F.);
#403=CARTESIAN_POINT('',(-0.714999999999999,-0.800000000000000,0.390000000000000));
#404=CARTESIAN_POINT('',(-0.714999999999999,-0.800000000000000,0.0));
#405=CARTESIAN_POINT('',(-0.714999999999999,-0.240000000000000,0.390000000000000));
#406=CARTESIAN_POINT('',(-0.714999999999999,-0.240000000000000,0.0));
#407=B_SPLINE_SURFACE_WITH_KNOTS('',1,1,((#403,#405),(#404,#406)),.UNSPECIFIED.,.F.,.F.,.U.,(2,2),(2,2),(0.0,0.390000000000000),(0.0,0.560000000000000),.UNSPECIFIED.);
#408=ORIENTED_EDGE('',*,*,#283,.T.);
#409=ORIENTED_EDGE('',*,*,#224,.T.);
#410=ORIENTED_EDGE('',*,*,#175,.F.);
#411=ORIENTED_EDGE('',*,*,#127,.T.);
#412=EDGE_LOOP('',(#408,#409,#410,#411));
#413=FACE_OUTER_BOUND('',#412,.T.);
#414=ADVANCED_FACE('',(#413),#407,.F.);
#415=CLOSED_SHELL('',(#154,#185,#266,#288,#310,#332,#344,#361,#378,#390,#402,#414));
#416=MANIFOLD_SOLID_BREP('8C8',#415);
#417=COLOUR_RGB('253',0.732000000000000,0.732000000000000,0.732000000000000);
#418=SURFACE_STYLE_USAGE(.BOTH.,#419);
#419=SURFACE_SIDE_STYLE('NONE',(#420));
#420=SURFACE_STYLE_FILL_AREA(#421);
#421=FILL_AREA_STYLE('NONE',(#422));
#422=FILL_AREA_STYLE_COLOUR('NONE',#417);
#423=PRESENTATION_STYLE_ASSIGNMENT((#418));
#424=STYLED_ITEM('NONE',(#423),#416);
#425=MECHANICAL_DESIGN_GEOMETRIC_PRESENTATION_REPRESENTATION('NONE',(#424,#577,#728,#1150),#28);
#426=PRESENTATION_LAYER_ASSIGNMENT('3D','None',(#416,#576,#727,#1142));
#427=CARTESIAN_POINT('',(-1.170000000000000,0.0,0.800000000000000));
#428=DIRECTION('',(-0.996193717496113,0.0,0.087166950280910));
#429=DIRECTION('',(0.087166950280910,0.0,0.996193717496113));
#430=AXIS2_PLACEMENT_3D('',#427,#428,#429);
#431=PLANE('',#430);
#432=CARTESIAN_POINT('',(-1.240000000000000,-1.740000000000000,-5.551115E-017));
#433=VERTEX_POINT('',#432);
#434=CARTESIAN_POINT('',(-1.205875000000000,-1.740000000000000,0.390000000000000));
#435=VERTEX_POINT('',#434);
#436=CARTESIAN_POINT('',(-1.240000000000000,-1.740000000000000,-1.110223E-016));
#437=DIRECTION('',(0.087166950280910,0.0,0.996193717496113));
#438=VECTOR('',#437,0.391490122001820);
#439=LINE('',#436,#438);
#440=EDGE_CURVE('',#433,#435,#439,.T.);
#441=ORIENTED_EDGE('',*,*,#440,.F.);
#442=CARTESIAN_POINT('',(-1.240000000000000,-1.260000000000000,-5.551115E-017));
#443=VERTEX_POINT('',#442);
#444=CARTESIAN_POINT('',(-1.240000000000000,-1.260000000000000,-1.110223E-016));
#445=DIRECTION('',(0.0,-1.0,0.0));
#446=VECTOR('',#445,0.480000000000000);
#447=LINE('',#444,#446);
#448=EDGE_CURVE('',#443,#433,#447,.T.);
#449=ORIENTED_EDGE('',*,*,#448,.F.);
#450=CARTESIAN_POINT('',(-1.205875000000000,-1.260000000000000,0.390000000000000));
#451=VERTEX_POINT('',#450);
#452=CARTESIAN_POINT('',(-1.205875000000000,-1.260000000000000,0.390000000000000));
#453=DIRECTION('',(-0.087166950280910,0.0,-0.996193717496113));
#454=VECTOR('',#453,0.391490122001820);
#455=LINE('',#452,#454);
#456=EDGE_CURVE('',#451,#443,#455,.T.);
#457=ORIENTED_EDGE('',*,*,#456,.F.);
#458=CARTESIAN_POINT('',(-1.205875000000000,-1.740000000000000,0.390000000000000));
#459=DIRECTION('',(0.0,1.0,0.0));
#460=VECTOR('',#459,0.480000000000000);
#461=LINE('',#458,#460);
#462=EDGE_CURVE('',#435,#451,#461,.T.);
#463=ORIENTED_EDGE('',*,*,#462,.F.);
#464=EDGE_LOOP('',(#441,#449,#457,#463));
#465=FACE_OUTER_BOUND('',#464,.T.);
#466=ADVANCED_FACE('',(#465),#431,.F.);
#467=CARTESIAN_POINT('',(-2.440000000000000,-1.740000000000000,0.390000000000000));
#468=CARTESIAN_POINT('',(-1.205875000000000,-1.740000000000000,0.390000000000000));
#469=CARTESIAN_POINT('',(-2.440000000000000,-1.260000000000000,0.390000000000000));
#470=CARTESIAN_POINT('',(-1.205875000000000,-1.260000000000000,0.390000000000000));
#471=B_SPLINE_SURFACE_WITH_KNOTS('',1,1,((#467,#469),(#468,#470)),.UNSPECIFIED.,.F.,.F.,.U.,(2,2),(2,2),(0.0,1.234125000000000),(0.0,0.480000000000000),.UNSPECIFIED.);
#472=ORIENTED_EDGE('',*,*,#462,.T.);
#473=CARTESIAN_POINT('',(-2.440000000000000,-1.260000000000000,0.390000000000000));
#474=VERTEX_POINT('',#473);
#475=CARTESIAN_POINT('',(-2.440000000000000,-1.260000000000000,0.390000000000000));
#476=DIRECTION('',(1.0,0.0,0.0));
#477=VECTOR('',#476,1.234125000000000);
#478=LINE('',#475,#477);
#479=EDGE_CURVE('',#474,#451,#478,.T.);
#480=ORIENTED_EDGE('',*,*,#479,.F.);
#481=CARTESIAN_POINT('',(-2.440000000000000,-1.740000000000000,0.390000000000000));
#482=VERTEX_POINT('',#481);
#483=CARTESIAN_POINT('',(-2.440000000000000,-1.740000000000000,0.390000000000000));
#484=DIRECTION('',(0.0,1.0,0.0));
#485=VECTOR('',#484,0.480000000000000);
#486=LINE('',#483,#485);
#487=EDGE_CURVE('',#482,#474,#486,.T.);
#488=ORIENTED_EDGE('',*,*,#487,.F.);
#489=CARTESIAN_POINT('',(-1.205875000000000,-1.740000000000000,0.390000000000000));
#490=DIRECTION('',(-1.0,0.0,0.0));
#491=VECTOR('',#490,1.234125000000000);
#492=LINE('',#489,#491);
#493=EDGE_CURVE('',#435,#482,#492,.T.);
#494=ORIENTED_EDGE('',*,*,#493,.F.);
#495=EDGE_LOOP('',(#472,#480,#488,#494));
#496=FACE_OUTER_BOUND('',#495,.T.);
#497=ADVANCED_FACE('',(#496),#471,.T.);
#498=CARTESIAN_POINT('',(-1.205875000000000,-1.260000000000000,-1.110223E-016));
#499=CARTESIAN_POINT('',(-1.205875000000000,-1.260000000000000,0.390000000000000));
#500=CARTESIAN_POINT('',(-2.440000000000000,-1.260000000000000,-1.110223E-016));
#501=CARTESIAN_POINT('',(-2.440000000000000,-1.260000000000000,0.390000000000000));
#502=B_SPLINE_SURFACE_WITH_KNOTS('',1,1,((#498,#500),(#499,#501)),.UNSPECIFIED.,.F.,.F.,.U.,(2,2),(2,2),(0.0,0.390000000000000),(0.0,1.234125000000000),.UNSPECIFIED.);
#503=ORIENTED_EDGE('',*,*,#456,.T.);
#504=CARTESIAN_POINT('',(-2.440000000000000,-1.260000000000000,-5.551115E-017));
#505=VERTEX_POINT('',#504);
#506=CARTESIAN_POINT('',(-1.240000000000000,-1.260000000000000,-5.551115E-017));
#507=DIRECTION('',(-1.0,0.0,0.0));
#508=VECTOR('',#507,1.200000000000000);
#509=LINE('',#506,#508);
#510=EDGE_CURVE('',#443,#505,#509,.T.);
#511=ORIENTED_EDGE('',*,*,#510,.T.);
#512=CARTESIAN_POINT('',(-2.440000000000000,-1.260000000000000,0.390000000000000));
#513=DIRECTION('',(0.0,0.0,-1.0));
#514=VECTOR('',#513,0.390000000000000);
#515=LINE('',#512,#514);
#516=EDGE_CURVE('',#474,#505,#515,.T.);
#517=ORIENTED_EDGE('',*,*,#516,.F.);
#518=ORIENTED_EDGE('',*,*,#479,.T.);
#519=EDGE_LOOP('',(#503,#511,#517,#518));
#520=FACE_OUTER_BOUND('',#519,.T.);
#521=ADVANCED_FACE('',(#520),#502,.F.);
#522=CARTESIAN_POINT('',(-2.440000000000000,-1.740000000000000,-5.551115E-017));
#523=CARTESIAN_POINT('',(-1.240000000000000,-1.740000000000000,-5.551115E-017));
#524=CARTESIAN_POINT('',(-2.440000000000000,-1.260000000000000,-5.551115E-017));
#525=CARTESIAN_POINT('',(-1.240000000000000,-1.260000000000000,-5.551115E-017));
#526=B_SPLINE_SURFACE_WITH_KNOTS('',1,1,((#522,#524),(#523,#525)),.UNSPECIFIED.,.F.,.F.,.U.,(2,2),(2,2),(0.0,1.200000000000000),(0.0,0.480000000000000),.UNSPECIFIED.);
#527=ORIENTED_EDGE('',*,*,#448,.T.);
#528=CARTESIAN_POINT('',(-2.440000000000000,-1.740000000000000,-5.551115E-017));
#529=VERTEX_POINT('',#528);
#530=CARTESIAN_POINT('',(-2.440000000000000,-1.740000000000000,-5.551115E-017));
#531=DIRECTION('',(1.0,0.0,0.0));
#532=VECTOR('',#531,1.200000000000000);
#533=LINE('',#530,#532);
#534=EDGE_CURVE('',#529,#433,#533,.T.);
#535=ORIENTED_EDGE('',*,*,#534,.F.);
#536=CARTESIAN_POINT('',(-2.440000000000000,-1.260000000000000,-5.551115E-017));
#537=DIRECTION('',(0.0,-1.0,0.0));
#538=VECTOR('',#537,0.480000000000000);
#539=LINE('',#536,#538);
#540=EDGE_CURVE('',#505,#529,#539,.T.);
#541=ORIENTED_EDGE('',*,*,#540,.F.);
#542=ORIENTED_EDGE('',*,*,#510,.F.);
#543=EDGE_LOOP('',(#527,#535,#541,#542));
#544=FACE_OUTER_BOUND('',#543,.T.);
#545=ADVANCED_FACE('',(#544),#526,.F.);
#546=CARTESIAN_POINT('',(-2.440000000000000,-1.740000000000000,0.390000000000000));
#547=CARTESIAN_POINT('',(-2.440000000000000,-1.740000000000000,-5.551115E-017));
#548=CARTESIAN_POINT('',(-2.440000000000000,-1.260000000000000,0.390000000000000));
#549=CARTESIAN_POINT('',(-2.440000000000000,-1.260000000000000,-5.551115E-017));
#550=B_SPLINE_SURFACE_WITH_KNOTS('',1,1,((#546,#548),(#547,#549)),.UNSPECIFIED.,.F.,.F.,.U.,(2,2),(2,2),(0.0,0.390000000000000),(0.0,0.480000000000000),.UNSPECIFIED.);
#551=CARTESIAN_POINT('',(-2.440000000000000,-1.740000000000000,0.390000000000000));
#552=DIRECTION('',(0.0,0.0,-1.0));
#553=VECTOR('',#552,0.390000000000000);
#554=LINE('',#551,#553);
#555=EDGE_CURVE('',#482,#529,#554,.T.);
#556=ORIENTED_EDGE('',*,*,#555,.F.);
#557=ORIENTED_EDGE('',*,*,#487,.T.);
#558=ORIENTED_EDGE('',*,*,#516,.T.);
#559=ORIENTED_EDGE('',*,*,#540,.T.);
#560=EDGE_LOOP('',(#556,#557,#558,#559));
#561=FACE_OUTER_BOUND('',#560,.T.);
#562=ADVANCED_FACE('',(#561),#550,.F.);
#563=CARTESIAN_POINT('',(-1.205875000000000,-1.740000000000000,0.390000000000000));
#564=CARTESIAN_POINT('',(-1.205875000000000,-1.740000000000000,-1.110223E-016));
#565=CARTESIAN_POINT('',(-2.440000000000000,-1.740000000000000,0.390000000000000));
#566=CARTESIAN_POINT('',(-2.440000000000000,-1.740000000000000,-1.110223E-016));
#567=B_SPLINE_SURFACE_WITH_KNOTS('',1,1,((#563,#565),(#564,#566)),.UNSPECIFIED.,.F.,.F.,.U.,(2,2),(2,2),(0.0,0.390000000000000),(0.0,1.234125000000000),.UNSPECIFIED.);
#568=ORIENTED_EDGE('',*,*,#440,.T.);
#569=ORIENTED_EDGE('',*,*,#493,.T.);
#570=ORIENTED_EDGE('',*,*,#555,.T.);
#571=ORIENTED_EDGE('',*,*,#534,.T.);
#572=EDGE_LOOP('',(#568,#569,#570,#571));
#573=FACE_OUTER_BOUND('',#572,.T.);
#574=ADVANCED_FACE('',(#573),#567,.F.);
#575=CLOSED_SHELL('',(#466,#497,#521,#545,#562,#574));
#576=MANIFOLD_SOLID_BREP('8C0',#575);
#577=STYLED_ITEM('NONE',(#423),#576);
#578=CARTESIAN_POINT('',(-1.170000000000000,0.0,0.800000000000000));
#579=DIRECTION('',(-0.996193717496113,0.0,0.087166950280910));
#580=DIRECTION('',(0.087166950280910,0.0,0.996193717496113));
#581=AXIS2_PLACEMENT_3D('',#578,#579,#580);
#582=PLANE('',#581);
#583=CARTESIAN_POINT('',(-1.240000000000000,1.260000000000000,-5.551115E-017));
#584=VERTEX_POINT('',#583);
#585=CARTESIAN_POINT('',(-1.205875000000000,1.260000000000000,0.390000000000000));
#586=VERTEX_POINT('',#585);
#587=CARTESIAN_POINT('',(-1.240000000000000,1.260000000000000,-1.110223E-016));
#588=DIRECTION('',(0.087166950280910,0.0,0.996193717496113));
#589=VECTOR('',#588,0.391490122001820);
#590=LINE('',#587,#589);
#591=EDGE_CURVE('',#584,#586,#590,.T.);
#592=ORIENTED_EDGE('',*,*,#591,.F.);
#593=CARTESIAN_POINT('',(-1.240000000000000,1.740000000000000,-5.551115E-017));
#594=VERTEX_POINT('',#593);
#595=CARTESIAN_POINT('',(-1.240000000000000,1.740000000000000,-1.110223E-016));
#596=DIRECTION('',(0.0,-1.0,0.0));
#597=VECTOR('',#596,0.480000000000000);
#598=LINE('',#595,#597);
#599=EDGE_CURVE('',#594,#584,#598,.T.);
#600=ORIENTED_EDGE('',*,*,#599,.F.);
#601=CARTESIAN_POINT('',(-1.205875000000000,1.740000000000000,0.390000000000000));
#602=VERTEX_POINT('',#601);
#603=CARTESIAN_POINT('',(-1.205875000000000,1.740000000000000,0.390000000000000));
#604=DIRECTION('',(-0.087166950280910,0.0,-0.996193717496113));
#605=VECTOR('',#604,0.391490122001820);
#606=LINE('',#603,#605);
#607=EDGE_CURVE('',#602,#594,#606,.T.);
#608=ORIENTED_EDGE('',*,*,#607,.F.);
#609=CARTESIAN_POINT('',(-1.205875000000000,1.260000000000000,0.390000000000000));
#610=DIRECTION('',(0.0,1.0,0.0));
#611=VECTOR('',#610,0.480000000000000);
#612=LINE('',#609,#611);
#613=EDGE_CURVE('',#586,#602,#612,.T.);
#614=ORIENTED_EDGE('',*,*,#613,.F.);
#615=EDGE_LOOP('',(#592,#600,#608,#614));
#616=FACE_OUTER_BOUND('',#615,.T.);
#617=ADVANCED_FACE('',(#616),#582,.F.);
#618=CARTESIAN_POINT('',(-2.440000000000000,1.260000000000000,0.390000000000000));
#619=CARTESIAN_POINT('',(-1.205875000000000,1.260000000000000,0.390000000000000));
#620=CARTESIAN_POINT('',(-2.440000000000000,1.740000000000000,0.390000000000000));
#621=CARTESIAN_POINT('',(-1.205875000000000,1.740000000000000,0.390000000000000));
#622=B_SPLINE_SURFACE_WITH_KNOTS('',1,1,((#618,#620),(#619,#621)),.UNSPECIFIED.,.F.,.F.,.U.,(2,2),(2,2),(0.0,1.234125000000000),(0.0,0.480000000000000),.UNSPECIFIED.);
#623=ORIENTED_EDGE('',*,*,#613,.T.);
#624=CARTESIAN_POINT('',(-2.440000000000000,1.740000000000000,0.390000000000000));
#625=VERTEX_POINT('',#624);
#626=CARTESIAN_POINT('',(-2.440000000000000,1.740000000000000,0.390000000000000));
#627=DIRECTION('',(1.0,0.0,0.0));
#628=VECTOR('',#627,1.234125000000000);
#629=LINE('',#626,#628);
#630=EDGE_CURVE('',#625,#602,#629,.T.);
#631=ORIENTED_EDGE('',*,*,#630,.F.);
#632=CARTESIAN_POINT('',(-2.440000000000000,1.260000000000000,0.390000000000000));
#633=VERTEX_POINT('',#632);
#634=CARTESIAN_POINT('',(-2.440000000000000,1.260000000000000,0.390000000000000));
#635=DIRECTION('',(0.0,1.0,0.0));
#636=VECTOR('',#635,0.480000000000000);
#637=LINE('',#634,#636);
#638=EDGE_CURVE('',#633,#625,#637,.T.);
#639=ORIENTED_EDGE('',*,*,#638,.F.);
#640=CARTESIAN_POINT('',(-1.205875000000000,1.260000000000000,0.390000000000000));
#641=DIRECTION('',(-1.0,0.0,0.0));
#642=VECTOR('',#641,1.234125000000000);
#643=LINE('',#640,#642);
#644=EDGE_CURVE('',#586,#633,#643,.T.);
#645=ORIENTED_EDGE('',*,*,#644,.F.);
#646=EDGE_LOOP('',(#623,#631,#639,#645));
#647=FACE_OUTER_BOUND('',#646,.T.);
#648=ADVANCED_FACE('',(#647),#622,.T.);
#649=CARTESIAN_POINT('',(-1.205875000000000,1.740000000000000,-1.110223E-016));
#650=CARTESIAN_POINT('',(-1.205875000000000,1.740000000000000,0.390000000000000));
#651=CARTESIAN_POINT('',(-2.440000000000000,1.740000000000000,-1.110223E-016));
#652=CARTESIAN_POINT('',(-2.440000000000000,1.740000000000000,0.390000000000000));
#653=B_SPLINE_SURFACE_WITH_KNOTS('',1,1,((#649,#651),(#650,#652)),.UNSPECIFIED.,.F.,.F.,.U.,(2,2),(2,2),(0.0,0.390000000000000),(0.0,1.234125000000000),.UNSPECIFIED.);
#654=ORIENTED_EDGE('',*,*,#607,.T.);
#655=CARTESIAN_POINT('',(-2.440000000000000,1.740000000000000,-5.551115E-017));
#656=VERTEX_POINT('',#655);
#657=CARTESIAN_POINT('',(-1.240000000000000,1.740000000000000,-5.551115E-017));
#658=DIRECTION('',(-1.0,0.0,0.0));
#659=VECTOR('',#658,1.200000000000000);
#660=LINE('',#657,#659);
#661=EDGE_CURVE('',#594,#656,#660,.T.);
#662=ORIENTED_EDGE('',*,*,#661,.T.);
#663=CARTESIAN_POINT('',(-2.440000000000000,1.740000000000000,0.390000000000000));
#664=DIRECTION('',(0.0,0.0,-1.0));
#665=VECTOR('',#664,0.390000000000000);
#666=LINE('',#663,#665);
#667=EDGE_CURVE('',#625,#656,#666,.T.);
#668=ORIENTED_EDGE('',*,*,#667,.F.);
#669=ORIENTED_EDGE('',*,*,#630,.T.);
#670=EDGE_LOOP('',(#654,#662,#668,#669));
#671=FACE_OUTER_BOUND('',#670,.T.);
#672=ADVANCED_FACE('',(#671),#653,.F.);
#673=CARTESIAN_POINT('',(-2.440000000000000,1.260000000000000,-5.551115E-017));
#674=CARTESIAN_POINT('',(-1.240000000000000,1.260000000000000,-5.551115E-017));
#675=CARTESIAN_POINT('',(-2.440000000000000,1.740000000000000,-5.551115E-017));
#676=CARTESIAN_POINT('',(-1.240000000000000,1.740000000000000,-5.551115E-017));
#677=B_SPLINE_SURFACE_WITH_KNOTS('',1,1,((#673,#675),(#674,#676)),.UNSPECIFIED.,.F.,.F.,.U.,(2,2),(2,2),(0.0,1.200000000000000),(0.0,0.480000000000000),.UNSPECIFIED.);
#678=ORIENTED_EDGE('',*,*,#599,.T.);
#679=CARTESIAN_POINT('',(-2.440000000000000,1.260000000000000,-5.551115E-017));
#680=VERTEX_POINT('',#679);
#681=CARTESIAN_POINT('',(-2.440000000000000,1.260000000000000,-5.551115E-017));
#682=DIRECTION('',(1.0,0.0,0.0));
#683=VECTOR('',#682,1.200000000000000);
#684=LINE('',#681,#683);
#685=EDGE_CURVE('',#680,#584,#684,.T.);
#686=ORIENTED_EDGE('',*,*,#685,.F.);
#687=CARTESIAN_POINT('',(-2.440000000000000,1.740000000000000,-5.551115E-017));
#688=DIRECTION('',(0.0,-1.0,0.0));
#689=VECTOR('',#688,0.480000000000000);
#690=LINE('',#687,#689);
#691=EDGE_CURVE('',#656,#680,#690,.T.);
#692=ORIENTED_EDGE('',*,*,#691,.F.);
#693=ORIENTED_EDGE('',*,*,#661,.F.);
#694=EDGE_LOOP('',(#678,#686,#692,#693));
#695=FACE_OUTER_BOUND('',#694,.T.);
#696=ADVANCED_FACE('',(#695),#677,.F.);
#697=CARTESIAN_POINT('',(-2.440000000000000,1.260000000000000,0.390000000000000));
#698=CARTESIAN_POINT('',(-2.440000000000000,1.260000000000000,-5.551115E-017));
#699=CARTESIAN_POINT('',(-2.440000000000000,1.740000000000000,0.390000000000000));
#700=CARTESIAN_POINT('',(-2.440000000000000,1.740000000000000,-5.551115E-017));
#701=B_SPLINE_SURFACE_WITH_KNOTS('',1,1,((#697,#699),(#698,#700)),.UNSPECIFIED.,.F.,.F.,.U.,(2,2),(2,2),(0.0,0.390000000000000),(0.0,0.480000000000000),.UNSPECIFIED.);
#702=CARTESIAN_POINT('',(-2.440000000000000,1.260000000000000,0.390000000000000));
#703=DIRECTION('',(0.0,0.0,-1.0));
#704=VECTOR('',#703,0.390000000000000);
#705=LINE('',#702,#704);
#706=EDGE_CURVE('',#633,#680,#705,.T.);
#707=ORIENTED_EDGE('',*,*,#706,.F.);
#708=ORIENTED_EDGE('',*,*,#638,.T.);
#709=ORIENTED_EDGE('',*,*,#667,.T.);
#710=ORIENTED_EDGE('',*,*,#691,.T.);
#711=EDGE_LOOP('',(#707,#708,#709,#710));
#712=FACE_OUTER_BOUND('',#711,.T.);
#713=ADVANCED_FACE('',(#712),#701,.F.);
#714=CARTESIAN_POINT('',(-1.205875000000000,1.260000000000000,0.390000000000000));
#715=CARTESIAN_POINT('',(-1.205875000000000,1.260000000000000,-1.110223E-016));
#716=CARTESIAN_POINT('',(-2.440000000000000,1.260000000000000,0.390000000000000));
#717=CARTESIAN_POINT('',(-2.440000000000000,1.260000000000000,-1.110223E-016));
#718=B_SPLINE_SURFACE_WITH_KNOTS('',1,1,((#714,#716),(#715,#717)),.UNSPECIFIED.,.F.,.F.,.U.,(2,2),(2,2),(0.0,0.390000000000000),(0.0,1.234125000000000),.UNSPECIFIED.);
#719=ORIENTED_EDGE('',*,*,#591,.T.);
#720=ORIENTED_EDGE('',*,*,#644,.T.);
#721=ORIENTED_EDGE('',*,*,#706,.T.);
#722=ORIENTED_EDGE('',*,*,#685,.T.);
#723=EDGE_LOOP('',(#719,#720,#721,#722));
#724=FACE_OUTER_BOUND('',#723,.T.);
#725=ADVANCED_FACE('',(#724),#718,.F.);
#726=CLOSED_SHELL('',(#617,#648,#672,#696,#713,#725));
#727=MANIFOLD_SOLID_BREP('8BC',#726);
#728=STYLED_ITEM('NONE',(#423),#727);
#729=CARTESIAN_POINT('',(-1.205875000000000,-0.800000000000000,0.390000000000000));
#730=CARTESIAN_POINT('',(1.205875000000000,-0.800000000000000,0.390000000000000));
#731=CARTESIAN_POINT('',(-1.205875000000000,0.800000000000000,0.390000000000000));
#732=CARTESIAN_POINT('',(1.205875000000000,0.800000000000000,0.390000000000000));
#733=B_SPLINE_SURFACE_WITH_KNOTS('',1,1,((#729,#731),(#730,#732)),.UNSPECIFIED.,.F.,.F.,.U.,(2,2),(2,2),(0.0,2.411750000000000),(0.0,1.600000000000000),.UNSPECIFIED.);
#734=CARTESIAN_POINT('',(-1.205875000000000,0.240000000000000,0.390000000000000));
#735=VERTEX_POINT('',#734);
#736=CARTESIAN_POINT('',(-1.205875000000000,-0.240000000000000,0.390000000000000));
#737=VERTEX_POINT('',#736);
#738=CARTESIAN_POINT('',(-1.205875000000000,0.240000000000000,0.390000000000000));
#739=DIRECTION('',(0.0,-1.0,0.0));
#740=VECTOR('',#739,0.480000000000000);
#741=LINE('',#738,#740);
#742=EDGE_CURVE('',#735,#737,#741,.T.);
#743=ORIENTED_EDGE('',*,*,#742,.F.);
#744=CARTESIAN_POINT('',(-0.715000000000000,0.240000000000000,0.390000000000000));
#745=VERTEX_POINT('',#744);
#746=CARTESIAN_POINT('',(-0.715000000000000,0.240000000000000,0.390000000000000));
#747=DIRECTION('',(-1.0,0.0,0.0));
#748=VECTOR('',#747,0.490875000000000);
#749=LINE('',#746,#748);
#750=EDGE_CURVE('',#745,#735,#749,.T.);
#751=ORIENTED_EDGE('',*,*,#750,.F.);
#752=CARTESIAN_POINT('',(-0.715000000000000,0.800000000000000,0.390000000000000));
#753=VERTEX_POINT('',#752);
#754=CARTESIAN_POINT('',(-0.715000000000000,0.240000000000000,0.390000000000000));
#755=DIRECTION('',(0.0,1.0,0.0));
#756=VECTOR('',#755,0.560000000000000);
#757=LINE('',#754,#756);
#758=EDGE_CURVE('',#745,#753,#757,.T.);
#759=ORIENTED_EDGE('',*,*,#758,.T.);
#760=CARTESIAN_POINT('',(1.205875000000000,0.800000000000000,0.390000000000000));
#761=VERTEX_POINT('',#760);
#762=CARTESIAN_POINT('',(-0.715000000000000,0.800000000000000,0.390000000000000));
#763=DIRECTION('',(1.0,0.0,0.0));
#764=VECTOR('',#763,1.920874999999999);
#765=LINE('',#762,#764);
#766=EDGE_CURVE('',#753,#761,#765,.T.);
#767=ORIENTED_EDGE('',*,*,#766,.T.);
#768=CARTESIAN_POINT('',(1.205875000000000,-0.800000000000000,0.390000000000000));
#769=VERTEX_POINT('',#768);
#770=CARTESIAN_POINT('',(1.205875000000000,-0.800000000000000,0.390000000000000));
#771=DIRECTION('',(0.0,1.0,0.0));
#772=VECTOR('',#771,1.600000000000000);
#773=LINE('',#770,#772);
#774=EDGE_CURVE('',#769,#761,#773,.T.);
#775=ORIENTED_EDGE('',*,*,#774,.F.);
#776=CARTESIAN_POINT('',(-0.715000000000000,-0.800000000000000,0.390000000000000));
#777=VERTEX_POINT('',#776);
#778=CARTESIAN_POINT('',(1.205875000000000,-0.800000000000000,0.390000000000000));
#779=DIRECTION('',(-1.0,0.0,0.0));
#780=VECTOR('',#779,1.920874999999999);
#781=LINE('',#778,#780);
#782=EDGE_CURVE('',#769,#777,#781,.T.);
#783=ORIENTED_EDGE('',*,*,#782,.T.);
#784=CARTESIAN_POINT('',(-0.714999999999999,-0.240000000000000,0.390000000000000));
#785=VERTEX_POINT('',#784);
#786=CARTESIAN_POINT('',(-0.715000000000000,-0.800000000000000,0.390000000000000));
#787=DIRECTION('',(0.0,1.0,0.0));
#788=VECTOR('',#787,0.560000000000000);
#789=LINE('',#786,#788);
#790=EDGE_CURVE('',#777,#785,#789,.T.);
#791=ORIENTED_EDGE('',*,*,#790,.T.);
#792=CARTESIAN_POINT('',(-1.205875000000000,-0.240000000000000,0.390000000000000));
#793=DIRECTION('',(1.0,0.0,0.0));
#794=VECTOR('',#793,0.490875000000000);
#795=LINE('',#792,#794);
#796=EDGE_CURVE('',#737,#785,#795,.T.);
#797=ORIENTED_EDGE('',*,*,#796,.F.);
#798=EDGE_LOOP('',(#743,#751,#759,#767,#775,#783,#791,#797));
#799=FACE_OUTER_BOUND('',#798,.T.);
#800=ADVANCED_FACE('',(#799),#733,.F.);
#801=CARTESIAN_POINT('',(1.240000000000000,0.800000000000000,-1.110223E-016));
#802=CARTESIAN_POINT('',(1.240000000000000,0.800000000000000,0.390000000000000));
#803=CARTESIAN_POINT('',(-0.715000000000000,0.800000000000000,-1.110223E-016));
#804=CARTESIAN_POINT('',(-0.715000000000000,0.800000000000000,0.390000000000000));
#805=B_SPLINE_SURFACE_WITH_KNOTS('',1,1,((#801,#803),(#802,#804)),.UNSPECIFIED.,.F.,.F.,.U.,(2,2),(2,2),(0.0,0.390000000000000),(0.0,1.955000000000000),.UNSPECIFIED.);
#806=CARTESIAN_POINT('',(1.240000000000000,0.800000000000000,0.0));
#807=VERTEX_POINT('',#806);
#808=CARTESIAN_POINT('',(1.205875000000000,0.800000000000000,0.390000000000000));
#809=DIRECTION('',(0.087166950280910,0.0,-0.996193717496113));
#810=VECTOR('',#809,0.391490122001820);
#811=LINE('',#808,#810);
#812=EDGE_CURVE('',#761,#807,#811,.T.);
#813=ORIENTED_EDGE('',*,*,#812,.F.);
#814=ORIENTED_EDGE('',*,*,#766,.F.);
#815=CARTESIAN_POINT('',(-0.715000000000000,0.800000000000000,0.0));
#816=VERTEX_POINT('',#815);
#817=CARTESIAN_POINT('',(-0.715000000000000,0.800000000000000,0.390000000000000));
#818=DIRECTION('',(0.0,0.0,-1.0));
#819=VECTOR('',#818,0.390000000000000);
#820=LINE('',#817,#819);
#821=EDGE_CURVE('',#753,#816,#820,.T.);
#822=ORIENTED_EDGE('',*,*,#821,.T.);
#823=CARTESIAN_POINT('',(1.240000000000000,0.800000000000000,0.0));
#824=DIRECTION('',(-1.0,0.0,0.0));
#825=VECTOR('',#824,1.955000000000000);
#826=LINE('',#823,#825);
#827=EDGE_CURVE('',#807,#816,#826,.T.);
#828=ORIENTED_EDGE('',*,*,#827,.F.);
#829=EDGE_LOOP('',(#813,#814,#822,#828));
#830=FACE_OUTER_BOUND('',#829,.T.);
#831=ADVANCED_FACE('',(#830),#805,.T.);
#832=CARTESIAN_POINT('',(-1.240000000000000,0.240000000000000,0.0));
#833=CARTESIAN_POINT('',(1.240000000000000,0.240000000000000,0.0));
#834=CARTESIAN_POINT('',(-1.240000000000000,2.250000000000000,0.0));
#835=CARTESIAN_POINT('',(1.240000000000000,2.250000000000000,0.0));
#836=B_SPLINE_SURFACE_WITH_KNOTS('',1,1,((#832,#834),(#833,#835)),.UNSPECIFIED.,.F.,.F.,.U.,(2,2),(2,2),(0.0,2.480000000000000),(0.0,2.010000000000000),.UNSPECIFIED.);
#837=CARTESIAN_POINT('',(-0.715000000000000,0.240000000000000,5.551115E-017));
#838=VERTEX_POINT('',#837);
#839=CARTESIAN_POINT('',(-1.240000000000000,0.240000000000000,5.551115E-017));
#840=VERTEX_POINT('',#839);
#841=CARTESIAN_POINT('',(-0.715000000000000,0.240000000000000,0.0));
#842=DIRECTION('',(-1.0,0.0,0.0));
#843=VECTOR('',#842,0.525000000000000);
#844=LINE('',#841,#843);
#845=EDGE_CURVE('',#838,#840,#844,.T.);
#846=ORIENTED_EDGE('',*,*,#845,.T.);
#847=CARTESIAN_POINT('',(-1.240000000000000,2.250000000000000,0.0));
#848=VERTEX_POINT('',#847);
#849=CARTESIAN_POINT('',(-1.240000000000000,2.250000000000000,0.0));
#850=DIRECTION('',(0.0,-1.0,0.0));
#851=VECTOR('',#850,2.010000000000000);
#852=LINE('',#849,#851);
#853=EDGE_CURVE('',#848,#840,#852,.T.);
#854=ORIENTED_EDGE('',*,*,#853,.F.);
#855=CARTESIAN_POINT('',(1.240000000000000,2.250000000000000,0.0));
#856=VERTEX_POINT('',#855);
#857=CARTESIAN_POINT('',(1.240000000000000,2.250000000000000,0.0));
#858=DIRECTION('',(-1.0,0.0,0.0));
#859=VECTOR('',#858,2.480000000000000);
#860=LINE('',#857,#859);
#861=EDGE_CURVE('',#856,#848,#860,.T.);
#862=ORIENTED_EDGE('',*,*,#861,.F.);
#863=CARTESIAN_POINT('',(1.240000000000000,0.800000000000000,0.0));
#864=DIRECTION('',(0.0,1.0,0.0));
#865=VECTOR('',#864,1.450000000000000);
#866=LINE('',#863,#865);
#867=EDGE_CURVE('',#807,#856,#866,.T.);
#868=ORIENTED_EDGE('',*,*,#867,.F.);
#869=ORIENTED_EDGE('',*,*,#827,.T.);
#870=CARTESIAN_POINT('',(-0.715000000000000,0.800000000000000,0.0));
#871=DIRECTION('',(0.0,-1.0,0.0));
#872=VECTOR('',#871,0.560000000000000);
#873=LINE('',#870,#872);
#874=EDGE_CURVE('',#816,#838,#873,.T.);
#875=ORIENTED_EDGE('',*,*,#874,.T.);
#876=EDGE_LOOP('',(#846,#854,#862,#868,#869,#875));
#877=FACE_OUTER_BOUND('',#876,.T.);
#878=ADVANCED_FACE('',(#877),#836,.F.);
#879=CARTESIAN_POINT('',(-1.615000000000000,0.240000000000000,0.195000000000000));
#880=DIRECTION('',(0.0,-1.0,0.0));
#881=DIRECTION('',(0.0,0.0,-1.0));
#882=AXIS2_PLACEMENT_3D('',#879,#880,#881);
#883=PLANE('',#882);
#884=CARTESIAN_POINT('',(-1.240000000000000,0.240000000000000,0.0));
#885=DIRECTION('',(0.087166950280910,0.0,0.996193717496113));
#886=VECTOR('',#885,0.391490122001820);
#887=LINE('',#884,#886);
#888=EDGE_CURVE('',#840,#735,#887,.T.);
#889=ORIENTED_EDGE('',*,*,#888,.F.);
#890=ORIENTED_EDGE('',*,*,#845,.F.);
#891=CARTESIAN_POINT('',(-0.715000000000000,0.240000000000000,5.551115E-017));
#892=DIRECTION('',(0.0,0.0,1.0));
#893=VECTOR('',#892,0.390000000000000);
#894=LINE('',#891,#893);
#895=EDGE_CURVE('',#838,#745,#894,.T.);
#896=ORIENTED_EDGE('',*,*,#895,.T.);
#897=ORIENTED_EDGE('',*,*,#750,.T.);
#898=EDGE_LOOP('',(#889,#890,#896,#897));
#899=FACE_OUTER_BOUND('',#898,.T.);
#900=ADVANCED_FACE('',(#899),#883,.T.);
#901=CARTESIAN_POINT('',(-1.240000000000000,-2.250000000000000,0.0));
#902=CARTESIAN_POINT('',(1.240000000000000,-2.250000000000000,0.0));
#903=CARTESIAN_POINT('',(-1.240000000000000,-0.240000000000000,0.0));
#904=CARTESIAN_POINT('',(1.240000000000000,-0.240000000000000,0.0));
#905=B_SPLINE_SURFACE_WITH_KNOTS('',1,1,((#901,#903),(#902,#904)),.UNSPECIFIED.,.F.,.F.,.U.,(2,2),(2,2),(0.0,2.480000000000000),(0.0,2.010000000000000),.UNSPECIFIED.);
#906=CARTESIAN_POINT('',(-1.240000000000000,-0.240000000000000,5.551115E-017));
#907=VERTEX_POINT('',#906);
#908=CARTESIAN_POINT('',(-0.714999999999999,-0.240000000000000,5.551115E-017));
#909=VERTEX_POINT('',#908);
#910=CARTESIAN_POINT('',(-1.240000000000000,-0.240000000000000,0.0));
#911=DIRECTION('',(1.0,0.0,0.0));
#912=VECTOR('',#911,0.525000000000001);
#913=LINE('',#910,#912);
#914=EDGE_CURVE('',#907,#909,#913,.T.);
#915=ORIENTED_EDGE('',*,*,#914,.T.);
#916=CARTESIAN_POINT('',(-0.715000000000000,-0.800000000000000,0.0));
#917=VERTEX_POINT('',#916);
#918=CARTESIAN_POINT('',(-0.715000000000000,-0.240000000000000,0.0));
#919=DIRECTION('',(0.0,-1.0,0.0));
#920=VECTOR('',#919,0.560000000000000);
#921=LINE('',#918,#920);
#922=EDGE_CURVE('',#909,#917,#921,.T.);
#923=ORIENTED_EDGE('',*,*,#922,.T.);
#924=CARTESIAN_POINT('',(1.240000000000000,-0.800000000000000,0.0));
#925=VERTEX_POINT('',#924);
#926=CARTESIAN_POINT('',(-0.715000000000000,-0.800000000000000,0.0));
#927=DIRECTION('',(1.0,0.0,0.0));
#928=VECTOR('',#927,1.955000000000000);
#929=LINE('',#926,#928);
#930=EDGE_CURVE('',#917,#925,#929,.T.);
#931=ORIENTED_EDGE('',*,*,#930,.T.);
#932=CARTESIAN_POINT('',(1.240000000000000,-2.250000000000000,0.0));
#933=VERTEX_POINT('',#932);
#934=CARTESIAN_POINT('',(1.240000000000000,-2.250000000000000,0.0));
#935=DIRECTION('',(0.0,1.0,0.0));
#936=VECTOR('',#935,1.450000000000000);
#937=LINE('',#934,#936);
#938=EDGE_CURVE('',#933,#925,#937,.T.);
#939=ORIENTED_EDGE('',*,*,#938,.F.);
#940=CARTESIAN_POINT('',(-1.240000000000000,-2.250000000000000,0.0));
#941=VERTEX_POINT('',#940);
#942=CARTESIAN_POINT('',(-1.240000000000000,-2.250000000000000,0.0));
#943=DIRECTION('',(1.0,0.0,0.0));
#944=VECTOR('',#943,2.480000000000000);
#945=LINE('',#942,#944);
#946=EDGE_CURVE('',#941,#933,#945,.T.);
#947=ORIENTED_EDGE('',*,*,#946,.F.);
#948=CARTESIAN_POINT('',(-1.240000000000000,-0.240000000000000,0.0));
#949=DIRECTION('',(0.0,-1.0,0.0));
#950=VECTOR('',#949,2.010000000000000);
#951=LINE('',#948,#950);
#952=EDGE_CURVE('',#907,#941,#951,.T.);
#953=ORIENTED_EDGE('',*,*,#952,.F.);
#954=EDGE_LOOP('',(#915,#923,#931,#939,#947,#953));
#955=FACE_OUTER_BOUND('',#954,.T.);
#956=ADVANCED_FACE('',(#955),#905,.F.);
#957=CARTESIAN_POINT('',(1.240000000000000,-0.800000000000000,0.390000000000000));
#958=CARTESIAN_POINT('',(1.240000000000000,-0.800000000000000,-1.110223E-016));
#959=CARTESIAN_POINT('',(-0.715000000000000,-0.800000000000000,0.390000000000000));
#960=CARTESIAN_POINT('',(-0.715000000000000,-0.800000000000000,-1.110223E-016));
#961=B_SPLINE_SURFACE_WITH_KNOTS('',1,1,((#957,#959),(#958,#960)),.UNSPECIFIED.,.F.,.F.,.U.,(2,2),(2,2),(0.0,0.390000000000000),(0.0,1.955000000000000),.UNSPECIFIED.);
#962=CARTESIAN_POINT('',(1.240000000000000,-0.800000000000000,-1.110223E-016));
#963=DIRECTION('',(-0.087166950280910,0.0,0.996193717496113));
#964=VECTOR('',#963,0.391490122001820);
#965=LINE('',#962,#964);
#966=EDGE_CURVE('',#925,#769,#965,.T.);
#967=ORIENTED_EDGE('',*,*,#966,.F.);
#968=ORIENTED_EDGE('',*,*,#930,.F.);
#969=CARTESIAN_POINT('',(-0.715000000000000,-0.800000000000000,0.390000000000000));
#970=DIRECTION('',(0.0,0.0,-1.0));
#971=VECTOR('',#970,0.390000000000000);
#972=LINE('',#969,#971);
#973=EDGE_CURVE('',#777,#917,#972,.T.);
#974=ORIENTED_EDGE('',*,*,#973,.F.);
#975=ORIENTED_EDGE('',*,*,#782,.F.);
#976=EDGE_LOOP('',(#967,#968,#974,#975));
#977=FACE_OUTER_BOUND('',#976,.T.);
#978=ADVANCED_FACE('',(#977),#961,.T.);
#979=CARTESIAN_POINT('',(-0.715000000000000,-0.800000000000000,0.390000000000000));
#980=CARTESIAN_POINT('',(-0.715000000000000,-0.800000000000000,0.0));
#981=CARTESIAN_POINT('',(-0.715000000000000,-0.240000000000000,0.390000000000000));
#982=CARTESIAN_POINT('',(-0.715000000000000,-0.240000000000000,0.0));
#983=B_SPLINE_SURFACE_WITH_KNOTS('',1,1,((#979,#981),(#980,#982)),.UNSPECIFIED.,.F.,.F.,.U.,(2,2),(2,2),(0.0,0.390000000000000),(0.0,0.560000000000000),.UNSPECIFIED.);
#984=CARTESIAN_POINT('',(-0.715000000000000,-0.240000000000000,0.390000000000000));
#985=DIRECTION('',(0.0,0.0,-1.0));
#986=VECTOR('',#985,0.390000000000000);
#987=LINE('',#984,#986);
#988=EDGE_CURVE('',#785,#909,#987,.T.);
#989=ORIENTED_EDGE('',*,*,#988,.F.);
#990=ORIENTED_EDGE('',*,*,#790,.F.);
#991=ORIENTED_EDGE('',*,*,#973,.T.);
#992=ORIENTED_EDGE('',*,*,#922,.F.);
#993=EDGE_LOOP('',(#989,#990,#991,#992));
#994=FACE_OUTER_BOUND('',#993,.T.);
#995=ADVANCED_FACE('',(#994),#983,.T.);
#996=CARTESIAN_POINT('',(-1.615000000000000,-0.240000000000000,0.195000000000000));
#997=DIRECTION('',(0.0,1.0,0.0));
#998=DIRECTION('',(0.0,0.0,1.0));
#999=AXIS2_PLACEMENT_3D('',#996,#997,#998);
#1000=PLANE('',#999);
#1001=CARTESIAN_POINT('',(-1.205875000000000,-0.240000000000000,0.390000000000000));
#1002=DIRECTION('',(-0.087166950280910,0.0,-0.996193717496113));
#1003=VECTOR('',#1002,0.391490122001820);
#1004=LINE('',#1001,#1003);
#1005=EDGE_CURVE('',#737,#907,#1004,.T.);
#1006=ORIENTED_EDGE('',*,*,#1005,.F.);
#1007=ORIENTED_EDGE('',*,*,#796,.T.);
#1008=ORIENTED_EDGE('',*,*,#988,.T.);
#1009=ORIENTED_EDGE('',*,*,#914,.F.);
#1010=EDGE_LOOP('',(#1006,#1007,#1008,#1009));
#1011=FACE_OUTER_BOUND('',#1010,.T.);
#1012=ADVANCED_FACE('',(#1011),#1000,.T.);
#1013=CARTESIAN_POINT('',(-1.170000000000000,0.0,0.800000000000000));
#1014=DIRECTION('',(-0.996193717496113,0.0,0.087166950280910));
#1015=DIRECTION('',(0.087166950280910,0.0,0.996193717496113));
#1016=AXIS2_PLACEMENT_3D('',#1013,#1014,#1015);
#1017=PLANE('',#1016);
#1018=ORIENTED_EDGE('',*,*,#888,.T.);
#1019=ORIENTED_EDGE('',*,*,#742,.T.);
#1020=ORIENTED_EDGE('',*,*,#1005,.T.);
#1021=ORIENTED_EDGE('',*,*,#952,.T.);
#1022=CARTESIAN_POINT('',(-1.100000000000000,-2.110000000000000,1.600000000000000));
#1023=VERTEX_POINT('',#1022);
#1024=CARTESIAN_POINT('',(-1.100000000000000,-2.110000000000000,1.600000000000000));
#1025=DIRECTION('',(-0.086837674882558,-0.086837674882559,-0.992430570086382));
#1026=VECTOR('',#1025,1.612203461105328);
#1027=LINE('',#1024,#1026);
#1028=EDGE_CURVE('',#1023,#941,#1027,.T.);
#1029=ORIENTED_EDGE('',*,*,#1028,.F.);
#1030=CARTESIAN_POINT('',(-1.100000000000000,2.110000000000000,1.600000000000000));
#1031=VERTEX_POINT('',#1030);
#1032=CARTESIAN_POINT('',(-1.100000000000000,-2.110000000000000,1.600000000000000));
#1033=DIRECTION('',(0.0,1.0,0.0));
#1034=VECTOR('',#1033,4.220000000000000);
#1035=LINE('',#1032,#1034);
#1036=EDGE_CURVE('',#1023,#1031,#1035,.T.);
#1037=ORIENTED_EDGE('',*,*,#1036,.T.);
#1038=CARTESIAN_POINT('',(-1.100000000000000,2.110000000000000,1.600000000000000));
#1039=DIRECTION('',(-0.086837674882558,0.086837674882559,-0.992430570086382));
#1040=VECTOR('',#1039,1.612203461105328);
#1041=LINE('',#1038,#1040);
#1042=EDGE_CURVE('',#1031,#848,#1041,.T.);
#1043=ORIENTED_EDGE('',*,*,#1042,.T.);
#1044=ORIENTED_EDGE('',*,*,#853,.T.);
#1045=EDGE_LOOP('',(#1018,#1019,#1020,#1021,#1029,#1037,#1043,#1044));
#1046=FACE_OUTER_BOUND('',#1045,.T.);
#1047=ADVANCED_FACE('',(#1046),#1017,.T.);
#1048=CARTESIAN_POINT('',(1.170000000000000,0.0,0.800000000000000));
#1049=DIRECTION('',(0.996193717496113,0.0,0.087166950280910));
#1050=DIRECTION('',(0.087166950280910,0.0,-0.996193717496113));
#1051=AXIS2_PLACEMENT_3D('',#1048,#1049,#1050);
#1052=PLANE('',#1051);
#1053=ORIENTED_EDGE('',*,*,#812,.T.);
#1054=ORIENTED_EDGE('',*,*,#867,.T.);
#1055=CARTESIAN_POINT('',(1.100000000000000,2.110000000000000,1.600000000000000));
#1056=VERTEX_POINT('',#1055);
#1057=CARTESIAN_POINT('',(1.240000000000000,2.250000000000000,0.0));
#1058=DIRECTION('',(-0.086837674882558,-0.086837674882559,0.992430570086382));
#1059=VECTOR('',#1058,1.612203461105328);
#1060=LINE('',#1057,#1059);
#1061=EDGE_CURVE('',#856,#1056,#1060,.T.);
#1062=ORIENTED_EDGE('',*,*,#1061,.T.);
#1063=CARTESIAN_POINT('',(1.100000000000000,-2.110000000000000,1.600000000000000));
#1064=VERTEX_POINT('',#1063);
#1065=CARTESIAN_POINT('',(1.100000000000000,2.110000000000000,1.600000000000000));
#1066=DIRECTION('',(0.0,-1.0,0.0));
#1067=VECTOR('',#1066,4.220000000000000);
#1068=LINE('',#1065,#1067);
#1069=EDGE_CURVE('',#1056,#1064,#1068,.T.);
#1070=ORIENTED_EDGE('',*,*,#1069,.T.);
#1071=CARTESIAN_POINT('',(1.100000000000000,-2.110000000000000,1.600000000000000));
#1072=DIRECTION('',(0.086837674882558,-0.086837674882559,-0.992430570086382));
#1073=VECTOR('',#1072,1.612203461105328);
#1074=LINE('',#1071,#1073);
#1075=EDGE_CURVE('',#1064,#933,#1074,.T.);
#1076=ORIENTED_EDGE('',*,*,#1075,.T.);
#1077=ORIENTED_EDGE('',*,*,#938,.T.);
#1078=ORIENTED_EDGE('',*,*,#966,.T.);
#1079=ORIENTED_EDGE('',*,*,#774,.T.);
#1080=EDGE_LOOP('',(#1053,#1054,#1062,#1070,#1076,#1077,#1078,#1079));
#1081=FACE_OUTER_BOUND('',#1080,.T.);
#1082=ADVANCED_FACE('',(#1081),#1052,.T.);
#1083=CARTESIAN_POINT('',(0.0,2.180000000000000,0.800000000000000));
#1084=DIRECTION('',(0.0,0.996193717496113,0.087166950280910));
#1085=DIRECTION('',(0.0,-0.087166950280910,0.996193717496113));
#1086=AXIS2_PLACEMENT_3D('',#1083,#1084,#1085);
#1087=PLANE('',#1086);
#1088=CARTESIAN_POINT('',(-1.100000000000000,2.110000000000000,1.600000000000000));
#1089=DIRECTION('',(1.0,0.0,0.0));
#1090=VECTOR('',#1089,2.200000000000000);
#1091=LINE('',#1088,#1090);
#1092=EDGE_CURVE('',#1031,#1056,#1091,.T.);
#1093=ORIENTED_EDGE('',*,*,#1092,.T.);
#1094=ORIENTED_EDGE('',*,*,#1061,.F.);
#1095=ORIENTED_EDGE('',*,*,#861,.T.);
#1096=ORIENTED_EDGE('',*,*,#1042,.F.);
#1097=EDGE_LOOP('',(#1093,#1094,#1095,#1096));
#1098=FACE_OUTER_BOUND('',#1097,.T.);
#1099=ADVANCED_FACE('',(#1098),#1087,.T.);
#1100=CARTESIAN_POINT('',(0.0,-2.180000000000000,0.800000000000000));
#1101=DIRECTION('',(0.0,-0.996193717496113,0.087166950280910));
#1102=DIRECTION('',(0.0,-0.087166950280910,-0.996193717496113));
#1103=AXIS2_PLACEMENT_3D('',#1100,#1101,#1102);
#1104=PLANE('',#1103);
#1105=CARTESIAN_POINT('',(1.100000000000000,-2.110000000000000,1.600000000000000));
#1106=DIRECTION('',(-1.0,0.0,0.0));
#1107=VECTOR('',#1106,2.200000000000000);
#1108=LINE('',#1105,#1107);
#1109=EDGE_CURVE('',#1064,#1023,#1108,.T.);
#1110=ORIENTED_EDGE('',*,*,#1109,.T.);
#1111=ORIENTED_EDGE('',*,*,#1028,.T.);
#1112=ORIENTED_EDGE('',*,*,#946,.T.);
#1113=ORIENTED_EDGE('',*,*,#1075,.F.);
#1114=EDGE_LOOP('',(#1110,#1111,#1112,#1113));
#1115=FACE_OUTER_BOUND('',#1114,.T.);
#1116=ADVANCED_FACE('',(#1115),#1104,.T.);
#1117=CARTESIAN_POINT('',(-1.100000000000000,-2.110000000000000,1.600000000000000));
#1118=CARTESIAN_POINT('',(1.100000000000000,-2.110000000000000,1.600000000000000));
#1119=CARTESIAN_POINT('',(-1.100000000000000,2.110000000000000,1.600000000000000));
#1120=CARTESIAN_POINT('',(1.100000000000000,2.110000000000000,1.600000000000000));
#1121=B_SPLINE_SURFACE_WITH_KNOTS('',1,1,((#1117,#1119),(#1118,#1120)),.UNSPECIFIED.,.F.,.F.,.U.,(2,2),(2,2),(0.0,2.200000000000000),(0.0,4.220000000000000),.UNSPECIFIED.);
#1122=ORIENTED_EDGE('',*,*,#1069,.F.);
#1123=ORIENTED_EDGE('',*,*,#1092,.F.);
#1124=ORIENTED_EDGE('',*,*,#1036,.F.);
#1125=ORIENTED_EDGE('',*,*,#1109,.F.);
#1126=EDGE_LOOP('',(#1122,#1123,#1124,#1125));
#1127=FACE_OUTER_BOUND('',#1126,.T.);
#1128=ADVANCED_FACE('',(#1127),#1121,.T.);
#1129=CARTESIAN_POINT('',(-0.715000000000000,0.240000000000000,0.390000000000000));
#1130=CARTESIAN_POINT('',(-0.715000000000000,0.240000000000000,0.0));
#1131=CARTESIAN_POINT('',(-0.715000000000000,0.800000000000000,0.390000000000000));
#1132=CARTESIAN_POINT('',(-0.715000000000000,0.800000000000000,0.0));
#1133=B_SPLINE_SURFACE_WITH_KNOTS('',1,1,((#1129,#1131),(#1130,#1132)),.UNSPECIFIED.,.F.,.F.,.U.,(2,2),(2,2),(0.0,0.390000000000000),(0.0,0.560000000000000),.UNSPECIFIED.);
#1134=ORIENTED_EDGE('',*,*,#895,.F.);
#1135=ORIENTED_EDGE('',*,*,#874,.F.);
#1136=ORIENTED_EDGE('',*,*,#821,.F.);
#1137=ORIENTED_EDGE('',*,*,#758,.F.);
#1138=EDGE_LOOP('',(#1134,#1135,#1136,#1137));
#1139=FACE_OUTER_BOUND('',#1138,.T.);
#1140=ADVANCED_FACE('',(#1139),#1133,.T.);
#1141=CLOSED_SHELL('',(#800,#831,#878,#900,#956,#978,#995,#1012,#1047,#1082,#1099,#1116,#1128,#1140));
#1142=MANIFOLD_SOLID_BREP('88C',#1141);
#1143=COLOUR_RGB('250',0.330000000000000,0.330000000000000,0.330000000000000);
#1144=SURFACE_STYLE_USAGE(.BOTH.,#1145);
#1145=SURFACE_SIDE_STYLE('NONE',(#1146));
#1146=SURFACE_STYLE_FILL_AREA(#1147);
#1147=FILL_AREA_STYLE('NONE',(#1148));
#1148=FILL_AREA_STYLE_COLOUR('NONE',#1143);
#1149=PRESENTATION_STYLE_ASSIGNMENT((#1144));
#1150=STYLED_ITEM('NONE',(#1149),#1142);
#1151=ADVANCED_BREP_SHAPE_REPRESENTATION('ABSR1',(#416,#576,#727,#1142),#28);
#1152=SHAPE_REPRESENTATION_RELATIONSHIP('SRRPL1','',#1151,#62);
ENDSEC;
END-ISO-10303-21;
