ISO-10303-21;
HEADER;
/****************************************************************
 * Generated by software with PDElib inside                    *
 * PDElib Version v51a, created Wed 11/30/2011                  *
 * ITI Transcendata (http://www.transcendata.com/)              *
 ****************************************************************/
FILE_DESCRIPTION((''),'2;1');
FILE_NAME('DIOM8060X543N.stp','2014-11-17T10:48:42',(''),(''),'Mechanical Desktop 2011','Mechanical Desktop 2011',', , ');
FILE_SCHEMA(('AUTOMOTIVE_DESIGN { 1 2 10303 214 1 1 1 1 }'));
ENDSEC;
DATA;
#10=(NAMED_UNIT(*)PLANE_ANGLE_UNIT()SI_UNIT($,.RADIAN.));
#11=DIMENSIONAL_EXPONENTS(0.0,0.0,0.0,0.0,0.0,0.0,0.0);
#12=PLANE_ANGLE_MEASURE_WITH_UNIT(PLANE_ANGLE_MEASURE(0.0174532925),#10);
#16=(CONVERSION_BASED_UNIT('DEGREE',#12)NAMED_UNIT(#11)PLANE_ANGLE_UNIT());
#20=(NAMED_UNIT(*)SI_UNIT($,.STERADIAN.)SOLID_ANGLE_UNIT());
#24=(LENGTH_UNIT()NAMED_UNIT(*)SI_UNIT(.MILLI.,.METRE.));
#26=UNCERTAINTY_MEASURE_WITH_UNIT(LENGTH_MEASURE(0.000001),#24,'DISTANCE_ACCURACY_VALUE','');
#28=(GEOMETRIC_REPRESENTATION_CONTEXT(3)GLOBAL_UNCERTAINTY_ASSIGNED_CONTEXT((#26))GLOBAL_UNIT_ASSIGNED_CONTEXT((#16,#20,#24))REPRESENTATION_CONTEXT('','3D'));
#29=APPLICATION_CONTEXT('automotive design');
#30=APPLICATION_PROTOCOL_DEFINITION('INTERNATIONAL_STANDARD','automotive_design',1998,#29);
#31=PRODUCT_CONTEXT('3D Mechanical Parts',#29,'mechanical');
#32=PRODUCT('Product','Product','',(#31));
#33=PRODUCT_RELATED_PRODUCT_CATEGORY('part',$,(#32));
#34=PRODUCT_CATEGORY('part',$);
#35=PERSON('1','Design','Joe',$,$,$);
#36=ORGANIZATION($,'None','None');
#37=PERSON_AND_ORGANIZATION(#35,#36);
#38=PERSON_AND_ORGANIZATION_ROLE('design_owner');
#39=APPLIED_PERSON_AND_ORGANIZATION_ASSIGNMENT(#37,#38,(#32));
#40=PRODUCT_DEFINITION_FORMATION_WITH_SPECIFIED_SOURCE('None','',#32,.BOUGHT.);
#41=PERSON('2','Creator','Joe',$,$,$);
#42=ORGANIZATION($,'None','None');
#43=PERSON_AND_ORGANIZATION(#41,#42);
#44=PERSON_AND_ORGANIZATION_ROLE('creator');
#45=APPLIED_PERSON_AND_ORGANIZATION_ASSIGNMENT(#43,#44,(#40));
#46=PERSON('3','Supplier','Joe',$,$,$);
#47=ORGANIZATION($,'None','None');
#48=PERSON_AND_ORGANIZATION(#46,#47);
#49=PERSON_AND_ORGANIZATION_ROLE('design_supplier');
#50=APPLIED_PERSON_AND_ORGANIZATION_ASSIGNMENT(#48,#49,(#40));
#51=PRODUCT_DEFINITION_CONTEXT('part definition',#29,'design');
#52=PRODUCT_DEFINITION('None','',#40,#51);
#53=PERSON('4','Creator','Joe',$,$,$);
#54=ORGANIZATION($,'None','None');
#55=PERSON_AND_ORGANIZATION(#53,#54);
#56=PERSON_AND_ORGANIZATION_ROLE('creator');
#57=APPLIED_PERSON_AND_ORGANIZATION_ASSIGNMENT(#55,#56,(#52));
#58=CARTESIAN_POINT('NONE',(0.0,0.0,0.0));
#59=DIRECTION('NONE',(0.0,0.0,1.0));
#60=DIRECTION('NONE',(1.0,0.0,0.0));
#61=AXIS2_PLACEMENT_3D('NONE',#58,#59,#60);
#62=SHAPE_REPRESENTATION('SR1',(#61),#28);
#63=PRODUCT_DEFINITION_SHAPE('PDS1','Test Part',#52);
#64=SHAPE_DEFINITION_REPRESENTATION(#63,#62);
#65=CARTESIAN_POINT('',(-2.290000000000001,2.75,5.43));
#66=DIRECTION('',(-1.0,0.0,0.0));
#67=DIRECTION('',(0.0,0.0,1.0));
#68=AXIS2_PLACEMENT_3D('',#65,#66,#67);
#69=PLANE('',#68);
#70=CARTESIAN_POINT('',(-2.290000000000001,2.75,5.38));
#71=VERTEX_POINT('',#70);
#72=CARTESIAN_POINT('',(-2.290000000000001,-2.75,5.38));
#73=VERTEX_POINT('',#72);
#74=CARTESIAN_POINT('',(-2.290000000000001,2.75,5.38));
#75=DIRECTION('',(0.0,-1.0,0.0));
#76=VECTOR('',#75,5.5);
#77=LINE('',#74,#76);
#78=EDGE_CURVE('',#71,#73,#77,.T.);
#79=ORIENTED_EDGE('',*,*,#78,.T.);
#80=CARTESIAN_POINT('',(-2.290000000000001,-2.75,5.43));
#81=VERTEX_POINT('',#80);
#82=CARTESIAN_POINT('',(-2.290000000000001,-2.75,5.43));
#83=DIRECTION('',(0.0,0.0,-1.0));
#84=VECTOR('',#83,0.05);
#85=LINE('',#82,#84);
#86=EDGE_CURVE('',#81,#73,#85,.T.);
#87=ORIENTED_EDGE('',*,*,#86,.F.);
#88=CARTESIAN_POINT('',(-2.290000000000001,2.75,5.43));
#89=VERTEX_POINT('',#88);
#90=CARTESIAN_POINT('',(-2.290000000000001,-2.75,5.43));
#91=DIRECTION('',(0.0,1.0,0.0));
#92=VECTOR('',#91,5.5);
#93=LINE('',#90,#92);
#94=EDGE_CURVE('',#81,#89,#93,.T.);
#95=ORIENTED_EDGE('',*,*,#94,.T.);
#96=CARTESIAN_POINT('',(-2.290000000000001,2.75,5.43));
#97=DIRECTION('',(0.0,0.0,-1.0));
#98=VECTOR('',#97,0.05);
#99=LINE('',#96,#98);
#100=EDGE_CURVE('',#89,#71,#99,.T.);
#101=ORIENTED_EDGE('',*,*,#100,.T.);
#102=EDGE_LOOP('',(#79,#87,#95,#101));
#103=FACE_OUTER_BOUND('',#102,.T.);
#104=ADVANCED_FACE('',(#103),#69,.T.);
#105=CARTESIAN_POINT('',(-2.290000000000001,-2.75,5.43));
#106=DIRECTION('',(0.0,-1.0,0.0));
#107=DIRECTION('',(0.0,0.0,-1.0));
#108=AXIS2_PLACEMENT_3D('',#105,#106,#107);
#109=PLANE('',#108);
#110=CARTESIAN_POINT('',(-1.290000000000001,-2.75,5.38));
#111=VERTEX_POINT('',#110);
#112=CARTESIAN_POINT('',(-2.290000000000001,-2.75,5.38));
#113=DIRECTION('',(1.0,0.0,0.0));
#114=VECTOR('',#113,1.0);
#115=LINE('',#112,#114);
#116=EDGE_CURVE('',#73,#111,#115,.T.);
#117=ORIENTED_EDGE('',*,*,#116,.T.);
#118=CARTESIAN_POINT('',(-1.290000000000001,-2.75,5.43));
#119=VERTEX_POINT('',#118);
#120=CARTESIAN_POINT('',(-1.290000000000001,-2.75,5.43));
#121=DIRECTION('',(0.0,0.0,-1.0));
#122=VECTOR('',#121,0.05);
#123=LINE('',#120,#122);
#124=EDGE_CURVE('',#119,#111,#123,.T.);
#125=ORIENTED_EDGE('',*,*,#124,.F.);
#126=CARTESIAN_POINT('',(-1.290000000000001,-2.75,5.43));
#127=DIRECTION('',(-1.0,0.0,0.0));
#128=VECTOR('',#127,1.0);
#129=LINE('',#126,#128);
#130=EDGE_CURVE('',#119,#81,#129,.T.);
#131=ORIENTED_EDGE('',*,*,#130,.T.);
#132=ORIENTED_EDGE('',*,*,#86,.T.);
#133=EDGE_LOOP('',(#117,#125,#131,#132));
#134=FACE_OUTER_BOUND('',#133,.T.);
#135=ADVANCED_FACE('',(#134),#109,.T.);
#136=CARTESIAN_POINT('',(-1.290000000000001,-2.75,5.43));
#137=DIRECTION('',(1.0,0.0,0.0));
#138=DIRECTION('',(0.0,0.0,-1.0));
#139=AXIS2_PLACEMENT_3D('',#136,#137,#138);
#140=PLANE('',#139);
#141=CARTESIAN_POINT('',(-1.290000000000001,2.75,5.38));
#142=VERTEX_POINT('',#141);
#143=CARTESIAN_POINT('',(-1.290000000000001,-2.75,5.38));
#144=DIRECTION('',(0.0,1.0,0.0));
#145=VECTOR('',#144,5.5);
#146=LINE('',#143,#145);
#147=EDGE_CURVE('',#111,#142,#146,.T.);
#148=ORIENTED_EDGE('',*,*,#147,.T.);
#149=CARTESIAN_POINT('',(-1.290000000000001,2.75,5.43));
#150=VERTEX_POINT('',#149);
#151=CARTESIAN_POINT('',(-1.290000000000001,2.75,5.43));
#152=DIRECTION('',(0.0,0.0,-1.0));
#153=VECTOR('',#152,0.05);
#154=LINE('',#151,#153);
#155=EDGE_CURVE('',#150,#142,#154,.T.);
#156=ORIENTED_EDGE('',*,*,#155,.F.);
#157=CARTESIAN_POINT('',(-1.290000000000001,2.75,5.43));
#158=DIRECTION('',(0.0,-1.0,0.0));
#159=VECTOR('',#158,5.5);
#160=LINE('',#157,#159);
#161=EDGE_CURVE('',#150,#119,#160,.T.);
#162=ORIENTED_EDGE('',*,*,#161,.T.);
#163=ORIENTED_EDGE('',*,*,#124,.T.);
#164=EDGE_LOOP('',(#148,#156,#162,#163));
#165=FACE_OUTER_BOUND('',#164,.T.);
#166=ADVANCED_FACE('',(#165),#140,.T.);
#167=CARTESIAN_POINT('',(-1.290000000000001,2.75,5.43));
#168=DIRECTION('',(0.0,1.0,0.0));
#169=DIRECTION('',(0.0,0.0,1.0));
#170=AXIS2_PLACEMENT_3D('',#167,#168,#169);
#171=PLANE('',#170);
#172=CARTESIAN_POINT('',(-1.290000000000001,2.75,5.38));
#173=DIRECTION('',(-1.0,0.0,0.0));
#174=VECTOR('',#173,1.0);
#175=LINE('',#172,#174);
#176=EDGE_CURVE('',#142,#71,#175,.T.);
#177=ORIENTED_EDGE('',*,*,#176,.T.);
#178=ORIENTED_EDGE('',*,*,#100,.F.);
#179=CARTESIAN_POINT('',(-2.290000000000001,2.75,5.43));
#180=DIRECTION('',(1.0,0.0,0.0));
#181=VECTOR('',#180,1.0);
#182=LINE('',#179,#181);
#183=EDGE_CURVE('',#89,#150,#182,.T.);
#184=ORIENTED_EDGE('',*,*,#183,.T.);
#185=ORIENTED_EDGE('',*,*,#155,.T.);
#186=EDGE_LOOP('',(#177,#178,#184,#185));
#187=FACE_OUTER_BOUND('',#186,.T.);
#188=ADVANCED_FACE('',(#187),#171,.T.);
#189=CARTESIAN_POINT('',(-1.79,-1.281027E-017,5.43));
#190=DIRECTION('',(0.0,0.0,1.0));
#191=DIRECTION('',(1.0,0.0,0.0));
#192=AXIS2_PLACEMENT_3D('',#189,#190,#191);
#193=PLANE('',#192);
#194=ORIENTED_EDGE('',*,*,#183,.F.);
#195=ORIENTED_EDGE('',*,*,#94,.F.);
#196=ORIENTED_EDGE('',*,*,#130,.F.);
#197=ORIENTED_EDGE('',*,*,#161,.F.);
#198=EDGE_LOOP('',(#194,#195,#196,#197));
#199=FACE_OUTER_BOUND('',#198,.T.);
#200=ADVANCED_FACE('',(#199),#193,.T.);
#201=CARTESIAN_POINT('',(-1.790000000000001,1.281027E-017,5.38));
#202=DIRECTION('',(0.0,0.0,1.0));
#203=DIRECTION('',(1.0,0.0,0.0));
#204=AXIS2_PLACEMENT_3D('',#201,#202,#203);
#205=PLANE('',#204);
#206=ORIENTED_EDGE('',*,*,#78,.F.);
#207=ORIENTED_EDGE('',*,*,#176,.F.);
#208=ORIENTED_EDGE('',*,*,#147,.F.);
#209=ORIENTED_EDGE('',*,*,#116,.F.);
#210=EDGE_LOOP('',(#206,#207,#208,#209));
#211=FACE_OUTER_BOUND('',#210,.T.);
#212=ADVANCED_FACE('',(#211),#205,.F.);
#213=CLOSED_SHELL('',(#104,#135,#166,#188,#200,#212));
#214=MANIFOLD_SOLID_BREP('2D31',#213);
#215=DRAUGHTING_PRE_DEFINED_COLOUR('white');
#216=SURFACE_STYLE_USAGE(.BOTH.,#217);
#217=SURFACE_SIDE_STYLE('NONE',(#218));
#218=SURFACE_STYLE_FILL_AREA(#219);
#219=FILL_AREA_STYLE('NONE',(#220));
#220=FILL_AREA_STYLE_COLOUR('NONE',#215);
#221=PRESENTATION_STYLE_ASSIGNMENT((#216));
#222=STYLED_ITEM('NONE',(#221),#214);
#223=MECHANICAL_DESIGN_GEOMETRIC_PRESENTATION_REPRESENTATION('NONE',(#222,#986,#1402,#1649,#1800,#1811,#1819,#1826,#1833),#28);
#224=PRESENTATION_LAYER_ASSIGNMENT('3D','None',(#214,#978,#1394,#1648,#1799));
#225=CARTESIAN_POINT('',(-5.05886473215448,2.65,0.5));
#226=DIRECTION('',(-1.775145E-016,-0.814820097076933,-0.579713903058688));
#227=DIRECTION('',(-1.0,0.0,0.0));
#228=AXIS2_PLACEMENT_3D('',#225,#226,#227);
#229=PLANE('',#228);
#230=CARTESIAN_POINT('',(4.089999999999998,2.65,0.5));
#231=VERTEX_POINT('',#230);
#232=CARTESIAN_POINT('',(4.089999999999998,1.20573122529644,2.529999999999999));
#233=VERTEX_POINT('',#232);
#234=CARTESIAN_POINT('',(4.089999999999998,2.649999999999999,0.499999999999999));
#235=DIRECTION('',(0.0,-0.579713903058688,0.814820097076933));
#236=VECTOR('',#235,2.491347485515363);
#237=LINE('',#234,#236);
#238=EDGE_CURVE('',#231,#233,#237,.T.);
#239=ORIENTED_EDGE('',*,*,#238,.F.);
#240=CARTESIAN_POINT('',(3.959999999999998,2.65,0.5));
#241=VERTEX_POINT('',#240);
#242=CARTESIAN_POINT('',(3.959999999999998,2.65,0.499999999999997));
#243=DIRECTION('',(1.0,0.0,0.0));
#244=VECTOR('',#243,0.13);
#245=LINE('',#242,#244);
#246=EDGE_CURVE('',#241,#231,#245,.T.);
#247=ORIENTED_EDGE('',*,*,#246,.F.);
#248=CARTESIAN_POINT('',(3.959999999999998,1.20573122529644,2.529999999999999));
#249=VERTEX_POINT('',#248);
#250=CARTESIAN_POINT('',(3.959999999999999,1.20573122529644,2.53));
#251=DIRECTION('',(0.0,0.579713903058688,-0.814820097076933));
#252=VECTOR('',#251,2.491347485515363);
#253=LINE('',#250,#252);
#254=EDGE_CURVE('',#249,#241,#253,.T.);
#255=ORIENTED_EDGE('',*,*,#254,.F.);
#256=CARTESIAN_POINT('',(3.589999999999998,0.942490118577072,2.9));
#257=VERTEX_POINT('',#256);
#258=CARTESIAN_POINT('',(3.589999999999998,1.20573122529644,2.529999999999999));
#259=DIRECTION('',(1.775145E-016,0.814820097076933,0.579713903058688));
#260=DIRECTION('',(3.056189E-016,-0.579713903058688,0.814820097076933));
#261=AXIS2_PLACEMENT_3D('',#258,#259,#260);
#262=ELLIPSE('',#261,0.454087965340238,0.37);
#263=EDGE_CURVE('',#257,#249,#262,.T.);
#264=ORIENTED_EDGE('',*,*,#263,.F.);
#265=CARTESIAN_POINT('',(-3.589999999999999,0.942490118577074,2.9));
#266=VERTEX_POINT('',#265);
#267=CARTESIAN_POINT('',(-3.589999999999999,0.942490118577075,2.9));
#268=DIRECTION('',(1.0,0.0,0.0));
#269=VECTOR('',#268,7.179999999999997);
#270=LINE('',#267,#269);
#271=EDGE_CURVE('',#266,#257,#270,.T.);
#272=ORIENTED_EDGE('',*,*,#271,.F.);
#273=CARTESIAN_POINT('',(-3.959999999999999,1.205731225296442,2.529999999999999));
#274=VERTEX_POINT('',#273);
#275=CARTESIAN_POINT('',(-3.589999999999999,1.205731225296442,2.529999999999999));
#276=DIRECTION('',(1.775145E-016,0.814820097076933,0.579713903058688));
#277=DIRECTION('',(3.056189E-016,-0.579713903058688,0.814820097076933));
#278=AXIS2_PLACEMENT_3D('',#275,#276,#277);
#279=ELLIPSE('',#278,0.454087965340238,0.37);
#280=EDGE_CURVE('',#274,#266,#279,.T.);
#281=ORIENTED_EDGE('',*,*,#280,.F.);
#282=CARTESIAN_POINT('',(-3.959999999999999,2.65,0.5));
#283=VERTEX_POINT('',#282);
#284=CARTESIAN_POINT('',(-3.959999999999999,2.65,0.5));
#285=DIRECTION('',(0.0,-0.579713903058688,0.814820097076933));
#286=VECTOR('',#285,2.491347485515362);
#287=LINE('',#284,#286);
#288=EDGE_CURVE('',#283,#274,#287,.T.);
#289=ORIENTED_EDGE('',*,*,#288,.F.);
#290=CARTESIAN_POINT('',(-4.089999999999999,2.65,0.5));
#291=VERTEX_POINT('',#290);
#292=CARTESIAN_POINT('',(-4.089999999999999,2.65,0.5));
#293=DIRECTION('',(1.0,0.0,0.0));
#294=VECTOR('',#293,0.13);
#295=LINE('',#292,#294);
#296=EDGE_CURVE('',#291,#283,#295,.T.);
#297=ORIENTED_EDGE('',*,*,#296,.F.);
#298=CARTESIAN_POINT('',(-4.089999999999999,1.205731225296442,2.529999999999999));
#299=VERTEX_POINT('',#298);
#300=CARTESIAN_POINT('',(-4.089999999999999,1.205731225296442,2.529999999999999));
#301=DIRECTION('',(0.0,0.579713903058688,-0.814820097076933));
#302=VECTOR('',#301,2.491347485515362);
#303=LINE('',#300,#302);
#304=EDGE_CURVE('',#299,#291,#303,.T.);
#305=ORIENTED_EDGE('',*,*,#304,.F.);
#306=CARTESIAN_POINT('',(-3.589999999999999,0.85,3.029999999999999));
#307=VERTEX_POINT('',#306);
#308=CARTESIAN_POINT('',(-3.589999999999999,1.205731225296442,2.529999999999999));
#309=DIRECTION('',(-1.775145E-016,-0.814820097076933,-0.579713903058688));
#310=DIRECTION('',(2.261580E-016,-0.579713903058688,0.814820097076933));
#311=AXIS2_PLACEMENT_3D('',#308,#309,#310);
#312=ELLIPSE('',#311,0.613632385594917,0.5);
#313=EDGE_CURVE('',#307,#299,#312,.T.);
#314=ORIENTED_EDGE('',*,*,#313,.F.);
#315=CARTESIAN_POINT('',(3.589999999999998,0.849999999999999,3.029999999999999));
#316=VERTEX_POINT('',#315);
#317=CARTESIAN_POINT('',(3.589999999999998,0.849999999999998,3.029999999999999));
#318=DIRECTION('',(-1.0,0.0,0.0));
#319=VECTOR('',#318,7.179999999999996);
#320=LINE('',#317,#319);
#321=EDGE_CURVE('',#316,#307,#320,.T.);
#322=ORIENTED_EDGE('',*,*,#321,.F.);
#323=CARTESIAN_POINT('',(3.589999999999998,1.20573122529644,2.529999999999999));
#324=DIRECTION('',(-1.775145E-016,-0.814820097076933,-0.579713903058688));
#325=DIRECTION('',(2.261580E-016,-0.579713903058688,0.814820097076933));
#326=AXIS2_PLACEMENT_3D('',#323,#324,#325);
#327=ELLIPSE('',#326,0.613632385594917,0.5);
#328=EDGE_CURVE('',#233,#316,#327,.T.);
#329=ORIENTED_EDGE('',*,*,#328,.F.);
#330=EDGE_LOOP('',(#239,#247,#255,#264,#272,#281,#289,#297,#305,#314,#322,#329));
#331=FACE_OUTER_BOUND('',#330,.T.);
#332=ADVANCED_FACE('',(#331),#229,.F.);
#333=CARTESIAN_POINT('',(-5.058864732154481,-0.849999999999999,3.029999999999999));
#334=DIRECTION('',(1.775145E-016,0.814820097076933,-0.579713903058688));
#335=DIRECTION('',(-1.0,0.0,0.0));
#336=AXIS2_PLACEMENT_3D('',#333,#334,#335);
#337=PLANE('',#336);
#338=CARTESIAN_POINT('',(4.089999999999998,-1.205731225296444,2.529999999999999));
#339=VERTEX_POINT('',#338);
#340=CARTESIAN_POINT('',(4.089999999999998,-2.65,0.5));
#341=VERTEX_POINT('',#340);
#342=CARTESIAN_POINT('',(4.089999999999998,-1.205731225296444,2.529999999999999));
#343=DIRECTION('',(0.0,-0.579713903058688,-0.814820097076933));
#344=VECTOR('',#343,2.49134748551536);
#345=LINE('',#342,#344);
#346=EDGE_CURVE('',#339,#341,#345,.T.);
#347=ORIENTED_EDGE('',*,*,#346,.F.);
#348=CARTESIAN_POINT('',(3.589999999999998,-0.850000000000001,3.029999999999999));
#349=VERTEX_POINT('',#348);
#350=CARTESIAN_POINT('',(3.589999999999998,-1.205731225296444,2.529999999999999));
#351=DIRECTION('',(1.775145E-016,0.814820097076933,-0.579713903058688));
#352=DIRECTION('',(-2.261580E-016,0.579713903058688,0.814820097076933));
#353=AXIS2_PLACEMENT_3D('',#350,#351,#352);
#354=ELLIPSE('',#353,0.613632385594917,0.5);
#355=EDGE_CURVE('',#349,#339,#354,.T.);
#356=ORIENTED_EDGE('',*,*,#355,.F.);
#357=CARTESIAN_POINT('',(-3.589999999999999,-0.85,3.029999999999999));
#358=VERTEX_POINT('',#357);
#359=CARTESIAN_POINT('',(-3.589999999999999,-0.85,3.029999999999999));
#360=DIRECTION('',(1.0,0.0,0.0));
#361=VECTOR('',#360,7.179999999999997);
#362=LINE('',#359,#361);
#363=EDGE_CURVE('',#358,#349,#362,.T.);
#364=ORIENTED_EDGE('',*,*,#363,.F.);
#365=CARTESIAN_POINT('',(-4.089999999999999,-1.205731225296443,2.529999999999999));
#366=VERTEX_POINT('',#365);
#367=CARTESIAN_POINT('',(-3.589999999999999,-1.205731225296443,2.529999999999999));
#368=DIRECTION('',(1.775145E-016,0.814820097076933,-0.579713903058688));
#369=DIRECTION('',(-2.261580E-016,0.579713903058688,0.814820097076933));
#370=AXIS2_PLACEMENT_3D('',#367,#368,#369);
#371=ELLIPSE('',#370,0.613632385594917,0.5);
#372=EDGE_CURVE('',#366,#358,#371,.T.);
#373=ORIENTED_EDGE('',*,*,#372,.F.);
#374=CARTESIAN_POINT('',(-4.089999999999999,-2.65,0.5));
#375=VERTEX_POINT('',#374);
#376=CARTESIAN_POINT('',(-4.089999999999999,-2.65,0.5));
#377=DIRECTION('',(0.0,0.579713903058688,0.814820097076933));
#378=VECTOR('',#377,2.491347485515361);
#379=LINE('',#376,#378);
#380=EDGE_CURVE('',#375,#366,#379,.T.);
#381=ORIENTED_EDGE('',*,*,#380,.F.);
#382=CARTESIAN_POINT('',(-3.959999999999999,-2.65,0.5));
#383=VERTEX_POINT('',#382);
#384=CARTESIAN_POINT('',(-3.959999999999999,-2.65,0.5));
#385=DIRECTION('',(-1.0,0.0,0.0));
#386=VECTOR('',#385,0.13);
#387=LINE('',#384,#386);
#388=EDGE_CURVE('',#383,#375,#387,.T.);
#389=ORIENTED_EDGE('',*,*,#388,.F.);
#390=CARTESIAN_POINT('',(-3.959999999999999,-1.205731225296443,2.529999999999999));
#391=VERTEX_POINT('',#390);
#392=CARTESIAN_POINT('',(-3.959999999999999,-1.205731225296443,2.529999999999999));
#393=DIRECTION('',(0.0,-0.579713903058688,-0.814820097076933));
#394=VECTOR('',#393,2.491347485515361);
#395=LINE('',#392,#394);
#396=EDGE_CURVE('',#391,#383,#395,.T.);
#397=ORIENTED_EDGE('',*,*,#396,.F.);
#398=CARTESIAN_POINT('',(-3.589999999999999,-0.942490118577075,2.9));
#399=VERTEX_POINT('',#398);
#400=CARTESIAN_POINT('',(-3.589999999999999,-1.205731225296443,2.529999999999999));
#401=DIRECTION('',(-1.775145E-016,-0.814820097076933,0.579713903058688));
#402=DIRECTION('',(-1.833714E-016,0.579713903058688,0.814820097076933));
#403=AXIS2_PLACEMENT_3D('',#400,#401,#402);
#404=ELLIPSE('',#403,0.454087965340238,0.37);
#405=EDGE_CURVE('',#399,#391,#404,.T.);
#406=ORIENTED_EDGE('',*,*,#405,.F.);
#407=CARTESIAN_POINT('',(3.589999999999998,-0.942490118577076,2.9));
#408=VERTEX_POINT('',#407);
#409=CARTESIAN_POINT('',(3.589999999999998,-0.942490118577076,2.9));
#410=DIRECTION('',(-1.0,0.0,0.0));
#411=VECTOR('',#410,7.179999999999997);
#412=LINE('',#409,#411);
#413=EDGE_CURVE('',#408,#399,#412,.T.);
#414=ORIENTED_EDGE('',*,*,#413,.F.);
#415=CARTESIAN_POINT('',(3.959999999999998,-1.205731225296444,2.529999999999999));
#416=VERTEX_POINT('',#415);
#417=CARTESIAN_POINT('',(3.589999999999998,-1.205731225296444,2.529999999999999));
#418=DIRECTION('',(-1.775145E-016,-0.814820097076933,0.579713903058688));
#419=DIRECTION('',(-1.833714E-016,0.579713903058688,0.814820097076933));
#420=AXIS2_PLACEMENT_3D('',#417,#418,#419);
#421=ELLIPSE('',#420,0.454087965340238,0.37);
#422=EDGE_CURVE('',#416,#408,#421,.T.);
#423=ORIENTED_EDGE('',*,*,#422,.F.);
#424=CARTESIAN_POINT('',(3.959999999999998,-2.65,0.5));
#425=VERTEX_POINT('',#424);
#426=CARTESIAN_POINT('',(3.959999999999998,-2.650000000000001,0.500000000000001));
#427=DIRECTION('',(0.0,0.579713903058688,0.814820097076933));
#428=VECTOR('',#427,2.49134748551536);
#429=LINE('',#426,#428);
#430=EDGE_CURVE('',#425,#416,#429,.T.);
#431=ORIENTED_EDGE('',*,*,#430,.F.);
#432=CARTESIAN_POINT('',(4.089999999999998,-2.65,0.500000000000003));
#433=DIRECTION('',(-1.0,0.0,0.0));
#434=VECTOR('',#433,0.13);
#435=LINE('',#432,#434);
#436=EDGE_CURVE('',#341,#425,#435,.T.);
#437=ORIENTED_EDGE('',*,*,#436,.F.);
#438=EDGE_LOOP('',(#347,#356,#364,#373,#381,#389,#397,#406,#414,#423,#431,#437));
#439=FACE_OUTER_BOUND('',#438,.T.);
#440=ADVANCED_FACE('',(#439),#337,.F.);
#441=CARTESIAN_POINT('',(-6.938894E-016,2.65,1.988838803953585));
#442=DIRECTION('',(0.0,1.0,0.0));
#443=DIRECTION('',(0.0,0.0,1.0));
#444=AXIS2_PLACEMENT_3D('',#441,#442,#443);
#445=PLANE('',#444);
#446=ORIENTED_EDGE('',*,*,#296,.T.);
#447=CARTESIAN_POINT('',(-3.589999999999999,2.65,0.13));
#448=VERTEX_POINT('',#447);
#449=CARTESIAN_POINT('',(-3.589999999999999,2.65,0.5));
#450=DIRECTION('',(-1.110223E-016,1.0,-1.110223E-016));
#451=DIRECTION('',(-0.707106781186547,-1.570092E-016,-0.707106781186548));
#452=AXIS2_PLACEMENT_3D('',#449,#450,#451);
#453=CIRCLE('',#452,0.37);
#454=EDGE_CURVE('',#448,#283,#453,.T.);
#455=ORIENTED_EDGE('',*,*,#454,.F.);
#456=CARTESIAN_POINT('',(-2.669999999999998,2.65,0.13));
#457=VERTEX_POINT('',#456);
#458=CARTESIAN_POINT('',(-2.669999999999998,2.65,0.13));
#459=DIRECTION('',(-1.0,0.0,0.0));
#460=VECTOR('',#459,0.920000000000001);
#461=LINE('',#458,#460);
#462=EDGE_CURVE('',#457,#448,#461,.T.);
#463=ORIENTED_EDGE('',*,*,#462,.F.);
#464=CARTESIAN_POINT('',(-2.669999999999999,2.65,-4.440892E-016));
#465=VERTEX_POINT('',#464);
#466=CARTESIAN_POINT('',(-2.669999999999999,2.65,-4.440892E-016));
#467=DIRECTION('',(0.0,0.0,1.0));
#468=VECTOR('',#467,0.13);
#469=LINE('',#466,#468);
#470=EDGE_CURVE('',#465,#457,#469,.T.);
#471=ORIENTED_EDGE('',*,*,#470,.F.);
#472=CARTESIAN_POINT('',(-3.589999999999999,2.65,-4.440892E-016));
#473=VERTEX_POINT('',#472);
#474=CARTESIAN_POINT('',(-3.589999999999999,2.65,-4.440892E-016));
#475=DIRECTION('',(1.0,0.0,0.0));
#476=VECTOR('',#475,0.92);
#477=LINE('',#474,#476);
#478=EDGE_CURVE('',#473,#465,#477,.T.);
#479=ORIENTED_EDGE('',*,*,#478,.F.);
#480=CARTESIAN_POINT('',(-3.589999999999999,2.65,0.5));
#481=DIRECTION('',(1.110223E-016,-1.0,1.110223E-016));
#482=DIRECTION('',(-0.707106781186548,-1.570092E-016,-0.707106781186548));
#483=AXIS2_PLACEMENT_3D('',#480,#481,#482);
#484=CIRCLE('',#483,0.5);
#485=EDGE_CURVE('',#291,#473,#484,.T.);
#486=ORIENTED_EDGE('',*,*,#485,.F.);
#487=EDGE_LOOP('',(#446,#455,#463,#471,#479,#486));
#488=FACE_OUTER_BOUND('',#487,.T.);
#489=ADVANCED_FACE('',(#488),#445,.T.);
#490=CARTESIAN_POINT('',(3.589999999999998,-2.65,2.529999999999999));
#491=DIRECTION('',(0.0,1.0,0.0));
#492=DIRECTION('',(0.707106781186548,0.0,0.707106781186548));
#493=AXIS2_PLACEMENT_3D('',#490,#491,#492);
#494=CYLINDRICAL_SURFACE('',#493,0.5);
#495=ORIENTED_EDGE('',*,*,#328,.T.);
#496=CARTESIAN_POINT('',(3.589999999999998,-0.850000000000001,3.029999999999999));
#497=DIRECTION('',(0.0,1.0,0.0));
#498=VECTOR('',#497,1.7);
#499=LINE('',#496,#498);
#500=EDGE_CURVE('',#349,#316,#499,.T.);
#501=ORIENTED_EDGE('',*,*,#500,.F.);
#502=ORIENTED_EDGE('',*,*,#355,.T.);
#503=CARTESIAN_POINT('',(4.089999999999998,-1.205731225296444,2.529999999999999));
#504=DIRECTION('',(0.0,1.0,0.0));
#505=VECTOR('',#504,2.411462450592884);
#506=LINE('',#503,#505);
#507=EDGE_CURVE('',#339,#233,#506,.T.);
#508=ORIENTED_EDGE('',*,*,#507,.T.);
#509=EDGE_LOOP('',(#495,#501,#502,#508));
#510=FACE_OUTER_BOUND('',#509,.T.);
#511=ADVANCED_FACE('',(#510),#494,.T.);
#512=CARTESIAN_POINT('',(3.589999999999998,-2.649999999999999,3.029999999999999));
#513=DIRECTION('',(0.0,0.0,1.0));
#514=DIRECTION('',(1.0,0.0,0.0));
#515=AXIS2_PLACEMENT_3D('',#512,#513,#514);
#516=PLANE('',#515);
#517=ORIENTED_EDGE('',*,*,#321,.T.);
#518=CARTESIAN_POINT('',(-3.589999999999999,-0.85,3.029999999999999));
#519=DIRECTION('',(0.0,1.0,0.0));
#520=VECTOR('',#519,1.7);
#521=LINE('',#518,#520);
#522=EDGE_CURVE('',#358,#307,#521,.T.);
#523=ORIENTED_EDGE('',*,*,#522,.F.);
#524=ORIENTED_EDGE('',*,*,#363,.T.);
#525=ORIENTED_EDGE('',*,*,#500,.T.);
#526=EDGE_LOOP('',(#517,#523,#524,#525));
#527=FACE_OUTER_BOUND('',#526,.T.);
#528=ADVANCED_FACE('',(#527),#516,.T.);
#529=CARTESIAN_POINT('',(-3.589999999999999,-2.65,2.529999999999999));
#530=DIRECTION('',(0.0,1.0,0.0));
#531=DIRECTION('',(-0.707106781186548,0.0,0.707106781186548));
#532=AXIS2_PLACEMENT_3D('',#529,#530,#531);
#533=CYLINDRICAL_SURFACE('',#532,0.5);
#534=ORIENTED_EDGE('',*,*,#313,.T.);
#535=CARTESIAN_POINT('',(-4.089999999999999,-1.205731225296443,2.529999999999999));
#536=DIRECTION('',(0.0,1.0,0.0));
#537=VECTOR('',#536,2.411462450592885);
#538=LINE('',#535,#537);
#539=EDGE_CURVE('',#366,#299,#538,.T.);
#540=ORIENTED_EDGE('',*,*,#539,.F.);
#541=ORIENTED_EDGE('',*,*,#372,.T.);
#542=ORIENTED_EDGE('',*,*,#522,.T.);
#543=EDGE_LOOP('',(#534,#540,#541,#542));
#544=FACE_OUTER_BOUND('',#543,.T.);
#545=ADVANCED_FACE('',(#544),#533,.T.);
#546=CARTESIAN_POINT('',(-4.089999999999999,-2.65,2.529999999999999));
#547=DIRECTION('',(-1.0,0.0,0.0));
#548=DIRECTION('',(0.0,0.0,1.0));
#549=AXIS2_PLACEMENT_3D('',#546,#547,#548);
#550=PLANE('',#549);
#551=ORIENTED_EDGE('',*,*,#304,.T.);
#552=CARTESIAN_POINT('',(-4.089999999999999,-2.65,0.5));
#553=DIRECTION('',(0.0,1.0,0.0));
#554=VECTOR('',#553,5.3);
#555=LINE('',#552,#554);
#556=EDGE_CURVE('',#375,#291,#555,.T.);
#557=ORIENTED_EDGE('',*,*,#556,.F.);
#558=ORIENTED_EDGE('',*,*,#380,.T.);
#559=ORIENTED_EDGE('',*,*,#539,.T.);
#560=EDGE_LOOP('',(#551,#557,#558,#559));
#561=FACE_OUTER_BOUND('',#560,.T.);
#562=ADVANCED_FACE('',(#561),#550,.T.);
#563=CARTESIAN_POINT('',(-6.522560E-016,-2.65,1.988838803953585));
#564=DIRECTION('',(0.0,1.0,0.0));
#565=DIRECTION('',(0.0,0.0,1.0));
#566=AXIS2_PLACEMENT_3D('',#563,#564,#565);
#567=PLANE('',#566);
#568=ORIENTED_EDGE('',*,*,#388,.T.);
#569=CARTESIAN_POINT('',(-3.589999999999999,-2.65,-4.440892E-016));
#570=VERTEX_POINT('',#569);
#571=CARTESIAN_POINT('',(-3.589999999999999,-2.65,0.5));
#572=DIRECTION('',(-1.110223E-016,1.0,-1.110223E-016));
#573=DIRECTION('',(-0.707106781186548,-1.570092E-016,-0.707106781186548));
#574=AXIS2_PLACEMENT_3D('',#571,#572,#573);
#575=CIRCLE('',#574,0.5);
#576=EDGE_CURVE('',#570,#375,#575,.T.);
#577=ORIENTED_EDGE('',*,*,#576,.F.);
#578=CARTESIAN_POINT('',(-2.669999999999999,-2.65,-4.440892E-016));
#579=VERTEX_POINT('',#578);
#580=CARTESIAN_POINT('',(-2.669999999999999,-2.65,-4.440892E-016));
#581=DIRECTION('',(-1.0,0.0,0.0));
#582=VECTOR('',#581,0.92);
#583=LINE('',#580,#582);
#584=EDGE_CURVE('',#579,#570,#583,.T.);
#585=ORIENTED_EDGE('',*,*,#584,.F.);
#586=CARTESIAN_POINT('',(-2.669999999999998,-2.65,0.13));
#587=VERTEX_POINT('',#586);
#588=CARTESIAN_POINT('',(-2.669999999999998,-2.65,0.13));
#589=DIRECTION('',(0.0,0.0,-1.0));
#590=VECTOR('',#589,0.13);
#591=LINE('',#588,#590);
#592=EDGE_CURVE('',#587,#579,#591,.T.);
#593=ORIENTED_EDGE('',*,*,#592,.F.);
#594=CARTESIAN_POINT('',(-3.589999999999999,-2.65,0.13));
#595=VERTEX_POINT('',#594);
#596=CARTESIAN_POINT('',(-3.589999999999999,-2.65,0.13));
#597=DIRECTION('',(1.0,0.0,0.0));
#598=VECTOR('',#597,0.920000000000001);
#599=LINE('',#596,#598);
#600=EDGE_CURVE('',#595,#587,#599,.T.);
#601=ORIENTED_EDGE('',*,*,#600,.F.);
#602=CARTESIAN_POINT('',(-3.589999999999999,-2.65,0.5));
#603=DIRECTION('',(1.110223E-016,-1.0,1.110223E-016));
#604=DIRECTION('',(-0.707106781186547,-1.570092E-016,-0.707106781186548));
#605=AXIS2_PLACEMENT_3D('',#602,#603,#604);
#606=CIRCLE('',#605,0.37);
#607=EDGE_CURVE('',#383,#595,#606,.T.);
#608=ORIENTED_EDGE('',*,*,#607,.F.);
#609=EDGE_LOOP('',(#568,#577,#585,#593,#601,#608));
#610=FACE_OUTER_BOUND('',#609,.T.);
#611=ADVANCED_FACE('',(#610),#567,.F.);
#612=CARTESIAN_POINT('',(-6.522560E-016,-2.65,1.988838803953585));
#613=DIRECTION('',(0.0,1.0,0.0));
#614=DIRECTION('',(0.0,0.0,1.0));
#615=AXIS2_PLACEMENT_3D('',#612,#613,#614);
#616=PLANE('',#615);
#617=ORIENTED_EDGE('',*,*,#436,.T.);
#618=CARTESIAN_POINT('',(3.589999999999998,-2.65,0.13));
#619=VERTEX_POINT('',#618);
#620=CARTESIAN_POINT('',(3.589999999999998,-2.65,0.5));
#621=DIRECTION('',(-1.110223E-016,-1.0,1.110223E-016));
#622=DIRECTION('',(0.707106781186547,-1.570092E-016,-0.707106781186548));
#623=AXIS2_PLACEMENT_3D('',#620,#621,#622);
#624=CIRCLE('',#623,0.37);
#625=EDGE_CURVE('',#619,#425,#624,.T.);
#626=ORIENTED_EDGE('',*,*,#625,.F.);
#627=CARTESIAN_POINT('',(2.669999999999998,-2.65,0.13));
#628=VERTEX_POINT('',#627);
#629=CARTESIAN_POINT('',(2.669999999999998,-2.65,0.13));
#630=DIRECTION('',(1.0,0.0,0.0));
#631=VECTOR('',#630,0.92);
#632=LINE('',#629,#631);
#633=EDGE_CURVE('',#628,#619,#632,.T.);
#634=ORIENTED_EDGE('',*,*,#633,.F.);
#635=CARTESIAN_POINT('',(2.669999999999999,-2.65,-4.440892E-016));
#636=VERTEX_POINT('',#635);
#637=CARTESIAN_POINT('',(2.669999999999999,-2.65,-4.440892E-016));
#638=DIRECTION('',(0.0,0.0,1.0));
#639=VECTOR('',#638,0.13);
#640=LINE('',#637,#639);
#641=EDGE_CURVE('',#636,#628,#640,.T.);
#642=ORIENTED_EDGE('',*,*,#641,.F.);
#643=CARTESIAN_POINT('',(3.589999999999998,-2.65,0.0));
#644=VERTEX_POINT('',#643);
#645=CARTESIAN_POINT('',(3.589999999999998,-2.65,0.0));
#646=DIRECTION('',(-1.0,0.0,0.0));
#647=VECTOR('',#646,0.919999999999999);
#648=LINE('',#645,#647);
#649=EDGE_CURVE('',#644,#636,#648,.T.);
#650=ORIENTED_EDGE('',*,*,#649,.F.);
#651=CARTESIAN_POINT('',(3.589999999999998,-2.65,0.5));
#652=DIRECTION('',(1.110223E-016,1.0,-1.110223E-016));
#653=DIRECTION('',(0.707106781186548,-1.570092E-016,-0.707106781186548));
#654=AXIS2_PLACEMENT_3D('',#651,#652,#653);
#655=CIRCLE('',#654,0.5);
#656=EDGE_CURVE('',#341,#644,#655,.T.);
#657=ORIENTED_EDGE('',*,*,#656,.F.);
#658=EDGE_LOOP('',(#617,#626,#634,#642,#650,#657));
#659=FACE_OUTER_BOUND('',#658,.T.);
#660=ADVANCED_FACE('',(#659),#616,.F.);
#661=CARTESIAN_POINT('',(2.669999999999999,-2.65,-4.440892E-016));
#662=DIRECTION('',(0.0,0.0,-1.0));
#663=DIRECTION('',(-1.0,0.0,0.0));
#664=AXIS2_PLACEMENT_3D('',#661,#662,#663);
#665=PLANE('',#664);
#666=CARTESIAN_POINT('',(2.669999999999999,2.65,-4.440892E-016));
#667=VERTEX_POINT('',#666);
#668=CARTESIAN_POINT('',(3.589999999999998,2.65,0.0));
#669=VERTEX_POINT('',#668);
#670=CARTESIAN_POINT('',(2.669999999999999,2.65,-4.440892E-016));
#671=DIRECTION('',(1.0,0.0,0.0));
#672=VECTOR('',#671,0.919999999999999);
#673=LINE('',#670,#672);
#674=EDGE_CURVE('',#667,#669,#673,.T.);
#675=ORIENTED_EDGE('',*,*,#674,.T.);
#676=CARTESIAN_POINT('',(3.589999999999998,-2.65,0.0));
#677=DIRECTION('',(0.0,1.0,0.0));
#678=VECTOR('',#677,5.3);
#679=LINE('',#676,#678);
#680=EDGE_CURVE('',#644,#669,#679,.T.);
#681=ORIENTED_EDGE('',*,*,#680,.F.);
#682=ORIENTED_EDGE('',*,*,#649,.T.);
#683=CARTESIAN_POINT('',(2.669999999999999,-2.65,-4.440892E-016));
#684=DIRECTION('',(0.0,1.0,0.0));
#685=VECTOR('',#684,5.3);
#686=LINE('',#683,#685);
#687=EDGE_CURVE('',#636,#667,#686,.T.);
#688=ORIENTED_EDGE('',*,*,#687,.T.);
#689=EDGE_LOOP('',(#675,#681,#682,#688));
#690=FACE_OUTER_BOUND('',#689,.T.);
#691=ADVANCED_FACE('',(#690),#665,.T.);
#692=CARTESIAN_POINT('',(3.589999999999998,-2.65,0.5));
#693=DIRECTION('',(0.0,1.0,0.0));
#694=DIRECTION('',(0.707106781186548,0.0,-0.707106781186548));
#695=AXIS2_PLACEMENT_3D('',#692,#693,#694);
#696=CYLINDRICAL_SURFACE('',#695,0.5);
#697=CARTESIAN_POINT('',(3.589999999999998,2.65,0.5));
#698=DIRECTION('',(-1.110223E-016,-1.0,1.110223E-016));
#699=DIRECTION('',(0.707106781186548,-1.570092E-016,-0.707106781186548));
#700=AXIS2_PLACEMENT_3D('',#697,#698,#699);
#701=CIRCLE('',#700,0.5);
#702=EDGE_CURVE('',#669,#231,#701,.T.);
#703=ORIENTED_EDGE('',*,*,#702,.T.);
#704=CARTESIAN_POINT('',(4.089999999999998,-2.65,0.5));
#705=DIRECTION('',(0.0,1.0,0.0));
#706=VECTOR('',#705,5.3);
#707=LINE('',#704,#706);
#708=EDGE_CURVE('',#341,#231,#707,.T.);
#709=ORIENTED_EDGE('',*,*,#708,.F.);
#710=ORIENTED_EDGE('',*,*,#656,.T.);
#711=ORIENTED_EDGE('',*,*,#680,.T.);
#712=EDGE_LOOP('',(#703,#709,#710,#711));
#713=FACE_OUTER_BOUND('',#712,.T.);
#714=ADVANCED_FACE('',(#713),#696,.T.);
#715=CARTESIAN_POINT('',(4.089999999999998,-2.65,0.5));
#716=DIRECTION('',(1.0,0.0,0.0));
#717=DIRECTION('',(0.0,0.0,-1.0));
#718=AXIS2_PLACEMENT_3D('',#715,#716,#717);
#719=PLANE('',#718);
#720=ORIENTED_EDGE('',*,*,#238,.T.);
#721=ORIENTED_EDGE('',*,*,#507,.F.);
#722=ORIENTED_EDGE('',*,*,#346,.T.);
#723=ORIENTED_EDGE('',*,*,#708,.T.);
#724=EDGE_LOOP('',(#720,#721,#722,#723));
#725=FACE_OUTER_BOUND('',#724,.T.);
#726=ADVANCED_FACE('',(#725),#719,.T.);
#727=CARTESIAN_POINT('',(-3.589999999999999,-2.65,0.5));
#728=DIRECTION('',(0.0,1.0,0.0));
#729=DIRECTION('',(-0.707106781186548,0.0,-0.707106781186548));
#730=AXIS2_PLACEMENT_3D('',#727,#728,#729);
#731=CYLINDRICAL_SURFACE('',#730,0.5);
#732=ORIENTED_EDGE('',*,*,#485,.T.);
#733=CARTESIAN_POINT('',(-3.589999999999999,-2.65,-4.440892E-016));
#734=DIRECTION('',(0.0,1.0,0.0));
#735=VECTOR('',#734,5.3);
#736=LINE('',#733,#735);
#737=EDGE_CURVE('',#570,#473,#736,.T.);
#738=ORIENTED_EDGE('',*,*,#737,.F.);
#739=ORIENTED_EDGE('',*,*,#576,.T.);
#740=ORIENTED_EDGE('',*,*,#556,.T.);
#741=EDGE_LOOP('',(#732,#738,#739,#740));
#742=FACE_OUTER_BOUND('',#741,.T.);
#743=ADVANCED_FACE('',(#742),#731,.T.);
#744=CARTESIAN_POINT('',(-3.589999999999999,-2.65,-4.440892E-016));
#745=DIRECTION('',(0.0,0.0,-1.0));
#746=DIRECTION('',(-1.0,0.0,0.0));
#747=AXIS2_PLACEMENT_3D('',#744,#745,#746);
#748=PLANE('',#747);
#749=ORIENTED_EDGE('',*,*,#478,.T.);
#750=CARTESIAN_POINT('',(-2.669999999999999,-2.65,-4.440892E-016));
#751=DIRECTION('',(0.0,1.0,0.0));
#752=VECTOR('',#751,5.3);
#753=LINE('',#750,#752);
#754=EDGE_CURVE('',#579,#465,#753,.T.);
#755=ORIENTED_EDGE('',*,*,#754,.F.);
#756=ORIENTED_EDGE('',*,*,#584,.T.);
#757=ORIENTED_EDGE('',*,*,#737,.T.);
#758=EDGE_LOOP('',(#749,#755,#756,#757));
#759=FACE_OUTER_BOUND('',#758,.T.);
#760=ADVANCED_FACE('',(#759),#748,.T.);
#761=CARTESIAN_POINT('',(-2.669999999999999,-2.65,-4.440892E-016));
#762=DIRECTION('',(1.0,0.0,0.0));
#763=DIRECTION('',(0.0,0.0,-1.0));
#764=AXIS2_PLACEMENT_3D('',#761,#762,#763);
#765=PLANE('',#764);
#766=ORIENTED_EDGE('',*,*,#470,.T.);
#767=CARTESIAN_POINT('',(-2.669999999999998,-2.65,0.13));
#768=DIRECTION('',(0.0,1.0,0.0));
#769=VECTOR('',#768,5.3);
#770=LINE('',#767,#769);
#771=EDGE_CURVE('',#587,#457,#770,.T.);
#772=ORIENTED_EDGE('',*,*,#771,.F.);
#773=ORIENTED_EDGE('',*,*,#592,.T.);
#774=ORIENTED_EDGE('',*,*,#754,.T.);
#775=EDGE_LOOP('',(#766,#772,#773,#774));
#776=FACE_OUTER_BOUND('',#775,.T.);
#777=ADVANCED_FACE('',(#776),#765,.T.);
#778=CARTESIAN_POINT('',(-2.669999999999998,-2.65,0.13));
#779=DIRECTION('',(0.0,0.0,1.0));
#780=DIRECTION('',(1.0,0.0,0.0));
#781=AXIS2_PLACEMENT_3D('',#778,#779,#780);
#782=PLANE('',#781);
#783=ORIENTED_EDGE('',*,*,#462,.T.);
#784=CARTESIAN_POINT('',(-3.589999999999999,-2.65,0.13));
#785=DIRECTION('',(0.0,1.0,0.0));
#786=VECTOR('',#785,5.3);
#787=LINE('',#784,#786);
#788=EDGE_CURVE('',#595,#448,#787,.T.);
#789=ORIENTED_EDGE('',*,*,#788,.F.);
#790=ORIENTED_EDGE('',*,*,#600,.T.);
#791=ORIENTED_EDGE('',*,*,#771,.T.);
#792=EDGE_LOOP('',(#783,#789,#790,#791));
#793=FACE_OUTER_BOUND('',#792,.T.);
#794=ADVANCED_FACE('',(#793),#782,.T.);
#795=CARTESIAN_POINT('',(-3.589999999999999,-2.65,0.5));
#796=DIRECTION('',(0.0,1.0,0.0));
#797=DIRECTION('',(-0.707106781186547,0.0,-0.707106781186548));
#798=AXIS2_PLACEMENT_3D('',#795,#796,#797);
#799=CYLINDRICAL_SURFACE('',#798,0.37);
#800=ORIENTED_EDGE('',*,*,#454,.T.);
#801=CARTESIAN_POINT('',(-3.959999999999999,-2.65,0.5));
#802=DIRECTION('',(0.0,1.0,0.0));
#803=VECTOR('',#802,5.3);
#804=LINE('',#801,#803);
#805=EDGE_CURVE('',#383,#283,#804,.T.);
#806=ORIENTED_EDGE('',*,*,#805,.F.);
#807=ORIENTED_EDGE('',*,*,#607,.T.);
#808=ORIENTED_EDGE('',*,*,#788,.T.);
#809=EDGE_LOOP('',(#800,#806,#807,#808));
#810=FACE_OUTER_BOUND('',#809,.T.);
#811=ADVANCED_FACE('',(#810),#799,.F.);
#812=CARTESIAN_POINT('',(-3.959999999999999,-2.65,0.5));
#813=DIRECTION('',(1.0,0.0,0.0));
#814=DIRECTION('',(0.0,0.0,-1.0));
#815=AXIS2_PLACEMENT_3D('',#812,#813,#814);
#816=PLANE('',#815);
#817=ORIENTED_EDGE('',*,*,#288,.T.);
#818=CARTESIAN_POINT('',(-3.959999999999999,-1.205731225296443,2.529999999999999));
#819=DIRECTION('',(0.0,1.0,0.0));
#820=VECTOR('',#819,2.411462450592885);
#821=LINE('',#818,#820);
#822=EDGE_CURVE('',#391,#274,#821,.T.);
#823=ORIENTED_EDGE('',*,*,#822,.F.);
#824=ORIENTED_EDGE('',*,*,#396,.T.);
#825=ORIENTED_EDGE('',*,*,#805,.T.);
#826=EDGE_LOOP('',(#817,#823,#824,#825));
#827=FACE_OUTER_BOUND('',#826,.T.);
#828=ADVANCED_FACE('',(#827),#816,.T.);
#829=CARTESIAN_POINT('',(-3.589999999999999,-2.65,2.529999999999999));
#830=DIRECTION('',(0.0,1.0,0.0));
#831=DIRECTION('',(-0.707106781186547,0.0,0.707106781186547));
#832=AXIS2_PLACEMENT_3D('',#829,#830,#831);
#833=CYLINDRICAL_SURFACE('',#832,0.37);
#834=ORIENTED_EDGE('',*,*,#280,.T.);
#835=CARTESIAN_POINT('',(-3.589999999999999,-0.942490118577075,2.9));
#836=DIRECTION('',(0.0,1.0,0.0));
#837=VECTOR('',#836,1.884980237154149);
#838=LINE('',#835,#837);
#839=EDGE_CURVE('',#399,#266,#838,.T.);
#840=ORIENTED_EDGE('',*,*,#839,.F.);
#841=ORIENTED_EDGE('',*,*,#405,.T.);
#842=ORIENTED_EDGE('',*,*,#822,.T.);
#843=EDGE_LOOP('',(#834,#840,#841,#842));
#844=FACE_OUTER_BOUND('',#843,.T.);
#845=ADVANCED_FACE('',(#844),#833,.F.);
#846=CARTESIAN_POINT('',(-3.589999999999999,-2.65,2.9));
#847=DIRECTION('',(0.0,0.0,-1.0));
#848=DIRECTION('',(-1.0,0.0,0.0));
#849=AXIS2_PLACEMENT_3D('',#846,#847,#848);
#850=PLANE('',#849);
#851=ORIENTED_EDGE('',*,*,#271,.T.);
#852=CARTESIAN_POINT('',(3.589999999999998,-0.942490118577076,2.9));
#853=DIRECTION('',(0.0,1.0,0.0));
#854=VECTOR('',#853,1.884980237154149);
#855=LINE('',#852,#854);
#856=EDGE_CURVE('',#408,#257,#855,.T.);
#857=ORIENTED_EDGE('',*,*,#856,.F.);
#858=ORIENTED_EDGE('',*,*,#413,.T.);
#859=ORIENTED_EDGE('',*,*,#839,.T.);
#860=EDGE_LOOP('',(#851,#857,#858,#859));
#861=FACE_OUTER_BOUND('',#860,.T.);
#862=ADVANCED_FACE('',(#861),#850,.T.);
#863=CARTESIAN_POINT('',(3.589999999999998,-2.65,2.529999999999999));
#864=DIRECTION('',(0.0,1.0,0.0));
#865=DIRECTION('',(0.707106781186547,0.0,0.707106781186547));
#866=AXIS2_PLACEMENT_3D('',#863,#864,#865);
#867=CYLINDRICAL_SURFACE('',#866,0.37);
#868=ORIENTED_EDGE('',*,*,#263,.T.);
#869=CARTESIAN_POINT('',(3.959999999999998,-1.205731225296444,2.529999999999999));
#870=DIRECTION('',(0.0,1.0,0.0));
#871=VECTOR('',#870,2.411462450592884);
#872=LINE('',#869,#871);
#873=EDGE_CURVE('',#416,#249,#872,.T.);
#874=ORIENTED_EDGE('',*,*,#873,.F.);
#875=ORIENTED_EDGE('',*,*,#422,.T.);
#876=ORIENTED_EDGE('',*,*,#856,.T.);
#877=EDGE_LOOP('',(#868,#874,#875,#876));
#878=FACE_OUTER_BOUND('',#877,.T.);
#879=ADVANCED_FACE('',(#878),#867,.F.);
#880=CARTESIAN_POINT('',(3.959999999999998,-2.65,2.529999999999999));
#881=DIRECTION('',(-1.0,0.0,0.0));
#882=DIRECTION('',(0.0,0.0,1.0));
#883=AXIS2_PLACEMENT_3D('',#880,#881,#882);
#884=PLANE('',#883);
#885=ORIENTED_EDGE('',*,*,#254,.T.);
#886=CARTESIAN_POINT('',(3.959999999999998,-2.65,0.5));
#887=DIRECTION('',(0.0,1.0,0.0));
#888=VECTOR('',#887,5.3);
#889=LINE('',#886,#888);
#890=EDGE_CURVE('',#425,#241,#889,.T.);
#891=ORIENTED_EDGE('',*,*,#890,.F.);
#892=ORIENTED_EDGE('',*,*,#430,.T.);
#893=ORIENTED_EDGE('',*,*,#873,.T.);
#894=EDGE_LOOP('',(#885,#891,#892,#893));
#895=FACE_OUTER_BOUND('',#894,.T.);
#896=ADVANCED_FACE('',(#895),#884,.T.);
#897=CARTESIAN_POINT('',(3.589999999999998,-2.65,0.5));
#898=DIRECTION('',(0.0,1.0,0.0));
#899=DIRECTION('',(0.707106781186547,0.0,-0.707106781186548));
#900=AXIS2_PLACEMENT_3D('',#897,#898,#899);
#901=CYLINDRICAL_SURFACE('',#900,0.37);
#902=CARTESIAN_POINT('',(3.589999999999998,2.65,0.13));
#903=VERTEX_POINT('',#902);
#904=CARTESIAN_POINT('',(3.589999999999998,2.65,0.5));
#905=DIRECTION('',(1.110223E-016,1.0,-1.110223E-016));
#906=DIRECTION('',(0.707106781186547,-1.570092E-016,-0.707106781186548));
#907=AXIS2_PLACEMENT_3D('',#904,#905,#906);
#908=CIRCLE('',#907,0.37);
#909=EDGE_CURVE('',#241,#903,#908,.T.);
#910=ORIENTED_EDGE('',*,*,#909,.T.);
#911=CARTESIAN_POINT('',(3.589999999999998,-2.65,0.13));
#912=DIRECTION('',(0.0,1.0,0.0));
#913=VECTOR('',#912,5.3);
#914=LINE('',#911,#913);
#915=EDGE_CURVE('',#619,#903,#914,.T.);
#916=ORIENTED_EDGE('',*,*,#915,.F.);
#917=ORIENTED_EDGE('',*,*,#625,.T.);
#918=ORIENTED_EDGE('',*,*,#890,.T.);
#919=EDGE_LOOP('',(#910,#916,#917,#918));
#920=FACE_OUTER_BOUND('',#919,.T.);
#921=ADVANCED_FACE('',(#920),#901,.F.);
#922=CARTESIAN_POINT('',(3.589999999999998,-2.65,0.13));
#923=DIRECTION('',(0.0,0.0,1.0));
#924=DIRECTION('',(1.0,0.0,0.0));
#925=AXIS2_PLACEMENT_3D('',#922,#923,#924);
#926=PLANE('',#925);
#927=CARTESIAN_POINT('',(2.669999999999998,2.65,0.13));
#928=VERTEX_POINT('',#927);
#929=CARTESIAN_POINT('',(3.589999999999998,2.65,0.13));
#930=DIRECTION('',(-1.0,0.0,0.0));
#931=VECTOR('',#930,0.92);
#932=LINE('',#929,#931);
#933=EDGE_CURVE('',#903,#928,#932,.T.);
#934=ORIENTED_EDGE('',*,*,#933,.T.);
#935=CARTESIAN_POINT('',(2.669999999999998,-2.65,0.13));
#936=DIRECTION('',(0.0,1.0,0.0));
#937=VECTOR('',#936,5.3);
#938=LINE('',#935,#937);
#939=EDGE_CURVE('',#628,#928,#938,.T.);
#940=ORIENTED_EDGE('',*,*,#939,.F.);
#941=ORIENTED_EDGE('',*,*,#633,.T.);
#942=ORIENTED_EDGE('',*,*,#915,.T.);
#943=EDGE_LOOP('',(#934,#940,#941,#942));
#944=FACE_OUTER_BOUND('',#943,.T.);
#945=ADVANCED_FACE('',(#944),#926,.T.);
#946=CARTESIAN_POINT('',(2.669999999999998,-2.65,0.13));
#947=DIRECTION('',(-1.0,0.0,0.0));
#948=DIRECTION('',(0.0,0.0,1.0));
#949=AXIS2_PLACEMENT_3D('',#946,#947,#948);
#950=PLANE('',#949);
#951=CARTESIAN_POINT('',(2.669999999999998,2.65,0.13));
#952=DIRECTION('',(0.0,0.0,-1.0));
#953=VECTOR('',#952,0.13);
#954=LINE('',#951,#953);
#955=EDGE_CURVE('',#928,#667,#954,.T.);
#956=ORIENTED_EDGE('',*,*,#955,.T.);
#957=ORIENTED_EDGE('',*,*,#687,.F.);
#958=ORIENTED_EDGE('',*,*,#641,.T.);
#959=ORIENTED_EDGE('',*,*,#939,.T.);
#960=EDGE_LOOP('',(#956,#957,#958,#959));
#961=FACE_OUTER_BOUND('',#960,.T.);
#962=ADVANCED_FACE('',(#961),#950,.T.);
#963=CARTESIAN_POINT('',(-6.938894E-016,2.65,1.988838803953585));
#964=DIRECTION('',(0.0,1.0,0.0));
#965=DIRECTION('',(0.0,0.0,1.0));
#966=AXIS2_PLACEMENT_3D('',#963,#964,#965);
#967=PLANE('',#966);
#968=ORIENTED_EDGE('',*,*,#246,.T.);
#969=ORIENTED_EDGE('',*,*,#702,.F.);
#970=ORIENTED_EDGE('',*,*,#674,.F.);
#971=ORIENTED_EDGE('',*,*,#955,.F.);
#972=ORIENTED_EDGE('',*,*,#933,.F.);
#973=ORIENTED_EDGE('',*,*,#909,.F.);
#974=EDGE_LOOP('',(#968,#969,#970,#971,#972,#973));
#975=FACE_OUTER_BOUND('',#974,.T.);
#976=ADVANCED_FACE('',(#975),#967,.T.);
#977=CLOSED_SHELL('',(#332,#440,#489,#511,#528,#545,#562,#611,#660,#691,#714,#726,#743,#760,#777,#794,#811,#828,#845,#862,#879,#896,#921,#945,#962,#976));
#978=MANIFOLD_SOLID_BREP('2BD9',#977);
#979=COLOUR_RGB('254',0.866,0.866,0.866);
#980=SURFACE_STYLE_USAGE(.BOTH.,#981);
#981=SURFACE_SIDE_STYLE('NONE',(#982));
#982=SURFACE_STYLE_FILL_AREA(#983);
#983=FILL_AREA_STYLE('NONE',(#984));
#984=FILL_AREA_STYLE_COLOUR('NONE',#979);
#985=PRESENTATION_STYLE_ASSIGNMENT((#980));
#986=STYLED_ITEM('NONE',(#985),#978);
#987=CARTESIAN_POINT('',(-2.290000000000001,2.75,5.43));
#988=DIRECTION('',(-1.0,0.0,0.0));
#989=DIRECTION('',(0.0,0.0,1.0));
#990=AXIS2_PLACEMENT_3D('',#987,#988,#989);
#991=PLANE('',#990);
#992=CARTESIAN_POINT('',(-2.290000000000001,2.75,5.38));
#993=VERTEX_POINT('',#992);
#994=CARTESIAN_POINT('',(-2.290000000000001,-2.75,5.38));
#995=VERTEX_POINT('',#994);
#996=CARTESIAN_POINT('',(-2.290000000000001,2.75,5.38));
#997=DIRECTION('',(0.0,-1.0,0.0));
#998=VECTOR('',#997,5.5);
#999=LINE('',#996,#998);
#1000=EDGE_CURVE('',#993,#995,#999,.T.);
#1001=ORIENTED_EDGE('',*,*,#1000,.F.);
#1002=CARTESIAN_POINT('',(-2.290000000000001,2.75,5.43));
#1003=VERTEX_POINT('',#1002);
#1004=CARTESIAN_POINT('',(-2.290000000000001,2.75,5.43));
#1005=DIRECTION('',(0.0,0.0,-1.0));
#1006=VECTOR('',#1005,0.05);
#1007=LINE('',#1004,#1006);
#1008=EDGE_CURVE('',#1003,#993,#1007,.T.);
#1009=ORIENTED_EDGE('',*,*,#1008,.F.);
#1010=CARTESIAN_POINT('',(-2.290000000000001,-2.75,5.43));
#1011=VERTEX_POINT('',#1010);
#1012=CARTESIAN_POINT('',(-2.290000000000001,-2.75,5.43));
#1013=DIRECTION('',(0.0,1.0,0.0));
#1014=VECTOR('',#1013,5.5);
#1015=LINE('',#1012,#1014);
#1016=EDGE_CURVE('',#1011,#1003,#1015,.T.);
#1017=ORIENTED_EDGE('',*,*,#1016,.F.);
#1018=CARTESIAN_POINT('',(-2.290000000000001,-2.75,5.43));
#1019=DIRECTION('',(0.0,0.0,-1.0));
#1020=VECTOR('',#1019,0.05);
#1021=LINE('',#1018,#1020);
#1022=EDGE_CURVE('',#1011,#995,#1021,.T.);
#1023=ORIENTED_EDGE('',*,*,#1022,.T.);
#1024=EDGE_LOOP('',(#1001,#1009,#1017,#1023));
#1025=FACE_OUTER_BOUND('',#1024,.T.);
#1026=ADVANCED_FACE('',(#1025),#991,.F.);
#1027=CARTESIAN_POINT('',(-2.290000000000001,-2.75,5.43));
#1028=DIRECTION('',(0.0,-1.0,0.0));
#1029=DIRECTION('',(0.0,0.0,-1.0));
#1030=AXIS2_PLACEMENT_3D('',#1027,#1028,#1029);
#1031=PLANE('',#1030);
#1032=CARTESIAN_POINT('',(-1.290000000000001,-2.75,5.38));
#1033=VERTEX_POINT('',#1032);
#1034=CARTESIAN_POINT('',(-2.290000000000001,-2.75,5.38));
#1035=DIRECTION('',(1.0,0.0,0.0));
#1036=VECTOR('',#1035,1.0);
#1037=LINE('',#1034,#1036);
#1038=EDGE_CURVE('',#995,#1033,#1037,.T.);
#1039=ORIENTED_EDGE('',*,*,#1038,.F.);
#1040=ORIENTED_EDGE('',*,*,#1022,.F.);
#1041=CARTESIAN_POINT('',(-1.290000000000001,-2.75,5.43));
#1042=VERTEX_POINT('',#1041);
#1043=CARTESIAN_POINT('',(-1.290000000000001,-2.75,5.43));
#1044=DIRECTION('',(-1.0,0.0,0.0));
#1045=VECTOR('',#1044,1.0);
#1046=LINE('',#1043,#1045);
#1047=EDGE_CURVE('',#1042,#1011,#1046,.T.);
#1048=ORIENTED_EDGE('',*,*,#1047,.F.);
#1049=CARTESIAN_POINT('',(-1.290000000000001,-2.75,5.43));
#1050=DIRECTION('',(0.0,0.0,-1.0));
#1051=VECTOR('',#1050,0.05);
#1052=LINE('',#1049,#1051);
#1053=EDGE_CURVE('',#1042,#1033,#1052,.T.);
#1054=ORIENTED_EDGE('',*,*,#1053,.T.);
#1055=EDGE_LOOP('',(#1039,#1040,#1048,#1054));
#1056=FACE_OUTER_BOUND('',#1055,.T.);
#1057=ADVANCED_FACE('',(#1056),#1031,.F.);
#1058=CARTESIAN_POINT('',(-1.290000000000001,-2.75,5.43));
#1059=DIRECTION('',(1.0,0.0,0.0));
#1060=DIRECTION('',(0.0,0.0,-1.0));
#1061=AXIS2_PLACEMENT_3D('',#1058,#1059,#1060);
#1062=PLANE('',#1061);
#1063=CARTESIAN_POINT('',(-1.290000000000001,2.75,5.38));
#1064=VERTEX_POINT('',#1063);
#1065=CARTESIAN_POINT('',(-1.290000000000001,-2.75,5.38));
#1066=DIRECTION('',(0.0,1.0,0.0));
#1067=VECTOR('',#1066,5.5);
#1068=LINE('',#1065,#1067);
#1069=EDGE_CURVE('',#1033,#1064,#1068,.T.);
#1070=ORIENTED_EDGE('',*,*,#1069,.F.);
#1071=ORIENTED_EDGE('',*,*,#1053,.F.);
#1072=CARTESIAN_POINT('',(-1.290000000000001,2.75,5.43));
#1073=VERTEX_POINT('',#1072);
#1074=CARTESIAN_POINT('',(-1.290000000000001,2.75,5.43));
#1075=DIRECTION('',(0.0,-1.0,0.0));
#1076=VECTOR('',#1075,5.5);
#1077=LINE('',#1074,#1076);
#1078=EDGE_CURVE('',#1073,#1042,#1077,.T.);
#1079=ORIENTED_EDGE('',*,*,#1078,.F.);
#1080=CARTESIAN_POINT('',(-1.290000000000001,2.75,5.43));
#1081=DIRECTION('',(0.0,0.0,-1.0));
#1082=VECTOR('',#1081,0.05);
#1083=LINE('',#1080,#1082);
#1084=EDGE_CURVE('',#1073,#1064,#1083,.T.);
#1085=ORIENTED_EDGE('',*,*,#1084,.T.);
#1086=EDGE_LOOP('',(#1070,#1071,#1079,#1085));
#1087=FACE_OUTER_BOUND('',#1086,.T.);
#1088=ADVANCED_FACE('',(#1087),#1062,.F.);
#1089=CARTESIAN_POINT('',(-1.290000000000001,2.75,5.43));
#1090=DIRECTION('',(0.0,1.0,0.0));
#1091=DIRECTION('',(0.0,0.0,1.0));
#1092=AXIS2_PLACEMENT_3D('',#1089,#1090,#1091);
#1093=PLANE('',#1092);
#1094=CARTESIAN_POINT('',(-1.290000000000001,2.75,5.38));
#1095=DIRECTION('',(-1.0,0.0,0.0));
#1096=VECTOR('',#1095,1.0);
#1097=LINE('',#1094,#1096);
#1098=EDGE_CURVE('',#1064,#993,#1097,.T.);
#1099=ORIENTED_EDGE('',*,*,#1098,.F.);
#1100=ORIENTED_EDGE('',*,*,#1084,.F.);
#1101=CARTESIAN_POINT('',(-2.290000000000001,2.75,5.43));
#1102=DIRECTION('',(1.0,0.0,0.0));
#1103=VECTOR('',#1102,1.0);
#1104=LINE('',#1101,#1103);
#1105=EDGE_CURVE('',#1003,#1073,#1104,.T.);
#1106=ORIENTED_EDGE('',*,*,#1105,.F.);
#1107=ORIENTED_EDGE('',*,*,#1008,.T.);
#1108=EDGE_LOOP('',(#1099,#1100,#1106,#1107));
#1109=FACE_OUTER_BOUND('',#1108,.T.);
#1110=ADVANCED_FACE('',(#1109),#1093,.F.);
#1111=CARTESIAN_POINT('',(-1.790000000000001,1.281027E-017,5.38));
#1112=DIRECTION('',(0.0,0.0,1.0));
#1113=DIRECTION('',(1.0,0.0,0.0));
#1114=AXIS2_PLACEMENT_3D('',#1111,#1112,#1113);
#1115=PLANE('',#1114);
#1116=ORIENTED_EDGE('',*,*,#1000,.T.);
#1117=ORIENTED_EDGE('',*,*,#1038,.T.);
#1118=ORIENTED_EDGE('',*,*,#1069,.T.);
#1119=ORIENTED_EDGE('',*,*,#1098,.T.);
#1120=EDGE_LOOP('',(#1116,#1117,#1118,#1119));
#1121=FACE_OUTER_BOUND('',#1120,.T.);
#1122=ADVANCED_FACE('',(#1121),#1115,.T.);
#1123=CARTESIAN_POINT('',(0.0,-2.005437E-017,5.43));
#1124=DIRECTION('',(0.0,0.0,1.0));
#1125=DIRECTION('',(1.0,0.0,0.0));
#1126=AXIS2_PLACEMENT_3D('',#1123,#1124,#1125);
#1127=PLANE('',#1126);
#1128=ORIENTED_EDGE('',*,*,#1016,.T.);
#1129=CARTESIAN_POINT('',(-2.79,2.75,5.43));
#1130=VERTEX_POINT('',#1129);
#1131=CARTESIAN_POINT('',(-2.79,2.75,5.43));
#1132=DIRECTION('',(1.0,0.0,0.0));
#1133=VECTOR('',#1132,0.5);
#1134=LINE('',#1131,#1133);
#1135=EDGE_CURVE('',#1130,#1003,#1134,.T.);
#1136=ORIENTED_EDGE('',*,*,#1135,.F.);
#1137=CARTESIAN_POINT('',(-2.79,-2.75,5.43));
#1138=VERTEX_POINT('',#1137);
#1139=CARTESIAN_POINT('',(-2.79,-2.75,5.43));
#1140=DIRECTION('',(0.0,1.0,0.0));
#1141=VECTOR('',#1140,5.5);
#1142=LINE('',#1139,#1141);
#1143=EDGE_CURVE('',#1138,#1130,#1142,.T.);
#1144=ORIENTED_EDGE('',*,*,#1143,.F.);
#1145=CARTESIAN_POINT('',(-2.290000000000001,-2.75,5.43));
#1146=DIRECTION('',(-1.0,0.0,0.0));
#1147=VECTOR('',#1146,0.5);
#1148=LINE('',#1145,#1147);
#1149=EDGE_CURVE('',#1011,#1138,#1148,.T.);
#1150=ORIENTED_EDGE('',*,*,#1149,.F.);
#1151=EDGE_LOOP('',(#1128,#1136,#1144,#1150));
#1152=FACE_OUTER_BOUND('',#1151,.T.);
#1153=ADVANCED_FACE('',(#1152),#1127,.T.);
#1154=CARTESIAN_POINT('',(0.0,-2.005437E-017,5.43));
#1155=DIRECTION('',(0.0,0.0,1.0));
#1156=DIRECTION('',(1.0,0.0,0.0));
#1157=AXIS2_PLACEMENT_3D('',#1154,#1155,#1156);
#1158=PLANE('',#1157);
#1159=ORIENTED_EDGE('',*,*,#1078,.T.);
#1160=CARTESIAN_POINT('',(2.79,-2.75,5.43));
#1161=VERTEX_POINT('',#1160);
#1162=CARTESIAN_POINT('',(2.79,-2.75,5.43));
#1163=DIRECTION('',(-1.0,0.0,0.0));
#1164=VECTOR('',#1163,4.08);
#1165=LINE('',#1162,#1164);
#1166=EDGE_CURVE('',#1161,#1042,#1165,.T.);
#1167=ORIENTED_EDGE('',*,*,#1166,.F.);
#1168=CARTESIAN_POINT('',(2.79,2.75,5.43));
#1169=VERTEX_POINT('',#1168);
#1170=CARTESIAN_POINT('',(2.79,2.75,5.43));
#1171=DIRECTION('',(0.0,-1.0,0.0));
#1172=VECTOR('',#1171,5.5);
#1173=LINE('',#1170,#1172);
#1174=EDGE_CURVE('',#1169,#1161,#1173,.T.);
#1175=ORIENTED_EDGE('',*,*,#1174,.F.);
#1176=CARTESIAN_POINT('',(-1.290000000000001,2.75,5.43));
#1177=DIRECTION('',(1.0,0.0,0.0));
#1178=VECTOR('',#1177,4.08);
#1179=LINE('',#1176,#1178);
#1180=EDGE_CURVE('',#1073,#1169,#1179,.T.);
#1181=ORIENTED_EDGE('',*,*,#1180,.F.);
#1182=EDGE_LOOP('',(#1159,#1167,#1175,#1181));
#1183=FACE_OUTER_BOUND('',#1182,.T.);
#1184=ADVANCED_FACE('',(#1183),#1158,.T.);
#1185=CARTESIAN_POINT('',(-2.94,-1.525,4.23));
#1186=DIRECTION('',(-0.992277876713668,0.0,0.124034734589208));
#1187=DIRECTION('',(0.124034734589208,0.0,0.992277876713668));
#1188=AXIS2_PLACEMENT_3D('',#1185,#1186,#1187);
#1189=PLANE('',#1188);
#1190=ORIENTED_EDGE('',*,*,#1143,.T.);
#1191=CARTESIAN_POINT('',(-3.09,3.05,3.03));
#1192=VERTEX_POINT('',#1191);
#1193=CARTESIAN_POINT('',(-2.79,2.75,5.43));
#1194=DIRECTION('',(-0.123091490979333,0.123091490979333,-0.984731927834662));
#1195=VECTOR('',#1194,2.437211521390788);
#1196=LINE('',#1193,#1195);
#1197=EDGE_CURVE('',#1130,#1192,#1196,.T.);
#1198=ORIENTED_EDGE('',*,*,#1197,.T.);
#1199=CARTESIAN_POINT('',(-3.09,-3.05,3.03));
#1200=VERTEX_POINT('',#1199);
#1201=CARTESIAN_POINT('',(-3.09,3.049999999999999,3.03));
#1202=DIRECTION('',(0.0,-1.0,0.0));
#1203=VECTOR('',#1202,6.1);
#1204=LINE('',#1201,#1203);
#1205=EDGE_CURVE('',#1192,#1200,#1204,.T.);
#1206=ORIENTED_EDGE('',*,*,#1205,.T.);
#1207=CARTESIAN_POINT('',(-2.79,-2.75,5.43));
#1208=DIRECTION('',(-0.123091490979333,-0.123091490979333,-0.984731927834662));
#1209=VECTOR('',#1208,2.437211521390788);
#1210=LINE('',#1207,#1209);
#1211=EDGE_CURVE('',#1138,#1200,#1210,.T.);
#1212=ORIENTED_EDGE('',*,*,#1211,.F.);
#1213=EDGE_LOOP('',(#1190,#1198,#1206,#1212));
#1214=FACE_OUTER_BOUND('',#1213,.T.);
#1215=ADVANCED_FACE('',(#1214),#1189,.T.);
#1216=CARTESIAN_POINT('',(-1.545,2.9,4.23));
#1217=DIRECTION('',(0.0,0.992277876713668,0.124034734589208));
#1218=DIRECTION('',(0.0,-0.124034734589208,0.992277876713668));
#1219=AXIS2_PLACEMENT_3D('',#1216,#1217,#1218);
#1220=PLANE('',#1219);
#1221=CARTESIAN_POINT('',(3.09,3.05,3.03));
#1222=VERTEX_POINT('',#1221);
#1223=CARTESIAN_POINT('',(3.09,3.05,3.03));
#1224=DIRECTION('',(-1.0,0.0,0.0));
#1225=VECTOR('',#1224,6.18);
#1226=LINE('',#1223,#1225);
#1227=EDGE_CURVE('',#1222,#1192,#1226,.T.);
#1228=ORIENTED_EDGE('',*,*,#1227,.T.);
#1229=ORIENTED_EDGE('',*,*,#1197,.F.);
#1230=ORIENTED_EDGE('',*,*,#1135,.T.);
#1231=ORIENTED_EDGE('',*,*,#1105,.T.);
#1232=ORIENTED_EDGE('',*,*,#1180,.T.);
#1233=CARTESIAN_POINT('',(2.79,2.75,5.43));
#1234=DIRECTION('',(0.123091490979333,0.123091490979333,-0.984731927834662));
#1235=VECTOR('',#1234,2.437211521390788);
#1236=LINE('',#1233,#1235);
#1237=EDGE_CURVE('',#1169,#1222,#1236,.T.);
#1238=ORIENTED_EDGE('',*,*,#1237,.T.);
#1239=EDGE_LOOP('',(#1228,#1229,#1230,#1231,#1232,#1238));
#1240=FACE_OUTER_BOUND('',#1239,.T.);
#1241=ADVANCED_FACE('',(#1240),#1220,.T.);
#1242=CARTESIAN_POINT('',(2.94,1.525,4.23));
#1243=DIRECTION('',(0.992277876713668,0.0,0.124034734589208));
#1244=DIRECTION('',(0.124034734589208,0.0,-0.992277876713668));
#1245=AXIS2_PLACEMENT_3D('',#1242,#1243,#1244);
#1246=PLANE('',#1245);
#1247=CARTESIAN_POINT('',(3.09,-3.05,3.03));
#1248=VERTEX_POINT('',#1247);
#1249=CARTESIAN_POINT('',(3.09,-3.049999999999999,3.03));
#1250=DIRECTION('',(0.0,1.0,0.0));
#1251=VECTOR('',#1250,6.1);
#1252=LINE('',#1249,#1251);
#1253=EDGE_CURVE('',#1248,#1222,#1252,.T.);
#1254=ORIENTED_EDGE('',*,*,#1253,.T.);
#1255=ORIENTED_EDGE('',*,*,#1237,.F.);
#1256=ORIENTED_EDGE('',*,*,#1174,.T.);
#1257=CARTESIAN_POINT('',(2.79,-2.75,5.43));
#1258=DIRECTION('',(0.123091490979333,-0.123091490979333,-0.984731927834662));
#1259=VECTOR('',#1258,2.437211521390788);
#1260=LINE('',#1257,#1259);
#1261=EDGE_CURVE('',#1161,#1248,#1260,.T.);
#1262=ORIENTED_EDGE('',*,*,#1261,.T.);
#1263=EDGE_LOOP('',(#1254,#1255,#1256,#1262));
#1264=FACE_OUTER_BOUND('',#1263,.T.);
#1265=ADVANCED_FACE('',(#1264),#1246,.T.);
#1266=CARTESIAN_POINT('',(1.545,-2.9,4.23));
#1267=DIRECTION('',(0.0,-0.992277876713668,0.124034734589208));
#1268=DIRECTION('',(0.0,-0.124034734589208,-0.992277876713668));
#1269=AXIS2_PLACEMENT_3D('',#1266,#1267,#1268);
#1270=PLANE('',#1269);
#1271=CARTESIAN_POINT('',(-3.09,-3.05,3.03));
#1272=DIRECTION('',(1.0,0.0,0.0));
#1273=VECTOR('',#1272,6.18);
#1274=LINE('',#1271,#1273);
#1275=EDGE_CURVE('',#1200,#1248,#1274,.T.);
#1276=ORIENTED_EDGE('',*,*,#1275,.T.);
#1277=ORIENTED_EDGE('',*,*,#1261,.F.);
#1278=ORIENTED_EDGE('',*,*,#1166,.T.);
#1279=ORIENTED_EDGE('',*,*,#1047,.T.);
#1280=ORIENTED_EDGE('',*,*,#1149,.T.);
#1281=ORIENTED_EDGE('',*,*,#1211,.T.);
#1282=EDGE_LOOP('',(#1276,#1277,#1278,#1279,#1280,#1281));
#1283=FACE_OUTER_BOUND('',#1282,.T.);
#1284=ADVANCED_FACE('',(#1283),#1270,.T.);
#1285=CARTESIAN_POINT('',(3.09,-3.05,2.965));
#1286=DIRECTION('',(0.0,-1.0,0.0));
#1287=DIRECTION('',(0.0,0.0,-1.0));
#1288=AXIS2_PLACEMENT_3D('',#1285,#1286,#1287);
#1289=PLANE('',#1288);
#1290=ORIENTED_EDGE('',*,*,#1275,.F.);
#1291=CARTESIAN_POINT('',(-3.09,-3.05,2.965));
#1292=VERTEX_POINT('',#1291);
#1293=CARTESIAN_POINT('',(-3.09,-3.05,2.965));
#1294=DIRECTION('',(0.0,0.0,1.0));
#1295=VECTOR('',#1294,0.065);
#1296=LINE('',#1293,#1295);
#1297=EDGE_CURVE('',#1292,#1200,#1296,.T.);
#1298=ORIENTED_EDGE('',*,*,#1297,.F.);
#1299=CARTESIAN_POINT('',(3.09,-3.05,2.965));
#1300=VERTEX_POINT('',#1299);
#1301=CARTESIAN_POINT('',(3.09,-3.05,2.965));
#1302=DIRECTION('',(-1.0,0.0,0.0));
#1303=VECTOR('',#1302,6.18);
#1304=LINE('',#1301,#1303);
#1305=EDGE_CURVE('',#1300,#1292,#1304,.T.);
#1306=ORIENTED_EDGE('',*,*,#1305,.F.);
#1307=CARTESIAN_POINT('',(3.09,-3.05,2.965));
#1308=DIRECTION('',(0.0,0.0,1.0));
#1309=VECTOR('',#1308,0.065);
#1310=LINE('',#1307,#1309);
#1311=EDGE_CURVE('',#1300,#1248,#1310,.T.);
#1312=ORIENTED_EDGE('',*,*,#1311,.T.);
#1313=EDGE_LOOP('',(#1290,#1298,#1306,#1312));
#1314=FACE_OUTER_BOUND('',#1313,.T.);
#1315=ADVANCED_FACE('',(#1314),#1289,.T.);
#1316=CARTESIAN_POINT('',(-3.09,-3.05,2.965));
#1317=DIRECTION('',(-1.0,0.0,0.0));
#1318=DIRECTION('',(0.0,0.0,1.0));
#1319=AXIS2_PLACEMENT_3D('',#1316,#1317,#1318);
#1320=PLANE('',#1319);
#1321=ORIENTED_EDGE('',*,*,#1205,.F.);
#1322=CARTESIAN_POINT('',(-3.09,3.05,2.965));
#1323=VERTEX_POINT('',#1322);
#1324=CARTESIAN_POINT('',(-3.09,3.05,2.965));
#1325=DIRECTION('',(0.0,0.0,1.0));
#1326=VECTOR('',#1325,0.065);
#1327=LINE('',#1324,#1326);
#1328=EDGE_CURVE('',#1323,#1192,#1327,.T.);
#1329=ORIENTED_EDGE('',*,*,#1328,.F.);
#1330=CARTESIAN_POINT('',(-3.09,-3.05,2.965));
#1331=DIRECTION('',(0.0,1.0,0.0));
#1332=VECTOR('',#1331,6.1);
#1333=LINE('',#1330,#1332);
#1334=EDGE_CURVE('',#1292,#1323,#1333,.T.);
#1335=ORIENTED_EDGE('',*,*,#1334,.F.);
#1336=ORIENTED_EDGE('',*,*,#1297,.T.);
#1337=EDGE_LOOP('',(#1321,#1329,#1335,#1336));
#1338=FACE_OUTER_BOUND('',#1337,.T.);
#1339=ADVANCED_FACE('',(#1338),#1320,.T.);
#1340=CARTESIAN_POINT('',(3.09,3.05,2.965));
#1341=DIRECTION('',(1.0,0.0,0.0));
#1342=DIRECTION('',(0.0,0.0,-1.0));
#1343=AXIS2_PLACEMENT_3D('',#1340,#1341,#1342);
#1344=PLANE('',#1343);
#1345=ORIENTED_EDGE('',*,*,#1253,.F.);
#1346=ORIENTED_EDGE('',*,*,#1311,.F.);
#1347=CARTESIAN_POINT('',(3.09,3.05,2.965));
#1348=VERTEX_POINT('',#1347);
#1349=CARTESIAN_POINT('',(3.09,3.05,2.965));
#1350=DIRECTION('',(0.0,-1.0,0.0));
#1351=VECTOR('',#1350,6.1);
#1352=LINE('',#1349,#1351);
#1353=EDGE_CURVE('',#1348,#1300,#1352,.T.);
#1354=ORIENTED_EDGE('',*,*,#1353,.F.);
#1355=CARTESIAN_POINT('',(3.09,3.05,2.965));
#1356=DIRECTION('',(0.0,0.0,1.0));
#1357=VECTOR('',#1356,0.065);
#1358=LINE('',#1355,#1357);
#1359=EDGE_CURVE('',#1348,#1222,#1358,.T.);
#1360=ORIENTED_EDGE('',*,*,#1359,.T.);
#1361=EDGE_LOOP('',(#1345,#1346,#1354,#1360));
#1362=FACE_OUTER_BOUND('',#1361,.T.);
#1363=ADVANCED_FACE('',(#1362),#1344,.T.);
#1364=CARTESIAN_POINT('',(-3.09,3.05,2.965));
#1365=DIRECTION('',(0.0,1.0,0.0));
#1366=DIRECTION('',(0.0,0.0,1.0));
#1367=AXIS2_PLACEMENT_3D('',#1364,#1365,#1366);
#1368=PLANE('',#1367);
#1369=ORIENTED_EDGE('',*,*,#1227,.F.);
#1370=ORIENTED_EDGE('',*,*,#1359,.F.);
#1371=CARTESIAN_POINT('',(-3.09,3.05,2.965));
#1372=DIRECTION('',(1.0,0.0,0.0));
#1373=VECTOR('',#1372,6.18);
#1374=LINE('',#1371,#1373);
#1375=EDGE_CURVE('',#1323,#1348,#1374,.T.);
#1376=ORIENTED_EDGE('',*,*,#1375,.F.);
#1377=ORIENTED_EDGE('',*,*,#1328,.T.);
#1378=EDGE_LOOP('',(#1369,#1370,#1376,#1377));
#1379=FACE_OUTER_BOUND('',#1378,.T.);
#1380=ADVANCED_FACE('',(#1379),#1368,.T.);
#1381=CARTESIAN_POINT('',(0.0,2.005437E-017,2.965));
#1382=DIRECTION('',(0.0,0.0,1.0));
#1383=DIRECTION('',(1.0,0.0,0.0));
#1384=AXIS2_PLACEMENT_3D('',#1381,#1382,#1383);
#1385=PLANE('',#1384);
#1386=ORIENTED_EDGE('',*,*,#1375,.T.);
#1387=ORIENTED_EDGE('',*,*,#1353,.T.);
#1388=ORIENTED_EDGE('',*,*,#1305,.T.);
#1389=ORIENTED_EDGE('',*,*,#1334,.T.);
#1390=EDGE_LOOP('',(#1386,#1387,#1388,#1389));
#1391=FACE_OUTER_BOUND('',#1390,.T.);
#1392=ADVANCED_FACE('',(#1391),#1385,.F.);
#1393=CLOSED_SHELL('',(#1026,#1057,#1088,#1110,#1122,#1153,#1184,#1215,#1241,#1265,#1284,#1315,#1339,#1363,#1380,#1392));
#1394=MANIFOLD_SOLID_BREP('2BC1',#1393);
#1395=COLOUR_RGB('250',0.33,0.33,0.33);
#1396=SURFACE_STYLE_USAGE(.BOTH.,#1397);
#1397=SURFACE_SIDE_STYLE('NONE',(#1398));
#1398=SURFACE_STYLE_FILL_AREA(#1399);
#1399=FILL_AREA_STYLE('NONE',(#1400));
#1400=FILL_AREA_STYLE_COLOUR('NONE',#1395);
#1401=PRESENTATION_STYLE_ASSIGNMENT((#1396));
#1402=STYLED_ITEM('NONE',(#1401),#1394);
#1403=CARTESIAN_POINT('',(-1.545,2.9,1.7));
#1404=DIRECTION('',(0.0,0.992277876713668,-0.124034734589208));
#1405=DIRECTION('',(0.0,0.124034734589208,0.992277876713668));
#1406=AXIS2_PLACEMENT_3D('',#1403,#1404,#1405);
#1407=PLANE('',#1406);
#1408=CARTESIAN_POINT('',(2.79,2.75,0.5));
#1409=VERTEX_POINT('',#1408);
#1410=CARTESIAN_POINT('',(-2.79,2.75,0.5));
#1411=VERTEX_POINT('',#1410);
#1412=CARTESIAN_POINT('',(2.79,2.75,0.5));
#1413=DIRECTION('',(-1.0,0.0,0.0));
#1414=VECTOR('',#1413,5.58);
#1415=LINE('',#1412,#1414);
#1416=EDGE_CURVE('',#1409,#1411,#1415,.T.);
#1417=ORIENTED_EDGE('',*,*,#1416,.T.);
#1418=CARTESIAN_POINT('',(-3.09,3.05,2.9));
#1419=VERTEX_POINT('',#1418);
#1420=CARTESIAN_POINT('',(-2.79,2.75,0.5));
#1421=DIRECTION('',(-0.123091490979333,0.123091490979332,0.984731927834662));
#1422=VECTOR('',#1421,2.437211521390788);
#1423=LINE('',#1420,#1422);
#1424=EDGE_CURVE('',#1411,#1419,#1423,.T.);
#1425=ORIENTED_EDGE('',*,*,#1424,.T.);
#1426=CARTESIAN_POINT('',(3.09,3.05,2.9));
#1427=VERTEX_POINT('',#1426);
#1428=CARTESIAN_POINT('',(-3.09,3.05,2.9));
#1429=DIRECTION('',(1.0,0.0,0.0));
#1430=VECTOR('',#1429,6.18);
#1431=LINE('',#1428,#1430);
#1432=EDGE_CURVE('',#1419,#1427,#1431,.T.);
#1433=ORIENTED_EDGE('',*,*,#1432,.T.);
#1434=CARTESIAN_POINT('',(3.09,3.05,2.9));
#1435=DIRECTION('',(-0.123091490979333,-0.123091490979333,-0.984731927834662));
#1436=VECTOR('',#1435,2.437211521390788);
#1437=LINE('',#1434,#1436);
#1438=EDGE_CURVE('',#1427,#1409,#1437,.T.);
#1439=ORIENTED_EDGE('',*,*,#1438,.T.);
#1440=EDGE_LOOP('',(#1417,#1425,#1433,#1439));
#1441=FACE_OUTER_BOUND('',#1440,.T.);
#1442=ADVANCED_FACE('',(#1441),#1407,.T.);
#1443=CARTESIAN_POINT('',(2.94,1.525,1.7));
#1444=DIRECTION('',(0.992277876713668,0.0,-0.124034734589208));
#1445=DIRECTION('',(-0.124034734589208,0.0,-0.992277876713668));
#1446=AXIS2_PLACEMENT_3D('',#1443,#1444,#1445);
#1447=PLANE('',#1446);
#1448=CARTESIAN_POINT('',(3.09,-3.05,2.9));
#1449=VERTEX_POINT('',#1448);
#1450=CARTESIAN_POINT('',(3.09,3.05,2.9));
#1451=DIRECTION('',(0.0,-1.0,0.0));
#1452=VECTOR('',#1451,6.1);
#1453=LINE('',#1450,#1452);
#1454=EDGE_CURVE('',#1427,#1449,#1453,.T.);
#1455=ORIENTED_EDGE('',*,*,#1454,.T.);
#1456=CARTESIAN_POINT('',(2.79,-2.75,0.5));
#1457=VERTEX_POINT('',#1456);
#1458=CARTESIAN_POINT('',(3.09,-3.05,2.9));
#1459=DIRECTION('',(-0.123091490979333,0.123091490979333,-0.984731927834662));
#1460=VECTOR('',#1459,2.437211521390788);
#1461=LINE('',#1458,#1460);
#1462=EDGE_CURVE('',#1449,#1457,#1461,.T.);
#1463=ORIENTED_EDGE('',*,*,#1462,.T.);
#1464=CARTESIAN_POINT('',(2.79,-2.75,0.5));
#1465=DIRECTION('',(0.0,1.0,0.0));
#1466=VECTOR('',#1465,5.5);
#1467=LINE('',#1464,#1466);
#1468=EDGE_CURVE('',#1457,#1409,#1467,.T.);
#1469=ORIENTED_EDGE('',*,*,#1468,.T.);
#1470=ORIENTED_EDGE('',*,*,#1438,.F.);
#1471=EDGE_LOOP('',(#1455,#1463,#1469,#1470));
#1472=FACE_OUTER_BOUND('',#1471,.T.);
#1473=ADVANCED_FACE('',(#1472),#1447,.T.);
#1474=CARTESIAN_POINT('',(1.545,-2.9,1.7));
#1475=DIRECTION('',(0.0,-0.992277876713668,-0.124034734589208));
#1476=DIRECTION('',(0.0,0.124034734589208,-0.992277876713668));
#1477=AXIS2_PLACEMENT_3D('',#1474,#1475,#1476);
#1478=PLANE('',#1477);
#1479=CARTESIAN_POINT('',(-2.79,-2.75,0.5));
#1480=VERTEX_POINT('',#1479);
#1481=CARTESIAN_POINT('',(-2.79,-2.75,0.5));
#1482=DIRECTION('',(1.0,0.0,0.0));
#1483=VECTOR('',#1482,5.58);
#1484=LINE('',#1481,#1483);
#1485=EDGE_CURVE('',#1480,#1457,#1484,.T.);
#1486=ORIENTED_EDGE('',*,*,#1485,.T.);
#1487=ORIENTED_EDGE('',*,*,#1462,.F.);
#1488=CARTESIAN_POINT('',(-3.09,-3.05,2.9));
#1489=VERTEX_POINT('',#1488);
#1490=CARTESIAN_POINT('',(3.09,-3.05,2.9));
#1491=DIRECTION('',(-1.0,0.0,0.0));
#1492=VECTOR('',#1491,6.18);
#1493=LINE('',#1490,#1492);
#1494=EDGE_CURVE('',#1449,#1489,#1493,.T.);
#1495=ORIENTED_EDGE('',*,*,#1494,.T.);
#1496=CARTESIAN_POINT('',(-3.09,-3.05,2.9));
#1497=DIRECTION('',(0.123091490979333,0.123091490979333,-0.984731927834662));
#1498=VECTOR('',#1497,2.437211521390788);
#1499=LINE('',#1496,#1498);
#1500=EDGE_CURVE('',#1489,#1480,#1499,.T.);
#1501=ORIENTED_EDGE('',*,*,#1500,.T.);
#1502=EDGE_LOOP('',(#1486,#1487,#1495,#1501));
#1503=FACE_OUTER_BOUND('',#1502,.T.);
#1504=ADVANCED_FACE('',(#1503),#1478,.T.);
#1505=CARTESIAN_POINT('',(-2.94,-1.525,1.7));
#1506=DIRECTION('',(-0.992277876713668,0.0,-0.124034734589208));
#1507=DIRECTION('',(-0.124034734589208,0.0,0.992277876713668));
#1508=AXIS2_PLACEMENT_3D('',#1505,#1506,#1507);
#1509=PLANE('',#1508);
#1510=CARTESIAN_POINT('',(-2.79,2.75,0.5));
#1511=DIRECTION('',(0.0,-1.0,0.0));
#1512=VECTOR('',#1511,5.5);
#1513=LINE('',#1510,#1512);
#1514=EDGE_CURVE('',#1411,#1480,#1513,.T.);
#1515=ORIENTED_EDGE('',*,*,#1514,.T.);
#1516=ORIENTED_EDGE('',*,*,#1500,.F.);
#1517=CARTESIAN_POINT('',(-3.09,-3.05,2.9));
#1518=DIRECTION('',(0.0,1.0,0.0));
#1519=VECTOR('',#1518,6.1);
#1520=LINE('',#1517,#1519);
#1521=EDGE_CURVE('',#1489,#1419,#1520,.T.);
#1522=ORIENTED_EDGE('',*,*,#1521,.T.);
#1523=ORIENTED_EDGE('',*,*,#1424,.F.);
#1524=EDGE_LOOP('',(#1515,#1516,#1522,#1523));
#1525=FACE_OUTER_BOUND('',#1524,.T.);
#1526=ADVANCED_FACE('',(#1525),#1509,.T.);
#1527=CARTESIAN_POINT('',(3.09,3.05,0.5));
#1528=DIRECTION('',(1.0,0.0,0.0));
#1529=DIRECTION('',(0.0,0.0,-1.0));
#1530=AXIS2_PLACEMENT_3D('',#1527,#1528,#1529);
#1531=PLANE('',#1530);
#1532=ORIENTED_EDGE('',*,*,#1454,.F.);
#1533=CARTESIAN_POINT('',(3.09,3.05,2.965));
#1534=VERTEX_POINT('',#1533);
#1535=CARTESIAN_POINT('',(3.09,3.05,2.9));
#1536=DIRECTION('',(0.0,0.0,1.0));
#1537=VECTOR('',#1536,0.065);
#1538=LINE('',#1535,#1537);
#1539=EDGE_CURVE('',#1427,#1534,#1538,.T.);
#1540=ORIENTED_EDGE('',*,*,#1539,.T.);
#1541=CARTESIAN_POINT('',(3.09,-3.05,2.965));
#1542=VERTEX_POINT('',#1541);
#1543=CARTESIAN_POINT('',(3.09,3.05,2.965));
#1544=DIRECTION('',(0.0,-1.0,0.0));
#1545=VECTOR('',#1544,6.1);
#1546=LINE('',#1543,#1545);
#1547=EDGE_CURVE('',#1534,#1542,#1546,.T.);
#1548=ORIENTED_EDGE('',*,*,#1547,.T.);
#1549=CARTESIAN_POINT('',(3.09,-3.05,2.9));
#1550=DIRECTION('',(0.0,0.0,1.0));
#1551=VECTOR('',#1550,0.065);
#1552=LINE('',#1549,#1551);
#1553=EDGE_CURVE('',#1449,#1542,#1552,.T.);
#1554=ORIENTED_EDGE('',*,*,#1553,.F.);
#1555=EDGE_LOOP('',(#1532,#1540,#1548,#1554));
#1556=FACE_OUTER_BOUND('',#1555,.T.);
#1557=ADVANCED_FACE('',(#1556),#1531,.T.);
#1558=CARTESIAN_POINT('',(-3.09,3.05,0.5));
#1559=DIRECTION('',(0.0,1.0,0.0));
#1560=DIRECTION('',(0.0,0.0,1.0));
#1561=AXIS2_PLACEMENT_3D('',#1558,#1559,#1560);
#1562=PLANE('',#1561);
#1563=ORIENTED_EDGE('',*,*,#1432,.F.);
#1564=CARTESIAN_POINT('',(-3.09,3.05,2.965));
#1565=VERTEX_POINT('',#1564);
#1566=CARTESIAN_POINT('',(-3.09,3.05,2.9));
#1567=DIRECTION('',(0.0,0.0,1.0));
#1568=VECTOR('',#1567,0.065);
#1569=LINE('',#1566,#1568);
#1570=EDGE_CURVE('',#1419,#1565,#1569,.T.);
#1571=ORIENTED_EDGE('',*,*,#1570,.T.);
#1572=CARTESIAN_POINT('',(-3.09,3.05,2.965));
#1573=DIRECTION('',(1.0,0.0,0.0));
#1574=VECTOR('',#1573,6.18);
#1575=LINE('',#1572,#1574);
#1576=EDGE_CURVE('',#1565,#1534,#1575,.T.);
#1577=ORIENTED_EDGE('',*,*,#1576,.T.);
#1578=ORIENTED_EDGE('',*,*,#1539,.F.);
#1579=EDGE_LOOP('',(#1563,#1571,#1577,#1578));
#1580=FACE_OUTER_BOUND('',#1579,.T.);
#1581=ADVANCED_FACE('',(#1580),#1562,.T.);
#1582=CARTESIAN_POINT('',(0.0,2.005437E-017,0.5));
#1583=DIRECTION('',(0.0,0.0,1.0));
#1584=DIRECTION('',(1.0,0.0,0.0));
#1585=AXIS2_PLACEMENT_3D('',#1582,#1583,#1584);
#1586=PLANE('',#1585);
#1587=ORIENTED_EDGE('',*,*,#1416,.F.);
#1588=ORIENTED_EDGE('',*,*,#1468,.F.);
#1589=ORIENTED_EDGE('',*,*,#1485,.F.);
#1590=ORIENTED_EDGE('',*,*,#1514,.F.);
#1591=EDGE_LOOP('',(#1587,#1588,#1589,#1590));
#1592=FACE_OUTER_BOUND('',#1591,.T.);
#1593=ADVANCED_FACE('',(#1592),#1586,.F.);
#1594=CARTESIAN_POINT('',(3.09,-3.05,0.5));
#1595=DIRECTION('',(0.0,-1.0,0.0));
#1596=DIRECTION('',(0.0,0.0,-1.0));
#1597=AXIS2_PLACEMENT_3D('',#1594,#1595,#1596);
#1598=PLANE('',#1597);
#1599=ORIENTED_EDGE('',*,*,#1494,.F.);
#1600=ORIENTED_EDGE('',*,*,#1553,.T.);
#1601=CARTESIAN_POINT('',(-3.09,-3.05,2.965));
#1602=VERTEX_POINT('',#1601);
#1603=CARTESIAN_POINT('',(3.09,-3.05,2.965));
#1604=DIRECTION('',(-1.0,0.0,0.0));
#1605=VECTOR('',#1604,6.18);
#1606=LINE('',#1603,#1605);
#1607=EDGE_CURVE('',#1542,#1602,#1606,.T.);
#1608=ORIENTED_EDGE('',*,*,#1607,.T.);
#1609=CARTESIAN_POINT('',(-3.09,-3.05,2.9));
#1610=DIRECTION('',(0.0,0.0,1.0));
#1611=VECTOR('',#1610,0.065);
#1612=LINE('',#1609,#1611);
#1613=EDGE_CURVE('',#1489,#1602,#1612,.T.);
#1614=ORIENTED_EDGE('',*,*,#1613,.F.);
#1615=EDGE_LOOP('',(#1599,#1600,#1608,#1614));
#1616=FACE_OUTER_BOUND('',#1615,.T.);
#1617=ADVANCED_FACE('',(#1616),#1598,.T.);
#1618=CARTESIAN_POINT('',(-3.09,-3.05,0.5));
#1619=DIRECTION('',(-1.0,0.0,0.0));
#1620=DIRECTION('',(0.0,0.0,1.0));
#1621=AXIS2_PLACEMENT_3D('',#1618,#1619,#1620);
#1622=PLANE('',#1621);
#1623=ORIENTED_EDGE('',*,*,#1521,.F.);
#1624=ORIENTED_EDGE('',*,*,#1613,.T.);
#1625=CARTESIAN_POINT('',(-3.09,-3.05,2.965));
#1626=DIRECTION('',(0.0,1.0,0.0));
#1627=VECTOR('',#1626,6.1);
#1628=LINE('',#1625,#1627);
#1629=EDGE_CURVE('',#1602,#1565,#1628,.T.);
#1630=ORIENTED_EDGE('',*,*,#1629,.T.);
#1631=ORIENTED_EDGE('',*,*,#1570,.F.);
#1632=EDGE_LOOP('',(#1623,#1624,#1630,#1631));
#1633=FACE_OUTER_BOUND('',#1632,.T.);
#1634=ADVANCED_FACE('',(#1633),#1622,.T.);
#1635=CARTESIAN_POINT('',(0.0,-2.005437E-017,2.965));
#1636=DIRECTION('',(0.0,0.0,1.0));
#1637=DIRECTION('',(1.0,0.0,0.0));
#1638=AXIS2_PLACEMENT_3D('',#1635,#1636,#1637);
#1639=PLANE('',#1638);
#1640=ORIENTED_EDGE('',*,*,#1547,.F.);
#1641=ORIENTED_EDGE('',*,*,#1576,.F.);
#1642=ORIENTED_EDGE('',*,*,#1629,.F.);
#1643=ORIENTED_EDGE('',*,*,#1607,.F.);
#1644=EDGE_LOOP('',(#1640,#1641,#1642,#1643));
#1645=FACE_OUTER_BOUND('',#1644,.T.);
#1646=ADVANCED_FACE('',(#1645),#1639,.T.);
#1647=CLOSED_SHELL('',(#1442,#1473,#1504,#1526,#1557,#1581,#1593,#1617,#1634,#1646));
#1648=MANIFOLD_SOLID_BREP('2BBB',#1647);
#1649=STYLED_ITEM('NONE',(#1401),#1648);
#1650=CARTESIAN_POINT('',(2.205,3.049999999999999,0.0));
#1651=DIRECTION('',(1.0,0.0,0.0));
#1652=DIRECTION('',(0.0,0.0,-1.0));
#1653=AXIS2_PLACEMENT_3D('',#1650,#1651,#1652);
#1654=PLANE('',#1653);
#1655=CARTESIAN_POINT('',(2.205,2.75,0.5));
#1656=VERTEX_POINT('',#1655);
#1657=CARTESIAN_POINT('',(2.205,-2.75,0.5));
#1658=VERTEX_POINT('',#1657);
#1659=CARTESIAN_POINT('',(2.205,2.75,0.5));
#1660=DIRECTION('',(0.0,-1.0,0.0));
#1661=VECTOR('',#1660,5.5);
#1662=LINE('',#1659,#1661);
#1663=EDGE_CURVE('',#1656,#1658,#1662,.T.);
#1664=ORIENTED_EDGE('',*,*,#1663,.T.);
#1665=CARTESIAN_POINT('',(2.205,-2.75,0.0));
#1666=VERTEX_POINT('',#1665);
#1667=CARTESIAN_POINT('',(2.205,-2.75,0.0));
#1668=DIRECTION('',(0.0,0.0,1.0));
#1669=VECTOR('',#1668,0.5);
#1670=LINE('',#1667,#1669);
#1671=EDGE_CURVE('',#1666,#1658,#1670,.T.);
#1672=ORIENTED_EDGE('',*,*,#1671,.F.);
#1673=CARTESIAN_POINT('',(2.205,2.75,0.0));
#1674=VERTEX_POINT('',#1673);
#1675=CARTESIAN_POINT('',(2.205,2.75,0.0));
#1676=DIRECTION('',(0.0,-1.0,0.0));
#1677=VECTOR('',#1676,5.5);
#1678=LINE('',#1675,#1677);
#1679=EDGE_CURVE('',#1674,#1666,#1678,.T.);
#1680=ORIENTED_EDGE('',*,*,#1679,.F.);
#1681=CARTESIAN_POINT('',(2.205,2.75,0.0));
#1682=DIRECTION('',(0.0,0.0,1.0));
#1683=VECTOR('',#1682,0.5);
#1684=LINE('',#1681,#1683);
#1685=EDGE_CURVE('',#1674,#1656,#1684,.T.);
#1686=ORIENTED_EDGE('',*,*,#1685,.T.);
#1687=EDGE_LOOP('',(#1664,#1672,#1680,#1686));
#1688=FACE_OUTER_BOUND('',#1687,.T.);
#1689=ADVANCED_FACE('',(#1688),#1654,.T.);
#1690=CARTESIAN_POINT('',(2.205,-2.75,0.0));
#1691=DIRECTION('',(0.0,-1.0,0.0));
#1692=DIRECTION('',(0.0,0.0,-1.0));
#1693=AXIS2_PLACEMENT_3D('',#1690,#1691,#1692);
#1694=PLANE('',#1693);
#1695=CARTESIAN_POINT('',(-2.205,-2.75,0.5));
#1696=VERTEX_POINT('',#1695);
#1697=CARTESIAN_POINT('',(2.205,-2.75,0.5));
#1698=DIRECTION('',(-1.0,0.0,0.0));
#1699=VECTOR('',#1698,4.41);
#1700=LINE('',#1697,#1699);
#1701=EDGE_CURVE('',#1658,#1696,#1700,.T.);
#1702=ORIENTED_EDGE('',*,*,#1701,.T.);
#1703=CARTESIAN_POINT('',(-2.205,-2.75,0.0));
#1704=VERTEX_POINT('',#1703);
#1705=CARTESIAN_POINT('',(-2.205,-2.75,0.0));
#1706=DIRECTION('',(0.0,0.0,1.0));
#1707=VECTOR('',#1706,0.5);
#1708=LINE('',#1705,#1707);
#1709=EDGE_CURVE('',#1704,#1696,#1708,.T.);
#1710=ORIENTED_EDGE('',*,*,#1709,.F.);
#1711=CARTESIAN_POINT('',(2.205,-2.75,0.0));
#1712=DIRECTION('',(-1.0,0.0,0.0));
#1713=VECTOR('',#1712,4.41);
#1714=LINE('',#1711,#1713);
#1715=EDGE_CURVE('',#1666,#1704,#1714,.T.);
#1716=ORIENTED_EDGE('',*,*,#1715,.F.);
#1717=ORIENTED_EDGE('',*,*,#1671,.T.);
#1718=EDGE_LOOP('',(#1702,#1710,#1716,#1717));
#1719=FACE_OUTER_BOUND('',#1718,.T.);
#1720=ADVANCED_FACE('',(#1719),#1694,.T.);
#1721=CARTESIAN_POINT('',(-2.205,-3.050000000000001,0.0));
#1722=DIRECTION('',(-1.0,0.0,0.0));
#1723=DIRECTION('',(0.0,0.0,1.0));
#1724=AXIS2_PLACEMENT_3D('',#1721,#1722,#1723);
#1725=PLANE('',#1724);
#1726=CARTESIAN_POINT('',(-2.205,2.75,0.5));
#1727=VERTEX_POINT('',#1726);
#1728=CARTESIAN_POINT('',(-2.205,-2.75,0.5));
#1729=DIRECTION('',(0.0,1.0,0.0));
#1730=VECTOR('',#1729,5.5);
#1731=LINE('',#1728,#1730);
#1732=EDGE_CURVE('',#1696,#1727,#1731,.T.);
#1733=ORIENTED_EDGE('',*,*,#1732,.T.);
#1734=CARTESIAN_POINT('',(-2.205,2.75,0.0));
#1735=VERTEX_POINT('',#1734);
#1736=CARTESIAN_POINT('',(-2.205,2.75,0.0));
#1737=DIRECTION('',(0.0,0.0,1.0));
#1738=VECTOR('',#1737,0.5);
#1739=LINE('',#1736,#1738);
#1740=EDGE_CURVE('',#1735,#1727,#1739,.T.);
#1741=ORIENTED_EDGE('',*,*,#1740,.F.);
#1742=CARTESIAN_POINT('',(-2.205,-2.75,0.0));
#1743=DIRECTION('',(0.0,1.0,0.0));
#1744=VECTOR('',#1743,5.5);
#1745=LINE('',#1742,#1744);
#1746=EDGE_CURVE('',#1704,#1735,#1745,.T.);
#1747=ORIENTED_EDGE('',*,*,#1746,.F.);
#1748=ORIENTED_EDGE('',*,*,#1709,.T.);
#1749=EDGE_LOOP('',(#1733,#1741,#1747,#1748));
#1750=FACE_OUTER_BOUND('',#1749,.T.);
#1751=ADVANCED_FACE('',(#1750),#1725,.T.);
#1752=CARTESIAN_POINT('',(-2.205,2.75,0.0));
#1753=DIRECTION('',(0.0,1.0,0.0));
#1754=DIRECTION('',(0.0,0.0,1.0));
#1755=AXIS2_PLACEMENT_3D('',#1752,#1753,#1754);
#1756=PLANE('',#1755);
#1757=CARTESIAN_POINT('',(-2.205,2.75,0.5));
#1758=DIRECTION('',(1.0,0.0,0.0));
#1759=VECTOR('',#1758,4.41);
#1760=LINE('',#1757,#1759);
#1761=EDGE_CURVE('',#1727,#1656,#1760,.T.);
#1762=ORIENTED_EDGE('',*,*,#1761,.T.);
#1763=ORIENTED_EDGE('',*,*,#1685,.F.);
#1764=CARTESIAN_POINT('',(-2.205,2.75,0.0));
#1765=DIRECTION('',(1.0,0.0,0.0));
#1766=VECTOR('',#1765,4.41);
#1767=LINE('',#1764,#1766);
#1768=EDGE_CURVE('',#1735,#1674,#1767,.T.);
#1769=ORIENTED_EDGE('',*,*,#1768,.F.);
#1770=ORIENTED_EDGE('',*,*,#1740,.T.);
#1771=EDGE_LOOP('',(#1762,#1763,#1769,#1770));
#1772=FACE_OUTER_BOUND('',#1771,.T.);
#1773=ADVANCED_FACE('',(#1772),#1756,.T.);
#1774=CARTESIAN_POINT('',(0.0,-1.034905E-015,0.5));
#1775=DIRECTION('',(0.0,0.0,1.0));
#1776=DIRECTION('',(1.0,0.0,0.0));
#1777=AXIS2_PLACEMENT_3D('',#1774,#1775,#1776);
#1778=PLANE('',#1777);
#1779=ORIENTED_EDGE('',*,*,#1663,.F.);
#1780=ORIENTED_EDGE('',*,*,#1761,.F.);
#1781=ORIENTED_EDGE('',*,*,#1732,.F.);
#1782=ORIENTED_EDGE('',*,*,#1701,.F.);
#1783=EDGE_LOOP('',(#1779,#1780,#1781,#1782));
#1784=FACE_OUTER_BOUND('',#1783,.T.);
#1785=ADVANCED_FACE('',(#1784),#1778,.T.);
#1786=CARTESIAN_POINT('',(0.0,-1.034905E-015,0.0));
#1787=DIRECTION('',(0.0,0.0,1.0));
#1788=DIRECTION('',(1.0,0.0,0.0));
#1789=AXIS2_PLACEMENT_3D('',#1786,#1787,#1788);
#1790=PLANE('',#1789);
#1791=ORIENTED_EDGE('',*,*,#1768,.T.);
#1792=ORIENTED_EDGE('',*,*,#1679,.T.);
#1793=ORIENTED_EDGE('',*,*,#1715,.T.);
#1794=ORIENTED_EDGE('',*,*,#1746,.T.);
#1795=EDGE_LOOP('',(#1791,#1792,#1793,#1794));
#1796=FACE_OUTER_BOUND('',#1795,.T.);
#1797=ADVANCED_FACE('',(#1796),#1790,.F.);
#1798=CLOSED_SHELL('',(#1689,#1720,#1751,#1773,#1785,#1797));
#1799=MANIFOLD_SOLID_BREP('2BB4',#1798);
#1800=STYLED_ITEM('NONE',(#1401),#1799);
#1801=CARTESIAN_POINT('',(0.0,0.0,0.0));
#1802=DIRECTION('',(1.0,0.0,0.0));
#1803=VECTOR('',#1802,0.5);
#1804=LINE('',#1801,#1803);
#1805=CARTESIAN_POINT('',(0.5,-6.123234E-017,0.0));
#1806=TRIMMED_CURVE('2298',#1804,(PARAMETER_VALUE(0.0),#1801),(PARAMETER_VALUE(1.0),#1805),.T.,.PARAMETER.);
#1807=COLOUR_RGB('44',0.5,0.375,0.0);
#1808=CURVE_STYLE('NONE',#1809,POSITIVE_LENGTH_MEASURE(0.2),#1807);
#1809=DRAUGHTING_PRE_DEFINED_CURVE_FONT('continuous');
#1810=PRESENTATION_STYLE_ASSIGNMENT((#1808));
#1811=STYLED_ITEM('NONE',(#1810),#1806);
#1812=PRESENTATION_LAYER_ASSIGNMENT('Mechanical 8','None',(#1806,#1818,#1825,#1832));
#1813=CARTESIAN_POINT('',(0.0,0.0,0.0));
#1814=DIRECTION('',(0.0,-1.0,0.0));
#1815=VECTOR('',#1814,0.5);
#1816=LINE('',#1813,#1815);
#1817=CARTESIAN_POINT('',(-6.123234E-017,-0.5,0.0));
#1818=TRIMMED_CURVE('2297',#1816,(PARAMETER_VALUE(0.0),#1813),(PARAMETER_VALUE(1.0),#1817),.T.,.PARAMETER.);
#1819=STYLED_ITEM('NONE',(#1810),#1818);
#1820=CARTESIAN_POINT('',(0.0,0.0,0.0));
#1821=DIRECTION('',(0.0,1.0,0.0));
#1822=VECTOR('',#1821,0.5);
#1823=LINE('',#1820,#1822);
#1824=CARTESIAN_POINT('',(6.123234E-017,0.5,0.0));
#1825=TRIMMED_CURVE('2296',#1823,(PARAMETER_VALUE(0.0),#1820),(PARAMETER_VALUE(1.0),#1824),.T.,.PARAMETER.);
#1826=STYLED_ITEM('NONE',(#1810),#1825);
#1827=CARTESIAN_POINT('',(-0.5,6.123234E-017,0.0));
#1828=DIRECTION('',(1.0,0.0,0.0));
#1829=VECTOR('',#1828,0.5);
#1830=LINE('',#1827,#1829);
#1831=CARTESIAN_POINT('',(0.0,0.0,0.0));
#1832=TRIMMED_CURVE('2295',#1830,(PARAMETER_VALUE(0.0),#1827),(PARAMETER_VALUE(1.0),#1831),.T.,.PARAMETER.);
#1833=STYLED_ITEM('NONE',(#1810),#1832);
#1834=ADVANCED_BREP_SHAPE_REPRESENTATION('ABSR1',(#214,#978,#1394,#1648,#1799),#28);
#1835=SHAPE_REPRESENTATION_RELATIONSHIP('SRRPL1','',#1834,#62);
#1836=GEOMETRIC_CURVE_SET('GCS1',(#1806,#1818,#1825,#1832));
#1837=GEOMETRICALLY_BOUNDED_WIREFRAME_SHAPE_REPRESENTATION('GBWSR1',(#1836),#28);
#1838=SHAPE_REPRESENTATION_RELATIONSHIP('SRRPL2','',#1837,#62);
ENDSEC;
END-ISO-10303-21;
