ISO-10303-21;
HEADER;
/****************************************************************
 * Generated by software with PDE/Lib inside                    *
 * PDE/Lib Version 3.2.2, created Thu Mar 23, 2000 at 18:38:49  *
 * International Technegroup Inc. (www.iti-oh.com)              *
 ****************************************************************/
FILE_DESCRIPTION((''),'2;1');
FILE_NAME('DO-41.stp','2009-03-09T12:11:51',(''),(''),'Mechanical Desktop 2006','Mechanical Desktop 2006',', , ');
FILE_SCHEMA(('AUTOMOTIVE_DESIGN { 1 2 10303 214 0 1 1 1 }'));
ENDSEC;
DATA;
#8=(NAMED_UNIT(*)PLANE_ANGLE_UNIT()SI_UNIT($,.RADIAN.));
#9=DIMENSIONAL_EXPONENTS(0.0,0.0,0.0,0.0,0.0,0.0,0.0);
#10=PLANE_ANGLE_MEASURE_WITH_UNIT(PLANE_ANGLE_MEASURE(0.017453292500000),#8);
#14=(CONVERSION_BASED_UNIT('DEGREE',#10)NAMED_UNIT(#9)PLANE_ANGLE_UNIT());
#18=(NAMED_UNIT(*)SI_UNIT($,.STERADIAN.)SOLID_ANGLE_UNIT());
#22=(LENGTH_UNIT()NAMED_UNIT(*)SI_UNIT(.MILLI.,.METRE.));
#23=UNCERTAINTY_MEASURE_WITH_UNIT(LENGTH_MEASURE(0.000001000000000),#22,'DISTANCE_ACCURACY_VALUE','');
#28=(GEOMETRIC_REPRESENTATION_CONTEXT(3)GLOBAL_UNCERTAINTY_ASSIGNED_CONTEXT((#23))GLOBAL_UNIT_ASSIGNED_CONTEXT((#14,#18,#22))REPRESENTATION_CONTEXT('None','None'));
#29=APPLICATION_CONTEXT('automotive design');
#30=APPLICATION_PROTOCOL_DEFINITION('DRAFT_INTERNATIONAL_STANDARD','automotive_design',1998,#29);
#31=PRODUCT_CONTEXT('3D Mechanical Parts',#29,'mechanical');
#32=PRODUCT('Product','Product','',(#31));
#33=PRODUCT_RELATED_PRODUCT_CATEGORY('part',$,(#32));
#34=PRODUCT_CATEGORY('part',$);
#35=PERSON('1','Design','Joe',$,$,$);
#36=ORGANIZATION($,'None','None');
#37=PERSON_AND_ORGANIZATION(#35,#36);
#38=PERSON_AND_ORGANIZATION_ROLE('design_owner');
#39=APPLIED_PERSON_AND_ORGANIZATION_ASSIGNMENT(#37,#38,(#32));
#40=PRODUCT_DEFINITION_FORMATION_WITH_SPECIFIED_SOURCE('None','',#32,.BOUGHT.);
#41=PERSON('2','Creator','Joe',$,$,$);
#42=ORGANIZATION($,'None','None');
#43=PERSON_AND_ORGANIZATION(#41,#42);
#44=PERSON_AND_ORGANIZATION_ROLE('creator');
#45=APPLIED_PERSON_AND_ORGANIZATION_ASSIGNMENT(#43,#44,(#40));
#46=PERSON('3','Supplier','Joe',$,$,$);
#47=ORGANIZATION($,'None','None');
#48=PERSON_AND_ORGANIZATION(#46,#47);
#49=PERSON_AND_ORGANIZATION_ROLE('design_supplier');
#50=APPLIED_PERSON_AND_ORGANIZATION_ASSIGNMENT(#48,#49,(#40));
#51=PRODUCT_DEFINITION_CONTEXT('part definition',#29,'design');
#52=PRODUCT_DEFINITION('None','',#40,#51);
#53=PERSON('4','Creator','Joe',$,$,$);
#54=ORGANIZATION($,'None','None');
#55=PERSON_AND_ORGANIZATION(#53,#54);
#56=PERSON_AND_ORGANIZATION_ROLE('creator');
#57=APPLIED_PERSON_AND_ORGANIZATION_ASSIGNMENT(#55,#56,(#52));
#58=CARTESIAN_POINT('NONE',(0.0,0.0,0.0));
#59=DIRECTION('NONE',(0.0,0.0,1.0));
#60=DIRECTION('NONE',(1.0,0.0,0.0));
#61=AXIS2_PLACEMENT_3D('NONE',#58,#59,#60);
#62=SHAPE_REPRESENTATION('SR1',(#61),#28);
#63=PRODUCT_DEFINITION_SHAPE('PDS1','Test Part',#52);
#64=SHAPE_DEFINITION_REPRESENTATION(#63,#62);
#65=CARTESIAN_POINT('',(4.580000000000002,-1.283418E-015,-0.099999999999998));
#66=CARTESIAN_POINT('',(4.580000000000002,0.399999999999999,-0.099999999999999));
#67=CARTESIAN_POINT('',(4.580000000000002,0.399999999999999,0.300000000000002));
#68=CARTESIAN_POINT('',(4.580000000000002,0.399999999999999,0.700000000000002));
#69=CARTESIAN_POINT('',(4.580000000000002,-1.478683E-015,0.700000000000002));
#70=CARTESIAN_POINT('',(5.480000000000001,-1.483258E-015,-0.099999999999997));
#71=CARTESIAN_POINT('',(5.480000000000002,0.399999999999999,-0.099999999999997));
#72=CARTESIAN_POINT('',(5.080000000000002,0.399999999999999,0.300000000000003));
#73=CARTESIAN_POINT('',(4.680000000000002,0.399999999999999,0.700000000000003));
#74=CARTESIAN_POINT('',(4.680000000000002,-1.500887E-015,0.700000000000003));
#75=CARTESIAN_POINT('',(5.480000000000001,-1.683098E-015,0.800000000000003));
#76=CARTESIAN_POINT('',(5.480000000000001,0.399999999999999,0.800000000000003));
#77=CARTESIAN_POINT('',(5.080000000000001,0.399999999999999,0.800000000000003));
#78=CARTESIAN_POINT('',(4.680000000000001,0.399999999999999,0.800000000000003));
#79=CARTESIAN_POINT('',(4.680000000000001,-1.523092E-015,0.800000000000003));
#80=CARTESIAN_POINT('',(5.480000000000000,-1.882938E-015,1.700000000000002));
#81=CARTESIAN_POINT('',(5.480000000000000,0.399999999999998,1.700000000000003));
#82=CARTESIAN_POINT('',(5.080000000000000,0.399999999999999,1.300000000000003));
#83=CARTESIAN_POINT('',(4.680000000000000,0.399999999999999,0.900000000000002));
#84=CARTESIAN_POINT('',(4.680000000000000,-1.545296E-015,0.900000000000003));
#85=CARTESIAN_POINT('',(4.580000000000000,-1.683098E-015,1.700000000000002));
#86=CARTESIAN_POINT('',(4.580000000000000,0.399999999999999,1.700000000000002));
#87=CARTESIAN_POINT('',(4.580000000000000,0.399999999999999,1.300000000000002));
#88=CARTESIAN_POINT('',(4.580000000000000,0.399999999999999,0.900000000000001));
#89=CARTESIAN_POINT('',(4.580000000000000,-1.523092E-015,0.900000000000002));
#90=CARTESIAN_POINT('',(3.680000000000000,-1.483258E-015,1.700000000000001));
#91=CARTESIAN_POINT('',(3.680000000000000,0.399999999999999,1.700000000000001));
#92=CARTESIAN_POINT('',(4.080000000000000,0.399999999999999,1.300000000000001));
#93=CARTESIAN_POINT('',(4.480000000000000,0.399999999999999,0.900000000000001));
#94=CARTESIAN_POINT('',(4.480000000000000,-1.500887E-015,0.900000000000001));
#95=CARTESIAN_POINT('',(3.680000000000001,-1.283418E-015,0.800000000000001));
#96=CARTESIAN_POINT('',(3.680000000000001,0.399999999999999,0.800000000000001));
#97=CARTESIAN_POINT('',(4.080000000000001,0.399999999999999,0.800000000000001));
#98=CARTESIAN_POINT('',(4.480000000000001,0.399999999999999,0.800000000000001));
#99=CARTESIAN_POINT('',(4.480000000000001,-1.478683E-015,0.800000000000001));
#100=CARTESIAN_POINT('',(3.680000000000002,-1.083578E-015,-0.099999999999999));
#101=CARTESIAN_POINT('',(3.680000000000002,0.399999999999999,-0.099999999999999));
#102=CARTESIAN_POINT('',(4.080000000000002,0.399999999999999,0.300000000000001));
#103=CARTESIAN_POINT('',(4.480000000000002,0.399999999999999,0.700000000000001));
#104=CARTESIAN_POINT('',(4.480000000000002,-1.456478E-015,0.700000000000001));
#105=CARTESIAN_POINT('',(4.580000000000002,-1.283418E-015,-0.099999999999998));
#106=CARTESIAN_POINT('',(4.580000000000002,0.399999999999999,-0.099999999999999));
#107=CARTESIAN_POINT('',(4.580000000000002,0.399999999999999,0.300000000000002));
#108=CARTESIAN_POINT('',(4.580000000000002,0.399999999999999,0.700000000000002));
#109=CARTESIAN_POINT('',(4.580000000000002,-1.478683E-015,0.700000000000002));
#117=(BOUNDED_SURFACE()B_SPLINE_SURFACE(2,2,((#65,#70,#75,#80,#85,#90,#95,#100,#105),(#66,#71,#76,#81,#86,#91,#96,#101,#106),(#67,#72,#77,#82,#87,#92,#97,#102,#107),(#68,#73,#78,#83,#88,#93,#98,#103,#108),(#69,#74,#79,#84,#89,#94,#99,#104,#109)),.UNSPECIFIED.,.F.,.T.,.U.)B_SPLINE_SURFACE_WITH_KNOTS((3,2,3),(3,2,2,2,3),(-7.216450E-016,1.570796326794897,3.141592653589794),(0.0,1.570796326794897,3.141592653589793,4.712388980384690,6.283185307179586),.UNSPECIFIED.)GEOMETRIC_REPRESENTATION_ITEM()RATIONAL_B_SPLINE_SURFACE(((1.0,0.707106781186548,1.0,0.707106781186548,1.0,0.707106781186548,1.0,0.707106781186548,1.0),(0.707106781186547,0.500000000000000,0.707106781186547,0.500000000000000,0.707106781186547,0.500000000000000,0.707106781186547,0.500000000000000,0.707106781186547),(1.0,0.707106781186548,1.0,0.707106781186548,1.0,0.707106781186548,1.0,0.707106781186548,1.0),(0.707106781186547,0.500000000000000,0.707106781186547,0.500000000000000,0.707106781186547,0.500000000000000,0.707106781186547,0.500000000000000,0.707106781186547),(1.0,0.707106781186548,1.0,0.707106781186548,1.0,0.707106781186548,1.0,0.707106781186548,1.0)))REPRESENTATION_ITEM('')SURFACE());
#118=CARTESIAN_POINT('',(5.480000000000001,-1.483258E-015,0.800000000000002));
#119=VERTEX_POINT('',#118);
#120=CARTESIAN_POINT('',(4.580000000000000,-1.483258E-015,1.700000000000002));
#121=VERTEX_POINT('',#120);
#122=CARTESIAN_POINT('',(4.580000000000001,-1.145616E-015,0.800000000000002));
#123=DIRECTION('',(0.0,-1.0,0.0));
#124=DIRECTION('',(0.0,0.0,1.0));
#125=AXIS2_PLACEMENT_3D('',#122,#123,#124);
#126=CIRCLE('',#125,0.900000000000000);
#127=EDGE_CURVE('',#119,#121,#126,.T.);
#128=ORIENTED_EDGE('',*,*,#127,.F.);
#129=CARTESIAN_POINT('',(4.680000000000001,-1.176971E-015,0.800000000000002));
#130=VERTEX_POINT('',#129);
#131=CARTESIAN_POINT('',(5.080000000000001,-1.305622E-015,0.800000000000002));
#132=DIRECTION('',(0.0,0.0,1.0));
#133=DIRECTION('',(1.0,0.0,0.0));
#134=AXIS2_PLACEMENT_3D('',#131,#132,#133);
#135=CIRCLE('',#134,0.400000000000000);
#136=EDGE_CURVE('',#119,#130,#135,.T.);
#137=ORIENTED_EDGE('',*,*,#136,.T.);
#138=CARTESIAN_POINT('',(4.580000000000000,-1.176971E-015,0.900000000000002));
#139=VERTEX_POINT('',#138);
#140=CARTESIAN_POINT('',(4.580000000000001,-1.145616E-015,0.800000000000002));
#141=DIRECTION('',(0.0,1.0,0.0));
#142=DIRECTION('',(0.0,0.0,1.0));
#143=AXIS2_PLACEMENT_3D('',#140,#141,#142);
#144=CIRCLE('',#143,0.100000000000000);
#145=EDGE_CURVE('',#139,#130,#144,.T.);
#146=ORIENTED_EDGE('',*,*,#145,.F.);
#147=CARTESIAN_POINT('',(4.580000000000001,-1.305622E-015,1.300000000000002));
#148=DIRECTION('',(-1.0,0.0,0.0));
#149=DIRECTION('',(0.0,0.0,1.0));
#150=AXIS2_PLACEMENT_3D('',#147,#148,#149);
#151=CIRCLE('',#150,0.400000000000000);
#152=EDGE_CURVE('',#121,#139,#151,.T.);
#153=ORIENTED_EDGE('',*,*,#152,.F.);
#154=EDGE_LOOP('',(#128,#137,#146,#153));
#155=FACE_OUTER_BOUND('',#154,.T.);
#156=ADVANCED_FACE('',(#155),#117,.T.);
#157=CARTESIAN_POINT('',(4.679999999999999,-1.908239E-016,-3.199999999999996));
#158=CARTESIAN_POINT('',(4.680000000000001,-1.079002E-015,0.800000000000003));
#159=CARTESIAN_POINT('',(4.679999999999999,0.400000000000000,-3.199999999999996));
#160=CARTESIAN_POINT('',(4.680000000000001,0.399999999999999,0.800000000000003));
#161=CARTESIAN_POINT('',(5.079999999999999,0.400000000000000,-3.199999999999996));
#162=CARTESIAN_POINT('',(5.080000000000001,0.399999999999999,0.800000000000003));
#163=CARTESIAN_POINT('',(5.480000000000000,0.400000000000000,-3.199999999999996));
#164=CARTESIAN_POINT('',(5.480000000000001,0.399999999999999,0.800000000000003));
#165=CARTESIAN_POINT('',(5.480000000000000,-6.440638E-016,-3.199999999999996));
#166=CARTESIAN_POINT('',(5.480000000000001,-1.532242E-015,0.800000000000003));
#167=CARTESIAN_POINT('',(5.480000000000000,-0.400000000000001,-3.199999999999996));
#168=CARTESIAN_POINT('',(5.480000000000001,-0.400000000000002,0.800000000000003));
#169=CARTESIAN_POINT('',(5.079999999999999,-0.400000000000001,-3.199999999999996));
#170=CARTESIAN_POINT('',(5.080000000000001,-0.400000000000002,0.800000000000003));
#171=CARTESIAN_POINT('',(4.679999999999999,-0.400000000000000,-3.199999999999996));
#172=CARTESIAN_POINT('',(4.680000000000001,-0.400000000000001,0.800000000000003));
#173=CARTESIAN_POINT('',(4.679999999999999,-1.908239E-016,-3.199999999999996));
#174=CARTESIAN_POINT('',(4.680000000000001,-1.079002E-015,0.800000000000003));
#182=(BOUNDED_SURFACE()B_SPLINE_SURFACE(1,2,((#157,#159,#161,#163,#165,#167,#169,#171,#173),(#158,#160,#162,#164,#166,#168,#170,#172,#174)),.UNSPECIFIED.,.F.,.T.,.U.)B_SPLINE_SURFACE_WITH_KNOTS((2,2),(3,2,2,2,3),(-1.110223E-015,9.999999999999995),(0.0,0.628318530717959,1.256637061435917,1.884955592153876,2.513274122871835),.UNSPECIFIED.)GEOMETRIC_REPRESENTATION_ITEM()RATIONAL_B_SPLINE_SURFACE(((1.0,0.707106781186548,1.0,0.707106781186548,1.0,0.707106781186548,1.0,0.707106781186548,1.0),(1.0,0.707106781186548,1.0,0.707106781186548,1.0,0.707106781186548,1.0,0.707106781186548,1.0)))REPRESENTATION_ITEM('')SURFACE());
#183=CARTESIAN_POINT('',(5.480000000000000,-5.950795E-016,-3.199999999999995));
#184=VERTEX_POINT('',#183);
#185=CARTESIAN_POINT('',(5.480000000000000,-5.950795E-016,-3.199999999999995));
#186=DIRECTION('',(0.0,0.0,1.0));
#187=VECTOR('',#186,3.999999999999997);
#188=LINE('',#185,#187);
#189=EDGE_CURVE('',#184,#119,#188,.T.);
#190=ORIENTED_EDGE('',*,*,#189,.F.);
#191=CARTESIAN_POINT('',(4.679999999999999,-2.887924E-016,-3.199999999999995));
#192=VERTEX_POINT('',#191);
#193=CARTESIAN_POINT('',(5.079999999999999,-4.174439E-016,-3.199999999999995));
#194=DIRECTION('',(0.0,0.0,1.0));
#195=DIRECTION('',(1.0,0.0,0.0));
#196=AXIS2_PLACEMENT_3D('',#193,#194,#195);
#197=CIRCLE('',#196,0.400000000000000);
#198=EDGE_CURVE('',#184,#192,#197,.T.);
#199=ORIENTED_EDGE('',*,*,#198,.T.);
#200=CARTESIAN_POINT('',(4.680000000000001,-1.176971E-015,0.800000000000002));
#201=DIRECTION('',(0.0,0.0,-1.0));
#202=VECTOR('',#201,3.999999999999997);
#203=LINE('',#200,#202);
#204=EDGE_CURVE('',#130,#192,#203,.T.);
#205=ORIENTED_EDGE('',*,*,#204,.F.);
#206=ORIENTED_EDGE('',*,*,#136,.F.);
#207=EDGE_LOOP('',(#190,#199,#205,#206));
#208=FACE_OUTER_BOUND('',#207,.T.);
#209=ADVANCED_FACE('',(#208),#182,.T.);
#210=CARTESIAN_POINT('',(4.580000000000001,-1.079002E-015,0.900000000000002));
#211=CARTESIAN_POINT('',(2.400000000000000,-5.949451E-016,0.900000000000002));
#212=CARTESIAN_POINT('',(4.580000000000001,0.399999999999999,0.900000000000002));
#213=CARTESIAN_POINT('',(2.400000000000000,0.399999999999999,0.900000000000002));
#214=CARTESIAN_POINT('',(4.580000000000001,0.399999999999999,1.300000000000002));
#215=CARTESIAN_POINT('',(2.400000000000000,0.399999999999999,1.300000000000002));
#216=CARTESIAN_POINT('',(4.580000000000001,0.399999999999998,1.700000000000002));
#217=CARTESIAN_POINT('',(2.400000000000000,0.399999999999999,1.700000000000002));
#218=CARTESIAN_POINT('',(4.580000000000001,-1.532242E-015,1.700000000000002));
#219=CARTESIAN_POINT('',(2.400000000000000,-1.048185E-015,1.700000000000002));
#220=CARTESIAN_POINT('',(4.580000000000001,-0.400000000000001,1.700000000000002));
#221=CARTESIAN_POINT('',(2.400000000000000,-0.400000000000001,1.700000000000002));
#222=CARTESIAN_POINT('',(4.580000000000001,-0.400000000000001,1.300000000000002));
#223=CARTESIAN_POINT('',(2.400000000000000,-0.400000000000001,1.300000000000002));
#224=CARTESIAN_POINT('',(4.580000000000001,-0.400000000000001,0.900000000000002));
#225=CARTESIAN_POINT('',(2.400000000000000,-0.400000000000000,0.900000000000002));
#226=CARTESIAN_POINT('',(4.580000000000001,-1.079002E-015,0.900000000000002));
#227=CARTESIAN_POINT('',(2.400000000000000,-5.949451E-016,0.900000000000002));
#235=(BOUNDED_SURFACE()B_SPLINE_SURFACE(1,2,((#210,#212,#214,#216,#218,#220,#222,#224,#226),(#211,#213,#215,#217,#219,#221,#223,#225,#227)),.UNSPECIFIED.,.F.,.T.,.U.)B_SPLINE_SURFACE_WITH_KNOTS((2,2),(3,2,2,2,3),(0.0,5.450000000000004),(0.0,0.628318530717959,1.256637061435917,1.884955592153876,2.513274122871835),.UNSPECIFIED.)GEOMETRIC_REPRESENTATION_ITEM()RATIONAL_B_SPLINE_SURFACE(((1.0,0.707106781186548,1.0,0.707106781186548,1.0,0.707106781186548,1.0,0.707106781186548,1.0),(1.0,0.707106781186548,1.0,0.707106781186548,1.0,0.707106781186548,1.0,0.707106781186548,1.0)))REPRESENTATION_ITEM('')SURFACE());
#236=CARTESIAN_POINT('',(2.400000000000000,-9.992007E-016,1.700000000000002));
#237=VERTEX_POINT('',#236);
#238=CARTESIAN_POINT('',(4.580000000000000,-1.483258E-015,1.700000000000002));
#239=DIRECTION('',(-1.0,0.0,0.0));
#240=VECTOR('',#239,2.180000000000000);
#241=LINE('',#238,#240);
#242=EDGE_CURVE('',#121,#237,#241,.T.);
#243=ORIENTED_EDGE('',*,*,#242,.F.);
#244=ORIENTED_EDGE('',*,*,#152,.T.);
#245=CARTESIAN_POINT('',(2.400000000000001,-6.929136E-016,0.900000000000002));
#246=VERTEX_POINT('',#245);
#247=CARTESIAN_POINT('',(2.400000000000001,-6.929136E-016,0.900000000000002));
#248=DIRECTION('',(1.0,0.0,0.0));
#249=VECTOR('',#248,2.179999999999999);
#250=LINE('',#247,#249);
#251=EDGE_CURVE('',#246,#139,#250,.T.);
#252=ORIENTED_EDGE('',*,*,#251,.F.);
#253=CARTESIAN_POINT('',(2.400000000000000,-8.215650E-016,1.300000000000002));
#254=DIRECTION('',(-1.0,0.0,0.0));
#255=DIRECTION('',(0.0,0.0,1.0));
#256=AXIS2_PLACEMENT_3D('',#253,#254,#255);
#257=CIRCLE('',#256,0.400000000000000);
#258=EDGE_CURVE('',#237,#246,#257,.T.);
#259=ORIENTED_EDGE('',*,*,#258,.F.);
#260=EDGE_LOOP('',(#243,#244,#252,#259));
#261=FACE_OUTER_BOUND('',#260,.T.);
#262=ADVANCED_FACE('',(#261),#235,.T.);
#263=CARTESIAN_POINT('',(4.580000000000001,-1.079002E-015,0.900000000000002));
#264=CARTESIAN_POINT('',(2.400000000000000,-5.949451E-016,0.900000000000002));
#265=CARTESIAN_POINT('',(4.580000000000001,0.399999999999999,0.900000000000002));
#266=CARTESIAN_POINT('',(2.400000000000000,0.399999999999999,0.900000000000002));
#267=CARTESIAN_POINT('',(4.580000000000001,0.399999999999999,1.300000000000002));
#268=CARTESIAN_POINT('',(2.400000000000000,0.399999999999999,1.300000000000002));
#269=CARTESIAN_POINT('',(4.580000000000001,0.399999999999998,1.700000000000002));
#270=CARTESIAN_POINT('',(2.400000000000000,0.399999999999999,1.700000000000002));
#271=CARTESIAN_POINT('',(4.580000000000001,-1.532242E-015,1.700000000000002));
#272=CARTESIAN_POINT('',(2.400000000000000,-1.048185E-015,1.700000000000002));
#273=CARTESIAN_POINT('',(4.580000000000001,-0.400000000000001,1.700000000000002));
#274=CARTESIAN_POINT('',(2.400000000000000,-0.400000000000001,1.700000000000002));
#275=CARTESIAN_POINT('',(4.580000000000001,-0.400000000000001,1.300000000000002));
#276=CARTESIAN_POINT('',(2.400000000000000,-0.400000000000001,1.300000000000002));
#277=CARTESIAN_POINT('',(4.580000000000001,-0.400000000000001,0.900000000000002));
#278=CARTESIAN_POINT('',(2.400000000000000,-0.400000000000000,0.900000000000002));
#279=CARTESIAN_POINT('',(4.580000000000001,-1.079002E-015,0.900000000000002));
#280=CARTESIAN_POINT('',(2.400000000000000,-5.949451E-016,0.900000000000002));
#288=(BOUNDED_SURFACE()B_SPLINE_SURFACE(1,2,((#263,#265,#267,#269,#271,#273,#275,#277,#279),(#264,#266,#268,#270,#272,#274,#276,#278,#280)),.UNSPECIFIED.,.F.,.T.,.U.)B_SPLINE_SURFACE_WITH_KNOTS((2,2),(3,2,2,2,3),(0.0,5.450000000000004),(0.0,0.628318530717959,1.256637061435917,1.884955592153876,2.513274122871835),.UNSPECIFIED.)GEOMETRIC_REPRESENTATION_ITEM()RATIONAL_B_SPLINE_SURFACE(((1.0,0.707106781186548,1.0,0.707106781186548,1.0,0.707106781186548,1.0,0.707106781186548,1.0),(1.0,0.707106781186548,1.0,0.707106781186548,1.0,0.707106781186548,1.0,0.707106781186548,1.0)))REPRESENTATION_ITEM('')SURFACE());
#289=ORIENTED_EDGE('',*,*,#242,.T.);
#290=CARTESIAN_POINT('',(2.400000000000000,-8.215650E-016,1.300000000000002));
#291=DIRECTION('',(-1.0,0.0,0.0));
#292=DIRECTION('',(0.0,0.0,1.0));
#293=AXIS2_PLACEMENT_3D('',#290,#291,#292);
#294=CIRCLE('',#293,0.400000000000000);
#295=EDGE_CURVE('',#246,#237,#294,.T.);
#296=ORIENTED_EDGE('',*,*,#295,.F.);
#297=ORIENTED_EDGE('',*,*,#251,.T.);
#298=CARTESIAN_POINT('',(4.580000000000001,-1.305622E-015,1.300000000000002));
#299=DIRECTION('',(-1.0,0.0,0.0));
#300=DIRECTION('',(0.0,0.0,1.0));
#301=AXIS2_PLACEMENT_3D('',#298,#299,#300);
#302=CIRCLE('',#301,0.400000000000000);
#303=EDGE_CURVE('',#139,#121,#302,.T.);
#304=ORIENTED_EDGE('',*,*,#303,.T.);
#305=EDGE_LOOP('',(#289,#296,#297,#304));
#306=FACE_OUTER_BOUND('',#305,.T.);
#307=ADVANCED_FACE('',(#306),#288,.T.);
#308=CARTESIAN_POINT('',(4.580000000000002,-8.661084E-016,0.700000000000002));
#309=CARTESIAN_POINT('',(4.580000000000002,-0.400000000000001,0.700000000000002));
#310=CARTESIAN_POINT('',(4.580000000000002,-0.400000000000001,0.300000000000002));
#311=CARTESIAN_POINT('',(4.580000000000002,-0.400000000000001,-0.099999999999999));
#312=CARTESIAN_POINT('',(4.580000000000002,-5.682997E-016,-0.099999999999998));
#313=CARTESIAN_POINT('',(4.680000000000002,-8.883129E-016,0.700000000000003));
#314=CARTESIAN_POINT('',(4.680000000000002,-0.400000000000001,0.700000000000003));
#315=CARTESIAN_POINT('',(5.080000000000002,-0.400000000000001,0.300000000000003));
#316=CARTESIAN_POINT('',(5.480000000000002,-0.400000000000001,-0.099999999999998));
#317=CARTESIAN_POINT('',(5.480000000000001,-7.681399E-016,-0.099999999999997));
#318=CARTESIAN_POINT('',(4.680000000000001,-9.105173E-016,0.800000000000003));
#319=CARTESIAN_POINT('',(4.680000000000001,-0.400000000000001,0.800000000000002));
#320=CARTESIAN_POINT('',(5.080000000000001,-0.400000000000001,0.800000000000002));
#321=CARTESIAN_POINT('',(5.480000000000001,-0.400000000000001,0.800000000000002));
#322=CARTESIAN_POINT('',(5.480000000000001,-9.679800E-016,0.800000000000003));
#323=CARTESIAN_POINT('',(4.680000000000000,-9.327218E-016,0.900000000000003));
#324=CARTESIAN_POINT('',(4.680000000000001,-0.400000000000001,0.900000000000002));
#325=CARTESIAN_POINT('',(5.080000000000000,-0.400000000000001,1.300000000000003));
#326=CARTESIAN_POINT('',(5.480000000000000,-0.400000000000002,1.700000000000003));
#327=CARTESIAN_POINT('',(5.480000000000000,-1.167820E-015,1.700000000000002));
#328=CARTESIAN_POINT('',(4.580000000000000,-9.105173E-016,0.900000000000002));
#329=CARTESIAN_POINT('',(4.580000000000000,-0.400000000000001,0.900000000000001));
#330=CARTESIAN_POINT('',(4.580000000000000,-0.400000000000001,1.300000000000002));
#331=CARTESIAN_POINT('',(4.580000000000000,-0.400000000000001,1.700000000000002));
#332=CARTESIAN_POINT('',(4.580000000000000,-9.679800E-016,1.700000000000002));
#333=CARTESIAN_POINT('',(4.480000000000000,-8.883129E-016,0.900000000000001));
#334=CARTESIAN_POINT('',(4.480000000000001,-0.400000000000001,0.900000000000000));
#335=CARTESIAN_POINT('',(4.080000000000000,-0.400000000000001,1.300000000000001));
#336=CARTESIAN_POINT('',(3.680000000000000,-0.400000000000001,1.700000000000001));
#337=CARTESIAN_POINT('',(3.680000000000000,-7.681399E-016,1.700000000000001));
#338=CARTESIAN_POINT('',(4.480000000000001,-8.661084E-016,0.800000000000001));
#339=CARTESIAN_POINT('',(4.480000000000001,-0.400000000000001,0.800000000000001));
#340=CARTESIAN_POINT('',(4.080000000000001,-0.400000000000001,0.800000000000001));
#341=CARTESIAN_POINT('',(3.680000000000001,-0.400000000000001,0.800000000000001));
#342=CARTESIAN_POINT('',(3.680000000000001,-5.682997E-016,0.800000000000001));
#343=CARTESIAN_POINT('',(4.480000000000002,-8.439039E-016,0.700000000000001));
#344=CARTESIAN_POINT('',(4.480000000000003,-0.400000000000001,0.700000000000001));
#345=CARTESIAN_POINT('',(4.080000000000002,-0.400000000000001,0.300000000000001));
#346=CARTESIAN_POINT('',(3.680000000000002,-0.400000000000001,-0.099999999999999));
#347=CARTESIAN_POINT('',(3.680000000000002,-3.684596E-016,-0.099999999999999));
#348=CARTESIAN_POINT('',(4.580000000000002,-8.661084E-016,0.700000000000002));
#349=CARTESIAN_POINT('',(4.580000000000002,-0.400000000000001,0.700000000000002));
#350=CARTESIAN_POINT('',(4.580000000000002,-0.400000000000001,0.300000000000002));
#351=CARTESIAN_POINT('',(4.580000000000002,-0.400000000000001,-0.099999999999999));
#352=CARTESIAN_POINT('',(4.580000000000002,-5.682997E-016,-0.099999999999998));
#360=(BOUNDED_SURFACE()B_SPLINE_SURFACE(2,2,((#308,#313,#318,#323,#328,#333,#338,#343,#348),(#309,#314,#319,#324,#329,#334,#339,#344,#349),(#310,#315,#320,#325,#330,#335,#340,#345,#350),(#311,#316,#321,#326,#331,#336,#341,#346,#351),(#312,#317,#322,#327,#332,#337,#342,#347,#352)),.UNSPECIFIED.,.F.,.T.,.U.)B_SPLINE_SURFACE_WITH_KNOTS((3,2,3),(3,2,2,2,3),(-3.141592653589794,-1.570796326794897,1.066150E-015),(0.0,1.570796326794897,3.141592653589793,4.712388980384690,6.283185307179586),.UNSPECIFIED.)GEOMETRIC_REPRESENTATION_ITEM()RATIONAL_B_SPLINE_SURFACE(((1.0,0.707106781186548,1.0,0.707106781186548,1.0,0.707106781186548,1.0,0.707106781186548,1.0),(0.707106781186547,0.499999999999999,0.707106781186547,0.499999999999999,0.707106781186547,0.499999999999999,0.707106781186547,0.499999999999999,0.707106781186547),(1.0,0.707106781186548,1.0,0.707106781186548,1.0,0.707106781186548,1.0,0.707106781186548,1.0),(0.707106781186547,0.500000000000000,0.707106781186547,0.500000000000000,0.707106781186547,0.500000000000000,0.707106781186547,0.500000000000000,0.707106781186547),(1.0,0.707106781186548,1.0,0.707106781186548,1.0,0.707106781186548,1.0,0.707106781186548,1.0)))REPRESENTATION_ITEM('')SURFACE());
#361=ORIENTED_EDGE('',*,*,#127,.T.);
#362=ORIENTED_EDGE('',*,*,#303,.F.);
#363=ORIENTED_EDGE('',*,*,#145,.T.);
#364=CARTESIAN_POINT('',(5.080000000000001,-1.305622E-015,0.800000000000002));
#365=DIRECTION('',(0.0,0.0,1.0));
#366=DIRECTION('',(1.0,0.0,0.0));
#367=AXIS2_PLACEMENT_3D('',#364,#365,#366);
#368=CIRCLE('',#367,0.400000000000000);
#369=EDGE_CURVE('',#130,#119,#368,.T.);
#370=ORIENTED_EDGE('',*,*,#369,.T.);
#371=EDGE_LOOP('',(#361,#362,#363,#370));
#372=FACE_OUTER_BOUND('',#371,.T.);
#373=ADVANCED_FACE('',(#372),#360,.T.);
#374=CARTESIAN_POINT('',(4.679999999999999,-1.908239E-016,-3.199999999999995));
#375=CARTESIAN_POINT('',(4.680000000000001,-1.079002E-015,0.800000000000003));
#376=CARTESIAN_POINT('',(4.679999999999999,0.400000000000000,-3.199999999999995));
#377=CARTESIAN_POINT('',(4.680000000000001,0.399999999999999,0.800000000000003));
#378=CARTESIAN_POINT('',(5.079999999999999,0.400000000000000,-3.199999999999995));
#379=CARTESIAN_POINT('',(5.080000000000001,0.399999999999999,0.800000000000003));
#380=CARTESIAN_POINT('',(5.480000000000000,0.400000000000000,-3.199999999999995));
#381=CARTESIAN_POINT('',(5.480000000000001,0.399999999999999,0.800000000000003));
#382=CARTESIAN_POINT('',(5.480000000000000,-6.440638E-016,-3.199999999999995));
#383=CARTESIAN_POINT('',(5.480000000000001,-1.532242E-015,0.800000000000003));
#384=CARTESIAN_POINT('',(5.480000000000000,-0.400000000000001,-3.199999999999995));
#385=CARTESIAN_POINT('',(5.480000000000001,-0.400000000000002,0.800000000000003));
#386=CARTESIAN_POINT('',(5.079999999999999,-0.400000000000001,-3.199999999999995));
#387=CARTESIAN_POINT('',(5.080000000000001,-0.400000000000002,0.800000000000003));
#388=CARTESIAN_POINT('',(4.679999999999999,-0.400000000000000,-3.199999999999995));
#389=CARTESIAN_POINT('',(4.680000000000001,-0.400000000000001,0.800000000000003));
#390=CARTESIAN_POINT('',(4.679999999999999,-1.908239E-016,-3.199999999999995));
#391=CARTESIAN_POINT('',(4.680000000000001,-1.079002E-015,0.800000000000003));
#399=(BOUNDED_SURFACE()B_SPLINE_SURFACE(1,2,((#374,#376,#378,#380,#382,#384,#386,#388,#390),(#375,#377,#379,#381,#383,#385,#387,#389,#391)),.UNSPECIFIED.,.F.,.T.,.U.)B_SPLINE_SURFACE_WITH_KNOTS((2,2),(3,2,2,2,3),(0.0,9.999999999999995),(0.0,0.628318530717959,1.256637061435917,1.884955592153876,2.513274122871835),.UNSPECIFIED.)GEOMETRIC_REPRESENTATION_ITEM()RATIONAL_B_SPLINE_SURFACE(((1.0,0.707106781186548,1.0,0.707106781186548,1.0,0.707106781186548,1.0,0.707106781186548,1.0),(1.0,0.707106781186548,1.0,0.707106781186548,1.0,0.707106781186548,1.0,0.707106781186548,1.0)))REPRESENTATION_ITEM('')SURFACE());
#400=ORIENTED_EDGE('',*,*,#189,.T.);
#401=ORIENTED_EDGE('',*,*,#369,.F.);
#402=ORIENTED_EDGE('',*,*,#204,.T.);
#403=CARTESIAN_POINT('',(5.079999999999999,-4.174439E-016,-3.199999999999995));
#404=DIRECTION('',(0.0,0.0,1.0));
#405=DIRECTION('',(1.0,0.0,0.0));
#406=AXIS2_PLACEMENT_3D('',#403,#404,#405);
#407=CIRCLE('',#406,0.400000000000000);
#408=EDGE_CURVE('',#192,#184,#407,.T.);
#409=ORIENTED_EDGE('',*,*,#408,.T.);
#410=EDGE_LOOP('',(#400,#401,#402,#409));
#411=FACE_OUTER_BOUND('',#410,.T.);
#412=ADVANCED_FACE('',(#411),#399,.T.);
#413=CARTESIAN_POINT('',(2.400000000000000,0.399999999999999,0.900000000000002));
#414=CARTESIAN_POINT('',(2.400000000000000,0.399999999999999,1.700000000000002));
#415=CARTESIAN_POINT('',(2.400000000000000,-0.400000000000001,0.900000000000002));
#416=CARTESIAN_POINT('',(2.400000000000000,-0.400000000000001,1.700000000000002));
#417=B_SPLINE_SURFACE_WITH_KNOTS('',1,1,((#413,#415),(#414,#416)),.UNSPECIFIED.,.F.,.F.,.U.,(2,2),(2,2),(0.0,0.800000000000000),(0.0,0.800000000000000),.UNSPECIFIED.);
#418=ORIENTED_EDGE('',*,*,#258,.T.);
#419=ORIENTED_EDGE('',*,*,#295,.T.);
#420=EDGE_LOOP('',(#418,#419));
#421=FACE_OUTER_BOUND('',#420,.T.);
#422=ADVANCED_FACE('',(#421),#417,.F.);
#423=CARTESIAN_POINT('',(4.679999999999999,0.400000000000000,-3.199999999999995));
#424=CARTESIAN_POINT('',(5.480000000000000,0.400000000000000,-3.199999999999995));
#425=CARTESIAN_POINT('',(4.679999999999999,-0.400000000000001,-3.199999999999995));
#426=CARTESIAN_POINT('',(5.480000000000000,-0.400000000000001,-3.199999999999994));
#427=B_SPLINE_SURFACE_WITH_KNOTS('',1,1,((#423,#425),(#424,#426)),.UNSPECIFIED.,.F.,.F.,.U.,(2,2),(2,2),(0.0,0.800000000000001),(0.0,0.800000000000000),.UNSPECIFIED.);
#428=ORIENTED_EDGE('',*,*,#198,.F.);
#429=ORIENTED_EDGE('',*,*,#408,.F.);
#430=EDGE_LOOP('',(#428,#429));
#431=FACE_OUTER_BOUND('',#430,.T.);
#432=ADVANCED_FACE('',(#431),#427,.T.);
#433=CLOSED_SHELL('',(#156,#209,#262,#307,#373,#412,#422,#432));
#434=MANIFOLD_SOLID_BREP('342',#433);
#435=COLOUR_RGB('254',0.866000000000000,0.866000000000000,0.866000000000000);
#436=SURFACE_STYLE_USAGE(.BOTH.,#437);
#437=SURFACE_SIDE_STYLE('NONE',(#438));
#438=SURFACE_STYLE_FILL_AREA(#439);
#439=FILL_AREA_STYLE('NONE',(#440));
#440=FILL_AREA_STYLE_COLOUR('NONE',#435);
#441=PRESENTATION_STYLE_ASSIGNMENT((#436));
#442=STYLED_ITEM('NONE',(#441),#434);
#443=MECHANICAL_DESIGN_GEOMETRIC_PRESENTATION_REPRESENTATION('NONE',(#442,#635,#731,#820,#916),#28);
#444=PRESENTATION_LAYER_ASSIGNMENT('0','None',(#434,#634,#723,#819,#908));
#445=CARTESIAN_POINT('',(-4.580000000000002,8.393286E-016,0.799999999999998));
#446=DIRECTION('',(2.220446E-016,1.0,2.220446E-016));
#447=DIRECTION('',(0.0,0.0,1.0));
#448=AXIS2_PLACEMENT_3D('',#445,#446,#447);
#449=TOROIDAL_SURFACE('',#448,0.500000000000000,0.400000000000000);
#450=CARTESIAN_POINT('',(-5.480000000000002,9.503509E-016,0.799999999999998));
#451=VERTEX_POINT('',#450);
#452=CARTESIAN_POINT('',(-4.580000000000002,5.506706E-016,1.699999999999998));
#453=VERTEX_POINT('',#452);
#454=CARTESIAN_POINT('',(-4.580000000000002,8.883129E-016,0.799999999999998));
#455=DIRECTION('',(0.0,1.0,0.0));
#456=DIRECTION('',(0.0,0.0,1.0));
#457=AXIS2_PLACEMENT_3D('',#454,#455,#456);
#458=CIRCLE('',#457,0.900000000000000);
#459=EDGE_CURVE('',#451,#453,#458,.T.);
#460=ORIENTED_EDGE('',*,*,#459,.F.);
#461=CARTESIAN_POINT('',(-4.680000000000002,9.013667E-016,0.799999999999998));
#462=VERTEX_POINT('',#461);
#463=CARTESIAN_POINT('',(-5.080000000000002,9.503509E-016,0.799999999999998));
#464=DIRECTION('',(0.0,0.0,-1.0));
#465=DIRECTION('',(-1.0,0.0,0.0));
#466=AXIS2_PLACEMENT_3D('',#463,#464,#465);
#467=CIRCLE('',#466,0.400000000000000);
#468=EDGE_CURVE('',#462,#451,#467,.T.);
#469=ORIENTED_EDGE('',*,*,#468,.F.);
#470=CARTESIAN_POINT('',(-4.580000000000002,8.569577E-016,0.899999999999998));
#471=VERTEX_POINT('',#470);
#472=CARTESIAN_POINT('',(-4.580000000000002,8.883129E-016,0.799999999999998));
#473=DIRECTION('',(0.0,-1.0,0.0));
#474=DIRECTION('',(0.0,0.0,1.0));
#475=AXIS2_PLACEMENT_3D('',#472,#473,#474);
#476=CIRCLE('',#475,0.100000000000000);
#477=EDGE_CURVE('',#471,#462,#476,.T.);
#478=ORIENTED_EDGE('',*,*,#477,.F.);
#479=CARTESIAN_POINT('',(-4.580000000000002,7.283063E-016,1.299999999999998));
#480=DIRECTION('',(-1.0,0.0,0.0));
#481=DIRECTION('',(0.0,0.0,1.0));
#482=AXIS2_PLACEMENT_3D('',#479,#480,#481);
#483=CIRCLE('',#482,0.400000000000000);
#484=EDGE_CURVE('',#471,#453,#483,.T.);
#485=ORIENTED_EDGE('',*,*,#484,.T.);
#486=EDGE_LOOP('',(#460,#469,#478,#485));
#487=FACE_OUTER_BOUND('',#486,.T.);
#488=ADVANCED_FACE('',(#487),#449,.T.);
#489=CARTESIAN_POINT('',(-5.079999999999997,1.838529E-015,-3.200000000000000));
#490=DIRECTION('',(-1.332268E-015,-2.220446E-016,1.0));
#491=DIRECTION('',(-1.0,0.0,0.0));
#492=AXIS2_PLACEMENT_3D('',#489,#490,#491);
#493=CYLINDRICAL_SURFACE('',#492,0.400000000000000);
#494=CARTESIAN_POINT('',(-5.479999999999997,1.838529E-015,-3.200000000000000));
#495=VERTEX_POINT('',#494);
#496=CARTESIAN_POINT('',(-5.479999999999997,1.838529E-015,-3.200000000000000));
#497=DIRECTION('',(0.0,0.0,1.0));
#498=VECTOR('',#497,3.999999999999997);
#499=LINE('',#496,#498);
#500=EDGE_CURVE('',#495,#451,#499,.T.);
#501=ORIENTED_EDGE('',*,*,#500,.F.);
#502=CARTESIAN_POINT('',(-4.679999999999996,1.789545E-015,-3.199999999999999));
#503=VERTEX_POINT('',#502);
#504=CARTESIAN_POINT('',(-5.079999999999997,1.838529E-015,-3.200000000000000));
#505=DIRECTION('',(0.0,0.0,-1.0));
#506=DIRECTION('',(-1.0,0.0,0.0));
#507=AXIS2_PLACEMENT_3D('',#504,#505,#506);
#508=CIRCLE('',#507,0.400000000000000);
#509=EDGE_CURVE('',#503,#495,#508,.T.);
#510=ORIENTED_EDGE('',*,*,#509,.F.);
#511=CARTESIAN_POINT('',(-4.680000000000002,9.013667E-016,0.799999999999998));
#512=DIRECTION('',(0.0,0.0,-1.0));
#513=VECTOR('',#512,3.999999999999997);
#514=LINE('',#511,#513);
#515=EDGE_CURVE('',#462,#503,#514,.T.);
#516=ORIENTED_EDGE('',*,*,#515,.F.);
#517=ORIENTED_EDGE('',*,*,#468,.T.);
#518=EDGE_LOOP('',(#501,#510,#516,#517));
#519=FACE_OUTER_BOUND('',#518,.T.);
#520=ADVANCED_FACE('',(#519),#493,.T.);
#521=CARTESIAN_POINT('',(-4.580000000000002,7.283063E-016,1.299999999999998));
#522=DIRECTION('',(1.0,-2.220446E-016,8.148426E-016));
#523=DIRECTION('',(0.0,0.0,1.0));
#524=AXIS2_PLACEMENT_3D('',#521,#522,#523);
#525=CYLINDRICAL_SURFACE('',#524,0.400000000000000);
#526=CARTESIAN_POINT('',(-2.400000000000002,6.661338E-017,1.700000000000000));
#527=VERTEX_POINT('',#526);
#528=CARTESIAN_POINT('',(-4.580000000000002,5.506706E-016,1.699999999999998));
#529=DIRECTION('',(1.0,0.0,0.0));
#530=VECTOR('',#529,2.180000000000000);
#531=LINE('',#528,#530);
#532=EDGE_CURVE('',#453,#527,#531,.T.);
#533=ORIENTED_EDGE('',*,*,#532,.F.);
#534=ORIENTED_EDGE('',*,*,#484,.F.);
#535=CARTESIAN_POINT('',(-2.400000000000001,3.729005E-016,0.900000000000000));
#536=VERTEX_POINT('',#535);
#537=CARTESIAN_POINT('',(-2.400000000000001,3.729005E-016,0.900000000000000));
#538=DIRECTION('',(-1.0,0.0,0.0));
#539=VECTOR('',#538,2.180000000000001);
#540=LINE('',#537,#539);
#541=EDGE_CURVE('',#536,#471,#540,.T.);
#542=ORIENTED_EDGE('',*,*,#541,.F.);
#543=CARTESIAN_POINT('',(-2.400000000000001,2.442491E-016,1.300000000000000));
#544=DIRECTION('',(-1.0,0.0,0.0));
#545=DIRECTION('',(0.0,0.0,1.0));
#546=AXIS2_PLACEMENT_3D('',#543,#544,#545);
#547=CIRCLE('',#546,0.400000000000000);
#548=EDGE_CURVE('',#536,#527,#547,.T.);
#549=ORIENTED_EDGE('',*,*,#548,.T.);
#550=EDGE_LOOP('',(#533,#534,#542,#549));
#551=FACE_OUTER_BOUND('',#550,.T.);
#552=ADVANCED_FACE('',(#551),#525,.T.);
#553=CARTESIAN_POINT('',(-4.580000000000002,7.283063E-016,1.299999999999998));
#554=DIRECTION('',(1.0,-2.220446E-016,8.148426E-016));
#555=DIRECTION('',(0.0,0.0,1.0));
#556=AXIS2_PLACEMENT_3D('',#553,#554,#555);
#557=CYLINDRICAL_SURFACE('',#556,0.400000000000000);
#558=ORIENTED_EDGE('',*,*,#532,.T.);
#559=CARTESIAN_POINT('',(-2.400000000000001,2.442491E-016,1.300000000000000));
#560=DIRECTION('',(-1.0,0.0,0.0));
#561=DIRECTION('',(0.0,0.0,1.0));
#562=AXIS2_PLACEMENT_3D('',#559,#560,#561);
#563=CIRCLE('',#562,0.400000000000000);
#564=EDGE_CURVE('',#527,#536,#563,.T.);
#565=ORIENTED_EDGE('',*,*,#564,.T.);
#566=ORIENTED_EDGE('',*,*,#541,.T.);
#567=CARTESIAN_POINT('',(-4.580000000000002,7.283063E-016,1.299999999999998));
#568=DIRECTION('',(-1.0,0.0,0.0));
#569=DIRECTION('',(0.0,0.0,1.0));
#570=AXIS2_PLACEMENT_3D('',#567,#568,#569);
#571=CIRCLE('',#570,0.400000000000000);
#572=EDGE_CURVE('',#453,#471,#571,.T.);
#573=ORIENTED_EDGE('',*,*,#572,.F.);
#574=EDGE_LOOP('',(#558,#565,#566,#573));
#575=FACE_OUTER_BOUND('',#574,.T.);
#576=ADVANCED_FACE('',(#575),#557,.T.);
#577=CARTESIAN_POINT('',(-4.580000000000002,8.393286E-016,0.799999999999998));
#578=DIRECTION('',(2.220446E-016,1.0,2.220446E-016));
#579=DIRECTION('',(0.0,0.0,1.0));
#580=AXIS2_PLACEMENT_3D('',#577,#578,#579);
#581=TOROIDAL_SURFACE('',#580,0.500000000000000,0.400000000000000);
#582=ORIENTED_EDGE('',*,*,#459,.T.);
#583=ORIENTED_EDGE('',*,*,#572,.T.);
#584=ORIENTED_EDGE('',*,*,#477,.T.);
#585=CARTESIAN_POINT('',(-5.080000000000002,9.503509E-016,0.799999999999998));
#586=DIRECTION('',(0.0,0.0,-1.0));
#587=DIRECTION('',(-1.0,0.0,0.0));
#588=AXIS2_PLACEMENT_3D('',#585,#586,#587);
#589=CIRCLE('',#588,0.400000000000000);
#590=EDGE_CURVE('',#451,#462,#589,.T.);
#591=ORIENTED_EDGE('',*,*,#590,.F.);
#592=EDGE_LOOP('',(#582,#583,#584,#591));
#593=FACE_OUTER_BOUND('',#592,.T.);
#594=ADVANCED_FACE('',(#593),#581,.T.);
#595=CARTESIAN_POINT('',(-5.079999999999997,1.838529E-015,-3.200000000000000));
#596=DIRECTION('',(-1.332268E-015,-2.220446E-016,1.0));
#597=DIRECTION('',(-1.0,0.0,0.0));
#598=AXIS2_PLACEMENT_3D('',#595,#596,#597);
#599=CYLINDRICAL_SURFACE('',#598,0.400000000000000);
#600=ORIENTED_EDGE('',*,*,#500,.T.);
#601=ORIENTED_EDGE('',*,*,#590,.T.);
#602=ORIENTED_EDGE('',*,*,#515,.T.);
#603=CARTESIAN_POINT('',(-5.079999999999997,1.838529E-015,-3.200000000000000));
#604=DIRECTION('',(0.0,0.0,-1.0));
#605=DIRECTION('',(-1.0,0.0,0.0));
#606=AXIS2_PLACEMENT_3D('',#603,#604,#605);
#607=CIRCLE('',#606,0.400000000000000);
#608=EDGE_CURVE('',#495,#503,#607,.T.);
#609=ORIENTED_EDGE('',*,*,#608,.F.);
#610=EDGE_LOOP('',(#600,#601,#602,#609));
#611=FACE_OUTER_BOUND('',#610,.T.);
#612=ADVANCED_FACE('',(#611),#599,.T.);
#613=CARTESIAN_POINT('',(-2.400000000000001,2.442491E-016,1.300000000000000));
#614=DIRECTION('',(-1.0,0.0,0.0));
#615=DIRECTION('',(0.0,0.0,1.0));
#616=AXIS2_PLACEMENT_3D('',#613,#614,#615);
#617=PLANE('',#616);
#618=ORIENTED_EDGE('',*,*,#564,.F.);
#619=ORIENTED_EDGE('',*,*,#548,.F.);
#620=EDGE_LOOP('',(#618,#619));
#621=FACE_OUTER_BOUND('',#620,.T.);
#622=ADVANCED_FACE('',(#621),#617,.F.);
#623=CARTESIAN_POINT('',(-5.079999999999997,1.838529E-015,-3.200000000000000));
#624=DIRECTION('',(0.0,0.0,-1.0));
#625=DIRECTION('',(-1.0,0.0,0.0));
#626=AXIS2_PLACEMENT_3D('',#623,#624,#625);
#627=PLANE('',#626);
#628=ORIENTED_EDGE('',*,*,#608,.T.);
#629=ORIENTED_EDGE('',*,*,#509,.T.);
#630=EDGE_LOOP('',(#628,#629));
#631=FACE_OUTER_BOUND('',#630,.T.);
#632=ADVANCED_FACE('',(#631),#627,.T.);
#633=CLOSED_SHELL('',(#488,#520,#552,#576,#594,#612,#622,#632));
#634=MANIFOLD_SOLID_BREP('33F',#633);
#635=STYLED_ITEM('NONE',(#441),#634);
#636=CARTESIAN_POINT('',(-1.100000000000001,-8.881784E-016,1.299999999999996));
#637=DIRECTION('',(1.0,0.0,1.110223E-015));
#638=DIRECTION('',(0.0,-1.0,0.0));
#639=AXIS2_PLACEMENT_3D('',#636,#637,#638);
#640=CYLINDRICAL_SURFACE('',#639,1.300000000000000);
#641=CARTESIAN_POINT('',(-1.100000000000001,-1.300000000000001,1.299999999999996));
#642=VERTEX_POINT('',#641);
#643=CARTESIAN_POINT('',(2.400000000000000,-1.300000000000001,1.300000000000002));
#644=VERTEX_POINT('',#643);
#645=CARTESIAN_POINT('',(-1.100000000000001,-1.300000000000001,1.299999999999996));
#646=DIRECTION('',(1.0,0.0,0.0));
#647=VECTOR('',#646,3.500000000000001);
#648=LINE('',#645,#647);
#649=EDGE_CURVE('',#642,#644,#648,.T.);
#650=ORIENTED_EDGE('',*,*,#649,.F.);
#651=CARTESIAN_POINT('',(-1.100000000000001,1.299999999999999,1.299999999999996));
#652=VERTEX_POINT('',#651);
#653=CARTESIAN_POINT('',(-1.100000000000001,-8.881784E-016,1.299999999999996));
#654=DIRECTION('',(-1.0,0.0,0.0));
#655=DIRECTION('',(0.0,-1.0,0.0));
#656=AXIS2_PLACEMENT_3D('',#653,#654,#655);
#657=CIRCLE('',#656,1.300000000000000);
#658=EDGE_CURVE('',#652,#642,#657,.T.);
#659=ORIENTED_EDGE('',*,*,#658,.F.);
#660=CARTESIAN_POINT('',(2.400000000000000,1.299999999999999,1.300000000000000));
#661=VERTEX_POINT('',#660);
#662=CARTESIAN_POINT('',(2.400000000000000,1.299999999999999,1.300000000000000));
#663=DIRECTION('',(-1.0,0.0,0.0));
#664=VECTOR('',#663,3.500000000000001);
#665=LINE('',#662,#664);
#666=EDGE_CURVE('',#661,#652,#665,.T.);
#667=ORIENTED_EDGE('',*,*,#666,.F.);
#668=CARTESIAN_POINT('',(2.400000000000000,-8.215650E-016,1.300000000000002));
#669=DIRECTION('',(-1.0,0.0,0.0));
#670=DIRECTION('',(0.0,-1.0,0.0));
#671=AXIS2_PLACEMENT_3D('',#668,#669,#670);
#672=CIRCLE('',#671,1.300000000000000);
#673=EDGE_CURVE('',#661,#644,#672,.T.);
#674=ORIENTED_EDGE('',*,*,#673,.T.);
#675=EDGE_LOOP('',(#650,#659,#667,#674));
#676=FACE_OUTER_BOUND('',#675,.T.);
#677=ADVANCED_FACE('',(#676),#640,.T.);
#678=CARTESIAN_POINT('',(-1.100000000000001,-8.881784E-016,1.299999999999996));
#679=DIRECTION('',(1.0,0.0,1.110223E-015));
#680=DIRECTION('',(0.0,-1.0,0.0));
#681=AXIS2_PLACEMENT_3D('',#678,#679,#680);
#682=CYLINDRICAL_SURFACE('',#681,1.300000000000000);
#683=ORIENTED_EDGE('',*,*,#649,.T.);
#684=CARTESIAN_POINT('',(2.400000000000000,-8.215650E-016,1.300000000000002));
#685=DIRECTION('',(-1.0,0.0,0.0));
#686=DIRECTION('',(0.0,-1.0,0.0));
#687=AXIS2_PLACEMENT_3D('',#684,#685,#686);
#688=CIRCLE('',#687,1.300000000000000);
#689=EDGE_CURVE('',#644,#661,#688,.T.);
#690=ORIENTED_EDGE('',*,*,#689,.T.);
#691=ORIENTED_EDGE('',*,*,#666,.T.);
#692=CARTESIAN_POINT('',(-1.100000000000001,-8.881784E-016,1.299999999999996));
#693=DIRECTION('',(-1.0,0.0,0.0));
#694=DIRECTION('',(0.0,-1.0,0.0));
#695=AXIS2_PLACEMENT_3D('',#692,#693,#694);
#696=CIRCLE('',#695,1.300000000000000);
#697=EDGE_CURVE('',#642,#652,#696,.T.);
#698=ORIENTED_EDGE('',*,*,#697,.F.);
#699=EDGE_LOOP('',(#683,#690,#691,#698));
#700=FACE_OUTER_BOUND('',#699,.T.);
#701=ADVANCED_FACE('',(#700),#682,.T.);
#702=CARTESIAN_POINT('',(2.400000000000000,-8.215650E-016,1.300000000000002));
#703=DIRECTION('',(-1.0,0.0,0.0));
#704=DIRECTION('',(0.0,0.0,1.0));
#705=AXIS2_PLACEMENT_3D('',#702,#703,#704);
#706=PLANE('',#705);
#707=ORIENTED_EDGE('',*,*,#689,.F.);
#708=ORIENTED_EDGE('',*,*,#673,.F.);
#709=EDGE_LOOP('',(#707,#708));
#710=FACE_OUTER_BOUND('',#709,.T.);
#711=ADVANCED_FACE('',(#710),#706,.F.);
#712=CARTESIAN_POINT('',(-1.100000000000001,-8.881784E-016,1.299999999999996));
#713=DIRECTION('',(-1.0,0.0,0.0));
#714=DIRECTION('',(0.0,0.0,1.0));
#715=AXIS2_PLACEMENT_3D('',#712,#713,#714);
#716=PLANE('',#715);
#717=ORIENTED_EDGE('',*,*,#697,.T.);
#718=ORIENTED_EDGE('',*,*,#658,.T.);
#719=EDGE_LOOP('',(#717,#718));
#720=FACE_OUTER_BOUND('',#719,.T.);
#721=ADVANCED_FACE('',(#720),#716,.T.);
#722=CLOSED_SHELL('',(#677,#701,#711,#721));
#723=MANIFOLD_SOLID_BREP('333',#722);
#724=COLOUR_RGB('250',0.330000000000000,0.330000000000000,0.330000000000000);
#725=SURFACE_STYLE_USAGE(.BOTH.,#726);
#726=SURFACE_SIDE_STYLE('NONE',(#727));
#727=SURFACE_STYLE_FILL_AREA(#728);
#728=FILL_AREA_STYLE('NONE',(#729));
#729=FILL_AREA_STYLE_COLOUR('NONE',#724);
#730=PRESENTATION_STYLE_ASSIGNMENT((#725));
#731=STYLED_ITEM('NONE',(#730),#723);
#732=CARTESIAN_POINT('',(-6.500000000000001,-8.881784E-016,1.300000000000000));
#733=DIRECTION('',(1.0,0.0,2.220446E-016));
#734=DIRECTION('',(0.0,1.0,0.0));
#735=AXIS2_PLACEMENT_3D('',#732,#733,#734);
#736=CYLINDRICAL_SURFACE('',#735,1.300000000000000);
#737=CARTESIAN_POINT('',(-2.400000000000001,1.299999999999999,1.300000000000000));
#738=VERTEX_POINT('',#737);
#739=CARTESIAN_POINT('',(-1.900000000000001,1.299999999999999,1.300000000000000));
#740=VERTEX_POINT('',#739);
#741=CARTESIAN_POINT('',(-2.400000000000001,1.299999999999999,1.300000000000000));
#742=DIRECTION('',(1.0,0.0,0.0));
#743=VECTOR('',#742,0.500000000000000);
#744=LINE('',#741,#743);
#745=EDGE_CURVE('',#738,#740,#744,.T.);
#746=ORIENTED_EDGE('',*,*,#745,.F.);
#747=CARTESIAN_POINT('',(-2.400000000000001,-1.300000000000001,1.300000000000001));
#748=VERTEX_POINT('',#747);
#749=CARTESIAN_POINT('',(-2.400000000000001,-8.881784E-016,1.300000000000000));
#750=DIRECTION('',(1.0,0.0,0.0));
#751=DIRECTION('',(0.0,1.0,0.0));
#752=AXIS2_PLACEMENT_3D('',#749,#750,#751);
#753=CIRCLE('',#752,1.300000000000000);
#754=EDGE_CURVE('',#738,#748,#753,.T.);
#755=ORIENTED_EDGE('',*,*,#754,.T.);
#756=CARTESIAN_POINT('',(-1.900000000000001,-1.300000000000001,1.300000000000001));
#757=VERTEX_POINT('',#756);
#758=CARTESIAN_POINT('',(-1.900000000000001,-1.300000000000001,1.300000000000001));
#759=DIRECTION('',(-1.0,0.0,0.0));
#760=VECTOR('',#759,0.500000000000000);
#761=LINE('',#758,#760);
#762=EDGE_CURVE('',#757,#748,#761,.T.);
#763=ORIENTED_EDGE('',*,*,#762,.F.);
#764=CARTESIAN_POINT('',(-1.900000000000001,-8.881784E-016,1.300000000000001));
#765=DIRECTION('',(-1.0,0.0,0.0));
#766=DIRECTION('',(0.0,1.0,0.0));
#767=AXIS2_PLACEMENT_3D('',#764,#765,#766);
#768=CIRCLE('',#767,1.300000000000000);
#769=EDGE_CURVE('',#757,#740,#768,.T.);
#770=ORIENTED_EDGE('',*,*,#769,.T.);
#771=EDGE_LOOP('',(#746,#755,#763,#770));
#772=FACE_OUTER_BOUND('',#771,.T.);
#773=ADVANCED_FACE('',(#772),#736,.T.);
#774=CARTESIAN_POINT('',(-6.500000000000001,-8.881784E-016,1.300000000000000));
#775=DIRECTION('',(1.0,0.0,2.220446E-016));
#776=DIRECTION('',(0.0,1.0,0.0));
#777=AXIS2_PLACEMENT_3D('',#774,#775,#776);
#778=CYLINDRICAL_SURFACE('',#777,1.300000000000000);
#779=ORIENTED_EDGE('',*,*,#745,.T.);
#780=CARTESIAN_POINT('',(-1.900000000000001,-8.881784E-016,1.300000000000001));
#781=DIRECTION('',(-1.0,0.0,0.0));
#782=DIRECTION('',(0.0,1.0,0.0));
#783=AXIS2_PLACEMENT_3D('',#780,#781,#782);
#784=CIRCLE('',#783,1.300000000000000);
#785=EDGE_CURVE('',#740,#757,#784,.T.);
#786=ORIENTED_EDGE('',*,*,#785,.T.);
#787=ORIENTED_EDGE('',*,*,#762,.T.);
#788=CARTESIAN_POINT('',(-2.400000000000001,-8.881784E-016,1.300000000000000));
#789=DIRECTION('',(1.0,0.0,0.0));
#790=DIRECTION('',(0.0,1.0,0.0));
#791=AXIS2_PLACEMENT_3D('',#788,#789,#790);
#792=CIRCLE('',#791,1.300000000000000);
#793=EDGE_CURVE('',#748,#738,#792,.T.);
#794=ORIENTED_EDGE('',*,*,#793,.T.);
#795=EDGE_LOOP('',(#779,#786,#787,#794));
#796=FACE_OUTER_BOUND('',#795,.T.);
#797=ADVANCED_FACE('',(#796),#778,.T.);
#798=CARTESIAN_POINT('',(-1.900000000000001,-8.881784E-016,1.300000000000001));
#799=DIRECTION('',(1.0,0.0,0.0));
#800=DIRECTION('',(0.0,0.0,-1.0));
#801=AXIS2_PLACEMENT_3D('',#798,#799,#800);
#802=PLANE('',#801);
#803=ORIENTED_EDGE('',*,*,#769,.F.);
#804=ORIENTED_EDGE('',*,*,#785,.F.);
#805=EDGE_LOOP('',(#803,#804));
#806=FACE_OUTER_BOUND('',#805,.T.);
#807=ADVANCED_FACE('',(#806),#802,.T.);
#808=CARTESIAN_POINT('',(-2.400000000000001,-8.881784E-016,1.300000000000000));
#809=DIRECTION('',(1.0,0.0,0.0));
#810=DIRECTION('',(0.0,0.0,-1.0));
#811=AXIS2_PLACEMENT_3D('',#808,#809,#810);
#812=PLANE('',#811);
#813=ORIENTED_EDGE('',*,*,#754,.F.);
#814=ORIENTED_EDGE('',*,*,#793,.F.);
#815=EDGE_LOOP('',(#813,#814));
#816=FACE_OUTER_BOUND('',#815,.T.);
#817=ADVANCED_FACE('',(#816),#812,.F.);
#818=CLOSED_SHELL('',(#773,#797,#807,#817));
#819=MANIFOLD_SOLID_BREP('32E',#818);
#820=STYLED_ITEM('NONE',(#730),#819);
#821=CARTESIAN_POINT('',(-5.700000000000001,-8.881784E-016,1.299999999999995));
#822=DIRECTION('',(1.0,0.0,2.220446E-016));
#823=DIRECTION('',(0.0,1.0,0.0));
#824=AXIS2_PLACEMENT_3D('',#821,#822,#823);
#825=CYLINDRICAL_SURFACE('',#824,1.300000000000000);
#826=CARTESIAN_POINT('',(-1.900000000000001,1.299999999999999,1.300000000000001));
#827=VERTEX_POINT('',#826);
#828=CARTESIAN_POINT('',(-1.100000000000001,1.299999999999999,1.299999999999996));
#829=VERTEX_POINT('',#828);
#830=CARTESIAN_POINT('',(-1.900000000000001,1.299999999999999,1.300000000000001));
#831=DIRECTION('',(1.0,0.0,0.0));
#832=VECTOR('',#831,0.800000000000000);
#833=LINE('',#830,#832);
#834=EDGE_CURVE('',#827,#829,#833,.T.);
#835=ORIENTED_EDGE('',*,*,#834,.F.);
#836=CARTESIAN_POINT('',(-1.900000000000001,-1.300000000000001,1.299999999999996));
#837=VERTEX_POINT('',#836);
#838=CARTESIAN_POINT('',(-1.900000000000001,-8.881784E-016,1.300000000000001));
#839=DIRECTION('',(1.0,0.0,0.0));
#840=DIRECTION('',(0.0,1.0,0.0));
#841=AXIS2_PLACEMENT_3D('',#838,#839,#840);
#842=CIRCLE('',#841,1.300000000000000);
#843=EDGE_CURVE('',#827,#837,#842,.T.);
#844=ORIENTED_EDGE('',*,*,#843,.T.);
#845=CARTESIAN_POINT('',(-1.100000000000001,-1.300000000000001,1.299999999999996));
#846=VERTEX_POINT('',#845);
#847=CARTESIAN_POINT('',(-1.100000000000001,-1.300000000000001,1.299999999999996));
#848=DIRECTION('',(-1.0,0.0,0.0));
#849=VECTOR('',#848,0.800000000000000);
#850=LINE('',#847,#849);
#851=EDGE_CURVE('',#846,#837,#850,.T.);
#852=ORIENTED_EDGE('',*,*,#851,.F.);
#853=CARTESIAN_POINT('',(-1.100000000000001,-8.881784E-016,1.299999999999996));
#854=DIRECTION('',(-1.0,0.0,0.0));
#855=DIRECTION('',(0.0,1.0,0.0));
#856=AXIS2_PLACEMENT_3D('',#853,#854,#855);
#857=CIRCLE('',#856,1.300000000000000);
#858=EDGE_CURVE('',#846,#829,#857,.T.);
#859=ORIENTED_EDGE('',*,*,#858,.T.);
#860=EDGE_LOOP('',(#835,#844,#852,#859));
#861=FACE_OUTER_BOUND('',#860,.T.);
#862=ADVANCED_FACE('',(#861),#825,.T.);
#863=CARTESIAN_POINT('',(-1.100000000000001,-8.881784E-016,1.299999999999996));
#864=DIRECTION('',(1.0,0.0,0.0));
#865=DIRECTION('',(0.0,0.0,-1.0));
#866=AXIS2_PLACEMENT_3D('',#863,#864,#865);
#867=PLANE('',#866);
#868=ORIENTED_EDGE('',*,*,#858,.F.);
#869=CARTESIAN_POINT('',(-1.100000000000001,-8.881784E-016,1.299999999999996));
#870=DIRECTION('',(-1.0,0.0,0.0));
#871=DIRECTION('',(0.0,1.0,0.0));
#872=AXIS2_PLACEMENT_3D('',#869,#870,#871);
#873=CIRCLE('',#872,1.300000000000000);
#874=EDGE_CURVE('',#829,#846,#873,.T.);
#875=ORIENTED_EDGE('',*,*,#874,.F.);
#876=EDGE_LOOP('',(#868,#875));
#877=FACE_OUTER_BOUND('',#876,.T.);
#878=ADVANCED_FACE('',(#877),#867,.T.);
#879=CARTESIAN_POINT('',(-1.900000000000001,-8.881784E-016,1.300000000000001));
#880=DIRECTION('',(1.0,0.0,0.0));
#881=DIRECTION('',(0.0,0.0,-1.0));
#882=AXIS2_PLACEMENT_3D('',#879,#880,#881);
#883=PLANE('',#882);
#884=ORIENTED_EDGE('',*,*,#843,.F.);
#885=CARTESIAN_POINT('',(-1.900000000000001,-8.881784E-016,1.300000000000001));
#886=DIRECTION('',(1.0,0.0,0.0));
#887=DIRECTION('',(0.0,1.0,0.0));
#888=AXIS2_PLACEMENT_3D('',#885,#886,#887);
#889=CIRCLE('',#888,1.300000000000000);
#890=EDGE_CURVE('',#837,#827,#889,.T.);
#891=ORIENTED_EDGE('',*,*,#890,.F.);
#892=EDGE_LOOP('',(#884,#891));
#893=FACE_OUTER_BOUND('',#892,.T.);
#894=ADVANCED_FACE('',(#893),#883,.F.);
#895=CARTESIAN_POINT('',(-5.700000000000001,-8.881784E-016,1.299999999999995));
#896=DIRECTION('',(1.0,0.0,2.220446E-016));
#897=DIRECTION('',(0.0,1.0,0.0));
#898=AXIS2_PLACEMENT_3D('',#895,#896,#897);
#899=CYLINDRICAL_SURFACE('',#898,1.300000000000000);
#900=ORIENTED_EDGE('',*,*,#834,.T.);
#901=ORIENTED_EDGE('',*,*,#874,.T.);
#902=ORIENTED_EDGE('',*,*,#851,.T.);
#903=ORIENTED_EDGE('',*,*,#890,.T.);
#904=EDGE_LOOP('',(#900,#901,#902,#903));
#905=FACE_OUTER_BOUND('',#904,.T.);
#906=ADVANCED_FACE('',(#905),#899,.T.);
#907=CLOSED_SHELL('',(#862,#878,#894,#906));
#908=MANIFOLD_SOLID_BREP('32D',#907);
#909=COLOUR_RGB('255',1.0,1.0,1.0);
#910=SURFACE_STYLE_USAGE(.BOTH.,#911);
#911=SURFACE_SIDE_STYLE('NONE',(#912));
#912=SURFACE_STYLE_FILL_AREA(#913);
#913=FILL_AREA_STYLE('NONE',(#914));
#914=FILL_AREA_STYLE_COLOUR('NONE',#909);
#915=PRESENTATION_STYLE_ASSIGNMENT((#910));
#916=STYLED_ITEM('NONE',(#915),#908);
#917=ADVANCED_BREP_SHAPE_REPRESENTATION('ABSR1',(#434,#634,#723,#819,#908),#28);
#918=SHAPE_REPRESENTATION_RELATIONSHIP('SRRPL1','',#917,#62);
ENDSEC;
END-ISO-10303-21;
