ISO-10303-21;
HEADER;
/* Generated by software containing ST-Developer
 * from STEP Tools, Inc. (www.steptools.com) 
 */

FILE_DESCRIPTION(
/* description */ (''),
/* implementation_level */ '2;1');

FILE_NAME(
/* name */ 
'G:\\Applications\\Altium\\CernLib\\StepLib\\EDA-0xxxx-Vx-n _Wedge_5mm.
stp',
/* time_stamp */ '2016-10-20T16:58:57+02:00',
/* author */ ('riccim'),
/* organization */ (''),
/* preprocessor_version */ 'ST-DEVELOPER v15.5',
/* originating_system */ 'AutoCAD Mechanical',
/* authorisation */ '');

FILE_SCHEMA (('AUTOMOTIVE_DESIGN { 1 0 10303 214 3 1 1 }'));
ENDSEC;

DATA;
#10=MECHANICAL_DESIGN_GEOMETRIC_PRESENTATION_REPRESENTATION('',(#17),#73);
#11=DIMENSIONAL_EXPONENTS(0.,0.,0.,0.,0.,0.,0.);
#12=(
CONVERSION_BASED_UNIT('degree',#13)
NAMED_UNIT(#11)
PLANE_ANGLE_UNIT()
);
#13=PLANE_ANGLE_MEASURE_WITH_UNIT(PLANE_ANGLE_MEASURE(0.01745329252),#76);
#14=PRESENTATION_LAYER_ASSIGNMENT('3D','',(#43));
#15=SHAPE_REPRESENTATION_RELATIONSHIP('SRR','None',#79,#16);
#16=ADVANCED_BREP_SHAPE_REPRESENTATION($,(#43),#72);
#17=STYLED_ITEM($,(#89),#43);
#18=PLANE($,#48);
#19=PLANE($,#49);
#20=FACE_BOUND($,#25,.T.);
#21=FACE_OUTER_BOUND($,#24,.T.);
#22=FACE_OUTER_BOUND($,#26,.T.);
#23=FACE_OUTER_BOUND($,#27,.T.);
#24=EDGE_LOOP($,(#34));
#25=EDGE_LOOP($,(#35));
#26=EDGE_LOOP($,(#36));
#27=EDGE_LOOP($,(#37));
#28=CIRCLE($,#46,2.5);
#29=CIRCLE($,#47,2.5);
#30=VERTEX_POINT($,#64);
#31=VERTEX_POINT($,#66);
#32=EDGE_CURVE($,#30,#30,#28,.T.);
#33=EDGE_CURVE($,#31,#31,#29,.T.);
#34=ORIENTED_EDGE($,*,*,#32,.F.);
#35=ORIENTED_EDGE($,*,*,#33,.T.);
#36=ORIENTED_EDGE($,*,*,#32,.T.);
#37=ORIENTED_EDGE($,*,*,#33,.F.);
#38=CYLINDRICAL_SURFACE($,#45,2.5);
#39=ADVANCED_FACE($,(#21,#20),#38,.T.);
#40=ADVANCED_FACE($,(#22),#18,.T.);
#41=ADVANCED_FACE($,(#23),#19,.F.);
#42=CLOSED_SHELL($,(#39,#40,#41));
#43=MANIFOLD_SOLID_BREP('2E81',#42);
#44=AXIS2_PLACEMENT_3D('placement',#62,#50,#51);
#45=AXIS2_PLACEMENT_3D($,#63,#52,#53);
#46=AXIS2_PLACEMENT_3D($,#65,#54,#55);
#47=AXIS2_PLACEMENT_3D($,#67,#56,#57);
#48=AXIS2_PLACEMENT_3D($,#68,#58,#59);
#49=AXIS2_PLACEMENT_3D($,#69,#60,#61);
#50=DIRECTION('axis',(0.,0.,1.));
#51=DIRECTION('refdir',(1.,0.,0.));
#52=DIRECTION('center_axis',(0.,0.,1.));
#53=DIRECTION('ref_axis',(-1.,0.,0.));
#54=DIRECTION('center_axis',(0.,0.,1.));
#55=DIRECTION('ref_axis',(-1.,0.,0.));
#56=DIRECTION('center_axis',(0.,0.,1.));
#57=DIRECTION('ref_axis',(-1.,0.,0.));
#58=DIRECTION('center_axis',(0.,0.,1.));
#59=DIRECTION('ref_axis',(1.,0.,0.));
#60=DIRECTION('center_axis',(0.,0.,1.));
#61=DIRECTION('ref_axis',(1.,0.,0.));
#62=CARTESIAN_POINT('',(0.,0.,0.));
#63=CARTESIAN_POINT('Origin',(0.,0.,0.));
#64=CARTESIAN_POINT('',(2.5,3.06161699786838E-16,2.5));
#65=CARTESIAN_POINT('Origin',(0.,0.,2.5));
#66=CARTESIAN_POINT('',(2.5,3.06161699786838E-16,0.));
#67=CARTESIAN_POINT('Origin',(0.,0.,0.));
#68=CARTESIAN_POINT('Origin',(-1.43937264275587E-16,5.9211894646675E-17,
2.5));
#69=CARTESIAN_POINT('Origin',(-1.43937264275587E-16,5.9211894646675E-17,
0.));
#70=UNCERTAINTY_MEASURE_WITH_UNIT(LENGTH_MEASURE(0.01),#74,
'DISTANCE_ACCURACY_VALUE',
'Maximum model space distance between geometric entities at asserted c
onnectivities');
#71=UNCERTAINTY_MEASURE_WITH_UNIT(LENGTH_MEASURE(1.E-6),#74,
'DISTANCE_ACCURACY_VALUE',
'Maximum model space distance between geometric entities at asserted c
onnectivities');
#72=(
GEOMETRIC_REPRESENTATION_CONTEXT(3)
GLOBAL_UNCERTAINTY_ASSIGNED_CONTEXT((#70))
GLOBAL_UNIT_ASSIGNED_CONTEXT((#74,#76,#75))
REPRESENTATION_CONTEXT('','3D')
);
#73=(
GEOMETRIC_REPRESENTATION_CONTEXT(3)
GLOBAL_UNCERTAINTY_ASSIGNED_CONTEXT((#71))
GLOBAL_UNIT_ASSIGNED_CONTEXT((#74,#12,#75))
REPRESENTATION_CONTEXT('','3D')
);
#74=(
LENGTH_UNIT()
NAMED_UNIT(*)
SI_UNIT(.MILLI.,.METRE.)
);
#75=(
NAMED_UNIT(*)
SI_UNIT($,.STERADIAN.)
SOLID_ANGLE_UNIT()
);
#76=(
NAMED_UNIT(*)
PLANE_ANGLE_UNIT()
SI_UNIT($,.RADIAN.)
);
#77=SHAPE_DEFINITION_REPRESENTATION(#78,#79);
#78=PRODUCT_DEFINITION_SHAPE('',$,#81);
#79=SHAPE_REPRESENTATION('',(#44),#72);
#80=PRODUCT_DEFINITION_CONTEXT('part definition',#85,'design');
#81=PRODUCT_DEFINITION('Product','Product',#82,#80);
#82=PRODUCT_DEFINITION_FORMATION('',$,#87);
#83=PRODUCT_RELATED_PRODUCT_CATEGORY('Product','Product',(#87));
#84=APPLICATION_PROTOCOL_DEFINITION('international standard',
'automotive_design',2009,#85);
#85=APPLICATION_CONTEXT(
'Core Data for Automotive Mechanical Design Process');
#86=PRODUCT_CONTEXT('part definition',#85,'mechanical');
#87=PRODUCT('Product','Product',$,(#86));
#88=PRESENTATION_STYLE_ASSIGNMENT((#90));
#89=PRESENTATION_STYLE_ASSIGNMENT((#91));
#90=SURFACE_STYLE_USAGE(.BOTH.,#92);
#91=SURFACE_STYLE_USAGE(.BOTH.,#93);
#92=SURFACE_SIDE_STYLE($,(#94));
#93=SURFACE_SIDE_STYLE($,(#95));
#94=SURFACE_STYLE_FILL_AREA(#96);
#95=SURFACE_STYLE_FILL_AREA(#97);
#96=FILL_AREA_STYLE($,(#98));
#97=FILL_AREA_STYLE($,(#99));
#98=FILL_AREA_STYLE_COLOUR($,#100);
#99=FILL_AREA_STYLE_COLOUR($,#101);
#100=COLOUR_RGB('',1.,1.,1.);
#101=COLOUR_RGB('',0.329411764705882,0.329411764705882,0.329411764705882);
ENDSEC;
END-ISO-10303-21;
