ISO-10303-21;
HEADER;
/* Generated by software containing ST-Developer
 * from STEP Tools, Inc. (www.steptools.com) 
 */

FILE_DESCRIPTION(
/* description */ (''),
/* implementation_level */ '2;1');

FILE_NAME(
/* name */ 
'G:\\Applications\\Altium\\CernLib\\StepLib\\ESSENTRA_LEDS1E-4-01.stp',

/* time_stamp */ '2017-05-04T13:42:00+02:00',
/* author */ ('jchouvet'),
/* organization */ (''),
/* preprocessor_version */ 'ST-DEVELOPER v16.1',
/* originating_system */ 'AutoCAD Mechanical',
/* authorisation */ '');

FILE_SCHEMA (('AUTOMOTIVE_DESIGN { 1 0 10303 214 3 1 1 }'));
ENDSEC;

DATA;
#10=MECHANICAL_DESIGN_GEOMETRIC_PRESENTATION_REPRESENTATION('',(#17,#18,
#19,#20),#772);
#11=DIMENSIONAL_EXPONENTS(0.,0.,0.,0.,0.,0.,0.);
#12=(
CONVERSION_BASED_UNIT('degree',#13)
NAMED_UNIT(#11)
PLANE_ANGLE_UNIT()
);
#13=PLANE_ANGLE_MEASURE_WITH_UNIT(PLANE_ANGLE_MEASURE(0.01745329252),#775);
#14=PRESENTATION_LAYER_ASSIGNMENT('2','3D',(#21,#22,#23,#24));
#15=SHAPE_REPRESENTATION_RELATIONSHIP('SRR','None',#778,#16);
#16=ADVANCED_BREP_SHAPE_REPRESENTATION('',(#21,#22,#23,#24),#771);
#17=STYLED_ITEM('',(#788),#21);
#18=STYLED_ITEM('',(#788),#22);
#19=STYLED_ITEM('',(#788),#23);
#20=STYLED_ITEM('',(#788),#24);
#21=MANIFOLD_SOLID_BREP('859',#465);
#22=MANIFOLD_SOLID_BREP('89D',#466);
#23=MANIFOLD_SOLID_BREP('8B6',#467);
#24=MANIFOLD_SOLID_BREP('8BA',#468);
#25=CIRCLE('',#472,1.8);
#26=CIRCLE('',#473,1.8);
#27=CIRCLE('',#478,1.8);
#28=CIRCLE('',#479,1.8);
#29=CIRCLE('',#486,1.8);
#30=CIRCLE('',#487,1.8);
#31=CIRCLE('',#491,1.79999999999997);
#32=CIRCLE('',#492,1.79999999999997);
#33=CIRCLE('',#497,1.8);
#34=CIRCLE('',#498,1.8);
#35=CIRCLE('',#503,1.79999999999999);
#36=CIRCLE('',#504,1.79999999999999);
#37=CYLINDRICAL_SURFACE('',#471,1.8);
#38=CYLINDRICAL_SURFACE('',#477,1.8);
#39=CYLINDRICAL_SURFACE('',#485,1.8);
#40=CYLINDRICAL_SURFACE('',#490,1.79999999999997);
#41=CYLINDRICAL_SURFACE('',#496,1.8);
#42=CYLINDRICAL_SURFACE('',#502,1.79999999999999);
#43=FACE_OUTER_BOUND('',#71,.T.);
#44=FACE_OUTER_BOUND('',#72,.T.);
#45=FACE_OUTER_BOUND('',#73,.T.);
#46=FACE_OUTER_BOUND('',#74,.T.);
#47=FACE_OUTER_BOUND('',#75,.T.);
#48=FACE_OUTER_BOUND('',#76,.T.);
#49=FACE_OUTER_BOUND('',#77,.T.);
#50=FACE_OUTER_BOUND('',#78,.T.);
#51=FACE_OUTER_BOUND('',#79,.T.);
#52=FACE_OUTER_BOUND('',#80,.T.);
#53=FACE_OUTER_BOUND('',#81,.T.);
#54=FACE_OUTER_BOUND('',#82,.T.);
#55=FACE_OUTER_BOUND('',#83,.T.);
#56=FACE_OUTER_BOUND('',#84,.T.);
#57=FACE_OUTER_BOUND('',#85,.T.);
#58=FACE_OUTER_BOUND('',#86,.T.);
#59=FACE_OUTER_BOUND('',#87,.T.);
#60=FACE_OUTER_BOUND('',#88,.T.);
#61=FACE_OUTER_BOUND('',#89,.T.);
#62=FACE_OUTER_BOUND('',#90,.T.);
#63=FACE_OUTER_BOUND('',#91,.T.);
#64=FACE_OUTER_BOUND('',#92,.T.);
#65=FACE_OUTER_BOUND('',#93,.T.);
#66=FACE_OUTER_BOUND('',#94,.T.);
#67=FACE_OUTER_BOUND('',#95,.T.);
#68=FACE_OUTER_BOUND('',#96,.T.);
#69=FACE_OUTER_BOUND('',#97,.T.);
#70=FACE_OUTER_BOUND('',#98,.T.);
#71=EDGE_LOOP('',(#295,#296,#297,#298));
#72=EDGE_LOOP('',(#299,#300,#301,#302));
#73=EDGE_LOOP('',(#303,#304,#305,#306));
#74=EDGE_LOOP('',(#307,#308,#309,#310));
#75=EDGE_LOOP('',(#311,#312,#313,#314));
#76=EDGE_LOOP('',(#315,#316,#317,#318));
#77=EDGE_LOOP('',(#319,#320,#321,#322));
#78=EDGE_LOOP('',(#323,#324,#325,#326));
#79=EDGE_LOOP('',(#327,#328,#329,#330,#331,#332,#333,#334));
#80=EDGE_LOOP('',(#335,#336,#337,#338,#339,#340,#341,#342));
#81=EDGE_LOOP('',(#343,#344,#345,#346));
#82=EDGE_LOOP('',(#347,#348,#349,#350));
#83=EDGE_LOOP('',(#351,#352,#353,#354));
#84=EDGE_LOOP('',(#355,#356,#357,#358));
#85=EDGE_LOOP('',(#359,#360,#361,#362));
#86=EDGE_LOOP('',(#363,#364,#365,#366));
#87=EDGE_LOOP('',(#367,#368,#369,#370,#371,#372));
#88=EDGE_LOOP('',(#373,#374,#375,#376,#377,#378));
#89=EDGE_LOOP('',(#379,#380,#381,#382));
#90=EDGE_LOOP('',(#383,#384,#385,#386));
#91=EDGE_LOOP('',(#387,#388));
#92=EDGE_LOOP('',(#389,#390));
#93=EDGE_LOOP('',(#391,#392,#393,#394));
#94=EDGE_LOOP('',(#395,#396,#397,#398));
#95=EDGE_LOOP('',(#399,#400,#401,#402));
#96=EDGE_LOOP('',(#403,#404,#405,#406));
#97=EDGE_LOOP('',(#407,#408,#409,#410));
#98=EDGE_LOOP('',(#411,#412,#413,#414));
#99=LINE('',#644,#147);
#100=LINE('',#646,#148);
#101=LINE('',#648,#149);
#102=LINE('',#649,#150);
#103=LINE('',#655,#151);
#104=LINE('',#658,#152);
#105=LINE('',#660,#153);
#106=LINE('',#661,#154);
#107=LINE('',#664,#155);
#108=LINE('',#666,#156);
#109=LINE('',#667,#157);
#110=LINE('',#670,#158);
#111=LINE('',#672,#159);
#112=LINE('',#673,#160);
#113=LINE('',#679,#161);
#114=LINE('',#682,#162);
#115=LINE('',#684,#163);
#116=LINE('',#685,#164);
#117=LINE('',#687,#165);
#118=LINE('',#688,#166);
#119=LINE('',#694,#167);
#120=LINE('',#696,#168);
#121=LINE('',#698,#169);
#122=LINE('',#699,#170);
#123=LINE('',#705,#171);
#124=LINE('',#708,#172);
#125=LINE('',#710,#173);
#126=LINE('',#711,#174);
#127=LINE('',#714,#175);
#128=LINE('',#716,#176);
#129=LINE('',#717,#177);
#130=LINE('',#723,#178);
#131=LINE('',#725,#179);
#132=LINE('',#726,#180);
#133=LINE('',#734,#181);
#134=LINE('',#737,#182);
#135=LINE('',#739,#183);
#136=LINE('',#740,#184);
#137=LINE('',#748,#185);
#138=LINE('',#751,#186);
#139=LINE('',#754,#187);
#140=LINE('',#756,#188);
#141=LINE('',#757,#189);
#142=LINE('',#760,#190);
#143=LINE('',#762,#191);
#144=LINE('',#763,#192);
#145=LINE('',#765,#193);
#146=LINE('',#766,#194);
#147=VECTOR('',#514,1.47916164657906);
#148=VECTOR('',#515,2.);
#149=VECTOR('',#516,1.47916164657906);
#150=VECTOR('',#517,2.);
#151=VECTOR('',#524,2.);
#152=VECTOR('',#527,1.47916164657906);
#153=VECTOR('',#528,1.47916164657906);
#154=VECTOR('',#529,2.);
#155=VECTOR('',#532,1.);
#156=VECTOR('',#533,1.);
#157=VECTOR('',#534,2.);
#158=VECTOR('',#537,1.47916164657906);
#159=VECTOR('',#538,1.47916164657906);
#160=VECTOR('',#539,2.);
#161=VECTOR('',#546,2.);
#162=VECTOR('',#549,1.47916164657906);
#163=VECTOR('',#550,1.47916164657906);
#164=VECTOR('',#551,2.);
#165=VECTOR('',#554,1.);
#166=VECTOR('',#555,1.);
#167=VECTOR('',#562,1.47916164657906);
#168=VECTOR('',#563,3.4);
#169=VECTOR('',#564,1.47916164657906);
#170=VECTOR('',#565,3.4);
#171=VECTOR('',#572,3.4);
#172=VECTOR('',#575,1.47916164657906);
#173=VECTOR('',#576,1.47916164657906);
#174=VECTOR('',#577,3.4);
#175=VECTOR('',#580,2.28255434699759);
#176=VECTOR('',#581,2.28255434699759);
#177=VECTOR('',#582,3.4);
#178=VECTOR('',#589,3.4);
#179=VECTOR('',#592,2.28255434699759);
#180=VECTOR('',#593,2.28255434699759);
#181=VECTOR('',#602,1.);
#182=VECTOR('',#605,1.);
#183=VECTOR('',#608,2.60952102884802);
#184=VECTOR('',#609,2.60952102884802);
#185=VECTOR('',#618,1.);
#186=VECTOR('',#621,1.);
#187=VECTOR('',#624,1.22916164657906);
#188=VECTOR('',#625,1.22916164657906);
#189=VECTOR('',#626,1.);
#190=VECTOR('',#629,1.);
#191=VECTOR('',#630,1.);
#192=VECTOR('',#631,1.);
#193=VECTOR('',#634,1.22916164657906);
#194=VECTOR('',#635,1.22916164657906);
#195=VERTEX_POINT('',#642);
#196=VERTEX_POINT('',#643);
#197=VERTEX_POINT('',#645);
#198=VERTEX_POINT('',#647);
#199=VERTEX_POINT('',#651);
#200=VERTEX_POINT('',#653);
#201=VERTEX_POINT('',#657);
#202=VERTEX_POINT('',#659);
#203=VERTEX_POINT('',#663);
#204=VERTEX_POINT('',#665);
#205=VERTEX_POINT('',#669);
#206=VERTEX_POINT('',#671);
#207=VERTEX_POINT('',#675);
#208=VERTEX_POINT('',#677);
#209=VERTEX_POINT('',#681);
#210=VERTEX_POINT('',#683);
#211=VERTEX_POINT('',#692);
#212=VERTEX_POINT('',#693);
#213=VERTEX_POINT('',#695);
#214=VERTEX_POINT('',#697);
#215=VERTEX_POINT('',#701);
#216=VERTEX_POINT('',#703);
#217=VERTEX_POINT('',#707);
#218=VERTEX_POINT('',#709);
#219=VERTEX_POINT('',#713);
#220=VERTEX_POINT('',#715);
#221=VERTEX_POINT('',#719);
#222=VERTEX_POINT('',#721);
#223=VERTEX_POINT('',#730);
#224=VERTEX_POINT('',#731);
#225=VERTEX_POINT('',#733);
#226=VERTEX_POINT('',#735);
#227=VERTEX_POINT('',#744);
#228=VERTEX_POINT('',#745);
#229=VERTEX_POINT('',#747);
#230=VERTEX_POINT('',#749);
#231=VERTEX_POINT('',#753);
#232=VERTEX_POINT('',#755);
#233=VERTEX_POINT('',#759);
#234=VERTEX_POINT('',#761);
#235=EDGE_CURVE('',#195,#196,#99,.T.);
#236=EDGE_CURVE('',#196,#197,#100,.T.);
#237=EDGE_CURVE('',#198,#197,#101,.T.);
#238=EDGE_CURVE('',#195,#198,#102,.T.);
#239=EDGE_CURVE('',#199,#195,#25,.T.);
#240=EDGE_CURVE('',#200,#198,#26,.T.);
#241=EDGE_CURVE('',#199,#200,#103,.T.);
#242=EDGE_CURVE('',#201,#199,#104,.T.);
#243=EDGE_CURVE('',#202,#200,#105,.T.);
#244=EDGE_CURVE('',#201,#202,#106,.T.);
#245=EDGE_CURVE('',#203,#201,#107,.T.);
#246=EDGE_CURVE('',#204,#202,#108,.T.);
#247=EDGE_CURVE('',#203,#204,#109,.T.);
#248=EDGE_CURVE('',#205,#203,#110,.T.);
#249=EDGE_CURVE('',#206,#204,#111,.T.);
#250=EDGE_CURVE('',#205,#206,#112,.T.);
#251=EDGE_CURVE('',#207,#205,#27,.T.);
#252=EDGE_CURVE('',#208,#206,#28,.T.);
#253=EDGE_CURVE('',#207,#208,#113,.T.);
#254=EDGE_CURVE('',#209,#207,#114,.T.);
#255=EDGE_CURVE('',#210,#208,#115,.T.);
#256=EDGE_CURVE('',#209,#210,#116,.T.);
#257=EDGE_CURVE('',#196,#209,#117,.T.);
#258=EDGE_CURVE('',#197,#210,#118,.T.);
#259=EDGE_CURVE('',#211,#212,#119,.T.);
#260=EDGE_CURVE('',#212,#213,#120,.T.);
#261=EDGE_CURVE('',#214,#213,#121,.T.);
#262=EDGE_CURVE('',#211,#214,#122,.T.);
#263=EDGE_CURVE('',#215,#211,#29,.T.);
#264=EDGE_CURVE('',#216,#214,#30,.T.);
#265=EDGE_CURVE('',#215,#216,#123,.T.);
#266=EDGE_CURVE('',#217,#215,#124,.T.);
#267=EDGE_CURVE('',#218,#216,#125,.T.);
#268=EDGE_CURVE('',#217,#218,#126,.T.);
#269=EDGE_CURVE('',#219,#217,#127,.T.);
#270=EDGE_CURVE('',#220,#218,#128,.T.);
#271=EDGE_CURVE('',#219,#220,#129,.T.);
#272=EDGE_CURVE('',#221,#219,#31,.T.);
#273=EDGE_CURVE('',#222,#220,#32,.T.);
#274=EDGE_CURVE('',#221,#222,#130,.T.);
#275=EDGE_CURVE('',#212,#221,#131,.T.);
#276=EDGE_CURVE('',#213,#222,#132,.T.);
#277=EDGE_CURVE('',#223,#224,#33,.T.);
#278=EDGE_CURVE('',#224,#225,#133,.T.);
#279=EDGE_CURVE('',#226,#225,#34,.T.);
#280=EDGE_CURVE('',#223,#226,#134,.T.);
#281=EDGE_CURVE('',#224,#223,#135,.T.);
#282=EDGE_CURVE('',#225,#226,#136,.T.);
#283=EDGE_CURVE('',#227,#228,#35,.T.);
#284=EDGE_CURVE('',#228,#229,#137,.T.);
#285=EDGE_CURVE('',#230,#229,#36,.T.);
#286=EDGE_CURVE('',#227,#230,#138,.T.);
#287=EDGE_CURVE('',#231,#227,#139,.T.);
#288=EDGE_CURVE('',#232,#230,#140,.T.);
#289=EDGE_CURVE('',#231,#232,#141,.T.);
#290=EDGE_CURVE('',#233,#231,#142,.T.);
#291=EDGE_CURVE('',#234,#232,#143,.T.);
#292=EDGE_CURVE('',#233,#234,#144,.T.);
#293=EDGE_CURVE('',#228,#233,#145,.T.);
#294=EDGE_CURVE('',#229,#234,#146,.T.);
#295=ORIENTED_EDGE('',*,*,#235,.T.);
#296=ORIENTED_EDGE('',*,*,#236,.T.);
#297=ORIENTED_EDGE('',*,*,#237,.F.);
#298=ORIENTED_EDGE('',*,*,#238,.F.);
#299=ORIENTED_EDGE('',*,*,#239,.T.);
#300=ORIENTED_EDGE('',*,*,#238,.T.);
#301=ORIENTED_EDGE('',*,*,#240,.F.);
#302=ORIENTED_EDGE('',*,*,#241,.F.);
#303=ORIENTED_EDGE('',*,*,#242,.T.);
#304=ORIENTED_EDGE('',*,*,#241,.T.);
#305=ORIENTED_EDGE('',*,*,#243,.F.);
#306=ORIENTED_EDGE('',*,*,#244,.F.);
#307=ORIENTED_EDGE('',*,*,#245,.T.);
#308=ORIENTED_EDGE('',*,*,#244,.T.);
#309=ORIENTED_EDGE('',*,*,#246,.F.);
#310=ORIENTED_EDGE('',*,*,#247,.F.);
#311=ORIENTED_EDGE('',*,*,#248,.T.);
#312=ORIENTED_EDGE('',*,*,#247,.T.);
#313=ORIENTED_EDGE('',*,*,#249,.F.);
#314=ORIENTED_EDGE('',*,*,#250,.F.);
#315=ORIENTED_EDGE('',*,*,#251,.T.);
#316=ORIENTED_EDGE('',*,*,#250,.T.);
#317=ORIENTED_EDGE('',*,*,#252,.F.);
#318=ORIENTED_EDGE('',*,*,#253,.F.);
#319=ORIENTED_EDGE('',*,*,#254,.T.);
#320=ORIENTED_EDGE('',*,*,#253,.T.);
#321=ORIENTED_EDGE('',*,*,#255,.F.);
#322=ORIENTED_EDGE('',*,*,#256,.F.);
#323=ORIENTED_EDGE('',*,*,#257,.T.);
#324=ORIENTED_EDGE('',*,*,#256,.T.);
#325=ORIENTED_EDGE('',*,*,#258,.F.);
#326=ORIENTED_EDGE('',*,*,#236,.F.);
#327=ORIENTED_EDGE('',*,*,#258,.T.);
#328=ORIENTED_EDGE('',*,*,#255,.T.);
#329=ORIENTED_EDGE('',*,*,#252,.T.);
#330=ORIENTED_EDGE('',*,*,#249,.T.);
#331=ORIENTED_EDGE('',*,*,#246,.T.);
#332=ORIENTED_EDGE('',*,*,#243,.T.);
#333=ORIENTED_EDGE('',*,*,#240,.T.);
#334=ORIENTED_EDGE('',*,*,#237,.T.);
#335=ORIENTED_EDGE('',*,*,#257,.F.);
#336=ORIENTED_EDGE('',*,*,#235,.F.);
#337=ORIENTED_EDGE('',*,*,#239,.F.);
#338=ORIENTED_EDGE('',*,*,#242,.F.);
#339=ORIENTED_EDGE('',*,*,#245,.F.);
#340=ORIENTED_EDGE('',*,*,#248,.F.);
#341=ORIENTED_EDGE('',*,*,#251,.F.);
#342=ORIENTED_EDGE('',*,*,#254,.F.);
#343=ORIENTED_EDGE('',*,*,#259,.T.);
#344=ORIENTED_EDGE('',*,*,#260,.T.);
#345=ORIENTED_EDGE('',*,*,#261,.F.);
#346=ORIENTED_EDGE('',*,*,#262,.F.);
#347=ORIENTED_EDGE('',*,*,#263,.T.);
#348=ORIENTED_EDGE('',*,*,#262,.T.);
#349=ORIENTED_EDGE('',*,*,#264,.F.);
#350=ORIENTED_EDGE('',*,*,#265,.F.);
#351=ORIENTED_EDGE('',*,*,#266,.T.);
#352=ORIENTED_EDGE('',*,*,#265,.T.);
#353=ORIENTED_EDGE('',*,*,#267,.F.);
#354=ORIENTED_EDGE('',*,*,#268,.F.);
#355=ORIENTED_EDGE('',*,*,#269,.T.);
#356=ORIENTED_EDGE('',*,*,#268,.T.);
#357=ORIENTED_EDGE('',*,*,#270,.F.);
#358=ORIENTED_EDGE('',*,*,#271,.F.);
#359=ORIENTED_EDGE('',*,*,#272,.T.);
#360=ORIENTED_EDGE('',*,*,#271,.T.);
#361=ORIENTED_EDGE('',*,*,#273,.F.);
#362=ORIENTED_EDGE('',*,*,#274,.F.);
#363=ORIENTED_EDGE('',*,*,#275,.T.);
#364=ORIENTED_EDGE('',*,*,#274,.T.);
#365=ORIENTED_EDGE('',*,*,#276,.F.);
#366=ORIENTED_EDGE('',*,*,#260,.F.);
#367=ORIENTED_EDGE('',*,*,#276,.T.);
#368=ORIENTED_EDGE('',*,*,#273,.T.);
#369=ORIENTED_EDGE('',*,*,#270,.T.);
#370=ORIENTED_EDGE('',*,*,#267,.T.);
#371=ORIENTED_EDGE('',*,*,#264,.T.);
#372=ORIENTED_EDGE('',*,*,#261,.T.);
#373=ORIENTED_EDGE('',*,*,#275,.F.);
#374=ORIENTED_EDGE('',*,*,#259,.F.);
#375=ORIENTED_EDGE('',*,*,#263,.F.);
#376=ORIENTED_EDGE('',*,*,#266,.F.);
#377=ORIENTED_EDGE('',*,*,#269,.F.);
#378=ORIENTED_EDGE('',*,*,#272,.F.);
#379=ORIENTED_EDGE('',*,*,#277,.T.);
#380=ORIENTED_EDGE('',*,*,#278,.T.);
#381=ORIENTED_EDGE('',*,*,#279,.F.);
#382=ORIENTED_EDGE('',*,*,#280,.F.);
#383=ORIENTED_EDGE('',*,*,#281,.T.);
#384=ORIENTED_EDGE('',*,*,#280,.T.);
#385=ORIENTED_EDGE('',*,*,#282,.F.);
#386=ORIENTED_EDGE('',*,*,#278,.F.);
#387=ORIENTED_EDGE('',*,*,#282,.T.);
#388=ORIENTED_EDGE('',*,*,#279,.T.);
#389=ORIENTED_EDGE('',*,*,#281,.F.);
#390=ORIENTED_EDGE('',*,*,#277,.F.);
#391=ORIENTED_EDGE('',*,*,#283,.T.);
#392=ORIENTED_EDGE('',*,*,#284,.T.);
#393=ORIENTED_EDGE('',*,*,#285,.F.);
#394=ORIENTED_EDGE('',*,*,#286,.F.);
#395=ORIENTED_EDGE('',*,*,#287,.T.);
#396=ORIENTED_EDGE('',*,*,#286,.T.);
#397=ORIENTED_EDGE('',*,*,#288,.F.);
#398=ORIENTED_EDGE('',*,*,#289,.F.);
#399=ORIENTED_EDGE('',*,*,#290,.T.);
#400=ORIENTED_EDGE('',*,*,#289,.T.);
#401=ORIENTED_EDGE('',*,*,#291,.F.);
#402=ORIENTED_EDGE('',*,*,#292,.F.);
#403=ORIENTED_EDGE('',*,*,#293,.T.);
#404=ORIENTED_EDGE('',*,*,#292,.T.);
#405=ORIENTED_EDGE('',*,*,#294,.F.);
#406=ORIENTED_EDGE('',*,*,#284,.F.);
#407=ORIENTED_EDGE('',*,*,#294,.T.);
#408=ORIENTED_EDGE('',*,*,#291,.T.);
#409=ORIENTED_EDGE('',*,*,#288,.T.);
#410=ORIENTED_EDGE('',*,*,#285,.T.);
#411=ORIENTED_EDGE('',*,*,#293,.F.);
#412=ORIENTED_EDGE('',*,*,#283,.F.);
#413=ORIENTED_EDGE('',*,*,#287,.F.);
#414=ORIENTED_EDGE('',*,*,#290,.F.);
#415=PLANE('',#470);
#416=PLANE('',#474);
#417=PLANE('',#475);
#418=PLANE('',#476);
#419=PLANE('',#480);
#420=PLANE('',#481);
#421=PLANE('',#482);
#422=PLANE('',#483);
#423=PLANE('',#484);
#424=PLANE('',#488);
#425=PLANE('',#489);
#426=PLANE('',#493);
#427=PLANE('',#494);
#428=PLANE('',#495);
#429=PLANE('',#499);
#430=PLANE('',#500);
#431=PLANE('',#501);
#432=PLANE('',#505);
#433=PLANE('',#506);
#434=PLANE('',#507);
#435=PLANE('',#508);
#436=PLANE('',#509);
#437=ADVANCED_FACE('',(#43),#415,.T.);
#438=ADVANCED_FACE('',(#44),#37,.T.);
#439=ADVANCED_FACE('',(#45),#416,.T.);
#440=ADVANCED_FACE('',(#46),#417,.T.);
#441=ADVANCED_FACE('',(#47),#418,.T.);
#442=ADVANCED_FACE('',(#48),#38,.T.);
#443=ADVANCED_FACE('',(#49),#419,.T.);
#444=ADVANCED_FACE('',(#50),#420,.T.);
#445=ADVANCED_FACE('',(#51),#421,.T.);
#446=ADVANCED_FACE('',(#52),#422,.F.);
#447=ADVANCED_FACE('',(#53),#423,.T.);
#448=ADVANCED_FACE('',(#54),#39,.T.);
#449=ADVANCED_FACE('',(#55),#424,.T.);
#450=ADVANCED_FACE('',(#56),#425,.T.);
#451=ADVANCED_FACE('',(#57),#40,.T.);
#452=ADVANCED_FACE('',(#58),#426,.T.);
#453=ADVANCED_FACE('',(#59),#427,.T.);
#454=ADVANCED_FACE('',(#60),#428,.F.);
#455=ADVANCED_FACE('',(#61),#41,.T.);
#456=ADVANCED_FACE('',(#62),#429,.T.);
#457=ADVANCED_FACE('',(#63),#430,.T.);
#458=ADVANCED_FACE('',(#64),#431,.F.);
#459=ADVANCED_FACE('',(#65),#42,.T.);
#460=ADVANCED_FACE('',(#66),#432,.T.);
#461=ADVANCED_FACE('',(#67),#433,.T.);
#462=ADVANCED_FACE('',(#68),#434,.T.);
#463=ADVANCED_FACE('',(#69),#435,.T.);
#464=ADVANCED_FACE('',(#70),#436,.F.);
#465=CLOSED_SHELL('',(#437,#438,#439,#440,#441,#442,#443,#444,#445,#446));
#466=CLOSED_SHELL('',(#447,#448,#449,#450,#451,#452,#453,#454));
#467=CLOSED_SHELL('',(#455,#456,#457,#458));
#468=CLOSED_SHELL('',(#459,#460,#461,#462,#463,#464));
#469=AXIS2_PLACEMENT_3D('placement',#640,#510,#511);
#470=AXIS2_PLACEMENT_3D('',#641,#512,#513);
#471=AXIS2_PLACEMENT_3D('',#650,#518,#519);
#472=AXIS2_PLACEMENT_3D('',#652,#520,#521);
#473=AXIS2_PLACEMENT_3D('',#654,#522,#523);
#474=AXIS2_PLACEMENT_3D('',#656,#525,#526);
#475=AXIS2_PLACEMENT_3D('',#662,#530,#531);
#476=AXIS2_PLACEMENT_3D('',#668,#535,#536);
#477=AXIS2_PLACEMENT_3D('',#674,#540,#541);
#478=AXIS2_PLACEMENT_3D('',#676,#542,#543);
#479=AXIS2_PLACEMENT_3D('',#678,#544,#545);
#480=AXIS2_PLACEMENT_3D('',#680,#547,#548);
#481=AXIS2_PLACEMENT_3D('',#686,#552,#553);
#482=AXIS2_PLACEMENT_3D('',#689,#556,#557);
#483=AXIS2_PLACEMENT_3D('',#690,#558,#559);
#484=AXIS2_PLACEMENT_3D('',#691,#560,#561);
#485=AXIS2_PLACEMENT_3D('',#700,#566,#567);
#486=AXIS2_PLACEMENT_3D('',#702,#568,#569);
#487=AXIS2_PLACEMENT_3D('',#704,#570,#571);
#488=AXIS2_PLACEMENT_3D('',#706,#573,#574);
#489=AXIS2_PLACEMENT_3D('',#712,#578,#579);
#490=AXIS2_PLACEMENT_3D('',#718,#583,#584);
#491=AXIS2_PLACEMENT_3D('',#720,#585,#586);
#492=AXIS2_PLACEMENT_3D('',#722,#587,#588);
#493=AXIS2_PLACEMENT_3D('',#724,#590,#591);
#494=AXIS2_PLACEMENT_3D('',#727,#594,#595);
#495=AXIS2_PLACEMENT_3D('',#728,#596,#597);
#496=AXIS2_PLACEMENT_3D('',#729,#598,#599);
#497=AXIS2_PLACEMENT_3D('',#732,#600,#601);
#498=AXIS2_PLACEMENT_3D('',#736,#603,#604);
#499=AXIS2_PLACEMENT_3D('',#738,#606,#607);
#500=AXIS2_PLACEMENT_3D('',#741,#610,#611);
#501=AXIS2_PLACEMENT_3D('',#742,#612,#613);
#502=AXIS2_PLACEMENT_3D('',#743,#614,#615);
#503=AXIS2_PLACEMENT_3D('',#746,#616,#617);
#504=AXIS2_PLACEMENT_3D('',#750,#619,#620);
#505=AXIS2_PLACEMENT_3D('',#752,#622,#623);
#506=AXIS2_PLACEMENT_3D('',#758,#627,#628);
#507=AXIS2_PLACEMENT_3D('',#764,#632,#633);
#508=AXIS2_PLACEMENT_3D('',#767,#636,#637);
#509=AXIS2_PLACEMENT_3D('',#768,#638,#639);
#510=DIRECTION('axis',(0.,0.,1.));
#511=DIRECTION('refdir',(1.,0.,0.));
#512=DIRECTION('center_axis',(9.00691031728277E-16,1.,0.));
#513=DIRECTION('ref_axis',(-1.,8.88178419700125E-16,0.));
#514=DIRECTION('',(-1.,9.00691031728277E-16,0.));
#515=DIRECTION('',(0.,0.,1.));
#516=DIRECTION('',(-1.,9.00691031728277E-16,0.));
#517=DIRECTION('',(0.,0.,1.));
#518=DIRECTION('center_axis',(0.,0.,1.));
#519=DIRECTION('ref_axis',(-0.960645359210588,-0.277777777777778,0.));
#520=DIRECTION('center_axis',(0.,0.,1.));
#521=DIRECTION('ref_axis',(-0.960645359210588,-0.277777777777778,0.));
#522=DIRECTION('center_axis',(0.,0.,1.));
#523=DIRECTION('ref_axis',(-0.960645359210588,-0.277777777777778,0.));
#524=DIRECTION('',(0.,0.,1.));
#525=DIRECTION('center_axis',(3.00230343909425E-16,1.,0.));
#526=DIRECTION('ref_axis',(-1.,3.33066907387547E-16,0.));
#527=DIRECTION('',(-1.,3.00230343909425E-16,0.));
#528=DIRECTION('',(-1.,3.00230343909425E-16,0.));
#529=DIRECTION('',(0.,0.,1.));
#530=DIRECTION('center_axis',(-1.,8.88178419700125E-16,0.));
#531=DIRECTION('ref_axis',(-8.88178419700125E-16,-1.,0.));
#532=DIRECTION('',(-8.88178419700125E-16,-1.,0.));
#533=DIRECTION('',(-8.88178419700125E-16,-1.,0.));
#534=DIRECTION('',(0.,0.,1.));
#535=DIRECTION('center_axis',(3.00230343909425E-16,-1.,0.));
#536=DIRECTION('ref_axis',(1.,2.77555756156289E-16,0.));
#537=DIRECTION('',(1.,3.00230343909425E-16,0.));
#538=DIRECTION('',(1.,3.00230343909425E-16,0.));
#539=DIRECTION('',(0.,0.,1.));
#540=DIRECTION('center_axis',(0.,0.,1.));
#541=DIRECTION('ref_axis',(0.960645359210588,0.277777777777778,0.));
#542=DIRECTION('center_axis',(0.,0.,1.));
#543=DIRECTION('ref_axis',(0.960645359210588,0.277777777777778,0.));
#544=DIRECTION('center_axis',(0.,0.,1.));
#545=DIRECTION('ref_axis',(0.960645359210588,0.277777777777778,0.));
#546=DIRECTION('',(0.,0.,1.));
#547=DIRECTION('center_axis',(0.,-1.,0.));
#548=DIRECTION('ref_axis',(1.,0.,0.));
#549=DIRECTION('',(1.,0.,0.));
#550=DIRECTION('',(1.,0.,0.));
#551=DIRECTION('',(0.,0.,1.));
#552=DIRECTION('center_axis',(1.,0.,0.));
#553=DIRECTION('ref_axis',(0.,1.,0.));
#554=DIRECTION('',(0.,1.,0.));
#555=DIRECTION('',(0.,1.,0.));
#556=DIRECTION('center_axis',(0.,0.,1.));
#557=DIRECTION('ref_axis',(1.,0.,0.));
#558=DIRECTION('center_axis',(0.,0.,1.));
#559=DIRECTION('ref_axis',(1.,0.,0.));
#560=DIRECTION('center_axis',(1.2009213756377E-15,-1.,0.));
#561=DIRECTION('ref_axis',(1.,1.22124532708767E-15,0.));
#562=DIRECTION('',(1.,1.2009213756377E-15,0.));
#563=DIRECTION('',(0.,0.,1.));
#564=DIRECTION('',(1.,1.2009213756377E-15,0.));
#565=DIRECTION('',(0.,0.,1.));
#566=DIRECTION('center_axis',(0.,0.,1.));
#567=DIRECTION('ref_axis',(0.960645359210588,0.277777777777777,0.));
#568=DIRECTION('center_axis',(0.,0.,1.));
#569=DIRECTION('ref_axis',(0.960645359210588,0.277777777777777,0.));
#570=DIRECTION('center_axis',(0.,0.,1.));
#571=DIRECTION('ref_axis',(0.960645359210588,0.277777777777777,0.));
#572=DIRECTION('',(0.,0.,1.));
#573=DIRECTION('center_axis',(0.,-1.,0.));
#574=DIRECTION('ref_axis',(1.,0.,0.));
#575=DIRECTION('',(1.,0.,0.));
#576=DIRECTION('',(1.,0.,0.));
#577=DIRECTION('',(0.,0.,1.));
#578=DIRECTION('center_axis',(1.,-7.7823200211501E-16,0.));
#579=DIRECTION('ref_axis',(7.7715611723761E-16,1.,0.));
#580=DIRECTION('',(7.7823200211501E-16,1.,0.));
#581=DIRECTION('',(7.7823200211501E-16,1.,0.));
#582=DIRECTION('',(0.,0.,1.));
#583=DIRECTION('center_axis',(0.,0.,1.));
#584=DIRECTION('ref_axis',(-0.138888888888892,-0.990307970554216,0.));
#585=DIRECTION('center_axis',(0.,0.,1.));
#586=DIRECTION('ref_axis',(-0.138888888888892,-0.990307970554216,0.));
#587=DIRECTION('center_axis',(0.,0.,1.));
#588=DIRECTION('ref_axis',(-0.138888888888892,-0.990307970554216,0.));
#589=DIRECTION('',(0.,0.,1.));
#590=DIRECTION('center_axis',(-1.,2.33469600634503E-15,0.));
#591=DIRECTION('ref_axis',(-2.33146835171283E-15,-1.,0.));
#592=DIRECTION('',(-2.33469600634503E-15,-1.,0.));
#593=DIRECTION('',(-2.33469600634503E-15,-1.,0.));
#594=DIRECTION('center_axis',(0.,0.,1.));
#595=DIRECTION('ref_axis',(1.,0.,0.));
#596=DIRECTION('center_axis',(0.,0.,1.));
#597=DIRECTION('ref_axis',(1.,0.,0.));
#598=DIRECTION('center_axis',(0.,0.,1.));
#599=DIRECTION('ref_axis',(0.724866952457783,0.688888888888887,0.));
#600=DIRECTION('center_axis',(0.,0.,1.));
#601=DIRECTION('ref_axis',(0.724866952457783,0.688888888888887,0.));
#602=DIRECTION('',(0.,0.,1.));
#603=DIRECTION('center_axis',(0.,0.,1.));
#604=DIRECTION('ref_axis',(0.724866952457783,0.688888888888887,0.));
#605=DIRECTION('',(0.,0.,1.));
#606=DIRECTION('center_axis',(0.,-1.,0.));
#607=DIRECTION('ref_axis',(1.,0.,0.));
#608=DIRECTION('',(1.,0.,0.));
#609=DIRECTION('',(1.,0.,0.));
#610=DIRECTION('center_axis',(0.,0.,1.));
#611=DIRECTION('ref_axis',(1.,0.,0.));
#612=DIRECTION('center_axis',(0.,0.,1.));
#613=DIRECTION('ref_axis',(1.,0.,0.));
#614=DIRECTION('center_axis',(0.,0.,1.));
#615=DIRECTION('ref_axis',(-0.27777777777778,-0.960645359210587,0.));
#616=DIRECTION('center_axis',(0.,0.,1.));
#617=DIRECTION('ref_axis',(-0.27777777777778,-0.960645359210587,0.));
#618=DIRECTION('',(0.,0.,1.));
#619=DIRECTION('center_axis',(0.,0.,1.));
#620=DIRECTION('ref_axis',(-0.27777777777778,-0.960645359210587,0.));
#621=DIRECTION('',(0.,0.,1.));
#622=DIRECTION('center_axis',(-1.,0.,0.));
#623=DIRECTION('ref_axis',(0.,-1.,0.));
#624=DIRECTION('',(0.,-1.,0.));
#625=DIRECTION('',(0.,-1.,0.));
#626=DIRECTION('',(0.,0.,1.));
#627=DIRECTION('center_axis',(1.77635683940025E-15,1.,0.));
#628=DIRECTION('ref_axis',(-1.,1.77635683940025E-15,0.));
#629=DIRECTION('',(-1.,1.77635683940025E-15,0.));
#630=DIRECTION('',(-1.,1.77635683940025E-15,0.));
#631=DIRECTION('',(0.,0.,1.));
#632=DIRECTION('center_axis',(1.,0.,0.));
#633=DIRECTION('ref_axis',(0.,1.,0.));
#634=DIRECTION('',(0.,1.,0.));
#635=DIRECTION('',(0.,1.,0.));
#636=DIRECTION('center_axis',(0.,0.,1.));
#637=DIRECTION('ref_axis',(1.,0.,0.));
#638=DIRECTION('center_axis',(0.,0.,1.));
#639=DIRECTION('ref_axis',(1.,0.,0.));
#640=CARTESIAN_POINT('',(0.,0.,0.));
#641=CARTESIAN_POINT('Origin',(1.72916164657906,-0.500000000000002,4.4));
#642=CARTESIAN_POINT('',(1.72916164657906,-0.500000000000001,4.4));
#643=CARTESIAN_POINT('',(0.250000000000002,-0.5,4.4));
#644=CARTESIAN_POINT('',(1.72916164657906,-0.500000000000002,4.4));
#645=CARTESIAN_POINT('',(0.250000000000002,-0.5,6.4));
#646=CARTESIAN_POINT('',(0.250000000000002,-0.5,4.4));
#647=CARTESIAN_POINT('',(1.72916164657906,-0.500000000000001,6.4));
#648=CARTESIAN_POINT('',(1.72916164657906,-0.500000000000002,6.4));
#649=CARTESIAN_POINT('',(1.72916164657906,-0.500000000000001,4.4));
#650=CARTESIAN_POINT('Origin',(0.,8.88178419700125E-16,4.4));
#651=CARTESIAN_POINT('',(-1.72916164657906,-0.5,4.4));
#652=CARTESIAN_POINT('Origin',(0.,8.88178419700125E-16,4.4));
#653=CARTESIAN_POINT('',(-1.72916164657906,-0.5,6.4));
#654=CARTESIAN_POINT('Origin',(0.,8.88178419700125E-16,6.4));
#655=CARTESIAN_POINT('',(-1.72916164657906,-0.5,4.4));
#656=CARTESIAN_POINT('Origin',(-0.249999999999999,-0.500000000000001,4.4));
#657=CARTESIAN_POINT('',(-0.249999999999999,-0.500000000000001,4.4));
#658=CARTESIAN_POINT('',(-0.249999999999999,-0.500000000000001,4.4));
#659=CARTESIAN_POINT('',(-0.249999999999999,-0.500000000000001,6.4));
#660=CARTESIAN_POINT('',(-0.249999999999999,-0.500000000000001,6.4));
#661=CARTESIAN_POINT('',(-0.249999999999999,-0.500000000000001,4.4));
#662=CARTESIAN_POINT('Origin',(-0.249999999999998,0.5,4.4));
#663=CARTESIAN_POINT('',(-0.249999999999998,0.5,4.4));
#664=CARTESIAN_POINT('',(-0.249999999999998,0.5,4.4));
#665=CARTESIAN_POINT('',(-0.249999999999998,0.5,6.4));
#666=CARTESIAN_POINT('',(-0.249999999999998,0.5,6.4));
#667=CARTESIAN_POINT('',(-0.249999999999998,0.5,4.4));
#668=CARTESIAN_POINT('Origin',(-1.72916164657906,0.499999999999999,4.4));
#669=CARTESIAN_POINT('',(-1.72916164657906,0.499999999999999,4.4));
#670=CARTESIAN_POINT('',(-1.72916164657906,0.499999999999999,4.4));
#671=CARTESIAN_POINT('',(-1.72916164657906,0.499999999999999,6.4));
#672=CARTESIAN_POINT('',(-1.72916164657906,0.499999999999999,6.4));
#673=CARTESIAN_POINT('',(-1.72916164657906,0.499999999999999,4.4));
#674=CARTESIAN_POINT('Origin',(8.88178419700125E-16,-4.44089209850063E-16,
4.4));
#675=CARTESIAN_POINT('',(1.72916164657906,0.499999999999999,4.4));
#676=CARTESIAN_POINT('Origin',(8.88178419700125E-16,-4.44089209850063E-16,
4.4));
#677=CARTESIAN_POINT('',(1.72916164657906,0.499999999999999,6.4));
#678=CARTESIAN_POINT('Origin',(8.88178419700125E-16,-4.44089209850063E-16,
6.4));
#679=CARTESIAN_POINT('',(1.72916164657906,0.499999999999999,4.4));
#680=CARTESIAN_POINT('Origin',(0.250000000000002,0.499999999999999,4.4));
#681=CARTESIAN_POINT('',(0.250000000000002,0.499999999999999,4.4));
#682=CARTESIAN_POINT('',(0.250000000000002,0.499999999999999,4.4));
#683=CARTESIAN_POINT('',(0.250000000000002,0.499999999999999,6.4));
#684=CARTESIAN_POINT('',(0.250000000000002,0.499999999999999,6.4));
#685=CARTESIAN_POINT('',(0.250000000000002,0.499999999999999,4.4));
#686=CARTESIAN_POINT('Origin',(0.250000000000002,-0.5,4.4));
#687=CARTESIAN_POINT('',(0.250000000000002,-0.5,4.4));
#688=CARTESIAN_POINT('',(0.250000000000002,-0.5,6.4));
#689=CARTESIAN_POINT('Origin',(8.88178419700125E-16,0.,6.4));
#690=CARTESIAN_POINT('Origin',(8.88178419700125E-16,0.,4.4));
#691=CARTESIAN_POINT('Origin',(-1.72916164657906,0.499999999999998,1.));
#692=CARTESIAN_POINT('',(-1.72916164657906,0.499999999999998,1.));
#693=CARTESIAN_POINT('',(-0.249999999999998,0.5,1.));
#694=CARTESIAN_POINT('',(-1.72916164657906,0.499999999999998,1.));
#695=CARTESIAN_POINT('',(-0.249999999999998,0.5,4.4));
#696=CARTESIAN_POINT('',(-0.249999999999998,0.5,1.));
#697=CARTESIAN_POINT('',(-1.72916164657906,0.499999999999998,4.4));
#698=CARTESIAN_POINT('',(-1.72916164657906,0.499999999999998,4.4));
#699=CARTESIAN_POINT('',(-1.72916164657906,0.499999999999998,1.));
#700=CARTESIAN_POINT('Origin',(0.,0.,1.));
#701=CARTESIAN_POINT('',(1.72916164657906,0.499999999999998,1.));
#702=CARTESIAN_POINT('Origin',(0.,0.,1.));
#703=CARTESIAN_POINT('',(1.72916164657906,0.499999999999998,4.4));
#704=CARTESIAN_POINT('Origin',(0.,0.,4.4));
#705=CARTESIAN_POINT('',(1.72916164657906,0.499999999999998,1.));
#706=CARTESIAN_POINT('Origin',(0.250000000000002,0.499999999999998,1.));
#707=CARTESIAN_POINT('',(0.250000000000002,0.499999999999998,1.));
#708=CARTESIAN_POINT('',(0.250000000000002,0.499999999999998,1.));
#709=CARTESIAN_POINT('',(0.250000000000002,0.499999999999998,4.4));
#710=CARTESIAN_POINT('',(0.250000000000002,0.499999999999998,4.4));
#711=CARTESIAN_POINT('',(0.250000000000002,0.499999999999998,1.));
#712=CARTESIAN_POINT('Origin',(0.25,-1.78255434699759,1.));
#713=CARTESIAN_POINT('',(0.249999999999998,-1.78255434699759,1.));
#714=CARTESIAN_POINT('',(0.25,-1.78255434699759,1.));
#715=CARTESIAN_POINT('',(0.249999999999998,-1.78255434699759,4.4));
#716=CARTESIAN_POINT('',(0.25,-1.78255434699759,4.4));
#717=CARTESIAN_POINT('',(0.249999999999998,-1.78255434699759,1.));
#718=CARTESIAN_POINT('Origin',(-1.77635683940025E-15,-2.48689957516035E-14,
1.));
#719=CARTESIAN_POINT('',(-0.250000000000004,-1.78255434699759,1.));
#720=CARTESIAN_POINT('Origin',(-1.77635683940025E-15,-2.48689957516035E-14,
1.));
#721=CARTESIAN_POINT('',(-0.250000000000004,-1.78255434699759,4.4));
#722=CARTESIAN_POINT('Origin',(-1.77635683940025E-15,-2.48689957516035E-14,
4.4));
#723=CARTESIAN_POINT('',(-0.250000000000004,-1.78255434699759,1.));
#724=CARTESIAN_POINT('Origin',(-0.249999999999998,0.5,1.));
#725=CARTESIAN_POINT('',(-0.249999999999998,0.5,1.));
#726=CARTESIAN_POINT('',(-0.249999999999998,0.5,4.4));
#727=CARTESIAN_POINT('Origin',(0.,0.223657274838388,4.4));
#728=CARTESIAN_POINT('Origin',(0.,0.223657274838388,1.));
#729=CARTESIAN_POINT('Origin',(0.,1.77635683940025E-15,0.));
#730=CARTESIAN_POINT('',(1.30476051442401,1.24,0.));
#731=CARTESIAN_POINT('',(-1.30476051442401,1.24,0.));
#732=CARTESIAN_POINT('Origin',(0.,1.77635683940025E-15,0.));
#733=CARTESIAN_POINT('',(-1.30476051442401,1.24,1.));
#734=CARTESIAN_POINT('',(-1.30476051442401,1.24,0.));
#735=CARTESIAN_POINT('',(1.30476051442401,1.24,1.));
#736=CARTESIAN_POINT('Origin',(0.,1.77635683940025E-15,1.));
#737=CARTESIAN_POINT('',(1.30476051442401,1.24,0.));
#738=CARTESIAN_POINT('Origin',(-1.30476051442401,1.24,0.));
#739=CARTESIAN_POINT('',(-1.30476051442401,1.24,0.));
#740=CARTESIAN_POINT('',(-1.30476051442401,1.24,1.));
#741=CARTESIAN_POINT('Origin',(8.88178419700125E-16,1.40840842003453,1.));
#742=CARTESIAN_POINT('Origin',(8.88178419700125E-16,1.40840842003453,0.));
#743=CARTESIAN_POINT('Origin',(1.77635683940025E-15,-1.59872115546023E-14,
0.));
#744=CARTESIAN_POINT('',(-0.499999999999998,-1.72916164657906,0.));
#745=CARTESIAN_POINT('',(0.500000000000002,-1.72916164657906,0.));
#746=CARTESIAN_POINT('Origin',(1.77635683940025E-15,-1.59872115546023E-14,
0.));
#747=CARTESIAN_POINT('',(0.500000000000002,-1.72916164657906,1.));
#748=CARTESIAN_POINT('',(0.500000000000002,-1.72916164657906,0.));
#749=CARTESIAN_POINT('',(-0.499999999999998,-1.72916164657906,1.));
#750=CARTESIAN_POINT('Origin',(1.77635683940025E-15,-1.59872115546023E-14,
1.));
#751=CARTESIAN_POINT('',(-0.499999999999998,-1.72916164657906,0.));
#752=CARTESIAN_POINT('Origin',(-0.499999999999998,-0.500000000000002,0.));
#753=CARTESIAN_POINT('',(-0.499999999999998,-0.500000000000002,0.));
#754=CARTESIAN_POINT('',(-0.499999999999998,-0.500000000000002,0.));
#755=CARTESIAN_POINT('',(-0.499999999999998,-0.500000000000002,1.));
#756=CARTESIAN_POINT('',(-0.499999999999998,-0.500000000000002,1.));
#757=CARTESIAN_POINT('',(-0.499999999999998,-0.500000000000002,0.));
#758=CARTESIAN_POINT('Origin',(0.500000000000002,-0.500000000000004,0.));
#759=CARTESIAN_POINT('',(0.500000000000002,-0.500000000000004,0.));
#760=CARTESIAN_POINT('',(0.500000000000002,-0.500000000000004,0.));
#761=CARTESIAN_POINT('',(0.500000000000002,-0.500000000000004,1.));
#762=CARTESIAN_POINT('',(0.500000000000002,-0.500000000000004,1.));
#763=CARTESIAN_POINT('',(0.500000000000002,-0.500000000000004,0.));
#764=CARTESIAN_POINT('Origin',(0.500000000000002,-1.72916164657906,0.));
#765=CARTESIAN_POINT('',(0.500000000000002,-1.72916164657906,0.));
#766=CARTESIAN_POINT('',(0.500000000000002,-1.72916164657906,1.));
#767=CARTESIAN_POINT('Origin',(1.77635683940025E-15,-1.08811104076358,1.));
#768=CARTESIAN_POINT('Origin',(1.77635683940025E-15,-1.08811104076358,0.));
#769=UNCERTAINTY_MEASURE_WITH_UNIT(LENGTH_MEASURE(0.01),#773,
'DISTANCE_ACCURACY_VALUE',
'Maximum model space distance between geometric entities at asserted c
onnectivities');
#770=UNCERTAINTY_MEASURE_WITH_UNIT(LENGTH_MEASURE(1.E-6),#773,
'DISTANCE_ACCURACY_VALUE',
'Maximum model space distance between geometric entities at asserted c
onnectivities');
#771=(
GEOMETRIC_REPRESENTATION_CONTEXT(3)
GLOBAL_UNCERTAINTY_ASSIGNED_CONTEXT((#769))
GLOBAL_UNIT_ASSIGNED_CONTEXT((#773,#775,#774))
REPRESENTATION_CONTEXT('','3D')
);
#772=(
GEOMETRIC_REPRESENTATION_CONTEXT(3)
GLOBAL_UNCERTAINTY_ASSIGNED_CONTEXT((#770))
GLOBAL_UNIT_ASSIGNED_CONTEXT((#773,#12,#774))
REPRESENTATION_CONTEXT('','3D')
);
#773=(
LENGTH_UNIT()
NAMED_UNIT(*)
SI_UNIT(.MILLI.,.METRE.)
);
#774=(
NAMED_UNIT(*)
SI_UNIT($,.STERADIAN.)
SOLID_ANGLE_UNIT()
);
#775=(
NAMED_UNIT(*)
PLANE_ANGLE_UNIT()
SI_UNIT($,.RADIAN.)
);
#776=SHAPE_DEFINITION_REPRESENTATION(#777,#778);
#777=PRODUCT_DEFINITION_SHAPE('',$,#780);
#778=SHAPE_REPRESENTATION('',(#469),#771);
#779=PRODUCT_DEFINITION_CONTEXT('part definition',#784,'design');
#780=PRODUCT_DEFINITION('Product','Product',#781,#779);
#781=PRODUCT_DEFINITION_FORMATION('',$,#786);
#782=PRODUCT_RELATED_PRODUCT_CATEGORY('Product','Product',(#786));
#783=APPLICATION_PROTOCOL_DEFINITION('international standard',
'automotive_design',2009,#784);
#784=APPLICATION_CONTEXT(
'Core Data for Automotive Mechanical Design Process');
#785=PRODUCT_CONTEXT('part definition',#784,'mechanical');
#786=PRODUCT('Product','Product',$,(#785));
#787=PRESENTATION_STYLE_ASSIGNMENT((#789));
#788=PRESENTATION_STYLE_ASSIGNMENT((#790));
#789=SURFACE_STYLE_USAGE(.BOTH.,#791);
#790=SURFACE_STYLE_USAGE(.BOTH.,#792);
#791=SURFACE_SIDE_STYLE('',(#793));
#792=SURFACE_SIDE_STYLE('',(#794));
#793=SURFACE_STYLE_FILL_AREA(#795);
#794=SURFACE_STYLE_FILL_AREA(#796);
#795=FILL_AREA_STYLE('',(#797));
#796=FILL_AREA_STYLE('',(#798));
#797=FILL_AREA_STYLE_COLOUR('',#799);
#798=FILL_AREA_STYLE_COLOUR('',#800);
#799=COLOUR_RGB('',1.,1.,1.);
#800=COLOUR_RGB('',0.866666666666667,0.866666666666667,0.866666666666667);
ENDSEC;
END-ISO-10303-21;
