ISO-10303-21;
HEADER;
/****************************************************************
 * Generated by software with PDElib inside                    *
 * PDElib Version v51a, created Wed 11/30/2011                  *
 * ITI Transcendata (http://www.transcendata.com/)              *
 ****************************************************************/
FILE_DESCRIPTION((''),'2;1');
FILE_NAME('FUSC_TYCO_1206SFS.stp','2014-03-03T14:05:49',(''),(''),'Mechanical Desktop 2011','Mechanical Desktop 2011',', , ');
FILE_SCHEMA(('AUTOMOTIVE_DESIGN { 1 2 10303 214 1 1 1 1 }'));
ENDSEC;
DATA;
#10=(NAMED_UNIT(*)PLANE_ANGLE_UNIT()SI_UNIT($,.RADIAN.));
#11=DIMENSIONAL_EXPONENTS(0.0,0.0,0.0,0.0,0.0,0.0,0.0);
#12=PLANE_ANGLE_MEASURE_WITH_UNIT(PLANE_ANGLE_MEASURE(0.0174532925),#10);
#16=(CONVERSION_BASED_UNIT('DEGREE',#12)NAMED_UNIT(#11)PLANE_ANGLE_UNIT());
#20=(NAMED_UNIT(*)SI_UNIT($,.STERADIAN.)SOLID_ANGLE_UNIT());
#24=(LENGTH_UNIT()NAMED_UNIT(*)SI_UNIT(.MILLI.,.METRE.));
#26=UNCERTAINTY_MEASURE_WITH_UNIT(LENGTH_MEASURE(0.000001),#24,'DISTANCE_ACCURACY_VALUE','');
#28=(GEOMETRIC_REPRESENTATION_CONTEXT(3)GLOBAL_UNCERTAINTY_ASSIGNED_CONTEXT((#26))GLOBAL_UNIT_ASSIGNED_CONTEXT((#16,#20,#24))REPRESENTATION_CONTEXT('','3D'));
#29=APPLICATION_CONTEXT('automotive design');
#30=APPLICATION_PROTOCOL_DEFINITION('INTERNATIONAL_STANDARD','automotive_design',1998,#29);
#31=PRODUCT_CONTEXT('3D Mechanical Parts',#29,'mechanical');
#32=PRODUCT('Product','Product','',(#31));
#33=PRODUCT_RELATED_PRODUCT_CATEGORY('part',$,(#32));
#34=PRODUCT_CATEGORY('part',$);
#35=PERSON('1','Design','Joe',$,$,$);
#36=ORGANIZATION($,'None','None');
#37=PERSON_AND_ORGANIZATION(#35,#36);
#38=PERSON_AND_ORGANIZATION_ROLE('design_owner');
#39=APPLIED_PERSON_AND_ORGANIZATION_ASSIGNMENT(#37,#38,(#32));
#40=PRODUCT_DEFINITION_FORMATION_WITH_SPECIFIED_SOURCE('None','',#32,.BOUGHT.);
#41=PERSON('2','Creator','Joe',$,$,$);
#42=ORGANIZATION($,'None','None');
#43=PERSON_AND_ORGANIZATION(#41,#42);
#44=PERSON_AND_ORGANIZATION_ROLE('creator');
#45=APPLIED_PERSON_AND_ORGANIZATION_ASSIGNMENT(#43,#44,(#40));
#46=PERSON('3','Supplier','Joe',$,$,$);
#47=ORGANIZATION($,'None','None');
#48=PERSON_AND_ORGANIZATION(#46,#47);
#49=PERSON_AND_ORGANIZATION_ROLE('design_supplier');
#50=APPLIED_PERSON_AND_ORGANIZATION_ASSIGNMENT(#48,#49,(#40));
#51=PRODUCT_DEFINITION_CONTEXT('part definition',#29,'design');
#52=PRODUCT_DEFINITION('None','',#40,#51);
#53=PERSON('4','Creator','Joe',$,$,$);
#54=ORGANIZATION($,'None','None');
#55=PERSON_AND_ORGANIZATION(#53,#54);
#56=PERSON_AND_ORGANIZATION_ROLE('creator');
#57=APPLIED_PERSON_AND_ORGANIZATION_ASSIGNMENT(#55,#56,(#52));
#58=CARTESIAN_POINT('NONE',(0.0,0.0,0.0));
#59=DIRECTION('NONE',(0.0,0.0,1.0));
#60=DIRECTION('NONE',(1.0,0.0,0.0));
#61=AXIS2_PLACEMENT_3D('NONE',#58,#59,#60);
#62=SHAPE_REPRESENTATION('SR1',(#61),#28);
#63=PRODUCT_DEFINITION_SHAPE('PDS1','Test Part',#52);
#64=SHAPE_DEFINITION_REPRESENTATION(#63,#62);
#65=CARTESIAN_POINT('',(1.5,-0.7,0.1));
#66=DIRECTION('',(0.0,0.0,1.0));
#67=DIRECTION('',(1.0,0.0,0.0));
#68=AXIS2_PLACEMENT_3D('',#65,#66,#67);
#69=SPHERICAL_SURFACE('',#68,0.1);
#70=CARTESIAN_POINT('',(1.5,-0.8,0.1));
#71=VERTEX_POINT('',#70);
#72=CARTESIAN_POINT('',(1.5,-0.7,0.0));
#73=VERTEX_POINT('',#72);
#74=CARTESIAN_POINT('',(1.5,-0.7,0.1));
#75=DIRECTION('',(1.0,0.0,0.0));
#76=DIRECTION('',(0.0,-0.707106781186547,-0.707106781186548));
#77=AXIS2_PLACEMENT_3D('',#74,#75,#76);
#78=CIRCLE('',#77,0.1);
#79=EDGE_CURVE('',#71,#73,#78,.T.);
#80=ORIENTED_EDGE('',*,*,#79,.T.);
#81=CARTESIAN_POINT('',(1.6,-0.7,0.1));
#82=VERTEX_POINT('',#81);
#83=CARTESIAN_POINT('',(1.5,-0.7,0.1));
#84=DIRECTION('',(0.0,-1.0,0.0));
#85=DIRECTION('',(1.0,0.0,0.0));
#86=AXIS2_PLACEMENT_3D('',#83,#84,#85);
#87=CIRCLE('',#86,0.1);
#88=EDGE_CURVE('',#82,#73,#87,.F.);
#89=ORIENTED_EDGE('',*,*,#88,.F.);
#90=CARTESIAN_POINT('',(1.5,-0.7,0.1));
#91=DIRECTION('',(0.0,0.0,-1.0));
#92=DIRECTION('',(0.0,-1.0,0.0));
#93=AXIS2_PLACEMENT_3D('',#90,#91,#92);
#94=CIRCLE('',#93,0.1);
#95=EDGE_CURVE('',#71,#82,#94,.F.);
#96=ORIENTED_EDGE('',*,*,#95,.F.);
#97=EDGE_LOOP('',(#80,#89,#96));
#98=FACE_OUTER_BOUND('',#97,.T.);
#99=ADVANCED_FACE('',(#98),#69,.T.);
#100=CARTESIAN_POINT('',(1.5,0.7,0.1));
#101=DIRECTION('',(0.0,0.0,1.0));
#102=DIRECTION('',(1.0,0.0,0.0));
#103=AXIS2_PLACEMENT_3D('',#100,#101,#102);
#104=SPHERICAL_SURFACE('',#103,0.1);
#105=CARTESIAN_POINT('',(1.5,0.7,0.0));
#106=VERTEX_POINT('',#105);
#107=CARTESIAN_POINT('',(1.5,0.8,0.1));
#108=VERTEX_POINT('',#107);
#109=CARTESIAN_POINT('',(1.5,0.7,0.1));
#110=DIRECTION('',(1.0,0.0,0.0));
#111=DIRECTION('',(0.0,0.707106781186547,-0.707106781186548));
#112=AXIS2_PLACEMENT_3D('',#109,#110,#111);
#113=CIRCLE('',#112,0.1);
#114=EDGE_CURVE('',#106,#108,#113,.T.);
#115=ORIENTED_EDGE('',*,*,#114,.T.);
#116=CARTESIAN_POINT('',(1.6,0.7,0.1));
#117=VERTEX_POINT('',#116);
#118=CARTESIAN_POINT('',(1.5,0.7,0.1));
#119=DIRECTION('',(0.0,0.0,-1.0));
#120=DIRECTION('',(1.0,0.0,0.0));
#121=AXIS2_PLACEMENT_3D('',#118,#119,#120);
#122=CIRCLE('',#121,0.1);
#123=EDGE_CURVE('',#117,#108,#122,.F.);
#124=ORIENTED_EDGE('',*,*,#123,.F.);
#125=CARTESIAN_POINT('',(1.5,0.7,0.1));
#126=DIRECTION('',(0.0,1.0,0.0));
#127=DIRECTION('',(0.707106781186548,0.0,-0.707106781186547));
#128=AXIS2_PLACEMENT_3D('',#125,#126,#127);
#129=CIRCLE('',#128,0.1);
#130=EDGE_CURVE('',#117,#106,#129,.T.);
#131=ORIENTED_EDGE('',*,*,#130,.T.);
#132=EDGE_LOOP('',(#115,#124,#131));
#133=FACE_OUTER_BOUND('',#132,.T.);
#134=ADVANCED_FACE('',(#133),#104,.T.);
#135=CARTESIAN_POINT('',(1.5,-0.7,1.07));
#136=DIRECTION('',(0.0,0.0,1.0));
#137=DIRECTION('',(1.0,0.0,0.0));
#138=AXIS2_PLACEMENT_3D('',#135,#136,#137);
#139=SPHERICAL_SURFACE('',#138,0.1);
#140=CARTESIAN_POINT('',(1.5,-0.8,1.07));
#141=VERTEX_POINT('',#140);
#142=CARTESIAN_POINT('',(1.6,-0.7,1.07));
#143=VERTEX_POINT('',#142);
#144=CARTESIAN_POINT('',(1.5,-0.7,1.07));
#145=DIRECTION('',(0.0,0.0,1.0));
#146=DIRECTION('',(0.707106781186548,-0.707106781186547,0.0));
#147=AXIS2_PLACEMENT_3D('',#144,#145,#146);
#148=CIRCLE('',#147,0.1);
#149=EDGE_CURVE('',#141,#143,#148,.T.);
#150=ORIENTED_EDGE('',*,*,#149,.T.);
#151=CARTESIAN_POINT('',(1.5,-0.7,1.17));
#152=VERTEX_POINT('',#151);
#153=CARTESIAN_POINT('',(1.5,-0.7,1.07));
#154=DIRECTION('',(0.0,-1.0,0.0));
#155=DIRECTION('',(0.0,0.0,1.0));
#156=AXIS2_PLACEMENT_3D('',#153,#154,#155);
#157=CIRCLE('',#156,0.1);
#158=EDGE_CURVE('',#152,#143,#157,.F.);
#159=ORIENTED_EDGE('',*,*,#158,.F.);
#160=CARTESIAN_POINT('',(1.5,-0.7,1.07));
#161=DIRECTION('',(1.0,0.0,0.0));
#162=DIRECTION('',(0.0,-0.707106781186547,0.707106781186548));
#163=AXIS2_PLACEMENT_3D('',#160,#161,#162);
#164=CIRCLE('',#163,0.1);
#165=EDGE_CURVE('',#152,#141,#164,.T.);
#166=ORIENTED_EDGE('',*,*,#165,.T.);
#167=EDGE_LOOP('',(#150,#159,#166));
#168=FACE_OUTER_BOUND('',#167,.T.);
#169=ADVANCED_FACE('',(#168),#139,.T.);
#170=CARTESIAN_POINT('',(1.5,0.7,1.07));
#171=DIRECTION('',(0.0,0.0,1.0));
#172=DIRECTION('',(1.0,0.0,0.0));
#173=AXIS2_PLACEMENT_3D('',#170,#171,#172);
#174=SPHERICAL_SURFACE('',#173,0.1);
#175=CARTESIAN_POINT('',(1.6,0.7,1.07));
#176=VERTEX_POINT('',#175);
#177=CARTESIAN_POINT('',(1.5,0.8,1.07));
#178=VERTEX_POINT('',#177);
#179=CARTESIAN_POINT('',(1.5,0.7,1.07));
#180=DIRECTION('',(0.0,0.0,1.0));
#181=DIRECTION('',(0.707106781186548,0.707106781186547,0.0));
#182=AXIS2_PLACEMENT_3D('',#179,#180,#181);
#183=CIRCLE('',#182,0.1);
#184=EDGE_CURVE('',#176,#178,#183,.T.);
#185=ORIENTED_EDGE('',*,*,#184,.T.);
#186=CARTESIAN_POINT('',(1.5,0.7,1.17));
#187=VERTEX_POINT('',#186);
#188=CARTESIAN_POINT('',(1.5,0.7,1.07));
#189=DIRECTION('',(1.0,0.0,0.0));
#190=DIRECTION('',(0.0,0.0,1.0));
#191=AXIS2_PLACEMENT_3D('',#188,#189,#190);
#192=CIRCLE('',#191,0.1);
#193=EDGE_CURVE('',#187,#178,#192,.F.);
#194=ORIENTED_EDGE('',*,*,#193,.F.);
#195=CARTESIAN_POINT('',(1.5,0.7,1.07));
#196=DIRECTION('',(0.0,1.0,0.0));
#197=DIRECTION('',(0.707106781186547,0.0,0.707106781186547));
#198=AXIS2_PLACEMENT_3D('',#195,#196,#197);
#199=CIRCLE('',#198,0.1);
#200=EDGE_CURVE('',#187,#176,#199,.T.);
#201=ORIENTED_EDGE('',*,*,#200,.T.);
#202=EDGE_LOOP('',(#185,#194,#201));
#203=FACE_OUTER_BOUND('',#202,.T.);
#204=ADVANCED_FACE('',(#203),#174,.T.);
#205=CARTESIAN_POINT('',(1.345,0.7,1.07));
#206=DIRECTION('',(1.0,0.0,0.0));
#207=DIRECTION('',(0.0,0.707106781186547,0.707106781186548));
#208=AXIS2_PLACEMENT_3D('',#205,#206,#207);
#209=CYLINDRICAL_SURFACE('',#208,0.1);
#210=CARTESIAN_POINT('',(1.09,0.8,1.07));
#211=VERTEX_POINT('',#210);
#212=CARTESIAN_POINT('',(1.09,0.7,1.17));
#213=VERTEX_POINT('',#212);
#214=CARTESIAN_POINT('',(1.09,0.7,1.07));
#215=DIRECTION('',(1.0,0.0,0.0));
#216=DIRECTION('',(0.0,0.707106781186547,0.707106781186548));
#217=AXIS2_PLACEMENT_3D('',#214,#215,#216);
#218=CIRCLE('',#217,0.1);
#219=EDGE_CURVE('',#211,#213,#218,.T.);
#220=ORIENTED_EDGE('',*,*,#219,.T.);
#221=CARTESIAN_POINT('',(1.09,0.7,1.17));
#222=DIRECTION('',(1.0,0.0,0.0));
#223=VECTOR('',#222,0.41);
#224=LINE('',#221,#223);
#225=EDGE_CURVE('',#213,#187,#224,.T.);
#226=ORIENTED_EDGE('',*,*,#225,.T.);
#227=ORIENTED_EDGE('',*,*,#193,.T.);
#228=CARTESIAN_POINT('',(1.5,0.8,1.07));
#229=DIRECTION('',(-1.0,0.0,0.0));
#230=VECTOR('',#229,0.41);
#231=LINE('',#228,#230);
#232=EDGE_CURVE('',#178,#211,#231,.T.);
#233=ORIENTED_EDGE('',*,*,#232,.T.);
#234=EDGE_LOOP('',(#220,#226,#227,#233));
#235=FACE_OUTER_BOUND('',#234,.T.);
#236=ADVANCED_FACE('',(#235),#209,.T.);
#237=CARTESIAN_POINT('',(1.5,-1.110223E-016,1.07));
#238=DIRECTION('',(0.0,-1.0,0.0));
#239=DIRECTION('',(0.707106781186547,0.0,0.707106781186547));
#240=AXIS2_PLACEMENT_3D('',#237,#238,#239);
#241=CYLINDRICAL_SURFACE('',#240,0.1);
#242=ORIENTED_EDGE('',*,*,#158,.T.);
#243=CARTESIAN_POINT('',(1.6,-0.7,1.07));
#244=DIRECTION('',(0.0,1.0,0.0));
#245=VECTOR('',#244,1.4);
#246=LINE('',#243,#245);
#247=EDGE_CURVE('',#143,#176,#246,.T.);
#248=ORIENTED_EDGE('',*,*,#247,.T.);
#249=ORIENTED_EDGE('',*,*,#200,.F.);
#250=CARTESIAN_POINT('',(1.5,0.7,1.17));
#251=DIRECTION('',(0.0,-1.0,0.0));
#252=VECTOR('',#251,1.4);
#253=LINE('',#250,#252);
#254=EDGE_CURVE('',#187,#152,#253,.T.);
#255=ORIENTED_EDGE('',*,*,#254,.T.);
#256=EDGE_LOOP('',(#242,#248,#249,#255));
#257=FACE_OUTER_BOUND('',#256,.T.);
#258=ADVANCED_FACE('',(#257),#241,.T.);
#259=CARTESIAN_POINT('',(1.5,0.7,0.585));
#260=DIRECTION('',(0.0,0.0,-1.0));
#261=DIRECTION('',(0.707106781186548,0.707106781186547,0.0));
#262=AXIS2_PLACEMENT_3D('',#259,#260,#261);
#263=CYLINDRICAL_SURFACE('',#262,0.1);
#264=ORIENTED_EDGE('',*,*,#123,.T.);
#265=CARTESIAN_POINT('',(1.5,0.8,0.1));
#266=DIRECTION('',(0.0,0.0,1.0));
#267=VECTOR('',#266,0.97);
#268=LINE('',#265,#267);
#269=EDGE_CURVE('',#108,#178,#268,.T.);
#270=ORIENTED_EDGE('',*,*,#269,.T.);
#271=ORIENTED_EDGE('',*,*,#184,.F.);
#272=CARTESIAN_POINT('',(1.6,0.7,1.07));
#273=DIRECTION('',(0.0,0.0,-1.0));
#274=VECTOR('',#273,0.97);
#275=LINE('',#272,#274);
#276=EDGE_CURVE('',#176,#117,#275,.T.);
#277=ORIENTED_EDGE('',*,*,#276,.T.);
#278=EDGE_LOOP('',(#264,#270,#271,#277));
#279=FACE_OUTER_BOUND('',#278,.T.);
#280=ADVANCED_FACE('',(#279),#263,.T.);
#281=CARTESIAN_POINT('',(1.345,-0.7,1.07));
#282=DIRECTION('',(-1.0,0.0,0.0));
#283=DIRECTION('',(0.0,-0.707106781186547,0.707106781186548));
#284=AXIS2_PLACEMENT_3D('',#281,#282,#283);
#285=CYLINDRICAL_SURFACE('',#284,0.1);
#286=CARTESIAN_POINT('',(1.09,-0.7,1.17));
#287=VERTEX_POINT('',#286);
#288=CARTESIAN_POINT('',(1.09,-0.8,1.07));
#289=VERTEX_POINT('',#288);
#290=CARTESIAN_POINT('',(1.09,-0.7,1.07));
#291=DIRECTION('',(1.0,0.0,0.0));
#292=DIRECTION('',(0.0,-0.707106781186547,0.707106781186548));
#293=AXIS2_PLACEMENT_3D('',#290,#291,#292);
#294=CIRCLE('',#293,0.1);
#295=EDGE_CURVE('',#287,#289,#294,.T.);
#296=ORIENTED_EDGE('',*,*,#295,.T.);
#297=CARTESIAN_POINT('',(1.09,-0.8,1.07));
#298=DIRECTION('',(1.0,0.0,0.0));
#299=VECTOR('',#298,0.41);
#300=LINE('',#297,#299);
#301=EDGE_CURVE('',#289,#141,#300,.T.);
#302=ORIENTED_EDGE('',*,*,#301,.T.);
#303=ORIENTED_EDGE('',*,*,#165,.F.);
#304=CARTESIAN_POINT('',(1.5,-0.7,1.17));
#305=DIRECTION('',(-1.0,0.0,0.0));
#306=VECTOR('',#305,0.41);
#307=LINE('',#304,#306);
#308=EDGE_CURVE('',#152,#287,#307,.T.);
#309=ORIENTED_EDGE('',*,*,#308,.T.);
#310=EDGE_LOOP('',(#296,#302,#303,#309));
#311=FACE_OUTER_BOUND('',#310,.T.);
#312=ADVANCED_FACE('',(#311),#285,.T.);
#313=CARTESIAN_POINT('',(1.5,-0.7,0.585));
#314=DIRECTION('',(0.0,0.0,-1.0));
#315=DIRECTION('',(0.707106781186548,-0.707106781186547,0.0));
#316=AXIS2_PLACEMENT_3D('',#313,#314,#315);
#317=CYLINDRICAL_SURFACE('',#316,0.1);
#318=ORIENTED_EDGE('',*,*,#95,.T.);
#319=CARTESIAN_POINT('',(1.6,-0.7,0.1));
#320=DIRECTION('',(0.0,0.0,1.0));
#321=VECTOR('',#320,0.97);
#322=LINE('',#319,#321);
#323=EDGE_CURVE('',#82,#143,#322,.T.);
#324=ORIENTED_EDGE('',*,*,#323,.T.);
#325=ORIENTED_EDGE('',*,*,#149,.F.);
#326=CARTESIAN_POINT('',(1.5,-0.8,1.07));
#327=DIRECTION('',(0.0,0.0,-1.0));
#328=VECTOR('',#327,0.97);
#329=LINE('',#326,#328);
#330=EDGE_CURVE('',#141,#71,#329,.T.);
#331=ORIENTED_EDGE('',*,*,#330,.T.);
#332=EDGE_LOOP('',(#318,#324,#325,#331));
#333=FACE_OUTER_BOUND('',#332,.T.);
#334=ADVANCED_FACE('',(#333),#317,.T.);
#335=CARTESIAN_POINT('',(1.5,-1.110223E-016,0.1));
#336=DIRECTION('',(0.0,1.0,0.0));
#337=DIRECTION('',(0.707106781186548,0.0,-0.707106781186547));
#338=AXIS2_PLACEMENT_3D('',#335,#336,#337);
#339=CYLINDRICAL_SURFACE('',#338,0.1);
#340=ORIENTED_EDGE('',*,*,#130,.F.);
#341=CARTESIAN_POINT('',(1.6,0.7,0.1));
#342=DIRECTION('',(0.0,-1.0,0.0));
#343=VECTOR('',#342,1.4);
#344=LINE('',#341,#343);
#345=EDGE_CURVE('',#117,#82,#344,.T.);
#346=ORIENTED_EDGE('',*,*,#345,.T.);
#347=ORIENTED_EDGE('',*,*,#88,.T.);
#348=CARTESIAN_POINT('',(1.5,-0.7,0.0));
#349=DIRECTION('',(0.0,1.0,0.0));
#350=VECTOR('',#349,1.4);
#351=LINE('',#348,#350);
#352=EDGE_CURVE('',#73,#106,#351,.T.);
#353=ORIENTED_EDGE('',*,*,#352,.T.);
#354=EDGE_LOOP('',(#340,#346,#347,#353));
#355=FACE_OUTER_BOUND('',#354,.T.);
#356=ADVANCED_FACE('',(#355),#339,.T.);
#357=CARTESIAN_POINT('',(1.345,0.7,0.1));
#358=DIRECTION('',(-1.0,0.0,0.0));
#359=DIRECTION('',(0.0,0.707106781186547,-0.707106781186548));
#360=AXIS2_PLACEMENT_3D('',#357,#358,#359);
#361=CYLINDRICAL_SURFACE('',#360,0.1);
#362=CARTESIAN_POINT('',(1.09,0.7,0.0));
#363=VERTEX_POINT('',#362);
#364=CARTESIAN_POINT('',(1.09,0.8,0.1));
#365=VERTEX_POINT('',#364);
#366=CARTESIAN_POINT('',(1.09,0.7,0.1));
#367=DIRECTION('',(1.0,0.0,0.0));
#368=DIRECTION('',(0.0,0.707106781186547,-0.707106781186548));
#369=AXIS2_PLACEMENT_3D('',#366,#367,#368);
#370=CIRCLE('',#369,0.1);
#371=EDGE_CURVE('',#363,#365,#370,.T.);
#372=ORIENTED_EDGE('',*,*,#371,.T.);
#373=CARTESIAN_POINT('',(1.09,0.8,0.1));
#374=DIRECTION('',(1.0,0.0,0.0));
#375=VECTOR('',#374,0.41);
#376=LINE('',#373,#375);
#377=EDGE_CURVE('',#365,#108,#376,.T.);
#378=ORIENTED_EDGE('',*,*,#377,.T.);
#379=ORIENTED_EDGE('',*,*,#114,.F.);
#380=CARTESIAN_POINT('',(1.5,0.7,0.0));
#381=DIRECTION('',(-1.0,0.0,0.0));
#382=VECTOR('',#381,0.41);
#383=LINE('',#380,#382);
#384=EDGE_CURVE('',#106,#363,#383,.T.);
#385=ORIENTED_EDGE('',*,*,#384,.T.);
#386=EDGE_LOOP('',(#372,#378,#379,#385));
#387=FACE_OUTER_BOUND('',#386,.T.);
#388=ADVANCED_FACE('',(#387),#361,.T.);
#389=CARTESIAN_POINT('',(1.345,-0.7,0.1));
#390=DIRECTION('',(1.0,0.0,0.0));
#391=DIRECTION('',(0.0,-0.707106781186547,-0.707106781186548));
#392=AXIS2_PLACEMENT_3D('',#389,#390,#391);
#393=CYLINDRICAL_SURFACE('',#392,0.1);
#394=CARTESIAN_POINT('',(1.09,-0.8,0.1));
#395=VERTEX_POINT('',#394);
#396=CARTESIAN_POINT('',(1.09,-0.7,0.0));
#397=VERTEX_POINT('',#396);
#398=CARTESIAN_POINT('',(1.09,-0.7,0.1));
#399=DIRECTION('',(1.0,0.0,0.0));
#400=DIRECTION('',(0.0,-0.707106781186547,-0.707106781186548));
#401=AXIS2_PLACEMENT_3D('',#398,#399,#400);
#402=CIRCLE('',#401,0.1);
#403=EDGE_CURVE('',#395,#397,#402,.T.);
#404=ORIENTED_EDGE('',*,*,#403,.T.);
#405=CARTESIAN_POINT('',(1.09,-0.7,0.0));
#406=DIRECTION('',(1.0,0.0,0.0));
#407=VECTOR('',#406,0.41);
#408=LINE('',#405,#407);
#409=EDGE_CURVE('',#397,#73,#408,.T.);
#410=ORIENTED_EDGE('',*,*,#409,.T.);
#411=ORIENTED_EDGE('',*,*,#79,.F.);
#412=CARTESIAN_POINT('',(1.5,-0.8,0.1));
#413=DIRECTION('',(-1.0,0.0,0.0));
#414=VECTOR('',#413,0.41);
#415=LINE('',#412,#414);
#416=EDGE_CURVE('',#71,#395,#415,.T.);
#417=ORIENTED_EDGE('',*,*,#416,.T.);
#418=EDGE_LOOP('',(#404,#410,#411,#417));
#419=FACE_OUTER_BOUND('',#418,.T.);
#420=ADVANCED_FACE('',(#419),#393,.T.);
#421=CARTESIAN_POINT('',(1.5,0.8,0.1));
#422=CARTESIAN_POINT('',(1.5,0.8,1.07));
#423=CARTESIAN_POINT('',(1.09,0.8,0.1));
#424=CARTESIAN_POINT('',(1.09,0.8,1.07));
#425=B_SPLINE_SURFACE_WITH_KNOTS('',1,1,((#421,#423),(#422,#424)),.UNSPECIFIED.,.F.,.F.,.U.,(2,2),(2,2),(0.0,0.97),(0.0,0.41),.UNSPECIFIED.);
#426=ORIENTED_EDGE('',*,*,#232,.F.);
#427=ORIENTED_EDGE('',*,*,#269,.F.);
#428=ORIENTED_EDGE('',*,*,#377,.F.);
#429=CARTESIAN_POINT('',(1.09,0.8,1.07));
#430=DIRECTION('',(0.0,0.0,-1.0));
#431=VECTOR('',#430,0.97);
#432=LINE('',#429,#431);
#433=EDGE_CURVE('',#211,#365,#432,.T.);
#434=ORIENTED_EDGE('',*,*,#433,.F.);
#435=EDGE_LOOP('',(#426,#427,#428,#434));
#436=FACE_OUTER_BOUND('',#435,.T.);
#437=ADVANCED_FACE('',(#436),#425,.F.);
#438=CARTESIAN_POINT('',(1.09,-0.8,1.17));
#439=CARTESIAN_POINT('',(1.09,-0.8,0.0));
#440=CARTESIAN_POINT('',(1.09,0.8,1.17));
#441=CARTESIAN_POINT('',(1.09,0.8,0.0));
#442=B_SPLINE_SURFACE_WITH_KNOTS('',1,1,((#438,#440),(#439,#441)),.UNSPECIFIED.,.F.,.F.,.U.,(2,2),(2,2),(0.0,1.17),(0.0,1.600000000000001),.UNSPECIFIED.);
#443=ORIENTED_EDGE('',*,*,#219,.F.);
#444=ORIENTED_EDGE('',*,*,#433,.T.);
#445=ORIENTED_EDGE('',*,*,#371,.F.);
#446=CARTESIAN_POINT('',(1.09,0.7,0.0));
#447=DIRECTION('',(0.0,-1.0,0.0));
#448=VECTOR('',#447,1.4);
#449=LINE('',#446,#448);
#450=EDGE_CURVE('',#363,#397,#449,.T.);
#451=ORIENTED_EDGE('',*,*,#450,.T.);
#452=ORIENTED_EDGE('',*,*,#403,.F.);
#453=CARTESIAN_POINT('',(1.09,-0.8,1.07));
#454=DIRECTION('',(0.0,0.0,-1.0));
#455=VECTOR('',#454,0.97);
#456=LINE('',#453,#455);
#457=EDGE_CURVE('',#289,#395,#456,.T.);
#458=ORIENTED_EDGE('',*,*,#457,.F.);
#459=ORIENTED_EDGE('',*,*,#295,.F.);
#460=CARTESIAN_POINT('',(1.09,-0.7,1.17));
#461=DIRECTION('',(0.0,1.0,0.0));
#462=VECTOR('',#461,1.4);
#463=LINE('',#460,#462);
#464=EDGE_CURVE('',#287,#213,#463,.T.);
#465=ORIENTED_EDGE('',*,*,#464,.T.);
#466=EDGE_LOOP('',(#443,#444,#445,#451,#452,#458,#459,#465));
#467=FACE_OUTER_BOUND('',#466,.T.);
#468=ADVANCED_FACE('',(#467),#442,.F.);
#469=CARTESIAN_POINT('',(1.09,-0.7,0.0));
#470=CARTESIAN_POINT('',(1.5,-0.7,0.0));
#471=CARTESIAN_POINT('',(1.09,0.7,0.0));
#472=CARTESIAN_POINT('',(1.5,0.7,0.0));
#473=B_SPLINE_SURFACE_WITH_KNOTS('',1,1,((#469,#471),(#470,#472)),.UNSPECIFIED.,.F.,.F.,.U.,(2,2),(2,2),(0.0,0.41),(0.0,1.4),.UNSPECIFIED.);
#474=ORIENTED_EDGE('',*,*,#384,.F.);
#475=ORIENTED_EDGE('',*,*,#352,.F.);
#476=ORIENTED_EDGE('',*,*,#409,.F.);
#477=ORIENTED_EDGE('',*,*,#450,.F.);
#478=EDGE_LOOP('',(#474,#475,#476,#477));
#479=FACE_OUTER_BOUND('',#478,.T.);
#480=ADVANCED_FACE('',(#479),#473,.F.);
#481=CARTESIAN_POINT('',(1.6,-0.7,0.1));
#482=CARTESIAN_POINT('',(1.6,-0.7,1.07));
#483=CARTESIAN_POINT('',(1.6,0.7,0.1));
#484=CARTESIAN_POINT('',(1.6,0.7,1.07));
#485=B_SPLINE_SURFACE_WITH_KNOTS('',1,1,((#481,#483),(#482,#484)),.UNSPECIFIED.,.F.,.F.,.U.,(2,2),(2,2),(0.0,0.97),(0.0,1.4),.UNSPECIFIED.);
#486=ORIENTED_EDGE('',*,*,#247,.F.);
#487=ORIENTED_EDGE('',*,*,#323,.F.);
#488=ORIENTED_EDGE('',*,*,#345,.F.);
#489=ORIENTED_EDGE('',*,*,#276,.F.);
#490=EDGE_LOOP('',(#486,#487,#488,#489));
#491=FACE_OUTER_BOUND('',#490,.T.);
#492=ADVANCED_FACE('',(#491),#485,.F.);
#493=CARTESIAN_POINT('',(1.09,-0.7,1.17));
#494=CARTESIAN_POINT('',(1.5,-0.7,1.17));
#495=CARTESIAN_POINT('',(1.09,0.7,1.17));
#496=CARTESIAN_POINT('',(1.5,0.7,1.17));
#497=B_SPLINE_SURFACE_WITH_KNOTS('',1,1,((#493,#495),(#494,#496)),.UNSPECIFIED.,.F.,.F.,.U.,(2,2),(2,2),(0.0,0.41),(0.0,1.4),.UNSPECIFIED.);
#498=ORIENTED_EDGE('',*,*,#225,.F.);
#499=ORIENTED_EDGE('',*,*,#464,.F.);
#500=ORIENTED_EDGE('',*,*,#308,.F.);
#501=ORIENTED_EDGE('',*,*,#254,.F.);
#502=EDGE_LOOP('',(#498,#499,#500,#501));
#503=FACE_OUTER_BOUND('',#502,.T.);
#504=ADVANCED_FACE('',(#503),#497,.T.);
#505=CARTESIAN_POINT('',(1.5,-0.8,1.07));
#506=CARTESIAN_POINT('',(1.5,-0.8,0.1));
#507=CARTESIAN_POINT('',(1.09,-0.8,1.07));
#508=CARTESIAN_POINT('',(1.09,-0.8,0.1));
#509=B_SPLINE_SURFACE_WITH_KNOTS('',1,1,((#505,#507),(#506,#508)),.UNSPECIFIED.,.F.,.F.,.U.,(2,2),(2,2),(0.0,0.97),(0.0,0.41),.UNSPECIFIED.);
#510=ORIENTED_EDGE('',*,*,#301,.F.);
#511=ORIENTED_EDGE('',*,*,#457,.T.);
#512=ORIENTED_EDGE('',*,*,#416,.F.);
#513=ORIENTED_EDGE('',*,*,#330,.F.);
#514=EDGE_LOOP('',(#510,#511,#512,#513));
#515=FACE_OUTER_BOUND('',#514,.T.);
#516=ADVANCED_FACE('',(#515),#509,.F.);
#517=CLOSED_SHELL('',(#99,#134,#169,#204,#236,#258,#280,#312,#334,#356,#388,#420,#437,#468,#480,#492,#504,#516));
#518=MANIFOLD_SOLID_BREP('2464',#517);
#519=COLOUR_RGB('253',0.732,0.732,0.732);
#520=SURFACE_STYLE_USAGE(.BOTH.,#521);
#521=SURFACE_SIDE_STYLE('NONE',(#522));
#522=SURFACE_STYLE_FILL_AREA(#523);
#523=FILL_AREA_STYLE('NONE',(#524));
#524=FILL_AREA_STYLE_COLOUR('NONE',#519);
#525=PRESENTATION_STYLE_ASSIGNMENT((#520));
#526=STYLED_ITEM('NONE',(#525),#518);
#527=MECHANICAL_DESIGN_GEOMETRIC_PRESENTATION_REPRESENTATION('NONE',(#526,#983,#1281),#28);
#528=PRESENTATION_LAYER_ASSIGNMENT('3D','None',(#518,#982,#1273));
#529=CARTESIAN_POINT('',(-1.5,-0.7,0.1));
#530=DIRECTION('',(0.0,0.0,1.0));
#531=DIRECTION('',(1.0,0.0,0.0));
#532=AXIS2_PLACEMENT_3D('',#529,#530,#531);
#533=SPHERICAL_SURFACE('',#532,0.1);
#534=CARTESIAN_POINT('',(-1.5,-0.7,0.0));
#535=VERTEX_POINT('',#534);
#536=CARTESIAN_POINT('',(-1.5,-0.8,0.1));
#537=VERTEX_POINT('',#536);
#538=CARTESIAN_POINT('',(-1.5,-0.7,0.1));
#539=DIRECTION('',(-1.0,0.0,0.0));
#540=DIRECTION('',(0.0,-0.707106781186547,-0.707106781186548));
#541=AXIS2_PLACEMENT_3D('',#538,#539,#540);
#542=CIRCLE('',#541,0.1);
#543=EDGE_CURVE('',#535,#537,#542,.T.);
#544=ORIENTED_EDGE('',*,*,#543,.T.);
#545=CARTESIAN_POINT('',(-1.6,-0.7,0.1));
#546=VERTEX_POINT('',#545);
#547=CARTESIAN_POINT('',(-1.5,-0.7,0.1));
#548=DIRECTION('',(0.0,0.0,-1.0));
#549=DIRECTION('',(-1.0,0.0,0.0));
#550=AXIS2_PLACEMENT_3D('',#547,#548,#549);
#551=CIRCLE('',#550,0.1);
#552=EDGE_CURVE('',#546,#537,#551,.F.);
#553=ORIENTED_EDGE('',*,*,#552,.F.);
#554=CARTESIAN_POINT('',(-1.5,-0.7,0.1));
#555=DIRECTION('',(0.0,-1.0,0.0));
#556=DIRECTION('',(0.0,0.0,-1.0));
#557=AXIS2_PLACEMENT_3D('',#554,#555,#556);
#558=CIRCLE('',#557,0.1);
#559=EDGE_CURVE('',#535,#546,#558,.F.);
#560=ORIENTED_EDGE('',*,*,#559,.F.);
#561=EDGE_LOOP('',(#544,#553,#560));
#562=FACE_OUTER_BOUND('',#561,.T.);
#563=ADVANCED_FACE('',(#562),#533,.T.);
#564=CARTESIAN_POINT('',(-1.5,0.7,0.1));
#565=DIRECTION('',(0.0,0.0,1.0));
#566=DIRECTION('',(1.0,0.0,0.0));
#567=AXIS2_PLACEMENT_3D('',#564,#565,#566);
#568=SPHERICAL_SURFACE('',#567,0.1);
#569=CARTESIAN_POINT('',(-1.5,0.7,0.0));
#570=VERTEX_POINT('',#569);
#571=CARTESIAN_POINT('',(-1.6,0.7,0.1));
#572=VERTEX_POINT('',#571);
#573=CARTESIAN_POINT('',(-1.5,0.7,0.1));
#574=DIRECTION('',(0.0,1.0,0.0));
#575=DIRECTION('',(-0.707106781186548,0.0,-0.707106781186547));
#576=AXIS2_PLACEMENT_3D('',#573,#574,#575);
#577=CIRCLE('',#576,0.1);
#578=EDGE_CURVE('',#570,#572,#577,.T.);
#579=ORIENTED_EDGE('',*,*,#578,.T.);
#580=CARTESIAN_POINT('',(-1.5,0.8,0.1));
#581=VERTEX_POINT('',#580);
#582=CARTESIAN_POINT('',(-1.5,0.7,0.1));
#583=DIRECTION('',(0.0,0.0,-1.0));
#584=DIRECTION('',(0.0,1.0,0.0));
#585=AXIS2_PLACEMENT_3D('',#582,#583,#584);
#586=CIRCLE('',#585,0.1);
#587=EDGE_CURVE('',#581,#572,#586,.F.);
#588=ORIENTED_EDGE('',*,*,#587,.F.);
#589=CARTESIAN_POINT('',(-1.5,0.7,0.1));
#590=DIRECTION('',(-1.0,0.0,0.0));
#591=DIRECTION('',(0.0,0.707106781186547,-0.707106781186548));
#592=AXIS2_PLACEMENT_3D('',#589,#590,#591);
#593=CIRCLE('',#592,0.1);
#594=EDGE_CURVE('',#581,#570,#593,.T.);
#595=ORIENTED_EDGE('',*,*,#594,.T.);
#596=EDGE_LOOP('',(#579,#588,#595));
#597=FACE_OUTER_BOUND('',#596,.T.);
#598=ADVANCED_FACE('',(#597),#568,.T.);
#599=CARTESIAN_POINT('',(-1.5,-0.7,1.07));
#600=DIRECTION('',(0.0,0.0,1.0));
#601=DIRECTION('',(1.0,0.0,0.0));
#602=AXIS2_PLACEMENT_3D('',#599,#600,#601);
#603=SPHERICAL_SURFACE('',#602,0.1);
#604=CARTESIAN_POINT('',(-1.5,-0.8,1.07));
#605=VERTEX_POINT('',#604);
#606=CARTESIAN_POINT('',(-1.5,-0.7,1.17));
#607=VERTEX_POINT('',#606);
#608=CARTESIAN_POINT('',(-1.5,-0.7,1.07));
#609=DIRECTION('',(-1.0,0.0,0.0));
#610=DIRECTION('',(0.0,-0.707106781186547,0.707106781186548));
#611=AXIS2_PLACEMENT_3D('',#608,#609,#610);
#612=CIRCLE('',#611,0.1);
#613=EDGE_CURVE('',#605,#607,#612,.T.);
#614=ORIENTED_EDGE('',*,*,#613,.T.);
#615=CARTESIAN_POINT('',(-1.6,-0.7,1.07));
#616=VERTEX_POINT('',#615);
#617=CARTESIAN_POINT('',(-1.5,-0.7,1.07));
#618=DIRECTION('',(0.0,-1.0,0.0));
#619=DIRECTION('',(-1.0,0.0,0.0));
#620=AXIS2_PLACEMENT_3D('',#617,#618,#619);
#621=CIRCLE('',#620,0.1);
#622=EDGE_CURVE('',#616,#607,#621,.F.);
#623=ORIENTED_EDGE('',*,*,#622,.F.);
#624=CARTESIAN_POINT('',(-1.5,-0.7,1.07));
#625=DIRECTION('',(0.0,0.0,1.0));
#626=DIRECTION('',(-0.707106781186548,-0.707106781186547,0.0));
#627=AXIS2_PLACEMENT_3D('',#624,#625,#626);
#628=CIRCLE('',#627,0.1);
#629=EDGE_CURVE('',#616,#605,#628,.T.);
#630=ORIENTED_EDGE('',*,*,#629,.T.);
#631=EDGE_LOOP('',(#614,#623,#630));
#632=FACE_OUTER_BOUND('',#631,.T.);
#633=ADVANCED_FACE('',(#632),#603,.T.);
#634=CARTESIAN_POINT('',(-1.5,0.7,1.07));
#635=DIRECTION('',(0.0,0.0,1.0));
#636=DIRECTION('',(1.0,0.0,0.0));
#637=AXIS2_PLACEMENT_3D('',#634,#635,#636);
#638=SPHERICAL_SURFACE('',#637,0.1);
#639=CARTESIAN_POINT('',(-1.6,0.7,1.07));
#640=VERTEX_POINT('',#639);
#641=CARTESIAN_POINT('',(-1.5,0.7,1.17));
#642=VERTEX_POINT('',#641);
#643=CARTESIAN_POINT('',(-1.5,0.7,1.07));
#644=DIRECTION('',(0.0,1.0,0.0));
#645=DIRECTION('',(-0.707106781186547,0.0,0.707106781186547));
#646=AXIS2_PLACEMENT_3D('',#643,#644,#645);
#647=CIRCLE('',#646,0.1);
#648=EDGE_CURVE('',#640,#642,#647,.T.);
#649=ORIENTED_EDGE('',*,*,#648,.T.);
#650=CARTESIAN_POINT('',(-1.5,0.8,1.07));
#651=VERTEX_POINT('',#650);
#652=CARTESIAN_POINT('',(-1.5,0.7,1.07));
#653=DIRECTION('',(-1.0,0.0,0.0));
#654=DIRECTION('',(0.0,1.0,0.0));
#655=AXIS2_PLACEMENT_3D('',#652,#653,#654);
#656=CIRCLE('',#655,0.1);
#657=EDGE_CURVE('',#651,#642,#656,.F.);
#658=ORIENTED_EDGE('',*,*,#657,.F.);
#659=CARTESIAN_POINT('',(-1.5,0.7,1.07));
#660=DIRECTION('',(0.0,0.0,1.0));
#661=DIRECTION('',(-0.707106781186548,0.707106781186547,0.0));
#662=AXIS2_PLACEMENT_3D('',#659,#660,#661);
#663=CIRCLE('',#662,0.1);
#664=EDGE_CURVE('',#651,#640,#663,.T.);
#665=ORIENTED_EDGE('',*,*,#664,.T.);
#666=EDGE_LOOP('',(#649,#658,#665));
#667=FACE_OUTER_BOUND('',#666,.T.);
#668=ADVANCED_FACE('',(#667),#638,.T.);
#669=CARTESIAN_POINT('',(-1.345,0.7,1.07));
#670=DIRECTION('',(1.0,0.0,0.0));
#671=DIRECTION('',(0.0,0.707106781186547,0.707106781186548));
#672=AXIS2_PLACEMENT_3D('',#669,#670,#671);
#673=CYLINDRICAL_SURFACE('',#672,0.1);
#674=CARTESIAN_POINT('',(-1.09,0.7,1.17));
#675=VERTEX_POINT('',#674);
#676=CARTESIAN_POINT('',(-1.09,0.8,1.07));
#677=VERTEX_POINT('',#676);
#678=CARTESIAN_POINT('',(-1.09,0.7,1.07));
#679=DIRECTION('',(-1.0,0.0,0.0));
#680=DIRECTION('',(0.0,0.707106781186547,0.707106781186548));
#681=AXIS2_PLACEMENT_3D('',#678,#679,#680);
#682=CIRCLE('',#681,0.1);
#683=EDGE_CURVE('',#675,#677,#682,.T.);
#684=ORIENTED_EDGE('',*,*,#683,.T.);
#685=CARTESIAN_POINT('',(-1.09,0.8,1.07));
#686=DIRECTION('',(-1.0,0.0,0.0));
#687=VECTOR('',#686,0.41);
#688=LINE('',#685,#687);
#689=EDGE_CURVE('',#677,#651,#688,.T.);
#690=ORIENTED_EDGE('',*,*,#689,.T.);
#691=ORIENTED_EDGE('',*,*,#657,.T.);
#692=CARTESIAN_POINT('',(-1.5,0.7,1.17));
#693=DIRECTION('',(1.0,0.0,0.0));
#694=VECTOR('',#693,0.41);
#695=LINE('',#692,#694);
#696=EDGE_CURVE('',#642,#675,#695,.T.);
#697=ORIENTED_EDGE('',*,*,#696,.T.);
#698=EDGE_LOOP('',(#684,#690,#691,#697));
#699=FACE_OUTER_BOUND('',#698,.T.);
#700=ADVANCED_FACE('',(#699),#673,.T.);
#701=CARTESIAN_POINT('',(-1.5,-1.110223E-016,1.07));
#702=DIRECTION('',(0.0,1.0,0.0));
#703=DIRECTION('',(-0.707106781186547,0.0,0.707106781186547));
#704=AXIS2_PLACEMENT_3D('',#701,#702,#703);
#705=CYLINDRICAL_SURFACE('',#704,0.1);
#706=ORIENTED_EDGE('',*,*,#648,.F.);
#707=CARTESIAN_POINT('',(-1.6,0.7,1.07));
#708=DIRECTION('',(0.0,-1.0,0.0));
#709=VECTOR('',#708,1.4);
#710=LINE('',#707,#709);
#711=EDGE_CURVE('',#640,#616,#710,.T.);
#712=ORIENTED_EDGE('',*,*,#711,.T.);
#713=ORIENTED_EDGE('',*,*,#622,.T.);
#714=CARTESIAN_POINT('',(-1.5,-0.7,1.17));
#715=DIRECTION('',(0.0,1.0,0.0));
#716=VECTOR('',#715,1.4);
#717=LINE('',#714,#716);
#718=EDGE_CURVE('',#607,#642,#717,.T.);
#719=ORIENTED_EDGE('',*,*,#718,.T.);
#720=EDGE_LOOP('',(#706,#712,#713,#719));
#721=FACE_OUTER_BOUND('',#720,.T.);
#722=ADVANCED_FACE('',(#721),#705,.T.);
#723=CARTESIAN_POINT('',(-1.5,0.7,0.585));
#724=DIRECTION('',(0.0,0.0,-1.0));
#725=DIRECTION('',(-0.707106781186548,0.707106781186547,0.0));
#726=AXIS2_PLACEMENT_3D('',#723,#724,#725);
#727=CYLINDRICAL_SURFACE('',#726,0.1);
#728=ORIENTED_EDGE('',*,*,#587,.T.);
#729=CARTESIAN_POINT('',(-1.6,0.7,0.1));
#730=DIRECTION('',(0.0,0.0,1.0));
#731=VECTOR('',#730,0.97);
#732=LINE('',#729,#731);
#733=EDGE_CURVE('',#572,#640,#732,.T.);
#734=ORIENTED_EDGE('',*,*,#733,.T.);
#735=ORIENTED_EDGE('',*,*,#664,.F.);
#736=CARTESIAN_POINT('',(-1.5,0.8,1.07));
#737=DIRECTION('',(0.0,0.0,-1.0));
#738=VECTOR('',#737,0.97);
#739=LINE('',#736,#738);
#740=EDGE_CURVE('',#651,#581,#739,.T.);
#741=ORIENTED_EDGE('',*,*,#740,.T.);
#742=EDGE_LOOP('',(#728,#734,#735,#741));
#743=FACE_OUTER_BOUND('',#742,.T.);
#744=ADVANCED_FACE('',(#743),#727,.T.);
#745=CARTESIAN_POINT('',(-1.345,-0.7,1.07));
#746=DIRECTION('',(-1.0,0.0,0.0));
#747=DIRECTION('',(0.0,-0.707106781186547,0.707106781186548));
#748=AXIS2_PLACEMENT_3D('',#745,#746,#747);
#749=CYLINDRICAL_SURFACE('',#748,0.1);
#750=CARTESIAN_POINT('',(-1.09,-0.8,1.07));
#751=VERTEX_POINT('',#750);
#752=CARTESIAN_POINT('',(-1.09,-0.7,1.17));
#753=VERTEX_POINT('',#752);
#754=CARTESIAN_POINT('',(-1.09,-0.7,1.07));
#755=DIRECTION('',(-1.0,0.0,0.0));
#756=DIRECTION('',(0.0,-0.707106781186547,0.707106781186548));
#757=AXIS2_PLACEMENT_3D('',#754,#755,#756);
#758=CIRCLE('',#757,0.1);
#759=EDGE_CURVE('',#751,#753,#758,.T.);
#760=ORIENTED_EDGE('',*,*,#759,.T.);
#761=CARTESIAN_POINT('',(-1.09,-0.7,1.17));
#762=DIRECTION('',(-1.0,0.0,0.0));
#763=VECTOR('',#762,0.41);
#764=LINE('',#761,#763);
#765=EDGE_CURVE('',#753,#607,#764,.T.);
#766=ORIENTED_EDGE('',*,*,#765,.T.);
#767=ORIENTED_EDGE('',*,*,#613,.F.);
#768=CARTESIAN_POINT('',(-1.5,-0.8,1.07));
#769=DIRECTION('',(1.0,0.0,0.0));
#770=VECTOR('',#769,0.41);
#771=LINE('',#768,#770);
#772=EDGE_CURVE('',#605,#751,#771,.T.);
#773=ORIENTED_EDGE('',*,*,#772,.T.);
#774=EDGE_LOOP('',(#760,#766,#767,#773));
#775=FACE_OUTER_BOUND('',#774,.T.);
#776=ADVANCED_FACE('',(#775),#749,.T.);
#777=CARTESIAN_POINT('',(-1.5,-0.7,0.585));
#778=DIRECTION('',(0.0,0.0,-1.0));
#779=DIRECTION('',(-0.707106781186548,-0.707106781186547,0.0));
#780=AXIS2_PLACEMENT_3D('',#777,#778,#779);
#781=CYLINDRICAL_SURFACE('',#780,0.1);
#782=ORIENTED_EDGE('',*,*,#552,.T.);
#783=CARTESIAN_POINT('',(-1.5,-0.8,0.1));
#784=DIRECTION('',(0.0,0.0,1.0));
#785=VECTOR('',#784,0.97);
#786=LINE('',#783,#785);
#787=EDGE_CURVE('',#537,#605,#786,.T.);
#788=ORIENTED_EDGE('',*,*,#787,.T.);
#789=ORIENTED_EDGE('',*,*,#629,.F.);
#790=CARTESIAN_POINT('',(-1.6,-0.7,1.07));
#791=DIRECTION('',(0.0,0.0,-1.0));
#792=VECTOR('',#791,0.97);
#793=LINE('',#790,#792);
#794=EDGE_CURVE('',#616,#546,#793,.T.);
#795=ORIENTED_EDGE('',*,*,#794,.T.);
#796=EDGE_LOOP('',(#782,#788,#789,#795));
#797=FACE_OUTER_BOUND('',#796,.T.);
#798=ADVANCED_FACE('',(#797),#781,.T.);
#799=CARTESIAN_POINT('',(-1.5,-1.110223E-016,0.1));
#800=DIRECTION('',(0.0,-1.0,0.0));
#801=DIRECTION('',(-0.707106781186548,0.0,-0.707106781186547));
#802=AXIS2_PLACEMENT_3D('',#799,#800,#801);
#803=CYLINDRICAL_SURFACE('',#802,0.1);
#804=ORIENTED_EDGE('',*,*,#559,.T.);
#805=CARTESIAN_POINT('',(-1.6,-0.7,0.1));
#806=DIRECTION('',(0.0,1.0,0.0));
#807=VECTOR('',#806,1.4);
#808=LINE('',#805,#807);
#809=EDGE_CURVE('',#546,#572,#808,.T.);
#810=ORIENTED_EDGE('',*,*,#809,.T.);
#811=ORIENTED_EDGE('',*,*,#578,.F.);
#812=CARTESIAN_POINT('',(-1.5,0.7,0.0));
#813=DIRECTION('',(0.0,-1.0,0.0));
#814=VECTOR('',#813,1.4);
#815=LINE('',#812,#814);
#816=EDGE_CURVE('',#570,#535,#815,.T.);
#817=ORIENTED_EDGE('',*,*,#816,.T.);
#818=EDGE_LOOP('',(#804,#810,#811,#817));
#819=FACE_OUTER_BOUND('',#818,.T.);
#820=ADVANCED_FACE('',(#819),#803,.T.);
#821=CARTESIAN_POINT('',(-1.345,0.7,0.1));
#822=DIRECTION('',(-1.0,0.0,0.0));
#823=DIRECTION('',(0.0,0.707106781186547,-0.707106781186548));
#824=AXIS2_PLACEMENT_3D('',#821,#822,#823);
#825=CYLINDRICAL_SURFACE('',#824,0.1);
#826=CARTESIAN_POINT('',(-1.09,0.8,0.1));
#827=VERTEX_POINT('',#826);
#828=CARTESIAN_POINT('',(-1.09,0.7,0.0));
#829=VERTEX_POINT('',#828);
#830=CARTESIAN_POINT('',(-1.09,0.7,0.1));
#831=DIRECTION('',(-1.0,0.0,0.0));
#832=DIRECTION('',(0.0,0.707106781186547,-0.707106781186548));
#833=AXIS2_PLACEMENT_3D('',#830,#831,#832);
#834=CIRCLE('',#833,0.1);
#835=EDGE_CURVE('',#827,#829,#834,.T.);
#836=ORIENTED_EDGE('',*,*,#835,.T.);
#837=CARTESIAN_POINT('',(-1.09,0.7,0.0));
#838=DIRECTION('',(-1.0,0.0,0.0));
#839=VECTOR('',#838,0.41);
#840=LINE('',#837,#839);
#841=EDGE_CURVE('',#829,#570,#840,.T.);
#842=ORIENTED_EDGE('',*,*,#841,.T.);
#843=ORIENTED_EDGE('',*,*,#594,.F.);
#844=CARTESIAN_POINT('',(-1.5,0.8,0.1));
#845=DIRECTION('',(1.0,0.0,0.0));
#846=VECTOR('',#845,0.41);
#847=LINE('',#844,#846);
#848=EDGE_CURVE('',#581,#827,#847,.T.);
#849=ORIENTED_EDGE('',*,*,#848,.T.);
#850=EDGE_LOOP('',(#836,#842,#843,#849));
#851=FACE_OUTER_BOUND('',#850,.T.);
#852=ADVANCED_FACE('',(#851),#825,.T.);
#853=CARTESIAN_POINT('',(-1.345,-0.7,0.1));
#854=DIRECTION('',(1.0,0.0,0.0));
#855=DIRECTION('',(0.0,-0.707106781186547,-0.707106781186548));
#856=AXIS2_PLACEMENT_3D('',#853,#854,#855);
#857=CYLINDRICAL_SURFACE('',#856,0.1);
#858=CARTESIAN_POINT('',(-1.09,-0.7,0.0));
#859=VERTEX_POINT('',#858);
#860=CARTESIAN_POINT('',(-1.09,-0.8,0.1));
#861=VERTEX_POINT('',#860);
#862=CARTESIAN_POINT('',(-1.09,-0.7,0.1));
#863=DIRECTION('',(-1.0,0.0,0.0));
#864=DIRECTION('',(0.0,-0.707106781186547,-0.707106781186548));
#865=AXIS2_PLACEMENT_3D('',#862,#863,#864);
#866=CIRCLE('',#865,0.1);
#867=EDGE_CURVE('',#859,#861,#866,.T.);
#868=ORIENTED_EDGE('',*,*,#867,.T.);
#869=CARTESIAN_POINT('',(-1.09,-0.8,0.1));
#870=DIRECTION('',(-1.0,0.0,0.0));
#871=VECTOR('',#870,0.41);
#872=LINE('',#869,#871);
#873=EDGE_CURVE('',#861,#537,#872,.T.);
#874=ORIENTED_EDGE('',*,*,#873,.T.);
#875=ORIENTED_EDGE('',*,*,#543,.F.);
#876=CARTESIAN_POINT('',(-1.5,-0.7,0.0));
#877=DIRECTION('',(1.0,0.0,0.0));
#878=VECTOR('',#877,0.41);
#879=LINE('',#876,#878);
#880=EDGE_CURVE('',#535,#859,#879,.T.);
#881=ORIENTED_EDGE('',*,*,#880,.T.);
#882=EDGE_LOOP('',(#868,#874,#875,#881));
#883=FACE_OUTER_BOUND('',#882,.T.);
#884=ADVANCED_FACE('',(#883),#857,.T.);
#885=CARTESIAN_POINT('',(-1.09,-0.8,1.07));
#886=CARTESIAN_POINT('',(-1.09,-0.8,0.1));
#887=CARTESIAN_POINT('',(-1.5,-0.8,1.07));
#888=CARTESIAN_POINT('',(-1.5,-0.8,0.1));
#889=B_SPLINE_SURFACE_WITH_KNOTS('',1,1,((#885,#887),(#886,#888)),.UNSPECIFIED.,.F.,.F.,.U.,(2,2),(2,2),(0.0,0.97),(0.0,0.41),.UNSPECIFIED.);
#890=ORIENTED_EDGE('',*,*,#772,.F.);
#891=ORIENTED_EDGE('',*,*,#787,.F.);
#892=ORIENTED_EDGE('',*,*,#873,.F.);
#893=CARTESIAN_POINT('',(-1.09,-0.8,1.07));
#894=DIRECTION('',(0.0,0.0,-1.0));
#895=VECTOR('',#894,0.97);
#896=LINE('',#893,#895);
#897=EDGE_CURVE('',#751,#861,#896,.T.);
#898=ORIENTED_EDGE('',*,*,#897,.F.);
#899=EDGE_LOOP('',(#890,#891,#892,#898));
#900=FACE_OUTER_BOUND('',#899,.T.);
#901=ADVANCED_FACE('',(#900),#889,.F.);
#902=CARTESIAN_POINT('',(-1.09,-0.8,0.0));
#903=CARTESIAN_POINT('',(-1.09,-0.8,1.17));
#904=CARTESIAN_POINT('',(-1.09,0.8,0.0));
#905=CARTESIAN_POINT('',(-1.09,0.8,1.17));
#906=B_SPLINE_SURFACE_WITH_KNOTS('',1,1,((#902,#904),(#903,#905)),.UNSPECIFIED.,.F.,.F.,.U.,(2,2),(2,2),(0.0,1.17),(0.0,1.600000000000001),.UNSPECIFIED.);
#907=ORIENTED_EDGE('',*,*,#759,.F.);
#908=ORIENTED_EDGE('',*,*,#897,.T.);
#909=ORIENTED_EDGE('',*,*,#867,.F.);
#910=CARTESIAN_POINT('',(-1.09,-0.7,0.0));
#911=DIRECTION('',(0.0,1.0,0.0));
#912=VECTOR('',#911,1.4);
#913=LINE('',#910,#912);
#914=EDGE_CURVE('',#859,#829,#913,.T.);
#915=ORIENTED_EDGE('',*,*,#914,.T.);
#916=ORIENTED_EDGE('',*,*,#835,.F.);
#917=CARTESIAN_POINT('',(-1.09,0.8,1.07));
#918=DIRECTION('',(0.0,0.0,-1.0));
#919=VECTOR('',#918,0.97);
#920=LINE('',#917,#919);
#921=EDGE_CURVE('',#677,#827,#920,.T.);
#922=ORIENTED_EDGE('',*,*,#921,.F.);
#923=ORIENTED_EDGE('',*,*,#683,.F.);
#924=CARTESIAN_POINT('',(-1.09,0.7,1.17));
#925=DIRECTION('',(0.0,-1.0,0.0));
#926=VECTOR('',#925,1.4);
#927=LINE('',#924,#926);
#928=EDGE_CURVE('',#675,#753,#927,.T.);
#929=ORIENTED_EDGE('',*,*,#928,.T.);
#930=EDGE_LOOP('',(#907,#908,#909,#915,#916,#922,#923,#929));
#931=FACE_OUTER_BOUND('',#930,.T.);
#932=ADVANCED_FACE('',(#931),#906,.F.);
#933=CARTESIAN_POINT('',(-1.5,-0.7,0.0));
#934=CARTESIAN_POINT('',(-1.09,-0.7,0.0));
#935=CARTESIAN_POINT('',(-1.5,0.7,0.0));
#936=CARTESIAN_POINT('',(-1.09,0.7,0.0));
#937=B_SPLINE_SURFACE_WITH_KNOTS('',1,1,((#933,#935),(#934,#936)),.UNSPECIFIED.,.F.,.F.,.U.,(2,2),(2,2),(0.0,0.41),(0.0,1.4),.UNSPECIFIED.);
#938=ORIENTED_EDGE('',*,*,#880,.F.);
#939=ORIENTED_EDGE('',*,*,#816,.F.);
#940=ORIENTED_EDGE('',*,*,#841,.F.);
#941=ORIENTED_EDGE('',*,*,#914,.F.);
#942=EDGE_LOOP('',(#938,#939,#940,#941));
#943=FACE_OUTER_BOUND('',#942,.T.);
#944=ADVANCED_FACE('',(#943),#937,.F.);
#945=CARTESIAN_POINT('',(-1.6,-0.7,1.07));
#946=CARTESIAN_POINT('',(-1.6,-0.7,0.1));
#947=CARTESIAN_POINT('',(-1.6,0.7,1.07));
#948=CARTESIAN_POINT('',(-1.6,0.7,0.1));
#949=B_SPLINE_SURFACE_WITH_KNOTS('',1,1,((#945,#947),(#946,#948)),.UNSPECIFIED.,.F.,.F.,.U.,(2,2),(2,2),(0.0,0.97),(0.0,1.4),.UNSPECIFIED.);
#950=ORIENTED_EDGE('',*,*,#711,.F.);
#951=ORIENTED_EDGE('',*,*,#733,.F.);
#952=ORIENTED_EDGE('',*,*,#809,.F.);
#953=ORIENTED_EDGE('',*,*,#794,.F.);
#954=EDGE_LOOP('',(#950,#951,#952,#953));
#955=FACE_OUTER_BOUND('',#954,.T.);
#956=ADVANCED_FACE('',(#955),#949,.F.);
#957=CARTESIAN_POINT('',(-1.5,-0.7,1.17));
#958=CARTESIAN_POINT('',(-1.09,-0.7,1.17));
#959=CARTESIAN_POINT('',(-1.5,0.7,1.17));
#960=CARTESIAN_POINT('',(-1.09,0.7,1.17));
#961=B_SPLINE_SURFACE_WITH_KNOTS('',1,1,((#957,#959),(#958,#960)),.UNSPECIFIED.,.F.,.F.,.U.,(2,2),(2,2),(0.0,0.41),(0.0,1.4),.UNSPECIFIED.);
#962=ORIENTED_EDGE('',*,*,#765,.F.);
#963=ORIENTED_EDGE('',*,*,#928,.F.);
#964=ORIENTED_EDGE('',*,*,#696,.F.);
#965=ORIENTED_EDGE('',*,*,#718,.F.);
#966=EDGE_LOOP('',(#962,#963,#964,#965));
#967=FACE_OUTER_BOUND('',#966,.T.);
#968=ADVANCED_FACE('',(#967),#961,.T.);
#969=CARTESIAN_POINT('',(-1.09,0.8,0.1));
#970=CARTESIAN_POINT('',(-1.09,0.8,1.07));
#971=CARTESIAN_POINT('',(-1.5,0.8,0.1));
#972=CARTESIAN_POINT('',(-1.5,0.8,1.07));
#973=B_SPLINE_SURFACE_WITH_KNOTS('',1,1,((#969,#971),(#970,#972)),.UNSPECIFIED.,.F.,.F.,.U.,(2,2),(2,2),(0.0,0.97),(0.0,0.41),.UNSPECIFIED.);
#974=ORIENTED_EDGE('',*,*,#689,.F.);
#975=ORIENTED_EDGE('',*,*,#921,.T.);
#976=ORIENTED_EDGE('',*,*,#848,.F.);
#977=ORIENTED_EDGE('',*,*,#740,.F.);
#978=EDGE_LOOP('',(#974,#975,#976,#977));
#979=FACE_OUTER_BOUND('',#978,.T.);
#980=ADVANCED_FACE('',(#979),#973,.F.);
#981=CLOSED_SHELL('',(#563,#598,#633,#668,#700,#722,#744,#776,#798,#820,#852,#884,#901,#932,#944,#956,#968,#980));
#982=MANIFOLD_SOLID_BREP('2460',#981);
#983=STYLED_ITEM('NONE',(#525),#982);
#984=CARTESIAN_POINT('',(0.0,0.7,1.07));
#985=DIRECTION('',(1.0,0.0,0.0));
#986=DIRECTION('',(0.0,0.707106781186547,0.707106781186548));
#987=AXIS2_PLACEMENT_3D('',#984,#985,#986);
#988=CYLINDRICAL_SURFACE('',#987,0.1);
#989=CARTESIAN_POINT('',(1.09,0.7,1.17));
#990=VERTEX_POINT('',#989);
#991=CARTESIAN_POINT('',(1.09,0.8,1.07));
#992=VERTEX_POINT('',#991);
#993=CARTESIAN_POINT('',(1.09,0.7,1.07));
#994=DIRECTION('',(-1.0,0.0,0.0));
#995=DIRECTION('',(0.0,0.707106781186547,0.707106781186548));
#996=AXIS2_PLACEMENT_3D('',#993,#994,#995);
#997=CIRCLE('',#996,0.1);
#998=EDGE_CURVE('',#990,#992,#997,.T.);
#999=ORIENTED_EDGE('',*,*,#998,.T.);
#1000=CARTESIAN_POINT('',(-1.09,0.8,1.07));
#1001=VERTEX_POINT('',#1000);
#1002=CARTESIAN_POINT('',(1.09,0.8,1.07));
#1003=DIRECTION('',(-1.0,0.0,0.0));
#1004=VECTOR('',#1003,2.18);
#1005=LINE('',#1002,#1004);
#1006=EDGE_CURVE('',#992,#1001,#1005,.T.);
#1007=ORIENTED_EDGE('',*,*,#1006,.T.);
#1008=CARTESIAN_POINT('',(-1.09,0.7,1.17));
#1009=VERTEX_POINT('',#1008);
#1010=CARTESIAN_POINT('',(-1.09,0.7,1.07));
#1011=DIRECTION('',(1.0,0.0,0.0));
#1012=DIRECTION('',(0.0,0.707106781186547,0.707106781186548));
#1013=AXIS2_PLACEMENT_3D('',#1010,#1011,#1012);
#1014=CIRCLE('',#1013,0.1);
#1015=EDGE_CURVE('',#1001,#1009,#1014,.T.);
#1016=ORIENTED_EDGE('',*,*,#1015,.T.);
#1017=CARTESIAN_POINT('',(-1.09,0.7,1.17));
#1018=DIRECTION('',(1.0,0.0,0.0));
#1019=VECTOR('',#1018,2.18);
#1020=LINE('',#1017,#1019);
#1021=EDGE_CURVE('',#1009,#990,#1020,.T.);
#1022=ORIENTED_EDGE('',*,*,#1021,.T.);
#1023=EDGE_LOOP('',(#999,#1007,#1016,#1022));
#1024=FACE_OUTER_BOUND('',#1023,.T.);
#1025=ADVANCED_FACE('',(#1024),#988,.T.);
#1026=CARTESIAN_POINT('',(-1.09,-0.7,1.17));
#1027=CARTESIAN_POINT('',(1.09,-0.7,1.17));
#1028=CARTESIAN_POINT('',(-1.09,0.7,1.17));
#1029=CARTESIAN_POINT('',(1.09,0.7,1.17));
#1030=B_SPLINE_SURFACE_WITH_KNOTS('',1,1,((#1026,#1028),(#1027,#1029)),.UNSPECIFIED.,.F.,.F.,.U.,(2,2),(2,2),(0.0,2.18),(0.0,1.4),.UNSPECIFIED.);
#1031=ORIENTED_EDGE('',*,*,#1021,.F.);
#1032=CARTESIAN_POINT('',(-1.09,-0.7,1.17));
#1033=VERTEX_POINT('',#1032);
#1034=CARTESIAN_POINT('',(-1.09,0.7,1.17));
#1035=DIRECTION('',(0.0,-1.0,0.0));
#1036=VECTOR('',#1035,1.4);
#1037=LINE('',#1034,#1036);
#1038=EDGE_CURVE('',#1009,#1033,#1037,.T.);
#1039=ORIENTED_EDGE('',*,*,#1038,.T.);
#1040=CARTESIAN_POINT('',(1.09,-0.7,1.17));
#1041=VERTEX_POINT('',#1040);
#1042=CARTESIAN_POINT('',(1.09,-0.7,1.17));
#1043=DIRECTION('',(-1.0,0.0,0.0));
#1044=VECTOR('',#1043,2.18);
#1045=LINE('',#1042,#1044);
#1046=EDGE_CURVE('',#1041,#1033,#1045,.T.);
#1047=ORIENTED_EDGE('',*,*,#1046,.F.);
#1048=CARTESIAN_POINT('',(1.09,-0.7,1.17));
#1049=DIRECTION('',(0.0,1.0,0.0));
#1050=VECTOR('',#1049,1.4);
#1051=LINE('',#1048,#1050);
#1052=EDGE_CURVE('',#1041,#990,#1051,.T.);
#1053=ORIENTED_EDGE('',*,*,#1052,.T.);
#1054=EDGE_LOOP('',(#1031,#1039,#1047,#1053));
#1055=FACE_OUTER_BOUND('',#1054,.T.);
#1056=ADVANCED_FACE('',(#1055),#1030,.T.);
#1057=CARTESIAN_POINT('',(-1.09,-0.8,0.0));
#1058=CARTESIAN_POINT('',(-1.09,-0.8,1.17));
#1059=CARTESIAN_POINT('',(-1.09,0.8,0.0));
#1060=CARTESIAN_POINT('',(-1.09,0.8,1.17));
#1061=B_SPLINE_SURFACE_WITH_KNOTS('',1,1,((#1057,#1059),(#1058,#1060)),.UNSPECIFIED.,.F.,.F.,.U.,(2,2),(2,2),(0.0,1.17),(0.0,1.6),.UNSPECIFIED.);
#1062=ORIENTED_EDGE('',*,*,#1015,.F.);
#1063=CARTESIAN_POINT('',(-1.09,0.8,0.1));
#1064=VERTEX_POINT('',#1063);
#1065=CARTESIAN_POINT('',(-1.09,0.8,0.1));
#1066=DIRECTION('',(0.0,0.0,1.0));
#1067=VECTOR('',#1066,0.97);
#1068=LINE('',#1065,#1067);
#1069=EDGE_CURVE('',#1064,#1001,#1068,.T.);
#1070=ORIENTED_EDGE('',*,*,#1069,.F.);
#1071=CARTESIAN_POINT('',(-1.09,0.7,0.0));
#1072=VERTEX_POINT('',#1071);
#1073=CARTESIAN_POINT('',(-1.09,0.7,0.1));
#1074=DIRECTION('',(1.0,0.0,0.0));
#1075=DIRECTION('',(0.0,0.707106781186547,-0.707106781186548));
#1076=AXIS2_PLACEMENT_3D('',#1073,#1074,#1075);
#1077=CIRCLE('',#1076,0.1);
#1078=EDGE_CURVE('',#1072,#1064,#1077,.T.);
#1079=ORIENTED_EDGE('',*,*,#1078,.F.);
#1080=CARTESIAN_POINT('',(-1.09,-0.7,0.0));
#1081=VERTEX_POINT('',#1080);
#1082=CARTESIAN_POINT('',(-1.09,-0.7,0.0));
#1083=DIRECTION('',(0.0,1.0,0.0));
#1084=VECTOR('',#1083,1.4);
#1085=LINE('',#1082,#1084);
#1086=EDGE_CURVE('',#1081,#1072,#1085,.T.);
#1087=ORIENTED_EDGE('',*,*,#1086,.F.);
#1088=CARTESIAN_POINT('',(-1.09,-0.8,0.1));
#1089=VERTEX_POINT('',#1088);
#1090=CARTESIAN_POINT('',(-1.09,-0.7,0.1));
#1091=DIRECTION('',(1.0,0.0,0.0));
#1092=DIRECTION('',(0.0,-0.707106781186547,-0.707106781186548));
#1093=AXIS2_PLACEMENT_3D('',#1090,#1091,#1092);
#1094=CIRCLE('',#1093,0.1);
#1095=EDGE_CURVE('',#1089,#1081,#1094,.T.);
#1096=ORIENTED_EDGE('',*,*,#1095,.F.);
#1097=CARTESIAN_POINT('',(-1.09,-0.8,1.07));
#1098=VERTEX_POINT('',#1097);
#1099=CARTESIAN_POINT('',(-1.09,-0.8,1.07));
#1100=DIRECTION('',(0.0,0.0,-1.0));
#1101=VECTOR('',#1100,0.97);
#1102=LINE('',#1099,#1101);
#1103=EDGE_CURVE('',#1098,#1089,#1102,.T.);
#1104=ORIENTED_EDGE('',*,*,#1103,.F.);
#1105=CARTESIAN_POINT('',(-1.09,-0.7,1.07));
#1106=DIRECTION('',(1.0,0.0,0.0));
#1107=DIRECTION('',(0.0,-0.707106781186547,0.707106781186548));
#1108=AXIS2_PLACEMENT_3D('',#1105,#1106,#1107);
#1109=CIRCLE('',#1108,0.1);
#1110=EDGE_CURVE('',#1033,#1098,#1109,.T.);
#1111=ORIENTED_EDGE('',*,*,#1110,.F.);
#1112=ORIENTED_EDGE('',*,*,#1038,.F.);
#1113=EDGE_LOOP('',(#1062,#1070,#1079,#1087,#1096,#1104,#1111,#1112));
#1114=FACE_OUTER_BOUND('',#1113,.T.);
#1115=ADVANCED_FACE('',(#1114),#1061,.T.);
#1116=CARTESIAN_POINT('',(0.0,0.7,0.1));
#1117=DIRECTION('',(-1.0,0.0,0.0));
#1118=DIRECTION('',(0.0,0.707106781186547,-0.707106781186548));
#1119=AXIS2_PLACEMENT_3D('',#1116,#1117,#1118);
#1120=CYLINDRICAL_SURFACE('',#1119,0.1);
#1121=ORIENTED_EDGE('',*,*,#1078,.T.);
#1122=CARTESIAN_POINT('',(1.09,0.8,0.1));
#1123=VERTEX_POINT('',#1122);
#1124=CARTESIAN_POINT('',(-1.09,0.8,0.1));
#1125=DIRECTION('',(1.0,0.0,0.0));
#1126=VECTOR('',#1125,2.18);
#1127=LINE('',#1124,#1126);
#1128=EDGE_CURVE('',#1064,#1123,#1127,.T.);
#1129=ORIENTED_EDGE('',*,*,#1128,.T.);
#1130=CARTESIAN_POINT('',(1.09,0.7,0.0));
#1131=VERTEX_POINT('',#1130);
#1132=CARTESIAN_POINT('',(1.09,0.7,0.1));
#1133=DIRECTION('',(-1.0,0.0,0.0));
#1134=DIRECTION('',(0.0,0.707106781186547,-0.707106781186548));
#1135=AXIS2_PLACEMENT_3D('',#1132,#1133,#1134);
#1136=CIRCLE('',#1135,0.1);
#1137=EDGE_CURVE('',#1123,#1131,#1136,.T.);
#1138=ORIENTED_EDGE('',*,*,#1137,.T.);
#1139=CARTESIAN_POINT('',(1.09,0.7,0.0));
#1140=DIRECTION('',(-1.0,0.0,0.0));
#1141=VECTOR('',#1140,2.18);
#1142=LINE('',#1139,#1141);
#1143=EDGE_CURVE('',#1131,#1072,#1142,.T.);
#1144=ORIENTED_EDGE('',*,*,#1143,.T.);
#1145=EDGE_LOOP('',(#1121,#1129,#1138,#1144));
#1146=FACE_OUTER_BOUND('',#1145,.T.);
#1147=ADVANCED_FACE('',(#1146),#1120,.T.);
#1148=CARTESIAN_POINT('',(-1.09,-0.7,0.0));
#1149=CARTESIAN_POINT('',(1.09,-0.7,0.0));
#1150=CARTESIAN_POINT('',(-1.09,0.7,0.0));
#1151=CARTESIAN_POINT('',(1.09,0.7,0.0));
#1152=B_SPLINE_SURFACE_WITH_KNOTS('',1,1,((#1148,#1150),(#1149,#1151)),.UNSPECIFIED.,.F.,.F.,.U.,(2,2),(2,2),(0.0,2.18),(0.0,1.4),.UNSPECIFIED.);
#1153=ORIENTED_EDGE('',*,*,#1143,.F.);
#1154=CARTESIAN_POINT('',(1.09,-0.7,0.0));
#1155=VERTEX_POINT('',#1154);
#1156=CARTESIAN_POINT('',(1.09,0.7,0.0));
#1157=DIRECTION('',(0.0,-1.0,0.0));
#1158=VECTOR('',#1157,1.4);
#1159=LINE('',#1156,#1158);
#1160=EDGE_CURVE('',#1131,#1155,#1159,.T.);
#1161=ORIENTED_EDGE('',*,*,#1160,.T.);
#1162=CARTESIAN_POINT('',(-1.09,-0.7,0.0));
#1163=DIRECTION('',(1.0,0.0,0.0));
#1164=VECTOR('',#1163,2.18);
#1165=LINE('',#1162,#1164);
#1166=EDGE_CURVE('',#1081,#1155,#1165,.T.);
#1167=ORIENTED_EDGE('',*,*,#1166,.F.);
#1168=ORIENTED_EDGE('',*,*,#1086,.T.);
#1169=EDGE_LOOP('',(#1153,#1161,#1167,#1168));
#1170=FACE_OUTER_BOUND('',#1169,.T.);
#1171=ADVANCED_FACE('',(#1170),#1152,.F.);
#1172=CARTESIAN_POINT('',(0.0,-0.7,0.1));
#1173=DIRECTION('',(1.0,0.0,0.0));
#1174=DIRECTION('',(0.0,-0.707106781186547,-0.707106781186548));
#1175=AXIS2_PLACEMENT_3D('',#1172,#1173,#1174);
#1176=CYLINDRICAL_SURFACE('',#1175,0.1);
#1177=CARTESIAN_POINT('',(1.09,-0.8,0.1));
#1178=VERTEX_POINT('',#1177);
#1179=CARTESIAN_POINT('',(1.09,-0.7,0.1));
#1180=DIRECTION('',(-1.0,0.0,0.0));
#1181=DIRECTION('',(0.0,-0.707106781186547,-0.707106781186548));
#1182=AXIS2_PLACEMENT_3D('',#1179,#1180,#1181);
#1183=CIRCLE('',#1182,0.1);
#1184=EDGE_CURVE('',#1155,#1178,#1183,.T.);
#1185=ORIENTED_EDGE('',*,*,#1184,.T.);
#1186=CARTESIAN_POINT('',(1.09,-0.8,0.1));
#1187=DIRECTION('',(-1.0,0.0,0.0));
#1188=VECTOR('',#1187,2.18);
#1189=LINE('',#1186,#1188);
#1190=EDGE_CURVE('',#1178,#1089,#1189,.T.);
#1191=ORIENTED_EDGE('',*,*,#1190,.T.);
#1192=ORIENTED_EDGE('',*,*,#1095,.T.);
#1193=ORIENTED_EDGE('',*,*,#1166,.T.);
#1194=EDGE_LOOP('',(#1185,#1191,#1192,#1193));
#1195=FACE_OUTER_BOUND('',#1194,.T.);
#1196=ADVANCED_FACE('',(#1195),#1176,.T.);
#1197=CARTESIAN_POINT('',(0.0,-0.7,1.07));
#1198=DIRECTION('',(-1.0,0.0,0.0));
#1199=DIRECTION('',(0.0,-0.707106781186547,0.707106781186548));
#1200=AXIS2_PLACEMENT_3D('',#1197,#1198,#1199);
#1201=CYLINDRICAL_SURFACE('',#1200,0.1);
#1202=ORIENTED_EDGE('',*,*,#1110,.T.);
#1203=CARTESIAN_POINT('',(1.09,-0.8,1.07));
#1204=VERTEX_POINT('',#1203);
#1205=CARTESIAN_POINT('',(-1.09,-0.8,1.07));
#1206=DIRECTION('',(1.0,0.0,0.0));
#1207=VECTOR('',#1206,2.18);
#1208=LINE('',#1205,#1207);
#1209=EDGE_CURVE('',#1098,#1204,#1208,.T.);
#1210=ORIENTED_EDGE('',*,*,#1209,.T.);
#1211=CARTESIAN_POINT('',(1.09,-0.7,1.07));
#1212=DIRECTION('',(-1.0,0.0,0.0));
#1213=DIRECTION('',(0.0,-0.707106781186547,0.707106781186548));
#1214=AXIS2_PLACEMENT_3D('',#1211,#1212,#1213);
#1215=CIRCLE('',#1214,0.1);
#1216=EDGE_CURVE('',#1204,#1041,#1215,.T.);
#1217=ORIENTED_EDGE('',*,*,#1216,.T.);
#1218=ORIENTED_EDGE('',*,*,#1046,.T.);
#1219=EDGE_LOOP('',(#1202,#1210,#1217,#1218));
#1220=FACE_OUTER_BOUND('',#1219,.T.);
#1221=ADVANCED_FACE('',(#1220),#1201,.T.);
#1222=CARTESIAN_POINT('',(1.09,-0.8,1.17));
#1223=CARTESIAN_POINT('',(1.09,-0.8,0.0));
#1224=CARTESIAN_POINT('',(1.09,0.8,1.17));
#1225=CARTESIAN_POINT('',(1.09,0.8,0.0));
#1226=B_SPLINE_SURFACE_WITH_KNOTS('',1,1,((#1222,#1224),(#1223,#1225)),.UNSPECIFIED.,.F.,.F.,.U.,(2,2),(2,2),(0.0,1.17),(0.0,1.6),.UNSPECIFIED.);
#1227=ORIENTED_EDGE('',*,*,#998,.F.);
#1228=ORIENTED_EDGE('',*,*,#1052,.F.);
#1229=ORIENTED_EDGE('',*,*,#1216,.F.);
#1230=CARTESIAN_POINT('',(1.09,-0.8,0.1));
#1231=DIRECTION('',(0.0,0.0,1.0));
#1232=VECTOR('',#1231,0.97);
#1233=LINE('',#1230,#1232);
#1234=EDGE_CURVE('',#1178,#1204,#1233,.T.);
#1235=ORIENTED_EDGE('',*,*,#1234,.F.);
#1236=ORIENTED_EDGE('',*,*,#1184,.F.);
#1237=ORIENTED_EDGE('',*,*,#1160,.F.);
#1238=ORIENTED_EDGE('',*,*,#1137,.F.);
#1239=CARTESIAN_POINT('',(1.09,0.8,1.07));
#1240=DIRECTION('',(0.0,0.0,-1.0));
#1241=VECTOR('',#1240,0.97);
#1242=LINE('',#1239,#1241);
#1243=EDGE_CURVE('',#992,#1123,#1242,.T.);
#1244=ORIENTED_EDGE('',*,*,#1243,.F.);
#1245=EDGE_LOOP('',(#1227,#1228,#1229,#1235,#1236,#1237,#1238,#1244));
#1246=FACE_OUTER_BOUND('',#1245,.T.);
#1247=ADVANCED_FACE('',(#1246),#1226,.T.);
#1248=CARTESIAN_POINT('',(1.09,-0.8,1.07));
#1249=CARTESIAN_POINT('',(1.09,-0.8,0.1));
#1250=CARTESIAN_POINT('',(-1.09,-0.8,1.07));
#1251=CARTESIAN_POINT('',(-1.09,-0.8,0.1));
#1252=B_SPLINE_SURFACE_WITH_KNOTS('',1,1,((#1248,#1250),(#1249,#1251)),.UNSPECIFIED.,.F.,.F.,.U.,(2,2),(2,2),(0.0,0.97),(0.0,2.18),.UNSPECIFIED.);
#1253=ORIENTED_EDGE('',*,*,#1190,.F.);
#1254=ORIENTED_EDGE('',*,*,#1234,.T.);
#1255=ORIENTED_EDGE('',*,*,#1209,.F.);
#1256=ORIENTED_EDGE('',*,*,#1103,.T.);
#1257=EDGE_LOOP('',(#1253,#1254,#1255,#1256));
#1258=FACE_OUTER_BOUND('',#1257,.T.);
#1259=ADVANCED_FACE('',(#1258),#1252,.F.);
#1260=CARTESIAN_POINT('',(1.09,0.8,0.1));
#1261=CARTESIAN_POINT('',(1.09,0.8,1.07));
#1262=CARTESIAN_POINT('',(-1.09,0.8,0.1));
#1263=CARTESIAN_POINT('',(-1.09,0.8,1.07));
#1264=B_SPLINE_SURFACE_WITH_KNOTS('',1,1,((#1260,#1262),(#1261,#1263)),.UNSPECIFIED.,.F.,.F.,.U.,(2,2),(2,2),(0.0,0.97),(0.0,2.18),.UNSPECIFIED.);
#1265=ORIENTED_EDGE('',*,*,#1006,.F.);
#1266=ORIENTED_EDGE('',*,*,#1243,.T.);
#1267=ORIENTED_EDGE('',*,*,#1128,.F.);
#1268=ORIENTED_EDGE('',*,*,#1069,.T.);
#1269=EDGE_LOOP('',(#1265,#1266,#1267,#1268));
#1270=FACE_OUTER_BOUND('',#1269,.T.);
#1271=ADVANCED_FACE('',(#1270),#1264,.F.);
#1272=CLOSED_SHELL('',(#1025,#1056,#1115,#1147,#1171,#1196,#1221,#1247,#1259,#1271));
#1273=MANIFOLD_SOLID_BREP('245B',#1272);
#1274=COLOUR_RGB('254',0.866,0.866,0.866);
#1275=SURFACE_STYLE_USAGE(.BOTH.,#1276);
#1276=SURFACE_SIDE_STYLE('NONE',(#1277));
#1277=SURFACE_STYLE_FILL_AREA(#1278);
#1278=FILL_AREA_STYLE('NONE',(#1279));
#1279=FILL_AREA_STYLE_COLOUR('NONE',#1274);
#1280=PRESENTATION_STYLE_ASSIGNMENT((#1275));
#1281=STYLED_ITEM('NONE',(#1280),#1273);
#1282=ADVANCED_BREP_SHAPE_REPRESENTATION('ABSR1',(#518,#982,#1273),#28);
#1283=SHAPE_REPRESENTATION_RELATIONSHIP('SRRPL1','',#1282,#62);
ENDSEC;
END-ISO-10303-21;
