ISO-10303-21;
HEADER;
/****************************************************************
 * Generated by software with PDElib inside                    *
 * PDElib Version v51a, created Fri 09/10/2010                  *
 * ITI Transcendata (http://www.transcendata.com/)              *
 ****************************************************************/
FILE_DESCRIPTION((''),'2;1');
FILE_NAME('FUSE_5X20_GLASS_h_Part1.stp','2013-08-21T11:39:26',(''),(''),'Mechanical Desktop 2011','Mechanical Desktop 2011',', , ');
FILE_SCHEMA(('AUTOMOTIVE_DESIGN { 1 2 10303 214 1 1 1 1 }'));
ENDSEC;
DATA;
#10=(NAMED_UNIT(*)PLANE_ANGLE_UNIT()SI_UNIT($,.RADIAN.));
#11=DIMENSIONAL_EXPONENTS(0.0,0.0,0.0,0.0,0.0,0.0,0.0);
#12=PLANE_ANGLE_MEASURE_WITH_UNIT(PLANE_ANGLE_MEASURE(0.0174532925),#10);
#16=(CONVERSION_BASED_UNIT('DEGREE',#12)NAMED_UNIT(#11)PLANE_ANGLE_UNIT());
#20=(NAMED_UNIT(*)SI_UNIT($,.STERADIAN.)SOLID_ANGLE_UNIT());
#24=(LENGTH_UNIT()NAMED_UNIT(*)SI_UNIT(.MILLI.,.METRE.));
#26=UNCERTAINTY_MEASURE_WITH_UNIT(LENGTH_MEASURE(0.000001),#24,'DISTANCE_ACCURACY_VALUE','');
#28=(GEOMETRIC_REPRESENTATION_CONTEXT(3)GLOBAL_UNCERTAINTY_ASSIGNED_CONTEXT((#26))GLOBAL_UNIT_ASSIGNED_CONTEXT((#16,#20,#24))REPRESENTATION_CONTEXT('','3D'));
#29=APPLICATION_CONTEXT('automotive design');
#30=APPLICATION_PROTOCOL_DEFINITION('INTERNATIONAL_STANDARD','automotive_design',1998,#29);
#31=PRODUCT_CONTEXT('3D Mechanical Parts',#29,'mechanical');
#32=PRODUCT('Product','Product','',(#31));
#33=PRODUCT_RELATED_PRODUCT_CATEGORY('part',$,(#32));
#34=PRODUCT_CATEGORY('part',$);
#35=PERSON('1','Design','Joe',$,$,$);
#36=ORGANIZATION($,'None','None');
#37=PERSON_AND_ORGANIZATION(#35,#36);
#38=PERSON_AND_ORGANIZATION_ROLE('design_owner');
#39=APPLIED_PERSON_AND_ORGANIZATION_ASSIGNMENT(#37,#38,(#32));
#40=PRODUCT_DEFINITION_FORMATION_WITH_SPECIFIED_SOURCE('None','',#32,.BOUGHT.);
#41=PERSON('2','Creator','Joe',$,$,$);
#42=ORGANIZATION($,'None','None');
#43=PERSON_AND_ORGANIZATION(#41,#42);
#44=PERSON_AND_ORGANIZATION_ROLE('creator');
#45=APPLIED_PERSON_AND_ORGANIZATION_ASSIGNMENT(#43,#44,(#40));
#46=PERSON('3','Supplier','Joe',$,$,$);
#47=ORGANIZATION($,'None','None');
#48=PERSON_AND_ORGANIZATION(#46,#47);
#49=PERSON_AND_ORGANIZATION_ROLE('design_supplier');
#50=APPLIED_PERSON_AND_ORGANIZATION_ASSIGNMENT(#48,#49,(#40));
#51=PRODUCT_DEFINITION_CONTEXT('part definition',#29,'design');
#52=PRODUCT_DEFINITION('None','',#40,#51);
#53=PERSON('4','Creator','Joe',$,$,$);
#54=ORGANIZATION($,'None','None');
#55=PERSON_AND_ORGANIZATION(#53,#54);
#56=PERSON_AND_ORGANIZATION_ROLE('creator');
#57=APPLIED_PERSON_AND_ORGANIZATION_ASSIGNMENT(#55,#56,(#52));
#58=CARTESIAN_POINT('NONE',(0.0,0.0,0.0));
#59=DIRECTION('NONE',(0.0,0.0,1.0));
#60=DIRECTION('NONE',(1.0,0.0,0.0));
#61=AXIS2_PLACEMENT_3D('NONE',#58,#59,#60);
#62=SHAPE_REPRESENTATION('SR1',(#61),#28);
#63=PRODUCT_DEFINITION_SHAPE('PDS1','Test Part',#52);
#64=SHAPE_DEFINITION_REPRESENTATION(#63,#62);
#65=CARTESIAN_POINT('',(9.500000000000002,-2.5,2.500000000000003));
#66=CARTESIAN_POINT('',(4.999999999999998,-2.5,2.5));
#67=CARTESIAN_POINT('',(9.500000000000004,-2.499999999999999,3.108624E-015));
#68=CARTESIAN_POINT('',(5.0,-2.499999999999999,9.860761E-032));
#69=CARTESIAN_POINT('',(9.500000000000004,9.033166E-016,3.108624E-015));
#70=CARTESIAN_POINT('',(5.0,9.033166E-016,0.0));
#71=CARTESIAN_POINT('',(9.500000000000004,2.5,3.996803E-015));
#72=CARTESIAN_POINT('',(5.0,2.5,8.881784E-016));
#73=CARTESIAN_POINT('',(9.500000000000002,2.5,2.500000000000004));
#74=CARTESIAN_POINT('',(4.999999999999998,2.5,2.5));
#75=CARTESIAN_POINT('',(9.5,2.5,5.000000000000003));
#76=CARTESIAN_POINT('',(4.999999999999996,2.5,5.0));
#77=CARTESIAN_POINT('',(9.5,1.513817E-017,5.000000000000004));
#78=CARTESIAN_POINT('',(4.999999999999996,1.513817E-017,5.0));
#79=CARTESIAN_POINT('',(9.5,-2.5,5.000000000000003));
#80=CARTESIAN_POINT('',(4.999999999999996,-2.5,5.0));
#81=CARTESIAN_POINT('',(9.500000000000002,-2.5,2.500000000000003));
#82=CARTESIAN_POINT('',(4.999999999999998,-2.5,2.5));
#90=(BOUNDED_SURFACE()B_SPLINE_SURFACE(1,2,((#65,#67,#69,#71,#73,#75,#77,#79,#81),(#66,#68,#70,#72,#74,#76,#78,#80,#82)),.UNSPECIFIED.,.F.,.T.,.U.)B_SPLINE_SURFACE_WITH_KNOTS((2,2),(3,2,2,2,3),(0.199999999999999,2.000000000000001),(0.0,3.926990816987241,7.853981633974483,11.780972450961723,15.707963267948966),.UNSPECIFIED.)GEOMETRIC_REPRESENTATION_ITEM()RATIONAL_B_SPLINE_SURFACE(((1.0,0.707106781186548,1.0,0.707106781186548,1.0,0.707106781186548,1.0,0.707106781186548,1.0),(1.0,0.707106781186548,1.0,0.707106781186548,1.0,0.707106781186548,1.0,0.707106781186548,1.0)))REPRESENTATION_ITEM('')SURFACE());
#91=CARTESIAN_POINT('',(5.0,2.5,2.5));
#92=VERTEX_POINT('',#91);
#93=CARTESIAN_POINT('',(9.5,2.5,2.500000000000003));
#94=VERTEX_POINT('',#93);
#95=CARTESIAN_POINT('',(5.0,2.5,2.5));
#96=DIRECTION('',(1.0,0.0,0.0));
#97=VECTOR('',#96,4.5);
#98=LINE('',#95,#97);
#99=EDGE_CURVE('',#92,#94,#98,.T.);
#100=ORIENTED_EDGE('',*,*,#99,.F.);
#101=CARTESIAN_POINT('',(5.0,-2.5,2.5));
#102=VERTEX_POINT('',#101);
#103=CARTESIAN_POINT('',(5.0,4.592274E-016,2.5));
#104=DIRECTION('',(-1.0,0.0,0.0));
#105=DIRECTION('',(0.0,1.0,0.0));
#106=AXIS2_PLACEMENT_3D('',#103,#104,#105);
#107=CIRCLE('',#106,2.5);
#108=EDGE_CURVE('',#102,#92,#107,.T.);
#109=ORIENTED_EDGE('',*,*,#108,.F.);
#110=CARTESIAN_POINT('',(9.5,-2.5,2.500000000000003));
#111=VERTEX_POINT('',#110);
#112=CARTESIAN_POINT('',(5.0,-2.5,2.5));
#113=DIRECTION('',(1.0,0.0,0.0));
#114=VECTOR('',#113,4.5);
#115=LINE('',#112,#114);
#116=EDGE_CURVE('',#102,#111,#115,.T.);
#117=ORIENTED_EDGE('',*,*,#116,.T.);
#118=CARTESIAN_POINT('',(9.499999999999998,1.530657E-016,5.000000000000004));
#119=VERTEX_POINT('',#118);
#120=CARTESIAN_POINT('',(9.5,4.592274E-016,2.500000000000003));
#121=DIRECTION('',(1.0,0.0,0.0));
#122=DIRECTION('',(0.0,-1.0,0.0));
#123=AXIS2_PLACEMENT_3D('',#120,#121,#122);
#124=CIRCLE('',#123,2.5);
#125=EDGE_CURVE('',#119,#111,#124,.T.);
#126=ORIENTED_EDGE('',*,*,#125,.F.);
#127=CARTESIAN_POINT('',(9.5,4.592274E-016,2.500000000000003));
#128=DIRECTION('',(1.0,0.0,0.0));
#129=DIRECTION('',(0.0,-1.0,0.0));
#130=AXIS2_PLACEMENT_3D('',#127,#128,#129);
#131=CIRCLE('',#130,2.5);
#132=EDGE_CURVE('',#94,#119,#131,.T.);
#133=ORIENTED_EDGE('',*,*,#132,.F.);
#134=EDGE_LOOP('',(#100,#109,#117,#126,#133));
#135=FACE_OUTER_BOUND('',#134,.T.);
#136=ADVANCED_FACE('',(#135),#90,.T.);
#137=CARTESIAN_POINT('',(9.5,4.592274E-016,2.500000000000003));
#138=DIRECTION('',(1.0,0.0,6.661338E-016));
#139=DIRECTION('',(0.0,0.0,-1.0));
#140=AXIS2_PLACEMENT_3D('',#137,#138,#139);
#141=TOROIDAL_SURFACE('',#140,2.0,0.5);
#142=CARTESIAN_POINT('',(10.000000000000002,4.592274E-016,0.500000000000004));
#143=VERTEX_POINT('',#142);
#144=CARTESIAN_POINT('',(9.500000000000002,4.592274E-016,3.108624E-015));
#145=VERTEX_POINT('',#144);
#146=CARTESIAN_POINT('',(9.500000000000002,4.592274E-016,0.500000000000003));
#147=DIRECTION('',(0.0,1.0,0.0));
#148=DIRECTION('',(0.0,0.0,-1.0));
#149=AXIS2_PLACEMENT_3D('',#146,#147,#148);
#150=CIRCLE('',#149,0.5);
#151=EDGE_CURVE('',#143,#145,#150,.T.);
#152=ORIENTED_EDGE('',*,*,#151,.F.);
#153=CARTESIAN_POINT('',(9.999999999999998,2.142980E-016,4.500000000000004));
#154=VERTEX_POINT('',#153);
#155=CARTESIAN_POINT('',(10.0,4.592274E-016,2.500000000000004));
#156=DIRECTION('',(-1.0,0.0,0.0));
#157=DIRECTION('',(0.0,-1.0,0.0));
#158=AXIS2_PLACEMENT_3D('',#155,#156,#157);
#159=CIRCLE('',#158,2.0);
#160=EDGE_CURVE('',#143,#154,#159,.T.);
#161=ORIENTED_EDGE('',*,*,#160,.T.);
#162=CARTESIAN_POINT('',(9.499999999999998,2.142980E-016,4.500000000000004));
#163=DIRECTION('',(0.0,-1.0,0.0));
#164=DIRECTION('',(0.0,0.0,1.0));
#165=AXIS2_PLACEMENT_3D('',#162,#163,#164);
#166=CIRCLE('',#165,0.5);
#167=EDGE_CURVE('',#154,#119,#166,.T.);
#168=ORIENTED_EDGE('',*,*,#167,.T.);
#169=ORIENTED_EDGE('',*,*,#125,.T.);
#170=CARTESIAN_POINT('',(9.5,4.592274E-016,2.500000000000003));
#171=DIRECTION('',(1.0,0.0,0.0));
#172=DIRECTION('',(0.0,-1.0,0.0));
#173=AXIS2_PLACEMENT_3D('',#170,#171,#172);
#174=CIRCLE('',#173,2.5);
#175=EDGE_CURVE('',#111,#145,#174,.T.);
#176=ORIENTED_EDGE('',*,*,#175,.T.);
#177=EDGE_LOOP('',(#152,#161,#168,#169,#176));
#178=FACE_OUTER_BOUND('',#177,.T.);
#179=ADVANCED_FACE('',(#178),#141,.T.);
#180=CARTESIAN_POINT('',(-10.0,4.592274E-016,2.499999999999999));
#181=DIRECTION('',(1.0,0.0,2.220446E-016));
#182=DIRECTION('',(0.0,1.0,0.0));
#183=AXIS2_PLACEMENT_3D('',#180,#181,#182);
#184=CYLINDRICAL_SURFACE('',#183,2.1);
#185=CARTESIAN_POINT('',(5.0,2.100000000000001,2.500000000000002));
#186=VERTEX_POINT('',#185);
#187=CARTESIAN_POINT('',(9.5,2.100000000000001,2.500000000000003));
#188=VERTEX_POINT('',#187);
#189=CARTESIAN_POINT('',(5.0,2.100000000000001,2.500000000000002));
#190=DIRECTION('',(1.0,0.0,0.0));
#191=VECTOR('',#190,4.5);
#192=LINE('',#189,#191);
#193=EDGE_CURVE('',#186,#188,#192,.T.);
#194=ORIENTED_EDGE('',*,*,#193,.F.);
#195=CARTESIAN_POINT('',(5.0,-2.1,2.500000000000001));
#196=VERTEX_POINT('',#195);
#197=CARTESIAN_POINT('',(5.0,4.592274E-016,2.500000000000002));
#198=DIRECTION('',(1.0,0.0,0.0));
#199=DIRECTION('',(0.0,1.0,0.0));
#200=AXIS2_PLACEMENT_3D('',#197,#198,#199);
#201=CIRCLE('',#200,2.1);
#202=EDGE_CURVE('',#196,#186,#201,.T.);
#203=ORIENTED_EDGE('',*,*,#202,.F.);
#204=CARTESIAN_POINT('',(9.5,-2.1,2.500000000000003));
#205=VERTEX_POINT('',#204);
#206=CARTESIAN_POINT('',(5.0,-2.1,2.500000000000002));
#207=DIRECTION('',(1.0,0.0,0.0));
#208=VECTOR('',#207,4.5);
#209=LINE('',#206,#208);
#210=EDGE_CURVE('',#196,#205,#209,.T.);
#211=ORIENTED_EDGE('',*,*,#210,.T.);
#212=CARTESIAN_POINT('',(9.5,4.592274E-016,2.500000000000003));
#213=DIRECTION('',(1.0,0.0,0.0));
#214=DIRECTION('',(0.0,1.0,0.0));
#215=AXIS2_PLACEMENT_3D('',#212,#213,#214);
#216=CIRCLE('',#215,2.1);
#217=EDGE_CURVE('',#188,#205,#216,.F.);
#218=ORIENTED_EDGE('',*,*,#217,.F.);
#219=EDGE_LOOP('',(#194,#203,#211,#218));
#220=FACE_OUTER_BOUND('',#219,.T.);
#221=ADVANCED_FACE('',(#220),#184,.F.);
#222=CARTESIAN_POINT('',(9.499999999999998,2.100000000000001,4.600000000000003));
#223=CARTESIAN_POINT('',(9.500000000000002,2.100000000000001,0.400000000000003));
#224=CARTESIAN_POINT('',(9.499999999999998,-2.1,4.600000000000003));
#225=CARTESIAN_POINT('',(9.500000000000002,-2.1,0.400000000000003));
#226=B_SPLINE_SURFACE_WITH_KNOTS('',1,1,((#222,#224),(#223,#225)),.UNSPECIFIED.,.F.,.F.,.U.,(2,2),(2,2),(0.0,4.2),(0.0,4.2),.UNSPECIFIED.);
#227=CARTESIAN_POINT('',(9.5,4.592274E-016,2.500000000000003));
#228=DIRECTION('',(1.0,0.0,0.0));
#229=DIRECTION('',(0.0,1.0,0.0));
#230=AXIS2_PLACEMENT_3D('',#227,#228,#229);
#231=CIRCLE('',#230,2.1);
#232=EDGE_CURVE('',#205,#188,#231,.F.);
#233=ORIENTED_EDGE('',*,*,#232,.T.);
#234=ORIENTED_EDGE('',*,*,#217,.T.);
#235=EDGE_LOOP('',(#233,#234));
#236=FACE_OUTER_BOUND('',#235,.T.);
#237=ADVANCED_FACE('',(#236),#226,.T.);
#238=CARTESIAN_POINT('',(-10.0,4.592274E-016,2.499999999999999));
#239=DIRECTION('',(1.0,0.0,2.220446E-016));
#240=DIRECTION('',(0.0,1.0,0.0));
#241=AXIS2_PLACEMENT_3D('',#238,#239,#240);
#242=CYLINDRICAL_SURFACE('',#241,2.1);
#243=ORIENTED_EDGE('',*,*,#193,.T.);
#244=ORIENTED_EDGE('',*,*,#232,.F.);
#245=ORIENTED_EDGE('',*,*,#210,.F.);
#246=CARTESIAN_POINT('',(5.0,4.592274E-016,2.500000000000002));
#247=DIRECTION('',(1.0,0.0,0.0));
#248=DIRECTION('',(0.0,1.0,0.0));
#249=AXIS2_PLACEMENT_3D('',#246,#247,#248);
#250=CIRCLE('',#249,2.1);
#251=EDGE_CURVE('',#186,#196,#250,.T.);
#252=ORIENTED_EDGE('',*,*,#251,.F.);
#253=EDGE_LOOP('',(#243,#244,#245,#252));
#254=FACE_OUTER_BOUND('',#253,.T.);
#255=ADVANCED_FACE('',(#254),#242,.F.);
#256=CARTESIAN_POINT('',(9.5,4.592274E-016,2.500000000000003));
#257=DIRECTION('',(1.0,0.0,6.661338E-016));
#258=DIRECTION('',(0.0,0.0,-1.0));
#259=AXIS2_PLACEMENT_3D('',#256,#257,#258);
#260=TOROIDAL_SURFACE('',#259,2.0,0.5);
#261=ORIENTED_EDGE('',*,*,#151,.T.);
#262=CARTESIAN_POINT('',(9.5,4.592274E-016,2.500000000000003));
#263=DIRECTION('',(1.0,0.0,0.0));
#264=DIRECTION('',(0.0,-1.0,0.0));
#265=AXIS2_PLACEMENT_3D('',#262,#263,#264);
#266=CIRCLE('',#265,2.5);
#267=EDGE_CURVE('',#145,#94,#266,.T.);
#268=ORIENTED_EDGE('',*,*,#267,.T.);
#269=ORIENTED_EDGE('',*,*,#132,.T.);
#270=ORIENTED_EDGE('',*,*,#167,.F.);
#271=CARTESIAN_POINT('',(10.0,2.0,2.500000000000003));
#272=VERTEX_POINT('',#271);
#273=CARTESIAN_POINT('',(10.0,4.592274E-016,2.500000000000004));
#274=DIRECTION('',(-1.0,0.0,0.0));
#275=DIRECTION('',(0.0,-1.0,0.0));
#276=AXIS2_PLACEMENT_3D('',#273,#274,#275);
#277=CIRCLE('',#276,2.0);
#278=EDGE_CURVE('',#154,#272,#277,.T.);
#279=ORIENTED_EDGE('',*,*,#278,.T.);
#280=CARTESIAN_POINT('',(10.0,4.592274E-016,2.500000000000004));
#281=DIRECTION('',(-1.0,0.0,0.0));
#282=DIRECTION('',(0.0,-1.0,0.0));
#283=AXIS2_PLACEMENT_3D('',#280,#281,#282);
#284=CIRCLE('',#283,2.0);
#285=EDGE_CURVE('',#272,#143,#284,.T.);
#286=ORIENTED_EDGE('',*,*,#285,.T.);
#287=EDGE_LOOP('',(#261,#268,#269,#270,#279,#286));
#288=FACE_OUTER_BOUND('',#287,.T.);
#289=ADVANCED_FACE('',(#288),#260,.T.);
#290=CARTESIAN_POINT('',(9.500000000000002,-2.5,2.500000000000003));
#291=CARTESIAN_POINT('',(4.999999999999998,-2.5,2.5));
#292=CARTESIAN_POINT('',(9.500000000000004,-2.499999999999999,3.108624E-015));
#293=CARTESIAN_POINT('',(5.0,-2.499999999999999,9.860761E-032));
#294=CARTESIAN_POINT('',(9.500000000000004,9.033166E-016,3.108624E-015));
#295=CARTESIAN_POINT('',(5.0,9.033166E-016,0.0));
#296=CARTESIAN_POINT('',(9.500000000000004,2.5,3.996803E-015));
#297=CARTESIAN_POINT('',(5.0,2.5,8.881784E-016));
#298=CARTESIAN_POINT('',(9.500000000000002,2.5,2.500000000000004));
#299=CARTESIAN_POINT('',(4.999999999999998,2.5,2.5));
#300=CARTESIAN_POINT('',(9.5,2.5,5.000000000000003));
#301=CARTESIAN_POINT('',(4.999999999999996,2.5,5.0));
#302=CARTESIAN_POINT('',(9.5,1.513817E-017,5.000000000000004));
#303=CARTESIAN_POINT('',(4.999999999999996,1.513817E-017,5.0));
#304=CARTESIAN_POINT('',(9.5,-2.5,5.000000000000003));
#305=CARTESIAN_POINT('',(4.999999999999996,-2.5,5.0));
#306=CARTESIAN_POINT('',(9.500000000000002,-2.5,2.500000000000003));
#307=CARTESIAN_POINT('',(4.999999999999998,-2.5,2.5));
#315=(BOUNDED_SURFACE()B_SPLINE_SURFACE(1,2,((#290,#292,#294,#296,#298,#300,#302,#304,#306),(#291,#293,#295,#297,#299,#301,#303,#305,#307)),.UNSPECIFIED.,.F.,.T.,.U.)B_SPLINE_SURFACE_WITH_KNOTS((2,2),(3,2,2,2,3),(0.199999999999999,2.000000000000001),(0.0,3.926990816987241,7.853981633974483,11.780972450961723,15.707963267948966),.UNSPECIFIED.)GEOMETRIC_REPRESENTATION_ITEM()RATIONAL_B_SPLINE_SURFACE(((1.0,0.707106781186548,1.0,0.707106781186548,1.0,0.707106781186548,1.0,0.707106781186548,1.0),(1.0,0.707106781186548,1.0,0.707106781186548,1.0,0.707106781186548,1.0,0.707106781186548,1.0)))REPRESENTATION_ITEM('')SURFACE());
#316=ORIENTED_EDGE('',*,*,#99,.T.);
#317=ORIENTED_EDGE('',*,*,#267,.F.);
#318=ORIENTED_EDGE('',*,*,#175,.F.);
#319=ORIENTED_EDGE('',*,*,#116,.F.);
#320=CARTESIAN_POINT('',(5.0,4.592274E-016,2.5));
#321=DIRECTION('',(-1.0,0.0,0.0));
#322=DIRECTION('',(0.0,1.0,0.0));
#323=AXIS2_PLACEMENT_3D('',#320,#321,#322);
#324=CIRCLE('',#323,2.5);
#325=EDGE_CURVE('',#92,#102,#324,.T.);
#326=ORIENTED_EDGE('',*,*,#325,.F.);
#327=EDGE_LOOP('',(#316,#317,#318,#319,#326));
#328=FACE_OUTER_BOUND('',#327,.T.);
#329=ADVANCED_FACE('',(#328),#315,.T.);
#330=CARTESIAN_POINT('',(9.999999999999998,2.0,4.500000000000004));
#331=CARTESIAN_POINT('',(10.0,2.0,0.500000000000004));
#332=CARTESIAN_POINT('',(9.999999999999998,-2.0,4.500000000000004));
#333=CARTESIAN_POINT('',(10.000000000000002,-2.0,0.500000000000004));
#334=B_SPLINE_SURFACE_WITH_KNOTS('',1,1,((#330,#332),(#331,#333)),.UNSPECIFIED.,.F.,.F.,.U.,(2,2),(2,2),(0.0,4.0),(0.0,4.0),.UNSPECIFIED.);
#335=ORIENTED_EDGE('',*,*,#285,.F.);
#336=ORIENTED_EDGE('',*,*,#278,.F.);
#337=ORIENTED_EDGE('',*,*,#160,.F.);
#338=EDGE_LOOP('',(#335,#336,#337));
#339=FACE_OUTER_BOUND('',#338,.T.);
#340=ADVANCED_FACE('',(#339),#334,.F.);
#341=CARTESIAN_POINT('',(4.999999999999998,2.5,5.0));
#342=CARTESIAN_POINT('',(5.000000000000002,2.5,0.0));
#343=CARTESIAN_POINT('',(4.999999999999998,-2.5,5.0));
#344=CARTESIAN_POINT('',(5.000000000000002,-2.5,0.0));
#345=B_SPLINE_SURFACE_WITH_KNOTS('',1,1,((#341,#343),(#342,#344)),.UNSPECIFIED.,.F.,.F.,.U.,(2,2),(2,2),(0.0,5.0),(0.0,5.0),.UNSPECIFIED.);
#346=ORIENTED_EDGE('',*,*,#325,.T.);
#347=ORIENTED_EDGE('',*,*,#108,.T.);
#348=EDGE_LOOP('',(#346,#347));
#349=FACE_OUTER_BOUND('',#348,.T.);
#350=ORIENTED_EDGE('',*,*,#202,.T.);
#351=ORIENTED_EDGE('',*,*,#251,.T.);
#352=EDGE_LOOP('',(#350,#351));
#353=FACE_BOUND('',#352,.T.);
#354=ADVANCED_FACE('',(#349,#353),#345,.T.);
#355=CLOSED_SHELL('',(#136,#179,#221,#237,#255,#289,#329,#340,#354));
#356=MANIFOLD_SOLID_BREP('890',#355);
#357=COLOUR_RGB('253',0.732,0.732,0.732);
#358=SURFACE_STYLE_USAGE(.BOTH.,#359);
#359=SURFACE_SIDE_STYLE('NONE',(#360));
#360=SURFACE_STYLE_FILL_AREA(#361);
#361=FILL_AREA_STYLE('NONE',(#362));
#362=FILL_AREA_STYLE_COLOUR('NONE',#357);
#363=PRESENTATION_STYLE_ASSIGNMENT((#358));
#364=STYLED_ITEM('NONE',(#363),#356);
#365=MECHANICAL_DESIGN_GEOMETRIC_PRESENTATION_REPRESENTATION('NONE',(#364,#617),#28);
#366=PRESENTATION_LAYER_ASSIGNMENT('3D','None',(#356,#616));
#367=CARTESIAN_POINT('',(-10.0,4.592274E-016,2.499999999999996));
#368=DIRECTION('',(1.0,0.0,2.220446E-016));
#369=DIRECTION('',(0.0,1.0,0.0));
#370=AXIS2_PLACEMENT_3D('',#367,#368,#369);
#371=CYLINDRICAL_SURFACE('',#370,2.5);
#372=CARTESIAN_POINT('',(-5.0,2.5,2.499999999999997));
#373=VERTEX_POINT('',#372);
#374=CARTESIAN_POINT('',(-9.5,2.5,2.499999999999996));
#375=VERTEX_POINT('',#374);
#376=CARTESIAN_POINT('',(-5.0,2.5,2.499999999999997));
#377=DIRECTION('',(-1.0,0.0,0.0));
#378=VECTOR('',#377,4.5);
#379=LINE('',#376,#378);
#380=EDGE_CURVE('',#373,#375,#379,.T.);
#381=ORIENTED_EDGE('',*,*,#380,.F.);
#382=CARTESIAN_POINT('',(-5.0,-2.5,2.499999999999997));
#383=VERTEX_POINT('',#382);
#384=CARTESIAN_POINT('',(-5.0,4.592274E-016,2.499999999999997));
#385=DIRECTION('',(-1.0,0.0,0.0));
#386=DIRECTION('',(0.0,1.0,0.0));
#387=AXIS2_PLACEMENT_3D('',#384,#385,#386);
#388=CIRCLE('',#387,2.5);
#389=EDGE_CURVE('',#373,#383,#388,.T.);
#390=ORIENTED_EDGE('',*,*,#389,.T.);
#391=CARTESIAN_POINT('',(-9.5,-2.5,2.499999999999996));
#392=VERTEX_POINT('',#391);
#393=CARTESIAN_POINT('',(-5.0,-2.5,2.499999999999997));
#394=DIRECTION('',(-1.0,0.0,0.0));
#395=VECTOR('',#394,4.5);
#396=LINE('',#393,#395);
#397=EDGE_CURVE('',#383,#392,#396,.T.);
#398=ORIENTED_EDGE('',*,*,#397,.T.);
#399=CARTESIAN_POINT('',(-9.5,4.592274E-016,-3.552714E-015));
#400=VERTEX_POINT('',#399);
#401=CARTESIAN_POINT('',(-9.5,4.592274E-016,2.499999999999996));
#402=DIRECTION('',(-1.0,0.0,0.0));
#403=DIRECTION('',(0.0,-1.0,0.0));
#404=AXIS2_PLACEMENT_3D('',#401,#402,#403);
#405=CIRCLE('',#404,2.5);
#406=EDGE_CURVE('',#400,#392,#405,.T.);
#407=ORIENTED_EDGE('',*,*,#406,.F.);
#408=CARTESIAN_POINT('',(-9.5,4.592274E-016,2.499999999999996));
#409=DIRECTION('',(-1.0,0.0,0.0));
#410=DIRECTION('',(0.0,-1.0,0.0));
#411=AXIS2_PLACEMENT_3D('',#408,#409,#410);
#412=CIRCLE('',#411,2.5);
#413=EDGE_CURVE('',#375,#400,#412,.T.);
#414=ORIENTED_EDGE('',*,*,#413,.F.);
#415=EDGE_LOOP('',(#381,#390,#398,#407,#414));
#416=FACE_OUTER_BOUND('',#415,.T.);
#417=ADVANCED_FACE('',(#416),#371,.T.);
#418=CARTESIAN_POINT('',(-9.5,4.592274E-016,2.499999999999996));
#419=DIRECTION('',(1.0,0.0,2.220446E-016));
#420=DIRECTION('',(0.0,0.0,-1.0));
#421=AXIS2_PLACEMENT_3D('',#418,#419,#420);
#422=TOROIDAL_SURFACE('',#421,2.0,0.5);
#423=CARTESIAN_POINT('',(-10.0,4.592274E-016,0.499999999999996));
#424=VERTEX_POINT('',#423);
#425=CARTESIAN_POINT('',(-9.5,4.592274E-016,0.499999999999996));
#426=DIRECTION('',(0.0,1.0,0.0));
#427=DIRECTION('',(0.0,0.0,-1.0));
#428=AXIS2_PLACEMENT_3D('',#425,#426,#427);
#429=CIRCLE('',#428,0.5);
#430=EDGE_CURVE('',#400,#424,#429,.T.);
#431=ORIENTED_EDGE('',*,*,#430,.F.);
#432=ORIENTED_EDGE('',*,*,#406,.T.);
#433=CARTESIAN_POINT('',(-9.5,1.530657E-016,4.999999999999996));
#434=VERTEX_POINT('',#433);
#435=CARTESIAN_POINT('',(-9.5,4.592274E-016,2.499999999999996));
#436=DIRECTION('',(-1.0,0.0,0.0));
#437=DIRECTION('',(0.0,-1.0,0.0));
#438=AXIS2_PLACEMENT_3D('',#435,#436,#437);
#439=CIRCLE('',#438,2.5);
#440=EDGE_CURVE('',#392,#434,#439,.T.);
#441=ORIENTED_EDGE('',*,*,#440,.T.);
#442=CARTESIAN_POINT('',(-10.0,2.142980E-016,4.499999999999996));
#443=VERTEX_POINT('',#442);
#444=CARTESIAN_POINT('',(-9.5,2.142980E-016,4.499999999999996));
#445=DIRECTION('',(0.0,-1.0,0.0));
#446=DIRECTION('',(0.0,0.0,1.0));
#447=AXIS2_PLACEMENT_3D('',#444,#445,#446);
#448=CIRCLE('',#447,0.5);
#449=EDGE_CURVE('',#434,#443,#448,.T.);
#450=ORIENTED_EDGE('',*,*,#449,.T.);
#451=CARTESIAN_POINT('',(-10.0,4.592274E-016,2.499999999999996));
#452=DIRECTION('',(1.0,0.0,0.0));
#453=DIRECTION('',(0.0,-1.0,0.0));
#454=AXIS2_PLACEMENT_3D('',#451,#452,#453);
#455=CIRCLE('',#454,2.0);
#456=EDGE_CURVE('',#443,#424,#455,.T.);
#457=ORIENTED_EDGE('',*,*,#456,.T.);
#458=EDGE_LOOP('',(#431,#432,#441,#450,#457));
#459=FACE_OUTER_BOUND('',#458,.T.);
#460=ADVANCED_FACE('',(#459),#422,.T.);
#461=CARTESIAN_POINT('',(-10.0,4.592274E-016,2.499999999999999));
#462=DIRECTION('',(1.0,0.0,2.220446E-016));
#463=DIRECTION('',(0.0,1.0,0.0));
#464=AXIS2_PLACEMENT_3D('',#461,#462,#463);
#465=CYLINDRICAL_SURFACE('',#464,2.1);
#466=CARTESIAN_POINT('',(-9.5,2.100000000000001,2.499999999999999));
#467=VERTEX_POINT('',#466);
#468=CARTESIAN_POINT('',(-5.0,2.100000000000001,2.5));
#469=VERTEX_POINT('',#468);
#470=CARTESIAN_POINT('',(-9.5,2.100000000000001,2.499999999999999));
#471=DIRECTION('',(1.0,0.0,0.0));
#472=VECTOR('',#471,4.5);
#473=LINE('',#470,#472);
#474=EDGE_CURVE('',#467,#469,#473,.T.);
#475=ORIENTED_EDGE('',*,*,#474,.F.);
#476=CARTESIAN_POINT('',(-9.5,-2.1,2.499999999999999));
#477=VERTEX_POINT('',#476);
#478=CARTESIAN_POINT('',(-9.5,4.592274E-016,2.499999999999999));
#479=DIRECTION('',(-1.0,0.0,0.0));
#480=DIRECTION('',(0.0,1.0,0.0));
#481=AXIS2_PLACEMENT_3D('',#478,#479,#480);
#482=CIRCLE('',#481,2.1);
#483=EDGE_CURVE('',#477,#467,#482,.F.);
#484=ORIENTED_EDGE('',*,*,#483,.F.);
#485=CARTESIAN_POINT('',(-5.0,-2.1,2.5));
#486=VERTEX_POINT('',#485);
#487=CARTESIAN_POINT('',(-9.5,-2.1,2.499999999999998));
#488=DIRECTION('',(1.0,0.0,0.0));
#489=VECTOR('',#488,4.5);
#490=LINE('',#487,#489);
#491=EDGE_CURVE('',#477,#486,#490,.T.);
#492=ORIENTED_EDGE('',*,*,#491,.T.);
#493=CARTESIAN_POINT('',(-5.0,4.592274E-016,2.5));
#494=DIRECTION('',(-1.0,0.0,0.0));
#495=DIRECTION('',(0.0,1.0,0.0));
#496=AXIS2_PLACEMENT_3D('',#493,#494,#495);
#497=CIRCLE('',#496,2.1);
#498=EDGE_CURVE('',#469,#486,#497,.T.);
#499=ORIENTED_EDGE('',*,*,#498,.F.);
#500=EDGE_LOOP('',(#475,#484,#492,#499));
#501=FACE_OUTER_BOUND('',#500,.T.);
#502=ADVANCED_FACE('',(#501),#465,.F.);
#503=CARTESIAN_POINT('',(-9.5,4.592274E-016,2.499999999999996));
#504=DIRECTION('',(1.0,0.0,0.0));
#505=DIRECTION('',(0.0,0.0,-1.0));
#506=AXIS2_PLACEMENT_3D('',#503,#504,#505);
#507=PLANE('',#506);
#508=ORIENTED_EDGE('',*,*,#483,.T.);
#509=CARTESIAN_POINT('',(-9.5,4.592274E-016,2.499999999999999));
#510=DIRECTION('',(-1.0,0.0,0.0));
#511=DIRECTION('',(0.0,1.0,0.0));
#512=AXIS2_PLACEMENT_3D('',#509,#510,#511);
#513=CIRCLE('',#512,2.1);
#514=EDGE_CURVE('',#467,#477,#513,.F.);
#515=ORIENTED_EDGE('',*,*,#514,.T.);
#516=EDGE_LOOP('',(#508,#515));
#517=FACE_OUTER_BOUND('',#516,.T.);
#518=ADVANCED_FACE('',(#517),#507,.T.);
#519=CARTESIAN_POINT('',(-10.0,4.592274E-016,2.499999999999999));
#520=DIRECTION('',(1.0,0.0,2.220446E-016));
#521=DIRECTION('',(0.0,1.0,0.0));
#522=AXIS2_PLACEMENT_3D('',#519,#520,#521);
#523=CYLINDRICAL_SURFACE('',#522,2.1);
#524=ORIENTED_EDGE('',*,*,#474,.T.);
#525=CARTESIAN_POINT('',(-5.0,4.592274E-016,2.5));
#526=DIRECTION('',(-1.0,0.0,0.0));
#527=DIRECTION('',(0.0,1.0,0.0));
#528=AXIS2_PLACEMENT_3D('',#525,#526,#527);
#529=CIRCLE('',#528,2.1);
#530=EDGE_CURVE('',#486,#469,#529,.T.);
#531=ORIENTED_EDGE('',*,*,#530,.F.);
#532=ORIENTED_EDGE('',*,*,#491,.F.);
#533=ORIENTED_EDGE('',*,*,#514,.F.);
#534=EDGE_LOOP('',(#524,#531,#532,#533));
#535=FACE_OUTER_BOUND('',#534,.T.);
#536=ADVANCED_FACE('',(#535),#523,.F.);
#537=CARTESIAN_POINT('',(-9.5,4.592274E-016,2.499999999999996));
#538=DIRECTION('',(1.0,0.0,2.220446E-016));
#539=DIRECTION('',(0.0,0.0,-1.0));
#540=AXIS2_PLACEMENT_3D('',#537,#538,#539);
#541=TOROIDAL_SURFACE('',#540,2.0,0.5);
#542=ORIENTED_EDGE('',*,*,#430,.T.);
#543=CARTESIAN_POINT('',(-10.0,2.0,2.499999999999996));
#544=VERTEX_POINT('',#543);
#545=CARTESIAN_POINT('',(-10.0,4.592274E-016,2.499999999999996));
#546=DIRECTION('',(1.0,0.0,0.0));
#547=DIRECTION('',(0.0,-1.0,0.0));
#548=AXIS2_PLACEMENT_3D('',#545,#546,#547);
#549=CIRCLE('',#548,2.0);
#550=EDGE_CURVE('',#424,#544,#549,.T.);
#551=ORIENTED_EDGE('',*,*,#550,.T.);
#552=CARTESIAN_POINT('',(-10.0,4.592274E-016,2.499999999999996));
#553=DIRECTION('',(1.0,0.0,0.0));
#554=DIRECTION('',(0.0,-1.0,0.0));
#555=AXIS2_PLACEMENT_3D('',#552,#553,#554);
#556=CIRCLE('',#555,2.0);
#557=EDGE_CURVE('',#544,#443,#556,.T.);
#558=ORIENTED_EDGE('',*,*,#557,.T.);
#559=ORIENTED_EDGE('',*,*,#449,.F.);
#560=CARTESIAN_POINT('',(-9.5,4.592274E-016,2.499999999999996));
#561=DIRECTION('',(-1.0,0.0,0.0));
#562=DIRECTION('',(0.0,-1.0,0.0));
#563=AXIS2_PLACEMENT_3D('',#560,#561,#562);
#564=CIRCLE('',#563,2.5);
#565=EDGE_CURVE('',#434,#375,#564,.T.);
#566=ORIENTED_EDGE('',*,*,#565,.T.);
#567=ORIENTED_EDGE('',*,*,#413,.T.);
#568=EDGE_LOOP('',(#542,#551,#558,#559,#566,#567));
#569=FACE_OUTER_BOUND('',#568,.T.);
#570=ADVANCED_FACE('',(#569),#541,.T.);
#571=CARTESIAN_POINT('',(-10.0,4.592274E-016,2.499999999999996));
#572=DIRECTION('',(1.0,0.0,2.220446E-016));
#573=DIRECTION('',(0.0,1.0,0.0));
#574=AXIS2_PLACEMENT_3D('',#571,#572,#573);
#575=CYLINDRICAL_SURFACE('',#574,2.5);
#576=ORIENTED_EDGE('',*,*,#380,.T.);
#577=ORIENTED_EDGE('',*,*,#565,.F.);
#578=ORIENTED_EDGE('',*,*,#440,.F.);
#579=ORIENTED_EDGE('',*,*,#397,.F.);
#580=CARTESIAN_POINT('',(-5.0,4.592274E-016,2.499999999999997));
#581=DIRECTION('',(-1.0,0.0,0.0));
#582=DIRECTION('',(0.0,1.0,0.0));
#583=AXIS2_PLACEMENT_3D('',#580,#581,#582);
#584=CIRCLE('',#583,2.5);
#585=EDGE_CURVE('',#383,#373,#584,.T.);
#586=ORIENTED_EDGE('',*,*,#585,.T.);
#587=EDGE_LOOP('',(#576,#577,#578,#579,#586));
#588=FACE_OUTER_BOUND('',#587,.T.);
#589=ADVANCED_FACE('',(#588),#575,.T.);
#590=CARTESIAN_POINT('',(-10.0,4.592274E-016,2.499999999999996));
#591=DIRECTION('',(1.0,0.0,0.0));
#592=DIRECTION('',(0.0,0.0,-1.0));
#593=AXIS2_PLACEMENT_3D('',#590,#591,#592);
#594=PLANE('',#593);
#595=ORIENTED_EDGE('',*,*,#557,.F.);
#596=ORIENTED_EDGE('',*,*,#550,.F.);
#597=ORIENTED_EDGE('',*,*,#456,.F.);
#598=EDGE_LOOP('',(#595,#596,#597));
#599=FACE_OUTER_BOUND('',#598,.T.);
#600=ADVANCED_FACE('',(#599),#594,.F.);
#601=CARTESIAN_POINT('',(-5.0,4.592274E-016,2.499999999999997));
#602=DIRECTION('',(1.0,0.0,0.0));
#603=DIRECTION('',(0.0,0.0,-1.0));
#604=AXIS2_PLACEMENT_3D('',#601,#602,#603);
#605=PLANE('',#604);
#606=ORIENTED_EDGE('',*,*,#389,.F.);
#607=ORIENTED_EDGE('',*,*,#585,.F.);
#608=EDGE_LOOP('',(#606,#607));
#609=FACE_OUTER_BOUND('',#608,.T.);
#610=ORIENTED_EDGE('',*,*,#530,.T.);
#611=ORIENTED_EDGE('',*,*,#498,.T.);
#612=EDGE_LOOP('',(#610,#611));
#613=FACE_BOUND('',#612,.T.);
#614=ADVANCED_FACE('',(#609,#613),#605,.T.);
#615=CLOSED_SHELL('',(#417,#460,#502,#518,#536,#570,#589,#600,#614));
#616=MANIFOLD_SOLID_BREP('88B',#615);
#617=STYLED_ITEM('NONE',(#363),#616);
#618=ADVANCED_BREP_SHAPE_REPRESENTATION('ABSR1',(#356,#616),#28);
#619=SHAPE_REPRESENTATION_RELATIONSHIP('SRRPL1','',#618,#62);
ENDSEC;
END-ISO-10303-21;
