ISO-10303-21;
HEADER;
/****************************************************************
 * Generated by software with PDElib inside                    *
 * PDElib Version v51a, created Fri 09/10/2010                  *
 * ITI Transcendata (http://www.transcendata.com/)              *
 ****************************************************************/
FILE_DESCRIPTION((''),'2;1');
FILE_NAME('FUSE_SCHURTER_MSF250.stp','2012-09-12T13:31:40',(''),(''),'Mechanical Desktop 2011','Mechanical Desktop 2011',', , ');
FILE_SCHEMA(('AUTOMOTIVE_DESIGN { 1 2 10303 214 1 1 1 1 }'));
ENDSEC;
DATA;
#10=(NAMED_UNIT(*)PLANE_ANGLE_UNIT()SI_UNIT($,.RADIAN.));
#11=DIMENSIONAL_EXPONENTS(0.0,0.0,0.0,0.0,0.0,0.0,0.0);
#12=PLANE_ANGLE_MEASURE_WITH_UNIT(PLANE_ANGLE_MEASURE(0.0174532925),#10);
#16=(CONVERSION_BASED_UNIT('DEGREE',#12)NAMED_UNIT(#11)PLANE_ANGLE_UNIT());
#20=(NAMED_UNIT(*)SI_UNIT($,.STERADIAN.)SOLID_ANGLE_UNIT());
#24=(LENGTH_UNIT()NAMED_UNIT(*)SI_UNIT(.MILLI.,.METRE.));
#26=UNCERTAINTY_MEASURE_WITH_UNIT(LENGTH_MEASURE(0.000001),#24,'DISTANCE_ACCURACY_VALUE','');
#28=(GEOMETRIC_REPRESENTATION_CONTEXT(3)GLOBAL_UNCERTAINTY_ASSIGNED_CONTEXT((#26))GLOBAL_UNIT_ASSIGNED_CONTEXT((#16,#20,#24))REPRESENTATION_CONTEXT('','3D'));
#29=APPLICATION_CONTEXT('automotive design');
#30=APPLICATION_PROTOCOL_DEFINITION('INTERNATIONAL_STANDARD','automotive_design',1998,#29);
#31=PRODUCT_CONTEXT('3D Mechanical Parts',#29,'mechanical');
#32=PRODUCT('Product','Product','',(#31));
#33=PRODUCT_RELATED_PRODUCT_CATEGORY('part',$,(#32));
#34=PRODUCT_CATEGORY('part',$);
#35=PERSON('1','Design','Joe',$,$,$);
#36=ORGANIZATION($,'None','None');
#37=PERSON_AND_ORGANIZATION(#35,#36);
#38=PERSON_AND_ORGANIZATION_ROLE('design_owner');
#39=APPLIED_PERSON_AND_ORGANIZATION_ASSIGNMENT(#37,#38,(#32));
#40=PRODUCT_DEFINITION_FORMATION_WITH_SPECIFIED_SOURCE('None','',#32,.BOUGHT.);
#41=PERSON('2','Creator','Joe',$,$,$);
#42=ORGANIZATION($,'None','None');
#43=PERSON_AND_ORGANIZATION(#41,#42);
#44=PERSON_AND_ORGANIZATION_ROLE('creator');
#45=APPLIED_PERSON_AND_ORGANIZATION_ASSIGNMENT(#43,#44,(#40));
#46=PERSON('3','Supplier','Joe',$,$,$);
#47=ORGANIZATION($,'None','None');
#48=PERSON_AND_ORGANIZATION(#46,#47);
#49=PERSON_AND_ORGANIZATION_ROLE('design_supplier');
#50=APPLIED_PERSON_AND_ORGANIZATION_ASSIGNMENT(#48,#49,(#40));
#51=PRODUCT_DEFINITION_CONTEXT('part definition',#29,'design');
#52=PRODUCT_DEFINITION('None','',#40,#51);
#53=PERSON('4','Creator','Joe',$,$,$);
#54=ORGANIZATION($,'None','None');
#55=PERSON_AND_ORGANIZATION(#53,#54);
#56=PERSON_AND_ORGANIZATION_ROLE('creator');
#57=APPLIED_PERSON_AND_ORGANIZATION_ASSIGNMENT(#55,#56,(#52));
#58=CARTESIAN_POINT('NONE',(0.0,0.0,0.0));
#59=DIRECTION('NONE',(0.0,0.0,1.0));
#60=DIRECTION('NONE',(1.0,0.0,0.0));
#61=AXIS2_PLACEMENT_3D('NONE',#58,#59,#60);
#62=SHAPE_REPRESENTATION('SR1',(#61),#28);
#63=PRODUCT_DEFINITION_SHAPE('PDS1','Test Part',#52);
#64=SHAPE_DEFINITION_REPRESENTATION(#63,#62);
#65=CARTESIAN_POINT('',(-1.262730E-016,-1.262730E-016,5.200000000000001));
#66=DIRECTION('',(0.0,0.0,1.0));
#67=DIRECTION('',(1.0,0.0,0.0));
#68=AXIS2_PLACEMENT_3D('',#65,#66,#67);
#69=CYLINDRICAL_SURFACE('',#68,4.0);
#70=CARTESIAN_POINT('',(4.0,-1.262730E-016,5.850000000000001));
#71=VERTEX_POINT('',#70);
#72=CARTESIAN_POINT('',(4.0,-1.262730E-016,5.200000000000001));
#73=VERTEX_POINT('',#72);
#74=CARTESIAN_POINT('',(4.0,-1.262730E-016,5.850000000000001));
#75=DIRECTION('',(0.0,0.0,-1.0));
#76=VECTOR('',#75,0.65);
#77=LINE('',#74,#76);
#78=EDGE_CURVE('',#71,#73,#77,.T.);
#79=ORIENTED_EDGE('',*,*,#78,.F.);
#80=CARTESIAN_POINT('',(-4.0,-6.161317E-016,5.850000000000001));
#81=VERTEX_POINT('',#80);
#82=CARTESIAN_POINT('',(-1.262730E-016,-1.262730E-016,5.850000000000001));
#83=DIRECTION('',(0.0,0.0,-1.0));
#84=DIRECTION('',(1.0,0.0,0.0));
#85=AXIS2_PLACEMENT_3D('',#82,#83,#84);
#86=CIRCLE('',#85,4.0);
#87=EDGE_CURVE('',#71,#81,#86,.T.);
#88=ORIENTED_EDGE('',*,*,#87,.T.);
#89=CARTESIAN_POINT('',(-4.0,-6.161317E-016,5.200000000000001));
#90=VERTEX_POINT('',#89);
#91=CARTESIAN_POINT('',(-4.0,-6.161317E-016,5.850000000000001));
#92=DIRECTION('',(0.0,0.0,-1.0));
#93=VECTOR('',#92,0.65);
#94=LINE('',#91,#93);
#95=EDGE_CURVE('',#81,#90,#94,.T.);
#96=ORIENTED_EDGE('',*,*,#95,.T.);
#97=CARTESIAN_POINT('',(-1.262730E-016,-1.262730E-016,5.200000000000001));
#98=DIRECTION('',(0.0,0.0,1.0));
#99=DIRECTION('',(1.0,0.0,0.0));
#100=AXIS2_PLACEMENT_3D('',#97,#98,#99);
#101=CIRCLE('',#100,4.0);
#102=EDGE_CURVE('',#90,#73,#101,.T.);
#103=ORIENTED_EDGE('',*,*,#102,.T.);
#104=EDGE_LOOP('',(#79,#88,#96,#103));
#105=FACE_OUTER_BOUND('',#104,.T.);
#106=ADVANCED_FACE('',(#105),#69,.T.);
#107=CARTESIAN_POINT('',(-1.262730E-016,-1.262730E-016,5.200000000000001));
#108=DIRECTION('',(0.0,0.0,1.0));
#109=DIRECTION('',(1.0,0.0,0.0));
#110=AXIS2_PLACEMENT_3D('',#107,#108,#109);
#111=CYLINDRICAL_SURFACE('',#110,4.0);
#112=ORIENTED_EDGE('',*,*,#78,.T.);
#113=CARTESIAN_POINT('',(-1.262730E-016,-1.262730E-016,5.200000000000001));
#114=DIRECTION('',(0.0,0.0,1.0));
#115=DIRECTION('',(1.0,0.0,0.0));
#116=AXIS2_PLACEMENT_3D('',#113,#114,#115);
#117=CIRCLE('',#116,4.0);
#118=EDGE_CURVE('',#73,#90,#117,.T.);
#119=ORIENTED_EDGE('',*,*,#118,.T.);
#120=ORIENTED_EDGE('',*,*,#95,.F.);
#121=CARTESIAN_POINT('',(-1.262730E-016,-1.262730E-016,5.850000000000001));
#122=DIRECTION('',(0.0,0.0,-1.0));
#123=DIRECTION('',(1.0,0.0,0.0));
#124=AXIS2_PLACEMENT_3D('',#121,#122,#123);
#125=CIRCLE('',#124,4.0);
#126=EDGE_CURVE('',#81,#71,#125,.T.);
#127=ORIENTED_EDGE('',*,*,#126,.T.);
#128=EDGE_LOOP('',(#112,#119,#120,#127));
#129=FACE_OUTER_BOUND('',#128,.T.);
#130=ADVANCED_FACE('',(#129),#111,.T.);
#131=CARTESIAN_POINT('',(-1.262730E-016,-1.262730E-016,5.200000000000001));
#132=DIRECTION('',(0.0,0.0,1.0));
#133=DIRECTION('',(1.0,0.0,0.0));
#134=AXIS2_PLACEMENT_3D('',#131,#132,#133);
#135=PLANE('',#134);
#136=ORIENTED_EDGE('',*,*,#118,.F.);
#137=ORIENTED_EDGE('',*,*,#102,.F.);
#138=EDGE_LOOP('',(#136,#137));
#139=FACE_OUTER_BOUND('',#138,.T.);
#140=ADVANCED_FACE('',(#139),#135,.F.);
#141=CARTESIAN_POINT('',(-1.262730E-016,-1.262730E-016,5.850000000000001));
#142=DIRECTION('',(0.0,0.0,1.0));
#143=DIRECTION('',(1.0,0.0,0.0));
#144=AXIS2_PLACEMENT_3D('',#141,#142,#143);
#145=PLANE('',#144);
#146=ORIENTED_EDGE('',*,*,#87,.F.);
#147=ORIENTED_EDGE('',*,*,#126,.F.);
#148=EDGE_LOOP('',(#146,#147));
#149=FACE_OUTER_BOUND('',#148,.T.);
#150=ADVANCED_FACE('',(#149),#145,.T.);
#151=CLOSED_SHELL('',(#106,#130,#140,#150));
#152=MANIFOLD_SOLID_BREP('1B99',#151);
#153=COLOUR_RGB('250',0.33,0.33,0.33);
#154=SURFACE_STYLE_USAGE(.BOTH.,#155);
#155=SURFACE_SIDE_STYLE('NONE',(#156));
#156=SURFACE_STYLE_FILL_AREA(#157);
#157=FILL_AREA_STYLE('NONE',(#158));
#158=FILL_AREA_STYLE_COLOUR('NONE',#153);
#159=PRESENTATION_STYLE_ASSIGNMENT((#154));
#160=STYLED_ITEM('NONE',(#159),#152);
#161=MECHANICAL_DESIGN_GEOMETRIC_PRESENTATION_REPRESENTATION('NONE',(#160,#258,#347,#502,#643),#28);
#162=PRESENTATION_LAYER_ASSIGNMENT('3D','None',(#152,#250,#346,#501,#642));
#163=CARTESIAN_POINT('',(-2.54,-8.326673E-016,0.900000000000002));
#164=DIRECTION('',(0.0,0.0,1.0));
#165=DIRECTION('',(1.0,0.0,0.0));
#166=AXIS2_PLACEMENT_3D('',#163,#164,#165);
#167=CYLINDRICAL_SURFACE('',#166,0.32);
#168=CARTESIAN_POINT('',(-2.22,-8.326673E-016,5.200000000000001));
#169=VERTEX_POINT('',#168);
#170=CARTESIAN_POINT('',(-2.22,-8.326673E-016,0.900000000000002));
#171=VERTEX_POINT('',#170);
#172=CARTESIAN_POINT('',(-2.22,-8.326673E-016,5.200000000000001));
#173=DIRECTION('',(0.0,0.0,-1.0));
#174=VECTOR('',#173,4.299999999999999);
#175=LINE('',#172,#174);
#176=EDGE_CURVE('',#169,#171,#175,.T.);
#177=ORIENTED_EDGE('',*,*,#176,.F.);
#178=CARTESIAN_POINT('',(-2.859999999999999,-8.718560E-016,5.200000000000001));
#179=VERTEX_POINT('',#178);
#180=CARTESIAN_POINT('',(-2.54,-8.326673E-016,5.200000000000001));
#181=DIRECTION('',(0.0,0.0,-1.0));
#182=DIRECTION('',(1.0,0.0,0.0));
#183=AXIS2_PLACEMENT_3D('',#180,#181,#182);
#184=CIRCLE('',#183,0.32);
#185=EDGE_CURVE('',#169,#179,#184,.T.);
#186=ORIENTED_EDGE('',*,*,#185,.T.);
#187=CARTESIAN_POINT('',(-2.859999999999999,-8.718560E-016,0.900000000000002));
#188=VERTEX_POINT('',#187);
#189=CARTESIAN_POINT('',(-2.859999999999999,-8.718560E-016,5.200000000000001));
#190=DIRECTION('',(0.0,0.0,-1.0));
#191=VECTOR('',#190,4.299999999999999);
#192=LINE('',#189,#191);
#193=EDGE_CURVE('',#179,#188,#192,.T.);
#194=ORIENTED_EDGE('',*,*,#193,.T.);
#195=CARTESIAN_POINT('',(-2.54,-8.326673E-016,0.900000000000002));
#196=DIRECTION('',(0.0,0.0,1.0));
#197=DIRECTION('',(1.0,0.0,0.0));
#198=AXIS2_PLACEMENT_3D('',#195,#196,#197);
#199=CIRCLE('',#198,0.32);
#200=EDGE_CURVE('',#188,#171,#199,.T.);
#201=ORIENTED_EDGE('',*,*,#200,.T.);
#202=EDGE_LOOP('',(#177,#186,#194,#201));
#203=FACE_OUTER_BOUND('',#202,.T.);
#204=ADVANCED_FACE('',(#203),#167,.T.);
#205=CARTESIAN_POINT('',(-2.54,-8.326673E-016,0.900000000000002));
#206=DIRECTION('',(0.0,0.0,1.0));
#207=DIRECTION('',(1.0,0.0,0.0));
#208=AXIS2_PLACEMENT_3D('',#205,#206,#207);
#209=CYLINDRICAL_SURFACE('',#208,0.32);
#210=ORIENTED_EDGE('',*,*,#176,.T.);
#211=CARTESIAN_POINT('',(-2.54,-8.326673E-016,0.900000000000002));
#212=DIRECTION('',(0.0,0.0,1.0));
#213=DIRECTION('',(1.0,0.0,0.0));
#214=AXIS2_PLACEMENT_3D('',#211,#212,#213);
#215=CIRCLE('',#214,0.32);
#216=EDGE_CURVE('',#171,#188,#215,.T.);
#217=ORIENTED_EDGE('',*,*,#216,.T.);
#218=ORIENTED_EDGE('',*,*,#193,.F.);
#219=CARTESIAN_POINT('',(-2.54,-8.326673E-016,5.200000000000001));
#220=DIRECTION('',(0.0,0.0,-1.0));
#221=DIRECTION('',(1.0,0.0,0.0));
#222=AXIS2_PLACEMENT_3D('',#219,#220,#221);
#223=CIRCLE('',#222,0.32);
#224=EDGE_CURVE('',#179,#169,#223,.T.);
#225=ORIENTED_EDGE('',*,*,#224,.T.);
#226=EDGE_LOOP('',(#210,#217,#218,#225));
#227=FACE_OUTER_BOUND('',#226,.T.);
#228=ADVANCED_FACE('',(#227),#209,.T.);
#229=CARTESIAN_POINT('',(-2.54,-8.326673E-016,0.900000000000002));
#230=DIRECTION('',(0.0,0.0,1.0));
#231=DIRECTION('',(1.0,0.0,0.0));
#232=AXIS2_PLACEMENT_3D('',#229,#230,#231);
#233=PLANE('',#232);
#234=ORIENTED_EDGE('',*,*,#216,.F.);
#235=ORIENTED_EDGE('',*,*,#200,.F.);
#236=EDGE_LOOP('',(#234,#235));
#237=FACE_OUTER_BOUND('',#236,.T.);
#238=ADVANCED_FACE('',(#237),#233,.F.);
#239=CARTESIAN_POINT('',(-2.54,-8.326673E-016,5.200000000000001));
#240=DIRECTION('',(0.0,0.0,1.0));
#241=DIRECTION('',(1.0,0.0,0.0));
#242=AXIS2_PLACEMENT_3D('',#239,#240,#241);
#243=PLANE('',#242);
#244=ORIENTED_EDGE('',*,*,#185,.F.);
#245=ORIENTED_EDGE('',*,*,#224,.F.);
#246=EDGE_LOOP('',(#244,#245));
#247=FACE_OUTER_BOUND('',#246,.T.);
#248=ADVANCED_FACE('',(#247),#243,.T.);
#249=CLOSED_SHELL('',(#204,#228,#238,#248));
#250=MANIFOLD_SOLID_BREP('1B95',#249);
#251=COLOUR_RGB('254',0.866,0.866,0.866);
#252=SURFACE_STYLE_USAGE(.BOTH.,#253);
#253=SURFACE_SIDE_STYLE('NONE',(#254));
#254=SURFACE_STYLE_FILL_AREA(#255);
#255=FILL_AREA_STYLE('NONE',(#256));
#256=FILL_AREA_STYLE_COLOUR('NONE',#251);
#257=PRESENTATION_STYLE_ASSIGNMENT((#252));
#258=STYLED_ITEM('NONE',(#257),#250);
#259=CARTESIAN_POINT('',(2.54,2.775558E-016,0.900000000000002));
#260=DIRECTION('',(0.0,0.0,1.0));
#261=DIRECTION('',(1.0,0.0,0.0));
#262=AXIS2_PLACEMENT_3D('',#259,#260,#261);
#263=CYLINDRICAL_SURFACE('',#262,0.32);
#264=CARTESIAN_POINT('',(2.86,2.775558E-016,5.200000000000001));
#265=VERTEX_POINT('',#264);
#266=CARTESIAN_POINT('',(2.86,2.775558E-016,0.900000000000002));
#267=VERTEX_POINT('',#266);
#268=CARTESIAN_POINT('',(2.86,2.775558E-016,5.200000000000001));
#269=DIRECTION('',(0.0,0.0,-1.0));
#270=VECTOR('',#269,4.299999999999999);
#271=LINE('',#268,#270);
#272=EDGE_CURVE('',#265,#267,#271,.T.);
#273=ORIENTED_EDGE('',*,*,#272,.F.);
#274=CARTESIAN_POINT('',(2.22,2.383671E-016,5.200000000000001));
#275=VERTEX_POINT('',#274);
#276=CARTESIAN_POINT('',(2.54,2.775558E-016,5.200000000000001));
#277=DIRECTION('',(0.0,0.0,-1.0));
#278=DIRECTION('',(1.0,0.0,0.0));
#279=AXIS2_PLACEMENT_3D('',#276,#277,#278);
#280=CIRCLE('',#279,0.32);
#281=EDGE_CURVE('',#265,#275,#280,.T.);
#282=ORIENTED_EDGE('',*,*,#281,.T.);
#283=CARTESIAN_POINT('',(2.22,2.383671E-016,0.900000000000002));
#284=VERTEX_POINT('',#283);
#285=CARTESIAN_POINT('',(2.22,2.383671E-016,5.200000000000001));
#286=DIRECTION('',(0.0,0.0,-1.0));
#287=VECTOR('',#286,4.299999999999999);
#288=LINE('',#285,#287);
#289=EDGE_CURVE('',#275,#284,#288,.T.);
#290=ORIENTED_EDGE('',*,*,#289,.T.);
#291=CARTESIAN_POINT('',(2.54,2.775558E-016,0.900000000000002));
#292=DIRECTION('',(0.0,0.0,1.0));
#293=DIRECTION('',(1.0,0.0,0.0));
#294=AXIS2_PLACEMENT_3D('',#291,#292,#293);
#295=CIRCLE('',#294,0.32);
#296=EDGE_CURVE('',#284,#267,#295,.T.);
#297=ORIENTED_EDGE('',*,*,#296,.T.);
#298=EDGE_LOOP('',(#273,#282,#290,#297));
#299=FACE_OUTER_BOUND('',#298,.T.);
#300=ADVANCED_FACE('',(#299),#263,.T.);
#301=CARTESIAN_POINT('',(2.54,2.775558E-016,0.900000000000002));
#302=DIRECTION('',(0.0,0.0,1.0));
#303=DIRECTION('',(1.0,0.0,0.0));
#304=AXIS2_PLACEMENT_3D('',#301,#302,#303);
#305=CYLINDRICAL_SURFACE('',#304,0.32);
#306=ORIENTED_EDGE('',*,*,#272,.T.);
#307=CARTESIAN_POINT('',(2.54,2.775558E-016,0.900000000000002));
#308=DIRECTION('',(0.0,0.0,1.0));
#309=DIRECTION('',(1.0,0.0,0.0));
#310=AXIS2_PLACEMENT_3D('',#307,#308,#309);
#311=CIRCLE('',#310,0.32);
#312=EDGE_CURVE('',#267,#284,#311,.T.);
#313=ORIENTED_EDGE('',*,*,#312,.T.);
#314=ORIENTED_EDGE('',*,*,#289,.F.);
#315=CARTESIAN_POINT('',(2.54,2.775558E-016,5.200000000000001));
#316=DIRECTION('',(0.0,0.0,-1.0));
#317=DIRECTION('',(1.0,0.0,0.0));
#318=AXIS2_PLACEMENT_3D('',#315,#316,#317);
#319=CIRCLE('',#318,0.32);
#320=EDGE_CURVE('',#275,#265,#319,.T.);
#321=ORIENTED_EDGE('',*,*,#320,.T.);
#322=EDGE_LOOP('',(#306,#313,#314,#321));
#323=FACE_OUTER_BOUND('',#322,.T.);
#324=ADVANCED_FACE('',(#323),#305,.T.);
#325=CARTESIAN_POINT('',(2.54,2.775558E-016,0.900000000000002));
#326=DIRECTION('',(0.0,0.0,1.0));
#327=DIRECTION('',(1.0,0.0,0.0));
#328=AXIS2_PLACEMENT_3D('',#325,#326,#327);
#329=PLANE('',#328);
#330=ORIENTED_EDGE('',*,*,#312,.F.);
#331=ORIENTED_EDGE('',*,*,#296,.F.);
#332=EDGE_LOOP('',(#330,#331));
#333=FACE_OUTER_BOUND('',#332,.T.);
#334=ADVANCED_FACE('',(#333),#329,.F.);
#335=CARTESIAN_POINT('',(2.54,2.775558E-016,5.200000000000001));
#336=DIRECTION('',(0.0,0.0,1.0));
#337=DIRECTION('',(1.0,0.0,0.0));
#338=AXIS2_PLACEMENT_3D('',#335,#336,#337);
#339=PLANE('',#338);
#340=ORIENTED_EDGE('',*,*,#281,.F.);
#341=ORIENTED_EDGE('',*,*,#320,.F.);
#342=EDGE_LOOP('',(#340,#341));
#343=FACE_OUTER_BOUND('',#342,.T.);
#344=ADVANCED_FACE('',(#343),#339,.T.);
#345=CLOSED_SHELL('',(#300,#324,#334,#344));
#346=MANIFOLD_SOLID_BREP('1B91',#345);
#347=STYLED_ITEM('NONE',(#257),#346);
#348=CARTESIAN_POINT('',(1.599999999999999,1.9,4.400000000000001));
#349=DIRECTION('',(1.0,0.0,0.0));
#350=DIRECTION('',(0.0,0.0,-1.0));
#351=AXIS2_PLACEMENT_3D('',#348,#349,#350);
#352=PLANE('',#351);
#353=CARTESIAN_POINT('',(1.599999999999999,1.9,5.200000000000002));
#354=VERTEX_POINT('',#353);
#355=CARTESIAN_POINT('',(1.600000000000001,-1.899999999999999,5.200000000000002));
#356=VERTEX_POINT('',#355);
#357=CARTESIAN_POINT('',(1.599999999999999,1.9,5.200000000000002));
#358=DIRECTION('',(0.0,-1.0,0.0));
#359=VECTOR('',#358,3.799999999999999);
#360=LINE('',#357,#359);
#361=EDGE_CURVE('',#354,#356,#360,.T.);
#362=ORIENTED_EDGE('',*,*,#361,.T.);
#363=CARTESIAN_POINT('',(1.600000000000001,-1.899999999999999,4.400000000000001));
#364=VERTEX_POINT('',#363);
#365=CARTESIAN_POINT('',(1.600000000000001,-1.899999999999999,4.400000000000001));
#366=DIRECTION('',(0.0,0.0,1.0));
#367=VECTOR('',#366,0.8);
#368=LINE('',#365,#367);
#369=EDGE_CURVE('',#364,#356,#368,.T.);
#370=ORIENTED_EDGE('',*,*,#369,.F.);
#371=CARTESIAN_POINT('',(1.599999999999999,1.9,4.400000000000001));
#372=VERTEX_POINT('',#371);
#373=CARTESIAN_POINT('',(1.600000000000001,-1.899999999999999,4.400000000000001));
#374=DIRECTION('',(0.0,1.0,0.0));
#375=VECTOR('',#374,3.799999999999999);
#376=LINE('',#373,#375);
#377=EDGE_CURVE('',#364,#372,#376,.T.);
#378=ORIENTED_EDGE('',*,*,#377,.T.);
#379=CARTESIAN_POINT('',(1.599999999999999,1.9,4.400000000000001));
#380=DIRECTION('',(0.0,0.0,1.0));
#381=VECTOR('',#380,0.8);
#382=LINE('',#379,#381);
#383=EDGE_CURVE('',#372,#354,#382,.T.);
#384=ORIENTED_EDGE('',*,*,#383,.T.);
#385=EDGE_LOOP('',(#362,#370,#378,#384));
#386=FACE_OUTER_BOUND('',#385,.T.);
#387=ADVANCED_FACE('',(#386),#352,.T.);
#388=CARTESIAN_POINT('',(6.661338E-016,-1.9,4.400000000000001));
#389=DIRECTION('',(0.0,0.0,1.0));
#390=DIRECTION('',(0.0,-1.0,0.0));
#391=AXIS2_PLACEMENT_3D('',#388,#389,#390);
#392=CYLINDRICAL_SURFACE('',#391,1.6);
#393=CARTESIAN_POINT('',(-1.6,-1.900000000000001,5.200000000000002));
#394=VERTEX_POINT('',#393);
#395=CARTESIAN_POINT('',(6.661338E-016,-1.9,5.200000000000002));
#396=DIRECTION('',(0.0,0.0,-1.0));
#397=DIRECTION('',(0.0,-1.0,0.0));
#398=AXIS2_PLACEMENT_3D('',#395,#396,#397);
#399=CIRCLE('',#398,1.6);
#400=EDGE_CURVE('',#356,#394,#399,.T.);
#401=ORIENTED_EDGE('',*,*,#400,.T.);
#402=CARTESIAN_POINT('',(-1.6,-1.900000000000001,4.400000000000001));
#403=VERTEX_POINT('',#402);
#404=CARTESIAN_POINT('',(-1.6,-1.900000000000001,4.400000000000001));
#405=DIRECTION('',(0.0,0.0,1.0));
#406=VECTOR('',#405,0.8);
#407=LINE('',#404,#406);
#408=EDGE_CURVE('',#403,#394,#407,.T.);
#409=ORIENTED_EDGE('',*,*,#408,.F.);
#410=CARTESIAN_POINT('',(6.661338E-016,-1.9,4.400000000000001));
#411=DIRECTION('',(0.0,0.0,1.0));
#412=DIRECTION('',(0.0,-1.0,0.0));
#413=AXIS2_PLACEMENT_3D('',#410,#411,#412);
#414=CIRCLE('',#413,1.6);
#415=EDGE_CURVE('',#403,#364,#414,.T.);
#416=ORIENTED_EDGE('',*,*,#415,.T.);
#417=ORIENTED_EDGE('',*,*,#369,.T.);
#418=EDGE_LOOP('',(#401,#409,#416,#417));
#419=FACE_OUTER_BOUND('',#418,.T.);
#420=ADVANCED_FACE('',(#419),#392,.T.);
#421=CARTESIAN_POINT('',(-1.6,-1.900000000000001,4.400000000000001));
#422=DIRECTION('',(-1.0,0.0,0.0));
#423=DIRECTION('',(0.0,0.0,1.0));
#424=AXIS2_PLACEMENT_3D('',#421,#422,#423);
#425=PLANE('',#424);
#426=CARTESIAN_POINT('',(-1.600000000000001,1.9,5.200000000000002));
#427=VERTEX_POINT('',#426);
#428=CARTESIAN_POINT('',(-1.6,-1.900000000000001,5.200000000000002));
#429=DIRECTION('',(0.0,1.0,0.0));
#430=VECTOR('',#429,3.800000000000001);
#431=LINE('',#428,#430);
#432=EDGE_CURVE('',#394,#427,#431,.T.);
#433=ORIENTED_EDGE('',*,*,#432,.T.);
#434=CARTESIAN_POINT('',(-1.600000000000001,1.9,4.400000000000001));
#435=VERTEX_POINT('',#434);
#436=CARTESIAN_POINT('',(-1.600000000000001,1.9,4.400000000000001));
#437=DIRECTION('',(0.0,0.0,1.0));
#438=VECTOR('',#437,0.8);
#439=LINE('',#436,#438);
#440=EDGE_CURVE('',#435,#427,#439,.T.);
#441=ORIENTED_EDGE('',*,*,#440,.F.);
#442=CARTESIAN_POINT('',(-1.600000000000001,1.9,4.400000000000001));
#443=DIRECTION('',(0.0,-1.0,0.0));
#444=VECTOR('',#443,3.800000000000001);
#445=LINE('',#442,#444);
#446=EDGE_CURVE('',#435,#403,#445,.T.);
#447=ORIENTED_EDGE('',*,*,#446,.T.);
#448=ORIENTED_EDGE('',*,*,#408,.T.);
#449=EDGE_LOOP('',(#433,#441,#447,#448));
#450=FACE_OUTER_BOUND('',#449,.T.);
#451=ADVANCED_FACE('',(#450),#425,.T.);
#452=CARTESIAN_POINT('',(-6.661338E-016,1.9,4.400000000000001));
#453=DIRECTION('',(0.0,0.0,1.0));
#454=DIRECTION('',(0.0,1.0,0.0));
#455=AXIS2_PLACEMENT_3D('',#452,#453,#454);
#456=CYLINDRICAL_SURFACE('',#455,1.6);
#457=CARTESIAN_POINT('',(-6.661338E-016,1.9,5.200000000000002));
#458=DIRECTION('',(0.0,0.0,-1.0));
#459=DIRECTION('',(0.0,1.0,0.0));
#460=AXIS2_PLACEMENT_3D('',#457,#458,#459);
#461=CIRCLE('',#460,1.6);
#462=EDGE_CURVE('',#427,#354,#461,.T.);
#463=ORIENTED_EDGE('',*,*,#462,.T.);
#464=ORIENTED_EDGE('',*,*,#383,.F.);
#465=CARTESIAN_POINT('',(-6.661338E-016,1.9,4.400000000000001));
#466=DIRECTION('',(0.0,0.0,1.0));
#467=DIRECTION('',(0.0,1.0,0.0));
#468=AXIS2_PLACEMENT_3D('',#465,#466,#467);
#469=CIRCLE('',#468,1.6);
#470=EDGE_CURVE('',#372,#435,#469,.T.);
#471=ORIENTED_EDGE('',*,*,#470,.T.);
#472=ORIENTED_EDGE('',*,*,#440,.T.);
#473=EDGE_LOOP('',(#463,#464,#471,#472));
#474=FACE_OUTER_BOUND('',#473,.T.);
#475=ADVANCED_FACE('',(#474),#456,.T.);
#476=CARTESIAN_POINT('',(-1.665335E-016,-2.674497E-016,4.400000000000001));
#477=DIRECTION('',(0.0,0.0,1.0));
#478=DIRECTION('',(1.0,0.0,0.0));
#479=AXIS2_PLACEMENT_3D('',#476,#477,#478);
#480=PLANE('',#479);
#481=ORIENTED_EDGE('',*,*,#470,.F.);
#482=ORIENTED_EDGE('',*,*,#377,.F.);
#483=ORIENTED_EDGE('',*,*,#415,.F.);
#484=ORIENTED_EDGE('',*,*,#446,.F.);
#485=EDGE_LOOP('',(#481,#482,#483,#484));
#486=FACE_OUTER_BOUND('',#485,.T.);
#487=ADVANCED_FACE('',(#486),#480,.F.);
#488=CARTESIAN_POINT('',(-1.665335E-016,-1.959734E-016,5.200000000000002));
#489=DIRECTION('',(0.0,0.0,1.0));
#490=DIRECTION('',(1.0,0.0,0.0));
#491=AXIS2_PLACEMENT_3D('',#488,#489,#490);
#492=PLANE('',#491);
#493=ORIENTED_EDGE('',*,*,#361,.F.);
#494=ORIENTED_EDGE('',*,*,#462,.F.);
#495=ORIENTED_EDGE('',*,*,#432,.F.);
#496=ORIENTED_EDGE('',*,*,#400,.F.);
#497=EDGE_LOOP('',(#493,#494,#495,#496));
#498=FACE_OUTER_BOUND('',#497,.T.);
#499=ADVANCED_FACE('',(#498),#492,.T.);
#500=CLOSED_SHELL('',(#387,#420,#451,#475,#487,#499));
#501=MANIFOLD_SOLID_BREP('1B8D',#500);
#502=STYLED_ITEM('NONE',(#159),#501);
#503=CARTESIAN_POINT('',(8.837602E-033,8.837602E-033,5.850000000000001));
#504=DIRECTION('',(0.0,0.0,1.0));
#505=DIRECTION('',(1.0,0.0,0.0));
#506=AXIS2_PLACEMENT_3D('',#503,#504,#505);
#507=CYLINDRICAL_SURFACE('',#506,4.25);
#508=CARTESIAN_POINT('',(4.25,1.040950E-015,12.550000000000001));
#509=VERTEX_POINT('',#508);
#510=CARTESIAN_POINT('',(4.25,8.837602E-033,5.850000000000001));
#511=VERTEX_POINT('',#510);
#512=CARTESIAN_POINT('',(4.25,8.837602E-033,12.550000000000001));
#513=DIRECTION('',(0.0,0.0,-1.0));
#514=VECTOR('',#513,6.699999999999999);
#515=LINE('',#512,#514);
#516=EDGE_CURVE('',#509,#511,#515,.T.);
#517=ORIENTED_EDGE('',*,*,#516,.F.);
#518=CARTESIAN_POINT('',(-4.25,8.837602E-033,12.550000000000001));
#519=VERTEX_POINT('',#518);
#520=CARTESIAN_POINT('',(8.837602E-033,8.837602E-033,12.550000000000001));
#521=DIRECTION('',(0.0,0.0,1.0));
#522=DIRECTION('',(-1.0,0.0,0.0));
#523=AXIS2_PLACEMENT_3D('',#520,#521,#522);
#524=CIRCLE('',#523,4.25);
#525=EDGE_CURVE('',#519,#509,#524,.T.);
#526=ORIENTED_EDGE('',*,*,#525,.F.);
#527=CARTESIAN_POINT('',(-4.25,-5.204749E-016,5.850000000000001));
#528=VERTEX_POINT('',#527);
#529=CARTESIAN_POINT('',(-4.25,-5.204749E-016,12.550000000000001));
#530=DIRECTION('',(0.0,0.0,-1.0));
#531=VECTOR('',#530,6.699999999999999);
#532=LINE('',#529,#531);
#533=EDGE_CURVE('',#519,#528,#532,.T.);
#534=ORIENTED_EDGE('',*,*,#533,.T.);
#535=CARTESIAN_POINT('',(8.837602E-033,8.837602E-033,5.850000000000001));
#536=DIRECTION('',(0.0,0.0,1.0));
#537=DIRECTION('',(1.0,0.0,0.0));
#538=AXIS2_PLACEMENT_3D('',#535,#536,#537);
#539=CIRCLE('',#538,4.25);
#540=EDGE_CURVE('',#528,#511,#539,.T.);
#541=ORIENTED_EDGE('',*,*,#540,.T.);
#542=EDGE_LOOP('',(#517,#526,#534,#541));
#543=FACE_OUTER_BOUND('',#542,.T.);
#544=ADVANCED_FACE('',(#543),#507,.T.);
#545=CARTESIAN_POINT('',(8.837602E-033,8.837602E-033,12.550000000000001));
#546=DIRECTION('',(0.0,0.0,-1.0));
#547=DIRECTION('',(-1.0,0.0,0.0));
#548=AXIS2_PLACEMENT_3D('',#545,#546,#547);
#549=TOROIDAL_SURFACE('',#548,3.95,0.3);
#550=CARTESIAN_POINT('',(-3.95,8.837602E-033,12.850000000000001));
#551=VERTEX_POINT('',#550);
#552=CARTESIAN_POINT('',(-3.95,8.837602E-033,12.550000000000001));
#553=DIRECTION('',(0.0,1.0,0.0));
#554=DIRECTION('',(-1.0,0.0,0.0));
#555=AXIS2_PLACEMENT_3D('',#552,#553,#554);
#556=CIRCLE('',#555,0.3);
#557=EDGE_CURVE('',#519,#551,#556,.T.);
#558=ORIENTED_EDGE('',*,*,#557,.F.);
#559=ORIENTED_EDGE('',*,*,#525,.T.);
#560=CARTESIAN_POINT('',(3.95,0.0,12.850000000000001));
#561=VERTEX_POINT('',#560);
#562=CARTESIAN_POINT('',(3.95,-4.837355E-016,12.550000000000001));
#563=DIRECTION('',(0.0,-1.0,0.0));
#564=DIRECTION('',(1.0,0.0,0.0));
#565=AXIS2_PLACEMENT_3D('',#562,#563,#564);
#566=CIRCLE('',#565,0.3);
#567=EDGE_CURVE('',#509,#561,#566,.T.);
#568=ORIENTED_EDGE('',*,*,#567,.T.);
#569=CARTESIAN_POINT('',(8.837602E-033,8.837602E-033,12.850000000000001));
#570=DIRECTION('',(0.0,0.0,-1.0));
#571=DIRECTION('',(-1.0,0.0,0.0));
#572=AXIS2_PLACEMENT_3D('',#569,#570,#571);
#573=CIRCLE('',#572,3.95);
#574=EDGE_CURVE('',#561,#551,#573,.T.);
#575=ORIENTED_EDGE('',*,*,#574,.T.);
#576=EDGE_LOOP('',(#558,#559,#568,#575));
#577=FACE_OUTER_BOUND('',#576,.T.);
#578=ADVANCED_FACE('',(#577),#549,.T.);
#579=CARTESIAN_POINT('',(8.837602E-033,8.837602E-033,12.550000000000001));
#580=DIRECTION('',(0.0,0.0,-1.0));
#581=DIRECTION('',(-1.0,0.0,0.0));
#582=AXIS2_PLACEMENT_3D('',#579,#580,#581);
#583=TOROIDAL_SURFACE('',#582,3.95,0.3);
#584=ORIENTED_EDGE('',*,*,#557,.T.);
#585=CARTESIAN_POINT('',(8.837602E-033,8.837602E-033,12.850000000000001));
#586=DIRECTION('',(0.0,0.0,-1.0));
#587=DIRECTION('',(-1.0,0.0,0.0));
#588=AXIS2_PLACEMENT_3D('',#585,#586,#587);
#589=CIRCLE('',#588,3.95);
#590=EDGE_CURVE('',#551,#561,#589,.T.);
#591=ORIENTED_EDGE('',*,*,#590,.T.);
#592=ORIENTED_EDGE('',*,*,#567,.F.);
#593=CARTESIAN_POINT('',(8.837602E-033,8.837602E-033,12.550000000000001));
#594=DIRECTION('',(0.0,0.0,1.0));
#595=DIRECTION('',(-1.0,0.0,0.0));
#596=AXIS2_PLACEMENT_3D('',#593,#594,#595);
#597=CIRCLE('',#596,4.25);
#598=EDGE_CURVE('',#509,#519,#597,.T.);
#599=ORIENTED_EDGE('',*,*,#598,.T.);
#600=EDGE_LOOP('',(#584,#591,#592,#599));
#601=FACE_OUTER_BOUND('',#600,.T.);
#602=ADVANCED_FACE('',(#601),#583,.T.);
#603=CARTESIAN_POINT('',(8.837602E-033,8.837602E-033,5.850000000000001));
#604=DIRECTION('',(0.0,0.0,1.0));
#605=DIRECTION('',(1.0,0.0,0.0));
#606=AXIS2_PLACEMENT_3D('',#603,#604,#605);
#607=CYLINDRICAL_SURFACE('',#606,4.25);
#608=ORIENTED_EDGE('',*,*,#516,.T.);
#609=CARTESIAN_POINT('',(8.837602E-033,8.837602E-033,5.850000000000001));
#610=DIRECTION('',(0.0,0.0,1.0));
#611=DIRECTION('',(1.0,0.0,0.0));
#612=AXIS2_PLACEMENT_3D('',#609,#610,#611);
#613=CIRCLE('',#612,4.25);
#614=EDGE_CURVE('',#511,#528,#613,.T.);
#615=ORIENTED_EDGE('',*,*,#614,.T.);
#616=ORIENTED_EDGE('',*,*,#533,.F.);
#617=ORIENTED_EDGE('',*,*,#598,.F.);
#618=EDGE_LOOP('',(#608,#615,#616,#617));
#619=FACE_OUTER_BOUND('',#618,.T.);
#620=ADVANCED_FACE('',(#619),#607,.T.);
#621=CARTESIAN_POINT('',(8.837602E-033,8.837602E-033,12.850000000000001));
#622=DIRECTION('',(0.0,0.0,1.0));
#623=DIRECTION('',(1.0,0.0,0.0));
#624=AXIS2_PLACEMENT_3D('',#621,#622,#623);
#625=PLANE('',#624);
#626=ORIENTED_EDGE('',*,*,#574,.F.);
#627=ORIENTED_EDGE('',*,*,#590,.F.);
#628=EDGE_LOOP('',(#626,#627));
#629=FACE_OUTER_BOUND('',#628,.T.);
#630=ADVANCED_FACE('',(#629),#625,.T.);
#631=CARTESIAN_POINT('',(8.837602E-033,8.837602E-033,5.850000000000001));
#632=DIRECTION('',(0.0,0.0,1.0));
#633=DIRECTION('',(1.0,0.0,0.0));
#634=AXIS2_PLACEMENT_3D('',#631,#632,#633);
#635=PLANE('',#634);
#636=ORIENTED_EDGE('',*,*,#614,.F.);
#637=ORIENTED_EDGE('',*,*,#540,.F.);
#638=EDGE_LOOP('',(#636,#637));
#639=FACE_OUTER_BOUND('',#638,.T.);
#640=ADVANCED_FACE('',(#639),#635,.F.);
#641=CLOSED_SHELL('',(#544,#578,#602,#620,#630,#640));
#642=MANIFOLD_SOLID_BREP('1B7F',#641);
#643=STYLED_ITEM('NONE',(#159),#642);
#644=ADVANCED_BREP_SHAPE_REPRESENTATION('ABSR1',(#152,#250,#346,#501,#642),#28);
#645=SHAPE_REPRESENTATION_RELATIONSHIP('SRRPL1','',#644,#62);
ENDSEC;
END-ISO-10303-21;
