ISO-10303-21;
HEADER;
/****************************************************************
 * Generated by software with PDElib inside                    *
 * PDElib Version v51a, created Fri 09/10/2010                  *
 * ITI Transcendata (http://www.transcendata.com/)              *
 ****************************************************************/
FILE_DESCRIPTION((''),'2;1');
FILE_NAME('FUSE_SCHURTER_FST5X20_v.stp','2012-09-20T11:03:37',(''),(''),'Mechanical Desktop 2011','Mechanical Desktop 2011',', , ');
FILE_SCHEMA(('AUTOMOTIVE_DESIGN { 1 2 10303 214 1 1 1 1 }'));
ENDSEC;
DATA;
#10=(NAMED_UNIT(*)PLANE_ANGLE_UNIT()SI_UNIT($,.RADIAN.));
#11=DIMENSIONAL_EXPONENTS(0.0,0.0,0.0,0.0,0.0,0.0,0.0);
#12=PLANE_ANGLE_MEASURE_WITH_UNIT(PLANE_ANGLE_MEASURE(0.0174532925),#10);
#16=(CONVERSION_BASED_UNIT('DEGREE',#12)NAMED_UNIT(#11)PLANE_ANGLE_UNIT());
#20=(NAMED_UNIT(*)SI_UNIT($,.STERADIAN.)SOLID_ANGLE_UNIT());
#24=(LENGTH_UNIT()NAMED_UNIT(*)SI_UNIT(.MILLI.,.METRE.));
#26=UNCERTAINTY_MEASURE_WITH_UNIT(LENGTH_MEASURE(0.000001),#24,'DISTANCE_ACCURACY_VALUE','');
#28=(GEOMETRIC_REPRESENTATION_CONTEXT(3)GLOBAL_UNCERTAINTY_ASSIGNED_CONTEXT((#26))GLOBAL_UNIT_ASSIGNED_CONTEXT((#16,#20,#24))REPRESENTATION_CONTEXT('','3D'));
#29=APPLICATION_CONTEXT('automotive design');
#30=APPLICATION_PROTOCOL_DEFINITION('INTERNATIONAL_STANDARD','automotive_design',1998,#29);
#31=PRODUCT_CONTEXT('3D Mechanical Parts',#29,'mechanical');
#32=PRODUCT('Product','Product','',(#31));
#33=PRODUCT_RELATED_PRODUCT_CATEGORY('part',$,(#32));
#34=PRODUCT_CATEGORY('part',$);
#35=PERSON('1','Design','Joe',$,$,$);
#36=ORGANIZATION($,'None','None');
#37=PERSON_AND_ORGANIZATION(#35,#36);
#38=PERSON_AND_ORGANIZATION_ROLE('design_owner');
#39=APPLIED_PERSON_AND_ORGANIZATION_ASSIGNMENT(#37,#38,(#32));
#40=PRODUCT_DEFINITION_FORMATION_WITH_SPECIFIED_SOURCE('None','',#32,.BOUGHT.);
#41=PERSON('2','Creator','Joe',$,$,$);
#42=ORGANIZATION($,'None','None');
#43=PERSON_AND_ORGANIZATION(#41,#42);
#44=PERSON_AND_ORGANIZATION_ROLE('creator');
#45=APPLIED_PERSON_AND_ORGANIZATION_ASSIGNMENT(#43,#44,(#40));
#46=PERSON('3','Supplier','Joe',$,$,$);
#47=ORGANIZATION($,'None','None');
#48=PERSON_AND_ORGANIZATION(#46,#47);
#49=PERSON_AND_ORGANIZATION_ROLE('design_supplier');
#50=APPLIED_PERSON_AND_ORGANIZATION_ASSIGNMENT(#48,#49,(#40));
#51=PRODUCT_DEFINITION_CONTEXT('part definition',#29,'design');
#52=PRODUCT_DEFINITION('None','',#40,#51);
#53=PERSON('4','Creator','Joe',$,$,$);
#54=ORGANIZATION($,'None','None');
#55=PERSON_AND_ORGANIZATION(#53,#54);
#56=PERSON_AND_ORGANIZATION_ROLE('creator');
#57=APPLIED_PERSON_AND_ORGANIZATION_ASSIGNMENT(#55,#56,(#52));
#58=CARTESIAN_POINT('NONE',(0.0,0.0,0.0));
#59=DIRECTION('NONE',(0.0,0.0,1.0));
#60=DIRECTION('NONE',(1.0,0.0,0.0));
#61=AXIS2_PLACEMENT_3D('NONE',#58,#59,#60);
#62=SHAPE_REPRESENTATION('SR1',(#61),#28);
#63=PRODUCT_DEFINITION_SHAPE('PDS1','Test Part',#52);
#64=SHAPE_DEFINITION_REPRESENTATION(#63,#62);
#65=CARTESIAN_POINT('',(-4.717057E-015,-2.499999999999996,19.500000000000004));
#66=CARTESIAN_POINT('',(-1.995000E-015,-2.499999999999996,14.999999999999998));
#67=CARTESIAN_POINT('',(2.499999999999995,-2.499999999999994,19.500000000000004));
#68=CARTESIAN_POINT('',(2.499999999999997,-2.499999999999995,15.0));
#69=CARTESIAN_POINT('',(2.499999999999994,5.191143E-015,19.500000000000004));
#70=CARTESIAN_POINT('',(2.499999999999997,4.191942E-015,14.999999999999998));
#71=CARTESIAN_POINT('',(2.499999999999993,2.500000000000005,19.500000000000004));
#72=CARTESIAN_POINT('',(2.499999999999996,2.500000000000003,14.999999999999996));
#73=CARTESIAN_POINT('',(-6.439603E-015,2.500000000000004,19.500000000000004));
#74=CARTESIAN_POINT('',(-3.717546E-015,2.500000000000003,14.999999999999995));
#75=CARTESIAN_POINT('',(-2.500000000000006,2.500000000000003,19.500000000000004));
#76=CARTESIAN_POINT('',(-2.500000000000003,2.500000000000002,14.999999999999991));
#77=CARTESIAN_POINT('',(-2.500000000000006,3.468597E-015,19.500000000000004));
#78=CARTESIAN_POINT('',(-2.500000000000002,2.469396E-015,14.999999999999995));
#79=CARTESIAN_POINT('',(-2.500000000000004,-2.499999999999996,19.500000000000004));
#80=CARTESIAN_POINT('',(-2.500000000000001,-2.499999999999996,14.999999999999996));
#81=CARTESIAN_POINT('',(-4.717057E-015,-2.499999999999996,19.500000000000004));
#82=CARTESIAN_POINT('',(-1.995000E-015,-2.499999999999996,14.999999999999998));
#90=(BOUNDED_SURFACE()B_SPLINE_SURFACE(1,2,((#65,#67,#69,#71,#73,#75,#77,#79,#81),(#66,#68,#70,#72,#74,#76,#78,#80,#82)),.UNSPECIFIED.,.F.,.T.,.U.)B_SPLINE_SURFACE_WITH_KNOTS((2,2),(3,2,2,2,3),(0.199999999999999,2.000000000000001),(0.0,3.926990816987241,7.853981633974483,11.780972450961723,15.707963267948966),.UNSPECIFIED.)GEOMETRIC_REPRESENTATION_ITEM()RATIONAL_B_SPLINE_SURFACE(((1.0,0.707106781186548,1.0,0.707106781186548,1.0,0.707106781186548,1.0,0.707106781186548,1.0),(1.0,0.707106781186548,1.0,0.707106781186548,1.0,0.707106781186548,1.0,0.707106781186548,1.0)))REPRESENTATION_ITEM('')SURFACE());
#91=CARTESIAN_POINT('',(-3.189340E-015,2.500000000000004,15.0));
#92=VERTEX_POINT('',#91);
#93=CARTESIAN_POINT('',(-6.466508E-015,2.500000000000004,19.5));
#94=VERTEX_POINT('',#93);
#95=CARTESIAN_POINT('',(-3.411385E-015,2.500000000000004,15.0));
#96=DIRECTION('',(0.0,0.0,1.0));
#97=VECTOR('',#96,4.5);
#98=LINE('',#95,#97);
#99=EDGE_CURVE('',#92,#94,#98,.T.);
#100=ORIENTED_EDGE('',*,*,#99,.F.);
#101=CARTESIAN_POINT('',(-1.995000E-015,-2.499999999999996,15.0));
#102=VERTEX_POINT('',#101);
#103=CARTESIAN_POINT('',(-2.634229E-015,3.330669E-015,15.0));
#104=DIRECTION('',(0.0,0.0,-1.0));
#105=DIRECTION('',(0.0,1.0,0.0));
#106=AXIS2_PLACEMENT_3D('',#103,#104,#105);
#107=CIRCLE('',#106,2.5);
#108=EDGE_CURVE('',#102,#92,#107,.T.);
#109=ORIENTED_EDGE('',*,*,#108,.F.);
#110=CARTESIAN_POINT('',(-4.717057E-015,-2.499999999999996,19.5));
#111=VERTEX_POINT('',#110);
#112=CARTESIAN_POINT('',(-1.995000E-015,-2.499999999999996,15.0));
#113=DIRECTION('',(0.0,0.0,1.0));
#114=VECTOR('',#113,4.5);
#115=LINE('',#112,#114);
#116=EDGE_CURVE('',#102,#111,#115,.T.);
#117=ORIENTED_EDGE('',*,*,#116,.T.);
#118=CARTESIAN_POINT('',(-2.500000000000006,3.468597E-015,19.5));
#119=VERTEX_POINT('',#118);
#120=CARTESIAN_POINT('',(-5.911397E-015,4.329870E-015,19.5));
#121=DIRECTION('',(0.0,0.0,1.0));
#122=DIRECTION('',(0.0,-1.0,0.0));
#123=AXIS2_PLACEMENT_3D('',#120,#121,#122);
#124=CIRCLE('',#123,2.5);
#125=EDGE_CURVE('',#119,#111,#124,.T.);
#126=ORIENTED_EDGE('',*,*,#125,.F.);
#127=CARTESIAN_POINT('',(-5.911397E-015,4.329870E-015,19.5));
#128=DIRECTION('',(0.0,0.0,1.0));
#129=DIRECTION('',(0.0,-1.0,0.0));
#130=AXIS2_PLACEMENT_3D('',#127,#128,#129);
#131=CIRCLE('',#130,2.5);
#132=EDGE_CURVE('',#94,#119,#131,.T.);
#133=ORIENTED_EDGE('',*,*,#132,.F.);
#134=EDGE_LOOP('',(#100,#109,#117,#126,#133));
#135=FACE_OUTER_BOUND('',#134,.T.);
#136=ADVANCED_FACE('',(#135),#90,.T.);
#137=CARTESIAN_POINT('',(-5.911397E-015,4.329870E-015,19.5));
#138=DIRECTION('',(-6.049015E-016,2.220446E-016,1.0));
#139=DIRECTION('',(1.0,0.0,0.0));
#140=AXIS2_PLACEMENT_3D('',#137,#138,#139);
#141=TOROIDAL_SURFACE('',#140,2.0,0.5);
#142=CARTESIAN_POINT('',(1.999999999999994,4.884981E-015,20.0));
#143=VERTEX_POINT('',#142);
#144=CARTESIAN_POINT('',(2.499999999999994,4.884981E-015,19.5));
#145=VERTEX_POINT('',#144);
#146=CARTESIAN_POINT('',(1.999999999999994,4.773959E-015,19.5));
#147=DIRECTION('',(0.0,1.0,0.0));
#148=DIRECTION('',(1.0,0.0,0.0));
#149=AXIS2_PLACEMENT_3D('',#146,#147,#148);
#150=CIRCLE('',#149,0.5);
#151=EDGE_CURVE('',#143,#145,#150,.T.);
#152=ORIENTED_EDGE('',*,*,#151,.F.);
#153=CARTESIAN_POINT('',(-2.000000000000006,3.751874E-015,20.0));
#154=VERTEX_POINT('',#153);
#155=CARTESIAN_POINT('',(-5.880781E-015,4.440892E-015,20.0));
#156=DIRECTION('',(0.0,0.0,-1.0));
#157=DIRECTION('',(0.0,-1.0,0.0));
#158=AXIS2_PLACEMENT_3D('',#155,#156,#157);
#159=CIRCLE('',#158,2.0);
#160=EDGE_CURVE('',#143,#154,#159,.T.);
#161=ORIENTED_EDGE('',*,*,#160,.T.);
#162=CARTESIAN_POINT('',(-2.000000000000006,3.640851E-015,19.5));
#163=DIRECTION('',(0.0,-1.0,0.0));
#164=DIRECTION('',(-1.0,0.0,0.0));
#165=AXIS2_PLACEMENT_3D('',#162,#163,#164);
#166=CIRCLE('',#165,0.5);
#167=EDGE_CURVE('',#154,#119,#166,.T.);
#168=ORIENTED_EDGE('',*,*,#167,.T.);
#169=ORIENTED_EDGE('',*,*,#125,.T.);
#170=CARTESIAN_POINT('',(-5.911397E-015,4.329870E-015,19.5));
#171=DIRECTION('',(0.0,0.0,1.0));
#172=DIRECTION('',(0.0,-1.0,0.0));
#173=AXIS2_PLACEMENT_3D('',#170,#171,#172);
#174=CIRCLE('',#173,2.5);
#175=EDGE_CURVE('',#111,#145,#174,.T.);
#176=ORIENTED_EDGE('',*,*,#175,.T.);
#177=EDGE_LOOP('',(#152,#161,#168,#169,#176));
#178=FACE_OUTER_BOUND('',#177,.T.);
#179=ADVANCED_FACE('',(#178),#141,.T.);
#180=CARTESIAN_POINT('',(-5.911397E-015,4.329870E-015,19.5));
#181=DIRECTION('',(-6.049015E-016,2.220446E-016,1.0));
#182=DIRECTION('',(1.0,0.0,0.0));
#183=AXIS2_PLACEMENT_3D('',#180,#181,#182);
#184=TOROIDAL_SURFACE('',#183,2.0,0.5);
#185=ORIENTED_EDGE('',*,*,#151,.T.);
#186=CARTESIAN_POINT('',(-5.911397E-015,4.329870E-015,19.5));
#187=DIRECTION('',(0.0,0.0,1.0));
#188=DIRECTION('',(0.0,-1.0,0.0));
#189=AXIS2_PLACEMENT_3D('',#186,#187,#188);
#190=CIRCLE('',#189,2.5);
#191=EDGE_CURVE('',#145,#94,#190,.T.);
#192=ORIENTED_EDGE('',*,*,#191,.T.);
#193=ORIENTED_EDGE('',*,*,#132,.T.);
#194=ORIENTED_EDGE('',*,*,#167,.F.);
#195=CARTESIAN_POINT('',(-6.324870E-015,2.000000000000004,20.0));
#196=VERTEX_POINT('',#195);
#197=CARTESIAN_POINT('',(-5.880781E-015,4.440892E-015,20.0));
#198=DIRECTION('',(0.0,0.0,-1.0));
#199=DIRECTION('',(0.0,-1.0,0.0));
#200=AXIS2_PLACEMENT_3D('',#197,#198,#199);
#201=CIRCLE('',#200,2.0);
#202=EDGE_CURVE('',#154,#196,#201,.T.);
#203=ORIENTED_EDGE('',*,*,#202,.T.);
#204=CARTESIAN_POINT('',(-5.880781E-015,4.440892E-015,20.0));
#205=DIRECTION('',(0.0,0.0,-1.0));
#206=DIRECTION('',(0.0,-1.0,0.0));
#207=AXIS2_PLACEMENT_3D('',#204,#205,#206);
#208=CIRCLE('',#207,2.0);
#209=EDGE_CURVE('',#196,#143,#208,.T.);
#210=ORIENTED_EDGE('',*,*,#209,.T.);
#211=EDGE_LOOP('',(#185,#192,#193,#194,#203,#210));
#212=FACE_OUTER_BOUND('',#211,.T.);
#213=ADVANCED_FACE('',(#212),#184,.T.);
#214=CARTESIAN_POINT('',(-4.717057E-015,-2.499999999999996,19.5));
#215=CARTESIAN_POINT('',(-1.995000E-015,-2.499999999999996,14.999999999999998));
#216=CARTESIAN_POINT('',(2.499999999999995,-2.499999999999994,19.5));
#217=CARTESIAN_POINT('',(2.499999999999997,-2.499999999999995,15.0));
#218=CARTESIAN_POINT('',(2.499999999999994,5.191143E-015,19.5));
#219=CARTESIAN_POINT('',(2.499999999999997,4.191942E-015,14.999999999999998));
#220=CARTESIAN_POINT('',(2.499999999999993,2.500000000000005,19.5));
#221=CARTESIAN_POINT('',(2.499999999999996,2.500000000000003,14.999999999999996));
#222=CARTESIAN_POINT('',(-6.439603E-015,2.500000000000004,19.5));
#223=CARTESIAN_POINT('',(-3.717546E-015,2.500000000000003,14.999999999999995));
#224=CARTESIAN_POINT('',(-2.500000000000006,2.500000000000003,19.5));
#225=CARTESIAN_POINT('',(-2.500000000000003,2.500000000000002,14.999999999999991));
#226=CARTESIAN_POINT('',(-2.500000000000006,3.468597E-015,19.5));
#227=CARTESIAN_POINT('',(-2.500000000000002,2.469396E-015,14.999999999999995));
#228=CARTESIAN_POINT('',(-2.500000000000004,-2.499999999999996,19.5));
#229=CARTESIAN_POINT('',(-2.500000000000001,-2.499999999999996,14.999999999999996));
#230=CARTESIAN_POINT('',(-4.717057E-015,-2.499999999999996,19.5));
#231=CARTESIAN_POINT('',(-1.995000E-015,-2.499999999999996,14.999999999999998));
#239=(BOUNDED_SURFACE()B_SPLINE_SURFACE(1,2,((#214,#216,#218,#220,#222,#224,#226,#228,#230),(#215,#217,#219,#221,#223,#225,#227,#229,#231)),.UNSPECIFIED.,.F.,.T.,.U.)B_SPLINE_SURFACE_WITH_KNOTS((2,2),(3,2,2,2,3),(0.2,2.000000000000001),(0.0,3.926990816987241,7.853981633974483,11.780972450961723,15.707963267948966),.UNSPECIFIED.)GEOMETRIC_REPRESENTATION_ITEM()RATIONAL_B_SPLINE_SURFACE(((1.0,0.707106781186548,1.0,0.707106781186548,1.0,0.707106781186548,1.0,0.707106781186548,1.0),(1.0,0.707106781186548,1.0,0.707106781186548,1.0,0.707106781186548,1.0,0.707106781186548,1.0)))REPRESENTATION_ITEM('')SURFACE());
#240=ORIENTED_EDGE('',*,*,#99,.T.);
#241=ORIENTED_EDGE('',*,*,#191,.F.);
#242=ORIENTED_EDGE('',*,*,#175,.F.);
#243=ORIENTED_EDGE('',*,*,#116,.F.);
#244=CARTESIAN_POINT('',(-2.634229E-015,3.330669E-015,15.0));
#245=DIRECTION('',(0.0,0.0,-1.0));
#246=DIRECTION('',(0.0,1.0,0.0));
#247=AXIS2_PLACEMENT_3D('',#244,#245,#246);
#248=CIRCLE('',#247,2.5);
#249=EDGE_CURVE('',#92,#102,#248,.T.);
#250=ORIENTED_EDGE('',*,*,#249,.F.);
#251=EDGE_LOOP('',(#240,#241,#242,#243,#250));
#252=FACE_OUTER_BOUND('',#251,.T.);
#253=ADVANCED_FACE('',(#252),#239,.T.);
#254=CARTESIAN_POINT('',(-2.000000000000007,2.000000000000004,20.0));
#255=CARTESIAN_POINT('',(1.999999999999994,2.000000000000005,20.000000000000004));
#256=CARTESIAN_POINT('',(-2.000000000000006,-1.999999999999996,20.0));
#257=CARTESIAN_POINT('',(1.999999999999995,-1.999999999999996,20.0));
#258=B_SPLINE_SURFACE_WITH_KNOTS('',1,1,((#254,#256),(#255,#257)),.UNSPECIFIED.,.F.,.F.,.U.,(2,2),(2,2),(0.0,4.000000000000001),(0.0,4.000000000000001),.UNSPECIFIED.);
#259=ORIENTED_EDGE('',*,*,#209,.F.);
#260=ORIENTED_EDGE('',*,*,#202,.F.);
#261=ORIENTED_EDGE('',*,*,#160,.F.);
#262=EDGE_LOOP('',(#259,#260,#261));
#263=FACE_OUTER_BOUND('',#262,.T.);
#264=ADVANCED_FACE('',(#263),#258,.F.);
#265=CARTESIAN_POINT('',(-2.500000000000004,2.500000000000004,14.999999999999998));
#266=CARTESIAN_POINT('',(2.499999999999997,2.500000000000005,15.000000000000002));
#267=CARTESIAN_POINT('',(-2.500000000000003,-2.499999999999998,15.0));
#268=CARTESIAN_POINT('',(2.499999999999998,-2.499999999999997,15.000000000000002));
#269=B_SPLINE_SURFACE_WITH_KNOTS('',1,1,((#265,#267),(#266,#268)),.UNSPECIFIED.,.F.,.F.,.U.,(2,2),(2,2),(0.0,5.000000000000001),(0.0,5.000000000000002),.UNSPECIFIED.);
#270=ORIENTED_EDGE('',*,*,#249,.T.);
#271=ORIENTED_EDGE('',*,*,#108,.T.);
#272=EDGE_LOOP('',(#270,#271));
#273=FACE_OUTER_BOUND('',#272,.T.);
#274=ADVANCED_FACE('',(#273),#269,.T.);
#275=CLOSED_SHELL('',(#136,#179,#213,#253,#264,#274));
#276=MANIFOLD_SOLID_BREP('722',#275);
#277=COLOUR_RGB('9',0.75,0.75,0.75);
#278=SURFACE_STYLE_USAGE(.BOTH.,#279);
#279=SURFACE_SIDE_STYLE('NONE',(#280));
#280=SURFACE_STYLE_FILL_AREA(#281);
#281=FILL_AREA_STYLE('NONE',(#282));
#282=FILL_AREA_STYLE_COLOUR('NONE',#277);
#283=PRESENTATION_STYLE_ASSIGNMENT((#278));
#284=STYLED_ITEM('NONE',(#283),#276);
#285=MECHANICAL_DESIGN_GEOMETRIC_PRESENTATION_REPRESENTATION('NONE',(#284,#382,#553),#28);
#286=PRESENTATION_LAYER_ASSIGNMENT('3D','None',(#276,#374,#552));
#287=CARTESIAN_POINT('',(0.0,0.0,0.0));
#288=DIRECTION('',(-1.608123E-016,2.220446E-016,1.0));
#289=DIRECTION('',(0.0,1.0,0.0));
#290=AXIS2_PLACEMENT_3D('',#287,#288,#289);
#291=CYLINDRICAL_SURFACE('',#290,2.1);
#292=CARTESIAN_POINT('',(-2.818853E-015,2.100000000000005,19.600000000000001));
#293=VERTEX_POINT('',#292);
#294=CARTESIAN_POINT('',(-4.418007E-016,2.1,0.4));
#295=VERTEX_POINT('',#294);
#296=CARTESIAN_POINT('',(-3.618214E-015,2.100000000000005,19.600000000000001));
#297=DIRECTION('',(0.0,0.0,-1.0));
#298=VECTOR('',#297,19.200000000000003);
#299=LINE('',#296,#298);
#300=EDGE_CURVE('',#293,#295,#299,.T.);
#301=ORIENTED_EDGE('',*,*,#300,.F.);
#302=CARTESIAN_POINT('',(-2.428451E-015,-2.099999999999996,19.600000000000001));
#303=VERTEX_POINT('',#302);
#304=CARTESIAN_POINT('',(-2.352560E-015,4.352074E-015,19.600000000000001));
#305=DIRECTION('',(0.0,0.0,-1.0));
#306=DIRECTION('',(0.0,1.0,0.0));
#307=AXIS2_PLACEMENT_3D('',#304,#305,#306);
#308=CIRCLE('',#307,2.1);
#309=EDGE_CURVE('',#293,#303,#308,.T.);
#310=ORIENTED_EDGE('',*,*,#309,.T.);
#311=CARTESIAN_POINT('',(6.591446E-016,-2.1,0.400000000000001));
#312=VERTEX_POINT('',#311);
#313=CARTESIAN_POINT('',(-2.428451E-015,-2.099999999999996,19.600000000000001));
#314=DIRECTION('',(0.0,0.0,-1.0));
#315=VECTOR('',#314,19.199999999999999);
#316=LINE('',#313,#315);
#317=EDGE_CURVE('',#303,#312,#316,.T.);
#318=ORIENTED_EDGE('',*,*,#317,.T.);
#319=CARTESIAN_POINT('',(2.449294E-017,8.881784E-017,0.4));
#320=DIRECTION('',(0.0,0.0,1.0));
#321=DIRECTION('',(0.0,1.0,0.0));
#322=AXIS2_PLACEMENT_3D('',#319,#320,#321);
#323=CIRCLE('',#322,2.1);
#324=EDGE_CURVE('',#312,#295,#323,.T.);
#325=ORIENTED_EDGE('',*,*,#324,.T.);
#326=EDGE_LOOP('',(#301,#310,#318,#325));
#327=FACE_OUTER_BOUND('',#326,.T.);
#328=ADVANCED_FACE('',(#327),#291,.T.);
#329=CARTESIAN_POINT('',(0.0,0.0,0.0));
#330=DIRECTION('',(-1.608123E-016,2.220446E-016,1.0));
#331=DIRECTION('',(0.0,1.0,0.0));
#332=AXIS2_PLACEMENT_3D('',#329,#330,#331);
#333=CYLINDRICAL_SURFACE('',#332,2.1);
#334=ORIENTED_EDGE('',*,*,#300,.T.);
#335=CARTESIAN_POINT('',(2.449294E-017,8.881784E-017,0.4));
#336=DIRECTION('',(0.0,0.0,1.0));
#337=DIRECTION('',(0.0,1.0,0.0));
#338=AXIS2_PLACEMENT_3D('',#335,#336,#337);
#339=CIRCLE('',#338,2.1);
#340=EDGE_CURVE('',#295,#312,#339,.T.);
#341=ORIENTED_EDGE('',*,*,#340,.T.);
#342=ORIENTED_EDGE('',*,*,#317,.F.);
#343=CARTESIAN_POINT('',(-2.352560E-015,4.352074E-015,19.600000000000001));
#344=DIRECTION('',(0.0,0.0,-1.0));
#345=DIRECTION('',(0.0,1.0,0.0));
#346=AXIS2_PLACEMENT_3D('',#343,#344,#345);
#347=CIRCLE('',#346,2.1);
#348=EDGE_CURVE('',#303,#293,#347,.T.);
#349=ORIENTED_EDGE('',*,*,#348,.T.);
#350=EDGE_LOOP('',(#334,#341,#342,#349));
#351=FACE_OUTER_BOUND('',#350,.T.);
#352=ADVANCED_FACE('',(#351),#333,.T.);
#353=CARTESIAN_POINT('',(-2.352560E-015,4.352074E-015,19.600000000000001));
#354=DIRECTION('',(0.0,0.0,1.0));
#355=DIRECTION('',(1.0,0.0,0.0));
#356=AXIS2_PLACEMENT_3D('',#353,#354,#355);
#357=PLANE('',#356);
#358=ORIENTED_EDGE('',*,*,#309,.F.);
#359=ORIENTED_EDGE('',*,*,#348,.F.);
#360=EDGE_LOOP('',(#358,#359));
#361=FACE_OUTER_BOUND('',#360,.T.);
#362=ADVANCED_FACE('',(#361),#357,.T.);
#363=CARTESIAN_POINT('',(2.449294E-017,8.881784E-017,0.4));
#364=DIRECTION('',(0.0,0.0,1.0));
#365=DIRECTION('',(1.0,0.0,0.0));
#366=AXIS2_PLACEMENT_3D('',#363,#364,#365);
#367=PLANE('',#366);
#368=ORIENTED_EDGE('',*,*,#340,.F.);
#369=ORIENTED_EDGE('',*,*,#324,.F.);
#370=EDGE_LOOP('',(#368,#369));
#371=FACE_OUTER_BOUND('',#370,.T.);
#372=ADVANCED_FACE('',(#371),#367,.F.);
#373=CLOSED_SHELL('',(#328,#352,#362,#372));
#374=MANIFOLD_SOLID_BREP('719',#373);
#375=DRAUGHTING_PRE_DEFINED_COLOUR('white');
#376=SURFACE_STYLE_USAGE(.BOTH.,#377);
#377=SURFACE_SIDE_STYLE('NONE',(#378));
#378=SURFACE_STYLE_FILL_AREA(#379);
#379=FILL_AREA_STYLE('NONE',(#380));
#380=FILL_AREA_STYLE_COLOUR('NONE',#375);
#381=PRESENTATION_STYLE_ASSIGNMENT((#376));
#382=STYLED_ITEM('NONE',(#381),#374);
#383=CARTESIAN_POINT('',(0.0,0.0,0.0));
#384=DIRECTION('',(-1.608123E-016,2.220446E-016,1.0));
#385=DIRECTION('',(0.0,1.0,0.0));
#386=AXIS2_PLACEMENT_3D('',#383,#384,#385);
#387=CYLINDRICAL_SURFACE('',#386,2.5);
#388=CARTESIAN_POINT('',(-2.489498E-016,2.500000000000001,4.999999999999999));
#389=VERTEX_POINT('',#388);
#390=CARTESIAN_POINT('',(1.251861E-015,2.5,0.499999999999999));
#391=VERTEX_POINT('',#390);
#392=CARTESIAN_POINT('',(-1.359173E-015,2.500000000000001,4.999999999999999));
#393=DIRECTION('',(0.0,0.0,-1.0));
#394=VECTOR('',#393,4.5);
#395=LINE('',#392,#394);
#396=EDGE_CURVE('',#389,#391,#395,.T.);
#397=ORIENTED_EDGE('',*,*,#396,.F.);
#398=CARTESIAN_POINT('',(5.721189E-017,-2.499999999999999,5.000000000000001));
#399=VERTEX_POINT('',#398);
#400=CARTESIAN_POINT('',(3.061617E-016,1.110223E-015,5.0));
#401=DIRECTION('',(0.0,0.0,-1.0));
#402=DIRECTION('',(0.0,1.0,0.0));
#403=AXIS2_PLACEMENT_3D('',#400,#401,#402);
#404=CIRCLE('',#403,2.5);
#405=EDGE_CURVE('',#389,#399,#404,.T.);
#406=ORIENTED_EDGE('',*,*,#405,.T.);
#407=CARTESIAN_POINT('',(7.808671E-016,-2.5,0.500000000000001));
#408=VERTEX_POINT('',#407);
#409=CARTESIAN_POINT('',(5.721189E-017,-2.499999999999999,5.000000000000001));
#410=DIRECTION('',(0.0,0.0,-1.0));
#411=VECTOR('',#410,4.5);
#412=LINE('',#409,#411);
#413=EDGE_CURVE('',#399,#408,#412,.T.);
#414=ORIENTED_EDGE('',*,*,#413,.T.);
#415=CARTESIAN_POINT('',(2.5,6.661338E-016,0.500000000000001));
#416=VERTEX_POINT('',#415);
#417=CARTESIAN_POINT('',(3.061617E-017,1.110223E-016,0.5));
#418=DIRECTION('',(0.0,0.0,-1.0));
#419=DIRECTION('',(0.0,-1.0,0.0));
#420=AXIS2_PLACEMENT_3D('',#417,#418,#419);
#421=CIRCLE('',#420,2.5);
#422=EDGE_CURVE('',#416,#408,#421,.T.);
#423=ORIENTED_EDGE('',*,*,#422,.F.);
#424=CARTESIAN_POINT('',(3.061617E-017,1.110223E-016,0.5));
#425=DIRECTION('',(0.0,0.0,-1.0));
#426=DIRECTION('',(0.0,-1.0,0.0));
#427=AXIS2_PLACEMENT_3D('',#424,#425,#426);
#428=CIRCLE('',#427,2.5);
#429=EDGE_CURVE('',#391,#416,#428,.T.);
#430=ORIENTED_EDGE('',*,*,#429,.F.);
#431=EDGE_LOOP('',(#397,#406,#414,#423,#430));
#432=FACE_OUTER_BOUND('',#431,.T.);
#433=ADVANCED_FACE('',(#432),#387,.T.);
#434=CARTESIAN_POINT('',(3.061617E-017,1.110223E-016,0.5));
#435=DIRECTION('',(-1.608123E-016,2.220446E-016,1.0));
#436=DIRECTION('',(1.0,0.0,0.0));
#437=AXIS2_PLACEMENT_3D('',#434,#435,#436);
#438=TOROIDAL_SURFACE('',#437,2.0,0.5);
#439=CARTESIAN_POINT('',(2.0,4.440892E-016,3.273457E-016));
#440=VERTEX_POINT('',#439);
#441=CARTESIAN_POINT('',(2.0,5.551115E-016,0.5));
#442=DIRECTION('',(0.0,1.0,0.0));
#443=DIRECTION('',(1.0,0.0,0.0));
#444=AXIS2_PLACEMENT_3D('',#441,#442,#443);
#445=CIRCLE('',#444,0.5);
#446=EDGE_CURVE('',#416,#440,#445,.T.);
#447=ORIENTED_EDGE('',*,*,#446,.F.);
#448=ORIENTED_EDGE('',*,*,#422,.T.);
#449=CARTESIAN_POINT('',(-2.5,-7.502509E-016,0.5));
#450=VERTEX_POINT('',#449);
#451=CARTESIAN_POINT('',(3.061617E-017,1.110223E-016,0.5));
#452=DIRECTION('',(0.0,0.0,-1.0));
#453=DIRECTION('',(0.0,-1.0,0.0));
#454=AXIS2_PLACEMENT_3D('',#451,#452,#453);
#455=CIRCLE('',#454,2.5);
#456=EDGE_CURVE('',#408,#450,#455,.T.);
#457=ORIENTED_EDGE('',*,*,#456,.T.);
#458=CARTESIAN_POINT('',(-2.0,-6.890186E-016,-3.273457E-016));
#459=VERTEX_POINT('',#458);
#460=CARTESIAN_POINT('',(-2.0,-5.779963E-016,0.5));
#461=DIRECTION('',(0.0,-1.0,0.0));
#462=DIRECTION('',(-1.0,0.0,0.0));
#463=AXIS2_PLACEMENT_3D('',#460,#461,#462);
#464=CIRCLE('',#463,0.5);
#465=EDGE_CURVE('',#450,#459,#464,.T.);
#466=ORIENTED_EDGE('',*,*,#465,.T.);
#467=CARTESIAN_POINT('',(0.0,0.0,0.0));
#468=DIRECTION('',(0.0,0.0,1.0));
#469=DIRECTION('',(0.0,-1.0,0.0));
#470=AXIS2_PLACEMENT_3D('',#467,#468,#469);
#471=CIRCLE('',#470,2.0);
#472=EDGE_CURVE('',#459,#440,#471,.T.);
#473=ORIENTED_EDGE('',*,*,#472,.T.);
#474=EDGE_LOOP('',(#447,#448,#457,#466,#473));
#475=FACE_OUTER_BOUND('',#474,.T.);
#476=ADVANCED_FACE('',(#475),#438,.T.);
#477=CARTESIAN_POINT('',(3.061617E-017,1.110223E-016,0.5));
#478=DIRECTION('',(-1.608123E-016,2.220446E-016,1.0));
#479=DIRECTION('',(1.0,0.0,0.0));
#480=AXIS2_PLACEMENT_3D('',#477,#478,#479);
#481=TOROIDAL_SURFACE('',#480,2.0,0.5);
#482=ORIENTED_EDGE('',*,*,#446,.T.);
#483=CARTESIAN_POINT('',(-4.440892E-016,2.0,-4.440892E-016));
#484=VERTEX_POINT('',#483);
#485=CARTESIAN_POINT('',(0.0,0.0,0.0));
#486=DIRECTION('',(0.0,0.0,1.0));
#487=DIRECTION('',(0.0,-1.0,0.0));
#488=AXIS2_PLACEMENT_3D('',#485,#486,#487);
#489=CIRCLE('',#488,2.0);
#490=EDGE_CURVE('',#440,#484,#489,.T.);
#491=ORIENTED_EDGE('',*,*,#490,.T.);
#492=CARTESIAN_POINT('',(0.0,0.0,0.0));
#493=DIRECTION('',(0.0,0.0,1.0));
#494=DIRECTION('',(0.0,-1.0,0.0));
#495=AXIS2_PLACEMENT_3D('',#492,#493,#494);
#496=CIRCLE('',#495,2.0);
#497=EDGE_CURVE('',#484,#459,#496,.T.);
#498=ORIENTED_EDGE('',*,*,#497,.T.);
#499=ORIENTED_EDGE('',*,*,#465,.F.);
#500=CARTESIAN_POINT('',(3.061617E-017,1.110223E-016,0.5));
#501=DIRECTION('',(0.0,0.0,-1.0));
#502=DIRECTION('',(0.0,-1.0,0.0));
#503=AXIS2_PLACEMENT_3D('',#500,#501,#502);
#504=CIRCLE('',#503,2.5);
#505=EDGE_CURVE('',#450,#391,#504,.T.);
#506=ORIENTED_EDGE('',*,*,#505,.T.);
#507=ORIENTED_EDGE('',*,*,#429,.T.);
#508=EDGE_LOOP('',(#482,#491,#498,#499,#506,#507));
#509=FACE_OUTER_BOUND('',#508,.T.);
#510=ADVANCED_FACE('',(#509),#481,.T.);
#511=CARTESIAN_POINT('',(0.0,0.0,0.0));
#512=DIRECTION('',(-1.608123E-016,2.220446E-016,1.0));
#513=DIRECTION('',(0.0,1.0,0.0));
#514=AXIS2_PLACEMENT_3D('',#511,#512,#513);
#515=CYLINDRICAL_SURFACE('',#514,2.5);
#516=ORIENTED_EDGE('',*,*,#396,.T.);
#517=ORIENTED_EDGE('',*,*,#505,.F.);
#518=ORIENTED_EDGE('',*,*,#456,.F.);
#519=ORIENTED_EDGE('',*,*,#413,.F.);
#520=CARTESIAN_POINT('',(3.061617E-016,1.110223E-015,5.0));
#521=DIRECTION('',(0.0,0.0,-1.0));
#522=DIRECTION('',(0.0,1.0,0.0));
#523=AXIS2_PLACEMENT_3D('',#520,#521,#522);
#524=CIRCLE('',#523,2.5);
#525=EDGE_CURVE('',#399,#389,#524,.T.);
#526=ORIENTED_EDGE('',*,*,#525,.T.);
#527=EDGE_LOOP('',(#516,#517,#518,#519,#526));
#528=FACE_OUTER_BOUND('',#527,.T.);
#529=ADVANCED_FACE('',(#528),#515,.T.);
#530=CARTESIAN_POINT('',(0.0,0.0,0.0));
#531=DIRECTION('',(0.0,0.0,1.0));
#532=DIRECTION('',(1.0,0.0,0.0));
#533=AXIS2_PLACEMENT_3D('',#530,#531,#532);
#534=PLANE('',#533);
#535=ORIENTED_EDGE('',*,*,#497,.F.);
#536=ORIENTED_EDGE('',*,*,#490,.F.);
#537=ORIENTED_EDGE('',*,*,#472,.F.);
#538=EDGE_LOOP('',(#535,#536,#537));
#539=FACE_OUTER_BOUND('',#538,.T.);
#540=ADVANCED_FACE('',(#539),#534,.F.);
#541=CARTESIAN_POINT('',(3.061617E-016,1.110223E-015,5.0));
#542=DIRECTION('',(0.0,0.0,1.0));
#543=DIRECTION('',(1.0,0.0,0.0));
#544=AXIS2_PLACEMENT_3D('',#541,#542,#543);
#545=PLANE('',#544);
#546=ORIENTED_EDGE('',*,*,#405,.F.);
#547=ORIENTED_EDGE('',*,*,#525,.F.);
#548=EDGE_LOOP('',(#546,#547));
#549=FACE_OUTER_BOUND('',#548,.T.);
#550=ADVANCED_FACE('',(#549),#545,.T.);
#551=CLOSED_SHELL('',(#433,#476,#510,#529,#540,#550));
#552=MANIFOLD_SOLID_BREP('715',#551);
#553=STYLED_ITEM('NONE',(#283),#552);
#554=ADVANCED_BREP_SHAPE_REPRESENTATION('ABSR1',(#276,#374,#552),#28);
#555=SHAPE_REPRESENTATION_RELATIONSHIP('SRRPL1','',#554,#62);
ENDSEC;
END-ISO-10303-21;
