ISO-10303-21;
HEADER;
/****************************************************************
 * Generated by software with PDElib inside                    *
 * PDElib Version v51a, created Fri 09/10/2010                  *
 * ITI Transcendata (http://www.transcendata.com/)              *
 ****************************************************************/
FILE_DESCRIPTION((''),'2;1');
FILE_NAME('FUSH_SCHURTER_0031.7601.stp','2013-10-30T14:57:03',(''),(''),'Mechanical Desktop 2011','Mechanical Desktop 2011',', , ');
FILE_SCHEMA(('AUTOMOTIVE_DESIGN { 1 2 10303 214 1 1 1 1 }'));
ENDSEC;
DATA;
#10=(NAMED_UNIT(*)PLANE_ANGLE_UNIT()SI_UNIT($,.RADIAN.));
#11=DIMENSIONAL_EXPONENTS(0.0,0.0,0.0,0.0,0.0,0.0,0.0);
#12=PLANE_ANGLE_MEASURE_WITH_UNIT(PLANE_ANGLE_MEASURE(0.0174532925),#10);
#16=(CONVERSION_BASED_UNIT('DEGREE',#12)NAMED_UNIT(#11)PLANE_ANGLE_UNIT());
#20=(NAMED_UNIT(*)SI_UNIT($,.STERADIAN.)SOLID_ANGLE_UNIT());
#24=(LENGTH_UNIT()NAMED_UNIT(*)SI_UNIT(.MILLI.,.METRE.));
#26=UNCERTAINTY_MEASURE_WITH_UNIT(LENGTH_MEASURE(0.000001),#24,'DISTANCE_ACCURACY_VALUE','');
#28=(GEOMETRIC_REPRESENTATION_CONTEXT(3)GLOBAL_UNCERTAINTY_ASSIGNED_CONTEXT((#26))GLOBAL_UNIT_ASSIGNED_CONTEXT((#16,#20,#24))REPRESENTATION_CONTEXT('','3D'));
#29=APPLICATION_CONTEXT('automotive design');
#30=APPLICATION_PROTOCOL_DEFINITION('INTERNATIONAL_STANDARD','automotive_design',1998,#29);
#31=PRODUCT_CONTEXT('3D Mechanical Parts',#29,'mechanical');
#32=PRODUCT('Product','Product','',(#31));
#33=PRODUCT_RELATED_PRODUCT_CATEGORY('part',$,(#32));
#34=PRODUCT_CATEGORY('part',$);
#35=PERSON('1','Design','Joe',$,$,$);
#36=ORGANIZATION($,'None','None');
#37=PERSON_AND_ORGANIZATION(#35,#36);
#38=PERSON_AND_ORGANIZATION_ROLE('design_owner');
#39=APPLIED_PERSON_AND_ORGANIZATION_ASSIGNMENT(#37,#38,(#32));
#40=PRODUCT_DEFINITION_FORMATION_WITH_SPECIFIED_SOURCE('None','',#32,.BOUGHT.);
#41=PERSON('2','Creator','Joe',$,$,$);
#42=ORGANIZATION($,'None','None');
#43=PERSON_AND_ORGANIZATION(#41,#42);
#44=PERSON_AND_ORGANIZATION_ROLE('creator');
#45=APPLIED_PERSON_AND_ORGANIZATION_ASSIGNMENT(#43,#44,(#40));
#46=PERSON('3','Supplier','Joe',$,$,$);
#47=ORGANIZATION($,'None','None');
#48=PERSON_AND_ORGANIZATION(#46,#47);
#49=PERSON_AND_ORGANIZATION_ROLE('design_supplier');
#50=APPLIED_PERSON_AND_ORGANIZATION_ASSIGNMENT(#48,#49,(#40));
#51=PRODUCT_DEFINITION_CONTEXT('part definition',#29,'design');
#52=PRODUCT_DEFINITION('None','',#40,#51);
#53=PERSON('4','Creator','Joe',$,$,$);
#54=ORGANIZATION($,'None','None');
#55=PERSON_AND_ORGANIZATION(#53,#54);
#56=PERSON_AND_ORGANIZATION_ROLE('creator');
#57=APPLIED_PERSON_AND_ORGANIZATION_ASSIGNMENT(#55,#56,(#52));
#58=CARTESIAN_POINT('NONE',(0.0,0.0,0.0));
#59=DIRECTION('NONE',(0.0,0.0,1.0));
#60=DIRECTION('NONE',(1.0,0.0,0.0));
#61=AXIS2_PLACEMENT_3D('NONE',#58,#59,#60);
#62=SHAPE_REPRESENTATION('SR1',(#61),#28);
#63=PRODUCT_DEFINITION_SHAPE('PDS1','Test Part',#52);
#64=SHAPE_DEFINITION_REPRESENTATION(#63,#62);
#65=CARTESIAN_POINT('',(3.358757210635977,-3.358757210635941,4.4));
#66=DIRECTION('',(0.0,0.0,-1.0));
#67=DIRECTION('',(0.707106781186586,-0.70710678118651,0.0));
#68=AXIS2_PLACEMENT_3D('',#65,#66,#67);
#69=CYLINDRICAL_SURFACE('',#68,0.750000000000023);
#70=CARTESIAN_POINT('',(2.788214234014083,-3.845563857907179,1.399999999999999));
#71=VERTEX_POINT('',#70);
#72=CARTESIAN_POINT('',(3.845563857907154,-2.788214234013995,1.399999999999999));
#73=VERTEX_POINT('',#72);
#74=CARTESIAN_POINT('',(3.358757210635977,-3.358757210635941,1.4));
#75=DIRECTION('',(0.0,0.0,1.0));
#76=DIRECTION('',(0.707106781186586,-0.70710678118651,0.0));
#77=AXIS2_PLACEMENT_3D('',#74,#75,#76);
#78=CIRCLE('',#77,0.750000000000023);
#79=EDGE_CURVE('',#71,#73,#78,.T.);
#80=ORIENTED_EDGE('',*,*,#79,.T.);
#81=CARTESIAN_POINT('',(3.845563857907154,-2.788214234013995,4.4));
#82=VERTEX_POINT('',#81);
#83=CARTESIAN_POINT('',(3.845563857907154,-2.788214234013995,4.4));
#84=DIRECTION('',(0.0,0.0,-1.0));
#85=VECTOR('',#84,3.000000000000001);
#86=LINE('',#83,#85);
#87=EDGE_CURVE('',#82,#73,#86,.T.);
#88=ORIENTED_EDGE('',*,*,#87,.F.);
#89=CARTESIAN_POINT('',(2.788214234014083,-3.845563857907179,4.4));
#90=VERTEX_POINT('',#89);
#91=CARTESIAN_POINT('',(3.358757210635977,-3.358757210635941,4.4));
#92=DIRECTION('',(0.0,0.0,-1.0));
#93=DIRECTION('',(0.707106781186586,-0.70710678118651,0.0));
#94=AXIS2_PLACEMENT_3D('',#91,#92,#93);
#95=CIRCLE('',#94,0.750000000000023);
#96=EDGE_CURVE('',#82,#90,#95,.T.);
#97=ORIENTED_EDGE('',*,*,#96,.T.);
#98=CARTESIAN_POINT('',(2.788214234014083,-3.845563857907179,4.4));
#99=DIRECTION('',(0.0,0.0,-1.0));
#100=VECTOR('',#99,3.000000000000001);
#101=LINE('',#98,#100);
#102=EDGE_CURVE('',#90,#71,#101,.T.);
#103=ORIENTED_EDGE('',*,*,#102,.T.);
#104=EDGE_LOOP('',(#80,#88,#97,#103));
#105=FACE_OUTER_BOUND('',#104,.T.);
#106=ADVANCED_FACE('',(#105),#69,.T.);
#107=CARTESIAN_POINT('',(-1.465494E-013,-1.780798E-013,4.4));
#108=DIRECTION('',(0.0,0.0,-1.0));
#109=DIRECTION('',(0.707106781186585,-0.707106781186509,0.0));
#110=AXIS2_PLACEMENT_3D('',#107,#108,#109);
#111=CYLINDRICAL_SURFACE('',#110,4.750000000000015);
#112=CARTESIAN_POINT('',(-1.465494E-013,-1.780798E-013,1.4));
#113=DIRECTION('',(0.0,0.0,-1.0));
#114=DIRECTION('',(0.707106781186585,-0.707106781186509,0.0));
#115=AXIS2_PLACEMENT_3D('',#112,#113,#114);
#116=CIRCLE('',#115,4.750000000000014);
#117=EDGE_CURVE('',#73,#71,#116,.T.);
#118=ORIENTED_EDGE('',*,*,#117,.T.);
#119=ORIENTED_EDGE('',*,*,#102,.F.);
#120=CARTESIAN_POINT('',(-1.465494E-013,-1.780798E-013,4.4));
#121=DIRECTION('',(0.0,0.0,1.0));
#122=DIRECTION('',(0.707106781186585,-0.707106781186509,0.0));
#123=AXIS2_PLACEMENT_3D('',#120,#121,#122);
#124=CIRCLE('',#123,4.750000000000014);
#125=EDGE_CURVE('',#90,#82,#124,.T.);
#126=ORIENTED_EDGE('',*,*,#125,.T.);
#127=ORIENTED_EDGE('',*,*,#87,.T.);
#128=EDGE_LOOP('',(#118,#119,#126,#127));
#129=FACE_OUTER_BOUND('',#128,.T.);
#130=ADVANCED_FACE('',(#129),#111,.F.);
#131=CARTESIAN_POINT('',(3.529716538489622,-3.529716538489567,4.4));
#132=DIRECTION('',(0.0,0.0,1.0));
#133=DIRECTION('',(0.0,1.0,0.0));
#134=AXIS2_PLACEMENT_3D('',#131,#132,#133);
#135=PLANE('',#134);
#136=ORIENTED_EDGE('',*,*,#125,.F.);
#137=ORIENTED_EDGE('',*,*,#96,.F.);
#138=EDGE_LOOP('',(#136,#137));
#139=FACE_OUTER_BOUND('',#138,.T.);
#140=ADVANCED_FACE('',(#139),#135,.T.);
#141=CARTESIAN_POINT('',(3.529716538489622,-3.529716538489567,1.399999999999999));
#142=DIRECTION('',(0.0,0.0,1.0));
#143=DIRECTION('',(0.0,1.0,0.0));
#144=AXIS2_PLACEMENT_3D('',#141,#142,#143);
#145=PLANE('',#144);
#146=ORIENTED_EDGE('',*,*,#79,.F.);
#147=ORIENTED_EDGE('',*,*,#117,.F.);
#148=EDGE_LOOP('',(#146,#147));
#149=FACE_OUTER_BOUND('',#148,.T.);
#150=ADVANCED_FACE('',(#149),#145,.F.);
#151=CLOSED_SHELL('',(#106,#130,#140,#150));
#152=MANIFOLD_SOLID_BREP('1C7E',#151);
#153=COLOUR_RGB('250',0.33,0.33,0.33);
#154=SURFACE_STYLE_USAGE(.BOTH.,#155);
#155=SURFACE_SIDE_STYLE('NONE',(#156));
#156=SURFACE_STYLE_FILL_AREA(#157);
#157=FILL_AREA_STYLE('NONE',(#158));
#158=FILL_AREA_STYLE_COLOUR('NONE',#153);
#159=PRESENTATION_STYLE_ASSIGNMENT((#154));
#160=STYLED_ITEM('NONE',(#159),#152);
#161=MECHANICAL_DESIGN_GEOMETRIC_PRESENTATION_REPRESENTATION('NONE',(#160,#382,#595,#691,#780,#869,#958,#1047,#1136,#1225,#1314,#1571),#28);
#162=PRESENTATION_LAYER_ASSIGNMENT('3D','None',(#152,#374,#594,#683,#779,#868,#957,#1046,#1135,#1224,#1313,#1570));
#163=CARTESIAN_POINT('',(2.540000000000001,-2.965910E-016,4.400000000000001));
#164=DIRECTION('',(0.0,0.0,-1.0));
#165=DIRECTION('',(1.0,0.0,0.0));
#166=AXIS2_PLACEMENT_3D('',#163,#164,#165);
#167=CYLINDRICAL_SURFACE('',#166,0.55);
#168=CARTESIAN_POINT('',(3.090000000000001,-2.965910E-016,1.4));
#169=VERTEX_POINT('',#168);
#170=CARTESIAN_POINT('',(3.090000000000001,-2.965910E-016,4.400000000000001));
#171=VERTEX_POINT('',#170);
#172=CARTESIAN_POINT('',(3.090000000000001,-2.965910E-016,1.4));
#173=DIRECTION('',(0.0,0.0,1.0));
#174=VECTOR('',#173,3.000000000000001);
#175=LINE('',#172,#174);
#176=EDGE_CURVE('',#169,#171,#175,.T.);
#177=ORIENTED_EDGE('',*,*,#176,.F.);
#178=CARTESIAN_POINT('',(1.99,-2.292355E-016,1.4));
#179=VERTEX_POINT('',#178);
#180=CARTESIAN_POINT('',(2.540000000000001,-2.965910E-016,1.4));
#181=DIRECTION('',(0.0,0.0,1.0));
#182=DIRECTION('',(1.0,0.0,0.0));
#183=AXIS2_PLACEMENT_3D('',#180,#181,#182);
#184=CIRCLE('',#183,0.55);
#185=EDGE_CURVE('',#169,#179,#184,.T.);
#186=ORIENTED_EDGE('',*,*,#185,.T.);
#187=CARTESIAN_POINT('',(1.99,-2.292355E-016,4.400000000000001));
#188=VERTEX_POINT('',#187);
#189=CARTESIAN_POINT('',(1.99,-2.292355E-016,1.4));
#190=DIRECTION('',(0.0,0.0,1.0));
#191=VECTOR('',#190,3.000000000000001);
#192=LINE('',#189,#191);
#193=EDGE_CURVE('',#179,#188,#192,.T.);
#194=ORIENTED_EDGE('',*,*,#193,.T.);
#195=CARTESIAN_POINT('',(2.540000000000001,-2.965910E-016,4.400000000000001));
#196=DIRECTION('',(0.0,0.0,1.0));
#197=DIRECTION('',(1.0,0.0,0.0));
#198=AXIS2_PLACEMENT_3D('',#195,#196,#197);
#199=CIRCLE('',#198,0.55);
#200=EDGE_CURVE('',#171,#188,#199,.T.);
#201=ORIENTED_EDGE('',*,*,#200,.F.);
#202=EDGE_LOOP('',(#177,#186,#194,#201));
#203=FACE_OUTER_BOUND('',#202,.T.);
#204=ADVANCED_FACE('',(#203),#167,.T.);
#205=CARTESIAN_POINT('',(2.540000000000001,-3.330669E-016,4.400000000000001));
#206=DIRECTION('',(0.0,0.0,-1.0));
#207=DIRECTION('',(1.0,0.0,0.0));
#208=AXIS2_PLACEMENT_3D('',#205,#206,#207);
#209=CYLINDRICAL_SURFACE('',#208,0.35);
#210=CARTESIAN_POINT('',(2.890000000000001,-3.759295E-016,4.250000000000001));
#211=VERTEX_POINT('',#210);
#212=CARTESIAN_POINT('',(2.890000000000001,-3.330669E-016,1.4));
#213=VERTEX_POINT('',#212);
#214=CARTESIAN_POINT('',(2.890000000000001,-3.330669E-016,4.250000000000001));
#215=DIRECTION('',(0.0,0.0,-1.0));
#216=VECTOR('',#215,2.850000000000001);
#217=LINE('',#214,#216);
#218=EDGE_CURVE('',#211,#213,#217,.T.);
#219=ORIENTED_EDGE('',*,*,#218,.F.);
#220=CARTESIAN_POINT('',(2.19,-3.330669E-016,4.250000000000001));
#221=VERTEX_POINT('',#220);
#222=CARTESIAN_POINT('',(2.540000000000001,-3.330669E-016,4.250000000000001));
#223=DIRECTION('',(0.0,0.0,-1.0));
#224=DIRECTION('',(-1.0,0.0,0.0));
#225=AXIS2_PLACEMENT_3D('',#222,#223,#224);
#226=CIRCLE('',#225,0.35);
#227=EDGE_CURVE('',#221,#211,#226,.T.);
#228=ORIENTED_EDGE('',*,*,#227,.F.);
#229=CARTESIAN_POINT('',(2.19,-2.902043E-016,1.4));
#230=VERTEX_POINT('',#229);
#231=CARTESIAN_POINT('',(2.19,-2.902043E-016,4.250000000000001));
#232=DIRECTION('',(0.0,0.0,-1.0));
#233=VECTOR('',#232,2.850000000000001);
#234=LINE('',#231,#233);
#235=EDGE_CURVE('',#221,#230,#234,.T.);
#236=ORIENTED_EDGE('',*,*,#235,.T.);
#237=CARTESIAN_POINT('',(2.540000000000001,-3.330669E-016,1.4));
#238=DIRECTION('',(0.0,0.0,1.0));
#239=DIRECTION('',(1.0,0.0,0.0));
#240=AXIS2_PLACEMENT_3D('',#237,#238,#239);
#241=CIRCLE('',#240,0.35);
#242=EDGE_CURVE('',#213,#230,#241,.T.);
#243=ORIENTED_EDGE('',*,*,#242,.F.);
#244=EDGE_LOOP('',(#219,#228,#236,#243));
#245=FACE_OUTER_BOUND('',#244,.T.);
#246=ADVANCED_FACE('',(#245),#209,.F.);
#247=CARTESIAN_POINT('',(2.540000000000001,-3.330669E-016,4.325000000000001));
#248=DIRECTION('',(0.0,0.0,1.0));
#249=DIRECTION('',(-1.0,0.0,0.0));
#250=AXIS2_PLACEMENT_3D('',#247,#248,#249);
#251=CONICAL_SURFACE('',#250,0.425,44.999999999999915);
#252=CARTESIAN_POINT('',(2.04,-3.330669E-016,4.400000000000001));
#253=VERTEX_POINT('',#252);
#254=CARTESIAN_POINT('',(2.04,-3.330669E-016,4.400000000000001));
#255=DIRECTION('',(0.707106781186548,0.0,-0.707106781186548));
#256=VECTOR('',#255,0.212132034355965);
#257=LINE('',#254,#256);
#258=EDGE_CURVE('',#253,#221,#257,.T.);
#259=ORIENTED_EDGE('',*,*,#258,.F.);
#260=CARTESIAN_POINT('',(3.040000000000001,-2.718346E-016,4.400000000000001));
#261=VERTEX_POINT('',#260);
#262=CARTESIAN_POINT('',(2.540000000000001,-3.330669E-016,4.400000000000001));
#263=DIRECTION('',(0.0,0.0,1.0));
#264=DIRECTION('',(-1.0,0.0,0.0));
#265=AXIS2_PLACEMENT_3D('',#262,#263,#264);
#266=CIRCLE('',#265,0.5);
#267=EDGE_CURVE('',#253,#261,#266,.T.);
#268=ORIENTED_EDGE('',*,*,#267,.T.);
#269=CARTESIAN_POINT('',(3.040000000000001,-2.718346E-016,4.400000000000001));
#270=DIRECTION('',(-0.707106781186546,-8.659561E-017,-0.707106781186549));
#271=VECTOR('',#270,0.212132034355964);
#272=LINE('',#269,#271);
#273=EDGE_CURVE('',#261,#211,#272,.T.);
#274=ORIENTED_EDGE('',*,*,#273,.T.);
#275=CARTESIAN_POINT('',(2.540000000000001,-3.330669E-016,4.250000000000001));
#276=DIRECTION('',(0.0,0.0,-1.0));
#277=DIRECTION('',(-1.0,0.0,0.0));
#278=AXIS2_PLACEMENT_3D('',#275,#276,#277);
#279=CIRCLE('',#278,0.35);
#280=EDGE_CURVE('',#211,#221,#279,.T.);
#281=ORIENTED_EDGE('',*,*,#280,.T.);
#282=EDGE_LOOP('',(#259,#268,#274,#281));
#283=FACE_OUTER_BOUND('',#282,.T.);
#284=ADVANCED_FACE('',(#283),#251,.F.);
#285=CARTESIAN_POINT('',(2.540000000000001,-3.330669E-016,4.325000000000001));
#286=DIRECTION('',(0.0,0.0,1.0));
#287=DIRECTION('',(-1.0,0.0,0.0));
#288=AXIS2_PLACEMENT_3D('',#285,#286,#287);
#289=CONICAL_SURFACE('',#288,0.425,44.999999999999915);
#290=ORIENTED_EDGE('',*,*,#258,.T.);
#291=ORIENTED_EDGE('',*,*,#227,.T.);
#292=ORIENTED_EDGE('',*,*,#273,.F.);
#293=CARTESIAN_POINT('',(2.540000000000001,-3.330669E-016,4.400000000000001));
#294=DIRECTION('',(0.0,0.0,1.0));
#295=DIRECTION('',(-1.0,0.0,0.0));
#296=AXIS2_PLACEMENT_3D('',#293,#294,#295);
#297=CIRCLE('',#296,0.5);
#298=EDGE_CURVE('',#261,#253,#297,.T.);
#299=ORIENTED_EDGE('',*,*,#298,.T.);
#300=EDGE_LOOP('',(#290,#291,#292,#299));
#301=FACE_OUTER_BOUND('',#300,.T.);
#302=ADVANCED_FACE('',(#301),#289,.F.);
#303=CARTESIAN_POINT('',(2.540000000000001,-3.330669E-016,4.400000000000001));
#304=DIRECTION('',(0.0,0.0,-1.0));
#305=DIRECTION('',(1.0,0.0,0.0));
#306=AXIS2_PLACEMENT_3D('',#303,#304,#305);
#307=CYLINDRICAL_SURFACE('',#306,0.35);
#308=ORIENTED_EDGE('',*,*,#218,.T.);
#309=CARTESIAN_POINT('',(2.540000000000001,-3.330669E-016,1.4));
#310=DIRECTION('',(0.0,0.0,1.0));
#311=DIRECTION('',(1.0,0.0,0.0));
#312=AXIS2_PLACEMENT_3D('',#309,#310,#311);
#313=CIRCLE('',#312,0.35);
#314=EDGE_CURVE('',#230,#213,#313,.T.);
#315=ORIENTED_EDGE('',*,*,#314,.F.);
#316=ORIENTED_EDGE('',*,*,#235,.F.);
#317=ORIENTED_EDGE('',*,*,#280,.F.);
#318=EDGE_LOOP('',(#308,#315,#316,#317));
#319=FACE_OUTER_BOUND('',#318,.T.);
#320=ADVANCED_FACE('',(#319),#307,.F.);
#321=CARTESIAN_POINT('',(2.540000000000001,-2.965910E-016,4.400000000000001));
#322=DIRECTION('',(0.0,0.0,1.0));
#323=DIRECTION('',(1.0,0.0,0.0));
#324=AXIS2_PLACEMENT_3D('',#321,#322,#323);
#325=PLANE('',#324);
#326=ORIENTED_EDGE('',*,*,#200,.T.);
#327=CARTESIAN_POINT('',(2.540000000000001,-2.965910E-016,4.400000000000001));
#328=DIRECTION('',(0.0,0.0,1.0));
#329=DIRECTION('',(1.0,0.0,0.0));
#330=AXIS2_PLACEMENT_3D('',#327,#328,#329);
#331=CIRCLE('',#330,0.55);
#332=EDGE_CURVE('',#188,#171,#331,.T.);
#333=ORIENTED_EDGE('',*,*,#332,.T.);
#334=EDGE_LOOP('',(#326,#333));
#335=FACE_OUTER_BOUND('',#334,.T.);
#336=ORIENTED_EDGE('',*,*,#298,.F.);
#337=ORIENTED_EDGE('',*,*,#267,.F.);
#338=EDGE_LOOP('',(#336,#337));
#339=FACE_BOUND('',#338,.T.);
#340=ADVANCED_FACE('',(#335,#339),#325,.T.);
#341=CARTESIAN_POINT('',(2.540000000000001,-2.965910E-016,4.400000000000001));
#342=DIRECTION('',(0.0,0.0,-1.0));
#343=DIRECTION('',(1.0,0.0,0.0));
#344=AXIS2_PLACEMENT_3D('',#341,#342,#343);
#345=CYLINDRICAL_SURFACE('',#344,0.55);
#346=ORIENTED_EDGE('',*,*,#176,.T.);
#347=ORIENTED_EDGE('',*,*,#332,.F.);
#348=ORIENTED_EDGE('',*,*,#193,.F.);
#349=CARTESIAN_POINT('',(2.540000000000001,-2.965910E-016,1.4));
#350=DIRECTION('',(0.0,0.0,1.0));
#351=DIRECTION('',(1.0,0.0,0.0));
#352=AXIS2_PLACEMENT_3D('',#349,#350,#351);
#353=CIRCLE('',#352,0.55);
#354=EDGE_CURVE('',#179,#169,#353,.T.);
#355=ORIENTED_EDGE('',*,*,#354,.T.);
#356=EDGE_LOOP('',(#346,#347,#348,#355));
#357=FACE_OUTER_BOUND('',#356,.T.);
#358=ADVANCED_FACE('',(#357),#345,.T.);
#359=CARTESIAN_POINT('',(2.540000000000001,-2.965910E-016,1.4));
#360=DIRECTION('',(0.0,0.0,1.0));
#361=DIRECTION('',(1.0,0.0,0.0));
#362=AXIS2_PLACEMENT_3D('',#359,#360,#361);
#363=PLANE('',#362);
#364=ORIENTED_EDGE('',*,*,#185,.F.);
#365=ORIENTED_EDGE('',*,*,#354,.F.);
#366=EDGE_LOOP('',(#364,#365));
#367=FACE_OUTER_BOUND('',#366,.T.);
#368=ORIENTED_EDGE('',*,*,#242,.T.);
#369=ORIENTED_EDGE('',*,*,#314,.T.);
#370=EDGE_LOOP('',(#368,#369));
#371=FACE_BOUND('',#370,.T.);
#372=ADVANCED_FACE('',(#367,#371),#363,.F.);
#373=CLOSED_SHELL('',(#204,#246,#284,#302,#320,#340,#358,#372));
#374=MANIFOLD_SOLID_BREP('1C3C',#373);
#375=COLOUR_RGB('40',1.0,0.75,0.0);
#376=SURFACE_STYLE_USAGE(.BOTH.,#377);
#377=SURFACE_SIDE_STYLE('NONE',(#378));
#378=SURFACE_STYLE_FILL_AREA(#379);
#379=FILL_AREA_STYLE('NONE',(#380));
#380=FILL_AREA_STYLE_COLOUR('NONE',#375);
#381=PRESENTATION_STYLE_ASSIGNMENT((#376));
#382=STYLED_ITEM('NONE',(#381),#374);
#383=CARTESIAN_POINT('',(-2.54,-2.965910E-016,4.400000000000001));
#384=DIRECTION('',(0.0,0.0,-1.0));
#385=DIRECTION('',(1.0,0.0,0.0));
#386=AXIS2_PLACEMENT_3D('',#383,#384,#385);
#387=CYLINDRICAL_SURFACE('',#386,0.55);
#388=CARTESIAN_POINT('',(-1.99,-2.965910E-016,1.4));
#389=VERTEX_POINT('',#388);
#390=CARTESIAN_POINT('',(-1.99,-2.965910E-016,4.400000000000001));
#391=VERTEX_POINT('',#390);
#392=CARTESIAN_POINT('',(-1.99,-2.965910E-016,1.4));
#393=DIRECTION('',(0.0,0.0,1.0));
#394=VECTOR('',#393,3.000000000000001);
#395=LINE('',#392,#394);
#396=EDGE_CURVE('',#389,#391,#395,.T.);
#397=ORIENTED_EDGE('',*,*,#396,.F.);
#398=CARTESIAN_POINT('',(-3.09,-2.292355E-016,1.4));
#399=VERTEX_POINT('',#398);
#400=CARTESIAN_POINT('',(-2.54,-2.965910E-016,1.4));
#401=DIRECTION('',(0.0,0.0,1.0));
#402=DIRECTION('',(1.0,0.0,0.0));
#403=AXIS2_PLACEMENT_3D('',#400,#401,#402);
#404=CIRCLE('',#403,0.55);
#405=EDGE_CURVE('',#389,#399,#404,.T.);
#406=ORIENTED_EDGE('',*,*,#405,.T.);
#407=CARTESIAN_POINT('',(-3.09,-2.292355E-016,4.400000000000001));
#408=VERTEX_POINT('',#407);
#409=CARTESIAN_POINT('',(-3.09,-2.292355E-016,1.4));
#410=DIRECTION('',(0.0,0.0,1.0));
#411=VECTOR('',#410,3.000000000000001);
#412=LINE('',#409,#411);
#413=EDGE_CURVE('',#399,#408,#412,.T.);
#414=ORIENTED_EDGE('',*,*,#413,.T.);
#415=CARTESIAN_POINT('',(-2.54,-2.965910E-016,4.400000000000001));
#416=DIRECTION('',(0.0,0.0,1.0));
#417=DIRECTION('',(1.0,0.0,0.0));
#418=AXIS2_PLACEMENT_3D('',#415,#416,#417);
#419=CIRCLE('',#418,0.55);
#420=EDGE_CURVE('',#391,#408,#419,.T.);
#421=ORIENTED_EDGE('',*,*,#420,.F.);
#422=EDGE_LOOP('',(#397,#406,#414,#421));
#423=FACE_OUTER_BOUND('',#422,.T.);
#424=ADVANCED_FACE('',(#423),#387,.T.);
#425=CARTESIAN_POINT('',(-2.536462373892762,-2.965910E-016,4.4));
#426=DIRECTION('',(0.0,0.0,-1.0));
#427=DIRECTION('',(1.0,0.0,0.0));
#428=AXIS2_PLACEMENT_3D('',#425,#426,#427);
#429=CYLINDRICAL_SURFACE('',#428,0.35);
#430=CARTESIAN_POINT('',(-2.186462373892762,-3.394537E-016,4.250000000000001));
#431=VERTEX_POINT('',#430);
#432=CARTESIAN_POINT('',(-2.186462373892762,-2.965910E-016,1.4));
#433=VERTEX_POINT('',#432);
#434=CARTESIAN_POINT('',(-2.186462373892762,-2.965910E-016,4.250000000000001));
#435=DIRECTION('',(0.0,0.0,-1.0));
#436=VECTOR('',#435,2.850000000000001);
#437=LINE('',#434,#436);
#438=EDGE_CURVE('',#431,#433,#437,.T.);
#439=ORIENTED_EDGE('',*,*,#438,.F.);
#440=CARTESIAN_POINT('',(-2.886462373892762,-2.965910E-016,4.250000000000001));
#441=VERTEX_POINT('',#440);
#442=CARTESIAN_POINT('',(-2.536462373892762,-2.965910E-016,4.250000000000001));
#443=DIRECTION('',(0.0,0.0,-1.0));
#444=DIRECTION('',(-1.0,0.0,0.0));
#445=AXIS2_PLACEMENT_3D('',#442,#443,#444);
#446=CIRCLE('',#445,0.35);
#447=EDGE_CURVE('',#441,#431,#446,.T.);
#448=ORIENTED_EDGE('',*,*,#447,.F.);
#449=CARTESIAN_POINT('',(-2.886462373892762,-2.537284E-016,1.399999999999999));
#450=VERTEX_POINT('',#449);
#451=CARTESIAN_POINT('',(-2.886462373892762,-2.537284E-016,4.250000000000001));
#452=DIRECTION('',(0.0,0.0,-1.0));
#453=VECTOR('',#452,2.850000000000001);
#454=LINE('',#451,#453);
#455=EDGE_CURVE('',#441,#450,#454,.T.);
#456=ORIENTED_EDGE('',*,*,#455,.T.);
#457=CARTESIAN_POINT('',(-2.536462373892762,-2.965910E-016,1.4));
#458=DIRECTION('',(0.0,0.0,1.0));
#459=DIRECTION('',(1.0,0.0,0.0));
#460=AXIS2_PLACEMENT_3D('',#457,#458,#459);
#461=CIRCLE('',#460,0.35);
#462=EDGE_CURVE('',#433,#450,#461,.T.);
#463=ORIENTED_EDGE('',*,*,#462,.F.);
#464=EDGE_LOOP('',(#439,#448,#456,#463));
#465=FACE_OUTER_BOUND('',#464,.T.);
#466=ADVANCED_FACE('',(#465),#429,.F.);
#467=CARTESIAN_POINT('',(-2.536462373892762,-2.965910E-016,4.325000000000001));
#468=DIRECTION('',(0.0,0.0,1.0));
#469=DIRECTION('',(-1.0,0.0,0.0));
#470=AXIS2_PLACEMENT_3D('',#467,#468,#469);
#471=CONICAL_SURFACE('',#470,0.425,44.999999999999915);
#472=CARTESIAN_POINT('',(-3.036462373892762,-2.965910E-016,4.400000000000001));
#473=VERTEX_POINT('',#472);
#474=CARTESIAN_POINT('',(-3.036462373892762,-2.965910E-016,4.400000000000001));
#475=DIRECTION('',(0.707106781186546,0.0,-0.707106781186549));
#476=VECTOR('',#475,0.212132034355964);
#477=LINE('',#474,#476);
#478=EDGE_CURVE('',#473,#441,#477,.T.);
#479=ORIENTED_EDGE('',*,*,#478,.F.);
#480=CARTESIAN_POINT('',(-2.036462373892762,-2.353587E-016,4.400000000000001));
#481=VERTEX_POINT('',#480);
#482=CARTESIAN_POINT('',(-2.536462373892762,-2.965910E-016,4.400000000000001));
#483=DIRECTION('',(0.0,0.0,1.0));
#484=DIRECTION('',(-1.0,0.0,0.0));
#485=AXIS2_PLACEMENT_3D('',#482,#483,#484);
#486=CIRCLE('',#485,0.5);
#487=EDGE_CURVE('',#473,#481,#486,.T.);
#488=ORIENTED_EDGE('',*,*,#487,.T.);
#489=CARTESIAN_POINT('',(-2.036462373892762,-2.353587E-016,4.400000000000001));
#490=DIRECTION('',(-0.707106781186546,-8.659561E-017,-0.707106781186549));
#491=VECTOR('',#490,0.212132034355964);
#492=LINE('',#489,#491);
#493=EDGE_CURVE('',#481,#431,#492,.T.);
#494=ORIENTED_EDGE('',*,*,#493,.T.);
#495=CARTESIAN_POINT('',(-2.536462373892762,-2.965910E-016,4.250000000000001));
#496=DIRECTION('',(0.0,0.0,-1.0));
#497=DIRECTION('',(-1.0,0.0,0.0));
#498=AXIS2_PLACEMENT_3D('',#495,#496,#497);
#499=CIRCLE('',#498,0.35);
#500=EDGE_CURVE('',#431,#441,#499,.T.);
#501=ORIENTED_EDGE('',*,*,#500,.T.);
#502=EDGE_LOOP('',(#479,#488,#494,#501));
#503=FACE_OUTER_BOUND('',#502,.T.);
#504=ADVANCED_FACE('',(#503),#471,.F.);
#505=CARTESIAN_POINT('',(-2.536462373892762,-2.965910E-016,4.325000000000001));
#506=DIRECTION('',(0.0,0.0,1.0));
#507=DIRECTION('',(-1.0,0.0,0.0));
#508=AXIS2_PLACEMENT_3D('',#505,#506,#507);
#509=CONICAL_SURFACE('',#508,0.425,44.999999999999915);
#510=ORIENTED_EDGE('',*,*,#478,.T.);
#511=ORIENTED_EDGE('',*,*,#447,.T.);
#512=ORIENTED_EDGE('',*,*,#493,.F.);
#513=CARTESIAN_POINT('',(-2.536462373892762,-2.965910E-016,4.400000000000001));
#514=DIRECTION('',(0.0,0.0,1.0));
#515=DIRECTION('',(-1.0,0.0,0.0));
#516=AXIS2_PLACEMENT_3D('',#513,#514,#515);
#517=CIRCLE('',#516,0.5);
#518=EDGE_CURVE('',#481,#473,#517,.T.);
#519=ORIENTED_EDGE('',*,*,#518,.T.);
#520=EDGE_LOOP('',(#510,#511,#512,#519));
#521=FACE_OUTER_BOUND('',#520,.T.);
#522=ADVANCED_FACE('',(#521),#509,.F.);
#523=CARTESIAN_POINT('',(-2.536462373892762,-2.965910E-016,4.4));
#524=DIRECTION('',(0.0,0.0,-1.0));
#525=DIRECTION('',(1.0,0.0,0.0));
#526=AXIS2_PLACEMENT_3D('',#523,#524,#525);
#527=CYLINDRICAL_SURFACE('',#526,0.35);
#528=ORIENTED_EDGE('',*,*,#438,.T.);
#529=CARTESIAN_POINT('',(-2.536462373892762,-2.965910E-016,1.4));
#530=DIRECTION('',(0.0,0.0,1.0));
#531=DIRECTION('',(1.0,0.0,0.0));
#532=AXIS2_PLACEMENT_3D('',#529,#530,#531);
#533=CIRCLE('',#532,0.35);
#534=EDGE_CURVE('',#450,#433,#533,.T.);
#535=ORIENTED_EDGE('',*,*,#534,.F.);
#536=ORIENTED_EDGE('',*,*,#455,.F.);
#537=ORIENTED_EDGE('',*,*,#500,.F.);
#538=EDGE_LOOP('',(#528,#535,#536,#537));
#539=FACE_OUTER_BOUND('',#538,.T.);
#540=ADVANCED_FACE('',(#539),#527,.F.);
#541=CARTESIAN_POINT('',(-2.54,-2.965910E-016,4.400000000000001));
#542=DIRECTION('',(0.0,0.0,1.0));
#543=DIRECTION('',(1.0,0.0,0.0));
#544=AXIS2_PLACEMENT_3D('',#541,#542,#543);
#545=PLANE('',#544);
#546=ORIENTED_EDGE('',*,*,#420,.T.);
#547=CARTESIAN_POINT('',(-2.54,-2.965910E-016,4.400000000000001));
#548=DIRECTION('',(0.0,0.0,1.0));
#549=DIRECTION('',(1.0,0.0,0.0));
#550=AXIS2_PLACEMENT_3D('',#547,#548,#549);
#551=CIRCLE('',#550,0.55);
#552=EDGE_CURVE('',#408,#391,#551,.T.);
#553=ORIENTED_EDGE('',*,*,#552,.T.);
#554=EDGE_LOOP('',(#546,#553));
#555=FACE_OUTER_BOUND('',#554,.T.);
#556=ORIENTED_EDGE('',*,*,#518,.F.);
#557=ORIENTED_EDGE('',*,*,#487,.F.);
#558=EDGE_LOOP('',(#556,#557));
#559=FACE_BOUND('',#558,.T.);
#560=ADVANCED_FACE('',(#555,#559),#545,.T.);
#561=CARTESIAN_POINT('',(-2.54,-2.965910E-016,4.400000000000001));
#562=DIRECTION('',(0.0,0.0,-1.0));
#563=DIRECTION('',(1.0,0.0,0.0));
#564=AXIS2_PLACEMENT_3D('',#561,#562,#563);
#565=CYLINDRICAL_SURFACE('',#564,0.55);
#566=ORIENTED_EDGE('',*,*,#396,.T.);
#567=ORIENTED_EDGE('',*,*,#552,.F.);
#568=ORIENTED_EDGE('',*,*,#413,.F.);
#569=CARTESIAN_POINT('',(-2.54,-2.965910E-016,1.4));
#570=DIRECTION('',(0.0,0.0,1.0));
#571=DIRECTION('',(1.0,0.0,0.0));
#572=AXIS2_PLACEMENT_3D('',#569,#570,#571);
#573=CIRCLE('',#572,0.55);
#574=EDGE_CURVE('',#399,#389,#573,.T.);
#575=ORIENTED_EDGE('',*,*,#574,.T.);
#576=EDGE_LOOP('',(#566,#567,#568,#575));
#577=FACE_OUTER_BOUND('',#576,.T.);
#578=ADVANCED_FACE('',(#577),#565,.T.);
#579=CARTESIAN_POINT('',(-2.54,-2.965910E-016,1.4));
#580=DIRECTION('',(0.0,0.0,1.0));
#581=DIRECTION('',(1.0,0.0,0.0));
#582=AXIS2_PLACEMENT_3D('',#579,#580,#581);
#583=PLANE('',#582);
#584=ORIENTED_EDGE('',*,*,#405,.F.);
#585=ORIENTED_EDGE('',*,*,#574,.F.);
#586=EDGE_LOOP('',(#584,#585));
#587=FACE_OUTER_BOUND('',#586,.T.);
#588=ORIENTED_EDGE('',*,*,#534,.T.);
#589=ORIENTED_EDGE('',*,*,#462,.T.);
#590=EDGE_LOOP('',(#588,#589));
#591=FACE_BOUND('',#590,.T.);
#592=ADVANCED_FACE('',(#587,#591),#583,.F.);
#593=CLOSED_SHELL('',(#424,#466,#504,#522,#540,#560,#578,#592));
#594=MANIFOLD_SOLID_BREP('1C11',#593);
#595=STYLED_ITEM('NONE',(#381),#594);
#596=CARTESIAN_POINT('',(2.54,3.747003E-016,-3.2));
#597=DIRECTION('',(0.0,0.0,1.0));
#598=DIRECTION('',(1.0,0.0,0.0));
#599=AXIS2_PLACEMENT_3D('',#596,#597,#598);
#600=CYLINDRICAL_SURFACE('',#599,0.25);
#601=CARTESIAN_POINT('',(2.79,3.747003E-016,0.0));
#602=VERTEX_POINT('',#601);
#603=CARTESIAN_POINT('',(2.79,3.747003E-016,-3.2));
#604=VERTEX_POINT('',#603);
#605=CARTESIAN_POINT('',(2.79,3.747003E-016,0.0));
#606=DIRECTION('',(0.0,0.0,-1.0));
#607=VECTOR('',#606,3.2);
#608=LINE('',#605,#607);
#609=EDGE_CURVE('',#602,#604,#608,.T.);
#610=ORIENTED_EDGE('',*,*,#609,.F.);
#611=CARTESIAN_POINT('',(2.29,3.440841E-016,0.0));
#612=VERTEX_POINT('',#611);
#613=CARTESIAN_POINT('',(2.54,3.747003E-016,0.0));
#614=DIRECTION('',(0.0,0.0,-1.0));
#615=DIRECTION('',(1.0,0.0,0.0));
#616=AXIS2_PLACEMENT_3D('',#613,#614,#615);
#617=CIRCLE('',#616,0.25);
#618=EDGE_CURVE('',#602,#612,#617,.T.);
#619=ORIENTED_EDGE('',*,*,#618,.T.);
#620=CARTESIAN_POINT('',(2.29,3.440841E-016,-3.2));
#621=VERTEX_POINT('',#620);
#622=CARTESIAN_POINT('',(2.29,3.440841E-016,0.0));
#623=DIRECTION('',(0.0,0.0,-1.0));
#624=VECTOR('',#623,3.2);
#625=LINE('',#622,#624);
#626=EDGE_CURVE('',#612,#621,#625,.T.);
#627=ORIENTED_EDGE('',*,*,#626,.T.);
#628=CARTESIAN_POINT('',(2.54,3.747003E-016,-3.2));
#629=DIRECTION('',(0.0,0.0,1.0));
#630=DIRECTION('',(1.0,0.0,0.0));
#631=AXIS2_PLACEMENT_3D('',#628,#629,#630);
#632=CIRCLE('',#631,0.25);
#633=EDGE_CURVE('',#621,#604,#632,.T.);
#634=ORIENTED_EDGE('',*,*,#633,.T.);
#635=EDGE_LOOP('',(#610,#619,#627,#634));
#636=FACE_OUTER_BOUND('',#635,.T.);
#637=ADVANCED_FACE('',(#636),#600,.T.);
#638=CARTESIAN_POINT('',(2.54,3.747003E-016,-3.2));
#639=DIRECTION('',(0.0,0.0,1.0));
#640=DIRECTION('',(1.0,0.0,0.0));
#641=AXIS2_PLACEMENT_3D('',#638,#639,#640);
#642=CYLINDRICAL_SURFACE('',#641,0.25);
#643=ORIENTED_EDGE('',*,*,#609,.T.);
#644=CARTESIAN_POINT('',(2.54,3.747003E-016,-3.2));
#645=DIRECTION('',(0.0,0.0,1.0));
#646=DIRECTION('',(1.0,0.0,0.0));
#647=AXIS2_PLACEMENT_3D('',#644,#645,#646);
#648=CIRCLE('',#647,0.25);
#649=EDGE_CURVE('',#604,#621,#648,.T.);
#650=ORIENTED_EDGE('',*,*,#649,.T.);
#651=ORIENTED_EDGE('',*,*,#626,.F.);
#652=CARTESIAN_POINT('',(2.54,3.747003E-016,0.0));
#653=DIRECTION('',(0.0,0.0,-1.0));
#654=DIRECTION('',(1.0,0.0,0.0));
#655=AXIS2_PLACEMENT_3D('',#652,#653,#654);
#656=CIRCLE('',#655,0.25);
#657=EDGE_CURVE('',#612,#602,#656,.T.);
#658=ORIENTED_EDGE('',*,*,#657,.T.);
#659=EDGE_LOOP('',(#643,#650,#651,#658));
#660=FACE_OUTER_BOUND('',#659,.T.);
#661=ADVANCED_FACE('',(#660),#642,.T.);
#662=CARTESIAN_POINT('',(2.54,3.747003E-016,-3.2));
#663=DIRECTION('',(0.0,0.0,1.0));
#664=DIRECTION('',(1.0,0.0,0.0));
#665=AXIS2_PLACEMENT_3D('',#662,#663,#664);
#666=PLANE('',#665);
#667=ORIENTED_EDGE('',*,*,#649,.F.);
#668=ORIENTED_EDGE('',*,*,#633,.F.);
#669=EDGE_LOOP('',(#667,#668));
#670=FACE_OUTER_BOUND('',#669,.T.);
#671=ADVANCED_FACE('',(#670),#666,.F.);
#672=CARTESIAN_POINT('',(2.54,3.747003E-016,0.0));
#673=DIRECTION('',(0.0,0.0,1.0));
#674=DIRECTION('',(1.0,0.0,0.0));
#675=AXIS2_PLACEMENT_3D('',#672,#673,#674);
#676=PLANE('',#675);
#677=ORIENTED_EDGE('',*,*,#618,.F.);
#678=ORIENTED_EDGE('',*,*,#657,.F.);
#679=EDGE_LOOP('',(#677,#678));
#680=FACE_OUTER_BOUND('',#679,.T.);
#681=ADVANCED_FACE('',(#680),#676,.T.);
#682=CLOSED_SHELL('',(#637,#661,#671,#681));
#683=MANIFOLD_SOLID_BREP('1C0B',#682);
#684=COLOUR_RGB('254',0.866,0.866,0.866);
#685=SURFACE_STYLE_USAGE(.BOTH.,#686);
#686=SURFACE_SIDE_STYLE('NONE',(#687));
#687=SURFACE_STYLE_FILL_AREA(#688);
#688=FILL_AREA_STYLE('NONE',(#689));
#689=FILL_AREA_STYLE_COLOUR('NONE',#684);
#690=PRESENTATION_STYLE_ASSIGNMENT((#685));
#691=STYLED_ITEM('NONE',(#690),#683);
#692=CARTESIAN_POINT('',(-2.54,-7.632783E-016,-3.2));
#693=DIRECTION('',(0.0,0.0,1.0));
#694=DIRECTION('',(1.0,0.0,0.0));
#695=AXIS2_PLACEMENT_3D('',#692,#693,#694);
#696=CYLINDRICAL_SURFACE('',#695,0.25);
#697=CARTESIAN_POINT('',(-2.29,-7.632783E-016,0.0));
#698=VERTEX_POINT('',#697);
#699=CARTESIAN_POINT('',(-2.29,-7.632783E-016,-3.2));
#700=VERTEX_POINT('',#699);
#701=CARTESIAN_POINT('',(-2.29,-7.632783E-016,0.0));
#702=DIRECTION('',(0.0,0.0,-1.0));
#703=VECTOR('',#702,3.2);
#704=LINE('',#701,#703);
#705=EDGE_CURVE('',#698,#700,#704,.T.);
#706=ORIENTED_EDGE('',*,*,#705,.F.);
#707=CARTESIAN_POINT('',(-2.79,-7.938945E-016,0.0));
#708=VERTEX_POINT('',#707);
#709=CARTESIAN_POINT('',(-2.54,-7.632783E-016,0.0));
#710=DIRECTION('',(0.0,0.0,-1.0));
#711=DIRECTION('',(1.0,0.0,0.0));
#712=AXIS2_PLACEMENT_3D('',#709,#710,#711);
#713=CIRCLE('',#712,0.25);
#714=EDGE_CURVE('',#698,#708,#713,.T.);
#715=ORIENTED_EDGE('',*,*,#714,.T.);
#716=CARTESIAN_POINT('',(-2.79,-7.938945E-016,-3.2));
#717=VERTEX_POINT('',#716);
#718=CARTESIAN_POINT('',(-2.79,-7.938945E-016,0.0));
#719=DIRECTION('',(0.0,0.0,-1.0));
#720=VECTOR('',#719,3.2);
#721=LINE('',#718,#720);
#722=EDGE_CURVE('',#708,#717,#721,.T.);
#723=ORIENTED_EDGE('',*,*,#722,.T.);
#724=CARTESIAN_POINT('',(-2.54,-7.632783E-016,-3.2));
#725=DIRECTION('',(0.0,0.0,1.0));
#726=DIRECTION('',(1.0,0.0,0.0));
#727=AXIS2_PLACEMENT_3D('',#724,#725,#726);
#728=CIRCLE('',#727,0.25);
#729=EDGE_CURVE('',#717,#700,#728,.T.);
#730=ORIENTED_EDGE('',*,*,#729,.T.);
#731=EDGE_LOOP('',(#706,#715,#723,#730));
#732=FACE_OUTER_BOUND('',#731,.T.);
#733=ADVANCED_FACE('',(#732),#696,.T.);
#734=CARTESIAN_POINT('',(-2.54,-7.632783E-016,-3.2));
#735=DIRECTION('',(0.0,0.0,1.0));
#736=DIRECTION('',(1.0,0.0,0.0));
#737=AXIS2_PLACEMENT_3D('',#734,#735,#736);
#738=CYLINDRICAL_SURFACE('',#737,0.25);
#739=ORIENTED_EDGE('',*,*,#705,.T.);
#740=CARTESIAN_POINT('',(-2.54,-7.632783E-016,-3.2));
#741=DIRECTION('',(0.0,0.0,1.0));
#742=DIRECTION('',(1.0,0.0,0.0));
#743=AXIS2_PLACEMENT_3D('',#740,#741,#742);
#744=CIRCLE('',#743,0.25);
#745=EDGE_CURVE('',#700,#717,#744,.T.);
#746=ORIENTED_EDGE('',*,*,#745,.T.);
#747=ORIENTED_EDGE('',*,*,#722,.F.);
#748=CARTESIAN_POINT('',(-2.54,-7.632783E-016,0.0));
#749=DIRECTION('',(0.0,0.0,-1.0));
#750=DIRECTION('',(1.0,0.0,0.0));
#751=AXIS2_PLACEMENT_3D('',#748,#749,#750);
#752=CIRCLE('',#751,0.25);
#753=EDGE_CURVE('',#708,#698,#752,.T.);
#754=ORIENTED_EDGE('',*,*,#753,.T.);
#755=EDGE_LOOP('',(#739,#746,#747,#754));
#756=FACE_OUTER_BOUND('',#755,.T.);
#757=ADVANCED_FACE('',(#756),#738,.T.);
#758=CARTESIAN_POINT('',(-2.54,-7.632783E-016,-3.2));
#759=DIRECTION('',(0.0,0.0,1.0));
#760=DIRECTION('',(1.0,0.0,0.0));
#761=AXIS2_PLACEMENT_3D('',#758,#759,#760);
#762=PLANE('',#761);
#763=ORIENTED_EDGE('',*,*,#745,.F.);
#764=ORIENTED_EDGE('',*,*,#729,.F.);
#765=EDGE_LOOP('',(#763,#764));
#766=FACE_OUTER_BOUND('',#765,.T.);
#767=ADVANCED_FACE('',(#766),#762,.F.);
#768=CARTESIAN_POINT('',(-2.54,-7.632783E-016,0.0));
#769=DIRECTION('',(0.0,0.0,1.0));
#770=DIRECTION('',(1.0,0.0,0.0));
#771=AXIS2_PLACEMENT_3D('',#768,#769,#770);
#772=PLANE('',#771);
#773=ORIENTED_EDGE('',*,*,#714,.F.);
#774=ORIENTED_EDGE('',*,*,#753,.F.);
#775=EDGE_LOOP('',(#773,#774));
#776=FACE_OUTER_BOUND('',#775,.T.);
#777=ADVANCED_FACE('',(#776),#772,.T.);
#778=CLOSED_SHELL('',(#733,#757,#767,#777));
#779=MANIFOLD_SOLID_BREP('1C07',#778);
#780=STYLED_ITEM('NONE',(#690),#779);
#781=CARTESIAN_POINT('',(4.25,9.714451E-016,0.1));
#782=DIRECTION('',(0.0,0.0,1.0));
#783=DIRECTION('',(1.0,0.0,0.0));
#784=AXIS2_PLACEMENT_3D('',#781,#782,#783);
#785=CYLINDRICAL_SURFACE('',#784,0.5);
#786=CARTESIAN_POINT('',(4.75,9.714451E-016,1.4));
#787=VERTEX_POINT('',#786);
#788=CARTESIAN_POINT('',(4.75,9.714451E-016,0.1));
#789=VERTEX_POINT('',#788);
#790=CARTESIAN_POINT('',(4.75,9.714451E-016,1.4));
#791=DIRECTION('',(0.0,0.0,-1.0));
#792=VECTOR('',#791,1.3);
#793=LINE('',#790,#792);
#794=EDGE_CURVE('',#787,#789,#793,.T.);
#795=ORIENTED_EDGE('',*,*,#794,.F.);
#796=CARTESIAN_POINT('',(3.75,9.102128E-016,1.4));
#797=VERTEX_POINT('',#796);
#798=CARTESIAN_POINT('',(4.25,9.714451E-016,1.4));
#799=DIRECTION('',(0.0,0.0,-1.0));
#800=DIRECTION('',(1.0,0.0,0.0));
#801=AXIS2_PLACEMENT_3D('',#798,#799,#800);
#802=CIRCLE('',#801,0.5);
#803=EDGE_CURVE('',#787,#797,#802,.T.);
#804=ORIENTED_EDGE('',*,*,#803,.T.);
#805=CARTESIAN_POINT('',(3.75,9.102128E-016,0.1));
#806=VERTEX_POINT('',#805);
#807=CARTESIAN_POINT('',(3.75,9.102128E-016,1.4));
#808=DIRECTION('',(0.0,0.0,-1.0));
#809=VECTOR('',#808,1.3);
#810=LINE('',#807,#809);
#811=EDGE_CURVE('',#797,#806,#810,.T.);
#812=ORIENTED_EDGE('',*,*,#811,.T.);
#813=CARTESIAN_POINT('',(4.25,9.714451E-016,0.1));
#814=DIRECTION('',(0.0,0.0,1.0));
#815=DIRECTION('',(1.0,0.0,0.0));
#816=AXIS2_PLACEMENT_3D('',#813,#814,#815);
#817=CIRCLE('',#816,0.5);
#818=EDGE_CURVE('',#806,#789,#817,.T.);
#819=ORIENTED_EDGE('',*,*,#818,.T.);
#820=EDGE_LOOP('',(#795,#804,#812,#819));
#821=FACE_OUTER_BOUND('',#820,.T.);
#822=ADVANCED_FACE('',(#821),#785,.T.);
#823=CARTESIAN_POINT('',(4.25,9.714451E-016,0.1));
#824=DIRECTION('',(0.0,0.0,1.0));
#825=DIRECTION('',(1.0,0.0,0.0));
#826=AXIS2_PLACEMENT_3D('',#823,#824,#825);
#827=CYLINDRICAL_SURFACE('',#826,0.5);
#828=ORIENTED_EDGE('',*,*,#794,.T.);
#829=CARTESIAN_POINT('',(4.25,9.714451E-016,0.1));
#830=DIRECTION('',(0.0,0.0,1.0));
#831=DIRECTION('',(1.0,0.0,0.0));
#832=AXIS2_PLACEMENT_3D('',#829,#830,#831);
#833=CIRCLE('',#832,0.5);
#834=EDGE_CURVE('',#789,#806,#833,.T.);
#835=ORIENTED_EDGE('',*,*,#834,.T.);
#836=ORIENTED_EDGE('',*,*,#811,.F.);
#837=CARTESIAN_POINT('',(4.25,9.714451E-016,1.4));
#838=DIRECTION('',(0.0,0.0,-1.0));
#839=DIRECTION('',(1.0,0.0,0.0));
#840=AXIS2_PLACEMENT_3D('',#837,#838,#839);
#841=CIRCLE('',#840,0.5);
#842=EDGE_CURVE('',#797,#787,#841,.T.);
#843=ORIENTED_EDGE('',*,*,#842,.T.);
#844=EDGE_LOOP('',(#828,#835,#836,#843));
#845=FACE_OUTER_BOUND('',#844,.T.);
#846=ADVANCED_FACE('',(#845),#827,.T.);
#847=CARTESIAN_POINT('',(4.25,9.714451E-016,0.1));
#848=DIRECTION('',(0.0,0.0,1.0));
#849=DIRECTION('',(1.0,0.0,0.0));
#850=AXIS2_PLACEMENT_3D('',#847,#848,#849);
#851=PLANE('',#850);
#852=ORIENTED_EDGE('',*,*,#834,.F.);
#853=ORIENTED_EDGE('',*,*,#818,.F.);
#854=EDGE_LOOP('',(#852,#853));
#855=FACE_OUTER_BOUND('',#854,.T.);
#856=ADVANCED_FACE('',(#855),#851,.F.);
#857=CARTESIAN_POINT('',(4.25,9.714451E-016,1.4));
#858=DIRECTION('',(0.0,0.0,1.0));
#859=DIRECTION('',(1.0,0.0,0.0));
#860=AXIS2_PLACEMENT_3D('',#857,#858,#859);
#861=PLANE('',#860);
#862=ORIENTED_EDGE('',*,*,#803,.F.);
#863=ORIENTED_EDGE('',*,*,#842,.F.);
#864=EDGE_LOOP('',(#862,#863));
#865=FACE_OUTER_BOUND('',#864,.T.);
#866=ADVANCED_FACE('',(#865),#861,.T.);
#867=CLOSED_SHELL('',(#822,#846,#856,#866));
#868=MANIFOLD_SOLID_BREP('1C03',#867);
#869=STYLED_ITEM('NONE',(#159),#868);
#870=CARTESIAN_POINT('',(2.54,7.340318E-016,0.0));
#871=DIRECTION('',(0.0,0.0,1.0));
#872=DIRECTION('',(1.0,0.0,0.0));
#873=AXIS2_PLACEMENT_3D('',#870,#871,#872);
#874=CYLINDRICAL_SURFACE('',#873,0.55);
#875=CARTESIAN_POINT('',(3.09,7.340318E-016,1.4));
#876=VERTEX_POINT('',#875);
#877=CARTESIAN_POINT('',(3.09,7.340318E-016,0.0));
#878=VERTEX_POINT('',#877);
#879=CARTESIAN_POINT('',(3.09,7.340318E-016,1.4));
#880=DIRECTION('',(0.0,0.0,-1.0));
#881=VECTOR('',#880,1.4);
#882=LINE('',#879,#881);
#883=EDGE_CURVE('',#876,#878,#882,.T.);
#884=ORIENTED_EDGE('',*,*,#883,.F.);
#885=CARTESIAN_POINT('',(1.989999999999999,6.666762E-016,1.4));
#886=VERTEX_POINT('',#885);
#887=CARTESIAN_POINT('',(2.54,7.340318E-016,1.4));
#888=DIRECTION('',(0.0,0.0,-1.0));
#889=DIRECTION('',(1.0,0.0,0.0));
#890=AXIS2_PLACEMENT_3D('',#887,#888,#889);
#891=CIRCLE('',#890,0.55);
#892=EDGE_CURVE('',#876,#886,#891,.T.);
#893=ORIENTED_EDGE('',*,*,#892,.T.);
#894=CARTESIAN_POINT('',(1.989999999999999,6.666762E-016,0.0));
#895=VERTEX_POINT('',#894);
#896=CARTESIAN_POINT('',(1.989999999999999,6.666762E-016,1.4));
#897=DIRECTION('',(0.0,0.0,-1.0));
#898=VECTOR('',#897,1.4);
#899=LINE('',#896,#898);
#900=EDGE_CURVE('',#886,#895,#899,.T.);
#901=ORIENTED_EDGE('',*,*,#900,.T.);
#902=CARTESIAN_POINT('',(2.54,7.340318E-016,0.0));
#903=DIRECTION('',(0.0,0.0,1.0));
#904=DIRECTION('',(1.0,0.0,0.0));
#905=AXIS2_PLACEMENT_3D('',#902,#903,#904);
#906=CIRCLE('',#905,0.55);
#907=EDGE_CURVE('',#895,#878,#906,.T.);
#908=ORIENTED_EDGE('',*,*,#907,.T.);
#909=EDGE_LOOP('',(#884,#893,#901,#908));
#910=FACE_OUTER_BOUND('',#909,.T.);
#911=ADVANCED_FACE('',(#910),#874,.T.);
#912=CARTESIAN_POINT('',(2.54,7.340318E-016,0.0));
#913=DIRECTION('',(0.0,0.0,1.0));
#914=DIRECTION('',(1.0,0.0,0.0));
#915=AXIS2_PLACEMENT_3D('',#912,#913,#914);
#916=CYLINDRICAL_SURFACE('',#915,0.55);
#917=ORIENTED_EDGE('',*,*,#883,.T.);
#918=CARTESIAN_POINT('',(2.54,7.340318E-016,0.0));
#919=DIRECTION('',(0.0,0.0,1.0));
#920=DIRECTION('',(1.0,0.0,0.0));
#921=AXIS2_PLACEMENT_3D('',#918,#919,#920);
#922=CIRCLE('',#921,0.55);
#923=EDGE_CURVE('',#878,#895,#922,.T.);
#924=ORIENTED_EDGE('',*,*,#923,.T.);
#925=ORIENTED_EDGE('',*,*,#900,.F.);
#926=CARTESIAN_POINT('',(2.54,7.340318E-016,1.4));
#927=DIRECTION('',(0.0,0.0,-1.0));
#928=DIRECTION('',(1.0,0.0,0.0));
#929=AXIS2_PLACEMENT_3D('',#926,#927,#928);
#930=CIRCLE('',#929,0.55);
#931=EDGE_CURVE('',#886,#876,#930,.T.);
#932=ORIENTED_EDGE('',*,*,#931,.T.);
#933=EDGE_LOOP('',(#917,#924,#925,#932));
#934=FACE_OUTER_BOUND('',#933,.T.);
#935=ADVANCED_FACE('',(#934),#916,.T.);
#936=CARTESIAN_POINT('',(2.54,7.340318E-016,0.0));
#937=DIRECTION('',(0.0,0.0,1.0));
#938=DIRECTION('',(1.0,0.0,0.0));
#939=AXIS2_PLACEMENT_3D('',#936,#937,#938);
#940=PLANE('',#939);
#941=ORIENTED_EDGE('',*,*,#923,.F.);
#942=ORIENTED_EDGE('',*,*,#907,.F.);
#943=EDGE_LOOP('',(#941,#942));
#944=FACE_OUTER_BOUND('',#943,.T.);
#945=ADVANCED_FACE('',(#944),#940,.F.);
#946=CARTESIAN_POINT('',(2.54,7.340318E-016,1.4));
#947=DIRECTION('',(0.0,0.0,1.0));
#948=DIRECTION('',(1.0,0.0,0.0));
#949=AXIS2_PLACEMENT_3D('',#946,#947,#948);
#950=PLANE('',#949);
#951=ORIENTED_EDGE('',*,*,#892,.F.);
#952=ORIENTED_EDGE('',*,*,#931,.F.);
#953=EDGE_LOOP('',(#951,#952));
#954=FACE_OUTER_BOUND('',#953,.T.);
#955=ADVANCED_FACE('',(#954),#950,.T.);
#956=CLOSED_SHELL('',(#911,#935,#945,#955));
#957=MANIFOLD_SOLID_BREP('1BFF',#956);
#958=STYLED_ITEM('NONE',(#690),#957);
#959=CARTESIAN_POINT('',(4.531523E-016,-2.540000000000001,0.1));
#960=DIRECTION('',(0.0,0.0,1.0));
#961=DIRECTION('',(1.0,0.0,0.0));
#962=AXIS2_PLACEMENT_3D('',#959,#960,#961);
#963=CYLINDRICAL_SURFACE('',#962,0.7);
#964=CARTESIAN_POINT('',(0.7,-2.540000000000001,1.4));
#965=VERTEX_POINT('',#964);
#966=CARTESIAN_POINT('',(0.7,-2.540000000000001,0.1));
#967=VERTEX_POINT('',#966);
#968=CARTESIAN_POINT('',(0.7,-2.540000000000001,1.4));
#969=DIRECTION('',(0.0,0.0,-1.0));
#970=VECTOR('',#969,1.3);
#971=LINE('',#968,#970);
#972=EDGE_CURVE('',#965,#967,#971,.T.);
#973=ORIENTED_EDGE('',*,*,#972,.F.);
#974=CARTESIAN_POINT('',(-0.699999999999999,-2.540000000000001,1.4));
#975=VERTEX_POINT('',#974);
#976=CARTESIAN_POINT('',(4.531523E-016,-2.540000000000001,1.4));
#977=DIRECTION('',(0.0,0.0,-1.0));
#978=DIRECTION('',(1.0,0.0,0.0));
#979=AXIS2_PLACEMENT_3D('',#976,#977,#978);
#980=CIRCLE('',#979,0.7);
#981=EDGE_CURVE('',#965,#975,#980,.T.);
#982=ORIENTED_EDGE('',*,*,#981,.T.);
#983=CARTESIAN_POINT('',(-0.699999999999999,-2.540000000000001,0.1));
#984=VERTEX_POINT('',#983);
#985=CARTESIAN_POINT('',(-0.699999999999999,-2.540000000000001,1.4));
#986=DIRECTION('',(0.0,0.0,-1.0));
#987=VECTOR('',#986,1.3);
#988=LINE('',#985,#987);
#989=EDGE_CURVE('',#975,#984,#988,.T.);
#990=ORIENTED_EDGE('',*,*,#989,.T.);
#991=CARTESIAN_POINT('',(4.531523E-016,-2.540000000000001,0.1));
#992=DIRECTION('',(0.0,0.0,1.0));
#993=DIRECTION('',(1.0,0.0,0.0));
#994=AXIS2_PLACEMENT_3D('',#991,#992,#993);
#995=CIRCLE('',#994,0.7);
#996=EDGE_CURVE('',#984,#967,#995,.T.);
#997=ORIENTED_EDGE('',*,*,#996,.T.);
#998=EDGE_LOOP('',(#973,#982,#990,#997));
#999=FACE_OUTER_BOUND('',#998,.T.);
#1000=ADVANCED_FACE('',(#999),#963,.T.);
#1001=CARTESIAN_POINT('',(4.531523E-016,-2.540000000000001,0.1));
#1002=DIRECTION('',(0.0,0.0,1.0));
#1003=DIRECTION('',(1.0,0.0,0.0));
#1004=AXIS2_PLACEMENT_3D('',#1001,#1002,#1003);
#1005=CYLINDRICAL_SURFACE('',#1004,0.7);
#1006=ORIENTED_EDGE('',*,*,#972,.T.);
#1007=CARTESIAN_POINT('',(4.531523E-016,-2.540000000000001,0.1));
#1008=DIRECTION('',(0.0,0.0,1.0));
#1009=DIRECTION('',(1.0,0.0,0.0));
#1010=AXIS2_PLACEMENT_3D('',#1007,#1008,#1009);
#1011=CIRCLE('',#1010,0.7);
#1012=EDGE_CURVE('',#967,#984,#1011,.T.);
#1013=ORIENTED_EDGE('',*,*,#1012,.T.);
#1014=ORIENTED_EDGE('',*,*,#989,.F.);
#1015=CARTESIAN_POINT('',(4.531523E-016,-2.540000000000001,1.4));
#1016=DIRECTION('',(0.0,0.0,-1.0));
#1017=DIRECTION('',(1.0,0.0,0.0));
#1018=AXIS2_PLACEMENT_3D('',#1015,#1016,#1017);
#1019=CIRCLE('',#1018,0.7);
#1020=EDGE_CURVE('',#975,#965,#1019,.T.);
#1021=ORIENTED_EDGE('',*,*,#1020,.T.);
#1022=EDGE_LOOP('',(#1006,#1013,#1014,#1021));
#1023=FACE_OUTER_BOUND('',#1022,.T.);
#1024=ADVANCED_FACE('',(#1023),#1005,.T.);
#1025=CARTESIAN_POINT('',(4.531523E-016,-2.540000000000001,0.1));
#1026=DIRECTION('',(0.0,0.0,1.0));
#1027=DIRECTION('',(1.0,0.0,0.0));
#1028=AXIS2_PLACEMENT_3D('',#1025,#1026,#1027);
#1029=PLANE('',#1028);
#1030=ORIENTED_EDGE('',*,*,#1012,.F.);
#1031=ORIENTED_EDGE('',*,*,#996,.F.);
#1032=EDGE_LOOP('',(#1030,#1031));
#1033=FACE_OUTER_BOUND('',#1032,.T.);
#1034=ADVANCED_FACE('',(#1033),#1029,.F.);
#1035=CARTESIAN_POINT('',(4.531523E-016,-2.540000000000001,1.4));
#1036=DIRECTION('',(0.0,0.0,1.0));
#1037=DIRECTION('',(1.0,0.0,0.0));
#1038=AXIS2_PLACEMENT_3D('',#1035,#1036,#1037);
#1039=PLANE('',#1038);
#1040=ORIENTED_EDGE('',*,*,#981,.F.);
#1041=ORIENTED_EDGE('',*,*,#1020,.F.);
#1042=EDGE_LOOP('',(#1040,#1041));
#1043=FACE_OUTER_BOUND('',#1042,.T.);
#1044=ADVANCED_FACE('',(#1043),#1039,.T.);
#1045=CLOSED_SHELL('',(#1000,#1024,#1034,#1044));
#1046=MANIFOLD_SOLID_BREP('1BFB',#1045);
#1047=STYLED_ITEM('NONE',(#159),#1046);
#1048=CARTESIAN_POINT('',(-4.531523E-016,2.54,0.1));
#1049=DIRECTION('',(0.0,0.0,1.0));
#1050=DIRECTION('',(1.0,0.0,0.0));
#1051=AXIS2_PLACEMENT_3D('',#1048,#1049,#1050);
#1052=CYLINDRICAL_SURFACE('',#1051,0.7);
#1053=CARTESIAN_POINT('',(0.7,2.54,1.4));
#1054=VERTEX_POINT('',#1053);
#1055=CARTESIAN_POINT('',(0.7,2.54,0.1));
#1056=VERTEX_POINT('',#1055);
#1057=CARTESIAN_POINT('',(0.7,2.54,1.4));
#1058=DIRECTION('',(0.0,0.0,-1.0));
#1059=VECTOR('',#1058,1.3);
#1060=LINE('',#1057,#1059);
#1061=EDGE_CURVE('',#1054,#1056,#1060,.T.);
#1062=ORIENTED_EDGE('',*,*,#1061,.F.);
#1063=CARTESIAN_POINT('',(-0.7,2.54,1.4));
#1064=VERTEX_POINT('',#1063);
#1065=CARTESIAN_POINT('',(-4.531523E-016,2.54,1.4));
#1066=DIRECTION('',(0.0,0.0,-1.0));
#1067=DIRECTION('',(1.0,0.0,0.0));
#1068=AXIS2_PLACEMENT_3D('',#1065,#1066,#1067);
#1069=CIRCLE('',#1068,0.7);
#1070=EDGE_CURVE('',#1054,#1064,#1069,.T.);
#1071=ORIENTED_EDGE('',*,*,#1070,.T.);
#1072=CARTESIAN_POINT('',(-0.7,2.54,0.1));
#1073=VERTEX_POINT('',#1072);
#1074=CARTESIAN_POINT('',(-0.7,2.54,1.4));
#1075=DIRECTION('',(0.0,0.0,-1.0));
#1076=VECTOR('',#1075,1.3);
#1077=LINE('',#1074,#1076);
#1078=EDGE_CURVE('',#1064,#1073,#1077,.T.);
#1079=ORIENTED_EDGE('',*,*,#1078,.T.);
#1080=CARTESIAN_POINT('',(-4.531523E-016,2.54,0.1));
#1081=DIRECTION('',(0.0,0.0,1.0));
#1082=DIRECTION('',(1.0,0.0,0.0));
#1083=AXIS2_PLACEMENT_3D('',#1080,#1081,#1082);
#1084=CIRCLE('',#1083,0.7);
#1085=EDGE_CURVE('',#1073,#1056,#1084,.T.);
#1086=ORIENTED_EDGE('',*,*,#1085,.T.);
#1087=EDGE_LOOP('',(#1062,#1071,#1079,#1086));
#1088=FACE_OUTER_BOUND('',#1087,.T.);
#1089=ADVANCED_FACE('',(#1088),#1052,.T.);
#1090=CARTESIAN_POINT('',(-4.531523E-016,2.54,0.1));
#1091=DIRECTION('',(0.0,0.0,1.0));
#1092=DIRECTION('',(1.0,0.0,0.0));
#1093=AXIS2_PLACEMENT_3D('',#1090,#1091,#1092);
#1094=CYLINDRICAL_SURFACE('',#1093,0.7);
#1095=ORIENTED_EDGE('',*,*,#1061,.T.);
#1096=CARTESIAN_POINT('',(-4.531523E-016,2.54,0.1));
#1097=DIRECTION('',(0.0,0.0,1.0));
#1098=DIRECTION('',(1.0,0.0,0.0));
#1099=AXIS2_PLACEMENT_3D('',#1096,#1097,#1098);
#1100=CIRCLE('',#1099,0.7);
#1101=EDGE_CURVE('',#1056,#1073,#1100,.T.);
#1102=ORIENTED_EDGE('',*,*,#1101,.T.);
#1103=ORIENTED_EDGE('',*,*,#1078,.F.);
#1104=CARTESIAN_POINT('',(-4.531523E-016,2.54,1.4));
#1105=DIRECTION('',(0.0,0.0,-1.0));
#1106=DIRECTION('',(1.0,0.0,0.0));
#1107=AXIS2_PLACEMENT_3D('',#1104,#1105,#1106);
#1108=CIRCLE('',#1107,0.7);
#1109=EDGE_CURVE('',#1064,#1054,#1108,.T.);
#1110=ORIENTED_EDGE('',*,*,#1109,.T.);
#1111=EDGE_LOOP('',(#1095,#1102,#1103,#1110));
#1112=FACE_OUTER_BOUND('',#1111,.T.);
#1113=ADVANCED_FACE('',(#1112),#1094,.T.);
#1114=CARTESIAN_POINT('',(-4.531523E-016,2.54,0.1));
#1115=DIRECTION('',(0.0,0.0,1.0));
#1116=DIRECTION('',(1.0,0.0,0.0));
#1117=AXIS2_PLACEMENT_3D('',#1114,#1115,#1116);
#1118=PLANE('',#1117);
#1119=ORIENTED_EDGE('',*,*,#1101,.F.);
#1120=ORIENTED_EDGE('',*,*,#1085,.F.);
#1121=EDGE_LOOP('',(#1119,#1120));
#1122=FACE_OUTER_BOUND('',#1121,.T.);
#1123=ADVANCED_FACE('',(#1122),#1118,.F.);
#1124=CARTESIAN_POINT('',(-4.531523E-016,2.54,1.4));
#1125=DIRECTION('',(0.0,0.0,1.0));
#1126=DIRECTION('',(1.0,0.0,0.0));
#1127=AXIS2_PLACEMENT_3D('',#1124,#1125,#1126);
#1128=PLANE('',#1127);
#1129=ORIENTED_EDGE('',*,*,#1070,.F.);
#1130=ORIENTED_EDGE('',*,*,#1109,.F.);
#1131=EDGE_LOOP('',(#1129,#1130));
#1132=FACE_OUTER_BOUND('',#1131,.T.);
#1133=ADVANCED_FACE('',(#1132),#1128,.T.);
#1134=CLOSED_SHELL('',(#1089,#1113,#1123,#1133));
#1135=MANIFOLD_SOLID_BREP('1BF7',#1134);
#1136=STYLED_ITEM('NONE',(#159),#1135);
#1137=CARTESIAN_POINT('',(-2.54,-7.340318E-016,-3.367779E-017));
#1138=DIRECTION('',(0.0,0.0,1.0));
#1139=DIRECTION('',(1.0,0.0,0.0));
#1140=AXIS2_PLACEMENT_3D('',#1137,#1138,#1139);
#1141=CYLINDRICAL_SURFACE('',#1140,0.55);
#1142=CARTESIAN_POINT('',(-1.99,-7.340318E-016,1.4));
#1143=VERTEX_POINT('',#1142);
#1144=CARTESIAN_POINT('',(-1.99,-7.340318E-016,-3.367779E-017));
#1145=VERTEX_POINT('',#1144);
#1146=CARTESIAN_POINT('',(-1.99,-7.340318E-016,1.4));
#1147=DIRECTION('',(0.0,0.0,-1.0));
#1148=VECTOR('',#1147,1.4);
#1149=LINE('',#1146,#1148);
#1150=EDGE_CURVE('',#1143,#1145,#1149,.T.);
#1151=ORIENTED_EDGE('',*,*,#1150,.F.);
#1152=CARTESIAN_POINT('',(-3.09,-8.013873E-016,1.4));
#1153=VERTEX_POINT('',#1152);
#1154=CARTESIAN_POINT('',(-2.54,-7.340318E-016,1.4));
#1155=DIRECTION('',(0.0,0.0,-1.0));
#1156=DIRECTION('',(1.0,0.0,0.0));
#1157=AXIS2_PLACEMENT_3D('',#1154,#1155,#1156);
#1158=CIRCLE('',#1157,0.55);
#1159=EDGE_CURVE('',#1143,#1153,#1158,.T.);
#1160=ORIENTED_EDGE('',*,*,#1159,.T.);
#1161=CARTESIAN_POINT('',(-3.09,-8.013873E-016,-3.367779E-017));
#1162=VERTEX_POINT('',#1161);
#1163=CARTESIAN_POINT('',(-3.09,-8.013873E-016,1.4));
#1164=DIRECTION('',(0.0,0.0,-1.0));
#1165=VECTOR('',#1164,1.4);
#1166=LINE('',#1163,#1165);
#1167=EDGE_CURVE('',#1153,#1162,#1166,.T.);
#1168=ORIENTED_EDGE('',*,*,#1167,.T.);
#1169=CARTESIAN_POINT('',(-2.54,-7.340318E-016,-3.367779E-017));
#1170=DIRECTION('',(0.0,0.0,1.0));
#1171=DIRECTION('',(1.0,0.0,0.0));
#1172=AXIS2_PLACEMENT_3D('',#1169,#1170,#1171);
#1173=CIRCLE('',#1172,0.55);
#1174=EDGE_CURVE('',#1162,#1145,#1173,.T.);
#1175=ORIENTED_EDGE('',*,*,#1174,.T.);
#1176=EDGE_LOOP('',(#1151,#1160,#1168,#1175));
#1177=FACE_OUTER_BOUND('',#1176,.T.);
#1178=ADVANCED_FACE('',(#1177),#1141,.T.);
#1179=CARTESIAN_POINT('',(-2.54,-7.340318E-016,-3.367779E-017));
#1180=DIRECTION('',(0.0,0.0,1.0));
#1181=DIRECTION('',(1.0,0.0,0.0));
#1182=AXIS2_PLACEMENT_3D('',#1179,#1180,#1181);
#1183=CYLINDRICAL_SURFACE('',#1182,0.55);
#1184=ORIENTED_EDGE('',*,*,#1150,.T.);
#1185=CARTESIAN_POINT('',(-2.54,-7.340318E-016,-3.367779E-017));
#1186=DIRECTION('',(0.0,0.0,1.0));
#1187=DIRECTION('',(1.0,0.0,0.0));
#1188=AXIS2_PLACEMENT_3D('',#1185,#1186,#1187);
#1189=CIRCLE('',#1188,0.55);
#1190=EDGE_CURVE('',#1145,#1162,#1189,.T.);
#1191=ORIENTED_EDGE('',*,*,#1190,.T.);
#1192=ORIENTED_EDGE('',*,*,#1167,.F.);
#1193=CARTESIAN_POINT('',(-2.54,-7.340318E-016,1.4));
#1194=DIRECTION('',(0.0,0.0,-1.0));
#1195=DIRECTION('',(1.0,0.0,0.0));
#1196=AXIS2_PLACEMENT_3D('',#1193,#1194,#1195);
#1197=CIRCLE('',#1196,0.55);
#1198=EDGE_CURVE('',#1153,#1143,#1197,.T.);
#1199=ORIENTED_EDGE('',*,*,#1198,.T.);
#1200=EDGE_LOOP('',(#1184,#1191,#1192,#1199));
#1201=FACE_OUTER_BOUND('',#1200,.T.);
#1202=ADVANCED_FACE('',(#1201),#1183,.T.);
#1203=CARTESIAN_POINT('',(-2.54,-7.340318E-016,-3.367779E-017));
#1204=DIRECTION('',(0.0,0.0,1.0));
#1205=DIRECTION('',(1.0,0.0,0.0));
#1206=AXIS2_PLACEMENT_3D('',#1203,#1204,#1205);
#1207=PLANE('',#1206);
#1208=ORIENTED_EDGE('',*,*,#1190,.F.);
#1209=ORIENTED_EDGE('',*,*,#1174,.F.);
#1210=EDGE_LOOP('',(#1208,#1209));
#1211=FACE_OUTER_BOUND('',#1210,.T.);
#1212=ADVANCED_FACE('',(#1211),#1207,.F.);
#1213=CARTESIAN_POINT('',(-2.54,-7.340318E-016,1.4));
#1214=DIRECTION('',(0.0,0.0,1.0));
#1215=DIRECTION('',(1.0,0.0,0.0));
#1216=AXIS2_PLACEMENT_3D('',#1213,#1214,#1215);
#1217=PLANE('',#1216);
#1218=ORIENTED_EDGE('',*,*,#1159,.F.);
#1219=ORIENTED_EDGE('',*,*,#1198,.F.);
#1220=EDGE_LOOP('',(#1218,#1219));
#1221=FACE_OUTER_BOUND('',#1220,.T.);
#1222=ADVANCED_FACE('',(#1221),#1217,.T.);
#1223=CLOSED_SHELL('',(#1178,#1202,#1212,#1222));
#1224=MANIFOLD_SOLID_BREP('1BF3',#1223);
#1225=STYLED_ITEM('NONE',(#690),#1224);
#1226=CARTESIAN_POINT('',(-4.25,-9.159340E-016,0.1));
#1227=DIRECTION('',(0.0,0.0,1.0));
#1228=DIRECTION('',(1.0,0.0,0.0));
#1229=AXIS2_PLACEMENT_3D('',#1226,#1227,#1228);
#1230=CYLINDRICAL_SURFACE('',#1229,0.5);
#1231=CARTESIAN_POINT('',(-3.75,-9.159340E-016,1.4));
#1232=VERTEX_POINT('',#1231);
#1233=CARTESIAN_POINT('',(-3.75,-9.159340E-016,0.1));
#1234=VERTEX_POINT('',#1233);
#1235=CARTESIAN_POINT('',(-3.75,-9.159340E-016,1.4));
#1236=DIRECTION('',(0.0,0.0,-1.0));
#1237=VECTOR('',#1236,1.3);
#1238=LINE('',#1235,#1237);
#1239=EDGE_CURVE('',#1232,#1234,#1238,.T.);
#1240=ORIENTED_EDGE('',*,*,#1239,.F.);
#1241=CARTESIAN_POINT('',(-4.75,-9.771663E-016,1.4));
#1242=VERTEX_POINT('',#1241);
#1243=CARTESIAN_POINT('',(-4.25,-9.159340E-016,1.4));
#1244=DIRECTION('',(0.0,0.0,-1.0));
#1245=DIRECTION('',(1.0,0.0,0.0));
#1246=AXIS2_PLACEMENT_3D('',#1243,#1244,#1245);
#1247=CIRCLE('',#1246,0.5);
#1248=EDGE_CURVE('',#1232,#1242,#1247,.T.);
#1249=ORIENTED_EDGE('',*,*,#1248,.T.);
#1250=CARTESIAN_POINT('',(-4.75,-9.771663E-016,0.1));
#1251=VERTEX_POINT('',#1250);
#1252=CARTESIAN_POINT('',(-4.75,-9.771663E-016,1.4));
#1253=DIRECTION('',(0.0,0.0,-1.0));
#1254=VECTOR('',#1253,1.3);
#1255=LINE('',#1252,#1254);
#1256=EDGE_CURVE('',#1242,#1251,#1255,.T.);
#1257=ORIENTED_EDGE('',*,*,#1256,.T.);
#1258=CARTESIAN_POINT('',(-4.25,-9.159340E-016,0.1));
#1259=DIRECTION('',(0.0,0.0,1.0));
#1260=DIRECTION('',(1.0,0.0,0.0));
#1261=AXIS2_PLACEMENT_3D('',#1258,#1259,#1260);
#1262=CIRCLE('',#1261,0.5);
#1263=EDGE_CURVE('',#1251,#1234,#1262,.T.);
#1264=ORIENTED_EDGE('',*,*,#1263,.T.);
#1265=EDGE_LOOP('',(#1240,#1249,#1257,#1264));
#1266=FACE_OUTER_BOUND('',#1265,.T.);
#1267=ADVANCED_FACE('',(#1266),#1230,.T.);
#1268=CARTESIAN_POINT('',(-4.25,-9.159340E-016,0.1));
#1269=DIRECTION('',(0.0,0.0,1.0));
#1270=DIRECTION('',(1.0,0.0,0.0));
#1271=AXIS2_PLACEMENT_3D('',#1268,#1269,#1270);
#1272=CYLINDRICAL_SURFACE('',#1271,0.5);
#1273=ORIENTED_EDGE('',*,*,#1239,.T.);
#1274=CARTESIAN_POINT('',(-4.25,-9.159340E-016,0.1));
#1275=DIRECTION('',(0.0,0.0,1.0));
#1276=DIRECTION('',(1.0,0.0,0.0));
#1277=AXIS2_PLACEMENT_3D('',#1274,#1275,#1276);
#1278=CIRCLE('',#1277,0.5);
#1279=EDGE_CURVE('',#1234,#1251,#1278,.T.);
#1280=ORIENTED_EDGE('',*,*,#1279,.T.);
#1281=ORIENTED_EDGE('',*,*,#1256,.F.);
#1282=CARTESIAN_POINT('',(-4.25,-9.159340E-016,1.4));
#1283=DIRECTION('',(0.0,0.0,-1.0));
#1284=DIRECTION('',(1.0,0.0,0.0));
#1285=AXIS2_PLACEMENT_3D('',#1282,#1283,#1284);
#1286=CIRCLE('',#1285,0.5);
#1287=EDGE_CURVE('',#1242,#1232,#1286,.T.);
#1288=ORIENTED_EDGE('',*,*,#1287,.T.);
#1289=EDGE_LOOP('',(#1273,#1280,#1281,#1288));
#1290=FACE_OUTER_BOUND('',#1289,.T.);
#1291=ADVANCED_FACE('',(#1290),#1272,.T.);
#1292=CARTESIAN_POINT('',(-4.25,-9.159340E-016,0.1));
#1293=DIRECTION('',(0.0,0.0,1.0));
#1294=DIRECTION('',(1.0,0.0,0.0));
#1295=AXIS2_PLACEMENT_3D('',#1292,#1293,#1294);
#1296=PLANE('',#1295);
#1297=ORIENTED_EDGE('',*,*,#1279,.F.);
#1298=ORIENTED_EDGE('',*,*,#1263,.F.);
#1299=EDGE_LOOP('',(#1297,#1298));
#1300=FACE_OUTER_BOUND('',#1299,.T.);
#1301=ADVANCED_FACE('',(#1300),#1296,.F.);
#1302=CARTESIAN_POINT('',(-4.25,-9.159340E-016,1.4));
#1303=DIRECTION('',(0.0,0.0,1.0));
#1304=DIRECTION('',(1.0,0.0,0.0));
#1305=AXIS2_PLACEMENT_3D('',#1302,#1303,#1304);
#1306=PLANE('',#1305);
#1307=ORIENTED_EDGE('',*,*,#1248,.F.);
#1308=ORIENTED_EDGE('',*,*,#1287,.F.);
#1309=EDGE_LOOP('',(#1307,#1308));
#1310=FACE_OUTER_BOUND('',#1309,.T.);
#1311=ADVANCED_FACE('',(#1310),#1306,.T.);
#1312=CLOSED_SHELL('',(#1267,#1291,#1301,#1311));
#1313=MANIFOLD_SOLID_BREP('1BEF',#1312);
#1314=STYLED_ITEM('NONE',(#159),#1313);
#1315=CARTESIAN_POINT('',(-1.776357E-013,1.461054E-013,4.4));
#1316=DIRECTION('',(0.0,0.0,-1.0));
#1317=DIRECTION('',(0.707106781186509,0.707106781186586,0.0));
#1318=AXIS2_PLACEMENT_3D('',#1315,#1316,#1317);
#1319=CYLINDRICAL_SURFACE('',#1318,4.750000000000015);
#1320=CARTESIAN_POINT('',(3.358757210635752,3.358757210636439,1.4));
#1321=VERTEX_POINT('',#1320);
#1322=CARTESIAN_POINT('',(3.358757210635752,3.358757210636439,4.4));
#1323=VERTEX_POINT('',#1322);
#1324=CARTESIAN_POINT('',(3.358757210635752,3.358757210636439,1.4));
#1325=DIRECTION('',(0.0,0.0,1.0));
#1326=VECTOR('',#1325,3.0);
#1327=LINE('',#1324,#1326);
#1328=EDGE_CURVE('',#1321,#1323,#1327,.T.);
#1329=ORIENTED_EDGE('',*,*,#1328,.F.);
#1330=CARTESIAN_POINT('',(-3.845563857907178,-2.788214234014085,1.399999999999999));
#1331=VERTEX_POINT('',#1330);
#1332=CARTESIAN_POINT('',(-1.776357E-013,1.461054E-013,1.4));
#1333=DIRECTION('',(0.0,0.0,1.0));
#1334=DIRECTION('',(0.707106781186509,0.707106781186586,0.0));
#1335=AXIS2_PLACEMENT_3D('',#1332,#1333,#1334);
#1336=CIRCLE('',#1335,4.750000000000014);
#1337=EDGE_CURVE('',#1321,#1331,#1336,.T.);
#1338=ORIENTED_EDGE('',*,*,#1337,.T.);
#1339=CARTESIAN_POINT('',(-3.358757210636107,-3.358757210636147,1.4));
#1340=VERTEX_POINT('',#1339);
#1341=CARTESIAN_POINT('',(-1.776357E-013,1.461054E-013,1.4));
#1342=DIRECTION('',(0.0,0.0,1.0));
#1343=DIRECTION('',(0.707106781186509,0.707106781186586,0.0));
#1344=AXIS2_PLACEMENT_3D('',#1341,#1342,#1343);
#1345=CIRCLE('',#1344,4.750000000000014);
#1346=EDGE_CURVE('',#1331,#1340,#1345,.T.);
#1347=ORIENTED_EDGE('',*,*,#1346,.T.);
#1348=CARTESIAN_POINT('',(-3.358757210636107,-3.358757210636147,4.4));
#1349=VERTEX_POINT('',#1348);
#1350=CARTESIAN_POINT('',(-3.358757210636107,-3.358757210636147,1.4));
#1351=DIRECTION('',(0.0,0.0,1.0));
#1352=VECTOR('',#1351,3.0);
#1353=LINE('',#1350,#1352);
#1354=EDGE_CURVE('',#1340,#1349,#1353,.T.);
#1355=ORIENTED_EDGE('',*,*,#1354,.T.);
#1356=CARTESIAN_POINT('',(-3.845563857907178,-2.788214234014085,4.4));
#1357=VERTEX_POINT('',#1356);
#1358=CARTESIAN_POINT('',(-1.776357E-013,1.461054E-013,4.4));
#1359=DIRECTION('',(0.0,0.0,1.0));
#1360=DIRECTION('',(0.707106781186509,0.707106781186586,0.0));
#1361=AXIS2_PLACEMENT_3D('',#1358,#1359,#1360);
#1362=CIRCLE('',#1361,4.750000000000014);
#1363=EDGE_CURVE('',#1357,#1349,#1362,.T.);
#1364=ORIENTED_EDGE('',*,*,#1363,.F.);
#1365=CARTESIAN_POINT('',(-1.776357E-013,1.461054E-013,4.4));
#1366=DIRECTION('',(0.0,0.0,1.0));
#1367=DIRECTION('',(0.707106781186509,0.707106781186586,0.0));
#1368=AXIS2_PLACEMENT_3D('',#1365,#1366,#1367);
#1369=CIRCLE('',#1368,4.750000000000014);
#1370=EDGE_CURVE('',#1323,#1357,#1369,.T.);
#1371=ORIENTED_EDGE('',*,*,#1370,.F.);
#1372=EDGE_LOOP('',(#1329,#1338,#1347,#1355,#1364,#1371));
#1373=FACE_OUTER_BOUND('',#1372,.T.);
#1374=ADVANCED_FACE('',(#1373),#1319,.T.);
#1375=CARTESIAN_POINT('',(-2.536462373892762,-2.965910E-016,4.400000000000001));
#1376=DIRECTION('',(0.0,0.0,-1.0));
#1377=DIRECTION('',(1.0,0.0,0.0));
#1378=AXIS2_PLACEMENT_3D('',#1375,#1376,#1377);
#1379=CYLINDRICAL_SURFACE('',#1378,0.55);
#1380=CARTESIAN_POINT('',(-1.986462373892762,-2.965910E-016,4.400000000000001));
#1381=VERTEX_POINT('',#1380);
#1382=CARTESIAN_POINT('',(-1.986462373892762,-2.965910E-016,1.4));
#1383=VERTEX_POINT('',#1382);
#1384=CARTESIAN_POINT('',(-1.986462373892762,-2.965910E-016,4.4));
#1385=DIRECTION('',(0.0,0.0,-1.0));
#1386=VECTOR('',#1385,3.0);
#1387=LINE('',#1384,#1386);
#1388=EDGE_CURVE('',#1381,#1383,#1387,.T.);
#1389=ORIENTED_EDGE('',*,*,#1388,.F.);
#1390=CARTESIAN_POINT('',(-3.086462373892762,-2.292355E-016,4.4));
#1391=VERTEX_POINT('',#1390);
#1392=CARTESIAN_POINT('',(-2.536462373892762,-2.965910E-016,4.4));
#1393=DIRECTION('',(0.0,0.0,-1.0));
#1394=DIRECTION('',(1.0,0.0,0.0));
#1395=AXIS2_PLACEMENT_3D('',#1392,#1393,#1394);
#1396=CIRCLE('',#1395,0.55);
#1397=EDGE_CURVE('',#1391,#1381,#1396,.T.);
#1398=ORIENTED_EDGE('',*,*,#1397,.F.);
#1399=CARTESIAN_POINT('',(-3.086462373892762,-2.292355E-016,1.399999999999999));
#1400=VERTEX_POINT('',#1399);
#1401=CARTESIAN_POINT('',(-3.086462373892762,-2.292355E-016,4.4));
#1402=DIRECTION('',(0.0,0.0,-1.0));
#1403=VECTOR('',#1402,3.000000000000001);
#1404=LINE('',#1401,#1403);
#1405=EDGE_CURVE('',#1391,#1400,#1404,.T.);
#1406=ORIENTED_EDGE('',*,*,#1405,.T.);
#1407=CARTESIAN_POINT('',(-2.536462373892762,-2.965910E-016,1.399999999999999));
#1408=DIRECTION('',(0.0,0.0,1.0));
#1409=DIRECTION('',(1.0,0.0,0.0));
#1410=AXIS2_PLACEMENT_3D('',#1407,#1408,#1409);
#1411=CIRCLE('',#1410,0.55);
#1412=EDGE_CURVE('',#1383,#1400,#1411,.T.);
#1413=ORIENTED_EDGE('',*,*,#1412,.F.);
#1414=EDGE_LOOP('',(#1389,#1398,#1406,#1413));
#1415=FACE_OUTER_BOUND('',#1414,.T.);
#1416=ADVANCED_FACE('',(#1415),#1379,.F.);
#1417=CARTESIAN_POINT('',(2.540000000000001,-2.965910E-016,4.400000000000001));
#1418=DIRECTION('',(0.0,0.0,-1.0));
#1419=DIRECTION('',(1.0,0.0,0.0));
#1420=AXIS2_PLACEMENT_3D('',#1417,#1418,#1419);
#1421=CYLINDRICAL_SURFACE('',#1420,0.55);
#1422=CARTESIAN_POINT('',(3.090000000000001,-2.965910E-016,4.400000000000001));
#1423=VERTEX_POINT('',#1422);
#1424=CARTESIAN_POINT('',(3.090000000000001,-2.965910E-016,1.4));
#1425=VERTEX_POINT('',#1424);
#1426=CARTESIAN_POINT('',(3.090000000000001,-2.965910E-016,4.4));
#1427=DIRECTION('',(0.0,0.0,-1.0));
#1428=VECTOR('',#1427,2.999999999999999);
#1429=LINE('',#1426,#1428);
#1430=EDGE_CURVE('',#1423,#1425,#1429,.T.);
#1431=ORIENTED_EDGE('',*,*,#1430,.F.);
#1432=CARTESIAN_POINT('',(1.99,-2.292355E-016,4.4));
#1433=VERTEX_POINT('',#1432);
#1434=CARTESIAN_POINT('',(2.540000000000001,-2.965910E-016,4.4));
#1435=DIRECTION('',(0.0,0.0,-1.0));
#1436=DIRECTION('',(1.0,0.0,0.0));
#1437=AXIS2_PLACEMENT_3D('',#1434,#1435,#1436);
#1438=CIRCLE('',#1437,0.55);
#1439=EDGE_CURVE('',#1433,#1423,#1438,.T.);
#1440=ORIENTED_EDGE('',*,*,#1439,.F.);
#1441=CARTESIAN_POINT('',(1.99,-2.292355E-016,1.399999999999999));
#1442=VERTEX_POINT('',#1441);
#1443=CARTESIAN_POINT('',(1.99,-2.292355E-016,4.4));
#1444=DIRECTION('',(0.0,0.0,-1.0));
#1445=VECTOR('',#1444,3.000000000000001);
#1446=LINE('',#1443,#1445);
#1447=EDGE_CURVE('',#1433,#1442,#1446,.T.);
#1448=ORIENTED_EDGE('',*,*,#1447,.T.);
#1449=CARTESIAN_POINT('',(2.540000000000001,-2.965910E-016,1.399999999999999));
#1450=DIRECTION('',(0.0,0.0,1.0));
#1451=DIRECTION('',(1.0,0.0,0.0));
#1452=AXIS2_PLACEMENT_3D('',#1449,#1450,#1451);
#1453=CIRCLE('',#1452,0.55);
#1454=EDGE_CURVE('',#1425,#1442,#1453,.T.);
#1455=ORIENTED_EDGE('',*,*,#1454,.F.);
#1456=EDGE_LOOP('',(#1431,#1440,#1448,#1455));
#1457=FACE_OUTER_BOUND('',#1456,.T.);
#1458=ADVANCED_FACE('',(#1457),#1421,.F.);
#1459=CARTESIAN_POINT('',(-0.426176610154078,-0.4261766101538,4.4));
#1460=DIRECTION('',(0.0,0.0,1.0));
#1461=DIRECTION('',(1.0,0.0,0.0));
#1462=AXIS2_PLACEMENT_3D('',#1459,#1460,#1461);
#1463=PLANE('',#1462);
#1464=ORIENTED_EDGE('',*,*,#1363,.T.);
#1465=CARTESIAN_POINT('',(-1.776357E-013,1.461054E-013,4.4));
#1466=DIRECTION('',(0.0,0.0,1.0));
#1467=DIRECTION('',(0.707106781186509,0.707106781186586,0.0));
#1468=AXIS2_PLACEMENT_3D('',#1465,#1466,#1467);
#1469=CIRCLE('',#1468,4.750000000000014);
#1470=EDGE_CURVE('',#1349,#1323,#1469,.T.);
#1471=ORIENTED_EDGE('',*,*,#1470,.T.);
#1472=ORIENTED_EDGE('',*,*,#1370,.T.);
#1473=EDGE_LOOP('',(#1464,#1471,#1472));
#1474=FACE_OUTER_BOUND('',#1473,.T.);
#1475=CARTESIAN_POINT('',(-2.536462373892762,-2.965910E-016,4.4));
#1476=DIRECTION('',(0.0,0.0,-1.0));
#1477=DIRECTION('',(1.0,0.0,0.0));
#1478=AXIS2_PLACEMENT_3D('',#1475,#1476,#1477);
#1479=CIRCLE('',#1478,0.55);
#1480=EDGE_CURVE('',#1381,#1391,#1479,.T.);
#1481=ORIENTED_EDGE('',*,*,#1480,.T.);
#1482=ORIENTED_EDGE('',*,*,#1397,.T.);
#1483=EDGE_LOOP('',(#1481,#1482));
#1484=FACE_BOUND('',#1483,.T.);
#1485=CARTESIAN_POINT('',(2.540000000000001,-2.965910E-016,4.4));
#1486=DIRECTION('',(0.0,0.0,-1.0));
#1487=DIRECTION('',(1.0,0.0,0.0));
#1488=AXIS2_PLACEMENT_3D('',#1485,#1486,#1487);
#1489=CIRCLE('',#1488,0.55);
#1490=EDGE_CURVE('',#1423,#1433,#1489,.T.);
#1491=ORIENTED_EDGE('',*,*,#1490,.T.);
#1492=ORIENTED_EDGE('',*,*,#1439,.T.);
#1493=EDGE_LOOP('',(#1491,#1492));
#1494=FACE_BOUND('',#1493,.T.);
#1495=ADVANCED_FACE('',(#1474,#1484,#1494),#1463,.T.);
#1496=CARTESIAN_POINT('',(2.540000000000001,-2.965910E-016,4.400000000000001));
#1497=DIRECTION('',(0.0,0.0,-1.0));
#1498=DIRECTION('',(1.0,0.0,0.0));
#1499=AXIS2_PLACEMENT_3D('',#1496,#1497,#1498);
#1500=CYLINDRICAL_SURFACE('',#1499,0.55);
#1501=ORIENTED_EDGE('',*,*,#1430,.T.);
#1502=CARTESIAN_POINT('',(2.540000000000001,-2.965910E-016,1.399999999999999));
#1503=DIRECTION('',(0.0,0.0,1.0));
#1504=DIRECTION('',(1.0,0.0,0.0));
#1505=AXIS2_PLACEMENT_3D('',#1502,#1503,#1504);
#1506=CIRCLE('',#1505,0.55);
#1507=EDGE_CURVE('',#1442,#1425,#1506,.T.);
#1508=ORIENTED_EDGE('',*,*,#1507,.F.);
#1509=ORIENTED_EDGE('',*,*,#1447,.F.);
#1510=ORIENTED_EDGE('',*,*,#1490,.F.);
#1511=EDGE_LOOP('',(#1501,#1508,#1509,#1510));
#1512=FACE_OUTER_BOUND('',#1511,.T.);
#1513=ADVANCED_FACE('',(#1512),#1500,.F.);
#1514=CARTESIAN_POINT('',(-2.536462373892762,-2.965910E-016,4.400000000000001));
#1515=DIRECTION('',(0.0,0.0,-1.0));
#1516=DIRECTION('',(1.0,0.0,0.0));
#1517=AXIS2_PLACEMENT_3D('',#1514,#1515,#1516);
#1518=CYLINDRICAL_SURFACE('',#1517,0.55);
#1519=ORIENTED_EDGE('',*,*,#1388,.T.);
#1520=CARTESIAN_POINT('',(-2.536462373892762,-2.965910E-016,1.399999999999999));
#1521=DIRECTION('',(0.0,0.0,1.0));
#1522=DIRECTION('',(1.0,0.0,0.0));
#1523=AXIS2_PLACEMENT_3D('',#1520,#1521,#1522);
#1524=CIRCLE('',#1523,0.55);
#1525=EDGE_CURVE('',#1400,#1383,#1524,.T.);
#1526=ORIENTED_EDGE('',*,*,#1525,.F.);
#1527=ORIENTED_EDGE('',*,*,#1405,.F.);
#1528=ORIENTED_EDGE('',*,*,#1480,.F.);
#1529=EDGE_LOOP('',(#1519,#1526,#1527,#1528));
#1530=FACE_OUTER_BOUND('',#1529,.T.);
#1531=ADVANCED_FACE('',(#1530),#1518,.F.);
#1532=CARTESIAN_POINT('',(-1.776357E-013,1.461054E-013,4.4));
#1533=DIRECTION('',(0.0,0.0,-1.0));
#1534=DIRECTION('',(0.707106781186509,0.707106781186586,0.0));
#1535=AXIS2_PLACEMENT_3D('',#1532,#1533,#1534);
#1536=CYLINDRICAL_SURFACE('',#1535,4.750000000000015);
#1537=ORIENTED_EDGE('',*,*,#1328,.T.);
#1538=ORIENTED_EDGE('',*,*,#1470,.F.);
#1539=ORIENTED_EDGE('',*,*,#1354,.F.);
#1540=CARTESIAN_POINT('',(-1.776357E-013,1.461054E-013,1.4));
#1541=DIRECTION('',(0.0,0.0,1.0));
#1542=DIRECTION('',(0.707106781186509,0.707106781186586,0.0));
#1543=AXIS2_PLACEMENT_3D('',#1540,#1541,#1542);
#1544=CIRCLE('',#1543,4.750000000000014);
#1545=EDGE_CURVE('',#1340,#1321,#1544,.T.);
#1546=ORIENTED_EDGE('',*,*,#1545,.T.);
#1547=EDGE_LOOP('',(#1537,#1538,#1539,#1546));
#1548=FACE_OUTER_BOUND('',#1547,.T.);
#1549=ADVANCED_FACE('',(#1548),#1536,.T.);
#1550=CARTESIAN_POINT('',(-0.426176610154078,-0.4261766101538,1.399999999999999));
#1551=DIRECTION('',(0.0,0.0,1.0));
#1552=DIRECTION('',(1.0,0.0,0.0));
#1553=AXIS2_PLACEMENT_3D('',#1550,#1551,#1552);
#1554=PLANE('',#1553);
#1555=ORIENTED_EDGE('',*,*,#1346,.F.);
#1556=ORIENTED_EDGE('',*,*,#1337,.F.);
#1557=ORIENTED_EDGE('',*,*,#1545,.F.);
#1558=EDGE_LOOP('',(#1555,#1556,#1557));
#1559=FACE_OUTER_BOUND('',#1558,.T.);
#1560=ORIENTED_EDGE('',*,*,#1454,.T.);
#1561=ORIENTED_EDGE('',*,*,#1507,.T.);
#1562=EDGE_LOOP('',(#1560,#1561));
#1563=FACE_BOUND('',#1562,.T.);
#1564=ORIENTED_EDGE('',*,*,#1412,.T.);
#1565=ORIENTED_EDGE('',*,*,#1525,.T.);
#1566=EDGE_LOOP('',(#1564,#1565));
#1567=FACE_BOUND('',#1566,.T.);
#1568=ADVANCED_FACE('',(#1559,#1563,#1567),#1554,.F.);
#1569=CLOSED_SHELL('',(#1374,#1416,#1458,#1495,#1513,#1531,#1549,#1568));
#1570=MANIFOLD_SOLID_BREP('1BEB',#1569);
#1571=STYLED_ITEM('NONE',(#159),#1570);
#1572=ADVANCED_BREP_SHAPE_REPRESENTATION('ABSR1',(#152,#374,#594,#683,#779,#868,#957,#1046,#1135,#1224,#1313,#1570),#28);
#1573=SHAPE_REPRESENTATION_RELATIONSHIP('SRRPL1','',#1572,#62);
ENDSEC;
END-ISO-10303-21;
