ISO-10303-21;
HEADER;
/****************************************************************
 * Generated by software with PDE/Lib inside                    *
 * PDElib Version v51a, created Mon 11/03/2008                  *
 * International Technegroup Inc. (www.iti-oh.com)              *
 ****************************************************************/
FILE_DESCRIPTION((''),'2;1');
FILE_NAME('IND_COOPER_DRQ74.stp','2010-01-28T09:27:54',(''),(''),'Mechanical Desktop 2010','Mechanical Desktop 2010',', , ');
FILE_SCHEMA(('AUTOMOTIVE_DESIGN { 1 2 10303 214 1 1 1 1 }'));
ENDSEC;
DATA;
#8=(NAMED_UNIT(*)PLANE_ANGLE_UNIT()SI_UNIT($,.RADIAN.));
#9=DIMENSIONAL_EXPONENTS(0.0,0.0,0.0,0.0,0.0,0.0,0.0);
#10=PLANE_ANGLE_MEASURE_WITH_UNIT(PLANE_ANGLE_MEASURE(0.017453292500000),#8);
#14=(CONVERSION_BASED_UNIT('DEGREE',#10)NAMED_UNIT(#9)PLANE_ANGLE_UNIT());
#18=(NAMED_UNIT(*)SI_UNIT($,.STERADIAN.)SOLID_ANGLE_UNIT());
#22=(LENGTH_UNIT()NAMED_UNIT(*)SI_UNIT(.MILLI.,.METRE.));
#23=UNCERTAINTY_MEASURE_WITH_UNIT(LENGTH_MEASURE(0.000001000000000),#22,'DISTANCE_ACCURACY_VALUE','');
#28=(GEOMETRIC_REPRESENTATION_CONTEXT(3)GLOBAL_UNCERTAINTY_ASSIGNED_CONTEXT((#23))GLOBAL_UNIT_ASSIGNED_CONTEXT((#14,#18,#22))REPRESENTATION_CONTEXT('None','None'));
#29=APPLICATION_CONTEXT('automotive design');
#30=APPLICATION_PROTOCOL_DEFINITION('INTERNATIONAL_STANDARD','automotive_design',1998,#29);
#31=PRODUCT_CONTEXT('3D Mechanical Parts',#29,'mechanical');
#32=PRODUCT('Product','Product','',(#31));
#33=PRODUCT_RELATED_PRODUCT_CATEGORY('part',$,(#32));
#34=PRODUCT_CATEGORY('part',$);
#35=PERSON('1','Design','Joe',$,$,$);
#36=ORGANIZATION($,'None','None');
#37=PERSON_AND_ORGANIZATION(#35,#36);
#38=PERSON_AND_ORGANIZATION_ROLE('design_owner');
#39=APPLIED_PERSON_AND_ORGANIZATION_ASSIGNMENT(#37,#38,(#32));
#40=PRODUCT_DEFINITION_FORMATION_WITH_SPECIFIED_SOURCE('None','',#32,.BOUGHT.);
#41=PERSON('2','Creator','Joe',$,$,$);
#42=ORGANIZATION($,'None','None');
#43=PERSON_AND_ORGANIZATION(#41,#42);
#44=PERSON_AND_ORGANIZATION_ROLE('creator');
#45=APPLIED_PERSON_AND_ORGANIZATION_ASSIGNMENT(#43,#44,(#40));
#46=PERSON('3','Supplier','Joe',$,$,$);
#47=ORGANIZATION($,'None','None');
#48=PERSON_AND_ORGANIZATION(#46,#47);
#49=PERSON_AND_ORGANIZATION_ROLE('design_supplier');
#50=APPLIED_PERSON_AND_ORGANIZATION_ASSIGNMENT(#48,#49,(#40));
#51=PRODUCT_DEFINITION_CONTEXT('part definition',#29,'design');
#52=PRODUCT_DEFINITION('None','',#40,#51);
#53=PERSON('4','Creator','Joe',$,$,$);
#54=ORGANIZATION($,'None','None');
#55=PERSON_AND_ORGANIZATION(#53,#54);
#56=PERSON_AND_ORGANIZATION_ROLE('creator');
#57=APPLIED_PERSON_AND_ORGANIZATION_ASSIGNMENT(#55,#56,(#52));
#58=CARTESIAN_POINT('NONE',(0.0,0.0,0.0));
#59=DIRECTION('NONE',(0.0,0.0,1.0));
#60=DIRECTION('NONE',(1.0,0.0,0.0));
#61=AXIS2_PLACEMENT_3D('NONE',#58,#59,#60);
#62=SHAPE_REPRESENTATION('SR1',(#61),#28);
#63=PRODUCT_DEFINITION_SHAPE('PDS1','Test Part',#52);
#64=SHAPE_DEFINITION_REPRESENTATION(#63,#62);
#65=CARTESIAN_POINT('',(0.0,0.0,4.450000000000000));
#66=DIRECTION('',(0.0,0.0,-1.0));
#67=DIRECTION('',(1.0,0.0,0.0));
#68=AXIS2_PLACEMENT_3D('',#65,#66,#67);
#69=CYLINDRICAL_SURFACE('',#68,3.0);
#70=CARTESIAN_POINT('',(3.0,0.0,0.450000000000000));
#71=VERTEX_POINT('',#70);
#72=CARTESIAN_POINT('',(3.0,0.0,4.450000000000000));
#73=VERTEX_POINT('',#72);
#74=CARTESIAN_POINT('',(3.0,0.0,0.450000000000000));
#75=DIRECTION('',(0.0,0.0,1.0));
#76=VECTOR('',#75,4.0);
#77=LINE('',#74,#76);
#78=EDGE_CURVE('',#71,#73,#77,.T.);
#79=ORIENTED_EDGE('',*,*,#78,.F.);
#80=CARTESIAN_POINT('',(-3.0,3.673819E-016,0.450000000000000));
#81=VERTEX_POINT('',#80);
#82=CARTESIAN_POINT('',(0.0,0.0,0.450000000000000));
#83=DIRECTION('',(0.0,0.0,1.0));
#84=DIRECTION('',(1.0,0.0,0.0));
#85=AXIS2_PLACEMENT_3D('',#82,#83,#84);
#86=CIRCLE('',#85,3.0);
#87=EDGE_CURVE('',#71,#81,#86,.T.);
#88=ORIENTED_EDGE('',*,*,#87,.T.);
#89=CARTESIAN_POINT('',(-3.0,3.673819E-016,4.450000000000000));
#90=VERTEX_POINT('',#89);
#91=CARTESIAN_POINT('',(-3.0,3.673819E-016,0.450000000000000));
#92=DIRECTION('',(0.0,0.0,1.0));
#93=VECTOR('',#92,4.0);
#94=LINE('',#91,#93);
#95=EDGE_CURVE('',#81,#90,#94,.T.);
#96=ORIENTED_EDGE('',*,*,#95,.T.);
#97=CARTESIAN_POINT('',(0.0,0.0,4.450000000000000));
#98=DIRECTION('',(0.0,0.0,1.0));
#99=DIRECTION('',(1.0,0.0,0.0));
#100=AXIS2_PLACEMENT_3D('',#97,#98,#99);
#101=CIRCLE('',#100,3.0);
#102=EDGE_CURVE('',#73,#90,#101,.T.);
#103=ORIENTED_EDGE('',*,*,#102,.F.);
#104=EDGE_LOOP('',(#79,#88,#96,#103));
#105=FACE_OUTER_BOUND('',#104,.T.);
#106=ADVANCED_FACE('',(#105),#69,.T.);
#107=CARTESIAN_POINT('',(0.0,0.0,4.450000000000000));
#108=DIRECTION('',(0.0,0.0,-1.0));
#109=DIRECTION('',(1.0,0.0,0.0));
#110=AXIS2_PLACEMENT_3D('',#107,#108,#109);
#111=CYLINDRICAL_SURFACE('',#110,3.0);
#112=ORIENTED_EDGE('',*,*,#78,.T.);
#113=CARTESIAN_POINT('',(0.0,0.0,4.450000000000000));
#114=DIRECTION('',(0.0,0.0,1.0));
#115=DIRECTION('',(1.0,0.0,0.0));
#116=AXIS2_PLACEMENT_3D('',#113,#114,#115);
#117=CIRCLE('',#116,3.0);
#118=EDGE_CURVE('',#90,#73,#117,.T.);
#119=ORIENTED_EDGE('',*,*,#118,.F.);
#120=ORIENTED_EDGE('',*,*,#95,.F.);
#121=CARTESIAN_POINT('',(0.0,0.0,0.450000000000000));
#122=DIRECTION('',(0.0,0.0,1.0));
#123=DIRECTION('',(1.0,0.0,0.0));
#124=AXIS2_PLACEMENT_3D('',#121,#122,#123);
#125=CIRCLE('',#124,3.0);
#126=EDGE_CURVE('',#81,#71,#125,.T.);
#127=ORIENTED_EDGE('',*,*,#126,.T.);
#128=EDGE_LOOP('',(#112,#119,#120,#127));
#129=FACE_OUTER_BOUND('',#128,.T.);
#130=ADVANCED_FACE('',(#129),#111,.T.);
#131=CARTESIAN_POINT('',(0.0,0.0,0.450000000000000));
#132=DIRECTION('',(0.0,0.0,1.0));
#133=DIRECTION('',(1.0,0.0,0.0));
#134=AXIS2_PLACEMENT_3D('',#131,#132,#133);
#135=PLANE('',#134);
#136=ORIENTED_EDGE('',*,*,#87,.F.);
#137=ORIENTED_EDGE('',*,*,#126,.F.);
#138=EDGE_LOOP('',(#136,#137));
#139=FACE_OUTER_BOUND('',#138,.T.);
#140=ADVANCED_FACE('',(#139),#135,.F.);
#141=CARTESIAN_POINT('',(0.0,0.0,4.450000000000000));
#142=DIRECTION('',(0.0,0.0,1.0));
#143=DIRECTION('',(1.0,0.0,0.0));
#144=AXIS2_PLACEMENT_3D('',#141,#142,#143);
#145=PLANE('',#144);
#146=ORIENTED_EDGE('',*,*,#102,.T.);
#147=ORIENTED_EDGE('',*,*,#118,.T.);
#148=EDGE_LOOP('',(#146,#147));
#149=FACE_OUTER_BOUND('',#148,.T.);
#150=ADVANCED_FACE('',(#149),#145,.T.);
#151=CLOSED_SHELL('',(#106,#130,#140,#150));
#152=MANIFOLD_SOLID_BREP('291',#151);
#153=COLOUR_RGB('250',0.330000000000000,0.330000000000000,0.330000000000000);
#154=SURFACE_STYLE_USAGE(.BOTH.,#155);
#155=SURFACE_SIDE_STYLE('NONE',(#156));
#156=SURFACE_STYLE_FILL_AREA(#157);
#157=FILL_AREA_STYLE('NONE',(#158));
#158=FILL_AREA_STYLE_COLOUR('NONE',#153);
#159=PRESENTATION_STYLE_ASSIGNMENT((#154));
#160=STYLED_ITEM('NONE',(#159),#152);
#161=MECHANICAL_DESIGN_GEOMETRIC_PRESENTATION_REPRESENTATION('NONE',(#160,#1377,#1535,#1686,#1837,#1988),#28);
#162=PRESENTATION_LAYER_ASSIGNMENT('3D','None',(#152,#1376,#1527,#1685,#1836,#1987));
#163=CARTESIAN_POINT('',(0.0,0.0,4.450000000000000));
#164=DIRECTION('',(0.0,0.0,-1.0));
#165=DIRECTION('',(1.0,0.0,0.0));
#166=AXIS2_PLACEMENT_3D('',#163,#164,#165);
#167=CYLINDRICAL_SURFACE('',#166,3.400000000000000);
#168=CARTESIAN_POINT('',(3.400000000000000,0.0,4.450000000000000));
#169=VERTEX_POINT('',#168);
#170=CARTESIAN_POINT('',(3.400000000000000,0.0,0.450000000000000));
#171=VERTEX_POINT('',#170);
#172=CARTESIAN_POINT('',(3.400000000000000,0.0,4.450000000000000));
#173=DIRECTION('',(0.0,0.0,-1.0));
#174=VECTOR('',#173,4.0);
#175=LINE('',#172,#174);
#176=EDGE_CURVE('',#169,#171,#175,.T.);
#177=ORIENTED_EDGE('',*,*,#176,.F.);
#178=CARTESIAN_POINT('',(2.999595702953540,1.600757826413057,4.450000000000000));
#179=VERTEX_POINT('',#178);
#180=CARTESIAN_POINT('',(0.0,0.0,4.450000000000000));
#181=DIRECTION('',(0.0,0.0,-1.0));
#182=DIRECTION('',(1.0,0.0,0.0));
#183=AXIS2_PLACEMENT_3D('',#180,#181,#182);
#184=CIRCLE('',#183,3.400000000000000);
#185=EDGE_CURVE('',#179,#169,#184,.T.);
#186=ORIENTED_EDGE('',*,*,#185,.F.);
#187=CARTESIAN_POINT('',(2.404163056034261,2.404163056034262,3.450000000000000));
#188=VERTEX_POINT('',#187);
#189=CARTESIAN_POINT('',(2.999595702953541,1.600757826413057,4.450000000000000));
#190=CARTESIAN_POINT('',(2.999595702953541,1.600757826413057,4.334853727723457));
#191=CARTESIAN_POINT('',(2.989718537509806,1.619722422091451,4.211498197281735));
#192=CARTESIAN_POINT('',(2.947010490645992,1.696185967211896,3.981822101755551));
#193=CARTESIAN_POINT('',(2.913931339324398,1.753519904106581,3.875492863212107));
#194=CARTESIAN_POINT('',(2.854967289287428,1.846703307757438,3.750976764728194));
#195=CARTESIAN_POINT('',(2.832991962072039,1.880435188908003,3.711795743603774));
#196=CARTESIAN_POINT('',(2.784118006446694,1.952067335757503,3.641065930384801));
#197=CARTESIAN_POINT('',(2.757188533906914,1.989944350845496,3.609514909494387));
#198=CARTESIAN_POINT('',(2.688035607007168,2.083172790937899,3.542678964619740));
#199=CARTESIAN_POINT('',(2.636476128904876,2.148597956558756,3.507273405003816));
#200=CARTESIAN_POINT('',(2.523831186565703,2.279858705744807,3.460937674439150));
#201=CARTESIAN_POINT('',(2.462685858111767,2.345640253956756,3.450000000000000));
#202=CARTESIAN_POINT('',(2.404163056034261,2.404163056034261,3.450000000000000));
#203=B_SPLINE_CURVE_WITH_KNOTS('',3,(#189,#190,#191,#192,#193,#194,#195,#196,#197,#198,#199,#200,#201,#202),.UNSPECIFIED.,.F.,.U.,(4,2,2,2,2,2,4),(-2.989070623125758,-2.643631806296130,-2.298192989466501,-2.144655371732946,-1.991117753999390,-1.742826532781135,-1.494535311562879),.UNSPECIFIED.);
#204=EDGE_CURVE('',#179,#188,#203,.T.);
#205=ORIENTED_EDGE('',*,*,#204,.T.);
#206=CARTESIAN_POINT('',(1.600757826413056,2.999595702953540,4.450000000000000));
#207=VERTEX_POINT('',#206);
#208=CARTESIAN_POINT('',(2.404163056034261,2.404163056034261,3.450000000000000));
#209=CARTESIAN_POINT('',(2.345640253956755,2.462685858111768,3.450000000000000));
#210=CARTESIAN_POINT('',(2.279858705744807,2.523831186565704,3.460937674439149));
#211=CARTESIAN_POINT('',(2.148597956558755,2.636476128904877,3.507273405003816));
#212=CARTESIAN_POINT('',(2.083172790937898,2.688035607007168,3.542678964619741));
#213=CARTESIAN_POINT('',(1.989944350845496,2.757188533906914,3.609514909494388));
#214=CARTESIAN_POINT('',(1.952067335757502,2.784118006446694,3.641065930384802));
#215=CARTESIAN_POINT('',(1.880435188908003,2.832991962072039,3.711795743603773));
#216=CARTESIAN_POINT('',(1.846703307757438,2.854967289287428,3.750976764728192));
#217=CARTESIAN_POINT('',(1.753519904106581,2.913931339324398,3.875492863212106));
#218=CARTESIAN_POINT('',(1.696185967211896,2.947010490645992,3.981822101755550));
#219=CARTESIAN_POINT('',(1.619722422091450,2.989718537509807,4.211498197281734));
#220=CARTESIAN_POINT('',(1.600757826413056,2.999595702953541,4.334853727723457));
#221=CARTESIAN_POINT('',(1.600757826413056,2.999595702953541,4.450000000000000));
#222=B_SPLINE_CURVE_WITH_KNOTS('',3,(#208,#209,#210,#211,#212,#213,#214,#215,#216,#217,#218,#219,#220,#221),.UNSPECIFIED.,.F.,.U.,(4,2,2,2,2,2,4),(-1.494535311562879,-1.246244090344623,-0.997952869126368,-0.844415251392814,-0.690877633659260,-0.345438816829629,0.0),.UNSPECIFIED.);
#223=EDGE_CURVE('',#188,#207,#222,.T.);
#224=ORIENTED_EDGE('',*,*,#223,.T.);
#225=CARTESIAN_POINT('',(-1.600757826413057,2.999595702953541,4.450000000000000));
#226=VERTEX_POINT('',#225);
#227=CARTESIAN_POINT('',(0.0,0.0,4.450000000000000));
#228=DIRECTION('',(0.0,0.0,-1.0));
#229=DIRECTION('',(1.0,0.0,0.0));
#230=AXIS2_PLACEMENT_3D('',#227,#228,#229);
#231=CIRCLE('',#230,3.400000000000000);
#232=EDGE_CURVE('',#226,#207,#231,.T.);
#233=ORIENTED_EDGE('',*,*,#232,.F.);
#234=CARTESIAN_POINT('',(-2.404163056034261,2.404163056034261,3.450000000000000));
#235=VERTEX_POINT('',#234);
#236=CARTESIAN_POINT('',(-1.600757826413057,2.999595702953541,4.450000000000000));
#237=CARTESIAN_POINT('',(-1.600757826413057,2.999595702953541,4.334853727723457));
#238=CARTESIAN_POINT('',(-1.619722422091451,2.989718537509806,4.211498197281735));
#239=CARTESIAN_POINT('',(-1.696185967211896,2.947010490645992,3.981822101755551));
#240=CARTESIAN_POINT('',(-1.753519904106580,2.913931339324398,3.875492863212107));
#241=CARTESIAN_POINT('',(-1.846703307757437,2.854967289287428,3.750976764728193));
#242=CARTESIAN_POINT('',(-1.880435188908004,2.832991962072039,3.711795743603772));
#243=CARTESIAN_POINT('',(-1.952067335757503,2.784118006446694,3.641065930384801));
#244=CARTESIAN_POINT('',(-1.989944350845496,2.757188533906914,3.609514909494388));
#245=CARTESIAN_POINT('',(-2.083172790937899,2.688035607007168,3.542678964619741));
#246=CARTESIAN_POINT('',(-2.148597956558755,2.636476128904877,3.507273405003816));
#247=CARTESIAN_POINT('',(-2.279858705744807,2.523831186565703,3.460937674439150));
#248=CARTESIAN_POINT('',(-2.345640253956756,2.462685858111768,3.450000000000000));
#249=CARTESIAN_POINT('',(-2.404163056034261,2.404163056034262,3.450000000000000));
#250=B_SPLINE_CURVE_WITH_KNOTS('',3,(#236,#237,#238,#239,#240,#241,#242,#243,#244,#245,#246,#247,#248,#249),.UNSPECIFIED.,.F.,.U.,(4,2,2,2,2,2,4),(-2.989070623125758,-2.643631806296129,-2.298192989466500,-2.144655371732945,-1.991117753999391,-1.742826532781135,-1.494535311562879),.UNSPECIFIED.);
#251=EDGE_CURVE('',#226,#235,#250,.T.);
#252=ORIENTED_EDGE('',*,*,#251,.T.);
#253=CARTESIAN_POINT('',(-2.999595702953541,1.600757826413057,4.450000000000000));
#254=VERTEX_POINT('',#253);
#255=CARTESIAN_POINT('',(-2.404163056034261,2.404163056034262,3.450000000000000));
#256=CARTESIAN_POINT('',(-2.462685858111767,2.345640253956756,3.450000000000000));
#257=CARTESIAN_POINT('',(-2.523831186565703,2.279858705744807,3.460937674439150));
#258=CARTESIAN_POINT('',(-2.636476128904876,2.148597956558756,3.507273405003816));
#259=CARTESIAN_POINT('',(-2.688035607007168,2.083172790937899,3.542678964619740));
#260=CARTESIAN_POINT('',(-2.757188533906914,1.989944350845496,3.609514909494388));
#261=CARTESIAN_POINT('',(-2.784118006446694,1.952067335757502,3.641065930384801));
#262=CARTESIAN_POINT('',(-2.832991962072039,1.880435188908003,3.711795743603774));
#263=CARTESIAN_POINT('',(-2.854967289287429,1.846703307757437,3.750976764728194));
#264=CARTESIAN_POINT('',(-2.913931339324398,1.753519904106580,3.875492863212108));
#265=CARTESIAN_POINT('',(-2.947010490645992,1.696185967211896,3.981822101755551));
#266=CARTESIAN_POINT('',(-2.989718537509807,1.619722422091451,4.211498197281735));
#267=CARTESIAN_POINT('',(-2.999595702953541,1.600757826413057,4.334853727723457));
#268=CARTESIAN_POINT('',(-2.999595702953541,1.600757826413057,4.450000000000000));
#269=B_SPLINE_CURVE_WITH_KNOTS('',3,(#255,#256,#257,#258,#259,#260,#261,#262,#263,#264,#265,#266,#267,#268),.UNSPECIFIED.,.F.,.U.,(4,2,2,2,2,2,4),(-1.494535311562879,-1.246244090344624,-0.997952869126369,-0.844415251392813,-0.690877633659257,-0.345438816829629,0.0),.UNSPECIFIED.);
#270=EDGE_CURVE('',#235,#254,#269,.T.);
#271=ORIENTED_EDGE('',*,*,#270,.T.);
#272=CARTESIAN_POINT('',(-3.400000000000000,4.163662E-016,4.450000000000000));
#273=VERTEX_POINT('',#272);
#274=CARTESIAN_POINT('',(0.0,0.0,4.450000000000000));
#275=DIRECTION('',(0.0,0.0,-1.0));
#276=DIRECTION('',(1.0,0.0,0.0));
#277=AXIS2_PLACEMENT_3D('',#274,#275,#276);
#278=CIRCLE('',#277,3.400000000000000);
#279=EDGE_CURVE('',#273,#254,#278,.T.);
#280=ORIENTED_EDGE('',*,*,#279,.F.);
#281=CARTESIAN_POINT('',(-3.400000000000000,4.163662E-016,0.450000000000000));
#282=VERTEX_POINT('',#281);
#283=CARTESIAN_POINT('',(-3.400000000000000,4.163662E-016,4.450000000000000));
#284=DIRECTION('',(0.0,0.0,-1.0));
#285=VECTOR('',#284,4.0);
#286=LINE('',#283,#285);
#287=EDGE_CURVE('',#273,#282,#286,.T.);
#288=ORIENTED_EDGE('',*,*,#287,.T.);
#289=CARTESIAN_POINT('',(0.0,0.0,0.450000000000000));
#290=DIRECTION('',(0.0,0.0,1.0));
#291=DIRECTION('',(1.0,0.0,0.0));
#292=AXIS2_PLACEMENT_3D('',#289,#290,#291);
#293=CIRCLE('',#292,3.400000000000000);
#294=EDGE_CURVE('',#171,#282,#293,.T.);
#295=ORIENTED_EDGE('',*,*,#294,.F.);
#296=EDGE_LOOP('',(#177,#186,#205,#224,#233,#252,#271,#280,#288,#295));
#297=FACE_OUTER_BOUND('',#296,.T.);
#298=ADVANCED_FACE('',(#297),#167,.F.);
#299=CARTESIAN_POINT('',(2.404163056034262,-2.404163056034261,4.450000000000000));
#300=DIRECTION('',(0.0,0.0,1.0));
#301=DIRECTION('',(0.0,-1.0,0.0));
#302=AXIS2_PLACEMENT_3D('',#299,#300,#301);
#303=SPHERICAL_SURFACE('',#302,1.0);
#304=CARTESIAN_POINT('',(2.404163056034262,-2.404163056034261,3.450000000000000));
#305=VERTEX_POINT('',#304);
#306=CARTESIAN_POINT('',(2.404163056034262,-3.404163056034261,4.450000000000000));
#307=VERTEX_POINT('',#306);
#308=CARTESIAN_POINT('',(2.404163056034262,-2.404163056034261,4.450000000000000));
#309=DIRECTION('',(-1.0,0.0,0.0));
#310=DIRECTION('',(0.0,-1.0,0.0));
#311=AXIS2_PLACEMENT_3D('',#308,#309,#310);
#312=CIRCLE('',#311,1.0);
#313=EDGE_CURVE('',#305,#307,#312,.T.);
#314=ORIENTED_EDGE('',*,*,#313,.F.);
#315=CARTESIAN_POINT('',(1.600757826413057,-2.999595702953540,4.450000000000000));
#316=VERTEX_POINT('',#315);
#317=CARTESIAN_POINT('',(1.600757826413057,-2.999595702953541,4.450000000000000));
#318=CARTESIAN_POINT('',(1.600757826413057,-2.999595702953541,4.334853727723457));
#319=CARTESIAN_POINT('',(1.619722422091452,-2.989718537509807,4.211498197281735));
#320=CARTESIAN_POINT('',(1.696185967211897,-2.947010490645992,3.981822101755550));
#321=CARTESIAN_POINT('',(1.753519904106581,-2.913931339324398,3.875492863212106));
#322=CARTESIAN_POINT('',(1.846703307757438,-2.854967289287428,3.750976764728193));
#323=CARTESIAN_POINT('',(1.880435188908004,-2.832991962072039,3.711795743603772));
#324=CARTESIAN_POINT('',(1.952067335757503,-2.784118006446694,3.641065930384801));
#325=CARTESIAN_POINT('',(1.989944350845497,-2.757188533906914,3.609514909494387));
#326=CARTESIAN_POINT('',(2.083172790937899,-2.688035607007168,3.542678964619740));
#327=CARTESIAN_POINT('',(2.148597956558756,-2.636476128904876,3.507273405003816));
#328=CARTESIAN_POINT('',(2.279858705744808,-2.523831186565703,3.460937674439150));
#329=CARTESIAN_POINT('',(2.345640253956756,-2.462685858111767,3.450000000000000));
#330=CARTESIAN_POINT('',(2.404163056034261,-2.404163056034261,3.450000000000000));
#331=B_SPLINE_CURVE_WITH_KNOTS('',3,(#317,#318,#319,#320,#321,#322,#323,#324,#325,#326,#327,#328,#329,#330),.UNSPECIFIED.,.F.,.U.,(4,2,2,2,2,2,4),(-2.989070623125759,-2.643631806296130,-2.298192989466500,-2.144655371732945,-1.991117753999391,-1.742826532781135,-1.494535311562879),.UNSPECIFIED.);
#332=EDGE_CURVE('',#316,#305,#331,.T.);
#333=ORIENTED_EDGE('',*,*,#332,.F.);
#334=CARTESIAN_POINT('',(2.404163056034262,-2.404163056034261,4.450000000000000));
#335=DIRECTION('',(0.0,0.0,-1.0));
#336=DIRECTION('',(0.0,1.0,0.0));
#337=AXIS2_PLACEMENT_3D('',#334,#335,#336);
#338=CIRCLE('',#337,1.0);
#339=EDGE_CURVE('',#307,#316,#338,.T.);
#340=ORIENTED_EDGE('',*,*,#339,.F.);
#341=EDGE_LOOP('',(#314,#333,#340));
#342=FACE_OUTER_BOUND('',#341,.T.);
#343=ADVANCED_FACE('',(#342),#303,.F.);
#344=CARTESIAN_POINT('',(-2.404163056034261,-2.404163056034261,4.450000000000000));
#345=DIRECTION('',(0.0,0.0,1.0));
#346=DIRECTION('',(0.0,-1.0,0.0));
#347=AXIS2_PLACEMENT_3D('',#344,#345,#346);
#348=SPHERICAL_SURFACE('',#347,1.0);
#349=CARTESIAN_POINT('',(-2.404163056034261,-2.404163056034261,3.450000000000000));
#350=VERTEX_POINT('',#349);
#351=CARTESIAN_POINT('',(-2.404163056034261,-3.404163056034261,4.450000000000000));
#352=VERTEX_POINT('',#351);
#353=CARTESIAN_POINT('',(-2.404163056034261,-2.404163056034261,4.450000000000000));
#354=DIRECTION('',(-1.0,0.0,0.0));
#355=DIRECTION('',(0.0,-1.0,0.0));
#356=AXIS2_PLACEMENT_3D('',#353,#354,#355);
#357=CIRCLE('',#356,1.0);
#358=EDGE_CURVE('',#350,#352,#357,.T.);
#359=ORIENTED_EDGE('',*,*,#358,.F.);
#360=CARTESIAN_POINT('',(-2.999595702953541,-1.600757826413057,4.450000000000000));
#361=VERTEX_POINT('',#360);
#362=CARTESIAN_POINT('',(-2.999595702953541,-1.600757826413057,4.450000000000000));
#363=CARTESIAN_POINT('',(-2.999595702953541,-1.600757826413057,4.334853727723457));
#364=CARTESIAN_POINT('',(-2.989718537509807,-1.619722422091451,4.211498197281735));
#365=CARTESIAN_POINT('',(-2.947010490645992,-1.696185967211896,3.981822101755551));
#366=CARTESIAN_POINT('',(-2.913931339324398,-1.753519904106580,3.875492863212108));
#367=CARTESIAN_POINT('',(-2.854967289287429,-1.846703307757437,3.750976764728194));
#368=CARTESIAN_POINT('',(-2.832991962072040,-1.880435188908002,3.711795743603774));
#369=CARTESIAN_POINT('',(-2.784118006446695,-1.952067335757501,3.641065930384802));
#370=CARTESIAN_POINT('',(-2.757188533906914,-1.989944350845495,3.609514909494388));
#371=CARTESIAN_POINT('',(-2.688035607007169,-2.083172790937898,3.542678964619741));
#372=CARTESIAN_POINT('',(-2.636476128904877,-2.148597956558756,3.507273405003816));
#373=CARTESIAN_POINT('',(-2.523831186565704,-2.279858705744808,3.460937674439150));
#374=CARTESIAN_POINT('',(-2.462685858111767,-2.345640253956756,3.450000000000000));
#375=CARTESIAN_POINT('',(-2.404163056034261,-2.404163056034262,3.450000000000000));
#376=B_SPLINE_CURVE_WITH_KNOTS('',3,(#362,#363,#364,#365,#366,#367,#368,#369,#370,#371,#372,#373,#374,#375),.UNSPECIFIED.,.F.,.U.,(4,2,2,2,2,2,4),(-2.989070623125758,-2.643631806296130,-2.298192989466501,-2.144655371732946,-1.991117753999391,-1.742826532781135,-1.494535311562879),.UNSPECIFIED.);
#377=EDGE_CURVE('',#361,#350,#376,.T.);
#378=ORIENTED_EDGE('',*,*,#377,.F.);
#379=CARTESIAN_POINT('',(-2.404163056034261,-2.404163056034261,4.450000000000000));
#380=DIRECTION('',(0.0,0.0,-1.0));
#381=DIRECTION('',(0.0,1.0,0.0));
#382=AXIS2_PLACEMENT_3D('',#379,#380,#381);
#383=CIRCLE('',#382,1.0);
#384=EDGE_CURVE('',#352,#361,#383,.T.);
#385=ORIENTED_EDGE('',*,*,#384,.F.);
#386=EDGE_LOOP('',(#359,#378,#385));
#387=FACE_OUTER_BOUND('',#386,.T.);
#388=ADVANCED_FACE('',(#387),#348,.F.);
#389=CARTESIAN_POINT('',(-2.800000000000001,2.800000000000000,0.0));
#390=DIRECTION('',(0.0,0.0,1.0));
#391=DIRECTION('',(-0.707106781186548,0.707106781186548,0.0));
#392=AXIS2_PLACEMENT_3D('',#389,#390,#391);
#393=CYLINDRICAL_SURFACE('',#392,1.000000000000000);
#394=CARTESIAN_POINT('',(-3.800000000000000,2.799999999999999,4.450000000000000));
#395=VERTEX_POINT('',#394);
#396=CARTESIAN_POINT('',(-2.800000000000001,3.800000000000000,4.450000000000000));
#397=VERTEX_POINT('',#396);
#398=CARTESIAN_POINT('',(-2.800000000000001,2.800000000000000,4.450000000000000));
#399=DIRECTION('',(0.0,0.0,-1.000000000000000));
#400=DIRECTION('',(-0.707106781186548,0.707106781186548,0.0));
#401=AXIS2_PLACEMENT_3D('',#398,#399,#400);
#402=CIRCLE('',#401,1.000000000000000);
#403=EDGE_CURVE('',#395,#397,#402,.T.);
#404=ORIENTED_EDGE('',*,*,#403,.T.);
#405=CARTESIAN_POINT('',(-2.800000000000001,3.800000000000000,0.0));
#406=VERTEX_POINT('',#405);
#407=CARTESIAN_POINT('',(-2.800000000000001,3.800000000000000,4.450000000000000));
#408=DIRECTION('',(0.0,0.0,-1.0));
#409=VECTOR('',#408,4.450000000000000);
#410=LINE('',#407,#409);
#411=EDGE_CURVE('',#397,#406,#410,.T.);
#412=ORIENTED_EDGE('',*,*,#411,.T.);
#413=CARTESIAN_POINT('',(-3.800000000000000,2.799999999999999,0.0));
#414=VERTEX_POINT('',#413);
#415=CARTESIAN_POINT('',(-2.800000000000001,2.800000000000000,0.0));
#416=DIRECTION('',(0.0,0.0,1.000000000000000));
#417=DIRECTION('',(-0.707106781186548,0.707106781186548,0.0));
#418=AXIS2_PLACEMENT_3D('',#415,#416,#417);
#419=CIRCLE('',#418,1.000000000000000);
#420=EDGE_CURVE('',#406,#414,#419,.T.);
#421=ORIENTED_EDGE('',*,*,#420,.T.);
#422=CARTESIAN_POINT('',(-3.800000000000001,2.799999999999999,0.0));
#423=DIRECTION('',(0.0,0.0,1.0));
#424=VECTOR('',#423,4.450000000000000);
#425=LINE('',#422,#424);
#426=EDGE_CURVE('',#414,#395,#425,.T.);
#427=ORIENTED_EDGE('',*,*,#426,.T.);
#428=EDGE_LOOP('',(#404,#412,#421,#427));
#429=FACE_OUTER_BOUND('',#428,.T.);
#430=ADVANCED_FACE('',(#429),#393,.T.);
#431=CARTESIAN_POINT('',(-3.800000000000001,3.800000000000000,0.0));
#432=DIRECTION('',(0.0,1.0,0.0));
#433=DIRECTION('',(0.0,0.0,1.0));
#434=AXIS2_PLACEMENT_3D('',#431,#432,#433);
#435=PLANE('',#434);
#436=ORIENTED_EDGE('',*,*,#411,.F.);
#437=CARTESIAN_POINT('',(2.799999999999999,3.800000000000000,4.450000000000000));
#438=VERTEX_POINT('',#437);
#439=CARTESIAN_POINT('',(-2.800000000000001,3.800000000000000,4.450000000000000));
#440=DIRECTION('',(1.0,0.0,0.0));
#441=VECTOR('',#440,5.600000000000000);
#442=LINE('',#439,#441);
#443=EDGE_CURVE('',#397,#438,#442,.T.);
#444=ORIENTED_EDGE('',*,*,#443,.T.);
#445=CARTESIAN_POINT('',(2.799999999999999,3.800000000000000,0.0));
#446=VERTEX_POINT('',#445);
#447=CARTESIAN_POINT('',(2.799999999999999,3.800000000000000,0.0));
#448=DIRECTION('',(0.0,0.0,1.0));
#449=VECTOR('',#448,4.450000000000000);
#450=LINE('',#447,#449);
#451=EDGE_CURVE('',#446,#438,#450,.T.);
#452=ORIENTED_EDGE('',*,*,#451,.F.);
#453=CARTESIAN_POINT('',(2.0,3.799999999999999,0.0));
#454=VERTEX_POINT('',#453);
#455=CARTESIAN_POINT('',(2.799999999999999,3.800000000000000,0.0));
#456=DIRECTION('',(-1.0,0.0,0.0));
#457=VECTOR('',#456,0.799999999999999);
#458=LINE('',#455,#457);
#459=EDGE_CURVE('',#446,#454,#458,.T.);
#460=ORIENTED_EDGE('',*,*,#459,.T.);
#461=CARTESIAN_POINT('',(2.0,3.799999999999999,0.200000000000000));
#462=VERTEX_POINT('',#461);
#463=CARTESIAN_POINT('',(2.0,3.800000000000000,0.0));
#464=DIRECTION('',(0.0,0.0,1.0));
#465=VECTOR('',#464,0.200000000000000);
#466=LINE('',#463,#465);
#467=EDGE_CURVE('',#454,#462,#466,.T.);
#468=ORIENTED_EDGE('',*,*,#467,.T.);
#469=CARTESIAN_POINT('',(-2.000000000000001,3.799999999999999,0.200000000000000));
#470=VERTEX_POINT('',#469);
#471=CARTESIAN_POINT('',(2.000000000000000,3.800000000000000,0.200000000000000));
#472=DIRECTION('',(-1.0,0.0,0.0));
#473=VECTOR('',#472,4.000000000000001);
#474=LINE('',#471,#473);
#475=EDGE_CURVE('',#462,#470,#474,.T.);
#476=ORIENTED_EDGE('',*,*,#475,.T.);
#477=CARTESIAN_POINT('',(-2.000000000000001,3.799999999999999,0.0));
#478=VERTEX_POINT('',#477);
#479=CARTESIAN_POINT('',(-2.000000000000001,3.800000000000000,0.200000000000000));
#480=DIRECTION('',(0.0,0.0,-1.0));
#481=VECTOR('',#480,0.200000000000000);
#482=LINE('',#479,#481);
#483=EDGE_CURVE('',#470,#478,#482,.T.);
#484=ORIENTED_EDGE('',*,*,#483,.T.);
#485=CARTESIAN_POINT('',(-2.000000000000001,3.800000000000000,0.0));
#486=DIRECTION('',(-1.0,0.0,0.0));
#487=VECTOR('',#486,0.800000000000000);
#488=LINE('',#485,#487);
#489=EDGE_CURVE('',#478,#406,#488,.T.);
#490=ORIENTED_EDGE('',*,*,#489,.T.);
#491=EDGE_LOOP('',(#436,#444,#452,#460,#468,#476,#484,#490));
#492=FACE_OUTER_BOUND('',#491,.T.);
#493=ADVANCED_FACE('',(#492),#435,.T.);
#494=CARTESIAN_POINT('',(-7.771561E-016,2.725093E-016,4.450000000000000));
#495=DIRECTION('',(0.0,0.0,1.0));
#496=DIRECTION('',(1.0,0.0,0.0));
#497=AXIS2_PLACEMENT_3D('',#494,#495,#496);
#498=PLANE('',#497);
#499=ORIENTED_EDGE('',*,*,#403,.F.);
#500=CARTESIAN_POINT('',(-3.799999999999999,-2.800000000000000,4.450000000000000));
#501=VERTEX_POINT('',#500);
#502=CARTESIAN_POINT('',(-3.799999999999999,-2.800000000000000,4.450000000000000));
#503=DIRECTION('',(0.0,1.0,0.0));
#504=VECTOR('',#503,5.600000000000000);
#505=LINE('',#502,#504);
#506=EDGE_CURVE('',#501,#395,#505,.T.);
#507=ORIENTED_EDGE('',*,*,#506,.F.);
#508=CARTESIAN_POINT('',(-2.799999999999999,-3.800000000000000,4.450000000000000));
#509=VERTEX_POINT('',#508);
#510=CARTESIAN_POINT('',(-2.799999999999999,-2.800000000000000,4.450000000000000));
#511=DIRECTION('',(0.0,0.0,-1.000000000000000));
#512=DIRECTION('',(-0.707106781186548,-0.707106781186548,0.0));
#513=AXIS2_PLACEMENT_3D('',#510,#511,#512);
#514=CIRCLE('',#513,1.000000000000000);
#515=EDGE_CURVE('',#509,#501,#514,.T.);
#516=ORIENTED_EDGE('',*,*,#515,.F.);
#517=CARTESIAN_POINT('',(2.799999999999999,-3.800000000000000,4.450000000000000));
#518=VERTEX_POINT('',#517);
#519=CARTESIAN_POINT('',(2.799999999999999,-3.800000000000000,4.450000000000000));
#520=DIRECTION('',(-1.0,0.0,0.0));
#521=VECTOR('',#520,5.599999999999998);
#522=LINE('',#519,#521);
#523=EDGE_CURVE('',#518,#509,#522,.T.);
#524=ORIENTED_EDGE('',*,*,#523,.F.);
#525=CARTESIAN_POINT('',(3.799999999999999,-2.800000000000000,4.450000000000000));
#526=VERTEX_POINT('',#525);
#527=CARTESIAN_POINT('',(2.799999999999999,-2.800000000000000,4.450000000000000));
#528=DIRECTION('',(0.0,0.0,-1.000000000000000));
#529=DIRECTION('',(0.707106781186548,-0.707106781186548,0.0));
#530=AXIS2_PLACEMENT_3D('',#527,#528,#529);
#531=CIRCLE('',#530,1.000000000000000);
#532=EDGE_CURVE('',#526,#518,#531,.T.);
#533=ORIENTED_EDGE('',*,*,#532,.F.);
#534=CARTESIAN_POINT('',(3.799999999999999,2.800000000000000,4.450000000000000));
#535=VERTEX_POINT('',#534);
#536=CARTESIAN_POINT('',(3.799999999999999,2.800000000000000,4.450000000000000));
#537=DIRECTION('',(0.0,-1.0,0.0));
#538=VECTOR('',#537,5.600000000000000);
#539=LINE('',#536,#538);
#540=EDGE_CURVE('',#535,#526,#539,.T.);
#541=ORIENTED_EDGE('',*,*,#540,.F.);
#542=CARTESIAN_POINT('',(2.799999999999999,2.800000000000000,4.450000000000000));
#543=DIRECTION('',(0.0,0.0,-1.000000000000000));
#544=DIRECTION('',(0.707106781186548,0.707106781186548,0.0));
#545=AXIS2_PLACEMENT_3D('',#542,#543,#544);
#546=CIRCLE('',#545,1.000000000000000);
#547=EDGE_CURVE('',#438,#535,#546,.T.);
#548=ORIENTED_EDGE('',*,*,#547,.F.);
#549=ORIENTED_EDGE('',*,*,#443,.F.);
#550=EDGE_LOOP('',(#499,#507,#516,#524,#533,#541,#548,#549));
#551=FACE_OUTER_BOUND('',#550,.T.);
#552=CARTESIAN_POINT('',(-2.404163056034261,2.404163056034261,4.450000000000000));
#553=DIRECTION('',(0.0,0.0,-1.0));
#554=DIRECTION('',(0.0,1.0,0.0));
#555=AXIS2_PLACEMENT_3D('',#552,#553,#554);
#556=CIRCLE('',#555,1.0);
#557=EDGE_CURVE('',#254,#226,#556,.T.);
#558=ORIENTED_EDGE('',*,*,#557,.T.);
#559=ORIENTED_EDGE('',*,*,#232,.T.);
#560=CARTESIAN_POINT('',(2.404163056034261,2.404163056034262,4.450000000000000));
#561=DIRECTION('',(0.0,0.0,-1.0));
#562=DIRECTION('',(0.0,1.0,0.0));
#563=AXIS2_PLACEMENT_3D('',#560,#561,#562);
#564=CIRCLE('',#563,1.0);
#565=EDGE_CURVE('',#207,#179,#564,.T.);
#566=ORIENTED_EDGE('',*,*,#565,.T.);
#567=ORIENTED_EDGE('',*,*,#185,.T.);
#568=CARTESIAN_POINT('',(2.999595702953540,-1.600757826413056,4.450000000000000));
#569=VERTEX_POINT('',#568);
#570=CARTESIAN_POINT('',(0.0,0.0,4.450000000000000));
#571=DIRECTION('',(0.0,0.0,-1.0));
#572=DIRECTION('',(1.0,0.0,0.0));
#573=AXIS2_PLACEMENT_3D('',#570,#571,#572);
#574=CIRCLE('',#573,3.400000000000000);
#575=EDGE_CURVE('',#169,#569,#574,.T.);
#576=ORIENTED_EDGE('',*,*,#575,.T.);
#577=CARTESIAN_POINT('',(2.404163056034262,-2.404163056034261,4.450000000000000));
#578=DIRECTION('',(0.0,0.0,-1.0));
#579=DIRECTION('',(0.0,1.0,0.0));
#580=AXIS2_PLACEMENT_3D('',#577,#578,#579);
#581=CIRCLE('',#580,1.0);
#582=EDGE_CURVE('',#569,#307,#581,.T.);
#583=ORIENTED_EDGE('',*,*,#582,.T.);
#584=ORIENTED_EDGE('',*,*,#339,.T.);
#585=CARTESIAN_POINT('',(-1.600757826413057,-2.999595702953541,4.450000000000000));
#586=VERTEX_POINT('',#585);
#587=CARTESIAN_POINT('',(0.0,0.0,4.450000000000000));
#588=DIRECTION('',(0.0,0.0,-1.0));
#589=DIRECTION('',(1.0,0.0,0.0));
#590=AXIS2_PLACEMENT_3D('',#587,#588,#589);
#591=CIRCLE('',#590,3.400000000000000);
#592=EDGE_CURVE('',#316,#586,#591,.T.);
#593=ORIENTED_EDGE('',*,*,#592,.T.);
#594=CARTESIAN_POINT('',(-2.404163056034261,-2.404163056034261,4.450000000000000));
#595=DIRECTION('',(0.0,0.0,-1.0));
#596=DIRECTION('',(0.0,1.0,0.0));
#597=AXIS2_PLACEMENT_3D('',#594,#595,#596);
#598=CIRCLE('',#597,1.0);
#599=EDGE_CURVE('',#586,#352,#598,.T.);
#600=ORIENTED_EDGE('',*,*,#599,.T.);
#601=ORIENTED_EDGE('',*,*,#384,.T.);
#602=CARTESIAN_POINT('',(0.0,0.0,4.450000000000000));
#603=DIRECTION('',(0.0,0.0,-1.0));
#604=DIRECTION('',(1.0,0.0,0.0));
#605=AXIS2_PLACEMENT_3D('',#602,#603,#604);
#606=CIRCLE('',#605,3.400000000000000);
#607=EDGE_CURVE('',#361,#273,#606,.T.);
#608=ORIENTED_EDGE('',*,*,#607,.T.);
#609=ORIENTED_EDGE('',*,*,#279,.T.);
#610=EDGE_LOOP('',(#558,#559,#566,#567,#576,#583,#584,#593,#600,#601,#608,#609));
#611=FACE_BOUND('',#610,.T.);
#612=ADVANCED_FACE('',(#551,#611),#498,.T.);
#613=CARTESIAN_POINT('',(-2.799999999999999,-2.800000000000000,0.0));
#614=DIRECTION('',(0.0,0.0,1.0));
#615=DIRECTION('',(-0.707106781186548,-0.707106781186548,0.0));
#616=AXIS2_PLACEMENT_3D('',#613,#614,#615);
#617=CYLINDRICAL_SURFACE('',#616,1.000000000000000);
#618=ORIENTED_EDGE('',*,*,#515,.T.);
#619=CARTESIAN_POINT('',(-3.799999999999999,-2.800000000000000,0.0));
#620=VERTEX_POINT('',#619);
#621=CARTESIAN_POINT('',(-3.799999999999999,-2.800000000000000,4.450000000000000));
#622=DIRECTION('',(0.0,0.0,-1.0));
#623=VECTOR('',#622,4.450000000000000);
#624=LINE('',#621,#623);
#625=EDGE_CURVE('',#501,#620,#624,.T.);
#626=ORIENTED_EDGE('',*,*,#625,.T.);
#627=CARTESIAN_POINT('',(-2.799999999999999,-3.800000000000000,0.0));
#628=VERTEX_POINT('',#627);
#629=CARTESIAN_POINT('',(-2.799999999999999,-2.800000000000000,0.0));
#630=DIRECTION('',(0.0,0.0,1.000000000000000));
#631=DIRECTION('',(-0.707106781186548,-0.707106781186548,0.0));
#632=AXIS2_PLACEMENT_3D('',#629,#630,#631);
#633=CIRCLE('',#632,1.000000000000000);
#634=EDGE_CURVE('',#620,#628,#633,.T.);
#635=ORIENTED_EDGE('',*,*,#634,.T.);
#636=CARTESIAN_POINT('',(-2.799999999999999,-3.800000000000000,0.0));
#637=DIRECTION('',(0.0,0.0,1.0));
#638=VECTOR('',#637,4.450000000000000);
#639=LINE('',#636,#638);
#640=EDGE_CURVE('',#628,#509,#639,.T.);
#641=ORIENTED_EDGE('',*,*,#640,.T.);
#642=EDGE_LOOP('',(#618,#626,#635,#641));
#643=FACE_OUTER_BOUND('',#642,.T.);
#644=ADVANCED_FACE('',(#643),#617,.T.);
#645=CARTESIAN_POINT('',(3.799999999999999,-3.800000000000000,0.0));
#646=DIRECTION('',(0.0,-1.0,0.0));
#647=DIRECTION('',(0.0,0.0,-1.0));
#648=AXIS2_PLACEMENT_3D('',#645,#646,#647);
#649=PLANE('',#648);
#650=ORIENTED_EDGE('',*,*,#640,.F.);
#651=CARTESIAN_POINT('',(-2.000000000000002,-3.800000000000000,0.0));
#652=VERTEX_POINT('',#651);
#653=CARTESIAN_POINT('',(-2.799999999999999,-3.800000000000000,0.0));
#654=DIRECTION('',(1.0,0.0,0.0));
#655=VECTOR('',#654,0.799999999999997);
#656=LINE('',#653,#655);
#657=EDGE_CURVE('',#628,#652,#656,.T.);
#658=ORIENTED_EDGE('',*,*,#657,.T.);
#659=CARTESIAN_POINT('',(-2.000000000000002,-3.800000000000000,0.200000000000000));
#660=VERTEX_POINT('',#659);
#661=CARTESIAN_POINT('',(-2.000000000000002,-3.800000000000000,0.0));
#662=DIRECTION('',(0.0,0.0,1.0));
#663=VECTOR('',#662,0.200000000000000);
#664=LINE('',#661,#663);
#665=EDGE_CURVE('',#652,#660,#664,.T.);
#666=ORIENTED_EDGE('',*,*,#665,.T.);
#667=CARTESIAN_POINT('',(1.999999999999998,-3.799999999999999,0.200000000000000));
#668=VERTEX_POINT('',#667);
#669=CARTESIAN_POINT('',(-2.000000000000002,-3.800000000000000,0.200000000000000));
#670=DIRECTION('',(1.0,0.0,0.0));
#671=VECTOR('',#670,4.0);
#672=LINE('',#669,#671);
#673=EDGE_CURVE('',#660,#668,#672,.T.);
#674=ORIENTED_EDGE('',*,*,#673,.T.);
#675=CARTESIAN_POINT('',(1.999999999999998,-3.799999999999999,0.0));
#676=VERTEX_POINT('',#675);
#677=CARTESIAN_POINT('',(1.999999999999998,-3.800000000000000,0.200000000000000));
#678=DIRECTION('',(0.0,0.0,-1.0));
#679=VECTOR('',#678,0.200000000000000);
#680=LINE('',#677,#679);
#681=EDGE_CURVE('',#668,#676,#680,.T.);
#682=ORIENTED_EDGE('',*,*,#681,.T.);
#683=CARTESIAN_POINT('',(2.799999999999999,-3.800000000000000,0.0));
#684=VERTEX_POINT('',#683);
#685=CARTESIAN_POINT('',(1.999999999999998,-3.800000000000000,0.0));
#686=DIRECTION('',(1.0,0.0,0.0));
#687=VECTOR('',#686,0.800000000000001);
#688=LINE('',#685,#687);
#689=EDGE_CURVE('',#676,#684,#688,.T.);
#690=ORIENTED_EDGE('',*,*,#689,.T.);
#691=CARTESIAN_POINT('',(2.799999999999999,-3.800000000000000,4.450000000000000));
#692=DIRECTION('',(0.0,0.0,-1.0));
#693=VECTOR('',#692,4.450000000000000);
#694=LINE('',#691,#693);
#695=EDGE_CURVE('',#518,#684,#694,.T.);
#696=ORIENTED_EDGE('',*,*,#695,.F.);
#697=ORIENTED_EDGE('',*,*,#523,.T.);
#698=EDGE_LOOP('',(#650,#658,#666,#674,#682,#690,#696,#697));
#699=FACE_OUTER_BOUND('',#698,.T.);
#700=ADVANCED_FACE('',(#699),#649,.T.);
#701=CARTESIAN_POINT('',(2.799999999999999,-2.800000000000000,0.0));
#702=DIRECTION('',(0.0,0.0,1.0));
#703=DIRECTION('',(0.707106781186548,-0.707106781186548,0.0));
#704=AXIS2_PLACEMENT_3D('',#701,#702,#703);
#705=CYLINDRICAL_SURFACE('',#704,1.000000000000000);
#706=ORIENTED_EDGE('',*,*,#532,.T.);
#707=ORIENTED_EDGE('',*,*,#695,.T.);
#708=CARTESIAN_POINT('',(3.799999999999999,-2.800000000000000,0.0));
#709=VERTEX_POINT('',#708);
#710=CARTESIAN_POINT('',(2.799999999999999,-2.800000000000000,0.0));
#711=DIRECTION('',(0.0,0.0,1.000000000000000));
#712=DIRECTION('',(0.707106781186548,-0.707106781186548,0.0));
#713=AXIS2_PLACEMENT_3D('',#710,#711,#712);
#714=CIRCLE('',#713,1.000000000000000);
#715=EDGE_CURVE('',#684,#709,#714,.T.);
#716=ORIENTED_EDGE('',*,*,#715,.T.);
#717=CARTESIAN_POINT('',(3.799999999999999,-2.800000000000000,0.0));
#718=DIRECTION('',(0.0,0.0,1.0));
#719=VECTOR('',#718,4.450000000000000);
#720=LINE('',#717,#719);
#721=EDGE_CURVE('',#709,#526,#720,.T.);
#722=ORIENTED_EDGE('',*,*,#721,.T.);
#723=EDGE_LOOP('',(#706,#707,#716,#722));
#724=FACE_OUTER_BOUND('',#723,.T.);
#725=ADVANCED_FACE('',(#724),#705,.T.);
#726=CARTESIAN_POINT('',(2.799999999999999,2.800000000000000,0.0));
#727=DIRECTION('',(0.0,0.0,1.0));
#728=DIRECTION('',(0.707106781186548,0.707106781186548,0.0));
#729=AXIS2_PLACEMENT_3D('',#726,#727,#728);
#730=CYLINDRICAL_SURFACE('',#729,1.000000000000000);
#731=ORIENTED_EDGE('',*,*,#547,.T.);
#732=CARTESIAN_POINT('',(3.799999999999999,2.800000000000000,0.0));
#733=VERTEX_POINT('',#732);
#734=CARTESIAN_POINT('',(3.799999999999999,2.800000000000000,4.450000000000000));
#735=DIRECTION('',(0.0,0.0,-1.0));
#736=VECTOR('',#735,4.450000000000000);
#737=LINE('',#734,#736);
#738=EDGE_CURVE('',#535,#733,#737,.T.);
#739=ORIENTED_EDGE('',*,*,#738,.T.);
#740=CARTESIAN_POINT('',(2.799999999999999,2.800000000000000,0.0));
#741=DIRECTION('',(0.0,0.0,1.000000000000000));
#742=DIRECTION('',(0.707106781186548,0.707106781186548,0.0));
#743=AXIS2_PLACEMENT_3D('',#740,#741,#742);
#744=CIRCLE('',#743,1.000000000000000);
#745=EDGE_CURVE('',#733,#446,#744,.T.);
#746=ORIENTED_EDGE('',*,*,#745,.T.);
#747=ORIENTED_EDGE('',*,*,#451,.T.);
#748=EDGE_LOOP('',(#731,#739,#746,#747));
#749=FACE_OUTER_BOUND('',#748,.T.);
#750=ADVANCED_FACE('',(#749),#730,.T.);
#751=CARTESIAN_POINT('',(-7.771561E-016,1.715799E-016,0.0));
#752=DIRECTION('',(0.0,0.0,1.0));
#753=DIRECTION('',(1.0,0.0,0.0));
#754=AXIS2_PLACEMENT_3D('',#751,#752,#753);
#755=PLANE('',#754);
#756=ORIENTED_EDGE('',*,*,#745,.F.);
#757=CARTESIAN_POINT('',(3.799999999999999,2.0,0.0));
#758=VERTEX_POINT('',#757);
#759=CARTESIAN_POINT('',(3.799999999999999,2.0,0.0));
#760=DIRECTION('',(0.0,1.0,0.0));
#761=VECTOR('',#760,0.800000000000000);
#762=LINE('',#759,#761);
#763=EDGE_CURVE('',#758,#733,#762,.T.);
#764=ORIENTED_EDGE('',*,*,#763,.F.);
#765=CARTESIAN_POINT('',(3.374011537017759,2.000000000000000,0.0));
#766=VERTEX_POINT('',#765);
#767=CARTESIAN_POINT('',(3.799999999999999,2.000000000000000,0.0));
#768=DIRECTION('',(-1.0,0.0,0.0));
#769=VECTOR('',#768,0.425988462982239);
#770=LINE('',#767,#769);
#771=EDGE_CURVE('',#758,#766,#770,.T.);
#772=ORIENTED_EDGE('',*,*,#771,.T.);
#773=CARTESIAN_POINT('',(2.0,3.374011537017761,0.0));
#774=VERTEX_POINT('',#773);
#775=CARTESIAN_POINT('',(3.374011537017760,2.000000000000001,0.0));
#776=DIRECTION('',(-0.707106781186547,0.707106781186548,0.0));
#777=VECTOR('',#776,1.943145750507618);
#778=LINE('',#775,#777);
#779=EDGE_CURVE('',#766,#774,#778,.T.);
#780=ORIENTED_EDGE('',*,*,#779,.T.);
#781=CARTESIAN_POINT('',(2.0,3.374011537017761,0.0));
#782=DIRECTION('',(0.0,1.0,0.0));
#783=VECTOR('',#782,0.425988462982238);
#784=LINE('',#781,#783);
#785=EDGE_CURVE('',#774,#454,#784,.T.);
#786=ORIENTED_EDGE('',*,*,#785,.T.);
#787=ORIENTED_EDGE('',*,*,#459,.F.);
#788=EDGE_LOOP('',(#756,#764,#772,#780,#786,#787));
#789=FACE_OUTER_BOUND('',#788,.T.);
#790=ADVANCED_FACE('',(#789),#755,.F.);
#791=CARTESIAN_POINT('',(-2.404163056034261,2.404163056034261,4.450000000000000));
#792=DIRECTION('',(0.0,0.0,1.0));
#793=DIRECTION('',(1.0,0.0,0.0));
#794=AXIS2_PLACEMENT_3D('',#791,#792,#793);
#795=SPHERICAL_SURFACE('',#794,1.0);
#796=ORIENTED_EDGE('',*,*,#251,.F.);
#797=ORIENTED_EDGE('',*,*,#557,.F.);
#798=ORIENTED_EDGE('',*,*,#270,.F.);
#799=EDGE_LOOP('',(#796,#797,#798));
#800=FACE_OUTER_BOUND('',#799,.T.);
#801=ADVANCED_FACE('',(#800),#795,.F.);
#802=CARTESIAN_POINT('',(-2.404163056034261,-2.404163056034261,4.450000000000000));
#803=DIRECTION('',(0.0,0.0,1.0));
#804=DIRECTION('',(0.0,-1.0,0.0));
#805=AXIS2_PLACEMENT_3D('',#802,#803,#804);
#806=SPHERICAL_SURFACE('',#805,1.0);
#807=ORIENTED_EDGE('',*,*,#358,.T.);
#808=ORIENTED_EDGE('',*,*,#599,.F.);
#809=CARTESIAN_POINT('',(-2.404163056034261,-2.404163056034262,3.450000000000000));
#810=CARTESIAN_POINT('',(-2.345640253956756,-2.462685858111768,3.450000000000000));
#811=CARTESIAN_POINT('',(-2.279858705744807,-2.523831186565704,3.460937674439150));
#812=CARTESIAN_POINT('',(-2.148597956558755,-2.636476128904877,3.507273405003816));
#813=CARTESIAN_POINT('',(-2.083172790937899,-2.688035607007168,3.542678964619741));
#814=CARTESIAN_POINT('',(-1.989944350845496,-2.757188533906914,3.609514909494388));
#815=CARTESIAN_POINT('',(-1.952067335757502,-2.784118006446694,3.641065930384802));
#816=CARTESIAN_POINT('',(-1.880435188908003,-2.832991962072039,3.711795743603773));
#817=CARTESIAN_POINT('',(-1.846703307757437,-2.854967289287428,3.750976764728193));
#818=CARTESIAN_POINT('',(-1.753519904106581,-2.913931339324398,3.875492863212107));
#819=CARTESIAN_POINT('',(-1.696185967211896,-2.947010490645992,3.981822101755551));
#820=CARTESIAN_POINT('',(-1.619722422091451,-2.989718537509806,4.211498197281735));
#821=CARTESIAN_POINT('',(-1.600757826413057,-2.999595702953541,4.334853727723457));
#822=CARTESIAN_POINT('',(-1.600757826413057,-2.999595702953541,4.450000000000000));
#823=B_SPLINE_CURVE_WITH_KNOTS('',3,(#809,#810,#811,#812,#813,#814,#815,#816,#817,#818,#819,#820,#821,#822),.UNSPECIFIED.,.F.,.U.,(4,2,2,2,2,2,4),(-1.494535311562879,-1.246244090344623,-0.997952869126368,-0.844415251392813,-0.690877633659258,-0.345438816829629,0.0),.UNSPECIFIED.);
#824=EDGE_CURVE('',#350,#586,#823,.T.);
#825=ORIENTED_EDGE('',*,*,#824,.F.);
#826=EDGE_LOOP('',(#807,#808,#825));
#827=FACE_OUTER_BOUND('',#826,.T.);
#828=ADVANCED_FACE('',(#827),#806,.F.);
#829=CARTESIAN_POINT('',(2.404163056034262,-2.404163056034261,4.450000000000000));
#830=DIRECTION('',(0.0,0.0,1.0));
#831=DIRECTION('',(0.0,-1.0,0.0));
#832=AXIS2_PLACEMENT_3D('',#829,#830,#831);
#833=SPHERICAL_SURFACE('',#832,1.0);
#834=ORIENTED_EDGE('',*,*,#313,.T.);
#835=ORIENTED_EDGE('',*,*,#582,.F.);
#836=CARTESIAN_POINT('',(2.404163056034261,-2.404163056034261,3.450000000000000));
#837=CARTESIAN_POINT('',(2.462685858111768,-2.345640253956755,3.450000000000000));
#838=CARTESIAN_POINT('',(2.523831186565704,-2.279858705744807,3.460937674439149));
#839=CARTESIAN_POINT('',(2.636476128904878,-2.148597956558755,3.507273405003816));
#840=CARTESIAN_POINT('',(2.688035607007169,-2.083172790937898,3.542678964619741));
#841=CARTESIAN_POINT('',(2.757188533906914,-1.989944350845496,3.609514909494388));
#842=CARTESIAN_POINT('',(2.784118006446694,-1.952067335757502,3.641065930384802));
#843=CARTESIAN_POINT('',(2.832991962072039,-1.880435188908003,3.711795743603773));
#844=CARTESIAN_POINT('',(2.854967289287428,-1.846703307757437,3.750976764728193));
#845=CARTESIAN_POINT('',(2.913931339324398,-1.753519904106580,3.875492863212106));
#846=CARTESIAN_POINT('',(2.947010490645992,-1.696185967211896,3.981822101755550));
#847=CARTESIAN_POINT('',(2.989718537509807,-1.619722422091450,4.211498197281734));
#848=CARTESIAN_POINT('',(2.999595702953541,-1.600757826413056,4.334853727723457));
#849=CARTESIAN_POINT('',(2.999595702953541,-1.600757826413056,4.450000000000000));
#850=B_SPLINE_CURVE_WITH_KNOTS('',3,(#836,#837,#838,#839,#840,#841,#842,#843,#844,#845,#846,#847,#848,#849),.UNSPECIFIED.,.F.,.U.,(4,2,2,2,2,2,4),(-1.494535311562879,-1.246244090344623,-0.997952869126368,-0.844415251392814,-0.690877633659259,-0.345438816829629,0.0),.UNSPECIFIED.);
#851=EDGE_CURVE('',#305,#569,#850,.T.);
#852=ORIENTED_EDGE('',*,*,#851,.F.);
#853=EDGE_LOOP('',(#834,#835,#852));
#854=FACE_OUTER_BOUND('',#853,.T.);
#855=ADVANCED_FACE('',(#854),#833,.F.);
#856=CARTESIAN_POINT('',(2.404163056034261,2.404163056034262,4.450000000000000));
#857=DIRECTION('',(0.0,0.0,1.0));
#858=DIRECTION('',(0.0,-1.0,0.0));
#859=AXIS2_PLACEMENT_3D('',#856,#857,#858);
#860=SPHERICAL_SURFACE('',#859,1.0);
#861=ORIENTED_EDGE('',*,*,#204,.F.);
#862=ORIENTED_EDGE('',*,*,#565,.F.);
#863=ORIENTED_EDGE('',*,*,#223,.F.);
#864=EDGE_LOOP('',(#861,#862,#863));
#865=FACE_OUTER_BOUND('',#864,.T.);
#866=ADVANCED_FACE('',(#865),#860,.F.);
#867=CARTESIAN_POINT('',(0.0,0.0,4.450000000000000));
#868=DIRECTION('',(0.0,0.0,-1.0));
#869=DIRECTION('',(1.0,0.0,0.0));
#870=AXIS2_PLACEMENT_3D('',#867,#868,#869);
#871=CYLINDRICAL_SURFACE('',#870,3.400000000000000);
#872=ORIENTED_EDGE('',*,*,#176,.T.);
#873=CARTESIAN_POINT('',(0.0,0.0,0.450000000000000));
#874=DIRECTION('',(0.0,0.0,1.0));
#875=DIRECTION('',(1.0,0.0,0.0));
#876=AXIS2_PLACEMENT_3D('',#873,#874,#875);
#877=CIRCLE('',#876,3.400000000000000);
#878=EDGE_CURVE('',#282,#171,#877,.T.);
#879=ORIENTED_EDGE('',*,*,#878,.F.);
#880=ORIENTED_EDGE('',*,*,#287,.F.);
#881=ORIENTED_EDGE('',*,*,#607,.F.);
#882=ORIENTED_EDGE('',*,*,#377,.T.);
#883=ORIENTED_EDGE('',*,*,#824,.T.);
#884=ORIENTED_EDGE('',*,*,#592,.F.);
#885=ORIENTED_EDGE('',*,*,#332,.T.);
#886=ORIENTED_EDGE('',*,*,#851,.T.);
#887=ORIENTED_EDGE('',*,*,#575,.F.);
#888=EDGE_LOOP('',(#872,#879,#880,#881,#882,#883,#884,#885,#886,#887));
#889=FACE_OUTER_BOUND('',#888,.T.);
#890=ADVANCED_FACE('',(#889),#871,.F.);
#891=CARTESIAN_POINT('',(0.0,0.0,0.450000000000000));
#892=DIRECTION('',(0.0,0.0,1.0));
#893=DIRECTION('',(1.0,0.0,0.0));
#894=AXIS2_PLACEMENT_3D('',#891,#892,#893);
#895=PLANE('',#894);
#896=ORIENTED_EDGE('',*,*,#294,.T.);
#897=ORIENTED_EDGE('',*,*,#878,.T.);
#898=EDGE_LOOP('',(#896,#897));
#899=FACE_OUTER_BOUND('',#898,.T.);
#900=ADVANCED_FACE('',(#899),#895,.T.);
#901=CARTESIAN_POINT('',(-2.000000000000002,-3.800000000000000,0.0));
#902=DIRECTION('',(-1.0,0.0,0.0));
#903=DIRECTION('',(0.0,0.0,1.0));
#904=AXIS2_PLACEMENT_3D('',#901,#902,#903);
#905=PLANE('',#904);
#906=CARTESIAN_POINT('',(-2.000000000000002,-3.374011537017756,0.0));
#907=VERTEX_POINT('',#906);
#908=CARTESIAN_POINT('',(-2.000000000000002,-3.374011537017756,0.200000000000000));
#909=VERTEX_POINT('',#908);
#910=CARTESIAN_POINT('',(-2.000000000000002,-3.374011537017755,0.0));
#911=DIRECTION('',(0.0,0.0,1.0));
#912=VECTOR('',#911,0.200000000000000);
#913=LINE('',#910,#912);
#914=EDGE_CURVE('',#907,#909,#913,.T.);
#915=ORIENTED_EDGE('',*,*,#914,.T.);
#916=CARTESIAN_POINT('',(-2.000000000000002,-3.800000000000000,0.200000000000000));
#917=DIRECTION('',(0.0,1.0,0.0));
#918=VECTOR('',#917,0.425988462982244);
#919=LINE('',#916,#918);
#920=EDGE_CURVE('',#660,#909,#919,.T.);
#921=ORIENTED_EDGE('',*,*,#920,.F.);
#922=ORIENTED_EDGE('',*,*,#665,.F.);
#923=CARTESIAN_POINT('',(-2.000000000000002,-3.374011537017756,0.0));
#924=DIRECTION('',(0.0,-1.0,0.0));
#925=VECTOR('',#924,0.425988462982244);
#926=LINE('',#923,#925);
#927=EDGE_CURVE('',#907,#652,#926,.T.);
#928=ORIENTED_EDGE('',*,*,#927,.F.);
#929=EDGE_LOOP('',(#915,#921,#922,#928));
#930=FACE_OUTER_BOUND('',#929,.T.);
#931=ADVANCED_FACE('',(#930),#905,.F.);
#932=CARTESIAN_POINT('',(-2.000000000000002,-3.800000000000000,0.0));
#933=DIRECTION('',(-1.0,0.0,0.0));
#934=DIRECTION('',(0.0,0.0,1.0));
#935=AXIS2_PLACEMENT_3D('',#932,#933,#934);
#936=PLANE('',#935);
#937=CARTESIAN_POINT('',(-2.000000000000001,3.374011537017761,0.200000000000000));
#938=VERTEX_POINT('',#937);
#939=CARTESIAN_POINT('',(-2.000000000000001,3.374011537017761,0.0));
#940=VERTEX_POINT('',#939);
#941=CARTESIAN_POINT('',(-2.000000000000001,3.374011537017761,0.200000000000000));
#942=DIRECTION('',(0.0,0.0,-1.0));
#943=VECTOR('',#942,0.200000000000000);
#944=LINE('',#941,#943);
#945=EDGE_CURVE('',#938,#940,#944,.T.);
#946=ORIENTED_EDGE('',*,*,#945,.T.);
#947=CARTESIAN_POINT('',(-2.000000000000001,3.799999999999999,0.0));
#948=DIRECTION('',(0.0,-1.0,0.0));
#949=VECTOR('',#948,0.425988462982238);
#950=LINE('',#947,#949);
#951=EDGE_CURVE('',#478,#940,#950,.T.);
#952=ORIENTED_EDGE('',*,*,#951,.F.);
#953=ORIENTED_EDGE('',*,*,#483,.F.);
#954=CARTESIAN_POINT('',(-2.000000000000001,3.374011537017761,0.200000000000000));
#955=DIRECTION('',(0.0,1.0,0.0));
#956=VECTOR('',#955,0.425988462982238);
#957=LINE('',#954,#956);
#958=EDGE_CURVE('',#938,#470,#957,.T.);
#959=ORIENTED_EDGE('',*,*,#958,.F.);
#960=EDGE_LOOP('',(#946,#952,#953,#959));
#961=FACE_OUTER_BOUND('',#960,.T.);
#962=ADVANCED_FACE('',(#961),#936,.F.);
#963=CARTESIAN_POINT('',(2.0,3.799999999999999,0.0));
#964=DIRECTION('',(1.0,0.0,0.0));
#965=DIRECTION('',(0.0,0.0,-1.0));
#966=AXIS2_PLACEMENT_3D('',#963,#964,#965);
#967=PLANE('',#966);
#968=CARTESIAN_POINT('',(1.999999999999998,-3.374011537017757,0.200000000000000));
#969=VERTEX_POINT('',#968);
#970=CARTESIAN_POINT('',(1.999999999999998,-3.374011537017757,0.0));
#971=VERTEX_POINT('',#970);
#972=CARTESIAN_POINT('',(1.999999999999998,-3.374011537017757,0.200000000000000));
#973=DIRECTION('',(0.0,0.0,-1.0));
#974=VECTOR('',#973,0.200000000000000);
#975=LINE('',#972,#974);
#976=EDGE_CURVE('',#969,#971,#975,.T.);
#977=ORIENTED_EDGE('',*,*,#976,.T.);
#978=CARTESIAN_POINT('',(1.999999999999998,-3.799999999999999,0.0));
#979=DIRECTION('',(0.0,1.0,0.0));
#980=VECTOR('',#979,0.425988462982242);
#981=LINE('',#978,#980);
#982=EDGE_CURVE('',#676,#971,#981,.T.);
#983=ORIENTED_EDGE('',*,*,#982,.F.);
#984=ORIENTED_EDGE('',*,*,#681,.F.);
#985=CARTESIAN_POINT('',(1.999999999999998,-3.374011537017757,0.200000000000000));
#986=DIRECTION('',(0.0,-1.0,0.0));
#987=VECTOR('',#986,0.425988462982242);
#988=LINE('',#985,#987);
#989=EDGE_CURVE('',#969,#668,#988,.T.);
#990=ORIENTED_EDGE('',*,*,#989,.F.);
#991=EDGE_LOOP('',(#977,#983,#984,#990));
#992=FACE_OUTER_BOUND('',#991,.T.);
#993=ADVANCED_FACE('',(#992),#967,.F.);
#994=CARTESIAN_POINT('',(2.0,3.799999999999999,0.0));
#995=DIRECTION('',(1.0,0.0,0.0));
#996=DIRECTION('',(0.0,0.0,-1.0));
#997=AXIS2_PLACEMENT_3D('',#994,#995,#996);
#998=PLANE('',#997);
#999=CARTESIAN_POINT('',(2.0,3.374011537017761,0.200000000000000));
#1000=VERTEX_POINT('',#999);
#1001=CARTESIAN_POINT('',(2.000000000000000,3.374011537017761,0.0));
#1002=DIRECTION('',(0.0,0.0,1.0));
#1003=VECTOR('',#1002,0.200000000000000);
#1004=LINE('',#1001,#1003);
#1005=EDGE_CURVE('',#774,#1000,#1004,.T.);
#1006=ORIENTED_EDGE('',*,*,#1005,.T.);
#1007=CARTESIAN_POINT('',(2.0,3.799999999999999,0.200000000000000));
#1008=DIRECTION('',(0.0,-1.0,0.0));
#1009=VECTOR('',#1008,0.425988462982238);
#1010=LINE('',#1007,#1009);
#1011=EDGE_CURVE('',#462,#1000,#1010,.T.);
#1012=ORIENTED_EDGE('',*,*,#1011,.F.);
#1013=ORIENTED_EDGE('',*,*,#467,.F.);
#1014=ORIENTED_EDGE('',*,*,#785,.F.);
#1015=EDGE_LOOP('',(#1006,#1012,#1013,#1014));
#1016=FACE_OUTER_BOUND('',#1015,.T.);
#1017=ADVANCED_FACE('',(#1016),#998,.F.);
#1018=CARTESIAN_POINT('',(1.272792206135787,4.101219330881976,0.0));
#1019=DIRECTION('',(0.707106781186548,0.707106781186547,0.0));
#1020=DIRECTION('',(0.0,0.0,-1.0));
#1021=AXIS2_PLACEMENT_3D('',#1018,#1019,#1020);
#1022=PLANE('',#1021);
#1023=ORIENTED_EDGE('',*,*,#1005,.F.);
#1024=ORIENTED_EDGE('',*,*,#779,.F.);
#1025=CARTESIAN_POINT('',(3.374011537017759,2.000000000000000,0.200000000000000));
#1026=VERTEX_POINT('',#1025);
#1027=CARTESIAN_POINT('',(3.374011537017760,2.000000000000000,0.0));
#1028=DIRECTION('',(0.0,0.0,1.0));
#1029=VECTOR('',#1028,0.200000000000000);
#1030=LINE('',#1027,#1029);
#1031=EDGE_CURVE('',#766,#1026,#1030,.T.);
#1032=ORIENTED_EDGE('',*,*,#1031,.T.);
#1033=CARTESIAN_POINT('',(2.0,3.374011537017761,0.200000000000000));
#1034=DIRECTION('',(0.707106781186547,-0.707106781186548,0.0));
#1035=VECTOR('',#1034,1.943145750507618);
#1036=LINE('',#1033,#1035);
#1037=EDGE_CURVE('',#1000,#1026,#1036,.T.);
#1038=ORIENTED_EDGE('',*,*,#1037,.F.);
#1039=EDGE_LOOP('',(#1023,#1024,#1032,#1038));
#1040=FACE_OUTER_BOUND('',#1039,.T.);
#1041=ADVANCED_FACE('',(#1040),#1022,.F.);
#1042=CARTESIAN_POINT('',(4.101219330881973,-1.272792206135784,0.0));
#1043=DIRECTION('',(0.707106781186547,-0.707106781186548,0.0));
#1044=DIRECTION('',(0.0,0.0,-1.0));
#1045=AXIS2_PLACEMENT_3D('',#1042,#1043,#1044);
#1046=PLANE('',#1045);
#1047=ORIENTED_EDGE('',*,*,#976,.F.);
#1048=CARTESIAN_POINT('',(3.374011537017756,-2.000000000000000,0.200000000000000));
#1049=VERTEX_POINT('',#1048);
#1050=CARTESIAN_POINT('',(3.374011537017756,-2.0,0.200000000000000));
#1051=DIRECTION('',(-0.707106781186548,-0.707106781186548,0.0));
#1052=VECTOR('',#1051,1.943145750507615);
#1053=LINE('',#1050,#1052);
#1054=EDGE_CURVE('',#1049,#969,#1053,.T.);
#1055=ORIENTED_EDGE('',*,*,#1054,.F.);
#1056=CARTESIAN_POINT('',(3.374011537017756,-2.000000000000000,0.0));
#1057=VERTEX_POINT('',#1056);
#1058=CARTESIAN_POINT('',(3.374011537017756,-2.000000000000000,0.200000000000000));
#1059=DIRECTION('',(0.0,0.0,-1.0));
#1060=VECTOR('',#1059,0.200000000000000);
#1061=LINE('',#1058,#1060);
#1062=EDGE_CURVE('',#1049,#1057,#1061,.T.);
#1063=ORIENTED_EDGE('',*,*,#1062,.T.);
#1064=CARTESIAN_POINT('',(1.999999999999999,-3.374011537017758,0.0));
#1065=DIRECTION('',(0.707106781186548,0.707106781186547,0.0));
#1066=VECTOR('',#1065,1.943145750507614);
#1067=LINE('',#1064,#1066);
#1068=EDGE_CURVE('',#971,#1057,#1067,.T.);
#1069=ORIENTED_EDGE('',*,*,#1068,.F.);
#1070=EDGE_LOOP('',(#1047,#1055,#1063,#1069));
#1071=FACE_OUTER_BOUND('',#1070,.T.);
#1072=ADVANCED_FACE('',(#1071),#1046,.F.);
#1073=CARTESIAN_POINT('',(-4.101219330881976,1.272792206135784,0.0));
#1074=DIRECTION('',(-0.707106781186548,0.707106781186547,0.0));
#1075=DIRECTION('',(0.0,0.0,1.0));
#1076=AXIS2_PLACEMENT_3D('',#1073,#1074,#1075);
#1077=PLANE('',#1076);
#1078=ORIENTED_EDGE('',*,*,#945,.F.);
#1079=CARTESIAN_POINT('',(-3.374011537017759,2.000000000000001,0.200000000000000));
#1080=VERTEX_POINT('',#1079);
#1081=CARTESIAN_POINT('',(-3.374011537017760,2.000000000000001,0.200000000000000));
#1082=DIRECTION('',(0.707106781186547,0.707106781186548,0.0));
#1083=VECTOR('',#1082,1.943145750507617);
#1084=LINE('',#1081,#1083);
#1085=EDGE_CURVE('',#1080,#938,#1084,.T.);
#1086=ORIENTED_EDGE('',*,*,#1085,.F.);
#1087=CARTESIAN_POINT('',(-3.374011537017759,2.000000000000002,0.0));
#1088=VERTEX_POINT('',#1087);
#1089=CARTESIAN_POINT('',(-3.374011537017759,2.000000000000002,0.200000000000000));
#1090=DIRECTION('',(0.0,0.0,-1.0));
#1091=VECTOR('',#1090,0.200000000000000);
#1092=LINE('',#1089,#1091);
#1093=EDGE_CURVE('',#1080,#1088,#1092,.T.);
#1094=ORIENTED_EDGE('',*,*,#1093,.T.);
#1095=CARTESIAN_POINT('',(-2.000000000000001,3.374011537017762,0.0));
#1096=DIRECTION('',(-0.707106781186547,-0.707106781186548,0.0));
#1097=VECTOR('',#1096,1.943145750507616);
#1098=LINE('',#1095,#1097);
#1099=EDGE_CURVE('',#940,#1088,#1098,.T.);
#1100=ORIENTED_EDGE('',*,*,#1099,.F.);
#1101=EDGE_LOOP('',(#1078,#1086,#1094,#1100));
#1102=FACE_OUTER_BOUND('',#1101,.T.);
#1103=ADVANCED_FACE('',(#1102),#1077,.F.);
#1104=CARTESIAN_POINT('',(-3.799999999999999,2.000000000000002,0.0));
#1105=DIRECTION('',(0.0,1.0,0.0));
#1106=DIRECTION('',(0.0,0.0,-1.0));
#1107=AXIS2_PLACEMENT_3D('',#1104,#1105,#1106);
#1108=PLANE('',#1107);
#1109=ORIENTED_EDGE('',*,*,#1093,.F.);
#1110=CARTESIAN_POINT('',(-3.799999999999999,2.000000000000002,0.200000000000000));
#1111=VERTEX_POINT('',#1110);
#1112=CARTESIAN_POINT('',(-3.799999999999999,2.000000000000002,0.200000000000000));
#1113=DIRECTION('',(1.0,0.0,0.0));
#1114=VECTOR('',#1113,0.425988462982240);
#1115=LINE('',#1112,#1114);
#1116=EDGE_CURVE('',#1111,#1080,#1115,.T.);
#1117=ORIENTED_EDGE('',*,*,#1116,.F.);
#1118=CARTESIAN_POINT('',(-3.799999999999999,2.000000000000002,0.0));
#1119=VERTEX_POINT('',#1118);
#1120=CARTESIAN_POINT('',(-3.800000000000000,2.000000000000002,0.0));
#1121=DIRECTION('',(0.0,0.0,1.0));
#1122=VECTOR('',#1121,0.200000000000000);
#1123=LINE('',#1120,#1122);
#1124=EDGE_CURVE('',#1119,#1111,#1123,.T.);
#1125=ORIENTED_EDGE('',*,*,#1124,.F.);
#1126=CARTESIAN_POINT('',(-3.374011537017759,2.000000000000002,0.0));
#1127=DIRECTION('',(-1.0,0.0,0.0));
#1128=VECTOR('',#1127,0.425988462982240);
#1129=LINE('',#1126,#1128);
#1130=EDGE_CURVE('',#1088,#1119,#1129,.T.);
#1131=ORIENTED_EDGE('',*,*,#1130,.F.);
#1132=EDGE_LOOP('',(#1109,#1117,#1125,#1131));
#1133=FACE_OUTER_BOUND('',#1132,.T.);
#1134=ADVANCED_FACE('',(#1133),#1108,.F.);
#1135=CARTESIAN_POINT('',(-2.220446E-016,2.906070E-016,0.200000000000000));
#1136=DIRECTION('',(0.0,0.0,1.0));
#1137=DIRECTION('',(0.0,1.0,0.0));
#1138=AXIS2_PLACEMENT_3D('',#1135,#1136,#1137);
#1139=PLANE('',#1138);
#1140=CARTESIAN_POINT('',(-3.799999999999999,-2.0,0.200000000000000));
#1141=VERTEX_POINT('',#1140);
#1142=CARTESIAN_POINT('',(-3.800000000000000,2.000000000000002,0.200000000000000));
#1143=DIRECTION('',(0.0,-1.0,0.0));
#1144=VECTOR('',#1143,4.000000000000002);
#1145=LINE('',#1142,#1144);
#1146=EDGE_CURVE('',#1111,#1141,#1145,.T.);
#1147=ORIENTED_EDGE('',*,*,#1146,.F.);
#1148=ORIENTED_EDGE('',*,*,#1116,.T.);
#1149=ORIENTED_EDGE('',*,*,#1085,.T.);
#1150=ORIENTED_EDGE('',*,*,#958,.T.);
#1151=ORIENTED_EDGE('',*,*,#475,.F.);
#1152=ORIENTED_EDGE('',*,*,#1011,.T.);
#1153=ORIENTED_EDGE('',*,*,#1037,.T.);
#1154=CARTESIAN_POINT('',(3.799999999999999,2.0,0.200000000000000));
#1155=VERTEX_POINT('',#1154);
#1156=CARTESIAN_POINT('',(3.374011537017759,2.000000000000000,0.200000000000000));
#1157=DIRECTION('',(1.0,0.0,0.0));
#1158=VECTOR('',#1157,0.425988462982240);
#1159=LINE('',#1156,#1158);
#1160=EDGE_CURVE('',#1026,#1155,#1159,.T.);
#1161=ORIENTED_EDGE('',*,*,#1160,.T.);
#1162=CARTESIAN_POINT('',(3.799999999999999,-2.000000000000000,0.200000000000000));
#1163=VERTEX_POINT('',#1162);
#1164=CARTESIAN_POINT('',(3.799999999999999,-2.0,0.200000000000000));
#1165=DIRECTION('',(0.0,1.0,0.0));
#1166=VECTOR('',#1165,4.0);
#1167=LINE('',#1164,#1166);
#1168=EDGE_CURVE('',#1163,#1155,#1167,.T.);
#1169=ORIENTED_EDGE('',*,*,#1168,.F.);
#1170=CARTESIAN_POINT('',(3.799999999999999,-2.000000000000000,0.200000000000000));
#1171=DIRECTION('',(-1.0,0.0,0.0));
#1172=VECTOR('',#1171,0.425988462982243);
#1173=LINE('',#1170,#1172);
#1174=EDGE_CURVE('',#1163,#1049,#1173,.T.);
#1175=ORIENTED_EDGE('',*,*,#1174,.T.);
#1176=ORIENTED_EDGE('',*,*,#1054,.T.);
#1177=ORIENTED_EDGE('',*,*,#989,.T.);
#1178=ORIENTED_EDGE('',*,*,#673,.F.);
#1179=ORIENTED_EDGE('',*,*,#920,.T.);
#1180=CARTESIAN_POINT('',(-3.374011537017757,-2.000000000000000,0.200000000000000));
#1181=VERTEX_POINT('',#1180);
#1182=CARTESIAN_POINT('',(-2.000000000000002,-3.374011537017756,0.200000000000000));
#1183=DIRECTION('',(-0.707106781186548,0.707106781186548,0.0));
#1184=VECTOR('',#1183,1.943145750507612);
#1185=LINE('',#1182,#1184);
#1186=EDGE_CURVE('',#909,#1181,#1185,.T.);
#1187=ORIENTED_EDGE('',*,*,#1186,.T.);
#1188=CARTESIAN_POINT('',(-3.374011537017758,-2.000000000000000,0.200000000000000));
#1189=DIRECTION('',(-1.0,0.0,0.0));
#1190=VECTOR('',#1189,0.425988462982241);
#1191=LINE('',#1188,#1190);
#1192=EDGE_CURVE('',#1181,#1141,#1191,.T.);
#1193=ORIENTED_EDGE('',*,*,#1192,.T.);
#1194=EDGE_LOOP('',(#1147,#1148,#1149,#1150,#1151,#1152,#1153,#1161,#1169,#1175,#1176,#1177,#1178,#1179,#1187,#1193));
#1195=FACE_OUTER_BOUND('',#1194,.T.);
#1196=ADVANCED_FACE('',(#1195),#1139,.F.);
#1197=CARTESIAN_POINT('',(-1.272792206135783,-4.101219330881974,0.0));
#1198=DIRECTION('',(-0.707106781186547,-0.707106781186548,0.0));
#1199=DIRECTION('',(0.0,0.0,1.0));
#1200=AXIS2_PLACEMENT_3D('',#1197,#1198,#1199);
#1201=PLANE('',#1200);
#1202=ORIENTED_EDGE('',*,*,#914,.F.);
#1203=CARTESIAN_POINT('',(-3.374011537017757,-2.000000000000000,0.0));
#1204=VERTEX_POINT('',#1203);
#1205=CARTESIAN_POINT('',(-3.374011537017758,-2.000000000000001,0.0));
#1206=DIRECTION('',(0.707106781186548,-0.707106781186547,0.0));
#1207=VECTOR('',#1206,1.943145750507612);
#1208=LINE('',#1205,#1207);
#1209=EDGE_CURVE('',#1204,#907,#1208,.T.);
#1210=ORIENTED_EDGE('',*,*,#1209,.F.);
#1211=CARTESIAN_POINT('',(-3.374011537017758,-2.000000000000001,0.0));
#1212=DIRECTION('',(0.0,0.0,1.0));
#1213=VECTOR('',#1212,0.200000000000000);
#1214=LINE('',#1211,#1213);
#1215=EDGE_CURVE('',#1204,#1181,#1214,.T.);
#1216=ORIENTED_EDGE('',*,*,#1215,.T.);
#1217=ORIENTED_EDGE('',*,*,#1186,.F.);
#1218=EDGE_LOOP('',(#1202,#1210,#1216,#1217));
#1219=FACE_OUTER_BOUND('',#1218,.T.);
#1220=ADVANCED_FACE('',(#1219),#1201,.F.);
#1221=CARTESIAN_POINT('',(-3.799999999999999,2.000000000000002,0.0));
#1222=DIRECTION('',(0.0,1.0,0.0));
#1223=DIRECTION('',(0.0,0.0,-1.0));
#1224=AXIS2_PLACEMENT_3D('',#1221,#1222,#1223);
#1225=PLANE('',#1224);
#1226=ORIENTED_EDGE('',*,*,#1031,.F.);
#1227=ORIENTED_EDGE('',*,*,#771,.F.);
#1228=CARTESIAN_POINT('',(3.799999999999999,2.0,0.200000000000000));
#1229=DIRECTION('',(0.0,0.0,-1.0));
#1230=VECTOR('',#1229,0.200000000000000);
#1231=LINE('',#1228,#1230);
#1232=EDGE_CURVE('',#1155,#758,#1231,.T.);
#1233=ORIENTED_EDGE('',*,*,#1232,.F.);
#1234=ORIENTED_EDGE('',*,*,#1160,.F.);
#1235=EDGE_LOOP('',(#1226,#1227,#1233,#1234));
#1236=FACE_OUTER_BOUND('',#1235,.T.);
#1237=ADVANCED_FACE('',(#1236),#1225,.F.);
#1238=CARTESIAN_POINT('',(3.799999999999999,-2.000000000000000,0.0));
#1239=DIRECTION('',(0.0,-1.0,0.0));
#1240=DIRECTION('',(0.0,0.0,1.0));
#1241=AXIS2_PLACEMENT_3D('',#1238,#1239,#1240);
#1242=PLANE('',#1241);
#1243=ORIENTED_EDGE('',*,*,#1062,.F.);
#1244=ORIENTED_EDGE('',*,*,#1174,.F.);
#1245=CARTESIAN_POINT('',(3.799999999999999,-2.000000000000000,0.0));
#1246=VERTEX_POINT('',#1245);
#1247=CARTESIAN_POINT('',(3.799999999999999,-2.000000000000001,0.0));
#1248=DIRECTION('',(0.0,0.0,1.0));
#1249=VECTOR('',#1248,0.200000000000000);
#1250=LINE('',#1247,#1249);
#1251=EDGE_CURVE('',#1246,#1163,#1250,.T.);
#1252=ORIENTED_EDGE('',*,*,#1251,.F.);
#1253=CARTESIAN_POINT('',(3.374011537017756,-2.000000000000000,0.0));
#1254=DIRECTION('',(1.0,0.0,0.0));
#1255=VECTOR('',#1254,0.425988462982243);
#1256=LINE('',#1253,#1255);
#1257=EDGE_CURVE('',#1057,#1246,#1256,.T.);
#1258=ORIENTED_EDGE('',*,*,#1257,.F.);
#1259=EDGE_LOOP('',(#1243,#1244,#1252,#1258));
#1260=FACE_OUTER_BOUND('',#1259,.T.);
#1261=ADVANCED_FACE('',(#1260),#1242,.F.);
#1262=CARTESIAN_POINT('',(3.799999999999999,-2.000000000000000,0.0));
#1263=DIRECTION('',(0.0,-1.0,0.0));
#1264=DIRECTION('',(0.0,0.0,1.0));
#1265=AXIS2_PLACEMENT_3D('',#1262,#1263,#1264);
#1266=PLANE('',#1265);
#1267=ORIENTED_EDGE('',*,*,#1215,.F.);
#1268=CARTESIAN_POINT('',(-3.799999999999999,-2.0,0.0));
#1269=VERTEX_POINT('',#1268);
#1270=CARTESIAN_POINT('',(-3.799999999999999,-2.000000000000000,0.0));
#1271=DIRECTION('',(1.0,0.0,0.0));
#1272=VECTOR('',#1271,0.425988462982241);
#1273=LINE('',#1270,#1272);
#1274=EDGE_CURVE('',#1269,#1204,#1273,.T.);
#1275=ORIENTED_EDGE('',*,*,#1274,.F.);
#1276=CARTESIAN_POINT('',(-3.799999999999999,-2.000000000000001,0.200000000000000));
#1277=DIRECTION('',(0.0,0.0,-1.0));
#1278=VECTOR('',#1277,0.200000000000000);
#1279=LINE('',#1276,#1278);
#1280=EDGE_CURVE('',#1141,#1269,#1279,.T.);
#1281=ORIENTED_EDGE('',*,*,#1280,.F.);
#1282=ORIENTED_EDGE('',*,*,#1192,.F.);
#1283=EDGE_LOOP('',(#1267,#1275,#1281,#1282));
#1284=FACE_OUTER_BOUND('',#1283,.T.);
#1285=ADVANCED_FACE('',(#1284),#1266,.F.);
#1286=CARTESIAN_POINT('',(-3.799999999999999,-3.800000000000000,0.0));
#1287=DIRECTION('',(-1.0,0.0,0.0));
#1288=DIRECTION('',(0.0,0.0,1.0));
#1289=AXIS2_PLACEMENT_3D('',#1286,#1287,#1288);
#1290=PLANE('',#1289);
#1291=ORIENTED_EDGE('',*,*,#426,.F.);
#1292=CARTESIAN_POINT('',(-3.800000000000000,2.799999999999999,0.0));
#1293=DIRECTION('',(0.0,-1.0,0.0));
#1294=VECTOR('',#1293,0.799999999999998);
#1295=LINE('',#1292,#1294);
#1296=EDGE_CURVE('',#414,#1119,#1295,.T.);
#1297=ORIENTED_EDGE('',*,*,#1296,.T.);
#1298=ORIENTED_EDGE('',*,*,#1124,.T.);
#1299=ORIENTED_EDGE('',*,*,#1146,.T.);
#1300=ORIENTED_EDGE('',*,*,#1280,.T.);
#1301=CARTESIAN_POINT('',(-3.799999999999999,-2.0,0.0));
#1302=DIRECTION('',(0.0,-1.0,0.0));
#1303=VECTOR('',#1302,0.800000000000000);
#1304=LINE('',#1301,#1303);
#1305=EDGE_CURVE('',#1269,#620,#1304,.T.);
#1306=ORIENTED_EDGE('',*,*,#1305,.T.);
#1307=ORIENTED_EDGE('',*,*,#625,.F.);
#1308=ORIENTED_EDGE('',*,*,#506,.T.);
#1309=EDGE_LOOP('',(#1291,#1297,#1298,#1299,#1300,#1306,#1307,#1308));
#1310=FACE_OUTER_BOUND('',#1309,.T.);
#1311=ADVANCED_FACE('',(#1310),#1290,.T.);
#1312=CARTESIAN_POINT('',(-7.771561E-016,1.715799E-016,0.0));
#1313=DIRECTION('',(0.0,0.0,1.0));
#1314=DIRECTION('',(1.0,0.0,0.0));
#1315=AXIS2_PLACEMENT_3D('',#1312,#1313,#1314);
#1316=PLANE('',#1315);
#1317=ORIENTED_EDGE('',*,*,#715,.F.);
#1318=ORIENTED_EDGE('',*,*,#689,.F.);
#1319=ORIENTED_EDGE('',*,*,#982,.T.);
#1320=ORIENTED_EDGE('',*,*,#1068,.T.);
#1321=ORIENTED_EDGE('',*,*,#1257,.T.);
#1322=CARTESIAN_POINT('',(3.799999999999999,-2.800000000000000,0.0));
#1323=DIRECTION('',(0.0,1.0,0.0));
#1324=VECTOR('',#1323,0.799999999999999);
#1325=LINE('',#1322,#1324);
#1326=EDGE_CURVE('',#709,#1246,#1325,.T.);
#1327=ORIENTED_EDGE('',*,*,#1326,.F.);
#1328=EDGE_LOOP('',(#1317,#1318,#1319,#1320,#1321,#1327));
#1329=FACE_OUTER_BOUND('',#1328,.T.);
#1330=ADVANCED_FACE('',(#1329),#1316,.F.);
#1331=CARTESIAN_POINT('',(-7.771561E-016,1.715799E-016,0.0));
#1332=DIRECTION('',(0.0,0.0,1.0));
#1333=DIRECTION('',(1.0,0.0,0.0));
#1334=AXIS2_PLACEMENT_3D('',#1331,#1332,#1333);
#1335=PLANE('',#1334);
#1336=ORIENTED_EDGE('',*,*,#420,.F.);
#1337=ORIENTED_EDGE('',*,*,#489,.F.);
#1338=ORIENTED_EDGE('',*,*,#951,.T.);
#1339=ORIENTED_EDGE('',*,*,#1099,.T.);
#1340=ORIENTED_EDGE('',*,*,#1130,.T.);
#1341=ORIENTED_EDGE('',*,*,#1296,.F.);
#1342=EDGE_LOOP('',(#1336,#1337,#1338,#1339,#1340,#1341));
#1343=FACE_OUTER_BOUND('',#1342,.T.);
#1344=ADVANCED_FACE('',(#1343),#1335,.F.);
#1345=CARTESIAN_POINT('',(-7.771561E-016,1.715799E-016,0.0));
#1346=DIRECTION('',(0.0,0.0,1.0));
#1347=DIRECTION('',(1.0,0.0,0.0));
#1348=AXIS2_PLACEMENT_3D('',#1345,#1346,#1347);
#1349=PLANE('',#1348);
#1350=ORIENTED_EDGE('',*,*,#634,.F.);
#1351=ORIENTED_EDGE('',*,*,#1305,.F.);
#1352=ORIENTED_EDGE('',*,*,#1274,.T.);
#1353=ORIENTED_EDGE('',*,*,#1209,.T.);
#1354=ORIENTED_EDGE('',*,*,#927,.T.);
#1355=ORIENTED_EDGE('',*,*,#657,.F.);
#1356=EDGE_LOOP('',(#1350,#1351,#1352,#1353,#1354,#1355));
#1357=FACE_OUTER_BOUND('',#1356,.T.);
#1358=ADVANCED_FACE('',(#1357),#1349,.F.);
#1359=CARTESIAN_POINT('',(3.799999999999999,3.800000000000000,0.0));
#1360=DIRECTION('',(1.0,0.0,0.0));
#1361=DIRECTION('',(0.0,0.0,-1.0));
#1362=AXIS2_PLACEMENT_3D('',#1359,#1360,#1361);
#1363=PLANE('',#1362);
#1364=ORIENTED_EDGE('',*,*,#721,.F.);
#1365=ORIENTED_EDGE('',*,*,#1326,.T.);
#1366=ORIENTED_EDGE('',*,*,#1251,.T.);
#1367=ORIENTED_EDGE('',*,*,#1168,.T.);
#1368=ORIENTED_EDGE('',*,*,#1232,.T.);
#1369=ORIENTED_EDGE('',*,*,#763,.T.);
#1370=ORIENTED_EDGE('',*,*,#738,.F.);
#1371=ORIENTED_EDGE('',*,*,#540,.T.);
#1372=EDGE_LOOP('',(#1364,#1365,#1366,#1367,#1368,#1369,#1370,#1371));
#1373=FACE_OUTER_BOUND('',#1372,.T.);
#1374=ADVANCED_FACE('',(#1373),#1363,.T.);
#1375=CLOSED_SHELL('',(#298,#343,#388,#430,#493,#612,#644,#700,#725,#750,#790,#801,#828,#855,#866,#890,#900,#931,#962,#993,#1017,#1041,#1072,#1103,#1134,#1196,#1220,#1237,#1261,#1285,#1311,#1330,#1344,#1358,#1374));
#1376=MANIFOLD_SOLID_BREP('25B',#1375);
#1377=STYLED_ITEM('NONE',(#159),#1376);
#1378=CARTESIAN_POINT('',(3.415000000000000,1.0,0.0));
#1379=DIRECTION('',(1.0,0.0,0.0));
#1380=DIRECTION('',(0.0,0.0,-1.0));
#1381=AXIS2_PLACEMENT_3D('',#1378,#1379,#1380);
#1382=PLANE('',#1381);
#1383=CARTESIAN_POINT('',(3.415000000000000,1.0,0.200000000000000));
#1384=VERTEX_POINT('',#1383);
#1385=CARTESIAN_POINT('',(3.415000000000000,0.400000000000000,0.200000000000000));
#1386=VERTEX_POINT('',#1385);
#1387=CARTESIAN_POINT('',(3.415000000000000,1.0,0.200000000000000));
#1388=DIRECTION('',(0.0,-1.0,0.0));
#1389=VECTOR('',#1388,0.600000000000000);
#1390=LINE('',#1387,#1389);
#1391=EDGE_CURVE('',#1384,#1386,#1390,.T.);
#1392=ORIENTED_EDGE('',*,*,#1391,.T.);
#1393=CARTESIAN_POINT('',(3.415000000000000,0.400000000000000,0.0));
#1394=VERTEX_POINT('',#1393);
#1395=CARTESIAN_POINT('',(3.415000000000000,0.400000000000000,0.0));
#1396=DIRECTION('',(0.0,0.0,1.0));
#1397=VECTOR('',#1396,0.200000000000000);
#1398=LINE('',#1395,#1397);
#1399=EDGE_CURVE('',#1394,#1386,#1398,.T.);
#1400=ORIENTED_EDGE('',*,*,#1399,.F.);
#1401=CARTESIAN_POINT('',(3.415000000000000,1.0,0.0));
#1402=VERTEX_POINT('',#1401);
#1403=CARTESIAN_POINT('',(3.415000000000000,1.0,0.0));
#1404=DIRECTION('',(0.0,-1.0,0.0));
#1405=VECTOR('',#1404,0.600000000000000);
#1406=LINE('',#1403,#1405);
#1407=EDGE_CURVE('',#1402,#1394,#1406,.T.);
#1408=ORIENTED_EDGE('',*,*,#1407,.F.);
#1409=CARTESIAN_POINT('',(3.415000000000000,1.0,0.0));
#1410=DIRECTION('',(0.0,0.0,1.0));
#1411=VECTOR('',#1410,0.200000000000000);
#1412=LINE('',#1409,#1411);
#1413=EDGE_CURVE('',#1402,#1384,#1412,.T.);
#1414=ORIENTED_EDGE('',*,*,#1413,.T.);
#1415=EDGE_LOOP('',(#1392,#1400,#1408,#1414));
#1416=FACE_OUTER_BOUND('',#1415,.T.);
#1417=ADVANCED_FACE('',(#1416),#1382,.T.);
#1418=CARTESIAN_POINT('',(3.415000000000000,0.400000000000000,0.0));
#1419=DIRECTION('',(0.0,-1.0,0.0));
#1420=DIRECTION('',(0.0,0.0,-1.0));
#1421=AXIS2_PLACEMENT_3D('',#1418,#1419,#1420);
#1422=PLANE('',#1421);
#1423=CARTESIAN_POINT('',(2.685000000000000,0.400000000000000,0.200000000000000));
#1424=VERTEX_POINT('',#1423);
#1425=CARTESIAN_POINT('',(3.415000000000000,0.400000000000000,0.200000000000000));
#1426=DIRECTION('',(-1.0,0.0,0.0));
#1427=VECTOR('',#1426,0.730000000000000);
#1428=LINE('',#1425,#1427);
#1429=EDGE_CURVE('',#1386,#1424,#1428,.T.);
#1430=ORIENTED_EDGE('',*,*,#1429,.T.);
#1431=CARTESIAN_POINT('',(2.685000000000000,0.400000000000000,0.0));
#1432=VERTEX_POINT('',#1431);
#1433=CARTESIAN_POINT('',(2.685000000000000,0.400000000000000,0.0));
#1434=DIRECTION('',(0.0,0.0,1.0));
#1435=VECTOR('',#1434,0.200000000000000);
#1436=LINE('',#1433,#1435);
#1437=EDGE_CURVE('',#1432,#1424,#1436,.T.);
#1438=ORIENTED_EDGE('',*,*,#1437,.F.);
#1439=CARTESIAN_POINT('',(3.415000000000000,0.400000000000000,0.0));
#1440=DIRECTION('',(-1.0,0.0,0.0));
#1441=VECTOR('',#1440,0.730000000000000);
#1442=LINE('',#1439,#1441);
#1443=EDGE_CURVE('',#1394,#1432,#1442,.T.);
#1444=ORIENTED_EDGE('',*,*,#1443,.F.);
#1445=ORIENTED_EDGE('',*,*,#1399,.T.);
#1446=EDGE_LOOP('',(#1430,#1438,#1444,#1445));
#1447=FACE_OUTER_BOUND('',#1446,.T.);
#1448=ADVANCED_FACE('',(#1447),#1422,.T.);
#1449=CARTESIAN_POINT('',(2.685000000000000,0.400000000000000,0.0));
#1450=DIRECTION('',(-1.0,0.0,0.0));
#1451=DIRECTION('',(0.0,0.0,1.0));
#1452=AXIS2_PLACEMENT_3D('',#1449,#1450,#1451);
#1453=PLANE('',#1452);
#1454=CARTESIAN_POINT('',(2.685000000000000,1.0,0.200000000000000));
#1455=VERTEX_POINT('',#1454);
#1456=CARTESIAN_POINT('',(2.685000000000000,0.400000000000000,0.200000000000000));
#1457=DIRECTION('',(0.0,1.0,0.0));
#1458=VECTOR('',#1457,0.600000000000000);
#1459=LINE('',#1456,#1458);
#1460=EDGE_CURVE('',#1424,#1455,#1459,.T.);
#1461=ORIENTED_EDGE('',*,*,#1460,.T.);
#1462=CARTESIAN_POINT('',(2.685000000000000,1.0,0.0));
#1463=VERTEX_POINT('',#1462);
#1464=CARTESIAN_POINT('',(2.685000000000000,1.0,0.0));
#1465=DIRECTION('',(0.0,0.0,1.0));
#1466=VECTOR('',#1465,0.200000000000000);
#1467=LINE('',#1464,#1466);
#1468=EDGE_CURVE('',#1463,#1455,#1467,.T.);
#1469=ORIENTED_EDGE('',*,*,#1468,.F.);
#1470=CARTESIAN_POINT('',(2.685000000000000,0.400000000000000,0.0));
#1471=DIRECTION('',(0.0,1.0,0.0));
#1472=VECTOR('',#1471,0.600000000000000);
#1473=LINE('',#1470,#1472);
#1474=EDGE_CURVE('',#1432,#1463,#1473,.T.);
#1475=ORIENTED_EDGE('',*,*,#1474,.F.);
#1476=ORIENTED_EDGE('',*,*,#1437,.T.);
#1477=EDGE_LOOP('',(#1461,#1469,#1475,#1476));
#1478=FACE_OUTER_BOUND('',#1477,.T.);
#1479=ADVANCED_FACE('',(#1478),#1453,.T.);
#1480=CARTESIAN_POINT('',(2.685000000000000,1.0,0.0));
#1481=DIRECTION('',(0.0,1.0,0.0));
#1482=DIRECTION('',(0.0,0.0,1.0));
#1483=AXIS2_PLACEMENT_3D('',#1480,#1481,#1482);
#1484=PLANE('',#1483);
#1485=CARTESIAN_POINT('',(2.685000000000000,1.0,0.200000000000000));
#1486=DIRECTION('',(1.0,0.0,0.0));
#1487=VECTOR('',#1486,0.730000000000000);
#1488=LINE('',#1485,#1487);
#1489=EDGE_CURVE('',#1455,#1384,#1488,.T.);
#1490=ORIENTED_EDGE('',*,*,#1489,.T.);
#1491=ORIENTED_EDGE('',*,*,#1413,.F.);
#1492=CARTESIAN_POINT('',(2.685000000000000,1.0,0.0));
#1493=DIRECTION('',(1.0,0.0,0.0));
#1494=VECTOR('',#1493,0.730000000000000);
#1495=LINE('',#1492,#1494);
#1496=EDGE_CURVE('',#1463,#1402,#1495,.T.);
#1497=ORIENTED_EDGE('',*,*,#1496,.F.);
#1498=ORIENTED_EDGE('',*,*,#1468,.T.);
#1499=EDGE_LOOP('',(#1490,#1491,#1497,#1498));
#1500=FACE_OUTER_BOUND('',#1499,.T.);
#1501=ADVANCED_FACE('',(#1500),#1484,.T.);
#1502=CARTESIAN_POINT('',(3.050000000000000,0.700000000000000,0.200000000000000));
#1503=DIRECTION('',(0.0,0.0,1.0));
#1504=DIRECTION('',(1.0,0.0,0.0));
#1505=AXIS2_PLACEMENT_3D('',#1502,#1503,#1504);
#1506=PLANE('',#1505);
#1507=ORIENTED_EDGE('',*,*,#1489,.F.);
#1508=ORIENTED_EDGE('',*,*,#1460,.F.);
#1509=ORIENTED_EDGE('',*,*,#1429,.F.);
#1510=ORIENTED_EDGE('',*,*,#1391,.F.);
#1511=EDGE_LOOP('',(#1507,#1508,#1509,#1510));
#1512=FACE_OUTER_BOUND('',#1511,.T.);
#1513=ADVANCED_FACE('',(#1512),#1506,.T.);
#1514=CARTESIAN_POINT('',(3.050000000000000,0.700000000000000,0.0));
#1515=DIRECTION('',(0.0,0.0,1.0));
#1516=DIRECTION('',(1.0,0.0,0.0));
#1517=AXIS2_PLACEMENT_3D('',#1514,#1515,#1516);
#1518=PLANE('',#1517);
#1519=ORIENTED_EDGE('',*,*,#1474,.T.);
#1520=ORIENTED_EDGE('',*,*,#1496,.T.);
#1521=ORIENTED_EDGE('',*,*,#1407,.T.);
#1522=ORIENTED_EDGE('',*,*,#1443,.T.);
#1523=EDGE_LOOP('',(#1519,#1520,#1521,#1522));
#1524=FACE_OUTER_BOUND('',#1523,.T.);
#1525=ADVANCED_FACE('',(#1524),#1518,.F.);
#1526=CLOSED_SHELL('',(#1417,#1448,#1479,#1501,#1513,#1525));
#1527=MANIFOLD_SOLID_BREP('22F',#1526);
#1528=COLOUR_RGB('254',0.866000000000000,0.866000000000000,0.866000000000000);
#1529=SURFACE_STYLE_USAGE(.BOTH.,#1530);
#1530=SURFACE_SIDE_STYLE('NONE',(#1531));
#1531=SURFACE_STYLE_FILL_AREA(#1532);
#1532=FILL_AREA_STYLE('NONE',(#1533));
#1533=FILL_AREA_STYLE_COLOUR('NONE',#1528);
#1534=PRESENTATION_STYLE_ASSIGNMENT((#1529));
#1535=STYLED_ITEM('NONE',(#1534),#1527);
#1536=CARTESIAN_POINT('',(3.415000000000000,-0.399999999999999,0.0));
#1537=DIRECTION('',(1.0,0.0,0.0));
#1538=DIRECTION('',(0.0,0.0,-1.0));
#1539=AXIS2_PLACEMENT_3D('',#1536,#1537,#1538);
#1540=PLANE('',#1539);
#1541=CARTESIAN_POINT('',(3.415000000000000,-0.399999999999999,0.200000000000000));
#1542=VERTEX_POINT('',#1541);
#1543=CARTESIAN_POINT('',(3.415000000000000,-1.0,0.200000000000000));
#1544=VERTEX_POINT('',#1543);
#1545=CARTESIAN_POINT('',(3.415000000000000,-0.399999999999999,0.200000000000000));
#1546=DIRECTION('',(0.0,-1.0,0.0));
#1547=VECTOR('',#1546,0.600000000000001);
#1548=LINE('',#1545,#1547);
#1549=EDGE_CURVE('',#1542,#1544,#1548,.T.);
#1550=ORIENTED_EDGE('',*,*,#1549,.T.);
#1551=CARTESIAN_POINT('',(3.415000000000000,-1.0,0.0));
#1552=VERTEX_POINT('',#1551);
#1553=CARTESIAN_POINT('',(3.415000000000000,-1.0,0.0));
#1554=DIRECTION('',(0.0,0.0,1.0));
#1555=VECTOR('',#1554,0.200000000000000);
#1556=LINE('',#1553,#1555);
#1557=EDGE_CURVE('',#1552,#1544,#1556,.T.);
#1558=ORIENTED_EDGE('',*,*,#1557,.F.);
#1559=CARTESIAN_POINT('',(3.415000000000000,-0.399999999999999,0.0));
#1560=VERTEX_POINT('',#1559);
#1561=CARTESIAN_POINT('',(3.415000000000000,-0.399999999999999,0.0));
#1562=DIRECTION('',(0.0,-1.0,0.0));
#1563=VECTOR('',#1562,0.600000000000001);
#1564=LINE('',#1561,#1563);
#1565=EDGE_CURVE('',#1560,#1552,#1564,.T.);
#1566=ORIENTED_EDGE('',*,*,#1565,.F.);
#1567=CARTESIAN_POINT('',(3.415000000000000,-0.399999999999999,0.0));
#1568=DIRECTION('',(0.0,0.0,1.0));
#1569=VECTOR('',#1568,0.200000000000000);
#1570=LINE('',#1567,#1569);
#1571=EDGE_CURVE('',#1560,#1542,#1570,.T.);
#1572=ORIENTED_EDGE('',*,*,#1571,.T.);
#1573=EDGE_LOOP('',(#1550,#1558,#1566,#1572));
#1574=FACE_OUTER_BOUND('',#1573,.T.);
#1575=ADVANCED_FACE('',(#1574),#1540,.T.);
#1576=CARTESIAN_POINT('',(3.415000000000000,-1.0,0.0));
#1577=DIRECTION('',(0.0,-1.0,0.0));
#1578=DIRECTION('',(0.0,0.0,-1.0));
#1579=AXIS2_PLACEMENT_3D('',#1576,#1577,#1578);
#1580=PLANE('',#1579);
#1581=CARTESIAN_POINT('',(2.685000000000000,-1.0,0.200000000000000));
#1582=VERTEX_POINT('',#1581);
#1583=CARTESIAN_POINT('',(3.415000000000000,-1.0,0.200000000000000));
#1584=DIRECTION('',(-1.0,0.0,0.0));
#1585=VECTOR('',#1584,0.730000000000000);
#1586=LINE('',#1583,#1585);
#1587=EDGE_CURVE('',#1544,#1582,#1586,.T.);
#1588=ORIENTED_EDGE('',*,*,#1587,.T.);
#1589=CARTESIAN_POINT('',(2.685000000000000,-1.0,0.0));
#1590=VERTEX_POINT('',#1589);
#1591=CARTESIAN_POINT('',(2.685000000000000,-1.0,0.0));
#1592=DIRECTION('',(0.0,0.0,1.0));
#1593=VECTOR('',#1592,0.200000000000000);
#1594=LINE('',#1591,#1593);
#1595=EDGE_CURVE('',#1590,#1582,#1594,.T.);
#1596=ORIENTED_EDGE('',*,*,#1595,.F.);
#1597=CARTESIAN_POINT('',(3.415000000000000,-1.0,0.0));
#1598=DIRECTION('',(-1.0,0.0,0.0));
#1599=VECTOR('',#1598,0.730000000000000);
#1600=LINE('',#1597,#1599);
#1601=EDGE_CURVE('',#1552,#1590,#1600,.T.);
#1602=ORIENTED_EDGE('',*,*,#1601,.F.);
#1603=ORIENTED_EDGE('',*,*,#1557,.T.);
#1604=EDGE_LOOP('',(#1588,#1596,#1602,#1603));
#1605=FACE_OUTER_BOUND('',#1604,.T.);
#1606=ADVANCED_FACE('',(#1605),#1580,.T.);
#1607=CARTESIAN_POINT('',(2.685000000000000,-1.0,0.0));
#1608=DIRECTION('',(-1.0,0.0,0.0));
#1609=DIRECTION('',(0.0,0.0,1.0));
#1610=AXIS2_PLACEMENT_3D('',#1607,#1608,#1609);
#1611=PLANE('',#1610);
#1612=CARTESIAN_POINT('',(2.685000000000000,-0.399999999999999,0.200000000000000));
#1613=VERTEX_POINT('',#1612);
#1614=CARTESIAN_POINT('',(2.685000000000000,-1.0,0.200000000000000));
#1615=DIRECTION('',(0.0,1.0,0.0));
#1616=VECTOR('',#1615,0.600000000000001);
#1617=LINE('',#1614,#1616);
#1618=EDGE_CURVE('',#1582,#1613,#1617,.T.);
#1619=ORIENTED_EDGE('',*,*,#1618,.T.);
#1620=CARTESIAN_POINT('',(2.685000000000000,-0.399999999999999,0.0));
#1621=VERTEX_POINT('',#1620);
#1622=CARTESIAN_POINT('',(2.685000000000000,-0.399999999999999,0.0));
#1623=DIRECTION('',(0.0,0.0,1.0));
#1624=VECTOR('',#1623,0.200000000000000);
#1625=LINE('',#1622,#1624);
#1626=EDGE_CURVE('',#1621,#1613,#1625,.T.);
#1627=ORIENTED_EDGE('',*,*,#1626,.F.);
#1628=CARTESIAN_POINT('',(2.685000000000000,-1.0,0.0));
#1629=DIRECTION('',(0.0,1.0,0.0));
#1630=VECTOR('',#1629,0.600000000000001);
#1631=LINE('',#1628,#1630);
#1632=EDGE_CURVE('',#1590,#1621,#1631,.T.);
#1633=ORIENTED_EDGE('',*,*,#1632,.F.);
#1634=ORIENTED_EDGE('',*,*,#1595,.T.);
#1635=EDGE_LOOP('',(#1619,#1627,#1633,#1634));
#1636=FACE_OUTER_BOUND('',#1635,.T.);
#1637=ADVANCED_FACE('',(#1636),#1611,.T.);
#1638=CARTESIAN_POINT('',(2.685000000000000,-0.399999999999999,0.0));
#1639=DIRECTION('',(0.0,1.0,0.0));
#1640=DIRECTION('',(0.0,0.0,1.0));
#1641=AXIS2_PLACEMENT_3D('',#1638,#1639,#1640);
#1642=PLANE('',#1641);
#1643=CARTESIAN_POINT('',(2.685000000000000,-0.399999999999999,0.200000000000000));
#1644=DIRECTION('',(1.0,0.0,0.0));
#1645=VECTOR('',#1644,0.730000000000000);
#1646=LINE('',#1643,#1645);
#1647=EDGE_CURVE('',#1613,#1542,#1646,.T.);
#1648=ORIENTED_EDGE('',*,*,#1647,.T.);
#1649=ORIENTED_EDGE('',*,*,#1571,.F.);
#1650=CARTESIAN_POINT('',(2.685000000000000,-0.399999999999999,0.0));
#1651=DIRECTION('',(1.0,0.0,0.0));
#1652=VECTOR('',#1651,0.730000000000000);
#1653=LINE('',#1650,#1652);
#1654=EDGE_CURVE('',#1621,#1560,#1653,.T.);
#1655=ORIENTED_EDGE('',*,*,#1654,.F.);
#1656=ORIENTED_EDGE('',*,*,#1626,.T.);
#1657=EDGE_LOOP('',(#1648,#1649,#1655,#1656));
#1658=FACE_OUTER_BOUND('',#1657,.T.);
#1659=ADVANCED_FACE('',(#1658),#1642,.T.);
#1660=CARTESIAN_POINT('',(3.050000000000000,-0.700000000000000,0.200000000000000));
#1661=DIRECTION('',(0.0,0.0,1.0));
#1662=DIRECTION('',(1.0,0.0,0.0));
#1663=AXIS2_PLACEMENT_3D('',#1660,#1661,#1662);
#1664=PLANE('',#1663);
#1665=ORIENTED_EDGE('',*,*,#1647,.F.);
#1666=ORIENTED_EDGE('',*,*,#1618,.F.);
#1667=ORIENTED_EDGE('',*,*,#1587,.F.);
#1668=ORIENTED_EDGE('',*,*,#1549,.F.);
#1669=EDGE_LOOP('',(#1665,#1666,#1667,#1668));
#1670=FACE_OUTER_BOUND('',#1669,.T.);
#1671=ADVANCED_FACE('',(#1670),#1664,.T.);
#1672=CARTESIAN_POINT('',(3.050000000000000,-0.700000000000000,0.0));
#1673=DIRECTION('',(0.0,0.0,1.0));
#1674=DIRECTION('',(1.0,0.0,0.0));
#1675=AXIS2_PLACEMENT_3D('',#1672,#1673,#1674);
#1676=PLANE('',#1675);
#1677=ORIENTED_EDGE('',*,*,#1632,.T.);
#1678=ORIENTED_EDGE('',*,*,#1654,.T.);
#1679=ORIENTED_EDGE('',*,*,#1565,.T.);
#1680=ORIENTED_EDGE('',*,*,#1601,.T.);
#1681=EDGE_LOOP('',(#1677,#1678,#1679,#1680));
#1682=FACE_OUTER_BOUND('',#1681,.T.);
#1683=ADVANCED_FACE('',(#1682),#1676,.F.);
#1684=CLOSED_SHELL('',(#1575,#1606,#1637,#1659,#1671,#1683));
#1685=MANIFOLD_SOLID_BREP('22B',#1684);
#1686=STYLED_ITEM('NONE',(#1534),#1685);
#1687=CARTESIAN_POINT('',(-3.415000000000001,-1.0,0.0));
#1688=DIRECTION('',(-1.0,0.0,0.0));
#1689=DIRECTION('',(0.0,0.0,1.0));
#1690=AXIS2_PLACEMENT_3D('',#1687,#1688,#1689);
#1691=PLANE('',#1690);
#1692=CARTESIAN_POINT('',(-3.415000000000001,-1.0,0.200000000000000));
#1693=VERTEX_POINT('',#1692);
#1694=CARTESIAN_POINT('',(-3.415000000000001,-0.399999999999999,0.200000000000000));
#1695=VERTEX_POINT('',#1694);
#1696=CARTESIAN_POINT('',(-3.415000000000001,-1.0,0.200000000000000));
#1697=DIRECTION('',(0.0,1.0,0.0));
#1698=VECTOR('',#1697,0.600000000000001);
#1699=LINE('',#1696,#1698);
#1700=EDGE_CURVE('',#1693,#1695,#1699,.T.);
#1701=ORIENTED_EDGE('',*,*,#1700,.T.);
#1702=CARTESIAN_POINT('',(-3.415000000000001,-0.399999999999999,0.0));
#1703=VERTEX_POINT('',#1702);
#1704=CARTESIAN_POINT('',(-3.415000000000001,-0.399999999999999,0.0));
#1705=DIRECTION('',(0.0,0.0,1.0));
#1706=VECTOR('',#1705,0.200000000000000);
#1707=LINE('',#1704,#1706);
#1708=EDGE_CURVE('',#1703,#1695,#1707,.T.);
#1709=ORIENTED_EDGE('',*,*,#1708,.F.);
#1710=CARTESIAN_POINT('',(-3.415000000000001,-1.0,0.0));
#1711=VERTEX_POINT('',#1710);
#1712=CARTESIAN_POINT('',(-3.415000000000001,-1.0,0.0));
#1713=DIRECTION('',(0.0,1.0,0.0));
#1714=VECTOR('',#1713,0.600000000000001);
#1715=LINE('',#1712,#1714);
#1716=EDGE_CURVE('',#1711,#1703,#1715,.T.);
#1717=ORIENTED_EDGE('',*,*,#1716,.F.);
#1718=CARTESIAN_POINT('',(-3.415000000000001,-1.0,0.0));
#1719=DIRECTION('',(0.0,0.0,1.0));
#1720=VECTOR('',#1719,0.200000000000000);
#1721=LINE('',#1718,#1720);
#1722=EDGE_CURVE('',#1711,#1693,#1721,.T.);
#1723=ORIENTED_EDGE('',*,*,#1722,.T.);
#1724=EDGE_LOOP('',(#1701,#1709,#1717,#1723));
#1725=FACE_OUTER_BOUND('',#1724,.T.);
#1726=ADVANCED_FACE('',(#1725),#1691,.T.);
#1727=CARTESIAN_POINT('',(-3.415000000000001,-0.399999999999999,0.0));
#1728=DIRECTION('',(0.0,1.0,0.0));
#1729=DIRECTION('',(0.0,0.0,1.0));
#1730=AXIS2_PLACEMENT_3D('',#1727,#1728,#1729);
#1731=PLANE('',#1730);
#1732=CARTESIAN_POINT('',(-2.685000000000001,-0.399999999999999,0.200000000000000));
#1733=VERTEX_POINT('',#1732);
#1734=CARTESIAN_POINT('',(-3.415000000000001,-0.399999999999999,0.200000000000000));
#1735=DIRECTION('',(1.0,0.0,0.0));
#1736=VECTOR('',#1735,0.730000000000000);
#1737=LINE('',#1734,#1736);
#1738=EDGE_CURVE('',#1695,#1733,#1737,.T.);
#1739=ORIENTED_EDGE('',*,*,#1738,.T.);
#1740=CARTESIAN_POINT('',(-2.685000000000001,-0.399999999999999,0.0));
#1741=VERTEX_POINT('',#1740);
#1742=CARTESIAN_POINT('',(-2.685000000000001,-0.399999999999999,0.0));
#1743=DIRECTION('',(0.0,0.0,1.0));
#1744=VECTOR('',#1743,0.200000000000000);
#1745=LINE('',#1742,#1744);
#1746=EDGE_CURVE('',#1741,#1733,#1745,.T.);
#1747=ORIENTED_EDGE('',*,*,#1746,.F.);
#1748=CARTESIAN_POINT('',(-3.415000000000001,-0.399999999999999,0.0));
#1749=DIRECTION('',(1.0,0.0,0.0));
#1750=VECTOR('',#1749,0.730000000000000);
#1751=LINE('',#1748,#1750);
#1752=EDGE_CURVE('',#1703,#1741,#1751,.T.);
#1753=ORIENTED_EDGE('',*,*,#1752,.F.);
#1754=ORIENTED_EDGE('',*,*,#1708,.T.);
#1755=EDGE_LOOP('',(#1739,#1747,#1753,#1754));
#1756=FACE_OUTER_BOUND('',#1755,.T.);
#1757=ADVANCED_FACE('',(#1756),#1731,.T.);
#1758=CARTESIAN_POINT('',(-2.685000000000001,-0.399999999999999,0.0));
#1759=DIRECTION('',(1.0,0.0,0.0));
#1760=DIRECTION('',(0.0,0.0,-1.0));
#1761=AXIS2_PLACEMENT_3D('',#1758,#1759,#1760);
#1762=PLANE('',#1761);
#1763=CARTESIAN_POINT('',(-2.685000000000001,-1.0,0.200000000000000));
#1764=VERTEX_POINT('',#1763);
#1765=CARTESIAN_POINT('',(-2.685000000000001,-0.399999999999999,0.200000000000000));
#1766=DIRECTION('',(0.0,-1.0,0.0));
#1767=VECTOR('',#1766,0.600000000000001);
#1768=LINE('',#1765,#1767);
#1769=EDGE_CURVE('',#1733,#1764,#1768,.T.);
#1770=ORIENTED_EDGE('',*,*,#1769,.T.);
#1771=CARTESIAN_POINT('',(-2.685000000000001,-1.0,0.0));
#1772=VERTEX_POINT('',#1771);
#1773=CARTESIAN_POINT('',(-2.685000000000001,-1.0,0.0));
#1774=DIRECTION('',(0.0,0.0,1.0));
#1775=VECTOR('',#1774,0.200000000000000);
#1776=LINE('',#1773,#1775);
#1777=EDGE_CURVE('',#1772,#1764,#1776,.T.);
#1778=ORIENTED_EDGE('',*,*,#1777,.F.);
#1779=CARTESIAN_POINT('',(-2.685000000000001,-0.399999999999999,0.0));
#1780=DIRECTION('',(0.0,-1.0,0.0));
#1781=VECTOR('',#1780,0.600000000000001);
#1782=LINE('',#1779,#1781);
#1783=EDGE_CURVE('',#1741,#1772,#1782,.T.);
#1784=ORIENTED_EDGE('',*,*,#1783,.F.);
#1785=ORIENTED_EDGE('',*,*,#1746,.T.);
#1786=EDGE_LOOP('',(#1770,#1778,#1784,#1785));
#1787=FACE_OUTER_BOUND('',#1786,.T.);
#1788=ADVANCED_FACE('',(#1787),#1762,.T.);
#1789=CARTESIAN_POINT('',(-2.685000000000001,-1.0,0.0));
#1790=DIRECTION('',(0.0,-1.0,0.0));
#1791=DIRECTION('',(0.0,0.0,-1.0));
#1792=AXIS2_PLACEMENT_3D('',#1789,#1790,#1791);
#1793=PLANE('',#1792);
#1794=CARTESIAN_POINT('',(-2.685000000000001,-1.0,0.200000000000000));
#1795=DIRECTION('',(-1.0,0.0,0.0));
#1796=VECTOR('',#1795,0.730000000000000);
#1797=LINE('',#1794,#1796);
#1798=EDGE_CURVE('',#1764,#1693,#1797,.T.);
#1799=ORIENTED_EDGE('',*,*,#1798,.T.);
#1800=ORIENTED_EDGE('',*,*,#1722,.F.);
#1801=CARTESIAN_POINT('',(-2.685000000000001,-1.0,0.0));
#1802=DIRECTION('',(-1.0,0.0,0.0));
#1803=VECTOR('',#1802,0.730000000000000);
#1804=LINE('',#1801,#1803);
#1805=EDGE_CURVE('',#1772,#1711,#1804,.T.);
#1806=ORIENTED_EDGE('',*,*,#1805,.F.);
#1807=ORIENTED_EDGE('',*,*,#1777,.T.);
#1808=EDGE_LOOP('',(#1799,#1800,#1806,#1807));
#1809=FACE_OUTER_BOUND('',#1808,.T.);
#1810=ADVANCED_FACE('',(#1809),#1793,.T.);
#1811=CARTESIAN_POINT('',(-3.050000000000000,-0.700000000000000,0.200000000000000));
#1812=DIRECTION('',(0.0,0.0,1.0));
#1813=DIRECTION('',(1.0,0.0,0.0));
#1814=AXIS2_PLACEMENT_3D('',#1811,#1812,#1813);
#1815=PLANE('',#1814);
#1816=ORIENTED_EDGE('',*,*,#1798,.F.);
#1817=ORIENTED_EDGE('',*,*,#1769,.F.);
#1818=ORIENTED_EDGE('',*,*,#1738,.F.);
#1819=ORIENTED_EDGE('',*,*,#1700,.F.);
#1820=EDGE_LOOP('',(#1816,#1817,#1818,#1819));
#1821=FACE_OUTER_BOUND('',#1820,.T.);
#1822=ADVANCED_FACE('',(#1821),#1815,.T.);
#1823=CARTESIAN_POINT('',(-3.050000000000000,-0.700000000000000,0.0));
#1824=DIRECTION('',(0.0,0.0,1.0));
#1825=DIRECTION('',(1.0,0.0,0.0));
#1826=AXIS2_PLACEMENT_3D('',#1823,#1824,#1825);
#1827=PLANE('',#1826);
#1828=ORIENTED_EDGE('',*,*,#1783,.T.);
#1829=ORIENTED_EDGE('',*,*,#1805,.T.);
#1830=ORIENTED_EDGE('',*,*,#1716,.T.);
#1831=ORIENTED_EDGE('',*,*,#1752,.T.);
#1832=EDGE_LOOP('',(#1828,#1829,#1830,#1831));
#1833=FACE_OUTER_BOUND('',#1832,.T.);
#1834=ADVANCED_FACE('',(#1833),#1827,.F.);
#1835=CLOSED_SHELL('',(#1726,#1757,#1788,#1810,#1822,#1834));
#1836=MANIFOLD_SOLID_BREP('227',#1835);
#1837=STYLED_ITEM('NONE',(#1534),#1836);
#1838=CARTESIAN_POINT('',(-2.685000000000001,0.400000000000000,0.0));
#1839=DIRECTION('',(0.0,-1.0,0.0));
#1840=DIRECTION('',(0.0,0.0,-1.0));
#1841=AXIS2_PLACEMENT_3D('',#1838,#1839,#1840);
#1842=PLANE('',#1841);
#1843=CARTESIAN_POINT('',(-2.685000000000001,0.400000000000000,0.200000000000000));
#1844=VERTEX_POINT('',#1843);
#1845=CARTESIAN_POINT('',(-3.415000000000001,0.400000000000000,0.200000000000000));
#1846=VERTEX_POINT('',#1845);
#1847=CARTESIAN_POINT('',(-2.685000000000001,0.400000000000000,0.200000000000000));
#1848=DIRECTION('',(-1.0,0.0,0.0));
#1849=VECTOR('',#1848,0.730000000000000);
#1850=LINE('',#1847,#1849);
#1851=EDGE_CURVE('',#1844,#1846,#1850,.T.);
#1852=ORIENTED_EDGE('',*,*,#1851,.T.);
#1853=CARTESIAN_POINT('',(-3.415000000000001,0.400000000000000,0.0));
#1854=VERTEX_POINT('',#1853);
#1855=CARTESIAN_POINT('',(-3.415000000000001,0.400000000000000,0.0));
#1856=DIRECTION('',(0.0,0.0,1.0));
#1857=VECTOR('',#1856,0.200000000000000);
#1858=LINE('',#1855,#1857);
#1859=EDGE_CURVE('',#1854,#1846,#1858,.T.);
#1860=ORIENTED_EDGE('',*,*,#1859,.F.);
#1861=CARTESIAN_POINT('',(-2.685000000000001,0.400000000000000,0.0));
#1862=VERTEX_POINT('',#1861);
#1863=CARTESIAN_POINT('',(-2.685000000000001,0.400000000000000,0.0));
#1864=DIRECTION('',(-1.0,0.0,0.0));
#1865=VECTOR('',#1864,0.730000000000000);
#1866=LINE('',#1863,#1865);
#1867=EDGE_CURVE('',#1862,#1854,#1866,.T.);
#1868=ORIENTED_EDGE('',*,*,#1867,.F.);
#1869=CARTESIAN_POINT('',(-2.685000000000001,0.400000000000000,0.0));
#1870=DIRECTION('',(0.0,0.0,1.0));
#1871=VECTOR('',#1870,0.200000000000000);
#1872=LINE('',#1869,#1871);
#1873=EDGE_CURVE('',#1862,#1844,#1872,.T.);
#1874=ORIENTED_EDGE('',*,*,#1873,.T.);
#1875=EDGE_LOOP('',(#1852,#1860,#1868,#1874));
#1876=FACE_OUTER_BOUND('',#1875,.T.);
#1877=ADVANCED_FACE('',(#1876),#1842,.T.);
#1878=CARTESIAN_POINT('',(-3.415000000000001,0.400000000000000,0.0));
#1879=DIRECTION('',(-1.0,0.0,0.0));
#1880=DIRECTION('',(0.0,0.0,1.0));
#1881=AXIS2_PLACEMENT_3D('',#1878,#1879,#1880);
#1882=PLANE('',#1881);
#1883=CARTESIAN_POINT('',(-3.415000000000001,1.0,0.200000000000000));
#1884=VERTEX_POINT('',#1883);
#1885=CARTESIAN_POINT('',(-3.415000000000001,0.400000000000000,0.200000000000000));
#1886=DIRECTION('',(0.0,1.0,0.0));
#1887=VECTOR('',#1886,0.600000000000000);
#1888=LINE('',#1885,#1887);
#1889=EDGE_CURVE('',#1846,#1884,#1888,.T.);
#1890=ORIENTED_EDGE('',*,*,#1889,.T.);
#1891=CARTESIAN_POINT('',(-3.415000000000001,1.0,0.0));
#1892=VERTEX_POINT('',#1891);
#1893=CARTESIAN_POINT('',(-3.415000000000001,1.0,0.0));
#1894=DIRECTION('',(0.0,0.0,1.0));
#1895=VECTOR('',#1894,0.200000000000000);
#1896=LINE('',#1893,#1895);
#1897=EDGE_CURVE('',#1892,#1884,#1896,.T.);
#1898=ORIENTED_EDGE('',*,*,#1897,.F.);
#1899=CARTESIAN_POINT('',(-3.415000000000001,0.400000000000000,0.0));
#1900=DIRECTION('',(0.0,1.0,0.0));
#1901=VECTOR('',#1900,0.600000000000000);
#1902=LINE('',#1899,#1901);
#1903=EDGE_CURVE('',#1854,#1892,#1902,.T.);
#1904=ORIENTED_EDGE('',*,*,#1903,.F.);
#1905=ORIENTED_EDGE('',*,*,#1859,.T.);
#1906=EDGE_LOOP('',(#1890,#1898,#1904,#1905));
#1907=FACE_OUTER_BOUND('',#1906,.T.);
#1908=ADVANCED_FACE('',(#1907),#1882,.T.);
#1909=CARTESIAN_POINT('',(-3.415000000000001,1.0,0.0));
#1910=DIRECTION('',(0.0,1.0,0.0));
#1911=DIRECTION('',(0.0,0.0,1.0));
#1912=AXIS2_PLACEMENT_3D('',#1909,#1910,#1911);
#1913=PLANE('',#1912);
#1914=CARTESIAN_POINT('',(-2.685000000000001,1.0,0.200000000000000));
#1915=VERTEX_POINT('',#1914);
#1916=CARTESIAN_POINT('',(-3.415000000000001,1.0,0.200000000000000));
#1917=DIRECTION('',(1.0,0.0,0.0));
#1918=VECTOR('',#1917,0.730000000000000);
#1919=LINE('',#1916,#1918);
#1920=EDGE_CURVE('',#1884,#1915,#1919,.T.);
#1921=ORIENTED_EDGE('',*,*,#1920,.T.);
#1922=CARTESIAN_POINT('',(-2.685000000000001,1.0,0.0));
#1923=VERTEX_POINT('',#1922);
#1924=CARTESIAN_POINT('',(-2.685000000000001,1.0,0.0));
#1925=DIRECTION('',(0.0,0.0,1.0));
#1926=VECTOR('',#1925,0.200000000000000);
#1927=LINE('',#1924,#1926);
#1928=EDGE_CURVE('',#1923,#1915,#1927,.T.);
#1929=ORIENTED_EDGE('',*,*,#1928,.F.);
#1930=CARTESIAN_POINT('',(-3.415000000000001,1.0,0.0));
#1931=DIRECTION('',(1.0,0.0,0.0));
#1932=VECTOR('',#1931,0.730000000000000);
#1933=LINE('',#1930,#1932);
#1934=EDGE_CURVE('',#1892,#1923,#1933,.T.);
#1935=ORIENTED_EDGE('',*,*,#1934,.F.);
#1936=ORIENTED_EDGE('',*,*,#1897,.T.);
#1937=EDGE_LOOP('',(#1921,#1929,#1935,#1936));
#1938=FACE_OUTER_BOUND('',#1937,.T.);
#1939=ADVANCED_FACE('',(#1938),#1913,.T.);
#1940=CARTESIAN_POINT('',(-2.685000000000001,1.0,0.0));
#1941=DIRECTION('',(1.0,0.0,0.0));
#1942=DIRECTION('',(0.0,0.0,-1.0));
#1943=AXIS2_PLACEMENT_3D('',#1940,#1941,#1942);
#1944=PLANE('',#1943);
#1945=CARTESIAN_POINT('',(-2.685000000000001,1.0,0.200000000000000));
#1946=DIRECTION('',(0.0,-1.0,0.0));
#1947=VECTOR('',#1946,0.600000000000000);
#1948=LINE('',#1945,#1947);
#1949=EDGE_CURVE('',#1915,#1844,#1948,.T.);
#1950=ORIENTED_EDGE('',*,*,#1949,.T.);
#1951=ORIENTED_EDGE('',*,*,#1873,.F.);
#1952=CARTESIAN_POINT('',(-2.685000000000001,1.0,0.0));
#1953=DIRECTION('',(0.0,-1.0,0.0));
#1954=VECTOR('',#1953,0.600000000000000);
#1955=LINE('',#1952,#1954);
#1956=EDGE_CURVE('',#1923,#1862,#1955,.T.);
#1957=ORIENTED_EDGE('',*,*,#1956,.F.);
#1958=ORIENTED_EDGE('',*,*,#1928,.T.);
#1959=EDGE_LOOP('',(#1950,#1951,#1957,#1958));
#1960=FACE_OUTER_BOUND('',#1959,.T.);
#1961=ADVANCED_FACE('',(#1960),#1944,.T.);
#1962=CARTESIAN_POINT('',(-3.050000000000001,0.700000000000000,0.200000000000000));
#1963=DIRECTION('',(0.0,0.0,1.0));
#1964=DIRECTION('',(1.0,0.0,0.0));
#1965=AXIS2_PLACEMENT_3D('',#1962,#1963,#1964);
#1966=PLANE('',#1965);
#1967=ORIENTED_EDGE('',*,*,#1949,.F.);
#1968=ORIENTED_EDGE('',*,*,#1920,.F.);
#1969=ORIENTED_EDGE('',*,*,#1889,.F.);
#1970=ORIENTED_EDGE('',*,*,#1851,.F.);
#1971=EDGE_LOOP('',(#1967,#1968,#1969,#1970));
#1972=FACE_OUTER_BOUND('',#1971,.T.);
#1973=ADVANCED_FACE('',(#1972),#1966,.T.);
#1974=CARTESIAN_POINT('',(-3.050000000000000,0.700000000000000,0.0));
#1975=DIRECTION('',(0.0,0.0,1.0));
#1976=DIRECTION('',(1.0,0.0,0.0));
#1977=AXIS2_PLACEMENT_3D('',#1974,#1975,#1976);
#1978=PLANE('',#1977);
#1979=ORIENTED_EDGE('',*,*,#1934,.T.);
#1980=ORIENTED_EDGE('',*,*,#1956,.T.);
#1981=ORIENTED_EDGE('',*,*,#1867,.T.);
#1982=ORIENTED_EDGE('',*,*,#1903,.T.);
#1983=EDGE_LOOP('',(#1979,#1980,#1981,#1982));
#1984=FACE_OUTER_BOUND('',#1983,.T.);
#1985=ADVANCED_FACE('',(#1984),#1978,.F.);
#1986=CLOSED_SHELL('',(#1877,#1908,#1939,#1961,#1973,#1985));
#1987=MANIFOLD_SOLID_BREP('223',#1986);
#1988=STYLED_ITEM('NONE',(#1534),#1987);
#1989=ADVANCED_BREP_SHAPE_REPRESENTATION('ABSR1',(#152,#1376,#1527,#1685,#1836,#1987),#28);
#1990=SHAPE_REPRESENTATION_RELATIONSHIP('SRRPL1','',#1989,#62);
ENDSEC;
END-ISO-10303-21;
