ISO-10303-21;
HEADER;
/* Generated by software containing ST-Developer
 * from STEP Tools, Inc. (www.steptools.com) 
 */

FILE_DESCRIPTION(
/* description */ (''),
/* implementation_level */ '2;1');

FILE_NAME(
/* name */ 'S:\\bcivel\\Altium-Lib\\Compo\\IND_LAIRD_MGV10043R3M-10.st
p',
/* time_stamp */ '2015-09-07T16:05:40+02:00',
/* author */ ('bcivel'),
/* organization */ (''),
/* preprocessor_version */ 'ST-DEVELOPER v15.5',
/* originating_system */ 'AutoCAD Mechanical',
/* authorisation */ '');

FILE_SCHEMA (('AUTOMOTIVE_DESIGN { 1 0 10303 214 3 1 1 }'));
ENDSEC;

DATA;
#10=MECHANICAL_DESIGN_GEOMETRIC_PRESENTATION_REPRESENTATION('',(#19,#17,
#18),#819);
#11=DIMENSIONAL_EXPONENTS(0.,0.,0.,0.,0.,0.,0.);
#12=(
CONVERSION_BASED_UNIT('degree',#13)
NAMED_UNIT(#11)
PLANE_ANGLE_UNIT()
);
#13=PLANE_ANGLE_MEASURE_WITH_UNIT(PLANE_ANGLE_MEASURE(0.01745329252),#822);
#14=PRESENTATION_LAYER_ASSIGNMENT('3D','',(#497,#498,#499));
#15=SHAPE_REPRESENTATION_RELATIONSHIP('SRR','None',#825,#16);
#16=ADVANCED_BREP_SHAPE_REPRESENTATION($,(#497,#498,#499),#818);
#17=STYLED_ITEM($,(#835),#497);
#18=STYLED_ITEM($,(#835),#498);
#19=STYLED_ITEM($,(#836),#499);
#20=PLANE($,#504);
#21=PLANE($,#505);
#22=PLANE($,#506);
#23=PLANE($,#507);
#24=PLANE($,#508);
#25=PLANE($,#509);
#26=PLANE($,#510);
#27=PLANE($,#511);
#28=PLANE($,#515);
#29=PLANE($,#516);
#30=PLANE($,#517);
#31=PLANE($,#518);
#32=PLANE($,#519);
#33=PLANE($,#520);
#34=PLANE($,#521);
#35=PLANE($,#522);
#36=PLANE($,#526);
#37=PLANE($,#530);
#38=PLANE($,#534);
#39=PLANE($,#538);
#40=PLANE($,#539);
#41=PLANE($,#540);
#42=FACE_OUTER_BOUND($,#70,.T.);
#43=FACE_OUTER_BOUND($,#71,.T.);
#44=FACE_OUTER_BOUND($,#72,.T.);
#45=FACE_OUTER_BOUND($,#73,.T.);
#46=FACE_OUTER_BOUND($,#74,.T.);
#47=FACE_OUTER_BOUND($,#75,.T.);
#48=FACE_OUTER_BOUND($,#76,.T.);
#49=FACE_OUTER_BOUND($,#77,.T.);
#50=FACE_OUTER_BOUND($,#78,.T.);
#51=FACE_OUTER_BOUND($,#79,.T.);
#52=FACE_OUTER_BOUND($,#80,.T.);
#53=FACE_OUTER_BOUND($,#81,.T.);
#54=FACE_OUTER_BOUND($,#82,.T.);
#55=FACE_OUTER_BOUND($,#83,.T.);
#56=FACE_OUTER_BOUND($,#84,.T.);
#57=FACE_OUTER_BOUND($,#85,.T.);
#58=FACE_OUTER_BOUND($,#86,.T.);
#59=FACE_OUTER_BOUND($,#87,.T.);
#60=FACE_OUTER_BOUND($,#88,.T.);
#61=FACE_OUTER_BOUND($,#89,.T.);
#62=FACE_OUTER_BOUND($,#90,.T.);
#63=FACE_OUTER_BOUND($,#91,.T.);
#64=FACE_OUTER_BOUND($,#92,.T.);
#65=FACE_OUTER_BOUND($,#93,.T.);
#66=FACE_OUTER_BOUND($,#94,.T.);
#67=FACE_OUTER_BOUND($,#95,.T.);
#68=FACE_OUTER_BOUND($,#96,.T.);
#69=FACE_OUTER_BOUND($,#97,.T.);
#70=EDGE_LOOP($,(#328,#329,#330,#331));
#71=EDGE_LOOP($,(#332,#333,#334,#335,#336,#337,#338));
#72=EDGE_LOOP($,(#339,#340,#341,#342));
#73=EDGE_LOOP($,(#343,#344,#345,#346));
#74=EDGE_LOOP($,(#347,#348,#349,#350));
#75=EDGE_LOOP($,(#351,#352,#353,#354));
#76=EDGE_LOOP($,(#355,#356,#357,#358));
#77=EDGE_LOOP($,(#359,#360,#361,#362));
#78=EDGE_LOOP($,(#363,#364,#365,#366,#367,#368,#369));
#79=EDGE_LOOP($,(#370,#371,#372,#373));
#80=EDGE_LOOP($,(#374,#375,#376,#377,#378,#379,#380));
#81=EDGE_LOOP($,(#381,#382,#383,#384));
#82=EDGE_LOOP($,(#385,#386,#387,#388));
#83=EDGE_LOOP($,(#389,#390,#391,#392));
#84=EDGE_LOOP($,(#393,#394,#395,#396));
#85=EDGE_LOOP($,(#397,#398,#399,#400));
#86=EDGE_LOOP($,(#401,#402,#403,#404));
#87=EDGE_LOOP($,(#405,#406,#407,#408,#409,#410,#411));
#88=EDGE_LOOP($,(#412,#413,#414,#415));
#89=EDGE_LOOP($,(#416,#417,#418,#419));
#90=EDGE_LOOP($,(#420,#421,#422,#423));
#91=EDGE_LOOP($,(#424,#425,#426,#427));
#92=EDGE_LOOP($,(#428,#429,#430,#431));
#93=EDGE_LOOP($,(#432,#433,#434,#435));
#94=EDGE_LOOP($,(#436,#437,#438,#439));
#95=EDGE_LOOP($,(#440,#441,#442,#443));
#96=EDGE_LOOP($,(#444,#445,#446,#447,#448,#449,#450,#451));
#97=EDGE_LOOP($,(#452,#453,#454,#455,#456,#457,#458,#459));
#98=LINE($,#683,#152);
#99=LINE($,#686,#153);
#100=LINE($,#689,#154);
#101=LINE($,#691,#155);
#102=LINE($,#693,#156);
#103=LINE($,#695,#157);
#104=LINE($,#697,#158);
#105=LINE($,#698,#159);
#106=LINE($,#701,#160);
#107=LINE($,#702,#161);
#108=LINE($,#705,#162);
#109=LINE($,#707,#163);
#110=LINE($,#708,#164);
#111=LINE($,#711,#165);
#112=LINE($,#712,#166);
#113=LINE($,#714,#167);
#114=LINE($,#717,#168);
#115=LINE($,#718,#169);
#116=LINE($,#720,#170);
#117=LINE($,#727,#171);
#118=LINE($,#730,#172);
#119=LINE($,#733,#173);
#120=LINE($,#735,#174);
#121=LINE($,#737,#175);
#122=LINE($,#739,#176);
#123=LINE($,#741,#177);
#124=LINE($,#742,#178);
#125=LINE($,#745,#179);
#126=LINE($,#746,#180);
#127=LINE($,#750,#181);
#128=LINE($,#751,#182);
#129=LINE($,#752,#183);
#130=LINE($,#755,#184);
#131=LINE($,#756,#185);
#132=LINE($,#758,#186);
#133=LINE($,#761,#187);
#134=LINE($,#762,#188);
#135=LINE($,#764,#189);
#136=LINE($,#771,#190);
#137=LINE($,#774,#191);
#138=LINE($,#777,#192);
#139=LINE($,#779,#193);
#140=LINE($,#780,#194);
#141=LINE($,#786,#195);
#142=LINE($,#789,#196);
#143=LINE($,#791,#197);
#144=LINE($,#792,#198);
#145=LINE($,#798,#199);
#146=LINE($,#801,#200);
#147=LINE($,#803,#201);
#148=LINE($,#804,#202);
#149=LINE($,#810,#203);
#150=LINE($,#812,#204);
#151=LINE($,#813,#205);
#152=VECTOR($,#547,3.4);
#153=VECTOR($,#550,3.4);
#154=VECTOR($,#553,2.1);
#155=VECTOR($,#554,0.299999999999999);
#156=VECTOR($,#555,2.);
#157=VECTOR($,#556,2.4);
#158=VECTOR($,#557,0.299999999999999);
#159=VECTOR($,#558,2.5);
#160=VECTOR($,#561,2.1);
#161=VECTOR($,#562,3.4);
#162=VECTOR($,#565,3.4);
#163=VECTOR($,#566,2.4);
#164=VECTOR($,#567,3.4);
#165=VECTOR($,#570,0.299999999999999);
#166=VECTOR($,#571,3.4);
#167=VECTOR($,#574,2.5);
#168=VECTOR($,#577,0.299999999999999);
#169=VECTOR($,#578,3.4);
#170=VECTOR($,#581,2.);
#171=VECTOR($,#588,3.4);
#172=VECTOR($,#591,3.4);
#173=VECTOR($,#594,2.1);
#174=VECTOR($,#595,0.299999999999998);
#175=VECTOR($,#596,2.);
#176=VECTOR($,#597,2.4);
#177=VECTOR($,#598,0.299999999999999);
#178=VECTOR($,#599,2.5);
#179=VECTOR($,#602,2.1);
#180=VECTOR($,#603,3.4);
#181=VECTOR($,#606,2.4);
#182=VECTOR($,#607,3.4);
#183=VECTOR($,#608,3.4);
#184=VECTOR($,#611,0.299999999999999);
#185=VECTOR($,#612,3.4);
#186=VECTOR($,#615,2.5);
#187=VECTOR($,#618,0.299999999999999);
#188=VECTOR($,#619,3.4);
#189=VECTOR($,#622,2.);
#190=VECTOR($,#629,4.);
#191=VECTOR($,#632,4.);
#192=VECTOR($,#635,7.9);
#193=VECTOR($,#636,7.9);
#194=VECTOR($,#637,4.);
#195=VECTOR($,#644,4.);
#196=VECTOR($,#647,7.3);
#197=VECTOR($,#648,7.3);
#198=VECTOR($,#649,4.);
#199=VECTOR($,#656,4.);
#200=VECTOR($,#659,7.9);
#201=VECTOR($,#660,7.9);
#202=VECTOR($,#661,4.);
#203=VECTOR($,#668,4.);
#204=VECTOR($,#671,7.3);
#205=VECTOR($,#672,7.3);
#206=CIRCLE($,#502,0.2);
#207=CIRCLE($,#503,0.2);
#208=CIRCLE($,#513,0.2);
#209=CIRCLE($,#514,0.2);
#210=CIRCLE($,#524,1.5);
#211=CIRCLE($,#525,1.5);
#212=CIRCLE($,#528,1.5);
#213=CIRCLE($,#529,1.5);
#214=CIRCLE($,#532,1.5);
#215=CIRCLE($,#533,1.5);
#216=CIRCLE($,#536,1.5);
#217=CIRCLE($,#537,1.5);
#218=VERTEX_POINT($,#679);
#219=VERTEX_POINT($,#680);
#220=VERTEX_POINT($,#682);
#221=VERTEX_POINT($,#684);
#222=VERTEX_POINT($,#688);
#223=VERTEX_POINT($,#690);
#224=VERTEX_POINT($,#692);
#225=VERTEX_POINT($,#694);
#226=VERTEX_POINT($,#696);
#227=VERTEX_POINT($,#700);
#228=VERTEX_POINT($,#704);
#229=VERTEX_POINT($,#706);
#230=VERTEX_POINT($,#710);
#231=VERTEX_POINT($,#716);
#232=VERTEX_POINT($,#723);
#233=VERTEX_POINT($,#724);
#234=VERTEX_POINT($,#726);
#235=VERTEX_POINT($,#728);
#236=VERTEX_POINT($,#732);
#237=VERTEX_POINT($,#734);
#238=VERTEX_POINT($,#736);
#239=VERTEX_POINT($,#738);
#240=VERTEX_POINT($,#740);
#241=VERTEX_POINT($,#744);
#242=VERTEX_POINT($,#748);
#243=VERTEX_POINT($,#749);
#244=VERTEX_POINT($,#754);
#245=VERTEX_POINT($,#760);
#246=VERTEX_POINT($,#767);
#247=VERTEX_POINT($,#768);
#248=VERTEX_POINT($,#770);
#249=VERTEX_POINT($,#772);
#250=VERTEX_POINT($,#776);
#251=VERTEX_POINT($,#778);
#252=VERTEX_POINT($,#782);
#253=VERTEX_POINT($,#784);
#254=VERTEX_POINT($,#788);
#255=VERTEX_POINT($,#790);
#256=VERTEX_POINT($,#794);
#257=VERTEX_POINT($,#796);
#258=VERTEX_POINT($,#800);
#259=VERTEX_POINT($,#802);
#260=VERTEX_POINT($,#806);
#261=VERTEX_POINT($,#808);
#262=EDGE_CURVE($,#218,#219,#206,.T.);
#263=EDGE_CURVE($,#219,#220,#98,.T.);
#264=EDGE_CURVE($,#220,#221,#207,.T.);
#265=EDGE_CURVE($,#221,#218,#99,.T.);
#266=EDGE_CURVE($,#220,#222,#100,.T.);
#267=EDGE_CURVE($,#222,#223,#101,.T.);
#268=EDGE_CURVE($,#223,#224,#102,.T.);
#269=EDGE_CURVE($,#224,#225,#103,.T.);
#270=EDGE_CURVE($,#225,#226,#104,.T.);
#271=EDGE_CURVE($,#226,#221,#105,.T.);
#272=EDGE_CURVE($,#227,#219,#106,.T.);
#273=EDGE_CURVE($,#222,#227,#107,.T.);
#274=EDGE_CURVE($,#224,#228,#108,.T.);
#275=EDGE_CURVE($,#229,#228,#109,.T.);
#276=EDGE_CURVE($,#225,#229,#110,.T.);
#277=EDGE_CURVE($,#230,#229,#111,.T.);
#278=EDGE_CURVE($,#226,#230,#112,.T.);
#279=EDGE_CURVE($,#218,#230,#113,.T.);
#280=EDGE_CURVE($,#231,#227,#114,.T.);
#281=EDGE_CURVE($,#223,#231,#115,.T.);
#282=EDGE_CURVE($,#228,#231,#116,.T.);
#283=EDGE_CURVE($,#232,#233,#208,.T.);
#284=EDGE_CURVE($,#233,#234,#117,.T.);
#285=EDGE_CURVE($,#234,#235,#209,.T.);
#286=EDGE_CURVE($,#235,#232,#118,.T.);
#287=EDGE_CURVE($,#236,#232,#119,.T.);
#288=EDGE_CURVE($,#237,#236,#120,.T.);
#289=EDGE_CURVE($,#238,#237,#121,.T.);
#290=EDGE_CURVE($,#239,#238,#122,.T.);
#291=EDGE_CURVE($,#240,#239,#123,.T.);
#292=EDGE_CURVE($,#233,#240,#124,.T.);
#293=EDGE_CURVE($,#235,#241,#125,.T.);
#294=EDGE_CURVE($,#241,#236,#126,.T.);
#295=EDGE_CURVE($,#242,#243,#127,.T.);
#296=EDGE_CURVE($,#243,#239,#128,.T.);
#297=EDGE_CURVE($,#242,#238,#129,.T.);
#298=EDGE_CURVE($,#243,#244,#130,.T.);
#299=EDGE_CURVE($,#244,#240,#131,.T.);
#300=EDGE_CURVE($,#244,#234,#132,.T.);
#301=EDGE_CURVE($,#241,#245,#133,.T.);
#302=EDGE_CURVE($,#245,#237,#134,.T.);
#303=EDGE_CURVE($,#245,#242,#135,.T.);
#304=EDGE_CURVE($,#246,#247,#210,.T.);
#305=EDGE_CURVE($,#246,#248,#136,.T.);
#306=EDGE_CURVE($,#249,#248,#211,.T.);
#307=EDGE_CURVE($,#247,#249,#137,.T.);
#308=EDGE_CURVE($,#247,#250,#138,.T.);
#309=EDGE_CURVE($,#251,#249,#139,.T.);
#310=EDGE_CURVE($,#250,#251,#140,.T.);
#311=EDGE_CURVE($,#250,#252,#212,.T.);
#312=EDGE_CURVE($,#253,#251,#213,.T.);
#313=EDGE_CURVE($,#252,#253,#141,.T.);
#314=EDGE_CURVE($,#252,#254,#142,.T.);
#315=EDGE_CURVE($,#255,#253,#143,.T.);
#316=EDGE_CURVE($,#254,#255,#144,.T.);
#317=EDGE_CURVE($,#254,#256,#214,.T.);
#318=EDGE_CURVE($,#257,#255,#215,.T.);
#319=EDGE_CURVE($,#256,#257,#145,.T.);
#320=EDGE_CURVE($,#256,#258,#146,.T.);
#321=EDGE_CURVE($,#259,#257,#147,.T.);
#322=EDGE_CURVE($,#258,#259,#148,.T.);
#323=EDGE_CURVE($,#258,#260,#216,.T.);
#324=EDGE_CURVE($,#261,#259,#217,.T.);
#325=EDGE_CURVE($,#260,#261,#149,.T.);
#326=EDGE_CURVE($,#260,#246,#150,.T.);
#327=EDGE_CURVE($,#248,#261,#151,.T.);
#328=ORIENTED_EDGE($,*,*,#262,.T.);
#329=ORIENTED_EDGE($,*,*,#263,.T.);
#330=ORIENTED_EDGE($,*,*,#264,.T.);
#331=ORIENTED_EDGE($,*,*,#265,.T.);
#332=ORIENTED_EDGE($,*,*,#264,.F.);
#333=ORIENTED_EDGE($,*,*,#266,.T.);
#334=ORIENTED_EDGE($,*,*,#267,.T.);
#335=ORIENTED_EDGE($,*,*,#268,.T.);
#336=ORIENTED_EDGE($,*,*,#269,.T.);
#337=ORIENTED_EDGE($,*,*,#270,.T.);
#338=ORIENTED_EDGE($,*,*,#271,.T.);
#339=ORIENTED_EDGE($,*,*,#263,.F.);
#340=ORIENTED_EDGE($,*,*,#272,.F.);
#341=ORIENTED_EDGE($,*,*,#273,.F.);
#342=ORIENTED_EDGE($,*,*,#266,.F.);
#343=ORIENTED_EDGE($,*,*,#269,.F.);
#344=ORIENTED_EDGE($,*,*,#274,.T.);
#345=ORIENTED_EDGE($,*,*,#275,.F.);
#346=ORIENTED_EDGE($,*,*,#276,.F.);
#347=ORIENTED_EDGE($,*,*,#270,.F.);
#348=ORIENTED_EDGE($,*,*,#276,.T.);
#349=ORIENTED_EDGE($,*,*,#277,.F.);
#350=ORIENTED_EDGE($,*,*,#278,.F.);
#351=ORIENTED_EDGE($,*,*,#265,.F.);
#352=ORIENTED_EDGE($,*,*,#271,.F.);
#353=ORIENTED_EDGE($,*,*,#278,.T.);
#354=ORIENTED_EDGE($,*,*,#279,.F.);
#355=ORIENTED_EDGE($,*,*,#267,.F.);
#356=ORIENTED_EDGE($,*,*,#273,.T.);
#357=ORIENTED_EDGE($,*,*,#280,.F.);
#358=ORIENTED_EDGE($,*,*,#281,.F.);
#359=ORIENTED_EDGE($,*,*,#268,.F.);
#360=ORIENTED_EDGE($,*,*,#281,.T.);
#361=ORIENTED_EDGE($,*,*,#282,.F.);
#362=ORIENTED_EDGE($,*,*,#274,.F.);
#363=ORIENTED_EDGE($,*,*,#262,.F.);
#364=ORIENTED_EDGE($,*,*,#279,.T.);
#365=ORIENTED_EDGE($,*,*,#277,.T.);
#366=ORIENTED_EDGE($,*,*,#275,.T.);
#367=ORIENTED_EDGE($,*,*,#282,.T.);
#368=ORIENTED_EDGE($,*,*,#280,.T.);
#369=ORIENTED_EDGE($,*,*,#272,.T.);
#370=ORIENTED_EDGE($,*,*,#283,.T.);
#371=ORIENTED_EDGE($,*,*,#284,.T.);
#372=ORIENTED_EDGE($,*,*,#285,.T.);
#373=ORIENTED_EDGE($,*,*,#286,.T.);
#374=ORIENTED_EDGE($,*,*,#283,.F.);
#375=ORIENTED_EDGE($,*,*,#287,.F.);
#376=ORIENTED_EDGE($,*,*,#288,.F.);
#377=ORIENTED_EDGE($,*,*,#289,.F.);
#378=ORIENTED_EDGE($,*,*,#290,.F.);
#379=ORIENTED_EDGE($,*,*,#291,.F.);
#380=ORIENTED_EDGE($,*,*,#292,.F.);
#381=ORIENTED_EDGE($,*,*,#286,.F.);
#382=ORIENTED_EDGE($,*,*,#293,.T.);
#383=ORIENTED_EDGE($,*,*,#294,.T.);
#384=ORIENTED_EDGE($,*,*,#287,.T.);
#385=ORIENTED_EDGE($,*,*,#295,.T.);
#386=ORIENTED_EDGE($,*,*,#296,.T.);
#387=ORIENTED_EDGE($,*,*,#290,.T.);
#388=ORIENTED_EDGE($,*,*,#297,.F.);
#389=ORIENTED_EDGE($,*,*,#298,.T.);
#390=ORIENTED_EDGE($,*,*,#299,.T.);
#391=ORIENTED_EDGE($,*,*,#291,.T.);
#392=ORIENTED_EDGE($,*,*,#296,.F.);
#393=ORIENTED_EDGE($,*,*,#284,.F.);
#394=ORIENTED_EDGE($,*,*,#292,.T.);
#395=ORIENTED_EDGE($,*,*,#299,.F.);
#396=ORIENTED_EDGE($,*,*,#300,.T.);
#397=ORIENTED_EDGE($,*,*,#301,.T.);
#398=ORIENTED_EDGE($,*,*,#302,.T.);
#399=ORIENTED_EDGE($,*,*,#288,.T.);
#400=ORIENTED_EDGE($,*,*,#294,.F.);
#401=ORIENTED_EDGE($,*,*,#303,.T.);
#402=ORIENTED_EDGE($,*,*,#297,.T.);
#403=ORIENTED_EDGE($,*,*,#289,.T.);
#404=ORIENTED_EDGE($,*,*,#302,.F.);
#405=ORIENTED_EDGE($,*,*,#285,.F.);
#406=ORIENTED_EDGE($,*,*,#300,.F.);
#407=ORIENTED_EDGE($,*,*,#298,.F.);
#408=ORIENTED_EDGE($,*,*,#295,.F.);
#409=ORIENTED_EDGE($,*,*,#303,.F.);
#410=ORIENTED_EDGE($,*,*,#301,.F.);
#411=ORIENTED_EDGE($,*,*,#293,.F.);
#412=ORIENTED_EDGE($,*,*,#304,.F.);
#413=ORIENTED_EDGE($,*,*,#305,.T.);
#414=ORIENTED_EDGE($,*,*,#306,.F.);
#415=ORIENTED_EDGE($,*,*,#307,.F.);
#416=ORIENTED_EDGE($,*,*,#308,.F.);
#417=ORIENTED_EDGE($,*,*,#307,.T.);
#418=ORIENTED_EDGE($,*,*,#309,.F.);
#419=ORIENTED_EDGE($,*,*,#310,.F.);
#420=ORIENTED_EDGE($,*,*,#311,.F.);
#421=ORIENTED_EDGE($,*,*,#310,.T.);
#422=ORIENTED_EDGE($,*,*,#312,.F.);
#423=ORIENTED_EDGE($,*,*,#313,.F.);
#424=ORIENTED_EDGE($,*,*,#314,.F.);
#425=ORIENTED_EDGE($,*,*,#313,.T.);
#426=ORIENTED_EDGE($,*,*,#315,.F.);
#427=ORIENTED_EDGE($,*,*,#316,.F.);
#428=ORIENTED_EDGE($,*,*,#317,.F.);
#429=ORIENTED_EDGE($,*,*,#316,.T.);
#430=ORIENTED_EDGE($,*,*,#318,.F.);
#431=ORIENTED_EDGE($,*,*,#319,.F.);
#432=ORIENTED_EDGE($,*,*,#320,.F.);
#433=ORIENTED_EDGE($,*,*,#319,.T.);
#434=ORIENTED_EDGE($,*,*,#321,.F.);
#435=ORIENTED_EDGE($,*,*,#322,.F.);
#436=ORIENTED_EDGE($,*,*,#323,.F.);
#437=ORIENTED_EDGE($,*,*,#322,.T.);
#438=ORIENTED_EDGE($,*,*,#324,.F.);
#439=ORIENTED_EDGE($,*,*,#325,.F.);
#440=ORIENTED_EDGE($,*,*,#326,.F.);
#441=ORIENTED_EDGE($,*,*,#325,.T.);
#442=ORIENTED_EDGE($,*,*,#327,.F.);
#443=ORIENTED_EDGE($,*,*,#305,.F.);
#444=ORIENTED_EDGE($,*,*,#326,.T.);
#445=ORIENTED_EDGE($,*,*,#304,.T.);
#446=ORIENTED_EDGE($,*,*,#308,.T.);
#447=ORIENTED_EDGE($,*,*,#311,.T.);
#448=ORIENTED_EDGE($,*,*,#314,.T.);
#449=ORIENTED_EDGE($,*,*,#317,.T.);
#450=ORIENTED_EDGE($,*,*,#320,.T.);
#451=ORIENTED_EDGE($,*,*,#323,.T.);
#452=ORIENTED_EDGE($,*,*,#327,.T.);
#453=ORIENTED_EDGE($,*,*,#324,.T.);
#454=ORIENTED_EDGE($,*,*,#321,.T.);
#455=ORIENTED_EDGE($,*,*,#318,.T.);
#456=ORIENTED_EDGE($,*,*,#315,.T.);
#457=ORIENTED_EDGE($,*,*,#312,.T.);
#458=ORIENTED_EDGE($,*,*,#309,.T.);
#459=ORIENTED_EDGE($,*,*,#306,.T.);
#460=CYLINDRICAL_SURFACE($,#501,0.2);
#461=CYLINDRICAL_SURFACE($,#512,0.2);
#462=CYLINDRICAL_SURFACE($,#523,1.5);
#463=CYLINDRICAL_SURFACE($,#527,1.5);
#464=CYLINDRICAL_SURFACE($,#531,1.5);
#465=CYLINDRICAL_SURFACE($,#535,1.5);
#466=ADVANCED_FACE($,(#42),#460,.T.);
#467=ADVANCED_FACE($,(#43),#20,.T.);
#468=ADVANCED_FACE($,(#44),#21,.T.);
#469=ADVANCED_FACE($,(#45),#22,.T.);
#470=ADVANCED_FACE($,(#46),#23,.T.);
#471=ADVANCED_FACE($,(#47),#24,.T.);
#472=ADVANCED_FACE($,(#48),#25,.T.);
#473=ADVANCED_FACE($,(#49),#26,.T.);
#474=ADVANCED_FACE($,(#50),#27,.T.);
#475=ADVANCED_FACE($,(#51),#461,.T.);
#476=ADVANCED_FACE($,(#52),#28,.F.);
#477=ADVANCED_FACE($,(#53),#29,.F.);
#478=ADVANCED_FACE($,(#54),#30,.F.);
#479=ADVANCED_FACE($,(#55),#31,.F.);
#480=ADVANCED_FACE($,(#56),#32,.F.);
#481=ADVANCED_FACE($,(#57),#33,.F.);
#482=ADVANCED_FACE($,(#58),#34,.F.);
#483=ADVANCED_FACE($,(#59),#35,.F.);
#484=ADVANCED_FACE($,(#60),#462,.T.);
#485=ADVANCED_FACE($,(#61),#36,.T.);
#486=ADVANCED_FACE($,(#62),#463,.T.);
#487=ADVANCED_FACE($,(#63),#37,.T.);
#488=ADVANCED_FACE($,(#64),#464,.T.);
#489=ADVANCED_FACE($,(#65),#38,.T.);
#490=ADVANCED_FACE($,(#66),#465,.T.);
#491=ADVANCED_FACE($,(#67),#39,.T.);
#492=ADVANCED_FACE($,(#68),#40,.F.);
#493=ADVANCED_FACE($,(#69),#41,.T.);
#494=CLOSED_SHELL($,(#466,#467,#468,#469,#470,#471,#472,#473,#474));
#495=CLOSED_SHELL($,(#475,#476,#477,#478,#479,#480,#481,#482,#483));
#496=CLOSED_SHELL($,(#484,#485,#486,#487,#488,#489,#490,#491,#492,#493));
#497=MANIFOLD_SOLID_BREP('FB8',#494);
#498=MANIFOLD_SOLID_BREP('FC0',#495);
#499=MANIFOLD_SOLID_BREP('1524',#496);
#500=AXIS2_PLACEMENT_3D('placement',#677,#541,#542);
#501=AXIS2_PLACEMENT_3D($,#678,#543,#544);
#502=AXIS2_PLACEMENT_3D($,#681,#545,#546);
#503=AXIS2_PLACEMENT_3D($,#685,#548,#549);
#504=AXIS2_PLACEMENT_3D($,#687,#551,#552);
#505=AXIS2_PLACEMENT_3D($,#699,#559,#560);
#506=AXIS2_PLACEMENT_3D($,#703,#563,#564);
#507=AXIS2_PLACEMENT_3D($,#709,#568,#569);
#508=AXIS2_PLACEMENT_3D($,#713,#572,#573);
#509=AXIS2_PLACEMENT_3D($,#715,#575,#576);
#510=AXIS2_PLACEMENT_3D($,#719,#579,#580);
#511=AXIS2_PLACEMENT_3D($,#721,#582,#583);
#512=AXIS2_PLACEMENT_3D($,#722,#584,#585);
#513=AXIS2_PLACEMENT_3D($,#725,#586,#587);
#514=AXIS2_PLACEMENT_3D($,#729,#589,#590);
#515=AXIS2_PLACEMENT_3D($,#731,#592,#593);
#516=AXIS2_PLACEMENT_3D($,#743,#600,#601);
#517=AXIS2_PLACEMENT_3D($,#747,#604,#605);
#518=AXIS2_PLACEMENT_3D($,#753,#609,#610);
#519=AXIS2_PLACEMENT_3D($,#757,#613,#614);
#520=AXIS2_PLACEMENT_3D($,#759,#616,#617);
#521=AXIS2_PLACEMENT_3D($,#763,#620,#621);
#522=AXIS2_PLACEMENT_3D($,#765,#623,#624);
#523=AXIS2_PLACEMENT_3D($,#766,#625,#626);
#524=AXIS2_PLACEMENT_3D($,#769,#627,#628);
#525=AXIS2_PLACEMENT_3D($,#773,#630,#631);
#526=AXIS2_PLACEMENT_3D($,#775,#633,#634);
#527=AXIS2_PLACEMENT_3D($,#781,#638,#639);
#528=AXIS2_PLACEMENT_3D($,#783,#640,#641);
#529=AXIS2_PLACEMENT_3D($,#785,#642,#643);
#530=AXIS2_PLACEMENT_3D($,#787,#645,#646);
#531=AXIS2_PLACEMENT_3D($,#793,#650,#651);
#532=AXIS2_PLACEMENT_3D($,#795,#652,#653);
#533=AXIS2_PLACEMENT_3D($,#797,#654,#655);
#534=AXIS2_PLACEMENT_3D($,#799,#657,#658);
#535=AXIS2_PLACEMENT_3D($,#805,#662,#663);
#536=AXIS2_PLACEMENT_3D($,#807,#664,#665);
#537=AXIS2_PLACEMENT_3D($,#809,#666,#667);
#538=AXIS2_PLACEMENT_3D($,#811,#669,#670);
#539=AXIS2_PLACEMENT_3D($,#814,#673,#674);
#540=AXIS2_PLACEMENT_3D($,#815,#675,#676);
#541=DIRECTION('axis',(0.,0.,1.));
#542=DIRECTION('refdir',(1.,0.,0.));
#543=DIRECTION('center_axis',(2.69144975666704E-16,-1.,6.72862439166761E-17));
#544=DIRECTION('ref_axis',(-0.707106781186548,0.,-0.707106781186547));
#545=DIRECTION('center_axis',(-2.69144975666704E-16,1.,-6.72862439166761E-17));
#546=DIRECTION('ref_axis',(-0.707106781186548,0.,-0.707106781186547));
#547=DIRECTION($,(-2.69144975666704E-16,1.,-6.72862439166761E-17));
#548=DIRECTION('center_axis',(0.,-1.,0.));
#549=DIRECTION('ref_axis',(-0.707106781186548,0.,-0.707106781186547));
#550=DIRECTION($,(2.69144975666704E-16,-1.,6.72862439166761E-17));
#551=DIRECTION('center_axis',(0.,1.,0.));
#552=DIRECTION('ref_axis',(0.,0.,1.));
#553=DIRECTION($,(0.,0.,1.));
#554=DIRECTION($,(1.,0.,0.));
#555=DIRECTION($,(0.,0.,-1.));
#556=DIRECTION($,(1.,0.,0.));
#557=DIRECTION($,(1.11022302462516E-15,0.,-1.));
#558=DIRECTION($,(-1.,0.,0.));
#559=DIRECTION('center_axis',(-1.,-2.69144975666704E-16,0.));
#560=DIRECTION('ref_axis',(0.,0.,-1.));
#561=DIRECTION($,(0.,0.,-1.));
#562=DIRECTION($,(2.69144975666704E-16,-1.,6.72862439166761E-17));
#563=DIRECTION('center_axis',(0.,6.72862439166761E-17,1.));
#564=DIRECTION('ref_axis',(-1.,0.,0.));
#565=DIRECTION($,(2.69144975666704E-16,-1.,6.72862439166761E-17));
#566=DIRECTION($,(-1.,0.,0.));
#567=DIRECTION($,(2.69144975666704E-16,-1.,6.72862439166761E-17));
#568=DIRECTION('center_axis',(1.,2.69144975666705E-16,1.11022302462516E-15));
#569=DIRECTION('ref_axis',(-1.33226762955019E-15,0.,1.));
#570=DIRECTION($,(-1.11022302462516E-15,0.,1.));
#571=DIRECTION($,(2.69144975666704E-16,-1.,6.72862439166761E-17));
#572=DIRECTION('center_axis',(0.,-6.72862439166761E-17,-1.));
#573=DIRECTION('ref_axis',(1.,0.,0.));
#574=DIRECTION($,(1.,0.,0.));
#575=DIRECTION('center_axis',(0.,6.72862439166761E-17,1.));
#576=DIRECTION('ref_axis',(-1.,0.,0.));
#577=DIRECTION($,(-1.,0.,0.));
#578=DIRECTION($,(2.69144975666704E-16,-1.,6.72862439166761E-17));
#579=DIRECTION('center_axis',(1.,2.69144975666704E-16,0.));
#580=DIRECTION('ref_axis',(0.,0.,1.));
#581=DIRECTION($,(0.,0.,1.));
#582=DIRECTION('center_axis',(2.69144975666704E-16,-1.,6.72862439166761E-17));
#583=DIRECTION('ref_axis',(0.,0.,-1.));
#584=DIRECTION('center_axis',(-2.69144975666704E-16,-1.,6.72862439166761E-17));
#585=DIRECTION('ref_axis',(0.70710678118655,0.,-0.707106781186546));
#586=DIRECTION('center_axis',(2.69144975666704E-16,1.,-6.72862439166761E-17));
#587=DIRECTION('ref_axis',(0.70710678118655,0.,-0.707106781186546));
#588=DIRECTION($,(2.69144975666704E-16,1.,-6.72862439166761E-17));
#589=DIRECTION('center_axis',(0.,-1.,0.));
#590=DIRECTION('ref_axis',(0.70710678118655,0.,-0.707106781186546));
#591=DIRECTION($,(-2.69144975666704E-16,-1.,6.72862439166761E-17));
#592=DIRECTION('center_axis',(2.69144975666704E-16,1.,-6.72862439166761E-17));
#593=DIRECTION('ref_axis',(0.,0.,-1.));
#594=DIRECTION($,(0.,0.,-1.));
#595=DIRECTION($,(1.,0.,0.));
#596=DIRECTION($,(0.,0.,1.));
#597=DIRECTION($,(1.,0.,0.));
#598=DIRECTION($,(1.11022302462516E-15,0.,1.));
#599=DIRECTION($,(-1.,0.,0.));
#600=DIRECTION('center_axis',(-1.,2.69144975666704E-16,0.));
#601=DIRECTION('ref_axis',(0.,0.,-1.));
#602=DIRECTION($,(0.,0.,1.));
#603=DIRECTION($,(-2.69144975666704E-16,-1.,6.72862439166761E-17));
#604=DIRECTION('center_axis',(0.,-6.72862439166761E-17,-1.));
#605=DIRECTION('ref_axis',(1.,0.,0.));
#606=DIRECTION($,(-1.,0.,0.));
#607=DIRECTION($,(-2.69144975666704E-16,-1.,6.72862439166761E-17));
#608=DIRECTION($,(-2.69144975666704E-16,-1.,6.72862439166761E-17));
#609=DIRECTION('center_axis',(1.,-2.69144975666705E-16,-1.11022302462516E-15));
#610=DIRECTION('ref_axis',(1.33226762955019E-15,0.,1.));
#611=DIRECTION($,(-1.11022302462516E-15,0.,-1.));
#612=DIRECTION($,(-2.69144975666704E-16,-1.,6.72862439166761E-17));
#613=DIRECTION('center_axis',(0.,6.72862439166761E-17,1.));
#614=DIRECTION('ref_axis',(-1.,0.,0.));
#615=DIRECTION($,(1.,0.,0.));
#616=DIRECTION('center_axis',(0.,-6.72862439166761E-17,-1.));
#617=DIRECTION('ref_axis',(1.,0.,0.));
#618=DIRECTION($,(-1.,0.,0.));
#619=DIRECTION($,(-2.69144975666704E-16,-1.,6.72862439166761E-17));
#620=DIRECTION('center_axis',(1.,-2.69144975666704E-16,0.));
#621=DIRECTION('ref_axis',(0.,0.,1.));
#622=DIRECTION($,(0.,0.,-1.));
#623=DIRECTION('center_axis',(0.,-1.,0.));
#624=DIRECTION('ref_axis',(0.,0.,1.));
#625=DIRECTION('center_axis',(0.,0.,1.));
#626=DIRECTION('ref_axis',(-1.,-1.1842378929335E-15,0.));
#627=DIRECTION('center_axis',(0.,0.,-1.));
#628=DIRECTION('ref_axis',(-1.,-1.1842378929335E-15,0.));
#629=DIRECTION($,(0.,0.,1.));
#630=DIRECTION('center_axis',(0.,0.,1.));
#631=DIRECTION('ref_axis',(-1.,-1.1842378929335E-15,0.));
#632=DIRECTION($,(0.,0.,1.));
#633=DIRECTION('center_axis',(0.,1.,0.));
#634=DIRECTION('ref_axis',(-1.,0.,0.));
#635=DIRECTION($,(1.,0.,0.));
#636=DIRECTION($,(-1.,0.,0.));
#637=DIRECTION($,(0.,0.,1.));
#638=DIRECTION('center_axis',(0.,0.,1.));
#639=DIRECTION('ref_axis',(0.,1.,0.));
#640=DIRECTION('center_axis',(0.,0.,-1.));
#641=DIRECTION('ref_axis',(0.,1.,0.));
#642=DIRECTION('center_axis',(0.,0.,1.));
#643=DIRECTION('ref_axis',(0.,1.,0.));
#644=DIRECTION($,(0.,0.,1.));
#645=DIRECTION('center_axis',(1.,0.,0.));
#646=DIRECTION('ref_axis',(0.,1.,0.));
#647=DIRECTION($,(0.,-1.,0.));
#648=DIRECTION($,(0.,1.,0.));
#649=DIRECTION($,(0.,0.,1.));
#650=DIRECTION('center_axis',(0.,0.,1.));
#651=DIRECTION('ref_axis',(1.,-5.9211894646675E-16,0.));
#652=DIRECTION('center_axis',(0.,0.,-1.));
#653=DIRECTION('ref_axis',(1.,-5.9211894646675E-16,0.));
#654=DIRECTION('center_axis',(0.,0.,1.));
#655=DIRECTION('ref_axis',(1.,-5.9211894646675E-16,0.));
#656=DIRECTION($,(0.,0.,1.));
#657=DIRECTION('center_axis',(2.24855296126614E-16,-1.,0.));
#658=DIRECTION('ref_axis',(1.,0.,0.));
#659=DIRECTION($,(-1.,-2.24855296126614E-16,0.));
#660=DIRECTION($,(1.,2.24855296126614E-16,0.));
#661=DIRECTION($,(0.,0.,1.));
#662=DIRECTION('center_axis',(0.,0.,1.));
#663=DIRECTION('ref_axis',(2.368475785867E-15,-1.,0.));
#664=DIRECTION('center_axis',(0.,0.,-1.));
#665=DIRECTION('ref_axis',(2.368475785867E-15,-1.,0.));
#666=DIRECTION('center_axis',(0.,0.,1.));
#667=DIRECTION('ref_axis',(2.368475785867E-15,-1.,0.));
#668=DIRECTION($,(0.,0.,1.));
#669=DIRECTION('center_axis',(-1.,0.,0.));
#670=DIRECTION('ref_axis',(0.,-1.,0.));
#671=DIRECTION($,(0.,1.,0.));
#672=DIRECTION($,(0.,-1.,0.));
#673=DIRECTION('center_axis',(0.,0.,1.));
#674=DIRECTION('ref_axis',(1.,0.,0.));
#675=DIRECTION('center_axis',(0.,0.,1.));
#676=DIRECTION('ref_axis',(1.,0.,0.));
#677=CARTESIAN_POINT('',(0.,0.,0.));
#678=CARTESIAN_POINT('Origin',(-5.55,1.05,0.200000000000001));
#679=CARTESIAN_POINT('',(-5.55,-1.7,8.60422844084496E-16));
#680=CARTESIAN_POINT('',(-5.75,-1.7,0.200000000000001));
#681=CARTESIAN_POINT('Origin',(-5.55,-1.7,0.2));
#682=CARTESIAN_POINT('',(-5.75,1.7,0.200000000000001));
#683=CARTESIAN_POINT($,(-5.75,1.05,0.200000000000001));
#684=CARTESIAN_POINT('',(-5.55,1.7,7.21644966006352E-16));
#685=CARTESIAN_POINT('Origin',(-5.55,1.7,0.200000000000001));
#686=CARTESIAN_POINT($,(-5.55,1.05,6.66133814775094E-16));
#687=CARTESIAN_POINT('Origin',(-5.185,1.7,0.440000000000001));
#688=CARTESIAN_POINT('',(-5.75,1.7,2.3));
#689=CARTESIAN_POINT($,(-5.75,1.7,7.21644966006352E-16));
#690=CARTESIAN_POINT('',(-5.45,1.7,2.3));
#691=CARTESIAN_POINT($,(-5.75,1.7,2.3));
#692=CARTESIAN_POINT('',(-5.45,1.7,0.3));
#693=CARTESIAN_POINT($,(-5.45,1.7,1.5));
#694=CARTESIAN_POINT('',(-3.05,1.7,0.299999999999999));
#695=CARTESIAN_POINT($,(-5.55,1.7,0.3));
#696=CARTESIAN_POINT('',(-3.05,1.7,0.));
#697=CARTESIAN_POINT($,(-3.05,1.7,0.199999999999999));
#698=CARTESIAN_POINT($,(-4.,1.7,7.21644966006352E-16));
#699=CARTESIAN_POINT('Origin',(-5.75,1.05,1.5));
#700=CARTESIAN_POINT('',(-5.75,-1.7,2.3));
#701=CARTESIAN_POINT($,(-5.75,-1.7,-5.55111512312578E-17));
#702=CARTESIAN_POINT($,(-5.75,1.05,2.3));
#703=CARTESIAN_POINT('Origin',(-4.,1.05,0.3));
#704=CARTESIAN_POINT('',(-5.45,-1.7,0.3));
#705=CARTESIAN_POINT($,(-5.45,1.05,0.3));
#706=CARTESIAN_POINT('',(-3.05,-1.7,0.299999999999999));
#707=CARTESIAN_POINT($,(-6.24,-1.7,0.299999999999999));
#708=CARTESIAN_POINT($,(-3.05,1.05,0.299999999999999));
#709=CARTESIAN_POINT('Origin',(-3.05,1.05,-5.55111512312578E-17));
#710=CARTESIAN_POINT('',(-3.05,-1.7,-7.7715611723761E-16));
#711=CARTESIAN_POINT($,(-3.05,-1.7,0.199999999999999));
#712=CARTESIAN_POINT($,(-3.05,1.05,-5.55111512312578E-17));
#713=CARTESIAN_POINT('Origin',(-5.75,1.05,6.66133814775094E-16));
#714=CARTESIAN_POINT($,(-4.69,-1.7,-5.55111512312578E-17));
#715=CARTESIAN_POINT('Origin',(-5.55,1.05,2.3));
#716=CARTESIAN_POINT('',(-5.45,-1.7,2.3));
#717=CARTESIAN_POINT($,(-6.44,-1.7,2.3));
#718=CARTESIAN_POINT($,(-5.45,1.05,2.3));
#719=CARTESIAN_POINT('Origin',(-5.45,1.05,0.2));
#720=CARTESIAN_POINT($,(-5.45,-1.7,1.5));
#721=CARTESIAN_POINT('Origin',(-5.875,-1.7,0.44));
#722=CARTESIAN_POINT('Origin',(5.55,2.25,0.200000000000001));
#723=CARTESIAN_POINT('',(5.75,-1.7,0.200000000000001));
#724=CARTESIAN_POINT('',(5.55,-1.7,8.60422844084496E-16));
#725=CARTESIAN_POINT('Origin',(5.55,-1.7,0.2));
#726=CARTESIAN_POINT('',(5.55,1.7,0.));
#727=CARTESIAN_POINT($,(5.55,2.25,6.66133814775094E-16));
#728=CARTESIAN_POINT('',(5.75,1.7,0.2));
#729=CARTESIAN_POINT('Origin',(5.55,1.7,0.2));
#730=CARTESIAN_POINT($,(5.75,2.25,0.200000000000001));
#731=CARTESIAN_POINT('Origin',(5.875,-1.7,0.44));
#732=CARTESIAN_POINT('',(5.75,-1.7,2.3));
#733=CARTESIAN_POINT($,(5.75,-1.7,0.));
#734=CARTESIAN_POINT('',(5.45,-1.7,2.3));
#735=CARTESIAN_POINT($,(6.44,-1.7,2.3));
#736=CARTESIAN_POINT('',(5.45,-1.7,0.299999999999999));
#737=CARTESIAN_POINT($,(5.45,-1.7,1.5));
#738=CARTESIAN_POINT('',(3.05,-1.7,0.299999999999999));
#739=CARTESIAN_POINT($,(6.24,-1.7,0.299999999999999));
#740=CARTESIAN_POINT('',(3.05,-1.7,-1.66533453693773E-16));
#741=CARTESIAN_POINT($,(3.05,-1.7,0.199999999999999));
#742=CARTESIAN_POINT($,(4.69,-1.7,0.));
#743=CARTESIAN_POINT('Origin',(5.75,2.25,1.5));
#744=CARTESIAN_POINT('',(5.75,1.7,2.3));
#745=CARTESIAN_POINT($,(5.75,1.7,0.));
#746=CARTESIAN_POINT($,(5.75,2.25,2.3));
#747=CARTESIAN_POINT('Origin',(4.,2.25,0.3));
#748=CARTESIAN_POINT('',(5.45,1.7,0.299999999999999));
#749=CARTESIAN_POINT('',(3.05,1.7,0.299999999999999));
#750=CARTESIAN_POINT($,(5.55,1.7,0.299999999999999));
#751=CARTESIAN_POINT($,(3.05,2.25,0.3));
#752=CARTESIAN_POINT($,(5.45,2.25,0.3));
#753=CARTESIAN_POINT('Origin',(3.05,2.25,4.9960036108132E-16));
#754=CARTESIAN_POINT('',(3.05,1.7,-1.66533453693773E-16));
#755=CARTESIAN_POINT($,(3.05,1.7,0.199999999999999));
#756=CARTESIAN_POINT($,(3.05,2.25,4.9960036108132E-16));
#757=CARTESIAN_POINT('Origin',(5.75,2.25,6.66133814775094E-16));
#758=CARTESIAN_POINT($,(4.,1.7,0.));
#759=CARTESIAN_POINT('Origin',(5.55,2.25,2.3));
#760=CARTESIAN_POINT('',(5.45,1.7,2.3));
#761=CARTESIAN_POINT($,(5.75,1.7,2.3));
#762=CARTESIAN_POINT($,(5.45,2.25,2.3));
#763=CARTESIAN_POINT('Origin',(5.45,2.25,0.2));
#764=CARTESIAN_POINT($,(5.45,1.7,1.5));
#765=CARTESIAN_POINT('Origin',(5.185,1.7,0.44));
#766=CARTESIAN_POINT('Origin',(-3.95,3.65,0.3));
#767=CARTESIAN_POINT('',(-5.45,3.65,0.3));
#768=CARTESIAN_POINT('',(-3.95,5.15,0.3));
#769=CARTESIAN_POINT('Origin',(-3.95,3.65,0.3));
#770=CARTESIAN_POINT('',(-5.45,3.65,4.3));
#771=CARTESIAN_POINT($,(-5.45,3.65,0.3));
#772=CARTESIAN_POINT('',(-3.95,5.15,4.3));
#773=CARTESIAN_POINT('Origin',(-3.95,3.65,4.3));
#774=CARTESIAN_POINT($,(-3.95,5.15,0.3));
#775=CARTESIAN_POINT('Origin',(3.95,5.15,0.3));
#776=CARTESIAN_POINT('',(3.95,5.15,0.3));
#777=CARTESIAN_POINT($,(-3.95,5.15,0.3));
#778=CARTESIAN_POINT('',(3.95,5.15,4.3));
#779=CARTESIAN_POINT($,(-3.95,5.15,4.3));
#780=CARTESIAN_POINT($,(3.95,5.15,0.3));
#781=CARTESIAN_POINT('Origin',(3.95,3.65,0.3));
#782=CARTESIAN_POINT('',(5.45,3.65,0.3));
#783=CARTESIAN_POINT('Origin',(3.95,3.65,0.3));
#784=CARTESIAN_POINT('',(5.45,3.65,4.3));
#785=CARTESIAN_POINT('Origin',(3.95,3.65,4.3));
#786=CARTESIAN_POINT($,(5.45,3.65,0.3));
#787=CARTESIAN_POINT('Origin',(5.45,-3.65,0.3));
#788=CARTESIAN_POINT('',(5.45,-3.65,0.3));
#789=CARTESIAN_POINT($,(5.45,3.65,0.3));
#790=CARTESIAN_POINT('',(5.45,-3.65,4.3));
#791=CARTESIAN_POINT($,(5.45,3.65,4.3));
#792=CARTESIAN_POINT($,(5.45,-3.65,0.3));
#793=CARTESIAN_POINT('Origin',(3.95,-3.65,0.3));
#794=CARTESIAN_POINT('',(3.95,-5.15,0.3));
#795=CARTESIAN_POINT('Origin',(3.95,-3.65,0.3));
#796=CARTESIAN_POINT('',(3.95,-5.15,4.3));
#797=CARTESIAN_POINT('Origin',(3.95,-3.65,4.3));
#798=CARTESIAN_POINT($,(3.95,-5.15,0.3));
#799=CARTESIAN_POINT('Origin',(-3.95,-5.15,0.3));
#800=CARTESIAN_POINT('',(-3.95,-5.15,0.3));
#801=CARTESIAN_POINT($,(3.95,-5.15,0.3));
#802=CARTESIAN_POINT('',(-3.95,-5.15,4.3));
#803=CARTESIAN_POINT($,(3.95,-5.15,4.3));
#804=CARTESIAN_POINT($,(-3.95,-5.15,0.3));
#805=CARTESIAN_POINT('Origin',(-3.95,-3.65,0.3));
#806=CARTESIAN_POINT('',(-5.45,-3.65,0.3));
#807=CARTESIAN_POINT('Origin',(-3.95,-3.65,0.3));
#808=CARTESIAN_POINT('',(-5.45,-3.65,4.3));
#809=CARTESIAN_POINT('Origin',(-3.95,-3.65,4.3));
#810=CARTESIAN_POINT($,(-5.45,-3.65,0.3));
#811=CARTESIAN_POINT('Origin',(-5.45,3.65,0.3));
#812=CARTESIAN_POINT($,(-5.45,-3.65,0.3));
#813=CARTESIAN_POINT($,(-5.45,-3.65,4.3));
#814=CARTESIAN_POINT('Origin',(-3.5527136788005E-15,-2.83710686882352E-16,
0.3));
#815=CARTESIAN_POINT('Origin',(-3.5527136788005E-15,-2.83710686882352E-16,
4.3));
#816=UNCERTAINTY_MEASURE_WITH_UNIT(LENGTH_MEASURE(0.01),#820,
'DISTANCE_ACCURACY_VALUE',
'Maximum model space distance between geometric entities at asserted c
onnectivities');
#817=UNCERTAINTY_MEASURE_WITH_UNIT(LENGTH_MEASURE(1.E-6),#820,
'DISTANCE_ACCURACY_VALUE',
'Maximum model space distance between geometric entities at asserted c
onnectivities');
#818=(
GEOMETRIC_REPRESENTATION_CONTEXT(3)
GLOBAL_UNCERTAINTY_ASSIGNED_CONTEXT((#816))
GLOBAL_UNIT_ASSIGNED_CONTEXT((#820,#822,#821))
REPRESENTATION_CONTEXT('','3D')
);
#819=(
GEOMETRIC_REPRESENTATION_CONTEXT(3)
GLOBAL_UNCERTAINTY_ASSIGNED_CONTEXT((#817))
GLOBAL_UNIT_ASSIGNED_CONTEXT((#820,#12,#821))
REPRESENTATION_CONTEXT('','3D')
);
#820=(
LENGTH_UNIT()
NAMED_UNIT(*)
SI_UNIT(.MILLI.,.METRE.)
);
#821=(
NAMED_UNIT(*)
SI_UNIT($,.STERADIAN.)
SOLID_ANGLE_UNIT()
);
#822=(
NAMED_UNIT(*)
PLANE_ANGLE_UNIT()
SI_UNIT($,.RADIAN.)
);
#823=SHAPE_DEFINITION_REPRESENTATION(#824,#825);
#824=PRODUCT_DEFINITION_SHAPE('',$,#827);
#825=SHAPE_REPRESENTATION('',(#500),#818);
#826=PRODUCT_DEFINITION_CONTEXT('part definition',#831,'design');
#827=PRODUCT_DEFINITION('Product','Product',#828,#826);
#828=PRODUCT_DEFINITION_FORMATION('',$,#833);
#829=PRODUCT_RELATED_PRODUCT_CATEGORY('Product','Product',(#833));
#830=APPLICATION_PROTOCOL_DEFINITION('international standard',
'automotive_design',2009,#831);
#831=APPLICATION_CONTEXT(
'Core Data for Automotive Mechanical Design Process');
#832=PRODUCT_CONTEXT('part definition',#831,'mechanical');
#833=PRODUCT('Product','Product',$,(#832));
#834=PRESENTATION_STYLE_ASSIGNMENT((#837));
#835=PRESENTATION_STYLE_ASSIGNMENT((#838));
#836=PRESENTATION_STYLE_ASSIGNMENT((#839));
#837=SURFACE_STYLE_USAGE(.BOTH.,#840);
#838=SURFACE_STYLE_USAGE(.BOTH.,#841);
#839=SURFACE_STYLE_USAGE(.BOTH.,#842);
#840=SURFACE_SIDE_STYLE($,(#843));
#841=SURFACE_SIDE_STYLE($,(#844));
#842=SURFACE_SIDE_STYLE($,(#845));
#843=SURFACE_STYLE_FILL_AREA(#846);
#844=SURFACE_STYLE_FILL_AREA(#847);
#845=SURFACE_STYLE_FILL_AREA(#848);
#846=FILL_AREA_STYLE($,(#849));
#847=FILL_AREA_STYLE($,(#850));
#848=FILL_AREA_STYLE($,(#851));
#849=FILL_AREA_STYLE_COLOUR($,#852);
#850=FILL_AREA_STYLE_COLOUR($,#853);
#851=FILL_AREA_STYLE_COLOUR($,#854);
#852=COLOUR_RGB('',1.,1.,1.);
#853=COLOUR_RGB('',0.866666666666667,0.866666666666667,0.866666666666667);
#854=COLOUR_RGB('',0.329411764705882,0.329411764705882,0.329411764705882);
ENDSEC;
END-ISO-10303-21;
