ISO-10303-21;
HEADER;
/****************************************************************
 * Generated by software with PDElib inside                    *
 * PDElib Version v51a, created Wed 11/30/2011                  *
 * ITI Transcendata (http://www.transcendata.com/)              *
 ****************************************************************/
FILE_DESCRIPTION((''),'2;1');
FILE_NAME('IND_COILCRAFT_1812SMS.stp','2015-02-12T10:34:45',(''),(''),'Mechanical Desktop 2011','Mechanical Desktop 2011',', , ');
FILE_SCHEMA(('AUTOMOTIVE_DESIGN { 1 2 10303 214 1 1 1 1 }'));
ENDSEC;
DATA;
#10=(NAMED_UNIT(*)PLANE_ANGLE_UNIT()SI_UNIT($,.RADIAN.));
#11=DIMENSIONAL_EXPONENTS(0.0,0.0,0.0,0.0,0.0,0.0,0.0);
#12=PLANE_ANGLE_MEASURE_WITH_UNIT(PLANE_ANGLE_MEASURE(0.0174532925),#10);
#16=(CONVERSION_BASED_UNIT('DEGREE',#12)NAMED_UNIT(#11)PLANE_ANGLE_UNIT());
#20=(NAMED_UNIT(*)SI_UNIT($,.STERADIAN.)SOLID_ANGLE_UNIT());
#24=(LENGTH_UNIT()NAMED_UNIT(*)SI_UNIT(.MILLI.,.METRE.));
#26=UNCERTAINTY_MEASURE_WITH_UNIT(LENGTH_MEASURE(0.000001),#24,'DISTANCE_ACCURACY_VALUE','');
#28=(GEOMETRIC_REPRESENTATION_CONTEXT(3)GLOBAL_UNCERTAINTY_ASSIGNED_CONTEXT((#26))GLOBAL_UNIT_ASSIGNED_CONTEXT((#16,#20,#24))REPRESENTATION_CONTEXT('','3D'));
#29=APPLICATION_CONTEXT('automotive design');
#30=APPLICATION_PROTOCOL_DEFINITION('INTERNATIONAL_STANDARD','automotive_design',1998,#29);
#31=PRODUCT_CONTEXT('3D Mechanical Parts',#29,'mechanical');
#32=PRODUCT('Product','Product','',(#31));
#33=PRODUCT_RELATED_PRODUCT_CATEGORY('part',$,(#32));
#34=PRODUCT_CATEGORY('part',$);
#35=PERSON('1','Design','Joe',$,$,$);
#36=ORGANIZATION($,'None','None');
#37=PERSON_AND_ORGANIZATION(#35,#36);
#38=PERSON_AND_ORGANIZATION_ROLE('design_owner');
#39=APPLIED_PERSON_AND_ORGANIZATION_ASSIGNMENT(#37,#38,(#32));
#40=PRODUCT_DEFINITION_FORMATION_WITH_SPECIFIED_SOURCE('None','',#32,.BOUGHT.);
#41=PERSON('2','Creator','Joe',$,$,$);
#42=ORGANIZATION($,'None','None');
#43=PERSON_AND_ORGANIZATION(#41,#42);
#44=PERSON_AND_ORGANIZATION_ROLE('creator');
#45=APPLIED_PERSON_AND_ORGANIZATION_ASSIGNMENT(#43,#44,(#40));
#46=PERSON('3','Supplier','Joe',$,$,$);
#47=ORGANIZATION($,'None','None');
#48=PERSON_AND_ORGANIZATION(#46,#47);
#49=PERSON_AND_ORGANIZATION_ROLE('design_supplier');
#50=APPLIED_PERSON_AND_ORGANIZATION_ASSIGNMENT(#48,#49,(#40));
#51=PRODUCT_DEFINITION_CONTEXT('part definition',#29,'design');
#52=PRODUCT_DEFINITION('None','',#40,#51);
#53=PERSON('4','Creator','Joe',$,$,$);
#54=ORGANIZATION($,'None','None');
#55=PERSON_AND_ORGANIZATION(#53,#54);
#56=PERSON_AND_ORGANIZATION_ROLE('creator');
#57=APPLIED_PERSON_AND_ORGANIZATION_ASSIGNMENT(#55,#56,(#52));
#58=CARTESIAN_POINT('NONE',(0.0,0.0,0.0));
#59=DIRECTION('NONE',(0.0,0.0,1.0));
#60=DIRECTION('NONE',(1.0,0.0,0.0));
#61=AXIS2_PLACEMENT_3D('NONE',#58,#59,#60);
#62=SHAPE_REPRESENTATION('SR1',(#61),#28);
#63=PRODUCT_DEFINITION_SHAPE('PDS1','Test Part',#52);
#64=SHAPE_DEFINITION_REPRESENTATION(#63,#62);
#65=CARTESIAN_POINT('',(2.2275,0.0,1.973000000000001));
#66=DIRECTION('',(1.0,0.0,0.0));
#67=DIRECTION('',(0.0,0.0,1.0));
#68=AXIS2_PLACEMENT_3D('',#65,#66,#67);
#69=TOROIDAL_SURFACE('',#68,1.7255,0.2475);
#70=CARTESIAN_POINT('',(2.2275,-6.369868E-017,9.436896E-016));
#71=VERTEX_POINT('',#70);
#72=CARTESIAN_POINT('',(2.2275,-1.973,1.973000000000001));
#73=VERTEX_POINT('',#72);
#74=CARTESIAN_POINT('',(2.2275,0.0,1.973000000000001));
#75=DIRECTION('',(-1.0,0.0,0.0));
#76=DIRECTION('',(0.0,0.0,1.0));
#77=AXIS2_PLACEMENT_3D('',#74,#75,#76);
#78=CIRCLE('',#77,1.973);
#79=EDGE_CURVE('',#71,#73,#78,.T.);
#80=ORIENTED_EDGE('',*,*,#79,.F.);
#81=CARTESIAN_POINT('',(2.475,-8.930268E-032,0.247500000000001));
#82=VERTEX_POINT('',#81);
#83=CARTESIAN_POINT('',(2.2275,0.0,0.247500000000001));
#84=DIRECTION('',(0.0,-1.0,0.0));
#85=DIRECTION('',(-1.0,0.0,0.0));
#86=AXIS2_PLACEMENT_3D('',#83,#84,#85);
#87=CIRCLE('',#86,0.2475);
#88=EDGE_CURVE('',#71,#82,#87,.T.);
#89=ORIENTED_EDGE('',*,*,#88,.T.);
#90=CARTESIAN_POINT('',(2.2275,6.369868E-017,0.495000000000001));
#91=VERTEX_POINT('',#90);
#92=CARTESIAN_POINT('',(2.2275,0.0,0.247500000000001));
#93=DIRECTION('',(0.0,-1.0,0.0));
#94=DIRECTION('',(-1.0,0.0,0.0));
#95=AXIS2_PLACEMENT_3D('',#92,#93,#94);
#96=CIRCLE('',#95,0.2475);
#97=EDGE_CURVE('',#82,#91,#96,.T.);
#98=ORIENTED_EDGE('',*,*,#97,.T.);
#99=CARTESIAN_POINT('',(2.2275,-1.478,1.973000000000001));
#100=VERTEX_POINT('',#99);
#101=CARTESIAN_POINT('',(2.2275,0.0,1.973000000000001));
#102=DIRECTION('',(-1.0,0.0,0.0));
#103=DIRECTION('',(0.0,0.0,1.0));
#104=AXIS2_PLACEMENT_3D('',#101,#102,#103);
#105=CIRCLE('',#104,1.478);
#106=EDGE_CURVE('',#91,#100,#105,.T.);
#107=ORIENTED_EDGE('',*,*,#106,.T.);
#108=CARTESIAN_POINT('',(2.2275,-1.7255,1.973000000000001));
#109=DIRECTION('',(0.0,0.0,1.0));
#110=DIRECTION('',(-1.0,0.0,0.0));
#111=AXIS2_PLACEMENT_3D('',#108,#109,#110);
#112=CIRCLE('',#111,0.2475);
#113=EDGE_CURVE('',#73,#100,#112,.T.);
#114=ORIENTED_EDGE('',*,*,#113,.F.);
#115=EDGE_LOOP('',(#80,#89,#98,#107,#114));
#116=FACE_OUTER_BOUND('',#115,.T.);
#117=ADVANCED_FACE('',(#116),#69,.T.);
#118=CARTESIAN_POINT('',(2.2275,0.0,0.247500000000001));
#119=DIRECTION('',(0.0,1.0,-5.245148E-016));
#120=DIRECTION('',(-1.0,0.0,0.0));
#121=AXIS2_PLACEMENT_3D('',#118,#119,#120);
#122=CYLINDRICAL_SURFACE('',#121,0.2475);
#123=CARTESIAN_POINT('',(1.98,3.175000000000003,0.2475));
#124=VERTEX_POINT('',#123);
#125=CARTESIAN_POINT('',(1.98,0.0,0.247500000000001));
#126=VERTEX_POINT('',#125);
#127=CARTESIAN_POINT('',(1.98,3.175000000000003,0.247499999999999));
#128=DIRECTION('',(0.0,-1.0,0.0));
#129=VECTOR('',#128,3.175000000000003);
#130=LINE('',#127,#129);
#131=EDGE_CURVE('',#124,#126,#130,.T.);
#132=ORIENTED_EDGE('',*,*,#131,.F.);
#133=CARTESIAN_POINT('',(2.475,3.175000000000003,0.247499999999999));
#134=VERTEX_POINT('',#133);
#135=CARTESIAN_POINT('',(2.2275,3.175000000000003,0.247499999999999));
#136=DIRECTION('',(0.0,-1.0,0.0));
#137=DIRECTION('',(-1.0,0.0,0.0));
#138=AXIS2_PLACEMENT_3D('',#135,#136,#137);
#139=CIRCLE('',#138,0.2475);
#140=EDGE_CURVE('',#124,#134,#139,.T.);
#141=ORIENTED_EDGE('',*,*,#140,.T.);
#142=CARTESIAN_POINT('',(2.475,3.175000000000003,0.247499999999999));
#143=DIRECTION('',(0.0,-1.0,0.0));
#144=VECTOR('',#143,3.175000000000003);
#145=LINE('',#142,#144);
#146=EDGE_CURVE('',#134,#82,#145,.T.);
#147=ORIENTED_EDGE('',*,*,#146,.T.);
#148=ORIENTED_EDGE('',*,*,#88,.F.);
#149=CARTESIAN_POINT('',(2.2275,0.0,0.247500000000001));
#150=DIRECTION('',(0.0,-1.0,0.0));
#151=DIRECTION('',(-1.0,0.0,0.0));
#152=AXIS2_PLACEMENT_3D('',#149,#150,#151);
#153=CIRCLE('',#152,0.2475);
#154=EDGE_CURVE('',#126,#71,#153,.T.);
#155=ORIENTED_EDGE('',*,*,#154,.F.);
#156=EDGE_LOOP('',(#132,#141,#147,#148,#155));
#157=FACE_OUTER_BOUND('',#156,.T.);
#158=ADVANCED_FACE('',(#157),#122,.T.);
#159=CARTESIAN_POINT('',(2.2275,0.0,0.247500000000001));
#160=DIRECTION('',(0.0,1.0,-5.245148E-016));
#161=DIRECTION('',(-1.0,0.0,0.0));
#162=AXIS2_PLACEMENT_3D('',#159,#160,#161);
#163=CYLINDRICAL_SURFACE('',#162,0.2475);
#164=ORIENTED_EDGE('',*,*,#131,.T.);
#165=CARTESIAN_POINT('',(2.2275,0.0,0.247500000000001));
#166=DIRECTION('',(0.0,-1.0,0.0));
#167=DIRECTION('',(-1.0,0.0,0.0));
#168=AXIS2_PLACEMENT_3D('',#165,#166,#167);
#169=CIRCLE('',#168,0.2475);
#170=EDGE_CURVE('',#91,#126,#169,.T.);
#171=ORIENTED_EDGE('',*,*,#170,.F.);
#172=ORIENTED_EDGE('',*,*,#97,.F.);
#173=ORIENTED_EDGE('',*,*,#146,.F.);
#174=CARTESIAN_POINT('',(2.2275,3.175000000000003,0.247499999999999));
#175=DIRECTION('',(0.0,-1.0,0.0));
#176=DIRECTION('',(-1.0,0.0,0.0));
#177=AXIS2_PLACEMENT_3D('',#174,#175,#176);
#178=CIRCLE('',#177,0.2475);
#179=EDGE_CURVE('',#134,#124,#178,.T.);
#180=ORIENTED_EDGE('',*,*,#179,.T.);
#181=EDGE_LOOP('',(#164,#171,#172,#173,#180));
#182=FACE_OUTER_BOUND('',#181,.T.);
#183=ADVANCED_FACE('',(#182),#163,.T.);
#184=CARTESIAN_POINT('',(2.2275,0.0,1.973000000000001));
#185=DIRECTION('',(1.0,0.0,0.0));
#186=DIRECTION('',(0.0,0.0,1.0));
#187=AXIS2_PLACEMENT_3D('',#184,#185,#186);
#188=TOROIDAL_SURFACE('',#187,1.7255,0.2475);
#189=ORIENTED_EDGE('',*,*,#79,.T.);
#190=CARTESIAN_POINT('',(1.98,-1.7255,1.973000000000001));
#191=VERTEX_POINT('',#190);
#192=CARTESIAN_POINT('',(2.2275,-1.7255,1.973000000000001));
#193=DIRECTION('',(0.0,0.0,1.0));
#194=DIRECTION('',(-1.0,0.0,0.0));
#195=AXIS2_PLACEMENT_3D('',#192,#193,#194);
#196=CIRCLE('',#195,0.2475);
#197=EDGE_CURVE('',#191,#73,#196,.T.);
#198=ORIENTED_EDGE('',*,*,#197,.F.);
#199=CARTESIAN_POINT('',(2.2275,-1.7255,1.973000000000001));
#200=DIRECTION('',(0.0,0.0,1.0));
#201=DIRECTION('',(-1.0,0.0,0.0));
#202=AXIS2_PLACEMENT_3D('',#199,#200,#201);
#203=CIRCLE('',#202,0.2475);
#204=EDGE_CURVE('',#100,#191,#203,.T.);
#205=ORIENTED_EDGE('',*,*,#204,.F.);
#206=ORIENTED_EDGE('',*,*,#106,.F.);
#207=ORIENTED_EDGE('',*,*,#170,.T.);
#208=ORIENTED_EDGE('',*,*,#154,.T.);
#209=EDGE_LOOP('',(#189,#198,#205,#206,#207,#208));
#210=FACE_OUTER_BOUND('',#209,.T.);
#211=ADVANCED_FACE('',(#210),#188,.T.);
#212=CARTESIAN_POINT('',(2.2275,3.175000000000003,0.247499999999999));
#213=DIRECTION('',(0.0,-1.0,0.0));
#214=DIRECTION('',(0.0,0.0,1.0));
#215=AXIS2_PLACEMENT_3D('',#212,#213,#214);
#216=PLANE('',#215);
#217=ORIENTED_EDGE('',*,*,#140,.F.);
#218=ORIENTED_EDGE('',*,*,#179,.F.);
#219=EDGE_LOOP('',(#217,#218));
#220=FACE_OUTER_BOUND('',#219,.T.);
#221=ADVANCED_FACE('',(#220),#216,.F.);
#222=CARTESIAN_POINT('',(2.2275,-1.7255,1.973000000000001));
#223=DIRECTION('',(0.0,0.0,1.0));
#224=DIRECTION('',(-1.0,0.0,0.0));
#225=AXIS2_PLACEMENT_3D('',#222,#223,#224);
#226=PLANE('',#225);
#227=ORIENTED_EDGE('',*,*,#197,.T.);
#228=ORIENTED_EDGE('',*,*,#113,.T.);
#229=ORIENTED_EDGE('',*,*,#204,.T.);
#230=EDGE_LOOP('',(#227,#228,#229));
#231=FACE_OUTER_BOUND('',#230,.T.);
#232=ADVANCED_FACE('',(#231),#226,.T.);
#233=CLOSED_SHELL('',(#117,#158,#183,#211,#221,#232));
#234=MANIFOLD_SOLID_BREP('2DD3',#233);
#235=COLOUR_RGB('254',0.866,0.866,0.866);
#236=SURFACE_STYLE_USAGE(.BOTH.,#237);
#237=SURFACE_SIDE_STYLE('NONE',(#238));
#238=SURFACE_STYLE_FILL_AREA(#239);
#239=FILL_AREA_STYLE('NONE',(#240));
#240=FILL_AREA_STYLE_COLOUR('NONE',#235);
#241=PRESENTATION_STYLE_ASSIGNMENT((#236));
#242=STYLED_ITEM('NONE',(#241),#234);
#243=MECHANICAL_DESIGN_GEOMETRIC_PRESENTATION_REPRESENTATION('NONE',(#242,#454,#561,#668,#775,#882,#989,#1096,#1267,#1374,#1577,#1735),#28);
#244=PRESENTATION_LAYER_ASSIGNMENT('3D','None',(#234,#446,#560,#667,#774,#881,#988,#1095,#1266,#1373,#1576,#1727));
#245=CARTESIAN_POINT('',(1.985816868716257,-0.017009580345007,1.973000000000001));
#246=DIRECTION('',(0.990142231037375,0.140065564348736,0.0));
#247=DIRECTION('',(0.0,0.0,1.0));
#248=AXIS2_PLACEMENT_3D('',#245,#246,#247);
#249=TOROIDAL_SURFACE('',#248,1.7255,0.2475);
#250=CARTESIAN_POINT('',(2.262166227176313,-1.970560202181751,1.973000000000001));
#251=VERTEX_POINT('',#250);
#252=CARTESIAN_POINT('',(2.227499999999971,-1.725499999999788,1.01624572120072));
#253=VERTEX_POINT('',#252);
#254=CARTESIAN_POINT('',(1.985816868716257,-0.017009580345007,1.973000000000001));
#255=DIRECTION('',(-0.990142231037375,-0.140065564348736,0.0));
#256=DIRECTION('',(0.0,0.0,1.0));
#257=AXIS2_PLACEMENT_3D('',#254,#255,#256);
#258=CIRCLE('',#257,1.973);
#259=EDGE_CURVE('',#251,#253,#258,.T.);
#260=ORIENTED_EDGE('',*,*,#259,.F.);
#261=CARTESIAN_POINT('',(2.21012401139479,-1.478610702905145,1.973000000000001));
#262=VERTEX_POINT('',#261);
#263=CARTESIAN_POINT('',(2.2275,-1.7255,1.973000000000001));
#264=DIRECTION('',(0.0,0.0,1.0));
#265=DIRECTION('',(-1.0,0.0,0.0));
#266=AXIS2_PLACEMENT_3D('',#263,#264,#265);
#267=CIRCLE('',#266,0.2475);
#268=EDGE_CURVE('',#251,#262,#267,.T.);
#269=ORIENTED_EDGE('',*,*,#268,.T.);
#270=CARTESIAN_POINT('',(2.192833772823689,-1.48043979781825,1.973000000000001));
#271=VERTEX_POINT('',#270);
#272=CARTESIAN_POINT('',(2.2275,-1.7255,1.973000000000001));
#273=DIRECTION('',(0.0,0.0,1.0));
#274=DIRECTION('',(-1.0,0.0,0.0));
#275=AXIS2_PLACEMENT_3D('',#272,#273,#274);
#276=CIRCLE('',#275,0.2475);
#277=EDGE_CURVE('',#262,#271,#276,.T.);
#278=ORIENTED_EDGE('',*,*,#277,.T.);
#279=CARTESIAN_POINT('',(1.985816868716257,-0.017009580345007,1.973000000000001));
#280=DIRECTION('',(-0.990142231037375,-0.140065564348736,0.0));
#281=DIRECTION('',(0.0,0.0,1.0));
#282=AXIS2_PLACEMENT_3D('',#279,#280,#281);
#283=CIRCLE('',#282,1.478);
#284=EDGE_CURVE('',#271,#271,#283,.T.);
#285=ORIENTED_EDGE('',*,*,#284,.T.);
#286=ORIENTED_EDGE('',*,*,#277,.F.);
#287=CARTESIAN_POINT('',(2.106059869985893,0.0,0.463158398450321));
#288=VERTEX_POINT('',#287);
#289=CARTESIAN_POINT('',(2.21012401139479,-1.478610702905145,1.973000000000001));
#290=CARTESIAN_POINT('',(2.21012401139479,-1.478610702905145,1.958627800737837));
#291=CARTESIAN_POINT('',(2.210109336158451,-1.478402187573975,1.94425644047387));
#292=CARTESIAN_POINT('',(2.209722811337571,-1.472910193017564,1.755031819908224));
#293=CARTESIAN_POINT('',(2.207195875799198,-1.437005856387942,1.582584806866081));
#294=CARTESIAN_POINT('',(2.198165267569437,-1.308693127320667,1.261667437935576));
#295=CARTESIAN_POINT('',(2.19183028439707,-1.218681584503389,1.115288750823302));
#296=CARTESIAN_POINT('',(2.17449172236141,-0.972324068336649,0.834245193107956));
#297=CARTESIAN_POINT('',(2.163014116806052,-0.809242816824762,0.710063310859627));
#298=CARTESIAN_POINT('',(2.136986527129245,-0.439425969773373,0.529170489794883));
#299=CARTESIAN_POINT('',(2.122628826727886,-0.235422465827291,0.476290817404182));
#300=CARTESIAN_POINT('',(2.107329891389391,-0.018045286442623,0.463950744911867));
#301=CARTESIAN_POINT('',(2.106694869866971,-0.009022489474214,0.463515975380647));
#302=CARTESIAN_POINT('',(2.106059869985893,0.0,0.463158398450321));
#303=B_SPLINE_CURVE_WITH_KNOTS('',3,(#289,#290,#291,#292,#293,#294,#295,#296,#297,#298,#299,#300,#301,#302),.UNSPECIFIED.,.F.,.U.,(4,2,2,2,2,2,4),(-0.043116597786492,0.0,0.524797494224541,1.037119635021289,1.646887406478006,2.27374176645068,2.30088569112296),.UNSPECIFIED.);
#304=EDGE_CURVE('',#262,#288,#303,.T.);
#305=ORIENTED_EDGE('',*,*,#304,.T.);
#306=CARTESIAN_POINT('',(2.106059869985894,0.0,0.031841601549681));
#307=VERTEX_POINT('',#306);
#308=CARTESIAN_POINT('',(2.106059869985893,2.664535E-015,0.463158398450321));
#309=CARTESIAN_POINT('',(2.096346191827818,0.138018228898565,0.457688496295299));
#310=CARTESIAN_POINT('',(2.103303352576484,0.273165162135287,0.461760488330751));
#311=CARTESIAN_POINT('',(2.11991969069164,0.547731069927561,0.470625335788383));
#312=CARTESIAN_POINT('',(2.131288537589294,0.708822897484756,0.476323750219722));
#313=CARTESIAN_POINT('',(2.108286538697653,0.888212634551302,0.46450592317976));
#314=CARTESIAN_POINT('',(2.099502288204475,0.92528622043603,0.459657795544613));
#315=CARTESIAN_POINT('',(2.084228726561574,0.969392791459232,0.449424722413592));
#316=CARTESIAN_POINT('',(2.077313025030705,0.985539217547181,0.444516471221271));
#317=CARTESIAN_POINT('',(2.064246585985059,1.006808468737102,0.433628587858477));
#318=CARTESIAN_POINT('',(2.058810384899473,1.013994417743319,0.428800827431901));
#319=CARTESIAN_POINT('',(2.048313519351706,1.02379284517095,0.418350959009656));
#320=CARTESIAN_POINT('',(2.043549229678177,1.026985915668792,0.41325534679355));
#321=CARTESIAN_POINT('',(2.03352391473746,1.030718102463618,0.401426555544296));
#322=CARTESIAN_POINT('',(2.028585290391871,1.030953790768026,0.394996811072335));
#323=CARTESIAN_POINT('',(2.01761202555502,1.028081760967789,0.379134903590038));
#324=CARTESIAN_POINT('',(2.012178512997165,1.023788828858067,0.36993271707626));
#325=CARTESIAN_POINT('',(1.999465916256366,1.008200290109347,0.345350496816362));
#326=CARTESIAN_POINT('',(1.992678868557702,0.992109322932938,0.327983493482899));
#327=CARTESIAN_POINT('',(1.982224510255437,0.944599906143443,0.287620743388067));
#328=CARTESIAN_POINT('',(1.979401037555286,0.910940520679415,0.264202508048327));
#329=CARTESIAN_POINT('',(1.982383628681272,0.735837797892304,0.162892820190142));
#330=CARTESIAN_POINT('',(2.022888844659285,0.556991959037911,0.098505392322719));
#331=CARTESIAN_POINT('',(2.081594435188716,0.224263716650642,0.045920755320824));
#332=CARTESIAN_POINT('',(2.098212556659963,0.111499708888012,0.036260528692842));
#333=CARTESIAN_POINT('',(2.106059869985894,2.664535E-015,0.031841601549681));
#334=B_SPLINE_CURVE_WITH_KNOTS('',3,(#308,#309,#310,#311,#312,#313,#314,#315,#316,#317,#318,#319,#320,#321,#322,#323,#324,#325,#326,#327,#328,#329,#330,#331,#332,#333),.UNSPECIFIED.,.F.,.U.,(4,2,2,2,2,2,2,2,2,2,2,2,4),(-3.54065832146963,-2.902626092882159,-2.163342735512328,-1.895999916231856,-1.745091570007609,-1.657037655978567,-1.589125226375494,-1.51690841224562,-1.417829094877318,-1.238303410509304,-1.024578820705742,-0.335588484502647,0.0),.UNSPECIFIED.);
#335=EDGE_CURVE('',#288,#307,#334,.T.);
#336=ORIENTED_EDGE('',*,*,#335,.T.);
#337=CARTESIAN_POINT('',(2.106059869985894,0.0,0.031841601549681));
#338=CARTESIAN_POINT('',(2.107884304530494,-0.025922747335171,0.030814238043829));
#339=CARTESIAN_POINT('',(2.109711776200761,-0.051888648118383,0.030334925864629));
#340=CARTESIAN_POINT('',(2.128364553199501,-0.316919381431887,0.031060211326326));
#341=CARTESIAN_POINT('',(2.145015063978787,-0.553500619827471,0.078235037676254));
#342=CARTESIAN_POINT('',(2.176474964442371,-1.000503255970991,0.26061010029369));
#343=CARTESIAN_POINT('',(2.190941176315781,-1.206048561173403,0.395607388204683));
#344=CARTESIAN_POINT('',(2.21285990915392,-1.517484109766929,0.698154182529622));
#345=CARTESIAN_POINT('',(2.221018659224989,-1.633408913585914,0.85016005727608));
#346=CARTESIAN_POINT('',(2.22749999999997,-1.725499999999788,1.01624572120072));
#347=B_SPLINE_CURVE_WITH_KNOTS('',3,(#337,#338,#339,#340,#341,#342,#343,#344,#345,#346),.UNSPECIFIED.,.F.,.U.,(4,2,2,2,4),(8.426234227193282,8.48947981262851,9.071128141627348,9.663354585797206,10.125593165628532),.UNSPECIFIED.);
#348=EDGE_CURVE('',#307,#253,#347,.T.);
#349=ORIENTED_EDGE('',*,*,#348,.T.);
#350=EDGE_LOOP('',(#260,#269,#278,#285,#286,#305,#336,#349));
#351=FACE_OUTER_BOUND('',#350,.T.);
#352=ADVANCED_FACE('',(#351),#249,.T.);
#353=CARTESIAN_POINT('',(2.2275,0.0,1.973000000000001));
#354=DIRECTION('',(1.0,0.0,0.0));
#355=DIRECTION('',(0.0,0.0,1.0));
#356=AXIS2_PLACEMENT_3D('',#353,#354,#355);
#357=TOROIDAL_SURFACE('',#356,1.7255,0.2475);
#358=ORIENTED_EDGE('',*,*,#348,.F.);
#359=CARTESIAN_POINT('',(2.2275,0.0,0.247500000000001));
#360=DIRECTION('',(0.0,-1.0,0.0));
#361=DIRECTION('',(-1.0,0.0,0.0));
#362=AXIS2_PLACEMENT_3D('',#359,#360,#361);
#363=CIRCLE('',#362,0.2475);
#364=EDGE_CURVE('',#288,#307,#363,.T.);
#365=ORIENTED_EDGE('',*,*,#364,.F.);
#366=ORIENTED_EDGE('',*,*,#304,.F.);
#367=CARTESIAN_POINT('',(2.2275,-1.7255,1.973000000000001));
#368=DIRECTION('',(0.0,0.0,1.0));
#369=DIRECTION('',(-1.0,0.0,0.0));
#370=AXIS2_PLACEMENT_3D('',#367,#368,#369);
#371=CIRCLE('',#370,0.2475);
#372=EDGE_CURVE('',#262,#271,#371,.T.);
#373=ORIENTED_EDGE('',*,*,#372,.T.);
#374=CARTESIAN_POINT('',(2.244875988605211,-1.972389297094855,1.973000000000001));
#375=VERTEX_POINT('',#374);
#376=CARTESIAN_POINT('',(2.2275,-1.7255,1.973000000000001));
#377=DIRECTION('',(0.0,0.0,1.0));
#378=DIRECTION('',(-1.0,0.0,0.0));
#379=AXIS2_PLACEMENT_3D('',#376,#377,#378);
#380=CIRCLE('',#379,0.2475);
#381=EDGE_CURVE('',#271,#375,#380,.T.);
#382=ORIENTED_EDGE('',*,*,#381,.T.);
#383=CARTESIAN_POINT('',(2.22749999999997,-1.725499999999788,1.01624572120072));
#384=CARTESIAN_POINT('',(2.229506410304778,-1.754008376765739,1.067660389731261));
#385=CARTESIAN_POINT('',(2.231352058601532,-1.780232542743983,1.120424451658871));
#386=CARTESIAN_POINT('',(2.24029871695456,-1.907352457532288,1.408081577860411));
#387=CARTESIAN_POINT('',(2.24429536375579,-1.964139402441851,1.659972179064666));
#388=CARTESIAN_POINT('',(2.244856417293771,-1.972111215406016,1.934661992997678));
#389=CARTESIAN_POINT('',(2.244875988605211,-1.972389297094855,1.953830542380023));
#390=CARTESIAN_POINT('',(2.244875988605211,-1.972389297094855,1.973000000000001));
#391=B_SPLINE_CURVE_WITH_KNOTS('',3,(#383,#384,#385,#386,#387,#388,#389,#390),.UNSPECIFIED.,.F.,.U.,(4,2,2,4),(10.125593165628532,10.268687053460049,10.888471400573412,10.934947260025536),.UNSPECIFIED.);
#392=EDGE_CURVE('',#253,#375,#391,.T.);
#393=ORIENTED_EDGE('',*,*,#392,.F.);
#394=EDGE_LOOP('',(#358,#365,#366,#373,#382,#393));
#395=FACE_OUTER_BOUND('',#394,.T.);
#396=ADVANCED_FACE('',(#395),#357,.F.);
#397=CARTESIAN_POINT('',(2.2275,0.0,0.247500000000001));
#398=DIRECTION('',(0.0,1.0,-5.245148E-016));
#399=DIRECTION('',(-1.0,0.0,0.0));
#400=AXIS2_PLACEMENT_3D('',#397,#398,#399);
#401=CYLINDRICAL_SURFACE('',#400,0.2475);
#402=ORIENTED_EDGE('',*,*,#335,.F.);
#403=ORIENTED_EDGE('',*,*,#364,.T.);
#404=EDGE_LOOP('',(#402,#403));
#405=FACE_OUTER_BOUND('',#404,.T.);
#406=ADVANCED_FACE('',(#405),#401,.F.);
#407=CARTESIAN_POINT('',(2.2275,-1.7255,1.973000000000001));
#408=DIRECTION('',(0.0,0.0,1.0));
#409=DIRECTION('',(-1.0,0.0,0.0));
#410=AXIS2_PLACEMENT_3D('',#407,#408,#409);
#411=PLANE('',#410);
#412=ORIENTED_EDGE('',*,*,#372,.F.);
#413=ORIENTED_EDGE('',*,*,#268,.F.);
#414=CARTESIAN_POINT('',(2.2275,-1.7255,1.973000000000001));
#415=DIRECTION('',(0.0,0.0,1.0));
#416=DIRECTION('',(-1.0,0.0,0.0));
#417=AXIS2_PLACEMENT_3D('',#414,#415,#416);
#418=CIRCLE('',#417,0.2475);
#419=EDGE_CURVE('',#375,#251,#418,.T.);
#420=ORIENTED_EDGE('',*,*,#419,.F.);
#421=ORIENTED_EDGE('',*,*,#381,.F.);
#422=EDGE_LOOP('',(#412,#413,#420,#421));
#423=FACE_OUTER_BOUND('',#422,.T.);
#424=ADVANCED_FACE('',(#423),#411,.F.);
#425=CARTESIAN_POINT('',(1.985816868716257,-0.017009580345007,1.973000000000001));
#426=DIRECTION('',(0.990142231037375,0.140065564348736,0.0));
#427=DIRECTION('',(0.0,0.0,1.0));
#428=AXIS2_PLACEMENT_3D('',#425,#426,#427);
#429=TOROIDAL_SURFACE('',#428,1.7255,0.2475);
#430=ORIENTED_EDGE('',*,*,#259,.T.);
#431=ORIENTED_EDGE('',*,*,#392,.T.);
#432=CARTESIAN_POINT('',(2.2275,-1.7255,1.973000000000001));
#433=DIRECTION('',(0.0,0.0,1.0));
#434=DIRECTION('',(-1.0,0.0,0.0));
#435=AXIS2_PLACEMENT_3D('',#432,#433,#434);
#436=CIRCLE('',#435,0.2475);
#437=EDGE_CURVE('',#271,#375,#436,.T.);
#438=ORIENTED_EDGE('',*,*,#437,.F.);
#439=ORIENTED_EDGE('',*,*,#284,.F.);
#440=ORIENTED_EDGE('',*,*,#437,.T.);
#441=ORIENTED_EDGE('',*,*,#419,.T.);
#442=EDGE_LOOP('',(#430,#431,#438,#439,#440,#441));
#443=FACE_OUTER_BOUND('',#442,.T.);
#444=ADVANCED_FACE('',(#443),#429,.T.);
#445=CLOSED_SHELL('',(#352,#396,#406,#424,#444));
#446=MANIFOLD_SOLID_BREP('2DCD',#445);
#447=COLOUR_RGB('20',1.0,0.25,0.0);
#448=SURFACE_STYLE_USAGE(.BOTH.,#449);
#449=SURFACE_SIDE_STYLE('NONE',(#450));
#450=SURFACE_STYLE_FILL_AREA(#451);
#451=FILL_AREA_STYLE('NONE',(#452));
#452=FILL_AREA_STYLE_COLOUR('NONE',#447);
#453=PRESENTATION_STYLE_ASSIGNMENT((#448));
#454=STYLED_ITEM('NONE',(#453),#446);
#455=CARTESIAN_POINT('',(1.459183131283742,0.017009580345009,1.973000000000001));
#456=DIRECTION('',(-0.990142231037375,-0.140065564348736,0.0));
#457=DIRECTION('',(0.0,0.0,1.0));
#458=AXIS2_PLACEMENT_3D('',#455,#456,#457);
#459=TOROIDAL_SURFACE('',#458,1.7255,0.2475);
#460=CARTESIAN_POINT('',(1.459183131283742,0.017009580345009,3.946000000000002));
#461=VERTEX_POINT('',#460);
#462=CARTESIAN_POINT('',(1.459183131283742,0.017009580345009,9.436896E-016));
#463=VERTEX_POINT('',#462);
#464=CARTESIAN_POINT('',(1.459183131283742,0.017009580345009,1.973000000000001));
#465=DIRECTION('',(0.990142231037375,0.140065564348736,0.0));
#466=DIRECTION('',(0.0,0.0,1.0));
#467=AXIS2_PLACEMENT_3D('',#464,#465,#466);
#468=CIRCLE('',#467,1.973);
#469=EDGE_CURVE('',#461,#463,#468,.T.);
#470=ORIENTED_EDGE('',*,*,#469,.F.);
#471=CARTESIAN_POINT('',(1.459183131283742,0.017009580345009,3.451000000000001));
#472=VERTEX_POINT('',#471);
#473=CARTESIAN_POINT('',(1.459183131283742,0.017009580345009,3.698500000000002));
#474=DIRECTION('',(-0.140065564348736,0.990142231037375,0.0));
#475=DIRECTION('',(0.0,0.0,1.0));
#476=AXIS2_PLACEMENT_3D('',#473,#474,#475);
#477=CIRCLE('',#476,0.2475);
#478=EDGE_CURVE('',#472,#461,#477,.T.);
#479=ORIENTED_EDGE('',*,*,#478,.F.);
#480=CARTESIAN_POINT('',(1.459183131283742,0.017009580345009,0.495000000000001));
#481=VERTEX_POINT('',#480);
#482=CARTESIAN_POINT('',(1.459183131283742,0.017009580345009,1.973000000000001));
#483=DIRECTION('',(0.990142231037375,0.140065564348736,0.0));
#484=DIRECTION('',(0.0,0.0,1.0));
#485=AXIS2_PLACEMENT_3D('',#482,#483,#484);
#486=CIRCLE('',#485,1.478);
#487=EDGE_CURVE('',#472,#481,#486,.T.);
#488=ORIENTED_EDGE('',*,*,#487,.T.);
#489=CARTESIAN_POINT('',(1.459183131283742,0.017009580345009,0.247500000000001));
#490=DIRECTION('',(0.140065564348736,-0.990142231037375,0.0));
#491=DIRECTION('',(0.0,0.0,-1.0));
#492=AXIS2_PLACEMENT_3D('',#489,#490,#491);
#493=CIRCLE('',#492,0.2475);
#494=EDGE_CURVE('',#481,#463,#493,.T.);
#495=ORIENTED_EDGE('',*,*,#494,.T.);
#496=EDGE_LOOP('',(#470,#479,#488,#495));
#497=FACE_OUTER_BOUND('',#496,.T.);
#498=ADVANCED_FACE('',(#497),#459,.T.);
#499=CARTESIAN_POINT('',(1.459183131283742,0.017009580345009,1.973000000000001));
#500=DIRECTION('',(-0.990142231037375,-0.140065564348736,0.0));
#501=DIRECTION('',(0.0,0.0,1.0));
#502=AXIS2_PLACEMENT_3D('',#499,#500,#501);
#503=TOROIDAL_SURFACE('',#502,1.7255,0.2475);
#504=CARTESIAN_POINT('',(1.459183131283742,0.017009580345009,1.973000000000001));
#505=DIRECTION('',(0.990142231037375,0.140065564348736,0.0));
#506=DIRECTION('',(0.0,0.0,1.0));
#507=AXIS2_PLACEMENT_3D('',#504,#505,#506);
#508=CIRCLE('',#507,1.973);
#509=EDGE_CURVE('',#463,#461,#508,.T.);
#510=ORIENTED_EDGE('',*,*,#509,.F.);
#511=ORIENTED_EDGE('',*,*,#494,.F.);
#512=CARTESIAN_POINT('',(1.459183131283742,0.017009580345009,1.973000000000001));
#513=DIRECTION('',(0.990142231037375,0.140065564348736,0.0));
#514=DIRECTION('',(0.0,0.0,1.0));
#515=AXIS2_PLACEMENT_3D('',#512,#513,#514);
#516=CIRCLE('',#515,1.478);
#517=EDGE_CURVE('',#481,#472,#516,.T.);
#518=ORIENTED_EDGE('',*,*,#517,.T.);
#519=ORIENTED_EDGE('',*,*,#478,.T.);
#520=EDGE_LOOP('',(#510,#511,#518,#519));
#521=FACE_OUTER_BOUND('',#520,.T.);
#522=ADVANCED_FACE('',(#521),#503,.T.);
#523=CARTESIAN_POINT('',(1.459183131283742,0.017009580345009,1.973000000000001));
#524=DIRECTION('',(-0.990142231037375,-0.140065564348736,0.0));
#525=DIRECTION('',(0.0,0.0,1.0));
#526=AXIS2_PLACEMENT_3D('',#523,#524,#525);
#527=TOROIDAL_SURFACE('',#526,1.7255,0.2475);
#528=ORIENTED_EDGE('',*,*,#509,.T.);
#529=CARTESIAN_POINT('',(1.459183131283742,0.017009580345009,3.698500000000002));
#530=DIRECTION('',(-0.140065564348736,0.990142231037375,0.0));
#531=DIRECTION('',(0.0,0.0,1.0));
#532=AXIS2_PLACEMENT_3D('',#529,#530,#531);
#533=CIRCLE('',#532,0.2475);
#534=EDGE_CURVE('',#461,#472,#533,.T.);
#535=ORIENTED_EDGE('',*,*,#534,.T.);
#536=ORIENTED_EDGE('',*,*,#517,.F.);
#537=CARTESIAN_POINT('',(1.459183131283742,0.017009580345009,0.247500000000001));
#538=DIRECTION('',(0.140065564348736,-0.990142231037375,0.0));
#539=DIRECTION('',(0.0,0.0,-1.0));
#540=AXIS2_PLACEMENT_3D('',#537,#538,#539);
#541=CIRCLE('',#540,0.2475);
#542=EDGE_CURVE('',#463,#481,#541,.T.);
#543=ORIENTED_EDGE('',*,*,#542,.F.);
#544=EDGE_LOOP('',(#528,#535,#536,#543));
#545=FACE_OUTER_BOUND('',#544,.T.);
#546=ADVANCED_FACE('',(#545),#527,.T.);
#547=CARTESIAN_POINT('',(1.459183131283742,0.017009580345009,1.973000000000001));
#548=DIRECTION('',(-0.990142231037375,-0.140065564348736,0.0));
#549=DIRECTION('',(0.0,0.0,1.0));
#550=AXIS2_PLACEMENT_3D('',#547,#548,#549);
#551=TOROIDAL_SURFACE('',#550,1.7255,0.2475);
#552=ORIENTED_EDGE('',*,*,#469,.T.);
#553=ORIENTED_EDGE('',*,*,#542,.T.);
#554=ORIENTED_EDGE('',*,*,#487,.F.);
#555=ORIENTED_EDGE('',*,*,#534,.F.);
#556=EDGE_LOOP('',(#552,#553,#554,#555));
#557=FACE_OUTER_BOUND('',#556,.T.);
#558=ADVANCED_FACE('',(#557),#551,.T.);
#559=CLOSED_SHELL('',(#498,#522,#546,#558));
#560=MANIFOLD_SOLID_BREP('2DC1',#559);
#561=STYLED_ITEM('NONE',(#453),#560);
#562=CARTESIAN_POINT('',(0.964183131283742,0.017009580345009,1.973000000000001));
#563=DIRECTION('',(-0.990142231037375,-0.140065564348736,0.0));
#564=DIRECTION('',(0.0,0.0,1.0));
#565=AXIS2_PLACEMENT_3D('',#562,#563,#564);
#566=TOROIDAL_SURFACE('',#565,1.7255,0.2475);
#567=CARTESIAN_POINT('',(0.964183131283742,0.017009580345009,3.946000000000002));
#568=VERTEX_POINT('',#567);
#569=CARTESIAN_POINT('',(0.964183131283742,0.017009580345009,9.436896E-016));
#570=VERTEX_POINT('',#569);
#571=CARTESIAN_POINT('',(0.964183131283742,0.017009580345009,1.973000000000001));
#572=DIRECTION('',(0.990142231037375,0.140065564348736,0.0));
#573=DIRECTION('',(0.0,0.0,1.0));
#574=AXIS2_PLACEMENT_3D('',#571,#572,#573);
#575=CIRCLE('',#574,1.973);
#576=EDGE_CURVE('',#568,#570,#575,.T.);
#577=ORIENTED_EDGE('',*,*,#576,.F.);
#578=CARTESIAN_POINT('',(0.964183131283742,0.017009580345009,3.451000000000001));
#579=VERTEX_POINT('',#578);
#580=CARTESIAN_POINT('',(0.964183131283742,0.017009580345009,3.698500000000002));
#581=DIRECTION('',(-0.140065564348736,0.990142231037375,0.0));
#582=DIRECTION('',(0.0,0.0,1.0));
#583=AXIS2_PLACEMENT_3D('',#580,#581,#582);
#584=CIRCLE('',#583,0.2475);
#585=EDGE_CURVE('',#579,#568,#584,.T.);
#586=ORIENTED_EDGE('',*,*,#585,.F.);
#587=CARTESIAN_POINT('',(0.964183131283742,0.017009580345009,0.495000000000001));
#588=VERTEX_POINT('',#587);
#589=CARTESIAN_POINT('',(0.964183131283742,0.017009580345009,1.973000000000001));
#590=DIRECTION('',(0.990142231037375,0.140065564348736,0.0));
#591=DIRECTION('',(0.0,0.0,1.0));
#592=AXIS2_PLACEMENT_3D('',#589,#590,#591);
#593=CIRCLE('',#592,1.478);
#594=EDGE_CURVE('',#579,#588,#593,.T.);
#595=ORIENTED_EDGE('',*,*,#594,.T.);
#596=CARTESIAN_POINT('',(0.964183131283742,0.017009580345009,0.247500000000001));
#597=DIRECTION('',(0.140065564348736,-0.990142231037375,0.0));
#598=DIRECTION('',(0.0,0.0,-1.0));
#599=AXIS2_PLACEMENT_3D('',#596,#597,#598);
#600=CIRCLE('',#599,0.2475);
#601=EDGE_CURVE('',#588,#570,#600,.T.);
#602=ORIENTED_EDGE('',*,*,#601,.T.);
#603=EDGE_LOOP('',(#577,#586,#595,#602));
#604=FACE_OUTER_BOUND('',#603,.T.);
#605=ADVANCED_FACE('',(#604),#566,.T.);
#606=CARTESIAN_POINT('',(0.964183131283742,0.017009580345009,1.973000000000001));
#607=DIRECTION('',(-0.990142231037375,-0.140065564348736,0.0));
#608=DIRECTION('',(0.0,0.0,1.0));
#609=AXIS2_PLACEMENT_3D('',#606,#607,#608);
#610=TOROIDAL_SURFACE('',#609,1.7255,0.2475);
#611=CARTESIAN_POINT('',(0.964183131283742,0.017009580345009,1.973000000000001));
#612=DIRECTION('',(0.990142231037375,0.140065564348736,0.0));
#613=DIRECTION('',(0.0,0.0,1.0));
#614=AXIS2_PLACEMENT_3D('',#611,#612,#613);
#615=CIRCLE('',#614,1.973);
#616=EDGE_CURVE('',#570,#568,#615,.T.);
#617=ORIENTED_EDGE('',*,*,#616,.F.);
#618=ORIENTED_EDGE('',*,*,#601,.F.);
#619=CARTESIAN_POINT('',(0.964183131283742,0.017009580345009,1.973000000000001));
#620=DIRECTION('',(0.990142231037375,0.140065564348736,0.0));
#621=DIRECTION('',(0.0,0.0,1.0));
#622=AXIS2_PLACEMENT_3D('',#619,#620,#621);
#623=CIRCLE('',#622,1.478);
#624=EDGE_CURVE('',#588,#579,#623,.T.);
#625=ORIENTED_EDGE('',*,*,#624,.T.);
#626=ORIENTED_EDGE('',*,*,#585,.T.);
#627=EDGE_LOOP('',(#617,#618,#625,#626));
#628=FACE_OUTER_BOUND('',#627,.T.);
#629=ADVANCED_FACE('',(#628),#610,.T.);
#630=CARTESIAN_POINT('',(0.964183131283742,0.017009580345009,1.973000000000001));
#631=DIRECTION('',(-0.990142231037375,-0.140065564348736,0.0));
#632=DIRECTION('',(0.0,0.0,1.0));
#633=AXIS2_PLACEMENT_3D('',#630,#631,#632);
#634=TOROIDAL_SURFACE('',#633,1.7255,0.2475);
#635=ORIENTED_EDGE('',*,*,#616,.T.);
#636=CARTESIAN_POINT('',(0.964183131283742,0.017009580345009,3.698500000000002));
#637=DIRECTION('',(-0.140065564348736,0.990142231037375,0.0));
#638=DIRECTION('',(0.0,0.0,1.0));
#639=AXIS2_PLACEMENT_3D('',#636,#637,#638);
#640=CIRCLE('',#639,0.2475);
#641=EDGE_CURVE('',#568,#579,#640,.T.);
#642=ORIENTED_EDGE('',*,*,#641,.T.);
#643=ORIENTED_EDGE('',*,*,#624,.F.);
#644=CARTESIAN_POINT('',(0.964183131283742,0.017009580345009,0.247500000000001));
#645=DIRECTION('',(0.140065564348736,-0.990142231037375,0.0));
#646=DIRECTION('',(0.0,0.0,-1.0));
#647=AXIS2_PLACEMENT_3D('',#644,#645,#646);
#648=CIRCLE('',#647,0.2475);
#649=EDGE_CURVE('',#570,#588,#648,.T.);
#650=ORIENTED_EDGE('',*,*,#649,.F.);
#651=EDGE_LOOP('',(#635,#642,#643,#650));
#652=FACE_OUTER_BOUND('',#651,.T.);
#653=ADVANCED_FACE('',(#652),#634,.T.);
#654=CARTESIAN_POINT('',(0.964183131283742,0.017009580345009,1.973000000000001));
#655=DIRECTION('',(-0.990142231037375,-0.140065564348736,0.0));
#656=DIRECTION('',(0.0,0.0,1.0));
#657=AXIS2_PLACEMENT_3D('',#654,#655,#656);
#658=TOROIDAL_SURFACE('',#657,1.7255,0.2475);
#659=ORIENTED_EDGE('',*,*,#576,.T.);
#660=ORIENTED_EDGE('',*,*,#649,.T.);
#661=ORIENTED_EDGE('',*,*,#594,.F.);
#662=ORIENTED_EDGE('',*,*,#641,.F.);
#663=EDGE_LOOP('',(#659,#660,#661,#662));
#664=FACE_OUTER_BOUND('',#663,.T.);
#665=ADVANCED_FACE('',(#664),#658,.T.);
#666=CLOSED_SHELL('',(#605,#629,#653,#665));
#667=MANIFOLD_SOLID_BREP('2DBD',#666);
#668=STYLED_ITEM('NONE',(#453),#667);
#669=CARTESIAN_POINT('',(0.469183131283742,0.017009580345009,1.973000000000001));
#670=DIRECTION('',(-0.990142231037375,-0.140065564348736,0.0));
#671=DIRECTION('',(0.0,0.0,1.0));
#672=AXIS2_PLACEMENT_3D('',#669,#670,#671);
#673=TOROIDAL_SURFACE('',#672,1.7255,0.2475);
#674=CARTESIAN_POINT('',(0.469183131283742,0.017009580345009,3.946000000000002));
#675=VERTEX_POINT('',#674);
#676=CARTESIAN_POINT('',(0.469183131283742,0.017009580345009,9.436896E-016));
#677=VERTEX_POINT('',#676);
#678=CARTESIAN_POINT('',(0.469183131283742,0.017009580345009,1.973000000000001));
#679=DIRECTION('',(0.990142231037375,0.140065564348736,0.0));
#680=DIRECTION('',(0.0,0.0,1.0));
#681=AXIS2_PLACEMENT_3D('',#678,#679,#680);
#682=CIRCLE('',#681,1.973);
#683=EDGE_CURVE('',#675,#677,#682,.T.);
#684=ORIENTED_EDGE('',*,*,#683,.F.);
#685=CARTESIAN_POINT('',(0.469183131283742,0.017009580345009,3.451000000000001));
#686=VERTEX_POINT('',#685);
#687=CARTESIAN_POINT('',(0.469183131283742,0.017009580345009,3.698500000000002));
#688=DIRECTION('',(-0.140065564348736,0.990142231037375,0.0));
#689=DIRECTION('',(0.0,0.0,1.0));
#690=AXIS2_PLACEMENT_3D('',#687,#688,#689);
#691=CIRCLE('',#690,0.2475);
#692=EDGE_CURVE('',#686,#675,#691,.T.);
#693=ORIENTED_EDGE('',*,*,#692,.F.);
#694=CARTESIAN_POINT('',(0.469183131283742,0.017009580345009,0.495000000000001));
#695=VERTEX_POINT('',#694);
#696=CARTESIAN_POINT('',(0.469183131283742,0.017009580345009,1.973000000000001));
#697=DIRECTION('',(0.990142231037375,0.140065564348736,0.0));
#698=DIRECTION('',(0.0,0.0,1.0));
#699=AXIS2_PLACEMENT_3D('',#696,#697,#698);
#700=CIRCLE('',#699,1.478);
#701=EDGE_CURVE('',#686,#695,#700,.T.);
#702=ORIENTED_EDGE('',*,*,#701,.T.);
#703=CARTESIAN_POINT('',(0.469183131283742,0.017009580345009,0.247500000000001));
#704=DIRECTION('',(0.140065564348736,-0.990142231037375,0.0));
#705=DIRECTION('',(0.0,0.0,-1.0));
#706=AXIS2_PLACEMENT_3D('',#703,#704,#705);
#707=CIRCLE('',#706,0.2475);
#708=EDGE_CURVE('',#695,#677,#707,.T.);
#709=ORIENTED_EDGE('',*,*,#708,.T.);
#710=EDGE_LOOP('',(#684,#693,#702,#709));
#711=FACE_OUTER_BOUND('',#710,.T.);
#712=ADVANCED_FACE('',(#711),#673,.T.);
#713=CARTESIAN_POINT('',(0.469183131283742,0.017009580345009,1.973000000000001));
#714=DIRECTION('',(-0.990142231037375,-0.140065564348736,0.0));
#715=DIRECTION('',(0.0,0.0,1.0));
#716=AXIS2_PLACEMENT_3D('',#713,#714,#715);
#717=TOROIDAL_SURFACE('',#716,1.7255,0.2475);
#718=CARTESIAN_POINT('',(0.469183131283742,0.017009580345009,1.973000000000001));
#719=DIRECTION('',(0.990142231037375,0.140065564348736,0.0));
#720=DIRECTION('',(0.0,0.0,1.0));
#721=AXIS2_PLACEMENT_3D('',#718,#719,#720);
#722=CIRCLE('',#721,1.973);
#723=EDGE_CURVE('',#677,#675,#722,.T.);
#724=ORIENTED_EDGE('',*,*,#723,.F.);
#725=ORIENTED_EDGE('',*,*,#708,.F.);
#726=CARTESIAN_POINT('',(0.469183131283742,0.017009580345009,1.973000000000001));
#727=DIRECTION('',(0.990142231037375,0.140065564348736,0.0));
#728=DIRECTION('',(0.0,0.0,1.0));
#729=AXIS2_PLACEMENT_3D('',#726,#727,#728);
#730=CIRCLE('',#729,1.478);
#731=EDGE_CURVE('',#695,#686,#730,.T.);
#732=ORIENTED_EDGE('',*,*,#731,.T.);
#733=ORIENTED_EDGE('',*,*,#692,.T.);
#734=EDGE_LOOP('',(#724,#725,#732,#733));
#735=FACE_OUTER_BOUND('',#734,.T.);
#736=ADVANCED_FACE('',(#735),#717,.T.);
#737=CARTESIAN_POINT('',(0.469183131283742,0.017009580345009,1.973000000000001));
#738=DIRECTION('',(-0.990142231037375,-0.140065564348736,0.0));
#739=DIRECTION('',(0.0,0.0,1.0));
#740=AXIS2_PLACEMENT_3D('',#737,#738,#739);
#741=TOROIDAL_SURFACE('',#740,1.7255,0.2475);
#742=ORIENTED_EDGE('',*,*,#723,.T.);
#743=CARTESIAN_POINT('',(0.469183131283742,0.017009580345009,3.698500000000002));
#744=DIRECTION('',(-0.140065564348736,0.990142231037375,0.0));
#745=DIRECTION('',(0.0,0.0,1.0));
#746=AXIS2_PLACEMENT_3D('',#743,#744,#745);
#747=CIRCLE('',#746,0.2475);
#748=EDGE_CURVE('',#675,#686,#747,.T.);
#749=ORIENTED_EDGE('',*,*,#748,.T.);
#750=ORIENTED_EDGE('',*,*,#731,.F.);
#751=CARTESIAN_POINT('',(0.469183131283742,0.017009580345009,0.247500000000001));
#752=DIRECTION('',(0.140065564348736,-0.990142231037375,0.0));
#753=DIRECTION('',(0.0,0.0,-1.0));
#754=AXIS2_PLACEMENT_3D('',#751,#752,#753);
#755=CIRCLE('',#754,0.2475);
#756=EDGE_CURVE('',#677,#695,#755,.T.);
#757=ORIENTED_EDGE('',*,*,#756,.F.);
#758=EDGE_LOOP('',(#742,#749,#750,#757));
#759=FACE_OUTER_BOUND('',#758,.T.);
#760=ADVANCED_FACE('',(#759),#741,.T.);
#761=CARTESIAN_POINT('',(0.469183131283742,0.017009580345009,1.973000000000001));
#762=DIRECTION('',(-0.990142231037375,-0.140065564348736,0.0));
#763=DIRECTION('',(0.0,0.0,1.0));
#764=AXIS2_PLACEMENT_3D('',#761,#762,#763);
#765=TOROIDAL_SURFACE('',#764,1.7255,0.2475);
#766=ORIENTED_EDGE('',*,*,#683,.T.);
#767=ORIENTED_EDGE('',*,*,#756,.T.);
#768=ORIENTED_EDGE('',*,*,#701,.F.);
#769=ORIENTED_EDGE('',*,*,#748,.F.);
#770=EDGE_LOOP('',(#766,#767,#768,#769));
#771=FACE_OUTER_BOUND('',#770,.T.);
#772=ADVANCED_FACE('',(#771),#765,.T.);
#773=CLOSED_SHELL('',(#712,#736,#760,#772));
#774=MANIFOLD_SOLID_BREP('2DB9',#773);
#775=STYLED_ITEM('NONE',(#453),#774);
#776=CARTESIAN_POINT('',(-0.025816868716258,0.017009580345009,1.973000000000001));
#777=DIRECTION('',(-0.990142231037375,-0.140065564348736,0.0));
#778=DIRECTION('',(0.0,0.0,1.0));
#779=AXIS2_PLACEMENT_3D('',#776,#777,#778);
#780=TOROIDAL_SURFACE('',#779,1.7255,0.2475);
#781=CARTESIAN_POINT('',(-0.025816868716258,0.017009580345009,3.946000000000002));
#782=VERTEX_POINT('',#781);
#783=CARTESIAN_POINT('',(-0.025816868716258,0.017009580345009,9.436896E-016));
#784=VERTEX_POINT('',#783);
#785=CARTESIAN_POINT('',(-0.025816868716258,0.017009580345009,1.973000000000001));
#786=DIRECTION('',(0.990142231037375,0.140065564348736,0.0));
#787=DIRECTION('',(0.0,0.0,1.0));
#788=AXIS2_PLACEMENT_3D('',#785,#786,#787);
#789=CIRCLE('',#788,1.973);
#790=EDGE_CURVE('',#782,#784,#789,.T.);
#791=ORIENTED_EDGE('',*,*,#790,.F.);
#792=CARTESIAN_POINT('',(-0.025816868716258,0.017009580345009,3.451000000000001));
#793=VERTEX_POINT('',#792);
#794=CARTESIAN_POINT('',(-0.025816868716258,0.017009580345009,3.698500000000002));
#795=DIRECTION('',(-0.140065564348736,0.990142231037375,0.0));
#796=DIRECTION('',(0.0,0.0,1.0));
#797=AXIS2_PLACEMENT_3D('',#794,#795,#796);
#798=CIRCLE('',#797,0.2475);
#799=EDGE_CURVE('',#793,#782,#798,.T.);
#800=ORIENTED_EDGE('',*,*,#799,.F.);
#801=CARTESIAN_POINT('',(-0.025816868716258,0.017009580345009,0.495000000000001));
#802=VERTEX_POINT('',#801);
#803=CARTESIAN_POINT('',(-0.025816868716258,0.017009580345009,1.973000000000001));
#804=DIRECTION('',(0.990142231037375,0.140065564348736,0.0));
#805=DIRECTION('',(0.0,0.0,1.0));
#806=AXIS2_PLACEMENT_3D('',#803,#804,#805);
#807=CIRCLE('',#806,1.478);
#808=EDGE_CURVE('',#793,#802,#807,.T.);
#809=ORIENTED_EDGE('',*,*,#808,.T.);
#810=CARTESIAN_POINT('',(-0.025816868716258,0.017009580345009,0.247500000000001));
#811=DIRECTION('',(0.140065564348736,-0.990142231037375,0.0));
#812=DIRECTION('',(0.0,0.0,-1.0));
#813=AXIS2_PLACEMENT_3D('',#810,#811,#812);
#814=CIRCLE('',#813,0.2475);
#815=EDGE_CURVE('',#802,#784,#814,.T.);
#816=ORIENTED_EDGE('',*,*,#815,.T.);
#817=EDGE_LOOP('',(#791,#800,#809,#816));
#818=FACE_OUTER_BOUND('',#817,.T.);
#819=ADVANCED_FACE('',(#818),#780,.T.);
#820=CARTESIAN_POINT('',(-0.025816868716258,0.017009580345009,1.973000000000001));
#821=DIRECTION('',(-0.990142231037375,-0.140065564348736,0.0));
#822=DIRECTION('',(0.0,0.0,1.0));
#823=AXIS2_PLACEMENT_3D('',#820,#821,#822);
#824=TOROIDAL_SURFACE('',#823,1.7255,0.2475);
#825=CARTESIAN_POINT('',(-0.025816868716258,0.017009580345009,1.973000000000001));
#826=DIRECTION('',(0.990142231037375,0.140065564348736,0.0));
#827=DIRECTION('',(0.0,0.0,1.0));
#828=AXIS2_PLACEMENT_3D('',#825,#826,#827);
#829=CIRCLE('',#828,1.973);
#830=EDGE_CURVE('',#784,#782,#829,.T.);
#831=ORIENTED_EDGE('',*,*,#830,.F.);
#832=ORIENTED_EDGE('',*,*,#815,.F.);
#833=CARTESIAN_POINT('',(-0.025816868716258,0.017009580345009,1.973000000000001));
#834=DIRECTION('',(0.990142231037375,0.140065564348736,0.0));
#835=DIRECTION('',(0.0,0.0,1.0));
#836=AXIS2_PLACEMENT_3D('',#833,#834,#835);
#837=CIRCLE('',#836,1.478);
#838=EDGE_CURVE('',#802,#793,#837,.T.);
#839=ORIENTED_EDGE('',*,*,#838,.T.);
#840=ORIENTED_EDGE('',*,*,#799,.T.);
#841=EDGE_LOOP('',(#831,#832,#839,#840));
#842=FACE_OUTER_BOUND('',#841,.T.);
#843=ADVANCED_FACE('',(#842),#824,.T.);
#844=CARTESIAN_POINT('',(-0.025816868716258,0.017009580345009,1.973000000000001));
#845=DIRECTION('',(-0.990142231037375,-0.140065564348736,0.0));
#846=DIRECTION('',(0.0,0.0,1.0));
#847=AXIS2_PLACEMENT_3D('',#844,#845,#846);
#848=TOROIDAL_SURFACE('',#847,1.7255,0.2475);
#849=ORIENTED_EDGE('',*,*,#830,.T.);
#850=CARTESIAN_POINT('',(-0.025816868716258,0.017009580345009,3.698500000000002));
#851=DIRECTION('',(-0.140065564348736,0.990142231037375,0.0));
#852=DIRECTION('',(0.0,0.0,1.0));
#853=AXIS2_PLACEMENT_3D('',#850,#851,#852);
#854=CIRCLE('',#853,0.2475);
#855=EDGE_CURVE('',#782,#793,#854,.T.);
#856=ORIENTED_EDGE('',*,*,#855,.T.);
#857=ORIENTED_EDGE('',*,*,#838,.F.);
#858=CARTESIAN_POINT('',(-0.025816868716258,0.017009580345009,0.247500000000001));
#859=DIRECTION('',(0.140065564348736,-0.990142231037375,0.0));
#860=DIRECTION('',(0.0,0.0,-1.0));
#861=AXIS2_PLACEMENT_3D('',#858,#859,#860);
#862=CIRCLE('',#861,0.2475);
#863=EDGE_CURVE('',#784,#802,#862,.T.);
#864=ORIENTED_EDGE('',*,*,#863,.F.);
#865=EDGE_LOOP('',(#849,#856,#857,#864));
#866=FACE_OUTER_BOUND('',#865,.T.);
#867=ADVANCED_FACE('',(#866),#848,.T.);
#868=CARTESIAN_POINT('',(-0.025816868716258,0.017009580345009,1.973000000000001));
#869=DIRECTION('',(-0.990142231037375,-0.140065564348736,0.0));
#870=DIRECTION('',(0.0,0.0,1.0));
#871=AXIS2_PLACEMENT_3D('',#868,#869,#870);
#872=TOROIDAL_SURFACE('',#871,1.7255,0.2475);
#873=ORIENTED_EDGE('',*,*,#790,.T.);
#874=ORIENTED_EDGE('',*,*,#863,.T.);
#875=ORIENTED_EDGE('',*,*,#808,.F.);
#876=ORIENTED_EDGE('',*,*,#855,.F.);
#877=EDGE_LOOP('',(#873,#874,#875,#876));
#878=FACE_OUTER_BOUND('',#877,.T.);
#879=ADVANCED_FACE('',(#878),#872,.T.);
#880=CLOSED_SHELL('',(#819,#843,#867,#879));
#881=MANIFOLD_SOLID_BREP('2DB5',#880);
#882=STYLED_ITEM('NONE',(#453),#881);
#883=CARTESIAN_POINT('',(-0.520816868716258,0.017009580345009,1.973000000000001));
#884=DIRECTION('',(-0.990142231037375,-0.140065564348736,0.0));
#885=DIRECTION('',(0.0,0.0,1.0));
#886=AXIS2_PLACEMENT_3D('',#883,#884,#885);
#887=TOROIDAL_SURFACE('',#886,1.7255,0.2475);
#888=CARTESIAN_POINT('',(-0.520816868716258,0.017009580345009,3.946000000000002));
#889=VERTEX_POINT('',#888);
#890=CARTESIAN_POINT('',(-0.520816868716258,0.017009580345009,9.436896E-016));
#891=VERTEX_POINT('',#890);
#892=CARTESIAN_POINT('',(-0.520816868716258,0.017009580345009,1.973000000000001));
#893=DIRECTION('',(0.990142231037375,0.140065564348736,0.0));
#894=DIRECTION('',(0.0,0.0,1.0));
#895=AXIS2_PLACEMENT_3D('',#892,#893,#894);
#896=CIRCLE('',#895,1.973);
#897=EDGE_CURVE('',#889,#891,#896,.T.);
#898=ORIENTED_EDGE('',*,*,#897,.F.);
#899=CARTESIAN_POINT('',(-0.520816868716258,0.017009580345009,3.451000000000001));
#900=VERTEX_POINT('',#899);
#901=CARTESIAN_POINT('',(-0.520816868716258,0.017009580345009,3.698500000000002));
#902=DIRECTION('',(-0.140065564348736,0.990142231037375,0.0));
#903=DIRECTION('',(0.0,0.0,1.0));
#904=AXIS2_PLACEMENT_3D('',#901,#902,#903);
#905=CIRCLE('',#904,0.2475);
#906=EDGE_CURVE('',#900,#889,#905,.T.);
#907=ORIENTED_EDGE('',*,*,#906,.F.);
#908=CARTESIAN_POINT('',(-0.520816868716258,0.017009580345009,0.495000000000001));
#909=VERTEX_POINT('',#908);
#910=CARTESIAN_POINT('',(-0.520816868716258,0.017009580345009,1.973000000000001));
#911=DIRECTION('',(0.990142231037375,0.140065564348736,0.0));
#912=DIRECTION('',(0.0,0.0,1.0));
#913=AXIS2_PLACEMENT_3D('',#910,#911,#912);
#914=CIRCLE('',#913,1.478);
#915=EDGE_CURVE('',#900,#909,#914,.T.);
#916=ORIENTED_EDGE('',*,*,#915,.T.);
#917=CARTESIAN_POINT('',(-0.520816868716258,0.017009580345009,0.247500000000001));
#918=DIRECTION('',(0.140065564348736,-0.990142231037375,0.0));
#919=DIRECTION('',(0.0,0.0,-1.0));
#920=AXIS2_PLACEMENT_3D('',#917,#918,#919);
#921=CIRCLE('',#920,0.2475);
#922=EDGE_CURVE('',#909,#891,#921,.T.);
#923=ORIENTED_EDGE('',*,*,#922,.T.);
#924=EDGE_LOOP('',(#898,#907,#916,#923));
#925=FACE_OUTER_BOUND('',#924,.T.);
#926=ADVANCED_FACE('',(#925),#887,.T.);
#927=CARTESIAN_POINT('',(-0.520816868716258,0.017009580345009,1.973000000000001));
#928=DIRECTION('',(-0.990142231037375,-0.140065564348736,0.0));
#929=DIRECTION('',(0.0,0.0,1.0));
#930=AXIS2_PLACEMENT_3D('',#927,#928,#929);
#931=TOROIDAL_SURFACE('',#930,1.7255,0.2475);
#932=CARTESIAN_POINT('',(-0.520816868716258,0.017009580345009,1.973000000000001));
#933=DIRECTION('',(0.990142231037375,0.140065564348736,0.0));
#934=DIRECTION('',(0.0,0.0,1.0));
#935=AXIS2_PLACEMENT_3D('',#932,#933,#934);
#936=CIRCLE('',#935,1.973);
#937=EDGE_CURVE('',#891,#889,#936,.T.);
#938=ORIENTED_EDGE('',*,*,#937,.F.);
#939=ORIENTED_EDGE('',*,*,#922,.F.);
#940=CARTESIAN_POINT('',(-0.520816868716258,0.017009580345009,1.973000000000001));
#941=DIRECTION('',(0.990142231037375,0.140065564348736,0.0));
#942=DIRECTION('',(0.0,0.0,1.0));
#943=AXIS2_PLACEMENT_3D('',#940,#941,#942);
#944=CIRCLE('',#943,1.478);
#945=EDGE_CURVE('',#909,#900,#944,.T.);
#946=ORIENTED_EDGE('',*,*,#945,.T.);
#947=ORIENTED_EDGE('',*,*,#906,.T.);
#948=EDGE_LOOP('',(#938,#939,#946,#947));
#949=FACE_OUTER_BOUND('',#948,.T.);
#950=ADVANCED_FACE('',(#949),#931,.T.);
#951=CARTESIAN_POINT('',(-0.520816868716258,0.017009580345009,1.973000000000001));
#952=DIRECTION('',(-0.990142231037375,-0.140065564348736,0.0));
#953=DIRECTION('',(0.0,0.0,1.0));
#954=AXIS2_PLACEMENT_3D('',#951,#952,#953);
#955=TOROIDAL_SURFACE('',#954,1.7255,0.2475);
#956=ORIENTED_EDGE('',*,*,#937,.T.);
#957=CARTESIAN_POINT('',(-0.520816868716258,0.017009580345009,3.698500000000002));
#958=DIRECTION('',(-0.140065564348736,0.990142231037375,0.0));
#959=DIRECTION('',(0.0,0.0,1.0));
#960=AXIS2_PLACEMENT_3D('',#957,#958,#959);
#961=CIRCLE('',#960,0.2475);
#962=EDGE_CURVE('',#889,#900,#961,.T.);
#963=ORIENTED_EDGE('',*,*,#962,.T.);
#964=ORIENTED_EDGE('',*,*,#945,.F.);
#965=CARTESIAN_POINT('',(-0.520816868716258,0.017009580345009,0.247500000000001));
#966=DIRECTION('',(0.140065564348736,-0.990142231037375,0.0));
#967=DIRECTION('',(0.0,0.0,-1.0));
#968=AXIS2_PLACEMENT_3D('',#965,#966,#967);
#969=CIRCLE('',#968,0.2475);
#970=EDGE_CURVE('',#891,#909,#969,.T.);
#971=ORIENTED_EDGE('',*,*,#970,.F.);
#972=EDGE_LOOP('',(#956,#963,#964,#971));
#973=FACE_OUTER_BOUND('',#972,.T.);
#974=ADVANCED_FACE('',(#973),#955,.T.);
#975=CARTESIAN_POINT('',(-0.520816868716258,0.017009580345009,1.973000000000001));
#976=DIRECTION('',(-0.990142231037375,-0.140065564348736,0.0));
#977=DIRECTION('',(0.0,0.0,1.0));
#978=AXIS2_PLACEMENT_3D('',#975,#976,#977);
#979=TOROIDAL_SURFACE('',#978,1.7255,0.2475);
#980=ORIENTED_EDGE('',*,*,#897,.T.);
#981=ORIENTED_EDGE('',*,*,#970,.T.);
#982=ORIENTED_EDGE('',*,*,#915,.F.);
#983=ORIENTED_EDGE('',*,*,#962,.F.);
#984=EDGE_LOOP('',(#980,#981,#982,#983));
#985=FACE_OUTER_BOUND('',#984,.T.);
#986=ADVANCED_FACE('',(#985),#979,.T.);
#987=CLOSED_SHELL('',(#926,#950,#974,#986));
#988=MANIFOLD_SOLID_BREP('2DB1',#987);
#989=STYLED_ITEM('NONE',(#453),#988);
#990=CARTESIAN_POINT('',(-1.015816868716258,0.017009580345009,1.973000000000001));
#991=DIRECTION('',(-0.990142231037375,-0.140065564348736,0.0));
#992=DIRECTION('',(0.0,0.0,1.0));
#993=AXIS2_PLACEMENT_3D('',#990,#991,#992);
#994=TOROIDAL_SURFACE('',#993,1.7255,0.2475);
#995=CARTESIAN_POINT('',(-1.015816868716258,0.017009580345009,3.946000000000002));
#996=VERTEX_POINT('',#995);
#997=CARTESIAN_POINT('',(-1.015816868716258,0.017009580345009,9.436896E-016));
#998=VERTEX_POINT('',#997);
#999=CARTESIAN_POINT('',(-1.015816868716258,0.017009580345009,1.973000000000001));
#1000=DIRECTION('',(0.990142231037375,0.140065564348736,0.0));
#1001=DIRECTION('',(0.0,0.0,1.0));
#1002=AXIS2_PLACEMENT_3D('',#999,#1000,#1001);
#1003=CIRCLE('',#1002,1.973);
#1004=EDGE_CURVE('',#996,#998,#1003,.T.);
#1005=ORIENTED_EDGE('',*,*,#1004,.F.);
#1006=CARTESIAN_POINT('',(-1.015816868716258,0.017009580345009,3.451000000000001));
#1007=VERTEX_POINT('',#1006);
#1008=CARTESIAN_POINT('',(-1.015816868716258,0.017009580345009,3.698500000000002));
#1009=DIRECTION('',(-0.140065564348736,0.990142231037375,0.0));
#1010=DIRECTION('',(0.0,0.0,1.0));
#1011=AXIS2_PLACEMENT_3D('',#1008,#1009,#1010);
#1012=CIRCLE('',#1011,0.2475);
#1013=EDGE_CURVE('',#1007,#996,#1012,.T.);
#1014=ORIENTED_EDGE('',*,*,#1013,.F.);
#1015=CARTESIAN_POINT('',(-1.015816868716258,0.017009580345009,0.495000000000001));
#1016=VERTEX_POINT('',#1015);
#1017=CARTESIAN_POINT('',(-1.015816868716258,0.017009580345009,1.973000000000001));
#1018=DIRECTION('',(0.990142231037375,0.140065564348736,0.0));
#1019=DIRECTION('',(0.0,0.0,1.0));
#1020=AXIS2_PLACEMENT_3D('',#1017,#1018,#1019);
#1021=CIRCLE('',#1020,1.478);
#1022=EDGE_CURVE('',#1007,#1016,#1021,.T.);
#1023=ORIENTED_EDGE('',*,*,#1022,.T.);
#1024=CARTESIAN_POINT('',(-1.015816868716258,0.017009580345009,0.247500000000001));
#1025=DIRECTION('',(0.140065564348736,-0.990142231037375,0.0));
#1026=DIRECTION('',(0.0,0.0,-1.0));
#1027=AXIS2_PLACEMENT_3D('',#1024,#1025,#1026);
#1028=CIRCLE('',#1027,0.2475);
#1029=EDGE_CURVE('',#1016,#998,#1028,.T.);
#1030=ORIENTED_EDGE('',*,*,#1029,.T.);
#1031=EDGE_LOOP('',(#1005,#1014,#1023,#1030));
#1032=FACE_OUTER_BOUND('',#1031,.T.);
#1033=ADVANCED_FACE('',(#1032),#994,.T.);
#1034=CARTESIAN_POINT('',(-1.015816868716258,0.017009580345009,1.973000000000001));
#1035=DIRECTION('',(-0.990142231037375,-0.140065564348736,0.0));
#1036=DIRECTION('',(0.0,0.0,1.0));
#1037=AXIS2_PLACEMENT_3D('',#1034,#1035,#1036);
#1038=TOROIDAL_SURFACE('',#1037,1.7255,0.2475);
#1039=CARTESIAN_POINT('',(-1.015816868716258,0.017009580345009,1.973000000000001));
#1040=DIRECTION('',(0.990142231037375,0.140065564348736,0.0));
#1041=DIRECTION('',(0.0,0.0,1.0));
#1042=AXIS2_PLACEMENT_3D('',#1039,#1040,#1041);
#1043=CIRCLE('',#1042,1.973);
#1044=EDGE_CURVE('',#998,#996,#1043,.T.);
#1045=ORIENTED_EDGE('',*,*,#1044,.F.);
#1046=ORIENTED_EDGE('',*,*,#1029,.F.);
#1047=CARTESIAN_POINT('',(-1.015816868716258,0.017009580345009,1.973000000000001));
#1048=DIRECTION('',(0.990142231037375,0.140065564348736,0.0));
#1049=DIRECTION('',(0.0,0.0,1.0));
#1050=AXIS2_PLACEMENT_3D('',#1047,#1048,#1049);
#1051=CIRCLE('',#1050,1.478);
#1052=EDGE_CURVE('',#1016,#1007,#1051,.T.);
#1053=ORIENTED_EDGE('',*,*,#1052,.T.);
#1054=ORIENTED_EDGE('',*,*,#1013,.T.);
#1055=EDGE_LOOP('',(#1045,#1046,#1053,#1054));
#1056=FACE_OUTER_BOUND('',#1055,.T.);
#1057=ADVANCED_FACE('',(#1056),#1038,.T.);
#1058=CARTESIAN_POINT('',(-1.015816868716258,0.017009580345009,1.973000000000001));
#1059=DIRECTION('',(-0.990142231037375,-0.140065564348736,0.0));
#1060=DIRECTION('',(0.0,0.0,1.0));
#1061=AXIS2_PLACEMENT_3D('',#1058,#1059,#1060);
#1062=TOROIDAL_SURFACE('',#1061,1.7255,0.2475);
#1063=ORIENTED_EDGE('',*,*,#1044,.T.);
#1064=CARTESIAN_POINT('',(-1.015816868716258,0.017009580345009,3.698500000000002));
#1065=DIRECTION('',(-0.140065564348736,0.990142231037375,0.0));
#1066=DIRECTION('',(0.0,0.0,1.0));
#1067=AXIS2_PLACEMENT_3D('',#1064,#1065,#1066);
#1068=CIRCLE('',#1067,0.2475);
#1069=EDGE_CURVE('',#996,#1007,#1068,.T.);
#1070=ORIENTED_EDGE('',*,*,#1069,.T.);
#1071=ORIENTED_EDGE('',*,*,#1052,.F.);
#1072=CARTESIAN_POINT('',(-1.015816868716258,0.017009580345009,0.247500000000001));
#1073=DIRECTION('',(0.140065564348736,-0.990142231037375,0.0));
#1074=DIRECTION('',(0.0,0.0,-1.0));
#1075=AXIS2_PLACEMENT_3D('',#1072,#1073,#1074);
#1076=CIRCLE('',#1075,0.2475);
#1077=EDGE_CURVE('',#998,#1016,#1076,.T.);
#1078=ORIENTED_EDGE('',*,*,#1077,.F.);
#1079=EDGE_LOOP('',(#1063,#1070,#1071,#1078));
#1080=FACE_OUTER_BOUND('',#1079,.T.);
#1081=ADVANCED_FACE('',(#1080),#1062,.T.);
#1082=CARTESIAN_POINT('',(-1.015816868716258,0.017009580345009,1.973000000000001));
#1083=DIRECTION('',(-0.990142231037375,-0.140065564348736,0.0));
#1084=DIRECTION('',(0.0,0.0,1.0));
#1085=AXIS2_PLACEMENT_3D('',#1082,#1083,#1084);
#1086=TOROIDAL_SURFACE('',#1085,1.7255,0.2475);
#1087=ORIENTED_EDGE('',*,*,#1004,.T.);
#1088=ORIENTED_EDGE('',*,*,#1077,.T.);
#1089=ORIENTED_EDGE('',*,*,#1022,.F.);
#1090=ORIENTED_EDGE('',*,*,#1069,.F.);
#1091=EDGE_LOOP('',(#1087,#1088,#1089,#1090));
#1092=FACE_OUTER_BOUND('',#1091,.T.);
#1093=ADVANCED_FACE('',(#1092),#1086,.T.);
#1094=CLOSED_SHELL('',(#1033,#1057,#1081,#1093));
#1095=MANIFOLD_SOLID_BREP('2DAD',#1094);
#1096=STYLED_ITEM('NONE',(#453),#1095);
#1097=CARTESIAN_POINT('',(-2.227500000000002,0.0,1.973000000000001));
#1098=DIRECTION('',(-1.0,0.0,0.0));
#1099=DIRECTION('',(0.0,0.0,1.0));
#1100=AXIS2_PLACEMENT_3D('',#1097,#1098,#1099);
#1101=TOROIDAL_SURFACE('',#1100,1.7255,0.2475);
#1102=CARTESIAN_POINT('',(-2.227500000000002,6.369868E-017,9.436896E-016));
#1103=VERTEX_POINT('',#1102);
#1104=CARTESIAN_POINT('',(-2.227500000000002,1.973,1.973000000000001));
#1105=VERTEX_POINT('',#1104);
#1106=CARTESIAN_POINT('',(-2.227500000000002,0.0,1.973000000000001));
#1107=DIRECTION('',(1.0,0.0,0.0));
#1108=DIRECTION('',(0.0,0.0,1.0));
#1109=AXIS2_PLACEMENT_3D('',#1106,#1107,#1108);
#1110=CIRCLE('',#1109,1.973);
#1111=EDGE_CURVE('',#1103,#1105,#1110,.T.);
#1112=ORIENTED_EDGE('',*,*,#1111,.F.);
#1113=CARTESIAN_POINT('',(-2.475000000000002,8.930268E-032,0.247500000000001));
#1114=VERTEX_POINT('',#1113);
#1115=CARTESIAN_POINT('',(-2.227500000000002,0.0,0.247500000000001));
#1116=DIRECTION('',(0.0,1.0,0.0));
#1117=DIRECTION('',(1.0,0.0,0.0));
#1118=AXIS2_PLACEMENT_3D('',#1115,#1116,#1117);
#1119=CIRCLE('',#1118,0.2475);
#1120=EDGE_CURVE('',#1103,#1114,#1119,.T.);
#1121=ORIENTED_EDGE('',*,*,#1120,.T.);
#1122=CARTESIAN_POINT('',(-2.227500000000002,-6.369868E-017,0.495000000000001));
#1123=VERTEX_POINT('',#1122);
#1124=CARTESIAN_POINT('',(-2.227500000000002,0.0,0.247500000000001));
#1125=DIRECTION('',(0.0,1.0,0.0));
#1126=DIRECTION('',(1.0,0.0,0.0));
#1127=AXIS2_PLACEMENT_3D('',#1124,#1125,#1126);
#1128=CIRCLE('',#1127,0.2475);
#1129=EDGE_CURVE('',#1114,#1123,#1128,.T.);
#1130=ORIENTED_EDGE('',*,*,#1129,.T.);
#1131=CARTESIAN_POINT('',(-2.227500000000002,1.478,1.973000000000001));
#1132=VERTEX_POINT('',#1131);
#1133=CARTESIAN_POINT('',(-2.227500000000002,0.0,1.973000000000001));
#1134=DIRECTION('',(1.0,0.0,0.0));
#1135=DIRECTION('',(0.0,0.0,1.0));
#1136=AXIS2_PLACEMENT_3D('',#1133,#1134,#1135);
#1137=CIRCLE('',#1136,1.478);
#1138=EDGE_CURVE('',#1123,#1132,#1137,.T.);
#1139=ORIENTED_EDGE('',*,*,#1138,.T.);
#1140=CARTESIAN_POINT('',(-2.227500000000002,1.7255,1.973000000000001));
#1141=DIRECTION('',(0.0,0.0,1.0));
#1142=DIRECTION('',(1.0,0.0,0.0));
#1143=AXIS2_PLACEMENT_3D('',#1140,#1141,#1142);
#1144=CIRCLE('',#1143,0.2475);
#1145=EDGE_CURVE('',#1105,#1132,#1144,.T.);
#1146=ORIENTED_EDGE('',*,*,#1145,.F.);
#1147=EDGE_LOOP('',(#1112,#1121,#1130,#1139,#1146));
#1148=FACE_OUTER_BOUND('',#1147,.T.);
#1149=ADVANCED_FACE('',(#1148),#1101,.T.);
#1150=CARTESIAN_POINT('',(-2.227500000000002,0.0,0.247500000000001));
#1151=DIRECTION('',(0.0,-1.0,-5.245148E-016));
#1152=DIRECTION('',(1.0,0.0,0.0));
#1153=AXIS2_PLACEMENT_3D('',#1150,#1151,#1152);
#1154=CYLINDRICAL_SURFACE('',#1153,0.2475);
#1155=CARTESIAN_POINT('',(-1.980000000000002,-3.175000000000003,0.2475));
#1156=VERTEX_POINT('',#1155);
#1157=CARTESIAN_POINT('',(-1.980000000000002,0.0,0.247500000000001));
#1158=VERTEX_POINT('',#1157);
#1159=CARTESIAN_POINT('',(-1.980000000000002,-3.175000000000003,0.247499999999999));
#1160=DIRECTION('',(0.0,1.0,0.0));
#1161=VECTOR('',#1160,3.175000000000003);
#1162=LINE('',#1159,#1161);
#1163=EDGE_CURVE('',#1156,#1158,#1162,.T.);
#1164=ORIENTED_EDGE('',*,*,#1163,.F.);
#1165=CARTESIAN_POINT('',(-2.475000000000002,-3.175000000000003,0.247499999999999));
#1166=VERTEX_POINT('',#1165);
#1167=CARTESIAN_POINT('',(-2.227500000000002,-3.175000000000003,0.247499999999999));
#1168=DIRECTION('',(0.0,1.0,0.0));
#1169=DIRECTION('',(1.0,0.0,0.0));
#1170=AXIS2_PLACEMENT_3D('',#1167,#1168,#1169);
#1171=CIRCLE('',#1170,0.2475);
#1172=EDGE_CURVE('',#1156,#1166,#1171,.T.);
#1173=ORIENTED_EDGE('',*,*,#1172,.T.);
#1174=CARTESIAN_POINT('',(-2.475000000000002,-3.175000000000003,0.247499999999999));
#1175=DIRECTION('',(0.0,1.0,0.0));
#1176=VECTOR('',#1175,3.175000000000003);
#1177=LINE('',#1174,#1176);
#1178=EDGE_CURVE('',#1166,#1114,#1177,.T.);
#1179=ORIENTED_EDGE('',*,*,#1178,.T.);
#1180=ORIENTED_EDGE('',*,*,#1120,.F.);
#1181=CARTESIAN_POINT('',(-2.227500000000002,0.0,0.247500000000001));
#1182=DIRECTION('',(0.0,1.0,0.0));
#1183=DIRECTION('',(1.0,0.0,0.0));
#1184=AXIS2_PLACEMENT_3D('',#1181,#1182,#1183);
#1185=CIRCLE('',#1184,0.2475);
#1186=EDGE_CURVE('',#1158,#1103,#1185,.T.);
#1187=ORIENTED_EDGE('',*,*,#1186,.F.);
#1188=EDGE_LOOP('',(#1164,#1173,#1179,#1180,#1187));
#1189=FACE_OUTER_BOUND('',#1188,.T.);
#1190=ADVANCED_FACE('',(#1189),#1154,.T.);
#1191=CARTESIAN_POINT('',(-2.227500000000002,0.0,0.247500000000001));
#1192=DIRECTION('',(0.0,-1.0,-5.245148E-016));
#1193=DIRECTION('',(1.0,0.0,0.0));
#1194=AXIS2_PLACEMENT_3D('',#1191,#1192,#1193);
#1195=CYLINDRICAL_SURFACE('',#1194,0.2475);
#1196=ORIENTED_EDGE('',*,*,#1163,.T.);
#1197=CARTESIAN_POINT('',(-2.227500000000002,0.0,0.247500000000001));
#1198=DIRECTION('',(0.0,1.0,0.0));
#1199=DIRECTION('',(1.0,0.0,0.0));
#1200=AXIS2_PLACEMENT_3D('',#1197,#1198,#1199);
#1201=CIRCLE('',#1200,0.2475);
#1202=EDGE_CURVE('',#1123,#1158,#1201,.T.);
#1203=ORIENTED_EDGE('',*,*,#1202,.F.);
#1204=ORIENTED_EDGE('',*,*,#1129,.F.);
#1205=ORIENTED_EDGE('',*,*,#1178,.F.);
#1206=CARTESIAN_POINT('',(-2.227500000000002,-3.175000000000003,0.247499999999999));
#1207=DIRECTION('',(0.0,1.0,0.0));
#1208=DIRECTION('',(1.0,0.0,0.0));
#1209=AXIS2_PLACEMENT_3D('',#1206,#1207,#1208);
#1210=CIRCLE('',#1209,0.2475);
#1211=EDGE_CURVE('',#1166,#1156,#1210,.T.);
#1212=ORIENTED_EDGE('',*,*,#1211,.T.);
#1213=EDGE_LOOP('',(#1196,#1203,#1204,#1205,#1212));
#1214=FACE_OUTER_BOUND('',#1213,.T.);
#1215=ADVANCED_FACE('',(#1214),#1195,.T.);
#1216=CARTESIAN_POINT('',(-2.227500000000002,0.0,1.973000000000001));
#1217=DIRECTION('',(-1.0,0.0,0.0));
#1218=DIRECTION('',(0.0,0.0,1.0));
#1219=AXIS2_PLACEMENT_3D('',#1216,#1217,#1218);
#1220=TOROIDAL_SURFACE('',#1219,1.7255,0.2475);
#1221=ORIENTED_EDGE('',*,*,#1111,.T.);
#1222=CARTESIAN_POINT('',(-1.980000000000002,1.7255,1.973000000000001));
#1223=VERTEX_POINT('',#1222);
#1224=CARTESIAN_POINT('',(-2.227500000000002,1.7255,1.973000000000001));
#1225=DIRECTION('',(0.0,0.0,1.0));
#1226=DIRECTION('',(1.0,0.0,0.0));
#1227=AXIS2_PLACEMENT_3D('',#1224,#1225,#1226);
#1228=CIRCLE('',#1227,0.2475);
#1229=EDGE_CURVE('',#1223,#1105,#1228,.T.);
#1230=ORIENTED_EDGE('',*,*,#1229,.F.);
#1231=CARTESIAN_POINT('',(-2.227500000000002,1.7255,1.973000000000001));
#1232=DIRECTION('',(0.0,0.0,1.0));
#1233=DIRECTION('',(1.0,0.0,0.0));
#1234=AXIS2_PLACEMENT_3D('',#1231,#1232,#1233);
#1235=CIRCLE('',#1234,0.2475);
#1236=EDGE_CURVE('',#1132,#1223,#1235,.T.);
#1237=ORIENTED_EDGE('',*,*,#1236,.F.);
#1238=ORIENTED_EDGE('',*,*,#1138,.F.);
#1239=ORIENTED_EDGE('',*,*,#1202,.T.);
#1240=ORIENTED_EDGE('',*,*,#1186,.T.);
#1241=EDGE_LOOP('',(#1221,#1230,#1237,#1238,#1239,#1240));
#1242=FACE_OUTER_BOUND('',#1241,.T.);
#1243=ADVANCED_FACE('',(#1242),#1220,.T.);
#1244=CARTESIAN_POINT('',(-2.227500000000002,-3.175000000000003,0.247499999999999));
#1245=DIRECTION('',(0.0,1.0,0.0));
#1246=DIRECTION('',(0.0,0.0,1.0));
#1247=AXIS2_PLACEMENT_3D('',#1244,#1245,#1246);
#1248=PLANE('',#1247);
#1249=ORIENTED_EDGE('',*,*,#1172,.F.);
#1250=ORIENTED_EDGE('',*,*,#1211,.F.);
#1251=EDGE_LOOP('',(#1249,#1250));
#1252=FACE_OUTER_BOUND('',#1251,.T.);
#1253=ADVANCED_FACE('',(#1252),#1248,.F.);
#1254=CARTESIAN_POINT('',(-2.227500000000002,1.7255,1.973000000000001));
#1255=DIRECTION('',(0.0,0.0,1.0));
#1256=DIRECTION('',(1.0,0.0,0.0));
#1257=AXIS2_PLACEMENT_3D('',#1254,#1255,#1256);
#1258=PLANE('',#1257);
#1259=ORIENTED_EDGE('',*,*,#1229,.T.);
#1260=ORIENTED_EDGE('',*,*,#1145,.T.);
#1261=ORIENTED_EDGE('',*,*,#1236,.T.);
#1262=EDGE_LOOP('',(#1259,#1260,#1261));
#1263=FACE_OUTER_BOUND('',#1262,.T.);
#1264=ADVANCED_FACE('',(#1263),#1258,.T.);
#1265=CLOSED_SHELL('',(#1149,#1190,#1215,#1243,#1253,#1264));
#1266=MANIFOLD_SOLID_BREP('2D82',#1265);
#1267=STYLED_ITEM('NONE',(#241),#1266);
#1268=CARTESIAN_POINT('',(-1.510816868716258,0.017009580345009,1.973000000000001));
#1269=DIRECTION('',(-0.990142231037375,-0.140065564348736,0.0));
#1270=DIRECTION('',(0.0,0.0,1.0));
#1271=AXIS2_PLACEMENT_3D('',#1268,#1269,#1270);
#1272=TOROIDAL_SURFACE('',#1271,1.7255,0.2475);
#1273=CARTESIAN_POINT('',(-1.510816868716258,0.017009580345009,3.946000000000002));
#1274=VERTEX_POINT('',#1273);
#1275=CARTESIAN_POINT('',(-1.510816868716258,0.017009580345009,9.436896E-016));
#1276=VERTEX_POINT('',#1275);
#1277=CARTESIAN_POINT('',(-1.510816868716258,0.017009580345009,1.973000000000001));
#1278=DIRECTION('',(0.990142231037375,0.140065564348736,0.0));
#1279=DIRECTION('',(0.0,0.0,1.0));
#1280=AXIS2_PLACEMENT_3D('',#1277,#1278,#1279);
#1281=CIRCLE('',#1280,1.973);
#1282=EDGE_CURVE('',#1274,#1276,#1281,.T.);
#1283=ORIENTED_EDGE('',*,*,#1282,.F.);
#1284=CARTESIAN_POINT('',(-1.510816868716258,0.017009580345009,3.451000000000001));
#1285=VERTEX_POINT('',#1284);
#1286=CARTESIAN_POINT('',(-1.510816868716258,0.017009580345009,3.698500000000002));
#1287=DIRECTION('',(-0.140065564348736,0.990142231037375,0.0));
#1288=DIRECTION('',(0.0,0.0,1.0));
#1289=AXIS2_PLACEMENT_3D('',#1286,#1287,#1288);
#1290=CIRCLE('',#1289,0.2475);
#1291=EDGE_CURVE('',#1285,#1274,#1290,.T.);
#1292=ORIENTED_EDGE('',*,*,#1291,.F.);
#1293=CARTESIAN_POINT('',(-1.510816868716258,0.017009580345009,0.495000000000001));
#1294=VERTEX_POINT('',#1293);
#1295=CARTESIAN_POINT('',(-1.510816868716258,0.017009580345009,1.973000000000001));
#1296=DIRECTION('',(0.990142231037375,0.140065564348736,0.0));
#1297=DIRECTION('',(0.0,0.0,1.0));
#1298=AXIS2_PLACEMENT_3D('',#1295,#1296,#1297);
#1299=CIRCLE('',#1298,1.478);
#1300=EDGE_CURVE('',#1285,#1294,#1299,.T.);
#1301=ORIENTED_EDGE('',*,*,#1300,.T.);
#1302=CARTESIAN_POINT('',(-1.510816868716258,0.017009580345009,0.247500000000001));
#1303=DIRECTION('',(0.140065564348736,-0.990142231037375,0.0));
#1304=DIRECTION('',(0.0,0.0,-1.0));
#1305=AXIS2_PLACEMENT_3D('',#1302,#1303,#1304);
#1306=CIRCLE('',#1305,0.2475);
#1307=EDGE_CURVE('',#1294,#1276,#1306,.T.);
#1308=ORIENTED_EDGE('',*,*,#1307,.T.);
#1309=EDGE_LOOP('',(#1283,#1292,#1301,#1308));
#1310=FACE_OUTER_BOUND('',#1309,.T.);
#1311=ADVANCED_FACE('',(#1310),#1272,.T.);
#1312=CARTESIAN_POINT('',(-1.510816868716258,0.017009580345009,1.973000000000001));
#1313=DIRECTION('',(-0.990142231037375,-0.140065564348736,0.0));
#1314=DIRECTION('',(0.0,0.0,1.0));
#1315=AXIS2_PLACEMENT_3D('',#1312,#1313,#1314);
#1316=TOROIDAL_SURFACE('',#1315,1.7255,0.2475);
#1317=CARTESIAN_POINT('',(-1.510816868716258,0.017009580345009,1.973000000000001));
#1318=DIRECTION('',(0.990142231037375,0.140065564348736,0.0));
#1319=DIRECTION('',(0.0,0.0,1.0));
#1320=AXIS2_PLACEMENT_3D('',#1317,#1318,#1319);
#1321=CIRCLE('',#1320,1.973);
#1322=EDGE_CURVE('',#1276,#1274,#1321,.T.);
#1323=ORIENTED_EDGE('',*,*,#1322,.F.);
#1324=ORIENTED_EDGE('',*,*,#1307,.F.);
#1325=CARTESIAN_POINT('',(-1.510816868716258,0.017009580345009,1.973000000000001));
#1326=DIRECTION('',(0.990142231037375,0.140065564348736,0.0));
#1327=DIRECTION('',(0.0,0.0,1.0));
#1328=AXIS2_PLACEMENT_3D('',#1325,#1326,#1327);
#1329=CIRCLE('',#1328,1.478);
#1330=EDGE_CURVE('',#1294,#1285,#1329,.T.);
#1331=ORIENTED_EDGE('',*,*,#1330,.T.);
#1332=ORIENTED_EDGE('',*,*,#1291,.T.);
#1333=EDGE_LOOP('',(#1323,#1324,#1331,#1332));
#1334=FACE_OUTER_BOUND('',#1333,.T.);
#1335=ADVANCED_FACE('',(#1334),#1316,.T.);
#1336=CARTESIAN_POINT('',(-1.510816868716258,0.017009580345009,1.973000000000001));
#1337=DIRECTION('',(-0.990142231037375,-0.140065564348736,0.0));
#1338=DIRECTION('',(0.0,0.0,1.0));
#1339=AXIS2_PLACEMENT_3D('',#1336,#1337,#1338);
#1340=TOROIDAL_SURFACE('',#1339,1.7255,0.2475);
#1341=ORIENTED_EDGE('',*,*,#1322,.T.);
#1342=CARTESIAN_POINT('',(-1.510816868716258,0.017009580345009,3.698500000000002));
#1343=DIRECTION('',(-0.140065564348736,0.990142231037375,0.0));
#1344=DIRECTION('',(0.0,0.0,1.0));
#1345=AXIS2_PLACEMENT_3D('',#1342,#1343,#1344);
#1346=CIRCLE('',#1345,0.2475);
#1347=EDGE_CURVE('',#1274,#1285,#1346,.T.);
#1348=ORIENTED_EDGE('',*,*,#1347,.T.);
#1349=ORIENTED_EDGE('',*,*,#1330,.F.);
#1350=CARTESIAN_POINT('',(-1.510816868716258,0.017009580345009,0.247500000000001));
#1351=DIRECTION('',(0.140065564348736,-0.990142231037375,0.0));
#1352=DIRECTION('',(0.0,0.0,-1.0));
#1353=AXIS2_PLACEMENT_3D('',#1350,#1351,#1352);
#1354=CIRCLE('',#1353,0.2475);
#1355=EDGE_CURVE('',#1276,#1294,#1354,.T.);
#1356=ORIENTED_EDGE('',*,*,#1355,.F.);
#1357=EDGE_LOOP('',(#1341,#1348,#1349,#1356));
#1358=FACE_OUTER_BOUND('',#1357,.T.);
#1359=ADVANCED_FACE('',(#1358),#1340,.T.);
#1360=CARTESIAN_POINT('',(-1.510816868716258,0.017009580345009,1.973000000000001));
#1361=DIRECTION('',(-0.990142231037375,-0.140065564348736,0.0));
#1362=DIRECTION('',(0.0,0.0,1.0));
#1363=AXIS2_PLACEMENT_3D('',#1360,#1361,#1362);
#1364=TOROIDAL_SURFACE('',#1363,1.7255,0.2475);
#1365=ORIENTED_EDGE('',*,*,#1282,.T.);
#1366=ORIENTED_EDGE('',*,*,#1355,.T.);
#1367=ORIENTED_EDGE('',*,*,#1300,.F.);
#1368=ORIENTED_EDGE('',*,*,#1347,.F.);
#1369=EDGE_LOOP('',(#1365,#1366,#1367,#1368));
#1370=FACE_OUTER_BOUND('',#1369,.T.);
#1371=ADVANCED_FACE('',(#1370),#1364,.T.);
#1372=CLOSED_SHELL('',(#1311,#1335,#1359,#1371));
#1373=MANIFOLD_SOLID_BREP('2D7E',#1372);
#1374=STYLED_ITEM('NONE',(#453),#1373);
#1375=CARTESIAN_POINT('',(-1.985816868716259,0.017009580345007,1.973000000000001));
#1376=DIRECTION('',(-0.990142231037375,-0.140065564348736,0.0));
#1377=DIRECTION('',(0.0,0.0,1.0));
#1378=AXIS2_PLACEMENT_3D('',#1375,#1376,#1377);
#1379=TOROIDAL_SURFACE('',#1378,1.7255,0.2475);
#1380=CARTESIAN_POINT('',(-2.262166227176315,1.97056020218175,1.973000000000001));
#1381=VERTEX_POINT('',#1380);
#1382=CARTESIAN_POINT('',(-2.227499999999972,1.725499999999782,1.016245721200709));
#1383=VERTEX_POINT('',#1382);
#1384=CARTESIAN_POINT('',(-1.985816868716259,0.017009580345007,1.973000000000001));
#1385=DIRECTION('',(0.990142231037375,0.140065564348736,0.0));
#1386=DIRECTION('',(0.0,0.0,1.0));
#1387=AXIS2_PLACEMENT_3D('',#1384,#1385,#1386);
#1388=CIRCLE('',#1387,1.973);
#1389=EDGE_CURVE('',#1381,#1383,#1388,.T.);
#1390=ORIENTED_EDGE('',*,*,#1389,.F.);
#1391=CARTESIAN_POINT('',(-2.210124011394792,1.478610702905145,1.973000000000001));
#1392=VERTEX_POINT('',#1391);
#1393=CARTESIAN_POINT('',(-2.227500000000002,1.7255,1.973000000000001));
#1394=DIRECTION('',(0.0,0.0,1.0));
#1395=DIRECTION('',(1.0,0.0,0.0));
#1396=AXIS2_PLACEMENT_3D('',#1393,#1394,#1395);
#1397=CIRCLE('',#1396,0.2475);
#1398=EDGE_CURVE('',#1381,#1392,#1397,.T.);
#1399=ORIENTED_EDGE('',*,*,#1398,.T.);
#1400=CARTESIAN_POINT('',(-2.192833772823691,1.48043979781825,1.973000000000001));
#1401=VERTEX_POINT('',#1400);
#1402=CARTESIAN_POINT('',(-2.227500000000002,1.7255,1.973000000000001));
#1403=DIRECTION('',(0.0,0.0,1.0));
#1404=DIRECTION('',(1.0,0.0,0.0));
#1405=AXIS2_PLACEMENT_3D('',#1402,#1403,#1404);
#1406=CIRCLE('',#1405,0.2475);
#1407=EDGE_CURVE('',#1392,#1401,#1406,.T.);
#1408=ORIENTED_EDGE('',*,*,#1407,.T.);
#1409=CARTESIAN_POINT('',(-1.985816868716259,0.017009580345007,1.973000000000001));
#1410=DIRECTION('',(0.990142231037375,0.140065564348736,0.0));
#1411=DIRECTION('',(0.0,0.0,1.0));
#1412=AXIS2_PLACEMENT_3D('',#1409,#1410,#1411);
#1413=CIRCLE('',#1412,1.478);
#1414=EDGE_CURVE('',#1401,#1401,#1413,.T.);
#1415=ORIENTED_EDGE('',*,*,#1414,.T.);
#1416=ORIENTED_EDGE('',*,*,#1407,.F.);
#1417=CARTESIAN_POINT('',(-2.106059869985895,0.0,0.463158398450321));
#1418=VERTEX_POINT('',#1417);
#1419=CARTESIAN_POINT('',(-2.210124011394792,1.478610702905145,1.973000000000001));
#1420=CARTESIAN_POINT('',(-2.210124011394792,1.478610702905145,1.958627800737837));
#1421=CARTESIAN_POINT('',(-2.210109336158452,1.478402187573976,1.94425644047387));
#1422=CARTESIAN_POINT('',(-2.209722811337572,1.472910193017564,1.755031819908224));
#1423=CARTESIAN_POINT('',(-2.2071958757992,1.437005856387942,1.582584806866081));
#1424=CARTESIAN_POINT('',(-2.198165267569439,1.308693127320667,1.261667437935576));
#1425=CARTESIAN_POINT('',(-2.191830284397072,1.218681584503389,1.115288750823302));
#1426=CARTESIAN_POINT('',(-2.174491722361412,0.972324068336649,0.834245193107956));
#1427=CARTESIAN_POINT('',(-2.163014116806054,0.809242816824762,0.710063310859627));
#1428=CARTESIAN_POINT('',(-2.136986527129247,0.439425969773373,0.529170489794883));
#1429=CARTESIAN_POINT('',(-2.122628826727888,0.235422465827291,0.476290817404182));
#1430=CARTESIAN_POINT('',(-2.107329891389393,0.018045286442623,0.463950744911867));
#1431=CARTESIAN_POINT('',(-2.106694869866972,0.009022489474214,0.463515975380647));
#1432=CARTESIAN_POINT('',(-2.106059869985895,0.0,0.463158398450321));
#1433=B_SPLINE_CURVE_WITH_KNOTS('',3,(#1419,#1420,#1421,#1422,#1423,#1424,#1425,#1426,#1427,#1428,#1429,#1430,#1431,#1432),.UNSPECIFIED.,.F.,.U.,(4,2,2,2,2,2,4),(-0.043116597786492,0.0,0.524797494224541,1.037119635021289,1.646887406478006,2.27374176645068,2.30088569112296),.UNSPECIFIED.);
#1434=EDGE_CURVE('',#1392,#1418,#1433,.T.);
#1435=ORIENTED_EDGE('',*,*,#1434,.T.);
#1436=CARTESIAN_POINT('',(-2.106059869985896,0.0,0.031841601549681));
#1437=VERTEX_POINT('',#1436);
#1438=CARTESIAN_POINT('',(-2.106059869985895,-2.664535E-015,0.463158398450321));
#1439=CARTESIAN_POINT('',(-2.09634619182782,-0.138018228898565,0.457688496295299));
#1440=CARTESIAN_POINT('',(-2.103303352576486,-0.273165162135287,0.461760488330751));
#1441=CARTESIAN_POINT('',(-2.119919690691642,-0.547731069927561,0.470625335788383));
#1442=CARTESIAN_POINT('',(-2.131288537589295,-0.708822897484756,0.476323750219722));
#1443=CARTESIAN_POINT('',(-2.108286538697655,-0.888212634551302,0.46450592317976));
#1444=CARTESIAN_POINT('',(-2.099502288204477,-0.92528622043603,0.459657795544613));
#1445=CARTESIAN_POINT('',(-2.084228726561576,-0.969392791459232,0.449424722413592));
#1446=CARTESIAN_POINT('',(-2.077313025030707,-0.985539217547181,0.444516471221271));
#1447=CARTESIAN_POINT('',(-2.064246585985061,-1.006808468737102,0.433628587858477));
#1448=CARTESIAN_POINT('',(-2.058810384899474,-1.013994417743319,0.428800827431901));
#1449=CARTESIAN_POINT('',(-2.048313519351708,-1.02379284517095,0.418350959009656));
#1450=CARTESIAN_POINT('',(-2.043549229678178,-1.026985915668792,0.41325534679355));
#1451=CARTESIAN_POINT('',(-2.033523914737462,-1.030718102463618,0.401426555544296));
#1452=CARTESIAN_POINT('',(-2.028585290391873,-1.030953790768026,0.394996811072335));
#1453=CARTESIAN_POINT('',(-2.017612025555022,-1.028081760967789,0.379134903590038));
#1454=CARTESIAN_POINT('',(-2.012178512997167,-1.023788828858067,0.36993271707626));
#1455=CARTESIAN_POINT('',(-1.999465916256368,-1.008200290109347,0.345350496816362));
#1456=CARTESIAN_POINT('',(-1.992678868557704,-0.992109322932938,0.327983493482899));
#1457=CARTESIAN_POINT('',(-1.982224510255438,-0.944599906143443,0.287620743388067));
#1458=CARTESIAN_POINT('',(-1.979401037555288,-0.910940520679415,0.264202508048327));
#1459=CARTESIAN_POINT('',(-1.982383628681274,-0.735837797892304,0.162892820190142));
#1460=CARTESIAN_POINT('',(-2.022888844659287,-0.556991959037911,0.098505392322719));
#1461=CARTESIAN_POINT('',(-2.081594435188718,-0.224263716650642,0.045920755320824));
#1462=CARTESIAN_POINT('',(-2.098212556659965,-0.111499708888012,0.036260528692842));
#1463=CARTESIAN_POINT('',(-2.106059869985896,-2.664535E-015,0.031841601549681));
#1464=B_SPLINE_CURVE_WITH_KNOTS('',3,(#1438,#1439,#1440,#1441,#1442,#1443,#1444,#1445,#1446,#1447,#1448,#1449,#1450,#1451,#1452,#1453,#1454,#1455,#1456,#1457,#1458,#1459,#1460,#1461,#1462,#1463),.UNSPECIFIED.,.F.,.U.,(4,2,2,2,2,2,2,2,2,2,2,2,4),(-3.54065832146963,-2.902626092882159,-2.163342735512328,-1.895999916231856,-1.745091570007609,-1.657037655978567,-1.589125226375494,-1.51690841224562,-1.417829094877318,-1.238303410509304,-1.024578820705742,-0.335588484502647,0.0),.UNSPECIFIED.);
#1465=EDGE_CURVE('',#1418,#1437,#1464,.T.);
#1466=ORIENTED_EDGE('',*,*,#1465,.T.);
#1467=CARTESIAN_POINT('',(-2.106059869985896,0.0,0.031841601549681));
#1468=CARTESIAN_POINT('',(-2.107884304530495,0.025922747335171,0.030814238043829));
#1469=CARTESIAN_POINT('',(-2.109711776200763,0.051888648118383,0.030334925864629));
#1470=CARTESIAN_POINT('',(-2.128364553199503,0.316919381431887,0.031060211326326));
#1471=CARTESIAN_POINT('',(-2.145015063978788,0.553500619827471,0.078235037676254));
#1472=CARTESIAN_POINT('',(-2.176474964442373,1.000503255970991,0.26061010029369));
#1473=CARTESIAN_POINT('',(-2.190941176315783,1.206048561173403,0.395607388204683));
#1474=CARTESIAN_POINT('',(-2.212859909153921,1.517484109766926,0.698154182529619));
#1475=CARTESIAN_POINT('',(-2.221018659224992,1.633408913585908,0.850160057276072));
#1476=CARTESIAN_POINT('',(-2.227499999999974,1.725499999999781,1.016245721200709));
#1477=B_SPLINE_CURVE_WITH_KNOTS('',3,(#1467,#1468,#1469,#1470,#1471,#1472,#1473,#1474,#1475,#1476),.UNSPECIFIED.,.F.,.U.,(4,2,2,2,4),(8.426234227193282,8.48947981262851,9.071128141627348,9.663354585797206,10.125593165628521),.UNSPECIFIED.);
#1478=EDGE_CURVE('',#1437,#1383,#1477,.T.);
#1479=ORIENTED_EDGE('',*,*,#1478,.T.);
#1480=EDGE_LOOP('',(#1390,#1399,#1408,#1415,#1416,#1435,#1466,#1479));
#1481=FACE_OUTER_BOUND('',#1480,.T.);
#1482=ADVANCED_FACE('',(#1481),#1379,.T.);
#1483=CARTESIAN_POINT('',(-2.227500000000002,0.0,1.973000000000001));
#1484=DIRECTION('',(-1.0,0.0,0.0));
#1485=DIRECTION('',(0.0,0.0,1.0));
#1486=AXIS2_PLACEMENT_3D('',#1483,#1484,#1485);
#1487=TOROIDAL_SURFACE('',#1486,1.7255,0.2475);
#1488=ORIENTED_EDGE('',*,*,#1478,.F.);
#1489=CARTESIAN_POINT('',(-2.227500000000002,0.0,0.247500000000001));
#1490=DIRECTION('',(0.0,1.0,0.0));
#1491=DIRECTION('',(1.0,0.0,0.0));
#1492=AXIS2_PLACEMENT_3D('',#1489,#1490,#1491);
#1493=CIRCLE('',#1492,0.2475);
#1494=EDGE_CURVE('',#1418,#1437,#1493,.T.);
#1495=ORIENTED_EDGE('',*,*,#1494,.F.);
#1496=ORIENTED_EDGE('',*,*,#1434,.F.);
#1497=CARTESIAN_POINT('',(-2.227500000000002,1.7255,1.973000000000001));
#1498=DIRECTION('',(0.0,0.0,1.0));
#1499=DIRECTION('',(1.0,0.0,0.0));
#1500=AXIS2_PLACEMENT_3D('',#1497,#1498,#1499);
#1501=CIRCLE('',#1500,0.2475);
#1502=EDGE_CURVE('',#1392,#1401,#1501,.T.);
#1503=ORIENTED_EDGE('',*,*,#1502,.T.);
#1504=CARTESIAN_POINT('',(-2.244875988605213,1.972389297094855,1.973000000000001));
#1505=VERTEX_POINT('',#1504);
#1506=CARTESIAN_POINT('',(-2.227500000000002,1.7255,1.973000000000001));
#1507=DIRECTION('',(0.0,0.0,1.0));
#1508=DIRECTION('',(1.0,0.0,0.0));
#1509=AXIS2_PLACEMENT_3D('',#1506,#1507,#1508);
#1510=CIRCLE('',#1509,0.2475);
#1511=EDGE_CURVE('',#1401,#1505,#1510,.T.);
#1512=ORIENTED_EDGE('',*,*,#1511,.T.);
#1513=CARTESIAN_POINT('',(-2.227499999999974,1.725499999999781,1.016245721200709));
#1514=CARTESIAN_POINT('',(-2.229506410304782,1.754008376765734,1.067660389731253));
#1515=CARTESIAN_POINT('',(-2.231352058601534,1.780232542743982,1.120424451658867));
#1516=CARTESIAN_POINT('',(-2.240298716954562,1.907352457532288,1.408081577860411));
#1517=CARTESIAN_POINT('',(-2.244295363755792,1.964139402441851,1.659972179064666));
#1518=CARTESIAN_POINT('',(-2.244856417293772,1.972111215406016,1.934661992997678));
#1519=CARTESIAN_POINT('',(-2.244875988605213,1.972389297094855,1.953830542380023));
#1520=CARTESIAN_POINT('',(-2.244875988605213,1.972389297094855,1.973000000000001));
#1521=B_SPLINE_CURVE_WITH_KNOTS('',3,(#1513,#1514,#1515,#1516,#1517,#1518,#1519,#1520),.UNSPECIFIED.,.F.,.U.,(4,2,2,4),(10.125593165628521,10.268687053460049,10.888471400573412,10.934947260025536),.UNSPECIFIED.);
#1522=EDGE_CURVE('',#1383,#1505,#1521,.T.);
#1523=ORIENTED_EDGE('',*,*,#1522,.F.);
#1524=EDGE_LOOP('',(#1488,#1495,#1496,#1503,#1512,#1523));
#1525=FACE_OUTER_BOUND('',#1524,.T.);
#1526=ADVANCED_FACE('',(#1525),#1487,.F.);
#1527=CARTESIAN_POINT('',(-2.227500000000002,0.0,0.247500000000001));
#1528=DIRECTION('',(0.0,-1.0,-5.245148E-016));
#1529=DIRECTION('',(1.0,0.0,0.0));
#1530=AXIS2_PLACEMENT_3D('',#1527,#1528,#1529);
#1531=CYLINDRICAL_SURFACE('',#1530,0.2475);
#1532=ORIENTED_EDGE('',*,*,#1465,.F.);
#1533=ORIENTED_EDGE('',*,*,#1494,.T.);
#1534=EDGE_LOOP('',(#1532,#1533));
#1535=FACE_OUTER_BOUND('',#1534,.T.);
#1536=ADVANCED_FACE('',(#1535),#1531,.F.);
#1537=CARTESIAN_POINT('',(-2.227500000000002,1.7255,1.973000000000001));
#1538=DIRECTION('',(0.0,0.0,1.0));
#1539=DIRECTION('',(1.0,0.0,0.0));
#1540=AXIS2_PLACEMENT_3D('',#1537,#1538,#1539);
#1541=PLANE('',#1540);
#1542=ORIENTED_EDGE('',*,*,#1502,.F.);
#1543=ORIENTED_EDGE('',*,*,#1398,.F.);
#1544=CARTESIAN_POINT('',(-2.227500000000002,1.7255,1.973000000000001));
#1545=DIRECTION('',(0.0,0.0,1.0));
#1546=DIRECTION('',(1.0,0.0,0.0));
#1547=AXIS2_PLACEMENT_3D('',#1544,#1545,#1546);
#1548=CIRCLE('',#1547,0.2475);
#1549=EDGE_CURVE('',#1505,#1381,#1548,.T.);
#1550=ORIENTED_EDGE('',*,*,#1549,.F.);
#1551=ORIENTED_EDGE('',*,*,#1511,.F.);
#1552=EDGE_LOOP('',(#1542,#1543,#1550,#1551));
#1553=FACE_OUTER_BOUND('',#1552,.T.);
#1554=ADVANCED_FACE('',(#1553),#1541,.F.);
#1555=CARTESIAN_POINT('',(-1.985816868716259,0.017009580345007,1.973000000000001));
#1556=DIRECTION('',(-0.990142231037375,-0.140065564348736,0.0));
#1557=DIRECTION('',(0.0,0.0,1.0));
#1558=AXIS2_PLACEMENT_3D('',#1555,#1556,#1557);
#1559=TOROIDAL_SURFACE('',#1558,1.7255,0.2475);
#1560=ORIENTED_EDGE('',*,*,#1389,.T.);
#1561=ORIENTED_EDGE('',*,*,#1522,.T.);
#1562=CARTESIAN_POINT('',(-2.227500000000002,1.7255,1.973000000000001));
#1563=DIRECTION('',(0.0,0.0,1.0));
#1564=DIRECTION('',(1.0,0.0,0.0));
#1565=AXIS2_PLACEMENT_3D('',#1562,#1563,#1564);
#1566=CIRCLE('',#1565,0.2475);
#1567=EDGE_CURVE('',#1401,#1505,#1566,.T.);
#1568=ORIENTED_EDGE('',*,*,#1567,.F.);
#1569=ORIENTED_EDGE('',*,*,#1414,.F.);
#1570=ORIENTED_EDGE('',*,*,#1567,.T.);
#1571=ORIENTED_EDGE('',*,*,#1549,.T.);
#1572=EDGE_LOOP('',(#1560,#1561,#1568,#1569,#1570,#1571));
#1573=FACE_OUTER_BOUND('',#1572,.T.);
#1574=ADVANCED_FACE('',(#1573),#1559,.T.);
#1575=CLOSED_SHELL('',(#1482,#1526,#1536,#1554,#1574));
#1576=MANIFOLD_SOLID_BREP('2D35',#1575);
#1577=STYLED_ITEM('NONE',(#453),#1576);
#1578=CARTESIAN_POINT('',(-2.538500000000003,-1.016,3.200000000000001));
#1579=DIRECTION('',(-0.997989951724386,9.035415E-033,0.063372361934499));
#1580=DIRECTION('',(0.063372361934499,0.0,0.997989951724386));
#1581=AXIS2_PLACEMENT_3D('',#1578,#1579,#1580);
#1582=PLANE('',#1581);
#1583=CARTESIAN_POINT('',(-2.475000000000001,-1.905000000000001,4.200000000000001));
#1584=VERTEX_POINT('',#1583);
#1585=CARTESIAN_POINT('',(-2.475000000000001,1.905000000000001,4.200000000000001));
#1586=VERTEX_POINT('',#1585);
#1587=CARTESIAN_POINT('',(-2.475000000000001,-1.905000000000001,4.200000000000001));
#1588=DIRECTION('',(0.0,1.0,0.0));
#1589=VECTOR('',#1588,3.810000000000002);
#1590=LINE('',#1587,#1589);
#1591=EDGE_CURVE('',#1584,#1586,#1590,.T.);
#1592=ORIENTED_EDGE('',*,*,#1591,.T.);
#1593=CARTESIAN_POINT('',(-2.602000000000002,2.032000000000002,2.200000000000001));
#1594=VERTEX_POINT('',#1593);
#1595=CARTESIAN_POINT('',(-2.475000000000001,1.905000000000001,4.200000000000001));
#1596=DIRECTION('',(-0.063245490463747,0.063245490463747,-0.995991975807034));
#1597=VECTOR('',#1596,2.008048306191861);
#1598=LINE('',#1595,#1597);
#1599=EDGE_CURVE('',#1586,#1594,#1598,.T.);
#1600=ORIENTED_EDGE('',*,*,#1599,.T.);
#1601=CARTESIAN_POINT('',(-2.602000000000002,-2.032,2.200000000000001));
#1602=VERTEX_POINT('',#1601);
#1603=CARTESIAN_POINT('',(-2.602000000000002,-2.032,2.200000000000001));
#1604=DIRECTION('',(0.0,1.0,0.0));
#1605=VECTOR('',#1604,4.064000000000002);
#1606=LINE('',#1603,#1605);
#1607=EDGE_CURVE('',#1602,#1594,#1606,.T.);
#1608=ORIENTED_EDGE('',*,*,#1607,.F.);
#1609=CARTESIAN_POINT('',(-2.475000000000001,-1.905000000000001,4.200000000000001));
#1610=DIRECTION('',(-0.063245490463747,-0.063245490463746,-0.995991975807034));
#1611=VECTOR('',#1610,2.008048306191861);
#1612=LINE('',#1609,#1611);
#1613=EDGE_CURVE('',#1584,#1602,#1612,.T.);
#1614=ORIENTED_EDGE('',*,*,#1613,.F.);
#1615=EDGE_LOOP('',(#1592,#1600,#1608,#1614));
#1616=FACE_OUTER_BOUND('',#1615,.T.);
#1617=ADVANCED_FACE('',(#1616),#1582,.T.);
#1618=CARTESIAN_POINT('',(-1.301000000000002,1.968500000000002,3.200000000000001));
#1619=DIRECTION('',(3.406584E-016,0.997989951724386,0.063372361934499));
#1620=DIRECTION('',(0.0,-0.063372361934499,0.997989951724386));
#1621=AXIS2_PLACEMENT_3D('',#1618,#1619,#1620);
#1622=PLANE('',#1621);
#1623=CARTESIAN_POINT('',(2.602000000000001,2.032,2.200000000000001));
#1624=VERTEX_POINT('',#1623);
#1625=CARTESIAN_POINT('',(-2.602000000000002,2.032000000000002,2.200000000000001));
#1626=DIRECTION('',(1.0,0.0,0.0));
#1627=VECTOR('',#1626,5.204000000000003);
#1628=LINE('',#1625,#1627);
#1629=EDGE_CURVE('',#1594,#1624,#1628,.T.);
#1630=ORIENTED_EDGE('',*,*,#1629,.F.);
#1631=ORIENTED_EDGE('',*,*,#1599,.F.);
#1632=CARTESIAN_POINT('',(2.475000000000001,1.904999999999999,4.200000000000001));
#1633=VERTEX_POINT('',#1632);
#1634=CARTESIAN_POINT('',(-2.475000000000001,1.905000000000002,4.200000000000001));
#1635=DIRECTION('',(1.0,0.0,0.0));
#1636=VECTOR('',#1635,4.950000000000003);
#1637=LINE('',#1634,#1636);
#1638=EDGE_CURVE('',#1586,#1633,#1637,.T.);
#1639=ORIENTED_EDGE('',*,*,#1638,.T.);
#1640=CARTESIAN_POINT('',(2.475000000000001,1.904999999999999,4.200000000000001));
#1641=DIRECTION('',(0.063245490463747,0.063245490463747,-0.995991975807034));
#1642=VECTOR('',#1641,2.008048306191861);
#1643=LINE('',#1640,#1642);
#1644=EDGE_CURVE('',#1633,#1624,#1643,.T.);
#1645=ORIENTED_EDGE('',*,*,#1644,.T.);
#1646=EDGE_LOOP('',(#1630,#1631,#1639,#1645));
#1647=FACE_OUTER_BOUND('',#1646,.T.);
#1648=ADVANCED_FACE('',(#1647),#1622,.T.);
#1649=CARTESIAN_POINT('',(2.538500000000001,1.016,3.200000000000001));
#1650=DIRECTION('',(0.997989951724386,-2.181085E-016,0.063372361934498));
#1651=DIRECTION('',(0.063372361934498,0.0,-0.997989951724386));
#1652=AXIS2_PLACEMENT_3D('',#1649,#1650,#1651);
#1653=PLANE('',#1652);
#1654=CARTESIAN_POINT('',(2.602,-2.032,2.200000000000001));
#1655=VERTEX_POINT('',#1654);
#1656=CARTESIAN_POINT('',(2.602000000000001,2.032,2.200000000000001));
#1657=DIRECTION('',(0.0,-1.0,0.0));
#1658=VECTOR('',#1657,4.064);
#1659=LINE('',#1656,#1658);
#1660=EDGE_CURVE('',#1624,#1655,#1659,.T.);
#1661=ORIENTED_EDGE('',*,*,#1660,.F.);
#1662=ORIENTED_EDGE('',*,*,#1644,.F.);
#1663=CARTESIAN_POINT('',(2.475000000000001,-1.905000000000001,4.200000000000001));
#1664=VERTEX_POINT('',#1663);
#1665=CARTESIAN_POINT('',(2.475000000000001,1.904999999999999,4.200000000000001));
#1666=DIRECTION('',(0.0,-1.0,0.0));
#1667=VECTOR('',#1666,3.810000000000001);
#1668=LINE('',#1665,#1667);
#1669=EDGE_CURVE('',#1633,#1664,#1668,.T.);
#1670=ORIENTED_EDGE('',*,*,#1669,.T.);
#1671=CARTESIAN_POINT('',(2.475000000000001,-1.905000000000001,4.200000000000001));
#1672=DIRECTION('',(0.063245490463747,-0.063245490463746,-0.995991975807034));
#1673=VECTOR('',#1672,2.008048306191861);
#1674=LINE('',#1671,#1673);
#1675=EDGE_CURVE('',#1664,#1655,#1674,.T.);
#1676=ORIENTED_EDGE('',*,*,#1675,.T.);
#1677=EDGE_LOOP('',(#1661,#1662,#1670,#1676));
#1678=FACE_OUTER_BOUND('',#1677,.T.);
#1679=ADVANCED_FACE('',(#1678),#1653,.T.);
#1680=CARTESIAN_POINT('',(1.301,-1.968500000000001,3.200000000000001));
#1681=DIRECTION('',(8.623733E-032,-0.997989951724386,0.063372361934498));
#1682=DIRECTION('',(0.0,-0.063372361934498,-0.997989951724386));
#1683=AXIS2_PLACEMENT_3D('',#1680,#1681,#1682);
#1684=PLANE('',#1683);
#1685=CARTESIAN_POINT('',(2.602,-2.032,2.200000000000001));
#1686=DIRECTION('',(-1.0,0.0,0.0));
#1687=VECTOR('',#1686,5.204000000000002);
#1688=LINE('',#1685,#1687);
#1689=EDGE_CURVE('',#1655,#1602,#1688,.T.);
#1690=ORIENTED_EDGE('',*,*,#1689,.F.);
#1691=ORIENTED_EDGE('',*,*,#1675,.F.);
#1692=CARTESIAN_POINT('',(2.475000000000001,-1.905000000000001,4.200000000000001));
#1693=DIRECTION('',(-1.0,0.0,0.0));
#1694=VECTOR('',#1693,4.950000000000002);
#1695=LINE('',#1692,#1694);
#1696=EDGE_CURVE('',#1664,#1584,#1695,.T.);
#1697=ORIENTED_EDGE('',*,*,#1696,.T.);
#1698=ORIENTED_EDGE('',*,*,#1613,.T.);
#1699=EDGE_LOOP('',(#1690,#1691,#1697,#1698));
#1700=FACE_OUTER_BOUND('',#1699,.T.);
#1701=ADVANCED_FACE('',(#1700),#1684,.T.);
#1702=CARTESIAN_POINT('',(0.0,0.0,4.200000000000001));
#1703=DIRECTION('',(0.0,0.0,1.0));
#1704=DIRECTION('',(1.0,0.0,0.0));
#1705=AXIS2_PLACEMENT_3D('',#1702,#1703,#1704);
#1706=PLANE('',#1705);
#1707=ORIENTED_EDGE('',*,*,#1591,.F.);
#1708=ORIENTED_EDGE('',*,*,#1696,.F.);
#1709=ORIENTED_EDGE('',*,*,#1669,.F.);
#1710=ORIENTED_EDGE('',*,*,#1638,.F.);
#1711=EDGE_LOOP('',(#1707,#1708,#1709,#1710));
#1712=FACE_OUTER_BOUND('',#1711,.T.);
#1713=ADVANCED_FACE('',(#1712),#1706,.T.);
#1714=CARTESIAN_POINT('',(0.0,0.0,2.200000000000002));
#1715=DIRECTION('',(0.0,0.0,1.0));
#1716=DIRECTION('',(1.0,0.0,0.0));
#1717=AXIS2_PLACEMENT_3D('',#1714,#1715,#1716);
#1718=PLANE('',#1717);
#1719=ORIENTED_EDGE('',*,*,#1629,.T.);
#1720=ORIENTED_EDGE('',*,*,#1660,.T.);
#1721=ORIENTED_EDGE('',*,*,#1689,.T.);
#1722=ORIENTED_EDGE('',*,*,#1607,.T.);
#1723=EDGE_LOOP('',(#1719,#1720,#1721,#1722));
#1724=FACE_OUTER_BOUND('',#1723,.T.);
#1725=ADVANCED_FACE('',(#1724),#1718,.F.);
#1726=CLOSED_SHELL('',(#1617,#1648,#1679,#1701,#1713,#1725));
#1727=MANIFOLD_SOLID_BREP('2C39',#1726);
#1728=COLOUR_RGB('152',0.0,0.325,0.65);
#1729=SURFACE_STYLE_USAGE(.BOTH.,#1730);
#1730=SURFACE_SIDE_STYLE('NONE',(#1731));
#1731=SURFACE_STYLE_FILL_AREA(#1732);
#1732=FILL_AREA_STYLE('NONE',(#1733));
#1733=FILL_AREA_STYLE_COLOUR('NONE',#1728);
#1734=PRESENTATION_STYLE_ASSIGNMENT((#1729));
#1735=STYLED_ITEM('NONE',(#1734),#1727);
#1736=ADVANCED_BREP_SHAPE_REPRESENTATION('ABSR1',(#234,#446,#560,#667,#774,#881,#988,#1095,#1266,#1373,#1576,#1727),#28);
#1737=SHAPE_REPRESENTATION_RELATIONSHIP('SRRPL1','',#1736,#62);
ENDSEC;
END-ISO-10303-21;
