ISO-10303-21;
HEADER;
/****************************************************************
 * Generated by software with PDElib inside                    *
 * PDElib Version v51a, created Fri 09/10/2010                  *
 * ITI Transcendata (http://www.transcendata.com/)              *
 ****************************************************************/
FILE_DESCRIPTION((''),'2;1');
FILE_NAME('IND_COILCRAFT_1206CS.stp','2013-08-14T14:39:51',(''),(''),'Mechanical Desktop 2011','Mechanical Desktop 2011',', , ');
FILE_SCHEMA(('AUTOMOTIVE_DESIGN { 1 2 10303 214 1 1 1 1 }'));
ENDSEC;
DATA;
#10=(NAMED_UNIT(*)PLANE_ANGLE_UNIT()SI_UNIT($,.RADIAN.));
#11=DIMENSIONAL_EXPONENTS(0.0,0.0,0.0,0.0,0.0,0.0,0.0);
#12=PLANE_ANGLE_MEASURE_WITH_UNIT(PLANE_ANGLE_MEASURE(0.0174532925),#10);
#16=(CONVERSION_BASED_UNIT('DEGREE',#12)NAMED_UNIT(#11)PLANE_ANGLE_UNIT());
#20=(NAMED_UNIT(*)SI_UNIT($,.STERADIAN.)SOLID_ANGLE_UNIT());
#24=(LENGTH_UNIT()NAMED_UNIT(*)SI_UNIT(.MILLI.,.METRE.));
#26=UNCERTAINTY_MEASURE_WITH_UNIT(LENGTH_MEASURE(0.000001),#24,'DISTANCE_ACCURACY_VALUE','');
#28=(GEOMETRIC_REPRESENTATION_CONTEXT(3)GLOBAL_UNCERTAINTY_ASSIGNED_CONTEXT((#26))GLOBAL_UNIT_ASSIGNED_CONTEXT((#16,#20,#24))REPRESENTATION_CONTEXT('','3D'));
#29=APPLICATION_CONTEXT('automotive design');
#30=APPLICATION_PROTOCOL_DEFINITION('INTERNATIONAL_STANDARD','automotive_design',1998,#29);
#31=PRODUCT_CONTEXT('3D Mechanical Parts',#29,'mechanical');
#32=PRODUCT('Product','Product','',(#31));
#33=PRODUCT_RELATED_PRODUCT_CATEGORY('part',$,(#32));
#34=PRODUCT_CATEGORY('part',$);
#35=PERSON('1','Design','Joe',$,$,$);
#36=ORGANIZATION($,'None','None');
#37=PERSON_AND_ORGANIZATION(#35,#36);
#38=PERSON_AND_ORGANIZATION_ROLE('design_owner');
#39=APPLIED_PERSON_AND_ORGANIZATION_ASSIGNMENT(#37,#38,(#32));
#40=PRODUCT_DEFINITION_FORMATION_WITH_SPECIFIED_SOURCE('None','',#32,.BOUGHT.);
#41=PERSON('2','Creator','Joe',$,$,$);
#42=ORGANIZATION($,'None','None');
#43=PERSON_AND_ORGANIZATION(#41,#42);
#44=PERSON_AND_ORGANIZATION_ROLE('creator');
#45=APPLIED_PERSON_AND_ORGANIZATION_ASSIGNMENT(#43,#44,(#40));
#46=PERSON('3','Supplier','Joe',$,$,$);
#47=ORGANIZATION($,'None','None');
#48=PERSON_AND_ORGANIZATION(#46,#47);
#49=PERSON_AND_ORGANIZATION_ROLE('design_supplier');
#50=APPLIED_PERSON_AND_ORGANIZATION_ASSIGNMENT(#48,#49,(#40));
#51=PRODUCT_DEFINITION_CONTEXT('part definition',#29,'design');
#52=PRODUCT_DEFINITION('None','',#40,#51);
#53=PERSON('4','Creator','Joe',$,$,$);
#54=ORGANIZATION($,'None','None');
#55=PERSON_AND_ORGANIZATION(#53,#54);
#56=PERSON_AND_ORGANIZATION_ROLE('creator');
#57=APPLIED_PERSON_AND_ORGANIZATION_ASSIGNMENT(#55,#56,(#52));
#58=CARTESIAN_POINT('NONE',(0.0,0.0,0.0));
#59=DIRECTION('NONE',(0.0,0.0,1.0));
#60=DIRECTION('NONE',(1.0,0.0,0.0));
#61=AXIS2_PLACEMENT_3D('NONE',#58,#59,#60);
#62=SHAPE_REPRESENTATION('SR1',(#61),#28);
#63=PRODUCT_DEFINITION_SHAPE('PDS1','Test Part',#52);
#64=SHAPE_DEFINITION_REPRESENTATION(#63,#62);
#65=CARTESIAN_POINT('',(1.016,0.735,0.2));
#66=CARTESIAN_POINT('',(1.016,-0.735,0.2));
#67=CARTESIAN_POINT('',(1.56,0.735,0.2));
#68=CARTESIAN_POINT('',(1.56,-0.735,0.2));
#69=B_SPLINE_SURFACE_WITH_KNOTS('',1,1,((#65,#67),(#66,#68)),.UNSPECIFIED.,.F.,.F.,.U.,(2,2),(2,2),(0.0,1.47),(0.0,0.544),.UNSPECIFIED.);
#70=CARTESIAN_POINT('',(1.56,-0.735,0.2));
#71=VERTEX_POINT('',#70);
#72=CARTESIAN_POINT('',(1.016,-0.735,0.2));
#73=VERTEX_POINT('',#72);
#74=CARTESIAN_POINT('',(1.56,-0.735,0.2));
#75=DIRECTION('',(-1.0,0.0,0.0));
#76=VECTOR('',#75,0.544);
#77=LINE('',#74,#76);
#78=EDGE_CURVE('',#71,#73,#77,.T.);
#79=ORIENTED_EDGE('',*,*,#78,.F.);
#80=CARTESIAN_POINT('',(1.56,0.735,0.2));
#81=VERTEX_POINT('',#80);
#82=CARTESIAN_POINT('',(1.56,0.735,0.2));
#83=DIRECTION('',(0.0,-1.0,0.0));
#84=VECTOR('',#83,1.47);
#85=LINE('',#82,#84);
#86=EDGE_CURVE('',#81,#71,#85,.T.);
#87=ORIENTED_EDGE('',*,*,#86,.F.);
#88=CARTESIAN_POINT('',(1.016,0.735,0.2));
#89=VERTEX_POINT('',#88);
#90=CARTESIAN_POINT('',(1.016,0.735,0.2));
#91=DIRECTION('',(1.0,0.0,0.0));
#92=VECTOR('',#91,0.544);
#93=LINE('',#90,#92);
#94=EDGE_CURVE('',#89,#81,#93,.T.);
#95=ORIENTED_EDGE('',*,*,#94,.F.);
#96=CARTESIAN_POINT('',(1.016,-0.735,0.2));
#97=DIRECTION('',(0.0,1.0,0.0));
#98=VECTOR('',#97,1.47);
#99=LINE('',#96,#98);
#100=EDGE_CURVE('',#73,#89,#99,.T.);
#101=ORIENTED_EDGE('',*,*,#100,.F.);
#102=EDGE_LOOP('',(#79,#87,#95,#101));
#103=FACE_OUTER_BOUND('',#102,.T.);
#104=ADVANCED_FACE('',(#103),#69,.T.);
#105=CARTESIAN_POINT('',(1.016,0.735,4.024558E-016));
#106=CARTESIAN_POINT('',(1.016,-0.735,4.024558E-016));
#107=CARTESIAN_POINT('',(1.56,0.735,4.024558E-016));
#108=CARTESIAN_POINT('',(1.56,-0.735,4.024558E-016));
#109=B_SPLINE_SURFACE_WITH_KNOTS('',1,1,((#105,#107),(#106,#108)),.UNSPECIFIED.,.F.,.F.,.U.,(2,2),(2,2),(0.0,1.47),(0.0,0.544),.UNSPECIFIED.);
#110=CARTESIAN_POINT('',(1.016,-0.735,4.024558E-016));
#111=VERTEX_POINT('',#110);
#112=CARTESIAN_POINT('',(1.56,-0.735,4.024558E-016));
#113=VERTEX_POINT('',#112);
#114=CARTESIAN_POINT('',(1.016,-0.735,4.024558E-016));
#115=DIRECTION('',(1.0,0.0,0.0));
#116=VECTOR('',#115,0.544);
#117=LINE('',#114,#116);
#118=EDGE_CURVE('',#111,#113,#117,.T.);
#119=ORIENTED_EDGE('',*,*,#118,.F.);
#120=CARTESIAN_POINT('',(1.016,0.735,4.024558E-016));
#121=VERTEX_POINT('',#120);
#122=CARTESIAN_POINT('',(1.016,0.735,4.024558E-016));
#123=DIRECTION('',(0.0,-1.0,0.0));
#124=VECTOR('',#123,1.47);
#125=LINE('',#122,#124);
#126=EDGE_CURVE('',#121,#111,#125,.T.);
#127=ORIENTED_EDGE('',*,*,#126,.F.);
#128=CARTESIAN_POINT('',(1.56,0.735,4.024558E-016));
#129=VERTEX_POINT('',#128);
#130=CARTESIAN_POINT('',(1.56,0.735,4.024558E-016));
#131=DIRECTION('',(-1.0,0.0,0.0));
#132=VECTOR('',#131,0.544);
#133=LINE('',#130,#132);
#134=EDGE_CURVE('',#129,#121,#133,.T.);
#135=ORIENTED_EDGE('',*,*,#134,.F.);
#136=CARTESIAN_POINT('',(1.56,-0.735,4.024558E-016));
#137=DIRECTION('',(0.0,1.0,0.0));
#138=VECTOR('',#137,1.47);
#139=LINE('',#136,#138);
#140=EDGE_CURVE('',#113,#129,#139,.T.);
#141=ORIENTED_EDGE('',*,*,#140,.F.);
#142=EDGE_LOOP('',(#119,#127,#135,#141));
#143=FACE_OUTER_BOUND('',#142,.T.);
#144=ADVANCED_FACE('',(#143),#109,.F.);
#145=CARTESIAN_POINT('',(1.56,-0.735,4.024558E-016));
#146=CARTESIAN_POINT('',(1.56,-0.735,0.2));
#147=CARTESIAN_POINT('',(1.56,0.735,4.024558E-016));
#148=CARTESIAN_POINT('',(1.56,0.735,0.2));
#149=B_SPLINE_SURFACE_WITH_KNOTS('',1,1,((#145,#147),(#146,#148)),.UNSPECIFIED.,.F.,.F.,.U.,(2,2),(2,2),(0.0,0.2),(0.0,1.47),.UNSPECIFIED.);
#150=CARTESIAN_POINT('',(1.56,0.735,0.2));
#151=DIRECTION('',(0.0,0.0,-1.0));
#152=VECTOR('',#151,0.2);
#153=LINE('',#150,#152);
#154=EDGE_CURVE('',#81,#129,#153,.T.);
#155=ORIENTED_EDGE('',*,*,#154,.F.);
#156=ORIENTED_EDGE('',*,*,#86,.T.);
#157=CARTESIAN_POINT('',(1.56,-0.735,0.2));
#158=DIRECTION('',(0.0,0.0,-1.0));
#159=VECTOR('',#158,0.2);
#160=LINE('',#157,#159);
#161=EDGE_CURVE('',#71,#113,#160,.T.);
#162=ORIENTED_EDGE('',*,*,#161,.T.);
#163=ORIENTED_EDGE('',*,*,#140,.T.);
#164=EDGE_LOOP('',(#155,#156,#162,#163));
#165=FACE_OUTER_BOUND('',#164,.T.);
#166=ADVANCED_FACE('',(#165),#149,.F.);
#167=CARTESIAN_POINT('',(1.016,0.735,0.2));
#168=CARTESIAN_POINT('',(1.016,0.735,3.885781E-016));
#169=CARTESIAN_POINT('',(1.56,0.735,0.2));
#170=CARTESIAN_POINT('',(1.56,0.735,3.885781E-016));
#171=B_SPLINE_SURFACE_WITH_KNOTS('',1,1,((#167,#169),(#168,#170)),.UNSPECIFIED.,.F.,.F.,.U.,(2,2),(2,2),(0.0,0.2),(0.0,0.544),.UNSPECIFIED.);
#172=CARTESIAN_POINT('',(1.016,0.735,0.2));
#173=DIRECTION('',(0.0,0.0,-1.0));
#174=VECTOR('',#173,0.2);
#175=LINE('',#172,#174);
#176=EDGE_CURVE('',#89,#121,#175,.T.);
#177=ORIENTED_EDGE('',*,*,#176,.F.);
#178=ORIENTED_EDGE('',*,*,#94,.T.);
#179=ORIENTED_EDGE('',*,*,#154,.T.);
#180=ORIENTED_EDGE('',*,*,#134,.T.);
#181=EDGE_LOOP('',(#177,#178,#179,#180));
#182=FACE_OUTER_BOUND('',#181,.T.);
#183=ADVANCED_FACE('',(#182),#171,.F.);
#184=CARTESIAN_POINT('',(1.016,-0.735,0.2));
#185=CARTESIAN_POINT('',(1.016,-0.735,3.885781E-016));
#186=CARTESIAN_POINT('',(1.016,0.735,0.2));
#187=CARTESIAN_POINT('',(1.016,0.735,3.885781E-016));
#188=B_SPLINE_SURFACE_WITH_KNOTS('',1,1,((#184,#186),(#185,#187)),.UNSPECIFIED.,.F.,.F.,.U.,(2,2),(2,2),(0.0,0.2),(0.0,1.47),.UNSPECIFIED.);
#189=CARTESIAN_POINT('',(1.016,-0.735,0.2));
#190=DIRECTION('',(0.0,0.0,-1.0));
#191=VECTOR('',#190,0.2);
#192=LINE('',#189,#191);
#193=EDGE_CURVE('',#73,#111,#192,.T.);
#194=ORIENTED_EDGE('',*,*,#193,.F.);
#195=ORIENTED_EDGE('',*,*,#100,.T.);
#196=ORIENTED_EDGE('',*,*,#176,.T.);
#197=ORIENTED_EDGE('',*,*,#126,.T.);
#198=EDGE_LOOP('',(#194,#195,#196,#197));
#199=FACE_OUTER_BOUND('',#198,.T.);
#200=ADVANCED_FACE('',(#199),#188,.F.);
#201=CARTESIAN_POINT('',(1.016,-0.735,4.024558E-016));
#202=CARTESIAN_POINT('',(1.016,-0.735,0.2));
#203=CARTESIAN_POINT('',(1.56,-0.735,4.024558E-016));
#204=CARTESIAN_POINT('',(1.56,-0.735,0.2));
#205=B_SPLINE_SURFACE_WITH_KNOTS('',1,1,((#201,#203),(#202,#204)),.UNSPECIFIED.,.F.,.F.,.U.,(2,2),(2,2),(0.0,0.2),(0.0,0.544),.UNSPECIFIED.);
#206=ORIENTED_EDGE('',*,*,#161,.F.);
#207=ORIENTED_EDGE('',*,*,#78,.T.);
#208=ORIENTED_EDGE('',*,*,#193,.T.);
#209=ORIENTED_EDGE('',*,*,#118,.T.);
#210=EDGE_LOOP('',(#206,#207,#208,#209));
#211=FACE_OUTER_BOUND('',#210,.T.);
#212=ADVANCED_FACE('',(#211),#205,.F.);
#213=CLOSED_SHELL('',(#104,#144,#166,#183,#200,#212));
#214=MANIFOLD_SOLID_BREP('1C1C',#213);
#215=COLOUR_RGB('253',0.732,0.732,0.732);
#216=SURFACE_STYLE_USAGE(.BOTH.,#217);
#217=SURFACE_SIDE_STYLE('NONE',(#218));
#218=SURFACE_STYLE_FILL_AREA(#219);
#219=FILL_AREA_STYLE('NONE',(#220));
#220=FILL_AREA_STYLE_COLOUR('NONE',#215);
#221=PRESENTATION_STYLE_ASSIGNMENT((#216));
#222=STYLED_ITEM('NONE',(#221),#214);
#223=MECHANICAL_DESIGN_GEOMETRIC_PRESENTATION_REPRESENTATION('NONE',(#222,#375,#599,#816,#974,#1482),#28);
#224=PRESENTATION_LAYER_ASSIGNMENT('3D','None',(#214,#374,#591,#815,#966,#1474));
#225=CARTESIAN_POINT('',(-1.56,0.735,0.2));
#226=CARTESIAN_POINT('',(-1.56,-0.735,0.2));
#227=CARTESIAN_POINT('',(-1.016,0.735,0.2));
#228=CARTESIAN_POINT('',(-1.016,-0.735,0.2));
#229=B_SPLINE_SURFACE_WITH_KNOTS('',1,1,((#225,#227),(#226,#228)),.UNSPECIFIED.,.F.,.F.,.U.,(2,2),(2,2),(0.0,1.47),(0.0,0.544),.UNSPECIFIED.);
#230=CARTESIAN_POINT('',(-1.016,-0.735,0.2));
#231=VERTEX_POINT('',#230);
#232=CARTESIAN_POINT('',(-1.56,-0.735,0.2));
#233=VERTEX_POINT('',#232);
#234=CARTESIAN_POINT('',(-1.016,-0.735,0.2));
#235=DIRECTION('',(-1.0,0.0,0.0));
#236=VECTOR('',#235,0.544);
#237=LINE('',#234,#236);
#238=EDGE_CURVE('',#231,#233,#237,.T.);
#239=ORIENTED_EDGE('',*,*,#238,.F.);
#240=CARTESIAN_POINT('',(-1.016,0.735,0.2));
#241=VERTEX_POINT('',#240);
#242=CARTESIAN_POINT('',(-1.016,0.735,0.2));
#243=DIRECTION('',(0.0,-1.0,0.0));
#244=VECTOR('',#243,1.47);
#245=LINE('',#242,#244);
#246=EDGE_CURVE('',#241,#231,#245,.T.);
#247=ORIENTED_EDGE('',*,*,#246,.F.);
#248=CARTESIAN_POINT('',(-1.56,0.735,0.2));
#249=VERTEX_POINT('',#248);
#250=CARTESIAN_POINT('',(-1.56,0.735,0.2));
#251=DIRECTION('',(1.0,0.0,0.0));
#252=VECTOR('',#251,0.544);
#253=LINE('',#250,#252);
#254=EDGE_CURVE('',#249,#241,#253,.T.);
#255=ORIENTED_EDGE('',*,*,#254,.F.);
#256=CARTESIAN_POINT('',(-1.56,-0.735,0.2));
#257=DIRECTION('',(0.0,1.0,0.0));
#258=VECTOR('',#257,1.47);
#259=LINE('',#256,#258);
#260=EDGE_CURVE('',#233,#249,#259,.T.);
#261=ORIENTED_EDGE('',*,*,#260,.F.);
#262=EDGE_LOOP('',(#239,#247,#255,#261));
#263=FACE_OUTER_BOUND('',#262,.T.);
#264=ADVANCED_FACE('',(#263),#229,.T.);
#265=CARTESIAN_POINT('',(-1.56,0.735,3.885781E-016));
#266=CARTESIAN_POINT('',(-1.56,-0.735,3.885781E-016));
#267=CARTESIAN_POINT('',(-1.016,0.735,3.885781E-016));
#268=CARTESIAN_POINT('',(-1.016,-0.735,3.885781E-016));
#269=B_SPLINE_SURFACE_WITH_KNOTS('',1,1,((#265,#267),(#266,#268)),.UNSPECIFIED.,.F.,.F.,.U.,(2,2),(2,2),(0.0,1.47),(0.0,0.544),.UNSPECIFIED.);
#270=CARTESIAN_POINT('',(-1.56,-0.735,3.885781E-016));
#271=VERTEX_POINT('',#270);
#272=CARTESIAN_POINT('',(-1.016,-0.735,3.885781E-016));
#273=VERTEX_POINT('',#272);
#274=CARTESIAN_POINT('',(-1.56,-0.735,3.885781E-016));
#275=DIRECTION('',(1.0,0.0,0.0));
#276=VECTOR('',#275,0.544);
#277=LINE('',#274,#276);
#278=EDGE_CURVE('',#271,#273,#277,.T.);
#279=ORIENTED_EDGE('',*,*,#278,.F.);
#280=CARTESIAN_POINT('',(-1.56,0.735,3.885781E-016));
#281=VERTEX_POINT('',#280);
#282=CARTESIAN_POINT('',(-1.56,0.735,3.885781E-016));
#283=DIRECTION('',(0.0,-1.0,0.0));
#284=VECTOR('',#283,1.47);
#285=LINE('',#282,#284);
#286=EDGE_CURVE('',#281,#271,#285,.T.);
#287=ORIENTED_EDGE('',*,*,#286,.F.);
#288=CARTESIAN_POINT('',(-1.016,0.735,3.885781E-016));
#289=VERTEX_POINT('',#288);
#290=CARTESIAN_POINT('',(-1.016,0.735,3.885781E-016));
#291=DIRECTION('',(-1.0,0.0,0.0));
#292=VECTOR('',#291,0.544);
#293=LINE('',#290,#292);
#294=EDGE_CURVE('',#289,#281,#293,.T.);
#295=ORIENTED_EDGE('',*,*,#294,.F.);
#296=CARTESIAN_POINT('',(-1.016,-0.735,3.885781E-016));
#297=DIRECTION('',(0.0,1.0,0.0));
#298=VECTOR('',#297,1.47);
#299=LINE('',#296,#298);
#300=EDGE_CURVE('',#273,#289,#299,.T.);
#301=ORIENTED_EDGE('',*,*,#300,.F.);
#302=EDGE_LOOP('',(#279,#287,#295,#301));
#303=FACE_OUTER_BOUND('',#302,.T.);
#304=ADVANCED_FACE('',(#303),#269,.F.);
#305=CARTESIAN_POINT('',(-1.016,-0.735,3.885781E-016));
#306=CARTESIAN_POINT('',(-1.016,-0.735,0.2));
#307=CARTESIAN_POINT('',(-1.016,0.735,3.885781E-016));
#308=CARTESIAN_POINT('',(-1.016,0.735,0.2));
#309=B_SPLINE_SURFACE_WITH_KNOTS('',1,1,((#305,#307),(#306,#308)),.UNSPECIFIED.,.F.,.F.,.U.,(2,2),(2,2),(0.0,0.2),(0.0,1.47),.UNSPECIFIED.);
#310=CARTESIAN_POINT('',(-1.016,0.735,0.2));
#311=DIRECTION('',(0.0,0.0,-1.0));
#312=VECTOR('',#311,0.2);
#313=LINE('',#310,#312);
#314=EDGE_CURVE('',#241,#289,#313,.T.);
#315=ORIENTED_EDGE('',*,*,#314,.F.);
#316=ORIENTED_EDGE('',*,*,#246,.T.);
#317=CARTESIAN_POINT('',(-1.016,-0.735,0.2));
#318=DIRECTION('',(0.0,0.0,-1.0));
#319=VECTOR('',#318,0.2);
#320=LINE('',#317,#319);
#321=EDGE_CURVE('',#231,#273,#320,.T.);
#322=ORIENTED_EDGE('',*,*,#321,.T.);
#323=ORIENTED_EDGE('',*,*,#300,.T.);
#324=EDGE_LOOP('',(#315,#316,#322,#323));
#325=FACE_OUTER_BOUND('',#324,.T.);
#326=ADVANCED_FACE('',(#325),#309,.F.);
#327=CARTESIAN_POINT('',(-1.56,0.735,0.2));
#328=CARTESIAN_POINT('',(-1.56,0.735,3.885781E-016));
#329=CARTESIAN_POINT('',(-1.016,0.735,0.2));
#330=CARTESIAN_POINT('',(-1.016,0.735,3.885781E-016));
#331=B_SPLINE_SURFACE_WITH_KNOTS('',1,1,((#327,#329),(#328,#330)),.UNSPECIFIED.,.F.,.F.,.U.,(2,2),(2,2),(0.0,0.2),(0.0,0.544),.UNSPECIFIED.);
#332=CARTESIAN_POINT('',(-1.56,0.735,0.2));
#333=DIRECTION('',(0.0,0.0,-1.0));
#334=VECTOR('',#333,0.2);
#335=LINE('',#332,#334);
#336=EDGE_CURVE('',#249,#281,#335,.T.);
#337=ORIENTED_EDGE('',*,*,#336,.F.);
#338=ORIENTED_EDGE('',*,*,#254,.T.);
#339=ORIENTED_EDGE('',*,*,#314,.T.);
#340=ORIENTED_EDGE('',*,*,#294,.T.);
#341=EDGE_LOOP('',(#337,#338,#339,#340));
#342=FACE_OUTER_BOUND('',#341,.T.);
#343=ADVANCED_FACE('',(#342),#331,.F.);
#344=CARTESIAN_POINT('',(-1.56,-0.735,0.2));
#345=CARTESIAN_POINT('',(-1.56,-0.735,3.885781E-016));
#346=CARTESIAN_POINT('',(-1.56,0.735,0.2));
#347=CARTESIAN_POINT('',(-1.56,0.735,3.885781E-016));
#348=B_SPLINE_SURFACE_WITH_KNOTS('',1,1,((#344,#346),(#345,#347)),.UNSPECIFIED.,.F.,.F.,.U.,(2,2),(2,2),(0.0,0.2),(0.0,1.47),.UNSPECIFIED.);
#349=CARTESIAN_POINT('',(-1.56,-0.735,0.2));
#350=DIRECTION('',(0.0,0.0,-1.0));
#351=VECTOR('',#350,0.2);
#352=LINE('',#349,#351);
#353=EDGE_CURVE('',#233,#271,#352,.T.);
#354=ORIENTED_EDGE('',*,*,#353,.F.);
#355=ORIENTED_EDGE('',*,*,#260,.T.);
#356=ORIENTED_EDGE('',*,*,#336,.T.);
#357=ORIENTED_EDGE('',*,*,#286,.T.);
#358=EDGE_LOOP('',(#354,#355,#356,#357));
#359=FACE_OUTER_BOUND('',#358,.T.);
#360=ADVANCED_FACE('',(#359),#348,.F.);
#361=CARTESIAN_POINT('',(-1.56,-0.735,3.885781E-016));
#362=CARTESIAN_POINT('',(-1.56,-0.735,0.2));
#363=CARTESIAN_POINT('',(-1.016,-0.735,3.885781E-016));
#364=CARTESIAN_POINT('',(-1.016,-0.735,0.2));
#365=B_SPLINE_SURFACE_WITH_KNOTS('',1,1,((#361,#363),(#362,#364)),.UNSPECIFIED.,.F.,.F.,.U.,(2,2),(2,2),(0.0,0.2),(0.0,0.544),.UNSPECIFIED.);
#366=ORIENTED_EDGE('',*,*,#321,.F.);
#367=ORIENTED_EDGE('',*,*,#238,.T.);
#368=ORIENTED_EDGE('',*,*,#353,.T.);
#369=ORIENTED_EDGE('',*,*,#278,.T.);
#370=EDGE_LOOP('',(#366,#367,#368,#369));
#371=FACE_OUTER_BOUND('',#370,.T.);
#372=ADVANCED_FACE('',(#371),#365,.F.);
#373=CLOSED_SHELL('',(#264,#304,#326,#343,#360,#372));
#374=MANIFOLD_SOLID_BREP('1C18',#373);
#375=STYLED_ITEM('NONE',(#221),#374);
#376=CARTESIAN_POINT('',(-1.55,0.735,0.2));
#377=CARTESIAN_POINT('',(-1.55,-0.735,0.2));
#378=CARTESIAN_POINT('',(-1.016,0.735,0.2));
#379=CARTESIAN_POINT('',(-1.016,-0.735,0.2));
#380=B_SPLINE_SURFACE_WITH_KNOTS('',1,1,((#376,#378),(#377,#379)),.UNSPECIFIED.,.F.,.F.,.U.,(2,2),(2,2),(0.0,1.47),(0.0,0.533999999999999),.UNSPECIFIED.);
#381=CARTESIAN_POINT('',(-1.55,-0.735,0.2));
#382=VERTEX_POINT('',#381);
#383=CARTESIAN_POINT('',(-1.55,0.735,0.2));
#384=VERTEX_POINT('',#383);
#385=CARTESIAN_POINT('',(-1.55,-0.735,0.2));
#386=DIRECTION('',(0.0,1.0,0.0));
#387=VECTOR('',#386,1.47);
#388=LINE('',#385,#387);
#389=EDGE_CURVE('',#382,#384,#388,.T.);
#390=ORIENTED_EDGE('',*,*,#389,.T.);
#391=CARTESIAN_POINT('',(-1.016,0.735,0.2));
#392=VERTEX_POINT('',#391);
#393=CARTESIAN_POINT('',(-1.016,0.735,0.2));
#394=DIRECTION('',(-1.0,0.0,0.0));
#395=VECTOR('',#394,0.533999999999999);
#396=LINE('',#393,#395);
#397=EDGE_CURVE('',#392,#384,#396,.T.);
#398=ORIENTED_EDGE('',*,*,#397,.F.);
#399=CARTESIAN_POINT('',(-1.016,-0.735,0.2));
#400=VERTEX_POINT('',#399);
#401=CARTESIAN_POINT('',(-1.016,0.735,0.2));
#402=DIRECTION('',(0.0,-1.0,0.0));
#403=VECTOR('',#402,1.47);
#404=LINE('',#401,#403);
#405=EDGE_CURVE('',#392,#400,#404,.T.);
#406=ORIENTED_EDGE('',*,*,#405,.T.);
#407=CARTESIAN_POINT('',(-1.55,-0.735,0.2));
#408=DIRECTION('',(1.0,0.0,0.0));
#409=VECTOR('',#408,0.533999999999999);
#410=LINE('',#407,#409);
#411=EDGE_CURVE('',#382,#400,#410,.T.);
#412=ORIENTED_EDGE('',*,*,#411,.F.);
#413=EDGE_LOOP('',(#390,#398,#406,#412));
#414=FACE_OUTER_BOUND('',#413,.T.);
#415=ADVANCED_FACE('',(#414),#380,.F.);
#416=CARTESIAN_POINT('',(-1.016,-0.735,0.127));
#417=CARTESIAN_POINT('',(-1.016,-0.735,0.2));
#418=CARTESIAN_POINT('',(-1.016,0.735,0.127));
#419=CARTESIAN_POINT('',(-1.016,0.735,0.2));
#420=B_SPLINE_SURFACE_WITH_KNOTS('',1,1,((#416,#418),(#417,#419)),.UNSPECIFIED.,.F.,.F.,.U.,(2,2),(2,2),(0.0,0.073),(0.0,1.47),.UNSPECIFIED.);
#421=CARTESIAN_POINT('',(-1.016,-0.735,0.127));
#422=VERTEX_POINT('',#421);
#423=CARTESIAN_POINT('',(-1.016,0.735,0.127));
#424=VERTEX_POINT('',#423);
#425=CARTESIAN_POINT('',(-1.016,-0.735,0.127));
#426=DIRECTION('',(0.0,1.0,0.0));
#427=VECTOR('',#426,1.47);
#428=LINE('',#425,#427);
#429=EDGE_CURVE('',#422,#424,#428,.T.);
#430=ORIENTED_EDGE('',*,*,#429,.F.);
#431=CARTESIAN_POINT('',(-1.016000000000001,-0.735,0.2));
#432=DIRECTION('',(0.0,0.0,-1.0));
#433=VECTOR('',#432,0.073);
#434=LINE('',#431,#433);
#435=EDGE_CURVE('',#400,#422,#434,.T.);
#436=ORIENTED_EDGE('',*,*,#435,.F.);
#437=ORIENTED_EDGE('',*,*,#405,.F.);
#438=CARTESIAN_POINT('',(-1.016000000000001,0.735,0.127));
#439=DIRECTION('',(0.0,0.0,1.0));
#440=VECTOR('',#439,0.073);
#441=LINE('',#438,#440);
#442=EDGE_CURVE('',#424,#392,#441,.T.);
#443=ORIENTED_EDGE('',*,*,#442,.F.);
#444=EDGE_LOOP('',(#430,#436,#437,#443));
#445=FACE_OUTER_BOUND('',#444,.T.);
#446=ADVANCED_FACE('',(#445),#420,.T.);
#447=CARTESIAN_POINT('',(-0.824428128241156,-0.735,1.0));
#448=CARTESIAN_POINT('',(-0.824428128241156,-0.735,0.127));
#449=CARTESIAN_POINT('',(-1.55,-0.735,1.0));
#450=CARTESIAN_POINT('',(-1.549999999999999,-0.735,0.127));
#451=B_SPLINE_SURFACE_WITH_KNOTS('',1,1,((#447,#449),(#448,#450)),.UNSPECIFIED.,.F.,.F.,.U.,(2,2),(2,2),(0.0,0.873),(0.0,0.725571871758843),.UNSPECIFIED.);
#452=ORIENTED_EDGE('',*,*,#411,.T.);
#453=ORIENTED_EDGE('',*,*,#435,.T.);
#454=CARTESIAN_POINT('',(-0.824428128241156,-0.735,0.127));
#455=VERTEX_POINT('',#454);
#456=CARTESIAN_POINT('',(-1.016,-0.735,0.127));
#457=DIRECTION('',(1.0,0.0,0.0));
#458=VECTOR('',#457,0.191571871758844);
#459=LINE('',#456,#458);
#460=EDGE_CURVE('',#422,#455,#459,.T.);
#461=ORIENTED_EDGE('',*,*,#460,.T.);
#462=CARTESIAN_POINT('',(-0.824428128241156,-0.735,1.0));
#463=VERTEX_POINT('',#462);
#464=CARTESIAN_POINT('',(-0.824428128241156,-0.735,0.127));
#465=DIRECTION('',(0.0,0.0,1.0));
#466=VECTOR('',#465,0.873);
#467=LINE('',#464,#466);
#468=EDGE_CURVE('',#455,#463,#467,.T.);
#469=ORIENTED_EDGE('',*,*,#468,.T.);
#470=CARTESIAN_POINT('',(-1.549999999999999,-0.735,1.0));
#471=VERTEX_POINT('',#470);
#472=CARTESIAN_POINT('',(-0.824428128241156,-0.735,1.0));
#473=DIRECTION('',(-1.0,0.0,0.0));
#474=VECTOR('',#473,0.725571871758843);
#475=LINE('',#472,#474);
#476=EDGE_CURVE('',#463,#471,#475,.T.);
#477=ORIENTED_EDGE('',*,*,#476,.T.);
#478=CARTESIAN_POINT('',(-1.549999999999999,-0.735,1.0));
#479=DIRECTION('',(0.0,0.0,-1.0));
#480=VECTOR('',#479,0.8);
#481=LINE('',#478,#480);
#482=EDGE_CURVE('',#471,#382,#481,.T.);
#483=ORIENTED_EDGE('',*,*,#482,.T.);
#484=EDGE_LOOP('',(#452,#453,#461,#469,#477,#483));
#485=FACE_OUTER_BOUND('',#484,.T.);
#486=ADVANCED_FACE('',(#485),#451,.F.);
#487=CARTESIAN_POINT('',(-0.824428128241156,0.735,0.127));
#488=CARTESIAN_POINT('',(-0.824428128241156,-0.735,0.127));
#489=CARTESIAN_POINT('',(-1.016,0.735,0.127));
#490=CARTESIAN_POINT('',(-1.016,-0.735,0.127));
#491=B_SPLINE_SURFACE_WITH_KNOTS('',1,1,((#487,#489),(#488,#490)),.UNSPECIFIED.,.F.,.F.,.U.,(2,2),(2,2),(0.0,1.47),(0.0,0.191571871758844),.UNSPECIFIED.);
#492=CARTESIAN_POINT('',(-0.824428128241156,0.734999999999999,0.127));
#493=VERTEX_POINT('',#492);
#494=CARTESIAN_POINT('',(-0.824428128241156,0.735,0.127));
#495=DIRECTION('',(-1.0,0.0,0.0));
#496=VECTOR('',#495,0.191571871758844);
#497=LINE('',#494,#496);
#498=EDGE_CURVE('',#493,#424,#497,.T.);
#499=ORIENTED_EDGE('',*,*,#498,.F.);
#500=CARTESIAN_POINT('',(-0.824428128241156,-0.735,0.127));
#501=DIRECTION('',(0.0,1.0,0.0));
#502=VECTOR('',#501,1.47);
#503=LINE('',#500,#502);
#504=EDGE_CURVE('',#455,#493,#503,.T.);
#505=ORIENTED_EDGE('',*,*,#504,.F.);
#506=ORIENTED_EDGE('',*,*,#460,.F.);
#507=ORIENTED_EDGE('',*,*,#429,.T.);
#508=EDGE_LOOP('',(#499,#505,#506,#507));
#509=FACE_OUTER_BOUND('',#508,.T.);
#510=ADVANCED_FACE('',(#509),#491,.T.);
#511=CARTESIAN_POINT('',(-1.549999999999999,0.735,1.0));
#512=CARTESIAN_POINT('',(-1.55,0.735,0.2));
#513=CARTESIAN_POINT('',(-1.549999999999999,-0.735,1.0));
#514=CARTESIAN_POINT('',(-1.549999999999999,-0.735,0.2));
#515=B_SPLINE_SURFACE_WITH_KNOTS('',1,1,((#511,#513),(#512,#514)),.UNSPECIFIED.,.F.,.F.,.U.,(2,2),(2,2),(0.0,0.8),(0.0,1.47),.UNSPECIFIED.);
#516=CARTESIAN_POINT('',(-1.549999999999999,0.734999999999999,1.0));
#517=VERTEX_POINT('',#516);
#518=CARTESIAN_POINT('',(-1.55,0.735,0.2));
#519=DIRECTION('',(0.0,0.0,1.0));
#520=VECTOR('',#519,0.8);
#521=LINE('',#518,#520);
#522=EDGE_CURVE('',#384,#517,#521,.T.);
#523=ORIENTED_EDGE('',*,*,#522,.F.);
#524=ORIENTED_EDGE('',*,*,#389,.F.);
#525=ORIENTED_EDGE('',*,*,#482,.F.);
#526=CARTESIAN_POINT('',(-1.549999999999999,-0.735,1.0));
#527=DIRECTION('',(0.0,1.0,0.0));
#528=VECTOR('',#527,1.47);
#529=LINE('',#526,#528);
#530=EDGE_CURVE('',#471,#517,#529,.T.);
#531=ORIENTED_EDGE('',*,*,#530,.T.);
#532=EDGE_LOOP('',(#523,#524,#525,#531));
#533=FACE_OUTER_BOUND('',#532,.T.);
#534=ADVANCED_FACE('',(#533),#515,.T.);
#535=CARTESIAN_POINT('',(-0.824428128241156,-0.735,1.0));
#536=CARTESIAN_POINT('',(-0.824428128241156,0.734999999999999,1.0));
#537=CARTESIAN_POINT('',(-1.549999999999999,-0.735,1.0));
#538=CARTESIAN_POINT('',(-1.549999999999999,0.734999999999999,1.0));
#539=B_SPLINE_SURFACE_WITH_KNOTS('',1,1,((#535,#537),(#536,#538)),.UNSPECIFIED.,.F.,.F.,.U.,(2,2),(2,2),(0.0,1.47),(0.0,0.725571871758843),.UNSPECIFIED.);
#540=CARTESIAN_POINT('',(-0.824428128241156,0.734999999999999,1.0));
#541=VERTEX_POINT('',#540);
#542=CARTESIAN_POINT('',(-1.549999999999999,0.734999999999999,1.0));
#543=DIRECTION('',(1.0,0.0,0.0));
#544=VECTOR('',#543,0.725571871758843);
#545=LINE('',#542,#544);
#546=EDGE_CURVE('',#517,#541,#545,.T.);
#547=ORIENTED_EDGE('',*,*,#546,.F.);
#548=ORIENTED_EDGE('',*,*,#530,.F.);
#549=ORIENTED_EDGE('',*,*,#476,.F.);
#550=CARTESIAN_POINT('',(-0.824428128241156,-0.735,1.0));
#551=DIRECTION('',(0.0,1.0,0.0));
#552=VECTOR('',#551,1.47);
#553=LINE('',#550,#552);
#554=EDGE_CURVE('',#463,#541,#553,.T.);
#555=ORIENTED_EDGE('',*,*,#554,.T.);
#556=EDGE_LOOP('',(#547,#548,#549,#555));
#557=FACE_OUTER_BOUND('',#556,.T.);
#558=ADVANCED_FACE('',(#557),#539,.T.);
#559=CARTESIAN_POINT('',(-0.824428128241156,0.735,0.127));
#560=CARTESIAN_POINT('',(-0.824428128241156,0.735,1.0));
#561=CARTESIAN_POINT('',(-0.824428128241156,-0.735,0.127));
#562=CARTESIAN_POINT('',(-0.824428128241156,-0.735,1.0));
#563=B_SPLINE_SURFACE_WITH_KNOTS('',1,1,((#559,#561),(#560,#562)),.UNSPECIFIED.,.F.,.F.,.U.,(2,2),(2,2),(0.0,0.873),(0.0,1.47),.UNSPECIFIED.);
#564=CARTESIAN_POINT('',(-0.824428128241156,0.734999999999999,1.0));
#565=DIRECTION('',(0.0,0.0,-1.0));
#566=VECTOR('',#565,0.873);
#567=LINE('',#564,#566);
#568=EDGE_CURVE('',#541,#493,#567,.T.);
#569=ORIENTED_EDGE('',*,*,#568,.F.);
#570=ORIENTED_EDGE('',*,*,#554,.F.);
#571=ORIENTED_EDGE('',*,*,#468,.F.);
#572=ORIENTED_EDGE('',*,*,#504,.T.);
#573=EDGE_LOOP('',(#569,#570,#571,#572));
#574=FACE_OUTER_BOUND('',#573,.T.);
#575=ADVANCED_FACE('',(#574),#563,.T.);
#576=CARTESIAN_POINT('',(-0.824428128241156,0.734999999999999,1.0));
#577=CARTESIAN_POINT('',(-0.824428128241156,0.735,0.127));
#578=CARTESIAN_POINT('',(-1.55,0.734999999999999,1.0));
#579=CARTESIAN_POINT('',(-1.549999999999999,0.735,0.127));
#580=B_SPLINE_SURFACE_WITH_KNOTS('',1,1,((#576,#578),(#577,#579)),.UNSPECIFIED.,.F.,.F.,.U.,(2,2),(2,2),(0.0,0.873),(0.0,0.725571871758843),.UNSPECIFIED.);
#581=ORIENTED_EDGE('',*,*,#397,.T.);
#582=ORIENTED_EDGE('',*,*,#522,.T.);
#583=ORIENTED_EDGE('',*,*,#546,.T.);
#584=ORIENTED_EDGE('',*,*,#568,.T.);
#585=ORIENTED_EDGE('',*,*,#498,.T.);
#586=ORIENTED_EDGE('',*,*,#442,.T.);
#587=EDGE_LOOP('',(#581,#582,#583,#584,#585,#586));
#588=FACE_OUTER_BOUND('',#587,.T.);
#589=ADVANCED_FACE('',(#588),#580,.T.);
#590=CLOSED_SHELL('',(#415,#446,#486,#510,#534,#558,#575,#589));
#591=MANIFOLD_SOLID_BREP('1C08',#590);
#592=COLOUR_RGB('254',0.866,0.866,0.866);
#593=SURFACE_STYLE_USAGE(.BOTH.,#594);
#594=SURFACE_SIDE_STYLE('NONE',(#595));
#595=SURFACE_STYLE_FILL_AREA(#596);
#596=FILL_AREA_STYLE('NONE',(#597));
#597=FILL_AREA_STYLE_COLOUR('NONE',#592);
#598=PRESENTATION_STYLE_ASSIGNMENT((#593));
#599=STYLED_ITEM('NONE',(#598),#591);
#600=CARTESIAN_POINT('',(1.016,0.735,0.2));
#601=CARTESIAN_POINT('',(1.016,-0.735,0.2));
#602=CARTESIAN_POINT('',(1.55,0.735,0.2));
#603=CARTESIAN_POINT('',(1.55,-0.735,0.2));
#604=B_SPLINE_SURFACE_WITH_KNOTS('',1,1,((#600,#602),(#601,#603)),.UNSPECIFIED.,.F.,.F.,.U.,(2,2),(2,2),(0.0,1.47),(0.0,0.533999999999999),.UNSPECIFIED.);
#605=CARTESIAN_POINT('',(1.55,-0.735,0.2));
#606=VERTEX_POINT('',#605);
#607=CARTESIAN_POINT('',(1.55,0.734999999999999,0.2));
#608=VERTEX_POINT('',#607);
#609=CARTESIAN_POINT('',(1.55,-0.735,0.2));
#610=DIRECTION('',(0.0,1.0,0.0));
#611=VECTOR('',#610,1.47);
#612=LINE('',#609,#611);
#613=EDGE_CURVE('',#606,#608,#612,.T.);
#614=ORIENTED_EDGE('',*,*,#613,.F.);
#615=CARTESIAN_POINT('',(1.016,-0.735,0.2));
#616=VERTEX_POINT('',#615);
#617=CARTESIAN_POINT('',(1.016,-0.735,0.2));
#618=DIRECTION('',(1.0,0.0,0.0));
#619=VECTOR('',#618,0.533999999999999);
#620=LINE('',#617,#619);
#621=EDGE_CURVE('',#616,#606,#620,.T.);
#622=ORIENTED_EDGE('',*,*,#621,.F.);
#623=CARTESIAN_POINT('',(1.016,0.735,0.2));
#624=VERTEX_POINT('',#623);
#625=CARTESIAN_POINT('',(1.016,-0.735,0.2));
#626=DIRECTION('',(0.0,1.0,0.0));
#627=VECTOR('',#626,1.47);
#628=LINE('',#625,#627);
#629=EDGE_CURVE('',#616,#624,#628,.T.);
#630=ORIENTED_EDGE('',*,*,#629,.T.);
#631=CARTESIAN_POINT('',(1.55,0.734999999999999,0.2));
#632=DIRECTION('',(-1.0,0.0,0.0));
#633=VECTOR('',#632,0.533999999999999);
#634=LINE('',#631,#633);
#635=EDGE_CURVE('',#608,#624,#634,.T.);
#636=ORIENTED_EDGE('',*,*,#635,.F.);
#637=EDGE_LOOP('',(#614,#622,#630,#636));
#638=FACE_OUTER_BOUND('',#637,.T.);
#639=ADVANCED_FACE('',(#638),#604,.F.);
#640=CARTESIAN_POINT('',(1.016,-0.735,0.2));
#641=CARTESIAN_POINT('',(1.016,-0.735,0.127));
#642=CARTESIAN_POINT('',(1.016,0.735,0.2));
#643=CARTESIAN_POINT('',(1.016,0.735,0.127));
#644=B_SPLINE_SURFACE_WITH_KNOTS('',1,1,((#640,#642),(#641,#643)),.UNSPECIFIED.,.F.,.F.,.U.,(2,2),(2,2),(0.0,0.073),(0.0,1.47),.UNSPECIFIED.);
#645=CARTESIAN_POINT('',(1.016,-0.735,0.127));
#646=VERTEX_POINT('',#645);
#647=CARTESIAN_POINT('',(1.016,0.734999999999999,0.127));
#648=VERTEX_POINT('',#647);
#649=CARTESIAN_POINT('',(1.016,-0.735,0.127));
#650=DIRECTION('',(0.0,1.0,0.0));
#651=VECTOR('',#650,1.47);
#652=LINE('',#649,#651);
#653=EDGE_CURVE('',#646,#648,#652,.T.);
#654=ORIENTED_EDGE('',*,*,#653,.T.);
#655=CARTESIAN_POINT('',(1.016000000000001,0.734999999999999,0.2));
#656=DIRECTION('',(0.0,0.0,-1.0));
#657=VECTOR('',#656,0.073);
#658=LINE('',#655,#657);
#659=EDGE_CURVE('',#624,#648,#658,.T.);
#660=ORIENTED_EDGE('',*,*,#659,.F.);
#661=ORIENTED_EDGE('',*,*,#629,.F.);
#662=CARTESIAN_POINT('',(1.016000000000001,-0.735,0.127));
#663=DIRECTION('',(0.0,0.0,1.0));
#664=VECTOR('',#663,0.073);
#665=LINE('',#662,#664);
#666=EDGE_CURVE('',#646,#616,#665,.T.);
#667=ORIENTED_EDGE('',*,*,#666,.F.);
#668=EDGE_LOOP('',(#654,#660,#661,#667));
#669=FACE_OUTER_BOUND('',#668,.T.);
#670=ADVANCED_FACE('',(#669),#644,.T.);
#671=CARTESIAN_POINT('',(1.197440244355878,0.734999999999999,0.5002261802353));
#672=DIRECTION('',(0.0,1.0,0.0));
#673=DIRECTION('',(0.0,0.0,-1.0));
#674=AXIS2_PLACEMENT_3D('',#671,#672,#673);
#675=PLANE('',#674);
#676=ORIENTED_EDGE('',*,*,#635,.T.);
#677=ORIENTED_EDGE('',*,*,#659,.T.);
#678=CARTESIAN_POINT('',(0.824428128241156,0.734999999999999,0.127));
#679=VERTEX_POINT('',#678);
#680=CARTESIAN_POINT('',(0.824428128241156,0.735,0.127));
#681=DIRECTION('',(1.0,0.0,0.0));
#682=VECTOR('',#681,0.191571871758844);
#683=LINE('',#680,#682);
#684=EDGE_CURVE('',#679,#648,#683,.T.);
#685=ORIENTED_EDGE('',*,*,#684,.F.);
#686=CARTESIAN_POINT('',(0.824428128241156,0.734999999999999,1.0));
#687=VERTEX_POINT('',#686);
#688=CARTESIAN_POINT('',(0.824428128241156,0.734999999999999,1.0));
#689=DIRECTION('',(0.0,0.0,-1.0));
#690=VECTOR('',#689,0.873);
#691=LINE('',#688,#690);
#692=EDGE_CURVE('',#687,#679,#691,.T.);
#693=ORIENTED_EDGE('',*,*,#692,.F.);
#694=CARTESIAN_POINT('',(1.549999999999999,0.734999999999999,1.0));
#695=VERTEX_POINT('',#694);
#696=CARTESIAN_POINT('',(1.549999999999999,0.734999999999999,1.0));
#697=DIRECTION('',(-1.0,0.0,0.0));
#698=VECTOR('',#697,0.725571871758843);
#699=LINE('',#696,#698);
#700=EDGE_CURVE('',#695,#687,#699,.T.);
#701=ORIENTED_EDGE('',*,*,#700,.F.);
#702=CARTESIAN_POINT('',(1.55,0.735,0.2));
#703=DIRECTION('',(0.0,0.0,1.0));
#704=VECTOR('',#703,0.8);
#705=LINE('',#702,#704);
#706=EDGE_CURVE('',#608,#695,#705,.T.);
#707=ORIENTED_EDGE('',*,*,#706,.F.);
#708=EDGE_LOOP('',(#676,#677,#685,#693,#701,#707));
#709=FACE_OUTER_BOUND('',#708,.T.);
#710=ADVANCED_FACE('',(#709),#675,.T.);
#711=CARTESIAN_POINT('',(0.824428128241156,-0.735,0.127));
#712=DIRECTION('',(0.0,0.0,-1.0));
#713=DIRECTION('',(0.0,-1.0,0.0));
#714=AXIS2_PLACEMENT_3D('',#711,#712,#713);
#715=PLANE('',#714);
#716=ORIENTED_EDGE('',*,*,#684,.T.);
#717=ORIENTED_EDGE('',*,*,#653,.F.);
#718=CARTESIAN_POINT('',(0.824428128241156,-0.735,0.127));
#719=VERTEX_POINT('',#718);
#720=CARTESIAN_POINT('',(1.016,-0.735,0.127));
#721=DIRECTION('',(-1.0,0.0,0.0));
#722=VECTOR('',#721,0.191571871758844);
#723=LINE('',#720,#722);
#724=EDGE_CURVE('',#646,#719,#723,.T.);
#725=ORIENTED_EDGE('',*,*,#724,.T.);
#726=CARTESIAN_POINT('',(0.824428128241156,-0.735,0.127));
#727=DIRECTION('',(0.0,1.0,0.0));
#728=VECTOR('',#727,1.47);
#729=LINE('',#726,#728);
#730=EDGE_CURVE('',#719,#679,#729,.T.);
#731=ORIENTED_EDGE('',*,*,#730,.T.);
#732=EDGE_LOOP('',(#716,#717,#725,#731));
#733=FACE_OUTER_BOUND('',#732,.T.);
#734=ADVANCED_FACE('',(#733),#715,.T.);
#735=CARTESIAN_POINT('',(1.55,-0.735,0.2));
#736=DIRECTION('',(1.0,0.0,0.0));
#737=DIRECTION('',(0.0,0.0,-1.0));
#738=AXIS2_PLACEMENT_3D('',#735,#736,#737);
#739=PLANE('',#738);
#740=ORIENTED_EDGE('',*,*,#706,.T.);
#741=CARTESIAN_POINT('',(1.549999999999999,-0.735,1.0));
#742=VERTEX_POINT('',#741);
#743=CARTESIAN_POINT('',(1.549999999999999,-0.735,1.0));
#744=DIRECTION('',(0.0,1.0,0.0));
#745=VECTOR('',#744,1.47);
#746=LINE('',#743,#745);
#747=EDGE_CURVE('',#742,#695,#746,.T.);
#748=ORIENTED_EDGE('',*,*,#747,.F.);
#749=CARTESIAN_POINT('',(1.549999999999999,-0.735,1.0));
#750=DIRECTION('',(0.0,0.0,-1.0));
#751=VECTOR('',#750,0.8);
#752=LINE('',#749,#751);
#753=EDGE_CURVE('',#742,#606,#752,.T.);
#754=ORIENTED_EDGE('',*,*,#753,.T.);
#755=ORIENTED_EDGE('',*,*,#613,.T.);
#756=EDGE_LOOP('',(#740,#748,#754,#755));
#757=FACE_OUTER_BOUND('',#756,.T.);
#758=ADVANCED_FACE('',(#757),#739,.T.);
#759=CARTESIAN_POINT('',(1.549999999999999,-0.735,1.0));
#760=DIRECTION('',(0.0,0.0,1.0));
#761=DIRECTION('',(0.0,1.0,0.0));
#762=AXIS2_PLACEMENT_3D('',#759,#760,#761);
#763=PLANE('',#762);
#764=ORIENTED_EDGE('',*,*,#700,.T.);
#765=CARTESIAN_POINT('',(0.824428128241156,-0.735,1.0));
#766=VERTEX_POINT('',#765);
#767=CARTESIAN_POINT('',(0.824428128241156,-0.735,1.0));
#768=DIRECTION('',(0.0,1.0,0.0));
#769=VECTOR('',#768,1.47);
#770=LINE('',#767,#769);
#771=EDGE_CURVE('',#766,#687,#770,.T.);
#772=ORIENTED_EDGE('',*,*,#771,.F.);
#773=CARTESIAN_POINT('',(0.824428128241156,-0.735,1.0));
#774=DIRECTION('',(1.0,0.0,0.0));
#775=VECTOR('',#774,0.725571871758843);
#776=LINE('',#773,#775);
#777=EDGE_CURVE('',#766,#742,#776,.T.);
#778=ORIENTED_EDGE('',*,*,#777,.T.);
#779=ORIENTED_EDGE('',*,*,#747,.T.);
#780=EDGE_LOOP('',(#764,#772,#778,#779));
#781=FACE_OUTER_BOUND('',#780,.T.);
#782=ADVANCED_FACE('',(#781),#763,.T.);
#783=CARTESIAN_POINT('',(0.824428128241156,-0.735,1.0));
#784=DIRECTION('',(-1.0,0.0,0.0));
#785=DIRECTION('',(0.0,0.0,1.0));
#786=AXIS2_PLACEMENT_3D('',#783,#784,#785);
#787=PLANE('',#786);
#788=ORIENTED_EDGE('',*,*,#692,.T.);
#789=ORIENTED_EDGE('',*,*,#730,.F.);
#790=CARTESIAN_POINT('',(0.824428128241156,-0.735,0.127));
#791=DIRECTION('',(0.0,0.0,1.0));
#792=VECTOR('',#791,0.873);
#793=LINE('',#790,#792);
#794=EDGE_CURVE('',#719,#766,#793,.T.);
#795=ORIENTED_EDGE('',*,*,#794,.T.);
#796=ORIENTED_EDGE('',*,*,#771,.T.);
#797=EDGE_LOOP('',(#788,#789,#795,#796));
#798=FACE_OUTER_BOUND('',#797,.T.);
#799=ADVANCED_FACE('',(#798),#787,.T.);
#800=CARTESIAN_POINT('',(1.197440244355878,-0.735,0.500226180235299));
#801=DIRECTION('',(0.0,1.0,0.0));
#802=DIRECTION('',(0.0,0.0,-1.0));
#803=AXIS2_PLACEMENT_3D('',#800,#801,#802);
#804=PLANE('',#803);
#805=ORIENTED_EDGE('',*,*,#621,.T.);
#806=ORIENTED_EDGE('',*,*,#753,.F.);
#807=ORIENTED_EDGE('',*,*,#777,.F.);
#808=ORIENTED_EDGE('',*,*,#794,.F.);
#809=ORIENTED_EDGE('',*,*,#724,.F.);
#810=ORIENTED_EDGE('',*,*,#666,.T.);
#811=EDGE_LOOP('',(#805,#806,#807,#808,#809,#810));
#812=FACE_OUTER_BOUND('',#811,.T.);
#813=ADVANCED_FACE('',(#812),#804,.F.);
#814=CLOSED_SHELL('',(#639,#670,#710,#734,#758,#782,#799,#813));
#815=MANIFOLD_SOLID_BREP('1C00',#814);
#816=STYLED_ITEM('NONE',(#598),#815);
#817=CARTESIAN_POINT('',(1.779999999999999,-1.080000000000001,1.51));
#818=CARTESIAN_POINT('',(1.779999999999999,1.08,1.51));
#819=CARTESIAN_POINT('',(-1.78,-1.080000000000001,1.51));
#820=CARTESIAN_POINT('',(-1.78,1.08,1.51));
#821=B_SPLINE_SURFACE_WITH_KNOTS('',1,1,((#817,#819),(#818,#820)),.UNSPECIFIED.,.F.,.F.,.U.,(2,2),(2,2),(0.0,2.160000000000001),(0.0,3.559999999999999),.UNSPECIFIED.);
#822=CARTESIAN_POINT('',(-1.78,1.08,1.51));
#823=VERTEX_POINT('',#822);
#824=CARTESIAN_POINT('',(1.779999999999999,1.08,1.51));
#825=VERTEX_POINT('',#824);
#826=CARTESIAN_POINT('',(-1.78,1.08,1.51));
#827=DIRECTION('',(1.0,0.0,0.0));
#828=VECTOR('',#827,3.559999999999999);
#829=LINE('',#826,#828);
#830=EDGE_CURVE('',#823,#825,#829,.T.);
#831=ORIENTED_EDGE('',*,*,#830,.F.);
#832=CARTESIAN_POINT('',(-1.78,-1.080000000000001,1.51));
#833=VERTEX_POINT('',#832);
#834=CARTESIAN_POINT('',(-1.78,-1.080000000000001,1.51));
#835=DIRECTION('',(0.0,1.0,0.0));
#836=VECTOR('',#835,2.160000000000001);
#837=LINE('',#834,#836);
#838=EDGE_CURVE('',#833,#823,#837,.T.);
#839=ORIENTED_EDGE('',*,*,#838,.F.);
#840=CARTESIAN_POINT('',(1.779999999999999,-1.080000000000001,1.51));
#841=VERTEX_POINT('',#840);
#842=CARTESIAN_POINT('',(1.779999999999999,-1.080000000000001,1.51));
#843=DIRECTION('',(-1.0,0.0,0.0));
#844=VECTOR('',#843,3.559999999999999);
#845=LINE('',#842,#844);
#846=EDGE_CURVE('',#841,#833,#845,.T.);
#847=ORIENTED_EDGE('',*,*,#846,.F.);
#848=CARTESIAN_POINT('',(1.779999999999999,1.08,1.51));
#849=DIRECTION('',(0.0,-1.0,0.0));
#850=VECTOR('',#849,2.160000000000001);
#851=LINE('',#848,#850);
#852=EDGE_CURVE('',#825,#841,#851,.T.);
#853=ORIENTED_EDGE('',*,*,#852,.F.);
#854=EDGE_LOOP('',(#831,#839,#847,#853));
#855=FACE_OUTER_BOUND('',#854,.T.);
#856=ADVANCED_FACE('',(#855),#821,.T.);
#857=CARTESIAN_POINT('',(1.779999999999999,-1.080000000000001,1.0));
#858=CARTESIAN_POINT('',(1.779999999999999,1.08,1.0));
#859=CARTESIAN_POINT('',(-1.78,-1.080000000000001,1.0));
#860=CARTESIAN_POINT('',(-1.78,1.08,1.0));
#861=B_SPLINE_SURFACE_WITH_KNOTS('',1,1,((#857,#859),(#858,#860)),.UNSPECIFIED.,.F.,.F.,.U.,(2,2),(2,2),(0.0,2.160000000000001),(0.0,3.559999999999999),.UNSPECIFIED.);
#862=CARTESIAN_POINT('',(1.779999999999999,1.08,1.0));
#863=VERTEX_POINT('',#862);
#864=CARTESIAN_POINT('',(-1.78,1.08,1.0));
#865=VERTEX_POINT('',#864);
#866=CARTESIAN_POINT('',(1.779999999999999,1.08,1.0));
#867=DIRECTION('',(-1.0,0.0,0.0));
#868=VECTOR('',#867,3.559999999999999);
#869=LINE('',#866,#868);
#870=EDGE_CURVE('',#863,#865,#869,.T.);
#871=ORIENTED_EDGE('',*,*,#870,.F.);
#872=CARTESIAN_POINT('',(1.779999999999999,-1.080000000000001,1.0));
#873=VERTEX_POINT('',#872);
#874=CARTESIAN_POINT('',(1.779999999999999,-1.080000000000001,1.0));
#875=DIRECTION('',(0.0,1.0,0.0));
#876=VECTOR('',#875,2.160000000000001);
#877=LINE('',#874,#876);
#878=EDGE_CURVE('',#873,#863,#877,.T.);
#879=ORIENTED_EDGE('',*,*,#878,.F.);
#880=CARTESIAN_POINT('',(-1.78,-1.080000000000001,1.0));
#881=VERTEX_POINT('',#880);
#882=CARTESIAN_POINT('',(-1.78,-1.080000000000001,1.0));
#883=DIRECTION('',(1.0,0.0,0.0));
#884=VECTOR('',#883,3.559999999999999);
#885=LINE('',#882,#884);
#886=EDGE_CURVE('',#881,#873,#885,.T.);
#887=ORIENTED_EDGE('',*,*,#886,.F.);
#888=CARTESIAN_POINT('',(-1.78,1.08,1.0));
#889=DIRECTION('',(0.0,-1.0,0.0));
#890=VECTOR('',#889,2.160000000000001);
#891=LINE('',#888,#890);
#892=EDGE_CURVE('',#865,#881,#891,.T.);
#893=ORIENTED_EDGE('',*,*,#892,.F.);
#894=EDGE_LOOP('',(#871,#879,#887,#893));
#895=FACE_OUTER_BOUND('',#894,.T.);
#896=ADVANCED_FACE('',(#895),#861,.F.);
#897=CARTESIAN_POINT('',(-1.78,1.08,1.0));
#898=CARTESIAN_POINT('',(-1.78,1.08,1.51));
#899=CARTESIAN_POINT('',(-1.78,-1.080000000000001,1.0));
#900=CARTESIAN_POINT('',(-1.78,-1.080000000000001,1.51));
#901=B_SPLINE_SURFACE_WITH_KNOTS('',1,1,((#897,#899),(#898,#900)),.UNSPECIFIED.,.F.,.F.,.U.,(2,2),(2,2),(0.0,0.51),(0.0,2.160000000000001),.UNSPECIFIED.);
#902=CARTESIAN_POINT('',(-1.78,-1.080000000000001,1.51));
#903=DIRECTION('',(0.0,0.0,-1.0));
#904=VECTOR('',#903,0.51);
#905=LINE('',#902,#904);
#906=EDGE_CURVE('',#833,#881,#905,.T.);
#907=ORIENTED_EDGE('',*,*,#906,.F.);
#908=ORIENTED_EDGE('',*,*,#838,.T.);
#909=CARTESIAN_POINT('',(-1.78,1.08,1.51));
#910=DIRECTION('',(0.0,0.0,-1.0));
#911=VECTOR('',#910,0.51);
#912=LINE('',#909,#911);
#913=EDGE_CURVE('',#823,#865,#912,.T.);
#914=ORIENTED_EDGE('',*,*,#913,.T.);
#915=ORIENTED_EDGE('',*,*,#892,.T.);
#916=EDGE_LOOP('',(#907,#908,#914,#915));
#917=FACE_OUTER_BOUND('',#916,.T.);
#918=ADVANCED_FACE('',(#917),#901,.F.);
#919=CARTESIAN_POINT('',(1.779999999999999,-1.080000000000001,1.51));
#920=CARTESIAN_POINT('',(1.779999999999999,-1.080000000000001,1.0));
#921=CARTESIAN_POINT('',(-1.78,-1.080000000000001,1.51));
#922=CARTESIAN_POINT('',(-1.78,-1.080000000000001,1.0));
#923=B_SPLINE_SURFACE_WITH_KNOTS('',1,1,((#919,#921),(#920,#922)),.UNSPECIFIED.,.F.,.F.,.U.,(2,2),(2,2),(0.0,0.51),(0.0,3.559999999999999),.UNSPECIFIED.);
#924=CARTESIAN_POINT('',(1.779999999999999,-1.080000000000001,1.51));
#925=DIRECTION('',(0.0,0.0,-1.0));
#926=VECTOR('',#925,0.51);
#927=LINE('',#924,#926);
#928=EDGE_CURVE('',#841,#873,#927,.T.);
#929=ORIENTED_EDGE('',*,*,#928,.F.);
#930=ORIENTED_EDGE('',*,*,#846,.T.);
#931=ORIENTED_EDGE('',*,*,#906,.T.);
#932=ORIENTED_EDGE('',*,*,#886,.T.);
#933=EDGE_LOOP('',(#929,#930,#931,#932));
#934=FACE_OUTER_BOUND('',#933,.T.);
#935=ADVANCED_FACE('',(#934),#923,.F.);
#936=CARTESIAN_POINT('',(1.779999999999999,1.08,1.51));
#937=CARTESIAN_POINT('',(1.779999999999999,1.08,1.0));
#938=CARTESIAN_POINT('',(1.779999999999999,-1.080000000000001,1.51));
#939=CARTESIAN_POINT('',(1.779999999999999,-1.080000000000001,1.0));
#940=B_SPLINE_SURFACE_WITH_KNOTS('',1,1,((#936,#938),(#937,#939)),.UNSPECIFIED.,.F.,.F.,.U.,(2,2),(2,2),(0.0,0.51),(0.0,2.160000000000001),.UNSPECIFIED.);
#941=CARTESIAN_POINT('',(1.779999999999999,1.08,1.51));
#942=DIRECTION('',(0.0,0.0,-1.0));
#943=VECTOR('',#942,0.51);
#944=LINE('',#941,#943);
#945=EDGE_CURVE('',#825,#863,#944,.T.);
#946=ORIENTED_EDGE('',*,*,#945,.F.);
#947=ORIENTED_EDGE('',*,*,#852,.T.);
#948=ORIENTED_EDGE('',*,*,#928,.T.);
#949=ORIENTED_EDGE('',*,*,#878,.T.);
#950=EDGE_LOOP('',(#946,#947,#948,#949));
#951=FACE_OUTER_BOUND('',#950,.T.);
#952=ADVANCED_FACE('',(#951),#940,.F.);
#953=CARTESIAN_POINT('',(1.779999999999999,1.08,1.0));
#954=CARTESIAN_POINT('',(1.779999999999999,1.08,1.51));
#955=CARTESIAN_POINT('',(-1.78,1.08,1.0));
#956=CARTESIAN_POINT('',(-1.78,1.08,1.51));
#957=B_SPLINE_SURFACE_WITH_KNOTS('',1,1,((#953,#955),(#954,#956)),.UNSPECIFIED.,.F.,.F.,.U.,(2,2),(2,2),(0.0,0.51),(0.0,3.559999999999999),.UNSPECIFIED.);
#958=ORIENTED_EDGE('',*,*,#913,.F.);
#959=ORIENTED_EDGE('',*,*,#830,.T.);
#960=ORIENTED_EDGE('',*,*,#945,.T.);
#961=ORIENTED_EDGE('',*,*,#870,.T.);
#962=EDGE_LOOP('',(#958,#959,#960,#961));
#963=FACE_OUTER_BOUND('',#962,.T.);
#964=ADVANCED_FACE('',(#963),#957,.F.);
#965=CLOSED_SHELL('',(#856,#896,#918,#935,#952,#964));
#966=MANIFOLD_SOLID_BREP('1BFB',#965);
#967=COLOUR_RGB('173',0.325,0.325,0.65);
#968=SURFACE_STYLE_USAGE(.BOTH.,#969);
#969=SURFACE_SIDE_STYLE('NONE',(#970));
#970=SURFACE_STYLE_FILL_AREA(#971);
#971=FILL_AREA_STYLE('NONE',(#972));
#972=FILL_AREA_STYLE_COLOUR('NONE',#967);
#973=PRESENTATION_STYLE_ASSIGNMENT((#968));
#974=STYLED_ITEM('NONE',(#973),#966);
#975=CARTESIAN_POINT('',(0.724428128241156,-0.735,0.127));
#976=DIRECTION('',(-0.577350269189626,0.577350269189626,0.577350269189626));
#977=DIRECTION('',(-4.329780E-017,-0.707106781186548,0.707106781186548));
#978=AXIS2_PLACEMENT_3D('',#975,#976,#977);
#979=SPHERICAL_SURFACE('',#978,0.1);
#980=CARTESIAN_POINT('',(0.769149487791152,-0.824442719099991,0.127));
#981=VERTEX_POINT('',#980);
#982=CARTESIAN_POINT('',(0.782163155160119,-0.792735026918962,0.069264973081037));
#983=VERTEX_POINT('',#982);
#984=CARTESIAN_POINT('',(0.724428128241156,-0.735,0.127));
#985=DIRECTION('',(0.816496580927726,0.408248290463863,0.408248290463863));
#986=DIRECTION('',(0.0,-0.707106781186547,0.707106781186548));
#987=AXIS2_PLACEMENT_3D('',#984,#985,#986);
#988=CIRCLE('',#987,0.1);
#989=EDGE_CURVE('',#981,#983,#988,.T.);
#990=ORIENTED_EDGE('',*,*,#989,.F.);
#991=CARTESIAN_POINT('',(0.724428128241156,-0.835,0.127));
#992=VERTEX_POINT('',#991);
#993=CARTESIAN_POINT('',(0.724428128241156,-0.735,0.127));
#994=DIRECTION('',(0.0,0.0,-1.0));
#995=DIRECTION('',(0.707106781186547,-0.707106781186547,0.0));
#996=AXIS2_PLACEMENT_3D('',#993,#994,#995);
#997=CIRCLE('',#996,0.1);
#998=EDGE_CURVE('',#981,#992,#997,.T.);
#999=ORIENTED_EDGE('',*,*,#998,.T.);
#1000=CARTESIAN_POINT('',(0.724428128241156,-0.735,0.027));
#1001=VERTEX_POINT('',#1000);
#1002=CARTESIAN_POINT('',(0.724428128241156,-0.735,0.127));
#1003=DIRECTION('',(1.0,0.0,0.0));
#1004=DIRECTION('',(0.0,0.0,-1.0));
#1005=AXIS2_PLACEMENT_3D('',#1002,#1003,#1004);
#1006=CIRCLE('',#1005,0.1);
#1007=EDGE_CURVE('',#1001,#992,#1006,.F.);
#1008=ORIENTED_EDGE('',*,*,#1007,.F.);
#1009=CARTESIAN_POINT('',(0.769149487791152,-0.735,0.037557280900008));
#1010=VERTEX_POINT('',#1009);
#1011=CARTESIAN_POINT('',(0.724428128241156,-0.735,0.127));
#1012=DIRECTION('',(-3.061617E-017,-1.0,3.061617E-017));
#1013=DIRECTION('',(0.707106781186548,-4.329780E-017,-0.707106781186547));
#1014=AXIS2_PLACEMENT_3D('',#1011,#1012,#1013);
#1015=CIRCLE('',#1014,0.1);
#1016=EDGE_CURVE('',#1001,#1010,#1015,.T.);
#1017=ORIENTED_EDGE('',*,*,#1016,.T.);
#1018=CARTESIAN_POINT('',(0.724428128241156,-0.735,0.127));
#1019=DIRECTION('',(-0.816496580927726,-0.408248290463863,-0.408248290463863));
#1020=DIRECTION('',(0.0,0.707106781186547,-0.707106781186548));
#1021=AXIS2_PLACEMENT_3D('',#1018,#1019,#1020);
#1022=CIRCLE('',#1021,0.1);
#1023=EDGE_CURVE('',#1010,#983,#1022,.T.);
#1024=ORIENTED_EDGE('',*,*,#1023,.T.);
#1025=EDGE_LOOP('',(#990,#999,#1008,#1017,#1024));
#1026=FACE_OUTER_BOUND('',#1025,.T.);
#1027=ADVANCED_FACE('',(#1026),#979,.T.);
#1028=CARTESIAN_POINT('',(0.724428128241156,0.735,0.127));
#1029=DIRECTION('',(-0.577350269189626,0.577350269189626,0.577350269189626));
#1030=DIRECTION('',(-4.329780E-017,-0.707106781186548,0.707106781186548));
#1031=AXIS2_PLACEMENT_3D('',#1028,#1029,#1030);
#1032=SPHERICAL_SURFACE('',#1031,0.1);
#1033=CARTESIAN_POINT('',(0.724428128241156,0.835,0.127));
#1034=VERTEX_POINT('',#1033);
#1035=CARTESIAN_POINT('',(0.824428128241156,0.735,0.127));
#1036=VERTEX_POINT('',#1035);
#1037=CARTESIAN_POINT('',(0.724428128241156,0.735,0.127));
#1038=DIRECTION('',(-2.775558E-016,-2.775558E-016,-1.0));
#1039=DIRECTION('',(0.707106781186547,0.707106781186547,-3.925231E-016));
#1040=AXIS2_PLACEMENT_3D('',#1037,#1038,#1039);
#1041=CIRCLE('',#1040,0.1);
#1042=EDGE_CURVE('',#1034,#1036,#1041,.T.);
#1043=ORIENTED_EDGE('',*,*,#1042,.T.);
#1044=CARTESIAN_POINT('',(0.724428128241156,0.735,0.027));
#1045=VERTEX_POINT('',#1044);
#1046=CARTESIAN_POINT('',(0.724428128241156,0.735,0.127));
#1047=DIRECTION('',(0.0,1.0,0.0));
#1048=DIRECTION('',(0.0,0.0,-1.0));
#1049=AXIS2_PLACEMENT_3D('',#1046,#1047,#1048);
#1050=CIRCLE('',#1049,0.1);
#1051=EDGE_CURVE('',#1045,#1036,#1050,.F.);
#1052=ORIENTED_EDGE('',*,*,#1051,.F.);
#1053=CARTESIAN_POINT('',(0.724428128241156,0.735,0.127));
#1054=DIRECTION('',(1.0,-3.061617E-017,3.061617E-017));
#1055=DIRECTION('',(4.329780E-017,0.707106781186548,-0.707106781186547));
#1056=AXIS2_PLACEMENT_3D('',#1053,#1054,#1055);
#1057=CIRCLE('',#1056,0.1);
#1058=EDGE_CURVE('',#1045,#1034,#1057,.T.);
#1059=ORIENTED_EDGE('',*,*,#1058,.T.);
#1060=EDGE_LOOP('',(#1043,#1052,#1059));
#1061=FACE_OUTER_BOUND('',#1060,.T.);
#1062=ADVANCED_FACE('',(#1061),#1032,.T.);
#1063=CARTESIAN_POINT('',(-0.724428128241156,0.735,0.127));
#1064=DIRECTION('',(-0.577350269189626,0.577350269189626,0.577350269189626));
#1065=DIRECTION('',(-4.329780E-017,-0.707106781186548,0.707106781186548));
#1066=AXIS2_PLACEMENT_3D('',#1063,#1064,#1065);
#1067=SPHERICAL_SURFACE('',#1066,0.1);
#1068=CARTESIAN_POINT('',(-0.724428128241156,0.835,0.127));
#1069=VERTEX_POINT('',#1068);
#1070=CARTESIAN_POINT('',(-0.724428128241156,0.735,0.027));
#1071=VERTEX_POINT('',#1070);
#1072=CARTESIAN_POINT('',(-0.724428128241156,0.735,0.127));
#1073=DIRECTION('',(-1.0,3.061617E-017,-3.061617E-017));
#1074=DIRECTION('',(4.329780E-017,0.707106781186548,-0.707106781186547));
#1075=AXIS2_PLACEMENT_3D('',#1072,#1073,#1074);
#1076=CIRCLE('',#1075,0.1);
#1077=EDGE_CURVE('',#1069,#1071,#1076,.T.);
#1078=ORIENTED_EDGE('',*,*,#1077,.T.);
#1079=CARTESIAN_POINT('',(-0.824428128241156,0.735,0.127));
#1080=VERTEX_POINT('',#1079);
#1081=CARTESIAN_POINT('',(-0.724428128241156,0.735,0.127));
#1082=DIRECTION('',(0.0,1.0,0.0));
#1083=DIRECTION('',(-1.0,0.0,0.0));
#1084=AXIS2_PLACEMENT_3D('',#1081,#1082,#1083);
#1085=CIRCLE('',#1084,0.1);
#1086=EDGE_CURVE('',#1080,#1071,#1085,.F.);
#1087=ORIENTED_EDGE('',*,*,#1086,.F.);
#1088=CARTESIAN_POINT('',(-0.724428128241156,0.735,0.127));
#1089=DIRECTION('',(2.775558E-016,-2.775558E-016,-1.0));
#1090=DIRECTION('',(-0.707106781186547,0.707106781186547,-3.925231E-016));
#1091=AXIS2_PLACEMENT_3D('',#1088,#1089,#1090);
#1092=CIRCLE('',#1091,0.1);
#1093=EDGE_CURVE('',#1080,#1069,#1092,.T.);
#1094=ORIENTED_EDGE('',*,*,#1093,.T.);
#1095=EDGE_LOOP('',(#1078,#1087,#1094));
#1096=FACE_OUTER_BOUND('',#1095,.T.);
#1097=ADVANCED_FACE('',(#1096),#1067,.T.);
#1098=CARTESIAN_POINT('',(0.724428128241156,-0.735,0.127));
#1099=DIRECTION('',(-0.577350269189626,0.577350269189626,0.577350269189626));
#1100=DIRECTION('',(-4.329780E-017,-0.707106781186548,0.707106781186548));
#1101=AXIS2_PLACEMENT_3D('',#1098,#1099,#1100);
#1102=SPHERICAL_SURFACE('',#1101,0.1);
#1103=ORIENTED_EDGE('',*,*,#989,.T.);
#1104=ORIENTED_EDGE('',*,*,#1023,.F.);
#1105=CARTESIAN_POINT('',(0.824428128241156,-0.735,0.127));
#1106=VERTEX_POINT('',#1105);
#1107=CARTESIAN_POINT('',(0.724428128241156,-0.735,0.127));
#1108=DIRECTION('',(-3.061617E-017,-1.0,3.061617E-017));
#1109=DIRECTION('',(0.707106781186548,-4.329780E-017,-0.707106781186547));
#1110=AXIS2_PLACEMENT_3D('',#1107,#1108,#1109);
#1111=CIRCLE('',#1110,0.1);
#1112=EDGE_CURVE('',#1010,#1106,#1111,.T.);
#1113=ORIENTED_EDGE('',*,*,#1112,.T.);
#1114=CARTESIAN_POINT('',(0.724428128241156,-0.735,0.127));
#1115=DIRECTION('',(0.0,0.0,-1.0));
#1116=DIRECTION('',(0.707106781186547,-0.707106781186547,0.0));
#1117=AXIS2_PLACEMENT_3D('',#1114,#1115,#1116);
#1118=CIRCLE('',#1117,0.1);
#1119=EDGE_CURVE('',#1106,#981,#1118,.T.);
#1120=ORIENTED_EDGE('',*,*,#1119,.T.);
#1121=EDGE_LOOP('',(#1103,#1104,#1113,#1120));
#1122=FACE_OUTER_BOUND('',#1121,.T.);
#1123=ADVANCED_FACE('',(#1122),#1102,.T.);
#1124=CARTESIAN_POINT('',(-0.724428128241156,-0.735,0.127));
#1125=DIRECTION('',(-0.577350269189626,0.577350269189626,0.577350269189626));
#1126=DIRECTION('',(-4.329780E-017,-0.707106781186548,0.707106781186548));
#1127=AXIS2_PLACEMENT_3D('',#1124,#1125,#1126);
#1128=SPHERICAL_SURFACE('',#1127,0.1);
#1129=CARTESIAN_POINT('',(-0.824428128241156,-0.735,0.127));
#1130=VERTEX_POINT('',#1129);
#1131=CARTESIAN_POINT('',(-0.724428128241156,-0.735,0.027));
#1132=VERTEX_POINT('',#1131);
#1133=CARTESIAN_POINT('',(-0.724428128241156,-0.735,0.127));
#1134=DIRECTION('',(-3.061617E-017,-1.0,-3.061617E-017));
#1135=DIRECTION('',(-0.707106781186548,4.329780E-017,-0.707106781186547));
#1136=AXIS2_PLACEMENT_3D('',#1133,#1134,#1135);
#1137=CIRCLE('',#1136,0.1);
#1138=EDGE_CURVE('',#1130,#1132,#1137,.T.);
#1139=ORIENTED_EDGE('',*,*,#1138,.T.);
#1140=CARTESIAN_POINT('',(-0.724428128241156,-0.835,0.127));
#1141=VERTEX_POINT('',#1140);
#1142=CARTESIAN_POINT('',(-0.724428128241156,-0.735,0.127));
#1143=DIRECTION('',(-1.0,0.0,0.0));
#1144=DIRECTION('',(0.0,-1.0,0.0));
#1145=AXIS2_PLACEMENT_3D('',#1142,#1143,#1144);
#1146=CIRCLE('',#1145,0.1);
#1147=EDGE_CURVE('',#1141,#1132,#1146,.F.);
#1148=ORIENTED_EDGE('',*,*,#1147,.F.);
#1149=CARTESIAN_POINT('',(-0.724428128241156,-0.735,0.127));
#1150=DIRECTION('',(0.0,0.0,-1.0));
#1151=DIRECTION('',(-0.707106781186547,-0.707106781186547,0.0));
#1152=AXIS2_PLACEMENT_3D('',#1149,#1150,#1151);
#1153=CIRCLE('',#1152,0.1);
#1154=EDGE_CURVE('',#1141,#1130,#1153,.T.);
#1155=ORIENTED_EDGE('',*,*,#1154,.T.);
#1156=EDGE_LOOP('',(#1139,#1148,#1155));
#1157=FACE_OUTER_BOUND('',#1156,.T.);
#1158=ADVANCED_FACE('',(#1157),#1128,.T.);
#1159=CARTESIAN_POINT('',(6.601653E-017,-0.735,0.127));
#1160=DIRECTION('',(1.0,-6.123234E-017,0.0));
#1161=DIRECTION('',(-4.329780E-017,-0.707106781186548,-0.707106781186547));
#1162=AXIS2_PLACEMENT_3D('',#1159,#1160,#1161);
#1163=CYLINDRICAL_SURFACE('',#1162,0.1);
#1164=ORIENTED_EDGE('',*,*,#1007,.T.);
#1165=CARTESIAN_POINT('',(0.724428128241156,-0.835,0.127));
#1166=DIRECTION('',(-1.0,0.0,0.0));
#1167=VECTOR('',#1166,1.448856256482313);
#1168=LINE('',#1165,#1167);
#1169=EDGE_CURVE('',#992,#1141,#1168,.T.);
#1170=ORIENTED_EDGE('',*,*,#1169,.T.);
#1171=ORIENTED_EDGE('',*,*,#1147,.T.);
#1172=CARTESIAN_POINT('',(-0.724428128241156,-0.735,0.027));
#1173=DIRECTION('',(1.0,0.0,0.0));
#1174=VECTOR('',#1173,1.448856256482313);
#1175=LINE('',#1172,#1174);
#1176=EDGE_CURVE('',#1132,#1001,#1175,.T.);
#1177=ORIENTED_EDGE('',*,*,#1176,.T.);
#1178=EDGE_LOOP('',(#1164,#1170,#1171,#1177));
#1179=FACE_OUTER_BOUND('',#1178,.T.);
#1180=ADVANCED_FACE('',(#1179),#1163,.T.);
#1181=CARTESIAN_POINT('',(-0.724428128241156,-0.735,0.5135));
#1182=DIRECTION('',(1.359631E-032,2.220446E-016,-1.0));
#1183=DIRECTION('',(-0.707106781186548,-0.707106781186547,0.0));
#1184=AXIS2_PLACEMENT_3D('',#1181,#1182,#1183);
#1185=CYLINDRICAL_SURFACE('',#1184,0.1);
#1186=CARTESIAN_POINT('',(-0.724428128241156,-0.835,1.0));
#1187=VERTEX_POINT('',#1186);
#1188=CARTESIAN_POINT('',(-0.824428128241156,-0.735,1.0));
#1189=VERTEX_POINT('',#1188);
#1190=CARTESIAN_POINT('',(-0.724428128241156,-0.735,1.0));
#1191=DIRECTION('',(0.0,0.0,-1.0));
#1192=DIRECTION('',(-0.707106781186548,-0.707106781186547,0.0));
#1193=AXIS2_PLACEMENT_3D('',#1190,#1191,#1192);
#1194=CIRCLE('',#1193,0.1);
#1195=EDGE_CURVE('',#1187,#1189,#1194,.T.);
#1196=ORIENTED_EDGE('',*,*,#1195,.T.);
#1197=CARTESIAN_POINT('',(-0.824428128241156,-0.735,1.0));
#1198=DIRECTION('',(0.0,0.0,-1.0));
#1199=VECTOR('',#1198,0.873);
#1200=LINE('',#1197,#1199);
#1201=EDGE_CURVE('',#1189,#1130,#1200,.T.);
#1202=ORIENTED_EDGE('',*,*,#1201,.T.);
#1203=ORIENTED_EDGE('',*,*,#1154,.F.);
#1204=CARTESIAN_POINT('',(-0.724428128241156,-0.835,0.127));
#1205=DIRECTION('',(0.0,0.0,1.0));
#1206=VECTOR('',#1205,0.873);
#1207=LINE('',#1204,#1206);
#1208=EDGE_CURVE('',#1141,#1187,#1207,.T.);
#1209=ORIENTED_EDGE('',*,*,#1208,.T.);
#1210=EDGE_LOOP('',(#1196,#1202,#1203,#1209));
#1211=FACE_OUTER_BOUND('',#1210,.T.);
#1212=ADVANCED_FACE('',(#1211),#1185,.T.);
#1213=CARTESIAN_POINT('',(-0.724428128241156,1.271811E-016,0.127));
#1214=DIRECTION('',(6.123234E-017,1.0,2.220446E-016));
#1215=DIRECTION('',(-0.707106781186548,2.003070E-016,-0.707106781186547));
#1216=AXIS2_PLACEMENT_3D('',#1213,#1214,#1215);
#1217=CYLINDRICAL_SURFACE('',#1216,0.1);
#1218=ORIENTED_EDGE('',*,*,#1086,.T.);
#1219=CARTESIAN_POINT('',(-0.724428128241156,0.735,0.027));
#1220=DIRECTION('',(0.0,-1.0,0.0));
#1221=VECTOR('',#1220,1.47);
#1222=LINE('',#1219,#1221);
#1223=EDGE_CURVE('',#1071,#1132,#1222,.T.);
#1224=ORIENTED_EDGE('',*,*,#1223,.T.);
#1225=ORIENTED_EDGE('',*,*,#1138,.F.);
#1226=CARTESIAN_POINT('',(-0.824428128241156,-0.735,0.127));
#1227=DIRECTION('',(0.0,1.0,0.0));
#1228=VECTOR('',#1227,1.47);
#1229=LINE('',#1226,#1228);
#1230=EDGE_CURVE('',#1130,#1080,#1229,.T.);
#1231=ORIENTED_EDGE('',*,*,#1230,.T.);
#1232=EDGE_LOOP('',(#1218,#1224,#1225,#1231));
#1233=FACE_OUTER_BOUND('',#1232,.T.);
#1234=ADVANCED_FACE('',(#1233),#1217,.T.);
#1235=CARTESIAN_POINT('',(0.724428128241156,3.846421E-017,0.127));
#1236=DIRECTION('',(6.123234E-017,1.0,2.220446E-016));
#1237=DIRECTION('',(0.707106781186548,1.137114E-016,-0.707106781186547));
#1238=AXIS2_PLACEMENT_3D('',#1235,#1236,#1237);
#1239=CYLINDRICAL_SURFACE('',#1238,0.1);
#1240=ORIENTED_EDGE('',*,*,#1051,.T.);
#1241=CARTESIAN_POINT('',(0.824428128241156,0.735,0.127));
#1242=DIRECTION('',(0.0,-1.0,0.0));
#1243=VECTOR('',#1242,1.47);
#1244=LINE('',#1241,#1243);
#1245=EDGE_CURVE('',#1036,#1106,#1244,.T.);
#1246=ORIENTED_EDGE('',*,*,#1245,.T.);
#1247=ORIENTED_EDGE('',*,*,#1112,.F.);
#1248=ORIENTED_EDGE('',*,*,#1016,.F.);
#1249=CARTESIAN_POINT('',(0.724428128241156,-0.735,0.027));
#1250=DIRECTION('',(0.0,1.0,0.0));
#1251=VECTOR('',#1250,1.47);
#1252=LINE('',#1249,#1251);
#1253=EDGE_CURVE('',#1001,#1045,#1252,.T.);
#1254=ORIENTED_EDGE('',*,*,#1253,.T.);
#1255=EDGE_LOOP('',(#1240,#1246,#1247,#1248,#1254));
#1256=FACE_OUTER_BOUND('',#1255,.T.);
#1257=ADVANCED_FACE('',(#1256),#1239,.T.);
#1258=CARTESIAN_POINT('',(0.724428128241156,-0.735,0.5135));
#1259=DIRECTION('',(-1.359631E-032,-2.220446E-016,1.0));
#1260=DIRECTION('',(0.707106781186548,-0.707106781186547,0.0));
#1261=AXIS2_PLACEMENT_3D('',#1258,#1259,#1260);
#1262=CYLINDRICAL_SURFACE('',#1261,0.1);
#1263=CARTESIAN_POINT('',(0.824428128241156,-0.735,1.0));
#1264=VERTEX_POINT('',#1263);
#1265=CARTESIAN_POINT('',(0.724428128241156,-0.835,1.0));
#1266=VERTEX_POINT('',#1265);
#1267=CARTESIAN_POINT('',(0.724428128241156,-0.735,1.0));
#1268=DIRECTION('',(0.0,0.0,-1.0));
#1269=DIRECTION('',(0.707106781186548,-0.707106781186547,0.0));
#1270=AXIS2_PLACEMENT_3D('',#1267,#1268,#1269);
#1271=CIRCLE('',#1270,0.1);
#1272=EDGE_CURVE('',#1264,#1266,#1271,.T.);
#1273=ORIENTED_EDGE('',*,*,#1272,.T.);
#1274=CARTESIAN_POINT('',(0.724428128241156,-0.835,1.0));
#1275=DIRECTION('',(0.0,0.0,-1.0));
#1276=VECTOR('',#1275,0.873);
#1277=LINE('',#1274,#1276);
#1278=EDGE_CURVE('',#1266,#992,#1277,.T.);
#1279=ORIENTED_EDGE('',*,*,#1278,.T.);
#1280=ORIENTED_EDGE('',*,*,#998,.F.);
#1281=ORIENTED_EDGE('',*,*,#1119,.F.);
#1282=CARTESIAN_POINT('',(0.824428128241156,-0.735,0.127));
#1283=DIRECTION('',(0.0,0.0,1.0));
#1284=VECTOR('',#1283,0.873);
#1285=LINE('',#1282,#1284);
#1286=EDGE_CURVE('',#1106,#1264,#1285,.T.);
#1287=ORIENTED_EDGE('',*,*,#1286,.T.);
#1288=EDGE_LOOP('',(#1273,#1279,#1280,#1281,#1287));
#1289=FACE_OUTER_BOUND('',#1288,.T.);
#1290=ADVANCED_FACE('',(#1289),#1262,.T.);
#1291=CARTESIAN_POINT('',(-0.724428128241156,0.735,0.5135));
#1292=DIRECTION('',(-1.359631E-032,-2.220446E-016,1.0));
#1293=DIRECTION('',(-0.707106781186548,0.707106781186547,0.0));
#1294=AXIS2_PLACEMENT_3D('',#1291,#1292,#1293);
#1295=CYLINDRICAL_SURFACE('',#1294,0.1);
#1296=CARTESIAN_POINT('',(-0.824428128241156,0.735,1.0));
#1297=VERTEX_POINT('',#1296);
#1298=CARTESIAN_POINT('',(-0.724428128241156,0.835,1.0));
#1299=VERTEX_POINT('',#1298);
#1300=CARTESIAN_POINT('',(-0.724428128241156,0.735,1.0));
#1301=DIRECTION('',(0.0,0.0,-1.0));
#1302=DIRECTION('',(-0.707106781186548,0.707106781186547,0.0));
#1303=AXIS2_PLACEMENT_3D('',#1300,#1301,#1302);
#1304=CIRCLE('',#1303,0.1);
#1305=EDGE_CURVE('',#1297,#1299,#1304,.T.);
#1306=ORIENTED_EDGE('',*,*,#1305,.T.);
#1307=CARTESIAN_POINT('',(-0.724428128241156,0.835,1.0));
#1308=DIRECTION('',(0.0,0.0,-1.0));
#1309=VECTOR('',#1308,0.873);
#1310=LINE('',#1307,#1309);
#1311=EDGE_CURVE('',#1299,#1069,#1310,.T.);
#1312=ORIENTED_EDGE('',*,*,#1311,.T.);
#1313=ORIENTED_EDGE('',*,*,#1093,.F.);
#1314=CARTESIAN_POINT('',(-0.824428128241156,0.735,0.127));
#1315=DIRECTION('',(0.0,0.0,1.0));
#1316=VECTOR('',#1315,0.873);
#1317=LINE('',#1314,#1316);
#1318=EDGE_CURVE('',#1080,#1297,#1317,.T.);
#1319=ORIENTED_EDGE('',*,*,#1318,.T.);
#1320=EDGE_LOOP('',(#1306,#1312,#1313,#1319));
#1321=FACE_OUTER_BOUND('',#1320,.T.);
#1322=ADVANCED_FACE('',(#1321),#1295,.T.);
#1323=CARTESIAN_POINT('',(1.560281E-016,0.735,0.127));
#1324=DIRECTION('',(-1.0,6.123234E-017,0.0));
#1325=DIRECTION('',(4.329780E-017,0.707106781186548,-0.707106781186547));
#1326=AXIS2_PLACEMENT_3D('',#1323,#1324,#1325);
#1327=CYLINDRICAL_SURFACE('',#1326,0.1);
#1328=ORIENTED_EDGE('',*,*,#1077,.F.);
#1329=CARTESIAN_POINT('',(-0.724428128241156,0.835,0.127));
#1330=DIRECTION('',(1.0,0.0,0.0));
#1331=VECTOR('',#1330,1.448856256482313);
#1332=LINE('',#1329,#1331);
#1333=EDGE_CURVE('',#1069,#1034,#1332,.T.);
#1334=ORIENTED_EDGE('',*,*,#1333,.T.);
#1335=ORIENTED_EDGE('',*,*,#1058,.F.);
#1336=CARTESIAN_POINT('',(0.724428128241156,0.735,0.027));
#1337=DIRECTION('',(-1.0,0.0,0.0));
#1338=VECTOR('',#1337,1.448856256482313);
#1339=LINE('',#1336,#1338);
#1340=EDGE_CURVE('',#1045,#1071,#1339,.T.);
#1341=ORIENTED_EDGE('',*,*,#1340,.T.);
#1342=EDGE_LOOP('',(#1328,#1334,#1335,#1341));
#1343=FACE_OUTER_BOUND('',#1342,.T.);
#1344=ADVANCED_FACE('',(#1343),#1327,.T.);
#1345=CARTESIAN_POINT('',(0.724428128241156,0.735,0.5135));
#1346=DIRECTION('',(1.359631E-032,2.220446E-016,-1.0));
#1347=DIRECTION('',(0.707106781186548,0.707106781186547,0.0));
#1348=AXIS2_PLACEMENT_3D('',#1345,#1346,#1347);
#1349=CYLINDRICAL_SURFACE('',#1348,0.1);
#1350=CARTESIAN_POINT('',(0.724428128241156,0.835,1.0));
#1351=VERTEX_POINT('',#1350);
#1352=CARTESIAN_POINT('',(0.824428128241156,0.735,1.0));
#1353=VERTEX_POINT('',#1352);
#1354=CARTESIAN_POINT('',(0.724428128241156,0.735,1.0));
#1355=DIRECTION('',(0.0,0.0,-1.0));
#1356=DIRECTION('',(0.707106781186548,0.707106781186547,0.0));
#1357=AXIS2_PLACEMENT_3D('',#1354,#1355,#1356);
#1358=CIRCLE('',#1357,0.1);
#1359=EDGE_CURVE('',#1351,#1353,#1358,.T.);
#1360=ORIENTED_EDGE('',*,*,#1359,.T.);
#1361=CARTESIAN_POINT('',(0.824428128241156,0.735,1.0));
#1362=DIRECTION('',(0.0,0.0,-1.0));
#1363=VECTOR('',#1362,0.873);
#1364=LINE('',#1361,#1363);
#1365=EDGE_CURVE('',#1353,#1036,#1364,.T.);
#1366=ORIENTED_EDGE('',*,*,#1365,.T.);
#1367=ORIENTED_EDGE('',*,*,#1042,.F.);
#1368=CARTESIAN_POINT('',(0.724428128241156,0.835,0.127));
#1369=DIRECTION('',(0.0,0.0,1.0));
#1370=VECTOR('',#1369,0.873);
#1371=LINE('',#1368,#1370);
#1372=EDGE_CURVE('',#1034,#1351,#1371,.T.);
#1373=ORIENTED_EDGE('',*,*,#1372,.T.);
#1374=EDGE_LOOP('',(#1360,#1366,#1367,#1373));
#1375=FACE_OUTER_BOUND('',#1374,.T.);
#1376=ADVANCED_FACE('',(#1375),#1349,.T.);
#1377=CARTESIAN_POINT('',(0.824428128241156,-5.347927E-017,0.5135));
#1378=DIRECTION('',(-1.0,0.0,0.0));
#1379=DIRECTION('',(0.0,1.0,0.0));
#1380=AXIS2_PLACEMENT_3D('',#1377,#1378,#1379);
#1381=PLANE('',#1380);
#1382=ORIENTED_EDGE('',*,*,#1286,.F.);
#1383=ORIENTED_EDGE('',*,*,#1245,.F.);
#1384=ORIENTED_EDGE('',*,*,#1365,.F.);
#1385=CARTESIAN_POINT('',(0.824428128241156,-0.735,1.0));
#1386=DIRECTION('',(0.0,1.0,0.0));
#1387=VECTOR('',#1386,1.47);
#1388=LINE('',#1385,#1387);
#1389=EDGE_CURVE('',#1264,#1353,#1388,.T.);
#1390=ORIENTED_EDGE('',*,*,#1389,.F.);
#1391=EDGE_LOOP('',(#1382,#1383,#1384,#1390));
#1392=FACE_OUTER_BOUND('',#1391,.T.);
#1393=ADVANCED_FACE('',(#1392),#1381,.F.);
#1394=CARTESIAN_POINT('',(1.621513E-016,0.835,0.5135));
#1395=DIRECTION('',(0.0,-1.0,0.0));
#1396=DIRECTION('',(0.0,0.0,-1.0));
#1397=AXIS2_PLACEMENT_3D('',#1394,#1395,#1396);
#1398=PLANE('',#1397);
#1399=ORIENTED_EDGE('',*,*,#1372,.F.);
#1400=ORIENTED_EDGE('',*,*,#1333,.F.);
#1401=ORIENTED_EDGE('',*,*,#1311,.F.);
#1402=CARTESIAN_POINT('',(-0.724428128241156,0.835,1.0));
#1403=DIRECTION('',(1.0,0.0,0.0));
#1404=VECTOR('',#1403,1.448856256482313);
#1405=LINE('',#1402,#1404);
#1406=EDGE_CURVE('',#1299,#1351,#1405,.T.);
#1407=ORIENTED_EDGE('',*,*,#1406,.T.);
#1408=EDGE_LOOP('',(#1399,#1400,#1401,#1407));
#1409=FACE_OUTER_BOUND('',#1408,.T.);
#1410=ADVANCED_FACE('',(#1409),#1398,.F.);
#1411=CARTESIAN_POINT('',(1.110223E-016,-1.110223E-016,1.0));
#1412=DIRECTION('',(0.0,0.0,-1.0));
#1413=DIRECTION('',(0.0,1.0,0.0));
#1414=AXIS2_PLACEMENT_3D('',#1411,#1412,#1413);
#1415=PLANE('',#1414);
#1416=ORIENTED_EDGE('',*,*,#1272,.F.);
#1417=ORIENTED_EDGE('',*,*,#1389,.T.);
#1418=ORIENTED_EDGE('',*,*,#1359,.F.);
#1419=ORIENTED_EDGE('',*,*,#1406,.F.);
#1420=ORIENTED_EDGE('',*,*,#1305,.F.);
#1421=CARTESIAN_POINT('',(-0.824428128241156,-0.735,1.0));
#1422=DIRECTION('',(0.0,1.0,0.0));
#1423=VECTOR('',#1422,1.47);
#1424=LINE('',#1421,#1423);
#1425=EDGE_CURVE('',#1189,#1297,#1424,.T.);
#1426=ORIENTED_EDGE('',*,*,#1425,.F.);
#1427=ORIENTED_EDGE('',*,*,#1195,.F.);
#1428=CARTESIAN_POINT('',(0.724428128241156,-0.835,1.0));
#1429=DIRECTION('',(-1.0,0.0,0.0));
#1430=VECTOR('',#1429,1.448856256482313);
#1431=LINE('',#1428,#1430);
#1432=EDGE_CURVE('',#1266,#1187,#1431,.T.);
#1433=ORIENTED_EDGE('',*,*,#1432,.F.);
#1434=EDGE_LOOP('',(#1416,#1417,#1418,#1419,#1420,#1426,#1427,#1433));
#1435=FACE_OUTER_BOUND('',#1434,.T.);
#1436=ADVANCED_FACE('',(#1435),#1415,.F.);
#1437=CARTESIAN_POINT('',(1.110223E-016,1.050271E-016,0.027));
#1438=DIRECTION('',(0.0,0.0,1.0));
#1439=DIRECTION('',(0.0,-1.0,0.0));
#1440=AXIS2_PLACEMENT_3D('',#1437,#1438,#1439);
#1441=PLANE('',#1440);
#1442=ORIENTED_EDGE('',*,*,#1176,.F.);
#1443=ORIENTED_EDGE('',*,*,#1223,.F.);
#1444=ORIENTED_EDGE('',*,*,#1340,.F.);
#1445=ORIENTED_EDGE('',*,*,#1253,.F.);
#1446=EDGE_LOOP('',(#1442,#1443,#1444,#1445));
#1447=FACE_OUTER_BOUND('',#1446,.T.);
#1448=ADVANCED_FACE('',(#1447),#1441,.F.);
#1449=CARTESIAN_POINT('',(5.989330E-017,-0.835,0.5135));
#1450=DIRECTION('',(0.0,-1.0,0.0));
#1451=DIRECTION('',(0.0,0.0,-1.0));
#1452=AXIS2_PLACEMENT_3D('',#1449,#1450,#1451);
#1453=PLANE('',#1452);
#1454=ORIENTED_EDGE('',*,*,#1278,.F.);
#1455=ORIENTED_EDGE('',*,*,#1432,.T.);
#1456=ORIENTED_EDGE('',*,*,#1208,.F.);
#1457=ORIENTED_EDGE('',*,*,#1169,.F.);
#1458=EDGE_LOOP('',(#1454,#1455,#1456,#1457));
#1459=FACE_OUTER_BOUND('',#1458,.T.);
#1460=ADVANCED_FACE('',(#1459),#1453,.T.);
#1461=CARTESIAN_POINT('',(-0.824428128241156,4.748406E-017,0.5135));
#1462=DIRECTION('',(1.0,0.0,0.0));
#1463=DIRECTION('',(0.0,-1.0,0.0));
#1464=AXIS2_PLACEMENT_3D('',#1461,#1462,#1463);
#1465=PLANE('',#1464);
#1466=ORIENTED_EDGE('',*,*,#1201,.F.);
#1467=ORIENTED_EDGE('',*,*,#1425,.T.);
#1468=ORIENTED_EDGE('',*,*,#1318,.F.);
#1469=ORIENTED_EDGE('',*,*,#1230,.F.);
#1470=EDGE_LOOP('',(#1466,#1467,#1468,#1469));
#1471=FACE_OUTER_BOUND('',#1470,.T.);
#1472=ADVANCED_FACE('',(#1471),#1465,.F.);
#1473=CLOSED_SHELL('',(#1027,#1062,#1097,#1123,#1158,#1180,#1212,#1234,#1257,#1290,#1322,#1344,#1376,#1393,#1410,#1436,#1448,#1460,#1472));
#1474=MANIFOLD_SOLID_BREP('1BE8',#1473);
#1475=COLOUR_RGB('30',1.0,0.5,0.0);
#1476=SURFACE_STYLE_USAGE(.BOTH.,#1477);
#1477=SURFACE_SIDE_STYLE('NONE',(#1478));
#1478=SURFACE_STYLE_FILL_AREA(#1479);
#1479=FILL_AREA_STYLE('NONE',(#1480));
#1480=FILL_AREA_STYLE_COLOUR('NONE',#1475);
#1481=PRESENTATION_STYLE_ASSIGNMENT((#1476));
#1482=STYLED_ITEM('NONE',(#1481),#1474);
#1483=ADVANCED_BREP_SHAPE_REPRESENTATION('ABSR1',(#214,#374,#591,#815,#966,#1474),#28);
#1484=SHAPE_REPRESENTATION_RELATIONSHIP('SRRPL1','',#1483,#62);
ENDSEC;
END-ISO-10303-21;
