ISO-10303-21;
HEADER;
/****************************************************************
 * Generated by software with PDE/Lib inside                    *
 * PDElib Version v51a, created Mon 11/03/2008                  *
 * International Technegroup Inc. (www.iti-oh.com)              *
 ****************************************************************/
FILE_DESCRIPTION((''),'2;1');
FILE_NAME('INDM3225X210N.stp','2010-03-01T14:04:52',(''),(''),'Mechanical Desktop 2010','Mechanical Desktop 2010',', , ');
FILE_SCHEMA(('AUTOMOTIVE_DESIGN { 1 2 10303 214 1 1 1 1 }'));
ENDSEC;
DATA;
#8=(NAMED_UNIT(*)PLANE_ANGLE_UNIT()SI_UNIT($,.RADIAN.));
#9=DIMENSIONAL_EXPONENTS(0.0,0.0,0.0,0.0,0.0,0.0,0.0);
#10=PLANE_ANGLE_MEASURE_WITH_UNIT(PLANE_ANGLE_MEASURE(0.017453292500000),#8);
#14=(CONVERSION_BASED_UNIT('DEGREE',#10)NAMED_UNIT(#9)PLANE_ANGLE_UNIT());
#18=(NAMED_UNIT(*)SI_UNIT($,.STERADIAN.)SOLID_ANGLE_UNIT());
#22=(LENGTH_UNIT()NAMED_UNIT(*)SI_UNIT(.MILLI.,.METRE.));
#23=UNCERTAINTY_MEASURE_WITH_UNIT(LENGTH_MEASURE(0.000001000000000),#22,'DISTANCE_ACCURACY_VALUE','');
#28=(GEOMETRIC_REPRESENTATION_CONTEXT(3)GLOBAL_UNCERTAINTY_ASSIGNED_CONTEXT((#23))GLOBAL_UNIT_ASSIGNED_CONTEXT((#14,#18,#22))REPRESENTATION_CONTEXT('None','None'));
#29=APPLICATION_CONTEXT('automotive design');
#30=APPLICATION_PROTOCOL_DEFINITION('INTERNATIONAL_STANDARD','automotive_design',1998,#29);
#31=PRODUCT_CONTEXT('3D Mechanical Parts',#29,'mechanical');
#32=PRODUCT('Product','Product','',(#31));
#33=PRODUCT_RELATED_PRODUCT_CATEGORY('part',$,(#32));
#34=PRODUCT_CATEGORY('part',$);
#35=PERSON('1','Design','Joe',$,$,$);
#36=ORGANIZATION($,'None','None');
#37=PERSON_AND_ORGANIZATION(#35,#36);
#38=PERSON_AND_ORGANIZATION_ROLE('design_owner');
#39=APPLIED_PERSON_AND_ORGANIZATION_ASSIGNMENT(#37,#38,(#32));
#40=PRODUCT_DEFINITION_FORMATION_WITH_SPECIFIED_SOURCE('None','',#32,.BOUGHT.);
#41=PERSON('2','Creator','Joe',$,$,$);
#42=ORGANIZATION($,'None','None');
#43=PERSON_AND_ORGANIZATION(#41,#42);
#44=PERSON_AND_ORGANIZATION_ROLE('creator');
#45=APPLIED_PERSON_AND_ORGANIZATION_ASSIGNMENT(#43,#44,(#40));
#46=PERSON('3','Supplier','Joe',$,$,$);
#47=ORGANIZATION($,'None','None');
#48=PERSON_AND_ORGANIZATION(#46,#47);
#49=PERSON_AND_ORGANIZATION_ROLE('design_supplier');
#50=APPLIED_PERSON_AND_ORGANIZATION_ASSIGNMENT(#48,#49,(#40));
#51=PRODUCT_DEFINITION_CONTEXT('part definition',#29,'design');
#52=PRODUCT_DEFINITION('None','',#40,#51);
#53=PERSON('4','Creator','Joe',$,$,$);
#54=ORGANIZATION($,'None','None');
#55=PERSON_AND_ORGANIZATION(#53,#54);
#56=PERSON_AND_ORGANIZATION_ROLE('creator');
#57=APPLIED_PERSON_AND_ORGANIZATION_ASSIGNMENT(#55,#56,(#52));
#58=CARTESIAN_POINT('NONE',(0.0,0.0,0.0));
#59=DIRECTION('NONE',(0.0,0.0,1.0));
#60=DIRECTION('NONE',(1.0,0.0,0.0));
#61=AXIS2_PLACEMENT_3D('NONE',#58,#59,#60);
#62=SHAPE_REPRESENTATION('SR1',(#61),#28);
#63=PRODUCT_DEFINITION_SHAPE('PDS1','Test Part',#52);
#64=SHAPE_DEFINITION_REPRESENTATION(#63,#62);
#65=CARTESIAN_POINT('',(-1.614644660940673,-1.000000000000000,0.085355339059327));
#66=CARTESIAN_POINT('',(-1.614644660940673,1.000000000000000,0.085355339059327));
#67=CARTESIAN_POINT('',(-1.650000000000000,-1.000000000000000,0.120710678118655));
#68=CARTESIAN_POINT('',(-1.650000000000000,1.000000000000000,0.120710678118655));
#69=CARTESIAN_POINT('',(-1.685355339059327,-1.000000000000000,0.085355339059327));
#70=CARTESIAN_POINT('',(-1.685355339059327,1.000000000000000,0.085355339059327));
#71=CARTESIAN_POINT('',(-1.720710678118655,-1.000000000000000,0.050000000000000));
#72=CARTESIAN_POINT('',(-1.720710678118655,1.000000000000000,0.050000000000000));
#73=CARTESIAN_POINT('',(-1.685355339059327,-1.000000000000000,0.014644660940673));
#74=CARTESIAN_POINT('',(-1.685355339059327,1.000000000000000,0.014644660940673));
#75=CARTESIAN_POINT('',(-1.650000000000000,-1.000000000000000,-0.020710678118655));
#76=CARTESIAN_POINT('',(-1.650000000000000,1.000000000000000,-0.020710678118655));
#77=CARTESIAN_POINT('',(-1.614644660940672,-1.000000000000000,0.014644660940673));
#78=CARTESIAN_POINT('',(-1.614644660940672,1.000000000000000,0.014644660940673));
#79=CARTESIAN_POINT('',(-1.579289321881345,-1.000000000000000,0.050000000000000));
#80=CARTESIAN_POINT('',(-1.579289321881345,1.000000000000000,0.050000000000000));
#81=CARTESIAN_POINT('',(-1.614644660940673,-1.000000000000000,0.085355339059327));
#82=CARTESIAN_POINT('',(-1.614644660940673,1.000000000000000,0.085355339059327));
#90=(BOUNDED_SURFACE()B_SPLINE_SURFACE(1,2,((#65,#67,#69,#71,#73,#75,#77,#79,#81),(#66,#68,#70,#72,#74,#76,#78,#80,#82)),.UNSPECIFIED.,.F.,.T.,.U.)B_SPLINE_SURFACE_WITH_KNOTS((2,2),(3,2,2,2,3),(-10.0,30.000000000000007),(0.0,0.078539816339745,0.157079632679490,0.235619449019234,0.314159265358979),.UNSPECIFIED.)GEOMETRIC_REPRESENTATION_ITEM()RATIONAL_B_SPLINE_SURFACE(((1.0,0.707106781186548,1.0,0.707106781186548,1.0,0.707106781186548,1.0,0.707106781186548,1.0),(1.0,0.707106781186548,1.0,0.707106781186548,1.0,0.707106781186548,1.0,0.707106781186548,1.0)))REPRESENTATION_ITEM('')SURFACE());
#91=CARTESIAN_POINT('',(-1.650000000000000,1.000000000000000,0.0));
#92=VERTEX_POINT('',#91);
#93=CARTESIAN_POINT('',(-1.700000000000000,1.0,0.050000000000000));
#94=VERTEX_POINT('',#93);
#95=CARTESIAN_POINT('',(-1.650000000000000,1.0,0.050000000000000));
#96=DIRECTION('',(0.0,1.0,0.0));
#97=DIRECTION('',(-0.707106781186546,0.0,-0.707106781186549));
#98=AXIS2_PLACEMENT_3D('',#95,#96,#97);
#99=CIRCLE('',#98,0.050000000000000);
#100=EDGE_CURVE('',#92,#94,#99,.T.);
#101=ORIENTED_EDGE('',*,*,#100,.F.);
#102=CARTESIAN_POINT('',(-1.650000000000000,-1.0,0.0));
#103=VERTEX_POINT('',#102);
#104=CARTESIAN_POINT('',(-1.650000000000000,-1.0,0.0));
#105=DIRECTION('',(0.0,1.0,0.0));
#106=VECTOR('',#105,2.0);
#107=LINE('',#104,#106);
#108=EDGE_CURVE('',#103,#92,#107,.T.);
#109=ORIENTED_EDGE('',*,*,#108,.F.);
#110=CARTESIAN_POINT('',(-1.700000000000000,-1.0,0.050000000000000));
#111=VERTEX_POINT('',#110);
#112=CARTESIAN_POINT('',(-1.650000000000000,-1.0,0.050000000000000));
#113=DIRECTION('',(0.0,-1.0,0.0));
#114=DIRECTION('',(-0.707106781186546,0.0,-0.707106781186549));
#115=AXIS2_PLACEMENT_3D('',#112,#113,#114);
#116=CIRCLE('',#115,0.050000000000000);
#117=EDGE_CURVE('',#111,#103,#116,.T.);
#118=ORIENTED_EDGE('',*,*,#117,.F.);
#119=CARTESIAN_POINT('',(-1.700000000000000,1.0,0.050000000000000));
#120=DIRECTION('',(0.0,-1.0,0.0));
#121=VECTOR('',#120,2.0);
#122=LINE('',#119,#121);
#123=EDGE_CURVE('',#94,#111,#122,.T.);
#124=ORIENTED_EDGE('',*,*,#123,.F.);
#125=EDGE_LOOP('',(#101,#109,#118,#124));
#126=FACE_OUTER_BOUND('',#125,.T.);
#127=ADVANCED_FACE('',(#126),#90,.T.);
#128=CARTESIAN_POINT('',(-1.600000000000000,-1.0,0.0));
#129=DIRECTION('',(0.0,-1.0,0.0));
#130=DIRECTION('',(0.0,0.0,-1.0));
#131=AXIS2_PLACEMENT_3D('',#128,#129,#130);
#132=PLANE('',#131);
#133=ORIENTED_EDGE('',*,*,#117,.T.);
#134=CARTESIAN_POINT('',(-1.600000000000000,-1.0,0.0));
#135=VERTEX_POINT('',#134);
#136=CARTESIAN_POINT('',(-1.600000000000000,-1.0,0.0));
#137=DIRECTION('',(-1.0,0.0,0.0));
#138=VECTOR('',#137,0.050000000000000);
#139=LINE('',#136,#138);
#140=EDGE_CURVE('',#135,#103,#139,.T.);
#141=ORIENTED_EDGE('',*,*,#140,.F.);
#142=CARTESIAN_POINT('',(-1.600000000000000,-1.0,0.500000000000000));
#143=VERTEX_POINT('',#142);
#144=CARTESIAN_POINT('',(-1.600000000000000,-1.0,0.0));
#145=DIRECTION('',(0.0,0.0,1.0));
#146=VECTOR('',#145,0.500000000000000);
#147=LINE('',#144,#146);
#148=EDGE_CURVE('',#135,#143,#147,.T.);
#149=ORIENTED_EDGE('',*,*,#148,.T.);
#150=CARTESIAN_POINT('',(-1.650000000000000,-1.0,0.500000000000000));
#151=VERTEX_POINT('',#150);
#152=CARTESIAN_POINT('',(-1.600000000000000,-1.0,0.500000000000000));
#153=DIRECTION('',(-1.0,0.0,0.0));
#154=VECTOR('',#153,0.050000000000000);
#155=LINE('',#152,#154);
#156=EDGE_CURVE('',#143,#151,#155,.T.);
#157=ORIENTED_EDGE('',*,*,#156,.T.);
#158=CARTESIAN_POINT('',(-1.700000000000000,-1.0,0.450000000000000));
#159=VERTEX_POINT('',#158);
#160=CARTESIAN_POINT('',(-1.650000000000000,-1.0,0.450000000000000));
#161=DIRECTION('',(0.0,-1.0,0.0));
#162=DIRECTION('',(-0.707106781186547,0.0,0.707106781186548));
#163=AXIS2_PLACEMENT_3D('',#160,#161,#162);
#164=CIRCLE('',#163,0.050000000000000);
#165=EDGE_CURVE('',#151,#159,#164,.T.);
#166=ORIENTED_EDGE('',*,*,#165,.T.);
#167=CARTESIAN_POINT('',(-1.700000000000000,-1.0,0.050000000000000));
#168=DIRECTION('',(0.0,0.0,1.0));
#169=VECTOR('',#168,0.400000000000000);
#170=LINE('',#167,#169);
#171=EDGE_CURVE('',#111,#159,#170,.T.);
#172=ORIENTED_EDGE('',*,*,#171,.F.);
#173=EDGE_LOOP('',(#133,#141,#149,#157,#166,#172));
#174=FACE_OUTER_BOUND('',#173,.T.);
#175=ADVANCED_FACE('',(#174),#132,.T.);
#176=CARTESIAN_POINT('',(-1.700000000000000,-1.0,0.0));
#177=DIRECTION('',(-1.0,0.0,0.0));
#178=DIRECTION('',(0.0,0.0,1.0));
#179=AXIS2_PLACEMENT_3D('',#176,#177,#178);
#180=PLANE('',#179);
#181=ORIENTED_EDGE('',*,*,#123,.T.);
#182=ORIENTED_EDGE('',*,*,#171,.T.);
#183=CARTESIAN_POINT('',(-1.700000000000000,1.0,0.450000000000000));
#184=VERTEX_POINT('',#183);
#185=CARTESIAN_POINT('',(-1.700000000000000,-1.0,0.450000000000000));
#186=DIRECTION('',(0.0,1.0,0.0));
#187=VECTOR('',#186,2.0);
#188=LINE('',#185,#187);
#189=EDGE_CURVE('',#159,#184,#188,.T.);
#190=ORIENTED_EDGE('',*,*,#189,.T.);
#191=CARTESIAN_POINT('',(-1.700000000000000,1.0,0.050000000000000));
#192=DIRECTION('',(0.0,0.0,1.0));
#193=VECTOR('',#192,0.400000000000000);
#194=LINE('',#191,#193);
#195=EDGE_CURVE('',#94,#184,#194,.T.);
#196=ORIENTED_EDGE('',*,*,#195,.F.);
#197=EDGE_LOOP('',(#181,#182,#190,#196));
#198=FACE_OUTER_BOUND('',#197,.T.);
#199=ADVANCED_FACE('',(#198),#180,.T.);
#200=CARTESIAN_POINT('',(-1.614644660940673,-1.000000000000000,0.414644660940673));
#201=CARTESIAN_POINT('',(-1.614644660940673,1.000000000000000,0.414644660940673));
#202=CARTESIAN_POINT('',(-1.579289321881345,-1.000000000000000,0.450000000000000));
#203=CARTESIAN_POINT('',(-1.579289321881345,1.000000000000000,0.450000000000000));
#204=CARTESIAN_POINT('',(-1.614644660940673,-1.000000000000000,0.485355339059327));
#205=CARTESIAN_POINT('',(-1.614644660940673,1.000000000000000,0.485355339059327));
#206=CARTESIAN_POINT('',(-1.650000000000000,-1.000000000000000,0.520710678118655));
#207=CARTESIAN_POINT('',(-1.650000000000000,1.000000000000000,0.520710678118655));
#208=CARTESIAN_POINT('',(-1.685355339059327,-1.000000000000000,0.485355339059327));
#209=CARTESIAN_POINT('',(-1.685355339059327,1.000000000000000,0.485355339059327));
#210=CARTESIAN_POINT('',(-1.720710678118655,-1.000000000000000,0.450000000000000));
#211=CARTESIAN_POINT('',(-1.720710678118655,1.000000000000000,0.450000000000000));
#212=CARTESIAN_POINT('',(-1.685355339059327,-1.000000000000000,0.414644660940673));
#213=CARTESIAN_POINT('',(-1.685355339059327,1.000000000000000,0.414644660940673));
#214=CARTESIAN_POINT('',(-1.650000000000000,-1.000000000000000,0.379289321881345));
#215=CARTESIAN_POINT('',(-1.650000000000000,1.000000000000000,0.379289321881345));
#216=CARTESIAN_POINT('',(-1.614644660940673,-1.000000000000000,0.414644660940673));
#217=CARTESIAN_POINT('',(-1.614644660940673,1.000000000000000,0.414644660940673));
#225=(BOUNDED_SURFACE()B_SPLINE_SURFACE(1,2,((#200,#202,#204,#206,#208,#210,#212,#214,#216),(#201,#203,#205,#207,#209,#211,#213,#215,#217)),.UNSPECIFIED.,.F.,.T.,.U.)B_SPLINE_SURFACE_WITH_KNOTS((2,2),(3,2,2,2,3),(-10.0,30.000000000000007),(0.0,0.078539816339745,0.157079632679490,0.235619449019234,0.314159265358979),.UNSPECIFIED.)GEOMETRIC_REPRESENTATION_ITEM()RATIONAL_B_SPLINE_SURFACE(((1.0,0.707106781186548,1.0,0.707106781186548,1.0,0.707106781186548,1.0,0.707106781186548,1.0),(1.0,0.707106781186548,1.0,0.707106781186548,1.0,0.707106781186548,1.0,0.707106781186548,1.0)))REPRESENTATION_ITEM('')SURFACE());
#226=CARTESIAN_POINT('',(-1.650000000000000,1.000000000000000,0.500000000000000));
#227=VERTEX_POINT('',#226);
#228=CARTESIAN_POINT('',(-1.650000000000000,1.0,0.450000000000000));
#229=DIRECTION('',(0.0,1.0,0.0));
#230=DIRECTION('',(-0.707106781186547,0.0,0.707106781186548));
#231=AXIS2_PLACEMENT_3D('',#228,#229,#230);
#232=CIRCLE('',#231,0.050000000000000);
#233=EDGE_CURVE('',#184,#227,#232,.T.);
#234=ORIENTED_EDGE('',*,*,#233,.F.);
#235=ORIENTED_EDGE('',*,*,#189,.F.);
#236=ORIENTED_EDGE('',*,*,#165,.F.);
#237=CARTESIAN_POINT('',(-1.650000000000000,1.000000000000000,0.500000000000000));
#238=DIRECTION('',(0.0,-1.0,0.0));
#239=VECTOR('',#238,2.0);
#240=LINE('',#237,#239);
#241=EDGE_CURVE('',#227,#151,#240,.T.);
#242=ORIENTED_EDGE('',*,*,#241,.F.);
#243=EDGE_LOOP('',(#234,#235,#236,#242));
#244=FACE_OUTER_BOUND('',#243,.T.);
#245=ADVANCED_FACE('',(#244),#225,.T.);
#246=CARTESIAN_POINT('',(-1.700000000000000,1.0,0.0));
#247=DIRECTION('',(0.0,1.0,0.0));
#248=DIRECTION('',(0.0,0.0,1.0));
#249=AXIS2_PLACEMENT_3D('',#246,#247,#248);
#250=PLANE('',#249);
#251=ORIENTED_EDGE('',*,*,#100,.T.);
#252=ORIENTED_EDGE('',*,*,#195,.T.);
#253=ORIENTED_EDGE('',*,*,#233,.T.);
#254=CARTESIAN_POINT('',(-1.600000000000000,1.000000000000000,0.500000000000000));
#255=VERTEX_POINT('',#254);
#256=CARTESIAN_POINT('',(-1.650000000000000,1.000000000000000,0.500000000000000));
#257=DIRECTION('',(1.0,0.0,0.0));
#258=VECTOR('',#257,0.050000000000000);
#259=LINE('',#256,#258);
#260=EDGE_CURVE('',#227,#255,#259,.T.);
#261=ORIENTED_EDGE('',*,*,#260,.T.);
#262=CARTESIAN_POINT('',(-1.600000000000000,1.000000000000000,0.0));
#263=VERTEX_POINT('',#262);
#264=CARTESIAN_POINT('',(-1.600000000000000,1.000000000000000,0.0));
#265=DIRECTION('',(0.0,0.0,1.0));
#266=VECTOR('',#265,0.500000000000000);
#267=LINE('',#264,#266);
#268=EDGE_CURVE('',#263,#255,#267,.T.);
#269=ORIENTED_EDGE('',*,*,#268,.F.);
#270=CARTESIAN_POINT('',(-1.650000000000000,1.000000000000000,0.0));
#271=DIRECTION('',(1.0,0.0,0.0));
#272=VECTOR('',#271,0.050000000000000);
#273=LINE('',#270,#272);
#274=EDGE_CURVE('',#92,#263,#273,.T.);
#275=ORIENTED_EDGE('',*,*,#274,.F.);
#276=EDGE_LOOP('',(#251,#252,#253,#261,#269,#275));
#277=FACE_OUTER_BOUND('',#276,.T.);
#278=ADVANCED_FACE('',(#277),#250,.T.);
#279=CARTESIAN_POINT('',(-1.600000000000000,1.000000000000000,0.0));
#280=DIRECTION('',(1.0,0.0,0.0));
#281=DIRECTION('',(0.0,0.0,-1.0));
#282=AXIS2_PLACEMENT_3D('',#279,#280,#281);
#283=PLANE('',#282);
#284=CARTESIAN_POINT('',(-1.600000000000000,1.000000000000000,0.500000000000000));
#285=DIRECTION('',(0.0,-1.0,0.0));
#286=VECTOR('',#285,2.0);
#287=LINE('',#284,#286);
#288=EDGE_CURVE('',#255,#143,#287,.T.);
#289=ORIENTED_EDGE('',*,*,#288,.T.);
#290=ORIENTED_EDGE('',*,*,#148,.F.);
#291=CARTESIAN_POINT('',(-1.600000000000000,1.000000000000000,0.0));
#292=DIRECTION('',(0.0,-1.0,0.0));
#293=VECTOR('',#292,2.0);
#294=LINE('',#291,#293);
#295=EDGE_CURVE('',#263,#135,#294,.T.);
#296=ORIENTED_EDGE('',*,*,#295,.F.);
#297=ORIENTED_EDGE('',*,*,#268,.T.);
#298=EDGE_LOOP('',(#289,#290,#296,#297));
#299=FACE_OUTER_BOUND('',#298,.T.);
#300=ADVANCED_FACE('',(#299),#283,.T.);
#301=CARTESIAN_POINT('',(-1.650000000000000,8.673617E-017,0.500000000000000));
#302=DIRECTION('',(0.0,0.0,1.0));
#303=DIRECTION('',(1.0,0.0,0.0));
#304=AXIS2_PLACEMENT_3D('',#301,#302,#303);
#305=PLANE('',#304);
#306=ORIENTED_EDGE('',*,*,#241,.T.);
#307=ORIENTED_EDGE('',*,*,#156,.F.);
#308=ORIENTED_EDGE('',*,*,#288,.F.);
#309=ORIENTED_EDGE('',*,*,#260,.F.);
#310=EDGE_LOOP('',(#306,#307,#308,#309));
#311=FACE_OUTER_BOUND('',#310,.T.);
#312=ADVANCED_FACE('',(#311),#305,.T.);
#313=CARTESIAN_POINT('',(-1.650000000000000,8.673617E-017,0.0));
#314=DIRECTION('',(0.0,0.0,1.0));
#315=DIRECTION('',(1.0,0.0,0.0));
#316=AXIS2_PLACEMENT_3D('',#313,#314,#315);
#317=PLANE('',#316);
#318=ORIENTED_EDGE('',*,*,#108,.T.);
#319=ORIENTED_EDGE('',*,*,#274,.T.);
#320=ORIENTED_EDGE('',*,*,#295,.T.);
#321=ORIENTED_EDGE('',*,*,#140,.T.);
#322=EDGE_LOOP('',(#318,#319,#320,#321));
#323=FACE_OUTER_BOUND('',#322,.T.);
#324=ADVANCED_FACE('',(#323),#317,.F.);
#325=CLOSED_SHELL('',(#127,#175,#199,#245,#278,#300,#312,#324));
#326=MANIFOLD_SOLID_BREP('7FC',#325);
#327=COLOUR_RGB('253',0.732000000000000,0.732000000000000,0.732000000000000);
#328=SURFACE_STYLE_USAGE(.BOTH.,#329);
#329=SURFACE_SIDE_STYLE('NONE',(#330));
#330=SURFACE_STYLE_FILL_AREA(#331);
#331=FILL_AREA_STYLE('NONE',(#332));
#332=FILL_AREA_STYLE_COLOUR('NONE',#327);
#333=PRESENTATION_STYLE_ASSIGNMENT((#328));
#334=STYLED_ITEM('NONE',(#333),#326);
#335=MECHANICAL_DESIGN_GEOMETRIC_PRESENTATION_REPRESENTATION('NONE',(#334,#487,#708,#859,#1321),#28);
#336=PRESENTATION_LAYER_ASSIGNMENT('3D','None',(#326,#486,#707,#858,#1313));
#337=CARTESIAN_POINT('',(-1.600000000000000,-1.000000000000000,0.0));
#338=DIRECTION('',(-1.0,0.0,0.0));
#339=DIRECTION('',(0.0,0.0,1.0));
#340=AXIS2_PLACEMENT_3D('',#337,#338,#339);
#341=PLANE('',#340);
#342=CARTESIAN_POINT('',(-1.600000000000000,-1.000000000000000,0.100000000000000));
#343=VERTEX_POINT('',#342);
#344=CARTESIAN_POINT('',(-1.600000000000000,1.000000000000000,0.100000000000000));
#345=VERTEX_POINT('',#344);
#346=CARTESIAN_POINT('',(-1.600000000000000,-1.000000000000000,0.100000000000000));
#347=DIRECTION('',(0.0,1.0,0.0));
#348=VECTOR('',#347,2.0);
#349=LINE('',#346,#348);
#350=EDGE_CURVE('',#343,#345,#349,.T.);
#351=ORIENTED_EDGE('',*,*,#350,.T.);
#352=CARTESIAN_POINT('',(-1.600000000000000,1.000000000000000,0.0));
#353=VERTEX_POINT('',#352);
#354=CARTESIAN_POINT('',(-1.600000000000000,1.000000000000000,0.0));
#355=DIRECTION('',(0.0,0.0,1.0));
#356=VECTOR('',#355,0.100000000000000);
#357=LINE('',#354,#356);
#358=EDGE_CURVE('',#353,#345,#357,.T.);
#359=ORIENTED_EDGE('',*,*,#358,.F.);
#360=CARTESIAN_POINT('',(-1.600000000000000,-1.000000000000000,0.0));
#361=VERTEX_POINT('',#360);
#362=CARTESIAN_POINT('',(-1.600000000000000,-1.000000000000000,0.0));
#363=DIRECTION('',(0.0,1.0,0.0));
#364=VECTOR('',#363,2.0);
#365=LINE('',#362,#364);
#366=EDGE_CURVE('',#361,#353,#365,.T.);
#367=ORIENTED_EDGE('',*,*,#366,.F.);
#368=CARTESIAN_POINT('',(-1.600000000000000,-1.000000000000000,0.0));
#369=DIRECTION('',(0.0,0.0,1.0));
#370=VECTOR('',#369,0.100000000000000);
#371=LINE('',#368,#370);
#372=EDGE_CURVE('',#361,#343,#371,.T.);
#373=ORIENTED_EDGE('',*,*,#372,.T.);
#374=EDGE_LOOP('',(#351,#359,#367,#373));
#375=FACE_OUTER_BOUND('',#374,.T.);
#376=ADVANCED_FACE('',(#375),#341,.T.);
#377=CARTESIAN_POINT('',(-1.600000000000000,1.000000000000000,0.0));
#378=DIRECTION('',(0.0,1.0,0.0));
#379=DIRECTION('',(0.0,0.0,1.0));
#380=AXIS2_PLACEMENT_3D('',#377,#378,#379);
#381=PLANE('',#380);
#382=CARTESIAN_POINT('',(-1.300000000000000,1.0,0.100000000000000));
#383=VERTEX_POINT('',#382);
#384=CARTESIAN_POINT('',(-1.600000000000000,1.000000000000000,0.100000000000000));
#385=DIRECTION('',(1.0,0.0,0.0));
#386=VECTOR('',#385,0.300000000000000);
#387=LINE('',#384,#386);
#388=EDGE_CURVE('',#345,#383,#387,.T.);
#389=ORIENTED_EDGE('',*,*,#388,.T.);
#390=CARTESIAN_POINT('',(-1.300000000000000,1.0,0.0));
#391=VERTEX_POINT('',#390);
#392=CARTESIAN_POINT('',(-1.300000000000000,1.0,0.0));
#393=DIRECTION('',(0.0,0.0,1.0));
#394=VECTOR('',#393,0.100000000000000);
#395=LINE('',#392,#394);
#396=EDGE_CURVE('',#391,#383,#395,.T.);
#397=ORIENTED_EDGE('',*,*,#396,.F.);
#398=CARTESIAN_POINT('',(-1.600000000000000,1.000000000000000,0.0));
#399=DIRECTION('',(1.0,0.0,0.0));
#400=VECTOR('',#399,0.300000000000000);
#401=LINE('',#398,#400);
#402=EDGE_CURVE('',#353,#391,#401,.T.);
#403=ORIENTED_EDGE('',*,*,#402,.F.);
#404=ORIENTED_EDGE('',*,*,#358,.T.);
#405=EDGE_LOOP('',(#389,#397,#403,#404));
#406=FACE_OUTER_BOUND('',#405,.T.);
#407=ADVANCED_FACE('',(#406),#381,.T.);
#408=CARTESIAN_POINT('',(-1.300000000000000,1.0,0.0));
#409=DIRECTION('',(1.0,0.0,0.0));
#410=DIRECTION('',(0.0,0.0,-1.0));
#411=AXIS2_PLACEMENT_3D('',#408,#409,#410);
#412=PLANE('',#411);
#413=CARTESIAN_POINT('',(-1.300000000000000,-1.0,0.100000000000000));
#414=VERTEX_POINT('',#413);
#415=CARTESIAN_POINT('',(-1.300000000000000,1.0,0.100000000000000));
#416=DIRECTION('',(0.0,-1.0,0.0));
#417=VECTOR('',#416,2.0);
#418=LINE('',#415,#417);
#419=EDGE_CURVE('',#383,#414,#418,.T.);
#420=ORIENTED_EDGE('',*,*,#419,.T.);
#421=CARTESIAN_POINT('',(-1.300000000000000,-1.0,0.0));
#422=VERTEX_POINT('',#421);
#423=CARTESIAN_POINT('',(-1.300000000000000,-1.0,0.0));
#424=DIRECTION('',(0.0,0.0,1.0));
#425=VECTOR('',#424,0.100000000000000);
#426=LINE('',#423,#425);
#427=EDGE_CURVE('',#422,#414,#426,.T.);
#428=ORIENTED_EDGE('',*,*,#427,.F.);
#429=CARTESIAN_POINT('',(-1.300000000000000,1.0,0.0));
#430=DIRECTION('',(0.0,-1.0,0.0));
#431=VECTOR('',#430,2.0);
#432=LINE('',#429,#431);
#433=EDGE_CURVE('',#391,#422,#432,.T.);
#434=ORIENTED_EDGE('',*,*,#433,.F.);
#435=ORIENTED_EDGE('',*,*,#396,.T.);
#436=EDGE_LOOP('',(#420,#428,#434,#435));
#437=FACE_OUTER_BOUND('',#436,.T.);
#438=ADVANCED_FACE('',(#437),#412,.T.);
#439=CARTESIAN_POINT('',(-1.300000000000000,-1.0,0.0));
#440=DIRECTION('',(0.0,-1.0,0.0));
#441=DIRECTION('',(0.0,0.0,-1.0));
#442=AXIS2_PLACEMENT_3D('',#439,#440,#441);
#443=PLANE('',#442);
#444=CARTESIAN_POINT('',(-1.300000000000000,-1.0,0.100000000000000));
#445=DIRECTION('',(-1.0,0.0,0.0));
#446=VECTOR('',#445,0.300000000000000);
#447=LINE('',#444,#446);
#448=EDGE_CURVE('',#414,#343,#447,.T.);
#449=ORIENTED_EDGE('',*,*,#448,.T.);
#450=ORIENTED_EDGE('',*,*,#372,.F.);
#451=CARTESIAN_POINT('',(-1.300000000000000,-1.0,0.0));
#452=DIRECTION('',(-1.0,0.0,0.0));
#453=VECTOR('',#452,0.300000000000000);
#454=LINE('',#451,#453);
#455=EDGE_CURVE('',#422,#361,#454,.T.);
#456=ORIENTED_EDGE('',*,*,#455,.F.);
#457=ORIENTED_EDGE('',*,*,#427,.T.);
#458=EDGE_LOOP('',(#449,#450,#456,#457));
#459=FACE_OUTER_BOUND('',#458,.T.);
#460=ADVANCED_FACE('',(#459),#443,.T.);
#461=CARTESIAN_POINT('',(-1.450000000000000,9.857069E-017,0.100000000000000));
#462=DIRECTION('',(0.0,0.0,1.0));
#463=DIRECTION('',(1.0,0.0,0.0));
#464=AXIS2_PLACEMENT_3D('',#461,#462,#463);
#465=PLANE('',#464);
#466=ORIENTED_EDGE('',*,*,#350,.F.);
#467=ORIENTED_EDGE('',*,*,#448,.F.);
#468=ORIENTED_EDGE('',*,*,#419,.F.);
#469=ORIENTED_EDGE('',*,*,#388,.F.);
#470=EDGE_LOOP('',(#466,#467,#468,#469));
#471=FACE_OUTER_BOUND('',#470,.T.);
#472=ADVANCED_FACE('',(#471),#465,.T.);
#473=CARTESIAN_POINT('',(-1.450000000000000,9.857069E-017,0.0));
#474=DIRECTION('',(0.0,0.0,1.0));
#475=DIRECTION('',(1.0,0.0,0.0));
#476=AXIS2_PLACEMENT_3D('',#473,#474,#475);
#477=PLANE('',#476);
#478=ORIENTED_EDGE('',*,*,#455,.T.);
#479=ORIENTED_EDGE('',*,*,#366,.T.);
#480=ORIENTED_EDGE('',*,*,#402,.T.);
#481=ORIENTED_EDGE('',*,*,#433,.T.);
#482=EDGE_LOOP('',(#478,#479,#480,#481));
#483=FACE_OUTER_BOUND('',#482,.T.);
#484=ADVANCED_FACE('',(#483),#477,.F.);
#485=CLOSED_SHELL('',(#376,#407,#438,#460,#472,#484));
#486=MANIFOLD_SOLID_BREP('7FB',#485);
#487=STYLED_ITEM('NONE',(#333),#486);
#488=CARTESIAN_POINT('',(1.650000000000000,-0.500000000000000,0.050000000000000));
#489=DIRECTION('',(0.0,1.0,0.0));
#490=DIRECTION('',(0.707106781186546,0.0,-0.707106781186549));
#491=AXIS2_PLACEMENT_3D('',#488,#489,#490);
#492=CYLINDRICAL_SURFACE('',#491,0.050000000000000);
#493=CARTESIAN_POINT('',(1.650000000000000,1.000000000000000,0.0));
#494=VERTEX_POINT('',#493);
#495=CARTESIAN_POINT('',(1.700000000000000,1.0,0.050000000000000));
#496=VERTEX_POINT('',#495);
#497=CARTESIAN_POINT('',(1.650000000000000,1.0,0.050000000000000));
#498=DIRECTION('',(0.0,-1.0,0.0));
#499=DIRECTION('',(0.707106781186546,0.0,-0.707106781186549));
#500=AXIS2_PLACEMENT_3D('',#497,#498,#499);
#501=CIRCLE('',#500,0.050000000000000);
#502=EDGE_CURVE('',#494,#496,#501,.T.);
#503=ORIENTED_EDGE('',*,*,#502,.T.);
#504=CARTESIAN_POINT('',(1.700000000000000,-1.0,0.050000000000000));
#505=VERTEX_POINT('',#504);
#506=CARTESIAN_POINT('',(1.700000000000000,1.0,0.050000000000000));
#507=DIRECTION('',(0.0,-1.0,0.0));
#508=VECTOR('',#507,2.0);
#509=LINE('',#506,#508);
#510=EDGE_CURVE('',#496,#505,#509,.T.);
#511=ORIENTED_EDGE('',*,*,#510,.T.);
#512=CARTESIAN_POINT('',(1.650000000000000,-1.0,0.0));
#513=VERTEX_POINT('',#512);
#514=CARTESIAN_POINT('',(1.650000000000000,-1.0,0.050000000000000));
#515=DIRECTION('',(0.0,1.0,0.0));
#516=DIRECTION('',(0.707106781186546,0.0,-0.707106781186549));
#517=AXIS2_PLACEMENT_3D('',#514,#515,#516);
#518=CIRCLE('',#517,0.050000000000000);
#519=EDGE_CURVE('',#505,#513,#518,.T.);
#520=ORIENTED_EDGE('',*,*,#519,.T.);
#521=CARTESIAN_POINT('',(1.650000000000000,-1.0,0.0));
#522=DIRECTION('',(0.0,1.0,0.0));
#523=VECTOR('',#522,2.0);
#524=LINE('',#521,#523);
#525=EDGE_CURVE('',#513,#494,#524,.T.);
#526=ORIENTED_EDGE('',*,*,#525,.T.);
#527=EDGE_LOOP('',(#503,#511,#520,#526));
#528=FACE_OUTER_BOUND('',#527,.T.);
#529=ADVANCED_FACE('',(#528),#492,.T.);
#530=CARTESIAN_POINT('',(1.600000000000000,-1.0,0.500000000000000));
#531=CARTESIAN_POINT('',(1.600000000000000,-1.0,0.0));
#532=CARTESIAN_POINT('',(1.700000000000000,-1.0,0.500000000000000));
#533=CARTESIAN_POINT('',(1.700000000000000,-1.0,0.0));
#534=B_SPLINE_SURFACE_WITH_KNOTS('',1,1,((#530,#532),(#531,#533)),.UNSPECIFIED.,.F.,.F.,.U.,(2,2),(2,2),(0.0,0.500000000000000),(0.0,0.100000000000000),.UNSPECIFIED.);
#535=ORIENTED_EDGE('',*,*,#519,.F.);
#536=CARTESIAN_POINT('',(1.700000000000000,-1.0,0.450000000000000));
#537=VERTEX_POINT('',#536);
#538=CARTESIAN_POINT('',(1.700000000000000,-1.0,0.050000000000000));
#539=DIRECTION('',(0.0,0.0,1.0));
#540=VECTOR('',#539,0.400000000000000);
#541=LINE('',#538,#540);
#542=EDGE_CURVE('',#505,#537,#541,.T.);
#543=ORIENTED_EDGE('',*,*,#542,.T.);
#544=CARTESIAN_POINT('',(1.650000000000000,-1.0,0.500000000000000));
#545=VERTEX_POINT('',#544);
#546=CARTESIAN_POINT('',(1.650000000000000,-1.0,0.450000000000000));
#547=DIRECTION('',(0.0,1.0,0.0));
#548=DIRECTION('',(0.707106781186547,0.0,0.707106781186548));
#549=AXIS2_PLACEMENT_3D('',#546,#547,#548);
#550=CIRCLE('',#549,0.050000000000000);
#551=EDGE_CURVE('',#545,#537,#550,.T.);
#552=ORIENTED_EDGE('',*,*,#551,.F.);
#553=CARTESIAN_POINT('',(1.600000000000000,-1.0,0.500000000000000));
#554=VERTEX_POINT('',#553);
#555=CARTESIAN_POINT('',(1.600000000000000,-1.0,0.500000000000000));
#556=DIRECTION('',(1.0,0.0,0.0));
#557=VECTOR('',#556,0.050000000000000);
#558=LINE('',#555,#557);
#559=EDGE_CURVE('',#554,#545,#558,.T.);
#560=ORIENTED_EDGE('',*,*,#559,.F.);
#561=CARTESIAN_POINT('',(1.600000000000000,-1.0,0.0));
#562=VERTEX_POINT('',#561);
#563=CARTESIAN_POINT('',(1.600000000000000,-1.0,0.0));
#564=DIRECTION('',(0.0,0.0,1.0));
#565=VECTOR('',#564,0.500000000000000);
#566=LINE('',#563,#565);
#567=EDGE_CURVE('',#562,#554,#566,.T.);
#568=ORIENTED_EDGE('',*,*,#567,.F.);
#569=CARTESIAN_POINT('',(1.600000000000000,-1.0,0.0));
#570=DIRECTION('',(1.0,0.0,0.0));
#571=VECTOR('',#570,0.050000000000000);
#572=LINE('',#569,#571);
#573=EDGE_CURVE('',#562,#513,#572,.T.);
#574=ORIENTED_EDGE('',*,*,#573,.T.);
#575=EDGE_LOOP('',(#535,#543,#552,#560,#568,#574));
#576=FACE_OUTER_BOUND('',#575,.T.);
#577=ADVANCED_FACE('',(#576),#534,.T.);
#578=CARTESIAN_POINT('',(1.700000000000000,1.0,0.050000000000000));
#579=CARTESIAN_POINT('',(1.700000000000000,1.0,0.450000000000000));
#580=CARTESIAN_POINT('',(1.700000000000000,-1.0,0.050000000000000));
#581=CARTESIAN_POINT('',(1.700000000000000,-1.0,0.450000000000000));
#582=B_SPLINE_SURFACE_WITH_KNOTS('',1,1,((#578,#580),(#579,#581)),.UNSPECIFIED.,.F.,.F.,.U.,(2,2),(2,2),(0.0,0.400000000000000),(0.0,2.0),.UNSPECIFIED.);
#583=ORIENTED_EDGE('',*,*,#510,.F.);
#584=CARTESIAN_POINT('',(1.700000000000000,1.0,0.450000000000000));
#585=VERTEX_POINT('',#584);
#586=CARTESIAN_POINT('',(1.700000000000000,1.0,0.050000000000000));
#587=DIRECTION('',(0.0,0.0,1.0));
#588=VECTOR('',#587,0.400000000000000);
#589=LINE('',#586,#588);
#590=EDGE_CURVE('',#496,#585,#589,.T.);
#591=ORIENTED_EDGE('',*,*,#590,.T.);
#592=CARTESIAN_POINT('',(1.700000000000000,-1.0,0.450000000000000));
#593=DIRECTION('',(0.0,1.0,0.0));
#594=VECTOR('',#593,2.0);
#595=LINE('',#592,#594);
#596=EDGE_CURVE('',#537,#585,#595,.T.);
#597=ORIENTED_EDGE('',*,*,#596,.F.);
#598=ORIENTED_EDGE('',*,*,#542,.F.);
#599=EDGE_LOOP('',(#583,#591,#597,#598));
#600=FACE_OUTER_BOUND('',#599,.T.);
#601=ADVANCED_FACE('',(#600),#582,.T.);
#602=CARTESIAN_POINT('',(1.650000000000000,-0.500000000000000,0.450000000000000));
#603=DIRECTION('',(0.0,1.0,0.0));
#604=DIRECTION('',(0.707106781186547,0.0,0.707106781186548));
#605=AXIS2_PLACEMENT_3D('',#602,#603,#604);
#606=CYLINDRICAL_SURFACE('',#605,0.050000000000000);
#607=CARTESIAN_POINT('',(1.650000000000000,1.000000000000000,0.500000000000000));
#608=VERTEX_POINT('',#607);
#609=CARTESIAN_POINT('',(1.650000000000000,1.0,0.450000000000000));
#610=DIRECTION('',(0.0,-1.0,0.0));
#611=DIRECTION('',(0.707106781186547,0.0,0.707106781186548));
#612=AXIS2_PLACEMENT_3D('',#609,#610,#611);
#613=CIRCLE('',#612,0.050000000000000);
#614=EDGE_CURVE('',#585,#608,#613,.T.);
#615=ORIENTED_EDGE('',*,*,#614,.T.);
#616=CARTESIAN_POINT('',(1.650000000000000,1.000000000000000,0.500000000000000));
#617=DIRECTION('',(0.0,-1.0,0.0));
#618=VECTOR('',#617,2.0);
#619=LINE('',#616,#618);
#620=EDGE_CURVE('',#608,#545,#619,.T.);
#621=ORIENTED_EDGE('',*,*,#620,.T.);
#622=ORIENTED_EDGE('',*,*,#551,.T.);
#623=ORIENTED_EDGE('',*,*,#596,.T.);
#624=EDGE_LOOP('',(#615,#621,#622,#623));
#625=FACE_OUTER_BOUND('',#624,.T.);
#626=ADVANCED_FACE('',(#625),#606,.T.);
#627=CARTESIAN_POINT('',(1.600000000000000,1.000000000000000,0.0));
#628=CARTESIAN_POINT('',(1.600000000000000,1.000000000000000,0.500000000000000));
#629=CARTESIAN_POINT('',(1.700000000000000,1.0,0.0));
#630=CARTESIAN_POINT('',(1.700000000000000,1.000000000000000,0.500000000000000));
#631=B_SPLINE_SURFACE_WITH_KNOTS('',1,1,((#627,#629),(#628,#630)),.UNSPECIFIED.,.F.,.F.,.U.,(2,2),(2,2),(0.0,0.500000000000000),(0.0,0.100000000000000),.UNSPECIFIED.);
#632=ORIENTED_EDGE('',*,*,#502,.F.);
#633=CARTESIAN_POINT('',(1.600000000000000,1.000000000000000,0.0));
#634=VERTEX_POINT('',#633);
#635=CARTESIAN_POINT('',(1.650000000000000,1.000000000000000,0.0));
#636=DIRECTION('',(-1.0,0.0,0.0));
#637=VECTOR('',#636,0.050000000000000);
#638=LINE('',#635,#637);
#639=EDGE_CURVE('',#494,#634,#638,.T.);
#640=ORIENTED_EDGE('',*,*,#639,.T.);
#641=CARTESIAN_POINT('',(1.600000000000000,1.000000000000000,0.500000000000000));
#642=VERTEX_POINT('',#641);
#643=CARTESIAN_POINT('',(1.600000000000000,1.000000000000000,0.0));
#644=DIRECTION('',(0.0,0.0,1.0));
#645=VECTOR('',#644,0.500000000000000);
#646=LINE('',#643,#645);
#647=EDGE_CURVE('',#634,#642,#646,.T.);
#648=ORIENTED_EDGE('',*,*,#647,.T.);
#649=CARTESIAN_POINT('',(1.650000000000000,1.000000000000000,0.500000000000000));
#650=DIRECTION('',(-1.0,0.0,0.0));
#651=VECTOR('',#650,0.050000000000000);
#652=LINE('',#649,#651);
#653=EDGE_CURVE('',#608,#642,#652,.T.);
#654=ORIENTED_EDGE('',*,*,#653,.F.);
#655=ORIENTED_EDGE('',*,*,#614,.F.);
#656=ORIENTED_EDGE('',*,*,#590,.F.);
#657=EDGE_LOOP('',(#632,#640,#648,#654,#655,#656));
#658=FACE_OUTER_BOUND('',#657,.T.);
#659=ADVANCED_FACE('',(#658),#631,.T.);
#660=CARTESIAN_POINT('',(1.600000000000000,1.000000000000000,0.500000000000000));
#661=CARTESIAN_POINT('',(1.600000000000000,1.000000000000000,0.0));
#662=CARTESIAN_POINT('',(1.600000000000000,-1.000000000000000,0.500000000000000));
#663=CARTESIAN_POINT('',(1.600000000000000,-1.000000000000000,0.0));
#664=B_SPLINE_SURFACE_WITH_KNOTS('',1,1,((#660,#662),(#661,#663)),.UNSPECIFIED.,.F.,.F.,.U.,(2,2),(2,2),(0.0,0.500000000000000),(0.0,2.0),.UNSPECIFIED.);
#665=CARTESIAN_POINT('',(1.600000000000000,1.000000000000000,0.500000000000000));
#666=DIRECTION('',(0.0,-1.0,0.0));
#667=VECTOR('',#666,2.0);
#668=LINE('',#665,#667);
#669=EDGE_CURVE('',#642,#554,#668,.T.);
#670=ORIENTED_EDGE('',*,*,#669,.F.);
#671=ORIENTED_EDGE('',*,*,#647,.F.);
#672=CARTESIAN_POINT('',(1.600000000000000,1.000000000000000,0.0));
#673=DIRECTION('',(0.0,-1.0,0.0));
#674=VECTOR('',#673,2.0);
#675=LINE('',#672,#674);
#676=EDGE_CURVE('',#634,#562,#675,.T.);
#677=ORIENTED_EDGE('',*,*,#676,.T.);
#678=ORIENTED_EDGE('',*,*,#567,.T.);
#679=EDGE_LOOP('',(#670,#671,#677,#678));
#680=FACE_OUTER_BOUND('',#679,.T.);
#681=ADVANCED_FACE('',(#680),#664,.T.);
#682=CARTESIAN_POINT('',(1.650000000000000,1.000000000000000,0.500000000000000));
#683=CARTESIAN_POINT('',(1.600000000000000,1.000000000000000,0.500000000000000));
#684=CARTESIAN_POINT('',(1.650000000000000,-1.000000000000000,0.500000000000000));
#685=CARTESIAN_POINT('',(1.600000000000000,-1.000000000000000,0.500000000000000));
#686=B_SPLINE_SURFACE_WITH_KNOTS('',1,1,((#682,#684),(#683,#685)),.UNSPECIFIED.,.F.,.F.,.U.,(2,2),(2,2),(0.0,0.050000000000000),(0.0,2.0),.UNSPECIFIED.);
#687=ORIENTED_EDGE('',*,*,#620,.F.);
#688=ORIENTED_EDGE('',*,*,#653,.T.);
#689=ORIENTED_EDGE('',*,*,#669,.T.);
#690=ORIENTED_EDGE('',*,*,#559,.T.);
#691=EDGE_LOOP('',(#687,#688,#689,#690));
#692=FACE_OUTER_BOUND('',#691,.T.);
#693=ADVANCED_FACE('',(#692),#686,.T.);
#694=CARTESIAN_POINT('',(1.650000000000000,1.000000000000000,0.0));
#695=CARTESIAN_POINT('',(1.600000000000000,1.000000000000000,0.0));
#696=CARTESIAN_POINT('',(1.650000000000000,-1.000000000000000,0.0));
#697=CARTESIAN_POINT('',(1.600000000000000,-1.000000000000000,0.0));
#698=B_SPLINE_SURFACE_WITH_KNOTS('',1,1,((#694,#696),(#695,#697)),.UNSPECIFIED.,.F.,.F.,.U.,(2,2),(2,2),(0.0,0.050000000000000),(0.0,2.0),.UNSPECIFIED.);
#699=ORIENTED_EDGE('',*,*,#525,.F.);
#700=ORIENTED_EDGE('',*,*,#573,.F.);
#701=ORIENTED_EDGE('',*,*,#676,.F.);
#702=ORIENTED_EDGE('',*,*,#639,.F.);
#703=EDGE_LOOP('',(#699,#700,#701,#702));
#704=FACE_OUTER_BOUND('',#703,.T.);
#705=ADVANCED_FACE('',(#704),#698,.F.);
#706=CLOSED_SHELL('',(#529,#577,#601,#626,#659,#681,#693,#705));
#707=MANIFOLD_SOLID_BREP('7F3',#706);
#708=STYLED_ITEM('NONE',(#333),#707);
#709=CARTESIAN_POINT('',(1.600000000000000,1.000000000000000,0.0));
#710=CARTESIAN_POINT('',(1.600000000000000,1.000000000000000,0.100000000000000));
#711=CARTESIAN_POINT('',(1.600000000000000,-1.000000000000000,0.0));
#712=CARTESIAN_POINT('',(1.600000000000000,-1.000000000000000,0.100000000000000));
#713=B_SPLINE_SURFACE_WITH_KNOTS('',1,1,((#709,#711),(#710,#712)),.UNSPECIFIED.,.F.,.F.,.U.,(2,2),(2,2),(0.0,0.100000000000000),(0.0,2.0),.UNSPECIFIED.);
#714=CARTESIAN_POINT('',(1.600000000000000,-1.000000000000000,0.100000000000000));
#715=VERTEX_POINT('',#714);
#716=CARTESIAN_POINT('',(1.600000000000000,1.000000000000000,0.100000000000000));
#717=VERTEX_POINT('',#716);
#718=CARTESIAN_POINT('',(1.600000000000000,-1.000000000000000,0.100000000000000));
#719=DIRECTION('',(0.0,1.0,0.0));
#720=VECTOR('',#719,2.0);
#721=LINE('',#718,#720);
#722=EDGE_CURVE('',#715,#717,#721,.T.);
#723=ORIENTED_EDGE('',*,*,#722,.F.);
#724=CARTESIAN_POINT('',(1.600000000000000,-1.000000000000000,0.0));
#725=VERTEX_POINT('',#724);
#726=CARTESIAN_POINT('',(1.600000000000000,-1.000000000000000,0.0));
#727=DIRECTION('',(0.0,0.0,1.0));
#728=VECTOR('',#727,0.100000000000000);
#729=LINE('',#726,#728);
#730=EDGE_CURVE('',#725,#715,#729,.T.);
#731=ORIENTED_EDGE('',*,*,#730,.F.);
#732=CARTESIAN_POINT('',(1.600000000000000,1.000000000000000,0.0));
#733=VERTEX_POINT('',#732);
#734=CARTESIAN_POINT('',(1.600000000000000,-1.000000000000000,0.0));
#735=DIRECTION('',(0.0,1.0,0.0));
#736=VECTOR('',#735,2.0);
#737=LINE('',#734,#736);
#738=EDGE_CURVE('',#725,#733,#737,.T.);
#739=ORIENTED_EDGE('',*,*,#738,.T.);
#740=CARTESIAN_POINT('',(1.600000000000000,1.000000000000000,0.0));
#741=DIRECTION('',(0.0,0.0,1.0));
#742=VECTOR('',#741,0.100000000000000);
#743=LINE('',#740,#742);
#744=EDGE_CURVE('',#733,#717,#743,.T.);
#745=ORIENTED_EDGE('',*,*,#744,.T.);
#746=EDGE_LOOP('',(#723,#731,#739,#745));
#747=FACE_OUTER_BOUND('',#746,.T.);
#748=ADVANCED_FACE('',(#747),#713,.T.);
#749=CARTESIAN_POINT('',(1.300000000000000,1.0,0.0));
#750=CARTESIAN_POINT('',(1.300000000000000,1.0,0.100000000000000));
#751=CARTESIAN_POINT('',(1.600000000000000,1.000000000000000,0.0));
#752=CARTESIAN_POINT('',(1.600000000000000,1.0,0.100000000000000));
#753=B_SPLINE_SURFACE_WITH_KNOTS('',1,1,((#749,#751),(#750,#752)),.UNSPECIFIED.,.F.,.F.,.U.,(2,2),(2,2),(0.0,0.100000000000000),(0.0,0.300000000000000),.UNSPECIFIED.);
#754=CARTESIAN_POINT('',(1.300000000000000,1.0,0.100000000000000));
#755=VERTEX_POINT('',#754);
#756=CARTESIAN_POINT('',(1.600000000000000,1.000000000000000,0.100000000000000));
#757=DIRECTION('',(-1.0,0.0,0.0));
#758=VECTOR('',#757,0.300000000000000);
#759=LINE('',#756,#758);
#760=EDGE_CURVE('',#717,#755,#759,.T.);
#761=ORIENTED_EDGE('',*,*,#760,.F.);
#762=ORIENTED_EDGE('',*,*,#744,.F.);
#763=CARTESIAN_POINT('',(1.300000000000000,1.0,0.0));
#764=VERTEX_POINT('',#763);
#765=CARTESIAN_POINT('',(1.600000000000000,1.000000000000000,0.0));
#766=DIRECTION('',(-1.0,0.0,0.0));
#767=VECTOR('',#766,0.300000000000000);
#768=LINE('',#765,#767);
#769=EDGE_CURVE('',#733,#764,#768,.T.);
#770=ORIENTED_EDGE('',*,*,#769,.T.);
#771=CARTESIAN_POINT('',(1.300000000000000,1.0,0.0));
#772=DIRECTION('',(0.0,0.0,1.0));
#773=VECTOR('',#772,0.100000000000000);
#774=LINE('',#771,#773);
#775=EDGE_CURVE('',#764,#755,#774,.T.);
#776=ORIENTED_EDGE('',*,*,#775,.T.);
#777=EDGE_LOOP('',(#761,#762,#770,#776));
#778=FACE_OUTER_BOUND('',#777,.T.);
#779=ADVANCED_FACE('',(#778),#753,.T.);
#780=CARTESIAN_POINT('',(1.300000000000000,1.0,0.100000000000000));
#781=CARTESIAN_POINT('',(1.300000000000000,1.0,0.0));
#782=CARTESIAN_POINT('',(1.300000000000000,-1.0,0.100000000000000));
#783=CARTESIAN_POINT('',(1.300000000000000,-1.0,0.0));
#784=B_SPLINE_SURFACE_WITH_KNOTS('',1,1,((#780,#782),(#781,#783)),.UNSPECIFIED.,.F.,.F.,.U.,(2,2),(2,2),(0.0,0.100000000000000),(0.0,2.0),.UNSPECIFIED.);
#785=CARTESIAN_POINT('',(1.300000000000000,-1.0,0.100000000000000));
#786=VERTEX_POINT('',#785);
#787=CARTESIAN_POINT('',(1.300000000000000,1.0,0.100000000000000));
#788=DIRECTION('',(0.0,-1.0,0.0));
#789=VECTOR('',#788,2.0);
#790=LINE('',#787,#789);
#791=EDGE_CURVE('',#755,#786,#790,.T.);
#792=ORIENTED_EDGE('',*,*,#791,.F.);
#793=ORIENTED_EDGE('',*,*,#775,.F.);
#794=CARTESIAN_POINT('',(1.300000000000000,-1.0,0.0));
#795=VERTEX_POINT('',#794);
#796=CARTESIAN_POINT('',(1.300000000000000,1.0,0.0));
#797=DIRECTION('',(0.0,-1.0,0.0));
#798=VECTOR('',#797,2.0);
#799=LINE('',#796,#798);
#800=EDGE_CURVE('',#764,#795,#799,.T.);
#801=ORIENTED_EDGE('',*,*,#800,.T.);
#802=CARTESIAN_POINT('',(1.300000000000000,-1.0,0.0));
#803=DIRECTION('',(0.0,0.0,1.0));
#804=VECTOR('',#803,0.100000000000000);
#805=LINE('',#802,#804);
#806=EDGE_CURVE('',#795,#786,#805,.T.);
#807=ORIENTED_EDGE('',*,*,#806,.T.);
#808=EDGE_LOOP('',(#792,#793,#801,#807));
#809=FACE_OUTER_BOUND('',#808,.T.);
#810=ADVANCED_FACE('',(#809),#784,.T.);
#811=CARTESIAN_POINT('',(1.300000000000000,-1.0,0.100000000000000));
#812=CARTESIAN_POINT('',(1.300000000000000,-1.0,0.0));
#813=CARTESIAN_POINT('',(1.600000000000000,-1.000000000000000,0.100000000000000));
#814=CARTESIAN_POINT('',(1.600000000000000,-1.000000000000000,0.0));
#815=B_SPLINE_SURFACE_WITH_KNOTS('',1,1,((#811,#813),(#812,#814)),.UNSPECIFIED.,.F.,.F.,.U.,(2,2),(2,2),(0.0,0.100000000000000),(0.0,0.300000000000000),.UNSPECIFIED.);
#816=CARTESIAN_POINT('',(1.300000000000000,-1.0,0.100000000000000));
#817=DIRECTION('',(1.0,0.0,0.0));
#818=VECTOR('',#817,0.300000000000000);
#819=LINE('',#816,#818);
#820=EDGE_CURVE('',#786,#715,#819,.T.);
#821=ORIENTED_EDGE('',*,*,#820,.F.);
#822=ORIENTED_EDGE('',*,*,#806,.F.);
#823=CARTESIAN_POINT('',(1.300000000000000,-1.0,0.0));
#824=DIRECTION('',(1.0,0.0,0.0));
#825=VECTOR('',#824,0.300000000000000);
#826=LINE('',#823,#825);
#827=EDGE_CURVE('',#795,#725,#826,.T.);
#828=ORIENTED_EDGE('',*,*,#827,.T.);
#829=ORIENTED_EDGE('',*,*,#730,.T.);
#830=EDGE_LOOP('',(#821,#822,#828,#829));
#831=FACE_OUTER_BOUND('',#830,.T.);
#832=ADVANCED_FACE('',(#831),#815,.T.);
#833=CARTESIAN_POINT('',(1.600000000000000,1.000000000000000,0.100000000000000));
#834=CARTESIAN_POINT('',(1.300000000000000,1.000000000000000,0.100000000000000));
#835=CARTESIAN_POINT('',(1.600000000000000,-1.000000000000000,0.100000000000000));
#836=CARTESIAN_POINT('',(1.300000000000000,-1.000000000000000,0.100000000000000));
#837=B_SPLINE_SURFACE_WITH_KNOTS('',1,1,((#833,#835),(#834,#836)),.UNSPECIFIED.,.F.,.F.,.U.,(2,2),(2,2),(0.0,0.300000000000000),(0.0,2.0),.UNSPECIFIED.);
#838=ORIENTED_EDGE('',*,*,#722,.T.);
#839=ORIENTED_EDGE('',*,*,#760,.T.);
#840=ORIENTED_EDGE('',*,*,#791,.T.);
#841=ORIENTED_EDGE('',*,*,#820,.T.);
#842=EDGE_LOOP('',(#838,#839,#840,#841));
#843=FACE_OUTER_BOUND('',#842,.T.);
#844=ADVANCED_FACE('',(#843),#837,.T.);
#845=CARTESIAN_POINT('',(1.600000000000000,1.000000000000000,0.0));
#846=CARTESIAN_POINT('',(1.300000000000000,1.000000000000000,0.0));
#847=CARTESIAN_POINT('',(1.600000000000000,-1.000000000000000,0.0));
#848=CARTESIAN_POINT('',(1.300000000000000,-1.000000000000000,0.0));
#849=B_SPLINE_SURFACE_WITH_KNOTS('',1,1,((#845,#847),(#846,#848)),.UNSPECIFIED.,.F.,.F.,.U.,(2,2),(2,2),(0.0,0.300000000000000),(0.0,2.0),.UNSPECIFIED.);
#850=ORIENTED_EDGE('',*,*,#827,.F.);
#851=ORIENTED_EDGE('',*,*,#800,.F.);
#852=ORIENTED_EDGE('',*,*,#769,.F.);
#853=ORIENTED_EDGE('',*,*,#738,.F.);
#854=EDGE_LOOP('',(#850,#851,#852,#853));
#855=FACE_OUTER_BOUND('',#854,.T.);
#856=ADVANCED_FACE('',(#855),#849,.F.);
#857=CLOSED_SHELL('',(#748,#779,#810,#832,#844,#856));
#858=MANIFOLD_SOLID_BREP('7F2',#857);
#859=STYLED_ITEM('NONE',(#333),#858);
#860=CARTESIAN_POINT('',(-1.550000000000000,-1.300000000000000,0.100000000000000));
#861=DIRECTION('',(0.0,0.0,1.0));
#862=DIRECTION('',(-0.707106781186544,-0.707106781186551,0.0));
#863=AXIS2_PLACEMENT_3D('',#860,#861,#862);
#864=CYLINDRICAL_SURFACE('',#863,0.050000000000000);
#865=CARTESIAN_POINT('',(-1.600000000000000,-1.300000000000000,0.100000000000000));
#866=VERTEX_POINT('',#865);
#867=CARTESIAN_POINT('',(-1.550000000000000,-1.350000000000000,0.100000000000000));
#868=VERTEX_POINT('',#867);
#869=CARTESIAN_POINT('',(-1.550000000000000,-1.300000000000000,0.100000000000000));
#870=DIRECTION('',(0.0,0.0,1.0));
#871=DIRECTION('',(-0.707106781186544,-0.707106781186551,0.0));
#872=AXIS2_PLACEMENT_3D('',#869,#870,#871);
#873=CIRCLE('',#872,0.050000000000000);
#874=EDGE_CURVE('',#866,#868,#873,.T.);
#875=ORIENTED_EDGE('',*,*,#874,.T.);
#876=CARTESIAN_POINT('',(-1.550000000000000,-1.350000000000000,2.050000000000000));
#877=VERTEX_POINT('',#876);
#878=CARTESIAN_POINT('',(-1.550000000000000,-1.350000000000000,0.100000000000000));
#879=DIRECTION('',(0.0,0.0,1.0));
#880=VECTOR('',#879,1.950000000000000);
#881=LINE('',#878,#880);
#882=EDGE_CURVE('',#868,#877,#881,.T.);
#883=ORIENTED_EDGE('',*,*,#882,.T.);
#884=CARTESIAN_POINT('',(-1.600000000000000,-1.300000000000000,2.050000000000000));
#885=VERTEX_POINT('',#884);
#886=CARTESIAN_POINT('',(-1.550000000000000,-1.300000000000000,2.050000000000000));
#887=DIRECTION('',(0.0,0.0,1.0));
#888=DIRECTION('',(-0.707106781186544,-0.707106781186551,0.0));
#889=AXIS2_PLACEMENT_3D('',#886,#887,#888);
#890=CIRCLE('',#889,0.050000000000000);
#891=EDGE_CURVE('',#885,#877,#890,.T.);
#892=ORIENTED_EDGE('',*,*,#891,.F.);
#893=CARTESIAN_POINT('',(-1.600000000000000,-1.300000000000000,2.050000000000000));
#894=DIRECTION('',(0.0,0.0,-1.0));
#895=VECTOR('',#894,1.950000000000000);
#896=LINE('',#893,#895);
#897=EDGE_CURVE('',#885,#866,#896,.T.);
#898=ORIENTED_EDGE('',*,*,#897,.T.);
#899=EDGE_LOOP('',(#875,#883,#892,#898));
#900=FACE_OUTER_BOUND('',#899,.T.);
#901=ADVANCED_FACE('',(#900),#864,.T.);
#902=CARTESIAN_POINT('',(-1.600000000000000,-1.350000000000000,0.100000000000000));
#903=DIRECTION('',(-1.0,0.0,0.0));
#904=DIRECTION('',(0.0,0.0,1.0));
#905=AXIS2_PLACEMENT_3D('',#902,#903,#904);
#906=PLANE('',#905);
#907=ORIENTED_EDGE('',*,*,#897,.F.);
#908=CARTESIAN_POINT('',(-1.600000000000000,1.300000000000000,2.050000000000000));
#909=VERTEX_POINT('',#908);
#910=CARTESIAN_POINT('',(-1.600000000000000,1.300000000000000,2.050000000000000));
#911=DIRECTION('',(0.0,-1.0,0.0));
#912=VECTOR('',#911,2.600000000000001);
#913=LINE('',#910,#912);
#914=EDGE_CURVE('',#909,#885,#913,.T.);
#915=ORIENTED_EDGE('',*,*,#914,.F.);
#916=CARTESIAN_POINT('',(-1.600000000000000,1.300000000000000,0.100000000000000));
#917=VERTEX_POINT('',#916);
#918=CARTESIAN_POINT('',(-1.600000000000000,1.300000000000000,0.100000000000000));
#919=DIRECTION('',(0.0,0.0,1.0));
#920=VECTOR('',#919,1.950000000000000);
#921=LINE('',#918,#920);
#922=EDGE_CURVE('',#917,#909,#921,.T.);
#923=ORIENTED_EDGE('',*,*,#922,.F.);
#924=CARTESIAN_POINT('',(-1.600000000000000,-1.300000000000000,0.100000000000000));
#925=DIRECTION('',(0.0,1.0,0.0));
#926=VECTOR('',#925,2.600000000000001);
#927=LINE('',#924,#926);
#928=EDGE_CURVE('',#866,#917,#927,.T.);
#929=ORIENTED_EDGE('',*,*,#928,.F.);
#930=EDGE_LOOP('',(#907,#915,#923,#929));
#931=FACE_OUTER_BOUND('',#930,.T.);
#932=ADVANCED_FACE('',(#931),#906,.T.);
#933=CARTESIAN_POINT('',(-1.550000000000000,1.300000000000000,0.100000000000000));
#934=DIRECTION('',(0.0,0.0,1.0));
#935=DIRECTION('',(-0.707106781186551,0.707106781186544,0.0));
#936=AXIS2_PLACEMENT_3D('',#933,#934,#935);
#937=CYLINDRICAL_SURFACE('',#936,0.050000000000000);
#938=CARTESIAN_POINT('',(-1.550000000000000,1.350000000000000,0.100000000000000));
#939=VERTEX_POINT('',#938);
#940=CARTESIAN_POINT('',(-1.550000000000000,1.300000000000000,0.100000000000000));
#941=DIRECTION('',(0.0,0.0,1.0));
#942=DIRECTION('',(-0.707106781186551,0.707106781186544,0.0));
#943=AXIS2_PLACEMENT_3D('',#940,#941,#942);
#944=CIRCLE('',#943,0.050000000000000);
#945=EDGE_CURVE('',#939,#917,#944,.T.);
#946=ORIENTED_EDGE('',*,*,#945,.T.);
#947=ORIENTED_EDGE('',*,*,#922,.T.);
#948=CARTESIAN_POINT('',(-1.550000000000000,1.350000000000000,2.050000000000000));
#949=VERTEX_POINT('',#948);
#950=CARTESIAN_POINT('',(-1.550000000000000,1.300000000000000,2.050000000000000));
#951=DIRECTION('',(0.0,0.0,1.0));
#952=DIRECTION('',(-0.707106781186551,0.707106781186544,0.0));
#953=AXIS2_PLACEMENT_3D('',#950,#951,#952);
#954=CIRCLE('',#953,0.050000000000000);
#955=EDGE_CURVE('',#949,#909,#954,.T.);
#956=ORIENTED_EDGE('',*,*,#955,.F.);
#957=CARTESIAN_POINT('',(-1.550000000000000,1.350000000000000,2.050000000000000));
#958=DIRECTION('',(0.0,0.0,-1.0));
#959=VECTOR('',#958,1.950000000000000);
#960=LINE('',#957,#959);
#961=EDGE_CURVE('',#949,#939,#960,.T.);
#962=ORIENTED_EDGE('',*,*,#961,.T.);
#963=EDGE_LOOP('',(#946,#947,#956,#962));
#964=FACE_OUTER_BOUND('',#963,.T.);
#965=ADVANCED_FACE('',(#964),#937,.T.);
#966=CARTESIAN_POINT('',(-1.600000000000000,1.350000000000000,0.100000000000000));
#967=DIRECTION('',(0.0,1.0,0.0));
#968=DIRECTION('',(0.0,0.0,1.0));
#969=AXIS2_PLACEMENT_3D('',#966,#967,#968);
#970=PLANE('',#969);
#971=ORIENTED_EDGE('',*,*,#961,.F.);
#972=CARTESIAN_POINT('',(1.550000000000000,1.350000000000000,2.050000000000000));
#973=VERTEX_POINT('',#972);
#974=CARTESIAN_POINT('',(1.550000000000000,1.350000000000000,2.050000000000000));
#975=DIRECTION('',(-1.0,0.0,0.0));
#976=VECTOR('',#975,3.100000000000000);
#977=LINE('',#974,#976);
#978=EDGE_CURVE('',#973,#949,#977,.T.);
#979=ORIENTED_EDGE('',*,*,#978,.F.);
#980=CARTESIAN_POINT('',(1.550000000000000,1.350000000000000,0.100000000000000));
#981=VERTEX_POINT('',#980);
#982=CARTESIAN_POINT('',(1.550000000000000,1.350000000000000,0.100000000000000));
#983=DIRECTION('',(0.0,0.0,1.0));
#984=VECTOR('',#983,1.950000000000000);
#985=LINE('',#982,#984);
#986=EDGE_CURVE('',#981,#973,#985,.T.);
#987=ORIENTED_EDGE('',*,*,#986,.F.);
#988=CARTESIAN_POINT('',(-1.550000000000000,1.350000000000000,0.100000000000000));
#989=DIRECTION('',(1.0,0.0,0.0));
#990=VECTOR('',#989,3.100000000000000);
#991=LINE('',#988,#990);
#992=EDGE_CURVE('',#939,#981,#991,.T.);
#993=ORIENTED_EDGE('',*,*,#992,.F.);
#994=EDGE_LOOP('',(#971,#979,#987,#993));
#995=FACE_OUTER_BOUND('',#994,.T.);
#996=ADVANCED_FACE('',(#995),#970,.T.);
#997=CARTESIAN_POINT('',(1.550000000000000,1.300000000000000,0.100000000000000));
#998=DIRECTION('',(0.0,0.0,1.0));
#999=DIRECTION('',(0.707106781186544,0.707106781186551,0.0));
#1000=AXIS2_PLACEMENT_3D('',#997,#998,#999);
#1001=CYLINDRICAL_SURFACE('',#1000,0.050000000000000);
#1002=CARTESIAN_POINT('',(1.600000000000000,1.300000000000000,0.100000000000000));
#1003=VERTEX_POINT('',#1002);
#1004=CARTESIAN_POINT('',(1.550000000000000,1.300000000000000,0.100000000000000));
#1005=DIRECTION('',(0.0,0.0,1.0));
#1006=DIRECTION('',(0.707106781186544,0.707106781186551,0.0));
#1007=AXIS2_PLACEMENT_3D('',#1004,#1005,#1006);
#1008=CIRCLE('',#1007,0.050000000000000);
#1009=EDGE_CURVE('',#1003,#981,#1008,.T.);
#1010=ORIENTED_EDGE('',*,*,#1009,.T.);
#1011=ORIENTED_EDGE('',*,*,#986,.T.);
#1012=CARTESIAN_POINT('',(1.600000000000000,1.300000000000000,2.050000000000000));
#1013=VERTEX_POINT('',#1012);
#1014=CARTESIAN_POINT('',(1.550000000000000,1.300000000000000,2.050000000000000));
#1015=DIRECTION('',(0.0,0.0,1.0));
#1016=DIRECTION('',(0.707106781186544,0.707106781186551,0.0));
#1017=AXIS2_PLACEMENT_3D('',#1014,#1015,#1016);
#1018=CIRCLE('',#1017,0.050000000000000);
#1019=EDGE_CURVE('',#1013,#973,#1018,.T.);
#1020=ORIENTED_EDGE('',*,*,#1019,.F.);
#1021=CARTESIAN_POINT('',(1.600000000000000,1.300000000000000,2.050000000000000));
#1022=DIRECTION('',(0.0,0.0,-1.0));
#1023=VECTOR('',#1022,1.950000000000000);
#1024=LINE('',#1021,#1023);
#1025=EDGE_CURVE('',#1013,#1003,#1024,.T.);
#1026=ORIENTED_EDGE('',*,*,#1025,.T.);
#1027=EDGE_LOOP('',(#1010,#1011,#1020,#1026));
#1028=FACE_OUTER_BOUND('',#1027,.T.);
#1029=ADVANCED_FACE('',(#1028),#1001,.T.);
#1030=CARTESIAN_POINT('',(1.550000000000000,-1.300000000000000,0.100000000000000));
#1031=DIRECTION('',(0.0,0.0,1.0));
#1032=DIRECTION('',(0.707106781186548,-0.707106781186548,0.0));
#1033=AXIS2_PLACEMENT_3D('',#1030,#1031,#1032);
#1034=CYLINDRICAL_SURFACE('',#1033,0.050000000000000);
#1035=CARTESIAN_POINT('',(1.550000000000000,-1.350000000000000,0.100000000000000));
#1036=VERTEX_POINT('',#1035);
#1037=CARTESIAN_POINT('',(1.600000000000000,-1.300000000000000,0.100000000000000));
#1038=VERTEX_POINT('',#1037);
#1039=CARTESIAN_POINT('',(1.550000000000000,-1.300000000000000,0.100000000000000));
#1040=DIRECTION('',(0.0,0.0,1.000000000000000));
#1041=DIRECTION('',(0.707106781186548,-0.707106781186548,0.0));
#1042=AXIS2_PLACEMENT_3D('',#1039,#1040,#1041);
#1043=CIRCLE('',#1042,0.050000000000000);
#1044=EDGE_CURVE('',#1036,#1038,#1043,.T.);
#1045=ORIENTED_EDGE('',*,*,#1044,.T.);
#1046=CARTESIAN_POINT('',(1.600000000000000,-1.300000000000000,2.050000000000000));
#1047=VERTEX_POINT('',#1046);
#1048=CARTESIAN_POINT('',(1.600000000000000,-1.300000000000000,0.100000000000000));
#1049=DIRECTION('',(0.0,0.0,1.0));
#1050=VECTOR('',#1049,1.950000000000000);
#1051=LINE('',#1048,#1050);
#1052=EDGE_CURVE('',#1038,#1047,#1051,.T.);
#1053=ORIENTED_EDGE('',*,*,#1052,.T.);
#1054=CARTESIAN_POINT('',(1.550000000000000,-1.350000000000000,2.050000000000000));
#1055=VERTEX_POINT('',#1054);
#1056=CARTESIAN_POINT('',(1.550000000000000,-1.300000000000000,2.050000000000000));
#1057=DIRECTION('',(0.0,0.0,1.000000000000000));
#1058=DIRECTION('',(0.707106781186548,-0.707106781186548,0.0));
#1059=AXIS2_PLACEMENT_3D('',#1056,#1057,#1058);
#1060=CIRCLE('',#1059,0.050000000000000);
#1061=EDGE_CURVE('',#1055,#1047,#1060,.T.);
#1062=ORIENTED_EDGE('',*,*,#1061,.F.);
#1063=CARTESIAN_POINT('',(1.550000000000000,-1.350000000000000,2.050000000000000));
#1064=DIRECTION('',(0.0,0.0,-1.0));
#1065=VECTOR('',#1064,1.950000000000000);
#1066=LINE('',#1063,#1065);
#1067=EDGE_CURVE('',#1055,#1036,#1066,.T.);
#1068=ORIENTED_EDGE('',*,*,#1067,.T.);
#1069=EDGE_LOOP('',(#1045,#1053,#1062,#1068));
#1070=FACE_OUTER_BOUND('',#1069,.T.);
#1071=ADVANCED_FACE('',(#1070),#1034,.T.);
#1072=CARTESIAN_POINT('',(1.600000000000000,-1.350000000000000,0.100000000000000));
#1073=DIRECTION('',(0.0,-1.0,0.0));
#1074=DIRECTION('',(0.0,0.0,-1.0));
#1075=AXIS2_PLACEMENT_3D('',#1072,#1073,#1074);
#1076=PLANE('',#1075);
#1077=ORIENTED_EDGE('',*,*,#882,.F.);
#1078=CARTESIAN_POINT('',(1.550000000000000,-1.350000000000000,0.100000000000000));
#1079=DIRECTION('',(-1.0,0.0,0.0));
#1080=VECTOR('',#1079,3.100000000000000);
#1081=LINE('',#1078,#1080);
#1082=EDGE_CURVE('',#1036,#868,#1081,.T.);
#1083=ORIENTED_EDGE('',*,*,#1082,.F.);
#1084=ORIENTED_EDGE('',*,*,#1067,.F.);
#1085=CARTESIAN_POINT('',(-1.550000000000000,-1.350000000000000,2.050000000000000));
#1086=DIRECTION('',(1.0,0.0,0.0));
#1087=VECTOR('',#1086,3.100000000000000);
#1088=LINE('',#1085,#1087);
#1089=EDGE_CURVE('',#877,#1055,#1088,.T.);
#1090=ORIENTED_EDGE('',*,*,#1089,.F.);
#1091=EDGE_LOOP('',(#1077,#1083,#1084,#1090));
#1092=FACE_OUTER_BOUND('',#1091,.T.);
#1093=ADVANCED_FACE('',(#1092),#1076,.T.);
#1094=CARTESIAN_POINT('',(-1.550000000000000,-1.300000000000000,2.050000000000000));
#1095=DIRECTION('',(0.0,0.0,1.0));
#1096=DIRECTION('',(1.0,0.0,0.0));
#1097=AXIS2_PLACEMENT_3D('',#1094,#1095,#1096);
#1098=SPHERICAL_SURFACE('',#1097,0.050000000000000);
#1099=ORIENTED_EDGE('',*,*,#891,.T.);
#1100=CARTESIAN_POINT('',(-1.550000000000000,-1.300000000000000,2.100000000000000));
#1101=VERTEX_POINT('',#1100);
#1102=CARTESIAN_POINT('',(-1.550000000000000,-1.300000000000000,2.050000000000000));
#1103=DIRECTION('',(-1.0,0.0,0.0));
#1104=DIRECTION('',(0.0,0.0,1.0));
#1105=AXIS2_PLACEMENT_3D('',#1102,#1103,#1104);
#1106=CIRCLE('',#1105,0.050000000000000);
#1107=EDGE_CURVE('',#1101,#877,#1106,.F.);
#1108=ORIENTED_EDGE('',*,*,#1107,.F.);
#1109=CARTESIAN_POINT('',(-1.550000000000000,-1.300000000000000,2.050000000000000));
#1110=DIRECTION('',(0.0,-1.000000000000000,0.0));
#1111=DIRECTION('',(-0.707106781186548,0.0,0.707106781186548));
#1112=AXIS2_PLACEMENT_3D('',#1109,#1110,#1111);
#1113=CIRCLE('',#1112,0.050000000000000);
#1114=EDGE_CURVE('',#1101,#885,#1113,.T.);
#1115=ORIENTED_EDGE('',*,*,#1114,.T.);
#1116=EDGE_LOOP('',(#1099,#1108,#1115));
#1117=FACE_OUTER_BOUND('',#1116,.T.);
#1118=ADVANCED_FACE('',(#1117),#1098,.T.);
#1119=CARTESIAN_POINT('',(-1.550000000000000,-0.675000000000000,2.050000000000000));
#1120=DIRECTION('',(-8.223874E-017,1.0,0.0));
#1121=DIRECTION('',(-0.707106781186548,0.0,0.707106781186548));
#1122=AXIS2_PLACEMENT_3D('',#1119,#1120,#1121);
#1123=CYLINDRICAL_SURFACE('',#1122,0.050000000000000);
#1124=CARTESIAN_POINT('',(-1.550000000000000,1.300000000000000,2.100000000000000));
#1125=VERTEX_POINT('',#1124);
#1126=CARTESIAN_POINT('',(-1.550000000000000,1.300000000000000,2.050000000000000));
#1127=DIRECTION('',(0.0,1.0,0.0));
#1128=DIRECTION('',(0.0,0.0,1.0));
#1129=AXIS2_PLACEMENT_3D('',#1126,#1127,#1128);
#1130=CIRCLE('',#1129,0.050000000000000);
#1131=EDGE_CURVE('',#1125,#909,#1130,.F.);
#1132=ORIENTED_EDGE('',*,*,#1131,.T.);
#1133=ORIENTED_EDGE('',*,*,#914,.T.);
#1134=ORIENTED_EDGE('',*,*,#1114,.F.);
#1135=CARTESIAN_POINT('',(-1.550000000000000,-1.300000000000000,2.100000000000000));
#1136=DIRECTION('',(0.0,1.0,0.0));
#1137=VECTOR('',#1136,2.600000000000000);
#1138=LINE('',#1135,#1137);
#1139=EDGE_CURVE('',#1101,#1125,#1138,.T.);
#1140=ORIENTED_EDGE('',*,*,#1139,.T.);
#1141=EDGE_LOOP('',(#1132,#1133,#1134,#1140));
#1142=FACE_OUTER_BOUND('',#1141,.T.);
#1143=ADVANCED_FACE('',(#1142),#1123,.T.);
#1144=CARTESIAN_POINT('',(-1.550000000000000,1.300000000000000,2.050000000000000));
#1145=DIRECTION('',(0.0,0.0,1.0));
#1146=DIRECTION('',(1.0,0.0,0.0));
#1147=AXIS2_PLACEMENT_3D('',#1144,#1145,#1146);
#1148=SPHERICAL_SURFACE('',#1147,0.050000000000000);
#1149=ORIENTED_EDGE('',*,*,#955,.T.);
#1150=ORIENTED_EDGE('',*,*,#1131,.F.);
#1151=CARTESIAN_POINT('',(-1.550000000000000,1.300000000000000,2.050000000000000));
#1152=DIRECTION('',(-1.000000000000000,0.0,0.0));
#1153=DIRECTION('',(0.0,0.707106781186548,0.707106781186548));
#1154=AXIS2_PLACEMENT_3D('',#1151,#1152,#1153);
#1155=CIRCLE('',#1154,0.050000000000000);
#1156=EDGE_CURVE('',#1125,#949,#1155,.T.);
#1157=ORIENTED_EDGE('',*,*,#1156,.T.);
#1158=EDGE_LOOP('',(#1149,#1150,#1157));
#1159=FACE_OUTER_BOUND('',#1158,.T.);
#1160=ADVANCED_FACE('',(#1159),#1148,.T.);
#1161=CARTESIAN_POINT('',(-0.800000000000000,1.300000000000000,2.050000000000000));
#1162=DIRECTION('',(1.0,0.0,0.0));
#1163=DIRECTION('',(0.0,0.707106781186551,0.707106781186544));
#1164=AXIS2_PLACEMENT_3D('',#1161,#1162,#1163);
#1165=CYLINDRICAL_SURFACE('',#1164,0.050000000000000);
#1166=CARTESIAN_POINT('',(1.550000000000000,1.300000000000000,2.100000000000000));
#1167=VERTEX_POINT('',#1166);
#1168=CARTESIAN_POINT('',(1.550000000000000,1.300000000000000,2.050000000000000));
#1169=DIRECTION('',(1.0,-4.440892E-015,-4.440892E-015));
#1170=DIRECTION('',(6.280370E-015,0.707106781186551,0.707106781186544));
#1171=AXIS2_PLACEMENT_3D('',#1168,#1169,#1170);
#1172=CIRCLE('',#1171,0.050000000000000);
#1173=EDGE_CURVE('',#973,#1167,#1172,.T.);
#1174=ORIENTED_EDGE('',*,*,#1173,.F.);
#1175=ORIENTED_EDGE('',*,*,#978,.T.);
#1176=ORIENTED_EDGE('',*,*,#1156,.F.);
#1177=CARTESIAN_POINT('',(-1.550000000000000,1.300000000000000,2.100000000000000));
#1178=DIRECTION('',(1.0,0.0,0.0));
#1179=VECTOR('',#1178,3.100000000000000);
#1180=LINE('',#1177,#1179);
#1181=EDGE_CURVE('',#1125,#1167,#1180,.T.);
#1182=ORIENTED_EDGE('',*,*,#1181,.T.);
#1183=EDGE_LOOP('',(#1174,#1175,#1176,#1182));
#1184=FACE_OUTER_BOUND('',#1183,.T.);
#1185=ADVANCED_FACE('',(#1184),#1165,.T.);
#1186=CARTESIAN_POINT('',(1.550000000000000,1.300000000000000,2.050000000000000));
#1187=DIRECTION('',(0.0,0.0,1.0));
#1188=DIRECTION('',(1.0,0.0,0.0));
#1189=AXIS2_PLACEMENT_3D('',#1186,#1187,#1188);
#1190=SPHERICAL_SURFACE('',#1189,0.050000000000000);
#1191=ORIENTED_EDGE('',*,*,#1173,.T.);
#1192=CARTESIAN_POINT('',(1.550000000000000,1.300000000000000,2.050000000000000));
#1193=DIRECTION('',(0.0,1.0,0.0));
#1194=DIRECTION('',(1.0,0.0,0.0));
#1195=AXIS2_PLACEMENT_3D('',#1192,#1193,#1194);
#1196=CIRCLE('',#1195,0.050000000000000);
#1197=EDGE_CURVE('',#1013,#1167,#1196,.F.);
#1198=ORIENTED_EDGE('',*,*,#1197,.F.);
#1199=ORIENTED_EDGE('',*,*,#1019,.T.);
#1200=EDGE_LOOP('',(#1191,#1198,#1199));
#1201=FACE_OUTER_BOUND('',#1200,.T.);
#1202=ADVANCED_FACE('',(#1201),#1190,.T.);
#1203=CARTESIAN_POINT('',(1.550000000000000,-1.300000000000000,2.050000000000000));
#1204=DIRECTION('',(0.0,0.0,1.0));
#1205=DIRECTION('',(1.0,0.0,0.0));
#1206=AXIS2_PLACEMENT_3D('',#1203,#1204,#1205);
#1207=SPHERICAL_SURFACE('',#1206,0.050000000000000);
#1208=CARTESIAN_POINT('',(1.550000000000000,-1.300000000000000,2.100000000000000));
#1209=VERTEX_POINT('',#1208);
#1210=CARTESIAN_POINT('',(1.550000000000000,-1.300000000000000,2.050000000000000));
#1211=DIRECTION('',(0.0,-1.000000000000000,0.0));
#1212=DIRECTION('',(0.707106781186548,0.0,0.707106781186548));
#1213=AXIS2_PLACEMENT_3D('',#1210,#1211,#1212);
#1214=CIRCLE('',#1213,0.050000000000000);
#1215=EDGE_CURVE('',#1047,#1209,#1214,.T.);
#1216=ORIENTED_EDGE('',*,*,#1215,.T.);
#1217=CARTESIAN_POINT('',(1.550000000000000,-1.300000000000000,2.050000000000000));
#1218=DIRECTION('',(1.0,0.0,0.0));
#1219=DIRECTION('',(0.0,-1.0,0.0));
#1220=AXIS2_PLACEMENT_3D('',#1217,#1218,#1219);
#1221=CIRCLE('',#1220,0.050000000000000);
#1222=EDGE_CURVE('',#1055,#1209,#1221,.F.);
#1223=ORIENTED_EDGE('',*,*,#1222,.F.);
#1224=ORIENTED_EDGE('',*,*,#1061,.T.);
#1225=EDGE_LOOP('',(#1216,#1223,#1224));
#1226=FACE_OUTER_BOUND('',#1225,.T.);
#1227=ADVANCED_FACE('',(#1226),#1207,.T.);
#1228=CARTESIAN_POINT('',(0.800000000000000,-1.300000000000000,2.050000000000000));
#1229=DIRECTION('',(-1.0,-6.938894E-017,0.0));
#1230=DIRECTION('',(0.0,-0.707106781186548,0.707106781186548));
#1231=AXIS2_PLACEMENT_3D('',#1228,#1229,#1230);
#1232=CYLINDRICAL_SURFACE('',#1231,0.050000000000000);
#1233=ORIENTED_EDGE('',*,*,#1107,.T.);
#1234=ORIENTED_EDGE('',*,*,#1089,.T.);
#1235=ORIENTED_EDGE('',*,*,#1222,.T.);
#1236=CARTESIAN_POINT('',(1.550000000000000,-1.300000000000000,2.100000000000000));
#1237=DIRECTION('',(-1.0,0.0,0.0));
#1238=VECTOR('',#1237,3.100000000000000);
#1239=LINE('',#1236,#1238);
#1240=EDGE_CURVE('',#1209,#1101,#1239,.T.);
#1241=ORIENTED_EDGE('',*,*,#1240,.T.);
#1242=EDGE_LOOP('',(#1233,#1234,#1235,#1241));
#1243=FACE_OUTER_BOUND('',#1242,.T.);
#1244=ADVANCED_FACE('',(#1243),#1232,.T.);
#1245=CARTESIAN_POINT('',(1.550000000000000,0.675000000000000,2.050000000000000));
#1246=DIRECTION('',(0.0,-1.0,0.0));
#1247=DIRECTION('',(0.707106781186548,0.0,0.707106781186548));
#1248=AXIS2_PLACEMENT_3D('',#1245,#1246,#1247);
#1249=CYLINDRICAL_SURFACE('',#1248,0.050000000000000);
#1250=ORIENTED_EDGE('',*,*,#1215,.F.);
#1251=CARTESIAN_POINT('',(1.600000000000000,-1.300000000000000,2.050000000000000));
#1252=DIRECTION('',(0.0,1.0,0.0));
#1253=VECTOR('',#1252,2.600000000000000);
#1254=LINE('',#1251,#1253);
#1255=EDGE_CURVE('',#1047,#1013,#1254,.T.);
#1256=ORIENTED_EDGE('',*,*,#1255,.T.);
#1257=ORIENTED_EDGE('',*,*,#1197,.T.);
#1258=CARTESIAN_POINT('',(1.550000000000000,1.300000000000000,2.100000000000000));
#1259=DIRECTION('',(0.0,-1.0,0.0));
#1260=VECTOR('',#1259,2.600000000000000);
#1261=LINE('',#1258,#1260);
#1262=EDGE_CURVE('',#1167,#1209,#1261,.T.);
#1263=ORIENTED_EDGE('',*,*,#1262,.T.);
#1264=EDGE_LOOP('',(#1250,#1256,#1257,#1263));
#1265=FACE_OUTER_BOUND('',#1264,.T.);
#1266=ADVANCED_FACE('',(#1265),#1249,.T.);
#1267=CARTESIAN_POINT('',(1.110223E-016,-1.665335E-017,2.100000000000000));
#1268=DIRECTION('',(0.0,0.0,1.0));
#1269=DIRECTION('',(1.0,0.0,0.0));
#1270=AXIS2_PLACEMENT_3D('',#1267,#1268,#1269);
#1271=PLANE('',#1270);
#1272=ORIENTED_EDGE('',*,*,#1240,.F.);
#1273=ORIENTED_EDGE('',*,*,#1262,.F.);
#1274=ORIENTED_EDGE('',*,*,#1181,.F.);
#1275=ORIENTED_EDGE('',*,*,#1139,.F.);
#1276=EDGE_LOOP('',(#1272,#1273,#1274,#1275));
#1277=FACE_OUTER_BOUND('',#1276,.T.);
#1278=ADVANCED_FACE('',(#1277),#1271,.T.);
#1279=CARTESIAN_POINT('',(1.600000000000000,1.350000000000000,0.100000000000000));
#1280=DIRECTION('',(1.0,0.0,0.0));
#1281=DIRECTION('',(0.0,0.0,-1.0));
#1282=AXIS2_PLACEMENT_3D('',#1279,#1280,#1281);
#1283=PLANE('',#1282);
#1284=ORIENTED_EDGE('',*,*,#1052,.F.);
#1285=CARTESIAN_POINT('',(1.600000000000000,1.300000000000000,0.100000000000000));
#1286=DIRECTION('',(0.0,-1.0,0.0));
#1287=VECTOR('',#1286,2.600000000000000);
#1288=LINE('',#1285,#1287);
#1289=EDGE_CURVE('',#1003,#1038,#1288,.T.);
#1290=ORIENTED_EDGE('',*,*,#1289,.F.);
#1291=ORIENTED_EDGE('',*,*,#1025,.F.);
#1292=ORIENTED_EDGE('',*,*,#1255,.F.);
#1293=EDGE_LOOP('',(#1284,#1290,#1291,#1292));
#1294=FACE_OUTER_BOUND('',#1293,.T.);
#1295=ADVANCED_FACE('',(#1294),#1283,.T.);
#1296=CARTESIAN_POINT('',(1.110223E-016,4.996004E-017,0.100000000000000));
#1297=DIRECTION('',(0.0,0.0,1.0));
#1298=DIRECTION('',(1.0,0.0,0.0));
#1299=AXIS2_PLACEMENT_3D('',#1296,#1297,#1298);
#1300=PLANE('',#1299);
#1301=ORIENTED_EDGE('',*,*,#874,.F.);
#1302=ORIENTED_EDGE('',*,*,#928,.T.);
#1303=ORIENTED_EDGE('',*,*,#945,.F.);
#1304=ORIENTED_EDGE('',*,*,#992,.T.);
#1305=ORIENTED_EDGE('',*,*,#1009,.F.);
#1306=ORIENTED_EDGE('',*,*,#1289,.T.);
#1307=ORIENTED_EDGE('',*,*,#1044,.F.);
#1308=ORIENTED_EDGE('',*,*,#1082,.T.);
#1309=EDGE_LOOP('',(#1301,#1302,#1303,#1304,#1305,#1306,#1307,#1308));
#1310=FACE_OUTER_BOUND('',#1309,.T.);
#1311=ADVANCED_FACE('',(#1310),#1300,.F.);
#1312=CLOSED_SHELL('',(#901,#932,#965,#996,#1029,#1071,#1093,#1118,#1143,#1160,#1185,#1202,#1227,#1244,#1266,#1278,#1295,#1311));
#1313=MANIFOLD_SOLID_BREP('7E3',#1312);
#1314=COLOUR_RGB('250',0.330000000000000,0.330000000000000,0.330000000000000);
#1315=SURFACE_STYLE_USAGE(.BOTH.,#1316);
#1316=SURFACE_SIDE_STYLE('NONE',(#1317));
#1317=SURFACE_STYLE_FILL_AREA(#1318);
#1318=FILL_AREA_STYLE('NONE',(#1319));
#1319=FILL_AREA_STYLE_COLOUR('NONE',#1314);
#1320=PRESENTATION_STYLE_ASSIGNMENT((#1315));
#1321=STYLED_ITEM('NONE',(#1320),#1313);
#1322=ADVANCED_BREP_SHAPE_REPRESENTATION('ABSR1',(#326,#486,#707,#858,#1313),#28);
#1323=SHAPE_REPRESENTATION_RELATIONSHIP('SRRPL1','',#1322,#62);
ENDSEC;
END-ISO-10303-21;
