ISO-10303-21;
HEADER;
/****************************************************************
 * Generated by software with PDElib inside                    *
 * PDElib Version v51a, created Fri 09/10/2010                  *
 * ITI Transcendata (http://www.transcendata.com/)              *
 ****************************************************************/
FILE_DESCRIPTION((''),'2;1');
FILE_NAME('INSUL_RICHCO_TO-220-68 _v.stp','2015-06-11T17:53:17',(''),(''),'Mechanical Desktop 2011','Mechanical Desktop 2011',', , ');
FILE_SCHEMA(('AUTOMOTIVE_DESIGN { 1 2 10303 214 1 1 1 1 }'));
ENDSEC;
DATA;
#10=(NAMED_UNIT(*)PLANE_ANGLE_UNIT()SI_UNIT($,.RADIAN.));
#11=DIMENSIONAL_EXPONENTS(0.0,0.0,0.0,0.0,0.0,0.0,0.0);
#12=PLANE_ANGLE_MEASURE_WITH_UNIT(PLANE_ANGLE_MEASURE(0.0174532925),#10);
#16=(CONVERSION_BASED_UNIT('DEGREE',#12)NAMED_UNIT(#11)PLANE_ANGLE_UNIT());
#20=(NAMED_UNIT(*)SI_UNIT($,.STERADIAN.)SOLID_ANGLE_UNIT());
#24=(LENGTH_UNIT()NAMED_UNIT(*)SI_UNIT(.MILLI.,.METRE.));
#26=UNCERTAINTY_MEASURE_WITH_UNIT(LENGTH_MEASURE(0.000001),#24,'DISTANCE_ACCURACY_VALUE','');
#28=(GEOMETRIC_REPRESENTATION_CONTEXT(3)GLOBAL_UNCERTAINTY_ASSIGNED_CONTEXT((#26))GLOBAL_UNIT_ASSIGNED_CONTEXT((#16,#20,#24))REPRESENTATION_CONTEXT('','3D'));
#29=APPLICATION_CONTEXT('automotive design');
#30=APPLICATION_PROTOCOL_DEFINITION('INTERNATIONAL_STANDARD','automotive_design',1998,#29);
#31=PRODUCT_CONTEXT('3D Mechanical Parts',#29,'mechanical');
#32=PRODUCT('Product','Product','',(#31));
#33=PRODUCT_RELATED_PRODUCT_CATEGORY('part',$,(#32));
#34=PRODUCT_CATEGORY('part',$);
#35=PERSON('1','Design','Joe',$,$,$);
#36=ORGANIZATION($,'None','None');
#37=PERSON_AND_ORGANIZATION(#35,#36);
#38=PERSON_AND_ORGANIZATION_ROLE('design_owner');
#39=APPLIED_PERSON_AND_ORGANIZATION_ASSIGNMENT(#37,#38,(#32));
#40=PRODUCT_DEFINITION_FORMATION_WITH_SPECIFIED_SOURCE('None','',#32,.BOUGHT.);
#41=PERSON('2','Creator','Joe',$,$,$);
#42=ORGANIZATION($,'None','None');
#43=PERSON_AND_ORGANIZATION(#41,#42);
#44=PERSON_AND_ORGANIZATION_ROLE('creator');
#45=APPLIED_PERSON_AND_ORGANIZATION_ASSIGNMENT(#43,#44,(#40));
#46=PERSON('3','Supplier','Joe',$,$,$);
#47=ORGANIZATION($,'None','None');
#48=PERSON_AND_ORGANIZATION(#46,#47);
#49=PERSON_AND_ORGANIZATION_ROLE('design_supplier');
#50=APPLIED_PERSON_AND_ORGANIZATION_ASSIGNMENT(#48,#49,(#40));
#51=PRODUCT_DEFINITION_CONTEXT('part definition',#29,'design');
#52=PRODUCT_DEFINITION('None','',#40,#51);
#53=PERSON('4','Creator','Joe',$,$,$);
#54=ORGANIZATION($,'None','None');
#55=PERSON_AND_ORGANIZATION(#53,#54);
#56=PERSON_AND_ORGANIZATION_ROLE('creator');
#57=APPLIED_PERSON_AND_ORGANIZATION_ASSIGNMENT(#55,#56,(#52));
#58=CARTESIAN_POINT('NONE',(0.0,0.0,0.0));
#59=DIRECTION('NONE',(0.0,0.0,1.0));
#60=DIRECTION('NONE',(1.0,0.0,0.0));
#61=AXIS2_PLACEMENT_3D('NONE',#58,#59,#60);
#62=SHAPE_REPRESENTATION('SR1',(#61),#28);
#63=PRODUCT_DEFINITION_SHAPE('PDS1','Test Part',#52);
#64=SHAPE_DEFINITION_REPRESENTATION(#63,#62);
#65=CARTESIAN_POINT('',(-5.606626E-015,0.090000000000007,23.600000000000009));
#66=DIRECTION('',(-2.220446E-016,-1.0,2.832769E-016));
#67=DIRECTION('',(1.0,0.0,0.0));
#68=AXIS2_PLACEMENT_3D('',#65,#66,#67);
#69=CYLINDRICAL_SURFACE('',#68,1.85);
#70=CARTESIAN_POINT('',(1.849999999999994,0.180000000000006,23.600000000000009));
#71=VERTEX_POINT('',#70);
#72=CARTESIAN_POINT('',(1.849999999999994,6.272760E-015,23.600000000000009));
#73=VERTEX_POINT('',#72);
#74=CARTESIAN_POINT('',(1.849999999999994,0.180000000000006,23.600000000000009));
#75=DIRECTION('',(0.0,-1.0,0.0));
#76=VECTOR('',#75,0.18);
#77=LINE('',#74,#76);
#78=EDGE_CURVE('',#71,#73,#77,.T.);
#79=ORIENTED_EDGE('',*,*,#78,.F.);
#80=CARTESIAN_POINT('',(-1.850000000000005,0.180000000000007,23.600000000000009));
#81=VERTEX_POINT('',#80);
#82=CARTESIAN_POINT('',(-5.586642E-015,0.180000000000007,23.600000000000009));
#83=DIRECTION('',(0.0,-1.0,0.0));
#84=DIRECTION('',(1.0,0.0,0.0));
#85=AXIS2_PLACEMENT_3D('',#82,#83,#84);
#86=CIRCLE('',#85,1.85);
#87=EDGE_CURVE('',#81,#71,#86,.T.);
#88=ORIENTED_EDGE('',*,*,#87,.F.);
#89=CARTESIAN_POINT('',(-1.850000000000005,7.105427E-015,23.600000000000009));
#90=VERTEX_POINT('',#89);
#91=CARTESIAN_POINT('',(-1.850000000000005,0.180000000000007,23.600000000000009));
#92=DIRECTION('',(0.0,-1.0,0.0));
#93=VECTOR('',#92,0.18);
#94=LINE('',#91,#93);
#95=EDGE_CURVE('',#81,#90,#94,.T.);
#96=ORIENTED_EDGE('',*,*,#95,.T.);
#97=CARTESIAN_POINT('',(-5.626610E-015,6.689094E-015,23.600000000000009));
#98=DIRECTION('',(0.0,1.0,0.0));
#99=DIRECTION('',(1.0,0.0,0.0));
#100=AXIS2_PLACEMENT_3D('',#97,#98,#99);
#101=CIRCLE('',#100,1.85);
#102=EDGE_CURVE('',#73,#90,#101,.T.);
#103=ORIENTED_EDGE('',*,*,#102,.F.);
#104=EDGE_LOOP('',(#79,#88,#96,#103));
#105=FACE_OUTER_BOUND('',#104,.T.);
#106=ADVANCED_FACE('',(#105),#69,.F.);
#107=CARTESIAN_POINT('',(-5.606626E-015,0.090000000000007,23.600000000000009));
#108=DIRECTION('',(-2.220446E-016,-1.0,2.832769E-016));
#109=DIRECTION('',(1.0,0.0,0.0));
#110=AXIS2_PLACEMENT_3D('',#107,#108,#109);
#111=CYLINDRICAL_SURFACE('',#110,1.85);
#112=ORIENTED_EDGE('',*,*,#78,.T.);
#113=CARTESIAN_POINT('',(-5.626610E-015,6.689094E-015,23.600000000000009));
#114=DIRECTION('',(0.0,1.0,0.0));
#115=DIRECTION('',(1.0,0.0,0.0));
#116=AXIS2_PLACEMENT_3D('',#113,#114,#115);
#117=CIRCLE('',#116,1.85);
#118=EDGE_CURVE('',#90,#73,#117,.T.);
#119=ORIENTED_EDGE('',*,*,#118,.F.);
#120=ORIENTED_EDGE('',*,*,#95,.F.);
#121=CARTESIAN_POINT('',(-5.586642E-015,0.180000000000007,23.600000000000009));
#122=DIRECTION('',(0.0,-1.0,0.0));
#123=DIRECTION('',(1.0,0.0,0.0));
#124=AXIS2_PLACEMENT_3D('',#121,#122,#123);
#125=CIRCLE('',#124,1.85);
#126=EDGE_CURVE('',#71,#81,#125,.T.);
#127=ORIENTED_EDGE('',*,*,#126,.F.);
#128=EDGE_LOOP('',(#112,#119,#120,#127));
#129=FACE_OUTER_BOUND('',#128,.T.);
#130=ADVANCED_FACE('',(#129),#111,.F.);
#131=CARTESIAN_POINT('',(-8.000000000000007,1.777525E-015,-5.329071E-015));
#132=CARTESIAN_POINT('',(8.000000000000007,-1.775189E-015,-1.776357E-015));
#133=CARTESIAN_POINT('',(-8.000000000000014,9.907573E-015,28.70000000000001));
#134=CARTESIAN_POINT('',(8.0,6.354859E-015,28.700000000000017));
#135=B_SPLINE_SURFACE_WITH_KNOTS('',1,1,((#131,#133),(#132,#134)),.UNSPECIFIED.,.F.,.F.,.U.,(2,2),(2,2),(0.0,16.000000000000014),(0.0,28.700000000000017),.UNSPECIFIED.);
#136=CARTESIAN_POINT('',(7.999999999999993,6.356027E-015,28.700000000000003));
#137=VERTEX_POINT('',#136);
#138=CARTESIAN_POINT('',(8.0,-1.776357E-015,1.776357E-015));
#139=VERTEX_POINT('',#138);
#140=CARTESIAN_POINT('',(7.999999999999993,6.354859E-015,28.700000000000003));
#141=DIRECTION('',(0.0,0.0,-1.0));
#142=VECTOR('',#141,28.700000000000003);
#143=LINE('',#140,#142);
#144=EDGE_CURVE('',#137,#139,#143,.T.);
#145=ORIENTED_EDGE('',*,*,#144,.F.);
#146=CARTESIAN_POINT('',(-8.000000000000007,9.908740E-015,28.700000000000003));
#147=VERTEX_POINT('',#146);
#148=CARTESIAN_POINT('',(-8.000000000000007,9.908740E-015,28.699999999999999));
#149=DIRECTION('',(1.0,0.0,0.0));
#150=VECTOR('',#149,16.0);
#151=LINE('',#148,#150);
#152=EDGE_CURVE('',#147,#137,#151,.T.);
#153=ORIENTED_EDGE('',*,*,#152,.F.);
#154=CARTESIAN_POINT('',(-8.0,1.776357E-015,-1.776357E-015));
#155=VERTEX_POINT('',#154);
#156=CARTESIAN_POINT('',(-8.0,1.777525E-015,-1.776357E-015));
#157=DIRECTION('',(0.0,0.0,1.0));
#158=VECTOR('',#157,28.700000000000003);
#159=LINE('',#156,#158);
#160=EDGE_CURVE('',#155,#147,#159,.T.);
#161=ORIENTED_EDGE('',*,*,#160,.F.);
#162=CARTESIAN_POINT('',(8.0,-1.776357E-015,1.776357E-015));
#163=DIRECTION('',(-1.0,0.0,0.0));
#164=VECTOR('',#163,16.0);
#165=LINE('',#162,#164);
#166=EDGE_CURVE('',#139,#155,#165,.T.);
#167=ORIENTED_EDGE('',*,*,#166,.F.);
#168=EDGE_LOOP('',(#145,#153,#161,#167));
#169=FACE_OUTER_BOUND('',#168,.T.);
#170=ORIENTED_EDGE('',*,*,#102,.T.);
#171=ORIENTED_EDGE('',*,*,#118,.T.);
#172=EDGE_LOOP('',(#170,#171));
#173=FACE_BOUND('',#172,.T.);
#174=ADVANCED_FACE('',(#169,#173),#135,.T.);
#175=CARTESIAN_POINT('',(-8.000000000000007,0.180000000000002,-5.329071E-015));
#176=CARTESIAN_POINT('',(8.000000000000007,0.179999999999998,-1.776357E-015));
#177=CARTESIAN_POINT('',(-8.000000000000014,0.18000000000001,28.70000000000001));
#178=CARTESIAN_POINT('',(8.0,0.180000000000006,28.700000000000017));
#179=B_SPLINE_SURFACE_WITH_KNOTS('',1,1,((#175,#177),(#176,#178)),.UNSPECIFIED.,.F.,.F.,.U.,(2,2),(2,2),(0.0,16.000000000000014),(0.0,28.700000000000017),.UNSPECIFIED.);
#180=CARTESIAN_POINT('',(8.0,0.179999999999998,1.776357E-015));
#181=VERTEX_POINT('',#180);
#182=CARTESIAN_POINT('',(7.999999999999993,0.180000000000006,28.700000000000003));
#183=VERTEX_POINT('',#182);
#184=CARTESIAN_POINT('',(8.0,0.179999999999998,1.776357E-015));
#185=DIRECTION('',(0.0,0.0,1.0));
#186=VECTOR('',#185,28.700000000000003);
#187=LINE('',#184,#186);
#188=EDGE_CURVE('',#181,#183,#187,.T.);
#189=ORIENTED_EDGE('',*,*,#188,.F.);
#190=CARTESIAN_POINT('',(-8.0,0.180000000000002,-1.776357E-015));
#191=VERTEX_POINT('',#190);
#192=CARTESIAN_POINT('',(-8.0,0.180000000000002,-1.776357E-015));
#193=DIRECTION('',(1.0,0.0,0.0));
#194=VECTOR('',#193,16.0);
#195=LINE('',#192,#194);
#196=EDGE_CURVE('',#191,#181,#195,.T.);
#197=ORIENTED_EDGE('',*,*,#196,.F.);
#198=CARTESIAN_POINT('',(-8.000000000000007,0.18000000000001,28.700000000000003));
#199=VERTEX_POINT('',#198);
#200=CARTESIAN_POINT('',(-8.000000000000007,0.18000000000001,28.700000000000003));
#201=DIRECTION('',(0.0,0.0,-1.0));
#202=VECTOR('',#201,28.700000000000003);
#203=LINE('',#200,#202);
#204=EDGE_CURVE('',#199,#191,#203,.T.);
#205=ORIENTED_EDGE('',*,*,#204,.F.);
#206=CARTESIAN_POINT('',(7.999999999999993,0.180000000000006,28.700000000000006));
#207=DIRECTION('',(-1.0,0.0,0.0));
#208=VECTOR('',#207,16.0);
#209=LINE('',#206,#208);
#210=EDGE_CURVE('',#183,#199,#209,.T.);
#211=ORIENTED_EDGE('',*,*,#210,.F.);
#212=EDGE_LOOP('',(#189,#197,#205,#211));
#213=FACE_OUTER_BOUND('',#212,.T.);
#214=ORIENTED_EDGE('',*,*,#126,.T.);
#215=ORIENTED_EDGE('',*,*,#87,.T.);
#216=EDGE_LOOP('',(#214,#215));
#217=FACE_BOUND('',#216,.T.);
#218=ADVANCED_FACE('',(#213,#217),#179,.F.);
#219=CARTESIAN_POINT('',(7.999999999999992,0.18000000000001,28.700000000000003));
#220=CARTESIAN_POINT('',(7.999999999999992,2.803313E-015,28.700000000000003));
#221=CARTESIAN_POINT('',(-8.000000000000007,0.180000000000013,28.699999999999999));
#222=CARTESIAN_POINT('',(-8.000000000000007,6.356027E-015,28.700000000000003));
#223=B_SPLINE_SURFACE_WITH_KNOTS('',1,1,((#219,#221),(#220,#222)),.UNSPECIFIED.,.F.,.F.,.U.,(2,2),(2,2),(0.0,0.180000000000007),(0.0,16.0),.UNSPECIFIED.);
#224=CARTESIAN_POINT('',(-8.000000000000007,9.908740E-015,28.700000000000003));
#225=DIRECTION('',(0.0,1.0,0.0));
#226=VECTOR('',#225,0.18);
#227=LINE('',#224,#226);
#228=EDGE_CURVE('',#147,#199,#227,.T.);
#229=ORIENTED_EDGE('',*,*,#228,.F.);
#230=ORIENTED_EDGE('',*,*,#152,.T.);
#231=CARTESIAN_POINT('',(7.999999999999993,6.356027E-015,28.700000000000003));
#232=DIRECTION('',(0.0,1.0,0.0));
#233=VECTOR('',#232,0.18);
#234=LINE('',#231,#233);
#235=EDGE_CURVE('',#137,#183,#234,.T.);
#236=ORIENTED_EDGE('',*,*,#235,.T.);
#237=ORIENTED_EDGE('',*,*,#210,.T.);
#238=EDGE_LOOP('',(#229,#230,#236,#237));
#239=FACE_OUTER_BOUND('',#238,.T.);
#240=ADVANCED_FACE('',(#239),#223,.F.);
#241=CARTESIAN_POINT('',(-8.0,-6.354859E-015,-1.776357E-015));
#242=CARTESIAN_POINT('',(-8.0,0.18000000000001,-1.827347E-015));
#243=CARTESIAN_POINT('',(-8.000000000000007,1.775189E-015,28.700000000000003));
#244=CARTESIAN_POINT('',(-8.000000000000007,0.180000000000018,28.700000000000003));
#245=B_SPLINE_SURFACE_WITH_KNOTS('',1,1,((#241,#243),(#242,#244)),.UNSPECIFIED.,.F.,.F.,.U.,(2,2),(2,2),(0.0,0.180000000000016),(0.0,28.700000000000003),.UNSPECIFIED.);
#246=CARTESIAN_POINT('',(-8.0,1.776357E-015,-1.750862E-015));
#247=DIRECTION('',(0.0,1.0,0.0));
#248=VECTOR('',#247,0.18);
#249=LINE('',#246,#248);
#250=EDGE_CURVE('',#155,#191,#249,.T.);
#251=ORIENTED_EDGE('',*,*,#250,.F.);
#252=ORIENTED_EDGE('',*,*,#160,.T.);
#253=ORIENTED_EDGE('',*,*,#228,.T.);
#254=ORIENTED_EDGE('',*,*,#204,.T.);
#255=EDGE_LOOP('',(#251,#252,#253,#254));
#256=FACE_OUTER_BOUND('',#255,.T.);
#257=ADVANCED_FACE('',(#256),#245,.F.);
#258=CARTESIAN_POINT('',(8.0,-5.329071E-015,1.801852E-015));
#259=CARTESIAN_POINT('',(8.0,0.180000000000002,1.750862E-015));
#260=CARTESIAN_POINT('',(-8.0,-1.776357E-015,-1.750862E-015));
#261=CARTESIAN_POINT('',(-8.0,0.180000000000005,-1.801852E-015));
#262=B_SPLINE_SURFACE_WITH_KNOTS('',1,1,((#258,#260),(#259,#261)),.UNSPECIFIED.,.F.,.F.,.U.,(2,2),(2,2),(0.0,0.180000000000007),(0.0,16.0),.UNSPECIFIED.);
#263=CARTESIAN_POINT('',(8.0,-1.776357E-015,1.801852E-015));
#264=DIRECTION('',(0.0,1.0,0.0));
#265=VECTOR('',#264,0.18);
#266=LINE('',#263,#265);
#267=EDGE_CURVE('',#139,#181,#266,.T.);
#268=ORIENTED_EDGE('',*,*,#267,.F.);
#269=ORIENTED_EDGE('',*,*,#166,.T.);
#270=ORIENTED_EDGE('',*,*,#250,.T.);
#271=ORIENTED_EDGE('',*,*,#196,.T.);
#272=EDGE_LOOP('',(#268,#269,#270,#271));
#273=FACE_OUTER_BOUND('',#272,.T.);
#274=ADVANCED_FACE('',(#273),#262,.F.);
#275=CARTESIAN_POINT('',(8.0,0.180000000000006,1.776357E-015));
#276=CARTESIAN_POINT('',(8.0,-9.880985E-015,1.827347E-015));
#277=CARTESIAN_POINT('',(7.999999999999994,0.180000000000015,28.700000000000003));
#278=CARTESIAN_POINT('',(7.999999999999993,-1.748601E-015,28.700000000000003));
#279=B_SPLINE_SURFACE_WITH_KNOTS('',1,1,((#275,#277),(#276,#278)),.UNSPECIFIED.,.F.,.F.,.U.,(2,2),(2,2),(0.0,0.180000000000016),(0.0,28.700000000000003),.UNSPECIFIED.);
#280=ORIENTED_EDGE('',*,*,#235,.F.);
#281=ORIENTED_EDGE('',*,*,#144,.T.);
#282=ORIENTED_EDGE('',*,*,#267,.T.);
#283=ORIENTED_EDGE('',*,*,#188,.T.);
#284=EDGE_LOOP('',(#280,#281,#282,#283));
#285=FACE_OUTER_BOUND('',#284,.T.);
#286=ADVANCED_FACE('',(#285),#279,.F.);
#287=CLOSED_SHELL('',(#106,#130,#174,#218,#240,#257,#274,#286));
#288=MANIFOLD_SOLID_BREP('7E5',#287);
#289=COLOUR_RGB('252',0.598,0.598,0.598);
#290=SURFACE_STYLE_USAGE(.BOTH.,#291);
#291=SURFACE_SIDE_STYLE('NONE',(#292));
#292=SURFACE_STYLE_FILL_AREA(#293);
#293=FILL_AREA_STYLE('NONE',(#294));
#294=FILL_AREA_STYLE_COLOUR('NONE',#289);
#295=PRESENTATION_STYLE_ASSIGNMENT((#290));
#296=STYLED_ITEM('NONE',(#295),#288);
#297=MECHANICAL_DESIGN_GEOMETRIC_PRESENTATION_REPRESENTATION('NONE',(#296),#28);
#298=PRESENTATION_LAYER_ASSIGNMENT('3D','None',(#288));
#299=ADVANCED_BREP_SHAPE_REPRESENTATION('ABSR1',(#288),#28);
#300=SHAPE_REPRESENTATION_RELATIONSHIP('SRRPL1','',#299,#62);
ENDSEC;
END-ISO-10303-21;
