ISO-10303-21;
HEADER;
/* Generated by software containing ST-Developer
 * from STEP Tools, Inc. (www.steptools.com) 
 */

FILE_DESCRIPTION(
/* description */ (''),
/* implementation_level */ '2;1');

FILE_NAME(
/* name */ 
'G:\\Applications\\Altium\\CernLib\\StepLib\\IST_P14-FEMTOCAP-G.stp',
/* time_stamp */ '2016-03-10T15:07:47+01:00',
/* author */ ('riccim'),
/* organization */ (''),
/* preprocessor_version */ 'ST-DEVELOPER v15.5',
/* originating_system */ 'AutoCAD Mechanical',
/* authorisation */ ' ');

FILE_SCHEMA (('AUTOMOTIVE_DESIGN { 1 0 10303 214 3 1 1 }'));
ENDSEC;

DATA;
#10=MECHANICAL_DESIGN_GEOMETRIC_PRESENTATION_REPRESENTATION('',(#17,#18,
#19,#20),#1684);
#11=DIMENSIONAL_EXPONENTS(0.,0.,0.,0.,0.,0.,0.);
#12=(
CONVERSION_BASED_UNIT('degree',#13)
NAMED_UNIT(#11)
PLANE_ANGLE_UNIT()
);
#13=PLANE_ANGLE_MEASURE_WITH_UNIT(PLANE_ANGLE_MEASURE(0.01745329252),#1687);
#14=PRESENTATION_LAYER_ASSIGNMENT('3D','',(#1065,#1066,#1067,#1068));
#15=SHAPE_REPRESENTATION_RELATIONSHIP('SRR','None',#1690,#16);
#16=ADVANCED_BREP_SHAPE_REPRESENTATION($,(#1065,#1066,#1067,#1068),#1683);
#17=STYLED_ITEM($,(#1700),#1065);
#18=STYLED_ITEM($,(#1701),#1066);
#19=STYLED_ITEM($,(#1702),#1067);
#20=STYLED_ITEM($,(#1702),#1068);
#21=FACE_OUTER_BOUND($,#77,.T.);
#22=FACE_OUTER_BOUND($,#78,.T.);
#23=FACE_OUTER_BOUND($,#79,.T.);
#24=FACE_OUTER_BOUND($,#80,.T.);
#25=FACE_OUTER_BOUND($,#81,.T.);
#26=FACE_OUTER_BOUND($,#82,.T.);
#27=FACE_OUTER_BOUND($,#83,.T.);
#28=FACE_OUTER_BOUND($,#84,.T.);
#29=FACE_OUTER_BOUND($,#85,.T.);
#30=FACE_OUTER_BOUND($,#86,.T.);
#31=FACE_OUTER_BOUND($,#87,.T.);
#32=FACE_OUTER_BOUND($,#88,.T.);
#33=FACE_OUTER_BOUND($,#89,.T.);
#34=FACE_OUTER_BOUND($,#90,.T.);
#35=FACE_OUTER_BOUND($,#91,.T.);
#36=FACE_OUTER_BOUND($,#92,.T.);
#37=FACE_OUTER_BOUND($,#93,.T.);
#38=FACE_OUTER_BOUND($,#94,.T.);
#39=FACE_OUTER_BOUND($,#95,.T.);
#40=FACE_OUTER_BOUND($,#96,.T.);
#41=FACE_OUTER_BOUND($,#97,.T.);
#42=FACE_OUTER_BOUND($,#98,.T.);
#43=FACE_OUTER_BOUND($,#99,.T.);
#44=FACE_OUTER_BOUND($,#100,.T.);
#45=FACE_OUTER_BOUND($,#101,.T.);
#46=FACE_OUTER_BOUND($,#102,.T.);
#47=FACE_OUTER_BOUND($,#103,.T.);
#48=FACE_OUTER_BOUND($,#104,.T.);
#49=FACE_OUTER_BOUND($,#105,.T.);
#50=FACE_OUTER_BOUND($,#106,.T.);
#51=FACE_OUTER_BOUND($,#107,.T.);
#52=FACE_OUTER_BOUND($,#108,.T.);
#53=FACE_OUTER_BOUND($,#109,.T.);
#54=FACE_OUTER_BOUND($,#110,.T.);
#55=FACE_OUTER_BOUND($,#111,.T.);
#56=FACE_OUTER_BOUND($,#112,.T.);
#57=FACE_OUTER_BOUND($,#113,.T.);
#58=FACE_OUTER_BOUND($,#114,.T.);
#59=FACE_OUTER_BOUND($,#115,.T.);
#60=FACE_OUTER_BOUND($,#116,.T.);
#61=FACE_OUTER_BOUND($,#117,.T.);
#62=FACE_OUTER_BOUND($,#118,.T.);
#63=FACE_OUTER_BOUND($,#119,.T.);
#64=FACE_OUTER_BOUND($,#120,.T.);
#65=FACE_OUTER_BOUND($,#121,.T.);
#66=FACE_OUTER_BOUND($,#122,.T.);
#67=FACE_OUTER_BOUND($,#123,.T.);
#68=FACE_OUTER_BOUND($,#124,.T.);
#69=FACE_OUTER_BOUND($,#125,.T.);
#70=FACE_OUTER_BOUND($,#126,.T.);
#71=FACE_OUTER_BOUND($,#127,.T.);
#72=FACE_OUTER_BOUND($,#128,.T.);
#73=FACE_OUTER_BOUND($,#129,.T.);
#74=FACE_OUTER_BOUND($,#130,.T.);
#75=FACE_OUTER_BOUND($,#131,.T.);
#76=FACE_OUTER_BOUND($,#132,.T.);
#77=EDGE_LOOP($,(#661,#662,#663,#664));
#78=EDGE_LOOP($,(#665,#666,#667,#668));
#79=EDGE_LOOP($,(#669,#670,#671,#672));
#80=EDGE_LOOP($,(#673,#674,#675,#676));
#81=EDGE_LOOP($,(#677,#678,#679,#680));
#82=EDGE_LOOP($,(#681,#682,#683,#684));
#83=EDGE_LOOP($,(#685,#686,#687,#688));
#84=EDGE_LOOP($,(#689,#690,#691,#692));
#85=EDGE_LOOP($,(#693,#694,#695,#696));
#86=EDGE_LOOP($,(#697,#698,#699,#700));
#87=EDGE_LOOP($,(#701,#702,#703,#704));
#88=EDGE_LOOP($,(#705,#706,#707,#708));
#89=EDGE_LOOP($,(#709,#710,#711,#712));
#90=EDGE_LOOP($,(#713,#714,#715,#716));
#91=EDGE_LOOP($,(#717,#718,#719,#720));
#92=EDGE_LOOP($,(#721,#722,#723,#724));
#93=EDGE_LOOP($,(#725,#726,#727,#728));
#94=EDGE_LOOP($,(#729,#730,#731,#732));
#95=EDGE_LOOP($,(#733,#734,#735,#736,#737,#738,#739,#740,#741,#742,#743,
#744,#745,#746,#747,#748,#749,#750,#751,#752));
#96=EDGE_LOOP($,(#753,#754,#755,#756,#757,#758,#759,#760,#761,#762,#763,
#764));
#97=EDGE_LOOP($,(#765,#766,#767,#768,#769,#770,#771,#772,#773,#774,#775,
#776));
#98=EDGE_LOOP($,(#777,#778,#779,#780,#781,#782,#783,#784));
#99=EDGE_LOOP($,(#785,#786,#787,#788));
#100=EDGE_LOOP($,(#789,#790,#791,#792));
#101=EDGE_LOOP($,(#793,#794,#795,#796,#797,#798,#799,#800));
#102=EDGE_LOOP($,(#801,#802,#803,#804));
#103=EDGE_LOOP($,(#805,#806,#807,#808));
#104=EDGE_LOOP($,(#809,#810,#811,#812));
#105=EDGE_LOOP($,(#813,#814,#815,#816));
#106=EDGE_LOOP($,(#817,#818,#819,#820));
#107=EDGE_LOOP($,(#821,#822,#823,#824));
#108=EDGE_LOOP($,(#825,#826,#827,#828));
#109=EDGE_LOOP($,(#829,#830,#831,#832));
#110=EDGE_LOOP($,(#833,#834,#835,#836));
#111=EDGE_LOOP($,(#837,#838,#839,#840));
#112=EDGE_LOOP($,(#841,#842,#843,#844));
#113=EDGE_LOOP($,(#845,#846,#847,#848));
#114=EDGE_LOOP($,(#849,#850,#851,#852));
#115=EDGE_LOOP($,(#853,#854,#855,#856));
#116=EDGE_LOOP($,(#857,#858,#859,#860));
#117=EDGE_LOOP($,(#861,#862,#863,#864,#865,#866,#867,#868));
#118=EDGE_LOOP($,(#869,#870,#871,#872,#873,#874,#875,#876));
#119=EDGE_LOOP($,(#877,#878,#879,#880));
#120=EDGE_LOOP($,(#881,#882,#883,#884));
#121=EDGE_LOOP($,(#885,#886,#887,#888));
#122=EDGE_LOOP($,(#889,#890,#891,#892));
#123=EDGE_LOOP($,(#893,#894,#895,#896));
#124=EDGE_LOOP($,(#897,#898,#899,#900));
#125=EDGE_LOOP($,(#901,#902,#903,#904));
#126=EDGE_LOOP($,(#905,#906,#907,#908));
#127=EDGE_LOOP($,(#909,#910,#911,#912));
#128=EDGE_LOOP($,(#913,#914,#915,#916));
#129=EDGE_LOOP($,(#917,#918,#919,#920));
#130=EDGE_LOOP($,(#921,#922,#923,#924));
#131=EDGE_LOOP($,(#925,#926,#927,#928,#929,#930,#931,#932,#933,#934,#935,
#936));
#132=EDGE_LOOP($,(#937,#938,#939,#940,#941,#942,#943,#944,#945,#946,#947,
#948));
#133=LINE($,#1388,#277);
#134=LINE($,#1390,#278);
#135=LINE($,#1392,#279);
#136=LINE($,#1393,#280);
#137=LINE($,#1397,#281);
#138=LINE($,#1399,#282);
#139=LINE($,#1401,#283);
#140=LINE($,#1402,#284);
#141=LINE($,#1405,#285);
#142=LINE($,#1407,#286);
#143=LINE($,#1408,#287);
#144=LINE($,#1411,#288);
#145=LINE($,#1413,#289);
#146=LINE($,#1414,#290);
#147=LINE($,#1417,#291);
#148=LINE($,#1419,#292);
#149=LINE($,#1420,#293);
#150=LINE($,#1423,#294);
#151=LINE($,#1425,#295);
#152=LINE($,#1426,#296);
#153=LINE($,#1429,#297);
#154=LINE($,#1431,#298);
#155=LINE($,#1432,#299);
#156=LINE($,#1435,#300);
#157=LINE($,#1437,#301);
#158=LINE($,#1438,#302);
#159=LINE($,#1440,#303);
#160=LINE($,#1441,#304);
#161=LINE($,#1445,#305);
#162=LINE($,#1447,#306);
#163=LINE($,#1449,#307);
#164=LINE($,#1450,#308);
#165=LINE($,#1453,#309);
#166=LINE($,#1455,#310);
#167=LINE($,#1456,#311);
#168=LINE($,#1460,#312);
#169=LINE($,#1462,#313);
#170=LINE($,#1464,#314);
#171=LINE($,#1465,#315);
#172=LINE($,#1468,#316);
#173=LINE($,#1470,#317);
#174=LINE($,#1471,#318);
#175=LINE($,#1474,#319);
#176=LINE($,#1476,#320);
#177=LINE($,#1477,#321);
#178=LINE($,#1480,#322);
#179=LINE($,#1482,#323);
#180=LINE($,#1483,#324);
#181=LINE($,#1486,#325);
#182=LINE($,#1488,#326);
#183=LINE($,#1489,#327);
#184=LINE($,#1492,#328);
#185=LINE($,#1494,#329);
#186=LINE($,#1495,#330);
#187=LINE($,#1497,#331);
#188=LINE($,#1498,#332);
#189=LINE($,#1500,#333);
#190=LINE($,#1501,#334);
#191=LINE($,#1504,#335);
#192=LINE($,#1506,#336);
#193=LINE($,#1507,#337);
#194=LINE($,#1510,#338);
#195=LINE($,#1512,#339);
#196=LINE($,#1513,#340);
#197=LINE($,#1516,#341);
#198=LINE($,#1518,#342);
#199=LINE($,#1519,#343);
#200=LINE($,#1522,#344);
#201=LINE($,#1523,#345);
#202=LINE($,#1526,#346);
#203=LINE($,#1527,#347);
#204=LINE($,#1529,#348);
#205=LINE($,#1534,#349);
#206=LINE($,#1536,#350);
#207=LINE($,#1538,#351);
#208=LINE($,#1539,#352);
#209=LINE($,#1542,#353);
#210=LINE($,#1544,#354);
#211=LINE($,#1545,#355);
#212=LINE($,#1548,#356);
#213=LINE($,#1550,#357);
#214=LINE($,#1551,#358);
#215=LINE($,#1553,#359);
#216=LINE($,#1554,#360);
#217=LINE($,#1560,#361);
#218=LINE($,#1562,#362);
#219=LINE($,#1564,#363);
#220=LINE($,#1565,#364);
#221=LINE($,#1568,#365);
#222=LINE($,#1570,#366);
#223=LINE($,#1571,#367);
#224=LINE($,#1574,#368);
#225=LINE($,#1576,#369);
#226=LINE($,#1577,#370);
#227=LINE($,#1580,#371);
#228=LINE($,#1582,#372);
#229=LINE($,#1583,#373);
#230=LINE($,#1586,#374);
#231=LINE($,#1588,#375);
#232=LINE($,#1589,#376);
#233=LINE($,#1592,#377);
#234=LINE($,#1594,#378);
#235=LINE($,#1595,#379);
#236=LINE($,#1598,#380);
#237=LINE($,#1600,#381);
#238=LINE($,#1601,#382);
#239=LINE($,#1603,#383);
#240=LINE($,#1604,#384);
#241=LINE($,#1610,#385);
#242=LINE($,#1612,#386);
#243=LINE($,#1614,#387);
#244=LINE($,#1615,#388);
#245=LINE($,#1618,#389);
#246=LINE($,#1620,#390);
#247=LINE($,#1621,#391);
#248=LINE($,#1624,#392);
#249=LINE($,#1626,#393);
#250=LINE($,#1627,#394);
#251=LINE($,#1630,#395);
#252=LINE($,#1632,#396);
#253=LINE($,#1633,#397);
#254=LINE($,#1636,#398);
#255=LINE($,#1638,#399);
#256=LINE($,#1639,#400);
#257=LINE($,#1642,#401);
#258=LINE($,#1644,#402);
#259=LINE($,#1645,#403);
#260=LINE($,#1648,#404);
#261=LINE($,#1650,#405);
#262=LINE($,#1651,#406);
#263=LINE($,#1654,#407);
#264=LINE($,#1656,#408);
#265=LINE($,#1657,#409);
#266=LINE($,#1660,#410);
#267=LINE($,#1662,#411);
#268=LINE($,#1663,#412);
#269=LINE($,#1666,#413);
#270=LINE($,#1668,#414);
#271=LINE($,#1669,#415);
#272=LINE($,#1672,#416);
#273=LINE($,#1674,#417);
#274=LINE($,#1675,#418);
#275=LINE($,#1677,#419);
#276=LINE($,#1678,#420);
#277=VECTOR($,#1130,0.1);
#278=VECTOR($,#1131,0.999999999999999);
#279=VECTOR($,#1132,0.1);
#280=VECTOR($,#1133,0.999999999999999);
#281=VECTOR($,#1136,0.1);
#282=VECTOR($,#1137,1.);
#283=VECTOR($,#1138,0.1);
#284=VECTOR($,#1139,1.);
#285=VECTOR($,#1142,0.3);
#286=VECTOR($,#1143,0.1);
#287=VECTOR($,#1144,0.3);
#288=VECTOR($,#1147,0.75);
#289=VECTOR($,#1148,0.1);
#290=VECTOR($,#1149,0.75);
#291=VECTOR($,#1152,0.5);
#292=VECTOR($,#1153,0.1);
#293=VECTOR($,#1154,0.5);
#294=VECTOR($,#1157,1.7);
#295=VECTOR($,#1158,0.1);
#296=VECTOR($,#1159,1.7);
#297=VECTOR($,#1162,0.5);
#298=VECTOR($,#1163,0.1);
#299=VECTOR($,#1164,0.5);
#300=VECTOR($,#1167,0.75);
#301=VECTOR($,#1168,0.1);
#302=VECTOR($,#1169,0.75);
#303=VECTOR($,#1172,0.3);
#304=VECTOR($,#1173,0.3);
#305=VECTOR($,#1176,0.0999999999999999);
#306=VECTOR($,#1177,0.1);
#307=VECTOR($,#1178,0.0999999999999999);
#308=VECTOR($,#1179,0.1);
#309=VECTOR($,#1182,1.);
#310=VECTOR($,#1183,0.1);
#311=VECTOR($,#1184,1.);
#312=VECTOR($,#1187,1.);
#313=VECTOR($,#1188,0.1);
#314=VECTOR($,#1189,1.);
#315=VECTOR($,#1190,0.1);
#316=VECTOR($,#1193,0.0999999999999999);
#317=VECTOR($,#1194,0.1);
#318=VECTOR($,#1195,0.0999999999999999);
#319=VECTOR($,#1198,0.75);
#320=VECTOR($,#1199,0.1);
#321=VECTOR($,#1200,0.75);
#322=VECTOR($,#1203,0.5);
#323=VECTOR($,#1204,0.1);
#324=VECTOR($,#1205,0.5);
#325=VECTOR($,#1208,1.7);
#326=VECTOR($,#1209,0.1);
#327=VECTOR($,#1210,1.7);
#328=VECTOR($,#1213,0.5);
#329=VECTOR($,#1214,0.1);
#330=VECTOR($,#1215,0.5);
#331=VECTOR($,#1218,0.75);
#332=VECTOR($,#1219,0.75);
#333=VECTOR($,#1222,2.4);
#334=VECTOR($,#1223,2.4);
#335=VECTOR($,#1226,0.8);
#336=VECTOR($,#1227,2.2);
#337=VECTOR($,#1228,0.8);
#338=VECTOR($,#1231,1.);
#339=VECTOR($,#1232,2.2);
#340=VECTOR($,#1233,1.);
#341=VECTOR($,#1236,0.5);
#342=VECTOR($,#1237,4.2);
#343=VECTOR($,#1238,0.5);
#344=VECTOR($,#1241,0.5);
#345=VECTOR($,#1242,2.2);
#346=VECTOR($,#1245,2.2);
#347=VECTOR($,#1246,0.5);
#348=VECTOR($,#1249,4.2);
#349=VECTOR($,#1254,2.2);
#350=VECTOR($,#1255,0.1);
#351=VECTOR($,#1256,2.2);
#352=VECTOR($,#1257,0.1);
#353=VECTOR($,#1260,2.2);
#354=VECTOR($,#1261,2.2);
#355=VECTOR($,#1262,0.1);
#356=VECTOR($,#1265,2.2);
#357=VECTOR($,#1266,2.2);
#358=VECTOR($,#1267,0.1);
#359=VECTOR($,#1270,2.2);
#360=VECTOR($,#1271,2.2);
#361=VECTOR($,#1278,0.2);
#362=VECTOR($,#1279,0.1);
#363=VECTOR($,#1280,0.2);
#364=VECTOR($,#1281,0.1);
#365=VECTOR($,#1284,0.3);
#366=VECTOR($,#1285,0.3);
#367=VECTOR($,#1286,0.1);
#368=VECTOR($,#1289,0.75);
#369=VECTOR($,#1290,0.75);
#370=VECTOR($,#1291,0.1);
#371=VECTOR($,#1294,0.5);
#372=VECTOR($,#1295,0.5);
#373=VECTOR($,#1296,0.1);
#374=VECTOR($,#1299,1.7);
#375=VECTOR($,#1300,1.7);
#376=VECTOR($,#1301,0.1);
#377=VECTOR($,#1304,0.5);
#378=VECTOR($,#1305,0.5);
#379=VECTOR($,#1306,0.1);
#380=VECTOR($,#1309,0.75);
#381=VECTOR($,#1310,0.75);
#382=VECTOR($,#1311,0.1);
#383=VECTOR($,#1314,0.3);
#384=VECTOR($,#1315,0.3);
#385=VECTOR($,#1322,0.0999999999999999);
#386=VECTOR($,#1323,0.1);
#387=VECTOR($,#1324,0.0999999999999999);
#388=VECTOR($,#1325,0.1);
#389=VECTOR($,#1328,1.);
#390=VECTOR($,#1329,1.);
#391=VECTOR($,#1330,0.1);
#392=VECTOR($,#1333,0.2);
#393=VECTOR($,#1334,0.2);
#394=VECTOR($,#1335,0.1);
#395=VECTOR($,#1338,2.2);
#396=VECTOR($,#1339,2.2);
#397=VECTOR($,#1340,0.1);
#398=VECTOR($,#1343,0.2);
#399=VECTOR($,#1344,0.2);
#400=VECTOR($,#1345,0.1);
#401=VECTOR($,#1348,1.);
#402=VECTOR($,#1349,1.);
#403=VECTOR($,#1350,0.1);
#404=VECTOR($,#1353,0.0999999999999999);
#405=VECTOR($,#1354,0.0999999999999999);
#406=VECTOR($,#1355,0.1);
#407=VECTOR($,#1358,0.75);
#408=VECTOR($,#1359,0.75);
#409=VECTOR($,#1360,0.1);
#410=VECTOR($,#1363,0.5);
#411=VECTOR($,#1364,0.5);
#412=VECTOR($,#1365,0.1);
#413=VECTOR($,#1368,1.7);
#414=VECTOR($,#1369,1.7);
#415=VECTOR($,#1370,0.1);
#416=VECTOR($,#1373,0.5);
#417=VECTOR($,#1374,0.5);
#418=VECTOR($,#1375,0.1);
#419=VECTOR($,#1378,0.75);
#420=VECTOR($,#1379,0.75);
#421=VERTEX_POINT($,#1386);
#422=VERTEX_POINT($,#1387);
#423=VERTEX_POINT($,#1389);
#424=VERTEX_POINT($,#1391);
#425=VERTEX_POINT($,#1395);
#426=VERTEX_POINT($,#1396);
#427=VERTEX_POINT($,#1398);
#428=VERTEX_POINT($,#1400);
#429=VERTEX_POINT($,#1404);
#430=VERTEX_POINT($,#1406);
#431=VERTEX_POINT($,#1410);
#432=VERTEX_POINT($,#1412);
#433=VERTEX_POINT($,#1416);
#434=VERTEX_POINT($,#1418);
#435=VERTEX_POINT($,#1422);
#436=VERTEX_POINT($,#1424);
#437=VERTEX_POINT($,#1428);
#438=VERTEX_POINT($,#1430);
#439=VERTEX_POINT($,#1434);
#440=VERTEX_POINT($,#1436);
#441=VERTEX_POINT($,#1443);
#442=VERTEX_POINT($,#1444);
#443=VERTEX_POINT($,#1446);
#444=VERTEX_POINT($,#1448);
#445=VERTEX_POINT($,#1452);
#446=VERTEX_POINT($,#1454);
#447=VERTEX_POINT($,#1458);
#448=VERTEX_POINT($,#1459);
#449=VERTEX_POINT($,#1461);
#450=VERTEX_POINT($,#1463);
#451=VERTEX_POINT($,#1467);
#452=VERTEX_POINT($,#1469);
#453=VERTEX_POINT($,#1473);
#454=VERTEX_POINT($,#1475);
#455=VERTEX_POINT($,#1479);
#456=VERTEX_POINT($,#1481);
#457=VERTEX_POINT($,#1485);
#458=VERTEX_POINT($,#1487);
#459=VERTEX_POINT($,#1491);
#460=VERTEX_POINT($,#1493);
#461=VERTEX_POINT($,#1503);
#462=VERTEX_POINT($,#1505);
#463=VERTEX_POINT($,#1509);
#464=VERTEX_POINT($,#1511);
#465=VERTEX_POINT($,#1515);
#466=VERTEX_POINT($,#1517);
#467=VERTEX_POINT($,#1521);
#468=VERTEX_POINT($,#1525);
#469=VERTEX_POINT($,#1532);
#470=VERTEX_POINT($,#1533);
#471=VERTEX_POINT($,#1535);
#472=VERTEX_POINT($,#1537);
#473=VERTEX_POINT($,#1541);
#474=VERTEX_POINT($,#1543);
#475=VERTEX_POINT($,#1547);
#476=VERTEX_POINT($,#1549);
#477=VERTEX_POINT($,#1558);
#478=VERTEX_POINT($,#1559);
#479=VERTEX_POINT($,#1561);
#480=VERTEX_POINT($,#1563);
#481=VERTEX_POINT($,#1567);
#482=VERTEX_POINT($,#1569);
#483=VERTEX_POINT($,#1573);
#484=VERTEX_POINT($,#1575);
#485=VERTEX_POINT($,#1579);
#486=VERTEX_POINT($,#1581);
#487=VERTEX_POINT($,#1585);
#488=VERTEX_POINT($,#1587);
#489=VERTEX_POINT($,#1591);
#490=VERTEX_POINT($,#1593);
#491=VERTEX_POINT($,#1597);
#492=VERTEX_POINT($,#1599);
#493=VERTEX_POINT($,#1608);
#494=VERTEX_POINT($,#1609);
#495=VERTEX_POINT($,#1611);
#496=VERTEX_POINT($,#1613);
#497=VERTEX_POINT($,#1617);
#498=VERTEX_POINT($,#1619);
#499=VERTEX_POINT($,#1623);
#500=VERTEX_POINT($,#1625);
#501=VERTEX_POINT($,#1629);
#502=VERTEX_POINT($,#1631);
#503=VERTEX_POINT($,#1635);
#504=VERTEX_POINT($,#1637);
#505=VERTEX_POINT($,#1641);
#506=VERTEX_POINT($,#1643);
#507=VERTEX_POINT($,#1647);
#508=VERTEX_POINT($,#1649);
#509=VERTEX_POINT($,#1653);
#510=VERTEX_POINT($,#1655);
#511=VERTEX_POINT($,#1659);
#512=VERTEX_POINT($,#1661);
#513=VERTEX_POINT($,#1665);
#514=VERTEX_POINT($,#1667);
#515=VERTEX_POINT($,#1671);
#516=VERTEX_POINT($,#1673);
#517=EDGE_CURVE($,#421,#422,#133,.T.);
#518=EDGE_CURVE($,#423,#421,#134,.T.);
#519=EDGE_CURVE($,#424,#423,#135,.T.);
#520=EDGE_CURVE($,#424,#422,#136,.T.);
#521=EDGE_CURVE($,#425,#426,#137,.T.);
#522=EDGE_CURVE($,#426,#427,#138,.T.);
#523=EDGE_CURVE($,#428,#427,#139,.T.);
#524=EDGE_CURVE($,#425,#428,#140,.T.);
#525=EDGE_CURVE($,#429,#425,#141,.T.);
#526=EDGE_CURVE($,#429,#430,#142,.T.);
#527=EDGE_CURVE($,#430,#426,#143,.T.);
#528=EDGE_CURVE($,#431,#429,#144,.T.);
#529=EDGE_CURVE($,#431,#432,#145,.T.);
#530=EDGE_CURVE($,#432,#430,#146,.T.);
#531=EDGE_CURVE($,#433,#431,#147,.T.);
#532=EDGE_CURVE($,#433,#434,#148,.T.);
#533=EDGE_CURVE($,#434,#432,#149,.T.);
#534=EDGE_CURVE($,#435,#433,#150,.T.);
#535=EDGE_CURVE($,#435,#436,#151,.T.);
#536=EDGE_CURVE($,#436,#434,#152,.T.);
#537=EDGE_CURVE($,#437,#435,#153,.T.);
#538=EDGE_CURVE($,#437,#438,#154,.T.);
#539=EDGE_CURVE($,#438,#436,#155,.T.);
#540=EDGE_CURVE($,#439,#437,#156,.T.);
#541=EDGE_CURVE($,#439,#440,#157,.T.);
#542=EDGE_CURVE($,#440,#438,#158,.T.);
#543=EDGE_CURVE($,#421,#439,#159,.T.);
#544=EDGE_CURVE($,#422,#440,#160,.T.);
#545=EDGE_CURVE($,#441,#442,#161,.T.);
#546=EDGE_CURVE($,#441,#443,#162,.T.);
#547=EDGE_CURVE($,#443,#444,#163,.T.);
#548=EDGE_CURVE($,#442,#444,#164,.T.);
#549=EDGE_CURVE($,#445,#441,#165,.T.);
#550=EDGE_CURVE($,#446,#445,#166,.T.);
#551=EDGE_CURVE($,#446,#443,#167,.T.);
#552=EDGE_CURVE($,#447,#448,#168,.T.);
#553=EDGE_CURVE($,#447,#449,#169,.T.);
#554=EDGE_CURVE($,#449,#450,#170,.T.);
#555=EDGE_CURVE($,#448,#450,#171,.T.);
#556=EDGE_CURVE($,#451,#447,#172,.T.);
#557=EDGE_CURVE($,#451,#452,#173,.T.);
#558=EDGE_CURVE($,#452,#449,#174,.T.);
#559=EDGE_CURVE($,#453,#451,#175,.T.);
#560=EDGE_CURVE($,#453,#454,#176,.T.);
#561=EDGE_CURVE($,#454,#452,#177,.T.);
#562=EDGE_CURVE($,#455,#453,#178,.T.);
#563=EDGE_CURVE($,#455,#456,#179,.T.);
#564=EDGE_CURVE($,#456,#454,#180,.T.);
#565=EDGE_CURVE($,#457,#455,#181,.T.);
#566=EDGE_CURVE($,#457,#458,#182,.T.);
#567=EDGE_CURVE($,#458,#456,#183,.T.);
#568=EDGE_CURVE($,#459,#457,#184,.T.);
#569=EDGE_CURVE($,#459,#460,#185,.T.);
#570=EDGE_CURVE($,#460,#458,#186,.T.);
#571=EDGE_CURVE($,#442,#459,#187,.T.);
#572=EDGE_CURVE($,#444,#460,#188,.T.);
#573=EDGE_CURVE($,#427,#446,#189,.T.);
#574=EDGE_CURVE($,#450,#424,#190,.T.);
#575=EDGE_CURVE($,#461,#448,#191,.T.);
#576=EDGE_CURVE($,#462,#461,#192,.T.);
#577=EDGE_CURVE($,#445,#462,#193,.T.);
#578=EDGE_CURVE($,#463,#428,#194,.T.);
#579=EDGE_CURVE($,#464,#463,#195,.T.);
#580=EDGE_CURVE($,#423,#464,#196,.T.);
#581=EDGE_CURVE($,#462,#465,#197,.T.);
#582=EDGE_CURVE($,#466,#465,#198,.T.);
#583=EDGE_CURVE($,#463,#466,#199,.T.);
#584=EDGE_CURVE($,#461,#467,#200,.T.);
#585=EDGE_CURVE($,#465,#467,#201,.T.);
#586=EDGE_CURVE($,#468,#466,#202,.T.);
#587=EDGE_CURVE($,#464,#468,#203,.T.);
#588=EDGE_CURVE($,#467,#468,#204,.T.);
#589=EDGE_CURVE($,#469,#470,#205,.T.);
#590=EDGE_CURVE($,#470,#471,#206,.T.);
#591=EDGE_CURVE($,#472,#471,#207,.T.);
#592=EDGE_CURVE($,#469,#472,#208,.T.);
#593=EDGE_CURVE($,#473,#469,#209,.T.);
#594=EDGE_CURVE($,#474,#472,#210,.T.);
#595=EDGE_CURVE($,#473,#474,#211,.T.);
#596=EDGE_CURVE($,#475,#473,#212,.T.);
#597=EDGE_CURVE($,#476,#474,#213,.T.);
#598=EDGE_CURVE($,#475,#476,#214,.T.);
#599=EDGE_CURVE($,#470,#475,#215,.T.);
#600=EDGE_CURVE($,#471,#476,#216,.T.);
#601=EDGE_CURVE($,#477,#478,#217,.T.);
#602=EDGE_CURVE($,#478,#479,#218,.T.);
#603=EDGE_CURVE($,#480,#479,#219,.T.);
#604=EDGE_CURVE($,#477,#480,#220,.T.);
#605=EDGE_CURVE($,#481,#477,#221,.T.);
#606=EDGE_CURVE($,#482,#480,#222,.T.);
#607=EDGE_CURVE($,#481,#482,#223,.T.);
#608=EDGE_CURVE($,#483,#481,#224,.T.);
#609=EDGE_CURVE($,#484,#482,#225,.T.);
#610=EDGE_CURVE($,#483,#484,#226,.T.);
#611=EDGE_CURVE($,#485,#483,#227,.T.);
#612=EDGE_CURVE($,#486,#484,#228,.T.);
#613=EDGE_CURVE($,#485,#486,#229,.T.);
#614=EDGE_CURVE($,#487,#485,#230,.T.);
#615=EDGE_CURVE($,#488,#486,#231,.T.);
#616=EDGE_CURVE($,#487,#488,#232,.T.);
#617=EDGE_CURVE($,#489,#487,#233,.T.);
#618=EDGE_CURVE($,#490,#488,#234,.T.);
#619=EDGE_CURVE($,#489,#490,#235,.T.);
#620=EDGE_CURVE($,#491,#489,#236,.T.);
#621=EDGE_CURVE($,#492,#490,#237,.T.);
#622=EDGE_CURVE($,#491,#492,#238,.T.);
#623=EDGE_CURVE($,#478,#491,#239,.T.);
#624=EDGE_CURVE($,#479,#492,#240,.T.);
#625=EDGE_CURVE($,#493,#494,#241,.T.);
#626=EDGE_CURVE($,#494,#495,#242,.T.);
#627=EDGE_CURVE($,#496,#495,#243,.T.);
#628=EDGE_CURVE($,#493,#496,#244,.T.);
#629=EDGE_CURVE($,#497,#493,#245,.T.);
#630=EDGE_CURVE($,#498,#496,#246,.T.);
#631=EDGE_CURVE($,#497,#498,#247,.T.);
#632=EDGE_CURVE($,#499,#497,#248,.T.);
#633=EDGE_CURVE($,#500,#498,#249,.T.);
#634=EDGE_CURVE($,#499,#500,#250,.T.);
#635=EDGE_CURVE($,#501,#499,#251,.T.);
#636=EDGE_CURVE($,#502,#500,#252,.T.);
#637=EDGE_CURVE($,#501,#502,#253,.T.);
#638=EDGE_CURVE($,#503,#501,#254,.T.);
#639=EDGE_CURVE($,#504,#502,#255,.T.);
#640=EDGE_CURVE($,#503,#504,#256,.T.);
#641=EDGE_CURVE($,#505,#503,#257,.T.);
#642=EDGE_CURVE($,#506,#504,#258,.T.);
#643=EDGE_CURVE($,#505,#506,#259,.T.);
#644=EDGE_CURVE($,#507,#505,#260,.T.);
#645=EDGE_CURVE($,#508,#506,#261,.T.);
#646=EDGE_CURVE($,#507,#508,#262,.T.);
#647=EDGE_CURVE($,#509,#507,#263,.T.);
#648=EDGE_CURVE($,#510,#508,#264,.T.);
#649=EDGE_CURVE($,#509,#510,#265,.T.);
#650=EDGE_CURVE($,#511,#509,#266,.T.);
#651=EDGE_CURVE($,#512,#510,#267,.T.);
#652=EDGE_CURVE($,#511,#512,#268,.T.);
#653=EDGE_CURVE($,#513,#511,#269,.T.);
#654=EDGE_CURVE($,#514,#512,#270,.T.);
#655=EDGE_CURVE($,#513,#514,#271,.T.);
#656=EDGE_CURVE($,#515,#513,#272,.T.);
#657=EDGE_CURVE($,#516,#514,#273,.T.);
#658=EDGE_CURVE($,#515,#516,#274,.T.);
#659=EDGE_CURVE($,#494,#515,#275,.T.);
#660=EDGE_CURVE($,#495,#516,#276,.T.);
#661=ORIENTED_EDGE($,*,*,#517,.F.);
#662=ORIENTED_EDGE($,*,*,#518,.F.);
#663=ORIENTED_EDGE($,*,*,#519,.F.);
#664=ORIENTED_EDGE($,*,*,#520,.T.);
#665=ORIENTED_EDGE($,*,*,#521,.T.);
#666=ORIENTED_EDGE($,*,*,#522,.T.);
#667=ORIENTED_EDGE($,*,*,#523,.F.);
#668=ORIENTED_EDGE($,*,*,#524,.F.);
#669=ORIENTED_EDGE($,*,*,#525,.F.);
#670=ORIENTED_EDGE($,*,*,#526,.T.);
#671=ORIENTED_EDGE($,*,*,#527,.T.);
#672=ORIENTED_EDGE($,*,*,#521,.F.);
#673=ORIENTED_EDGE($,*,*,#528,.F.);
#674=ORIENTED_EDGE($,*,*,#529,.T.);
#675=ORIENTED_EDGE($,*,*,#530,.T.);
#676=ORIENTED_EDGE($,*,*,#526,.F.);
#677=ORIENTED_EDGE($,*,*,#531,.F.);
#678=ORIENTED_EDGE($,*,*,#532,.T.);
#679=ORIENTED_EDGE($,*,*,#533,.T.);
#680=ORIENTED_EDGE($,*,*,#529,.F.);
#681=ORIENTED_EDGE($,*,*,#534,.F.);
#682=ORIENTED_EDGE($,*,*,#535,.T.);
#683=ORIENTED_EDGE($,*,*,#536,.T.);
#684=ORIENTED_EDGE($,*,*,#532,.F.);
#685=ORIENTED_EDGE($,*,*,#537,.F.);
#686=ORIENTED_EDGE($,*,*,#538,.T.);
#687=ORIENTED_EDGE($,*,*,#539,.T.);
#688=ORIENTED_EDGE($,*,*,#535,.F.);
#689=ORIENTED_EDGE($,*,*,#540,.F.);
#690=ORIENTED_EDGE($,*,*,#541,.T.);
#691=ORIENTED_EDGE($,*,*,#542,.T.);
#692=ORIENTED_EDGE($,*,*,#538,.F.);
#693=ORIENTED_EDGE($,*,*,#543,.F.);
#694=ORIENTED_EDGE($,*,*,#517,.T.);
#695=ORIENTED_EDGE($,*,*,#544,.T.);
#696=ORIENTED_EDGE($,*,*,#541,.F.);
#697=ORIENTED_EDGE($,*,*,#545,.F.);
#698=ORIENTED_EDGE($,*,*,#546,.T.);
#699=ORIENTED_EDGE($,*,*,#547,.T.);
#700=ORIENTED_EDGE($,*,*,#548,.F.);
#701=ORIENTED_EDGE($,*,*,#549,.F.);
#702=ORIENTED_EDGE($,*,*,#550,.F.);
#703=ORIENTED_EDGE($,*,*,#551,.T.);
#704=ORIENTED_EDGE($,*,*,#546,.F.);
#705=ORIENTED_EDGE($,*,*,#552,.F.);
#706=ORIENTED_EDGE($,*,*,#553,.T.);
#707=ORIENTED_EDGE($,*,*,#554,.T.);
#708=ORIENTED_EDGE($,*,*,#555,.F.);
#709=ORIENTED_EDGE($,*,*,#556,.F.);
#710=ORIENTED_EDGE($,*,*,#557,.T.);
#711=ORIENTED_EDGE($,*,*,#558,.T.);
#712=ORIENTED_EDGE($,*,*,#553,.F.);
#713=ORIENTED_EDGE($,*,*,#559,.F.);
#714=ORIENTED_EDGE($,*,*,#560,.T.);
#715=ORIENTED_EDGE($,*,*,#561,.T.);
#716=ORIENTED_EDGE($,*,*,#557,.F.);
#717=ORIENTED_EDGE($,*,*,#562,.F.);
#718=ORIENTED_EDGE($,*,*,#563,.T.);
#719=ORIENTED_EDGE($,*,*,#564,.T.);
#720=ORIENTED_EDGE($,*,*,#560,.F.);
#721=ORIENTED_EDGE($,*,*,#565,.F.);
#722=ORIENTED_EDGE($,*,*,#566,.T.);
#723=ORIENTED_EDGE($,*,*,#567,.T.);
#724=ORIENTED_EDGE($,*,*,#563,.F.);
#725=ORIENTED_EDGE($,*,*,#568,.F.);
#726=ORIENTED_EDGE($,*,*,#569,.T.);
#727=ORIENTED_EDGE($,*,*,#570,.T.);
#728=ORIENTED_EDGE($,*,*,#566,.F.);
#729=ORIENTED_EDGE($,*,*,#571,.F.);
#730=ORIENTED_EDGE($,*,*,#548,.T.);
#731=ORIENTED_EDGE($,*,*,#572,.T.);
#732=ORIENTED_EDGE($,*,*,#569,.F.);
#733=ORIENTED_EDGE($,*,*,#572,.F.);
#734=ORIENTED_EDGE($,*,*,#547,.F.);
#735=ORIENTED_EDGE($,*,*,#551,.F.);
#736=ORIENTED_EDGE($,*,*,#573,.F.);
#737=ORIENTED_EDGE($,*,*,#522,.F.);
#738=ORIENTED_EDGE($,*,*,#527,.F.);
#739=ORIENTED_EDGE($,*,*,#530,.F.);
#740=ORIENTED_EDGE($,*,*,#533,.F.);
#741=ORIENTED_EDGE($,*,*,#536,.F.);
#742=ORIENTED_EDGE($,*,*,#539,.F.);
#743=ORIENTED_EDGE($,*,*,#542,.F.);
#744=ORIENTED_EDGE($,*,*,#544,.F.);
#745=ORIENTED_EDGE($,*,*,#520,.F.);
#746=ORIENTED_EDGE($,*,*,#574,.F.);
#747=ORIENTED_EDGE($,*,*,#554,.F.);
#748=ORIENTED_EDGE($,*,*,#558,.F.);
#749=ORIENTED_EDGE($,*,*,#561,.F.);
#750=ORIENTED_EDGE($,*,*,#564,.F.);
#751=ORIENTED_EDGE($,*,*,#567,.F.);
#752=ORIENTED_EDGE($,*,*,#570,.F.);
#753=ORIENTED_EDGE($,*,*,#552,.T.);
#754=ORIENTED_EDGE($,*,*,#575,.F.);
#755=ORIENTED_EDGE($,*,*,#576,.F.);
#756=ORIENTED_EDGE($,*,*,#577,.F.);
#757=ORIENTED_EDGE($,*,*,#549,.T.);
#758=ORIENTED_EDGE($,*,*,#545,.T.);
#759=ORIENTED_EDGE($,*,*,#571,.T.);
#760=ORIENTED_EDGE($,*,*,#568,.T.);
#761=ORIENTED_EDGE($,*,*,#565,.T.);
#762=ORIENTED_EDGE($,*,*,#562,.T.);
#763=ORIENTED_EDGE($,*,*,#559,.T.);
#764=ORIENTED_EDGE($,*,*,#556,.T.);
#765=ORIENTED_EDGE($,*,*,#518,.T.);
#766=ORIENTED_EDGE($,*,*,#543,.T.);
#767=ORIENTED_EDGE($,*,*,#540,.T.);
#768=ORIENTED_EDGE($,*,*,#537,.T.);
#769=ORIENTED_EDGE($,*,*,#534,.T.);
#770=ORIENTED_EDGE($,*,*,#531,.T.);
#771=ORIENTED_EDGE($,*,*,#528,.T.);
#772=ORIENTED_EDGE($,*,*,#525,.T.);
#773=ORIENTED_EDGE($,*,*,#524,.T.);
#774=ORIENTED_EDGE($,*,*,#578,.F.);
#775=ORIENTED_EDGE($,*,*,#579,.F.);
#776=ORIENTED_EDGE($,*,*,#580,.F.);
#777=ORIENTED_EDGE($,*,*,#523,.T.);
#778=ORIENTED_EDGE($,*,*,#573,.T.);
#779=ORIENTED_EDGE($,*,*,#550,.T.);
#780=ORIENTED_EDGE($,*,*,#577,.T.);
#781=ORIENTED_EDGE($,*,*,#581,.T.);
#782=ORIENTED_EDGE($,*,*,#582,.F.);
#783=ORIENTED_EDGE($,*,*,#583,.F.);
#784=ORIENTED_EDGE($,*,*,#578,.T.);
#785=ORIENTED_EDGE($,*,*,#576,.T.);
#786=ORIENTED_EDGE($,*,*,#584,.T.);
#787=ORIENTED_EDGE($,*,*,#585,.F.);
#788=ORIENTED_EDGE($,*,*,#581,.F.);
#789=ORIENTED_EDGE($,*,*,#579,.T.);
#790=ORIENTED_EDGE($,*,*,#583,.T.);
#791=ORIENTED_EDGE($,*,*,#586,.F.);
#792=ORIENTED_EDGE($,*,*,#587,.F.);
#793=ORIENTED_EDGE($,*,*,#519,.T.);
#794=ORIENTED_EDGE($,*,*,#580,.T.);
#795=ORIENTED_EDGE($,*,*,#587,.T.);
#796=ORIENTED_EDGE($,*,*,#588,.F.);
#797=ORIENTED_EDGE($,*,*,#584,.F.);
#798=ORIENTED_EDGE($,*,*,#575,.T.);
#799=ORIENTED_EDGE($,*,*,#555,.T.);
#800=ORIENTED_EDGE($,*,*,#574,.T.);
#801=ORIENTED_EDGE($,*,*,#588,.T.);
#802=ORIENTED_EDGE($,*,*,#586,.T.);
#803=ORIENTED_EDGE($,*,*,#582,.T.);
#804=ORIENTED_EDGE($,*,*,#585,.T.);
#805=ORIENTED_EDGE($,*,*,#589,.T.);
#806=ORIENTED_EDGE($,*,*,#590,.T.);
#807=ORIENTED_EDGE($,*,*,#591,.F.);
#808=ORIENTED_EDGE($,*,*,#592,.F.);
#809=ORIENTED_EDGE($,*,*,#593,.T.);
#810=ORIENTED_EDGE($,*,*,#592,.T.);
#811=ORIENTED_EDGE($,*,*,#594,.F.);
#812=ORIENTED_EDGE($,*,*,#595,.F.);
#813=ORIENTED_EDGE($,*,*,#596,.T.);
#814=ORIENTED_EDGE($,*,*,#595,.T.);
#815=ORIENTED_EDGE($,*,*,#597,.F.);
#816=ORIENTED_EDGE($,*,*,#598,.F.);
#817=ORIENTED_EDGE($,*,*,#599,.T.);
#818=ORIENTED_EDGE($,*,*,#598,.T.);
#819=ORIENTED_EDGE($,*,*,#600,.F.);
#820=ORIENTED_EDGE($,*,*,#590,.F.);
#821=ORIENTED_EDGE($,*,*,#600,.T.);
#822=ORIENTED_EDGE($,*,*,#597,.T.);
#823=ORIENTED_EDGE($,*,*,#594,.T.);
#824=ORIENTED_EDGE($,*,*,#591,.T.);
#825=ORIENTED_EDGE($,*,*,#599,.F.);
#826=ORIENTED_EDGE($,*,*,#589,.F.);
#827=ORIENTED_EDGE($,*,*,#593,.F.);
#828=ORIENTED_EDGE($,*,*,#596,.F.);
#829=ORIENTED_EDGE($,*,*,#601,.T.);
#830=ORIENTED_EDGE($,*,*,#602,.T.);
#831=ORIENTED_EDGE($,*,*,#603,.F.);
#832=ORIENTED_EDGE($,*,*,#604,.F.);
#833=ORIENTED_EDGE($,*,*,#605,.T.);
#834=ORIENTED_EDGE($,*,*,#604,.T.);
#835=ORIENTED_EDGE($,*,*,#606,.F.);
#836=ORIENTED_EDGE($,*,*,#607,.F.);
#837=ORIENTED_EDGE($,*,*,#608,.T.);
#838=ORIENTED_EDGE($,*,*,#607,.T.);
#839=ORIENTED_EDGE($,*,*,#609,.F.);
#840=ORIENTED_EDGE($,*,*,#610,.F.);
#841=ORIENTED_EDGE($,*,*,#611,.T.);
#842=ORIENTED_EDGE($,*,*,#610,.T.);
#843=ORIENTED_EDGE($,*,*,#612,.F.);
#844=ORIENTED_EDGE($,*,*,#613,.F.);
#845=ORIENTED_EDGE($,*,*,#614,.T.);
#846=ORIENTED_EDGE($,*,*,#613,.T.);
#847=ORIENTED_EDGE($,*,*,#615,.F.);
#848=ORIENTED_EDGE($,*,*,#616,.F.);
#849=ORIENTED_EDGE($,*,*,#617,.T.);
#850=ORIENTED_EDGE($,*,*,#616,.T.);
#851=ORIENTED_EDGE($,*,*,#618,.F.);
#852=ORIENTED_EDGE($,*,*,#619,.F.);
#853=ORIENTED_EDGE($,*,*,#620,.T.);
#854=ORIENTED_EDGE($,*,*,#619,.T.);
#855=ORIENTED_EDGE($,*,*,#621,.F.);
#856=ORIENTED_EDGE($,*,*,#622,.F.);
#857=ORIENTED_EDGE($,*,*,#623,.T.);
#858=ORIENTED_EDGE($,*,*,#622,.T.);
#859=ORIENTED_EDGE($,*,*,#624,.F.);
#860=ORIENTED_EDGE($,*,*,#602,.F.);
#861=ORIENTED_EDGE($,*,*,#624,.T.);
#862=ORIENTED_EDGE($,*,*,#621,.T.);
#863=ORIENTED_EDGE($,*,*,#618,.T.);
#864=ORIENTED_EDGE($,*,*,#615,.T.);
#865=ORIENTED_EDGE($,*,*,#612,.T.);
#866=ORIENTED_EDGE($,*,*,#609,.T.);
#867=ORIENTED_EDGE($,*,*,#606,.T.);
#868=ORIENTED_EDGE($,*,*,#603,.T.);
#869=ORIENTED_EDGE($,*,*,#623,.F.);
#870=ORIENTED_EDGE($,*,*,#601,.F.);
#871=ORIENTED_EDGE($,*,*,#605,.F.);
#872=ORIENTED_EDGE($,*,*,#608,.F.);
#873=ORIENTED_EDGE($,*,*,#611,.F.);
#874=ORIENTED_EDGE($,*,*,#614,.F.);
#875=ORIENTED_EDGE($,*,*,#617,.F.);
#876=ORIENTED_EDGE($,*,*,#620,.F.);
#877=ORIENTED_EDGE($,*,*,#625,.T.);
#878=ORIENTED_EDGE($,*,*,#626,.T.);
#879=ORIENTED_EDGE($,*,*,#627,.F.);
#880=ORIENTED_EDGE($,*,*,#628,.F.);
#881=ORIENTED_EDGE($,*,*,#629,.T.);
#882=ORIENTED_EDGE($,*,*,#628,.T.);
#883=ORIENTED_EDGE($,*,*,#630,.F.);
#884=ORIENTED_EDGE($,*,*,#631,.F.);
#885=ORIENTED_EDGE($,*,*,#632,.T.);
#886=ORIENTED_EDGE($,*,*,#631,.T.);
#887=ORIENTED_EDGE($,*,*,#633,.F.);
#888=ORIENTED_EDGE($,*,*,#634,.F.);
#889=ORIENTED_EDGE($,*,*,#635,.T.);
#890=ORIENTED_EDGE($,*,*,#634,.T.);
#891=ORIENTED_EDGE($,*,*,#636,.F.);
#892=ORIENTED_EDGE($,*,*,#637,.F.);
#893=ORIENTED_EDGE($,*,*,#638,.T.);
#894=ORIENTED_EDGE($,*,*,#637,.T.);
#895=ORIENTED_EDGE($,*,*,#639,.F.);
#896=ORIENTED_EDGE($,*,*,#640,.F.);
#897=ORIENTED_EDGE($,*,*,#641,.T.);
#898=ORIENTED_EDGE($,*,*,#640,.T.);
#899=ORIENTED_EDGE($,*,*,#642,.F.);
#900=ORIENTED_EDGE($,*,*,#643,.F.);
#901=ORIENTED_EDGE($,*,*,#644,.T.);
#902=ORIENTED_EDGE($,*,*,#643,.T.);
#903=ORIENTED_EDGE($,*,*,#645,.F.);
#904=ORIENTED_EDGE($,*,*,#646,.F.);
#905=ORIENTED_EDGE($,*,*,#647,.T.);
#906=ORIENTED_EDGE($,*,*,#646,.T.);
#907=ORIENTED_EDGE($,*,*,#648,.F.);
#908=ORIENTED_EDGE($,*,*,#649,.F.);
#909=ORIENTED_EDGE($,*,*,#650,.T.);
#910=ORIENTED_EDGE($,*,*,#649,.T.);
#911=ORIENTED_EDGE($,*,*,#651,.F.);
#912=ORIENTED_EDGE($,*,*,#652,.F.);
#913=ORIENTED_EDGE($,*,*,#653,.T.);
#914=ORIENTED_EDGE($,*,*,#652,.T.);
#915=ORIENTED_EDGE($,*,*,#654,.F.);
#916=ORIENTED_EDGE($,*,*,#655,.F.);
#917=ORIENTED_EDGE($,*,*,#656,.T.);
#918=ORIENTED_EDGE($,*,*,#655,.T.);
#919=ORIENTED_EDGE($,*,*,#657,.F.);
#920=ORIENTED_EDGE($,*,*,#658,.F.);
#921=ORIENTED_EDGE($,*,*,#659,.T.);
#922=ORIENTED_EDGE($,*,*,#658,.T.);
#923=ORIENTED_EDGE($,*,*,#660,.F.);
#924=ORIENTED_EDGE($,*,*,#626,.F.);
#925=ORIENTED_EDGE($,*,*,#660,.T.);
#926=ORIENTED_EDGE($,*,*,#657,.T.);
#927=ORIENTED_EDGE($,*,*,#654,.T.);
#928=ORIENTED_EDGE($,*,*,#651,.T.);
#929=ORIENTED_EDGE($,*,*,#648,.T.);
#930=ORIENTED_EDGE($,*,*,#645,.T.);
#931=ORIENTED_EDGE($,*,*,#642,.T.);
#932=ORIENTED_EDGE($,*,*,#639,.T.);
#933=ORIENTED_EDGE($,*,*,#636,.T.);
#934=ORIENTED_EDGE($,*,*,#633,.T.);
#935=ORIENTED_EDGE($,*,*,#630,.T.);
#936=ORIENTED_EDGE($,*,*,#627,.T.);
#937=ORIENTED_EDGE($,*,*,#659,.F.);
#938=ORIENTED_EDGE($,*,*,#625,.F.);
#939=ORIENTED_EDGE($,*,*,#629,.F.);
#940=ORIENTED_EDGE($,*,*,#632,.F.);
#941=ORIENTED_EDGE($,*,*,#635,.F.);
#942=ORIENTED_EDGE($,*,*,#638,.F.);
#943=ORIENTED_EDGE($,*,*,#641,.F.);
#944=ORIENTED_EDGE($,*,*,#644,.F.);
#945=ORIENTED_EDGE($,*,*,#647,.F.);
#946=ORIENTED_EDGE($,*,*,#650,.F.);
#947=ORIENTED_EDGE($,*,*,#653,.F.);
#948=ORIENTED_EDGE($,*,*,#656,.F.);
#949=PLANE($,#1070);
#950=PLANE($,#1071);
#951=PLANE($,#1072);
#952=PLANE($,#1073);
#953=PLANE($,#1074);
#954=PLANE($,#1075);
#955=PLANE($,#1076);
#956=PLANE($,#1077);
#957=PLANE($,#1078);
#958=PLANE($,#1079);
#959=PLANE($,#1080);
#960=PLANE($,#1081);
#961=PLANE($,#1082);
#962=PLANE($,#1083);
#963=PLANE($,#1084);
#964=PLANE($,#1085);
#965=PLANE($,#1086);
#966=PLANE($,#1087);
#967=PLANE($,#1088);
#968=PLANE($,#1089);
#969=PLANE($,#1090);
#970=PLANE($,#1091);
#971=PLANE($,#1092);
#972=PLANE($,#1093);
#973=PLANE($,#1094);
#974=PLANE($,#1095);
#975=PLANE($,#1096);
#976=PLANE($,#1097);
#977=PLANE($,#1098);
#978=PLANE($,#1099);
#979=PLANE($,#1100);
#980=PLANE($,#1101);
#981=PLANE($,#1102);
#982=PLANE($,#1103);
#983=PLANE($,#1104);
#984=PLANE($,#1105);
#985=PLANE($,#1106);
#986=PLANE($,#1107);
#987=PLANE($,#1108);
#988=PLANE($,#1109);
#989=PLANE($,#1110);
#990=PLANE($,#1111);
#991=PLANE($,#1112);
#992=PLANE($,#1113);
#993=PLANE($,#1114);
#994=PLANE($,#1115);
#995=PLANE($,#1116);
#996=PLANE($,#1117);
#997=PLANE($,#1118);
#998=PLANE($,#1119);
#999=PLANE($,#1120);
#1000=PLANE($,#1121);
#1001=PLANE($,#1122);
#1002=PLANE($,#1123);
#1003=PLANE($,#1124);
#1004=PLANE($,#1125);
#1005=ADVANCED_FACE($,(#21),#949,.F.);
#1006=ADVANCED_FACE($,(#22),#950,.F.);
#1007=ADVANCED_FACE($,(#23),#951,.F.);
#1008=ADVANCED_FACE($,(#24),#952,.F.);
#1009=ADVANCED_FACE($,(#25),#953,.F.);
#1010=ADVANCED_FACE($,(#26),#954,.F.);
#1011=ADVANCED_FACE($,(#27),#955,.F.);
#1012=ADVANCED_FACE($,(#28),#956,.F.);
#1013=ADVANCED_FACE($,(#29),#957,.F.);
#1014=ADVANCED_FACE($,(#30),#958,.F.);
#1015=ADVANCED_FACE($,(#31),#959,.F.);
#1016=ADVANCED_FACE($,(#32),#960,.F.);
#1017=ADVANCED_FACE($,(#33),#961,.F.);
#1018=ADVANCED_FACE($,(#34),#962,.F.);
#1019=ADVANCED_FACE($,(#35),#963,.F.);
#1020=ADVANCED_FACE($,(#36),#964,.F.);
#1021=ADVANCED_FACE($,(#37),#965,.F.);
#1022=ADVANCED_FACE($,(#38),#966,.F.);
#1023=ADVANCED_FACE($,(#39),#967,.F.);
#1024=ADVANCED_FACE($,(#40),#968,.F.);
#1025=ADVANCED_FACE($,(#41),#969,.F.);
#1026=ADVANCED_FACE($,(#42),#970,.T.);
#1027=ADVANCED_FACE($,(#43),#971,.T.);
#1028=ADVANCED_FACE($,(#44),#972,.T.);
#1029=ADVANCED_FACE($,(#45),#973,.T.);
#1030=ADVANCED_FACE($,(#46),#974,.T.);
#1031=ADVANCED_FACE($,(#47),#975,.T.);
#1032=ADVANCED_FACE($,(#48),#976,.T.);
#1033=ADVANCED_FACE($,(#49),#977,.T.);
#1034=ADVANCED_FACE($,(#50),#978,.T.);
#1035=ADVANCED_FACE($,(#51),#979,.T.);
#1036=ADVANCED_FACE($,(#52),#980,.F.);
#1037=ADVANCED_FACE($,(#53),#981,.T.);
#1038=ADVANCED_FACE($,(#54),#982,.T.);
#1039=ADVANCED_FACE($,(#55),#983,.T.);
#1040=ADVANCED_FACE($,(#56),#984,.T.);
#1041=ADVANCED_FACE($,(#57),#985,.T.);
#1042=ADVANCED_FACE($,(#58),#986,.T.);
#1043=ADVANCED_FACE($,(#59),#987,.T.);
#1044=ADVANCED_FACE($,(#60),#988,.T.);
#1045=ADVANCED_FACE($,(#61),#989,.T.);
#1046=ADVANCED_FACE($,(#62),#990,.F.);
#1047=ADVANCED_FACE($,(#63),#991,.T.);
#1048=ADVANCED_FACE($,(#64),#992,.T.);
#1049=ADVANCED_FACE($,(#65),#993,.T.);
#1050=ADVANCED_FACE($,(#66),#994,.T.);
#1051=ADVANCED_FACE($,(#67),#995,.T.);
#1052=ADVANCED_FACE($,(#68),#996,.T.);
#1053=ADVANCED_FACE($,(#69),#997,.T.);
#1054=ADVANCED_FACE($,(#70),#998,.T.);
#1055=ADVANCED_FACE($,(#71),#999,.T.);
#1056=ADVANCED_FACE($,(#72),#1000,.T.);
#1057=ADVANCED_FACE($,(#73),#1001,.T.);
#1058=ADVANCED_FACE($,(#74),#1002,.T.);
#1059=ADVANCED_FACE($,(#75),#1003,.T.);
#1060=ADVANCED_FACE($,(#76),#1004,.F.);
#1061=CLOSED_SHELL($,(#1005,#1006,#1007,#1008,#1009,#1010,#1011,#1012,#1013,
#1014,#1015,#1016,#1017,#1018,#1019,#1020,#1021,#1022,#1023,#1024,#1025,
#1026,#1027,#1028,#1029,#1030));
#1062=CLOSED_SHELL($,(#1031,#1032,#1033,#1034,#1035,#1036));
#1063=CLOSED_SHELL($,(#1037,#1038,#1039,#1040,#1041,#1042,#1043,#1044,#1045,
#1046));
#1064=CLOSED_SHELL($,(#1047,#1048,#1049,#1050,#1051,#1052,#1053,#1054,#1055,
#1056,#1057,#1058,#1059,#1060));
#1065=MANIFOLD_SOLID_BREP('1618',#1061);
#1066=MANIFOLD_SOLID_BREP('1658',#1062);
#1067=MANIFOLD_SOLID_BREP('165C',#1063);
#1068=MANIFOLD_SOLID_BREP('1660',#1064);
#1069=AXIS2_PLACEMENT_3D('placement',#1384,#1126,#1127);
#1070=AXIS2_PLACEMENT_3D($,#1385,#1128,#1129);
#1071=AXIS2_PLACEMENT_3D($,#1394,#1134,#1135);
#1072=AXIS2_PLACEMENT_3D($,#1403,#1140,#1141);
#1073=AXIS2_PLACEMENT_3D($,#1409,#1145,#1146);
#1074=AXIS2_PLACEMENT_3D($,#1415,#1150,#1151);
#1075=AXIS2_PLACEMENT_3D($,#1421,#1155,#1156);
#1076=AXIS2_PLACEMENT_3D($,#1427,#1160,#1161);
#1077=AXIS2_PLACEMENT_3D($,#1433,#1165,#1166);
#1078=AXIS2_PLACEMENT_3D($,#1439,#1170,#1171);
#1079=AXIS2_PLACEMENT_3D($,#1442,#1174,#1175);
#1080=AXIS2_PLACEMENT_3D($,#1451,#1180,#1181);
#1081=AXIS2_PLACEMENT_3D($,#1457,#1185,#1186);
#1082=AXIS2_PLACEMENT_3D($,#1466,#1191,#1192);
#1083=AXIS2_PLACEMENT_3D($,#1472,#1196,#1197);
#1084=AXIS2_PLACEMENT_3D($,#1478,#1201,#1202);
#1085=AXIS2_PLACEMENT_3D($,#1484,#1206,#1207);
#1086=AXIS2_PLACEMENT_3D($,#1490,#1211,#1212);
#1087=AXIS2_PLACEMENT_3D($,#1496,#1216,#1217);
#1088=AXIS2_PLACEMENT_3D($,#1499,#1220,#1221);
#1089=AXIS2_PLACEMENT_3D($,#1502,#1224,#1225);
#1090=AXIS2_PLACEMENT_3D($,#1508,#1229,#1230);
#1091=AXIS2_PLACEMENT_3D($,#1514,#1234,#1235);
#1092=AXIS2_PLACEMENT_3D($,#1520,#1239,#1240);
#1093=AXIS2_PLACEMENT_3D($,#1524,#1243,#1244);
#1094=AXIS2_PLACEMENT_3D($,#1528,#1247,#1248);
#1095=AXIS2_PLACEMENT_3D($,#1530,#1250,#1251);
#1096=AXIS2_PLACEMENT_3D($,#1531,#1252,#1253);
#1097=AXIS2_PLACEMENT_3D($,#1540,#1258,#1259);
#1098=AXIS2_PLACEMENT_3D($,#1546,#1263,#1264);
#1099=AXIS2_PLACEMENT_3D($,#1552,#1268,#1269);
#1100=AXIS2_PLACEMENT_3D($,#1555,#1272,#1273);
#1101=AXIS2_PLACEMENT_3D($,#1556,#1274,#1275);
#1102=AXIS2_PLACEMENT_3D($,#1557,#1276,#1277);
#1103=AXIS2_PLACEMENT_3D($,#1566,#1282,#1283);
#1104=AXIS2_PLACEMENT_3D($,#1572,#1287,#1288);
#1105=AXIS2_PLACEMENT_3D($,#1578,#1292,#1293);
#1106=AXIS2_PLACEMENT_3D($,#1584,#1297,#1298);
#1107=AXIS2_PLACEMENT_3D($,#1590,#1302,#1303);
#1108=AXIS2_PLACEMENT_3D($,#1596,#1307,#1308);
#1109=AXIS2_PLACEMENT_3D($,#1602,#1312,#1313);
#1110=AXIS2_PLACEMENT_3D($,#1605,#1316,#1317);
#1111=AXIS2_PLACEMENT_3D($,#1606,#1318,#1319);
#1112=AXIS2_PLACEMENT_3D($,#1607,#1320,#1321);
#1113=AXIS2_PLACEMENT_3D($,#1616,#1326,#1327);
#1114=AXIS2_PLACEMENT_3D($,#1622,#1331,#1332);
#1115=AXIS2_PLACEMENT_3D($,#1628,#1336,#1337);
#1116=AXIS2_PLACEMENT_3D($,#1634,#1341,#1342);
#1117=AXIS2_PLACEMENT_3D($,#1640,#1346,#1347);
#1118=AXIS2_PLACEMENT_3D($,#1646,#1351,#1352);
#1119=AXIS2_PLACEMENT_3D($,#1652,#1356,#1357);
#1120=AXIS2_PLACEMENT_3D($,#1658,#1361,#1362);
#1121=AXIS2_PLACEMENT_3D($,#1664,#1366,#1367);
#1122=AXIS2_PLACEMENT_3D($,#1670,#1371,#1372);
#1123=AXIS2_PLACEMENT_3D($,#1676,#1376,#1377);
#1124=AXIS2_PLACEMENT_3D($,#1679,#1380,#1381);
#1125=AXIS2_PLACEMENT_3D($,#1680,#1382,#1383);
#1126=DIRECTION('axis',(0.,0.,1.));
#1127=DIRECTION('refdir',(1.,0.,0.));
#1128=DIRECTION('center_axis',(-1.,0.,0.));
#1129=DIRECTION('ref_axis',(0.,-1.,0.));
#1130=DIRECTION($,(0.,0.,1.));
#1131=DIRECTION($,(0.,-1.,0.));
#1132=DIRECTION($,(0.,0.,-1.));
#1133=DIRECTION($,(0.,-1.,0.));
#1134=DIRECTION('center_axis',(-1.,0.,0.));
#1135=DIRECTION('ref_axis',(0.,-1.,0.));
#1136=DIRECTION($,(0.,0.,1.));
#1137=DIRECTION($,(0.,-1.,0.));
#1138=DIRECTION($,(0.,0.,1.));
#1139=DIRECTION($,(0.,-1.,0.));
#1140=DIRECTION('center_axis',(0.,-1.,0.));
#1141=DIRECTION('ref_axis',(1.,0.,0.));
#1142=DIRECTION($,(1.,0.,0.));
#1143=DIRECTION($,(0.,0.,1.));
#1144=DIRECTION($,(1.,0.,0.));
#1145=DIRECTION('center_axis',(1.,0.,0.));
#1146=DIRECTION('ref_axis',(0.,1.,0.));
#1147=DIRECTION($,(0.,1.,0.));
#1148=DIRECTION($,(0.,0.,1.));
#1149=DIRECTION($,(0.,1.,0.));
#1150=DIRECTION('center_axis',(0.,-1.,0.));
#1151=DIRECTION('ref_axis',(1.,0.,0.));
#1152=DIRECTION($,(1.,0.,0.));
#1153=DIRECTION($,(0.,0.,1.));
#1154=DIRECTION($,(1.,0.,0.));
#1155=DIRECTION('center_axis',(-1.,0.,0.));
#1156=DIRECTION('ref_axis',(0.,-1.,0.));
#1157=DIRECTION($,(0.,-1.,0.));
#1158=DIRECTION($,(0.,0.,1.));
#1159=DIRECTION($,(0.,-1.,0.));
#1160=DIRECTION('center_axis',(0.,1.,0.));
#1161=DIRECTION('ref_axis',(-1.,0.,0.));
#1162=DIRECTION($,(-1.,0.,0.));
#1163=DIRECTION($,(0.,0.,1.));
#1164=DIRECTION($,(-1.,0.,0.));
#1165=DIRECTION('center_axis',(1.,0.,0.));
#1166=DIRECTION('ref_axis',(0.,1.,0.));
#1167=DIRECTION($,(0.,1.,0.));
#1168=DIRECTION($,(0.,0.,1.));
#1169=DIRECTION($,(0.,1.,0.));
#1170=DIRECTION('center_axis',(0.,1.,0.));
#1171=DIRECTION('ref_axis',(-1.,0.,0.));
#1172=DIRECTION($,(-1.,0.,0.));
#1173=DIRECTION($,(-1.,0.,0.));
#1174=DIRECTION('center_axis',(0.,-1.,0.));
#1175=DIRECTION('ref_axis',(1.,0.,0.));
#1176=DIRECTION($,(1.,0.,0.));
#1177=DIRECTION($,(0.,0.,1.));
#1178=DIRECTION($,(1.,0.,0.));
#1179=DIRECTION($,(0.,0.,1.));
#1180=DIRECTION('center_axis',(1.,0.,0.));
#1181=DIRECTION('ref_axis',(0.,1.,0.));
#1182=DIRECTION($,(0.,1.,0.));
#1183=DIRECTION($,(0.,0.,-1.));
#1184=DIRECTION($,(0.,1.,0.));
#1185=DIRECTION('center_axis',(1.,0.,0.));
#1186=DIRECTION('ref_axis',(0.,1.,0.));
#1187=DIRECTION($,(0.,1.,0.));
#1188=DIRECTION($,(0.,0.,1.));
#1189=DIRECTION($,(0.,1.,0.));
#1190=DIRECTION($,(0.,0.,1.));
#1191=DIRECTION('center_axis',(0.,1.,0.));
#1192=DIRECTION('ref_axis',(-1.,0.,0.));
#1193=DIRECTION($,(-1.,0.,0.));
#1194=DIRECTION($,(0.,0.,1.));
#1195=DIRECTION($,(-1.,0.,0.));
#1196=DIRECTION('center_axis',(-1.,0.,0.));
#1197=DIRECTION('ref_axis',(0.,-1.,0.));
#1198=DIRECTION($,(0.,-1.,0.));
#1199=DIRECTION($,(0.,0.,1.));
#1200=DIRECTION($,(0.,-1.,0.));
#1201=DIRECTION('center_axis',(0.,1.,0.));
#1202=DIRECTION('ref_axis',(-1.,0.,0.));
#1203=DIRECTION($,(-1.,0.,0.));
#1204=DIRECTION($,(0.,0.,1.));
#1205=DIRECTION($,(-1.,0.,0.));
#1206=DIRECTION('center_axis',(1.,0.,0.));
#1207=DIRECTION('ref_axis',(0.,1.,0.));
#1208=DIRECTION($,(0.,1.,0.));
#1209=DIRECTION($,(0.,0.,1.));
#1210=DIRECTION($,(0.,1.,0.));
#1211=DIRECTION('center_axis',(0.,-1.,0.));
#1212=DIRECTION('ref_axis',(1.,0.,0.));
#1213=DIRECTION($,(1.,0.,0.));
#1214=DIRECTION($,(0.,0.,1.));
#1215=DIRECTION($,(1.,0.,0.));
#1216=DIRECTION('center_axis',(-1.,0.,0.));
#1217=DIRECTION('ref_axis',(0.,-1.,0.));
#1218=DIRECTION($,(0.,-1.,0.));
#1219=DIRECTION($,(0.,-1.,0.));
#1220=DIRECTION('center_axis',(0.,0.,1.));
#1221=DIRECTION('ref_axis',(1.,0.,0.));
#1222=DIRECTION($,(1.,0.,0.));
#1223=DIRECTION($,(-1.,0.,0.));
#1224=DIRECTION('center_axis',(0.,0.,1.));
#1225=DIRECTION('ref_axis',(1.,0.,0.));
#1226=DIRECTION($,(-1.,0.,0.));
#1227=DIRECTION($,(0.,1.,0.));
#1228=DIRECTION($,(1.,0.,0.));
#1229=DIRECTION('center_axis',(0.,0.,1.));
#1230=DIRECTION('ref_axis',(1.,0.,0.));
#1231=DIRECTION($,(1.,0.,0.));
#1232=DIRECTION($,(0.,-1.,0.));
#1233=DIRECTION($,(-1.,0.,0.));
#1234=DIRECTION('center_axis',(0.,-1.,0.));
#1235=DIRECTION('ref_axis',(1.,0.,0.));
#1236=DIRECTION($,(0.,0.,1.));
#1237=DIRECTION($,(1.,0.,0.));
#1238=DIRECTION($,(0.,0.,1.));
#1239=DIRECTION('center_axis',(1.,0.,0.));
#1240=DIRECTION('ref_axis',(0.,1.,0.));
#1241=DIRECTION($,(0.,0.,1.));
#1242=DIRECTION($,(0.,1.,0.));
#1243=DIRECTION('center_axis',(-1.,0.,0.));
#1244=DIRECTION('ref_axis',(0.,-1.,0.));
#1245=DIRECTION($,(0.,-1.,0.));
#1246=DIRECTION($,(0.,0.,1.));
#1247=DIRECTION('center_axis',(0.,1.,0.));
#1248=DIRECTION('ref_axis',(-1.,0.,0.));
#1249=DIRECTION($,(-1.,0.,0.));
#1250=DIRECTION('center_axis',(0.,0.,1.));
#1251=DIRECTION('ref_axis',(1.,0.,0.));
#1252=DIRECTION('center_axis',(-6.05576195250086E-16,1.,0.));
#1253=DIRECTION('ref_axis',(-1.,-6.66133814775094E-16,0.));
#1254=DIRECTION($,(-1.,-6.05576195250086E-16,0.));
#1255=DIRECTION($,(0.,0.,1.));
#1256=DIRECTION($,(-1.,-6.05576195250086E-16,0.));
#1257=DIRECTION($,(0.,0.,1.));
#1258=DIRECTION('center_axis',(1.,0.,0.));
#1259=DIRECTION('ref_axis',(0.,1.,0.));
#1260=DIRECTION($,(0.,1.,0.));
#1261=DIRECTION($,(0.,1.,0.));
#1262=DIRECTION($,(0.,0.,1.));
#1263=DIRECTION('center_axis',(0.,-1.,0.));
#1264=DIRECTION('ref_axis',(1.,0.,0.));
#1265=DIRECTION($,(1.,0.,0.));
#1266=DIRECTION($,(1.,0.,0.));
#1267=DIRECTION($,(0.,0.,1.));
#1268=DIRECTION('center_axis',(-1.,0.,0.));
#1269=DIRECTION('ref_axis',(0.,-1.,0.));
#1270=DIRECTION($,(0.,-1.,0.));
#1271=DIRECTION($,(0.,-1.,0.));
#1272=DIRECTION('center_axis',(0.,0.,1.));
#1273=DIRECTION('ref_axis',(1.,0.,0.));
#1274=DIRECTION('center_axis',(0.,0.,1.));
#1275=DIRECTION('ref_axis',(1.,0.,0.));
#1276=DIRECTION('center_axis',(1.,0.,0.));
#1277=DIRECTION('ref_axis',(0.,1.,0.));
#1278=DIRECTION($,(0.,1.,0.));
#1279=DIRECTION($,(0.,0.,1.));
#1280=DIRECTION($,(0.,1.,0.));
#1281=DIRECTION($,(0.,0.,1.));
#1282=DIRECTION('center_axis',(0.,-1.,0.));
#1283=DIRECTION('ref_axis',(1.,0.,0.));
#1284=DIRECTION($,(1.,0.,0.));
#1285=DIRECTION($,(1.,0.,0.));
#1286=DIRECTION($,(0.,0.,1.));
#1287=DIRECTION('center_axis',(1.,0.,0.));
#1288=DIRECTION('ref_axis',(0.,1.,0.));
#1289=DIRECTION($,(0.,1.,0.));
#1290=DIRECTION($,(0.,1.,0.));
#1291=DIRECTION($,(0.,0.,1.));
#1292=DIRECTION('center_axis',(0.,-1.,0.));
#1293=DIRECTION('ref_axis',(1.,0.,0.));
#1294=DIRECTION($,(1.,0.,0.));
#1295=DIRECTION($,(1.,0.,0.));
#1296=DIRECTION($,(0.,0.,1.));
#1297=DIRECTION('center_axis',(-1.,0.,0.));
#1298=DIRECTION('ref_axis',(0.,-1.,0.));
#1299=DIRECTION($,(0.,-1.,0.));
#1300=DIRECTION($,(0.,-1.,0.));
#1301=DIRECTION($,(0.,0.,1.));
#1302=DIRECTION('center_axis',(0.,1.,0.));
#1303=DIRECTION('ref_axis',(-1.,0.,0.));
#1304=DIRECTION($,(-1.,0.,0.));
#1305=DIRECTION($,(-1.,0.,0.));
#1306=DIRECTION($,(0.,0.,1.));
#1307=DIRECTION('center_axis',(1.,0.,0.));
#1308=DIRECTION('ref_axis',(0.,1.,0.));
#1309=DIRECTION($,(0.,1.,0.));
#1310=DIRECTION($,(0.,1.,0.));
#1311=DIRECTION($,(0.,0.,1.));
#1312=DIRECTION('center_axis',(0.,1.,0.));
#1313=DIRECTION('ref_axis',(-1.,0.,0.));
#1314=DIRECTION($,(-1.,0.,0.));
#1315=DIRECTION($,(-1.,0.,0.));
#1316=DIRECTION('center_axis',(0.,0.,1.));
#1317=DIRECTION('ref_axis',(1.,0.,0.));
#1318=DIRECTION('center_axis',(0.,0.,1.));
#1319=DIRECTION('ref_axis',(1.,0.,0.));
#1320=DIRECTION('center_axis',(0.,-1.,0.));
#1321=DIRECTION('ref_axis',(1.,0.,0.));
#1322=DIRECTION($,(1.,0.,0.));
#1323=DIRECTION($,(0.,0.,1.));
#1324=DIRECTION($,(1.,0.,0.));
#1325=DIRECTION($,(0.,0.,1.));
#1326=DIRECTION('center_axis',(1.,0.,0.));
#1327=DIRECTION('ref_axis',(0.,1.,0.));
#1328=DIRECTION($,(0.,1.,0.));
#1329=DIRECTION($,(0.,1.,0.));
#1330=DIRECTION($,(0.,0.,1.));
#1331=DIRECTION('center_axis',(0.,-1.,0.));
#1332=DIRECTION('ref_axis',(1.,0.,0.));
#1333=DIRECTION($,(1.,0.,0.));
#1334=DIRECTION($,(1.,0.,0.));
#1335=DIRECTION($,(0.,0.,1.));
#1336=DIRECTION('center_axis',(-1.,0.,0.));
#1337=DIRECTION('ref_axis',(0.,-1.,0.));
#1338=DIRECTION($,(0.,-1.,0.));
#1339=DIRECTION($,(0.,-1.,0.));
#1340=DIRECTION($,(0.,0.,1.));
#1341=DIRECTION('center_axis',(0.,1.,0.));
#1342=DIRECTION('ref_axis',(-1.,0.,0.));
#1343=DIRECTION($,(-1.,0.,0.));
#1344=DIRECTION($,(-1.,0.,0.));
#1345=DIRECTION($,(0.,0.,1.));
#1346=DIRECTION('center_axis',(1.,0.,0.));
#1347=DIRECTION('ref_axis',(0.,1.,0.));
#1348=DIRECTION($,(0.,1.,0.));
#1349=DIRECTION($,(0.,1.,0.));
#1350=DIRECTION($,(0.,0.,1.));
#1351=DIRECTION('center_axis',(0.,1.,0.));
#1352=DIRECTION('ref_axis',(-1.,0.,0.));
#1353=DIRECTION($,(-1.,0.,0.));
#1354=DIRECTION($,(-1.,0.,0.));
#1355=DIRECTION($,(0.,0.,1.));
#1356=DIRECTION('center_axis',(-1.,0.,0.));
#1357=DIRECTION('ref_axis',(0.,-1.,0.));
#1358=DIRECTION($,(0.,-1.,0.));
#1359=DIRECTION($,(0.,-1.,0.));
#1360=DIRECTION($,(0.,0.,1.));
#1361=DIRECTION('center_axis',(0.,1.,0.));
#1362=DIRECTION('ref_axis',(-1.,0.,0.));
#1363=DIRECTION($,(-1.,0.,0.));
#1364=DIRECTION($,(-1.,0.,0.));
#1365=DIRECTION($,(0.,0.,1.));
#1366=DIRECTION('center_axis',(1.,0.,0.));
#1367=DIRECTION('ref_axis',(0.,1.,0.));
#1368=DIRECTION($,(0.,1.,0.));
#1369=DIRECTION($,(0.,1.,0.));
#1370=DIRECTION($,(0.,0.,1.));
#1371=DIRECTION('center_axis',(0.,-1.,0.));
#1372=DIRECTION('ref_axis',(1.,0.,0.));
#1373=DIRECTION($,(1.,0.,0.));
#1374=DIRECTION($,(1.,0.,0.));
#1375=DIRECTION($,(0.,0.,1.));
#1376=DIRECTION('center_axis',(-1.,0.,0.));
#1377=DIRECTION('ref_axis',(0.,-1.,0.));
#1378=DIRECTION($,(0.,-1.,0.));
#1379=DIRECTION($,(0.,-1.,0.));
#1380=DIRECTION('center_axis',(0.,0.,1.));
#1381=DIRECTION('ref_axis',(1.,0.,0.));
#1382=DIRECTION('center_axis',(0.,0.,1.));
#1383=DIRECTION('ref_axis',(1.,0.,0.));
#1384=CARTESIAN_POINT('',(0.,0.,0.));
#1385=CARTESIAN_POINT('Origin',(-1.1,1.1,0.));
#1386=CARTESIAN_POINT('',(-1.1,0.0999999999999996,0.));
#1387=CARTESIAN_POINT('',(-1.1,0.0999999999999996,0.1));
#1388=CARTESIAN_POINT($,(-1.1,0.0999999999999996,0.));
#1389=CARTESIAN_POINT('',(-1.1,1.1,0.));
#1390=CARTESIAN_POINT($,(-1.1,0.549999999999999,0.));
#1391=CARTESIAN_POINT('',(-1.1,1.1,0.1));
#1392=CARTESIAN_POINT($,(-1.1,1.1,0.));
#1393=CARTESIAN_POINT($,(-1.1,1.1,0.1));
#1394=CARTESIAN_POINT('Origin',(-1.1,1.1,0.));
#1395=CARTESIAN_POINT('',(-1.1,-0.1,0.));
#1396=CARTESIAN_POINT('',(-1.1,-0.1,0.1));
#1397=CARTESIAN_POINT($,(-1.1,-0.1,0.));
#1398=CARTESIAN_POINT('',(-1.1,-1.1,0.1));
#1399=CARTESIAN_POINT($,(-1.1,1.1,0.1));
#1400=CARTESIAN_POINT('',(-1.1,-1.1,0.));
#1401=CARTESIAN_POINT($,(-1.1,-1.1,0.));
#1402=CARTESIAN_POINT($,(-1.1,0.549999999999999,0.));
#1403=CARTESIAN_POINT('Origin',(-1.4,-0.1,0.));
#1404=CARTESIAN_POINT('',(-1.4,-0.1,0.));
#1405=CARTESIAN_POINT($,(-0.7,-0.1,0.));
#1406=CARTESIAN_POINT('',(-1.4,-0.1,0.1));
#1407=CARTESIAN_POINT($,(-1.4,-0.1,0.));
#1408=CARTESIAN_POINT($,(-1.4,-0.1,0.1));
#1409=CARTESIAN_POINT('Origin',(-1.4,-0.85,0.));
#1410=CARTESIAN_POINT('',(-1.4,-0.85,0.));
#1411=CARTESIAN_POINT($,(-1.4,-0.425,0.));
#1412=CARTESIAN_POINT('',(-1.4,-0.85,0.1));
#1413=CARTESIAN_POINT($,(-1.4,-0.85,0.));
#1414=CARTESIAN_POINT($,(-1.4,-0.85,0.1));
#1415=CARTESIAN_POINT('Origin',(-1.9,-0.85,0.));
#1416=CARTESIAN_POINT('',(-1.9,-0.85,0.));
#1417=CARTESIAN_POINT($,(-0.95,-0.85,0.));
#1418=CARTESIAN_POINT('',(-1.9,-0.85,0.1));
#1419=CARTESIAN_POINT($,(-1.9,-0.85,0.));
#1420=CARTESIAN_POINT($,(-1.9,-0.85,0.1));
#1421=CARTESIAN_POINT('Origin',(-1.9,0.85,0.));
#1422=CARTESIAN_POINT('',(-1.9,0.85,0.));
#1423=CARTESIAN_POINT($,(-1.9,0.424999999999999,0.));
#1424=CARTESIAN_POINT('',(-1.9,0.85,0.1));
#1425=CARTESIAN_POINT($,(-1.9,0.85,0.));
#1426=CARTESIAN_POINT($,(-1.9,0.85,0.1));
#1427=CARTESIAN_POINT('Origin',(-1.4,0.85,0.));
#1428=CARTESIAN_POINT('',(-1.4,0.85,0.));
#1429=CARTESIAN_POINT($,(-0.7,0.85,0.));
#1430=CARTESIAN_POINT('',(-1.4,0.85,0.1));
#1431=CARTESIAN_POINT($,(-1.4,0.85,0.));
#1432=CARTESIAN_POINT($,(-1.4,0.85,0.1));
#1433=CARTESIAN_POINT('Origin',(-1.4,0.0999999999999996,0.));
#1434=CARTESIAN_POINT('',(-1.4,0.0999999999999996,0.));
#1435=CARTESIAN_POINT($,(-1.4,0.0499999999999994,0.));
#1436=CARTESIAN_POINT('',(-1.4,0.0999999999999996,0.1));
#1437=CARTESIAN_POINT($,(-1.4,0.0999999999999996,0.));
#1438=CARTESIAN_POINT($,(-1.4,0.0999999999999996,0.1));
#1439=CARTESIAN_POINT('Origin',(-1.1,0.0999999999999996,0.));
#1440=CARTESIAN_POINT($,(-0.55,0.0999999999999996,0.));
#1441=CARTESIAN_POINT($,(-1.1,0.0999999999999996,0.1));
#1442=CARTESIAN_POINT('Origin',(1.3,-0.1,0.));
#1443=CARTESIAN_POINT('',(1.3,-0.1,0.));
#1444=CARTESIAN_POINT('',(1.4,-0.1,0.));
#1445=CARTESIAN_POINT($,(0.65,-0.1,0.));
#1446=CARTESIAN_POINT('',(1.3,-0.1,0.1));
#1447=CARTESIAN_POINT($,(1.3,-0.1,0.));
#1448=CARTESIAN_POINT('',(1.4,-0.1,0.1));
#1449=CARTESIAN_POINT($,(1.3,-0.1,0.1));
#1450=CARTESIAN_POINT($,(1.4,-0.1,0.));
#1451=CARTESIAN_POINT('Origin',(1.3,-1.1,0.));
#1452=CARTESIAN_POINT('',(1.3,-1.1,0.));
#1453=CARTESIAN_POINT($,(1.3,-0.55,0.));
#1454=CARTESIAN_POINT('',(1.3,-1.1,0.1));
#1455=CARTESIAN_POINT($,(1.3,-1.1,0.));
#1456=CARTESIAN_POINT($,(1.3,-1.1,0.1));
#1457=CARTESIAN_POINT('Origin',(1.3,0.0999999999999996,0.));
#1458=CARTESIAN_POINT('',(1.3,0.0999999999999996,0.));
#1459=CARTESIAN_POINT('',(1.3,1.1,0.));
#1460=CARTESIAN_POINT($,(1.3,0.0499999999999994,0.));
#1461=CARTESIAN_POINT('',(1.3,0.0999999999999996,0.1));
#1462=CARTESIAN_POINT($,(1.3,0.0999999999999996,0.));
#1463=CARTESIAN_POINT('',(1.3,1.1,0.1));
#1464=CARTESIAN_POINT($,(1.3,0.0999999999999996,0.1));
#1465=CARTESIAN_POINT($,(1.3,1.1,0.));
#1466=CARTESIAN_POINT('Origin',(1.4,0.0999999999999996,0.));
#1467=CARTESIAN_POINT('',(1.4,0.0999999999999996,0.));
#1468=CARTESIAN_POINT($,(0.7,0.0999999999999996,0.));
#1469=CARTESIAN_POINT('',(1.4,0.0999999999999996,0.1));
#1470=CARTESIAN_POINT($,(1.4,0.0999999999999996,0.));
#1471=CARTESIAN_POINT($,(1.4,0.0999999999999996,0.1));
#1472=CARTESIAN_POINT('Origin',(1.4,0.85,0.));
#1473=CARTESIAN_POINT('',(1.4,0.85,0.));
#1474=CARTESIAN_POINT($,(1.4,0.424999999999999,0.));
#1475=CARTESIAN_POINT('',(1.4,0.85,0.1));
#1476=CARTESIAN_POINT($,(1.4,0.85,0.));
#1477=CARTESIAN_POINT($,(1.4,0.85,0.1));
#1478=CARTESIAN_POINT('Origin',(1.9,0.85,0.));
#1479=CARTESIAN_POINT('',(1.9,0.85,0.));
#1480=CARTESIAN_POINT($,(0.95,0.85,0.));
#1481=CARTESIAN_POINT('',(1.9,0.85,0.1));
#1482=CARTESIAN_POINT($,(1.9,0.85,0.));
#1483=CARTESIAN_POINT($,(1.9,0.85,0.1));
#1484=CARTESIAN_POINT('Origin',(1.9,-0.85,0.));
#1485=CARTESIAN_POINT('',(1.9,-0.85,0.));
#1486=CARTESIAN_POINT($,(1.9,-0.425,0.));
#1487=CARTESIAN_POINT('',(1.9,-0.85,0.1));
#1488=CARTESIAN_POINT($,(1.9,-0.85,0.));
#1489=CARTESIAN_POINT($,(1.9,-0.85,0.1));
#1490=CARTESIAN_POINT('Origin',(1.4,-0.85,0.));
#1491=CARTESIAN_POINT('',(1.4,-0.85,0.));
#1492=CARTESIAN_POINT($,(0.7,-0.85,0.));
#1493=CARTESIAN_POINT('',(1.4,-0.85,0.1));
#1494=CARTESIAN_POINT($,(1.4,-0.85,0.));
#1495=CARTESIAN_POINT($,(1.4,-0.85,0.1));
#1496=CARTESIAN_POINT('Origin',(1.4,-0.1,0.));
#1497=CARTESIAN_POINT($,(1.4,-0.0500000000000003,0.));
#1498=CARTESIAN_POINT($,(1.4,-0.1,0.1));
#1499=CARTESIAN_POINT('Origin',(1.41666666666667,0.,0.1));
#1500=CARTESIAN_POINT($,(-0.341666666666667,-1.1,0.1));
#1501=CARTESIAN_POINT($,(1.75833333333333,1.1,0.1));
#1502=CARTESIAN_POINT('Origin',(0.,-8.88178419700125E-16,0.));
#1503=CARTESIAN_POINT('',(2.1,1.1,0.));
#1504=CARTESIAN_POINT($,(2.1,1.1,0.));
#1505=CARTESIAN_POINT('',(2.1,-1.1,0.));
#1506=CARTESIAN_POINT($,(2.1,-1.1,0.));
#1507=CARTESIAN_POINT($,(-2.1,-1.1,0.));
#1508=CARTESIAN_POINT('Origin',(0.,-8.88178419700125E-16,0.));
#1509=CARTESIAN_POINT('',(-2.1,-1.1,0.));
#1510=CARTESIAN_POINT($,(-2.1,-1.1,0.));
#1511=CARTESIAN_POINT('',(-2.1,1.1,0.));
#1512=CARTESIAN_POINT($,(-2.1,1.1,0.));
#1513=CARTESIAN_POINT($,(2.1,1.1,0.));
#1514=CARTESIAN_POINT('Origin',(-2.1,-1.1,0.));
#1515=CARTESIAN_POINT('',(2.1,-1.1,0.5));
#1516=CARTESIAN_POINT($,(2.1,-1.1,0.));
#1517=CARTESIAN_POINT('',(-2.1,-1.1,0.5));
#1518=CARTESIAN_POINT($,(-2.1,-1.1,0.5));
#1519=CARTESIAN_POINT($,(-2.1,-1.1,0.));
#1520=CARTESIAN_POINT('Origin',(2.1,-1.1,0.));
#1521=CARTESIAN_POINT('',(2.1,1.1,0.5));
#1522=CARTESIAN_POINT($,(2.1,1.1,0.));
#1523=CARTESIAN_POINT($,(2.1,-1.1,0.5));
#1524=CARTESIAN_POINT('Origin',(-2.1,1.1,0.));
#1525=CARTESIAN_POINT('',(-2.1,1.1,0.5));
#1526=CARTESIAN_POINT($,(-2.1,1.1,0.5));
#1527=CARTESIAN_POINT($,(-2.1,1.1,0.));
#1528=CARTESIAN_POINT('Origin',(2.1,1.1,0.));
#1529=CARTESIAN_POINT($,(2.1,1.1,0.5));
#1530=CARTESIAN_POINT('Origin',(0.,-8.88178419700125E-16,0.5));
#1531=CARTESIAN_POINT('Origin',(1.1,1.1,0.));
#1532=CARTESIAN_POINT('',(1.1,1.1,0.));
#1533=CARTESIAN_POINT('',(-1.1,1.1,0.));
#1534=CARTESIAN_POINT($,(1.1,1.1,0.));
#1535=CARTESIAN_POINT('',(-1.1,1.1,0.1));
#1536=CARTESIAN_POINT($,(-1.1,1.1,0.));
#1537=CARTESIAN_POINT('',(1.1,1.1,0.1));
#1538=CARTESIAN_POINT($,(1.1,1.1,0.1));
#1539=CARTESIAN_POINT($,(1.1,1.1,0.));
#1540=CARTESIAN_POINT('Origin',(1.1,-1.1,0.));
#1541=CARTESIAN_POINT('',(1.1,-1.1,0.));
#1542=CARTESIAN_POINT($,(1.1,-1.1,0.));
#1543=CARTESIAN_POINT('',(1.1,-1.1,0.1));
#1544=CARTESIAN_POINT($,(1.1,-1.1,0.1));
#1545=CARTESIAN_POINT($,(1.1,-1.1,0.));
#1546=CARTESIAN_POINT('Origin',(-1.1,-1.1,0.));
#1547=CARTESIAN_POINT('',(-1.1,-1.1,0.));
#1548=CARTESIAN_POINT($,(-1.1,-1.1,0.));
#1549=CARTESIAN_POINT('',(-1.1,-1.1,0.1));
#1550=CARTESIAN_POINT($,(-1.1,-1.1,0.1));
#1551=CARTESIAN_POINT($,(-1.1,-1.1,0.));
#1552=CARTESIAN_POINT('Origin',(-1.1,1.1,0.));
#1553=CARTESIAN_POINT($,(-1.1,1.1,0.));
#1554=CARTESIAN_POINT($,(-1.1,1.1,0.1));
#1555=CARTESIAN_POINT('Origin',(2.22044604925031E-16,-4.44089209850063E-16,
0.1));
#1556=CARTESIAN_POINT('Origin',(2.4475371224691E-16,-4.44089209850063E-16,
0.));
#1557=CARTESIAN_POINT('Origin',(-1.1,-0.1,0.));
#1558=CARTESIAN_POINT('',(-1.1,-0.1,0.));
#1559=CARTESIAN_POINT('',(-1.1,0.0999999999999996,0.));
#1560=CARTESIAN_POINT($,(-1.1,-0.1,0.));
#1561=CARTESIAN_POINT('',(-1.1,0.0999999999999996,0.1));
#1562=CARTESIAN_POINT($,(-1.1,0.0999999999999996,0.));
#1563=CARTESIAN_POINT('',(-1.1,-0.1,0.1));
#1564=CARTESIAN_POINT($,(-1.1,-0.1,0.1));
#1565=CARTESIAN_POINT($,(-1.1,-0.1,0.));
#1566=CARTESIAN_POINT('Origin',(-1.4,-0.1,0.));
#1567=CARTESIAN_POINT('',(-1.4,-0.1,0.));
#1568=CARTESIAN_POINT($,(-1.4,-0.1,0.));
#1569=CARTESIAN_POINT('',(-1.4,-0.1,0.1));
#1570=CARTESIAN_POINT($,(-1.4,-0.1,0.1));
#1571=CARTESIAN_POINT($,(-1.4,-0.1,0.));
#1572=CARTESIAN_POINT('Origin',(-1.4,-0.85,0.));
#1573=CARTESIAN_POINT('',(-1.4,-0.85,0.));
#1574=CARTESIAN_POINT($,(-1.4,-0.85,0.));
#1575=CARTESIAN_POINT('',(-1.4,-0.85,0.1));
#1576=CARTESIAN_POINT($,(-1.4,-0.85,0.1));
#1577=CARTESIAN_POINT($,(-1.4,-0.85,0.));
#1578=CARTESIAN_POINT('Origin',(-1.9,-0.85,0.));
#1579=CARTESIAN_POINT('',(-1.9,-0.85,0.));
#1580=CARTESIAN_POINT($,(-1.9,-0.85,0.));
#1581=CARTESIAN_POINT('',(-1.9,-0.85,0.1));
#1582=CARTESIAN_POINT($,(-1.9,-0.85,0.1));
#1583=CARTESIAN_POINT($,(-1.9,-0.85,0.));
#1584=CARTESIAN_POINT('Origin',(-1.9,0.85,0.));
#1585=CARTESIAN_POINT('',(-1.9,0.85,0.));
#1586=CARTESIAN_POINT($,(-1.9,0.85,0.));
#1587=CARTESIAN_POINT('',(-1.9,0.85,0.1));
#1588=CARTESIAN_POINT($,(-1.9,0.85,0.1));
#1589=CARTESIAN_POINT($,(-1.9,0.85,0.));
#1590=CARTESIAN_POINT('Origin',(-1.4,0.85,0.));
#1591=CARTESIAN_POINT('',(-1.4,0.85,0.));
#1592=CARTESIAN_POINT($,(-1.4,0.85,0.));
#1593=CARTESIAN_POINT('',(-1.4,0.85,0.1));
#1594=CARTESIAN_POINT($,(-1.4,0.85,0.1));
#1595=CARTESIAN_POINT($,(-1.4,0.85,0.));
#1596=CARTESIAN_POINT('Origin',(-1.4,0.0999999999999996,0.));
#1597=CARTESIAN_POINT('',(-1.4,0.0999999999999996,0.));
#1598=CARTESIAN_POINT($,(-1.4,0.0999999999999996,0.));
#1599=CARTESIAN_POINT('',(-1.4,0.0999999999999996,0.1));
#1600=CARTESIAN_POINT($,(-1.4,0.0999999999999996,0.1));
#1601=CARTESIAN_POINT($,(-1.4,0.0999999999999996,0.));
#1602=CARTESIAN_POINT('Origin',(-1.1,0.0999999999999996,0.));
#1603=CARTESIAN_POINT($,(-1.1,0.0999999999999996,0.));
#1604=CARTESIAN_POINT($,(-1.1,0.0999999999999996,0.1));
#1605=CARTESIAN_POINT('Origin',(-1.59,-8.88178419700125E-16,0.1));
#1606=CARTESIAN_POINT('Origin',(-1.59,-8.88178419700125E-16,0.));
#1607=CARTESIAN_POINT('Origin',(1.3,-0.1,0.));
#1608=CARTESIAN_POINT('',(1.3,-0.1,0.));
#1609=CARTESIAN_POINT('',(1.4,-0.1,0.));
#1610=CARTESIAN_POINT($,(1.3,-0.1,0.));
#1611=CARTESIAN_POINT('',(1.4,-0.1,0.1));
#1612=CARTESIAN_POINT($,(1.4,-0.1,0.));
#1613=CARTESIAN_POINT('',(1.3,-0.1,0.1));
#1614=CARTESIAN_POINT($,(1.3,-0.1,0.1));
#1615=CARTESIAN_POINT($,(1.3,-0.1,0.));
#1616=CARTESIAN_POINT('Origin',(1.3,-1.1,0.));
#1617=CARTESIAN_POINT('',(1.3,-1.1,0.));
#1618=CARTESIAN_POINT($,(1.3,-1.1,0.));
#1619=CARTESIAN_POINT('',(1.3,-1.1,0.1));
#1620=CARTESIAN_POINT($,(1.3,-1.1,0.1));
#1621=CARTESIAN_POINT($,(1.3,-1.1,0.));
#1622=CARTESIAN_POINT('Origin',(1.1,-1.1,0.));
#1623=CARTESIAN_POINT('',(1.1,-1.1,0.));
#1624=CARTESIAN_POINT($,(1.1,-1.1,0.));
#1625=CARTESIAN_POINT('',(1.1,-1.1,0.1));
#1626=CARTESIAN_POINT($,(1.1,-1.1,0.1));
#1627=CARTESIAN_POINT($,(1.1,-1.1,0.));
#1628=CARTESIAN_POINT('Origin',(1.1,1.1,0.));
#1629=CARTESIAN_POINT('',(1.1,1.1,0.));
#1630=CARTESIAN_POINT($,(1.1,1.1,0.));
#1631=CARTESIAN_POINT('',(1.1,1.1,0.1));
#1632=CARTESIAN_POINT($,(1.1,1.1,0.1));
#1633=CARTESIAN_POINT($,(1.1,1.1,0.));
#1634=CARTESIAN_POINT('Origin',(1.3,1.1,0.));
#1635=CARTESIAN_POINT('',(1.3,1.1,0.));
#1636=CARTESIAN_POINT($,(1.3,1.1,0.));
#1637=CARTESIAN_POINT('',(1.3,1.1,0.1));
#1638=CARTESIAN_POINT($,(1.3,1.1,0.1));
#1639=CARTESIAN_POINT($,(1.3,1.1,0.));
#1640=CARTESIAN_POINT('Origin',(1.3,0.0999999999999996,0.));
#1641=CARTESIAN_POINT('',(1.3,0.0999999999999996,0.));
#1642=CARTESIAN_POINT($,(1.3,0.0999999999999996,0.));
#1643=CARTESIAN_POINT('',(1.3,0.0999999999999996,0.1));
#1644=CARTESIAN_POINT($,(1.3,0.0999999999999996,0.1));
#1645=CARTESIAN_POINT($,(1.3,0.0999999999999996,0.));
#1646=CARTESIAN_POINT('Origin',(1.4,0.0999999999999996,0.));
#1647=CARTESIAN_POINT('',(1.4,0.0999999999999996,0.));
#1648=CARTESIAN_POINT($,(1.4,0.0999999999999996,0.));
#1649=CARTESIAN_POINT('',(1.4,0.0999999999999996,0.1));
#1650=CARTESIAN_POINT($,(1.4,0.0999999999999996,0.1));
#1651=CARTESIAN_POINT($,(1.4,0.0999999999999996,0.));
#1652=CARTESIAN_POINT('Origin',(1.4,0.85,0.));
#1653=CARTESIAN_POINT('',(1.4,0.85,0.));
#1654=CARTESIAN_POINT($,(1.4,0.85,0.));
#1655=CARTESIAN_POINT('',(1.4,0.85,0.1));
#1656=CARTESIAN_POINT($,(1.4,0.85,0.1));
#1657=CARTESIAN_POINT($,(1.4,0.85,0.));
#1658=CARTESIAN_POINT('Origin',(1.9,0.85,0.));
#1659=CARTESIAN_POINT('',(1.9,0.85,0.));
#1660=CARTESIAN_POINT($,(1.9,0.85,0.));
#1661=CARTESIAN_POINT('',(1.9,0.85,0.1));
#1662=CARTESIAN_POINT($,(1.9,0.85,0.1));
#1663=CARTESIAN_POINT($,(1.9,0.85,0.));
#1664=CARTESIAN_POINT('Origin',(1.9,-0.85,0.));
#1665=CARTESIAN_POINT('',(1.9,-0.85,0.));
#1666=CARTESIAN_POINT($,(1.9,-0.85,0.));
#1667=CARTESIAN_POINT('',(1.9,-0.85,0.1));
#1668=CARTESIAN_POINT($,(1.9,-0.85,0.1));
#1669=CARTESIAN_POINT($,(1.9,-0.85,0.));
#1670=CARTESIAN_POINT('Origin',(1.4,-0.85,0.));
#1671=CARTESIAN_POINT('',(1.4,-0.85,0.));
#1672=CARTESIAN_POINT($,(1.4,-0.85,0.));
#1673=CARTESIAN_POINT('',(1.4,-0.85,0.1));
#1674=CARTESIAN_POINT($,(1.4,-0.85,0.1));
#1675=CARTESIAN_POINT($,(1.4,-0.85,0.));
#1676=CARTESIAN_POINT('Origin',(1.4,-0.1,0.));
#1677=CARTESIAN_POINT($,(1.4,-0.1,0.));
#1678=CARTESIAN_POINT($,(1.4,-0.1,0.1));
#1679=CARTESIAN_POINT('Origin',(1.41666666666667,0.,0.1));
#1680=CARTESIAN_POINT('Origin',(1.41666666666667,0.,0.));
#1681=UNCERTAINTY_MEASURE_WITH_UNIT(LENGTH_MEASURE(0.01),#1685,
'DISTANCE_ACCURACY_VALUE',
'Maximum model space distance between geometric entities at asserted c
onnectivities');
#1682=UNCERTAINTY_MEASURE_WITH_UNIT(LENGTH_MEASURE(1.E-6),#1685,
'DISTANCE_ACCURACY_VALUE',
'Maximum model space distance between geometric entities at asserted c
onnectivities');
#1683=(
GEOMETRIC_REPRESENTATION_CONTEXT(3)
GLOBAL_UNCERTAINTY_ASSIGNED_CONTEXT((#1681))
GLOBAL_UNIT_ASSIGNED_CONTEXT((#1685,#1687,#1686))
REPRESENTATION_CONTEXT('','3D')
);
#1684=(
GEOMETRIC_REPRESENTATION_CONTEXT(3)
GLOBAL_UNCERTAINTY_ASSIGNED_CONTEXT((#1682))
GLOBAL_UNIT_ASSIGNED_CONTEXT((#1685,#12,#1686))
REPRESENTATION_CONTEXT('','3D')
);
#1685=(
LENGTH_UNIT()
NAMED_UNIT(*)
SI_UNIT(.MILLI.,.METRE.)
);
#1686=(
NAMED_UNIT(*)
SI_UNIT($,.STERADIAN.)
SOLID_ANGLE_UNIT()
);
#1687=(
NAMED_UNIT(*)
PLANE_ANGLE_UNIT()
SI_UNIT($,.RADIAN.)
);
#1688=SHAPE_DEFINITION_REPRESENTATION(#1689,#1690);
#1689=PRODUCT_DEFINITION_SHAPE('',$,#1692);
#1690=SHAPE_REPRESENTATION('',(#1069),#1683);
#1691=PRODUCT_DEFINITION_CONTEXT('part definition',#1696,'design');
#1692=PRODUCT_DEFINITION('Product','Product',#1693,#1691);
#1693=PRODUCT_DEFINITION_FORMATION('',$,#1698);
#1694=PRODUCT_RELATED_PRODUCT_CATEGORY('Product','Product',(#1698));
#1695=APPLICATION_PROTOCOL_DEFINITION('international standard',
'automotive_design',2009,#1696);
#1696=APPLICATION_CONTEXT(
'Core Data for Automotive Mechanical Design Process');
#1697=PRODUCT_CONTEXT('part definition',#1696,'mechanical');
#1698=PRODUCT('Product','Product',$,(#1697));
#1699=PRESENTATION_STYLE_ASSIGNMENT((#1703));
#1700=PRESENTATION_STYLE_ASSIGNMENT((#1704));
#1701=PRESENTATION_STYLE_ASSIGNMENT((#1705));
#1702=PRESENTATION_STYLE_ASSIGNMENT((#1706));
#1703=SURFACE_STYLE_USAGE(.BOTH.,#1707);
#1704=SURFACE_STYLE_USAGE(.BOTH.,#1708);
#1705=SURFACE_STYLE_USAGE(.BOTH.,#1709);
#1706=SURFACE_STYLE_USAGE(.BOTH.,#1710);
#1707=SURFACE_SIDE_STYLE($,(#1711));
#1708=SURFACE_SIDE_STYLE($,(#1712));
#1709=SURFACE_SIDE_STYLE($,(#1713));
#1710=SURFACE_SIDE_STYLE($,(#1714));
#1711=SURFACE_STYLE_FILL_AREA(#1715);
#1712=SURFACE_STYLE_FILL_AREA(#1716);
#1713=SURFACE_STYLE_FILL_AREA(#1717);
#1714=SURFACE_STYLE_FILL_AREA(#1718);
#1715=FILL_AREA_STYLE($,(#1719));
#1716=FILL_AREA_STYLE($,(#1720));
#1717=FILL_AREA_STYLE($,(#1721));
#1718=FILL_AREA_STYLE($,(#1722));
#1719=FILL_AREA_STYLE_COLOUR($,#1723);
#1720=FILL_AREA_STYLE_COLOUR($,#1724);
#1721=FILL_AREA_STYLE_COLOUR($,#1725);
#1722=FILL_AREA_STYLE_COLOUR($,#1726);
#1723=COLOUR_RGB('',1.,1.,1.);
#1724=COLOUR_RGB('',1.,1.,1.);
#1725=COLOUR_RGB('',0.866666666666667,0.866666666666667,0.866666666666667);
#1726=COLOUR_RGB('',0.733333333333333,0.733333333333333,0.733333333333333);
ENDSEC;
END-ISO-10303-21;
