ISO-10303-21;
HEADER;
/****************************************************************
 * Generated by software with PDElib inside                    *
 * PDElib Version v51a, created Wed 11/30/2011                  *
 * ITI Transcendata (http://www.transcendata.com/)              *
 ****************************************************************/
FILE_DESCRIPTION((''),'2;1');
FILE_NAME('JST_B2B-XH-A(LF)(SN).stp','2014-08-14T10:34:55',(''),(''),'Mechanical Desktop 2011','Mechanical Desktop 2011',', , ');
FILE_SCHEMA(('AUTOMOTIVE_DESIGN { 1 2 10303 214 1 1 1 1 }'));
ENDSEC;
DATA;
#10=(NAMED_UNIT(*)PLANE_ANGLE_UNIT()SI_UNIT($,.RADIAN.));
#11=DIMENSIONAL_EXPONENTS(0.0,0.0,0.0,0.0,0.0,0.0,0.0);
#12=PLANE_ANGLE_MEASURE_WITH_UNIT(PLANE_ANGLE_MEASURE(0.0174532925),#10);
#16=(CONVERSION_BASED_UNIT('DEGREE',#12)NAMED_UNIT(#11)PLANE_ANGLE_UNIT());
#20=(NAMED_UNIT(*)SI_UNIT($,.STERADIAN.)SOLID_ANGLE_UNIT());
#24=(LENGTH_UNIT()NAMED_UNIT(*)SI_UNIT(.MILLI.,.METRE.));
#26=UNCERTAINTY_MEASURE_WITH_UNIT(LENGTH_MEASURE(0.000001),#24,'DISTANCE_ACCURACY_VALUE','');
#28=(GEOMETRIC_REPRESENTATION_CONTEXT(3)GLOBAL_UNCERTAINTY_ASSIGNED_CONTEXT((#26))GLOBAL_UNIT_ASSIGNED_CONTEXT((#16,#20,#24))REPRESENTATION_CONTEXT('','3D'));
#29=APPLICATION_CONTEXT('automotive design');
#30=APPLICATION_PROTOCOL_DEFINITION('INTERNATIONAL_STANDARD','automotive_design',1998,#29);
#31=PRODUCT_CONTEXT('3D Mechanical Parts',#29,'mechanical');
#32=PRODUCT('Product','Product','',(#31));
#33=PRODUCT_RELATED_PRODUCT_CATEGORY('part',$,(#32));
#34=PRODUCT_CATEGORY('part',$);
#35=PERSON('1','Design','Joe',$,$,$);
#36=ORGANIZATION($,'None','None');
#37=PERSON_AND_ORGANIZATION(#35,#36);
#38=PERSON_AND_ORGANIZATION_ROLE('design_owner');
#39=APPLIED_PERSON_AND_ORGANIZATION_ASSIGNMENT(#37,#38,(#32));
#40=PRODUCT_DEFINITION_FORMATION_WITH_SPECIFIED_SOURCE('None','',#32,.BOUGHT.);
#41=PERSON('2','Creator','Joe',$,$,$);
#42=ORGANIZATION($,'None','None');
#43=PERSON_AND_ORGANIZATION(#41,#42);
#44=PERSON_AND_ORGANIZATION_ROLE('creator');
#45=APPLIED_PERSON_AND_ORGANIZATION_ASSIGNMENT(#43,#44,(#40));
#46=PERSON('3','Supplier','Joe',$,$,$);
#47=ORGANIZATION($,'None','None');
#48=PERSON_AND_ORGANIZATION(#46,#47);
#49=PERSON_AND_ORGANIZATION_ROLE('design_supplier');
#50=APPLIED_PERSON_AND_ORGANIZATION_ASSIGNMENT(#48,#49,(#40));
#51=PRODUCT_DEFINITION_CONTEXT('part definition',#29,'design');
#52=PRODUCT_DEFINITION('None','',#40,#51);
#53=PERSON('4','Creator','Joe',$,$,$);
#54=ORGANIZATION($,'None','None');
#55=PERSON_AND_ORGANIZATION(#53,#54);
#56=PERSON_AND_ORGANIZATION_ROLE('creator');
#57=APPLIED_PERSON_AND_ORGANIZATION_ASSIGNMENT(#55,#56,(#52));
#58=CARTESIAN_POINT('NONE',(0.0,0.0,0.0));
#59=DIRECTION('NONE',(0.0,0.0,1.0));
#60=DIRECTION('NONE',(1.0,0.0,0.0));
#61=AXIS2_PLACEMENT_3D('NONE',#58,#59,#60);
#62=SHAPE_REPRESENTATION('SR1',(#61),#28);
#63=PRODUCT_DEFINITION_SHAPE('PDS1','Test Part',#52);
#64=SHAPE_DEFINITION_REPRESENTATION(#63,#62);
#65=CARTESIAN_POINT('',(1.25,2.220446E-016,-3.4));
#66=DIRECTION('',(0.0,0.0,-1.0));
#67=DIRECTION('',(1.0,0.0,0.0));
#68=AXIS2_PLACEMENT_3D('',#65,#66,#67);
#69=PLANE('',#68);
#70=CARTESIAN_POINT('',(1.570000000000001,0.32,-3.4));
#71=VERTEX_POINT('',#70);
#72=CARTESIAN_POINT('',(1.570000000000001,-0.32,-3.4));
#73=VERTEX_POINT('',#72);
#74=CARTESIAN_POINT('',(1.570000000000001,0.32,-3.4));
#75=DIRECTION('',(0.0,-1.0,0.0));
#76=VECTOR('',#75,0.64);
#77=LINE('',#74,#76);
#78=EDGE_CURVE('',#71,#73,#77,.T.);
#79=ORIENTED_EDGE('',*,*,#78,.T.);
#80=CARTESIAN_POINT('',(0.93,-0.32,-3.4));
#81=VERTEX_POINT('',#80);
#82=CARTESIAN_POINT('',(1.570000000000001,-0.32,-3.4));
#83=DIRECTION('',(-1.0,0.0,0.0));
#84=VECTOR('',#83,0.640000000000002);
#85=LINE('',#82,#84);
#86=EDGE_CURVE('',#73,#81,#85,.T.);
#87=ORIENTED_EDGE('',*,*,#86,.T.);
#88=CARTESIAN_POINT('',(0.93,0.32,-3.4));
#89=VERTEX_POINT('',#88);
#90=CARTESIAN_POINT('',(0.93,-0.32,-3.4));
#91=DIRECTION('',(0.0,1.0,0.0));
#92=VECTOR('',#91,0.64);
#93=LINE('',#90,#92);
#94=EDGE_CURVE('',#81,#89,#93,.T.);
#95=ORIENTED_EDGE('',*,*,#94,.T.);
#96=CARTESIAN_POINT('',(0.929999999999999,0.32,-3.4));
#97=DIRECTION('',(1.0,0.0,0.0));
#98=VECTOR('',#97,0.640000000000002);
#99=LINE('',#96,#98);
#100=EDGE_CURVE('',#89,#71,#99,.T.);
#101=ORIENTED_EDGE('',*,*,#100,.T.);
#102=EDGE_LOOP('',(#79,#87,#95,#101));
#103=FACE_OUTER_BOUND('',#102,.T.);
#104=ADVANCED_FACE('',(#103),#69,.T.);
#105=CARTESIAN_POINT('',(1.25,2.220446E-016,2.220446E-016));
#106=DIRECTION('',(0.0,0.0,-1.0));
#107=DIRECTION('',(1.0,0.0,0.0));
#108=AXIS2_PLACEMENT_3D('',#105,#106,#107);
#109=PLANE('',#108);
#110=CARTESIAN_POINT('',(1.570000000000001,-0.32,2.220446E-016));
#111=VERTEX_POINT('',#110);
#112=CARTESIAN_POINT('',(1.570000000000001,0.32,2.220446E-016));
#113=VERTEX_POINT('',#112);
#114=CARTESIAN_POINT('',(1.570000000000001,-0.32,2.220446E-016));
#115=DIRECTION('',(0.0,1.0,0.0));
#116=VECTOR('',#115,0.64);
#117=LINE('',#114,#116);
#118=EDGE_CURVE('',#111,#113,#117,.T.);
#119=ORIENTED_EDGE('',*,*,#118,.T.);
#120=CARTESIAN_POINT('',(0.93,0.32,2.220446E-016));
#121=VERTEX_POINT('',#120);
#122=CARTESIAN_POINT('',(1.570000000000001,0.32,2.220446E-016));
#123=DIRECTION('',(-1.0,0.0,0.0));
#124=VECTOR('',#123,0.640000000000002);
#125=LINE('',#122,#124);
#126=EDGE_CURVE('',#113,#121,#125,.T.);
#127=ORIENTED_EDGE('',*,*,#126,.T.);
#128=CARTESIAN_POINT('',(0.93,-0.32,2.220446E-016));
#129=VERTEX_POINT('',#128);
#130=CARTESIAN_POINT('',(0.93,0.32,2.220446E-016));
#131=DIRECTION('',(0.0,-1.0,0.0));
#132=VECTOR('',#131,0.64);
#133=LINE('',#130,#132);
#134=EDGE_CURVE('',#121,#129,#133,.T.);
#135=ORIENTED_EDGE('',*,*,#134,.T.);
#136=CARTESIAN_POINT('',(0.929999999999999,-0.32,2.220446E-016));
#137=DIRECTION('',(1.0,0.0,0.0));
#138=VECTOR('',#137,0.640000000000002);
#139=LINE('',#136,#138);
#140=EDGE_CURVE('',#129,#111,#139,.T.);
#141=ORIENTED_EDGE('',*,*,#140,.T.);
#142=EDGE_LOOP('',(#119,#127,#135,#141));
#143=FACE_OUTER_BOUND('',#142,.T.);
#144=ADVANCED_FACE('',(#143),#109,.F.);
#145=CARTESIAN_POINT('',(1.25,0.32,-1.7));
#146=DIRECTION('',(0.0,-1.0,0.0));
#147=DIRECTION('',(0.0,0.0,-1.0));
#148=AXIS2_PLACEMENT_3D('',#145,#146,#147);
#149=PLANE('',#148);
#150=CARTESIAN_POINT('',(0.93,0.32,-3.4));
#151=DIRECTION('',(0.0,0.0,1.0));
#152=VECTOR('',#151,3.4);
#153=LINE('',#150,#152);
#154=EDGE_CURVE('',#89,#121,#153,.T.);
#155=ORIENTED_EDGE('',*,*,#154,.T.);
#156=ORIENTED_EDGE('',*,*,#126,.F.);
#157=CARTESIAN_POINT('',(1.570000000000001,0.32,-3.4));
#158=DIRECTION('',(0.0,0.0,1.0));
#159=VECTOR('',#158,3.4);
#160=LINE('',#157,#159);
#161=EDGE_CURVE('',#71,#113,#160,.T.);
#162=ORIENTED_EDGE('',*,*,#161,.F.);
#163=ORIENTED_EDGE('',*,*,#100,.F.);
#164=EDGE_LOOP('',(#155,#156,#162,#163));
#165=FACE_OUTER_BOUND('',#164,.T.);
#166=ADVANCED_FACE('',(#165),#149,.F.);
#167=CARTESIAN_POINT('',(0.93,2.220446E-016,-1.7));
#168=DIRECTION('',(1.0,0.0,0.0));
#169=DIRECTION('',(0.0,0.0,1.0));
#170=AXIS2_PLACEMENT_3D('',#167,#168,#169);
#171=PLANE('',#170);
#172=CARTESIAN_POINT('',(0.93,-0.32,-3.4));
#173=DIRECTION('',(0.0,0.0,1.0));
#174=VECTOR('',#173,3.4);
#175=LINE('',#172,#174);
#176=EDGE_CURVE('',#81,#129,#175,.T.);
#177=ORIENTED_EDGE('',*,*,#176,.T.);
#178=ORIENTED_EDGE('',*,*,#134,.F.);
#179=ORIENTED_EDGE('',*,*,#154,.F.);
#180=ORIENTED_EDGE('',*,*,#94,.F.);
#181=EDGE_LOOP('',(#177,#178,#179,#180));
#182=FACE_OUTER_BOUND('',#181,.T.);
#183=ADVANCED_FACE('',(#182),#171,.F.);
#184=CARTESIAN_POINT('',(1.25,-0.32,-1.7));
#185=DIRECTION('',(0.0,1.0,0.0));
#186=DIRECTION('',(0.0,0.0,1.0));
#187=AXIS2_PLACEMENT_3D('',#184,#185,#186);
#188=PLANE('',#187);
#189=CARTESIAN_POINT('',(1.570000000000001,-0.32,-3.4));
#190=DIRECTION('',(0.0,0.0,1.0));
#191=VECTOR('',#190,3.4);
#192=LINE('',#189,#191);
#193=EDGE_CURVE('',#73,#111,#192,.T.);
#194=ORIENTED_EDGE('',*,*,#193,.T.);
#195=ORIENTED_EDGE('',*,*,#140,.F.);
#196=ORIENTED_EDGE('',*,*,#176,.F.);
#197=ORIENTED_EDGE('',*,*,#86,.F.);
#198=EDGE_LOOP('',(#194,#195,#196,#197));
#199=FACE_OUTER_BOUND('',#198,.T.);
#200=ADVANCED_FACE('',(#199),#188,.F.);
#201=CARTESIAN_POINT('',(1.570000000000001,2.220446E-016,-1.7));
#202=DIRECTION('',(-1.0,0.0,0.0));
#203=DIRECTION('',(0.0,0.0,-1.0));
#204=AXIS2_PLACEMENT_3D('',#201,#202,#203);
#205=PLANE('',#204);
#206=ORIENTED_EDGE('',*,*,#161,.T.);
#207=ORIENTED_EDGE('',*,*,#118,.F.);
#208=ORIENTED_EDGE('',*,*,#193,.F.);
#209=ORIENTED_EDGE('',*,*,#78,.F.);
#210=EDGE_LOOP('',(#206,#207,#208,#209));
#211=FACE_OUTER_BOUND('',#210,.T.);
#212=ADVANCED_FACE('',(#211),#205,.F.);
#213=CLOSED_SHELL('',(#104,#144,#166,#183,#200,#212));
#214=MANIFOLD_SOLID_BREP('2BE1',#213);
#215=COLOUR_RGB('254',0.866,0.866,0.866);
#216=SURFACE_STYLE_USAGE(.BOTH.,#217);
#217=SURFACE_SIDE_STYLE('NONE',(#218));
#218=SURFACE_STYLE_FILL_AREA(#219);
#219=FILL_AREA_STYLE('NONE',(#220));
#220=FILL_AREA_STYLE_COLOUR('NONE',#215);
#221=PRESENTATION_STYLE_ASSIGNMENT((#216));
#222=STYLED_ITEM('NONE',(#221),#214);
#223=MECHANICAL_DESIGN_GEOMETRIC_PRESENTATION_REPRESENTATION('NONE',(#222,#375,#526,#677,#1297),#28);
#224=PRESENTATION_LAYER_ASSIGNMENT('3D','None',(#214,#374,#525,#676,#1289));
#225=CARTESIAN_POINT('',(-1.25,-3.330669E-016,-3.400000000000001));
#226=DIRECTION('',(0.0,0.0,-1.0));
#227=DIRECTION('',(1.0,0.0,0.0));
#228=AXIS2_PLACEMENT_3D('',#225,#226,#227);
#229=PLANE('',#228);
#230=CARTESIAN_POINT('',(-0.93,0.32,-3.400000000000001));
#231=VERTEX_POINT('',#230);
#232=CARTESIAN_POINT('',(-0.93,-0.32,-3.400000000000001));
#233=VERTEX_POINT('',#232);
#234=CARTESIAN_POINT('',(-0.93,0.32,-3.400000000000001));
#235=DIRECTION('',(0.0,-1.0,0.0));
#236=VECTOR('',#235,0.64);
#237=LINE('',#234,#236);
#238=EDGE_CURVE('',#231,#233,#237,.T.);
#239=ORIENTED_EDGE('',*,*,#238,.T.);
#240=CARTESIAN_POINT('',(-1.570000000000001,-0.32,-3.400000000000001));
#241=VERTEX_POINT('',#240);
#242=CARTESIAN_POINT('',(-0.929999999999999,-0.32,-3.400000000000001));
#243=DIRECTION('',(-1.0,0.0,0.0));
#244=VECTOR('',#243,0.640000000000002);
#245=LINE('',#242,#244);
#246=EDGE_CURVE('',#233,#241,#245,.T.);
#247=ORIENTED_EDGE('',*,*,#246,.T.);
#248=CARTESIAN_POINT('',(-1.570000000000001,0.32,-3.400000000000001));
#249=VERTEX_POINT('',#248);
#250=CARTESIAN_POINT('',(-1.570000000000001,-0.32,-3.400000000000001));
#251=DIRECTION('',(0.0,1.0,0.0));
#252=VECTOR('',#251,0.64);
#253=LINE('',#250,#252);
#254=EDGE_CURVE('',#241,#249,#253,.T.);
#255=ORIENTED_EDGE('',*,*,#254,.T.);
#256=CARTESIAN_POINT('',(-1.570000000000001,0.32,-3.400000000000001));
#257=DIRECTION('',(1.0,0.0,0.0));
#258=VECTOR('',#257,0.640000000000002);
#259=LINE('',#256,#258);
#260=EDGE_CURVE('',#249,#231,#259,.T.);
#261=ORIENTED_EDGE('',*,*,#260,.T.);
#262=EDGE_LOOP('',(#239,#247,#255,#261));
#263=FACE_OUTER_BOUND('',#262,.T.);
#264=ADVANCED_FACE('',(#263),#229,.T.);
#265=CARTESIAN_POINT('',(-1.25,-3.330669E-016,-4.440892E-016));
#266=DIRECTION('',(0.0,0.0,-1.0));
#267=DIRECTION('',(1.0,0.0,0.0));
#268=AXIS2_PLACEMENT_3D('',#265,#266,#267);
#269=PLANE('',#268);
#270=CARTESIAN_POINT('',(-0.93,-0.32,-4.440892E-016));
#271=VERTEX_POINT('',#270);
#272=CARTESIAN_POINT('',(-0.93,0.32,-4.440892E-016));
#273=VERTEX_POINT('',#272);
#274=CARTESIAN_POINT('',(-0.93,-0.32,-4.440892E-016));
#275=DIRECTION('',(0.0,1.0,0.0));
#276=VECTOR('',#275,0.64);
#277=LINE('',#274,#276);
#278=EDGE_CURVE('',#271,#273,#277,.T.);
#279=ORIENTED_EDGE('',*,*,#278,.T.);
#280=CARTESIAN_POINT('',(-1.570000000000001,0.32,-4.440892E-016));
#281=VERTEX_POINT('',#280);
#282=CARTESIAN_POINT('',(-0.929999999999999,0.32,-4.440892E-016));
#283=DIRECTION('',(-1.0,0.0,0.0));
#284=VECTOR('',#283,0.640000000000002);
#285=LINE('',#282,#284);
#286=EDGE_CURVE('',#273,#281,#285,.T.);
#287=ORIENTED_EDGE('',*,*,#286,.T.);
#288=CARTESIAN_POINT('',(-1.570000000000001,-0.32,-4.440892E-016));
#289=VERTEX_POINT('',#288);
#290=CARTESIAN_POINT('',(-1.570000000000001,0.32,-4.440892E-016));
#291=DIRECTION('',(0.0,-1.0,0.0));
#292=VECTOR('',#291,0.64);
#293=LINE('',#290,#292);
#294=EDGE_CURVE('',#281,#289,#293,.T.);
#295=ORIENTED_EDGE('',*,*,#294,.T.);
#296=CARTESIAN_POINT('',(-1.570000000000001,-0.32,-4.440892E-016));
#297=DIRECTION('',(1.0,0.0,0.0));
#298=VECTOR('',#297,0.640000000000002);
#299=LINE('',#296,#298);
#300=EDGE_CURVE('',#289,#271,#299,.T.);
#301=ORIENTED_EDGE('',*,*,#300,.T.);
#302=EDGE_LOOP('',(#279,#287,#295,#301));
#303=FACE_OUTER_BOUND('',#302,.T.);
#304=ADVANCED_FACE('',(#303),#269,.F.);
#305=CARTESIAN_POINT('',(-1.25,0.32,-1.700000000000001));
#306=DIRECTION('',(0.0,-1.0,0.0));
#307=DIRECTION('',(0.0,0.0,-1.0));
#308=AXIS2_PLACEMENT_3D('',#305,#306,#307);
#309=PLANE('',#308);
#310=CARTESIAN_POINT('',(-1.570000000000001,0.32,-3.400000000000001));
#311=DIRECTION('',(0.0,0.0,1.0));
#312=VECTOR('',#311,3.400000000000001);
#313=LINE('',#310,#312);
#314=EDGE_CURVE('',#249,#281,#313,.T.);
#315=ORIENTED_EDGE('',*,*,#314,.T.);
#316=ORIENTED_EDGE('',*,*,#286,.F.);
#317=CARTESIAN_POINT('',(-0.93,0.32,-3.400000000000001));
#318=DIRECTION('',(0.0,0.0,1.0));
#319=VECTOR('',#318,3.400000000000001);
#320=LINE('',#317,#319);
#321=EDGE_CURVE('',#231,#273,#320,.T.);
#322=ORIENTED_EDGE('',*,*,#321,.F.);
#323=ORIENTED_EDGE('',*,*,#260,.F.);
#324=EDGE_LOOP('',(#315,#316,#322,#323));
#325=FACE_OUTER_BOUND('',#324,.T.);
#326=ADVANCED_FACE('',(#325),#309,.F.);
#327=CARTESIAN_POINT('',(-1.570000000000001,-3.330669E-016,-1.700000000000001));
#328=DIRECTION('',(1.0,0.0,0.0));
#329=DIRECTION('',(0.0,0.0,1.0));
#330=AXIS2_PLACEMENT_3D('',#327,#328,#329);
#331=PLANE('',#330);
#332=CARTESIAN_POINT('',(-1.570000000000001,-0.32,-3.400000000000001));
#333=DIRECTION('',(0.0,0.0,1.0));
#334=VECTOR('',#333,3.400000000000001);
#335=LINE('',#332,#334);
#336=EDGE_CURVE('',#241,#289,#335,.T.);
#337=ORIENTED_EDGE('',*,*,#336,.T.);
#338=ORIENTED_EDGE('',*,*,#294,.F.);
#339=ORIENTED_EDGE('',*,*,#314,.F.);
#340=ORIENTED_EDGE('',*,*,#254,.F.);
#341=EDGE_LOOP('',(#337,#338,#339,#340));
#342=FACE_OUTER_BOUND('',#341,.T.);
#343=ADVANCED_FACE('',(#342),#331,.F.);
#344=CARTESIAN_POINT('',(-1.25,-0.32,-1.700000000000001));
#345=DIRECTION('',(0.0,1.0,0.0));
#346=DIRECTION('',(0.0,0.0,1.0));
#347=AXIS2_PLACEMENT_3D('',#344,#345,#346);
#348=PLANE('',#347);
#349=CARTESIAN_POINT('',(-0.93,-0.32,-3.400000000000001));
#350=DIRECTION('',(0.0,0.0,1.0));
#351=VECTOR('',#350,3.400000000000001);
#352=LINE('',#349,#351);
#353=EDGE_CURVE('',#233,#271,#352,.T.);
#354=ORIENTED_EDGE('',*,*,#353,.T.);
#355=ORIENTED_EDGE('',*,*,#300,.F.);
#356=ORIENTED_EDGE('',*,*,#336,.F.);
#357=ORIENTED_EDGE('',*,*,#246,.F.);
#358=EDGE_LOOP('',(#354,#355,#356,#357));
#359=FACE_OUTER_BOUND('',#358,.T.);
#360=ADVANCED_FACE('',(#359),#348,.F.);
#361=CARTESIAN_POINT('',(-0.93,-3.330669E-016,-1.700000000000001));
#362=DIRECTION('',(-1.0,0.0,0.0));
#363=DIRECTION('',(0.0,0.0,-1.0));
#364=AXIS2_PLACEMENT_3D('',#361,#362,#363);
#365=PLANE('',#364);
#366=ORIENTED_EDGE('',*,*,#321,.T.);
#367=ORIENTED_EDGE('',*,*,#278,.F.);
#368=ORIENTED_EDGE('',*,*,#353,.F.);
#369=ORIENTED_EDGE('',*,*,#238,.F.);
#370=EDGE_LOOP('',(#366,#367,#368,#369));
#371=FACE_OUTER_BOUND('',#370,.T.);
#372=ADVANCED_FACE('',(#371),#365,.F.);
#373=CLOSED_SHELL('',(#264,#304,#326,#343,#360,#372));
#374=MANIFOLD_SOLID_BREP('2BDD',#373);
#375=STYLED_ITEM('NONE',(#221),#374);
#376=CARTESIAN_POINT('',(1.249999999999999,5.551115E-016,2.3));
#377=DIRECTION('',(0.0,0.0,-1.0));
#378=DIRECTION('',(1.0,0.0,0.0));
#379=AXIS2_PLACEMENT_3D('',#376,#377,#378);
#380=PLANE('',#379);
#381=CARTESIAN_POINT('',(1.57,0.320000000000001,2.3));
#382=VERTEX_POINT('',#381);
#383=CARTESIAN_POINT('',(1.57,-0.319999999999999,2.3));
#384=VERTEX_POINT('',#383);
#385=CARTESIAN_POINT('',(1.57,0.320000000000001,2.3));
#386=DIRECTION('',(0.0,-1.0,0.0));
#387=VECTOR('',#386,0.64);
#388=LINE('',#385,#387);
#389=EDGE_CURVE('',#382,#384,#388,.T.);
#390=ORIENTED_EDGE('',*,*,#389,.T.);
#391=CARTESIAN_POINT('',(0.929999999999998,-0.319999999999999,2.3));
#392=VERTEX_POINT('',#391);
#393=CARTESIAN_POINT('',(1.57,-0.319999999999999,2.3));
#394=DIRECTION('',(-1.0,0.0,0.0));
#395=VECTOR('',#394,0.640000000000002);
#396=LINE('',#393,#395);
#397=EDGE_CURVE('',#384,#392,#396,.T.);
#398=ORIENTED_EDGE('',*,*,#397,.T.);
#399=CARTESIAN_POINT('',(0.929999999999998,0.320000000000001,2.3));
#400=VERTEX_POINT('',#399);
#401=CARTESIAN_POINT('',(0.929999999999998,-0.319999999999999,2.3));
#402=DIRECTION('',(0.0,1.0,0.0));
#403=VECTOR('',#402,0.64);
#404=LINE('',#401,#403);
#405=EDGE_CURVE('',#392,#400,#404,.T.);
#406=ORIENTED_EDGE('',*,*,#405,.T.);
#407=CARTESIAN_POINT('',(0.929999999999998,0.320000000000001,2.3));
#408=DIRECTION('',(1.0,0.0,0.0));
#409=VECTOR('',#408,0.640000000000002);
#410=LINE('',#407,#409);
#411=EDGE_CURVE('',#400,#382,#410,.T.);
#412=ORIENTED_EDGE('',*,*,#411,.T.);
#413=EDGE_LOOP('',(#390,#398,#406,#412));
#414=FACE_OUTER_BOUND('',#413,.T.);
#415=ADVANCED_FACE('',(#414),#380,.T.);
#416=CARTESIAN_POINT('',(1.249999999999999,5.551115E-016,6.8));
#417=DIRECTION('',(0.0,0.0,-1.0));
#418=DIRECTION('',(1.0,0.0,0.0));
#419=AXIS2_PLACEMENT_3D('',#416,#417,#418);
#420=PLANE('',#419);
#421=CARTESIAN_POINT('',(1.57,-0.319999999999999,6.8));
#422=VERTEX_POINT('',#421);
#423=CARTESIAN_POINT('',(1.57,0.320000000000001,6.8));
#424=VERTEX_POINT('',#423);
#425=CARTESIAN_POINT('',(1.57,-0.319999999999999,6.8));
#426=DIRECTION('',(0.0,1.0,0.0));
#427=VECTOR('',#426,0.64);
#428=LINE('',#425,#427);
#429=EDGE_CURVE('',#422,#424,#428,.T.);
#430=ORIENTED_EDGE('',*,*,#429,.T.);
#431=CARTESIAN_POINT('',(0.929999999999998,0.320000000000001,6.8));
#432=VERTEX_POINT('',#431);
#433=CARTESIAN_POINT('',(1.57,0.320000000000001,6.8));
#434=DIRECTION('',(-1.0,0.0,0.0));
#435=VECTOR('',#434,0.640000000000002);
#436=LINE('',#433,#435);
#437=EDGE_CURVE('',#424,#432,#436,.T.);
#438=ORIENTED_EDGE('',*,*,#437,.T.);
#439=CARTESIAN_POINT('',(0.929999999999998,-0.319999999999999,6.8));
#440=VERTEX_POINT('',#439);
#441=CARTESIAN_POINT('',(0.929999999999998,0.320000000000001,6.8));
#442=DIRECTION('',(0.0,-1.0,0.0));
#443=VECTOR('',#442,0.64);
#444=LINE('',#441,#443);
#445=EDGE_CURVE('',#432,#440,#444,.T.);
#446=ORIENTED_EDGE('',*,*,#445,.T.);
#447=CARTESIAN_POINT('',(0.929999999999998,-0.319999999999999,6.8));
#448=DIRECTION('',(1.0,0.0,0.0));
#449=VECTOR('',#448,0.640000000000002);
#450=LINE('',#447,#449);
#451=EDGE_CURVE('',#440,#422,#450,.T.);
#452=ORIENTED_EDGE('',*,*,#451,.T.);
#453=EDGE_LOOP('',(#430,#438,#446,#452));
#454=FACE_OUTER_BOUND('',#453,.T.);
#455=ADVANCED_FACE('',(#454),#420,.F.);
#456=CARTESIAN_POINT('',(1.249999999999999,0.320000000000001,4.55));
#457=DIRECTION('',(0.0,-1.0,0.0));
#458=DIRECTION('',(0.0,0.0,-1.0));
#459=AXIS2_PLACEMENT_3D('',#456,#457,#458);
#460=PLANE('',#459);
#461=CARTESIAN_POINT('',(0.929999999999998,0.320000000000001,2.3));
#462=DIRECTION('',(0.0,0.0,1.0));
#463=VECTOR('',#462,4.5);
#464=LINE('',#461,#463);
#465=EDGE_CURVE('',#400,#432,#464,.T.);
#466=ORIENTED_EDGE('',*,*,#465,.T.);
#467=ORIENTED_EDGE('',*,*,#437,.F.);
#468=CARTESIAN_POINT('',(1.57,0.320000000000001,2.3));
#469=DIRECTION('',(0.0,0.0,1.0));
#470=VECTOR('',#469,4.5);
#471=LINE('',#468,#470);
#472=EDGE_CURVE('',#382,#424,#471,.T.);
#473=ORIENTED_EDGE('',*,*,#472,.F.);
#474=ORIENTED_EDGE('',*,*,#411,.F.);
#475=EDGE_LOOP('',(#466,#467,#473,#474));
#476=FACE_OUTER_BOUND('',#475,.T.);
#477=ADVANCED_FACE('',(#476),#460,.F.);
#478=CARTESIAN_POINT('',(0.929999999999998,5.551115E-016,4.55));
#479=DIRECTION('',(1.0,0.0,0.0));
#480=DIRECTION('',(0.0,0.0,1.0));
#481=AXIS2_PLACEMENT_3D('',#478,#479,#480);
#482=PLANE('',#481);
#483=CARTESIAN_POINT('',(0.929999999999998,-0.319999999999999,2.3));
#484=DIRECTION('',(0.0,0.0,1.0));
#485=VECTOR('',#484,4.5);
#486=LINE('',#483,#485);
#487=EDGE_CURVE('',#392,#440,#486,.T.);
#488=ORIENTED_EDGE('',*,*,#487,.T.);
#489=ORIENTED_EDGE('',*,*,#445,.F.);
#490=ORIENTED_EDGE('',*,*,#465,.F.);
#491=ORIENTED_EDGE('',*,*,#405,.F.);
#492=EDGE_LOOP('',(#488,#489,#490,#491));
#493=FACE_OUTER_BOUND('',#492,.T.);
#494=ADVANCED_FACE('',(#493),#482,.F.);
#495=CARTESIAN_POINT('',(1.249999999999999,-0.319999999999999,4.55));
#496=DIRECTION('',(0.0,1.0,0.0));
#497=DIRECTION('',(0.0,0.0,1.0));
#498=AXIS2_PLACEMENT_3D('',#495,#496,#497);
#499=PLANE('',#498);
#500=CARTESIAN_POINT('',(1.57,-0.319999999999999,2.3));
#501=DIRECTION('',(0.0,0.0,1.0));
#502=VECTOR('',#501,4.5);
#503=LINE('',#500,#502);
#504=EDGE_CURVE('',#384,#422,#503,.T.);
#505=ORIENTED_EDGE('',*,*,#504,.T.);
#506=ORIENTED_EDGE('',*,*,#451,.F.);
#507=ORIENTED_EDGE('',*,*,#487,.F.);
#508=ORIENTED_EDGE('',*,*,#397,.F.);
#509=EDGE_LOOP('',(#505,#506,#507,#508));
#510=FACE_OUTER_BOUND('',#509,.T.);
#511=ADVANCED_FACE('',(#510),#499,.F.);
#512=CARTESIAN_POINT('',(1.57,5.551115E-016,4.55));
#513=DIRECTION('',(-1.0,0.0,0.0));
#514=DIRECTION('',(0.0,0.0,-1.0));
#515=AXIS2_PLACEMENT_3D('',#512,#513,#514);
#516=PLANE('',#515);
#517=ORIENTED_EDGE('',*,*,#472,.T.);
#518=ORIENTED_EDGE('',*,*,#429,.F.);
#519=ORIENTED_EDGE('',*,*,#504,.F.);
#520=ORIENTED_EDGE('',*,*,#389,.F.);
#521=EDGE_LOOP('',(#517,#518,#519,#520));
#522=FACE_OUTER_BOUND('',#521,.T.);
#523=ADVANCED_FACE('',(#522),#516,.F.);
#524=CLOSED_SHELL('',(#415,#455,#477,#494,#511,#523));
#525=MANIFOLD_SOLID_BREP('2BD9',#524);
#526=STYLED_ITEM('NONE',(#221),#525);
#527=CARTESIAN_POINT('',(-1.250000000000002,0.0,2.3));
#528=DIRECTION('',(0.0,0.0,-1.0));
#529=DIRECTION('',(1.0,0.0,0.0));
#530=AXIS2_PLACEMENT_3D('',#527,#528,#529);
#531=PLANE('',#530);
#532=CARTESIAN_POINT('',(-0.930000000000001,0.32,2.3));
#533=VERTEX_POINT('',#532);
#534=CARTESIAN_POINT('',(-0.930000000000001,-0.32,2.3));
#535=VERTEX_POINT('',#534);
#536=CARTESIAN_POINT('',(-0.930000000000001,0.32,2.3));
#537=DIRECTION('',(0.0,-1.0,0.0));
#538=VECTOR('',#537,0.64);
#539=LINE('',#536,#538);
#540=EDGE_CURVE('',#533,#535,#539,.T.);
#541=ORIENTED_EDGE('',*,*,#540,.T.);
#542=CARTESIAN_POINT('',(-1.570000000000003,-0.32,2.3));
#543=VERTEX_POINT('',#542);
#544=CARTESIAN_POINT('',(-0.930000000000001,-0.32,2.3));
#545=DIRECTION('',(-1.0,0.0,0.0));
#546=VECTOR('',#545,0.640000000000002);
#547=LINE('',#544,#546);
#548=EDGE_CURVE('',#535,#543,#547,.T.);
#549=ORIENTED_EDGE('',*,*,#548,.T.);
#550=CARTESIAN_POINT('',(-1.570000000000003,0.32,2.3));
#551=VERTEX_POINT('',#550);
#552=CARTESIAN_POINT('',(-1.570000000000003,-0.32,2.3));
#553=DIRECTION('',(0.0,1.0,0.0));
#554=VECTOR('',#553,0.64);
#555=LINE('',#552,#554);
#556=EDGE_CURVE('',#543,#551,#555,.T.);
#557=ORIENTED_EDGE('',*,*,#556,.T.);
#558=CARTESIAN_POINT('',(-1.570000000000003,0.32,2.3));
#559=DIRECTION('',(1.0,0.0,0.0));
#560=VECTOR('',#559,0.640000000000002);
#561=LINE('',#558,#560);
#562=EDGE_CURVE('',#551,#533,#561,.T.);
#563=ORIENTED_EDGE('',*,*,#562,.T.);
#564=EDGE_LOOP('',(#541,#549,#557,#563));
#565=FACE_OUTER_BOUND('',#564,.T.);
#566=ADVANCED_FACE('',(#565),#531,.T.);
#567=CARTESIAN_POINT('',(-1.250000000000002,0.0,6.8));
#568=DIRECTION('',(0.0,0.0,-1.0));
#569=DIRECTION('',(1.0,0.0,0.0));
#570=AXIS2_PLACEMENT_3D('',#567,#568,#569);
#571=PLANE('',#570);
#572=CARTESIAN_POINT('',(-0.930000000000001,-0.32,6.8));
#573=VERTEX_POINT('',#572);
#574=CARTESIAN_POINT('',(-0.930000000000001,0.32,6.8));
#575=VERTEX_POINT('',#574);
#576=CARTESIAN_POINT('',(-0.930000000000001,-0.32,6.8));
#577=DIRECTION('',(0.0,1.0,0.0));
#578=VECTOR('',#577,0.64);
#579=LINE('',#576,#578);
#580=EDGE_CURVE('',#573,#575,#579,.T.);
#581=ORIENTED_EDGE('',*,*,#580,.T.);
#582=CARTESIAN_POINT('',(-1.570000000000003,0.32,6.8));
#583=VERTEX_POINT('',#582);
#584=CARTESIAN_POINT('',(-0.930000000000001,0.32,6.8));
#585=DIRECTION('',(-1.0,0.0,0.0));
#586=VECTOR('',#585,0.640000000000002);
#587=LINE('',#584,#586);
#588=EDGE_CURVE('',#575,#583,#587,.T.);
#589=ORIENTED_EDGE('',*,*,#588,.T.);
#590=CARTESIAN_POINT('',(-1.570000000000003,-0.32,6.8));
#591=VERTEX_POINT('',#590);
#592=CARTESIAN_POINT('',(-1.570000000000003,0.32,6.8));
#593=DIRECTION('',(0.0,-1.0,0.0));
#594=VECTOR('',#593,0.64);
#595=LINE('',#592,#594);
#596=EDGE_CURVE('',#583,#591,#595,.T.);
#597=ORIENTED_EDGE('',*,*,#596,.T.);
#598=CARTESIAN_POINT('',(-1.570000000000003,-0.32,6.8));
#599=DIRECTION('',(1.0,0.0,0.0));
#600=VECTOR('',#599,0.640000000000002);
#601=LINE('',#598,#600);
#602=EDGE_CURVE('',#591,#573,#601,.T.);
#603=ORIENTED_EDGE('',*,*,#602,.T.);
#604=EDGE_LOOP('',(#581,#589,#597,#603));
#605=FACE_OUTER_BOUND('',#604,.T.);
#606=ADVANCED_FACE('',(#605),#571,.F.);
#607=CARTESIAN_POINT('',(-1.250000000000002,0.32,4.55));
#608=DIRECTION('',(0.0,-1.0,0.0));
#609=DIRECTION('',(0.0,0.0,-1.0));
#610=AXIS2_PLACEMENT_3D('',#607,#608,#609);
#611=PLANE('',#610);
#612=CARTESIAN_POINT('',(-1.570000000000003,0.32,2.3));
#613=DIRECTION('',(0.0,0.0,1.0));
#614=VECTOR('',#613,4.5);
#615=LINE('',#612,#614);
#616=EDGE_CURVE('',#551,#583,#615,.T.);
#617=ORIENTED_EDGE('',*,*,#616,.T.);
#618=ORIENTED_EDGE('',*,*,#588,.F.);
#619=CARTESIAN_POINT('',(-0.930000000000001,0.32,2.3));
#620=DIRECTION('',(0.0,0.0,1.0));
#621=VECTOR('',#620,4.5);
#622=LINE('',#619,#621);
#623=EDGE_CURVE('',#533,#575,#622,.T.);
#624=ORIENTED_EDGE('',*,*,#623,.F.);
#625=ORIENTED_EDGE('',*,*,#562,.F.);
#626=EDGE_LOOP('',(#617,#618,#624,#625));
#627=FACE_OUTER_BOUND('',#626,.T.);
#628=ADVANCED_FACE('',(#627),#611,.F.);
#629=CARTESIAN_POINT('',(-1.570000000000003,0.0,4.55));
#630=DIRECTION('',(1.0,0.0,0.0));
#631=DIRECTION('',(0.0,0.0,1.0));
#632=AXIS2_PLACEMENT_3D('',#629,#630,#631);
#633=PLANE('',#632);
#634=CARTESIAN_POINT('',(-1.570000000000003,-0.32,2.3));
#635=DIRECTION('',(0.0,0.0,1.0));
#636=VECTOR('',#635,4.5);
#637=LINE('',#634,#636);
#638=EDGE_CURVE('',#543,#591,#637,.T.);
#639=ORIENTED_EDGE('',*,*,#638,.T.);
#640=ORIENTED_EDGE('',*,*,#596,.F.);
#641=ORIENTED_EDGE('',*,*,#616,.F.);
#642=ORIENTED_EDGE('',*,*,#556,.F.);
#643=EDGE_LOOP('',(#639,#640,#641,#642));
#644=FACE_OUTER_BOUND('',#643,.T.);
#645=ADVANCED_FACE('',(#644),#633,.F.);
#646=CARTESIAN_POINT('',(-1.250000000000002,-0.32,4.55));
#647=DIRECTION('',(0.0,1.0,0.0));
#648=DIRECTION('',(0.0,0.0,1.0));
#649=AXIS2_PLACEMENT_3D('',#646,#647,#648);
#650=PLANE('',#649);
#651=CARTESIAN_POINT('',(-0.930000000000001,-0.32,2.3));
#652=DIRECTION('',(0.0,0.0,1.0));
#653=VECTOR('',#652,4.5);
#654=LINE('',#651,#653);
#655=EDGE_CURVE('',#535,#573,#654,.T.);
#656=ORIENTED_EDGE('',*,*,#655,.T.);
#657=ORIENTED_EDGE('',*,*,#602,.F.);
#658=ORIENTED_EDGE('',*,*,#638,.F.);
#659=ORIENTED_EDGE('',*,*,#548,.F.);
#660=EDGE_LOOP('',(#656,#657,#658,#659));
#661=FACE_OUTER_BOUND('',#660,.T.);
#662=ADVANCED_FACE('',(#661),#650,.F.);
#663=CARTESIAN_POINT('',(-0.930000000000001,0.0,4.55));
#664=DIRECTION('',(-1.0,0.0,0.0));
#665=DIRECTION('',(0.0,0.0,-1.0));
#666=AXIS2_PLACEMENT_3D('',#663,#664,#665);
#667=PLANE('',#666);
#668=ORIENTED_EDGE('',*,*,#623,.T.);
#669=ORIENTED_EDGE('',*,*,#580,.F.);
#670=ORIENTED_EDGE('',*,*,#655,.F.);
#671=ORIENTED_EDGE('',*,*,#540,.F.);
#672=EDGE_LOOP('',(#668,#669,#670,#671));
#673=FACE_OUTER_BOUND('',#672,.T.);
#674=ADVANCED_FACE('',(#673),#667,.F.);
#675=CLOSED_SHELL('',(#566,#606,#628,#645,#662,#674));
#676=MANIFOLD_SOLID_BREP('2BD5',#675);
#677=STYLED_ITEM('NONE',(#221),#676);
#678=CARTESIAN_POINT('',(-4.070000000000002,3.6625,-9.653547E-016));
#679=DIRECTION('',(0.0,0.0,1.0));
#680=DIRECTION('',(0.0,-1.0,0.0));
#681=AXIS2_PLACEMENT_3D('',#678,#679,#680);
#682=PLANE('',#681);
#683=CARTESIAN_POINT('',(-3.7,-2.375000000000001,-5.135079E-016));
#684=VERTEX_POINT('',#683);
#685=CARTESIAN_POINT('',(-3.700000000000001,3.375,-8.655939E-016));
#686=VERTEX_POINT('',#685);
#687=CARTESIAN_POINT('',(-3.7,-2.375000000000001,-5.135079E-016));
#688=DIRECTION('',(0.0,1.0,0.0));
#689=VECTOR('',#688,5.750000000000001);
#690=LINE('',#687,#689);
#691=EDGE_CURVE('',#684,#686,#690,.T.);
#692=ORIENTED_EDGE('',*,*,#691,.T.);
#693=CARTESIAN_POINT('',(3.699999999999999,3.375000000000002,7.775362E-016));
#694=VERTEX_POINT('',#693);
#695=CARTESIAN_POINT('',(3.699999999999999,3.375000000000002,7.775362E-016));
#696=DIRECTION('',(-1.0,0.0,0.0));
#697=VECTOR('',#696,7.4);
#698=LINE('',#695,#697);
#699=EDGE_CURVE('',#694,#686,#698,.T.);
#700=ORIENTED_EDGE('',*,*,#699,.F.);
#701=CARTESIAN_POINT('',(3.7,-2.374999999999999,1.129622E-015));
#702=VERTEX_POINT('',#701);
#703=CARTESIAN_POINT('',(3.7,-2.374999999999999,1.129622E-015));
#704=DIRECTION('',(0.0,1.0,0.0));
#705=VECTOR('',#704,5.750000000000001);
#706=LINE('',#703,#705);
#707=EDGE_CURVE('',#702,#694,#706,.T.);
#708=ORIENTED_EDGE('',*,*,#707,.F.);
#709=CARTESIAN_POINT('',(3.7,-2.374999999999999,1.129622E-015));
#710=DIRECTION('',(-1.0,0.0,0.0));
#711=VECTOR('',#710,7.4);
#712=LINE('',#709,#711);
#713=EDGE_CURVE('',#702,#684,#712,.T.);
#714=ORIENTED_EDGE('',*,*,#713,.T.);
#715=EDGE_LOOP('',(#692,#700,#708,#714));
#716=FACE_OUTER_BOUND('',#715,.T.);
#717=ADVANCED_FACE('',(#716),#682,.F.);
#718=CARTESIAN_POINT('',(-4.070000000000002,3.375,-0.350000000000001));
#719=DIRECTION('',(0.0,-1.0,0.0));
#720=DIRECTION('',(1.0,0.0,0.0));
#721=AXIS2_PLACEMENT_3D('',#718,#719,#720);
#722=PLANE('',#721);
#723=CARTESIAN_POINT('',(-3.700000000000003,3.375,6.999999999999999));
#724=VERTEX_POINT('',#723);
#725=CARTESIAN_POINT('',(-3.700000000000001,3.375,-8.655939E-016));
#726=DIRECTION('',(0.0,0.0,1.0));
#727=VECTOR('',#726,7.0);
#728=LINE('',#725,#727);
#729=EDGE_CURVE('',#686,#724,#728,.T.);
#730=ORIENTED_EDGE('',*,*,#729,.T.);
#731=CARTESIAN_POINT('',(3.699999999999998,3.375000000000002,7.000000000000001));
#732=VERTEX_POINT('',#731);
#733=CARTESIAN_POINT('',(3.699999999999998,3.375000000000002,7.000000000000001));
#734=DIRECTION('',(-1.0,0.0,0.0));
#735=VECTOR('',#734,7.4);
#736=LINE('',#733,#735);
#737=EDGE_CURVE('',#732,#724,#736,.T.);
#738=ORIENTED_EDGE('',*,*,#737,.F.);
#739=CARTESIAN_POINT('',(3.699999999999999,3.375000000000002,7.775362E-016));
#740=DIRECTION('',(0.0,0.0,1.0));
#741=VECTOR('',#740,7.0);
#742=LINE('',#739,#741);
#743=EDGE_CURVE('',#694,#732,#742,.T.);
#744=ORIENTED_EDGE('',*,*,#743,.F.);
#745=ORIENTED_EDGE('',*,*,#699,.T.);
#746=EDGE_LOOP('',(#730,#738,#744,#745));
#747=FACE_OUTER_BOUND('',#746,.T.);
#748=ADVANCED_FACE('',(#747),#722,.F.);
#749=CARTESIAN_POINT('',(3.699999999999999,3.662500000000001,-0.349999999999999));
#750=DIRECTION('',(-1.0,0.0,0.0));
#751=DIRECTION('',(0.0,-1.0,0.0));
#752=AXIS2_PLACEMENT_3D('',#749,#750,#751);
#753=PLANE('',#752);
#754=CARTESIAN_POINT('',(3.699999999999998,-2.374999999999999,7.000000000000001));
#755=VERTEX_POINT('',#754);
#756=CARTESIAN_POINT('',(3.699999999999998,-2.374999999999999,7.000000000000001));
#757=DIRECTION('',(0.0,0.0,-1.0));
#758=VECTOR('',#757,7.0);
#759=LINE('',#756,#758);
#760=EDGE_CURVE('',#755,#702,#759,.T.);
#761=ORIENTED_EDGE('',*,*,#760,.T.);
#762=ORIENTED_EDGE('',*,*,#707,.T.);
#763=ORIENTED_EDGE('',*,*,#743,.T.);
#764=CARTESIAN_POINT('',(3.699999999999999,-0.549999999999999,6.999999999999998));
#765=VERTEX_POINT('',#764);
#766=CARTESIAN_POINT('',(3.699999999999998,3.375000000000002,6.999999999999998));
#767=DIRECTION('',(0.0,-1.0,0.0));
#768=VECTOR('',#767,3.925000000000001);
#769=LINE('',#766,#768);
#770=EDGE_CURVE('',#732,#765,#769,.T.);
#771=ORIENTED_EDGE('',*,*,#770,.T.);
#772=CARTESIAN_POINT('',(3.699999999999999,-0.549999999999999,3.900000000000001));
#773=VERTEX_POINT('',#772);
#774=CARTESIAN_POINT('',(3.699999999999999,-0.549999999999999,6.999999999999998));
#775=DIRECTION('',(0.0,0.0,-1.0));
#776=VECTOR('',#775,3.099999999999997);
#777=LINE('',#774,#776);
#778=EDGE_CURVE('',#765,#773,#777,.T.);
#779=ORIENTED_EDGE('',*,*,#778,.T.);
#780=CARTESIAN_POINT('',(3.699999999999999,-1.549999999999999,3.900000000000001));
#781=VERTEX_POINT('',#780);
#782=CARTESIAN_POINT('',(3.699999999999999,-0.549999999999999,3.900000000000001));
#783=DIRECTION('',(0.0,-1.0,0.0));
#784=VECTOR('',#783,1.0);
#785=LINE('',#782,#784);
#786=EDGE_CURVE('',#773,#781,#785,.T.);
#787=ORIENTED_EDGE('',*,*,#786,.T.);
#788=CARTESIAN_POINT('',(3.699999999999998,-1.55,7.000000000000001));
#789=VERTEX_POINT('',#788);
#790=CARTESIAN_POINT('',(3.699999999999999,-1.55,3.900000000000001));
#791=DIRECTION('',(0.0,0.0,1.0));
#792=VECTOR('',#791,3.1);
#793=LINE('',#790,#792);
#794=EDGE_CURVE('',#781,#789,#793,.T.);
#795=ORIENTED_EDGE('',*,*,#794,.T.);
#796=CARTESIAN_POINT('',(3.699999999999998,-1.55,7.000000000000001));
#797=DIRECTION('',(0.0,-1.0,0.0));
#798=VECTOR('',#797,0.825);
#799=LINE('',#796,#798);
#800=EDGE_CURVE('',#789,#755,#799,.T.);
#801=ORIENTED_EDGE('',*,*,#800,.T.);
#802=EDGE_LOOP('',(#761,#762,#763,#771,#779,#787,#795,#801));
#803=FACE_OUTER_BOUND('',#802,.T.);
#804=ADVANCED_FACE('',(#803),#753,.F.);
#805=CARTESIAN_POINT('',(4.07,-2.374999999999999,-0.349999999999999));
#806=DIRECTION('',(0.0,1.0,0.0));
#807=DIRECTION('',(-1.0,0.0,0.0));
#808=AXIS2_PLACEMENT_3D('',#805,#806,#807);
#809=PLANE('',#808);
#810=CARTESIAN_POINT('',(-1.750000000000001,-2.375,3.299999999999999));
#811=VERTEX_POINT('',#810);
#812=CARTESIAN_POINT('',(1.75,-2.375,3.3));
#813=VERTEX_POINT('',#812);
#814=CARTESIAN_POINT('',(-1.750000000000001,-2.375,3.299999999999999));
#815=DIRECTION('',(1.0,0.0,0.0));
#816=VECTOR('',#815,3.500000000000001);
#817=LINE('',#814,#816);
#818=EDGE_CURVE('',#811,#813,#817,.T.);
#819=ORIENTED_EDGE('',*,*,#818,.F.);
#820=CARTESIAN_POINT('',(-1.750000000000002,-2.375,7.0));
#821=VERTEX_POINT('',#820);
#822=CARTESIAN_POINT('',(-1.750000000000002,-2.375,7.0));
#823=DIRECTION('',(0.0,0.0,-1.0));
#824=VECTOR('',#823,3.7);
#825=LINE('',#822,#824);
#826=EDGE_CURVE('',#821,#811,#825,.T.);
#827=ORIENTED_EDGE('',*,*,#826,.F.);
#828=CARTESIAN_POINT('',(-3.700000000000002,-2.375,6.999999999999999));
#829=VERTEX_POINT('',#828);
#830=CARTESIAN_POINT('',(-1.750000000000002,-2.375,7.0));
#831=DIRECTION('',(-1.0,0.0,0.0));
#832=VECTOR('',#831,1.95);
#833=LINE('',#830,#832);
#834=EDGE_CURVE('',#821,#829,#833,.T.);
#835=ORIENTED_EDGE('',*,*,#834,.T.);
#836=CARTESIAN_POINT('',(-3.700000000000002,-2.375,6.999999999999999));
#837=DIRECTION('',(0.0,0.0,-1.0));
#838=VECTOR('',#837,7.0);
#839=LINE('',#836,#838);
#840=EDGE_CURVE('',#829,#684,#839,.T.);
#841=ORIENTED_EDGE('',*,*,#840,.T.);
#842=ORIENTED_EDGE('',*,*,#713,.F.);
#843=ORIENTED_EDGE('',*,*,#760,.F.);
#844=CARTESIAN_POINT('',(1.749999999999999,-2.374999999999999,7.0));
#845=VERTEX_POINT('',#844);
#846=CARTESIAN_POINT('',(3.699999999999998,-2.374999999999999,7.000000000000001));
#847=DIRECTION('',(-1.0,0.0,0.0));
#848=VECTOR('',#847,1.95);
#849=LINE('',#846,#848);
#850=EDGE_CURVE('',#755,#845,#849,.T.);
#851=ORIENTED_EDGE('',*,*,#850,.T.);
#852=CARTESIAN_POINT('',(1.749999999999999,-2.375,3.3));
#853=DIRECTION('',(0.0,0.0,1.0));
#854=VECTOR('',#853,3.7);
#855=LINE('',#852,#854);
#856=EDGE_CURVE('',#813,#845,#855,.T.);
#857=ORIENTED_EDGE('',*,*,#856,.F.);
#858=EDGE_LOOP('',(#819,#827,#835,#841,#842,#843,#851,#857));
#859=FACE_OUTER_BOUND('',#858,.T.);
#860=ADVANCED_FACE('',(#859),#809,.F.);
#861=CARTESIAN_POINT('',(-3.700000000000002,3.6625,-0.350000000000001));
#862=DIRECTION('',(-1.0,0.0,0.0));
#863=DIRECTION('',(0.0,-1.0,0.0));
#864=AXIS2_PLACEMENT_3D('',#861,#862,#863);
#865=PLANE('',#864);
#866=ORIENTED_EDGE('',*,*,#840,.F.);
#867=CARTESIAN_POINT('',(-3.700000000000002,-1.550000000000001,6.999999999999999));
#868=VERTEX_POINT('',#867);
#869=CARTESIAN_POINT('',(-3.700000000000002,-1.550000000000001,6.999999999999999));
#870=DIRECTION('',(0.0,-1.0,0.0));
#871=VECTOR('',#870,0.825);
#872=LINE('',#869,#871);
#873=EDGE_CURVE('',#868,#829,#872,.T.);
#874=ORIENTED_EDGE('',*,*,#873,.F.);
#875=CARTESIAN_POINT('',(-3.700000000000001,-1.550000000000001,3.899999999999999));
#876=VERTEX_POINT('',#875);
#877=CARTESIAN_POINT('',(-3.700000000000001,-1.550000000000001,3.899999999999999));
#878=DIRECTION('',(0.0,0.0,1.0));
#879=VECTOR('',#878,3.1);
#880=LINE('',#877,#879);
#881=EDGE_CURVE('',#876,#868,#880,.T.);
#882=ORIENTED_EDGE('',*,*,#881,.F.);
#883=CARTESIAN_POINT('',(-3.700000000000001,-0.550000000000001,3.899999999999999));
#884=VERTEX_POINT('',#883);
#885=CARTESIAN_POINT('',(-3.700000000000001,-0.550000000000001,3.899999999999999));
#886=DIRECTION('',(0.0,-1.0,0.0));
#887=VECTOR('',#886,1.0);
#888=LINE('',#885,#887);
#889=EDGE_CURVE('',#884,#876,#888,.T.);
#890=ORIENTED_EDGE('',*,*,#889,.F.);
#891=CARTESIAN_POINT('',(-3.700000000000002,-0.550000000000001,6.999999999999996));
#892=VERTEX_POINT('',#891);
#893=CARTESIAN_POINT('',(-3.700000000000002,-0.550000000000001,6.999999999999996));
#894=DIRECTION('',(0.0,0.0,-1.0));
#895=VECTOR('',#894,3.099999999999997);
#896=LINE('',#893,#895);
#897=EDGE_CURVE('',#892,#884,#896,.T.);
#898=ORIENTED_EDGE('',*,*,#897,.F.);
#899=CARTESIAN_POINT('',(-3.700000000000002,3.375,6.999999999999996));
#900=DIRECTION('',(0.0,-1.0,0.0));
#901=VECTOR('',#900,3.925000000000001);
#902=LINE('',#899,#901);
#903=EDGE_CURVE('',#724,#892,#902,.T.);
#904=ORIENTED_EDGE('',*,*,#903,.F.);
#905=ORIENTED_EDGE('',*,*,#729,.F.);
#906=ORIENTED_EDGE('',*,*,#691,.F.);
#907=EDGE_LOOP('',(#866,#874,#882,#890,#898,#904,#905,#906));
#908=FACE_OUTER_BOUND('',#907,.T.);
#909=ADVANCED_FACE('',(#908),#865,.T.);
#910=CARTESIAN_POINT('',(-4.070000000000002,-0.746250000000001,6.999999999999996));
#911=DIRECTION('',(0.0,0.0,-1.0));
#912=DIRECTION('',(0.0,1.0,0.0));
#913=AXIS2_PLACEMENT_3D('',#910,#911,#912);
#914=PLANE('',#913);
#915=CARTESIAN_POINT('',(-2.850000000000001,-0.55,6.999999999999996));
#916=VERTEX_POINT('',#915);
#917=CARTESIAN_POINT('',(-2.850000000000001,-0.55,6.999999999999996));
#918=DIRECTION('',(-1.0,0.0,0.0));
#919=VECTOR('',#918,0.85);
#920=LINE('',#917,#919);
#921=EDGE_CURVE('',#916,#892,#920,.T.);
#922=ORIENTED_EDGE('',*,*,#921,.F.);
#923=CARTESIAN_POINT('',(-2.850000000000003,2.55,6.999999999999996));
#924=VERTEX_POINT('',#923);
#925=CARTESIAN_POINT('',(-2.850000000000002,2.55,6.999999999999996));
#926=DIRECTION('',(0.0,-1.0,0.0));
#927=VECTOR('',#926,3.1);
#928=LINE('',#925,#927);
#929=EDGE_CURVE('',#924,#916,#928,.T.);
#930=ORIENTED_EDGE('',*,*,#929,.F.);
#931=CARTESIAN_POINT('',(2.849999999999998,2.550000000000002,6.999999999999998));
#932=VERTEX_POINT('',#931);
#933=CARTESIAN_POINT('',(2.849999999999998,2.550000000000001,6.999999999999998));
#934=DIRECTION('',(-1.0,0.0,0.0));
#935=VECTOR('',#934,5.700000000000001);
#936=LINE('',#933,#935);
#937=EDGE_CURVE('',#932,#924,#936,.T.);
#938=ORIENTED_EDGE('',*,*,#937,.F.);
#939=CARTESIAN_POINT('',(2.849999999999999,-0.549999999999999,6.999999999999998));
#940=VERTEX_POINT('',#939);
#941=CARTESIAN_POINT('',(2.849999999999999,-0.549999999999999,6.999999999999998));
#942=DIRECTION('',(0.0,1.0,0.0));
#943=VECTOR('',#942,3.100000000000001);
#944=LINE('',#941,#943);
#945=EDGE_CURVE('',#940,#932,#944,.T.);
#946=ORIENTED_EDGE('',*,*,#945,.F.);
#947=CARTESIAN_POINT('',(3.699999999999999,-0.549999999999999,6.999999999999998));
#948=DIRECTION('',(-1.0,0.0,0.0));
#949=VECTOR('',#948,0.85);
#950=LINE('',#947,#949);
#951=EDGE_CURVE('',#765,#940,#950,.T.);
#952=ORIENTED_EDGE('',*,*,#951,.F.);
#953=ORIENTED_EDGE('',*,*,#770,.F.);
#954=ORIENTED_EDGE('',*,*,#737,.T.);
#955=ORIENTED_EDGE('',*,*,#903,.T.);
#956=EDGE_LOOP('',(#922,#930,#938,#946,#952,#953,#954,#955));
#957=FACE_OUTER_BOUND('',#956,.T.);
#958=ADVANCED_FACE('',(#957),#914,.F.);
#959=CARTESIAN_POINT('',(3.742499999999999,-0.549999999999999,3.745000000000001));
#960=DIRECTION('',(0.0,1.0,0.0));
#961=DIRECTION('',(-1.0,0.0,0.0));
#962=AXIS2_PLACEMENT_3D('',#959,#960,#961);
#963=PLANE('',#962);
#964=ORIENTED_EDGE('',*,*,#951,.T.);
#965=CARTESIAN_POINT('',(2.849999999999999,-0.549999999999999,3.9));
#966=VERTEX_POINT('',#965);
#967=CARTESIAN_POINT('',(2.849999999999999,-0.549999999999999,6.999999999999998));
#968=DIRECTION('',(0.0,0.0,-1.0));
#969=VECTOR('',#968,3.099999999999997);
#970=LINE('',#967,#969);
#971=EDGE_CURVE('',#940,#966,#970,.T.);
#972=ORIENTED_EDGE('',*,*,#971,.T.);
#973=CARTESIAN_POINT('',(3.699999999999999,-0.549999999999999,3.900000000000001));
#974=DIRECTION('',(-1.0,0.0,0.0));
#975=VECTOR('',#974,0.85);
#976=LINE('',#973,#975);
#977=EDGE_CURVE('',#773,#966,#976,.T.);
#978=ORIENTED_EDGE('',*,*,#977,.F.);
#979=ORIENTED_EDGE('',*,*,#778,.F.);
#980=EDGE_LOOP('',(#964,#972,#978,#979));
#981=FACE_OUTER_BOUND('',#980,.T.);
#982=ADVANCED_FACE('',(#981),#963,.F.);
#983=CARTESIAN_POINT('',(1.652499999999998,-2.416249999999999,7.0));
#984=DIRECTION('',(0.0,0.0,-1.0));
#985=DIRECTION('',(0.0,1.0,0.0));
#986=AXIS2_PLACEMENT_3D('',#983,#984,#985);
#987=PLANE('',#986);
#988=CARTESIAN_POINT('',(1.749999999999998,-1.55,7.0));
#989=VERTEX_POINT('',#988);
#990=CARTESIAN_POINT('',(3.699999999999998,-1.55,7.000000000000001));
#991=DIRECTION('',(-1.0,0.0,0.0));
#992=VECTOR('',#991,1.950000000000001);
#993=LINE('',#990,#992);
#994=EDGE_CURVE('',#789,#989,#993,.T.);
#995=ORIENTED_EDGE('',*,*,#994,.T.);
#996=CARTESIAN_POINT('',(1.749999999999998,-1.55,7.0));
#997=DIRECTION('',(0.0,-1.0,0.0));
#998=VECTOR('',#997,0.824999999999999);
#999=LINE('',#996,#998);
#1000=EDGE_CURVE('',#989,#845,#999,.T.);
#1001=ORIENTED_EDGE('',*,*,#1000,.T.);
#1002=ORIENTED_EDGE('',*,*,#850,.F.);
#1003=ORIENTED_EDGE('',*,*,#800,.F.);
#1004=EDGE_LOOP('',(#995,#1001,#1002,#1003));
#1005=FACE_OUTER_BOUND('',#1004,.T.);
#1006=ADVANCED_FACE('',(#1005),#987,.F.);
#1007=CARTESIAN_POINT('',(2.807499999999999,-1.599999999999999,3.9));
#1008=DIRECTION('',(0.0,0.0,-1.0));
#1009=DIRECTION('',(0.0,1.0,0.0));
#1010=AXIS2_PLACEMENT_3D('',#1007,#1008,#1009);
#1011=PLANE('',#1010);
#1012=ORIENTED_EDGE('',*,*,#977,.T.);
#1013=CARTESIAN_POINT('',(2.849999999999999,-1.549999999999999,3.9));
#1014=VERTEX_POINT('',#1013);
#1015=CARTESIAN_POINT('',(2.849999999999999,-0.549999999999999,3.9));
#1016=DIRECTION('',(0.0,-1.0,0.0));
#1017=VECTOR('',#1016,0.999999999999999);
#1018=LINE('',#1015,#1017);
#1019=EDGE_CURVE('',#966,#1014,#1018,.T.);
#1020=ORIENTED_EDGE('',*,*,#1019,.T.);
#1021=CARTESIAN_POINT('',(3.699999999999999,-1.549999999999999,3.900000000000001));
#1022=DIRECTION('',(-1.0,0.0,0.0));
#1023=VECTOR('',#1022,0.85);
#1024=LINE('',#1021,#1023);
#1025=EDGE_CURVE('',#781,#1014,#1024,.T.);
#1026=ORIENTED_EDGE('',*,*,#1025,.F.);
#1027=ORIENTED_EDGE('',*,*,#786,.F.);
#1028=EDGE_LOOP('',(#1012,#1020,#1026,#1027));
#1029=FACE_OUTER_BOUND('',#1028,.T.);
#1030=ADVANCED_FACE('',(#1029),#1011,.F.);
#1031=CARTESIAN_POINT('',(-4.070000000000002,-1.550000000000001,7.234999999999999));
#1032=DIRECTION('',(0.0,-1.0,0.0));
#1033=DIRECTION('',(1.0,0.0,0.0));
#1034=AXIS2_PLACEMENT_3D('',#1031,#1032,#1033);
#1035=PLANE('',#1034);
#1036=CARTESIAN_POINT('',(-1.750000000000002,-1.550000000000001,7.0));
#1037=VERTEX_POINT('',#1036);
#1038=CARTESIAN_POINT('',(-1.750000000000002,-1.550000000000001,7.0));
#1039=DIRECTION('',(-1.0,0.0,0.0));
#1040=VECTOR('',#1039,1.95);
#1041=LINE('',#1038,#1040);
#1042=EDGE_CURVE('',#1037,#868,#1041,.T.);
#1043=ORIENTED_EDGE('',*,*,#1042,.F.);
#1044=CARTESIAN_POINT('',(-1.750000000000001,-1.550000000000001,3.299999999999999));
#1045=VERTEX_POINT('',#1044);
#1046=CARTESIAN_POINT('',(-1.750000000000001,-1.550000000000001,3.299999999999999));
#1047=DIRECTION('',(0.0,0.0,1.0));
#1048=VECTOR('',#1047,3.700000000000001);
#1049=LINE('',#1046,#1048);
#1050=EDGE_CURVE('',#1045,#1037,#1049,.T.);
#1051=ORIENTED_EDGE('',*,*,#1050,.F.);
#1052=CARTESIAN_POINT('',(1.749999999999999,-1.550000000000001,3.3));
#1053=VERTEX_POINT('',#1052);
#1054=CARTESIAN_POINT('',(1.749999999999999,-1.550000000000001,3.3));
#1055=DIRECTION('',(-1.0,0.0,0.0));
#1056=VECTOR('',#1055,3.500000000000001);
#1057=LINE('',#1054,#1056);
#1058=EDGE_CURVE('',#1053,#1045,#1057,.T.);
#1059=ORIENTED_EDGE('',*,*,#1058,.F.);
#1060=CARTESIAN_POINT('',(1.749999999999998,-1.55,7.0));
#1061=DIRECTION('',(0.0,0.0,-1.0));
#1062=VECTOR('',#1061,3.7);
#1063=LINE('',#1060,#1062);
#1064=EDGE_CURVE('',#989,#1053,#1063,.T.);
#1065=ORIENTED_EDGE('',*,*,#1064,.F.);
#1066=ORIENTED_EDGE('',*,*,#994,.F.);
#1067=ORIENTED_EDGE('',*,*,#794,.F.);
#1068=ORIENTED_EDGE('',*,*,#1025,.T.);
#1069=CARTESIAN_POINT('',(2.85,-1.549999999999999,2.3));
#1070=VERTEX_POINT('',#1069);
#1071=CARTESIAN_POINT('',(2.85,-1.549999999999999,2.3));
#1072=DIRECTION('',(0.0,0.0,1.0));
#1073=VECTOR('',#1072,1.600000000000001);
#1074=LINE('',#1071,#1073);
#1075=EDGE_CURVE('',#1070,#1014,#1074,.T.);
#1076=ORIENTED_EDGE('',*,*,#1075,.F.);
#1077=CARTESIAN_POINT('',(-2.850000000000001,-1.550000000000001,2.299999999999999));
#1078=VERTEX_POINT('',#1077);
#1079=CARTESIAN_POINT('',(-2.850000000000001,-1.550000000000001,2.299999999999999));
#1080=DIRECTION('',(1.0,0.0,0.0));
#1081=VECTOR('',#1080,5.7);
#1082=LINE('',#1079,#1081);
#1083=EDGE_CURVE('',#1078,#1070,#1082,.T.);
#1084=ORIENTED_EDGE('',*,*,#1083,.F.);
#1085=CARTESIAN_POINT('',(-2.850000000000001,-1.550000000000001,3.9));
#1086=VERTEX_POINT('',#1085);
#1087=CARTESIAN_POINT('',(-2.850000000000001,-1.550000000000001,2.299999999999999));
#1088=DIRECTION('',(0.0,0.0,1.0));
#1089=VECTOR('',#1088,1.600000000000001);
#1090=LINE('',#1087,#1089);
#1091=EDGE_CURVE('',#1078,#1086,#1090,.T.);
#1092=ORIENTED_EDGE('',*,*,#1091,.T.);
#1093=CARTESIAN_POINT('',(-2.850000000000001,-1.550000000000001,3.9));
#1094=DIRECTION('',(-1.0,0.0,0.0));
#1095=VECTOR('',#1094,0.85);
#1096=LINE('',#1093,#1095);
#1097=EDGE_CURVE('',#1086,#876,#1096,.T.);
#1098=ORIENTED_EDGE('',*,*,#1097,.T.);
#1099=ORIENTED_EDGE('',*,*,#881,.T.);
#1100=EDGE_LOOP('',(#1043,#1051,#1059,#1065,#1066,#1067,#1068,#1076,#1084,#1092,#1098,#1099));
#1101=FACE_OUTER_BOUND('',#1100,.T.);
#1102=ADVANCED_FACE('',(#1101),#1035,.F.);
#1103=CARTESIAN_POINT('',(-3.797500000000002,-2.41625,6.999999999999999));
#1104=DIRECTION('',(0.0,0.0,-1.0));
#1105=DIRECTION('',(0.0,1.0,0.0));
#1106=AXIS2_PLACEMENT_3D('',#1103,#1104,#1105);
#1107=PLANE('',#1106);
#1108=ORIENTED_EDGE('',*,*,#834,.F.);
#1109=CARTESIAN_POINT('',(-1.750000000000002,-1.550000000000001,7.0));
#1110=DIRECTION('',(0.0,-1.0,0.0));
#1111=VECTOR('',#1110,0.824999999999999);
#1112=LINE('',#1109,#1111);
#1113=EDGE_CURVE('',#1037,#821,#1112,.T.);
#1114=ORIENTED_EDGE('',*,*,#1113,.F.);
#1115=ORIENTED_EDGE('',*,*,#1042,.T.);
#1116=ORIENTED_EDGE('',*,*,#873,.T.);
#1117=EDGE_LOOP('',(#1108,#1114,#1115,#1116));
#1118=FACE_OUTER_BOUND('',#1117,.T.);
#1119=ADVANCED_FACE('',(#1118),#1107,.F.);
#1120=CARTESIAN_POINT('',(1.749999999999999,-1.508750000000001,3.115));
#1121=DIRECTION('',(1.0,0.0,0.0));
#1122=DIRECTION('',(0.0,1.0,0.0));
#1123=AXIS2_PLACEMENT_3D('',#1120,#1121,#1122);
#1124=PLANE('',#1123);
#1125=ORIENTED_EDGE('',*,*,#1064,.T.);
#1126=CARTESIAN_POINT('',(1.749999999999999,-1.550000000000001,3.3));
#1127=DIRECTION('',(0.0,-1.0,0.0));
#1128=VECTOR('',#1127,0.825);
#1129=LINE('',#1126,#1128);
#1130=EDGE_CURVE('',#1053,#813,#1129,.T.);
#1131=ORIENTED_EDGE('',*,*,#1130,.T.);
#1132=ORIENTED_EDGE('',*,*,#856,.T.);
#1133=ORIENTED_EDGE('',*,*,#1000,.F.);
#1134=EDGE_LOOP('',(#1125,#1131,#1132,#1133));
#1135=FACE_OUTER_BOUND('',#1134,.T.);
#1136=ADVANCED_FACE('',(#1135),#1124,.F.);
#1137=CARTESIAN_POINT('',(-1.750000000000002,-1.508750000000002,7.185));
#1138=DIRECTION('',(-1.0,0.0,0.0));
#1139=DIRECTION('',(0.0,-1.0,0.0));
#1140=AXIS2_PLACEMENT_3D('',#1137,#1138,#1139);
#1141=PLANE('',#1140);
#1142=ORIENTED_EDGE('',*,*,#1050,.T.);
#1143=ORIENTED_EDGE('',*,*,#1113,.T.);
#1144=ORIENTED_EDGE('',*,*,#826,.T.);
#1145=CARTESIAN_POINT('',(-1.750000000000001,-1.550000000000001,3.299999999999999));
#1146=DIRECTION('',(0.0,-1.0,0.0));
#1147=VECTOR('',#1146,0.824999999999999);
#1148=LINE('',#1145,#1147);
#1149=EDGE_CURVE('',#1045,#811,#1148,.T.);
#1150=ORIENTED_EDGE('',*,*,#1149,.F.);
#1151=EDGE_LOOP('',(#1142,#1143,#1144,#1150));
#1152=FACE_OUTER_BOUND('',#1151,.T.);
#1153=ADVANCED_FACE('',(#1152),#1141,.F.);
#1154=CARTESIAN_POINT('',(-1.925000000000001,-1.508750000000002,3.299999999999999));
#1155=DIRECTION('',(0.0,0.0,-1.0));
#1156=DIRECTION('',(0.0,1.0,0.0));
#1157=AXIS2_PLACEMENT_3D('',#1154,#1155,#1156);
#1158=PLANE('',#1157);
#1159=ORIENTED_EDGE('',*,*,#1058,.T.);
#1160=ORIENTED_EDGE('',*,*,#1149,.T.);
#1161=ORIENTED_EDGE('',*,*,#818,.T.);
#1162=ORIENTED_EDGE('',*,*,#1130,.F.);
#1163=EDGE_LOOP('',(#1159,#1160,#1161,#1162));
#1164=FACE_OUTER_BOUND('',#1163,.T.);
#1165=ADVANCED_FACE('',(#1164),#1158,.F.);
#1166=CARTESIAN_POINT('',(-3.742500000000002,-1.6,3.899999999999999));
#1167=DIRECTION('',(0.0,0.0,-1.0));
#1168=DIRECTION('',(0.0,1.0,0.0));
#1169=AXIS2_PLACEMENT_3D('',#1166,#1167,#1168);
#1170=PLANE('',#1169);
#1171=ORIENTED_EDGE('',*,*,#1097,.F.);
#1172=CARTESIAN_POINT('',(-2.850000000000001,-0.550000000000001,3.9));
#1173=VERTEX_POINT('',#1172);
#1174=CARTESIAN_POINT('',(-2.850000000000001,-1.550000000000001,3.9));
#1175=DIRECTION('',(0.0,1.0,0.0));
#1176=VECTOR('',#1175,1.0);
#1177=LINE('',#1174,#1176);
#1178=EDGE_CURVE('',#1086,#1173,#1177,.T.);
#1179=ORIENTED_EDGE('',*,*,#1178,.T.);
#1180=CARTESIAN_POINT('',(-2.850000000000001,-0.550000000000001,3.9));
#1181=DIRECTION('',(-1.0,0.0,0.0));
#1182=VECTOR('',#1181,0.85);
#1183=LINE('',#1180,#1182);
#1184=EDGE_CURVE('',#1173,#884,#1183,.T.);
#1185=ORIENTED_EDGE('',*,*,#1184,.T.);
#1186=ORIENTED_EDGE('',*,*,#889,.T.);
#1187=EDGE_LOOP('',(#1171,#1179,#1185,#1186));
#1188=FACE_OUTER_BOUND('',#1187,.T.);
#1189=ADVANCED_FACE('',(#1188),#1170,.F.);
#1190=CARTESIAN_POINT('',(-2.807500000000001,-0.550000000000001,3.745));
#1191=DIRECTION('',(0.0,1.0,0.0));
#1192=DIRECTION('',(-1.0,0.0,0.0));
#1193=AXIS2_PLACEMENT_3D('',#1190,#1191,#1192);
#1194=PLANE('',#1193);
#1195=ORIENTED_EDGE('',*,*,#1184,.F.);
#1196=CARTESIAN_POINT('',(-2.850000000000001,-0.550000000000001,3.9));
#1197=DIRECTION('',(0.0,0.0,1.0));
#1198=VECTOR('',#1197,3.099999999999997);
#1199=LINE('',#1196,#1198);
#1200=EDGE_CURVE('',#1173,#916,#1199,.T.);
#1201=ORIENTED_EDGE('',*,*,#1200,.T.);
#1202=ORIENTED_EDGE('',*,*,#921,.T.);
#1203=ORIENTED_EDGE('',*,*,#897,.T.);
#1204=EDGE_LOOP('',(#1195,#1201,#1202,#1203));
#1205=FACE_OUTER_BOUND('',#1204,.T.);
#1206=ADVANCED_FACE('',(#1205),#1194,.F.);
#1207=CARTESIAN_POINT('',(3.134999999999999,2.550000000000001,2.065));
#1208=DIRECTION('',(0.0,1.0,0.0));
#1209=DIRECTION('',(-1.0,0.0,0.0));
#1210=AXIS2_PLACEMENT_3D('',#1207,#1208,#1209);
#1211=PLANE('',#1210);
#1212=ORIENTED_EDGE('',*,*,#937,.T.);
#1213=CARTESIAN_POINT('',(-2.850000000000002,2.549999999999999,2.299999999999999));
#1214=VERTEX_POINT('',#1213);
#1215=CARTESIAN_POINT('',(-2.850000000000002,2.549999999999999,2.299999999999999));
#1216=DIRECTION('',(0.0,0.0,1.0));
#1217=VECTOR('',#1216,4.699999999999998);
#1218=LINE('',#1215,#1217);
#1219=EDGE_CURVE('',#1214,#924,#1218,.T.);
#1220=ORIENTED_EDGE('',*,*,#1219,.F.);
#1221=CARTESIAN_POINT('',(2.849999999999999,2.550000000000002,2.3));
#1222=VERTEX_POINT('',#1221);
#1223=CARTESIAN_POINT('',(2.849999999999999,2.550000000000001,2.3));
#1224=DIRECTION('',(-1.0,0.0,0.0));
#1225=VECTOR('',#1224,5.700000000000001);
#1226=LINE('',#1223,#1225);
#1227=EDGE_CURVE('',#1222,#1214,#1226,.T.);
#1228=ORIENTED_EDGE('',*,*,#1227,.F.);
#1229=CARTESIAN_POINT('',(2.849999999999999,2.550000000000002,2.3));
#1230=DIRECTION('',(0.0,0.0,1.0));
#1231=VECTOR('',#1230,4.699999999999998);
#1232=LINE('',#1229,#1231);
#1233=EDGE_CURVE('',#1222,#932,#1232,.T.);
#1234=ORIENTED_EDGE('',*,*,#1233,.T.);
#1235=EDGE_LOOP('',(#1212,#1220,#1228,#1234));
#1236=FACE_OUTER_BOUND('',#1235,.T.);
#1237=ADVANCED_FACE('',(#1236),#1211,.F.);
#1238=CARTESIAN_POINT('',(-2.850000000000001,2.755,2.064999999999999));
#1239=DIRECTION('',(-1.0,0.0,0.0));
#1240=DIRECTION('',(0.0,-1.0,0.0));
#1241=AXIS2_PLACEMENT_3D('',#1238,#1239,#1240);
#1242=PLANE('',#1241);
#1243=ORIENTED_EDGE('',*,*,#1178,.F.);
#1244=ORIENTED_EDGE('',*,*,#1091,.F.);
#1245=CARTESIAN_POINT('',(-2.850000000000001,2.549999999999999,2.299999999999999));
#1246=DIRECTION('',(0.0,-1.0,0.0));
#1247=VECTOR('',#1246,4.1);
#1248=LINE('',#1245,#1247);
#1249=EDGE_CURVE('',#1214,#1078,#1248,.T.);
#1250=ORIENTED_EDGE('',*,*,#1249,.F.);
#1251=ORIENTED_EDGE('',*,*,#1219,.T.);
#1252=ORIENTED_EDGE('',*,*,#929,.T.);
#1253=ORIENTED_EDGE('',*,*,#1200,.F.);
#1254=EDGE_LOOP('',(#1243,#1244,#1250,#1251,#1252,#1253));
#1255=FACE_OUTER_BOUND('',#1254,.T.);
#1256=ADVANCED_FACE('',(#1255),#1242,.F.);
#1257=CARTESIAN_POINT('',(2.85,-1.754999999999999,2.065));
#1258=DIRECTION('',(1.0,0.0,0.0));
#1259=DIRECTION('',(0.0,1.0,0.0));
#1260=AXIS2_PLACEMENT_3D('',#1257,#1258,#1259);
#1261=PLANE('',#1260);
#1262=ORIENTED_EDGE('',*,*,#945,.T.);
#1263=ORIENTED_EDGE('',*,*,#1233,.F.);
#1264=CARTESIAN_POINT('',(2.85,-1.549999999999999,2.3));
#1265=DIRECTION('',(0.0,1.0,0.0));
#1266=VECTOR('',#1265,4.1);
#1267=LINE('',#1264,#1266);
#1268=EDGE_CURVE('',#1070,#1222,#1267,.T.);
#1269=ORIENTED_EDGE('',*,*,#1268,.F.);
#1270=ORIENTED_EDGE('',*,*,#1075,.T.);
#1271=ORIENTED_EDGE('',*,*,#1019,.F.);
#1272=ORIENTED_EDGE('',*,*,#971,.F.);
#1273=EDGE_LOOP('',(#1262,#1263,#1269,#1270,#1271,#1272));
#1274=FACE_OUTER_BOUND('',#1273,.T.);
#1275=ADVANCED_FACE('',(#1274),#1261,.F.);
#1276=CARTESIAN_POINT('',(-3.135000000000002,-1.755000000000001,2.299999999999999));
#1277=DIRECTION('',(0.0,0.0,-1.0));
#1278=DIRECTION('',(0.0,1.0,0.0));
#1279=AXIS2_PLACEMENT_3D('',#1276,#1277,#1278);
#1280=PLANE('',#1279);
#1281=ORIENTED_EDGE('',*,*,#1249,.T.);
#1282=ORIENTED_EDGE('',*,*,#1083,.T.);
#1283=ORIENTED_EDGE('',*,*,#1268,.T.);
#1284=ORIENTED_EDGE('',*,*,#1227,.T.);
#1285=EDGE_LOOP('',(#1281,#1282,#1283,#1284));
#1286=FACE_OUTER_BOUND('',#1285,.T.);
#1287=ADVANCED_FACE('',(#1286),#1280,.F.);
#1288=CLOSED_SHELL('',(#717,#748,#804,#860,#909,#958,#982,#1006,#1030,#1102,#1119,#1136,#1153,#1165,#1189,#1206,#1237,#1256,#1275,#1287));
#1289=MANIFOLD_SOLID_BREP('2BB3',#1288);
#1290=DRAUGHTING_PRE_DEFINED_COLOUR('white');
#1291=SURFACE_STYLE_USAGE(.BOTH.,#1292);
#1292=SURFACE_SIDE_STYLE('NONE',(#1293));
#1293=SURFACE_STYLE_FILL_AREA(#1294);
#1294=FILL_AREA_STYLE('NONE',(#1295));
#1295=FILL_AREA_STYLE_COLOUR('NONE',#1290);
#1296=PRESENTATION_STYLE_ASSIGNMENT((#1291));
#1297=STYLED_ITEM('NONE',(#1296),#1289);
#1298=ADVANCED_BREP_SHAPE_REPRESENTATION('ABSR1',(#214,#374,#525,#676,#1289),#28);
#1299=SHAPE_REPRESENTATION_RELATIONSHIP('SRRPL1','',#1298,#62);
ENDSEC;
END-ISO-10303-21;
