ISO-10303-21;
HEADER;
/****************************************************************
 * Generated by software with PDElib inside                    *
 * PDElib Version v51a, created Wed 11/30/2011                  *
 * ITI Transcendata (http://www.transcendata.com/)              *
 ****************************************************************/
FILE_DESCRIPTION((''),'2;1');
FILE_NAME('JST_B2B-ZR(LF)(SN).stp','2014-08-26T15:34:40',(''),(''),'Mechanical Desktop 2011','Mechanical Desktop 2011',', , ');
FILE_SCHEMA(('AUTOMOTIVE_DESIGN { 1 2 10303 214 1 1 1 1 }'));
ENDSEC;
DATA;
#10=(NAMED_UNIT(*)PLANE_ANGLE_UNIT()SI_UNIT($,.RADIAN.));
#11=DIMENSIONAL_EXPONENTS(0.0,0.0,0.0,0.0,0.0,0.0,0.0);
#12=PLANE_ANGLE_MEASURE_WITH_UNIT(PLANE_ANGLE_MEASURE(0.0174532925),#10);
#16=(CONVERSION_BASED_UNIT('DEGREE',#12)NAMED_UNIT(#11)PLANE_ANGLE_UNIT());
#20=(NAMED_UNIT(*)SI_UNIT($,.STERADIAN.)SOLID_ANGLE_UNIT());
#24=(LENGTH_UNIT()NAMED_UNIT(*)SI_UNIT(.MILLI.,.METRE.));
#26=UNCERTAINTY_MEASURE_WITH_UNIT(LENGTH_MEASURE(0.000001),#24,'DISTANCE_ACCURACY_VALUE','');
#28=(GEOMETRIC_REPRESENTATION_CONTEXT(3)GLOBAL_UNCERTAINTY_ASSIGNED_CONTEXT((#26))GLOBAL_UNIT_ASSIGNED_CONTEXT((#16,#20,#24))REPRESENTATION_CONTEXT('','3D'));
#29=APPLICATION_CONTEXT('automotive design');
#30=APPLICATION_PROTOCOL_DEFINITION('INTERNATIONAL_STANDARD','automotive_design',1998,#29);
#31=PRODUCT_CONTEXT('3D Mechanical Parts',#29,'mechanical');
#32=PRODUCT('Product','Product','',(#31));
#33=PRODUCT_RELATED_PRODUCT_CATEGORY('part',$,(#32));
#34=PRODUCT_CATEGORY('part',$);
#35=PERSON('1','Design','Joe',$,$,$);
#36=ORGANIZATION($,'None','None');
#37=PERSON_AND_ORGANIZATION(#35,#36);
#38=PERSON_AND_ORGANIZATION_ROLE('design_owner');
#39=APPLIED_PERSON_AND_ORGANIZATION_ASSIGNMENT(#37,#38,(#32));
#40=PRODUCT_DEFINITION_FORMATION_WITH_SPECIFIED_SOURCE('None','',#32,.BOUGHT.);
#41=PERSON('2','Creator','Joe',$,$,$);
#42=ORGANIZATION($,'None','None');
#43=PERSON_AND_ORGANIZATION(#41,#42);
#44=PERSON_AND_ORGANIZATION_ROLE('creator');
#45=APPLIED_PERSON_AND_ORGANIZATION_ASSIGNMENT(#43,#44,(#40));
#46=PERSON('3','Supplier','Joe',$,$,$);
#47=ORGANIZATION($,'None','None');
#48=PERSON_AND_ORGANIZATION(#46,#47);
#49=PERSON_AND_ORGANIZATION_ROLE('design_supplier');
#50=APPLIED_PERSON_AND_ORGANIZATION_ASSIGNMENT(#48,#49,(#40));
#51=PRODUCT_DEFINITION_CONTEXT('part definition',#29,'design');
#52=PRODUCT_DEFINITION('None','',#40,#51);
#53=PERSON('4','Creator','Joe',$,$,$);
#54=ORGANIZATION($,'None','None');
#55=PERSON_AND_ORGANIZATION(#53,#54);
#56=PERSON_AND_ORGANIZATION_ROLE('creator');
#57=APPLIED_PERSON_AND_ORGANIZATION_ASSIGNMENT(#55,#56,(#52));
#58=CARTESIAN_POINT('NONE',(0.0,0.0,0.0));
#59=DIRECTION('NONE',(0.0,0.0,1.0));
#60=DIRECTION('NONE',(1.0,0.0,0.0));
#61=AXIS2_PLACEMENT_3D('NONE',#58,#59,#60);
#62=SHAPE_REPRESENTATION('SR1',(#61),#28);
#63=PRODUCT_DEFINITION_SHAPE('PDS1','Test Part',#52);
#64=SHAPE_DEFINITION_REPRESENTATION(#63,#62);
#65=CARTESIAN_POINT('',(-2.475000000000001,2.375000000000002,-1.454268E-016));
#66=DIRECTION('',(0.0,0.0,1.0));
#67=DIRECTION('',(0.0,-1.0,0.0));
#68=AXIS2_PLACEMENT_3D('',#65,#66,#67);
#69=PLANE('',#68);
#70=CARTESIAN_POINT('',(-2.25,-1.300000000000001,7.960204E-017));
#71=VERTEX_POINT('',#70);
#72=CARTESIAN_POINT('',(-2.250000000000001,2.200000000000002,-1.347111E-016));
#73=VERTEX_POINT('',#72);
#74=CARTESIAN_POINT('',(-2.25,-1.300000000000001,7.960204E-017));
#75=DIRECTION('',(0.0,1.0,0.0));
#76=VECTOR('',#75,3.500000000000003);
#77=LINE('',#74,#76);
#78=EDGE_CURVE('',#71,#73,#77,.T.);
#79=ORIENTED_EDGE('',*,*,#78,.T.);
#80=CARTESIAN_POINT('',(2.249999999999999,2.200000000000003,-1.347111E-016));
#81=VERTEX_POINT('',#80);
#82=CARTESIAN_POINT('',(2.249999999999999,2.200000000000003,-1.347111E-016));
#83=DIRECTION('',(-1.0,0.0,0.0));
#84=VECTOR('',#83,4.5);
#85=LINE('',#82,#84);
#86=EDGE_CURVE('',#81,#73,#85,.T.);
#87=ORIENTED_EDGE('',*,*,#86,.F.);
#88=CARTESIAN_POINT('',(2.25,-1.3,7.960204E-017));
#89=VERTEX_POINT('',#88);
#90=CARTESIAN_POINT('',(2.25,-1.3,7.960204E-017));
#91=DIRECTION('',(0.0,1.0,0.0));
#92=VECTOR('',#91,3.500000000000003);
#93=LINE('',#90,#92);
#94=EDGE_CURVE('',#89,#81,#93,.T.);
#95=ORIENTED_EDGE('',*,*,#94,.F.);
#96=CARTESIAN_POINT('',(2.25,-1.3,7.960204E-017));
#97=DIRECTION('',(-1.0,0.0,0.0));
#98=VECTOR('',#97,4.5);
#99=LINE('',#96,#98);
#100=EDGE_CURVE('',#89,#71,#99,.T.);
#101=ORIENTED_EDGE('',*,*,#100,.T.);
#102=EDGE_LOOP('',(#79,#87,#95,#101));
#103=FACE_OUTER_BOUND('',#102,.T.);
#104=ADVANCED_FACE('',(#103),#69,.F.);
#105=CARTESIAN_POINT('',(2.249999999999999,2.375000000000003,-0.225));
#106=DIRECTION('',(-1.0,0.0,0.0));
#107=DIRECTION('',(0.0,-1.0,0.0));
#108=AXIS2_PLACEMENT_3D('',#105,#106,#107);
#109=PLANE('',#108);
#110=CARTESIAN_POINT('',(2.25,-0.35,2.699999999999997));
#111=VERTEX_POINT('',#110);
#112=CARTESIAN_POINT('',(2.25,0.450000000000001,2.699999999999997));
#113=VERTEX_POINT('',#112);
#114=CARTESIAN_POINT('',(2.25,-0.35,2.699999999999997));
#115=DIRECTION('',(0.0,1.0,0.0));
#116=VECTOR('',#115,0.800000000000001);
#117=LINE('',#114,#116);
#118=EDGE_CURVE('',#111,#113,#117,.T.);
#119=ORIENTED_EDGE('',*,*,#118,.F.);
#120=CARTESIAN_POINT('',(2.25,-0.35,4.499999999999997));
#121=VERTEX_POINT('',#120);
#122=CARTESIAN_POINT('',(2.25,-0.35,4.499999999999997));
#123=DIRECTION('',(0.0,0.0,-1.0));
#124=VECTOR('',#123,1.8);
#125=LINE('',#122,#124);
#126=EDGE_CURVE('',#121,#111,#125,.T.);
#127=ORIENTED_EDGE('',*,*,#126,.F.);
#128=CARTESIAN_POINT('',(2.25,-1.3,4.499999999999997));
#129=VERTEX_POINT('',#128);
#130=CARTESIAN_POINT('',(2.25,-0.35,4.499999999999997));
#131=DIRECTION('',(0.0,-1.0,0.0));
#132=VECTOR('',#131,0.95);
#133=LINE('',#130,#132);
#134=EDGE_CURVE('',#121,#129,#133,.T.);
#135=ORIENTED_EDGE('',*,*,#134,.T.);
#136=CARTESIAN_POINT('',(2.25,-1.3,4.499999999999997));
#137=DIRECTION('',(0.0,0.0,-1.0));
#138=VECTOR('',#137,4.499999999999997);
#139=LINE('',#136,#138);
#140=EDGE_CURVE('',#129,#89,#139,.T.);
#141=ORIENTED_EDGE('',*,*,#140,.T.);
#142=ORIENTED_EDGE('',*,*,#94,.T.);
#143=CARTESIAN_POINT('',(2.249999999999999,2.2,4.499999999999997));
#144=VERTEX_POINT('',#143);
#145=CARTESIAN_POINT('',(2.249999999999999,2.200000000000003,-1.347111E-016));
#146=DIRECTION('',(0.0,0.0,1.0));
#147=VECTOR('',#146,4.499999999999997);
#148=LINE('',#145,#147);
#149=EDGE_CURVE('',#81,#144,#148,.T.);
#150=ORIENTED_EDGE('',*,*,#149,.T.);
#151=CARTESIAN_POINT('',(2.25,0.45,4.499999999999997));
#152=VERTEX_POINT('',#151);
#153=CARTESIAN_POINT('',(2.249999999999999,2.2,4.499999999999997));
#154=DIRECTION('',(0.0,-1.0,0.0));
#155=VECTOR('',#154,1.75);
#156=LINE('',#153,#155);
#157=EDGE_CURVE('',#144,#152,#156,.T.);
#158=ORIENTED_EDGE('',*,*,#157,.T.);
#159=CARTESIAN_POINT('',(2.25,0.45,2.699999999999997));
#160=DIRECTION('',(0.0,0.0,1.0));
#161=VECTOR('',#160,1.8);
#162=LINE('',#159,#161);
#163=EDGE_CURVE('',#113,#152,#162,.T.);
#164=ORIENTED_EDGE('',*,*,#163,.F.);
#165=EDGE_LOOP('',(#119,#127,#135,#141,#142,#150,#158,#164));
#166=FACE_OUTER_BOUND('',#165,.T.);
#167=ADVANCED_FACE('',(#166),#109,.F.);
#168=CARTESIAN_POINT('',(-2.475000000000001,2.200000000000002,4.724999999999997));
#169=DIRECTION('',(0.0,-1.0,0.0));
#170=DIRECTION('',(1.0,0.0,0.0));
#171=AXIS2_PLACEMENT_3D('',#168,#169,#170);
#172=PLANE('',#171);
#173=CARTESIAN_POINT('',(-2.250000000000001,2.199999999999999,4.499999999999997));
#174=VERTEX_POINT('',#173);
#175=CARTESIAN_POINT('',(-2.250000000000001,2.200000000000002,-1.347111E-016));
#176=DIRECTION('',(0.0,0.0,1.0));
#177=VECTOR('',#176,4.499999999999997);
#178=LINE('',#175,#177);
#179=EDGE_CURVE('',#73,#174,#178,.T.);
#180=ORIENTED_EDGE('',*,*,#179,.T.);
#181=CARTESIAN_POINT('',(2.249999999999999,2.2,4.499999999999997));
#182=DIRECTION('',(-1.0,0.0,0.0));
#183=VECTOR('',#182,4.5);
#184=LINE('',#181,#183);
#185=EDGE_CURVE('',#144,#174,#184,.T.);
#186=ORIENTED_EDGE('',*,*,#185,.F.);
#187=ORIENTED_EDGE('',*,*,#149,.F.);
#188=ORIENTED_EDGE('',*,*,#86,.T.);
#189=EDGE_LOOP('',(#180,#186,#187,#188));
#190=FACE_OUTER_BOUND('',#189,.T.);
#191=ADVANCED_FACE('',(#190),#172,.F.);
#192=CARTESIAN_POINT('',(-2.250000000000001,2.375000000000002,-0.225));
#193=DIRECTION('',(-1.0,0.0,0.0));
#194=DIRECTION('',(0.0,-1.0,0.0));
#195=AXIS2_PLACEMENT_3D('',#192,#193,#194);
#196=PLANE('',#195);
#197=CARTESIAN_POINT('',(-2.25,-0.350000000000001,4.499999999999997));
#198=VERTEX_POINT('',#197);
#199=CARTESIAN_POINT('',(-2.25,-0.350000000000001,2.699999999999997));
#200=VERTEX_POINT('',#199);
#201=CARTESIAN_POINT('',(-2.25,-0.350000000000001,4.499999999999997));
#202=DIRECTION('',(0.0,0.0,-1.0));
#203=VECTOR('',#202,1.8);
#204=LINE('',#201,#203);
#205=EDGE_CURVE('',#198,#200,#204,.T.);
#206=ORIENTED_EDGE('',*,*,#205,.T.);
#207=CARTESIAN_POINT('',(-2.25,0.45,2.699999999999997));
#208=VERTEX_POINT('',#207);
#209=CARTESIAN_POINT('',(-2.25,-0.350000000000001,2.699999999999997));
#210=DIRECTION('',(0.0,1.0,0.0));
#211=VECTOR('',#210,0.800000000000001);
#212=LINE('',#209,#211);
#213=EDGE_CURVE('',#200,#208,#212,.T.);
#214=ORIENTED_EDGE('',*,*,#213,.T.);
#215=CARTESIAN_POINT('',(-2.25,0.449999999999999,4.499999999999997));
#216=VERTEX_POINT('',#215);
#217=CARTESIAN_POINT('',(-2.25,0.449999999999999,2.699999999999997));
#218=DIRECTION('',(0.0,0.0,1.0));
#219=VECTOR('',#218,1.8);
#220=LINE('',#217,#219);
#221=EDGE_CURVE('',#208,#216,#220,.T.);
#222=ORIENTED_EDGE('',*,*,#221,.T.);
#223=CARTESIAN_POINT('',(-2.250000000000001,2.199999999999999,4.499999999999997));
#224=DIRECTION('',(0.0,-1.0,0.0));
#225=VECTOR('',#224,1.75);
#226=LINE('',#223,#225);
#227=EDGE_CURVE('',#174,#216,#226,.T.);
#228=ORIENTED_EDGE('',*,*,#227,.F.);
#229=ORIENTED_EDGE('',*,*,#179,.F.);
#230=ORIENTED_EDGE('',*,*,#78,.F.);
#231=CARTESIAN_POINT('',(-2.25,-1.300000000000001,4.499999999999997));
#232=VERTEX_POINT('',#231);
#233=CARTESIAN_POINT('',(-2.25,-1.300000000000001,4.499999999999997));
#234=DIRECTION('',(0.0,0.0,-1.0));
#235=VECTOR('',#234,4.499999999999997);
#236=LINE('',#233,#235);
#237=EDGE_CURVE('',#232,#71,#236,.T.);
#238=ORIENTED_EDGE('',*,*,#237,.F.);
#239=CARTESIAN_POINT('',(-2.25,-0.350000000000001,4.499999999999997));
#240=DIRECTION('',(0.0,-1.0,0.0));
#241=VECTOR('',#240,0.95);
#242=LINE('',#239,#241);
#243=EDGE_CURVE('',#198,#232,#242,.T.);
#244=ORIENTED_EDGE('',*,*,#243,.F.);
#245=EDGE_LOOP('',(#206,#214,#222,#228,#229,#230,#238,#244));
#246=FACE_OUTER_BOUND('',#245,.T.);
#247=ADVANCED_FACE('',(#246),#196,.T.);
#248=CARTESIAN_POINT('',(2.475,-1.3,-0.225));
#249=DIRECTION('',(0.0,1.0,0.0));
#250=DIRECTION('',(-1.0,0.0,0.0));
#251=AXIS2_PLACEMENT_3D('',#248,#249,#250);
#252=PLANE('',#251);
#253=ORIENTED_EDGE('',*,*,#237,.T.);
#254=ORIENTED_EDGE('',*,*,#100,.F.);
#255=ORIENTED_EDGE('',*,*,#140,.F.);
#256=CARTESIAN_POINT('',(2.25,-1.3,4.499999999999997));
#257=DIRECTION('',(-1.0,0.0,0.0));
#258=VECTOR('',#257,4.5);
#259=LINE('',#256,#258);
#260=EDGE_CURVE('',#129,#232,#259,.T.);
#261=ORIENTED_EDGE('',*,*,#260,.T.);
#262=EDGE_LOOP('',(#253,#254,#255,#261));
#263=FACE_OUTER_BOUND('',#262,.T.);
#264=CARTESIAN_POINT('',(-1.049999999999999,-1.300000000000001,1.699999999999998));
#265=VERTEX_POINT('',#264);
#266=CARTESIAN_POINT('',(-1.049999999999999,-1.300000000000001,2.699999999999997));
#267=VERTEX_POINT('',#266);
#268=CARTESIAN_POINT('',(-1.049999999999999,-1.300000000000001,1.699999999999998));
#269=DIRECTION('',(0.0,0.0,1.0));
#270=VECTOR('',#269,1.0);
#271=LINE('',#268,#270);
#272=EDGE_CURVE('',#265,#267,#271,.T.);
#273=ORIENTED_EDGE('',*,*,#272,.F.);
#274=CARTESIAN_POINT('',(-1.749999999999999,-1.300000000000001,1.699999999999998));
#275=VERTEX_POINT('',#274);
#276=CARTESIAN_POINT('',(-1.749999999999999,-1.300000000000001,1.699999999999998));
#277=DIRECTION('',(1.0,0.0,0.0));
#278=VECTOR('',#277,0.7);
#279=LINE('',#276,#278);
#280=EDGE_CURVE('',#275,#265,#279,.T.);
#281=ORIENTED_EDGE('',*,*,#280,.F.);
#282=CARTESIAN_POINT('',(-1.75,-1.300000000000001,2.699999999999997));
#283=VERTEX_POINT('',#282);
#284=CARTESIAN_POINT('',(-1.749999999999999,-1.300000000000001,2.699999999999997));
#285=DIRECTION('',(0.0,0.0,-1.0));
#286=VECTOR('',#285,1.0);
#287=LINE('',#284,#286);
#288=EDGE_CURVE('',#283,#275,#287,.T.);
#289=ORIENTED_EDGE('',*,*,#288,.F.);
#290=CARTESIAN_POINT('',(-1.049999999999999,-1.300000000000001,2.699999999999997));
#291=DIRECTION('',(-1.0,0.0,0.0));
#292=VECTOR('',#291,0.700000000000001);
#293=LINE('',#290,#292);
#294=EDGE_CURVE('',#267,#283,#293,.T.);
#295=ORIENTED_EDGE('',*,*,#294,.F.);
#296=EDGE_LOOP('',(#273,#281,#289,#295));
#297=FACE_BOUND('',#296,.T.);
#298=CARTESIAN_POINT('',(1.05,-1.3,2.699999999999997));
#299=VERTEX_POINT('',#298);
#300=CARTESIAN_POINT('',(1.05,-1.3,1.699999999999998));
#301=VERTEX_POINT('',#300);
#302=CARTESIAN_POINT('',(1.05,-1.3,2.699999999999997));
#303=DIRECTION('',(0.0,0.0,-1.0));
#304=VECTOR('',#303,1.0);
#305=LINE('',#302,#304);
#306=EDGE_CURVE('',#299,#301,#305,.T.);
#307=ORIENTED_EDGE('',*,*,#306,.F.);
#308=CARTESIAN_POINT('',(1.75,-1.3,2.699999999999997));
#309=VERTEX_POINT('',#308);
#310=CARTESIAN_POINT('',(1.75,-1.3,2.699999999999997));
#311=DIRECTION('',(-1.0,0.0,0.0));
#312=VECTOR('',#311,0.7);
#313=LINE('',#310,#312);
#314=EDGE_CURVE('',#309,#299,#313,.T.);
#315=ORIENTED_EDGE('',*,*,#314,.F.);
#316=CARTESIAN_POINT('',(1.75,-1.3,1.699999999999998));
#317=VERTEX_POINT('',#316);
#318=CARTESIAN_POINT('',(1.75,-1.3,1.699999999999998));
#319=DIRECTION('',(0.0,0.0,1.0));
#320=VECTOR('',#319,1.0);
#321=LINE('',#318,#320);
#322=EDGE_CURVE('',#317,#309,#321,.T.);
#323=ORIENTED_EDGE('',*,*,#322,.F.);
#324=CARTESIAN_POINT('',(1.05,-1.3,1.699999999999998));
#325=DIRECTION('',(1.0,0.0,0.0));
#326=VECTOR('',#325,0.7);
#327=LINE('',#324,#326);
#328=EDGE_CURVE('',#301,#317,#327,.T.);
#329=ORIENTED_EDGE('',*,*,#328,.F.);
#330=EDGE_LOOP('',(#307,#315,#323,#329));
#331=FACE_BOUND('',#330,.T.);
#332=ADVANCED_FACE('',(#263,#297,#331),#252,.F.);
#333=CARTESIAN_POINT('',(1.724999999999999,0.45,2.609999999999997));
#334=DIRECTION('',(0.0,1.0,0.0));
#335=DIRECTION('',(-1.0,0.0,0.0));
#336=AXIS2_PLACEMENT_3D('',#333,#334,#335);
#337=PLANE('',#336);
#338=CARTESIAN_POINT('',(1.749999999999999,0.450000000000001,2.699999999999997));
#339=VERTEX_POINT('',#338);
#340=CARTESIAN_POINT('',(1.749999999999999,0.450000000000001,2.699999999999997));
#341=DIRECTION('',(1.0,0.0,0.0));
#342=VECTOR('',#341,0.500000000000001);
#343=LINE('',#340,#342);
#344=EDGE_CURVE('',#339,#113,#343,.T.);
#345=ORIENTED_EDGE('',*,*,#344,.T.);
#346=ORIENTED_EDGE('',*,*,#163,.T.);
#347=CARTESIAN_POINT('',(1.75,0.45,4.499999999999997));
#348=VERTEX_POINT('',#347);
#349=CARTESIAN_POINT('',(1.75,0.45,4.499999999999997));
#350=DIRECTION('',(1.0,0.0,0.0));
#351=VECTOR('',#350,0.499999999999999);
#352=LINE('',#349,#351);
#353=EDGE_CURVE('',#348,#152,#352,.T.);
#354=ORIENTED_EDGE('',*,*,#353,.F.);
#355=CARTESIAN_POINT('',(1.749999999999999,0.450000000000001,2.699999999999997));
#356=DIRECTION('',(0.0,0.0,1.0));
#357=VECTOR('',#356,1.8);
#358=LINE('',#355,#357);
#359=EDGE_CURVE('',#339,#348,#358,.T.);
#360=ORIENTED_EDGE('',*,*,#359,.F.);
#361=EDGE_LOOP('',(#345,#346,#354,#360));
#362=FACE_OUTER_BOUND('',#361,.T.);
#363=ADVANCED_FACE('',(#362),#337,.F.);
#364=CARTESIAN_POINT('',(1.724999999999999,-0.35,4.589999999999997));
#365=DIRECTION('',(0.0,-1.0,0.0));
#366=DIRECTION('',(1.0,0.0,0.0));
#367=AXIS2_PLACEMENT_3D('',#364,#365,#366);
#368=PLANE('',#367);
#369=CARTESIAN_POINT('',(1.75,-0.35,4.499999999999997));
#370=VERTEX_POINT('',#369);
#371=CARTESIAN_POINT('',(1.750000000000001,-0.35,4.499999999999997));
#372=DIRECTION('',(1.0,0.0,0.0));
#373=VECTOR('',#372,0.499999999999999);
#374=LINE('',#371,#373);
#375=EDGE_CURVE('',#370,#121,#374,.T.);
#376=ORIENTED_EDGE('',*,*,#375,.T.);
#377=ORIENTED_EDGE('',*,*,#126,.T.);
#378=CARTESIAN_POINT('',(1.75,-0.35,2.699999999999997));
#379=VERTEX_POINT('',#378);
#380=CARTESIAN_POINT('',(1.750000000000001,-0.35,2.699999999999997));
#381=DIRECTION('',(1.0,0.0,0.0));
#382=VECTOR('',#381,0.499999999999999);
#383=LINE('',#380,#382);
#384=EDGE_CURVE('',#379,#111,#383,.T.);
#385=ORIENTED_EDGE('',*,*,#384,.F.);
#386=CARTESIAN_POINT('',(1.749999999999999,-0.349999999999999,4.499999999999997));
#387=DIRECTION('',(0.0,0.0,-1.0));
#388=VECTOR('',#387,1.8);
#389=LINE('',#386,#388);
#390=EDGE_CURVE('',#370,#379,#389,.T.);
#391=ORIENTED_EDGE('',*,*,#390,.F.);
#392=EDGE_LOOP('',(#376,#377,#385,#391));
#393=FACE_OUTER_BOUND('',#392,.T.);
#394=ADVANCED_FACE('',(#393),#368,.F.);
#395=CARTESIAN_POINT('',(-2.475,-1.347500000000001,4.499999999999997));
#396=DIRECTION('',(0.0,0.0,-1.0));
#397=DIRECTION('',(0.0,1.0,0.0));
#398=AXIS2_PLACEMENT_3D('',#395,#396,#397);
#399=PLANE('',#398);
#400=ORIENTED_EDGE('',*,*,#134,.F.);
#401=ORIENTED_EDGE('',*,*,#375,.F.);
#402=CARTESIAN_POINT('',(1.75,-0.899999999999999,4.499999999999997));
#403=VERTEX_POINT('',#402);
#404=CARTESIAN_POINT('',(1.75,-0.899999999999999,4.499999999999997));
#405=DIRECTION('',(0.0,1.0,0.0));
#406=VECTOR('',#405,0.549999999999999);
#407=LINE('',#404,#406);
#408=EDGE_CURVE('',#403,#370,#407,.T.);
#409=ORIENTED_EDGE('',*,*,#408,.F.);
#410=CARTESIAN_POINT('',(-1.75,-0.9,4.499999999999997));
#411=VERTEX_POINT('',#410);
#412=CARTESIAN_POINT('',(-1.75,-0.9,4.499999999999997));
#413=DIRECTION('',(1.0,0.0,0.0));
#414=VECTOR('',#413,3.5);
#415=LINE('',#412,#414);
#416=EDGE_CURVE('',#411,#403,#415,.T.);
#417=ORIENTED_EDGE('',*,*,#416,.F.);
#418=CARTESIAN_POINT('',(-1.75,-0.350000000000001,4.499999999999997));
#419=VERTEX_POINT('',#418);
#420=CARTESIAN_POINT('',(-1.75,-0.350000000000001,4.499999999999997));
#421=DIRECTION('',(0.0,-1.0,0.0));
#422=VECTOR('',#421,0.549999999999999);
#423=LINE('',#420,#422);
#424=EDGE_CURVE('',#419,#411,#423,.T.);
#425=ORIENTED_EDGE('',*,*,#424,.F.);
#426=CARTESIAN_POINT('',(-2.25,-0.350000000000001,4.499999999999997));
#427=DIRECTION('',(1.0,0.0,0.0));
#428=VECTOR('',#427,0.500000000000001);
#429=LINE('',#426,#428);
#430=EDGE_CURVE('',#198,#419,#429,.T.);
#431=ORIENTED_EDGE('',*,*,#430,.F.);
#432=ORIENTED_EDGE('',*,*,#243,.T.);
#433=ORIENTED_EDGE('',*,*,#260,.F.);
#434=EDGE_LOOP('',(#400,#401,#409,#417,#425,#431,#432,#433));
#435=FACE_OUTER_BOUND('',#434,.T.);
#436=ADVANCED_FACE('',(#435),#399,.F.);
#437=CARTESIAN_POINT('',(1.724999999999999,-0.39,2.699999999999997));
#438=DIRECTION('',(0.0,0.0,-1.0));
#439=DIRECTION('',(0.0,1.0,0.0));
#440=AXIS2_PLACEMENT_3D('',#437,#438,#439);
#441=PLANE('',#440);
#442=ORIENTED_EDGE('',*,*,#384,.T.);
#443=ORIENTED_EDGE('',*,*,#118,.T.);
#444=ORIENTED_EDGE('',*,*,#344,.F.);
#445=CARTESIAN_POINT('',(1.749999999999999,-0.35,2.699999999999997));
#446=DIRECTION('',(0.0,1.0,0.0));
#447=VECTOR('',#446,0.800000000000001);
#448=LINE('',#445,#447);
#449=EDGE_CURVE('',#379,#339,#448,.T.);
#450=ORIENTED_EDGE('',*,*,#449,.F.);
#451=EDGE_LOOP('',(#442,#443,#444,#450));
#452=FACE_OUTER_BOUND('',#451,.T.);
#453=ADVANCED_FACE('',(#452),#441,.F.);
#454=CARTESIAN_POINT('',(-2.475,0.362499999999999,4.499999999999997));
#455=DIRECTION('',(0.0,0.0,-1.0));
#456=DIRECTION('',(0.0,1.0,0.0));
#457=AXIS2_PLACEMENT_3D('',#454,#455,#456);
#458=PLANE('',#457);
#459=ORIENTED_EDGE('',*,*,#227,.T.);
#460=CARTESIAN_POINT('',(-1.75,0.449999999999999,4.499999999999997));
#461=VERTEX_POINT('',#460);
#462=CARTESIAN_POINT('',(-2.25,0.449999999999999,4.499999999999997));
#463=DIRECTION('',(1.0,0.0,0.0));
#464=VECTOR('',#463,0.500000000000001);
#465=LINE('',#462,#464);
#466=EDGE_CURVE('',#216,#461,#465,.T.);
#467=ORIENTED_EDGE('',*,*,#466,.T.);
#468=CARTESIAN_POINT('',(-1.75,1.800000000000001,4.499999999999997));
#469=VERTEX_POINT('',#468);
#470=CARTESIAN_POINT('',(-1.75,1.800000000000001,4.499999999999997));
#471=DIRECTION('',(0.0,-1.0,0.0));
#472=VECTOR('',#471,1.350000000000001);
#473=LINE('',#470,#472);
#474=EDGE_CURVE('',#469,#461,#473,.T.);
#475=ORIENTED_EDGE('',*,*,#474,.F.);
#476=CARTESIAN_POINT('',(1.749999999999999,1.800000000000001,4.499999999999997));
#477=VERTEX_POINT('',#476);
#478=CARTESIAN_POINT('',(1.749999999999999,1.800000000000001,4.499999999999997));
#479=DIRECTION('',(-1.0,0.0,0.0));
#480=VECTOR('',#479,3.499999999999999);
#481=LINE('',#478,#480);
#482=EDGE_CURVE('',#477,#469,#481,.T.);
#483=ORIENTED_EDGE('',*,*,#482,.F.);
#484=CARTESIAN_POINT('',(1.749999999999999,0.45,4.499999999999997));
#485=DIRECTION('',(0.0,1.0,0.0));
#486=VECTOR('',#485,1.350000000000001);
#487=LINE('',#484,#486);
#488=EDGE_CURVE('',#348,#477,#487,.T.);
#489=ORIENTED_EDGE('',*,*,#488,.F.);
#490=ORIENTED_EDGE('',*,*,#353,.T.);
#491=ORIENTED_EDGE('',*,*,#157,.F.);
#492=ORIENTED_EDGE('',*,*,#185,.T.);
#493=EDGE_LOOP('',(#459,#467,#475,#483,#489,#490,#491,#492));
#494=FACE_OUTER_BOUND('',#493,.T.);
#495=ADVANCED_FACE('',(#494),#458,.F.);
#496=CARTESIAN_POINT('',(-2.275,0.449999999999999,2.609999999999997));
#497=DIRECTION('',(0.0,1.0,0.0));
#498=DIRECTION('',(-1.0,0.0,0.0));
#499=AXIS2_PLACEMENT_3D('',#496,#497,#498);
#500=PLANE('',#499);
#501=ORIENTED_EDGE('',*,*,#466,.F.);
#502=ORIENTED_EDGE('',*,*,#221,.F.);
#503=CARTESIAN_POINT('',(-1.75,0.45,2.699999999999997));
#504=VERTEX_POINT('',#503);
#505=CARTESIAN_POINT('',(-2.25,0.45,2.699999999999997));
#506=DIRECTION('',(1.0,0.0,0.0));
#507=VECTOR('',#506,0.500000000000001);
#508=LINE('',#505,#507);
#509=EDGE_CURVE('',#208,#504,#508,.T.);
#510=ORIENTED_EDGE('',*,*,#509,.T.);
#511=CARTESIAN_POINT('',(-1.75,0.45,4.499999999999997));
#512=DIRECTION('',(0.0,0.0,-1.0));
#513=VECTOR('',#512,1.8);
#514=LINE('',#511,#513);
#515=EDGE_CURVE('',#461,#504,#514,.T.);
#516=ORIENTED_EDGE('',*,*,#515,.F.);
#517=EDGE_LOOP('',(#501,#502,#510,#516));
#518=FACE_OUTER_BOUND('',#517,.T.);
#519=ADVANCED_FACE('',(#518),#500,.F.);
#520=CARTESIAN_POINT('',(-2.275,-0.390000000000001,2.699999999999997));
#521=DIRECTION('',(0.0,0.0,-1.0));
#522=DIRECTION('',(0.0,1.0,0.0));
#523=AXIS2_PLACEMENT_3D('',#520,#521,#522);
#524=PLANE('',#523);
#525=ORIENTED_EDGE('',*,*,#509,.F.);
#526=ORIENTED_EDGE('',*,*,#213,.F.);
#527=CARTESIAN_POINT('',(-1.75,-0.35,2.699999999999997));
#528=VERTEX_POINT('',#527);
#529=CARTESIAN_POINT('',(-2.25,-0.350000000000001,2.699999999999997));
#530=DIRECTION('',(1.0,0.0,0.0));
#531=VECTOR('',#530,0.500000000000001);
#532=LINE('',#529,#531);
#533=EDGE_CURVE('',#200,#528,#532,.T.);
#534=ORIENTED_EDGE('',*,*,#533,.T.);
#535=CARTESIAN_POINT('',(-1.75,0.45,2.699999999999997));
#536=DIRECTION('',(0.0,-1.0,0.0));
#537=VECTOR('',#536,0.8);
#538=LINE('',#535,#537);
#539=EDGE_CURVE('',#504,#528,#538,.T.);
#540=ORIENTED_EDGE('',*,*,#539,.F.);
#541=EDGE_LOOP('',(#525,#526,#534,#540));
#542=FACE_OUTER_BOUND('',#541,.T.);
#543=ADVANCED_FACE('',(#542),#524,.F.);
#544=CARTESIAN_POINT('',(-2.275,-0.350000000000001,4.589999999999997));
#545=DIRECTION('',(0.0,-1.0,0.0));
#546=DIRECTION('',(1.0,0.0,0.0));
#547=AXIS2_PLACEMENT_3D('',#544,#545,#546);
#548=PLANE('',#547);
#549=ORIENTED_EDGE('',*,*,#533,.F.);
#550=ORIENTED_EDGE('',*,*,#205,.F.);
#551=ORIENTED_EDGE('',*,*,#430,.T.);
#552=CARTESIAN_POINT('',(-1.75,-0.35,2.699999999999997));
#553=DIRECTION('',(0.0,0.0,1.0));
#554=VECTOR('',#553,1.8);
#555=LINE('',#552,#554);
#556=EDGE_CURVE('',#528,#419,#555,.T.);
#557=ORIENTED_EDGE('',*,*,#556,.F.);
#558=EDGE_LOOP('',(#549,#550,#551,#557));
#559=FACE_OUTER_BOUND('',#558,.T.);
#560=ADVANCED_FACE('',(#559),#548,.F.);
#561=CARTESIAN_POINT('',(1.05,-0.88,2.749999999999997));
#562=DIRECTION('',(-1.0,0.0,0.0));
#563=DIRECTION('',(0.0,-1.0,0.0));
#564=AXIS2_PLACEMENT_3D('',#561,#562,#563);
#565=PLANE('',#564);
#566=CARTESIAN_POINT('',(1.05,-0.9,1.699999999999998));
#567=VERTEX_POINT('',#566);
#568=CARTESIAN_POINT('',(1.05,-0.9,2.699999999999997));
#569=VERTEX_POINT('',#568);
#570=CARTESIAN_POINT('',(1.05,-0.9,1.699999999999998));
#571=DIRECTION('',(0.0,0.0,1.0));
#572=VECTOR('',#571,1.0);
#573=LINE('',#570,#572);
#574=EDGE_CURVE('',#567,#569,#573,.T.);
#575=ORIENTED_EDGE('',*,*,#574,.T.);
#576=CARTESIAN_POINT('',(1.05,-0.899999999999999,2.699999999999997));
#577=DIRECTION('',(0.0,-1.0,0.0));
#578=VECTOR('',#577,0.400000000000001);
#579=LINE('',#576,#578);
#580=EDGE_CURVE('',#569,#299,#579,.T.);
#581=ORIENTED_EDGE('',*,*,#580,.T.);
#582=ORIENTED_EDGE('',*,*,#306,.T.);
#583=CARTESIAN_POINT('',(1.05,-0.9,1.699999999999998));
#584=DIRECTION('',(0.0,-1.0,0.0));
#585=VECTOR('',#584,0.400000000000001);
#586=LINE('',#583,#585);
#587=EDGE_CURVE('',#567,#301,#586,.T.);
#588=ORIENTED_EDGE('',*,*,#587,.F.);
#589=EDGE_LOOP('',(#575,#581,#582,#588));
#590=FACE_OUTER_BOUND('',#589,.T.);
#591=ADVANCED_FACE('',(#590),#565,.F.);
#592=CARTESIAN_POINT('',(1.015,-0.88,2.699999999999997));
#593=DIRECTION('',(0.0,0.0,1.0));
#594=DIRECTION('',(0.0,-1.0,0.0));
#595=AXIS2_PLACEMENT_3D('',#592,#593,#594);
#596=PLANE('',#595);
#597=CARTESIAN_POINT('',(1.75,-0.899999999999999,2.699999999999997));
#598=VERTEX_POINT('',#597);
#599=CARTESIAN_POINT('',(1.05,-0.9,2.699999999999997));
#600=DIRECTION('',(1.0,0.0,0.0));
#601=VECTOR('',#600,0.7);
#602=LINE('',#599,#601);
#603=EDGE_CURVE('',#569,#598,#602,.T.);
#604=ORIENTED_EDGE('',*,*,#603,.T.);
#605=CARTESIAN_POINT('',(1.75,-0.899999999999999,2.699999999999997));
#606=DIRECTION('',(0.0,-1.0,0.0));
#607=VECTOR('',#606,0.4);
#608=LINE('',#605,#607);
#609=EDGE_CURVE('',#598,#309,#608,.T.);
#610=ORIENTED_EDGE('',*,*,#609,.T.);
#611=ORIENTED_EDGE('',*,*,#314,.T.);
#612=ORIENTED_EDGE('',*,*,#580,.F.);
#613=EDGE_LOOP('',(#604,#610,#611,#612));
#614=FACE_OUTER_BOUND('',#613,.T.);
#615=ADVANCED_FACE('',(#614),#596,.F.);
#616=CARTESIAN_POINT('',(-1.75,1.955,0.929999999999997));
#617=DIRECTION('',(-1.0,0.0,0.0));
#618=DIRECTION('',(0.0,-1.0,0.0));
#619=AXIS2_PLACEMENT_3D('',#616,#617,#618);
#620=PLANE('',#619);
#621=ORIENTED_EDGE('',*,*,#539,.T.);
#622=ORIENTED_EDGE('',*,*,#556,.T.);
#623=ORIENTED_EDGE('',*,*,#424,.T.);
#624=CARTESIAN_POINT('',(-1.749999999999999,-0.900000000000001,2.699999999999997));
#625=VERTEX_POINT('',#624);
#626=CARTESIAN_POINT('',(-1.749999999999999,-0.900000000000001,2.699999999999997));
#627=DIRECTION('',(0.0,0.0,1.0));
#628=VECTOR('',#627,1.8);
#629=LINE('',#626,#628);
#630=EDGE_CURVE('',#625,#411,#629,.T.);
#631=ORIENTED_EDGE('',*,*,#630,.F.);
#632=CARTESIAN_POINT('',(-1.749999999999999,-0.900000000000001,2.699999999999997));
#633=DIRECTION('',(0.0,-1.0,0.0));
#634=VECTOR('',#633,0.4);
#635=LINE('',#632,#634);
#636=EDGE_CURVE('',#625,#283,#635,.T.);
#637=ORIENTED_EDGE('',*,*,#636,.T.);
#638=ORIENTED_EDGE('',*,*,#288,.T.);
#639=CARTESIAN_POINT('',(-1.749999999999999,-0.900000000000001,1.699999999999998));
#640=VERTEX_POINT('',#639);
#641=CARTESIAN_POINT('',(-1.749999999999999,-0.900000000000001,1.699999999999998));
#642=DIRECTION('',(0.0,-1.0,0.0));
#643=VECTOR('',#642,0.4);
#644=LINE('',#641,#643);
#645=EDGE_CURVE('',#640,#275,#644,.T.);
#646=ORIENTED_EDGE('',*,*,#645,.F.);
#647=CARTESIAN_POINT('',(-1.749999999999999,-0.900000000000001,1.399999999999998));
#648=VERTEX_POINT('',#647);
#649=CARTESIAN_POINT('',(-1.749999999999999,-0.900000000000001,1.399999999999998));
#650=DIRECTION('',(0.0,0.0,1.0));
#651=VECTOR('',#650,0.3);
#652=LINE('',#649,#651);
#653=EDGE_CURVE('',#648,#640,#652,.T.);
#654=ORIENTED_EDGE('',*,*,#653,.F.);
#655=CARTESIAN_POINT('',(-1.75,0.450000000000001,1.399999999999998));
#656=VERTEX_POINT('',#655);
#657=CARTESIAN_POINT('',(-1.75,0.450000000000001,1.399999999999998));
#658=DIRECTION('',(0.0,-1.0,0.0));
#659=VECTOR('',#658,1.350000000000001);
#660=LINE('',#657,#659);
#661=EDGE_CURVE('',#656,#648,#660,.T.);
#662=ORIENTED_EDGE('',*,*,#661,.F.);
#663=CARTESIAN_POINT('',(-1.75,0.750000000000002,1.099999999999997));
#664=VERTEX_POINT('',#663);
#665=CARTESIAN_POINT('',(-1.75,0.45,1.399999999999997));
#666=DIRECTION('',(0.0,0.707106781186551,-0.707106781186544));
#667=VECTOR('',#666,0.42426406871193);
#668=LINE('',#665,#667);
#669=EDGE_CURVE('',#656,#664,#668,.T.);
#670=ORIENTED_EDGE('',*,*,#669,.T.);
#671=CARTESIAN_POINT('',(-1.75,1.8,1.099999999999997));
#672=VERTEX_POINT('',#671);
#673=CARTESIAN_POINT('',(-1.75,0.750000000000002,1.099999999999997));
#674=DIRECTION('',(0.0,1.0,0.0));
#675=VECTOR('',#674,1.049999999999998);
#676=LINE('',#673,#675);
#677=EDGE_CURVE('',#664,#672,#676,.T.);
#678=ORIENTED_EDGE('',*,*,#677,.T.);
#679=CARTESIAN_POINT('',(-1.75,1.8,1.099999999999997));
#680=DIRECTION('',(0.0,0.0,1.0));
#681=VECTOR('',#680,3.399999999999999);
#682=LINE('',#679,#681);
#683=EDGE_CURVE('',#672,#469,#682,.T.);
#684=ORIENTED_EDGE('',*,*,#683,.T.);
#685=ORIENTED_EDGE('',*,*,#474,.T.);
#686=ORIENTED_EDGE('',*,*,#515,.T.);
#687=EDGE_LOOP('',(#621,#622,#623,#631,#637,#638,#646,#654,#662,#670,#678,#684,#685,#686));
#688=FACE_OUTER_BOUND('',#687,.T.);
#689=ADVANCED_FACE('',(#688),#620,.F.);
#690=CARTESIAN_POINT('',(1.75,-1.455,0.929999999999998));
#691=DIRECTION('',(1.0,0.0,0.0));
#692=DIRECTION('',(0.0,1.0,0.0));
#693=AXIS2_PLACEMENT_3D('',#690,#691,#692);
#694=PLANE('',#693);
#695=ORIENTED_EDGE('',*,*,#408,.T.);
#696=ORIENTED_EDGE('',*,*,#390,.T.);
#697=ORIENTED_EDGE('',*,*,#449,.T.);
#698=ORIENTED_EDGE('',*,*,#359,.T.);
#699=ORIENTED_EDGE('',*,*,#488,.T.);
#700=CARTESIAN_POINT('',(1.749999999999999,1.800000000000001,1.099999999999997));
#701=VERTEX_POINT('',#700);
#702=CARTESIAN_POINT('',(1.749999999999999,1.800000000000001,1.099999999999997));
#703=DIRECTION('',(0.0,0.0,1.0));
#704=VECTOR('',#703,3.399999999999999);
#705=LINE('',#702,#704);
#706=EDGE_CURVE('',#701,#477,#705,.T.);
#707=ORIENTED_EDGE('',*,*,#706,.F.);
#708=CARTESIAN_POINT('',(1.749999999999999,0.750000000000003,1.099999999999997));
#709=VERTEX_POINT('',#708);
#710=CARTESIAN_POINT('',(1.749999999999999,0.750000000000003,1.099999999999997));
#711=DIRECTION('',(0.0,1.0,0.0));
#712=VECTOR('',#711,1.049999999999998);
#713=LINE('',#710,#712);
#714=EDGE_CURVE('',#709,#701,#713,.T.);
#715=ORIENTED_EDGE('',*,*,#714,.F.);
#716=CARTESIAN_POINT('',(1.749999999999999,0.450000000000001,1.399999999999998));
#717=VERTEX_POINT('',#716);
#718=CARTESIAN_POINT('',(1.749999999999999,0.450000000000001,1.399999999999997));
#719=DIRECTION('',(0.0,0.707106781186551,-0.707106781186544));
#720=VECTOR('',#719,0.42426406871193);
#721=LINE('',#718,#720);
#722=EDGE_CURVE('',#717,#709,#721,.T.);
#723=ORIENTED_EDGE('',*,*,#722,.F.);
#724=CARTESIAN_POINT('',(1.75,-0.899999999999999,1.399999999999998));
#725=VERTEX_POINT('',#724);
#726=CARTESIAN_POINT('',(1.75,-0.899999999999999,1.399999999999998));
#727=DIRECTION('',(0.0,1.0,0.0));
#728=VECTOR('',#727,1.35);
#729=LINE('',#726,#728);
#730=EDGE_CURVE('',#725,#717,#729,.T.);
#731=ORIENTED_EDGE('',*,*,#730,.F.);
#732=CARTESIAN_POINT('',(1.75,-0.899999999999999,1.699999999999998));
#733=VERTEX_POINT('',#732);
#734=CARTESIAN_POINT('',(1.75,-0.899999999999999,1.399999999999998));
#735=DIRECTION('',(0.0,0.0,1.0));
#736=VECTOR('',#735,0.3);
#737=LINE('',#734,#736);
#738=EDGE_CURVE('',#725,#733,#737,.T.);
#739=ORIENTED_EDGE('',*,*,#738,.T.);
#740=CARTESIAN_POINT('',(1.75,-0.899999999999999,1.699999999999998));
#741=DIRECTION('',(0.0,-1.0,0.0));
#742=VECTOR('',#741,0.400000000000001);
#743=LINE('',#740,#742);
#744=EDGE_CURVE('',#733,#317,#743,.T.);
#745=ORIENTED_EDGE('',*,*,#744,.T.);
#746=ORIENTED_EDGE('',*,*,#322,.T.);
#747=ORIENTED_EDGE('',*,*,#609,.F.);
#748=CARTESIAN_POINT('',(1.75,-0.899999999999999,2.699999999999997));
#749=DIRECTION('',(0.0,0.0,1.0));
#750=VECTOR('',#749,1.8);
#751=LINE('',#748,#750);
#752=EDGE_CURVE('',#598,#403,#751,.T.);
#753=ORIENTED_EDGE('',*,*,#752,.T.);
#754=EDGE_LOOP('',(#695,#696,#697,#698,#699,#707,#715,#723,#731,#739,#745,#746,#747,#753));
#755=FACE_OUTER_BOUND('',#754,.T.);
#756=ADVANCED_FACE('',(#755),#694,.F.);
#757=CARTESIAN_POINT('',(-1.785000000000001,-0.88,2.699999999999997));
#758=DIRECTION('',(0.0,0.0,1.0));
#759=DIRECTION('',(0.0,-1.0,0.0));
#760=AXIS2_PLACEMENT_3D('',#757,#758,#759);
#761=PLANE('',#760);
#762=CARTESIAN_POINT('',(-1.049999999999999,-0.9,2.699999999999997));
#763=VERTEX_POINT('',#762);
#764=CARTESIAN_POINT('',(-1.749999999999999,-0.900000000000001,2.699999999999997));
#765=DIRECTION('',(1.0,0.0,0.0));
#766=VECTOR('',#765,0.7);
#767=LINE('',#764,#766);
#768=EDGE_CURVE('',#625,#763,#767,.T.);
#769=ORIENTED_EDGE('',*,*,#768,.T.);
#770=CARTESIAN_POINT('',(-1.049999999999999,-0.9,2.699999999999997));
#771=DIRECTION('',(0.0,-1.0,0.0));
#772=VECTOR('',#771,0.4);
#773=LINE('',#770,#772);
#774=EDGE_CURVE('',#763,#267,#773,.T.);
#775=ORIENTED_EDGE('',*,*,#774,.T.);
#776=ORIENTED_EDGE('',*,*,#294,.T.);
#777=ORIENTED_EDGE('',*,*,#636,.F.);
#778=EDGE_LOOP('',(#769,#775,#776,#777));
#779=FACE_OUTER_BOUND('',#778,.T.);
#780=ADVANCED_FACE('',(#779),#761,.F.);
#781=CARTESIAN_POINT('',(1.015,-1.32,1.699999999999998));
#782=DIRECTION('',(0.0,0.0,-1.0));
#783=DIRECTION('',(0.0,1.0,0.0));
#784=AXIS2_PLACEMENT_3D('',#781,#782,#783);
#785=PLANE('',#784);
#786=CARTESIAN_POINT('',(1.75,-0.899999999999999,1.699999999999998));
#787=DIRECTION('',(-1.0,0.0,0.0));
#788=VECTOR('',#787,0.7);
#789=LINE('',#786,#788);
#790=EDGE_CURVE('',#733,#567,#789,.T.);
#791=ORIENTED_EDGE('',*,*,#790,.T.);
#792=ORIENTED_EDGE('',*,*,#587,.T.);
#793=ORIENTED_EDGE('',*,*,#328,.T.);
#794=ORIENTED_EDGE('',*,*,#744,.F.);
#795=EDGE_LOOP('',(#791,#792,#793,#794));
#796=FACE_OUTER_BOUND('',#795,.T.);
#797=ADVANCED_FACE('',(#796),#785,.F.);
#798=CARTESIAN_POINT('',(-1.784999999999999,-1.320000000000001,1.699999999999998));
#799=DIRECTION('',(0.0,0.0,-1.0));
#800=DIRECTION('',(0.0,1.0,0.0));
#801=AXIS2_PLACEMENT_3D('',#798,#799,#800);
#802=PLANE('',#801);
#803=CARTESIAN_POINT('',(-1.049999999999999,-0.9,1.699999999999998));
#804=VERTEX_POINT('',#803);
#805=CARTESIAN_POINT('',(-1.049999999999999,-0.9,1.699999999999998));
#806=DIRECTION('',(-1.0,0.0,0.0));
#807=VECTOR('',#806,0.7);
#808=LINE('',#805,#807);
#809=EDGE_CURVE('',#804,#640,#808,.T.);
#810=ORIENTED_EDGE('',*,*,#809,.T.);
#811=ORIENTED_EDGE('',*,*,#645,.T.);
#812=ORIENTED_EDGE('',*,*,#280,.T.);
#813=CARTESIAN_POINT('',(-1.049999999999999,-0.9,1.699999999999998));
#814=DIRECTION('',(0.0,-1.0,0.0));
#815=VECTOR('',#814,0.4);
#816=LINE('',#813,#815);
#817=EDGE_CURVE('',#804,#265,#816,.T.);
#818=ORIENTED_EDGE('',*,*,#817,.F.);
#819=EDGE_LOOP('',(#810,#811,#812,#818));
#820=FACE_OUTER_BOUND('',#819,.T.);
#821=ADVANCED_FACE('',(#820),#802,.F.);
#822=CARTESIAN_POINT('',(-1.049999999999999,-0.88,1.649999999999998));
#823=DIRECTION('',(1.0,0.0,0.0));
#824=DIRECTION('',(0.0,1.0,0.0));
#825=AXIS2_PLACEMENT_3D('',#822,#823,#824);
#826=PLANE('',#825);
#827=CARTESIAN_POINT('',(-1.049999999999999,-0.9,2.699999999999997));
#828=DIRECTION('',(0.0,0.0,-1.0));
#829=VECTOR('',#828,1.0);
#830=LINE('',#827,#829);
#831=EDGE_CURVE('',#763,#804,#830,.T.);
#832=ORIENTED_EDGE('',*,*,#831,.T.);
#833=ORIENTED_EDGE('',*,*,#817,.T.);
#834=ORIENTED_EDGE('',*,*,#272,.T.);
#835=ORIENTED_EDGE('',*,*,#774,.F.);
#836=EDGE_LOOP('',(#832,#833,#834,#835));
#837=FACE_OUTER_BOUND('',#836,.T.);
#838=ADVANCED_FACE('',(#837),#826,.F.);
#839=CARTESIAN_POINT('',(-1.925000000000001,-0.900000000000001,1.244999999999997));
#840=DIRECTION('',(0.0,-1.0,0.0));
#841=DIRECTION('',(1.0,0.0,0.0));
#842=AXIS2_PLACEMENT_3D('',#839,#840,#841);
#843=PLANE('',#842);
#844=ORIENTED_EDGE('',*,*,#752,.F.);
#845=ORIENTED_EDGE('',*,*,#603,.F.);
#846=ORIENTED_EDGE('',*,*,#574,.F.);
#847=ORIENTED_EDGE('',*,*,#790,.F.);
#848=ORIENTED_EDGE('',*,*,#738,.F.);
#849=CARTESIAN_POINT('',(-1.749999999999999,-0.900000000000001,1.399999999999998));
#850=DIRECTION('',(1.0,0.0,0.0));
#851=VECTOR('',#850,3.499999999999999);
#852=LINE('',#849,#851);
#853=EDGE_CURVE('',#648,#725,#852,.T.);
#854=ORIENTED_EDGE('',*,*,#853,.F.);
#855=ORIENTED_EDGE('',*,*,#653,.T.);
#856=ORIENTED_EDGE('',*,*,#809,.F.);
#857=ORIENTED_EDGE('',*,*,#831,.F.);
#858=ORIENTED_EDGE('',*,*,#768,.F.);
#859=ORIENTED_EDGE('',*,*,#630,.T.);
#860=ORIENTED_EDGE('',*,*,#416,.T.);
#861=EDGE_LOOP('',(#844,#845,#846,#847,#848,#854,#855,#856,#857,#858,#859,#860));
#862=FACE_OUTER_BOUND('',#861,.T.);
#863=ADVANCED_FACE('',(#862),#843,.F.);
#864=CARTESIAN_POINT('',(1.924999999999999,1.800000000000001,0.929999999999998));
#865=DIRECTION('',(0.0,1.0,0.0));
#866=DIRECTION('',(-1.0,0.0,0.0));
#867=AXIS2_PLACEMENT_3D('',#864,#865,#866);
#868=PLANE('',#867);
#869=ORIENTED_EDGE('',*,*,#482,.T.);
#870=ORIENTED_EDGE('',*,*,#683,.F.);
#871=CARTESIAN_POINT('',(1.749999999999999,1.800000000000001,1.099999999999997));
#872=DIRECTION('',(-1.0,0.0,0.0));
#873=VECTOR('',#872,3.499999999999999);
#874=LINE('',#871,#873);
#875=EDGE_CURVE('',#701,#672,#874,.T.);
#876=ORIENTED_EDGE('',*,*,#875,.F.);
#877=ORIENTED_EDGE('',*,*,#706,.T.);
#878=EDGE_LOOP('',(#869,#870,#876,#877));
#879=FACE_OUTER_BOUND('',#878,.T.);
#880=ADVANCED_FACE('',(#879),#868,.F.);
#881=CARTESIAN_POINT('',(-1.925,0.517500000000001,1.399999999999997));
#882=DIRECTION('',(0.0,0.0,1.0));
#883=DIRECTION('',(0.0,-1.0,0.0));
#884=AXIS2_PLACEMENT_3D('',#881,#882,#883);
#885=PLANE('',#884);
#886=ORIENTED_EDGE('',*,*,#730,.T.);
#887=CARTESIAN_POINT('',(1.749999999999999,0.450000000000001,1.399999999999998));
#888=DIRECTION('',(-1.0,0.0,0.0));
#889=VECTOR('',#888,3.499999999999999);
#890=LINE('',#887,#889);
#891=EDGE_CURVE('',#717,#656,#890,.T.);
#892=ORIENTED_EDGE('',*,*,#891,.T.);
#893=ORIENTED_EDGE('',*,*,#661,.T.);
#894=ORIENTED_EDGE('',*,*,#853,.T.);
#895=EDGE_LOOP('',(#886,#892,#893,#894));
#896=FACE_OUTER_BOUND('',#895,.T.);
#897=ADVANCED_FACE('',(#896),#885,.T.);
#898=CARTESIAN_POINT('',(-1.925,1.8525,1.099999999999997));
#899=DIRECTION('',(0.0,0.0,1.0));
#900=DIRECTION('',(0.0,-1.0,0.0));
#901=AXIS2_PLACEMENT_3D('',#898,#899,#900);
#902=PLANE('',#901);
#903=ORIENTED_EDGE('',*,*,#677,.F.);
#904=CARTESIAN_POINT('',(1.749999999999999,0.750000000000003,1.099999999999997));
#905=DIRECTION('',(-1.0,0.0,0.0));
#906=VECTOR('',#905,3.499999999999999);
#907=LINE('',#904,#906);
#908=EDGE_CURVE('',#709,#664,#907,.T.);
#909=ORIENTED_EDGE('',*,*,#908,.F.);
#910=ORIENTED_EDGE('',*,*,#714,.T.);
#911=ORIENTED_EDGE('',*,*,#875,.T.);
#912=EDGE_LOOP('',(#903,#909,#910,#911));
#913=FACE_OUTER_BOUND('',#912,.T.);
#914=ADVANCED_FACE('',(#913),#902,.T.);
#915=CARTESIAN_POINT('',(-1.924999999999999,0.765000000000003,1.084999999999997));
#916=DIRECTION('',(-1.570092E-016,0.707106781186544,0.707106781186551));
#917=DIRECTION('',(-1.0,0.0,0.0));
#918=AXIS2_PLACEMENT_3D('',#915,#916,#917);
#919=PLANE('',#918);
#920=ORIENTED_EDGE('',*,*,#669,.F.);
#921=ORIENTED_EDGE('',*,*,#891,.F.);
#922=ORIENTED_EDGE('',*,*,#722,.T.);
#923=ORIENTED_EDGE('',*,*,#908,.T.);
#924=EDGE_LOOP('',(#920,#921,#922,#923));
#925=FACE_OUTER_BOUND('',#924,.T.);
#926=ADVANCED_FACE('',(#925),#919,.T.);
#927=CLOSED_SHELL('',(#104,#167,#191,#247,#332,#363,#394,#436,#453,#495,#519,#543,#560,#591,#615,#689,#756,#780,#797,#821,#838,#863,#880,#897,#914,#926));
#928=MANIFOLD_SOLID_BREP('2BD4',#927);
#929=DRAUGHTING_PRE_DEFINED_COLOUR('white');
#930=SURFACE_STYLE_USAGE(.BOTH.,#931);
#931=SURFACE_SIDE_STYLE('NONE',(#932));
#932=SURFACE_STYLE_FILL_AREA(#933);
#933=FILL_AREA_STYLE('NONE',(#934));
#934=FILL_AREA_STYLE_COLOUR('NONE',#929);
#935=PRESENTATION_STYLE_ASSIGNMENT((#930));
#936=STYLED_ITEM('NONE',(#935),#928);
#937=MECHANICAL_DESIGN_GEOMETRIC_PRESENTATION_REPRESENTATION('NONE',(#936,#1034,#1123,#1212,#1301),#28);
#938=PRESENTATION_LAYER_ASSIGNMENT('3D','None',(#928,#1026,#1122,#1211,#1300));
#939=CARTESIAN_POINT('',(0.75,2.220446E-016,-1.350000000000001));
#940=DIRECTION('',(0.0,-1.224647E-016,-1.0));
#941=DIRECTION('',(1.0,0.0,0.0));
#942=AXIS2_PLACEMENT_3D('',#939,#940,#941);
#943=CYLINDRICAL_SURFACE('',#942,0.25);
#944=CARTESIAN_POINT('',(1.0,5.671729E-017,-2.700000000000003));
#945=VERTEX_POINT('',#944);
#946=CARTESIAN_POINT('',(1.0,3.873719E-016,0.0));
#947=VERTEX_POINT('',#946);
#948=CARTESIAN_POINT('',(1.0,5.671729E-017,-2.700000000000003));
#949=DIRECTION('',(0.0,0.0,1.0));
#950=VECTOR('',#949,2.700000000000003);
#951=LINE('',#948,#950);
#952=EDGE_CURVE('',#945,#947,#951,.T.);
#953=ORIENTED_EDGE('',*,*,#952,.F.);
#954=CARTESIAN_POINT('',(0.5,8.733346E-017,-2.700000000000003));
#955=VERTEX_POINT('',#954);
#956=CARTESIAN_POINT('',(0.75,5.671729E-017,-2.700000000000003));
#957=DIRECTION('',(0.0,0.0,-1.0));
#958=DIRECTION('',(1.0,0.0,0.0));
#959=AXIS2_PLACEMENT_3D('',#956,#957,#958);
#960=CIRCLE('',#959,0.25);
#961=EDGE_CURVE('',#955,#945,#960,.T.);
#962=ORIENTED_EDGE('',*,*,#961,.F.);
#963=CARTESIAN_POINT('',(0.5,4.179881E-016,0.0));
#964=VERTEX_POINT('',#963);
#965=CARTESIAN_POINT('',(0.5,8.733346E-017,-2.700000000000003));
#966=DIRECTION('',(0.0,0.0,1.0));
#967=VECTOR('',#966,2.700000000000003);
#968=LINE('',#965,#967);
#969=EDGE_CURVE('',#955,#964,#968,.T.);
#970=ORIENTED_EDGE('',*,*,#969,.T.);
#971=CARTESIAN_POINT('',(0.75,3.873719E-016,0.0));
#972=DIRECTION('',(0.0,0.0,1.0));
#973=DIRECTION('',(1.0,0.0,0.0));
#974=AXIS2_PLACEMENT_3D('',#971,#972,#973);
#975=CIRCLE('',#974,0.25);
#976=EDGE_CURVE('',#947,#964,#975,.T.);
#977=ORIENTED_EDGE('',*,*,#976,.F.);
#978=EDGE_LOOP('',(#953,#962,#970,#977));
#979=FACE_OUTER_BOUND('',#978,.T.);
#980=ADVANCED_FACE('',(#979),#943,.T.);
#981=CARTESIAN_POINT('',(0.75,2.220446E-016,-1.350000000000001));
#982=DIRECTION('',(0.0,-1.224647E-016,-1.0));
#983=DIRECTION('',(1.0,0.0,0.0));
#984=AXIS2_PLACEMENT_3D('',#981,#982,#983);
#985=CYLINDRICAL_SURFACE('',#984,0.25);
#986=ORIENTED_EDGE('',*,*,#952,.T.);
#987=CARTESIAN_POINT('',(0.75,3.873719E-016,0.0));
#988=DIRECTION('',(0.0,0.0,1.0));
#989=DIRECTION('',(1.0,0.0,0.0));
#990=AXIS2_PLACEMENT_3D('',#987,#988,#989);
#991=CIRCLE('',#990,0.25);
#992=EDGE_CURVE('',#964,#947,#991,.T.);
#993=ORIENTED_EDGE('',*,*,#992,.F.);
#994=ORIENTED_EDGE('',*,*,#969,.F.);
#995=CARTESIAN_POINT('',(0.75,5.671729E-017,-2.700000000000003));
#996=DIRECTION('',(0.0,0.0,-1.0));
#997=DIRECTION('',(1.0,0.0,0.0));
#998=AXIS2_PLACEMENT_3D('',#995,#996,#997);
#999=CIRCLE('',#998,0.25);
#1000=EDGE_CURVE('',#945,#955,#999,.T.);
#1001=ORIENTED_EDGE('',*,*,#1000,.F.);
#1002=EDGE_LOOP('',(#986,#993,#994,#1001));
#1003=FACE_OUTER_BOUND('',#1002,.T.);
#1004=ADVANCED_FACE('',(#1003),#985,.T.);
#1005=CARTESIAN_POINT('',(0.75,3.873719E-016,0.0));
#1006=DIRECTION('',(0.0,0.0,1.0));
#1007=DIRECTION('',(-1.0,0.0,0.0));
#1008=AXIS2_PLACEMENT_3D('',#1005,#1006,#1007);
#1009=PLANE('',#1008);
#1010=ORIENTED_EDGE('',*,*,#976,.T.);
#1011=ORIENTED_EDGE('',*,*,#992,.T.);
#1012=EDGE_LOOP('',(#1010,#1011));
#1013=FACE_OUTER_BOUND('',#1012,.T.);
#1014=ADVANCED_FACE('',(#1013),#1009,.T.);
#1015=CARTESIAN_POINT('',(0.75,5.671729E-017,-2.700000000000003));
#1016=DIRECTION('',(0.0,0.0,-1.0));
#1017=DIRECTION('',(1.0,0.0,0.0));
#1018=AXIS2_PLACEMENT_3D('',#1015,#1016,#1017);
#1019=PLANE('',#1018);
#1020=ORIENTED_EDGE('',*,*,#1000,.T.);
#1021=ORIENTED_EDGE('',*,*,#961,.T.);
#1022=EDGE_LOOP('',(#1020,#1021));
#1023=FACE_OUTER_BOUND('',#1022,.T.);
#1024=ADVANCED_FACE('',(#1023),#1019,.T.);
#1025=CLOSED_SHELL('',(#980,#1004,#1014,#1024));
#1026=MANIFOLD_SOLID_BREP('2BC0',#1025);
#1027=COLOUR_RGB('253',0.732,0.732,0.732);
#1028=SURFACE_STYLE_USAGE(.BOTH.,#1029);
#1029=SURFACE_SIDE_STYLE('NONE',(#1030));
#1030=SURFACE_STYLE_FILL_AREA(#1031);
#1031=FILL_AREA_STYLE('NONE',(#1032));
#1032=FILL_AREA_STYLE_COLOUR('NONE',#1027);
#1033=PRESENTATION_STYLE_ASSIGNMENT((#1028));
#1034=STYLED_ITEM('NONE',(#1033),#1026);
#1035=CARTESIAN_POINT('',(-0.75,-2.220446E-016,-1.350000000000001));
#1036=DIRECTION('',(0.0,-1.224647E-016,-1.0));
#1037=DIRECTION('',(1.0,0.0,0.0));
#1038=AXIS2_PLACEMENT_3D('',#1035,#1036,#1037);
#1039=CYLINDRICAL_SURFACE('',#1038,0.25);
#1040=CARTESIAN_POINT('',(-0.5,-3.873719E-016,-2.700000000000003));
#1041=VERTEX_POINT('',#1040);
#1042=CARTESIAN_POINT('',(-0.5,-5.671729E-017,0.0));
#1043=VERTEX_POINT('',#1042);
#1044=CARTESIAN_POINT('',(-0.5,-3.873719E-016,-2.700000000000003));
#1045=DIRECTION('',(0.0,0.0,1.0));
#1046=VECTOR('',#1045,2.700000000000003);
#1047=LINE('',#1044,#1046);
#1048=EDGE_CURVE('',#1041,#1043,#1047,.T.);
#1049=ORIENTED_EDGE('',*,*,#1048,.F.);
#1050=CARTESIAN_POINT('',(-1.0,-3.567558E-016,-2.700000000000003));
#1051=VERTEX_POINT('',#1050);
#1052=CARTESIAN_POINT('',(-0.75,-3.873719E-016,-2.700000000000003));
#1053=DIRECTION('',(0.0,0.0,-1.0));
#1054=DIRECTION('',(1.0,0.0,0.0));
#1055=AXIS2_PLACEMENT_3D('',#1052,#1053,#1054);
#1056=CIRCLE('',#1055,0.25);
#1057=EDGE_CURVE('',#1051,#1041,#1056,.T.);
#1058=ORIENTED_EDGE('',*,*,#1057,.F.);
#1059=CARTESIAN_POINT('',(-1.0,-2.610112E-017,0.0));
#1060=VERTEX_POINT('',#1059);
#1061=CARTESIAN_POINT('',(-1.0,-3.567558E-016,-2.700000000000003));
#1062=DIRECTION('',(0.0,0.0,1.0));
#1063=VECTOR('',#1062,2.700000000000003);
#1064=LINE('',#1061,#1063);
#1065=EDGE_CURVE('',#1051,#1060,#1064,.T.);
#1066=ORIENTED_EDGE('',*,*,#1065,.T.);
#1067=CARTESIAN_POINT('',(-0.75,-5.671729E-017,0.0));
#1068=DIRECTION('',(0.0,0.0,1.0));
#1069=DIRECTION('',(1.0,0.0,0.0));
#1070=AXIS2_PLACEMENT_3D('',#1067,#1068,#1069);
#1071=CIRCLE('',#1070,0.25);
#1072=EDGE_CURVE('',#1043,#1060,#1071,.T.);
#1073=ORIENTED_EDGE('',*,*,#1072,.F.);
#1074=EDGE_LOOP('',(#1049,#1058,#1066,#1073));
#1075=FACE_OUTER_BOUND('',#1074,.T.);
#1076=ADVANCED_FACE('',(#1075),#1039,.T.);
#1077=CARTESIAN_POINT('',(-0.75,-2.220446E-016,-1.350000000000001));
#1078=DIRECTION('',(0.0,-1.224647E-016,-1.0));
#1079=DIRECTION('',(1.0,0.0,0.0));
#1080=AXIS2_PLACEMENT_3D('',#1077,#1078,#1079);
#1081=CYLINDRICAL_SURFACE('',#1080,0.25);
#1082=ORIENTED_EDGE('',*,*,#1048,.T.);
#1083=CARTESIAN_POINT('',(-0.75,-5.671729E-017,0.0));
#1084=DIRECTION('',(0.0,0.0,1.0));
#1085=DIRECTION('',(1.0,0.0,0.0));
#1086=AXIS2_PLACEMENT_3D('',#1083,#1084,#1085);
#1087=CIRCLE('',#1086,0.25);
#1088=EDGE_CURVE('',#1060,#1043,#1087,.T.);
#1089=ORIENTED_EDGE('',*,*,#1088,.F.);
#1090=ORIENTED_EDGE('',*,*,#1065,.F.);
#1091=CARTESIAN_POINT('',(-0.75,-3.873719E-016,-2.700000000000003));
#1092=DIRECTION('',(0.0,0.0,-1.0));
#1093=DIRECTION('',(1.0,0.0,0.0));
#1094=AXIS2_PLACEMENT_3D('',#1091,#1092,#1093);
#1095=CIRCLE('',#1094,0.25);
#1096=EDGE_CURVE('',#1041,#1051,#1095,.T.);
#1097=ORIENTED_EDGE('',*,*,#1096,.F.);
#1098=EDGE_LOOP('',(#1082,#1089,#1090,#1097));
#1099=FACE_OUTER_BOUND('',#1098,.T.);
#1100=ADVANCED_FACE('',(#1099),#1081,.T.);
#1101=CARTESIAN_POINT('',(-0.75,-5.671729E-017,0.0));
#1102=DIRECTION('',(0.0,0.0,1.0));
#1103=DIRECTION('',(-1.0,0.0,0.0));
#1104=AXIS2_PLACEMENT_3D('',#1101,#1102,#1103);
#1105=PLANE('',#1104);
#1106=ORIENTED_EDGE('',*,*,#1072,.T.);
#1107=ORIENTED_EDGE('',*,*,#1088,.T.);
#1108=EDGE_LOOP('',(#1106,#1107));
#1109=FACE_OUTER_BOUND('',#1108,.T.);
#1110=ADVANCED_FACE('',(#1109),#1105,.T.);
#1111=CARTESIAN_POINT('',(-0.75,-3.873719E-016,-2.700000000000003));
#1112=DIRECTION('',(0.0,0.0,-1.0));
#1113=DIRECTION('',(1.0,0.0,0.0));
#1114=AXIS2_PLACEMENT_3D('',#1111,#1112,#1113);
#1115=PLANE('',#1114);
#1116=ORIENTED_EDGE('',*,*,#1096,.T.);
#1117=ORIENTED_EDGE('',*,*,#1057,.T.);
#1118=EDGE_LOOP('',(#1116,#1117));
#1119=FACE_OUTER_BOUND('',#1118,.T.);
#1120=ADVANCED_FACE('',(#1119),#1115,.T.);
#1121=CLOSED_SHELL('',(#1076,#1100,#1110,#1120));
#1122=MANIFOLD_SOLID_BREP('2BBC',#1121);
#1123=STYLED_ITEM('NONE',(#1033),#1122);
#1124=CARTESIAN_POINT('',(0.75,4.440892E-016,2.599999999999997));
#1125=DIRECTION('',(0.0,-1.224647E-016,-1.0));
#1126=DIRECTION('',(1.0,0.0,0.0));
#1127=AXIS2_PLACEMENT_3D('',#1124,#1125,#1126);
#1128=CYLINDRICAL_SURFACE('',#1127,0.25);
#1129=CARTESIAN_POINT('',(1.0,2.971316E-016,1.399999999999997));
#1130=VERTEX_POINT('',#1129);
#1131=CARTESIAN_POINT('',(1.0,5.910468E-016,3.799999999999997));
#1132=VERTEX_POINT('',#1131);
#1133=CARTESIAN_POINT('',(1.0,2.971316E-016,1.399999999999997));
#1134=DIRECTION('',(0.0,0.0,1.0));
#1135=VECTOR('',#1134,2.4);
#1136=LINE('',#1133,#1135);
#1137=EDGE_CURVE('',#1130,#1132,#1136,.T.);
#1138=ORIENTED_EDGE('',*,*,#1137,.F.);
#1139=CARTESIAN_POINT('',(0.5,3.277478E-016,1.399999999999997));
#1140=VERTEX_POINT('',#1139);
#1141=CARTESIAN_POINT('',(0.75,2.971316E-016,1.399999999999997));
#1142=DIRECTION('',(0.0,0.0,-1.0));
#1143=DIRECTION('',(1.0,0.0,0.0));
#1144=AXIS2_PLACEMENT_3D('',#1141,#1142,#1143);
#1145=CIRCLE('',#1144,0.25);
#1146=EDGE_CURVE('',#1140,#1130,#1145,.T.);
#1147=ORIENTED_EDGE('',*,*,#1146,.F.);
#1148=CARTESIAN_POINT('',(0.5,6.216630E-016,3.799999999999997));
#1149=VERTEX_POINT('',#1148);
#1150=CARTESIAN_POINT('',(0.5,3.277478E-016,1.399999999999997));
#1151=DIRECTION('',(0.0,0.0,1.0));
#1152=VECTOR('',#1151,2.4);
#1153=LINE('',#1150,#1152);
#1154=EDGE_CURVE('',#1140,#1149,#1153,.T.);
#1155=ORIENTED_EDGE('',*,*,#1154,.T.);
#1156=CARTESIAN_POINT('',(0.75,5.910468E-016,3.799999999999997));
#1157=DIRECTION('',(0.0,0.0,1.0));
#1158=DIRECTION('',(1.0,0.0,0.0));
#1159=AXIS2_PLACEMENT_3D('',#1156,#1157,#1158);
#1160=CIRCLE('',#1159,0.25);
#1161=EDGE_CURVE('',#1132,#1149,#1160,.T.);
#1162=ORIENTED_EDGE('',*,*,#1161,.F.);
#1163=EDGE_LOOP('',(#1138,#1147,#1155,#1162));
#1164=FACE_OUTER_BOUND('',#1163,.T.);
#1165=ADVANCED_FACE('',(#1164),#1128,.T.);
#1166=CARTESIAN_POINT('',(0.75,4.440892E-016,2.599999999999997));
#1167=DIRECTION('',(0.0,-1.224647E-016,-1.0));
#1168=DIRECTION('',(1.0,0.0,0.0));
#1169=AXIS2_PLACEMENT_3D('',#1166,#1167,#1168);
#1170=CYLINDRICAL_SURFACE('',#1169,0.25);
#1171=ORIENTED_EDGE('',*,*,#1137,.T.);
#1172=CARTESIAN_POINT('',(0.75,5.910468E-016,3.799999999999997));
#1173=DIRECTION('',(0.0,0.0,1.0));
#1174=DIRECTION('',(1.0,0.0,0.0));
#1175=AXIS2_PLACEMENT_3D('',#1172,#1173,#1174);
#1176=CIRCLE('',#1175,0.25);
#1177=EDGE_CURVE('',#1149,#1132,#1176,.T.);
#1178=ORIENTED_EDGE('',*,*,#1177,.F.);
#1179=ORIENTED_EDGE('',*,*,#1154,.F.);
#1180=CARTESIAN_POINT('',(0.75,2.971316E-016,1.399999999999997));
#1181=DIRECTION('',(0.0,0.0,-1.0));
#1182=DIRECTION('',(1.0,0.0,0.0));
#1183=AXIS2_PLACEMENT_3D('',#1180,#1181,#1182);
#1184=CIRCLE('',#1183,0.25);
#1185=EDGE_CURVE('',#1130,#1140,#1184,.T.);
#1186=ORIENTED_EDGE('',*,*,#1185,.F.);
#1187=EDGE_LOOP('',(#1171,#1178,#1179,#1186));
#1188=FACE_OUTER_BOUND('',#1187,.T.);
#1189=ADVANCED_FACE('',(#1188),#1170,.T.);
#1190=CARTESIAN_POINT('',(0.75,5.910468E-016,3.799999999999997));
#1191=DIRECTION('',(0.0,0.0,1.0));
#1192=DIRECTION('',(-1.0,0.0,0.0));
#1193=AXIS2_PLACEMENT_3D('',#1190,#1191,#1192);
#1194=PLANE('',#1193);
#1195=ORIENTED_EDGE('',*,*,#1161,.T.);
#1196=ORIENTED_EDGE('',*,*,#1177,.T.);
#1197=EDGE_LOOP('',(#1195,#1196));
#1198=FACE_OUTER_BOUND('',#1197,.T.);
#1199=ADVANCED_FACE('',(#1198),#1194,.T.);
#1200=CARTESIAN_POINT('',(0.75,2.971316E-016,1.399999999999997));
#1201=DIRECTION('',(0.0,0.0,-1.0));
#1202=DIRECTION('',(1.0,0.0,0.0));
#1203=AXIS2_PLACEMENT_3D('',#1200,#1201,#1202);
#1204=PLANE('',#1203);
#1205=ORIENTED_EDGE('',*,*,#1185,.T.);
#1206=ORIENTED_EDGE('',*,*,#1146,.T.);
#1207=EDGE_LOOP('',(#1205,#1206));
#1208=FACE_OUTER_BOUND('',#1207,.T.);
#1209=ADVANCED_FACE('',(#1208),#1204,.T.);
#1210=CLOSED_SHELL('',(#1165,#1189,#1199,#1209));
#1211=MANIFOLD_SOLID_BREP('2BB8',#1210);
#1212=STYLED_ITEM('NONE',(#1033),#1211);
#1213=CARTESIAN_POINT('',(-0.75,0.0,2.599999999999997));
#1214=DIRECTION('',(0.0,-1.224647E-016,-1.0));
#1215=DIRECTION('',(1.0,0.0,0.0));
#1216=AXIS2_PLACEMENT_3D('',#1213,#1214,#1215);
#1217=CYLINDRICAL_SURFACE('',#1216,0.25);
#1218=CARTESIAN_POINT('',(-0.5,-1.469576E-016,1.399999999999997));
#1219=VERTEX_POINT('',#1218);
#1220=CARTESIAN_POINT('',(-0.5,1.469576E-016,3.799999999999997));
#1221=VERTEX_POINT('',#1220);
#1222=CARTESIAN_POINT('',(-0.5,-1.469576E-016,1.399999999999997));
#1223=DIRECTION('',(0.0,0.0,1.0));
#1224=VECTOR('',#1223,2.4);
#1225=LINE('',#1222,#1224);
#1226=EDGE_CURVE('',#1219,#1221,#1225,.T.);
#1227=ORIENTED_EDGE('',*,*,#1226,.F.);
#1228=CARTESIAN_POINT('',(-1.0,-1.163414E-016,1.399999999999997));
#1229=VERTEX_POINT('',#1228);
#1230=CARTESIAN_POINT('',(-0.75,-1.469576E-016,1.399999999999997));
#1231=DIRECTION('',(0.0,0.0,-1.0));
#1232=DIRECTION('',(1.0,0.0,0.0));
#1233=AXIS2_PLACEMENT_3D('',#1230,#1231,#1232);
#1234=CIRCLE('',#1233,0.25);
#1235=EDGE_CURVE('',#1229,#1219,#1234,.T.);
#1236=ORIENTED_EDGE('',*,*,#1235,.F.);
#1237=CARTESIAN_POINT('',(-1.0,1.775738E-016,3.799999999999997));
#1238=VERTEX_POINT('',#1237);
#1239=CARTESIAN_POINT('',(-1.0,-1.163414E-016,1.399999999999997));
#1240=DIRECTION('',(0.0,0.0,1.0));
#1241=VECTOR('',#1240,2.4);
#1242=LINE('',#1239,#1241);
#1243=EDGE_CURVE('',#1229,#1238,#1242,.T.);
#1244=ORIENTED_EDGE('',*,*,#1243,.T.);
#1245=CARTESIAN_POINT('',(-0.75,1.469576E-016,3.799999999999997));
#1246=DIRECTION('',(0.0,0.0,1.0));
#1247=DIRECTION('',(1.0,0.0,0.0));
#1248=AXIS2_PLACEMENT_3D('',#1245,#1246,#1247);
#1249=CIRCLE('',#1248,0.25);
#1250=EDGE_CURVE('',#1221,#1238,#1249,.T.);
#1251=ORIENTED_EDGE('',*,*,#1250,.F.);
#1252=EDGE_LOOP('',(#1227,#1236,#1244,#1251));
#1253=FACE_OUTER_BOUND('',#1252,.T.);
#1254=ADVANCED_FACE('',(#1253),#1217,.T.);
#1255=CARTESIAN_POINT('',(-0.75,0.0,2.599999999999997));
#1256=DIRECTION('',(0.0,-1.224647E-016,-1.0));
#1257=DIRECTION('',(1.0,0.0,0.0));
#1258=AXIS2_PLACEMENT_3D('',#1255,#1256,#1257);
#1259=CYLINDRICAL_SURFACE('',#1258,0.25);
#1260=ORIENTED_EDGE('',*,*,#1226,.T.);
#1261=CARTESIAN_POINT('',(-0.75,1.469576E-016,3.799999999999997));
#1262=DIRECTION('',(0.0,0.0,1.0));
#1263=DIRECTION('',(1.0,0.0,0.0));
#1264=AXIS2_PLACEMENT_3D('',#1261,#1262,#1263);
#1265=CIRCLE('',#1264,0.25);
#1266=EDGE_CURVE('',#1238,#1221,#1265,.T.);
#1267=ORIENTED_EDGE('',*,*,#1266,.F.);
#1268=ORIENTED_EDGE('',*,*,#1243,.F.);
#1269=CARTESIAN_POINT('',(-0.75,-1.469576E-016,1.399999999999997));
#1270=DIRECTION('',(0.0,0.0,-1.0));
#1271=DIRECTION('',(1.0,0.0,0.0));
#1272=AXIS2_PLACEMENT_3D('',#1269,#1270,#1271);
#1273=CIRCLE('',#1272,0.25);
#1274=EDGE_CURVE('',#1219,#1229,#1273,.T.);
#1275=ORIENTED_EDGE('',*,*,#1274,.F.);
#1276=EDGE_LOOP('',(#1260,#1267,#1268,#1275));
#1277=FACE_OUTER_BOUND('',#1276,.T.);
#1278=ADVANCED_FACE('',(#1277),#1259,.T.);
#1279=CARTESIAN_POINT('',(-0.75,1.469576E-016,3.799999999999997));
#1280=DIRECTION('',(0.0,0.0,1.0));
#1281=DIRECTION('',(-1.0,0.0,0.0));
#1282=AXIS2_PLACEMENT_3D('',#1279,#1280,#1281);
#1283=PLANE('',#1282);
#1284=ORIENTED_EDGE('',*,*,#1250,.T.);
#1285=ORIENTED_EDGE('',*,*,#1266,.T.);
#1286=EDGE_LOOP('',(#1284,#1285));
#1287=FACE_OUTER_BOUND('',#1286,.T.);
#1288=ADVANCED_FACE('',(#1287),#1283,.T.);
#1289=CARTESIAN_POINT('',(-0.75,-1.469576E-016,1.399999999999997));
#1290=DIRECTION('',(0.0,0.0,-1.0));
#1291=DIRECTION('',(1.0,0.0,0.0));
#1292=AXIS2_PLACEMENT_3D('',#1289,#1290,#1291);
#1293=PLANE('',#1292);
#1294=ORIENTED_EDGE('',*,*,#1274,.T.);
#1295=ORIENTED_EDGE('',*,*,#1235,.T.);
#1296=EDGE_LOOP('',(#1294,#1295));
#1297=FACE_OUTER_BOUND('',#1296,.T.);
#1298=ADVANCED_FACE('',(#1297),#1293,.T.);
#1299=CLOSED_SHELL('',(#1254,#1278,#1288,#1298));
#1300=MANIFOLD_SOLID_BREP('2BB4',#1299);
#1301=STYLED_ITEM('NONE',(#1033),#1300);
#1302=ADVANCED_BREP_SHAPE_REPRESENTATION('ABSR1',(#928,#1026,#1122,#1211,#1300),#28);
#1303=SHAPE_REPRESENTATION_RELATIONSHIP('SRRPL1','',#1302,#62);
ENDSEC;
END-ISO-10303-21;
