ISO-10303-21;
HEADER;
/****************************************************************
 * Generated by software with PDE/Lib inside                    *
 * PDE/Lib Version 3.2.2, created Thu Mar 23, 2000 at 18:38:49  *
 * International Technegroup Inc. (www.iti-oh.com)              *
 ****************************************************************/
FILE_DESCRIPTION((''),'2;1');
FILE_NAME('KNB_MENTOR_1840.0021.stp','2009-03-16T12:18:46',(''),(''),'Mechanical Desktop 2006','Mechanical Desktop 2006',', , ');
FILE_SCHEMA(('AUTOMOTIVE_DESIGN { 1 2 10303 214 0 1 1 1 }'));
ENDSEC;
DATA;
#8=(NAMED_UNIT(*)PLANE_ANGLE_UNIT()SI_UNIT($,.RADIAN.));
#9=DIMENSIONAL_EXPONENTS(0.0,0.0,0.0,0.0,0.0,0.0,0.0);
#10=PLANE_ANGLE_MEASURE_WITH_UNIT(PLANE_ANGLE_MEASURE(0.017453292500000),#8);
#14=(CONVERSION_BASED_UNIT('DEGREE',#10)NAMED_UNIT(#9)PLANE_ANGLE_UNIT());
#18=(NAMED_UNIT(*)SI_UNIT($,.STERADIAN.)SOLID_ANGLE_UNIT());
#22=(LENGTH_UNIT()NAMED_UNIT(*)SI_UNIT(.MILLI.,.METRE.));
#23=UNCERTAINTY_MEASURE_WITH_UNIT(LENGTH_MEASURE(0.000001000000000),#22,'DISTANCE_ACCURACY_VALUE','');
#28=(GEOMETRIC_REPRESENTATION_CONTEXT(3)GLOBAL_UNCERTAINTY_ASSIGNED_CONTEXT((#23))GLOBAL_UNIT_ASSIGNED_CONTEXT((#14,#18,#22))REPRESENTATION_CONTEXT('None','None'));
#29=APPLICATION_CONTEXT('automotive design');
#30=APPLICATION_PROTOCOL_DEFINITION('DRAFT_INTERNATIONAL_STANDARD','automotive_design',1998,#29);
#31=PRODUCT_CONTEXT('3D Mechanical Parts',#29,'mechanical');
#32=PRODUCT('Product','Product','',(#31));
#33=PRODUCT_RELATED_PRODUCT_CATEGORY('part',$,(#32));
#34=PRODUCT_CATEGORY('part',$);
#35=PERSON('1','Design','Joe',$,$,$);
#36=ORGANIZATION($,'None','None');
#37=PERSON_AND_ORGANIZATION(#35,#36);
#38=PERSON_AND_ORGANIZATION_ROLE('design_owner');
#39=APPLIED_PERSON_AND_ORGANIZATION_ASSIGNMENT(#37,#38,(#32));
#40=PRODUCT_DEFINITION_FORMATION_WITH_SPECIFIED_SOURCE('None','',#32,.BOUGHT.);
#41=PERSON('2','Creator','Joe',$,$,$);
#42=ORGANIZATION($,'None','None');
#43=PERSON_AND_ORGANIZATION(#41,#42);
#44=PERSON_AND_ORGANIZATION_ROLE('creator');
#45=APPLIED_PERSON_AND_ORGANIZATION_ASSIGNMENT(#43,#44,(#40));
#46=PERSON('3','Supplier','Joe',$,$,$);
#47=ORGANIZATION($,'None','None');
#48=PERSON_AND_ORGANIZATION(#46,#47);
#49=PERSON_AND_ORGANIZATION_ROLE('design_supplier');
#50=APPLIED_PERSON_AND_ORGANIZATION_ASSIGNMENT(#48,#49,(#40));
#51=PRODUCT_DEFINITION_CONTEXT('part definition',#29,'design');
#52=PRODUCT_DEFINITION('None','',#40,#51);
#53=PERSON('4','Creator','Joe',$,$,$);
#54=ORGANIZATION($,'None','None');
#55=PERSON_AND_ORGANIZATION(#53,#54);
#56=PERSON_AND_ORGANIZATION_ROLE('creator');
#57=APPLIED_PERSON_AND_ORGANIZATION_ASSIGNMENT(#55,#56,(#52));
#58=CARTESIAN_POINT('NONE',(0.0,0.0,0.0));
#59=DIRECTION('NONE',(0.0,0.0,1.0));
#60=DIRECTION('NONE',(1.0,0.0,0.0));
#61=AXIS2_PLACEMENT_3D('NONE',#58,#59,#60);
#62=SHAPE_REPRESENTATION('SR1',(#61),#28);
#63=PRODUCT_DEFINITION_SHAPE('PDS1','Test Part',#52);
#64=SHAPE_DEFINITION_REPRESENTATION(#63,#62);
#65=CARTESIAN_POINT('',(2.785250000000000,0.0,5.049999999999999));
#66=DIRECTION('',(-1.0,2.220446E-016,6.123032E-017));
#67=DIRECTION('',(2.229114E-016,0.866025403784439,0.500000000000000));
#68=AXIS2_PLACEMENT_3D('',#65,#66,#67);
#69=CYLINDRICAL_SURFACE('',#68,1.500000000000000);
#70=CARTESIAN_POINT('',(2.785250000000000,1.299038105676659,5.799999999999997));
#71=VERTEX_POINT('',#70);
#72=CARTESIAN_POINT('',(-0.214750000000001,1.299038105676660,5.799999999999999));
#73=VERTEX_POINT('',#72);
#74=CARTESIAN_POINT('',(2.785250000000000,1.299038105676659,5.799999999999997));
#75=DIRECTION('',(-1.0,0.0,0.0));
#76=VECTOR('',#75,3.000000000000001);
#77=LINE('',#74,#76);
#78=EDGE_CURVE('',#71,#73,#77,.T.);
#79=ORIENTED_EDGE('',*,*,#78,.F.);
#80=CARTESIAN_POINT('',(2.785250000000000,1.451998402554891,5.426431453226272));
#81=VERTEX_POINT('',#80);
#82=CARTESIAN_POINT('',(2.785250000000000,0.0,5.049999999999999));
#83=DIRECTION('',(1.0,-1.930470E-016,-1.114557E-016));
#84=DIRECTION('',(2.229114E-016,0.866025403784439,0.500000000000000));
#85=AXIS2_PLACEMENT_3D('',#82,#83,#84);
#86=CIRCLE('',#85,1.500000000000000);
#87=EDGE_CURVE('',#81,#71,#86,.T.);
#88=ORIENTED_EDGE('',*,*,#87,.F.);
#89=CARTESIAN_POINT('',(-0.214750000000000,1.451998402554892,5.426431453226272));
#90=VERTEX_POINT('',#89);
#91=CARTESIAN_POINT('',(2.785250000000000,1.451998402554891,5.426431453226272));
#92=DIRECTION('',(-1.0,0.0,0.0));
#93=VECTOR('',#92,3.000000000000001);
#94=LINE('',#91,#93);
#95=EDGE_CURVE('',#81,#90,#94,.T.);
#96=ORIENTED_EDGE('',*,*,#95,.T.);
#97=CARTESIAN_POINT('',(-0.214750000000001,8.881784E-016,5.050000000000001));
#98=DIRECTION('',(1.0,-1.930470E-016,-1.114557E-016));
#99=DIRECTION('',(2.229114E-016,0.866025403784439,0.500000000000000));
#100=AXIS2_PLACEMENT_3D('',#97,#98,#99);
#101=CIRCLE('',#100,1.500000000000000);
#102=EDGE_CURVE('',#90,#73,#101,.T.);
#103=ORIENTED_EDGE('',*,*,#102,.T.);
#104=EDGE_LOOP('',(#79,#88,#96,#103));
#105=FACE_OUTER_BOUND('',#104,.T.);
#106=ADVANCED_FACE('',(#105),#69,.T.);
#107=CARTESIAN_POINT('',(2.785250000000000,0.0,5.049999999999999));
#108=DIRECTION('',(-1.0,2.220446E-016,6.123032E-017));
#109=DIRECTION('',(2.229114E-016,0.866025403784439,0.500000000000000));
#110=AXIS2_PLACEMENT_3D('',#107,#108,#109);
#111=CYLINDRICAL_SURFACE('',#110,0.925000000000000);
#112=CARTESIAN_POINT('',(2.785250000000000,0.801073498500606,5.512499999999998));
#113=VERTEX_POINT('',#112);
#114=CARTESIAN_POINT('',(-0.214750000000001,0.801073498500607,5.512499999999999));
#115=VERTEX_POINT('',#114);
#116=CARTESIAN_POINT('',(2.785250000000000,0.801073498500606,5.512499999999998));
#117=DIRECTION('',(-1.0,0.0,0.0));
#118=VECTOR('',#117,3.000000000000001);
#119=LINE('',#116,#118);
#120=EDGE_CURVE('',#113,#115,#119,.T.);
#121=ORIENTED_EDGE('',*,*,#120,.F.);
#122=CARTESIAN_POINT('',(2.785250000000000,0.522301010659683,5.813430844454082));
#123=VERTEX_POINT('',#122);
#124=CARTESIAN_POINT('',(2.785250000000000,0.0,5.049999999999999));
#125=DIRECTION('',(-1.0,1.930470E-016,1.114557E-016));
#126=DIRECTION('',(2.229114E-016,0.866025403784439,0.500000000000000));
#127=AXIS2_PLACEMENT_3D('',#124,#125,#126);
#128=CIRCLE('',#127,0.925000000000000);
#129=EDGE_CURVE('',#123,#113,#128,.T.);
#130=ORIENTED_EDGE('',*,*,#129,.F.);
#131=CARTESIAN_POINT('',(-0.214750000000001,0.522301010659684,5.813430844454082));
#132=VERTEX_POINT('',#131);
#133=CARTESIAN_POINT('',(2.785250000000000,0.522301010659683,5.813430844454082));
#134=DIRECTION('',(-1.0,0.0,0.0));
#135=VECTOR('',#134,3.000000000000001);
#136=LINE('',#133,#135);
#137=EDGE_CURVE('',#123,#132,#136,.T.);
#138=ORIENTED_EDGE('',*,*,#137,.T.);
#139=CARTESIAN_POINT('',(-0.214750000000001,8.881784E-016,5.050000000000001));
#140=DIRECTION('',(-1.0,1.930470E-016,1.114557E-016));
#141=DIRECTION('',(2.229114E-016,0.866025403784439,0.500000000000000));
#142=AXIS2_PLACEMENT_3D('',#139,#140,#141);
#143=CIRCLE('',#142,0.925000000000000);
#144=EDGE_CURVE('',#132,#115,#143,.T.);
#145=ORIENTED_EDGE('',*,*,#144,.T.);
#146=EDGE_LOOP('',(#121,#130,#138,#145));
#147=FACE_OUTER_BOUND('',#146,.T.);
#148=ADVANCED_FACE('',(#147),#111,.F.);
#149=CARTESIAN_POINT('',(2.785250000000000,0.0,5.049999999999999));
#150=DIRECTION('',(-1.0,2.220446E-016,6.123032E-017));
#151=DIRECTION('',(2.229114E-016,0.866025403784439,0.500000000000000));
#152=AXIS2_PLACEMENT_3D('',#149,#150,#151);
#153=CYLINDRICAL_SURFACE('',#152,0.925000000000000);
#154=ORIENTED_EDGE('',*,*,#120,.T.);
#155=CARTESIAN_POINT('',(-0.214750000000000,0.922301010659684,5.120610521426531));
#156=VERTEX_POINT('',#155);
#157=CARTESIAN_POINT('',(-0.214750000000001,8.881784E-016,5.050000000000001));
#158=DIRECTION('',(-1.0,1.930470E-016,1.114557E-016));
#159=DIRECTION('',(2.229114E-016,0.866025403784439,0.500000000000000));
#160=AXIS2_PLACEMENT_3D('',#157,#158,#159);
#161=CIRCLE('',#160,0.925000000000000);
#162=EDGE_CURVE('',#115,#156,#161,.T.);
#163=ORIENTED_EDGE('',*,*,#162,.T.);
#164=CARTESIAN_POINT('',(2.785250000000000,0.922301010659684,5.120610521426531));
#165=VERTEX_POINT('',#164);
#166=CARTESIAN_POINT('',(2.785250000000000,0.922301010659684,5.120610521426531));
#167=DIRECTION('',(-1.0,0.0,0.0));
#168=VECTOR('',#167,3.000000000000000);
#169=LINE('',#166,#168);
#170=EDGE_CURVE('',#165,#156,#169,.T.);
#171=ORIENTED_EDGE('',*,*,#170,.F.);
#172=CARTESIAN_POINT('',(2.785250000000000,0.0,5.049999999999999));
#173=DIRECTION('',(-1.0,1.930470E-016,1.114557E-016));
#174=DIRECTION('',(2.229114E-016,0.866025403784439,0.500000000000000));
#175=AXIS2_PLACEMENT_3D('',#172,#173,#174);
#176=CIRCLE('',#175,0.925000000000000);
#177=EDGE_CURVE('',#113,#165,#176,.T.);
#178=ORIENTED_EDGE('',*,*,#177,.F.);
#179=EDGE_LOOP('',(#154,#163,#171,#178));
#180=FACE_OUTER_BOUND('',#179,.T.);
#181=ADVANCED_FACE('',(#180),#153,.F.);
#182=CARTESIAN_POINT('',(2.785250000000000,0.922301010659684,5.120610521426531));
#183=DIRECTION('',(5.799529E-017,0.500000000000000,-0.866025403784439));
#184=DIRECTION('',(1.0,0.0,0.0));
#185=AXIS2_PLACEMENT_3D('',#182,#183,#184);
#186=PLANE('',#185);
#187=CARTESIAN_POINT('',(-0.214750000000000,0.922301010659684,5.120610521426531));
#188=DIRECTION('',(0.0,0.866025403784439,0.499999999999999));
#189=VECTOR('',#188,0.611641863599482);
#190=LINE('',#187,#189);
#191=EDGE_CURVE('',#156,#90,#190,.T.);
#192=ORIENTED_EDGE('',*,*,#191,.T.);
#193=ORIENTED_EDGE('',*,*,#95,.F.);
#194=CARTESIAN_POINT('',(2.785250000000000,0.922301010659684,5.120610521426531));
#195=DIRECTION('',(7.260608E-016,0.866025403784439,0.499999999999999));
#196=VECTOR('',#195,0.611641863599481);
#197=LINE('',#194,#196);
#198=EDGE_CURVE('',#165,#81,#197,.T.);
#199=ORIENTED_EDGE('',*,*,#198,.F.);
#200=ORIENTED_EDGE('',*,*,#170,.T.);
#201=EDGE_LOOP('',(#192,#193,#199,#200));
#202=FACE_OUTER_BOUND('',#201,.T.);
#203=ADVANCED_FACE('',(#202),#186,.T.);
#204=CARTESIAN_POINT('',(2.785250000000000,0.0,5.049999999999999));
#205=DIRECTION('',(-1.0,2.220446E-016,6.123032E-017));
#206=DIRECTION('',(2.229114E-016,0.866025403784439,0.500000000000000));
#207=AXIS2_PLACEMENT_3D('',#204,#205,#206);
#208=CYLINDRICAL_SURFACE('',#207,1.500000000000000);
#209=ORIENTED_EDGE('',*,*,#78,.T.);
#210=CARTESIAN_POINT('',(-0.214750000000001,1.051998402554893,6.119251776253822));
#211=VERTEX_POINT('',#210);
#212=CARTESIAN_POINT('',(-0.214750000000001,8.881784E-016,5.050000000000001));
#213=DIRECTION('',(1.0,-1.930470E-016,-1.114557E-016));
#214=DIRECTION('',(2.229114E-016,0.866025403784439,0.500000000000000));
#215=AXIS2_PLACEMENT_3D('',#212,#213,#214);
#216=CIRCLE('',#215,1.500000000000000);
#217=EDGE_CURVE('',#73,#211,#216,.T.);
#218=ORIENTED_EDGE('',*,*,#217,.T.);
#219=CARTESIAN_POINT('',(2.785250000000000,1.051998402554892,6.119251776253822));
#220=VERTEX_POINT('',#219);
#221=CARTESIAN_POINT('',(2.785250000000000,1.051998402554892,6.119251776253822));
#222=DIRECTION('',(-1.0,0.0,0.0));
#223=VECTOR('',#222,3.000000000000001);
#224=LINE('',#221,#223);
#225=EDGE_CURVE('',#220,#211,#224,.T.);
#226=ORIENTED_EDGE('',*,*,#225,.F.);
#227=CARTESIAN_POINT('',(2.785250000000000,0.0,5.049999999999999));
#228=DIRECTION('',(1.0,-1.930470E-016,-1.114557E-016));
#229=DIRECTION('',(2.229114E-016,0.866025403784439,0.500000000000000));
#230=AXIS2_PLACEMENT_3D('',#227,#228,#229);
#231=CIRCLE('',#230,1.500000000000000);
#232=EDGE_CURVE('',#71,#220,#231,.T.);
#233=ORIENTED_EDGE('',*,*,#232,.F.);
#234=EDGE_LOOP('',(#209,#218,#226,#233));
#235=FACE_OUTER_BOUND('',#234,.T.);
#236=ADVANCED_FACE('',(#235),#208,.T.);
#237=CARTESIAN_POINT('',(2.785250000000000,1.051998402554892,6.119251776253822));
#238=DIRECTION('',(-5.799529E-017,-0.500000000000000,0.866025403784439));
#239=DIRECTION('',(-1.0,0.0,0.0));
#240=AXIS2_PLACEMENT_3D('',#237,#238,#239);
#241=PLANE('',#240);
#242=CARTESIAN_POINT('',(-0.214750000000001,1.051998402554893,6.119251776253822));
#243=DIRECTION('',(0.0,-0.866025403784439,-0.499999999999999));
#244=VECTOR('',#243,0.611641863599482);
#245=LINE('',#242,#244);
#246=EDGE_CURVE('',#211,#132,#245,.T.);
#247=ORIENTED_EDGE('',*,*,#246,.T.);
#248=ORIENTED_EDGE('',*,*,#137,.F.);
#249=CARTESIAN_POINT('',(2.785250000000000,1.051998402554892,6.119251776253822));
#250=DIRECTION('',(-7.260608E-016,-0.866025403784439,-0.499999999999999));
#251=VECTOR('',#250,0.611641863599482);
#252=LINE('',#249,#251);
#253=EDGE_CURVE('',#220,#123,#252,.T.);
#254=ORIENTED_EDGE('',*,*,#253,.F.);
#255=ORIENTED_EDGE('',*,*,#225,.T.);
#256=EDGE_LOOP('',(#247,#248,#254,#255));
#257=FACE_OUTER_BOUND('',#256,.T.);
#258=ADVANCED_FACE('',(#257),#241,.T.);
#259=CARTESIAN_POINT('',(-0.214750000000001,1.007136147807403,5.631470326047205));
#260=DIRECTION('',(-1.0,0.0,0.0));
#261=DIRECTION('',(0.0,-0.866025403784439,-0.500000000000000));
#262=AXIS2_PLACEMENT_3D('',#259,#260,#261);
#263=PLANE('',#262);
#264=ORIENTED_EDGE('',*,*,#144,.F.);
#265=ORIENTED_EDGE('',*,*,#246,.F.);
#266=ORIENTED_EDGE('',*,*,#217,.F.);
#267=ORIENTED_EDGE('',*,*,#102,.F.);
#268=ORIENTED_EDGE('',*,*,#191,.F.);
#269=ORIENTED_EDGE('',*,*,#162,.F.);
#270=EDGE_LOOP('',(#264,#265,#266,#267,#268,#269));
#271=FACE_OUTER_BOUND('',#270,.T.);
#272=ADVANCED_FACE('',(#271),#263,.T.);
#273=CARTESIAN_POINT('',(2.785250000000000,1.007136147807402,5.631470326047205));
#274=DIRECTION('',(-1.0,0.0,0.0));
#275=DIRECTION('',(0.0,-0.866025403784439,-0.500000000000000));
#276=AXIS2_PLACEMENT_3D('',#273,#274,#275);
#277=PLANE('',#276);
#278=ORIENTED_EDGE('',*,*,#253,.T.);
#279=ORIENTED_EDGE('',*,*,#129,.T.);
#280=ORIENTED_EDGE('',*,*,#177,.T.);
#281=ORIENTED_EDGE('',*,*,#198,.T.);
#282=ORIENTED_EDGE('',*,*,#87,.T.);
#283=ORIENTED_EDGE('',*,*,#232,.T.);
#284=EDGE_LOOP('',(#278,#279,#280,#281,#282,#283));
#285=FACE_OUTER_BOUND('',#284,.T.);
#286=ADVANCED_FACE('',(#285),#277,.F.);
#287=CLOSED_SHELL('',(#106,#148,#181,#203,#236,#258,#272,#286));
#288=MANIFOLD_SOLID_BREP('3BF',#287);
#289=DRAUGHTING_PRE_DEFINED_COLOUR('red');
#290=SURFACE_STYLE_USAGE(.BOTH.,#291);
#291=SURFACE_SIDE_STYLE('NONE',(#292));
#292=SURFACE_STYLE_FILL_AREA(#293);
#293=FILL_AREA_STYLE('NONE',(#294));
#294=FILL_AREA_STYLE_COLOUR('NONE',#289);
#295=PRESENTATION_STYLE_ASSIGNMENT((#290));
#296=STYLED_ITEM('NONE',(#295),#288);
#297=MECHANICAL_DESIGN_GEOMETRIC_PRESENTATION_REPRESENTATION('NONE',(#296,#523,#748,#969),#28);
#298=PRESENTATION_LAYER_ASSIGNMENT('0','None',(#288,#522,#747,#968));
#299=CARTESIAN_POINT('',(2.785250000000000,0.0,5.049999999999999));
#300=DIRECTION('',(-1.0,2.220446E-016,6.123032E-017));
#301=DIRECTION('',(-1.616811E-016,-0.866025403784439,0.500000000000000));
#302=AXIS2_PLACEMENT_3D('',#299,#300,#301);
#303=CYLINDRICAL_SURFACE('',#302,1.500000000000000);
#304=CARTESIAN_POINT('',(2.785250000000000,-1.299038105676658,5.799999999999999));
#305=VERTEX_POINT('',#304);
#306=CARTESIAN_POINT('',(-0.214750000000000,-1.299038105676658,5.799999999999999));
#307=VERTEX_POINT('',#306);
#308=CARTESIAN_POINT('',(2.785250000000000,-1.299038105676658,5.799999999999999));
#309=DIRECTION('',(-1.0,0.0,0.0));
#310=VECTOR('',#309,3.0);
#311=LINE('',#308,#310);
#312=EDGE_CURVE('',#305,#307,#311,.T.);
#313=ORIENTED_EDGE('',*,*,#312,.F.);
#314=CARTESIAN_POINT('',(2.785250000000000,-1.051998402554892,6.119251776253822));
#315=VERTEX_POINT('',#314);
#316=CARTESIAN_POINT('',(2.785250000000000,0.0,5.049999999999999));
#317=DIRECTION('',(1.000000000000000,-1.400199E-016,8.084055E-017));
#318=DIRECTION('',(-1.616811E-016,-0.866025403784439,0.500000000000000));
#319=AXIS2_PLACEMENT_3D('',#316,#317,#318);
#320=CIRCLE('',#319,1.500000000000000);
#321=EDGE_CURVE('',#315,#305,#320,.T.);
#322=ORIENTED_EDGE('',*,*,#321,.F.);
#323=CARTESIAN_POINT('',(-0.214750000000000,-1.051998402554891,6.119251776253822));
#324=VERTEX_POINT('',#323);
#325=CARTESIAN_POINT('',(2.785250000000000,-1.051998402554892,6.119251776253822));
#326=DIRECTION('',(-1.0,0.0,0.0));
#327=VECTOR('',#326,3.0);
#328=LINE('',#325,#327);
#329=EDGE_CURVE('',#315,#324,#328,.T.);
#330=ORIENTED_EDGE('',*,*,#329,.T.);
#331=CARTESIAN_POINT('',(-0.214750000000000,8.881784E-016,5.050000000000001));
#332=DIRECTION('',(1.000000000000000,-1.400199E-016,8.084055E-017));
#333=DIRECTION('',(-1.616811E-016,-0.866025403784439,0.500000000000000));
#334=AXIS2_PLACEMENT_3D('',#331,#332,#333);
#335=CIRCLE('',#334,1.500000000000000);
#336=EDGE_CURVE('',#324,#307,#335,.T.);
#337=ORIENTED_EDGE('',*,*,#336,.T.);
#338=EDGE_LOOP('',(#313,#322,#330,#337));
#339=FACE_OUTER_BOUND('',#338,.T.);
#340=ADVANCED_FACE('',(#339),#303,.T.);
#341=CARTESIAN_POINT('',(2.785250000000000,0.0,5.049999999999999));
#342=DIRECTION('',(-1.0,2.220446E-016,6.123032E-017));
#343=DIRECTION('',(-1.616811E-016,-0.866025403784439,0.500000000000000));
#344=AXIS2_PLACEMENT_3D('',#341,#342,#343);
#345=CYLINDRICAL_SURFACE('',#344,0.925000000000000);
#346=CARTESIAN_POINT('',(2.785250000000000,-0.801073498500606,5.512499999999998));
#347=VERTEX_POINT('',#346);
#348=CARTESIAN_POINT('',(-0.214750000000000,-0.801073498500605,5.512499999999999));
#349=VERTEX_POINT('',#348);
#350=CARTESIAN_POINT('',(2.785250000000000,-0.801073498500606,5.512499999999998));
#351=DIRECTION('',(-1.0,0.0,0.0));
#352=VECTOR('',#351,3.0);
#353=LINE('',#350,#352);
#354=EDGE_CURVE('',#347,#349,#353,.T.);
#355=ORIENTED_EDGE('',*,*,#354,.F.);
#356=CARTESIAN_POINT('',(2.785250000000000,-0.922301010659683,5.120610521426531));
#357=VERTEX_POINT('',#356);
#358=CARTESIAN_POINT('',(2.785250000000000,0.0,5.049999999999999));
#359=DIRECTION('',(-1.0,1.400199E-016,-8.084055E-017));
#360=DIRECTION('',(-1.616811E-016,-0.866025403784439,0.500000000000000));
#361=AXIS2_PLACEMENT_3D('',#358,#359,#360);
#362=CIRCLE('',#361,0.925000000000000);
#363=EDGE_CURVE('',#357,#347,#362,.T.);
#364=ORIENTED_EDGE('',*,*,#363,.F.);
#365=CARTESIAN_POINT('',(-0.214750000000000,-0.922301010659683,5.120610521426531));
#366=VERTEX_POINT('',#365);
#367=CARTESIAN_POINT('',(2.785250000000000,-0.922301010659683,5.120610521426531));
#368=DIRECTION('',(-1.0,0.0,0.0));
#369=VECTOR('',#368,3.000000000000000);
#370=LINE('',#367,#369);
#371=EDGE_CURVE('',#357,#366,#370,.T.);
#372=ORIENTED_EDGE('',*,*,#371,.T.);
#373=CARTESIAN_POINT('',(-0.214750000000000,8.881784E-016,5.050000000000001));
#374=DIRECTION('',(-1.0,1.400199E-016,-8.084055E-017));
#375=DIRECTION('',(-1.616811E-016,-0.866025403784439,0.500000000000000));
#376=AXIS2_PLACEMENT_3D('',#373,#374,#375);
#377=CIRCLE('',#376,0.925000000000000);
#378=EDGE_CURVE('',#366,#349,#377,.T.);
#379=ORIENTED_EDGE('',*,*,#378,.T.);
#380=EDGE_LOOP('',(#355,#364,#372,#379));
#381=FACE_OUTER_BOUND('',#380,.T.);
#382=ADVANCED_FACE('',(#381),#345,.F.);
#383=CARTESIAN_POINT('',(2.785250000000000,0.0,5.049999999999999));
#384=DIRECTION('',(-1.0,2.220446E-016,6.123032E-017));
#385=DIRECTION('',(-1.616811E-016,-0.866025403784439,0.500000000000000));
#386=AXIS2_PLACEMENT_3D('',#383,#384,#385);
#387=CYLINDRICAL_SURFACE('',#386,0.925000000000000);
#388=ORIENTED_EDGE('',*,*,#354,.T.);
#389=CARTESIAN_POINT('',(-0.214750000000000,-0.522301010659683,5.813430844454082));
#390=VERTEX_POINT('',#389);
#391=CARTESIAN_POINT('',(-0.214750000000000,8.881784E-016,5.050000000000001));
#392=DIRECTION('',(-1.0,1.400199E-016,-8.084055E-017));
#393=DIRECTION('',(-1.616811E-016,-0.866025403784439,0.500000000000000));
#394=AXIS2_PLACEMENT_3D('',#391,#392,#393);
#395=CIRCLE('',#394,0.925000000000000);
#396=EDGE_CURVE('',#349,#390,#395,.T.);
#397=ORIENTED_EDGE('',*,*,#396,.T.);
#398=CARTESIAN_POINT('',(2.785250000000000,-0.522301010659683,5.813430844454082));
#399=VERTEX_POINT('',#398);
#400=CARTESIAN_POINT('',(2.785250000000000,-0.522301010659683,5.813430844454082));
#401=DIRECTION('',(-1.0,0.0,0.0));
#402=VECTOR('',#401,3.0);
#403=LINE('',#400,#402);
#404=EDGE_CURVE('',#399,#390,#403,.T.);
#405=ORIENTED_EDGE('',*,*,#404,.F.);
#406=CARTESIAN_POINT('',(2.785250000000000,0.0,5.049999999999999));
#407=DIRECTION('',(-1.0,1.400199E-016,-8.084055E-017));
#408=DIRECTION('',(-1.616811E-016,-0.866025403784439,0.500000000000000));
#409=AXIS2_PLACEMENT_3D('',#406,#407,#408);
#410=CIRCLE('',#409,0.925000000000000);
#411=EDGE_CURVE('',#347,#399,#410,.T.);
#412=ORIENTED_EDGE('',*,*,#411,.F.);
#413=EDGE_LOOP('',(#388,#397,#405,#412));
#414=FACE_OUTER_BOUND('',#413,.T.);
#415=ADVANCED_FACE('',(#414),#387,.F.);
#416=CARTESIAN_POINT('',(2.785250000000000,-0.522301010659683,5.813430844454082));
#417=DIRECTION('',(1.640493E-016,0.500000000000000,0.866025403784439));
#418=DIRECTION('',(1.0,0.0,0.0));
#419=AXIS2_PLACEMENT_3D('',#416,#417,#418);
#420=PLANE('',#419);
#421=CARTESIAN_POINT('',(-0.214750000000000,-0.522301010659683,5.813430844454082));
#422=DIRECTION('',(0.0,-0.866025403784439,0.499999999999999));
#423=VECTOR('',#422,0.611641863599482);
#424=LINE('',#421,#423);
#425=EDGE_CURVE('',#390,#324,#424,.T.);
#426=ORIENTED_EDGE('',*,*,#425,.T.);
#427=ORIENTED_EDGE('',*,*,#329,.F.);
#428=CARTESIAN_POINT('',(2.785250000000000,-0.522301010659683,5.813430844454082));
#429=DIRECTION('',(0.0,-0.866025403784439,0.499999999999999));
#430=VECTOR('',#429,0.611641863599482);
#431=LINE('',#428,#430);
#432=EDGE_CURVE('',#399,#315,#431,.T.);
#433=ORIENTED_EDGE('',*,*,#432,.F.);
#434=ORIENTED_EDGE('',*,*,#404,.T.);
#435=EDGE_LOOP('',(#426,#427,#433,#434));
#436=FACE_OUTER_BOUND('',#435,.T.);
#437=ADVANCED_FACE('',(#436),#420,.T.);
#438=CARTESIAN_POINT('',(2.785250000000000,0.0,5.049999999999999));
#439=DIRECTION('',(-1.0,2.220446E-016,6.123032E-017));
#440=DIRECTION('',(-1.616811E-016,-0.866025403784439,0.500000000000000));
#441=AXIS2_PLACEMENT_3D('',#438,#439,#440);
#442=CYLINDRICAL_SURFACE('',#441,1.500000000000000);
#443=ORIENTED_EDGE('',*,*,#312,.T.);
#444=CARTESIAN_POINT('',(-0.214750000000000,-1.451998402554890,5.426431453226272));
#445=VERTEX_POINT('',#444);
#446=CARTESIAN_POINT('',(-0.214750000000000,8.881784E-016,5.050000000000001));
#447=DIRECTION('',(1.000000000000000,-1.400199E-016,8.084055E-017));
#448=DIRECTION('',(-1.616811E-016,-0.866025403784439,0.500000000000000));
#449=AXIS2_PLACEMENT_3D('',#446,#447,#448);
#450=CIRCLE('',#449,1.500000000000000);
#451=EDGE_CURVE('',#307,#445,#450,.T.);
#452=ORIENTED_EDGE('',*,*,#451,.T.);
#453=CARTESIAN_POINT('',(2.785250000000000,-1.451998402554891,5.426431453226272));
#454=VERTEX_POINT('',#453);
#455=CARTESIAN_POINT('',(2.785250000000000,-1.451998402554891,5.426431453226272));
#456=DIRECTION('',(-1.0,0.0,0.0));
#457=VECTOR('',#456,3.0);
#458=LINE('',#455,#457);
#459=EDGE_CURVE('',#454,#445,#458,.T.);
#460=ORIENTED_EDGE('',*,*,#459,.F.);
#461=CARTESIAN_POINT('',(2.785250000000000,0.0,5.049999999999999));
#462=DIRECTION('',(1.000000000000000,-1.400199E-016,8.084055E-017));
#463=DIRECTION('',(-1.616811E-016,-0.866025403784439,0.500000000000000));
#464=AXIS2_PLACEMENT_3D('',#461,#462,#463);
#465=CIRCLE('',#464,1.500000000000000);
#466=EDGE_CURVE('',#305,#454,#465,.T.);
#467=ORIENTED_EDGE('',*,*,#466,.F.);
#468=EDGE_LOOP('',(#443,#452,#460,#467));
#469=FACE_OUTER_BOUND('',#468,.T.);
#470=ADVANCED_FACE('',(#469),#442,.T.);
#471=CARTESIAN_POINT('',(2.785250000000000,-1.451998402554891,5.426431453226272));
#472=DIRECTION('',(-1.640493E-016,-0.500000000000000,-0.866025403784439));
#473=DIRECTION('',(-1.0,0.0,0.0));
#474=AXIS2_PLACEMENT_3D('',#471,#472,#473);
#475=PLANE('',#474);
#476=CARTESIAN_POINT('',(-0.214750000000000,-1.451998402554890,5.426431453226272));
#477=DIRECTION('',(0.0,0.866025403784439,-0.499999999999999));
#478=VECTOR('',#477,0.611641863599481);
#479=LINE('',#476,#478);
#480=EDGE_CURVE('',#445,#366,#479,.T.);
#481=ORIENTED_EDGE('',*,*,#480,.T.);
#482=ORIENTED_EDGE('',*,*,#371,.F.);
#483=CARTESIAN_POINT('',(2.785250000000000,-1.451998402554891,5.426431453226272));
#484=DIRECTION('',(7.260608E-016,0.866025403784439,-0.499999999999999));
#485=VECTOR('',#484,0.611641863599482);
#486=LINE('',#483,#485);
#487=EDGE_CURVE('',#454,#357,#486,.T.);
#488=ORIENTED_EDGE('',*,*,#487,.F.);
#489=ORIENTED_EDGE('',*,*,#459,.T.);
#490=EDGE_LOOP('',(#481,#482,#488,#489));
#491=FACE_OUTER_BOUND('',#490,.T.);
#492=ADVANCED_FACE('',(#491),#475,.T.);
#493=CARTESIAN_POINT('',(-0.214750000000000,-1.007136147807401,5.631470326047205));
#494=DIRECTION('',(-1.0,0.0,0.0));
#495=DIRECTION('',(0.0,0.866025403784439,-0.500000000000000));
#496=AXIS2_PLACEMENT_3D('',#493,#494,#495);
#497=PLANE('',#496);
#498=ORIENTED_EDGE('',*,*,#378,.F.);
#499=ORIENTED_EDGE('',*,*,#480,.F.);
#500=ORIENTED_EDGE('',*,*,#451,.F.);
#501=ORIENTED_EDGE('',*,*,#336,.F.);
#502=ORIENTED_EDGE('',*,*,#425,.F.);
#503=ORIENTED_EDGE('',*,*,#396,.F.);
#504=EDGE_LOOP('',(#498,#499,#500,#501,#502,#503));
#505=FACE_OUTER_BOUND('',#504,.T.);
#506=ADVANCED_FACE('',(#505),#497,.T.);
#507=CARTESIAN_POINT('',(2.785250000000000,-1.007136147807402,5.631470326047205));
#508=DIRECTION('',(-1.0,0.0,0.0));
#509=DIRECTION('',(0.0,0.866025403784439,-0.500000000000000));
#510=AXIS2_PLACEMENT_3D('',#507,#508,#509);
#511=PLANE('',#510);
#512=ORIENTED_EDGE('',*,*,#487,.T.);
#513=ORIENTED_EDGE('',*,*,#363,.T.);
#514=ORIENTED_EDGE('',*,*,#411,.T.);
#515=ORIENTED_EDGE('',*,*,#432,.T.);
#516=ORIENTED_EDGE('',*,*,#321,.T.);
#517=ORIENTED_EDGE('',*,*,#466,.T.);
#518=EDGE_LOOP('',(#512,#513,#514,#515,#516,#517));
#519=FACE_OUTER_BOUND('',#518,.T.);
#520=ADVANCED_FACE('',(#519),#511,.F.);
#521=CLOSED_SHELL('',(#340,#382,#415,#437,#470,#492,#506,#520));
#522=MANIFOLD_SOLID_BREP('3BE',#521);
#523=STYLED_ITEM('NONE',(#295),#522);
#524=CARTESIAN_POINT('',(2.785250000000000,0.0,5.049999999999999));
#525=DIRECTION('',(-1.0,2.220446E-016,6.123032E-017));
#526=DIRECTION('',(0.0,0.0,-1.0));
#527=AXIS2_PLACEMENT_3D('',#524,#525,#526);
#528=CYLINDRICAL_SURFACE('',#527,1.500000000000000);
#529=CARTESIAN_POINT('',(2.785250000000000,-1.493760E-016,3.549999999999999));
#530=VERTEX_POINT('',#529);
#531=CARTESIAN_POINT('',(-0.214750000000000,5.167579E-016,3.550000000000001));
#532=VERTEX_POINT('',#531);
#533=CARTESIAN_POINT('',(2.785250000000000,-1.493760E-016,3.549999999999999));
#534=DIRECTION('',(-1.0,0.0,0.0));
#535=VECTOR('',#534,3.0);
#536=LINE('',#533,#535);
#537=EDGE_CURVE('',#530,#532,#536,.T.);
#538=ORIENTED_EDGE('',*,*,#537,.F.);
#539=CARTESIAN_POINT('',(2.785250000000000,-0.400000000000000,3.604316770519904));
#540=VERTEX_POINT('',#539);
#541=CARTESIAN_POINT('',(2.785250000000000,0.0,5.049999999999999));
#542=DIRECTION('',(1.0,0.0,0.0));
#543=DIRECTION('',(0.0,0.0,-1.0));
#544=AXIS2_PLACEMENT_3D('',#541,#542,#543);
#545=CIRCLE('',#544,1.500000000000000);
#546=EDGE_CURVE('',#540,#530,#545,.T.);
#547=ORIENTED_EDGE('',*,*,#546,.F.);
#548=CARTESIAN_POINT('',(-0.214750000000000,-0.399999999999999,3.604316770519904));
#549=VERTEX_POINT('',#548);
#550=CARTESIAN_POINT('',(2.785250000000000,-0.400000000000000,3.604316770519904));
#551=DIRECTION('',(-1.0,0.0,0.0));
#552=VECTOR('',#551,3.0);
#553=LINE('',#550,#552);
#554=EDGE_CURVE('',#540,#549,#553,.T.);
#555=ORIENTED_EDGE('',*,*,#554,.T.);
#556=CARTESIAN_POINT('',(-0.214750000000000,8.881784E-016,5.050000000000001));
#557=DIRECTION('',(1.0,0.0,0.0));
#558=DIRECTION('',(0.0,0.0,-1.0));
#559=AXIS2_PLACEMENT_3D('',#556,#557,#558);
#560=CIRCLE('',#559,1.500000000000000);
#561=EDGE_CURVE('',#549,#532,#560,.T.);
#562=ORIENTED_EDGE('',*,*,#561,.T.);
#563=EDGE_LOOP('',(#538,#547,#555,#562));
#564=FACE_OUTER_BOUND('',#563,.T.);
#565=ADVANCED_FACE('',(#564),#528,.T.);
#566=CARTESIAN_POINT('',(2.785250000000000,0.0,5.049999999999999));
#567=DIRECTION('',(-1.0,2.220446E-016,6.123032E-017));
#568=DIRECTION('',(0.0,0.0,-1.0));
#569=AXIS2_PLACEMENT_3D('',#566,#567,#568);
#570=CYLINDRICAL_SURFACE('',#569,0.925000000000000);
#571=CARTESIAN_POINT('',(2.785250000000000,-9.211517E-017,4.124999999999999));
#572=VERTEX_POINT('',#571);
#573=CARTESIAN_POINT('',(-0.214750000000000,5.740186E-016,4.124999999999999));
#574=VERTEX_POINT('',#573);
#575=CARTESIAN_POINT('',(2.785250000000000,-9.211517E-017,4.124999999999999));
#576=DIRECTION('',(-1.0,0.0,0.0));
#577=VECTOR('',#576,3.0);
#578=LINE('',#575,#577);
#579=EDGE_CURVE('',#572,#574,#578,.T.);
#580=ORIENTED_EDGE('',*,*,#579,.F.);
#581=CARTESIAN_POINT('',(2.785250000000000,0.399999999999999,4.215958634119385));
#582=VERTEX_POINT('',#581);
#583=CARTESIAN_POINT('',(2.785250000000000,0.0,5.049999999999999));
#584=DIRECTION('',(-1.0,0.0,0.0));
#585=DIRECTION('',(0.0,0.0,-1.0));
#586=AXIS2_PLACEMENT_3D('',#583,#584,#585);
#587=CIRCLE('',#586,0.925000000000000);
#588=EDGE_CURVE('',#582,#572,#587,.T.);
#589=ORIENTED_EDGE('',*,*,#588,.F.);
#590=CARTESIAN_POINT('',(-0.214750000000000,0.400000000000000,4.215958634119385));
#591=VERTEX_POINT('',#590);
#592=CARTESIAN_POINT('',(2.785250000000000,0.399999999999999,4.215958634119385));
#593=DIRECTION('',(-1.0,0.0,0.0));
#594=VECTOR('',#593,3.0);
#595=LINE('',#592,#594);
#596=EDGE_CURVE('',#582,#591,#595,.T.);
#597=ORIENTED_EDGE('',*,*,#596,.T.);
#598=CARTESIAN_POINT('',(-0.214750000000000,8.881784E-016,5.049999999999999));
#599=DIRECTION('',(-1.0,0.0,0.0));
#600=DIRECTION('',(0.0,0.0,-1.0));
#601=AXIS2_PLACEMENT_3D('',#598,#599,#600);
#602=CIRCLE('',#601,0.925000000000000);
#603=EDGE_CURVE('',#591,#574,#602,.T.);
#604=ORIENTED_EDGE('',*,*,#603,.T.);
#605=EDGE_LOOP('',(#580,#589,#597,#604));
#606=FACE_OUTER_BOUND('',#605,.T.);
#607=ADVANCED_FACE('',(#606),#570,.F.);
#608=CARTESIAN_POINT('',(2.785250000000000,0.0,5.049999999999999));
#609=DIRECTION('',(-1.0,2.220446E-016,6.123032E-017));
#610=DIRECTION('',(0.0,0.0,-1.0));
#611=AXIS2_PLACEMENT_3D('',#608,#609,#610);
#612=CYLINDRICAL_SURFACE('',#611,0.925000000000000);
#613=ORIENTED_EDGE('',*,*,#579,.T.);
#614=CARTESIAN_POINT('',(-0.214750000000000,-0.399999999999999,4.215958634119387));
#615=VERTEX_POINT('',#614);
#616=CARTESIAN_POINT('',(-0.214750000000000,8.881784E-016,5.049999999999999));
#617=DIRECTION('',(-1.0,0.0,0.0));
#618=DIRECTION('',(0.0,0.0,-1.0));
#619=AXIS2_PLACEMENT_3D('',#616,#617,#618);
#620=CIRCLE('',#619,0.925000000000000);
#621=EDGE_CURVE('',#574,#615,#620,.T.);
#622=ORIENTED_EDGE('',*,*,#621,.T.);
#623=CARTESIAN_POINT('',(2.785250000000000,-0.400000000000000,4.215958634119385));
#624=VERTEX_POINT('',#623);
#625=CARTESIAN_POINT('',(2.785250000000000,-0.400000000000000,4.215958634119385));
#626=DIRECTION('',(-1.0,0.0,0.0));
#627=VECTOR('',#626,3.0);
#628=LINE('',#625,#627);
#629=EDGE_CURVE('',#624,#615,#628,.T.);
#630=ORIENTED_EDGE('',*,*,#629,.F.);
#631=CARTESIAN_POINT('',(2.785250000000000,0.0,5.049999999999999));
#632=DIRECTION('',(-1.0,0.0,0.0));
#633=DIRECTION('',(0.0,0.0,-1.0));
#634=AXIS2_PLACEMENT_3D('',#631,#632,#633);
#635=CIRCLE('',#634,0.925000000000000);
#636=EDGE_CURVE('',#572,#624,#635,.T.);
#637=ORIENTED_EDGE('',*,*,#636,.F.);
#638=EDGE_LOOP('',(#613,#622,#630,#637));
#639=FACE_OUTER_BOUND('',#638,.T.);
#640=ADVANCED_FACE('',(#639),#612,.F.);
#641=CARTESIAN_POINT('',(2.785250000000000,-0.400000000000000,4.215958634119385));
#642=DIRECTION('',(0.0,-1.0,0.0));
#643=DIRECTION('',(1.0,0.0,0.0));
#644=AXIS2_PLACEMENT_3D('',#641,#642,#643);
#645=PLANE('',#644);
#646=CARTESIAN_POINT('',(-0.214750000000000,-0.399999999999999,4.215958634119387));
#647=DIRECTION('',(0.0,0.0,-1.0));
#648=VECTOR('',#647,0.611641863599483);
#649=LINE('',#646,#648);
#650=EDGE_CURVE('',#615,#549,#649,.T.);
#651=ORIENTED_EDGE('',*,*,#650,.T.);
#652=ORIENTED_EDGE('',*,*,#554,.F.);
#653=CARTESIAN_POINT('',(2.785250000000000,-0.400000000000000,4.215958634119385));
#654=DIRECTION('',(0.0,0.0,-1.0));
#655=VECTOR('',#654,0.611641863599481);
#656=LINE('',#653,#655);
#657=EDGE_CURVE('',#624,#540,#656,.T.);
#658=ORIENTED_EDGE('',*,*,#657,.F.);
#659=ORIENTED_EDGE('',*,*,#629,.T.);
#660=EDGE_LOOP('',(#651,#652,#658,#659));
#661=FACE_OUTER_BOUND('',#660,.T.);
#662=ADVANCED_FACE('',(#661),#645,.T.);
#663=CARTESIAN_POINT('',(2.785250000000000,0.0,5.049999999999999));
#664=DIRECTION('',(-1.0,2.220446E-016,6.123032E-017));
#665=DIRECTION('',(0.0,0.0,-1.0));
#666=AXIS2_PLACEMENT_3D('',#663,#664,#665);
#667=CYLINDRICAL_SURFACE('',#666,1.500000000000000);
#668=ORIENTED_EDGE('',*,*,#537,.T.);
#669=CARTESIAN_POINT('',(-0.214750000000000,0.400000000000000,3.604316770519904));
#670=VERTEX_POINT('',#669);
#671=CARTESIAN_POINT('',(-0.214750000000000,8.881784E-016,5.050000000000001));
#672=DIRECTION('',(1.0,0.0,0.0));
#673=DIRECTION('',(0.0,0.0,-1.0));
#674=AXIS2_PLACEMENT_3D('',#671,#672,#673);
#675=CIRCLE('',#674,1.500000000000000);
#676=EDGE_CURVE('',#532,#670,#675,.T.);
#677=ORIENTED_EDGE('',*,*,#676,.T.);
#678=CARTESIAN_POINT('',(2.785250000000000,0.399999999999999,3.604316770519904));
#679=VERTEX_POINT('',#678);
#680=CARTESIAN_POINT('',(2.785250000000000,0.399999999999999,3.604316770519904));
#681=DIRECTION('',(-1.0,0.0,0.0));
#682=VECTOR('',#681,3.0);
#683=LINE('',#680,#682);
#684=EDGE_CURVE('',#679,#670,#683,.T.);
#685=ORIENTED_EDGE('',*,*,#684,.F.);
#686=CARTESIAN_POINT('',(2.785250000000000,0.0,5.049999999999999));
#687=DIRECTION('',(1.0,0.0,0.0));
#688=DIRECTION('',(0.0,0.0,-1.0));
#689=AXIS2_PLACEMENT_3D('',#686,#687,#688);
#690=CIRCLE('',#689,1.500000000000000);
#691=EDGE_CURVE('',#530,#679,#690,.T.);
#692=ORIENTED_EDGE('',*,*,#691,.F.);
#693=EDGE_LOOP('',(#668,#677,#685,#692));
#694=FACE_OUTER_BOUND('',#693,.T.);
#695=ADVANCED_FACE('',(#694),#667,.T.);
#696=CARTESIAN_POINT('',(2.785250000000000,0.399999999999999,3.604316770519904));
#697=DIRECTION('',(0.0,1.0,0.0));
#698=DIRECTION('',(-1.0,0.0,0.0));
#699=AXIS2_PLACEMENT_3D('',#696,#697,#698);
#700=PLANE('',#699);
#701=CARTESIAN_POINT('',(-0.214750000000000,0.400000000000000,3.604316770519904));
#702=DIRECTION('',(0.0,0.0,1.0));
#703=VECTOR('',#702,0.611641863599481);
#704=LINE('',#701,#703);
#705=EDGE_CURVE('',#670,#591,#704,.T.);
#706=ORIENTED_EDGE('',*,*,#705,.T.);
#707=ORIENTED_EDGE('',*,*,#596,.F.);
#708=CARTESIAN_POINT('',(2.785250000000000,0.399999999999999,3.604316770519904));
#709=DIRECTION('',(0.0,0.0,1.0));
#710=VECTOR('',#709,0.611641863599481);
#711=LINE('',#708,#710);
#712=EDGE_CURVE('',#679,#582,#711,.T.);
#713=ORIENTED_EDGE('',*,*,#712,.F.);
#714=ORIENTED_EDGE('',*,*,#684,.T.);
#715=EDGE_LOOP('',(#706,#707,#713,#714));
#716=FACE_OUTER_BOUND('',#715,.T.);
#717=ADVANCED_FACE('',(#716),#700,.T.);
#718=CARTESIAN_POINT('',(-0.214750000000000,0.0,3.887059347905588));
#719=DIRECTION('',(-1.0,0.0,0.0));
#720=DIRECTION('',(0.0,0.0,1.0));
#721=AXIS2_PLACEMENT_3D('',#718,#719,#720);
#722=PLANE('',#721);
#723=ORIENTED_EDGE('',*,*,#603,.F.);
#724=ORIENTED_EDGE('',*,*,#705,.F.);
#725=ORIENTED_EDGE('',*,*,#676,.F.);
#726=ORIENTED_EDGE('',*,*,#561,.F.);
#727=ORIENTED_EDGE('',*,*,#650,.F.);
#728=ORIENTED_EDGE('',*,*,#621,.F.);
#729=EDGE_LOOP('',(#723,#724,#725,#726,#727,#728));
#730=FACE_OUTER_BOUND('',#729,.T.);
#731=ADVANCED_FACE('',(#730),#722,.T.);
#732=CARTESIAN_POINT('',(2.785250000000000,0.0,3.887059347905588));
#733=DIRECTION('',(-1.0,0.0,0.0));
#734=DIRECTION('',(0.0,0.0,1.0));
#735=AXIS2_PLACEMENT_3D('',#732,#733,#734);
#736=PLANE('',#735);
#737=ORIENTED_EDGE('',*,*,#712,.T.);
#738=ORIENTED_EDGE('',*,*,#588,.T.);
#739=ORIENTED_EDGE('',*,*,#636,.T.);
#740=ORIENTED_EDGE('',*,*,#657,.T.);
#741=ORIENTED_EDGE('',*,*,#546,.T.);
#742=ORIENTED_EDGE('',*,*,#691,.T.);
#743=EDGE_LOOP('',(#737,#738,#739,#740,#741,#742));
#744=FACE_OUTER_BOUND('',#743,.T.);
#745=ADVANCED_FACE('',(#744),#736,.F.);
#746=CLOSED_SHELL('',(#565,#607,#640,#662,#695,#717,#731,#745));
#747=MANIFOLD_SOLID_BREP('3BD',#746);
#748=STYLED_ITEM('NONE',(#295),#747);
#749=CARTESIAN_POINT('',(-0.800485049877752,-8.881784E-016,5.050000000000001));
#750=DIRECTION('',(1.0,2.220446E-016,-6.123032E-017));
#751=DIRECTION('',(0.0,0.0,-1.0));
#752=AXIS2_PLACEMENT_3D('',#749,#750,#751);
#753=TOROIDAL_SURFACE('',#752,1.700000000000000,0.200000000000000);
#754=CARTESIAN_POINT('',(-0.989495240267070,-8.881784E-016,3.415384615384616));
#755=VERTEX_POINT('',#754);
#756=CARTESIAN_POINT('',(-0.800485049877752,-1.776357E-015,3.150000000000000));
#757=VERTEX_POINT('',#756);
#758=CARTESIAN_POINT('',(-0.800485049877752,-1.473837E-015,3.350000000000001));
#759=DIRECTION('',(0.0,-1.0,0.0));
#760=DIRECTION('',(0.0,0.0,-1.0));
#761=AXIS2_PLACEMENT_3D('',#758,#759,#760);
#762=CIRCLE('',#761,0.200000000000000);
#763=EDGE_CURVE('',#755,#757,#762,.T.);
#764=ORIENTED_EDGE('',*,*,#763,.F.);
#765=CARTESIAN_POINT('',(-0.989495240267069,-3.670135E-016,6.684615384615385));
#766=VERTEX_POINT('',#765);
#767=CARTESIAN_POINT('',(-0.989495240267070,-8.881784E-016,5.050000000000001));
#768=DIRECTION('',(1.0,0.0,0.0));
#769=DIRECTION('',(0.0,0.0,1.0));
#770=AXIS2_PLACEMENT_3D('',#767,#768,#769);
#771=CIRCLE('',#770,1.634615384615384);
#772=EDGE_CURVE('',#755,#766,#771,.T.);
#773=ORIENTED_EDGE('',*,*,#772,.T.);
#774=CARTESIAN_POINT('',(-0.800485049877752,-6.069836E-016,6.950000000000001));
#775=VERTEX_POINT('',#774);
#776=CARTESIAN_POINT('',(-0.800485049877752,-3.025195E-016,6.750000000000001));
#777=DIRECTION('',(0.0,-1.0,0.0));
#778=DIRECTION('',(0.0,0.0,1.0));
#779=AXIS2_PLACEMENT_3D('',#776,#777,#778);
#780=CIRCLE('',#779,0.200000000000000);
#781=EDGE_CURVE('',#775,#766,#780,.T.);
#782=ORIENTED_EDGE('',*,*,#781,.F.);
#783=CARTESIAN_POINT('',(-0.800485049877752,-8.881784E-016,5.050000000000001));
#784=DIRECTION('',(-1.0,0.0,0.0));
#785=DIRECTION('',(0.0,0.0,1.0));
#786=AXIS2_PLACEMENT_3D('',#783,#784,#785);
#787=CIRCLE('',#786,1.900000000000000);
#788=EDGE_CURVE('',#775,#757,#787,.T.);
#789=ORIENTED_EDGE('',*,*,#788,.T.);
#790=EDGE_LOOP('',(#764,#773,#782,#789));
#791=FACE_OUTER_BOUND('',#790,.T.);
#792=ADVANCED_FACE('',(#791),#753,.T.);
#793=CARTESIAN_POINT('',(2.785250000000000,0.0,5.049999999999999));
#794=DIRECTION('',(-1.0,2.220446E-016,6.123032E-017));
#795=DIRECTION('',(0.0,0.0,-1.0));
#796=AXIS2_PLACEMENT_3D('',#793,#794,#795);
#797=CYLINDRICAL_SURFACE('',#796,1.500000000000000);
#798=CARTESIAN_POINT('',(-0.214750000000000,0.0,3.550000000000000));
#799=VERTEX_POINT('',#798);
#800=CARTESIAN_POINT('',(3.0,0.0,3.549999999999999));
#801=VERTEX_POINT('',#800);
#802=CARTESIAN_POINT('',(-0.214750000000000,0.0,3.550000000000000));
#803=DIRECTION('',(1.0,0.0,0.0));
#804=VECTOR('',#803,3.214750000000000);
#805=LINE('',#802,#804);
#806=EDGE_CURVE('',#799,#801,#805,.T.);
#807=ORIENTED_EDGE('',*,*,#806,.F.);
#808=CARTESIAN_POINT('',(-0.214750000000000,8.155098E-016,6.550000000000001));
#809=VERTEX_POINT('',#808);
#810=CARTESIAN_POINT('',(-0.214750000000000,8.881784E-016,5.050000000000001));
#811=DIRECTION('',(1.0,0.0,0.0));
#812=DIRECTION('',(0.0,0.0,-1.0));
#813=AXIS2_PLACEMENT_3D('',#810,#811,#812);
#814=CIRCLE('',#813,1.500000000000000);
#815=EDGE_CURVE('',#809,#799,#814,.T.);
#816=ORIENTED_EDGE('',*,*,#815,.F.);
#817=CARTESIAN_POINT('',(3.0,1.016919E-016,6.549999999999999));
#818=VERTEX_POINT('',#817);
#819=CARTESIAN_POINT('',(3.0,1.016919E-016,6.549999999999999));
#820=DIRECTION('',(-1.0,0.0,0.0));
#821=VECTOR('',#820,3.214750000000000);
#822=LINE('',#819,#821);
#823=EDGE_CURVE('',#818,#809,#822,.T.);
#824=ORIENTED_EDGE('',*,*,#823,.F.);
#825=CARTESIAN_POINT('',(3.0,0.0,5.049999999999999));
#826=DIRECTION('',(-1.0,0.0,0.0));
#827=DIRECTION('',(0.0,0.0,-1.0));
#828=AXIS2_PLACEMENT_3D('',#825,#826,#827);
#829=CIRCLE('',#828,1.500000000000000);
#830=EDGE_CURVE('',#801,#818,#829,.T.);
#831=ORIENTED_EDGE('',*,*,#830,.F.);
#832=EDGE_LOOP('',(#807,#816,#824,#831));
#833=FACE_OUTER_BOUND('',#832,.T.);
#834=ADVANCED_FACE('',(#833),#797,.F.);
#835=CARTESIAN_POINT('',(2.785250000000000,0.0,5.049999999999999));
#836=DIRECTION('',(-1.0,-2.220446E-016,6.123032E-017));
#837=DIRECTION('',(0.0,0.0,1.0));
#838=AXIS2_PLACEMENT_3D('',#835,#836,#837);
#839=CYLINDRICAL_SURFACE('',#838,1.900000000000000);
#840=CARTESIAN_POINT('',(3.0,0.0,6.949999999999999));
#841=VERTEX_POINT('',#840);
#842=CARTESIAN_POINT('',(3.0,0.0,6.949999999999999));
#843=DIRECTION('',(-1.0,0.0,0.0));
#844=VECTOR('',#843,3.800485049877752);
#845=LINE('',#842,#844);
#846=EDGE_CURVE('',#841,#775,#845,.T.);
#847=ORIENTED_EDGE('',*,*,#846,.F.);
#848=CARTESIAN_POINT('',(3.0,-1.415255E-016,3.149999999999999));
#849=VERTEX_POINT('',#848);
#850=CARTESIAN_POINT('',(3.0,0.0,5.049999999999999));
#851=DIRECTION('',(-1.0,0.0,0.0));
#852=DIRECTION('',(0.0,0.0,1.0));
#853=AXIS2_PLACEMENT_3D('',#850,#851,#852);
#854=CIRCLE('',#853,1.900000000000000);
#855=EDGE_CURVE('',#841,#849,#854,.T.);
#856=ORIENTED_EDGE('',*,*,#855,.T.);
#857=CARTESIAN_POINT('',(-0.800485049877752,-1.776357E-015,3.150000000000000));
#858=DIRECTION('',(1.0,0.0,0.0));
#859=VECTOR('',#858,3.800485049877752);
#860=LINE('',#857,#859);
#861=EDGE_CURVE('',#757,#849,#860,.T.);
#862=ORIENTED_EDGE('',*,*,#861,.F.);
#863=ORIENTED_EDGE('',*,*,#788,.F.);
#864=EDGE_LOOP('',(#847,#856,#862,#863));
#865=FACE_OUTER_BOUND('',#864,.T.);
#866=ADVANCED_FACE('',(#865),#839,.T.);
#867=CARTESIAN_POINT('',(2.785250000000000,0.0,5.049999999999999));
#868=DIRECTION('',(-1.0,-2.220446E-016,6.123032E-017));
#869=DIRECTION('',(0.0,0.0,1.0));
#870=AXIS2_PLACEMENT_3D('',#867,#868,#869);
#871=CYLINDRICAL_SURFACE('',#870,1.900000000000000);
#872=ORIENTED_EDGE('',*,*,#846,.T.);
#873=CARTESIAN_POINT('',(-0.800485049877752,-8.881784E-016,5.050000000000001));
#874=DIRECTION('',(-1.0,0.0,0.0));
#875=DIRECTION('',(0.0,0.0,1.0));
#876=AXIS2_PLACEMENT_3D('',#873,#874,#875);
#877=CIRCLE('',#876,1.900000000000000);
#878=EDGE_CURVE('',#757,#775,#877,.T.);
#879=ORIENTED_EDGE('',*,*,#878,.F.);
#880=ORIENTED_EDGE('',*,*,#861,.T.);
#881=CARTESIAN_POINT('',(3.0,0.0,5.049999999999999));
#882=DIRECTION('',(-1.0,0.0,0.0));
#883=DIRECTION('',(0.0,0.0,1.0));
#884=AXIS2_PLACEMENT_3D('',#881,#882,#883);
#885=CIRCLE('',#884,1.900000000000000);
#886=EDGE_CURVE('',#849,#841,#885,.T.);
#887=ORIENTED_EDGE('',*,*,#886,.T.);
#888=EDGE_LOOP('',(#872,#879,#880,#887));
#889=FACE_OUTER_BOUND('',#888,.T.);
#890=ADVANCED_FACE('',(#889),#871,.T.);
#891=CARTESIAN_POINT('',(2.785250000000000,0.0,5.049999999999999));
#892=DIRECTION('',(-1.0,2.220446E-016,6.123032E-017));
#893=DIRECTION('',(0.0,0.0,-1.0));
#894=AXIS2_PLACEMENT_3D('',#891,#892,#893);
#895=CYLINDRICAL_SURFACE('',#894,1.500000000000000);
#896=ORIENTED_EDGE('',*,*,#806,.T.);
#897=CARTESIAN_POINT('',(3.0,0.0,5.049999999999999));
#898=DIRECTION('',(-1.0,0.0,0.0));
#899=DIRECTION('',(0.0,0.0,-1.0));
#900=AXIS2_PLACEMENT_3D('',#897,#898,#899);
#901=CIRCLE('',#900,1.500000000000000);
#902=EDGE_CURVE('',#818,#801,#901,.T.);
#903=ORIENTED_EDGE('',*,*,#902,.F.);
#904=ORIENTED_EDGE('',*,*,#823,.T.);
#905=CARTESIAN_POINT('',(-0.214750000000000,8.881784E-016,5.050000000000001));
#906=DIRECTION('',(1.0,0.0,0.0));
#907=DIRECTION('',(0.0,0.0,-1.0));
#908=AXIS2_PLACEMENT_3D('',#905,#906,#907);
#909=CIRCLE('',#908,1.500000000000000);
#910=EDGE_CURVE('',#799,#809,#909,.T.);
#911=ORIENTED_EDGE('',*,*,#910,.F.);
#912=EDGE_LOOP('',(#896,#903,#904,#911));
#913=FACE_OUTER_BOUND('',#912,.T.);
#914=ADVANCED_FACE('',(#913),#895,.F.);
#915=CARTESIAN_POINT('',(-0.214750000000000,8.881784E-016,5.050000000000001));
#916=DIRECTION('',(1.0,0.0,0.0));
#917=DIRECTION('',(0.0,0.0,-1.0));
#918=AXIS2_PLACEMENT_3D('',#915,#916,#917);
#919=PLANE('',#918);
#920=ORIENTED_EDGE('',*,*,#910,.T.);
#921=ORIENTED_EDGE('',*,*,#815,.T.);
#922=EDGE_LOOP('',(#920,#921));
#923=FACE_OUTER_BOUND('',#922,.T.);
#924=ADVANCED_FACE('',(#923),#919,.T.);
#925=CARTESIAN_POINT('',(-0.800485049877752,-8.881784E-016,5.050000000000001));
#926=DIRECTION('',(1.0,2.220446E-016,-6.123032E-017));
#927=DIRECTION('',(0.0,0.0,-1.0));
#928=AXIS2_PLACEMENT_3D('',#925,#926,#927);
#929=TOROIDAL_SURFACE('',#928,1.700000000000000,0.200000000000000);
#930=ORIENTED_EDGE('',*,*,#763,.T.);
#931=ORIENTED_EDGE('',*,*,#878,.T.);
#932=ORIENTED_EDGE('',*,*,#781,.T.);
#933=CARTESIAN_POINT('',(-0.989495240267070,-8.881784E-016,5.050000000000001));
#934=DIRECTION('',(1.0,0.0,0.0));
#935=DIRECTION('',(0.0,0.0,1.0));
#936=AXIS2_PLACEMENT_3D('',#933,#934,#935);
#937=CIRCLE('',#936,1.634615384615384);
#938=EDGE_CURVE('',#766,#755,#937,.T.);
#939=ORIENTED_EDGE('',*,*,#938,.T.);
#940=EDGE_LOOP('',(#930,#931,#932,#939));
#941=FACE_OUTER_BOUND('',#940,.T.);
#942=ADVANCED_FACE('',(#941),#929,.T.);
#943=CARTESIAN_POINT('',(-5.714749999999999,-8.881784E-016,5.050000000000001));
#944=DIRECTION('',(0.0,-1.0,0.0));
#945=DIRECTION('',(0.0,0.0,1.0));
#946=AXIS2_PLACEMENT_3D('',#943,#944,#945);
#947=SPHERICAL_SURFACE('',#946,5.0);
#948=ORIENTED_EDGE('',*,*,#772,.F.);
#949=ORIENTED_EDGE('',*,*,#938,.F.);
#950=EDGE_LOOP('',(#948,#949));
#951=FACE_OUTER_BOUND('',#950,.T.);
#952=ADVANCED_FACE('',(#951),#947,.F.);
#953=CARTESIAN_POINT('',(3.0,0.0,5.049999999999999));
#954=DIRECTION('',(-1.0,0.0,0.0));
#955=DIRECTION('',(0.0,0.0,1.0));
#956=AXIS2_PLACEMENT_3D('',#953,#954,#955);
#957=PLANE('',#956);
#958=ORIENTED_EDGE('',*,*,#855,.F.);
#959=ORIENTED_EDGE('',*,*,#886,.F.);
#960=EDGE_LOOP('',(#958,#959));
#961=FACE_OUTER_BOUND('',#960,.T.);
#962=ORIENTED_EDGE('',*,*,#830,.T.);
#963=ORIENTED_EDGE('',*,*,#902,.T.);
#964=EDGE_LOOP('',(#962,#963));
#965=FACE_BOUND('',#964,.T.);
#966=ADVANCED_FACE('',(#961,#965),#957,.F.);
#967=CLOSED_SHELL('',(#792,#834,#866,#890,#914,#924,#942,#952,#966));
#968=MANIFOLD_SOLID_BREP('3A5',#967);
#969=STYLED_ITEM('NONE',(#295),#968);
#970=ADVANCED_BREP_SHAPE_REPRESENTATION('ABSR1',(#288,#522,#747,#968),#28);
#971=SHAPE_REPRESENTATION_RELATIONSHIP('SRRPL1','',#970,#62);
ENDSEC;
END-ISO-10303-21;
