ISO-10303-21;
HEADER;
/****************************************************************
 * Generated by software with PDE/Lib inside                    *
 * PDE/Lib Version 3.2.2, created Thu Mar 23, 2000 at 18:38:49  *
 * International Technegroup Inc. (www.iti-oh.com)              *
 ****************************************************************/
FILE_DESCRIPTION((''),'2;1');
FILE_NAME('LED_5MM_YELLOW_v.stp','2009-03-09T17:42:07',(''),(''),'Mechanical Desktop 2006','Mechanical Desktop 2006',', , ');
FILE_SCHEMA(('AUTOMOTIVE_DESIGN { 1 2 10303 214 0 1 1 1 }'));
ENDSEC;
DATA;
#8=(NAMED_UNIT(*)PLANE_ANGLE_UNIT()SI_UNIT($,.RADIAN.));
#9=DIMENSIONAL_EXPONENTS(0.0,0.0,0.0,0.0,0.0,0.0,0.0);
#10=PLANE_ANGLE_MEASURE_WITH_UNIT(PLANE_ANGLE_MEASURE(0.017453292500000),#8);
#14=(CONVERSION_BASED_UNIT('DEGREE',#10)NAMED_UNIT(#9)PLANE_ANGLE_UNIT());
#18=(NAMED_UNIT(*)SI_UNIT($,.STERADIAN.)SOLID_ANGLE_UNIT());
#22=(LENGTH_UNIT()NAMED_UNIT(*)SI_UNIT(.MILLI.,.METRE.));
#23=UNCERTAINTY_MEASURE_WITH_UNIT(LENGTH_MEASURE(0.000001000000000),#22,'DISTANCE_ACCURACY_VALUE','');
#28=(GEOMETRIC_REPRESENTATION_CONTEXT(3)GLOBAL_UNCERTAINTY_ASSIGNED_CONTEXT((#23))GLOBAL_UNIT_ASSIGNED_CONTEXT((#14,#18,#22))REPRESENTATION_CONTEXT('None','None'));
#29=APPLICATION_CONTEXT('automotive design');
#30=APPLICATION_PROTOCOL_DEFINITION('DRAFT_INTERNATIONAL_STANDARD','automotive_design',1998,#29);
#31=PRODUCT_CONTEXT('3D Mechanical Parts',#29,'mechanical');
#32=PRODUCT('Product','Product','',(#31));
#33=PRODUCT_RELATED_PRODUCT_CATEGORY('part',$,(#32));
#34=PRODUCT_CATEGORY('part',$);
#35=PERSON('1','Design','Joe',$,$,$);
#36=ORGANIZATION($,'None','None');
#37=PERSON_AND_ORGANIZATION(#35,#36);
#38=PERSON_AND_ORGANIZATION_ROLE('design_owner');
#39=APPLIED_PERSON_AND_ORGANIZATION_ASSIGNMENT(#37,#38,(#32));
#40=PRODUCT_DEFINITION_FORMATION_WITH_SPECIFIED_SOURCE('None','',#32,.BOUGHT.);
#41=PERSON('2','Creator','Joe',$,$,$);
#42=ORGANIZATION($,'None','None');
#43=PERSON_AND_ORGANIZATION(#41,#42);
#44=PERSON_AND_ORGANIZATION_ROLE('creator');
#45=APPLIED_PERSON_AND_ORGANIZATION_ASSIGNMENT(#43,#44,(#40));
#46=PERSON('3','Supplier','Joe',$,$,$);
#47=ORGANIZATION($,'None','None');
#48=PERSON_AND_ORGANIZATION(#46,#47);
#49=PERSON_AND_ORGANIZATION_ROLE('design_supplier');
#50=APPLIED_PERSON_AND_ORGANIZATION_ASSIGNMENT(#48,#49,(#40));
#51=PRODUCT_DEFINITION_CONTEXT('part definition',#29,'design');
#52=PRODUCT_DEFINITION('None','',#40,#51);
#53=PERSON('4','Creator','Joe',$,$,$);
#54=ORGANIZATION($,'None','None');
#55=PERSON_AND_ORGANIZATION(#53,#54);
#56=PERSON_AND_ORGANIZATION_ROLE('creator');
#57=APPLIED_PERSON_AND_ORGANIZATION_ASSIGNMENT(#55,#56,(#52));
#58=CARTESIAN_POINT('NONE',(0.0,0.0,0.0));
#59=DIRECTION('NONE',(0.0,0.0,1.0));
#60=DIRECTION('NONE',(1.0,0.0,0.0));
#61=AXIS2_PLACEMENT_3D('NONE',#58,#59,#60);
#62=SHAPE_REPRESENTATION('SR1',(#61),#28);
#63=PRODUCT_DEFINITION_SHAPE('PDS1','Test Part',#52);
#64=SHAPE_DEFINITION_REPRESENTATION(#63,#62);
#65=CARTESIAN_POINT('',(0.0,2.460254E-015,11.809999999999999));
#66=DIRECTION('',(0.0,1.0,0.0));
#67=DIRECTION('',(1.0,0.0,0.0));
#68=AXIS2_PLACEMENT_3D('',#65,#66,#67);
#69=SPHERICAL_SURFACE('',#68,2.540000000000000);
#70=CARTESIAN_POINT('',(3.110500E-016,-2.539999999999997,11.810000000000000));
#71=VERTEX_POINT('',#70);
#72=CARTESIAN_POINT('',(-1.407627E-077,2.460254E-015,11.809999999999999));
#73=DIRECTION('',(0.0,0.0,1.0));
#74=DIRECTION('',(0.0,1.0,0.0));
#75=AXIS2_PLACEMENT_3D('',#72,#73,#74);
#76=CIRCLE('',#75,2.540000000000000);
#77=EDGE_CURVE('',#71,#71,#76,.T.);
#78=ORIENTED_EDGE('',*,*,#77,.F.);
#79=EDGE_LOOP('',(#78));
#80=FACE_OUTER_BOUND('',#79,.T.);
#81=ADVANCED_FACE('',(#80),#69,.T.);
#82=CARTESIAN_POINT('',(0.0,2.460254E-015,11.809999999999999));
#83=DIRECTION('',(0.0,1.0,0.0));
#84=DIRECTION('',(1.0,0.0,0.0));
#85=AXIS2_PLACEMENT_3D('',#82,#83,#84);
#86=SPHERICAL_SURFACE('',#85,2.540000000000000);
#87=ORIENTED_EDGE('',*,*,#77,.T.);
#88=EDGE_LOOP('',(#87));
#89=FACE_OUTER_BOUND('',#88,.T.);
#90=ADVANCED_FACE('',(#89),#86,.T.);
#91=CLOSED_SHELL('',(#81,#90));
#92=MANIFOLD_SOLID_BREP('125',#91);
#93=DRAUGHTING_PRE_DEFINED_COLOUR('yellow');
#94=SURFACE_STYLE_USAGE(.BOTH.,#95);
#95=SURFACE_SIDE_STYLE('NONE',(#96));
#96=SURFACE_STYLE_FILL_AREA(#97);
#97=FILL_AREA_STYLE('NONE',(#98));
#98=FILL_AREA_STYLE_COLOUR('NONE',#93);
#99=PRESENTATION_STYLE_ASSIGNMENT((#94));
#100=STYLED_ITEM('NONE',(#99),#92);
#101=MECHANICAL_DESIGN_GEOMETRIC_PRESENTATION_REPRESENTATION('NONE',(#100,#224,#313,#621),#28);
#102=PRESENTATION_LAYER_ASSIGNMENT('0','None',(#92,#223,#312,#613));
#103=CARTESIAN_POINT('',(-4.440892E-016,-4.440892E-017,5.150000000000000));
#104=DIRECTION('',(0.0,4.989766E-016,1.0));
#105=DIRECTION('',(1.0,0.0,0.0));
#106=AXIS2_PLACEMENT_3D('',#103,#104,#105);
#107=CYLINDRICAL_SURFACE('',#106,3.050000000000000);
#108=CARTESIAN_POINT('',(3.049999999999999,-4.179139E-016,5.149999999999999));
#109=VERTEX_POINT('',#108);
#110=CARTESIAN_POINT('',(3.049999999999999,2.617535E-017,6.039999999999999));
#111=VERTEX_POINT('',#110);
#112=CARTESIAN_POINT('',(3.049999999999999,-4.179139E-016,5.149999999999999));
#113=DIRECTION('',(0.0,0.0,1.0));
#114=VECTOR('',#113,0.890000000000001);
#115=LINE('',#112,#114);
#116=EDGE_CURVE('',#109,#111,#115,.T.);
#117=ORIENTED_EDGE('',*,*,#116,.F.);
#118=CARTESIAN_POINT('',(-2.540000000000000,1.688460837567753,5.149999999999999));
#119=VERTEX_POINT('',#118);
#120=CARTESIAN_POINT('',(-4.440892E-016,-4.440892E-017,5.150000000000000));
#121=DIRECTION('',(0.0,0.0,-1.0));
#122=DIRECTION('',(1.0,0.0,0.0));
#123=AXIS2_PLACEMENT_3D('',#120,#121,#122);
#124=CIRCLE('',#123,3.050000000000000);
#125=EDGE_CURVE('',#119,#109,#124,.T.);
#126=ORIENTED_EDGE('',*,*,#125,.F.);
#127=CARTESIAN_POINT('',(-2.540000000000000,1.688460837567753,6.039999999999997));
#128=VERTEX_POINT('',#127);
#129=CARTESIAN_POINT('',(-2.540000000000000,1.688460837567753,5.149999999999999));
#130=DIRECTION('',(0.0,0.0,1.0));
#131=VECTOR('',#130,0.889999999999999);
#132=LINE('',#129,#131);
#133=EDGE_CURVE('',#119,#128,#132,.T.);
#134=ORIENTED_EDGE('',*,*,#133,.T.);
#135=CARTESIAN_POINT('',(-4.440892E-016,3.996803E-016,6.039999999999999));
#136=DIRECTION('',(0.0,0.0,-1.0));
#137=DIRECTION('',(1.0,0.0,0.0));
#138=AXIS2_PLACEMENT_3D('',#135,#136,#137);
#139=CIRCLE('',#138,3.050000000000000);
#140=EDGE_CURVE('',#128,#111,#139,.T.);
#141=ORIENTED_EDGE('',*,*,#140,.T.);
#142=EDGE_LOOP('',(#117,#126,#134,#141));
#143=FACE_OUTER_BOUND('',#142,.T.);
#144=ADVANCED_FACE('',(#143),#107,.T.);
#145=CARTESIAN_POINT('',(-4.440892E-016,-4.440892E-017,5.150000000000000));
#146=DIRECTION('',(0.0,4.989766E-016,1.0));
#147=DIRECTION('',(1.0,0.0,0.0));
#148=AXIS2_PLACEMENT_3D('',#145,#146,#147);
#149=CYLINDRICAL_SURFACE('',#148,3.050000000000000);
#150=ORIENTED_EDGE('',*,*,#116,.T.);
#151=CARTESIAN_POINT('',(-2.540000000000000,-1.688460837567753,6.039999999999999));
#152=VERTEX_POINT('',#151);
#153=CARTESIAN_POINT('',(-4.440892E-016,3.996803E-016,6.039999999999999));
#154=DIRECTION('',(0.0,0.0,-1.0));
#155=DIRECTION('',(1.0,0.0,0.0));
#156=AXIS2_PLACEMENT_3D('',#153,#154,#155);
#157=CIRCLE('',#156,3.050000000000000);
#158=EDGE_CURVE('',#111,#152,#157,.T.);
#159=ORIENTED_EDGE('',*,*,#158,.T.);
#160=CARTESIAN_POINT('',(-2.540000000000000,-1.688460837567753,5.150000000000000));
#161=VERTEX_POINT('',#160);
#162=CARTESIAN_POINT('',(-2.540000000000000,-1.688460837567753,5.150000000000000));
#163=DIRECTION('',(0.0,0.0,1.0));
#164=VECTOR('',#163,0.889999999999999);
#165=LINE('',#162,#164);
#166=EDGE_CURVE('',#161,#152,#165,.T.);
#167=ORIENTED_EDGE('',*,*,#166,.F.);
#168=CARTESIAN_POINT('',(-4.440892E-016,-4.440892E-017,5.150000000000000));
#169=DIRECTION('',(0.0,0.0,-1.0));
#170=DIRECTION('',(1.0,0.0,0.0));
#171=AXIS2_PLACEMENT_3D('',#168,#169,#170);
#172=CIRCLE('',#171,3.050000000000000);
#173=EDGE_CURVE('',#109,#161,#172,.T.);
#174=ORIENTED_EDGE('',*,*,#173,.F.);
#175=EDGE_LOOP('',(#150,#159,#167,#174));
#176=FACE_OUTER_BOUND('',#175,.T.);
#177=ADVANCED_FACE('',(#176),#149,.T.);
#178=CARTESIAN_POINT('',(-2.540000000000000,-1.688460837567753,5.150000000000000));
#179=DIRECTION('',(-1.0,0.0,0.0));
#180=DIRECTION('',(0.0,0.0,1.0));
#181=AXIS2_PLACEMENT_3D('',#178,#179,#180);
#182=PLANE('',#181);
#183=CARTESIAN_POINT('',(-2.540000000000000,-1.688460837567753,6.039999999999999));
#184=DIRECTION('',(0.0,1.0,0.0));
#185=VECTOR('',#184,3.376921675135506);
#186=LINE('',#183,#185);
#187=EDGE_CURVE('',#152,#128,#186,.T.);
#188=ORIENTED_EDGE('',*,*,#187,.T.);
#189=ORIENTED_EDGE('',*,*,#133,.F.);
#190=CARTESIAN_POINT('',(-2.540000000000000,-1.688460837567753,5.150000000000000));
#191=DIRECTION('',(0.0,1.0,0.0));
#192=VECTOR('',#191,3.376921675135506);
#193=LINE('',#190,#192);
#194=EDGE_CURVE('',#161,#119,#193,.T.);
#195=ORIENTED_EDGE('',*,*,#194,.F.);
#196=ORIENTED_EDGE('',*,*,#166,.T.);
#197=EDGE_LOOP('',(#188,#189,#195,#196));
#198=FACE_OUTER_BOUND('',#197,.T.);
#199=ADVANCED_FACE('',(#198),#182,.T.);
#200=CARTESIAN_POINT('',(-0.159131658287277,6.188446E-016,6.039999999999998));
#201=DIRECTION('',(0.0,0.0,1.0));
#202=DIRECTION('',(1.0,0.0,0.0));
#203=AXIS2_PLACEMENT_3D('',#200,#201,#202);
#204=PLANE('',#203);
#205=ORIENTED_EDGE('',*,*,#140,.F.);
#206=ORIENTED_EDGE('',*,*,#187,.F.);
#207=ORIENTED_EDGE('',*,*,#158,.F.);
#208=EDGE_LOOP('',(#205,#206,#207));
#209=FACE_OUTER_BOUND('',#208,.T.);
#210=ADVANCED_FACE('',(#209),#204,.T.);
#211=CARTESIAN_POINT('',(-0.159131658287277,1.747554E-016,5.149999999999999));
#212=DIRECTION('',(0.0,0.0,1.0));
#213=DIRECTION('',(1.0,0.0,0.0));
#214=AXIS2_PLACEMENT_3D('',#211,#212,#213);
#215=PLANE('',#214);
#216=ORIENTED_EDGE('',*,*,#194,.T.);
#217=ORIENTED_EDGE('',*,*,#125,.T.);
#218=ORIENTED_EDGE('',*,*,#173,.T.);
#219=EDGE_LOOP('',(#216,#217,#218));
#220=FACE_OUTER_BOUND('',#219,.T.);
#221=ADVANCED_FACE('',(#220),#215,.F.);
#222=CLOSED_SHELL('',(#144,#177,#199,#210,#221));
#223=MANIFOLD_SOLID_BREP('122',#222);
#224=STYLED_ITEM('NONE',(#99),#223);
#225=CARTESIAN_POINT('',(0.0,6.661338E-017,5.150000000000000));
#226=DIRECTION('',(0.0,4.440892E-016,1.0));
#227=DIRECTION('',(-1.0,0.0,0.0));
#228=AXIS2_PLACEMENT_3D('',#225,#226,#227);
#229=CYLINDRICAL_SURFACE('',#228,2.540000000000000);
#230=CARTESIAN_POINT('',(-2.540000000000000,6.661338E-017,5.150000000000000));
#231=VERTEX_POINT('',#230);
#232=CARTESIAN_POINT('',(-2.540000000000000,2.460254E-015,11.809999999999999));
#233=VERTEX_POINT('',#232);
#234=CARTESIAN_POINT('',(-2.540000000000000,6.661338E-017,5.150000000000000));
#235=DIRECTION('',(0.0,0.0,1.0));
#236=VECTOR('',#235,6.659999999999999);
#237=LINE('',#234,#236);
#238=EDGE_CURVE('',#231,#233,#237,.T.);
#239=ORIENTED_EDGE('',*,*,#238,.F.);
#240=CARTESIAN_POINT('',(2.540000000000000,-2.444366E-016,5.149999999999999));
#241=VERTEX_POINT('',#240);
#242=CARTESIAN_POINT('',(0.0,6.661338E-017,5.150000000000000));
#243=DIRECTION('',(0.0,0.0,-1.0));
#244=DIRECTION('',(-1.0,0.0,0.0));
#245=AXIS2_PLACEMENT_3D('',#242,#243,#244);
#246=CIRCLE('',#245,2.540000000000000);
#247=EDGE_CURVE('',#241,#231,#246,.T.);
#248=ORIENTED_EDGE('',*,*,#247,.F.);
#249=CARTESIAN_POINT('',(2.540000000000000,2.713198E-015,11.809999999999999));
#250=VERTEX_POINT('',#249);
#251=CARTESIAN_POINT('',(2.540000000000000,2.713198E-015,11.809999999999999));
#252=DIRECTION('',(0.0,0.0,-1.0));
#253=VECTOR('',#252,6.660000000000000);
#254=LINE('',#251,#253);
#255=EDGE_CURVE('',#250,#241,#254,.T.);
#256=ORIENTED_EDGE('',*,*,#255,.F.);
#257=CARTESIAN_POINT('',(0.0,2.460254E-015,11.809999999999999));
#258=DIRECTION('',(0.0,0.0,-1.0));
#259=DIRECTION('',(-1.0,0.0,0.0));
#260=AXIS2_PLACEMENT_3D('',#257,#258,#259);
#261=CIRCLE('',#260,2.540000000000000);
#262=EDGE_CURVE('',#250,#233,#261,.T.);
#263=ORIENTED_EDGE('',*,*,#262,.T.);
#264=EDGE_LOOP('',(#239,#248,#256,#263));
#265=FACE_OUTER_BOUND('',#264,.T.);
#266=ADVANCED_FACE('',(#265),#229,.T.);
#267=CARTESIAN_POINT('',(0.0,6.661338E-017,5.150000000000000));
#268=DIRECTION('',(0.0,4.440892E-016,1.0));
#269=DIRECTION('',(-1.0,0.0,0.0));
#270=AXIS2_PLACEMENT_3D('',#267,#268,#269);
#271=CYLINDRICAL_SURFACE('',#270,2.540000000000000);
#272=ORIENTED_EDGE('',*,*,#238,.T.);
#273=CARTESIAN_POINT('',(0.0,2.460254E-015,11.809999999999999));
#274=DIRECTION('',(0.0,0.0,-1.0));
#275=DIRECTION('',(-1.0,0.0,0.0));
#276=AXIS2_PLACEMENT_3D('',#273,#274,#275);
#277=CIRCLE('',#276,2.540000000000000);
#278=EDGE_CURVE('',#233,#250,#277,.T.);
#279=ORIENTED_EDGE('',*,*,#278,.T.);
#280=ORIENTED_EDGE('',*,*,#255,.T.);
#281=CARTESIAN_POINT('',(0.0,6.661338E-017,5.150000000000000));
#282=DIRECTION('',(0.0,0.0,-1.0));
#283=DIRECTION('',(-1.0,0.0,0.0));
#284=AXIS2_PLACEMENT_3D('',#281,#282,#283);
#285=CIRCLE('',#284,2.540000000000000);
#286=EDGE_CURVE('',#231,#241,#285,.T.);
#287=ORIENTED_EDGE('',*,*,#286,.F.);
#288=EDGE_LOOP('',(#272,#279,#280,#287));
#289=FACE_OUTER_BOUND('',#288,.T.);
#290=ADVANCED_FACE('',(#289),#271,.T.);
#291=CARTESIAN_POINT('',(0.0,2.460254E-015,11.809999999999999));
#292=DIRECTION('',(0.0,0.0,-1.0));
#293=DIRECTION('',(-1.0,0.0,0.0));
#294=AXIS2_PLACEMENT_3D('',#291,#292,#293);
#295=PLANE('',#294);
#296=ORIENTED_EDGE('',*,*,#278,.F.);
#297=ORIENTED_EDGE('',*,*,#262,.F.);
#298=EDGE_LOOP('',(#296,#297));
#299=FACE_OUTER_BOUND('',#298,.T.);
#300=ADVANCED_FACE('',(#299),#295,.F.);
#301=CARTESIAN_POINT('',(0.0,6.661338E-017,5.150000000000000));
#302=DIRECTION('',(0.0,0.0,-1.0));
#303=DIRECTION('',(-1.0,0.0,0.0));
#304=AXIS2_PLACEMENT_3D('',#301,#302,#303);
#305=PLANE('',#304);
#306=ORIENTED_EDGE('',*,*,#286,.T.);
#307=ORIENTED_EDGE('',*,*,#247,.T.);
#308=EDGE_LOOP('',(#306,#307));
#309=FACE_OUTER_BOUND('',#308,.T.);
#310=ADVANCED_FACE('',(#309),#305,.T.);
#311=CLOSED_SHELL('',(#266,#290,#300,#310));
#312=MANIFOLD_SOLID_BREP('120',#311);
#313=STYLED_ITEM('NONE',(#99),#312);
#314=CARTESIAN_POINT('',(-1.092803120849112,-0.225000000000023,2.652122008800953));
#315=DIRECTION('',(0.0,-1.0,0.0));
#316=DIRECTION('',(0.0,0.0,1.0));
#317=AXIS2_PLACEMENT_3D('',#314,#315,#316);
#318=PLANE('',#317);
#319=CARTESIAN_POINT('',(-1.044999999999902,-0.225000000000022,5.150000000000000));
#320=VERTEX_POINT('',#319);
#321=CARTESIAN_POINT('',(-1.495000000000005,-0.225000000000023,5.149999999999984));
#322=VERTEX_POINT('',#321);
#323=CARTESIAN_POINT('',(-1.044999999999902,-0.225000000000022,5.150000000000000));
#324=DIRECTION('',(-1.0,0.0,0.0));
#325=VECTOR('',#324,0.450000000000103);
#326=LINE('',#323,#325);
#327=EDGE_CURVE('',#320,#322,#326,.T.);
#328=ORIENTED_EDGE('',*,*,#327,.T.);
#329=CARTESIAN_POINT('',(-1.494999999999948,-0.225000000000023,-3.499999999999999));
#330=VERTEX_POINT('',#329);
#331=CARTESIAN_POINT('',(-1.494999999999948,-0.225000000000023,-3.499999999999999));
#332=DIRECTION('',(0.0,0.0,1.0));
#333=VECTOR('',#332,8.649999999999984);
#334=LINE('',#331,#333);
#335=EDGE_CURVE('',#330,#322,#334,.T.);
#336=ORIENTED_EDGE('',*,*,#335,.F.);
#337=CARTESIAN_POINT('',(-1.044999999999902,-0.225000000000023,-3.499999999999999));
#338=VERTEX_POINT('',#337);
#339=CARTESIAN_POINT('',(-1.044999999999902,-0.225000000000023,-3.499999999999999));
#340=DIRECTION('',(-1.0,0.0,0.0));
#341=VECTOR('',#340,0.450000000000045);
#342=LINE('',#339,#341);
#343=EDGE_CURVE('',#338,#330,#342,.T.);
#344=ORIENTED_EDGE('',*,*,#343,.F.);
#345=CARTESIAN_POINT('',(-1.044999999999902,-0.225000000000022,5.150000000000000));
#346=DIRECTION('',(0.0,0.0,-1.0));
#347=VECTOR('',#346,8.649999999999999);
#348=LINE('',#345,#347);
#349=EDGE_CURVE('',#320,#338,#348,.T.);
#350=ORIENTED_EDGE('',*,*,#349,.F.);
#351=EDGE_LOOP('',(#328,#336,#344,#350));
#352=FACE_OUTER_BOUND('',#351,.T.);
#353=ADVANCED_FACE('',(#352),#318,.T.);
#354=CARTESIAN_POINT('',(-1.494999999999948,0.225000000000023,0.0));
#355=DIRECTION('',(-1.0,0.0,0.0));
#356=DIRECTION('',(0.0,0.0,-1.0));
#357=AXIS2_PLACEMENT_3D('',#354,#355,#356);
#358=PLANE('',#357);
#359=CARTESIAN_POINT('',(-1.495000000000005,0.224999999999977,5.149999999999984));
#360=VERTEX_POINT('',#359);
#361=CARTESIAN_POINT('',(-1.495000000000005,-0.225000000000023,5.149999999999984));
#362=DIRECTION('',(0.0,1.0,0.0));
#363=VECTOR('',#362,0.450000000000000);
#364=LINE('',#361,#363);
#365=EDGE_CURVE('',#322,#360,#364,.T.);
#366=ORIENTED_EDGE('',*,*,#365,.T.);
#367=CARTESIAN_POINT('',(-1.494999999999948,0.225000000000022,-3.499999999999999));
#368=VERTEX_POINT('',#367);
#369=CARTESIAN_POINT('',(-1.494999999999948,0.225000000000022,-3.499999999999999));
#370=DIRECTION('',(0.0,0.0,1.0));
#371=VECTOR('',#370,8.649999999999984);
#372=LINE('',#369,#371);
#373=EDGE_CURVE('',#368,#360,#372,.T.);
#374=ORIENTED_EDGE('',*,*,#373,.F.);
#375=CARTESIAN_POINT('',(-1.494999999999948,0.225000000000022,-3.499999999999999));
#376=DIRECTION('',(0.0,-1.0,0.0));
#377=VECTOR('',#376,0.450000000000045);
#378=LINE('',#375,#377);
#379=EDGE_CURVE('',#368,#330,#378,.T.);
#380=ORIENTED_EDGE('',*,*,#379,.T.);
#381=ORIENTED_EDGE('',*,*,#335,.T.);
#382=EDGE_LOOP('',(#366,#374,#380,#381));
#383=FACE_OUTER_BOUND('',#382,.T.);
#384=ADVANCED_FACE('',(#383),#358,.T.);
#385=CARTESIAN_POINT('',(-1.092803120849112,0.224999999999966,2.652122008800953));
#386=DIRECTION('',(0.0,-1.0,0.0));
#387=DIRECTION('',(0.0,0.0,1.0));
#388=AXIS2_PLACEMENT_3D('',#385,#386,#387);
#389=PLANE('',#388);
#390=CARTESIAN_POINT('',(-1.044999999999902,0.225000000000023,5.150000000000000));
#391=VERTEX_POINT('',#390);
#392=CARTESIAN_POINT('',(-1.495000000000005,0.224999999999977,5.149999999999984));
#393=DIRECTION('',(1.0,1.014620E-013,3.552714E-014));
#394=VECTOR('',#393,0.450000000000103);
#395=LINE('',#392,#394);
#396=EDGE_CURVE('',#360,#391,#395,.T.);
#397=ORIENTED_EDGE('',*,*,#396,.T.);
#398=CARTESIAN_POINT('',(-1.044999999999902,0.225000000000022,-3.499999999999999));
#399=VERTEX_POINT('',#398);
#400=CARTESIAN_POINT('',(-1.044999999999902,0.225000000000023,5.150000000000000));
#401=DIRECTION('',(0.0,0.0,-1.0));
#402=VECTOR('',#401,8.649999999999999);
#403=LINE('',#400,#402);
#404=EDGE_CURVE('',#391,#399,#403,.T.);
#405=ORIENTED_EDGE('',*,*,#404,.T.);
#406=CARTESIAN_POINT('',(-1.044999999999902,0.225000000000022,-3.499999999999999));
#407=DIRECTION('',(-1.0,0.0,0.0));
#408=VECTOR('',#407,0.450000000000045);
#409=LINE('',#406,#408);
#410=EDGE_CURVE('',#399,#368,#409,.T.);
#411=ORIENTED_EDGE('',*,*,#410,.T.);
#412=ORIENTED_EDGE('',*,*,#373,.T.);
#413=EDGE_LOOP('',(#397,#405,#411,#412));
#414=FACE_OUTER_BOUND('',#413,.T.);
#415=ADVANCED_FACE('',(#414),#389,.F.);
#416=CARTESIAN_POINT('',(-1.044999999999902,0.225000000000023,3.500000000000000));
#417=DIRECTION('',(1.0,0.0,0.0));
#418=DIRECTION('',(0.0,0.0,1.0));
#419=AXIS2_PLACEMENT_3D('',#416,#417,#418);
#420=PLANE('',#419);
#421=ORIENTED_EDGE('',*,*,#349,.T.);
#422=CARTESIAN_POINT('',(-1.044999999999902,0.225000000000022,-3.499999999999999));
#423=DIRECTION('',(0.0,-1.0,0.0));
#424=VECTOR('',#423,0.450000000000045);
#425=LINE('',#422,#424);
#426=EDGE_CURVE('',#399,#338,#425,.T.);
#427=ORIENTED_EDGE('',*,*,#426,.F.);
#428=ORIENTED_EDGE('',*,*,#404,.F.);
#429=CARTESIAN_POINT('',(-1.044999999999902,0.225000000000023,5.150000000000000));
#430=DIRECTION('',(0.0,-1.0,0.0));
#431=VECTOR('',#430,0.450000000000045);
#432=LINE('',#429,#431);
#433=EDGE_CURVE('',#391,#320,#432,.T.);
#434=ORIENTED_EDGE('',*,*,#433,.T.);
#435=EDGE_LOOP('',(#421,#427,#428,#434));
#436=FACE_OUTER_BOUND('',#435,.T.);
#437=ADVANCED_FACE('',(#436),#420,.T.);
#438=CARTESIAN_POINT('',(-1.495000000000005,-0.225000000000023,5.149999999999984));
#439=DIRECTION('',(0.0,0.0,-1.0));
#440=DIRECTION('',(-1.0,0.0,0.0));
#441=AXIS2_PLACEMENT_3D('',#438,#439,#440);
#442=PLANE('',#441);
#443=ORIENTED_EDGE('',*,*,#433,.F.);
#444=ORIENTED_EDGE('',*,*,#396,.F.);
#445=ORIENTED_EDGE('',*,*,#365,.F.);
#446=ORIENTED_EDGE('',*,*,#327,.F.);
#447=EDGE_LOOP('',(#443,#444,#445,#446));
#448=FACE_OUTER_BOUND('',#447,.T.);
#449=ADVANCED_FACE('',(#448),#442,.F.);
#450=CARTESIAN_POINT('',(-1.044999999999902,0.225000000000022,-3.499999999999999));
#451=DIRECTION('',(0.0,0.0,-1.0));
#452=DIRECTION('',(1.0,0.0,0.0));
#453=AXIS2_PLACEMENT_3D('',#450,#451,#452);
#454=PLANE('',#453);
#455=ORIENTED_EDGE('',*,*,#343,.T.);
#456=ORIENTED_EDGE('',*,*,#379,.F.);
#457=ORIENTED_EDGE('',*,*,#410,.F.);
#458=ORIENTED_EDGE('',*,*,#426,.T.);
#459=EDGE_LOOP('',(#455,#456,#457,#458));
#460=FACE_OUTER_BOUND('',#459,.T.);
#461=ADVANCED_FACE('',(#460),#454,.T.);
#462=CLOSED_SHELL('',(#353,#384,#415,#437,#449,#461));
#463=CARTESIAN_POINT('',(1.064599999999871,0.224999999999966,2.694600000000008));
#464=DIRECTION('',(0.0,-1.0,0.0));
#465=DIRECTION('',(0.0,0.0,1.0));
#466=AXIS2_PLACEMENT_3D('',#463,#464,#465);
#467=PLANE('',#466);
#468=CARTESIAN_POINT('',(1.044999999999902,0.225000000000023,5.150000000000000));
#469=VERTEX_POINT('',#468);
#470=CARTESIAN_POINT('',(1.494999999999892,0.224999999999978,5.150000000000016));
#471=VERTEX_POINT('',#470);
#472=CARTESIAN_POINT('',(1.044999999999902,0.225000000000023,5.150000000000000));
#473=DIRECTION('',(1.0,-1.009069E-013,3.552714E-014));
#474=VECTOR('',#473,0.449999999999989);
#475=LINE('',#472,#474);
#476=EDGE_CURVE('',#469,#471,#475,.T.);
#477=ORIENTED_EDGE('',*,*,#476,.T.);
#478=CARTESIAN_POINT('',(1.494999999999948,0.225000000000023,-3.499999999999999));
#479=VERTEX_POINT('',#478);
#480=CARTESIAN_POINT('',(1.494999999999892,0.224999999999978,5.150000000000016));
#481=DIRECTION('',(0.0,0.0,-1.0));
#482=VECTOR('',#481,8.650000000000016);
#483=LINE('',#480,#482);
#484=EDGE_CURVE('',#471,#479,#483,.T.);
#485=ORIENTED_EDGE('',*,*,#484,.T.);
#486=CARTESIAN_POINT('',(1.044999999999959,0.225000000000023,-3.499999999999999));
#487=VERTEX_POINT('',#486);
#488=CARTESIAN_POINT('',(1.494999999999948,0.225000000000023,-3.499999999999999));
#489=DIRECTION('',(-1.0,0.0,0.0));
#490=VECTOR('',#489,0.449999999999989);
#491=LINE('',#488,#490);
#492=EDGE_CURVE('',#479,#487,#491,.T.);
#493=ORIENTED_EDGE('',*,*,#492,.T.);
#494=CARTESIAN_POINT('',(1.044999999999959,0.225000000000023,-3.499999999999999));
#495=DIRECTION('',(0.0,0.0,1.0));
#496=VECTOR('',#495,8.649999999999999);
#497=LINE('',#494,#496);
#498=EDGE_CURVE('',#487,#469,#497,.T.);
#499=ORIENTED_EDGE('',*,*,#498,.T.);
#500=EDGE_LOOP('',(#477,#485,#493,#499));
#501=FACE_OUTER_BOUND('',#500,.F.);
#502=ADVANCED_FACE('',(#501),#467,.T.);
#503=CARTESIAN_POINT('',(1.494999999999948,0.225000000000023,3.950000000000000));
#504=DIRECTION('',(1.0,0.0,0.0));
#505=DIRECTION('',(0.0,0.0,1.0));
#506=AXIS2_PLACEMENT_3D('',#503,#504,#505);
#507=PLANE('',#506);
#508=CARTESIAN_POINT('',(1.494999999999892,-0.225000000000022,5.150000000000016));
#509=VERTEX_POINT('',#508);
#510=CARTESIAN_POINT('',(1.494999999999892,0.224999999999978,5.150000000000016));
#511=DIRECTION('',(0.0,-1.0,0.0));
#512=VECTOR('',#511,0.450000000000000);
#513=LINE('',#510,#512);
#514=EDGE_CURVE('',#471,#509,#513,.T.);
#515=ORIENTED_EDGE('',*,*,#514,.T.);
#516=CARTESIAN_POINT('',(1.494999999999948,-0.225000000000023,-3.499999999999999));
#517=VERTEX_POINT('',#516);
#518=CARTESIAN_POINT('',(1.494999999999892,-0.225000000000022,5.150000000000016));
#519=DIRECTION('',(0.0,0.0,-1.0));
#520=VECTOR('',#519,8.650000000000016);
#521=LINE('',#518,#520);
#522=EDGE_CURVE('',#509,#517,#521,.T.);
#523=ORIENTED_EDGE('',*,*,#522,.T.);
#524=CARTESIAN_POINT('',(1.494999999999948,0.225000000000023,-3.499999999999999));
#525=DIRECTION('',(0.0,-1.0,0.0));
#526=VECTOR('',#525,0.450000000000045);
#527=LINE('',#524,#526);
#528=EDGE_CURVE('',#479,#517,#527,.T.);
#529=ORIENTED_EDGE('',*,*,#528,.F.);
#530=ORIENTED_EDGE('',*,*,#484,.F.);
#531=EDGE_LOOP('',(#515,#523,#529,#530));
#532=FACE_OUTER_BOUND('',#531,.F.);
#533=ADVANCED_FACE('',(#532),#507,.F.);
#534=CARTESIAN_POINT('',(1.064599999999871,-0.225000000000023,2.694600000000008));
#535=DIRECTION('',(0.0,-1.0,0.0));
#536=DIRECTION('',(0.0,0.0,1.0));
#537=AXIS2_PLACEMENT_3D('',#534,#535,#536);
#538=PLANE('',#537);
#539=CARTESIAN_POINT('',(1.044999999999902,-0.225000000000022,5.150000000000000));
#540=VERTEX_POINT('',#539);
#541=CARTESIAN_POINT('',(1.494999999999892,-0.225000000000022,5.150000000000016));
#542=DIRECTION('',(-1.0,0.0,0.0));
#543=VECTOR('',#542,0.449999999999989);
#544=LINE('',#541,#543);
#545=EDGE_CURVE('',#509,#540,#544,.T.);
#546=ORIENTED_EDGE('',*,*,#545,.T.);
#547=CARTESIAN_POINT('',(1.044999999999959,-0.225000000000023,-3.499999999999999));
#548=VERTEX_POINT('',#547);
#549=CARTESIAN_POINT('',(1.044999999999959,-0.225000000000023,-3.499999999999999));
#550=DIRECTION('',(0.0,0.0,1.0));
#551=VECTOR('',#550,8.649999999999999);
#552=LINE('',#549,#551);
#553=EDGE_CURVE('',#548,#540,#552,.T.);
#554=ORIENTED_EDGE('',*,*,#553,.F.);
#555=CARTESIAN_POINT('',(1.494999999999948,-0.225000000000023,-3.499999999999999));
#556=DIRECTION('',(-1.0,0.0,0.0));
#557=VECTOR('',#556,0.449999999999989);
#558=LINE('',#555,#557);
#559=EDGE_CURVE('',#517,#548,#558,.T.);
#560=ORIENTED_EDGE('',*,*,#559,.F.);
#561=ORIENTED_EDGE('',*,*,#522,.F.);
#562=EDGE_LOOP('',(#546,#554,#560,#561));
#563=FACE_OUTER_BOUND('',#562,.F.);
#564=ADVANCED_FACE('',(#563),#538,.F.);
#565=CARTESIAN_POINT('',(1.044999999999959,0.225000000000023,0.0));
#566=DIRECTION('',(-1.0,0.0,0.0));
#567=DIRECTION('',(0.0,0.0,-1.0));
#568=AXIS2_PLACEMENT_3D('',#565,#566,#567);
#569=PLANE('',#568);
#570=ORIENTED_EDGE('',*,*,#553,.T.);
#571=CARTESIAN_POINT('',(1.044999999999902,0.225000000000023,5.150000000000000));
#572=DIRECTION('',(0.0,-1.0,0.0));
#573=VECTOR('',#572,0.450000000000045);
#574=LINE('',#571,#573);
#575=EDGE_CURVE('',#469,#540,#574,.T.);
#576=ORIENTED_EDGE('',*,*,#575,.F.);
#577=ORIENTED_EDGE('',*,*,#498,.F.);
#578=CARTESIAN_POINT('',(1.044999999999959,0.225000000000023,-3.499999999999999));
#579=DIRECTION('',(0.0,-1.0,0.0));
#580=VECTOR('',#579,0.450000000000045);
#581=LINE('',#578,#580);
#582=EDGE_CURVE('',#487,#548,#581,.T.);
#583=ORIENTED_EDGE('',*,*,#582,.T.);
#584=EDGE_LOOP('',(#570,#576,#577,#583));
#585=FACE_OUTER_BOUND('',#584,.F.);
#586=ADVANCED_FACE('',(#585),#569,.F.);
#587=CARTESIAN_POINT('',(1.494999999999948,0.225000000000023,-3.499999999999999));
#588=DIRECTION('',(0.0,0.0,-1.0));
#589=DIRECTION('',(1.0,0.0,0.0));
#590=AXIS2_PLACEMENT_3D('',#587,#588,#589);
#591=PLANE('',#590);
#592=ORIENTED_EDGE('',*,*,#559,.T.);
#593=ORIENTED_EDGE('',*,*,#582,.F.);
#594=ORIENTED_EDGE('',*,*,#492,.F.);
#595=ORIENTED_EDGE('',*,*,#528,.T.);
#596=EDGE_LOOP('',(#592,#593,#594,#595));
#597=FACE_OUTER_BOUND('',#596,.F.);
#598=ADVANCED_FACE('',(#597),#591,.F.);
#599=CARTESIAN_POINT('',(0.394999999999868,-0.225000000000022,5.150000000000000));
#600=DIRECTION('',(0.0,0.0,-1.0));
#601=DIRECTION('',(-1.0,0.0,0.0));
#602=AXIS2_PLACEMENT_3D('',#599,#600,#601);
#603=PLANE('',#602);
#604=ORIENTED_EDGE('',*,*,#575,.T.);
#605=ORIENTED_EDGE('',*,*,#545,.F.);
#606=ORIENTED_EDGE('',*,*,#514,.F.);
#607=ORIENTED_EDGE('',*,*,#476,.F.);
#608=EDGE_LOOP('',(#604,#605,#606,#607));
#609=FACE_OUTER_BOUND('',#608,.F.);
#610=ADVANCED_FACE('',(#609),#603,.T.);
#611=CLOSED_SHELL('',(#502,#533,#564,#586,#598,#610));
#612=ORIENTED_CLOSED_SHELL('',*,#611,.F.);
#613=BREP_WITH_VOIDS('DC',#462,(#612));
#614=COLOUR_RGB('254',0.866000000000000,0.866000000000000,0.866000000000000);
#615=SURFACE_STYLE_USAGE(.BOTH.,#616);
#616=SURFACE_SIDE_STYLE('NONE',(#617));
#617=SURFACE_STYLE_FILL_AREA(#618);
#618=FILL_AREA_STYLE('NONE',(#619));
#619=FILL_AREA_STYLE_COLOUR('NONE',#614);
#620=PRESENTATION_STYLE_ASSIGNMENT((#615));
#621=STYLED_ITEM('NONE',(#620),#613);
#622=ADVANCED_BREP_SHAPE_REPRESENTATION('ABSR1',(#92,#223,#312,#613),#28);
#623=SHAPE_REPRESENTATION_RELATIONSHIP('SRRPL1','',#622,#62);
ENDSEC;
END-ISO-10303-21;
