ISO-10303-21;
HEADER;
/* Generated by software containing ST-Developer
 * from STEP Tools, Inc. (www.steptools.com) 
 */

FILE_DESCRIPTION(
/* description */ (''),
/* implementation_level */ '2;1');

FILE_NAME(
/* name */ 
'G:\\Applications\\Altium\\CernLib\\StepLib\\LED_AVAGO_HSMC-C120.stp',
/* time_stamp */ '2016-05-17T17:45:35+02:00',
/* author */ ('riccim'),
/* organization */ (''),
/* preprocessor_version */ 'ST-DEVELOPER v15.5',
/* originating_system */ 'AutoCAD Mechanical',
/* authorisation */ '');

FILE_SCHEMA (('AUTOMOTIVE_DESIGN { 1 0 10303 214 3 1 1 }'));
ENDSEC;

DATA;
#10=MECHANICAL_DESIGN_GEOMETRIC_PRESENTATION_REPRESENTATION('',(#28,#30,
#29,#27,#26,#24,#25),#2019);
#11=DIMENSIONAL_EXPONENTS(0.,0.,0.,0.,0.,0.,0.);
#12=(
CONVERSION_BASED_UNIT('degree',#13)
NAMED_UNIT(#11)
PLANE_ANGLE_UNIT()
);
#13=PLANE_ANGLE_MEASURE_WITH_UNIT(PLANE_ANGLE_MEASURE(0.01745329252),#2022);
#14=PRESENTATION_LAYER_ASSIGNMENT('3D','',(#1265,#1266,#1267,#1268,#1269,
#1270,#1271));
#15=CIRCLE($,#1292,0.599999999999979);
#16=CIRCLE($,#1293,0.599999999999979);
#17=CIRCLE($,#1296,0.600000000000199);
#18=CIRCLE($,#1297,0.600000000000199);
#19=CYLINDRICAL_SURFACE($,#1291,0.599999999999979);
#20=CYLINDRICAL_SURFACE($,#1295,0.600000000000199);
#21=FACE_BOUND($,#120,.T.);
#22=SHAPE_REPRESENTATION_RELATIONSHIP('SRR','None',#2025,#23);
#23=ADVANCED_BREP_SHAPE_REPRESENTATION($,(#1265,#1266,#1267,#1268,#1269,
#1270,#1271),#2018);
#24=STYLED_ITEM($,(#2035),#1265);
#25=STYLED_ITEM($,(#2034),#1266);
#26=STYLED_ITEM($,(#2034),#1267);
#27=STYLED_ITEM($,(#2036),#1268);
#28=STYLED_ITEM($,(#2037),#1269);
#29=STYLED_ITEM($,(#2037),#1270);
#30=STYLED_ITEM($,(#2037),#1271);
#31=FACE_OUTER_BOUND($,#102,.T.);
#32=FACE_OUTER_BOUND($,#103,.T.);
#33=FACE_OUTER_BOUND($,#104,.T.);
#34=FACE_OUTER_BOUND($,#105,.T.);
#35=FACE_OUTER_BOUND($,#106,.T.);
#36=FACE_OUTER_BOUND($,#107,.T.);
#37=FACE_OUTER_BOUND($,#108,.T.);
#38=FACE_OUTER_BOUND($,#109,.T.);
#39=FACE_OUTER_BOUND($,#110,.T.);
#40=FACE_OUTER_BOUND($,#111,.T.);
#41=FACE_OUTER_BOUND($,#112,.T.);
#42=FACE_OUTER_BOUND($,#113,.T.);
#43=FACE_OUTER_BOUND($,#114,.T.);
#44=FACE_OUTER_BOUND($,#115,.T.);
#45=FACE_OUTER_BOUND($,#116,.T.);
#46=FACE_OUTER_BOUND($,#117,.T.);
#47=FACE_OUTER_BOUND($,#118,.T.);
#48=FACE_OUTER_BOUND($,#119,.T.);
#49=FACE_OUTER_BOUND($,#121,.T.);
#50=FACE_OUTER_BOUND($,#122,.T.);
#51=FACE_OUTER_BOUND($,#123,.T.);
#52=FACE_OUTER_BOUND($,#124,.T.);
#53=FACE_OUTER_BOUND($,#125,.T.);
#54=FACE_OUTER_BOUND($,#126,.T.);
#55=FACE_OUTER_BOUND($,#127,.T.);
#56=FACE_OUTER_BOUND($,#128,.T.);
#57=FACE_OUTER_BOUND($,#129,.T.);
#58=FACE_OUTER_BOUND($,#130,.T.);
#59=FACE_OUTER_BOUND($,#131,.T.);
#60=FACE_OUTER_BOUND($,#132,.T.);
#61=FACE_OUTER_BOUND($,#133,.T.);
#62=FACE_OUTER_BOUND($,#134,.T.);
#63=FACE_OUTER_BOUND($,#135,.T.);
#64=FACE_OUTER_BOUND($,#136,.T.);
#65=FACE_OUTER_BOUND($,#137,.T.);
#66=FACE_OUTER_BOUND($,#138,.T.);
#67=FACE_OUTER_BOUND($,#139,.T.);
#68=FACE_OUTER_BOUND($,#140,.T.);
#69=FACE_OUTER_BOUND($,#141,.T.);
#70=FACE_OUTER_BOUND($,#142,.T.);
#71=FACE_OUTER_BOUND($,#143,.T.);
#72=FACE_OUTER_BOUND($,#144,.T.);
#73=FACE_OUTER_BOUND($,#145,.T.);
#74=FACE_OUTER_BOUND($,#146,.T.);
#75=FACE_OUTER_BOUND($,#147,.T.);
#76=FACE_OUTER_BOUND($,#148,.T.);
#77=FACE_OUTER_BOUND($,#149,.T.);
#78=FACE_OUTER_BOUND($,#150,.T.);
#79=FACE_OUTER_BOUND($,#151,.T.);
#80=FACE_OUTER_BOUND($,#152,.T.);
#81=FACE_OUTER_BOUND($,#153,.T.);
#82=FACE_OUTER_BOUND($,#154,.T.);
#83=FACE_OUTER_BOUND($,#155,.T.);
#84=FACE_OUTER_BOUND($,#156,.T.);
#85=FACE_OUTER_BOUND($,#157,.T.);
#86=FACE_OUTER_BOUND($,#158,.T.);
#87=FACE_OUTER_BOUND($,#159,.T.);
#88=FACE_OUTER_BOUND($,#160,.T.);
#89=FACE_OUTER_BOUND($,#161,.T.);
#90=FACE_OUTER_BOUND($,#162,.T.);
#91=FACE_OUTER_BOUND($,#163,.T.);
#92=FACE_OUTER_BOUND($,#164,.T.);
#93=FACE_OUTER_BOUND($,#165,.T.);
#94=FACE_OUTER_BOUND($,#166,.T.);
#95=FACE_OUTER_BOUND($,#167,.T.);
#96=FACE_OUTER_BOUND($,#168,.T.);
#97=FACE_OUTER_BOUND($,#169,.T.);
#98=FACE_OUTER_BOUND($,#170,.T.);
#99=FACE_OUTER_BOUND($,#171,.T.);
#100=FACE_OUTER_BOUND($,#172,.T.);
#101=FACE_OUTER_BOUND($,#173,.T.);
#102=EDGE_LOOP($,(#782,#783,#784,#785));
#103=EDGE_LOOP($,(#786,#787,#788,#789));
#104=EDGE_LOOP($,(#790,#791,#792,#793));
#105=EDGE_LOOP($,(#794,#795,#796,#797));
#106=EDGE_LOOP($,(#798,#799,#800,#801));
#107=EDGE_LOOP($,(#802,#803,#804,#805));
#108=EDGE_LOOP($,(#806,#807,#808,#809));
#109=EDGE_LOOP($,(#810,#811,#812,#813));
#110=EDGE_LOOP($,(#814,#815,#816,#817));
#111=EDGE_LOOP($,(#818,#819,#820,#821));
#112=EDGE_LOOP($,(#822,#823,#824,#825));
#113=EDGE_LOOP($,(#826,#827,#828,#829));
#114=EDGE_LOOP($,(#830,#831,#832,#833));
#115=EDGE_LOOP($,(#834,#835,#836,#837));
#116=EDGE_LOOP($,(#838,#839,#840,#841));
#117=EDGE_LOOP($,(#842,#843,#844,#845));
#118=EDGE_LOOP($,(#846,#847,#848,#849));
#119=EDGE_LOOP($,(#850,#851,#852,#853));
#120=EDGE_LOOP($,(#854,#855,#856,#857));
#121=EDGE_LOOP($,(#858,#859,#860,#861));
#122=EDGE_LOOP($,(#862,#863,#864,#865));
#123=EDGE_LOOP($,(#866,#867,#868,#869));
#124=EDGE_LOOP($,(#870,#871,#872,#873));
#125=EDGE_LOOP($,(#874,#875,#876,#877));
#126=EDGE_LOOP($,(#878,#879,#880,#881));
#127=EDGE_LOOP($,(#882,#883,#884,#885));
#128=EDGE_LOOP($,(#886,#887,#888,#889));
#129=EDGE_LOOP($,(#890,#891,#892,#893,#894,#895,#896,#897));
#130=EDGE_LOOP($,(#898,#899,#900,#901));
#131=EDGE_LOOP($,(#902,#903,#904,#905,#906,#907,#908,#909,#910,#911,#912,
#913));
#132=EDGE_LOOP($,(#914,#915,#916,#917));
#133=EDGE_LOOP($,(#918,#919,#920,#921));
#134=EDGE_LOOP($,(#922,#923,#924,#925));
#135=EDGE_LOOP($,(#926,#927,#928,#929));
#136=EDGE_LOOP($,(#930,#931,#932,#933));
#137=EDGE_LOOP($,(#934,#935,#936,#937));
#138=EDGE_LOOP($,(#938,#939,#940,#941));
#139=EDGE_LOOP($,(#942,#943,#944,#945));
#140=EDGE_LOOP($,(#946,#947,#948,#949));
#141=EDGE_LOOP($,(#950,#951,#952,#953));
#142=EDGE_LOOP($,(#954,#955,#956,#957,#958,#959,#960,#961));
#143=EDGE_LOOP($,(#962,#963,#964,#965,#966,#967,#968,#969,#970,#971,#972,
#973));
#144=EDGE_LOOP($,(#974,#975,#976,#977));
#145=EDGE_LOOP($,(#978,#979,#980,#981));
#146=EDGE_LOOP($,(#982,#983,#984,#985,#986,#987,#988,#989,#990,#991,#992,
#993));
#147=EDGE_LOOP($,(#994,#995,#996,#997));
#148=EDGE_LOOP($,(#998,#999,#1000,#1001));
#149=EDGE_LOOP($,(#1002,#1003,#1004,#1005));
#150=EDGE_LOOP($,(#1006,#1007,#1008,#1009,#1010,#1011,#1012,#1013));
#151=EDGE_LOOP($,(#1014,#1015,#1016,#1017));
#152=EDGE_LOOP($,(#1018,#1019,#1020,#1021));
#153=EDGE_LOOP($,(#1022,#1023,#1024,#1025,#1026,#1027,#1028,#1029));
#154=EDGE_LOOP($,(#1030,#1031,#1032,#1033));
#155=EDGE_LOOP($,(#1034,#1035,#1036,#1037));
#156=EDGE_LOOP($,(#1038,#1039,#1040,#1041));
#157=EDGE_LOOP($,(#1042,#1043,#1044,#1045));
#158=EDGE_LOOP($,(#1046,#1047,#1048,#1049));
#159=EDGE_LOOP($,(#1050,#1051,#1052,#1053));
#160=EDGE_LOOP($,(#1054,#1055,#1056,#1057,#1058,#1059,#1060,#1061));
#161=EDGE_LOOP($,(#1062,#1063,#1064,#1065));
#162=EDGE_LOOP($,(#1066,#1067,#1068,#1069));
#163=EDGE_LOOP($,(#1070,#1071,#1072,#1073));
#164=EDGE_LOOP($,(#1074,#1075,#1076,#1077,#1078,#1079,#1080,#1081));
#165=EDGE_LOOP($,(#1082,#1083,#1084,#1085));
#166=EDGE_LOOP($,(#1086,#1087,#1088,#1089));
#167=EDGE_LOOP($,(#1090,#1091,#1092,#1093));
#168=EDGE_LOOP($,(#1094,#1095,#1096,#1097));
#169=EDGE_LOOP($,(#1098,#1099,#1100,#1101));
#170=EDGE_LOOP($,(#1102,#1103,#1104,#1105));
#171=EDGE_LOOP($,(#1106,#1107,#1108,#1109));
#172=EDGE_LOOP($,(#1110,#1111,#1112,#1113));
#173=EDGE_LOOP($,(#1114,#1115,#1116,#1117));
#174=LINE($,#1668,#338);
#175=LINE($,#1670,#339);
#176=LINE($,#1672,#340);
#177=LINE($,#1673,#341);
#178=LINE($,#1677,#342);
#179=LINE($,#1679,#343);
#180=LINE($,#1681,#344);
#181=LINE($,#1682,#345);
#182=LINE($,#1684,#346);
#183=LINE($,#1685,#347);
#184=LINE($,#1687,#348);
#185=LINE($,#1689,#349);
#186=LINE($,#1694,#350);
#187=LINE($,#1696,#351);
#188=LINE($,#1698,#352);
#189=LINE($,#1699,#353);
#190=LINE($,#1702,#354);
#191=LINE($,#1704,#355);
#192=LINE($,#1705,#356);
#193=LINE($,#1708,#357);
#194=LINE($,#1709,#358);
#195=LINE($,#1712,#359);
#196=LINE($,#1713,#360);
#197=LINE($,#1715,#361);
#198=LINE($,#1720,#362);
#199=LINE($,#1722,#363);
#200=LINE($,#1724,#364);
#201=LINE($,#1725,#365);
#202=LINE($,#1729,#366);
#203=LINE($,#1731,#367);
#204=LINE($,#1733,#368);
#205=LINE($,#1734,#369);
#206=LINE($,#1736,#370);
#207=LINE($,#1737,#371);
#208=LINE($,#1739,#372);
#209=LINE($,#1741,#373);
#210=LINE($,#1745,#374);
#211=LINE($,#1747,#375);
#212=LINE($,#1749,#376);
#213=LINE($,#1750,#377);
#214=LINE($,#1755,#378);
#215=LINE($,#1759,#379);
#216=LINE($,#1761,#380);
#217=LINE($,#1762,#381);
#218=LINE($,#1771,#382);
#219=LINE($,#1773,#383);
#220=LINE($,#1775,#384);
#221=LINE($,#1776,#385);
#222=LINE($,#1780,#386);
#223=LINE($,#1782,#387);
#224=LINE($,#1784,#388);
#225=LINE($,#1785,#389);
#226=LINE($,#1787,#390);
#227=LINE($,#1788,#391);
#228=LINE($,#1791,#392);
#229=LINE($,#1793,#393);
#230=LINE($,#1795,#394);
#231=LINE($,#1797,#395);
#232=LINE($,#1799,#396);
#233=LINE($,#1801,#397);
#234=LINE($,#1802,#398);
#235=LINE($,#1805,#399);
#236=LINE($,#1807,#400);
#237=LINE($,#1808,#401);
#238=LINE($,#1811,#402);
#239=LINE($,#1813,#403);
#240=LINE($,#1815,#404);
#241=LINE($,#1817,#405);
#242=LINE($,#1819,#406);
#243=LINE($,#1821,#407);
#244=LINE($,#1822,#408);
#245=LINE($,#1826,#409);
#246=LINE($,#1828,#410);
#247=LINE($,#1830,#411);
#248=LINE($,#1831,#412);
#249=LINE($,#1833,#413);
#250=LINE($,#1834,#414);
#251=LINE($,#1838,#415);
#252=LINE($,#1840,#416);
#253=LINE($,#1842,#417);
#254=LINE($,#1843,#418);
#255=LINE($,#1846,#419);
#256=LINE($,#1848,#420);
#257=LINE($,#1849,#421);
#258=LINE($,#1851,#422);
#259=LINE($,#1852,#423);
#260=LINE($,#1855,#424);
#261=LINE($,#1856,#425);
#262=LINE($,#1859,#426);
#263=LINE($,#1860,#427);
#264=LINE($,#1863,#428);
#265=LINE($,#1864,#429);
#266=LINE($,#1867,#430);
#267=LINE($,#1869,#431);
#268=LINE($,#1870,#432);
#269=LINE($,#1872,#433);
#270=LINE($,#1875,#434);
#271=LINE($,#1876,#435);
#272=LINE($,#1878,#436);
#273=LINE($,#1881,#437);
#274=LINE($,#1882,#438);
#275=LINE($,#1885,#439);
#276=LINE($,#1886,#440);
#277=LINE($,#1888,#441);
#278=LINE($,#1893,#442);
#279=LINE($,#1895,#443);
#280=LINE($,#1897,#444);
#281=LINE($,#1898,#445);
#282=LINE($,#1902,#446);
#283=LINE($,#1903,#447);
#284=LINE($,#1904,#448);
#285=LINE($,#1907,#449);
#286=LINE($,#1909,#450);
#287=LINE($,#1911,#451);
#288=LINE($,#1913,#452);
#289=LINE($,#1915,#453);
#290=LINE($,#1916,#454);
#291=LINE($,#1919,#455);
#292=LINE($,#1920,#456);
#293=LINE($,#1923,#457);
#294=LINE($,#1924,#458);
#295=LINE($,#1927,#459);
#296=LINE($,#1929,#460);
#297=LINE($,#1931,#461);
#298=LINE($,#1932,#462);
#299=LINE($,#1934,#463);
#300=LINE($,#1935,#464);
#301=LINE($,#1938,#465);
#302=LINE($,#1943,#466);
#303=LINE($,#1945,#467);
#304=LINE($,#1947,#468);
#305=LINE($,#1948,#469);
#306=LINE($,#1951,#470);
#307=LINE($,#1953,#471);
#308=LINE($,#1954,#472);
#309=LINE($,#1958,#473);
#310=LINE($,#1960,#474);
#311=LINE($,#1962,#475);
#312=LINE($,#1964,#476);
#313=LINE($,#1965,#477);
#314=LINE($,#1966,#478);
#315=LINE($,#1970,#479);
#316=LINE($,#1971,#480);
#317=LINE($,#1972,#481);
#318=LINE($,#1975,#482);
#319=LINE($,#1977,#483);
#320=LINE($,#1978,#484);
#321=LINE($,#1981,#485);
#322=LINE($,#1982,#486);
#323=LINE($,#1984,#487);
#324=LINE($,#1985,#488);
#325=LINE($,#1986,#489);
#326=LINE($,#1993,#490);
#327=LINE($,#1995,#491);
#328=LINE($,#1997,#492);
#329=LINE($,#1998,#493);
#330=LINE($,#2001,#494);
#331=LINE($,#2003,#495);
#332=LINE($,#2004,#496);
#333=LINE($,#2007,#497);
#334=LINE($,#2009,#498);
#335=LINE($,#2010,#499);
#336=LINE($,#2012,#500);
#337=LINE($,#2013,#501);
#338=VECTOR($,#1352,0.200000000000046);
#339=VECTOR($,#1353,0.200000000000045);
#340=VECTOR($,#1354,0.200000000000046);
#341=VECTOR($,#1355,0.200000000000045);
#342=VECTOR($,#1358,0.200000000000046);
#343=VECTOR($,#1359,0.200000000000045);
#344=VECTOR($,#1360,0.200000000000046);
#345=VECTOR($,#1361,0.200000000000045);
#346=VECTOR($,#1364,0.2);
#347=VECTOR($,#1365,0.2);
#348=VECTOR($,#1368,0.2);
#349=VECTOR($,#1371,0.2);
#350=VECTOR($,#1376,0.024999999999978);
#351=VECTOR($,#1377,0.25);
#352=VECTOR($,#1378,0.024999999999978);
#353=VECTOR($,#1379,0.25);
#354=VECTOR($,#1382,0.7);
#355=VECTOR($,#1383,0.25);
#356=VECTOR($,#1384,0.7);
#357=VECTOR($,#1387,0.7);
#358=VECTOR($,#1388,0.024999999999978);
#359=VECTOR($,#1391,0.7);
#360=VECTOR($,#1392,0.024999999999978);
#361=VECTOR($,#1395,0.25);
#362=VECTOR($,#1400,0.200000000000046);
#363=VECTOR($,#1401,0.200000000000045);
#364=VECTOR($,#1402,0.200000000000046);
#365=VECTOR($,#1403,0.200000000000045);
#366=VECTOR($,#1406,0.200000000000046);
#367=VECTOR($,#1407,0.200000000000045);
#368=VECTOR($,#1408,0.200000000000046);
#369=VECTOR($,#1409,0.200000000000045);
#370=VECTOR($,#1412,0.2);
#371=VECTOR($,#1413,0.2);
#372=VECTOR($,#1416,0.2);
#373=VECTOR($,#1419,0.2);
#374=VECTOR($,#1422,0.663324958070688);
#375=VECTOR($,#1423,0.7);
#376=VECTOR($,#1424,0.663324958070688);
#377=VECTOR($,#1425,0.7);
#378=VECTOR($,#1430,0.7);
#379=VECTOR($,#1435,1.19999999999982);
#380=VECTOR($,#1436,0.7);
#381=VECTOR($,#1437,1.19999999999982);
#382=VECTOR($,#1450,0.7);
#383=VECTOR($,#1451,0.03);
#384=VECTOR($,#1452,0.7);
#385=VECTOR($,#1453,0.0299999999999999);
#386=VECTOR($,#1456,0.7);
#387=VECTOR($,#1457,0.03);
#388=VECTOR($,#1458,0.7);
#389=VECTOR($,#1459,0.03);
#390=VECTOR($,#1462,0.24999999999993);
#391=VECTOR($,#1463,0.24999999999993);
#392=VECTOR($,#1466,0.474999999999787);
#393=VECTOR($,#1467,0.03);
#394=VECTOR($,#1468,0.21999999999993);
#395=VECTOR($,#1469,0.64);
#396=VECTOR($,#1470,0.219999999999929);
#397=VECTOR($,#1471,0.03);
#398=VECTOR($,#1472,0.474999999999788);
#399=VECTOR($,#1475,0.0750000000003082);
#400=VECTOR($,#1476,0.7);
#401=VECTOR($,#1477,0.0750000000003082);
#402=VECTOR($,#1480,0.59999999999991);
#403=VECTOR($,#1481,1.19999999999996);
#404=VECTOR($,#1482,0.59999999999991);
#405=VECTOR($,#1483,0.149999999999933);
#406=VECTOR($,#1484,0.024999999999978);
#407=VECTOR($,#1485,0.25);
#408=VECTOR($,#1486,0.024999999999978);
#409=VECTOR($,#1489,0.59999999999991);
#410=VECTOR($,#1490,0.21999999999993);
#411=VECTOR($,#1491,0.59999999999991);
#412=VECTOR($,#1492,0.21999999999993);
#413=VECTOR($,#1495,0.03);
#414=VECTOR($,#1496,0.03);
#415=VECTOR($,#1499,0.59999999999991);
#416=VECTOR($,#1500,0.21999999999993);
#417=VECTOR($,#1501,0.59999999999991);
#418=VECTOR($,#1502,0.21999999999993);
#419=VECTOR($,#1505,0.03);
#420=VECTOR($,#1506,0.59999999999991);
#421=VECTOR($,#1507,0.03);
#422=VECTOR($,#1510,0.64);
#423=VECTOR($,#1511,0.64);
#424=VECTOR($,#1514,0.59999999999991);
#425=VECTOR($,#1515,0.03);
#426=VECTOR($,#1518,0.59999999999991);
#427=VECTOR($,#1519,0.219999999999929);
#428=VECTOR($,#1522,0.59999999999991);
#429=VECTOR($,#1523,0.64);
#430=VECTOR($,#1526,0.59999999999991);
#431=VECTOR($,#1527,0.59999999999991);
#432=VECTOR($,#1528,0.03);
#433=VECTOR($,#1531,0.21999999999993);
#434=VECTOR($,#1534,0.150000000000161);
#435=VECTOR($,#1535,0.7);
#436=VECTOR($,#1538,1.19999999999996);
#437=VECTOR($,#1541,0.7);
#438=VECTOR($,#1542,0.024999999999978);
#439=VECTOR($,#1545,0.7);
#440=VECTOR($,#1546,0.024999999999978);
#441=VECTOR($,#1549,0.25);
#442=VECTOR($,#1554,0.59999999999991);
#443=VECTOR($,#1555,0.03);
#444=VECTOR($,#1556,0.59999999999991);
#445=VECTOR($,#1557,0.03);
#446=VECTOR($,#1560,0.59999999999991);
#447=VECTOR($,#1561,0.219999999999929);
#448=VECTOR($,#1562,0.219999999999929);
#449=VECTOR($,#1565,0.64);
#450=VECTOR($,#1566,0.21999999999993);
#451=VECTOR($,#1567,0.03);
#452=VECTOR($,#1568,0.24999999999993);
#453=VECTOR($,#1569,0.7);
#454=VECTOR($,#1570,0.24999999999993);
#455=VECTOR($,#1573,0.64);
#456=VECTOR($,#1574,0.59999999999991);
#457=VECTOR($,#1577,0.59999999999991);
#458=VECTOR($,#1578,0.24999999999993);
#459=VECTOR($,#1581,0.7);
#460=VECTOR($,#1582,0.24999999999993);
#461=VECTOR($,#1583,0.03);
#462=VECTOR($,#1584,0.21999999999993);
#463=VECTOR($,#1587,0.59999999999991);
#464=VECTOR($,#1588,0.59999999999991);
#465=VECTOR($,#1593,0.59999999999991);
#466=VECTOR($,#1598,0.59999999999991);
#467=VECTOR($,#1599,0.21999999999993);
#468=VECTOR($,#1600,0.59999999999991);
#469=VECTOR($,#1601,0.21999999999993);
#470=VECTOR($,#1604,0.03);
#471=VECTOR($,#1605,0.59999999999991);
#472=VECTOR($,#1606,0.03);
#473=VECTOR($,#1609,0.7);
#474=VECTOR($,#1610,0.24999999999993);
#475=VECTOR($,#1611,0.03);
#476=VECTOR($,#1612,0.21999999999993);
#477=VECTOR($,#1613,0.64);
#478=VECTOR($,#1614,0.24999999999993);
#479=VECTOR($,#1617,0.7);
#480=VECTOR($,#1618,0.59999999999991);
#481=VECTOR($,#1619,0.59999999999991);
#482=VECTOR($,#1622,0.59999999999991);
#483=VECTOR($,#1623,0.59999999999991);
#484=VECTOR($,#1624,0.21999999999993);
#485=VECTOR($,#1627,0.59999999999991);
#486=VECTOR($,#1628,0.03);
#487=VECTOR($,#1631,0.64);
#488=VECTOR($,#1632,0.24999999999993);
#489=VECTOR($,#1633,0.24999999999993);
#490=VECTOR($,#1642,0.7);
#491=VECTOR($,#1643,0.03);
#492=VECTOR($,#1644,0.7);
#493=VECTOR($,#1645,0.03);
#494=VECTOR($,#1648,0.24999999999993);
#495=VECTOR($,#1649,0.24999999999993);
#496=VECTOR($,#1650,0.03);
#497=VECTOR($,#1653,0.7);
#498=VECTOR($,#1654,0.7);
#499=VECTOR($,#1655,0.03);
#500=VECTOR($,#1658,0.24999999999993);
#501=VECTOR($,#1659,0.24999999999993);
#502=VERTEX_POINT($,#1666);
#503=VERTEX_POINT($,#1667);
#504=VERTEX_POINT($,#1669);
#505=VERTEX_POINT($,#1671);
#506=VERTEX_POINT($,#1675);
#507=VERTEX_POINT($,#1676);
#508=VERTEX_POINT($,#1678);
#509=VERTEX_POINT($,#1680);
#510=VERTEX_POINT($,#1692);
#511=VERTEX_POINT($,#1693);
#512=VERTEX_POINT($,#1695);
#513=VERTEX_POINT($,#1697);
#514=VERTEX_POINT($,#1701);
#515=VERTEX_POINT($,#1703);
#516=VERTEX_POINT($,#1707);
#517=VERTEX_POINT($,#1711);
#518=VERTEX_POINT($,#1718);
#519=VERTEX_POINT($,#1719);
#520=VERTEX_POINT($,#1721);
#521=VERTEX_POINT($,#1723);
#522=VERTEX_POINT($,#1727);
#523=VERTEX_POINT($,#1728);
#524=VERTEX_POINT($,#1730);
#525=VERTEX_POINT($,#1732);
#526=VERTEX_POINT($,#1743);
#527=VERTEX_POINT($,#1744);
#528=VERTEX_POINT($,#1746);
#529=VERTEX_POINT($,#1748);
#530=VERTEX_POINT($,#1752);
#531=VERTEX_POINT($,#1754);
#532=VERTEX_POINT($,#1758);
#533=VERTEX_POINT($,#1760);
#534=VERTEX_POINT($,#1769);
#535=VERTEX_POINT($,#1770);
#536=VERTEX_POINT($,#1772);
#537=VERTEX_POINT($,#1774);
#538=VERTEX_POINT($,#1778);
#539=VERTEX_POINT($,#1779);
#540=VERTEX_POINT($,#1781);
#541=VERTEX_POINT($,#1783);
#542=VERTEX_POINT($,#1790);
#543=VERTEX_POINT($,#1792);
#544=VERTEX_POINT($,#1794);
#545=VERTEX_POINT($,#1796);
#546=VERTEX_POINT($,#1798);
#547=VERTEX_POINT($,#1800);
#548=VERTEX_POINT($,#1804);
#549=VERTEX_POINT($,#1806);
#550=VERTEX_POINT($,#1810);
#551=VERTEX_POINT($,#1812);
#552=VERTEX_POINT($,#1814);
#553=VERTEX_POINT($,#1816);
#554=VERTEX_POINT($,#1818);
#555=VERTEX_POINT($,#1820);
#556=VERTEX_POINT($,#1824);
#557=VERTEX_POINT($,#1825);
#558=VERTEX_POINT($,#1827);
#559=VERTEX_POINT($,#1829);
#560=VERTEX_POINT($,#1836);
#561=VERTEX_POINT($,#1837);
#562=VERTEX_POINT($,#1839);
#563=VERTEX_POINT($,#1841);
#564=VERTEX_POINT($,#1845);
#565=VERTEX_POINT($,#1847);
#566=VERTEX_POINT($,#1854);
#567=VERTEX_POINT($,#1858);
#568=VERTEX_POINT($,#1862);
#569=VERTEX_POINT($,#1866);
#570=VERTEX_POINT($,#1868);
#571=VERTEX_POINT($,#1874);
#572=VERTEX_POINT($,#1880);
#573=VERTEX_POINT($,#1884);
#574=VERTEX_POINT($,#1891);
#575=VERTEX_POINT($,#1892);
#576=VERTEX_POINT($,#1894);
#577=VERTEX_POINT($,#1896);
#578=VERTEX_POINT($,#1900);
#579=VERTEX_POINT($,#1901);
#580=VERTEX_POINT($,#1906);
#581=VERTEX_POINT($,#1908);
#582=VERTEX_POINT($,#1910);
#583=VERTEX_POINT($,#1912);
#584=VERTEX_POINT($,#1914);
#585=VERTEX_POINT($,#1918);
#586=VERTEX_POINT($,#1922);
#587=VERTEX_POINT($,#1926);
#588=VERTEX_POINT($,#1928);
#589=VERTEX_POINT($,#1930);
#590=VERTEX_POINT($,#1941);
#591=VERTEX_POINT($,#1942);
#592=VERTEX_POINT($,#1944);
#593=VERTEX_POINT($,#1946);
#594=VERTEX_POINT($,#1950);
#595=VERTEX_POINT($,#1952);
#596=VERTEX_POINT($,#1956);
#597=VERTEX_POINT($,#1957);
#598=VERTEX_POINT($,#1959);
#599=VERTEX_POINT($,#1961);
#600=VERTEX_POINT($,#1963);
#601=VERTEX_POINT($,#1968);
#602=VERTEX_POINT($,#1969);
#603=VERTEX_POINT($,#1974);
#604=VERTEX_POINT($,#1976);
#605=VERTEX_POINT($,#1980);
#606=VERTEX_POINT($,#1991);
#607=VERTEX_POINT($,#1992);
#608=VERTEX_POINT($,#1994);
#609=VERTEX_POINT($,#1996);
#610=VERTEX_POINT($,#2000);
#611=VERTEX_POINT($,#2002);
#612=VERTEX_POINT($,#2006);
#613=VERTEX_POINT($,#2008);
#614=EDGE_CURVE($,#502,#503,#174,.T.);
#615=EDGE_CURVE($,#503,#504,#175,.T.);
#616=EDGE_CURVE($,#504,#505,#176,.T.);
#617=EDGE_CURVE($,#505,#502,#177,.T.);
#618=EDGE_CURVE($,#506,#507,#178,.T.);
#619=EDGE_CURVE($,#507,#508,#179,.T.);
#620=EDGE_CURVE($,#508,#509,#180,.T.);
#621=EDGE_CURVE($,#509,#506,#181,.T.);
#622=EDGE_CURVE($,#505,#508,#182,.T.);
#623=EDGE_CURVE($,#502,#507,#183,.T.);
#624=EDGE_CURVE($,#504,#509,#184,.T.);
#625=EDGE_CURVE($,#503,#506,#185,.T.);
#626=EDGE_CURVE($,#510,#511,#186,.T.);
#627=EDGE_CURVE($,#511,#512,#187,.T.);
#628=EDGE_CURVE($,#513,#512,#188,.T.);
#629=EDGE_CURVE($,#510,#513,#189,.T.);
#630=EDGE_CURVE($,#514,#513,#190,.T.);
#631=EDGE_CURVE($,#515,#514,#191,.F.);
#632=EDGE_CURVE($,#515,#510,#192,.F.);
#633=EDGE_CURVE($,#516,#511,#193,.T.);
#634=EDGE_CURVE($,#516,#515,#194,.T.);
#635=EDGE_CURVE($,#517,#512,#195,.T.);
#636=EDGE_CURVE($,#514,#517,#196,.T.);
#637=EDGE_CURVE($,#517,#516,#197,.T.);
#638=EDGE_CURVE($,#518,#519,#198,.T.);
#639=EDGE_CURVE($,#520,#518,#199,.T.);
#640=EDGE_CURVE($,#521,#520,#200,.T.);
#641=EDGE_CURVE($,#519,#521,#201,.T.);
#642=EDGE_CURVE($,#522,#523,#202,.T.);
#643=EDGE_CURVE($,#524,#522,#203,.T.);
#644=EDGE_CURVE($,#525,#524,#204,.T.);
#645=EDGE_CURVE($,#523,#525,#205,.T.);
#646=EDGE_CURVE($,#521,#524,#206,.T.);
#647=EDGE_CURVE($,#525,#520,#207,.T.);
#648=EDGE_CURVE($,#519,#522,#208,.T.);
#649=EDGE_CURVE($,#518,#523,#209,.T.);
#650=EDGE_CURVE($,#526,#527,#210,.T.);
#651=EDGE_CURVE($,#528,#527,#211,.T.);
#652=EDGE_CURVE($,#529,#528,#212,.T.);
#653=EDGE_CURVE($,#529,#526,#213,.T.);
#654=EDGE_CURVE($,#527,#530,#15,.T.);
#655=EDGE_CURVE($,#531,#530,#214,.T.);
#656=EDGE_CURVE($,#528,#531,#16,.T.);
#657=EDGE_CURVE($,#530,#532,#215,.T.);
#658=EDGE_CURVE($,#533,#532,#216,.T.);
#659=EDGE_CURVE($,#531,#533,#217,.T.);
#660=EDGE_CURVE($,#532,#526,#17,.T.);
#661=EDGE_CURVE($,#533,#529,#18,.T.);
#662=EDGE_CURVE($,#534,#535,#218,.T.);
#663=EDGE_CURVE($,#536,#534,#219,.T.);
#664=EDGE_CURVE($,#537,#536,#220,.T.);
#665=EDGE_CURVE($,#535,#537,#221,.T.);
#666=EDGE_CURVE($,#538,#539,#222,.T.);
#667=EDGE_CURVE($,#540,#538,#223,.T.);
#668=EDGE_CURVE($,#541,#540,#224,.T.);
#669=EDGE_CURVE($,#539,#541,#225,.T.);
#670=EDGE_CURVE($,#538,#535,#226,.T.);
#671=EDGE_CURVE($,#534,#539,#227,.T.);
#672=EDGE_CURVE($,#542,#536,#228,.F.);
#673=EDGE_CURVE($,#542,#543,#229,.T.);
#674=EDGE_CURVE($,#543,#544,#230,.T.);
#675=EDGE_CURVE($,#544,#545,#231,.T.);
#676=EDGE_CURVE($,#545,#546,#232,.T.);
#677=EDGE_CURVE($,#546,#547,#233,.T.);
#678=EDGE_CURVE($,#537,#547,#234,.T.);
#679=EDGE_CURVE($,#548,#540,#235,.T.);
#680=EDGE_CURVE($,#548,#549,#236,.T.);
#681=EDGE_CURVE($,#541,#549,#237,.F.);
#682=EDGE_CURVE($,#547,#550,#238,.T.);
#683=EDGE_CURVE($,#550,#551,#239,.T.);
#684=EDGE_CURVE($,#551,#552,#240,.T.);
#685=EDGE_CURVE($,#552,#553,#241,.T.);
#686=EDGE_CURVE($,#553,#554,#242,.T.);
#687=EDGE_CURVE($,#554,#555,#243,.T.);
#688=EDGE_CURVE($,#555,#548,#244,.T.);
#689=EDGE_CURVE($,#556,#557,#245,.T.);
#690=EDGE_CURVE($,#558,#557,#246,.T.);
#691=EDGE_CURVE($,#558,#559,#247,.T.);
#692=EDGE_CURVE($,#556,#559,#248,.T.);
#693=EDGE_CURVE($,#552,#558,#249,.T.);
#694=EDGE_CURVE($,#559,#551,#250,.T.);
#695=EDGE_CURVE($,#560,#561,#251,.T.);
#696=EDGE_CURVE($,#562,#561,#252,.T.);
#697=EDGE_CURVE($,#562,#563,#253,.T.);
#698=EDGE_CURVE($,#560,#563,#254,.T.);
#699=EDGE_CURVE($,#564,#562,#255,.T.);
#700=EDGE_CURVE($,#565,#564,#256,.T.);
#701=EDGE_CURVE($,#563,#565,#257,.T.);
#702=EDGE_CURVE($,#561,#556,#258,.T.);
#703=EDGE_CURVE($,#557,#560,#259,.T.);
#704=EDGE_CURVE($,#566,#546,#260,.T.);
#705=EDGE_CURVE($,#550,#566,#261,.T.);
#706=EDGE_CURVE($,#545,#567,#262,.T.);
#707=EDGE_CURVE($,#566,#567,#263,.T.);
#708=EDGE_CURVE($,#544,#568,#264,.T.);
#709=EDGE_CURVE($,#567,#568,#265,.T.);
#710=EDGE_CURVE($,#543,#569,#266,.T.);
#711=EDGE_CURVE($,#570,#542,#267,.T.);
#712=EDGE_CURVE($,#569,#570,#268,.T.);
#713=EDGE_CURVE($,#568,#569,#269,.T.);
#714=EDGE_CURVE($,#571,#565,#270,.F.);
#715=EDGE_CURVE($,#571,#553,#271,.T.);
#716=EDGE_CURVE($,#564,#570,#272,.F.);
#717=EDGE_CURVE($,#555,#572,#273,.T.);
#718=EDGE_CURVE($,#549,#572,#274,.T.);
#719=EDGE_CURVE($,#573,#554,#275,.T.);
#720=EDGE_CURVE($,#573,#571,#276,.T.);
#721=EDGE_CURVE($,#572,#573,#277,.T.);
#722=EDGE_CURVE($,#574,#575,#278,.T.);
#723=EDGE_CURVE($,#576,#575,#279,.T.);
#724=EDGE_CURVE($,#576,#577,#280,.T.);
#725=EDGE_CURVE($,#577,#574,#281,.T.);
#726=EDGE_CURVE($,#578,#579,#282,.T.);
#727=EDGE_CURVE($,#575,#578,#283,.T.);
#728=EDGE_CURVE($,#579,#574,#284,.T.);
#729=EDGE_CURVE($,#578,#580,#285,.T.);
#730=EDGE_CURVE($,#580,#581,#286,.T.);
#731=EDGE_CURVE($,#582,#581,#287,.T.);
#732=EDGE_CURVE($,#583,#582,#288,.T.);
#733=EDGE_CURVE($,#583,#584,#289,.T.);
#734=EDGE_CURVE($,#584,#576,#290,.T.);
#735=EDGE_CURVE($,#585,#579,#291,.T.);
#736=EDGE_CURVE($,#580,#585,#292,.T.);
#737=EDGE_CURVE($,#586,#584,#293,.T.);
#738=EDGE_CURVE($,#586,#577,#294,.T.);
#739=EDGE_CURVE($,#587,#586,#295,.T.);
#740=EDGE_CURVE($,#588,#587,#296,.T.);
#741=EDGE_CURVE($,#588,#589,#297,.T.);
#742=EDGE_CURVE($,#589,#585,#298,.T.);
#743=EDGE_CURVE($,#582,#588,#299,.T.);
#744=EDGE_CURVE($,#587,#583,#300,.T.);
#745=EDGE_CURVE($,#581,#589,#301,.T.);
#746=EDGE_CURVE($,#590,#591,#302,.T.);
#747=EDGE_CURVE($,#592,#590,#303,.T.);
#748=EDGE_CURVE($,#593,#592,#304,.T.);
#749=EDGE_CURVE($,#591,#593,#305,.T.);
#750=EDGE_CURVE($,#594,#592,#306,.T.);
#751=EDGE_CURVE($,#594,#595,#307,.T.);
#752=EDGE_CURVE($,#595,#593,#308,.T.);
#753=EDGE_CURVE($,#596,#597,#309,.T.);
#754=EDGE_CURVE($,#597,#598,#310,.T.);
#755=EDGE_CURVE($,#598,#599,#311,.T.);
#756=EDGE_CURVE($,#599,#600,#312,.T.);
#757=EDGE_CURVE($,#600,#591,#313,.T.);
#758=EDGE_CURVE($,#596,#595,#314,.T.);
#759=EDGE_CURVE($,#601,#602,#315,.T.);
#760=EDGE_CURVE($,#597,#601,#316,.T.);
#761=EDGE_CURVE($,#602,#596,#317,.T.);
#762=EDGE_CURVE($,#600,#603,#318,.T.);
#763=EDGE_CURVE($,#604,#599,#319,.T.);
#764=EDGE_CURVE($,#603,#604,#320,.T.);
#765=EDGE_CURVE($,#605,#598,#321,.T.);
#766=EDGE_CURVE($,#605,#604,#322,.T.);
#767=EDGE_CURVE($,#590,#603,#323,.T.);
#768=EDGE_CURVE($,#601,#605,#324,.T.);
#769=EDGE_CURVE($,#602,#594,#325,.T.);
#770=EDGE_CURVE($,#606,#607,#326,.T.);
#771=EDGE_CURVE($,#607,#608,#327,.T.);
#772=EDGE_CURVE($,#609,#608,#328,.T.);
#773=EDGE_CURVE($,#606,#609,#329,.T.);
#774=EDGE_CURVE($,#610,#606,#330,.T.);
#775=EDGE_CURVE($,#611,#609,#331,.T.);
#776=EDGE_CURVE($,#610,#611,#332,.T.);
#777=EDGE_CURVE($,#612,#610,#333,.T.);
#778=EDGE_CURVE($,#613,#611,#334,.T.);
#779=EDGE_CURVE($,#612,#613,#335,.T.);
#780=EDGE_CURVE($,#607,#612,#336,.T.);
#781=EDGE_CURVE($,#608,#613,#337,.T.);
#782=ORIENTED_EDGE($,*,*,#614,.T.);
#783=ORIENTED_EDGE($,*,*,#615,.T.);
#784=ORIENTED_EDGE($,*,*,#616,.T.);
#785=ORIENTED_EDGE($,*,*,#617,.T.);
#786=ORIENTED_EDGE($,*,*,#618,.T.);
#787=ORIENTED_EDGE($,*,*,#619,.T.);
#788=ORIENTED_EDGE($,*,*,#620,.T.);
#789=ORIENTED_EDGE($,*,*,#621,.T.);
#790=ORIENTED_EDGE($,*,*,#622,.T.);
#791=ORIENTED_EDGE($,*,*,#619,.F.);
#792=ORIENTED_EDGE($,*,*,#623,.F.);
#793=ORIENTED_EDGE($,*,*,#617,.F.);
#794=ORIENTED_EDGE($,*,*,#624,.T.);
#795=ORIENTED_EDGE($,*,*,#620,.F.);
#796=ORIENTED_EDGE($,*,*,#622,.F.);
#797=ORIENTED_EDGE($,*,*,#616,.F.);
#798=ORIENTED_EDGE($,*,*,#625,.T.);
#799=ORIENTED_EDGE($,*,*,#621,.F.);
#800=ORIENTED_EDGE($,*,*,#624,.F.);
#801=ORIENTED_EDGE($,*,*,#615,.F.);
#802=ORIENTED_EDGE($,*,*,#623,.T.);
#803=ORIENTED_EDGE($,*,*,#618,.F.);
#804=ORIENTED_EDGE($,*,*,#625,.F.);
#805=ORIENTED_EDGE($,*,*,#614,.F.);
#806=ORIENTED_EDGE($,*,*,#626,.T.);
#807=ORIENTED_EDGE($,*,*,#627,.T.);
#808=ORIENTED_EDGE($,*,*,#628,.F.);
#809=ORIENTED_EDGE($,*,*,#629,.F.);
#810=ORIENTED_EDGE($,*,*,#630,.F.);
#811=ORIENTED_EDGE($,*,*,#631,.F.);
#812=ORIENTED_EDGE($,*,*,#632,.T.);
#813=ORIENTED_EDGE($,*,*,#629,.T.);
#814=ORIENTED_EDGE($,*,*,#633,.T.);
#815=ORIENTED_EDGE($,*,*,#626,.F.);
#816=ORIENTED_EDGE($,*,*,#632,.F.);
#817=ORIENTED_EDGE($,*,*,#634,.F.);
#818=ORIENTED_EDGE($,*,*,#635,.F.);
#819=ORIENTED_EDGE($,*,*,#636,.F.);
#820=ORIENTED_EDGE($,*,*,#630,.T.);
#821=ORIENTED_EDGE($,*,*,#628,.T.);
#822=ORIENTED_EDGE($,*,*,#633,.F.);
#823=ORIENTED_EDGE($,*,*,#637,.F.);
#824=ORIENTED_EDGE($,*,*,#635,.T.);
#825=ORIENTED_EDGE($,*,*,#627,.F.);
#826=ORIENTED_EDGE($,*,*,#636,.T.);
#827=ORIENTED_EDGE($,*,*,#637,.T.);
#828=ORIENTED_EDGE($,*,*,#634,.T.);
#829=ORIENTED_EDGE($,*,*,#631,.T.);
#830=ORIENTED_EDGE($,*,*,#638,.F.);
#831=ORIENTED_EDGE($,*,*,#639,.F.);
#832=ORIENTED_EDGE($,*,*,#640,.F.);
#833=ORIENTED_EDGE($,*,*,#641,.F.);
#834=ORIENTED_EDGE($,*,*,#642,.F.);
#835=ORIENTED_EDGE($,*,*,#643,.F.);
#836=ORIENTED_EDGE($,*,*,#644,.F.);
#837=ORIENTED_EDGE($,*,*,#645,.F.);
#838=ORIENTED_EDGE($,*,*,#646,.F.);
#839=ORIENTED_EDGE($,*,*,#640,.T.);
#840=ORIENTED_EDGE($,*,*,#647,.F.);
#841=ORIENTED_EDGE($,*,*,#644,.T.);
#842=ORIENTED_EDGE($,*,*,#648,.F.);
#843=ORIENTED_EDGE($,*,*,#641,.T.);
#844=ORIENTED_EDGE($,*,*,#646,.T.);
#845=ORIENTED_EDGE($,*,*,#643,.T.);
#846=ORIENTED_EDGE($,*,*,#649,.F.);
#847=ORIENTED_EDGE($,*,*,#638,.T.);
#848=ORIENTED_EDGE($,*,*,#648,.T.);
#849=ORIENTED_EDGE($,*,*,#642,.T.);
#850=ORIENTED_EDGE($,*,*,#650,.T.);
#851=ORIENTED_EDGE($,*,*,#651,.F.);
#852=ORIENTED_EDGE($,*,*,#652,.F.);
#853=ORIENTED_EDGE($,*,*,#653,.T.);
#854=ORIENTED_EDGE($,*,*,#645,.T.);
#855=ORIENTED_EDGE($,*,*,#647,.T.);
#856=ORIENTED_EDGE($,*,*,#639,.T.);
#857=ORIENTED_EDGE($,*,*,#649,.T.);
#858=ORIENTED_EDGE($,*,*,#654,.T.);
#859=ORIENTED_EDGE($,*,*,#655,.F.);
#860=ORIENTED_EDGE($,*,*,#656,.F.);
#861=ORIENTED_EDGE($,*,*,#651,.T.);
#862=ORIENTED_EDGE($,*,*,#657,.T.);
#863=ORIENTED_EDGE($,*,*,#658,.F.);
#864=ORIENTED_EDGE($,*,*,#659,.F.);
#865=ORIENTED_EDGE($,*,*,#655,.T.);
#866=ORIENTED_EDGE($,*,*,#660,.T.);
#867=ORIENTED_EDGE($,*,*,#653,.F.);
#868=ORIENTED_EDGE($,*,*,#661,.F.);
#869=ORIENTED_EDGE($,*,*,#658,.T.);
#870=ORIENTED_EDGE($,*,*,#650,.F.);
#871=ORIENTED_EDGE($,*,*,#660,.F.);
#872=ORIENTED_EDGE($,*,*,#657,.F.);
#873=ORIENTED_EDGE($,*,*,#654,.F.);
#874=ORIENTED_EDGE($,*,*,#661,.T.);
#875=ORIENTED_EDGE($,*,*,#652,.T.);
#876=ORIENTED_EDGE($,*,*,#656,.T.);
#877=ORIENTED_EDGE($,*,*,#659,.T.);
#878=ORIENTED_EDGE($,*,*,#662,.F.);
#879=ORIENTED_EDGE($,*,*,#663,.F.);
#880=ORIENTED_EDGE($,*,*,#664,.F.);
#881=ORIENTED_EDGE($,*,*,#665,.F.);
#882=ORIENTED_EDGE($,*,*,#666,.F.);
#883=ORIENTED_EDGE($,*,*,#667,.F.);
#884=ORIENTED_EDGE($,*,*,#668,.F.);
#885=ORIENTED_EDGE($,*,*,#669,.F.);
#886=ORIENTED_EDGE($,*,*,#662,.T.);
#887=ORIENTED_EDGE($,*,*,#670,.F.);
#888=ORIENTED_EDGE($,*,*,#666,.T.);
#889=ORIENTED_EDGE($,*,*,#671,.F.);
#890=ORIENTED_EDGE($,*,*,#664,.T.);
#891=ORIENTED_EDGE($,*,*,#672,.F.);
#892=ORIENTED_EDGE($,*,*,#673,.T.);
#893=ORIENTED_EDGE($,*,*,#674,.T.);
#894=ORIENTED_EDGE($,*,*,#675,.T.);
#895=ORIENTED_EDGE($,*,*,#676,.T.);
#896=ORIENTED_EDGE($,*,*,#677,.T.);
#897=ORIENTED_EDGE($,*,*,#678,.F.);
#898=ORIENTED_EDGE($,*,*,#668,.T.);
#899=ORIENTED_EDGE($,*,*,#679,.F.);
#900=ORIENTED_EDGE($,*,*,#680,.T.);
#901=ORIENTED_EDGE($,*,*,#681,.F.);
#902=ORIENTED_EDGE($,*,*,#667,.T.);
#903=ORIENTED_EDGE($,*,*,#670,.T.);
#904=ORIENTED_EDGE($,*,*,#665,.T.);
#905=ORIENTED_EDGE($,*,*,#678,.T.);
#906=ORIENTED_EDGE($,*,*,#682,.T.);
#907=ORIENTED_EDGE($,*,*,#683,.T.);
#908=ORIENTED_EDGE($,*,*,#684,.T.);
#909=ORIENTED_EDGE($,*,*,#685,.T.);
#910=ORIENTED_EDGE($,*,*,#686,.T.);
#911=ORIENTED_EDGE($,*,*,#687,.T.);
#912=ORIENTED_EDGE($,*,*,#688,.T.);
#913=ORIENTED_EDGE($,*,*,#679,.T.);
#914=ORIENTED_EDGE($,*,*,#689,.T.);
#915=ORIENTED_EDGE($,*,*,#690,.F.);
#916=ORIENTED_EDGE($,*,*,#691,.T.);
#917=ORIENTED_EDGE($,*,*,#692,.F.);
#918=ORIENTED_EDGE($,*,*,#691,.F.);
#919=ORIENTED_EDGE($,*,*,#693,.F.);
#920=ORIENTED_EDGE($,*,*,#684,.F.);
#921=ORIENTED_EDGE($,*,*,#694,.F.);
#922=ORIENTED_EDGE($,*,*,#695,.T.);
#923=ORIENTED_EDGE($,*,*,#696,.F.);
#924=ORIENTED_EDGE($,*,*,#697,.T.);
#925=ORIENTED_EDGE($,*,*,#698,.F.);
#926=ORIENTED_EDGE($,*,*,#697,.F.);
#927=ORIENTED_EDGE($,*,*,#699,.F.);
#928=ORIENTED_EDGE($,*,*,#700,.F.);
#929=ORIENTED_EDGE($,*,*,#701,.F.);
#930=ORIENTED_EDGE($,*,*,#689,.F.);
#931=ORIENTED_EDGE($,*,*,#702,.F.);
#932=ORIENTED_EDGE($,*,*,#695,.F.);
#933=ORIENTED_EDGE($,*,*,#703,.F.);
#934=ORIENTED_EDGE($,*,*,#704,.F.);
#935=ORIENTED_EDGE($,*,*,#705,.F.);
#936=ORIENTED_EDGE($,*,*,#682,.F.);
#937=ORIENTED_EDGE($,*,*,#677,.F.);
#938=ORIENTED_EDGE($,*,*,#706,.T.);
#939=ORIENTED_EDGE($,*,*,#707,.F.);
#940=ORIENTED_EDGE($,*,*,#704,.T.);
#941=ORIENTED_EDGE($,*,*,#676,.F.);
#942=ORIENTED_EDGE($,*,*,#706,.F.);
#943=ORIENTED_EDGE($,*,*,#675,.F.);
#944=ORIENTED_EDGE($,*,*,#708,.T.);
#945=ORIENTED_EDGE($,*,*,#709,.F.);
#946=ORIENTED_EDGE($,*,*,#710,.F.);
#947=ORIENTED_EDGE($,*,*,#673,.F.);
#948=ORIENTED_EDGE($,*,*,#711,.F.);
#949=ORIENTED_EDGE($,*,*,#712,.F.);
#950=ORIENTED_EDGE($,*,*,#708,.F.);
#951=ORIENTED_EDGE($,*,*,#674,.F.);
#952=ORIENTED_EDGE($,*,*,#710,.T.);
#953=ORIENTED_EDGE($,*,*,#713,.F.);
#954=ORIENTED_EDGE($,*,*,#693,.T.);
#955=ORIENTED_EDGE($,*,*,#690,.T.);
#956=ORIENTED_EDGE($,*,*,#703,.T.);
#957=ORIENTED_EDGE($,*,*,#698,.T.);
#958=ORIENTED_EDGE($,*,*,#701,.T.);
#959=ORIENTED_EDGE($,*,*,#714,.F.);
#960=ORIENTED_EDGE($,*,*,#715,.T.);
#961=ORIENTED_EDGE($,*,*,#685,.F.);
#962=ORIENTED_EDGE($,*,*,#694,.T.);
#963=ORIENTED_EDGE($,*,*,#683,.F.);
#964=ORIENTED_EDGE($,*,*,#705,.T.);
#965=ORIENTED_EDGE($,*,*,#707,.T.);
#966=ORIENTED_EDGE($,*,*,#709,.T.);
#967=ORIENTED_EDGE($,*,*,#713,.T.);
#968=ORIENTED_EDGE($,*,*,#712,.T.);
#969=ORIENTED_EDGE($,*,*,#716,.F.);
#970=ORIENTED_EDGE($,*,*,#699,.T.);
#971=ORIENTED_EDGE($,*,*,#696,.T.);
#972=ORIENTED_EDGE($,*,*,#702,.T.);
#973=ORIENTED_EDGE($,*,*,#692,.T.);
#974=ORIENTED_EDGE($,*,*,#717,.T.);
#975=ORIENTED_EDGE($,*,*,#718,.F.);
#976=ORIENTED_EDGE($,*,*,#680,.F.);
#977=ORIENTED_EDGE($,*,*,#688,.F.);
#978=ORIENTED_EDGE($,*,*,#719,.T.);
#979=ORIENTED_EDGE($,*,*,#686,.F.);
#980=ORIENTED_EDGE($,*,*,#715,.F.);
#981=ORIENTED_EDGE($,*,*,#720,.F.);
#982=ORIENTED_EDGE($,*,*,#669,.T.);
#983=ORIENTED_EDGE($,*,*,#681,.T.);
#984=ORIENTED_EDGE($,*,*,#718,.T.);
#985=ORIENTED_EDGE($,*,*,#721,.T.);
#986=ORIENTED_EDGE($,*,*,#720,.T.);
#987=ORIENTED_EDGE($,*,*,#714,.T.);
#988=ORIENTED_EDGE($,*,*,#700,.T.);
#989=ORIENTED_EDGE($,*,*,#716,.T.);
#990=ORIENTED_EDGE($,*,*,#711,.T.);
#991=ORIENTED_EDGE($,*,*,#672,.T.);
#992=ORIENTED_EDGE($,*,*,#663,.T.);
#993=ORIENTED_EDGE($,*,*,#671,.T.);
#994=ORIENTED_EDGE($,*,*,#719,.F.);
#995=ORIENTED_EDGE($,*,*,#721,.F.);
#996=ORIENTED_EDGE($,*,*,#717,.F.);
#997=ORIENTED_EDGE($,*,*,#687,.F.);
#998=ORIENTED_EDGE($,*,*,#722,.T.);
#999=ORIENTED_EDGE($,*,*,#723,.F.);
#1000=ORIENTED_EDGE($,*,*,#724,.T.);
#1001=ORIENTED_EDGE($,*,*,#725,.T.);
#1002=ORIENTED_EDGE($,*,*,#726,.F.);
#1003=ORIENTED_EDGE($,*,*,#727,.F.);
#1004=ORIENTED_EDGE($,*,*,#722,.F.);
#1005=ORIENTED_EDGE($,*,*,#728,.F.);
#1006=ORIENTED_EDGE($,*,*,#729,.T.);
#1007=ORIENTED_EDGE($,*,*,#730,.T.);
#1008=ORIENTED_EDGE($,*,*,#731,.F.);
#1009=ORIENTED_EDGE($,*,*,#732,.F.);
#1010=ORIENTED_EDGE($,*,*,#733,.T.);
#1011=ORIENTED_EDGE($,*,*,#734,.T.);
#1012=ORIENTED_EDGE($,*,*,#723,.T.);
#1013=ORIENTED_EDGE($,*,*,#727,.T.);
#1014=ORIENTED_EDGE($,*,*,#726,.T.);
#1015=ORIENTED_EDGE($,*,*,#735,.F.);
#1016=ORIENTED_EDGE($,*,*,#736,.F.);
#1017=ORIENTED_EDGE($,*,*,#729,.F.);
#1018=ORIENTED_EDGE($,*,*,#734,.F.);
#1019=ORIENTED_EDGE($,*,*,#737,.F.);
#1020=ORIENTED_EDGE($,*,*,#738,.T.);
#1021=ORIENTED_EDGE($,*,*,#724,.F.);
#1022=ORIENTED_EDGE($,*,*,#739,.F.);
#1023=ORIENTED_EDGE($,*,*,#740,.F.);
#1024=ORIENTED_EDGE($,*,*,#741,.T.);
#1025=ORIENTED_EDGE($,*,*,#742,.T.);
#1026=ORIENTED_EDGE($,*,*,#735,.T.);
#1027=ORIENTED_EDGE($,*,*,#728,.T.);
#1028=ORIENTED_EDGE($,*,*,#725,.F.);
#1029=ORIENTED_EDGE($,*,*,#738,.F.);
#1030=ORIENTED_EDGE($,*,*,#732,.T.);
#1031=ORIENTED_EDGE($,*,*,#743,.T.);
#1032=ORIENTED_EDGE($,*,*,#740,.T.);
#1033=ORIENTED_EDGE($,*,*,#744,.T.);
#1034=ORIENTED_EDGE($,*,*,#733,.F.);
#1035=ORIENTED_EDGE($,*,*,#744,.F.);
#1036=ORIENTED_EDGE($,*,*,#739,.T.);
#1037=ORIENTED_EDGE($,*,*,#737,.T.);
#1038=ORIENTED_EDGE($,*,*,#745,.T.);
#1039=ORIENTED_EDGE($,*,*,#741,.F.);
#1040=ORIENTED_EDGE($,*,*,#743,.F.);
#1041=ORIENTED_EDGE($,*,*,#731,.T.);
#1042=ORIENTED_EDGE($,*,*,#736,.T.);
#1043=ORIENTED_EDGE($,*,*,#742,.F.);
#1044=ORIENTED_EDGE($,*,*,#745,.F.);
#1045=ORIENTED_EDGE($,*,*,#730,.F.);
#1046=ORIENTED_EDGE($,*,*,#746,.F.);
#1047=ORIENTED_EDGE($,*,*,#747,.F.);
#1048=ORIENTED_EDGE($,*,*,#748,.F.);
#1049=ORIENTED_EDGE($,*,*,#749,.F.);
#1050=ORIENTED_EDGE($,*,*,#748,.T.);
#1051=ORIENTED_EDGE($,*,*,#750,.F.);
#1052=ORIENTED_EDGE($,*,*,#751,.T.);
#1053=ORIENTED_EDGE($,*,*,#752,.T.);
#1054=ORIENTED_EDGE($,*,*,#753,.T.);
#1055=ORIENTED_EDGE($,*,*,#754,.T.);
#1056=ORIENTED_EDGE($,*,*,#755,.T.);
#1057=ORIENTED_EDGE($,*,*,#756,.T.);
#1058=ORIENTED_EDGE($,*,*,#757,.T.);
#1059=ORIENTED_EDGE($,*,*,#749,.T.);
#1060=ORIENTED_EDGE($,*,*,#752,.F.);
#1061=ORIENTED_EDGE($,*,*,#758,.F.);
#1062=ORIENTED_EDGE($,*,*,#759,.F.);
#1063=ORIENTED_EDGE($,*,*,#760,.F.);
#1064=ORIENTED_EDGE($,*,*,#753,.F.);
#1065=ORIENTED_EDGE($,*,*,#761,.F.);
#1066=ORIENTED_EDGE($,*,*,#762,.F.);
#1067=ORIENTED_EDGE($,*,*,#756,.F.);
#1068=ORIENTED_EDGE($,*,*,#763,.F.);
#1069=ORIENTED_EDGE($,*,*,#764,.F.);
#1070=ORIENTED_EDGE($,*,*,#763,.T.);
#1071=ORIENTED_EDGE($,*,*,#755,.F.);
#1072=ORIENTED_EDGE($,*,*,#765,.F.);
#1073=ORIENTED_EDGE($,*,*,#766,.T.);
#1074=ORIENTED_EDGE($,*,*,#767,.T.);
#1075=ORIENTED_EDGE($,*,*,#764,.T.);
#1076=ORIENTED_EDGE($,*,*,#766,.F.);
#1077=ORIENTED_EDGE($,*,*,#768,.F.);
#1078=ORIENTED_EDGE($,*,*,#759,.T.);
#1079=ORIENTED_EDGE($,*,*,#769,.T.);
#1080=ORIENTED_EDGE($,*,*,#750,.T.);
#1081=ORIENTED_EDGE($,*,*,#747,.T.);
#1082=ORIENTED_EDGE($,*,*,#769,.F.);
#1083=ORIENTED_EDGE($,*,*,#761,.T.);
#1084=ORIENTED_EDGE($,*,*,#758,.T.);
#1085=ORIENTED_EDGE($,*,*,#751,.F.);
#1086=ORIENTED_EDGE($,*,*,#754,.F.);
#1087=ORIENTED_EDGE($,*,*,#760,.T.);
#1088=ORIENTED_EDGE($,*,*,#768,.T.);
#1089=ORIENTED_EDGE($,*,*,#765,.T.);
#1090=ORIENTED_EDGE($,*,*,#746,.T.);
#1091=ORIENTED_EDGE($,*,*,#757,.F.);
#1092=ORIENTED_EDGE($,*,*,#762,.T.);
#1093=ORIENTED_EDGE($,*,*,#767,.F.);
#1094=ORIENTED_EDGE($,*,*,#770,.T.);
#1095=ORIENTED_EDGE($,*,*,#771,.T.);
#1096=ORIENTED_EDGE($,*,*,#772,.F.);
#1097=ORIENTED_EDGE($,*,*,#773,.F.);
#1098=ORIENTED_EDGE($,*,*,#774,.T.);
#1099=ORIENTED_EDGE($,*,*,#773,.T.);
#1100=ORIENTED_EDGE($,*,*,#775,.F.);
#1101=ORIENTED_EDGE($,*,*,#776,.F.);
#1102=ORIENTED_EDGE($,*,*,#777,.T.);
#1103=ORIENTED_EDGE($,*,*,#776,.T.);
#1104=ORIENTED_EDGE($,*,*,#778,.F.);
#1105=ORIENTED_EDGE($,*,*,#779,.F.);
#1106=ORIENTED_EDGE($,*,*,#780,.T.);
#1107=ORIENTED_EDGE($,*,*,#779,.T.);
#1108=ORIENTED_EDGE($,*,*,#781,.F.);
#1109=ORIENTED_EDGE($,*,*,#771,.F.);
#1110=ORIENTED_EDGE($,*,*,#781,.T.);
#1111=ORIENTED_EDGE($,*,*,#778,.T.);
#1112=ORIENTED_EDGE($,*,*,#775,.T.);
#1113=ORIENTED_EDGE($,*,*,#772,.T.);
#1114=ORIENTED_EDGE($,*,*,#780,.F.);
#1115=ORIENTED_EDGE($,*,*,#770,.F.);
#1116=ORIENTED_EDGE($,*,*,#774,.F.);
#1117=ORIENTED_EDGE($,*,*,#777,.F.);
#1118=PLANE($,#1273);
#1119=PLANE($,#1274);
#1120=PLANE($,#1275);
#1121=PLANE($,#1276);
#1122=PLANE($,#1277);
#1123=PLANE($,#1278);
#1124=PLANE($,#1279);
#1125=PLANE($,#1280);
#1126=PLANE($,#1281);
#1127=PLANE($,#1282);
#1128=PLANE($,#1283);
#1129=PLANE($,#1284);
#1130=PLANE($,#1285);
#1131=PLANE($,#1286);
#1132=PLANE($,#1287);
#1133=PLANE($,#1288);
#1134=PLANE($,#1289);
#1135=PLANE($,#1290);
#1136=PLANE($,#1294);
#1137=PLANE($,#1298);
#1138=PLANE($,#1299);
#1139=PLANE($,#1300);
#1140=PLANE($,#1301);
#1141=PLANE($,#1302);
#1142=PLANE($,#1303);
#1143=PLANE($,#1304);
#1144=PLANE($,#1305);
#1145=PLANE($,#1306);
#1146=PLANE($,#1307);
#1147=PLANE($,#1308);
#1148=PLANE($,#1309);
#1149=PLANE($,#1310);
#1150=PLANE($,#1311);
#1151=PLANE($,#1312);
#1152=PLANE($,#1313);
#1153=PLANE($,#1314);
#1154=PLANE($,#1315);
#1155=PLANE($,#1316);
#1156=PLANE($,#1317);
#1157=PLANE($,#1318);
#1158=PLANE($,#1319);
#1159=PLANE($,#1320);
#1160=PLANE($,#1321);
#1161=PLANE($,#1322);
#1162=PLANE($,#1323);
#1163=PLANE($,#1324);
#1164=PLANE($,#1325);
#1165=PLANE($,#1326);
#1166=PLANE($,#1327);
#1167=PLANE($,#1328);
#1168=PLANE($,#1329);
#1169=PLANE($,#1330);
#1170=PLANE($,#1331);
#1171=PLANE($,#1332);
#1172=PLANE($,#1333);
#1173=PLANE($,#1334);
#1174=PLANE($,#1335);
#1175=PLANE($,#1336);
#1176=PLANE($,#1337);
#1177=PLANE($,#1338);
#1178=PLANE($,#1339);
#1179=PLANE($,#1340);
#1180=PLANE($,#1341);
#1181=PLANE($,#1342);
#1182=PLANE($,#1343);
#1183=PLANE($,#1344);
#1184=PLANE($,#1345);
#1185=PLANE($,#1346);
#1186=PLANE($,#1347);
#1187=ADVANCED_FACE($,(#31),#1118,.T.);
#1188=ADVANCED_FACE($,(#32),#1119,.F.);
#1189=ADVANCED_FACE($,(#33),#1120,.F.);
#1190=ADVANCED_FACE($,(#34),#1121,.F.);
#1191=ADVANCED_FACE($,(#35),#1122,.F.);
#1192=ADVANCED_FACE($,(#36),#1123,.F.);
#1193=ADVANCED_FACE($,(#37),#1124,.F.);
#1194=ADVANCED_FACE($,(#38),#1125,.F.);
#1195=ADVANCED_FACE($,(#39),#1126,.F.);
#1196=ADVANCED_FACE($,(#40),#1127,.F.);
#1197=ADVANCED_FACE($,(#41),#1128,.F.);
#1198=ADVANCED_FACE($,(#42),#1129,.T.);
#1199=ADVANCED_FACE($,(#43),#1130,.F.);
#1200=ADVANCED_FACE($,(#44),#1131,.T.);
#1201=ADVANCED_FACE($,(#45),#1132,.T.);
#1202=ADVANCED_FACE($,(#46),#1133,.T.);
#1203=ADVANCED_FACE($,(#47),#1134,.T.);
#1204=ADVANCED_FACE($,(#48,#21),#1135,.T.);
#1205=ADVANCED_FACE($,(#49),#19,.T.);
#1206=ADVANCED_FACE($,(#50),#1136,.T.);
#1207=ADVANCED_FACE($,(#51),#20,.T.);
#1208=ADVANCED_FACE($,(#52),#1137,.T.);
#1209=ADVANCED_FACE($,(#53),#1138,.F.);
#1210=ADVANCED_FACE($,(#54),#1139,.F.);
#1211=ADVANCED_FACE($,(#55),#1140,.F.);
#1212=ADVANCED_FACE($,(#56),#1141,.T.);
#1213=ADVANCED_FACE($,(#57),#1142,.F.);
#1214=ADVANCED_FACE($,(#58),#1143,.F.);
#1215=ADVANCED_FACE($,(#59),#1144,.T.);
#1216=ADVANCED_FACE($,(#60),#1145,.F.);
#1217=ADVANCED_FACE($,(#61),#1146,.F.);
#1218=ADVANCED_FACE($,(#62),#1147,.T.);
#1219=ADVANCED_FACE($,(#63),#1148,.F.);
#1220=ADVANCED_FACE($,(#64),#1149,.F.);
#1221=ADVANCED_FACE($,(#65),#1150,.F.);
#1222=ADVANCED_FACE($,(#66),#1151,.F.);
#1223=ADVANCED_FACE($,(#67),#1152,.T.);
#1224=ADVANCED_FACE($,(#68),#1153,.F.);
#1225=ADVANCED_FACE($,(#69),#1154,.T.);
#1226=ADVANCED_FACE($,(#70),#1155,.F.);
#1227=ADVANCED_FACE($,(#71),#1156,.F.);
#1228=ADVANCED_FACE($,(#72),#1157,.T.);
#1229=ADVANCED_FACE($,(#73),#1158,.T.);
#1230=ADVANCED_FACE($,(#74),#1159,.T.);
#1231=ADVANCED_FACE($,(#75),#1160,.F.);
#1232=ADVANCED_FACE($,(#76),#1161,.T.);
#1233=ADVANCED_FACE($,(#77),#1162,.T.);
#1234=ADVANCED_FACE($,(#78),#1163,.T.);
#1235=ADVANCED_FACE($,(#79),#1164,.F.);
#1236=ADVANCED_FACE($,(#80),#1165,.T.);
#1237=ADVANCED_FACE($,(#81),#1166,.T.);
#1238=ADVANCED_FACE($,(#82),#1167,.T.);
#1239=ADVANCED_FACE($,(#83),#1168,.T.);
#1240=ADVANCED_FACE($,(#84),#1169,.T.);
#1241=ADVANCED_FACE($,(#85),#1170,.F.);
#1242=ADVANCED_FACE($,(#86),#1171,.T.);
#1243=ADVANCED_FACE($,(#87),#1172,.T.);
#1244=ADVANCED_FACE($,(#88),#1173,.T.);
#1245=ADVANCED_FACE($,(#89),#1174,.F.);
#1246=ADVANCED_FACE($,(#90),#1175,.F.);
#1247=ADVANCED_FACE($,(#91),#1176,.T.);
#1248=ADVANCED_FACE($,(#92),#1177,.T.);
#1249=ADVANCED_FACE($,(#93),#1178,.T.);
#1250=ADVANCED_FACE($,(#94),#1179,.T.);
#1251=ADVANCED_FACE($,(#95),#1180,.T.);
#1252=ADVANCED_FACE($,(#96),#1181,.T.);
#1253=ADVANCED_FACE($,(#97),#1182,.T.);
#1254=ADVANCED_FACE($,(#98),#1183,.T.);
#1255=ADVANCED_FACE($,(#99),#1184,.T.);
#1256=ADVANCED_FACE($,(#100),#1185,.T.);
#1257=ADVANCED_FACE($,(#101),#1186,.F.);
#1258=CLOSED_SHELL($,(#1187,#1188,#1189,#1190,#1191,#1192));
#1259=CLOSED_SHELL($,(#1193,#1194,#1195,#1196,#1197,#1198));
#1260=CLOSED_SHELL($,(#1199,#1200,#1201,#1202,#1203,#1204,#1205,#1206,#1207,
#1208,#1209));
#1261=CLOSED_SHELL($,(#1210,#1211,#1212,#1213,#1214,#1215,#1216,#1217,#1218,
#1219,#1220,#1221,#1222,#1223,#1224,#1225,#1226,#1227,#1228,#1229,#1230,
#1231));
#1262=CLOSED_SHELL($,(#1232,#1233,#1234,#1235,#1236,#1237,#1238,#1239,#1240,
#1241));
#1263=CLOSED_SHELL($,(#1242,#1243,#1244,#1245,#1246,#1247,#1248,#1249,#1250,
#1251));
#1264=CLOSED_SHELL($,(#1252,#1253,#1254,#1255,#1256,#1257));
#1265=MANIFOLD_SOLID_BREP('2B81',#1258);
#1266=MANIFOLD_SOLID_BREP('2B83',#1259);
#1267=MANIFOLD_SOLID_BREP('2B84',#1260);
#1268=MANIFOLD_SOLID_BREP('2C07',#1261);
#1269=MANIFOLD_SOLID_BREP('2C19',#1262);
#1270=MANIFOLD_SOLID_BREP('2C21',#1263);
#1271=MANIFOLD_SOLID_BREP('2C29',#1264);
#1272=AXIS2_PLACEMENT_3D('placement',#1664,#1348,#1349);
#1273=AXIS2_PLACEMENT_3D($,#1665,#1350,#1351);
#1274=AXIS2_PLACEMENT_3D($,#1674,#1356,#1357);
#1275=AXIS2_PLACEMENT_3D($,#1683,#1362,#1363);
#1276=AXIS2_PLACEMENT_3D($,#1686,#1366,#1367);
#1277=AXIS2_PLACEMENT_3D($,#1688,#1369,#1370);
#1278=AXIS2_PLACEMENT_3D($,#1690,#1372,#1373);
#1279=AXIS2_PLACEMENT_3D($,#1691,#1374,#1375);
#1280=AXIS2_PLACEMENT_3D($,#1700,#1380,#1381);
#1281=AXIS2_PLACEMENT_3D($,#1706,#1385,#1386);
#1282=AXIS2_PLACEMENT_3D($,#1710,#1389,#1390);
#1283=AXIS2_PLACEMENT_3D($,#1714,#1393,#1394);
#1284=AXIS2_PLACEMENT_3D($,#1716,#1396,#1397);
#1285=AXIS2_PLACEMENT_3D($,#1717,#1398,#1399);
#1286=AXIS2_PLACEMENT_3D($,#1726,#1404,#1405);
#1287=AXIS2_PLACEMENT_3D($,#1735,#1410,#1411);
#1288=AXIS2_PLACEMENT_3D($,#1738,#1414,#1415);
#1289=AXIS2_PLACEMENT_3D($,#1740,#1417,#1418);
#1290=AXIS2_PLACEMENT_3D($,#1742,#1420,#1421);
#1291=AXIS2_PLACEMENT_3D($,#1751,#1426,#1427);
#1292=AXIS2_PLACEMENT_3D($,#1753,#1428,#1429);
#1293=AXIS2_PLACEMENT_3D($,#1756,#1431,#1432);
#1294=AXIS2_PLACEMENT_3D($,#1757,#1433,#1434);
#1295=AXIS2_PLACEMENT_3D($,#1763,#1438,#1439);
#1296=AXIS2_PLACEMENT_3D($,#1764,#1440,#1441);
#1297=AXIS2_PLACEMENT_3D($,#1765,#1442,#1443);
#1298=AXIS2_PLACEMENT_3D($,#1766,#1444,#1445);
#1299=AXIS2_PLACEMENT_3D($,#1767,#1446,#1447);
#1300=AXIS2_PLACEMENT_3D($,#1768,#1448,#1449);
#1301=AXIS2_PLACEMENT_3D($,#1777,#1454,#1455);
#1302=AXIS2_PLACEMENT_3D($,#1786,#1460,#1461);
#1303=AXIS2_PLACEMENT_3D($,#1789,#1464,#1465);
#1304=AXIS2_PLACEMENT_3D($,#1803,#1473,#1474);
#1305=AXIS2_PLACEMENT_3D($,#1809,#1478,#1479);
#1306=AXIS2_PLACEMENT_3D($,#1823,#1487,#1488);
#1307=AXIS2_PLACEMENT_3D($,#1832,#1493,#1494);
#1308=AXIS2_PLACEMENT_3D($,#1835,#1497,#1498);
#1309=AXIS2_PLACEMENT_3D($,#1844,#1503,#1504);
#1310=AXIS2_PLACEMENT_3D($,#1850,#1508,#1509);
#1311=AXIS2_PLACEMENT_3D($,#1853,#1512,#1513);
#1312=AXIS2_PLACEMENT_3D($,#1857,#1516,#1517);
#1313=AXIS2_PLACEMENT_3D($,#1861,#1520,#1521);
#1314=AXIS2_PLACEMENT_3D($,#1865,#1524,#1525);
#1315=AXIS2_PLACEMENT_3D($,#1871,#1529,#1530);
#1316=AXIS2_PLACEMENT_3D($,#1873,#1532,#1533);
#1317=AXIS2_PLACEMENT_3D($,#1877,#1536,#1537);
#1318=AXIS2_PLACEMENT_3D($,#1879,#1539,#1540);
#1319=AXIS2_PLACEMENT_3D($,#1883,#1543,#1544);
#1320=AXIS2_PLACEMENT_3D($,#1887,#1547,#1548);
#1321=AXIS2_PLACEMENT_3D($,#1889,#1550,#1551);
#1322=AXIS2_PLACEMENT_3D($,#1890,#1552,#1553);
#1323=AXIS2_PLACEMENT_3D($,#1899,#1558,#1559);
#1324=AXIS2_PLACEMENT_3D($,#1905,#1563,#1564);
#1325=AXIS2_PLACEMENT_3D($,#1917,#1571,#1572);
#1326=AXIS2_PLACEMENT_3D($,#1921,#1575,#1576);
#1327=AXIS2_PLACEMENT_3D($,#1925,#1579,#1580);
#1328=AXIS2_PLACEMENT_3D($,#1933,#1585,#1586);
#1329=AXIS2_PLACEMENT_3D($,#1936,#1589,#1590);
#1330=AXIS2_PLACEMENT_3D($,#1937,#1591,#1592);
#1331=AXIS2_PLACEMENT_3D($,#1939,#1594,#1595);
#1332=AXIS2_PLACEMENT_3D($,#1940,#1596,#1597);
#1333=AXIS2_PLACEMENT_3D($,#1949,#1602,#1603);
#1334=AXIS2_PLACEMENT_3D($,#1955,#1607,#1608);
#1335=AXIS2_PLACEMENT_3D($,#1967,#1615,#1616);
#1336=AXIS2_PLACEMENT_3D($,#1973,#1620,#1621);
#1337=AXIS2_PLACEMENT_3D($,#1979,#1625,#1626);
#1338=AXIS2_PLACEMENT_3D($,#1983,#1629,#1630);
#1339=AXIS2_PLACEMENT_3D($,#1987,#1634,#1635);
#1340=AXIS2_PLACEMENT_3D($,#1988,#1636,#1637);
#1341=AXIS2_PLACEMENT_3D($,#1989,#1638,#1639);
#1342=AXIS2_PLACEMENT_3D($,#1990,#1640,#1641);
#1343=AXIS2_PLACEMENT_3D($,#1999,#1646,#1647);
#1344=AXIS2_PLACEMENT_3D($,#2005,#1651,#1652);
#1345=AXIS2_PLACEMENT_3D($,#2011,#1656,#1657);
#1346=AXIS2_PLACEMENT_3D($,#2014,#1660,#1661);
#1347=AXIS2_PLACEMENT_3D($,#2015,#1662,#1663);
#1348=DIRECTION('axis',(0.,0.,1.));
#1349=DIRECTION('refdir',(1.,0.,0.));
#1350=DIRECTION('center_axis',(-1.22464679914735E-16,0.,-1.));
#1351=DIRECTION('ref_axis',(-1.,0.,1.11022302462516E-16));
#1352=DIRECTION($,(0.,1.,0.));
#1353=DIRECTION($,(1.,0.,-1.22464679914735E-16));
#1354=DIRECTION($,(0.,-1.,0.));
#1355=DIRECTION($,(-1.,0.,1.22464679914735E-16));
#1356=DIRECTION('center_axis',(-1.22464679914735E-16,0.,-1.));
#1357=DIRECTION('ref_axis',(-1.,0.,1.11022302462516E-16));
#1358=DIRECTION($,(0.,-1.,0.));
#1359=DIRECTION($,(1.,0.,-1.22464679914735E-16));
#1360=DIRECTION($,(0.,1.,0.));
#1361=DIRECTION($,(-1.,0.,1.22464679914735E-16));
#1362=DIRECTION('center_axis',(0.,1.,0.));
#1363=DIRECTION('ref_axis',(-1.2490009027033E-16,0.,-1.));
#1364=DIRECTION($,(1.22464679914735E-16,0.,1.));
#1365=DIRECTION($,(1.22464679914735E-16,0.,1.));
#1366=DIRECTION('center_axis',(-1.,0.,1.22464679914735E-16));
#1367=DIRECTION('ref_axis',(1.2490009027033E-16,0.,1.));
#1368=DIRECTION($,(1.22464679914735E-16,0.,1.));
#1369=DIRECTION('center_axis',(0.,-1.,0.));
#1370=DIRECTION('ref_axis',(1.2490009027033E-16,0.,1.));
#1371=DIRECTION($,(1.22464679914735E-16,0.,1.));
#1372=DIRECTION('center_axis',(1.,0.,-1.22464679914735E-16));
#1373=DIRECTION('ref_axis',(-1.2490009027033E-16,0.,-1.));
#1374=DIRECTION('center_axis',(-1.22464679914735E-16,0.,-1.));
#1375=DIRECTION('ref_axis',(-1.,0.,1.11022302462516E-16));
#1376=DIRECTION($,(0.,-1.,0.));
#1377=DIRECTION($,(1.,0.,-1.22464679914735E-16));
#1378=DIRECTION($,(0.,-1.,0.));
#1379=DIRECTION($,(1.,0.,-1.22464679914735E-16));
#1380=DIRECTION('center_axis',(0.,-1.,0.));
#1381=DIRECTION('ref_axis',(1.11022302462516E-16,0.,1.));
#1382=DIRECTION($,(1.22464679914735E-16,0.,1.));
#1383=DIRECTION($,(-1.,0.,1.22464679914735E-16));
#1384=DIRECTION($,(-1.22464679914735E-16,0.,-1.));
#1385=DIRECTION('center_axis',(1.,0.,-1.22464679914735E-16));
#1386=DIRECTION('ref_axis',(-1.11022302462516E-16,0.,-1.));
#1387=DIRECTION($,(1.22464679914735E-16,0.,1.));
#1388=DIRECTION($,(0.,1.,0.));
#1389=DIRECTION('center_axis',(-1.,0.,1.22464679914735E-16));
#1390=DIRECTION('ref_axis',(1.11022302462516E-16,0.,1.));
#1391=DIRECTION($,(1.22464679914735E-16,0.,1.));
#1392=DIRECTION($,(0.,-1.,0.));
#1393=DIRECTION('center_axis',(0.,1.,0.));
#1394=DIRECTION('ref_axis',(-1.11022302462516E-16,0.,-1.));
#1395=DIRECTION($,(-1.,0.,1.22464679914735E-16));
#1396=DIRECTION('center_axis',(-1.22464679914735E-16,0.,-1.));
#1397=DIRECTION('ref_axis',(-1.,0.,1.22464679914735E-16));
#1398=DIRECTION('center_axis',(-1.22464679914735E-16,0.,-1.));
#1399=DIRECTION('ref_axis',(-1.,0.,1.11022302462516E-16));
#1400=DIRECTION($,(0.,1.,0.));
#1401=DIRECTION($,(-1.,0.,1.22464679914735E-16));
#1402=DIRECTION($,(0.,-1.,0.));
#1403=DIRECTION($,(1.,0.,-1.22464679914735E-16));
#1404=DIRECTION('center_axis',(-1.22464679914735E-16,0.,-1.));
#1405=DIRECTION('ref_axis',(-1.,0.,1.11022302462516E-16));
#1406=DIRECTION($,(0.,-1.,0.));
#1407=DIRECTION($,(-1.,0.,1.22464679914735E-16));
#1408=DIRECTION($,(0.,1.,0.));
#1409=DIRECTION($,(1.,0.,-1.22464679914735E-16));
#1410=DIRECTION('center_axis',(-1.,0.,1.22464679914735E-16));
#1411=DIRECTION('ref_axis',(1.2490009027033E-16,0.,1.));
#1412=DIRECTION($,(1.22464679914735E-16,0.,1.));
#1413=DIRECTION($,(-1.22464679914735E-16,0.,-1.));
#1414=DIRECTION('center_axis',(0.,-1.,0.));
#1415=DIRECTION('ref_axis',(1.2490009027033E-16,0.,1.));
#1416=DIRECTION($,(1.22464679914735E-16,0.,1.));
#1417=DIRECTION('center_axis',(1.,0.,-1.22464679914735E-16));
#1418=DIRECTION('ref_axis',(-1.2490009027033E-16,0.,-1.));
#1419=DIRECTION($,(1.22464679914735E-16,0.,1.));
#1420=DIRECTION('center_axis',(1.715118E-13,-1.,-2.10041376886001E-29));
#1421=DIRECTION('ref_axis',(1.11022302462516E-16,0.,1.));
#1422=DIRECTION($,(1.,1.71389356511294E-13,-1.22464679914735E-16));
#1423=DIRECTION($,(-1.22464679914735E-16,0.,-1.));
#1424=DIRECTION($,(1.,1.71389356511294E-13,-1.22464679914735E-16));
#1425=DIRECTION($,(-1.22464679914735E-16,0.,-1.));
#1426=DIRECTION('center_axis',(-1.22464679914735E-16,0.,-1.));
#1427=DIRECTION('ref_axis',(0.881127345618313,-0.472879055154303,-1.07906978345267E-16));
#1428=DIRECTION('center_axis',(1.22464679914735E-16,0.,1.));
#1429=DIRECTION('ref_axis',(0.881127345618313,-0.472879055154303,-1.07906978345267E-16));
#1430=DIRECTION($,(-1.22464679914735E-16,0.,-1.));
#1431=DIRECTION('center_axis',(1.22464679914735E-16,0.,1.));
#1432=DIRECTION('ref_axis',(0.881127345618313,-0.472879055154303,-1.07906978345267E-16));
#1433=DIRECTION('center_axis',(0.,1.,0.));
#1434=DIRECTION('ref_axis',(-1.11022302462516E-16,0.,-1.));
#1435=DIRECTION($,(-1.,0.,1.22464679914735E-16));
#1436=DIRECTION($,(-1.22464679914735E-16,0.,-1.));
#1437=DIRECTION($,(-1.,0.,1.22464679914735E-16));
#1438=DIRECTION('center_axis',(-1.22464679914735E-16,0.,-1.));
#1439=DIRECTION('ref_axis',(-0.881127345618191,-0.47287905515453,1.07906978345252E-16));
#1440=DIRECTION('center_axis',(1.22464679914735E-16,0.,1.));
#1441=DIRECTION('ref_axis',(-0.881127345618191,-0.47287905515453,1.07906978345252E-16));
#1442=DIRECTION('center_axis',(1.22464679914735E-16,0.,1.));
#1443=DIRECTION('ref_axis',(-0.881127345618191,-0.47287905515453,1.07906978345252E-16));
#1444=DIRECTION('center_axis',(-1.22464679914735E-16,0.,-1.));
#1445=DIRECTION('ref_axis',(-1.,0.,1.22464679914735E-16));
#1446=DIRECTION('center_axis',(-1.22464679914735E-16,0.,-1.));
#1447=DIRECTION('ref_axis',(-1.,0.,1.11022302462516E-16));
#1448=DIRECTION('center_axis',(-1.,0.,1.22464679914735E-16));
#1449=DIRECTION('ref_axis',(1.2490009027033E-16,0.,1.));
#1450=DIRECTION($,(1.22464679914735E-16,-4.93038065763132E-32,1.));
#1451=DIRECTION($,(0.,-1.,0.));
#1452=DIRECTION($,(-1.22464679914735E-16,0.,-1.));
#1453=DIRECTION($,(0.,1.,0.));
#1454=DIRECTION('center_axis',(1.,0.,-1.22464679914735E-16));
#1455=DIRECTION('ref_axis',(-1.2490009027033E-16,0.,-1.));
#1456=DIRECTION($,(-1.22464679914735E-16,4.93038065763132E-32,-1.));
#1457=DIRECTION($,(0.,-1.,0.));
#1458=DIRECTION($,(1.22464679914735E-16,0.,1.));
#1459=DIRECTION($,(0.,1.,0.));
#1460=DIRECTION('center_axis',(9.94229574291463E-17,1.,-5.91803318030471E-17));
#1461=DIRECTION('ref_axis',(-1.22464679914735E-16,-5.55111512312578E-17,
-1.));
#1462=DIRECTION($,(-1.,9.94229574291464E-17,1.22464679914735E-16));
#1463=DIRECTION($,(1.,-9.94229574291464E-17,-1.22464679914735E-16));
#1464=DIRECTION('center_axis',(0.,-1.,0.));
#1465=DIRECTION('ref_axis',(1.11022302462516E-16,0.,1.));
#1466=DIRECTION($,(-1.,0.,1.22464679914735E-16));
#1467=DIRECTION($,(1.22464679914735E-16,0.,1.));
#1468=DIRECTION($,(-1.,0.,1.22464679914733E-16));
#1469=DIRECTION($,(-5.03418889501616E-17,0.,1.));
#1470=DIRECTION($,(1.,0.,-1.22464679914735E-16));
#1471=DIRECTION($,(1.22464679914735E-16,0.,1.));
#1472=DIRECTION($,(-1.,0.,1.22464679914735E-16));
#1473=DIRECTION('center_axis',(0.,-1.,0.));
#1474=DIRECTION('ref_axis',(1.11022302462516E-16,0.,1.));
#1475=DIRECTION($,(-1.,0.,1.22464679914735E-16));
#1476=DIRECTION($,(-1.22464679914735E-16,0.,-1.));
#1477=DIRECTION($,(-1.,0.,1.22464679914735E-16));
#1478=DIRECTION('center_axis',(1.22464679914735E-16,0.,1.));
#1479=DIRECTION('ref_axis',(1.,0.,-1.11022302462516E-16));
#1480=DIRECTION($,(0.,-1.,0.));
#1481=DIRECTION($,(1.,0.,-1.22464679914735E-16));
#1482=DIRECTION($,(0.,1.,0.));
#1483=DIRECTION($,(-1.,0.,1.22464679914735E-16));
#1484=DIRECTION($,(0.,-1.,0.));
#1485=DIRECTION($,(-1.,0.,1.22464679914735E-16));
#1486=DIRECTION($,(0.,1.,0.));
#1487=DIRECTION('center_axis',(-1.22464679914735E-16,0.,-1.));
#1488=DIRECTION('ref_axis',(-1.,0.,1.11022302462516E-16));
#1489=DIRECTION($,(4.1426232262139E-17,1.,-5.07325027405634E-33));
#1490=DIRECTION($,(1.,0.,-1.22464679914735E-16));
#1491=DIRECTION($,(0.,-1.,0.));
#1492=DIRECTION($,(-1.,0.,1.22464679914735E-16));
#1493=DIRECTION('center_axis',(-1.,0.,1.22464679914735E-16));
#1494=DIRECTION('ref_axis',(1.11022302462516E-16,0.,1.));
#1495=DIRECTION($,(-1.22464679914735E-16,0.,-1.));
#1496=DIRECTION($,(1.22464679914735E-16,0.,1.));
#1497=DIRECTION('center_axis',(-1.22464679914724E-16,2.04410475026228E-32,
-1.));
#1498=DIRECTION('ref_axis',(-1.,0.,1.21430643318377E-16));
#1499=DIRECTION($,(-4.1426232262139E-17,-1.,-1.53677972285669E-32));
#1500=DIRECTION($,(1.,0.,-1.22464679914724E-16));
#1501=DIRECTION($,(0.,1.,0.));
#1502=DIRECTION($,(-1.,0.,1.22464679914724E-16));
#1503=DIRECTION('center_axis',(-1.,0.,1.22464679914735E-16));
#1504=DIRECTION('ref_axis',(1.11022302462516E-16,0.,1.));
#1505=DIRECTION($,(1.22464679914735E-16,0.,1.));
#1506=DIRECTION($,(0.,-1.,0.));
#1507=DIRECTION($,(-1.22464679914735E-16,0.,-1.));
#1508=DIRECTION('center_axis',(-1.,4.1426232262139E-17,-5.03418889501614E-17));
#1509=DIRECTION('ref_axis',(0.,0.,1.));
#1510=DIRECTION($,(-5.03418889501614E-17,0.,1.));
#1511=DIRECTION($,(5.03418889501614E-17,0.,-1.));
#1512=DIRECTION('center_axis',(1.,0.,-1.22464679914735E-16));
#1513=DIRECTION('ref_axis',(-1.11022302462516E-16,0.,-1.));
#1514=DIRECTION($,(0.,1.,0.));
#1515=DIRECTION($,(-1.22464679914735E-16,0.,-1.));
#1516=DIRECTION('center_axis',(-1.22464679914735E-16,0.,-1.));
#1517=DIRECTION('ref_axis',(-1.,0.,1.11022302462516E-16));
#1518=DIRECTION($,(-4.14262322621389E-17,-1.,5.07325027405632E-33));
#1519=DIRECTION($,(-1.,0.,1.22464679914735E-16));
#1520=DIRECTION('center_axis',(-1.,4.14262322621389E-17,-5.03418889501616E-17));
#1521=DIRECTION('ref_axis',(0.,0.,1.));
#1522=DIRECTION($,(-4.14262322621389E-17,-1.,-1.53677972285672E-32));
#1523=DIRECTION($,(5.03418889501616E-17,0.,-1.));
#1524=DIRECTION('center_axis',(1.,0.,-1.22464679914735E-16));
#1525=DIRECTION('ref_axis',(-1.11022302462516E-16,0.,-1.));
#1526=DIRECTION($,(0.,-1.,0.));
#1527=DIRECTION($,(0.,1.,0.));
#1528=DIRECTION($,(-1.22464679914735E-16,0.,-1.));
#1529=DIRECTION('center_axis',(-1.22464679914733E-16,2.04410475026235E-32,
-1.));
#1530=DIRECTION('ref_axis',(-1.,0.,1.21430643318377E-16));
#1531=DIRECTION($,(1.,0.,-1.22464679914733E-16));
#1532=DIRECTION('center_axis',(0.,-1.,0.));
#1533=DIRECTION('ref_axis',(1.11022302462516E-16,0.,1.));
#1534=DIRECTION($,(-1.,0.,1.22464679914735E-16));
#1535=DIRECTION($,(3.24942001027389E-13,0.,1.));
#1536=DIRECTION('center_axis',(0.,1.,0.));
#1537=DIRECTION('ref_axis',(-1.11022302462516E-16,0.,-1.));
#1538=DIRECTION($,(1.,0.,-1.22464679914735E-16));
#1539=DIRECTION('center_axis',(1.,0.,-1.22464679914735E-16));
#1540=DIRECTION('ref_axis',(-1.11022302462516E-16,0.,-1.));
#1541=DIRECTION($,(-1.22464679914735E-16,0.,-1.));
#1542=DIRECTION($,(0.,-1.,0.));
#1543=DIRECTION('center_axis',(-1.,0.,1.22464679914735E-16));
#1544=DIRECTION('ref_axis',(1.11022302462516E-16,0.,1.));
#1545=DIRECTION($,(1.22464679914735E-16,0.,1.));
#1546=DIRECTION($,(-9.09494701773729E-12,1.,1.11380977536867E-27));
#1547=DIRECTION('center_axis',(-1.22464679914735E-16,0.,-1.));
#1548=DIRECTION('ref_axis',(-1.,0.,1.22464679914735E-16));
#1549=DIRECTION($,(1.,0.,-1.22464679914735E-16));
#1550=DIRECTION('center_axis',(0.,-1.,0.));
#1551=DIRECTION('ref_axis',(1.11022302462516E-16,0.,1.));
#1552=DIRECTION('center_axis',(1.,0.,-1.22464679914735E-16));
#1553=DIRECTION('ref_axis',(-1.11022302462516E-16,0.,-1.));
#1554=DIRECTION($,(0.,1.,0.));
#1555=DIRECTION($,(-1.22464679914735E-16,0.,-1.));
#1556=DIRECTION($,(0.,-1.,0.));
#1557=DIRECTION($,(-1.22464679914735E-16,0.,-1.));
#1558=DIRECTION('center_axis',(-1.22464679914735E-16,0.,-1.));
#1559=DIRECTION('ref_axis',(-1.,0.,1.11022302462516E-16));
#1560=DIRECTION($,(-4.14262322621389E-17,-1.,5.07325027405632E-33));
#1561=DIRECTION($,(-1.,0.,1.22464679914735E-16));
#1562=DIRECTION($,(1.,2.22044604925094E-16,-1.22464679914735E-16));
#1563=DIRECTION('center_axis',(0.,1.,0.));
#1564=DIRECTION('ref_axis',(-1.11022302462516E-16,0.,-1.));
#1565=DIRECTION($,(9.9579925010296E-17,0.,-1.));
#1566=DIRECTION($,(1.,0.,-1.22464679914735E-16));
#1567=DIRECTION($,(1.22464679914735E-16,0.,1.));
#1568=DIRECTION($,(1.,0.,-1.22464679914735E-16));
#1569=DIRECTION($,(1.22464679914735E-16,0.,1.));
#1570=DIRECTION($,(1.,0.,-1.22464679914735E-16));
#1571=DIRECTION('center_axis',(-1.,4.14262322621389E-17,-5.03418889501616E-17));
#1572=DIRECTION('ref_axis',(0.,0.,1.));
#1573=DIRECTION($,(-9.9579925010296E-17,0.,1.));
#1574=DIRECTION($,(-4.14262322621389E-17,-1.,-1.53677972285672E-32));
#1575=DIRECTION('center_axis',(1.22464679914735E-16,0.,1.));
#1576=DIRECTION('ref_axis',(1.,0.,-1.11022302462516E-16));
#1577=DIRECTION($,(0.,1.,0.));
#1578=DIRECTION($,(1.,0.,-1.22464679914735E-16));
#1579=DIRECTION('center_axis',(2.22044604925094E-16,-1.,-2.71926214689455E-32));
#1580=DIRECTION('ref_axis',(1.11022302462516E-16,0.,1.));
#1581=DIRECTION($,(1.22464679914735E-16,0.,1.));
#1582=DIRECTION($,(-1.,-2.22044604925094E-16,1.22464679914735E-16));
#1583=DIRECTION($,(1.22464679914735E-16,0.,1.));
#1584=DIRECTION($,(-1.,-2.22044604925094E-16,1.22464679914735E-16));
#1585=DIRECTION('center_axis',(-1.22464679914733E-16,8.17641900104942E-32,
-1.));
#1586=DIRECTION('ref_axis',(-1.,0.,1.22464679914733E-16));
#1587=DIRECTION($,(0.,-1.,0.));
#1588=DIRECTION($,(0.,1.,0.));
#1589=DIRECTION('center_axis',(-1.,0.,1.22464679914735E-16));
#1590=DIRECTION('ref_axis',(1.11022302462516E-16,0.,1.));
#1591=DIRECTION('center_axis',(1.,0.,-1.22464679914735E-16));
#1592=DIRECTION('ref_axis',(-1.11022302462516E-16,0.,-1.));
#1593=DIRECTION($,(0.,-1.,0.));
#1594=DIRECTION('center_axis',(-1.22464679914733E-16,2.04410475026235E-32,
-1.));
#1595=DIRECTION('ref_axis',(-1.,0.,1.21430643318377E-16));
#1596=DIRECTION('center_axis',(-1.22464679914735E-16,0.,-1.));
#1597=DIRECTION('ref_axis',(-1.,0.,1.11022302462516E-16));
#1598=DIRECTION($,(4.1426232262139E-17,1.,-5.07325027405634E-33));
#1599=DIRECTION($,(1.,2.22044604925094E-16,-1.22464679914735E-16));
#1600=DIRECTION($,(0.,-1.,0.));
#1601=DIRECTION($,(-1.,0.,1.22464679914735E-16));
#1602=DIRECTION('center_axis',(-1.,0.,1.22464679914735E-16));
#1603=DIRECTION('ref_axis',(1.11022302462516E-16,0.,1.));
#1604=DIRECTION($,(-1.22464679914735E-16,0.,-1.));
#1605=DIRECTION($,(0.,1.,0.));
#1606=DIRECTION($,(-1.22464679914735E-16,0.,-1.));
#1607=DIRECTION('center_axis',(0.,1.,0.));
#1608=DIRECTION('ref_axis',(-1.11022302462516E-16,0.,-1.));
#1609=DIRECTION($,(9.9579925010296E-17,0.,-1.));
#1610=DIRECTION($,(-1.,0.,1.22464679914735E-16));
#1611=DIRECTION($,(1.22464679914735E-16,0.,1.));
#1612=DIRECTION($,(1.,0.,-1.22464679914735E-16));
#1613=DIRECTION($,(-9.9579925010296E-17,0.,1.));
#1614=DIRECTION($,(-1.,0.,1.22464679914735E-16));
#1615=DIRECTION('center_axis',(-1.,4.1426232262139E-17,-5.03418889501614E-17));
#1616=DIRECTION('ref_axis',(0.,0.,1.));
#1617=DIRECTION($,(-9.9579925010296E-17,0.,1.));
#1618=DIRECTION($,(0.,-1.,0.));
#1619=DIRECTION($,(0.,1.,0.));
#1620=DIRECTION('center_axis',(-1.22464679914724E-16,2.04410475026228E-32,
-1.));
#1621=DIRECTION('ref_axis',(-1.,0.,1.21430643318377E-16));
#1622=DIRECTION($,(-4.1426232262139E-17,-1.,-1.53677972285669E-32));
#1623=DIRECTION($,(0.,1.,0.));
#1624=DIRECTION($,(-1.,-2.22044604925094E-16,1.22464679914735E-16));
#1625=DIRECTION('center_axis',(-1.,0.,1.22464679914735E-16));
#1626=DIRECTION('ref_axis',(1.11022302462516E-16,0.,1.));
#1627=DIRECTION($,(0.,1.,0.));
#1628=DIRECTION($,(1.22464679914735E-16,0.,1.));
#1629=DIRECTION('center_axis',(0.,-1.,0.));
#1630=DIRECTION('ref_axis',(1.11022302462516E-16,0.,1.));
#1631=DIRECTION($,(9.9579925010296E-17,0.,-1.));
#1632=DIRECTION($,(-1.,0.,1.22464679914735E-16));
#1633=DIRECTION($,(-1.,0.,1.22464679914735E-16));
#1634=DIRECTION('center_axis',(1.22464679914735E-16,0.,1.));
#1635=DIRECTION('ref_axis',(1.,0.,-1.11022302462516E-16));
#1636=DIRECTION('center_axis',(-1.22464679914735E-16,0.,-1.));
#1637=DIRECTION('ref_axis',(-1.,0.,1.22464679914735E-16));
#1638=DIRECTION('center_axis',(-1.,4.1426232262139E-17,-5.03418889501614E-17));
#1639=DIRECTION('ref_axis',(0.,0.,1.));
#1640=DIRECTION('center_axis',(-1.,0.,1.22464679914735E-16));
#1641=DIRECTION('ref_axis',(-1.2490009027033E-16,0.,-1.));
#1642=DIRECTION($,(-1.22464679914735E-16,0.,-1.));
#1643=DIRECTION($,(0.,-1.,0.));
#1644=DIRECTION($,(-1.22464679914735E-16,0.,-1.));
#1645=DIRECTION($,(0.,-1.,0.));
#1646=DIRECTION('center_axis',(1.22464679914735E-16,0.,1.));
#1647=DIRECTION('ref_axis',(-1.,2.22044604925031E-16,1.11022302462516E-16));
#1648=DIRECTION($,(-1.,2.22044604925094E-16,1.22464679914735E-16));
#1649=DIRECTION($,(-1.,2.22044604925094E-16,1.22464679914735E-16));
#1650=DIRECTION($,(0.,-1.,0.));
#1651=DIRECTION('center_axis',(1.,0.,-1.22464679914735E-16));
#1652=DIRECTION('ref_axis',(1.2490009027033E-16,0.,1.));
#1653=DIRECTION($,(1.22464679914735E-16,0.,1.));
#1654=DIRECTION($,(1.22464679914735E-16,0.,1.));
#1655=DIRECTION($,(0.,-1.,0.));
#1656=DIRECTION('center_axis',(-1.22464679914735E-16,0.,-1.));
#1657=DIRECTION('ref_axis',(1.,-2.22044604925031E-16,-1.22464679914735E-16));
#1658=DIRECTION($,(1.,-2.22044604925094E-16,-1.22464679914735E-16));
#1659=DIRECTION($,(1.,-2.22044604925094E-16,-1.22464679914735E-16));
#1660=DIRECTION('center_axis',(0.,-1.,0.));
#1661=DIRECTION('ref_axis',(1.22464679914735E-16,0.,1.));
#1662=DIRECTION('center_axis',(-2.22044604925031E-16,-1.,2.71926214689378E-32));
#1663=DIRECTION('ref_axis',(1.22464679914735E-16,0.,1.));
#1664=CARTESIAN_POINT('',(0.,0.,0.));
#1665=CARTESIAN_POINT('Origin',(0.110000000000479,-0.810000000000185,0.25));
#1666=CARTESIAN_POINT('',(-0.0999999999995683,-0.800000000000182,0.25));
#1667=CARTESIAN_POINT('',(-0.0999999999995683,-0.600000000000136,0.25));
#1668=CARTESIAN_POINT($,(-0.0999999999995683,-0.800000000000182,0.25));
#1669=CARTESIAN_POINT('',(0.100000000000477,-0.600000000000136,0.25));
#1670=CARTESIAN_POINT($,(-0.0999999999995683,-0.600000000000136,0.25));
#1671=CARTESIAN_POINT('',(0.100000000000477,-0.800000000000182,0.25));
#1672=CARTESIAN_POINT($,(0.100000000000477,-0.600000000000136,0.25));
#1673=CARTESIAN_POINT($,(0.100000000000477,-0.800000000000182,0.25));
#1674=CARTESIAN_POINT('Origin',(0.110000000000479,-0.810000000000185,0.45));
#1675=CARTESIAN_POINT('',(-0.0999999999995683,-0.600000000000136,0.45));
#1676=CARTESIAN_POINT('',(-0.0999999999995683,-0.800000000000182,0.45));
#1677=CARTESIAN_POINT($,(-0.0999999999995683,-0.600000000000136,0.45));
#1678=CARTESIAN_POINT('',(0.100000000000477,-0.800000000000182,0.45));
#1679=CARTESIAN_POINT($,(-0.0999999999995683,-0.800000000000182,0.45));
#1680=CARTESIAN_POINT('',(0.100000000000477,-0.600000000000136,0.45));
#1681=CARTESIAN_POINT($,(0.100000000000477,-0.800000000000182,0.45));
#1682=CARTESIAN_POINT($,(0.100000000000477,-0.600000000000136,0.45));
#1683=CARTESIAN_POINT('Origin',(0.110000000000479,-0.800000000000182,0.46));
#1684=CARTESIAN_POINT($,(0.100000000000477,-0.800000000000182,0.25));
#1685=CARTESIAN_POINT($,(-0.0999999999995683,-0.800000000000182,0.25));
#1686=CARTESIAN_POINT('Origin',(0.100000000000477,-0.810000000000185,0.24));
#1687=CARTESIAN_POINT($,(0.100000000000477,-0.600000000000136,0.25));
#1688=CARTESIAN_POINT('Origin',(0.110000000000479,-0.600000000000136,0.24));
#1689=CARTESIAN_POINT($,(-0.0999999999995683,-0.600000000000136,0.25));
#1690=CARTESIAN_POINT('Origin',(-0.0999999999995683,-0.810000000000185,
0.46));
#1691=CARTESIAN_POINT('Origin',(0.187500000000273,0.273749999999978,0.7));
#1692=CARTESIAN_POINT('',(0.200000000000273,0.299999999999955,0.7));
#1693=CARTESIAN_POINT('',(0.200000000000273,0.274999999999977,0.7));
#1694=CARTESIAN_POINT($,(0.200000000000273,0.299999999999955,0.7));
#1695=CARTESIAN_POINT('',(0.450000000000273,0.274999999999977,0.7));
#1696=CARTESIAN_POINT($,(0.200000000000273,0.274999999999977,0.7));
#1697=CARTESIAN_POINT('',(0.450000000000273,0.299999999999955,0.7));
#1698=CARTESIAN_POINT($,(0.450000000000273,0.299999999999955,0.7));
#1699=CARTESIAN_POINT($,(0.200000000000273,0.299999999999955,0.7));
#1700=CARTESIAN_POINT('Origin',(0.187500000000273,0.299999999999955,0.735));
#1701=CARTESIAN_POINT('',(0.450000000000273,0.299999999999955,0.));
#1702=CARTESIAN_POINT($,(0.450000000000273,0.299999999999955,0.));
#1703=CARTESIAN_POINT('',(0.200000000000273,0.299999999999955,0.));
#1704=CARTESIAN_POINT($,(0.450000000000273,0.299999999999955,0.));
#1705=CARTESIAN_POINT($,(0.200000000000273,0.299999999999955,0.7));
#1706=CARTESIAN_POINT('Origin',(0.200000000000273,0.301249999999954,-0.0350000000000001));
#1707=CARTESIAN_POINT('',(0.200000000000273,0.274999999999977,0.));
#1708=CARTESIAN_POINT($,(0.200000000000273,0.274999999999977,0.));
#1709=CARTESIAN_POINT($,(0.200000000000273,0.274999999999977,0.));
#1710=CARTESIAN_POINT('Origin',(0.450000000000273,0.301249999999954,0.735));
#1711=CARTESIAN_POINT('',(0.450000000000273,0.274999999999977,0.));
#1712=CARTESIAN_POINT($,(0.450000000000273,0.274999999999977,0.));
#1713=CARTESIAN_POINT($,(0.450000000000273,0.299999999999955,0.));
#1714=CARTESIAN_POINT('Origin',(0.187500000000273,0.274999999999977,0.735));
#1715=CARTESIAN_POINT($,(0.450000000000273,0.274999999999977,0.));
#1716=CARTESIAN_POINT('Origin',(0.187500000000273,0.301249999999954,0.));
#1717=CARTESIAN_POINT('Origin',(0.110000000000479,-0.810000000000185,0.25));
#1718=CARTESIAN_POINT('',(-0.0999999999995683,-0.800000000000182,0.25));
#1719=CARTESIAN_POINT('',(-0.0999999999995683,-0.600000000000136,0.25));
#1720=CARTESIAN_POINT($,(-0.0999999999995683,-0.800000000000182,0.25));
#1721=CARTESIAN_POINT('',(0.100000000000477,-0.800000000000182,0.25));
#1722=CARTESIAN_POINT($,(0.100000000000477,-0.800000000000182,0.25));
#1723=CARTESIAN_POINT('',(0.100000000000477,-0.600000000000136,0.25));
#1724=CARTESIAN_POINT($,(0.100000000000477,-0.600000000000136,0.25));
#1725=CARTESIAN_POINT($,(-0.0999999999995683,-0.600000000000136,0.25));
#1726=CARTESIAN_POINT('Origin',(0.110000000000479,-0.810000000000185,0.45));
#1727=CARTESIAN_POINT('',(-0.0999999999995683,-0.600000000000136,0.45));
#1728=CARTESIAN_POINT('',(-0.0999999999995683,-0.800000000000182,0.45));
#1729=CARTESIAN_POINT($,(-0.0999999999995683,-0.600000000000136,0.45));
#1730=CARTESIAN_POINT('',(0.100000000000477,-0.600000000000136,0.45));
#1731=CARTESIAN_POINT($,(0.100000000000477,-0.600000000000136,0.45));
#1732=CARTESIAN_POINT('',(0.100000000000477,-0.800000000000182,0.45));
#1733=CARTESIAN_POINT($,(0.100000000000477,-0.800000000000182,0.45));
#1734=CARTESIAN_POINT($,(-0.0999999999995683,-0.800000000000182,0.45));
#1735=CARTESIAN_POINT('Origin',(0.100000000000477,-0.810000000000185,0.24));
#1736=CARTESIAN_POINT($,(0.100000000000477,-0.600000000000136,0.25));
#1737=CARTESIAN_POINT($,(0.100000000000477,-0.800000000000182,0.45));
#1738=CARTESIAN_POINT('Origin',(0.110000000000479,-0.600000000000136,0.24));
#1739=CARTESIAN_POINT($,(-0.0999999999995683,-0.600000000000136,0.25));
#1740=CARTESIAN_POINT('Origin',(-0.0999999999995683,-0.810000000000185,
0.46));
#1741=CARTESIAN_POINT($,(-0.0999999999995683,-0.800000000000182,0.25));
#1742=CARTESIAN_POINT('Origin',(-0.364828726938538,-0.800000000000188,0.735));
#1743=CARTESIAN_POINT('',(-0.331662479035003,-0.800000000000182,0.));
#1744=CARTESIAN_POINT('',(0.331662479035685,-0.800000000000068,0.));
#1745=CARTESIAN_POINT($,(-0.331662479035003,-0.800000000000182,0.));
#1746=CARTESIAN_POINT('',(0.331662479035685,-0.800000000000068,0.7));
#1747=CARTESIAN_POINT($,(0.331662479035685,-0.800000000000068,0.7));
#1748=CARTESIAN_POINT('',(-0.331662479035003,-0.800000000000182,0.7));
#1749=CARTESIAN_POINT($,(-0.331662479035003,-0.800000000000182,0.7));
#1750=CARTESIAN_POINT($,(-0.331662479035003,-0.800000000000182,0.7));
#1751=CARTESIAN_POINT('Origin',(2.27155941658872E-13,-0.300000000000068,
0.735));
#1752=CARTESIAN_POINT('',(0.600000000000136,-0.299999999999955,-1.11022302462516E-16));
#1753=CARTESIAN_POINT('Origin',(2.27065930119135E-13,-0.300000000000068,
0.));
#1754=CARTESIAN_POINT('',(0.600000000000136,-0.299999999999955,0.7));
#1755=CARTESIAN_POINT($,(0.600000000000136,-0.299999999999955,0.7));
#1756=CARTESIAN_POINT('Origin',(2.27151655395075E-13,-0.300000000000068,
0.7));
#1757=CARTESIAN_POINT('Origin',(-0.659999999999673,-0.299999999999955,-0.0349999999999999));
#1758=CARTESIAN_POINT('',(-0.599999999999682,-0.299999999999955,1.11022302462516E-16));
#1759=CARTESIAN_POINT($,(0.600000000000136,-0.299999999999955,-1.11022302462516E-16));
#1760=CARTESIAN_POINT('',(-0.599999999999682,-0.299999999999955,0.7));
#1761=CARTESIAN_POINT($,(-0.599999999999682,-0.299999999999955,0.7));
#1762=CARTESIAN_POINT($,(0.600000000000136,-0.299999999999955,0.7));
#1763=CARTESIAN_POINT('Origin',(4.54529641658872E-13,-0.299999999999955,
0.735));
#1764=CARTESIAN_POINT('Origin',(4.54439630119135E-13,-0.299999999999955,
0.));
#1765=CARTESIAN_POINT('Origin',(4.54525355395075E-13,-0.299999999999955,
0.7));
#1766=CARTESIAN_POINT('Origin',(-0.659999999999742,-0.274999999999941,1.11022302462516E-16));
#1767=CARTESIAN_POINT('Origin',(-0.659999999999742,-0.274999999999941,0.7));
#1768=CARTESIAN_POINT('Origin',(-0.124999999999965,0.299999999999955,0.));
#1769=CARTESIAN_POINT('',(-0.124999999999965,0.269999999999955,0.));
#1770=CARTESIAN_POINT('',(-0.124999999999965,0.269999999999955,0.7));
#1771=CARTESIAN_POINT($,(-0.124999999999965,0.269999999999955,0.7));
#1772=CARTESIAN_POINT('',(-0.124999999999965,0.299999999999955,0.));
#1773=CARTESIAN_POINT($,(-0.124999999999965,0.314999999999953,0.));
#1774=CARTESIAN_POINT('',(-0.124999999999965,0.299999999999955,0.7));
#1775=CARTESIAN_POINT($,(-0.124999999999965,0.299999999999955,0.3675));
#1776=CARTESIAN_POINT($,(-0.124999999999965,0.314999999999953,0.7));
#1777=CARTESIAN_POINT('Origin',(0.124999999999965,0.299999999999955,0.7));
#1778=CARTESIAN_POINT('',(0.124999999999965,0.269999999999955,0.7));
#1779=CARTESIAN_POINT('',(0.124999999999965,0.269999999999955,0.));
#1780=CARTESIAN_POINT($,(0.124999999999965,0.269999999999955,0.));
#1781=CARTESIAN_POINT('',(0.124999999999965,0.299999999999955,0.7));
#1782=CARTESIAN_POINT($,(0.124999999999965,0.314999999999953,0.7));
#1783=CARTESIAN_POINT('',(0.124999999999965,0.299999999999955,0.));
#1784=CARTESIAN_POINT($,(0.124999999999965,0.299999999999955,0.7175));
#1785=CARTESIAN_POINT($,(0.124999999999965,0.314999999999953,0.));
#1786=CARTESIAN_POINT('Origin',(-3.06540606318632E-16,0.269999999999955,
0.35));
#1787=CARTESIAN_POINT($,(0.467500000000063,0.269999999999955,0.7));
#1788=CARTESIAN_POINT($,(-0.467499999999837,0.269999999999955,1.11022302462516E-16));
#1789=CARTESIAN_POINT('Origin',(-0.90249999999968,0.299999999999955,0.735));
#1790=CARTESIAN_POINT('',(-0.599999999999753,0.299999999999955,1.11022302462516E-16));
#1791=CARTESIAN_POINT($,(0.200000000000273,0.299999999999955,0.));
#1792=CARTESIAN_POINT('',(-0.599999999999753,0.299999999999955,0.0300000000000001));
#1793=CARTESIAN_POINT($,(-0.599999999999752,0.299999999999955,0.3675));
#1794=CARTESIAN_POINT('',(-0.819999999999683,0.299999999999955,0.0300000000000001));
#1795=CARTESIAN_POINT($,(-0.813749999999699,0.299999999999955,0.0300000000000001));
#1796=CARTESIAN_POINT('',(-0.819999999999682,0.299999999999955,0.67));
#1797=CARTESIAN_POINT($,(-0.819999999999683,0.299999999999955,0.5425));
#1798=CARTESIAN_POINT('',(-0.599999999999753,0.299999999999955,0.67));
#1799=CARTESIAN_POINT($,(-0.813749999999699,0.299999999999955,0.67));
#1800=CARTESIAN_POINT('',(-0.599999999999753,0.299999999999955,0.7));
#1801=CARTESIAN_POINT($,(-0.599999999999753,0.299999999999955,0.7175));
#1802=CARTESIAN_POINT($,(0.200000000000273,0.299999999999955,0.7));
#1803=CARTESIAN_POINT('Origin',(-0.90249999999968,0.299999999999955,0.735));
#1804=CARTESIAN_POINT('',(0.200000000000273,0.299999999999955,0.7));
#1805=CARTESIAN_POINT($,(0.200000000000273,0.299999999999955,0.7));
#1806=CARTESIAN_POINT('',(0.200000000000273,0.299999999999955,0.));
#1807=CARTESIAN_POINT($,(0.200000000000273,0.299999999999955,0.7));
#1808=CARTESIAN_POINT($,(0.200000000000273,0.299999999999955,0.));
#1809=CARTESIAN_POINT('Origin',(0.935000000000127,0.32999999999995,0.7));
#1810=CARTESIAN_POINT('',(-0.599999999999753,-0.299999999999955,0.7));
#1811=CARTESIAN_POINT($,(-0.599999999999753,0.0149999999999977,0.7));
#1812=CARTESIAN_POINT('',(0.600000000000206,-0.299999999999955,0.7));
#1813=CARTESIAN_POINT($,(-0.849999999999682,-0.299999999999955,0.7));
#1814=CARTESIAN_POINT('',(0.600000000000206,0.299999999999955,0.7));
#1815=CARTESIAN_POINT($,(0.600000000000206,0.314999999999953,0.7));
#1816=CARTESIAN_POINT('',(0.450000000000273,0.299999999999955,0.7));
#1817=CARTESIAN_POINT($,(0.850000000000136,0.299999999999955,0.7));
#1818=CARTESIAN_POINT('',(0.450000000000273,0.274999999999977,0.7));
#1819=CARTESIAN_POINT($,(0.450000000000273,0.299999999999955,0.7));
#1820=CARTESIAN_POINT('',(0.200000000000273,0.274999999999977,0.7));
#1821=CARTESIAN_POINT($,(0.450000000000273,0.274999999999977,0.7));
#1822=CARTESIAN_POINT($,(0.200000000000273,0.274999999999977,0.7));
#1823=CARTESIAN_POINT('Origin',(0.725000000000171,-2.08166817117217E-17,
0.67));
#1824=CARTESIAN_POINT('',(0.820000000000136,-0.299999999999955,0.67));
#1825=CARTESIAN_POINT('',(0.820000000000136,0.299999999999955,0.67));
#1826=CARTESIAN_POINT($,(0.820000000000136,-1.23760868883117E-17,0.67));
#1827=CARTESIAN_POINT('',(0.600000000000206,0.299999999999955,0.67));
#1828=CARTESIAN_POINT($,(0.577500000000105,0.299999999999955,0.67));
#1829=CARTESIAN_POINT('',(0.600000000000206,-0.299999999999955,0.67));
#1830=CARTESIAN_POINT($,(0.600000000000206,-0.299999999999955,0.67));
#1831=CARTESIAN_POINT($,(0.830000000000149,-0.299999999999955,0.67));
#1832=CARTESIAN_POINT('Origin',(0.600000000000206,0.299999999999955,0.7));
#1833=CARTESIAN_POINT($,(0.600000000000206,0.299999999999955,0.7175));
#1834=CARTESIAN_POINT($,(0.600000000000206,-0.299999999999955,0.7175));
#1835=CARTESIAN_POINT('Origin',(0.725000000000171,-2.08166817117217E-17,
0.0299999999999999));
#1836=CARTESIAN_POINT('',(0.820000000000136,0.299999999999955,0.0299999999999999));
#1837=CARTESIAN_POINT('',(0.820000000000136,-0.299999999999955,0.0299999999999999));
#1838=CARTESIAN_POINT($,(0.820000000000136,-1.23760868883117E-17,0.0299999999999999));
#1839=CARTESIAN_POINT('',(0.600000000000206,-0.299999999999955,0.0299999999999999));
#1840=CARTESIAN_POINT($,(0.830000000000149,-0.299999999999955,0.0299999999999999));
#1841=CARTESIAN_POINT('',(0.600000000000206,0.299999999999955,0.0299999999999999));
#1842=CARTESIAN_POINT($,(0.600000000000206,-0.299999999999955,0.0299999999999999));
#1843=CARTESIAN_POINT($,(0.577500000000105,0.299999999999955,0.0299999999999999));
#1844=CARTESIAN_POINT('Origin',(0.600000000000206,-0.299999999999955,-1.11022302462516E-16));
#1845=CARTESIAN_POINT('',(0.600000000000206,-0.299999999999955,-1.11022302462516E-16));
#1846=CARTESIAN_POINT($,(0.600000000000206,-0.299999999999955,0.3675));
#1847=CARTESIAN_POINT('',(0.600000000000206,0.299999999999955,-1.11022302462516E-16));
#1848=CARTESIAN_POINT($,(0.600000000000206,0.0149999999999977,-1.11022302462516E-16));
#1849=CARTESIAN_POINT($,(0.600000000000206,0.299999999999955,0.3675));
#1850=CARTESIAN_POINT('Origin',(0.820000000000136,0.,0.35));
#1851=CARTESIAN_POINT($,(0.820000000000136,-0.299999999999955,0.5425));
#1852=CARTESIAN_POINT($,(0.820000000000136,0.299999999999955,0.5425));
#1853=CARTESIAN_POINT('Origin',(-0.599999999999753,-0.299999999999955,0.7));
#1854=CARTESIAN_POINT('',(-0.599999999999753,-0.299999999999955,0.67));
#1855=CARTESIAN_POINT($,(-0.599999999999753,0.299999999999955,0.67));
#1856=CARTESIAN_POINT($,(-0.599999999999753,-0.299999999999955,0.7175));
#1857=CARTESIAN_POINT('Origin',(-0.724999999999718,-2.08166817117217E-17,
0.67));
#1858=CARTESIAN_POINT('',(-0.819999999999682,-0.299999999999955,0.67));
#1859=CARTESIAN_POINT($,(-0.819999999999682,-8.44059482340997E-18,0.67));
#1860=CARTESIAN_POINT($,(0.105000000000205,-0.299999999999955,0.67));
#1861=CARTESIAN_POINT('Origin',(-0.819999999999682,0.,0.35));
#1862=CARTESIAN_POINT('',(-0.819999999999683,-0.299999999999955,0.0300000000000001));
#1863=CARTESIAN_POINT($,(-0.819999999999683,-8.44059482340997E-18,0.0300000000000001));
#1864=CARTESIAN_POINT($,(-0.819999999999682,-0.299999999999955,0.5425));
#1865=CARTESIAN_POINT('Origin',(-0.599999999999753,0.299999999999955,1.11022302462516E-16));
#1866=CARTESIAN_POINT('',(-0.599999999999753,-0.299999999999955,0.0300000000000001));
#1867=CARTESIAN_POINT($,(-0.599999999999753,0.299999999999955,0.0300000000000001));
#1868=CARTESIAN_POINT('',(-0.599999999999753,-0.299999999999955,1.11022302462516E-16));
#1869=CARTESIAN_POINT($,(-0.599999999999752,0.314999999999953,1.11022302462516E-16));
#1870=CARTESIAN_POINT($,(-0.599999999999752,-0.299999999999955,0.3675));
#1871=CARTESIAN_POINT('Origin',(-0.724999999999717,-2.08166817117217E-17,
0.0300000000000001));
#1872=CARTESIAN_POINT($,(0.105000000000205,-0.299999999999955,0.03));
#1873=CARTESIAN_POINT('Origin',(0.43000000000004,0.299999999999955,0.735));
#1874=CARTESIAN_POINT('',(0.450000000000045,0.299999999999955,0.));
#1875=CARTESIAN_POINT($,(0.850000000000136,0.299999999999955,-1.11022302462516E-16));
#1876=CARTESIAN_POINT($,(0.450000000000045,0.299999999999955,0.));
#1877=CARTESIAN_POINT('Origin',(0.935000000000127,-0.299999999999955,0.735));
#1878=CARTESIAN_POINT($,(-0.849999999999682,-0.299999999999955,1.11022302462516E-16));
#1879=CARTESIAN_POINT('Origin',(0.200000000000273,0.301249999999954,0.735));
#1880=CARTESIAN_POINT('',(0.200000000000273,0.274999999999977,0.));
#1881=CARTESIAN_POINT($,(0.200000000000273,0.274999999999977,0.7));
#1882=CARTESIAN_POINT($,(0.200000000000273,0.299999999999955,0.));
#1883=CARTESIAN_POINT('Origin',(0.450000000000273,0.273749999999978,0.735));
#1884=CARTESIAN_POINT('',(0.450000000000273,0.274999999999977,0.));
#1885=CARTESIAN_POINT($,(0.450000000000273,0.274999999999977,0.));
#1886=CARTESIAN_POINT($,(0.450000000000273,0.274999999999977,0.));
#1887=CARTESIAN_POINT('Origin',(-0.934999999999673,0.32999999999995,1.11022302462516E-16));
#1888=CARTESIAN_POINT($,(0.200000000000273,0.274999999999977,0.));
#1889=CARTESIAN_POINT('Origin',(0.462500000000273,0.274999999999977,-0.0350000000000001));
#1890=CARTESIAN_POINT('Origin',(-0.599999999999753,-0.299999999999955,0.7));
#1891=CARTESIAN_POINT('',(-0.599999999999753,-0.299999999999955,0.67));
#1892=CARTESIAN_POINT('',(-0.599999999999753,0.299999999999955,0.67));
#1893=CARTESIAN_POINT($,(-0.599999999999753,0.299999999999955,0.67));
#1894=CARTESIAN_POINT('',(-0.599999999999753,0.299999999999955,0.7));
#1895=CARTESIAN_POINT($,(-0.599999999999753,0.299999999999955,0.7));
#1896=CARTESIAN_POINT('',(-0.599999999999753,-0.299999999999955,0.7));
#1897=CARTESIAN_POINT($,(-0.599999999999753,0.299999999999955,0.7));
#1898=CARTESIAN_POINT($,(-0.599999999999753,-0.299999999999955,0.7));
#1899=CARTESIAN_POINT('Origin',(-0.724999999999718,-2.08166817117217E-17,
0.67));
#1900=CARTESIAN_POINT('',(-0.819999999999682,0.299999999999955,0.67));
#1901=CARTESIAN_POINT('',(-0.819999999999682,-0.299999999999955,0.67));
#1902=CARTESIAN_POINT($,(-0.819999999999682,-8.44059482340997E-18,0.67));
#1903=CARTESIAN_POINT($,(-0.849999999999683,0.299999999999955,0.67));
#1904=CARTESIAN_POINT($,(-0.599999999999753,-0.299999999999955,0.67));
#1905=CARTESIAN_POINT('Origin',(-0.849999999999682,0.299999999999955,1.11022302462516E-16));
#1906=CARTESIAN_POINT('',(-0.819999999999683,0.299999999999955,0.0300000000000001));
#1907=CARTESIAN_POINT($,(-0.819999999999683,0.299999999999955,0.7));
#1908=CARTESIAN_POINT('',(-0.599999999999753,0.299999999999955,0.0300000000000001));
#1909=CARTESIAN_POINT($,(-0.849999999999682,0.299999999999955,0.0300000000000001));
#1910=CARTESIAN_POINT('',(-0.599999999999753,0.299999999999955,1.11022302462516E-16));
#1911=CARTESIAN_POINT($,(-0.599999999999753,0.299999999999955,1.11022302462516E-16));
#1912=CARTESIAN_POINT('',(-0.849999999999682,0.299999999999955,1.11022302462516E-16));
#1913=CARTESIAN_POINT($,(-0.849999999999682,0.299999999999955,1.11022302462516E-16));
#1914=CARTESIAN_POINT('',(-0.849999999999683,0.299999999999955,0.7));
#1915=CARTESIAN_POINT($,(-0.849999999999682,0.299999999999955,1.11022302462516E-16));
#1916=CARTESIAN_POINT($,(-0.849999999999683,0.299999999999955,0.7));
#1917=CARTESIAN_POINT('Origin',(-0.819999999999682,0.,0.35));
#1918=CARTESIAN_POINT('',(-0.819999999999683,-0.299999999999955,0.0300000000000001));
#1919=CARTESIAN_POINT($,(-0.819999999999683,-0.299999999999955,1.11022302462516E-16));
#1920=CARTESIAN_POINT($,(-0.819999999999683,-8.44059482340997E-18,0.0300000000000001));
#1921=CARTESIAN_POINT('Origin',(-0.849999999999683,-0.299999999999955,0.7));
#1922=CARTESIAN_POINT('',(-0.849999999999683,-0.299999999999955,0.7));
#1923=CARTESIAN_POINT($,(-0.849999999999683,-0.299999999999955,0.7));
#1924=CARTESIAN_POINT($,(-0.849999999999683,-0.299999999999955,0.7));
#1925=CARTESIAN_POINT('Origin',(-0.599999999999753,-0.299999999999955,1.11022302462516E-16));
#1926=CARTESIAN_POINT('',(-0.849999999999682,-0.299999999999955,1.11022302462516E-16));
#1927=CARTESIAN_POINT($,(-0.849999999999682,-0.299999999999955,1.11022302462516E-16));
#1928=CARTESIAN_POINT('',(-0.599999999999753,-0.299999999999955,1.11022302462516E-16));
#1929=CARTESIAN_POINT($,(-0.599999999999753,-0.299999999999955,1.11022302462516E-16));
#1930=CARTESIAN_POINT('',(-0.599999999999753,-0.299999999999955,0.0300000000000001));
#1931=CARTESIAN_POINT($,(-0.599999999999753,-0.299999999999955,1.11022302462516E-16));
#1932=CARTESIAN_POINT($,(-0.599999999999753,-0.299999999999955,0.0300000000000001));
#1933=CARTESIAN_POINT('Origin',(-0.724999999999717,-2.08166817117217E-17,
1.11022302462516E-16));
#1934=CARTESIAN_POINT($,(-0.599999999999753,0.299999999999955,1.11022302462516E-16));
#1935=CARTESIAN_POINT($,(-0.849999999999682,-0.299999999999955,1.11022302462516E-16));
#1936=CARTESIAN_POINT('Origin',(-0.849999999999682,-0.299999999999955,1.11022302462516E-16));
#1937=CARTESIAN_POINT('Origin',(-0.599999999999753,0.299999999999955,1.11022302462516E-16));
#1938=CARTESIAN_POINT($,(-0.599999999999753,0.299999999999955,0.0300000000000001));
#1939=CARTESIAN_POINT('Origin',(-0.724999999999717,-2.08166817117217E-17,
0.0300000000000001));
#1940=CARTESIAN_POINT('Origin',(0.725000000000171,-2.08166817117217E-17,
0.67));
#1941=CARTESIAN_POINT('',(0.820000000000136,-0.299999999999955,0.67));
#1942=CARTESIAN_POINT('',(0.820000000000136,0.299999999999955,0.67));
#1943=CARTESIAN_POINT($,(0.820000000000136,-1.23760868883117E-17,0.67));
#1944=CARTESIAN_POINT('',(0.600000000000206,-0.299999999999955,0.67));
#1945=CARTESIAN_POINT($,(0.850000000000136,-0.299999999999955,0.67));
#1946=CARTESIAN_POINT('',(0.600000000000206,0.299999999999955,0.67));
#1947=CARTESIAN_POINT($,(0.600000000000206,-0.299999999999955,0.67));
#1948=CARTESIAN_POINT($,(0.600000000000206,0.299999999999955,0.67));
#1949=CARTESIAN_POINT('Origin',(0.600000000000206,0.299999999999955,0.7));
#1950=CARTESIAN_POINT('',(0.600000000000206,-0.299999999999955,0.7));
#1951=CARTESIAN_POINT($,(0.600000000000206,-0.299999999999955,0.7));
#1952=CARTESIAN_POINT('',(0.600000000000206,0.299999999999955,0.7));
#1953=CARTESIAN_POINT($,(0.600000000000206,-0.299999999999955,0.7));
#1954=CARTESIAN_POINT($,(0.600000000000206,0.299999999999955,0.7));
#1955=CARTESIAN_POINT('Origin',(0.850000000000136,0.299999999999955,-1.11022302462516E-16));
#1956=CARTESIAN_POINT('',(0.850000000000136,0.299999999999955,0.7));
#1957=CARTESIAN_POINT('',(0.850000000000136,0.299999999999955,-1.11022302462516E-16));
#1958=CARTESIAN_POINT($,(0.850000000000136,0.299999999999955,0.7));
#1959=CARTESIAN_POINT('',(0.600000000000206,0.299999999999955,-1.11022302462516E-16));
#1960=CARTESIAN_POINT($,(0.850000000000136,0.299999999999955,-1.11022302462516E-16));
#1961=CARTESIAN_POINT('',(0.600000000000206,0.299999999999955,0.0299999999999999));
#1962=CARTESIAN_POINT($,(0.600000000000206,0.299999999999955,-1.11022302462516E-16));
#1963=CARTESIAN_POINT('',(0.820000000000136,0.299999999999955,0.0299999999999999));
#1964=CARTESIAN_POINT($,(0.600000000000206,0.299999999999955,0.0299999999999999));
#1965=CARTESIAN_POINT($,(0.820000000000136,0.299999999999955,0.7));
#1966=CARTESIAN_POINT($,(0.850000000000136,0.299999999999955,0.7));
#1967=CARTESIAN_POINT('Origin',(0.850000000000136,0.,0.35));
#1968=CARTESIAN_POINT('',(0.850000000000136,-0.299999999999955,-1.11022302462516E-16));
#1969=CARTESIAN_POINT('',(0.850000000000136,-0.299999999999955,0.7));
#1970=CARTESIAN_POINT($,(0.850000000000136,-0.299999999999955,-1.11022302462516E-16));
#1971=CARTESIAN_POINT($,(0.850000000000136,0.299999999999955,-1.11022302462516E-16));
#1972=CARTESIAN_POINT($,(0.850000000000136,-0.299999999999955,0.7));
#1973=CARTESIAN_POINT('Origin',(0.725000000000171,-2.08166817117217E-17,
0.0299999999999999));
#1974=CARTESIAN_POINT('',(0.820000000000136,-0.299999999999955,0.0299999999999999));
#1975=CARTESIAN_POINT($,(0.820000000000136,-1.23760868883117E-17,0.0299999999999999));
#1976=CARTESIAN_POINT('',(0.600000000000206,-0.299999999999955,0.0299999999999999));
#1977=CARTESIAN_POINT($,(0.600000000000206,-0.299999999999955,0.0299999999999999));
#1978=CARTESIAN_POINT($,(0.850000000000136,-0.299999999999955,0.0299999999999999));
#1979=CARTESIAN_POINT('Origin',(0.600000000000206,-0.299999999999955,-1.11022302462516E-16));
#1980=CARTESIAN_POINT('',(0.600000000000206,-0.299999999999955,-1.11022302462516E-16));
#1981=CARTESIAN_POINT($,(0.600000000000206,-0.299999999999955,-1.11022302462516E-16));
#1982=CARTESIAN_POINT($,(0.600000000000206,-0.299999999999955,-1.11022302462516E-16));
#1983=CARTESIAN_POINT('Origin',(0.850000000000136,-0.299999999999955,0.7));
#1984=CARTESIAN_POINT($,(0.820000000000136,-0.299999999999955,-1.11022302462516E-16));
#1985=CARTESIAN_POINT($,(0.850000000000136,-0.299999999999955,-1.11022302462516E-16));
#1986=CARTESIAN_POINT($,(0.850000000000136,-0.299999999999955,0.7));
#1987=CARTESIAN_POINT('Origin',(0.850000000000136,0.299999999999955,0.7));
#1988=CARTESIAN_POINT('Origin',(0.850000000000136,-0.299999999999955,-1.11022302462516E-16));
#1989=CARTESIAN_POINT('Origin',(0.820000000000136,0.,0.35));
#1990=CARTESIAN_POINT('Origin',(-0.124999999999965,0.299999999999955,0.7));
#1991=CARTESIAN_POINT('',(-0.124999999999965,0.299999999999955,0.7));
#1992=CARTESIAN_POINT('',(-0.124999999999965,0.299999999999955,0.));
#1993=CARTESIAN_POINT($,(-0.124999999999965,0.299999999999955,0.7));
#1994=CARTESIAN_POINT('',(-0.124999999999965,0.269999999999955,0.));
#1995=CARTESIAN_POINT($,(-0.124999999999965,0.299999999999955,0.));
#1996=CARTESIAN_POINT('',(-0.124999999999965,0.269999999999955,0.7));
#1997=CARTESIAN_POINT($,(-0.124999999999965,0.269999999999955,0.7));
#1998=CARTESIAN_POINT($,(-0.124999999999965,0.299999999999955,0.7));
#1999=CARTESIAN_POINT('Origin',(0.124999999999965,0.299999999999955,0.7));
#2000=CARTESIAN_POINT('',(0.124999999999965,0.299999999999955,0.7));
#2001=CARTESIAN_POINT($,(0.124999999999965,0.299999999999955,0.7));
#2002=CARTESIAN_POINT('',(0.124999999999965,0.269999999999955,0.7));
#2003=CARTESIAN_POINT($,(0.124999999999965,0.269999999999955,0.7));
#2004=CARTESIAN_POINT($,(0.124999999999965,0.299999999999955,0.7));
#2005=CARTESIAN_POINT('Origin',(0.124999999999965,0.299999999999955,0.));
#2006=CARTESIAN_POINT('',(0.124999999999965,0.299999999999955,0.));
#2007=CARTESIAN_POINT($,(0.124999999999965,0.299999999999955,0.));
#2008=CARTESIAN_POINT('',(0.124999999999965,0.269999999999955,0.));
#2009=CARTESIAN_POINT($,(0.124999999999965,0.269999999999955,0.));
#2010=CARTESIAN_POINT($,(0.124999999999965,0.299999999999955,0.));
#2011=CARTESIAN_POINT('Origin',(-0.124999999999965,0.299999999999955,0.));
#2012=CARTESIAN_POINT($,(-0.124999999999965,0.299999999999955,0.));
#2013=CARTESIAN_POINT($,(-0.124999999999965,0.269999999999955,0.));
#2014=CARTESIAN_POINT('Origin',(-2.92662818510818E-16,0.269999999999955,
0.35));
#2015=CARTESIAN_POINT('Origin',(-2.97775687703173E-16,0.299999999999955,
0.35));
#2016=UNCERTAINTY_MEASURE_WITH_UNIT(LENGTH_MEASURE(0.01),#2020,
'DISTANCE_ACCURACY_VALUE',
'Maximum model space distance between geometric entities at asserted c
onnectivities');
#2017=UNCERTAINTY_MEASURE_WITH_UNIT(LENGTH_MEASURE(1.E-6),#2020,
'DISTANCE_ACCURACY_VALUE',
'Maximum model space distance between geometric entities at asserted c
onnectivities');
#2018=(
GEOMETRIC_REPRESENTATION_CONTEXT(3)
GLOBAL_UNCERTAINTY_ASSIGNED_CONTEXT((#2016))
GLOBAL_UNIT_ASSIGNED_CONTEXT((#2020,#2022,#2021))
REPRESENTATION_CONTEXT('','3D')
);
#2019=(
GEOMETRIC_REPRESENTATION_CONTEXT(3)
GLOBAL_UNCERTAINTY_ASSIGNED_CONTEXT((#2017))
GLOBAL_UNIT_ASSIGNED_CONTEXT((#2020,#12,#2021))
REPRESENTATION_CONTEXT('','3D')
);
#2020=(
LENGTH_UNIT()
NAMED_UNIT(*)
SI_UNIT(.MILLI.,.METRE.)
);
#2021=(
NAMED_UNIT(*)
SI_UNIT($,.STERADIAN.)
SOLID_ANGLE_UNIT()
);
#2022=(
NAMED_UNIT(*)
PLANE_ANGLE_UNIT()
SI_UNIT($,.RADIAN.)
);
#2023=SHAPE_DEFINITION_REPRESENTATION(#2024,#2025);
#2024=PRODUCT_DEFINITION_SHAPE('',$,#2027);
#2025=SHAPE_REPRESENTATION('',(#1272),#2018);
#2026=PRODUCT_DEFINITION_CONTEXT('part definition',#2031,'design');
#2027=PRODUCT_DEFINITION('Product','Product',#2028,#2026);
#2028=PRODUCT_DEFINITION_FORMATION('',$,#2033);
#2029=PRODUCT_RELATED_PRODUCT_CATEGORY('Product','Product',(#2033));
#2030=APPLICATION_PROTOCOL_DEFINITION('international standard',
'automotive_design',2009,#2031);
#2031=APPLICATION_CONTEXT(
'Core Data for Automotive Mechanical Design Process');
#2032=PRODUCT_CONTEXT('part definition',#2031,'mechanical');
#2033=PRODUCT('Product','Product',$,(#2032));
#2034=PRESENTATION_STYLE_ASSIGNMENT((#2038));
#2035=PRESENTATION_STYLE_ASSIGNMENT((#2039));
#2036=PRESENTATION_STYLE_ASSIGNMENT((#2040));
#2037=PRESENTATION_STYLE_ASSIGNMENT((#2041));
#2038=SURFACE_STYLE_USAGE(.BOTH.,#2042);
#2039=SURFACE_STYLE_USAGE(.BOTH.,#2043);
#2040=SURFACE_STYLE_USAGE(.BOTH.,#2044);
#2041=SURFACE_STYLE_USAGE(.BOTH.,#2045);
#2042=SURFACE_SIDE_STYLE($,(#2046));
#2043=SURFACE_SIDE_STYLE($,(#2047));
#2044=SURFACE_SIDE_STYLE($,(#2048));
#2045=SURFACE_SIDE_STYLE($,(#2049));
#2046=SURFACE_STYLE_FILL_AREA(#2050);
#2047=SURFACE_STYLE_FILL_AREA(#2051);
#2048=SURFACE_STYLE_FILL_AREA(#2052);
#2049=SURFACE_STYLE_FILL_AREA(#2053);
#2050=FILL_AREA_STYLE($,(#2054));
#2051=FILL_AREA_STYLE($,(#2055));
#2052=FILL_AREA_STYLE($,(#2056));
#2053=FILL_AREA_STYLE($,(#2057));
#2054=FILL_AREA_STYLE_COLOUR($,#2058);
#2055=FILL_AREA_STYLE_COLOUR($,#2059);
#2056=FILL_AREA_STYLE_COLOUR($,#2060);
#2057=FILL_AREA_STYLE_COLOUR($,#2061);
#2058=COLOUR_RGB('',1.,1.,1.);
#2059=COLOUR_RGB('',1.,0.,0.);
#2060=COLOUR_RGB('',0.568627450980392,0.650980392156863,0.325490196078431);
#2061=COLOUR_RGB('',0.596078431372549,0.596078431372549,0.596078431372549);
ENDSEC;
END-ISO-10303-21;
