ISO-10303-21;
HEADER;
/****************************************************************
 * Generated by software with PDE/Lib inside                    *
 * PDElib Version v51a, created Mon 11/23/2009                  *
 * ITI Transcendata (http://www.transcendata.com/)              *
 ****************************************************************/
FILE_DESCRIPTION((''),'2;1');
FILE_NAME('LED_AVAGO_HLMP-2300.stp','2011-06-27T15:25:49',(''),(''),'Mechanical Desktop 2011','Mechanical Desktop 2011',', , ');
FILE_SCHEMA(('AUTOMOTIVE_DESIGN { 1 2 10303 214 1 1 1 1 }'));
ENDSEC;
DATA;
#10=(NAMED_UNIT(*)PLANE_ANGLE_UNIT()SI_UNIT($,.RADIAN.));
#11=DIMENSIONAL_EXPONENTS(0.0,0.0,0.0,0.0,0.0,0.0,0.0);
#12=PLANE_ANGLE_MEASURE_WITH_UNIT(PLANE_ANGLE_MEASURE(0.017453292500000),#10);
#16=(CONVERSION_BASED_UNIT('DEGREE',#12)NAMED_UNIT(#11)PLANE_ANGLE_UNIT());
#20=(NAMED_UNIT(*)SI_UNIT($,.STERADIAN.)SOLID_ANGLE_UNIT());
#24=(LENGTH_UNIT()NAMED_UNIT(*)SI_UNIT(.MILLI.,.METRE.));
#26=UNCERTAINTY_MEASURE_WITH_UNIT(LENGTH_MEASURE(0.000001000000000),#24,'DISTANCE_ACCURACY_VALUE','');
#28=(GEOMETRIC_REPRESENTATION_CONTEXT(3)GLOBAL_UNCERTAINTY_ASSIGNED_CONTEXT((#26))GLOBAL_UNIT_ASSIGNED_CONTEXT((#16,#20,#24))REPRESENTATION_CONTEXT('','3D'));
#29=APPLICATION_CONTEXT('automotive design');
#30=APPLICATION_PROTOCOL_DEFINITION('INTERNATIONAL_STANDARD','automotive_design',1998,#29);
#31=PRODUCT_CONTEXT('3D Mechanical Parts',#29,'mechanical');
#32=PRODUCT('Product','Product','',(#31));
#33=PRODUCT_RELATED_PRODUCT_CATEGORY('part',$,(#32));
#34=PRODUCT_CATEGORY('part',$);
#35=PERSON('1','Design','Joe',$,$,$);
#36=ORGANIZATION($,'None','None');
#37=PERSON_AND_ORGANIZATION(#35,#36);
#38=PERSON_AND_ORGANIZATION_ROLE('design_owner');
#39=APPLIED_PERSON_AND_ORGANIZATION_ASSIGNMENT(#37,#38,(#32));
#40=PRODUCT_DEFINITION_FORMATION_WITH_SPECIFIED_SOURCE('None','',#32,.BOUGHT.);
#41=PERSON('2','Creator','Joe',$,$,$);
#42=ORGANIZATION($,'None','None');
#43=PERSON_AND_ORGANIZATION(#41,#42);
#44=PERSON_AND_ORGANIZATION_ROLE('creator');
#45=APPLIED_PERSON_AND_ORGANIZATION_ASSIGNMENT(#43,#44,(#40));
#46=PERSON('3','Supplier','Joe',$,$,$);
#47=ORGANIZATION($,'None','None');
#48=PERSON_AND_ORGANIZATION(#46,#47);
#49=PERSON_AND_ORGANIZATION_ROLE('design_supplier');
#50=APPLIED_PERSON_AND_ORGANIZATION_ASSIGNMENT(#48,#49,(#40));
#51=PRODUCT_DEFINITION_CONTEXT('part definition',#29,'design');
#52=PRODUCT_DEFINITION('None','',#40,#51);
#53=PERSON('4','Creator','Joe',$,$,$);
#54=ORGANIZATION($,'None','None');
#55=PERSON_AND_ORGANIZATION(#53,#54);
#56=PERSON_AND_ORGANIZATION_ROLE('creator');
#57=APPLIED_PERSON_AND_ORGANIZATION_ASSIGNMENT(#55,#56,(#52));
#58=CARTESIAN_POINT('NONE',(0.0,0.0,0.0));
#59=DIRECTION('NONE',(0.0,0.0,1.0));
#60=DIRECTION('NONE',(1.0,0.0,0.0));
#61=AXIS2_PLACEMENT_3D('NONE',#58,#59,#60);
#62=SHAPE_REPRESENTATION('SR1',(#61),#28);
#63=PRODUCT_DEFINITION_SHAPE('PDS1','Test Part',#52);
#64=SHAPE_DEFINITION_REPRESENTATION(#63,#62);
#65=CARTESIAN_POINT('',(-4.079999999999999,-2.476500000000000,3.111500000000000));
#66=DIRECTION('',(0.0,1.0,0.0));
#67=DIRECTION('',(1.0,0.0,0.0));
#68=AXIS2_PLACEMENT_3D('',#65,#66,#67);
#69=CYLINDRICAL_SURFACE('',#68,0.500000000000000);
#70=CARTESIAN_POINT('',(-3.579999999999999,-2.426500000000000,3.111500000000000));
#71=VERTEX_POINT('',#70);
#72=CARTESIAN_POINT('',(-3.579999999999999,-2.476500000000000,3.111500000000000));
#73=VERTEX_POINT('',#72);
#74=CARTESIAN_POINT('',(-3.579999999999999,-2.426500000000000,3.111500000000000));
#75=DIRECTION('',(0.0,-1.0,0.0));
#76=VECTOR('',#75,0.050000000000000);
#77=LINE('',#74,#76);
#78=EDGE_CURVE('',#71,#73,#77,.T.);
#79=ORIENTED_EDGE('',*,*,#78,.F.);
#80=CARTESIAN_POINT('',(-4.579999999999999,-2.426500000000000,3.111500000000000));
#81=VERTEX_POINT('',#80);
#82=CARTESIAN_POINT('',(-4.079999999999999,-2.426500000000000,3.111500000000000));
#83=DIRECTION('',(0.0,-1.0,0.0));
#84=DIRECTION('',(1.0,0.0,0.0));
#85=AXIS2_PLACEMENT_3D('',#82,#83,#84);
#86=CIRCLE('',#85,0.500000000000000);
#87=EDGE_CURVE('',#71,#81,#86,.T.);
#88=ORIENTED_EDGE('',*,*,#87,.T.);
#89=CARTESIAN_POINT('',(-4.579999999999999,-2.476500000000000,3.111500000000000));
#90=VERTEX_POINT('',#89);
#91=CARTESIAN_POINT('',(-4.579999999999999,-2.426500000000000,3.111500000000000));
#92=DIRECTION('',(0.0,-1.0,0.0));
#93=VECTOR('',#92,0.050000000000000);
#94=LINE('',#91,#93);
#95=EDGE_CURVE('',#81,#90,#94,.T.);
#96=ORIENTED_EDGE('',*,*,#95,.T.);
#97=CARTESIAN_POINT('',(-4.079999999999999,-2.476500000000000,3.111500000000000));
#98=DIRECTION('',(0.0,-1.0,0.0));
#99=DIRECTION('',(1.0,0.0,0.0));
#100=AXIS2_PLACEMENT_3D('',#97,#98,#99);
#101=CIRCLE('',#100,0.500000000000000);
#102=EDGE_CURVE('',#73,#90,#101,.T.);
#103=ORIENTED_EDGE('',*,*,#102,.F.);
#104=EDGE_LOOP('',(#79,#88,#96,#103));
#105=FACE_OUTER_BOUND('',#104,.T.);
#106=ADVANCED_FACE('',(#105),#69,.T.);
#107=CARTESIAN_POINT('',(-4.079999999999999,-2.476500000000000,3.111500000000000));
#108=DIRECTION('',(0.0,1.0,0.0));
#109=DIRECTION('',(1.0,0.0,0.0));
#110=AXIS2_PLACEMENT_3D('',#107,#108,#109);
#111=CYLINDRICAL_SURFACE('',#110,0.500000000000000);
#112=ORIENTED_EDGE('',*,*,#78,.T.);
#113=CARTESIAN_POINT('',(-4.079999999999999,-2.476500000000000,3.111500000000000));
#114=DIRECTION('',(0.0,-1.0,0.0));
#115=DIRECTION('',(1.0,0.0,0.0));
#116=AXIS2_PLACEMENT_3D('',#113,#114,#115);
#117=CIRCLE('',#116,0.500000000000000);
#118=EDGE_CURVE('',#90,#73,#117,.T.);
#119=ORIENTED_EDGE('',*,*,#118,.F.);
#120=ORIENTED_EDGE('',*,*,#95,.F.);
#121=CARTESIAN_POINT('',(-4.079999999999999,-2.426500000000000,3.111500000000000));
#122=DIRECTION('',(0.0,-1.0,0.0));
#123=DIRECTION('',(1.0,0.0,0.0));
#124=AXIS2_PLACEMENT_3D('',#121,#122,#123);
#125=CIRCLE('',#124,0.500000000000000);
#126=EDGE_CURVE('',#81,#71,#125,.T.);
#127=ORIENTED_EDGE('',*,*,#126,.T.);
#128=EDGE_LOOP('',(#112,#119,#120,#127));
#129=FACE_OUTER_BOUND('',#128,.T.);
#130=ADVANCED_FACE('',(#129),#111,.T.);
#131=CARTESIAN_POINT('',(-4.079999999999999,-2.426500000000000,3.111500000000000));
#132=DIRECTION('',(0.0,-1.0,0.0));
#133=DIRECTION('',(0.0,0.0,-1.0));
#134=AXIS2_PLACEMENT_3D('',#131,#132,#133);
#135=PLANE('',#134);
#136=ORIENTED_EDGE('',*,*,#87,.F.);
#137=ORIENTED_EDGE('',*,*,#126,.F.);
#138=EDGE_LOOP('',(#136,#137));
#139=FACE_OUTER_BOUND('',#138,.T.);
#140=ADVANCED_FACE('',(#139),#135,.F.);
#141=CARTESIAN_POINT('',(-4.079999999999999,-2.476500000000000,3.111500000000000));
#142=DIRECTION('',(0.0,-1.0,0.0));
#143=DIRECTION('',(0.0,0.0,-1.0));
#144=AXIS2_PLACEMENT_3D('',#141,#142,#143);
#145=PLANE('',#144);
#146=ORIENTED_EDGE('',*,*,#102,.T.);
#147=ORIENTED_EDGE('',*,*,#118,.T.);
#148=EDGE_LOOP('',(#146,#147));
#149=FACE_OUTER_BOUND('',#148,.T.);
#150=ADVANCED_FACE('',(#149),#145,.T.);
#151=CLOSED_SHELL('',(#106,#130,#140,#150));
#152=MANIFOLD_SOLID_BREP('BA2',#151);
#153=COLOUR_RGB('250',0.330000000000000,0.330000000000000,0.330000000000000);
#154=SURFACE_STYLE_USAGE(.BOTH.,#155);
#155=SURFACE_SIDE_STYLE('NONE',(#156));
#156=SURFACE_STYLE_FILL_AREA(#157);
#157=FILL_AREA_STYLE('NONE',(#158));
#158=FILL_AREA_STYLE_COLOUR('NONE',#153);
#159=PRESENTATION_STYLE_ASSIGNMENT((#154));
#160=STYLED_ITEM('NONE',(#159),#152);
#161=MECHANICAL_DESIGN_GEOMETRIC_PRESENTATION_REPRESENTATION('NONE',(#160,#320,#471,#622,#773,#931,#1443),#28);
#162=PRESENTATION_LAYER_ASSIGNMENT('3D','None',(#152,#312,#470,#621,#772,#923,#1435));
#163=CARTESIAN_POINT('',(3.517999999999999,-0.254000000000000,1.016000000000000));
#164=CARTESIAN_POINT('',(4.102000000000000,-0.254000000000000,1.016000000000000));
#165=CARTESIAN_POINT('',(3.517999999999999,0.254000000000000,1.016000000000000));
#166=CARTESIAN_POINT('',(4.102000000000000,0.254000000000000,1.016000000000000));
#167=B_SPLINE_SURFACE_WITH_KNOTS('',1,1,((#163,#165),(#164,#166)),.UNSPECIFIED.,.F.,.F.,.U.,(2,2),(2,2),(0.0,0.584000000000001),(0.0,0.507999999999999),.UNSPECIFIED.);
#168=CARTESIAN_POINT('',(4.102000000000000,0.254000000000000,1.016000000000000));
#169=VERTEX_POINT('',#168);
#170=CARTESIAN_POINT('',(4.102000000000000,-0.254000000000000,1.016000000000000));
#171=VERTEX_POINT('',#170);
#172=CARTESIAN_POINT('',(4.102000000000000,0.254000000000000,1.016000000000000));
#173=DIRECTION('',(0.0,-1.0,0.0));
#174=VECTOR('',#173,0.507999999999999);
#175=LINE('',#172,#174);
#176=EDGE_CURVE('',#169,#171,#175,.T.);
#177=ORIENTED_EDGE('',*,*,#176,.F.);
#178=CARTESIAN_POINT('',(3.517999999999999,0.254000000000000,1.016000000000000));
#179=VERTEX_POINT('',#178);
#180=CARTESIAN_POINT('',(3.517999999999999,0.254000000000000,1.016000000000000));
#181=DIRECTION('',(1.0,0.0,0.0));
#182=VECTOR('',#181,0.584000000000001);
#183=LINE('',#180,#182);
#184=EDGE_CURVE('',#179,#169,#183,.T.);
#185=ORIENTED_EDGE('',*,*,#184,.F.);
#186=CARTESIAN_POINT('',(3.517999999999999,-0.254000000000000,1.016000000000000));
#187=VERTEX_POINT('',#186);
#188=CARTESIAN_POINT('',(3.517999999999999,-0.254000000000000,1.016000000000000));
#189=DIRECTION('',(0.0,1.0,0.0));
#190=VECTOR('',#189,0.507999999999999);
#191=LINE('',#188,#190);
#192=EDGE_CURVE('',#187,#179,#191,.T.);
#193=ORIENTED_EDGE('',*,*,#192,.F.);
#194=CARTESIAN_POINT('',(4.102000000000000,-0.254000000000000,1.016000000000000));
#195=DIRECTION('',(-1.0,0.0,0.0));
#196=VECTOR('',#195,0.584000000000001);
#197=LINE('',#194,#196);
#198=EDGE_CURVE('',#171,#187,#197,.T.);
#199=ORIENTED_EDGE('',*,*,#198,.F.);
#200=EDGE_LOOP('',(#177,#185,#193,#199));
#201=FACE_OUTER_BOUND('',#200,.T.);
#202=ADVANCED_FACE('',(#201),#167,.T.);
#203=CARTESIAN_POINT('',(3.517999999999999,-0.254000000000000,-3.184000000000000));
#204=CARTESIAN_POINT('',(4.102000000000000,-0.254000000000000,-3.184000000000000));
#205=CARTESIAN_POINT('',(3.517999999999999,0.254000000000000,-3.184000000000000));
#206=CARTESIAN_POINT('',(4.102000000000000,0.254000000000000,-3.184000000000000));
#207=B_SPLINE_SURFACE_WITH_KNOTS('',1,1,((#203,#205),(#204,#206)),.UNSPECIFIED.,.F.,.F.,.U.,(2,2),(2,2),(0.0,0.584000000000001),(0.0,0.507999999999999),.UNSPECIFIED.);
#208=CARTESIAN_POINT('',(4.102000000000000,-0.254000000000000,-3.184000000000000));
#209=VERTEX_POINT('',#208);
#210=CARTESIAN_POINT('',(4.102000000000000,0.254000000000000,-3.184000000000000));
#211=VERTEX_POINT('',#210);
#212=CARTESIAN_POINT('',(4.102000000000000,-0.254000000000000,-3.184000000000000));
#213=DIRECTION('',(0.0,1.0,0.0));
#214=VECTOR('',#213,0.507999999999999);
#215=LINE('',#212,#214);
#216=EDGE_CURVE('',#209,#211,#215,.T.);
#217=ORIENTED_EDGE('',*,*,#216,.F.);
#218=CARTESIAN_POINT('',(3.517999999999999,-0.254000000000000,-3.184000000000000));
#219=VERTEX_POINT('',#218);
#220=CARTESIAN_POINT('',(3.517999999999999,-0.254000000000000,-3.184000000000000));
#221=DIRECTION('',(1.0,0.0,0.0));
#222=VECTOR('',#221,0.584000000000001);
#223=LINE('',#220,#222);
#224=EDGE_CURVE('',#219,#209,#223,.T.);
#225=ORIENTED_EDGE('',*,*,#224,.F.);
#226=CARTESIAN_POINT('',(3.517999999999999,0.254000000000000,-3.184000000000000));
#227=VERTEX_POINT('',#226);
#228=CARTESIAN_POINT('',(3.517999999999999,0.254000000000000,-3.184000000000000));
#229=DIRECTION('',(0.0,-1.0,0.0));
#230=VECTOR('',#229,0.507999999999999);
#231=LINE('',#228,#230);
#232=EDGE_CURVE('',#227,#219,#231,.T.);
#233=ORIENTED_EDGE('',*,*,#232,.F.);
#234=CARTESIAN_POINT('',(4.102000000000000,0.254000000000000,-3.184000000000000));
#235=DIRECTION('',(-1.0,0.0,0.0));
#236=VECTOR('',#235,0.584000000000001);
#237=LINE('',#234,#236);
#238=EDGE_CURVE('',#211,#227,#237,.T.);
#239=ORIENTED_EDGE('',*,*,#238,.F.);
#240=EDGE_LOOP('',(#217,#225,#233,#239));
#241=FACE_OUTER_BOUND('',#240,.T.);
#242=ADVANCED_FACE('',(#241),#207,.F.);
#243=CARTESIAN_POINT('',(4.102000000000000,0.254000000000000,-3.184000000000000));
#244=CARTESIAN_POINT('',(4.102000000000000,0.254000000000000,1.016000000000000));
#245=CARTESIAN_POINT('',(3.517999999999999,0.254000000000000,-3.184000000000000));
#246=CARTESIAN_POINT('',(3.517999999999999,0.254000000000000,1.016000000000000));
#247=B_SPLINE_SURFACE_WITH_KNOTS('',1,1,((#243,#245),(#244,#246)),.UNSPECIFIED.,.F.,.F.,.U.,(2,2),(2,2),(0.0,4.200000000000000),(0.0,0.584000000000001),.UNSPECIFIED.);
#248=CARTESIAN_POINT('',(3.517999999999999,0.254000000000000,1.016000000000000));
#249=DIRECTION('',(0.0,0.0,-1.0));
#250=VECTOR('',#249,4.200000000000000);
#251=LINE('',#248,#250);
#252=EDGE_CURVE('',#179,#227,#251,.T.);
#253=ORIENTED_EDGE('',*,*,#252,.F.);
#254=ORIENTED_EDGE('',*,*,#184,.T.);
#255=CARTESIAN_POINT('',(4.102000000000000,0.254000000000000,1.016000000000000));
#256=DIRECTION('',(0.0,0.0,-1.0));
#257=VECTOR('',#256,4.200000000000000);
#258=LINE('',#255,#257);
#259=EDGE_CURVE('',#169,#211,#258,.T.);
#260=ORIENTED_EDGE('',*,*,#259,.T.);
#261=ORIENTED_EDGE('',*,*,#238,.T.);
#262=EDGE_LOOP('',(#253,#254,#260,#261));
#263=FACE_OUTER_BOUND('',#262,.T.);
#264=ADVANCED_FACE('',(#263),#247,.F.);
#265=CARTESIAN_POINT('',(3.517999999999999,-0.254000000000000,1.016000000000000));
#266=CARTESIAN_POINT('',(3.517999999999999,-0.254000000000000,-3.184000000000000));
#267=CARTESIAN_POINT('',(3.517999999999999,0.254000000000000,1.016000000000000));
#268=CARTESIAN_POINT('',(3.517999999999999,0.254000000000000,-3.184000000000000));
#269=B_SPLINE_SURFACE_WITH_KNOTS('',1,1,((#265,#267),(#266,#268)),.UNSPECIFIED.,.F.,.F.,.U.,(2,2),(2,2),(0.0,4.200000000000000),(0.0,0.507999999999999),.UNSPECIFIED.);
#270=CARTESIAN_POINT('',(3.517999999999999,-0.254000000000000,1.016000000000000));
#271=DIRECTION('',(0.0,0.0,-1.0));
#272=VECTOR('',#271,4.200000000000000);
#273=LINE('',#270,#272);
#274=EDGE_CURVE('',#187,#219,#273,.T.);
#275=ORIENTED_EDGE('',*,*,#274,.F.);
#276=ORIENTED_EDGE('',*,*,#192,.T.);
#277=ORIENTED_EDGE('',*,*,#252,.T.);
#278=ORIENTED_EDGE('',*,*,#232,.T.);
#279=EDGE_LOOP('',(#275,#276,#277,#278));
#280=FACE_OUTER_BOUND('',#279,.T.);
#281=ADVANCED_FACE('',(#280),#269,.F.);
#282=CARTESIAN_POINT('',(4.102000000000000,-0.254000000000000,1.016000000000000));
#283=CARTESIAN_POINT('',(4.102000000000000,-0.254000000000000,-3.184000000000000));
#284=CARTESIAN_POINT('',(3.517999999999999,-0.254000000000000,1.016000000000000));
#285=CARTESIAN_POINT('',(3.517999999999999,-0.254000000000000,-3.184000000000000));
#286=B_SPLINE_SURFACE_WITH_KNOTS('',1,1,((#282,#284),(#283,#285)),.UNSPECIFIED.,.F.,.F.,.U.,(2,2),(2,2),(0.0,4.200000000000000),(0.0,0.584000000000001),.UNSPECIFIED.);
#287=CARTESIAN_POINT('',(4.102000000000000,-0.254000000000000,1.016000000000000));
#288=DIRECTION('',(0.0,0.0,-1.0));
#289=VECTOR('',#288,4.200000000000000);
#290=LINE('',#287,#289);
#291=EDGE_CURVE('',#171,#209,#290,.T.);
#292=ORIENTED_EDGE('',*,*,#291,.F.);
#293=ORIENTED_EDGE('',*,*,#198,.T.);
#294=ORIENTED_EDGE('',*,*,#274,.T.);
#295=ORIENTED_EDGE('',*,*,#224,.T.);
#296=EDGE_LOOP('',(#292,#293,#294,#295));
#297=FACE_OUTER_BOUND('',#296,.T.);
#298=ADVANCED_FACE('',(#297),#286,.F.);
#299=CARTESIAN_POINT('',(4.102000000000000,-0.254000000000000,-3.184000000000000));
#300=CARTESIAN_POINT('',(4.102000000000000,-0.254000000000000,1.016000000000000));
#301=CARTESIAN_POINT('',(4.102000000000000,0.254000000000000,-3.184000000000000));
#302=CARTESIAN_POINT('',(4.102000000000000,0.254000000000000,1.016000000000000));
#303=B_SPLINE_SURFACE_WITH_KNOTS('',1,1,((#299,#301),(#300,#302)),.UNSPECIFIED.,.F.,.F.,.U.,(2,2),(2,2),(0.0,4.200000000000000),(0.0,0.507999999999999),.UNSPECIFIED.);
#304=ORIENTED_EDGE('',*,*,#259,.F.);
#305=ORIENTED_EDGE('',*,*,#176,.T.);
#306=ORIENTED_EDGE('',*,*,#291,.T.);
#307=ORIENTED_EDGE('',*,*,#216,.T.);
#308=EDGE_LOOP('',(#304,#305,#306,#307));
#309=FACE_OUTER_BOUND('',#308,.T.);
#310=ADVANCED_FACE('',(#309),#303,.F.);
#311=CLOSED_SHELL('',(#202,#242,#264,#281,#298,#310));
#312=MANIFOLD_SOLID_BREP('B47',#311);
#313=COLOUR_RGB('253',0.732000000000000,0.732000000000000,0.732000000000000);
#314=SURFACE_STYLE_USAGE(.BOTH.,#315);
#315=SURFACE_SIDE_STYLE('NONE',(#316));
#316=SURFACE_STYLE_FILL_AREA(#317);
#317=FILL_AREA_STYLE('NONE',(#318));
#318=FILL_AREA_STYLE_COLOUR('NONE',#313);
#319=PRESENTATION_STYLE_ASSIGNMENT((#314));
#320=STYLED_ITEM('NONE',(#319),#312);
#321=CARTESIAN_POINT('',(0.978000000000000,-0.254000000000000,1.016000000000000));
#322=CARTESIAN_POINT('',(1.562000000000000,-0.254000000000000,1.016000000000000));
#323=CARTESIAN_POINT('',(0.978000000000000,0.254000000000000,1.016000000000000));
#324=CARTESIAN_POINT('',(1.562000000000000,0.254000000000000,1.016000000000000));
#325=B_SPLINE_SURFACE_WITH_KNOTS('',1,1,((#321,#323),(#322,#324)),.UNSPECIFIED.,.F.,.F.,.U.,(2,2),(2,2),(0.0,0.584000000000001),(0.0,0.507999999999999),.UNSPECIFIED.);
#326=CARTESIAN_POINT('',(1.562000000000000,0.254000000000000,1.016000000000000));
#327=VERTEX_POINT('',#326);
#328=CARTESIAN_POINT('',(1.562000000000000,-0.254000000000000,1.016000000000000));
#329=VERTEX_POINT('',#328);
#330=CARTESIAN_POINT('',(1.562000000000000,0.254000000000000,1.016000000000000));
#331=DIRECTION('',(0.0,-1.0,0.0));
#332=VECTOR('',#331,0.507999999999999);
#333=LINE('',#330,#332);
#334=EDGE_CURVE('',#327,#329,#333,.T.);
#335=ORIENTED_EDGE('',*,*,#334,.F.);
#336=CARTESIAN_POINT('',(0.978000000000000,0.254000000000000,1.016000000000000));
#337=VERTEX_POINT('',#336);
#338=CARTESIAN_POINT('',(0.978000000000000,0.254000000000000,1.016000000000000));
#339=DIRECTION('',(1.0,0.0,0.0));
#340=VECTOR('',#339,0.584000000000001);
#341=LINE('',#338,#340);
#342=EDGE_CURVE('',#337,#327,#341,.T.);
#343=ORIENTED_EDGE('',*,*,#342,.F.);
#344=CARTESIAN_POINT('',(0.978000000000000,-0.254000000000000,1.016000000000000));
#345=VERTEX_POINT('',#344);
#346=CARTESIAN_POINT('',(0.978000000000000,-0.254000000000000,1.016000000000000));
#347=DIRECTION('',(0.0,1.0,0.0));
#348=VECTOR('',#347,0.507999999999999);
#349=LINE('',#346,#348);
#350=EDGE_CURVE('',#345,#337,#349,.T.);
#351=ORIENTED_EDGE('',*,*,#350,.F.);
#352=CARTESIAN_POINT('',(1.562000000000000,-0.254000000000000,1.016000000000000));
#353=DIRECTION('',(-1.0,0.0,0.0));
#354=VECTOR('',#353,0.584000000000001);
#355=LINE('',#352,#354);
#356=EDGE_CURVE('',#329,#345,#355,.T.);
#357=ORIENTED_EDGE('',*,*,#356,.F.);
#358=EDGE_LOOP('',(#335,#343,#351,#357));
#359=FACE_OUTER_BOUND('',#358,.T.);
#360=ADVANCED_FACE('',(#359),#325,.T.);
#361=CARTESIAN_POINT('',(0.978000000000000,-0.254000000000000,-3.184000000000000));
#362=CARTESIAN_POINT('',(1.562000000000000,-0.254000000000000,-3.184000000000000));
#363=CARTESIAN_POINT('',(0.978000000000000,0.254000000000000,-3.184000000000000));
#364=CARTESIAN_POINT('',(1.562000000000000,0.254000000000000,-3.184000000000000));
#365=B_SPLINE_SURFACE_WITH_KNOTS('',1,1,((#361,#363),(#362,#364)),.UNSPECIFIED.,.F.,.F.,.U.,(2,2),(2,2),(0.0,0.584000000000001),(0.0,0.507999999999999),.UNSPECIFIED.);
#366=CARTESIAN_POINT('',(1.562000000000000,-0.254000000000000,-3.184000000000000));
#367=VERTEX_POINT('',#366);
#368=CARTESIAN_POINT('',(1.562000000000000,0.254000000000000,-3.184000000000000));
#369=VERTEX_POINT('',#368);
#370=CARTESIAN_POINT('',(1.562000000000000,-0.254000000000000,-3.184000000000000));
#371=DIRECTION('',(0.0,1.0,0.0));
#372=VECTOR('',#371,0.507999999999999);
#373=LINE('',#370,#372);
#374=EDGE_CURVE('',#367,#369,#373,.T.);
#375=ORIENTED_EDGE('',*,*,#374,.F.);
#376=CARTESIAN_POINT('',(0.978000000000000,-0.254000000000000,-3.184000000000000));
#377=VERTEX_POINT('',#376);
#378=CARTESIAN_POINT('',(0.978000000000000,-0.254000000000000,-3.184000000000000));
#379=DIRECTION('',(1.0,0.0,0.0));
#380=VECTOR('',#379,0.584000000000001);
#381=LINE('',#378,#380);
#382=EDGE_CURVE('',#377,#367,#381,.T.);
#383=ORIENTED_EDGE('',*,*,#382,.F.);
#384=CARTESIAN_POINT('',(0.978000000000000,0.254000000000000,-3.184000000000000));
#385=VERTEX_POINT('',#384);
#386=CARTESIAN_POINT('',(0.978000000000000,0.254000000000000,-3.184000000000000));
#387=DIRECTION('',(0.0,-1.0,0.0));
#388=VECTOR('',#387,0.507999999999999);
#389=LINE('',#386,#388);
#390=EDGE_CURVE('',#385,#377,#389,.T.);
#391=ORIENTED_EDGE('',*,*,#390,.F.);
#392=CARTESIAN_POINT('',(1.562000000000000,0.254000000000000,-3.184000000000000));
#393=DIRECTION('',(-1.0,0.0,0.0));
#394=VECTOR('',#393,0.584000000000001);
#395=LINE('',#392,#394);
#396=EDGE_CURVE('',#369,#385,#395,.T.);
#397=ORIENTED_EDGE('',*,*,#396,.F.);
#398=EDGE_LOOP('',(#375,#383,#391,#397));
#399=FACE_OUTER_BOUND('',#398,.T.);
#400=ADVANCED_FACE('',(#399),#365,.F.);
#401=CARTESIAN_POINT('',(1.562000000000000,0.254000000000000,-3.184000000000000));
#402=CARTESIAN_POINT('',(1.562000000000000,0.254000000000000,1.016000000000000));
#403=CARTESIAN_POINT('',(0.978000000000000,0.254000000000000,-3.184000000000000));
#404=CARTESIAN_POINT('',(0.978000000000000,0.254000000000000,1.016000000000000));
#405=B_SPLINE_SURFACE_WITH_KNOTS('',1,1,((#401,#403),(#402,#404)),.UNSPECIFIED.,.F.,.F.,.U.,(2,2),(2,2),(0.0,4.200000000000000),(0.0,0.584000000000001),.UNSPECIFIED.);
#406=CARTESIAN_POINT('',(0.978000000000000,0.254000000000000,1.016000000000000));
#407=DIRECTION('',(0.0,0.0,-1.0));
#408=VECTOR('',#407,4.200000000000000);
#409=LINE('',#406,#408);
#410=EDGE_CURVE('',#337,#385,#409,.T.);
#411=ORIENTED_EDGE('',*,*,#410,.F.);
#412=ORIENTED_EDGE('',*,*,#342,.T.);
#413=CARTESIAN_POINT('',(1.562000000000000,0.254000000000000,1.016000000000000));
#414=DIRECTION('',(0.0,0.0,-1.0));
#415=VECTOR('',#414,4.200000000000000);
#416=LINE('',#413,#415);
#417=EDGE_CURVE('',#327,#369,#416,.T.);
#418=ORIENTED_EDGE('',*,*,#417,.T.);
#419=ORIENTED_EDGE('',*,*,#396,.T.);
#420=EDGE_LOOP('',(#411,#412,#418,#419));
#421=FACE_OUTER_BOUND('',#420,.T.);
#422=ADVANCED_FACE('',(#421),#405,.F.);
#423=CARTESIAN_POINT('',(0.978000000000000,-0.254000000000000,1.016000000000000));
#424=CARTESIAN_POINT('',(0.978000000000000,-0.254000000000000,-3.184000000000000));
#425=CARTESIAN_POINT('',(0.978000000000000,0.254000000000000,1.016000000000000));
#426=CARTESIAN_POINT('',(0.978000000000000,0.254000000000000,-3.184000000000000));
#427=B_SPLINE_SURFACE_WITH_KNOTS('',1,1,((#423,#425),(#424,#426)),.UNSPECIFIED.,.F.,.F.,.U.,(2,2),(2,2),(0.0,4.200000000000000),(0.0,0.507999999999999),.UNSPECIFIED.);
#428=CARTESIAN_POINT('',(0.978000000000000,-0.254000000000000,1.016000000000000));
#429=DIRECTION('',(0.0,0.0,-1.0));
#430=VECTOR('',#429,4.200000000000000);
#431=LINE('',#428,#430);
#432=EDGE_CURVE('',#345,#377,#431,.T.);
#433=ORIENTED_EDGE('',*,*,#432,.F.);
#434=ORIENTED_EDGE('',*,*,#350,.T.);
#435=ORIENTED_EDGE('',*,*,#410,.T.);
#436=ORIENTED_EDGE('',*,*,#390,.T.);
#437=EDGE_LOOP('',(#433,#434,#435,#436));
#438=FACE_OUTER_BOUND('',#437,.T.);
#439=ADVANCED_FACE('',(#438),#427,.F.);
#440=CARTESIAN_POINT('',(1.562000000000000,-0.254000000000000,1.016000000000000));
#441=CARTESIAN_POINT('',(1.562000000000000,-0.254000000000000,-3.184000000000000));
#442=CARTESIAN_POINT('',(0.978000000000000,-0.254000000000000,1.016000000000000));
#443=CARTESIAN_POINT('',(0.978000000000000,-0.254000000000000,-3.184000000000000));
#444=B_SPLINE_SURFACE_WITH_KNOTS('',1,1,((#440,#442),(#441,#443)),.UNSPECIFIED.,.F.,.F.,.U.,(2,2),(2,2),(0.0,4.200000000000000),(0.0,0.584000000000001),.UNSPECIFIED.);
#445=CARTESIAN_POINT('',(1.562000000000000,-0.254000000000000,1.016000000000000));
#446=DIRECTION('',(0.0,0.0,-1.0));
#447=VECTOR('',#446,4.200000000000000);
#448=LINE('',#445,#447);
#449=EDGE_CURVE('',#329,#367,#448,.T.);
#450=ORIENTED_EDGE('',*,*,#449,.F.);
#451=ORIENTED_EDGE('',*,*,#356,.T.);
#452=ORIENTED_EDGE('',*,*,#432,.T.);
#453=ORIENTED_EDGE('',*,*,#382,.T.);
#454=EDGE_LOOP('',(#450,#451,#452,#453));
#455=FACE_OUTER_BOUND('',#454,.T.);
#456=ADVANCED_FACE('',(#455),#444,.F.);
#457=CARTESIAN_POINT('',(1.562000000000000,-0.254000000000000,-3.184000000000000));
#458=CARTESIAN_POINT('',(1.562000000000000,-0.254000000000000,1.016000000000000));
#459=CARTESIAN_POINT('',(1.562000000000000,0.254000000000000,-3.184000000000000));
#460=CARTESIAN_POINT('',(1.562000000000000,0.254000000000000,1.016000000000000));
#461=B_SPLINE_SURFACE_WITH_KNOTS('',1,1,((#457,#459),(#458,#460)),.UNSPECIFIED.,.F.,.F.,.U.,(2,2),(2,2),(0.0,4.200000000000000),(0.0,0.507999999999999),.UNSPECIFIED.);
#462=ORIENTED_EDGE('',*,*,#417,.F.);
#463=ORIENTED_EDGE('',*,*,#334,.T.);
#464=ORIENTED_EDGE('',*,*,#449,.T.);
#465=ORIENTED_EDGE('',*,*,#374,.T.);
#466=EDGE_LOOP('',(#462,#463,#464,#465));
#467=FACE_OUTER_BOUND('',#466,.T.);
#468=ADVANCED_FACE('',(#467),#461,.F.);
#469=CLOSED_SHELL('',(#360,#400,#422,#439,#456,#468));
#470=MANIFOLD_SOLID_BREP('B43',#469);
#471=STYLED_ITEM('NONE',(#319),#470);
#472=CARTESIAN_POINT('',(-1.562000000000000,-0.254000000000000,1.016000000000000));
#473=CARTESIAN_POINT('',(-0.978000000000000,-0.254000000000000,1.016000000000000));
#474=CARTESIAN_POINT('',(-1.562000000000000,0.254000000000000,1.016000000000000));
#475=CARTESIAN_POINT('',(-0.978000000000000,0.254000000000000,1.016000000000000));
#476=B_SPLINE_SURFACE_WITH_KNOTS('',1,1,((#472,#474),(#473,#475)),.UNSPECIFIED.,.F.,.F.,.U.,(2,2),(2,2),(0.0,0.584000000000001),(0.0,0.507999999999999),.UNSPECIFIED.);
#477=CARTESIAN_POINT('',(-0.978000000000000,0.254000000000000,1.016000000000000));
#478=VERTEX_POINT('',#477);
#479=CARTESIAN_POINT('',(-0.978000000000000,-0.254000000000000,1.016000000000000));
#480=VERTEX_POINT('',#479);
#481=CARTESIAN_POINT('',(-0.978000000000000,0.254000000000000,1.016000000000000));
#482=DIRECTION('',(0.0,-1.0,0.0));
#483=VECTOR('',#482,0.507999999999999);
#484=LINE('',#481,#483);
#485=EDGE_CURVE('',#478,#480,#484,.T.);
#486=ORIENTED_EDGE('',*,*,#485,.F.);
#487=CARTESIAN_POINT('',(-1.562000000000000,0.254000000000000,1.016000000000000));
#488=VERTEX_POINT('',#487);
#489=CARTESIAN_POINT('',(-1.562000000000000,0.254000000000000,1.016000000000000));
#490=DIRECTION('',(1.0,0.0,0.0));
#491=VECTOR('',#490,0.584000000000001);
#492=LINE('',#489,#491);
#493=EDGE_CURVE('',#488,#478,#492,.T.);
#494=ORIENTED_EDGE('',*,*,#493,.F.);
#495=CARTESIAN_POINT('',(-1.562000000000000,-0.254000000000000,1.016000000000000));
#496=VERTEX_POINT('',#495);
#497=CARTESIAN_POINT('',(-1.562000000000000,-0.254000000000000,1.016000000000000));
#498=DIRECTION('',(0.0,1.0,0.0));
#499=VECTOR('',#498,0.507999999999999);
#500=LINE('',#497,#499);
#501=EDGE_CURVE('',#496,#488,#500,.T.);
#502=ORIENTED_EDGE('',*,*,#501,.F.);
#503=CARTESIAN_POINT('',(-0.978000000000000,-0.254000000000000,1.016000000000000));
#504=DIRECTION('',(-1.0,0.0,0.0));
#505=VECTOR('',#504,0.584000000000001);
#506=LINE('',#503,#505);
#507=EDGE_CURVE('',#480,#496,#506,.T.);
#508=ORIENTED_EDGE('',*,*,#507,.F.);
#509=EDGE_LOOP('',(#486,#494,#502,#508));
#510=FACE_OUTER_BOUND('',#509,.T.);
#511=ADVANCED_FACE('',(#510),#476,.T.);
#512=CARTESIAN_POINT('',(-1.562000000000000,-0.254000000000000,-3.184000000000000));
#513=CARTESIAN_POINT('',(-0.978000000000000,-0.254000000000000,-3.184000000000000));
#514=CARTESIAN_POINT('',(-1.562000000000000,0.254000000000000,-3.184000000000000));
#515=CARTESIAN_POINT('',(-0.978000000000000,0.254000000000000,-3.184000000000000));
#516=B_SPLINE_SURFACE_WITH_KNOTS('',1,1,((#512,#514),(#513,#515)),.UNSPECIFIED.,.F.,.F.,.U.,(2,2),(2,2),(0.0,0.584000000000001),(0.0,0.507999999999999),.UNSPECIFIED.);
#517=CARTESIAN_POINT('',(-0.978000000000000,-0.254000000000000,-3.184000000000000));
#518=VERTEX_POINT('',#517);
#519=CARTESIAN_POINT('',(-0.978000000000000,0.254000000000000,-3.184000000000000));
#520=VERTEX_POINT('',#519);
#521=CARTESIAN_POINT('',(-0.978000000000000,-0.254000000000000,-3.184000000000000));
#522=DIRECTION('',(0.0,1.0,0.0));
#523=VECTOR('',#522,0.507999999999999);
#524=LINE('',#521,#523);
#525=EDGE_CURVE('',#518,#520,#524,.T.);
#526=ORIENTED_EDGE('',*,*,#525,.F.);
#527=CARTESIAN_POINT('',(-1.562000000000000,-0.254000000000000,-3.184000000000000));
#528=VERTEX_POINT('',#527);
#529=CARTESIAN_POINT('',(-1.562000000000000,-0.254000000000000,-3.184000000000000));
#530=DIRECTION('',(1.0,0.0,0.0));
#531=VECTOR('',#530,0.584000000000001);
#532=LINE('',#529,#531);
#533=EDGE_CURVE('',#528,#518,#532,.T.);
#534=ORIENTED_EDGE('',*,*,#533,.F.);
#535=CARTESIAN_POINT('',(-1.562000000000000,0.254000000000000,-3.184000000000000));
#536=VERTEX_POINT('',#535);
#537=CARTESIAN_POINT('',(-1.562000000000000,0.254000000000000,-3.184000000000000));
#538=DIRECTION('',(0.0,-1.0,0.0));
#539=VECTOR('',#538,0.507999999999999);
#540=LINE('',#537,#539);
#541=EDGE_CURVE('',#536,#528,#540,.T.);
#542=ORIENTED_EDGE('',*,*,#541,.F.);
#543=CARTESIAN_POINT('',(-0.978000000000000,0.254000000000000,-3.184000000000000));
#544=DIRECTION('',(-1.0,0.0,0.0));
#545=VECTOR('',#544,0.584000000000001);
#546=LINE('',#543,#545);
#547=EDGE_CURVE('',#520,#536,#546,.T.);
#548=ORIENTED_EDGE('',*,*,#547,.F.);
#549=EDGE_LOOP('',(#526,#534,#542,#548));
#550=FACE_OUTER_BOUND('',#549,.T.);
#551=ADVANCED_FACE('',(#550),#516,.F.);
#552=CARTESIAN_POINT('',(-0.978000000000000,0.254000000000000,-3.184000000000000));
#553=CARTESIAN_POINT('',(-0.978000000000000,0.254000000000000,1.016000000000000));
#554=CARTESIAN_POINT('',(-1.562000000000000,0.254000000000000,-3.184000000000000));
#555=CARTESIAN_POINT('',(-1.562000000000000,0.254000000000000,1.016000000000000));
#556=B_SPLINE_SURFACE_WITH_KNOTS('',1,1,((#552,#554),(#553,#555)),.UNSPECIFIED.,.F.,.F.,.U.,(2,2),(2,2),(0.0,4.200000000000000),(0.0,0.584000000000001),.UNSPECIFIED.);
#557=CARTESIAN_POINT('',(-1.562000000000000,0.254000000000000,1.016000000000000));
#558=DIRECTION('',(0.0,0.0,-1.0));
#559=VECTOR('',#558,4.200000000000000);
#560=LINE('',#557,#559);
#561=EDGE_CURVE('',#488,#536,#560,.T.);
#562=ORIENTED_EDGE('',*,*,#561,.F.);
#563=ORIENTED_EDGE('',*,*,#493,.T.);
#564=CARTESIAN_POINT('',(-0.978000000000000,0.254000000000000,1.016000000000000));
#565=DIRECTION('',(0.0,0.0,-1.0));
#566=VECTOR('',#565,4.200000000000000);
#567=LINE('',#564,#566);
#568=EDGE_CURVE('',#478,#520,#567,.T.);
#569=ORIENTED_EDGE('',*,*,#568,.T.);
#570=ORIENTED_EDGE('',*,*,#547,.T.);
#571=EDGE_LOOP('',(#562,#563,#569,#570));
#572=FACE_OUTER_BOUND('',#571,.T.);
#573=ADVANCED_FACE('',(#572),#556,.F.);
#574=CARTESIAN_POINT('',(-1.562000000000000,-0.254000000000000,1.016000000000000));
#575=CARTESIAN_POINT('',(-1.562000000000000,-0.254000000000000,-3.184000000000000));
#576=CARTESIAN_POINT('',(-1.562000000000000,0.254000000000000,1.016000000000000));
#577=CARTESIAN_POINT('',(-1.562000000000000,0.254000000000000,-3.184000000000000));
#578=B_SPLINE_SURFACE_WITH_KNOTS('',1,1,((#574,#576),(#575,#577)),.UNSPECIFIED.,.F.,.F.,.U.,(2,2),(2,2),(0.0,4.200000000000000),(0.0,0.507999999999999),.UNSPECIFIED.);
#579=CARTESIAN_POINT('',(-1.562000000000000,-0.254000000000000,1.016000000000000));
#580=DIRECTION('',(0.0,0.0,-1.0));
#581=VECTOR('',#580,4.200000000000000);
#582=LINE('',#579,#581);
#583=EDGE_CURVE('',#496,#528,#582,.T.);
#584=ORIENTED_EDGE('',*,*,#583,.F.);
#585=ORIENTED_EDGE('',*,*,#501,.T.);
#586=ORIENTED_EDGE('',*,*,#561,.T.);
#587=ORIENTED_EDGE('',*,*,#541,.T.);
#588=EDGE_LOOP('',(#584,#585,#586,#587));
#589=FACE_OUTER_BOUND('',#588,.T.);
#590=ADVANCED_FACE('',(#589),#578,.F.);
#591=CARTESIAN_POINT('',(-0.978000000000000,-0.254000000000000,1.016000000000000));
#592=CARTESIAN_POINT('',(-0.978000000000000,-0.254000000000000,-3.184000000000000));
#593=CARTESIAN_POINT('',(-1.562000000000000,-0.254000000000000,1.016000000000000));
#594=CARTESIAN_POINT('',(-1.562000000000000,-0.254000000000000,-3.184000000000000));
#595=B_SPLINE_SURFACE_WITH_KNOTS('',1,1,((#591,#593),(#592,#594)),.UNSPECIFIED.,.F.,.F.,.U.,(2,2),(2,2),(0.0,4.200000000000000),(0.0,0.584000000000001),.UNSPECIFIED.);
#596=CARTESIAN_POINT('',(-0.978000000000000,-0.254000000000000,1.016000000000000));
#597=DIRECTION('',(0.0,0.0,-1.0));
#598=VECTOR('',#597,4.200000000000000);
#599=LINE('',#596,#598);
#600=EDGE_CURVE('',#480,#518,#599,.T.);
#601=ORIENTED_EDGE('',*,*,#600,.F.);
#602=ORIENTED_EDGE('',*,*,#507,.T.);
#603=ORIENTED_EDGE('',*,*,#583,.T.);
#604=ORIENTED_EDGE('',*,*,#533,.T.);
#605=EDGE_LOOP('',(#601,#602,#603,#604));
#606=FACE_OUTER_BOUND('',#605,.T.);
#607=ADVANCED_FACE('',(#606),#595,.F.);
#608=CARTESIAN_POINT('',(-0.978000000000000,-0.254000000000000,-3.184000000000000));
#609=CARTESIAN_POINT('',(-0.978000000000000,-0.254000000000000,1.016000000000000));
#610=CARTESIAN_POINT('',(-0.978000000000000,0.254000000000000,-3.184000000000000));
#611=CARTESIAN_POINT('',(-0.978000000000000,0.254000000000000,1.016000000000000));
#612=B_SPLINE_SURFACE_WITH_KNOTS('',1,1,((#608,#610),(#609,#611)),.UNSPECIFIED.,.F.,.F.,.U.,(2,2),(2,2),(0.0,4.200000000000000),(0.0,0.507999999999999),.UNSPECIFIED.);
#613=ORIENTED_EDGE('',*,*,#568,.F.);
#614=ORIENTED_EDGE('',*,*,#485,.T.);
#615=ORIENTED_EDGE('',*,*,#600,.T.);
#616=ORIENTED_EDGE('',*,*,#525,.T.);
#617=EDGE_LOOP('',(#613,#614,#615,#616));
#618=FACE_OUTER_BOUND('',#617,.T.);
#619=ADVANCED_FACE('',(#618),#612,.F.);
#620=CLOSED_SHELL('',(#511,#551,#573,#590,#607,#619));
#621=MANIFOLD_SOLID_BREP('B3F',#620);
#622=STYLED_ITEM('NONE',(#319),#621);
#623=CARTESIAN_POINT('',(-4.102000000000000,-0.254000000000000,1.016000000000000));
#624=CARTESIAN_POINT('',(-3.518000000000000,-0.254000000000000,1.016000000000000));
#625=CARTESIAN_POINT('',(-4.102000000000000,0.254000000000000,1.016000000000000));
#626=CARTESIAN_POINT('',(-3.518000000000000,0.254000000000000,1.016000000000000));
#627=B_SPLINE_SURFACE_WITH_KNOTS('',1,1,((#623,#625),(#624,#626)),.UNSPECIFIED.,.F.,.F.,.U.,(2,2),(2,2),(0.0,0.584000000000001),(0.0,0.507999999999999),.UNSPECIFIED.);
#628=CARTESIAN_POINT('',(-3.518000000000000,0.254000000000000,1.016000000000000));
#629=VERTEX_POINT('',#628);
#630=CARTESIAN_POINT('',(-3.518000000000000,-0.254000000000000,1.016000000000000));
#631=VERTEX_POINT('',#630);
#632=CARTESIAN_POINT('',(-3.518000000000000,0.254000000000000,1.016000000000000));
#633=DIRECTION('',(0.0,-1.0,0.0));
#634=VECTOR('',#633,0.507999999999999);
#635=LINE('',#632,#634);
#636=EDGE_CURVE('',#629,#631,#635,.T.);
#637=ORIENTED_EDGE('',*,*,#636,.F.);
#638=CARTESIAN_POINT('',(-4.102000000000000,0.254000000000000,1.016000000000000));
#639=VERTEX_POINT('',#638);
#640=CARTESIAN_POINT('',(-4.102000000000000,0.254000000000000,1.016000000000000));
#641=DIRECTION('',(1.0,0.0,0.0));
#642=VECTOR('',#641,0.584000000000001);
#643=LINE('',#640,#642);
#644=EDGE_CURVE('',#639,#629,#643,.T.);
#645=ORIENTED_EDGE('',*,*,#644,.F.);
#646=CARTESIAN_POINT('',(-4.102000000000000,-0.254000000000000,1.016000000000000));
#647=VERTEX_POINT('',#646);
#648=CARTESIAN_POINT('',(-4.102000000000000,-0.254000000000000,1.016000000000000));
#649=DIRECTION('',(0.0,1.0,0.0));
#650=VECTOR('',#649,0.507999999999999);
#651=LINE('',#648,#650);
#652=EDGE_CURVE('',#647,#639,#651,.T.);
#653=ORIENTED_EDGE('',*,*,#652,.F.);
#654=CARTESIAN_POINT('',(-3.518000000000000,-0.254000000000000,1.016000000000000));
#655=DIRECTION('',(-1.0,0.0,0.0));
#656=VECTOR('',#655,0.584000000000001);
#657=LINE('',#654,#656);
#658=EDGE_CURVE('',#631,#647,#657,.T.);
#659=ORIENTED_EDGE('',*,*,#658,.F.);
#660=EDGE_LOOP('',(#637,#645,#653,#659));
#661=FACE_OUTER_BOUND('',#660,.T.);
#662=ADVANCED_FACE('',(#661),#627,.T.);
#663=CARTESIAN_POINT('',(-4.102000000000000,-0.254000000000000,-3.184000000000000));
#664=CARTESIAN_POINT('',(-3.518000000000000,-0.254000000000000,-3.184000000000000));
#665=CARTESIAN_POINT('',(-4.102000000000000,0.254000000000000,-3.184000000000000));
#666=CARTESIAN_POINT('',(-3.518000000000000,0.254000000000000,-3.184000000000000));
#667=B_SPLINE_SURFACE_WITH_KNOTS('',1,1,((#663,#665),(#664,#666)),.UNSPECIFIED.,.F.,.F.,.U.,(2,2),(2,2),(0.0,0.584000000000001),(0.0,0.507999999999999),.UNSPECIFIED.);
#668=CARTESIAN_POINT('',(-3.518000000000000,-0.254000000000000,-3.184000000000000));
#669=VERTEX_POINT('',#668);
#670=CARTESIAN_POINT('',(-3.518000000000000,0.254000000000000,-3.184000000000000));
#671=VERTEX_POINT('',#670);
#672=CARTESIAN_POINT('',(-3.518000000000000,-0.254000000000000,-3.184000000000000));
#673=DIRECTION('',(0.0,1.0,0.0));
#674=VECTOR('',#673,0.507999999999999);
#675=LINE('',#672,#674);
#676=EDGE_CURVE('',#669,#671,#675,.T.);
#677=ORIENTED_EDGE('',*,*,#676,.F.);
#678=CARTESIAN_POINT('',(-4.102000000000000,-0.254000000000000,-3.184000000000000));
#679=VERTEX_POINT('',#678);
#680=CARTESIAN_POINT('',(-4.102000000000000,-0.254000000000000,-3.184000000000000));
#681=DIRECTION('',(1.0,0.0,0.0));
#682=VECTOR('',#681,0.584000000000001);
#683=LINE('',#680,#682);
#684=EDGE_CURVE('',#679,#669,#683,.T.);
#685=ORIENTED_EDGE('',*,*,#684,.F.);
#686=CARTESIAN_POINT('',(-4.102000000000000,0.254000000000000,-3.184000000000000));
#687=VERTEX_POINT('',#686);
#688=CARTESIAN_POINT('',(-4.102000000000000,0.254000000000000,-3.184000000000000));
#689=DIRECTION('',(0.0,-1.0,0.0));
#690=VECTOR('',#689,0.507999999999999);
#691=LINE('',#688,#690);
#692=EDGE_CURVE('',#687,#679,#691,.T.);
#693=ORIENTED_EDGE('',*,*,#692,.F.);
#694=CARTESIAN_POINT('',(-3.518000000000000,0.254000000000000,-3.184000000000000));
#695=DIRECTION('',(-1.0,0.0,0.0));
#696=VECTOR('',#695,0.584000000000001);
#697=LINE('',#694,#696);
#698=EDGE_CURVE('',#671,#687,#697,.T.);
#699=ORIENTED_EDGE('',*,*,#698,.F.);
#700=EDGE_LOOP('',(#677,#685,#693,#699));
#701=FACE_OUTER_BOUND('',#700,.T.);
#702=ADVANCED_FACE('',(#701),#667,.F.);
#703=CARTESIAN_POINT('',(-3.518000000000000,0.254000000000000,-3.184000000000000));
#704=CARTESIAN_POINT('',(-3.518000000000000,0.254000000000000,1.016000000000000));
#705=CARTESIAN_POINT('',(-4.102000000000000,0.254000000000000,-3.184000000000000));
#706=CARTESIAN_POINT('',(-4.102000000000000,0.254000000000000,1.016000000000000));
#707=B_SPLINE_SURFACE_WITH_KNOTS('',1,1,((#703,#705),(#704,#706)),.UNSPECIFIED.,.F.,.F.,.U.,(2,2),(2,2),(0.0,4.200000000000000),(0.0,0.584000000000001),.UNSPECIFIED.);
#708=CARTESIAN_POINT('',(-4.102000000000000,0.254000000000000,1.016000000000000));
#709=DIRECTION('',(0.0,0.0,-1.0));
#710=VECTOR('',#709,4.200000000000000);
#711=LINE('',#708,#710);
#712=EDGE_CURVE('',#639,#687,#711,.T.);
#713=ORIENTED_EDGE('',*,*,#712,.F.);
#714=ORIENTED_EDGE('',*,*,#644,.T.);
#715=CARTESIAN_POINT('',(-3.518000000000000,0.254000000000000,1.016000000000000));
#716=DIRECTION('',(0.0,0.0,-1.0));
#717=VECTOR('',#716,4.200000000000000);
#718=LINE('',#715,#717);
#719=EDGE_CURVE('',#629,#671,#718,.T.);
#720=ORIENTED_EDGE('',*,*,#719,.T.);
#721=ORIENTED_EDGE('',*,*,#698,.T.);
#722=EDGE_LOOP('',(#713,#714,#720,#721));
#723=FACE_OUTER_BOUND('',#722,.T.);
#724=ADVANCED_FACE('',(#723),#707,.F.);
#725=CARTESIAN_POINT('',(-4.102000000000000,-0.254000000000000,1.016000000000000));
#726=CARTESIAN_POINT('',(-4.102000000000000,-0.254000000000000,-3.184000000000000));
#727=CARTESIAN_POINT('',(-4.102000000000000,0.254000000000000,1.016000000000000));
#728=CARTESIAN_POINT('',(-4.102000000000000,0.254000000000000,-3.184000000000000));
#729=B_SPLINE_SURFACE_WITH_KNOTS('',1,1,((#725,#727),(#726,#728)),.UNSPECIFIED.,.F.,.F.,.U.,(2,2),(2,2),(0.0,4.200000000000000),(0.0,0.507999999999999),.UNSPECIFIED.);
#730=CARTESIAN_POINT('',(-4.102000000000000,-0.254000000000000,1.016000000000000));
#731=DIRECTION('',(0.0,0.0,-1.0));
#732=VECTOR('',#731,4.200000000000000);
#733=LINE('',#730,#732);
#734=EDGE_CURVE('',#647,#679,#733,.T.);
#735=ORIENTED_EDGE('',*,*,#734,.F.);
#736=ORIENTED_EDGE('',*,*,#652,.T.);
#737=ORIENTED_EDGE('',*,*,#712,.T.);
#738=ORIENTED_EDGE('',*,*,#692,.T.);
#739=EDGE_LOOP('',(#735,#736,#737,#738));
#740=FACE_OUTER_BOUND('',#739,.T.);
#741=ADVANCED_FACE('',(#740),#729,.F.);
#742=CARTESIAN_POINT('',(-3.518000000000000,-0.254000000000000,1.016000000000000));
#743=CARTESIAN_POINT('',(-3.518000000000000,-0.254000000000000,-3.184000000000000));
#744=CARTESIAN_POINT('',(-4.102000000000000,-0.254000000000000,1.016000000000000));
#745=CARTESIAN_POINT('',(-4.102000000000000,-0.254000000000000,-3.184000000000000));
#746=B_SPLINE_SURFACE_WITH_KNOTS('',1,1,((#742,#744),(#743,#745)),.UNSPECIFIED.,.F.,.F.,.U.,(2,2),(2,2),(0.0,4.200000000000000),(0.0,0.584000000000001),.UNSPECIFIED.);
#747=CARTESIAN_POINT('',(-3.518000000000000,-0.254000000000000,1.016000000000000));
#748=DIRECTION('',(0.0,0.0,-1.0));
#749=VECTOR('',#748,4.200000000000000);
#750=LINE('',#747,#749);
#751=EDGE_CURVE('',#631,#669,#750,.T.);
#752=ORIENTED_EDGE('',*,*,#751,.F.);
#753=ORIENTED_EDGE('',*,*,#658,.T.);
#754=ORIENTED_EDGE('',*,*,#734,.T.);
#755=ORIENTED_EDGE('',*,*,#684,.T.);
#756=EDGE_LOOP('',(#752,#753,#754,#755));
#757=FACE_OUTER_BOUND('',#756,.T.);
#758=ADVANCED_FACE('',(#757),#746,.F.);
#759=CARTESIAN_POINT('',(-3.518000000000000,-0.254000000000000,-3.184000000000000));
#760=CARTESIAN_POINT('',(-3.518000000000000,-0.254000000000000,1.016000000000000));
#761=CARTESIAN_POINT('',(-3.518000000000000,0.254000000000000,-3.184000000000000));
#762=CARTESIAN_POINT('',(-3.518000000000000,0.254000000000000,1.016000000000000));
#763=B_SPLINE_SURFACE_WITH_KNOTS('',1,1,((#759,#761),(#760,#762)),.UNSPECIFIED.,.F.,.F.,.U.,(2,2),(2,2),(0.0,4.200000000000000),(0.0,0.507999999999999),.UNSPECIFIED.);
#764=ORIENTED_EDGE('',*,*,#719,.F.);
#765=ORIENTED_EDGE('',*,*,#636,.T.);
#766=ORIENTED_EDGE('',*,*,#751,.T.);
#767=ORIENTED_EDGE('',*,*,#676,.T.);
#768=EDGE_LOOP('',(#764,#765,#766,#767));
#769=FACE_OUTER_BOUND('',#768,.T.);
#770=ADVANCED_FACE('',(#769),#763,.F.);
#771=CLOSED_SHELL('',(#662,#702,#724,#741,#758,#770));
#772=MANIFOLD_SOLID_BREP('B33',#771);
#773=STYLED_ITEM('NONE',(#319),#772);
#774=CARTESIAN_POINT('',(-8.881784E-016,-8.881784E-016,6.172999999999999));
#775=DIRECTION('',(0.0,0.0,-1.0));
#776=DIRECTION('',(1.0,0.0,0.0));
#777=AXIS2_PLACEMENT_3D('',#774,#775,#776);
#778=PLANE('',#777);
#779=CARTESIAN_POINT('',(4.445000000000000,1.904999999999999,6.172999999999999));
#780=VERTEX_POINT('',#779);
#781=CARTESIAN_POINT('',(4.445000000000000,-1.905000000000001,6.172999999999999));
#782=VERTEX_POINT('',#781);
#783=CARTESIAN_POINT('',(4.445000000000000,1.904999999999999,6.172999999999999));
#784=DIRECTION('',(0.0,-1.0,0.0));
#785=VECTOR('',#784,3.810000000000001);
#786=LINE('',#783,#785);
#787=EDGE_CURVE('',#780,#782,#786,.T.);
#788=ORIENTED_EDGE('',*,*,#787,.T.);
#789=CARTESIAN_POINT('',(-4.445000000000002,-1.905000000000001,6.172999999999999));
#790=VERTEX_POINT('',#789);
#791=CARTESIAN_POINT('',(4.445000000000000,-1.905000000000001,6.172999999999999));
#792=DIRECTION('',(-1.0,0.0,0.0));
#793=VECTOR('',#792,8.890000000000002);
#794=LINE('',#791,#793);
#795=EDGE_CURVE('',#782,#790,#794,.T.);
#796=ORIENTED_EDGE('',*,*,#795,.T.);
#797=CARTESIAN_POINT('',(-4.445000000000002,1.904999999999999,6.172999999999999));
#798=VERTEX_POINT('',#797);
#799=CARTESIAN_POINT('',(-4.445000000000002,-1.905000000000001,6.172999999999999));
#800=DIRECTION('',(0.0,1.0,0.0));
#801=VECTOR('',#800,3.810000000000001);
#802=LINE('',#799,#801);
#803=EDGE_CURVE('',#790,#798,#802,.T.);
#804=ORIENTED_EDGE('',*,*,#803,.T.);
#805=CARTESIAN_POINT('',(-4.445000000000002,1.904999999999999,6.172999999999999));
#806=DIRECTION('',(1.0,0.0,0.0));
#807=VECTOR('',#806,8.890000000000002);
#808=LINE('',#805,#807);
#809=EDGE_CURVE('',#798,#780,#808,.T.);
#810=ORIENTED_EDGE('',*,*,#809,.T.);
#811=EDGE_LOOP('',(#788,#796,#804,#810));
#812=FACE_OUTER_BOUND('',#811,.T.);
#813=ADVANCED_FACE('',(#812),#778,.T.);
#814=CARTESIAN_POINT('',(-8.881784E-016,-8.881784E-016,6.223000000000000));
#815=DIRECTION('',(0.0,0.0,-1.0));
#816=DIRECTION('',(1.0,0.0,0.0));
#817=AXIS2_PLACEMENT_3D('',#814,#815,#816);
#818=PLANE('',#817);
#819=CARTESIAN_POINT('',(4.445000000000000,-1.905000000000001,6.223000000000000));
#820=VERTEX_POINT('',#819);
#821=CARTESIAN_POINT('',(4.445000000000000,1.904999999999999,6.223000000000000));
#822=VERTEX_POINT('',#821);
#823=CARTESIAN_POINT('',(4.445000000000000,-1.905000000000001,6.223000000000000));
#824=DIRECTION('',(0.0,1.0,0.0));
#825=VECTOR('',#824,3.810000000000001);
#826=LINE('',#823,#825);
#827=EDGE_CURVE('',#820,#822,#826,.T.);
#828=ORIENTED_EDGE('',*,*,#827,.T.);
#829=CARTESIAN_POINT('',(-4.445000000000002,1.904999999999999,6.223000000000000));
#830=VERTEX_POINT('',#829);
#831=CARTESIAN_POINT('',(4.445000000000000,1.904999999999999,6.223000000000000));
#832=DIRECTION('',(-1.0,0.0,0.0));
#833=VECTOR('',#832,8.890000000000002);
#834=LINE('',#831,#833);
#835=EDGE_CURVE('',#822,#830,#834,.T.);
#836=ORIENTED_EDGE('',*,*,#835,.T.);
#837=CARTESIAN_POINT('',(-4.445000000000002,-1.905000000000001,6.223000000000000));
#838=VERTEX_POINT('',#837);
#839=CARTESIAN_POINT('',(-4.445000000000002,1.904999999999999,6.223000000000000));
#840=DIRECTION('',(0.0,-1.0,0.0));
#841=VECTOR('',#840,3.810000000000001);
#842=LINE('',#839,#841);
#843=EDGE_CURVE('',#830,#838,#842,.T.);
#844=ORIENTED_EDGE('',*,*,#843,.T.);
#845=CARTESIAN_POINT('',(-4.445000000000002,-1.905000000000001,6.223000000000000));
#846=DIRECTION('',(1.0,0.0,0.0));
#847=VECTOR('',#846,8.890000000000002);
#848=LINE('',#845,#847);
#849=EDGE_CURVE('',#838,#820,#848,.T.);
#850=ORIENTED_EDGE('',*,*,#849,.T.);
#851=EDGE_LOOP('',(#828,#836,#844,#850));
#852=FACE_OUTER_BOUND('',#851,.T.);
#853=ADVANCED_FACE('',(#852),#818,.F.);
#854=CARTESIAN_POINT('',(-8.881784E-016,1.904999999999999,6.198000000000000));
#855=DIRECTION('',(0.0,-1.0,0.0));
#856=DIRECTION('',(0.0,0.0,-1.0));
#857=AXIS2_PLACEMENT_3D('',#854,#855,#856);
#858=PLANE('',#857);
#859=CARTESIAN_POINT('',(-4.445000000000002,1.904999999999999,6.172999999999999));
#860=DIRECTION('',(0.0,0.0,1.0));
#861=VECTOR('',#860,0.050000000000001);
#862=LINE('',#859,#861);
#863=EDGE_CURVE('',#798,#830,#862,.T.);
#864=ORIENTED_EDGE('',*,*,#863,.T.);
#865=ORIENTED_EDGE('',*,*,#835,.F.);
#866=CARTESIAN_POINT('',(4.445000000000000,1.904999999999999,6.172999999999999));
#867=DIRECTION('',(0.0,0.0,1.0));
#868=VECTOR('',#867,0.050000000000001);
#869=LINE('',#866,#868);
#870=EDGE_CURVE('',#780,#822,#869,.T.);
#871=ORIENTED_EDGE('',*,*,#870,.F.);
#872=ORIENTED_EDGE('',*,*,#809,.F.);
#873=EDGE_LOOP('',(#864,#865,#871,#872));
#874=FACE_OUTER_BOUND('',#873,.T.);
#875=ADVANCED_FACE('',(#874),#858,.F.);
#876=CARTESIAN_POINT('',(-4.445000000000002,-8.881784E-016,6.198000000000000));
#877=DIRECTION('',(1.0,0.0,0.0));
#878=DIRECTION('',(0.0,0.0,1.0));
#879=AXIS2_PLACEMENT_3D('',#876,#877,#878);
#880=PLANE('',#879);
#881=CARTESIAN_POINT('',(-4.445000000000002,-1.905000000000001,6.172999999999999));
#882=DIRECTION('',(0.0,0.0,1.0));
#883=VECTOR('',#882,0.050000000000001);
#884=LINE('',#881,#883);
#885=EDGE_CURVE('',#790,#838,#884,.T.);
#886=ORIENTED_EDGE('',*,*,#885,.T.);
#887=ORIENTED_EDGE('',*,*,#843,.F.);
#888=ORIENTED_EDGE('',*,*,#863,.F.);
#889=ORIENTED_EDGE('',*,*,#803,.F.);
#890=EDGE_LOOP('',(#886,#887,#888,#889));
#891=FACE_OUTER_BOUND('',#890,.T.);
#892=ADVANCED_FACE('',(#891),#880,.F.);
#893=CARTESIAN_POINT('',(-8.881784E-016,-1.905000000000001,6.198000000000000));
#894=DIRECTION('',(0.0,1.0,0.0));
#895=DIRECTION('',(0.0,0.0,1.0));
#896=AXIS2_PLACEMENT_3D('',#893,#894,#895);
#897=PLANE('',#896);
#898=CARTESIAN_POINT('',(4.445000000000000,-1.905000000000001,6.172999999999999));
#899=DIRECTION('',(0.0,0.0,1.0));
#900=VECTOR('',#899,0.050000000000001);
#901=LINE('',#898,#900);
#902=EDGE_CURVE('',#782,#820,#901,.T.);
#903=ORIENTED_EDGE('',*,*,#902,.T.);
#904=ORIENTED_EDGE('',*,*,#849,.F.);
#905=ORIENTED_EDGE('',*,*,#885,.F.);
#906=ORIENTED_EDGE('',*,*,#795,.F.);
#907=EDGE_LOOP('',(#903,#904,#905,#906));
#908=FACE_OUTER_BOUND('',#907,.T.);
#909=ADVANCED_FACE('',(#908),#897,.F.);
#910=CARTESIAN_POINT('',(4.445000000000000,-8.881784E-016,6.198000000000000));
#911=DIRECTION('',(-1.0,0.0,0.0));
#912=DIRECTION('',(0.0,0.0,-1.0));
#913=AXIS2_PLACEMENT_3D('',#910,#911,#912);
#914=PLANE('',#913);
#915=ORIENTED_EDGE('',*,*,#870,.T.);
#916=ORIENTED_EDGE('',*,*,#827,.F.);
#917=ORIENTED_EDGE('',*,*,#902,.F.);
#918=ORIENTED_EDGE('',*,*,#787,.F.);
#919=EDGE_LOOP('',(#915,#916,#917,#918));
#920=FACE_OUTER_BOUND('',#919,.T.);
#921=ADVANCED_FACE('',(#920),#914,.F.);
#922=CLOSED_SHELL('',(#813,#853,#875,#892,#909,#921));
#923=MANIFOLD_SOLID_BREP('B23',#922);
#924=DRAUGHTING_PRE_DEFINED_COLOUR('red');
#925=SURFACE_STYLE_USAGE(.BOTH.,#926);
#926=SURFACE_SIDE_STYLE('NONE',(#927));
#927=SURFACE_STYLE_FILL_AREA(#928);
#928=FILL_AREA_STYLE('NONE',(#929));
#929=FILL_AREA_STYLE_COLOUR('NONE',#924);
#930=PRESENTATION_STYLE_ASSIGNMENT((#925));
#931=STYLED_ITEM('NONE',(#930),#923);
#932=CARTESIAN_POINT('',(-4.079999999999999,-2.476500000000000,3.111500000000000));
#933=DIRECTION('',(0.0,1.0,0.0));
#934=DIRECTION('',(1.0,0.0,0.0));
#935=AXIS2_PLACEMENT_3D('',#932,#933,#934);
#936=CYLINDRICAL_SURFACE('',#935,0.500000000000000);
#937=CARTESIAN_POINT('',(-3.579999999999999,-2.476500000000000,3.111500000000000));
#938=VERTEX_POINT('',#937);
#939=CARTESIAN_POINT('',(-3.579999999999999,-2.426500000000000,3.111500000000000));
#940=VERTEX_POINT('',#939);
#941=CARTESIAN_POINT('',(-3.579999999999999,-2.476500000000000,3.111500000000000));
#942=DIRECTION('',(0.0,1.0,0.0));
#943=VECTOR('',#942,0.050000000000000);
#944=LINE('',#941,#943);
#945=EDGE_CURVE('',#938,#940,#944,.T.);
#946=ORIENTED_EDGE('',*,*,#945,.F.);
#947=CARTESIAN_POINT('',(-4.579999999999999,-2.476500000000000,3.111500000000000));
#948=VERTEX_POINT('',#947);
#949=CARTESIAN_POINT('',(-4.079999999999999,-2.476500000000000,3.111500000000000));
#950=DIRECTION('',(0.0,1.0,0.0));
#951=DIRECTION('',(1.0,0.0,0.0));
#952=AXIS2_PLACEMENT_3D('',#949,#950,#951);
#953=CIRCLE('',#952,0.500000000000000);
#954=EDGE_CURVE('',#948,#938,#953,.T.);
#955=ORIENTED_EDGE('',*,*,#954,.F.);
#956=CARTESIAN_POINT('',(-4.579999999999999,-2.426500000000000,3.111500000000000));
#957=VERTEX_POINT('',#956);
#958=CARTESIAN_POINT('',(-4.579999999999999,-2.476500000000000,3.111500000000000));
#959=DIRECTION('',(0.0,1.0,0.0));
#960=VECTOR('',#959,0.050000000000000);
#961=LINE('',#958,#960);
#962=EDGE_CURVE('',#948,#957,#961,.T.);
#963=ORIENTED_EDGE('',*,*,#962,.T.);
#964=CARTESIAN_POINT('',(-4.079999999999999,-2.426500000000000,3.111500000000000));
#965=DIRECTION('',(0.0,-1.0,0.0));
#966=DIRECTION('',(1.0,0.0,0.0));
#967=AXIS2_PLACEMENT_3D('',#964,#965,#966);
#968=CIRCLE('',#967,0.500000000000000);
#969=EDGE_CURVE('',#940,#957,#968,.T.);
#970=ORIENTED_EDGE('',*,*,#969,.F.);
#971=EDGE_LOOP('',(#946,#955,#963,#970));
#972=FACE_OUTER_BOUND('',#971,.T.);
#973=ADVANCED_FACE('',(#972),#936,.F.);
#974=CARTESIAN_POINT('',(-4.079999999999999,-2.476500000000000,3.111500000000000));
#975=DIRECTION('',(0.0,1.0,0.0));
#976=DIRECTION('',(1.0,0.0,0.0));
#977=AXIS2_PLACEMENT_3D('',#974,#975,#976);
#978=CYLINDRICAL_SURFACE('',#977,0.500000000000000);
#979=ORIENTED_EDGE('',*,*,#945,.T.);
#980=CARTESIAN_POINT('',(-4.079999999999999,-2.426500000000000,3.111500000000000));
#981=DIRECTION('',(0.0,-1.0,0.0));
#982=DIRECTION('',(1.0,0.0,0.0));
#983=AXIS2_PLACEMENT_3D('',#980,#981,#982);
#984=CIRCLE('',#983,0.500000000000000);
#985=EDGE_CURVE('',#957,#940,#984,.T.);
#986=ORIENTED_EDGE('',*,*,#985,.F.);
#987=ORIENTED_EDGE('',*,*,#962,.F.);
#988=CARTESIAN_POINT('',(-4.079999999999999,-2.476500000000000,3.111500000000000));
#989=DIRECTION('',(0.0,1.0,0.0));
#990=DIRECTION('',(1.0,0.0,0.0));
#991=AXIS2_PLACEMENT_3D('',#988,#989,#990);
#992=CIRCLE('',#991,0.500000000000000);
#993=EDGE_CURVE('',#938,#948,#992,.T.);
#994=ORIENTED_EDGE('',*,*,#993,.F.);
#995=EDGE_LOOP('',(#979,#986,#987,#994));
#996=FACE_OUTER_BOUND('',#995,.T.);
#997=ADVANCED_FACE('',(#996),#978,.F.);
#998=CARTESIAN_POINT('',(-4.079999999999999,-2.426500000000000,3.111500000000000));
#999=DIRECTION('',(0.0,-1.0,0.0));
#1000=DIRECTION('',(0.0,0.0,-1.0));
#1001=AXIS2_PLACEMENT_3D('',#998,#999,#1000);
#1002=PLANE('',#1001);
#1003=ORIENTED_EDGE('',*,*,#969,.T.);
#1004=ORIENTED_EDGE('',*,*,#985,.T.);
#1005=EDGE_LOOP('',(#1003,#1004));
#1006=FACE_OUTER_BOUND('',#1005,.T.);
#1007=ADVANCED_FACE('',(#1006),#1002,.T.);
#1008=CARTESIAN_POINT('',(-4.444999999999999,-2.476500000000000,1.016000000000000));
#1009=CARTESIAN_POINT('',(-4.444999999999999,-2.476500000000000,0.0));
#1010=CARTESIAN_POINT('',(-4.444999999999999,2.476500000000000,1.016000000000000));
#1011=CARTESIAN_POINT('',(-4.444999999999999,2.476500000000000,0.0));
#1012=B_SPLINE_SURFACE_WITH_KNOTS('',1,1,((#1008,#1010),(#1009,#1011)),.UNSPECIFIED.,.F.,.F.,.U.,(2,2),(2,2),(0.0,1.016000000000000),(0.0,4.953000000000000),.UNSPECIFIED.);
#1013=CARTESIAN_POINT('',(-4.444999999999999,-2.476500000000000,0.0));
#1014=VERTEX_POINT('',#1013);
#1015=CARTESIAN_POINT('',(-4.444999999999999,-2.476500000000000,1.016000000000000));
#1016=VERTEX_POINT('',#1015);
#1017=CARTESIAN_POINT('',(-4.444999999999999,-2.476500000000000,0.0));
#1018=DIRECTION('',(0.0,0.0,1.0));
#1019=VECTOR('',#1018,1.016000000000000);
#1020=LINE('',#1017,#1019);
#1021=EDGE_CURVE('',#1014,#1016,#1020,.T.);
#1022=ORIENTED_EDGE('',*,*,#1021,.F.);
#1023=CARTESIAN_POINT('',(-4.444999999999999,2.476500000000000,0.0));
#1024=VERTEX_POINT('',#1023);
#1025=CARTESIAN_POINT('',(-4.444999999999999,2.476500000000000,0.0));
#1026=DIRECTION('',(0.0,-1.0,0.0));
#1027=VECTOR('',#1026,4.953000000000000);
#1028=LINE('',#1025,#1027);
#1029=EDGE_CURVE('',#1024,#1014,#1028,.T.);
#1030=ORIENTED_EDGE('',*,*,#1029,.F.);
#1031=CARTESIAN_POINT('',(-4.444999999999999,2.476500000000000,1.016000000000000));
#1032=VERTEX_POINT('',#1031);
#1033=CARTESIAN_POINT('',(-4.444999999999999,2.476500000000000,1.016000000000000));
#1034=DIRECTION('',(0.0,0.0,-1.0));
#1035=VECTOR('',#1034,1.016000000000000);
#1036=LINE('',#1033,#1035);
#1037=EDGE_CURVE('',#1032,#1024,#1036,.T.);
#1038=ORIENTED_EDGE('',*,*,#1037,.F.);
#1039=CARTESIAN_POINT('',(-4.444999999999999,-2.476500000000000,1.016000000000000));
#1040=DIRECTION('',(0.0,1.0,0.0));
#1041=VECTOR('',#1040,4.953000000000000);
#1042=LINE('',#1039,#1041);
#1043=EDGE_CURVE('',#1016,#1032,#1042,.T.);
#1044=ORIENTED_EDGE('',*,*,#1043,.F.);
#1045=EDGE_LOOP('',(#1022,#1030,#1038,#1044));
#1046=FACE_OUTER_BOUND('',#1045,.T.);
#1047=ADVANCED_FACE('',(#1046),#1012,.T.);
#1048=CARTESIAN_POINT('',(5.079999999999999,-2.476500000000000,6.223000000000000));
#1049=CARTESIAN_POINT('',(5.079999999999999,-2.476500000000000,0.0));
#1050=CARTESIAN_POINT('',(-5.079999999999999,-2.476500000000000,6.223000000000000));
#1051=CARTESIAN_POINT('',(-5.079999999999999,-2.476500000000000,0.0));
#1052=B_SPLINE_SURFACE_WITH_KNOTS('',1,1,((#1048,#1050),(#1049,#1051)),.UNSPECIFIED.,.F.,.F.,.U.,(2,2),(2,2),(0.0,6.223000000000000),(0.0,10.159999999999998),.UNSPECIFIED.);
#1053=ORIENTED_EDGE('',*,*,#1021,.T.);
#1054=CARTESIAN_POINT('',(4.444999999999999,-2.476500000000000,1.016000000000000));
#1055=VERTEX_POINT('',#1054);
#1056=CARTESIAN_POINT('',(-4.444999999999999,-2.476500000000000,1.016000000000000));
#1057=DIRECTION('',(1.0,0.0,0.0));
#1058=VECTOR('',#1057,8.889999999999999);
#1059=LINE('',#1056,#1058);
#1060=EDGE_CURVE('',#1016,#1055,#1059,.T.);
#1061=ORIENTED_EDGE('',*,*,#1060,.T.);
#1062=CARTESIAN_POINT('',(4.444999999999999,-2.476500000000000,0.0));
#1063=VERTEX_POINT('',#1062);
#1064=CARTESIAN_POINT('',(4.444999999999999,-2.476500000000000,1.016000000000000));
#1065=DIRECTION('',(0.0,0.0,-1.0));
#1066=VECTOR('',#1065,1.016000000000000);
#1067=LINE('',#1064,#1066);
#1068=EDGE_CURVE('',#1055,#1063,#1067,.T.);
#1069=ORIENTED_EDGE('',*,*,#1068,.T.);
#1070=CARTESIAN_POINT('',(5.079999999999999,-2.476500000000000,0.0));
#1071=VERTEX_POINT('',#1070);
#1072=CARTESIAN_POINT('',(4.444999999999999,-2.476500000000000,0.0));
#1073=DIRECTION('',(1.0,0.0,0.0));
#1074=VECTOR('',#1073,0.635000000000000);
#1075=LINE('',#1072,#1074);
#1076=EDGE_CURVE('',#1063,#1071,#1075,.T.);
#1077=ORIENTED_EDGE('',*,*,#1076,.T.);
#1078=CARTESIAN_POINT('',(5.079999999999999,-2.476500000000000,6.223000000000000));
#1079=VERTEX_POINT('',#1078);
#1080=CARTESIAN_POINT('',(5.079999999999999,-2.476500000000000,6.223000000000000));
#1081=DIRECTION('',(0.0,0.0,-1.0));
#1082=VECTOR('',#1081,6.223000000000000);
#1083=LINE('',#1080,#1082);
#1084=EDGE_CURVE('',#1079,#1071,#1083,.T.);
#1085=ORIENTED_EDGE('',*,*,#1084,.F.);
#1086=CARTESIAN_POINT('',(-5.079999999999999,-2.476500000000000,6.223000000000000));
#1087=VERTEX_POINT('',#1086);
#1088=CARTESIAN_POINT('',(5.079999999999999,-2.476500000000000,6.223000000000000));
#1089=DIRECTION('',(-1.0,0.0,0.0));
#1090=VECTOR('',#1089,10.159999999999998);
#1091=LINE('',#1088,#1090);
#1092=EDGE_CURVE('',#1079,#1087,#1091,.T.);
#1093=ORIENTED_EDGE('',*,*,#1092,.T.);
#1094=CARTESIAN_POINT('',(-5.079999999999999,-2.476500000000000,0.0));
#1095=VERTEX_POINT('',#1094);
#1096=CARTESIAN_POINT('',(-5.079999999999999,-2.476500000000000,6.223000000000000));
#1097=DIRECTION('',(0.0,0.0,-1.0));
#1098=VECTOR('',#1097,6.223000000000000);
#1099=LINE('',#1096,#1098);
#1100=EDGE_CURVE('',#1087,#1095,#1099,.T.);
#1101=ORIENTED_EDGE('',*,*,#1100,.T.);
#1102=CARTESIAN_POINT('',(-5.079999999999999,-2.476500000000000,0.0));
#1103=DIRECTION('',(1.0,0.0,0.0));
#1104=VECTOR('',#1103,0.635000000000000);
#1105=LINE('',#1102,#1104);
#1106=EDGE_CURVE('',#1095,#1014,#1105,.T.);
#1107=ORIENTED_EDGE('',*,*,#1106,.T.);
#1108=EDGE_LOOP('',(#1053,#1061,#1069,#1077,#1085,#1093,#1101,#1107));
#1109=FACE_OUTER_BOUND('',#1108,.T.);
#1110=ORIENTED_EDGE('',*,*,#993,.T.);
#1111=ORIENTED_EDGE('',*,*,#954,.T.);
#1112=EDGE_LOOP('',(#1110,#1111));
#1113=FACE_BOUND('',#1112,.T.);
#1114=ADVANCED_FACE('',(#1109,#1113),#1052,.F.);
#1115=CARTESIAN_POINT('',(4.444999999999999,-2.476500000000000,0.0));
#1116=CARTESIAN_POINT('',(5.079999999999999,-2.476500000000000,0.0));
#1117=CARTESIAN_POINT('',(4.444999999999999,2.476500000000000,0.0));
#1118=CARTESIAN_POINT('',(5.079999999999999,2.476500000000000,0.0));
#1119=B_SPLINE_SURFACE_WITH_KNOTS('',1,1,((#1115,#1117),(#1116,#1118)),.UNSPECIFIED.,.F.,.F.,.U.,(2,2),(2,2),(0.0,0.635000000000000),(0.0,4.953000000000000),.UNSPECIFIED.);
#1120=CARTESIAN_POINT('',(4.444999999999999,2.476500000000000,0.0));
#1121=VERTEX_POINT('',#1120);
#1122=CARTESIAN_POINT('',(4.444999999999999,-2.476500000000000,0.0));
#1123=DIRECTION('',(0.0,1.0,0.0));
#1124=VECTOR('',#1123,4.953000000000000);
#1125=LINE('',#1122,#1124);
#1126=EDGE_CURVE('',#1063,#1121,#1125,.T.);
#1127=ORIENTED_EDGE('',*,*,#1126,.T.);
#1128=CARTESIAN_POINT('',(5.079999999999999,2.476500000000000,0.0));
#1129=VERTEX_POINT('',#1128);
#1130=CARTESIAN_POINT('',(5.079999999999999,2.476500000000000,0.0));
#1131=DIRECTION('',(-1.0,0.0,0.0));
#1132=VECTOR('',#1131,0.635000000000000);
#1133=LINE('',#1130,#1132);
#1134=EDGE_CURVE('',#1129,#1121,#1133,.T.);
#1135=ORIENTED_EDGE('',*,*,#1134,.F.);
#1136=CARTESIAN_POINT('',(5.079999999999999,-2.476500000000000,0.0));
#1137=DIRECTION('',(0.0,1.0,0.0));
#1138=VECTOR('',#1137,4.953000000000000);
#1139=LINE('',#1136,#1138);
#1140=EDGE_CURVE('',#1071,#1129,#1139,.T.);
#1141=ORIENTED_EDGE('',*,*,#1140,.F.);
#1142=ORIENTED_EDGE('',*,*,#1076,.F.);
#1143=EDGE_LOOP('',(#1127,#1135,#1141,#1142));
#1144=FACE_OUTER_BOUND('',#1143,.T.);
#1145=ADVANCED_FACE('',(#1144),#1119,.F.);
#1146=CARTESIAN_POINT('',(-5.079999999999999,-2.476500000000000,0.0));
#1147=CARTESIAN_POINT('',(-4.444999999999999,-2.476500000000000,0.0));
#1148=CARTESIAN_POINT('',(-5.079999999999999,2.476500000000000,0.0));
#1149=CARTESIAN_POINT('',(-4.444999999999999,2.476500000000000,0.0));
#1150=B_SPLINE_SURFACE_WITH_KNOTS('',1,1,((#1146,#1148),(#1147,#1149)),.UNSPECIFIED.,.F.,.F.,.U.,(2,2),(2,2),(0.0,0.635000000000000),(0.0,4.953000000000000),.UNSPECIFIED.);
#1151=ORIENTED_EDGE('',*,*,#1029,.T.);
#1152=ORIENTED_EDGE('',*,*,#1106,.F.);
#1153=CARTESIAN_POINT('',(-5.079999999999999,2.476500000000000,0.0));
#1154=VERTEX_POINT('',#1153);
#1155=CARTESIAN_POINT('',(-5.079999999999999,2.476500000000000,0.0));
#1156=DIRECTION('',(0.0,-1.0,0.0));
#1157=VECTOR('',#1156,4.953000000000000);
#1158=LINE('',#1155,#1157);
#1159=EDGE_CURVE('',#1154,#1095,#1158,.T.);
#1160=ORIENTED_EDGE('',*,*,#1159,.F.);
#1161=CARTESIAN_POINT('',(-4.444999999999999,2.476500000000000,0.0));
#1162=DIRECTION('',(-1.0,0.0,0.0));
#1163=VECTOR('',#1162,0.635000000000000);
#1164=LINE('',#1161,#1163);
#1165=EDGE_CURVE('',#1024,#1154,#1164,.T.);
#1166=ORIENTED_EDGE('',*,*,#1165,.F.);
#1167=EDGE_LOOP('',(#1151,#1152,#1160,#1166));
#1168=FACE_OUTER_BOUND('',#1167,.T.);
#1169=ADVANCED_FACE('',(#1168),#1150,.F.);
#1170=CARTESIAN_POINT('',(-8.881784E-016,-8.881784E-016,6.172999999999999));
#1171=DIRECTION('',(0.0,0.0,-1.0));
#1172=DIRECTION('',(1.0,0.0,0.0));
#1173=AXIS2_PLACEMENT_3D('',#1170,#1171,#1172);
#1174=PLANE('',#1173);
#1175=CARTESIAN_POINT('',(4.445000000000000,1.904999999999999,6.172999999999999));
#1176=VERTEX_POINT('',#1175);
#1177=CARTESIAN_POINT('',(4.445000000000000,-1.905000000000001,6.172999999999999));
#1178=VERTEX_POINT('',#1177);
#1179=CARTESIAN_POINT('',(4.445000000000000,1.904999999999999,6.172999999999999));
#1180=DIRECTION('',(0.0,-1.0,0.0));
#1181=VECTOR('',#1180,3.810000000000001);
#1182=LINE('',#1179,#1181);
#1183=EDGE_CURVE('',#1176,#1178,#1182,.T.);
#1184=ORIENTED_EDGE('',*,*,#1183,.F.);
#1185=CARTESIAN_POINT('',(-4.445000000000002,1.904999999999999,6.172999999999999));
#1186=VERTEX_POINT('',#1185);
#1187=CARTESIAN_POINT('',(-4.445000000000002,1.904999999999999,6.172999999999999));
#1188=DIRECTION('',(1.0,0.0,0.0));
#1189=VECTOR('',#1188,8.890000000000002);
#1190=LINE('',#1187,#1189);
#1191=EDGE_CURVE('',#1186,#1176,#1190,.T.);
#1192=ORIENTED_EDGE('',*,*,#1191,.F.);
#1193=CARTESIAN_POINT('',(-4.445000000000002,-1.905000000000001,6.172999999999999));
#1194=VERTEX_POINT('',#1193);
#1195=CARTESIAN_POINT('',(-4.445000000000002,-1.905000000000001,6.172999999999999));
#1196=DIRECTION('',(0.0,1.0,0.0));
#1197=VECTOR('',#1196,3.810000000000001);
#1198=LINE('',#1195,#1197);
#1199=EDGE_CURVE('',#1194,#1186,#1198,.T.);
#1200=ORIENTED_EDGE('',*,*,#1199,.F.);
#1201=CARTESIAN_POINT('',(4.445000000000000,-1.905000000000001,6.172999999999999));
#1202=DIRECTION('',(-1.0,0.0,0.0));
#1203=VECTOR('',#1202,8.890000000000002);
#1204=LINE('',#1201,#1203);
#1205=EDGE_CURVE('',#1178,#1194,#1204,.T.);
#1206=ORIENTED_EDGE('',*,*,#1205,.F.);
#1207=EDGE_LOOP('',(#1184,#1192,#1200,#1206));
#1208=FACE_OUTER_BOUND('',#1207,.T.);
#1209=ADVANCED_FACE('',(#1208),#1174,.F.);
#1210=CARTESIAN_POINT('',(-8.881784E-016,1.904999999999999,6.198000000000000));
#1211=DIRECTION('',(0.0,-1.0,0.0));
#1212=DIRECTION('',(0.0,0.0,-1.0));
#1213=AXIS2_PLACEMENT_3D('',#1210,#1211,#1212);
#1214=PLANE('',#1213);
#1215=CARTESIAN_POINT('',(-4.445000000000002,1.904999999999999,6.223000000000000));
#1216=VERTEX_POINT('',#1215);
#1217=CARTESIAN_POINT('',(-4.445000000000002,1.904999999999999,6.172999999999999));
#1218=DIRECTION('',(0.0,0.0,1.0));
#1219=VECTOR('',#1218,0.050000000000001);
#1220=LINE('',#1217,#1219);
#1221=EDGE_CURVE('',#1186,#1216,#1220,.T.);
#1222=ORIENTED_EDGE('',*,*,#1221,.F.);
#1223=ORIENTED_EDGE('',*,*,#1191,.T.);
#1224=CARTESIAN_POINT('',(4.445000000000000,1.904999999999999,6.223000000000000));
#1225=VERTEX_POINT('',#1224);
#1226=CARTESIAN_POINT('',(4.445000000000000,1.904999999999999,6.172999999999999));
#1227=DIRECTION('',(0.0,0.0,1.0));
#1228=VECTOR('',#1227,0.050000000000001);
#1229=LINE('',#1226,#1228);
#1230=EDGE_CURVE('',#1176,#1225,#1229,.T.);
#1231=ORIENTED_EDGE('',*,*,#1230,.T.);
#1232=CARTESIAN_POINT('',(-4.445000000000002,1.904999999999999,6.223000000000000));
#1233=DIRECTION('',(1.0,0.0,0.0));
#1234=VECTOR('',#1233,8.890000000000002);
#1235=LINE('',#1232,#1234);
#1236=EDGE_CURVE('',#1216,#1225,#1235,.T.);
#1237=ORIENTED_EDGE('',*,*,#1236,.F.);
#1238=EDGE_LOOP('',(#1222,#1223,#1231,#1237));
#1239=FACE_OUTER_BOUND('',#1238,.T.);
#1240=ADVANCED_FACE('',(#1239),#1214,.T.);
#1241=CARTESIAN_POINT('',(-4.445000000000002,-8.881784E-016,6.198000000000000));
#1242=DIRECTION('',(1.0,0.0,0.0));
#1243=DIRECTION('',(0.0,0.0,1.0));
#1244=AXIS2_PLACEMENT_3D('',#1241,#1242,#1243);
#1245=PLANE('',#1244);
#1246=CARTESIAN_POINT('',(-4.445000000000002,-1.905000000000001,6.223000000000000));
#1247=VERTEX_POINT('',#1246);
#1248=CARTESIAN_POINT('',(-4.445000000000002,-1.905000000000001,6.172999999999999));
#1249=DIRECTION('',(0.0,0.0,1.0));
#1250=VECTOR('',#1249,0.050000000000001);
#1251=LINE('',#1248,#1250);
#1252=EDGE_CURVE('',#1194,#1247,#1251,.T.);
#1253=ORIENTED_EDGE('',*,*,#1252,.F.);
#1254=ORIENTED_EDGE('',*,*,#1199,.T.);
#1255=ORIENTED_EDGE('',*,*,#1221,.T.);
#1256=CARTESIAN_POINT('',(-4.445000000000002,-1.905000000000001,6.223000000000000));
#1257=DIRECTION('',(0.0,1.0,0.0));
#1258=VECTOR('',#1257,3.810000000000001);
#1259=LINE('',#1256,#1258);
#1260=EDGE_CURVE('',#1247,#1216,#1259,.T.);
#1261=ORIENTED_EDGE('',*,*,#1260,.F.);
#1262=EDGE_LOOP('',(#1253,#1254,#1255,#1261));
#1263=FACE_OUTER_BOUND('',#1262,.T.);
#1264=ADVANCED_FACE('',(#1263),#1245,.T.);
#1265=CARTESIAN_POINT('',(-8.881784E-016,-1.905000000000001,6.198000000000000));
#1266=DIRECTION('',(0.0,1.0,0.0));
#1267=DIRECTION('',(0.0,0.0,1.0));
#1268=AXIS2_PLACEMENT_3D('',#1265,#1266,#1267);
#1269=PLANE('',#1268);
#1270=CARTESIAN_POINT('',(4.445000000000000,-1.905000000000001,6.223000000000000));
#1271=VERTEX_POINT('',#1270);
#1272=CARTESIAN_POINT('',(4.445000000000000,-1.905000000000001,6.172999999999999));
#1273=DIRECTION('',(0.0,0.0,1.0));
#1274=VECTOR('',#1273,0.050000000000001);
#1275=LINE('',#1272,#1274);
#1276=EDGE_CURVE('',#1178,#1271,#1275,.T.);
#1277=ORIENTED_EDGE('',*,*,#1276,.F.);
#1278=ORIENTED_EDGE('',*,*,#1205,.T.);
#1279=ORIENTED_EDGE('',*,*,#1252,.T.);
#1280=CARTESIAN_POINT('',(4.445000000000000,-1.905000000000001,6.223000000000000));
#1281=DIRECTION('',(-1.0,0.0,0.0));
#1282=VECTOR('',#1281,8.890000000000002);
#1283=LINE('',#1280,#1282);
#1284=EDGE_CURVE('',#1271,#1247,#1283,.T.);
#1285=ORIENTED_EDGE('',*,*,#1284,.F.);
#1286=EDGE_LOOP('',(#1277,#1278,#1279,#1285));
#1287=FACE_OUTER_BOUND('',#1286,.T.);
#1288=ADVANCED_FACE('',(#1287),#1269,.T.);
#1289=CARTESIAN_POINT('',(4.445000000000000,-8.881784E-016,6.198000000000000));
#1290=DIRECTION('',(-1.0,0.0,0.0));
#1291=DIRECTION('',(0.0,0.0,-1.0));
#1292=AXIS2_PLACEMENT_3D('',#1289,#1290,#1291);
#1293=PLANE('',#1292);
#1294=ORIENTED_EDGE('',*,*,#1230,.F.);
#1295=ORIENTED_EDGE('',*,*,#1183,.T.);
#1296=ORIENTED_EDGE('',*,*,#1276,.T.);
#1297=CARTESIAN_POINT('',(4.445000000000000,1.904999999999999,6.223000000000000));
#1298=DIRECTION('',(0.0,-1.0,0.0));
#1299=VECTOR('',#1298,3.810000000000001);
#1300=LINE('',#1297,#1299);
#1301=EDGE_CURVE('',#1225,#1271,#1300,.T.);
#1302=ORIENTED_EDGE('',*,*,#1301,.F.);
#1303=EDGE_LOOP('',(#1294,#1295,#1296,#1302));
#1304=FACE_OUTER_BOUND('',#1303,.T.);
#1305=ADVANCED_FACE('',(#1304),#1293,.T.);
#1306=CARTESIAN_POINT('',(-5.079999999999999,-2.476500000000000,6.223000000000000));
#1307=CARTESIAN_POINT('',(5.079999999999999,-2.476500000000000,6.223000000000000));
#1308=CARTESIAN_POINT('',(-5.079999999999999,2.476500000000000,6.223000000000000));
#1309=CARTESIAN_POINT('',(5.079999999999999,2.476500000000000,6.223000000000000));
#1310=B_SPLINE_SURFACE_WITH_KNOTS('',1,1,((#1306,#1308),(#1307,#1309)),.UNSPECIFIED.,.F.,.F.,.U.,(2,2),(2,2),(0.0,10.159999999999998),(0.0,4.953000000000000),.UNSPECIFIED.);
#1311=CARTESIAN_POINT('',(5.079999999999999,2.476500000000000,6.223000000000000));
#1312=VERTEX_POINT('',#1311);
#1313=CARTESIAN_POINT('',(5.079999999999999,2.476500000000000,6.223000000000000));
#1314=DIRECTION('',(0.0,-1.0,0.0));
#1315=VECTOR('',#1314,4.953000000000000);
#1316=LINE('',#1313,#1315);
#1317=EDGE_CURVE('',#1312,#1079,#1316,.T.);
#1318=ORIENTED_EDGE('',*,*,#1317,.F.);
#1319=CARTESIAN_POINT('',(-5.079999999999999,2.476500000000000,6.223000000000000));
#1320=VERTEX_POINT('',#1319);
#1321=CARTESIAN_POINT('',(-5.079999999999999,2.476500000000000,6.223000000000000));
#1322=DIRECTION('',(1.0,0.0,0.0));
#1323=VECTOR('',#1322,10.159999999999998);
#1324=LINE('',#1321,#1323);
#1325=EDGE_CURVE('',#1320,#1312,#1324,.T.);
#1326=ORIENTED_EDGE('',*,*,#1325,.F.);
#1327=CARTESIAN_POINT('',(-5.079999999999999,-2.476500000000000,6.223000000000000));
#1328=DIRECTION('',(0.0,1.0,0.0));
#1329=VECTOR('',#1328,4.953000000000000);
#1330=LINE('',#1327,#1329);
#1331=EDGE_CURVE('',#1087,#1320,#1330,.T.);
#1332=ORIENTED_EDGE('',*,*,#1331,.F.);
#1333=ORIENTED_EDGE('',*,*,#1092,.F.);
#1334=EDGE_LOOP('',(#1318,#1326,#1332,#1333));
#1335=FACE_OUTER_BOUND('',#1334,.T.);
#1336=ORIENTED_EDGE('',*,*,#1236,.T.);
#1337=ORIENTED_EDGE('',*,*,#1301,.T.);
#1338=ORIENTED_EDGE('',*,*,#1284,.T.);
#1339=ORIENTED_EDGE('',*,*,#1260,.T.);
#1340=EDGE_LOOP('',(#1336,#1337,#1338,#1339));
#1341=FACE_BOUND('',#1340,.T.);
#1342=ADVANCED_FACE('',(#1335,#1341),#1310,.T.);
#1343=CARTESIAN_POINT('',(-5.079999999999999,-2.476500000000000,6.223000000000000));
#1344=CARTESIAN_POINT('',(-5.079999999999999,-2.476500000000000,0.0));
#1345=CARTESIAN_POINT('',(-5.079999999999999,2.476500000000000,6.223000000000000));
#1346=CARTESIAN_POINT('',(-5.079999999999999,2.476500000000000,0.0));
#1347=B_SPLINE_SURFACE_WITH_KNOTS('',1,1,((#1343,#1345),(#1344,#1346)),.UNSPECIFIED.,.F.,.F.,.U.,(2,2),(2,2),(0.0,6.223000000000000),(0.0,4.953000000000000),.UNSPECIFIED.);
#1348=ORIENTED_EDGE('',*,*,#1100,.F.);
#1349=ORIENTED_EDGE('',*,*,#1331,.T.);
#1350=CARTESIAN_POINT('',(-5.079999999999999,2.476500000000000,6.223000000000000));
#1351=DIRECTION('',(0.0,0.0,-1.0));
#1352=VECTOR('',#1351,6.223000000000000);
#1353=LINE('',#1350,#1352);
#1354=EDGE_CURVE('',#1320,#1154,#1353,.T.);
#1355=ORIENTED_EDGE('',*,*,#1354,.T.);
#1356=ORIENTED_EDGE('',*,*,#1159,.T.);
#1357=EDGE_LOOP('',(#1348,#1349,#1355,#1356));
#1358=FACE_OUTER_BOUND('',#1357,.T.);
#1359=ADVANCED_FACE('',(#1358),#1347,.F.);
#1360=CARTESIAN_POINT('',(5.079999999999999,-2.476500000000000,0.0));
#1361=CARTESIAN_POINT('',(5.079999999999999,-2.476500000000000,6.223000000000000));
#1362=CARTESIAN_POINT('',(5.079999999999999,2.476500000000000,0.0));
#1363=CARTESIAN_POINT('',(5.079999999999999,2.476500000000000,6.223000000000000));
#1364=B_SPLINE_SURFACE_WITH_KNOTS('',1,1,((#1360,#1362),(#1361,#1363)),.UNSPECIFIED.,.F.,.F.,.U.,(2,2),(2,2),(0.0,6.223000000000000),(0.0,4.953000000000000),.UNSPECIFIED.);
#1365=CARTESIAN_POINT('',(5.079999999999999,2.476500000000000,6.223000000000000));
#1366=DIRECTION('',(0.0,0.0,-1.0));
#1367=VECTOR('',#1366,6.223000000000000);
#1368=LINE('',#1365,#1367);
#1369=EDGE_CURVE('',#1312,#1129,#1368,.T.);
#1370=ORIENTED_EDGE('',*,*,#1369,.F.);
#1371=ORIENTED_EDGE('',*,*,#1317,.T.);
#1372=ORIENTED_EDGE('',*,*,#1084,.T.);
#1373=ORIENTED_EDGE('',*,*,#1140,.T.);
#1374=EDGE_LOOP('',(#1370,#1371,#1372,#1373));
#1375=FACE_OUTER_BOUND('',#1374,.T.);
#1376=ADVANCED_FACE('',(#1375),#1364,.F.);
#1377=CARTESIAN_POINT('',(5.079999999999999,2.476500000000000,0.0));
#1378=CARTESIAN_POINT('',(5.079999999999999,2.476500000000000,6.223000000000000));
#1379=CARTESIAN_POINT('',(-5.079999999999999,2.476500000000000,0.0));
#1380=CARTESIAN_POINT('',(-5.079999999999999,2.476500000000000,6.223000000000000));
#1381=B_SPLINE_SURFACE_WITH_KNOTS('',1,1,((#1377,#1379),(#1378,#1380)),.UNSPECIFIED.,.F.,.F.,.U.,(2,2),(2,2),(0.0,6.223000000000000),(0.0,10.159999999999998),.UNSPECIFIED.);
#1382=CARTESIAN_POINT('',(4.444999999999999,2.476500000000000,1.016000000000000));
#1383=VERTEX_POINT('',#1382);
#1384=CARTESIAN_POINT('',(4.444999999999999,2.476500000000000,0.0));
#1385=DIRECTION('',(0.0,0.0,1.0));
#1386=VECTOR('',#1385,1.016000000000000);
#1387=LINE('',#1384,#1386);
#1388=EDGE_CURVE('',#1121,#1383,#1387,.T.);
#1389=ORIENTED_EDGE('',*,*,#1388,.T.);
#1390=CARTESIAN_POINT('',(4.444999999999999,2.476500000000000,1.016000000000000));
#1391=DIRECTION('',(-1.0,0.0,0.0));
#1392=VECTOR('',#1391,8.889999999999999);
#1393=LINE('',#1390,#1392);
#1394=EDGE_CURVE('',#1383,#1032,#1393,.T.);
#1395=ORIENTED_EDGE('',*,*,#1394,.T.);
#1396=ORIENTED_EDGE('',*,*,#1037,.T.);
#1397=ORIENTED_EDGE('',*,*,#1165,.T.);
#1398=ORIENTED_EDGE('',*,*,#1354,.F.);
#1399=ORIENTED_EDGE('',*,*,#1325,.T.);
#1400=ORIENTED_EDGE('',*,*,#1369,.T.);
#1401=ORIENTED_EDGE('',*,*,#1134,.T.);
#1402=EDGE_LOOP('',(#1389,#1395,#1396,#1397,#1398,#1399,#1400,#1401));
#1403=FACE_OUTER_BOUND('',#1402,.T.);
#1404=ADVANCED_FACE('',(#1403),#1381,.F.);
#1405=CARTESIAN_POINT('',(-4.444999999999999,-2.476500000000000,1.016000000000000));
#1406=CARTESIAN_POINT('',(4.444999999999999,-2.476500000000000,1.016000000000000));
#1407=CARTESIAN_POINT('',(-4.444999999999999,2.476500000000000,1.016000000000000));
#1408=CARTESIAN_POINT('',(4.444999999999999,2.476500000000000,1.016000000000000));
#1409=B_SPLINE_SURFACE_WITH_KNOTS('',1,1,((#1405,#1407),(#1406,#1408)),.UNSPECIFIED.,.F.,.F.,.U.,(2,2),(2,2),(0.0,8.889999999999999),(0.0,4.953000000000000),.UNSPECIFIED.);
#1410=CARTESIAN_POINT('',(4.444999999999999,2.476500000000000,1.016000000000000));
#1411=DIRECTION('',(0.0,-1.0,0.0));
#1412=VECTOR('',#1411,4.953000000000000);
#1413=LINE('',#1410,#1412);
#1414=EDGE_CURVE('',#1383,#1055,#1413,.T.);
#1415=ORIENTED_EDGE('',*,*,#1414,.T.);
#1416=ORIENTED_EDGE('',*,*,#1060,.F.);
#1417=ORIENTED_EDGE('',*,*,#1043,.T.);
#1418=ORIENTED_EDGE('',*,*,#1394,.F.);
#1419=EDGE_LOOP('',(#1415,#1416,#1417,#1418));
#1420=FACE_OUTER_BOUND('',#1419,.T.);
#1421=ADVANCED_FACE('',(#1420),#1409,.F.);
#1422=CARTESIAN_POINT('',(4.444999999999999,-2.476500000000000,0.0));
#1423=CARTESIAN_POINT('',(4.444999999999999,-2.476500000000000,1.016000000000000));
#1424=CARTESIAN_POINT('',(4.444999999999999,2.476500000000000,0.0));
#1425=CARTESIAN_POINT('',(4.444999999999999,2.476500000000000,1.016000000000000));
#1426=B_SPLINE_SURFACE_WITH_KNOTS('',1,1,((#1422,#1424),(#1423,#1425)),.UNSPECIFIED.,.F.,.F.,.U.,(2,2),(2,2),(0.0,1.016000000000000),(0.0,4.953000000000000),.UNSPECIFIED.);
#1427=ORIENTED_EDGE('',*,*,#1388,.F.);
#1428=ORIENTED_EDGE('',*,*,#1126,.F.);
#1429=ORIENTED_EDGE('',*,*,#1068,.F.);
#1430=ORIENTED_EDGE('',*,*,#1414,.F.);
#1431=EDGE_LOOP('',(#1427,#1428,#1429,#1430));
#1432=FACE_OUTER_BOUND('',#1431,.T.);
#1433=ADVANCED_FACE('',(#1432),#1426,.T.);
#1434=CLOSED_SHELL('',(#973,#997,#1007,#1047,#1114,#1145,#1169,#1209,#1240,#1264,#1288,#1305,#1342,#1359,#1376,#1404,#1421,#1433));
#1435=MANIFOLD_SOLID_BREP('AEF',#1434);
#1436=DRAUGHTING_PRE_DEFINED_COLOUR('white');
#1437=SURFACE_STYLE_USAGE(.BOTH.,#1438);
#1438=SURFACE_SIDE_STYLE('NONE',(#1439));
#1439=SURFACE_STYLE_FILL_AREA(#1440);
#1440=FILL_AREA_STYLE('NONE',(#1441));
#1441=FILL_AREA_STYLE_COLOUR('NONE',#1436);
#1442=PRESENTATION_STYLE_ASSIGNMENT((#1437));
#1443=STYLED_ITEM('NONE',(#1442),#1435);
#1444=ADVANCED_BREP_SHAPE_REPRESENTATION('ABSR1',(#152,#312,#470,#621,#772,#923,#1435),#28);
#1445=SHAPE_REPRESENTATION_RELATIONSHIP('SRRPL1','',#1444,#62);
ENDSEC;
END-ISO-10303-21;
