ISO-10303-21;
HEADER;
/****************************************************************
 * Generated by software with PDElib inside                    *
 * PDElib Version v51a, created Fri 09/10/2010                  *
 * ITI Transcendata (http://www.transcendata.com/)              *
 ****************************************************************/
FILE_DESCRIPTION((''),'2;1');
FILE_NAME('LED_MENTOR_1807.8033.stp','2015-10-13T15:15:29',(''),(''),'Mechanical Desktop 2011','Mechanical Desktop 2011',', , ');
FILE_SCHEMA(('AUTOMOTIVE_DESIGN { 1 2 10303 214 1 1 1 1 }'));
ENDSEC;
DATA;
#10=(NAMED_UNIT(*)PLANE_ANGLE_UNIT()SI_UNIT($,.RADIAN.));
#11=DIMENSIONAL_EXPONENTS(0.0,0.0,0.0,0.0,0.0,0.0,0.0);
#12=PLANE_ANGLE_MEASURE_WITH_UNIT(PLANE_ANGLE_MEASURE(0.0174532925),#10);
#16=(CONVERSION_BASED_UNIT('DEGREE',#12)NAMED_UNIT(#11)PLANE_ANGLE_UNIT());
#20=(NAMED_UNIT(*)SI_UNIT($,.STERADIAN.)SOLID_ANGLE_UNIT());
#24=(LENGTH_UNIT()NAMED_UNIT(*)SI_UNIT(.MILLI.,.METRE.));
#26=UNCERTAINTY_MEASURE_WITH_UNIT(LENGTH_MEASURE(0.000001),#24,'DISTANCE_ACCURACY_VALUE','');
#28=(GEOMETRIC_REPRESENTATION_CONTEXT(3)GLOBAL_UNCERTAINTY_ASSIGNED_CONTEXT((#26))GLOBAL_UNIT_ASSIGNED_CONTEXT((#16,#20,#24))REPRESENTATION_CONTEXT('','3D'));
#29=APPLICATION_CONTEXT('automotive design');
#30=APPLICATION_PROTOCOL_DEFINITION('INTERNATIONAL_STANDARD','automotive_design',1998,#29);
#31=PRODUCT_CONTEXT('3D Mechanical Parts',#29,'mechanical');
#32=PRODUCT('Product','Product','',(#31));
#33=PRODUCT_RELATED_PRODUCT_CATEGORY('part',$,(#32));
#34=PRODUCT_CATEGORY('part',$);
#35=PERSON('1','Design','Joe',$,$,$);
#36=ORGANIZATION($,'None','None');
#37=PERSON_AND_ORGANIZATION(#35,#36);
#38=PERSON_AND_ORGANIZATION_ROLE('design_owner');
#39=APPLIED_PERSON_AND_ORGANIZATION_ASSIGNMENT(#37,#38,(#32));
#40=PRODUCT_DEFINITION_FORMATION_WITH_SPECIFIED_SOURCE('None','',#32,.BOUGHT.);
#41=PERSON('2','Creator','Joe',$,$,$);
#42=ORGANIZATION($,'None','None');
#43=PERSON_AND_ORGANIZATION(#41,#42);
#44=PERSON_AND_ORGANIZATION_ROLE('creator');
#45=APPLIED_PERSON_AND_ORGANIZATION_ASSIGNMENT(#43,#44,(#40));
#46=PERSON('3','Supplier','Joe',$,$,$);
#47=ORGANIZATION($,'None','None');
#48=PERSON_AND_ORGANIZATION(#46,#47);
#49=PERSON_AND_ORGANIZATION_ROLE('design_supplier');
#50=APPLIED_PERSON_AND_ORGANIZATION_ASSIGNMENT(#48,#49,(#40));
#51=PRODUCT_DEFINITION_CONTEXT('part definition',#29,'design');
#52=PRODUCT_DEFINITION('None','',#40,#51);
#53=PERSON('4','Creator','Joe',$,$,$);
#54=ORGANIZATION($,'None','None');
#55=PERSON_AND_ORGANIZATION(#53,#54);
#56=PERSON_AND_ORGANIZATION_ROLE('creator');
#57=APPLIED_PERSON_AND_ORGANIZATION_ASSIGNMENT(#55,#56,(#52));
#58=CARTESIAN_POINT('NONE',(0.0,0.0,0.0));
#59=DIRECTION('NONE',(0.0,0.0,1.0));
#60=DIRECTION('NONE',(1.0,0.0,0.0));
#61=AXIS2_PLACEMENT_3D('NONE',#58,#59,#60);
#62=SHAPE_REPRESENTATION('SR1',(#61),#28);
#63=PRODUCT_DEFINITION_SHAPE('PDS1','Test Part',#52);
#64=SHAPE_DEFINITION_REPRESENTATION(#63,#62);
#65=CARTESIAN_POINT('',(-16.559999999999995,-6.661338E-016,5.049999999999997));
#66=DIRECTION('',(1.0,0.0,0.0));
#67=DIRECTION('',(0.0,0.0,-1.0));
#68=AXIS2_PLACEMENT_3D('',#65,#66,#67);
#69=SPHERICAL_SURFACE('',#68,2.5);
#70=CARTESIAN_POINT('',(-16.559999999999992,-5.763511E-016,2.549999999999997));
#71=VERTEX_POINT('',#70);
#72=CARTESIAN_POINT('',(-19.059999999999995,-6.661338E-016,5.049999999999997));
#73=VERTEX_POINT('',#72);
#74=CARTESIAN_POINT('',(-16.559999999999995,-6.661338E-016,5.049999999999997));
#75=DIRECTION('',(0.0,1.0,0.0));
#76=DIRECTION('',(0.0,0.0,-1.0));
#77=AXIS2_PLACEMENT_3D('',#74,#75,#76);
#78=CIRCLE('',#77,2.5);
#79=EDGE_CURVE('',#71,#73,#78,.T.);
#80=ORIENTED_EDGE('',*,*,#79,.F.);
#81=CARTESIAN_POINT('',(-16.559999999999995,-2.701894E-016,7.549999999999997));
#82=VERTEX_POINT('',#81);
#83=CARTESIAN_POINT('',(-16.559999999999995,-5.763511E-016,5.049999999999997));
#84=DIRECTION('',(-1.0,0.0,0.0));
#85=DIRECTION('',(0.0,0.0,-1.0));
#86=AXIS2_PLACEMENT_3D('',#83,#84,#85);
#87=CIRCLE('',#86,2.5);
#88=EDGE_CURVE('',#71,#82,#87,.T.);
#89=ORIENTED_EDGE('',*,*,#88,.T.);
#90=CARTESIAN_POINT('',(-16.559999999999995,-6.661338E-016,5.049999999999997));
#91=DIRECTION('',(0.0,-1.0,0.0));
#92=DIRECTION('',(0.0,0.0,1.0));
#93=AXIS2_PLACEMENT_3D('',#90,#91,#92);
#94=CIRCLE('',#93,2.5);
#95=EDGE_CURVE('',#82,#73,#94,.T.);
#96=ORIENTED_EDGE('',*,*,#95,.T.);
#97=EDGE_LOOP('',(#80,#89,#96));
#98=FACE_OUTER_BOUND('',#97,.T.);
#99=ADVANCED_FACE('',(#98),#69,.T.);
#100=CARTESIAN_POINT('',(-15.47999999999999,-4.440892E-016,5.049999999999997));
#101=DIRECTION('',(-1.0,-1.224647E-016,-2.220446E-016));
#102=DIRECTION('',(0.0,0.0,-1.0));
#103=AXIS2_PLACEMENT_3D('',#100,#101,#102);
#104=CYLINDRICAL_SURFACE('',#103,2.5);
#105=CARTESIAN_POINT('',(-14.399999999999988,-3.118274E-016,2.549999999999998));
#106=VERTEX_POINT('',#105);
#107=CARTESIAN_POINT('',(-16.559999999999992,-5.763511E-016,2.549999999999997));
#108=DIRECTION('',(1.0,0.0,0.0));
#109=VECTOR('',#108,2.160000000000004);
#110=LINE('',#107,#109);
#111=EDGE_CURVE('',#71,#106,#110,.T.);
#112=ORIENTED_EDGE('',*,*,#111,.F.);
#113=CARTESIAN_POINT('',(-16.559999999999995,-5.763511E-016,5.049999999999997));
#114=DIRECTION('',(-1.0,0.0,0.0));
#115=DIRECTION('',(0.0,0.0,-1.0));
#116=AXIS2_PLACEMENT_3D('',#113,#114,#115);
#117=CIRCLE('',#116,2.5);
#118=EDGE_CURVE('',#82,#71,#117,.T.);
#119=ORIENTED_EDGE('',*,*,#118,.F.);
#120=CARTESIAN_POINT('',(-14.399999999999988,-5.665656E-018,7.549999999999997));
#121=VERTEX_POINT('',#120);
#122=CARTESIAN_POINT('',(-16.559999999999995,-2.701894E-016,7.549999999999997));
#123=DIRECTION('',(1.0,0.0,0.0));
#124=VECTOR('',#123,2.160000000000007);
#125=LINE('',#122,#124);
#126=EDGE_CURVE('',#82,#121,#125,.T.);
#127=ORIENTED_EDGE('',*,*,#126,.T.);
#128=CARTESIAN_POINT('',(-14.399999999999988,-3.118274E-016,5.049999999999998));
#129=DIRECTION('',(1.0,0.0,0.0));
#130=DIRECTION('',(0.0,0.0,-1.0));
#131=AXIS2_PLACEMENT_3D('',#128,#129,#130);
#132=CIRCLE('',#131,2.5);
#133=EDGE_CURVE('',#106,#121,#132,.T.);
#134=ORIENTED_EDGE('',*,*,#133,.F.);
#135=EDGE_LOOP('',(#112,#119,#127,#134));
#136=FACE_OUTER_BOUND('',#135,.T.);
#137=ADVANCED_FACE('',(#136),#104,.T.);
#138=CARTESIAN_POINT('',(-14.399999999999988,-3.118274E-016,5.049999999999998));
#139=DIRECTION('',(1.0,0.0,0.0));
#140=DIRECTION('',(0.0,0.0,1.0));
#141=AXIS2_PLACEMENT_3D('',#138,#139,#140);
#142=PLANE('',#141);
#143=CARTESIAN_POINT('',(-14.399999999999988,-0.461325865534804,7.507067041370371));
#144=VERTEX_POINT('',#143);
#145=CARTESIAN_POINT('',(-14.399999999999988,-3.118274E-016,5.049999999999998));
#146=DIRECTION('',(1.0,0.0,0.0));
#147=DIRECTION('',(0.0,0.0,-1.0));
#148=AXIS2_PLACEMENT_3D('',#145,#146,#147);
#149=CIRCLE('',#148,2.5);
#150=EDGE_CURVE('',#144,#106,#149,.T.);
#151=ORIENTED_EDGE('',*,*,#150,.T.);
#152=ORIENTED_EDGE('',*,*,#133,.T.);
#153=CARTESIAN_POINT('',(-14.399999999999988,-3.118274E-016,5.049999999999998));
#154=DIRECTION('',(1.0,0.0,0.0));
#155=DIRECTION('',(0.0,0.0,-1.0));
#156=AXIS2_PLACEMENT_3D('',#153,#154,#155);
#157=CIRCLE('',#156,2.5);
#158=EDGE_CURVE('',#121,#144,#157,.T.);
#159=ORIENTED_EDGE('',*,*,#158,.T.);
#160=EDGE_LOOP('',(#151,#152,#159));
#161=FACE_OUTER_BOUND('',#160,.T.);
#162=ADVANCED_FACE('',(#161),#142,.T.);
#163=CARTESIAN_POINT('',(-15.47999999999999,-4.440892E-016,5.049999999999997));
#164=DIRECTION('',(-1.0,-1.224647E-016,-2.220446E-016));
#165=DIRECTION('',(0.0,0.0,-1.0));
#166=AXIS2_PLACEMENT_3D('',#163,#164,#165);
#167=CYLINDRICAL_SURFACE('',#166,2.5);
#168=ORIENTED_EDGE('',*,*,#111,.T.);
#169=ORIENTED_EDGE('',*,*,#150,.F.);
#170=ORIENTED_EDGE('',*,*,#158,.F.);
#171=ORIENTED_EDGE('',*,*,#126,.F.);
#172=ORIENTED_EDGE('',*,*,#88,.F.);
#173=EDGE_LOOP('',(#168,#169,#170,#171,#172));
#174=FACE_OUTER_BOUND('',#173,.T.);
#175=ADVANCED_FACE('',(#174),#167,.T.);
#176=CARTESIAN_POINT('',(-16.559999999999995,-6.661338E-016,5.049999999999997));
#177=DIRECTION('',(1.0,0.0,0.0));
#178=DIRECTION('',(0.0,0.0,-1.0));
#179=AXIS2_PLACEMENT_3D('',#176,#177,#178);
#180=SPHERICAL_SURFACE('',#179,2.5);
#181=ORIENTED_EDGE('',*,*,#79,.T.);
#182=ORIENTED_EDGE('',*,*,#95,.F.);
#183=ORIENTED_EDGE('',*,*,#118,.T.);
#184=EDGE_LOOP('',(#181,#182,#183));
#185=FACE_OUTER_BOUND('',#184,.T.);
#186=ADVANCED_FACE('',(#185),#180,.T.);
#187=CLOSED_SHELL('',(#99,#137,#162,#175,#186));
#188=MANIFOLD_SOLID_BREP('227',#187);
#189=DRAUGHTING_PRE_DEFINED_COLOUR('green');
#190=SURFACE_STYLE_USAGE(.BOTH.,#191);
#191=SURFACE_SIDE_STYLE('NONE',(#192));
#192=SURFACE_STYLE_FILL_AREA(#193);
#193=FILL_AREA_STYLE('NONE',(#194));
#194=FILL_AREA_STYLE_COLOUR('NONE',#189);
#195=PRESENTATION_STYLE_ASSIGNMENT((#190));
#196=STYLED_ITEM('NONE',(#195),#188);
#197=MECHANICAL_DESIGN_GEOMETRIC_PRESENTATION_REPRESENTATION('NONE',(#196,#1042,#1200,#1351),#28);
#198=PRESENTATION_LAYER_ASSIGNMENT('3D','None',(#188,#1034,#1192,#1350));
#199=CARTESIAN_POINT('',(-7.559999999999999,-3.051376E-015,-0.5));
#200=DIRECTION('',(0.0,-1.224647E-016,-1.0));
#201=DIRECTION('',(1.0,0.0,0.0));
#202=AXIS2_PLACEMENT_3D('',#199,#200,#201);
#203=CYLINDRICAL_SURFACE('',#202,0.500000000000002);
#204=CARTESIAN_POINT('',(-7.059999999999995,-2.990143E-015,-1.000000000000001));
#205=VERTEX_POINT('',#204);
#206=CARTESIAN_POINT('',(-7.059999999999995,-2.990143E-015,0.0));
#207=VERTEX_POINT('',#206);
#208=CARTESIAN_POINT('',(-7.059999999999997,-3.112608E-015,-1.000000000000001));
#209=DIRECTION('',(0.0,0.0,1.0));
#210=VECTOR('',#209,1.000000000000001);
#211=LINE('',#208,#210);
#212=EDGE_CURVE('',#205,#207,#211,.T.);
#213=ORIENTED_EDGE('',*,*,#212,.F.);
#214=CARTESIAN_POINT('',(-8.060000000000001,-3.051376E-015,-1.000000000000001));
#215=VERTEX_POINT('',#214);
#216=CARTESIAN_POINT('',(-7.559999999999998,-3.051376E-015,-1.000000000000001));
#217=DIRECTION('',(0.0,0.0,-1.0));
#218=DIRECTION('',(1.0,0.0,0.0));
#219=AXIS2_PLACEMENT_3D('',#216,#217,#218);
#220=CIRCLE('',#219,0.500000000000002);
#221=EDGE_CURVE('',#215,#205,#220,.T.);
#222=ORIENTED_EDGE('',*,*,#221,.F.);
#223=CARTESIAN_POINT('',(-8.060000000000001,-2.928911E-015,0.0));
#224=VERTEX_POINT('',#223);
#225=CARTESIAN_POINT('',(-8.060000000000001,-3.051376E-015,-1.000000000000001));
#226=DIRECTION('',(0.0,0.0,1.0));
#227=VECTOR('',#226,1.000000000000001);
#228=LINE('',#225,#227);
#229=EDGE_CURVE('',#215,#224,#228,.T.);
#230=ORIENTED_EDGE('',*,*,#229,.T.);
#231=CARTESIAN_POINT('',(-7.559999999999999,-3.051376E-015,0.0));
#232=DIRECTION('',(0.0,0.0,1.0));
#233=DIRECTION('',(1.0,0.0,0.0));
#234=AXIS2_PLACEMENT_3D('',#231,#232,#233);
#235=CIRCLE('',#234,0.500000000000002);
#236=EDGE_CURVE('',#207,#224,#235,.T.);
#237=ORIENTED_EDGE('',*,*,#236,.F.);
#238=EDGE_LOOP('',(#213,#222,#230,#237));
#239=FACE_OUTER_BOUND('',#238,.T.);
#240=ADVANCED_FACE('',(#239),#203,.T.);
#241=CARTESIAN_POINT('',(-15.279999999999994,-4.440892E-016,5.049999999999997));
#242=DIRECTION('',(-1.0,-1.224647E-016,-2.220446E-016));
#243=DIRECTION('',(0.0,0.0,-1.0));
#244=AXIS2_PLACEMENT_3D('',#241,#242,#243);
#245=CYLINDRICAL_SURFACE('',#244,3.9);
#246=CARTESIAN_POINT('',(-15.159999999999995,-9.070057E-016,1.149999999999997));
#247=VERTEX_POINT('',#246);
#248=CARTESIAN_POINT('',(-14.399999999999991,-3.363203E-016,1.149999999999997));
#249=VERTEX_POINT('',#248);
#250=CARTESIAN_POINT('',(-15.159999999999995,-4.293934E-016,1.149999999999997));
#251=DIRECTION('',(1.0,0.0,0.0));
#252=VECTOR('',#251,0.760000000000003);
#253=LINE('',#250,#252);
#254=EDGE_CURVE('',#247,#249,#253,.T.);
#255=ORIENTED_EDGE('',*,*,#254,.F.);
#256=CARTESIAN_POINT('',(-15.159999999999995,-4.293934E-016,8.949999999999998));
#257=VERTEX_POINT('',#256);
#258=CARTESIAN_POINT('',(-15.159999999999995,-4.293934E-016,5.049999999999997));
#259=DIRECTION('',(-1.0,0.0,0.0));
#260=DIRECTION('',(0.0,0.0,1.0));
#261=AXIS2_PLACEMENT_3D('',#258,#259,#260);
#262=CIRCLE('',#261,3.9);
#263=EDGE_CURVE('',#257,#247,#262,.T.);
#264=ORIENTED_EDGE('',*,*,#263,.F.);
#265=CARTESIAN_POINT('',(-14.399999999999995,1.412920E-016,8.949999999999998));
#266=VERTEX_POINT('',#265);
#267=CARTESIAN_POINT('',(-15.159999999999995,4.821880E-017,8.949999999999998));
#268=DIRECTION('',(1.0,0.0,0.0));
#269=VECTOR('',#268,0.76);
#270=LINE('',#267,#269);
#271=EDGE_CURVE('',#257,#266,#270,.T.);
#272=ORIENTED_EDGE('',*,*,#271,.T.);
#273=CARTESIAN_POINT('',(-14.399999999999993,-3.363203E-016,5.049999999999997));
#274=DIRECTION('',(1.0,0.0,0.0));
#275=DIRECTION('',(0.0,0.0,-1.0));
#276=AXIS2_PLACEMENT_3D('',#273,#274,#275);
#277=CIRCLE('',#276,3.9);
#278=EDGE_CURVE('',#249,#266,#277,.T.);
#279=ORIENTED_EDGE('',*,*,#278,.F.);
#280=EDGE_LOOP('',(#255,#264,#272,#279));
#281=FACE_OUTER_BOUND('',#280,.T.);
#282=ADVANCED_FACE('',(#281),#245,.T.);
#283=CARTESIAN_POINT('',(-15.659999999999995,-4.906258E-016,5.049999999999997));
#284=DIRECTION('',(1.0,1.224647E-016,2.220446E-016));
#285=DIRECTION('',(0.0,0.0,1.0));
#286=AXIS2_PLACEMENT_3D('',#283,#284,#285);
#287=CONICAL_SURFACE('',#286,3.65,26.56505117707799);
#288=CARTESIAN_POINT('',(-16.159999999999997,-5.518581E-016,8.449999999999996));
#289=VERTEX_POINT('',#288);
#290=CARTESIAN_POINT('',(-16.159999999999997,-5.518581E-016,8.449999999999996));
#291=DIRECTION('',(0.894427190999916,1.095357E-016,0.447213595499959));
#292=VECTOR('',#291,1.118033988749897);
#293=LINE('',#290,#292);
#294=EDGE_CURVE('',#289,#257,#293,.T.);
#295=ORIENTED_EDGE('',*,*,#294,.F.);
#296=CARTESIAN_POINT('',(-16.159999999999993,-1.354782E-016,1.649999999999997));
#297=VERTEX_POINT('',#296);
#298=CARTESIAN_POINT('',(-16.159999999999997,-5.518581E-016,5.049999999999997));
#299=DIRECTION('',(1.0,0.0,0.0));
#300=DIRECTION('',(0.0,0.0,1.0));
#301=AXIS2_PLACEMENT_3D('',#298,#299,#300);
#302=CIRCLE('',#301,3.4);
#303=EDGE_CURVE('',#289,#297,#302,.T.);
#304=ORIENTED_EDGE('',*,*,#303,.T.);
#305=CARTESIAN_POINT('',(-16.159999999999993,-9.682380E-016,1.649999999999996));
#306=DIRECTION('',(0.894427190999916,5.476787E-017,-0.447213595499958));
#307=VECTOR('',#306,1.118033988749893);
#308=LINE('',#305,#307);
#309=EDGE_CURVE('',#297,#247,#308,.T.);
#310=ORIENTED_EDGE('',*,*,#309,.T.);
#311=CARTESIAN_POINT('',(-15.159999999999995,-4.293934E-016,5.049999999999997));
#312=DIRECTION('',(-1.0,0.0,0.0));
#313=DIRECTION('',(0.0,0.0,1.0));
#314=AXIS2_PLACEMENT_3D('',#311,#312,#313);
#315=CIRCLE('',#314,3.9);
#316=EDGE_CURVE('',#247,#257,#315,.T.);
#317=ORIENTED_EDGE('',*,*,#316,.T.);
#318=EDGE_LOOP('',(#295,#304,#310,#317));
#319=FACE_OUTER_BOUND('',#318,.T.);
#320=ADVANCED_FACE('',(#319),#287,.T.);
#321=CARTESIAN_POINT('',(-15.279999999999994,-7.771561E-016,5.049999999999997));
#322=DIRECTION('',(1.0,-2.220446E-016,0.0));
#323=DIRECTION('',(0.0,1.0,0.0));
#324=AXIS2_PLACEMENT_3D('',#321,#322,#323);
#325=CYLINDRICAL_SURFACE('',#324,2.75);
#326=CARTESIAN_POINT('',(-16.159999999999997,2.75,5.049999999999997));
#327=VERTEX_POINT('',#326);
#328=CARTESIAN_POINT('',(-14.399999999999991,2.749999999999999,5.049999999999997));
#329=VERTEX_POINT('',#328);
#330=CARTESIAN_POINT('',(-16.159999999999997,2.749999999999999,5.049999999999997));
#331=DIRECTION('',(1.0,0.0,0.0));
#332=VECTOR('',#331,1.760000000000005);
#333=LINE('',#330,#332);
#334=EDGE_CURVE('',#327,#329,#333,.T.);
#335=ORIENTED_EDGE('',*,*,#334,.F.);
#336=CARTESIAN_POINT('',(-16.159999999999997,-2.750000000000001,5.049999999999997));
#337=VERTEX_POINT('',#336);
#338=CARTESIAN_POINT('',(-16.159999999999997,-5.817569E-016,5.049999999999997));
#339=DIRECTION('',(1.0,0.0,0.0));
#340=DIRECTION('',(0.0,1.0,0.0));
#341=AXIS2_PLACEMENT_3D('',#338,#339,#340);
#342=CIRCLE('',#341,2.75);
#343=EDGE_CURVE('',#337,#327,#342,.T.);
#344=ORIENTED_EDGE('',*,*,#343,.F.);
#345=CARTESIAN_POINT('',(-14.399999999999991,-2.750000000000001,5.049999999999997));
#346=VERTEX_POINT('',#345);
#347=CARTESIAN_POINT('',(-16.159999999999997,-2.750000000000001,5.049999999999997));
#348=DIRECTION('',(1.0,0.0,0.0));
#349=VECTOR('',#348,1.760000000000005);
#350=LINE('',#347,#349);
#351=EDGE_CURVE('',#337,#346,#350,.T.);
#352=ORIENTED_EDGE('',*,*,#351,.T.);
#353=CARTESIAN_POINT('',(-14.399999999999991,-9.725554E-016,5.049999999999997));
#354=DIRECTION('',(1.0,0.0,0.0));
#355=DIRECTION('',(0.0,1.0,0.0));
#356=AXIS2_PLACEMENT_3D('',#353,#354,#355);
#357=CIRCLE('',#356,2.75);
#358=EDGE_CURVE('',#346,#329,#357,.T.);
#359=ORIENTED_EDGE('',*,*,#358,.T.);
#360=EDGE_LOOP('',(#335,#344,#352,#359));
#361=FACE_OUTER_BOUND('',#360,.T.);
#362=ADVANCED_FACE('',(#361),#325,.F.);
#363=CARTESIAN_POINT('',(-15.279999999999994,-7.771561E-016,5.049999999999997));
#364=DIRECTION('',(1.0,-2.220446E-016,0.0));
#365=DIRECTION('',(0.0,1.0,0.0));
#366=AXIS2_PLACEMENT_3D('',#363,#364,#365);
#367=CYLINDRICAL_SURFACE('',#366,2.75);
#368=ORIENTED_EDGE('',*,*,#334,.T.);
#369=CARTESIAN_POINT('',(-14.399999999999991,-9.725554E-016,5.049999999999997));
#370=DIRECTION('',(1.0,0.0,0.0));
#371=DIRECTION('',(0.0,1.0,0.0));
#372=AXIS2_PLACEMENT_3D('',#369,#370,#371);
#373=CIRCLE('',#372,2.75);
#374=EDGE_CURVE('',#329,#346,#373,.T.);
#375=ORIENTED_EDGE('',*,*,#374,.T.);
#376=ORIENTED_EDGE('',*,*,#351,.F.);
#377=CARTESIAN_POINT('',(-16.159999999999997,-5.817569E-016,5.049999999999997));
#378=DIRECTION('',(1.0,0.0,0.0));
#379=DIRECTION('',(0.0,1.0,0.0));
#380=AXIS2_PLACEMENT_3D('',#377,#378,#379);
#381=CIRCLE('',#380,2.75);
#382=EDGE_CURVE('',#327,#337,#381,.T.);
#383=ORIENTED_EDGE('',*,*,#382,.F.);
#384=EDGE_LOOP('',(#368,#375,#376,#383));
#385=FACE_OUTER_BOUND('',#384,.T.);
#386=ADVANCED_FACE('',(#385),#367,.F.);
#387=CARTESIAN_POINT('',(-14.399999999999991,-9.725554E-016,5.049999999999997));
#388=DIRECTION('',(1.0,0.0,0.0));
#389=DIRECTION('',(0.0,1.0,0.0));
#390=AXIS2_PLACEMENT_3D('',#387,#388,#389);
#391=PLANE('',#390);
#392=ORIENTED_EDGE('',*,*,#374,.F.);
#393=ORIENTED_EDGE('',*,*,#358,.F.);
#394=EDGE_LOOP('',(#392,#393));
#395=FACE_OUTER_BOUND('',#394,.T.);
#396=ADVANCED_FACE('',(#395),#391,.F.);
#397=CARTESIAN_POINT('',(-15.659999999999995,-4.906258E-016,5.049999999999997));
#398=DIRECTION('',(1.0,1.224647E-016,2.220446E-016));
#399=DIRECTION('',(0.0,0.0,1.0));
#400=AXIS2_PLACEMENT_3D('',#397,#398,#399);
#401=CONICAL_SURFACE('',#400,3.65,26.56505117707799);
#402=ORIENTED_EDGE('',*,*,#294,.T.);
#403=ORIENTED_EDGE('',*,*,#263,.T.);
#404=ORIENTED_EDGE('',*,*,#309,.F.);
#405=CARTESIAN_POINT('',(-16.159999999999997,-5.518581E-016,5.049999999999997));
#406=DIRECTION('',(1.0,0.0,0.0));
#407=DIRECTION('',(0.0,0.0,1.0));
#408=AXIS2_PLACEMENT_3D('',#405,#406,#407);
#409=CIRCLE('',#408,3.4);
#410=EDGE_CURVE('',#297,#289,#409,.T.);
#411=ORIENTED_EDGE('',*,*,#410,.T.);
#412=EDGE_LOOP('',(#402,#403,#404,#411));
#413=FACE_OUTER_BOUND('',#412,.T.);
#414=ADVANCED_FACE('',(#413),#401,.T.);
#415=CARTESIAN_POINT('',(-15.279999999999994,-4.440892E-016,5.049999999999997));
#416=DIRECTION('',(-1.0,-1.224647E-016,-2.220446E-016));
#417=DIRECTION('',(0.0,0.0,-1.0));
#418=AXIS2_PLACEMENT_3D('',#415,#416,#417);
#419=CYLINDRICAL_SURFACE('',#418,3.9);
#420=ORIENTED_EDGE('',*,*,#254,.T.);
#421=CARTESIAN_POINT('',(-14.399999999999993,-3.363203E-016,5.049999999999997));
#422=DIRECTION('',(1.0,0.0,0.0));
#423=DIRECTION('',(0.0,0.0,-1.0));
#424=AXIS2_PLACEMENT_3D('',#421,#422,#423);
#425=CIRCLE('',#424,3.9);
#426=EDGE_CURVE('',#266,#249,#425,.T.);
#427=ORIENTED_EDGE('',*,*,#426,.F.);
#428=ORIENTED_EDGE('',*,*,#271,.F.);
#429=ORIENTED_EDGE('',*,*,#316,.F.);
#430=EDGE_LOOP('',(#420,#427,#428,#429));
#431=FACE_OUTER_BOUND('',#430,.T.);
#432=ADVANCED_FACE('',(#431),#419,.T.);
#433=CARTESIAN_POINT('',(-16.159999999999997,-5.518581E-016,5.049999999999997));
#434=DIRECTION('',(-1.0,0.0,0.0));
#435=DIRECTION('',(0.0,0.0,-1.0));
#436=AXIS2_PLACEMENT_3D('',#433,#434,#435);
#437=PLANE('',#436);
#438=ORIENTED_EDGE('',*,*,#410,.F.);
#439=ORIENTED_EDGE('',*,*,#303,.F.);
#440=EDGE_LOOP('',(#438,#439));
#441=FACE_OUTER_BOUND('',#440,.T.);
#442=ORIENTED_EDGE('',*,*,#382,.T.);
#443=ORIENTED_EDGE('',*,*,#343,.T.);
#444=EDGE_LOOP('',(#442,#443));
#445=FACE_BOUND('',#444,.T.);
#446=ADVANCED_FACE('',(#441,#445),#437,.T.);
#447=CARTESIAN_POINT('',(-14.399999999999995,-4.777212E-015,5.049999999999999));
#448=DIRECTION('',(1.0,0.0,0.0));
#449=DIRECTION('',(0.0,0.0,1.0));
#450=AXIS2_PLACEMENT_3D('',#447,#448,#449);
#451=PLANE('',#450);
#452=CARTESIAN_POINT('',(-14.399999999999995,-5.05000000000001,0.0));
#453=VERTEX_POINT('',#452);
#454=CARTESIAN_POINT('',(-14.399999999999995,-5.05000000000001,10.099999999999998));
#455=VERTEX_POINT('',#454);
#456=CARTESIAN_POINT('',(-14.399999999999995,-5.05000000000001,0.0));
#457=DIRECTION('',(0.0,0.0,1.0));
#458=VECTOR('',#457,10.099999999999998);
#459=LINE('',#456,#458);
#460=EDGE_CURVE('',#453,#455,#459,.T.);
#461=ORIENTED_EDGE('',*,*,#460,.T.);
#462=CARTESIAN_POINT('',(-14.399999999999995,5.049999999999999,10.099999999999998));
#463=VERTEX_POINT('',#462);
#464=CARTESIAN_POINT('',(-14.399999999999997,5.05,10.099999999999998));
#465=DIRECTION('',(0.0,-1.0,0.0));
#466=VECTOR('',#465,10.100000000000009);
#467=LINE('',#464,#466);
#468=EDGE_CURVE('',#463,#455,#467,.T.);
#469=ORIENTED_EDGE('',*,*,#468,.F.);
#470=CARTESIAN_POINT('',(-14.399999999999995,5.049999999999999,0.0));
#471=VERTEX_POINT('',#470);
#472=CARTESIAN_POINT('',(-14.399999999999995,5.049999999999999,0.0));
#473=DIRECTION('',(0.0,0.0,1.0));
#474=VECTOR('',#473,10.099999999999998);
#475=LINE('',#472,#474);
#476=EDGE_CURVE('',#471,#463,#475,.T.);
#477=ORIENTED_EDGE('',*,*,#476,.F.);
#478=CARTESIAN_POINT('',(-14.399999999999995,-5.050000000000009,0.0));
#479=DIRECTION('',(0.0,1.0,0.0));
#480=VECTOR('',#479,10.100000000000009);
#481=LINE('',#478,#480);
#482=EDGE_CURVE('',#453,#471,#481,.T.);
#483=ORIENTED_EDGE('',*,*,#482,.F.);
#484=EDGE_LOOP('',(#461,#469,#477,#483));
#485=FACE_OUTER_BOUND('',#484,.T.);
#486=ORIENTED_EDGE('',*,*,#278,.T.);
#487=ORIENTED_EDGE('',*,*,#426,.T.);
#488=EDGE_LOOP('',(#486,#487));
#489=FACE_BOUND('',#488,.T.);
#490=ADVANCED_FACE('',(#485,#489),#451,.F.);
#491=CARTESIAN_POINT('',(-7.559999999999999,-3.051376E-015,-0.5));
#492=DIRECTION('',(0.0,-1.224647E-016,-1.0));
#493=DIRECTION('',(1.0,0.0,0.0));
#494=AXIS2_PLACEMENT_3D('',#491,#492,#493);
#495=CYLINDRICAL_SURFACE('',#494,0.500000000000002);
#496=ORIENTED_EDGE('',*,*,#212,.T.);
#497=CARTESIAN_POINT('',(-7.559999999999999,-3.051376E-015,0.0));
#498=DIRECTION('',(0.0,0.0,1.0));
#499=DIRECTION('',(1.0,0.0,0.0));
#500=AXIS2_PLACEMENT_3D('',#497,#498,#499);
#501=CIRCLE('',#500,0.500000000000002);
#502=EDGE_CURVE('',#224,#207,#501,.T.);
#503=ORIENTED_EDGE('',*,*,#502,.F.);
#504=ORIENTED_EDGE('',*,*,#229,.F.);
#505=CARTESIAN_POINT('',(-7.559999999999998,-3.051376E-015,-1.000000000000001));
#506=DIRECTION('',(0.0,0.0,-1.0));
#507=DIRECTION('',(1.0,0.0,0.0));
#508=AXIS2_PLACEMENT_3D('',#505,#506,#507);
#509=CIRCLE('',#508,0.500000000000002);
#510=EDGE_CURVE('',#205,#215,#509,.T.);
#511=ORIENTED_EDGE('',*,*,#510,.F.);
#512=EDGE_LOOP('',(#496,#503,#504,#511));
#513=FACE_OUTER_BOUND('',#512,.T.);
#514=ADVANCED_FACE('',(#513),#495,.T.);
#515=CARTESIAN_POINT('',(-7.559999999999998,-3.051376E-015,-1.000000000000001));
#516=DIRECTION('',(0.0,0.0,-1.0));
#517=DIRECTION('',(1.0,0.0,0.0));
#518=AXIS2_PLACEMENT_3D('',#515,#516,#517);
#519=PLANE('',#518);
#520=ORIENTED_EDGE('',*,*,#510,.T.);
#521=ORIENTED_EDGE('',*,*,#221,.T.);
#522=EDGE_LOOP('',(#520,#521));
#523=FACE_OUTER_BOUND('',#522,.T.);
#524=ADVANCED_FACE('',(#523),#519,.T.);
#525=CARTESIAN_POINT('',(-7.560000000000002,-4.050000000000004,5.049999999999997));
#526=DIRECTION('',(0.0,-1.0,0.0));
#527=DIRECTION('',(0.0,0.0,-1.0));
#528=AXIS2_PLACEMENT_3D('',#525,#526,#527);
#529=PLANE('',#528);
#530=CARTESIAN_POINT('',(-8.060000000000002,-4.050000000000004,-1.776357E-015));
#531=VERTEX_POINT('',#530);
#532=CARTESIAN_POINT('',(-8.060000000000002,-4.050000000000004,10.099999999999998));
#533=VERTEX_POINT('',#532);
#534=CARTESIAN_POINT('',(-8.060000000000002,-4.050000000000004,-1.776357E-015));
#535=DIRECTION('',(0.0,0.0,1.0));
#536=VECTOR('',#535,10.1);
#537=LINE('',#534,#536);
#538=EDGE_CURVE('',#531,#533,#537,.T.);
#539=ORIENTED_EDGE('',*,*,#538,.F.);
#540=CARTESIAN_POINT('',(-7.060000000000002,-4.050000000000004,-1.776357E-015));
#541=VERTEX_POINT('',#540);
#542=CARTESIAN_POINT('',(-7.060000000000002,-4.050000000000004,0.0));
#543=DIRECTION('',(-1.0,0.0,0.0));
#544=VECTOR('',#543,1.0);
#545=LINE('',#542,#544);
#546=EDGE_CURVE('',#541,#531,#545,.T.);
#547=ORIENTED_EDGE('',*,*,#546,.F.);
#548=CARTESIAN_POINT('',(-7.060000000000002,-4.050000000000004,10.099999999999998));
#549=VERTEX_POINT('',#548);
#550=CARTESIAN_POINT('',(-7.060000000000004,-4.050000000000004,-1.776357E-015));
#551=DIRECTION('',(0.0,0.0,1.0));
#552=VECTOR('',#551,10.1);
#553=LINE('',#550,#552);
#554=EDGE_CURVE('',#541,#549,#553,.T.);
#555=ORIENTED_EDGE('',*,*,#554,.T.);
#556=CARTESIAN_POINT('',(-8.060000000000002,-4.050000000000004,10.099999999999998));
#557=DIRECTION('',(1.0,0.0,0.0));
#558=VECTOR('',#557,1.0);
#559=LINE('',#556,#558);
#560=EDGE_CURVE('',#533,#549,#559,.T.);
#561=ORIENTED_EDGE('',*,*,#560,.F.);
#562=EDGE_LOOP('',(#539,#547,#555,#561));
#563=FACE_OUTER_BOUND('',#562,.T.);
#564=ADVANCED_FACE('',(#563),#529,.T.);
#565=CARTESIAN_POINT('',(-8.060000000000002,-4.550000000000004,5.049999999999998));
#566=DIRECTION('',(1.0,0.0,0.0));
#567=DIRECTION('',(0.0,0.0,1.0));
#568=AXIS2_PLACEMENT_3D('',#565,#566,#567);
#569=PLANE('',#568);
#570=CARTESIAN_POINT('',(-8.060000000000002,-5.050000000000004,-1.776357E-015));
#571=VERTEX_POINT('',#570);
#572=CARTESIAN_POINT('',(-8.060000000000002,-5.050000000000004,10.099999999999998));
#573=VERTEX_POINT('',#572);
#574=CARTESIAN_POINT('',(-8.060000000000002,-5.05000000000001,-2.664535E-015));
#575=DIRECTION('',(0.0,0.0,1.0));
#576=VECTOR('',#575,10.100000000000001);
#577=LINE('',#574,#576);
#578=EDGE_CURVE('',#571,#573,#577,.T.);
#579=ORIENTED_EDGE('',*,*,#578,.F.);
#580=CARTESIAN_POINT('',(-8.060000000000002,-4.050000000000004,0.0));
#581=DIRECTION('',(0.0,-1.0,0.0));
#582=VECTOR('',#581,1.0);
#583=LINE('',#580,#582);
#584=EDGE_CURVE('',#531,#571,#583,.T.);
#585=ORIENTED_EDGE('',*,*,#584,.F.);
#586=ORIENTED_EDGE('',*,*,#538,.T.);
#587=CARTESIAN_POINT('',(-8.060000000000002,-5.050000000000004,10.099999999999998));
#588=DIRECTION('',(0.0,1.0,0.0));
#589=VECTOR('',#588,1.0);
#590=LINE('',#587,#589);
#591=EDGE_CURVE('',#573,#533,#590,.T.);
#592=ORIENTED_EDGE('',*,*,#591,.F.);
#593=EDGE_LOOP('',(#579,#585,#586,#592));
#594=FACE_OUTER_BOUND('',#593,.T.);
#595=ADVANCED_FACE('',(#594),#569,.T.);
#596=CARTESIAN_POINT('',(-7.060000000000004,-4.550000000000004,5.049999999999998));
#597=DIRECTION('',(-1.0,0.0,0.0));
#598=DIRECTION('',(0.0,0.0,-1.0));
#599=AXIS2_PLACEMENT_3D('',#596,#597,#598);
#600=PLANE('',#599);
#601=ORIENTED_EDGE('',*,*,#554,.F.);
#602=CARTESIAN_POINT('',(-7.060000000000002,-5.050000000000004,-1.776357E-015));
#603=VERTEX_POINT('',#602);
#604=CARTESIAN_POINT('',(-7.060000000000002,-5.050000000000004,0.0));
#605=DIRECTION('',(0.0,1.0,0.0));
#606=VECTOR('',#605,1.0);
#607=LINE('',#604,#606);
#608=EDGE_CURVE('',#603,#541,#607,.T.);
#609=ORIENTED_EDGE('',*,*,#608,.F.);
#610=CARTESIAN_POINT('',(-7.060000000000002,-5.050000000000004,10.099999999999998));
#611=VERTEX_POINT('',#610);
#612=CARTESIAN_POINT('',(-7.060000000000004,-5.05000000000001,10.099999999999998));
#613=DIRECTION('',(0.0,0.0,-1.0));
#614=VECTOR('',#613,10.100000000000001);
#615=LINE('',#612,#614);
#616=EDGE_CURVE('',#611,#603,#615,.T.);
#617=ORIENTED_EDGE('',*,*,#616,.F.);
#618=CARTESIAN_POINT('',(-7.060000000000002,-4.050000000000004,10.099999999999998));
#619=DIRECTION('',(0.0,-1.0,0.0));
#620=VECTOR('',#619,1.0);
#621=LINE('',#618,#620);
#622=EDGE_CURVE('',#549,#611,#621,.T.);
#623=ORIENTED_EDGE('',*,*,#622,.F.);
#624=EDGE_LOOP('',(#601,#609,#617,#623));
#625=FACE_OUTER_BOUND('',#624,.T.);
#626=ADVANCED_FACE('',(#625),#600,.T.);
#627=CARTESIAN_POINT('',(-2.480000000000008,-4.050000000000001,5.049999999999996));
#628=DIRECTION('',(0.0,-1.0,0.0));
#629=DIRECTION('',(0.0,0.0,-1.0));
#630=AXIS2_PLACEMENT_3D('',#627,#628,#629);
#631=PLANE('',#630);
#632=CARTESIAN_POINT('',(-2.980000000000009,-4.050000000000001,-4.440892E-015));
#633=VERTEX_POINT('',#632);
#634=CARTESIAN_POINT('',(-2.980000000000008,-4.050000000000001,10.099999999999994));
#635=VERTEX_POINT('',#634);
#636=CARTESIAN_POINT('',(-2.980000000000008,-4.050000000000001,-3.552714E-015));
#637=DIRECTION('',(0.0,0.0,1.0));
#638=VECTOR('',#637,10.1);
#639=LINE('',#636,#638);
#640=EDGE_CURVE('',#633,#635,#639,.T.);
#641=ORIENTED_EDGE('',*,*,#640,.F.);
#642=CARTESIAN_POINT('',(-1.980000000000008,-4.050000000000001,-4.440892E-015));
#643=VERTEX_POINT('',#642);
#644=CARTESIAN_POINT('',(-1.980000000000008,-4.050000000000003,-8.881784E-016));
#645=DIRECTION('',(-1.0,0.0,0.0));
#646=VECTOR('',#645,1.0);
#647=LINE('',#644,#646);
#648=EDGE_CURVE('',#643,#633,#647,.T.);
#649=ORIENTED_EDGE('',*,*,#648,.F.);
#650=CARTESIAN_POINT('',(-1.980000000000008,-4.050000000000001,10.099999999999994));
#651=VERTEX_POINT('',#650);
#652=CARTESIAN_POINT('',(-1.980000000000008,-4.050000000000001,-3.552714E-015));
#653=DIRECTION('',(0.0,0.0,1.0));
#654=VECTOR('',#653,10.1);
#655=LINE('',#652,#654);
#656=EDGE_CURVE('',#643,#651,#655,.T.);
#657=ORIENTED_EDGE('',*,*,#656,.T.);
#658=CARTESIAN_POINT('',(-2.980000000000008,-4.050000000000003,10.099999999999998));
#659=DIRECTION('',(1.0,0.0,0.0));
#660=VECTOR('',#659,1.0);
#661=LINE('',#658,#660);
#662=EDGE_CURVE('',#635,#651,#661,.T.);
#663=ORIENTED_EDGE('',*,*,#662,.F.);
#664=EDGE_LOOP('',(#641,#649,#657,#663));
#665=FACE_OUTER_BOUND('',#664,.T.);
#666=ADVANCED_FACE('',(#665),#631,.T.);
#667=CARTESIAN_POINT('',(-2.980000000000008,-4.550000000000001,5.049999999999996));
#668=DIRECTION('',(1.0,0.0,0.0));
#669=DIRECTION('',(0.0,0.0,1.0));
#670=AXIS2_PLACEMENT_3D('',#667,#668,#669);
#671=PLANE('',#670);
#672=CARTESIAN_POINT('',(-2.980000000000009,-5.050000000000001,-4.440892E-015));
#673=VERTEX_POINT('',#672);
#674=CARTESIAN_POINT('',(-2.980000000000008,-5.050000000000001,10.099999999999994));
#675=VERTEX_POINT('',#674);
#676=CARTESIAN_POINT('',(-2.980000000000008,-5.050000000000008,-3.552714E-015));
#677=DIRECTION('',(0.0,0.0,1.0));
#678=VECTOR('',#677,10.1);
#679=LINE('',#676,#678);
#680=EDGE_CURVE('',#673,#675,#679,.T.);
#681=ORIENTED_EDGE('',*,*,#680,.F.);
#682=CARTESIAN_POINT('',(-2.980000000000009,-4.050000000000003,-8.881784E-016));
#683=DIRECTION('',(0.0,-1.0,0.0));
#684=VECTOR('',#683,1.0);
#685=LINE('',#682,#684);
#686=EDGE_CURVE('',#633,#673,#685,.T.);
#687=ORIENTED_EDGE('',*,*,#686,.F.);
#688=ORIENTED_EDGE('',*,*,#640,.T.);
#689=CARTESIAN_POINT('',(-2.980000000000008,-5.050000000000003,10.099999999999998));
#690=DIRECTION('',(0.0,1.0,0.0));
#691=VECTOR('',#690,1.0);
#692=LINE('',#689,#691);
#693=EDGE_CURVE('',#675,#635,#692,.T.);
#694=ORIENTED_EDGE('',*,*,#693,.F.);
#695=EDGE_LOOP('',(#681,#687,#688,#694));
#696=FACE_OUTER_BOUND('',#695,.T.);
#697=ADVANCED_FACE('',(#696),#671,.T.);
#698=CARTESIAN_POINT('',(-1.980000000000008,-4.550000000000001,5.049999999999996));
#699=DIRECTION('',(-1.0,0.0,0.0));
#700=DIRECTION('',(0.0,0.0,-1.0));
#701=AXIS2_PLACEMENT_3D('',#698,#699,#700);
#702=PLANE('',#701);
#703=ORIENTED_EDGE('',*,*,#656,.F.);
#704=CARTESIAN_POINT('',(-1.980000000000008,-5.050000000000001,-4.440892E-015));
#705=VERTEX_POINT('',#704);
#706=CARTESIAN_POINT('',(-1.980000000000008,-5.050000000000003,-8.881784E-016));
#707=DIRECTION('',(0.0,1.0,0.0));
#708=VECTOR('',#707,1.0);
#709=LINE('',#706,#708);
#710=EDGE_CURVE('',#705,#643,#709,.T.);
#711=ORIENTED_EDGE('',*,*,#710,.F.);
#712=CARTESIAN_POINT('',(-1.980000000000008,-5.050000000000001,10.099999999999994));
#713=VERTEX_POINT('',#712);
#714=CARTESIAN_POINT('',(-1.980000000000008,-5.050000000000008,10.099999999999996));
#715=DIRECTION('',(0.0,0.0,-1.0));
#716=VECTOR('',#715,10.1);
#717=LINE('',#714,#716);
#718=EDGE_CURVE('',#713,#705,#717,.T.);
#719=ORIENTED_EDGE('',*,*,#718,.F.);
#720=CARTESIAN_POINT('',(-1.980000000000008,-4.050000000000003,10.099999999999998));
#721=DIRECTION('',(0.0,-1.0,0.0));
#722=VECTOR('',#721,1.0);
#723=LINE('',#720,#722);
#724=EDGE_CURVE('',#651,#713,#723,.T.);
#725=ORIENTED_EDGE('',*,*,#724,.F.);
#726=EDGE_LOOP('',(#703,#711,#719,#725));
#727=FACE_OUTER_BOUND('',#726,.T.);
#728=ADVANCED_FACE('',(#727),#702,.T.);
#729=CARTESIAN_POINT('',(-6.899999999999993,-5.05000000000001,5.049999999999999));
#730=DIRECTION('',(0.0,1.0,0.0));
#731=DIRECTION('',(0.0,0.0,1.0));
#732=AXIS2_PLACEMENT_3D('',#729,#730,#731);
#733=PLANE('',#732);
#734=ORIENTED_EDGE('',*,*,#578,.T.);
#735=CARTESIAN_POINT('',(-14.399999999999995,-5.05000000000001,10.099999999999998));
#736=DIRECTION('',(1.0,0.0,0.0));
#737=VECTOR('',#736,6.339999999999993);
#738=LINE('',#735,#737);
#739=EDGE_CURVE('',#455,#573,#738,.T.);
#740=ORIENTED_EDGE('',*,*,#739,.F.);
#741=ORIENTED_EDGE('',*,*,#460,.F.);
#742=CARTESIAN_POINT('',(-8.060000000000002,-5.05000000000001,0.0));
#743=DIRECTION('',(-1.0,0.0,0.0));
#744=VECTOR('',#743,6.339999999999993);
#745=LINE('',#742,#744);
#746=EDGE_CURVE('',#571,#453,#745,.T.);
#747=ORIENTED_EDGE('',*,*,#746,.F.);
#748=EDGE_LOOP('',(#734,#740,#741,#747));
#749=FACE_OUTER_BOUND('',#748,.T.);
#750=ADVANCED_FACE('',(#749),#733,.F.);
#751=CARTESIAN_POINT('',(-6.899999999999993,-5.05000000000001,5.049999999999999));
#752=DIRECTION('',(0.0,1.0,0.0));
#753=DIRECTION('',(0.0,0.0,1.0));
#754=AXIS2_PLACEMENT_3D('',#751,#752,#753);
#755=PLANE('',#754);
#756=ORIENTED_EDGE('',*,*,#718,.T.);
#757=CARTESIAN_POINT('',(0.600000000000012,-5.05000000000001,0.0));
#758=VERTEX_POINT('',#757);
#759=CARTESIAN_POINT('',(0.600000000000012,-5.05000000000001,0.0));
#760=DIRECTION('',(-1.0,0.0,0.0));
#761=VECTOR('',#760,2.58000000000002);
#762=LINE('',#759,#761);
#763=EDGE_CURVE('',#758,#705,#762,.T.);
#764=ORIENTED_EDGE('',*,*,#763,.F.);
#765=CARTESIAN_POINT('',(0.60000000000001,-5.05000000000001,10.099999999999998));
#766=VERTEX_POINT('',#765);
#767=CARTESIAN_POINT('',(0.60000000000001,-5.05000000000001,-8.881784E-016));
#768=DIRECTION('',(0.0,0.0,1.0));
#769=VECTOR('',#768,10.099999999999998);
#770=LINE('',#767,#769);
#771=EDGE_CURVE('',#758,#766,#770,.T.);
#772=ORIENTED_EDGE('',*,*,#771,.T.);
#773=CARTESIAN_POINT('',(-1.980000000000008,-5.05000000000001,10.099999999999998));
#774=DIRECTION('',(1.0,0.0,0.0));
#775=VECTOR('',#774,2.58000000000002);
#776=LINE('',#773,#775);
#777=EDGE_CURVE('',#713,#766,#776,.T.);
#778=ORIENTED_EDGE('',*,*,#777,.F.);
#779=EDGE_LOOP('',(#756,#764,#772,#778));
#780=FACE_OUTER_BOUND('',#779,.T.);
#781=ADVANCED_FACE('',(#780),#755,.F.);
#782=CARTESIAN_POINT('',(-6.899999999999993,-4.746906E-015,10.099999999999998));
#783=DIRECTION('',(0.0,0.0,-1.0));
#784=DIRECTION('',(1.0,0.0,0.0));
#785=AXIS2_PLACEMENT_3D('',#782,#783,#784);
#786=PLANE('',#785);
#787=ORIENTED_EDGE('',*,*,#622,.T.);
#788=CARTESIAN_POINT('',(-7.060000000000002,-5.05000000000001,10.099999999999998));
#789=DIRECTION('',(1.0,0.0,0.0));
#790=VECTOR('',#789,4.079999999999995);
#791=LINE('',#788,#790);
#792=EDGE_CURVE('',#611,#675,#791,.T.);
#793=ORIENTED_EDGE('',*,*,#792,.T.);
#794=ORIENTED_EDGE('',*,*,#693,.T.);
#795=ORIENTED_EDGE('',*,*,#662,.T.);
#796=ORIENTED_EDGE('',*,*,#724,.T.);
#797=ORIENTED_EDGE('',*,*,#777,.T.);
#798=CARTESIAN_POINT('',(0.60000000000001,5.049999999999999,10.099999999999998));
#799=VERTEX_POINT('',#798);
#800=CARTESIAN_POINT('',(0.60000000000001,-5.050000000000009,10.099999999999998));
#801=DIRECTION('',(0.0,1.0,0.0));
#802=VECTOR('',#801,10.100000000000009);
#803=LINE('',#800,#802);
#804=EDGE_CURVE('',#766,#799,#803,.T.);
#805=ORIENTED_EDGE('',*,*,#804,.T.);
#806=CARTESIAN_POINT('',(0.600000000000012,5.049999999999999,10.099999999999998));
#807=DIRECTION('',(-1.0,0.0,0.0));
#808=VECTOR('',#807,15.000000000000007);
#809=LINE('',#806,#808);
#810=EDGE_CURVE('',#799,#463,#809,.T.);
#811=ORIENTED_EDGE('',*,*,#810,.T.);
#812=ORIENTED_EDGE('',*,*,#468,.T.);
#813=ORIENTED_EDGE('',*,*,#739,.T.);
#814=ORIENTED_EDGE('',*,*,#591,.T.);
#815=ORIENTED_EDGE('',*,*,#560,.T.);
#816=EDGE_LOOP('',(#787,#793,#794,#795,#796,#797,#805,#811,#812,#813,#814,#815));
#817=FACE_OUTER_BOUND('',#816,.T.);
#818=ADVANCED_FACE('',(#817),#786,.F.);
#819=CARTESIAN_POINT('',(-6.899999999999992,5.049999999999999,5.049999999999999));
#820=DIRECTION('',(0.0,-1.0,0.0));
#821=DIRECTION('',(0.0,0.0,-1.0));
#822=AXIS2_PLACEMENT_3D('',#819,#820,#821);
#823=PLANE('',#822);
#824=CARTESIAN_POINT('',(-8.060000000000002,5.049999999999999,5.049999999999997));
#825=VERTEX_POINT('',#824);
#826=CARTESIAN_POINT('',(-8.060000000000002,5.049999999999999,0.0));
#827=VERTEX_POINT('',#826);
#828=CARTESIAN_POINT('',(-8.060000000000002,5.049999999999999,5.049999999999997));
#829=DIRECTION('',(0.0,0.0,-1.0));
#830=VECTOR('',#829,5.049999999999997);
#831=LINE('',#828,#830);
#832=EDGE_CURVE('',#825,#827,#831,.T.);
#833=ORIENTED_EDGE('',*,*,#832,.T.);
#834=CARTESIAN_POINT('',(-14.399999999999997,5.049999999999999,0.0));
#835=DIRECTION('',(1.0,0.0,0.0));
#836=VECTOR('',#835,6.339999999999995);
#837=LINE('',#834,#836);
#838=EDGE_CURVE('',#471,#827,#837,.T.);
#839=ORIENTED_EDGE('',*,*,#838,.F.);
#840=ORIENTED_EDGE('',*,*,#476,.T.);
#841=ORIENTED_EDGE('',*,*,#810,.F.);
#842=CARTESIAN_POINT('',(0.600000000000012,5.049999999999999,0.0));
#843=VERTEX_POINT('',#842);
#844=CARTESIAN_POINT('',(0.600000000000012,5.049999999999999,-8.881784E-016));
#845=DIRECTION('',(0.0,0.0,1.0));
#846=VECTOR('',#845,10.099999999999998);
#847=LINE('',#844,#846);
#848=EDGE_CURVE('',#843,#799,#847,.T.);
#849=ORIENTED_EDGE('',*,*,#848,.F.);
#850=CARTESIAN_POINT('',(-7.060000000000002,5.049999999999999,0.0));
#851=VERTEX_POINT('',#850);
#852=CARTESIAN_POINT('',(-7.060000000000003,5.049999999999999,0.0));
#853=DIRECTION('',(1.0,0.0,0.0));
#854=VECTOR('',#853,7.660000000000014);
#855=LINE('',#852,#854);
#856=EDGE_CURVE('',#851,#843,#855,.T.);
#857=ORIENTED_EDGE('',*,*,#856,.F.);
#858=CARTESIAN_POINT('',(-7.060000000000002,5.049999999999999,5.049999999999998));
#859=VERTEX_POINT('',#858);
#860=CARTESIAN_POINT('',(-7.060000000000001,5.049999999999999,-4.440892E-016));
#861=DIRECTION('',(0.0,0.0,1.0));
#862=VECTOR('',#861,5.049999999999997);
#863=LINE('',#860,#862);
#864=EDGE_CURVE('',#851,#859,#863,.T.);
#865=ORIENTED_EDGE('',*,*,#864,.T.);
#866=CARTESIAN_POINT('',(-7.060000000000003,5.049999999999999,5.049999999999997));
#867=DIRECTION('',(-1.0,0.0,0.0));
#868=VECTOR('',#867,0.999999999999999);
#869=LINE('',#866,#868);
#870=EDGE_CURVE('',#859,#825,#869,.T.);
#871=ORIENTED_EDGE('',*,*,#870,.T.);
#872=EDGE_LOOP('',(#833,#839,#840,#841,#849,#857,#865,#871));
#873=FACE_OUTER_BOUND('',#872,.T.);
#874=ADVANCED_FACE('',(#873),#823,.F.);
#875=CARTESIAN_POINT('',(-6.899999999999993,-5.05000000000001,5.049999999999999));
#876=DIRECTION('',(0.0,1.0,0.0));
#877=DIRECTION('',(0.0,0.0,1.0));
#878=AXIS2_PLACEMENT_3D('',#875,#876,#877);
#879=PLANE('',#878);
#880=ORIENTED_EDGE('',*,*,#616,.T.);
#881=CARTESIAN_POINT('',(-2.980000000000008,-5.05000000000001,0.0));
#882=DIRECTION('',(-1.0,0.0,0.0));
#883=VECTOR('',#882,4.079999999999995);
#884=LINE('',#881,#883);
#885=EDGE_CURVE('',#673,#603,#884,.T.);
#886=ORIENTED_EDGE('',*,*,#885,.F.);
#887=ORIENTED_EDGE('',*,*,#680,.T.);
#888=ORIENTED_EDGE('',*,*,#792,.F.);
#889=EDGE_LOOP('',(#880,#886,#887,#888));
#890=FACE_OUTER_BOUND('',#889,.T.);
#891=ADVANCED_FACE('',(#890),#879,.F.);
#892=CARTESIAN_POINT('',(0.600000000000012,-4.716599E-015,5.049999999999998));
#893=DIRECTION('',(-1.0,0.0,0.0));
#894=DIRECTION('',(0.0,0.0,-1.0));
#895=AXIS2_PLACEMENT_3D('',#892,#893,#894);
#896=PLANE('',#895);
#897=ORIENTED_EDGE('',*,*,#848,.T.);
#898=ORIENTED_EDGE('',*,*,#804,.F.);
#899=ORIENTED_EDGE('',*,*,#771,.F.);
#900=CARTESIAN_POINT('',(0.600000000000014,5.05,0.0));
#901=DIRECTION('',(0.0,-1.0,0.0));
#902=VECTOR('',#901,10.100000000000009);
#903=LINE('',#900,#902);
#904=EDGE_CURVE('',#843,#758,#903,.T.);
#905=ORIENTED_EDGE('',*,*,#904,.F.);
#906=EDGE_LOOP('',(#897,#898,#899,#905));
#907=FACE_OUTER_BOUND('',#906,.T.);
#908=ADVANCED_FACE('',(#907),#896,.F.);
#909=CARTESIAN_POINT('',(-7.060000000000003,5.049999999999999,5.049999999999998));
#910=CARTESIAN_POINT('',(-7.060000000000002,5.049999999999999,-8.881784E-016));
#911=CARTESIAN_POINT('',(-7.060000000000003,5.549999999999999,5.049999999999998));
#912=CARTESIAN_POINT('',(-7.060000000000001,5.549999999999999,-8.881784E-016));
#913=B_SPLINE_SURFACE_WITH_KNOTS('',1,1,((#909,#911),(#910,#912)),.UNSPECIFIED.,.F.,.F.,.U.,(2,2),(2,2),(0.0,5.049999999999999),(0.0,0.5),.UNSPECIFIED.);
#914=CARTESIAN_POINT('',(-7.060000000000002,5.549999999999999,0.0));
#915=VERTEX_POINT('',#914);
#916=CARTESIAN_POINT('',(-7.060000000000002,5.549999999999999,0.0));
#917=DIRECTION('',(0.0,-1.0,0.0));
#918=VECTOR('',#917,0.5);
#919=LINE('',#916,#918);
#920=EDGE_CURVE('',#915,#851,#919,.T.);
#921=ORIENTED_EDGE('',*,*,#920,.F.);
#922=CARTESIAN_POINT('',(-7.060000000000002,5.549999999999999,5.049999999999998));
#923=VERTEX_POINT('',#922);
#924=CARTESIAN_POINT('',(-7.060000000000003,5.549999999999999,5.049999999999997));
#925=DIRECTION('',(0.0,0.0,-1.0));
#926=VECTOR('',#925,5.049999999999997);
#927=LINE('',#924,#926);
#928=EDGE_CURVE('',#923,#915,#927,.T.);
#929=ORIENTED_EDGE('',*,*,#928,.F.);
#930=CARTESIAN_POINT('',(-7.060000000000002,5.049999999999999,5.049999999999998));
#931=DIRECTION('',(0.0,1.0,0.0));
#932=VECTOR('',#931,0.5);
#933=LINE('',#930,#932);
#934=EDGE_CURVE('',#859,#923,#933,.T.);
#935=ORIENTED_EDGE('',*,*,#934,.F.);
#936=ORIENTED_EDGE('',*,*,#864,.F.);
#937=EDGE_LOOP('',(#921,#929,#935,#936));
#938=FACE_OUTER_BOUND('',#937,.T.);
#939=ADVANCED_FACE('',(#938),#913,.T.);
#940=CARTESIAN_POINT('',(-8.060000000000002,5.049999999999999,5.049999999999997));
#941=CARTESIAN_POINT('',(-8.060000000000001,5.049999999999999,0.0));
#942=CARTESIAN_POINT('',(-8.060000000000002,5.549999999999999,5.049999999999997));
#943=CARTESIAN_POINT('',(-8.060000000000002,5.549999999999999,0.0));
#944=B_SPLINE_SURFACE_WITH_KNOTS('',1,1,((#940,#942),(#941,#943)),.UNSPECIFIED.,.F.,.F.,.U.,(2,2),(2,2),(0.0,5.049999999999997),(0.0,0.5),.UNSPECIFIED.);
#945=CARTESIAN_POINT('',(-8.060000000000002,5.549999999999999,0.0));
#946=VERTEX_POINT('',#945);
#947=CARTESIAN_POINT('',(-8.060000000000002,5.049999999999999,0.0));
#948=DIRECTION('',(0.0,1.0,0.0));
#949=VECTOR('',#948,0.5);
#950=LINE('',#947,#949);
#951=EDGE_CURVE('',#827,#946,#950,.T.);
#952=ORIENTED_EDGE('',*,*,#951,.F.);
#953=ORIENTED_EDGE('',*,*,#832,.F.);
#954=CARTESIAN_POINT('',(-8.060000000000002,5.549999999999999,5.049999999999997));
#955=VERTEX_POINT('',#954);
#956=CARTESIAN_POINT('',(-8.060000000000002,5.549999999999999,5.049999999999997));
#957=DIRECTION('',(0.0,-1.0,0.0));
#958=VECTOR('',#957,0.5);
#959=LINE('',#956,#958);
#960=EDGE_CURVE('',#955,#825,#959,.T.);
#961=ORIENTED_EDGE('',*,*,#960,.F.);
#962=CARTESIAN_POINT('',(-8.060000000000002,5.549999999999999,-4.440892E-016));
#963=DIRECTION('',(0.0,0.0,1.0));
#964=VECTOR('',#963,5.049999999999997);
#965=LINE('',#962,#964);
#966=EDGE_CURVE('',#946,#955,#965,.T.);
#967=ORIENTED_EDGE('',*,*,#966,.F.);
#968=EDGE_LOOP('',(#952,#953,#961,#967));
#969=FACE_OUTER_BOUND('',#968,.T.);
#970=ADVANCED_FACE('',(#969),#944,.F.);
#971=CARTESIAN_POINT('',(-8.060000000000002,5.549999999999999,-4.440892E-016));
#972=CARTESIAN_POINT('',(-7.060000000000001,5.549999999999999,-2.220446E-016));
#973=CARTESIAN_POINT('',(-8.060000000000004,5.549999999999999,5.049999999999999));
#974=CARTESIAN_POINT('',(-7.060000000000002,5.549999999999999,5.049999999999999));
#975=B_SPLINE_SURFACE_WITH_KNOTS('',1,1,((#971,#973),(#972,#974)),.UNSPECIFIED.,.F.,.F.,.U.,(2,2),(2,2),(0.0,1.000000000000002),(0.0,5.049999999999999),.UNSPECIFIED.);
#976=CARTESIAN_POINT('',(-7.060000000000003,5.549999999999999,5.049999999999997));
#977=DIRECTION('',(-1.0,0.0,0.0));
#978=VECTOR('',#977,0.999999999999999);
#979=LINE('',#976,#978);
#980=EDGE_CURVE('',#923,#955,#979,.T.);
#981=ORIENTED_EDGE('',*,*,#980,.F.);
#982=ORIENTED_EDGE('',*,*,#928,.T.);
#983=CARTESIAN_POINT('',(-7.060000000000002,5.549999999999999,1.110223E-016));
#984=DIRECTION('',(-1.0,0.0,0.0));
#985=VECTOR('',#984,1.0);
#986=LINE('',#983,#985);
#987=EDGE_CURVE('',#915,#946,#986,.T.);
#988=ORIENTED_EDGE('',*,*,#987,.T.);
#989=ORIENTED_EDGE('',*,*,#966,.T.);
#990=EDGE_LOOP('',(#981,#982,#988,#989));
#991=FACE_OUTER_BOUND('',#990,.T.);
#992=ADVANCED_FACE('',(#991),#975,.F.);
#993=CARTESIAN_POINT('',(-7.060000000000002,5.049999999999999,5.049999999999997));
#994=CARTESIAN_POINT('',(-8.060000000000002,5.049999999999999,5.049999999999997));
#995=CARTESIAN_POINT('',(-7.060000000000002,5.549999999999999,5.049999999999997));
#996=CARTESIAN_POINT('',(-8.060000000000002,5.549999999999999,5.049999999999997));
#997=B_SPLINE_SURFACE_WITH_KNOTS('',1,1,((#993,#995),(#994,#996)),.UNSPECIFIED.,.F.,.F.,.U.,(2,2),(2,2),(0.0,1.0),(0.0,0.5),.UNSPECIFIED.);
#998=ORIENTED_EDGE('',*,*,#870,.F.);
#999=ORIENTED_EDGE('',*,*,#934,.T.);
#1000=ORIENTED_EDGE('',*,*,#980,.T.);
#1001=ORIENTED_EDGE('',*,*,#960,.T.);
#1002=EDGE_LOOP('',(#998,#999,#1000,#1001));
#1003=FACE_OUTER_BOUND('',#1002,.T.);
#1004=ADVANCED_FACE('',(#1003),#997,.F.);
#1005=CARTESIAN_POINT('',(-14.399999999999997,-5.05000000000001,-1.518785E-015));
#1006=CARTESIAN_POINT('',(0.600000000000014,-5.05000000000001,1.811884E-015));
#1007=CARTESIAN_POINT('',(-14.399999999999997,5.549999999999999,-1.518785E-015));
#1008=CARTESIAN_POINT('',(0.600000000000014,5.549999999999999,1.811884E-015));
#1009=B_SPLINE_SURFACE_WITH_KNOTS('',1,1,((#1005,#1007),(#1006,#1008)),.UNSPECIFIED.,.F.,.F.,.U.,(2,2),(2,2),(0.0,15.000000000000011),(0.0,10.600000000000009),.UNSPECIFIED.);
#1010=ORIENTED_EDGE('',*,*,#987,.F.);
#1011=ORIENTED_EDGE('',*,*,#920,.T.);
#1012=ORIENTED_EDGE('',*,*,#856,.T.);
#1013=ORIENTED_EDGE('',*,*,#904,.T.);
#1014=ORIENTED_EDGE('',*,*,#763,.T.);
#1015=ORIENTED_EDGE('',*,*,#710,.T.);
#1016=ORIENTED_EDGE('',*,*,#648,.T.);
#1017=ORIENTED_EDGE('',*,*,#686,.T.);
#1018=ORIENTED_EDGE('',*,*,#885,.T.);
#1019=ORIENTED_EDGE('',*,*,#608,.T.);
#1020=ORIENTED_EDGE('',*,*,#546,.T.);
#1021=ORIENTED_EDGE('',*,*,#584,.T.);
#1022=ORIENTED_EDGE('',*,*,#746,.T.);
#1023=ORIENTED_EDGE('',*,*,#482,.T.);
#1024=ORIENTED_EDGE('',*,*,#838,.T.);
#1025=ORIENTED_EDGE('',*,*,#951,.T.);
#1026=EDGE_LOOP('',(#1010,#1011,#1012,#1013,#1014,#1015,#1016,#1017,#1018,#1019,#1020,#1021,#1022,#1023,#1024,#1025));
#1027=FACE_OUTER_BOUND('',#1026,.T.);
#1028=ORIENTED_EDGE('',*,*,#236,.T.);
#1029=ORIENTED_EDGE('',*,*,#502,.T.);
#1030=EDGE_LOOP('',(#1028,#1029));
#1031=FACE_BOUND('',#1030,.T.);
#1032=ADVANCED_FACE('',(#1027,#1031),#1009,.F.);
#1033=CLOSED_SHELL('',(#240,#282,#320,#362,#386,#396,#414,#432,#446,#490,#514,#524,#564,#595,#626,#666,#697,#728,#750,#781,#818,#874,#891,#908,#939,#970,#992,#1004,#1032));
#1034=MANIFOLD_SOLID_BREP('21F',#1033);
#1035=COLOUR_RGB('250',0.33,0.33,0.33);
#1036=SURFACE_STYLE_USAGE(.BOTH.,#1037);
#1037=SURFACE_SIDE_STYLE('NONE',(#1038));
#1038=SURFACE_STYLE_FILL_AREA(#1039);
#1039=FILL_AREA_STYLE('NONE',(#1040));
#1040=FILL_AREA_STYLE_COLOUR('NONE',#1035);
#1041=PRESENTATION_STYLE_ASSIGNMENT((#1036));
#1042=STYLED_ITEM('NONE',(#1041),#1034);
#1043=CARTESIAN_POINT('',(-0.250000000000004,-1.520000000000001,0.0));
#1044=CARTESIAN_POINT('',(0.250000000000004,-1.520000000000001,0.0));
#1045=CARTESIAN_POINT('',(-0.250000000000004,-1.02,0.0));
#1046=CARTESIAN_POINT('',(0.250000000000004,-1.02,0.0));
#1047=B_SPLINE_SURFACE_WITH_KNOTS('',1,1,((#1043,#1045),(#1044,#1046)),.UNSPECIFIED.,.F.,.F.,.U.,(2,2),(2,2),(0.0,0.500000000000007),(0.0,0.500000000000001),.UNSPECIFIED.);
#1048=CARTESIAN_POINT('',(0.250000000000004,-1.02,0.0));
#1049=VERTEX_POINT('',#1048);
#1050=CARTESIAN_POINT('',(0.250000000000004,-1.520000000000001,0.0));
#1051=VERTEX_POINT('',#1050);
#1052=CARTESIAN_POINT('',(0.250000000000004,-1.02,0.0));
#1053=DIRECTION('',(0.0,-1.0,0.0));
#1054=VECTOR('',#1053,0.500000000000001);
#1055=LINE('',#1052,#1054);
#1056=EDGE_CURVE('',#1049,#1051,#1055,.T.);
#1057=ORIENTED_EDGE('',*,*,#1056,.F.);
#1058=CARTESIAN_POINT('',(-0.250000000000004,-1.02,0.0));
#1059=VERTEX_POINT('',#1058);
#1060=CARTESIAN_POINT('',(-0.250000000000004,-1.02,0.0));
#1061=DIRECTION('',(1.0,0.0,0.0));
#1062=VECTOR('',#1061,0.500000000000007);
#1063=LINE('',#1060,#1062);
#1064=EDGE_CURVE('',#1059,#1049,#1063,.T.);
#1065=ORIENTED_EDGE('',*,*,#1064,.F.);
#1066=CARTESIAN_POINT('',(-0.250000000000004,-1.520000000000001,0.0));
#1067=VERTEX_POINT('',#1066);
#1068=CARTESIAN_POINT('',(-0.250000000000004,-1.520000000000001,0.0));
#1069=DIRECTION('',(0.0,1.0,0.0));
#1070=VECTOR('',#1069,0.500000000000001);
#1071=LINE('',#1068,#1070);
#1072=EDGE_CURVE('',#1067,#1059,#1071,.T.);
#1073=ORIENTED_EDGE('',*,*,#1072,.F.);
#1074=CARTESIAN_POINT('',(0.250000000000004,-1.520000000000001,0.0));
#1075=DIRECTION('',(-1.0,0.0,0.0));
#1076=VECTOR('',#1075,0.500000000000007);
#1077=LINE('',#1074,#1076);
#1078=EDGE_CURVE('',#1051,#1067,#1077,.T.);
#1079=ORIENTED_EDGE('',*,*,#1078,.F.);
#1080=EDGE_LOOP('',(#1057,#1065,#1073,#1079));
#1081=FACE_OUTER_BOUND('',#1080,.T.);
#1082=ADVANCED_FACE('',(#1081),#1047,.T.);
#1083=CARTESIAN_POINT('',(-0.250000000000004,-1.520000000000001,-3.2));
#1084=CARTESIAN_POINT('',(0.250000000000004,-1.520000000000001,-3.2));
#1085=CARTESIAN_POINT('',(-0.250000000000004,-1.02,-3.2));
#1086=CARTESIAN_POINT('',(0.250000000000004,-1.02,-3.2));
#1087=B_SPLINE_SURFACE_WITH_KNOTS('',1,1,((#1083,#1085),(#1084,#1086)),.UNSPECIFIED.,.F.,.F.,.U.,(2,2),(2,2),(0.0,0.500000000000007),(0.0,0.500000000000001),.UNSPECIFIED.);
#1088=CARTESIAN_POINT('',(0.250000000000004,-1.520000000000001,-3.2));
#1089=VERTEX_POINT('',#1088);
#1090=CARTESIAN_POINT('',(0.250000000000004,-1.02,-3.2));
#1091=VERTEX_POINT('',#1090);
#1092=CARTESIAN_POINT('',(0.250000000000004,-1.520000000000001,-3.2));
#1093=DIRECTION('',(0.0,1.0,0.0));
#1094=VECTOR('',#1093,0.500000000000001);
#1095=LINE('',#1092,#1094);
#1096=EDGE_CURVE('',#1089,#1091,#1095,.T.);
#1097=ORIENTED_EDGE('',*,*,#1096,.F.);
#1098=CARTESIAN_POINT('',(-0.250000000000004,-1.520000000000001,-3.2));
#1099=VERTEX_POINT('',#1098);
#1100=CARTESIAN_POINT('',(-0.250000000000004,-1.520000000000001,-3.2));
#1101=DIRECTION('',(1.0,0.0,0.0));
#1102=VECTOR('',#1101,0.500000000000007);
#1103=LINE('',#1100,#1102);
#1104=EDGE_CURVE('',#1099,#1089,#1103,.T.);
#1105=ORIENTED_EDGE('',*,*,#1104,.F.);
#1106=CARTESIAN_POINT('',(-0.250000000000004,-1.02,-3.2));
#1107=VERTEX_POINT('',#1106);
#1108=CARTESIAN_POINT('',(-0.250000000000004,-1.02,-3.2));
#1109=DIRECTION('',(0.0,-1.0,0.0));
#1110=VECTOR('',#1109,0.500000000000001);
#1111=LINE('',#1108,#1110);
#1112=EDGE_CURVE('',#1107,#1099,#1111,.T.);
#1113=ORIENTED_EDGE('',*,*,#1112,.F.);
#1114=CARTESIAN_POINT('',(0.250000000000004,-1.02,-3.2));
#1115=DIRECTION('',(-1.0,0.0,0.0));
#1116=VECTOR('',#1115,0.500000000000007);
#1117=LINE('',#1114,#1116);
#1118=EDGE_CURVE('',#1091,#1107,#1117,.T.);
#1119=ORIENTED_EDGE('',*,*,#1118,.F.);
#1120=EDGE_LOOP('',(#1097,#1105,#1113,#1119));
#1121=FACE_OUTER_BOUND('',#1120,.T.);
#1122=ADVANCED_FACE('',(#1121),#1087,.F.);
#1123=CARTESIAN_POINT('',(0.250000000000004,-1.02,-3.2));
#1124=CARTESIAN_POINT('',(0.250000000000004,-1.02,0.0));
#1125=CARTESIAN_POINT('',(-0.250000000000004,-1.02,-3.2));
#1126=CARTESIAN_POINT('',(-0.250000000000004,-1.02,0.0));
#1127=B_SPLINE_SURFACE_WITH_KNOTS('',1,1,((#1123,#1125),(#1124,#1126)),.UNSPECIFIED.,.F.,.F.,.U.,(2,2),(2,2),(0.0,3.2),(0.0,0.500000000000007),.UNSPECIFIED.);
#1128=CARTESIAN_POINT('',(-0.250000000000004,-1.02,0.0));
#1129=DIRECTION('',(0.0,0.0,-1.0));
#1130=VECTOR('',#1129,3.2);
#1131=LINE('',#1128,#1130);
#1132=EDGE_CURVE('',#1059,#1107,#1131,.T.);
#1133=ORIENTED_EDGE('',*,*,#1132,.F.);
#1134=ORIENTED_EDGE('',*,*,#1064,.T.);
#1135=CARTESIAN_POINT('',(0.250000000000004,-1.02,0.0));
#1136=DIRECTION('',(0.0,0.0,-1.0));
#1137=VECTOR('',#1136,3.2);
#1138=LINE('',#1135,#1137);
#1139=EDGE_CURVE('',#1049,#1091,#1138,.T.);
#1140=ORIENTED_EDGE('',*,*,#1139,.T.);
#1141=ORIENTED_EDGE('',*,*,#1118,.T.);
#1142=EDGE_LOOP('',(#1133,#1134,#1140,#1141));
#1143=FACE_OUTER_BOUND('',#1142,.T.);
#1144=ADVANCED_FACE('',(#1143),#1127,.F.);
#1145=CARTESIAN_POINT('',(-0.250000000000004,-1.520000000000001,0.0));
#1146=CARTESIAN_POINT('',(-0.250000000000004,-1.520000000000001,-3.2));
#1147=CARTESIAN_POINT('',(-0.250000000000004,-1.02,0.0));
#1148=CARTESIAN_POINT('',(-0.250000000000004,-1.02,-3.2));
#1149=B_SPLINE_SURFACE_WITH_KNOTS('',1,1,((#1145,#1147),(#1146,#1148)),.UNSPECIFIED.,.F.,.F.,.U.,(2,2),(2,2),(0.0,3.2),(0.0,0.500000000000001),.UNSPECIFIED.);
#1150=CARTESIAN_POINT('',(-0.250000000000004,-1.520000000000001,0.0));
#1151=DIRECTION('',(0.0,0.0,-1.0));
#1152=VECTOR('',#1151,3.2);
#1153=LINE('',#1150,#1152);
#1154=EDGE_CURVE('',#1067,#1099,#1153,.T.);
#1155=ORIENTED_EDGE('',*,*,#1154,.F.);
#1156=ORIENTED_EDGE('',*,*,#1072,.T.);
#1157=ORIENTED_EDGE('',*,*,#1132,.T.);
#1158=ORIENTED_EDGE('',*,*,#1112,.T.);
#1159=EDGE_LOOP('',(#1155,#1156,#1157,#1158));
#1160=FACE_OUTER_BOUND('',#1159,.T.);
#1161=ADVANCED_FACE('',(#1160),#1149,.F.);
#1162=CARTESIAN_POINT('',(0.250000000000004,-1.520000000000001,0.0));
#1163=CARTESIAN_POINT('',(0.250000000000004,-1.520000000000001,-3.2));
#1164=CARTESIAN_POINT('',(-0.250000000000004,-1.520000000000001,0.0));
#1165=CARTESIAN_POINT('',(-0.250000000000004,-1.520000000000001,-3.2));
#1166=B_SPLINE_SURFACE_WITH_KNOTS('',1,1,((#1162,#1164),(#1163,#1165)),.UNSPECIFIED.,.F.,.F.,.U.,(2,2),(2,2),(0.0,3.2),(0.0,0.500000000000007),.UNSPECIFIED.);
#1167=CARTESIAN_POINT('',(0.250000000000004,-1.520000000000001,0.0));
#1168=DIRECTION('',(0.0,0.0,-1.0));
#1169=VECTOR('',#1168,3.2);
#1170=LINE('',#1167,#1169);
#1171=EDGE_CURVE('',#1051,#1089,#1170,.T.);
#1172=ORIENTED_EDGE('',*,*,#1171,.F.);
#1173=ORIENTED_EDGE('',*,*,#1078,.T.);
#1174=ORIENTED_EDGE('',*,*,#1154,.T.);
#1175=ORIENTED_EDGE('',*,*,#1104,.T.);
#1176=EDGE_LOOP('',(#1172,#1173,#1174,#1175));
#1177=FACE_OUTER_BOUND('',#1176,.T.);
#1178=ADVANCED_FACE('',(#1177),#1166,.F.);
#1179=CARTESIAN_POINT('',(0.250000000000004,-1.520000000000001,-3.2));
#1180=CARTESIAN_POINT('',(0.250000000000004,-1.520000000000001,0.0));
#1181=CARTESIAN_POINT('',(0.250000000000004,-1.02,-3.2));
#1182=CARTESIAN_POINT('',(0.250000000000004,-1.02,0.0));
#1183=B_SPLINE_SURFACE_WITH_KNOTS('',1,1,((#1179,#1181),(#1180,#1182)),.UNSPECIFIED.,.F.,.F.,.U.,(2,2),(2,2),(0.0,3.2),(0.0,0.500000000000001),.UNSPECIFIED.);
#1184=ORIENTED_EDGE('',*,*,#1139,.F.);
#1185=ORIENTED_EDGE('',*,*,#1056,.T.);
#1186=ORIENTED_EDGE('',*,*,#1171,.T.);
#1187=ORIENTED_EDGE('',*,*,#1096,.T.);
#1188=EDGE_LOOP('',(#1184,#1185,#1186,#1187));
#1189=FACE_OUTER_BOUND('',#1188,.T.);
#1190=ADVANCED_FACE('',(#1189),#1183,.F.);
#1191=CLOSED_SHELL('',(#1082,#1122,#1144,#1161,#1178,#1190));
#1192=MANIFOLD_SOLID_BREP('20A',#1191);
#1193=COLOUR_RGB('254',0.866,0.866,0.866);
#1194=SURFACE_STYLE_USAGE(.BOTH.,#1195);
#1195=SURFACE_SIDE_STYLE('NONE',(#1196));
#1196=SURFACE_STYLE_FILL_AREA(#1197);
#1197=FILL_AREA_STYLE('NONE',(#1198));
#1198=FILL_AREA_STYLE_COLOUR('NONE',#1193);
#1199=PRESENTATION_STYLE_ASSIGNMENT((#1194));
#1200=STYLED_ITEM('NONE',(#1199),#1192);
#1201=CARTESIAN_POINT('',(-0.250000000000004,1.02,0.0));
#1202=CARTESIAN_POINT('',(0.250000000000004,1.02,0.0));
#1203=CARTESIAN_POINT('',(-0.250000000000004,1.520000000000001,0.0));
#1204=CARTESIAN_POINT('',(0.250000000000004,1.520000000000001,0.0));
#1205=B_SPLINE_SURFACE_WITH_KNOTS('',1,1,((#1201,#1203),(#1202,#1204)),.UNSPECIFIED.,.F.,.F.,.U.,(2,2),(2,2),(0.0,0.500000000000007),(0.0,0.500000000000001),.UNSPECIFIED.);
#1206=CARTESIAN_POINT('',(0.250000000000004,1.520000000000001,0.0));
#1207=VERTEX_POINT('',#1206);
#1208=CARTESIAN_POINT('',(0.250000000000004,1.02,0.0));
#1209=VERTEX_POINT('',#1208);
#1210=CARTESIAN_POINT('',(0.250000000000004,1.520000000000001,0.0));
#1211=DIRECTION('',(0.0,-1.0,0.0));
#1212=VECTOR('',#1211,0.500000000000001);
#1213=LINE('',#1210,#1212);
#1214=EDGE_CURVE('',#1207,#1209,#1213,.T.);
#1215=ORIENTED_EDGE('',*,*,#1214,.F.);
#1216=CARTESIAN_POINT('',(-0.250000000000004,1.520000000000001,0.0));
#1217=VERTEX_POINT('',#1216);
#1218=CARTESIAN_POINT('',(-0.250000000000004,1.520000000000001,0.0));
#1219=DIRECTION('',(1.0,0.0,0.0));
#1220=VECTOR('',#1219,0.500000000000007);
#1221=LINE('',#1218,#1220);
#1222=EDGE_CURVE('',#1217,#1207,#1221,.T.);
#1223=ORIENTED_EDGE('',*,*,#1222,.F.);
#1224=CARTESIAN_POINT('',(-0.250000000000004,1.02,0.0));
#1225=VERTEX_POINT('',#1224);
#1226=CARTESIAN_POINT('',(-0.250000000000004,1.02,0.0));
#1227=DIRECTION('',(0.0,1.0,0.0));
#1228=VECTOR('',#1227,0.500000000000001);
#1229=LINE('',#1226,#1228);
#1230=EDGE_CURVE('',#1225,#1217,#1229,.T.);
#1231=ORIENTED_EDGE('',*,*,#1230,.F.);
#1232=CARTESIAN_POINT('',(0.250000000000004,1.02,0.0));
#1233=DIRECTION('',(-1.0,0.0,0.0));
#1234=VECTOR('',#1233,0.500000000000007);
#1235=LINE('',#1232,#1234);
#1236=EDGE_CURVE('',#1209,#1225,#1235,.T.);
#1237=ORIENTED_EDGE('',*,*,#1236,.F.);
#1238=EDGE_LOOP('',(#1215,#1223,#1231,#1237));
#1239=FACE_OUTER_BOUND('',#1238,.T.);
#1240=ADVANCED_FACE('',(#1239),#1205,.T.);
#1241=CARTESIAN_POINT('',(-0.250000000000004,1.02,-3.2));
#1242=CARTESIAN_POINT('',(0.250000000000004,1.02,-3.2));
#1243=CARTESIAN_POINT('',(-0.250000000000004,1.520000000000001,-3.2));
#1244=CARTESIAN_POINT('',(0.250000000000004,1.520000000000001,-3.2));
#1245=B_SPLINE_SURFACE_WITH_KNOTS('',1,1,((#1241,#1243),(#1242,#1244)),.UNSPECIFIED.,.F.,.F.,.U.,(2,2),(2,2),(0.0,0.500000000000007),(0.0,0.500000000000001),.UNSPECIFIED.);
#1246=CARTESIAN_POINT('',(0.250000000000004,1.02,-3.2));
#1247=VERTEX_POINT('',#1246);
#1248=CARTESIAN_POINT('',(0.250000000000004,1.520000000000001,-3.2));
#1249=VERTEX_POINT('',#1248);
#1250=CARTESIAN_POINT('',(0.250000000000004,1.02,-3.2));
#1251=DIRECTION('',(0.0,1.0,0.0));
#1252=VECTOR('',#1251,0.500000000000001);
#1253=LINE('',#1250,#1252);
#1254=EDGE_CURVE('',#1247,#1249,#1253,.T.);
#1255=ORIENTED_EDGE('',*,*,#1254,.F.);
#1256=CARTESIAN_POINT('',(-0.250000000000004,1.02,-3.2));
#1257=VERTEX_POINT('',#1256);
#1258=CARTESIAN_POINT('',(-0.250000000000004,1.02,-3.2));
#1259=DIRECTION('',(1.0,0.0,0.0));
#1260=VECTOR('',#1259,0.500000000000007);
#1261=LINE('',#1258,#1260);
#1262=EDGE_CURVE('',#1257,#1247,#1261,.T.);
#1263=ORIENTED_EDGE('',*,*,#1262,.F.);
#1264=CARTESIAN_POINT('',(-0.250000000000004,1.520000000000001,-3.2));
#1265=VERTEX_POINT('',#1264);
#1266=CARTESIAN_POINT('',(-0.250000000000004,1.520000000000001,-3.2));
#1267=DIRECTION('',(0.0,-1.0,0.0));
#1268=VECTOR('',#1267,0.500000000000001);
#1269=LINE('',#1266,#1268);
#1270=EDGE_CURVE('',#1265,#1257,#1269,.T.);
#1271=ORIENTED_EDGE('',*,*,#1270,.F.);
#1272=CARTESIAN_POINT('',(0.250000000000004,1.520000000000001,-3.2));
#1273=DIRECTION('',(-1.0,0.0,0.0));
#1274=VECTOR('',#1273,0.500000000000007);
#1275=LINE('',#1272,#1274);
#1276=EDGE_CURVE('',#1249,#1265,#1275,.T.);
#1277=ORIENTED_EDGE('',*,*,#1276,.F.);
#1278=EDGE_LOOP('',(#1255,#1263,#1271,#1277));
#1279=FACE_OUTER_BOUND('',#1278,.T.);
#1280=ADVANCED_FACE('',(#1279),#1245,.F.);
#1281=CARTESIAN_POINT('',(0.250000000000004,1.520000000000001,-3.2));
#1282=CARTESIAN_POINT('',(0.250000000000004,1.520000000000001,0.0));
#1283=CARTESIAN_POINT('',(-0.250000000000004,1.520000000000001,-3.2));
#1284=CARTESIAN_POINT('',(-0.250000000000004,1.520000000000001,0.0));
#1285=B_SPLINE_SURFACE_WITH_KNOTS('',1,1,((#1281,#1283),(#1282,#1284)),.UNSPECIFIED.,.F.,.F.,.U.,(2,2),(2,2),(0.0,3.2),(0.0,0.500000000000007),.UNSPECIFIED.);
#1286=CARTESIAN_POINT('',(-0.250000000000004,1.520000000000001,0.0));
#1287=DIRECTION('',(0.0,0.0,-1.0));
#1288=VECTOR('',#1287,3.2);
#1289=LINE('',#1286,#1288);
#1290=EDGE_CURVE('',#1217,#1265,#1289,.T.);
#1291=ORIENTED_EDGE('',*,*,#1290,.F.);
#1292=ORIENTED_EDGE('',*,*,#1222,.T.);
#1293=CARTESIAN_POINT('',(0.250000000000004,1.520000000000001,0.0));
#1294=DIRECTION('',(0.0,0.0,-1.0));
#1295=VECTOR('',#1294,3.2);
#1296=LINE('',#1293,#1295);
#1297=EDGE_CURVE('',#1207,#1249,#1296,.T.);
#1298=ORIENTED_EDGE('',*,*,#1297,.T.);
#1299=ORIENTED_EDGE('',*,*,#1276,.T.);
#1300=EDGE_LOOP('',(#1291,#1292,#1298,#1299));
#1301=FACE_OUTER_BOUND('',#1300,.T.);
#1302=ADVANCED_FACE('',(#1301),#1285,.F.);
#1303=CARTESIAN_POINT('',(-0.250000000000004,1.02,0.0));
#1304=CARTESIAN_POINT('',(-0.250000000000004,1.02,-3.2));
#1305=CARTESIAN_POINT('',(-0.250000000000004,1.520000000000001,0.0));
#1306=CARTESIAN_POINT('',(-0.250000000000004,1.520000000000001,-3.2));
#1307=B_SPLINE_SURFACE_WITH_KNOTS('',1,1,((#1303,#1305),(#1304,#1306)),.UNSPECIFIED.,.F.,.F.,.U.,(2,2),(2,2),(0.0,3.2),(0.0,0.500000000000001),.UNSPECIFIED.);
#1308=CARTESIAN_POINT('',(-0.250000000000004,1.02,0.0));
#1309=DIRECTION('',(0.0,0.0,-1.0));
#1310=VECTOR('',#1309,3.2);
#1311=LINE('',#1308,#1310);
#1312=EDGE_CURVE('',#1225,#1257,#1311,.T.);
#1313=ORIENTED_EDGE('',*,*,#1312,.F.);
#1314=ORIENTED_EDGE('',*,*,#1230,.T.);
#1315=ORIENTED_EDGE('',*,*,#1290,.T.);
#1316=ORIENTED_EDGE('',*,*,#1270,.T.);
#1317=EDGE_LOOP('',(#1313,#1314,#1315,#1316));
#1318=FACE_OUTER_BOUND('',#1317,.T.);
#1319=ADVANCED_FACE('',(#1318),#1307,.F.);
#1320=CARTESIAN_POINT('',(0.250000000000004,1.02,0.0));
#1321=CARTESIAN_POINT('',(0.250000000000004,1.02,-3.2));
#1322=CARTESIAN_POINT('',(-0.250000000000004,1.02,0.0));
#1323=CARTESIAN_POINT('',(-0.250000000000004,1.02,-3.2));
#1324=B_SPLINE_SURFACE_WITH_KNOTS('',1,1,((#1320,#1322),(#1321,#1323)),.UNSPECIFIED.,.F.,.F.,.U.,(2,2),(2,2),(0.0,3.2),(0.0,0.500000000000007),.UNSPECIFIED.);
#1325=CARTESIAN_POINT('',(0.250000000000004,1.02,0.0));
#1326=DIRECTION('',(0.0,0.0,-1.0));
#1327=VECTOR('',#1326,3.2);
#1328=LINE('',#1325,#1327);
#1329=EDGE_CURVE('',#1209,#1247,#1328,.T.);
#1330=ORIENTED_EDGE('',*,*,#1329,.F.);
#1331=ORIENTED_EDGE('',*,*,#1236,.T.);
#1332=ORIENTED_EDGE('',*,*,#1312,.T.);
#1333=ORIENTED_EDGE('',*,*,#1262,.T.);
#1334=EDGE_LOOP('',(#1330,#1331,#1332,#1333));
#1335=FACE_OUTER_BOUND('',#1334,.T.);
#1336=ADVANCED_FACE('',(#1335),#1324,.F.);
#1337=CARTESIAN_POINT('',(0.250000000000004,1.02,-3.2));
#1338=CARTESIAN_POINT('',(0.250000000000004,1.02,0.0));
#1339=CARTESIAN_POINT('',(0.250000000000004,1.520000000000001,-3.2));
#1340=CARTESIAN_POINT('',(0.250000000000004,1.520000000000001,0.0));
#1341=B_SPLINE_SURFACE_WITH_KNOTS('',1,1,((#1337,#1339),(#1338,#1340)),.UNSPECIFIED.,.F.,.F.,.U.,(2,2),(2,2),(0.0,3.2),(0.0,0.500000000000001),.UNSPECIFIED.);
#1342=ORIENTED_EDGE('',*,*,#1297,.F.);
#1343=ORIENTED_EDGE('',*,*,#1214,.T.);
#1344=ORIENTED_EDGE('',*,*,#1329,.T.);
#1345=ORIENTED_EDGE('',*,*,#1254,.T.);
#1346=EDGE_LOOP('',(#1342,#1343,#1344,#1345));
#1347=FACE_OUTER_BOUND('',#1346,.T.);
#1348=ADVANCED_FACE('',(#1347),#1341,.F.);
#1349=CLOSED_SHELL('',(#1240,#1280,#1302,#1319,#1336,#1348));
#1350=MANIFOLD_SOLID_BREP('204',#1349);
#1351=STYLED_ITEM('NONE',(#1199),#1350);
#1352=ADVANCED_BREP_SHAPE_REPRESENTATION('ABSR1',(#188,#1034,#1192,#1350),#28);
#1353=SHAPE_REPRESENTATION_RELATIONSHIP('SRRPL1','',#1352,#62);
ENDSEC;
END-ISO-10303-21;
