ISO-10303-21;
HEADER;
/* Generated by software containing ST-Developer
 * from STEP Tools, Inc. (www.steptools.com) 
 */

FILE_DESCRIPTION(
/* description */ (''),
/* implementation_level */ '2;1');

FILE_NAME(
/* name */ 
'G:\\Applications\\Altium\\CernLib\\StepLib\\LED_AVAGO_HSMC-C110.stp',
/* time_stamp */ '2016-05-17T17:40:09+02:00',
/* author */ ('riccim'),
/* organization */ ('SolidWorks'),
/* preprocessor_version */ 'ST-DEVELOPER v15.5',
/* originating_system */ 'AutoCAD Mechanical',
/* authorisation */ ' ');

FILE_SCHEMA (('AUTOMOTIVE_DESIGN { 1 0 10303 214 3 1 1 }'));
ENDSEC;

DATA;
#10=MECHANICAL_DESIGN_GEOMETRIC_PRESENTATION_REPRESENTATION('',(#34,#33,
#32),#685);
#11=DIMENSIONAL_EXPONENTS(0.,0.,0.,0.,0.,0.,0.);
#12=(
CONVERSION_BASED_UNIT('degree',#13)
NAMED_UNIT(#11)
PLANE_ANGLE_UNIT()
);
#13=PLANE_ANGLE_MEASURE_WITH_UNIT(PLANE_ANGLE_MEASURE(0.01745329252),#688);
#14=PRESENTATION_LAYER_ASSIGNMENT('3D','',(#415,#416,#417));
#15=CYLINDRICAL_SURFACE($,#428,1.);
#16=CYLINDRICAL_SURFACE($,#438,0.299999999999999);
#17=CYLINDRICAL_SURFACE($,#440,0.3);
#18=CYLINDRICAL_SURFACE($,#442,0.3);
#19=CYLINDRICAL_SURFACE($,#444,0.3);
#20=CIRCLE($,#427,1.);
#21=CIRCLE($,#429,1.);
#22=CIRCLE($,#433,0.3);
#23=CIRCLE($,#434,0.3);
#24=CIRCLE($,#435,0.3);
#25=CIRCLE($,#436,0.3);
#26=CIRCLE($,#439,0.3);
#27=CIRCLE($,#441,0.3);
#28=CIRCLE($,#443,0.3);
#29=CIRCLE($,#445,0.3);
#30=SHAPE_REPRESENTATION_RELATIONSHIP('SRR','None',#691,#31);
#31=ADVANCED_BREP_SHAPE_REPRESENTATION($,(#415,#416,#417),#684);
#32=STYLED_ITEM($,(#701),#415);
#33=STYLED_ITEM($,(#702),#416);
#34=STYLED_ITEM($,(#700),#417);
#35=FACE_OUTER_BOUND($,#59,.T.);
#36=FACE_OUTER_BOUND($,#60,.T.);
#37=FACE_OUTER_BOUND($,#61,.T.);
#38=FACE_OUTER_BOUND($,#62,.T.);
#39=FACE_OUTER_BOUND($,#63,.T.);
#40=FACE_OUTER_BOUND($,#64,.T.);
#41=FACE_OUTER_BOUND($,#65,.T.);
#42=FACE_OUTER_BOUND($,#66,.T.);
#43=FACE_OUTER_BOUND($,#67,.T.);
#44=FACE_OUTER_BOUND($,#68,.T.);
#45=FACE_OUTER_BOUND($,#69,.T.);
#46=FACE_OUTER_BOUND($,#70,.T.);
#47=FACE_OUTER_BOUND($,#71,.T.);
#48=FACE_OUTER_BOUND($,#72,.T.);
#49=FACE_OUTER_BOUND($,#73,.T.);
#50=FACE_OUTER_BOUND($,#74,.T.);
#51=FACE_OUTER_BOUND($,#75,.T.);
#52=FACE_OUTER_BOUND($,#76,.T.);
#53=FACE_OUTER_BOUND($,#77,.T.);
#54=FACE_OUTER_BOUND($,#78,.T.);
#55=FACE_OUTER_BOUND($,#79,.T.);
#56=FACE_OUTER_BOUND($,#80,.T.);
#57=FACE_OUTER_BOUND($,#81,.T.);
#58=FACE_OUTER_BOUND($,#82,.T.);
#59=EDGE_LOOP($,(#261,#262,#263,#264));
#60=EDGE_LOOP($,(#265,#266,#267,#268));
#61=EDGE_LOOP($,(#269,#270,#271,#272));
#62=EDGE_LOOP($,(#273,#274,#275,#276));
#63=EDGE_LOOP($,(#277,#278,#279,#280));
#64=EDGE_LOOP($,(#281,#282,#283,#284));
#65=EDGE_LOOP($,(#285,#286,#287,#288));
#66=EDGE_LOOP($,(#289,#290));
#67=EDGE_LOOP($,(#291,#292,#293,#294));
#68=EDGE_LOOP($,(#295,#296));
#69=EDGE_LOOP($,(#297,#298,#299,#300));
#70=EDGE_LOOP($,(#301,#302,#303,#304,#305,#306,#307,#308));
#71=EDGE_LOOP($,(#309,#310,#311,#312));
#72=EDGE_LOOP($,(#313,#314,#315,#316));
#73=EDGE_LOOP($,(#317,#318,#319,#320));
#74=EDGE_LOOP($,(#321,#322,#323,#324));
#75=EDGE_LOOP($,(#325,#326,#327,#328));
#76=EDGE_LOOP($,(#329,#330,#331,#332,#333,#334));
#77=EDGE_LOOP($,(#335,#336,#337,#338,#339,#340,#341,#342));
#78=EDGE_LOOP($,(#343,#344,#345,#346));
#79=EDGE_LOOP($,(#347,#348,#349,#350));
#80=EDGE_LOOP($,(#351,#352,#353,#354));
#81=EDGE_LOOP($,(#355,#356,#357,#358,#359,#360,#361,#362));
#82=EDGE_LOOP($,(#363,#364,#365,#366,#367,#368));
#83=LINE($,#571,#127);
#84=LINE($,#573,#128);
#85=LINE($,#575,#129);
#86=LINE($,#576,#130);
#87=LINE($,#580,#131);
#88=LINE($,#582,#132);
#89=LINE($,#584,#133);
#90=LINE($,#585,#134);
#91=LINE($,#587,#135);
#92=LINE($,#588,#136);
#93=LINE($,#590,#137);
#94=LINE($,#592,#138);
#95=LINE($,#597,#139);
#96=LINE($,#599,#140);
#97=LINE($,#601,#141);
#98=LINE($,#602,#142);
#99=LINE($,#611,#143);
#100=LINE($,#613,#144);
#101=LINE($,#615,#145);
#102=LINE($,#616,#146);
#103=LINE($,#623,#147);
#104=LINE($,#627,#148);
#105=LINE($,#630,#149);
#106=LINE($,#633,#150);
#107=LINE($,#635,#151);
#108=LINE($,#636,#152);
#109=LINE($,#639,#153);
#110=LINE($,#643,#154);
#111=LINE($,#647,#155);
#112=LINE($,#651,#156);
#113=LINE($,#656,#157);
#114=LINE($,#657,#158);
#115=LINE($,#658,#159);
#116=LINE($,#662,#160);
#117=LINE($,#664,#161);
#118=LINE($,#665,#162);
#119=LINE($,#666,#163);
#120=LINE($,#669,#164);
#121=LINE($,#670,#165);
#122=LINE($,#674,#166);
#123=LINE($,#675,#167);
#124=LINE($,#676,#168);
#125=LINE($,#678,#169);
#126=LINE($,#680,#170);
#127=VECTOR($,#457,0.200000000000001);
#128=VECTOR($,#458,1.);
#129=VECTOR($,#459,0.2);
#130=VECTOR($,#460,1.);
#131=VECTOR($,#463,0.200000000000001);
#132=VECTOR($,#464,1.);
#133=VECTOR($,#465,0.2);
#134=VECTOR($,#466,1.);
#135=VECTOR($,#469,0.035);
#136=VECTOR($,#470,0.035);
#137=VECTOR($,#473,0.035);
#138=VECTOR($,#476,0.035);
#139=VECTOR($,#481,2.);
#140=VECTOR($,#482,1.);
#141=VECTOR($,#483,2.);
#142=VECTOR($,#484,1.);
#143=VECTOR($,#497,0.600000000000001);
#144=VECTOR($,#498,0.400000000000002);
#145=VECTOR($,#499,0.600000000000001);
#146=VECTOR($,#500,0.400000000000002);
#147=VECTOR($,#507,2.7);
#148=VECTOR($,#510,0.400000000000002);
#149=VECTOR($,#513,2.7);
#150=VECTOR($,#516,0.6);
#151=VECTOR($,#517,0.600000000000001);
#152=VECTOR($,#518,0.400000000000002);
#153=VECTOR($,#521,0.600000000000001);
#154=VECTOR($,#526,0.6);
#155=VECTOR($,#531,0.600000000000001);
#156=VECTOR($,#536,0.600000000000001);
#157=VECTOR($,#541,1.);
#158=VECTOR($,#542,2.);
#159=VECTOR($,#543,2.);
#160=VECTOR($,#546,0.035);
#161=VECTOR($,#547,0.2);
#162=VECTOR($,#548,0.035);
#163=VECTOR($,#549,0.5);
#164=VECTOR($,#552,1.);
#165=VECTOR($,#553,0.035);
#166=VECTOR($,#556,0.035);
#167=VECTOR($,#557,1.);
#168=VECTOR($,#558,1.);
#169=VECTOR($,#561,0.200000000000001);
#170=VECTOR($,#564,0.5);
#171=VERTEX_POINT($,#569);
#172=VERTEX_POINT($,#570);
#173=VERTEX_POINT($,#572);
#174=VERTEX_POINT($,#574);
#175=VERTEX_POINT($,#578);
#176=VERTEX_POINT($,#579);
#177=VERTEX_POINT($,#581);
#178=VERTEX_POINT($,#583);
#179=VERTEX_POINT($,#595);
#180=VERTEX_POINT($,#596);
#181=VERTEX_POINT($,#598);
#182=VERTEX_POINT($,#600);
#183=VERTEX_POINT($,#609);
#184=VERTEX_POINT($,#610);
#185=VERTEX_POINT($,#612);
#186=VERTEX_POINT($,#614);
#187=VERTEX_POINT($,#618);
#188=VERTEX_POINT($,#620);
#189=VERTEX_POINT($,#622);
#190=VERTEX_POINT($,#624);
#191=VERTEX_POINT($,#626);
#192=VERTEX_POINT($,#628);
#193=VERTEX_POINT($,#632);
#194=VERTEX_POINT($,#634);
#195=VERTEX_POINT($,#638);
#196=VERTEX_POINT($,#642);
#197=VERTEX_POINT($,#646);
#198=VERTEX_POINT($,#650);
#199=VERTEX_POINT($,#654);
#200=VERTEX_POINT($,#655);
#201=VERTEX_POINT($,#660);
#202=VERTEX_POINT($,#661);
#203=VERTEX_POINT($,#663);
#204=VERTEX_POINT($,#668);
#205=VERTEX_POINT($,#672);
#206=VERTEX_POINT($,#673);
#207=EDGE_CURVE($,#171,#172,#83,.T.);
#208=EDGE_CURVE($,#172,#173,#84,.T.);
#209=EDGE_CURVE($,#173,#174,#85,.T.);
#210=EDGE_CURVE($,#174,#171,#86,.T.);
#211=EDGE_CURVE($,#175,#176,#87,.T.);
#212=EDGE_CURVE($,#176,#177,#88,.T.);
#213=EDGE_CURVE($,#177,#178,#89,.T.);
#214=EDGE_CURVE($,#178,#175,#90,.T.);
#215=EDGE_CURVE($,#174,#177,#91,.T.);
#216=EDGE_CURVE($,#171,#176,#92,.T.);
#217=EDGE_CURVE($,#173,#178,#93,.T.);
#218=EDGE_CURVE($,#172,#175,#94,.T.);
#219=EDGE_CURVE($,#179,#180,#95,.T.);
#220=EDGE_CURVE($,#181,#179,#96,.T.);
#221=EDGE_CURVE($,#182,#181,#97,.T.);
#222=EDGE_CURVE($,#180,#182,#98,.T.);
#223=EDGE_CURVE($,#180,#179,#20,.T.);
#224=EDGE_CURVE($,#181,#182,#21,.T.);
#225=EDGE_CURVE($,#183,#184,#99,.T.);
#226=EDGE_CURVE($,#184,#185,#100,.F.);
#227=EDGE_CURVE($,#186,#185,#101,.T.);
#228=EDGE_CURVE($,#183,#186,#102,.T.);
#229=EDGE_CURVE($,#187,#185,#22,.F.);
#230=EDGE_CURVE($,#184,#188,#23,.F.);
#231=EDGE_CURVE($,#189,#188,#103,.F.);
#232=EDGE_CURVE($,#189,#190,#24,.F.);
#233=EDGE_CURVE($,#190,#191,#104,.T.);
#234=EDGE_CURVE($,#191,#192,#25,.F.);
#235=EDGE_CURVE($,#187,#192,#105,.T.);
#236=EDGE_CURVE($,#193,#191,#106,.T.);
#237=EDGE_CURVE($,#190,#194,#107,.T.);
#238=EDGE_CURVE($,#194,#193,#108,.T.);
#239=EDGE_CURVE($,#192,#195,#109,.T.);
#240=EDGE_CURVE($,#193,#195,#26,.T.);
#241=EDGE_CURVE($,#196,#189,#110,.T.);
#242=EDGE_CURVE($,#196,#194,#27,.T.);
#243=EDGE_CURVE($,#188,#197,#111,.T.);
#244=EDGE_CURVE($,#197,#183,#28,.T.);
#245=EDGE_CURVE($,#198,#187,#112,.T.);
#246=EDGE_CURVE($,#186,#198,#29,.T.);
#247=EDGE_CURVE($,#199,#200,#113,.F.);
#248=EDGE_CURVE($,#197,#200,#114,.T.);
#249=EDGE_CURVE($,#199,#198,#115,.T.);
#250=EDGE_CURVE($,#201,#202,#116,.T.);
#251=EDGE_CURVE($,#202,#203,#117,.T.);
#252=EDGE_CURVE($,#203,#199,#118,.T.);
#253=EDGE_CURVE($,#195,#201,#119,.T.);
#254=EDGE_CURVE($,#203,#204,#120,.T.);
#255=EDGE_CURVE($,#200,#204,#121,.T.);
#256=EDGE_CURVE($,#205,#206,#122,.T.);
#257=EDGE_CURVE($,#205,#202,#123,.T.);
#258=EDGE_CURVE($,#206,#201,#124,.F.);
#259=EDGE_CURVE($,#204,#205,#125,.T.);
#260=EDGE_CURVE($,#206,#196,#126,.T.);
#261=ORIENTED_EDGE($,*,*,#207,.T.);
#262=ORIENTED_EDGE($,*,*,#208,.T.);
#263=ORIENTED_EDGE($,*,*,#209,.T.);
#264=ORIENTED_EDGE($,*,*,#210,.T.);
#265=ORIENTED_EDGE($,*,*,#211,.T.);
#266=ORIENTED_EDGE($,*,*,#212,.T.);
#267=ORIENTED_EDGE($,*,*,#213,.T.);
#268=ORIENTED_EDGE($,*,*,#214,.T.);
#269=ORIENTED_EDGE($,*,*,#215,.T.);
#270=ORIENTED_EDGE($,*,*,#212,.F.);
#271=ORIENTED_EDGE($,*,*,#216,.F.);
#272=ORIENTED_EDGE($,*,*,#210,.F.);
#273=ORIENTED_EDGE($,*,*,#217,.T.);
#274=ORIENTED_EDGE($,*,*,#213,.F.);
#275=ORIENTED_EDGE($,*,*,#215,.F.);
#276=ORIENTED_EDGE($,*,*,#209,.F.);
#277=ORIENTED_EDGE($,*,*,#218,.T.);
#278=ORIENTED_EDGE($,*,*,#214,.F.);
#279=ORIENTED_EDGE($,*,*,#217,.F.);
#280=ORIENTED_EDGE($,*,*,#208,.F.);
#281=ORIENTED_EDGE($,*,*,#216,.T.);
#282=ORIENTED_EDGE($,*,*,#211,.F.);
#283=ORIENTED_EDGE($,*,*,#218,.F.);
#284=ORIENTED_EDGE($,*,*,#207,.F.);
#285=ORIENTED_EDGE($,*,*,#219,.F.);
#286=ORIENTED_EDGE($,*,*,#220,.F.);
#287=ORIENTED_EDGE($,*,*,#221,.F.);
#288=ORIENTED_EDGE($,*,*,#222,.F.);
#289=ORIENTED_EDGE($,*,*,#219,.T.);
#290=ORIENTED_EDGE($,*,*,#223,.T.);
#291=ORIENTED_EDGE($,*,*,#220,.T.);
#292=ORIENTED_EDGE($,*,*,#223,.F.);
#293=ORIENTED_EDGE($,*,*,#222,.T.);
#294=ORIENTED_EDGE($,*,*,#224,.F.);
#295=ORIENTED_EDGE($,*,*,#221,.T.);
#296=ORIENTED_EDGE($,*,*,#224,.T.);
#297=ORIENTED_EDGE($,*,*,#225,.T.);
#298=ORIENTED_EDGE($,*,*,#226,.T.);
#299=ORIENTED_EDGE($,*,*,#227,.F.);
#300=ORIENTED_EDGE($,*,*,#228,.F.);
#301=ORIENTED_EDGE($,*,*,#229,.T.);
#302=ORIENTED_EDGE($,*,*,#226,.F.);
#303=ORIENTED_EDGE($,*,*,#230,.T.);
#304=ORIENTED_EDGE($,*,*,#231,.F.);
#305=ORIENTED_EDGE($,*,*,#232,.T.);
#306=ORIENTED_EDGE($,*,*,#233,.T.);
#307=ORIENTED_EDGE($,*,*,#234,.T.);
#308=ORIENTED_EDGE($,*,*,#235,.F.);
#309=ORIENTED_EDGE($,*,*,#236,.T.);
#310=ORIENTED_EDGE($,*,*,#233,.F.);
#311=ORIENTED_EDGE($,*,*,#237,.T.);
#312=ORIENTED_EDGE($,*,*,#238,.T.);
#313=ORIENTED_EDGE($,*,*,#239,.F.);
#314=ORIENTED_EDGE($,*,*,#234,.F.);
#315=ORIENTED_EDGE($,*,*,#236,.F.);
#316=ORIENTED_EDGE($,*,*,#240,.T.);
#317=ORIENTED_EDGE($,*,*,#237,.F.);
#318=ORIENTED_EDGE($,*,*,#232,.F.);
#319=ORIENTED_EDGE($,*,*,#241,.F.);
#320=ORIENTED_EDGE($,*,*,#242,.T.);
#321=ORIENTED_EDGE($,*,*,#243,.F.);
#322=ORIENTED_EDGE($,*,*,#230,.F.);
#323=ORIENTED_EDGE($,*,*,#225,.F.);
#324=ORIENTED_EDGE($,*,*,#244,.F.);
#325=ORIENTED_EDGE($,*,*,#227,.T.);
#326=ORIENTED_EDGE($,*,*,#229,.F.);
#327=ORIENTED_EDGE($,*,*,#245,.F.);
#328=ORIENTED_EDGE($,*,*,#246,.F.);
#329=ORIENTED_EDGE($,*,*,#247,.T.);
#330=ORIENTED_EDGE($,*,*,#248,.F.);
#331=ORIENTED_EDGE($,*,*,#244,.T.);
#332=ORIENTED_EDGE($,*,*,#228,.T.);
#333=ORIENTED_EDGE($,*,*,#246,.T.);
#334=ORIENTED_EDGE($,*,*,#249,.F.);
#335=ORIENTED_EDGE($,*,*,#250,.T.);
#336=ORIENTED_EDGE($,*,*,#251,.T.);
#337=ORIENTED_EDGE($,*,*,#252,.T.);
#338=ORIENTED_EDGE($,*,*,#249,.T.);
#339=ORIENTED_EDGE($,*,*,#245,.T.);
#340=ORIENTED_EDGE($,*,*,#235,.T.);
#341=ORIENTED_EDGE($,*,*,#239,.T.);
#342=ORIENTED_EDGE($,*,*,#253,.T.);
#343=ORIENTED_EDGE($,*,*,#252,.F.);
#344=ORIENTED_EDGE($,*,*,#254,.T.);
#345=ORIENTED_EDGE($,*,*,#255,.F.);
#346=ORIENTED_EDGE($,*,*,#247,.F.);
#347=ORIENTED_EDGE($,*,*,#256,.F.);
#348=ORIENTED_EDGE($,*,*,#257,.T.);
#349=ORIENTED_EDGE($,*,*,#250,.F.);
#350=ORIENTED_EDGE($,*,*,#258,.F.);
#351=ORIENTED_EDGE($,*,*,#259,.F.);
#352=ORIENTED_EDGE($,*,*,#254,.F.);
#353=ORIENTED_EDGE($,*,*,#251,.F.);
#354=ORIENTED_EDGE($,*,*,#257,.F.);
#355=ORIENTED_EDGE($,*,*,#256,.T.);
#356=ORIENTED_EDGE($,*,*,#260,.T.);
#357=ORIENTED_EDGE($,*,*,#241,.T.);
#358=ORIENTED_EDGE($,*,*,#231,.T.);
#359=ORIENTED_EDGE($,*,*,#243,.T.);
#360=ORIENTED_EDGE($,*,*,#248,.T.);
#361=ORIENTED_EDGE($,*,*,#255,.T.);
#362=ORIENTED_EDGE($,*,*,#259,.T.);
#363=ORIENTED_EDGE($,*,*,#258,.T.);
#364=ORIENTED_EDGE($,*,*,#253,.F.);
#365=ORIENTED_EDGE($,*,*,#240,.F.);
#366=ORIENTED_EDGE($,*,*,#238,.F.);
#367=ORIENTED_EDGE($,*,*,#242,.F.);
#368=ORIENTED_EDGE($,*,*,#260,.F.);
#369=PLANE($,#419);
#370=PLANE($,#420);
#371=PLANE($,#421);
#372=PLANE($,#422);
#373=PLANE($,#423);
#374=PLANE($,#424);
#375=PLANE($,#425);
#376=PLANE($,#426);
#377=PLANE($,#430);
#378=PLANE($,#431);
#379=PLANE($,#432);
#380=PLANE($,#437);
#381=PLANE($,#446);
#382=PLANE($,#447);
#383=PLANE($,#448);
#384=PLANE($,#449);
#385=PLANE($,#450);
#386=PLANE($,#451);
#387=PLANE($,#452);
#388=ADVANCED_FACE($,(#35),#369,.T.);
#389=ADVANCED_FACE($,(#36),#370,.F.);
#390=ADVANCED_FACE($,(#37),#371,.F.);
#391=ADVANCED_FACE($,(#38),#372,.F.);
#392=ADVANCED_FACE($,(#39),#373,.F.);
#393=ADVANCED_FACE($,(#40),#374,.F.);
#394=ADVANCED_FACE($,(#41),#375,.T.);
#395=ADVANCED_FACE($,(#42),#376,.T.);
#396=ADVANCED_FACE($,(#43),#15,.T.);
#397=ADVANCED_FACE($,(#44),#377,.T.);
#398=ADVANCED_FACE($,(#45),#378,.F.);
#399=ADVANCED_FACE($,(#46),#379,.F.);
#400=ADVANCED_FACE($,(#47),#380,.F.);
#401=ADVANCED_FACE($,(#48),#16,.F.);
#402=ADVANCED_FACE($,(#49),#17,.F.);
#403=ADVANCED_FACE($,(#50),#18,.F.);
#404=ADVANCED_FACE($,(#51),#19,.F.);
#405=ADVANCED_FACE($,(#52),#381,.F.);
#406=ADVANCED_FACE($,(#53),#382,.F.);
#407=ADVANCED_FACE($,(#54),#383,.T.);
#408=ADVANCED_FACE($,(#55),#384,.T.);
#409=ADVANCED_FACE($,(#56),#385,.F.);
#410=ADVANCED_FACE($,(#57),#386,.T.);
#411=ADVANCED_FACE($,(#58),#387,.F.);
#412=CLOSED_SHELL($,(#388,#389,#390,#391,#392,#393));
#413=CLOSED_SHELL($,(#394,#395,#396,#397));
#414=CLOSED_SHELL($,(#398,#399,#400,#401,#402,#403,#404,#405,#406,#407,
#408,#409,#410,#411));
#415=MANIFOLD_SOLID_BREP('16D5',#412);
#416=MANIFOLD_SOLID_BREP('16D6',#413);
#417=MANIFOLD_SOLID_BREP('16D7',#414);
#418=AXIS2_PLACEMENT_3D('placement',#567,#453,#454);
#419=AXIS2_PLACEMENT_3D($,#568,#455,#456);
#420=AXIS2_PLACEMENT_3D($,#577,#461,#462);
#421=AXIS2_PLACEMENT_3D($,#586,#467,#468);
#422=AXIS2_PLACEMENT_3D($,#589,#471,#472);
#423=AXIS2_PLACEMENT_3D($,#591,#474,#475);
#424=AXIS2_PLACEMENT_3D($,#593,#477,#478);
#425=AXIS2_PLACEMENT_3D($,#594,#479,#480);
#426=AXIS2_PLACEMENT_3D($,#603,#485,#486);
#427=AXIS2_PLACEMENT_3D($,#604,#487,#488);
#428=AXIS2_PLACEMENT_3D($,#605,#489,#490);
#429=AXIS2_PLACEMENT_3D($,#606,#491,#492);
#430=AXIS2_PLACEMENT_3D($,#607,#493,#494);
#431=AXIS2_PLACEMENT_3D($,#608,#495,#496);
#432=AXIS2_PLACEMENT_3D($,#617,#501,#502);
#433=AXIS2_PLACEMENT_3D($,#619,#503,#504);
#434=AXIS2_PLACEMENT_3D($,#621,#505,#506);
#435=AXIS2_PLACEMENT_3D($,#625,#508,#509);
#436=AXIS2_PLACEMENT_3D($,#629,#511,#512);
#437=AXIS2_PLACEMENT_3D($,#631,#514,#515);
#438=AXIS2_PLACEMENT_3D($,#637,#519,#520);
#439=AXIS2_PLACEMENT_3D($,#640,#522,#523);
#440=AXIS2_PLACEMENT_3D($,#641,#524,#525);
#441=AXIS2_PLACEMENT_3D($,#644,#527,#528);
#442=AXIS2_PLACEMENT_3D($,#645,#529,#530);
#443=AXIS2_PLACEMENT_3D($,#648,#532,#533);
#444=AXIS2_PLACEMENT_3D($,#649,#534,#535);
#445=AXIS2_PLACEMENT_3D($,#652,#537,#538);
#446=AXIS2_PLACEMENT_3D($,#653,#539,#540);
#447=AXIS2_PLACEMENT_3D($,#659,#544,#545);
#448=AXIS2_PLACEMENT_3D($,#667,#550,#551);
#449=AXIS2_PLACEMENT_3D($,#671,#554,#555);
#450=AXIS2_PLACEMENT_3D($,#677,#559,#560);
#451=AXIS2_PLACEMENT_3D($,#679,#562,#563);
#452=AXIS2_PLACEMENT_3D($,#681,#565,#566);
#453=DIRECTION('axis',(0.,0.,1.));
#454=DIRECTION('refdir',(1.,0.,0.));
#455=DIRECTION('center_axis',(0.,-1.,0.));
#456=DIRECTION('ref_axis',(1.11022302462516E-16,0.,-1.));
#457=DIRECTION($,(1.,0.,1.22464679914735E-16));
#458=DIRECTION($,(-1.22464679914735E-16,0.,1.));
#459=DIRECTION($,(-1.,0.,-1.22464679914735E-16));
#460=DIRECTION($,(1.22464679914735E-16,0.,-1.));
#461=DIRECTION('center_axis',(0.,-1.,0.));
#462=DIRECTION('ref_axis',(1.11022302462516E-16,0.,-1.));
#463=DIRECTION($,(-1.,0.,-1.22464679914735E-16));
#464=DIRECTION($,(-1.22464679914735E-16,0.,1.));
#465=DIRECTION($,(1.,0.,1.22464679914735E-16));
#466=DIRECTION($,(1.22464679914735E-16,0.,-1.));
#467=DIRECTION('center_axis',(1.,0.,1.22464679914735E-16));
#468=DIRECTION('ref_axis',(0.,-1.,0.));
#469=DIRECTION($,(0.,1.,0.));
#470=DIRECTION($,(0.,1.,0.));
#471=DIRECTION('center_axis',(1.22464679914735E-16,0.,-1.));
#472=DIRECTION('ref_axis',(0.,1.,0.));
#473=DIRECTION($,(0.,1.,0.));
#474=DIRECTION('center_axis',(-1.,0.,-1.22464679914735E-16));
#475=DIRECTION('ref_axis',(0.,1.,0.));
#476=DIRECTION($,(0.,1.,0.));
#477=DIRECTION('center_axis',(-1.22464679914735E-16,0.,1.));
#478=DIRECTION('ref_axis',(0.,-1.,0.));
#479=DIRECTION('center_axis',(0.,1.,0.));
#480=DIRECTION('ref_axis',(1.22124532708767E-16,0.,-1.));
#481=DIRECTION($,(-1.,0.,-1.22464679914735E-16));
#482=DIRECTION($,(-1.22464679914735E-16,0.,1.));
#483=DIRECTION($,(1.,0.,1.22464679914735E-16));
#484=DIRECTION($,(1.22464679914735E-16,0.,-1.));
#485=DIRECTION('center_axis',(-1.22464679914735E-16,0.,1.));
#486=DIRECTION('ref_axis',(1.,0.,2.22044604925031E-16));
#487=DIRECTION('center_axis',(-1.22464679914735E-16,0.,1.));
#488=DIRECTION('ref_axis',(-1.,0.,-1.22464679914735E-16));
#489=DIRECTION('center_axis',(1.22464679914735E-16,0.,-1.));
#490=DIRECTION('ref_axis',(-1.,0.,-1.22464679914735E-16));
#491=DIRECTION('center_axis',(1.22464679914735E-16,0.,-1.));
#492=DIRECTION('ref_axis',(-1.,0.,-1.22464679914735E-16));
#493=DIRECTION('center_axis',(1.22464679914735E-16,0.,-1.));
#494=DIRECTION('ref_axis',(-1.,0.,-1.22464679914735E-16));
#495=DIRECTION('center_axis',(1.,0.,1.22464679914735E-16));
#496=DIRECTION('ref_axis',(2.22044604925031E-16,0.,-1.));
#497=DIRECTION($,(0.,-1.,0.));
#498=DIRECTION($,(1.22464679914735E-16,0.,-1.));
#499=DIRECTION($,(0.,-1.,0.));
#500=DIRECTION($,(-1.22464679914735E-16,0.,1.));
#501=DIRECTION('center_axis',(0.,1.,0.));
#502=DIRECTION('ref_axis',(1.22464679914735E-16,0.,-1.));
#503=DIRECTION('center_axis',(0.,-1.,0.));
#504=DIRECTION('ref_axis',(1.22464679914735E-16,0.,-1.));
#505=DIRECTION('center_axis',(0.,-1.,0.));
#506=DIRECTION('ref_axis',(-1.22464679914735E-16,0.,1.));
#507=DIRECTION($,(1.,0.,1.22464679914735E-16));
#508=DIRECTION('center_axis',(0.,-1.,0.));
#509=DIRECTION('ref_axis',(-1.22464679914735E-16,0.,1.));
#510=DIRECTION($,(-1.22464679914735E-16,0.,1.));
#511=DIRECTION('center_axis',(0.,-1.,0.));
#512=DIRECTION('ref_axis',(1.22464679914735E-16,0.,-1.));
#513=DIRECTION($,(1.,0.,1.22464679914735E-16));
#514=DIRECTION('center_axis',(-1.,0.,-1.22464679914735E-16));
#515=DIRECTION('ref_axis',(-2.22044604925031E-16,0.,1.));
#516=DIRECTION($,(0.,-1.,0.));
#517=DIRECTION($,(0.,1.,0.));
#518=DIRECTION($,(-1.22464679914735E-16,0.,1.));
#519=DIRECTION('center_axis',(0.,-1.,0.));
#520=DIRECTION('ref_axis',(-1.22464679914735E-16,0.,1.));
#521=DIRECTION($,(0.,1.,0.));
#522=DIRECTION('center_axis',(1.110223E-16,1.,1.110223E-16));
#523=DIRECTION('ref_axis',(-0.707106781186547,1.57009242385854E-16,-0.707106781186548));
#524=DIRECTION('center_axis',(3.445093E-16,1.,1.1868665115215E-31));
#525=DIRECTION('ref_axis',(-1.22464679914735E-16,-7.649643E-32,1.));
#526=DIRECTION($,(0.,-1.,0.));
#527=DIRECTION('center_axis',(1.110223E-16,1.,-1.110223E-16));
#528=DIRECTION('ref_axis',(-0.707106781186547,1.57009242385854E-16,0.707106781186548));
#529=DIRECTION('center_axis',(0.,-1.,0.));
#530=DIRECTION('ref_axis',(1.22464679914735E-16,0.,-1.));
#531=DIRECTION($,(0.,1.,0.));
#532=DIRECTION('center_axis',(-1.110223E-16,-1.,-1.110223E-16));
#533=DIRECTION('ref_axis',(0.707106781186547,-1.57009242385854E-16,0.707106781186548));
#534=DIRECTION('center_axis',(9.957993E-17,1.,3.43291742533818E-32));
#535=DIRECTION('ref_axis',(1.22464679914735E-16,2.213415E-32,-1.));
#536=DIRECTION($,(0.,-1.,0.));
#537=DIRECTION('center_axis',(-1.110223E-16,-1.,1.110223E-16));
#538=DIRECTION('ref_axis',(0.707106781186548,-1.57009242385854E-16,-0.707106781186547));
#539=DIRECTION('center_axis',(0.,-1.,0.));
#540=DIRECTION('ref_axis',(-1.2490009027033E-16,0.,1.));
#541=DIRECTION($,(-1.22464679914735E-16,0.,1.));
#542=DIRECTION($,(1.,0.,1.22464679914735E-16));
#543=DIRECTION($,(-1.,0.,-1.22464679914735E-16));
#544=DIRECTION('center_axis',(1.22464679914735E-16,0.,-1.));
#545=DIRECTION('ref_axis',(-1.,0.,-2.22044604925031E-16));
#546=DIRECTION($,(0.,-1.,0.));
#547=DIRECTION($,(-1.,0.,-1.22464679914735E-16));
#548=DIRECTION($,(0.,1.,0.));
#549=DIRECTION($,(-1.,0.,-1.22464679914735E-16));
#550=DIRECTION('center_axis',(1.,0.,1.22464679914735E-16));
#551=DIRECTION('ref_axis',(0.,-1.,0.));
#552=DIRECTION($,(1.22464679914735E-16,0.,-1.));
#553=DIRECTION($,(0.,-1.,0.));
#554=DIRECTION('center_axis',(-1.,0.,-1.22464679914735E-16));
#555=DIRECTION('ref_axis',(0.,1.,0.));
#556=DIRECTION($,(0.,1.,0.));
#557=DIRECTION($,(-1.22464679914735E-16,0.,1.));
#558=DIRECTION($,(1.22464679914735E-16,0.,-1.));
#559=DIRECTION('center_axis',(0.,-1.,0.));
#560=DIRECTION('ref_axis',(1.11022302462516E-16,0.,-1.));
#561=DIRECTION($,(1.,0.,1.22464679914735E-16));
#562=DIRECTION('center_axis',(1.22464679914735E-16,0.,-1.));
#563=DIRECTION('ref_axis',(-1.,0.,-1.22464679914735E-16));
#564=DIRECTION($,(1.,0.,1.22464679914735E-16));
#565=DIRECTION('center_axis',(0.,-1.,0.));
#566=DIRECTION('ref_axis',(-1.2490009027033E-16,0.,1.));
#567=CARTESIAN_POINT('',(0.,0.,0.));
#568=CARTESIAN_POINT('Origin',(0.75,0.265,0.500000000000002));
#569=CARTESIAN_POINT('',(0.65,0.265,1.99840144432528E-15));
#570=CARTESIAN_POINT('',(0.850000000000001,0.265,1.99840144432528E-15));
#571=CARTESIAN_POINT($,(0.65,0.265,1.99840144432528E-15));
#572=CARTESIAN_POINT('',(0.85,0.265,1.));
#573=CARTESIAN_POINT($,(0.850000000000001,0.265,1.99840144432528E-15));
#574=CARTESIAN_POINT('',(0.65,0.265,1.));
#575=CARTESIAN_POINT($,(0.85,0.265,1.));
#576=CARTESIAN_POINT($,(0.65,0.265,1.));
#577=CARTESIAN_POINT('Origin',(0.75,0.3,0.500000000000002));
#578=CARTESIAN_POINT('',(0.850000000000001,0.3,1.99840144432528E-15));
#579=CARTESIAN_POINT('',(0.65,0.3,1.99840144432528E-15));
#580=CARTESIAN_POINT($,(0.850000000000001,0.3,1.99840144432528E-15));
#581=CARTESIAN_POINT('',(0.65,0.3,1.));
#582=CARTESIAN_POINT($,(0.65,0.3,1.99840144432528E-15));
#583=CARTESIAN_POINT('',(0.85,0.3,1.));
#584=CARTESIAN_POINT($,(0.65,0.3,1.));
#585=CARTESIAN_POINT($,(0.85,0.3,1.));
#586=CARTESIAN_POINT('Origin',(0.65,0.282500000000001,0.500000000000002));
#587=CARTESIAN_POINT($,(0.65,0.265,1.));
#588=CARTESIAN_POINT($,(0.65,0.265,1.99840144432528E-15));
#589=CARTESIAN_POINT('Origin',(0.75,0.2825,1.));
#590=CARTESIAN_POINT($,(0.85,0.265,1.));
#591=CARTESIAN_POINT('Origin',(0.85,0.2825,0.500000000000002));
#592=CARTESIAN_POINT($,(0.850000000000001,0.265,1.99840144432528E-15));
#593=CARTESIAN_POINT('Origin',(0.75,0.2825,1.99840144432528E-15));
#594=CARTESIAN_POINT('Origin',(-1.,-0.3,0.500000000000002));
#595=CARTESIAN_POINT('',(1.,-0.3,1.));
#596=CARTESIAN_POINT('',(-1.,-0.3,1.));
#597=CARTESIAN_POINT($,(1.,-0.3,1.));
#598=CARTESIAN_POINT('',(1.,-0.3,1.99840144432528E-15));
#599=CARTESIAN_POINT($,(1.,-0.3,1.99840144432528E-15));
#600=CARTESIAN_POINT('',(-1.,-0.3,1.77635683940025E-15));
#601=CARTESIAN_POINT($,(-1.,-0.3,1.77635683940025E-15));
#602=CARTESIAN_POINT($,(-1.,-0.3,1.));
#603=CARTESIAN_POINT('Origin',(-1.99161874925031E-16,-0.3,1.));
#604=CARTESIAN_POINT('Origin',(-1.99161874925031E-16,-0.3,1.));
#605=CARTESIAN_POINT('Origin',(-1.37929534967664E-16,-0.3,0.500000000000002));
#606=CARTESIAN_POINT('Origin',(-7.6697195010296E-17,-0.3,1.99840144432528E-15));
#607=CARTESIAN_POINT('Origin',(-7.6697195010296E-17,-0.3,1.99840144432528E-15));
#608=CARTESIAN_POINT('Origin',(-1.65,-0.05,0.500000000000002));
#609=CARTESIAN_POINT('',(-1.65,0.300000000000001,0.300000000000001));
#610=CARTESIAN_POINT('',(-1.65,-0.3,0.300000000000001));
#611=CARTESIAN_POINT($,(-1.65,0.300000000000001,0.300000000000001));
#612=CARTESIAN_POINT('',(-1.65,-0.3,0.700000000000003));
#613=CARTESIAN_POINT($,(-1.65,-0.3,0.700000000000003));
#614=CARTESIAN_POINT('',(-1.65,0.300000000000001,0.700000000000003));
#615=CARTESIAN_POINT($,(-1.65,0.300000000000001,0.700000000000003));
#616=CARTESIAN_POINT($,(-1.65,0.300000000000001,0.300000000000001));
#617=CARTESIAN_POINT('Origin',(-1.60812264967664E-16,-0.3,0.500000000000002));
#618=CARTESIAN_POINT('',(-1.35,-0.3,1.));
#619=CARTESIAN_POINT('Origin',(-1.65,-0.3,1.));
#620=CARTESIAN_POINT('',(-1.35,-0.3,1.77635683940025E-15));
#621=CARTESIAN_POINT('Origin',(-1.65,-0.3,6.66133814775094E-16));
#622=CARTESIAN_POINT('',(1.35,-0.3,1.99840144432528E-15));
#623=CARTESIAN_POINT($,(-1.35,-0.3,1.77635683940025E-15));
#624=CARTESIAN_POINT('',(1.65,-0.300000000000001,0.300000000000002));
#625=CARTESIAN_POINT('Origin',(1.65,-0.300000000000001,2.1094237467878E-15));
#626=CARTESIAN_POINT('',(1.65,-0.3,0.700000000000004));
#627=CARTESIAN_POINT($,(1.65,-0.300000000000001,0.300000000000002));
#628=CARTESIAN_POINT('',(1.35,-0.300000000000001,1.));
#629=CARTESIAN_POINT('Origin',(1.65,-0.300000000000001,1.));
#630=CARTESIAN_POINT($,(-1.35,-0.3,1.));
#631=CARTESIAN_POINT('Origin',(1.65,-0.05,0.500000000000002));
#632=CARTESIAN_POINT('',(1.65,0.3,0.700000000000004));
#633=CARTESIAN_POINT($,(1.65,0.3,0.700000000000004));
#634=CARTESIAN_POINT('',(1.65,0.3,0.300000000000002));
#635=CARTESIAN_POINT($,(1.65,-0.300000000000001,0.300000000000002));
#636=CARTESIAN_POINT($,(1.65,0.3,0.300000000000002));
#637=CARTESIAN_POINT('Origin',(1.65,-4.64905891561784E-16,1.));
#638=CARTESIAN_POINT('',(1.35,0.3,1.));
#639=CARTESIAN_POINT($,(1.35,-0.300000000000001,1.));
#640=CARTESIAN_POINT('Origin',(1.65,0.3,1.));
#641=CARTESIAN_POINT('Origin',(1.65,0.374976204825502,2.1094237467878E-15));
#642=CARTESIAN_POINT('',(1.35,0.3,1.99840144432528E-15));
#643=CARTESIAN_POINT($,(1.35,0.3,1.99840144432528E-15));
#644=CARTESIAN_POINT('Origin',(1.65,0.3,2.1094237467878E-15));
#645=CARTESIAN_POINT('Origin',(-1.65,5.41233724504764E-16,6.66133814775094E-16));
#646=CARTESIAN_POINT('',(-1.35,0.300000000000001,6.66133814775094E-16));
#647=CARTESIAN_POINT($,(-1.35,-0.3,1.77635683940025E-15));
#648=CARTESIAN_POINT('Origin',(-1.65,0.300000000000001,6.66133814775094E-16));
#649=CARTESIAN_POINT('Origin',(-1.65,0.374976204825502,1.));
#650=CARTESIAN_POINT('',(-1.35,0.300000000000001,1.));
#651=CARTESIAN_POINT($,(-1.35,0.300000000000001,1.));
#652=CARTESIAN_POINT('Origin',(-1.65,0.300000000000001,1.));
#653=CARTESIAN_POINT('Origin',(-0.0500000000000002,0.3,0.500000000000002));
#654=CARTESIAN_POINT('',(0.65,0.3,1.));
#655=CARTESIAN_POINT('',(0.65,0.3,1.99840144432528E-15));
#656=CARTESIAN_POINT($,(0.65,0.3,1.99840144432528E-15));
#657=CARTESIAN_POINT($,(-1.35,0.300000000000001,6.66133814775094E-16));
#658=CARTESIAN_POINT($,(0.65,0.3,1.));
#659=CARTESIAN_POINT('Origin',(-2.22044604925031E-16,0.0500000000000001,
1.));
#660=CARTESIAN_POINT('',(0.85,0.3,1.));
#661=CARTESIAN_POINT('',(0.85,0.265,1.));
#662=CARTESIAN_POINT($,(0.85,0.3,1.));
#663=CARTESIAN_POINT('',(0.65,0.265,1.));
#664=CARTESIAN_POINT($,(0.85,0.265,1.));
#665=CARTESIAN_POINT($,(0.65,0.265,1.));
#666=CARTESIAN_POINT($,(1.35,0.3,1.));
#667=CARTESIAN_POINT('Origin',(0.65,0.2825,0.500000000000002));
#668=CARTESIAN_POINT('',(0.65,0.265,1.99840144432528E-15));
#669=CARTESIAN_POINT($,(0.65,0.265,1.));
#670=CARTESIAN_POINT($,(0.65,0.3,1.99840144432528E-15));
#671=CARTESIAN_POINT('Origin',(0.85,0.2825,0.500000000000002));
#672=CARTESIAN_POINT('',(0.850000000000001,0.265,1.99840144432528E-15));
#673=CARTESIAN_POINT('',(0.85,0.3,1.99840144432528E-15));
#674=CARTESIAN_POINT($,(0.850000000000001,0.265,1.99840144432528E-15));
#675=CARTESIAN_POINT($,(0.850000000000001,0.265,1.99840144432528E-15));
#676=CARTESIAN_POINT($,(0.85,0.3,1.));
#677=CARTESIAN_POINT('Origin',(0.75,0.265,0.500000000000002));
#678=CARTESIAN_POINT($,(0.65,0.265,1.99840144432528E-15));
#679=CARTESIAN_POINT('Origin',(-9.9579925010296E-17,0.0500000000000001,
1.99840144432528E-15));
#680=CARTESIAN_POINT($,(0.85,0.3,1.99840144432528E-15));
#681=CARTESIAN_POINT('Origin',(0.0499999999999999,0.3,0.500000000000002));
#682=UNCERTAINTY_MEASURE_WITH_UNIT(LENGTH_MEASURE(0.01),#686,
'DISTANCE_ACCURACY_VALUE',
'Maximum model space distance between geometric entities at asserted c
onnectivities');
#683=UNCERTAINTY_MEASURE_WITH_UNIT(LENGTH_MEASURE(1.E-6),#686,
'DISTANCE_ACCURACY_VALUE',
'Maximum model space distance between geometric entities at asserted c
onnectivities');
#684=(
GEOMETRIC_REPRESENTATION_CONTEXT(3)
GLOBAL_UNCERTAINTY_ASSIGNED_CONTEXT((#682))
GLOBAL_UNIT_ASSIGNED_CONTEXT((#686,#688,#687))
REPRESENTATION_CONTEXT('','3D')
);
#685=(
GEOMETRIC_REPRESENTATION_CONTEXT(3)
GLOBAL_UNCERTAINTY_ASSIGNED_CONTEXT((#683))
GLOBAL_UNIT_ASSIGNED_CONTEXT((#686,#12,#687))
REPRESENTATION_CONTEXT('','3D')
);
#686=(
LENGTH_UNIT()
NAMED_UNIT(*)
SI_UNIT(.MILLI.,.METRE.)
);
#687=(
NAMED_UNIT(*)
SI_UNIT($,.STERADIAN.)
SOLID_ANGLE_UNIT()
);
#688=(
NAMED_UNIT(*)
PLANE_ANGLE_UNIT()
SI_UNIT($,.RADIAN.)
);
#689=SHAPE_DEFINITION_REPRESENTATION(#690,#691);
#690=PRODUCT_DEFINITION_SHAPE('',$,#693);
#691=SHAPE_REPRESENTATION('',(#418),#684);
#692=PRODUCT_DEFINITION_CONTEXT('part definition',#697,'design');
#693=PRODUCT_DEFINITION('Product','Product',#694,#692);
#694=PRODUCT_DEFINITION_FORMATION('',$,#699);
#695=PRODUCT_RELATED_PRODUCT_CATEGORY('Product','Product',(#699));
#696=APPLICATION_PROTOCOL_DEFINITION('international standard',
'automotive_design',2009,#697);
#697=APPLICATION_CONTEXT(
'Core Data for Automotive Mechanical Design Process');
#698=PRODUCT_CONTEXT('part definition',#697,'mechanical');
#699=PRODUCT('Product','Product',$,(#698));
#700=PRESENTATION_STYLE_ASSIGNMENT((#703));
#701=PRESENTATION_STYLE_ASSIGNMENT((#704));
#702=PRESENTATION_STYLE_ASSIGNMENT((#705));
#703=SURFACE_STYLE_USAGE(.BOTH.,#706);
#704=SURFACE_STYLE_USAGE(.BOTH.,#707);
#705=SURFACE_STYLE_USAGE(.BOTH.,#708);
#706=SURFACE_SIDE_STYLE($,(#709));
#707=SURFACE_SIDE_STYLE($,(#710));
#708=SURFACE_SIDE_STYLE($,(#711));
#709=SURFACE_STYLE_FILL_AREA(#712);
#710=SURFACE_STYLE_FILL_AREA(#713);
#711=SURFACE_STYLE_FILL_AREA(#714);
#712=FILL_AREA_STYLE($,(#715));
#713=FILL_AREA_STYLE($,(#716));
#714=FILL_AREA_STYLE($,(#717));
#715=FILL_AREA_STYLE_COLOUR($,#718);
#716=FILL_AREA_STYLE_COLOUR($,#719);
#717=FILL_AREA_STYLE_COLOUR($,#720);
#718=COLOUR_RGB('',1.,1.,1.);
#719=COLOUR_RGB('',0.329411764705882,0.329411764705882,0.329411764705882);
#720=COLOUR_RGB('',1.,0.,0.);
ENDSEC;
END-ISO-10303-21;
