ISO-10303-21;
HEADER;
/****************************************************************
 * Generated by software with PDE/Lib inside                    *
 * PDElib Version v51a, created Thu 12/14/2006                  *
 * International Technegroup Inc. (www.iti-oh.com)              *
 ****************************************************************/
FILE_DESCRIPTION((''),'2;1');
FILE_NAME('MENTOR_1808.7033.stp','2009-01-14T15:10:18',(''),(''),'Mechanical Desktop 2009','Mechanical Desktop 2009',', , ');
FILE_SCHEMA(('AUTOMOTIVE_DESIGN { 1 2 10303 214 1 1 1 1 }'));
ENDSEC;
DATA;
#8=(NAMED_UNIT(*)PLANE_ANGLE_UNIT()SI_UNIT($,.RADIAN.));
#9=DIMENSIONAL_EXPONENTS(0.0,0.0,0.0,0.0,0.0,0.0,0.0);
#10=PLANE_ANGLE_MEASURE_WITH_UNIT(PLANE_ANGLE_MEASURE(0.017453292500000),#8);
#14=(CONVERSION_BASED_UNIT('DEGREE',#10)NAMED_UNIT(#9)PLANE_ANGLE_UNIT());
#18=(NAMED_UNIT(*)SI_UNIT($,.STERADIAN.)SOLID_ANGLE_UNIT());
#22=(LENGTH_UNIT()NAMED_UNIT(*)SI_UNIT(.MILLI.,.METRE.));
#23=UNCERTAINTY_MEASURE_WITH_UNIT(LENGTH_MEASURE(0.000001000000000),#22,'DISTANCE_ACCURACY_VALUE','');
#28=(GEOMETRIC_REPRESENTATION_CONTEXT(3)GLOBAL_UNCERTAINTY_ASSIGNED_CONTEXT((#23))GLOBAL_UNIT_ASSIGNED_CONTEXT((#14,#18,#22))REPRESENTATION_CONTEXT('None','None'));
#29=APPLICATION_CONTEXT('automotive design');
#30=APPLICATION_PROTOCOL_DEFINITION('INTERNATIONAL_STANDARD','automotive_design',1998,#29);
#31=PRODUCT_CONTEXT('3D Mechanical Parts',#29,'mechanical');
#32=PRODUCT('Product','Product','',(#31));
#33=PRODUCT_RELATED_PRODUCT_CATEGORY('part',$,(#32));
#34=PRODUCT_CATEGORY('part',$);
#35=PERSON('1','Design','Joe',$,$,$);
#36=ORGANIZATION($,'None','None');
#37=PERSON_AND_ORGANIZATION(#35,#36);
#38=PERSON_AND_ORGANIZATION_ROLE('design_owner');
#39=APPLIED_PERSON_AND_ORGANIZATION_ASSIGNMENT(#37,#38,(#32));
#40=PRODUCT_DEFINITION_FORMATION_WITH_SPECIFIED_SOURCE('None','',#32,.BOUGHT.);
#41=PERSON('2','Creator','Joe',$,$,$);
#42=ORGANIZATION($,'None','None');
#43=PERSON_AND_ORGANIZATION(#41,#42);
#44=PERSON_AND_ORGANIZATION_ROLE('creator');
#45=APPLIED_PERSON_AND_ORGANIZATION_ASSIGNMENT(#43,#44,(#40));
#46=PERSON('3','Supplier','Joe',$,$,$);
#47=ORGANIZATION($,'None','None');
#48=PERSON_AND_ORGANIZATION(#46,#47);
#49=PERSON_AND_ORGANIZATION_ROLE('design_supplier');
#50=APPLIED_PERSON_AND_ORGANIZATION_ASSIGNMENT(#48,#49,(#40));
#51=PRODUCT_DEFINITION_CONTEXT('part definition',#29,'design');
#52=PRODUCT_DEFINITION('None','',#40,#51);
#53=PERSON('4','Creator','Joe',$,$,$);
#54=ORGANIZATION($,'None','None');
#55=PERSON_AND_ORGANIZATION(#53,#54);
#56=PERSON_AND_ORGANIZATION_ROLE('creator');
#57=APPLIED_PERSON_AND_ORGANIZATION_ASSIGNMENT(#55,#56,(#52));
#58=CARTESIAN_POINT('NONE',(0.0,0.0,0.0));
#59=DIRECTION('NONE',(0.0,0.0,1.0));
#60=DIRECTION('NONE',(1.0,0.0,0.0));
#61=AXIS2_PLACEMENT_3D('NONE',#58,#59,#60);
#62=SHAPE_REPRESENTATION('SR1',(#61),#28);
#63=PRODUCT_DEFINITION_SHAPE('PDS1','Test Part',#52);
#64=SHAPE_DEFINITION_REPRESENTATION(#63,#62);
#65=CARTESIAN_POINT('',(0.0,0.0,0.050000000000000));
#66=DIRECTION('',(0.0,0.0,-1.0));
#67=DIRECTION('',(1.0,0.0,0.0));
#68=AXIS2_PLACEMENT_3D('',#65,#66,#67);
#69=CYLINDRICAL_SURFACE('',#68,0.500000000000000);
#70=CARTESIAN_POINT('',(0.500000000000000,0.0,-1.0));
#71=VERTEX_POINT('',#70);
#72=CARTESIAN_POINT('',(0.500000000000000,0.0,0.0));
#73=VERTEX_POINT('',#72);
#74=CARTESIAN_POINT('',(0.500000000000000,0.0,-1.0));
#75=DIRECTION('',(0.0,0.0,1.0));
#76=VECTOR('',#75,1.0);
#77=LINE('',#74,#76);
#78=EDGE_CURVE('',#71,#73,#77,.T.);
#79=ORIENTED_EDGE('',*,*,#78,.F.);
#80=CARTESIAN_POINT('',(-0.500000000000000,6.123032E-017,-1.0));
#81=VERTEX_POINT('',#80);
#82=CARTESIAN_POINT('',(0.0,0.0,-1.0));
#83=DIRECTION('',(0.0,0.0,1.0));
#84=DIRECTION('',(1.0,0.0,0.0));
#85=AXIS2_PLACEMENT_3D('',#82,#83,#84);
#86=CIRCLE('',#85,0.500000000000000);
#87=EDGE_CURVE('',#71,#81,#86,.T.);
#88=ORIENTED_EDGE('',*,*,#87,.T.);
#89=CARTESIAN_POINT('',(-0.500000000000000,6.123032E-017,0.0));
#90=VERTEX_POINT('',#89);
#91=CARTESIAN_POINT('',(-0.500000000000000,6.123032E-017,-1.0));
#92=DIRECTION('',(0.0,0.0,1.0));
#93=VECTOR('',#92,1.0);
#94=LINE('',#91,#93);
#95=EDGE_CURVE('',#81,#90,#94,.T.);
#96=ORIENTED_EDGE('',*,*,#95,.T.);
#97=CARTESIAN_POINT('',(0.0,0.0,0.0));
#98=DIRECTION('',(0.0,0.0,1.0));
#99=DIRECTION('',(1.0,0.0,0.0));
#100=AXIS2_PLACEMENT_3D('',#97,#98,#99);
#101=CIRCLE('',#100,0.500000000000000);
#102=EDGE_CURVE('',#73,#90,#101,.T.);
#103=ORIENTED_EDGE('',*,*,#102,.F.);
#104=EDGE_LOOP('',(#79,#88,#96,#103));
#105=FACE_OUTER_BOUND('',#104,.T.);
#106=ADVANCED_FACE('',(#105),#69,.T.);
#107=CARTESIAN_POINT('',(-7.345000000000002,-2.747500000000026,0.0));
#108=DIRECTION('',(0.0,0.0,1.0));
#109=DIRECTION('',(1.0,0.0,0.0));
#110=AXIS2_PLACEMENT_3D('',#107,#108,#109);
#111=PLANE('',#110);
#112=CARTESIAN_POINT('',(0.500000000000000,-2.475000000000025,0.0));
#113=VERTEX_POINT('',#112);
#114=CARTESIAN_POINT('',(3.259999999999993,-2.475000000000025,0.0));
#115=VERTEX_POINT('',#114);
#116=CARTESIAN_POINT('',(0.500000000000000,-2.475000000000025,0.0));
#117=DIRECTION('',(1.0,0.0,0.0));
#118=VECTOR('',#117,2.759999999999993);
#119=LINE('',#116,#118);
#120=EDGE_CURVE('',#113,#115,#119,.T.);
#121=ORIENTED_EDGE('',*,*,#120,.F.);
#122=CARTESIAN_POINT('',(0.500000000000000,-1.975000000000024,0.0));
#123=VERTEX_POINT('',#122);
#124=CARTESIAN_POINT('',(0.500000000000000,-1.975000000000024,0.0));
#125=DIRECTION('',(0.0,-1.0,0.0));
#126=VECTOR('',#125,0.500000000000001);
#127=LINE('',#124,#126);
#128=EDGE_CURVE('',#123,#113,#127,.T.);
#129=ORIENTED_EDGE('',*,*,#128,.F.);
#130=CARTESIAN_POINT('',(-0.500000000000028,-1.975000000000024,0.0));
#131=VERTEX_POINT('',#130);
#132=CARTESIAN_POINT('',(-0.500000000000028,-1.975000000000024,0.0));
#133=DIRECTION('',(1.0,0.0,0.0));
#134=VECTOR('',#133,1.000000000000028);
#135=LINE('',#132,#134);
#136=EDGE_CURVE('',#131,#123,#135,.T.);
#137=ORIENTED_EDGE('',*,*,#136,.F.);
#138=CARTESIAN_POINT('',(-0.500000000000028,-2.475000000000025,0.0));
#139=VERTEX_POINT('',#138);
#140=CARTESIAN_POINT('',(-0.500000000000028,-2.475000000000025,0.0));
#141=DIRECTION('',(0.0,1.0,0.0));
#142=VECTOR('',#141,0.500000000000001);
#143=LINE('',#140,#142);
#144=EDGE_CURVE('',#139,#131,#143,.T.);
#145=ORIENTED_EDGE('',*,*,#144,.F.);
#146=CARTESIAN_POINT('',(-6.840000000000005,-2.474999999999993,0.0));
#147=VERTEX_POINT('',#146);
#148=CARTESIAN_POINT('',(-6.840000000000005,-2.474999999999993,0.0));
#149=DIRECTION('',(1.0,0.0,0.0));
#150=VECTOR('',#149,6.339999999999977);
#151=LINE('',#148,#150);
#152=EDGE_CURVE('',#147,#139,#151,.T.);
#153=ORIENTED_EDGE('',*,*,#152,.F.);
#154=CARTESIAN_POINT('',(-6.840000000000005,2.475000000000025,0.0));
#155=VERTEX_POINT('',#154);
#156=CARTESIAN_POINT('',(-6.840000000000005,2.475000000000025,0.0));
#157=DIRECTION('',(0.0,-1.0,0.0));
#158=VECTOR('',#157,4.950000000000019);
#159=LINE('',#156,#158);
#160=EDGE_CURVE('',#155,#147,#159,.T.);
#161=ORIENTED_EDGE('',*,*,#160,.F.);
#162=CARTESIAN_POINT('',(-0.500000000000028,2.475000000000025,0.0));
#163=VERTEX_POINT('',#162);
#164=CARTESIAN_POINT('',(-0.500000000000028,2.475000000000025,0.0));
#165=DIRECTION('',(-1.0,0.0,0.0));
#166=VECTOR('',#165,6.339999999999977);
#167=LINE('',#164,#166);
#168=EDGE_CURVE('',#163,#155,#167,.T.);
#169=ORIENTED_EDGE('',*,*,#168,.F.);
#170=CARTESIAN_POINT('',(-0.500000000000000,2.975000000000025,0.0));
#171=VERTEX_POINT('',#170);
#172=CARTESIAN_POINT('',(-0.500000000000000,2.975000000000025,0.0));
#173=DIRECTION('',(0.0,-1.0,0.0));
#174=VECTOR('',#173,0.500000000000000);
#175=LINE('',#172,#174);
#176=EDGE_CURVE('',#171,#163,#175,.T.);
#177=ORIENTED_EDGE('',*,*,#176,.F.);
#178=CARTESIAN_POINT('',(0.500000000000000,2.975000000000025,0.0));
#179=VERTEX_POINT('',#178);
#180=CARTESIAN_POINT('',(0.500000000000000,2.975000000000025,0.0));
#181=DIRECTION('',(-1.0,0.0,0.0));
#182=VECTOR('',#181,1.0);
#183=LINE('',#180,#182);
#184=EDGE_CURVE('',#179,#171,#183,.T.);
#185=ORIENTED_EDGE('',*,*,#184,.F.);
#186=CARTESIAN_POINT('',(0.500000000000000,2.475000000000025,0.0));
#187=VERTEX_POINT('',#186);
#188=CARTESIAN_POINT('',(0.500000000000000,2.475000000000025,0.0));
#189=DIRECTION('',(0.0,1.0,0.0));
#190=VECTOR('',#189,0.500000000000000);
#191=LINE('',#188,#190);
#192=EDGE_CURVE('',#187,#179,#191,.T.);
#193=ORIENTED_EDGE('',*,*,#192,.F.);
#194=CARTESIAN_POINT('',(3.259999999999993,2.475000000000025,0.0));
#195=VERTEX_POINT('',#194);
#196=CARTESIAN_POINT('',(3.259999999999993,2.475000000000025,0.0));
#197=DIRECTION('',(-1.0,0.0,0.0));
#198=VECTOR('',#197,2.759999999999993);
#199=LINE('',#196,#198);
#200=EDGE_CURVE('',#195,#187,#199,.T.);
#201=ORIENTED_EDGE('',*,*,#200,.F.);
#202=CARTESIAN_POINT('',(3.259999999999993,-2.475000000000025,0.0));
#203=DIRECTION('',(0.0,1.0,0.0));
#204=VECTOR('',#203,4.950000000000050);
#205=LINE('',#202,#204);
#206=EDGE_CURVE('',#115,#195,#205,.T.);
#207=ORIENTED_EDGE('',*,*,#206,.F.);
#208=EDGE_LOOP('',(#121,#129,#137,#145,#153,#161,#169,#177,#185,#193,#201,#207));
#209=FACE_OUTER_BOUND('',#208,.T.);
#210=ORIENTED_EDGE('',*,*,#102,.T.);
#211=CARTESIAN_POINT('',(0.0,0.0,0.0));
#212=DIRECTION('',(0.0,0.0,1.0));
#213=DIRECTION('',(1.0,0.0,0.0));
#214=AXIS2_PLACEMENT_3D('',#211,#212,#213);
#215=CIRCLE('',#214,0.500000000000000);
#216=EDGE_CURVE('',#90,#73,#215,.T.);
#217=ORIENTED_EDGE('',*,*,#216,.T.);
#218=EDGE_LOOP('',(#210,#217));
#219=FACE_BOUND('',#218,.T.);
#220=ADVANCED_FACE('',(#209,#219),#111,.F.);
#221=CARTESIAN_POINT('',(-0.550000000000000,-0.550000000000000,-1.0));
#222=DIRECTION('',(0.0,0.0,1.0));
#223=DIRECTION('',(1.0,0.0,0.0));
#224=AXIS2_PLACEMENT_3D('',#221,#222,#223);
#225=PLANE('',#224);
#226=ORIENTED_EDGE('',*,*,#87,.F.);
#227=CARTESIAN_POINT('',(0.0,0.0,-1.0));
#228=DIRECTION('',(0.0,0.0,1.0));
#229=DIRECTION('',(1.0,0.0,0.0));
#230=AXIS2_PLACEMENT_3D('',#227,#228,#229);
#231=CIRCLE('',#230,0.500000000000000);
#232=EDGE_CURVE('',#81,#71,#231,.T.);
#233=ORIENTED_EDGE('',*,*,#232,.F.);
#234=EDGE_LOOP('',(#226,#233));
#235=FACE_OUTER_BOUND('',#234,.T.);
#236=ADVANCED_FACE('',(#235),#225,.F.);
#237=CARTESIAN_POINT('',(0.0,0.0,0.050000000000000));
#238=DIRECTION('',(0.0,0.0,-1.0));
#239=DIRECTION('',(1.0,0.0,0.0));
#240=AXIS2_PLACEMENT_3D('',#237,#238,#239);
#241=CYLINDRICAL_SURFACE('',#240,0.500000000000000);
#242=ORIENTED_EDGE('',*,*,#78,.T.);
#243=ORIENTED_EDGE('',*,*,#216,.F.);
#244=ORIENTED_EDGE('',*,*,#95,.F.);
#245=ORIENTED_EDGE('',*,*,#232,.T.);
#246=EDGE_LOOP('',(#242,#243,#244,#245));
#247=FACE_OUTER_BOUND('',#246,.T.);
#248=ADVANCED_FACE('',(#247),#241,.T.);
#249=CARTESIAN_POINT('',(0.500000000000000,-2.500000000000024,-0.500000000000000));
#250=DIRECTION('',(-1.0,0.0,0.0));
#251=DIRECTION('',(0.0,0.0,1.0));
#252=AXIS2_PLACEMENT_3D('',#249,#250,#251);
#253=PLANE('',#252);
#254=CARTESIAN_POINT('',(0.500000000000000,-2.475000000000025,10.0));
#255=VERTEX_POINT('',#254);
#256=CARTESIAN_POINT('',(0.500000000000000,-1.975000000000024,10.0));
#257=VERTEX_POINT('',#256);
#258=CARTESIAN_POINT('',(0.500000000000000,-2.475000000000025,10.0));
#259=DIRECTION('',(0.0,1.0,0.0));
#260=VECTOR('',#259,0.500000000000001);
#261=LINE('',#258,#260);
#262=EDGE_CURVE('',#255,#257,#261,.T.);
#263=ORIENTED_EDGE('',*,*,#262,.T.);
#264=CARTESIAN_POINT('',(0.500000000000000,-1.975000000000024,0.0));
#265=DIRECTION('',(0.0,0.0,1.0));
#266=VECTOR('',#265,10.0);
#267=LINE('',#264,#266);
#268=EDGE_CURVE('',#123,#257,#267,.T.);
#269=ORIENTED_EDGE('',*,*,#268,.F.);
#270=ORIENTED_EDGE('',*,*,#128,.T.);
#271=CARTESIAN_POINT('',(0.500000000000000,-2.475000000000025,0.0));
#272=DIRECTION('',(0.0,0.0,1.0));
#273=VECTOR('',#272,10.0);
#274=LINE('',#271,#273);
#275=EDGE_CURVE('',#113,#255,#274,.T.);
#276=ORIENTED_EDGE('',*,*,#275,.T.);
#277=EDGE_LOOP('',(#263,#269,#270,#276));
#278=FACE_OUTER_BOUND('',#277,.T.);
#279=ADVANCED_FACE('',(#278),#253,.T.);
#280=CARTESIAN_POINT('',(-0.550000000000029,-1.975000000000024,10.500000000000000));
#281=DIRECTION('',(0.0,-1.0,0.0));
#282=DIRECTION('',(0.0,0.0,-1.0));
#283=AXIS2_PLACEMENT_3D('',#280,#281,#282);
#284=PLANE('',#283);
#285=CARTESIAN_POINT('',(-0.500000000000028,-1.975000000000024,10.0));
#286=VERTEX_POINT('',#285);
#287=CARTESIAN_POINT('',(0.500000000000000,-1.975000000000024,10.0));
#288=DIRECTION('',(-1.0,0.0,0.0));
#289=VECTOR('',#288,1.000000000000028);
#290=LINE('',#287,#289);
#291=EDGE_CURVE('',#257,#286,#290,.T.);
#292=ORIENTED_EDGE('',*,*,#291,.T.);
#293=CARTESIAN_POINT('',(-0.500000000000028,-1.975000000000024,0.0));
#294=DIRECTION('',(0.0,0.0,1.0));
#295=VECTOR('',#294,10.0);
#296=LINE('',#293,#295);
#297=EDGE_CURVE('',#131,#286,#296,.T.);
#298=ORIENTED_EDGE('',*,*,#297,.F.);
#299=ORIENTED_EDGE('',*,*,#136,.T.);
#300=ORIENTED_EDGE('',*,*,#268,.T.);
#301=EDGE_LOOP('',(#292,#298,#299,#300));
#302=FACE_OUTER_BOUND('',#301,.T.);
#303=ADVANCED_FACE('',(#302),#284,.T.);
#304=CARTESIAN_POINT('',(-0.500000000000028,-2.500000000000024,10.500000000000000));
#305=DIRECTION('',(1.0,0.0,0.0));
#306=DIRECTION('',(0.0,0.0,-1.0));
#307=AXIS2_PLACEMENT_3D('',#304,#305,#306);
#308=PLANE('',#307);
#309=CARTESIAN_POINT('',(-0.500000000000028,-2.475000000000025,10.0));
#310=VERTEX_POINT('',#309);
#311=CARTESIAN_POINT('',(-0.500000000000028,-1.975000000000024,10.0));
#312=DIRECTION('',(0.0,-1.0,0.0));
#313=VECTOR('',#312,0.500000000000001);
#314=LINE('',#311,#313);
#315=EDGE_CURVE('',#286,#310,#314,.T.);
#316=ORIENTED_EDGE('',*,*,#315,.T.);
#317=CARTESIAN_POINT('',(-0.500000000000028,-2.475000000000025,0.0));
#318=DIRECTION('',(0.0,0.0,1.0));
#319=VECTOR('',#318,10.0);
#320=LINE('',#317,#319);
#321=EDGE_CURVE('',#139,#310,#320,.T.);
#322=ORIENTED_EDGE('',*,*,#321,.F.);
#323=ORIENTED_EDGE('',*,*,#144,.T.);
#324=ORIENTED_EDGE('',*,*,#297,.T.);
#325=EDGE_LOOP('',(#316,#322,#323,#324));
#326=FACE_OUTER_BOUND('',#325,.T.);
#327=ADVANCED_FACE('',(#326),#308,.T.);
#328=CARTESIAN_POINT('',(-7.157000000000002,-2.475000000000025,10.500000000000000));
#329=DIRECTION('',(0.0,-1.0,0.0));
#330=DIRECTION('',(0.0,0.0,-1.0));
#331=AXIS2_PLACEMENT_3D('',#328,#329,#330);
#332=PLANE('',#331);
#333=CARTESIAN_POINT('',(-6.840000000000005,-2.474999999999993,10.0));
#334=VERTEX_POINT('',#333);
#335=CARTESIAN_POINT('',(-0.500000000000028,-2.475000000000025,10.0));
#336=DIRECTION('',(-1.0,0.0,0.0));
#337=VECTOR('',#336,6.339999999999977);
#338=LINE('',#335,#337);
#339=EDGE_CURVE('',#310,#334,#338,.T.);
#340=ORIENTED_EDGE('',*,*,#339,.T.);
#341=CARTESIAN_POINT('',(-6.840000000000005,-2.474999999999993,0.0));
#342=DIRECTION('',(0.0,0.0,1.0));
#343=VECTOR('',#342,10.0);
#344=LINE('',#341,#343);
#345=EDGE_CURVE('',#147,#334,#344,.T.);
#346=ORIENTED_EDGE('',*,*,#345,.F.);
#347=ORIENTED_EDGE('',*,*,#152,.T.);
#348=ORIENTED_EDGE('',*,*,#321,.T.);
#349=EDGE_LOOP('',(#340,#346,#347,#348));
#350=FACE_OUTER_BOUND('',#349,.T.);
#351=ADVANCED_FACE('',(#350),#332,.T.);
#352=CARTESIAN_POINT('',(-6.840000000000005,-2.722499999999995,-0.500000000000000));
#353=DIRECTION('',(-1.0,0.0,0.0));
#354=DIRECTION('',(0.0,0.0,1.0));
#355=AXIS2_PLACEMENT_3D('',#352,#353,#354);
#356=PLANE('',#355);
#357=CARTESIAN_POINT('',(-6.840000000000005,2.475000000000025,10.0));
#358=VERTEX_POINT('',#357);
#359=CARTESIAN_POINT('',(-6.840000000000005,-2.474999999999993,10.0));
#360=DIRECTION('',(0.0,1.0,0.0));
#361=VECTOR('',#360,4.950000000000019);
#362=LINE('',#359,#361);
#363=EDGE_CURVE('',#334,#358,#362,.T.);
#364=ORIENTED_EDGE('',*,*,#363,.T.);
#365=CARTESIAN_POINT('',(-6.840000000000005,2.475000000000025,0.0));
#366=DIRECTION('',(0.0,0.0,1.0));
#367=VECTOR('',#366,10.0);
#368=LINE('',#365,#367);
#369=EDGE_CURVE('',#155,#358,#368,.T.);
#370=ORIENTED_EDGE('',*,*,#369,.F.);
#371=ORIENTED_EDGE('',*,*,#160,.T.);
#372=ORIENTED_EDGE('',*,*,#345,.T.);
#373=EDGE_LOOP('',(#364,#370,#371,#372));
#374=FACE_OUTER_BOUND('',#373,.T.);
#375=ADVANCED_FACE('',(#374),#356,.T.);
#376=CARTESIAN_POINT('',(-7.157000000000002,2.475000000000025,-0.500000000000000));
#377=DIRECTION('',(0.0,1.0,0.0));
#378=DIRECTION('',(0.0,0.0,1.0));
#379=AXIS2_PLACEMENT_3D('',#376,#377,#378);
#380=PLANE('',#379);
#381=CARTESIAN_POINT('',(-0.500000000000028,2.475000000000025,10.0));
#382=VERTEX_POINT('',#381);
#383=CARTESIAN_POINT('',(-6.840000000000005,2.475000000000025,10.0));
#384=DIRECTION('',(1.0,0.0,0.0));
#385=VECTOR('',#384,6.339999999999977);
#386=LINE('',#383,#385);
#387=EDGE_CURVE('',#358,#382,#386,.T.);
#388=ORIENTED_EDGE('',*,*,#387,.T.);
#389=CARTESIAN_POINT('',(-0.500000000000028,2.475000000000025,0.0));
#390=DIRECTION('',(0.0,0.0,1.0));
#391=VECTOR('',#390,10.0);
#392=LINE('',#389,#391);
#393=EDGE_CURVE('',#163,#382,#392,.T.);
#394=ORIENTED_EDGE('',*,*,#393,.F.);
#395=ORIENTED_EDGE('',*,*,#168,.T.);
#396=ORIENTED_EDGE('',*,*,#369,.T.);
#397=EDGE_LOOP('',(#388,#394,#395,#396));
#398=FACE_OUTER_BOUND('',#397,.T.);
#399=ADVANCED_FACE('',(#398),#380,.T.);
#400=CARTESIAN_POINT('',(-0.500000000000028,2.450000000000024,-0.500000000000000));
#401=DIRECTION('',(-1.0,0.0,0.0));
#402=DIRECTION('',(0.0,0.0,1.0));
#403=AXIS2_PLACEMENT_3D('',#400,#401,#402);
#404=PLANE('',#403);
#405=CARTESIAN_POINT('',(-0.500000000000000,2.975000000000025,10.0));
#406=VERTEX_POINT('',#405);
#407=CARTESIAN_POINT('',(-0.500000000000028,2.475000000000025,10.0));
#408=DIRECTION('',(0.0,1.0,0.0));
#409=VECTOR('',#408,0.500000000000000);
#410=LINE('',#407,#409);
#411=EDGE_CURVE('',#382,#406,#410,.T.);
#412=ORIENTED_EDGE('',*,*,#411,.T.);
#413=CARTESIAN_POINT('',(-0.500000000000000,2.975000000000025,0.0));
#414=DIRECTION('',(0.0,0.0,1.0));
#415=VECTOR('',#414,10.0);
#416=LINE('',#413,#415);
#417=EDGE_CURVE('',#171,#406,#416,.T.);
#418=ORIENTED_EDGE('',*,*,#417,.F.);
#419=ORIENTED_EDGE('',*,*,#176,.T.);
#420=ORIENTED_EDGE('',*,*,#393,.T.);
#421=EDGE_LOOP('',(#412,#418,#419,#420));
#422=FACE_OUTER_BOUND('',#421,.T.);
#423=ADVANCED_FACE('',(#422),#404,.T.);
#424=CARTESIAN_POINT('',(-0.550000000000000,2.975000000000025,-0.500000000000000));
#425=DIRECTION('',(0.0,1.0,0.0));
#426=DIRECTION('',(0.0,0.0,1.0));
#427=AXIS2_PLACEMENT_3D('',#424,#425,#426);
#428=PLANE('',#427);
#429=CARTESIAN_POINT('',(0.500000000000000,2.975000000000025,10.0));
#430=VERTEX_POINT('',#429);
#431=CARTESIAN_POINT('',(-0.500000000000000,2.975000000000025,10.0));
#432=DIRECTION('',(1.0,0.0,0.0));
#433=VECTOR('',#432,1.0);
#434=LINE('',#431,#433);
#435=EDGE_CURVE('',#406,#430,#434,.T.);
#436=ORIENTED_EDGE('',*,*,#435,.T.);
#437=CARTESIAN_POINT('',(0.500000000000000,2.975000000000025,0.0));
#438=DIRECTION('',(0.0,0.0,1.0));
#439=VECTOR('',#438,10.0);
#440=LINE('',#437,#439);
#441=EDGE_CURVE('',#179,#430,#440,.T.);
#442=ORIENTED_EDGE('',*,*,#441,.F.);
#443=ORIENTED_EDGE('',*,*,#184,.T.);
#444=ORIENTED_EDGE('',*,*,#417,.T.);
#445=EDGE_LOOP('',(#436,#442,#443,#444));
#446=FACE_OUTER_BOUND('',#445,.T.);
#447=ADVANCED_FACE('',(#446),#428,.T.);
#448=CARTESIAN_POINT('',(0.500000000000000,2.450000000000024,10.500000000000000));
#449=DIRECTION('',(1.0,0.0,0.0));
#450=DIRECTION('',(0.0,0.0,-1.0));
#451=AXIS2_PLACEMENT_3D('',#448,#449,#450);
#452=PLANE('',#451);
#453=CARTESIAN_POINT('',(0.500000000000000,2.475000000000025,10.0));
#454=VERTEX_POINT('',#453);
#455=CARTESIAN_POINT('',(0.500000000000000,2.975000000000025,10.0));
#456=DIRECTION('',(0.0,-1.0,0.0));
#457=VECTOR('',#456,0.500000000000000);
#458=LINE('',#455,#457);
#459=EDGE_CURVE('',#430,#454,#458,.T.);
#460=ORIENTED_EDGE('',*,*,#459,.T.);
#461=CARTESIAN_POINT('',(0.500000000000000,2.475000000000025,0.0));
#462=DIRECTION('',(0.0,0.0,1.0));
#463=VECTOR('',#462,10.0);
#464=LINE('',#461,#463);
#465=EDGE_CURVE('',#187,#454,#464,.T.);
#466=ORIENTED_EDGE('',*,*,#465,.F.);
#467=ORIENTED_EDGE('',*,*,#192,.T.);
#468=ORIENTED_EDGE('',*,*,#441,.T.);
#469=EDGE_LOOP('',(#460,#466,#467,#468));
#470=FACE_OUTER_BOUND('',#469,.T.);
#471=ADVANCED_FACE('',(#470),#452,.T.);
#472=CARTESIAN_POINT('',(0.362000000000000,2.475000000000025,-0.500000000000000));
#473=DIRECTION('',(0.0,1.0,0.0));
#474=DIRECTION('',(0.0,0.0,1.0));
#475=AXIS2_PLACEMENT_3D('',#472,#473,#474);
#476=PLANE('',#475);
#477=CARTESIAN_POINT('',(3.259999999999993,2.475000000000025,10.0));
#478=VERTEX_POINT('',#477);
#479=CARTESIAN_POINT('',(0.500000000000000,2.475000000000025,10.0));
#480=DIRECTION('',(1.0,0.0,0.0));
#481=VECTOR('',#480,2.759999999999993);
#482=LINE('',#479,#481);
#483=EDGE_CURVE('',#454,#478,#482,.T.);
#484=ORIENTED_EDGE('',*,*,#483,.T.);
#485=CARTESIAN_POINT('',(3.259999999999993,2.475000000000025,0.0));
#486=DIRECTION('',(0.0,0.0,1.0));
#487=VECTOR('',#486,10.0);
#488=LINE('',#485,#487);
#489=EDGE_CURVE('',#195,#478,#488,.T.);
#490=ORIENTED_EDGE('',*,*,#489,.F.);
#491=ORIENTED_EDGE('',*,*,#200,.T.);
#492=ORIENTED_EDGE('',*,*,#465,.T.);
#493=EDGE_LOOP('',(#484,#490,#491,#492));
#494=FACE_OUTER_BOUND('',#493,.T.);
#495=ADVANCED_FACE('',(#494),#476,.T.);
#496=CARTESIAN_POINT('',(3.259999999999993,-2.722500000000026,10.500000000000000));
#497=DIRECTION('',(1.0,0.0,0.0));
#498=DIRECTION('',(0.0,0.0,-1.0));
#499=AXIS2_PLACEMENT_3D('',#496,#497,#498);
#500=PLANE('',#499);
#501=CARTESIAN_POINT('',(3.259999999999993,-2.475000000000025,10.0));
#502=VERTEX_POINT('',#501);
#503=CARTESIAN_POINT('',(3.259999999999993,2.475000000000025,10.0));
#504=DIRECTION('',(0.0,-1.0,0.0));
#505=VECTOR('',#504,4.950000000000050);
#506=LINE('',#503,#505);
#507=EDGE_CURVE('',#478,#502,#506,.T.);
#508=ORIENTED_EDGE('',*,*,#507,.T.);
#509=CARTESIAN_POINT('',(3.259999999999993,-2.475000000000025,0.0));
#510=DIRECTION('',(0.0,0.0,1.0));
#511=VECTOR('',#510,10.0);
#512=LINE('',#509,#511);
#513=EDGE_CURVE('',#115,#502,#512,.T.);
#514=ORIENTED_EDGE('',*,*,#513,.F.);
#515=ORIENTED_EDGE('',*,*,#206,.T.);
#516=ORIENTED_EDGE('',*,*,#489,.T.);
#517=EDGE_LOOP('',(#508,#514,#515,#516));
#518=FACE_OUTER_BOUND('',#517,.T.);
#519=ADVANCED_FACE('',(#518),#500,.T.);
#520=CARTESIAN_POINT('',(0.362000000000001,-2.475000000000025,10.500000000000000));
#521=DIRECTION('',(0.0,-1.0,0.0));
#522=DIRECTION('',(0.0,0.0,-1.0));
#523=AXIS2_PLACEMENT_3D('',#520,#521,#522);
#524=PLANE('',#523);
#525=CARTESIAN_POINT('',(3.259999999999993,-2.475000000000025,10.0));
#526=DIRECTION('',(-1.0,0.0,0.0));
#527=VECTOR('',#526,2.759999999999993);
#528=LINE('',#525,#527);
#529=EDGE_CURVE('',#502,#255,#528,.T.);
#530=ORIENTED_EDGE('',*,*,#529,.T.);
#531=ORIENTED_EDGE('',*,*,#275,.F.);
#532=ORIENTED_EDGE('',*,*,#120,.T.);
#533=ORIENTED_EDGE('',*,*,#513,.T.);
#534=EDGE_LOOP('',(#530,#531,#532,#533));
#535=FACE_OUTER_BOUND('',#534,.T.);
#536=ADVANCED_FACE('',(#535),#524,.T.);
#537=CARTESIAN_POINT('',(-7.345000000000004,-2.747500000000026,10.0));
#538=DIRECTION('',(0.0,0.0,1.0));
#539=DIRECTION('',(1.0,0.0,0.0));
#540=AXIS2_PLACEMENT_3D('',#537,#538,#539);
#541=PLANE('',#540);
#542=ORIENTED_EDGE('',*,*,#262,.F.);
#543=ORIENTED_EDGE('',*,*,#529,.F.);
#544=ORIENTED_EDGE('',*,*,#507,.F.);
#545=ORIENTED_EDGE('',*,*,#483,.F.);
#546=ORIENTED_EDGE('',*,*,#459,.F.);
#547=ORIENTED_EDGE('',*,*,#435,.F.);
#548=ORIENTED_EDGE('',*,*,#411,.F.);
#549=ORIENTED_EDGE('',*,*,#387,.F.);
#550=ORIENTED_EDGE('',*,*,#363,.F.);
#551=ORIENTED_EDGE('',*,*,#339,.F.);
#552=ORIENTED_EDGE('',*,*,#315,.F.);
#553=ORIENTED_EDGE('',*,*,#291,.F.);
#554=EDGE_LOOP('',(#542,#543,#544,#545,#546,#547,#548,#549,#550,#551,#552,#553));
#555=FACE_OUTER_BOUND('',#554,.T.);
#556=ADVANCED_FACE('',(#555),#541,.T.);
#557=CLOSED_SHELL('',(#106,#220,#236,#248,#279,#303,#327,#351,#375,#399,#423,#447,#471,#495,#519,#536,#556));
#558=MANIFOLD_SOLID_BREP('3D4',#557);
#559=COLOUR_RGB('8',0.300000000000000,0.300000000000000,0.300000000000000);
#560=SURFACE_STYLE_USAGE(.BOTH.,#561);
#561=SURFACE_SIDE_STYLE('NONE',(#562));
#562=SURFACE_STYLE_FILL_AREA(#563);
#563=FILL_AREA_STYLE('NONE',(#564));
#564=FILL_AREA_STYLE_COLOUR('NONE',#559);
#565=PRESENTATION_STYLE_ASSIGNMENT((#560));
#566=STYLED_ITEM('NONE',(#565),#558);
#567=MECHANICAL_DESIGN_GEOMETRIC_PRESENTATION_REPRESENTATION('NONE',(#566,#726,#877,#989),#28);
#568=PRESENTATION_LAYER_ASSIGNMENT('0','None',(#558,#718,#876,#981));
#569=CARTESIAN_POINT('',(2.374999999999987,1.520000000000010,-3.360000000000000));
#570=DIRECTION('',(0.0,1.0,0.0));
#571=DIRECTION('',(0.0,0.0,1.0));
#572=AXIS2_PLACEMENT_3D('',#569,#570,#571);
#573=PLANE('',#572);
#574=CARTESIAN_POINT('',(2.690000000000000,1.520000000000010,-3.200000000000000));
#575=VERTEX_POINT('',#574);
#576=CARTESIAN_POINT('',(2.389999999999986,1.520000000000010,-3.200000000000000));
#577=VERTEX_POINT('',#576);
#578=CARTESIAN_POINT('',(2.690000000000000,1.520000000000010,-3.200000000000000));
#579=DIRECTION('',(-1.0,0.0,0.0));
#580=VECTOR('',#579,0.300000000000014);
#581=LINE('',#578,#580);
#582=EDGE_CURVE('',#575,#577,#581,.T.);
#583=ORIENTED_EDGE('',*,*,#582,.T.);
#584=CARTESIAN_POINT('',(2.389999999999986,1.520000000000010,0.0));
#585=VERTEX_POINT('',#584);
#586=CARTESIAN_POINT('',(2.389999999999986,1.520000000000010,0.0));
#587=DIRECTION('',(0.0,0.0,-1.0));
#588=VECTOR('',#587,3.200000000000000);
#589=LINE('',#586,#588);
#590=EDGE_CURVE('',#585,#577,#589,.T.);
#591=ORIENTED_EDGE('',*,*,#590,.F.);
#592=CARTESIAN_POINT('',(2.690000000000000,1.520000000000010,0.0));
#593=VERTEX_POINT('',#592);
#594=CARTESIAN_POINT('',(2.690000000000000,1.520000000000010,0.0));
#595=DIRECTION('',(-1.0,0.0,0.0));
#596=VECTOR('',#595,0.300000000000014);
#597=LINE('',#594,#596);
#598=EDGE_CURVE('',#593,#585,#597,.T.);
#599=ORIENTED_EDGE('',*,*,#598,.F.);
#600=CARTESIAN_POINT('',(2.690000000000000,1.520000000000010,0.0));
#601=DIRECTION('',(0.0,0.0,-1.0));
#602=VECTOR('',#601,3.200000000000000);
#603=LINE('',#600,#602);
#604=EDGE_CURVE('',#593,#575,#603,.T.);
#605=ORIENTED_EDGE('',*,*,#604,.T.);
#606=EDGE_LOOP('',(#583,#591,#599,#605));
#607=FACE_OUTER_BOUND('',#606,.T.);
#608=ADVANCED_FACE('',(#607),#573,.T.);
#609=CARTESIAN_POINT('',(2.389999999999986,0.995000000000010,-3.360000000000000));
#610=DIRECTION('',(-1.0,0.0,0.0));
#611=DIRECTION('',(0.0,0.0,1.0));
#612=AXIS2_PLACEMENT_3D('',#609,#610,#611);
#613=PLANE('',#612);
#614=CARTESIAN_POINT('',(2.389999999999986,1.020000000000010,-3.200000000000000));
#615=VERTEX_POINT('',#614);
#616=CARTESIAN_POINT('',(2.389999999999986,1.520000000000010,-3.200000000000000));
#617=DIRECTION('',(0.0,-1.0,0.0));
#618=VECTOR('',#617,0.500000000000000);
#619=LINE('',#616,#618);
#620=EDGE_CURVE('',#577,#615,#619,.T.);
#621=ORIENTED_EDGE('',*,*,#620,.T.);
#622=CARTESIAN_POINT('',(2.389999999999986,1.020000000000010,0.0));
#623=VERTEX_POINT('',#622);
#624=CARTESIAN_POINT('',(2.389999999999986,1.020000000000010,0.0));
#625=DIRECTION('',(0.0,0.0,-1.0));
#626=VECTOR('',#625,3.200000000000000);
#627=LINE('',#624,#626);
#628=EDGE_CURVE('',#623,#615,#627,.T.);
#629=ORIENTED_EDGE('',*,*,#628,.F.);
#630=CARTESIAN_POINT('',(2.389999999999986,1.520000000000010,0.0));
#631=DIRECTION('',(0.0,-1.0,0.0));
#632=VECTOR('',#631,0.500000000000000);
#633=LINE('',#630,#632);
#634=EDGE_CURVE('',#585,#623,#633,.T.);
#635=ORIENTED_EDGE('',*,*,#634,.F.);
#636=ORIENTED_EDGE('',*,*,#590,.T.);
#637=EDGE_LOOP('',(#621,#629,#635,#636));
#638=FACE_OUTER_BOUND('',#637,.T.);
#639=ADVANCED_FACE('',(#638),#613,.T.);
#640=CARTESIAN_POINT('',(2.374999999999987,1.020000000000010,0.160000000000000));
#641=DIRECTION('',(0.0,-1.0,0.0));
#642=DIRECTION('',(0.0,0.0,-1.0));
#643=AXIS2_PLACEMENT_3D('',#640,#641,#642);
#644=PLANE('',#643);
#645=CARTESIAN_POINT('',(2.690000000000000,1.020000000000010,-3.200000000000000));
#646=VERTEX_POINT('',#645);
#647=CARTESIAN_POINT('',(2.389999999999986,1.020000000000010,-3.200000000000000));
#648=DIRECTION('',(1.0,0.0,0.0));
#649=VECTOR('',#648,0.300000000000014);
#650=LINE('',#647,#649);
#651=EDGE_CURVE('',#615,#646,#650,.T.);
#652=ORIENTED_EDGE('',*,*,#651,.T.);
#653=CARTESIAN_POINT('',(2.690000000000000,1.020000000000010,0.0));
#654=VERTEX_POINT('',#653);
#655=CARTESIAN_POINT('',(2.690000000000000,1.020000000000010,0.0));
#656=DIRECTION('',(0.0,0.0,-1.0));
#657=VECTOR('',#656,3.200000000000000);
#658=LINE('',#655,#657);
#659=EDGE_CURVE('',#654,#646,#658,.T.);
#660=ORIENTED_EDGE('',*,*,#659,.F.);
#661=CARTESIAN_POINT('',(2.389999999999986,1.020000000000010,0.0));
#662=DIRECTION('',(1.0,0.0,0.0));
#663=VECTOR('',#662,0.300000000000014);
#664=LINE('',#661,#663);
#665=EDGE_CURVE('',#623,#654,#664,.T.);
#666=ORIENTED_EDGE('',*,*,#665,.F.);
#667=ORIENTED_EDGE('',*,*,#628,.T.);
#668=EDGE_LOOP('',(#652,#660,#666,#667));
#669=FACE_OUTER_BOUND('',#668,.T.);
#670=ADVANCED_FACE('',(#669),#644,.T.);
#671=CARTESIAN_POINT('',(2.690000000000000,0.995000000000010,0.160000000000000));
#672=DIRECTION('',(1.0,0.0,0.0));
#673=DIRECTION('',(0.0,0.0,-1.0));
#674=AXIS2_PLACEMENT_3D('',#671,#672,#673);
#675=PLANE('',#674);
#676=CARTESIAN_POINT('',(2.690000000000000,1.020000000000010,-3.200000000000000));
#677=DIRECTION('',(0.0,1.0,0.0));
#678=VECTOR('',#677,0.500000000000000);
#679=LINE('',#676,#678);
#680=EDGE_CURVE('',#646,#575,#679,.T.);
#681=ORIENTED_EDGE('',*,*,#680,.T.);
#682=ORIENTED_EDGE('',*,*,#604,.F.);
#683=CARTESIAN_POINT('',(2.690000000000000,1.020000000000010,0.0));
#684=DIRECTION('',(0.0,1.0,0.0));
#685=VECTOR('',#684,0.500000000000000);
#686=LINE('',#683,#685);
#687=EDGE_CURVE('',#654,#593,#686,.T.);
#688=ORIENTED_EDGE('',*,*,#687,.F.);
#689=ORIENTED_EDGE('',*,*,#659,.T.);
#690=EDGE_LOOP('',(#681,#682,#688,#689));
#691=FACE_OUTER_BOUND('',#690,.T.);
#692=ADVANCED_FACE('',(#691),#675,.T.);
#693=CARTESIAN_POINT('',(2.374999999999987,0.995000000000010,-3.200000000000000));
#694=DIRECTION('',(0.0,0.0,1.0));
#695=DIRECTION('',(1.0,0.0,0.0));
#696=AXIS2_PLACEMENT_3D('',#693,#694,#695);
#697=PLANE('',#696);
#698=ORIENTED_EDGE('',*,*,#582,.F.);
#699=ORIENTED_EDGE('',*,*,#680,.F.);
#700=ORIENTED_EDGE('',*,*,#651,.F.);
#701=ORIENTED_EDGE('',*,*,#620,.F.);
#702=EDGE_LOOP('',(#698,#699,#700,#701));
#703=FACE_OUTER_BOUND('',#702,.T.);
#704=ADVANCED_FACE('',(#703),#697,.F.);
#705=CARTESIAN_POINT('',(2.374999999999987,0.995000000000010,0.0));
#706=DIRECTION('',(0.0,0.0,1.0));
#707=DIRECTION('',(1.0,0.0,0.0));
#708=AXIS2_PLACEMENT_3D('',#705,#706,#707);
#709=PLANE('',#708);
#710=ORIENTED_EDGE('',*,*,#687,.T.);
#711=ORIENTED_EDGE('',*,*,#598,.T.);
#712=ORIENTED_EDGE('',*,*,#634,.T.);
#713=ORIENTED_EDGE('',*,*,#665,.T.);
#714=EDGE_LOOP('',(#710,#711,#712,#713));
#715=FACE_OUTER_BOUND('',#714,.T.);
#716=ADVANCED_FACE('',(#715),#709,.T.);
#717=CLOSED_SHELL('',(#608,#639,#670,#692,#704,#716));
#718=MANIFOLD_SOLID_BREP('3D3',#717);
#719=COLOUR_RGB('9',0.750000000000000,0.750000000000000,0.750000000000000);
#720=SURFACE_STYLE_USAGE(.BOTH.,#721);
#721=SURFACE_SIDE_STYLE('NONE',(#722));
#722=SURFACE_STYLE_FILL_AREA(#723);
#723=FILL_AREA_STYLE('NONE',(#724));
#724=FILL_AREA_STYLE_COLOUR('NONE',#719);
#725=PRESENTATION_STYLE_ASSIGNMENT((#720));
#726=STYLED_ITEM('NONE',(#725),#718);
#727=CARTESIAN_POINT('',(2.375000000000016,-1.019999999999982,-3.360000000000000));
#728=DIRECTION('',(0.0,1.0,0.0));
#729=DIRECTION('',(0.0,0.0,1.0));
#730=AXIS2_PLACEMENT_3D('',#727,#728,#729);
#731=PLANE('',#730);
#732=CARTESIAN_POINT('',(2.690000000000027,-1.019999999999982,-3.200000000000000));
#733=VERTEX_POINT('',#732);
#734=CARTESIAN_POINT('',(2.390000000000016,-1.019999999999982,-3.200000000000000));
#735=VERTEX_POINT('',#734);
#736=CARTESIAN_POINT('',(2.690000000000027,-1.019999999999982,-3.200000000000000));
#737=DIRECTION('',(-1.0,0.0,0.0));
#738=VECTOR('',#737,0.300000000000011);
#739=LINE('',#736,#738);
#740=EDGE_CURVE('',#733,#735,#739,.T.);
#741=ORIENTED_EDGE('',*,*,#740,.T.);
#742=CARTESIAN_POINT('',(2.390000000000016,-1.019999999999982,0.0));
#743=VERTEX_POINT('',#742);
#744=CARTESIAN_POINT('',(2.390000000000016,-1.019999999999982,0.0));
#745=DIRECTION('',(0.0,0.0,-1.0));
#746=VECTOR('',#745,3.200000000000000);
#747=LINE('',#744,#746);
#748=EDGE_CURVE('',#743,#735,#747,.T.);
#749=ORIENTED_EDGE('',*,*,#748,.F.);
#750=CARTESIAN_POINT('',(2.690000000000027,-1.019999999999982,0.0));
#751=VERTEX_POINT('',#750);
#752=CARTESIAN_POINT('',(2.690000000000027,-1.019999999999982,0.0));
#753=DIRECTION('',(-1.0,0.0,0.0));
#754=VECTOR('',#753,0.300000000000011);
#755=LINE('',#752,#754);
#756=EDGE_CURVE('',#751,#743,#755,.T.);
#757=ORIENTED_EDGE('',*,*,#756,.F.);
#758=CARTESIAN_POINT('',(2.690000000000027,-1.019999999999982,0.0));
#759=DIRECTION('',(0.0,0.0,-1.0));
#760=VECTOR('',#759,3.200000000000000);
#761=LINE('',#758,#760);
#762=EDGE_CURVE('',#751,#733,#761,.T.);
#763=ORIENTED_EDGE('',*,*,#762,.T.);
#764=EDGE_LOOP('',(#741,#749,#757,#763));
#765=FACE_OUTER_BOUND('',#764,.T.);
#766=ADVANCED_FACE('',(#765),#731,.T.);
#767=CARTESIAN_POINT('',(2.390000000000016,-1.544999999999982,-3.360000000000000));
#768=DIRECTION('',(-1.0,0.0,0.0));
#769=DIRECTION('',(0.0,0.0,1.0));
#770=AXIS2_PLACEMENT_3D('',#767,#768,#769);
#771=PLANE('',#770);
#772=CARTESIAN_POINT('',(2.390000000000016,-1.519999999999982,-3.200000000000000));
#773=VERTEX_POINT('',#772);
#774=CARTESIAN_POINT('',(2.390000000000016,-1.019999999999982,-3.200000000000000));
#775=DIRECTION('',(0.0,-1.0,0.0));
#776=VECTOR('',#775,0.500000000000000);
#777=LINE('',#774,#776);
#778=EDGE_CURVE('',#735,#773,#777,.T.);
#779=ORIENTED_EDGE('',*,*,#778,.T.);
#780=CARTESIAN_POINT('',(2.390000000000016,-1.519999999999982,0.0));
#781=VERTEX_POINT('',#780);
#782=CARTESIAN_POINT('',(2.390000000000016,-1.519999999999982,0.0));
#783=DIRECTION('',(0.0,0.0,-1.0));
#784=VECTOR('',#783,3.200000000000000);
#785=LINE('',#782,#784);
#786=EDGE_CURVE('',#781,#773,#785,.T.);
#787=ORIENTED_EDGE('',*,*,#786,.F.);
#788=CARTESIAN_POINT('',(2.390000000000016,-1.019999999999982,0.0));
#789=DIRECTION('',(0.0,-1.0,0.0));
#790=VECTOR('',#789,0.500000000000000);
#791=LINE('',#788,#790);
#792=EDGE_CURVE('',#743,#781,#791,.T.);
#793=ORIENTED_EDGE('',*,*,#792,.F.);
#794=ORIENTED_EDGE('',*,*,#748,.T.);
#795=EDGE_LOOP('',(#779,#787,#793,#794));
#796=FACE_OUTER_BOUND('',#795,.T.);
#797=ADVANCED_FACE('',(#796),#771,.T.);
#798=CARTESIAN_POINT('',(2.375000000000016,-1.519999999999982,0.160000000000000));
#799=DIRECTION('',(0.0,-1.0,0.0));
#800=DIRECTION('',(0.0,0.0,-1.0));
#801=AXIS2_PLACEMENT_3D('',#798,#799,#800);
#802=PLANE('',#801);
#803=CARTESIAN_POINT('',(2.690000000000027,-1.519999999999982,-3.200000000000000));
#804=VERTEX_POINT('',#803);
#805=CARTESIAN_POINT('',(2.390000000000016,-1.519999999999982,-3.200000000000000));
#806=DIRECTION('',(1.0,0.0,0.0));
#807=VECTOR('',#806,0.300000000000011);
#808=LINE('',#805,#807);
#809=EDGE_CURVE('',#773,#804,#808,.T.);
#810=ORIENTED_EDGE('',*,*,#809,.T.);
#811=CARTESIAN_POINT('',(2.690000000000027,-1.519999999999982,0.0));
#812=VERTEX_POINT('',#811);
#813=CARTESIAN_POINT('',(2.690000000000027,-1.519999999999982,0.0));
#814=DIRECTION('',(0.0,0.0,-1.0));
#815=VECTOR('',#814,3.200000000000000);
#816=LINE('',#813,#815);
#817=EDGE_CURVE('',#812,#804,#816,.T.);
#818=ORIENTED_EDGE('',*,*,#817,.F.);
#819=CARTESIAN_POINT('',(2.390000000000016,-1.519999999999982,0.0));
#820=DIRECTION('',(1.0,0.0,0.0));
#821=VECTOR('',#820,0.300000000000011);
#822=LINE('',#819,#821);
#823=EDGE_CURVE('',#781,#812,#822,.T.);
#824=ORIENTED_EDGE('',*,*,#823,.F.);
#825=ORIENTED_EDGE('',*,*,#786,.T.);
#826=EDGE_LOOP('',(#810,#818,#824,#825));
#827=FACE_OUTER_BOUND('',#826,.T.);
#828=ADVANCED_FACE('',(#827),#802,.T.);
#829=CARTESIAN_POINT('',(2.690000000000027,-1.544999999999982,0.160000000000000));
#830=DIRECTION('',(1.0,0.0,0.0));
#831=DIRECTION('',(0.0,0.0,-1.0));
#832=AXIS2_PLACEMENT_3D('',#829,#830,#831);
#833=PLANE('',#832);
#834=CARTESIAN_POINT('',(2.690000000000027,-1.519999999999982,-3.200000000000000));
#835=DIRECTION('',(0.0,1.0,0.0));
#836=VECTOR('',#835,0.500000000000000);
#837=LINE('',#834,#836);
#838=EDGE_CURVE('',#804,#733,#837,.T.);
#839=ORIENTED_EDGE('',*,*,#838,.T.);
#840=ORIENTED_EDGE('',*,*,#762,.F.);
#841=CARTESIAN_POINT('',(2.690000000000027,-1.519999999999982,0.0));
#842=DIRECTION('',(0.0,1.0,0.0));
#843=VECTOR('',#842,0.500000000000000);
#844=LINE('',#841,#843);
#845=EDGE_CURVE('',#812,#751,#844,.T.);
#846=ORIENTED_EDGE('',*,*,#845,.F.);
#847=ORIENTED_EDGE('',*,*,#817,.T.);
#848=EDGE_LOOP('',(#839,#840,#846,#847));
#849=FACE_OUTER_BOUND('',#848,.T.);
#850=ADVANCED_FACE('',(#849),#833,.T.);
#851=CARTESIAN_POINT('',(2.375000000000016,-1.544999999999982,-3.200000000000000));
#852=DIRECTION('',(0.0,0.0,1.0));
#853=DIRECTION('',(1.0,0.0,0.0));
#854=AXIS2_PLACEMENT_3D('',#851,#852,#853);
#855=PLANE('',#854);
#856=ORIENTED_EDGE('',*,*,#740,.F.);
#857=ORIENTED_EDGE('',*,*,#838,.F.);
#858=ORIENTED_EDGE('',*,*,#809,.F.);
#859=ORIENTED_EDGE('',*,*,#778,.F.);
#860=EDGE_LOOP('',(#856,#857,#858,#859));
#861=FACE_OUTER_BOUND('',#860,.T.);
#862=ADVANCED_FACE('',(#861),#855,.F.);
#863=CARTESIAN_POINT('',(2.375000000000016,-1.544999999999982,0.0));
#864=DIRECTION('',(0.0,0.0,1.0));
#865=DIRECTION('',(1.0,0.0,0.0));
#866=AXIS2_PLACEMENT_3D('',#863,#864,#865);
#867=PLANE('',#866);
#868=ORIENTED_EDGE('',*,*,#845,.T.);
#869=ORIENTED_EDGE('',*,*,#756,.T.);
#870=ORIENTED_EDGE('',*,*,#792,.T.);
#871=ORIENTED_EDGE('',*,*,#823,.T.);
#872=EDGE_LOOP('',(#868,#869,#870,#871));
#873=FACE_OUTER_BOUND('',#872,.T.);
#874=ADVANCED_FACE('',(#873),#867,.T.);
#875=CLOSED_SHELL('',(#766,#797,#828,#850,#862,#874));
#876=MANIFOLD_SOLID_BREP('3D2',#875);
#877=STYLED_ITEM('NONE',(#725),#876);
#878=CARTESIAN_POINT('',(-8.840000000000007,0.0,5.0));
#879=DIRECTION('',(0.0,0.0,1.0));
#880=DIRECTION('',(1.0,0.0,0.0));
#881=AXIS2_PLACEMENT_3D('',#878,#879,#880);
#882=SPHERICAL_SURFACE('',#881,1.400000000000000);
#883=CARTESIAN_POINT('',(-8.840000000000018,0.0,6.400000000000000));
#884=VERTEX_POINT('',#883);
#885=CARTESIAN_POINT('',(-8.840000000000007,-1.714449E-016,3.600000000000000));
#886=VERTEX_POINT('',#885);
#887=CARTESIAN_POINT('',(-8.840000000000007,0.0,5.0));
#888=DIRECTION('',(0.0,-1.0,0.0));
#889=DIRECTION('',(0.0,0.0,1.0));
#890=AXIS2_PLACEMENT_3D('',#887,#888,#889);
#891=CIRCLE('',#890,1.400000000000000);
#892=EDGE_CURVE('',#884,#886,#891,.T.);
#893=ORIENTED_EDGE('',*,*,#892,.F.);
#894=CARTESIAN_POINT('',(-8.840000000000007,0.0,5.0));
#895=DIRECTION('',(-1.0,0.0,0.0));
#896=DIRECTION('',(0.0,0.0,1.0));
#897=AXIS2_PLACEMENT_3D('',#894,#895,#896);
#898=CIRCLE('',#897,1.400000000000000);
#899=EDGE_CURVE('',#884,#886,#898,.T.);
#900=ORIENTED_EDGE('',*,*,#899,.T.);
#901=EDGE_LOOP('',(#893,#900));
#902=FACE_OUTER_BOUND('',#901,.T.);
#903=ADVANCED_FACE('',(#902),#882,.T.);
#904=CARTESIAN_POINT('',(-6.739999999999990,0.0,5.0));
#905=DIRECTION('',(-1.0,0.0,0.0));
#906=DIRECTION('',(0.0,0.0,1.0));
#907=AXIS2_PLACEMENT_3D('',#904,#905,#906);
#908=CYLINDRICAL_SURFACE('',#907,1.400000000000000);
#909=CARTESIAN_POINT('',(-6.839999999999991,0.0,6.400000000000000));
#910=VERTEX_POINT('',#909);
#911=CARTESIAN_POINT('',(-8.840000000000018,0.0,6.400000000000000));
#912=DIRECTION('',(1.0,0.0,0.0));
#913=VECTOR('',#912,2.000000000000027);
#914=LINE('',#911,#913);
#915=EDGE_CURVE('',#884,#910,#914,.T.);
#916=ORIENTED_EDGE('',*,*,#915,.F.);
#917=CARTESIAN_POINT('',(-8.840000000000007,0.0,5.0));
#918=DIRECTION('',(-1.0,0.0,0.0));
#919=DIRECTION('',(0.0,0.0,1.0));
#920=AXIS2_PLACEMENT_3D('',#917,#918,#919);
#921=CIRCLE('',#920,1.400000000000000);
#922=EDGE_CURVE('',#886,#884,#921,.T.);
#923=ORIENTED_EDGE('',*,*,#922,.F.);
#924=CARTESIAN_POINT('',(-6.839999999999991,-1.714449E-016,3.600000000000000));
#925=VERTEX_POINT('',#924);
#926=CARTESIAN_POINT('',(-8.840000000000007,-1.714449E-016,3.600000000000000));
#927=DIRECTION('',(1.0,0.0,0.0));
#928=VECTOR('',#927,2.000000000000016);
#929=LINE('',#926,#928);
#930=EDGE_CURVE('',#886,#925,#929,.T.);
#931=ORIENTED_EDGE('',*,*,#930,.T.);
#932=CARTESIAN_POINT('',(-6.839999999999991,0.0,5.0));
#933=DIRECTION('',(1.0,0.0,0.0));
#934=DIRECTION('',(0.0,0.0,1.0));
#935=AXIS2_PLACEMENT_3D('',#932,#933,#934);
#936=CIRCLE('',#935,1.400000000000000);
#937=EDGE_CURVE('',#910,#925,#936,.T.);
#938=ORIENTED_EDGE('',*,*,#937,.F.);
#939=EDGE_LOOP('',(#916,#923,#931,#938));
#940=FACE_OUTER_BOUND('',#939,.T.);
#941=ADVANCED_FACE('',(#940),#908,.T.);
#942=CARTESIAN_POINT('',(-6.739999999999990,0.0,5.0));
#943=DIRECTION('',(-1.0,0.0,0.0));
#944=DIRECTION('',(0.0,0.0,1.0));
#945=AXIS2_PLACEMENT_3D('',#942,#943,#944);
#946=CYLINDRICAL_SURFACE('',#945,1.400000000000000);
#947=ORIENTED_EDGE('',*,*,#915,.T.);
#948=CARTESIAN_POINT('',(-6.839999999999991,0.0,5.0));
#949=DIRECTION('',(1.0,0.0,0.0));
#950=DIRECTION('',(0.0,0.0,1.0));
#951=AXIS2_PLACEMENT_3D('',#948,#949,#950);
#952=CIRCLE('',#951,1.400000000000000);
#953=EDGE_CURVE('',#925,#910,#952,.T.);
#954=ORIENTED_EDGE('',*,*,#953,.F.);
#955=ORIENTED_EDGE('',*,*,#930,.F.);
#956=ORIENTED_EDGE('',*,*,#899,.F.);
#957=EDGE_LOOP('',(#947,#954,#955,#956));
#958=FACE_OUTER_BOUND('',#957,.T.);
#959=ADVANCED_FACE('',(#958),#946,.T.);
#960=CARTESIAN_POINT('',(-6.839999999999991,-1.540000000000000,6.540000000000004));
#961=DIRECTION('',(1.0,0.0,0.0));
#962=DIRECTION('',(0.0,0.0,-1.0));
#963=AXIS2_PLACEMENT_3D('',#960,#961,#962);
#964=PLANE('',#963);
#965=ORIENTED_EDGE('',*,*,#937,.T.);
#966=ORIENTED_EDGE('',*,*,#953,.T.);
#967=EDGE_LOOP('',(#965,#966));
#968=FACE_OUTER_BOUND('',#967,.T.);
#969=ADVANCED_FACE('',(#968),#964,.T.);
#970=CARTESIAN_POINT('',(-8.840000000000007,0.0,5.0));
#971=DIRECTION('',(0.0,0.0,1.0));
#972=DIRECTION('',(1.0,0.0,0.0));
#973=AXIS2_PLACEMENT_3D('',#970,#971,#972);
#974=SPHERICAL_SURFACE('',#973,1.400000000000000);
#975=ORIENTED_EDGE('',*,*,#892,.T.);
#976=ORIENTED_EDGE('',*,*,#922,.T.);
#977=EDGE_LOOP('',(#975,#976));
#978=FACE_OUTER_BOUND('',#977,.T.);
#979=ADVANCED_FACE('',(#978),#974,.T.);
#980=CLOSED_SHELL('',(#903,#941,#959,#969,#979));
#981=MANIFOLD_SOLID_BREP('3D1',#980);
#982=DRAUGHTING_PRE_DEFINED_COLOUR('yellow');
#983=SURFACE_STYLE_USAGE(.BOTH.,#984);
#984=SURFACE_SIDE_STYLE('NONE',(#985));
#985=SURFACE_STYLE_FILL_AREA(#986);
#986=FILL_AREA_STYLE('NONE',(#987));
#987=FILL_AREA_STYLE_COLOUR('NONE',#982);
#988=PRESENTATION_STYLE_ASSIGNMENT((#983));
#989=STYLED_ITEM('NONE',(#988),#981);
#990=ADVANCED_BREP_SHAPE_REPRESENTATION('ABSR1',(#558,#718,#876,#981),#28);
#991=SHAPE_REPRESENTATION_RELATIONSHIP('SRRPL1','',#990,#62);
ENDSEC;
END-ISO-10303-21;
