ISO-10303-21;
HEADER;
/****************************************************************
 * Generated by software with PDElib inside                    *
 * PDElib Version v51a, created Fri 09/10/2010                  *
 * ITI Transcendata (http://www.transcendata.com/)              *
 ****************************************************************/
FILE_DESCRIPTION((''),'2;1');
FILE_NAME('LED_BIVAR_H485CGDL.stp','2012-06-04T12:41:40',(''),(''),'Mechanical Desktop 2011','Mechanical Desktop 2011',', , ');
FILE_SCHEMA(('AUTOMOTIVE_DESIGN { 1 2 10303 214 1 1 1 1 }'));
ENDSEC;
DATA;
#10=(NAMED_UNIT(*)PLANE_ANGLE_UNIT()SI_UNIT($,.RADIAN.));
#11=DIMENSIONAL_EXPONENTS(0.0,0.0,0.0,0.0,0.0,0.0,0.0);
#12=PLANE_ANGLE_MEASURE_WITH_UNIT(PLANE_ANGLE_MEASURE(0.0174532925),#10);
#16=(CONVERSION_BASED_UNIT('DEGREE',#12)NAMED_UNIT(#11)PLANE_ANGLE_UNIT());
#20=(NAMED_UNIT(*)SI_UNIT($,.STERADIAN.)SOLID_ANGLE_UNIT());
#24=(LENGTH_UNIT()NAMED_UNIT(*)SI_UNIT(.MILLI.,.METRE.));
#26=UNCERTAINTY_MEASURE_WITH_UNIT(LENGTH_MEASURE(0.000001),#24,'DISTANCE_ACCURACY_VALUE','');
#28=(GEOMETRIC_REPRESENTATION_CONTEXT(3)GLOBAL_UNCERTAINTY_ASSIGNED_CONTEXT((#26))GLOBAL_UNIT_ASSIGNED_CONTEXT((#16,#20,#24))REPRESENTATION_CONTEXT('','3D'));
#29=APPLICATION_CONTEXT('automotive design');
#30=APPLICATION_PROTOCOL_DEFINITION('INTERNATIONAL_STANDARD','automotive_design',1998,#29);
#31=PRODUCT_CONTEXT('3D Mechanical Parts',#29,'mechanical');
#32=PRODUCT('Product','Product','',(#31));
#33=PRODUCT_RELATED_PRODUCT_CATEGORY('part',$,(#32));
#34=PRODUCT_CATEGORY('part',$);
#35=PERSON('1','Design','Joe',$,$,$);
#36=ORGANIZATION($,'None','None');
#37=PERSON_AND_ORGANIZATION(#35,#36);
#38=PERSON_AND_ORGANIZATION_ROLE('design_owner');
#39=APPLIED_PERSON_AND_ORGANIZATION_ASSIGNMENT(#37,#38,(#32));
#40=PRODUCT_DEFINITION_FORMATION_WITH_SPECIFIED_SOURCE('None','',#32,.BOUGHT.);
#41=PERSON('2','Creator','Joe',$,$,$);
#42=ORGANIZATION($,'None','None');
#43=PERSON_AND_ORGANIZATION(#41,#42);
#44=PERSON_AND_ORGANIZATION_ROLE('creator');
#45=APPLIED_PERSON_AND_ORGANIZATION_ASSIGNMENT(#43,#44,(#40));
#46=PERSON('3','Supplier','Joe',$,$,$);
#47=ORGANIZATION($,'None','None');
#48=PERSON_AND_ORGANIZATION(#46,#47);
#49=PERSON_AND_ORGANIZATION_ROLE('design_supplier');
#50=APPLIED_PERSON_AND_ORGANIZATION_ASSIGNMENT(#48,#49,(#40));
#51=PRODUCT_DEFINITION_CONTEXT('part definition',#29,'design');
#52=PRODUCT_DEFINITION('None','',#40,#51);
#53=PERSON('4','Creator','Joe',$,$,$);
#54=ORGANIZATION($,'None','None');
#55=PERSON_AND_ORGANIZATION(#53,#54);
#56=PERSON_AND_ORGANIZATION_ROLE('creator');
#57=APPLIED_PERSON_AND_ORGANIZATION_ASSIGNMENT(#55,#56,(#52));
#58=CARTESIAN_POINT('NONE',(0.0,0.0,0.0));
#59=DIRECTION('NONE',(0.0,0.0,1.0));
#60=DIRECTION('NONE',(1.0,0.0,0.0));
#61=AXIS2_PLACEMENT_3D('NONE',#58,#59,#60);
#62=SHAPE_REPRESENTATION('SR1',(#61),#28);
#63=PRODUCT_DEFINITION_SHAPE('PDS1','Test Part',#52);
#64=SHAPE_DEFINITION_REPRESENTATION(#63,#62);
#65=CARTESIAN_POINT('',(-9.089999999999975,2.557954E-013,1.8542000000002));
#66=DIRECTION('',(0.0,0.0,1.0));
#67=DIRECTION('',(1.0,0.0,0.0));
#68=AXIS2_PLACEMENT_3D('',#65,#66,#67);
#69=SPHERICAL_SURFACE('',#68,0.9);
#70=CARTESIAN_POINT('',(-9.089999999999975,2.557954E-013,2.7542000000002));
#71=VERTEX_POINT('',#70);
#72=CARTESIAN_POINT('',(-9.089999999999975,2.557954E-013,0.954200000000199));
#73=VERTEX_POINT('',#72);
#74=CARTESIAN_POINT('',(-9.089999999999975,2.557954E-013,1.8542000000002));
#75=DIRECTION('',(0.0,1.0,0.0));
#76=DIRECTION('',(1.0,0.0,0.0));
#77=AXIS2_PLACEMENT_3D('',#74,#75,#76);
#78=CIRCLE('',#77,0.9);
#79=EDGE_CURVE('',#71,#73,#78,.T.);
#80=ORIENTED_EDGE('',*,*,#79,.F.);
#81=CARTESIAN_POINT('',(-9.089999999999975,2.557954E-013,1.8542000000002));
#82=DIRECTION('',(0.0,-1.0,0.0));
#83=DIRECTION('',(-1.0,0.0,0.0));
#84=AXIS2_PLACEMENT_3D('',#81,#82,#83);
#85=CIRCLE('',#84,0.9);
#86=EDGE_CURVE('',#71,#73,#85,.T.);
#87=ORIENTED_EDGE('',*,*,#86,.T.);
#88=EDGE_LOOP('',(#80,#87));
#89=FACE_OUTER_BOUND('',#88,.T.);
#90=ADVANCED_FACE('',(#89),#69,.T.);
#91=CARTESIAN_POINT('',(-9.089999999999975,2.557954E-013,1.8542000000002));
#92=DIRECTION('',(0.0,0.0,1.0));
#93=DIRECTION('',(1.0,0.0,0.0));
#94=AXIS2_PLACEMENT_3D('',#91,#92,#93);
#95=SPHERICAL_SURFACE('',#94,0.9);
#96=ORIENTED_EDGE('',*,*,#79,.T.);
#97=ORIENTED_EDGE('',*,*,#86,.F.);
#98=EDGE_LOOP('',(#96,#97));
#99=FACE_OUTER_BOUND('',#98,.T.);
#100=ADVANCED_FACE('',(#99),#95,.T.);
#101=CLOSED_SHELL('',(#90,#100));
#102=MANIFOLD_SOLID_BREP('C2B',#101);
#103=DRAUGHTING_PRE_DEFINED_COLOUR('green');
#104=SURFACE_STYLE_USAGE(.BOTH.,#105);
#105=SURFACE_SIDE_STYLE('NONE',(#106));
#106=SURFACE_STYLE_FILL_AREA(#107);
#107=FILL_AREA_STYLE('NONE',(#108));
#108=FILL_AREA_STYLE_COLOUR('NONE',#103);
#109=PRESENTATION_STYLE_ASSIGNMENT((#104));
#110=STYLED_ITEM('NONE',(#109),#102);
#111=MECHANICAL_DESIGN_GEOMETRIC_PRESENTATION_REPRESENTATION('NONE',(#110,#151,#190,#229,#325,#414,#503,#592,#681,#770,#859,#948,#1101,#1190,#1343,#1432,#1585,#1674,#1827,#1916,#2216),#28);
#112=PRESENTATION_LAYER_ASSIGNMENT('0','None',(#102,#150,#189,#228,#317,#413,#502,#591,#680,#769,#858,#947,#1100,#1189,#1342,#1431,#1584,#1673,#1826,#1915,#2208));
#113=CARTESIAN_POINT('',(-9.089999999999975,2.557954E-013,4.3942000000002));
#114=DIRECTION('',(0.0,0.0,1.0));
#115=DIRECTION('',(1.0,0.0,0.0));
#116=AXIS2_PLACEMENT_3D('',#113,#114,#115);
#117=SPHERICAL_SURFACE('',#116,0.9);
#118=CARTESIAN_POINT('',(-9.089999999999975,2.557954E-013,5.2942000000002));
#119=VERTEX_POINT('',#118);
#120=CARTESIAN_POINT('',(-9.089999999999975,2.557954E-013,3.494200000000199));
#121=VERTEX_POINT('',#120);
#122=CARTESIAN_POINT('',(-9.089999999999975,2.557954E-013,4.3942000000002));
#123=DIRECTION('',(0.0,1.0,0.0));
#124=DIRECTION('',(1.0,0.0,0.0));
#125=AXIS2_PLACEMENT_3D('',#122,#123,#124);
#126=CIRCLE('',#125,0.9);
#127=EDGE_CURVE('',#119,#121,#126,.T.);
#128=ORIENTED_EDGE('',*,*,#127,.F.);
#129=CARTESIAN_POINT('',(-9.089999999999975,2.557954E-013,4.3942000000002));
#130=DIRECTION('',(0.0,-1.0,0.0));
#131=DIRECTION('',(-1.0,0.0,0.0));
#132=AXIS2_PLACEMENT_3D('',#129,#130,#131);
#133=CIRCLE('',#132,0.9);
#134=EDGE_CURVE('',#119,#121,#133,.T.);
#135=ORIENTED_EDGE('',*,*,#134,.T.);
#136=EDGE_LOOP('',(#128,#135));
#137=FACE_OUTER_BOUND('',#136,.T.);
#138=ADVANCED_FACE('',(#137),#117,.T.);
#139=CARTESIAN_POINT('',(-9.089999999999975,2.557954E-013,4.3942000000002));
#140=DIRECTION('',(0.0,0.0,1.0));
#141=DIRECTION('',(1.0,0.0,0.0));
#142=AXIS2_PLACEMENT_3D('',#139,#140,#141);
#143=SPHERICAL_SURFACE('',#142,0.9);
#144=ORIENTED_EDGE('',*,*,#127,.T.);
#145=ORIENTED_EDGE('',*,*,#134,.F.);
#146=EDGE_LOOP('',(#144,#145));
#147=FACE_OUTER_BOUND('',#146,.T.);
#148=ADVANCED_FACE('',(#147),#143,.T.);
#149=CLOSED_SHELL('',(#138,#148));
#150=MANIFOLD_SOLID_BREP('C27',#149);
#151=STYLED_ITEM('NONE',(#109),#150);
#152=CARTESIAN_POINT('',(-9.089999999999975,2.557954E-013,6.9342000000002));
#153=DIRECTION('',(0.0,0.0,1.0));
#154=DIRECTION('',(1.0,0.0,0.0));
#155=AXIS2_PLACEMENT_3D('',#152,#153,#154);
#156=SPHERICAL_SURFACE('',#155,0.9);
#157=CARTESIAN_POINT('',(-9.089999999999975,2.557954E-013,7.8342000000002));
#158=VERTEX_POINT('',#157);
#159=CARTESIAN_POINT('',(-9.089999999999975,2.557954E-013,6.034200000000199));
#160=VERTEX_POINT('',#159);
#161=CARTESIAN_POINT('',(-9.089999999999975,2.557954E-013,6.9342000000002));
#162=DIRECTION('',(0.0,1.0,0.0));
#163=DIRECTION('',(1.0,0.0,0.0));
#164=AXIS2_PLACEMENT_3D('',#161,#162,#163);
#165=CIRCLE('',#164,0.9);
#166=EDGE_CURVE('',#158,#160,#165,.T.);
#167=ORIENTED_EDGE('',*,*,#166,.F.);
#168=CARTESIAN_POINT('',(-9.089999999999975,2.557954E-013,6.9342000000002));
#169=DIRECTION('',(0.0,-1.0,0.0));
#170=DIRECTION('',(-1.0,0.0,0.0));
#171=AXIS2_PLACEMENT_3D('',#168,#169,#170);
#172=CIRCLE('',#171,0.9);
#173=EDGE_CURVE('',#158,#160,#172,.T.);
#174=ORIENTED_EDGE('',*,*,#173,.T.);
#175=EDGE_LOOP('',(#167,#174));
#176=FACE_OUTER_BOUND('',#175,.T.);
#177=ADVANCED_FACE('',(#176),#156,.T.);
#178=CARTESIAN_POINT('',(-9.089999999999975,2.557954E-013,6.9342000000002));
#179=DIRECTION('',(0.0,0.0,1.0));
#180=DIRECTION('',(1.0,0.0,0.0));
#181=AXIS2_PLACEMENT_3D('',#178,#179,#180);
#182=SPHERICAL_SURFACE('',#181,0.9);
#183=ORIENTED_EDGE('',*,*,#166,.T.);
#184=ORIENTED_EDGE('',*,*,#173,.F.);
#185=EDGE_LOOP('',(#183,#184));
#186=FACE_OUTER_BOUND('',#185,.T.);
#187=ADVANCED_FACE('',(#186),#182,.T.);
#188=CLOSED_SHELL('',(#177,#187));
#189=MANIFOLD_SOLID_BREP('C23',#188);
#190=STYLED_ITEM('NONE',(#109),#189);
#191=CARTESIAN_POINT('',(-9.089999999999975,2.557954E-013,9.474200000000199));
#192=DIRECTION('',(0.0,0.0,1.0));
#193=DIRECTION('',(1.0,0.0,0.0));
#194=AXIS2_PLACEMENT_3D('',#191,#192,#193);
#195=SPHERICAL_SURFACE('',#194,0.9);
#196=CARTESIAN_POINT('',(-9.089999999999975,2.557954E-013,10.374200000000199));
#197=VERTEX_POINT('',#196);
#198=CARTESIAN_POINT('',(-9.089999999999975,2.557954E-013,8.574200000000198));
#199=VERTEX_POINT('',#198);
#200=CARTESIAN_POINT('',(-9.089999999999975,2.557954E-013,9.474200000000199));
#201=DIRECTION('',(0.0,1.0,0.0));
#202=DIRECTION('',(1.0,0.0,0.0));
#203=AXIS2_PLACEMENT_3D('',#200,#201,#202);
#204=CIRCLE('',#203,0.9);
#205=EDGE_CURVE('',#197,#199,#204,.T.);
#206=ORIENTED_EDGE('',*,*,#205,.F.);
#207=CARTESIAN_POINT('',(-9.089999999999975,2.557954E-013,9.474200000000199));
#208=DIRECTION('',(0.0,-1.0,0.0));
#209=DIRECTION('',(-1.0,0.0,0.0));
#210=AXIS2_PLACEMENT_3D('',#207,#208,#209);
#211=CIRCLE('',#210,0.9);
#212=EDGE_CURVE('',#197,#199,#211,.T.);
#213=ORIENTED_EDGE('',*,*,#212,.T.);
#214=EDGE_LOOP('',(#206,#213));
#215=FACE_OUTER_BOUND('',#214,.T.);
#216=ADVANCED_FACE('',(#215),#195,.T.);
#217=CARTESIAN_POINT('',(-9.089999999999975,2.557954E-013,9.474200000000199));
#218=DIRECTION('',(0.0,0.0,1.0));
#219=DIRECTION('',(1.0,0.0,0.0));
#220=AXIS2_PLACEMENT_3D('',#217,#218,#219);
#221=SPHERICAL_SURFACE('',#220,0.9);
#222=ORIENTED_EDGE('',*,*,#205,.T.);
#223=ORIENTED_EDGE('',*,*,#212,.F.);
#224=EDGE_LOOP('',(#222,#223));
#225=FACE_OUTER_BOUND('',#224,.T.);
#226=ADVANCED_FACE('',(#225),#221,.T.);
#227=CLOSED_SHELL('',(#216,#226));
#228=MANIFOLD_SOLID_BREP('C1F',#227);
#229=STYLED_ITEM('NONE',(#109),#228);
#230=CARTESIAN_POINT('',(3.810000000000002,1.27000000000001,0.0));
#231=DIRECTION('',(0.0,0.0,-1.0));
#232=DIRECTION('',(-1.0,0.0,0.0));
#233=AXIS2_PLACEMENT_3D('',#230,#231,#232);
#234=CYLINDRICAL_SURFACE('',#233,0.4);
#235=CARTESIAN_POINT('',(3.410000000000025,1.27000000000001,-3.2));
#236=VERTEX_POINT('',#235);
#237=CARTESIAN_POINT('',(3.410000000000025,1.27000000000001,8.881784E-017));
#238=VERTEX_POINT('',#237);
#239=CARTESIAN_POINT('',(3.410000000000002,1.27000000000001,-3.2));
#240=DIRECTION('',(0.0,0.0,1.0));
#241=VECTOR('',#240,3.2);
#242=LINE('',#239,#241);
#243=EDGE_CURVE('',#236,#238,#242,.T.);
#244=ORIENTED_EDGE('',*,*,#243,.F.);
#245=CARTESIAN_POINT('',(4.210000000000003,1.27000000000001,-3.2));
#246=VERTEX_POINT('',#245);
#247=CARTESIAN_POINT('',(3.810000000000002,1.27000000000001,-3.2));
#248=DIRECTION('',(0.0,0.0,1.0));
#249=DIRECTION('',(-1.0,0.0,0.0));
#250=AXIS2_PLACEMENT_3D('',#247,#248,#249);
#251=CIRCLE('',#250,0.4);
#252=EDGE_CURVE('',#236,#246,#251,.T.);
#253=ORIENTED_EDGE('',*,*,#252,.T.);
#254=CARTESIAN_POINT('',(4.210000000000003,1.27000000000001,8.881784E-017));
#255=VERTEX_POINT('',#254);
#256=CARTESIAN_POINT('',(4.210000000000003,1.27000000000001,-3.2));
#257=DIRECTION('',(0.0,0.0,1.0));
#258=VECTOR('',#257,3.2);
#259=LINE('',#256,#258);
#260=EDGE_CURVE('',#246,#255,#259,.T.);
#261=ORIENTED_EDGE('',*,*,#260,.T.);
#262=CARTESIAN_POINT('',(3.810000000000002,1.27000000000001,0.0));
#263=DIRECTION('',(0.0,0.0,-1.0));
#264=DIRECTION('',(-1.0,0.0,0.0));
#265=AXIS2_PLACEMENT_3D('',#262,#263,#264);
#266=CIRCLE('',#265,0.4);
#267=EDGE_CURVE('',#255,#238,#266,.T.);
#268=ORIENTED_EDGE('',*,*,#267,.T.);
#269=EDGE_LOOP('',(#244,#253,#261,#268));
#270=FACE_OUTER_BOUND('',#269,.T.);
#271=ADVANCED_FACE('',(#270),#234,.T.);
#272=CARTESIAN_POINT('',(3.810000000000002,1.27000000000001,0.0));
#273=DIRECTION('',(0.0,0.0,-1.0));
#274=DIRECTION('',(-1.0,0.0,0.0));
#275=AXIS2_PLACEMENT_3D('',#272,#273,#274);
#276=CYLINDRICAL_SURFACE('',#275,0.4);
#277=ORIENTED_EDGE('',*,*,#243,.T.);
#278=CARTESIAN_POINT('',(3.810000000000002,1.27000000000001,0.0));
#279=DIRECTION('',(0.0,0.0,-1.0));
#280=DIRECTION('',(-1.0,0.0,0.0));
#281=AXIS2_PLACEMENT_3D('',#278,#279,#280);
#282=CIRCLE('',#281,0.4);
#283=EDGE_CURVE('',#238,#255,#282,.T.);
#284=ORIENTED_EDGE('',*,*,#283,.T.);
#285=ORIENTED_EDGE('',*,*,#260,.F.);
#286=CARTESIAN_POINT('',(3.810000000000002,1.27000000000001,-3.2));
#287=DIRECTION('',(0.0,0.0,1.0));
#288=DIRECTION('',(-1.0,0.0,0.0));
#289=AXIS2_PLACEMENT_3D('',#286,#287,#288);
#290=CIRCLE('',#289,0.4);
#291=EDGE_CURVE('',#246,#236,#290,.T.);
#292=ORIENTED_EDGE('',*,*,#291,.T.);
#293=EDGE_LOOP('',(#277,#284,#285,#292));
#294=FACE_OUTER_BOUND('',#293,.T.);
#295=ADVANCED_FACE('',(#294),#276,.T.);
#296=CARTESIAN_POINT('',(3.810000000000002,1.27000000000001,-3.2));
#297=DIRECTION('',(0.0,0.0,-1.0));
#298=DIRECTION('',(-1.0,0.0,0.0));
#299=AXIS2_PLACEMENT_3D('',#296,#297,#298);
#300=PLANE('',#299);
#301=ORIENTED_EDGE('',*,*,#252,.F.);
#302=ORIENTED_EDGE('',*,*,#291,.F.);
#303=EDGE_LOOP('',(#301,#302));
#304=FACE_OUTER_BOUND('',#303,.T.);
#305=ADVANCED_FACE('',(#304),#300,.T.);
#306=CARTESIAN_POINT('',(3.810000000000002,1.27000000000001,0.0));
#307=DIRECTION('',(0.0,0.0,-1.0));
#308=DIRECTION('',(-1.0,0.0,0.0));
#309=AXIS2_PLACEMENT_3D('',#306,#307,#308);
#310=PLANE('',#309);
#311=ORIENTED_EDGE('',*,*,#283,.F.);
#312=ORIENTED_EDGE('',*,*,#267,.F.);
#313=EDGE_LOOP('',(#311,#312));
#314=FACE_OUTER_BOUND('',#313,.T.);
#315=ADVANCED_FACE('',(#314),#310,.F.);
#316=CLOSED_SHELL('',(#271,#295,#305,#315));
#317=MANIFOLD_SOLID_BREP('B98',#316);
#318=COLOUR_RGB('9',0.75,0.75,0.75);
#319=SURFACE_STYLE_USAGE(.BOTH.,#320);
#320=SURFACE_SIDE_STYLE('NONE',(#321));
#321=SURFACE_STYLE_FILL_AREA(#322);
#322=FILL_AREA_STYLE('NONE',(#323));
#323=FILL_AREA_STYLE_COLOUR('NONE',#318);
#324=PRESENTATION_STYLE_ASSIGNMENT((#319));
#325=STYLED_ITEM('NONE',(#324),#317);
#326=CARTESIAN_POINT('',(1.270000000000039,1.27000000000001,0.0));
#327=DIRECTION('',(0.0,0.0,-1.0));
#328=DIRECTION('',(-1.0,0.0,0.0));
#329=AXIS2_PLACEMENT_3D('',#326,#327,#328);
#330=CYLINDRICAL_SURFACE('',#329,0.4);
#331=CARTESIAN_POINT('',(0.870000000000061,1.27000000000001,-3.2));
#332=VERTEX_POINT('',#331);
#333=CARTESIAN_POINT('',(0.870000000000061,1.27000000000001,8.881784E-017));
#334=VERTEX_POINT('',#333);
#335=CARTESIAN_POINT('',(0.870000000000039,1.27000000000001,-3.2));
#336=DIRECTION('',(0.0,0.0,1.0));
#337=VECTOR('',#336,3.2);
#338=LINE('',#335,#337);
#339=EDGE_CURVE('',#332,#334,#338,.T.);
#340=ORIENTED_EDGE('',*,*,#339,.F.);
#341=CARTESIAN_POINT('',(1.670000000000039,1.27000000000001,-3.2));
#342=VERTEX_POINT('',#341);
#343=CARTESIAN_POINT('',(1.270000000000039,1.27000000000001,-3.2));
#344=DIRECTION('',(0.0,0.0,1.0));
#345=DIRECTION('',(-1.0,0.0,0.0));
#346=AXIS2_PLACEMENT_3D('',#343,#344,#345);
#347=CIRCLE('',#346,0.4);
#348=EDGE_CURVE('',#332,#342,#347,.T.);
#349=ORIENTED_EDGE('',*,*,#348,.T.);
#350=CARTESIAN_POINT('',(1.670000000000039,1.27000000000001,8.881784E-017));
#351=VERTEX_POINT('',#350);
#352=CARTESIAN_POINT('',(1.670000000000039,1.27000000000001,-3.2));
#353=DIRECTION('',(0.0,0.0,1.0));
#354=VECTOR('',#353,3.2);
#355=LINE('',#352,#354);
#356=EDGE_CURVE('',#342,#351,#355,.T.);
#357=ORIENTED_EDGE('',*,*,#356,.T.);
#358=CARTESIAN_POINT('',(1.270000000000039,1.27000000000001,0.0));
#359=DIRECTION('',(0.0,0.0,-1.0));
#360=DIRECTION('',(-1.0,0.0,0.0));
#361=AXIS2_PLACEMENT_3D('',#358,#359,#360);
#362=CIRCLE('',#361,0.4);
#363=EDGE_CURVE('',#351,#334,#362,.T.);
#364=ORIENTED_EDGE('',*,*,#363,.T.);
#365=EDGE_LOOP('',(#340,#349,#357,#364));
#366=FACE_OUTER_BOUND('',#365,.T.);
#367=ADVANCED_FACE('',(#366),#330,.T.);
#368=CARTESIAN_POINT('',(1.270000000000039,1.27000000000001,0.0));
#369=DIRECTION('',(0.0,0.0,-1.0));
#370=DIRECTION('',(-1.0,0.0,0.0));
#371=AXIS2_PLACEMENT_3D('',#368,#369,#370);
#372=CYLINDRICAL_SURFACE('',#371,0.4);
#373=ORIENTED_EDGE('',*,*,#339,.T.);
#374=CARTESIAN_POINT('',(1.270000000000039,1.27000000000001,0.0));
#375=DIRECTION('',(0.0,0.0,-1.0));
#376=DIRECTION('',(-1.0,0.0,0.0));
#377=AXIS2_PLACEMENT_3D('',#374,#375,#376);
#378=CIRCLE('',#377,0.4);
#379=EDGE_CURVE('',#334,#351,#378,.T.);
#380=ORIENTED_EDGE('',*,*,#379,.T.);
#381=ORIENTED_EDGE('',*,*,#356,.F.);
#382=CARTESIAN_POINT('',(1.270000000000039,1.27000000000001,-3.2));
#383=DIRECTION('',(0.0,0.0,1.0));
#384=DIRECTION('',(-1.0,0.0,0.0));
#385=AXIS2_PLACEMENT_3D('',#382,#383,#384);
#386=CIRCLE('',#385,0.4);
#387=EDGE_CURVE('',#342,#332,#386,.T.);
#388=ORIENTED_EDGE('',*,*,#387,.T.);
#389=EDGE_LOOP('',(#373,#380,#381,#388));
#390=FACE_OUTER_BOUND('',#389,.T.);
#391=ADVANCED_FACE('',(#390),#372,.T.);
#392=CARTESIAN_POINT('',(1.270000000000039,1.27000000000001,-3.2));
#393=DIRECTION('',(0.0,0.0,-1.0));
#394=DIRECTION('',(-1.0,0.0,0.0));
#395=AXIS2_PLACEMENT_3D('',#392,#393,#394);
#396=PLANE('',#395);
#397=ORIENTED_EDGE('',*,*,#348,.F.);
#398=ORIENTED_EDGE('',*,*,#387,.F.);
#399=EDGE_LOOP('',(#397,#398));
#400=FACE_OUTER_BOUND('',#399,.T.);
#401=ADVANCED_FACE('',(#400),#396,.T.);
#402=CARTESIAN_POINT('',(1.270000000000039,1.27000000000001,0.0));
#403=DIRECTION('',(0.0,0.0,-1.0));
#404=DIRECTION('',(-1.0,0.0,0.0));
#405=AXIS2_PLACEMENT_3D('',#402,#403,#404);
#406=PLANE('',#405);
#407=ORIENTED_EDGE('',*,*,#379,.F.);
#408=ORIENTED_EDGE('',*,*,#363,.F.);
#409=EDGE_LOOP('',(#407,#408));
#410=FACE_OUTER_BOUND('',#409,.T.);
#411=ADVANCED_FACE('',(#410),#406,.F.);
#412=CLOSED_SHELL('',(#367,#391,#401,#411));
#413=MANIFOLD_SOLID_BREP('B97',#412);
#414=STYLED_ITEM('NONE',(#324),#413);
#415=CARTESIAN_POINT('',(-1.269999999999982,1.27000000000001,0.0));
#416=DIRECTION('',(0.0,0.0,-1.0));
#417=DIRECTION('',(-1.0,0.0,0.0));
#418=AXIS2_PLACEMENT_3D('',#415,#416,#417);
#419=CYLINDRICAL_SURFACE('',#418,0.4);
#420=CARTESIAN_POINT('',(-1.669999999999959,1.27000000000001,-3.2));
#421=VERTEX_POINT('',#420);
#422=CARTESIAN_POINT('',(-1.669999999999959,1.27000000000001,8.881784E-017));
#423=VERTEX_POINT('',#422);
#424=CARTESIAN_POINT('',(-1.669999999999982,1.27000000000001,-3.2));
#425=DIRECTION('',(0.0,0.0,1.0));
#426=VECTOR('',#425,3.2);
#427=LINE('',#424,#426);
#428=EDGE_CURVE('',#421,#423,#427,.T.);
#429=ORIENTED_EDGE('',*,*,#428,.F.);
#430=CARTESIAN_POINT('',(-0.869999999999982,1.27000000000001,-3.2));
#431=VERTEX_POINT('',#430);
#432=CARTESIAN_POINT('',(-1.269999999999982,1.27000000000001,-3.2));
#433=DIRECTION('',(0.0,0.0,1.0));
#434=DIRECTION('',(-1.0,0.0,0.0));
#435=AXIS2_PLACEMENT_3D('',#432,#433,#434);
#436=CIRCLE('',#435,0.4);
#437=EDGE_CURVE('',#421,#431,#436,.T.);
#438=ORIENTED_EDGE('',*,*,#437,.T.);
#439=CARTESIAN_POINT('',(-0.869999999999982,1.27000000000001,8.881784E-017));
#440=VERTEX_POINT('',#439);
#441=CARTESIAN_POINT('',(-0.869999999999982,1.27000000000001,-3.2));
#442=DIRECTION('',(0.0,0.0,1.0));
#443=VECTOR('',#442,3.2);
#444=LINE('',#441,#443);
#445=EDGE_CURVE('',#431,#440,#444,.T.);
#446=ORIENTED_EDGE('',*,*,#445,.T.);
#447=CARTESIAN_POINT('',(-1.269999999999982,1.27000000000001,0.0));
#448=DIRECTION('',(0.0,0.0,-1.0));
#449=DIRECTION('',(-1.0,0.0,0.0));
#450=AXIS2_PLACEMENT_3D('',#447,#448,#449);
#451=CIRCLE('',#450,0.4);
#452=EDGE_CURVE('',#440,#423,#451,.T.);
#453=ORIENTED_EDGE('',*,*,#452,.T.);
#454=EDGE_LOOP('',(#429,#438,#446,#453));
#455=FACE_OUTER_BOUND('',#454,.T.);
#456=ADVANCED_FACE('',(#455),#419,.T.);
#457=CARTESIAN_POINT('',(-1.269999999999982,1.27000000000001,0.0));
#458=DIRECTION('',(0.0,0.0,-1.0));
#459=DIRECTION('',(-1.0,0.0,0.0));
#460=AXIS2_PLACEMENT_3D('',#457,#458,#459);
#461=CYLINDRICAL_SURFACE('',#460,0.4);
#462=ORIENTED_EDGE('',*,*,#428,.T.);
#463=CARTESIAN_POINT('',(-1.269999999999982,1.27000000000001,0.0));
#464=DIRECTION('',(0.0,0.0,-1.0));
#465=DIRECTION('',(-1.0,0.0,0.0));
#466=AXIS2_PLACEMENT_3D('',#463,#464,#465);
#467=CIRCLE('',#466,0.4);
#468=EDGE_CURVE('',#423,#440,#467,.T.);
#469=ORIENTED_EDGE('',*,*,#468,.T.);
#470=ORIENTED_EDGE('',*,*,#445,.F.);
#471=CARTESIAN_POINT('',(-1.269999999999982,1.27000000000001,-3.2));
#472=DIRECTION('',(0.0,0.0,1.0));
#473=DIRECTION('',(-1.0,0.0,0.0));
#474=AXIS2_PLACEMENT_3D('',#471,#472,#473);
#475=CIRCLE('',#474,0.4);
#476=EDGE_CURVE('',#431,#421,#475,.T.);
#477=ORIENTED_EDGE('',*,*,#476,.T.);
#478=EDGE_LOOP('',(#462,#469,#470,#477));
#479=FACE_OUTER_BOUND('',#478,.T.);
#480=ADVANCED_FACE('',(#479),#461,.T.);
#481=CARTESIAN_POINT('',(-1.269999999999982,1.27000000000001,-3.2));
#482=DIRECTION('',(0.0,0.0,-1.0));
#483=DIRECTION('',(-1.0,0.0,0.0));
#484=AXIS2_PLACEMENT_3D('',#481,#482,#483);
#485=PLANE('',#484);
#486=ORIENTED_EDGE('',*,*,#437,.F.);
#487=ORIENTED_EDGE('',*,*,#476,.F.);
#488=EDGE_LOOP('',(#486,#487));
#489=FACE_OUTER_BOUND('',#488,.T.);
#490=ADVANCED_FACE('',(#489),#485,.T.);
#491=CARTESIAN_POINT('',(-1.269999999999982,1.27000000000001,0.0));
#492=DIRECTION('',(0.0,0.0,-1.0));
#493=DIRECTION('',(-1.0,0.0,0.0));
#494=AXIS2_PLACEMENT_3D('',#491,#492,#493);
#495=PLANE('',#494);
#496=ORIENTED_EDGE('',*,*,#468,.F.);
#497=ORIENTED_EDGE('',*,*,#452,.F.);
#498=EDGE_LOOP('',(#496,#497));
#499=FACE_OUTER_BOUND('',#498,.T.);
#500=ADVANCED_FACE('',(#499),#495,.F.);
#501=CLOSED_SHELL('',(#456,#480,#490,#500));
#502=MANIFOLD_SOLID_BREP('B96',#501);
#503=STYLED_ITEM('NONE',(#324),#502);
#504=CARTESIAN_POINT('',(3.810000000000002,-1.27000000000001,0.0));
#505=DIRECTION('',(0.0,0.0,-1.0));
#506=DIRECTION('',(-1.0,0.0,0.0));
#507=AXIS2_PLACEMENT_3D('',#504,#505,#506);
#508=CYLINDRICAL_SURFACE('',#507,0.4);
#509=CARTESIAN_POINT('',(3.410000000000025,-1.27000000000001,-3.2));
#510=VERTEX_POINT('',#509);
#511=CARTESIAN_POINT('',(3.410000000000025,-1.27000000000001,8.881784E-017));
#512=VERTEX_POINT('',#511);
#513=CARTESIAN_POINT('',(3.410000000000002,-1.27000000000001,-3.2));
#514=DIRECTION('',(0.0,0.0,1.0));
#515=VECTOR('',#514,3.2);
#516=LINE('',#513,#515);
#517=EDGE_CURVE('',#510,#512,#516,.T.);
#518=ORIENTED_EDGE('',*,*,#517,.F.);
#519=CARTESIAN_POINT('',(4.210000000000003,-1.27000000000001,-3.2));
#520=VERTEX_POINT('',#519);
#521=CARTESIAN_POINT('',(3.810000000000002,-1.27000000000001,-3.2));
#522=DIRECTION('',(0.0,0.0,1.0));
#523=DIRECTION('',(-1.0,0.0,0.0));
#524=AXIS2_PLACEMENT_3D('',#521,#522,#523);
#525=CIRCLE('',#524,0.4);
#526=EDGE_CURVE('',#510,#520,#525,.T.);
#527=ORIENTED_EDGE('',*,*,#526,.T.);
#528=CARTESIAN_POINT('',(4.210000000000003,-1.27000000000001,8.881784E-017));
#529=VERTEX_POINT('',#528);
#530=CARTESIAN_POINT('',(4.210000000000003,-1.27000000000001,-3.2));
#531=DIRECTION('',(0.0,0.0,1.0));
#532=VECTOR('',#531,3.2);
#533=LINE('',#530,#532);
#534=EDGE_CURVE('',#520,#529,#533,.T.);
#535=ORIENTED_EDGE('',*,*,#534,.T.);
#536=CARTESIAN_POINT('',(3.810000000000002,-1.27000000000001,0.0));
#537=DIRECTION('',(0.0,0.0,-1.0));
#538=DIRECTION('',(-1.0,0.0,0.0));
#539=AXIS2_PLACEMENT_3D('',#536,#537,#538);
#540=CIRCLE('',#539,0.4);
#541=EDGE_CURVE('',#529,#512,#540,.T.);
#542=ORIENTED_EDGE('',*,*,#541,.T.);
#543=EDGE_LOOP('',(#518,#527,#535,#542));
#544=FACE_OUTER_BOUND('',#543,.T.);
#545=ADVANCED_FACE('',(#544),#508,.T.);
#546=CARTESIAN_POINT('',(3.810000000000002,-1.27000000000001,0.0));
#547=DIRECTION('',(0.0,0.0,-1.0));
#548=DIRECTION('',(-1.0,0.0,0.0));
#549=AXIS2_PLACEMENT_3D('',#546,#547,#548);
#550=CYLINDRICAL_SURFACE('',#549,0.4);
#551=ORIENTED_EDGE('',*,*,#517,.T.);
#552=CARTESIAN_POINT('',(3.810000000000002,-1.27000000000001,0.0));
#553=DIRECTION('',(0.0,0.0,-1.0));
#554=DIRECTION('',(-1.0,0.0,0.0));
#555=AXIS2_PLACEMENT_3D('',#552,#553,#554);
#556=CIRCLE('',#555,0.4);
#557=EDGE_CURVE('',#512,#529,#556,.T.);
#558=ORIENTED_EDGE('',*,*,#557,.T.);
#559=ORIENTED_EDGE('',*,*,#534,.F.);
#560=CARTESIAN_POINT('',(3.810000000000002,-1.27000000000001,-3.2));
#561=DIRECTION('',(0.0,0.0,1.0));
#562=DIRECTION('',(-1.0,0.0,0.0));
#563=AXIS2_PLACEMENT_3D('',#560,#561,#562);
#564=CIRCLE('',#563,0.4);
#565=EDGE_CURVE('',#520,#510,#564,.T.);
#566=ORIENTED_EDGE('',*,*,#565,.T.);
#567=EDGE_LOOP('',(#551,#558,#559,#566));
#568=FACE_OUTER_BOUND('',#567,.T.);
#569=ADVANCED_FACE('',(#568),#550,.T.);
#570=CARTESIAN_POINT('',(3.810000000000002,-1.27000000000001,-3.2));
#571=DIRECTION('',(0.0,0.0,-1.0));
#572=DIRECTION('',(-1.0,0.0,0.0));
#573=AXIS2_PLACEMENT_3D('',#570,#571,#572);
#574=PLANE('',#573);
#575=ORIENTED_EDGE('',*,*,#526,.F.);
#576=ORIENTED_EDGE('',*,*,#565,.F.);
#577=EDGE_LOOP('',(#575,#576));
#578=FACE_OUTER_BOUND('',#577,.T.);
#579=ADVANCED_FACE('',(#578),#574,.T.);
#580=CARTESIAN_POINT('',(3.810000000000002,-1.27000000000001,0.0));
#581=DIRECTION('',(0.0,0.0,-1.0));
#582=DIRECTION('',(-1.0,0.0,0.0));
#583=AXIS2_PLACEMENT_3D('',#580,#581,#582);
#584=PLANE('',#583);
#585=ORIENTED_EDGE('',*,*,#557,.F.);
#586=ORIENTED_EDGE('',*,*,#541,.F.);
#587=EDGE_LOOP('',(#585,#586));
#588=FACE_OUTER_BOUND('',#587,.T.);
#589=ADVANCED_FACE('',(#588),#584,.F.);
#590=CLOSED_SHELL('',(#545,#569,#579,#589));
#591=MANIFOLD_SOLID_BREP('B95',#590);
#592=STYLED_ITEM('NONE',(#324),#591);
#593=CARTESIAN_POINT('',(1.270000000000039,-1.27000000000001,0.0));
#594=DIRECTION('',(0.0,0.0,-1.0));
#595=DIRECTION('',(-1.0,0.0,0.0));
#596=AXIS2_PLACEMENT_3D('',#593,#594,#595);
#597=CYLINDRICAL_SURFACE('',#596,0.4);
#598=CARTESIAN_POINT('',(0.870000000000061,-1.27000000000001,-3.2));
#599=VERTEX_POINT('',#598);
#600=CARTESIAN_POINT('',(0.870000000000061,-1.27000000000001,8.881784E-017));
#601=VERTEX_POINT('',#600);
#602=CARTESIAN_POINT('',(0.870000000000039,-1.27000000000001,-3.2));
#603=DIRECTION('',(0.0,0.0,1.0));
#604=VECTOR('',#603,3.2);
#605=LINE('',#602,#604);
#606=EDGE_CURVE('',#599,#601,#605,.T.);
#607=ORIENTED_EDGE('',*,*,#606,.F.);
#608=CARTESIAN_POINT('',(1.670000000000039,-1.27000000000001,-3.2));
#609=VERTEX_POINT('',#608);
#610=CARTESIAN_POINT('',(1.270000000000039,-1.27000000000001,-3.2));
#611=DIRECTION('',(0.0,0.0,1.0));
#612=DIRECTION('',(-1.0,0.0,0.0));
#613=AXIS2_PLACEMENT_3D('',#610,#611,#612);
#614=CIRCLE('',#613,0.4);
#615=EDGE_CURVE('',#599,#609,#614,.T.);
#616=ORIENTED_EDGE('',*,*,#615,.T.);
#617=CARTESIAN_POINT('',(1.670000000000039,-1.27000000000001,8.881784E-017));
#618=VERTEX_POINT('',#617);
#619=CARTESIAN_POINT('',(1.670000000000039,-1.27000000000001,-3.2));
#620=DIRECTION('',(0.0,0.0,1.0));
#621=VECTOR('',#620,3.2);
#622=LINE('',#619,#621);
#623=EDGE_CURVE('',#609,#618,#622,.T.);
#624=ORIENTED_EDGE('',*,*,#623,.T.);
#625=CARTESIAN_POINT('',(1.270000000000039,-1.27000000000001,0.0));
#626=DIRECTION('',(0.0,0.0,-1.0));
#627=DIRECTION('',(-1.0,0.0,0.0));
#628=AXIS2_PLACEMENT_3D('',#625,#626,#627);
#629=CIRCLE('',#628,0.4);
#630=EDGE_CURVE('',#618,#601,#629,.T.);
#631=ORIENTED_EDGE('',*,*,#630,.T.);
#632=EDGE_LOOP('',(#607,#616,#624,#631));
#633=FACE_OUTER_BOUND('',#632,.T.);
#634=ADVANCED_FACE('',(#633),#597,.T.);
#635=CARTESIAN_POINT('',(1.270000000000039,-1.27000000000001,0.0));
#636=DIRECTION('',(0.0,0.0,-1.0));
#637=DIRECTION('',(-1.0,0.0,0.0));
#638=AXIS2_PLACEMENT_3D('',#635,#636,#637);
#639=CYLINDRICAL_SURFACE('',#638,0.4);
#640=ORIENTED_EDGE('',*,*,#606,.T.);
#641=CARTESIAN_POINT('',(1.270000000000039,-1.27000000000001,0.0));
#642=DIRECTION('',(0.0,0.0,-1.0));
#643=DIRECTION('',(-1.0,0.0,0.0));
#644=AXIS2_PLACEMENT_3D('',#641,#642,#643);
#645=CIRCLE('',#644,0.4);
#646=EDGE_CURVE('',#601,#618,#645,.T.);
#647=ORIENTED_EDGE('',*,*,#646,.T.);
#648=ORIENTED_EDGE('',*,*,#623,.F.);
#649=CARTESIAN_POINT('',(1.270000000000039,-1.27000000000001,-3.2));
#650=DIRECTION('',(0.0,0.0,1.0));
#651=DIRECTION('',(-1.0,0.0,0.0));
#652=AXIS2_PLACEMENT_3D('',#649,#650,#651);
#653=CIRCLE('',#652,0.4);
#654=EDGE_CURVE('',#609,#599,#653,.T.);
#655=ORIENTED_EDGE('',*,*,#654,.T.);
#656=EDGE_LOOP('',(#640,#647,#648,#655));
#657=FACE_OUTER_BOUND('',#656,.T.);
#658=ADVANCED_FACE('',(#657),#639,.T.);
#659=CARTESIAN_POINT('',(1.270000000000039,-1.27000000000001,-3.2));
#660=DIRECTION('',(0.0,0.0,-1.0));
#661=DIRECTION('',(-1.0,0.0,0.0));
#662=AXIS2_PLACEMENT_3D('',#659,#660,#661);
#663=PLANE('',#662);
#664=ORIENTED_EDGE('',*,*,#615,.F.);
#665=ORIENTED_EDGE('',*,*,#654,.F.);
#666=EDGE_LOOP('',(#664,#665));
#667=FACE_OUTER_BOUND('',#666,.T.);
#668=ADVANCED_FACE('',(#667),#663,.T.);
#669=CARTESIAN_POINT('',(1.270000000000039,-1.27000000000001,0.0));
#670=DIRECTION('',(0.0,0.0,-1.0));
#671=DIRECTION('',(-1.0,0.0,0.0));
#672=AXIS2_PLACEMENT_3D('',#669,#670,#671);
#673=PLANE('',#672);
#674=ORIENTED_EDGE('',*,*,#646,.F.);
#675=ORIENTED_EDGE('',*,*,#630,.F.);
#676=EDGE_LOOP('',(#674,#675));
#677=FACE_OUTER_BOUND('',#676,.T.);
#678=ADVANCED_FACE('',(#677),#673,.F.);
#679=CLOSED_SHELL('',(#634,#658,#668,#678));
#680=MANIFOLD_SOLID_BREP('B94',#679);
#681=STYLED_ITEM('NONE',(#324),#680);
#682=CARTESIAN_POINT('',(-1.269999999999982,-1.27000000000001,0.0));
#683=DIRECTION('',(0.0,0.0,-1.0));
#684=DIRECTION('',(-1.0,0.0,0.0));
#685=AXIS2_PLACEMENT_3D('',#682,#683,#684);
#686=CYLINDRICAL_SURFACE('',#685,0.4);
#687=CARTESIAN_POINT('',(-1.669999999999959,-1.27000000000001,-3.2));
#688=VERTEX_POINT('',#687);
#689=CARTESIAN_POINT('',(-1.669999999999959,-1.27000000000001,8.881784E-017));
#690=VERTEX_POINT('',#689);
#691=CARTESIAN_POINT('',(-1.669999999999982,-1.27000000000001,-3.2));
#692=DIRECTION('',(0.0,0.0,1.0));
#693=VECTOR('',#692,3.2);
#694=LINE('',#691,#693);
#695=EDGE_CURVE('',#688,#690,#694,.T.);
#696=ORIENTED_EDGE('',*,*,#695,.F.);
#697=CARTESIAN_POINT('',(-0.869999999999982,-1.27000000000001,-3.2));
#698=VERTEX_POINT('',#697);
#699=CARTESIAN_POINT('',(-1.269999999999982,-1.27000000000001,-3.2));
#700=DIRECTION('',(0.0,0.0,1.0));
#701=DIRECTION('',(-1.0,0.0,0.0));
#702=AXIS2_PLACEMENT_3D('',#699,#700,#701);
#703=CIRCLE('',#702,0.4);
#704=EDGE_CURVE('',#688,#698,#703,.T.);
#705=ORIENTED_EDGE('',*,*,#704,.T.);
#706=CARTESIAN_POINT('',(-0.869999999999982,-1.27000000000001,8.881784E-017));
#707=VERTEX_POINT('',#706);
#708=CARTESIAN_POINT('',(-0.869999999999982,-1.27000000000001,-3.2));
#709=DIRECTION('',(0.0,0.0,1.0));
#710=VECTOR('',#709,3.2);
#711=LINE('',#708,#710);
#712=EDGE_CURVE('',#698,#707,#711,.T.);
#713=ORIENTED_EDGE('',*,*,#712,.T.);
#714=CARTESIAN_POINT('',(-1.269999999999982,-1.27000000000001,0.0));
#715=DIRECTION('',(0.0,0.0,-1.0));
#716=DIRECTION('',(-1.0,0.0,0.0));
#717=AXIS2_PLACEMENT_3D('',#714,#715,#716);
#718=CIRCLE('',#717,0.4);
#719=EDGE_CURVE('',#707,#690,#718,.T.);
#720=ORIENTED_EDGE('',*,*,#719,.T.);
#721=EDGE_LOOP('',(#696,#705,#713,#720));
#722=FACE_OUTER_BOUND('',#721,.T.);
#723=ADVANCED_FACE('',(#722),#686,.T.);
#724=CARTESIAN_POINT('',(-1.269999999999982,-1.27000000000001,0.0));
#725=DIRECTION('',(0.0,0.0,-1.0));
#726=DIRECTION('',(-1.0,0.0,0.0));
#727=AXIS2_PLACEMENT_3D('',#724,#725,#726);
#728=CYLINDRICAL_SURFACE('',#727,0.4);
#729=ORIENTED_EDGE('',*,*,#695,.T.);
#730=CARTESIAN_POINT('',(-1.269999999999982,-1.27000000000001,0.0));
#731=DIRECTION('',(0.0,0.0,-1.0));
#732=DIRECTION('',(-1.0,0.0,0.0));
#733=AXIS2_PLACEMENT_3D('',#730,#731,#732);
#734=CIRCLE('',#733,0.4);
#735=EDGE_CURVE('',#690,#707,#734,.T.);
#736=ORIENTED_EDGE('',*,*,#735,.T.);
#737=ORIENTED_EDGE('',*,*,#712,.F.);
#738=CARTESIAN_POINT('',(-1.269999999999982,-1.27000000000001,-3.2));
#739=DIRECTION('',(0.0,0.0,1.0));
#740=DIRECTION('',(-1.0,0.0,0.0));
#741=AXIS2_PLACEMENT_3D('',#738,#739,#740);
#742=CIRCLE('',#741,0.4);
#743=EDGE_CURVE('',#698,#688,#742,.T.);
#744=ORIENTED_EDGE('',*,*,#743,.T.);
#745=EDGE_LOOP('',(#729,#736,#737,#744));
#746=FACE_OUTER_BOUND('',#745,.T.);
#747=ADVANCED_FACE('',(#746),#728,.T.);
#748=CARTESIAN_POINT('',(-1.269999999999982,-1.27000000000001,-3.2));
#749=DIRECTION('',(0.0,0.0,-1.0));
#750=DIRECTION('',(-1.0,0.0,0.0));
#751=AXIS2_PLACEMENT_3D('',#748,#749,#750);
#752=PLANE('',#751);
#753=ORIENTED_EDGE('',*,*,#704,.F.);
#754=ORIENTED_EDGE('',*,*,#743,.F.);
#755=EDGE_LOOP('',(#753,#754));
#756=FACE_OUTER_BOUND('',#755,.T.);
#757=ADVANCED_FACE('',(#756),#752,.T.);
#758=CARTESIAN_POINT('',(-1.269999999999982,-1.27000000000001,0.0));
#759=DIRECTION('',(0.0,0.0,-1.0));
#760=DIRECTION('',(-1.0,0.0,0.0));
#761=AXIS2_PLACEMENT_3D('',#758,#759,#760);
#762=PLANE('',#761);
#763=ORIENTED_EDGE('',*,*,#735,.F.);
#764=ORIENTED_EDGE('',*,*,#719,.F.);
#765=EDGE_LOOP('',(#763,#764));
#766=FACE_OUTER_BOUND('',#765,.T.);
#767=ADVANCED_FACE('',(#766),#762,.F.);
#768=CLOSED_SHELL('',(#723,#747,#757,#767));
#769=MANIFOLD_SOLID_BREP('B93',#768);
#770=STYLED_ITEM('NONE',(#324),#769);
#771=CARTESIAN_POINT('',(-3.810000000000002,-1.27000000000001,0.0));
#772=DIRECTION('',(0.0,0.0,-1.0));
#773=DIRECTION('',(-1.0,0.0,0.0));
#774=AXIS2_PLACEMENT_3D('',#771,#772,#773);
#775=CYLINDRICAL_SURFACE('',#774,0.4);
#776=CARTESIAN_POINT('',(-4.20999999999998,-1.27000000000001,-3.2));
#777=VERTEX_POINT('',#776);
#778=CARTESIAN_POINT('',(-4.20999999999998,-1.27000000000001,8.881784E-017));
#779=VERTEX_POINT('',#778);
#780=CARTESIAN_POINT('',(-4.210000000000003,-1.27000000000001,-3.2));
#781=DIRECTION('',(0.0,0.0,1.0));
#782=VECTOR('',#781,3.2);
#783=LINE('',#780,#782);
#784=EDGE_CURVE('',#777,#779,#783,.T.);
#785=ORIENTED_EDGE('',*,*,#784,.F.);
#786=CARTESIAN_POINT('',(-3.410000000000002,-1.27000000000001,-3.2));
#787=VERTEX_POINT('',#786);
#788=CARTESIAN_POINT('',(-3.810000000000002,-1.27000000000001,-3.2));
#789=DIRECTION('',(0.0,0.0,1.0));
#790=DIRECTION('',(-1.0,0.0,0.0));
#791=AXIS2_PLACEMENT_3D('',#788,#789,#790);
#792=CIRCLE('',#791,0.4);
#793=EDGE_CURVE('',#777,#787,#792,.T.);
#794=ORIENTED_EDGE('',*,*,#793,.T.);
#795=CARTESIAN_POINT('',(-3.410000000000002,-1.27000000000001,8.881784E-017));
#796=VERTEX_POINT('',#795);
#797=CARTESIAN_POINT('',(-3.410000000000002,-1.27000000000001,-3.2));
#798=DIRECTION('',(0.0,0.0,1.0));
#799=VECTOR('',#798,3.2);
#800=LINE('',#797,#799);
#801=EDGE_CURVE('',#787,#796,#800,.T.);
#802=ORIENTED_EDGE('',*,*,#801,.T.);
#803=CARTESIAN_POINT('',(-3.810000000000002,-1.27000000000001,0.0));
#804=DIRECTION('',(0.0,0.0,-1.0));
#805=DIRECTION('',(-1.0,0.0,0.0));
#806=AXIS2_PLACEMENT_3D('',#803,#804,#805);
#807=CIRCLE('',#806,0.4);
#808=EDGE_CURVE('',#796,#779,#807,.T.);
#809=ORIENTED_EDGE('',*,*,#808,.T.);
#810=EDGE_LOOP('',(#785,#794,#802,#809));
#811=FACE_OUTER_BOUND('',#810,.T.);
#812=ADVANCED_FACE('',(#811),#775,.T.);
#813=CARTESIAN_POINT('',(-3.810000000000002,-1.27000000000001,0.0));
#814=DIRECTION('',(0.0,0.0,-1.0));
#815=DIRECTION('',(-1.0,0.0,0.0));
#816=AXIS2_PLACEMENT_3D('',#813,#814,#815);
#817=CYLINDRICAL_SURFACE('',#816,0.4);
#818=ORIENTED_EDGE('',*,*,#784,.T.);
#819=CARTESIAN_POINT('',(-3.810000000000002,-1.27000000000001,0.0));
#820=DIRECTION('',(0.0,0.0,-1.0));
#821=DIRECTION('',(-1.0,0.0,0.0));
#822=AXIS2_PLACEMENT_3D('',#819,#820,#821);
#823=CIRCLE('',#822,0.4);
#824=EDGE_CURVE('',#779,#796,#823,.T.);
#825=ORIENTED_EDGE('',*,*,#824,.T.);
#826=ORIENTED_EDGE('',*,*,#801,.F.);
#827=CARTESIAN_POINT('',(-3.810000000000002,-1.27000000000001,-3.2));
#828=DIRECTION('',(0.0,0.0,1.0));
#829=DIRECTION('',(-1.0,0.0,0.0));
#830=AXIS2_PLACEMENT_3D('',#827,#828,#829);
#831=CIRCLE('',#830,0.4);
#832=EDGE_CURVE('',#787,#777,#831,.T.);
#833=ORIENTED_EDGE('',*,*,#832,.T.);
#834=EDGE_LOOP('',(#818,#825,#826,#833));
#835=FACE_OUTER_BOUND('',#834,.T.);
#836=ADVANCED_FACE('',(#835),#817,.T.);
#837=CARTESIAN_POINT('',(-3.810000000000002,-1.27000000000001,-3.2));
#838=DIRECTION('',(0.0,0.0,-1.0));
#839=DIRECTION('',(-1.0,0.0,0.0));
#840=AXIS2_PLACEMENT_3D('',#837,#838,#839);
#841=PLANE('',#840);
#842=ORIENTED_EDGE('',*,*,#793,.F.);
#843=ORIENTED_EDGE('',*,*,#832,.F.);
#844=EDGE_LOOP('',(#842,#843));
#845=FACE_OUTER_BOUND('',#844,.T.);
#846=ADVANCED_FACE('',(#845),#841,.T.);
#847=CARTESIAN_POINT('',(-3.810000000000002,-1.27000000000001,0.0));
#848=DIRECTION('',(0.0,0.0,-1.0));
#849=DIRECTION('',(-1.0,0.0,0.0));
#850=AXIS2_PLACEMENT_3D('',#847,#848,#849);
#851=PLANE('',#850);
#852=ORIENTED_EDGE('',*,*,#824,.F.);
#853=ORIENTED_EDGE('',*,*,#808,.F.);
#854=EDGE_LOOP('',(#852,#853));
#855=FACE_OUTER_BOUND('',#854,.T.);
#856=ADVANCED_FACE('',(#855),#851,.F.);
#857=CLOSED_SHELL('',(#812,#836,#846,#856));
#858=MANIFOLD_SOLID_BREP('B92',#857);
#859=STYLED_ITEM('NONE',(#324),#858);
#860=CARTESIAN_POINT('',(-3.810000000000002,1.27000000000001,0.0));
#861=DIRECTION('',(0.0,0.0,-1.0));
#862=DIRECTION('',(-1.0,0.0,0.0));
#863=AXIS2_PLACEMENT_3D('',#860,#861,#862);
#864=CYLINDRICAL_SURFACE('',#863,0.4);
#865=CARTESIAN_POINT('',(-4.20999999999998,1.27000000000001,-3.2));
#866=VERTEX_POINT('',#865);
#867=CARTESIAN_POINT('',(-4.20999999999998,1.27000000000001,8.881784E-017));
#868=VERTEX_POINT('',#867);
#869=CARTESIAN_POINT('',(-4.210000000000003,1.27000000000001,-3.2));
#870=DIRECTION('',(0.0,0.0,1.0));
#871=VECTOR('',#870,3.2);
#872=LINE('',#869,#871);
#873=EDGE_CURVE('',#866,#868,#872,.T.);
#874=ORIENTED_EDGE('',*,*,#873,.F.);
#875=CARTESIAN_POINT('',(-3.410000000000002,1.27000000000001,-3.2));
#876=VERTEX_POINT('',#875);
#877=CARTESIAN_POINT('',(-3.810000000000002,1.27000000000001,-3.2));
#878=DIRECTION('',(0.0,0.0,1.0));
#879=DIRECTION('',(-1.0,0.0,0.0));
#880=AXIS2_PLACEMENT_3D('',#877,#878,#879);
#881=CIRCLE('',#880,0.4);
#882=EDGE_CURVE('',#866,#876,#881,.T.);
#883=ORIENTED_EDGE('',*,*,#882,.T.);
#884=CARTESIAN_POINT('',(-3.410000000000002,1.27000000000001,8.881784E-017));
#885=VERTEX_POINT('',#884);
#886=CARTESIAN_POINT('',(-3.410000000000002,1.27000000000001,-3.2));
#887=DIRECTION('',(0.0,0.0,1.0));
#888=VECTOR('',#887,3.2);
#889=LINE('',#886,#888);
#890=EDGE_CURVE('',#876,#885,#889,.T.);
#891=ORIENTED_EDGE('',*,*,#890,.T.);
#892=CARTESIAN_POINT('',(-3.810000000000002,1.27000000000001,0.0));
#893=DIRECTION('',(0.0,0.0,-1.0));
#894=DIRECTION('',(-1.0,0.0,0.0));
#895=AXIS2_PLACEMENT_3D('',#892,#893,#894);
#896=CIRCLE('',#895,0.4);
#897=EDGE_CURVE('',#885,#868,#896,.T.);
#898=ORIENTED_EDGE('',*,*,#897,.T.);
#899=EDGE_LOOP('',(#874,#883,#891,#898));
#900=FACE_OUTER_BOUND('',#899,.T.);
#901=ADVANCED_FACE('',(#900),#864,.T.);
#902=CARTESIAN_POINT('',(-3.810000000000002,1.27000000000001,0.0));
#903=DIRECTION('',(0.0,0.0,-1.0));
#904=DIRECTION('',(-1.0,0.0,0.0));
#905=AXIS2_PLACEMENT_3D('',#902,#903,#904);
#906=CYLINDRICAL_SURFACE('',#905,0.4);
#907=ORIENTED_EDGE('',*,*,#873,.T.);
#908=CARTESIAN_POINT('',(-3.810000000000002,1.27000000000001,0.0));
#909=DIRECTION('',(0.0,0.0,-1.0));
#910=DIRECTION('',(-1.0,0.0,0.0));
#911=AXIS2_PLACEMENT_3D('',#908,#909,#910);
#912=CIRCLE('',#911,0.4);
#913=EDGE_CURVE('',#868,#885,#912,.T.);
#914=ORIENTED_EDGE('',*,*,#913,.T.);
#915=ORIENTED_EDGE('',*,*,#890,.F.);
#916=CARTESIAN_POINT('',(-3.810000000000002,1.27000000000001,-3.2));
#917=DIRECTION('',(0.0,0.0,1.0));
#918=DIRECTION('',(-1.0,0.0,0.0));
#919=AXIS2_PLACEMENT_3D('',#916,#917,#918);
#920=CIRCLE('',#919,0.4);
#921=EDGE_CURVE('',#876,#866,#920,.T.);
#922=ORIENTED_EDGE('',*,*,#921,.T.);
#923=EDGE_LOOP('',(#907,#914,#915,#922));
#924=FACE_OUTER_BOUND('',#923,.T.);
#925=ADVANCED_FACE('',(#924),#906,.T.);
#926=CARTESIAN_POINT('',(-3.810000000000002,1.27000000000001,-3.2));
#927=DIRECTION('',(0.0,0.0,-1.0));
#928=DIRECTION('',(-1.0,0.0,0.0));
#929=AXIS2_PLACEMENT_3D('',#926,#927,#928);
#930=PLANE('',#929);
#931=ORIENTED_EDGE('',*,*,#882,.F.);
#932=ORIENTED_EDGE('',*,*,#921,.F.);
#933=EDGE_LOOP('',(#931,#932));
#934=FACE_OUTER_BOUND('',#933,.T.);
#935=ADVANCED_FACE('',(#934),#930,.T.);
#936=CARTESIAN_POINT('',(-3.810000000000002,1.27000000000001,0.0));
#937=DIRECTION('',(0.0,0.0,-1.0));
#938=DIRECTION('',(-1.0,0.0,0.0));
#939=AXIS2_PLACEMENT_3D('',#936,#937,#938);
#940=PLANE('',#939);
#941=ORIENTED_EDGE('',*,*,#913,.F.);
#942=ORIENTED_EDGE('',*,*,#897,.F.);
#943=EDGE_LOOP('',(#941,#942));
#944=FACE_OUTER_BOUND('',#943,.T.);
#945=ADVANCED_FACE('',(#944),#940,.F.);
#946=CLOSED_SHELL('',(#901,#925,#935,#945));
#947=MANIFOLD_SOLID_BREP('B91',#946);
#948=STYLED_ITEM('NONE',(#324),#947);
#949=CARTESIAN_POINT('',(-8.889999999999986,-1.920000000000016,0.6542000000002));
#950=DIRECTION('',(0.0,-1.0,0.0));
#951=DIRECTION('',(0.0,0.0,-1.0));
#952=AXIS2_PLACEMENT_3D('',#949,#950,#951);
#953=PLANE('',#952);
#954=CARTESIAN_POINT('',(-8.38999999999993,-1.920000000000016,0.6542000000002));
#955=VERTEX_POINT('',#954);
#956=CARTESIAN_POINT('',(-8.38999999999993,-1.920000000000016,3.050000000000001));
#957=VERTEX_POINT('',#956);
#958=CARTESIAN_POINT('',(-8.389999999999986,-1.920000000000016,0.6542000000002));
#959=DIRECTION('',(0.0,0.0,1.0));
#960=VECTOR('',#959,2.395799999999801);
#961=LINE('',#958,#960);
#962=EDGE_CURVE('',#955,#957,#961,.T.);
#963=ORIENTED_EDGE('',*,*,#962,.T.);
#964=CARTESIAN_POINT('',(-8.889999999999986,-1.920000000000016,3.050000000000001));
#965=VERTEX_POINT('',#964);
#966=CARTESIAN_POINT('',(-8.889999999999986,-1.920000000000016,3.050000000000001));
#967=DIRECTION('',(1.0,0.0,0.0));
#968=VECTOR('',#967,0.500000000000057);
#969=LINE('',#966,#968);
#970=EDGE_CURVE('',#965,#957,#969,.T.);
#971=ORIENTED_EDGE('',*,*,#970,.F.);
#972=CARTESIAN_POINT('',(-8.889999999999986,-1.920000000000016,0.6542000000002));
#973=VERTEX_POINT('',#972);
#974=CARTESIAN_POINT('',(-8.889999999999986,-1.920000000000016,0.6542000000002));
#975=DIRECTION('',(0.0,0.0,1.0));
#976=VECTOR('',#975,2.395799999999801);
#977=LINE('',#974,#976);
#978=EDGE_CURVE('',#973,#965,#977,.T.);
#979=ORIENTED_EDGE('',*,*,#978,.F.);
#980=CARTESIAN_POINT('',(-8.889999999999986,-1.920000000000016,0.6542000000002));
#981=DIRECTION('',(1.0,0.0,0.0));
#982=VECTOR('',#981,0.500000000000057);
#983=LINE('',#980,#982);
#984=EDGE_CURVE('',#973,#955,#983,.T.);
#985=ORIENTED_EDGE('',*,*,#984,.T.);
#986=EDGE_LOOP('',(#963,#971,#979,#985));
#987=FACE_OUTER_BOUND('',#986,.T.);
#988=ADVANCED_FACE('',(#987),#953,.T.);
#989=CARTESIAN_POINT('',(-8.889999999999986,-1.920000000000016,3.050000000000001));
#990=DIRECTION('',(0.0,0.0,1.0));
#991=DIRECTION('',(1.0,0.0,0.0));
#992=AXIS2_PLACEMENT_3D('',#989,#990,#991);
#993=PLANE('',#992);
#994=CARTESIAN_POINT('',(-8.38999999999993,0.790961891182803,3.050000000000001));
#995=VERTEX_POINT('',#994);
#996=CARTESIAN_POINT('',(-8.389999999999986,-1.920000000000016,3.050000000000001));
#997=DIRECTION('',(0.0,1.0,0.0));
#998=VECTOR('',#997,2.710961891182819);
#999=LINE('',#996,#998);
#1000=EDGE_CURVE('',#957,#995,#999,.T.);
#1001=ORIENTED_EDGE('',*,*,#1000,.T.);
#1002=CARTESIAN_POINT('',(-8.889999999999986,0.790961891182803,3.050000000000001));
#1003=VERTEX_POINT('',#1002);
#1004=CARTESIAN_POINT('',(-8.889999999999986,0.790961891182803,3.050000000000001));
#1005=DIRECTION('',(1.0,0.0,0.0));
#1006=VECTOR('',#1005,0.500000000000057);
#1007=LINE('',#1004,#1006);
#1008=EDGE_CURVE('',#1003,#995,#1007,.T.);
#1009=ORIENTED_EDGE('',*,*,#1008,.F.);
#1010=CARTESIAN_POINT('',(-8.889999999999986,-1.920000000000016,3.050000000000001));
#1011=DIRECTION('',(0.0,1.0,0.0));
#1012=VECTOR('',#1011,2.710961891182819);
#1013=LINE('',#1010,#1012);
#1014=EDGE_CURVE('',#965,#1003,#1013,.T.);
#1015=ORIENTED_EDGE('',*,*,#1014,.F.);
#1016=ORIENTED_EDGE('',*,*,#970,.T.);
#1017=EDGE_LOOP('',(#1001,#1009,#1015,#1016));
#1018=FACE_OUTER_BOUND('',#1017,.T.);
#1019=ADVANCED_FACE('',(#1018),#993,.T.);
#1020=CARTESIAN_POINT('',(-8.889999999999986,0.719999999999999,1.852100000000101));
#1021=DIRECTION('',(1.0,0.0,0.0));
#1022=DIRECTION('',(0.0,1.0,0.0));
#1023=AXIS2_PLACEMENT_3D('',#1020,#1021,#1022);
#1024=CYLINDRICAL_SURFACE('',#1023,1.2);
#1025=CARTESIAN_POINT('',(-8.38999999999993,0.790961891182775,0.6542000000002));
#1026=VERTEX_POINT('',#1025);
#1027=CARTESIAN_POINT('',(-8.389999999999986,0.719999999999999,1.852100000000101));
#1028=DIRECTION('',(-1.0,0.0,0.0));
#1029=DIRECTION('',(0.0,1.0,0.0));
#1030=AXIS2_PLACEMENT_3D('',#1027,#1028,#1029);
#1031=CIRCLE('',#1030,1.2);
#1032=EDGE_CURVE('',#995,#1026,#1031,.T.);
#1033=ORIENTED_EDGE('',*,*,#1032,.T.);
#1034=CARTESIAN_POINT('',(-8.889999999999986,0.790961891182775,0.6542000000002));
#1035=VERTEX_POINT('',#1034);
#1036=CARTESIAN_POINT('',(-8.889999999999986,0.790961891182775,0.6542000000002));
#1037=DIRECTION('',(1.0,0.0,0.0));
#1038=VECTOR('',#1037,0.500000000000057);
#1039=LINE('',#1036,#1038);
#1040=EDGE_CURVE('',#1035,#1026,#1039,.T.);
#1041=ORIENTED_EDGE('',*,*,#1040,.F.);
#1042=CARTESIAN_POINT('',(-8.889999999999986,0.719999999999999,1.852100000000101));
#1043=DIRECTION('',(-1.0,0.0,0.0));
#1044=DIRECTION('',(0.0,1.0,0.0));
#1045=AXIS2_PLACEMENT_3D('',#1042,#1043,#1044);
#1046=CIRCLE('',#1045,1.2);
#1047=EDGE_CURVE('',#1003,#1035,#1046,.T.);
#1048=ORIENTED_EDGE('',*,*,#1047,.F.);
#1049=ORIENTED_EDGE('',*,*,#1008,.T.);
#1050=EDGE_LOOP('',(#1033,#1041,#1048,#1049));
#1051=FACE_OUTER_BOUND('',#1050,.T.);
#1052=ADVANCED_FACE('',(#1051),#1024,.T.);
#1053=CARTESIAN_POINT('',(-8.889999999999986,0.790961891182775,0.6542000000002));
#1054=DIRECTION('',(0.0,0.0,-1.0));
#1055=DIRECTION('',(-1.0,0.0,0.0));
#1056=AXIS2_PLACEMENT_3D('',#1053,#1054,#1055);
#1057=PLANE('',#1056);
#1058=CARTESIAN_POINT('',(-8.389999999999986,0.790961891182775,0.6542000000002));
#1059=DIRECTION('',(0.0,-1.0,0.0));
#1060=VECTOR('',#1059,2.710961891182791);
#1061=LINE('',#1058,#1060);
#1062=EDGE_CURVE('',#1026,#955,#1061,.T.);
#1063=ORIENTED_EDGE('',*,*,#1062,.T.);
#1064=ORIENTED_EDGE('',*,*,#984,.F.);
#1065=CARTESIAN_POINT('',(-8.889999999999986,0.790961891182775,0.6542000000002));
#1066=DIRECTION('',(0.0,-1.0,0.0));
#1067=VECTOR('',#1066,2.710961891182791);
#1068=LINE('',#1065,#1067);
#1069=EDGE_CURVE('',#1035,#973,#1068,.T.);
#1070=ORIENTED_EDGE('',*,*,#1069,.F.);
#1071=ORIENTED_EDGE('',*,*,#1040,.T.);
#1072=EDGE_LOOP('',(#1063,#1064,#1070,#1071));
#1073=FACE_OUTER_BOUND('',#1072,.T.);
#1074=ADVANCED_FACE('',(#1073),#1057,.T.);
#1075=CARTESIAN_POINT('',(-8.38999999999993,-0.212444217034374,1.852100000000101));
#1076=DIRECTION('',(1.0,0.0,0.0));
#1077=DIRECTION('',(0.0,0.0,-1.0));
#1078=AXIS2_PLACEMENT_3D('',#1075,#1076,#1077);
#1079=PLANE('',#1078);
#1080=ORIENTED_EDGE('',*,*,#962,.F.);
#1081=ORIENTED_EDGE('',*,*,#1062,.F.);
#1082=ORIENTED_EDGE('',*,*,#1032,.F.);
#1083=ORIENTED_EDGE('',*,*,#1000,.F.);
#1084=EDGE_LOOP('',(#1080,#1081,#1082,#1083));
#1085=FACE_OUTER_BOUND('',#1084,.T.);
#1086=ADVANCED_FACE('',(#1085),#1079,.T.);
#1087=CARTESIAN_POINT('',(-8.88999999999993,-0.212444217034374,1.852100000000101));
#1088=DIRECTION('',(1.0,0.0,0.0));
#1089=DIRECTION('',(0.0,0.0,-1.0));
#1090=AXIS2_PLACEMENT_3D('',#1087,#1088,#1089);
#1091=PLANE('',#1090);
#1092=ORIENTED_EDGE('',*,*,#1069,.T.);
#1093=ORIENTED_EDGE('',*,*,#978,.T.);
#1094=ORIENTED_EDGE('',*,*,#1014,.T.);
#1095=ORIENTED_EDGE('',*,*,#1047,.T.);
#1096=EDGE_LOOP('',(#1092,#1093,#1094,#1095));
#1097=FACE_OUTER_BOUND('',#1096,.T.);
#1098=ADVANCED_FACE('',(#1097),#1091,.F.);
#1099=CLOSED_SHELL('',(#988,#1019,#1052,#1074,#1086,#1098));
#1100=MANIFOLD_SOLID_BREP('B8C',#1099);
#1101=STYLED_ITEM('NONE',(#109),#1100);
#1102=CARTESIAN_POINT('',(-8.889999999999986,2.557954E-013,1.8542000000002));
#1103=DIRECTION('',(-1.0,0.0,0.0));
#1104=DIRECTION('',(0.0,-1.0,0.0));
#1105=AXIS2_PLACEMENT_3D('',#1102,#1103,#1104);
#1106=CYLINDRICAL_SURFACE('',#1105,0.9);
#1107=CARTESIAN_POINT('',(-9.089999999999975,-0.89999999999975,1.8542000000002));
#1108=VERTEX_POINT('',#1107);
#1109=CARTESIAN_POINT('',(-8.889999999999986,-0.89999999999975,1.8542000000002));
#1110=VERTEX_POINT('',#1109);
#1111=CARTESIAN_POINT('',(-9.089999999999975,-0.899999999999744,1.8542000000002));
#1112=DIRECTION('',(1.0,0.0,0.0));
#1113=VECTOR('',#1112,0.199999999999989);
#1114=LINE('',#1111,#1113);
#1115=EDGE_CURVE('',#1108,#1110,#1114,.T.);
#1116=ORIENTED_EDGE('',*,*,#1115,.F.);
#1117=CARTESIAN_POINT('',(-9.089999999999975,0.900000000000256,1.8542000000002));
#1118=VERTEX_POINT('',#1117);
#1119=CARTESIAN_POINT('',(-9.089999999999975,2.557954E-013,1.8542000000002));
#1120=DIRECTION('',(1.0,0.0,0.0));
#1121=DIRECTION('',(0.0,-1.0,0.0));
#1122=AXIS2_PLACEMENT_3D('',#1119,#1120,#1121);
#1123=CIRCLE('',#1122,0.9);
#1124=EDGE_CURVE('',#1108,#1118,#1123,.T.);
#1125=ORIENTED_EDGE('',*,*,#1124,.T.);
#1126=CARTESIAN_POINT('',(-8.889999999999986,0.900000000000256,1.8542000000002));
#1127=VERTEX_POINT('',#1126);
#1128=CARTESIAN_POINT('',(-9.089999999999975,0.900000000000256,1.8542000000002));
#1129=DIRECTION('',(1.0,0.0,0.0));
#1130=VECTOR('',#1129,0.199999999999989);
#1131=LINE('',#1128,#1130);
#1132=EDGE_CURVE('',#1118,#1127,#1131,.T.);
#1133=ORIENTED_EDGE('',*,*,#1132,.T.);
#1134=CARTESIAN_POINT('',(-8.889999999999986,2.557954E-013,1.8542000000002));
#1135=DIRECTION('',(-1.0,0.0,0.0));
#1136=DIRECTION('',(0.0,-1.0,0.0));
#1137=AXIS2_PLACEMENT_3D('',#1134,#1135,#1136);
#1138=CIRCLE('',#1137,0.9);
#1139=EDGE_CURVE('',#1127,#1110,#1138,.T.);
#1140=ORIENTED_EDGE('',*,*,#1139,.T.);
#1141=EDGE_LOOP('',(#1116,#1125,#1133,#1140));
#1142=FACE_OUTER_BOUND('',#1141,.T.);
#1143=ADVANCED_FACE('',(#1142),#1106,.T.);
#1144=CARTESIAN_POINT('',(-8.889999999999986,2.557954E-013,1.8542000000002));
#1145=DIRECTION('',(-1.0,0.0,0.0));
#1146=DIRECTION('',(0.0,-1.0,0.0));
#1147=AXIS2_PLACEMENT_3D('',#1144,#1145,#1146);
#1148=CYLINDRICAL_SURFACE('',#1147,0.9);
#1149=ORIENTED_EDGE('',*,*,#1115,.T.);
#1150=CARTESIAN_POINT('',(-8.889999999999986,2.557954E-013,1.8542000000002));
#1151=DIRECTION('',(-1.0,0.0,0.0));
#1152=DIRECTION('',(0.0,-1.0,0.0));
#1153=AXIS2_PLACEMENT_3D('',#1150,#1151,#1152);
#1154=CIRCLE('',#1153,0.9);
#1155=EDGE_CURVE('',#1110,#1127,#1154,.T.);
#1156=ORIENTED_EDGE('',*,*,#1155,.T.);
#1157=ORIENTED_EDGE('',*,*,#1132,.F.);
#1158=CARTESIAN_POINT('',(-9.089999999999975,2.557954E-013,1.8542000000002));
#1159=DIRECTION('',(1.0,0.0,0.0));
#1160=DIRECTION('',(0.0,-1.0,0.0));
#1161=AXIS2_PLACEMENT_3D('',#1158,#1159,#1160);
#1162=CIRCLE('',#1161,0.9);
#1163=EDGE_CURVE('',#1118,#1108,#1162,.T.);
#1164=ORIENTED_EDGE('',*,*,#1163,.T.);
#1165=EDGE_LOOP('',(#1149,#1156,#1157,#1164));
#1166=FACE_OUTER_BOUND('',#1165,.T.);
#1167=ADVANCED_FACE('',(#1166),#1148,.T.);
#1168=CARTESIAN_POINT('',(-9.089999999999975,2.557954E-013,1.8542000000002));
#1169=DIRECTION('',(-1.0,0.0,0.0));
#1170=DIRECTION('',(0.0,0.0,1.0));
#1171=AXIS2_PLACEMENT_3D('',#1168,#1169,#1170);
#1172=PLANE('',#1171);
#1173=ORIENTED_EDGE('',*,*,#1124,.F.);
#1174=ORIENTED_EDGE('',*,*,#1163,.F.);
#1175=EDGE_LOOP('',(#1173,#1174));
#1176=FACE_OUTER_BOUND('',#1175,.T.);
#1177=ADVANCED_FACE('',(#1176),#1172,.T.);
#1178=CARTESIAN_POINT('',(-8.889999999999986,2.557954E-013,1.8542000000002));
#1179=DIRECTION('',(-1.0,0.0,0.0));
#1180=DIRECTION('',(0.0,0.0,1.0));
#1181=AXIS2_PLACEMENT_3D('',#1178,#1179,#1180);
#1182=PLANE('',#1181);
#1183=ORIENTED_EDGE('',*,*,#1155,.F.);
#1184=ORIENTED_EDGE('',*,*,#1139,.F.);
#1185=EDGE_LOOP('',(#1183,#1184));
#1186=FACE_OUTER_BOUND('',#1185,.T.);
#1187=ADVANCED_FACE('',(#1186),#1182,.F.);
#1188=CLOSED_SHELL('',(#1143,#1167,#1177,#1187));
#1189=MANIFOLD_SOLID_BREP('B8B',#1188);
#1190=STYLED_ITEM('NONE',(#109),#1189);
#1191=CARTESIAN_POINT('',(-8.889999999999986,-1.920000000000272,3.1942000000002));
#1192=DIRECTION('',(0.0,-1.0,0.0));
#1193=DIRECTION('',(0.0,0.0,-1.0));
#1194=AXIS2_PLACEMENT_3D('',#1191,#1192,#1193);
#1195=PLANE('',#1194);
#1196=CARTESIAN_POINT('',(-8.38999999999993,-1.920000000000272,3.1942000000002));
#1197=VERTEX_POINT('',#1196);
#1198=CARTESIAN_POINT('',(-8.38999999999993,-1.920000000000272,5.590000000000001));
#1199=VERTEX_POINT('',#1198);
#1200=CARTESIAN_POINT('',(-8.389999999999986,-1.920000000000272,3.1942000000002));
#1201=DIRECTION('',(0.0,0.0,1.0));
#1202=VECTOR('',#1201,2.395799999999801);
#1203=LINE('',#1200,#1202);
#1204=EDGE_CURVE('',#1197,#1199,#1203,.T.);
#1205=ORIENTED_EDGE('',*,*,#1204,.T.);
#1206=CARTESIAN_POINT('',(-8.889999999999986,-1.920000000000272,5.590000000000001));
#1207=VERTEX_POINT('',#1206);
#1208=CARTESIAN_POINT('',(-8.889999999999986,-1.920000000000272,5.590000000000001));
#1209=DIRECTION('',(1.0,0.0,0.0));
#1210=VECTOR('',#1209,0.500000000000057);
#1211=LINE('',#1208,#1210);
#1212=EDGE_CURVE('',#1207,#1199,#1211,.T.);
#1213=ORIENTED_EDGE('',*,*,#1212,.F.);
#1214=CARTESIAN_POINT('',(-8.889999999999986,-1.920000000000272,3.1942000000002));
#1215=VERTEX_POINT('',#1214);
#1216=CARTESIAN_POINT('',(-8.889999999999986,-1.920000000000272,3.1942000000002));
#1217=DIRECTION('',(0.0,0.0,1.0));
#1218=VECTOR('',#1217,2.395799999999801);
#1219=LINE('',#1216,#1218);
#1220=EDGE_CURVE('',#1215,#1207,#1219,.T.);
#1221=ORIENTED_EDGE('',*,*,#1220,.F.);
#1222=CARTESIAN_POINT('',(-8.889999999999986,-1.920000000000272,3.1942000000002));
#1223=DIRECTION('',(1.0,0.0,0.0));
#1224=VECTOR('',#1223,0.500000000000057);
#1225=LINE('',#1222,#1224);
#1226=EDGE_CURVE('',#1215,#1197,#1225,.T.);
#1227=ORIENTED_EDGE('',*,*,#1226,.T.);
#1228=EDGE_LOOP('',(#1205,#1213,#1221,#1227));
#1229=FACE_OUTER_BOUND('',#1228,.T.);
#1230=ADVANCED_FACE('',(#1229),#1195,.T.);
#1231=CARTESIAN_POINT('',(-8.889999999999986,-1.920000000000272,5.590000000000001));
#1232=DIRECTION('',(0.0,0.0,1.0));
#1233=DIRECTION('',(1.0,0.0,0.0));
#1234=AXIS2_PLACEMENT_3D('',#1231,#1232,#1233);
#1235=PLANE('',#1234);
#1236=CARTESIAN_POINT('',(-8.38999999999993,0.790961891182548,5.590000000000001));
#1237=VERTEX_POINT('',#1236);
#1238=CARTESIAN_POINT('',(-8.389999999999986,-1.920000000000272,5.590000000000001));
#1239=DIRECTION('',(0.0,1.0,0.0));
#1240=VECTOR('',#1239,2.710961891182819);
#1241=LINE('',#1238,#1240);
#1242=EDGE_CURVE('',#1199,#1237,#1241,.T.);
#1243=ORIENTED_EDGE('',*,*,#1242,.T.);
#1244=CARTESIAN_POINT('',(-8.889999999999986,0.790961891182548,5.590000000000001));
#1245=VERTEX_POINT('',#1244);
#1246=CARTESIAN_POINT('',(-8.889999999999986,0.790961891182548,5.590000000000001));
#1247=DIRECTION('',(1.0,0.0,0.0));
#1248=VECTOR('',#1247,0.500000000000057);
#1249=LINE('',#1246,#1248);
#1250=EDGE_CURVE('',#1245,#1237,#1249,.T.);
#1251=ORIENTED_EDGE('',*,*,#1250,.F.);
#1252=CARTESIAN_POINT('',(-8.889999999999986,-1.920000000000272,5.590000000000001));
#1253=DIRECTION('',(0.0,1.0,0.0));
#1254=VECTOR('',#1253,2.710961891182819);
#1255=LINE('',#1252,#1254);
#1256=EDGE_CURVE('',#1207,#1245,#1255,.T.);
#1257=ORIENTED_EDGE('',*,*,#1256,.F.);
#1258=ORIENTED_EDGE('',*,*,#1212,.T.);
#1259=EDGE_LOOP('',(#1243,#1251,#1257,#1258));
#1260=FACE_OUTER_BOUND('',#1259,.T.);
#1261=ADVANCED_FACE('',(#1260),#1235,.T.);
#1262=CARTESIAN_POINT('',(-8.889999999999986,0.719999999999743,4.392100000000101));
#1263=DIRECTION('',(1.0,0.0,0.0));
#1264=DIRECTION('',(0.0,1.0,0.0));
#1265=AXIS2_PLACEMENT_3D('',#1262,#1263,#1264);
#1266=CYLINDRICAL_SURFACE('',#1265,1.2);
#1267=CARTESIAN_POINT('',(-8.38999999999993,0.790961891182519,3.1942000000002));
#1268=VERTEX_POINT('',#1267);
#1269=CARTESIAN_POINT('',(-8.389999999999986,0.719999999999743,4.392100000000101));
#1270=DIRECTION('',(-1.0,0.0,0.0));
#1271=DIRECTION('',(0.0,1.0,0.0));
#1272=AXIS2_PLACEMENT_3D('',#1269,#1270,#1271);
#1273=CIRCLE('',#1272,1.2);
#1274=EDGE_CURVE('',#1237,#1268,#1273,.T.);
#1275=ORIENTED_EDGE('',*,*,#1274,.T.);
#1276=CARTESIAN_POINT('',(-8.889999999999986,0.790961891182519,3.1942000000002));
#1277=VERTEX_POINT('',#1276);
#1278=CARTESIAN_POINT('',(-8.889999999999986,0.790961891182519,3.1942000000002));
#1279=DIRECTION('',(1.0,0.0,0.0));
#1280=VECTOR('',#1279,0.500000000000057);
#1281=LINE('',#1278,#1280);
#1282=EDGE_CURVE('',#1277,#1268,#1281,.T.);
#1283=ORIENTED_EDGE('',*,*,#1282,.F.);
#1284=CARTESIAN_POINT('',(-8.889999999999986,0.719999999999743,4.392100000000101));
#1285=DIRECTION('',(-1.0,0.0,0.0));
#1286=DIRECTION('',(0.0,1.0,0.0));
#1287=AXIS2_PLACEMENT_3D('',#1284,#1285,#1286);
#1288=CIRCLE('',#1287,1.2);
#1289=EDGE_CURVE('',#1245,#1277,#1288,.T.);
#1290=ORIENTED_EDGE('',*,*,#1289,.F.);
#1291=ORIENTED_EDGE('',*,*,#1250,.T.);
#1292=EDGE_LOOP('',(#1275,#1283,#1290,#1291));
#1293=FACE_OUTER_BOUND('',#1292,.T.);
#1294=ADVANCED_FACE('',(#1293),#1266,.T.);
#1295=CARTESIAN_POINT('',(-8.889999999999986,0.790961891182519,3.1942000000002));
#1296=DIRECTION('',(0.0,0.0,-1.0));
#1297=DIRECTION('',(-1.0,0.0,0.0));
#1298=AXIS2_PLACEMENT_3D('',#1295,#1296,#1297);
#1299=PLANE('',#1298);
#1300=CARTESIAN_POINT('',(-8.389999999999986,0.790961891182519,3.1942000000002));
#1301=DIRECTION('',(0.0,-1.0,0.0));
#1302=VECTOR('',#1301,2.710961891182791);
#1303=LINE('',#1300,#1302);
#1304=EDGE_CURVE('',#1268,#1197,#1303,.T.);
#1305=ORIENTED_EDGE('',*,*,#1304,.T.);
#1306=ORIENTED_EDGE('',*,*,#1226,.F.);
#1307=CARTESIAN_POINT('',(-8.889999999999986,0.790961891182519,3.1942000000002));
#1308=DIRECTION('',(0.0,-1.0,0.0));
#1309=VECTOR('',#1308,2.710961891182791);
#1310=LINE('',#1307,#1309);
#1311=EDGE_CURVE('',#1277,#1215,#1310,.T.);
#1312=ORIENTED_EDGE('',*,*,#1311,.F.);
#1313=ORIENTED_EDGE('',*,*,#1282,.T.);
#1314=EDGE_LOOP('',(#1305,#1306,#1312,#1313));
#1315=FACE_OUTER_BOUND('',#1314,.T.);
#1316=ADVANCED_FACE('',(#1315),#1299,.T.);
#1317=CARTESIAN_POINT('',(-8.38999999999993,-0.21244421703463,4.392100000000101));
#1318=DIRECTION('',(1.0,0.0,0.0));
#1319=DIRECTION('',(0.0,0.0,-1.0));
#1320=AXIS2_PLACEMENT_3D('',#1317,#1318,#1319);
#1321=PLANE('',#1320);
#1322=ORIENTED_EDGE('',*,*,#1204,.F.);
#1323=ORIENTED_EDGE('',*,*,#1304,.F.);
#1324=ORIENTED_EDGE('',*,*,#1274,.F.);
#1325=ORIENTED_EDGE('',*,*,#1242,.F.);
#1326=EDGE_LOOP('',(#1322,#1323,#1324,#1325));
#1327=FACE_OUTER_BOUND('',#1326,.T.);
#1328=ADVANCED_FACE('',(#1327),#1321,.T.);
#1329=CARTESIAN_POINT('',(-8.88999999999993,-0.21244421703463,4.392100000000101));
#1330=DIRECTION('',(1.0,0.0,0.0));
#1331=DIRECTION('',(0.0,0.0,-1.0));
#1332=AXIS2_PLACEMENT_3D('',#1329,#1330,#1331);
#1333=PLANE('',#1332);
#1334=ORIENTED_EDGE('',*,*,#1311,.T.);
#1335=ORIENTED_EDGE('',*,*,#1220,.T.);
#1336=ORIENTED_EDGE('',*,*,#1256,.T.);
#1337=ORIENTED_EDGE('',*,*,#1289,.T.);
#1338=EDGE_LOOP('',(#1334,#1335,#1336,#1337));
#1339=FACE_OUTER_BOUND('',#1338,.T.);
#1340=ADVANCED_FACE('',(#1339),#1333,.F.);
#1341=CLOSED_SHELL('',(#1230,#1261,#1294,#1316,#1328,#1340));
#1342=MANIFOLD_SOLID_BREP('AF8',#1341);
#1343=STYLED_ITEM('NONE',(#109),#1342);
#1344=CARTESIAN_POINT('',(-8.889999999999986,0.0,4.3942000000002));
#1345=DIRECTION('',(-1.0,0.0,0.0));
#1346=DIRECTION('',(0.0,-1.0,0.0));
#1347=AXIS2_PLACEMENT_3D('',#1344,#1345,#1346);
#1348=CYLINDRICAL_SURFACE('',#1347,0.9);
#1349=CARTESIAN_POINT('',(-9.089999999999975,-0.900000000000006,4.3942000000002));
#1350=VERTEX_POINT('',#1349);
#1351=CARTESIAN_POINT('',(-8.889999999999986,-0.900000000000006,4.3942000000002));
#1352=VERTEX_POINT('',#1351);
#1353=CARTESIAN_POINT('',(-9.089999999999975,-0.9,4.3942000000002));
#1354=DIRECTION('',(1.0,0.0,0.0));
#1355=VECTOR('',#1354,0.199999999999989);
#1356=LINE('',#1353,#1355);
#1357=EDGE_CURVE('',#1350,#1352,#1356,.T.);
#1358=ORIENTED_EDGE('',*,*,#1357,.F.);
#1359=CARTESIAN_POINT('',(-9.089999999999975,0.9,4.3942000000002));
#1360=VERTEX_POINT('',#1359);
#1361=CARTESIAN_POINT('',(-9.089999999999975,0.0,4.3942000000002));
#1362=DIRECTION('',(1.0,0.0,0.0));
#1363=DIRECTION('',(0.0,-1.0,0.0));
#1364=AXIS2_PLACEMENT_3D('',#1361,#1362,#1363);
#1365=CIRCLE('',#1364,0.9);
#1366=EDGE_CURVE('',#1350,#1360,#1365,.T.);
#1367=ORIENTED_EDGE('',*,*,#1366,.T.);
#1368=CARTESIAN_POINT('',(-8.889999999999986,0.9,4.3942000000002));
#1369=VERTEX_POINT('',#1368);
#1370=CARTESIAN_POINT('',(-9.089999999999975,0.9,4.3942000000002));
#1371=DIRECTION('',(1.0,0.0,0.0));
#1372=VECTOR('',#1371,0.199999999999989);
#1373=LINE('',#1370,#1372);
#1374=EDGE_CURVE('',#1360,#1369,#1373,.T.);
#1375=ORIENTED_EDGE('',*,*,#1374,.T.);
#1376=CARTESIAN_POINT('',(-8.889999999999986,0.0,4.3942000000002));
#1377=DIRECTION('',(-1.0,0.0,0.0));
#1378=DIRECTION('',(0.0,-1.0,0.0));
#1379=AXIS2_PLACEMENT_3D('',#1376,#1377,#1378);
#1380=CIRCLE('',#1379,0.9);
#1381=EDGE_CURVE('',#1369,#1352,#1380,.T.);
#1382=ORIENTED_EDGE('',*,*,#1381,.T.);
#1383=EDGE_LOOP('',(#1358,#1367,#1375,#1382));
#1384=FACE_OUTER_BOUND('',#1383,.T.);
#1385=ADVANCED_FACE('',(#1384),#1348,.T.);
#1386=CARTESIAN_POINT('',(-8.889999999999986,0.0,4.3942000000002));
#1387=DIRECTION('',(-1.0,0.0,0.0));
#1388=DIRECTION('',(0.0,-1.0,0.0));
#1389=AXIS2_PLACEMENT_3D('',#1386,#1387,#1388);
#1390=CYLINDRICAL_SURFACE('',#1389,0.9);
#1391=ORIENTED_EDGE('',*,*,#1357,.T.);
#1392=CARTESIAN_POINT('',(-8.889999999999986,0.0,4.3942000000002));
#1393=DIRECTION('',(-1.0,0.0,0.0));
#1394=DIRECTION('',(0.0,-1.0,0.0));
#1395=AXIS2_PLACEMENT_3D('',#1392,#1393,#1394);
#1396=CIRCLE('',#1395,0.9);
#1397=EDGE_CURVE('',#1352,#1369,#1396,.T.);
#1398=ORIENTED_EDGE('',*,*,#1397,.T.);
#1399=ORIENTED_EDGE('',*,*,#1374,.F.);
#1400=CARTESIAN_POINT('',(-9.089999999999975,0.0,4.3942000000002));
#1401=DIRECTION('',(1.0,0.0,0.0));
#1402=DIRECTION('',(0.0,-1.0,0.0));
#1403=AXIS2_PLACEMENT_3D('',#1400,#1401,#1402);
#1404=CIRCLE('',#1403,0.9);
#1405=EDGE_CURVE('',#1360,#1350,#1404,.T.);
#1406=ORIENTED_EDGE('',*,*,#1405,.T.);
#1407=EDGE_LOOP('',(#1391,#1398,#1399,#1406));
#1408=FACE_OUTER_BOUND('',#1407,.T.);
#1409=ADVANCED_FACE('',(#1408),#1390,.T.);
#1410=CARTESIAN_POINT('',(-9.089999999999975,0.0,4.3942000000002));
#1411=DIRECTION('',(-1.0,0.0,0.0));
#1412=DIRECTION('',(0.0,0.0,1.0));
#1413=AXIS2_PLACEMENT_3D('',#1410,#1411,#1412);
#1414=PLANE('',#1413);
#1415=ORIENTED_EDGE('',*,*,#1366,.F.);
#1416=ORIENTED_EDGE('',*,*,#1405,.F.);
#1417=EDGE_LOOP('',(#1415,#1416));
#1418=FACE_OUTER_BOUND('',#1417,.T.);
#1419=ADVANCED_FACE('',(#1418),#1414,.T.);
#1420=CARTESIAN_POINT('',(-8.889999999999986,0.0,4.3942000000002));
#1421=DIRECTION('',(-1.0,0.0,0.0));
#1422=DIRECTION('',(0.0,0.0,1.0));
#1423=AXIS2_PLACEMENT_3D('',#1420,#1421,#1422);
#1424=PLANE('',#1423);
#1425=ORIENTED_EDGE('',*,*,#1397,.F.);
#1426=ORIENTED_EDGE('',*,*,#1381,.F.);
#1427=EDGE_LOOP('',(#1425,#1426));
#1428=FACE_OUTER_BOUND('',#1427,.T.);
#1429=ADVANCED_FACE('',(#1428),#1424,.F.);
#1430=CLOSED_SHELL('',(#1385,#1409,#1419,#1429));
#1431=MANIFOLD_SOLID_BREP('AF7',#1430);
#1432=STYLED_ITEM('NONE',(#109),#1431);
#1433=CARTESIAN_POINT('',(-8.889999999999986,-1.920000000000016,5.7342000000002));
#1434=DIRECTION('',(0.0,-1.0,0.0));
#1435=DIRECTION('',(0.0,0.0,-1.0));
#1436=AXIS2_PLACEMENT_3D('',#1433,#1434,#1435);
#1437=PLANE('',#1436);
#1438=CARTESIAN_POINT('',(-8.38999999999993,-1.920000000000016,5.7342000000002));
#1439=VERTEX_POINT('',#1438);
#1440=CARTESIAN_POINT('',(-8.38999999999993,-1.920000000000016,8.130000000000001));
#1441=VERTEX_POINT('',#1440);
#1442=CARTESIAN_POINT('',(-8.389999999999986,-1.920000000000016,5.7342000000002));
#1443=DIRECTION('',(0.0,0.0,1.0));
#1444=VECTOR('',#1443,2.395799999999801);
#1445=LINE('',#1442,#1444);
#1446=EDGE_CURVE('',#1439,#1441,#1445,.T.);
#1447=ORIENTED_EDGE('',*,*,#1446,.T.);
#1448=CARTESIAN_POINT('',(-8.889999999999986,-1.920000000000016,8.130000000000001));
#1449=VERTEX_POINT('',#1448);
#1450=CARTESIAN_POINT('',(-8.889999999999986,-1.920000000000016,8.130000000000001));
#1451=DIRECTION('',(1.0,0.0,0.0));
#1452=VECTOR('',#1451,0.500000000000057);
#1453=LINE('',#1450,#1452);
#1454=EDGE_CURVE('',#1449,#1441,#1453,.T.);
#1455=ORIENTED_EDGE('',*,*,#1454,.F.);
#1456=CARTESIAN_POINT('',(-8.889999999999986,-1.920000000000016,5.7342000000002));
#1457=VERTEX_POINT('',#1456);
#1458=CARTESIAN_POINT('',(-8.889999999999986,-1.920000000000016,5.7342000000002));
#1459=DIRECTION('',(0.0,0.0,1.0));
#1460=VECTOR('',#1459,2.395799999999801);
#1461=LINE('',#1458,#1460);
#1462=EDGE_CURVE('',#1457,#1449,#1461,.T.);
#1463=ORIENTED_EDGE('',*,*,#1462,.F.);
#1464=CARTESIAN_POINT('',(-8.889999999999986,-1.920000000000016,5.7342000000002));
#1465=DIRECTION('',(1.0,0.0,0.0));
#1466=VECTOR('',#1465,0.500000000000057);
#1467=LINE('',#1464,#1466);
#1468=EDGE_CURVE('',#1457,#1439,#1467,.T.);
#1469=ORIENTED_EDGE('',*,*,#1468,.T.);
#1470=EDGE_LOOP('',(#1447,#1455,#1463,#1469));
#1471=FACE_OUTER_BOUND('',#1470,.T.);
#1472=ADVANCED_FACE('',(#1471),#1437,.T.);
#1473=CARTESIAN_POINT('',(-8.889999999999986,-1.920000000000016,8.130000000000001));
#1474=DIRECTION('',(0.0,0.0,1.0));
#1475=DIRECTION('',(1.0,0.0,0.0));
#1476=AXIS2_PLACEMENT_3D('',#1473,#1474,#1475);
#1477=PLANE('',#1476);
#1478=CARTESIAN_POINT('',(-8.38999999999993,0.790961891182803,8.130000000000001));
#1479=VERTEX_POINT('',#1478);
#1480=CARTESIAN_POINT('',(-8.389999999999986,-1.920000000000016,8.130000000000001));
#1481=DIRECTION('',(0.0,1.0,0.0));
#1482=VECTOR('',#1481,2.710961891182819);
#1483=LINE('',#1480,#1482);
#1484=EDGE_CURVE('',#1441,#1479,#1483,.T.);
#1485=ORIENTED_EDGE('',*,*,#1484,.T.);
#1486=CARTESIAN_POINT('',(-8.889999999999986,0.790961891182803,8.130000000000001));
#1487=VERTEX_POINT('',#1486);
#1488=CARTESIAN_POINT('',(-8.889999999999986,0.790961891182803,8.130000000000001));
#1489=DIRECTION('',(1.0,0.0,0.0));
#1490=VECTOR('',#1489,0.500000000000057);
#1491=LINE('',#1488,#1490);
#1492=EDGE_CURVE('',#1487,#1479,#1491,.T.);
#1493=ORIENTED_EDGE('',*,*,#1492,.F.);
#1494=CARTESIAN_POINT('',(-8.889999999999986,-1.920000000000016,8.130000000000001));
#1495=DIRECTION('',(0.0,1.0,0.0));
#1496=VECTOR('',#1495,2.710961891182819);
#1497=LINE('',#1494,#1496);
#1498=EDGE_CURVE('',#1449,#1487,#1497,.T.);
#1499=ORIENTED_EDGE('',*,*,#1498,.F.);
#1500=ORIENTED_EDGE('',*,*,#1454,.T.);
#1501=EDGE_LOOP('',(#1485,#1493,#1499,#1500));
#1502=FACE_OUTER_BOUND('',#1501,.T.);
#1503=ADVANCED_FACE('',(#1502),#1477,.T.);
#1504=CARTESIAN_POINT('',(-8.889999999999986,0.719999999999999,6.932100000000101));
#1505=DIRECTION('',(1.0,0.0,0.0));
#1506=DIRECTION('',(0.0,1.0,0.0));
#1507=AXIS2_PLACEMENT_3D('',#1504,#1505,#1506);
#1508=CYLINDRICAL_SURFACE('',#1507,1.2);
#1509=CARTESIAN_POINT('',(-8.38999999999993,0.790961891182775,5.7342000000002));
#1510=VERTEX_POINT('',#1509);
#1511=CARTESIAN_POINT('',(-8.389999999999986,0.719999999999999,6.932100000000101));
#1512=DIRECTION('',(-1.0,0.0,0.0));
#1513=DIRECTION('',(0.0,1.0,0.0));
#1514=AXIS2_PLACEMENT_3D('',#1511,#1512,#1513);
#1515=CIRCLE('',#1514,1.2);
#1516=EDGE_CURVE('',#1479,#1510,#1515,.T.);
#1517=ORIENTED_EDGE('',*,*,#1516,.T.);
#1518=CARTESIAN_POINT('',(-8.889999999999986,0.790961891182775,5.7342000000002));
#1519=VERTEX_POINT('',#1518);
#1520=CARTESIAN_POINT('',(-8.889999999999986,0.790961891182775,5.7342000000002));
#1521=DIRECTION('',(1.0,0.0,0.0));
#1522=VECTOR('',#1521,0.500000000000057);
#1523=LINE('',#1520,#1522);
#1524=EDGE_CURVE('',#1519,#1510,#1523,.T.);
#1525=ORIENTED_EDGE('',*,*,#1524,.F.);
#1526=CARTESIAN_POINT('',(-8.889999999999986,0.719999999999999,6.932100000000101));
#1527=DIRECTION('',(-1.0,0.0,0.0));
#1528=DIRECTION('',(0.0,1.0,0.0));
#1529=AXIS2_PLACEMENT_3D('',#1526,#1527,#1528);
#1530=CIRCLE('',#1529,1.2);
#1531=EDGE_CURVE('',#1487,#1519,#1530,.T.);
#1532=ORIENTED_EDGE('',*,*,#1531,.F.);
#1533=ORIENTED_EDGE('',*,*,#1492,.T.);
#1534=EDGE_LOOP('',(#1517,#1525,#1532,#1533));
#1535=FACE_OUTER_BOUND('',#1534,.T.);
#1536=ADVANCED_FACE('',(#1535),#1508,.T.);
#1537=CARTESIAN_POINT('',(-8.889999999999986,0.790961891182775,5.7342000000002));
#1538=DIRECTION('',(0.0,0.0,-1.0));
#1539=DIRECTION('',(-1.0,0.0,0.0));
#1540=AXIS2_PLACEMENT_3D('',#1537,#1538,#1539);
#1541=PLANE('',#1540);
#1542=CARTESIAN_POINT('',(-8.389999999999986,0.790961891182775,5.7342000000002));
#1543=DIRECTION('',(0.0,-1.0,0.0));
#1544=VECTOR('',#1543,2.710961891182791);
#1545=LINE('',#1542,#1544);
#1546=EDGE_CURVE('',#1510,#1439,#1545,.T.);
#1547=ORIENTED_EDGE('',*,*,#1546,.T.);
#1548=ORIENTED_EDGE('',*,*,#1468,.F.);
#1549=CARTESIAN_POINT('',(-8.889999999999986,0.790961891182775,5.7342000000002));
#1550=DIRECTION('',(0.0,-1.0,0.0));
#1551=VECTOR('',#1550,2.710961891182791);
#1552=LINE('',#1549,#1551);
#1553=EDGE_CURVE('',#1519,#1457,#1552,.T.);
#1554=ORIENTED_EDGE('',*,*,#1553,.F.);
#1555=ORIENTED_EDGE('',*,*,#1524,.T.);
#1556=EDGE_LOOP('',(#1547,#1548,#1554,#1555));
#1557=FACE_OUTER_BOUND('',#1556,.T.);
#1558=ADVANCED_FACE('',(#1557),#1541,.T.);
#1559=CARTESIAN_POINT('',(-8.38999999999993,-0.212444217034374,6.932100000000101));
#1560=DIRECTION('',(1.0,0.0,0.0));
#1561=DIRECTION('',(0.0,0.0,-1.0));
#1562=AXIS2_PLACEMENT_3D('',#1559,#1560,#1561);
#1563=PLANE('',#1562);
#1564=ORIENTED_EDGE('',*,*,#1446,.F.);
#1565=ORIENTED_EDGE('',*,*,#1546,.F.);
#1566=ORIENTED_EDGE('',*,*,#1516,.F.);
#1567=ORIENTED_EDGE('',*,*,#1484,.F.);
#1568=EDGE_LOOP('',(#1564,#1565,#1566,#1567));
#1569=FACE_OUTER_BOUND('',#1568,.T.);
#1570=ADVANCED_FACE('',(#1569),#1563,.T.);
#1571=CARTESIAN_POINT('',(-8.88999999999993,-0.212444217034374,6.932100000000101));
#1572=DIRECTION('',(1.0,0.0,0.0));
#1573=DIRECTION('',(0.0,0.0,-1.0));
#1574=AXIS2_PLACEMENT_3D('',#1571,#1572,#1573);
#1575=PLANE('',#1574);
#1576=ORIENTED_EDGE('',*,*,#1553,.T.);
#1577=ORIENTED_EDGE('',*,*,#1462,.T.);
#1578=ORIENTED_EDGE('',*,*,#1498,.T.);
#1579=ORIENTED_EDGE('',*,*,#1531,.T.);
#1580=EDGE_LOOP('',(#1576,#1577,#1578,#1579));
#1581=FACE_OUTER_BOUND('',#1580,.T.);
#1582=ADVANCED_FACE('',(#1581),#1575,.F.);
#1583=CLOSED_SHELL('',(#1472,#1503,#1536,#1558,#1570,#1582));
#1584=MANIFOLD_SOLID_BREP('A64',#1583);
#1585=STYLED_ITEM('NONE',(#109),#1584);
#1586=CARTESIAN_POINT('',(-8.889999999999986,2.557954E-013,6.9342000000002));
#1587=DIRECTION('',(-1.0,0.0,0.0));
#1588=DIRECTION('',(0.0,-1.0,0.0));
#1589=AXIS2_PLACEMENT_3D('',#1586,#1587,#1588);
#1590=CYLINDRICAL_SURFACE('',#1589,0.9);
#1591=CARTESIAN_POINT('',(-9.089999999999975,-0.89999999999975,6.9342000000002));
#1592=VERTEX_POINT('',#1591);
#1593=CARTESIAN_POINT('',(-8.889999999999986,-0.89999999999975,6.9342000000002));
#1594=VERTEX_POINT('',#1593);
#1595=CARTESIAN_POINT('',(-9.089999999999975,-0.899999999999744,6.9342000000002));
#1596=DIRECTION('',(1.0,0.0,0.0));
#1597=VECTOR('',#1596,0.199999999999989);
#1598=LINE('',#1595,#1597);
#1599=EDGE_CURVE('',#1592,#1594,#1598,.T.);
#1600=ORIENTED_EDGE('',*,*,#1599,.F.);
#1601=CARTESIAN_POINT('',(-9.089999999999975,0.900000000000256,6.9342000000002));
#1602=VERTEX_POINT('',#1601);
#1603=CARTESIAN_POINT('',(-9.089999999999975,2.557954E-013,6.9342000000002));
#1604=DIRECTION('',(1.0,0.0,0.0));
#1605=DIRECTION('',(0.0,-1.0,0.0));
#1606=AXIS2_PLACEMENT_3D('',#1603,#1604,#1605);
#1607=CIRCLE('',#1606,0.9);
#1608=EDGE_CURVE('',#1592,#1602,#1607,.T.);
#1609=ORIENTED_EDGE('',*,*,#1608,.T.);
#1610=CARTESIAN_POINT('',(-8.889999999999986,0.900000000000256,6.9342000000002));
#1611=VERTEX_POINT('',#1610);
#1612=CARTESIAN_POINT('',(-9.089999999999975,0.900000000000256,6.9342000000002));
#1613=DIRECTION('',(1.0,0.0,0.0));
#1614=VECTOR('',#1613,0.199999999999989);
#1615=LINE('',#1612,#1614);
#1616=EDGE_CURVE('',#1602,#1611,#1615,.T.);
#1617=ORIENTED_EDGE('',*,*,#1616,.T.);
#1618=CARTESIAN_POINT('',(-8.889999999999986,2.557954E-013,6.9342000000002));
#1619=DIRECTION('',(-1.0,0.0,0.0));
#1620=DIRECTION('',(0.0,-1.0,0.0));
#1621=AXIS2_PLACEMENT_3D('',#1618,#1619,#1620);
#1622=CIRCLE('',#1621,0.9);
#1623=EDGE_CURVE('',#1611,#1594,#1622,.T.);
#1624=ORIENTED_EDGE('',*,*,#1623,.T.);
#1625=EDGE_LOOP('',(#1600,#1609,#1617,#1624));
#1626=FACE_OUTER_BOUND('',#1625,.T.);
#1627=ADVANCED_FACE('',(#1626),#1590,.T.);
#1628=CARTESIAN_POINT('',(-8.889999999999986,2.557954E-013,6.9342000000002));
#1629=DIRECTION('',(-1.0,0.0,0.0));
#1630=DIRECTION('',(0.0,-1.0,0.0));
#1631=AXIS2_PLACEMENT_3D('',#1628,#1629,#1630);
#1632=CYLINDRICAL_SURFACE('',#1631,0.9);
#1633=ORIENTED_EDGE('',*,*,#1599,.T.);
#1634=CARTESIAN_POINT('',(-8.889999999999986,2.557954E-013,6.9342000000002));
#1635=DIRECTION('',(-1.0,0.0,0.0));
#1636=DIRECTION('',(0.0,-1.0,0.0));
#1637=AXIS2_PLACEMENT_3D('',#1634,#1635,#1636);
#1638=CIRCLE('',#1637,0.9);
#1639=EDGE_CURVE('',#1594,#1611,#1638,.T.);
#1640=ORIENTED_EDGE('',*,*,#1639,.T.);
#1641=ORIENTED_EDGE('',*,*,#1616,.F.);
#1642=CARTESIAN_POINT('',(-9.089999999999975,2.557954E-013,6.9342000000002));
#1643=DIRECTION('',(1.0,0.0,0.0));
#1644=DIRECTION('',(0.0,-1.0,0.0));
#1645=AXIS2_PLACEMENT_3D('',#1642,#1643,#1644);
#1646=CIRCLE('',#1645,0.9);
#1647=EDGE_CURVE('',#1602,#1592,#1646,.T.);
#1648=ORIENTED_EDGE('',*,*,#1647,.T.);
#1649=EDGE_LOOP('',(#1633,#1640,#1641,#1648));
#1650=FACE_OUTER_BOUND('',#1649,.T.);
#1651=ADVANCED_FACE('',(#1650),#1632,.T.);
#1652=CARTESIAN_POINT('',(-9.089999999999975,2.557954E-013,6.9342000000002));
#1653=DIRECTION('',(-1.0,0.0,0.0));
#1654=DIRECTION('',(0.0,0.0,1.0));
#1655=AXIS2_PLACEMENT_3D('',#1652,#1653,#1654);
#1656=PLANE('',#1655);
#1657=ORIENTED_EDGE('',*,*,#1608,.F.);
#1658=ORIENTED_EDGE('',*,*,#1647,.F.);
#1659=EDGE_LOOP('',(#1657,#1658));
#1660=FACE_OUTER_BOUND('',#1659,.T.);
#1661=ADVANCED_FACE('',(#1660),#1656,.T.);
#1662=CARTESIAN_POINT('',(-8.889999999999986,2.557954E-013,6.9342000000002));
#1663=DIRECTION('',(-1.0,0.0,0.0));
#1664=DIRECTION('',(0.0,0.0,1.0));
#1665=AXIS2_PLACEMENT_3D('',#1662,#1663,#1664);
#1666=PLANE('',#1665);
#1667=ORIENTED_EDGE('',*,*,#1639,.F.);
#1668=ORIENTED_EDGE('',*,*,#1623,.F.);
#1669=EDGE_LOOP('',(#1667,#1668));
#1670=FACE_OUTER_BOUND('',#1669,.T.);
#1671=ADVANCED_FACE('',(#1670),#1666,.F.);
#1672=CLOSED_SHELL('',(#1627,#1651,#1661,#1671));
#1673=MANIFOLD_SOLID_BREP('A63',#1672);
#1674=STYLED_ITEM('NONE',(#109),#1673);
#1675=CARTESIAN_POINT('',(-8.889999999999986,-1.920000000000016,8.274200000000199));
#1676=DIRECTION('',(0.0,-1.0,0.0));
#1677=DIRECTION('',(0.0,0.0,-1.0));
#1678=AXIS2_PLACEMENT_3D('',#1675,#1676,#1677);
#1679=PLANE('',#1678);
#1680=CARTESIAN_POINT('',(-8.38999999999993,-1.920000000000016,8.274200000000199));
#1681=VERTEX_POINT('',#1680);
#1682=CARTESIAN_POINT('',(-8.38999999999993,-1.920000000000016,10.67));
#1683=VERTEX_POINT('',#1682);
#1684=CARTESIAN_POINT('',(-8.389999999999986,-1.920000000000016,8.274200000000199));
#1685=DIRECTION('',(0.0,0.0,1.0));
#1686=VECTOR('',#1685,2.395799999999801);
#1687=LINE('',#1684,#1686);
#1688=EDGE_CURVE('',#1681,#1683,#1687,.T.);
#1689=ORIENTED_EDGE('',*,*,#1688,.T.);
#1690=CARTESIAN_POINT('',(-8.889999999999986,-1.920000000000016,10.67));
#1691=VERTEX_POINT('',#1690);
#1692=CARTESIAN_POINT('',(-8.889999999999986,-1.920000000000016,10.67));
#1693=DIRECTION('',(1.0,0.0,0.0));
#1694=VECTOR('',#1693,0.500000000000057);
#1695=LINE('',#1692,#1694);
#1696=EDGE_CURVE('',#1691,#1683,#1695,.T.);
#1697=ORIENTED_EDGE('',*,*,#1696,.F.);
#1698=CARTESIAN_POINT('',(-8.889999999999986,-1.920000000000016,8.274200000000199));
#1699=VERTEX_POINT('',#1698);
#1700=CARTESIAN_POINT('',(-8.889999999999986,-1.920000000000016,8.274200000000199));
#1701=DIRECTION('',(0.0,0.0,1.0));
#1702=VECTOR('',#1701,2.395799999999801);
#1703=LINE('',#1700,#1702);
#1704=EDGE_CURVE('',#1699,#1691,#1703,.T.);
#1705=ORIENTED_EDGE('',*,*,#1704,.F.);
#1706=CARTESIAN_POINT('',(-8.889999999999986,-1.920000000000016,8.274200000000199));
#1707=DIRECTION('',(1.0,0.0,0.0));
#1708=VECTOR('',#1707,0.500000000000057);
#1709=LINE('',#1706,#1708);
#1710=EDGE_CURVE('',#1699,#1681,#1709,.T.);
#1711=ORIENTED_EDGE('',*,*,#1710,.T.);
#1712=EDGE_LOOP('',(#1689,#1697,#1705,#1711));
#1713=FACE_OUTER_BOUND('',#1712,.T.);
#1714=ADVANCED_FACE('',(#1713),#1679,.T.);
#1715=CARTESIAN_POINT('',(-8.889999999999986,-1.920000000000016,10.67));
#1716=DIRECTION('',(0.0,0.0,1.0));
#1717=DIRECTION('',(1.0,0.0,0.0));
#1718=AXIS2_PLACEMENT_3D('',#1715,#1716,#1717);
#1719=PLANE('',#1718);
#1720=CARTESIAN_POINT('',(-8.38999999999993,0.790961891182803,10.67));
#1721=VERTEX_POINT('',#1720);
#1722=CARTESIAN_POINT('',(-8.389999999999986,-1.920000000000016,10.67));
#1723=DIRECTION('',(0.0,1.0,0.0));
#1724=VECTOR('',#1723,2.710961891182819);
#1725=LINE('',#1722,#1724);
#1726=EDGE_CURVE('',#1683,#1721,#1725,.T.);
#1727=ORIENTED_EDGE('',*,*,#1726,.T.);
#1728=CARTESIAN_POINT('',(-8.889999999999986,0.790961891182803,10.67));
#1729=VERTEX_POINT('',#1728);
#1730=CARTESIAN_POINT('',(-8.889999999999986,0.790961891182803,10.67));
#1731=DIRECTION('',(1.0,0.0,0.0));
#1732=VECTOR('',#1731,0.500000000000057);
#1733=LINE('',#1730,#1732);
#1734=EDGE_CURVE('',#1729,#1721,#1733,.T.);
#1735=ORIENTED_EDGE('',*,*,#1734,.F.);
#1736=CARTESIAN_POINT('',(-8.889999999999986,-1.920000000000016,10.67));
#1737=DIRECTION('',(0.0,1.0,0.0));
#1738=VECTOR('',#1737,2.710961891182819);
#1739=LINE('',#1736,#1738);
#1740=EDGE_CURVE('',#1691,#1729,#1739,.T.);
#1741=ORIENTED_EDGE('',*,*,#1740,.F.);
#1742=ORIENTED_EDGE('',*,*,#1696,.T.);
#1743=EDGE_LOOP('',(#1727,#1735,#1741,#1742));
#1744=FACE_OUTER_BOUND('',#1743,.T.);
#1745=ADVANCED_FACE('',(#1744),#1719,.T.);
#1746=CARTESIAN_POINT('',(-8.889999999999986,0.719999999999999,9.472100000000101));
#1747=DIRECTION('',(1.0,0.0,0.0));
#1748=DIRECTION('',(0.0,1.0,0.0));
#1749=AXIS2_PLACEMENT_3D('',#1746,#1747,#1748);
#1750=CYLINDRICAL_SURFACE('',#1749,1.2);
#1751=CARTESIAN_POINT('',(-8.38999999999993,0.790961891182775,8.274200000000199));
#1752=VERTEX_POINT('',#1751);
#1753=CARTESIAN_POINT('',(-8.389999999999986,0.719999999999999,9.472100000000101));
#1754=DIRECTION('',(-1.0,0.0,0.0));
#1755=DIRECTION('',(0.0,1.0,0.0));
#1756=AXIS2_PLACEMENT_3D('',#1753,#1754,#1755);
#1757=CIRCLE('',#1756,1.2);
#1758=EDGE_CURVE('',#1721,#1752,#1757,.T.);
#1759=ORIENTED_EDGE('',*,*,#1758,.T.);
#1760=CARTESIAN_POINT('',(-8.889999999999986,0.790961891182775,8.274200000000199));
#1761=VERTEX_POINT('',#1760);
#1762=CARTESIAN_POINT('',(-8.889999999999986,0.790961891182775,8.274200000000199));
#1763=DIRECTION('',(1.0,0.0,0.0));
#1764=VECTOR('',#1763,0.500000000000057);
#1765=LINE('',#1762,#1764);
#1766=EDGE_CURVE('',#1761,#1752,#1765,.T.);
#1767=ORIENTED_EDGE('',*,*,#1766,.F.);
#1768=CARTESIAN_POINT('',(-8.889999999999986,0.719999999999999,9.472100000000101));
#1769=DIRECTION('',(-1.0,0.0,0.0));
#1770=DIRECTION('',(0.0,1.0,0.0));
#1771=AXIS2_PLACEMENT_3D('',#1768,#1769,#1770);
#1772=CIRCLE('',#1771,1.2);
#1773=EDGE_CURVE('',#1729,#1761,#1772,.T.);
#1774=ORIENTED_EDGE('',*,*,#1773,.F.);
#1775=ORIENTED_EDGE('',*,*,#1734,.T.);
#1776=EDGE_LOOP('',(#1759,#1767,#1774,#1775));
#1777=FACE_OUTER_BOUND('',#1776,.T.);
#1778=ADVANCED_FACE('',(#1777),#1750,.T.);
#1779=CARTESIAN_POINT('',(-8.889999999999986,0.790961891182775,8.274200000000199));
#1780=DIRECTION('',(0.0,0.0,-1.0));
#1781=DIRECTION('',(-1.0,0.0,0.0));
#1782=AXIS2_PLACEMENT_3D('',#1779,#1780,#1781);
#1783=PLANE('',#1782);
#1784=CARTESIAN_POINT('',(-8.389999999999986,0.790961891182775,8.274200000000199));
#1785=DIRECTION('',(0.0,-1.0,0.0));
#1786=VECTOR('',#1785,2.710961891182791);
#1787=LINE('',#1784,#1786);
#1788=EDGE_CURVE('',#1752,#1681,#1787,.T.);
#1789=ORIENTED_EDGE('',*,*,#1788,.T.);
#1790=ORIENTED_EDGE('',*,*,#1710,.F.);
#1791=CARTESIAN_POINT('',(-8.889999999999986,0.790961891182775,8.274200000000199));
#1792=DIRECTION('',(0.0,-1.0,0.0));
#1793=VECTOR('',#1792,2.710961891182791);
#1794=LINE('',#1791,#1793);
#1795=EDGE_CURVE('',#1761,#1699,#1794,.T.);
#1796=ORIENTED_EDGE('',*,*,#1795,.F.);
#1797=ORIENTED_EDGE('',*,*,#1766,.T.);
#1798=EDGE_LOOP('',(#1789,#1790,#1796,#1797));
#1799=FACE_OUTER_BOUND('',#1798,.T.);
#1800=ADVANCED_FACE('',(#1799),#1783,.T.);
#1801=CARTESIAN_POINT('',(-8.38999999999993,-0.212444217034374,9.472100000000101));
#1802=DIRECTION('',(1.0,0.0,0.0));
#1803=DIRECTION('',(0.0,0.0,-1.0));
#1804=AXIS2_PLACEMENT_3D('',#1801,#1802,#1803);
#1805=PLANE('',#1804);
#1806=ORIENTED_EDGE('',*,*,#1688,.F.);
#1807=ORIENTED_EDGE('',*,*,#1788,.F.);
#1808=ORIENTED_EDGE('',*,*,#1758,.F.);
#1809=ORIENTED_EDGE('',*,*,#1726,.F.);
#1810=EDGE_LOOP('',(#1806,#1807,#1808,#1809));
#1811=FACE_OUTER_BOUND('',#1810,.T.);
#1812=ADVANCED_FACE('',(#1811),#1805,.T.);
#1813=CARTESIAN_POINT('',(-8.88999999999993,-0.212444217034374,9.472100000000101));
#1814=DIRECTION('',(1.0,0.0,0.0));
#1815=DIRECTION('',(0.0,0.0,-1.0));
#1816=AXIS2_PLACEMENT_3D('',#1813,#1814,#1815);
#1817=PLANE('',#1816);
#1818=ORIENTED_EDGE('',*,*,#1795,.T.);
#1819=ORIENTED_EDGE('',*,*,#1704,.T.);
#1820=ORIENTED_EDGE('',*,*,#1740,.T.);
#1821=ORIENTED_EDGE('',*,*,#1773,.T.);
#1822=EDGE_LOOP('',(#1818,#1819,#1820,#1821));
#1823=FACE_OUTER_BOUND('',#1822,.T.);
#1824=ADVANCED_FACE('',(#1823),#1817,.F.);
#1825=CLOSED_SHELL('',(#1714,#1745,#1778,#1800,#1812,#1824));
#1826=MANIFOLD_SOLID_BREP('9C5',#1825);
#1827=STYLED_ITEM('NONE',(#109),#1826);
#1828=CARTESIAN_POINT('',(-8.889999999999986,2.557954E-013,9.474200000000199));
#1829=DIRECTION('',(-1.0,0.0,0.0));
#1830=DIRECTION('',(0.0,-1.0,0.0));
#1831=AXIS2_PLACEMENT_3D('',#1828,#1829,#1830);
#1832=CYLINDRICAL_SURFACE('',#1831,0.9);
#1833=CARTESIAN_POINT('',(-9.089999999999975,-0.89999999999975,9.474200000000199));
#1834=VERTEX_POINT('',#1833);
#1835=CARTESIAN_POINT('',(-8.889999999999986,-0.89999999999975,9.474200000000199));
#1836=VERTEX_POINT('',#1835);
#1837=CARTESIAN_POINT('',(-9.089999999999975,-0.899999999999744,9.474200000000199));
#1838=DIRECTION('',(1.0,0.0,0.0));
#1839=VECTOR('',#1838,0.199999999999989);
#1840=LINE('',#1837,#1839);
#1841=EDGE_CURVE('',#1834,#1836,#1840,.T.);
#1842=ORIENTED_EDGE('',*,*,#1841,.F.);
#1843=CARTESIAN_POINT('',(-9.089999999999975,0.900000000000256,9.474200000000199));
#1844=VERTEX_POINT('',#1843);
#1845=CARTESIAN_POINT('',(-9.089999999999975,2.557954E-013,9.474200000000199));
#1846=DIRECTION('',(1.0,0.0,0.0));
#1847=DIRECTION('',(0.0,-1.0,0.0));
#1848=AXIS2_PLACEMENT_3D('',#1845,#1846,#1847);
#1849=CIRCLE('',#1848,0.9);
#1850=EDGE_CURVE('',#1834,#1844,#1849,.T.);
#1851=ORIENTED_EDGE('',*,*,#1850,.T.);
#1852=CARTESIAN_POINT('',(-8.889999999999986,0.900000000000256,9.474200000000199));
#1853=VERTEX_POINT('',#1852);
#1854=CARTESIAN_POINT('',(-9.089999999999975,0.900000000000256,9.474200000000199));
#1855=DIRECTION('',(1.0,0.0,0.0));
#1856=VECTOR('',#1855,0.199999999999989);
#1857=LINE('',#1854,#1856);
#1858=EDGE_CURVE('',#1844,#1853,#1857,.T.);
#1859=ORIENTED_EDGE('',*,*,#1858,.T.);
#1860=CARTESIAN_POINT('',(-8.889999999999986,2.557954E-013,9.474200000000199));
#1861=DIRECTION('',(-1.0,0.0,0.0));
#1862=DIRECTION('',(0.0,-1.0,0.0));
#1863=AXIS2_PLACEMENT_3D('',#1860,#1861,#1862);
#1864=CIRCLE('',#1863,0.9);
#1865=EDGE_CURVE('',#1853,#1836,#1864,.T.);
#1866=ORIENTED_EDGE('',*,*,#1865,.T.);
#1867=EDGE_LOOP('',(#1842,#1851,#1859,#1866));
#1868=FACE_OUTER_BOUND('',#1867,.T.);
#1869=ADVANCED_FACE('',(#1868),#1832,.T.);
#1870=CARTESIAN_POINT('',(-8.889999999999986,2.557954E-013,9.474200000000199));
#1871=DIRECTION('',(-1.0,0.0,0.0));
#1872=DIRECTION('',(0.0,-1.0,0.0));
#1873=AXIS2_PLACEMENT_3D('',#1870,#1871,#1872);
#1874=CYLINDRICAL_SURFACE('',#1873,0.9);
#1875=ORIENTED_EDGE('',*,*,#1841,.T.);
#1876=CARTESIAN_POINT('',(-8.889999999999986,2.557954E-013,9.474200000000199));
#1877=DIRECTION('',(-1.0,0.0,0.0));
#1878=DIRECTION('',(0.0,-1.0,0.0));
#1879=AXIS2_PLACEMENT_3D('',#1876,#1877,#1878);
#1880=CIRCLE('',#1879,0.9);
#1881=EDGE_CURVE('',#1836,#1853,#1880,.T.);
#1882=ORIENTED_EDGE('',*,*,#1881,.T.);
#1883=ORIENTED_EDGE('',*,*,#1858,.F.);
#1884=CARTESIAN_POINT('',(-9.089999999999975,2.557954E-013,9.474200000000199));
#1885=DIRECTION('',(1.0,0.0,0.0));
#1886=DIRECTION('',(0.0,-1.0,0.0));
#1887=AXIS2_PLACEMENT_3D('',#1884,#1885,#1886);
#1888=CIRCLE('',#1887,0.9);
#1889=EDGE_CURVE('',#1844,#1834,#1888,.T.);
#1890=ORIENTED_EDGE('',*,*,#1889,.T.);
#1891=EDGE_LOOP('',(#1875,#1882,#1883,#1890));
#1892=FACE_OUTER_BOUND('',#1891,.T.);
#1893=ADVANCED_FACE('',(#1892),#1874,.T.);
#1894=CARTESIAN_POINT('',(-9.089999999999975,2.557954E-013,9.474200000000199));
#1895=DIRECTION('',(-1.0,0.0,0.0));
#1896=DIRECTION('',(0.0,0.0,1.0));
#1897=AXIS2_PLACEMENT_3D('',#1894,#1895,#1896);
#1898=PLANE('',#1897);
#1899=ORIENTED_EDGE('',*,*,#1850,.F.);
#1900=ORIENTED_EDGE('',*,*,#1889,.F.);
#1901=EDGE_LOOP('',(#1899,#1900));
#1902=FACE_OUTER_BOUND('',#1901,.T.);
#1903=ADVANCED_FACE('',(#1902),#1898,.T.);
#1904=CARTESIAN_POINT('',(-8.889999999999986,2.557954E-013,9.474200000000199));
#1905=DIRECTION('',(-1.0,0.0,0.0));
#1906=DIRECTION('',(0.0,0.0,1.0));
#1907=AXIS2_PLACEMENT_3D('',#1904,#1905,#1906);
#1908=PLANE('',#1907);
#1909=ORIENTED_EDGE('',*,*,#1881,.F.);
#1910=ORIENTED_EDGE('',*,*,#1865,.F.);
#1911=EDGE_LOOP('',(#1909,#1910));
#1912=FACE_OUTER_BOUND('',#1911,.T.);
#1913=ADVANCED_FACE('',(#1912),#1908,.F.);
#1914=CLOSED_SHELL('',(#1869,#1893,#1903,#1913));
#1915=MANIFOLD_SOLID_BREP('9AD',#1914);
#1916=STYLED_ITEM('NONE',(#109),#1915);
#1917=CARTESIAN_POINT('',(-8.889999999999986,2.049999999999983,10.800000000000001));
#1918=DIRECTION('',(0.0,1.0,0.0));
#1919=DIRECTION('',(0.0,0.0,1.0));
#1920=AXIS2_PLACEMENT_3D('',#1917,#1918,#1919);
#1921=PLANE('',#1920);
#1922=CARTESIAN_POINT('',(-8.389999999999873,2.049999999999983,10.800000000000001));
#1923=VERTEX_POINT('',#1922);
#1924=CARTESIAN_POINT('',(-8.389999999999873,2.049999999999983,0.5));
#1925=VERTEX_POINT('',#1924);
#1926=CARTESIAN_POINT('',(-8.389999999999986,2.049999999999983,10.800000000000001));
#1927=DIRECTION('',(0.0,0.0,-1.0));
#1928=VECTOR('',#1927,10.300000000000001);
#1929=LINE('',#1926,#1928);
#1930=EDGE_CURVE('',#1923,#1925,#1929,.T.);
#1931=ORIENTED_EDGE('',*,*,#1930,.F.);
#1932=CARTESIAN_POINT('',(-8.889999999999986,2.049999999999983,10.800000000000001));
#1933=VERTEX_POINT('',#1932);
#1934=CARTESIAN_POINT('',(-8.889999999999986,2.049999999999983,10.800000000000001));
#1935=DIRECTION('',(1.0,0.0,0.0));
#1936=VECTOR('',#1935,0.500000000000114);
#1937=LINE('',#1934,#1936);
#1938=EDGE_CURVE('',#1933,#1923,#1937,.T.);
#1939=ORIENTED_EDGE('',*,*,#1938,.F.);
#1940=CARTESIAN_POINT('',(-8.889999999999986,2.049999999999983,0.5));
#1941=VERTEX_POINT('',#1940);
#1942=CARTESIAN_POINT('',(-8.889999999999986,2.050000000000011,0.5));
#1943=DIRECTION('',(0.0,0.0,1.0));
#1944=VECTOR('',#1943,10.300000000000001);
#1945=LINE('',#1942,#1944);
#1946=EDGE_CURVE('',#1941,#1933,#1945,.T.);
#1947=ORIENTED_EDGE('',*,*,#1946,.F.);
#1948=CARTESIAN_POINT('',(-8.889999999999986,2.049999999999983,0.5));
#1949=DIRECTION('',(1.0,0.0,0.0));
#1950=VECTOR('',#1949,0.500000000000114);
#1951=LINE('',#1948,#1950);
#1952=EDGE_CURVE('',#1941,#1925,#1951,.T.);
#1953=ORIENTED_EDGE('',*,*,#1952,.T.);
#1954=EDGE_LOOP('',(#1931,#1939,#1947,#1953));
#1955=FACE_OUTER_BOUND('',#1954,.T.);
#1956=ADVANCED_FACE('',(#1955),#1921,.F.);
#1957=CARTESIAN_POINT('',(-8.889999999999986,2.049999999999983,0.5));
#1958=DIRECTION('',(0.0,0.0,-1.0));
#1959=DIRECTION('',(-1.0,0.0,0.0));
#1960=AXIS2_PLACEMENT_3D('',#1957,#1958,#1959);
#1961=PLANE('',#1960);
#1962=CARTESIAN_POINT('',(-8.389999999999873,-2.050000000000011,0.5));
#1963=VERTEX_POINT('',#1962);
#1964=CARTESIAN_POINT('',(-8.389999999999986,2.049999999999983,0.5));
#1965=DIRECTION('',(0.0,-1.0,0.0));
#1966=VECTOR('',#1965,4.099999999999994);
#1967=LINE('',#1964,#1966);
#1968=EDGE_CURVE('',#1925,#1963,#1967,.T.);
#1969=ORIENTED_EDGE('',*,*,#1968,.F.);
#1970=ORIENTED_EDGE('',*,*,#1952,.F.);
#1971=CARTESIAN_POINT('',(-8.889999999999986,-2.050000000000011,0.5));
#1972=VERTEX_POINT('',#1971);
#1973=CARTESIAN_POINT('',(-8.889999999999986,-2.050000000000011,0.5));
#1974=DIRECTION('',(0.0,1.0,0.0));
#1975=VECTOR('',#1974,4.099999999999994);
#1976=LINE('',#1973,#1975);
#1977=EDGE_CURVE('',#1972,#1941,#1976,.T.);
#1978=ORIENTED_EDGE('',*,*,#1977,.F.);
#1979=CARTESIAN_POINT('',(-8.889999999999986,-2.050000000000011,0.5));
#1980=DIRECTION('',(1.0,0.0,0.0));
#1981=VECTOR('',#1980,0.500000000000114);
#1982=LINE('',#1979,#1981);
#1983=EDGE_CURVE('',#1972,#1963,#1982,.T.);
#1984=ORIENTED_EDGE('',*,*,#1983,.T.);
#1985=EDGE_LOOP('',(#1969,#1970,#1978,#1984));
#1986=FACE_OUTER_BOUND('',#1985,.T.);
#1987=ADVANCED_FACE('',(#1986),#1961,.F.);
#1988=CARTESIAN_POINT('',(-8.889999999999986,-2.050000000000011,0.5));
#1989=DIRECTION('',(0.0,-1.0,0.0));
#1990=DIRECTION('',(0.0,0.0,-1.0));
#1991=AXIS2_PLACEMENT_3D('',#1988,#1989,#1990);
#1992=PLANE('',#1991);
#1993=CARTESIAN_POINT('',(-8.389999999999873,-2.050000000000011,10.800000000000001));
#1994=VERTEX_POINT('',#1993);
#1995=CARTESIAN_POINT('',(-8.389999999999986,-2.050000000000011,0.5));
#1996=DIRECTION('',(0.0,0.0,1.0));
#1997=VECTOR('',#1996,10.300000000000001);
#1998=LINE('',#1995,#1997);
#1999=EDGE_CURVE('',#1963,#1994,#1998,.T.);
#2000=ORIENTED_EDGE('',*,*,#1999,.F.);
#2001=ORIENTED_EDGE('',*,*,#1983,.F.);
#2002=CARTESIAN_POINT('',(-8.889999999999986,-2.050000000000011,10.800000000000001));
#2003=VERTEX_POINT('',#2002);
#2004=CARTESIAN_POINT('',(-8.889999999999986,-2.050000000000011,10.800000000000001));
#2005=DIRECTION('',(0.0,0.0,-1.0));
#2006=VECTOR('',#2005,10.300000000000001);
#2007=LINE('',#2004,#2006);
#2008=EDGE_CURVE('',#2003,#1972,#2007,.T.);
#2009=ORIENTED_EDGE('',*,*,#2008,.F.);
#2010=CARTESIAN_POINT('',(-8.889999999999986,-2.050000000000011,10.800000000000001));
#2011=DIRECTION('',(1.0,0.0,0.0));
#2012=VECTOR('',#2011,0.500000000000114);
#2013=LINE('',#2010,#2012);
#2014=EDGE_CURVE('',#2003,#1994,#2013,.T.);
#2015=ORIENTED_EDGE('',*,*,#2014,.T.);
#2016=EDGE_LOOP('',(#2000,#2001,#2009,#2015));
#2017=FACE_OUTER_BOUND('',#2016,.T.);
#2018=ADVANCED_FACE('',(#2017),#1992,.F.);
#2019=CARTESIAN_POINT('',(-8.889999999999986,-2.050000000000011,10.800000000000001));
#2020=DIRECTION('',(0.0,0.0,1.0));
#2021=DIRECTION('',(1.0,0.0,0.0));
#2022=AXIS2_PLACEMENT_3D('',#2019,#2020,#2021);
#2023=PLANE('',#2022);
#2024=CARTESIAN_POINT('',(-8.389999999999986,-2.050000000000011,10.800000000000001));
#2025=DIRECTION('',(0.0,1.0,0.0));
#2026=VECTOR('',#2025,4.099999999999994);
#2027=LINE('',#2024,#2026);
#2028=EDGE_CURVE('',#1994,#1923,#2027,.T.);
#2029=ORIENTED_EDGE('',*,*,#2028,.F.);
#2030=ORIENTED_EDGE('',*,*,#2014,.F.);
#2031=CARTESIAN_POINT('',(-8.889999999999986,2.049999999999983,10.800000000000001));
#2032=DIRECTION('',(0.0,-1.0,0.0));
#2033=VECTOR('',#2032,4.099999999999994);
#2034=LINE('',#2031,#2033);
#2035=EDGE_CURVE('',#1933,#2003,#2034,.T.);
#2036=ORIENTED_EDGE('',*,*,#2035,.F.);
#2037=ORIENTED_EDGE('',*,*,#1938,.T.);
#2038=EDGE_LOOP('',(#2029,#2030,#2036,#2037));
#2039=FACE_OUTER_BOUND('',#2038,.T.);
#2040=ADVANCED_FACE('',(#2039),#2023,.F.);
#2041=CARTESIAN_POINT('',(-8.389999999999873,5.684342E-014,5.65));
#2042=DIRECTION('',(1.0,0.0,0.0));
#2043=DIRECTION('',(0.0,0.0,-1.0));
#2044=AXIS2_PLACEMENT_3D('',#2041,#2042,#2043);
#2045=PLANE('',#2044);
#2046=ORIENTED_EDGE('',*,*,#1930,.T.);
#2047=ORIENTED_EDGE('',*,*,#1968,.T.);
#2048=ORIENTED_EDGE('',*,*,#1999,.T.);
#2049=ORIENTED_EDGE('',*,*,#2028,.T.);
#2050=EDGE_LOOP('',(#2046,#2047,#2048,#2049));
#2051=FACE_OUTER_BOUND('',#2050,.T.);
#2052=ADVANCED_FACE('',(#2051),#2045,.F.);
#2053=CARTESIAN_POINT('',(-8.889999999999986,-2.550000000000011,0.0));
#2054=DIRECTION('',(-1.0,0.0,0.0));
#2055=DIRECTION('',(0.0,0.0,1.0));
#2056=AXIS2_PLACEMENT_3D('',#2053,#2054,#2055);
#2057=PLANE('',#2056);
#2058=CARTESIAN_POINT('',(-8.889999999999986,-2.550000000000011,11.300000000000001));
#2059=VERTEX_POINT('',#2058);
#2060=CARTESIAN_POINT('',(-8.889999999999986,2.549999999999983,11.300000000000001));
#2061=VERTEX_POINT('',#2060);
#2062=CARTESIAN_POINT('',(-8.889999999999986,-2.550000000000011,11.300000000000001));
#2063=DIRECTION('',(0.0,1.0,0.0));
#2064=VECTOR('',#2063,5.099999999999994);
#2065=LINE('',#2062,#2064);
#2066=EDGE_CURVE('',#2059,#2061,#2065,.T.);
#2067=ORIENTED_EDGE('',*,*,#2066,.T.);
#2068=CARTESIAN_POINT('',(-8.889999999999986,2.549999999999983,0.0));
#2069=VERTEX_POINT('',#2068);
#2070=CARTESIAN_POINT('',(-8.889999999999986,2.549999999999983,0.0));
#2071=DIRECTION('',(0.0,0.0,1.0));
#2072=VECTOR('',#2071,11.300000000000001);
#2073=LINE('',#2070,#2072);
#2074=EDGE_CURVE('',#2069,#2061,#2073,.T.);
#2075=ORIENTED_EDGE('',*,*,#2074,.F.);
#2076=CARTESIAN_POINT('',(-8.889999999999986,-2.550000000000011,0.0));
#2077=VERTEX_POINT('',#2076);
#2078=CARTESIAN_POINT('',(-8.889999999999986,-2.550000000000011,0.0));
#2079=DIRECTION('',(0.0,1.0,0.0));
#2080=VECTOR('',#2079,5.099999999999994);
#2081=LINE('',#2078,#2080);
#2082=EDGE_CURVE('',#2077,#2069,#2081,.T.);
#2083=ORIENTED_EDGE('',*,*,#2082,.F.);
#2084=CARTESIAN_POINT('',(-8.889999999999986,-2.550000000000011,0.0));
#2085=DIRECTION('',(0.0,0.0,1.0));
#2086=VECTOR('',#2085,11.300000000000001);
#2087=LINE('',#2084,#2086);
#2088=EDGE_CURVE('',#2077,#2059,#2087,.T.);
#2089=ORIENTED_EDGE('',*,*,#2088,.T.);
#2090=EDGE_LOOP('',(#2067,#2075,#2083,#2089));
#2091=FACE_OUTER_BOUND('',#2090,.T.);
#2092=ORIENTED_EDGE('',*,*,#1946,.T.);
#2093=ORIENTED_EDGE('',*,*,#2035,.T.);
#2094=ORIENTED_EDGE('',*,*,#2008,.T.);
#2095=ORIENTED_EDGE('',*,*,#1977,.T.);
#2096=EDGE_LOOP('',(#2092,#2093,#2094,#2095));
#2097=FACE_BOUND('',#2096,.T.);
#2098=ADVANCED_FACE('',(#2091,#2097),#2057,.T.);
#2099=CARTESIAN_POINT('',(-8.889999999999986,2.549999999999983,0.0));
#2100=DIRECTION('',(0.0,1.0,0.0));
#2101=DIRECTION('',(0.0,0.0,1.0));
#2102=AXIS2_PLACEMENT_3D('',#2099,#2100,#2101);
#2103=PLANE('',#2102);
#2104=CARTESIAN_POINT('',(4.710000000000036,2.549999999999983,11.300000000000001));
#2105=VERTEX_POINT('',#2104);
#2106=CARTESIAN_POINT('',(-8.889999999999986,2.549999999999983,11.300000000000001));
#2107=DIRECTION('',(1.0,0.0,0.0));
#2108=VECTOR('',#2107,13.600000000000023);
#2109=LINE('',#2106,#2108);
#2110=EDGE_CURVE('',#2061,#2105,#2109,.T.);
#2111=ORIENTED_EDGE('',*,*,#2110,.T.);
#2112=CARTESIAN_POINT('',(4.710000000000036,2.549999999999983,0.0));
#2113=VERTEX_POINT('',#2112);
#2114=CARTESIAN_POINT('',(4.710000000000036,2.549999999999983,0.0));
#2115=DIRECTION('',(0.0,0.0,1.0));
#2116=VECTOR('',#2115,11.300000000000001);
#2117=LINE('',#2114,#2116);
#2118=EDGE_CURVE('',#2113,#2105,#2117,.T.);
#2119=ORIENTED_EDGE('',*,*,#2118,.F.);
#2120=CARTESIAN_POINT('',(-8.889999999999986,2.549999999999983,0.0));
#2121=DIRECTION('',(1.0,0.0,0.0));
#2122=VECTOR('',#2121,13.600000000000023);
#2123=LINE('',#2120,#2122);
#2124=EDGE_CURVE('',#2069,#2113,#2123,.T.);
#2125=ORIENTED_EDGE('',*,*,#2124,.F.);
#2126=ORIENTED_EDGE('',*,*,#2074,.T.);
#2127=EDGE_LOOP('',(#2111,#2119,#2125,#2126));
#2128=FACE_OUTER_BOUND('',#2127,.T.);
#2129=ADVANCED_FACE('',(#2128),#2103,.T.);
#2130=CARTESIAN_POINT('',(4.710000000000036,2.549999999999983,0.0));
#2131=DIRECTION('',(1.0,0.0,0.0));
#2132=DIRECTION('',(0.0,0.0,-1.0));
#2133=AXIS2_PLACEMENT_3D('',#2130,#2131,#2132);
#2134=PLANE('',#2133);
#2135=CARTESIAN_POINT('',(4.710000000000036,-2.550000000000011,11.300000000000001));
#2136=VERTEX_POINT('',#2135);
#2137=CARTESIAN_POINT('',(4.710000000000036,2.549999999999983,11.300000000000001));
#2138=DIRECTION('',(0.0,-1.0,0.0));
#2139=VECTOR('',#2138,5.099999999999994);
#2140=LINE('',#2137,#2139);
#2141=EDGE_CURVE('',#2105,#2136,#2140,.T.);
#2142=ORIENTED_EDGE('',*,*,#2141,.T.);
#2143=CARTESIAN_POINT('',(4.710000000000036,-2.550000000000011,0.0));
#2144=VERTEX_POINT('',#2143);
#2145=CARTESIAN_POINT('',(4.710000000000036,-2.550000000000011,0.0));
#2146=DIRECTION('',(0.0,0.0,1.0));
#2147=VECTOR('',#2146,11.300000000000001);
#2148=LINE('',#2145,#2147);
#2149=EDGE_CURVE('',#2144,#2136,#2148,.T.);
#2150=ORIENTED_EDGE('',*,*,#2149,.F.);
#2151=CARTESIAN_POINT('',(4.710000000000036,2.549999999999983,0.0));
#2152=DIRECTION('',(0.0,-1.0,0.0));
#2153=VECTOR('',#2152,5.099999999999994);
#2154=LINE('',#2151,#2153);
#2155=EDGE_CURVE('',#2113,#2144,#2154,.T.);
#2156=ORIENTED_EDGE('',*,*,#2155,.F.);
#2157=ORIENTED_EDGE('',*,*,#2118,.T.);
#2158=EDGE_LOOP('',(#2142,#2150,#2156,#2157));
#2159=FACE_OUTER_BOUND('',#2158,.T.);
#2160=ADVANCED_FACE('',(#2159),#2134,.T.);
#2161=CARTESIAN_POINT('',(4.710000000000036,-2.550000000000011,0.0));
#2162=DIRECTION('',(0.0,-1.0,0.0));
#2163=DIRECTION('',(0.0,0.0,-1.0));
#2164=AXIS2_PLACEMENT_3D('',#2161,#2162,#2163);
#2165=PLANE('',#2164);
#2166=CARTESIAN_POINT('',(4.710000000000036,-2.550000000000011,11.300000000000001));
#2167=DIRECTION('',(-1.0,0.0,0.0));
#2168=VECTOR('',#2167,13.600000000000023);
#2169=LINE('',#2166,#2168);
#2170=EDGE_CURVE('',#2136,#2059,#2169,.T.);
#2171=ORIENTED_EDGE('',*,*,#2170,.T.);
#2172=ORIENTED_EDGE('',*,*,#2088,.F.);
#2173=CARTESIAN_POINT('',(4.710000000000036,-2.550000000000011,0.0));
#2174=DIRECTION('',(-1.0,0.0,0.0));
#2175=VECTOR('',#2174,13.600000000000023);
#2176=LINE('',#2173,#2175);
#2177=EDGE_CURVE('',#2144,#2077,#2176,.T.);
#2178=ORIENTED_EDGE('',*,*,#2177,.F.);
#2179=ORIENTED_EDGE('',*,*,#2149,.T.);
#2180=EDGE_LOOP('',(#2171,#2172,#2178,#2179));
#2181=FACE_OUTER_BOUND('',#2180,.T.);
#2182=ADVANCED_FACE('',(#2181),#2165,.T.);
#2183=CARTESIAN_POINT('',(-2.090000000000032,5.684342E-014,11.300000000000001));
#2184=DIRECTION('',(0.0,0.0,1.0));
#2185=DIRECTION('',(1.0,0.0,0.0));
#2186=AXIS2_PLACEMENT_3D('',#2183,#2184,#2185);
#2187=PLANE('',#2186);
#2188=ORIENTED_EDGE('',*,*,#2066,.F.);
#2189=ORIENTED_EDGE('',*,*,#2170,.F.);
#2190=ORIENTED_EDGE('',*,*,#2141,.F.);
#2191=ORIENTED_EDGE('',*,*,#2110,.F.);
#2192=EDGE_LOOP('',(#2188,#2189,#2190,#2191));
#2193=FACE_OUTER_BOUND('',#2192,.T.);
#2194=ADVANCED_FACE('',(#2193),#2187,.T.);
#2195=CARTESIAN_POINT('',(-2.090000000000032,5.684342E-014,0.0));
#2196=DIRECTION('',(0.0,0.0,1.0));
#2197=DIRECTION('',(1.0,0.0,0.0));
#2198=AXIS2_PLACEMENT_3D('',#2195,#2196,#2197);
#2199=PLANE('',#2198);
#2200=ORIENTED_EDGE('',*,*,#2177,.T.);
#2201=ORIENTED_EDGE('',*,*,#2082,.T.);
#2202=ORIENTED_EDGE('',*,*,#2124,.T.);
#2203=ORIENTED_EDGE('',*,*,#2155,.T.);
#2204=EDGE_LOOP('',(#2200,#2201,#2202,#2203));
#2205=FACE_OUTER_BOUND('',#2204,.T.);
#2206=ADVANCED_FACE('',(#2205),#2199,.F.);
#2207=CLOSED_SHELL('',(#1956,#1987,#2018,#2040,#2052,#2098,#2129,#2160,#2182,#2194,#2206));
#2208=MANIFOLD_SOLID_BREP('24F',#2207);
#2209=COLOUR_RGB('250',0.33,0.33,0.33);
#2210=SURFACE_STYLE_USAGE(.BOTH.,#2211);
#2211=SURFACE_SIDE_STYLE('NONE',(#2212));
#2212=SURFACE_STYLE_FILL_AREA(#2213);
#2213=FILL_AREA_STYLE('NONE',(#2214));
#2214=FILL_AREA_STYLE_COLOUR('NONE',#2209);
#2215=PRESENTATION_STYLE_ASSIGNMENT((#2210));
#2216=STYLED_ITEM('NONE',(#2215),#2208);
#2217=ADVANCED_BREP_SHAPE_REPRESENTATION('ABSR1',(#102,#150,#189,#228,#317,#413,#502,#591,#680,#769,#858,#947,#1100,#1189,#1342,#1431,#1584,#1673,#1826,#1915,#2208),#28);
#2218=SHAPE_REPRESENTATION_RELATIONSHIP('SRRPL1','',#2217,#62);
ENDSEC;
END-ISO-10303-21;
