ISO-10303-21;
HEADER;
/* Generated by software containing ST-Developer
 * from STEP Tools, Inc. (www.steptools.com) 
 */

FILE_DESCRIPTION(
/* description */ (''),
/* implementation_level */ '2;1');

FILE_NAME(
/* name */ 
'G:\\Applications\\Altium\\Master\\Library 2D3D\\ICs And Semiconductor
s\\By Manufacturer\\LEM\\LEM_LA 100-P-SP13_S1.5XHS26-WHITE.stp',
/* time_stamp */ '2015-05-28T11:58:04+02:00',
/* author */ ('admchouv'),
/* organization */ (''),
/* preprocessor_version */ 'ST-DEVELOPER v15.5',
/* originating_system */ 'AutoCAD Mechanical',
/* authorisation */ '');

FILE_SCHEMA (('AUTOMOTIVE_DESIGN { 1 0 10303 214 3 1 1 }'));
ENDSEC;

DATA;
#10=MECHANICAL_DESIGN_GEOMETRIC_PRESENTATION_REPRESENTATION('',(#17,#18,
#19),#251);
#11=DIMENSIONAL_EXPONENTS(0.,0.,0.,0.,0.,0.,0.);
#12=(
CONVERSION_BASED_UNIT('degree',#13)
NAMED_UNIT(#11)
PLANE_ANGLE_UNIT()
);
#13=PLANE_ANGLE_MEASURE_WITH_UNIT(PLANE_ANGLE_MEASURE(0.01745329252),#254);
#14=PRESENTATION_LAYER_ASSIGNMENT('3D','',(#139,#140,#141));
#15=SHAPE_REPRESENTATION_RELATIONSHIP('SRR','None',#257,#16);
#16=ADVANCED_BREP_SHAPE_REPRESENTATION($,(#139,#140,#141),#250);
#17=STYLED_ITEM($,(#266),#139);
#18=STYLED_ITEM($,(#267),#140);
#19=STYLED_ITEM($,(#267),#141);
#20=PLANE($,#154);
#21=PLANE($,#155);
#22=PLANE($,#159);
#23=PLANE($,#160);
#24=PLANE($,#164);
#25=PLANE($,#165);
#26=TOROIDAL_SURFACE($,#146,5.,1.15);
#27=TOROIDAL_SURFACE($,#150,5.,1.15);
#28=FACE_BOUND($,#49,.T.);
#29=FACE_BOUND($,#51,.T.);
#30=FACE_BOUND($,#53,.T.);
#31=FACE_BOUND($,#55,.T.);
#32=FACE_BOUND($,#57,.T.);
#33=FACE_BOUND($,#61,.T.);
#34=FACE_BOUND($,#65,.T.);
#35=FACE_OUTER_BOUND($,#48,.T.);
#36=FACE_OUTER_BOUND($,#50,.T.);
#37=FACE_OUTER_BOUND($,#52,.T.);
#38=FACE_OUTER_BOUND($,#54,.T.);
#39=FACE_OUTER_BOUND($,#56,.T.);
#40=FACE_OUTER_BOUND($,#58,.T.);
#41=FACE_OUTER_BOUND($,#59,.T.);
#42=FACE_OUTER_BOUND($,#60,.T.);
#43=FACE_OUTER_BOUND($,#62,.T.);
#44=FACE_OUTER_BOUND($,#63,.T.);
#45=FACE_OUTER_BOUND($,#64,.T.);
#46=FACE_OUTER_BOUND($,#66,.T.);
#47=FACE_OUTER_BOUND($,#67,.T.);
#48=EDGE_LOOP($,(#98));
#49=EDGE_LOOP($,(#99));
#50=EDGE_LOOP($,(#100));
#51=EDGE_LOOP($,(#101));
#52=EDGE_LOOP($,(#102));
#53=EDGE_LOOP($,(#103));
#54=EDGE_LOOP($,(#104));
#55=EDGE_LOOP($,(#105));
#56=EDGE_LOOP($,(#106));
#57=EDGE_LOOP($,(#107));
#58=EDGE_LOOP($,(#108));
#59=EDGE_LOOP($,(#109));
#60=EDGE_LOOP($,(#110));
#61=EDGE_LOOP($,(#111));
#62=EDGE_LOOP($,(#112));
#63=EDGE_LOOP($,(#113));
#64=EDGE_LOOP($,(#114));
#65=EDGE_LOOP($,(#115));
#66=EDGE_LOOP($,(#116));
#67=EDGE_LOOP($,(#117));
#68=CIRCLE($,#144,1.15);
#69=CIRCLE($,#145,1.15);
#70=CIRCLE($,#147,1.15);
#71=CIRCLE($,#149,1.15);
#72=CIRCLE($,#151,1.15);
#73=CIRCLE($,#153,1.15);
#74=CIRCLE($,#157,0.69);
#75=CIRCLE($,#158,0.69);
#76=CIRCLE($,#162,0.69);
#77=CIRCLE($,#163,0.69);
#78=VERTEX_POINT($,#216);
#79=VERTEX_POINT($,#218);
#80=VERTEX_POINT($,#221);
#81=VERTEX_POINT($,#224);
#82=VERTEX_POINT($,#227);
#83=VERTEX_POINT($,#230);
#84=VERTEX_POINT($,#235);
#85=VERTEX_POINT($,#237);
#86=VERTEX_POINT($,#242);
#87=VERTEX_POINT($,#244);
#88=EDGE_CURVE($,#78,#78,#68,.T.);
#89=EDGE_CURVE($,#79,#79,#69,.T.);
#90=EDGE_CURVE($,#80,#80,#70,.T.);
#91=EDGE_CURVE($,#81,#81,#71,.T.);
#92=EDGE_CURVE($,#82,#82,#72,.T.);
#93=EDGE_CURVE($,#83,#83,#73,.T.);
#94=EDGE_CURVE($,#84,#84,#74,.T.);
#95=EDGE_CURVE($,#85,#85,#75,.T.);
#96=EDGE_CURVE($,#86,#86,#76,.T.);
#97=EDGE_CURVE($,#87,#87,#77,.T.);
#98=ORIENTED_EDGE($,*,*,#88,.F.);
#99=ORIENTED_EDGE($,*,*,#89,.T.);
#100=ORIENTED_EDGE($,*,*,#89,.F.);
#101=ORIENTED_EDGE($,*,*,#90,.T.);
#102=ORIENTED_EDGE($,*,*,#90,.F.);
#103=ORIENTED_EDGE($,*,*,#91,.T.);
#104=ORIENTED_EDGE($,*,*,#91,.F.);
#105=ORIENTED_EDGE($,*,*,#92,.T.);
#106=ORIENTED_EDGE($,*,*,#92,.F.);
#107=ORIENTED_EDGE($,*,*,#93,.F.);
#108=ORIENTED_EDGE($,*,*,#88,.T.);
#109=ORIENTED_EDGE($,*,*,#93,.T.);
#110=ORIENTED_EDGE($,*,*,#94,.F.);
#111=ORIENTED_EDGE($,*,*,#95,.F.);
#112=ORIENTED_EDGE($,*,*,#94,.T.);
#113=ORIENTED_EDGE($,*,*,#95,.T.);
#114=ORIENTED_EDGE($,*,*,#96,.F.);
#115=ORIENTED_EDGE($,*,*,#97,.F.);
#116=ORIENTED_EDGE($,*,*,#96,.T.);
#117=ORIENTED_EDGE($,*,*,#97,.T.);
#118=CYLINDRICAL_SURFACE($,#143,1.15);
#119=CYLINDRICAL_SURFACE($,#148,1.15);
#120=CYLINDRICAL_SURFACE($,#152,1.15);
#121=CYLINDRICAL_SURFACE($,#156,0.69);
#122=CYLINDRICAL_SURFACE($,#161,0.69);
#123=ADVANCED_FACE($,(#35,#28),#118,.T.);
#124=ADVANCED_FACE($,(#36,#29),#26,.T.);
#125=ADVANCED_FACE($,(#37,#30),#119,.T.);
#126=ADVANCED_FACE($,(#38,#31),#27,.T.);
#127=ADVANCED_FACE($,(#39,#32),#120,.T.);
#128=ADVANCED_FACE($,(#40),#20,.F.);
#129=ADVANCED_FACE($,(#41),#21,.T.);
#130=ADVANCED_FACE($,(#42,#33),#121,.T.);
#131=ADVANCED_FACE($,(#43),#22,.T.);
#132=ADVANCED_FACE($,(#44),#23,.T.);
#133=ADVANCED_FACE($,(#45,#34),#122,.T.);
#134=ADVANCED_FACE($,(#46),#24,.T.);
#135=ADVANCED_FACE($,(#47),#25,.T.);
#136=CLOSED_SHELL($,(#123,#124,#125,#126,#127,#128,#129));
#137=CLOSED_SHELL($,(#130,#131,#132));
#138=CLOSED_SHELL($,(#133,#134,#135));
#139=MANIFOLD_SOLID_BREP('2C00',#136);
#140=MANIFOLD_SOLID_BREP('2C45',#137);
#141=MANIFOLD_SOLID_BREP('2C4D',#138);
#142=AXIS2_PLACEMENT_3D('placement',#214,#166,#167);
#143=AXIS2_PLACEMENT_3D($,#215,#168,#169);
#144=AXIS2_PLACEMENT_3D($,#217,#170,#171);
#145=AXIS2_PLACEMENT_3D($,#219,#172,#173);
#146=AXIS2_PLACEMENT_3D($,#220,#174,#175);
#147=AXIS2_PLACEMENT_3D($,#222,#176,#177);
#148=AXIS2_PLACEMENT_3D($,#223,#178,#179);
#149=AXIS2_PLACEMENT_3D($,#225,#180,#181);
#150=AXIS2_PLACEMENT_3D($,#226,#182,#183);
#151=AXIS2_PLACEMENT_3D($,#228,#184,#185);
#152=AXIS2_PLACEMENT_3D($,#229,#186,#187);
#153=AXIS2_PLACEMENT_3D($,#231,#188,#189);
#154=AXIS2_PLACEMENT_3D($,#232,#190,#191);
#155=AXIS2_PLACEMENT_3D($,#233,#192,#193);
#156=AXIS2_PLACEMENT_3D($,#234,#194,#195);
#157=AXIS2_PLACEMENT_3D($,#236,#196,#197);
#158=AXIS2_PLACEMENT_3D($,#238,#198,#199);
#159=AXIS2_PLACEMENT_3D($,#239,#200,#201);
#160=AXIS2_PLACEMENT_3D($,#240,#202,#203);
#161=AXIS2_PLACEMENT_3D($,#241,#204,#205);
#162=AXIS2_PLACEMENT_3D($,#243,#206,#207);
#163=AXIS2_PLACEMENT_3D($,#245,#208,#209);
#164=AXIS2_PLACEMENT_3D($,#246,#210,#211);
#165=AXIS2_PLACEMENT_3D($,#247,#212,#213);
#166=DIRECTION('axis',(0.,0.,1.));
#167=DIRECTION('refdir',(1.,0.,0.));
#168=DIRECTION('center_axis',(0.,1.67186537578309E-14,-1.));
#169=DIRECTION('ref_axis',(1.,0.,0.));
#170=DIRECTION('center_axis',(0.,4.16448058008956E-14,-1.));
#171=DIRECTION('ref_axis',(1.,0.,0.));
#172=DIRECTION('center_axis',(0.,4.16448058008956E-14,-1.));
#173=DIRECTION('ref_axis',(1.,0.,0.));
#174=DIRECTION('center_axis',(-1.,0.,0.));
#175=DIRECTION('ref_axis',(0.,0.,1.));
#176=DIRECTION('center_axis',(0.,1.,2.02672913881352E-14));
#177=DIRECTION('ref_axis',(1.,0.,0.));
#178=DIRECTION('center_axis',(0.,1.,0.));
#179=DIRECTION('ref_axis',(1.,0.,0.));
#180=DIRECTION('center_axis',(0.,1.,2.02672913881352E-14));
#181=DIRECTION('ref_axis',(1.,0.,0.));
#182=DIRECTION('center_axis',(-1.,0.,0.));
#183=DIRECTION('ref_axis',(0.,0.,1.));
#184=DIRECTION('center_axis',(0.,0.,1.));
#185=DIRECTION('ref_axis',(1.,0.,0.));
#186=DIRECTION('center_axis',(0.,0.,1.));
#187=DIRECTION('ref_axis',(1.,0.,0.));
#188=DIRECTION('center_axis',(0.,0.,-1.));
#189=DIRECTION('ref_axis',(1.,0.,0.));
#190=DIRECTION('center_axis',(0.,-4.16448058008956E-14,1.));
#191=DIRECTION('ref_axis',(-1.,0.,0.));
#192=DIRECTION('center_axis',(0.,0.,-1.));
#193=DIRECTION('ref_axis',(-1.,0.,0.));
#194=DIRECTION('center_axis',(0.,-1.22464679914735E-16,-1.));
#195=DIRECTION('ref_axis',(1.,0.,0.));
#196=DIRECTION('center_axis',(0.,1.22464679914735E-16,1.));
#197=DIRECTION('ref_axis',(1.,0.,0.));
#198=DIRECTION('center_axis',(0.,-1.22464679914735E-16,-1.));
#199=DIRECTION('ref_axis',(1.,0.,0.));
#200=DIRECTION('center_axis',(0.,1.22464679914735E-16,1.));
#201=DIRECTION('ref_axis',(-1.,0.,0.));
#202=DIRECTION('center_axis',(0.,-1.22464679914735E-16,-1.));
#203=DIRECTION('ref_axis',(1.,0.,0.));
#204=DIRECTION('center_axis',(0.,-1.22464679914735E-16,-1.));
#205=DIRECTION('ref_axis',(1.,0.,0.));
#206=DIRECTION('center_axis',(0.,1.22464679914735E-16,1.));
#207=DIRECTION('ref_axis',(1.,0.,0.));
#208=DIRECTION('center_axis',(0.,-1.22464679914735E-16,-1.));
#209=DIRECTION('ref_axis',(1.,0.,0.));
#210=DIRECTION('center_axis',(0.,1.22464679914735E-16,1.));
#211=DIRECTION('ref_axis',(-1.,0.,0.));
#212=DIRECTION('center_axis',(0.,-1.22464679914735E-16,-1.));
#213=DIRECTION('ref_axis',(1.,0.,0.));
#214=CARTESIAN_POINT('',(0.,0.,0.));
#215=CARTESIAN_POINT('Origin',(-5.6843418860808E-14,13.0000019400002,6.79999953156304));
#216=CARTESIAN_POINT('',(-1.15000000000003,13.0000019400003,-2.97539770599542E-14));
#217=CARTESIAN_POINT('Origin',(-5.6843418860808E-14,13.0000019400003,-7.94919685631612E-14));
#218=CARTESIAN_POINT('',(-1.15000000000003,13.0000019400002,6.79999953156309));
#219=CARTESIAN_POINT('Origin',(-5.6843418860808E-14,13.0000019400002,6.79999953156304));
#220=CARTESIAN_POINT('Origin',(-5.6843418860808E-14,8.00000194000017,6.79999953156309));
#221=CARTESIAN_POINT('',(-1.15000000000003,8.00000194000029,11.7999995315631));
#222=CARTESIAN_POINT('Origin',(-5.6843418860808E-14,8.00000194000029,11.7999995315631));
#223=CARTESIAN_POINT('Origin',(-5.6843418860808E-14,-7.99999939999987,11.7999995315631));
#224=CARTESIAN_POINT('',(-1.15000000000003,-7.99999939999987,11.7999995315631));
#225=CARTESIAN_POINT('Origin',(-5.6843418860808E-14,-7.99999939999987,11.7999995315631));
#226=CARTESIAN_POINT('Origin',(-5.6843418860808E-14,-7.99999939999975,6.79999953156313));
#227=CARTESIAN_POINT('',(-1.15000000000003,-12.9999993999998,6.79999953156312));
#228=CARTESIAN_POINT('Origin',(-5.6843418860808E-14,-12.9999993999998,6.79999953156312));
#229=CARTESIAN_POINT('Origin',(-5.6843418860808E-14,-12.9999993999998,0.));
#230=CARTESIAN_POINT('',(-1.15000000000003,-12.9999993999998,0.));
#231=CARTESIAN_POINT('Origin',(-5.6843418860808E-14,-12.9999993999998,0.));
#232=CARTESIAN_POINT('Origin',(-1.13686837721616E-13,13.0000019400003,-7.41628980449605E-14));
#233=CARTESIAN_POINT('Origin',(-1.13686837721616E-13,-12.9999993999998,
0.));
#234=CARTESIAN_POINT('Origin',(-5.6843418860808E-14,13.0000019400003,-1.95000000000008));
#235=CARTESIAN_POINT('',(0.689999999999943,13.0000019400003,-7.94919685631612E-14));
#236=CARTESIAN_POINT('Origin',(-5.6843418860808E-14,13.0000019400003,-7.94919685631612E-14));
#237=CARTESIAN_POINT('',(0.689999999999943,13.0000019400003,-3.90000000000008));
#238=CARTESIAN_POINT('Origin',(-5.6843418860808E-14,13.0000019400003,-3.90000000000008));
#239=CARTESIAN_POINT('Origin',(-5.6843418860808E-14,13.0000019400003,-7.94919685631612E-14));
#240=CARTESIAN_POINT('Origin',(-5.6843418860808E-14,13.0000019400003,-3.90000000000008));
#241=CARTESIAN_POINT('Origin',(0.,-12.9999993999998,-1.95));
#242=CARTESIAN_POINT('',(0.69,-12.9999993999998,0.));
#243=CARTESIAN_POINT('Origin',(0.,-12.9999993999998,0.));
#244=CARTESIAN_POINT('',(0.69,-12.9999993999998,-3.9));
#245=CARTESIAN_POINT('Origin',(0.,-12.9999993999998,-3.9));
#246=CARTESIAN_POINT('Origin',(0.,-12.9999993999998,0.));
#247=CARTESIAN_POINT('Origin',(0.,-12.9999993999998,-3.9));
#248=UNCERTAINTY_MEASURE_WITH_UNIT(LENGTH_MEASURE(0.01),#252,
'DISTANCE_ACCURACY_VALUE',
'Maximum model space distance between geometric entities at asserted c
onnectivities');
#249=UNCERTAINTY_MEASURE_WITH_UNIT(LENGTH_MEASURE(1.E-6),#252,
'DISTANCE_ACCURACY_VALUE',
'Maximum model space distance between geometric entities at asserted c
onnectivities');
#250=(
GEOMETRIC_REPRESENTATION_CONTEXT(3)
GLOBAL_UNCERTAINTY_ASSIGNED_CONTEXT((#248))
GLOBAL_UNIT_ASSIGNED_CONTEXT((#252,#254,#253))
REPRESENTATION_CONTEXT('','3D')
);
#251=(
GEOMETRIC_REPRESENTATION_CONTEXT(3)
GLOBAL_UNCERTAINTY_ASSIGNED_CONTEXT((#249))
GLOBAL_UNIT_ASSIGNED_CONTEXT((#252,#12,#253))
REPRESENTATION_CONTEXT('','3D')
);
#252=(
LENGTH_UNIT()
NAMED_UNIT(*)
SI_UNIT(.MILLI.,.METRE.)
);
#253=(
NAMED_UNIT(*)
SI_UNIT($,.STERADIAN.)
SOLID_ANGLE_UNIT()
);
#254=(
NAMED_UNIT(*)
PLANE_ANGLE_UNIT()
SI_UNIT($,.RADIAN.)
);
#255=SHAPE_DEFINITION_REPRESENTATION(#256,#257);
#256=PRODUCT_DEFINITION_SHAPE('',$,#259);
#257=SHAPE_REPRESENTATION('',(#142),#250);
#258=PRODUCT_DEFINITION_CONTEXT('part definition',#263,'design');
#259=PRODUCT_DEFINITION('Product','Product',#260,#258);
#260=PRODUCT_DEFINITION_FORMATION('',$,#265);
#261=PRODUCT_RELATED_PRODUCT_CATEGORY('Product','Product',(#265));
#262=APPLICATION_PROTOCOL_DEFINITION('international standard',
'automotive_design',2009,#263);
#263=APPLICATION_CONTEXT(
'Core Data for Automotive Mechanical Design Process');
#264=PRODUCT_CONTEXT('part definition',#263,'mechanical');
#265=PRODUCT('Product','Product',$,(#264));
#266=PRESENTATION_STYLE_ASSIGNMENT((#268));
#267=PRESENTATION_STYLE_ASSIGNMENT((#269));
#268=SURFACE_STYLE_USAGE(.BOTH.,#270);
#269=SURFACE_STYLE_USAGE(.BOTH.,#271);
#270=SURFACE_SIDE_STYLE($,(#272));
#271=SURFACE_SIDE_STYLE($,(#273));
#272=SURFACE_STYLE_FILL_AREA(#274);
#273=SURFACE_STYLE_FILL_AREA(#275);
#274=FILL_AREA_STYLE($,(#276));
#275=FILL_AREA_STYLE($,(#277));
#276=FILL_AREA_STYLE_COLOUR($,#278);
#277=FILL_AREA_STYLE_COLOUR($,#279);
#278=COLOUR_RGB('',1.,1.,1.);
#279=COLOUR_RGB('',1.,0.749019607843137,0.);
ENDSEC;
END-ISO-10303-21;
