ISO-10303-21;
HEADER;
/****************************************************************
 * Generated by software with PDE/Lib inside                    *
 * PDE/Lib Version 3.2.2, created Thu Mar 23, 2000 at 18:38:49  *
 * International Technegroup Inc. (www.iti-oh.com)              *
 ****************************************************************/
FILE_DESCRIPTION((''),'2;1');
FILE_NAME('LEMO_EPG.0B.302.HLN.stp','2009-12-15T17:44:12',(''),(''),'Mechanical Desktop 2006','Mechanical Desktop 2006',', , ');
FILE_SCHEMA(('AUTOMOTIVE_DESIGN { 1 2 10303 214 0 1 1 1 }'));
ENDSEC;
DATA;
#8=(NAMED_UNIT(*)PLANE_ANGLE_UNIT()SI_UNIT($,.RADIAN.));
#9=DIMENSIONAL_EXPONENTS(0.0,0.0,0.0,0.0,0.0,0.0,0.0);
#10=PLANE_ANGLE_MEASURE_WITH_UNIT(PLANE_ANGLE_MEASURE(0.017453292500000),#8);
#14=(CONVERSION_BASED_UNIT('DEGREE',#10)NAMED_UNIT(#9)PLANE_ANGLE_UNIT());
#18=(NAMED_UNIT(*)SI_UNIT($,.STERADIAN.)SOLID_ANGLE_UNIT());
#22=(LENGTH_UNIT()NAMED_UNIT(*)SI_UNIT(.MILLI.,.METRE.));
#23=UNCERTAINTY_MEASURE_WITH_UNIT(LENGTH_MEASURE(0.000001000000000),#22,'DISTANCE_ACCURACY_VALUE','');
#28=(GEOMETRIC_REPRESENTATION_CONTEXT(3)GLOBAL_UNCERTAINTY_ASSIGNED_CONTEXT((#23))GLOBAL_UNIT_ASSIGNED_CONTEXT((#14,#18,#22))REPRESENTATION_CONTEXT('None','None'));
#29=APPLICATION_CONTEXT('automotive design');
#30=APPLICATION_PROTOCOL_DEFINITION('DRAFT_INTERNATIONAL_STANDARD','automotive_design',1998,#29);
#31=PRODUCT_CONTEXT('3D Mechanical Parts',#29,'mechanical');
#32=PRODUCT('Product','Product','',(#31));
#33=PRODUCT_RELATED_PRODUCT_CATEGORY('part',$,(#32));
#34=PRODUCT_CATEGORY('part',$);
#35=PERSON('1','Design','Joe',$,$,$);
#36=ORGANIZATION($,'None','None');
#37=PERSON_AND_ORGANIZATION(#35,#36);
#38=PERSON_AND_ORGANIZATION_ROLE('design_owner');
#39=APPLIED_PERSON_AND_ORGANIZATION_ASSIGNMENT(#37,#38,(#32));
#40=PRODUCT_DEFINITION_FORMATION_WITH_SPECIFIED_SOURCE('None','',#32,.BOUGHT.);
#41=PERSON('2','Creator','Joe',$,$,$);
#42=ORGANIZATION($,'None','None');
#43=PERSON_AND_ORGANIZATION(#41,#42);
#44=PERSON_AND_ORGANIZATION_ROLE('creator');
#45=APPLIED_PERSON_AND_ORGANIZATION_ASSIGNMENT(#43,#44,(#40));
#46=PERSON('3','Supplier','Joe',$,$,$);
#47=ORGANIZATION($,'None','None');
#48=PERSON_AND_ORGANIZATION(#46,#47);
#49=PERSON_AND_ORGANIZATION_ROLE('design_supplier');
#50=APPLIED_PERSON_AND_ORGANIZATION_ASSIGNMENT(#48,#49,(#40));
#51=PRODUCT_DEFINITION_CONTEXT('part definition',#29,'design');
#52=PRODUCT_DEFINITION('None','',#40,#51);
#53=PERSON('4','Creator','Joe',$,$,$);
#54=ORGANIZATION($,'None','None');
#55=PERSON_AND_ORGANIZATION(#53,#54);
#56=PERSON_AND_ORGANIZATION_ROLE('creator');
#57=APPLIED_PERSON_AND_ORGANIZATION_ASSIGNMENT(#55,#56,(#52));
#58=CARTESIAN_POINT('NONE',(0.0,0.0,0.0));
#59=DIRECTION('NONE',(0.0,0.0,1.0));
#60=DIRECTION('NONE',(1.0,0.0,0.0));
#61=AXIS2_PLACEMENT_3D('NONE',#58,#59,#60);
#62=SHAPE_REPRESENTATION('SR1',(#61),#28);
#63=PRODUCT_DEFINITION_SHAPE('PDS1','Test Part',#52);
#64=SHAPE_DEFINITION_REPRESENTATION(#63,#62);
#65=CARTESIAN_POINT('',(18.680000000000046,-1.375344E-014,5.599999999999998));
#66=DIRECTION('',(-1.0,2.191099E-016,2.934752E-018));
#67=DIRECTION('',(1.528589E-016,0.707106781186547,-0.707106781186548));
#68=AXIS2_PLACEMENT_3D('',#65,#66,#67);
#69=CYLINDRICAL_SURFACE('',#68,0.550000000000000);
#70=CARTESIAN_POINT('',(18.680000000000042,0.388908729652588,5.211091270347397));
#71=VERTEX_POINT('',#70);
#72=CARTESIAN_POINT('',(7.980000000000041,0.388908729652590,5.211091270347397));
#73=VERTEX_POINT('',#72);
#74=CARTESIAN_POINT('',(18.680000000000042,0.388908729652588,5.211091270347397));
#75=DIRECTION('',(-1.0,0.0,0.0));
#76=VECTOR('',#75,10.700000000000001);
#77=LINE('',#74,#76);
#78=EDGE_CURVE('',#71,#73,#77,.T.);
#79=ORIENTED_EDGE('',*,*,#78,.F.);
#80=CARTESIAN_POINT('',(18.680000000000046,-0.388908729652615,5.988908729652599));
#81=VERTEX_POINT('',#80);
#82=CARTESIAN_POINT('',(18.680000000000046,-1.375344E-014,5.599999999999998));
#83=DIRECTION('',(1.0,-1.110223E-016,1.110223E-016));
#84=DIRECTION('',(1.570092E-016,0.707106781186547,-0.707106781186548));
#85=AXIS2_PLACEMENT_3D('',#82,#83,#84);
#86=CIRCLE('',#85,0.550000000000000);
#87=EDGE_CURVE('',#81,#71,#86,.T.);
#88=ORIENTED_EDGE('',*,*,#87,.F.);
#89=CARTESIAN_POINT('',(7.980000000000043,-0.388908729652612,5.988908729652599));
#90=VERTEX_POINT('',#89);
#91=CARTESIAN_POINT('',(7.980000000000043,-0.388908729652612,5.988908729652599));
#92=DIRECTION('',(1.0,0.0,0.0));
#93=VECTOR('',#92,10.700000000000003);
#94=LINE('',#91,#93);
#95=EDGE_CURVE('',#90,#81,#94,.T.);
#96=ORIENTED_EDGE('',*,*,#95,.F.);
#97=CARTESIAN_POINT('',(7.980000000000043,-1.020073E-014,5.599999999999998));
#98=DIRECTION('',(1.0,-1.110223E-016,1.110223E-016));
#99=DIRECTION('',(1.570092E-016,0.707106781186547,-0.707106781186548));
#100=AXIS2_PLACEMENT_3D('',#97,#98,#99);
#101=CIRCLE('',#100,0.550000000000000);
#102=EDGE_CURVE('',#90,#73,#101,.T.);
#103=ORIENTED_EDGE('',*,*,#102,.T.);
#104=EDGE_LOOP('',(#79,#88,#96,#103));
#105=FACE_OUTER_BOUND('',#104,.T.);
#106=ADVANCED_FACE('',(#105),#69,.T.);
#107=CARTESIAN_POINT('',(18.680000000000046,-1.375344E-014,5.599999999999998));
#108=DIRECTION('',(-1.0,1.660147E-016,0.0));
#109=DIRECTION('',(0.0,1.0,0.0));
#110=AXIS2_PLACEMENT_3D('',#107,#108,#109);
#111=CYLINDRICAL_SURFACE('',#110,0.500000000000000);
#112=CARTESIAN_POINT('',(7.980000000000047,0.499999999999988,5.599999999999998));
#113=VERTEX_POINT('',#112);
#114=CARTESIAN_POINT('',(18.680000000000046,0.499999999999986,5.599999999999998));
#115=VERTEX_POINT('',#114);
#116=CARTESIAN_POINT('',(7.980000000000047,0.499999999999988,5.599999999999998));
#117=DIRECTION('',(1.0,0.0,0.0));
#118=VECTOR('',#117,10.699999999999999);
#119=LINE('',#116,#118);
#120=EDGE_CURVE('',#113,#115,#119,.T.);
#121=ORIENTED_EDGE('',*,*,#120,.F.);
#122=CARTESIAN_POINT('',(7.980000000000043,-0.500000000000012,5.599999999999998));
#123=VERTEX_POINT('',#122);
#124=CARTESIAN_POINT('',(7.980000000000043,-1.197709E-014,5.599999999999998));
#125=DIRECTION('',(1.0,0.0,0.0));
#126=DIRECTION('',(0.0,1.0,0.0));
#127=AXIS2_PLACEMENT_3D('',#124,#125,#126);
#128=CIRCLE('',#127,0.500000000000000);
#129=EDGE_CURVE('',#123,#113,#128,.T.);
#130=ORIENTED_EDGE('',*,*,#129,.F.);
#131=CARTESIAN_POINT('',(18.680000000000046,-0.500000000000014,5.599999999999998));
#132=VERTEX_POINT('',#131);
#133=CARTESIAN_POINT('',(18.680000000000046,-0.500000000000014,5.599999999999998));
#134=DIRECTION('',(-1.0,0.0,0.0));
#135=VECTOR('',#134,10.700000000000003);
#136=LINE('',#133,#135);
#137=EDGE_CURVE('',#132,#123,#136,.T.);
#138=ORIENTED_EDGE('',*,*,#137,.F.);
#139=CARTESIAN_POINT('',(18.680000000000046,-1.375344E-014,5.599999999999998));
#140=DIRECTION('',(-1.0,0.0,0.0));
#141=DIRECTION('',(0.0,1.0,0.0));
#142=AXIS2_PLACEMENT_3D('',#139,#140,#141);
#143=CIRCLE('',#142,0.500000000000000);
#144=EDGE_CURVE('',#115,#132,#143,.T.);
#145=ORIENTED_EDGE('',*,*,#144,.F.);
#146=EDGE_LOOP('',(#121,#130,#138,#145));
#147=FACE_OUTER_BOUND('',#146,.T.);
#148=ADVANCED_FACE('',(#147),#111,.F.);
#149=CARTESIAN_POINT('',(18.680000000000046,-1.375344E-014,5.599999999999998));
#150=DIRECTION('',(-1.0,1.660147E-016,0.0));
#151=DIRECTION('',(0.0,1.0,0.0));
#152=AXIS2_PLACEMENT_3D('',#149,#150,#151);
#153=CYLINDRICAL_SURFACE('',#152,0.500000000000000);
#154=ORIENTED_EDGE('',*,*,#120,.T.);
#155=CARTESIAN_POINT('',(18.680000000000046,-1.375344E-014,5.599999999999998));
#156=DIRECTION('',(-1.0,0.0,0.0));
#157=DIRECTION('',(0.0,1.0,0.0));
#158=AXIS2_PLACEMENT_3D('',#155,#156,#157);
#159=CIRCLE('',#158,0.500000000000000);
#160=EDGE_CURVE('',#132,#115,#159,.T.);
#161=ORIENTED_EDGE('',*,*,#160,.F.);
#162=ORIENTED_EDGE('',*,*,#137,.T.);
#163=CARTESIAN_POINT('',(7.980000000000043,-1.197709E-014,5.599999999999998));
#164=DIRECTION('',(1.0,0.0,0.0));
#165=DIRECTION('',(0.0,1.0,0.0));
#166=AXIS2_PLACEMENT_3D('',#163,#164,#165);
#167=CIRCLE('',#166,0.500000000000000);
#168=EDGE_CURVE('',#113,#123,#167,.T.);
#169=ORIENTED_EDGE('',*,*,#168,.F.);
#170=EDGE_LOOP('',(#154,#161,#162,#169));
#171=FACE_OUTER_BOUND('',#170,.T.);
#172=ADVANCED_FACE('',(#171),#153,.F.);
#173=CARTESIAN_POINT('',(18.680000000000046,-1.375344E-014,5.599999999999998));
#174=DIRECTION('',(-1.0,2.191099E-016,2.934752E-018));
#175=DIRECTION('',(1.528589E-016,0.707106781186547,-0.707106781186548));
#176=AXIS2_PLACEMENT_3D('',#173,#174,#175);
#177=CYLINDRICAL_SURFACE('',#176,0.550000000000000);
#178=ORIENTED_EDGE('',*,*,#78,.T.);
#179=CARTESIAN_POINT('',(7.980000000000043,-1.020073E-014,5.599999999999998));
#180=DIRECTION('',(1.0,-1.110223E-016,1.110223E-016));
#181=DIRECTION('',(1.570092E-016,0.707106781186547,-0.707106781186548));
#182=AXIS2_PLACEMENT_3D('',#179,#180,#181);
#183=CIRCLE('',#182,0.550000000000000);
#184=EDGE_CURVE('',#73,#90,#183,.T.);
#185=ORIENTED_EDGE('',*,*,#184,.T.);
#186=ORIENTED_EDGE('',*,*,#95,.T.);
#187=CARTESIAN_POINT('',(18.680000000000046,-1.375344E-014,5.599999999999998));
#188=DIRECTION('',(1.0,-1.110223E-016,1.110223E-016));
#189=DIRECTION('',(1.570092E-016,0.707106781186547,-0.707106781186548));
#190=AXIS2_PLACEMENT_3D('',#187,#188,#189);
#191=CIRCLE('',#190,0.550000000000000);
#192=EDGE_CURVE('',#71,#81,#191,.T.);
#193=ORIENTED_EDGE('',*,*,#192,.F.);
#194=EDGE_LOOP('',(#178,#185,#186,#193));
#195=FACE_OUTER_BOUND('',#194,.T.);
#196=ADVANCED_FACE('',(#195),#177,.T.);
#197=CARTESIAN_POINT('',(7.980000000000043,-1.020073E-014,5.599999999999998));
#198=DIRECTION('',(1.0,0.0,0.0));
#199=DIRECTION('',(0.0,-0.707106781186548,-0.707106781186547));
#200=AXIS2_PLACEMENT_3D('',#197,#198,#199);
#201=PLANE('',#200);
#202=ORIENTED_EDGE('',*,*,#184,.F.);
#203=ORIENTED_EDGE('',*,*,#102,.F.);
#204=EDGE_LOOP('',(#202,#203));
#205=FACE_OUTER_BOUND('',#204,.T.);
#206=ORIENTED_EDGE('',*,*,#168,.T.);
#207=ORIENTED_EDGE('',*,*,#129,.T.);
#208=EDGE_LOOP('',(#206,#207));
#209=FACE_BOUND('',#208,.T.);
#210=ADVANCED_FACE('',(#205,#209),#201,.F.);
#211=CARTESIAN_POINT('',(18.680000000000046,-1.375344E-014,5.599999999999998));
#212=DIRECTION('',(1.0,0.0,0.0));
#213=DIRECTION('',(0.0,-0.707106781186548,-0.707106781186547));
#214=AXIS2_PLACEMENT_3D('',#211,#212,#213);
#215=PLANE('',#214);
#216=ORIENTED_EDGE('',*,*,#192,.T.);
#217=ORIENTED_EDGE('',*,*,#87,.T.);
#218=EDGE_LOOP('',(#216,#217));
#219=FACE_OUTER_BOUND('',#218,.T.);
#220=ORIENTED_EDGE('',*,*,#144,.T.);
#221=ORIENTED_EDGE('',*,*,#160,.T.);
#222=EDGE_LOOP('',(#220,#221));
#223=FACE_BOUND('',#222,.T.);
#224=ADVANCED_FACE('',(#219,#223),#215,.T.);
#225=CLOSED_SHELL('',(#106,#148,#172,#196,#210,#224));
#226=MANIFOLD_SOLID_BREP('282',#225);
#227=COLOUR_RGB('40',1.0,0.750000000000000,0.0);
#228=SURFACE_STYLE_USAGE(.BOTH.,#229);
#229=SURFACE_SIDE_STYLE('NONE',(#230));
#230=SURFACE_STYLE_FILL_AREA(#231);
#231=FILL_AREA_STYLE('NONE',(#232));
#232=FILL_AREA_STYLE_COLOUR('NONE',#227);
#233=PRESENTATION_STYLE_ASSIGNMENT((#228));
#234=STYLED_ITEM('NONE',(#233),#226);
#235=MECHANICAL_DESIGN_GEOMETRIC_PRESENTATION_REPRESENTATION('NONE',(#234,#399,#643,#733,#822,#911,#1000,#1089,#1178,#1406,#1626,#1637,#1644),#28);
#236=PRESENTATION_LAYER_ASSIGNMENT('3D','None',(#226,#398));
#237=CARTESIAN_POINT('',(18.680000000000046,-1.375344E-014,7.799999999999997));
#238=DIRECTION('',(-1.0,2.191099E-016,2.934752E-018));
#239=DIRECTION('',(1.528589E-016,0.707106781186547,-0.707106781186548));
#240=AXIS2_PLACEMENT_3D('',#237,#238,#239);
#241=CYLINDRICAL_SURFACE('',#240,0.550000000000000);
#242=CARTESIAN_POINT('',(18.680000000000042,0.388908729652588,7.411091270347396));
#243=VERTEX_POINT('',#242);
#244=CARTESIAN_POINT('',(7.980000000000041,0.388908729652590,7.411091270347396));
#245=VERTEX_POINT('',#244);
#246=CARTESIAN_POINT('',(18.680000000000042,0.388908729652588,7.411091270347396));
#247=DIRECTION('',(-1.0,0.0,0.0));
#248=VECTOR('',#247,10.700000000000001);
#249=LINE('',#246,#248);
#250=EDGE_CURVE('',#243,#245,#249,.T.);
#251=ORIENTED_EDGE('',*,*,#250,.F.);
#252=CARTESIAN_POINT('',(18.680000000000046,-0.388908729652615,8.188908729652598));
#253=VERTEX_POINT('',#252);
#254=CARTESIAN_POINT('',(18.680000000000046,-1.375344E-014,7.799999999999997));
#255=DIRECTION('',(1.0,-1.110223E-016,1.110223E-016));
#256=DIRECTION('',(1.570092E-016,0.707106781186547,-0.707106781186548));
#257=AXIS2_PLACEMENT_3D('',#254,#255,#256);
#258=CIRCLE('',#257,0.550000000000000);
#259=EDGE_CURVE('',#253,#243,#258,.T.);
#260=ORIENTED_EDGE('',*,*,#259,.F.);
#261=CARTESIAN_POINT('',(7.980000000000043,-0.388908729652612,8.188908729652598));
#262=VERTEX_POINT('',#261);
#263=CARTESIAN_POINT('',(7.980000000000043,-0.388908729652612,8.188908729652598));
#264=DIRECTION('',(1.0,0.0,0.0));
#265=VECTOR('',#264,10.700000000000003);
#266=LINE('',#263,#265);
#267=EDGE_CURVE('',#262,#253,#266,.T.);
#268=ORIENTED_EDGE('',*,*,#267,.F.);
#269=CARTESIAN_POINT('',(7.980000000000043,-1.020073E-014,7.799999999999997));
#270=DIRECTION('',(1.0,-1.110223E-016,1.110223E-016));
#271=DIRECTION('',(1.570092E-016,0.707106781186547,-0.707106781186548));
#272=AXIS2_PLACEMENT_3D('',#269,#270,#271);
#273=CIRCLE('',#272,0.550000000000000);
#274=EDGE_CURVE('',#262,#245,#273,.T.);
#275=ORIENTED_EDGE('',*,*,#274,.T.);
#276=EDGE_LOOP('',(#251,#260,#268,#275));
#277=FACE_OUTER_BOUND('',#276,.T.);
#278=ADVANCED_FACE('',(#277),#241,.T.);
#279=CARTESIAN_POINT('',(18.680000000000046,-1.375344E-014,7.799999999999997));
#280=DIRECTION('',(-1.0,1.660147E-016,0.0));
#281=DIRECTION('',(0.0,1.0,0.0));
#282=AXIS2_PLACEMENT_3D('',#279,#280,#281);
#283=CYLINDRICAL_SURFACE('',#282,0.500000000000000);
#284=CARTESIAN_POINT('',(7.980000000000047,0.499999999999988,7.799999999999997));
#285=VERTEX_POINT('',#284);
#286=CARTESIAN_POINT('',(18.680000000000046,0.499999999999986,7.799999999999997));
#287=VERTEX_POINT('',#286);
#288=CARTESIAN_POINT('',(7.980000000000047,0.499999999999988,7.799999999999997));
#289=DIRECTION('',(1.0,0.0,0.0));
#290=VECTOR('',#289,10.699999999999999);
#291=LINE('',#288,#290);
#292=EDGE_CURVE('',#285,#287,#291,.T.);
#293=ORIENTED_EDGE('',*,*,#292,.F.);
#294=CARTESIAN_POINT('',(7.980000000000043,-0.500000000000012,7.799999999999997));
#295=VERTEX_POINT('',#294);
#296=CARTESIAN_POINT('',(7.980000000000043,-1.197709E-014,7.799999999999997));
#297=DIRECTION('',(1.0,0.0,0.0));
#298=DIRECTION('',(0.0,1.0,0.0));
#299=AXIS2_PLACEMENT_3D('',#296,#297,#298);
#300=CIRCLE('',#299,0.500000000000000);
#301=EDGE_CURVE('',#295,#285,#300,.T.);
#302=ORIENTED_EDGE('',*,*,#301,.F.);
#303=CARTESIAN_POINT('',(18.680000000000046,-0.500000000000014,7.799999999999997));
#304=VERTEX_POINT('',#303);
#305=CARTESIAN_POINT('',(18.680000000000046,-0.500000000000014,7.799999999999997));
#306=DIRECTION('',(-1.0,0.0,0.0));
#307=VECTOR('',#306,10.700000000000003);
#308=LINE('',#305,#307);
#309=EDGE_CURVE('',#304,#295,#308,.T.);
#310=ORIENTED_EDGE('',*,*,#309,.F.);
#311=CARTESIAN_POINT('',(18.680000000000046,-1.375344E-014,7.799999999999997));
#312=DIRECTION('',(-1.0,0.0,0.0));
#313=DIRECTION('',(0.0,1.0,0.0));
#314=AXIS2_PLACEMENT_3D('',#311,#312,#313);
#315=CIRCLE('',#314,0.500000000000000);
#316=EDGE_CURVE('',#287,#304,#315,.T.);
#317=ORIENTED_EDGE('',*,*,#316,.F.);
#318=EDGE_LOOP('',(#293,#302,#310,#317));
#319=FACE_OUTER_BOUND('',#318,.T.);
#320=ADVANCED_FACE('',(#319),#283,.F.);
#321=CARTESIAN_POINT('',(18.680000000000046,-1.375344E-014,7.799999999999997));
#322=DIRECTION('',(-1.0,1.660147E-016,0.0));
#323=DIRECTION('',(0.0,1.0,0.0));
#324=AXIS2_PLACEMENT_3D('',#321,#322,#323);
#325=CYLINDRICAL_SURFACE('',#324,0.500000000000000);
#326=ORIENTED_EDGE('',*,*,#292,.T.);
#327=CARTESIAN_POINT('',(18.680000000000046,-1.375344E-014,7.799999999999997));
#328=DIRECTION('',(-1.0,0.0,0.0));
#329=DIRECTION('',(0.0,1.0,0.0));
#330=AXIS2_PLACEMENT_3D('',#327,#328,#329);
#331=CIRCLE('',#330,0.500000000000000);
#332=EDGE_CURVE('',#304,#287,#331,.T.);
#333=ORIENTED_EDGE('',*,*,#332,.F.);
#334=ORIENTED_EDGE('',*,*,#309,.T.);
#335=CARTESIAN_POINT('',(7.980000000000043,-1.197709E-014,7.799999999999997));
#336=DIRECTION('',(1.0,0.0,0.0));
#337=DIRECTION('',(0.0,1.0,0.0));
#338=AXIS2_PLACEMENT_3D('',#335,#336,#337);
#339=CIRCLE('',#338,0.500000000000000);
#340=EDGE_CURVE('',#285,#295,#339,.T.);
#341=ORIENTED_EDGE('',*,*,#340,.F.);
#342=EDGE_LOOP('',(#326,#333,#334,#341));
#343=FACE_OUTER_BOUND('',#342,.T.);
#344=ADVANCED_FACE('',(#343),#325,.F.);
#345=CARTESIAN_POINT('',(18.680000000000046,-1.375344E-014,7.799999999999997));
#346=DIRECTION('',(-1.0,2.191099E-016,2.934752E-018));
#347=DIRECTION('',(1.528589E-016,0.707106781186547,-0.707106781186548));
#348=AXIS2_PLACEMENT_3D('',#345,#346,#347);
#349=CYLINDRICAL_SURFACE('',#348,0.550000000000000);
#350=ORIENTED_EDGE('',*,*,#250,.T.);
#351=CARTESIAN_POINT('',(7.980000000000043,-1.020073E-014,7.799999999999997));
#352=DIRECTION('',(1.0,-1.110223E-016,1.110223E-016));
#353=DIRECTION('',(1.570092E-016,0.707106781186547,-0.707106781186548));
#354=AXIS2_PLACEMENT_3D('',#351,#352,#353);
#355=CIRCLE('',#354,0.550000000000000);
#356=EDGE_CURVE('',#245,#262,#355,.T.);
#357=ORIENTED_EDGE('',*,*,#356,.T.);
#358=ORIENTED_EDGE('',*,*,#267,.T.);
#359=CARTESIAN_POINT('',(18.680000000000046,-1.375344E-014,7.799999999999997));
#360=DIRECTION('',(1.0,-1.110223E-016,1.110223E-016));
#361=DIRECTION('',(1.570092E-016,0.707106781186547,-0.707106781186548));
#362=AXIS2_PLACEMENT_3D('',#359,#360,#361);
#363=CIRCLE('',#362,0.550000000000000);
#364=EDGE_CURVE('',#243,#253,#363,.T.);
#365=ORIENTED_EDGE('',*,*,#364,.F.);
#366=EDGE_LOOP('',(#350,#357,#358,#365));
#367=FACE_OUTER_BOUND('',#366,.T.);
#368=ADVANCED_FACE('',(#367),#349,.T.);
#369=CARTESIAN_POINT('',(7.980000000000043,-1.020073E-014,7.799999999999997));
#370=DIRECTION('',(1.0,0.0,0.0));
#371=DIRECTION('',(0.0,-0.707106781186548,-0.707106781186547));
#372=AXIS2_PLACEMENT_3D('',#369,#370,#371);
#373=PLANE('',#372);
#374=ORIENTED_EDGE('',*,*,#356,.F.);
#375=ORIENTED_EDGE('',*,*,#274,.F.);
#376=EDGE_LOOP('',(#374,#375));
#377=FACE_OUTER_BOUND('',#376,.T.);
#378=ORIENTED_EDGE('',*,*,#340,.T.);
#379=ORIENTED_EDGE('',*,*,#301,.T.);
#380=EDGE_LOOP('',(#378,#379));
#381=FACE_BOUND('',#380,.T.);
#382=ADVANCED_FACE('',(#377,#381),#373,.F.);
#383=CARTESIAN_POINT('',(18.680000000000046,-1.375344E-014,7.799999999999997));
#384=DIRECTION('',(1.0,0.0,0.0));
#385=DIRECTION('',(0.0,-0.707106781186548,-0.707106781186547));
#386=AXIS2_PLACEMENT_3D('',#383,#384,#385);
#387=PLANE('',#386);
#388=ORIENTED_EDGE('',*,*,#364,.T.);
#389=ORIENTED_EDGE('',*,*,#259,.T.);
#390=EDGE_LOOP('',(#388,#389));
#391=FACE_OUTER_BOUND('',#390,.T.);
#392=ORIENTED_EDGE('',*,*,#316,.T.);
#393=ORIENTED_EDGE('',*,*,#332,.T.);
#394=EDGE_LOOP('',(#392,#393));
#395=FACE_BOUND('',#394,.T.);
#396=ADVANCED_FACE('',(#391,#395),#387,.T.);
#397=CLOSED_SHELL('',(#278,#320,#344,#368,#382,#396));
#398=MANIFOLD_SOLID_BREP('27A',#397);
#399=STYLED_ITEM('NONE',(#233),#398);
#400=CARTESIAN_POINT('',(7.980000000000046,-6.648015E-015,6.700000000000000));
#401=DIRECTION('',(1.0,-6.640586E-016,-2.490220E-016));
#402=DIRECTION('',(0.0,1.0,0.0));
#403=AXIS2_PLACEMENT_3D('',#400,#401,#402);
#404=CYLINDRICAL_SURFACE('',#403,2.250000000000000);
#405=CARTESIAN_POINT('',(7.980000000000048,2.249999999999993,6.700000000000000));
#406=VERTEX_POINT('',#405);
#407=CARTESIAN_POINT('',(18.680000000000049,2.249999999999986,6.699999999999998));
#408=VERTEX_POINT('',#407);
#409=CARTESIAN_POINT('',(7.980000000000048,2.249999999999993,6.700000000000000));
#410=DIRECTION('',(1.0,0.0,0.0));
#411=VECTOR('',#410,10.700000000000003);
#412=LINE('',#409,#411);
#413=EDGE_CURVE('',#406,#408,#412,.T.);
#414=ORIENTED_EDGE('',*,*,#413,.F.);
#415=CARTESIAN_POINT('',(7.980000000000045,-2.250000000000007,6.700000000000000));
#416=VERTEX_POINT('',#415);
#417=CARTESIAN_POINT('',(7.980000000000046,-6.648015E-015,6.700000000000000));
#418=DIRECTION('',(1.0,0.0,0.0));
#419=DIRECTION('',(0.0,1.0,0.0));
#420=AXIS2_PLACEMENT_3D('',#417,#418,#419);
#421=CIRCLE('',#420,2.250000000000000);
#422=EDGE_CURVE('',#406,#416,#421,.T.);
#423=ORIENTED_EDGE('',*,*,#422,.T.);
#424=CARTESIAN_POINT('',(18.680000000000046,-2.250000000000014,6.699999999999998));
#425=VERTEX_POINT('',#424);
#426=CARTESIAN_POINT('',(18.680000000000046,-2.250000000000014,6.699999999999998));
#427=DIRECTION('',(-1.0,0.0,0.0));
#428=VECTOR('',#427,10.700000000000001);
#429=LINE('',#426,#428);
#430=EDGE_CURVE('',#425,#416,#429,.T.);
#431=ORIENTED_EDGE('',*,*,#430,.F.);
#432=CARTESIAN_POINT('',(18.680000000000046,-1.375344E-014,6.699999999999998));
#433=DIRECTION('',(-1.0,0.0,0.0));
#434=DIRECTION('',(0.0,1.0,0.0));
#435=AXIS2_PLACEMENT_3D('',#432,#433,#434);
#436=CIRCLE('',#435,2.250000000000000);
#437=EDGE_CURVE('',#425,#408,#436,.T.);
#438=ORIENTED_EDGE('',*,*,#437,.T.);
#439=EDGE_LOOP('',(#414,#423,#431,#438));
#440=FACE_OUTER_BOUND('',#439,.T.);
#441=ADVANCED_FACE('',(#440),#404,.T.);
#442=CARTESIAN_POINT('',(18.680000000000046,-1.375344E-014,7.799999999999997));
#443=DIRECTION('',(-1.0,6.642360E-016,2.277381E-016));
#444=DIRECTION('',(0.0,1.0,0.0));
#445=AXIS2_PLACEMENT_3D('',#442,#443,#444);
#446=CYLINDRICAL_SURFACE('',#445,0.550000000000000);
#447=CARTESIAN_POINT('',(7.980000000000048,0.549999999999993,7.799999999999999));
#448=VERTEX_POINT('',#447);
#449=CARTESIAN_POINT('',(18.680000000000046,0.549999999999986,7.799999999999997));
#450=VERTEX_POINT('',#449);
#451=CARTESIAN_POINT('',(7.980000000000048,0.549999999999993,7.799999999999999));
#452=DIRECTION('',(1.0,0.0,0.0));
#453=VECTOR('',#452,10.699999999999999);
#454=LINE('',#451,#453);
#455=EDGE_CURVE('',#448,#450,#454,.T.);
#456=ORIENTED_EDGE('',*,*,#455,.F.);
#457=CARTESIAN_POINT('',(7.980000000000047,-0.550000000000007,7.800000000000000));
#458=VERTEX_POINT('',#457);
#459=CARTESIAN_POINT('',(7.980000000000047,-6.646118E-015,7.800000000000000));
#460=DIRECTION('',(1.0,0.0,0.0));
#461=DIRECTION('',(0.0,1.0,0.0));
#462=AXIS2_PLACEMENT_3D('',#459,#460,#461);
#463=CIRCLE('',#462,0.550000000000000);
#464=EDGE_CURVE('',#458,#448,#463,.T.);
#465=ORIENTED_EDGE('',*,*,#464,.F.);
#466=CARTESIAN_POINT('',(18.680000000000046,-0.550000000000014,7.799999999999997));
#467=VERTEX_POINT('',#466);
#468=CARTESIAN_POINT('',(18.680000000000046,-0.550000000000014,7.799999999999997));
#469=DIRECTION('',(-1.0,0.0,0.0));
#470=VECTOR('',#469,10.699999999999999);
#471=LINE('',#468,#470);
#472=EDGE_CURVE('',#467,#458,#471,.T.);
#473=ORIENTED_EDGE('',*,*,#472,.F.);
#474=CARTESIAN_POINT('',(18.680000000000046,-1.375344E-014,7.799999999999997));
#475=DIRECTION('',(-1.0,0.0,0.0));
#476=DIRECTION('',(0.0,1.0,0.0));
#477=AXIS2_PLACEMENT_3D('',#474,#475,#476);
#478=CIRCLE('',#477,0.550000000000000);
#479=EDGE_CURVE('',#450,#467,#478,.T.);
#480=ORIENTED_EDGE('',*,*,#479,.F.);
#481=EDGE_LOOP('',(#456,#465,#473,#480));
#482=FACE_OUTER_BOUND('',#481,.T.);
#483=ADVANCED_FACE('',(#482),#446,.F.);
#484=CARTESIAN_POINT('',(18.680000000000046,-1.375344E-014,5.599999999999998));
#485=DIRECTION('',(-1.0,6.642360E-016,2.277381E-016));
#486=DIRECTION('',(0.0,1.0,0.0));
#487=AXIS2_PLACEMENT_3D('',#484,#485,#486);
#488=CYLINDRICAL_SURFACE('',#487,0.550000000000000);
#489=CARTESIAN_POINT('',(7.980000000000048,0.549999999999993,5.600000000000000));
#490=VERTEX_POINT('',#489);
#491=CARTESIAN_POINT('',(18.680000000000046,0.549999999999986,5.599999999999998));
#492=VERTEX_POINT('',#491);
#493=CARTESIAN_POINT('',(7.980000000000048,0.549999999999993,5.600000000000000));
#494=DIRECTION('',(1.0,0.0,0.0));
#495=VECTOR('',#494,10.699999999999999);
#496=LINE('',#493,#495);
#497=EDGE_CURVE('',#490,#492,#496,.T.);
#498=ORIENTED_EDGE('',*,*,#497,.F.);
#499=CARTESIAN_POINT('',(7.980000000000047,-0.550000000000007,5.600000000000001));
#500=VERTEX_POINT('',#499);
#501=CARTESIAN_POINT('',(7.980000000000047,-6.646118E-015,5.600000000000001));
#502=DIRECTION('',(1.0,0.0,0.0));
#503=DIRECTION('',(0.0,1.0,0.0));
#504=AXIS2_PLACEMENT_3D('',#501,#502,#503);
#505=CIRCLE('',#504,0.550000000000000);
#506=EDGE_CURVE('',#500,#490,#505,.T.);
#507=ORIENTED_EDGE('',*,*,#506,.F.);
#508=CARTESIAN_POINT('',(18.680000000000046,-0.550000000000014,5.599999999999998));
#509=VERTEX_POINT('',#508);
#510=CARTESIAN_POINT('',(18.680000000000046,-0.550000000000014,5.599999999999998));
#511=DIRECTION('',(-1.0,0.0,0.0));
#512=VECTOR('',#511,10.699999999999999);
#513=LINE('',#510,#512);
#514=EDGE_CURVE('',#509,#500,#513,.T.);
#515=ORIENTED_EDGE('',*,*,#514,.F.);
#516=CARTESIAN_POINT('',(18.680000000000046,-1.375344E-014,5.599999999999998));
#517=DIRECTION('',(-1.0,0.0,0.0));
#518=DIRECTION('',(0.0,1.0,0.0));
#519=AXIS2_PLACEMENT_3D('',#516,#517,#518);
#520=CIRCLE('',#519,0.550000000000000);
#521=EDGE_CURVE('',#492,#509,#520,.T.);
#522=ORIENTED_EDGE('',*,*,#521,.F.);
#523=EDGE_LOOP('',(#498,#507,#515,#522));
#524=FACE_OUTER_BOUND('',#523,.T.);
#525=ADVANCED_FACE('',(#524),#488,.F.);
#526=CARTESIAN_POINT('',(18.680000000000046,-1.375344E-014,5.599999999999998));
#527=DIRECTION('',(-1.0,6.642360E-016,2.277381E-016));
#528=DIRECTION('',(0.0,1.0,0.0));
#529=AXIS2_PLACEMENT_3D('',#526,#527,#528);
#530=CYLINDRICAL_SURFACE('',#529,0.550000000000000);
#531=ORIENTED_EDGE('',*,*,#497,.T.);
#532=CARTESIAN_POINT('',(18.680000000000046,-1.375344E-014,5.599999999999998));
#533=DIRECTION('',(-1.0,0.0,0.0));
#534=DIRECTION('',(0.0,1.0,0.0));
#535=AXIS2_PLACEMENT_3D('',#532,#533,#534);
#536=CIRCLE('',#535,0.550000000000000);
#537=EDGE_CURVE('',#509,#492,#536,.T.);
#538=ORIENTED_EDGE('',*,*,#537,.F.);
#539=ORIENTED_EDGE('',*,*,#514,.T.);
#540=CARTESIAN_POINT('',(7.980000000000047,-6.646118E-015,5.600000000000001));
#541=DIRECTION('',(1.0,0.0,0.0));
#542=DIRECTION('',(0.0,1.0,0.0));
#543=AXIS2_PLACEMENT_3D('',#540,#541,#542);
#544=CIRCLE('',#543,0.550000000000000);
#545=EDGE_CURVE('',#490,#500,#544,.T.);
#546=ORIENTED_EDGE('',*,*,#545,.F.);
#547=EDGE_LOOP('',(#531,#538,#539,#546));
#548=FACE_OUTER_BOUND('',#547,.T.);
#549=ADVANCED_FACE('',(#548),#530,.F.);
#550=CARTESIAN_POINT('',(18.680000000000046,-1.375344E-014,7.799999999999997));
#551=DIRECTION('',(-1.0,6.642360E-016,2.277381E-016));
#552=DIRECTION('',(0.0,1.0,0.0));
#553=AXIS2_PLACEMENT_3D('',#550,#551,#552);
#554=CYLINDRICAL_SURFACE('',#553,0.550000000000000);
#555=ORIENTED_EDGE('',*,*,#455,.T.);
#556=CARTESIAN_POINT('',(18.680000000000046,-1.375344E-014,7.799999999999997));
#557=DIRECTION('',(-1.0,0.0,0.0));
#558=DIRECTION('',(0.0,1.0,0.0));
#559=AXIS2_PLACEMENT_3D('',#556,#557,#558);
#560=CIRCLE('',#559,0.550000000000000);
#561=EDGE_CURVE('',#467,#450,#560,.T.);
#562=ORIENTED_EDGE('',*,*,#561,.F.);
#563=ORIENTED_EDGE('',*,*,#472,.T.);
#564=CARTESIAN_POINT('',(7.980000000000047,-6.646118E-015,7.800000000000000));
#565=DIRECTION('',(1.0,0.0,0.0));
#566=DIRECTION('',(0.0,1.0,0.0));
#567=AXIS2_PLACEMENT_3D('',#564,#565,#566);
#568=CIRCLE('',#567,0.550000000000000);
#569=EDGE_CURVE('',#448,#458,#568,.T.);
#570=ORIENTED_EDGE('',*,*,#569,.F.);
#571=EDGE_LOOP('',(#555,#562,#563,#570));
#572=FACE_OUTER_BOUND('',#571,.T.);
#573=ADVANCED_FACE('',(#572),#554,.F.);
#574=CARTESIAN_POINT('',(7.980000000000046,-6.648015E-015,6.700000000000000));
#575=DIRECTION('',(1.0,-6.640586E-016,-2.490220E-016));
#576=DIRECTION('',(0.0,1.0,0.0));
#577=AXIS2_PLACEMENT_3D('',#574,#575,#576);
#578=CYLINDRICAL_SURFACE('',#577,2.250000000000000);
#579=ORIENTED_EDGE('',*,*,#413,.T.);
#580=CARTESIAN_POINT('',(18.680000000000046,-1.375344E-014,6.699999999999998));
#581=DIRECTION('',(-1.0,0.0,0.0));
#582=DIRECTION('',(0.0,1.0,0.0));
#583=AXIS2_PLACEMENT_3D('',#580,#581,#582);
#584=CIRCLE('',#583,2.250000000000000);
#585=EDGE_CURVE('',#408,#425,#584,.T.);
#586=ORIENTED_EDGE('',*,*,#585,.T.);
#587=ORIENTED_EDGE('',*,*,#430,.T.);
#588=CARTESIAN_POINT('',(7.980000000000046,-6.648015E-015,6.700000000000000));
#589=DIRECTION('',(1.0,0.0,0.0));
#590=DIRECTION('',(0.0,1.0,0.0));
#591=AXIS2_PLACEMENT_3D('',#588,#589,#590);
#592=CIRCLE('',#591,2.250000000000000);
#593=EDGE_CURVE('',#416,#406,#592,.T.);
#594=ORIENTED_EDGE('',*,*,#593,.T.);
#595=EDGE_LOOP('',(#579,#586,#587,#594));
#596=FACE_OUTER_BOUND('',#595,.T.);
#597=ADVANCED_FACE('',(#596),#578,.T.);
#598=CARTESIAN_POINT('',(18.680000000000046,-1.375344E-014,6.699999999999998));
#599=DIRECTION('',(1.0,0.0,0.0));
#600=DIRECTION('',(0.0,0.0,-1.0));
#601=AXIS2_PLACEMENT_3D('',#598,#599,#600);
#602=PLANE('',#601);
#603=ORIENTED_EDGE('',*,*,#585,.F.);
#604=ORIENTED_EDGE('',*,*,#437,.F.);
#605=EDGE_LOOP('',(#603,#604));
#606=FACE_OUTER_BOUND('',#605,.T.);
#607=ORIENTED_EDGE('',*,*,#521,.T.);
#608=ORIENTED_EDGE('',*,*,#537,.T.);
#609=EDGE_LOOP('',(#607,#608));
#610=FACE_BOUND('',#609,.T.);
#611=ORIENTED_EDGE('',*,*,#479,.T.);
#612=ORIENTED_EDGE('',*,*,#561,.T.);
#613=EDGE_LOOP('',(#611,#612));
#614=FACE_BOUND('',#613,.T.);
#615=ADVANCED_FACE('',(#606,#610,#614),#602,.T.);
#616=CARTESIAN_POINT('',(7.980000000000046,-6.648015E-015,6.700000000000000));
#617=DIRECTION('',(1.0,0.0,0.0));
#618=DIRECTION('',(0.0,0.0,-1.0));
#619=AXIS2_PLACEMENT_3D('',#616,#617,#618);
#620=PLANE('',#619);
#621=ORIENTED_EDGE('',*,*,#422,.F.);
#622=ORIENTED_EDGE('',*,*,#593,.F.);
#623=EDGE_LOOP('',(#621,#622));
#624=FACE_OUTER_BOUND('',#623,.T.);
#625=ORIENTED_EDGE('',*,*,#506,.T.);
#626=ORIENTED_EDGE('',*,*,#545,.T.);
#627=EDGE_LOOP('',(#625,#626));
#628=FACE_BOUND('',#627,.T.);
#629=ORIENTED_EDGE('',*,*,#464,.T.);
#630=ORIENTED_EDGE('',*,*,#569,.T.);
#631=EDGE_LOOP('',(#629,#630));
#632=FACE_BOUND('',#631,.T.);
#633=ADVANCED_FACE('',(#624,#628,#632),#620,.F.);
#634=CLOSED_SHELL('',(#441,#483,#525,#549,#573,#597,#615,#633));
#635=MANIFOLD_SOLID_BREP('12A',#634);
#636=COLOUR_RGB('35',0.500000000000000,0.375000000000000,0.250000000000000);
#637=SURFACE_STYLE_USAGE(.BOTH.,#638);
#638=SURFACE_SIDE_STYLE('NONE',(#639));
#639=SURFACE_STYLE_FILL_AREA(#640);
#640=FILL_AREA_STYLE('NONE',(#641));
#641=FILL_AREA_STYLE_COLOUR('NONE',#636);
#642=PRESENTATION_STYLE_ASSIGNMENT((#637));
#643=STYLED_ITEM('NONE',(#642),#635);
#644=PRESENTATION_LAYER_ASSIGNMENT('0','None',(#635,#732,#821,#910,#999,#1088,#1177,#1398,#1618,#1632,#1643));
#645=CARTESIAN_POINT('',(0.0,1.270000000000010,8.350022E-063));
#646=DIRECTION('',(0.0,0.0,-1.0));
#647=DIRECTION('',(-1.0,0.0,0.0));
#648=AXIS2_PLACEMENT_3D('',#645,#646,#647);
#649=CYLINDRICAL_SURFACE('',#648,0.350000000000000);
#650=CARTESIAN_POINT('',(-0.350000000000000,1.270000000000010,-1.724254E-047));
#651=VERTEX_POINT('',#650);
#652=CARTESIAN_POINT('',(-0.350000000000000,1.270000000000010,-4.0));
#653=VERTEX_POINT('',#652);
#654=CARTESIAN_POINT('',(-0.350000000000000,1.270000000000010,-1.724254E-047));
#655=DIRECTION('',(0.0,0.0,-1.0));
#656=VECTOR('',#655,4.0);
#657=LINE('',#654,#656);
#658=EDGE_CURVE('',#651,#653,#657,.T.);
#659=ORIENTED_EDGE('',*,*,#658,.F.);
#660=CARTESIAN_POINT('',(0.350000000000000,1.270000000000010,1.724254E-047));
#661=VERTEX_POINT('',#660);
#662=CARTESIAN_POINT('',(0.0,1.270000000000010,8.350022E-063));
#663=DIRECTION('',(0.0,0.0,-1.0));
#664=DIRECTION('',(-1.0,0.0,0.0));
#665=AXIS2_PLACEMENT_3D('',#662,#663,#664);
#666=CIRCLE('',#665,0.350000000000000);
#667=EDGE_CURVE('',#651,#661,#666,.T.);
#668=ORIENTED_EDGE('',*,*,#667,.T.);
#669=CARTESIAN_POINT('',(0.350000000000000,1.270000000000010,-4.0));
#670=VERTEX_POINT('',#669);
#671=CARTESIAN_POINT('',(0.350000000000000,1.270000000000010,-4.0));
#672=DIRECTION('',(0.0,0.0,1.0));
#673=VECTOR('',#672,4.0);
#674=LINE('',#671,#673);
#675=EDGE_CURVE('',#670,#661,#674,.T.);
#676=ORIENTED_EDGE('',*,*,#675,.F.);
#677=CARTESIAN_POINT('',(0.0,1.270000000000010,-4.0));
#678=DIRECTION('',(0.0,0.0,1.0));
#679=DIRECTION('',(-1.0,0.0,0.0));
#680=AXIS2_PLACEMENT_3D('',#677,#678,#679);
#681=CIRCLE('',#680,0.350000000000000);
#682=EDGE_CURVE('',#670,#653,#681,.T.);
#683=ORIENTED_EDGE('',*,*,#682,.T.);
#684=EDGE_LOOP('',(#659,#668,#676,#683));
#685=FACE_OUTER_BOUND('',#684,.T.);
#686=ADVANCED_FACE('',(#685),#649,.T.);
#687=CARTESIAN_POINT('',(0.0,1.270000000000010,8.350022E-063));
#688=DIRECTION('',(0.0,0.0,-1.0));
#689=DIRECTION('',(-1.0,0.0,0.0));
#690=AXIS2_PLACEMENT_3D('',#687,#688,#689);
#691=CYLINDRICAL_SURFACE('',#690,0.350000000000000);
#692=ORIENTED_EDGE('',*,*,#658,.T.);
#693=CARTESIAN_POINT('',(0.0,1.270000000000010,-4.0));
#694=DIRECTION('',(0.0,0.0,1.0));
#695=DIRECTION('',(-1.0,0.0,0.0));
#696=AXIS2_PLACEMENT_3D('',#693,#694,#695);
#697=CIRCLE('',#696,0.350000000000000);
#698=EDGE_CURVE('',#653,#670,#697,.T.);
#699=ORIENTED_EDGE('',*,*,#698,.T.);
#700=ORIENTED_EDGE('',*,*,#675,.T.);
#701=CARTESIAN_POINT('',(0.0,1.270000000000010,8.350022E-063));
#702=DIRECTION('',(0.0,0.0,-1.0));
#703=DIRECTION('',(-1.0,0.0,0.0));
#704=AXIS2_PLACEMENT_3D('',#701,#702,#703);
#705=CIRCLE('',#704,0.350000000000000);
#706=EDGE_CURVE('',#661,#651,#705,.T.);
#707=ORIENTED_EDGE('',*,*,#706,.T.);
#708=EDGE_LOOP('',(#692,#699,#700,#707));
#709=FACE_OUTER_BOUND('',#708,.T.);
#710=ADVANCED_FACE('',(#709),#691,.T.);
#711=CARTESIAN_POINT('',(0.0,1.270000000000010,-4.0));
#712=DIRECTION('',(0.0,0.0,-1.0));
#713=DIRECTION('',(-1.0,0.0,0.0));
#714=AXIS2_PLACEMENT_3D('',#711,#712,#713);
#715=PLANE('',#714);
#716=ORIENTED_EDGE('',*,*,#698,.F.);
#717=ORIENTED_EDGE('',*,*,#682,.F.);
#718=EDGE_LOOP('',(#716,#717));
#719=FACE_OUTER_BOUND('',#718,.T.);
#720=ADVANCED_FACE('',(#719),#715,.T.);
#721=CARTESIAN_POINT('',(0.0,1.270000000000010,8.350022E-063));
#722=DIRECTION('',(0.0,0.0,-1.0));
#723=DIRECTION('',(-1.0,0.0,0.0));
#724=AXIS2_PLACEMENT_3D('',#721,#722,#723);
#725=PLANE('',#724);
#726=ORIENTED_EDGE('',*,*,#667,.F.);
#727=ORIENTED_EDGE('',*,*,#706,.F.);
#728=EDGE_LOOP('',(#726,#727));
#729=FACE_OUTER_BOUND('',#728,.T.);
#730=ADVANCED_FACE('',(#729),#725,.F.);
#731=CLOSED_SHELL('',(#686,#710,#720,#730));
#732=MANIFOLD_SOLID_BREP('126',#731);
#733=STYLED_ITEM('NONE',(#233),#732);
#734=CARTESIAN_POINT('',(0.0,-1.269999999999996,8.350022E-063));
#735=DIRECTION('',(0.0,0.0,-1.0));
#736=DIRECTION('',(-1.0,0.0,0.0));
#737=AXIS2_PLACEMENT_3D('',#734,#735,#736);
#738=CYLINDRICAL_SURFACE('',#737,0.350000000000000);
#739=CARTESIAN_POINT('',(-0.350000000000000,-1.269999999999996,-1.724254E-047));
#740=VERTEX_POINT('',#739);
#741=CARTESIAN_POINT('',(-0.350000000000000,-1.269999999999996,-4.0));
#742=VERTEX_POINT('',#741);
#743=CARTESIAN_POINT('',(-0.350000000000000,-1.269999999999996,-1.724254E-047));
#744=DIRECTION('',(0.0,0.0,-1.0));
#745=VECTOR('',#744,4.0);
#746=LINE('',#743,#745);
#747=EDGE_CURVE('',#740,#742,#746,.T.);
#748=ORIENTED_EDGE('',*,*,#747,.F.);
#749=CARTESIAN_POINT('',(0.350000000000000,-1.269999999999996,1.724254E-047));
#750=VERTEX_POINT('',#749);
#751=CARTESIAN_POINT('',(0.0,-1.269999999999996,8.350022E-063));
#752=DIRECTION('',(0.0,0.0,-1.0));
#753=DIRECTION('',(-1.0,0.0,0.0));
#754=AXIS2_PLACEMENT_3D('',#751,#752,#753);
#755=CIRCLE('',#754,0.350000000000000);
#756=EDGE_CURVE('',#740,#750,#755,.T.);
#757=ORIENTED_EDGE('',*,*,#756,.T.);
#758=CARTESIAN_POINT('',(0.350000000000000,-1.269999999999996,-4.0));
#759=VERTEX_POINT('',#758);
#760=CARTESIAN_POINT('',(0.350000000000000,-1.269999999999996,-4.0));
#761=DIRECTION('',(0.0,0.0,1.0));
#762=VECTOR('',#761,4.0);
#763=LINE('',#760,#762);
#764=EDGE_CURVE('',#759,#750,#763,.T.);
#765=ORIENTED_EDGE('',*,*,#764,.F.);
#766=CARTESIAN_POINT('',(0.0,-1.269999999999996,-4.0));
#767=DIRECTION('',(0.0,0.0,1.0));
#768=DIRECTION('',(-1.0,0.0,0.0));
#769=AXIS2_PLACEMENT_3D('',#766,#767,#768);
#770=CIRCLE('',#769,0.350000000000000);
#771=EDGE_CURVE('',#759,#742,#770,.T.);
#772=ORIENTED_EDGE('',*,*,#771,.T.);
#773=EDGE_LOOP('',(#748,#757,#765,#772));
#774=FACE_OUTER_BOUND('',#773,.T.);
#775=ADVANCED_FACE('',(#774),#738,.T.);
#776=CARTESIAN_POINT('',(0.0,-1.269999999999996,8.350022E-063));
#777=DIRECTION('',(0.0,0.0,-1.0));
#778=DIRECTION('',(-1.0,0.0,0.0));
#779=AXIS2_PLACEMENT_3D('',#776,#777,#778);
#780=CYLINDRICAL_SURFACE('',#779,0.350000000000000);
#781=ORIENTED_EDGE('',*,*,#747,.T.);
#782=CARTESIAN_POINT('',(0.0,-1.269999999999996,-4.0));
#783=DIRECTION('',(0.0,0.0,1.0));
#784=DIRECTION('',(-1.0,0.0,0.0));
#785=AXIS2_PLACEMENT_3D('',#782,#783,#784);
#786=CIRCLE('',#785,0.350000000000000);
#787=EDGE_CURVE('',#742,#759,#786,.T.);
#788=ORIENTED_EDGE('',*,*,#787,.T.);
#789=ORIENTED_EDGE('',*,*,#764,.T.);
#790=CARTESIAN_POINT('',(0.0,-1.269999999999996,8.350022E-063));
#791=DIRECTION('',(0.0,0.0,-1.0));
#792=DIRECTION('',(-1.0,0.0,0.0));
#793=AXIS2_PLACEMENT_3D('',#790,#791,#792);
#794=CIRCLE('',#793,0.350000000000000);
#795=EDGE_CURVE('',#750,#740,#794,.T.);
#796=ORIENTED_EDGE('',*,*,#795,.T.);
#797=EDGE_LOOP('',(#781,#788,#789,#796));
#798=FACE_OUTER_BOUND('',#797,.T.);
#799=ADVANCED_FACE('',(#798),#780,.T.);
#800=CARTESIAN_POINT('',(0.0,-1.269999999999996,-4.0));
#801=DIRECTION('',(0.0,0.0,-1.0));
#802=DIRECTION('',(-1.0,0.0,0.0));
#803=AXIS2_PLACEMENT_3D('',#800,#801,#802);
#804=PLANE('',#803);
#805=ORIENTED_EDGE('',*,*,#787,.F.);
#806=ORIENTED_EDGE('',*,*,#771,.F.);
#807=EDGE_LOOP('',(#805,#806));
#808=FACE_OUTER_BOUND('',#807,.T.);
#809=ADVANCED_FACE('',(#808),#804,.T.);
#810=CARTESIAN_POINT('',(0.0,-1.269999999999996,8.350022E-063));
#811=DIRECTION('',(0.0,0.0,-1.0));
#812=DIRECTION('',(-1.0,0.0,0.0));
#813=AXIS2_PLACEMENT_3D('',#810,#811,#812);
#814=PLANE('',#813);
#815=ORIENTED_EDGE('',*,*,#756,.F.);
#816=ORIENTED_EDGE('',*,*,#795,.F.);
#817=EDGE_LOOP('',(#815,#816));
#818=FACE_OUTER_BOUND('',#817,.T.);
#819=ADVANCED_FACE('',(#818),#814,.F.);
#820=CLOSED_SHELL('',(#775,#799,#809,#819));
#821=MANIFOLD_SOLID_BREP('125',#820);
#822=STYLED_ITEM('NONE',(#233),#821);
#823=CARTESIAN_POINT('',(5.080000000000041,3.810000000000002,8.350022E-063));
#824=DIRECTION('',(0.0,0.0,-1.0));
#825=DIRECTION('',(-1.0,0.0,0.0));
#826=AXIS2_PLACEMENT_3D('',#823,#824,#825);
#827=CYLINDRICAL_SURFACE('',#826,0.350000000000000);
#828=CARTESIAN_POINT('',(4.730000000000041,3.810000000000002,-1.724254E-047));
#829=VERTEX_POINT('',#828);
#830=CARTESIAN_POINT('',(4.730000000000041,3.810000000000002,-4.0));
#831=VERTEX_POINT('',#830);
#832=CARTESIAN_POINT('',(4.730000000000041,3.810000000000002,-1.724254E-047));
#833=DIRECTION('',(0.0,0.0,-1.0));
#834=VECTOR('',#833,4.0);
#835=LINE('',#832,#834);
#836=EDGE_CURVE('',#829,#831,#835,.T.);
#837=ORIENTED_EDGE('',*,*,#836,.F.);
#838=CARTESIAN_POINT('',(5.430000000000041,3.810000000000002,1.724254E-047));
#839=VERTEX_POINT('',#838);
#840=CARTESIAN_POINT('',(5.080000000000041,3.810000000000002,8.350022E-063));
#841=DIRECTION('',(0.0,0.0,-1.0));
#842=DIRECTION('',(-1.0,0.0,0.0));
#843=AXIS2_PLACEMENT_3D('',#840,#841,#842);
#844=CIRCLE('',#843,0.350000000000000);
#845=EDGE_CURVE('',#829,#839,#844,.T.);
#846=ORIENTED_EDGE('',*,*,#845,.T.);
#847=CARTESIAN_POINT('',(5.430000000000041,3.810000000000002,-4.0));
#848=VERTEX_POINT('',#847);
#849=CARTESIAN_POINT('',(5.430000000000041,3.810000000000002,-4.0));
#850=DIRECTION('',(0.0,0.0,1.0));
#851=VECTOR('',#850,4.0);
#852=LINE('',#849,#851);
#853=EDGE_CURVE('',#848,#839,#852,.T.);
#854=ORIENTED_EDGE('',*,*,#853,.F.);
#855=CARTESIAN_POINT('',(5.080000000000041,3.810000000000002,-4.0));
#856=DIRECTION('',(0.0,0.0,1.0));
#857=DIRECTION('',(-1.0,0.0,0.0));
#858=AXIS2_PLACEMENT_3D('',#855,#856,#857);
#859=CIRCLE('',#858,0.350000000000000);
#860=EDGE_CURVE('',#848,#831,#859,.T.);
#861=ORIENTED_EDGE('',*,*,#860,.T.);
#862=EDGE_LOOP('',(#837,#846,#854,#861));
#863=FACE_OUTER_BOUND('',#862,.T.);
#864=ADVANCED_FACE('',(#863),#827,.T.);
#865=CARTESIAN_POINT('',(5.080000000000041,3.810000000000002,8.350022E-063));
#866=DIRECTION('',(0.0,0.0,-1.0));
#867=DIRECTION('',(-1.0,0.0,0.0));
#868=AXIS2_PLACEMENT_3D('',#865,#866,#867);
#869=CYLINDRICAL_SURFACE('',#868,0.350000000000000);
#870=ORIENTED_EDGE('',*,*,#836,.T.);
#871=CARTESIAN_POINT('',(5.080000000000041,3.810000000000002,-4.0));
#872=DIRECTION('',(0.0,0.0,1.0));
#873=DIRECTION('',(-1.0,0.0,0.0));
#874=AXIS2_PLACEMENT_3D('',#871,#872,#873);
#875=CIRCLE('',#874,0.350000000000000);
#876=EDGE_CURVE('',#831,#848,#875,.T.);
#877=ORIENTED_EDGE('',*,*,#876,.T.);
#878=ORIENTED_EDGE('',*,*,#853,.T.);
#879=CARTESIAN_POINT('',(5.080000000000041,3.810000000000002,8.350022E-063));
#880=DIRECTION('',(0.0,0.0,-1.0));
#881=DIRECTION('',(-1.0,0.0,0.0));
#882=AXIS2_PLACEMENT_3D('',#879,#880,#881);
#883=CIRCLE('',#882,0.350000000000000);
#884=EDGE_CURVE('',#839,#829,#883,.T.);
#885=ORIENTED_EDGE('',*,*,#884,.T.);
#886=EDGE_LOOP('',(#870,#877,#878,#885));
#887=FACE_OUTER_BOUND('',#886,.T.);
#888=ADVANCED_FACE('',(#887),#869,.T.);
#889=CARTESIAN_POINT('',(5.080000000000041,3.810000000000002,-4.0));
#890=DIRECTION('',(0.0,0.0,-1.0));
#891=DIRECTION('',(-1.0,0.0,0.0));
#892=AXIS2_PLACEMENT_3D('',#889,#890,#891);
#893=PLANE('',#892);
#894=ORIENTED_EDGE('',*,*,#876,.F.);
#895=ORIENTED_EDGE('',*,*,#860,.F.);
#896=EDGE_LOOP('',(#894,#895));
#897=FACE_OUTER_BOUND('',#896,.T.);
#898=ADVANCED_FACE('',(#897),#893,.T.);
#899=CARTESIAN_POINT('',(5.080000000000041,3.810000000000002,8.350022E-063));
#900=DIRECTION('',(0.0,0.0,-1.0));
#901=DIRECTION('',(-1.0,0.0,0.0));
#902=AXIS2_PLACEMENT_3D('',#899,#900,#901);
#903=PLANE('',#902);
#904=ORIENTED_EDGE('',*,*,#845,.F.);
#905=ORIENTED_EDGE('',*,*,#884,.F.);
#906=EDGE_LOOP('',(#904,#905));
#907=FACE_OUTER_BOUND('',#906,.T.);
#908=ADVANCED_FACE('',(#907),#903,.F.);
#909=CLOSED_SHELL('',(#864,#888,#898,#908));
#910=MANIFOLD_SOLID_BREP('124',#909);
#911=STYLED_ITEM('NONE',(#233),#910);
#912=CARTESIAN_POINT('',(5.080000000000013,-3.810000000000002,8.350022E-063));
#913=DIRECTION('',(0.0,0.0,-1.0));
#914=DIRECTION('',(-1.0,0.0,0.0));
#915=AXIS2_PLACEMENT_3D('',#912,#913,#914);
#916=CYLINDRICAL_SURFACE('',#915,0.350000000000000);
#917=CARTESIAN_POINT('',(4.730000000000013,-3.810000000000002,-1.724254E-047));
#918=VERTEX_POINT('',#917);
#919=CARTESIAN_POINT('',(4.730000000000013,-3.810000000000002,-4.0));
#920=VERTEX_POINT('',#919);
#921=CARTESIAN_POINT('',(4.730000000000013,-3.810000000000002,-1.724254E-047));
#922=DIRECTION('',(0.0,0.0,-1.0));
#923=VECTOR('',#922,4.0);
#924=LINE('',#921,#923);
#925=EDGE_CURVE('',#918,#920,#924,.T.);
#926=ORIENTED_EDGE('',*,*,#925,.F.);
#927=CARTESIAN_POINT('',(5.430000000000012,-3.810000000000002,1.724254E-047));
#928=VERTEX_POINT('',#927);
#929=CARTESIAN_POINT('',(5.080000000000013,-3.810000000000002,8.350022E-063));
#930=DIRECTION('',(0.0,0.0,-1.0));
#931=DIRECTION('',(-1.0,0.0,0.0));
#932=AXIS2_PLACEMENT_3D('',#929,#930,#931);
#933=CIRCLE('',#932,0.350000000000000);
#934=EDGE_CURVE('',#918,#928,#933,.T.);
#935=ORIENTED_EDGE('',*,*,#934,.T.);
#936=CARTESIAN_POINT('',(5.430000000000012,-3.810000000000002,-4.0));
#937=VERTEX_POINT('',#936);
#938=CARTESIAN_POINT('',(5.430000000000012,-3.810000000000002,-4.0));
#939=DIRECTION('',(0.0,0.0,1.0));
#940=VECTOR('',#939,4.0);
#941=LINE('',#938,#940);
#942=EDGE_CURVE('',#937,#928,#941,.T.);
#943=ORIENTED_EDGE('',*,*,#942,.F.);
#944=CARTESIAN_POINT('',(5.080000000000013,-3.810000000000002,-4.0));
#945=DIRECTION('',(0.0,0.0,1.0));
#946=DIRECTION('',(-1.0,0.0,0.0));
#947=AXIS2_PLACEMENT_3D('',#944,#945,#946);
#948=CIRCLE('',#947,0.350000000000000);
#949=EDGE_CURVE('',#937,#920,#948,.T.);
#950=ORIENTED_EDGE('',*,*,#949,.T.);
#951=EDGE_LOOP('',(#926,#935,#943,#950));
#952=FACE_OUTER_BOUND('',#951,.T.);
#953=ADVANCED_FACE('',(#952),#916,.T.);
#954=CARTESIAN_POINT('',(5.080000000000013,-3.810000000000002,8.350022E-063));
#955=DIRECTION('',(0.0,0.0,-1.0));
#956=DIRECTION('',(-1.0,0.0,0.0));
#957=AXIS2_PLACEMENT_3D('',#954,#955,#956);
#958=CYLINDRICAL_SURFACE('',#957,0.350000000000000);
#959=ORIENTED_EDGE('',*,*,#925,.T.);
#960=CARTESIAN_POINT('',(5.080000000000013,-3.810000000000002,-4.0));
#961=DIRECTION('',(0.0,0.0,1.0));
#962=DIRECTION('',(-1.0,0.0,0.0));
#963=AXIS2_PLACEMENT_3D('',#960,#961,#962);
#964=CIRCLE('',#963,0.350000000000000);
#965=EDGE_CURVE('',#920,#937,#964,.T.);
#966=ORIENTED_EDGE('',*,*,#965,.T.);
#967=ORIENTED_EDGE('',*,*,#942,.T.);
#968=CARTESIAN_POINT('',(5.080000000000013,-3.810000000000002,8.350022E-063));
#969=DIRECTION('',(0.0,0.0,-1.0));
#970=DIRECTION('',(-1.0,0.0,0.0));
#971=AXIS2_PLACEMENT_3D('',#968,#969,#970);
#972=CIRCLE('',#971,0.350000000000000);
#973=EDGE_CURVE('',#928,#918,#972,.T.);
#974=ORIENTED_EDGE('',*,*,#973,.T.);
#975=EDGE_LOOP('',(#959,#966,#967,#974));
#976=FACE_OUTER_BOUND('',#975,.T.);
#977=ADVANCED_FACE('',(#976),#958,.T.);
#978=CARTESIAN_POINT('',(5.080000000000013,-3.810000000000002,-4.0));
#979=DIRECTION('',(0.0,0.0,-1.0));
#980=DIRECTION('',(-1.0,0.0,0.0));
#981=AXIS2_PLACEMENT_3D('',#978,#979,#980);
#982=PLANE('',#981);
#983=ORIENTED_EDGE('',*,*,#965,.F.);
#984=ORIENTED_EDGE('',*,*,#949,.F.);
#985=EDGE_LOOP('',(#983,#984));
#986=FACE_OUTER_BOUND('',#985,.T.);
#987=ADVANCED_FACE('',(#986),#982,.T.);
#988=CARTESIAN_POINT('',(5.080000000000013,-3.810000000000002,8.350022E-063));
#989=DIRECTION('',(0.0,0.0,-1.0));
#990=DIRECTION('',(-1.0,0.0,0.0));
#991=AXIS2_PLACEMENT_3D('',#988,#989,#990);
#992=PLANE('',#991);
#993=ORIENTED_EDGE('',*,*,#934,.F.);
#994=ORIENTED_EDGE('',*,*,#973,.F.);
#995=EDGE_LOOP('',(#993,#994));
#996=FACE_OUTER_BOUND('',#995,.T.);
#997=ADVANCED_FACE('',(#996),#992,.F.);
#998=CLOSED_SHELL('',(#953,#977,#987,#997));
#999=MANIFOLD_SOLID_BREP('123',#998);
#1000=STYLED_ITEM('NONE',(#233),#999);
#1001=CARTESIAN_POINT('',(-2.539999999999992,3.810000000000002,8.350022E-063));
#1002=DIRECTION('',(0.0,0.0,-1.0));
#1003=DIRECTION('',(-1.0,0.0,0.0));
#1004=AXIS2_PLACEMENT_3D('',#1001,#1002,#1003);
#1005=CYLINDRICAL_SURFACE('',#1004,0.350000000000000);
#1006=CARTESIAN_POINT('',(-2.889999999999992,3.810000000000002,-1.724254E-047));
#1007=VERTEX_POINT('',#1006);
#1008=CARTESIAN_POINT('',(-2.889999999999992,3.810000000000002,-4.0));
#1009=VERTEX_POINT('',#1008);
#1010=CARTESIAN_POINT('',(-2.889999999999992,3.810000000000002,-1.724254E-047));
#1011=DIRECTION('',(0.0,0.0,-1.0));
#1012=VECTOR('',#1011,4.0);
#1013=LINE('',#1010,#1012);
#1014=EDGE_CURVE('',#1007,#1009,#1013,.T.);
#1015=ORIENTED_EDGE('',*,*,#1014,.F.);
#1016=CARTESIAN_POINT('',(-2.189999999999992,3.810000000000002,1.724254E-047));
#1017=VERTEX_POINT('',#1016);
#1018=CARTESIAN_POINT('',(-2.539999999999992,3.810000000000002,8.350022E-063));
#1019=DIRECTION('',(0.0,0.0,-1.0));
#1020=DIRECTION('',(-1.0,0.0,0.0));
#1021=AXIS2_PLACEMENT_3D('',#1018,#1019,#1020);
#1022=CIRCLE('',#1021,0.350000000000000);
#1023=EDGE_CURVE('',#1007,#1017,#1022,.T.);
#1024=ORIENTED_EDGE('',*,*,#1023,.T.);
#1025=CARTESIAN_POINT('',(-2.189999999999992,3.810000000000002,-4.0));
#1026=VERTEX_POINT('',#1025);
#1027=CARTESIAN_POINT('',(-2.189999999999992,3.810000000000002,-4.0));
#1028=DIRECTION('',(0.0,0.0,1.0));
#1029=VECTOR('',#1028,4.0);
#1030=LINE('',#1027,#1029);
#1031=EDGE_CURVE('',#1026,#1017,#1030,.T.);
#1032=ORIENTED_EDGE('',*,*,#1031,.F.);
#1033=CARTESIAN_POINT('',(-2.539999999999992,3.810000000000002,-4.0));
#1034=DIRECTION('',(0.0,0.0,1.0));
#1035=DIRECTION('',(-1.0,0.0,0.0));
#1036=AXIS2_PLACEMENT_3D('',#1033,#1034,#1035);
#1037=CIRCLE('',#1036,0.350000000000000);
#1038=EDGE_CURVE('',#1026,#1009,#1037,.T.);
#1039=ORIENTED_EDGE('',*,*,#1038,.T.);
#1040=EDGE_LOOP('',(#1015,#1024,#1032,#1039));
#1041=FACE_OUTER_BOUND('',#1040,.T.);
#1042=ADVANCED_FACE('',(#1041),#1005,.T.);
#1043=CARTESIAN_POINT('',(-2.539999999999992,3.810000000000002,8.350022E-063));
#1044=DIRECTION('',(0.0,0.0,-1.0));
#1045=DIRECTION('',(-1.0,0.0,0.0));
#1046=AXIS2_PLACEMENT_3D('',#1043,#1044,#1045);
#1047=CYLINDRICAL_SURFACE('',#1046,0.350000000000000);
#1048=ORIENTED_EDGE('',*,*,#1014,.T.);
#1049=CARTESIAN_POINT('',(-2.539999999999992,3.810000000000002,-4.0));
#1050=DIRECTION('',(0.0,0.0,1.0));
#1051=DIRECTION('',(-1.0,0.0,0.0));
#1052=AXIS2_PLACEMENT_3D('',#1049,#1050,#1051);
#1053=CIRCLE('',#1052,0.350000000000000);
#1054=EDGE_CURVE('',#1009,#1026,#1053,.T.);
#1055=ORIENTED_EDGE('',*,*,#1054,.T.);
#1056=ORIENTED_EDGE('',*,*,#1031,.T.);
#1057=CARTESIAN_POINT('',(-2.539999999999992,3.810000000000002,8.350022E-063));
#1058=DIRECTION('',(0.0,0.0,-1.0));
#1059=DIRECTION('',(-1.0,0.0,0.0));
#1060=AXIS2_PLACEMENT_3D('',#1057,#1058,#1059);
#1061=CIRCLE('',#1060,0.350000000000000);
#1062=EDGE_CURVE('',#1017,#1007,#1061,.T.);
#1063=ORIENTED_EDGE('',*,*,#1062,.T.);
#1064=EDGE_LOOP('',(#1048,#1055,#1056,#1063));
#1065=FACE_OUTER_BOUND('',#1064,.T.);
#1066=ADVANCED_FACE('',(#1065),#1047,.T.);
#1067=CARTESIAN_POINT('',(-2.539999999999992,3.810000000000002,-4.0));
#1068=DIRECTION('',(0.0,0.0,-1.0));
#1069=DIRECTION('',(-1.0,0.0,0.0));
#1070=AXIS2_PLACEMENT_3D('',#1067,#1068,#1069);
#1071=PLANE('',#1070);
#1072=ORIENTED_EDGE('',*,*,#1054,.F.);
#1073=ORIENTED_EDGE('',*,*,#1038,.F.);
#1074=EDGE_LOOP('',(#1072,#1073));
#1075=FACE_OUTER_BOUND('',#1074,.T.);
#1076=ADVANCED_FACE('',(#1075),#1071,.T.);
#1077=CARTESIAN_POINT('',(-2.539999999999992,3.810000000000002,8.350022E-063));
#1078=DIRECTION('',(0.0,0.0,-1.0));
#1079=DIRECTION('',(-1.0,0.0,0.0));
#1080=AXIS2_PLACEMENT_3D('',#1077,#1078,#1079);
#1081=PLANE('',#1080);
#1082=ORIENTED_EDGE('',*,*,#1023,.F.);
#1083=ORIENTED_EDGE('',*,*,#1062,.F.);
#1084=EDGE_LOOP('',(#1082,#1083));
#1085=FACE_OUTER_BOUND('',#1084,.T.);
#1086=ADVANCED_FACE('',(#1085),#1081,.F.);
#1087=CLOSED_SHELL('',(#1042,#1066,#1076,#1086));
#1088=MANIFOLD_SOLID_BREP('122',#1087);
#1089=STYLED_ITEM('NONE',(#233),#1088);
#1090=CARTESIAN_POINT('',(-2.539999999999992,-3.810000000000002,8.350022E-063));
#1091=DIRECTION('',(0.0,0.0,-1.0));
#1092=DIRECTION('',(-1.0,0.0,0.0));
#1093=AXIS2_PLACEMENT_3D('',#1090,#1091,#1092);
#1094=CYLINDRICAL_SURFACE('',#1093,0.350000000000000);
#1095=CARTESIAN_POINT('',(-2.889999999999992,-3.810000000000002,-1.724254E-047));
#1096=VERTEX_POINT('',#1095);
#1097=CARTESIAN_POINT('',(-2.889999999999992,-3.810000000000002,-4.0));
#1098=VERTEX_POINT('',#1097);
#1099=CARTESIAN_POINT('',(-2.889999999999992,-3.810000000000002,-1.724254E-047));
#1100=DIRECTION('',(0.0,0.0,-1.0));
#1101=VECTOR('',#1100,4.0);
#1102=LINE('',#1099,#1101);
#1103=EDGE_CURVE('',#1096,#1098,#1102,.T.);
#1104=ORIENTED_EDGE('',*,*,#1103,.F.);
#1105=CARTESIAN_POINT('',(-2.189999999999992,-3.810000000000002,1.724254E-047));
#1106=VERTEX_POINT('',#1105);
#1107=CARTESIAN_POINT('',(-2.539999999999992,-3.810000000000002,8.350022E-063));
#1108=DIRECTION('',(0.0,0.0,-1.0));
#1109=DIRECTION('',(-1.0,0.0,0.0));
#1110=AXIS2_PLACEMENT_3D('',#1107,#1108,#1109);
#1111=CIRCLE('',#1110,0.350000000000000);
#1112=EDGE_CURVE('',#1096,#1106,#1111,.T.);
#1113=ORIENTED_EDGE('',*,*,#1112,.T.);
#1114=CARTESIAN_POINT('',(-2.189999999999992,-3.810000000000002,-4.0));
#1115=VERTEX_POINT('',#1114);
#1116=CARTESIAN_POINT('',(-2.189999999999992,-3.810000000000002,-4.0));
#1117=DIRECTION('',(0.0,0.0,1.0));
#1118=VECTOR('',#1117,4.0);
#1119=LINE('',#1116,#1118);
#1120=EDGE_CURVE('',#1115,#1106,#1119,.T.);
#1121=ORIENTED_EDGE('',*,*,#1120,.F.);
#1122=CARTESIAN_POINT('',(-2.539999999999992,-3.810000000000002,-4.0));
#1123=DIRECTION('',(0.0,0.0,1.0));
#1124=DIRECTION('',(-1.0,0.0,0.0));
#1125=AXIS2_PLACEMENT_3D('',#1122,#1123,#1124);
#1126=CIRCLE('',#1125,0.350000000000000);
#1127=EDGE_CURVE('',#1115,#1098,#1126,.T.);
#1128=ORIENTED_EDGE('',*,*,#1127,.T.);
#1129=EDGE_LOOP('',(#1104,#1113,#1121,#1128));
#1130=FACE_OUTER_BOUND('',#1129,.T.);
#1131=ADVANCED_FACE('',(#1130),#1094,.T.);
#1132=CARTESIAN_POINT('',(-2.539999999999992,-3.810000000000002,8.350022E-063));
#1133=DIRECTION('',(0.0,0.0,-1.0));
#1134=DIRECTION('',(-1.0,0.0,0.0));
#1135=AXIS2_PLACEMENT_3D('',#1132,#1133,#1134);
#1136=CYLINDRICAL_SURFACE('',#1135,0.350000000000000);
#1137=ORIENTED_EDGE('',*,*,#1103,.T.);
#1138=CARTESIAN_POINT('',(-2.539999999999992,-3.810000000000002,-4.0));
#1139=DIRECTION('',(0.0,0.0,1.0));
#1140=DIRECTION('',(-1.0,0.0,0.0));
#1141=AXIS2_PLACEMENT_3D('',#1138,#1139,#1140);
#1142=CIRCLE('',#1141,0.350000000000000);
#1143=EDGE_CURVE('',#1098,#1115,#1142,.T.);
#1144=ORIENTED_EDGE('',*,*,#1143,.T.);
#1145=ORIENTED_EDGE('',*,*,#1120,.T.);
#1146=CARTESIAN_POINT('',(-2.539999999999992,-3.810000000000002,8.350022E-063));
#1147=DIRECTION('',(0.0,0.0,-1.0));
#1148=DIRECTION('',(-1.0,0.0,0.0));
#1149=AXIS2_PLACEMENT_3D('',#1146,#1147,#1148);
#1150=CIRCLE('',#1149,0.350000000000000);
#1151=EDGE_CURVE('',#1106,#1096,#1150,.T.);
#1152=ORIENTED_EDGE('',*,*,#1151,.T.);
#1153=EDGE_LOOP('',(#1137,#1144,#1145,#1152));
#1154=FACE_OUTER_BOUND('',#1153,.T.);
#1155=ADVANCED_FACE('',(#1154),#1136,.T.);
#1156=CARTESIAN_POINT('',(-2.539999999999992,-3.810000000000002,-4.0));
#1157=DIRECTION('',(0.0,0.0,-1.0));
#1158=DIRECTION('',(-1.0,0.0,0.0));
#1159=AXIS2_PLACEMENT_3D('',#1156,#1157,#1158);
#1160=PLANE('',#1159);
#1161=ORIENTED_EDGE('',*,*,#1143,.F.);
#1162=ORIENTED_EDGE('',*,*,#1127,.F.);
#1163=EDGE_LOOP('',(#1161,#1162));
#1164=FACE_OUTER_BOUND('',#1163,.T.);
#1165=ADVANCED_FACE('',(#1164),#1160,.T.);
#1166=CARTESIAN_POINT('',(-2.539999999999992,-3.810000000000002,8.350022E-063));
#1167=DIRECTION('',(0.0,0.0,-1.0));
#1168=DIRECTION('',(-1.0,0.0,0.0));
#1169=AXIS2_PLACEMENT_3D('',#1166,#1167,#1168);
#1170=PLANE('',#1169);
#1171=ORIENTED_EDGE('',*,*,#1112,.F.);
#1172=ORIENTED_EDGE('',*,*,#1151,.F.);
#1173=EDGE_LOOP('',(#1171,#1172));
#1174=FACE_OUTER_BOUND('',#1173,.T.);
#1175=ADVANCED_FACE('',(#1174),#1170,.F.);
#1176=CLOSED_SHELL('',(#1131,#1155,#1165,#1175));
#1177=MANIFOLD_SOLID_BREP('121',#1176);
#1178=STYLED_ITEM('NONE',(#233),#1177);
#1179=CARTESIAN_POINT('',(7.980000000000049,-7.100986E-015,3.144374999999987));
#1180=DIRECTION('',(-1.0,2.003410E-016,-2.671213E-016));
#1181=DIRECTION('',(0.0,0.0,1.0));
#1182=AXIS2_PLACEMENT_3D('',#1179,#1180,#1181);
#1183=CYLINDRICAL_SURFACE('',#1182,9.555625000000012);
#1184=CARTESIAN_POINT('',(7.980000000000048,-8.271174E-015,12.699999999999999));
#1185=VERTEX_POINT('',#1184);
#1186=CARTESIAN_POINT('',(0.680000000000062,-6.808685E-015,12.699999999999996));
#1187=VERTEX_POINT('',#1186);
#1188=CARTESIAN_POINT('',(7.980000000000048,-8.271174E-015,12.699999999999999));
#1189=DIRECTION('',(-1.0,0.0,0.0));
#1190=VECTOR('',#1189,7.299999999999986);
#1191=LINE('',#1188,#1190);
#1192=EDGE_CURVE('',#1185,#1187,#1191,.T.);
#1193=ORIENTED_EDGE('',*,*,#1192,.F.);
#1194=CARTESIAN_POINT('',(7.980000000000048,5.849999999999994,10.699999999999999));
#1195=VERTEX_POINT('',#1194);
#1196=CARTESIAN_POINT('',(7.980000000000049,-7.100986E-015,3.144374999999987));
#1197=DIRECTION('',(1.0,0.0,0.0));
#1198=DIRECTION('',(0.0,0.0,1.0));
#1199=AXIS2_PLACEMENT_3D('',#1196,#1197,#1198);
#1200=CIRCLE('',#1199,9.555625000000012);
#1201=EDGE_CURVE('',#1195,#1185,#1200,.T.);
#1202=ORIENTED_EDGE('',*,*,#1201,.F.);
#1203=CARTESIAN_POINT('',(-1.319999999999938,5.849999999999996,10.699999999999998));
#1204=VERTEX_POINT('',#1203);
#1205=CARTESIAN_POINT('',(7.980000000000048,5.849999999999994,10.699999999999999));
#1206=DIRECTION('',(-1.0,0.0,0.0));
#1207=VECTOR('',#1206,9.299999999999987);
#1208=LINE('',#1205,#1207);
#1209=EDGE_CURVE('',#1195,#1204,#1208,.T.);
#1210=ORIENTED_EDGE('',*,*,#1209,.T.);
#1211=CARTESIAN_POINT('',(-8.875624999999950,-3.724114E-015,3.144374999999982));
#1212=DIRECTION('',(0.707106781186548,-3.220702E-016,-0.707106781186547));
#1213=DIRECTION('',(0.707106781186547,-1.416625E-016,0.707106781186548));
#1214=AXIS2_PLACEMENT_3D('',#1211,#1212,#1213);
#1215=ELLIPSE('',#1214,13.513694471951425,9.555625000000012);
#1216=EDGE_CURVE('',#1204,#1187,#1215,.T.);
#1217=ORIENTED_EDGE('',*,*,#1216,.T.);
#1218=EDGE_LOOP('',(#1193,#1202,#1210,#1217));
#1219=FACE_OUTER_BOUND('',#1218,.T.);
#1220=ADVANCED_FACE('',(#1219),#1183,.T.);
#1221=CARTESIAN_POINT('',(0.680000000000061,-5.849999999999997,12.700000000000001));
#1222=DIRECTION('',(-0.707106781186548,3.220702E-016,0.707106781186547));
#1223=DIRECTION('',(0.707106781186547,0.0,0.707106781186548));
#1224=AXIS2_PLACEMENT_3D('',#1221,#1222,#1223);
#1225=PLANE('',#1224);
#1226=ORIENTED_EDGE('',*,*,#1216,.F.);
#1227=CARTESIAN_POINT('',(-5.319999999999933,5.850000000000005,6.700000000000000));
#1228=VERTEX_POINT('',#1227);
#1229=CARTESIAN_POINT('',(-5.319999999999933,5.850000000000005,6.700000000000000));
#1230=DIRECTION('',(0.707106781186547,-1.570092E-015,0.707106781186548));
#1231=VECTOR('',#1230,5.656854249492374);
#1232=LINE('',#1229,#1231);
#1233=EDGE_CURVE('',#1228,#1204,#1232,.T.);
#1234=ORIENTED_EDGE('',*,*,#1233,.F.);
#1235=CARTESIAN_POINT('',(-5.319999999999938,-5.849999999999994,6.700000000000000));
#1236=VERTEX_POINT('',#1235);
#1237=CARTESIAN_POINT('',(-5.319999999999938,-5.849999999999994,6.700000000000000));
#1238=DIRECTION('',(0.0,1.0,0.0));
#1239=VECTOR('',#1238,11.699999999999999);
#1240=LINE('',#1237,#1239);
#1241=EDGE_CURVE('',#1236,#1228,#1240,.T.);
#1242=ORIENTED_EDGE('',*,*,#1241,.F.);
#1243=CARTESIAN_POINT('',(-1.319999999999943,-5.850000000000007,10.699999999999998));
#1244=VERTEX_POINT('',#1243);
#1245=CARTESIAN_POINT('',(-1.319999999999943,-5.850000000000007,10.699999999999998));
#1246=DIRECTION('',(-0.707106781186547,2.198129E-015,-0.707106781186548));
#1247=VECTOR('',#1246,5.656854249492374);
#1248=LINE('',#1245,#1247);
#1249=EDGE_CURVE('',#1244,#1236,#1248,.T.);
#1250=ORIENTED_EDGE('',*,*,#1249,.F.);
#1251=CARTESIAN_POINT('',(-8.875624999999950,-3.724114E-015,3.144374999999982));
#1252=DIRECTION('',(0.707106781186548,-3.220702E-016,-0.707106781186547));
#1253=DIRECTION('',(0.707106781186547,-1.416625E-016,0.707106781186548));
#1254=AXIS2_PLACEMENT_3D('',#1251,#1252,#1253);
#1255=ELLIPSE('',#1254,13.513694471951425,9.555625000000012);
#1256=EDGE_CURVE('',#1187,#1244,#1255,.T.);
#1257=ORIENTED_EDGE('',*,*,#1256,.F.);
#1258=EDGE_LOOP('',(#1226,#1234,#1242,#1250,#1257));
#1259=FACE_OUTER_BOUND('',#1258,.T.);
#1260=ADVANCED_FACE('',(#1259),#1225,.T.);
#1261=CARTESIAN_POINT('',(7.980000000000049,-7.100986E-015,3.144374999999987));
#1262=DIRECTION('',(-1.0,2.003410E-016,-2.671213E-016));
#1263=DIRECTION('',(0.0,0.0,1.0));
#1264=AXIS2_PLACEMENT_3D('',#1261,#1262,#1263);
#1265=CYLINDRICAL_SURFACE('',#1264,9.555625000000012);
#1266=ORIENTED_EDGE('',*,*,#1192,.T.);
#1267=ORIENTED_EDGE('',*,*,#1256,.T.);
#1268=CARTESIAN_POINT('',(7.980000000000047,-5.850000000000009,10.699999999999999));
#1269=VERTEX_POINT('',#1268);
#1270=CARTESIAN_POINT('',(7.980000000000047,-5.850000000000009,10.699999999999999));
#1271=DIRECTION('',(-1.0,0.0,0.0));
#1272=VECTOR('',#1271,9.299999999999990);
#1273=LINE('',#1270,#1272);
#1274=EDGE_CURVE('',#1269,#1244,#1273,.T.);
#1275=ORIENTED_EDGE('',*,*,#1274,.F.);
#1276=CARTESIAN_POINT('',(7.980000000000049,-7.100986E-015,3.144374999999987));
#1277=DIRECTION('',(1.0,0.0,0.0));
#1278=DIRECTION('',(0.0,0.0,1.0));
#1279=AXIS2_PLACEMENT_3D('',#1276,#1277,#1278);
#1280=CIRCLE('',#1279,9.555625000000012);
#1281=EDGE_CURVE('',#1185,#1269,#1280,.T.);
#1282=ORIENTED_EDGE('',*,*,#1281,.F.);
#1283=EDGE_LOOP('',(#1266,#1267,#1275,#1282));
#1284=FACE_OUTER_BOUND('',#1283,.T.);
#1285=ADVANCED_FACE('',(#1284),#1265,.T.);
#1286=CARTESIAN_POINT('',(7.980000000000047,-5.850000000000009,0.0));
#1287=DIRECTION('',(0.0,-1.0,0.0));
#1288=DIRECTION('',(0.0,0.0,-1.0));
#1289=AXIS2_PLACEMENT_3D('',#1286,#1287,#1288);
#1290=PLANE('',#1289);
#1291=ORIENTED_EDGE('',*,*,#1274,.T.);
#1292=ORIENTED_EDGE('',*,*,#1249,.T.);
#1293=CARTESIAN_POINT('',(-5.319999999999936,-5.849999999999994,0.0));
#1294=VERTEX_POINT('',#1293);
#1295=CARTESIAN_POINT('',(-5.319999999999936,-5.849999999999994,0.0));
#1296=DIRECTION('',(0.0,0.0,1.0));
#1297=VECTOR('',#1296,6.700000000000000);
#1298=LINE('',#1295,#1297);
#1299=EDGE_CURVE('',#1294,#1236,#1298,.T.);
#1300=ORIENTED_EDGE('',*,*,#1299,.F.);
#1301=CARTESIAN_POINT('',(7.980000000000047,-5.850000000000009,0.0));
#1302=VERTEX_POINT('',#1301);
#1303=CARTESIAN_POINT('',(7.980000000000047,-5.850000000000009,0.0));
#1304=DIRECTION('',(-1.0,0.0,0.0));
#1305=VECTOR('',#1304,13.299999999999983);
#1306=LINE('',#1303,#1305);
#1307=EDGE_CURVE('',#1302,#1294,#1306,.T.);
#1308=ORIENTED_EDGE('',*,*,#1307,.F.);
#1309=CARTESIAN_POINT('',(7.980000000000047,-5.850000000000009,0.0));
#1310=DIRECTION('',(0.0,0.0,1.0));
#1311=VECTOR('',#1310,10.699999999999999);
#1312=LINE('',#1309,#1311);
#1313=EDGE_CURVE('',#1302,#1269,#1312,.T.);
#1314=ORIENTED_EDGE('',*,*,#1313,.T.);
#1315=EDGE_LOOP('',(#1291,#1292,#1300,#1308,#1314));
#1316=FACE_OUTER_BOUND('',#1315,.T.);
#1317=ADVANCED_FACE('',(#1316),#1290,.T.);
#1318=CARTESIAN_POINT('',(-5.319999999999936,5.850000000000009,0.0));
#1319=DIRECTION('',(0.0,1.0,0.0));
#1320=DIRECTION('',(0.0,0.0,1.0));
#1321=AXIS2_PLACEMENT_3D('',#1318,#1319,#1320);
#1322=PLANE('',#1321);
#1323=ORIENTED_EDGE('',*,*,#1209,.F.);
#1324=CARTESIAN_POINT('',(7.980000000000047,5.849999999999994,0.0));
#1325=VERTEX_POINT('',#1324);
#1326=CARTESIAN_POINT('',(7.980000000000047,5.849999999999994,0.0));
#1327=DIRECTION('',(0.0,0.0,1.0));
#1328=VECTOR('',#1327,10.699999999999999);
#1329=LINE('',#1326,#1328);
#1330=EDGE_CURVE('',#1325,#1195,#1329,.T.);
#1331=ORIENTED_EDGE('',*,*,#1330,.F.);
#1332=CARTESIAN_POINT('',(-5.319999999999936,5.850000000000009,0.0));
#1333=VERTEX_POINT('',#1332);
#1334=CARTESIAN_POINT('',(-5.319999999999936,5.850000000000009,0.0));
#1335=DIRECTION('',(1.0,0.0,0.0));
#1336=VECTOR('',#1335,13.299999999999983);
#1337=LINE('',#1334,#1336);
#1338=EDGE_CURVE('',#1333,#1325,#1337,.T.);
#1339=ORIENTED_EDGE('',*,*,#1338,.F.);
#1340=CARTESIAN_POINT('',(-5.319999999999936,5.850000000000009,0.0));
#1341=DIRECTION('',(0.0,0.0,1.0));
#1342=VECTOR('',#1341,6.700000000000000);
#1343=LINE('',#1340,#1342);
#1344=EDGE_CURVE('',#1333,#1228,#1343,.T.);
#1345=ORIENTED_EDGE('',*,*,#1344,.T.);
#1346=ORIENTED_EDGE('',*,*,#1233,.T.);
#1347=EDGE_LOOP('',(#1323,#1331,#1339,#1345,#1346));
#1348=FACE_OUTER_BOUND('',#1347,.T.);
#1349=ADVANCED_FACE('',(#1348),#1322,.T.);
#1350=CARTESIAN_POINT('',(1.330000000000055,3.811093E-017,0.0));
#1351=DIRECTION('',(0.0,0.0,1.0));
#1352=DIRECTION('',(1.0,0.0,0.0));
#1353=AXIS2_PLACEMENT_3D('',#1350,#1351,#1352);
#1354=PLANE('',#1353);
#1355=ORIENTED_EDGE('',*,*,#1307,.T.);
#1356=CARTESIAN_POINT('',(-5.319999999999936,-5.849999999999994,0.0));
#1357=DIRECTION('',(0.0,1.0,0.0));
#1358=VECTOR('',#1357,11.700000000000003);
#1359=LINE('',#1356,#1358);
#1360=EDGE_CURVE('',#1294,#1333,#1359,.T.);
#1361=ORIENTED_EDGE('',*,*,#1360,.T.);
#1362=ORIENTED_EDGE('',*,*,#1338,.T.);
#1363=CARTESIAN_POINT('',(7.980000000000047,5.849999999999994,0.0));
#1364=DIRECTION('',(0.0,-1.0,0.0));
#1365=VECTOR('',#1364,11.700000000000003);
#1366=LINE('',#1363,#1365);
#1367=EDGE_CURVE('',#1325,#1302,#1366,.T.);
#1368=ORIENTED_EDGE('',*,*,#1367,.T.);
#1369=EDGE_LOOP('',(#1355,#1361,#1362,#1368));
#1370=FACE_OUTER_BOUND('',#1369,.T.);
#1371=ADVANCED_FACE('',(#1370),#1354,.F.);
#1372=CARTESIAN_POINT('',(-5.319999999999954,-4.243478E-015,11.317627165387103));
#1373=DIRECTION('',(1.0,0.0,0.0));
#1374=DIRECTION('',(0.0,0.0,-1.0));
#1375=AXIS2_PLACEMENT_3D('',#1372,#1373,#1374);
#1376=PLANE('',#1375);
#1377=ORIENTED_EDGE('',*,*,#1241,.T.);
#1378=ORIENTED_EDGE('',*,*,#1344,.F.);
#1379=ORIENTED_EDGE('',*,*,#1360,.F.);
#1380=ORIENTED_EDGE('',*,*,#1299,.T.);
#1381=EDGE_LOOP('',(#1377,#1378,#1379,#1380));
#1382=FACE_OUTER_BOUND('',#1381,.T.);
#1383=ADVANCED_FACE('',(#1382),#1376,.F.);
#1384=CARTESIAN_POINT('',(7.980000000000047,-6.908013E-015,11.317627165387107));
#1385=DIRECTION('',(1.0,0.0,0.0));
#1386=DIRECTION('',(0.0,0.0,-1.0));
#1387=AXIS2_PLACEMENT_3D('',#1384,#1385,#1386);
#1388=PLANE('',#1387);
#1389=ORIENTED_EDGE('',*,*,#1201,.T.);
#1390=ORIENTED_EDGE('',*,*,#1281,.T.);
#1391=ORIENTED_EDGE('',*,*,#1313,.F.);
#1392=ORIENTED_EDGE('',*,*,#1367,.F.);
#1393=ORIENTED_EDGE('',*,*,#1330,.T.);
#1394=EDGE_LOOP('',(#1389,#1390,#1391,#1392,#1393));
#1395=FACE_OUTER_BOUND('',#1394,.T.);
#1396=ADVANCED_FACE('',(#1395),#1388,.T.);
#1397=CLOSED_SHELL('',(#1220,#1260,#1285,#1317,#1349,#1371,#1383,#1396));
#1398=MANIFOLD_SOLID_BREP('105',#1397);
#1399=COLOUR_RGB('38',0.150000000000000,0.075000000000000,0.0);
#1400=SURFACE_STYLE_USAGE(.BOTH.,#1401);
#1401=SURFACE_SIDE_STYLE('NONE',(#1402));
#1402=SURFACE_STYLE_FILL_AREA(#1403);
#1403=FILL_AREA_STYLE('NONE',(#1404));
#1404=FILL_AREA_STYLE_COLOUR('NONE',#1399);
#1405=PRESENTATION_STYLE_ASSIGNMENT((#1400));
#1406=STYLED_ITEM('NONE',(#1405),#1398);
#1407=CARTESIAN_POINT('',(7.980000000000046,-6.656897E-015,6.700000000000000));
#1408=DIRECTION('',(1.0,-2.277381E-016,2.277381E-016));
#1409=DIRECTION('',(0.0,1.0,0.0));
#1410=AXIS2_PLACEMENT_3D('',#1407,#1408,#1409);
#1411=CYLINDRICAL_SURFACE('',#1410,3.700000000000000);
#1412=CARTESIAN_POINT('',(19.680000000000046,3.699999999999991,6.700000000000003));
#1413=VERTEX_POINT('',#1412);
#1414=CARTESIAN_POINT('',(7.980000000000047,3.699999999999994,6.700000000000000));
#1415=VERTEX_POINT('',#1414);
#1416=CARTESIAN_POINT('',(19.680000000000046,3.699999999999991,6.700000000000003));
#1417=DIRECTION('',(-1.0,0.0,0.0));
#1418=VECTOR('',#1417,11.699999999999999);
#1419=LINE('',#1416,#1418);
#1420=EDGE_CURVE('',#1413,#1415,#1419,.T.);
#1421=ORIENTED_EDGE('',*,*,#1420,.F.);
#1422=CARTESIAN_POINT('',(19.680000000000049,-3.700000000000010,6.700000000000005));
#1423=VERTEX_POINT('',#1422);
#1424=CARTESIAN_POINT('',(19.680000000000049,-9.321433E-015,6.700000000000003));
#1425=DIRECTION('',(-1.0,0.0,0.0));
#1426=DIRECTION('',(0.0,1.0,0.0));
#1427=AXIS2_PLACEMENT_3D('',#1424,#1425,#1426);
#1428=CIRCLE('',#1427,3.700000000000000);
#1429=EDGE_CURVE('',#1423,#1413,#1428,.T.);
#1430=ORIENTED_EDGE('',*,*,#1429,.F.);
#1431=CARTESIAN_POINT('',(7.980000000000046,-3.700000000000007,6.700000000000001));
#1432=VERTEX_POINT('',#1431);
#1433=CARTESIAN_POINT('',(7.980000000000046,-3.700000000000007,6.700000000000001));
#1434=DIRECTION('',(1.0,0.0,0.0));
#1435=VECTOR('',#1434,11.700000000000003);
#1436=LINE('',#1433,#1435);
#1437=EDGE_CURVE('',#1432,#1423,#1436,.T.);
#1438=ORIENTED_EDGE('',*,*,#1437,.F.);
#1439=CARTESIAN_POINT('',(7.980000000000046,-6.656897E-015,6.700000000000000));
#1440=DIRECTION('',(1.0,0.0,0.0));
#1441=DIRECTION('',(0.0,1.0,0.0));
#1442=AXIS2_PLACEMENT_3D('',#1439,#1440,#1441);
#1443=CIRCLE('',#1442,3.700000000000000);
#1444=EDGE_CURVE('',#1415,#1432,#1443,.T.);
#1445=ORIENTED_EDGE('',*,*,#1444,.F.);
#1446=EDGE_LOOP('',(#1421,#1430,#1438,#1445));
#1447=FACE_OUTER_BOUND('',#1446,.T.);
#1448=ADVANCED_FACE('',(#1447),#1411,.F.);
#1449=CARTESIAN_POINT('',(7.980000000000046,-6.656897E-015,6.700000000000000));
#1450=DIRECTION('',(1.0,-2.379049E-016,2.379049E-016));
#1451=DIRECTION('',(0.0,1.0,0.0));
#1452=AXIS2_PLACEMENT_3D('',#1449,#1450,#1451);
#1453=CYLINDRICAL_SURFACE('',#1452,4.500000000000000);
#1454=CARTESIAN_POINT('',(7.980000000000047,4.499999999999994,6.700000000000000));
#1455=VERTEX_POINT('',#1454);
#1456=CARTESIAN_POINT('',(19.280000000000044,4.499999999999990,6.700000000000004));
#1457=VERTEX_POINT('',#1456);
#1458=CARTESIAN_POINT('',(7.980000000000047,4.499999999999994,6.700000000000000));
#1459=DIRECTION('',(1.0,0.0,0.0));
#1460=VECTOR('',#1459,11.299999999999997);
#1461=LINE('',#1458,#1460);
#1462=EDGE_CURVE('',#1455,#1457,#1461,.T.);
#1463=ORIENTED_EDGE('',*,*,#1462,.F.);
#1464=CARTESIAN_POINT('',(7.980000000000046,-4.500000000000006,6.700000000000001));
#1465=VERTEX_POINT('',#1464);
#1466=CARTESIAN_POINT('',(7.980000000000046,-6.656897E-015,6.700000000000000));
#1467=DIRECTION('',(1.0,0.0,0.0));
#1468=DIRECTION('',(0.0,1.0,0.0));
#1469=AXIS2_PLACEMENT_3D('',#1466,#1467,#1468);
#1470=CIRCLE('',#1469,4.500000000000000);
#1471=EDGE_CURVE('',#1455,#1465,#1470,.T.);
#1472=ORIENTED_EDGE('',*,*,#1471,.T.);
#1473=CARTESIAN_POINT('',(19.280000000000047,-4.500000000000010,6.700000000000002));
#1474=VERTEX_POINT('',#1473);
#1475=CARTESIAN_POINT('',(19.280000000000047,-4.500000000000010,6.700000000000002));
#1476=DIRECTION('',(-1.0,0.0,0.0));
#1477=VECTOR('',#1476,11.300000000000001);
#1478=LINE('',#1475,#1477);
#1479=EDGE_CURVE('',#1474,#1465,#1478,.T.);
#1480=ORIENTED_EDGE('',*,*,#1479,.F.);
#1481=CARTESIAN_POINT('',(19.280000000000047,-9.345223E-015,6.700000000000003));
#1482=DIRECTION('',(1.0,0.0,0.0));
#1483=DIRECTION('',(0.0,1.0,0.0));
#1484=AXIS2_PLACEMENT_3D('',#1481,#1482,#1483);
#1485=CIRCLE('',#1484,4.500000000000000);
#1486=EDGE_CURVE('',#1457,#1474,#1485,.T.);
#1487=ORIENTED_EDGE('',*,*,#1486,.F.);
#1488=EDGE_LOOP('',(#1463,#1472,#1480,#1487));
#1489=FACE_OUTER_BOUND('',#1488,.T.);
#1490=ADVANCED_FACE('',(#1489),#1453,.T.);
#1491=CARTESIAN_POINT('',(19.480000000000047,-9.389632E-015,6.700000000000003));
#1492=DIRECTION('',(-1.0,2.220446E-016,0.0));
#1493=DIRECTION('',(0.0,1.0,0.0));
#1494=AXIS2_PLACEMENT_3D('',#1491,#1492,#1493);
#1495=CONICAL_SURFACE('',#1494,4.300000000000000,44.999999999999858);
#1496=CARTESIAN_POINT('',(19.680000000000049,4.099999999999990,6.700000000000004));
#1497=VERTEX_POINT('',#1496);
#1498=CARTESIAN_POINT('',(19.680000000000049,4.099999999999990,6.700000000000004));
#1499=DIRECTION('',(-0.707106781186552,0.707106781186543,0.0));
#1500=VECTOR('',#1499,0.565685424949242);
#1501=LINE('',#1498,#1500);
#1502=EDGE_CURVE('',#1497,#1457,#1501,.T.);
#1503=ORIENTED_EDGE('',*,*,#1502,.F.);
#1504=CARTESIAN_POINT('',(19.680000000000049,-4.100000000000009,6.700000000000004));
#1505=VERTEX_POINT('',#1504);
#1506=CARTESIAN_POINT('',(19.680000000000049,-9.434041E-015,6.700000000000003));
#1507=DIRECTION('',(-1.0,0.0,0.0));
#1508=DIRECTION('',(0.0,1.0,0.0));
#1509=AXIS2_PLACEMENT_3D('',#1506,#1507,#1508);
#1510=CIRCLE('',#1509,4.100000000000000);
#1511=EDGE_CURVE('',#1497,#1505,#1510,.T.);
#1512=ORIENTED_EDGE('',*,*,#1511,.T.);
#1513=CARTESIAN_POINT('',(19.280000000000047,-4.500000000000010,6.700000000000002));
#1514=DIRECTION('',(0.707106781186549,0.707106781186546,3.140185E-015));
#1515=VECTOR('',#1514,0.565685424949240);
#1516=LINE('',#1513,#1515);
#1517=EDGE_CURVE('',#1474,#1505,#1516,.T.);
#1518=ORIENTED_EDGE('',*,*,#1517,.F.);
#1519=CARTESIAN_POINT('',(19.280000000000047,-9.345223E-015,6.700000000000003));
#1520=DIRECTION('',(1.0,0.0,0.0));
#1521=DIRECTION('',(0.0,1.0,0.0));
#1522=AXIS2_PLACEMENT_3D('',#1519,#1520,#1521);
#1523=CIRCLE('',#1522,4.500000000000000);
#1524=EDGE_CURVE('',#1474,#1457,#1523,.T.);
#1525=ORIENTED_EDGE('',*,*,#1524,.T.);
#1526=EDGE_LOOP('',(#1503,#1512,#1518,#1525));
#1527=FACE_OUTER_BOUND('',#1526,.T.);
#1528=ADVANCED_FACE('',(#1527),#1495,.T.);
#1529=CARTESIAN_POINT('',(19.480000000000047,-9.389632E-015,6.700000000000003));
#1530=DIRECTION('',(-1.0,2.220446E-016,0.0));
#1531=DIRECTION('',(0.0,1.0,0.0));
#1532=AXIS2_PLACEMENT_3D('',#1529,#1530,#1531);
#1533=CONICAL_SURFACE('',#1532,4.300000000000000,44.999999999999858);
#1534=ORIENTED_EDGE('',*,*,#1502,.T.);
#1535=ORIENTED_EDGE('',*,*,#1486,.T.);
#1536=ORIENTED_EDGE('',*,*,#1517,.T.);
#1537=CARTESIAN_POINT('',(19.680000000000049,-9.434041E-015,6.700000000000003));
#1538=DIRECTION('',(-1.0,0.0,0.0));
#1539=DIRECTION('',(0.0,1.0,0.0));
#1540=AXIS2_PLACEMENT_3D('',#1537,#1538,#1539);
#1541=CIRCLE('',#1540,4.100000000000000);
#1542=EDGE_CURVE('',#1505,#1497,#1541,.T.);
#1543=ORIENTED_EDGE('',*,*,#1542,.T.);
#1544=EDGE_LOOP('',(#1534,#1535,#1536,#1543));
#1545=FACE_OUTER_BOUND('',#1544,.T.);
#1546=ADVANCED_FACE('',(#1545),#1533,.T.);
#1547=CARTESIAN_POINT('',(7.980000000000046,-6.656897E-015,6.700000000000000));
#1548=DIRECTION('',(1.0,-2.379049E-016,2.379049E-016));
#1549=DIRECTION('',(0.0,1.0,0.0));
#1550=AXIS2_PLACEMENT_3D('',#1547,#1548,#1549);
#1551=CYLINDRICAL_SURFACE('',#1550,4.500000000000000);
#1552=ORIENTED_EDGE('',*,*,#1462,.T.);
#1553=ORIENTED_EDGE('',*,*,#1524,.F.);
#1554=ORIENTED_EDGE('',*,*,#1479,.T.);
#1555=CARTESIAN_POINT('',(7.980000000000046,-6.656897E-015,6.700000000000000));
#1556=DIRECTION('',(1.0,0.0,0.0));
#1557=DIRECTION('',(0.0,1.0,0.0));
#1558=AXIS2_PLACEMENT_3D('',#1555,#1556,#1557);
#1559=CIRCLE('',#1558,4.500000000000000);
#1560=EDGE_CURVE('',#1465,#1455,#1559,.T.);
#1561=ORIENTED_EDGE('',*,*,#1560,.T.);
#1562=EDGE_LOOP('',(#1552,#1553,#1554,#1561));
#1563=FACE_OUTER_BOUND('',#1562,.T.);
#1564=ADVANCED_FACE('',(#1563),#1551,.T.);
#1565=CARTESIAN_POINT('',(19.680000000000049,-1.000109E-014,10.400000000000002));
#1566=DIRECTION('',(1.0,0.0,0.0));
#1567=DIRECTION('',(0.0,0.0,-1.0));
#1568=AXIS2_PLACEMENT_3D('',#1565,#1566,#1567);
#1569=PLANE('',#1568);
#1570=ORIENTED_EDGE('',*,*,#1542,.F.);
#1571=ORIENTED_EDGE('',*,*,#1511,.F.);
#1572=EDGE_LOOP('',(#1570,#1571));
#1573=FACE_OUTER_BOUND('',#1572,.T.);
#1574=CARTESIAN_POINT('',(19.680000000000049,-9.321433E-015,6.700000000000003));
#1575=DIRECTION('',(-1.0,0.0,0.0));
#1576=DIRECTION('',(0.0,1.0,0.0));
#1577=AXIS2_PLACEMENT_3D('',#1574,#1575,#1576);
#1578=CIRCLE('',#1577,3.700000000000000);
#1579=EDGE_CURVE('',#1413,#1423,#1578,.T.);
#1580=ORIENTED_EDGE('',*,*,#1579,.T.);
#1581=ORIENTED_EDGE('',*,*,#1429,.T.);
#1582=EDGE_LOOP('',(#1580,#1581));
#1583=FACE_BOUND('',#1582,.T.);
#1584=ADVANCED_FACE('',(#1573,#1583),#1569,.T.);
#1585=CARTESIAN_POINT('',(7.980000000000046,-6.656897E-015,6.700000000000000));
#1586=DIRECTION('',(1.0,-2.277381E-016,2.277381E-016));
#1587=DIRECTION('',(0.0,1.0,0.0));
#1588=AXIS2_PLACEMENT_3D('',#1585,#1586,#1587);
#1589=CYLINDRICAL_SURFACE('',#1588,3.700000000000000);
#1590=ORIENTED_EDGE('',*,*,#1420,.T.);
#1591=CARTESIAN_POINT('',(7.980000000000046,-6.656897E-015,6.700000000000000));
#1592=DIRECTION('',(1.0,0.0,0.0));
#1593=DIRECTION('',(0.0,1.0,0.0));
#1594=AXIS2_PLACEMENT_3D('',#1591,#1592,#1593);
#1595=CIRCLE('',#1594,3.700000000000000);
#1596=EDGE_CURVE('',#1432,#1415,#1595,.T.);
#1597=ORIENTED_EDGE('',*,*,#1596,.F.);
#1598=ORIENTED_EDGE('',*,*,#1437,.T.);
#1599=ORIENTED_EDGE('',*,*,#1579,.F.);
#1600=EDGE_LOOP('',(#1590,#1597,#1598,#1599));
#1601=FACE_OUTER_BOUND('',#1600,.T.);
#1602=ADVANCED_FACE('',(#1601),#1589,.F.);
#1603=CARTESIAN_POINT('',(7.980000000000046,-6.656897E-015,6.700000000000000));
#1604=DIRECTION('',(1.0,0.0,0.0));
#1605=DIRECTION('',(0.0,0.0,-1.0));
#1606=AXIS2_PLACEMENT_3D('',#1603,#1604,#1605);
#1607=PLANE('',#1606);
#1608=ORIENTED_EDGE('',*,*,#1471,.F.);
#1609=ORIENTED_EDGE('',*,*,#1560,.F.);
#1610=EDGE_LOOP('',(#1608,#1609));
#1611=FACE_OUTER_BOUND('',#1610,.T.);
#1612=ORIENTED_EDGE('',*,*,#1444,.T.);
#1613=ORIENTED_EDGE('',*,*,#1596,.T.);
#1614=EDGE_LOOP('',(#1612,#1613));
#1615=FACE_BOUND('',#1614,.T.);
#1616=ADVANCED_FACE('',(#1611,#1615),#1607,.F.);
#1617=CLOSED_SHELL('',(#1448,#1490,#1528,#1546,#1564,#1584,#1602,#1616));
#1618=MANIFOLD_SOLID_BREP('FA',#1617);
#1619=COLOUR_RGB('254',0.866000000000000,0.866000000000000,0.866000000000000);
#1620=SURFACE_STYLE_USAGE(.BOTH.,#1621);
#1621=SURFACE_SIDE_STYLE('NONE',(#1622));
#1622=SURFACE_STYLE_FILL_AREA(#1623);
#1623=FILL_AREA_STYLE('NONE',(#1624));
#1624=FILL_AREA_STYLE_COLOUR('NONE',#1619);
#1625=PRESENTATION_STYLE_ASSIGNMENT((#1620));
#1626=STYLED_ITEM('NONE',(#1625),#1618);
#1627=CARTESIAN_POINT('',(-2.471694413625528,0.0,0.0));
#1628=DIRECTION('',(1.0,0.0,0.0));
#1629=VECTOR('',#1628,2.471694413625528);
#1630=LINE('',#1627,#1629);
#1631=CARTESIAN_POINT('',(0.0,0.0,0.0));
#1632=TRIMMED_CURVE('C0',#1630,(PARAMETER_VALUE(0.0),#1627),(PARAMETER_VALUE(1.0),#1631),.T.,.PARAMETER.);
#1633=DRAUGHTING_PRE_DEFINED_COLOUR('white');
#1634=CURVE_STYLE('NONE',#1635,POSITIVE_LENGTH_MEASURE(0.200000000000000),#1633);
#1635=DRAUGHTING_PRE_DEFINED_CURVE_FONT('continuous');
#1636=PRESENTATION_STYLE_ASSIGNMENT((#1634));
#1637=STYLED_ITEM('NONE',(#1636),#1632);
#1638=CARTESIAN_POINT('',(0.0,0.0,0.0));
#1639=DIRECTION('',(1.0,0.0,0.0));
#1640=VECTOR('',#1639,2.471694413625528);
#1641=LINE('',#1638,#1640);
#1642=CARTESIAN_POINT('',(2.471694413625528,0.0,0.0));
#1643=TRIMMED_CURVE('BF',#1641,(PARAMETER_VALUE(0.0),#1638),(PARAMETER_VALUE(1.0),#1642),.T.,.PARAMETER.);
#1644=STYLED_ITEM('NONE',(#1636),#1643);
#1645=ADVANCED_BREP_SHAPE_REPRESENTATION('ABSR1',(#226,#398,#635,#732,#821,#910,#999,#1088,#1177,#1398,#1618),#28);
#1646=SHAPE_REPRESENTATION_RELATIONSHIP('SRRPL1','',#1645,#62);
#1647=GEOMETRIC_CURVE_SET('GCS1',(#1632,#1643));
#1648=GEOMETRICALLY_BOUNDED_WIREFRAME_SHAPE_REPRESENTATION('GBWSR1',(#1647),#28);
#1649=SHAPE_REPRESENTATION_RELATIONSHIP('SRRPL2','',#1648,#62);
ENDSEC;
END-ISO-10303-21;
