ISO-10303-21;
HEADER;
/****************************************************************
 * Generated by software with PDElib inside                    *
 * PDElib Version v51a, created Fri 09/10/2010                  *
 * ITI Transcendata (http://www.transcendata.com/)              *
 ****************************************************************/
FILE_DESCRIPTION((''),'2;1');
FILE_NAME('LEMO_EPL.0S.302.HLN.stp','2013-03-20T13:31:05',(''),(''),'Mechanical Desktop 2011','Mechanical Desktop 2011',', , ');
FILE_SCHEMA(('AUTOMOTIVE_DESIGN { 1 2 10303 214 1 1 1 1 }'));
ENDSEC;
DATA;
#10=(NAMED_UNIT(*)PLANE_ANGLE_UNIT()SI_UNIT($,.RADIAN.));
#11=DIMENSIONAL_EXPONENTS(0.0,0.0,0.0,0.0,0.0,0.0,0.0);
#12=PLANE_ANGLE_MEASURE_WITH_UNIT(PLANE_ANGLE_MEASURE(0.0174532925),#10);
#16=(CONVERSION_BASED_UNIT('DEGREE',#12)NAMED_UNIT(#11)PLANE_ANGLE_UNIT());
#20=(NAMED_UNIT(*)SI_UNIT($,.STERADIAN.)SOLID_ANGLE_UNIT());
#24=(LENGTH_UNIT()NAMED_UNIT(*)SI_UNIT(.MILLI.,.METRE.));
#26=UNCERTAINTY_MEASURE_WITH_UNIT(LENGTH_MEASURE(0.000001),#24,'DISTANCE_ACCURACY_VALUE','');
#28=(GEOMETRIC_REPRESENTATION_CONTEXT(3)GLOBAL_UNCERTAINTY_ASSIGNED_CONTEXT((#26))GLOBAL_UNIT_ASSIGNED_CONTEXT((#16,#20,#24))REPRESENTATION_CONTEXT('','3D'));
#29=APPLICATION_CONTEXT('automotive design');
#30=APPLICATION_PROTOCOL_DEFINITION('INTERNATIONAL_STANDARD','automotive_design',1998,#29);
#31=PRODUCT_CONTEXT('3D Mechanical Parts',#29,'mechanical');
#32=PRODUCT('Product','Product','',(#31));
#33=PRODUCT_RELATED_PRODUCT_CATEGORY('part',$,(#32));
#34=PRODUCT_CATEGORY('part',$);
#35=PERSON('1','Design','Joe',$,$,$);
#36=ORGANIZATION($,'None','None');
#37=PERSON_AND_ORGANIZATION(#35,#36);
#38=PERSON_AND_ORGANIZATION_ROLE('design_owner');
#39=APPLIED_PERSON_AND_ORGANIZATION_ASSIGNMENT(#37,#38,(#32));
#40=PRODUCT_DEFINITION_FORMATION_WITH_SPECIFIED_SOURCE('None','',#32,.BOUGHT.);
#41=PERSON('2','Creator','Joe',$,$,$);
#42=ORGANIZATION($,'None','None');
#43=PERSON_AND_ORGANIZATION(#41,#42);
#44=PERSON_AND_ORGANIZATION_ROLE('creator');
#45=APPLIED_PERSON_AND_ORGANIZATION_ASSIGNMENT(#43,#44,(#40));
#46=PERSON('3','Supplier','Joe',$,$,$);
#47=ORGANIZATION($,'None','None');
#48=PERSON_AND_ORGANIZATION(#46,#47);
#49=PERSON_AND_ORGANIZATION_ROLE('design_supplier');
#50=APPLIED_PERSON_AND_ORGANIZATION_ASSIGNMENT(#48,#49,(#40));
#51=PRODUCT_DEFINITION_CONTEXT('part definition',#29,'design');
#52=PRODUCT_DEFINITION('None','',#40,#51);
#53=PERSON('4','Creator','Joe',$,$,$);
#54=ORGANIZATION($,'None','None');
#55=PERSON_AND_ORGANIZATION(#53,#54);
#56=PERSON_AND_ORGANIZATION_ROLE('creator');
#57=APPLIED_PERSON_AND_ORGANIZATION_ASSIGNMENT(#55,#56,(#52));
#58=CARTESIAN_POINT('NONE',(0.0,0.0,0.0));
#59=DIRECTION('NONE',(0.0,0.0,1.0));
#60=DIRECTION('NONE',(1.0,0.0,0.0));
#61=AXIS2_PLACEMENT_3D('NONE',#58,#59,#60);
#62=SHAPE_REPRESENTATION('SR1',(#61),#28);
#63=PRODUCT_DEFINITION_SHAPE('PDS1','Test Part',#52);
#64=SHAPE_DEFINITION_REPRESENTATION(#63,#62);
#65=CARTESIAN_POINT('',(8.480000000000047,-6.767920E-015,6.7));
#66=DIRECTION('',(1.0,-2.220446E-016,4.930381E-032));
#67=DIRECTION('',(0.0,1.0,0.0));
#68=AXIS2_PLACEMENT_3D('',#65,#66,#67);
#69=CYLINDRICAL_SURFACE('',#68,2.25);
#70=CARTESIAN_POINT('',(8.980000000000047,2.249999999999993,6.699999999999999));
#71=VERTEX_POINT('',#70);
#72=CARTESIAN_POINT('',(7.980000000000048,2.249999999999993,6.699999999999999));
#73=VERTEX_POINT('',#72);
#74=CARTESIAN_POINT('',(8.980000000000047,2.249999999999993,6.699999999999999));
#75=DIRECTION('',(-1.0,0.0,0.0));
#76=VECTOR('',#75,0.999999999999999);
#77=LINE('',#74,#76);
#78=EDGE_CURVE('',#71,#73,#77,.T.);
#79=ORIENTED_EDGE('',*,*,#78,.F.);
#80=CARTESIAN_POINT('',(8.980000000000047,-2.250000000000007,6.7));
#81=VERTEX_POINT('',#80);
#82=CARTESIAN_POINT('',(8.980000000000047,-6.878942E-015,6.7));
#83=DIRECTION('',(1.0,0.0,0.0));
#84=DIRECTION('',(0.0,1.0,0.0));
#85=AXIS2_PLACEMENT_3D('',#82,#83,#84);
#86=CIRCLE('',#85,2.25);
#87=EDGE_CURVE('',#81,#71,#86,.T.);
#88=ORIENTED_EDGE('',*,*,#87,.F.);
#89=CARTESIAN_POINT('',(7.980000000000047,-2.250000000000007,6.7));
#90=VERTEX_POINT('',#89);
#91=CARTESIAN_POINT('',(8.980000000000047,-2.250000000000007,6.7));
#92=DIRECTION('',(-1.0,0.0,0.0));
#93=VECTOR('',#92,1.0);
#94=LINE('',#91,#93);
#95=EDGE_CURVE('',#81,#90,#94,.T.);
#96=ORIENTED_EDGE('',*,*,#95,.T.);
#97=CARTESIAN_POINT('',(7.980000000000047,-6.656897E-015,6.7));
#98=DIRECTION('',(-1.0,0.0,0.0));
#99=DIRECTION('',(0.0,1.0,0.0));
#100=AXIS2_PLACEMENT_3D('',#97,#98,#99);
#101=CIRCLE('',#100,2.25);
#102=EDGE_CURVE('',#73,#90,#101,.T.);
#103=ORIENTED_EDGE('',*,*,#102,.F.);
#104=EDGE_LOOP('',(#79,#88,#96,#103));
#105=FACE_OUTER_BOUND('',#104,.T.);
#106=ADVANCED_FACE('',(#105),#69,.T.);
#107=CARTESIAN_POINT('',(8.480000000000047,-6.767920E-015,6.7));
#108=DIRECTION('',(1.0,-2.220446E-016,4.930381E-032));
#109=DIRECTION('',(0.0,1.0,0.0));
#110=AXIS2_PLACEMENT_3D('',#107,#108,#109);
#111=CYLINDRICAL_SURFACE('',#110,2.25);
#112=ORIENTED_EDGE('',*,*,#78,.T.);
#113=CARTESIAN_POINT('',(7.980000000000047,-6.656897E-015,6.7));
#114=DIRECTION('',(-1.0,0.0,0.0));
#115=DIRECTION('',(0.0,1.0,0.0));
#116=AXIS2_PLACEMENT_3D('',#113,#114,#115);
#117=CIRCLE('',#116,2.25);
#118=EDGE_CURVE('',#90,#73,#117,.T.);
#119=ORIENTED_EDGE('',*,*,#118,.F.);
#120=ORIENTED_EDGE('',*,*,#95,.F.);
#121=CARTESIAN_POINT('',(8.980000000000047,-6.878942E-015,6.7));
#122=DIRECTION('',(1.0,0.0,0.0));
#123=DIRECTION('',(0.0,1.0,0.0));
#124=AXIS2_PLACEMENT_3D('',#121,#122,#123);
#125=CIRCLE('',#124,2.25);
#126=EDGE_CURVE('',#71,#81,#125,.T.);
#127=ORIENTED_EDGE('',*,*,#126,.F.);
#128=EDGE_LOOP('',(#112,#119,#120,#127));
#129=FACE_OUTER_BOUND('',#128,.T.);
#130=ADVANCED_FACE('',(#129),#111,.T.);
#131=CARTESIAN_POINT('',(7.980000000000047,-6.656897E-015,6.7));
#132=DIRECTION('',(-1.0,0.0,0.0));
#133=DIRECTION('',(0.0,-1.0,0.0));
#134=AXIS2_PLACEMENT_3D('',#131,#132,#133);
#135=PLANE('',#134);
#136=ORIENTED_EDGE('',*,*,#102,.T.);
#137=ORIENTED_EDGE('',*,*,#118,.T.);
#138=EDGE_LOOP('',(#136,#137));
#139=FACE_OUTER_BOUND('',#138,.T.);
#140=ADVANCED_FACE('',(#139),#135,.T.);
#141=CARTESIAN_POINT('',(8.980000000000047,-6.878942E-015,6.7));
#142=DIRECTION('',(1.0,0.0,0.0));
#143=DIRECTION('',(0.0,1.0,0.0));
#144=AXIS2_PLACEMENT_3D('',#141,#142,#143);
#145=PLANE('',#144);
#146=ORIENTED_EDGE('',*,*,#126,.T.);
#147=ORIENTED_EDGE('',*,*,#87,.T.);
#148=EDGE_LOOP('',(#146,#147));
#149=FACE_OUTER_BOUND('',#148,.T.);
#150=ADVANCED_FACE('',(#149),#145,.T.);
#151=CLOSED_SHELL('',(#106,#130,#140,#150));
#152=MANIFOLD_SOLID_BREP('319',#151);
#153=COLOUR_RGB('43',0.65,0.56875,0.325);
#154=SURFACE_STYLE_USAGE(.BOTH.,#155);
#155=SURFACE_SIDE_STYLE('NONE',(#156));
#156=SURFACE_STYLE_FILL_AREA(#157);
#157=FILL_AREA_STYLE('NONE',(#158));
#158=FILL_AREA_STYLE_COLOUR('NONE',#153);
#159=PRESENTATION_STYLE_ASSIGNMENT((#154));
#160=STYLED_ITEM('NONE',(#159),#152);
#161=MECHANICAL_DESIGN_GEOMETRIC_PRESENTATION_REPRESENTATION('NONE',(#160,#284,#447,#608,#697,#786,#875,#964,#1053,#1142,#1335,#1555),#28);
#162=PRESENTATION_LAYER_ASSIGNMENT('3D','None',(#152,#276,#446,#607,#696,#785,#874,#963,#1052,#1141,#1327,#1547));
#163=CARTESIAN_POINT('',(18.180000000000046,-1.364242E-014,5.599999999999998));
#164=DIRECTION('',(-1.0,2.210166E-016,0.0));
#165=DIRECTION('',(0.0,1.0,0.0));
#166=AXIS2_PLACEMENT_3D('',#163,#164,#165);
#167=CYLINDRICAL_SURFACE('',#166,0.5);
#168=CARTESIAN_POINT('',(7.380000000000045,0.499999999999989,5.599999999999998));
#169=VERTEX_POINT('',#168);
#170=CARTESIAN_POINT('',(18.180000000000046,0.499999999999986,5.599999999999998));
#171=VERTEX_POINT('',#170);
#172=CARTESIAN_POINT('',(7.380000000000045,0.499999999999989,5.599999999999998));
#173=DIRECTION('',(1.0,0.0,0.0));
#174=VECTOR('',#173,10.800000000000001);
#175=LINE('',#172,#174);
#176=EDGE_CURVE('',#169,#171,#175,.T.);
#177=ORIENTED_EDGE('',*,*,#176,.F.);
#178=CARTESIAN_POINT('',(7.380000000000045,-0.500000000000011,5.599999999999998));
#179=VERTEX_POINT('',#178);
#180=CARTESIAN_POINT('',(7.380000000000045,-1.125544E-014,5.599999999999998));
#181=DIRECTION('',(1.0,0.0,0.0));
#182=DIRECTION('',(0.0,1.0,0.0));
#183=AXIS2_PLACEMENT_3D('',#180,#181,#182);
#184=CIRCLE('',#183,0.5);
#185=EDGE_CURVE('',#169,#179,#184,.T.);
#186=ORIENTED_EDGE('',*,*,#185,.T.);
#187=CARTESIAN_POINT('',(18.180000000000046,-0.500000000000014,5.599999999999998));
#188=VERTEX_POINT('',#187);
#189=CARTESIAN_POINT('',(7.380000000000045,-0.500000000000011,5.599999999999998));
#190=DIRECTION('',(1.0,0.0,0.0));
#191=VECTOR('',#190,10.800000000000001);
#192=LINE('',#189,#191);
#193=EDGE_CURVE('',#179,#188,#192,.T.);
#194=ORIENTED_EDGE('',*,*,#193,.T.);
#195=CARTESIAN_POINT('',(18.180000000000046,-1.364242E-014,5.599999999999998));
#196=DIRECTION('',(1.0,0.0,0.0));
#197=DIRECTION('',(0.0,1.0,0.0));
#198=AXIS2_PLACEMENT_3D('',#195,#196,#197);
#199=CIRCLE('',#198,0.5);
#200=EDGE_CURVE('',#171,#188,#199,.T.);
#201=ORIENTED_EDGE('',*,*,#200,.F.);
#202=EDGE_LOOP('',(#177,#186,#194,#201));
#203=FACE_OUTER_BOUND('',#202,.T.);
#204=ADVANCED_FACE('',(#203),#167,.T.);
#205=CARTESIAN_POINT('',(18.180000000000046,-1.364242E-014,5.599999999999998));
#206=DIRECTION('',(1.0,0.0,0.0));
#207=DIRECTION('',(0.0,1.0,0.0));
#208=AXIS2_PLACEMENT_3D('',#205,#206,#207);
#209=SPHERICAL_SURFACE('',#208,0.5);
#210=CARTESIAN_POINT('',(18.680000000000046,-1.367304E-014,5.599999999999998));
#211=VERTEX_POINT('',#210);
#212=CARTESIAN_POINT('',(18.180000000000046,-1.364242E-014,5.599999999999998));
#213=DIRECTION('',(0.0,0.0,1.0));
#214=DIRECTION('',(0.0,1.0,0.0));
#215=AXIS2_PLACEMENT_3D('',#212,#213,#214);
#216=CIRCLE('',#215,0.5);
#217=EDGE_CURVE('',#211,#171,#216,.T.);
#218=ORIENTED_EDGE('',*,*,#217,.F.);
#219=CARTESIAN_POINT('',(18.180000000000046,-1.364242E-014,5.599999999999998));
#220=DIRECTION('',(0.0,0.0,-1.0));
#221=DIRECTION('',(0.0,-1.0,0.0));
#222=AXIS2_PLACEMENT_3D('',#219,#220,#221);
#223=CIRCLE('',#222,0.5);
#224=EDGE_CURVE('',#211,#188,#223,.T.);
#225=ORIENTED_EDGE('',*,*,#224,.T.);
#226=CARTESIAN_POINT('',(18.180000000000046,-1.364242E-014,5.599999999999998));
#227=DIRECTION('',(1.0,0.0,0.0));
#228=DIRECTION('',(0.0,1.0,0.0));
#229=AXIS2_PLACEMENT_3D('',#226,#227,#228);
#230=CIRCLE('',#229,0.5);
#231=EDGE_CURVE('',#188,#171,#230,.T.);
#232=ORIENTED_EDGE('',*,*,#231,.T.);
#233=EDGE_LOOP('',(#218,#225,#232));
#234=FACE_OUTER_BOUND('',#233,.T.);
#235=ADVANCED_FACE('',(#234),#209,.T.);
#236=CARTESIAN_POINT('',(18.180000000000046,-1.364242E-014,5.599999999999998));
#237=DIRECTION('',(1.0,0.0,0.0));
#238=DIRECTION('',(0.0,1.0,0.0));
#239=AXIS2_PLACEMENT_3D('',#236,#237,#238);
#240=SPHERICAL_SURFACE('',#239,0.5);
#241=ORIENTED_EDGE('',*,*,#217,.T.);
#242=ORIENTED_EDGE('',*,*,#200,.T.);
#243=ORIENTED_EDGE('',*,*,#224,.F.);
#244=EDGE_LOOP('',(#241,#242,#243));
#245=FACE_OUTER_BOUND('',#244,.T.);
#246=ADVANCED_FACE('',(#245),#240,.T.);
#247=CARTESIAN_POINT('',(18.180000000000046,-1.364242E-014,5.599999999999998));
#248=DIRECTION('',(-1.0,2.210166E-016,0.0));
#249=DIRECTION('',(0.0,1.0,0.0));
#250=AXIS2_PLACEMENT_3D('',#247,#248,#249);
#251=CYLINDRICAL_SURFACE('',#250,0.5);
#252=ORIENTED_EDGE('',*,*,#176,.T.);
#253=ORIENTED_EDGE('',*,*,#231,.F.);
#254=ORIENTED_EDGE('',*,*,#193,.F.);
#255=CARTESIAN_POINT('',(7.380000000000045,-1.125544E-014,5.599999999999998));
#256=DIRECTION('',(1.0,0.0,0.0));
#257=DIRECTION('',(0.0,1.0,0.0));
#258=AXIS2_PLACEMENT_3D('',#255,#256,#257);
#259=CIRCLE('',#258,0.5);
#260=EDGE_CURVE('',#179,#169,#259,.T.);
#261=ORIENTED_EDGE('',*,*,#260,.T.);
#262=EDGE_LOOP('',(#252,#253,#254,#261));
#263=FACE_OUTER_BOUND('',#262,.T.);
#264=ADVANCED_FACE('',(#263),#251,.T.);
#265=CARTESIAN_POINT('',(7.380000000000045,-1.125544E-014,5.599999999999998));
#266=DIRECTION('',(1.0,0.0,0.0));
#267=DIRECTION('',(0.0,0.0,-1.0));
#268=AXIS2_PLACEMENT_3D('',#265,#266,#267);
#269=PLANE('',#268);
#270=ORIENTED_EDGE('',*,*,#185,.F.);
#271=ORIENTED_EDGE('',*,*,#260,.F.);
#272=EDGE_LOOP('',(#270,#271));
#273=FACE_OUTER_BOUND('',#272,.T.);
#274=ADVANCED_FACE('',(#273),#269,.F.);
#275=CLOSED_SHELL('',(#204,#235,#246,#264,#274));
#276=MANIFOLD_SOLID_BREP('29C',#275);
#277=COLOUR_RGB('40',1.0,0.75,0.0);
#278=SURFACE_STYLE_USAGE(.BOTH.,#279);
#279=SURFACE_SIDE_STYLE('NONE',(#280));
#280=SURFACE_STYLE_FILL_AREA(#281);
#281=FILL_AREA_STYLE('NONE',(#282));
#282=FILL_AREA_STYLE_COLOUR('NONE',#277);
#283=PRESENTATION_STYLE_ASSIGNMENT((#278));
#284=STYLED_ITEM('NONE',(#283),#276);
#285=CARTESIAN_POINT('',(18.680000000000046,-1.375344E-014,7.799999999999997));
#286=DIRECTION('',(-1.0,2.191099E-016,2.934752E-018));
#287=DIRECTION('',(1.528589E-016,0.707106781186547,-0.707106781186548));
#288=AXIS2_PLACEMENT_3D('',#285,#286,#287);
#289=CYLINDRICAL_SURFACE('',#288,0.55);
#290=CARTESIAN_POINT('',(7.980000000000041,0.38890872965259,7.411091270347396));
#291=VERTEX_POINT('',#290);
#292=CARTESIAN_POINT('',(18.680000000000042,0.388908729652588,7.411091270347396));
#293=VERTEX_POINT('',#292);
#294=CARTESIAN_POINT('',(7.980000000000043,0.38890872965259,7.411091270347396));
#295=DIRECTION('',(1.0,0.0,0.0));
#296=VECTOR('',#295,10.699999999999999);
#297=LINE('',#294,#296);
#298=EDGE_CURVE('',#291,#293,#297,.T.);
#299=ORIENTED_EDGE('',*,*,#298,.F.);
#300=CARTESIAN_POINT('',(7.980000000000043,-0.388908729652612,8.188908729652599));
#301=VERTEX_POINT('',#300);
#302=CARTESIAN_POINT('',(7.980000000000043,-1.020073E-014,7.799999999999997));
#303=DIRECTION('',(1.0,-1.110223E-016,1.110223E-016));
#304=DIRECTION('',(1.570092E-016,0.707106781186547,-0.707106781186548));
#305=AXIS2_PLACEMENT_3D('',#302,#303,#304);
#306=CIRCLE('',#305,0.55);
#307=EDGE_CURVE('',#291,#301,#306,.T.);
#308=ORIENTED_EDGE('',*,*,#307,.T.);
#309=CARTESIAN_POINT('',(18.680000000000046,-0.388908729652615,8.188908729652599));
#310=VERTEX_POINT('',#309);
#311=CARTESIAN_POINT('',(7.980000000000043,-0.388908729652612,8.188908729652599));
#312=DIRECTION('',(1.0,0.0,0.0));
#313=VECTOR('',#312,10.700000000000003);
#314=LINE('',#311,#313);
#315=EDGE_CURVE('',#301,#310,#314,.T.);
#316=ORIENTED_EDGE('',*,*,#315,.T.);
#317=CARTESIAN_POINT('',(18.680000000000046,-1.375344E-014,7.799999999999997));
#318=DIRECTION('',(1.0,-1.110223E-016,1.110223E-016));
#319=DIRECTION('',(1.570092E-016,0.707106781186547,-0.707106781186548));
#320=AXIS2_PLACEMENT_3D('',#317,#318,#319);
#321=CIRCLE('',#320,0.55);
#322=EDGE_CURVE('',#293,#310,#321,.T.);
#323=ORIENTED_EDGE('',*,*,#322,.F.);
#324=EDGE_LOOP('',(#299,#308,#316,#323));
#325=FACE_OUTER_BOUND('',#324,.T.);
#326=ADVANCED_FACE('',(#325),#289,.T.);
#327=CARTESIAN_POINT('',(18.680000000000046,-1.375344E-014,7.799999999999997));
#328=DIRECTION('',(-1.0,1.660147E-016,0.0));
#329=DIRECTION('',(0.0,1.0,0.0));
#330=AXIS2_PLACEMENT_3D('',#327,#328,#329);
#331=CYLINDRICAL_SURFACE('',#330,0.5);
#332=CARTESIAN_POINT('',(18.680000000000046,0.499999999999986,7.799999999999997));
#333=VERTEX_POINT('',#332);
#334=CARTESIAN_POINT('',(7.980000000000047,0.499999999999988,7.799999999999997));
#335=VERTEX_POINT('',#334);
#336=CARTESIAN_POINT('',(18.680000000000046,0.499999999999986,7.799999999999997));
#337=DIRECTION('',(-1.0,0.0,0.0));
#338=VECTOR('',#337,10.699999999999999);
#339=LINE('',#336,#338);
#340=EDGE_CURVE('',#333,#335,#339,.T.);
#341=ORIENTED_EDGE('',*,*,#340,.F.);
#342=CARTESIAN_POINT('',(18.680000000000046,-0.500000000000014,7.799999999999997));
#343=VERTEX_POINT('',#342);
#344=CARTESIAN_POINT('',(18.680000000000046,-1.375344E-014,7.799999999999997));
#345=DIRECTION('',(-1.0,0.0,0.0));
#346=DIRECTION('',(0.0,1.0,0.0));
#347=AXIS2_PLACEMENT_3D('',#344,#345,#346);
#348=CIRCLE('',#347,0.5);
#349=EDGE_CURVE('',#343,#333,#348,.T.);
#350=ORIENTED_EDGE('',*,*,#349,.F.);
#351=CARTESIAN_POINT('',(7.980000000000043,-0.500000000000012,7.799999999999997));
#352=VERTEX_POINT('',#351);
#353=CARTESIAN_POINT('',(18.680000000000046,-0.500000000000014,7.799999999999997));
#354=DIRECTION('',(-1.0,0.0,0.0));
#355=VECTOR('',#354,10.700000000000003);
#356=LINE('',#353,#355);
#357=EDGE_CURVE('',#343,#352,#356,.T.);
#358=ORIENTED_EDGE('',*,*,#357,.T.);
#359=CARTESIAN_POINT('',(7.980000000000043,-1.197709E-014,7.799999999999997));
#360=DIRECTION('',(1.0,0.0,0.0));
#361=DIRECTION('',(0.0,1.0,0.0));
#362=AXIS2_PLACEMENT_3D('',#359,#360,#361);
#363=CIRCLE('',#362,0.5);
#364=EDGE_CURVE('',#335,#352,#363,.T.);
#365=ORIENTED_EDGE('',*,*,#364,.F.);
#366=EDGE_LOOP('',(#341,#350,#358,#365));
#367=FACE_OUTER_BOUND('',#366,.T.);
#368=ADVANCED_FACE('',(#367),#331,.F.);
#369=CARTESIAN_POINT('',(18.680000000000046,-1.375344E-014,7.799999999999997));
#370=DIRECTION('',(-1.0,1.660147E-016,0.0));
#371=DIRECTION('',(0.0,1.0,0.0));
#372=AXIS2_PLACEMENT_3D('',#369,#370,#371);
#373=CYLINDRICAL_SURFACE('',#372,0.5);
#374=ORIENTED_EDGE('',*,*,#340,.T.);
#375=CARTESIAN_POINT('',(7.980000000000043,-1.197709E-014,7.799999999999997));
#376=DIRECTION('',(1.0,0.0,0.0));
#377=DIRECTION('',(0.0,1.0,0.0));
#378=AXIS2_PLACEMENT_3D('',#375,#376,#377);
#379=CIRCLE('',#378,0.5);
#380=EDGE_CURVE('',#352,#335,#379,.T.);
#381=ORIENTED_EDGE('',*,*,#380,.F.);
#382=ORIENTED_EDGE('',*,*,#357,.F.);
#383=CARTESIAN_POINT('',(18.680000000000046,-1.375344E-014,7.799999999999997));
#384=DIRECTION('',(-1.0,0.0,0.0));
#385=DIRECTION('',(0.0,1.0,0.0));
#386=AXIS2_PLACEMENT_3D('',#383,#384,#385);
#387=CIRCLE('',#386,0.5);
#388=EDGE_CURVE('',#333,#343,#387,.T.);
#389=ORIENTED_EDGE('',*,*,#388,.F.);
#390=EDGE_LOOP('',(#374,#381,#382,#389));
#391=FACE_OUTER_BOUND('',#390,.T.);
#392=ADVANCED_FACE('',(#391),#373,.F.);
#393=CARTESIAN_POINT('',(18.680000000000046,-1.375344E-014,7.799999999999997));
#394=DIRECTION('',(-1.0,2.191099E-016,2.934752E-018));
#395=DIRECTION('',(1.528589E-016,0.707106781186547,-0.707106781186548));
#396=AXIS2_PLACEMENT_3D('',#393,#394,#395);
#397=CYLINDRICAL_SURFACE('',#396,0.55);
#398=ORIENTED_EDGE('',*,*,#298,.T.);
#399=CARTESIAN_POINT('',(18.680000000000046,-1.375344E-014,7.799999999999997));
#400=DIRECTION('',(1.0,-1.110223E-016,1.110223E-016));
#401=DIRECTION('',(1.570092E-016,0.707106781186547,-0.707106781186548));
#402=AXIS2_PLACEMENT_3D('',#399,#400,#401);
#403=CIRCLE('',#402,0.55);
#404=EDGE_CURVE('',#310,#293,#403,.T.);
#405=ORIENTED_EDGE('',*,*,#404,.F.);
#406=ORIENTED_EDGE('',*,*,#315,.F.);
#407=CARTESIAN_POINT('',(7.980000000000043,-1.020073E-014,7.799999999999997));
#408=DIRECTION('',(1.0,-1.110223E-016,1.110223E-016));
#409=DIRECTION('',(1.570092E-016,0.707106781186547,-0.707106781186548));
#410=AXIS2_PLACEMENT_3D('',#407,#408,#409);
#411=CIRCLE('',#410,0.55);
#412=EDGE_CURVE('',#301,#291,#411,.T.);
#413=ORIENTED_EDGE('',*,*,#412,.T.);
#414=EDGE_LOOP('',(#398,#405,#406,#413));
#415=FACE_OUTER_BOUND('',#414,.T.);
#416=ADVANCED_FACE('',(#415),#397,.T.);
#417=CARTESIAN_POINT('',(7.980000000000043,-1.020073E-014,7.799999999999997));
#418=DIRECTION('',(1.0,0.0,0.0));
#419=DIRECTION('',(0.0,-0.707106781186548,-0.707106781186547));
#420=AXIS2_PLACEMENT_3D('',#417,#418,#419);
#421=PLANE('',#420);
#422=ORIENTED_EDGE('',*,*,#307,.F.);
#423=ORIENTED_EDGE('',*,*,#412,.F.);
#424=EDGE_LOOP('',(#422,#423));
#425=FACE_OUTER_BOUND('',#424,.T.);
#426=ORIENTED_EDGE('',*,*,#364,.T.);
#427=ORIENTED_EDGE('',*,*,#380,.T.);
#428=EDGE_LOOP('',(#426,#427));
#429=FACE_BOUND('',#428,.T.);
#430=ADVANCED_FACE('',(#425,#429),#421,.F.);
#431=CARTESIAN_POINT('',(18.680000000000046,-1.375344E-014,7.799999999999997));
#432=DIRECTION('',(1.0,0.0,0.0));
#433=DIRECTION('',(0.0,-0.707106781186548,-0.707106781186547));
#434=AXIS2_PLACEMENT_3D('',#431,#432,#433);
#435=PLANE('',#434);
#436=ORIENTED_EDGE('',*,*,#322,.T.);
#437=ORIENTED_EDGE('',*,*,#404,.T.);
#438=EDGE_LOOP('',(#436,#437));
#439=FACE_OUTER_BOUND('',#438,.T.);
#440=ORIENTED_EDGE('',*,*,#388,.T.);
#441=ORIENTED_EDGE('',*,*,#349,.T.);
#442=EDGE_LOOP('',(#440,#441));
#443=FACE_BOUND('',#442,.T.);
#444=ADVANCED_FACE('',(#439,#443),#435,.T.);
#445=CLOSED_SHELL('',(#326,#368,#392,#416,#430,#444));
#446=MANIFOLD_SOLID_BREP('27A',#445);
#447=STYLED_ITEM('NONE',(#283),#446);
#448=CARTESIAN_POINT('',(18.680000000000046,-1.375344E-014,7.799999999999997));
#449=DIRECTION('',(-1.0,6.642360E-016,2.277381E-016));
#450=DIRECTION('',(0.0,1.0,0.0));
#451=AXIS2_PLACEMENT_3D('',#448,#449,#450);
#452=CYLINDRICAL_SURFACE('',#451,0.55);
#453=CARTESIAN_POINT('',(18.680000000000046,0.549999999999986,7.799999999999997));
#454=VERTEX_POINT('',#453);
#455=CARTESIAN_POINT('',(7.980000000000047,0.549999999999993,7.8));
#456=VERTEX_POINT('',#455);
#457=CARTESIAN_POINT('',(18.680000000000046,0.549999999999986,7.799999999999997));
#458=DIRECTION('',(-1.0,0.0,0.0));
#459=VECTOR('',#458,10.699999999999999);
#460=LINE('',#457,#459);
#461=EDGE_CURVE('',#454,#456,#460,.T.);
#462=ORIENTED_EDGE('',*,*,#461,.F.);
#463=CARTESIAN_POINT('',(18.680000000000046,-0.550000000000014,7.799999999999997));
#464=VERTEX_POINT('',#463);
#465=CARTESIAN_POINT('',(18.680000000000046,-1.375344E-014,7.799999999999997));
#466=DIRECTION('',(-1.0,0.0,0.0));
#467=DIRECTION('',(0.0,1.0,0.0));
#468=AXIS2_PLACEMENT_3D('',#465,#466,#467);
#469=CIRCLE('',#468,0.55);
#470=EDGE_CURVE('',#464,#454,#469,.T.);
#471=ORIENTED_EDGE('',*,*,#470,.F.);
#472=CARTESIAN_POINT('',(7.980000000000047,-0.550000000000007,7.8));
#473=VERTEX_POINT('',#472);
#474=CARTESIAN_POINT('',(18.680000000000046,-0.550000000000014,7.799999999999997));
#475=DIRECTION('',(-1.0,0.0,0.0));
#476=VECTOR('',#475,10.699999999999999);
#477=LINE('',#474,#476);
#478=EDGE_CURVE('',#464,#473,#477,.T.);
#479=ORIENTED_EDGE('',*,*,#478,.T.);
#480=CARTESIAN_POINT('',(7.980000000000047,-6.646118E-015,7.8));
#481=DIRECTION('',(1.0,0.0,0.0));
#482=DIRECTION('',(0.0,1.0,0.0));
#483=AXIS2_PLACEMENT_3D('',#480,#481,#482);
#484=CIRCLE('',#483,0.55);
#485=EDGE_CURVE('',#456,#473,#484,.T.);
#486=ORIENTED_EDGE('',*,*,#485,.F.);
#487=EDGE_LOOP('',(#462,#471,#479,#486));
#488=FACE_OUTER_BOUND('',#487,.T.);
#489=ADVANCED_FACE('',(#488),#452,.F.);
#490=CARTESIAN_POINT('',(18.680000000000046,2.249999999999986,6.699999999999998));
#491=DIRECTION('',(0.0,0.0,1.0));
#492=DIRECTION('',(1.0,0.0,0.0));
#493=AXIS2_PLACEMENT_3D('',#490,#491,#492);
#494=PLANE('',#493);
#495=CARTESIAN_POINT('',(7.980000000000048,2.249999999999993,6.7));
#496=VERTEX_POINT('',#495);
#497=CARTESIAN_POINT('',(7.980000000000045,-2.250000000000014,6.699999999999998));
#498=VERTEX_POINT('',#497);
#499=CARTESIAN_POINT('',(7.980000000000048,2.249999999999993,6.699999999999998));
#500=DIRECTION('',(0.0,-1.0,0.0));
#501=VECTOR('',#500,4.500000000000007);
#502=LINE('',#499,#501);
#503=EDGE_CURVE('',#496,#498,#502,.T.);
#504=ORIENTED_EDGE('',*,*,#503,.F.);
#505=CARTESIAN_POINT('',(18.680000000000049,2.249999999999986,6.699999999999998));
#506=VERTEX_POINT('',#505);
#507=CARTESIAN_POINT('',(18.680000000000049,2.249999999999986,6.699999999999995));
#508=DIRECTION('',(-1.0,0.0,0.0));
#509=VECTOR('',#508,10.700000000000003);
#510=LINE('',#507,#509);
#511=EDGE_CURVE('',#506,#496,#510,.T.);
#512=ORIENTED_EDGE('',*,*,#511,.F.);
#513=CARTESIAN_POINT('',(18.680000000000046,-2.250000000000014,6.699999999999998));
#514=VERTEX_POINT('',#513);
#515=CARTESIAN_POINT('',(18.680000000000042,-2.250000000000014,6.699999999999998));
#516=DIRECTION('',(0.0,1.0,0.0));
#517=VECTOR('',#516,4.5);
#518=LINE('',#515,#517);
#519=EDGE_CURVE('',#514,#506,#518,.T.);
#520=ORIENTED_EDGE('',*,*,#519,.F.);
#521=CARTESIAN_POINT('',(7.980000000000045,-2.250000000000007,6.699999999999998));
#522=DIRECTION('',(1.0,0.0,0.0));
#523=VECTOR('',#522,10.700000000000001);
#524=LINE('',#521,#523);
#525=EDGE_CURVE('',#498,#514,#524,.T.);
#526=ORIENTED_EDGE('',*,*,#525,.F.);
#527=EDGE_LOOP('',(#504,#512,#520,#526));
#528=FACE_OUTER_BOUND('',#527,.T.);
#529=ADVANCED_FACE('',(#528),#494,.F.);
#530=CARTESIAN_POINT('',(18.680000000000046,-1.375344E-014,6.699999999999998));
#531=DIRECTION('',(1.0,0.0,0.0));
#532=DIRECTION('',(0.0,0.0,-1.0));
#533=AXIS2_PLACEMENT_3D('',#530,#531,#532);
#534=PLANE('',#533);
#535=ORIENTED_EDGE('',*,*,#519,.T.);
#536=CARTESIAN_POINT('',(18.680000000000046,-1.375344E-014,6.699999999999998));
#537=DIRECTION('',(-1.0,0.0,0.0));
#538=DIRECTION('',(0.0,1.0,0.0));
#539=AXIS2_PLACEMENT_3D('',#536,#537,#538);
#540=CIRCLE('',#539,2.25);
#541=EDGE_CURVE('',#514,#506,#540,.T.);
#542=ORIENTED_EDGE('',*,*,#541,.F.);
#543=EDGE_LOOP('',(#535,#542));
#544=FACE_OUTER_BOUND('',#543,.T.);
#545=CARTESIAN_POINT('',(18.680000000000046,-1.375344E-014,7.799999999999997));
#546=DIRECTION('',(-1.0,0.0,0.0));
#547=DIRECTION('',(0.0,1.0,0.0));
#548=AXIS2_PLACEMENT_3D('',#545,#546,#547);
#549=CIRCLE('',#548,0.55);
#550=EDGE_CURVE('',#454,#464,#549,.T.);
#551=ORIENTED_EDGE('',*,*,#550,.T.);
#552=ORIENTED_EDGE('',*,*,#470,.T.);
#553=EDGE_LOOP('',(#551,#552));
#554=FACE_BOUND('',#553,.T.);
#555=ADVANCED_FACE('',(#544,#554),#534,.T.);
#556=CARTESIAN_POINT('',(7.980000000000046,-6.648015E-015,6.7));
#557=DIRECTION('',(1.0,0.0,0.0));
#558=DIRECTION('',(0.0,0.0,-1.0));
#559=AXIS2_PLACEMENT_3D('',#556,#557,#558);
#560=PLANE('',#559);
#561=ORIENTED_EDGE('',*,*,#503,.T.);
#562=CARTESIAN_POINT('',(7.980000000000046,-6.648015E-015,6.7));
#563=DIRECTION('',(1.0,0.0,0.0));
#564=DIRECTION('',(0.0,1.0,0.0));
#565=AXIS2_PLACEMENT_3D('',#562,#563,#564);
#566=CIRCLE('',#565,2.25);
#567=EDGE_CURVE('',#496,#498,#566,.T.);
#568=ORIENTED_EDGE('',*,*,#567,.F.);
#569=EDGE_LOOP('',(#561,#568));
#570=FACE_OUTER_BOUND('',#569,.T.);
#571=CARTESIAN_POINT('',(7.980000000000047,-6.646118E-015,7.8));
#572=DIRECTION('',(1.0,0.0,0.0));
#573=DIRECTION('',(0.0,1.0,0.0));
#574=AXIS2_PLACEMENT_3D('',#571,#572,#573);
#575=CIRCLE('',#574,0.55);
#576=EDGE_CURVE('',#473,#456,#575,.T.);
#577=ORIENTED_EDGE('',*,*,#576,.T.);
#578=ORIENTED_EDGE('',*,*,#485,.T.);
#579=EDGE_LOOP('',(#577,#578));
#580=FACE_BOUND('',#579,.T.);
#581=ADVANCED_FACE('',(#570,#580),#560,.F.);
#582=CARTESIAN_POINT('',(18.680000000000046,-1.375344E-014,7.799999999999997));
#583=DIRECTION('',(-1.0,6.642360E-016,2.277381E-016));
#584=DIRECTION('',(0.0,1.0,0.0));
#585=AXIS2_PLACEMENT_3D('',#582,#583,#584);
#586=CYLINDRICAL_SURFACE('',#585,0.55);
#587=ORIENTED_EDGE('',*,*,#461,.T.);
#588=ORIENTED_EDGE('',*,*,#576,.F.);
#589=ORIENTED_EDGE('',*,*,#478,.F.);
#590=ORIENTED_EDGE('',*,*,#550,.F.);
#591=EDGE_LOOP('',(#587,#588,#589,#590));
#592=FACE_OUTER_BOUND('',#591,.T.);
#593=ADVANCED_FACE('',(#592),#586,.F.);
#594=CARTESIAN_POINT('',(7.980000000000046,-6.648015E-015,6.7));
#595=DIRECTION('',(1.0,-6.640586E-016,-2.490220E-016));
#596=DIRECTION('',(0.0,1.0,0.0));
#597=AXIS2_PLACEMENT_3D('',#594,#595,#596);
#598=CYLINDRICAL_SURFACE('',#597,2.25);
#599=ORIENTED_EDGE('',*,*,#525,.T.);
#600=ORIENTED_EDGE('',*,*,#541,.T.);
#601=ORIENTED_EDGE('',*,*,#511,.T.);
#602=ORIENTED_EDGE('',*,*,#567,.T.);
#603=EDGE_LOOP('',(#599,#600,#601,#602));
#604=FACE_OUTER_BOUND('',#603,.T.);
#605=ADVANCED_FACE('',(#604),#598,.T.);
#606=CLOSED_SHELL('',(#489,#529,#555,#581,#593,#605));
#607=MANIFOLD_SOLID_BREP('12A',#606);
#608=STYLED_ITEM('NONE',(#159),#607);
#609=CARTESIAN_POINT('',(0.0,1.27000000000001,8.350022E-063));
#610=DIRECTION('',(0.0,0.0,-1.0));
#611=DIRECTION('',(-1.0,0.0,0.0));
#612=AXIS2_PLACEMENT_3D('',#609,#610,#611);
#613=CYLINDRICAL_SURFACE('',#612,0.35);
#614=CARTESIAN_POINT('',(-0.35,1.27000000000001,-4.0));
#615=VERTEX_POINT('',#614);
#616=CARTESIAN_POINT('',(-0.35,1.27000000000001,-1.724254E-047));
#617=VERTEX_POINT('',#616);
#618=CARTESIAN_POINT('',(-0.35,1.27000000000001,-4.0));
#619=DIRECTION('',(0.0,0.0,1.0));
#620=VECTOR('',#619,4.0);
#621=LINE('',#618,#620);
#622=EDGE_CURVE('',#615,#617,#621,.T.);
#623=ORIENTED_EDGE('',*,*,#622,.F.);
#624=CARTESIAN_POINT('',(0.35,1.27000000000001,-4.0));
#625=VERTEX_POINT('',#624);
#626=CARTESIAN_POINT('',(0.0,1.27000000000001,-4.0));
#627=DIRECTION('',(0.0,0.0,1.0));
#628=DIRECTION('',(-1.0,0.0,0.0));
#629=AXIS2_PLACEMENT_3D('',#626,#627,#628);
#630=CIRCLE('',#629,0.35);
#631=EDGE_CURVE('',#615,#625,#630,.T.);
#632=ORIENTED_EDGE('',*,*,#631,.T.);
#633=CARTESIAN_POINT('',(0.35,1.27000000000001,-1.724254E-047));
#634=VERTEX_POINT('',#633);
#635=CARTESIAN_POINT('',(0.35,1.27000000000001,-4.0));
#636=DIRECTION('',(0.0,0.0,1.0));
#637=VECTOR('',#636,4.0);
#638=LINE('',#635,#637);
#639=EDGE_CURVE('',#625,#634,#638,.T.);
#640=ORIENTED_EDGE('',*,*,#639,.T.);
#641=CARTESIAN_POINT('',(0.0,1.27000000000001,8.350022E-063));
#642=DIRECTION('',(0.0,0.0,-1.0));
#643=DIRECTION('',(-1.0,0.0,0.0));
#644=AXIS2_PLACEMENT_3D('',#641,#642,#643);
#645=CIRCLE('',#644,0.35);
#646=EDGE_CURVE('',#634,#617,#645,.T.);
#647=ORIENTED_EDGE('',*,*,#646,.T.);
#648=EDGE_LOOP('',(#623,#632,#640,#647));
#649=FACE_OUTER_BOUND('',#648,.T.);
#650=ADVANCED_FACE('',(#649),#613,.T.);
#651=CARTESIAN_POINT('',(0.0,1.27000000000001,8.350022E-063));
#652=DIRECTION('',(0.0,0.0,-1.0));
#653=DIRECTION('',(-1.0,0.0,0.0));
#654=AXIS2_PLACEMENT_3D('',#651,#652,#653);
#655=CYLINDRICAL_SURFACE('',#654,0.35);
#656=ORIENTED_EDGE('',*,*,#622,.T.);
#657=CARTESIAN_POINT('',(0.0,1.27000000000001,8.350022E-063));
#658=DIRECTION('',(0.0,0.0,-1.0));
#659=DIRECTION('',(-1.0,0.0,0.0));
#660=AXIS2_PLACEMENT_3D('',#657,#658,#659);
#661=CIRCLE('',#660,0.35);
#662=EDGE_CURVE('',#617,#634,#661,.T.);
#663=ORIENTED_EDGE('',*,*,#662,.T.);
#664=ORIENTED_EDGE('',*,*,#639,.F.);
#665=CARTESIAN_POINT('',(0.0,1.27000000000001,-4.0));
#666=DIRECTION('',(0.0,0.0,1.0));
#667=DIRECTION('',(-1.0,0.0,0.0));
#668=AXIS2_PLACEMENT_3D('',#665,#666,#667);
#669=CIRCLE('',#668,0.35);
#670=EDGE_CURVE('',#625,#615,#669,.T.);
#671=ORIENTED_EDGE('',*,*,#670,.T.);
#672=EDGE_LOOP('',(#656,#663,#664,#671));
#673=FACE_OUTER_BOUND('',#672,.T.);
#674=ADVANCED_FACE('',(#673),#655,.T.);
#675=CARTESIAN_POINT('',(0.0,1.27000000000001,-4.0));
#676=DIRECTION('',(0.0,0.0,-1.0));
#677=DIRECTION('',(-1.0,0.0,0.0));
#678=AXIS2_PLACEMENT_3D('',#675,#676,#677);
#679=PLANE('',#678);
#680=ORIENTED_EDGE('',*,*,#631,.F.);
#681=ORIENTED_EDGE('',*,*,#670,.F.);
#682=EDGE_LOOP('',(#680,#681));
#683=FACE_OUTER_BOUND('',#682,.T.);
#684=ADVANCED_FACE('',(#683),#679,.T.);
#685=CARTESIAN_POINT('',(0.0,1.27000000000001,8.350022E-063));
#686=DIRECTION('',(0.0,0.0,-1.0));
#687=DIRECTION('',(-1.0,0.0,0.0));
#688=AXIS2_PLACEMENT_3D('',#685,#686,#687);
#689=PLANE('',#688);
#690=ORIENTED_EDGE('',*,*,#662,.F.);
#691=ORIENTED_EDGE('',*,*,#646,.F.);
#692=EDGE_LOOP('',(#690,#691));
#693=FACE_OUTER_BOUND('',#692,.T.);
#694=ADVANCED_FACE('',(#693),#689,.F.);
#695=CLOSED_SHELL('',(#650,#674,#684,#694));
#696=MANIFOLD_SOLID_BREP('126',#695);
#697=STYLED_ITEM('NONE',(#283),#696);
#698=CARTESIAN_POINT('',(0.0,-1.269999999999996,8.350022E-063));
#699=DIRECTION('',(0.0,0.0,-1.0));
#700=DIRECTION('',(-1.0,0.0,0.0));
#701=AXIS2_PLACEMENT_3D('',#698,#699,#700);
#702=CYLINDRICAL_SURFACE('',#701,0.35);
#703=CARTESIAN_POINT('',(-0.35,-1.269999999999996,-4.0));
#704=VERTEX_POINT('',#703);
#705=CARTESIAN_POINT('',(-0.35,-1.269999999999996,-1.724254E-047));
#706=VERTEX_POINT('',#705);
#707=CARTESIAN_POINT('',(-0.35,-1.269999999999996,-4.0));
#708=DIRECTION('',(0.0,0.0,1.0));
#709=VECTOR('',#708,4.0);
#710=LINE('',#707,#709);
#711=EDGE_CURVE('',#704,#706,#710,.T.);
#712=ORIENTED_EDGE('',*,*,#711,.F.);
#713=CARTESIAN_POINT('',(0.35,-1.269999999999996,-4.0));
#714=VERTEX_POINT('',#713);
#715=CARTESIAN_POINT('',(0.0,-1.269999999999996,-4.0));
#716=DIRECTION('',(0.0,0.0,1.0));
#717=DIRECTION('',(-1.0,0.0,0.0));
#718=AXIS2_PLACEMENT_3D('',#715,#716,#717);
#719=CIRCLE('',#718,0.35);
#720=EDGE_CURVE('',#704,#714,#719,.T.);
#721=ORIENTED_EDGE('',*,*,#720,.T.);
#722=CARTESIAN_POINT('',(0.35,-1.269999999999996,-1.724254E-047));
#723=VERTEX_POINT('',#722);
#724=CARTESIAN_POINT('',(0.35,-1.269999999999996,-4.0));
#725=DIRECTION('',(0.0,0.0,1.0));
#726=VECTOR('',#725,4.0);
#727=LINE('',#724,#726);
#728=EDGE_CURVE('',#714,#723,#727,.T.);
#729=ORIENTED_EDGE('',*,*,#728,.T.);
#730=CARTESIAN_POINT('',(0.0,-1.269999999999996,8.350022E-063));
#731=DIRECTION('',(0.0,0.0,-1.0));
#732=DIRECTION('',(-1.0,0.0,0.0));
#733=AXIS2_PLACEMENT_3D('',#730,#731,#732);
#734=CIRCLE('',#733,0.35);
#735=EDGE_CURVE('',#723,#706,#734,.T.);
#736=ORIENTED_EDGE('',*,*,#735,.T.);
#737=EDGE_LOOP('',(#712,#721,#729,#736));
#738=FACE_OUTER_BOUND('',#737,.T.);
#739=ADVANCED_FACE('',(#738),#702,.T.);
#740=CARTESIAN_POINT('',(0.0,-1.269999999999996,8.350022E-063));
#741=DIRECTION('',(0.0,0.0,-1.0));
#742=DIRECTION('',(-1.0,0.0,0.0));
#743=AXIS2_PLACEMENT_3D('',#740,#741,#742);
#744=CYLINDRICAL_SURFACE('',#743,0.35);
#745=ORIENTED_EDGE('',*,*,#711,.T.);
#746=CARTESIAN_POINT('',(0.0,-1.269999999999996,8.350022E-063));
#747=DIRECTION('',(0.0,0.0,-1.0));
#748=DIRECTION('',(-1.0,0.0,0.0));
#749=AXIS2_PLACEMENT_3D('',#746,#747,#748);
#750=CIRCLE('',#749,0.35);
#751=EDGE_CURVE('',#706,#723,#750,.T.);
#752=ORIENTED_EDGE('',*,*,#751,.T.);
#753=ORIENTED_EDGE('',*,*,#728,.F.);
#754=CARTESIAN_POINT('',(0.0,-1.269999999999996,-4.0));
#755=DIRECTION('',(0.0,0.0,1.0));
#756=DIRECTION('',(-1.0,0.0,0.0));
#757=AXIS2_PLACEMENT_3D('',#754,#755,#756);
#758=CIRCLE('',#757,0.35);
#759=EDGE_CURVE('',#714,#704,#758,.T.);
#760=ORIENTED_EDGE('',*,*,#759,.T.);
#761=EDGE_LOOP('',(#745,#752,#753,#760));
#762=FACE_OUTER_BOUND('',#761,.T.);
#763=ADVANCED_FACE('',(#762),#744,.T.);
#764=CARTESIAN_POINT('',(0.0,-1.269999999999996,-4.0));
#765=DIRECTION('',(0.0,0.0,-1.0));
#766=DIRECTION('',(-1.0,0.0,0.0));
#767=AXIS2_PLACEMENT_3D('',#764,#765,#766);
#768=PLANE('',#767);
#769=ORIENTED_EDGE('',*,*,#720,.F.);
#770=ORIENTED_EDGE('',*,*,#759,.F.);
#771=EDGE_LOOP('',(#769,#770));
#772=FACE_OUTER_BOUND('',#771,.T.);
#773=ADVANCED_FACE('',(#772),#768,.T.);
#774=CARTESIAN_POINT('',(0.0,-1.269999999999996,8.350022E-063));
#775=DIRECTION('',(0.0,0.0,-1.0));
#776=DIRECTION('',(-1.0,0.0,0.0));
#777=AXIS2_PLACEMENT_3D('',#774,#775,#776);
#778=PLANE('',#777);
#779=ORIENTED_EDGE('',*,*,#751,.F.);
#780=ORIENTED_EDGE('',*,*,#735,.F.);
#781=EDGE_LOOP('',(#779,#780));
#782=FACE_OUTER_BOUND('',#781,.T.);
#783=ADVANCED_FACE('',(#782),#778,.F.);
#784=CLOSED_SHELL('',(#739,#763,#773,#783));
#785=MANIFOLD_SOLID_BREP('125',#784);
#786=STYLED_ITEM('NONE',(#283),#785);
#787=CARTESIAN_POINT('',(5.080000000000041,3.810000000000002,8.350022E-063));
#788=DIRECTION('',(0.0,0.0,-1.0));
#789=DIRECTION('',(-1.0,0.0,0.0));
#790=AXIS2_PLACEMENT_3D('',#787,#788,#789);
#791=CYLINDRICAL_SURFACE('',#790,0.35);
#792=CARTESIAN_POINT('',(4.730000000000041,3.810000000000002,-4.0));
#793=VERTEX_POINT('',#792);
#794=CARTESIAN_POINT('',(4.730000000000041,3.810000000000002,-1.724254E-047));
#795=VERTEX_POINT('',#794);
#796=CARTESIAN_POINT('',(4.730000000000041,3.810000000000002,-4.0));
#797=DIRECTION('',(0.0,0.0,1.0));
#798=VECTOR('',#797,4.0);
#799=LINE('',#796,#798);
#800=EDGE_CURVE('',#793,#795,#799,.T.);
#801=ORIENTED_EDGE('',*,*,#800,.F.);
#802=CARTESIAN_POINT('',(5.430000000000041,3.810000000000002,-4.0));
#803=VERTEX_POINT('',#802);
#804=CARTESIAN_POINT('',(5.080000000000041,3.810000000000002,-4.0));
#805=DIRECTION('',(0.0,0.0,1.0));
#806=DIRECTION('',(-1.0,0.0,0.0));
#807=AXIS2_PLACEMENT_3D('',#804,#805,#806);
#808=CIRCLE('',#807,0.35);
#809=EDGE_CURVE('',#793,#803,#808,.T.);
#810=ORIENTED_EDGE('',*,*,#809,.T.);
#811=CARTESIAN_POINT('',(5.430000000000041,3.810000000000002,-1.724254E-047));
#812=VERTEX_POINT('',#811);
#813=CARTESIAN_POINT('',(5.430000000000041,3.810000000000002,-4.0));
#814=DIRECTION('',(0.0,0.0,1.0));
#815=VECTOR('',#814,4.0);
#816=LINE('',#813,#815);
#817=EDGE_CURVE('',#803,#812,#816,.T.);
#818=ORIENTED_EDGE('',*,*,#817,.T.);
#819=CARTESIAN_POINT('',(5.080000000000041,3.810000000000002,8.350022E-063));
#820=DIRECTION('',(0.0,0.0,-1.0));
#821=DIRECTION('',(-1.0,0.0,0.0));
#822=AXIS2_PLACEMENT_3D('',#819,#820,#821);
#823=CIRCLE('',#822,0.35);
#824=EDGE_CURVE('',#812,#795,#823,.T.);
#825=ORIENTED_EDGE('',*,*,#824,.T.);
#826=EDGE_LOOP('',(#801,#810,#818,#825));
#827=FACE_OUTER_BOUND('',#826,.T.);
#828=ADVANCED_FACE('',(#827),#791,.T.);
#829=CARTESIAN_POINT('',(5.080000000000041,3.810000000000002,8.350022E-063));
#830=DIRECTION('',(0.0,0.0,-1.0));
#831=DIRECTION('',(-1.0,0.0,0.0));
#832=AXIS2_PLACEMENT_3D('',#829,#830,#831);
#833=CYLINDRICAL_SURFACE('',#832,0.35);
#834=ORIENTED_EDGE('',*,*,#800,.T.);
#835=CARTESIAN_POINT('',(5.080000000000041,3.810000000000002,8.350022E-063));
#836=DIRECTION('',(0.0,0.0,-1.0));
#837=DIRECTION('',(-1.0,0.0,0.0));
#838=AXIS2_PLACEMENT_3D('',#835,#836,#837);
#839=CIRCLE('',#838,0.35);
#840=EDGE_CURVE('',#795,#812,#839,.T.);
#841=ORIENTED_EDGE('',*,*,#840,.T.);
#842=ORIENTED_EDGE('',*,*,#817,.F.);
#843=CARTESIAN_POINT('',(5.080000000000041,3.810000000000002,-4.0));
#844=DIRECTION('',(0.0,0.0,1.0));
#845=DIRECTION('',(-1.0,0.0,0.0));
#846=AXIS2_PLACEMENT_3D('',#843,#844,#845);
#847=CIRCLE('',#846,0.35);
#848=EDGE_CURVE('',#803,#793,#847,.T.);
#849=ORIENTED_EDGE('',*,*,#848,.T.);
#850=EDGE_LOOP('',(#834,#841,#842,#849));
#851=FACE_OUTER_BOUND('',#850,.T.);
#852=ADVANCED_FACE('',(#851),#833,.T.);
#853=CARTESIAN_POINT('',(5.080000000000041,3.810000000000002,-4.0));
#854=DIRECTION('',(0.0,0.0,-1.0));
#855=DIRECTION('',(-1.0,0.0,0.0));
#856=AXIS2_PLACEMENT_3D('',#853,#854,#855);
#857=PLANE('',#856);
#858=ORIENTED_EDGE('',*,*,#809,.F.);
#859=ORIENTED_EDGE('',*,*,#848,.F.);
#860=EDGE_LOOP('',(#858,#859));
#861=FACE_OUTER_BOUND('',#860,.T.);
#862=ADVANCED_FACE('',(#861),#857,.T.);
#863=CARTESIAN_POINT('',(5.080000000000041,3.810000000000002,8.350022E-063));
#864=DIRECTION('',(0.0,0.0,-1.0));
#865=DIRECTION('',(-1.0,0.0,0.0));
#866=AXIS2_PLACEMENT_3D('',#863,#864,#865);
#867=PLANE('',#866);
#868=ORIENTED_EDGE('',*,*,#840,.F.);
#869=ORIENTED_EDGE('',*,*,#824,.F.);
#870=EDGE_LOOP('',(#868,#869));
#871=FACE_OUTER_BOUND('',#870,.T.);
#872=ADVANCED_FACE('',(#871),#867,.F.);
#873=CLOSED_SHELL('',(#828,#852,#862,#872));
#874=MANIFOLD_SOLID_BREP('124',#873);
#875=STYLED_ITEM('NONE',(#283),#874);
#876=CARTESIAN_POINT('',(5.080000000000013,-3.810000000000002,8.350022E-063));
#877=DIRECTION('',(0.0,0.0,-1.0));
#878=DIRECTION('',(-1.0,0.0,0.0));
#879=AXIS2_PLACEMENT_3D('',#876,#877,#878);
#880=CYLINDRICAL_SURFACE('',#879,0.35);
#881=CARTESIAN_POINT('',(4.730000000000013,-3.810000000000002,-4.0));
#882=VERTEX_POINT('',#881);
#883=CARTESIAN_POINT('',(4.730000000000013,-3.810000000000002,-1.724254E-047));
#884=VERTEX_POINT('',#883);
#885=CARTESIAN_POINT('',(4.730000000000013,-3.810000000000002,-4.0));
#886=DIRECTION('',(0.0,0.0,1.0));
#887=VECTOR('',#886,4.0);
#888=LINE('',#885,#887);
#889=EDGE_CURVE('',#882,#884,#888,.T.);
#890=ORIENTED_EDGE('',*,*,#889,.F.);
#891=CARTESIAN_POINT('',(5.430000000000012,-3.810000000000002,-4.0));
#892=VERTEX_POINT('',#891);
#893=CARTESIAN_POINT('',(5.080000000000013,-3.810000000000002,-4.0));
#894=DIRECTION('',(0.0,0.0,1.0));
#895=DIRECTION('',(-1.0,0.0,0.0));
#896=AXIS2_PLACEMENT_3D('',#893,#894,#895);
#897=CIRCLE('',#896,0.35);
#898=EDGE_CURVE('',#882,#892,#897,.T.);
#899=ORIENTED_EDGE('',*,*,#898,.T.);
#900=CARTESIAN_POINT('',(5.430000000000012,-3.810000000000002,-1.724254E-047));
#901=VERTEX_POINT('',#900);
#902=CARTESIAN_POINT('',(5.430000000000012,-3.810000000000002,-4.0));
#903=DIRECTION('',(0.0,0.0,1.0));
#904=VECTOR('',#903,4.0);
#905=LINE('',#902,#904);
#906=EDGE_CURVE('',#892,#901,#905,.T.);
#907=ORIENTED_EDGE('',*,*,#906,.T.);
#908=CARTESIAN_POINT('',(5.080000000000013,-3.810000000000002,8.350022E-063));
#909=DIRECTION('',(0.0,0.0,-1.0));
#910=DIRECTION('',(-1.0,0.0,0.0));
#911=AXIS2_PLACEMENT_3D('',#908,#909,#910);
#912=CIRCLE('',#911,0.35);
#913=EDGE_CURVE('',#901,#884,#912,.T.);
#914=ORIENTED_EDGE('',*,*,#913,.T.);
#915=EDGE_LOOP('',(#890,#899,#907,#914));
#916=FACE_OUTER_BOUND('',#915,.T.);
#917=ADVANCED_FACE('',(#916),#880,.T.);
#918=CARTESIAN_POINT('',(5.080000000000013,-3.810000000000002,8.350022E-063));
#919=DIRECTION('',(0.0,0.0,-1.0));
#920=DIRECTION('',(-1.0,0.0,0.0));
#921=AXIS2_PLACEMENT_3D('',#918,#919,#920);
#922=CYLINDRICAL_SURFACE('',#921,0.35);
#923=ORIENTED_EDGE('',*,*,#889,.T.);
#924=CARTESIAN_POINT('',(5.080000000000013,-3.810000000000002,8.350022E-063));
#925=DIRECTION('',(0.0,0.0,-1.0));
#926=DIRECTION('',(-1.0,0.0,0.0));
#927=AXIS2_PLACEMENT_3D('',#924,#925,#926);
#928=CIRCLE('',#927,0.35);
#929=EDGE_CURVE('',#884,#901,#928,.T.);
#930=ORIENTED_EDGE('',*,*,#929,.T.);
#931=ORIENTED_EDGE('',*,*,#906,.F.);
#932=CARTESIAN_POINT('',(5.080000000000013,-3.810000000000002,-4.0));
#933=DIRECTION('',(0.0,0.0,1.0));
#934=DIRECTION('',(-1.0,0.0,0.0));
#935=AXIS2_PLACEMENT_3D('',#932,#933,#934);
#936=CIRCLE('',#935,0.35);
#937=EDGE_CURVE('',#892,#882,#936,.T.);
#938=ORIENTED_EDGE('',*,*,#937,.T.);
#939=EDGE_LOOP('',(#923,#930,#931,#938));
#940=FACE_OUTER_BOUND('',#939,.T.);
#941=ADVANCED_FACE('',(#940),#922,.T.);
#942=CARTESIAN_POINT('',(5.080000000000013,-3.810000000000002,-4.0));
#943=DIRECTION('',(0.0,0.0,-1.0));
#944=DIRECTION('',(-1.0,0.0,0.0));
#945=AXIS2_PLACEMENT_3D('',#942,#943,#944);
#946=PLANE('',#945);
#947=ORIENTED_EDGE('',*,*,#898,.F.);
#948=ORIENTED_EDGE('',*,*,#937,.F.);
#949=EDGE_LOOP('',(#947,#948));
#950=FACE_OUTER_BOUND('',#949,.T.);
#951=ADVANCED_FACE('',(#950),#946,.T.);
#952=CARTESIAN_POINT('',(5.080000000000013,-3.810000000000002,8.350022E-063));
#953=DIRECTION('',(0.0,0.0,-1.0));
#954=DIRECTION('',(-1.0,0.0,0.0));
#955=AXIS2_PLACEMENT_3D('',#952,#953,#954);
#956=PLANE('',#955);
#957=ORIENTED_EDGE('',*,*,#929,.F.);
#958=ORIENTED_EDGE('',*,*,#913,.F.);
#959=EDGE_LOOP('',(#957,#958));
#960=FACE_OUTER_BOUND('',#959,.T.);
#961=ADVANCED_FACE('',(#960),#956,.F.);
#962=CLOSED_SHELL('',(#917,#941,#951,#961));
#963=MANIFOLD_SOLID_BREP('123',#962);
#964=STYLED_ITEM('NONE',(#283),#963);
#965=CARTESIAN_POINT('',(-2.539999999999992,3.810000000000002,8.350022E-063));
#966=DIRECTION('',(0.0,0.0,-1.0));
#967=DIRECTION('',(-1.0,0.0,0.0));
#968=AXIS2_PLACEMENT_3D('',#965,#966,#967);
#969=CYLINDRICAL_SURFACE('',#968,0.35);
#970=CARTESIAN_POINT('',(-2.889999999999992,3.810000000000002,-4.0));
#971=VERTEX_POINT('',#970);
#972=CARTESIAN_POINT('',(-2.889999999999992,3.810000000000002,-1.724254E-047));
#973=VERTEX_POINT('',#972);
#974=CARTESIAN_POINT('',(-2.889999999999992,3.810000000000002,-4.0));
#975=DIRECTION('',(0.0,0.0,1.0));
#976=VECTOR('',#975,4.0);
#977=LINE('',#974,#976);
#978=EDGE_CURVE('',#971,#973,#977,.T.);
#979=ORIENTED_EDGE('',*,*,#978,.F.);
#980=CARTESIAN_POINT('',(-2.189999999999992,3.810000000000002,-4.0));
#981=VERTEX_POINT('',#980);
#982=CARTESIAN_POINT('',(-2.539999999999992,3.810000000000002,-4.0));
#983=DIRECTION('',(0.0,0.0,1.0));
#984=DIRECTION('',(-1.0,0.0,0.0));
#985=AXIS2_PLACEMENT_3D('',#982,#983,#984);
#986=CIRCLE('',#985,0.35);
#987=EDGE_CURVE('',#971,#981,#986,.T.);
#988=ORIENTED_EDGE('',*,*,#987,.T.);
#989=CARTESIAN_POINT('',(-2.189999999999992,3.810000000000002,-1.724254E-047));
#990=VERTEX_POINT('',#989);
#991=CARTESIAN_POINT('',(-2.189999999999992,3.810000000000002,-4.0));
#992=DIRECTION('',(0.0,0.0,1.0));
#993=VECTOR('',#992,4.0);
#994=LINE('',#991,#993);
#995=EDGE_CURVE('',#981,#990,#994,.T.);
#996=ORIENTED_EDGE('',*,*,#995,.T.);
#997=CARTESIAN_POINT('',(-2.539999999999992,3.810000000000002,8.350022E-063));
#998=DIRECTION('',(0.0,0.0,-1.0));
#999=DIRECTION('',(-1.0,0.0,0.0));
#1000=AXIS2_PLACEMENT_3D('',#997,#998,#999);
#1001=CIRCLE('',#1000,0.35);
#1002=EDGE_CURVE('',#990,#973,#1001,.T.);
#1003=ORIENTED_EDGE('',*,*,#1002,.T.);
#1004=EDGE_LOOP('',(#979,#988,#996,#1003));
#1005=FACE_OUTER_BOUND('',#1004,.T.);
#1006=ADVANCED_FACE('',(#1005),#969,.T.);
#1007=CARTESIAN_POINT('',(-2.539999999999992,3.810000000000002,8.350022E-063));
#1008=DIRECTION('',(0.0,0.0,-1.0));
#1009=DIRECTION('',(-1.0,0.0,0.0));
#1010=AXIS2_PLACEMENT_3D('',#1007,#1008,#1009);
#1011=CYLINDRICAL_SURFACE('',#1010,0.35);
#1012=ORIENTED_EDGE('',*,*,#978,.T.);
#1013=CARTESIAN_POINT('',(-2.539999999999992,3.810000000000002,8.350022E-063));
#1014=DIRECTION('',(0.0,0.0,-1.0));
#1015=DIRECTION('',(-1.0,0.0,0.0));
#1016=AXIS2_PLACEMENT_3D('',#1013,#1014,#1015);
#1017=CIRCLE('',#1016,0.35);
#1018=EDGE_CURVE('',#973,#990,#1017,.T.);
#1019=ORIENTED_EDGE('',*,*,#1018,.T.);
#1020=ORIENTED_EDGE('',*,*,#995,.F.);
#1021=CARTESIAN_POINT('',(-2.539999999999992,3.810000000000002,-4.0));
#1022=DIRECTION('',(0.0,0.0,1.0));
#1023=DIRECTION('',(-1.0,0.0,0.0));
#1024=AXIS2_PLACEMENT_3D('',#1021,#1022,#1023);
#1025=CIRCLE('',#1024,0.35);
#1026=EDGE_CURVE('',#981,#971,#1025,.T.);
#1027=ORIENTED_EDGE('',*,*,#1026,.T.);
#1028=EDGE_LOOP('',(#1012,#1019,#1020,#1027));
#1029=FACE_OUTER_BOUND('',#1028,.T.);
#1030=ADVANCED_FACE('',(#1029),#1011,.T.);
#1031=CARTESIAN_POINT('',(-2.539999999999992,3.810000000000002,-4.0));
#1032=DIRECTION('',(0.0,0.0,-1.0));
#1033=DIRECTION('',(-1.0,0.0,0.0));
#1034=AXIS2_PLACEMENT_3D('',#1031,#1032,#1033);
#1035=PLANE('',#1034);
#1036=ORIENTED_EDGE('',*,*,#987,.F.);
#1037=ORIENTED_EDGE('',*,*,#1026,.F.);
#1038=EDGE_LOOP('',(#1036,#1037));
#1039=FACE_OUTER_BOUND('',#1038,.T.);
#1040=ADVANCED_FACE('',(#1039),#1035,.T.);
#1041=CARTESIAN_POINT('',(-2.539999999999992,3.810000000000002,8.350022E-063));
#1042=DIRECTION('',(0.0,0.0,-1.0));
#1043=DIRECTION('',(-1.0,0.0,0.0));
#1044=AXIS2_PLACEMENT_3D('',#1041,#1042,#1043);
#1045=PLANE('',#1044);
#1046=ORIENTED_EDGE('',*,*,#1018,.F.);
#1047=ORIENTED_EDGE('',*,*,#1002,.F.);
#1048=EDGE_LOOP('',(#1046,#1047));
#1049=FACE_OUTER_BOUND('',#1048,.T.);
#1050=ADVANCED_FACE('',(#1049),#1045,.F.);
#1051=CLOSED_SHELL('',(#1006,#1030,#1040,#1050));
#1052=MANIFOLD_SOLID_BREP('122',#1051);
#1053=STYLED_ITEM('NONE',(#283),#1052);
#1054=CARTESIAN_POINT('',(-2.539999999999992,-3.810000000000002,8.350022E-063));
#1055=DIRECTION('',(0.0,0.0,-1.0));
#1056=DIRECTION('',(-1.0,0.0,0.0));
#1057=AXIS2_PLACEMENT_3D('',#1054,#1055,#1056);
#1058=CYLINDRICAL_SURFACE('',#1057,0.35);
#1059=CARTESIAN_POINT('',(-2.889999999999992,-3.810000000000002,-4.0));
#1060=VERTEX_POINT('',#1059);
#1061=CARTESIAN_POINT('',(-2.889999999999992,-3.810000000000002,-1.724254E-047));
#1062=VERTEX_POINT('',#1061);
#1063=CARTESIAN_POINT('',(-2.889999999999992,-3.810000000000002,-4.0));
#1064=DIRECTION('',(0.0,0.0,1.0));
#1065=VECTOR('',#1064,4.0);
#1066=LINE('',#1063,#1065);
#1067=EDGE_CURVE('',#1060,#1062,#1066,.T.);
#1068=ORIENTED_EDGE('',*,*,#1067,.F.);
#1069=CARTESIAN_POINT('',(-2.189999999999992,-3.810000000000002,-4.0));
#1070=VERTEX_POINT('',#1069);
#1071=CARTESIAN_POINT('',(-2.539999999999992,-3.810000000000002,-4.0));
#1072=DIRECTION('',(0.0,0.0,1.0));
#1073=DIRECTION('',(-1.0,0.0,0.0));
#1074=AXIS2_PLACEMENT_3D('',#1071,#1072,#1073);
#1075=CIRCLE('',#1074,0.35);
#1076=EDGE_CURVE('',#1060,#1070,#1075,.T.);
#1077=ORIENTED_EDGE('',*,*,#1076,.T.);
#1078=CARTESIAN_POINT('',(-2.189999999999992,-3.810000000000002,-1.724254E-047));
#1079=VERTEX_POINT('',#1078);
#1080=CARTESIAN_POINT('',(-2.189999999999992,-3.810000000000002,-4.0));
#1081=DIRECTION('',(0.0,0.0,1.0));
#1082=VECTOR('',#1081,4.0);
#1083=LINE('',#1080,#1082);
#1084=EDGE_CURVE('',#1070,#1079,#1083,.T.);
#1085=ORIENTED_EDGE('',*,*,#1084,.T.);
#1086=CARTESIAN_POINT('',(-2.539999999999992,-3.810000000000002,8.350022E-063));
#1087=DIRECTION('',(0.0,0.0,-1.0));
#1088=DIRECTION('',(-1.0,0.0,0.0));
#1089=AXIS2_PLACEMENT_3D('',#1086,#1087,#1088);
#1090=CIRCLE('',#1089,0.35);
#1091=EDGE_CURVE('',#1079,#1062,#1090,.T.);
#1092=ORIENTED_EDGE('',*,*,#1091,.T.);
#1093=EDGE_LOOP('',(#1068,#1077,#1085,#1092));
#1094=FACE_OUTER_BOUND('',#1093,.T.);
#1095=ADVANCED_FACE('',(#1094),#1058,.T.);
#1096=CARTESIAN_POINT('',(-2.539999999999992,-3.810000000000002,8.350022E-063));
#1097=DIRECTION('',(0.0,0.0,-1.0));
#1098=DIRECTION('',(-1.0,0.0,0.0));
#1099=AXIS2_PLACEMENT_3D('',#1096,#1097,#1098);
#1100=CYLINDRICAL_SURFACE('',#1099,0.35);
#1101=ORIENTED_EDGE('',*,*,#1067,.T.);
#1102=CARTESIAN_POINT('',(-2.539999999999992,-3.810000000000002,8.350022E-063));
#1103=DIRECTION('',(0.0,0.0,-1.0));
#1104=DIRECTION('',(-1.0,0.0,0.0));
#1105=AXIS2_PLACEMENT_3D('',#1102,#1103,#1104);
#1106=CIRCLE('',#1105,0.35);
#1107=EDGE_CURVE('',#1062,#1079,#1106,.T.);
#1108=ORIENTED_EDGE('',*,*,#1107,.T.);
#1109=ORIENTED_EDGE('',*,*,#1084,.F.);
#1110=CARTESIAN_POINT('',(-2.539999999999992,-3.810000000000002,-4.0));
#1111=DIRECTION('',(0.0,0.0,1.0));
#1112=DIRECTION('',(-1.0,0.0,0.0));
#1113=AXIS2_PLACEMENT_3D('',#1110,#1111,#1112);
#1114=CIRCLE('',#1113,0.35);
#1115=EDGE_CURVE('',#1070,#1060,#1114,.T.);
#1116=ORIENTED_EDGE('',*,*,#1115,.T.);
#1117=EDGE_LOOP('',(#1101,#1108,#1109,#1116));
#1118=FACE_OUTER_BOUND('',#1117,.T.);
#1119=ADVANCED_FACE('',(#1118),#1100,.T.);
#1120=CARTESIAN_POINT('',(-2.539999999999992,-3.810000000000002,-4.0));
#1121=DIRECTION('',(0.0,0.0,-1.0));
#1122=DIRECTION('',(-1.0,0.0,0.0));
#1123=AXIS2_PLACEMENT_3D('',#1120,#1121,#1122);
#1124=PLANE('',#1123);
#1125=ORIENTED_EDGE('',*,*,#1076,.F.);
#1126=ORIENTED_EDGE('',*,*,#1115,.F.);
#1127=EDGE_LOOP('',(#1125,#1126));
#1128=FACE_OUTER_BOUND('',#1127,.T.);
#1129=ADVANCED_FACE('',(#1128),#1124,.T.);
#1130=CARTESIAN_POINT('',(-2.539999999999992,-3.810000000000002,8.350022E-063));
#1131=DIRECTION('',(0.0,0.0,-1.0));
#1132=DIRECTION('',(-1.0,0.0,0.0));
#1133=AXIS2_PLACEMENT_3D('',#1130,#1131,#1132);
#1134=PLANE('',#1133);
#1135=ORIENTED_EDGE('',*,*,#1107,.F.);
#1136=ORIENTED_EDGE('',*,*,#1091,.F.);
#1137=EDGE_LOOP('',(#1135,#1136));
#1138=FACE_OUTER_BOUND('',#1137,.T.);
#1139=ADVANCED_FACE('',(#1138),#1134,.F.);
#1140=CLOSED_SHELL('',(#1095,#1119,#1129,#1139));
#1141=MANIFOLD_SOLID_BREP('121',#1140);
#1142=STYLED_ITEM('NONE',(#283),#1141);
#1143=CARTESIAN_POINT('',(0.680000000000061,-5.849999999999997,12.700000000000001));
#1144=DIRECTION('',(-0.707106781186548,3.220702E-016,0.707106781186547));
#1145=DIRECTION('',(0.707106781186547,0.0,0.707106781186548));
#1146=AXIS2_PLACEMENT_3D('',#1143,#1144,#1145);
#1147=PLANE('',#1146);
#1148=CARTESIAN_POINT('',(-1.319999999999938,5.849999999999996,10.699999999999998));
#1149=VERTEX_POINT('',#1148);
#1150=CARTESIAN_POINT('',(-1.319999999999943,-5.850000000000007,10.699999999999998));
#1151=VERTEX_POINT('',#1150);
#1152=CARTESIAN_POINT('',(-8.87562499999995,-3.724114E-015,3.144374999999982));
#1153=DIRECTION('',(0.707106781186548,-3.220702E-016,-0.707106781186547));
#1154=DIRECTION('',(0.707106781186547,-1.416625E-016,0.707106781186548));
#1155=AXIS2_PLACEMENT_3D('',#1152,#1153,#1154);
#1156=ELLIPSE('',#1155,13.513694471951425,9.555625000000012);
#1157=EDGE_CURVE('',#1149,#1151,#1156,.T.);
#1158=ORIENTED_EDGE('',*,*,#1157,.F.);
#1159=CARTESIAN_POINT('',(-5.319999999999933,5.850000000000005,6.7));
#1160=VERTEX_POINT('',#1159);
#1161=CARTESIAN_POINT('',(-5.319999999999933,5.850000000000008,6.699999999999999));
#1162=DIRECTION('',(0.707106781186547,-7.850462E-016,0.707106781186548));
#1163=VECTOR('',#1162,5.656854249492376);
#1164=LINE('',#1161,#1163);
#1165=EDGE_CURVE('',#1160,#1149,#1164,.T.);
#1166=ORIENTED_EDGE('',*,*,#1165,.F.);
#1167=CARTESIAN_POINT('',(-5.319999999999938,-5.849999999999994,6.7));
#1168=VERTEX_POINT('',#1167);
#1169=CARTESIAN_POINT('',(-5.319999999999955,-5.849999999999994,6.699999999999983));
#1170=DIRECTION('',(0.0,1.0,0.0));
#1171=VECTOR('',#1170,11.699999999999999);
#1172=LINE('',#1169,#1171);
#1173=EDGE_CURVE('',#1168,#1160,#1172,.T.);
#1174=ORIENTED_EDGE('',*,*,#1173,.F.);
#1175=CARTESIAN_POINT('',(-1.319999999999943,-5.849999999999999,10.699999999999998));
#1176=DIRECTION('',(-0.707106781186547,7.850462E-016,-0.707106781186548));
#1177=VECTOR('',#1176,5.656854249492374);
#1178=LINE('',#1175,#1177);
#1179=EDGE_CURVE('',#1151,#1168,#1178,.T.);
#1180=ORIENTED_EDGE('',*,*,#1179,.F.);
#1181=EDGE_LOOP('',(#1158,#1166,#1174,#1180));
#1182=FACE_OUTER_BOUND('',#1181,.T.);
#1183=ADVANCED_FACE('',(#1182),#1147,.T.);
#1184=CARTESIAN_POINT('',(7.980000000000049,-7.100986E-015,3.144374999999987));
#1185=DIRECTION('',(-1.0,2.003410E-016,-2.671213E-016));
#1186=DIRECTION('',(0.0,0.0,1.0));
#1187=AXIS2_PLACEMENT_3D('',#1184,#1185,#1186);
#1188=CYLINDRICAL_SURFACE('',#1187,9.555625000000012);
#1189=ORIENTED_EDGE('',*,*,#1157,.T.);
#1190=CARTESIAN_POINT('',(7.980000000000047,-5.850000000000009,10.699999999999999));
#1191=VERTEX_POINT('',#1190);
#1192=CARTESIAN_POINT('',(7.980000000000047,-5.850000000000009,10.699999999999999));
#1193=DIRECTION('',(-1.0,0.0,0.0));
#1194=VECTOR('',#1193,9.29999999999999);
#1195=LINE('',#1192,#1194);
#1196=EDGE_CURVE('',#1191,#1151,#1195,.T.);
#1197=ORIENTED_EDGE('',*,*,#1196,.F.);
#1198=CARTESIAN_POINT('',(7.980000000000048,5.849999999999994,10.699999999999999));
#1199=VERTEX_POINT('',#1198);
#1200=CARTESIAN_POINT('',(7.980000000000049,-7.100986E-015,3.144374999999987));
#1201=DIRECTION('',(1.0,0.0,0.0));
#1202=DIRECTION('',(0.0,0.0,1.0));
#1203=AXIS2_PLACEMENT_3D('',#1200,#1201,#1202);
#1204=CIRCLE('',#1203,9.555625000000012);
#1205=EDGE_CURVE('',#1199,#1191,#1204,.T.);
#1206=ORIENTED_EDGE('',*,*,#1205,.F.);
#1207=CARTESIAN_POINT('',(7.980000000000048,5.849999999999994,10.699999999999999));
#1208=DIRECTION('',(-1.0,0.0,0.0));
#1209=VECTOR('',#1208,9.299999999999987);
#1210=LINE('',#1207,#1209);
#1211=EDGE_CURVE('',#1199,#1149,#1210,.T.);
#1212=ORIENTED_EDGE('',*,*,#1211,.T.);
#1213=EDGE_LOOP('',(#1189,#1197,#1206,#1212));
#1214=FACE_OUTER_BOUND('',#1213,.T.);
#1215=ADVANCED_FACE('',(#1214),#1188,.T.);
#1216=CARTESIAN_POINT('',(7.980000000000047,-5.850000000000009,0.0));
#1217=DIRECTION('',(0.0,-1.0,0.0));
#1218=DIRECTION('',(0.0,0.0,-1.0));
#1219=AXIS2_PLACEMENT_3D('',#1216,#1217,#1218);
#1220=PLANE('',#1219);
#1221=ORIENTED_EDGE('',*,*,#1196,.T.);
#1222=ORIENTED_EDGE('',*,*,#1179,.T.);
#1223=CARTESIAN_POINT('',(-5.319999999999936,-5.849999999999994,0.0));
#1224=VERTEX_POINT('',#1223);
#1225=CARTESIAN_POINT('',(-5.319999999999936,-5.849999999999994,0.0));
#1226=DIRECTION('',(0.0,0.0,1.0));
#1227=VECTOR('',#1226,6.7);
#1228=LINE('',#1225,#1227);
#1229=EDGE_CURVE('',#1224,#1168,#1228,.T.);
#1230=ORIENTED_EDGE('',*,*,#1229,.F.);
#1231=CARTESIAN_POINT('',(7.980000000000047,-5.850000000000009,0.0));
#1232=VERTEX_POINT('',#1231);
#1233=CARTESIAN_POINT('',(7.980000000000047,-5.850000000000009,0.0));
#1234=DIRECTION('',(-1.0,0.0,0.0));
#1235=VECTOR('',#1234,13.299999999999983);
#1236=LINE('',#1233,#1235);
#1237=EDGE_CURVE('',#1232,#1224,#1236,.T.);
#1238=ORIENTED_EDGE('',*,*,#1237,.F.);
#1239=CARTESIAN_POINT('',(7.980000000000047,-5.850000000000009,0.0));
#1240=DIRECTION('',(0.0,0.0,1.0));
#1241=VECTOR('',#1240,10.699999999999999);
#1242=LINE('',#1239,#1241);
#1243=EDGE_CURVE('',#1232,#1191,#1242,.T.);
#1244=ORIENTED_EDGE('',*,*,#1243,.T.);
#1245=EDGE_LOOP('',(#1221,#1222,#1230,#1238,#1244));
#1246=FACE_OUTER_BOUND('',#1245,.T.);
#1247=ADVANCED_FACE('',(#1246),#1220,.T.);
#1248=CARTESIAN_POINT('',(-5.319999999999936,5.850000000000009,0.0));
#1249=DIRECTION('',(0.0,1.0,0.0));
#1250=DIRECTION('',(0.0,0.0,1.0));
#1251=AXIS2_PLACEMENT_3D('',#1248,#1249,#1250);
#1252=PLANE('',#1251);
#1253=ORIENTED_EDGE('',*,*,#1211,.F.);
#1254=CARTESIAN_POINT('',(7.980000000000047,5.849999999999994,0.0));
#1255=VERTEX_POINT('',#1254);
#1256=CARTESIAN_POINT('',(7.980000000000047,5.849999999999994,0.0));
#1257=DIRECTION('',(0.0,0.0,1.0));
#1258=VECTOR('',#1257,10.699999999999999);
#1259=LINE('',#1256,#1258);
#1260=EDGE_CURVE('',#1255,#1199,#1259,.T.);
#1261=ORIENTED_EDGE('',*,*,#1260,.F.);
#1262=CARTESIAN_POINT('',(-5.319999999999936,5.850000000000009,0.0));
#1263=VERTEX_POINT('',#1262);
#1264=CARTESIAN_POINT('',(-5.319999999999936,5.850000000000009,0.0));
#1265=DIRECTION('',(1.0,0.0,0.0));
#1266=VECTOR('',#1265,13.299999999999983);
#1267=LINE('',#1264,#1266);
#1268=EDGE_CURVE('',#1263,#1255,#1267,.T.);
#1269=ORIENTED_EDGE('',*,*,#1268,.F.);
#1270=CARTESIAN_POINT('',(-5.319999999999936,5.850000000000009,0.0));
#1271=DIRECTION('',(0.0,0.0,1.0));
#1272=VECTOR('',#1271,6.7);
#1273=LINE('',#1270,#1272);
#1274=EDGE_CURVE('',#1263,#1160,#1273,.T.);
#1275=ORIENTED_EDGE('',*,*,#1274,.T.);
#1276=ORIENTED_EDGE('',*,*,#1165,.T.);
#1277=EDGE_LOOP('',(#1253,#1261,#1269,#1275,#1276));
#1278=FACE_OUTER_BOUND('',#1277,.T.);
#1279=ADVANCED_FACE('',(#1278),#1252,.T.);
#1280=CARTESIAN_POINT('',(1.330000000000055,3.811093E-017,0.0));
#1281=DIRECTION('',(0.0,0.0,1.0));
#1282=DIRECTION('',(1.0,0.0,0.0));
#1283=AXIS2_PLACEMENT_3D('',#1280,#1281,#1282);
#1284=PLANE('',#1283);
#1285=ORIENTED_EDGE('',*,*,#1237,.T.);
#1286=CARTESIAN_POINT('',(-5.319999999999936,-5.849999999999994,0.0));
#1287=DIRECTION('',(0.0,1.0,0.0));
#1288=VECTOR('',#1287,11.700000000000003);
#1289=LINE('',#1286,#1288);
#1290=EDGE_CURVE('',#1224,#1263,#1289,.T.);
#1291=ORIENTED_EDGE('',*,*,#1290,.T.);
#1292=ORIENTED_EDGE('',*,*,#1268,.T.);
#1293=CARTESIAN_POINT('',(7.980000000000047,5.849999999999994,0.0));
#1294=DIRECTION('',(0.0,-1.0,0.0));
#1295=VECTOR('',#1294,11.700000000000003);
#1296=LINE('',#1293,#1295);
#1297=EDGE_CURVE('',#1255,#1232,#1296,.T.);
#1298=ORIENTED_EDGE('',*,*,#1297,.T.);
#1299=EDGE_LOOP('',(#1285,#1291,#1292,#1298));
#1300=FACE_OUTER_BOUND('',#1299,.T.);
#1301=ADVANCED_FACE('',(#1300),#1284,.F.);
#1302=CARTESIAN_POINT('',(-5.319999999999954,-4.243478E-015,11.317627165387103));
#1303=DIRECTION('',(1.0,0.0,0.0));
#1304=DIRECTION('',(0.0,0.0,-1.0));
#1305=AXIS2_PLACEMENT_3D('',#1302,#1303,#1304);
#1306=PLANE('',#1305);
#1307=ORIENTED_EDGE('',*,*,#1173,.T.);
#1308=ORIENTED_EDGE('',*,*,#1274,.F.);
#1309=ORIENTED_EDGE('',*,*,#1290,.F.);
#1310=ORIENTED_EDGE('',*,*,#1229,.T.);
#1311=EDGE_LOOP('',(#1307,#1308,#1309,#1310));
#1312=FACE_OUTER_BOUND('',#1311,.T.);
#1313=ADVANCED_FACE('',(#1312),#1306,.F.);
#1314=CARTESIAN_POINT('',(7.980000000000047,-6.908013E-015,11.317627165387107));
#1315=DIRECTION('',(1.0,0.0,0.0));
#1316=DIRECTION('',(0.0,0.0,-1.0));
#1317=AXIS2_PLACEMENT_3D('',#1314,#1315,#1316);
#1318=PLANE('',#1317);
#1319=ORIENTED_EDGE('',*,*,#1205,.T.);
#1320=ORIENTED_EDGE('',*,*,#1243,.F.);
#1321=ORIENTED_EDGE('',*,*,#1297,.F.);
#1322=ORIENTED_EDGE('',*,*,#1260,.T.);
#1323=EDGE_LOOP('',(#1319,#1320,#1321,#1322));
#1324=FACE_OUTER_BOUND('',#1323,.T.);
#1325=ADVANCED_FACE('',(#1324),#1318,.T.);
#1326=CLOSED_SHELL('',(#1183,#1215,#1247,#1279,#1301,#1313,#1325));
#1327=MANIFOLD_SOLID_BREP('105',#1326);
#1328=COLOUR_RGB('38',0.15,0.075,0.0);
#1329=SURFACE_STYLE_USAGE(.BOTH.,#1330);
#1330=SURFACE_SIDE_STYLE('NONE',(#1331));
#1331=SURFACE_STYLE_FILL_AREA(#1332);
#1332=FILL_AREA_STYLE('NONE',(#1333));
#1333=FILL_AREA_STYLE_COLOUR('NONE',#1328);
#1334=PRESENTATION_STYLE_ASSIGNMENT((#1329));
#1335=STYLED_ITEM('NONE',(#1334),#1327);
#1336=CARTESIAN_POINT('',(7.980000000000046,-6.656897E-015,6.7));
#1337=DIRECTION('',(1.0,-2.277381E-016,2.277381E-016));
#1338=DIRECTION('',(0.0,1.0,0.0));
#1339=AXIS2_PLACEMENT_3D('',#1336,#1337,#1338);
#1340=CYLINDRICAL_SURFACE('',#1339,3.7);
#1341=CARTESIAN_POINT('',(7.980000000000047,3.699999999999994,6.7));
#1342=VERTEX_POINT('',#1341);
#1343=CARTESIAN_POINT('',(19.680000000000046,3.699999999999991,6.700000000000003));
#1344=VERTEX_POINT('',#1343);
#1345=CARTESIAN_POINT('',(7.980000000000047,3.699999999999994,6.7));
#1346=DIRECTION('',(1.0,0.0,0.0));
#1347=VECTOR('',#1346,11.699999999999999);
#1348=LINE('',#1345,#1347);
#1349=EDGE_CURVE('',#1342,#1344,#1348,.T.);
#1350=ORIENTED_EDGE('',*,*,#1349,.F.);
#1351=CARTESIAN_POINT('',(7.980000000000045,-3.700000000000007,6.699999999999999));
#1352=VERTEX_POINT('',#1351);
#1353=CARTESIAN_POINT('',(7.980000000000046,-6.656897E-015,6.7));
#1354=DIRECTION('',(1.0,0.0,0.0));
#1355=DIRECTION('',(0.0,1.0,0.0));
#1356=AXIS2_PLACEMENT_3D('',#1353,#1354,#1355);
#1357=CIRCLE('',#1356,3.7);
#1358=EDGE_CURVE('',#1352,#1342,#1357,.T.);
#1359=ORIENTED_EDGE('',*,*,#1358,.F.);
#1360=CARTESIAN_POINT('',(19.680000000000049,-3.70000000000001,6.700000000000002));
#1361=VERTEX_POINT('',#1360);
#1362=CARTESIAN_POINT('',(7.980000000000045,-3.700000000000007,6.699999999999999));
#1363=DIRECTION('',(1.0,0.0,0.0));
#1364=VECTOR('',#1363,11.700000000000005);
#1365=LINE('',#1362,#1364);
#1366=EDGE_CURVE('',#1352,#1361,#1365,.T.);
#1367=ORIENTED_EDGE('',*,*,#1366,.T.);
#1368=CARTESIAN_POINT('',(19.680000000000049,-9.321433E-015,6.700000000000003));
#1369=DIRECTION('',(-1.0,0.0,0.0));
#1370=DIRECTION('',(0.0,1.0,0.0));
#1371=AXIS2_PLACEMENT_3D('',#1368,#1369,#1370);
#1372=CIRCLE('',#1371,3.7);
#1373=EDGE_CURVE('',#1344,#1361,#1372,.T.);
#1374=ORIENTED_EDGE('',*,*,#1373,.F.);
#1375=EDGE_LOOP('',(#1350,#1359,#1367,#1374));
#1376=FACE_OUTER_BOUND('',#1375,.T.);
#1377=ADVANCED_FACE('',(#1376),#1340,.F.);
#1378=CARTESIAN_POINT('',(7.980000000000046,-6.656897E-015,6.7));
#1379=DIRECTION('',(1.0,-2.379049E-016,2.379049E-016));
#1380=DIRECTION('',(0.0,1.0,0.0));
#1381=AXIS2_PLACEMENT_3D('',#1378,#1379,#1380);
#1382=CYLINDRICAL_SURFACE('',#1381,4.5);
#1383=CARTESIAN_POINT('',(19.280000000000047,4.499999999999989,6.700000000000003));
#1384=VERTEX_POINT('',#1383);
#1385=CARTESIAN_POINT('',(7.980000000000047,4.499999999999994,6.7));
#1386=VERTEX_POINT('',#1385);
#1387=CARTESIAN_POINT('',(19.280000000000047,4.499999999999991,6.700000000000003));
#1388=DIRECTION('',(-1.0,0.0,0.0));
#1389=VECTOR('',#1388,11.300000000000001);
#1390=LINE('',#1387,#1389);
#1391=EDGE_CURVE('',#1384,#1386,#1390,.T.);
#1392=ORIENTED_EDGE('',*,*,#1391,.F.);
#1393=CARTESIAN_POINT('',(19.280000000000047,-4.50000000000001,6.700000000000002));
#1394=VERTEX_POINT('',#1393);
#1395=CARTESIAN_POINT('',(19.280000000000047,-9.345223E-015,6.700000000000003));
#1396=DIRECTION('',(1.0,0.0,0.0));
#1397=DIRECTION('',(0.0,1.0,0.0));
#1398=AXIS2_PLACEMENT_3D('',#1395,#1396,#1397);
#1399=CIRCLE('',#1398,4.5);
#1400=EDGE_CURVE('',#1394,#1384,#1399,.T.);
#1401=ORIENTED_EDGE('',*,*,#1400,.F.);
#1402=CARTESIAN_POINT('',(7.980000000000045,-4.500000000000006,6.699999999999999));
#1403=VERTEX_POINT('',#1402);
#1404=CARTESIAN_POINT('',(19.280000000000047,-4.500000000000009,6.700000000000002));
#1405=DIRECTION('',(-1.0,0.0,0.0));
#1406=VECTOR('',#1405,11.300000000000002);
#1407=LINE('',#1404,#1406);
#1408=EDGE_CURVE('',#1394,#1403,#1407,.T.);
#1409=ORIENTED_EDGE('',*,*,#1408,.T.);
#1410=CARTESIAN_POINT('',(7.980000000000046,-6.656897E-015,6.7));
#1411=DIRECTION('',(1.0,0.0,0.0));
#1412=DIRECTION('',(0.0,1.0,0.0));
#1413=AXIS2_PLACEMENT_3D('',#1410,#1411,#1412);
#1414=CIRCLE('',#1413,4.5);
#1415=EDGE_CURVE('',#1403,#1386,#1414,.T.);
#1416=ORIENTED_EDGE('',*,*,#1415,.T.);
#1417=EDGE_LOOP('',(#1392,#1401,#1409,#1416));
#1418=FACE_OUTER_BOUND('',#1417,.T.);
#1419=ADVANCED_FACE('',(#1418),#1382,.T.);
#1420=CARTESIAN_POINT('',(19.480000000000047,-9.389632E-015,6.700000000000003));
#1421=DIRECTION('',(-1.0,2.220446E-016,0.0));
#1422=DIRECTION('',(0.0,1.0,0.0));
#1423=AXIS2_PLACEMENT_3D('',#1420,#1421,#1422);
#1424=CONICAL_SURFACE('',#1423,4.3,44.999999999999858);
#1425=CARTESIAN_POINT('',(19.680000000000049,4.099999999999988,6.700000000000003));
#1426=VERTEX_POINT('',#1425);
#1427=CARTESIAN_POINT('',(19.280000000000047,4.499999999999989,6.700000000000003));
#1428=DIRECTION('',(0.707106781186549,-0.707106781186546,0.0));
#1429=VECTOR('',#1428,0.56568542494924);
#1430=LINE('',#1427,#1429);
#1431=EDGE_CURVE('',#1384,#1426,#1430,.T.);
#1432=ORIENTED_EDGE('',*,*,#1431,.F.);
#1433=CARTESIAN_POINT('',(19.280000000000047,-9.345223E-015,6.700000000000003));
#1434=DIRECTION('',(1.0,0.0,0.0));
#1435=DIRECTION('',(0.0,1.0,0.0));
#1436=AXIS2_PLACEMENT_3D('',#1433,#1434,#1435);
#1437=CIRCLE('',#1436,4.5);
#1438=EDGE_CURVE('',#1384,#1394,#1437,.T.);
#1439=ORIENTED_EDGE('',*,*,#1438,.T.);
#1440=CARTESIAN_POINT('',(19.680000000000049,-4.100000000000009,6.700000000000004));
#1441=VERTEX_POINT('',#1440);
#1442=CARTESIAN_POINT('',(19.280000000000047,-4.500000000000008,6.700000000000004));
#1443=DIRECTION('',(0.70710678118655,0.707106781186545,0.0));
#1444=VECTOR('',#1443,0.565685424949239);
#1445=LINE('',#1442,#1444);
#1446=EDGE_CURVE('',#1394,#1441,#1445,.T.);
#1447=ORIENTED_EDGE('',*,*,#1446,.T.);
#1448=CARTESIAN_POINT('',(19.680000000000049,-9.434041E-015,6.700000000000003));
#1449=DIRECTION('',(-1.0,0.0,0.0));
#1450=DIRECTION('',(0.0,1.0,0.0));
#1451=AXIS2_PLACEMENT_3D('',#1448,#1449,#1450);
#1452=CIRCLE('',#1451,4.1);
#1453=EDGE_CURVE('',#1441,#1426,#1452,.T.);
#1454=ORIENTED_EDGE('',*,*,#1453,.T.);
#1455=EDGE_LOOP('',(#1432,#1439,#1447,#1454));
#1456=FACE_OUTER_BOUND('',#1455,.T.);
#1457=ADVANCED_FACE('',(#1456),#1424,.T.);
#1458=CARTESIAN_POINT('',(19.480000000000047,-9.389632E-015,6.700000000000003));
#1459=DIRECTION('',(-1.0,2.220446E-016,0.0));
#1460=DIRECTION('',(0.0,1.0,0.0));
#1461=AXIS2_PLACEMENT_3D('',#1458,#1459,#1460);
#1462=CONICAL_SURFACE('',#1461,4.3,44.999999999999858);
#1463=ORIENTED_EDGE('',*,*,#1431,.T.);
#1464=CARTESIAN_POINT('',(19.680000000000049,-9.434041E-015,6.700000000000003));
#1465=DIRECTION('',(-1.0,0.0,0.0));
#1466=DIRECTION('',(0.0,1.0,0.0));
#1467=AXIS2_PLACEMENT_3D('',#1464,#1465,#1466);
#1468=CIRCLE('',#1467,4.1);
#1469=EDGE_CURVE('',#1426,#1441,#1468,.T.);
#1470=ORIENTED_EDGE('',*,*,#1469,.T.);
#1471=ORIENTED_EDGE('',*,*,#1446,.F.);
#1472=ORIENTED_EDGE('',*,*,#1400,.T.);
#1473=EDGE_LOOP('',(#1463,#1470,#1471,#1472));
#1474=FACE_OUTER_BOUND('',#1473,.T.);
#1475=ADVANCED_FACE('',(#1474),#1462,.T.);
#1476=CARTESIAN_POINT('',(7.980000000000046,-6.656897E-015,6.7));
#1477=DIRECTION('',(1.0,-2.379049E-016,2.379049E-016));
#1478=DIRECTION('',(0.0,1.0,0.0));
#1479=AXIS2_PLACEMENT_3D('',#1476,#1477,#1478);
#1480=CYLINDRICAL_SURFACE('',#1479,4.5);
#1481=ORIENTED_EDGE('',*,*,#1391,.T.);
#1482=CARTESIAN_POINT('',(7.980000000000046,-6.656897E-015,6.7));
#1483=DIRECTION('',(1.0,0.0,0.0));
#1484=DIRECTION('',(0.0,1.0,0.0));
#1485=AXIS2_PLACEMENT_3D('',#1482,#1483,#1484);
#1486=CIRCLE('',#1485,4.5);
#1487=EDGE_CURVE('',#1386,#1403,#1486,.T.);
#1488=ORIENTED_EDGE('',*,*,#1487,.T.);
#1489=ORIENTED_EDGE('',*,*,#1408,.F.);
#1490=ORIENTED_EDGE('',*,*,#1438,.F.);
#1491=EDGE_LOOP('',(#1481,#1488,#1489,#1490));
#1492=FACE_OUTER_BOUND('',#1491,.T.);
#1493=ADVANCED_FACE('',(#1492),#1480,.T.);
#1494=CARTESIAN_POINT('',(19.680000000000049,-1.000109E-014,10.400000000000002));
#1495=DIRECTION('',(1.0,0.0,0.0));
#1496=DIRECTION('',(0.0,0.0,-1.0));
#1497=AXIS2_PLACEMENT_3D('',#1494,#1495,#1496);
#1498=PLANE('',#1497);
#1499=ORIENTED_EDGE('',*,*,#1453,.F.);
#1500=ORIENTED_EDGE('',*,*,#1469,.F.);
#1501=EDGE_LOOP('',(#1499,#1500));
#1502=FACE_OUTER_BOUND('',#1501,.T.);
#1503=ORIENTED_EDGE('',*,*,#1373,.T.);
#1504=CARTESIAN_POINT('',(19.680000000000049,-9.321433E-015,6.700000000000003));
#1505=DIRECTION('',(-1.0,0.0,0.0));
#1506=DIRECTION('',(0.0,1.0,0.0));
#1507=AXIS2_PLACEMENT_3D('',#1504,#1505,#1506);
#1508=CIRCLE('',#1507,3.7);
#1509=EDGE_CURVE('',#1361,#1344,#1508,.T.);
#1510=ORIENTED_EDGE('',*,*,#1509,.T.);
#1511=EDGE_LOOP('',(#1503,#1510));
#1512=FACE_BOUND('',#1511,.T.);
#1513=ADVANCED_FACE('',(#1502,#1512),#1498,.T.);
#1514=CARTESIAN_POINT('',(7.980000000000046,-6.656897E-015,6.7));
#1515=DIRECTION('',(1.0,-2.277381E-016,2.277381E-016));
#1516=DIRECTION('',(0.0,1.0,0.0));
#1517=AXIS2_PLACEMENT_3D('',#1514,#1515,#1516);
#1518=CYLINDRICAL_SURFACE('',#1517,3.7);
#1519=ORIENTED_EDGE('',*,*,#1349,.T.);
#1520=ORIENTED_EDGE('',*,*,#1509,.F.);
#1521=ORIENTED_EDGE('',*,*,#1366,.F.);
#1522=CARTESIAN_POINT('',(7.980000000000046,-6.656897E-015,6.7));
#1523=DIRECTION('',(1.0,0.0,0.0));
#1524=DIRECTION('',(0.0,1.0,0.0));
#1525=AXIS2_PLACEMENT_3D('',#1522,#1523,#1524);
#1526=CIRCLE('',#1525,3.7);
#1527=EDGE_CURVE('',#1342,#1352,#1526,.T.);
#1528=ORIENTED_EDGE('',*,*,#1527,.F.);
#1529=EDGE_LOOP('',(#1519,#1520,#1521,#1528));
#1530=FACE_OUTER_BOUND('',#1529,.T.);
#1531=ADVANCED_FACE('',(#1530),#1518,.F.);
#1532=CARTESIAN_POINT('',(7.980000000000046,-6.656897E-015,6.7));
#1533=DIRECTION('',(1.0,0.0,0.0));
#1534=DIRECTION('',(0.0,0.0,-1.0));
#1535=AXIS2_PLACEMENT_3D('',#1532,#1533,#1534);
#1536=PLANE('',#1535);
#1537=ORIENTED_EDGE('',*,*,#1487,.F.);
#1538=ORIENTED_EDGE('',*,*,#1415,.F.);
#1539=EDGE_LOOP('',(#1537,#1538));
#1540=FACE_OUTER_BOUND('',#1539,.T.);
#1541=ORIENTED_EDGE('',*,*,#1527,.T.);
#1542=ORIENTED_EDGE('',*,*,#1358,.T.);
#1543=EDGE_LOOP('',(#1541,#1542));
#1544=FACE_BOUND('',#1543,.T.);
#1545=ADVANCED_FACE('',(#1540,#1544),#1536,.F.);
#1546=CLOSED_SHELL('',(#1377,#1419,#1457,#1475,#1493,#1513,#1531,#1545));
#1547=MANIFOLD_SOLID_BREP('FA',#1546);
#1548=COLOUR_RGB('254',0.866,0.866,0.866);
#1549=SURFACE_STYLE_USAGE(.BOTH.,#1550);
#1550=SURFACE_SIDE_STYLE('NONE',(#1551));
#1551=SURFACE_STYLE_FILL_AREA(#1552);
#1552=FILL_AREA_STYLE('NONE',(#1553));
#1553=FILL_AREA_STYLE_COLOUR('NONE',#1548);
#1554=PRESENTATION_STYLE_ASSIGNMENT((#1549));
#1555=STYLED_ITEM('NONE',(#1554),#1547);
#1556=ADVANCED_BREP_SHAPE_REPRESENTATION('ABSR1',(#152,#276,#446,#607,#696,#785,#874,#963,#1052,#1141,#1327,#1547),#28);
#1557=SHAPE_REPRESENTATION_RELATIONSHIP('SRRPL1','',#1556,#62);
ENDSEC;
END-ISO-10303-21;
