ISO-10303-21;
HEADER;
/* Generated by software containing ST-Developer
 * from STEP Tools, Inc. (www.steptools.com) 
 */

FILE_DESCRIPTION(
/* description */ (''),
/* implementation_level */ '2;1');

FILE_NAME(
/* name */ 
'G:\\Applications\\Altium\\CernLib\\StepLib\\LEMO_HET.2M.308.XLNP_part
2.stp',
/* time_stamp */ '2016-02-02T13:49:23+01:00',
/* author */ ('riccim'),
/* organization */ (''),
/* preprocessor_version */ 'ST-DEVELOPER v15.5',
/* originating_system */ 'AutoCAD Mechanical',
/* authorisation */ ', , ');

FILE_SCHEMA (('AUTOMOTIVE_DESIGN { 1 0 10303 214 3 1 1 }'));
ENDSEC;

DATA;
#10=MECHANICAL_DESIGN_GEOMETRIC_PRESENTATION_REPRESENTATION('',(#17),#265);
#11=DIMENSIONAL_EXPONENTS(0.,0.,0.,0.,0.,0.,0.);
#12=(
CONVERSION_BASED_UNIT('degree',#13)
NAMED_UNIT(#11)
PLANE_ANGLE_UNIT()
);
#13=PLANE_ANGLE_MEASURE_WITH_UNIT(PLANE_ANGLE_MEASURE(0.01745329252),#268);
#14=PRESENTATION_LAYER_ASSIGNMENT('3D','',(#150));
#15=SHAPE_REPRESENTATION_RELATIONSHIP('SRR','None',#271,#16);
#16=ADVANCED_BREP_SHAPE_REPRESENTATION($,(#150),#264);
#17=STYLED_ITEM($,(#281),#150);
#18=CONICAL_SURFACE($,#161,9.865,0.523540617207928);
#19=CONICAL_SURFACE($,#164,9.865,0.523540617207928);
#20=LINE($,#228,#24);
#21=LINE($,#233,#25);
#22=LINE($,#243,#26);
#23=LINE($,#248,#27);
#24=VECTOR($,#181,4.09531439566323);
#25=VECTOR($,#182,10.8166538263608);
#26=VECTOR($,#189,10.8166538263524);
#27=VECTOR($,#190,4.09531439572491);
#28=(
BOUNDED_CURVE()
B_SPLINE_CURVE(2,(#224,#225,#226),.UNSPECIFIED.,.F.,.F.)
B_SPLINE_CURVE_WITH_KNOTS((3,3),(0.,4.0327991004035),.UNSPECIFIED.)
CURVE()
GEOMETRIC_REPRESENTATION_ITEM()
RATIONAL_B_SPLINE_CURVE((1.,1.01483015810596,1.))
REPRESENTATION_ITEM($)
);
#29=(
BOUNDED_CURVE()
B_SPLINE_CURVE(2,(#230,#231,#232),.UNSPECIFIED.,.F.,.F.)
B_SPLINE_CURVE_WITH_KNOTS((3,3),(0.,4.0327991004035),.UNSPECIFIED.)
CURVE()
GEOMETRIC_REPRESENTATION_ITEM()
RATIONAL_B_SPLINE_CURVE((1.,1.01483015810591,1.))
REPRESENTATION_ITEM($)
);
#30=(
BOUNDED_CURVE()
B_SPLINE_CURVE(2,(#239,#240,#241),.UNSPECIFIED.,.F.,.F.)
B_SPLINE_CURVE_WITH_KNOTS((3,3),(0.,4.03279910038704),.UNSPECIFIED.)
CURVE()
GEOMETRIC_REPRESENTATION_ITEM()
RATIONAL_B_SPLINE_CURVE((1.,1.01483015810579,1.))
REPRESENTATION_ITEM($)
);
#31=(
BOUNDED_CURVE()
B_SPLINE_CURVE(2,(#245,#246,#247),.UNSPECIFIED.,.F.,.F.)
B_SPLINE_CURVE_WITH_KNOTS((3,3),(0.,4.03279910038704),.UNSPECIFIED.)
CURVE()
GEOMETRIC_REPRESENTATION_ITEM()
RATIONAL_B_SPLINE_CURVE((1.,1.01483015810578,1.))
REPRESENTATION_ITEM($)
);
#32=PLANE($,#155);
#33=PLANE($,#156);
#34=PLANE($,#158);
#35=PLANE($,#159);
#36=PLANE($,#169);
#37=PLANE($,#170);
#38=FACE_BOUND($,#53,.T.);
#39=FACE_BOUND($,#61,.T.);
#40=FACE_BOUND($,#63,.T.);
#41=FACE_BOUND($,#65,.T.);
#42=FACE_OUTER_BOUND($,#52,.T.);
#43=FACE_OUTER_BOUND($,#54,.T.);
#44=FACE_OUTER_BOUND($,#55,.T.);
#45=FACE_OUTER_BOUND($,#56,.T.);
#46=FACE_OUTER_BOUND($,#57,.T.);
#47=FACE_OUTER_BOUND($,#58,.T.);
#48=FACE_OUTER_BOUND($,#59,.T.);
#49=FACE_OUTER_BOUND($,#60,.T.);
#50=FACE_OUTER_BOUND($,#62,.T.);
#51=FACE_OUTER_BOUND($,#64,.T.);
#52=EDGE_LOOP($,(#103));
#53=EDGE_LOOP($,(#104));
#54=EDGE_LOOP($,(#105,#106,#107,#108));
#55=EDGE_LOOP($,(#109,#110));
#56=EDGE_LOOP($,(#111,#112,#113,#114));
#57=EDGE_LOOP($,(#115,#116));
#58=EDGE_LOOP($,(#117,#118,#119,#120));
#59=EDGE_LOOP($,(#121,#122,#123,#124));
#60=EDGE_LOOP($,(#125));
#61=EDGE_LOOP($,(#126,#127,#128,#129));
#62=EDGE_LOOP($,(#130,#131,#132,#133));
#63=EDGE_LOOP($,(#134));
#64=EDGE_LOOP($,(#135));
#65=EDGE_LOOP($,(#136));
#66=CIRCLE($,#153,8.40074475975155);
#67=CIRCLE($,#154,8.40074475975155);
#68=CIRCLE($,#157,10.5);
#69=CIRCLE($,#160,10.5);
#70=CIRCLE($,#162,9.23);
#71=CIRCLE($,#163,10.5);
#72=CIRCLE($,#165,10.5);
#73=CIRCLE($,#166,9.23);
#74=CIRCLE($,#168,10.5);
#75=VERTEX_POINT($,#217);
#76=VERTEX_POINT($,#219);
#77=VERTEX_POINT($,#222);
#78=VERTEX_POINT($,#223);
#79=VERTEX_POINT($,#227);
#80=VERTEX_POINT($,#229);
#81=VERTEX_POINT($,#237);
#82=VERTEX_POINT($,#238);
#83=VERTEX_POINT($,#242);
#84=VERTEX_POINT($,#244);
#85=VERTEX_POINT($,#258);
#86=EDGE_CURVE($,#75,#75,#66,.T.);
#87=EDGE_CURVE($,#76,#76,#67,.T.);
#88=EDGE_CURVE($,#77,#78,#28,.T.);
#89=EDGE_CURVE($,#79,#77,#20,.T.);
#90=EDGE_CURVE($,#80,#79,#29,.T.);
#91=EDGE_CURVE($,#78,#80,#21,.T.);
#92=EDGE_CURVE($,#80,#78,#68,.T.);
#93=EDGE_CURVE($,#81,#82,#30,.T.);
#94=EDGE_CURVE($,#83,#81,#22,.T.);
#95=EDGE_CURVE($,#84,#83,#31,.T.);
#96=EDGE_CURVE($,#82,#84,#23,.T.);
#97=EDGE_CURVE($,#81,#83,#69,.T.);
#98=EDGE_CURVE($,#79,#84,#70,.T.);
#99=EDGE_CURVE($,#83,#80,#71,.T.);
#100=EDGE_CURVE($,#78,#81,#72,.T.);
#101=EDGE_CURVE($,#82,#77,#73,.T.);
#102=EDGE_CURVE($,#85,#85,#74,.T.);
#103=ORIENTED_EDGE($,*,*,#86,.F.);
#104=ORIENTED_EDGE($,*,*,#87,.F.);
#105=ORIENTED_EDGE($,*,*,#88,.F.);
#106=ORIENTED_EDGE($,*,*,#89,.F.);
#107=ORIENTED_EDGE($,*,*,#90,.F.);
#108=ORIENTED_EDGE($,*,*,#91,.F.);
#109=ORIENTED_EDGE($,*,*,#92,.T.);
#110=ORIENTED_EDGE($,*,*,#91,.T.);
#111=ORIENTED_EDGE($,*,*,#93,.F.);
#112=ORIENTED_EDGE($,*,*,#94,.F.);
#113=ORIENTED_EDGE($,*,*,#95,.F.);
#114=ORIENTED_EDGE($,*,*,#96,.F.);
#115=ORIENTED_EDGE($,*,*,#94,.T.);
#116=ORIENTED_EDGE($,*,*,#97,.T.);
#117=ORIENTED_EDGE($,*,*,#90,.T.);
#118=ORIENTED_EDGE($,*,*,#98,.T.);
#119=ORIENTED_EDGE($,*,*,#95,.T.);
#120=ORIENTED_EDGE($,*,*,#99,.T.);
#121=ORIENTED_EDGE($,*,*,#88,.T.);
#122=ORIENTED_EDGE($,*,*,#100,.T.);
#123=ORIENTED_EDGE($,*,*,#93,.T.);
#124=ORIENTED_EDGE($,*,*,#101,.T.);
#125=ORIENTED_EDGE($,*,*,#102,.T.);
#126=ORIENTED_EDGE($,*,*,#92,.F.);
#127=ORIENTED_EDGE($,*,*,#99,.F.);
#128=ORIENTED_EDGE($,*,*,#97,.F.);
#129=ORIENTED_EDGE($,*,*,#100,.F.);
#130=ORIENTED_EDGE($,*,*,#89,.T.);
#131=ORIENTED_EDGE($,*,*,#101,.F.);
#132=ORIENTED_EDGE($,*,*,#96,.T.);
#133=ORIENTED_EDGE($,*,*,#98,.F.);
#134=ORIENTED_EDGE($,*,*,#86,.T.);
#135=ORIENTED_EDGE($,*,*,#102,.F.);
#136=ORIENTED_EDGE($,*,*,#87,.T.);
#137=CYLINDRICAL_SURFACE($,#152,8.40074475975155);
#138=CYLINDRICAL_SURFACE($,#167,10.5);
#139=ADVANCED_FACE($,(#42,#38),#137,.F.);
#140=ADVANCED_FACE($,(#43),#32,.F.);
#141=ADVANCED_FACE($,(#44),#33,.T.);
#142=ADVANCED_FACE($,(#45),#34,.F.);
#143=ADVANCED_FACE($,(#46),#35,.T.);
#144=ADVANCED_FACE($,(#47),#18,.T.);
#145=ADVANCED_FACE($,(#48),#19,.T.);
#146=ADVANCED_FACE($,(#49,#39),#138,.T.);
#147=ADVANCED_FACE($,(#50,#40),#36,.T.);
#148=ADVANCED_FACE($,(#51,#41),#37,.F.);
#149=CLOSED_SHELL($,(#139,#140,#141,#142,#143,#144,#145,#146,#147,#148));
#150=MANIFOLD_SOLID_BREP('3E32',#149);
#151=AXIS2_PLACEMENT_3D('placement',#215,#171,#172);
#152=AXIS2_PLACEMENT_3D($,#216,#173,#174);
#153=AXIS2_PLACEMENT_3D($,#218,#175,#176);
#154=AXIS2_PLACEMENT_3D($,#220,#177,#178);
#155=AXIS2_PLACEMENT_3D($,#221,#179,#180);
#156=AXIS2_PLACEMENT_3D($,#234,#183,#184);
#157=AXIS2_PLACEMENT_3D($,#235,#185,#186);
#158=AXIS2_PLACEMENT_3D($,#236,#187,#188);
#159=AXIS2_PLACEMENT_3D($,#249,#191,#192);
#160=AXIS2_PLACEMENT_3D($,#250,#193,#194);
#161=AXIS2_PLACEMENT_3D($,#251,#195,#196);
#162=AXIS2_PLACEMENT_3D($,#252,#197,#198);
#163=AXIS2_PLACEMENT_3D($,#253,#199,#200);
#164=AXIS2_PLACEMENT_3D($,#254,#201,#202);
#165=AXIS2_PLACEMENT_3D($,#255,#203,#204);
#166=AXIS2_PLACEMENT_3D($,#256,#205,#206);
#167=AXIS2_PLACEMENT_3D($,#257,#207,#208);
#168=AXIS2_PLACEMENT_3D($,#259,#209,#210);
#169=AXIS2_PLACEMENT_3D($,#260,#211,#212);
#170=AXIS2_PLACEMENT_3D($,#261,#213,#214);
#171=DIRECTION('axis',(0.,0.,1.));
#172=DIRECTION('refdir',(1.,0.,0.));
#173=DIRECTION('center_axis',(0.,0.,1.));
#174=DIRECTION('ref_axis',(1.,0.,0.));
#175=DIRECTION('center_axis',(0.,0.,-1.));
#176=DIRECTION('ref_axis',(1.,0.,0.));
#177=DIRECTION('center_axis',(0.,0.,1.));
#178=DIRECTION('ref_axis',(1.,0.,0.));
#179=DIRECTION('center_axis',(-1.,-1.72928133035924E-12,0.));
#180=DIRECTION('ref_axis',(0.,0.,1.));
#181=DIRECTION($,(-1.72928133035924E-12,1.,0.));
#182=DIRECTION($,(1.72928133035924E-12,-1.,0.));
#183=DIRECTION('center_axis',(3.12840380082652E-30,-1.55686642669545E-32,
1.));
#184=DIRECTION('ref_axis',(1.,0.,0.));
#185=DIRECTION('center_axis',(0.,0.,1.));
#186=DIRECTION('ref_axis',(-1.,0.,0.));
#187=DIRECTION('center_axis',(1.,-4.32402444714096E-13,0.));
#188=DIRECTION('ref_axis',(0.,0.,-1.));
#189=DIRECTION($,(4.32402444714096E-13,1.,0.));
#190=DIRECTION($,(-4.32402444714096E-13,-1.,0.));
#191=DIRECTION('center_axis',(-1.34074448607083E-30,-7.78433213554065E-33,
1.));
#192=DIRECTION('ref_axis',(1.,0.,0.));
#193=DIRECTION('center_axis',(0.,0.,1.));
#194=DIRECTION('ref_axis',(-1.,0.,0.));
#195=DIRECTION('center_axis',(0.,0.,-1.));
#196=DIRECTION('ref_axis',(-1.,0.,0.));
#197=DIRECTION('center_axis',(0.,0.,-1.));
#198=DIRECTION('ref_axis',(-1.,0.,0.));
#199=DIRECTION('center_axis',(0.,0.,1.));
#200=DIRECTION('ref_axis',(-1.,0.,0.));
#201=DIRECTION('center_axis',(0.,0.,-1.));
#202=DIRECTION('ref_axis',(-1.,0.,0.));
#203=DIRECTION('center_axis',(0.,0.,1.));
#204=DIRECTION('ref_axis',(-1.,0.,0.));
#205=DIRECTION('center_axis',(0.,0.,-1.));
#206=DIRECTION('ref_axis',(-1.,0.,0.));
#207=DIRECTION('center_axis',(0.,0.,1.));
#208=DIRECTION('ref_axis',(1.,0.,0.));
#209=DIRECTION('center_axis',(0.,0.,1.));
#210=DIRECTION('ref_axis',(1.,0.,0.));
#211=DIRECTION('center_axis',(0.,0.,1.));
#212=DIRECTION('ref_axis',(1.,0.,0.));
#213=DIRECTION('center_axis',(0.,0.,1.));
#214=DIRECTION('ref_axis',(1.,0.,0.));
#215=CARTESIAN_POINT('',(0.,0.,0.));
#216=CARTESIAN_POINT('Origin',(-0.114152778410587,1.10026860860895E-15,
12.4322960782562));
#217=CARTESIAN_POINT('',(-8.51489753816214,2.12906312665731E-15,11.5));
#218=CARTESIAN_POINT('Origin',(-0.114152778410587,1.10026860860895E-15,
11.5));
#219=CARTESIAN_POINT('',(-8.51489753816214,7.14740905605863E-17,8.3));
#220=CARTESIAN_POINT('Origin',(-0.114152778410587,1.10026860860895E-15,
8.3));
#221=CARTESIAN_POINT('Origin',(9.00000000001871,-5.40832691316486,9.3));
#222=CARTESIAN_POINT('',(9.00000000000581,2.04765719784718,11.5));
#223=CARTESIAN_POINT('',(9.,5.40832691319599,9.3));
#224=CARTESIAN_POINT('Ctrl Pts',(9.00000000000581,2.04765719784718,11.5));
#225=CARTESIAN_POINT('Ctrl Pts',(9.00000000000309,3.61983061257956,10.8958080156614));
#226=CARTESIAN_POINT('Ctrl Pts',(9.,5.40832691319599,9.3));
#227=CARTESIAN_POINT('',(9.00000000001289,-2.04765719781605,11.5));
#228=CARTESIAN_POINT($,(9.00000000001403,-2.70416345657465,11.5));
#229=CARTESIAN_POINT('',(9.00000000001871,-5.40832691316486,9.3));
#230=CARTESIAN_POINT('Ctrl Pts',(9.00000000001871,-5.40832691316486,9.3));
#231=CARTESIAN_POINT('Ctrl Pts',(9.00000000001561,-3.61983061254842,10.8958080156614));
#232=CARTESIAN_POINT('Ctrl Pts',(9.0000000000129,-2.04765719781605,11.5));
#233=CARTESIAN_POINT($,(9.,5.40832691319599,9.3));
#234=CARTESIAN_POINT('Origin',(9.45890309172572,1.63613570256283E-11,9.3));
#235=CARTESIAN_POINT('Origin',(8.33488188424812E-32,-6.4293956955236E-16,
9.3));
#236=CARTESIAN_POINT('Origin',(-9.,5.40832691319599,9.3));
#237=CARTESIAN_POINT('',(-9.,5.40832691319599,9.3));
#238=CARTESIAN_POINT('',(-9.00000000000145,2.04765719786635,11.5));
#239=CARTESIAN_POINT('Ctrl Pts',(-9.,5.40832691319599,9.3));
#240=CARTESIAN_POINT('Ctrl Pts',(-9.00000000000077,3.61983061258974,10.8958080156557));
#241=CARTESIAN_POINT('Ctrl Pts',(-9.00000000000145,2.04765719786635,11.5));
#242=CARTESIAN_POINT('',(-9.00000000000468,-5.40832691315642,9.3));
#243=CARTESIAN_POINT($,(-9.00000000000468,-5.40832691315642,9.3));
#244=CARTESIAN_POINT('',(-9.00000000000322,-2.04765719785857,11.5));
#245=CARTESIAN_POINT('Ctrl Pts',(-9.00000000000322,-2.04765719785856,11.5));
#246=CARTESIAN_POINT('Ctrl Pts',(-9.0000000000039,-3.61983061258196,10.8958080156557));
#247=CARTESIAN_POINT('Ctrl Pts',(-9.00000000000468,-5.4083269131882,9.3));
#248=CARTESIAN_POINT($,(-9.00000000000117,2.70416345659994,11.5));
#249=CARTESIAN_POINT('Origin',(-9.45890309171835,1.99827309043093E-11,9.3));
#250=CARTESIAN_POINT('Origin',(8.33488188424812E-32,-6.4293956955236E-16,
9.3));
#251=CARTESIAN_POINT('Origin',(8.33488188424812E-32,-6.4293956955236E-16,
10.4));
#252=CARTESIAN_POINT('Origin',(8.33488188424812E-32,-6.4293956955236E-16,
11.5));
#253=CARTESIAN_POINT('Origin',(8.33488188424812E-32,-6.4293956955236E-16,
9.3));
#254=CARTESIAN_POINT('Origin',(8.33488188424812E-32,-6.4293956955236E-16,
10.4));
#255=CARTESIAN_POINT('Origin',(8.33488188424812E-32,-6.4293956955236E-16,
9.3));
#256=CARTESIAN_POINT('Origin',(8.33488188424812E-32,-6.4293956955236E-16,
11.5));
#257=CARTESIAN_POINT('Origin',(8.33488188424812E-32,-6.4293956955236E-16,
8.3));
#258=CARTESIAN_POINT('',(10.5,-6.4293956955236E-16,8.3));
#259=CARTESIAN_POINT('Origin',(8.33488188424812E-32,-6.4293956955236E-16,
8.3));
#260=CARTESIAN_POINT('Origin',(8.33488188424812E-32,-6.4293956955236E-16,
11.5));
#261=CARTESIAN_POINT('Origin',(8.33488188424812E-32,-6.4293956955236E-16,
8.3));
#262=UNCERTAINTY_MEASURE_WITH_UNIT(LENGTH_MEASURE(0.01),#266,
'DISTANCE_ACCURACY_VALUE',
'Maximum model space distance between geometric entities at asserted c
onnectivities');
#263=UNCERTAINTY_MEASURE_WITH_UNIT(LENGTH_MEASURE(1.E-6),#266,
'DISTANCE_ACCURACY_VALUE',
'Maximum model space distance between geometric entities at asserted c
onnectivities');
#264=(
GEOMETRIC_REPRESENTATION_CONTEXT(3)
GLOBAL_UNCERTAINTY_ASSIGNED_CONTEXT((#262))
GLOBAL_UNIT_ASSIGNED_CONTEXT((#266,#268,#267))
REPRESENTATION_CONTEXT('','3D')
);
#265=(
GEOMETRIC_REPRESENTATION_CONTEXT(3)
GLOBAL_UNCERTAINTY_ASSIGNED_CONTEXT((#263))
GLOBAL_UNIT_ASSIGNED_CONTEXT((#266,#12,#267))
REPRESENTATION_CONTEXT('','3D')
);
#266=(
LENGTH_UNIT()
NAMED_UNIT(*)
SI_UNIT(.MILLI.,.METRE.)
);
#267=(
NAMED_UNIT(*)
SI_UNIT($,.STERADIAN.)
SOLID_ANGLE_UNIT()
);
#268=(
NAMED_UNIT(*)
PLANE_ANGLE_UNIT()
SI_UNIT($,.RADIAN.)
);
#269=SHAPE_DEFINITION_REPRESENTATION(#270,#271);
#270=PRODUCT_DEFINITION_SHAPE('',$,#273);
#271=SHAPE_REPRESENTATION('',(#151),#264);
#272=PRODUCT_DEFINITION_CONTEXT('part definition',#277,'design');
#273=PRODUCT_DEFINITION('Product','Product',#274,#272);
#274=PRODUCT_DEFINITION_FORMATION('',$,#279);
#275=PRODUCT_RELATED_PRODUCT_CATEGORY('Product','Product',(#279));
#276=APPLICATION_PROTOCOL_DEFINITION('international standard',
'automotive_design',2009,#277);
#277=APPLICATION_CONTEXT(
'Core Data for Automotive Mechanical Design Process');
#278=PRODUCT_CONTEXT('part definition',#277,'mechanical');
#279=PRODUCT('Product','Product',$,(#278));
#280=PRESENTATION_STYLE_ASSIGNMENT((#282));
#281=PRESENTATION_STYLE_ASSIGNMENT((#283));
#282=SURFACE_STYLE_USAGE(.BOTH.,#284);
#283=SURFACE_STYLE_USAGE(.BOTH.,#285);
#284=SURFACE_SIDE_STYLE($,(#286));
#285=SURFACE_SIDE_STYLE($,(#287));
#286=SURFACE_STYLE_FILL_AREA(#288);
#287=SURFACE_STYLE_FILL_AREA(#289);
#288=FILL_AREA_STYLE($,(#290));
#289=FILL_AREA_STYLE($,(#291));
#290=FILL_AREA_STYLE_COLOUR($,#292);
#291=FILL_AREA_STYLE_COLOUR($,#293);
#292=COLOUR_RGB('',1.,1.,1.);
#293=COLOUR_RGB('',0.462745098039216,0.462745098039216,0.462745098039216);
ENDSEC;
END-ISO-10303-21;
