ISO-10303-21;
HEADER;
/****************************************************************
 * Generated by software with PDElib inside                    *
 * PDElib Version v51a, created Fri 09/10/2010                  *
 * ITI Transcendata (http://www.transcendata.com/)              *
 ****************************************************************/
FILE_DESCRIPTION((''),'2;1');
FILE_NAME('LEMO_ECG.0B.304.CLV_Part2.stp','2012-12-20T12:16:47',(''),(''),'Mechanical Desktop 2011','Mechanical Desktop 2011',', , ');
FILE_SCHEMA(('AUTOMOTIVE_DESIGN { 1 2 10303 214 1 1 1 1 }'));
ENDSEC;
DATA;
#10=(NAMED_UNIT(*)PLANE_ANGLE_UNIT()SI_UNIT($,.RADIAN.));
#11=DIMENSIONAL_EXPONENTS(0.0,0.0,0.0,0.0,0.0,0.0,0.0);
#12=PLANE_ANGLE_MEASURE_WITH_UNIT(PLANE_ANGLE_MEASURE(0.0174532925),#10);
#16=(CONVERSION_BASED_UNIT('DEGREE',#12)NAMED_UNIT(#11)PLANE_ANGLE_UNIT());
#20=(NAMED_UNIT(*)SI_UNIT($,.STERADIAN.)SOLID_ANGLE_UNIT());
#24=(LENGTH_UNIT()NAMED_UNIT(*)SI_UNIT(.MILLI.,.METRE.));
#26=UNCERTAINTY_MEASURE_WITH_UNIT(LENGTH_MEASURE(0.000001),#24,'DISTANCE_ACCURACY_VALUE','');
#28=(GEOMETRIC_REPRESENTATION_CONTEXT(3)GLOBAL_UNCERTAINTY_ASSIGNED_CONTEXT((#26))GLOBAL_UNIT_ASSIGNED_CONTEXT((#16,#20,#24))REPRESENTATION_CONTEXT('','3D'));
#29=APPLICATION_CONTEXT('automotive design');
#30=APPLICATION_PROTOCOL_DEFINITION('INTERNATIONAL_STANDARD','automotive_design',1998,#29);
#31=PRODUCT_CONTEXT('3D Mechanical Parts',#29,'mechanical');
#32=PRODUCT('Product','Product','',(#31));
#33=PRODUCT_RELATED_PRODUCT_CATEGORY('part',$,(#32));
#34=PRODUCT_CATEGORY('part',$);
#35=PERSON('1','Design','Joe',$,$,$);
#36=ORGANIZATION($,'None','None');
#37=PERSON_AND_ORGANIZATION(#35,#36);
#38=PERSON_AND_ORGANIZATION_ROLE('design_owner');
#39=APPLIED_PERSON_AND_ORGANIZATION_ASSIGNMENT(#37,#38,(#32));
#40=PRODUCT_DEFINITION_FORMATION_WITH_SPECIFIED_SOURCE('None','',#32,.BOUGHT.);
#41=PERSON('2','Creator','Joe',$,$,$);
#42=ORGANIZATION($,'None','None');
#43=PERSON_AND_ORGANIZATION(#41,#42);
#44=PERSON_AND_ORGANIZATION_ROLE('creator');
#45=APPLIED_PERSON_AND_ORGANIZATION_ASSIGNMENT(#43,#44,(#40));
#46=PERSON('3','Supplier','Joe',$,$,$);
#47=ORGANIZATION($,'None','None');
#48=PERSON_AND_ORGANIZATION(#46,#47);
#49=PERSON_AND_ORGANIZATION_ROLE('design_supplier');
#50=APPLIED_PERSON_AND_ORGANIZATION_ASSIGNMENT(#48,#49,(#40));
#51=PRODUCT_DEFINITION_CONTEXT('part definition',#29,'design');
#52=PRODUCT_DEFINITION('None','',#40,#51);
#53=PERSON('4','Creator','Joe',$,$,$);
#54=ORGANIZATION($,'None','None');
#55=PERSON_AND_ORGANIZATION(#53,#54);
#56=PERSON_AND_ORGANIZATION_ROLE('creator');
#57=APPLIED_PERSON_AND_ORGANIZATION_ASSIGNMENT(#55,#56,(#52));
#58=CARTESIAN_POINT('NONE',(0.0,0.0,0.0));
#59=DIRECTION('NONE',(0.0,0.0,1.0));
#60=DIRECTION('NONE',(1.0,0.0,0.0));
#61=AXIS2_PLACEMENT_3D('NONE',#58,#59,#60);
#62=SHAPE_REPRESENTATION('SR1',(#61),#28);
#63=PRODUCT_DEFINITION_SHAPE('PDS1','Test Part',#52);
#64=SHAPE_DEFINITION_REPRESENTATION(#63,#62);
#65=CARTESIAN_POINT('',(22.370000007897566,-4.029595E-015,6.250000000000002));
#66=DIRECTION('',(-1.0,8.411709E-017,-6.123234E-017));
#67=DIRECTION('',(0.0,1.0,0.0));
#68=AXIS2_PLACEMENT_3D('',#65,#66,#67);
#69=CONICAL_SURFACE('',#68,0.999999998205103,44.999999948580005);
#70=CARTESIAN_POINT('',(19.170000000000019,4.199999999999997,6.250000000000002));
#71=VERTEX_POINT('',#70);
#72=CARTESIAN_POINT('',(18.769999999820531,4.599999999820509,6.250000000000002));
#73=VERTEX_POINT('',#72);
#74=CARTESIAN_POINT('',(19.17000000017951,4.200000000179488,6.250000000000002));
#75=DIRECTION('',(-0.707106781821139,0.707106780551956,0.0));
#76=VECTOR('',#75,0.565685424949238);
#77=LINE('',#74,#76);
#78=EDGE_CURVE('',#71,#73,#77,.T.);
#79=ORIENTED_EDGE('',*,*,#78,.F.);
#80=CARTESIAN_POINT('',(19.170000000134635,-4.200000000089748,6.250000000000002));
#81=VERTEX_POINT('',#80);
#82=CARTESIAN_POINT('',(19.170000000000019,-3.750038E-015,6.250000000000002));
#83=DIRECTION('',(1.0,0.0,0.0));
#84=DIRECTION('',(0.0,1.0,0.0));
#85=AXIS2_PLACEMENT_3D('',#82,#83,#84);
#86=CIRCLE('',#85,4.2);
#87=EDGE_CURVE('',#71,#81,#86,.T.);
#88=ORIENTED_EDGE('',*,*,#87,.T.);
#89=CARTESIAN_POINT('',(18.769999999946837,-4.599999999933526,6.250000000000002));
#90=VERTEX_POINT('',#89);
#91=CARTESIAN_POINT('',(19.17000000017951,-4.200000000179493,6.250000000000002));
#92=DIRECTION('',(-0.707106781821138,-0.707106780551957,0.0));
#93=VECTOR('',#92,0.565685424939838);
#94=LINE('',#91,#93);
#95=EDGE_CURVE('',#81,#90,#94,.T.);
#96=ORIENTED_EDGE('',*,*,#95,.T.);
#97=CARTESIAN_POINT('',(18.770000000000017,-3.737156E-015,6.250000000000002));
#98=DIRECTION('',(-1.0,0.0,0.0));
#99=DIRECTION('',(0.0,1.0,0.0));
#100=AXIS2_PLACEMENT_3D('',#97,#98,#99);
#101=CIRCLE('',#100,4.6);
#102=EDGE_CURVE('',#90,#73,#101,.T.);
#103=ORIENTED_EDGE('',*,*,#102,.T.);
#104=EDGE_LOOP('',(#79,#88,#96,#103));
#105=FACE_OUTER_BOUND('',#104,.T.);
#106=ADVANCED_FACE('',(#105),#69,.F.);
#107=CARTESIAN_POINT('',(21.270000000000017,-3.817666E-015,6.250000000000002));
#108=DIRECTION('',(-1.0,8.411709E-017,-6.123234E-017));
#109=DIRECTION('',(0.0,1.0,0.0));
#110=AXIS2_PLACEMENT_3D('',#107,#108,#109);
#111=CYLINDRICAL_SURFACE('',#110,4.2);
#112=CARTESIAN_POINT('',(20.869999999820529,4.200000000179485,6.250000000000002));
#113=VERTEX_POINT('',#112);
#114=CARTESIAN_POINT('',(20.869999999820529,4.199999999999997,6.250000000000002));
#115=DIRECTION('',(-1.0,0.0,0.0));
#116=VECTOR('',#115,1.699999999820509);
#117=LINE('',#114,#116);
#118=EDGE_CURVE('',#113,#71,#117,.T.);
#119=ORIENTED_EDGE('',*,*,#118,.F.);
#120=CARTESIAN_POINT('',(20.869999999865399,-4.200000000089748,6.250000000000002));
#121=VERTEX_POINT('',#120);
#122=CARTESIAN_POINT('',(20.870000000000019,-3.804784E-015,6.250000000000002));
#123=DIRECTION('',(-1.0,0.0,0.0));
#124=DIRECTION('',(0.0,1.0,0.0));
#125=AXIS2_PLACEMENT_3D('',#122,#123,#124);
#126=CIRCLE('',#125,4.2);
#127=EDGE_CURVE('',#121,#113,#126,.T.);
#128=ORIENTED_EDGE('',*,*,#127,.F.);
#129=CARTESIAN_POINT('',(20.869999999865399,-4.200000000000004,6.250000000000003));
#130=DIRECTION('',(-1.0,0.0,0.0));
#131=VECTOR('',#130,1.699999999730764);
#132=LINE('',#129,#131);
#133=EDGE_CURVE('',#121,#81,#132,.T.);
#134=ORIENTED_EDGE('',*,*,#133,.T.);
#135=ORIENTED_EDGE('',*,*,#87,.F.);
#136=EDGE_LOOP('',(#119,#128,#134,#135));
#137=FACE_OUTER_BOUND('',#136,.T.);
#138=ADVANCED_FACE('',(#137),#111,.F.);
#139=CARTESIAN_POINT('',(17.669999992102476,-3.525227E-015,6.250000000000002));
#140=DIRECTION('',(1.0,-8.411709E-017,6.123234E-017));
#141=DIRECTION('',(0.0,1.0,0.0));
#142=AXIS2_PLACEMENT_3D('',#139,#140,#141);
#143=CONICAL_SURFACE('',#142,0.999999998205103,44.999999948580005);
#144=CARTESIAN_POINT('',(21.270000000179508,4.599999999820504,6.250000000000002));
#145=VERTEX_POINT('',#144);
#146=CARTESIAN_POINT('',(20.869999999820529,4.200000000179485,6.250000000000002));
#147=DIRECTION('',(0.70710678182114,0.707106780551955,0.0));
#148=VECTOR('',#147,0.565685424949237);
#149=LINE('',#146,#148);
#150=EDGE_CURVE('',#113,#145,#149,.T.);
#151=ORIENTED_EDGE('',*,*,#150,.F.);
#152=CARTESIAN_POINT('',(20.870000000000019,-3.804784E-015,6.250000000000002));
#153=DIRECTION('',(-1.0,0.0,0.0));
#154=DIRECTION('',(0.0,1.0,0.0));
#155=AXIS2_PLACEMENT_3D('',#152,#153,#154);
#156=CIRCLE('',#155,4.2);
#157=EDGE_CURVE('',#113,#121,#156,.T.);
#158=ORIENTED_EDGE('',*,*,#157,.T.);
#159=CARTESIAN_POINT('',(21.270000000053201,-4.599999999933524,6.250000000000001));
#160=VERTEX_POINT('',#159);
#161=CARTESIAN_POINT('',(20.869999999820529,-4.200000000179493,6.250000000000002));
#162=DIRECTION('',(0.70710678182114,-0.707106780551955,0.0));
#163=VECTOR('',#162,0.565685424939837);
#164=LINE('',#161,#163);
#165=EDGE_CURVE('',#121,#160,#164,.T.);
#166=ORIENTED_EDGE('',*,*,#165,.T.);
#167=CARTESIAN_POINT('',(21.270000000000017,-3.817666E-015,6.250000000000002));
#168=DIRECTION('',(1.0,0.0,0.0));
#169=DIRECTION('',(0.0,1.0,0.0));
#170=AXIS2_PLACEMENT_3D('',#167,#168,#169);
#171=CIRCLE('',#170,4.6);
#172=EDGE_CURVE('',#160,#145,#171,.T.);
#173=ORIENTED_EDGE('',*,*,#172,.T.);
#174=EDGE_LOOP('',(#151,#158,#166,#173));
#175=FACE_OUTER_BOUND('',#174,.T.);
#176=ADVANCED_FACE('',(#175),#143,.F.);
#177=CARTESIAN_POINT('',(17.669999992102476,-3.525227E-015,6.250000000000002));
#178=DIRECTION('',(1.0,-8.411709E-017,6.123234E-017));
#179=DIRECTION('',(0.0,1.0,0.0));
#180=AXIS2_PLACEMENT_3D('',#177,#178,#179);
#181=CONICAL_SURFACE('',#180,0.999999998205103,44.999999948580005);
#182=ORIENTED_EDGE('',*,*,#150,.T.);
#183=CARTESIAN_POINT('',(21.270000000000017,-3.817666E-015,6.250000000000002));
#184=DIRECTION('',(1.0,0.0,0.0));
#185=DIRECTION('',(0.0,1.0,0.0));
#186=AXIS2_PLACEMENT_3D('',#183,#184,#185);
#187=CIRCLE('',#186,4.6);
#188=EDGE_CURVE('',#145,#160,#187,.T.);
#189=ORIENTED_EDGE('',*,*,#188,.T.);
#190=ORIENTED_EDGE('',*,*,#165,.F.);
#191=ORIENTED_EDGE('',*,*,#127,.T.);
#192=EDGE_LOOP('',(#182,#189,#190,#191));
#193=FACE_OUTER_BOUND('',#192,.T.);
#194=ADVANCED_FACE('',(#193),#181,.F.);
#195=CARTESIAN_POINT('',(21.270000000000017,-3.817666E-015,6.250000000000002));
#196=DIRECTION('',(-1.0,8.411709E-017,-6.123234E-017));
#197=DIRECTION('',(0.0,1.0,0.0));
#198=AXIS2_PLACEMENT_3D('',#195,#196,#197);
#199=CYLINDRICAL_SURFACE('',#198,4.2);
#200=ORIENTED_EDGE('',*,*,#118,.T.);
#201=CARTESIAN_POINT('',(19.170000000000019,-3.750038E-015,6.250000000000002));
#202=DIRECTION('',(1.0,0.0,0.0));
#203=DIRECTION('',(0.0,1.0,0.0));
#204=AXIS2_PLACEMENT_3D('',#201,#202,#203);
#205=CIRCLE('',#204,4.2);
#206=EDGE_CURVE('',#81,#71,#205,.T.);
#207=ORIENTED_EDGE('',*,*,#206,.F.);
#208=ORIENTED_EDGE('',*,*,#133,.F.);
#209=ORIENTED_EDGE('',*,*,#157,.F.);
#210=EDGE_LOOP('',(#200,#207,#208,#209));
#211=FACE_OUTER_BOUND('',#210,.T.);
#212=ADVANCED_FACE('',(#211),#199,.F.);
#213=CARTESIAN_POINT('',(22.370000007897566,-4.029595E-015,6.250000000000002));
#214=DIRECTION('',(-1.0,8.411709E-017,-6.123234E-017));
#215=DIRECTION('',(0.0,1.0,0.0));
#216=AXIS2_PLACEMENT_3D('',#213,#214,#215);
#217=CONICAL_SURFACE('',#216,0.999999998205103,44.999999948580005);
#218=ORIENTED_EDGE('',*,*,#78,.T.);
#219=CARTESIAN_POINT('',(18.770000000000017,-3.737156E-015,6.250000000000002));
#220=DIRECTION('',(-1.0,0.0,0.0));
#221=DIRECTION('',(0.0,1.0,0.0));
#222=AXIS2_PLACEMENT_3D('',#219,#220,#221);
#223=CIRCLE('',#222,4.6);
#224=EDGE_CURVE('',#73,#90,#223,.T.);
#225=ORIENTED_EDGE('',*,*,#224,.T.);
#226=ORIENTED_EDGE('',*,*,#95,.F.);
#227=ORIENTED_EDGE('',*,*,#206,.T.);
#228=EDGE_LOOP('',(#218,#225,#226,#227));
#229=FACE_OUTER_BOUND('',#228,.T.);
#230=ADVANCED_FACE('',(#229),#217,.F.);
#231=CARTESIAN_POINT('',(18.770000000000017,-6.548234494884866,-0.298234494884861));
#232=DIRECTION('',(-1.0,0.0,0.0));
#233=DIRECTION('',(0.0,-1.0,0.0));
#234=AXIS2_PLACEMENT_3D('',#231,#232,#233);
#235=PLANE('',#234);
#236=CARTESIAN_POINT('',(18.770000000000017,-5.952940449895333,5.500000000000011));
#237=VERTEX_POINT('',#236);
#238=CARTESIAN_POINT('',(18.770000000000017,-5.196152422706634,5.500000000000011));
#239=VERTEX_POINT('',#238);
#240=CARTESIAN_POINT('',(18.770000000000017,-5.952940449895333,5.500000000000011));
#241=DIRECTION('',(0.0,1.0,0.0));
#242=VECTOR('',#241,0.7567880271887);
#243=LINE('',#240,#242);
#244=EDGE_CURVE('',#237,#239,#243,.T.);
#245=ORIENTED_EDGE('',*,*,#244,.T.);
#246=CARTESIAN_POINT('',(18.770000000000017,-5.196152422706634,7.000000000000011));
#247=VERTEX_POINT('',#246);
#248=CARTESIAN_POINT('',(18.770000000000017,-3.737156E-015,6.250000000000002));
#249=DIRECTION('',(-1.0,9.105818E-017,-1.314312E-017));
#250=DIRECTION('',(9.200181E-017,0.989743318610787,-0.142857142857145));
#251=AXIS2_PLACEMENT_3D('',#248,#249,#250);
#252=CIRCLE('',#251,5.249999999999999);
#253=EDGE_CURVE('',#239,#247,#252,.T.);
#254=ORIENTED_EDGE('',*,*,#253,.T.);
#255=CARTESIAN_POINT('',(18.770000000000017,-5.952940449895333,7.000000000000011));
#256=VERTEX_POINT('',#255);
#257=CARTESIAN_POINT('',(18.770000000000017,-5.196152422706634,7.000000000000011));
#258=DIRECTION('',(0.0,-1.0,0.0));
#259=VECTOR('',#258,0.7567880271887);
#260=LINE('',#257,#259);
#261=EDGE_CURVE('',#247,#256,#260,.T.);
#262=ORIENTED_EDGE('',*,*,#261,.T.);
#263=CARTESIAN_POINT('',(18.770000000000017,-0.749999999999996,12.202940449895332));
#264=VERTEX_POINT('',#263);
#265=CARTESIAN_POINT('',(18.770000000000017,-3.737156E-015,6.250000000000002));
#266=DIRECTION('',(-1.0,0.0,0.0));
#267=DIRECTION('',(0.0,1.0,0.0));
#268=AXIS2_PLACEMENT_3D('',#265,#266,#267);
#269=CIRCLE('',#268,6.0);
#270=EDGE_CURVE('',#256,#264,#269,.T.);
#271=ORIENTED_EDGE('',*,*,#270,.T.);
#272=CARTESIAN_POINT('',(18.770000000000017,-0.749999999999996,11.446152422706632));
#273=VERTEX_POINT('',#272);
#274=CARTESIAN_POINT('',(18.770000000000017,-0.749999999999996,12.202940449895332));
#275=DIRECTION('',(0.0,0.0,-1.0));
#276=VECTOR('',#275,0.7567880271887);
#277=LINE('',#274,#276);
#278=EDGE_CURVE('',#264,#273,#277,.T.);
#279=ORIENTED_EDGE('',*,*,#278,.T.);
#280=CARTESIAN_POINT('',(18.770000000000017,0.750000000000005,11.446152422706632));
#281=VERTEX_POINT('',#280);
#282=CARTESIAN_POINT('',(18.770000000000017,-3.737156E-015,6.250000000000002));
#283=DIRECTION('',(-1.0,-6.941082E-018,-4.808922E-017));
#284=DIRECTION('',(4.858757E-017,-0.142857142857144,-0.989743318610787));
#285=AXIS2_PLACEMENT_3D('',#282,#283,#284);
#286=CIRCLE('',#285,5.250000000000001);
#287=EDGE_CURVE('',#273,#281,#286,.T.);
#288=ORIENTED_EDGE('',*,*,#287,.T.);
#289=CARTESIAN_POINT('',(18.770000000000017,0.750000000000005,12.202940449895332));
#290=VERTEX_POINT('',#289);
#291=CARTESIAN_POINT('',(18.770000000000017,0.750000000000005,11.446152422706632));
#292=DIRECTION('',(0.0,0.0,1.0));
#293=VECTOR('',#292,0.7567880271887);
#294=LINE('',#291,#293);
#295=EDGE_CURVE('',#281,#290,#294,.T.);
#296=ORIENTED_EDGE('',*,*,#295,.T.);
#297=CARTESIAN_POINT('',(18.770000000000017,5.952940449895326,6.999999999999993));
#298=VERTEX_POINT('',#297);
#299=CARTESIAN_POINT('',(18.770000000000017,-3.737156E-015,6.250000000000002));
#300=DIRECTION('',(-1.0,0.0,0.0));
#301=DIRECTION('',(0.0,1.0,0.0));
#302=AXIS2_PLACEMENT_3D('',#299,#300,#301);
#303=CIRCLE('',#302,6.0);
#304=EDGE_CURVE('',#290,#298,#303,.T.);
#305=ORIENTED_EDGE('',*,*,#304,.T.);
#306=CARTESIAN_POINT('',(18.770000000000017,5.196152422706627,6.999999999999993));
#307=VERTEX_POINT('',#306);
#308=CARTESIAN_POINT('',(18.770000000000017,5.952940449895326,6.999999999999993));
#309=DIRECTION('',(0.0,-1.0,0.0));
#310=VECTOR('',#309,0.7567880271887);
#311=LINE('',#308,#310);
#312=EDGE_CURVE('',#298,#307,#311,.T.);
#313=ORIENTED_EDGE('',*,*,#312,.T.);
#314=CARTESIAN_POINT('',(18.770000000000017,5.196152422706627,5.499999999999993));
#315=VERTEX_POINT('',#314);
#316=CARTESIAN_POINT('',(18.770000000000017,-3.737156E-015,6.250000000000002));
#317=DIRECTION('',(-1.0,9.105818E-017,-1.314312E-017));
#318=DIRECTION('',(-9.200181E-017,-0.989743318610787,0.142857142857145));
#319=AXIS2_PLACEMENT_3D('',#316,#317,#318);
#320=CIRCLE('',#319,5.249999999999999);
#321=EDGE_CURVE('',#307,#315,#320,.T.);
#322=ORIENTED_EDGE('',*,*,#321,.T.);
#323=CARTESIAN_POINT('',(18.770000000000017,5.952940449895326,5.499999999999993));
#324=VERTEX_POINT('',#323);
#325=CARTESIAN_POINT('',(18.770000000000017,5.196152422706627,5.499999999999993));
#326=DIRECTION('',(0.0,1.0,0.0));
#327=VECTOR('',#326,0.7567880271887);
#328=LINE('',#325,#327);
#329=EDGE_CURVE('',#315,#324,#328,.T.);
#330=ORIENTED_EDGE('',*,*,#329,.T.);
#331=CARTESIAN_POINT('',(18.770000000000017,0.749999999999988,0.297059550104672));
#332=VERTEX_POINT('',#331);
#333=CARTESIAN_POINT('',(18.770000000000017,-3.737156E-015,6.250000000000002));
#334=DIRECTION('',(-1.0,0.0,0.0));
#335=DIRECTION('',(0.0,1.0,0.0));
#336=AXIS2_PLACEMENT_3D('',#333,#334,#335);
#337=CIRCLE('',#336,6.0);
#338=EDGE_CURVE('',#324,#332,#337,.T.);
#339=ORIENTED_EDGE('',*,*,#338,.T.);
#340=CARTESIAN_POINT('',(18.770000000000017,0.749999999999988,1.053847577293372));
#341=VERTEX_POINT('',#340);
#342=CARTESIAN_POINT('',(18.770000000000017,0.749999999999988,0.297059550104672));
#343=DIRECTION('',(0.0,0.0,1.0));
#344=VECTOR('',#343,0.7567880271887);
#345=LINE('',#342,#344);
#346=EDGE_CURVE('',#332,#341,#345,.T.);
#347=ORIENTED_EDGE('',*,*,#346,.T.);
#348=CARTESIAN_POINT('',(18.770000000000017,-0.750000000000012,1.053847577293372));
#349=VERTEX_POINT('',#348);
#350=CARTESIAN_POINT('',(18.770000000000017,-3.737156E-015,6.250000000000002));
#351=DIRECTION('',(-1.0,-6.941082E-018,-4.808922E-017));
#352=DIRECTION('',(-4.858757E-017,0.142857142857144,0.989743318610787));
#353=AXIS2_PLACEMENT_3D('',#350,#351,#352);
#354=CIRCLE('',#353,5.250000000000001);
#355=EDGE_CURVE('',#341,#349,#354,.T.);
#356=ORIENTED_EDGE('',*,*,#355,.T.);
#357=CARTESIAN_POINT('',(18.770000000000017,-0.750000000000012,0.297059550104672));
#358=VERTEX_POINT('',#357);
#359=CARTESIAN_POINT('',(18.770000000000017,-0.750000000000012,1.053847577293372));
#360=DIRECTION('',(0.0,0.0,-1.0));
#361=VECTOR('',#360,0.7567880271887);
#362=LINE('',#359,#361);
#363=EDGE_CURVE('',#349,#358,#362,.T.);
#364=ORIENTED_EDGE('',*,*,#363,.T.);
#365=CARTESIAN_POINT('',(18.770000000000017,-3.737156E-015,6.250000000000002));
#366=DIRECTION('',(-1.0,0.0,0.0));
#367=DIRECTION('',(0.0,1.0,0.0));
#368=AXIS2_PLACEMENT_3D('',#365,#366,#367);
#369=CIRCLE('',#368,6.0);
#370=EDGE_CURVE('',#358,#237,#369,.T.);
#371=ORIENTED_EDGE('',*,*,#370,.T.);
#372=EDGE_LOOP('',(#245,#254,#262,#271,#279,#288,#296,#305,#313,#322,#330,#339,#347,#356,#364,#371));
#373=FACE_OUTER_BOUND('',#372,.T.);
#374=ORIENTED_EDGE('',*,*,#102,.F.);
#375=ORIENTED_EDGE('',*,*,#224,.F.);
#376=EDGE_LOOP('',(#374,#375));
#377=FACE_BOUND('',#376,.T.);
#378=ADVANCED_FACE('',(#373,#377),#235,.T.);
#379=CARTESIAN_POINT('',(21.270000000000017,-5.811384390866347,0.438615609133659));
#380=DIRECTION('',(-1.0,0.0,0.0));
#381=DIRECTION('',(0.0,-1.0,0.0));
#382=AXIS2_PLACEMENT_3D('',#379,#380,#381);
#383=PLANE('',#382);
#384=CARTESIAN_POINT('',(21.270000000000017,-5.196152422706634,5.500000000000011));
#385=VERTEX_POINT('',#384);
#386=CARTESIAN_POINT('',(21.270000000000017,-5.283076719032729,5.500000000001766));
#387=VERTEX_POINT('',#386);
#388=CARTESIAN_POINT('',(21.270000000000017,-5.196152422706634,5.500000000000011));
#389=DIRECTION('',(0.0,-1.0,0.0));
#390=VECTOR('',#389,0.086924296326095);
#391=LINE('',#388,#390);
#392=EDGE_CURVE('',#385,#387,#391,.T.);
#393=ORIENTED_EDGE('',*,*,#392,.T.);
#394=CARTESIAN_POINT('',(21.270000000000017,-0.749999999998257,0.966923280967278));
#395=VERTEX_POINT('',#394);
#396=CARTESIAN_POINT('',(21.270000000000017,-3.817666E-015,6.250000000000002));
#397=DIRECTION('',(1.0,0.0,0.0));
#398=DIRECTION('',(0.0,0.0,1.0));
#399=AXIS2_PLACEMENT_3D('',#396,#397,#398);
#400=CIRCLE('',#399,5.33604719043193);
#401=EDGE_CURVE('',#387,#395,#400,.T.);
#402=ORIENTED_EDGE('',*,*,#401,.T.);
#403=CARTESIAN_POINT('',(21.270000000000017,-0.750000000000012,1.053847577293372));
#404=VERTEX_POINT('',#403);
#405=CARTESIAN_POINT('',(21.270000000000017,-0.750000000000012,0.966923280967278));
#406=DIRECTION('',(0.0,0.0,1.0));
#407=VECTOR('',#406,0.086924296326093);
#408=LINE('',#405,#407);
#409=EDGE_CURVE('',#395,#404,#408,.T.);
#410=ORIENTED_EDGE('',*,*,#409,.T.);
#411=CARTESIAN_POINT('',(21.270000000000017,0.749999999999988,1.053847577293372));
#412=VERTEX_POINT('',#411);
#413=CARTESIAN_POINT('',(21.270000000000017,-3.817666E-015,6.250000000000002));
#414=DIRECTION('',(1.0,6.941082E-018,4.808922E-017));
#415=DIRECTION('',(-4.858757E-017,0.142857142857144,0.989743318610787));
#416=AXIS2_PLACEMENT_3D('',#413,#414,#415);
#417=CIRCLE('',#416,5.250000000000001);
#418=EDGE_CURVE('',#404,#412,#417,.T.);
#419=ORIENTED_EDGE('',*,*,#418,.T.);
#420=CARTESIAN_POINT('',(21.270000000000017,0.749999999998232,0.966923280967277));
#421=VERTEX_POINT('',#420);
#422=CARTESIAN_POINT('',(21.270000000000017,0.749999999999988,1.053847577293372));
#423=DIRECTION('',(0.0,0.0,-1.0));
#424=VECTOR('',#423,0.086924296326095);
#425=LINE('',#422,#424);
#426=EDGE_CURVE('',#412,#421,#425,.T.);
#427=ORIENTED_EDGE('',*,*,#426,.T.);
#428=CARTESIAN_POINT('',(21.270000000000017,5.28307671903272,5.500000000001748));
#429=VERTEX_POINT('',#428);
#430=CARTESIAN_POINT('',(21.270000000000017,-3.817666E-015,6.250000000000002));
#431=DIRECTION('',(1.0,0.0,0.0));
#432=DIRECTION('',(0.0,0.0,1.0));
#433=AXIS2_PLACEMENT_3D('',#430,#431,#432);
#434=CIRCLE('',#433,5.33604719043193);
#435=EDGE_CURVE('',#421,#429,#434,.T.);
#436=ORIENTED_EDGE('',*,*,#435,.T.);
#437=CARTESIAN_POINT('',(21.270000000000017,5.196152422706627,5.499999999999993));
#438=VERTEX_POINT('',#437);
#439=CARTESIAN_POINT('',(21.270000000000017,5.28307671903272,5.499999999999993));
#440=DIRECTION('',(0.0,-1.0,0.0));
#441=VECTOR('',#440,0.086924296326093);
#442=LINE('',#439,#441);
#443=EDGE_CURVE('',#429,#438,#442,.T.);
#444=ORIENTED_EDGE('',*,*,#443,.T.);
#445=CARTESIAN_POINT('',(21.270000000000017,5.196152422706627,6.999999999999993));
#446=VERTEX_POINT('',#445);
#447=CARTESIAN_POINT('',(21.270000000000017,-3.817666E-015,6.250000000000002));
#448=DIRECTION('',(1.0,-9.105818E-017,1.314312E-017));
#449=DIRECTION('',(-9.200181E-017,-0.989743318610787,0.142857142857145));
#450=AXIS2_PLACEMENT_3D('',#447,#448,#449);
#451=CIRCLE('',#450,5.249999999999999);
#452=EDGE_CURVE('',#438,#446,#451,.T.);
#453=ORIENTED_EDGE('',*,*,#452,.T.);
#454=CARTESIAN_POINT('',(21.270000000000017,5.283076719032723,6.999999999998238));
#455=VERTEX_POINT('',#454);
#456=CARTESIAN_POINT('',(21.270000000000017,5.196152422706627,6.999999999999993));
#457=DIRECTION('',(0.0,1.0,0.0));
#458=VECTOR('',#457,0.086924296326096);
#459=LINE('',#456,#458);
#460=EDGE_CURVE('',#446,#455,#459,.T.);
#461=ORIENTED_EDGE('',*,*,#460,.T.);
#462=CARTESIAN_POINT('',(21.270000000000017,0.749999999998249,11.533076719032724));
#463=VERTEX_POINT('',#462);
#464=CARTESIAN_POINT('',(21.270000000000017,-3.817666E-015,6.250000000000002));
#465=DIRECTION('',(1.0,0.0,0.0));
#466=DIRECTION('',(0.0,0.0,1.0));
#467=AXIS2_PLACEMENT_3D('',#464,#465,#466);
#468=CIRCLE('',#467,5.33604719043193);
#469=EDGE_CURVE('',#455,#463,#468,.T.);
#470=ORIENTED_EDGE('',*,*,#469,.T.);
#471=CARTESIAN_POINT('',(21.270000000000017,0.750000000000005,11.446152422706632));
#472=VERTEX_POINT('',#471);
#473=CARTESIAN_POINT('',(21.270000000000017,0.750000000000005,11.533076719032724));
#474=DIRECTION('',(0.0,0.0,-1.0));
#475=VECTOR('',#474,0.086924296326092);
#476=LINE('',#473,#475);
#477=EDGE_CURVE('',#463,#472,#476,.T.);
#478=ORIENTED_EDGE('',*,*,#477,.T.);
#479=CARTESIAN_POINT('',(21.270000000000017,-0.749999999999996,11.446152422706632));
#480=VERTEX_POINT('',#479);
#481=CARTESIAN_POINT('',(21.270000000000017,-3.817666E-015,6.250000000000002));
#482=DIRECTION('',(1.0,6.941082E-018,4.808922E-017));
#483=DIRECTION('',(4.858757E-017,-0.142857142857144,-0.989743318610787));
#484=AXIS2_PLACEMENT_3D('',#481,#482,#483);
#485=CIRCLE('',#484,5.250000000000001);
#486=EDGE_CURVE('',#472,#480,#485,.T.);
#487=ORIENTED_EDGE('',*,*,#486,.T.);
#488=CARTESIAN_POINT('',(21.270000000000017,-0.749999999998241,11.533076719032728));
#489=VERTEX_POINT('',#488);
#490=CARTESIAN_POINT('',(21.270000000000017,-0.749999999999996,11.446152422706632));
#491=DIRECTION('',(0.0,0.0,1.0));
#492=VECTOR('',#491,0.086924296326096);
#493=LINE('',#490,#492);
#494=EDGE_CURVE('',#480,#489,#493,.T.);
#495=ORIENTED_EDGE('',*,*,#494,.T.);
#496=CARTESIAN_POINT('',(21.270000000000017,-5.283076719032727,6.999999999998256));
#497=VERTEX_POINT('',#496);
#498=CARTESIAN_POINT('',(21.270000000000017,-3.817666E-015,6.250000000000002));
#499=DIRECTION('',(1.0,0.0,0.0));
#500=DIRECTION('',(0.0,0.0,1.0));
#501=AXIS2_PLACEMENT_3D('',#498,#499,#500);
#502=CIRCLE('',#501,5.33604719043193);
#503=EDGE_CURVE('',#489,#497,#502,.T.);
#504=ORIENTED_EDGE('',*,*,#503,.T.);
#505=CARTESIAN_POINT('',(21.270000000000017,-5.196152422706634,7.000000000000011));
#506=VERTEX_POINT('',#505);
#507=CARTESIAN_POINT('',(21.270000000000017,-5.283076719032727,7.000000000000011));
#508=DIRECTION('',(0.0,1.0,0.0));
#509=VECTOR('',#508,0.086924296326093);
#510=LINE('',#507,#509);
#511=EDGE_CURVE('',#497,#506,#510,.T.);
#512=ORIENTED_EDGE('',*,*,#511,.T.);
#513=CARTESIAN_POINT('',(21.270000000000017,-3.817666E-015,6.250000000000002));
#514=DIRECTION('',(1.0,-9.105818E-017,1.314312E-017));
#515=DIRECTION('',(9.200181E-017,0.989743318610787,-0.142857142857145));
#516=AXIS2_PLACEMENT_3D('',#513,#514,#515);
#517=CIRCLE('',#516,5.249999999999999);
#518=EDGE_CURVE('',#506,#385,#517,.T.);
#519=ORIENTED_EDGE('',*,*,#518,.T.);
#520=EDGE_LOOP('',(#393,#402,#410,#419,#427,#436,#444,#453,#461,#470,#478,#487,#495,#504,#512,#519));
#521=FACE_OUTER_BOUND('',#520,.T.);
#522=ORIENTED_EDGE('',*,*,#172,.F.);
#523=ORIENTED_EDGE('',*,*,#188,.F.);
#524=EDGE_LOOP('',(#522,#523));
#525=FACE_BOUND('',#524,.T.);
#526=ADVANCED_FACE('',(#521,#525),#383,.F.);
#527=CARTESIAN_POINT('',(21.395000000000017,-3.828181E-015,6.250000000000002));
#528=DIRECTION('',(-1.0,8.411709E-017,-6.123234E-017));
#529=DIRECTION('',(9.200181E-017,0.989743318610787,-0.142857142857145));
#530=AXIS2_PLACEMENT_3D('',#527,#528,#529);
#531=CYLINDRICAL_SURFACE('',#530,5.25);
#532=ORIENTED_EDGE('',*,*,#253,.F.);
#533=CARTESIAN_POINT('',(21.270000000000017,-5.196152422706634,5.500000000000011));
#534=DIRECTION('',(-1.0,0.0,0.0));
#535=VECTOR('',#534,2.5);
#536=LINE('',#533,#535);
#537=EDGE_CURVE('',#385,#239,#536,.T.);
#538=ORIENTED_EDGE('',*,*,#537,.F.);
#539=ORIENTED_EDGE('',*,*,#518,.F.);
#540=CARTESIAN_POINT('',(21.270000000000017,-5.196152422706634,7.000000000000011));
#541=DIRECTION('',(-1.0,0.0,0.0));
#542=VECTOR('',#541,2.5);
#543=LINE('',#540,#542);
#544=EDGE_CURVE('',#506,#247,#543,.T.);
#545=ORIENTED_EDGE('',*,*,#544,.T.);
#546=EDGE_LOOP('',(#532,#538,#539,#545));
#547=FACE_OUTER_BOUND('',#546,.T.);
#548=ADVANCED_FACE('',(#547),#531,.T.);
#549=CARTESIAN_POINT('',(21.395000000000017,-5.158313021347199,7.000000000000011));
#550=DIRECTION('',(0.0,0.0,1.0));
#551=DIRECTION('',(1.0,0.0,0.0));
#552=AXIS2_PLACEMENT_3D('',#549,#550,#551);
#553=PLANE('',#552);
#554=CARTESIAN_POINT('',(20.119999999963241,-5.952940449895135,7.000000000001578));
#555=VERTEX_POINT('',#554);
#556=CARTESIAN_POINT('',(20.120000000000019,-5.952940449895333,7.000000000000011));
#557=CARTESIAN_POINT('',(20.72928008694462,-5.598391609533073,7.000000000000011));
#558=CARTESIAN_POINT('',(21.270000000000017,-5.283076718969403,7.000000000000011));
#566=(BOUNDED_CURVE()B_SPLINE_CURVE(2,(#556,#557,#558),.UNSPECIFIED.,.F.,.U.)B_SPLINE_CURVE_WITH_KNOTS((3,3),(0.0,0.133087095924347),.UNSPECIFIED.)CURVE()GEOMETRIC_REPRESENTATION_ITEM()RATIONAL_B_SPLINE_CURVE((1.0,1.00175048668992,1.0))REPRESENTATION_ITEM(''));
#567=EDGE_CURVE('',#555,#497,#566,.T.);
#568=ORIENTED_EDGE('',*,*,#567,.F.);
#569=CARTESIAN_POINT('',(18.770000000000017,-5.952940449895333,7.000000000000011));
#570=DIRECTION('',(1.0,0.0,0.0));
#571=VECTOR('',#570,1.34999999996322);
#572=LINE('',#569,#571);
#573=EDGE_CURVE('',#256,#555,#572,.T.);
#574=ORIENTED_EDGE('',*,*,#573,.F.);
#575=ORIENTED_EDGE('',*,*,#261,.F.);
#576=ORIENTED_EDGE('',*,*,#544,.F.);
#577=ORIENTED_EDGE('',*,*,#511,.F.);
#578=EDGE_LOOP('',(#568,#574,#575,#576,#577));
#579=FACE_OUTER_BOUND('',#578,.T.);
#580=ADVANCED_FACE('',(#579),#553,.F.);
#581=CARTESIAN_POINT('',(21.395000000000017,-5.158313021347199,5.500000000000011));
#582=DIRECTION('',(0.0,0.0,-1.0));
#583=DIRECTION('',(-1.0,0.0,0.0));
#584=AXIS2_PLACEMENT_3D('',#581,#582,#583);
#585=PLANE('',#584);
#586=CARTESIAN_POINT('',(20.119999999963241,-5.952940449895137,5.499999999998443));
#587=VERTEX_POINT('',#586);
#588=CARTESIAN_POINT('',(21.270000000000017,-5.283076718969403,5.500000000000011));
#589=CARTESIAN_POINT('',(20.72928008672762,-5.598391609659434,5.500000000000011));
#590=CARTESIAN_POINT('',(20.120000000000019,-5.952940449895333,5.500000000000011));
#598=(BOUNDED_CURVE()B_SPLINE_CURVE(2,(#588,#589,#590),.UNSPECIFIED.,.F.,.U.)B_SPLINE_CURVE_WITH_KNOTS((3,3),(0.0,0.133087095924347),.UNSPECIFIED.)CURVE()GEOMETRIC_REPRESENTATION_ITEM()RATIONAL_B_SPLINE_CURVE((1.0,1.00175048667214,1.0))REPRESENTATION_ITEM(''));
#599=EDGE_CURVE('',#387,#587,#598,.T.);
#600=ORIENTED_EDGE('',*,*,#599,.F.);
#601=ORIENTED_EDGE('',*,*,#392,.F.);
#602=ORIENTED_EDGE('',*,*,#537,.T.);
#603=ORIENTED_EDGE('',*,*,#244,.F.);
#604=CARTESIAN_POINT('',(20.119999999963241,-5.952940449895333,5.500000000000011));
#605=DIRECTION('',(-1.0,0.0,0.0));
#606=VECTOR('',#605,1.349999999963224);
#607=LINE('',#604,#606);
#608=EDGE_CURVE('',#587,#237,#607,.T.);
#609=ORIENTED_EDGE('',*,*,#608,.F.);
#610=EDGE_LOOP('',(#600,#601,#602,#603,#609));
#611=FACE_OUTER_BOUND('',#610,.T.);
#612=ADVANCED_FACE('',(#611),#585,.F.);
#613=CARTESIAN_POINT('',(21.395000000000017,-3.828181E-015,6.250000000000002));
#614=DIRECTION('',(-1.0,8.411709E-017,-6.123234E-017));
#615=DIRECTION('',(4.858757E-017,-0.142857142857144,-0.989743318610787));
#616=AXIS2_PLACEMENT_3D('',#613,#614,#615);
#617=CYLINDRICAL_SURFACE('',#616,5.250000000000001);
#618=ORIENTED_EDGE('',*,*,#287,.F.);
#619=CARTESIAN_POINT('',(21.270000000000017,-0.749999999999996,11.446152422706632));
#620=DIRECTION('',(-1.0,0.0,0.0));
#621=VECTOR('',#620,2.5);
#622=LINE('',#619,#621);
#623=EDGE_CURVE('',#480,#273,#622,.T.);
#624=ORIENTED_EDGE('',*,*,#623,.F.);
#625=ORIENTED_EDGE('',*,*,#486,.F.);
#626=CARTESIAN_POINT('',(21.270000000000017,0.750000000000005,11.446152422706632));
#627=DIRECTION('',(-1.0,0.0,0.0));
#628=VECTOR('',#627,2.5);
#629=LINE('',#626,#628);
#630=EDGE_CURVE('',#472,#281,#629,.T.);
#631=ORIENTED_EDGE('',*,*,#630,.T.);
#632=EDGE_LOOP('',(#618,#624,#625,#631));
#633=FACE_OUTER_BOUND('',#632,.T.);
#634=ADVANCED_FACE('',(#633),#617,.T.);
#635=CARTESIAN_POINT('',(18.645000000000017,0.750000000000005,12.240779851254766));
#636=DIRECTION('',(0.0,1.0,0.0));
#637=DIRECTION('',(-1.0,0.0,0.0));
#638=AXIS2_PLACEMENT_3D('',#635,#636,#637);
#639=PLANE('',#638);
#640=CARTESIAN_POINT('',(20.119999999963241,0.750000000001573,12.202940449895134));
#641=VERTEX_POINT('',#640);
#642=CARTESIAN_POINT('',(20.120000000000019,0.750000000000005,12.202940449895332));
#643=CARTESIAN_POINT('',(20.72928008694462,0.750000000000004,11.848391609533071));
#644=CARTESIAN_POINT('',(21.270000000000017,0.750000000000004,11.533076718969401));
#652=(BOUNDED_CURVE()B_SPLINE_CURVE(2,(#642,#643,#644),.UNSPECIFIED.,.F.,.U.)B_SPLINE_CURVE_WITH_KNOTS((3,3),(0.0,0.133087095924347),.UNSPECIFIED.)CURVE()GEOMETRIC_REPRESENTATION_ITEM()RATIONAL_B_SPLINE_CURVE((1.0,1.00175048670246,1.0))REPRESENTATION_ITEM(''));
#653=EDGE_CURVE('',#641,#463,#652,.T.);
#654=ORIENTED_EDGE('',*,*,#653,.F.);
#655=CARTESIAN_POINT('',(18.770000000000017,0.750000000000005,12.202940449895332));
#656=DIRECTION('',(1.0,0.0,0.0));
#657=VECTOR('',#656,1.34999999996322);
#658=LINE('',#655,#657);
#659=EDGE_CURVE('',#290,#641,#658,.T.);
#660=ORIENTED_EDGE('',*,*,#659,.F.);
#661=ORIENTED_EDGE('',*,*,#295,.F.);
#662=ORIENTED_EDGE('',*,*,#630,.F.);
#663=ORIENTED_EDGE('',*,*,#477,.F.);
#664=EDGE_LOOP('',(#654,#660,#661,#662,#663));
#665=FACE_OUTER_BOUND('',#664,.T.);
#666=ADVANCED_FACE('',(#665),#639,.F.);
#667=CARTESIAN_POINT('',(18.645000000000017,-0.749999999999996,12.240779851254766));
#668=DIRECTION('',(0.0,-1.0,0.0));
#669=DIRECTION('',(1.0,0.0,0.0));
#670=AXIS2_PLACEMENT_3D('',#667,#668,#669);
#671=PLANE('',#670);
#672=CARTESIAN_POINT('',(20.119999999963241,-0.750000000001564,12.202940449895134));
#673=VERTEX_POINT('',#672);
#674=CARTESIAN_POINT('',(21.270000000000017,-0.749999999999996,11.533076718969401));
#675=CARTESIAN_POINT('',(20.72928008672762,-0.749999999999996,11.848391609659433));
#676=CARTESIAN_POINT('',(20.120000000000019,-0.749999999999996,12.202940449895332));
#684=(BOUNDED_CURVE()B_SPLINE_CURVE(2,(#674,#675,#676),.UNSPECIFIED.,.F.,.U.)B_SPLINE_CURVE_WITH_KNOTS((3,3),(0.0,0.133087095924347),.UNSPECIFIED.)CURVE()GEOMETRIC_REPRESENTATION_ITEM()RATIONAL_B_SPLINE_CURVE((1.0,1.00175048665939,1.0))REPRESENTATION_ITEM(''));
#685=EDGE_CURVE('',#489,#673,#684,.T.);
#686=ORIENTED_EDGE('',*,*,#685,.F.);
#687=ORIENTED_EDGE('',*,*,#494,.F.);
#688=ORIENTED_EDGE('',*,*,#623,.T.);
#689=ORIENTED_EDGE('',*,*,#278,.F.);
#690=CARTESIAN_POINT('',(20.119999999963241,-0.749999999999996,12.202940449895332));
#691=DIRECTION('',(-1.0,0.0,0.0));
#692=VECTOR('',#691,1.349999999963224);
#693=LINE('',#690,#692);
#694=EDGE_CURVE('',#673,#264,#693,.T.);
#695=ORIENTED_EDGE('',*,*,#694,.F.);
#696=EDGE_LOOP('',(#686,#687,#688,#689,#695));
#697=FACE_OUTER_BOUND('',#696,.T.);
#698=ADVANCED_FACE('',(#697),#671,.F.);
#699=CARTESIAN_POINT('',(21.395000000000017,-3.828181E-015,6.250000000000002));
#700=DIRECTION('',(-1.0,8.411709E-017,-6.123234E-017));
#701=DIRECTION('',(-9.200181E-017,-0.989743318610787,0.142857142857145));
#702=AXIS2_PLACEMENT_3D('',#699,#700,#701);
#703=CYLINDRICAL_SURFACE('',#702,5.25);
#704=ORIENTED_EDGE('',*,*,#321,.F.);
#705=CARTESIAN_POINT('',(21.270000000000017,5.196152422706627,6.999999999999993));
#706=DIRECTION('',(-1.0,0.0,0.0));
#707=VECTOR('',#706,2.5);
#708=LINE('',#705,#707);
#709=EDGE_CURVE('',#446,#307,#708,.T.);
#710=ORIENTED_EDGE('',*,*,#709,.F.);
#711=ORIENTED_EDGE('',*,*,#452,.F.);
#712=CARTESIAN_POINT('',(21.270000000000017,5.196152422706627,5.499999999999993));
#713=DIRECTION('',(-1.0,0.0,0.0));
#714=VECTOR('',#713,2.5);
#715=LINE('',#712,#714);
#716=EDGE_CURVE('',#438,#315,#715,.T.);
#717=ORIENTED_EDGE('',*,*,#716,.T.);
#718=EDGE_LOOP('',(#704,#710,#711,#717));
#719=FACE_OUTER_BOUND('',#718,.T.);
#720=ADVANCED_FACE('',(#719),#703,.T.);
#721=CARTESIAN_POINT('',(21.395000000000017,5.990779851254761,5.499999999999993));
#722=DIRECTION('',(0.0,0.0,-1.0));
#723=DIRECTION('',(-1.0,0.0,0.0));
#724=AXIS2_PLACEMENT_3D('',#721,#722,#723);
#725=PLANE('',#724);
#726=CARTESIAN_POINT('',(20.119999999963241,5.952940449895128,5.499999999998424));
#727=VERTEX_POINT('',#726);
#728=CARTESIAN_POINT('',(20.120000000000019,5.952940449895326,5.499999999999993));
#729=CARTESIAN_POINT('',(20.72928008694462,5.598391609533066,5.499999999999993));
#730=CARTESIAN_POINT('',(21.270000000000017,5.283076718969396,5.499999999999993));
#738=(BOUNDED_CURVE()B_SPLINE_CURVE(2,(#728,#729,#730),.UNSPECIFIED.,.F.,.U.)B_SPLINE_CURVE_WITH_KNOTS((3,3),(0.0,0.133087095924347),.UNSPECIFIED.)CURVE()GEOMETRIC_REPRESENTATION_ITEM()RATIONAL_B_SPLINE_CURVE((1.0,1.00175048668992,1.0))REPRESENTATION_ITEM(''));
#739=EDGE_CURVE('',#727,#429,#738,.T.);
#740=ORIENTED_EDGE('',*,*,#739,.F.);
#741=CARTESIAN_POINT('',(18.770000000000017,5.952940449895326,5.499999999999993));
#742=DIRECTION('',(1.0,0.0,0.0));
#743=VECTOR('',#742,1.34999999996322);
#744=LINE('',#741,#743);
#745=EDGE_CURVE('',#324,#727,#744,.T.);
#746=ORIENTED_EDGE('',*,*,#745,.F.);
#747=ORIENTED_EDGE('',*,*,#329,.F.);
#748=ORIENTED_EDGE('',*,*,#716,.F.);
#749=ORIENTED_EDGE('',*,*,#443,.F.);
#750=EDGE_LOOP('',(#740,#746,#747,#748,#749));
#751=FACE_OUTER_BOUND('',#750,.T.);
#752=ADVANCED_FACE('',(#751),#725,.F.);
#753=CARTESIAN_POINT('',(21.395000000000017,5.990779851254761,6.999999999999993));
#754=DIRECTION('',(0.0,0.0,1.0));
#755=DIRECTION('',(1.0,0.0,0.0));
#756=AXIS2_PLACEMENT_3D('',#753,#754,#755);
#757=PLANE('',#756);
#758=CARTESIAN_POINT('',(20.119999999963241,5.95294044989513,7.000000000001561));
#759=VERTEX_POINT('',#758);
#760=CARTESIAN_POINT('',(21.270000000000017,5.283076718969396,6.999999999999993));
#761=CARTESIAN_POINT('',(20.72928008672762,5.598391609659427,6.999999999999993));
#762=CARTESIAN_POINT('',(20.120000000000019,5.952940449895326,6.999999999999993));
#770=(BOUNDED_CURVE()B_SPLINE_CURVE(2,(#760,#761,#762),.UNSPECIFIED.,.F.,.U.)B_SPLINE_CURVE_WITH_KNOTS((3,3),(0.0,0.133087095924347),.UNSPECIFIED.)CURVE()GEOMETRIC_REPRESENTATION_ITEM()RATIONAL_B_SPLINE_CURVE((1.0,1.00175048667214,1.0))REPRESENTATION_ITEM(''));
#771=EDGE_CURVE('',#455,#759,#770,.T.);
#772=ORIENTED_EDGE('',*,*,#771,.F.);
#773=ORIENTED_EDGE('',*,*,#460,.F.);
#774=ORIENTED_EDGE('',*,*,#709,.T.);
#775=ORIENTED_EDGE('',*,*,#312,.F.);
#776=CARTESIAN_POINT('',(20.119999999963241,5.952940449895326,6.999999999999993));
#777=DIRECTION('',(-1.0,0.0,0.0));
#778=VECTOR('',#777,1.349999999963224);
#779=LINE('',#776,#778);
#780=EDGE_CURVE('',#759,#298,#779,.T.);
#781=ORIENTED_EDGE('',*,*,#780,.F.);
#782=EDGE_LOOP('',(#772,#773,#774,#775,#781));
#783=FACE_OUTER_BOUND('',#782,.T.);
#784=ADVANCED_FACE('',(#783),#757,.F.);
#785=CARTESIAN_POINT('',(18.702500000000018,-3.731478E-015,6.250000000000002));
#786=DIRECTION('',(1.0,-8.411709E-017,6.123234E-017));
#787=DIRECTION('',(0.0,1.0,0.0));
#788=AXIS2_PLACEMENT_3D('',#785,#786,#787);
#789=CYLINDRICAL_SURFACE('',#788,6.0);
#790=ORIENTED_EDGE('',*,*,#745,.T.);
#791=CARTESIAN_POINT('',(20.119999999963241,0.750000000001556,0.29705955010487));
#792=VERTEX_POINT('',#791);
#793=CARTESIAN_POINT('',(20.120000000000019,-3.780631E-015,6.250000000000002));
#794=DIRECTION('',(-1.0,0.0,0.0));
#795=DIRECTION('',(0.0,1.0,0.0));
#796=AXIS2_PLACEMENT_3D('',#793,#794,#795);
#797=CIRCLE('',#796,6.0);
#798=EDGE_CURVE('',#727,#792,#797,.T.);
#799=ORIENTED_EDGE('',*,*,#798,.T.);
#800=CARTESIAN_POINT('',(20.119999999963241,0.749999999999988,0.297059550104672));
#801=DIRECTION('',(-1.0,0.0,0.0));
#802=VECTOR('',#801,1.349999999963224);
#803=LINE('',#800,#802);
#804=EDGE_CURVE('',#792,#332,#803,.T.);
#805=ORIENTED_EDGE('',*,*,#804,.T.);
#806=ORIENTED_EDGE('',*,*,#338,.F.);
#807=EDGE_LOOP('',(#790,#799,#805,#806));
#808=FACE_OUTER_BOUND('',#807,.T.);
#809=ADVANCED_FACE('',(#808),#789,.T.);
#810=CARTESIAN_POINT('',(18.702500000000018,-3.731478E-015,6.250000000000002));
#811=DIRECTION('',(1.0,-8.411709E-017,6.123234E-017));
#812=DIRECTION('',(0.0,1.0,0.0));
#813=AXIS2_PLACEMENT_3D('',#810,#811,#812);
#814=CYLINDRICAL_SURFACE('',#813,6.0);
#815=ORIENTED_EDGE('',*,*,#659,.T.);
#816=CARTESIAN_POINT('',(20.120000000000019,-3.780631E-015,6.250000000000002));
#817=DIRECTION('',(-1.0,0.0,0.0));
#818=DIRECTION('',(0.0,1.0,0.0));
#819=AXIS2_PLACEMENT_3D('',#816,#817,#818);
#820=CIRCLE('',#819,6.0);
#821=EDGE_CURVE('',#641,#759,#820,.T.);
#822=ORIENTED_EDGE('',*,*,#821,.T.);
#823=ORIENTED_EDGE('',*,*,#780,.T.);
#824=ORIENTED_EDGE('',*,*,#304,.F.);
#825=EDGE_LOOP('',(#815,#822,#823,#824));
#826=FACE_OUTER_BOUND('',#825,.T.);
#827=ADVANCED_FACE('',(#826),#814,.T.);
#828=CARTESIAN_POINT('',(18.702500000000018,-3.731478E-015,6.250000000000002));
#829=DIRECTION('',(1.0,-8.411709E-017,6.123234E-017));
#830=DIRECTION('',(0.0,1.0,0.0));
#831=AXIS2_PLACEMENT_3D('',#828,#829,#830);
#832=CYLINDRICAL_SURFACE('',#831,6.0);
#833=ORIENTED_EDGE('',*,*,#573,.T.);
#834=CARTESIAN_POINT('',(20.120000000000019,-3.780631E-015,6.250000000000002));
#835=DIRECTION('',(-1.0,0.0,0.0));
#836=DIRECTION('',(0.0,1.0,0.0));
#837=AXIS2_PLACEMENT_3D('',#834,#835,#836);
#838=CIRCLE('',#837,6.0);
#839=EDGE_CURVE('',#555,#673,#838,.T.);
#840=ORIENTED_EDGE('',*,*,#839,.T.);
#841=ORIENTED_EDGE('',*,*,#694,.T.);
#842=ORIENTED_EDGE('',*,*,#270,.F.);
#843=EDGE_LOOP('',(#833,#840,#841,#842));
#844=FACE_OUTER_BOUND('',#843,.T.);
#845=ADVANCED_FACE('',(#844),#832,.T.);
#846=CARTESIAN_POINT('',(29.512304858977981,-4.540835E-015,6.250000000000003));
#847=DIRECTION('',(-1.0,8.411709E-017,-6.123234E-017));
#848=DIRECTION('',(0.0,0.0,1.0));
#849=AXIS2_PLACEMENT_3D('',#846,#847,#848);
#850=CONICAL_SURFACE('',#849,0.577350268391894,29.999999965719997);
#851=ORIENTED_EDGE('',*,*,#739,.T.);
#852=ORIENTED_EDGE('',*,*,#435,.F.);
#853=CARTESIAN_POINT('',(21.270000000000017,0.749999999999988,0.966923281030603));
#854=CARTESIAN_POINT('',(20.729280086728117,0.749999999999988,0.651608390340861));
#855=CARTESIAN_POINT('',(20.120000000000019,0.749999999999988,0.297059550104672));
#863=(BOUNDED_CURVE()B_SPLINE_CURVE(2,(#853,#854,#855),.UNSPECIFIED.,.F.,.U.)B_SPLINE_CURVE_WITH_KNOTS((3,3),(0.0,0.133087095924347),.UNSPECIFIED.)CURVE()GEOMETRIC_REPRESENTATION_ITEM()RATIONAL_B_SPLINE_CURVE((1.0,1.00175048666939,1.0))REPRESENTATION_ITEM(''));
#864=EDGE_CURVE('',#421,#792,#863,.T.);
#865=ORIENTED_EDGE('',*,*,#864,.T.);
#866=ORIENTED_EDGE('',*,*,#798,.F.);
#867=EDGE_LOOP('',(#851,#852,#865,#866));
#868=FACE_OUTER_BOUND('',#867,.T.);
#869=ADVANCED_FACE('',(#868),#850,.T.);
#870=CARTESIAN_POINT('',(29.512304858977981,-4.540835E-015,6.250000000000003));
#871=DIRECTION('',(-1.0,8.411709E-017,-6.123234E-017));
#872=DIRECTION('',(0.0,0.0,1.0));
#873=AXIS2_PLACEMENT_3D('',#870,#871,#872);
#874=CONICAL_SURFACE('',#873,0.577350268391894,29.999999965719997);
#875=ORIENTED_EDGE('',*,*,#653,.T.);
#876=ORIENTED_EDGE('',*,*,#469,.F.);
#877=ORIENTED_EDGE('',*,*,#771,.T.);
#878=ORIENTED_EDGE('',*,*,#821,.F.);
#879=EDGE_LOOP('',(#875,#876,#877,#878));
#880=FACE_OUTER_BOUND('',#879,.T.);
#881=ADVANCED_FACE('',(#880),#874,.T.);
#882=CARTESIAN_POINT('',(29.512304858977981,-4.540835E-015,6.250000000000003));
#883=DIRECTION('',(-1.0,8.411709E-017,-6.123234E-017));
#884=DIRECTION('',(0.0,0.0,1.0));
#885=AXIS2_PLACEMENT_3D('',#882,#883,#884);
#886=CONICAL_SURFACE('',#885,0.577350268391894,29.999999965719997);
#887=ORIENTED_EDGE('',*,*,#567,.T.);
#888=ORIENTED_EDGE('',*,*,#503,.F.);
#889=ORIENTED_EDGE('',*,*,#685,.T.);
#890=ORIENTED_EDGE('',*,*,#839,.F.);
#891=EDGE_LOOP('',(#887,#888,#889,#890));
#892=FACE_OUTER_BOUND('',#891,.T.);
#893=ADVANCED_FACE('',(#892),#886,.T.);
#894=CARTESIAN_POINT('',(21.395000000000017,-3.828181E-015,6.250000000000002));
#895=DIRECTION('',(-1.0,8.411709E-017,-6.123234E-017));
#896=DIRECTION('',(-4.858757E-017,0.142857142857144,0.989743318610787));
#897=AXIS2_PLACEMENT_3D('',#894,#895,#896);
#898=CYLINDRICAL_SURFACE('',#897,5.250000000000001);
#899=ORIENTED_EDGE('',*,*,#355,.F.);
#900=CARTESIAN_POINT('',(21.270000000000017,0.749999999999988,1.053847577293372));
#901=DIRECTION('',(-1.0,0.0,0.0));
#902=VECTOR('',#901,2.5);
#903=LINE('',#900,#902);
#904=EDGE_CURVE('',#412,#341,#903,.T.);
#905=ORIENTED_EDGE('',*,*,#904,.F.);
#906=ORIENTED_EDGE('',*,*,#418,.F.);
#907=CARTESIAN_POINT('',(21.270000000000017,-0.750000000000012,1.053847577293372));
#908=DIRECTION('',(-1.0,0.0,0.0));
#909=VECTOR('',#908,2.5);
#910=LINE('',#907,#909);
#911=EDGE_CURVE('',#404,#349,#910,.T.);
#912=ORIENTED_EDGE('',*,*,#911,.T.);
#913=EDGE_LOOP('',(#899,#905,#906,#912));
#914=FACE_OUTER_BOUND('',#913,.T.);
#915=ADVANCED_FACE('',(#914),#898,.T.);
#916=CARTESIAN_POINT('',(18.645000000000017,-0.750000000000012,1.091686978652806));
#917=DIRECTION('',(0.0,-1.0,0.0));
#918=DIRECTION('',(1.0,0.0,0.0));
#919=AXIS2_PLACEMENT_3D('',#916,#917,#918);
#920=PLANE('',#919);
#921=CARTESIAN_POINT('',(20.119999999963241,-0.75000000000158,0.29705955010487));
#922=VERTEX_POINT('',#921);
#923=CARTESIAN_POINT('',(20.120000000000019,-0.750000000000012,0.297059550104672));
#924=CARTESIAN_POINT('',(20.729280086945117,-0.750000000000012,0.651608390467222));
#925=CARTESIAN_POINT('',(21.270000000000017,-0.750000000000012,0.966923281030603));
#933=(BOUNDED_CURVE()B_SPLINE_CURVE(2,(#923,#924,#925),.UNSPECIFIED.,.F.,.U.)B_SPLINE_CURVE_WITH_KNOTS((3,3),(0.0,0.133087095924347),.UNSPECIFIED.)CURVE()GEOMETRIC_REPRESENTATION_ITEM()RATIONAL_B_SPLINE_CURVE((1.0,1.00175048671224,1.0))REPRESENTATION_ITEM(''));
#934=EDGE_CURVE('',#922,#395,#933,.T.);
#935=ORIENTED_EDGE('',*,*,#934,.F.);
#936=CARTESIAN_POINT('',(18.770000000000017,-0.750000000000012,0.297059550104672));
#937=DIRECTION('',(1.0,0.0,0.0));
#938=VECTOR('',#937,1.34999999996322);
#939=LINE('',#936,#938);
#940=EDGE_CURVE('',#358,#922,#939,.T.);
#941=ORIENTED_EDGE('',*,*,#940,.F.);
#942=ORIENTED_EDGE('',*,*,#363,.F.);
#943=ORIENTED_EDGE('',*,*,#911,.F.);
#944=ORIENTED_EDGE('',*,*,#409,.F.);
#945=EDGE_LOOP('',(#935,#941,#942,#943,#944));
#946=FACE_OUTER_BOUND('',#945,.T.);
#947=ADVANCED_FACE('',(#946),#920,.F.);
#948=CARTESIAN_POINT('',(18.645000000000017,0.749999999999988,1.091686978652806));
#949=DIRECTION('',(0.0,1.0,0.0));
#950=DIRECTION('',(-1.0,0.0,0.0));
#951=AXIS2_PLACEMENT_3D('',#948,#949,#950);
#952=PLANE('',#951);
#953=ORIENTED_EDGE('',*,*,#864,.F.);
#954=ORIENTED_EDGE('',*,*,#426,.F.);
#955=ORIENTED_EDGE('',*,*,#904,.T.);
#956=ORIENTED_EDGE('',*,*,#346,.F.);
#957=ORIENTED_EDGE('',*,*,#804,.F.);
#958=EDGE_LOOP('',(#953,#954,#955,#956,#957));
#959=FACE_OUTER_BOUND('',#958,.T.);
#960=ADVANCED_FACE('',(#959),#952,.F.);
#961=CARTESIAN_POINT('',(29.512304858977981,-4.540835E-015,6.250000000000003));
#962=DIRECTION('',(-1.0,8.411709E-017,-6.123234E-017));
#963=DIRECTION('',(0.0,0.0,1.0));
#964=AXIS2_PLACEMENT_3D('',#961,#962,#963);
#965=CONICAL_SURFACE('',#964,0.577350268391894,29.999999965719997);
#966=ORIENTED_EDGE('',*,*,#599,.T.);
#967=CARTESIAN_POINT('',(20.120000000000019,-3.780631E-015,6.250000000000002));
#968=DIRECTION('',(-1.0,0.0,0.0));
#969=DIRECTION('',(0.0,1.0,0.0));
#970=AXIS2_PLACEMENT_3D('',#967,#968,#969);
#971=CIRCLE('',#970,6.0);
#972=EDGE_CURVE('',#922,#587,#971,.T.);
#973=ORIENTED_EDGE('',*,*,#972,.F.);
#974=ORIENTED_EDGE('',*,*,#934,.T.);
#975=ORIENTED_EDGE('',*,*,#401,.F.);
#976=EDGE_LOOP('',(#966,#973,#974,#975));
#977=FACE_OUTER_BOUND('',#976,.T.);
#978=ADVANCED_FACE('',(#977),#965,.T.);
#979=CARTESIAN_POINT('',(18.702500000000018,-3.731478E-015,6.250000000000002));
#980=DIRECTION('',(1.0,-8.411709E-017,6.123234E-017));
#981=DIRECTION('',(0.0,1.0,0.0));
#982=AXIS2_PLACEMENT_3D('',#979,#980,#981);
#983=CYLINDRICAL_SURFACE('',#982,6.0);
#984=ORIENTED_EDGE('',*,*,#608,.T.);
#985=ORIENTED_EDGE('',*,*,#370,.F.);
#986=ORIENTED_EDGE('',*,*,#940,.T.);
#987=ORIENTED_EDGE('',*,*,#972,.T.);
#988=EDGE_LOOP('',(#984,#985,#986,#987));
#989=FACE_OUTER_BOUND('',#988,.T.);
#990=ADVANCED_FACE('',(#989),#983,.T.);
#991=CLOSED_SHELL('',(#106,#138,#176,#194,#212,#230,#378,#526,#548,#580,#612,#634,#666,#698,#720,#752,#784,#809,#827,#845,#869,#881,#893,#915,#947,#960,#978,#990));
#992=MANIFOLD_SOLID_BREP('1E15',#991);
#993=COLOUR_RGB('254',0.866,0.866,0.866);
#994=SURFACE_STYLE_USAGE(.BOTH.,#995);
#995=SURFACE_SIDE_STYLE('NONE',(#996));
#996=SURFACE_STYLE_FILL_AREA(#997);
#997=FILL_AREA_STYLE('NONE',(#998));
#998=FILL_AREA_STYLE_COLOUR('NONE',#993);
#999=PRESENTATION_STYLE_ASSIGNMENT((#994));
#1000=STYLED_ITEM('NONE',(#999),#992);
#1001=MECHANICAL_DESIGN_GEOMETRIC_PRESENTATION_REPRESENTATION('NONE',(#1000),#28);
#1002=PRESENTATION_LAYER_ASSIGNMENT('3D','None',(#992));
#1003=ADVANCED_BREP_SHAPE_REPRESENTATION('ABSR1',(#992),#28);
#1004=SHAPE_REPRESENTATION_RELATIONSHIP('SRRPL1','',#1003,#62);
ENDSEC;
END-ISO-10303-21;
