ISO-10303-21;
HEADER;
/****************************************************************
 * Generated by software with PDElib inside                    *
 * PDElib Version v51a, created Fri 09/10/2010                  *
 * ITI Transcendata (http://www.transcendata.com/)              *
 ****************************************************************/
FILE_DESCRIPTION((''),'2;1');
FILE_NAME('MOLEX_22-04-1021.stp','2012-02-13T08:56:28',(''),(''),'Mechanical Desktop 2011','Mechanical Desktop 2011',', , ');
FILE_SCHEMA(('AUTOMOTIVE_DESIGN { 1 2 10303 214 1 1 1 1 }'));
ENDSEC;
DATA;
#10=(NAMED_UNIT(*)PLANE_ANGLE_UNIT()SI_UNIT($,.RADIAN.));
#11=DIMENSIONAL_EXPONENTS(0.0,0.0,0.0,0.0,0.0,0.0,0.0);
#12=PLANE_ANGLE_MEASURE_WITH_UNIT(PLANE_ANGLE_MEASURE(0.0174532925),#10);
#16=(CONVERSION_BASED_UNIT('DEGREE',#12)NAMED_UNIT(#11)PLANE_ANGLE_UNIT());
#20=(NAMED_UNIT(*)SI_UNIT($,.STERADIAN.)SOLID_ANGLE_UNIT());
#24=(LENGTH_UNIT()NAMED_UNIT(*)SI_UNIT(.MILLI.,.METRE.));
#26=UNCERTAINTY_MEASURE_WITH_UNIT(LENGTH_MEASURE(0.000001),#24,'DISTANCE_ACCURACY_VALUE','');
#28=(GEOMETRIC_REPRESENTATION_CONTEXT(3)GLOBAL_UNCERTAINTY_ASSIGNED_CONTEXT((#26))GLOBAL_UNIT_ASSIGNED_CONTEXT((#16,#20,#24))REPRESENTATION_CONTEXT('','3D'));
#29=APPLICATION_CONTEXT('automotive design');
#30=APPLICATION_PROTOCOL_DEFINITION('INTERNATIONAL_STANDARD','automotive_design',1998,#29);
#31=PRODUCT_CONTEXT('3D Mechanical Parts',#29,'mechanical');
#32=PRODUCT('Product','Product','',(#31));
#33=PRODUCT_RELATED_PRODUCT_CATEGORY('part',$,(#32));
#34=PRODUCT_CATEGORY('part',$);
#35=PERSON('1','Design','Joe',$,$,$);
#36=ORGANIZATION($,'None','None');
#37=PERSON_AND_ORGANIZATION(#35,#36);
#38=PERSON_AND_ORGANIZATION_ROLE('design_owner');
#39=APPLIED_PERSON_AND_ORGANIZATION_ASSIGNMENT(#37,#38,(#32));
#40=PRODUCT_DEFINITION_FORMATION_WITH_SPECIFIED_SOURCE('None','',#32,.BOUGHT.);
#41=PERSON('2','Creator','Joe',$,$,$);
#42=ORGANIZATION($,'None','None');
#43=PERSON_AND_ORGANIZATION(#41,#42);
#44=PERSON_AND_ORGANIZATION_ROLE('creator');
#45=APPLIED_PERSON_AND_ORGANIZATION_ASSIGNMENT(#43,#44,(#40));
#46=PERSON('3','Supplier','Joe',$,$,$);
#47=ORGANIZATION($,'None','None');
#48=PERSON_AND_ORGANIZATION(#46,#47);
#49=PERSON_AND_ORGANIZATION_ROLE('design_supplier');
#50=APPLIED_PERSON_AND_ORGANIZATION_ASSIGNMENT(#48,#49,(#40));
#51=PRODUCT_DEFINITION_CONTEXT('part definition',#29,'design');
#52=PRODUCT_DEFINITION('None','',#40,#51);
#53=PERSON('4','Creator','Joe',$,$,$);
#54=ORGANIZATION($,'None','None');
#55=PERSON_AND_ORGANIZATION(#53,#54);
#56=PERSON_AND_ORGANIZATION_ROLE('creator');
#57=APPLIED_PERSON_AND_ORGANIZATION_ASSIGNMENT(#55,#56,(#52));
#58=CARTESIAN_POINT('NONE',(0.0,0.0,0.0));
#59=DIRECTION('NONE',(0.0,0.0,1.0));
#60=DIRECTION('NONE',(1.0,0.0,0.0));
#61=AXIS2_PLACEMENT_3D('NONE',#58,#59,#60);
#62=SHAPE_REPRESENTATION('SR1',(#61),#28);
#63=PRODUCT_DEFINITION_SHAPE('PDS1','Test Part',#52);
#64=SHAPE_DEFINITION_REPRESENTATION(#63,#62);
#65=CARTESIAN_POINT('',(1.104411905,-2.328721154814682,11.300000000000001));
#66=DIRECTION('',(0.939692619809265,-2.709149E-016,0.342020146008975));
#67=DIRECTION('',(0.342020146008975,0.0,-0.939692619809265));
#68=AXIS2_PLACEMENT_3D('',#65,#66,#67);
#69=PLANE('',#68);
#70=CARTESIAN_POINT('',(1.25,-1.600000000000001,10.9));
#71=VERTEX_POINT('',#70);
#72=CARTESIAN_POINT('',(0.958823810000001,-1.600000000000001,11.700000000000001));
#73=VERTEX_POINT('',#72);
#74=CARTESIAN_POINT('',(1.25,-1.600000000000001,10.9));
#75=DIRECTION('',(-0.342020146008975,0.0,0.939692619809265));
#76=VECTOR('',#75,0.85134221886555);
#77=LINE('',#74,#76);
#78=EDGE_CURVE('',#71,#73,#77,.T.);
#79=ORIENTED_EDGE('',*,*,#78,.T.);
#80=CARTESIAN_POINT('',(0.95882381,-2.600000000000001,11.700000000000001));
#81=VERTEX_POINT('',#80);
#82=CARTESIAN_POINT('',(0.958823810000001,-1.600000000000001,11.700000000000001));
#83=DIRECTION('',(0.0,-1.0,0.0));
#84=VECTOR('',#83,1.0);
#85=LINE('',#82,#84);
#86=EDGE_CURVE('',#73,#81,#85,.T.);
#87=ORIENTED_EDGE('',*,*,#86,.T.);
#88=CARTESIAN_POINT('',(1.25,-2.600000000000001,10.9));
#89=VERTEX_POINT('',#88);
#90=CARTESIAN_POINT('',(0.958823810000001,-2.600000000000001,11.700000000000001));
#91=DIRECTION('',(0.342020146008975,-5.216342E-016,-0.939692619809265));
#92=VECTOR('',#91,0.85134221886555);
#93=LINE('',#90,#92);
#94=EDGE_CURVE('',#81,#89,#93,.T.);
#95=ORIENTED_EDGE('',*,*,#94,.T.);
#96=CARTESIAN_POINT('',(1.25,-2.600000000000001,10.9));
#97=DIRECTION('',(0.0,1.0,0.0));
#98=VECTOR('',#97,1.0);
#99=LINE('',#96,#98);
#100=EDGE_CURVE('',#89,#71,#99,.T.);
#101=ORIENTED_EDGE('',*,*,#100,.T.);
#102=EDGE_LOOP('',(#79,#87,#95,#101));
#103=FACE_OUTER_BOUND('',#102,.T.);
#104=ADVANCED_FACE('',(#103),#69,.T.);
#105=CARTESIAN_POINT('',(-1.25,-2.600000000000001,10.9));
#106=DIRECTION('',(0.0,-1.0,0.0));
#107=DIRECTION('',(0.0,0.0,-1.0));
#108=AXIS2_PLACEMENT_3D('',#105,#106,#107);
#109=PLANE('',#108);
#110=ORIENTED_EDGE('',*,*,#94,.F.);
#111=CARTESIAN_POINT('',(-0.95882381,-2.600000000000001,11.700000000000001));
#112=VERTEX_POINT('',#111);
#113=CARTESIAN_POINT('',(-0.95882381,-2.600000000000001,11.700000000000001));
#114=DIRECTION('',(1.0,0.0,0.0));
#115=VECTOR('',#114,1.91764762);
#116=LINE('',#113,#115);
#117=EDGE_CURVE('',#112,#81,#116,.T.);
#118=ORIENTED_EDGE('',*,*,#117,.F.);
#119=CARTESIAN_POINT('',(-1.25,-2.600000000000001,10.9));
#120=VERTEX_POINT('',#119);
#121=CARTESIAN_POINT('',(-1.25,-2.600000000000001,10.9));
#122=DIRECTION('',(0.342020146008975,5.216342E-016,0.939692619809265));
#123=VECTOR('',#122,0.85134221886555);
#124=LINE('',#121,#123);
#125=EDGE_CURVE('',#120,#112,#124,.T.);
#126=ORIENTED_EDGE('',*,*,#125,.F.);
#127=CARTESIAN_POINT('',(-1.25,-2.600000000000001,3.3));
#128=VERTEX_POINT('',#127);
#129=CARTESIAN_POINT('',(-1.25,-2.600000000000001,10.9));
#130=DIRECTION('',(0.0,0.0,-1.0));
#131=VECTOR('',#130,7.600000000000001);
#132=LINE('',#129,#131);
#133=EDGE_CURVE('',#120,#128,#132,.T.);
#134=ORIENTED_EDGE('',*,*,#133,.T.);
#135=CARTESIAN_POINT('',(1.25,-2.600000000000001,3.3));
#136=VERTEX_POINT('',#135);
#137=CARTESIAN_POINT('',(-1.25,-2.600000000000001,3.3));
#138=DIRECTION('',(1.0,0.0,0.0));
#139=VECTOR('',#138,2.5);
#140=LINE('',#137,#139);
#141=EDGE_CURVE('',#128,#136,#140,.T.);
#142=ORIENTED_EDGE('',*,*,#141,.T.);
#143=CARTESIAN_POINT('',(1.25,-2.600000000000005,3.299999999999999));
#144=DIRECTION('',(0.0,0.0,1.0));
#145=VECTOR('',#144,7.600000000000001);
#146=LINE('',#143,#145);
#147=EDGE_CURVE('',#136,#89,#146,.T.);
#148=ORIENTED_EDGE('',*,*,#147,.T.);
#149=EDGE_LOOP('',(#110,#118,#126,#134,#142,#148));
#150=FACE_OUTER_BOUND('',#149,.T.);
#151=ADVANCED_FACE('',(#150),#109,.T.);
#152=CARTESIAN_POINT('',(-1.25,-2.600000000000001,11.700000000000001));
#153=DIRECTION('',(0.0,0.0,1.0));
#154=DIRECTION('',(1.0,0.0,0.0));
#155=AXIS2_PLACEMENT_3D('',#152,#153,#154);
#156=PLANE('',#155);
#157=ORIENTED_EDGE('',*,*,#86,.F.);
#158=CARTESIAN_POINT('',(-0.958823809999999,-1.600000000000001,11.700000000000001));
#159=VERTEX_POINT('',#158);
#160=CARTESIAN_POINT('',(-0.958823809999999,-1.600000000000001,11.700000000000001));
#161=DIRECTION('',(1.0,0.0,0.0));
#162=VECTOR('',#161,1.91764762);
#163=LINE('',#160,#162);
#164=EDGE_CURVE('',#159,#73,#163,.T.);
#165=ORIENTED_EDGE('',*,*,#164,.F.);
#166=CARTESIAN_POINT('',(-0.95882381,-2.600000000000001,11.700000000000001));
#167=DIRECTION('',(0.0,1.0,0.0));
#168=VECTOR('',#167,1.0);
#169=LINE('',#166,#168);
#170=EDGE_CURVE('',#112,#159,#169,.T.);
#171=ORIENTED_EDGE('',*,*,#170,.F.);
#172=ORIENTED_EDGE('',*,*,#117,.T.);
#173=EDGE_LOOP('',(#157,#165,#171,#172));
#174=FACE_OUTER_BOUND('',#173,.T.);
#175=ADVANCED_FACE('',(#174),#156,.T.);
#176=CARTESIAN_POINT('',(-1.104411905,-2.328721154814681,11.300000000000001));
#177=DIRECTION('',(-0.939692619809265,2.738754E-016,0.342020146008975));
#178=DIRECTION('',(0.342020146008975,0.0,0.939692619809265));
#179=AXIS2_PLACEMENT_3D('',#176,#177,#178);
#180=PLANE('',#179);
#181=ORIENTED_EDGE('',*,*,#125,.T.);
#182=ORIENTED_EDGE('',*,*,#170,.T.);
#183=CARTESIAN_POINT('',(-1.25,-1.600000000000001,10.9));
#184=VERTEX_POINT('',#183);
#185=CARTESIAN_POINT('',(-0.958823809999999,-1.600000000000001,11.700000000000001));
#186=DIRECTION('',(-0.342020146008975,0.0,-0.939692619809265));
#187=VECTOR('',#186,0.85134221886555);
#188=LINE('',#185,#187);
#189=EDGE_CURVE('',#159,#184,#188,.T.);
#190=ORIENTED_EDGE('',*,*,#189,.T.);
#191=CARTESIAN_POINT('',(-1.25,-1.600000000000001,10.9));
#192=DIRECTION('',(0.0,-1.0,0.0));
#193=VECTOR('',#192,1.0);
#194=LINE('',#191,#193);
#195=EDGE_CURVE('',#184,#120,#194,.T.);
#196=ORIENTED_EDGE('',*,*,#195,.T.);
#197=EDGE_LOOP('',(#181,#182,#190,#196));
#198=FACE_OUTER_BOUND('',#197,.T.);
#199=ADVANCED_FACE('',(#198),#180,.T.);
#200=CARTESIAN_POINT('',(-1.25,-1.600000000000001,11.700000000000001));
#201=DIRECTION('',(0.0,1.0,0.0));
#202=DIRECTION('',(0.0,0.0,1.0));
#203=AXIS2_PLACEMENT_3D('',#200,#201,#202);
#204=PLANE('',#203);
#205=ORIENTED_EDGE('',*,*,#78,.F.);
#206=CARTESIAN_POINT('',(1.25,-1.600000000000001,7.969521760065));
#207=VERTEX_POINT('',#206);
#208=CARTESIAN_POINT('',(1.25,-1.600000000000001,10.9));
#209=DIRECTION('',(0.0,0.0,-1.0));
#210=VECTOR('',#209,2.930478239935001);
#211=LINE('',#208,#210);
#212=EDGE_CURVE('',#71,#207,#211,.T.);
#213=ORIENTED_EDGE('',*,*,#212,.T.);
#214=CARTESIAN_POINT('',(-1.25,-1.600000000000001,7.969521760065));
#215=VERTEX_POINT('',#214);
#216=CARTESIAN_POINT('',(-1.25,-1.600000000000001,7.969521760065));
#217=DIRECTION('',(1.0,0.0,0.0));
#218=VECTOR('',#217,2.5);
#219=LINE('',#216,#218);
#220=EDGE_CURVE('',#215,#207,#219,.T.);
#221=ORIENTED_EDGE('',*,*,#220,.F.);
#222=CARTESIAN_POINT('',(-1.25,-1.600000000000001,7.969521760065));
#223=DIRECTION('',(0.0,0.0,1.0));
#224=VECTOR('',#223,2.930478239935001);
#225=LINE('',#222,#224);
#226=EDGE_CURVE('',#215,#184,#225,.T.);
#227=ORIENTED_EDGE('',*,*,#226,.T.);
#228=ORIENTED_EDGE('',*,*,#189,.F.);
#229=ORIENTED_EDGE('',*,*,#164,.T.);
#230=EDGE_LOOP('',(#205,#213,#221,#227,#228,#229));
#231=FACE_OUTER_BOUND('',#230,.T.);
#232=ADVANCED_FACE('',(#231),#204,.T.);
#233=CARTESIAN_POINT('',(-1.25,-1.600000000000001,7.969521760065));
#234=DIRECTION('',(1.538370E-016,0.866025403784266,0.500000000000298));
#235=DIRECTION('',(1.0,0.0,0.0));
#236=AXIS2_PLACEMENT_3D('',#233,#234,#235);
#237=PLANE('',#236);
#238=CARTESIAN_POINT('',(1.250000000000001,-1.200000000000001,7.276701437038));
#239=VERTEX_POINT('',#238);
#240=CARTESIAN_POINT('',(1.250000000000001,-1.600000000000001,7.969521760065));
#241=DIRECTION('',(0.0,0.500000000000298,-0.866025403784266));
#242=VECTOR('',#241,0.799999999999523);
#243=LINE('',#240,#242);
#244=EDGE_CURVE('',#207,#239,#243,.T.);
#245=ORIENTED_EDGE('',*,*,#244,.T.);
#246=CARTESIAN_POINT('',(-1.249999999999999,-1.2,7.276701437038));
#247=VERTEX_POINT('',#246);
#248=CARTESIAN_POINT('',(-1.249999999999999,-1.2,7.276701437038));
#249=DIRECTION('',(1.0,0.0,0.0));
#250=VECTOR('',#249,2.5);
#251=LINE('',#248,#250);
#252=EDGE_CURVE('',#247,#239,#251,.T.);
#253=ORIENTED_EDGE('',*,*,#252,.F.);
#254=CARTESIAN_POINT('',(-1.249999999999999,-1.2,7.276701437038));
#255=DIRECTION('',(0.0,-0.500000000000298,0.866025403784266));
#256=VECTOR('',#255,0.799999999999523);
#257=LINE('',#254,#256);
#258=EDGE_CURVE('',#247,#215,#257,.T.);
#259=ORIENTED_EDGE('',*,*,#258,.T.);
#260=ORIENTED_EDGE('',*,*,#220,.T.);
#261=EDGE_LOOP('',(#245,#253,#259,#260));
#262=FACE_OUTER_BOUND('',#261,.T.);
#263=ADVANCED_FACE('',(#262),#237,.T.);
#264=CARTESIAN_POINT('',(-1.249999999999999,-1.2,7.276701437038));
#265=DIRECTION('',(0.0,1.0,0.0));
#266=DIRECTION('',(0.0,0.0,1.0));
#267=AXIS2_PLACEMENT_3D('',#264,#265,#266);
#268=PLANE('',#267);
#269=CARTESIAN_POINT('',(1.250000000000001,-1.200000000000001,6.276701437038));
#270=VERTEX_POINT('',#269);
#271=CARTESIAN_POINT('',(1.250000000000001,-1.200000000000001,7.276701437038));
#272=DIRECTION('',(0.0,0.0,-1.0));
#273=VECTOR('',#272,1.0);
#274=LINE('',#271,#273);
#275=EDGE_CURVE('',#239,#270,#274,.T.);
#276=ORIENTED_EDGE('',*,*,#275,.T.);
#277=CARTESIAN_POINT('',(-1.249999999999999,-1.2,6.276701437038));
#278=VERTEX_POINT('',#277);
#279=CARTESIAN_POINT('',(-1.249999999999999,-1.2,6.276701437038));
#280=DIRECTION('',(1.0,0.0,0.0));
#281=VECTOR('',#280,2.5);
#282=LINE('',#279,#281);
#283=EDGE_CURVE('',#278,#270,#282,.T.);
#284=ORIENTED_EDGE('',*,*,#283,.F.);
#285=CARTESIAN_POINT('',(-1.249999999999999,-1.2,6.276701437038));
#286=DIRECTION('',(0.0,0.0,1.0));
#287=VECTOR('',#286,1.0);
#288=LINE('',#285,#287);
#289=EDGE_CURVE('',#278,#247,#288,.T.);
#290=ORIENTED_EDGE('',*,*,#289,.T.);
#291=ORIENTED_EDGE('',*,*,#252,.T.);
#292=EDGE_LOOP('',(#276,#284,#290,#291));
#293=FACE_OUTER_BOUND('',#292,.T.);
#294=ADVANCED_FACE('',(#293),#268,.T.);
#295=CARTESIAN_POINT('',(-1.249999999999999,-1.2,6.276701437038));
#296=DIRECTION('',(1.360768E-016,0.766044443119187,-0.64278760968629));
#297=DIRECTION('',(-1.0,0.0,0.0));
#298=AXIS2_PLACEMENT_3D('',#295,#296,#297);
#299=PLANE('',#298);
#300=CARTESIAN_POINT('',(1.25,-1.600000000000001,5.800000000000001));
#301=VERTEX_POINT('',#300);
#302=CARTESIAN_POINT('',(1.25,-1.200000000000001,6.276701437038));
#303=DIRECTION('',(0.0,-0.64278760968629,-0.766044443119187));
#304=VECTOR('',#303,0.622289530744406);
#305=LINE('',#302,#304);
#306=EDGE_CURVE('',#270,#301,#305,.T.);
#307=ORIENTED_EDGE('',*,*,#306,.T.);
#308=CARTESIAN_POINT('',(-1.25,-1.600000000000001,5.800000000000001));
#309=VERTEX_POINT('',#308);
#310=CARTESIAN_POINT('',(-1.25,-1.600000000000001,5.800000000000001));
#311=DIRECTION('',(1.0,0.0,0.0));
#312=VECTOR('',#311,2.5);
#313=LINE('',#310,#312);
#314=EDGE_CURVE('',#309,#301,#313,.T.);
#315=ORIENTED_EDGE('',*,*,#314,.F.);
#316=CARTESIAN_POINT('',(-1.25,-1.600000000000001,5.800000000000001));
#317=DIRECTION('',(0.0,0.64278760968629,0.766044443119187));
#318=VECTOR('',#317,0.622289530744406);
#319=LINE('',#316,#318);
#320=EDGE_CURVE('',#309,#278,#319,.T.);
#321=ORIENTED_EDGE('',*,*,#320,.T.);
#322=ORIENTED_EDGE('',*,*,#283,.T.);
#323=EDGE_LOOP('',(#307,#315,#321,#322));
#324=FACE_OUTER_BOUND('',#323,.T.);
#325=ADVANCED_FACE('',(#324),#299,.T.);
#326=CARTESIAN_POINT('',(-1.25,-1.600000000000001,5.800000000000001));
#327=DIRECTION('',(0.0,1.0,0.0));
#328=DIRECTION('',(0.0,0.0,1.0));
#329=AXIS2_PLACEMENT_3D('',#326,#327,#328);
#330=PLANE('',#329);
#331=CARTESIAN_POINT('',(1.25,-1.600000000000001,3.3));
#332=VERTEX_POINT('',#331);
#333=CARTESIAN_POINT('',(1.25,-1.600000000000001,5.800000000000001));
#334=DIRECTION('',(0.0,0.0,-1.0));
#335=VECTOR('',#334,2.500000000000001);
#336=LINE('',#333,#335);
#337=EDGE_CURVE('',#301,#332,#336,.T.);
#338=ORIENTED_EDGE('',*,*,#337,.T.);
#339=CARTESIAN_POINT('',(-1.25,-1.6,3.3));
#340=VERTEX_POINT('',#339);
#341=CARTESIAN_POINT('',(-1.25,-1.6,3.3));
#342=DIRECTION('',(1.0,0.0,0.0));
#343=VECTOR('',#342,2.5);
#344=LINE('',#341,#343);
#345=EDGE_CURVE('',#340,#332,#344,.T.);
#346=ORIENTED_EDGE('',*,*,#345,.F.);
#347=CARTESIAN_POINT('',(-1.25,-1.6,3.3));
#348=DIRECTION('',(0.0,0.0,1.0));
#349=VECTOR('',#348,2.500000000000001);
#350=LINE('',#347,#349);
#351=EDGE_CURVE('',#340,#309,#350,.T.);
#352=ORIENTED_EDGE('',*,*,#351,.T.);
#353=ORIENTED_EDGE('',*,*,#314,.T.);
#354=EDGE_LOOP('',(#338,#346,#352,#353));
#355=FACE_OUTER_BOUND('',#354,.T.);
#356=ADVANCED_FACE('',(#355),#330,.T.);
#357=CARTESIAN_POINT('',(-1.25,-1.6,3.3));
#358=DIRECTION('',(0.0,0.0,-1.0));
#359=DIRECTION('',(-1.0,0.0,0.0));
#360=AXIS2_PLACEMENT_3D('',#357,#358,#359);
#361=PLANE('',#360);
#362=CARTESIAN_POINT('',(1.25,-1.600000000000001,3.3));
#363=DIRECTION('',(0.0,-1.0,0.0));
#364=VECTOR('',#363,1.0);
#365=LINE('',#362,#364);
#366=EDGE_CURVE('',#332,#136,#365,.T.);
#367=ORIENTED_EDGE('',*,*,#366,.T.);
#368=ORIENTED_EDGE('',*,*,#141,.F.);
#369=CARTESIAN_POINT('',(-1.25,-2.600000000000001,3.3));
#370=DIRECTION('',(0.0,1.0,0.0));
#371=VECTOR('',#370,1.0);
#372=LINE('',#369,#371);
#373=EDGE_CURVE('',#128,#340,#372,.T.);
#374=ORIENTED_EDGE('',*,*,#373,.T.);
#375=ORIENTED_EDGE('',*,*,#345,.T.);
#376=EDGE_LOOP('',(#367,#368,#374,#375));
#377=FACE_OUTER_BOUND('',#376,.T.);
#378=ADVANCED_FACE('',(#377),#361,.T.);
#379=CARTESIAN_POINT('',(-1.25,-2.057442309629362,7.489523639106072));
#380=DIRECTION('',(1.0,0.0,0.0));
#381=DIRECTION('',(0.0,0.0,-1.0));
#382=AXIS2_PLACEMENT_3D('',#379,#380,#381);
#383=PLANE('',#382);
#384=ORIENTED_EDGE('',*,*,#195,.F.);
#385=ORIENTED_EDGE('',*,*,#226,.F.);
#386=ORIENTED_EDGE('',*,*,#258,.F.);
#387=ORIENTED_EDGE('',*,*,#289,.F.);
#388=ORIENTED_EDGE('',*,*,#320,.F.);
#389=ORIENTED_EDGE('',*,*,#351,.F.);
#390=ORIENTED_EDGE('',*,*,#373,.F.);
#391=ORIENTED_EDGE('',*,*,#133,.F.);
#392=EDGE_LOOP('',(#384,#385,#386,#387,#388,#389,#390,#391));
#393=FACE_OUTER_BOUND('',#392,.T.);
#394=ADVANCED_FACE('',(#393),#383,.F.);
#395=CARTESIAN_POINT('',(1.25,-2.057442309629362,7.489523639106072));
#396=DIRECTION('',(1.0,0.0,0.0));
#397=DIRECTION('',(0.0,0.0,-1.0));
#398=AXIS2_PLACEMENT_3D('',#395,#396,#397);
#399=PLANE('',#398);
#400=ORIENTED_EDGE('',*,*,#100,.F.);
#401=ORIENTED_EDGE('',*,*,#147,.F.);
#402=ORIENTED_EDGE('',*,*,#366,.F.);
#403=ORIENTED_EDGE('',*,*,#337,.F.);
#404=ORIENTED_EDGE('',*,*,#306,.F.);
#405=ORIENTED_EDGE('',*,*,#275,.F.);
#406=ORIENTED_EDGE('',*,*,#244,.F.);
#407=ORIENTED_EDGE('',*,*,#212,.F.);
#408=EDGE_LOOP('',(#400,#401,#402,#403,#404,#405,#406,#407));
#409=FACE_OUTER_BOUND('',#408,.T.);
#410=ADVANCED_FACE('',(#409),#399,.T.);
#411=CLOSED_SHELL('',(#104,#151,#175,#199,#232,#263,#294,#325,#356,#378,#394,#410));
#412=MANIFOLD_SOLID_BREP('11E0',#411);
#413=DRAUGHTING_PRE_DEFINED_COLOUR('white');
#414=SURFACE_STYLE_USAGE(.BOTH.,#415);
#415=SURFACE_SIDE_STYLE('NONE',(#416));
#416=SURFACE_STYLE_FILL_AREA(#417);
#417=FILL_AREA_STYLE('NONE',(#418));
#418=FILL_AREA_STYLE_COLOUR('NONE',#413);
#419=PRESENTATION_STYLE_ASSIGNMENT((#414));
#420=STYLED_ITEM('NONE',(#419),#412);
#421=MECHANICAL_DESIGN_GEOMETRIC_PRESENTATION_REPRESENTATION('NONE',(#420,#1047,#1238,#1422,#1606,#1790),#28);
#422=PRESENTATION_LAYER_ASSIGNMENT('3D','None',(#412,#1046,#1230,#1421,#1605,#1789));
#423=CARTESIAN_POINT('',(-0.375,0.225,2.8));
#424=DIRECTION('',(-1.0,0.0,0.0));
#425=DIRECTION('',(0.0,-1.0,0.0));
#426=AXIS2_PLACEMENT_3D('',#423,#424,#425);
#427=PLANE('',#426);
#428=CARTESIAN_POINT('',(-0.375,-0.4,2.3));
#429=VERTEX_POINT('',#428);
#430=CARTESIAN_POINT('',(-0.375,-0.4,3.3));
#431=VERTEX_POINT('',#430);
#432=CARTESIAN_POINT('',(-0.375,-0.4,2.3));
#433=DIRECTION('',(0.0,0.0,1.0));
#434=VECTOR('',#433,1.0);
#435=LINE('',#432,#434);
#436=EDGE_CURVE('',#429,#431,#435,.T.);
#437=ORIENTED_EDGE('',*,*,#436,.F.);
#438=CARTESIAN_POINT('',(-0.375,0.85,2.3));
#439=VERTEX_POINT('',#438);
#440=CARTESIAN_POINT('',(-0.375,0.85,2.3));
#441=DIRECTION('',(0.0,-1.0,0.0));
#442=VECTOR('',#441,1.25);
#443=LINE('',#440,#442);
#444=EDGE_CURVE('',#439,#429,#443,.T.);
#445=ORIENTED_EDGE('',*,*,#444,.F.);
#446=CARTESIAN_POINT('',(-0.375,0.85,3.3));
#447=VERTEX_POINT('',#446);
#448=CARTESIAN_POINT('',(-0.375,0.85,3.3));
#449=DIRECTION('',(0.0,0.0,-1.0));
#450=VECTOR('',#449,1.0);
#451=LINE('',#448,#450);
#452=EDGE_CURVE('',#447,#439,#451,.T.);
#453=ORIENTED_EDGE('',*,*,#452,.F.);
#454=CARTESIAN_POINT('',(-0.375,-0.4,3.3));
#455=DIRECTION('',(0.0,1.0,0.0));
#456=VECTOR('',#455,1.25);
#457=LINE('',#454,#456);
#458=EDGE_CURVE('',#431,#447,#457,.T.);
#459=ORIENTED_EDGE('',*,*,#458,.F.);
#460=EDGE_LOOP('',(#437,#445,#453,#459));
#461=FACE_OUTER_BOUND('',#460,.T.);
#462=ADVANCED_FACE('',(#461),#427,.F.);
#463=CARTESIAN_POINT('',(0.375,0.225,2.8));
#464=DIRECTION('',(-1.0,0.0,0.0));
#465=DIRECTION('',(0.0,-1.0,0.0));
#466=AXIS2_PLACEMENT_3D('',#463,#464,#465);
#467=PLANE('',#466);
#468=CARTESIAN_POINT('',(0.375,-0.4,3.3));
#469=VERTEX_POINT('',#468);
#470=CARTESIAN_POINT('',(0.375,-0.4,2.3));
#471=VERTEX_POINT('',#470);
#472=CARTESIAN_POINT('',(0.375,-0.4,3.3));
#473=DIRECTION('',(0.0,0.0,-1.0));
#474=VECTOR('',#473,1.0);
#475=LINE('',#472,#474);
#476=EDGE_CURVE('',#469,#471,#475,.T.);
#477=ORIENTED_EDGE('',*,*,#476,.F.);
#478=CARTESIAN_POINT('',(0.375,0.85,3.3));
#479=VERTEX_POINT('',#478);
#480=CARTESIAN_POINT('',(0.375,0.85,3.3));
#481=DIRECTION('',(0.0,-1.0,0.0));
#482=VECTOR('',#481,1.25);
#483=LINE('',#480,#482);
#484=EDGE_CURVE('',#479,#469,#483,.T.);
#485=ORIENTED_EDGE('',*,*,#484,.F.);
#486=CARTESIAN_POINT('',(0.375,0.85,2.3));
#487=VERTEX_POINT('',#486);
#488=CARTESIAN_POINT('',(0.375,0.85,2.3));
#489=DIRECTION('',(0.0,0.0,1.0));
#490=VECTOR('',#489,1.0);
#491=LINE('',#488,#490);
#492=EDGE_CURVE('',#487,#479,#491,.T.);
#493=ORIENTED_EDGE('',*,*,#492,.F.);
#494=CARTESIAN_POINT('',(0.375,-0.4,2.3));
#495=DIRECTION('',(0.0,1.0,0.0));
#496=VECTOR('',#495,1.25);
#497=LINE('',#494,#496);
#498=EDGE_CURVE('',#471,#487,#497,.T.);
#499=ORIENTED_EDGE('',*,*,#498,.F.);
#500=EDGE_LOOP('',(#477,#485,#493,#499));
#501=FACE_OUTER_BOUND('',#500,.T.);
#502=ADVANCED_FACE('',(#501),#467,.T.);
#503=CARTESIAN_POINT('',(4.996004E-017,0.225,2.3));
#504=DIRECTION('',(0.0,0.0,1.0));
#505=DIRECTION('',(-1.0,0.0,0.0));
#506=AXIS2_PLACEMENT_3D('',#503,#504,#505);
#507=PLANE('',#506);
#508=CARTESIAN_POINT('',(-0.375,0.85,2.3));
#509=DIRECTION('',(1.0,0.0,0.0));
#510=VECTOR('',#509,0.75);
#511=LINE('',#508,#510);
#512=EDGE_CURVE('',#439,#487,#511,.T.);
#513=ORIENTED_EDGE('',*,*,#512,.F.);
#514=ORIENTED_EDGE('',*,*,#444,.T.);
#515=CARTESIAN_POINT('',(-0.375,-0.4,2.3));
#516=DIRECTION('',(1.0,0.0,0.0));
#517=VECTOR('',#516,0.75);
#518=LINE('',#515,#517);
#519=EDGE_CURVE('',#429,#471,#518,.T.);
#520=ORIENTED_EDGE('',*,*,#519,.T.);
#521=ORIENTED_EDGE('',*,*,#498,.T.);
#522=EDGE_LOOP('',(#513,#514,#520,#521));
#523=FACE_OUTER_BOUND('',#522,.T.);
#524=ADVANCED_FACE('',(#523),#507,.T.);
#525=CARTESIAN_POINT('',(1.887379E-016,0.85,2.8));
#526=DIRECTION('',(0.0,-1.0,0.0));
#527=DIRECTION('',(1.0,0.0,0.0));
#528=AXIS2_PLACEMENT_3D('',#525,#526,#527);
#529=PLANE('',#528);
#530=CARTESIAN_POINT('',(-0.375,0.85,3.3));
#531=DIRECTION('',(1.0,0.0,0.0));
#532=VECTOR('',#531,0.75);
#533=LINE('',#530,#532);
#534=EDGE_CURVE('',#447,#479,#533,.T.);
#535=ORIENTED_EDGE('',*,*,#534,.F.);
#536=ORIENTED_EDGE('',*,*,#452,.T.);
#537=ORIENTED_EDGE('',*,*,#512,.T.);
#538=ORIENTED_EDGE('',*,*,#492,.T.);
#539=EDGE_LOOP('',(#535,#536,#537,#538));
#540=FACE_OUTER_BOUND('',#539,.T.);
#541=ADVANCED_FACE('',(#540),#529,.T.);
#542=CARTESIAN_POINT('',(-8.881784E-017,-0.4,2.8));
#543=DIRECTION('',(0.0,1.0,0.0));
#544=DIRECTION('',(-1.0,0.0,0.0));
#545=AXIS2_PLACEMENT_3D('',#542,#543,#544);
#546=PLANE('',#545);
#547=ORIENTED_EDGE('',*,*,#519,.F.);
#548=ORIENTED_EDGE('',*,*,#436,.T.);
#549=CARTESIAN_POINT('',(0.375,-0.4,3.3));
#550=DIRECTION('',(-1.0,0.0,0.0));
#551=VECTOR('',#550,0.75);
#552=LINE('',#549,#551);
#553=EDGE_CURVE('',#469,#431,#552,.T.);
#554=ORIENTED_EDGE('',*,*,#553,.F.);
#555=ORIENTED_EDGE('',*,*,#476,.T.);
#556=EDGE_LOOP('',(#547,#548,#554,#555));
#557=FACE_OUTER_BOUND('',#556,.T.);
#558=ADVANCED_FACE('',(#557),#546,.T.);
#559=CARTESIAN_POINT('',(-2.25,-1.700000000000001,2.9));
#560=DIRECTION('',(1.0,-1.973730E-016,0.0));
#561=DIRECTION('',(-1.395638E-016,-0.707106781186547,-0.707106781186548));
#562=AXIS2_PLACEMENT_3D('',#559,#560,#561);
#563=CYLINDRICAL_SURFACE('',#562,0.899999999999999);
#564=CARTESIAN_POINT('',(2.25,-1.700000000000001,2.0));
#565=VERTEX_POINT('',#564);
#566=CARTESIAN_POINT('',(2.25,-2.600000000000001,2.9));
#567=VERTEX_POINT('',#566);
#568=CARTESIAN_POINT('',(2.25,-1.700000000000002,2.9));
#569=DIRECTION('',(-1.0,1.110223E-016,1.110223E-016));
#570=DIRECTION('',(-1.570092E-016,-0.707106781186547,-0.707106781186548));
#571=AXIS2_PLACEMENT_3D('',#568,#569,#570);
#572=CIRCLE('',#571,0.899999999999999);
#573=EDGE_CURVE('',#565,#567,#572,.T.);
#574=ORIENTED_EDGE('',*,*,#573,.T.);
#575=CARTESIAN_POINT('',(-2.25,-2.600000000000001,2.9));
#576=VERTEX_POINT('',#575);
#577=CARTESIAN_POINT('',(-2.25,-2.600000000000001,2.9));
#578=DIRECTION('',(1.0,0.0,0.0));
#579=VECTOR('',#578,4.5);
#580=LINE('',#577,#579);
#581=EDGE_CURVE('',#576,#567,#580,.T.);
#582=ORIENTED_EDGE('',*,*,#581,.F.);
#583=CARTESIAN_POINT('',(-2.25,-1.7,2.0));
#584=VERTEX_POINT('',#583);
#585=CARTESIAN_POINT('',(-2.25,-1.700000000000001,2.9));
#586=DIRECTION('',(-1.0,1.110223E-016,1.110223E-016));
#587=DIRECTION('',(-1.570092E-016,-0.707106781186547,-0.707106781186548));
#588=AXIS2_PLACEMENT_3D('',#585,#586,#587);
#589=CIRCLE('',#588,0.899999999999999);
#590=EDGE_CURVE('',#584,#576,#589,.T.);
#591=ORIENTED_EDGE('',*,*,#590,.F.);
#592=CARTESIAN_POINT('',(2.25,-1.7,2.0));
#593=DIRECTION('',(-1.0,0.0,0.0));
#594=VECTOR('',#593,4.5);
#595=LINE('',#592,#594);
#596=EDGE_CURVE('',#565,#584,#595,.T.);
#597=ORIENTED_EDGE('',*,*,#596,.F.);
#598=EDGE_LOOP('',(#574,#582,#591,#597));
#599=FACE_OUTER_BOUND('',#598,.T.);
#600=ADVANCED_FACE('',(#599),#563,.T.);
#601=CARTESIAN_POINT('',(-2.25,-2.600000000000001,2.9));
#602=DIRECTION('',(0.0,-1.0,0.0));
#603=DIRECTION('',(0.0,0.0,-1.0));
#604=AXIS2_PLACEMENT_3D('',#601,#602,#603);
#605=PLANE('',#604);
#606=CARTESIAN_POINT('',(2.25,-2.600000000000001,3.3));
#607=VERTEX_POINT('',#606);
#608=CARTESIAN_POINT('',(2.25,-2.600000000000001,2.9));
#609=DIRECTION('',(0.0,0.0,1.0));
#610=VECTOR('',#609,0.4);
#611=LINE('',#608,#610);
#612=EDGE_CURVE('',#567,#607,#611,.T.);
#613=ORIENTED_EDGE('',*,*,#612,.T.);
#614=CARTESIAN_POINT('',(-2.25,-2.600000000000001,3.3));
#615=VERTEX_POINT('',#614);
#616=CARTESIAN_POINT('',(-2.25,-2.600000000000001,3.3));
#617=DIRECTION('',(1.0,0.0,0.0));
#618=VECTOR('',#617,4.5);
#619=LINE('',#616,#618);
#620=EDGE_CURVE('',#615,#607,#619,.T.);
#621=ORIENTED_EDGE('',*,*,#620,.F.);
#622=CARTESIAN_POINT('',(-2.25,-2.600000000000001,2.9));
#623=DIRECTION('',(0.0,0.0,1.0));
#624=VECTOR('',#623,0.4);
#625=LINE('',#622,#624);
#626=EDGE_CURVE('',#576,#615,#625,.T.);
#627=ORIENTED_EDGE('',*,*,#626,.F.);
#628=ORIENTED_EDGE('',*,*,#581,.T.);
#629=EDGE_LOOP('',(#613,#621,#627,#628));
#630=FACE_OUTER_BOUND('',#629,.T.);
#631=ADVANCED_FACE('',(#630),#605,.T.);
#632=CARTESIAN_POINT('',(-4.329870E-016,-1.7,1.65));
#633=DIRECTION('',(0.0,1.0,0.0));
#634=DIRECTION('',(-1.0,0.0,0.0));
#635=AXIS2_PLACEMENT_3D('',#632,#633,#634);
#636=PLANE('',#635);
#637=ORIENTED_EDGE('',*,*,#596,.T.);
#638=CARTESIAN_POINT('',(-2.25,-1.7,-2.220446E-016));
#639=VERTEX_POINT('',#638);
#640=CARTESIAN_POINT('',(-2.25,-1.7,-2.220446E-016));
#641=DIRECTION('',(0.0,0.0,1.0));
#642=VECTOR('',#641,2.0);
#643=LINE('',#640,#642);
#644=EDGE_CURVE('',#639,#584,#643,.T.);
#645=ORIENTED_EDGE('',*,*,#644,.F.);
#646=CARTESIAN_POINT('',(-2.0,-1.700000000000001,1.332268E-015));
#647=VERTEX_POINT('',#646);
#648=CARTESIAN_POINT('',(-2.0,-1.7,-2.220446E-016));
#649=DIRECTION('',(-1.0,0.0,0.0));
#650=VECTOR('',#649,0.25);
#651=LINE('',#648,#650);
#652=EDGE_CURVE('',#647,#639,#651,.T.);
#653=ORIENTED_EDGE('',*,*,#652,.F.);
#654=CARTESIAN_POINT('',(-2.0,-1.700000000000001,1.0));
#655=VERTEX_POINT('',#654);
#656=CARTESIAN_POINT('',(-2.0,-1.7,1.332268E-015));
#657=DIRECTION('',(0.0,0.0,1.0));
#658=VECTOR('',#657,0.999999999999998);
#659=LINE('',#656,#658);
#660=EDGE_CURVE('',#647,#655,#659,.T.);
#661=ORIENTED_EDGE('',*,*,#660,.T.);
#662=CARTESIAN_POINT('',(-0.500000000000001,-1.700000000000001,1.0));
#663=VERTEX_POINT('',#662);
#664=CARTESIAN_POINT('',(-2.0,-1.7,1.0));
#665=DIRECTION('',(1.0,0.0,0.0));
#666=VECTOR('',#665,1.499999999999998);
#667=LINE('',#664,#666);
#668=EDGE_CURVE('',#655,#663,#667,.T.);
#669=ORIENTED_EDGE('',*,*,#668,.T.);
#670=CARTESIAN_POINT('',(-0.500000000000001,-1.700000000000001,1.332268E-015));
#671=VERTEX_POINT('',#670);
#672=CARTESIAN_POINT('',(-0.500000000000001,-1.7,1.0));
#673=DIRECTION('',(0.0,0.0,-1.0));
#674=VECTOR('',#673,0.999999999999998);
#675=LINE('',#672,#674);
#676=EDGE_CURVE('',#663,#671,#675,.T.);
#677=ORIENTED_EDGE('',*,*,#676,.T.);
#678=CARTESIAN_POINT('',(0.499999999999999,-1.699999999999999,1.332268E-015));
#679=VERTEX_POINT('',#678);
#680=CARTESIAN_POINT('',(0.499999999999999,-1.700000000000001,-2.220446E-016));
#681=DIRECTION('',(-1.0,0.0,0.0));
#682=VECTOR('',#681,1.0);
#683=LINE('',#680,#682);
#684=EDGE_CURVE('',#679,#671,#683,.T.);
#685=ORIENTED_EDGE('',*,*,#684,.F.);
#686=CARTESIAN_POINT('',(0.499999999999999,-1.699999999999999,1.0));
#687=VERTEX_POINT('',#686);
#688=CARTESIAN_POINT('',(0.499999999999999,-1.700000000000001,1.332268E-015));
#689=DIRECTION('',(0.0,0.0,1.0));
#690=VECTOR('',#689,0.999999999999998);
#691=LINE('',#688,#690);
#692=EDGE_CURVE('',#679,#687,#691,.T.);
#693=ORIENTED_EDGE('',*,*,#692,.T.);
#694=CARTESIAN_POINT('',(2.0,-1.699999999999999,1.0));
#695=VERTEX_POINT('',#694);
#696=CARTESIAN_POINT('',(0.499999999999999,-1.700000000000001,1.0));
#697=DIRECTION('',(1.0,0.0,0.0));
#698=VECTOR('',#697,1.500000000000001);
#699=LINE('',#696,#698);
#700=EDGE_CURVE('',#687,#695,#699,.T.);
#701=ORIENTED_EDGE('',*,*,#700,.T.);
#702=CARTESIAN_POINT('',(2.0,-1.699999999999999,1.332268E-015));
#703=VERTEX_POINT('',#702);
#704=CARTESIAN_POINT('',(2.0,-1.700000000000001,1.0));
#705=DIRECTION('',(0.0,0.0,-1.0));
#706=VECTOR('',#705,0.999999999999998);
#707=LINE('',#704,#706);
#708=EDGE_CURVE('',#695,#703,#707,.T.);
#709=ORIENTED_EDGE('',*,*,#708,.T.);
#710=CARTESIAN_POINT('',(2.249999999999999,-1.700000000000001,-2.220446E-016));
#711=VERTEX_POINT('',#710);
#712=CARTESIAN_POINT('',(2.249999999999999,-1.700000000000001,-2.220446E-016));
#713=DIRECTION('',(-1.0,0.0,0.0));
#714=VECTOR('',#713,0.249999999999999);
#715=LINE('',#712,#714);
#716=EDGE_CURVE('',#711,#703,#715,.T.);
#717=ORIENTED_EDGE('',*,*,#716,.F.);
#718=CARTESIAN_POINT('',(2.249999999999999,-1.700000000000001,2.0));
#719=DIRECTION('',(0.0,0.0,-1.0));
#720=VECTOR('',#719,2.0);
#721=LINE('',#718,#720);
#722=EDGE_CURVE('',#565,#711,#721,.T.);
#723=ORIENTED_EDGE('',*,*,#722,.F.);
#724=EDGE_LOOP('',(#637,#645,#653,#661,#669,#677,#685,#693,#701,#709,#717,#723));
#725=FACE_OUTER_BOUND('',#724,.T.);
#726=ADVANCED_FACE('',(#725),#636,.F.);
#727=CARTESIAN_POINT('',(-1.999999999999999,0.75,0.5));
#728=DIRECTION('',(-1.0,0.0,0.0));
#729=DIRECTION('',(0.0,-1.0,0.0));
#730=AXIS2_PLACEMENT_3D('',#727,#728,#729);
#731=PLANE('',#730);
#732=ORIENTED_EDGE('',*,*,#660,.F.);
#733=CARTESIAN_POINT('',(-1.999999999999999,3.200000000000001,2.220446E-016));
#734=VERTEX_POINT('',#733);
#735=CARTESIAN_POINT('',(-1.999999999999999,3.200000000000001,-1.210143E-015));
#736=DIRECTION('',(0.0,-1.0,0.0));
#737=VECTOR('',#736,4.900000000000001);
#738=LINE('',#735,#737);
#739=EDGE_CURVE('',#734,#647,#738,.T.);
#740=ORIENTED_EDGE('',*,*,#739,.F.);
#741=CARTESIAN_POINT('',(-1.999999999999999,3.200000000000001,0.999999999999999));
#742=VERTEX_POINT('',#741);
#743=CARTESIAN_POINT('',(-1.999999999999999,3.2,0.999999999999999));
#744=DIRECTION('',(0.0,0.0,-1.0));
#745=VECTOR('',#744,0.999999999999998);
#746=LINE('',#743,#745);
#747=EDGE_CURVE('',#742,#734,#746,.T.);
#748=ORIENTED_EDGE('',*,*,#747,.F.);
#749=CARTESIAN_POINT('',(-2.0,-1.700000000000001,1.0));
#750=DIRECTION('',(0.0,1.0,0.0));
#751=VECTOR('',#750,4.900000000000001);
#752=LINE('',#749,#751);
#753=EDGE_CURVE('',#655,#742,#752,.T.);
#754=ORIENTED_EDGE('',*,*,#753,.F.);
#755=EDGE_LOOP('',(#732,#740,#748,#754));
#756=FACE_OUTER_BOUND('',#755,.T.);
#757=ADVANCED_FACE('',(#756),#731,.F.);
#758=CARTESIAN_POINT('',(-0.500000000000001,0.75,0.5));
#759=DIRECTION('',(-1.0,0.0,0.0));
#760=DIRECTION('',(0.0,-1.0,0.0));
#761=AXIS2_PLACEMENT_3D('',#758,#759,#760);
#762=PLANE('',#761);
#763=ORIENTED_EDGE('',*,*,#676,.F.);
#764=CARTESIAN_POINT('',(-0.5,3.200000000000001,0.999999999999999));
#765=VERTEX_POINT('',#764);
#766=CARTESIAN_POINT('',(-0.5,3.200000000000001,0.999999999999999));
#767=DIRECTION('',(0.0,-1.0,0.0));
#768=VECTOR('',#767,4.900000000000001);
#769=LINE('',#766,#768);
#770=EDGE_CURVE('',#765,#663,#769,.T.);
#771=ORIENTED_EDGE('',*,*,#770,.F.);
#772=CARTESIAN_POINT('',(-0.5,3.200000000000001,2.220446E-016));
#773=VERTEX_POINT('',#772);
#774=CARTESIAN_POINT('',(-0.5,3.2,2.220446E-016));
#775=DIRECTION('',(0.0,0.0,1.0));
#776=VECTOR('',#775,0.999999999999998);
#777=LINE('',#774,#776);
#778=EDGE_CURVE('',#773,#765,#777,.T.);
#779=ORIENTED_EDGE('',*,*,#778,.F.);
#780=CARTESIAN_POINT('',(-0.500000000000001,-1.7,-1.221245E-016));
#781=DIRECTION('',(0.0,1.0,0.0));
#782=VECTOR('',#781,4.900000000000001);
#783=LINE('',#780,#782);
#784=EDGE_CURVE('',#671,#773,#783,.T.);
#785=ORIENTED_EDGE('',*,*,#784,.F.);
#786=EDGE_LOOP('',(#763,#771,#779,#785));
#787=FACE_OUTER_BOUND('',#786,.T.);
#788=ADVANCED_FACE('',(#787),#762,.T.);
#789=CARTESIAN_POINT('',(-1.25,0.75,0.999999999999999));
#790=DIRECTION('',(0.0,0.0,-1.0));
#791=DIRECTION('',(1.0,0.0,0.0));
#792=AXIS2_PLACEMENT_3D('',#789,#790,#791);
#793=PLANE('',#792);
#794=ORIENTED_EDGE('',*,*,#668,.F.);
#795=ORIENTED_EDGE('',*,*,#753,.T.);
#796=CARTESIAN_POINT('',(-0.5,3.2,0.999999999999999));
#797=DIRECTION('',(-1.0,0.0,0.0));
#798=VECTOR('',#797,1.499999999999998);
#799=LINE('',#796,#798);
#800=EDGE_CURVE('',#765,#742,#799,.T.);
#801=ORIENTED_EDGE('',*,*,#800,.F.);
#802=ORIENTED_EDGE('',*,*,#770,.T.);
#803=EDGE_LOOP('',(#794,#795,#801,#802));
#804=FACE_OUTER_BOUND('',#803,.T.);
#805=ADVANCED_FACE('',(#804),#793,.T.);
#806=CARTESIAN_POINT('',(2.000000000000001,3.2,1.0));
#807=CARTESIAN_POINT('',(2.0,-1.700000000000001,1.000000000000001));
#808=CARTESIAN_POINT('',(2.000000000000001,3.2,-2.331468E-015));
#809=CARTESIAN_POINT('',(2.0,-1.700000000000002,-1.332268E-015));
#810=B_SPLINE_SURFACE_WITH_KNOTS('',1,1,((#806,#808),(#807,#809)),.UNSPECIFIED.,.F.,.F.,.U.,(2,2),(2,2),(0.0,4.900000000000001),(0.0,1.000000000000002),.UNSPECIFIED.);
#811=ORIENTED_EDGE('',*,*,#708,.F.);
#812=CARTESIAN_POINT('',(2.000000000000001,3.2,0.999999999999999));
#813=VERTEX_POINT('',#812);
#814=CARTESIAN_POINT('',(2.0,-1.699999999999999,1.0));
#815=DIRECTION('',(0.0,1.0,0.0));
#816=VECTOR('',#815,4.9);
#817=LINE('',#814,#816);
#818=EDGE_CURVE('',#695,#813,#817,.T.);
#819=ORIENTED_EDGE('',*,*,#818,.T.);
#820=CARTESIAN_POINT('',(2.000000000000001,3.2,2.220446E-016));
#821=VERTEX_POINT('',#820);
#822=CARTESIAN_POINT('',(2.000000000000001,3.199999999999999,2.220446E-016));
#823=DIRECTION('',(0.0,0.0,1.0));
#824=VECTOR('',#823,0.999999999999998);
#825=LINE('',#822,#824);
#826=EDGE_CURVE('',#821,#813,#825,.T.);
#827=ORIENTED_EDGE('',*,*,#826,.F.);
#828=CARTESIAN_POINT('',(2.0,-1.699999999999999,-1.221245E-016));
#829=DIRECTION('',(0.0,1.0,0.0));
#830=VECTOR('',#829,4.9);
#831=LINE('',#828,#830);
#832=EDGE_CURVE('',#703,#821,#831,.T.);
#833=ORIENTED_EDGE('',*,*,#832,.F.);
#834=EDGE_LOOP('',(#811,#819,#827,#833));
#835=FACE_OUTER_BOUND('',#834,.T.);
#836=ADVANCED_FACE('',(#835),#810,.F.);
#837=CARTESIAN_POINT('',(0.5,3.2,1.0));
#838=CARTESIAN_POINT('',(0.499999999999999,-1.700000000000001,1.000000000000001));
#839=CARTESIAN_POINT('',(0.5,3.2,-2.331468E-015));
#840=CARTESIAN_POINT('',(0.499999999999999,-1.700000000000002,-1.332268E-015));
#841=B_SPLINE_SURFACE_WITH_KNOTS('',1,1,((#837,#839),(#838,#840)),.UNSPECIFIED.,.F.,.F.,.U.,(2,2),(2,2),(0.0,4.900000000000001),(0.0,1.000000000000002),.UNSPECIFIED.);
#842=ORIENTED_EDGE('',*,*,#692,.F.);
#843=CARTESIAN_POINT('',(0.5,3.2,2.220446E-016));
#844=VERTEX_POINT('',#843);
#845=CARTESIAN_POINT('',(0.5,3.2,-1.210143E-015));
#846=DIRECTION('',(0.0,-1.0,0.0));
#847=VECTOR('',#846,4.9);
#848=LINE('',#845,#847);
#849=EDGE_CURVE('',#844,#679,#848,.T.);
#850=ORIENTED_EDGE('',*,*,#849,.F.);
#851=CARTESIAN_POINT('',(0.5,3.2,0.999999999999999));
#852=VERTEX_POINT('',#851);
#853=CARTESIAN_POINT('',(0.5,3.2,0.999999999999999));
#854=DIRECTION('',(0.0,0.0,-1.0));
#855=VECTOR('',#854,0.999999999999998);
#856=LINE('',#853,#855);
#857=EDGE_CURVE('',#852,#844,#856,.T.);
#858=ORIENTED_EDGE('',*,*,#857,.F.);
#859=CARTESIAN_POINT('',(0.5,3.2,0.999999999999999));
#860=DIRECTION('',(0.0,-1.0,0.0));
#861=VECTOR('',#860,4.9);
#862=LINE('',#859,#861);
#863=EDGE_CURVE('',#852,#687,#862,.T.);
#864=ORIENTED_EDGE('',*,*,#863,.T.);
#865=EDGE_LOOP('',(#842,#850,#858,#864));
#866=FACE_OUTER_BOUND('',#865,.T.);
#867=ADVANCED_FACE('',(#866),#841,.T.);
#868=CARTESIAN_POINT('',(2.000000000000001,-1.700000000000001,1.0));
#869=CARTESIAN_POINT('',(0.499999999999998,-1.700000000000001,1.0));
#870=CARTESIAN_POINT('',(2.000000000000002,3.200000000000001,0.999999999999999));
#871=CARTESIAN_POINT('',(0.499999999999999,3.200000000000002,0.999999999999999));
#872=B_SPLINE_SURFACE_WITH_KNOTS('',1,1,((#868,#870),(#869,#871)),.UNSPECIFIED.,.F.,.F.,.U.,(2,2),(2,2),(0.0,1.500000000000004),(0.0,4.900000000000002),.UNSPECIFIED.);
#873=ORIENTED_EDGE('',*,*,#700,.F.);
#874=ORIENTED_EDGE('',*,*,#863,.F.);
#875=CARTESIAN_POINT('',(2.000000000000001,3.199999999999999,0.999999999999999));
#876=DIRECTION('',(-1.0,0.0,0.0));
#877=VECTOR('',#876,1.500000000000001);
#878=LINE('',#875,#877);
#879=EDGE_CURVE('',#813,#852,#878,.T.);
#880=ORIENTED_EDGE('',*,*,#879,.F.);
#881=ORIENTED_EDGE('',*,*,#818,.F.);
#882=EDGE_LOOP('',(#873,#874,#880,#881));
#883=FACE_OUTER_BOUND('',#882,.T.);
#884=ADVANCED_FACE('',(#883),#872,.T.);
#885=CARTESIAN_POINT('',(1.110223E-016,0.75,-6.661338E-016));
#886=DIRECTION('',(0.0,0.0,1.0));
#887=DIRECTION('',(1.0,0.0,0.0));
#888=AXIS2_PLACEMENT_3D('',#885,#886,#887);
#889=PLANE('',#888);
#890=ORIENTED_EDGE('',*,*,#832,.T.);
#891=CARTESIAN_POINT('',(2.25,3.199999999999999,-1.110223E-015));
#892=VERTEX_POINT('',#891);
#893=CARTESIAN_POINT('',(2.25,3.199999999999999,-1.110223E-015));
#894=DIRECTION('',(-1.0,0.0,0.0));
#895=VECTOR('',#894,0.249999999999998);
#896=LINE('',#893,#895);
#897=EDGE_CURVE('',#892,#821,#896,.T.);
#898=ORIENTED_EDGE('',*,*,#897,.F.);
#899=CARTESIAN_POINT('',(2.249999999999999,-1.700000000000001,-1.221245E-016));
#900=DIRECTION('',(0.0,1.0,0.0));
#901=VECTOR('',#900,4.9);
#902=LINE('',#899,#901);
#903=EDGE_CURVE('',#711,#892,#902,.T.);
#904=ORIENTED_EDGE('',*,*,#903,.F.);
#905=ORIENTED_EDGE('',*,*,#716,.T.);
#906=EDGE_LOOP('',(#890,#898,#904,#905));
#907=FACE_OUTER_BOUND('',#906,.T.);
#908=ADVANCED_FACE('',(#907),#889,.F.);
#909=CARTESIAN_POINT('',(1.110223E-016,0.75,-6.661338E-016));
#910=DIRECTION('',(0.0,0.0,1.0));
#911=DIRECTION('',(1.0,0.0,0.0));
#912=AXIS2_PLACEMENT_3D('',#909,#910,#911);
#913=PLANE('',#912);
#914=ORIENTED_EDGE('',*,*,#784,.T.);
#915=CARTESIAN_POINT('',(0.5,3.2,-1.110223E-015));
#916=DIRECTION('',(-1.0,0.0,0.0));
#917=VECTOR('',#916,1.0);
#918=LINE('',#915,#917);
#919=EDGE_CURVE('',#844,#773,#918,.T.);
#920=ORIENTED_EDGE('',*,*,#919,.F.);
#921=ORIENTED_EDGE('',*,*,#849,.T.);
#922=ORIENTED_EDGE('',*,*,#684,.T.);
#923=EDGE_LOOP('',(#914,#920,#921,#922));
#924=FACE_OUTER_BOUND('',#923,.T.);
#925=ADVANCED_FACE('',(#924),#913,.F.);
#926=CARTESIAN_POINT('',(2.249999999999999,0.75,1.65));
#927=DIRECTION('',(1.0,0.0,0.0));
#928=DIRECTION('',(0.0,1.0,0.0));
#929=AXIS2_PLACEMENT_3D('',#926,#927,#928);
#930=PLANE('',#929);
#931=CARTESIAN_POINT('',(2.25,3.2,3.3));
#932=VERTEX_POINT('',#931);
#933=CARTESIAN_POINT('',(2.25,3.199999999999999,-1.110223E-015));
#934=DIRECTION('',(0.0,0.0,1.0));
#935=VECTOR('',#934,3.300000000000001);
#936=LINE('',#933,#935);
#937=EDGE_CURVE('',#892,#932,#936,.T.);
#938=ORIENTED_EDGE('',*,*,#937,.T.);
#939=CARTESIAN_POINT('',(2.25,3.2,3.299999999999999));
#940=DIRECTION('',(0.0,-1.0,0.0));
#941=VECTOR('',#940,5.800000000000001);
#942=LINE('',#939,#941);
#943=EDGE_CURVE('',#932,#607,#942,.T.);
#944=ORIENTED_EDGE('',*,*,#943,.T.);
#945=ORIENTED_EDGE('',*,*,#612,.F.);
#946=ORIENTED_EDGE('',*,*,#573,.F.);
#947=ORIENTED_EDGE('',*,*,#722,.T.);
#948=ORIENTED_EDGE('',*,*,#903,.T.);
#949=EDGE_LOOP('',(#938,#944,#945,#946,#947,#948));
#950=FACE_OUTER_BOUND('',#949,.T.);
#951=ADVANCED_FACE('',(#950),#930,.T.);
#952=CARTESIAN_POINT('',(-2.249999999999999,0.750000000000001,1.65));
#953=DIRECTION('',(1.0,0.0,0.0));
#954=DIRECTION('',(0.0,1.0,0.0));
#955=AXIS2_PLACEMENT_3D('',#952,#953,#954);
#956=PLANE('',#955);
#957=CARTESIAN_POINT('',(-2.249999999999999,3.200000000000001,3.3));
#958=VERTEX_POINT('',#957);
#959=CARTESIAN_POINT('',(-2.249999999999999,3.2,-1.110223E-015));
#960=VERTEX_POINT('',#959);
#961=CARTESIAN_POINT('',(-2.249999999999999,3.200000000000001,3.3));
#962=DIRECTION('',(0.0,0.0,-1.0));
#963=VECTOR('',#962,3.300000000000001);
#964=LINE('',#961,#963);
#965=EDGE_CURVE('',#958,#960,#964,.T.);
#966=ORIENTED_EDGE('',*,*,#965,.T.);
#967=CARTESIAN_POINT('',(-2.249999999999999,3.2,-1.210143E-015));
#968=DIRECTION('',(0.0,-1.0,0.0));
#969=VECTOR('',#968,4.9);
#970=LINE('',#967,#969);
#971=EDGE_CURVE('',#960,#639,#970,.T.);
#972=ORIENTED_EDGE('',*,*,#971,.T.);
#973=ORIENTED_EDGE('',*,*,#644,.T.);
#974=ORIENTED_EDGE('',*,*,#590,.T.);
#975=ORIENTED_EDGE('',*,*,#626,.T.);
#976=CARTESIAN_POINT('',(-2.25,-2.6,3.300000000000001));
#977=DIRECTION('',(0.0,1.0,0.0));
#978=VECTOR('',#977,5.800000000000001);
#979=LINE('',#976,#978);
#980=EDGE_CURVE('',#615,#958,#979,.T.);
#981=ORIENTED_EDGE('',*,*,#980,.T.);
#982=EDGE_LOOP('',(#966,#972,#973,#974,#975,#981));
#983=FACE_OUTER_BOUND('',#982,.T.);
#984=ADVANCED_FACE('',(#983),#956,.F.);
#985=CARTESIAN_POINT('',(1.110223E-016,0.75,-6.661338E-016));
#986=DIRECTION('',(0.0,0.0,1.0));
#987=DIRECTION('',(1.0,0.0,0.0));
#988=AXIS2_PLACEMENT_3D('',#985,#986,#987);
#989=PLANE('',#988);
#990=ORIENTED_EDGE('',*,*,#739,.T.);
#991=ORIENTED_EDGE('',*,*,#652,.T.);
#992=ORIENTED_EDGE('',*,*,#971,.F.);
#993=CARTESIAN_POINT('',(-1.999999999999999,3.2,-1.110223E-015));
#994=DIRECTION('',(-1.0,0.0,0.0));
#995=VECTOR('',#994,0.25);
#996=LINE('',#993,#995);
#997=EDGE_CURVE('',#734,#960,#996,.T.);
#998=ORIENTED_EDGE('',*,*,#997,.F.);
#999=EDGE_LOOP('',(#990,#991,#992,#998));
#1000=FACE_OUTER_BOUND('',#999,.T.);
#1001=ADVANCED_FACE('',(#1000),#989,.F.);
#1002=CARTESIAN_POINT('',(1.110223E-016,0.75,3.3));
#1003=DIRECTION('',(0.0,0.0,-1.0));
#1004=DIRECTION('',(-1.0,0.0,0.0));
#1005=AXIS2_PLACEMENT_3D('',#1002,#1003,#1004);
#1006=PLANE('',#1005);
#1007=CARTESIAN_POINT('',(2.25,3.2,3.3));
#1008=DIRECTION('',(-1.0,0.0,0.0));
#1009=VECTOR('',#1008,4.499999999999998);
#1010=LINE('',#1007,#1009);
#1011=EDGE_CURVE('',#932,#958,#1010,.T.);
#1012=ORIENTED_EDGE('',*,*,#1011,.T.);
#1013=ORIENTED_EDGE('',*,*,#980,.F.);
#1014=ORIENTED_EDGE('',*,*,#620,.T.);
#1015=ORIENTED_EDGE('',*,*,#943,.F.);
#1016=EDGE_LOOP('',(#1012,#1013,#1014,#1015));
#1017=FACE_OUTER_BOUND('',#1016,.T.);
#1018=ORIENTED_EDGE('',*,*,#484,.T.);
#1019=ORIENTED_EDGE('',*,*,#553,.T.);
#1020=ORIENTED_EDGE('',*,*,#458,.T.);
#1021=ORIENTED_EDGE('',*,*,#534,.T.);
#1022=EDGE_LOOP('',(#1018,#1019,#1020,#1021));
#1023=FACE_BOUND('',#1022,.T.);
#1024=ADVANCED_FACE('',(#1017,#1023),#1006,.F.);
#1025=CARTESIAN_POINT('',(6.550316E-016,3.2,1.649999999999999));
#1026=DIRECTION('',(0.0,-1.0,0.0));
#1027=DIRECTION('',(1.0,0.0,0.0));
#1028=AXIS2_PLACEMENT_3D('',#1025,#1026,#1027);
#1029=PLANE('',#1028);
#1030=ORIENTED_EDGE('',*,*,#747,.T.);
#1031=ORIENTED_EDGE('',*,*,#997,.T.);
#1032=ORIENTED_EDGE('',*,*,#965,.F.);
#1033=ORIENTED_EDGE('',*,*,#1011,.F.);
#1034=ORIENTED_EDGE('',*,*,#937,.F.);
#1035=ORIENTED_EDGE('',*,*,#897,.T.);
#1036=ORIENTED_EDGE('',*,*,#826,.T.);
#1037=ORIENTED_EDGE('',*,*,#879,.T.);
#1038=ORIENTED_EDGE('',*,*,#857,.T.);
#1039=ORIENTED_EDGE('',*,*,#919,.T.);
#1040=ORIENTED_EDGE('',*,*,#778,.T.);
#1041=ORIENTED_EDGE('',*,*,#800,.T.);
#1042=EDGE_LOOP('',(#1030,#1031,#1032,#1033,#1034,#1035,#1036,#1037,#1038,#1039,#1040,#1041));
#1043=FACE_OUTER_BOUND('',#1042,.T.);
#1044=ADVANCED_FACE('',(#1043),#1029,.F.);
#1045=CLOSED_SHELL('',(#462,#502,#524,#541,#558,#600,#631,#726,#757,#788,#805,#836,#867,#884,#908,#925,#951,#984,#1001,#1024,#1044));
#1046=MANIFOLD_SOLID_BREP('11C1',#1045);
#1047=STYLED_ITEM('NONE',(#419),#1046);
#1048=CARTESIAN_POINT('',(-1.5675,0.3175,1.0));
#1049=DIRECTION('',(0.0,0.0,1.0));
#1050=DIRECTION('',(-1.0,0.0,0.0));
#1051=AXIS2_PLACEMENT_3D('',#1048,#1049,#1050);
#1052=PLANE('',#1051);
#1053=CARTESIAN_POINT('',(-1.5675,-0.3175,1.0));
#1054=VERTEX_POINT('',#1053);
#1055=CARTESIAN_POINT('',(-0.9325,-0.3175,1.0));
#1056=VERTEX_POINT('',#1055);
#1057=CARTESIAN_POINT('',(-1.5675,-0.3175,1.0));
#1058=DIRECTION('',(1.0,0.0,0.0));
#1059=VECTOR('',#1058,0.635);
#1060=LINE('',#1057,#1059);
#1061=EDGE_CURVE('',#1054,#1056,#1060,.T.);
#1062=ORIENTED_EDGE('',*,*,#1061,.T.);
#1063=CARTESIAN_POINT('',(-0.9325,0.3175,1.0));
#1064=VERTEX_POINT('',#1063);
#1065=CARTESIAN_POINT('',(-0.9325,0.3175,1.0));
#1066=DIRECTION('',(0.0,-1.0,0.0));
#1067=VECTOR('',#1066,0.635);
#1068=LINE('',#1065,#1067);
#1069=EDGE_CURVE('',#1064,#1056,#1068,.T.);
#1070=ORIENTED_EDGE('',*,*,#1069,.F.);
#1071=CARTESIAN_POINT('',(-1.5675,0.3175,1.0));
#1072=VERTEX_POINT('',#1071);
#1073=CARTESIAN_POINT('',(-0.9325,0.3175,1.0));
#1074=DIRECTION('',(-1.0,0.0,0.0));
#1075=VECTOR('',#1074,0.635);
#1076=LINE('',#1073,#1075);
#1077=EDGE_CURVE('',#1064,#1072,#1076,.T.);
#1078=ORIENTED_EDGE('',*,*,#1077,.T.);
#1079=CARTESIAN_POINT('',(-1.5675,0.3175,1.0));
#1080=DIRECTION('',(0.0,-1.0,0.0));
#1081=VECTOR('',#1080,0.635);
#1082=LINE('',#1079,#1081);
#1083=EDGE_CURVE('',#1072,#1054,#1082,.T.);
#1084=ORIENTED_EDGE('',*,*,#1083,.T.);
#1085=EDGE_LOOP('',(#1062,#1070,#1078,#1084));
#1086=FACE_OUTER_BOUND('',#1085,.T.);
#1087=ADVANCED_FACE('',(#1086),#1052,.T.);
#1088=CARTESIAN_POINT('',(-0.9325,0.3175,1.0));
#1089=DIRECTION('',(1.0,0.0,0.0));
#1090=DIRECTION('',(0.0,0.0,1.0));
#1091=AXIS2_PLACEMENT_3D('',#1088,#1089,#1090);
#1092=PLANE('',#1091);
#1093=CARTESIAN_POINT('',(-0.9325,-0.3175,-2.527675919323));
#1094=VERTEX_POINT('',#1093);
#1095=CARTESIAN_POINT('',(-0.9325,-0.3175,1.0));
#1096=DIRECTION('',(0.0,0.0,-1.0));
#1097=VECTOR('',#1096,3.527675919323);
#1098=LINE('',#1095,#1097);
#1099=EDGE_CURVE('',#1056,#1094,#1098,.T.);
#1100=ORIENTED_EDGE('',*,*,#1099,.T.);
#1101=CARTESIAN_POINT('',(-0.9325,0.3175,-2.527675919323));
#1102=VERTEX_POINT('',#1101);
#1103=CARTESIAN_POINT('',(-0.9325,0.3175,-2.527675919323));
#1104=DIRECTION('',(0.0,-1.0,0.0));
#1105=VECTOR('',#1104,0.635);
#1106=LINE('',#1103,#1105);
#1107=EDGE_CURVE('',#1102,#1094,#1106,.T.);
#1108=ORIENTED_EDGE('',*,*,#1107,.F.);
#1109=CARTESIAN_POINT('',(-0.9325,0.3175,-2.527675919323));
#1110=DIRECTION('',(0.0,0.0,1.0));
#1111=VECTOR('',#1110,3.527675919323);
#1112=LINE('',#1109,#1111);
#1113=EDGE_CURVE('',#1102,#1064,#1112,.T.);
#1114=ORIENTED_EDGE('',*,*,#1113,.T.);
#1115=ORIENTED_EDGE('',*,*,#1069,.T.);
#1116=EDGE_LOOP('',(#1100,#1108,#1114,#1115));
#1117=FACE_OUTER_BOUND('',#1116,.T.);
#1118=ADVANCED_FACE('',(#1117),#1092,.T.);
#1119=CARTESIAN_POINT('',(-0.9325,0.3175,-2.527675919323));
#1120=DIRECTION('',(0.939692620785928,-1.150792E-016,-0.342020143325614));
#1121=DIRECTION('',(0.342020143325614,-4.188539E-017,0.939692620785928));
#1122=AXIS2_PLACEMENT_3D('',#1119,#1120,#1121);
#1123=PLANE('',#1122);
#1124=CARTESIAN_POINT('',(-1.25,-0.3175,-3.4));
#1125=VERTEX_POINT('',#1124);
#1126=CARTESIAN_POINT('',(-0.9325,-0.3175,-2.527675919323));
#1127=DIRECTION('',(-0.342020143325614,5.979821E-017,-0.939692620785928));
#1128=VECTOR('',#1127,0.928307897051928);
#1129=LINE('',#1126,#1128);
#1130=EDGE_CURVE('',#1094,#1125,#1129,.T.);
#1131=ORIENTED_EDGE('',*,*,#1130,.T.);
#1132=CARTESIAN_POINT('',(-1.25,0.3175,-3.4));
#1133=VERTEX_POINT('',#1132);
#1134=CARTESIAN_POINT('',(-1.25,0.3175,-3.4));
#1135=DIRECTION('',(0.0,-1.0,0.0));
#1136=VECTOR('',#1135,0.635);
#1137=LINE('',#1134,#1136);
#1138=EDGE_CURVE('',#1133,#1125,#1137,.T.);
#1139=ORIENTED_EDGE('',*,*,#1138,.F.);
#1140=CARTESIAN_POINT('',(-1.25,0.3175,-3.4));
#1141=DIRECTION('',(0.342020143325614,-5.979821E-017,0.939692620785928));
#1142=VECTOR('',#1141,0.928307897051928);
#1143=LINE('',#1140,#1142);
#1144=EDGE_CURVE('',#1133,#1102,#1143,.T.);
#1145=ORIENTED_EDGE('',*,*,#1144,.T.);
#1146=ORIENTED_EDGE('',*,*,#1107,.T.);
#1147=EDGE_LOOP('',(#1131,#1139,#1145,#1146));
#1148=FACE_OUTER_BOUND('',#1147,.T.);
#1149=ADVANCED_FACE('',(#1148),#1123,.T.);
#1150=CARTESIAN_POINT('',(-1.25,0.3175,-3.4));
#1151=DIRECTION('',(-0.939692620785928,1.150792E-016,-0.342020143325614));
#1152=DIRECTION('',(0.342020143325614,-4.188539E-017,-0.939692620785928));
#1153=AXIS2_PLACEMENT_3D('',#1150,#1151,#1152);
#1154=PLANE('',#1153);
#1155=CARTESIAN_POINT('',(-1.5675,-0.3175,-2.527675919323));
#1156=VERTEX_POINT('',#1155);
#1157=CARTESIAN_POINT('',(-1.25,-0.3175,-3.4));
#1158=DIRECTION('',(-0.342020143325614,5.979821E-017,0.939692620785928));
#1159=VECTOR('',#1158,0.928307897051928);
#1160=LINE('',#1157,#1159);
#1161=EDGE_CURVE('',#1125,#1156,#1160,.T.);
#1162=ORIENTED_EDGE('',*,*,#1161,.T.);
#1163=CARTESIAN_POINT('',(-1.5675,0.3175,-2.527675919323));
#1164=VERTEX_POINT('',#1163);
#1165=CARTESIAN_POINT('',(-1.5675,0.3175,-2.527675919323));
#1166=DIRECTION('',(0.0,-1.0,0.0));
#1167=VECTOR('',#1166,0.635);
#1168=LINE('',#1165,#1167);
#1169=EDGE_CURVE('',#1164,#1156,#1168,.T.);
#1170=ORIENTED_EDGE('',*,*,#1169,.F.);
#1171=CARTESIAN_POINT('',(-1.5675,0.3175,-2.527675919323));
#1172=DIRECTION('',(0.342020143325614,-5.979821E-017,-0.939692620785928));
#1173=VECTOR('',#1172,0.928307897051928);
#1174=LINE('',#1171,#1173);
#1175=EDGE_CURVE('',#1164,#1133,#1174,.T.);
#1176=ORIENTED_EDGE('',*,*,#1175,.T.);
#1177=ORIENTED_EDGE('',*,*,#1138,.T.);
#1178=EDGE_LOOP('',(#1162,#1170,#1176,#1177));
#1179=FACE_OUTER_BOUND('',#1178,.T.);
#1180=ADVANCED_FACE('',(#1179),#1154,.T.);
#1181=CARTESIAN_POINT('',(-1.5675,0.3175,-2.527675919323));
#1182=DIRECTION('',(-1.0,0.0,0.0));
#1183=DIRECTION('',(0.0,0.0,-1.0));
#1184=AXIS2_PLACEMENT_3D('',#1181,#1182,#1183);
#1185=PLANE('',#1184);
#1186=CARTESIAN_POINT('',(-1.5675,-0.3175,-2.527675919323));
#1187=DIRECTION('',(0.0,0.0,1.0));
#1188=VECTOR('',#1187,3.527675919323);
#1189=LINE('',#1186,#1188);
#1190=EDGE_CURVE('',#1156,#1054,#1189,.T.);
#1191=ORIENTED_EDGE('',*,*,#1190,.T.);
#1192=ORIENTED_EDGE('',*,*,#1083,.F.);
#1193=CARTESIAN_POINT('',(-1.5675,0.3175,1.0));
#1194=DIRECTION('',(0.0,0.0,-1.0));
#1195=VECTOR('',#1194,3.527675919323);
#1196=LINE('',#1193,#1195);
#1197=EDGE_CURVE('',#1072,#1164,#1196,.T.);
#1198=ORIENTED_EDGE('',*,*,#1197,.T.);
#1199=ORIENTED_EDGE('',*,*,#1169,.T.);
#1200=EDGE_LOOP('',(#1191,#1192,#1198,#1199));
#1201=FACE_OUTER_BOUND('',#1200,.T.);
#1202=ADVANCED_FACE('',(#1201),#1185,.T.);
#1203=CARTESIAN_POINT('',(-1.25,0.3175,-1.074357252978675));
#1204=DIRECTION('',(0.0,-1.0,0.0));
#1205=DIRECTION('',(0.0,0.0,1.0));
#1206=AXIS2_PLACEMENT_3D('',#1203,#1204,#1205);
#1207=PLANE('',#1206);
#1208=ORIENTED_EDGE('',*,*,#1197,.F.);
#1209=ORIENTED_EDGE('',*,*,#1077,.F.);
#1210=ORIENTED_EDGE('',*,*,#1113,.F.);
#1211=ORIENTED_EDGE('',*,*,#1144,.F.);
#1212=ORIENTED_EDGE('',*,*,#1175,.F.);
#1213=EDGE_LOOP('',(#1208,#1209,#1210,#1211,#1212));
#1214=FACE_OUTER_BOUND('',#1213,.T.);
#1215=ADVANCED_FACE('',(#1214),#1207,.F.);
#1216=CARTESIAN_POINT('',(-1.25,-0.3175,-1.074357252978675));
#1217=DIRECTION('',(0.0,-1.0,0.0));
#1218=DIRECTION('',(0.0,0.0,1.0));
#1219=AXIS2_PLACEMENT_3D('',#1216,#1217,#1218);
#1220=PLANE('',#1219);
#1221=ORIENTED_EDGE('',*,*,#1061,.F.);
#1222=ORIENTED_EDGE('',*,*,#1190,.F.);
#1223=ORIENTED_EDGE('',*,*,#1161,.F.);
#1224=ORIENTED_EDGE('',*,*,#1130,.F.);
#1225=ORIENTED_EDGE('',*,*,#1099,.F.);
#1226=EDGE_LOOP('',(#1221,#1222,#1223,#1224,#1225));
#1227=FACE_OUTER_BOUND('',#1226,.T.);
#1228=ADVANCED_FACE('',(#1227),#1220,.T.);
#1229=CLOSED_SHELL('',(#1087,#1118,#1149,#1180,#1202,#1215,#1228));
#1230=MANIFOLD_SOLID_BREP('11B4',#1229);
#1231=COLOUR_RGB('253',0.732,0.732,0.732);
#1232=SURFACE_STYLE_USAGE(.BOTH.,#1233);
#1233=SURFACE_SIDE_STYLE('NONE',(#1234));
#1234=SURFACE_STYLE_FILL_AREA(#1235);
#1235=FILL_AREA_STYLE('NONE',(#1236));
#1236=FILL_AREA_STYLE_COLOUR('NONE',#1231);
#1237=PRESENTATION_STYLE_ASSIGNMENT((#1232));
#1238=STYLED_ITEM('NONE',(#1237),#1230);
#1239=CARTESIAN_POINT('',(-1.5675,0.3175,3.300000000000001));
#1240=DIRECTION('',(-1.0,0.0,0.0));
#1241=DIRECTION('',(0.0,0.0,-1.0));
#1242=AXIS2_PLACEMENT_3D('',#1239,#1240,#1241);
#1243=PLANE('',#1242);
#1244=CARTESIAN_POINT('',(-1.5675,-0.317500000000001,3.300000000000001));
#1245=VERTEX_POINT('',#1244);
#1246=CARTESIAN_POINT('',(-1.5675,-0.317500000000001,9.927675919322999));
#1247=VERTEX_POINT('',#1246);
#1248=CARTESIAN_POINT('',(-1.5675,-0.317500000000001,3.300000000000001));
#1249=DIRECTION('',(0.0,0.0,1.0));
#1250=VECTOR('',#1249,6.627675919322998);
#1251=LINE('',#1248,#1250);
#1252=EDGE_CURVE('',#1245,#1247,#1251,.T.);
#1253=ORIENTED_EDGE('',*,*,#1252,.T.);
#1254=CARTESIAN_POINT('',(-1.5675,0.3175,9.927675919322999));
#1255=VERTEX_POINT('',#1254);
#1256=CARTESIAN_POINT('',(-1.5675,0.3175,9.927675919322999));
#1257=DIRECTION('',(0.0,-1.0,0.0));
#1258=VECTOR('',#1257,0.635000000000001);
#1259=LINE('',#1256,#1258);
#1260=EDGE_CURVE('',#1255,#1247,#1259,.T.);
#1261=ORIENTED_EDGE('',*,*,#1260,.F.);
#1262=CARTESIAN_POINT('',(-1.5675,0.3175,3.300000000000001));
#1263=VERTEX_POINT('',#1262);
#1264=CARTESIAN_POINT('',(-1.5675,0.3175,3.300000000000001));
#1265=DIRECTION('',(0.0,0.0,1.0));
#1266=VECTOR('',#1265,6.627675919322998);
#1267=LINE('',#1264,#1266);
#1268=EDGE_CURVE('',#1263,#1255,#1267,.T.);
#1269=ORIENTED_EDGE('',*,*,#1268,.F.);
#1270=CARTESIAN_POINT('',(-1.5675,0.3175,3.300000000000001));
#1271=DIRECTION('',(0.0,-1.0,0.0));
#1272=VECTOR('',#1271,0.635000000000001);
#1273=LINE('',#1270,#1272);
#1274=EDGE_CURVE('',#1263,#1245,#1273,.T.);
#1275=ORIENTED_EDGE('',*,*,#1274,.T.);
#1276=EDGE_LOOP('',(#1253,#1261,#1269,#1275));
#1277=FACE_OUTER_BOUND('',#1276,.T.);
#1278=ADVANCED_FACE('',(#1277),#1243,.T.);
#1279=CARTESIAN_POINT('',(-1.5675,0.3175,9.927675919322999));
#1280=DIRECTION('',(-0.939692620785929,1.150792E-016,0.342020143325613));
#1281=DIRECTION('',(-0.342020143325613,4.188539E-017,-0.939692620785929));
#1282=AXIS2_PLACEMENT_3D('',#1279,#1280,#1281);
#1283=PLANE('',#1282);
#1284=CARTESIAN_POINT('',(-1.25,-0.317500000000001,10.800000000000001));
#1285=VERTEX_POINT('',#1284);
#1286=CARTESIAN_POINT('',(-1.5675,-0.317500000000001,9.927675919322999));
#1287=DIRECTION('',(0.342020143325613,-5.979821E-017,0.939692620785929));
#1288=VECTOR('',#1287,0.92830789705193);
#1289=LINE('',#1286,#1288);
#1290=EDGE_CURVE('',#1247,#1285,#1289,.T.);
#1291=ORIENTED_EDGE('',*,*,#1290,.T.);
#1292=CARTESIAN_POINT('',(-1.25,0.3175,10.800000000000001));
#1293=VERTEX_POINT('',#1292);
#1294=CARTESIAN_POINT('',(-1.25,0.3175,10.800000000000001));
#1295=DIRECTION('',(0.0,-1.0,0.0));
#1296=VECTOR('',#1295,0.635000000000001);
#1297=LINE('',#1294,#1296);
#1298=EDGE_CURVE('',#1293,#1285,#1297,.T.);
#1299=ORIENTED_EDGE('',*,*,#1298,.F.);
#1300=CARTESIAN_POINT('',(-1.5675,0.3175,9.927675919322999));
#1301=DIRECTION('',(0.342020143325613,-5.979821E-017,0.939692620785929));
#1302=VECTOR('',#1301,0.92830789705193);
#1303=LINE('',#1300,#1302);
#1304=EDGE_CURVE('',#1255,#1293,#1303,.T.);
#1305=ORIENTED_EDGE('',*,*,#1304,.F.);
#1306=ORIENTED_EDGE('',*,*,#1260,.T.);
#1307=EDGE_LOOP('',(#1291,#1299,#1305,#1306));
#1308=FACE_OUTER_BOUND('',#1307,.T.);
#1309=ADVANCED_FACE('',(#1308),#1283,.T.);
#1310=CARTESIAN_POINT('',(-1.25,0.3175,10.800000000000001));
#1311=DIRECTION('',(0.939692620785929,-1.150792E-016,0.342020143325613));
#1312=DIRECTION('',(-0.342020143325613,4.188539E-017,0.939692620785929));
#1313=AXIS2_PLACEMENT_3D('',#1310,#1311,#1312);
#1314=PLANE('',#1313);
#1315=CARTESIAN_POINT('',(-0.9325,-0.317500000000001,9.927675919322997));
#1316=VERTEX_POINT('',#1315);
#1317=CARTESIAN_POINT('',(-1.25,-0.317500000000001,10.800000000000001));
#1318=DIRECTION('',(0.342020143325613,-5.979821E-017,-0.939692620785929));
#1319=VECTOR('',#1318,0.928307897051932);
#1320=LINE('',#1317,#1319);
#1321=EDGE_CURVE('',#1285,#1316,#1320,.T.);
#1322=ORIENTED_EDGE('',*,*,#1321,.T.);
#1323=CARTESIAN_POINT('',(-0.9325,0.3175,9.927675919322997));
#1324=VERTEX_POINT('',#1323);
#1325=CARTESIAN_POINT('',(-0.9325,0.3175,9.927675919322997));
#1326=DIRECTION('',(0.0,-1.0,0.0));
#1327=VECTOR('',#1326,0.635000000000001);
#1328=LINE('',#1325,#1327);
#1329=EDGE_CURVE('',#1324,#1316,#1328,.T.);
#1330=ORIENTED_EDGE('',*,*,#1329,.F.);
#1331=CARTESIAN_POINT('',(-1.25,0.3175,10.800000000000001));
#1332=DIRECTION('',(0.342020143325613,-5.979821E-017,-0.939692620785929));
#1333=VECTOR('',#1332,0.928307897051932);
#1334=LINE('',#1331,#1333);
#1335=EDGE_CURVE('',#1293,#1324,#1334,.T.);
#1336=ORIENTED_EDGE('',*,*,#1335,.F.);
#1337=ORIENTED_EDGE('',*,*,#1298,.T.);
#1338=EDGE_LOOP('',(#1322,#1330,#1336,#1337));
#1339=FACE_OUTER_BOUND('',#1338,.T.);
#1340=ADVANCED_FACE('',(#1339),#1314,.T.);
#1341=CARTESIAN_POINT('',(-0.9325,0.3175,9.927675919322997));
#1342=DIRECTION('',(1.0,0.0,0.0));
#1343=DIRECTION('',(0.0,0.0,1.0));
#1344=AXIS2_PLACEMENT_3D('',#1341,#1342,#1343);
#1345=PLANE('',#1344);
#1346=CARTESIAN_POINT('',(-0.9325,-0.317500000000001,3.3));
#1347=VERTEX_POINT('',#1346);
#1348=CARTESIAN_POINT('',(-0.9325,-0.317500000000001,9.927675919322997));
#1349=DIRECTION('',(0.0,0.0,-1.0));
#1350=VECTOR('',#1349,6.627675919322997);
#1351=LINE('',#1348,#1350);
#1352=EDGE_CURVE('',#1316,#1347,#1351,.T.);
#1353=ORIENTED_EDGE('',*,*,#1352,.T.);
#1354=CARTESIAN_POINT('',(-0.9325,0.3175,3.3));
#1355=VERTEX_POINT('',#1354);
#1356=CARTESIAN_POINT('',(-0.9325,0.3175,3.3));
#1357=DIRECTION('',(0.0,-1.0,0.0));
#1358=VECTOR('',#1357,0.635000000000001);
#1359=LINE('',#1356,#1358);
#1360=EDGE_CURVE('',#1355,#1347,#1359,.T.);
#1361=ORIENTED_EDGE('',*,*,#1360,.F.);
#1362=CARTESIAN_POINT('',(-0.9325,0.3175,9.927675919322997));
#1363=DIRECTION('',(0.0,0.0,-1.0));
#1364=VECTOR('',#1363,6.627675919322997);
#1365=LINE('',#1362,#1364);
#1366=EDGE_CURVE('',#1324,#1355,#1365,.T.);
#1367=ORIENTED_EDGE('',*,*,#1366,.F.);
#1368=ORIENTED_EDGE('',*,*,#1329,.T.);
#1369=EDGE_LOOP('',(#1353,#1361,#1367,#1368));
#1370=FACE_OUTER_BOUND('',#1369,.T.);
#1371=ADVANCED_FACE('',(#1370),#1345,.T.);
#1372=CARTESIAN_POINT('',(-0.9325,0.3175,3.3));
#1373=DIRECTION('',(0.0,0.0,-1.0));
#1374=DIRECTION('',(1.0,0.0,0.0));
#1375=AXIS2_PLACEMENT_3D('',#1372,#1373,#1374);
#1376=PLANE('',#1375);
#1377=CARTESIAN_POINT('',(-0.9325,-0.317500000000001,3.3));
#1378=DIRECTION('',(-1.0,0.0,0.0));
#1379=VECTOR('',#1378,0.635);
#1380=LINE('',#1377,#1379);
#1381=EDGE_CURVE('',#1347,#1245,#1380,.T.);
#1382=ORIENTED_EDGE('',*,*,#1381,.T.);
#1383=ORIENTED_EDGE('',*,*,#1274,.F.);
#1384=CARTESIAN_POINT('',(-0.9325,0.3175,3.3));
#1385=DIRECTION('',(-1.0,0.0,0.0));
#1386=VECTOR('',#1385,0.635);
#1387=LINE('',#1384,#1386);
#1388=EDGE_CURVE('',#1355,#1263,#1387,.T.);
#1389=ORIENTED_EDGE('',*,*,#1388,.F.);
#1390=ORIENTED_EDGE('',*,*,#1360,.T.);
#1391=EDGE_LOOP('',(#1382,#1383,#1389,#1390));
#1392=FACE_OUTER_BOUND('',#1391,.T.);
#1393=ADVANCED_FACE('',(#1392),#1376,.T.);
#1394=CARTESIAN_POINT('',(-1.249999999999999,-0.317500000000001,6.922343205674766));
#1395=DIRECTION('',(0.0,-1.0,0.0));
#1396=DIRECTION('',(0.0,0.0,1.0));
#1397=AXIS2_PLACEMENT_3D('',#1394,#1395,#1396);
#1398=PLANE('',#1397);
#1399=ORIENTED_EDGE('',*,*,#1252,.F.);
#1400=ORIENTED_EDGE('',*,*,#1381,.F.);
#1401=ORIENTED_EDGE('',*,*,#1352,.F.);
#1402=ORIENTED_EDGE('',*,*,#1321,.F.);
#1403=ORIENTED_EDGE('',*,*,#1290,.F.);
#1404=EDGE_LOOP('',(#1399,#1400,#1401,#1402,#1403));
#1405=FACE_OUTER_BOUND('',#1404,.T.);
#1406=ADVANCED_FACE('',(#1405),#1398,.T.);
#1407=CARTESIAN_POINT('',(-1.25,0.3175,6.922343205674763));
#1408=DIRECTION('',(0.0,-1.0,0.0));
#1409=DIRECTION('',(0.0,0.0,1.0));
#1410=AXIS2_PLACEMENT_3D('',#1407,#1408,#1409);
#1411=PLANE('',#1410);
#1412=ORIENTED_EDGE('',*,*,#1388,.T.);
#1413=ORIENTED_EDGE('',*,*,#1268,.T.);
#1414=ORIENTED_EDGE('',*,*,#1304,.T.);
#1415=ORIENTED_EDGE('',*,*,#1335,.T.);
#1416=ORIENTED_EDGE('',*,*,#1366,.T.);
#1417=EDGE_LOOP('',(#1412,#1413,#1414,#1415,#1416));
#1418=FACE_OUTER_BOUND('',#1417,.T.);
#1419=ADVANCED_FACE('',(#1418),#1411,.F.);
#1420=CLOSED_SHELL('',(#1278,#1309,#1340,#1371,#1393,#1406,#1419));
#1421=MANIFOLD_SOLID_BREP('11B0',#1420);
#1422=STYLED_ITEM('NONE',(#1237),#1421);
#1423=CARTESIAN_POINT('',(0.9325,0.3175,1.0));
#1424=DIRECTION('',(0.0,0.0,1.0));
#1425=DIRECTION('',(-1.0,0.0,0.0));
#1426=AXIS2_PLACEMENT_3D('',#1423,#1424,#1425);
#1427=PLANE('',#1426);
#1428=CARTESIAN_POINT('',(0.9325,-0.317500000000001,1.0));
#1429=VERTEX_POINT('',#1428);
#1430=CARTESIAN_POINT('',(1.5675,-0.317500000000001,1.0));
#1431=VERTEX_POINT('',#1430);
#1432=CARTESIAN_POINT('',(0.9325,-0.317500000000001,1.0));
#1433=DIRECTION('',(1.0,0.0,0.0));
#1434=VECTOR('',#1433,0.635);
#1435=LINE('',#1432,#1434);
#1436=EDGE_CURVE('',#1429,#1431,#1435,.T.);
#1437=ORIENTED_EDGE('',*,*,#1436,.T.);
#1438=CARTESIAN_POINT('',(1.5675,0.3175,1.0));
#1439=VERTEX_POINT('',#1438);
#1440=CARTESIAN_POINT('',(1.5675,0.3175,1.0));
#1441=DIRECTION('',(0.0,-1.0,0.0));
#1442=VECTOR('',#1441,0.635);
#1443=LINE('',#1440,#1442);
#1444=EDGE_CURVE('',#1439,#1431,#1443,.T.);
#1445=ORIENTED_EDGE('',*,*,#1444,.F.);
#1446=CARTESIAN_POINT('',(0.9325,0.3175,1.0));
#1447=VERTEX_POINT('',#1446);
#1448=CARTESIAN_POINT('',(1.5675,0.3175,1.0));
#1449=DIRECTION('',(-1.0,0.0,0.0));
#1450=VECTOR('',#1449,0.635);
#1451=LINE('',#1448,#1450);
#1452=EDGE_CURVE('',#1439,#1447,#1451,.T.);
#1453=ORIENTED_EDGE('',*,*,#1452,.T.);
#1454=CARTESIAN_POINT('',(0.9325,0.3175,1.0));
#1455=DIRECTION('',(0.0,-1.0,0.0));
#1456=VECTOR('',#1455,0.635);
#1457=LINE('',#1454,#1456);
#1458=EDGE_CURVE('',#1447,#1429,#1457,.T.);
#1459=ORIENTED_EDGE('',*,*,#1458,.T.);
#1460=EDGE_LOOP('',(#1437,#1445,#1453,#1459));
#1461=FACE_OUTER_BOUND('',#1460,.T.);
#1462=ADVANCED_FACE('',(#1461),#1427,.T.);
#1463=CARTESIAN_POINT('',(1.5675,0.3175,1.0));
#1464=DIRECTION('',(1.0,0.0,0.0));
#1465=DIRECTION('',(0.0,0.0,1.0));
#1466=AXIS2_PLACEMENT_3D('',#1463,#1464,#1465);
#1467=PLANE('',#1466);
#1468=CARTESIAN_POINT('',(1.5675,-0.317500000000001,-2.527675919323));
#1469=VERTEX_POINT('',#1468);
#1470=CARTESIAN_POINT('',(1.5675,-0.317500000000001,1.0));
#1471=DIRECTION('',(0.0,0.0,-1.0));
#1472=VECTOR('',#1471,3.527675919323);
#1473=LINE('',#1470,#1472);
#1474=EDGE_CURVE('',#1431,#1469,#1473,.T.);
#1475=ORIENTED_EDGE('',*,*,#1474,.T.);
#1476=CARTESIAN_POINT('',(1.5675,0.3175,-2.527675919323));
#1477=VERTEX_POINT('',#1476);
#1478=CARTESIAN_POINT('',(1.5675,0.3175,-2.527675919323));
#1479=DIRECTION('',(0.0,-1.0,0.0));
#1480=VECTOR('',#1479,0.635);
#1481=LINE('',#1478,#1480);
#1482=EDGE_CURVE('',#1477,#1469,#1481,.T.);
#1483=ORIENTED_EDGE('',*,*,#1482,.F.);
#1484=CARTESIAN_POINT('',(1.5675,0.3175,-2.527675919323));
#1485=DIRECTION('',(0.0,0.0,1.0));
#1486=VECTOR('',#1485,3.527675919323);
#1487=LINE('',#1484,#1486);
#1488=EDGE_CURVE('',#1477,#1439,#1487,.T.);
#1489=ORIENTED_EDGE('',*,*,#1488,.T.);
#1490=ORIENTED_EDGE('',*,*,#1444,.T.);
#1491=EDGE_LOOP('',(#1475,#1483,#1489,#1490));
#1492=FACE_OUTER_BOUND('',#1491,.T.);
#1493=ADVANCED_FACE('',(#1492),#1467,.T.);
#1494=CARTESIAN_POINT('',(1.5675,0.3175,-2.527675919323));
#1495=DIRECTION('',(0.939692620785928,-1.150792E-016,-0.342020143325614));
#1496=DIRECTION('',(0.342020143325614,-4.188539E-017,0.939692620785928));
#1497=AXIS2_PLACEMENT_3D('',#1494,#1495,#1496);
#1498=PLANE('',#1497);
#1499=CARTESIAN_POINT('',(1.25,-0.317500000000001,-3.4));
#1500=VERTEX_POINT('',#1499);
#1501=CARTESIAN_POINT('',(1.5675,-0.317500000000001,-2.527675919323));
#1502=DIRECTION('',(-0.342020143325614,5.979821E-017,-0.939692620785928));
#1503=VECTOR('',#1502,0.928307897051928);
#1504=LINE('',#1501,#1503);
#1505=EDGE_CURVE('',#1469,#1500,#1504,.T.);
#1506=ORIENTED_EDGE('',*,*,#1505,.T.);
#1507=CARTESIAN_POINT('',(1.25,0.3175,-3.4));
#1508=VERTEX_POINT('',#1507);
#1509=CARTESIAN_POINT('',(1.25,0.3175,-3.4));
#1510=DIRECTION('',(0.0,-1.0,0.0));
#1511=VECTOR('',#1510,0.635);
#1512=LINE('',#1509,#1511);
#1513=EDGE_CURVE('',#1508,#1500,#1512,.T.);
#1514=ORIENTED_EDGE('',*,*,#1513,.F.);
#1515=CARTESIAN_POINT('',(1.25,0.3175,-3.4));
#1516=DIRECTION('',(0.342020143325614,-5.979821E-017,0.939692620785928));
#1517=VECTOR('',#1516,0.928307897051928);
#1518=LINE('',#1515,#1517);
#1519=EDGE_CURVE('',#1508,#1477,#1518,.T.);
#1520=ORIENTED_EDGE('',*,*,#1519,.T.);
#1521=ORIENTED_EDGE('',*,*,#1482,.T.);
#1522=EDGE_LOOP('',(#1506,#1514,#1520,#1521));
#1523=FACE_OUTER_BOUND('',#1522,.T.);
#1524=ADVANCED_FACE('',(#1523),#1498,.T.);
#1525=CARTESIAN_POINT('',(1.25,0.3175,-3.4));
#1526=DIRECTION('',(-0.939692620785928,1.150792E-016,-0.342020143325614));
#1527=DIRECTION('',(0.342020143325614,-4.188539E-017,-0.939692620785928));
#1528=AXIS2_PLACEMENT_3D('',#1525,#1526,#1527);
#1529=PLANE('',#1528);
#1530=CARTESIAN_POINT('',(0.9325,-0.317500000000001,-2.527675919323));
#1531=VERTEX_POINT('',#1530);
#1532=CARTESIAN_POINT('',(1.25,-0.317500000000001,-3.4));
#1533=DIRECTION('',(-0.342020143325614,5.979821E-017,0.939692620785928));
#1534=VECTOR('',#1533,0.928307897051928);
#1535=LINE('',#1532,#1534);
#1536=EDGE_CURVE('',#1500,#1531,#1535,.T.);
#1537=ORIENTED_EDGE('',*,*,#1536,.T.);
#1538=CARTESIAN_POINT('',(0.9325,0.3175,-2.527675919323));
#1539=VERTEX_POINT('',#1538);
#1540=CARTESIAN_POINT('',(0.9325,0.3175,-2.527675919323));
#1541=DIRECTION('',(0.0,-1.0,0.0));
#1542=VECTOR('',#1541,0.635);
#1543=LINE('',#1540,#1542);
#1544=EDGE_CURVE('',#1539,#1531,#1543,.T.);
#1545=ORIENTED_EDGE('',*,*,#1544,.F.);
#1546=CARTESIAN_POINT('',(0.9325,0.3175,-2.527675919323));
#1547=DIRECTION('',(0.342020143325614,-5.979821E-017,-0.939692620785928));
#1548=VECTOR('',#1547,0.928307897051928);
#1549=LINE('',#1546,#1548);
#1550=EDGE_CURVE('',#1539,#1508,#1549,.T.);
#1551=ORIENTED_EDGE('',*,*,#1550,.T.);
#1552=ORIENTED_EDGE('',*,*,#1513,.T.);
#1553=EDGE_LOOP('',(#1537,#1545,#1551,#1552));
#1554=FACE_OUTER_BOUND('',#1553,.T.);
#1555=ADVANCED_FACE('',(#1554),#1529,.T.);
#1556=CARTESIAN_POINT('',(0.9325,0.3175,-2.527675919323));
#1557=DIRECTION('',(-1.0,0.0,0.0));
#1558=DIRECTION('',(0.0,0.0,-1.0));
#1559=AXIS2_PLACEMENT_3D('',#1556,#1557,#1558);
#1560=PLANE('',#1559);
#1561=CARTESIAN_POINT('',(0.9325,-0.317500000000001,-2.527675919323));
#1562=DIRECTION('',(0.0,0.0,1.0));
#1563=VECTOR('',#1562,3.527675919323);
#1564=LINE('',#1561,#1563);
#1565=EDGE_CURVE('',#1531,#1429,#1564,.T.);
#1566=ORIENTED_EDGE('',*,*,#1565,.T.);
#1567=ORIENTED_EDGE('',*,*,#1458,.F.);
#1568=CARTESIAN_POINT('',(0.9325,0.3175,1.0));
#1569=DIRECTION('',(0.0,0.0,-1.0));
#1570=VECTOR('',#1569,3.527675919323);
#1571=LINE('',#1568,#1570);
#1572=EDGE_CURVE('',#1447,#1539,#1571,.T.);
#1573=ORIENTED_EDGE('',*,*,#1572,.T.);
#1574=ORIENTED_EDGE('',*,*,#1544,.T.);
#1575=EDGE_LOOP('',(#1566,#1567,#1573,#1574));
#1576=FACE_OUTER_BOUND('',#1575,.T.);
#1577=ADVANCED_FACE('',(#1576),#1560,.T.);
#1578=CARTESIAN_POINT('',(1.25,0.3175,-1.074357252978675));
#1579=DIRECTION('',(0.0,-1.0,0.0));
#1580=DIRECTION('',(0.0,0.0,1.0));
#1581=AXIS2_PLACEMENT_3D('',#1578,#1579,#1580);
#1582=PLANE('',#1581);
#1583=ORIENTED_EDGE('',*,*,#1572,.F.);
#1584=ORIENTED_EDGE('',*,*,#1452,.F.);
#1585=ORIENTED_EDGE('',*,*,#1488,.F.);
#1586=ORIENTED_EDGE('',*,*,#1519,.F.);
#1587=ORIENTED_EDGE('',*,*,#1550,.F.);
#1588=EDGE_LOOP('',(#1583,#1584,#1585,#1586,#1587));
#1589=FACE_OUTER_BOUND('',#1588,.T.);
#1590=ADVANCED_FACE('',(#1589),#1582,.F.);
#1591=CARTESIAN_POINT('',(1.25,-0.317500000000001,-1.074357252978675));
#1592=DIRECTION('',(0.0,-1.0,0.0));
#1593=DIRECTION('',(0.0,0.0,1.0));
#1594=AXIS2_PLACEMENT_3D('',#1591,#1592,#1593);
#1595=PLANE('',#1594);
#1596=ORIENTED_EDGE('',*,*,#1436,.F.);
#1597=ORIENTED_EDGE('',*,*,#1565,.F.);
#1598=ORIENTED_EDGE('',*,*,#1536,.F.);
#1599=ORIENTED_EDGE('',*,*,#1505,.F.);
#1600=ORIENTED_EDGE('',*,*,#1474,.F.);
#1601=EDGE_LOOP('',(#1596,#1597,#1598,#1599,#1600));
#1602=FACE_OUTER_BOUND('',#1601,.T.);
#1603=ADVANCED_FACE('',(#1602),#1595,.T.);
#1604=CLOSED_SHELL('',(#1462,#1493,#1524,#1555,#1577,#1590,#1603));
#1605=MANIFOLD_SOLID_BREP('11AC',#1604);
#1606=STYLED_ITEM('NONE',(#1237),#1605);
#1607=CARTESIAN_POINT('',(0.9325,0.3175,3.300000000000001));
#1608=DIRECTION('',(-1.0,0.0,0.0));
#1609=DIRECTION('',(0.0,0.0,-1.0));
#1610=AXIS2_PLACEMENT_3D('',#1607,#1608,#1609);
#1611=PLANE('',#1610);
#1612=CARTESIAN_POINT('',(0.9325,-0.317500000000001,3.300000000000001));
#1613=VERTEX_POINT('',#1612);
#1614=CARTESIAN_POINT('',(0.9325,-0.317500000000001,9.927675919322999));
#1615=VERTEX_POINT('',#1614);
#1616=CARTESIAN_POINT('',(0.9325,-0.317500000000001,3.300000000000001));
#1617=DIRECTION('',(0.0,0.0,1.0));
#1618=VECTOR('',#1617,6.627675919322998);
#1619=LINE('',#1616,#1618);
#1620=EDGE_CURVE('',#1613,#1615,#1619,.T.);
#1621=ORIENTED_EDGE('',*,*,#1620,.T.);
#1622=CARTESIAN_POINT('',(0.9325,0.3175,9.927675919322999));
#1623=VERTEX_POINT('',#1622);
#1624=CARTESIAN_POINT('',(0.9325,0.3175,9.927675919322999));
#1625=DIRECTION('',(0.0,-1.0,0.0));
#1626=VECTOR('',#1625,0.635000000000001);
#1627=LINE('',#1624,#1626);
#1628=EDGE_CURVE('',#1623,#1615,#1627,.T.);
#1629=ORIENTED_EDGE('',*,*,#1628,.F.);
#1630=CARTESIAN_POINT('',(0.9325,0.3175,3.300000000000001));
#1631=VERTEX_POINT('',#1630);
#1632=CARTESIAN_POINT('',(0.9325,0.3175,3.300000000000001));
#1633=DIRECTION('',(0.0,0.0,1.0));
#1634=VECTOR('',#1633,6.627675919322998);
#1635=LINE('',#1632,#1634);
#1636=EDGE_CURVE('',#1631,#1623,#1635,.T.);
#1637=ORIENTED_EDGE('',*,*,#1636,.F.);
#1638=CARTESIAN_POINT('',(0.9325,0.3175,3.300000000000001));
#1639=DIRECTION('',(0.0,-1.0,0.0));
#1640=VECTOR('',#1639,0.635000000000001);
#1641=LINE('',#1638,#1640);
#1642=EDGE_CURVE('',#1631,#1613,#1641,.T.);
#1643=ORIENTED_EDGE('',*,*,#1642,.T.);
#1644=EDGE_LOOP('',(#1621,#1629,#1637,#1643));
#1645=FACE_OUTER_BOUND('',#1644,.T.);
#1646=ADVANCED_FACE('',(#1645),#1611,.T.);
#1647=CARTESIAN_POINT('',(0.9325,0.3175,9.927675919322999));
#1648=DIRECTION('',(-0.939692620785929,1.150792E-016,0.342020143325613));
#1649=DIRECTION('',(-0.342020143325613,4.188539E-017,-0.939692620785929));
#1650=AXIS2_PLACEMENT_3D('',#1647,#1648,#1649);
#1651=PLANE('',#1650);
#1652=CARTESIAN_POINT('',(1.25,-0.317500000000001,10.800000000000001));
#1653=VERTEX_POINT('',#1652);
#1654=CARTESIAN_POINT('',(0.9325,-0.317500000000001,9.927675919322999));
#1655=DIRECTION('',(0.342020143325613,-5.979821E-017,0.939692620785929));
#1656=VECTOR('',#1655,0.92830789705193);
#1657=LINE('',#1654,#1656);
#1658=EDGE_CURVE('',#1615,#1653,#1657,.T.);
#1659=ORIENTED_EDGE('',*,*,#1658,.T.);
#1660=CARTESIAN_POINT('',(1.25,0.3175,10.800000000000001));
#1661=VERTEX_POINT('',#1660);
#1662=CARTESIAN_POINT('',(1.25,0.3175,10.800000000000001));
#1663=DIRECTION('',(0.0,-1.0,0.0));
#1664=VECTOR('',#1663,0.635000000000001);
#1665=LINE('',#1662,#1664);
#1666=EDGE_CURVE('',#1661,#1653,#1665,.T.);
#1667=ORIENTED_EDGE('',*,*,#1666,.F.);
#1668=CARTESIAN_POINT('',(0.9325,0.3175,9.927675919322999));
#1669=DIRECTION('',(0.342020143325613,-5.979821E-017,0.939692620785929));
#1670=VECTOR('',#1669,0.92830789705193);
#1671=LINE('',#1668,#1670);
#1672=EDGE_CURVE('',#1623,#1661,#1671,.T.);
#1673=ORIENTED_EDGE('',*,*,#1672,.F.);
#1674=ORIENTED_EDGE('',*,*,#1628,.T.);
#1675=EDGE_LOOP('',(#1659,#1667,#1673,#1674));
#1676=FACE_OUTER_BOUND('',#1675,.T.);
#1677=ADVANCED_FACE('',(#1676),#1651,.T.);
#1678=CARTESIAN_POINT('',(1.25,0.3175,10.800000000000001));
#1679=DIRECTION('',(0.939692620785929,-1.150792E-016,0.342020143325613));
#1680=DIRECTION('',(-0.342020143325613,4.188539E-017,0.939692620785929));
#1681=AXIS2_PLACEMENT_3D('',#1678,#1679,#1680);
#1682=PLANE('',#1681);
#1683=CARTESIAN_POINT('',(1.5675,-0.317500000000001,9.927675919322997));
#1684=VERTEX_POINT('',#1683);
#1685=CARTESIAN_POINT('',(1.25,-0.317500000000001,10.800000000000001));
#1686=DIRECTION('',(0.342020143325613,-5.979821E-017,-0.939692620785929));
#1687=VECTOR('',#1686,0.928307897051932);
#1688=LINE('',#1685,#1687);
#1689=EDGE_CURVE('',#1653,#1684,#1688,.T.);
#1690=ORIENTED_EDGE('',*,*,#1689,.T.);
#1691=CARTESIAN_POINT('',(1.5675,0.3175,9.927675919322997));
#1692=VERTEX_POINT('',#1691);
#1693=CARTESIAN_POINT('',(1.5675,0.3175,9.927675919322997));
#1694=DIRECTION('',(0.0,-1.0,0.0));
#1695=VECTOR('',#1694,0.635000000000001);
#1696=LINE('',#1693,#1695);
#1697=EDGE_CURVE('',#1692,#1684,#1696,.T.);
#1698=ORIENTED_EDGE('',*,*,#1697,.F.);
#1699=CARTESIAN_POINT('',(1.25,0.3175,10.800000000000001));
#1700=DIRECTION('',(0.342020143325613,-5.979821E-017,-0.939692620785929));
#1701=VECTOR('',#1700,0.928307897051932);
#1702=LINE('',#1699,#1701);
#1703=EDGE_CURVE('',#1661,#1692,#1702,.T.);
#1704=ORIENTED_EDGE('',*,*,#1703,.F.);
#1705=ORIENTED_EDGE('',*,*,#1666,.T.);
#1706=EDGE_LOOP('',(#1690,#1698,#1704,#1705));
#1707=FACE_OUTER_BOUND('',#1706,.T.);
#1708=ADVANCED_FACE('',(#1707),#1682,.T.);
#1709=CARTESIAN_POINT('',(1.5675,0.3175,9.927675919322997));
#1710=DIRECTION('',(1.0,0.0,0.0));
#1711=DIRECTION('',(0.0,0.0,1.0));
#1712=AXIS2_PLACEMENT_3D('',#1709,#1710,#1711);
#1713=PLANE('',#1712);
#1714=CARTESIAN_POINT('',(1.5675,-0.317500000000001,3.3));
#1715=VERTEX_POINT('',#1714);
#1716=CARTESIAN_POINT('',(1.5675,-0.317500000000001,9.927675919322997));
#1717=DIRECTION('',(0.0,0.0,-1.0));
#1718=VECTOR('',#1717,6.627675919322997);
#1719=LINE('',#1716,#1718);
#1720=EDGE_CURVE('',#1684,#1715,#1719,.T.);
#1721=ORIENTED_EDGE('',*,*,#1720,.T.);
#1722=CARTESIAN_POINT('',(1.5675,0.3175,3.3));
#1723=VERTEX_POINT('',#1722);
#1724=CARTESIAN_POINT('',(1.5675,0.3175,3.3));
#1725=DIRECTION('',(0.0,-1.0,0.0));
#1726=VECTOR('',#1725,0.635000000000001);
#1727=LINE('',#1724,#1726);
#1728=EDGE_CURVE('',#1723,#1715,#1727,.T.);
#1729=ORIENTED_EDGE('',*,*,#1728,.F.);
#1730=CARTESIAN_POINT('',(1.5675,0.3175,9.927675919322997));
#1731=DIRECTION('',(0.0,0.0,-1.0));
#1732=VECTOR('',#1731,6.627675919322997);
#1733=LINE('',#1730,#1732);
#1734=EDGE_CURVE('',#1692,#1723,#1733,.T.);
#1735=ORIENTED_EDGE('',*,*,#1734,.F.);
#1736=ORIENTED_EDGE('',*,*,#1697,.T.);
#1737=EDGE_LOOP('',(#1721,#1729,#1735,#1736));
#1738=FACE_OUTER_BOUND('',#1737,.T.);
#1739=ADVANCED_FACE('',(#1738),#1713,.T.);
#1740=CARTESIAN_POINT('',(1.5675,0.3175,3.3));
#1741=DIRECTION('',(0.0,0.0,-1.0));
#1742=DIRECTION('',(1.0,0.0,0.0));
#1743=AXIS2_PLACEMENT_3D('',#1740,#1741,#1742);
#1744=PLANE('',#1743);
#1745=CARTESIAN_POINT('',(1.5675,-0.317500000000001,3.3));
#1746=DIRECTION('',(-1.0,0.0,0.0));
#1747=VECTOR('',#1746,0.635);
#1748=LINE('',#1745,#1747);
#1749=EDGE_CURVE('',#1715,#1613,#1748,.T.);
#1750=ORIENTED_EDGE('',*,*,#1749,.T.);
#1751=ORIENTED_EDGE('',*,*,#1642,.F.);
#1752=CARTESIAN_POINT('',(1.5675,0.3175,3.3));
#1753=DIRECTION('',(-1.0,0.0,0.0));
#1754=VECTOR('',#1753,0.635);
#1755=LINE('',#1752,#1754);
#1756=EDGE_CURVE('',#1723,#1631,#1755,.T.);
#1757=ORIENTED_EDGE('',*,*,#1756,.F.);
#1758=ORIENTED_EDGE('',*,*,#1728,.T.);
#1759=EDGE_LOOP('',(#1750,#1751,#1757,#1758));
#1760=FACE_OUTER_BOUND('',#1759,.T.);
#1761=ADVANCED_FACE('',(#1760),#1744,.T.);
#1762=CARTESIAN_POINT('',(1.250000000000001,-0.317500000000001,6.922343205674766));
#1763=DIRECTION('',(0.0,-1.0,0.0));
#1764=DIRECTION('',(0.0,0.0,1.0));
#1765=AXIS2_PLACEMENT_3D('',#1762,#1763,#1764);
#1766=PLANE('',#1765);
#1767=ORIENTED_EDGE('',*,*,#1620,.F.);
#1768=ORIENTED_EDGE('',*,*,#1749,.F.);
#1769=ORIENTED_EDGE('',*,*,#1720,.F.);
#1770=ORIENTED_EDGE('',*,*,#1689,.F.);
#1771=ORIENTED_EDGE('',*,*,#1658,.F.);
#1772=EDGE_LOOP('',(#1767,#1768,#1769,#1770,#1771));
#1773=FACE_OUTER_BOUND('',#1772,.T.);
#1774=ADVANCED_FACE('',(#1773),#1766,.T.);
#1775=CARTESIAN_POINT('',(1.25,0.3175,6.922343205674763));
#1776=DIRECTION('',(0.0,-1.0,0.0));
#1777=DIRECTION('',(0.0,0.0,1.0));
#1778=AXIS2_PLACEMENT_3D('',#1775,#1776,#1777);
#1779=PLANE('',#1778);
#1780=ORIENTED_EDGE('',*,*,#1756,.T.);
#1781=ORIENTED_EDGE('',*,*,#1636,.T.);
#1782=ORIENTED_EDGE('',*,*,#1672,.T.);
#1783=ORIENTED_EDGE('',*,*,#1703,.T.);
#1784=ORIENTED_EDGE('',*,*,#1734,.T.);
#1785=EDGE_LOOP('',(#1780,#1781,#1782,#1783,#1784));
#1786=FACE_OUTER_BOUND('',#1785,.T.);
#1787=ADVANCED_FACE('',(#1786),#1779,.F.);
#1788=CLOSED_SHELL('',(#1646,#1677,#1708,#1739,#1761,#1774,#1787));
#1789=MANIFOLD_SOLID_BREP('11A8',#1788);
#1790=STYLED_ITEM('NONE',(#1237),#1789);
#1791=ADVANCED_BREP_SHAPE_REPRESENTATION('ABSR1',(#412,#1046,#1230,#1421,#1605,#1789),#28);
#1792=SHAPE_REPRESENTATION_RELATIONSHIP('SRRPL1','',#1791,#62);
ENDSEC;
END-ISO-10303-21;
