ISO-10303-21;
HEADER;
/****************************************************************
 * Generated by software with PDElib inside                    *
 * PDElib Version v51a, created Fri 09/10/2010                  *
 * ITI Transcendata (http://www.transcendata.com/)              *
 ****************************************************************/
FILE_DESCRIPTION((''),'2;1');
FILE_NAME('MSBOX_EDA-02485-V1-0_misc1.stp','2012-10-17T14:06:25',(''),(''),'Mechanical Desktop 2011','Mechanical Desktop 2011',', , ');
FILE_SCHEMA(('AUTOMOTIVE_DESIGN { 1 2 10303 214 1 1 1 1 }'));
ENDSEC;
DATA;
#10=(NAMED_UNIT(*)PLANE_ANGLE_UNIT()SI_UNIT($,.RADIAN.));
#11=DIMENSIONAL_EXPONENTS(0.0,0.0,0.0,0.0,0.0,0.0,0.0);
#12=PLANE_ANGLE_MEASURE_WITH_UNIT(PLANE_ANGLE_MEASURE(0.0174532925),#10);
#16=(CONVERSION_BASED_UNIT('DEGREE',#12)NAMED_UNIT(#11)PLANE_ANGLE_UNIT());
#20=(NAMED_UNIT(*)SI_UNIT($,.STERADIAN.)SOLID_ANGLE_UNIT());
#24=(LENGTH_UNIT()NAMED_UNIT(*)SI_UNIT(.MILLI.,.METRE.));
#26=UNCERTAINTY_MEASURE_WITH_UNIT(LENGTH_MEASURE(0.000001),#24,'DISTANCE_ACCURACY_VALUE','');
#28=(GEOMETRIC_REPRESENTATION_CONTEXT(3)GLOBAL_UNCERTAINTY_ASSIGNED_CONTEXT((#26))GLOBAL_UNIT_ASSIGNED_CONTEXT((#16,#20,#24))REPRESENTATION_CONTEXT('','3D'));
#29=APPLICATION_CONTEXT('automotive design');
#30=APPLICATION_PROTOCOL_DEFINITION('INTERNATIONAL_STANDARD','automotive_design',1998,#29);
#31=PRODUCT_CONTEXT('3D Mechanical Parts',#29,'mechanical');
#32=PRODUCT('Product','Product','',(#31));
#33=PRODUCT_RELATED_PRODUCT_CATEGORY('part',$,(#32));
#34=PRODUCT_CATEGORY('part',$);
#35=PERSON('1','Design','Joe',$,$,$);
#36=ORGANIZATION($,'None','None');
#37=PERSON_AND_ORGANIZATION(#35,#36);
#38=PERSON_AND_ORGANIZATION_ROLE('design_owner');
#39=APPLIED_PERSON_AND_ORGANIZATION_ASSIGNMENT(#37,#38,(#32));
#40=PRODUCT_DEFINITION_FORMATION_WITH_SPECIFIED_SOURCE('None','',#32,.BOUGHT.);
#41=PERSON('2','Creator','Joe',$,$,$);
#42=ORGANIZATION($,'None','None');
#43=PERSON_AND_ORGANIZATION(#41,#42);
#44=PERSON_AND_ORGANIZATION_ROLE('creator');
#45=APPLIED_PERSON_AND_ORGANIZATION_ASSIGNMENT(#43,#44,(#40));
#46=PERSON('3','Supplier','Joe',$,$,$);
#47=ORGANIZATION($,'None','None');
#48=PERSON_AND_ORGANIZATION(#46,#47);
#49=PERSON_AND_ORGANIZATION_ROLE('design_supplier');
#50=APPLIED_PERSON_AND_ORGANIZATION_ASSIGNMENT(#48,#49,(#40));
#51=PRODUCT_DEFINITION_CONTEXT('part definition',#29,'design');
#52=PRODUCT_DEFINITION('None','',#40,#51);
#53=PERSON('4','Creator','Joe',$,$,$);
#54=ORGANIZATION($,'None','None');
#55=PERSON_AND_ORGANIZATION(#53,#54);
#56=PERSON_AND_ORGANIZATION_ROLE('creator');
#57=APPLIED_PERSON_AND_ORGANIZATION_ASSIGNMENT(#55,#56,(#52));
#58=CARTESIAN_POINT('NONE',(0.0,0.0,0.0));
#59=DIRECTION('NONE',(0.0,0.0,1.0));
#60=DIRECTION('NONE',(1.0,0.0,0.0));
#61=AXIS2_PLACEMENT_3D('NONE',#58,#59,#60);
#62=SHAPE_REPRESENTATION('SR1',(#61),#28);
#63=PRODUCT_DEFINITION_SHAPE('PDS1','Test Part',#52);
#64=SHAPE_DEFINITION_REPRESENTATION(#63,#62);
#65=CARTESIAN_POINT('',(14.999999999999996,0.270000000000003,15.000000000000004));
#66=DIRECTION('',(1.0,0.0,0.0));
#67=DIRECTION('',(0.0,0.0,-1.0));
#68=AXIS2_PLACEMENT_3D('',#65,#66,#67);
#69=PLANE('',#68);
#70=CARTESIAN_POINT('',(14.999999999999996,-0.269999999999997,15.000000000000004));
#71=VERTEX_POINT('',#70);
#72=CARTESIAN_POINT('',(14.999999999999996,-0.269999999999997,1.554312E-015));
#73=VERTEX_POINT('',#72);
#74=CARTESIAN_POINT('',(14.999999999999996,-0.269999999999997,15.000000000000004));
#75=DIRECTION('',(0.0,0.0,-1.0));
#76=VECTOR('',#75,15.000000000000002);
#77=LINE('',#74,#76);
#78=EDGE_CURVE('',#71,#73,#77,.T.);
#79=ORIENTED_EDGE('',*,*,#78,.T.);
#80=CARTESIAN_POINT('',(14.999999999999996,0.270000000000003,1.554312E-015));
#81=VERTEX_POINT('',#80);
#82=CARTESIAN_POINT('',(14.999999999999996,0.270000000000003,1.554312E-015));
#83=DIRECTION('',(0.0,-1.0,0.0));
#84=VECTOR('',#83,0.54);
#85=LINE('',#82,#84);
#86=EDGE_CURVE('',#81,#73,#85,.T.);
#87=ORIENTED_EDGE('',*,*,#86,.F.);
#88=CARTESIAN_POINT('',(14.999999999999996,0.270000000000003,15.000000000000004));
#89=VERTEX_POINT('',#88);
#90=CARTESIAN_POINT('',(14.999999999999996,0.270000000000003,1.554312E-015));
#91=DIRECTION('',(0.0,0.0,1.0));
#92=VECTOR('',#91,15.000000000000002);
#93=LINE('',#90,#92);
#94=EDGE_CURVE('',#81,#89,#93,.T.);
#95=ORIENTED_EDGE('',*,*,#94,.T.);
#96=CARTESIAN_POINT('',(14.999999999999996,0.270000000000003,15.000000000000004));
#97=DIRECTION('',(0.0,-1.0,0.0));
#98=VECTOR('',#97,0.54);
#99=LINE('',#96,#98);
#100=EDGE_CURVE('',#89,#71,#99,.T.);
#101=ORIENTED_EDGE('',*,*,#100,.T.);
#102=EDGE_LOOP('',(#79,#87,#95,#101));
#103=FACE_OUTER_BOUND('',#102,.T.);
#104=ADVANCED_FACE('',(#103),#69,.T.);
#105=CARTESIAN_POINT('',(14.999999999999996,0.270000000000003,1.554312E-015));
#106=DIRECTION('',(0.0,0.0,-1.0));
#107=DIRECTION('',(-1.0,0.0,0.0));
#108=AXIS2_PLACEMENT_3D('',#105,#106,#107);
#109=PLANE('',#108);
#110=CARTESIAN_POINT('',(10.999999999999996,-0.269999999999998,-8.881784E-016));
#111=VERTEX_POINT('',#110);
#112=CARTESIAN_POINT('',(14.999999999999996,-0.269999999999997,1.554312E-015));
#113=DIRECTION('',(-1.0,0.0,0.0));
#114=VECTOR('',#113,4.0);
#115=LINE('',#112,#114);
#116=EDGE_CURVE('',#73,#111,#115,.T.);
#117=ORIENTED_EDGE('',*,*,#116,.T.);
#118=CARTESIAN_POINT('',(10.999999999999996,0.270000000000002,-8.881784E-016));
#119=VERTEX_POINT('',#118);
#120=CARTESIAN_POINT('',(10.999999999999996,0.270000000000002,-8.881784E-016));
#121=DIRECTION('',(0.0,-1.0,0.0));
#122=VECTOR('',#121,0.54);
#123=LINE('',#120,#122);
#124=EDGE_CURVE('',#119,#111,#123,.T.);
#125=ORIENTED_EDGE('',*,*,#124,.F.);
#126=CARTESIAN_POINT('',(10.999999999999996,0.270000000000002,-8.881784E-016));
#127=DIRECTION('',(1.0,0.0,0.0));
#128=VECTOR('',#127,4.0);
#129=LINE('',#126,#128);
#130=EDGE_CURVE('',#119,#81,#129,.T.);
#131=ORIENTED_EDGE('',*,*,#130,.T.);
#132=ORIENTED_EDGE('',*,*,#86,.T.);
#133=EDGE_LOOP('',(#117,#125,#131,#132));
#134=FACE_OUTER_BOUND('',#133,.T.);
#135=ADVANCED_FACE('',(#134),#109,.T.);
#136=CARTESIAN_POINT('',(10.999999999999996,0.270000000000002,-8.881784E-016));
#137=DIRECTION('',(1.0,0.0,0.0));
#138=DIRECTION('',(0.0,0.0,-1.0));
#139=AXIS2_PLACEMENT_3D('',#136,#137,#138);
#140=PLANE('',#139);
#141=CARTESIAN_POINT('',(10.999999999999996,-0.269999999999998,-1.999999999999997));
#142=VERTEX_POINT('',#141);
#143=CARTESIAN_POINT('',(10.999999999999996,-0.269999999999998,-8.881784E-016));
#144=DIRECTION('',(0.0,0.0,-1.0));
#145=VECTOR('',#144,1.999999999999996);
#146=LINE('',#143,#145);
#147=EDGE_CURVE('',#111,#142,#146,.T.);
#148=ORIENTED_EDGE('',*,*,#147,.T.);
#149=CARTESIAN_POINT('',(10.999999999999996,0.270000000000002,-1.999999999999997));
#150=VERTEX_POINT('',#149);
#151=CARTESIAN_POINT('',(10.999999999999996,0.270000000000002,-1.999999999999997));
#152=DIRECTION('',(0.0,-1.0,0.0));
#153=VECTOR('',#152,0.54);
#154=LINE('',#151,#153);
#155=EDGE_CURVE('',#150,#142,#154,.T.);
#156=ORIENTED_EDGE('',*,*,#155,.F.);
#157=CARTESIAN_POINT('',(10.999999999999996,0.270000000000002,-1.999999999999997));
#158=DIRECTION('',(0.0,0.0,1.0));
#159=VECTOR('',#158,1.999999999999996);
#160=LINE('',#157,#159);
#161=EDGE_CURVE('',#150,#119,#160,.T.);
#162=ORIENTED_EDGE('',*,*,#161,.T.);
#163=ORIENTED_EDGE('',*,*,#124,.T.);
#164=EDGE_LOOP('',(#148,#156,#162,#163));
#165=FACE_OUTER_BOUND('',#164,.T.);
#166=ADVANCED_FACE('',(#165),#140,.T.);
#167=CARTESIAN_POINT('',(10.999999999999996,0.270000000000002,-1.999999999999997));
#168=DIRECTION('',(0.0,0.0,-1.0));
#169=DIRECTION('',(-1.0,0.0,0.0));
#170=AXIS2_PLACEMENT_3D('',#167,#168,#169);
#171=PLANE('',#170);
#172=CARTESIAN_POINT('',(9.999999999999996,-0.269999999999998,-1.999999999999998));
#173=VERTEX_POINT('',#172);
#174=CARTESIAN_POINT('',(10.999999999999996,-0.269999999999998,-1.999999999999997));
#175=DIRECTION('',(-1.0,0.0,0.0));
#176=VECTOR('',#175,1.0);
#177=LINE('',#174,#176);
#178=EDGE_CURVE('',#142,#173,#177,.T.);
#179=ORIENTED_EDGE('',*,*,#178,.T.);
#180=CARTESIAN_POINT('',(9.999999999999996,0.270000000000002,-1.999999999999998));
#181=VERTEX_POINT('',#180);
#182=CARTESIAN_POINT('',(9.999999999999996,0.270000000000002,-1.999999999999998));
#183=DIRECTION('',(0.0,-1.0,0.0));
#184=VECTOR('',#183,0.54);
#185=LINE('',#182,#184);
#186=EDGE_CURVE('',#181,#173,#185,.T.);
#187=ORIENTED_EDGE('',*,*,#186,.F.);
#188=CARTESIAN_POINT('',(9.999999999999996,0.270000000000002,-1.999999999999998));
#189=DIRECTION('',(1.0,0.0,0.0));
#190=VECTOR('',#189,1.0);
#191=LINE('',#188,#190);
#192=EDGE_CURVE('',#181,#150,#191,.T.);
#193=ORIENTED_EDGE('',*,*,#192,.T.);
#194=ORIENTED_EDGE('',*,*,#155,.T.);
#195=EDGE_LOOP('',(#179,#187,#193,#194));
#196=FACE_OUTER_BOUND('',#195,.T.);
#197=ADVANCED_FACE('',(#196),#171,.T.);
#198=CARTESIAN_POINT('',(9.999999999999996,0.270000000000002,-1.999999999999998));
#199=DIRECTION('',(-1.0,0.0,0.0));
#200=DIRECTION('',(0.0,0.0,1.0));
#201=AXIS2_PLACEMENT_3D('',#198,#199,#200);
#202=PLANE('',#201);
#203=CARTESIAN_POINT('',(9.999999999999996,-0.269999999999998,2.442491E-015));
#204=VERTEX_POINT('',#203);
#205=CARTESIAN_POINT('',(9.999999999999996,-0.269999999999998,-1.999999999999998));
#206=DIRECTION('',(0.0,0.0,1.0));
#207=VECTOR('',#206,2.0);
#208=LINE('',#205,#207);
#209=EDGE_CURVE('',#173,#204,#208,.T.);
#210=ORIENTED_EDGE('',*,*,#209,.T.);
#211=CARTESIAN_POINT('',(9.999999999999996,0.270000000000002,2.442491E-015));
#212=VERTEX_POINT('',#211);
#213=CARTESIAN_POINT('',(9.999999999999996,0.270000000000002,2.442491E-015));
#214=DIRECTION('',(0.0,-1.0,0.0));
#215=VECTOR('',#214,0.54);
#216=LINE('',#213,#215);
#217=EDGE_CURVE('',#212,#204,#216,.T.);
#218=ORIENTED_EDGE('',*,*,#217,.F.);
#219=CARTESIAN_POINT('',(9.999999999999996,0.270000000000002,2.442491E-015));
#220=DIRECTION('',(0.0,0.0,-1.0));
#221=VECTOR('',#220,2.0);
#222=LINE('',#219,#221);
#223=EDGE_CURVE('',#212,#181,#222,.T.);
#224=ORIENTED_EDGE('',*,*,#223,.T.);
#225=ORIENTED_EDGE('',*,*,#186,.T.);
#226=EDGE_LOOP('',(#210,#218,#224,#225));
#227=FACE_OUTER_BOUND('',#226,.T.);
#228=ADVANCED_FACE('',(#227),#202,.T.);
#229=CARTESIAN_POINT('',(9.999999999999996,0.270000000000002,2.442491E-015));
#230=DIRECTION('',(0.0,0.0,-1.0));
#231=DIRECTION('',(-1.0,0.0,0.0));
#232=AXIS2_PLACEMENT_3D('',#229,#230,#231);
#233=PLANE('',#232);
#234=CARTESIAN_POINT('',(0.5,-0.27,-3.330669E-015));
#235=VERTEX_POINT('',#234);
#236=CARTESIAN_POINT('',(9.999999999999996,-0.269999999999997,2.442491E-015));
#237=DIRECTION('',(-1.0,0.0,0.0));
#238=VECTOR('',#237,9.499999999999996);
#239=LINE('',#236,#238);
#240=EDGE_CURVE('',#204,#235,#239,.T.);
#241=ORIENTED_EDGE('',*,*,#240,.T.);
#242=CARTESIAN_POINT('',(0.5,0.27,-3.330669E-015));
#243=VERTEX_POINT('',#242);
#244=CARTESIAN_POINT('',(0.5,0.27,-3.330669E-015));
#245=DIRECTION('',(0.0,-1.0,0.0));
#246=VECTOR('',#245,0.54);
#247=LINE('',#244,#246);
#248=EDGE_CURVE('',#243,#235,#247,.T.);
#249=ORIENTED_EDGE('',*,*,#248,.F.);
#250=CARTESIAN_POINT('',(0.5,0.27,-3.330669E-015));
#251=DIRECTION('',(1.0,0.0,0.0));
#252=VECTOR('',#251,9.499999999999996);
#253=LINE('',#250,#252);
#254=EDGE_CURVE('',#243,#212,#253,.T.);
#255=ORIENTED_EDGE('',*,*,#254,.T.);
#256=ORIENTED_EDGE('',*,*,#217,.T.);
#257=EDGE_LOOP('',(#241,#249,#255,#256));
#258=FACE_OUTER_BOUND('',#257,.T.);
#259=ADVANCED_FACE('',(#258),#233,.T.);
#260=CARTESIAN_POINT('',(0.5,0.27,-3.330669E-015));
#261=DIRECTION('',(1.0,0.0,0.0));
#262=DIRECTION('',(0.0,0.0,-1.0));
#263=AXIS2_PLACEMENT_3D('',#260,#261,#262);
#264=PLANE('',#263);
#265=CARTESIAN_POINT('',(0.5,-0.27,-2.0));
#266=VERTEX_POINT('',#265);
#267=CARTESIAN_POINT('',(0.5,-0.27,-3.330669E-015));
#268=DIRECTION('',(0.0,0.0,-1.0));
#269=VECTOR('',#268,1.999999999999996);
#270=LINE('',#267,#269);
#271=EDGE_CURVE('',#235,#266,#270,.T.);
#272=ORIENTED_EDGE('',*,*,#271,.T.);
#273=CARTESIAN_POINT('',(0.5,0.27,-2.0));
#274=VERTEX_POINT('',#273);
#275=CARTESIAN_POINT('',(0.5,0.27,-2.0));
#276=DIRECTION('',(0.0,-1.0,0.0));
#277=VECTOR('',#276,0.54);
#278=LINE('',#275,#277);
#279=EDGE_CURVE('',#274,#266,#278,.T.);
#280=ORIENTED_EDGE('',*,*,#279,.F.);
#281=CARTESIAN_POINT('',(0.5,0.27,-2.0));
#282=DIRECTION('',(0.0,0.0,1.0));
#283=VECTOR('',#282,1.999999999999996);
#284=LINE('',#281,#283);
#285=EDGE_CURVE('',#274,#243,#284,.T.);
#286=ORIENTED_EDGE('',*,*,#285,.T.);
#287=ORIENTED_EDGE('',*,*,#248,.T.);
#288=EDGE_LOOP('',(#272,#280,#286,#287));
#289=FACE_OUTER_BOUND('',#288,.T.);
#290=ADVANCED_FACE('',(#289),#264,.T.);
#291=CARTESIAN_POINT('',(0.5,0.27,-2.0));
#292=DIRECTION('',(0.0,0.0,-1.0));
#293=DIRECTION('',(-1.0,0.0,0.0));
#294=AXIS2_PLACEMENT_3D('',#291,#292,#293);
#295=PLANE('',#294);
#296=CARTESIAN_POINT('',(-0.5,-0.27,-2.0));
#297=VERTEX_POINT('',#296);
#298=CARTESIAN_POINT('',(0.5,-0.27,-2.0));
#299=DIRECTION('',(-1.0,0.0,0.0));
#300=VECTOR('',#299,1.0);
#301=LINE('',#298,#300);
#302=EDGE_CURVE('',#266,#297,#301,.T.);
#303=ORIENTED_EDGE('',*,*,#302,.T.);
#304=CARTESIAN_POINT('',(-0.5,0.27,-2.0));
#305=VERTEX_POINT('',#304);
#306=CARTESIAN_POINT('',(-0.5,0.27,-2.0));
#307=DIRECTION('',(0.0,-1.0,0.0));
#308=VECTOR('',#307,0.54);
#309=LINE('',#306,#308);
#310=EDGE_CURVE('',#305,#297,#309,.T.);
#311=ORIENTED_EDGE('',*,*,#310,.F.);
#312=CARTESIAN_POINT('',(-0.5,0.27,-2.0));
#313=DIRECTION('',(1.0,0.0,0.0));
#314=VECTOR('',#313,1.0);
#315=LINE('',#312,#314);
#316=EDGE_CURVE('',#305,#274,#315,.T.);
#317=ORIENTED_EDGE('',*,*,#316,.T.);
#318=ORIENTED_EDGE('',*,*,#279,.T.);
#319=EDGE_LOOP('',(#303,#311,#317,#318));
#320=FACE_OUTER_BOUND('',#319,.T.);
#321=ADVANCED_FACE('',(#320),#295,.T.);
#322=CARTESIAN_POINT('',(-0.5,0.27,-2.0));
#323=DIRECTION('',(-1.0,0.0,0.0));
#324=DIRECTION('',(0.0,0.0,1.0));
#325=AXIS2_PLACEMENT_3D('',#322,#323,#324);
#326=PLANE('',#325);
#327=CARTESIAN_POINT('',(-0.5,-0.27,0.0));
#328=VERTEX_POINT('',#327);
#329=CARTESIAN_POINT('',(-0.5,-0.27,-2.0));
#330=DIRECTION('',(0.0,0.0,1.0));
#331=VECTOR('',#330,2.0);
#332=LINE('',#329,#331);
#333=EDGE_CURVE('',#297,#328,#332,.T.);
#334=ORIENTED_EDGE('',*,*,#333,.T.);
#335=CARTESIAN_POINT('',(-0.5,0.27,0.0));
#336=VERTEX_POINT('',#335);
#337=CARTESIAN_POINT('',(-0.5,0.27,0.0));
#338=DIRECTION('',(0.0,-1.0,0.0));
#339=VECTOR('',#338,0.54);
#340=LINE('',#337,#339);
#341=EDGE_CURVE('',#336,#328,#340,.T.);
#342=ORIENTED_EDGE('',*,*,#341,.F.);
#343=CARTESIAN_POINT('',(-0.5,0.27,0.0));
#344=DIRECTION('',(0.0,0.0,-1.0));
#345=VECTOR('',#344,2.0);
#346=LINE('',#343,#345);
#347=EDGE_CURVE('',#336,#305,#346,.T.);
#348=ORIENTED_EDGE('',*,*,#347,.T.);
#349=ORIENTED_EDGE('',*,*,#310,.T.);
#350=EDGE_LOOP('',(#334,#342,#348,#349));
#351=FACE_OUTER_BOUND('',#350,.T.);
#352=ADVANCED_FACE('',(#351),#326,.T.);
#353=CARTESIAN_POINT('',(-0.5,0.27,0.0));
#354=DIRECTION('',(0.0,0.0,-1.0));
#355=DIRECTION('',(-1.0,0.0,0.0));
#356=AXIS2_PLACEMENT_3D('',#353,#354,#355);
#357=PLANE('',#356);
#358=CARTESIAN_POINT('',(-10.0,-0.270000000000002,-5.551115E-015));
#359=VERTEX_POINT('',#358);
#360=CARTESIAN_POINT('',(-0.5,-0.27,0.0));
#361=DIRECTION('',(-1.0,0.0,0.0));
#362=VECTOR('',#361,9.5);
#363=LINE('',#360,#362);
#364=EDGE_CURVE('',#328,#359,#363,.T.);
#365=ORIENTED_EDGE('',*,*,#364,.T.);
#366=CARTESIAN_POINT('',(-10.0,0.269999999999998,-5.551115E-015));
#367=VERTEX_POINT('',#366);
#368=CARTESIAN_POINT('',(-10.0,0.269999999999998,-5.551115E-015));
#369=DIRECTION('',(0.0,-1.0,0.0));
#370=VECTOR('',#369,0.54);
#371=LINE('',#368,#370);
#372=EDGE_CURVE('',#367,#359,#371,.T.);
#373=ORIENTED_EDGE('',*,*,#372,.F.);
#374=CARTESIAN_POINT('',(-10.0,0.269999999999998,-5.551115E-015));
#375=DIRECTION('',(1.0,0.0,0.0));
#376=VECTOR('',#375,9.5);
#377=LINE('',#374,#376);
#378=EDGE_CURVE('',#367,#336,#377,.T.);
#379=ORIENTED_EDGE('',*,*,#378,.T.);
#380=ORIENTED_EDGE('',*,*,#341,.T.);
#381=EDGE_LOOP('',(#365,#373,#379,#380));
#382=FACE_OUTER_BOUND('',#381,.T.);
#383=ADVANCED_FACE('',(#382),#357,.T.);
#384=CARTESIAN_POINT('',(-10.0,0.269999999999998,-5.551115E-015));
#385=DIRECTION('',(1.0,0.0,0.0));
#386=DIRECTION('',(0.0,0.0,-1.0));
#387=AXIS2_PLACEMENT_3D('',#384,#385,#386);
#388=PLANE('',#387);
#389=CARTESIAN_POINT('',(-10.0,-0.270000000000002,-2.000000000000002));
#390=VERTEX_POINT('',#389);
#391=CARTESIAN_POINT('',(-10.0,-0.270000000000002,-5.773160E-015));
#392=DIRECTION('',(0.0,0.0,-1.0));
#393=VECTOR('',#392,1.999999999999996);
#394=LINE('',#391,#393);
#395=EDGE_CURVE('',#359,#390,#394,.T.);
#396=ORIENTED_EDGE('',*,*,#395,.T.);
#397=CARTESIAN_POINT('',(-10.0,0.269999999999998,-2.000000000000002));
#398=VERTEX_POINT('',#397);
#399=CARTESIAN_POINT('',(-10.0,0.269999999999998,-2.000000000000002));
#400=DIRECTION('',(0.0,-1.0,0.0));
#401=VECTOR('',#400,0.54);
#402=LINE('',#399,#401);
#403=EDGE_CURVE('',#398,#390,#402,.T.);
#404=ORIENTED_EDGE('',*,*,#403,.F.);
#405=CARTESIAN_POINT('',(-10.0,0.269999999999998,-2.000000000000002));
#406=DIRECTION('',(0.0,0.0,1.0));
#407=VECTOR('',#406,1.999999999999996);
#408=LINE('',#405,#407);
#409=EDGE_CURVE('',#398,#367,#408,.T.);
#410=ORIENTED_EDGE('',*,*,#409,.T.);
#411=ORIENTED_EDGE('',*,*,#372,.T.);
#412=EDGE_LOOP('',(#396,#404,#410,#411));
#413=FACE_OUTER_BOUND('',#412,.T.);
#414=ADVANCED_FACE('',(#413),#388,.T.);
#415=CARTESIAN_POINT('',(-10.0,0.269999999999998,-2.000000000000002));
#416=DIRECTION('',(0.0,0.0,-1.0));
#417=DIRECTION('',(-1.0,0.0,0.0));
#418=AXIS2_PLACEMENT_3D('',#415,#416,#417);
#419=PLANE('',#418);
#420=CARTESIAN_POINT('',(-11.0,-0.270000000000002,-2.000000000000003));
#421=VERTEX_POINT('',#420);
#422=CARTESIAN_POINT('',(-10.0,-0.270000000000002,-2.000000000000002));
#423=DIRECTION('',(-1.0,0.0,0.0));
#424=VECTOR('',#423,1.0);
#425=LINE('',#422,#424);
#426=EDGE_CURVE('',#390,#421,#425,.T.);
#427=ORIENTED_EDGE('',*,*,#426,.T.);
#428=CARTESIAN_POINT('',(-11.0,0.269999999999998,-2.000000000000003));
#429=VERTEX_POINT('',#428);
#430=CARTESIAN_POINT('',(-11.0,0.269999999999998,-2.000000000000003));
#431=DIRECTION('',(0.0,-1.0,0.0));
#432=VECTOR('',#431,0.54);
#433=LINE('',#430,#432);
#434=EDGE_CURVE('',#429,#421,#433,.T.);
#435=ORIENTED_EDGE('',*,*,#434,.F.);
#436=CARTESIAN_POINT('',(-11.0,0.269999999999998,-2.000000000000003));
#437=DIRECTION('',(1.0,0.0,0.0));
#438=VECTOR('',#437,1.0);
#439=LINE('',#436,#438);
#440=EDGE_CURVE('',#429,#398,#439,.T.);
#441=ORIENTED_EDGE('',*,*,#440,.T.);
#442=ORIENTED_EDGE('',*,*,#403,.T.);
#443=EDGE_LOOP('',(#427,#435,#441,#442));
#444=FACE_OUTER_BOUND('',#443,.T.);
#445=ADVANCED_FACE('',(#444),#419,.T.);
#446=CARTESIAN_POINT('',(-11.0,0.269999999999998,-2.000000000000003));
#447=DIRECTION('',(-1.0,0.0,0.0));
#448=DIRECTION('',(0.0,0.0,1.0));
#449=AXIS2_PLACEMENT_3D('',#446,#447,#448);
#450=PLANE('',#449);
#451=CARTESIAN_POINT('',(-11.0,-0.270000000000002,-2.220446E-015));
#452=VERTEX_POINT('',#451);
#453=CARTESIAN_POINT('',(-11.0,-0.270000000000002,-2.000000000000002));
#454=DIRECTION('',(0.0,0.0,1.0));
#455=VECTOR('',#454,2.0);
#456=LINE('',#453,#455);
#457=EDGE_CURVE('',#421,#452,#456,.T.);
#458=ORIENTED_EDGE('',*,*,#457,.T.);
#459=CARTESIAN_POINT('',(-11.0,0.269999999999998,-2.220446E-015));
#460=VERTEX_POINT('',#459);
#461=CARTESIAN_POINT('',(-11.0,0.269999999999998,-2.220446E-015));
#462=DIRECTION('',(0.0,-1.0,0.0));
#463=VECTOR('',#462,0.54);
#464=LINE('',#461,#463);
#465=EDGE_CURVE('',#460,#452,#464,.T.);
#466=ORIENTED_EDGE('',*,*,#465,.F.);
#467=CARTESIAN_POINT('',(-11.0,0.269999999999998,-2.220446E-015));
#468=DIRECTION('',(0.0,0.0,-1.0));
#469=VECTOR('',#468,2.0);
#470=LINE('',#467,#469);
#471=EDGE_CURVE('',#460,#429,#470,.T.);
#472=ORIENTED_EDGE('',*,*,#471,.T.);
#473=ORIENTED_EDGE('',*,*,#434,.T.);
#474=EDGE_LOOP('',(#458,#466,#472,#473));
#475=FACE_OUTER_BOUND('',#474,.T.);
#476=ADVANCED_FACE('',(#475),#450,.T.);
#477=CARTESIAN_POINT('',(-11.0,0.269999999999998,-2.220446E-015));
#478=DIRECTION('',(0.0,0.0,-1.0));
#479=DIRECTION('',(-1.0,0.0,0.0));
#480=AXIS2_PLACEMENT_3D('',#477,#478,#479);
#481=PLANE('',#480);
#482=CARTESIAN_POINT('',(-14.999999999999998,-0.270000000000003,-4.662937E-015));
#483=VERTEX_POINT('',#482);
#484=CARTESIAN_POINT('',(-11.0,-0.270000000000002,-2.220446E-015));
#485=DIRECTION('',(-1.0,0.0,0.0));
#486=VECTOR('',#485,3.999999999999998);
#487=LINE('',#484,#486);
#488=EDGE_CURVE('',#452,#483,#487,.T.);
#489=ORIENTED_EDGE('',*,*,#488,.T.);
#490=CARTESIAN_POINT('',(-14.999999999999998,0.269999999999997,-4.662937E-015));
#491=VERTEX_POINT('',#490);
#492=CARTESIAN_POINT('',(-14.999999999999998,0.269999999999997,-4.662937E-015));
#493=DIRECTION('',(0.0,-1.0,0.0));
#494=VECTOR('',#493,0.54);
#495=LINE('',#492,#494);
#496=EDGE_CURVE('',#491,#483,#495,.T.);
#497=ORIENTED_EDGE('',*,*,#496,.F.);
#498=CARTESIAN_POINT('',(-14.999999999999998,0.269999999999997,-4.662937E-015));
#499=DIRECTION('',(1.0,0.0,0.0));
#500=VECTOR('',#499,3.999999999999998);
#501=LINE('',#498,#500);
#502=EDGE_CURVE('',#491,#460,#501,.T.);
#503=ORIENTED_EDGE('',*,*,#502,.T.);
#504=ORIENTED_EDGE('',*,*,#465,.T.);
#505=EDGE_LOOP('',(#489,#497,#503,#504));
#506=FACE_OUTER_BOUND('',#505,.T.);
#507=ADVANCED_FACE('',(#506),#481,.T.);
#508=CARTESIAN_POINT('',(-14.999999999999998,0.269999999999997,-4.662937E-015));
#509=DIRECTION('',(-1.0,0.0,0.0));
#510=DIRECTION('',(0.0,0.0,1.0));
#511=AXIS2_PLACEMENT_3D('',#508,#509,#510);
#512=PLANE('',#511);
#513=CARTESIAN_POINT('',(-15.000000000000004,-0.270000000000003,14.999999999999996));
#514=VERTEX_POINT('',#513);
#515=CARTESIAN_POINT('',(-14.999999999999998,-0.270000000000003,-5.329071E-015));
#516=DIRECTION('',(0.0,0.0,1.0));
#517=VECTOR('',#516,15.000000000000002);
#518=LINE('',#515,#517);
#519=EDGE_CURVE('',#483,#514,#518,.T.);
#520=ORIENTED_EDGE('',*,*,#519,.T.);
#521=CARTESIAN_POINT('',(-15.000000000000004,0.269999999999997,14.999999999999996));
#522=VERTEX_POINT('',#521);
#523=CARTESIAN_POINT('',(-15.000000000000004,0.269999999999997,14.999999999999996));
#524=DIRECTION('',(0.0,-1.0,0.0));
#525=VECTOR('',#524,0.54);
#526=LINE('',#523,#525);
#527=EDGE_CURVE('',#522,#514,#526,.T.);
#528=ORIENTED_EDGE('',*,*,#527,.F.);
#529=CARTESIAN_POINT('',(-15.000000000000004,0.269999999999997,14.999999999999996));
#530=DIRECTION('',(0.0,0.0,-1.0));
#531=VECTOR('',#530,15.000000000000002);
#532=LINE('',#529,#531);
#533=EDGE_CURVE('',#522,#491,#532,.T.);
#534=ORIENTED_EDGE('',*,*,#533,.T.);
#535=ORIENTED_EDGE('',*,*,#496,.T.);
#536=EDGE_LOOP('',(#520,#528,#534,#535));
#537=FACE_OUTER_BOUND('',#536,.T.);
#538=ADVANCED_FACE('',(#537),#512,.T.);
#539=CARTESIAN_POINT('',(-15.000000000000004,0.269999999999997,14.999999999999996));
#540=DIRECTION('',(0.0,0.0,1.0));
#541=DIRECTION('',(1.0,0.0,0.0));
#542=AXIS2_PLACEMENT_3D('',#539,#540,#541);
#543=PLANE('',#542);
#544=CARTESIAN_POINT('',(-15.000000000000004,-0.270000000000004,14.999999999999996));
#545=DIRECTION('',(1.0,0.0,0.0));
#546=VECTOR('',#545,30.0);
#547=LINE('',#544,#546);
#548=EDGE_CURVE('',#514,#71,#547,.T.);
#549=ORIENTED_EDGE('',*,*,#548,.T.);
#550=ORIENTED_EDGE('',*,*,#100,.F.);
#551=CARTESIAN_POINT('',(14.999999999999996,0.270000000000003,15.000000000000004));
#552=DIRECTION('',(-1.0,0.0,0.0));
#553=VECTOR('',#552,30.0);
#554=LINE('',#551,#553);
#555=EDGE_CURVE('',#89,#522,#554,.T.);
#556=ORIENTED_EDGE('',*,*,#555,.T.);
#557=ORIENTED_EDGE('',*,*,#527,.T.);
#558=EDGE_LOOP('',(#549,#550,#556,#557));
#559=FACE_OUTER_BOUND('',#558,.T.);
#560=ADVANCED_FACE('',(#559),#543,.T.);
#561=CARTESIAN_POINT('',(-8.926193E-016,0.27,6.441176470588235));
#562=DIRECTION('',(0.0,1.0,0.0));
#563=DIRECTION('',(0.0,0.0,1.0));
#564=AXIS2_PLACEMENT_3D('',#561,#562,#563);
#565=PLANE('',#564);
#566=ORIENTED_EDGE('',*,*,#555,.F.);
#567=ORIENTED_EDGE('',*,*,#94,.F.);
#568=ORIENTED_EDGE('',*,*,#130,.F.);
#569=ORIENTED_EDGE('',*,*,#161,.F.);
#570=ORIENTED_EDGE('',*,*,#192,.F.);
#571=ORIENTED_EDGE('',*,*,#223,.F.);
#572=ORIENTED_EDGE('',*,*,#254,.F.);
#573=ORIENTED_EDGE('',*,*,#285,.F.);
#574=ORIENTED_EDGE('',*,*,#316,.F.);
#575=ORIENTED_EDGE('',*,*,#347,.F.);
#576=ORIENTED_EDGE('',*,*,#378,.F.);
#577=ORIENTED_EDGE('',*,*,#409,.F.);
#578=ORIENTED_EDGE('',*,*,#440,.F.);
#579=ORIENTED_EDGE('',*,*,#471,.F.);
#580=ORIENTED_EDGE('',*,*,#502,.F.);
#581=ORIENTED_EDGE('',*,*,#533,.F.);
#582=EDGE_LOOP('',(#566,#567,#568,#569,#570,#571,#572,#573,#574,#575,#576,#577,#578,#579,#580,#581));
#583=FACE_OUTER_BOUND('',#582,.T.);
#584=ADVANCED_FACE('',(#583),#565,.T.);
#585=CARTESIAN_POINT('',(-1.336709E-015,-0.27,6.441176470588235));
#586=DIRECTION('',(0.0,1.0,0.0));
#587=DIRECTION('',(0.0,0.0,1.0));
#588=AXIS2_PLACEMENT_3D('',#585,#586,#587);
#589=PLANE('',#588);
#590=ORIENTED_EDGE('',*,*,#78,.F.);
#591=ORIENTED_EDGE('',*,*,#548,.F.);
#592=ORIENTED_EDGE('',*,*,#519,.F.);
#593=ORIENTED_EDGE('',*,*,#488,.F.);
#594=ORIENTED_EDGE('',*,*,#457,.F.);
#595=ORIENTED_EDGE('',*,*,#426,.F.);
#596=ORIENTED_EDGE('',*,*,#395,.F.);
#597=ORIENTED_EDGE('',*,*,#364,.F.);
#598=ORIENTED_EDGE('',*,*,#333,.F.);
#599=ORIENTED_EDGE('',*,*,#302,.F.);
#600=ORIENTED_EDGE('',*,*,#271,.F.);
#601=ORIENTED_EDGE('',*,*,#240,.F.);
#602=ORIENTED_EDGE('',*,*,#209,.F.);
#603=ORIENTED_EDGE('',*,*,#178,.F.);
#604=ORIENTED_EDGE('',*,*,#147,.F.);
#605=ORIENTED_EDGE('',*,*,#116,.F.);
#606=EDGE_LOOP('',(#590,#591,#592,#593,#594,#595,#596,#597,#598,#599,#600,#601,#602,#603,#604,#605));
#607=FACE_OUTER_BOUND('',#606,.T.);
#608=ADVANCED_FACE('',(#607),#589,.F.);
#609=CLOSED_SHELL('',(#104,#135,#166,#197,#228,#259,#290,#321,#352,#383,#414,#445,#476,#507,#538,#560,#584,#608));
#610=MANIFOLD_SOLID_BREP('1B6F',#609);
#611=COLOUR_RGB('254',0.866,0.866,0.866);
#612=SURFACE_STYLE_USAGE(.BOTH.,#613);
#613=SURFACE_SIDE_STYLE('NONE',(#614));
#614=SURFACE_STYLE_FILL_AREA(#615);
#615=FILL_AREA_STYLE('NONE',(#616));
#616=FILL_AREA_STYLE_COLOUR('NONE',#611);
#617=PRESENTATION_STYLE_ASSIGNMENT((#612));
#618=STYLED_ITEM('NONE',(#617),#610);
#619=MECHANICAL_DESIGN_GEOMETRIC_PRESENTATION_REPRESENTATION('NONE',(#618),#28);
#620=PRESENTATION_LAYER_ASSIGNMENT('3D','None',(#610));
#621=ADVANCED_BREP_SHAPE_REPRESENTATION('ABSR1',(#610),#28);
#622=SHAPE_REPRESENTATION_RELATIONSHIP('SRRPL1','',#621,#62);
ENDSEC;
END-ISO-10303-21;
