ISO-10303-21;
HEADER;
/****************************************************************
 * Generated by software with PDE/Lib inside                    *
 * PDElib Version v51a, created Mon 11/23/2009                  *
 * ITI Transcendata (http://www.transcendata.com/)              *
 ****************************************************************/
FILE_DESCRIPTION((''),'2;1');
FILE_NAME('NTE_NTE506.stp','2011-02-16T12:53:17',(''),(''),'Mechanical Desktop 2011','Mechanical Desktop 2011',', , ');
FILE_SCHEMA(('AUTOMOTIVE_DESIGN { 1 2 10303 214 1 1 1 1 }'));
ENDSEC;
DATA;
#10=(NAMED_UNIT(*)PLANE_ANGLE_UNIT()SI_UNIT($,.RADIAN.));
#11=DIMENSIONAL_EXPONENTS(0.0,0.0,0.0,0.0,0.0,0.0,0.0);
#12=PLANE_ANGLE_MEASURE_WITH_UNIT(PLANE_ANGLE_MEASURE(0.017453292500000),#10);
#16=(CONVERSION_BASED_UNIT('DEGREE',#12)NAMED_UNIT(#11)PLANE_ANGLE_UNIT());
#20=(NAMED_UNIT(*)SI_UNIT($,.STERADIAN.)SOLID_ANGLE_UNIT());
#24=(LENGTH_UNIT()NAMED_UNIT(*)SI_UNIT(.MILLI.,.METRE.));
#26=UNCERTAINTY_MEASURE_WITH_UNIT(LENGTH_MEASURE(0.000001000000000),#24,'DISTANCE_ACCURACY_VALUE','');
#28=(GEOMETRIC_REPRESENTATION_CONTEXT(3)GLOBAL_UNCERTAINTY_ASSIGNED_CONTEXT((#26))GLOBAL_UNIT_ASSIGNED_CONTEXT((#16,#20,#24))REPRESENTATION_CONTEXT('','3D'));
#29=APPLICATION_CONTEXT('automotive design');
#30=APPLICATION_PROTOCOL_DEFINITION('INTERNATIONAL_STANDARD','automotive_design',1998,#29);
#31=PRODUCT_CONTEXT('3D Mechanical Parts',#29,'mechanical');
#32=PRODUCT('Product','Product','',(#31));
#33=PRODUCT_RELATED_PRODUCT_CATEGORY('part',$,(#32));
#34=PRODUCT_CATEGORY('part',$);
#35=PERSON('1','Design','Joe',$,$,$);
#36=ORGANIZATION($,'None','None');
#37=PERSON_AND_ORGANIZATION(#35,#36);
#38=PERSON_AND_ORGANIZATION_ROLE('design_owner');
#39=APPLIED_PERSON_AND_ORGANIZATION_ASSIGNMENT(#37,#38,(#32));
#40=PRODUCT_DEFINITION_FORMATION_WITH_SPECIFIED_SOURCE('None','',#32,.BOUGHT.);
#41=PERSON('2','Creator','Joe',$,$,$);
#42=ORGANIZATION($,'None','None');
#43=PERSON_AND_ORGANIZATION(#41,#42);
#44=PERSON_AND_ORGANIZATION_ROLE('creator');
#45=APPLIED_PERSON_AND_ORGANIZATION_ASSIGNMENT(#43,#44,(#40));
#46=PERSON('3','Supplier','Joe',$,$,$);
#47=ORGANIZATION($,'None','None');
#48=PERSON_AND_ORGANIZATION(#46,#47);
#49=PERSON_AND_ORGANIZATION_ROLE('design_supplier');
#50=APPLIED_PERSON_AND_ORGANIZATION_ASSIGNMENT(#48,#49,(#40));
#51=PRODUCT_DEFINITION_CONTEXT('part definition',#29,'design');
#52=PRODUCT_DEFINITION('None','',#40,#51);
#53=PERSON('4','Creator','Joe',$,$,$);
#54=ORGANIZATION($,'None','None');
#55=PERSON_AND_ORGANIZATION(#53,#54);
#56=PERSON_AND_ORGANIZATION_ROLE('creator');
#57=APPLIED_PERSON_AND_ORGANIZATION_ASSIGNMENT(#55,#56,(#52));
#58=CARTESIAN_POINT('NONE',(0.0,0.0,0.0));
#59=DIRECTION('NONE',(0.0,0.0,1.0));
#60=DIRECTION('NONE',(1.0,0.0,0.0));
#61=AXIS2_PLACEMENT_3D('NONE',#58,#59,#60);
#62=SHAPE_REPRESENTATION('SR1',(#61),#28);
#63=PRODUCT_DEFINITION_SHAPE('PDS1','Test Part',#52);
#64=SHAPE_DEFINITION_REPRESENTATION(#63,#62);
#65=CARTESIAN_POINT('',(5.184999999999999,7.286648E-017,1.405000000000000));
#66=CARTESIAN_POINT('',(5.184999999999999,0.595000000000000,1.405000000000000));
#67=CARTESIAN_POINT('',(5.184999999999999,0.595000000000000,2.0));
#68=CARTESIAN_POINT('',(5.184999999999999,0.595000000000000,2.595000000000000));
#69=CARTESIAN_POINT('',(5.184999999999999,-1.092961E-016,2.595000000000000));
#70=CARTESIAN_POINT('',(6.389999999999999,7.286648E-017,1.405000000000000));
#71=CARTESIAN_POINT('',(6.389999999999999,0.595000000000000,1.405000000000000));
#72=CARTESIAN_POINT('',(6.984999999999998,0.595000000000000,2.000000000000000));
#73=CARTESIAN_POINT('',(7.579999999999998,0.595000000000000,2.594999999999999));
#74=CARTESIAN_POINT('',(7.579999999999999,-1.092961E-016,2.594999999999999));
#75=CARTESIAN_POINT('',(6.389999999999999,7.286648E-017,0.200000000000000));
#76=CARTESIAN_POINT('',(6.389999999999999,0.595000000000000,0.200000000000000));
#77=CARTESIAN_POINT('',(6.984999999999999,0.595000000000000,0.200000000000000));
#78=CARTESIAN_POINT('',(7.579999999999998,0.595000000000000,0.200000000000000));
#79=CARTESIAN_POINT('',(7.579999999999998,-1.092961E-016,0.200000000000000));
#80=CARTESIAN_POINT('',(6.389999999999999,7.286648E-017,-1.005000000000000));
#81=CARTESIAN_POINT('',(6.389999999999999,0.595000000000000,-1.005000000000000));
#82=CARTESIAN_POINT('',(6.984999999999998,0.595000000000000,-1.600000000000000));
#83=CARTESIAN_POINT('',(7.579999999999998,0.595000000000000,-2.194999999999999));
#84=CARTESIAN_POINT('',(7.579999999999999,-1.092961E-016,-2.194999999999999));
#85=CARTESIAN_POINT('',(5.184999999999999,7.286648E-017,-1.005000000000000));
#86=CARTESIAN_POINT('',(5.184999999999999,0.595000000000000,-1.005000000000000));
#87=CARTESIAN_POINT('',(5.184999999999999,0.595000000000000,-1.600000000000000));
#88=CARTESIAN_POINT('',(5.184999999999999,0.595000000000000,-2.194999999999999));
#89=CARTESIAN_POINT('',(5.184999999999999,-1.092961E-016,-2.194999999999999));
#90=CARTESIAN_POINT('',(3.979999999999999,7.286648E-017,-1.005000000000000));
#91=CARTESIAN_POINT('',(3.979999999999999,0.595000000000000,-1.005000000000000));
#92=CARTESIAN_POINT('',(3.384999999999999,0.595000000000000,-1.600000000000000));
#93=CARTESIAN_POINT('',(2.790000000000000,0.595000000000000,-2.194999999999999));
#94=CARTESIAN_POINT('',(2.790000000000000,-1.092961E-016,-2.194999999999999));
#95=CARTESIAN_POINT('',(3.979999999999999,7.286648E-017,0.200000000000000));
#96=CARTESIAN_POINT('',(3.979999999999999,0.595000000000000,0.200000000000000));
#97=CARTESIAN_POINT('',(3.384999999999999,0.595000000000000,0.200000000000000));
#98=CARTESIAN_POINT('',(2.789999999999999,0.595000000000000,0.200000000000000));
#99=CARTESIAN_POINT('',(2.789999999999999,-1.092961E-016,0.200000000000000));
#100=CARTESIAN_POINT('',(3.979999999999999,7.286648E-017,1.405000000000000));
#101=CARTESIAN_POINT('',(3.979999999999999,0.595000000000000,1.405000000000000));
#102=CARTESIAN_POINT('',(3.384999999999999,0.595000000000000,2.000000000000000));
#103=CARTESIAN_POINT('',(2.790000000000000,0.595000000000000,2.594999999999999));
#104=CARTESIAN_POINT('',(2.790000000000000,-1.092961E-016,2.594999999999999));
#105=CARTESIAN_POINT('',(5.184999999999999,7.286648E-017,1.405000000000000));
#106=CARTESIAN_POINT('',(5.184999999999999,0.595000000000000,1.405000000000000));
#107=CARTESIAN_POINT('',(5.184999999999999,0.595000000000000,2.0));
#108=CARTESIAN_POINT('',(5.184999999999999,0.595000000000000,2.595000000000000));
#109=CARTESIAN_POINT('',(5.184999999999999,-1.092961E-016,2.595000000000000));
#117=(BOUNDED_SURFACE()B_SPLINE_SURFACE(2,2,((#65,#70,#75,#80,#85,#90,#95,#100,#105),(#66,#71,#76,#81,#86,#91,#96,#101,#106),(#67,#72,#77,#82,#87,#92,#97,#102,#107),(#68,#73,#78,#83,#88,#93,#98,#103,#108),(#69,#74,#79,#84,#89,#94,#99,#104,#109)),.UNSPECIFIED.,.F.,.T.,.U.)B_SPLINE_SURFACE_WITH_KNOTS((3,2,3),(3,2,2,2,3),(-3.141592653589793,-1.570796326794897,1.836910E-016),(0.0,1.570796326794897,3.141592653589793,4.712388980384690,6.283185307179586),.UNSPECIFIED.)GEOMETRIC_REPRESENTATION_ITEM()RATIONAL_B_SPLINE_SURFACE(((1.0,0.707106781186548,1.0,0.707106781186548,1.0,0.707106781186548,1.0,0.707106781186548,1.0),(0.707106781186547,0.500000000000000,0.707106781186547,0.500000000000000,0.707106781186547,0.500000000000000,0.707106781186547,0.500000000000000,0.707106781186547),(1.0,0.707106781186548,1.0,0.707106781186548,1.0,0.707106781186548,1.0,0.707106781186548,1.0),(0.707106781186547,0.500000000000000,0.707106781186547,0.500000000000000,0.707106781186547,0.500000000000000,0.707106781186547,0.500000000000000,0.707106781186547),(1.0,0.707106781186548,1.0,0.707106781186548,1.0,0.707106781186548,1.0,0.707106781186548,1.0)))REPRESENTATION_ITEM('')SURFACE());
#118=CARTESIAN_POINT('',(7.579999999999999,0.0,0.200000000000000));
#119=VERTEX_POINT('',#118);
#120=CARTESIAN_POINT('',(5.184999999999999,0.0,2.595000000000000));
#121=VERTEX_POINT('',#120);
#122=CARTESIAN_POINT('',(5.184999999999999,0.0,0.200000000000000));
#123=DIRECTION('',(0.0,-1.0,0.0));
#124=DIRECTION('',(0.0,0.0,-1.0));
#125=AXIS2_PLACEMENT_3D('',#122,#123,#124);
#126=CIRCLE('',#125,2.395000000000001);
#127=EDGE_CURVE('',#119,#121,#126,.T.);
#128=ORIENTED_EDGE('',*,*,#127,.F.);
#129=CARTESIAN_POINT('',(6.984999999999999,0.595000000000000,0.200000000000000));
#130=VERTEX_POINT('',#129);
#131=CARTESIAN_POINT('',(6.984999999999999,0.0,0.200000000000000));
#132=DIRECTION('',(0.0,0.0,-1.0));
#133=DIRECTION('',(0.0,1.0,0.0));
#134=AXIS2_PLACEMENT_3D('',#131,#132,#133);
#135=CIRCLE('',#134,0.595000000000000);
#136=EDGE_CURVE('',#130,#119,#135,.T.);
#137=ORIENTED_EDGE('',*,*,#136,.F.);
#138=CARTESIAN_POINT('',(6.390000000000000,7.286408E-017,0.200000000000000));
#139=VERTEX_POINT('',#138);
#140=CARTESIAN_POINT('',(6.984999999999999,0.0,0.200000000000000));
#141=DIRECTION('',(0.0,0.0,-1.0));
#142=DIRECTION('',(0.0,1.0,0.0));
#143=AXIS2_PLACEMENT_3D('',#140,#141,#142);
#144=CIRCLE('',#143,0.595000000000000);
#145=EDGE_CURVE('',#139,#130,#144,.T.);
#146=ORIENTED_EDGE('',*,*,#145,.F.);
#147=CARTESIAN_POINT('',(5.184999999999999,7.286408E-017,1.405000000000000));
#148=VERTEX_POINT('',#147);
#149=CARTESIAN_POINT('',(5.184999999999999,7.286408E-017,0.200000000000000));
#150=DIRECTION('',(0.0,-1.0,0.0));
#151=DIRECTION('',(0.0,0.0,-1.0));
#152=AXIS2_PLACEMENT_3D('',#149,#150,#151);
#153=CIRCLE('',#152,1.205000000000000);
#154=EDGE_CURVE('',#139,#148,#153,.T.);
#155=ORIENTED_EDGE('',*,*,#154,.T.);
#156=CARTESIAN_POINT('',(5.185000000000000,0.595000000000000,2.0));
#157=VERTEX_POINT('',#156);
#158=CARTESIAN_POINT('',(5.185000000000000,0.0,2.0));
#159=DIRECTION('',(1.0,0.0,0.0));
#160=DIRECTION('',(0.0,1.0,0.0));
#161=AXIS2_PLACEMENT_3D('',#158,#159,#160);
#162=CIRCLE('',#161,0.595000000000000);
#163=EDGE_CURVE('',#148,#157,#162,.T.);
#164=ORIENTED_EDGE('',*,*,#163,.T.);
#165=CARTESIAN_POINT('',(5.185000000000000,0.0,2.0));
#166=DIRECTION('',(1.0,0.0,0.0));
#167=DIRECTION('',(0.0,1.0,0.0));
#168=AXIS2_PLACEMENT_3D('',#165,#166,#167);
#169=CIRCLE('',#168,0.595000000000000);
#170=EDGE_CURVE('',#157,#121,#169,.T.);
#171=ORIENTED_EDGE('',*,*,#170,.T.);
#172=EDGE_LOOP('',(#128,#137,#146,#155,#164,#171));
#173=FACE_OUTER_BOUND('',#172,.T.);
#174=ADVANCED_FACE('',(#173),#117,.T.);
#175=CARTESIAN_POINT('',(6.984999999999999,-0.595000000000000,0.200000000000000));
#176=CARTESIAN_POINT('',(6.984999999999999,-0.595000000000000,-3.600000000000000));
#177=CARTESIAN_POINT('',(7.579999999999999,-0.595000000000000,0.200000000000000));
#178=CARTESIAN_POINT('',(7.579999999999999,-0.595000000000000,-3.600000000000000));
#179=CARTESIAN_POINT('',(7.579999999999999,0.0,0.200000000000000));
#180=CARTESIAN_POINT('',(7.579999999999999,0.0,-3.600000000000000));
#181=CARTESIAN_POINT('',(7.579999999999999,0.595000000000000,0.200000000000000));
#182=CARTESIAN_POINT('',(7.579999999999999,0.595000000000000,-3.600000000000000));
#183=CARTESIAN_POINT('',(6.984999999999999,0.595000000000000,0.200000000000000));
#184=CARTESIAN_POINT('',(6.984999999999999,0.595000000000000,-3.600000000000000));
#185=CARTESIAN_POINT('',(6.390000000000000,0.595000000000000,0.200000000000000));
#186=CARTESIAN_POINT('',(6.390000000000000,0.595000000000000,-3.600000000000000));
#187=CARTESIAN_POINT('',(6.390000000000000,0.0,0.200000000000000));
#188=CARTESIAN_POINT('',(6.390000000000000,0.0,-3.600000000000000));
#189=CARTESIAN_POINT('',(6.390000000000000,-0.595000000000000,0.200000000000000));
#190=CARTESIAN_POINT('',(6.390000000000000,-0.595000000000000,-3.600000000000000));
#191=CARTESIAN_POINT('',(6.984999999999999,-0.595000000000000,0.200000000000000));
#192=CARTESIAN_POINT('',(6.984999999999999,-0.595000000000000,-3.600000000000000));
#200=(BOUNDED_SURFACE()B_SPLINE_SURFACE(1,2,((#175,#177,#179,#181,#183,#185,#187,#189,#191),(#176,#178,#180,#182,#184,#186,#188,#190,#192)),.UNSPECIFIED.,.F.,.T.,.U.)B_SPLINE_SURFACE_WITH_KNOTS((2,2),(3,2,2,2,3),(-2.332401E-016,6.386554621848740),(0.0,0.934623814442963,1.869247628885927,2.803871443328890,3.738495257771854),.UNSPECIFIED.)GEOMETRIC_REPRESENTATION_ITEM()RATIONAL_B_SPLINE_SURFACE(((1.0,0.707106781186548,1.0,0.707106781186548,1.0,0.707106781186548,1.0,0.707106781186548,1.0),(1.0,0.707106781186548,1.0,0.707106781186548,1.0,0.707106781186548,1.0,0.707106781186548,1.0)))REPRESENTATION_ITEM('')SURFACE());
#201=CARTESIAN_POINT('',(6.984999999999999,0.595000000000000,-3.600000000000000));
#202=VERTEX_POINT('',#201);
#203=CARTESIAN_POINT('',(6.984999999999999,0.595000000000000,-3.600000000000000));
#204=DIRECTION('',(0.0,0.0,1.0));
#205=VECTOR('',#204,3.800000000000000);
#206=LINE('',#203,#205);
#207=EDGE_CURVE('',#202,#130,#206,.T.);
#208=ORIENTED_EDGE('',*,*,#207,.F.);
#209=CARTESIAN_POINT('',(6.984999999999999,-0.595000000000000,-3.600000000000000));
#210=VERTEX_POINT('',#209);
#211=CARTESIAN_POINT('',(6.984999999999999,0.0,-3.600000000000000));
#212=DIRECTION('',(0.0,0.0,-1.0));
#213=DIRECTION('',(0.0,1.0,0.0));
#214=AXIS2_PLACEMENT_3D('',#211,#212,#213);
#215=CIRCLE('',#214,0.595000000000000);
#216=EDGE_CURVE('',#210,#202,#215,.T.);
#217=ORIENTED_EDGE('',*,*,#216,.F.);
#218=CARTESIAN_POINT('',(6.984999999999999,-0.595000000000000,0.200000000000000));
#219=VERTEX_POINT('',#218);
#220=CARTESIAN_POINT('',(6.984999999999999,-0.595000000000000,-3.600000000000000));
#221=DIRECTION('',(0.0,0.0,1.0));
#222=VECTOR('',#221,3.800000000000000);
#223=LINE('',#220,#222);
#224=EDGE_CURVE('',#210,#219,#223,.T.);
#225=ORIENTED_EDGE('',*,*,#224,.T.);
#226=CARTESIAN_POINT('',(6.984999999999999,0.0,0.200000000000000));
#227=DIRECTION('',(0.0,0.0,-1.0));
#228=DIRECTION('',(0.0,1.0,0.0));
#229=AXIS2_PLACEMENT_3D('',#226,#227,#228);
#230=CIRCLE('',#229,0.595000000000000);
#231=EDGE_CURVE('',#219,#139,#230,.T.);
#232=ORIENTED_EDGE('',*,*,#231,.T.);
#233=ORIENTED_EDGE('',*,*,#145,.T.);
#234=EDGE_LOOP('',(#208,#217,#225,#232,#233));
#235=FACE_OUTER_BOUND('',#234,.T.);
#236=ADVANCED_FACE('',(#235),#200,.T.);
#237=CARTESIAN_POINT('',(3.500000000000000,-0.595000000000000,2.0));
#238=CARTESIAN_POINT('',(5.185000000000000,-0.595000000000000,2.0));
#239=CARTESIAN_POINT('',(3.500000000000000,-0.595000000000000,2.595000000000000));
#240=CARTESIAN_POINT('',(5.185000000000000,-0.595000000000000,2.595000000000000));
#241=CARTESIAN_POINT('',(3.500000000000000,0.0,2.595000000000000));
#242=CARTESIAN_POINT('',(5.185000000000000,0.0,2.595000000000000));
#243=CARTESIAN_POINT('',(3.500000000000000,0.595000000000000,2.595000000000000));
#244=CARTESIAN_POINT('',(5.185000000000000,0.595000000000000,2.595000000000000));
#245=CARTESIAN_POINT('',(3.500000000000000,0.595000000000000,2.0));
#246=CARTESIAN_POINT('',(5.185000000000000,0.595000000000000,2.0));
#247=CARTESIAN_POINT('',(3.500000000000000,0.595000000000000,1.405000000000000));
#248=CARTESIAN_POINT('',(5.185000000000000,0.595000000000000,1.405000000000000));
#249=CARTESIAN_POINT('',(3.500000000000000,0.0,1.405000000000000));
#250=CARTESIAN_POINT('',(5.185000000000000,0.0,1.405000000000000));
#251=CARTESIAN_POINT('',(3.500000000000000,-0.595000000000000,1.405000000000000));
#252=CARTESIAN_POINT('',(5.185000000000000,-0.595000000000000,1.405000000000000));
#253=CARTESIAN_POINT('',(3.500000000000000,-0.595000000000000,2.0));
#254=CARTESIAN_POINT('',(5.185000000000000,-0.595000000000000,2.0));
#262=(BOUNDED_SURFACE()B_SPLINE_SURFACE(1,2,((#237,#239,#241,#243,#245,#247,#249,#251,#253),(#238,#240,#242,#244,#246,#248,#250,#252,#254)),.UNSPECIFIED.,.F.,.T.,.U.)B_SPLINE_SURFACE_WITH_KNOTS((2,2),(3,2,2,2,3),(1.067226890756302,3.899159663865546),(0.0,0.934623814442963,1.869247628885927,2.803871443328890,3.738495257771854),.UNSPECIFIED.)GEOMETRIC_REPRESENTATION_ITEM()RATIONAL_B_SPLINE_SURFACE(((1.0,0.707106781186548,1.0,0.707106781186548,1.0,0.707106781186548,1.0,0.707106781186548,1.0),(1.0,0.707106781186548,1.0,0.707106781186548,1.0,0.707106781186548,1.0,0.707106781186548,1.0)))REPRESENTATION_ITEM('')SURFACE());
#263=CARTESIAN_POINT('',(3.500000000000000,0.595000000000000,2.0));
#264=VERTEX_POINT('',#263);
#265=CARTESIAN_POINT('',(5.185000000000000,0.595000000000000,2.0));
#266=DIRECTION('',(-1.0,0.0,0.0));
#267=VECTOR('',#266,1.685000000000000);
#268=LINE('',#265,#267);
#269=EDGE_CURVE('',#157,#264,#268,.T.);
#270=ORIENTED_EDGE('',*,*,#269,.F.);
#271=ORIENTED_EDGE('',*,*,#163,.F.);
#272=CARTESIAN_POINT('',(5.184999999999999,-0.595000000000000,2.0));
#273=VERTEX_POINT('',#272);
#274=CARTESIAN_POINT('',(5.185000000000000,0.0,2.0));
#275=DIRECTION('',(1.0,0.0,0.0));
#276=DIRECTION('',(0.0,1.0,0.0));
#277=AXIS2_PLACEMENT_3D('',#274,#275,#276);
#278=CIRCLE('',#277,0.595000000000000);
#279=EDGE_CURVE('',#273,#148,#278,.T.);
#280=ORIENTED_EDGE('',*,*,#279,.F.);
#281=CARTESIAN_POINT('',(3.500000000000000,-0.595000000000000,2.0));
#282=VERTEX_POINT('',#281);
#283=CARTESIAN_POINT('',(5.184999999999999,-0.595000000000000,2.0));
#284=DIRECTION('',(-1.0,0.0,0.0));
#285=VECTOR('',#284,1.684999999999999);
#286=LINE('',#283,#285);
#287=EDGE_CURVE('',#273,#282,#286,.T.);
#288=ORIENTED_EDGE('',*,*,#287,.T.);
#289=CARTESIAN_POINT('',(3.500000000000000,0.0,2.0));
#290=DIRECTION('',(1.0,0.0,0.0));
#291=DIRECTION('',(0.0,1.0,0.0));
#292=AXIS2_PLACEMENT_3D('',#289,#290,#291);
#293=CIRCLE('',#292,0.595000000000000);
#294=EDGE_CURVE('',#282,#264,#293,.T.);
#295=ORIENTED_EDGE('',*,*,#294,.T.);
#296=EDGE_LOOP('',(#270,#271,#280,#288,#295));
#297=FACE_OUTER_BOUND('',#296,.T.);
#298=ADVANCED_FACE('',(#297),#262,.T.);
#299=CARTESIAN_POINT('',(3.500000000000000,-0.595000000000000,2.0));
#300=CARTESIAN_POINT('',(5.185000000000000,-0.595000000000000,2.0));
#301=CARTESIAN_POINT('',(3.500000000000000,-0.595000000000000,2.595000000000000));
#302=CARTESIAN_POINT('',(5.185000000000000,-0.595000000000000,2.595000000000000));
#303=CARTESIAN_POINT('',(3.500000000000000,0.0,2.595000000000000));
#304=CARTESIAN_POINT('',(5.185000000000000,0.0,2.595000000000000));
#305=CARTESIAN_POINT('',(3.500000000000000,0.595000000000000,2.595000000000000));
#306=CARTESIAN_POINT('',(5.185000000000000,0.595000000000000,2.595000000000000));
#307=CARTESIAN_POINT('',(3.500000000000000,0.595000000000000,2.0));
#308=CARTESIAN_POINT('',(5.185000000000000,0.595000000000000,2.0));
#309=CARTESIAN_POINT('',(3.500000000000000,0.595000000000000,1.405000000000000));
#310=CARTESIAN_POINT('',(5.185000000000000,0.595000000000000,1.405000000000000));
#311=CARTESIAN_POINT('',(3.500000000000000,0.0,1.405000000000000));
#312=CARTESIAN_POINT('',(5.185000000000000,0.0,1.405000000000000));
#313=CARTESIAN_POINT('',(3.500000000000000,-0.595000000000000,1.405000000000000));
#314=CARTESIAN_POINT('',(5.185000000000000,-0.595000000000000,1.405000000000000));
#315=CARTESIAN_POINT('',(3.500000000000000,-0.595000000000000,2.0));
#316=CARTESIAN_POINT('',(5.185000000000000,-0.595000000000000,2.0));
#324=(BOUNDED_SURFACE()B_SPLINE_SURFACE(1,2,((#299,#301,#303,#305,#307,#309,#311,#313,#315),(#300,#302,#304,#306,#308,#310,#312,#314,#316)),.UNSPECIFIED.,.F.,.T.,.U.)B_SPLINE_SURFACE_WITH_KNOTS((2,2),(3,2,2,2,3),(1.067226890756302,3.899159663865546),(0.0,0.934623814442963,1.869247628885927,2.803871443328890,3.738495257771854),.UNSPECIFIED.)GEOMETRIC_REPRESENTATION_ITEM()RATIONAL_B_SPLINE_SURFACE(((1.0,0.707106781186548,1.0,0.707106781186548,1.0,0.707106781186548,1.0,0.707106781186548,1.0),(1.0,0.707106781186548,1.0,0.707106781186548,1.0,0.707106781186548,1.0,0.707106781186548,1.0)))REPRESENTATION_ITEM('')SURFACE());
#325=ORIENTED_EDGE('',*,*,#269,.T.);
#326=CARTESIAN_POINT('',(3.500000000000000,0.0,2.0));
#327=DIRECTION('',(1.0,0.0,0.0));
#328=DIRECTION('',(0.0,1.0,0.0));
#329=AXIS2_PLACEMENT_3D('',#326,#327,#328);
#330=CIRCLE('',#329,0.595000000000000);
#331=EDGE_CURVE('',#264,#282,#330,.T.);
#332=ORIENTED_EDGE('',*,*,#331,.T.);
#333=ORIENTED_EDGE('',*,*,#287,.F.);
#334=CARTESIAN_POINT('',(5.185000000000000,0.0,2.0));
#335=DIRECTION('',(1.0,0.0,0.0));
#336=DIRECTION('',(0.0,1.0,0.0));
#337=AXIS2_PLACEMENT_3D('',#334,#335,#336);
#338=CIRCLE('',#337,0.595000000000000);
#339=EDGE_CURVE('',#121,#273,#338,.T.);
#340=ORIENTED_EDGE('',*,*,#339,.F.);
#341=ORIENTED_EDGE('',*,*,#170,.F.);
#342=EDGE_LOOP('',(#325,#332,#333,#340,#341));
#343=FACE_OUTER_BOUND('',#342,.T.);
#344=ADVANCED_FACE('',(#343),#324,.T.);
#345=CARTESIAN_POINT('',(6.984999999999999,-0.595000000000000,0.200000000000000));
#346=CARTESIAN_POINT('',(6.984999999999999,-0.595000000000000,-3.600000000000000));
#347=CARTESIAN_POINT('',(7.579999999999999,-0.595000000000000,0.200000000000000));
#348=CARTESIAN_POINT('',(7.579999999999999,-0.595000000000000,-3.600000000000000));
#349=CARTESIAN_POINT('',(7.579999999999999,0.0,0.200000000000000));
#350=CARTESIAN_POINT('',(7.579999999999999,0.0,-3.600000000000000));
#351=CARTESIAN_POINT('',(7.579999999999999,0.595000000000000,0.200000000000000));
#352=CARTESIAN_POINT('',(7.579999999999999,0.595000000000000,-3.600000000000000));
#353=CARTESIAN_POINT('',(6.984999999999999,0.595000000000000,0.200000000000000));
#354=CARTESIAN_POINT('',(6.984999999999999,0.595000000000000,-3.600000000000000));
#355=CARTESIAN_POINT('',(6.390000000000000,0.595000000000000,0.200000000000000));
#356=CARTESIAN_POINT('',(6.390000000000000,0.595000000000000,-3.600000000000000));
#357=CARTESIAN_POINT('',(6.390000000000000,0.0,0.200000000000000));
#358=CARTESIAN_POINT('',(6.390000000000000,0.0,-3.600000000000000));
#359=CARTESIAN_POINT('',(6.390000000000000,-0.595000000000000,0.200000000000000));
#360=CARTESIAN_POINT('',(6.390000000000000,-0.595000000000000,-3.600000000000000));
#361=CARTESIAN_POINT('',(6.984999999999999,-0.595000000000000,0.200000000000000));
#362=CARTESIAN_POINT('',(6.984999999999999,-0.595000000000000,-3.600000000000000));
#370=(BOUNDED_SURFACE()B_SPLINE_SURFACE(1,2,((#345,#347,#349,#351,#353,#355,#357,#359,#361),(#346,#348,#350,#352,#354,#356,#358,#360,#362)),.UNSPECIFIED.,.F.,.T.,.U.)B_SPLINE_SURFACE_WITH_KNOTS((2,2),(3,2,2,2,3),(-5.131283E-016,6.386554621848740),(0.0,0.934623814442963,1.869247628885927,2.803871443328890,3.738495257771854),.UNSPECIFIED.)GEOMETRIC_REPRESENTATION_ITEM()RATIONAL_B_SPLINE_SURFACE(((1.0,0.707106781186548,1.0,0.707106781186548,1.0,0.707106781186548,1.0,0.707106781186548,1.0),(1.0,0.707106781186548,1.0,0.707106781186548,1.0,0.707106781186548,1.0,0.707106781186548,1.0)))REPRESENTATION_ITEM('')SURFACE());
#371=ORIENTED_EDGE('',*,*,#207,.T.);
#372=ORIENTED_EDGE('',*,*,#136,.T.);
#373=CARTESIAN_POINT('',(6.984999999999999,0.0,0.200000000000000));
#374=DIRECTION('',(0.0,0.0,-1.0));
#375=DIRECTION('',(0.0,1.0,0.0));
#376=AXIS2_PLACEMENT_3D('',#373,#374,#375);
#377=CIRCLE('',#376,0.595000000000000);
#378=EDGE_CURVE('',#119,#219,#377,.T.);
#379=ORIENTED_EDGE('',*,*,#378,.T.);
#380=ORIENTED_EDGE('',*,*,#224,.F.);
#381=CARTESIAN_POINT('',(6.984999999999999,0.0,-3.600000000000000));
#382=DIRECTION('',(0.0,0.0,-1.0));
#383=DIRECTION('',(0.0,1.0,0.0));
#384=AXIS2_PLACEMENT_3D('',#381,#382,#383);
#385=CIRCLE('',#384,0.595000000000000);
#386=EDGE_CURVE('',#202,#210,#385,.T.);
#387=ORIENTED_EDGE('',*,*,#386,.F.);
#388=EDGE_LOOP('',(#371,#372,#379,#380,#387));
#389=FACE_OUTER_BOUND('',#388,.T.);
#390=ADVANCED_FACE('',(#389),#370,.T.);
#391=CARTESIAN_POINT('',(5.184999999999999,7.286408E-017,2.595000000000000));
#392=CARTESIAN_POINT('',(5.184999999999999,-0.595000000000000,2.595000000000000));
#393=CARTESIAN_POINT('',(5.184999999999999,-0.595000000000000,2.0));
#394=CARTESIAN_POINT('',(5.184999999999999,-0.595000000000000,1.405000000000000));
#395=CARTESIAN_POINT('',(5.184999999999999,-7.286648E-017,1.405000000000000));
#396=CARTESIAN_POINT('',(7.579999999999999,7.286408E-017,2.594999999999999));
#397=CARTESIAN_POINT('',(7.579999999999998,-0.595000000000000,2.594999999999999));
#398=CARTESIAN_POINT('',(6.984999999999998,-0.595000000000000,2.000000000000000));
#399=CARTESIAN_POINT('',(6.389999999999999,-0.595000000000000,1.405000000000000));
#400=CARTESIAN_POINT('',(6.389999999999999,-7.286648E-017,1.405000000000000));
#401=CARTESIAN_POINT('',(7.579999999999998,7.286408E-017,0.200000000000000));
#402=CARTESIAN_POINT('',(7.579999999999998,-0.595000000000000,0.200000000000000));
#403=CARTESIAN_POINT('',(6.984999999999999,-0.595000000000000,0.200000000000000));
#404=CARTESIAN_POINT('',(6.389999999999999,-0.595000000000000,0.200000000000000));
#405=CARTESIAN_POINT('',(6.389999999999999,-7.286648E-017,0.200000000000000));
#406=CARTESIAN_POINT('',(7.579999999999999,7.286408E-017,-2.194999999999999));
#407=CARTESIAN_POINT('',(7.579999999999998,-0.595000000000000,-2.194999999999999));
#408=CARTESIAN_POINT('',(6.984999999999998,-0.595000000000000,-1.600000000000000));
#409=CARTESIAN_POINT('',(6.389999999999999,-0.595000000000000,-1.005000000000000));
#410=CARTESIAN_POINT('',(6.389999999999999,-7.286648E-017,-1.005000000000000));
#411=CARTESIAN_POINT('',(5.184999999999999,7.286408E-017,-2.194999999999999));
#412=CARTESIAN_POINT('',(5.184999999999999,-0.595000000000000,-2.194999999999999));
#413=CARTESIAN_POINT('',(5.184999999999999,-0.595000000000000,-1.600000000000000));
#414=CARTESIAN_POINT('',(5.184999999999999,-0.595000000000000,-1.005000000000000));
#415=CARTESIAN_POINT('',(5.184999999999999,-7.286648E-017,-1.005000000000000));
#416=CARTESIAN_POINT('',(2.790000000000000,7.286408E-017,-2.194999999999999));
#417=CARTESIAN_POINT('',(2.790000000000000,-0.595000000000000,-2.194999999999999));
#418=CARTESIAN_POINT('',(3.384999999999999,-0.595000000000000,-1.600000000000000));
#419=CARTESIAN_POINT('',(3.979999999999999,-0.595000000000000,-1.005000000000000));
#420=CARTESIAN_POINT('',(3.979999999999999,-7.286648E-017,-1.005000000000000));
#421=CARTESIAN_POINT('',(2.789999999999999,7.286408E-017,0.200000000000000));
#422=CARTESIAN_POINT('',(2.789999999999999,-0.595000000000000,0.200000000000000));
#423=CARTESIAN_POINT('',(3.384999999999999,-0.595000000000000,0.200000000000000));
#424=CARTESIAN_POINT('',(3.979999999999999,-0.595000000000000,0.200000000000000));
#425=CARTESIAN_POINT('',(3.979999999999999,-7.286648E-017,0.200000000000000));
#426=CARTESIAN_POINT('',(2.790000000000000,7.286408E-017,2.594999999999999));
#427=CARTESIAN_POINT('',(2.790000000000000,-0.595000000000000,2.594999999999999));
#428=CARTESIAN_POINT('',(3.384999999999999,-0.595000000000000,2.000000000000000));
#429=CARTESIAN_POINT('',(3.979999999999999,-0.595000000000000,1.405000000000000));
#430=CARTESIAN_POINT('',(3.979999999999999,-7.286648E-017,1.405000000000000));
#431=CARTESIAN_POINT('',(5.184999999999999,7.286408E-017,2.595000000000000));
#432=CARTESIAN_POINT('',(5.184999999999999,-0.595000000000000,2.595000000000000));
#433=CARTESIAN_POINT('',(5.184999999999999,-0.595000000000000,2.0));
#434=CARTESIAN_POINT('',(5.184999999999999,-0.595000000000000,1.405000000000000));
#435=CARTESIAN_POINT('',(5.184999999999999,-7.286648E-017,1.405000000000000));
#443=(BOUNDED_SURFACE()B_SPLINE_SURFACE(2,2,((#391,#396,#401,#406,#411,#416,#421,#426,#431),(#392,#397,#402,#407,#412,#417,#422,#427,#432),(#393,#398,#403,#408,#413,#418,#423,#428,#433),(#394,#399,#404,#409,#414,#419,#424,#429,#434),(#395,#400,#405,#410,#415,#420,#425,#430,#435)),.UNSPECIFIED.,.F.,.T.,.U.)B_SPLINE_SURFACE_WITH_KNOTS((3,2,3),(3,2,2,2,3),(-1.224606E-016,1.570796326794897,3.141592653589793),(0.0,1.570796326794897,3.141592653589793,4.712388980384690,6.283185307179586),.UNSPECIFIED.)GEOMETRIC_REPRESENTATION_ITEM()RATIONAL_B_SPLINE_SURFACE(((1.0,0.707106781186548,1.0,0.707106781186548,1.0,0.707106781186548,1.0,0.707106781186548,1.0),(0.707106781186547,0.500000000000000,0.707106781186547,0.500000000000000,0.707106781186547,0.500000000000000,0.707106781186547,0.500000000000000,0.707106781186547),(1.0,0.707106781186548,1.0,0.707106781186548,1.0,0.707106781186548,1.0,0.707106781186548,1.0),(0.707106781186547,0.500000000000000,0.707106781186547,0.500000000000000,0.707106781186547,0.500000000000000,0.707106781186547,0.500000000000000,0.707106781186547),(1.0,0.707106781186548,1.0,0.707106781186548,1.0,0.707106781186548,1.0,0.707106781186548,1.0)))REPRESENTATION_ITEM('')SURFACE());
#444=ORIENTED_EDGE('',*,*,#127,.T.);
#445=ORIENTED_EDGE('',*,*,#339,.T.);
#446=ORIENTED_EDGE('',*,*,#279,.T.);
#447=ORIENTED_EDGE('',*,*,#154,.F.);
#448=ORIENTED_EDGE('',*,*,#231,.F.);
#449=ORIENTED_EDGE('',*,*,#378,.F.);
#450=EDGE_LOOP('',(#444,#445,#446,#447,#448,#449));
#451=FACE_OUTER_BOUND('',#450,.T.);
#452=ADVANCED_FACE('',(#451),#443,.T.);
#453=CARTESIAN_POINT('',(7.579999999999999,0.595000000000000,-3.600000000000000));
#454=CARTESIAN_POINT('',(6.390000000000000,0.595000000000000,-3.600000000000000));
#455=CARTESIAN_POINT('',(7.579999999999999,-0.595000000000000,-3.600000000000000));
#456=CARTESIAN_POINT('',(6.390000000000000,-0.595000000000000,-3.600000000000000));
#457=B_SPLINE_SURFACE_WITH_KNOTS('',1,1,((#453,#455),(#454,#456)),.UNSPECIFIED.,.F.,.F.,.U.,(2,2),(2,2),(0.0,1.190000000000000),(0.0,1.190000000000000),.UNSPECIFIED.);
#458=ORIENTED_EDGE('',*,*,#386,.T.);
#459=ORIENTED_EDGE('',*,*,#216,.T.);
#460=EDGE_LOOP('',(#458,#459));
#461=FACE_OUTER_BOUND('',#460,.T.);
#462=ADVANCED_FACE('',(#461),#457,.F.);
#463=CARTESIAN_POINT('',(3.500000000000000,0.595000000000000,2.595000000000000));
#464=CARTESIAN_POINT('',(3.500000000000000,0.595000000000000,1.405000000000000));
#465=CARTESIAN_POINT('',(3.500000000000000,-0.595000000000000,2.595000000000000));
#466=CARTESIAN_POINT('',(3.500000000000000,-0.595000000000000,1.405000000000000));
#467=B_SPLINE_SURFACE_WITH_KNOTS('',1,1,((#463,#465),(#464,#466)),.UNSPECIFIED.,.F.,.F.,.U.,(2,2),(2,2),(0.0,1.190000000000000),(0.0,1.190000000000000),.UNSPECIFIED.);
#468=ORIENTED_EDGE('',*,*,#331,.F.);
#469=ORIENTED_EDGE('',*,*,#294,.F.);
#470=EDGE_LOOP('',(#468,#469));
#471=FACE_OUTER_BOUND('',#470,.T.);
#472=ADVANCED_FACE('',(#471),#467,.T.);
#473=CLOSED_SHELL('',(#174,#236,#298,#344,#390,#452,#462,#472));
#474=MANIFOLD_SOLID_BREP('8C8',#473);
#475=COLOUR_RGB('253',0.732000000000000,0.732000000000000,0.732000000000000);
#476=SURFACE_STYLE_USAGE(.BOTH.,#477);
#477=SURFACE_SIDE_STYLE('NONE',(#478));
#478=SURFACE_STYLE_FILL_AREA(#479);
#479=FILL_AREA_STYLE('NONE',(#480));
#480=FILL_AREA_STYLE_COLOUR('NONE',#475);
#481=PRESENTATION_STYLE_ASSIGNMENT((#476));
#482=STYLED_ITEM('NONE',(#481),#474);
#483=MECHANICAL_DESIGN_GEOMETRIC_PRESENTATION_REPRESENTATION('NONE',(#482,#715,#811,#900,#996),#28);
#484=PRESENTATION_LAYER_ASSIGNMENT('3D','None',(#474,#714,#803,#899,#988));
#485=CARTESIAN_POINT('',(-5.184999999999999,0.0,0.200000000000000));
#486=DIRECTION('',(0.0,-1.0,0.0));
#487=DIRECTION('',(0.0,0.0,-1.0));
#488=AXIS2_PLACEMENT_3D('',#485,#486,#487);
#489=TOROIDAL_SURFACE('',#488,1.800000000000000,0.595000000000000);
#490=CARTESIAN_POINT('',(-7.579999999999999,0.0,0.200000000000000));
#491=VERTEX_POINT('',#490);
#492=CARTESIAN_POINT('',(-5.184999999999999,0.0,2.595000000000000));
#493=VERTEX_POINT('',#492);
#494=CARTESIAN_POINT('',(-5.184999999999999,0.0,0.200000000000000));
#495=DIRECTION('',(0.0,1.0,0.0));
#496=DIRECTION('',(0.0,0.0,-1.0));
#497=AXIS2_PLACEMENT_3D('',#494,#495,#496);
#498=CIRCLE('',#497,2.395000000000001);
#499=EDGE_CURVE('',#491,#493,#498,.T.);
#500=ORIENTED_EDGE('',*,*,#499,.F.);
#501=CARTESIAN_POINT('',(-6.984999999999999,-0.595000000000000,0.200000000000000));
#502=VERTEX_POINT('',#501);
#503=CARTESIAN_POINT('',(-6.984999999999999,0.0,0.200000000000000));
#504=DIRECTION('',(0.0,0.0,1.0));
#505=DIRECTION('',(0.0,1.0,0.0));
#506=AXIS2_PLACEMENT_3D('',#503,#504,#505);
#507=CIRCLE('',#506,0.595000000000000);
#508=EDGE_CURVE('',#491,#502,#507,.T.);
#509=ORIENTED_EDGE('',*,*,#508,.T.);
#510=CARTESIAN_POINT('',(-6.390000000000000,7.286408E-017,0.200000000000000));
#511=VERTEX_POINT('',#510);
#512=CARTESIAN_POINT('',(-6.984999999999999,0.0,0.200000000000000));
#513=DIRECTION('',(0.0,0.0,1.0));
#514=DIRECTION('',(0.0,1.0,0.0));
#515=AXIS2_PLACEMENT_3D('',#512,#513,#514);
#516=CIRCLE('',#515,0.595000000000000);
#517=EDGE_CURVE('',#502,#511,#516,.T.);
#518=ORIENTED_EDGE('',*,*,#517,.T.);
#519=CARTESIAN_POINT('',(-5.184999999999999,7.286408E-017,1.405000000000000));
#520=VERTEX_POINT('',#519);
#521=CARTESIAN_POINT('',(-5.184999999999999,7.286408E-017,0.200000000000000));
#522=DIRECTION('',(0.0,1.0,0.0));
#523=DIRECTION('',(0.0,0.0,-1.0));
#524=AXIS2_PLACEMENT_3D('',#521,#522,#523);
#525=CIRCLE('',#524,1.205000000000000);
#526=EDGE_CURVE('',#511,#520,#525,.T.);
#527=ORIENTED_EDGE('',*,*,#526,.T.);
#528=CARTESIAN_POINT('',(-5.184999999999999,-0.595000000000000,2.0));
#529=VERTEX_POINT('',#528);
#530=CARTESIAN_POINT('',(-5.185000000000000,0.0,2.0));
#531=DIRECTION('',(1.0,0.0,0.0));
#532=DIRECTION('',(0.0,1.0,0.0));
#533=AXIS2_PLACEMENT_3D('',#530,#531,#532);
#534=CIRCLE('',#533,0.595000000000000);
#535=EDGE_CURVE('',#529,#520,#534,.T.);
#536=ORIENTED_EDGE('',*,*,#535,.F.);
#537=CARTESIAN_POINT('',(-5.185000000000000,0.0,2.0));
#538=DIRECTION('',(1.0,0.0,0.0));
#539=DIRECTION('',(0.0,1.0,0.0));
#540=AXIS2_PLACEMENT_3D('',#537,#538,#539);
#541=CIRCLE('',#540,0.595000000000000);
#542=EDGE_CURVE('',#493,#529,#541,.T.);
#543=ORIENTED_EDGE('',*,*,#542,.F.);
#544=EDGE_LOOP('',(#500,#509,#518,#527,#536,#543));
#545=FACE_OUTER_BOUND('',#544,.T.);
#546=ADVANCED_FACE('',(#545),#489,.T.);
#547=CARTESIAN_POINT('',(-6.984999999999999,0.0,0.200000000000000));
#548=DIRECTION('',(0.0,0.0,-1.0));
#549=DIRECTION('',(0.0,1.0,0.0));
#550=AXIS2_PLACEMENT_3D('',#547,#548,#549);
#551=CYLINDRICAL_SURFACE('',#550,0.595000000000000);
#552=CARTESIAN_POINT('',(-6.984999999999999,0.595000000000000,-3.600000000000000));
#553=VERTEX_POINT('',#552);
#554=CARTESIAN_POINT('',(-6.984999999999999,0.595000000000000,0.200000000000000));
#555=VERTEX_POINT('',#554);
#556=CARTESIAN_POINT('',(-6.984999999999999,0.595000000000000,-3.600000000000000));
#557=DIRECTION('',(0.0,0.0,1.0));
#558=VECTOR('',#557,3.800000000000000);
#559=LINE('',#556,#558);
#560=EDGE_CURVE('',#553,#555,#559,.T.);
#561=ORIENTED_EDGE('',*,*,#560,.F.);
#562=CARTESIAN_POINT('',(-6.984999999999999,-0.595000000000000,-3.600000000000000));
#563=VERTEX_POINT('',#562);
#564=CARTESIAN_POINT('',(-6.984999999999999,0.0,-3.600000000000000));
#565=DIRECTION('',(0.0,0.0,1.0));
#566=DIRECTION('',(0.0,1.0,0.0));
#567=AXIS2_PLACEMENT_3D('',#564,#565,#566);
#568=CIRCLE('',#567,0.595000000000000);
#569=EDGE_CURVE('',#553,#563,#568,.T.);
#570=ORIENTED_EDGE('',*,*,#569,.T.);
#571=CARTESIAN_POINT('',(-6.984999999999999,-0.595000000000000,-3.600000000000000));
#572=DIRECTION('',(0.0,0.0,1.0));
#573=VECTOR('',#572,3.800000000000000);
#574=LINE('',#571,#573);
#575=EDGE_CURVE('',#563,#502,#574,.T.);
#576=ORIENTED_EDGE('',*,*,#575,.T.);
#577=ORIENTED_EDGE('',*,*,#508,.F.);
#578=CARTESIAN_POINT('',(-6.984999999999999,0.0,0.200000000000000));
#579=DIRECTION('',(0.0,0.0,1.0));
#580=DIRECTION('',(0.0,1.0,0.0));
#581=AXIS2_PLACEMENT_3D('',#578,#579,#580);
#582=CIRCLE('',#581,0.595000000000000);
#583=EDGE_CURVE('',#555,#491,#582,.T.);
#584=ORIENTED_EDGE('',*,*,#583,.F.);
#585=EDGE_LOOP('',(#561,#570,#576,#577,#584));
#586=FACE_OUTER_BOUND('',#585,.T.);
#587=ADVANCED_FACE('',(#586),#551,.T.);
#588=CARTESIAN_POINT('',(-2.865000000000000,0.0,2.0));
#589=DIRECTION('',(-1.0,0.0,0.0));
#590=DIRECTION('',(0.0,1.0,0.0));
#591=AXIS2_PLACEMENT_3D('',#588,#589,#590);
#592=CYLINDRICAL_SURFACE('',#591,0.595000000000000);
#593=CARTESIAN_POINT('',(-5.185000000000000,0.595000000000000,2.0));
#594=VERTEX_POINT('',#593);
#595=CARTESIAN_POINT('',(-3.500000000000000,0.595000000000000,2.0));
#596=VERTEX_POINT('',#595);
#597=CARTESIAN_POINT('',(-5.185000000000000,0.595000000000000,2.0));
#598=DIRECTION('',(1.0,0.0,0.0));
#599=VECTOR('',#598,1.685000000000000);
#600=LINE('',#597,#599);
#601=EDGE_CURVE('',#594,#596,#600,.T.);
#602=ORIENTED_EDGE('',*,*,#601,.F.);
#603=CARTESIAN_POINT('',(-5.185000000000000,0.0,2.0));
#604=DIRECTION('',(1.0,0.0,0.0));
#605=DIRECTION('',(0.0,1.0,0.0));
#606=AXIS2_PLACEMENT_3D('',#603,#604,#605);
#607=CIRCLE('',#606,0.595000000000000);
#608=EDGE_CURVE('',#594,#493,#607,.T.);
#609=ORIENTED_EDGE('',*,*,#608,.T.);
#610=ORIENTED_EDGE('',*,*,#542,.T.);
#611=CARTESIAN_POINT('',(-3.500000000000000,-0.595000000000000,2.0));
#612=VERTEX_POINT('',#611);
#613=CARTESIAN_POINT('',(-5.184999999999999,-0.595000000000000,2.0));
#614=DIRECTION('',(1.0,0.0,0.0));
#615=VECTOR('',#614,1.684999999999999);
#616=LINE('',#613,#615);
#617=EDGE_CURVE('',#529,#612,#616,.T.);
#618=ORIENTED_EDGE('',*,*,#617,.T.);
#619=CARTESIAN_POINT('',(-3.500000000000000,0.0,2.0));
#620=DIRECTION('',(1.0,0.0,0.0));
#621=DIRECTION('',(0.0,1.0,0.0));
#622=AXIS2_PLACEMENT_3D('',#619,#620,#621);
#623=CIRCLE('',#622,0.595000000000000);
#624=EDGE_CURVE('',#596,#612,#623,.T.);
#625=ORIENTED_EDGE('',*,*,#624,.F.);
#626=EDGE_LOOP('',(#602,#609,#610,#618,#625));
#627=FACE_OUTER_BOUND('',#626,.T.);
#628=ADVANCED_FACE('',(#627),#592,.T.);
#629=CARTESIAN_POINT('',(-2.865000000000000,0.0,2.0));
#630=DIRECTION('',(-1.0,0.0,0.0));
#631=DIRECTION('',(0.0,1.0,0.0));
#632=AXIS2_PLACEMENT_3D('',#629,#630,#631);
#633=CYLINDRICAL_SURFACE('',#632,0.595000000000000);
#634=ORIENTED_EDGE('',*,*,#601,.T.);
#635=CARTESIAN_POINT('',(-3.500000000000000,0.0,2.0));
#636=DIRECTION('',(1.0,0.0,0.0));
#637=DIRECTION('',(0.0,1.0,0.0));
#638=AXIS2_PLACEMENT_3D('',#635,#636,#637);
#639=CIRCLE('',#638,0.595000000000000);
#640=EDGE_CURVE('',#612,#596,#639,.T.);
#641=ORIENTED_EDGE('',*,*,#640,.F.);
#642=ORIENTED_EDGE('',*,*,#617,.F.);
#643=ORIENTED_EDGE('',*,*,#535,.T.);
#644=CARTESIAN_POINT('',(-5.185000000000000,0.0,2.0));
#645=DIRECTION('',(1.0,0.0,0.0));
#646=DIRECTION('',(0.0,1.0,0.0));
#647=AXIS2_PLACEMENT_3D('',#644,#645,#646);
#648=CIRCLE('',#647,0.595000000000000);
#649=EDGE_CURVE('',#520,#594,#648,.T.);
#650=ORIENTED_EDGE('',*,*,#649,.T.);
#651=EDGE_LOOP('',(#634,#641,#642,#643,#650));
#652=FACE_OUTER_BOUND('',#651,.T.);
#653=ADVANCED_FACE('',(#652),#633,.T.);
#654=CARTESIAN_POINT('',(-6.984999999999999,0.0,0.200000000000000));
#655=DIRECTION('',(0.0,0.0,-1.0));
#656=DIRECTION('',(0.0,1.0,0.0));
#657=AXIS2_PLACEMENT_3D('',#654,#655,#656);
#658=CYLINDRICAL_SURFACE('',#657,0.595000000000000);
#659=ORIENTED_EDGE('',*,*,#560,.T.);
#660=CARTESIAN_POINT('',(-6.984999999999999,0.0,0.200000000000000));
#661=DIRECTION('',(0.0,0.0,1.0));
#662=DIRECTION('',(0.0,1.0,0.0));
#663=AXIS2_PLACEMENT_3D('',#660,#661,#662);
#664=CIRCLE('',#663,0.595000000000000);
#665=EDGE_CURVE('',#511,#555,#664,.T.);
#666=ORIENTED_EDGE('',*,*,#665,.F.);
#667=ORIENTED_EDGE('',*,*,#517,.F.);
#668=ORIENTED_EDGE('',*,*,#575,.F.);
#669=CARTESIAN_POINT('',(-6.984999999999999,0.0,-3.600000000000000));
#670=DIRECTION('',(0.0,0.0,1.0));
#671=DIRECTION('',(0.0,1.0,0.0));
#672=AXIS2_PLACEMENT_3D('',#669,#670,#671);
#673=CIRCLE('',#672,0.595000000000000);
#674=EDGE_CURVE('',#563,#553,#673,.T.);
#675=ORIENTED_EDGE('',*,*,#674,.T.);
#676=EDGE_LOOP('',(#659,#666,#667,#668,#675));
#677=FACE_OUTER_BOUND('',#676,.T.);
#678=ADVANCED_FACE('',(#677),#658,.T.);
#679=CARTESIAN_POINT('',(-5.184999999999999,0.0,0.200000000000000));
#680=DIRECTION('',(0.0,-1.0,0.0));
#681=DIRECTION('',(0.0,0.0,-1.0));
#682=AXIS2_PLACEMENT_3D('',#679,#680,#681);
#683=TOROIDAL_SURFACE('',#682,1.800000000000000,0.595000000000000);
#684=ORIENTED_EDGE('',*,*,#499,.T.);
#685=ORIENTED_EDGE('',*,*,#608,.F.);
#686=ORIENTED_EDGE('',*,*,#649,.F.);
#687=ORIENTED_EDGE('',*,*,#526,.F.);
#688=ORIENTED_EDGE('',*,*,#665,.T.);
#689=ORIENTED_EDGE('',*,*,#583,.T.);
#690=EDGE_LOOP('',(#684,#685,#686,#687,#688,#689));
#691=FACE_OUTER_BOUND('',#690,.T.);
#692=ADVANCED_FACE('',(#691),#683,.T.);
#693=CARTESIAN_POINT('',(-6.984999999999999,0.0,-3.600000000000000));
#694=DIRECTION('',(0.0,0.0,1.0));
#695=DIRECTION('',(1.0,0.0,0.0));
#696=AXIS2_PLACEMENT_3D('',#693,#694,#695);
#697=PLANE('',#696);
#698=ORIENTED_EDGE('',*,*,#569,.F.);
#699=ORIENTED_EDGE('',*,*,#674,.F.);
#700=EDGE_LOOP('',(#698,#699));
#701=FACE_OUTER_BOUND('',#700,.T.);
#702=ADVANCED_FACE('',(#701),#697,.F.);
#703=CARTESIAN_POINT('',(-3.500000000000000,0.0,2.0));
#704=DIRECTION('',(1.0,0.0,0.0));
#705=DIRECTION('',(0.0,0.0,-1.0));
#706=AXIS2_PLACEMENT_3D('',#703,#704,#705);
#707=PLANE('',#706);
#708=ORIENTED_EDGE('',*,*,#624,.T.);
#709=ORIENTED_EDGE('',*,*,#640,.T.);
#710=EDGE_LOOP('',(#708,#709));
#711=FACE_OUTER_BOUND('',#710,.T.);
#712=ADVANCED_FACE('',(#711),#707,.T.);
#713=CLOSED_SHELL('',(#546,#587,#628,#653,#678,#692,#702,#712));
#714=MANIFOLD_SOLID_BREP('8B8',#713);
#715=STYLED_ITEM('NONE',(#481),#714);
#716=CARTESIAN_POINT('',(3.500000000000000,0.0,2.000000000000002));
#717=DIRECTION('',(-1.0,1.776357E-016,0.0));
#718=DIRECTION('',(0.0,1.0,0.0));
#719=AXIS2_PLACEMENT_3D('',#716,#717,#718);
#720=CYLINDRICAL_SURFACE('',#719,2.0);
#721=CARTESIAN_POINT('',(-1.500000000000000,2.000000000000001,2.000000000000002));
#722=VERTEX_POINT('',#721);
#723=CARTESIAN_POINT('',(3.500000000000000,2.0,2.000000000000002));
#724=VERTEX_POINT('',#723);
#725=CARTESIAN_POINT('',(-1.499999999999999,2.000000000000001,2.000000000000002));
#726=DIRECTION('',(1.0,0.0,0.0));
#727=VECTOR('',#726,5.0);
#728=LINE('',#725,#727);
#729=EDGE_CURVE('',#722,#724,#728,.T.);
#730=ORIENTED_EDGE('',*,*,#729,.F.);
#731=CARTESIAN_POINT('',(-1.500000000000000,-1.999999999999999,2.000000000000002));
#732=VERTEX_POINT('',#731);
#733=CARTESIAN_POINT('',(-1.500000000000000,8.881784E-016,2.000000000000002));
#734=DIRECTION('',(1.0,0.0,0.0));
#735=DIRECTION('',(0.0,1.0,0.0));
#736=AXIS2_PLACEMENT_3D('',#733,#734,#735);
#737=CIRCLE('',#736,2.0);
#738=EDGE_CURVE('',#722,#732,#737,.T.);
#739=ORIENTED_EDGE('',*,*,#738,.T.);
#740=CARTESIAN_POINT('',(3.500000000000000,-2.0,2.000000000000002));
#741=VERTEX_POINT('',#740);
#742=CARTESIAN_POINT('',(-1.500000000000000,-1.999999999999999,2.000000000000002));
#743=DIRECTION('',(1.0,0.0,0.0));
#744=VECTOR('',#743,5.0);
#745=LINE('',#742,#744);
#746=EDGE_CURVE('',#732,#741,#745,.T.);
#747=ORIENTED_EDGE('',*,*,#746,.T.);
#748=CARTESIAN_POINT('',(3.500000000000000,0.0,2.000000000000002));
#749=DIRECTION('',(1.0,0.0,0.0));
#750=DIRECTION('',(0.0,1.0,0.0));
#751=AXIS2_PLACEMENT_3D('',#748,#749,#750);
#752=CIRCLE('',#751,2.0);
#753=EDGE_CURVE('',#724,#741,#752,.T.);
#754=ORIENTED_EDGE('',*,*,#753,.F.);
#755=EDGE_LOOP('',(#730,#739,#747,#754));
#756=FACE_OUTER_BOUND('',#755,.T.);
#757=ADVANCED_FACE('',(#756),#720,.T.);
#758=CARTESIAN_POINT('',(3.500000000000000,0.0,2.000000000000002));
#759=DIRECTION('',(-1.0,1.776357E-016,0.0));
#760=DIRECTION('',(0.0,1.0,0.0));
#761=AXIS2_PLACEMENT_3D('',#758,#759,#760);
#762=CYLINDRICAL_SURFACE('',#761,2.0);
#763=ORIENTED_EDGE('',*,*,#729,.T.);
#764=CARTESIAN_POINT('',(3.500000000000000,0.0,2.000000000000002));
#765=DIRECTION('',(1.0,0.0,0.0));
#766=DIRECTION('',(0.0,1.0,0.0));
#767=AXIS2_PLACEMENT_3D('',#764,#765,#766);
#768=CIRCLE('',#767,2.0);
#769=EDGE_CURVE('',#741,#724,#768,.T.);
#770=ORIENTED_EDGE('',*,*,#769,.F.);
#771=ORIENTED_EDGE('',*,*,#746,.F.);
#772=CARTESIAN_POINT('',(-1.500000000000000,8.881784E-016,2.000000000000002));
#773=DIRECTION('',(1.0,0.0,0.0));
#774=DIRECTION('',(0.0,1.0,0.0));
#775=AXIS2_PLACEMENT_3D('',#772,#773,#774);
#776=CIRCLE('',#775,2.0);
#777=EDGE_CURVE('',#732,#722,#776,.T.);
#778=ORIENTED_EDGE('',*,*,#777,.T.);
#779=EDGE_LOOP('',(#763,#770,#771,#778));
#780=FACE_OUTER_BOUND('',#779,.T.);
#781=ADVANCED_FACE('',(#780),#762,.T.);
#782=CARTESIAN_POINT('',(-1.500000000000000,8.881784E-016,2.000000000000002));
#783=DIRECTION('',(1.0,0.0,0.0));
#784=DIRECTION('',(0.0,0.0,-1.0));
#785=AXIS2_PLACEMENT_3D('',#782,#783,#784);
#786=PLANE('',#785);
#787=ORIENTED_EDGE('',*,*,#738,.F.);
#788=ORIENTED_EDGE('',*,*,#777,.F.);
#789=EDGE_LOOP('',(#787,#788));
#790=FACE_OUTER_BOUND('',#789,.T.);
#791=ADVANCED_FACE('',(#790),#786,.F.);
#792=CARTESIAN_POINT('',(3.500000000000000,0.0,2.000000000000002));
#793=DIRECTION('',(1.0,0.0,0.0));
#794=DIRECTION('',(0.0,0.0,-1.0));
#795=AXIS2_PLACEMENT_3D('',#792,#793,#794);
#796=PLANE('',#795);
#797=ORIENTED_EDGE('',*,*,#753,.T.);
#798=ORIENTED_EDGE('',*,*,#769,.T.);
#799=EDGE_LOOP('',(#797,#798));
#800=FACE_OUTER_BOUND('',#799,.T.);
#801=ADVANCED_FACE('',(#800),#796,.T.);
#802=CLOSED_SHELL('',(#757,#781,#791,#801));
#803=MANIFOLD_SOLID_BREP('896',#802);
#804=COLOUR_RGB('250',0.330000000000000,0.330000000000000,0.330000000000000);
#805=SURFACE_STYLE_USAGE(.BOTH.,#806);
#806=SURFACE_SIDE_STYLE('NONE',(#807));
#807=SURFACE_STYLE_FILL_AREA(#808);
#808=FILL_AREA_STYLE('NONE',(#809));
#809=FILL_AREA_STYLE_COLOUR('NONE',#804);
#810=PRESENTATION_STYLE_ASSIGNMENT((#805));
#811=STYLED_ITEM('NONE',(#810),#803);
#812=CARTESIAN_POINT('',(-3.500000000000000,0.0,2.0));
#813=DIRECTION('',(1.0,-2.220446E-016,0.0));
#814=DIRECTION('',(0.0,1.0,0.0));
#815=AXIS2_PLACEMENT_3D('',#812,#813,#814);
#816=CYLINDRICAL_SURFACE('',#815,2.0);
#817=CARTESIAN_POINT('',(-2.500000000000000,2.000000000000000,2.0));
#818=VERTEX_POINT('',#817);
#819=CARTESIAN_POINT('',(-3.500000000000000,2.0,2.0));
#820=VERTEX_POINT('',#819);
#821=CARTESIAN_POINT('',(-2.500000000000000,2.000000000000000,2.0));
#822=DIRECTION('',(-1.0,0.0,0.0));
#823=VECTOR('',#822,1.0);
#824=LINE('',#821,#823);
#825=EDGE_CURVE('',#818,#820,#824,.T.);
#826=ORIENTED_EDGE('',*,*,#825,.F.);
#827=CARTESIAN_POINT('',(-2.500000000000000,-2.0,2.000000000000000));
#828=VERTEX_POINT('',#827);
#829=CARTESIAN_POINT('',(-2.500000000000000,-2.220446E-016,2.0));
#830=DIRECTION('',(-1.0,0.0,0.0));
#831=DIRECTION('',(0.0,1.0,0.0));
#832=AXIS2_PLACEMENT_3D('',#829,#830,#831);
#833=CIRCLE('',#832,2.0);
#834=EDGE_CURVE('',#818,#828,#833,.T.);
#835=ORIENTED_EDGE('',*,*,#834,.T.);
#836=CARTESIAN_POINT('',(-3.500000000000000,-2.0,2.000000000000000));
#837=VERTEX_POINT('',#836);
#838=CARTESIAN_POINT('',(-2.500000000000000,-2.0,2.000000000000000));
#839=DIRECTION('',(-1.0,0.0,0.0));
#840=VECTOR('',#839,1.0);
#841=LINE('',#838,#840);
#842=EDGE_CURVE('',#828,#837,#841,.T.);
#843=ORIENTED_EDGE('',*,*,#842,.T.);
#844=CARTESIAN_POINT('',(-3.500000000000000,0.0,2.0));
#845=DIRECTION('',(1.0,0.0,0.0));
#846=DIRECTION('',(0.0,1.0,0.0));
#847=AXIS2_PLACEMENT_3D('',#844,#845,#846);
#848=CIRCLE('',#847,2.0);
#849=EDGE_CURVE('',#837,#820,#848,.T.);
#850=ORIENTED_EDGE('',*,*,#849,.T.);
#851=EDGE_LOOP('',(#826,#835,#843,#850));
#852=FACE_OUTER_BOUND('',#851,.T.);
#853=ADVANCED_FACE('',(#852),#816,.T.);
#854=CARTESIAN_POINT('',(-3.500000000000000,0.0,2.0));
#855=DIRECTION('',(1.0,-2.220446E-016,0.0));
#856=DIRECTION('',(0.0,1.0,0.0));
#857=AXIS2_PLACEMENT_3D('',#854,#855,#856);
#858=CYLINDRICAL_SURFACE('',#857,2.0);
#859=ORIENTED_EDGE('',*,*,#825,.T.);
#860=CARTESIAN_POINT('',(-3.500000000000000,0.0,2.0));
#861=DIRECTION('',(1.0,0.0,0.0));
#862=DIRECTION('',(0.0,1.0,0.0));
#863=AXIS2_PLACEMENT_3D('',#860,#861,#862);
#864=CIRCLE('',#863,2.0);
#865=EDGE_CURVE('',#820,#837,#864,.T.);
#866=ORIENTED_EDGE('',*,*,#865,.T.);
#867=ORIENTED_EDGE('',*,*,#842,.F.);
#868=CARTESIAN_POINT('',(-2.500000000000000,-2.220446E-016,2.0));
#869=DIRECTION('',(-1.0,0.0,0.0));
#870=DIRECTION('',(0.0,1.0,0.0));
#871=AXIS2_PLACEMENT_3D('',#868,#869,#870);
#872=CIRCLE('',#871,2.0);
#873=EDGE_CURVE('',#828,#818,#872,.T.);
#874=ORIENTED_EDGE('',*,*,#873,.T.);
#875=EDGE_LOOP('',(#859,#866,#867,#874));
#876=FACE_OUTER_BOUND('',#875,.T.);
#877=ADVANCED_FACE('',(#876),#858,.T.);
#878=CARTESIAN_POINT('',(-3.500000000000000,0.0,2.0));
#879=DIRECTION('',(1.0,0.0,0.0));
#880=DIRECTION('',(0.0,0.0,-1.0));
#881=AXIS2_PLACEMENT_3D('',#878,#879,#880);
#882=PLANE('',#881);
#883=ORIENTED_EDGE('',*,*,#865,.F.);
#884=ORIENTED_EDGE('',*,*,#849,.F.);
#885=EDGE_LOOP('',(#883,#884));
#886=FACE_OUTER_BOUND('',#885,.T.);
#887=ADVANCED_FACE('',(#886),#882,.F.);
#888=CARTESIAN_POINT('',(-2.500000000000000,-2.220446E-016,2.0));
#889=DIRECTION('',(1.0,0.0,0.0));
#890=DIRECTION('',(0.0,0.0,-1.0));
#891=AXIS2_PLACEMENT_3D('',#888,#889,#890);
#892=PLANE('',#891);
#893=ORIENTED_EDGE('',*,*,#834,.F.);
#894=ORIENTED_EDGE('',*,*,#873,.F.);
#895=EDGE_LOOP('',(#893,#894));
#896=FACE_OUTER_BOUND('',#895,.T.);
#897=ADVANCED_FACE('',(#896),#892,.T.);
#898=CLOSED_SHELL('',(#853,#877,#887,#897));
#899=MANIFOLD_SOLID_BREP('892',#898);
#900=STYLED_ITEM('NONE',(#810),#899);
#901=CARTESIAN_POINT('',(-1.499999999999999,0.0,2.000000000000001));
#902=DIRECTION('',(-1.0,0.0,0.0));
#903=DIRECTION('',(0.0,1.0,0.0));
#904=AXIS2_PLACEMENT_3D('',#901,#902,#903);
#905=CYLINDRICAL_SURFACE('',#904,2.0);
#906=CARTESIAN_POINT('',(-2.499999999999999,2.0,2.000000000000001));
#907=VERTEX_POINT('',#906);
#908=CARTESIAN_POINT('',(-1.499999999999999,2.0,2.000000000000001));
#909=VERTEX_POINT('',#908);
#910=CARTESIAN_POINT('',(-2.499999999999999,2.0,2.000000000000001));
#911=DIRECTION('',(1.0,0.0,0.0));
#912=VECTOR('',#911,1.0);
#913=LINE('',#910,#912);
#914=EDGE_CURVE('',#907,#909,#913,.T.);
#915=ORIENTED_EDGE('',*,*,#914,.F.);
#916=CARTESIAN_POINT('',(-2.499999999999999,-2.0,2.000000000000001));
#917=VERTEX_POINT('',#916);
#918=CARTESIAN_POINT('',(-2.499999999999999,0.0,2.000000000000001));
#919=DIRECTION('',(1.0,0.0,0.0));
#920=DIRECTION('',(0.0,1.0,0.0));
#921=AXIS2_PLACEMENT_3D('',#918,#919,#920);
#922=CIRCLE('',#921,2.0);
#923=EDGE_CURVE('',#907,#917,#922,.T.);
#924=ORIENTED_EDGE('',*,*,#923,.T.);
#925=CARTESIAN_POINT('',(-1.499999999999999,-2.0,2.000000000000001));
#926=VERTEX_POINT('',#925);
#927=CARTESIAN_POINT('',(-2.499999999999999,-2.0,2.000000000000001));
#928=DIRECTION('',(1.0,0.0,0.0));
#929=VECTOR('',#928,1.0);
#930=LINE('',#927,#929);
#931=EDGE_CURVE('',#917,#926,#930,.T.);
#932=ORIENTED_EDGE('',*,*,#931,.T.);
#933=CARTESIAN_POINT('',(-1.499999999999999,0.0,2.000000000000001));
#934=DIRECTION('',(1.0,0.0,0.0));
#935=DIRECTION('',(0.0,1.0,0.0));
#936=AXIS2_PLACEMENT_3D('',#933,#934,#935);
#937=CIRCLE('',#936,2.0);
#938=EDGE_CURVE('',#909,#926,#937,.T.);
#939=ORIENTED_EDGE('',*,*,#938,.F.);
#940=EDGE_LOOP('',(#915,#924,#932,#939));
#941=FACE_OUTER_BOUND('',#940,.T.);
#942=ADVANCED_FACE('',(#941),#905,.T.);
#943=CARTESIAN_POINT('',(-1.499999999999999,0.0,2.000000000000001));
#944=DIRECTION('',(-1.0,0.0,0.0));
#945=DIRECTION('',(0.0,1.0,0.0));
#946=AXIS2_PLACEMENT_3D('',#943,#944,#945);
#947=CYLINDRICAL_SURFACE('',#946,2.0);
#948=ORIENTED_EDGE('',*,*,#914,.T.);
#949=CARTESIAN_POINT('',(-1.499999999999999,0.0,2.000000000000001));
#950=DIRECTION('',(1.0,0.0,0.0));
#951=DIRECTION('',(0.0,1.0,0.0));
#952=AXIS2_PLACEMENT_3D('',#949,#950,#951);
#953=CIRCLE('',#952,2.0);
#954=EDGE_CURVE('',#926,#909,#953,.T.);
#955=ORIENTED_EDGE('',*,*,#954,.F.);
#956=ORIENTED_EDGE('',*,*,#931,.F.);
#957=CARTESIAN_POINT('',(-2.499999999999999,0.0,2.000000000000001));
#958=DIRECTION('',(1.0,0.0,0.0));
#959=DIRECTION('',(0.0,1.0,0.0));
#960=AXIS2_PLACEMENT_3D('',#957,#958,#959);
#961=CIRCLE('',#960,2.0);
#962=EDGE_CURVE('',#917,#907,#961,.T.);
#963=ORIENTED_EDGE('',*,*,#962,.T.);
#964=EDGE_LOOP('',(#948,#955,#956,#963));
#965=FACE_OUTER_BOUND('',#964,.T.);
#966=ADVANCED_FACE('',(#965),#947,.T.);
#967=CARTESIAN_POINT('',(-2.499999999999999,0.0,2.000000000000001));
#968=DIRECTION('',(1.0,0.0,0.0));
#969=DIRECTION('',(0.0,0.0,-1.0));
#970=AXIS2_PLACEMENT_3D('',#967,#968,#969);
#971=PLANE('',#970);
#972=ORIENTED_EDGE('',*,*,#923,.F.);
#973=ORIENTED_EDGE('',*,*,#962,.F.);
#974=EDGE_LOOP('',(#972,#973));
#975=FACE_OUTER_BOUND('',#974,.T.);
#976=ADVANCED_FACE('',(#975),#971,.F.);
#977=CARTESIAN_POINT('',(-1.499999999999999,0.0,2.000000000000001));
#978=DIRECTION('',(1.0,0.0,0.0));
#979=DIRECTION('',(0.0,0.0,-1.0));
#980=AXIS2_PLACEMENT_3D('',#977,#978,#979);
#981=PLANE('',#980);
#982=ORIENTED_EDGE('',*,*,#938,.T.);
#983=ORIENTED_EDGE('',*,*,#954,.T.);
#984=EDGE_LOOP('',(#982,#983));
#985=FACE_OUTER_BOUND('',#984,.T.);
#986=ADVANCED_FACE('',(#985),#981,.T.);
#987=CLOSED_SHELL('',(#942,#966,#976,#986));
#988=MANIFOLD_SOLID_BREP('88E',#987);
#989=DRAUGHTING_PRE_DEFINED_COLOUR('white');
#990=SURFACE_STYLE_USAGE(.BOTH.,#991);
#991=SURFACE_SIDE_STYLE('NONE',(#992));
#992=SURFACE_STYLE_FILL_AREA(#993);
#993=FILL_AREA_STYLE('NONE',(#994));
#994=FILL_AREA_STYLE_COLOUR('NONE',#989);
#995=PRESENTATION_STYLE_ASSIGNMENT((#990));
#996=STYLED_ITEM('NONE',(#995),#988);
#997=ADVANCED_BREP_SHAPE_REPRESENTATION('ABSR1',(#474,#714,#803,#899,#988),#28);
#998=SHAPE_REPRESENTATION_RELATIONSHIP('SRRPL1','',#997,#62);
ENDSEC;
END-ISO-10303-21;
