ISO-10303-21;
HEADER;
/* Generated by software containing ST-Developer
 * from STEP Tools, Inc. (www.steptools.com) 
 */

FILE_DESCRIPTION(
/* description */ (''),
/* implementation_level */ '2;1');

FILE_NAME(
/* name */ 'G:\\Applications\\Altium\\CernLib\\StepLib\\OMRON_SSOP4.st
p',
/* time_stamp */ '2016-11-10T14:45:04+01:00',
/* author */ ('jchouvet'),
/* organization */ (''),
/* preprocessor_version */ 'ST-DEVELOPER v16.1',
/* originating_system */ 'AutoCAD Mechanical',
/* authorisation */ '');

FILE_SCHEMA (('AUTOMOTIVE_DESIGN { 1 0 10303 214 3 1 1 }'));
ENDSEC;

DATA;
#10=MECHANICAL_DESIGN_GEOMETRIC_PRESENTATION_REPRESENTATION('',(#35,#36,
#31,#32,#33,#34),#941);
#11=DIMENSIONAL_EXPONENTS(0.,0.,0.,0.,0.,0.,0.);
#12=(
CONVERSION_BASED_UNIT('degree',#13)
NAMED_UNIT(#11)
PLANE_ANGLE_UNIT()
);
#13=PLANE_ANGLE_MEASURE_WITH_UNIT(PLANE_ANGLE_MEASURE(0.01745329252),#944);
#14=PRESENTATION_LAYER_ASSIGNMENT('1','3D',(#37,#38,#39,#40,#41,#42));
#15=FACE_BOUND('',#106,.T.);
#16=FACE_BOUND('',#112,.T.);
#17=FACE_BOUND('',#116,.T.);
#18=FACE_BOUND('',#117,.T.);
#19=FACE_BOUND('',#121,.T.);
#20=CIRCLE('',#610,0.15);
#21=CIRCLE('',#611,0.15);
#22=CIRCLE('',#617,0.7);
#23=CIRCLE('',#618,0.7);
#24=CIRCLE('',#625,0.15);
#25=CIRCLE('',#626,0.15);
#26=CYLINDRICAL_SURFACE('',#609,0.15);
#27=CYLINDRICAL_SURFACE('',#616,0.7);
#28=CYLINDRICAL_SURFACE('',#624,0.15);
#29=SHAPE_REPRESENTATION_RELATIONSHIP('SRR','None',#947,#30);
#30=ADVANCED_BREP_SHAPE_REPRESENTATION('',(#37,#38,#39,#40,#41,#42),#940);
#31=STYLED_ITEM('',(#957),#37);
#32=STYLED_ITEM('',(#957),#38);
#33=STYLED_ITEM('',(#957),#39);
#34=STYLED_ITEM('',(#957),#40);
#35=STYLED_ITEM('',(#958),#41);
#36=STYLED_ITEM('',(#959),#42);
#37=MANIFOLD_SOLID_BREP('2DA2',#578);
#38=MANIFOLD_SOLID_BREP('2DA6',#579);
#39=MANIFOLD_SOLID_BREP('2DAA',#580);
#40=MANIFOLD_SOLID_BREP('2DAE',#581);
#41=MANIFOLD_SOLID_BREP('2DB2',#582);
#42=MANIFOLD_SOLID_BREP('2FCA',#583);
#43=FACE_OUTER_BOUND('',#81,.T.);
#44=FACE_OUTER_BOUND('',#82,.T.);
#45=FACE_OUTER_BOUND('',#83,.T.);
#46=FACE_OUTER_BOUND('',#84,.T.);
#47=FACE_OUTER_BOUND('',#85,.T.);
#48=FACE_OUTER_BOUND('',#86,.T.);
#49=FACE_OUTER_BOUND('',#87,.T.);
#50=FACE_OUTER_BOUND('',#88,.T.);
#51=FACE_OUTER_BOUND('',#89,.T.);
#52=FACE_OUTER_BOUND('',#90,.T.);
#53=FACE_OUTER_BOUND('',#91,.T.);
#54=FACE_OUTER_BOUND('',#92,.T.);
#55=FACE_OUTER_BOUND('',#93,.T.);
#56=FACE_OUTER_BOUND('',#94,.T.);
#57=FACE_OUTER_BOUND('',#95,.T.);
#58=FACE_OUTER_BOUND('',#96,.T.);
#59=FACE_OUTER_BOUND('',#97,.T.);
#60=FACE_OUTER_BOUND('',#98,.T.);
#61=FACE_OUTER_BOUND('',#99,.T.);
#62=FACE_OUTER_BOUND('',#100,.T.);
#63=FACE_OUTER_BOUND('',#101,.T.);
#64=FACE_OUTER_BOUND('',#102,.T.);
#65=FACE_OUTER_BOUND('',#103,.T.);
#66=FACE_OUTER_BOUND('',#104,.T.);
#67=FACE_OUTER_BOUND('',#105,.T.);
#68=FACE_OUTER_BOUND('',#107,.T.);
#69=FACE_OUTER_BOUND('',#108,.T.);
#70=FACE_OUTER_BOUND('',#109,.T.);
#71=FACE_OUTER_BOUND('',#110,.T.);
#72=FACE_OUTER_BOUND('',#111,.T.);
#73=FACE_OUTER_BOUND('',#113,.T.);
#74=FACE_OUTER_BOUND('',#114,.T.);
#75=FACE_OUTER_BOUND('',#115,.T.);
#76=FACE_OUTER_BOUND('',#118,.T.);
#77=FACE_OUTER_BOUND('',#119,.T.);
#78=FACE_OUTER_BOUND('',#120,.T.);
#79=FACE_OUTER_BOUND('',#122,.T.);
#80=FACE_OUTER_BOUND('',#123,.T.);
#81=EDGE_LOOP('',(#367,#368,#369,#370));
#82=EDGE_LOOP('',(#371,#372,#373,#374));
#83=EDGE_LOOP('',(#375,#376,#377,#378));
#84=EDGE_LOOP('',(#379,#380,#381,#382));
#85=EDGE_LOOP('',(#383,#384,#385,#386));
#86=EDGE_LOOP('',(#387,#388,#389,#390));
#87=EDGE_LOOP('',(#391,#392,#393,#394));
#88=EDGE_LOOP('',(#395,#396,#397,#398));
#89=EDGE_LOOP('',(#399,#400,#401,#402));
#90=EDGE_LOOP('',(#403,#404,#405,#406));
#91=EDGE_LOOP('',(#407,#408,#409,#410));
#92=EDGE_LOOP('',(#411,#412,#413,#414));
#93=EDGE_LOOP('',(#415,#416,#417,#418));
#94=EDGE_LOOP('',(#419,#420,#421,#422));
#95=EDGE_LOOP('',(#423,#424,#425,#426));
#96=EDGE_LOOP('',(#427,#428,#429,#430));
#97=EDGE_LOOP('',(#431,#432,#433,#434));
#98=EDGE_LOOP('',(#435,#436,#437,#438));
#99=EDGE_LOOP('',(#439,#440,#441,#442));
#100=EDGE_LOOP('',(#443,#444,#445,#446));
#101=EDGE_LOOP('',(#447,#448,#449,#450));
#102=EDGE_LOOP('',(#451,#452,#453,#454));
#103=EDGE_LOOP('',(#455,#456,#457,#458));
#104=EDGE_LOOP('',(#459,#460,#461,#462));
#105=EDGE_LOOP('',(#463));
#106=EDGE_LOOP('',(#464));
#107=EDGE_LOOP('',(#465));
#108=EDGE_LOOP('',(#466,#467,#468,#469));
#109=EDGE_LOOP('',(#470,#471,#472,#473));
#110=EDGE_LOOP('',(#474,#475,#476,#477,#478));
#111=EDGE_LOOP('',(#479));
#112=EDGE_LOOP('',(#480));
#113=EDGE_LOOP('',(#481));
#114=EDGE_LOOP('',(#482,#483,#484,#485));
#115=EDGE_LOOP('',(#486,#487,#488,#489));
#116=EDGE_LOOP('',(#490));
#117=EDGE_LOOP('',(#491));
#118=EDGE_LOOP('',(#492,#493,#494,#495,#496));
#119=EDGE_LOOP('',(#497,#498,#499,#500));
#120=EDGE_LOOP('',(#501));
#121=EDGE_LOOP('',(#502));
#122=EDGE_LOOP('',(#503));
#123=EDGE_LOOP('',(#504));
#124=LINE('',#786,#187);
#125=LINE('',#788,#188);
#126=LINE('',#790,#189);
#127=LINE('',#791,#190);
#128=LINE('',#794,#191);
#129=LINE('',#796,#192);
#130=LINE('',#797,#193);
#131=LINE('',#800,#194);
#132=LINE('',#802,#195);
#133=LINE('',#803,#196);
#134=LINE('',#805,#197);
#135=LINE('',#806,#198);
#136=LINE('',#812,#199);
#137=LINE('',#814,#200);
#138=LINE('',#816,#201);
#139=LINE('',#817,#202);
#140=LINE('',#820,#203);
#141=LINE('',#822,#204);
#142=LINE('',#823,#205);
#143=LINE('',#826,#206);
#144=LINE('',#828,#207);
#145=LINE('',#829,#208);
#146=LINE('',#831,#209);
#147=LINE('',#832,#210);
#148=LINE('',#838,#211);
#149=LINE('',#840,#212);
#150=LINE('',#842,#213);
#151=LINE('',#843,#214);
#152=LINE('',#846,#215);
#153=LINE('',#848,#216);
#154=LINE('',#849,#217);
#155=LINE('',#852,#218);
#156=LINE('',#854,#219);
#157=LINE('',#855,#220);
#158=LINE('',#857,#221);
#159=LINE('',#858,#222);
#160=LINE('',#864,#223);
#161=LINE('',#866,#224);
#162=LINE('',#868,#225);
#163=LINE('',#869,#226);
#164=LINE('',#872,#227);
#165=LINE('',#874,#228);
#166=LINE('',#875,#229);
#167=LINE('',#878,#230);
#168=LINE('',#880,#231);
#169=LINE('',#881,#232);
#170=LINE('',#883,#233);
#171=LINE('',#884,#234);
#172=LINE('',#896,#235);
#173=LINE('',#898,#236);
#174=LINE('',#900,#237);
#175=LINE('',#901,#238);
#176=LINE('',#904,#239);
#177=LINE('',#906,#240);
#178=LINE('',#907,#241);
#179=LINE('',#910,#242);
#180=LINE('',#912,#243);
#181=LINE('',#913,#244);
#182=LINE('',#922,#245);
#183=LINE('',#924,#246);
#184=LINE('',#925,#247);
#185=LINE('',#927,#248);
#186=LINE('',#929,#249);
#187=VECTOR('',#633,0.3);
#188=VECTOR('',#634,0.15);
#189=VECTOR('',#635,0.3);
#190=VECTOR('',#636,0.15);
#191=VECTOR('',#639,0.46);
#192=VECTOR('',#640,0.46);
#193=VECTOR('',#641,0.15);
#194=VECTOR('',#644,0.3);
#195=VECTOR('',#645,0.3);
#196=VECTOR('',#646,0.15);
#197=VECTOR('',#649,0.46);
#198=VECTOR('',#650,0.46);
#199=VECTOR('',#657,0.3);
#200=VECTOR('',#658,0.15);
#201=VECTOR('',#659,0.3);
#202=VECTOR('',#660,0.15);
#203=VECTOR('',#663,0.46);
#204=VECTOR('',#664,0.46);
#205=VECTOR('',#665,0.15);
#206=VECTOR('',#668,0.3);
#207=VECTOR('',#669,0.3);
#208=VECTOR('',#670,0.15);
#209=VECTOR('',#673,0.46);
#210=VECTOR('',#674,0.46);
#211=VECTOR('',#681,0.3);
#212=VECTOR('',#682,0.15);
#213=VECTOR('',#683,0.3);
#214=VECTOR('',#684,0.15);
#215=VECTOR('',#687,0.46);
#216=VECTOR('',#688,0.46);
#217=VECTOR('',#689,0.15);
#218=VECTOR('',#692,0.3);
#219=VECTOR('',#693,0.3);
#220=VECTOR('',#694,0.15);
#221=VECTOR('',#697,0.46);
#222=VECTOR('',#698,0.46);
#223=VECTOR('',#705,0.3);
#224=VECTOR('',#706,0.15);
#225=VECTOR('',#707,0.3);
#226=VECTOR('',#708,0.15);
#227=VECTOR('',#711,0.46);
#228=VECTOR('',#712,0.46);
#229=VECTOR('',#713,0.15);
#230=VECTOR('',#716,0.3);
#231=VECTOR('',#717,0.3);
#232=VECTOR('',#718,0.15);
#233=VECTOR('',#721,0.46);
#234=VECTOR('',#722,0.46);
#235=VECTOR('',#737,0.3609683862589);
#236=VECTOR('',#738,1.91942758753235);
#237=VECTOR('',#739,0.3609683862589);
#238=VECTOR('',#740,1.9);
#239=VECTOR('',#743,1.55273259624838);
#240=VECTOR('',#744,2.04);
#241=VECTOR('',#745,1.55273259624838);
#242=VECTOR('',#748,3.4);
#243=VECTOR('',#749,1.80292124065362);
#244=VECTOR('',#750,3.8);
#245=VECTOR('',#761,1.9);
#246=VECTOR('',#762,1.80292124065362);
#247=VECTOR('',#763,2.04);
#248=VECTOR('',#766,3.4);
#249=VECTOR('',#769,3.8);
#250=VERTEX_POINT('',#784);
#251=VERTEX_POINT('',#785);
#252=VERTEX_POINT('',#787);
#253=VERTEX_POINT('',#789);
#254=VERTEX_POINT('',#793);
#255=VERTEX_POINT('',#795);
#256=VERTEX_POINT('',#799);
#257=VERTEX_POINT('',#801);
#258=VERTEX_POINT('',#810);
#259=VERTEX_POINT('',#811);
#260=VERTEX_POINT('',#813);
#261=VERTEX_POINT('',#815);
#262=VERTEX_POINT('',#819);
#263=VERTEX_POINT('',#821);
#264=VERTEX_POINT('',#825);
#265=VERTEX_POINT('',#827);
#266=VERTEX_POINT('',#836);
#267=VERTEX_POINT('',#837);
#268=VERTEX_POINT('',#839);
#269=VERTEX_POINT('',#841);
#270=VERTEX_POINT('',#845);
#271=VERTEX_POINT('',#847);
#272=VERTEX_POINT('',#851);
#273=VERTEX_POINT('',#853);
#274=VERTEX_POINT('',#862);
#275=VERTEX_POINT('',#863);
#276=VERTEX_POINT('',#865);
#277=VERTEX_POINT('',#867);
#278=VERTEX_POINT('',#871);
#279=VERTEX_POINT('',#873);
#280=VERTEX_POINT('',#877);
#281=VERTEX_POINT('',#879);
#282=VERTEX_POINT('',#888);
#283=VERTEX_POINT('',#890);
#284=VERTEX_POINT('',#894);
#285=VERTEX_POINT('',#895);
#286=VERTEX_POINT('',#897);
#287=VERTEX_POINT('',#899);
#288=VERTEX_POINT('',#903);
#289=VERTEX_POINT('',#905);
#290=VERTEX_POINT('',#909);
#291=VERTEX_POINT('',#911);
#292=VERTEX_POINT('',#915);
#293=VERTEX_POINT('',#917);
#294=VERTEX_POINT('',#921);
#295=VERTEX_POINT('',#923);
#296=VERTEX_POINT('',#932);
#297=VERTEX_POINT('',#934);
#298=EDGE_CURVE('',#250,#251,#124,.T.);
#299=EDGE_CURVE('',#251,#252,#125,.T.);
#300=EDGE_CURVE('',#253,#252,#126,.T.);
#301=EDGE_CURVE('',#250,#253,#127,.T.);
#302=EDGE_CURVE('',#254,#250,#128,.T.);
#303=EDGE_CURVE('',#255,#253,#129,.T.);
#304=EDGE_CURVE('',#254,#255,#130,.T.);
#305=EDGE_CURVE('',#256,#254,#131,.T.);
#306=EDGE_CURVE('',#257,#255,#132,.T.);
#307=EDGE_CURVE('',#256,#257,#133,.T.);
#308=EDGE_CURVE('',#251,#256,#134,.T.);
#309=EDGE_CURVE('',#252,#257,#135,.T.);
#310=EDGE_CURVE('',#258,#259,#136,.T.);
#311=EDGE_CURVE('',#259,#260,#137,.T.);
#312=EDGE_CURVE('',#261,#260,#138,.T.);
#313=EDGE_CURVE('',#258,#261,#139,.T.);
#314=EDGE_CURVE('',#262,#258,#140,.T.);
#315=EDGE_CURVE('',#263,#261,#141,.T.);
#316=EDGE_CURVE('',#262,#263,#142,.T.);
#317=EDGE_CURVE('',#264,#262,#143,.T.);
#318=EDGE_CURVE('',#265,#263,#144,.T.);
#319=EDGE_CURVE('',#264,#265,#145,.T.);
#320=EDGE_CURVE('',#259,#264,#146,.T.);
#321=EDGE_CURVE('',#260,#265,#147,.T.);
#322=EDGE_CURVE('',#266,#267,#148,.T.);
#323=EDGE_CURVE('',#267,#268,#149,.T.);
#324=EDGE_CURVE('',#269,#268,#150,.T.);
#325=EDGE_CURVE('',#266,#269,#151,.T.);
#326=EDGE_CURVE('',#270,#266,#152,.T.);
#327=EDGE_CURVE('',#271,#269,#153,.T.);
#328=EDGE_CURVE('',#270,#271,#154,.T.);
#329=EDGE_CURVE('',#272,#270,#155,.T.);
#330=EDGE_CURVE('',#273,#271,#156,.T.);
#331=EDGE_CURVE('',#272,#273,#157,.T.);
#332=EDGE_CURVE('',#267,#272,#158,.T.);
#333=EDGE_CURVE('',#268,#273,#159,.T.);
#334=EDGE_CURVE('',#274,#275,#160,.T.);
#335=EDGE_CURVE('',#275,#276,#161,.T.);
#336=EDGE_CURVE('',#277,#276,#162,.T.);
#337=EDGE_CURVE('',#274,#277,#163,.T.);
#338=EDGE_CURVE('',#278,#274,#164,.T.);
#339=EDGE_CURVE('',#279,#277,#165,.T.);
#340=EDGE_CURVE('',#278,#279,#166,.T.);
#341=EDGE_CURVE('',#280,#278,#167,.T.);
#342=EDGE_CURVE('',#281,#279,#168,.T.);
#343=EDGE_CURVE('',#280,#281,#169,.T.);
#344=EDGE_CURVE('',#275,#280,#170,.T.);
#345=EDGE_CURVE('',#276,#281,#171,.T.);
#346=EDGE_CURVE('',#282,#282,#20,.T.);
#347=EDGE_CURVE('',#283,#283,#21,.T.);
#348=EDGE_CURVE('',#284,#285,#172,.T.);
#349=EDGE_CURVE('',#285,#286,#173,.T.);
#350=EDGE_CURVE('',#286,#287,#174,.T.);
#351=EDGE_CURVE('',#287,#284,#175,.T.);
#352=EDGE_CURVE('',#288,#285,#176,.T.);
#353=EDGE_CURVE('',#288,#289,#177,.T.);
#354=EDGE_CURVE('',#286,#289,#178,.T.);
#355=EDGE_CURVE('',#284,#290,#179,.T.);
#356=EDGE_CURVE('',#290,#291,#180,.T.);
#357=EDGE_CURVE('',#291,#288,#181,.T.);
#358=EDGE_CURVE('',#292,#292,#22,.T.);
#359=EDGE_CURVE('',#293,#293,#23,.T.);
#360=EDGE_CURVE('',#290,#294,#182,.T.);
#361=EDGE_CURVE('',#295,#294,#183,.T.);
#362=EDGE_CURVE('',#295,#291,#184,.T.);
#363=EDGE_CURVE('',#294,#287,#185,.T.);
#364=EDGE_CURVE('',#289,#295,#186,.T.);
#365=EDGE_CURVE('',#296,#296,#24,.T.);
#366=EDGE_CURVE('',#297,#297,#25,.T.);
#367=ORIENTED_EDGE('',*,*,#298,.T.);
#368=ORIENTED_EDGE('',*,*,#299,.T.);
#369=ORIENTED_EDGE('',*,*,#300,.F.);
#370=ORIENTED_EDGE('',*,*,#301,.F.);
#371=ORIENTED_EDGE('',*,*,#302,.T.);
#372=ORIENTED_EDGE('',*,*,#301,.T.);
#373=ORIENTED_EDGE('',*,*,#303,.F.);
#374=ORIENTED_EDGE('',*,*,#304,.F.);
#375=ORIENTED_EDGE('',*,*,#305,.T.);
#376=ORIENTED_EDGE('',*,*,#304,.T.);
#377=ORIENTED_EDGE('',*,*,#306,.F.);
#378=ORIENTED_EDGE('',*,*,#307,.F.);
#379=ORIENTED_EDGE('',*,*,#308,.T.);
#380=ORIENTED_EDGE('',*,*,#307,.T.);
#381=ORIENTED_EDGE('',*,*,#309,.F.);
#382=ORIENTED_EDGE('',*,*,#299,.F.);
#383=ORIENTED_EDGE('',*,*,#309,.T.);
#384=ORIENTED_EDGE('',*,*,#306,.T.);
#385=ORIENTED_EDGE('',*,*,#303,.T.);
#386=ORIENTED_EDGE('',*,*,#300,.T.);
#387=ORIENTED_EDGE('',*,*,#308,.F.);
#388=ORIENTED_EDGE('',*,*,#298,.F.);
#389=ORIENTED_EDGE('',*,*,#302,.F.);
#390=ORIENTED_EDGE('',*,*,#305,.F.);
#391=ORIENTED_EDGE('',*,*,#310,.T.);
#392=ORIENTED_EDGE('',*,*,#311,.T.);
#393=ORIENTED_EDGE('',*,*,#312,.F.);
#394=ORIENTED_EDGE('',*,*,#313,.F.);
#395=ORIENTED_EDGE('',*,*,#314,.T.);
#396=ORIENTED_EDGE('',*,*,#313,.T.);
#397=ORIENTED_EDGE('',*,*,#315,.F.);
#398=ORIENTED_EDGE('',*,*,#316,.F.);
#399=ORIENTED_EDGE('',*,*,#317,.T.);
#400=ORIENTED_EDGE('',*,*,#316,.T.);
#401=ORIENTED_EDGE('',*,*,#318,.F.);
#402=ORIENTED_EDGE('',*,*,#319,.F.);
#403=ORIENTED_EDGE('',*,*,#320,.T.);
#404=ORIENTED_EDGE('',*,*,#319,.T.);
#405=ORIENTED_EDGE('',*,*,#321,.F.);
#406=ORIENTED_EDGE('',*,*,#311,.F.);
#407=ORIENTED_EDGE('',*,*,#321,.T.);
#408=ORIENTED_EDGE('',*,*,#318,.T.);
#409=ORIENTED_EDGE('',*,*,#315,.T.);
#410=ORIENTED_EDGE('',*,*,#312,.T.);
#411=ORIENTED_EDGE('',*,*,#320,.F.);
#412=ORIENTED_EDGE('',*,*,#310,.F.);
#413=ORIENTED_EDGE('',*,*,#314,.F.);
#414=ORIENTED_EDGE('',*,*,#317,.F.);
#415=ORIENTED_EDGE('',*,*,#322,.T.);
#416=ORIENTED_EDGE('',*,*,#323,.T.);
#417=ORIENTED_EDGE('',*,*,#324,.F.);
#418=ORIENTED_EDGE('',*,*,#325,.F.);
#419=ORIENTED_EDGE('',*,*,#326,.T.);
#420=ORIENTED_EDGE('',*,*,#325,.T.);
#421=ORIENTED_EDGE('',*,*,#327,.F.);
#422=ORIENTED_EDGE('',*,*,#328,.F.);
#423=ORIENTED_EDGE('',*,*,#329,.T.);
#424=ORIENTED_EDGE('',*,*,#328,.T.);
#425=ORIENTED_EDGE('',*,*,#330,.F.);
#426=ORIENTED_EDGE('',*,*,#331,.F.);
#427=ORIENTED_EDGE('',*,*,#332,.T.);
#428=ORIENTED_EDGE('',*,*,#331,.T.);
#429=ORIENTED_EDGE('',*,*,#333,.F.);
#430=ORIENTED_EDGE('',*,*,#323,.F.);
#431=ORIENTED_EDGE('',*,*,#333,.T.);
#432=ORIENTED_EDGE('',*,*,#330,.T.);
#433=ORIENTED_EDGE('',*,*,#327,.T.);
#434=ORIENTED_EDGE('',*,*,#324,.T.);
#435=ORIENTED_EDGE('',*,*,#332,.F.);
#436=ORIENTED_EDGE('',*,*,#322,.F.);
#437=ORIENTED_EDGE('',*,*,#326,.F.);
#438=ORIENTED_EDGE('',*,*,#329,.F.);
#439=ORIENTED_EDGE('',*,*,#334,.T.);
#440=ORIENTED_EDGE('',*,*,#335,.T.);
#441=ORIENTED_EDGE('',*,*,#336,.F.);
#442=ORIENTED_EDGE('',*,*,#337,.F.);
#443=ORIENTED_EDGE('',*,*,#338,.T.);
#444=ORIENTED_EDGE('',*,*,#337,.T.);
#445=ORIENTED_EDGE('',*,*,#339,.F.);
#446=ORIENTED_EDGE('',*,*,#340,.F.);
#447=ORIENTED_EDGE('',*,*,#341,.T.);
#448=ORIENTED_EDGE('',*,*,#340,.T.);
#449=ORIENTED_EDGE('',*,*,#342,.F.);
#450=ORIENTED_EDGE('',*,*,#343,.F.);
#451=ORIENTED_EDGE('',*,*,#344,.T.);
#452=ORIENTED_EDGE('',*,*,#343,.T.);
#453=ORIENTED_EDGE('',*,*,#345,.F.);
#454=ORIENTED_EDGE('',*,*,#335,.F.);
#455=ORIENTED_EDGE('',*,*,#345,.T.);
#456=ORIENTED_EDGE('',*,*,#342,.T.);
#457=ORIENTED_EDGE('',*,*,#339,.T.);
#458=ORIENTED_EDGE('',*,*,#336,.T.);
#459=ORIENTED_EDGE('',*,*,#344,.F.);
#460=ORIENTED_EDGE('',*,*,#334,.F.);
#461=ORIENTED_EDGE('',*,*,#338,.F.);
#462=ORIENTED_EDGE('',*,*,#341,.F.);
#463=ORIENTED_EDGE('',*,*,#346,.T.);
#464=ORIENTED_EDGE('',*,*,#347,.F.);
#465=ORIENTED_EDGE('',*,*,#346,.F.);
#466=ORIENTED_EDGE('',*,*,#348,.T.);
#467=ORIENTED_EDGE('',*,*,#349,.T.);
#468=ORIENTED_EDGE('',*,*,#350,.T.);
#469=ORIENTED_EDGE('',*,*,#351,.T.);
#470=ORIENTED_EDGE('',*,*,#349,.F.);
#471=ORIENTED_EDGE('',*,*,#352,.F.);
#472=ORIENTED_EDGE('',*,*,#353,.T.);
#473=ORIENTED_EDGE('',*,*,#354,.F.);
#474=ORIENTED_EDGE('',*,*,#348,.F.);
#475=ORIENTED_EDGE('',*,*,#355,.T.);
#476=ORIENTED_EDGE('',*,*,#356,.T.);
#477=ORIENTED_EDGE('',*,*,#357,.T.);
#478=ORIENTED_EDGE('',*,*,#352,.T.);
#479=ORIENTED_EDGE('',*,*,#358,.T.);
#480=ORIENTED_EDGE('',*,*,#359,.F.);
#481=ORIENTED_EDGE('',*,*,#358,.F.);
#482=ORIENTED_EDGE('',*,*,#356,.F.);
#483=ORIENTED_EDGE('',*,*,#360,.T.);
#484=ORIENTED_EDGE('',*,*,#361,.F.);
#485=ORIENTED_EDGE('',*,*,#362,.T.);
#486=ORIENTED_EDGE('',*,*,#351,.F.);
#487=ORIENTED_EDGE('',*,*,#363,.F.);
#488=ORIENTED_EDGE('',*,*,#360,.F.);
#489=ORIENTED_EDGE('',*,*,#355,.F.);
#490=ORIENTED_EDGE('',*,*,#347,.T.);
#491=ORIENTED_EDGE('',*,*,#359,.T.);
#492=ORIENTED_EDGE('',*,*,#350,.F.);
#493=ORIENTED_EDGE('',*,*,#354,.T.);
#494=ORIENTED_EDGE('',*,*,#364,.T.);
#495=ORIENTED_EDGE('',*,*,#361,.T.);
#496=ORIENTED_EDGE('',*,*,#363,.T.);
#497=ORIENTED_EDGE('',*,*,#353,.F.);
#498=ORIENTED_EDGE('',*,*,#357,.F.);
#499=ORIENTED_EDGE('',*,*,#362,.F.);
#500=ORIENTED_EDGE('',*,*,#364,.F.);
#501=ORIENTED_EDGE('',*,*,#365,.F.);
#502=ORIENTED_EDGE('',*,*,#366,.F.);
#503=ORIENTED_EDGE('',*,*,#366,.T.);
#504=ORIENTED_EDGE('',*,*,#365,.T.);
#505=PLANE('',#585);
#506=PLANE('',#586);
#507=PLANE('',#587);
#508=PLANE('',#588);
#509=PLANE('',#589);
#510=PLANE('',#590);
#511=PLANE('',#591);
#512=PLANE('',#592);
#513=PLANE('',#593);
#514=PLANE('',#594);
#515=PLANE('',#595);
#516=PLANE('',#596);
#517=PLANE('',#597);
#518=PLANE('',#598);
#519=PLANE('',#599);
#520=PLANE('',#600);
#521=PLANE('',#601);
#522=PLANE('',#602);
#523=PLANE('',#603);
#524=PLANE('',#604);
#525=PLANE('',#605);
#526=PLANE('',#606);
#527=PLANE('',#607);
#528=PLANE('',#608);
#529=PLANE('',#612);
#530=PLANE('',#613);
#531=PLANE('',#614);
#532=PLANE('',#615);
#533=PLANE('',#619);
#534=PLANE('',#620);
#535=PLANE('',#621);
#536=PLANE('',#622);
#537=PLANE('',#623);
#538=PLANE('',#627);
#539=PLANE('',#628);
#540=ADVANCED_FACE('',(#43),#505,.T.);
#541=ADVANCED_FACE('',(#44),#506,.T.);
#542=ADVANCED_FACE('',(#45),#507,.T.);
#543=ADVANCED_FACE('',(#46),#508,.T.);
#544=ADVANCED_FACE('',(#47),#509,.T.);
#545=ADVANCED_FACE('',(#48),#510,.F.);
#546=ADVANCED_FACE('',(#49),#511,.T.);
#547=ADVANCED_FACE('',(#50),#512,.T.);
#548=ADVANCED_FACE('',(#51),#513,.T.);
#549=ADVANCED_FACE('',(#52),#514,.T.);
#550=ADVANCED_FACE('',(#53),#515,.T.);
#551=ADVANCED_FACE('',(#54),#516,.F.);
#552=ADVANCED_FACE('',(#55),#517,.T.);
#553=ADVANCED_FACE('',(#56),#518,.T.);
#554=ADVANCED_FACE('',(#57),#519,.T.);
#555=ADVANCED_FACE('',(#58),#520,.T.);
#556=ADVANCED_FACE('',(#59),#521,.T.);
#557=ADVANCED_FACE('',(#60),#522,.F.);
#558=ADVANCED_FACE('',(#61),#523,.T.);
#559=ADVANCED_FACE('',(#62),#524,.T.);
#560=ADVANCED_FACE('',(#63),#525,.T.);
#561=ADVANCED_FACE('',(#64),#526,.T.);
#562=ADVANCED_FACE('',(#65),#527,.T.);
#563=ADVANCED_FACE('',(#66),#528,.F.);
#564=ADVANCED_FACE('',(#67,#15),#26,.F.);
#565=ADVANCED_FACE('',(#68),#529,.T.);
#566=ADVANCED_FACE('',(#69),#530,.T.);
#567=ADVANCED_FACE('',(#70),#531,.T.);
#568=ADVANCED_FACE('',(#71),#532,.T.);
#569=ADVANCED_FACE('',(#72,#16),#27,.F.);
#570=ADVANCED_FACE('',(#73),#533,.T.);
#571=ADVANCED_FACE('',(#74),#534,.T.);
#572=ADVANCED_FACE('',(#75,#17,#18),#535,.T.);
#573=ADVANCED_FACE('',(#76),#536,.T.);
#574=ADVANCED_FACE('',(#77),#537,.F.);
#575=ADVANCED_FACE('',(#78,#19),#28,.T.);
#576=ADVANCED_FACE('',(#79),#538,.T.);
#577=ADVANCED_FACE('',(#80),#539,.F.);
#578=CLOSED_SHELL('',(#540,#541,#542,#543,#544,#545));
#579=CLOSED_SHELL('',(#546,#547,#548,#549,#550,#551));
#580=CLOSED_SHELL('',(#552,#553,#554,#555,#556,#557));
#581=CLOSED_SHELL('',(#558,#559,#560,#561,#562,#563));
#582=CLOSED_SHELL('',(#564,#565,#566,#567,#568,#569,#570,#571,#572,#573,
#574));
#583=CLOSED_SHELL('',(#575,#576,#577));
#584=AXIS2_PLACEMENT_3D('placement',#782,#629,#630);
#585=AXIS2_PLACEMENT_3D('',#783,#631,#632);
#586=AXIS2_PLACEMENT_3D('',#792,#637,#638);
#587=AXIS2_PLACEMENT_3D('',#798,#642,#643);
#588=AXIS2_PLACEMENT_3D('',#804,#647,#648);
#589=AXIS2_PLACEMENT_3D('',#807,#651,#652);
#590=AXIS2_PLACEMENT_3D('',#808,#653,#654);
#591=AXIS2_PLACEMENT_3D('',#809,#655,#656);
#592=AXIS2_PLACEMENT_3D('',#818,#661,#662);
#593=AXIS2_PLACEMENT_3D('',#824,#666,#667);
#594=AXIS2_PLACEMENT_3D('',#830,#671,#672);
#595=AXIS2_PLACEMENT_3D('',#833,#675,#676);
#596=AXIS2_PLACEMENT_3D('',#834,#677,#678);
#597=AXIS2_PLACEMENT_3D('',#835,#679,#680);
#598=AXIS2_PLACEMENT_3D('',#844,#685,#686);
#599=AXIS2_PLACEMENT_3D('',#850,#690,#691);
#600=AXIS2_PLACEMENT_3D('',#856,#695,#696);
#601=AXIS2_PLACEMENT_3D('',#859,#699,#700);
#602=AXIS2_PLACEMENT_3D('',#860,#701,#702);
#603=AXIS2_PLACEMENT_3D('',#861,#703,#704);
#604=AXIS2_PLACEMENT_3D('',#870,#709,#710);
#605=AXIS2_PLACEMENT_3D('',#876,#714,#715);
#606=AXIS2_PLACEMENT_3D('',#882,#719,#720);
#607=AXIS2_PLACEMENT_3D('',#885,#723,#724);
#608=AXIS2_PLACEMENT_3D('',#886,#725,#726);
#609=AXIS2_PLACEMENT_3D('',#887,#727,#728);
#610=AXIS2_PLACEMENT_3D('',#889,#729,#730);
#611=AXIS2_PLACEMENT_3D('',#891,#731,#732);
#612=AXIS2_PLACEMENT_3D('',#892,#733,#734);
#613=AXIS2_PLACEMENT_3D('',#893,#735,#736);
#614=AXIS2_PLACEMENT_3D('',#902,#741,#742);
#615=AXIS2_PLACEMENT_3D('',#908,#746,#747);
#616=AXIS2_PLACEMENT_3D('',#914,#751,#752);
#617=AXIS2_PLACEMENT_3D('',#916,#753,#754);
#618=AXIS2_PLACEMENT_3D('',#918,#755,#756);
#619=AXIS2_PLACEMENT_3D('',#919,#757,#758);
#620=AXIS2_PLACEMENT_3D('',#920,#759,#760);
#621=AXIS2_PLACEMENT_3D('',#926,#764,#765);
#622=AXIS2_PLACEMENT_3D('',#928,#767,#768);
#623=AXIS2_PLACEMENT_3D('',#930,#770,#771);
#624=AXIS2_PLACEMENT_3D('',#931,#772,#773);
#625=AXIS2_PLACEMENT_3D('',#933,#774,#775);
#626=AXIS2_PLACEMENT_3D('',#935,#776,#777);
#627=AXIS2_PLACEMENT_3D('',#936,#778,#779);
#628=AXIS2_PLACEMENT_3D('',#937,#780,#781);
#629=DIRECTION('axis',(0.,0.,1.));
#630=DIRECTION('refdir',(1.,0.,0.));
#631=DIRECTION('center_axis',(-1.,0.,0.));
#632=DIRECTION('ref_axis',(0.,-1.,0.));
#633=DIRECTION('',(0.,-1.,0.));
#634=DIRECTION('',(0.,0.,1.));
#635=DIRECTION('',(0.,-1.,0.));
#636=DIRECTION('',(0.,0.,1.));
#637=DIRECTION('center_axis',(0.,1.,0.));
#638=DIRECTION('ref_axis',(-1.,0.,0.));
#639=DIRECTION('',(-1.,0.,0.));
#640=DIRECTION('',(-1.,0.,0.));
#641=DIRECTION('',(0.,0.,1.));
#642=DIRECTION('center_axis',(1.,0.,0.));
#643=DIRECTION('ref_axis',(0.,1.,0.));
#644=DIRECTION('',(0.,1.,0.));
#645=DIRECTION('',(0.,1.,0.));
#646=DIRECTION('',(0.,0.,1.));
#647=DIRECTION('center_axis',(0.,-1.,0.));
#648=DIRECTION('ref_axis',(1.,0.,0.));
#649=DIRECTION('',(1.,0.,0.));
#650=DIRECTION('',(1.,0.,0.));
#651=DIRECTION('center_axis',(0.,0.,1.));
#652=DIRECTION('ref_axis',(1.,0.,0.));
#653=DIRECTION('center_axis',(0.,0.,1.));
#654=DIRECTION('ref_axis',(1.,0.,0.));
#655=DIRECTION('center_axis',(-1.,0.,0.));
#656=DIRECTION('ref_axis',(0.,-1.,0.));
#657=DIRECTION('',(0.,-1.,0.));
#658=DIRECTION('',(0.,0.,1.));
#659=DIRECTION('',(0.,-1.,0.));
#660=DIRECTION('',(0.,0.,1.));
#661=DIRECTION('center_axis',(0.,1.,0.));
#662=DIRECTION('ref_axis',(-1.,0.,0.));
#663=DIRECTION('',(-1.,0.,0.));
#664=DIRECTION('',(-1.,0.,0.));
#665=DIRECTION('',(0.,0.,1.));
#666=DIRECTION('center_axis',(1.,0.,0.));
#667=DIRECTION('ref_axis',(0.,1.,0.));
#668=DIRECTION('',(0.,1.,0.));
#669=DIRECTION('',(0.,1.,0.));
#670=DIRECTION('',(0.,0.,1.));
#671=DIRECTION('center_axis',(0.,-1.,0.));
#672=DIRECTION('ref_axis',(1.,0.,0.));
#673=DIRECTION('',(1.,0.,0.));
#674=DIRECTION('',(1.,0.,0.));
#675=DIRECTION('center_axis',(0.,0.,1.));
#676=DIRECTION('ref_axis',(1.,0.,0.));
#677=DIRECTION('center_axis',(0.,0.,1.));
#678=DIRECTION('ref_axis',(1.,0.,0.));
#679=DIRECTION('center_axis',(-1.,0.,0.));
#680=DIRECTION('ref_axis',(0.,-1.,0.));
#681=DIRECTION('',(0.,-1.,0.));
#682=DIRECTION('',(0.,0.,1.));
#683=DIRECTION('',(0.,-1.,0.));
#684=DIRECTION('',(0.,0.,1.));
#685=DIRECTION('center_axis',(0.,1.,0.));
#686=DIRECTION('ref_axis',(-1.,0.,0.));
#687=DIRECTION('',(-1.,0.,0.));
#688=DIRECTION('',(-1.,0.,0.));
#689=DIRECTION('',(0.,0.,1.));
#690=DIRECTION('center_axis',(1.,0.,0.));
#691=DIRECTION('ref_axis',(0.,1.,0.));
#692=DIRECTION('',(0.,1.,0.));
#693=DIRECTION('',(0.,1.,0.));
#694=DIRECTION('',(0.,0.,1.));
#695=DIRECTION('center_axis',(0.,-1.,0.));
#696=DIRECTION('ref_axis',(1.,0.,0.));
#697=DIRECTION('',(1.,0.,0.));
#698=DIRECTION('',(1.,0.,0.));
#699=DIRECTION('center_axis',(0.,0.,1.));
#700=DIRECTION('ref_axis',(1.,0.,0.));
#701=DIRECTION('center_axis',(0.,0.,1.));
#702=DIRECTION('ref_axis',(1.,0.,0.));
#703=DIRECTION('center_axis',(-1.,0.,0.));
#704=DIRECTION('ref_axis',(0.,-1.,0.));
#705=DIRECTION('',(0.,-1.,0.));
#706=DIRECTION('',(0.,0.,1.));
#707=DIRECTION('',(0.,-1.,0.));
#708=DIRECTION('',(0.,0.,1.));
#709=DIRECTION('center_axis',(0.,1.,0.));
#710=DIRECTION('ref_axis',(-1.,0.,0.));
#711=DIRECTION('',(-1.,0.,0.));
#712=DIRECTION('',(-1.,0.,0.));
#713=DIRECTION('',(0.,0.,1.));
#714=DIRECTION('center_axis',(1.,0.,0.));
#715=DIRECTION('ref_axis',(0.,1.,0.));
#716=DIRECTION('',(0.,1.,0.));
#717=DIRECTION('',(0.,1.,0.));
#718=DIRECTION('',(0.,0.,1.));
#719=DIRECTION('center_axis',(0.,-1.,0.));
#720=DIRECTION('ref_axis',(1.,0.,0.));
#721=DIRECTION('',(1.,0.,0.));
#722=DIRECTION('',(1.,0.,0.));
#723=DIRECTION('center_axis',(0.,0.,1.));
#724=DIRECTION('ref_axis',(1.,0.,0.));
#725=DIRECTION('center_axis',(0.,0.,1.));
#726=DIRECTION('ref_axis',(1.,0.,0.));
#727=DIRECTION('center_axis',(0.,0.,-1.));
#728=DIRECTION('ref_axis',(-1.,0.,0.));
#729=DIRECTION('center_axis',(0.,0.,-1.));
#730=DIRECTION('ref_axis',(-1.,0.,0.));
#731=DIRECTION('center_axis',(0.,0.,-1.));
#732=DIRECTION('ref_axis',(-1.,0.,0.));
#733=DIRECTION('center_axis',(0.,0.,1.));
#734=DIRECTION('ref_axis',(1.,0.,0.));
#735=DIRECTION('center_axis',(-0.692231700837162,0.,0.721675323366464));
#736=DIRECTION('ref_axis',(0.721675323366464,0.,0.692231700837162));
#737=DIRECTION('',(-0.721413968898847,0.0269103725865028,-0.691981009367214));
#738=DIRECTION('',(0.,-1.,0.));
#739=DIRECTION('',(0.721413968898847,0.0269103725865028,0.691981009367214));
#740=DIRECTION('',(0.,1.,0.));
#741=DIRECTION('center_axis',(-0.999133073092352,0.,0.0416305447121813));
#742=DIRECTION('ref_axis',(0.0416305447121814,0.,0.999133073092352));
#743=DIRECTION('',(0.0415991549208272,-0.0388258779261054,0.998379718099852));
#744=DIRECTION('',(0.,-1.,0.));
#745=DIRECTION('',(-0.0415991549208272,-0.0388258779261054,-0.998379718099852));
#746=DIRECTION('center_axis',(0.,0.999244683777023,0.0388595154802176));
#747=DIRECTION('ref_axis',(0.,-0.0388595154802176,0.999244683777023));
#748=DIRECTION('',(1.,0.,0.));
#749=DIRECTION('',(0.0415991549208272,0.0388258779261054,-0.998379718099852));
#750=DIRECTION('',(-1.,0.,0.));
#751=DIRECTION('center_axis',(0.,0.,-1.));
#752=DIRECTION('ref_axis',(-1.,0.,0.));
#753=DIRECTION('center_axis',(0.,0.,-1.));
#754=DIRECTION('ref_axis',(-1.,0.,0.));
#755=DIRECTION('center_axis',(0.,0.,-1.));
#756=DIRECTION('ref_axis',(-1.,0.,0.));
#757=DIRECTION('center_axis',(0.,0.,1.));
#758=DIRECTION('ref_axis',(1.,0.,0.));
#759=DIRECTION('center_axis',(0.999133073092352,0.,0.0416305447121813));
#760=DIRECTION('ref_axis',(0.0416305447121814,0.,-0.999133073092352));
#761=DIRECTION('',(0.,-1.,0.));
#762=DIRECTION('',(-0.0415991549208272,0.0388258779261054,0.998379718099852));
#763=DIRECTION('',(0.,1.,0.));
#764=DIRECTION('center_axis',(0.,0.,1.));
#765=DIRECTION('ref_axis',(1.,0.,0.));
#766=DIRECTION('',(-1.,0.,0.));
#767=DIRECTION('center_axis',(0.,-0.999244683777023,0.0388595154802176));
#768=DIRECTION('ref_axis',(0.,-0.0388595154802175,-0.999244683777023));
#769=DIRECTION('',(1.,0.,0.));
#770=DIRECTION('center_axis',(0.,0.,1.));
#771=DIRECTION('ref_axis',(1.,0.,0.));
#772=DIRECTION('center_axis',(0.,0.,-1.));
#773=DIRECTION('ref_axis',(-1.,0.,0.));
#774=DIRECTION('center_axis',(0.,0.,-1.));
#775=DIRECTION('ref_axis',(-1.,0.,0.));
#776=DIRECTION('center_axis',(0.,0.,1.));
#777=DIRECTION('ref_axis',(-1.,0.,0.));
#778=DIRECTION('center_axis',(0.,0.,1.));
#779=DIRECTION('ref_axis',(1.,0.,0.));
#780=DIRECTION('center_axis',(0.,0.,1.));
#781=DIRECTION('ref_axis',(1.,0.,0.));
#782=CARTESIAN_POINT('',(0.,0.,0.));
#783=CARTESIAN_POINT('Origin',(-2.1,0.785,0.));
#784=CARTESIAN_POINT('',(-2.1,0.785,0.));
#785=CARTESIAN_POINT('',(-2.1,0.485,0.));
#786=CARTESIAN_POINT('',(-2.1,0.785,0.));
#787=CARTESIAN_POINT('',(-2.1,0.485,0.15));
#788=CARTESIAN_POINT('',(-2.1,0.485,0.));
#789=CARTESIAN_POINT('',(-2.1,0.785,0.15));
#790=CARTESIAN_POINT('',(-2.1,0.785,0.15));
#791=CARTESIAN_POINT('',(-2.1,0.785,0.));
#792=CARTESIAN_POINT('Origin',(-1.64,0.785,0.));
#793=CARTESIAN_POINT('',(-1.64,0.785,0.));
#794=CARTESIAN_POINT('',(-1.64,0.785,0.));
#795=CARTESIAN_POINT('',(-1.64,0.785,0.15));
#796=CARTESIAN_POINT('',(-1.64,0.785,0.15));
#797=CARTESIAN_POINT('',(-1.64,0.785,0.));
#798=CARTESIAN_POINT('Origin',(-1.64,0.485,0.));
#799=CARTESIAN_POINT('',(-1.64,0.485,0.));
#800=CARTESIAN_POINT('',(-1.64,0.485,0.));
#801=CARTESIAN_POINT('',(-1.64,0.485,0.15));
#802=CARTESIAN_POINT('',(-1.64,0.485,0.15));
#803=CARTESIAN_POINT('',(-1.64,0.485,0.));
#804=CARTESIAN_POINT('Origin',(-2.1,0.485,0.));
#805=CARTESIAN_POINT('',(-2.1,0.485,0.));
#806=CARTESIAN_POINT('',(-2.1,0.485,0.15));
#807=CARTESIAN_POINT('Origin',(-1.87,0.635,0.15));
#808=CARTESIAN_POINT('Origin',(-1.87,0.635,0.));
#809=CARTESIAN_POINT('Origin',(-2.1,-0.485,0.));
#810=CARTESIAN_POINT('',(-2.1,-0.485,0.));
#811=CARTESIAN_POINT('',(-2.1,-0.785,0.));
#812=CARTESIAN_POINT('',(-2.1,-0.485,0.));
#813=CARTESIAN_POINT('',(-2.1,-0.785,0.15));
#814=CARTESIAN_POINT('',(-2.1,-0.785,0.));
#815=CARTESIAN_POINT('',(-2.1,-0.485,0.15));
#816=CARTESIAN_POINT('',(-2.1,-0.485,0.15));
#817=CARTESIAN_POINT('',(-2.1,-0.485,0.));
#818=CARTESIAN_POINT('Origin',(-1.64,-0.485,0.));
#819=CARTESIAN_POINT('',(-1.64,-0.485,0.));
#820=CARTESIAN_POINT('',(-1.64,-0.485,0.));
#821=CARTESIAN_POINT('',(-1.64,-0.485,0.15));
#822=CARTESIAN_POINT('',(-1.64,-0.485,0.15));
#823=CARTESIAN_POINT('',(-1.64,-0.485,0.));
#824=CARTESIAN_POINT('Origin',(-1.64,-0.785,0.));
#825=CARTESIAN_POINT('',(-1.64,-0.785,0.));
#826=CARTESIAN_POINT('',(-1.64,-0.785,0.));
#827=CARTESIAN_POINT('',(-1.64,-0.785,0.15));
#828=CARTESIAN_POINT('',(-1.64,-0.785,0.15));
#829=CARTESIAN_POINT('',(-1.64,-0.785,0.));
#830=CARTESIAN_POINT('Origin',(-2.1,-0.785,0.));
#831=CARTESIAN_POINT('',(-2.1,-0.785,0.));
#832=CARTESIAN_POINT('',(-2.1,-0.785,0.15));
#833=CARTESIAN_POINT('Origin',(-1.87,-0.635,0.15));
#834=CARTESIAN_POINT('Origin',(-1.87,-0.635,0.));
#835=CARTESIAN_POINT('Origin',(1.64,0.785,0.));
#836=CARTESIAN_POINT('',(1.64,0.785,0.));
#837=CARTESIAN_POINT('',(1.64,0.485,0.));
#838=CARTESIAN_POINT('',(1.64,0.785,0.));
#839=CARTESIAN_POINT('',(1.64,0.485,0.15));
#840=CARTESIAN_POINT('',(1.64,0.485,0.));
#841=CARTESIAN_POINT('',(1.64,0.785,0.15));
#842=CARTESIAN_POINT('',(1.64,0.785,0.15));
#843=CARTESIAN_POINT('',(1.64,0.785,0.));
#844=CARTESIAN_POINT('Origin',(2.1,0.785,0.));
#845=CARTESIAN_POINT('',(2.1,0.785,0.));
#846=CARTESIAN_POINT('',(2.1,0.785,0.));
#847=CARTESIAN_POINT('',(2.1,0.785,0.15));
#848=CARTESIAN_POINT('',(2.1,0.785,0.15));
#849=CARTESIAN_POINT('',(2.1,0.785,0.));
#850=CARTESIAN_POINT('Origin',(2.1,0.485,0.));
#851=CARTESIAN_POINT('',(2.1,0.485,0.));
#852=CARTESIAN_POINT('',(2.1,0.485,0.));
#853=CARTESIAN_POINT('',(2.1,0.485,0.15));
#854=CARTESIAN_POINT('',(2.1,0.485,0.15));
#855=CARTESIAN_POINT('',(2.1,0.485,0.));
#856=CARTESIAN_POINT('Origin',(1.64,0.485,0.));
#857=CARTESIAN_POINT('',(1.64,0.485,0.));
#858=CARTESIAN_POINT('',(1.64,0.485,0.15));
#859=CARTESIAN_POINT('Origin',(1.87,0.635,0.15));
#860=CARTESIAN_POINT('Origin',(1.87,0.635,0.));
#861=CARTESIAN_POINT('Origin',(1.64,-0.485,0.));
#862=CARTESIAN_POINT('',(1.64,-0.485,0.));
#863=CARTESIAN_POINT('',(1.64,-0.785,0.));
#864=CARTESIAN_POINT('',(1.64,-0.485,0.));
#865=CARTESIAN_POINT('',(1.64,-0.785,0.15));
#866=CARTESIAN_POINT('',(1.64,-0.785,0.));
#867=CARTESIAN_POINT('',(1.64,-0.485,0.15));
#868=CARTESIAN_POINT('',(1.64,-0.485,0.15));
#869=CARTESIAN_POINT('',(1.64,-0.485,0.));
#870=CARTESIAN_POINT('Origin',(2.1,-0.485,0.));
#871=CARTESIAN_POINT('',(2.1,-0.485,0.));
#872=CARTESIAN_POINT('',(2.1,-0.485,0.));
#873=CARTESIAN_POINT('',(2.1,-0.485,0.15));
#874=CARTESIAN_POINT('',(2.1,-0.485,0.15));
#875=CARTESIAN_POINT('',(2.1,-0.485,0.));
#876=CARTESIAN_POINT('Origin',(2.1,-0.785,0.));
#877=CARTESIAN_POINT('',(2.1,-0.785,0.));
#878=CARTESIAN_POINT('',(2.1,-0.785,0.));
#879=CARTESIAN_POINT('',(2.1,-0.785,0.15));
#880=CARTESIAN_POINT('',(2.1,-0.785,0.15));
#881=CARTESIAN_POINT('',(2.1,-0.785,0.));
#882=CARTESIAN_POINT('Origin',(1.64,-0.785,0.));
#883=CARTESIAN_POINT('',(1.64,-0.785,0.));
#884=CARTESIAN_POINT('',(1.64,-0.785,0.15));
#885=CARTESIAN_POINT('Origin',(1.87,-0.635,0.15));
#886=CARTESIAN_POINT('Origin',(1.87,-0.635,0.));
#887=CARTESIAN_POINT('Origin',(-1.275,0.635,1.8));
#888=CARTESIAN_POINT('',(-1.125,0.635,1.75));
#889=CARTESIAN_POINT('Origin',(-1.275,0.635,1.75));
#890=CARTESIAN_POINT('',(-1.125,0.635,1.8));
#891=CARTESIAN_POINT('Origin',(-1.275,0.635,1.8));
#892=CARTESIAN_POINT('Origin',(-1.275,0.635,1.75));
#893=CARTESIAN_POINT('Origin',(-1.70520381808902,0.255,1.67510836586346));
#894=CARTESIAN_POINT('',(-1.575,0.95,1.8));
#895=CARTESIAN_POINT('',(-1.83540763617805,0.959713793766176,1.55021673172691));
#896=CARTESIAN_POINT('',(-1.20123732842897,0.93605780705043,2.15851353298895));
#897=CARTESIAN_POINT('',(-1.83540763617805,-0.959713793766175,1.55021673172691));
#898=CARTESIAN_POINT('',(-1.83540763617805,0.255,1.55021673172691));
#899=CARTESIAN_POINT('',(-1.575,-0.95,1.8));
#900=CARTESIAN_POINT('',(-1.69070308995873,-0.954315986929047,1.68901747896737));
#901=CARTESIAN_POINT('',(-1.575,0.255,1.8));
#902=CARTESIAN_POINT('Origin',(-1.8625,0.51,0.9));
#903=CARTESIAN_POINT('',(-1.9,1.02,0.));
#904=CARTESIAN_POINT('',(-1.85968290699195,0.982370713192484,0.967610232193261));
#905=CARTESIAN_POINT('',(-1.9,-1.02,0.));
#906=CARTESIAN_POINT('',(-1.9,1.02,0.));
#907=CARTESIAN_POINT('',(-1.86050315910507,-0.983136281831396,0.947924181478377));
#908=CARTESIAN_POINT('Origin',(0.95,0.985,0.9));
#909=CARTESIAN_POINT('',(1.825,0.95,1.8));
#910=CARTESIAN_POINT('',(0.95,0.95,1.8));
#911=CARTESIAN_POINT('',(1.9,1.02,0.));
#912=CARTESIAN_POINT('',(1.86050315910507,0.983136281831396,0.947924181478377));
#913=CARTESIAN_POINT('',(1.9,1.02,0.));
#914=CARTESIAN_POINT('Origin',(-4.44089209850063E-16,0.,1.8));
#915=CARTESIAN_POINT('',(0.7,8.57252759403147E-17,1.75));
#916=CARTESIAN_POINT('Origin',(-4.44089209850063E-16,0.,1.75));
#917=CARTESIAN_POINT('',(0.7,8.57252759403147E-17,1.8));
#918=CARTESIAN_POINT('Origin',(-4.44089209850063E-16,0.,1.8));
#919=CARTESIAN_POINT('Origin',(-5.00526593722193E-16,-1.32169407693471E-17,
1.75));
#920=CARTESIAN_POINT('Origin',(1.8625,-0.51,0.9));
#921=CARTESIAN_POINT('',(1.825,-0.95,1.8));
#922=CARTESIAN_POINT('',(1.825,-0.51,1.8));
#923=CARTESIAN_POINT('',(1.9,-1.02,0.));
#924=CARTESIAN_POINT('',(1.85968290699195,-0.982370713192484,0.967610232193261));
#925=CARTESIAN_POINT('',(1.9,-1.02,0.));
#926=CARTESIAN_POINT('Origin',(-4.44089209850063E-16,0.,1.8));
#927=CARTESIAN_POINT('',(-0.95,-0.95,1.8));
#928=CARTESIAN_POINT('Origin',(-0.95,-0.985,0.9));
#929=CARTESIAN_POINT('',(-1.9,-1.02,0.));
#930=CARTESIAN_POINT('Origin',(-4.86673106685E-16,0.,0.));
#931=CARTESIAN_POINT('Origin',(-1.275,0.635,1.8));
#932=CARTESIAN_POINT('',(-1.125,0.635,1.75));
#933=CARTESIAN_POINT('Origin',(-1.275,0.635,1.75));
#934=CARTESIAN_POINT('',(-1.125,0.635,1.8));
#935=CARTESIAN_POINT('Origin',(-1.275,0.635,1.8));
#936=CARTESIAN_POINT('Origin',(-1.275,0.635,1.8));
#937=CARTESIAN_POINT('Origin',(-1.275,0.635,1.75));
#938=UNCERTAINTY_MEASURE_WITH_UNIT(LENGTH_MEASURE(0.01),#942,
'DISTANCE_ACCURACY_VALUE',
'Maximum model space distance between geometric entities at asserted c
onnectivities');
#939=UNCERTAINTY_MEASURE_WITH_UNIT(LENGTH_MEASURE(1.E-6),#942,
'DISTANCE_ACCURACY_VALUE',
'Maximum model space distance between geometric entities at asserted c
onnectivities');
#940=(
GEOMETRIC_REPRESENTATION_CONTEXT(3)
GLOBAL_UNCERTAINTY_ASSIGNED_CONTEXT((#938))
GLOBAL_UNIT_ASSIGNED_CONTEXT((#942,#944,#943))
REPRESENTATION_CONTEXT('','3D')
);
#941=(
GEOMETRIC_REPRESENTATION_CONTEXT(3)
GLOBAL_UNCERTAINTY_ASSIGNED_CONTEXT((#939))
GLOBAL_UNIT_ASSIGNED_CONTEXT((#942,#12,#943))
REPRESENTATION_CONTEXT('','3D')
);
#942=(
LENGTH_UNIT()
NAMED_UNIT(*)
SI_UNIT(.MILLI.,.METRE.)
);
#943=(
NAMED_UNIT(*)
SI_UNIT($,.STERADIAN.)
SOLID_ANGLE_UNIT()
);
#944=(
NAMED_UNIT(*)
PLANE_ANGLE_UNIT()
SI_UNIT($,.RADIAN.)
);
#945=SHAPE_DEFINITION_REPRESENTATION(#946,#947);
#946=PRODUCT_DEFINITION_SHAPE('',$,#949);
#947=SHAPE_REPRESENTATION('',(#584),#940);
#948=PRODUCT_DEFINITION_CONTEXT('part definition',#953,'design');
#949=PRODUCT_DEFINITION('Product','Product',#950,#948);
#950=PRODUCT_DEFINITION_FORMATION('',$,#955);
#951=PRODUCT_RELATED_PRODUCT_CATEGORY('Product','Product',(#955));
#952=APPLICATION_PROTOCOL_DEFINITION('international standard',
'automotive_design',2009,#953);
#953=APPLICATION_CONTEXT(
'Core Data for Automotive Mechanical Design Process');
#954=PRODUCT_CONTEXT('part definition',#953,'mechanical');
#955=PRODUCT('Product','Product',$,(#954));
#956=PRESENTATION_STYLE_ASSIGNMENT((#960));
#957=PRESENTATION_STYLE_ASSIGNMENT((#961));
#958=PRESENTATION_STYLE_ASSIGNMENT((#962));
#959=PRESENTATION_STYLE_ASSIGNMENT((#963));
#960=SURFACE_STYLE_USAGE(.BOTH.,#964);
#961=SURFACE_STYLE_USAGE(.BOTH.,#965);
#962=SURFACE_STYLE_USAGE(.BOTH.,#966);
#963=SURFACE_STYLE_USAGE(.BOTH.,#967);
#964=SURFACE_SIDE_STYLE('',(#968));
#965=SURFACE_SIDE_STYLE('',(#969));
#966=SURFACE_SIDE_STYLE('',(#970));
#967=SURFACE_SIDE_STYLE('',(#971));
#968=SURFACE_STYLE_FILL_AREA(#972);
#969=SURFACE_STYLE_FILL_AREA(#973);
#970=SURFACE_STYLE_FILL_AREA(#974);
#971=SURFACE_STYLE_FILL_AREA(#975);
#972=FILL_AREA_STYLE('',(#976));
#973=FILL_AREA_STYLE('',(#977));
#974=FILL_AREA_STYLE('',(#978));
#975=FILL_AREA_STYLE('',(#979));
#976=FILL_AREA_STYLE_COLOUR('',#980);
#977=FILL_AREA_STYLE_COLOUR('',#981);
#978=FILL_AREA_STYLE_COLOUR('',#982);
#979=FILL_AREA_STYLE_COLOUR('',#983);
#980=COLOUR_RGB('',1.,1.,1.);
#981=COLOUR_RGB('',0.866666666666667,0.866666666666667,0.866666666666667);
#982=COLOUR_RGB('',1.,0.874509803921569,0.501960784313725);
#983=COLOUR_RGB('',0.462745098039216,0.462745098039216,0.462745098039216);
ENDSEC;
END-ISO-10303-21;
