ISO-10303-21;
HEADER;
/****************************************************************
 * Generated by software with PDElib inside                    *
 * PDElib Version v51a, created Wed 11/30/2011                  *
 * ITI Transcendata (http://www.transcendata.com/)              *
 ****************************************************************/
FILE_DESCRIPTION((''),'2;1');
FILE_NAME('OSC_SI-TIME_3.2X2.5X0.75.stp','2014-10-22T10:23:35',(''),(''),'Mechanical Desktop 2011','Mechanical Desktop 2011',', , ');
FILE_SCHEMA(('AUTOMOTIVE_DESIGN { 1 2 10303 214 1 1 1 1 }'));
ENDSEC;
DATA;
#10=(NAMED_UNIT(*)PLANE_ANGLE_UNIT()SI_UNIT($,.RADIAN.));
#11=DIMENSIONAL_EXPONENTS(0.0,0.0,0.0,0.0,0.0,0.0,0.0);
#12=PLANE_ANGLE_MEASURE_WITH_UNIT(PLANE_ANGLE_MEASURE(0.0174532925),#10);
#16=(CONVERSION_BASED_UNIT('DEGREE',#12)NAMED_UNIT(#11)PLANE_ANGLE_UNIT());
#20=(NAMED_UNIT(*)SI_UNIT($,.STERADIAN.)SOLID_ANGLE_UNIT());
#24=(LENGTH_UNIT()NAMED_UNIT(*)SI_UNIT(.MILLI.,.METRE.));
#26=UNCERTAINTY_MEASURE_WITH_UNIT(LENGTH_MEASURE(0.000001),#24,'DISTANCE_ACCURACY_VALUE','');
#28=(GEOMETRIC_REPRESENTATION_CONTEXT(3)GLOBAL_UNCERTAINTY_ASSIGNED_CONTEXT((#26))GLOBAL_UNIT_ASSIGNED_CONTEXT((#16,#20,#24))REPRESENTATION_CONTEXT('','3D'));
#29=APPLICATION_CONTEXT('automotive design');
#30=APPLICATION_PROTOCOL_DEFINITION('INTERNATIONAL_STANDARD','automotive_design',1998,#29);
#31=PRODUCT_CONTEXT('3D Mechanical Parts',#29,'mechanical');
#32=PRODUCT('Product','Product','',(#31));
#33=PRODUCT_RELATED_PRODUCT_CATEGORY('part',$,(#32));
#34=PRODUCT_CATEGORY('part',$);
#35=PERSON('1','Design','Joe',$,$,$);
#36=ORGANIZATION($,'None','None');
#37=PERSON_AND_ORGANIZATION(#35,#36);
#38=PERSON_AND_ORGANIZATION_ROLE('design_owner');
#39=APPLIED_PERSON_AND_ORGANIZATION_ASSIGNMENT(#37,#38,(#32));
#40=PRODUCT_DEFINITION_FORMATION_WITH_SPECIFIED_SOURCE('None','',#32,.BOUGHT.);
#41=PERSON('2','Creator','Joe',$,$,$);
#42=ORGANIZATION($,'None','None');
#43=PERSON_AND_ORGANIZATION(#41,#42);
#44=PERSON_AND_ORGANIZATION_ROLE('creator');
#45=APPLIED_PERSON_AND_ORGANIZATION_ASSIGNMENT(#43,#44,(#40));
#46=PERSON('3','Supplier','Joe',$,$,$);
#47=ORGANIZATION($,'None','None');
#48=PERSON_AND_ORGANIZATION(#46,#47);
#49=PERSON_AND_ORGANIZATION_ROLE('design_supplier');
#50=APPLIED_PERSON_AND_ORGANIZATION_ASSIGNMENT(#48,#49,(#40));
#51=PRODUCT_DEFINITION_CONTEXT('part definition',#29,'design');
#52=PRODUCT_DEFINITION('None','',#40,#51);
#53=PERSON('4','Creator','Joe',$,$,$);
#54=ORGANIZATION($,'None','None');
#55=PERSON_AND_ORGANIZATION(#53,#54);
#56=PERSON_AND_ORGANIZATION_ROLE('creator');
#57=APPLIED_PERSON_AND_ORGANIZATION_ASSIGNMENT(#55,#56,(#52));
#58=CARTESIAN_POINT('NONE',(0.0,0.0,0.0));
#59=DIRECTION('NONE',(0.0,0.0,1.0));
#60=DIRECTION('NONE',(1.0,0.0,0.0));
#61=AXIS2_PLACEMENT_3D('NONE',#58,#59,#60);
#62=SHAPE_REPRESENTATION('SR1',(#61),#28);
#63=PRODUCT_DEFINITION_SHAPE('PDS1','Test Part',#52);
#64=SHAPE_DEFINITION_REPRESENTATION(#63,#62);
#65=CARTESIAN_POINT('',(-1.15,-1.5,0.0));
#66=DIRECTION('',(-1.0,0.0,0.0));
#67=DIRECTION('',(0.0,0.0,1.0));
#68=AXIS2_PLACEMENT_3D('',#65,#66,#67);
#69=PLANE('',#68);
#70=CARTESIAN_POINT('',(-1.15,-1.5,0.01));
#71=VERTEX_POINT('',#70);
#72=CARTESIAN_POINT('',(-1.15,-0.6,0.01));
#73=VERTEX_POINT('',#72);
#74=CARTESIAN_POINT('',(-1.15,-1.5,0.01));
#75=DIRECTION('',(0.0,1.0,0.0));
#76=VECTOR('',#75,0.9);
#77=LINE('',#74,#76);
#78=EDGE_CURVE('',#71,#73,#77,.T.);
#79=ORIENTED_EDGE('',*,*,#78,.T.);
#80=CARTESIAN_POINT('',(-1.15,-0.6,0.0));
#81=VERTEX_POINT('',#80);
#82=CARTESIAN_POINT('',(-1.15,-0.6,0.0));
#83=DIRECTION('',(0.0,0.0,1.0));
#84=VECTOR('',#83,0.01);
#85=LINE('',#82,#84);
#86=EDGE_CURVE('',#81,#73,#85,.T.);
#87=ORIENTED_EDGE('',*,*,#86,.F.);
#88=CARTESIAN_POINT('',(-1.15,-1.5,0.0));
#89=VERTEX_POINT('',#88);
#90=CARTESIAN_POINT('',(-1.15,-1.5,0.0));
#91=DIRECTION('',(0.0,1.0,0.0));
#92=VECTOR('',#91,0.9);
#93=LINE('',#90,#92);
#94=EDGE_CURVE('',#89,#81,#93,.T.);
#95=ORIENTED_EDGE('',*,*,#94,.F.);
#96=CARTESIAN_POINT('',(-1.15,-1.5,0.0));
#97=DIRECTION('',(0.0,0.0,1.0));
#98=VECTOR('',#97,0.01);
#99=LINE('',#96,#98);
#100=EDGE_CURVE('',#89,#71,#99,.T.);
#101=ORIENTED_EDGE('',*,*,#100,.T.);
#102=EDGE_LOOP('',(#79,#87,#95,#101));
#103=FACE_OUTER_BOUND('',#102,.T.);
#104=ADVANCED_FACE('',(#103),#69,.T.);
#105=CARTESIAN_POINT('',(-1.15,-0.6,0.0));
#106=DIRECTION('',(0.0,1.0,0.0));
#107=DIRECTION('',(0.0,0.0,1.0));
#108=AXIS2_PLACEMENT_3D('',#105,#106,#107);
#109=PLANE('',#108);
#110=CARTESIAN_POINT('',(-0.9,-0.6,0.01));
#111=VERTEX_POINT('',#110);
#112=CARTESIAN_POINT('',(-1.15,-0.6,0.01));
#113=DIRECTION('',(1.0,0.0,0.0));
#114=VECTOR('',#113,0.25);
#115=LINE('',#112,#114);
#116=EDGE_CURVE('',#73,#111,#115,.T.);
#117=ORIENTED_EDGE('',*,*,#116,.T.);
#118=CARTESIAN_POINT('',(-0.9,-0.6,0.0));
#119=VERTEX_POINT('',#118);
#120=CARTESIAN_POINT('',(-0.9,-0.6,0.0));
#121=DIRECTION('',(0.0,0.0,1.0));
#122=VECTOR('',#121,0.01);
#123=LINE('',#120,#122);
#124=EDGE_CURVE('',#119,#111,#123,.T.);
#125=ORIENTED_EDGE('',*,*,#124,.F.);
#126=CARTESIAN_POINT('',(-1.15,-0.6,0.0));
#127=DIRECTION('',(1.0,0.0,0.0));
#128=VECTOR('',#127,0.25);
#129=LINE('',#126,#128);
#130=EDGE_CURVE('',#81,#119,#129,.T.);
#131=ORIENTED_EDGE('',*,*,#130,.F.);
#132=ORIENTED_EDGE('',*,*,#86,.T.);
#133=EDGE_LOOP('',(#117,#125,#131,#132));
#134=FACE_OUTER_BOUND('',#133,.T.);
#135=ADVANCED_FACE('',(#134),#109,.T.);
#136=CARTESIAN_POINT('',(-0.9,-1.05,0.0));
#137=DIRECTION('',(0.0,0.0,1.0));
#138=DIRECTION('',(1.0,0.0,0.0));
#139=AXIS2_PLACEMENT_3D('',#136,#137,#138);
#140=CYLINDRICAL_SURFACE('',#139,0.45);
#141=CARTESIAN_POINT('',(-0.9,-1.5,0.01));
#142=VERTEX_POINT('',#141);
#143=CARTESIAN_POINT('',(-0.9,-1.05,0.01));
#144=DIRECTION('',(0.0,0.0,-1.0));
#145=DIRECTION('',(1.0,0.0,0.0));
#146=AXIS2_PLACEMENT_3D('',#143,#144,#145);
#147=CIRCLE('',#146,0.45);
#148=EDGE_CURVE('',#111,#142,#147,.T.);
#149=ORIENTED_EDGE('',*,*,#148,.T.);
#150=CARTESIAN_POINT('',(-0.9,-1.5,0.0));
#151=VERTEX_POINT('',#150);
#152=CARTESIAN_POINT('',(-0.9,-1.5,0.0));
#153=DIRECTION('',(0.0,0.0,1.0));
#154=VECTOR('',#153,0.01);
#155=LINE('',#152,#154);
#156=EDGE_CURVE('',#151,#142,#155,.T.);
#157=ORIENTED_EDGE('',*,*,#156,.F.);
#158=CARTESIAN_POINT('',(-0.9,-1.05,0.0));
#159=DIRECTION('',(0.0,0.0,-1.0));
#160=DIRECTION('',(1.0,0.0,0.0));
#161=AXIS2_PLACEMENT_3D('',#158,#159,#160);
#162=CIRCLE('',#161,0.45);
#163=EDGE_CURVE('',#119,#151,#162,.T.);
#164=ORIENTED_EDGE('',*,*,#163,.F.);
#165=ORIENTED_EDGE('',*,*,#124,.T.);
#166=EDGE_LOOP('',(#149,#157,#164,#165));
#167=FACE_OUTER_BOUND('',#166,.T.);
#168=ADVANCED_FACE('',(#167),#140,.T.);
#169=CARTESIAN_POINT('',(-0.9,-1.5,0.0));
#170=DIRECTION('',(0.0,-1.0,0.0));
#171=DIRECTION('',(0.0,0.0,-1.0));
#172=AXIS2_PLACEMENT_3D('',#169,#170,#171);
#173=PLANE('',#172);
#174=CARTESIAN_POINT('',(-0.9,-1.5,0.01));
#175=DIRECTION('',(-1.0,0.0,0.0));
#176=VECTOR('',#175,0.25);
#177=LINE('',#174,#176);
#178=EDGE_CURVE('',#142,#71,#177,.T.);
#179=ORIENTED_EDGE('',*,*,#178,.T.);
#180=ORIENTED_EDGE('',*,*,#100,.F.);
#181=CARTESIAN_POINT('',(-0.9,-1.5,0.0));
#182=DIRECTION('',(-1.0,0.0,0.0));
#183=VECTOR('',#182,0.25);
#184=LINE('',#181,#183);
#185=EDGE_CURVE('',#151,#89,#184,.T.);
#186=ORIENTED_EDGE('',*,*,#185,.F.);
#187=ORIENTED_EDGE('',*,*,#156,.T.);
#188=EDGE_LOOP('',(#179,#180,#186,#187));
#189=FACE_OUTER_BOUND('',#188,.T.);
#190=ADVANCED_FACE('',(#189),#173,.T.);
#191=CARTESIAN_POINT('',(-0.872403528974426,-1.05,0.01));
#192=DIRECTION('',(0.0,0.0,1.0));
#193=DIRECTION('',(1.0,0.0,0.0));
#194=AXIS2_PLACEMENT_3D('',#191,#192,#193);
#195=PLANE('',#194);
#196=ORIENTED_EDGE('',*,*,#78,.F.);
#197=ORIENTED_EDGE('',*,*,#178,.F.);
#198=ORIENTED_EDGE('',*,*,#148,.F.);
#199=ORIENTED_EDGE('',*,*,#116,.F.);
#200=EDGE_LOOP('',(#196,#197,#198,#199));
#201=FACE_OUTER_BOUND('',#200,.T.);
#202=ADVANCED_FACE('',(#201),#195,.T.);
#203=CARTESIAN_POINT('',(-0.872403528974426,-1.05,0.0));
#204=DIRECTION('',(0.0,0.0,1.0));
#205=DIRECTION('',(1.0,0.0,0.0));
#206=AXIS2_PLACEMENT_3D('',#203,#204,#205);
#207=PLANE('',#206);
#208=ORIENTED_EDGE('',*,*,#185,.T.);
#209=ORIENTED_EDGE('',*,*,#94,.T.);
#210=ORIENTED_EDGE('',*,*,#130,.T.);
#211=ORIENTED_EDGE('',*,*,#163,.T.);
#212=EDGE_LOOP('',(#208,#209,#210,#211));
#213=FACE_OUTER_BOUND('',#212,.T.);
#214=ADVANCED_FACE('',(#213),#207,.F.);
#215=CLOSED_SHELL('',(#104,#135,#168,#190,#202,#214));
#216=MANIFOLD_SOLID_BREP('2CC7',#215);
#217=COLOUR_RGB('254',0.866,0.866,0.866);
#218=SURFACE_STYLE_USAGE(.BOTH.,#219);
#219=SURFACE_SIDE_STYLE('NONE',(#220));
#220=SURFACE_STYLE_FILL_AREA(#221);
#221=FILL_AREA_STYLE('NONE',(#222));
#222=FILL_AREA_STYLE_COLOUR('NONE',#217);
#223=PRESENTATION_STYLE_ASSIGNMENT((#218));
#224=STYLED_ITEM('NONE',(#223),#216);
#225=MECHANICAL_DESIGN_GEOMETRIC_PRESENTATION_REPRESENTATION('NONE',(#224,#379,#532,#751,#989),#28);
#226=PRESENTATION_LAYER_ASSIGNMENT('3D','None',(#216,#378,#531,#750,#981));
#227=CARTESIAN_POINT('',(0.9,-1.05,0.0));
#228=DIRECTION('',(0.0,0.0,1.0));
#229=DIRECTION('',(-1.0,0.0,0.0));
#230=AXIS2_PLACEMENT_3D('',#227,#228,#229);
#231=CYLINDRICAL_SURFACE('',#230,0.45);
#232=CARTESIAN_POINT('',(0.9,-1.5,0.01));
#233=VERTEX_POINT('',#232);
#234=CARTESIAN_POINT('',(0.9,-0.6,0.01));
#235=VERTEX_POINT('',#234);
#236=CARTESIAN_POINT('',(0.9,-1.05,0.01));
#237=DIRECTION('',(0.0,0.0,-1.0));
#238=DIRECTION('',(-1.0,0.0,0.0));
#239=AXIS2_PLACEMENT_3D('',#236,#237,#238);
#240=CIRCLE('',#239,0.45);
#241=EDGE_CURVE('',#233,#235,#240,.T.);
#242=ORIENTED_EDGE('',*,*,#241,.T.);
#243=CARTESIAN_POINT('',(0.9,-0.6,0.0));
#244=VERTEX_POINT('',#243);
#245=CARTESIAN_POINT('',(0.9,-0.6,0.0));
#246=DIRECTION('',(0.0,0.0,1.0));
#247=VECTOR('',#246,0.01);
#248=LINE('',#245,#247);
#249=EDGE_CURVE('',#244,#235,#248,.T.);
#250=ORIENTED_EDGE('',*,*,#249,.F.);
#251=CARTESIAN_POINT('',(0.9,-1.5,0.0));
#252=VERTEX_POINT('',#251);
#253=CARTESIAN_POINT('',(0.9,-1.05,0.0));
#254=DIRECTION('',(0.0,0.0,1.0));
#255=DIRECTION('',(-1.0,0.0,0.0));
#256=AXIS2_PLACEMENT_3D('',#253,#254,#255);
#257=CIRCLE('',#256,0.45);
#258=EDGE_CURVE('',#244,#252,#257,.T.);
#259=ORIENTED_EDGE('',*,*,#258,.T.);
#260=CARTESIAN_POINT('',(0.9,-1.5,0.0));
#261=DIRECTION('',(0.0,0.0,1.0));
#262=VECTOR('',#261,0.01);
#263=LINE('',#260,#262);
#264=EDGE_CURVE('',#252,#233,#263,.T.);
#265=ORIENTED_EDGE('',*,*,#264,.T.);
#266=EDGE_LOOP('',(#242,#250,#259,#265));
#267=FACE_OUTER_BOUND('',#266,.T.);
#268=ADVANCED_FACE('',(#267),#231,.T.);
#269=CARTESIAN_POINT('',(0.9,-0.6,0.0));
#270=DIRECTION('',(0.0,1.0,0.0));
#271=DIRECTION('',(0.0,0.0,1.0));
#272=AXIS2_PLACEMENT_3D('',#269,#270,#271);
#273=PLANE('',#272);
#274=CARTESIAN_POINT('',(1.15,-0.6,0.01));
#275=VERTEX_POINT('',#274);
#276=CARTESIAN_POINT('',(0.9,-0.6,0.01));
#277=DIRECTION('',(1.0,0.0,0.0));
#278=VECTOR('',#277,0.25);
#279=LINE('',#276,#278);
#280=EDGE_CURVE('',#235,#275,#279,.T.);
#281=ORIENTED_EDGE('',*,*,#280,.T.);
#282=CARTESIAN_POINT('',(1.15,-0.6,0.0));
#283=VERTEX_POINT('',#282);
#284=CARTESIAN_POINT('',(1.15,-0.6,0.0));
#285=DIRECTION('',(0.0,0.0,1.0));
#286=VECTOR('',#285,0.01);
#287=LINE('',#284,#286);
#288=EDGE_CURVE('',#283,#275,#287,.T.);
#289=ORIENTED_EDGE('',*,*,#288,.F.);
#290=CARTESIAN_POINT('',(1.15,-0.6,0.0));
#291=DIRECTION('',(-1.0,0.0,0.0));
#292=VECTOR('',#291,0.25);
#293=LINE('',#290,#292);
#294=EDGE_CURVE('',#283,#244,#293,.T.);
#295=ORIENTED_EDGE('',*,*,#294,.T.);
#296=ORIENTED_EDGE('',*,*,#249,.T.);
#297=EDGE_LOOP('',(#281,#289,#295,#296));
#298=FACE_OUTER_BOUND('',#297,.T.);
#299=ADVANCED_FACE('',(#298),#273,.T.);
#300=CARTESIAN_POINT('',(1.15,-0.6,0.0));
#301=DIRECTION('',(1.0,0.0,0.0));
#302=DIRECTION('',(0.0,0.0,-1.0));
#303=AXIS2_PLACEMENT_3D('',#300,#301,#302);
#304=PLANE('',#303);
#305=CARTESIAN_POINT('',(1.15,-1.5,0.01));
#306=VERTEX_POINT('',#305);
#307=CARTESIAN_POINT('',(1.15,-0.6,0.01));
#308=DIRECTION('',(0.0,-1.0,0.0));
#309=VECTOR('',#308,0.9);
#310=LINE('',#307,#309);
#311=EDGE_CURVE('',#275,#306,#310,.T.);
#312=ORIENTED_EDGE('',*,*,#311,.T.);
#313=CARTESIAN_POINT('',(1.15,-1.5,0.0));
#314=VERTEX_POINT('',#313);
#315=CARTESIAN_POINT('',(1.15,-1.5,0.0));
#316=DIRECTION('',(0.0,0.0,1.0));
#317=VECTOR('',#316,0.01);
#318=LINE('',#315,#317);
#319=EDGE_CURVE('',#314,#306,#318,.T.);
#320=ORIENTED_EDGE('',*,*,#319,.F.);
#321=CARTESIAN_POINT('',(1.15,-1.5,0.0));
#322=DIRECTION('',(0.0,1.0,0.0));
#323=VECTOR('',#322,0.9);
#324=LINE('',#321,#323);
#325=EDGE_CURVE('',#314,#283,#324,.T.);
#326=ORIENTED_EDGE('',*,*,#325,.T.);
#327=ORIENTED_EDGE('',*,*,#288,.T.);
#328=EDGE_LOOP('',(#312,#320,#326,#327));
#329=FACE_OUTER_BOUND('',#328,.T.);
#330=ADVANCED_FACE('',(#329),#304,.T.);
#331=CARTESIAN_POINT('',(1.15,-1.5,0.0));
#332=DIRECTION('',(0.0,-1.0,0.0));
#333=DIRECTION('',(0.0,0.0,-1.0));
#334=AXIS2_PLACEMENT_3D('',#331,#332,#333);
#335=PLANE('',#334);
#336=CARTESIAN_POINT('',(1.15,-1.5,0.01));
#337=DIRECTION('',(-1.0,0.0,0.0));
#338=VECTOR('',#337,0.25);
#339=LINE('',#336,#338);
#340=EDGE_CURVE('',#306,#233,#339,.T.);
#341=ORIENTED_EDGE('',*,*,#340,.T.);
#342=ORIENTED_EDGE('',*,*,#264,.F.);
#343=CARTESIAN_POINT('',(0.9,-1.5,0.0));
#344=DIRECTION('',(1.0,0.0,0.0));
#345=VECTOR('',#344,0.25);
#346=LINE('',#343,#345);
#347=EDGE_CURVE('',#252,#314,#346,.T.);
#348=ORIENTED_EDGE('',*,*,#347,.T.);
#349=ORIENTED_EDGE('',*,*,#319,.T.);
#350=EDGE_LOOP('',(#341,#342,#348,#349));
#351=FACE_OUTER_BOUND('',#350,.T.);
#352=ADVANCED_FACE('',(#351),#335,.T.);
#353=CARTESIAN_POINT('',(0.872403528974426,-1.05,0.0));
#354=DIRECTION('',(0.0,0.0,1.0));
#355=DIRECTION('',(1.0,0.0,0.0));
#356=AXIS2_PLACEMENT_3D('',#353,#354,#355);
#357=PLANE('',#356);
#358=ORIENTED_EDGE('',*,*,#347,.F.);
#359=ORIENTED_EDGE('',*,*,#258,.F.);
#360=ORIENTED_EDGE('',*,*,#294,.F.);
#361=ORIENTED_EDGE('',*,*,#325,.F.);
#362=EDGE_LOOP('',(#358,#359,#360,#361));
#363=FACE_OUTER_BOUND('',#362,.T.);
#364=ADVANCED_FACE('',(#363),#357,.F.);
#365=CARTESIAN_POINT('',(0.872403528974426,-1.05,0.01));
#366=DIRECTION('',(0.0,0.0,1.0));
#367=DIRECTION('',(1.0,0.0,0.0));
#368=AXIS2_PLACEMENT_3D('',#365,#366,#367);
#369=PLANE('',#368);
#370=ORIENTED_EDGE('',*,*,#241,.F.);
#371=ORIENTED_EDGE('',*,*,#340,.F.);
#372=ORIENTED_EDGE('',*,*,#311,.F.);
#373=ORIENTED_EDGE('',*,*,#280,.F.);
#374=EDGE_LOOP('',(#370,#371,#372,#373));
#375=FACE_OUTER_BOUND('',#374,.T.);
#376=ADVANCED_FACE('',(#375),#369,.T.);
#377=CLOSED_SHELL('',(#268,#299,#330,#352,#364,#376));
#378=MANIFOLD_SOLID_BREP('2CC3',#377);
#379=STYLED_ITEM('NONE',(#223),#378);
#380=CARTESIAN_POINT('',(0.9,1.05,0.0));
#381=DIRECTION('',(0.0,0.0,1.0));
#382=DIRECTION('',(-1.0,0.0,0.0));
#383=AXIS2_PLACEMENT_3D('',#380,#381,#382);
#384=CYLINDRICAL_SURFACE('',#383,0.45);
#385=CARTESIAN_POINT('',(0.9,0.6,0.01));
#386=VERTEX_POINT('',#385);
#387=CARTESIAN_POINT('',(0.9,1.5,0.01));
#388=VERTEX_POINT('',#387);
#389=CARTESIAN_POINT('',(0.9,1.05,0.01));
#390=DIRECTION('',(0.0,0.0,-1.0));
#391=DIRECTION('',(-1.0,0.0,0.0));
#392=AXIS2_PLACEMENT_3D('',#389,#390,#391);
#393=CIRCLE('',#392,0.45);
#394=EDGE_CURVE('',#386,#388,#393,.T.);
#395=ORIENTED_EDGE('',*,*,#394,.T.);
#396=CARTESIAN_POINT('',(0.9,1.5,0.0));
#397=VERTEX_POINT('',#396);
#398=CARTESIAN_POINT('',(0.9,1.5,0.0));
#399=DIRECTION('',(0.0,0.0,1.0));
#400=VECTOR('',#399,0.01);
#401=LINE('',#398,#400);
#402=EDGE_CURVE('',#397,#388,#401,.T.);
#403=ORIENTED_EDGE('',*,*,#402,.F.);
#404=CARTESIAN_POINT('',(0.9,0.6,0.0));
#405=VERTEX_POINT('',#404);
#406=CARTESIAN_POINT('',(0.9,1.05,0.0));
#407=DIRECTION('',(0.0,0.0,1.0));
#408=DIRECTION('',(-1.0,0.0,0.0));
#409=AXIS2_PLACEMENT_3D('',#406,#407,#408);
#410=CIRCLE('',#409,0.45);
#411=EDGE_CURVE('',#397,#405,#410,.T.);
#412=ORIENTED_EDGE('',*,*,#411,.T.);
#413=CARTESIAN_POINT('',(0.9,0.6,0.0));
#414=DIRECTION('',(0.0,0.0,1.0));
#415=VECTOR('',#414,0.01);
#416=LINE('',#413,#415);
#417=EDGE_CURVE('',#405,#386,#416,.T.);
#418=ORIENTED_EDGE('',*,*,#417,.T.);
#419=EDGE_LOOP('',(#395,#403,#412,#418));
#420=FACE_OUTER_BOUND('',#419,.T.);
#421=ADVANCED_FACE('',(#420),#384,.T.);
#422=CARTESIAN_POINT('',(0.9,1.5,0.0));
#423=DIRECTION('',(0.0,1.0,0.0));
#424=DIRECTION('',(0.0,0.0,1.0));
#425=AXIS2_PLACEMENT_3D('',#422,#423,#424);
#426=PLANE('',#425);
#427=CARTESIAN_POINT('',(1.15,1.5,0.01));
#428=VERTEX_POINT('',#427);
#429=CARTESIAN_POINT('',(0.9,1.5,0.01));
#430=DIRECTION('',(1.0,0.0,0.0));
#431=VECTOR('',#430,0.25);
#432=LINE('',#429,#431);
#433=EDGE_CURVE('',#388,#428,#432,.T.);
#434=ORIENTED_EDGE('',*,*,#433,.T.);
#435=CARTESIAN_POINT('',(1.15,1.5,0.0));
#436=VERTEX_POINT('',#435);
#437=CARTESIAN_POINT('',(1.15,1.5,0.0));
#438=DIRECTION('',(0.0,0.0,1.0));
#439=VECTOR('',#438,0.01);
#440=LINE('',#437,#439);
#441=EDGE_CURVE('',#436,#428,#440,.T.);
#442=ORIENTED_EDGE('',*,*,#441,.F.);
#443=CARTESIAN_POINT('',(1.15,1.5,0.0));
#444=DIRECTION('',(-1.0,0.0,0.0));
#445=VECTOR('',#444,0.25);
#446=LINE('',#443,#445);
#447=EDGE_CURVE('',#436,#397,#446,.T.);
#448=ORIENTED_EDGE('',*,*,#447,.T.);
#449=ORIENTED_EDGE('',*,*,#402,.T.);
#450=EDGE_LOOP('',(#434,#442,#448,#449));
#451=FACE_OUTER_BOUND('',#450,.T.);
#452=ADVANCED_FACE('',(#451),#426,.T.);
#453=CARTESIAN_POINT('',(1.15,1.5,0.0));
#454=DIRECTION('',(1.0,0.0,0.0));
#455=DIRECTION('',(0.0,0.0,-1.0));
#456=AXIS2_PLACEMENT_3D('',#453,#454,#455);
#457=PLANE('',#456);
#458=CARTESIAN_POINT('',(1.15,0.6,0.01));
#459=VERTEX_POINT('',#458);
#460=CARTESIAN_POINT('',(1.15,1.5,0.01));
#461=DIRECTION('',(0.0,-1.0,0.0));
#462=VECTOR('',#461,0.9);
#463=LINE('',#460,#462);
#464=EDGE_CURVE('',#428,#459,#463,.T.);
#465=ORIENTED_EDGE('',*,*,#464,.T.);
#466=CARTESIAN_POINT('',(1.15,0.6,0.0));
#467=VERTEX_POINT('',#466);
#468=CARTESIAN_POINT('',(1.15,0.6,0.0));
#469=DIRECTION('',(0.0,0.0,1.0));
#470=VECTOR('',#469,0.01);
#471=LINE('',#468,#470);
#472=EDGE_CURVE('',#467,#459,#471,.T.);
#473=ORIENTED_EDGE('',*,*,#472,.F.);
#474=CARTESIAN_POINT('',(1.15,0.6,0.0));
#475=DIRECTION('',(0.0,1.0,0.0));
#476=VECTOR('',#475,0.9);
#477=LINE('',#474,#476);
#478=EDGE_CURVE('',#467,#436,#477,.T.);
#479=ORIENTED_EDGE('',*,*,#478,.T.);
#480=ORIENTED_EDGE('',*,*,#441,.T.);
#481=EDGE_LOOP('',(#465,#473,#479,#480));
#482=FACE_OUTER_BOUND('',#481,.T.);
#483=ADVANCED_FACE('',(#482),#457,.T.);
#484=CARTESIAN_POINT('',(1.15,0.6,0.0));
#485=DIRECTION('',(0.0,-1.0,0.0));
#486=DIRECTION('',(0.0,0.0,-1.0));
#487=AXIS2_PLACEMENT_3D('',#484,#485,#486);
#488=PLANE('',#487);
#489=CARTESIAN_POINT('',(1.15,0.6,0.01));
#490=DIRECTION('',(-1.0,0.0,0.0));
#491=VECTOR('',#490,0.25);
#492=LINE('',#489,#491);
#493=EDGE_CURVE('',#459,#386,#492,.T.);
#494=ORIENTED_EDGE('',*,*,#493,.T.);
#495=ORIENTED_EDGE('',*,*,#417,.F.);
#496=CARTESIAN_POINT('',(0.9,0.6,0.0));
#497=DIRECTION('',(1.0,0.0,0.0));
#498=VECTOR('',#497,0.25);
#499=LINE('',#496,#498);
#500=EDGE_CURVE('',#405,#467,#499,.T.);
#501=ORIENTED_EDGE('',*,*,#500,.T.);
#502=ORIENTED_EDGE('',*,*,#472,.T.);
#503=EDGE_LOOP('',(#494,#495,#501,#502));
#504=FACE_OUTER_BOUND('',#503,.T.);
#505=ADVANCED_FACE('',(#504),#488,.T.);
#506=CARTESIAN_POINT('',(0.872403528974426,1.05,0.0));
#507=DIRECTION('',(0.0,0.0,1.0));
#508=DIRECTION('',(1.0,0.0,0.0));
#509=AXIS2_PLACEMENT_3D('',#506,#507,#508);
#510=PLANE('',#509);
#511=ORIENTED_EDGE('',*,*,#500,.F.);
#512=ORIENTED_EDGE('',*,*,#411,.F.);
#513=ORIENTED_EDGE('',*,*,#447,.F.);
#514=ORIENTED_EDGE('',*,*,#478,.F.);
#515=EDGE_LOOP('',(#511,#512,#513,#514));
#516=FACE_OUTER_BOUND('',#515,.T.);
#517=ADVANCED_FACE('',(#516),#510,.F.);
#518=CARTESIAN_POINT('',(0.872403528974426,1.05,0.01));
#519=DIRECTION('',(0.0,0.0,1.0));
#520=DIRECTION('',(1.0,0.0,0.0));
#521=AXIS2_PLACEMENT_3D('',#518,#519,#520);
#522=PLANE('',#521);
#523=ORIENTED_EDGE('',*,*,#394,.F.);
#524=ORIENTED_EDGE('',*,*,#493,.F.);
#525=ORIENTED_EDGE('',*,*,#464,.F.);
#526=ORIENTED_EDGE('',*,*,#433,.F.);
#527=EDGE_LOOP('',(#523,#524,#525,#526));
#528=FACE_OUTER_BOUND('',#527,.T.);
#529=ADVANCED_FACE('',(#528),#522,.T.);
#530=CLOSED_SHELL('',(#421,#452,#483,#505,#517,#529));
#531=MANIFOLD_SOLID_BREP('2CBF',#530);
#532=STYLED_ITEM('NONE',(#223),#531);
#533=CARTESIAN_POINT('',(-0.45,0.8,0.0));
#534=DIRECTION('',(0.707106781186547,-0.707106781186548,0.0));
#535=DIRECTION('',(0.0,0.0,-1.0));
#536=AXIS2_PLACEMENT_3D('',#533,#534,#535);
#537=PLANE('',#536);
#538=CARTESIAN_POINT('',(-0.45,0.8,0.01));
#539=VERTEX_POINT('',#538);
#540=CARTESIAN_POINT('',(-0.65,0.6,0.01));
#541=VERTEX_POINT('',#540);
#542=CARTESIAN_POINT('',(-0.45,0.8,0.01));
#543=DIRECTION('',(-0.707106781186548,-0.707106781186547,0.0));
#544=VECTOR('',#543,0.282842712474619);
#545=LINE('',#542,#544);
#546=EDGE_CURVE('',#539,#541,#545,.T.);
#547=ORIENTED_EDGE('',*,*,#546,.T.);
#548=CARTESIAN_POINT('',(-0.65,0.6,0.0));
#549=VERTEX_POINT('',#548);
#550=CARTESIAN_POINT('',(-0.65,0.6,0.0));
#551=DIRECTION('',(0.0,0.0,1.0));
#552=VECTOR('',#551,0.01);
#553=LINE('',#550,#552);
#554=EDGE_CURVE('',#549,#541,#553,.T.);
#555=ORIENTED_EDGE('',*,*,#554,.F.);
#556=CARTESIAN_POINT('',(-0.45,0.8,0.0));
#557=VERTEX_POINT('',#556);
#558=CARTESIAN_POINT('',(-0.65,0.6,0.0));
#559=DIRECTION('',(0.707106781186548,0.707106781186547,0.0));
#560=VECTOR('',#559,0.282842712474619);
#561=LINE('',#558,#560);
#562=EDGE_CURVE('',#549,#557,#561,.T.);
#563=ORIENTED_EDGE('',*,*,#562,.T.);
#564=CARTESIAN_POINT('',(-0.45,0.8,0.0));
#565=DIRECTION('',(0.0,0.0,1.0));
#566=VECTOR('',#565,0.01);
#567=LINE('',#564,#566);
#568=EDGE_CURVE('',#557,#539,#567,.T.);
#569=ORIENTED_EDGE('',*,*,#568,.T.);
#570=EDGE_LOOP('',(#547,#555,#563,#569));
#571=FACE_OUTER_BOUND('',#570,.T.);
#572=ADVANCED_FACE('',(#571),#537,.T.);
#573=CARTESIAN_POINT('',(-0.65,0.6,0.0));
#574=DIRECTION('',(0.0,-1.0,0.0));
#575=DIRECTION('',(0.0,0.0,-1.0));
#576=AXIS2_PLACEMENT_3D('',#573,#574,#575);
#577=PLANE('',#576);
#578=CARTESIAN_POINT('',(-1.15,0.6,0.01));
#579=VERTEX_POINT('',#578);
#580=CARTESIAN_POINT('',(-0.65,0.6,0.01));
#581=DIRECTION('',(-1.0,0.0,0.0));
#582=VECTOR('',#581,0.5);
#583=LINE('',#580,#582);
#584=EDGE_CURVE('',#541,#579,#583,.T.);
#585=ORIENTED_EDGE('',*,*,#584,.T.);
#586=CARTESIAN_POINT('',(-1.15,0.6,0.0));
#587=VERTEX_POINT('',#586);
#588=CARTESIAN_POINT('',(-1.15,0.6,0.0));
#589=DIRECTION('',(0.0,0.0,1.0));
#590=VECTOR('',#589,0.01);
#591=LINE('',#588,#590);
#592=EDGE_CURVE('',#587,#579,#591,.T.);
#593=ORIENTED_EDGE('',*,*,#592,.F.);
#594=CARTESIAN_POINT('',(-1.15,0.6,0.0));
#595=DIRECTION('',(1.0,0.0,0.0));
#596=VECTOR('',#595,0.5);
#597=LINE('',#594,#596);
#598=EDGE_CURVE('',#587,#549,#597,.T.);
#599=ORIENTED_EDGE('',*,*,#598,.T.);
#600=ORIENTED_EDGE('',*,*,#554,.T.);
#601=EDGE_LOOP('',(#585,#593,#599,#600));
#602=FACE_OUTER_BOUND('',#601,.T.);
#603=ADVANCED_FACE('',(#602),#577,.T.);
#604=CARTESIAN_POINT('',(-1.15,0.6,0.0));
#605=DIRECTION('',(-1.0,0.0,0.0));
#606=DIRECTION('',(0.0,0.0,1.0));
#607=AXIS2_PLACEMENT_3D('',#604,#605,#606);
#608=PLANE('',#607);
#609=CARTESIAN_POINT('',(-1.15,1.5,0.01));
#610=VERTEX_POINT('',#609);
#611=CARTESIAN_POINT('',(-1.15,0.6,0.01));
#612=DIRECTION('',(0.0,1.0,0.0));
#613=VECTOR('',#612,0.9);
#614=LINE('',#611,#613);
#615=EDGE_CURVE('',#579,#610,#614,.T.);
#616=ORIENTED_EDGE('',*,*,#615,.T.);
#617=CARTESIAN_POINT('',(-1.15,1.5,0.0));
#618=VERTEX_POINT('',#617);
#619=CARTESIAN_POINT('',(-1.15,1.5,0.0));
#620=DIRECTION('',(0.0,0.0,1.0));
#621=VECTOR('',#620,0.01);
#622=LINE('',#619,#621);
#623=EDGE_CURVE('',#618,#610,#622,.T.);
#624=ORIENTED_EDGE('',*,*,#623,.F.);
#625=CARTESIAN_POINT('',(-1.15,1.5,0.0));
#626=DIRECTION('',(0.0,-1.0,0.0));
#627=VECTOR('',#626,0.9);
#628=LINE('',#625,#627);
#629=EDGE_CURVE('',#618,#587,#628,.T.);
#630=ORIENTED_EDGE('',*,*,#629,.T.);
#631=ORIENTED_EDGE('',*,*,#592,.T.);
#632=EDGE_LOOP('',(#616,#624,#630,#631));
#633=FACE_OUTER_BOUND('',#632,.T.);
#634=ADVANCED_FACE('',(#633),#608,.T.);
#635=CARTESIAN_POINT('',(-1.15,1.5,0.0));
#636=DIRECTION('',(0.0,1.0,0.0));
#637=DIRECTION('',(0.0,0.0,1.0));
#638=AXIS2_PLACEMENT_3D('',#635,#636,#637);
#639=PLANE('',#638);
#640=CARTESIAN_POINT('',(-0.9,1.5,0.01));
#641=VERTEX_POINT('',#640);
#642=CARTESIAN_POINT('',(-1.15,1.5,0.01));
#643=DIRECTION('',(1.0,0.0,0.0));
#644=VECTOR('',#643,0.25);
#645=LINE('',#642,#644);
#646=EDGE_CURVE('',#610,#641,#645,.T.);
#647=ORIENTED_EDGE('',*,*,#646,.T.);
#648=CARTESIAN_POINT('',(-0.9,1.5,0.0));
#649=VERTEX_POINT('',#648);
#650=CARTESIAN_POINT('',(-0.9,1.5,0.0));
#651=DIRECTION('',(0.0,0.0,1.0));
#652=VECTOR('',#651,0.01);
#653=LINE('',#650,#652);
#654=EDGE_CURVE('',#649,#641,#653,.T.);
#655=ORIENTED_EDGE('',*,*,#654,.F.);
#656=CARTESIAN_POINT('',(-0.9,1.5,0.0));
#657=DIRECTION('',(-1.0,0.0,0.0));
#658=VECTOR('',#657,0.25);
#659=LINE('',#656,#658);
#660=EDGE_CURVE('',#649,#618,#659,.T.);
#661=ORIENTED_EDGE('',*,*,#660,.T.);
#662=ORIENTED_EDGE('',*,*,#623,.T.);
#663=EDGE_LOOP('',(#647,#655,#661,#662));
#664=FACE_OUTER_BOUND('',#663,.T.);
#665=ADVANCED_FACE('',(#664),#639,.T.);
#666=CARTESIAN_POINT('',(-0.9,1.05,0.0));
#667=DIRECTION('',(0.0,0.0,1.0));
#668=DIRECTION('',(0.707106781186548,0.707106781186547,0.0));
#669=AXIS2_PLACEMENT_3D('',#666,#667,#668);
#670=CYLINDRICAL_SURFACE('',#669,0.45);
#671=CARTESIAN_POINT('',(-0.45,1.05,0.01));
#672=VERTEX_POINT('',#671);
#673=CARTESIAN_POINT('',(-0.9,1.05,0.01));
#674=DIRECTION('',(0.0,0.0,-1.0));
#675=DIRECTION('',(0.707106781186548,0.707106781186547,0.0));
#676=AXIS2_PLACEMENT_3D('',#673,#674,#675);
#677=CIRCLE('',#676,0.45);
#678=EDGE_CURVE('',#641,#672,#677,.T.);
#679=ORIENTED_EDGE('',*,*,#678,.T.);
#680=CARTESIAN_POINT('',(-0.45,1.05,0.0));
#681=VERTEX_POINT('',#680);
#682=CARTESIAN_POINT('',(-0.45,1.05,0.0));
#683=DIRECTION('',(0.0,0.0,1.0));
#684=VECTOR('',#683,0.01);
#685=LINE('',#682,#684);
#686=EDGE_CURVE('',#681,#672,#685,.T.);
#687=ORIENTED_EDGE('',*,*,#686,.F.);
#688=CARTESIAN_POINT('',(-0.9,1.05,0.0));
#689=DIRECTION('',(0.0,0.0,1.0));
#690=DIRECTION('',(0.707106781186548,0.707106781186547,0.0));
#691=AXIS2_PLACEMENT_3D('',#688,#689,#690);
#692=CIRCLE('',#691,0.45);
#693=EDGE_CURVE('',#681,#649,#692,.T.);
#694=ORIENTED_EDGE('',*,*,#693,.T.);
#695=ORIENTED_EDGE('',*,*,#654,.T.);
#696=EDGE_LOOP('',(#679,#687,#694,#695));
#697=FACE_OUTER_BOUND('',#696,.T.);
#698=ADVANCED_FACE('',(#697),#670,.T.);
#699=CARTESIAN_POINT('',(-0.45,1.05,0.0));
#700=DIRECTION('',(1.0,0.0,0.0));
#701=DIRECTION('',(0.0,0.0,-1.0));
#702=AXIS2_PLACEMENT_3D('',#699,#700,#701);
#703=PLANE('',#702);
#704=CARTESIAN_POINT('',(-0.45,1.05,0.01));
#705=DIRECTION('',(0.0,-1.0,0.0));
#706=VECTOR('',#705,0.25);
#707=LINE('',#704,#706);
#708=EDGE_CURVE('',#672,#539,#707,.T.);
#709=ORIENTED_EDGE('',*,*,#708,.T.);
#710=ORIENTED_EDGE('',*,*,#568,.F.);
#711=CARTESIAN_POINT('',(-0.45,0.8,0.0));
#712=DIRECTION('',(0.0,1.0,0.0));
#713=VECTOR('',#712,0.25);
#714=LINE('',#711,#713);
#715=EDGE_CURVE('',#557,#681,#714,.T.);
#716=ORIENTED_EDGE('',*,*,#715,.T.);
#717=ORIENTED_EDGE('',*,*,#686,.T.);
#718=EDGE_LOOP('',(#709,#710,#716,#717));
#719=FACE_OUTER_BOUND('',#718,.T.);
#720=ADVANCED_FACE('',(#719),#703,.T.);
#721=CARTESIAN_POINT('',(-0.846909509331864,1.034574787952411,0.0));
#722=DIRECTION('',(0.0,0.0,1.0));
#723=DIRECTION('',(1.0,0.0,0.0));
#724=AXIS2_PLACEMENT_3D('',#721,#722,#723);
#725=PLANE('',#724);
#726=ORIENTED_EDGE('',*,*,#715,.F.);
#727=ORIENTED_EDGE('',*,*,#562,.F.);
#728=ORIENTED_EDGE('',*,*,#598,.F.);
#729=ORIENTED_EDGE('',*,*,#629,.F.);
#730=ORIENTED_EDGE('',*,*,#660,.F.);
#731=ORIENTED_EDGE('',*,*,#693,.F.);
#732=EDGE_LOOP('',(#726,#727,#728,#729,#730,#731));
#733=FACE_OUTER_BOUND('',#732,.T.);
#734=ADVANCED_FACE('',(#733),#725,.F.);
#735=CARTESIAN_POINT('',(-0.846909509331864,1.034574787952411,0.01));
#736=DIRECTION('',(0.0,0.0,1.0));
#737=DIRECTION('',(1.0,0.0,0.0));
#738=AXIS2_PLACEMENT_3D('',#735,#736,#737);
#739=PLANE('',#738);
#740=ORIENTED_EDGE('',*,*,#546,.F.);
#741=ORIENTED_EDGE('',*,*,#708,.F.);
#742=ORIENTED_EDGE('',*,*,#678,.F.);
#743=ORIENTED_EDGE('',*,*,#646,.F.);
#744=ORIENTED_EDGE('',*,*,#615,.F.);
#745=ORIENTED_EDGE('',*,*,#584,.F.);
#746=EDGE_LOOP('',(#740,#741,#742,#743,#744,#745));
#747=FACE_OUTER_BOUND('',#746,.T.);
#748=ADVANCED_FACE('',(#747),#739,.T.);
#749=CLOSED_SHELL('',(#572,#603,#634,#665,#698,#720,#734,#748));
#750=MANIFOLD_SOLID_BREP('2CBB',#749);
#751=STYLED_ITEM('NONE',(#223),#750);
#752=CARTESIAN_POINT('',(-0.775,1.125,0.7));
#753=DIRECTION('',(0.0,0.0,-1.0));
#754=DIRECTION('',(1.0,0.0,0.0));
#755=AXIS2_PLACEMENT_3D('',#752,#753,#754);
#756=CYLINDRICAL_SURFACE('',#755,0.25);
#757=CARTESIAN_POINT('',(-0.525,1.125,0.8));
#758=VERTEX_POINT('',#757);
#759=CARTESIAN_POINT('',(-0.525,1.125,0.75));
#760=VERTEX_POINT('',#759);
#761=CARTESIAN_POINT('',(-0.525,1.125,0.8));
#762=DIRECTION('',(0.0,0.0,-1.0));
#763=VECTOR('',#762,0.05);
#764=LINE('',#761,#763);
#765=EDGE_CURVE('',#758,#760,#764,.T.);
#766=ORIENTED_EDGE('',*,*,#765,.F.);
#767=CARTESIAN_POINT('',(-1.025,1.125,0.8));
#768=VERTEX_POINT('',#767);
#769=CARTESIAN_POINT('',(-0.775,1.125,0.8));
#770=DIRECTION('',(0.0,0.0,-1.0));
#771=DIRECTION('',(1.0,0.0,0.0));
#772=AXIS2_PLACEMENT_3D('',#769,#770,#771);
#773=CIRCLE('',#772,0.25);
#774=EDGE_CURVE('',#768,#758,#773,.T.);
#775=ORIENTED_EDGE('',*,*,#774,.F.);
#776=CARTESIAN_POINT('',(-1.025,1.125,0.75));
#777=VERTEX_POINT('',#776);
#778=CARTESIAN_POINT('',(-1.025,1.125,0.8));
#779=DIRECTION('',(0.0,0.0,-1.0));
#780=VECTOR('',#779,0.05);
#781=LINE('',#778,#780);
#782=EDGE_CURVE('',#768,#777,#781,.T.);
#783=ORIENTED_EDGE('',*,*,#782,.T.);
#784=CARTESIAN_POINT('',(-0.775,1.125,0.75));
#785=DIRECTION('',(0.0,0.0,1.0));
#786=DIRECTION('',(1.0,0.0,0.0));
#787=AXIS2_PLACEMENT_3D('',#784,#785,#786);
#788=CIRCLE('',#787,0.25);
#789=EDGE_CURVE('',#760,#777,#788,.T.);
#790=ORIENTED_EDGE('',*,*,#789,.F.);
#791=EDGE_LOOP('',(#766,#775,#783,#790));
#792=FACE_OUTER_BOUND('',#791,.T.);
#793=ADVANCED_FACE('',(#792),#756,.F.);
#794=CARTESIAN_POINT('',(-0.775,1.125,0.7));
#795=DIRECTION('',(0.0,0.0,-1.0));
#796=DIRECTION('',(1.0,0.0,0.0));
#797=AXIS2_PLACEMENT_3D('',#794,#795,#796);
#798=CYLINDRICAL_SURFACE('',#797,0.25);
#799=ORIENTED_EDGE('',*,*,#765,.T.);
#800=CARTESIAN_POINT('',(-0.775,1.125,0.75));
#801=DIRECTION('',(0.0,0.0,1.0));
#802=DIRECTION('',(1.0,0.0,0.0));
#803=AXIS2_PLACEMENT_3D('',#800,#801,#802);
#804=CIRCLE('',#803,0.25);
#805=EDGE_CURVE('',#777,#760,#804,.T.);
#806=ORIENTED_EDGE('',*,*,#805,.F.);
#807=ORIENTED_EDGE('',*,*,#782,.F.);
#808=CARTESIAN_POINT('',(-0.775,1.125,0.8));
#809=DIRECTION('',(0.0,0.0,-1.0));
#810=DIRECTION('',(1.0,0.0,0.0));
#811=AXIS2_PLACEMENT_3D('',#808,#809,#810);
#812=CIRCLE('',#811,0.25);
#813=EDGE_CURVE('',#758,#768,#812,.T.);
#814=ORIENTED_EDGE('',*,*,#813,.F.);
#815=EDGE_LOOP('',(#799,#806,#807,#814));
#816=FACE_OUTER_BOUND('',#815,.T.);
#817=ADVANCED_FACE('',(#816),#798,.F.);
#818=CARTESIAN_POINT('',(-0.775,1.125,0.75));
#819=DIRECTION('',(0.0,0.0,1.0));
#820=DIRECTION('',(1.0,0.0,0.0));
#821=AXIS2_PLACEMENT_3D('',#818,#819,#820);
#822=PLANE('',#821);
#823=ORIENTED_EDGE('',*,*,#789,.T.);
#824=ORIENTED_EDGE('',*,*,#805,.T.);
#825=EDGE_LOOP('',(#823,#824));
#826=FACE_OUTER_BOUND('',#825,.T.);
#827=ADVANCED_FACE('',(#826),#822,.T.);
#828=CARTESIAN_POINT('',(0.0,0.0,0.8));
#829=DIRECTION('',(0.0,0.0,1.0));
#830=DIRECTION('',(0.0,-1.0,0.0));
#831=AXIS2_PLACEMENT_3D('',#828,#829,#830);
#832=PLANE('',#831);
#833=CARTESIAN_POINT('',(-1.275,-1.625,0.8));
#834=VERTEX_POINT('',#833);
#835=CARTESIAN_POINT('',(1.275,-1.625,0.8));
#836=VERTEX_POINT('',#835);
#837=CARTESIAN_POINT('',(-1.275,-1.625,0.8));
#838=DIRECTION('',(1.0,0.0,0.0));
#839=VECTOR('',#838,2.55);
#840=LINE('',#837,#839);
#841=EDGE_CURVE('',#834,#836,#840,.T.);
#842=ORIENTED_EDGE('',*,*,#841,.T.);
#843=CARTESIAN_POINT('',(1.275,1.625,0.8));
#844=VERTEX_POINT('',#843);
#845=CARTESIAN_POINT('',(1.275,-1.625,0.8));
#846=DIRECTION('',(0.0,1.0,0.0));
#847=VECTOR('',#846,3.25);
#848=LINE('',#845,#847);
#849=EDGE_CURVE('',#836,#844,#848,.T.);
#850=ORIENTED_EDGE('',*,*,#849,.T.);
#851=CARTESIAN_POINT('',(-1.275,1.625,0.8));
#852=VERTEX_POINT('',#851);
#853=CARTESIAN_POINT('',(1.275,1.625,0.8));
#854=DIRECTION('',(-1.0,0.0,0.0));
#855=VECTOR('',#854,2.55);
#856=LINE('',#853,#855);
#857=EDGE_CURVE('',#844,#852,#856,.T.);
#858=ORIENTED_EDGE('',*,*,#857,.T.);
#859=CARTESIAN_POINT('',(-1.275,1.625,0.8));
#860=DIRECTION('',(0.0,-1.0,0.0));
#861=VECTOR('',#860,3.25);
#862=LINE('',#859,#861);
#863=EDGE_CURVE('',#852,#834,#862,.T.);
#864=ORIENTED_EDGE('',*,*,#863,.T.);
#865=EDGE_LOOP('',(#842,#850,#858,#864));
#866=FACE_OUTER_BOUND('',#865,.T.);
#867=ORIENTED_EDGE('',*,*,#813,.T.);
#868=ORIENTED_EDGE('',*,*,#774,.T.);
#869=EDGE_LOOP('',(#867,#868));
#870=FACE_BOUND('',#869,.T.);
#871=ADVANCED_FACE('',(#866,#870),#832,.T.);
#872=CARTESIAN_POINT('',(0.0,0.0,0.01));
#873=DIRECTION('',(0.0,0.0,1.0));
#874=DIRECTION('',(0.0,-1.0,0.0));
#875=AXIS2_PLACEMENT_3D('',#872,#873,#874);
#876=PLANE('',#875);
#877=CARTESIAN_POINT('',(1.275,-1.625,0.01));
#878=VERTEX_POINT('',#877);
#879=CARTESIAN_POINT('',(-1.275,-1.625,0.01));
#880=VERTEX_POINT('',#879);
#881=CARTESIAN_POINT('',(1.275,-1.625,0.01));
#882=DIRECTION('',(-1.0,0.0,0.0));
#883=VECTOR('',#882,2.55);
#884=LINE('',#881,#883);
#885=EDGE_CURVE('',#878,#880,#884,.T.);
#886=ORIENTED_EDGE('',*,*,#885,.T.);
#887=CARTESIAN_POINT('',(-1.275,1.625,0.01));
#888=VERTEX_POINT('',#887);
#889=CARTESIAN_POINT('',(-1.275,-1.625,0.01));
#890=DIRECTION('',(0.0,1.0,0.0));
#891=VECTOR('',#890,3.25);
#892=LINE('',#889,#891);
#893=EDGE_CURVE('',#880,#888,#892,.T.);
#894=ORIENTED_EDGE('',*,*,#893,.T.);
#895=CARTESIAN_POINT('',(1.275,1.625,0.01));
#896=VERTEX_POINT('',#895);
#897=CARTESIAN_POINT('',(-1.275,1.625,0.01));
#898=DIRECTION('',(1.0,0.0,0.0));
#899=VECTOR('',#898,2.55);
#900=LINE('',#897,#899);
#901=EDGE_CURVE('',#888,#896,#900,.T.);
#902=ORIENTED_EDGE('',*,*,#901,.T.);
#903=CARTESIAN_POINT('',(1.275,1.625,0.01));
#904=DIRECTION('',(0.0,-1.0,0.0));
#905=VECTOR('',#904,3.25);
#906=LINE('',#903,#905);
#907=EDGE_CURVE('',#896,#878,#906,.T.);
#908=ORIENTED_EDGE('',*,*,#907,.T.);
#909=EDGE_LOOP('',(#886,#894,#902,#908));
#910=FACE_OUTER_BOUND('',#909,.T.);
#911=ADVANCED_FACE('',(#910),#876,.F.);
#912=CARTESIAN_POINT('',(-1.275,2.831069E-016,0.355));
#913=DIRECTION('',(1.0,0.0,0.0));
#914=DIRECTION('',(0.0,0.0,1.0));
#915=AXIS2_PLACEMENT_3D('',#912,#913,#914);
#916=PLANE('',#915);
#917=CARTESIAN_POINT('',(-1.275,1.625,0.8));
#918=DIRECTION('',(0.0,0.0,-1.0));
#919=VECTOR('',#918,0.79);
#920=LINE('',#917,#919);
#921=EDGE_CURVE('',#852,#888,#920,.T.);
#922=ORIENTED_EDGE('',*,*,#921,.T.);
#923=ORIENTED_EDGE('',*,*,#893,.F.);
#924=CARTESIAN_POINT('',(-1.275,-1.625,0.8));
#925=DIRECTION('',(0.0,0.0,-1.0));
#926=VECTOR('',#925,0.79);
#927=LINE('',#924,#926);
#928=EDGE_CURVE('',#834,#880,#927,.T.);
#929=ORIENTED_EDGE('',*,*,#928,.F.);
#930=ORIENTED_EDGE('',*,*,#863,.F.);
#931=EDGE_LOOP('',(#922,#923,#929,#930));
#932=FACE_OUTER_BOUND('',#931,.T.);
#933=ADVANCED_FACE('',(#932),#916,.F.);
#934=CARTESIAN_POINT('',(3.608225E-016,1.625,0.355));
#935=DIRECTION('',(0.0,-1.0,0.0));
#936=DIRECTION('',(0.0,0.0,-1.0));
#937=AXIS2_PLACEMENT_3D('',#934,#935,#936);
#938=PLANE('',#937);
#939=CARTESIAN_POINT('',(1.275,1.625,0.8));
#940=DIRECTION('',(0.0,0.0,-1.0));
#941=VECTOR('',#940,0.79);
#942=LINE('',#939,#941);
#943=EDGE_CURVE('',#844,#896,#942,.T.);
#944=ORIENTED_EDGE('',*,*,#943,.T.);
#945=ORIENTED_EDGE('',*,*,#901,.F.);
#946=ORIENTED_EDGE('',*,*,#921,.F.);
#947=ORIENTED_EDGE('',*,*,#857,.F.);
#948=EDGE_LOOP('',(#944,#945,#946,#947));
#949=FACE_OUTER_BOUND('',#948,.T.);
#950=ADVANCED_FACE('',(#949),#938,.F.);
#951=CARTESIAN_POINT('',(1.275,-2.831069E-016,0.355));
#952=DIRECTION('',(-1.0,0.0,0.0));
#953=DIRECTION('',(0.0,0.0,-1.0));
#954=AXIS2_PLACEMENT_3D('',#951,#952,#953);
#955=PLANE('',#954);
#956=CARTESIAN_POINT('',(1.275,-1.625,0.8));
#957=DIRECTION('',(0.0,0.0,-1.0));
#958=VECTOR('',#957,0.79);
#959=LINE('',#956,#958);
#960=EDGE_CURVE('',#836,#878,#959,.T.);
#961=ORIENTED_EDGE('',*,*,#960,.T.);
#962=ORIENTED_EDGE('',*,*,#907,.F.);
#963=ORIENTED_EDGE('',*,*,#943,.F.);
#964=ORIENTED_EDGE('',*,*,#849,.F.);
#965=EDGE_LOOP('',(#961,#962,#963,#964));
#966=FACE_OUTER_BOUND('',#965,.T.);
#967=ADVANCED_FACE('',(#966),#955,.F.);
#968=CARTESIAN_POINT('',(-3.608225E-016,-1.625,0.355));
#969=DIRECTION('',(0.0,1.0,0.0));
#970=DIRECTION('',(0.0,0.0,1.0));
#971=AXIS2_PLACEMENT_3D('',#968,#969,#970);
#972=PLANE('',#971);
#973=ORIENTED_EDGE('',*,*,#928,.T.);
#974=ORIENTED_EDGE('',*,*,#885,.F.);
#975=ORIENTED_EDGE('',*,*,#960,.F.);
#976=ORIENTED_EDGE('',*,*,#841,.F.);
#977=EDGE_LOOP('',(#973,#974,#975,#976));
#978=FACE_OUTER_BOUND('',#977,.T.);
#979=ADVANCED_FACE('',(#978),#972,.F.);
#980=CLOSED_SHELL('',(#793,#817,#827,#871,#911,#933,#950,#967,#979));
#981=MANIFOLD_SOLID_BREP('2C8D',#980);
#982=COLOUR_RGB('250',0.33,0.33,0.33);
#983=SURFACE_STYLE_USAGE(.BOTH.,#984);
#984=SURFACE_SIDE_STYLE('NONE',(#985));
#985=SURFACE_STYLE_FILL_AREA(#986);
#986=FILL_AREA_STYLE('NONE',(#987));
#987=FILL_AREA_STYLE_COLOUR('NONE',#982);
#988=PRESENTATION_STYLE_ASSIGNMENT((#983));
#989=STYLED_ITEM('NONE',(#988),#981);
#990=ADVANCED_BREP_SHAPE_REPRESENTATION('ABSR1',(#216,#378,#531,#750,#981),#28);
#991=SHAPE_REPRESENTATION_RELATIONSHIP('SRRPL1','',#990,#62);
ENDSEC;
END-ISO-10303-21;
