ISO-10303-21;
HEADER;
/****************************************************************
 * Generated by software with PDE/Lib inside                    *
 * PDE/Lib Version 3.2.2, created Thu Mar 23, 2000 at 18:38:49  *
 * International Technegroup Inc. (www.iti-oh.com)              *
 ****************************************************************/
FILE_DESCRIPTION((''),'2;1');
FILE_NAME('PB_MULTIMEC_3ETL9-10.stp','2009-08-31T10:21:04',(''),(''),'Mechanical Desktop 2006','Mechanical Desktop 2006',', , ');
FILE_SCHEMA(('AUTOMOTIVE_DESIGN { 1 2 10303 214 0 1 1 1 }'));
ENDSEC;
DATA;
#8=(NAMED_UNIT(*)PLANE_ANGLE_UNIT()SI_UNIT($,.RADIAN.));
#9=DIMENSIONAL_EXPONENTS(0.0,0.0,0.0,0.0,0.0,0.0,0.0);
#10=PLANE_ANGLE_MEASURE_WITH_UNIT(PLANE_ANGLE_MEASURE(0.017453292500000),#8);
#14=(CONVERSION_BASED_UNIT('DEGREE',#10)NAMED_UNIT(#9)PLANE_ANGLE_UNIT());
#18=(NAMED_UNIT(*)SI_UNIT($,.STERADIAN.)SOLID_ANGLE_UNIT());
#22=(LENGTH_UNIT()NAMED_UNIT(*)SI_UNIT(.MILLI.,.METRE.));
#23=UNCERTAINTY_MEASURE_WITH_UNIT(LENGTH_MEASURE(0.000001000000000),#22,'DISTANCE_ACCURACY_VALUE','');
#28=(GEOMETRIC_REPRESENTATION_CONTEXT(3)GLOBAL_UNCERTAINTY_ASSIGNED_CONTEXT((#23))GLOBAL_UNIT_ASSIGNED_CONTEXT((#14,#18,#22))REPRESENTATION_CONTEXT('None','None'));
#29=APPLICATION_CONTEXT('automotive design');
#30=APPLICATION_PROTOCOL_DEFINITION('DRAFT_INTERNATIONAL_STANDARD','automotive_design',1998,#29);
#31=PRODUCT_CONTEXT('3D Mechanical Parts',#29,'mechanical');
#32=PRODUCT('Product','Product','',(#31));
#33=PRODUCT_RELATED_PRODUCT_CATEGORY('part',$,(#32));
#34=PRODUCT_CATEGORY('part',$);
#35=PERSON('1','Design','Joe',$,$,$);
#36=ORGANIZATION($,'None','None');
#37=PERSON_AND_ORGANIZATION(#35,#36);
#38=PERSON_AND_ORGANIZATION_ROLE('design_owner');
#39=APPLIED_PERSON_AND_ORGANIZATION_ASSIGNMENT(#37,#38,(#32));
#40=PRODUCT_DEFINITION_FORMATION_WITH_SPECIFIED_SOURCE('None','',#32,.BOUGHT.);
#41=PERSON('2','Creator','Joe',$,$,$);
#42=ORGANIZATION($,'None','None');
#43=PERSON_AND_ORGANIZATION(#41,#42);
#44=PERSON_AND_ORGANIZATION_ROLE('creator');
#45=APPLIED_PERSON_AND_ORGANIZATION_ASSIGNMENT(#43,#44,(#40));
#46=PERSON('3','Supplier','Joe',$,$,$);
#47=ORGANIZATION($,'None','None');
#48=PERSON_AND_ORGANIZATION(#46,#47);
#49=PERSON_AND_ORGANIZATION_ROLE('design_supplier');
#50=APPLIED_PERSON_AND_ORGANIZATION_ASSIGNMENT(#48,#49,(#40));
#51=PRODUCT_DEFINITION_CONTEXT('part definition',#29,'design');
#52=PRODUCT_DEFINITION('None','',#40,#51);
#53=PERSON('4','Creator','Joe',$,$,$);
#54=ORGANIZATION($,'None','None');
#55=PERSON_AND_ORGANIZATION(#53,#54);
#56=PERSON_AND_ORGANIZATION_ROLE('creator');
#57=APPLIED_PERSON_AND_ORGANIZATION_ASSIGNMENT(#55,#56,(#52));
#58=CARTESIAN_POINT('NONE',(0.0,0.0,0.0));
#59=DIRECTION('NONE',(0.0,0.0,1.0));
#60=DIRECTION('NONE',(1.0,0.0,0.0));
#61=AXIS2_PLACEMENT_3D('NONE',#58,#59,#60);
#62=SHAPE_REPRESENTATION('SR1',(#61),#28);
#63=PRODUCT_DEFINITION_SHAPE('PDS1','Test Part',#52);
#64=SHAPE_DEFINITION_REPRESENTATION(#63,#62);
#65=CARTESIAN_POINT('',(-4.549999999999999,4.550000000000001,-1.981422E-015));
#66=DIRECTION('',(-5.224579E-016,0.0,1.0));
#67=DIRECTION('',(-0.707106781186548,0.707106781186548,-3.694335E-016));
#68=AXIS2_PLACEMENT_3D('',#65,#66,#67);
#69=CYLINDRICAL_SURFACE('',#68,0.500000000000000);
#70=CARTESIAN_POINT('',(-4.903553390593273,4.903553390593275,-2.321944E-015));
#71=VERTEX_POINT('',#70);
#72=CARTESIAN_POINT('',(-4.903553390593276,4.903553390593274,4.599999999999998));
#73=VERTEX_POINT('',#72);
#74=CARTESIAN_POINT('',(-4.903553390593273,4.903553390593275,-2.321944E-015));
#75=DIRECTION('',(0.0,0.0,1.0));
#76=VECTOR('',#75,4.600000000000001);
#77=LINE('',#74,#76);
#78=EDGE_CURVE('',#71,#73,#77,.T.);
#79=ORIENTED_EDGE('',*,*,#78,.F.);
#80=CARTESIAN_POINT('',(-5.049999999999999,4.550000000000001,-2.242651E-015));
#81=VERTEX_POINT('',#80);
#82=CARTESIAN_POINT('',(-4.549999999999999,4.550000000000001,-2.377183E-015));
#83=DIRECTION('',(-2.612289E-016,2.612289E-016,1.000000000000000));
#84=DIRECTION('',(-0.707106781186548,0.707106781186548,-3.694335E-016));
#85=AXIS2_PLACEMENT_3D('',#82,#83,#84);
#86=CIRCLE('',#85,0.500000000000000);
#87=EDGE_CURVE('',#71,#81,#86,.T.);
#88=ORIENTED_EDGE('',*,*,#87,.T.);
#89=CARTESIAN_POINT('',(-5.050000000000002,4.550000000000001,4.599999999999998));
#90=VERTEX_POINT('',#89);
#91=CARTESIAN_POINT('',(-5.049999999999999,4.550000000000001,-2.242651E-015));
#92=DIRECTION('',(0.0,0.0,1.0));
#93=VECTOR('',#92,4.600000000000001);
#94=LINE('',#91,#93);
#95=EDGE_CURVE('',#81,#90,#94,.T.);
#96=ORIENTED_EDGE('',*,*,#95,.T.);
#97=CARTESIAN_POINT('',(-4.550000000000002,4.550000000000001,4.599999999999997));
#98=DIRECTION('',(1.776357E-015,-1.776357E-015,1.0));
#99=DIRECTION('',(-0.707106781186546,0.707106781186549,2.512148E-015));
#100=AXIS2_PLACEMENT_3D('',#97,#98,#99);
#101=CIRCLE('',#100,0.500000000000000);
#102=EDGE_CURVE('',#73,#90,#101,.T.);
#103=ORIENTED_EDGE('',*,*,#102,.F.);
#104=EDGE_LOOP('',(#79,#88,#96,#103));
#105=FACE_OUTER_BOUND('',#104,.T.);
#106=ADVANCED_FACE('',(#105),#69,.T.);
#107=CARTESIAN_POINT('',(-2.525000000000002,4.550000000000001,4.599999999999998));
#108=DIRECTION('',(1.0,0.0,4.440892E-016));
#109=DIRECTION('',(-1.256074E-015,0.707106781186548,0.707106781186548));
#110=AXIS2_PLACEMENT_3D('',#107,#108,#109);
#111=CYLINDRICAL_SURFACE('',#110,0.500000000000000);
#112=CARTESIAN_POINT('',(-4.550000000000002,4.903553390593275,4.953553390593271));
#113=VERTEX_POINT('',#112);
#114=CARTESIAN_POINT('',(4.549999999999996,4.903553390593274,4.953553390593275));
#115=VERTEX_POINT('',#114);
#116=CARTESIAN_POINT('',(-4.550000000000002,4.903553390593275,4.953553390593271));
#117=DIRECTION('',(1.0,0.0,0.0));
#118=VECTOR('',#117,9.099999999999998);
#119=LINE('',#116,#118);
#120=EDGE_CURVE('',#113,#115,#119,.T.);
#121=ORIENTED_EDGE('',*,*,#120,.F.);
#122=CARTESIAN_POINT('',(-4.550000000000002,4.550000000000001,5.099999999999998));
#123=VERTEX_POINT('',#122);
#124=CARTESIAN_POINT('',(-4.550000000000001,4.550000000000001,4.599999999999997));
#125=DIRECTION('',(-1.0,0.0,0.0));
#126=DIRECTION('',(0.0,0.707106781186546,0.707106781186549));
#127=AXIS2_PLACEMENT_3D('',#124,#125,#126);
#128=CIRCLE('',#127,0.500000000000000);
#129=EDGE_CURVE('',#123,#113,#128,.T.);
#130=ORIENTED_EDGE('',*,*,#129,.F.);
#131=CARTESIAN_POINT('',(4.549999999999996,4.550000000000001,5.100000000000001));
#132=VERTEX_POINT('',#131);
#133=CARTESIAN_POINT('',(-4.550000000000002,4.550000000000001,5.099999999999998));
#134=DIRECTION('',(1.0,0.0,0.0));
#135=VECTOR('',#134,9.099999999999998);
#136=LINE('',#133,#135);
#137=EDGE_CURVE('',#123,#132,#136,.T.);
#138=ORIENTED_EDGE('',*,*,#137,.T.);
#139=CARTESIAN_POINT('',(4.549999999999995,4.550000000000001,4.600000000000001));
#140=DIRECTION('',(1.000000000000000,-1.776357E-015,-1.776357E-015));
#141=DIRECTION('',(2.512148E-015,0.707106781186548,0.707106781186548));
#142=AXIS2_PLACEMENT_3D('',#139,#140,#141);
#143=CIRCLE('',#142,0.500000000000000);
#144=EDGE_CURVE('',#115,#132,#143,.T.);
#145=ORIENTED_EDGE('',*,*,#144,.F.);
#146=EDGE_LOOP('',(#121,#130,#138,#145));
#147=FACE_OUTER_BOUND('',#146,.T.);
#148=ADVANCED_FACE('',(#147),#111,.T.);
#149=CARTESIAN_POINT('',(4.549999999999999,4.550000000000001,2.377183E-015));
#150=DIRECTION('',(-5.224579E-016,0.0,1.0));
#151=DIRECTION('',(0.707106781186548,0.707106781186548,3.694335E-016));
#152=AXIS2_PLACEMENT_3D('',#149,#150,#151);
#153=CYLINDRICAL_SURFACE('',#152,0.500000000000000);
#154=CARTESIAN_POINT('',(4.903553390593273,4.903553390593275,2.321944E-015));
#155=VERTEX_POINT('',#154);
#156=CARTESIAN_POINT('',(4.903553390593269,4.903553390593275,4.600000000000001));
#157=VERTEX_POINT('',#156);
#158=CARTESIAN_POINT('',(4.903553390593273,4.903553390593275,2.321944E-015));
#159=DIRECTION('',(0.0,0.0,1.0));
#160=VECTOR('',#159,4.599999999999999);
#161=LINE('',#158,#160);
#162=EDGE_CURVE('',#155,#157,#161,.T.);
#163=ORIENTED_EDGE('',*,*,#162,.F.);
#164=CARTESIAN_POINT('',(4.549999999999999,5.050000000000001,2.020606E-015));
#165=VERTEX_POINT('',#164);
#166=CARTESIAN_POINT('',(4.549999999999999,4.550000000000001,2.377183E-015));
#167=DIRECTION('',(-2.612289E-016,-2.612289E-016,1.000000000000000));
#168=DIRECTION('',(0.707106781186548,0.707106781186548,3.694335E-016));
#169=AXIS2_PLACEMENT_3D('',#166,#167,#168);
#170=CIRCLE('',#169,0.500000000000000);
#171=EDGE_CURVE('',#155,#165,#170,.T.);
#172=ORIENTED_EDGE('',*,*,#171,.T.);
#173=CARTESIAN_POINT('',(4.549999999999996,5.050000000000001,4.600000000000001));
#174=VERTEX_POINT('',#173);
#175=CARTESIAN_POINT('',(4.549999999999999,5.050000000000001,2.020606E-015));
#176=DIRECTION('',(0.0,0.0,1.0));
#177=VECTOR('',#176,4.600000000000000);
#178=LINE('',#175,#177);
#179=EDGE_CURVE('',#165,#174,#178,.T.);
#180=ORIENTED_EDGE('',*,*,#179,.T.);
#181=CARTESIAN_POINT('',(4.549999999999996,4.550000000000001,4.600000000000001));
#182=DIRECTION('',(0.0,0.0,1.000000000000000));
#183=DIRECTION('',(0.707106781186548,0.707106781186548,0.0));
#184=AXIS2_PLACEMENT_3D('',#181,#182,#183);
#185=CIRCLE('',#184,0.500000000000000);
#186=EDGE_CURVE('',#157,#174,#185,.T.);
#187=ORIENTED_EDGE('',*,*,#186,.F.);
#188=EDGE_LOOP('',(#163,#172,#180,#187));
#189=FACE_OUTER_BOUND('',#188,.T.);
#190=ADVANCED_FACE('',(#189),#153,.T.);
#191=CARTESIAN_POINT('',(-4.550000000000002,-2.525000000000000,4.599999999999998));
#192=DIRECTION('',(-1.609948E-048,1.0,3.081488E-033));
#193=DIRECTION('',(-0.707106781186548,0.0,0.707106781186548));
#194=AXIS2_PLACEMENT_3D('',#191,#192,#193);
#195=CYLINDRICAL_SURFACE('',#194,0.500000000000000);
#196=CARTESIAN_POINT('',(-4.903553390593276,-4.550000000000001,4.953553390593272));
#197=VERTEX_POINT('',#196);
#198=CARTESIAN_POINT('',(-4.903553390593276,4.550000000000001,4.953553390593272));
#199=VERTEX_POINT('',#198);
#200=CARTESIAN_POINT('',(-4.903553390593276,-4.550000000000001,4.953553390593272));
#201=DIRECTION('',(0.0,1.0,0.0));
#202=VECTOR('',#201,9.100000000000001);
#203=LINE('',#200,#202);
#204=EDGE_CURVE('',#197,#199,#203,.T.);
#205=ORIENTED_EDGE('',*,*,#204,.F.);
#206=CARTESIAN_POINT('',(-4.550000000000003,-4.550000000000001,5.099999999999997));
#207=VERTEX_POINT('',#206);
#208=CARTESIAN_POINT('',(-4.550000000000002,-4.550000000000001,4.599999999999998));
#209=DIRECTION('',(0.0,-1.0,0.0));
#210=DIRECTION('',(-0.707106781186549,0.0,0.707106781186546));
#211=AXIS2_PLACEMENT_3D('',#208,#209,#210);
#212=CIRCLE('',#211,0.500000000000000);
#213=EDGE_CURVE('',#207,#197,#212,.T.);
#214=ORIENTED_EDGE('',*,*,#213,.F.);
#215=CARTESIAN_POINT('',(-4.550000000000003,-4.550000000000001,5.099999999999997));
#216=DIRECTION('',(0.0,1.0,0.0));
#217=VECTOR('',#216,9.100000000000001);
#218=LINE('',#215,#217);
#219=EDGE_CURVE('',#207,#123,#218,.T.);
#220=ORIENTED_EDGE('',*,*,#219,.T.);
#221=CARTESIAN_POINT('',(-4.550000000000002,4.550000000000001,4.599999999999998));
#222=DIRECTION('',(0.0,1.0,0.0));
#223=DIRECTION('',(0.0,0.0,1.0));
#224=AXIS2_PLACEMENT_3D('',#221,#222,#223);
#225=CIRCLE('',#224,0.500000000000000);
#226=EDGE_CURVE('',#123,#199,#225,.F.);
#227=ORIENTED_EDGE('',*,*,#226,.T.);
#228=EDGE_LOOP('',(#205,#214,#220,#227));
#229=FACE_OUTER_BOUND('',#228,.T.);
#230=ADVANCED_FACE('',(#229),#195,.T.);
#231=CARTESIAN_POINT('',(-4.549999999999999,-4.550000000000001,-2.377183E-015));
#232=DIRECTION('',(-5.224579E-016,0.0,1.0));
#233=DIRECTION('',(-0.707106781186548,-0.707106781186548,-3.694335E-016));
#234=AXIS2_PLACEMENT_3D('',#231,#232,#233);
#235=CYLINDRICAL_SURFACE('',#234,0.500000000000000);
#236=CARTESIAN_POINT('',(-4.903553390593273,-4.903553390593275,-2.321944E-015));
#237=VERTEX_POINT('',#236);
#238=CARTESIAN_POINT('',(-4.903553390593276,-4.903553390593274,4.599999999999998));
#239=VERTEX_POINT('',#238);
#240=CARTESIAN_POINT('',(-4.903553390593273,-4.903553390593275,-2.321944E-015));
#241=DIRECTION('',(0.0,0.0,1.0));
#242=VECTOR('',#241,4.600000000000001);
#243=LINE('',#240,#242);
#244=EDGE_CURVE('',#237,#239,#243,.T.);
#245=ORIENTED_EDGE('',*,*,#244,.F.);
#246=CARTESIAN_POINT('',(-4.549999999999999,-5.050000000000001,-2.020606E-015));
#247=VERTEX_POINT('',#246);
#248=CARTESIAN_POINT('',(-4.549999999999999,-4.550000000000001,-2.377183E-015));
#249=DIRECTION('',(-2.612289E-016,-2.612289E-016,1.000000000000000));
#250=DIRECTION('',(-0.707106781186548,-0.707106781186548,-3.694335E-016));
#251=AXIS2_PLACEMENT_3D('',#248,#249,#250);
#252=CIRCLE('',#251,0.500000000000000);
#253=EDGE_CURVE('',#237,#247,#252,.T.);
#254=ORIENTED_EDGE('',*,*,#253,.T.);
#255=CARTESIAN_POINT('',(-4.550000000000003,-5.050000000000001,4.599999999999998));
#256=VERTEX_POINT('',#255);
#257=CARTESIAN_POINT('',(-4.549999999999999,-5.050000000000001,-2.020606E-015));
#258=DIRECTION('',(0.0,0.0,1.0));
#259=VECTOR('',#258,4.600000000000000);
#260=LINE('',#257,#259);
#261=EDGE_CURVE('',#247,#256,#260,.T.);
#262=ORIENTED_EDGE('',*,*,#261,.T.);
#263=CARTESIAN_POINT('',(-4.550000000000002,-4.550000000000001,4.599999999999998));
#264=DIRECTION('',(0.0,0.0,1.000000000000000));
#265=DIRECTION('',(-0.707106781186548,-0.707106781186548,0.0));
#266=AXIS2_PLACEMENT_3D('',#263,#264,#265);
#267=CIRCLE('',#266,0.500000000000000);
#268=EDGE_CURVE('',#239,#256,#267,.T.);
#269=ORIENTED_EDGE('',*,*,#268,.F.);
#270=EDGE_LOOP('',(#245,#254,#262,#269));
#271=FACE_OUTER_BOUND('',#270,.T.);
#272=ADVANCED_FACE('',(#271),#235,.T.);
#273=CARTESIAN_POINT('',(4.549999999999996,2.525000000000000,4.600000000000001));
#274=DIRECTION('',(1.609948E-048,-1.0,-3.081488E-033));
#275=DIRECTION('',(0.707106781186548,0.0,0.707106781186548));
#276=AXIS2_PLACEMENT_3D('',#273,#274,#275);
#277=CYLINDRICAL_SURFACE('',#276,0.500000000000000);
#278=CARTESIAN_POINT('',(4.903553390593270,4.550000000000001,4.953553390593275));
#279=VERTEX_POINT('',#278);
#280=CARTESIAN_POINT('',(4.903553390593270,-4.550000000000001,4.953553390593275));
#281=VERTEX_POINT('',#280);
#282=CARTESIAN_POINT('',(4.903553390593270,4.550000000000001,4.953553390593275));
#283=DIRECTION('',(0.0,-1.0,0.0));
#284=VECTOR('',#283,9.100000000000001);
#285=LINE('',#282,#284);
#286=EDGE_CURVE('',#279,#281,#285,.T.);
#287=ORIENTED_EDGE('',*,*,#286,.F.);
#288=CARTESIAN_POINT('',(4.549999999999996,4.550000000000001,4.600000000000001));
#289=DIRECTION('',(0.0,1.0,0.0));
#290=DIRECTION('',(1.0,0.0,0.0));
#291=AXIS2_PLACEMENT_3D('',#288,#289,#290);
#292=CIRCLE('',#291,0.500000000000000);
#293=EDGE_CURVE('',#279,#132,#292,.F.);
#294=ORIENTED_EDGE('',*,*,#293,.T.);
#295=CARTESIAN_POINT('',(4.549999999999996,-4.550000000000001,5.100000000000001));
#296=VERTEX_POINT('',#295);
#297=CARTESIAN_POINT('',(4.549999999999996,4.550000000000001,5.100000000000001));
#298=DIRECTION('',(0.0,-1.0,0.0));
#299=VECTOR('',#298,9.100000000000001);
#300=LINE('',#297,#299);
#301=EDGE_CURVE('',#132,#296,#300,.T.);
#302=ORIENTED_EDGE('',*,*,#301,.T.);
#303=CARTESIAN_POINT('',(4.549999999999996,-4.550000000000001,4.600000000000001));
#304=DIRECTION('',(0.0,-1.000000000000000,0.0));
#305=DIRECTION('',(0.707106781186548,0.0,0.707106781186548));
#306=AXIS2_PLACEMENT_3D('',#303,#304,#305);
#307=CIRCLE('',#306,0.500000000000000);
#308=EDGE_CURVE('',#281,#296,#307,.T.);
#309=ORIENTED_EDGE('',*,*,#308,.F.);
#310=EDGE_LOOP('',(#287,#294,#302,#309));
#311=FACE_OUTER_BOUND('',#310,.T.);
#312=ADVANCED_FACE('',(#311),#277,.T.);
#313=CARTESIAN_POINT('',(4.549999999999999,-4.550000000000001,1.981422E-015));
#314=DIRECTION('',(-5.224579E-016,0.0,1.0));
#315=DIRECTION('',(0.707106781186548,-0.707106781186548,3.694335E-016));
#316=AXIS2_PLACEMENT_3D('',#313,#314,#315);
#317=CYLINDRICAL_SURFACE('',#316,0.500000000000000);
#318=CARTESIAN_POINT('',(4.903553390593273,-4.903553390593275,2.321944E-015));
#319=VERTEX_POINT('',#318);
#320=CARTESIAN_POINT('',(4.903553390593269,-4.903553390593275,4.600000000000001));
#321=VERTEX_POINT('',#320);
#322=CARTESIAN_POINT('',(4.903553390593273,-4.903553390593275,2.321944E-015));
#323=DIRECTION('',(0.0,0.0,1.0));
#324=VECTOR('',#323,4.599999999999998);
#325=LINE('',#322,#324);
#326=EDGE_CURVE('',#319,#321,#325,.T.);
#327=ORIENTED_EDGE('',*,*,#326,.F.);
#328=CARTESIAN_POINT('',(5.049999999999999,-4.550000000000001,2.242651E-015));
#329=VERTEX_POINT('',#328);
#330=CARTESIAN_POINT('',(4.549999999999999,-4.550000000000001,2.377183E-015));
#331=DIRECTION('',(-2.612289E-016,2.612289E-016,1.000000000000000));
#332=DIRECTION('',(0.707106781186548,-0.707106781186548,3.694335E-016));
#333=AXIS2_PLACEMENT_3D('',#330,#331,#332);
#334=CIRCLE('',#333,0.500000000000000);
#335=EDGE_CURVE('',#319,#329,#334,.T.);
#336=ORIENTED_EDGE('',*,*,#335,.T.);
#337=CARTESIAN_POINT('',(5.049999999999996,-4.550000000000001,4.600000000000001));
#338=VERTEX_POINT('',#337);
#339=CARTESIAN_POINT('',(5.049999999999999,-4.550000000000001,2.242651E-015));
#340=DIRECTION('',(0.0,0.0,1.0));
#341=VECTOR('',#340,4.599999999999999);
#342=LINE('',#339,#341);
#343=EDGE_CURVE('',#329,#338,#342,.T.);
#344=ORIENTED_EDGE('',*,*,#343,.T.);
#345=CARTESIAN_POINT('',(4.549999999999996,-4.550000000000001,4.600000000000002));
#346=DIRECTION('',(1.776357E-015,-1.776357E-015,1.0));
#347=DIRECTION('',(0.707106781186549,-0.707106781186546,-2.512148E-015));
#348=AXIS2_PLACEMENT_3D('',#345,#346,#347);
#349=CIRCLE('',#348,0.500000000000000);
#350=EDGE_CURVE('',#321,#338,#349,.T.);
#351=ORIENTED_EDGE('',*,*,#350,.F.);
#352=EDGE_LOOP('',(#327,#336,#344,#351));
#353=FACE_OUTER_BOUND('',#352,.T.);
#354=ADVANCED_FACE('',(#353),#317,.T.);
#355=CARTESIAN_POINT('',(2.524999999999997,-4.550000000000001,4.600000000000001));
#356=DIRECTION('',(-1.0,0.0,-4.440892E-016));
#357=DIRECTION('',(0.0,-0.707106781186548,0.707106781186548));
#358=AXIS2_PLACEMENT_3D('',#355,#356,#357);
#359=CYLINDRICAL_SURFACE('',#358,0.500000000000000);
#360=CARTESIAN_POINT('',(4.549999999999996,-4.903553390593275,4.953553390593276));
#361=VERTEX_POINT('',#360);
#362=CARTESIAN_POINT('',(-4.550000000000003,-4.903553390593274,4.953553390593270));
#363=VERTEX_POINT('',#362);
#364=CARTESIAN_POINT('',(4.549999999999996,-4.903553390593275,4.953553390593276));
#365=DIRECTION('',(-1.0,0.0,0.0));
#366=VECTOR('',#365,9.099999999999998);
#367=LINE('',#364,#366);
#368=EDGE_CURVE('',#361,#363,#367,.T.);
#369=ORIENTED_EDGE('',*,*,#368,.F.);
#370=CARTESIAN_POINT('',(4.549999999999997,-4.550000000000001,4.600000000000002));
#371=DIRECTION('',(1.0,0.0,0.0));
#372=DIRECTION('',(0.0,-1.0,0.0));
#373=AXIS2_PLACEMENT_3D('',#370,#371,#372);
#374=CIRCLE('',#373,0.500000000000000);
#375=EDGE_CURVE('',#361,#296,#374,.F.);
#376=ORIENTED_EDGE('',*,*,#375,.T.);
#377=CARTESIAN_POINT('',(4.549999999999996,-4.550000000000001,5.100000000000001));
#378=DIRECTION('',(-1.0,0.0,0.0));
#379=VECTOR('',#378,9.099999999999998);
#380=LINE('',#377,#379);
#381=EDGE_CURVE('',#296,#207,#380,.T.);
#382=ORIENTED_EDGE('',*,*,#381,.T.);
#383=CARTESIAN_POINT('',(-4.550000000000003,-4.550000000000001,4.599999999999998));
#384=DIRECTION('',(-1.0,0.0,0.0));
#385=DIRECTION('',(0.0,0.0,1.0));
#386=AXIS2_PLACEMENT_3D('',#383,#384,#385);
#387=CIRCLE('',#386,0.499999999999999);
#388=EDGE_CURVE('',#207,#363,#387,.F.);
#389=ORIENTED_EDGE('',*,*,#388,.T.);
#390=EDGE_LOOP('',(#369,#376,#382,#389));
#391=FACE_OUTER_BOUND('',#390,.T.);
#392=ADVANCED_FACE('',(#391),#359,.T.);
#393=CARTESIAN_POINT('',(-4.550000000000002,4.550000000000001,4.599999999999997));
#394=DIRECTION('',(0.0,0.0,1.0));
#395=DIRECTION('',(1.0,0.0,0.0));
#396=AXIS2_PLACEMENT_3D('',#393,#394,#395);
#397=SPHERICAL_SURFACE('',#396,0.500000000000000);
#398=CARTESIAN_POINT('',(-4.550000000000001,5.050000000000001,4.599999999999997));
#399=VERTEX_POINT('',#398);
#400=CARTESIAN_POINT('',(-4.550000000000002,4.550000000000001,4.599999999999997));
#401=DIRECTION('',(1.776357E-015,-1.776357E-015,1.0));
#402=DIRECTION('',(-0.707106781186546,0.707106781186549,2.512148E-015));
#403=AXIS2_PLACEMENT_3D('',#400,#401,#402);
#404=CIRCLE('',#403,0.500000000000000);
#405=EDGE_CURVE('',#399,#73,#404,.T.);
#406=ORIENTED_EDGE('',*,*,#405,.T.);
#407=ORIENTED_EDGE('',*,*,#102,.T.);
#408=CARTESIAN_POINT('',(-4.550000000000002,4.550000000000001,4.599999999999998));
#409=DIRECTION('',(0.0,1.0,0.0));
#410=DIRECTION('',(0.0,0.0,1.0));
#411=AXIS2_PLACEMENT_3D('',#408,#409,#410);
#412=CIRCLE('',#411,0.500000000000000);
#413=EDGE_CURVE('',#199,#90,#412,.F.);
#414=ORIENTED_EDGE('',*,*,#413,.F.);
#415=ORIENTED_EDGE('',*,*,#226,.F.);
#416=ORIENTED_EDGE('',*,*,#129,.T.);
#417=CARTESIAN_POINT('',(-4.550000000000001,4.550000000000001,4.599999999999997));
#418=DIRECTION('',(-1.0,0.0,0.0));
#419=DIRECTION('',(0.0,0.707106781186546,0.707106781186549));
#420=AXIS2_PLACEMENT_3D('',#417,#418,#419);
#421=CIRCLE('',#420,0.500000000000000);
#422=EDGE_CURVE('',#113,#399,#421,.T.);
#423=ORIENTED_EDGE('',*,*,#422,.T.);
#424=EDGE_LOOP('',(#406,#407,#414,#415,#416,#423));
#425=FACE_OUTER_BOUND('',#424,.T.);
#426=ADVANCED_FACE('',(#425),#397,.T.);
#427=CARTESIAN_POINT('',(4.549999999999996,4.550000000000001,4.600000000000001));
#428=DIRECTION('',(0.0,0.0,1.0));
#429=DIRECTION('',(1.0,0.0,0.0));
#430=AXIS2_PLACEMENT_3D('',#427,#428,#429);
#431=SPHERICAL_SURFACE('',#430,0.500000000000000);
#432=CARTESIAN_POINT('',(4.549999999999995,4.550000000000001,4.600000000000001));
#433=DIRECTION('',(1.000000000000000,-1.776357E-015,-1.776357E-015));
#434=DIRECTION('',(2.512148E-015,0.707106781186548,0.707106781186548));
#435=AXIS2_PLACEMENT_3D('',#432,#433,#434);
#436=CIRCLE('',#435,0.500000000000000);
#437=EDGE_CURVE('',#174,#115,#436,.T.);
#438=ORIENTED_EDGE('',*,*,#437,.T.);
#439=ORIENTED_EDGE('',*,*,#144,.T.);
#440=ORIENTED_EDGE('',*,*,#293,.F.);
#441=CARTESIAN_POINT('',(5.049999999999996,4.550000000000001,4.600000000000001));
#442=VERTEX_POINT('',#441);
#443=CARTESIAN_POINT('',(4.549999999999996,4.550000000000001,4.600000000000001));
#444=DIRECTION('',(0.0,1.0,0.0));
#445=DIRECTION('',(1.0,0.0,0.0));
#446=AXIS2_PLACEMENT_3D('',#443,#444,#445);
#447=CIRCLE('',#446,0.500000000000000);
#448=EDGE_CURVE('',#442,#279,#447,.F.);
#449=ORIENTED_EDGE('',*,*,#448,.F.);
#450=CARTESIAN_POINT('',(4.549999999999996,4.550000000000001,4.600000000000001));
#451=DIRECTION('',(0.0,0.0,1.000000000000000));
#452=DIRECTION('',(0.707106781186548,0.707106781186548,0.0));
#453=AXIS2_PLACEMENT_3D('',#450,#451,#452);
#454=CIRCLE('',#453,0.500000000000000);
#455=EDGE_CURVE('',#442,#157,#454,.T.);
#456=ORIENTED_EDGE('',*,*,#455,.T.);
#457=ORIENTED_EDGE('',*,*,#186,.T.);
#458=EDGE_LOOP('',(#438,#439,#440,#449,#456,#457));
#459=FACE_OUTER_BOUND('',#458,.T.);
#460=ADVANCED_FACE('',(#459),#431,.T.);
#461=CARTESIAN_POINT('',(-4.550000000000002,-4.550000000000001,4.599999999999998));
#462=DIRECTION('',(0.0,0.0,1.0));
#463=DIRECTION('',(1.0,0.0,0.0));
#464=AXIS2_PLACEMENT_3D('',#461,#462,#463);
#465=SPHERICAL_SURFACE('',#464,0.500000000000000);
#466=CARTESIAN_POINT('',(-5.050000000000002,-4.550000000000001,4.599999999999998));
#467=VERTEX_POINT('',#466);
#468=CARTESIAN_POINT('',(-4.550000000000002,-4.550000000000001,4.599999999999998));
#469=DIRECTION('',(0.0,0.0,1.000000000000000));
#470=DIRECTION('',(-0.707106781186548,-0.707106781186548,0.0));
#471=AXIS2_PLACEMENT_3D('',#468,#469,#470);
#472=CIRCLE('',#471,0.500000000000000);
#473=EDGE_CURVE('',#467,#239,#472,.T.);
#474=ORIENTED_EDGE('',*,*,#473,.T.);
#475=ORIENTED_EDGE('',*,*,#268,.T.);
#476=CARTESIAN_POINT('',(-4.550000000000003,-4.550000000000001,4.599999999999998));
#477=DIRECTION('',(-1.0,0.0,0.0));
#478=DIRECTION('',(0.0,0.0,1.0));
#479=AXIS2_PLACEMENT_3D('',#476,#477,#478);
#480=CIRCLE('',#479,0.499999999999999);
#481=EDGE_CURVE('',#363,#256,#480,.F.);
#482=ORIENTED_EDGE('',*,*,#481,.F.);
#483=ORIENTED_EDGE('',*,*,#388,.F.);
#484=ORIENTED_EDGE('',*,*,#213,.T.);
#485=CARTESIAN_POINT('',(-4.550000000000002,-4.550000000000001,4.599999999999998));
#486=DIRECTION('',(0.0,-1.0,0.0));
#487=DIRECTION('',(-0.707106781186549,0.0,0.707106781186546));
#488=AXIS2_PLACEMENT_3D('',#485,#486,#487);
#489=CIRCLE('',#488,0.500000000000000);
#490=EDGE_CURVE('',#197,#467,#489,.T.);
#491=ORIENTED_EDGE('',*,*,#490,.T.);
#492=EDGE_LOOP('',(#474,#475,#482,#483,#484,#491));
#493=FACE_OUTER_BOUND('',#492,.T.);
#494=ADVANCED_FACE('',(#493),#465,.T.);
#495=CARTESIAN_POINT('',(4.549999999999996,-4.550000000000001,4.600000000000002));
#496=DIRECTION('',(0.0,0.0,1.0));
#497=DIRECTION('',(1.0,0.0,0.0));
#498=AXIS2_PLACEMENT_3D('',#495,#496,#497);
#499=SPHERICAL_SURFACE('',#498,0.500000000000000);
#500=CARTESIAN_POINT('',(4.549999999999996,-4.550000000000001,4.600000000000001));
#501=DIRECTION('',(0.0,-1.000000000000000,0.0));
#502=DIRECTION('',(0.707106781186548,0.0,0.707106781186548));
#503=AXIS2_PLACEMENT_3D('',#500,#501,#502);
#504=CIRCLE('',#503,0.500000000000000);
#505=EDGE_CURVE('',#338,#281,#504,.T.);
#506=ORIENTED_EDGE('',*,*,#505,.T.);
#507=ORIENTED_EDGE('',*,*,#308,.T.);
#508=ORIENTED_EDGE('',*,*,#375,.F.);
#509=CARTESIAN_POINT('',(4.549999999999997,-5.050000000000001,4.600000000000002));
#510=VERTEX_POINT('',#509);
#511=CARTESIAN_POINT('',(4.549999999999997,-4.550000000000001,4.600000000000002));
#512=DIRECTION('',(1.0,0.0,0.0));
#513=DIRECTION('',(0.0,-1.0,0.0));
#514=AXIS2_PLACEMENT_3D('',#511,#512,#513);
#515=CIRCLE('',#514,0.500000000000000);
#516=EDGE_CURVE('',#510,#361,#515,.F.);
#517=ORIENTED_EDGE('',*,*,#516,.F.);
#518=CARTESIAN_POINT('',(4.549999999999996,-4.550000000000001,4.600000000000002));
#519=DIRECTION('',(1.776357E-015,-1.776357E-015,1.0));
#520=DIRECTION('',(0.707106781186549,-0.707106781186546,-2.512148E-015));
#521=AXIS2_PLACEMENT_3D('',#518,#519,#520);
#522=CIRCLE('',#521,0.500000000000000);
#523=EDGE_CURVE('',#510,#321,#522,.T.);
#524=ORIENTED_EDGE('',*,*,#523,.T.);
#525=ORIENTED_EDGE('',*,*,#350,.T.);
#526=EDGE_LOOP('',(#506,#507,#508,#517,#524,#525));
#527=FACE_OUTER_BOUND('',#526,.T.);
#528=ADVANCED_FACE('',(#527),#499,.T.);
#529=CARTESIAN_POINT('',(2.524999999999997,-4.550000000000001,4.600000000000001));
#530=DIRECTION('',(-1.0,0.0,-4.440892E-016));
#531=DIRECTION('',(0.0,-0.707106781186548,0.707106781186548));
#532=AXIS2_PLACEMENT_3D('',#529,#530,#531);
#533=CYLINDRICAL_SURFACE('',#532,0.500000000000000);
#534=ORIENTED_EDGE('',*,*,#368,.T.);
#535=ORIENTED_EDGE('',*,*,#481,.T.);
#536=CARTESIAN_POINT('',(-4.550000000000003,-5.050000000000001,4.599999999999998));
#537=DIRECTION('',(1.0,0.0,0.0));
#538=VECTOR('',#537,9.100000000000000);
#539=LINE('',#536,#538);
#540=EDGE_CURVE('',#256,#510,#539,.T.);
#541=ORIENTED_EDGE('',*,*,#540,.T.);
#542=ORIENTED_EDGE('',*,*,#516,.T.);
#543=EDGE_LOOP('',(#534,#535,#541,#542));
#544=FACE_OUTER_BOUND('',#543,.T.);
#545=ADVANCED_FACE('',(#544),#533,.T.);
#546=CARTESIAN_POINT('',(4.549999999999999,-4.550000000000001,1.981422E-015));
#547=DIRECTION('',(-5.224579E-016,0.0,1.0));
#548=DIRECTION('',(0.707106781186548,-0.707106781186548,3.694335E-016));
#549=AXIS2_PLACEMENT_3D('',#546,#547,#548);
#550=CYLINDRICAL_SURFACE('',#549,0.500000000000000);
#551=ORIENTED_EDGE('',*,*,#326,.T.);
#552=ORIENTED_EDGE('',*,*,#523,.F.);
#553=CARTESIAN_POINT('',(4.549999999999999,-5.050000000000001,2.020606E-015));
#554=VERTEX_POINT('',#553);
#555=CARTESIAN_POINT('',(4.549999999999997,-5.050000000000001,4.600000000000002));
#556=DIRECTION('',(0.0,0.0,-1.0));
#557=VECTOR('',#556,4.600000000000001);
#558=LINE('',#555,#557);
#559=EDGE_CURVE('',#510,#554,#558,.T.);
#560=ORIENTED_EDGE('',*,*,#559,.T.);
#561=CARTESIAN_POINT('',(4.549999999999999,-4.550000000000001,2.377183E-015));
#562=DIRECTION('',(-2.612289E-016,2.612289E-016,1.000000000000000));
#563=DIRECTION('',(0.707106781186548,-0.707106781186548,3.694335E-016));
#564=AXIS2_PLACEMENT_3D('',#561,#562,#563);
#565=CIRCLE('',#564,0.500000000000000);
#566=EDGE_CURVE('',#554,#319,#565,.T.);
#567=ORIENTED_EDGE('',*,*,#566,.T.);
#568=EDGE_LOOP('',(#551,#552,#560,#567));
#569=FACE_OUTER_BOUND('',#568,.T.);
#570=ADVANCED_FACE('',(#569),#550,.T.);
#571=CARTESIAN_POINT('',(4.549999999999996,2.525000000000000,4.600000000000001));
#572=DIRECTION('',(1.609948E-048,-1.0,-3.081488E-033));
#573=DIRECTION('',(0.707106781186548,0.0,0.707106781186548));
#574=AXIS2_PLACEMENT_3D('',#571,#572,#573);
#575=CYLINDRICAL_SURFACE('',#574,0.500000000000000);
#576=ORIENTED_EDGE('',*,*,#286,.T.);
#577=ORIENTED_EDGE('',*,*,#505,.F.);
#578=CARTESIAN_POINT('',(5.049999999999996,-4.550000000000001,4.600000000000001));
#579=DIRECTION('',(0.0,1.0,0.0));
#580=VECTOR('',#579,9.100000000000001);
#581=LINE('',#578,#580);
#582=EDGE_CURVE('',#338,#442,#581,.T.);
#583=ORIENTED_EDGE('',*,*,#582,.T.);
#584=ORIENTED_EDGE('',*,*,#448,.T.);
#585=EDGE_LOOP('',(#576,#577,#583,#584));
#586=FACE_OUTER_BOUND('',#585,.T.);
#587=ADVANCED_FACE('',(#586),#575,.T.);
#588=CARTESIAN_POINT('',(-4.549999999999999,-4.550000000000001,-2.377183E-015));
#589=DIRECTION('',(-5.224579E-016,0.0,1.0));
#590=DIRECTION('',(-0.707106781186548,-0.707106781186548,-3.694335E-016));
#591=AXIS2_PLACEMENT_3D('',#588,#589,#590);
#592=CYLINDRICAL_SURFACE('',#591,0.500000000000000);
#593=ORIENTED_EDGE('',*,*,#244,.T.);
#594=ORIENTED_EDGE('',*,*,#473,.F.);
#595=CARTESIAN_POINT('',(-5.049999999999999,-4.550000000000001,-2.242651E-015));
#596=VERTEX_POINT('',#595);
#597=CARTESIAN_POINT('',(-5.050000000000002,-4.550000000000001,4.599999999999998));
#598=DIRECTION('',(0.0,0.0,-1.0));
#599=VECTOR('',#598,4.600000000000001);
#600=LINE('',#597,#599);
#601=EDGE_CURVE('',#467,#596,#600,.T.);
#602=ORIENTED_EDGE('',*,*,#601,.T.);
#603=CARTESIAN_POINT('',(-4.549999999999999,-4.550000000000001,-2.377183E-015));
#604=DIRECTION('',(-2.612289E-016,-2.612289E-016,1.000000000000000));
#605=DIRECTION('',(-0.707106781186548,-0.707106781186548,-3.694335E-016));
#606=AXIS2_PLACEMENT_3D('',#603,#604,#605);
#607=CIRCLE('',#606,0.500000000000000);
#608=EDGE_CURVE('',#596,#237,#607,.T.);
#609=ORIENTED_EDGE('',*,*,#608,.T.);
#610=EDGE_LOOP('',(#593,#594,#602,#609));
#611=FACE_OUTER_BOUND('',#610,.T.);
#612=ADVANCED_FACE('',(#611),#592,.T.);
#613=CARTESIAN_POINT('',(-4.550000000000002,-2.525000000000000,4.599999999999998));
#614=DIRECTION('',(-1.609948E-048,1.0,3.081488E-033));
#615=DIRECTION('',(-0.707106781186548,0.0,0.707106781186548));
#616=AXIS2_PLACEMENT_3D('',#613,#614,#615);
#617=CYLINDRICAL_SURFACE('',#616,0.500000000000000);
#618=ORIENTED_EDGE('',*,*,#204,.T.);
#619=ORIENTED_EDGE('',*,*,#413,.T.);
#620=CARTESIAN_POINT('',(-5.050000000000002,4.550000000000001,4.599999999999998));
#621=DIRECTION('',(0.0,-1.0,0.0));
#622=VECTOR('',#621,9.100000000000001);
#623=LINE('',#620,#622);
#624=EDGE_CURVE('',#90,#467,#623,.T.);
#625=ORIENTED_EDGE('',*,*,#624,.T.);
#626=ORIENTED_EDGE('',*,*,#490,.F.);
#627=EDGE_LOOP('',(#618,#619,#625,#626));
#628=FACE_OUTER_BOUND('',#627,.T.);
#629=ADVANCED_FACE('',(#628),#617,.T.);
#630=CARTESIAN_POINT('',(4.549999999999999,4.550000000000001,2.377183E-015));
#631=DIRECTION('',(-5.224579E-016,0.0,1.0));
#632=DIRECTION('',(0.707106781186548,0.707106781186548,3.694335E-016));
#633=AXIS2_PLACEMENT_3D('',#630,#631,#632);
#634=CYLINDRICAL_SURFACE('',#633,0.500000000000000);
#635=ORIENTED_EDGE('',*,*,#162,.T.);
#636=ORIENTED_EDGE('',*,*,#455,.F.);
#637=CARTESIAN_POINT('',(5.049999999999999,4.550000000000001,2.242651E-015));
#638=VERTEX_POINT('',#637);
#639=CARTESIAN_POINT('',(5.049999999999996,4.550000000000001,4.600000000000001));
#640=DIRECTION('',(0.0,0.0,-1.0));
#641=VECTOR('',#640,4.599999999999999);
#642=LINE('',#639,#641);
#643=EDGE_CURVE('',#442,#638,#642,.T.);
#644=ORIENTED_EDGE('',*,*,#643,.T.);
#645=CARTESIAN_POINT('',(4.549999999999999,4.550000000000001,2.377183E-015));
#646=DIRECTION('',(-2.612289E-016,-2.612289E-016,1.000000000000000));
#647=DIRECTION('',(0.707106781186548,0.707106781186548,3.694335E-016));
#648=AXIS2_PLACEMENT_3D('',#645,#646,#647);
#649=CIRCLE('',#648,0.500000000000000);
#650=EDGE_CURVE('',#638,#155,#649,.T.);
#651=ORIENTED_EDGE('',*,*,#650,.T.);
#652=EDGE_LOOP('',(#635,#636,#644,#651));
#653=FACE_OUTER_BOUND('',#652,.T.);
#654=ADVANCED_FACE('',(#653),#634,.T.);
#655=CARTESIAN_POINT('',(-2.525000000000002,4.550000000000001,4.599999999999998));
#656=DIRECTION('',(1.0,0.0,4.440892E-016));
#657=DIRECTION('',(-1.256074E-015,0.707106781186548,0.707106781186548));
#658=AXIS2_PLACEMENT_3D('',#655,#656,#657);
#659=CYLINDRICAL_SURFACE('',#658,0.500000000000000);
#660=ORIENTED_EDGE('',*,*,#120,.T.);
#661=ORIENTED_EDGE('',*,*,#437,.F.);
#662=CARTESIAN_POINT('',(4.549999999999996,5.050000000000001,4.600000000000001));
#663=DIRECTION('',(-1.0,0.0,0.0));
#664=VECTOR('',#663,9.099999999999998);
#665=LINE('',#662,#664);
#666=EDGE_CURVE('',#174,#399,#665,.T.);
#667=ORIENTED_EDGE('',*,*,#666,.T.);
#668=ORIENTED_EDGE('',*,*,#422,.F.);
#669=EDGE_LOOP('',(#660,#661,#667,#668));
#670=FACE_OUTER_BOUND('',#669,.T.);
#671=ADVANCED_FACE('',(#670),#659,.T.);
#672=CARTESIAN_POINT('',(-4.549999999999999,4.550000000000001,-1.981422E-015));
#673=DIRECTION('',(-5.224579E-016,0.0,1.0));
#674=DIRECTION('',(-0.707106781186548,0.707106781186548,-3.694335E-016));
#675=AXIS2_PLACEMENT_3D('',#672,#673,#674);
#676=CYLINDRICAL_SURFACE('',#675,0.500000000000000);
#677=ORIENTED_EDGE('',*,*,#78,.T.);
#678=ORIENTED_EDGE('',*,*,#405,.F.);
#679=CARTESIAN_POINT('',(-4.549999999999999,5.050000000000001,-2.020606E-015));
#680=VERTEX_POINT('',#679);
#681=CARTESIAN_POINT('',(-4.550000000000001,5.050000000000001,4.599999999999997));
#682=DIRECTION('',(0.0,0.0,-1.0));
#683=VECTOR('',#682,4.599999999999999);
#684=LINE('',#681,#683);
#685=EDGE_CURVE('',#399,#680,#684,.T.);
#686=ORIENTED_EDGE('',*,*,#685,.T.);
#687=CARTESIAN_POINT('',(-4.549999999999999,4.550000000000001,-2.377183E-015));
#688=DIRECTION('',(-2.612289E-016,2.612289E-016,1.000000000000000));
#689=DIRECTION('',(-0.707106781186548,0.707106781186548,-3.694335E-016));
#690=AXIS2_PLACEMENT_3D('',#687,#688,#689);
#691=CIRCLE('',#690,0.500000000000000);
#692=EDGE_CURVE('',#680,#71,#691,.T.);
#693=ORIENTED_EDGE('',*,*,#692,.T.);
#694=EDGE_LOOP('',(#677,#678,#686,#693));
#695=FACE_OUTER_BOUND('',#694,.T.);
#696=ADVANCED_FACE('',(#695),#676,.T.);
#697=CARTESIAN_POINT('',(-5.049999999999999,-5.050000000000001,-2.242651E-015));
#698=DIRECTION('',(-1.0,0.0,0.0));
#699=DIRECTION('',(0.0,0.0,1.0));
#700=AXIS2_PLACEMENT_3D('',#697,#698,#699);
#701=PLANE('',#700);
#702=ORIENTED_EDGE('',*,*,#601,.F.);
#703=ORIENTED_EDGE('',*,*,#624,.F.);
#704=ORIENTED_EDGE('',*,*,#95,.F.);
#705=CARTESIAN_POINT('',(-5.049999999999999,-4.550000000000001,-2.242651E-015));
#706=DIRECTION('',(0.0,1.0,0.0));
#707=VECTOR('',#706,9.100000000000001);
#708=LINE('',#705,#707);
#709=EDGE_CURVE('',#596,#81,#708,.T.);
#710=ORIENTED_EDGE('',*,*,#709,.F.);
#711=EDGE_LOOP('',(#702,#703,#704,#710));
#712=FACE_OUTER_BOUND('',#711,.T.);
#713=ADVANCED_FACE('',(#712),#701,.T.);
#714=CARTESIAN_POINT('',(-5.049999999999999,5.050000000000001,-2.242651E-015));
#715=DIRECTION('',(0.0,1.0,0.0));
#716=DIRECTION('',(0.0,0.0,1.0));
#717=AXIS2_PLACEMENT_3D('',#714,#715,#716);
#718=PLANE('',#717);
#719=ORIENTED_EDGE('',*,*,#685,.F.);
#720=ORIENTED_EDGE('',*,*,#666,.F.);
#721=ORIENTED_EDGE('',*,*,#179,.F.);
#722=CARTESIAN_POINT('',(-4.549999999999999,5.050000000000001,-2.020606E-015));
#723=DIRECTION('',(1.0,0.0,0.0));
#724=VECTOR('',#723,9.099999999999998);
#725=LINE('',#722,#724);
#726=EDGE_CURVE('',#680,#165,#725,.T.);
#727=ORIENTED_EDGE('',*,*,#726,.F.);
#728=EDGE_LOOP('',(#719,#720,#721,#727));
#729=FACE_OUTER_BOUND('',#728,.T.);
#730=ADVANCED_FACE('',(#729),#718,.T.);
#731=CARTESIAN_POINT('',(0.0,0.0,0.0));
#732=DIRECTION('',(0.0,0.0,1.0));
#733=DIRECTION('',(1.0,0.0,0.0));
#734=AXIS2_PLACEMENT_3D('',#731,#732,#733);
#735=PLANE('',#734);
#736=ORIENTED_EDGE('',*,*,#608,.F.);
#737=ORIENTED_EDGE('',*,*,#709,.T.);
#738=ORIENTED_EDGE('',*,*,#87,.F.);
#739=ORIENTED_EDGE('',*,*,#692,.F.);
#740=ORIENTED_EDGE('',*,*,#726,.T.);
#741=ORIENTED_EDGE('',*,*,#171,.F.);
#742=ORIENTED_EDGE('',*,*,#650,.F.);
#743=CARTESIAN_POINT('',(5.049999999999999,4.550000000000001,2.242651E-015));
#744=DIRECTION('',(0.0,-1.0,0.0));
#745=VECTOR('',#744,9.100000000000001);
#746=LINE('',#743,#745);
#747=EDGE_CURVE('',#638,#329,#746,.T.);
#748=ORIENTED_EDGE('',*,*,#747,.T.);
#749=ORIENTED_EDGE('',*,*,#335,.F.);
#750=ORIENTED_EDGE('',*,*,#566,.F.);
#751=CARTESIAN_POINT('',(4.549999999999999,-5.050000000000001,2.020606E-015));
#752=DIRECTION('',(-1.0,0.0,0.0));
#753=VECTOR('',#752,9.099999999999998);
#754=LINE('',#751,#753);
#755=EDGE_CURVE('',#554,#247,#754,.T.);
#756=ORIENTED_EDGE('',*,*,#755,.T.);
#757=ORIENTED_EDGE('',*,*,#253,.F.);
#758=EDGE_LOOP('',(#736,#737,#738,#739,#740,#741,#742,#748,#749,#750,#756,#757));
#759=FACE_OUTER_BOUND('',#758,.T.);
#760=ADVANCED_FACE('',(#759),#735,.F.);
#761=CARTESIAN_POINT('',(-2.664535E-015,0.0,5.100000000000000));
#762=DIRECTION('',(0.0,0.0,1.0));
#763=DIRECTION('',(1.0,0.0,0.0));
#764=AXIS2_PLACEMENT_3D('',#761,#762,#763);
#765=PLANE('',#764);
#766=ORIENTED_EDGE('',*,*,#381,.F.);
#767=ORIENTED_EDGE('',*,*,#301,.F.);
#768=ORIENTED_EDGE('',*,*,#137,.F.);
#769=ORIENTED_EDGE('',*,*,#219,.F.);
#770=EDGE_LOOP('',(#766,#767,#768,#769));
#771=FACE_OUTER_BOUND('',#770,.T.);
#772=ADVANCED_FACE('',(#771),#765,.T.);
#773=CARTESIAN_POINT('',(5.049999999999999,5.050000000000001,2.242651E-015));
#774=DIRECTION('',(1.0,0.0,0.0));
#775=DIRECTION('',(0.0,0.0,-1.0));
#776=AXIS2_PLACEMENT_3D('',#773,#774,#775);
#777=PLANE('',#776);
#778=ORIENTED_EDGE('',*,*,#343,.F.);
#779=ORIENTED_EDGE('',*,*,#747,.F.);
#780=ORIENTED_EDGE('',*,*,#643,.F.);
#781=ORIENTED_EDGE('',*,*,#582,.F.);
#782=EDGE_LOOP('',(#778,#779,#780,#781));
#783=FACE_OUTER_BOUND('',#782,.T.);
#784=ADVANCED_FACE('',(#783),#777,.T.);
#785=CARTESIAN_POINT('',(5.049999999999999,-5.050000000000001,2.242651E-015));
#786=DIRECTION('',(0.0,-1.0,0.0));
#787=DIRECTION('',(0.0,0.0,-1.0));
#788=AXIS2_PLACEMENT_3D('',#785,#786,#787);
#789=PLANE('',#788);
#790=ORIENTED_EDGE('',*,*,#261,.F.);
#791=ORIENTED_EDGE('',*,*,#755,.F.);
#792=ORIENTED_EDGE('',*,*,#559,.F.);
#793=ORIENTED_EDGE('',*,*,#540,.F.);
#794=EDGE_LOOP('',(#790,#791,#792,#793));
#795=FACE_OUTER_BOUND('',#794,.T.);
#796=ADVANCED_FACE('',(#795),#789,.T.);
#797=CLOSED_SHELL('',(#106,#148,#190,#230,#272,#312,#354,#392,#426,#460,#494,#528,#545,#570,#587,#612,#629,#654,#671,#696,#713,#730,#760,#772,#784,#796));
#798=MANIFOLD_SOLID_BREP('8A0',#797);
#799=DRAUGHTING_PRE_DEFINED_COLOUR('blue');
#800=SURFACE_STYLE_USAGE(.BOTH.,#801);
#801=SURFACE_SIDE_STYLE('NONE',(#802));
#802=SURFACE_STYLE_FILL_AREA(#803);
#803=FILL_AREA_STYLE('NONE',(#804));
#804=FILL_AREA_STYLE_COLOUR('NONE',#799);
#805=PRESENTATION_STYLE_ASSIGNMENT((#800));
#806=STYLED_ITEM('NONE',(#805),#798);
#807=MECHANICAL_DESIGN_GEOMETRIC_PRESENTATION_REPRESENTATION('NONE',(#806,#956,#1193,#1423,#1433,#1621,#1809),#28);
#808=PRESENTATION_LAYER_ASSIGNMENT('3D','None',(#798,#948,#1185,#1422,#1429,#1620,#1808));
#809=CARTESIAN_POINT('',(-3.330669E-015,5.329071E-016,15.0));
#810=DIRECTION('',(4.440892E-016,0.0,-1.0));
#811=DIRECTION('',(-1.0,0.0,0.0));
#812=AXIS2_PLACEMENT_3D('',#809,#810,#811);
#813=TOROIDAL_SURFACE('',#812,2.750000000000000,0.500000000000000);
#814=CARTESIAN_POINT('',(-2.750000000000004,5.329071E-016,15.499999999999998));
#815=VERTEX_POINT('',#814);
#816=CARTESIAN_POINT('',(-3.250000000000004,-2.630871E-016,14.999999999999998));
#817=VERTEX_POINT('',#816);
#818=CARTESIAN_POINT('',(-2.750000000000004,1.961403E-016,14.999999999999998));
#819=DIRECTION('',(0.0,-1.0,0.0));
#820=DIRECTION('',(-1.0,0.0,0.0));
#821=AXIS2_PLACEMENT_3D('',#818,#819,#820);
#822=CIRCLE('',#821,0.500000000000000);
#823=EDGE_CURVE('',#815,#817,#822,.T.);
#824=ORIENTED_EDGE('',*,*,#823,.F.);
#825=CARTESIAN_POINT('',(2.749999999999996,8.696738E-016,15.500000000000002));
#826=VERTEX_POINT('',#825);
#827=CARTESIAN_POINT('',(-3.552714E-015,5.329071E-016,15.500000000000000));
#828=DIRECTION('',(0.0,0.0,-1.0));
#829=DIRECTION('',(1.0,0.0,0.0));
#830=AXIS2_PLACEMENT_3D('',#827,#828,#829);
#831=CIRCLE('',#830,2.750000000000000);
#832=EDGE_CURVE('',#815,#826,#831,.T.);
#833=ORIENTED_EDGE('',*,*,#832,.T.);
#834=CARTESIAN_POINT('',(3.249999999999996,1.349100E-016,15.000000000000002));
#835=VERTEX_POINT('',#834);
#836=CARTESIAN_POINT('',(2.749999999999996,8.696738E-016,15.000000000000002));
#837=DIRECTION('',(0.0,-1.0,0.0));
#838=DIRECTION('',(1.0,0.0,0.0));
#839=AXIS2_PLACEMENT_3D('',#836,#837,#838);
#840=CIRCLE('',#839,0.500000000000000);
#841=EDGE_CURVE('',#835,#826,#840,.T.);
#842=ORIENTED_EDGE('',*,*,#841,.F.);
#843=CARTESIAN_POINT('',(-3.330669E-015,5.329071E-016,15.0));
#844=DIRECTION('',(0.0,0.0,1.0));
#845=DIRECTION('',(1.0,0.0,0.0));
#846=AXIS2_PLACEMENT_3D('',#843,#844,#845);
#847=CIRCLE('',#846,3.250000000000000);
#848=EDGE_CURVE('',#835,#817,#847,.T.);
#849=ORIENTED_EDGE('',*,*,#848,.T.);
#850=EDGE_LOOP('',(#824,#833,#842,#849));
#851=FACE_OUTER_BOUND('',#850,.T.);
#852=ADVANCED_FACE('',(#851),#813,.T.);
#853=CARTESIAN_POINT('',(0.0,5.329071E-016,7.500000000000000));
#854=DIRECTION('',(-4.440892E-016,0.0,1.0));
#855=DIRECTION('',(-1.0,0.0,0.0));
#856=AXIS2_PLACEMENT_3D('',#853,#854,#855);
#857=CYLINDRICAL_SURFACE('',#856,3.250000000000000);
#858=CARTESIAN_POINT('',(-3.250000000000000,0.0,5.099999999999998));
#859=VERTEX_POINT('',#858);
#860=CARTESIAN_POINT('',(-3.250000000000000,0.0,5.099999999999998));
#861=DIRECTION('',(0.0,0.0,1.0));
#862=VECTOR('',#861,9.900000000000000);
#863=LINE('',#860,#862);
#864=EDGE_CURVE('',#859,#817,#863,.T.);
#865=ORIENTED_EDGE('',*,*,#864,.F.);
#866=CARTESIAN_POINT('',(3.250000000000000,1.349100E-016,5.100000000000001));
#867=VERTEX_POINT('',#866);
#868=CARTESIAN_POINT('',(0.0,0.0,5.100000000000000));
#869=DIRECTION('',(0.0,0.0,-1.0));
#870=DIRECTION('',(-1.0,0.0,0.0));
#871=AXIS2_PLACEMENT_3D('',#868,#869,#870);
#872=CIRCLE('',#871,3.250000000000000);
#873=EDGE_CURVE('',#867,#859,#872,.T.);
#874=ORIENTED_EDGE('',*,*,#873,.F.);
#875=CARTESIAN_POINT('',(3.249999999999996,1.349100E-016,15.000000000000002));
#876=DIRECTION('',(0.0,0.0,-1.0));
#877=VECTOR('',#876,9.900000000000000);
#878=LINE('',#875,#877);
#879=EDGE_CURVE('',#835,#867,#878,.T.);
#880=ORIENTED_EDGE('',*,*,#879,.F.);
#881=CARTESIAN_POINT('',(-3.330669E-015,5.329071E-016,15.0));
#882=DIRECTION('',(0.0,0.0,1.0));
#883=DIRECTION('',(1.0,0.0,0.0));
#884=AXIS2_PLACEMENT_3D('',#881,#882,#883);
#885=CIRCLE('',#884,3.250000000000000);
#886=EDGE_CURVE('',#817,#835,#885,.T.);
#887=ORIENTED_EDGE('',*,*,#886,.F.);
#888=EDGE_LOOP('',(#865,#874,#880,#887));
#889=FACE_OUTER_BOUND('',#888,.T.);
#890=ADVANCED_FACE('',(#889),#857,.T.);
#891=CARTESIAN_POINT('',(0.0,5.329071E-016,7.500000000000000));
#892=DIRECTION('',(-4.440892E-016,0.0,1.0));
#893=DIRECTION('',(-1.0,0.0,0.0));
#894=AXIS2_PLACEMENT_3D('',#891,#892,#893);
#895=CYLINDRICAL_SURFACE('',#894,3.250000000000000);
#896=ORIENTED_EDGE('',*,*,#864,.T.);
#897=ORIENTED_EDGE('',*,*,#848,.F.);
#898=ORIENTED_EDGE('',*,*,#879,.T.);
#899=CARTESIAN_POINT('',(0.0,0.0,5.100000000000000));
#900=DIRECTION('',(0.0,0.0,-1.0));
#901=DIRECTION('',(-1.0,0.0,0.0));
#902=AXIS2_PLACEMENT_3D('',#899,#900,#901);
#903=CIRCLE('',#902,3.250000000000000);
#904=EDGE_CURVE('',#859,#867,#903,.T.);
#905=ORIENTED_EDGE('',*,*,#904,.F.);
#906=EDGE_LOOP('',(#896,#897,#898,#905));
#907=FACE_OUTER_BOUND('',#906,.T.);
#908=ADVANCED_FACE('',(#907),#895,.T.);
#909=CARTESIAN_POINT('',(0.0,0.0,5.100000000000000));
#910=DIRECTION('',(0.0,0.0,-1.0));
#911=DIRECTION('',(-1.0,0.0,0.0));
#912=AXIS2_PLACEMENT_3D('',#909,#910,#911);
#913=PLANE('',#912);
#914=ORIENTED_EDGE('',*,*,#904,.T.);
#915=ORIENTED_EDGE('',*,*,#873,.T.);
#916=EDGE_LOOP('',(#914,#915));
#917=FACE_OUTER_BOUND('',#916,.T.);
#918=ADVANCED_FACE('',(#917),#913,.T.);
#919=CARTESIAN_POINT('',(-3.330669E-015,5.329071E-016,15.0));
#920=DIRECTION('',(4.440892E-016,0.0,-1.0));
#921=DIRECTION('',(-1.0,0.0,0.0));
#922=AXIS2_PLACEMENT_3D('',#919,#920,#921);
#923=TOROIDAL_SURFACE('',#922,2.750000000000000,0.500000000000000);
#924=ORIENTED_EDGE('',*,*,#823,.T.);
#925=ORIENTED_EDGE('',*,*,#886,.T.);
#926=ORIENTED_EDGE('',*,*,#841,.T.);
#927=CARTESIAN_POINT('',(-3.552714E-015,5.329071E-016,15.500000000000000));
#928=DIRECTION('',(0.0,0.0,-1.0));
#929=DIRECTION('',(1.0,0.0,0.0));
#930=AXIS2_PLACEMENT_3D('',#927,#928,#929);
#931=CIRCLE('',#930,2.750000000000000);
#932=EDGE_CURVE('',#826,#815,#931,.T.);
#933=ORIENTED_EDGE('',*,*,#932,.T.);
#934=EDGE_LOOP('',(#924,#925,#926,#933));
#935=FACE_OUTER_BOUND('',#934,.T.);
#936=ADVANCED_FACE('',(#935),#923,.T.);
#937=CARTESIAN_POINT('',(-3.552714E-015,5.329071E-016,15.500000000000000));
#938=DIRECTION('',(0.0,0.0,-1.0));
#939=DIRECTION('',(-1.0,0.0,0.0));
#940=AXIS2_PLACEMENT_3D('',#937,#938,#939);
#941=PLANE('',#940);
#942=ORIENTED_EDGE('',*,*,#832,.F.);
#943=ORIENTED_EDGE('',*,*,#932,.F.);
#944=EDGE_LOOP('',(#942,#943));
#945=FACE_OUTER_BOUND('',#944,.T.);
#946=ADVANCED_FACE('',(#945),#941,.F.);
#947=CLOSED_SHELL('',(#852,#890,#908,#918,#936,#946));
#948=MANIFOLD_SOLID_BREP('899',#947);
#949=COLOUR_RGB('250',0.330000000000000,0.330000000000000,0.330000000000000);
#950=SURFACE_STYLE_USAGE(.BOTH.,#951);
#951=SURFACE_SIDE_STYLE('NONE',(#952));
#952=SURFACE_STYLE_FILL_AREA(#953);
#953=FILL_AREA_STYLE('NONE',(#954));
#954=FILL_AREA_STYLE_COLOUR('NONE',#949);
#955=PRESENTATION_STYLE_ASSIGNMENT((#950));
#956=STYLED_ITEM('NONE',(#955),#948);
#957=CARTESIAN_POINT('',(4.717867965644032,3.410000000000002,0.787867965644039));
#958=CARTESIAN_POINT('',(4.717867965644032,4.209999999999999,0.787867965644039));
#959=CARTESIAN_POINT('',(4.929999999999997,3.410000000000002,0.575735931288075));
#960=CARTESIAN_POINT('',(4.929999999999997,4.209999999999999,0.575735931288075));
#961=CARTESIAN_POINT('',(5.142132034355961,3.410000000000002,0.787867965644040));
#962=CARTESIAN_POINT('',(5.142132034355961,4.209999999999999,0.787867965644040));
#963=CARTESIAN_POINT('',(5.354264068711925,3.410000000000002,1.000000000000005));
#964=CARTESIAN_POINT('',(5.354264068711925,4.209999999999999,1.000000000000005));
#965=CARTESIAN_POINT('',(5.142132034355960,3.410000000000002,1.212132034355969));
#966=CARTESIAN_POINT('',(5.142132034355960,4.209999999999999,1.212132034355969));
#967=CARTESIAN_POINT('',(4.929999999999995,3.410000000000002,1.424264068711932));
#968=CARTESIAN_POINT('',(4.929999999999995,4.209999999999999,1.424264068711932));
#969=CARTESIAN_POINT('',(4.717867965644031,3.410000000000002,1.212132034355968));
#970=CARTESIAN_POINT('',(4.717867965644031,4.209999999999999,1.212132034355968));
#971=CARTESIAN_POINT('',(4.505735931288068,3.410000000000002,1.000000000000003));
#972=CARTESIAN_POINT('',(4.505735931288068,4.209999999999999,1.000000000000003));
#973=CARTESIAN_POINT('',(4.717867965644032,3.410000000000002,0.787867965644039));
#974=CARTESIAN_POINT('',(4.717867965644032,4.209999999999999,0.787867965644039));
#982=(BOUNDED_SURFACE()B_SPLINE_SURFACE(1,2,((#957,#959,#961,#963,#965,#967,#969,#971,#973),(#958,#960,#962,#964,#966,#968,#970,#972,#974)),.UNSPECIFIED.,.F.,.T.,.U.)B_SPLINE_SURFACE_WITH_KNOTS((2,2),(3,2,2,2,3),(-0.666666666666664,1.999999999999993),(0.0,0.471238898038469,0.942477796076938,1.413716694115407,1.884955592153876),.UNSPECIFIED.)GEOMETRIC_REPRESENTATION_ITEM()RATIONAL_B_SPLINE_SURFACE(((1.0,0.707106781186548,1.0,0.707106781186548,1.0,0.707106781186548,1.0,0.707106781186548,1.0),(1.0,0.707106781186548,1.0,0.707106781186548,1.0,0.707106781186548,1.0,0.707106781186548,1.0)))REPRESENTATION_ITEM('')SURFACE());
#983=CARTESIAN_POINT('',(5.142132034355960,3.410000000000002,1.212132034355969));
#984=VERTEX_POINT('',#983);
#985=CARTESIAN_POINT('',(5.142132034355960,4.209999999999999,1.212132034355969));
#986=VERTEX_POINT('',#985);
#987=CARTESIAN_POINT('',(5.142132034355960,3.410000000000002,1.212132034355969));
#988=DIRECTION('',(0.0,1.0,0.0));
#989=VECTOR('',#988,0.799999999999997);
#990=LINE('',#987,#989);
#991=EDGE_CURVE('',#984,#986,#990,.T.);
#992=ORIENTED_EDGE('',*,*,#991,.F.);
#993=CARTESIAN_POINT('',(5.229999999999995,3.410000000000002,1.000000000000004));
#994=VERTEX_POINT('',#993);
#995=CARTESIAN_POINT('',(4.929999999999996,3.410000000000002,1.000000000000004));
#996=DIRECTION('',(0.0,-1.0,0.0));
#997=DIRECTION('',(0.707106781186545,0.0,0.707106781186550));
#998=AXIS2_PLACEMENT_3D('',#995,#996,#997);
#999=CIRCLE('',#998,0.300000000000000);
#1000=EDGE_CURVE('',#994,#984,#999,.T.);
#1001=ORIENTED_EDGE('',*,*,#1000,.F.);
#1002=CARTESIAN_POINT('',(5.229999999999995,4.209999999999999,1.000000000000004));
#1003=VERTEX_POINT('',#1002);
#1004=CARTESIAN_POINT('',(5.229999999999995,4.209999999999999,1.000000000000004));
#1005=DIRECTION('',(0.0,-1.0,0.0));
#1006=VECTOR('',#1005,0.799999999999997);
#1007=LINE('',#1004,#1006);
#1008=EDGE_CURVE('',#1003,#994,#1007,.T.);
#1009=ORIENTED_EDGE('',*,*,#1008,.F.);
#1010=CARTESIAN_POINT('',(4.929999999999996,4.209999999999999,1.000000000000004));
#1011=DIRECTION('',(0.0,1.0,0.0));
#1012=DIRECTION('',(0.707106781186545,0.0,0.707106781186550));
#1013=AXIS2_PLACEMENT_3D('',#1010,#1011,#1012);
#1014=CIRCLE('',#1013,0.300000000000000);
#1015=EDGE_CURVE('',#986,#1003,#1014,.T.);
#1016=ORIENTED_EDGE('',*,*,#1015,.F.);
#1017=EDGE_LOOP('',(#992,#1001,#1009,#1016));
#1018=FACE_OUTER_BOUND('',#1017,.T.);
#1019=ADVANCED_FACE('',(#1018),#982,.T.);
#1020=CARTESIAN_POINT('',(4.717867965644032,3.410000000000002,0.787867965644039));
#1021=CARTESIAN_POINT('',(4.717867965644032,4.209999999999999,0.787867965644039));
#1022=CARTESIAN_POINT('',(4.929999999999997,3.410000000000002,0.575735931288075));
#1023=CARTESIAN_POINT('',(4.929999999999997,4.209999999999999,0.575735931288075));
#1024=CARTESIAN_POINT('',(5.142132034355961,3.410000000000002,0.787867965644040));
#1025=CARTESIAN_POINT('',(5.142132034355961,4.209999999999999,0.787867965644040));
#1026=CARTESIAN_POINT('',(5.354264068711925,3.410000000000002,1.000000000000005));
#1027=CARTESIAN_POINT('',(5.354264068711925,4.209999999999999,1.000000000000005));
#1028=CARTESIAN_POINT('',(5.142132034355960,3.410000000000002,1.212132034355969));
#1029=CARTESIAN_POINT('',(5.142132034355960,4.209999999999999,1.212132034355969));
#1030=CARTESIAN_POINT('',(4.929999999999995,3.410000000000002,1.424264068711932));
#1031=CARTESIAN_POINT('',(4.929999999999995,4.209999999999999,1.424264068711932));
#1032=CARTESIAN_POINT('',(4.717867965644031,3.410000000000002,1.212132034355968));
#1033=CARTESIAN_POINT('',(4.717867965644031,4.209999999999999,1.212132034355968));
#1034=CARTESIAN_POINT('',(4.505735931288068,3.410000000000002,1.000000000000003));
#1035=CARTESIAN_POINT('',(4.505735931288068,4.209999999999999,1.000000000000003));
#1036=CARTESIAN_POINT('',(4.717867965644032,3.410000000000002,0.787867965644039));
#1037=CARTESIAN_POINT('',(4.717867965644032,4.209999999999999,0.787867965644039));
#1045=(BOUNDED_SURFACE()B_SPLINE_SURFACE(1,2,((#1020,#1022,#1024,#1026,#1028,#1030,#1032,#1034,#1036),(#1021,#1023,#1025,#1027,#1029,#1031,#1033,#1035,#1037)),.UNSPECIFIED.,.F.,.T.,.U.)B_SPLINE_SURFACE_WITH_KNOTS((2,2),(3,2,2,2,3),(-0.666666666666664,1.999999999999993),(0.0,0.471238898038469,0.942477796076938,1.413716694115407,1.884955592153876),.UNSPECIFIED.)GEOMETRIC_REPRESENTATION_ITEM()RATIONAL_B_SPLINE_SURFACE(((1.0,0.707106781186548,1.0,0.707106781186548,1.0,0.707106781186548,1.0,0.707106781186548,1.0),(1.0,0.707106781186548,1.0,0.707106781186548,1.0,0.707106781186548,1.0,0.707106781186548,1.0)))REPRESENTATION_ITEM('')SURFACE());
#1046=ORIENTED_EDGE('',*,*,#991,.T.);
#1047=CARTESIAN_POINT('',(4.929999999999994,4.209999999999999,1.300000000000005));
#1048=VERTEX_POINT('',#1047);
#1049=CARTESIAN_POINT('',(4.929999999999996,4.209999999999999,1.000000000000004));
#1050=DIRECTION('',(0.0,1.0,0.0));
#1051=DIRECTION('',(0.707106781186545,0.0,0.707106781186550));
#1052=AXIS2_PLACEMENT_3D('',#1049,#1050,#1051);
#1053=CIRCLE('',#1052,0.300000000000000);
#1054=EDGE_CURVE('',#1048,#986,#1053,.T.);
#1055=ORIENTED_EDGE('',*,*,#1054,.F.);
#1056=CARTESIAN_POINT('',(4.929999999999994,3.410000000000002,1.300000000000005));
#1057=VERTEX_POINT('',#1056);
#1058=CARTESIAN_POINT('',(4.929999999999994,4.209999999999999,1.300000000000005));
#1059=DIRECTION('',(0.0,-1.0,0.0));
#1060=VECTOR('',#1059,0.799999999999997);
#1061=LINE('',#1058,#1060);
#1062=EDGE_CURVE('',#1048,#1057,#1061,.T.);
#1063=ORIENTED_EDGE('',*,*,#1062,.T.);
#1064=CARTESIAN_POINT('',(4.929999999999996,3.410000000000002,1.000000000000004));
#1065=DIRECTION('',(0.0,-1.0,0.0));
#1066=DIRECTION('',(0.707106781186545,0.0,0.707106781186550));
#1067=AXIS2_PLACEMENT_3D('',#1064,#1065,#1066);
#1068=CIRCLE('',#1067,0.300000000000000);
#1069=EDGE_CURVE('',#984,#1057,#1068,.T.);
#1070=ORIENTED_EDGE('',*,*,#1069,.F.);
#1071=EDGE_LOOP('',(#1046,#1055,#1063,#1070));
#1072=FACE_OUTER_BOUND('',#1071,.T.);
#1073=ADVANCED_FACE('',(#1072),#1045,.T.);
#1074=CARTESIAN_POINT('',(4.929999999999990,3.410000000000002,1.300000000000005));
#1075=CARTESIAN_POINT('',(4.929999999999994,3.410000000000002,-3.599999999999996));
#1076=CARTESIAN_POINT('',(5.230000000000000,3.410000000000002,1.300000000000005));
#1077=CARTESIAN_POINT('',(5.230000000000003,3.410000000000002,-3.599999999999996));
#1078=B_SPLINE_SURFACE_WITH_KNOTS('',1,1,((#1074,#1076),(#1075,#1077)),.UNSPECIFIED.,.F.,.F.,.U.,(2,2),(2,2),(0.0,4.900000000000000),(0.0,0.300000000000010),.UNSPECIFIED.);
#1079=ORIENTED_EDGE('',*,*,#1000,.T.);
#1080=ORIENTED_EDGE('',*,*,#1069,.T.);
#1081=CARTESIAN_POINT('',(4.929999999999999,3.410000000000002,-3.599999999999996));
#1082=VERTEX_POINT('',#1081);
#1083=CARTESIAN_POINT('',(4.929999999999999,3.410000000000002,-3.599999999999996));
#1084=DIRECTION('',(0.0,0.0,1.0));
#1085=VECTOR('',#1084,4.900000000000000);
#1086=LINE('',#1083,#1085);
#1087=EDGE_CURVE('',#1082,#1057,#1086,.T.);
#1088=ORIENTED_EDGE('',*,*,#1087,.F.);
#1089=CARTESIAN_POINT('',(5.230000000000000,3.410000000000002,-3.599999999999996));
#1090=VERTEX_POINT('',#1089);
#1091=CARTESIAN_POINT('',(4.929999999999999,3.410000000000002,-3.599999999999996));
#1092=DIRECTION('',(1.0,0.0,0.0));
#1093=VECTOR('',#1092,0.300000000000001);
#1094=LINE('',#1091,#1093);
#1095=EDGE_CURVE('',#1082,#1090,#1094,.T.);
#1096=ORIENTED_EDGE('',*,*,#1095,.T.);
#1097=CARTESIAN_POINT('',(5.230000000000000,3.410000000000002,-3.599999999999996));
#1098=DIRECTION('',(0.0,0.0,1.0));
#1099=VECTOR('',#1098,4.600000000000000);
#1100=LINE('',#1097,#1099);
#1101=EDGE_CURVE('',#1090,#994,#1100,.T.);
#1102=ORIENTED_EDGE('',*,*,#1101,.T.);
#1103=EDGE_LOOP('',(#1079,#1080,#1088,#1096,#1102));
#1104=FACE_OUTER_BOUND('',#1103,.T.);
#1105=ADVANCED_FACE('',(#1104),#1078,.T.);
#1106=CARTESIAN_POINT('',(5.230000000000000,4.209999999999999,-3.599999999999996));
#1107=CARTESIAN_POINT('',(5.229999999999995,4.209999999999999,1.000000000000004));
#1108=CARTESIAN_POINT('',(5.230000000000000,3.410000000000002,-3.599999999999996));
#1109=CARTESIAN_POINT('',(5.229999999999994,3.410000000000002,1.000000000000004));
#1110=B_SPLINE_SURFACE_WITH_KNOTS('',1,1,((#1106,#1108),(#1107,#1109)),.UNSPECIFIED.,.F.,.F.,.U.,(2,2),(2,2),(0.0,4.600000000000000),(0.0,0.799999999999997),.UNSPECIFIED.);
#1111=ORIENTED_EDGE('',*,*,#1008,.T.);
#1112=ORIENTED_EDGE('',*,*,#1101,.F.);
#1113=CARTESIAN_POINT('',(5.230000000000000,4.209999999999999,-3.599999999999996));
#1114=VERTEX_POINT('',#1113);
#1115=CARTESIAN_POINT('',(5.230000000000000,3.410000000000002,-3.599999999999996));
#1116=DIRECTION('',(0.0,1.0,0.0));
#1117=VECTOR('',#1116,0.799999999999997);
#1118=LINE('',#1115,#1117);
#1119=EDGE_CURVE('',#1090,#1114,#1118,.T.);
#1120=ORIENTED_EDGE('',*,*,#1119,.T.);
#1121=CARTESIAN_POINT('',(5.230000000000000,4.209999999999999,-3.599999999999996));
#1122=DIRECTION('',(0.0,0.0,1.0));
#1123=VECTOR('',#1122,4.600000000000000);
#1124=LINE('',#1121,#1123);
#1125=EDGE_CURVE('',#1114,#1003,#1124,.T.);
#1126=ORIENTED_EDGE('',*,*,#1125,.T.);
#1127=EDGE_LOOP('',(#1111,#1112,#1120,#1126));
#1128=FACE_OUTER_BOUND('',#1127,.T.);
#1129=ADVANCED_FACE('',(#1128),#1110,.T.);
#1130=CARTESIAN_POINT('',(4.929999999999994,4.209999999999999,-3.599999999999996));
#1131=CARTESIAN_POINT('',(4.929999999999990,4.209999999999999,1.300000000000004));
#1132=CARTESIAN_POINT('',(5.230000000000004,4.209999999999999,-3.599999999999996));
#1133=CARTESIAN_POINT('',(5.229999999999999,4.209999999999999,1.300000000000005));
#1134=B_SPLINE_SURFACE_WITH_KNOTS('',1,1,((#1130,#1132),(#1131,#1133)),.UNSPECIFIED.,.F.,.F.,.U.,(2,2),(2,2),(0.0,4.900000000000000),(0.0,0.300000000000010),.UNSPECIFIED.);
#1135=ORIENTED_EDGE('',*,*,#1054,.T.);
#1136=ORIENTED_EDGE('',*,*,#1015,.T.);
#1137=ORIENTED_EDGE('',*,*,#1125,.F.);
#1138=CARTESIAN_POINT('',(4.929999999999999,4.209999999999999,-3.599999999999996));
#1139=VERTEX_POINT('',#1138);
#1140=CARTESIAN_POINT('',(5.230000000000000,4.209999999999999,-3.599999999999996));
#1141=DIRECTION('',(-1.0,0.0,0.0));
#1142=VECTOR('',#1141,0.300000000000001);
#1143=LINE('',#1140,#1142);
#1144=EDGE_CURVE('',#1114,#1139,#1143,.T.);
#1145=ORIENTED_EDGE('',*,*,#1144,.T.);
#1146=CARTESIAN_POINT('',(4.929999999999999,4.209999999999999,-3.599999999999996));
#1147=DIRECTION('',(0.0,0.0,1.0));
#1148=VECTOR('',#1147,4.900000000000000);
#1149=LINE('',#1146,#1148);
#1150=EDGE_CURVE('',#1139,#1048,#1149,.T.);
#1151=ORIENTED_EDGE('',*,*,#1150,.T.);
#1152=EDGE_LOOP('',(#1135,#1136,#1137,#1145,#1151));
#1153=FACE_OUTER_BOUND('',#1152,.T.);
#1154=ADVANCED_FACE('',(#1153),#1134,.T.);
#1155=CARTESIAN_POINT('',(4.929999999999994,4.209999999999999,1.300000000000005));
#1156=CARTESIAN_POINT('',(4.929999999999999,4.209999999999999,-3.599999999999996));
#1157=CARTESIAN_POINT('',(4.929999999999994,3.410000000000002,1.300000000000005));
#1158=CARTESIAN_POINT('',(4.929999999999998,3.410000000000002,-3.599999999999996));
#1159=B_SPLINE_SURFACE_WITH_KNOTS('',1,1,((#1155,#1157),(#1156,#1158)),.UNSPECIFIED.,.F.,.F.,.U.,(2,2),(2,2),(0.0,4.900000000000000),(0.0,0.799999999999997),.UNSPECIFIED.);
#1160=ORIENTED_EDGE('',*,*,#1062,.F.);
#1161=ORIENTED_EDGE('',*,*,#1150,.F.);
#1162=CARTESIAN_POINT('',(4.929999999999999,4.209999999999999,-3.599999999999996));
#1163=DIRECTION('',(0.0,-1.0,0.0));
#1164=VECTOR('',#1163,0.799999999999997);
#1165=LINE('',#1162,#1164);
#1166=EDGE_CURVE('',#1139,#1082,#1165,.T.);
#1167=ORIENTED_EDGE('',*,*,#1166,.T.);
#1168=ORIENTED_EDGE('',*,*,#1087,.T.);
#1169=EDGE_LOOP('',(#1160,#1161,#1167,#1168));
#1170=FACE_OUTER_BOUND('',#1169,.T.);
#1171=ADVANCED_FACE('',(#1170),#1159,.T.);
#1172=CARTESIAN_POINT('',(5.230000000000000,4.209999999999999,-3.599999999999996));
#1173=CARTESIAN_POINT('',(4.929999999999999,4.209999999999999,-3.599999999999997));
#1174=CARTESIAN_POINT('',(5.230000000000000,3.410000000000002,-3.599999999999996));
#1175=CARTESIAN_POINT('',(4.929999999999999,3.410000000000002,-3.599999999999996));
#1176=B_SPLINE_SURFACE_WITH_KNOTS('',1,1,((#1172,#1174),(#1173,#1175)),.UNSPECIFIED.,.F.,.F.,.U.,(2,2),(2,2),(0.0,0.300000000000001),(0.0,0.799999999999997),.UNSPECIFIED.);
#1177=ORIENTED_EDGE('',*,*,#1166,.F.);
#1178=ORIENTED_EDGE('',*,*,#1144,.F.);
#1179=ORIENTED_EDGE('',*,*,#1119,.F.);
#1180=ORIENTED_EDGE('',*,*,#1095,.F.);
#1181=EDGE_LOOP('',(#1177,#1178,#1179,#1180));
#1182=FACE_OUTER_BOUND('',#1181,.T.);
#1183=ADVANCED_FACE('',(#1182),#1176,.F.);
#1184=CLOSED_SHELL('',(#1019,#1073,#1105,#1129,#1154,#1171,#1183));
#1185=MANIFOLD_SOLID_BREP('895',#1184);
#1186=COLOUR_RGB('254',0.866000000000000,0.866000000000000,0.866000000000000);
#1187=SURFACE_STYLE_USAGE(.BOTH.,#1188);
#1188=SURFACE_SIDE_STYLE('NONE',(#1189));
#1189=SURFACE_STYLE_FILL_AREA(#1190);
#1190=FILL_AREA_STYLE('NONE',(#1191));
#1191=FILL_AREA_STYLE_COLOUR('NONE',#1186);
#1192=PRESENTATION_STYLE_ASSIGNMENT((#1187));
#1193=STYLED_ITEM('NONE',(#1192),#1185);
#1194=CARTESIAN_POINT('',(4.717867965644033,-4.209999999999997,0.787867965644039));
#1195=CARTESIAN_POINT('',(4.717867965644033,-3.410000000000000,0.787867965644039));
#1196=CARTESIAN_POINT('',(4.929999999999998,-4.209999999999997,0.575735931288075));
#1197=CARTESIAN_POINT('',(4.929999999999998,-3.410000000000000,0.575735931288075));
#1198=CARTESIAN_POINT('',(5.142132034355962,-4.209999999999997,0.787867965644040));
#1199=CARTESIAN_POINT('',(5.142132034355962,-3.410000000000000,0.787867965644040));
#1200=CARTESIAN_POINT('',(5.354264068711926,-4.209999999999997,1.000000000000005));
#1201=CARTESIAN_POINT('',(5.354264068711926,-3.410000000000000,1.000000000000005));
#1202=CARTESIAN_POINT('',(5.142132034355961,-4.209999999999997,1.212132034355969));
#1203=CARTESIAN_POINT('',(5.142132034355961,-3.410000000000000,1.212132034355969));
#1204=CARTESIAN_POINT('',(4.929999999999996,-4.209999999999997,1.424264068711932));
#1205=CARTESIAN_POINT('',(4.929999999999996,-3.410000000000000,1.424264068711932));
#1206=CARTESIAN_POINT('',(4.717867965644032,-4.209999999999997,1.212132034355968));
#1207=CARTESIAN_POINT('',(4.717867965644032,-3.410000000000000,1.212132034355968));
#1208=CARTESIAN_POINT('',(4.505735931288069,-4.209999999999997,1.000000000000003));
#1209=CARTESIAN_POINT('',(4.505735931288069,-3.410000000000000,1.000000000000003));
#1210=CARTESIAN_POINT('',(4.717867965644033,-4.209999999999997,0.787867965644039));
#1211=CARTESIAN_POINT('',(4.717867965644033,-3.410000000000000,0.787867965644039));
#1219=(BOUNDED_SURFACE()B_SPLINE_SURFACE(1,2,((#1194,#1196,#1198,#1200,#1202,#1204,#1206,#1208,#1210),(#1195,#1197,#1199,#1201,#1203,#1205,#1207,#1209,#1211)),.UNSPECIFIED.,.F.,.T.,.U.)B_SPLINE_SURFACE_WITH_KNOTS((2,2),(3,2,2,2,3),(-0.666666666666664,1.999999999999993),(0.0,0.471238898038469,0.942477796076938,1.413716694115407,1.884955592153876),.UNSPECIFIED.)GEOMETRIC_REPRESENTATION_ITEM()RATIONAL_B_SPLINE_SURFACE(((1.0,0.707106781186548,1.0,0.707106781186548,1.0,0.707106781186548,1.0,0.707106781186548,1.0),(1.0,0.707106781186548,1.0,0.707106781186548,1.0,0.707106781186548,1.0,0.707106781186548,1.0)))REPRESENTATION_ITEM('')SURFACE());
#1220=CARTESIAN_POINT('',(5.142132034355961,-4.209999999999997,1.212132034355969));
#1221=VERTEX_POINT('',#1220);
#1222=CARTESIAN_POINT('',(5.142132034355961,-3.410000000000000,1.212132034355969));
#1223=VERTEX_POINT('',#1222);
#1224=CARTESIAN_POINT('',(5.142132034355961,-4.209999999999997,1.212132034355969));
#1225=DIRECTION('',(0.0,1.0,0.0));
#1226=VECTOR('',#1225,0.799999999999997);
#1227=LINE('',#1224,#1226);
#1228=EDGE_CURVE('',#1221,#1223,#1227,.T.);
#1229=ORIENTED_EDGE('',*,*,#1228,.F.);
#1230=CARTESIAN_POINT('',(5.229999999999996,-4.209999999999997,1.000000000000004));
#1231=VERTEX_POINT('',#1230);
#1232=CARTESIAN_POINT('',(4.929999999999997,-4.209999999999997,1.000000000000004));
#1233=DIRECTION('',(0.0,-1.0,0.0));
#1234=DIRECTION('',(0.707106781186545,0.0,0.707106781186550));
#1235=AXIS2_PLACEMENT_3D('',#1232,#1233,#1234);
#1236=CIRCLE('',#1235,0.300000000000000);
#1237=EDGE_CURVE('',#1231,#1221,#1236,.T.);
#1238=ORIENTED_EDGE('',*,*,#1237,.F.);
#1239=CARTESIAN_POINT('',(5.229999999999996,-3.410000000000000,1.000000000000004));
#1240=VERTEX_POINT('',#1239);
#1241=CARTESIAN_POINT('',(5.229999999999996,-3.410000000000000,1.000000000000004));
#1242=DIRECTION('',(0.0,-1.0,0.0));
#1243=VECTOR('',#1242,0.799999999999997);
#1244=LINE('',#1241,#1243);
#1245=EDGE_CURVE('',#1240,#1231,#1244,.T.);
#1246=ORIENTED_EDGE('',*,*,#1245,.F.);
#1247=CARTESIAN_POINT('',(4.929999999999997,-3.410000000000000,1.000000000000004));
#1248=DIRECTION('',(0.0,1.0,0.0));
#1249=DIRECTION('',(0.707106781186545,0.0,0.707106781186550));
#1250=AXIS2_PLACEMENT_3D('',#1247,#1248,#1249);
#1251=CIRCLE('',#1250,0.300000000000000);
#1252=EDGE_CURVE('',#1223,#1240,#1251,.T.);
#1253=ORIENTED_EDGE('',*,*,#1252,.F.);
#1254=EDGE_LOOP('',(#1229,#1238,#1246,#1253));
#1255=FACE_OUTER_BOUND('',#1254,.T.);
#1256=ADVANCED_FACE('',(#1255),#1219,.T.);
#1257=CARTESIAN_POINT('',(4.717867965644033,-4.209999999999997,0.787867965644039));
#1258=CARTESIAN_POINT('',(4.717867965644033,-3.410000000000000,0.787867965644039));
#1259=CARTESIAN_POINT('',(4.929999999999998,-4.209999999999997,0.575735931288075));
#1260=CARTESIAN_POINT('',(4.929999999999998,-3.410000000000000,0.575735931288075));
#1261=CARTESIAN_POINT('',(5.142132034355962,-4.209999999999997,0.787867965644040));
#1262=CARTESIAN_POINT('',(5.142132034355962,-3.410000000000000,0.787867965644040));
#1263=CARTESIAN_POINT('',(5.354264068711926,-4.209999999999997,1.000000000000005));
#1264=CARTESIAN_POINT('',(5.354264068711926,-3.410000000000000,1.000000000000005));
#1265=CARTESIAN_POINT('',(5.142132034355961,-4.209999999999997,1.212132034355969));
#1266=CARTESIAN_POINT('',(5.142132034355961,-3.410000000000000,1.212132034355969));
#1267=CARTESIAN_POINT('',(4.929999999999996,-4.209999999999997,1.424264068711932));
#1268=CARTESIAN_POINT('',(4.929999999999996,-3.410000000000000,1.424264068711932));
#1269=CARTESIAN_POINT('',(4.717867965644032,-4.209999999999997,1.212132034355968));
#1270=CARTESIAN_POINT('',(4.717867965644032,-3.410000000000000,1.212132034355968));
#1271=CARTESIAN_POINT('',(4.505735931288069,-4.209999999999997,1.000000000000003));
#1272=CARTESIAN_POINT('',(4.505735931288069,-3.410000000000000,1.000000000000003));
#1273=CARTESIAN_POINT('',(4.717867965644033,-4.209999999999997,0.787867965644039));
#1274=CARTESIAN_POINT('',(4.717867965644033,-3.410000000000000,0.787867965644039));
#1282=(BOUNDED_SURFACE()B_SPLINE_SURFACE(1,2,((#1257,#1259,#1261,#1263,#1265,#1267,#1269,#1271,#1273),(#1258,#1260,#1262,#1264,#1266,#1268,#1270,#1272,#1274)),.UNSPECIFIED.,.F.,.T.,.U.)B_SPLINE_SURFACE_WITH_KNOTS((2,2),(3,2,2,2,3),(-0.666666666666664,1.999999999999993),(0.0,0.471238898038469,0.942477796076938,1.413716694115407,1.884955592153876),.UNSPECIFIED.)GEOMETRIC_REPRESENTATION_ITEM()RATIONAL_B_SPLINE_SURFACE(((1.0,0.707106781186548,1.0,0.707106781186548,1.0,0.707106781186548,1.0,0.707106781186548,1.0),(1.0,0.707106781186548,1.0,0.707106781186548,1.0,0.707106781186548,1.0,0.707106781186548,1.0)))REPRESENTATION_ITEM('')SURFACE());
#1283=ORIENTED_EDGE('',*,*,#1228,.T.);
#1284=CARTESIAN_POINT('',(4.929999999999995,-3.410000000000000,1.300000000000005));
#1285=VERTEX_POINT('',#1284);
#1286=CARTESIAN_POINT('',(4.929999999999997,-3.410000000000000,1.000000000000004));
#1287=DIRECTION('',(0.0,1.0,0.0));
#1288=DIRECTION('',(0.707106781186545,0.0,0.707106781186550));
#1289=AXIS2_PLACEMENT_3D('',#1286,#1287,#1288);
#1290=CIRCLE('',#1289,0.300000000000000);
#1291=EDGE_CURVE('',#1285,#1223,#1290,.T.);
#1292=ORIENTED_EDGE('',*,*,#1291,.F.);
#1293=CARTESIAN_POINT('',(4.929999999999995,-4.209999999999997,1.300000000000005));
#1294=VERTEX_POINT('',#1293);
#1295=CARTESIAN_POINT('',(4.929999999999995,-3.410000000000000,1.300000000000005));
#1296=DIRECTION('',(0.0,-1.0,0.0));
#1297=VECTOR('',#1296,0.799999999999997);
#1298=LINE('',#1295,#1297);
#1299=EDGE_CURVE('',#1285,#1294,#1298,.T.);
#1300=ORIENTED_EDGE('',*,*,#1299,.T.);
#1301=CARTESIAN_POINT('',(4.929999999999997,-4.209999999999997,1.000000000000004));
#1302=DIRECTION('',(0.0,-1.0,0.0));
#1303=DIRECTION('',(0.707106781186545,0.0,0.707106781186550));
#1304=AXIS2_PLACEMENT_3D('',#1301,#1302,#1303);
#1305=CIRCLE('',#1304,0.300000000000000);
#1306=EDGE_CURVE('',#1221,#1294,#1305,.T.);
#1307=ORIENTED_EDGE('',*,*,#1306,.F.);
#1308=EDGE_LOOP('',(#1283,#1292,#1300,#1307));
#1309=FACE_OUTER_BOUND('',#1308,.T.);
#1310=ADVANCED_FACE('',(#1309),#1282,.T.);
#1311=CARTESIAN_POINT('',(4.929999999999991,-4.209999999999997,1.300000000000005));
#1312=CARTESIAN_POINT('',(4.929999999999995,-4.209999999999997,-3.599999999999996));
#1313=CARTESIAN_POINT('',(5.230000000000000,-4.209999999999997,1.300000000000005));
#1314=CARTESIAN_POINT('',(5.230000000000006,-4.209999999999997,-3.599999999999996));
#1315=B_SPLINE_SURFACE_WITH_KNOTS('',1,1,((#1311,#1313),(#1312,#1314)),.UNSPECIFIED.,.F.,.F.,.U.,(2,2),(2,2),(0.0,4.900000000000000),(0.0,0.300000000000010),.UNSPECIFIED.);
#1316=ORIENTED_EDGE('',*,*,#1237,.T.);
#1317=ORIENTED_EDGE('',*,*,#1306,.T.);
#1318=CARTESIAN_POINT('',(4.930000000000000,-4.209999999999997,-3.599999999999996));
#1319=VERTEX_POINT('',#1318);
#1320=CARTESIAN_POINT('',(4.930000000000000,-4.209999999999997,-3.599999999999996));
#1321=DIRECTION('',(0.0,0.0,1.0));
#1322=VECTOR('',#1321,4.900000000000000);
#1323=LINE('',#1320,#1322);
#1324=EDGE_CURVE('',#1319,#1294,#1323,.T.);
#1325=ORIENTED_EDGE('',*,*,#1324,.F.);
#1326=CARTESIAN_POINT('',(5.230000000000000,-4.209999999999997,-3.599999999999996));
#1327=VERTEX_POINT('',#1326);
#1328=CARTESIAN_POINT('',(4.930000000000000,-4.209999999999997,-3.599999999999996));
#1329=DIRECTION('',(1.0,0.0,0.0));
#1330=VECTOR('',#1329,0.300000000000001);
#1331=LINE('',#1328,#1330);
#1332=EDGE_CURVE('',#1319,#1327,#1331,.T.);
#1333=ORIENTED_EDGE('',*,*,#1332,.T.);
#1334=CARTESIAN_POINT('',(5.230000000000000,-4.209999999999997,-3.599999999999996));
#1335=DIRECTION('',(0.0,0.0,1.0));
#1336=VECTOR('',#1335,4.600000000000000);
#1337=LINE('',#1334,#1336);
#1338=EDGE_CURVE('',#1327,#1231,#1337,.T.);
#1339=ORIENTED_EDGE('',*,*,#1338,.T.);
#1340=EDGE_LOOP('',(#1316,#1317,#1325,#1333,#1339));
#1341=FACE_OUTER_BOUND('',#1340,.T.);
#1342=ADVANCED_FACE('',(#1341),#1315,.T.);
#1343=CARTESIAN_POINT('',(5.230000000000000,-3.410000000000000,-3.599999999999996));
#1344=CARTESIAN_POINT('',(5.229999999999996,-3.410000000000000,1.000000000000004));
#1345=CARTESIAN_POINT('',(5.230000000000000,-4.209999999999997,-3.599999999999996));
#1346=CARTESIAN_POINT('',(5.229999999999997,-4.209999999999997,1.000000000000004));
#1347=B_SPLINE_SURFACE_WITH_KNOTS('',1,1,((#1343,#1345),(#1344,#1346)),.UNSPECIFIED.,.F.,.F.,.U.,(2,2),(2,2),(0.0,4.600000000000000),(0.0,0.799999999999997),.UNSPECIFIED.);
#1348=ORIENTED_EDGE('',*,*,#1245,.T.);
#1349=ORIENTED_EDGE('',*,*,#1338,.F.);
#1350=CARTESIAN_POINT('',(5.230000000000000,-3.410000000000000,-3.599999999999996));
#1351=VERTEX_POINT('',#1350);
#1352=CARTESIAN_POINT('',(5.230000000000000,-4.209999999999997,-3.599999999999996));
#1353=DIRECTION('',(0.0,1.0,0.0));
#1354=VECTOR('',#1353,0.799999999999997);
#1355=LINE('',#1352,#1354);
#1356=EDGE_CURVE('',#1327,#1351,#1355,.T.);
#1357=ORIENTED_EDGE('',*,*,#1356,.T.);
#1358=CARTESIAN_POINT('',(5.230000000000000,-3.410000000000000,-3.599999999999996));
#1359=DIRECTION('',(0.0,0.0,1.0));
#1360=VECTOR('',#1359,4.600000000000000);
#1361=LINE('',#1358,#1360);
#1362=EDGE_CURVE('',#1351,#1240,#1361,.T.);
#1363=ORIENTED_EDGE('',*,*,#1362,.T.);
#1364=EDGE_LOOP('',(#1348,#1349,#1357,#1363));
#1365=FACE_OUTER_BOUND('',#1364,.T.);
#1366=ADVANCED_FACE('',(#1365),#1347,.T.);
#1367=CARTESIAN_POINT('',(4.929999999999995,-3.410000000000000,-3.599999999999996));
#1368=CARTESIAN_POINT('',(4.929999999999991,-3.410000000000000,1.300000000000004));
#1369=CARTESIAN_POINT('',(5.230000000000005,-3.410000000000000,-3.599999999999996));
#1370=CARTESIAN_POINT('',(5.230000000000001,-3.410000000000000,1.300000000000005));
#1371=B_SPLINE_SURFACE_WITH_KNOTS('',1,1,((#1367,#1369),(#1368,#1370)),.UNSPECIFIED.,.F.,.F.,.U.,(2,2),(2,2),(0.0,4.900000000000000),(0.0,0.300000000000010),.UNSPECIFIED.);
#1372=ORIENTED_EDGE('',*,*,#1291,.T.);
#1373=ORIENTED_EDGE('',*,*,#1252,.T.);
#1374=ORIENTED_EDGE('',*,*,#1362,.F.);
#1375=CARTESIAN_POINT('',(4.930000000000000,-3.410000000000000,-3.599999999999996));
#1376=VERTEX_POINT('',#1375);
#1377=CARTESIAN_POINT('',(5.230000000000000,-3.410000000000000,-3.599999999999996));
#1378=DIRECTION('',(-1.0,0.0,0.0));
#1379=VECTOR('',#1378,0.300000000000001);
#1380=LINE('',#1377,#1379);
#1381=EDGE_CURVE('',#1351,#1376,#1380,.T.);
#1382=ORIENTED_EDGE('',*,*,#1381,.T.);
#1383=CARTESIAN_POINT('',(4.930000000000000,-3.410000000000000,-3.599999999999996));
#1384=DIRECTION('',(0.0,0.0,1.0));
#1385=VECTOR('',#1384,4.900000000000000);
#1386=LINE('',#1383,#1385);
#1387=EDGE_CURVE('',#1376,#1285,#1386,.T.);
#1388=ORIENTED_EDGE('',*,*,#1387,.T.);
#1389=EDGE_LOOP('',(#1372,#1373,#1374,#1382,#1388));
#1390=FACE_OUTER_BOUND('',#1389,.T.);
#1391=ADVANCED_FACE('',(#1390),#1371,.T.);
#1392=CARTESIAN_POINT('',(4.929999999999995,-3.410000000000000,1.300000000000005));
#1393=CARTESIAN_POINT('',(4.930000000000000,-3.410000000000000,-3.599999999999996));
#1394=CARTESIAN_POINT('',(4.929999999999995,-4.209999999999997,1.300000000000005));
#1395=CARTESIAN_POINT('',(4.930000000000001,-4.209999999999997,-3.599999999999996));
#1396=B_SPLINE_SURFACE_WITH_KNOTS('',1,1,((#1392,#1394),(#1393,#1395)),.UNSPECIFIED.,.F.,.F.,.U.,(2,2),(2,2),(0.0,4.900000000000000),(0.0,0.799999999999997),.UNSPECIFIED.);
#1397=ORIENTED_EDGE('',*,*,#1299,.F.);
#1398=ORIENTED_EDGE('',*,*,#1387,.F.);
#1399=CARTESIAN_POINT('',(4.930000000000000,-3.410000000000000,-3.599999999999996));
#1400=DIRECTION('',(0.0,-1.0,0.0));
#1401=VECTOR('',#1400,0.799999999999997);
#1402=LINE('',#1399,#1401);
#1403=EDGE_CURVE('',#1376,#1319,#1402,.T.);
#1404=ORIENTED_EDGE('',*,*,#1403,.T.);
#1405=ORIENTED_EDGE('',*,*,#1324,.T.);
#1406=EDGE_LOOP('',(#1397,#1398,#1404,#1405));
#1407=FACE_OUTER_BOUND('',#1406,.T.);
#1408=ADVANCED_FACE('',(#1407),#1396,.T.);
#1409=CARTESIAN_POINT('',(5.230000000000000,-3.410000000000000,-3.599999999999996));
#1410=CARTESIAN_POINT('',(4.930000000000000,-3.410000000000000,-3.599999999999997));
#1411=CARTESIAN_POINT('',(5.230000000000000,-4.209999999999997,-3.599999999999996));
#1412=CARTESIAN_POINT('',(4.930000000000000,-4.209999999999997,-3.599999999999996));
#1413=B_SPLINE_SURFACE_WITH_KNOTS('',1,1,((#1409,#1411),(#1410,#1412)),.UNSPECIFIED.,.F.,.F.,.U.,(2,2),(2,2),(0.0,0.300000000000001),(0.0,0.799999999999997),.UNSPECIFIED.);
#1414=ORIENTED_EDGE('',*,*,#1403,.F.);
#1415=ORIENTED_EDGE('',*,*,#1381,.F.);
#1416=ORIENTED_EDGE('',*,*,#1356,.F.);
#1417=ORIENTED_EDGE('',*,*,#1332,.F.);
#1418=EDGE_LOOP('',(#1414,#1415,#1416,#1417));
#1419=FACE_OUTER_BOUND('',#1418,.T.);
#1420=ADVANCED_FACE('',(#1419),#1413,.F.);
#1421=CLOSED_SHELL('',(#1256,#1310,#1342,#1366,#1391,#1408,#1420));
#1422=MANIFOLD_SOLID_BREP('894',#1421);
#1423=STYLED_ITEM('NONE',(#1192),#1422);
#1424=CARTESIAN_POINT('',(5.080000000000003,-3.809999999999997,-3.599999999999996));
#1425=DIRECTION('',(0.0,0.0,1.0));
#1426=VECTOR('',#1425,4.900000000000000);
#1427=LINE('',#1424,#1426);
#1428=CARTESIAN_POINT('',(5.079999999999999,-3.809999999999999,1.300000000000005));
#1429=TRIMMED_CURVE('893',#1427,(PARAMETER_VALUE(0.0),#1424),(PARAMETER_VALUE(1.0),#1428),.T.,.PARAMETER.);
#1430=CURVE_STYLE('NONE',#1431,POSITIVE_LENGTH_MEASURE(0.200000000000000),#1186);
#1431=DRAUGHTING_PRE_DEFINED_CURVE_FONT('continuous');
#1432=PRESENTATION_STYLE_ASSIGNMENT((#1430));
#1433=STYLED_ITEM('NONE',(#1432),#1429);
#1434=CARTESIAN_POINT('',(-4.929999999999997,3.610000000000001,1.000000000000000));
#1435=DIRECTION('',(0.0,1.0,3.872556E-029));
#1436=DIRECTION('',(-0.707106781186546,0.0,0.707106781186549));
#1437=AXIS2_PLACEMENT_3D('',#1434,#1435,#1436);
#1438=CYLINDRICAL_SURFACE('',#1437,0.300000000000000);
#1439=CARTESIAN_POINT('',(-5.142132034355961,3.410000000000002,1.212132034355964));
#1440=VERTEX_POINT('',#1439);
#1441=CARTESIAN_POINT('',(-5.142132034355961,4.209999999999999,1.212132034355964));
#1442=VERTEX_POINT('',#1441);
#1443=CARTESIAN_POINT('',(-5.142132034355961,3.410000000000002,1.212132034355964));
#1444=DIRECTION('',(0.0,1.0,0.0));
#1445=VECTOR('',#1444,0.799999999999997);
#1446=LINE('',#1443,#1445);
#1447=EDGE_CURVE('',#1440,#1442,#1446,.T.);
#1448=ORIENTED_EDGE('',*,*,#1447,.F.);
#1449=CARTESIAN_POINT('',(-4.929999999999995,3.410000000000002,1.300000000000000));
#1450=VERTEX_POINT('',#1449);
#1451=CARTESIAN_POINT('',(-4.929999999999997,3.410000000000002,1.000000000000000));
#1452=DIRECTION('',(0.0,1.0,0.0));
#1453=DIRECTION('',(-0.707106781186546,0.0,0.707106781186549));
#1454=AXIS2_PLACEMENT_3D('',#1451,#1452,#1453);
#1455=CIRCLE('',#1454,0.300000000000000);
#1456=EDGE_CURVE('',#1440,#1450,#1455,.T.);
#1457=ORIENTED_EDGE('',*,*,#1456,.T.);
#1458=CARTESIAN_POINT('',(-4.929999999999995,4.209999999999999,1.300000000000000));
#1459=VERTEX_POINT('',#1458);
#1460=CARTESIAN_POINT('',(-4.929999999999995,4.209999999999999,1.300000000000000));
#1461=DIRECTION('',(0.0,-1.0,0.0));
#1462=VECTOR('',#1461,0.799999999999997);
#1463=LINE('',#1460,#1462);
#1464=EDGE_CURVE('',#1459,#1450,#1463,.T.);
#1465=ORIENTED_EDGE('',*,*,#1464,.F.);
#1466=CARTESIAN_POINT('',(-4.929999999999997,4.209999999999999,1.000000000000000));
#1467=DIRECTION('',(0.0,-1.0,0.0));
#1468=DIRECTION('',(-0.707106781186546,0.0,0.707106781186549));
#1469=AXIS2_PLACEMENT_3D('',#1466,#1467,#1468);
#1470=CIRCLE('',#1469,0.300000000000000);
#1471=EDGE_CURVE('',#1459,#1442,#1470,.T.);
#1472=ORIENTED_EDGE('',*,*,#1471,.T.);
#1473=EDGE_LOOP('',(#1448,#1457,#1465,#1472));
#1474=FACE_OUTER_BOUND('',#1473,.T.);
#1475=ADVANCED_FACE('',(#1474),#1438,.T.);
#1476=CARTESIAN_POINT('',(-4.929999999999997,3.610000000000001,1.000000000000000));
#1477=DIRECTION('',(0.0,1.0,3.872556E-029));
#1478=DIRECTION('',(-0.707106781186546,0.0,0.707106781186549));
#1479=AXIS2_PLACEMENT_3D('',#1476,#1477,#1478);
#1480=CYLINDRICAL_SURFACE('',#1479,0.300000000000000);
#1481=ORIENTED_EDGE('',*,*,#1447,.T.);
#1482=CARTESIAN_POINT('',(-5.229999999999996,4.209999999999999,1.000000000000000));
#1483=VERTEX_POINT('',#1482);
#1484=CARTESIAN_POINT('',(-4.929999999999997,4.209999999999999,1.000000000000000));
#1485=DIRECTION('',(0.0,-1.0,0.0));
#1486=DIRECTION('',(-0.707106781186546,0.0,0.707106781186549));
#1487=AXIS2_PLACEMENT_3D('',#1484,#1485,#1486);
#1488=CIRCLE('',#1487,0.300000000000000);
#1489=EDGE_CURVE('',#1442,#1483,#1488,.T.);
#1490=ORIENTED_EDGE('',*,*,#1489,.T.);
#1491=CARTESIAN_POINT('',(-5.229999999999996,3.410000000000002,1.000000000000000));
#1492=VERTEX_POINT('',#1491);
#1493=CARTESIAN_POINT('',(-5.229999999999996,4.209999999999999,1.000000000000000));
#1494=DIRECTION('',(0.0,-1.0,0.0));
#1495=VECTOR('',#1494,0.799999999999997);
#1496=LINE('',#1493,#1495);
#1497=EDGE_CURVE('',#1483,#1492,#1496,.T.);
#1498=ORIENTED_EDGE('',*,*,#1497,.T.);
#1499=CARTESIAN_POINT('',(-4.929999999999997,3.410000000000002,1.000000000000000));
#1500=DIRECTION('',(0.0,1.0,0.0));
#1501=DIRECTION('',(-0.707106781186546,0.0,0.707106781186549));
#1502=AXIS2_PLACEMENT_3D('',#1499,#1500,#1501);
#1503=CIRCLE('',#1502,0.300000000000000);
#1504=EDGE_CURVE('',#1492,#1440,#1503,.T.);
#1505=ORIENTED_EDGE('',*,*,#1504,.T.);
#1506=EDGE_LOOP('',(#1481,#1490,#1498,#1505));
#1507=FACE_OUTER_BOUND('',#1506,.T.);
#1508=ADVANCED_FACE('',(#1507),#1480,.T.);
#1509=CARTESIAN_POINT('',(-4.929999999999995,3.410000000000002,-3.600000000000000));
#1510=DIRECTION('',(0.0,-1.0,0.0));
#1511=DIRECTION('',(0.0,0.0,-1.0));
#1512=AXIS2_PLACEMENT_3D('',#1509,#1510,#1511);
#1513=PLANE('',#1512);
#1514=ORIENTED_EDGE('',*,*,#1504,.F.);
#1515=CARTESIAN_POINT('',(-5.229999999999996,3.410000000000002,-3.600000000000000));
#1516=VERTEX_POINT('',#1515);
#1517=CARTESIAN_POINT('',(-5.229999999999996,3.410000000000002,-3.600000000000000));
#1518=DIRECTION('',(0.0,0.0,1.0));
#1519=VECTOR('',#1518,4.600000000000000);
#1520=LINE('',#1517,#1519);
#1521=EDGE_CURVE('',#1516,#1492,#1520,.T.);
#1522=ORIENTED_EDGE('',*,*,#1521,.F.);
#1523=CARTESIAN_POINT('',(-4.929999999999995,3.410000000000002,-3.600000000000000));
#1524=VERTEX_POINT('',#1523);
#1525=CARTESIAN_POINT('',(-4.929999999999995,3.410000000000002,-3.600000000000000));
#1526=DIRECTION('',(-1.0,0.0,0.0));
#1527=VECTOR('',#1526,0.300000000000001);
#1528=LINE('',#1525,#1527);
#1529=EDGE_CURVE('',#1524,#1516,#1528,.T.);
#1530=ORIENTED_EDGE('',*,*,#1529,.F.);
#1531=CARTESIAN_POINT('',(-4.929999999999995,3.410000000000002,-3.600000000000000));
#1532=DIRECTION('',(0.0,0.0,1.0));
#1533=VECTOR('',#1532,4.900000000000000);
#1534=LINE('',#1531,#1533);
#1535=EDGE_CURVE('',#1524,#1450,#1534,.T.);
#1536=ORIENTED_EDGE('',*,*,#1535,.T.);
#1537=ORIENTED_EDGE('',*,*,#1456,.F.);
#1538=EDGE_LOOP('',(#1514,#1522,#1530,#1536,#1537));
#1539=FACE_OUTER_BOUND('',#1538,.T.);
#1540=ADVANCED_FACE('',(#1539),#1513,.T.);
#1541=CARTESIAN_POINT('',(-5.229999999999996,3.410000000000002,-3.600000000000000));
#1542=DIRECTION('',(-1.0,0.0,0.0));
#1543=DIRECTION('',(0.0,0.0,1.0));
#1544=AXIS2_PLACEMENT_3D('',#1541,#1542,#1543);
#1545=PLANE('',#1544);
#1546=ORIENTED_EDGE('',*,*,#1497,.F.);
#1547=CARTESIAN_POINT('',(-5.229999999999996,4.209999999999999,-3.600000000000000));
#1548=VERTEX_POINT('',#1547);
#1549=CARTESIAN_POINT('',(-5.229999999999996,4.209999999999999,-3.600000000000000));
#1550=DIRECTION('',(0.0,0.0,1.0));
#1551=VECTOR('',#1550,4.600000000000000);
#1552=LINE('',#1549,#1551);
#1553=EDGE_CURVE('',#1548,#1483,#1552,.T.);
#1554=ORIENTED_EDGE('',*,*,#1553,.F.);
#1555=CARTESIAN_POINT('',(-5.229999999999996,3.410000000000002,-3.600000000000000));
#1556=DIRECTION('',(0.0,1.0,0.0));
#1557=VECTOR('',#1556,0.799999999999997);
#1558=LINE('',#1555,#1557);
#1559=EDGE_CURVE('',#1516,#1548,#1558,.T.);
#1560=ORIENTED_EDGE('',*,*,#1559,.F.);
#1561=ORIENTED_EDGE('',*,*,#1521,.T.);
#1562=EDGE_LOOP('',(#1546,#1554,#1560,#1561));
#1563=FACE_OUTER_BOUND('',#1562,.T.);
#1564=ADVANCED_FACE('',(#1563),#1545,.T.);
#1565=CARTESIAN_POINT('',(-5.229999999999996,4.209999999999999,-3.600000000000000));
#1566=DIRECTION('',(0.0,1.0,0.0));
#1567=DIRECTION('',(0.0,0.0,1.0));
#1568=AXIS2_PLACEMENT_3D('',#1565,#1566,#1567);
#1569=PLANE('',#1568);
#1570=ORIENTED_EDGE('',*,*,#1471,.F.);
#1571=CARTESIAN_POINT('',(-4.929999999999995,4.209999999999999,-3.600000000000000));
#1572=VERTEX_POINT('',#1571);
#1573=CARTESIAN_POINT('',(-4.929999999999995,4.209999999999999,-3.600000000000000));
#1574=DIRECTION('',(0.0,0.0,1.0));
#1575=VECTOR('',#1574,4.900000000000000);
#1576=LINE('',#1573,#1575);
#1577=EDGE_CURVE('',#1572,#1459,#1576,.T.);
#1578=ORIENTED_EDGE('',*,*,#1577,.F.);
#1579=CARTESIAN_POINT('',(-5.229999999999996,4.209999999999999,-3.600000000000000));
#1580=DIRECTION('',(1.0,0.0,0.0));
#1581=VECTOR('',#1580,0.300000000000001);
#1582=LINE('',#1579,#1581);
#1583=EDGE_CURVE('',#1548,#1572,#1582,.T.);
#1584=ORIENTED_EDGE('',*,*,#1583,.F.);
#1585=ORIENTED_EDGE('',*,*,#1553,.T.);
#1586=ORIENTED_EDGE('',*,*,#1489,.F.);
#1587=EDGE_LOOP('',(#1570,#1578,#1584,#1585,#1586));
#1588=FACE_OUTER_BOUND('',#1587,.T.);
#1589=ADVANCED_FACE('',(#1588),#1569,.T.);
#1590=CARTESIAN_POINT('',(-4.929999999999995,4.209999999999999,-3.600000000000000));
#1591=DIRECTION('',(1.0,0.0,0.0));
#1592=DIRECTION('',(0.0,0.0,-1.0));
#1593=AXIS2_PLACEMENT_3D('',#1590,#1591,#1592);
#1594=PLANE('',#1593);
#1595=ORIENTED_EDGE('',*,*,#1464,.T.);
#1596=ORIENTED_EDGE('',*,*,#1535,.F.);
#1597=CARTESIAN_POINT('',(-4.929999999999995,4.209999999999999,-3.600000000000000));
#1598=DIRECTION('',(0.0,-1.0,0.0));
#1599=VECTOR('',#1598,0.799999999999997);
#1600=LINE('',#1597,#1599);
#1601=EDGE_CURVE('',#1572,#1524,#1600,.T.);
#1602=ORIENTED_EDGE('',*,*,#1601,.F.);
#1603=ORIENTED_EDGE('',*,*,#1577,.T.);
#1604=EDGE_LOOP('',(#1595,#1596,#1602,#1603));
#1605=FACE_OUTER_BOUND('',#1604,.T.);
#1606=ADVANCED_FACE('',(#1605),#1594,.T.);
#1607=CARTESIAN_POINT('',(-5.079999999999996,3.810000000000001,-3.600000000000001));
#1608=DIRECTION('',(0.0,0.0,1.0));
#1609=DIRECTION('',(1.0,0.0,0.0));
#1610=AXIS2_PLACEMENT_3D('',#1607,#1608,#1609);
#1611=PLANE('',#1610);
#1612=ORIENTED_EDGE('',*,*,#1601,.T.);
#1613=ORIENTED_EDGE('',*,*,#1529,.T.);
#1614=ORIENTED_EDGE('',*,*,#1559,.T.);
#1615=ORIENTED_EDGE('',*,*,#1583,.T.);
#1616=EDGE_LOOP('',(#1612,#1613,#1614,#1615));
#1617=FACE_OUTER_BOUND('',#1616,.T.);
#1618=ADVANCED_FACE('',(#1617),#1611,.F.);
#1619=CLOSED_SHELL('',(#1475,#1508,#1540,#1564,#1589,#1606,#1618));
#1620=MANIFOLD_SOLID_BREP('890',#1619);
#1621=STYLED_ITEM('NONE',(#1192),#1620);
#1622=CARTESIAN_POINT('',(-4.929999999999998,-4.009999999999998,1.000000000000000));
#1623=DIRECTION('',(0.0,1.0,3.872556E-029));
#1624=DIRECTION('',(-0.707106781186546,0.0,0.707106781186549));
#1625=AXIS2_PLACEMENT_3D('',#1622,#1623,#1624);
#1626=CYLINDRICAL_SURFACE('',#1625,0.300000000000000);
#1627=CARTESIAN_POINT('',(-5.142132034355962,-4.209999999999997,1.212132034355964));
#1628=VERTEX_POINT('',#1627);
#1629=CARTESIAN_POINT('',(-5.142132034355962,-3.410000000000000,1.212132034355964));
#1630=VERTEX_POINT('',#1629);
#1631=CARTESIAN_POINT('',(-5.142132034355962,-4.209999999999997,1.212132034355964));
#1632=DIRECTION('',(0.0,1.0,0.0));
#1633=VECTOR('',#1632,0.799999999999997);
#1634=LINE('',#1631,#1633);
#1635=EDGE_CURVE('',#1628,#1630,#1634,.T.);
#1636=ORIENTED_EDGE('',*,*,#1635,.F.);
#1637=CARTESIAN_POINT('',(-4.929999999999996,-4.209999999999997,1.300000000000000));
#1638=VERTEX_POINT('',#1637);
#1639=CARTESIAN_POINT('',(-4.929999999999998,-4.209999999999997,1.000000000000000));
#1640=DIRECTION('',(0.0,1.0,0.0));
#1641=DIRECTION('',(-0.707106781186546,0.0,0.707106781186549));
#1642=AXIS2_PLACEMENT_3D('',#1639,#1640,#1641);
#1643=CIRCLE('',#1642,0.300000000000000);
#1644=EDGE_CURVE('',#1628,#1638,#1643,.T.);
#1645=ORIENTED_EDGE('',*,*,#1644,.T.);
#1646=CARTESIAN_POINT('',(-4.929999999999996,-3.410000000000000,1.300000000000000));
#1647=VERTEX_POINT('',#1646);
#1648=CARTESIAN_POINT('',(-4.929999999999996,-3.410000000000000,1.300000000000000));
#1649=DIRECTION('',(0.0,-1.0,0.0));
#1650=VECTOR('',#1649,0.799999999999997);
#1651=LINE('',#1648,#1650);
#1652=EDGE_CURVE('',#1647,#1638,#1651,.T.);
#1653=ORIENTED_EDGE('',*,*,#1652,.F.);
#1654=CARTESIAN_POINT('',(-4.929999999999998,-3.410000000000000,1.000000000000000));
#1655=DIRECTION('',(0.0,-1.0,0.0));
#1656=DIRECTION('',(-0.707106781186546,0.0,0.707106781186549));
#1657=AXIS2_PLACEMENT_3D('',#1654,#1655,#1656);
#1658=CIRCLE('',#1657,0.300000000000000);
#1659=EDGE_CURVE('',#1647,#1630,#1658,.T.);
#1660=ORIENTED_EDGE('',*,*,#1659,.T.);
#1661=EDGE_LOOP('',(#1636,#1645,#1653,#1660));
#1662=FACE_OUTER_BOUND('',#1661,.T.);
#1663=ADVANCED_FACE('',(#1662),#1626,.T.);
#1664=CARTESIAN_POINT('',(-4.929999999999998,-4.009999999999998,1.000000000000000));
#1665=DIRECTION('',(0.0,1.0,3.872556E-029));
#1666=DIRECTION('',(-0.707106781186546,0.0,0.707106781186549));
#1667=AXIS2_PLACEMENT_3D('',#1664,#1665,#1666);
#1668=CYLINDRICAL_SURFACE('',#1667,0.300000000000000);
#1669=ORIENTED_EDGE('',*,*,#1635,.T.);
#1670=CARTESIAN_POINT('',(-5.229999999999997,-3.410000000000000,1.000000000000000));
#1671=VERTEX_POINT('',#1670);
#1672=CARTESIAN_POINT('',(-4.929999999999998,-3.410000000000000,1.000000000000000));
#1673=DIRECTION('',(0.0,-1.0,0.0));
#1674=DIRECTION('',(-0.707106781186546,0.0,0.707106781186549));
#1675=AXIS2_PLACEMENT_3D('',#1672,#1673,#1674);
#1676=CIRCLE('',#1675,0.300000000000000);
#1677=EDGE_CURVE('',#1630,#1671,#1676,.T.);
#1678=ORIENTED_EDGE('',*,*,#1677,.T.);
#1679=CARTESIAN_POINT('',(-5.229999999999997,-4.209999999999997,1.000000000000000));
#1680=VERTEX_POINT('',#1679);
#1681=CARTESIAN_POINT('',(-5.229999999999997,-3.410000000000000,1.000000000000000));
#1682=DIRECTION('',(0.0,-1.0,0.0));
#1683=VECTOR('',#1682,0.799999999999997);
#1684=LINE('',#1681,#1683);
#1685=EDGE_CURVE('',#1671,#1680,#1684,.T.);
#1686=ORIENTED_EDGE('',*,*,#1685,.T.);
#1687=CARTESIAN_POINT('',(-4.929999999999998,-4.209999999999997,1.000000000000000));
#1688=DIRECTION('',(0.0,1.0,0.0));
#1689=DIRECTION('',(-0.707106781186546,0.0,0.707106781186549));
#1690=AXIS2_PLACEMENT_3D('',#1687,#1688,#1689);
#1691=CIRCLE('',#1690,0.300000000000000);
#1692=EDGE_CURVE('',#1680,#1628,#1691,.T.);
#1693=ORIENTED_EDGE('',*,*,#1692,.T.);
#1694=EDGE_LOOP('',(#1669,#1678,#1686,#1693));
#1695=FACE_OUTER_BOUND('',#1694,.T.);
#1696=ADVANCED_FACE('',(#1695),#1668,.T.);
#1697=CARTESIAN_POINT('',(-4.929999999999996,-4.209999999999997,-3.600000000000000));
#1698=DIRECTION('',(0.0,-1.0,0.0));
#1699=DIRECTION('',(0.0,0.0,-1.0));
#1700=AXIS2_PLACEMENT_3D('',#1697,#1698,#1699);
#1701=PLANE('',#1700);
#1702=ORIENTED_EDGE('',*,*,#1692,.F.);
#1703=CARTESIAN_POINT('',(-5.229999999999997,-4.209999999999997,-3.600000000000000));
#1704=VERTEX_POINT('',#1703);
#1705=CARTESIAN_POINT('',(-5.229999999999997,-4.209999999999997,-3.600000000000000));
#1706=DIRECTION('',(0.0,0.0,1.0));
#1707=VECTOR('',#1706,4.600000000000000);
#1708=LINE('',#1705,#1707);
#1709=EDGE_CURVE('',#1704,#1680,#1708,.T.);
#1710=ORIENTED_EDGE('',*,*,#1709,.F.);
#1711=CARTESIAN_POINT('',(-4.929999999999996,-4.209999999999997,-3.600000000000000));
#1712=VERTEX_POINT('',#1711);
#1713=CARTESIAN_POINT('',(-4.929999999999996,-4.209999999999997,-3.600000000000000));
#1714=DIRECTION('',(-1.0,0.0,0.0));
#1715=VECTOR('',#1714,0.300000000000001);
#1716=LINE('',#1713,#1715);
#1717=EDGE_CURVE('',#1712,#1704,#1716,.T.);
#1718=ORIENTED_EDGE('',*,*,#1717,.F.);
#1719=CARTESIAN_POINT('',(-4.929999999999996,-4.209999999999997,-3.600000000000000));
#1720=DIRECTION('',(0.0,0.0,1.0));
#1721=VECTOR('',#1720,4.900000000000000);
#1722=LINE('',#1719,#1721);
#1723=EDGE_CURVE('',#1712,#1638,#1722,.T.);
#1724=ORIENTED_EDGE('',*,*,#1723,.T.);
#1725=ORIENTED_EDGE('',*,*,#1644,.F.);
#1726=EDGE_LOOP('',(#1702,#1710,#1718,#1724,#1725));
#1727=FACE_OUTER_BOUND('',#1726,.T.);
#1728=ADVANCED_FACE('',(#1727),#1701,.T.);
#1729=CARTESIAN_POINT('',(-5.229999999999997,-4.209999999999997,-3.600000000000000));
#1730=DIRECTION('',(-1.0,0.0,0.0));
#1731=DIRECTION('',(0.0,0.0,1.0));
#1732=AXIS2_PLACEMENT_3D('',#1729,#1730,#1731);
#1733=PLANE('',#1732);
#1734=ORIENTED_EDGE('',*,*,#1685,.F.);
#1735=CARTESIAN_POINT('',(-5.229999999999997,-3.410000000000000,-3.600000000000000));
#1736=VERTEX_POINT('',#1735);
#1737=CARTESIAN_POINT('',(-5.229999999999997,-3.410000000000000,-3.600000000000000));
#1738=DIRECTION('',(0.0,0.0,1.0));
#1739=VECTOR('',#1738,4.600000000000000);
#1740=LINE('',#1737,#1739);
#1741=EDGE_CURVE('',#1736,#1671,#1740,.T.);
#1742=ORIENTED_EDGE('',*,*,#1741,.F.);
#1743=CARTESIAN_POINT('',(-5.229999999999997,-4.209999999999997,-3.600000000000000));
#1744=DIRECTION('',(0.0,1.0,0.0));
#1745=VECTOR('',#1744,0.799999999999997);
#1746=LINE('',#1743,#1745);
#1747=EDGE_CURVE('',#1704,#1736,#1746,.T.);
#1748=ORIENTED_EDGE('',*,*,#1747,.F.);
#1749=ORIENTED_EDGE('',*,*,#1709,.T.);
#1750=EDGE_LOOP('',(#1734,#1742,#1748,#1749));
#1751=FACE_OUTER_BOUND('',#1750,.T.);
#1752=ADVANCED_FACE('',(#1751),#1733,.T.);
#1753=CARTESIAN_POINT('',(-5.229999999999997,-3.410000000000000,-3.600000000000000));
#1754=DIRECTION('',(0.0,1.0,0.0));
#1755=DIRECTION('',(0.0,0.0,1.0));
#1756=AXIS2_PLACEMENT_3D('',#1753,#1754,#1755);
#1757=PLANE('',#1756);
#1758=ORIENTED_EDGE('',*,*,#1659,.F.);
#1759=CARTESIAN_POINT('',(-4.929999999999996,-3.410000000000000,-3.600000000000000));
#1760=VERTEX_POINT('',#1759);
#1761=CARTESIAN_POINT('',(-4.929999999999996,-3.410000000000000,-3.600000000000000));
#1762=DIRECTION('',(0.0,0.0,1.0));
#1763=VECTOR('',#1762,4.900000000000000);
#1764=LINE('',#1761,#1763);
#1765=EDGE_CURVE('',#1760,#1647,#1764,.T.);
#1766=ORIENTED_EDGE('',*,*,#1765,.F.);
#1767=CARTESIAN_POINT('',(-5.229999999999997,-3.410000000000000,-3.600000000000000));
#1768=DIRECTION('',(1.0,0.0,0.0));
#1769=VECTOR('',#1768,0.300000000000001);
#1770=LINE('',#1767,#1769);
#1771=EDGE_CURVE('',#1736,#1760,#1770,.T.);
#1772=ORIENTED_EDGE('',*,*,#1771,.F.);
#1773=ORIENTED_EDGE('',*,*,#1741,.T.);
#1774=ORIENTED_EDGE('',*,*,#1677,.F.);
#1775=EDGE_LOOP('',(#1758,#1766,#1772,#1773,#1774));
#1776=FACE_OUTER_BOUND('',#1775,.T.);
#1777=ADVANCED_FACE('',(#1776),#1757,.T.);
#1778=CARTESIAN_POINT('',(-4.929999999999996,-3.410000000000000,-3.600000000000000));
#1779=DIRECTION('',(1.0,0.0,0.0));
#1780=DIRECTION('',(0.0,0.0,-1.0));
#1781=AXIS2_PLACEMENT_3D('',#1778,#1779,#1780);
#1782=PLANE('',#1781);
#1783=ORIENTED_EDGE('',*,*,#1652,.T.);
#1784=ORIENTED_EDGE('',*,*,#1723,.F.);
#1785=CARTESIAN_POINT('',(-4.929999999999996,-3.410000000000000,-3.600000000000000));
#1786=DIRECTION('',(0.0,-1.0,0.0));
#1787=VECTOR('',#1786,0.799999999999997);
#1788=LINE('',#1785,#1787);
#1789=EDGE_CURVE('',#1760,#1712,#1788,.T.);
#1790=ORIENTED_EDGE('',*,*,#1789,.F.);
#1791=ORIENTED_EDGE('',*,*,#1765,.T.);
#1792=EDGE_LOOP('',(#1783,#1784,#1790,#1791));
#1793=FACE_OUTER_BOUND('',#1792,.T.);
#1794=ADVANCED_FACE('',(#1793),#1782,.T.);
#1795=CARTESIAN_POINT('',(-5.079999999999997,-3.809999999999998,-3.600000000000001));
#1796=DIRECTION('',(0.0,0.0,1.0));
#1797=DIRECTION('',(1.0,0.0,0.0));
#1798=AXIS2_PLACEMENT_3D('',#1795,#1796,#1797);
#1799=PLANE('',#1798);
#1800=ORIENTED_EDGE('',*,*,#1789,.T.);
#1801=ORIENTED_EDGE('',*,*,#1717,.T.);
#1802=ORIENTED_EDGE('',*,*,#1747,.T.);
#1803=ORIENTED_EDGE('',*,*,#1771,.T.);
#1804=EDGE_LOOP('',(#1800,#1801,#1802,#1803));
#1805=FACE_OUTER_BOUND('',#1804,.T.);
#1806=ADVANCED_FACE('',(#1805),#1799,.F.);
#1807=CLOSED_SHELL('',(#1663,#1696,#1728,#1752,#1777,#1794,#1806));
#1808=MANIFOLD_SOLID_BREP('88E',#1807);
#1809=STYLED_ITEM('NONE',(#1192),#1808);
#1810=ADVANCED_BREP_SHAPE_REPRESENTATION('ABSR1',(#798,#948,#1185,#1422,#1620,#1808),#28);
#1811=SHAPE_REPRESENTATION_RELATIONSHIP('SRRPL1','',#1810,#62);
#1812=GEOMETRIC_CURVE_SET('GCS1',(#1429));
#1813=GEOMETRICALLY_BOUNDED_WIREFRAME_SHAPE_REPRESENTATION('GBWSR1',(#1812),#28);
#1814=SHAPE_REPRESENTATION_RELATIONSHIP('SRRPL2','',#1813,#62);
ENDSEC;
END-ISO-10303-21;
