ISO-10303-21;
HEADER;
/****************************************************************
 * Generated by software with PDElib inside                    *
 * PDElib Version v51a, created Fri 09/10/2010                  *
 * ITI Transcendata (http://www.transcendata.com/)              *
 ****************************************************************/
FILE_DESCRIPTION((''),'2;1');
FILE_NAME('PCBM_VTTx-V2_Part2.stp','2013-08-22T10:39:12',(''),(''),'Mechanical Desktop 2011','Mechanical Desktop 2011',', , ');
FILE_SCHEMA(('AUTOMOTIVE_DESIGN { 1 2 10303 214 1 1 1 1 }'));
ENDSEC;
DATA;
#10=(NAMED_UNIT(*)PLANE_ANGLE_UNIT()SI_UNIT($,.RADIAN.));
#11=DIMENSIONAL_EXPONENTS(0.0,0.0,0.0,0.0,0.0,0.0,0.0);
#12=PLANE_ANGLE_MEASURE_WITH_UNIT(PLANE_ANGLE_MEASURE(0.0174532925),#10);
#16=(CONVERSION_BASED_UNIT('DEGREE',#12)NAMED_UNIT(#11)PLANE_ANGLE_UNIT());
#20=(NAMED_UNIT(*)SI_UNIT($,.STERADIAN.)SOLID_ANGLE_UNIT());
#24=(LENGTH_UNIT()NAMED_UNIT(*)SI_UNIT(.MILLI.,.METRE.));
#26=UNCERTAINTY_MEASURE_WITH_UNIT(LENGTH_MEASURE(0.000001),#24,'DISTANCE_ACCURACY_VALUE','');
#28=(GEOMETRIC_REPRESENTATION_CONTEXT(3)GLOBAL_UNCERTAINTY_ASSIGNED_CONTEXT((#26))GLOBAL_UNIT_ASSIGNED_CONTEXT((#16,#20,#24))REPRESENTATION_CONTEXT('','3D'));
#29=APPLICATION_CONTEXT('automotive design');
#30=APPLICATION_PROTOCOL_DEFINITION('INTERNATIONAL_STANDARD','automotive_design',1998,#29);
#31=PRODUCT_CONTEXT('3D Mechanical Parts',#29,'mechanical');
#32=PRODUCT('Product','Product','',(#31));
#33=PRODUCT_RELATED_PRODUCT_CATEGORY('part',$,(#32));
#34=PRODUCT_CATEGORY('part',$);
#35=PERSON('1','Design','Joe',$,$,$);
#36=ORGANIZATION($,'None','None');
#37=PERSON_AND_ORGANIZATION(#35,#36);
#38=PERSON_AND_ORGANIZATION_ROLE('design_owner');
#39=APPLIED_PERSON_AND_ORGANIZATION_ASSIGNMENT(#37,#38,(#32));
#40=PRODUCT_DEFINITION_FORMATION_WITH_SPECIFIED_SOURCE('None','',#32,.BOUGHT.);
#41=PERSON('2','Creator','Joe',$,$,$);
#42=ORGANIZATION($,'None','None');
#43=PERSON_AND_ORGANIZATION(#41,#42);
#44=PERSON_AND_ORGANIZATION_ROLE('creator');
#45=APPLIED_PERSON_AND_ORGANIZATION_ASSIGNMENT(#43,#44,(#40));
#46=PERSON('3','Supplier','Joe',$,$,$);
#47=ORGANIZATION($,'None','None');
#48=PERSON_AND_ORGANIZATION(#46,#47);
#49=PERSON_AND_ORGANIZATION_ROLE('design_supplier');
#50=APPLIED_PERSON_AND_ORGANIZATION_ASSIGNMENT(#48,#49,(#40));
#51=PRODUCT_DEFINITION_CONTEXT('part definition',#29,'design');
#52=PRODUCT_DEFINITION('None','',#40,#51);
#53=PERSON('4','Creator','Joe',$,$,$);
#54=ORGANIZATION($,'None','None');
#55=PERSON_AND_ORGANIZATION(#53,#54);
#56=PERSON_AND_ORGANIZATION_ROLE('creator');
#57=APPLIED_PERSON_AND_ORGANIZATION_ASSIGNMENT(#55,#56,(#52));
#58=CARTESIAN_POINT('NONE',(0.0,0.0,0.0));
#59=DIRECTION('NONE',(0.0,0.0,1.0));
#60=DIRECTION('NONE',(1.0,0.0,0.0));
#61=AXIS2_PLACEMENT_3D('NONE',#58,#59,#60);
#62=SHAPE_REPRESENTATION('SR1',(#61),#28);
#63=PRODUCT_DEFINITION_SHAPE('PDS1','Test Part',#52);
#64=SHAPE_DEFINITION_REPRESENTATION(#63,#62);
#65=CARTESIAN_POINT('',(-14.539999999999996,3.552714E-015,1.25));
#66=DIRECTION('',(0.0,0.0,-1.0));
#67=DIRECTION('',(-0.877582561890372,0.479425538604204,0.0));
#68=AXIS2_PLACEMENT_3D('',#65,#66,#67);
#69=CYLINDRICAL_SURFACE('',#68,0.7);
#70=CARTESIAN_POINT('',(-15.154307793323257,0.335597877022946,-1.9));
#71=VERTEX_POINT('',#70);
#72=CARTESIAN_POINT('',(-15.154307793323257,0.335597877022946,1.1));
#73=VERTEX_POINT('',#72);
#74=CARTESIAN_POINT('',(-15.154307793323257,0.335597877022946,-1.9));
#75=DIRECTION('',(0.0,0.0,1.0));
#76=VECTOR('',#75,3.0);
#77=LINE('',#74,#76);
#78=EDGE_CURVE('',#71,#73,#77,.T.);
#79=ORIENTED_EDGE('',*,*,#78,.F.);
#80=CARTESIAN_POINT('',(-13.925692206599994,-0.335597877022996,-1.9));
#81=VERTEX_POINT('',#80);
#82=CARTESIAN_POINT('',(-14.539999999999996,3.552714E-015,-1.9));
#83=DIRECTION('',(0.0,0.0,-1.0));
#84=DIRECTION('',(1.0,0.0,0.0));
#85=AXIS2_PLACEMENT_3D('',#82,#83,#84);
#86=CIRCLE('',#85,0.699999999999999);
#87=EDGE_CURVE('',#81,#71,#86,.T.);
#88=ORIENTED_EDGE('',*,*,#87,.F.);
#89=CARTESIAN_POINT('',(-13.925692206599994,-0.335597877022996,1.1));
#90=VERTEX_POINT('',#89);
#91=CARTESIAN_POINT('',(-13.925692206676734,-0.335597877022939,-1.9));
#92=DIRECTION('',(0.0,0.0,1.0));
#93=VECTOR('',#92,3.0);
#94=LINE('',#91,#93);
#95=EDGE_CURVE('',#81,#90,#94,.T.);
#96=ORIENTED_EDGE('',*,*,#95,.T.);
#97=CARTESIAN_POINT('',(-14.539999999999996,3.552714E-015,1.1));
#98=DIRECTION('',(0.0,0.0,-1.0));
#99=DIRECTION('',(1.0,0.0,0.0));
#100=AXIS2_PLACEMENT_3D('',#97,#98,#99);
#101=CIRCLE('',#100,0.699999999999999);
#102=EDGE_CURVE('',#90,#73,#101,.T.);
#103=ORIENTED_EDGE('',*,*,#102,.T.);
#104=EDGE_LOOP('',(#79,#88,#96,#103));
#105=FACE_OUTER_BOUND('',#104,.T.);
#106=ADVANCED_FACE('',(#105),#69,.T.);
#107=CARTESIAN_POINT('',(-14.539999999999996,3.552714E-015,-0.8));
#108=DIRECTION('',(0.0,0.0,-1.0));
#109=DIRECTION('',(-0.877582561890372,0.479425538604203,0.0));
#110=AXIS2_PLACEMENT_3D('',#107,#108,#109);
#111=CYLINDRICAL_SURFACE('',#110,1.25);
#112=CARTESIAN_POINT('',(-15.636978202362961,0.599281923255258,-2.3));
#113=VERTEX_POINT('',#112);
#114=CARTESIAN_POINT('',(-15.636978202362961,0.599281923255258,-1.9));
#115=VERTEX_POINT('',#114);
#116=CARTESIAN_POINT('',(-15.636978202362961,0.599281923255258,-2.3));
#117=DIRECTION('',(0.0,0.0,1.0));
#118=VECTOR('',#117,0.4);
#119=LINE('',#116,#118);
#120=EDGE_CURVE('',#113,#115,#119,.T.);
#121=ORIENTED_EDGE('',*,*,#120,.F.);
#122=CARTESIAN_POINT('',(-15.789999999999996,3.552714E-015,-2.3));
#123=VERTEX_POINT('',#122);
#124=CARTESIAN_POINT('',(-14.539999999999996,3.552714E-015,-2.3));
#125=DIRECTION('',(0.0,0.0,-1.0));
#126=DIRECTION('',(1.0,0.0,0.0));
#127=AXIS2_PLACEMENT_3D('',#124,#125,#126);
#128=CIRCLE('',#127,1.25);
#129=EDGE_CURVE('',#123,#113,#128,.T.);
#130=ORIENTED_EDGE('',*,*,#129,.F.);
#131=CARTESIAN_POINT('',(-13.443021797599997,-0.599281923254996,-2.3));
#132=VERTEX_POINT('',#131);
#133=CARTESIAN_POINT('',(-14.539999999999996,3.552714E-015,-2.3));
#134=DIRECTION('',(0.0,0.0,-1.0));
#135=DIRECTION('',(1.0,0.0,0.0));
#136=AXIS2_PLACEMENT_3D('',#133,#134,#135);
#137=CIRCLE('',#136,1.25);
#138=EDGE_CURVE('',#132,#123,#137,.T.);
#139=ORIENTED_EDGE('',*,*,#138,.F.);
#140=CARTESIAN_POINT('',(-13.443021797599997,-0.599281923254996,-1.9));
#141=VERTEX_POINT('',#140);
#142=CARTESIAN_POINT('',(-13.44302179763703,-0.599281923255251,-2.3));
#143=DIRECTION('',(0.0,0.0,1.0));
#144=VECTOR('',#143,0.4);
#145=LINE('',#142,#144);
#146=EDGE_CURVE('',#132,#141,#145,.T.);
#147=ORIENTED_EDGE('',*,*,#146,.T.);
#148=CARTESIAN_POINT('',(-14.539999999999996,3.552714E-015,-1.9));
#149=DIRECTION('',(0.0,0.0,-1.0));
#150=DIRECTION('',(1.0,0.0,0.0));
#151=AXIS2_PLACEMENT_3D('',#148,#149,#150);
#152=CIRCLE('',#151,1.25);
#153=EDGE_CURVE('',#141,#115,#152,.T.);
#154=ORIENTED_EDGE('',*,*,#153,.T.);
#155=EDGE_LOOP('',(#121,#130,#139,#147,#154));
#156=FACE_OUTER_BOUND('',#155,.T.);
#157=ADVANCED_FACE('',(#156),#111,.T.);
#158=CARTESIAN_POINT('',(-14.539999999999996,3.552714E-015,-2.3));
#159=DIRECTION('',(0.0,0.0,-1.0));
#160=DIRECTION('',(-1.0,0.0,0.0));
#161=AXIS2_PLACEMENT_3D('',#158,#159,#160);
#162=TOROIDAL_SURFACE('',#161,0.85,0.4);
#163=CARTESIAN_POINT('',(-15.389999999999997,3.552714E-015,-2.7));
#164=VERTEX_POINT('',#163);
#165=CARTESIAN_POINT('',(-15.389999999999995,3.552714E-015,-2.3));
#166=DIRECTION('',(0.0,1.0,0.0));
#167=DIRECTION('',(-1.0,0.0,0.0));
#168=AXIS2_PLACEMENT_3D('',#165,#166,#167);
#169=CIRCLE('',#168,0.4);
#170=EDGE_CURVE('',#164,#123,#169,.T.);
#171=ORIENTED_EDGE('',*,*,#170,.F.);
#172=CARTESIAN_POINT('',(-13.794054822399996,-0.407511707813996,-2.7));
#173=VERTEX_POINT('',#172);
#174=CARTESIAN_POINT('',(-14.539999999999996,3.552714E-015,-2.7));
#175=DIRECTION('',(0.0,0.0,-1.0));
#176=DIRECTION('',(1.0,0.0,0.0));
#177=AXIS2_PLACEMENT_3D('',#174,#175,#176);
#178=CIRCLE('',#177,0.850000000000001);
#179=EDGE_CURVE('',#173,#164,#178,.T.);
#180=ORIENTED_EDGE('',*,*,#179,.F.);
#181=CARTESIAN_POINT('',(-13.689999999999994,3.448619E-015,-2.7));
#182=VERTEX_POINT('',#181);
#183=CARTESIAN_POINT('',(-14.539999999999996,3.552714E-015,-2.7));
#184=DIRECTION('',(0.0,0.0,-1.0));
#185=DIRECTION('',(1.0,0.0,0.0));
#186=AXIS2_PLACEMENT_3D('',#183,#184,#185);
#187=CIRCLE('',#186,0.850000000000001);
#188=EDGE_CURVE('',#182,#173,#187,.T.);
#189=ORIENTED_EDGE('',*,*,#188,.F.);
#190=CARTESIAN_POINT('',(-13.289999999999996,3.399633E-015,-2.3));
#191=VERTEX_POINT('',#190);
#192=CARTESIAN_POINT('',(-13.689999999999996,3.448619E-015,-2.3));
#193=DIRECTION('',(0.0,-1.0,0.0));
#194=DIRECTION('',(1.0,0.0,0.0));
#195=AXIS2_PLACEMENT_3D('',#192,#193,#194);
#196=CIRCLE('',#195,0.4);
#197=EDGE_CURVE('',#182,#191,#196,.T.);
#198=ORIENTED_EDGE('',*,*,#197,.T.);
#199=CARTESIAN_POINT('',(-14.539999999999996,3.552714E-015,-2.3));
#200=DIRECTION('',(0.0,0.0,-1.0));
#201=DIRECTION('',(1.0,0.0,0.0));
#202=AXIS2_PLACEMENT_3D('',#199,#200,#201);
#203=CIRCLE('',#202,1.25);
#204=EDGE_CURVE('',#191,#132,#203,.T.);
#205=ORIENTED_EDGE('',*,*,#204,.T.);
#206=ORIENTED_EDGE('',*,*,#138,.T.);
#207=EDGE_LOOP('',(#171,#180,#189,#198,#205,#206));
#208=FACE_OUTER_BOUND('',#207,.T.);
#209=ADVANCED_FACE('',(#208),#162,.T.);
#210=CARTESIAN_POINT('',(-14.539999999999996,3.552714E-015,-2.3));
#211=DIRECTION('',(0.0,0.0,-1.0));
#212=DIRECTION('',(-1.0,0.0,0.0));
#213=AXIS2_PLACEMENT_3D('',#210,#211,#212);
#214=TOROIDAL_SURFACE('',#213,0.85,0.4);
#215=ORIENTED_EDGE('',*,*,#170,.T.);
#216=ORIENTED_EDGE('',*,*,#129,.T.);
#217=CARTESIAN_POINT('',(-14.539999999999996,3.552714E-015,-2.3));
#218=DIRECTION('',(0.0,0.0,-1.0));
#219=DIRECTION('',(1.0,0.0,0.0));
#220=AXIS2_PLACEMENT_3D('',#217,#218,#219);
#221=CIRCLE('',#220,1.25);
#222=EDGE_CURVE('',#113,#191,#221,.T.);
#223=ORIENTED_EDGE('',*,*,#222,.T.);
#224=ORIENTED_EDGE('',*,*,#197,.F.);
#225=CARTESIAN_POINT('',(-14.539999999999996,3.552714E-015,-2.7));
#226=DIRECTION('',(0.0,0.0,-1.0));
#227=DIRECTION('',(1.0,0.0,0.0));
#228=AXIS2_PLACEMENT_3D('',#225,#226,#227);
#229=CIRCLE('',#228,0.850000000000001);
#230=EDGE_CURVE('',#164,#182,#229,.T.);
#231=ORIENTED_EDGE('',*,*,#230,.F.);
#232=EDGE_LOOP('',(#215,#216,#223,#224,#231));
#233=FACE_OUTER_BOUND('',#232,.T.);
#234=ADVANCED_FACE('',(#233),#214,.T.);
#235=CARTESIAN_POINT('',(-14.539999999999996,3.552714E-015,-0.8));
#236=DIRECTION('',(0.0,0.0,-1.0));
#237=DIRECTION('',(-0.877582561890372,0.479425538604203,0.0));
#238=AXIS2_PLACEMENT_3D('',#235,#236,#237);
#239=CYLINDRICAL_SURFACE('',#238,1.25);
#240=ORIENTED_EDGE('',*,*,#120,.T.);
#241=CARTESIAN_POINT('',(-14.539999999999996,3.552714E-015,-1.9));
#242=DIRECTION('',(0.0,0.0,-1.0));
#243=DIRECTION('',(1.0,0.0,0.0));
#244=AXIS2_PLACEMENT_3D('',#241,#242,#243);
#245=CIRCLE('',#244,1.25);
#246=EDGE_CURVE('',#115,#141,#245,.T.);
#247=ORIENTED_EDGE('',*,*,#246,.T.);
#248=ORIENTED_EDGE('',*,*,#146,.F.);
#249=ORIENTED_EDGE('',*,*,#204,.F.);
#250=ORIENTED_EDGE('',*,*,#222,.F.);
#251=EDGE_LOOP('',(#240,#247,#248,#249,#250));
#252=FACE_OUTER_BOUND('',#251,.T.);
#253=ADVANCED_FACE('',(#252),#239,.T.);
#254=CARTESIAN_POINT('',(-14.539999999999996,3.552714E-015,1.25));
#255=DIRECTION('',(0.0,0.0,-1.0));
#256=DIRECTION('',(-0.877582561890372,0.479425538604204,0.0));
#257=AXIS2_PLACEMENT_3D('',#254,#255,#256);
#258=CYLINDRICAL_SURFACE('',#257,0.7);
#259=ORIENTED_EDGE('',*,*,#78,.T.);
#260=CARTESIAN_POINT('',(-14.539999999999996,3.552714E-015,1.1));
#261=DIRECTION('',(0.0,0.0,-1.0));
#262=DIRECTION('',(1.0,0.0,0.0));
#263=AXIS2_PLACEMENT_3D('',#260,#261,#262);
#264=CIRCLE('',#263,0.699999999999999);
#265=EDGE_CURVE('',#73,#90,#264,.T.);
#266=ORIENTED_EDGE('',*,*,#265,.T.);
#267=ORIENTED_EDGE('',*,*,#95,.F.);
#268=CARTESIAN_POINT('',(-14.539999999999996,3.552714E-015,-1.9));
#269=DIRECTION('',(0.0,0.0,-1.0));
#270=DIRECTION('',(1.0,0.0,0.0));
#271=AXIS2_PLACEMENT_3D('',#268,#269,#270);
#272=CIRCLE('',#271,0.699999999999999);
#273=EDGE_CURVE('',#71,#81,#272,.T.);
#274=ORIENTED_EDGE('',*,*,#273,.F.);
#275=EDGE_LOOP('',(#259,#266,#267,#274));
#276=FACE_OUTER_BOUND('',#275,.T.);
#277=ADVANCED_FACE('',(#276),#258,.T.);
#278=CARTESIAN_POINT('',(-15.471925249973289,0.934739660299361,-2.7));
#279=DIRECTION('',(0.0,0.0,-1.0));
#280=DIRECTION('',(-1.0,0.0,0.0));
#281=AXIS2_PLACEMENT_3D('',#278,#279,#280);
#282=PLANE('',#281);
#283=ORIENTED_EDGE('',*,*,#179,.T.);
#284=ORIENTED_EDGE('',*,*,#230,.T.);
#285=ORIENTED_EDGE('',*,*,#188,.T.);
#286=EDGE_LOOP('',(#283,#284,#285));
#287=FACE_OUTER_BOUND('',#286,.T.);
#288=ADVANCED_FACE('',(#287),#282,.T.);
#289=CARTESIAN_POINT('',(-15.914617147499442,1.374617147499264,-1.9));
#290=DIRECTION('',(0.0,0.0,-1.0));
#291=DIRECTION('',(-1.0,0.0,0.0));
#292=AXIS2_PLACEMENT_3D('',#289,#290,#291);
#293=PLANE('',#292);
#294=ORIENTED_EDGE('',*,*,#153,.F.);
#295=ORIENTED_EDGE('',*,*,#246,.F.);
#296=EDGE_LOOP('',(#294,#295));
#297=FACE_OUTER_BOUND('',#296,.T.);
#298=ORIENTED_EDGE('',*,*,#87,.T.);
#299=ORIENTED_EDGE('',*,*,#273,.T.);
#300=EDGE_LOOP('',(#298,#299));
#301=FACE_BOUND('',#300,.T.);
#302=ADVANCED_FACE('',(#297,#301),#293,.F.);
#303=CARTESIAN_POINT('',(-15.308990924698229,0.768990924698764,1.1));
#304=DIRECTION('',(0.0,0.0,-1.0));
#305=DIRECTION('',(-1.0,0.0,0.0));
#306=AXIS2_PLACEMENT_3D('',#303,#304,#305);
#307=PLANE('',#306);
#308=ORIENTED_EDGE('',*,*,#102,.F.);
#309=ORIENTED_EDGE('',*,*,#265,.F.);
#310=EDGE_LOOP('',(#308,#309));
#311=FACE_OUTER_BOUND('',#310,.T.);
#312=ADVANCED_FACE('',(#311),#307,.F.);
#313=CLOSED_SHELL('',(#106,#157,#209,#234,#253,#277,#288,#302,#312));
#314=MANIFOLD_SOLID_BREP('2574',#313);
#315=COLOUR_RGB('254',0.866,0.866,0.866);
#316=SURFACE_STYLE_USAGE(.BOTH.,#317);
#317=SURFACE_SIDE_STYLE('NONE',(#318));
#318=SURFACE_STYLE_FILL_AREA(#319);
#319=FILL_AREA_STYLE('NONE',(#320));
#320=FILL_AREA_STYLE_COLOUR('NONE',#315);
#321=PRESENTATION_STYLE_ASSIGNMENT((#316));
#322=STYLED_ITEM('NONE',(#321),#314);
#323=MECHANICAL_DESIGN_GEOMETRIC_PRESENTATION_REPRESENTATION('NONE',(#322,#487,#650,#901),#28);
#324=PRESENTATION_LAYER_ASSIGNMENT('3D','None',(#314,#486,#649,#900));
#325=CARTESIAN_POINT('',(-14.539999999999999,3.552714E-015,-1.585));
#326=DIRECTION('',(0.0,0.0,-1.0));
#327=DIRECTION('',(-0.877582561890372,0.479425538604203,0.0));
#328=AXIS2_PLACEMENT_3D('',#325,#326,#327);
#329=CYLINDRICAL_SURFACE('',#328,1.9);
#330=CARTESIAN_POINT('',(-16.207406867591708,0.91090852334799,-1.9));
#331=VERTEX_POINT('',#330);
#332=CARTESIAN_POINT('',(-16.207406867591708,0.91090852334799,-1.6));
#333=VERTEX_POINT('',#332);
#334=CARTESIAN_POINT('',(-16.207406867591708,0.91090852334799,-1.9));
#335=DIRECTION('',(0.0,0.0,1.0));
#336=VECTOR('',#335,0.3);
#337=LINE('',#334,#336);
#338=EDGE_CURVE('',#331,#333,#337,.T.);
#339=ORIENTED_EDGE('',*,*,#338,.F.);
#340=CARTESIAN_POINT('',(-12.872593132399999,-0.910908523347996,-1.9));
#341=VERTEX_POINT('',#340);
#342=CARTESIAN_POINT('',(-14.539999999999999,3.552714E-015,-1.9));
#343=DIRECTION('',(0.0,0.0,-1.0));
#344=DIRECTION('',(1.0,0.0,0.0));
#345=AXIS2_PLACEMENT_3D('',#342,#343,#344);
#346=CIRCLE('',#345,1.899999999999999);
#347=EDGE_CURVE('',#341,#331,#346,.T.);
#348=ORIENTED_EDGE('',*,*,#347,.F.);
#349=CARTESIAN_POINT('',(-12.872593132399999,-0.910908523347996,-1.6));
#350=VERTEX_POINT('',#349);
#351=CARTESIAN_POINT('',(-12.872593132408291,-0.910908523347983,-1.9));
#352=DIRECTION('',(0.0,0.0,1.0));
#353=VECTOR('',#352,0.3);
#354=LINE('',#351,#353);
#355=EDGE_CURVE('',#341,#350,#354,.T.);
#356=ORIENTED_EDGE('',*,*,#355,.T.);
#357=CARTESIAN_POINT('',(-14.539999999999999,3.552714E-015,-1.6));
#358=DIRECTION('',(0.0,0.0,-1.0));
#359=DIRECTION('',(1.0,0.0,0.0));
#360=AXIS2_PLACEMENT_3D('',#357,#358,#359);
#361=CIRCLE('',#360,1.899999999999999);
#362=EDGE_CURVE('',#350,#333,#361,.T.);
#363=ORIENTED_EDGE('',*,*,#362,.T.);
#364=EDGE_LOOP('',(#339,#348,#356,#363));
#365=FACE_OUTER_BOUND('',#364,.T.);
#366=ADVANCED_FACE('',(#365),#329,.T.);
#367=CARTESIAN_POINT('',(-14.539999999999999,3.552714E-015,-1.585));
#368=DIRECTION('',(0.0,0.0,-1.0));
#369=DIRECTION('',(-0.877582561890372,0.479425538604203,0.0));
#370=AXIS2_PLACEMENT_3D('',#367,#368,#369);
#371=CYLINDRICAL_SURFACE('',#370,0.75);
#372=CARTESIAN_POINT('',(-15.198186921417779,0.359569153953156,-1.6));
#373=VERTEX_POINT('',#372);
#374=CARTESIAN_POINT('',(-15.198186921417779,0.359569153953156,-1.9));
#375=VERTEX_POINT('',#374);
#376=CARTESIAN_POINT('',(-15.198186921417779,0.359569153953156,-1.6));
#377=DIRECTION('',(0.0,0.0,-1.0));
#378=VECTOR('',#377,0.3);
#379=LINE('',#376,#378);
#380=EDGE_CURVE('',#373,#375,#379,.T.);
#381=ORIENTED_EDGE('',*,*,#380,.F.);
#382=CARTESIAN_POINT('',(-13.8818130786,-0.359569153952996,-1.6));
#383=VERTEX_POINT('',#382);
#384=CARTESIAN_POINT('',(-14.539999999999999,3.552714E-015,-1.6));
#385=DIRECTION('',(0.0,0.0,-1.0));
#386=DIRECTION('',(1.0,0.0,0.0));
#387=AXIS2_PLACEMENT_3D('',#384,#385,#386);
#388=CIRCLE('',#387,0.75);
#389=EDGE_CURVE('',#383,#373,#388,.T.);
#390=ORIENTED_EDGE('',*,*,#389,.F.);
#391=CARTESIAN_POINT('',(-13.8818130786,-0.359569153952996,-1.9));
#392=VERTEX_POINT('',#391);
#393=CARTESIAN_POINT('',(-13.881813078582219,-0.359569153953149,-1.6));
#394=DIRECTION('',(0.0,0.0,-1.0));
#395=VECTOR('',#394,0.3);
#396=LINE('',#393,#395);
#397=EDGE_CURVE('',#383,#392,#396,.T.);
#398=ORIENTED_EDGE('',*,*,#397,.T.);
#399=CARTESIAN_POINT('',(-14.539999999999999,3.552714E-015,-1.9));
#400=DIRECTION('',(0.0,0.0,-1.0));
#401=DIRECTION('',(1.0,0.0,0.0));
#402=AXIS2_PLACEMENT_3D('',#399,#400,#401);
#403=CIRCLE('',#402,0.75);
#404=EDGE_CURVE('',#392,#375,#403,.T.);
#405=ORIENTED_EDGE('',*,*,#404,.T.);
#406=EDGE_LOOP('',(#381,#390,#398,#405));
#407=FACE_OUTER_BOUND('',#406,.T.);
#408=ADVANCED_FACE('',(#407),#371,.F.);
#409=CARTESIAN_POINT('',(-14.539999999999999,3.552714E-015,-1.585));
#410=DIRECTION('',(0.0,0.0,-1.0));
#411=DIRECTION('',(-0.877582561890372,0.479425538604203,0.0));
#412=AXIS2_PLACEMENT_3D('',#409,#410,#411);
#413=CYLINDRICAL_SURFACE('',#412,0.75);
#414=ORIENTED_EDGE('',*,*,#380,.T.);
#415=CARTESIAN_POINT('',(-14.539999999999999,3.552714E-015,-1.9));
#416=DIRECTION('',(0.0,0.0,-1.0));
#417=DIRECTION('',(1.0,0.0,0.0));
#418=AXIS2_PLACEMENT_3D('',#415,#416,#417);
#419=CIRCLE('',#418,0.75);
#420=EDGE_CURVE('',#375,#392,#419,.T.);
#421=ORIENTED_EDGE('',*,*,#420,.T.);
#422=ORIENTED_EDGE('',*,*,#397,.F.);
#423=CARTESIAN_POINT('',(-14.539999999999999,3.552714E-015,-1.6));
#424=DIRECTION('',(0.0,0.0,-1.0));
#425=DIRECTION('',(1.0,0.0,0.0));
#426=AXIS2_PLACEMENT_3D('',#423,#424,#425);
#427=CIRCLE('',#426,0.75);
#428=EDGE_CURVE('',#373,#383,#427,.T.);
#429=ORIENTED_EDGE('',*,*,#428,.F.);
#430=EDGE_LOOP('',(#414,#421,#422,#429));
#431=FACE_OUTER_BOUND('',#430,.T.);
#432=ADVANCED_FACE('',(#431),#413,.F.);
#433=CARTESIAN_POINT('',(-14.539999999999999,3.552714E-015,-1.585));
#434=DIRECTION('',(0.0,0.0,-1.0));
#435=DIRECTION('',(-0.877582561890372,0.479425538604203,0.0));
#436=AXIS2_PLACEMENT_3D('',#433,#434,#435);
#437=CYLINDRICAL_SURFACE('',#436,1.9);
#438=ORIENTED_EDGE('',*,*,#338,.T.);
#439=CARTESIAN_POINT('',(-14.539999999999999,3.552714E-015,-1.6));
#440=DIRECTION('',(0.0,0.0,-1.0));
#441=DIRECTION('',(1.0,0.0,0.0));
#442=AXIS2_PLACEMENT_3D('',#439,#440,#441);
#443=CIRCLE('',#442,1.899999999999999);
#444=EDGE_CURVE('',#333,#350,#443,.T.);
#445=ORIENTED_EDGE('',*,*,#444,.T.);
#446=ORIENTED_EDGE('',*,*,#355,.F.);
#447=CARTESIAN_POINT('',(-14.539999999999999,3.552714E-015,-1.9));
#448=DIRECTION('',(0.0,0.0,-1.0));
#449=DIRECTION('',(1.0,0.0,0.0));
#450=AXIS2_PLACEMENT_3D('',#447,#448,#449);
#451=CIRCLE('',#450,1.899999999999999);
#452=EDGE_CURVE('',#331,#341,#451,.T.);
#453=ORIENTED_EDGE('',*,*,#452,.F.);
#454=EDGE_LOOP('',(#438,#445,#446,#453));
#455=FACE_OUTER_BOUND('',#454,.T.);
#456=ADVANCED_FACE('',(#455),#437,.T.);
#457=CARTESIAN_POINT('',(-16.629418064198251,2.089418064198253,-1.9));
#458=DIRECTION('',(0.0,0.0,-1.0));
#459=DIRECTION('',(-1.0,0.0,0.0));
#460=AXIS2_PLACEMENT_3D('',#457,#458,#459);
#461=PLANE('',#460);
#462=ORIENTED_EDGE('',*,*,#347,.T.);
#463=ORIENTED_EDGE('',*,*,#452,.T.);
#464=EDGE_LOOP('',(#462,#463));
#465=FACE_OUTER_BOUND('',#464,.T.);
#466=ORIENTED_EDGE('',*,*,#404,.F.);
#467=ORIENTED_EDGE('',*,*,#420,.F.);
#468=EDGE_LOOP('',(#466,#467));
#469=FACE_BOUND('',#468,.T.);
#470=ADVANCED_FACE('',(#465,#469),#461,.T.);
#471=CARTESIAN_POINT('',(-16.629418064198251,2.089418064198253,-1.6));
#472=DIRECTION('',(0.0,0.0,-1.0));
#473=DIRECTION('',(-1.0,0.0,0.0));
#474=AXIS2_PLACEMENT_3D('',#471,#472,#473);
#475=PLANE('',#474);
#476=ORIENTED_EDGE('',*,*,#362,.F.);
#477=ORIENTED_EDGE('',*,*,#444,.F.);
#478=EDGE_LOOP('',(#476,#477));
#479=FACE_OUTER_BOUND('',#478,.T.);
#480=ORIENTED_EDGE('',*,*,#389,.T.);
#481=ORIENTED_EDGE('',*,*,#428,.T.);
#482=EDGE_LOOP('',(#480,#481));
#483=FACE_BOUND('',#482,.T.);
#484=ADVANCED_FACE('',(#479,#483),#475,.F.);
#485=CLOSED_SHELL('',(#366,#408,#432,#456,#470,#484));
#486=MANIFOLD_SOLID_BREP('2573',#485);
#487=STYLED_ITEM('NONE',(#321),#486);
#488=CARTESIAN_POINT('',(-27.539999999975194,3.552714E-015,-1.585));
#489=DIRECTION('',(0.0,0.0,-1.0));
#490=DIRECTION('',(-0.877582561890372,0.479425538604203,0.0));
#491=AXIS2_PLACEMENT_3D('',#488,#489,#490);
#492=CYLINDRICAL_SURFACE('',#491,1.9);
#493=CARTESIAN_POINT('',(-29.207406867566903,0.91090852334799,-1.9));
#494=VERTEX_POINT('',#493);
#495=CARTESIAN_POINT('',(-29.207406867566903,0.91090852334799,-1.6));
#496=VERTEX_POINT('',#495);
#497=CARTESIAN_POINT('',(-29.207406867566903,0.91090852334799,-1.9));
#498=DIRECTION('',(0.0,0.0,1.0));
#499=VECTOR('',#498,0.3);
#500=LINE('',#497,#499);
#501=EDGE_CURVE('',#494,#496,#500,.T.);
#502=ORIENTED_EDGE('',*,*,#501,.F.);
#503=CARTESIAN_POINT('',(-25.872593132375194,-0.910908523347996,-1.9));
#504=VERTEX_POINT('',#503);
#505=CARTESIAN_POINT('',(-27.539999999975194,3.552714E-015,-1.9));
#506=DIRECTION('',(0.0,0.0,-1.0));
#507=DIRECTION('',(1.0,0.0,0.0));
#508=AXIS2_PLACEMENT_3D('',#505,#506,#507);
#509=CIRCLE('',#508,1.899999999999999);
#510=EDGE_CURVE('',#504,#494,#509,.T.);
#511=ORIENTED_EDGE('',*,*,#510,.F.);
#512=CARTESIAN_POINT('',(-25.872593132375194,-0.910908523347996,-1.6));
#513=VERTEX_POINT('',#512);
#514=CARTESIAN_POINT('',(-25.872593132383486,-0.910908523347983,-1.9));
#515=DIRECTION('',(0.0,0.0,1.0));
#516=VECTOR('',#515,0.3);
#517=LINE('',#514,#516);
#518=EDGE_CURVE('',#504,#513,#517,.T.);
#519=ORIENTED_EDGE('',*,*,#518,.T.);
#520=CARTESIAN_POINT('',(-27.539999999975194,3.552714E-015,-1.6));
#521=DIRECTION('',(0.0,0.0,-1.0));
#522=DIRECTION('',(1.0,0.0,0.0));
#523=AXIS2_PLACEMENT_3D('',#520,#521,#522);
#524=CIRCLE('',#523,1.899999999999999);
#525=EDGE_CURVE('',#513,#496,#524,.T.);
#526=ORIENTED_EDGE('',*,*,#525,.T.);
#527=EDGE_LOOP('',(#502,#511,#519,#526));
#528=FACE_OUTER_BOUND('',#527,.T.);
#529=ADVANCED_FACE('',(#528),#492,.T.);
#530=CARTESIAN_POINT('',(-27.539999999975194,3.552714E-015,-1.585));
#531=DIRECTION('',(0.0,0.0,-1.0));
#532=DIRECTION('',(-0.877582561890372,0.479425538604203,0.0));
#533=AXIS2_PLACEMENT_3D('',#530,#531,#532);
#534=CYLINDRICAL_SURFACE('',#533,0.75);
#535=CARTESIAN_POINT('',(-28.198186921392974,0.359569153953156,-1.6));
#536=VERTEX_POINT('',#535);
#537=CARTESIAN_POINT('',(-28.198186921392974,0.359569153953156,-1.9));
#538=VERTEX_POINT('',#537);
#539=CARTESIAN_POINT('',(-28.198186921392974,0.359569153953156,-1.6));
#540=DIRECTION('',(0.0,0.0,-1.0));
#541=VECTOR('',#540,0.3);
#542=LINE('',#539,#541);
#543=EDGE_CURVE('',#536,#538,#542,.T.);
#544=ORIENTED_EDGE('',*,*,#543,.F.);
#545=CARTESIAN_POINT('',(-26.881813078575195,-0.359569153952996,-1.6));
#546=VERTEX_POINT('',#545);
#547=CARTESIAN_POINT('',(-27.539999999975194,3.552714E-015,-1.6));
#548=DIRECTION('',(0.0,0.0,-1.0));
#549=DIRECTION('',(1.0,0.0,0.0));
#550=AXIS2_PLACEMENT_3D('',#547,#548,#549);
#551=CIRCLE('',#550,0.75);
#552=EDGE_CURVE('',#546,#536,#551,.T.);
#553=ORIENTED_EDGE('',*,*,#552,.F.);
#554=CARTESIAN_POINT('',(-26.881813078575195,-0.359569153952996,-1.9));
#555=VERTEX_POINT('',#554);
#556=CARTESIAN_POINT('',(-26.881813078557414,-0.359569153953149,-1.6));
#557=DIRECTION('',(0.0,0.0,-1.0));
#558=VECTOR('',#557,0.3);
#559=LINE('',#556,#558);
#560=EDGE_CURVE('',#546,#555,#559,.T.);
#561=ORIENTED_EDGE('',*,*,#560,.T.);
#562=CARTESIAN_POINT('',(-27.539999999975194,3.552714E-015,-1.9));
#563=DIRECTION('',(0.0,0.0,-1.0));
#564=DIRECTION('',(1.0,0.0,0.0));
#565=AXIS2_PLACEMENT_3D('',#562,#563,#564);
#566=CIRCLE('',#565,0.75);
#567=EDGE_CURVE('',#555,#538,#566,.T.);
#568=ORIENTED_EDGE('',*,*,#567,.T.);
#569=EDGE_LOOP('',(#544,#553,#561,#568));
#570=FACE_OUTER_BOUND('',#569,.T.);
#571=ADVANCED_FACE('',(#570),#534,.F.);
#572=CARTESIAN_POINT('',(-27.539999999975194,3.552714E-015,-1.585));
#573=DIRECTION('',(0.0,0.0,-1.0));
#574=DIRECTION('',(-0.877582561890372,0.479425538604203,0.0));
#575=AXIS2_PLACEMENT_3D('',#572,#573,#574);
#576=CYLINDRICAL_SURFACE('',#575,0.75);
#577=ORIENTED_EDGE('',*,*,#543,.T.);
#578=CARTESIAN_POINT('',(-27.539999999975194,3.552714E-015,-1.9));
#579=DIRECTION('',(0.0,0.0,-1.0));
#580=DIRECTION('',(1.0,0.0,0.0));
#581=AXIS2_PLACEMENT_3D('',#578,#579,#580);
#582=CIRCLE('',#581,0.75);
#583=EDGE_CURVE('',#538,#555,#582,.T.);
#584=ORIENTED_EDGE('',*,*,#583,.T.);
#585=ORIENTED_EDGE('',*,*,#560,.F.);
#586=CARTESIAN_POINT('',(-27.539999999975194,3.552714E-015,-1.6));
#587=DIRECTION('',(0.0,0.0,-1.0));
#588=DIRECTION('',(1.0,0.0,0.0));
#589=AXIS2_PLACEMENT_3D('',#586,#587,#588);
#590=CIRCLE('',#589,0.75);
#591=EDGE_CURVE('',#536,#546,#590,.T.);
#592=ORIENTED_EDGE('',*,*,#591,.F.);
#593=EDGE_LOOP('',(#577,#584,#585,#592));
#594=FACE_OUTER_BOUND('',#593,.T.);
#595=ADVANCED_FACE('',(#594),#576,.F.);
#596=CARTESIAN_POINT('',(-27.539999999975194,3.552714E-015,-1.585));
#597=DIRECTION('',(0.0,0.0,-1.0));
#598=DIRECTION('',(-0.877582561890372,0.479425538604203,0.0));
#599=AXIS2_PLACEMENT_3D('',#596,#597,#598);
#600=CYLINDRICAL_SURFACE('',#599,1.9);
#601=ORIENTED_EDGE('',*,*,#501,.T.);
#602=CARTESIAN_POINT('',(-27.539999999975194,3.552714E-015,-1.6));
#603=DIRECTION('',(0.0,0.0,-1.0));
#604=DIRECTION('',(1.0,0.0,0.0));
#605=AXIS2_PLACEMENT_3D('',#602,#603,#604);
#606=CIRCLE('',#605,1.899999999999999);
#607=EDGE_CURVE('',#496,#513,#606,.T.);
#608=ORIENTED_EDGE('',*,*,#607,.T.);
#609=ORIENTED_EDGE('',*,*,#518,.F.);
#610=CARTESIAN_POINT('',(-27.539999999975194,3.552714E-015,-1.9));
#611=DIRECTION('',(0.0,0.0,-1.0));
#612=DIRECTION('',(1.0,0.0,0.0));
#613=AXIS2_PLACEMENT_3D('',#610,#611,#612);
#614=CIRCLE('',#613,1.899999999999999);
#615=EDGE_CURVE('',#494,#504,#614,.T.);
#616=ORIENTED_EDGE('',*,*,#615,.F.);
#617=EDGE_LOOP('',(#601,#608,#609,#616));
#618=FACE_OUTER_BOUND('',#617,.T.);
#619=ADVANCED_FACE('',(#618),#600,.T.);
#620=CARTESIAN_POINT('',(-29.629418064173446,2.089418064198253,-1.9));
#621=DIRECTION('',(0.0,0.0,-1.0));
#622=DIRECTION('',(-1.0,0.0,0.0));
#623=AXIS2_PLACEMENT_3D('',#620,#621,#622);
#624=PLANE('',#623);
#625=ORIENTED_EDGE('',*,*,#510,.T.);
#626=ORIENTED_EDGE('',*,*,#615,.T.);
#627=EDGE_LOOP('',(#625,#626));
#628=FACE_OUTER_BOUND('',#627,.T.);
#629=ORIENTED_EDGE('',*,*,#567,.F.);
#630=ORIENTED_EDGE('',*,*,#583,.F.);
#631=EDGE_LOOP('',(#629,#630));
#632=FACE_BOUND('',#631,.T.);
#633=ADVANCED_FACE('',(#628,#632),#624,.T.);
#634=CARTESIAN_POINT('',(-29.629418064173446,2.089418064198253,-1.6));
#635=DIRECTION('',(0.0,0.0,-1.0));
#636=DIRECTION('',(-1.0,0.0,0.0));
#637=AXIS2_PLACEMENT_3D('',#634,#635,#636);
#638=PLANE('',#637);
#639=ORIENTED_EDGE('',*,*,#525,.F.);
#640=ORIENTED_EDGE('',*,*,#607,.F.);
#641=EDGE_LOOP('',(#639,#640));
#642=FACE_OUTER_BOUND('',#641,.T.);
#643=ORIENTED_EDGE('',*,*,#552,.T.);
#644=ORIENTED_EDGE('',*,*,#591,.T.);
#645=EDGE_LOOP('',(#643,#644));
#646=FACE_BOUND('',#645,.T.);
#647=ADVANCED_FACE('',(#642,#646),#638,.F.);
#648=CLOSED_SHELL('',(#529,#571,#595,#619,#633,#647));
#649=MANIFOLD_SOLID_BREP('2572',#648);
#650=STYLED_ITEM('NONE',(#321),#649);
#651=CARTESIAN_POINT('',(-27.540000000032595,3.552714E-015,1.25));
#652=DIRECTION('',(0.0,0.0,-1.0));
#653=DIRECTION('',(-0.877582561890372,0.479425538604204,0.0));
#654=AXIS2_PLACEMENT_3D('',#651,#652,#653);
#655=CYLINDRICAL_SURFACE('',#654,0.7);
#656=CARTESIAN_POINT('',(-28.154307793355855,0.335597877022946,-1.9));
#657=VERTEX_POINT('',#656);
#658=CARTESIAN_POINT('',(-28.154307793355855,0.335597877022946,1.1));
#659=VERTEX_POINT('',#658);
#660=CARTESIAN_POINT('',(-28.154307793355855,0.335597877022946,-1.9));
#661=DIRECTION('',(0.0,0.0,1.0));
#662=VECTOR('',#661,3.0);
#663=LINE('',#660,#662);
#664=EDGE_CURVE('',#657,#659,#663,.T.);
#665=ORIENTED_EDGE('',*,*,#664,.F.);
#666=CARTESIAN_POINT('',(-26.925692206632593,-0.335597877022996,-1.9));
#667=VERTEX_POINT('',#666);
#668=CARTESIAN_POINT('',(-27.540000000032595,3.552714E-015,-1.9));
#669=DIRECTION('',(0.0,0.0,-1.0));
#670=DIRECTION('',(1.0,0.0,0.0));
#671=AXIS2_PLACEMENT_3D('',#668,#669,#670);
#672=CIRCLE('',#671,0.699999999999999);
#673=EDGE_CURVE('',#667,#657,#672,.T.);
#674=ORIENTED_EDGE('',*,*,#673,.F.);
#675=CARTESIAN_POINT('',(-26.925692206632593,-0.335597877022996,1.1));
#676=VERTEX_POINT('',#675);
#677=CARTESIAN_POINT('',(-26.925692206709336,-0.335597877022939,-1.9));
#678=DIRECTION('',(0.0,0.0,1.0));
#679=VECTOR('',#678,3.0);
#680=LINE('',#677,#679);
#681=EDGE_CURVE('',#667,#676,#680,.T.);
#682=ORIENTED_EDGE('',*,*,#681,.T.);
#683=CARTESIAN_POINT('',(-27.540000000032595,3.552714E-015,1.1));
#684=DIRECTION('',(0.0,0.0,-1.0));
#685=DIRECTION('',(1.0,0.0,0.0));
#686=AXIS2_PLACEMENT_3D('',#683,#684,#685);
#687=CIRCLE('',#686,0.699999999999999);
#688=EDGE_CURVE('',#676,#659,#687,.T.);
#689=ORIENTED_EDGE('',*,*,#688,.T.);
#690=EDGE_LOOP('',(#665,#674,#682,#689));
#691=FACE_OUTER_BOUND('',#690,.T.);
#692=ADVANCED_FACE('',(#691),#655,.T.);
#693=CARTESIAN_POINT('',(-27.540000000032595,3.552714E-015,-0.8));
#694=DIRECTION('',(0.0,0.0,-1.0));
#695=DIRECTION('',(-0.877582561890372,0.479425538604203,0.0));
#696=AXIS2_PLACEMENT_3D('',#693,#694,#695);
#697=CYLINDRICAL_SURFACE('',#696,1.25);
#698=CARTESIAN_POINT('',(-28.636978202395561,0.599281923255258,-2.3));
#699=VERTEX_POINT('',#698);
#700=CARTESIAN_POINT('',(-28.636978202395561,0.599281923255258,-1.9));
#701=VERTEX_POINT('',#700);
#702=CARTESIAN_POINT('',(-28.636978202395561,0.599281923255258,-2.3));
#703=DIRECTION('',(0.0,0.0,1.0));
#704=VECTOR('',#703,0.4);
#705=LINE('',#702,#704);
#706=EDGE_CURVE('',#699,#701,#705,.T.);
#707=ORIENTED_EDGE('',*,*,#706,.F.);
#708=CARTESIAN_POINT('',(-28.790000000032595,3.552714E-015,-2.3));
#709=VERTEX_POINT('',#708);
#710=CARTESIAN_POINT('',(-27.540000000032595,3.552714E-015,-2.3));
#711=DIRECTION('',(0.0,0.0,-1.0));
#712=DIRECTION('',(1.0,0.0,0.0));
#713=AXIS2_PLACEMENT_3D('',#710,#711,#712);
#714=CIRCLE('',#713,1.25);
#715=EDGE_CURVE('',#709,#699,#714,.T.);
#716=ORIENTED_EDGE('',*,*,#715,.F.);
#717=CARTESIAN_POINT('',(-26.443021797632596,-0.599281923254996,-2.3));
#718=VERTEX_POINT('',#717);
#719=CARTESIAN_POINT('',(-27.540000000032595,3.552714E-015,-2.3));
#720=DIRECTION('',(0.0,0.0,-1.0));
#721=DIRECTION('',(1.0,0.0,0.0));
#722=AXIS2_PLACEMENT_3D('',#719,#720,#721);
#723=CIRCLE('',#722,1.25);
#724=EDGE_CURVE('',#718,#709,#723,.T.);
#725=ORIENTED_EDGE('',*,*,#724,.F.);
#726=CARTESIAN_POINT('',(-26.443021797632596,-0.599281923254996,-1.9));
#727=VERTEX_POINT('',#726);
#728=CARTESIAN_POINT('',(-26.44302179766963,-0.599281923255251,-2.3));
#729=DIRECTION('',(0.0,0.0,1.0));
#730=VECTOR('',#729,0.4);
#731=LINE('',#728,#730);
#732=EDGE_CURVE('',#718,#727,#731,.T.);
#733=ORIENTED_EDGE('',*,*,#732,.T.);
#734=CARTESIAN_POINT('',(-27.540000000032595,3.552714E-015,-1.9));
#735=DIRECTION('',(0.0,0.0,-1.0));
#736=DIRECTION('',(1.0,0.0,0.0));
#737=AXIS2_PLACEMENT_3D('',#734,#735,#736);
#738=CIRCLE('',#737,1.25);
#739=EDGE_CURVE('',#727,#701,#738,.T.);
#740=ORIENTED_EDGE('',*,*,#739,.T.);
#741=EDGE_LOOP('',(#707,#716,#725,#733,#740));
#742=FACE_OUTER_BOUND('',#741,.T.);
#743=ADVANCED_FACE('',(#742),#697,.T.);
#744=CARTESIAN_POINT('',(-27.540000000032595,3.552714E-015,-2.3));
#745=DIRECTION('',(0.0,0.0,-1.0));
#746=DIRECTION('',(-1.0,0.0,0.0));
#747=AXIS2_PLACEMENT_3D('',#744,#745,#746);
#748=TOROIDAL_SURFACE('',#747,0.85,0.4);
#749=CARTESIAN_POINT('',(-28.390000000032597,3.552714E-015,-2.7));
#750=VERTEX_POINT('',#749);
#751=CARTESIAN_POINT('',(-28.390000000032597,3.552714E-015,-2.3));
#752=DIRECTION('',(0.0,1.0,0.0));
#753=DIRECTION('',(-1.0,0.0,0.0));
#754=AXIS2_PLACEMENT_3D('',#751,#752,#753);
#755=CIRCLE('',#754,0.4);
#756=EDGE_CURVE('',#750,#709,#755,.T.);
#757=ORIENTED_EDGE('',*,*,#756,.F.);
#758=CARTESIAN_POINT('',(-26.794054822432596,-0.407511707813996,-2.7));
#759=VERTEX_POINT('',#758);
#760=CARTESIAN_POINT('',(-27.540000000032595,3.552714E-015,-2.7));
#761=DIRECTION('',(0.0,0.0,-1.0));
#762=DIRECTION('',(1.0,0.0,0.0));
#763=AXIS2_PLACEMENT_3D('',#760,#761,#762);
#764=CIRCLE('',#763,0.850000000000001);
#765=EDGE_CURVE('',#759,#750,#764,.T.);
#766=ORIENTED_EDGE('',*,*,#765,.F.);
#767=CARTESIAN_POINT('',(-26.690000000032594,3.448619E-015,-2.7));
#768=VERTEX_POINT('',#767);
#769=CARTESIAN_POINT('',(-27.540000000032595,3.552714E-015,-2.7));
#770=DIRECTION('',(0.0,0.0,-1.0));
#771=DIRECTION('',(1.0,0.0,0.0));
#772=AXIS2_PLACEMENT_3D('',#769,#770,#771);
#773=CIRCLE('',#772,0.850000000000001);
#774=EDGE_CURVE('',#768,#759,#773,.T.);
#775=ORIENTED_EDGE('',*,*,#774,.F.);
#776=CARTESIAN_POINT('',(-26.290000000032595,3.399633E-015,-2.3));
#777=VERTEX_POINT('',#776);
#778=CARTESIAN_POINT('',(-26.690000000032594,3.448619E-015,-2.3));
#779=DIRECTION('',(0.0,-1.0,0.0));
#780=DIRECTION('',(1.0,0.0,0.0));
#781=AXIS2_PLACEMENT_3D('',#778,#779,#780);
#782=CIRCLE('',#781,0.4);
#783=EDGE_CURVE('',#768,#777,#782,.T.);
#784=ORIENTED_EDGE('',*,*,#783,.T.);
#785=CARTESIAN_POINT('',(-27.540000000032595,3.552714E-015,-2.3));
#786=DIRECTION('',(0.0,0.0,-1.0));
#787=DIRECTION('',(1.0,0.0,0.0));
#788=AXIS2_PLACEMENT_3D('',#785,#786,#787);
#789=CIRCLE('',#788,1.25);
#790=EDGE_CURVE('',#777,#718,#789,.T.);
#791=ORIENTED_EDGE('',*,*,#790,.T.);
#792=ORIENTED_EDGE('',*,*,#724,.T.);
#793=EDGE_LOOP('',(#757,#766,#775,#784,#791,#792));
#794=FACE_OUTER_BOUND('',#793,.T.);
#795=ADVANCED_FACE('',(#794),#748,.T.);
#796=CARTESIAN_POINT('',(-27.540000000032595,3.552714E-015,-2.3));
#797=DIRECTION('',(0.0,0.0,-1.0));
#798=DIRECTION('',(-1.0,0.0,0.0));
#799=AXIS2_PLACEMENT_3D('',#796,#797,#798);
#800=TOROIDAL_SURFACE('',#799,0.85,0.4);
#801=ORIENTED_EDGE('',*,*,#756,.T.);
#802=ORIENTED_EDGE('',*,*,#715,.T.);
#803=CARTESIAN_POINT('',(-27.540000000032595,3.552714E-015,-2.3));
#804=DIRECTION('',(0.0,0.0,-1.0));
#805=DIRECTION('',(1.0,0.0,0.0));
#806=AXIS2_PLACEMENT_3D('',#803,#804,#805);
#807=CIRCLE('',#806,1.25);
#808=EDGE_CURVE('',#699,#777,#807,.T.);
#809=ORIENTED_EDGE('',*,*,#808,.T.);
#810=ORIENTED_EDGE('',*,*,#783,.F.);
#811=CARTESIAN_POINT('',(-27.540000000032595,3.552714E-015,-2.7));
#812=DIRECTION('',(0.0,0.0,-1.0));
#813=DIRECTION('',(1.0,0.0,0.0));
#814=AXIS2_PLACEMENT_3D('',#811,#812,#813);
#815=CIRCLE('',#814,0.850000000000001);
#816=EDGE_CURVE('',#750,#768,#815,.T.);
#817=ORIENTED_EDGE('',*,*,#816,.F.);
#818=EDGE_LOOP('',(#801,#802,#809,#810,#817));
#819=FACE_OUTER_BOUND('',#818,.T.);
#820=ADVANCED_FACE('',(#819),#800,.T.);
#821=CARTESIAN_POINT('',(-27.540000000032595,3.552714E-015,-0.8));
#822=DIRECTION('',(0.0,0.0,-1.0));
#823=DIRECTION('',(-0.877582561890372,0.479425538604203,0.0));
#824=AXIS2_PLACEMENT_3D('',#821,#822,#823);
#825=CYLINDRICAL_SURFACE('',#824,1.25);
#826=ORIENTED_EDGE('',*,*,#706,.T.);
#827=CARTESIAN_POINT('',(-27.540000000032595,3.552714E-015,-1.9));
#828=DIRECTION('',(0.0,0.0,-1.0));
#829=DIRECTION('',(1.0,0.0,0.0));
#830=AXIS2_PLACEMENT_3D('',#827,#828,#829);
#831=CIRCLE('',#830,1.25);
#832=EDGE_CURVE('',#701,#727,#831,.T.);
#833=ORIENTED_EDGE('',*,*,#832,.T.);
#834=ORIENTED_EDGE('',*,*,#732,.F.);
#835=ORIENTED_EDGE('',*,*,#790,.F.);
#836=ORIENTED_EDGE('',*,*,#808,.F.);
#837=EDGE_LOOP('',(#826,#833,#834,#835,#836));
#838=FACE_OUTER_BOUND('',#837,.T.);
#839=ADVANCED_FACE('',(#838),#825,.T.);
#840=CARTESIAN_POINT('',(-27.540000000032595,3.552714E-015,1.25));
#841=DIRECTION('',(0.0,0.0,-1.0));
#842=DIRECTION('',(-0.877582561890372,0.479425538604204,0.0));
#843=AXIS2_PLACEMENT_3D('',#840,#841,#842);
#844=CYLINDRICAL_SURFACE('',#843,0.7);
#845=ORIENTED_EDGE('',*,*,#664,.T.);
#846=CARTESIAN_POINT('',(-27.540000000032595,3.552714E-015,1.1));
#847=DIRECTION('',(0.0,0.0,-1.0));
#848=DIRECTION('',(1.0,0.0,0.0));
#849=AXIS2_PLACEMENT_3D('',#846,#847,#848);
#850=CIRCLE('',#849,0.699999999999999);
#851=EDGE_CURVE('',#659,#676,#850,.T.);
#852=ORIENTED_EDGE('',*,*,#851,.T.);
#853=ORIENTED_EDGE('',*,*,#681,.F.);
#854=CARTESIAN_POINT('',(-27.540000000032595,3.552714E-015,-1.9));
#855=DIRECTION('',(0.0,0.0,-1.0));
#856=DIRECTION('',(1.0,0.0,0.0));
#857=AXIS2_PLACEMENT_3D('',#854,#855,#856);
#858=CIRCLE('',#857,0.699999999999999);
#859=EDGE_CURVE('',#657,#667,#858,.T.);
#860=ORIENTED_EDGE('',*,*,#859,.F.);
#861=EDGE_LOOP('',(#845,#852,#853,#860));
#862=FACE_OUTER_BOUND('',#861,.T.);
#863=ADVANCED_FACE('',(#862),#844,.T.);
#864=CARTESIAN_POINT('',(-28.471925250005889,0.934739660299361,-2.7));
#865=DIRECTION('',(0.0,0.0,-1.0));
#866=DIRECTION('',(-1.0,0.0,0.0));
#867=AXIS2_PLACEMENT_3D('',#864,#865,#866);
#868=PLANE('',#867);
#869=ORIENTED_EDGE('',*,*,#765,.T.);
#870=ORIENTED_EDGE('',*,*,#816,.T.);
#871=ORIENTED_EDGE('',*,*,#774,.T.);
#872=EDGE_LOOP('',(#869,#870,#871));
#873=FACE_OUTER_BOUND('',#872,.T.);
#874=ADVANCED_FACE('',(#873),#868,.T.);
#875=CARTESIAN_POINT('',(-28.914617147532041,1.374617147499264,-1.9));
#876=DIRECTION('',(0.0,0.0,-1.0));
#877=DIRECTION('',(-1.0,0.0,0.0));
#878=AXIS2_PLACEMENT_3D('',#875,#876,#877);
#879=PLANE('',#878);
#880=ORIENTED_EDGE('',*,*,#739,.F.);
#881=ORIENTED_EDGE('',*,*,#832,.F.);
#882=EDGE_LOOP('',(#880,#881));
#883=FACE_OUTER_BOUND('',#882,.T.);
#884=ORIENTED_EDGE('',*,*,#673,.T.);
#885=ORIENTED_EDGE('',*,*,#859,.T.);
#886=EDGE_LOOP('',(#884,#885));
#887=FACE_BOUND('',#886,.T.);
#888=ADVANCED_FACE('',(#883,#887),#879,.F.);
#889=CARTESIAN_POINT('',(-28.308990924730828,0.768990924698764,1.1));
#890=DIRECTION('',(0.0,0.0,-1.0));
#891=DIRECTION('',(-1.0,0.0,0.0));
#892=AXIS2_PLACEMENT_3D('',#889,#890,#891);
#893=PLANE('',#892);
#894=ORIENTED_EDGE('',*,*,#688,.F.);
#895=ORIENTED_EDGE('',*,*,#851,.F.);
#896=EDGE_LOOP('',(#894,#895));
#897=FACE_OUTER_BOUND('',#896,.T.);
#898=ADVANCED_FACE('',(#897),#893,.F.);
#899=CLOSED_SHELL('',(#692,#743,#795,#820,#839,#863,#874,#888,#898));
#900=MANIFOLD_SOLID_BREP('2571',#899);
#901=STYLED_ITEM('NONE',(#321),#900);
#902=ADVANCED_BREP_SHAPE_REPRESENTATION('ABSR1',(#314,#486,#649,#900),#28);
#903=SHAPE_REPRESENTATION_RELATIONSHIP('SRRPL1','',#902,#62);
ENDSEC;
END-ISO-10303-21;
