ISO-10303-21;
HEADER;
/* Generated by software containing ST-Developer
 * from STEP Tools, Inc. (www.steptools.com) 
 */

FILE_DESCRIPTION(
/* description */ (''),
/* implementation_level */ '2;1');

FILE_NAME(
/* name */ 'G:\\Applications\\Altium\\CernLib\\StepLib\\MYRRA_4720x.st
p',
/* time_stamp */ '2016-01-29T14:34:42+01:00',
/* author */ ('riccim'),
/* organization */ (''),
/* preprocessor_version */ 'ST-DEVELOPER v15.5',
/* originating_system */ 'AutoCAD Mechanical',
/* authorisation */ '');

FILE_SCHEMA (('AUTOMOTIVE_DESIGN { 1 0 10303 214 3 1 1 }'));
ENDSEC;

DATA;
#10=MECHANICAL_DESIGN_GEOMETRIC_PRESENTATION_REPRESENTATION('',(#37,#36,
#35,#34,#33),#371);
#11=DIMENSIONAL_EXPONENTS(0.,0.,0.,0.,0.,0.,0.);
#12=(
CONVERSION_BASED_UNIT('degree',#13)
NAMED_UNIT(#11)
PLANE_ANGLE_UNIT()
);
#13=PLANE_ANGLE_MEASURE_WITH_UNIT(PLANE_ANGLE_MEASURE(0.01745329252),#374);
#14=PRESENTATION_LAYER_ASSIGNMENT('3D','',(#215,#216,#217,#218,#219));
#15=FACE_BOUND($,#63,.T.);
#16=FACE_BOUND($,#67,.T.);
#17=FACE_BOUND($,#71,.T.);
#18=FACE_BOUND($,#75,.T.);
#19=CIRCLE($,#228,0.4);
#20=CIRCLE($,#229,0.4);
#21=CIRCLE($,#233,0.4);
#22=CIRCLE($,#234,0.4);
#23=CIRCLE($,#238,0.4);
#24=CIRCLE($,#239,0.4);
#25=CIRCLE($,#243,0.4);
#26=CIRCLE($,#244,0.4);
#27=CYLINDRICAL_SURFACE($,#227,0.4);
#28=CYLINDRICAL_SURFACE($,#232,0.4);
#29=CYLINDRICAL_SURFACE($,#237,0.4);
#30=CYLINDRICAL_SURFACE($,#242,0.4);
#31=SHAPE_REPRESENTATION_RELATIONSHIP('SRR','None',#377,#32);
#32=ADVANCED_BREP_SHAPE_REPRESENTATION($,(#215,#216,#217,#218,#219),#370);
#33=STYLED_ITEM($,(#387),#215);
#34=STYLED_ITEM($,(#388),#216);
#35=STYLED_ITEM($,(#388),#217);
#36=STYLED_ITEM($,(#388),#218);
#37=STYLED_ITEM($,(#388),#219);
#38=FACE_OUTER_BOUND($,#56,.T.);
#39=FACE_OUTER_BOUND($,#57,.T.);
#40=FACE_OUTER_BOUND($,#58,.T.);
#41=FACE_OUTER_BOUND($,#59,.T.);
#42=FACE_OUTER_BOUND($,#60,.T.);
#43=FACE_OUTER_BOUND($,#61,.T.);
#44=FACE_OUTER_BOUND($,#62,.T.);
#45=FACE_OUTER_BOUND($,#64,.T.);
#46=FACE_OUTER_BOUND($,#65,.T.);
#47=FACE_OUTER_BOUND($,#66,.T.);
#48=FACE_OUTER_BOUND($,#68,.T.);
#49=FACE_OUTER_BOUND($,#69,.T.);
#50=FACE_OUTER_BOUND($,#70,.T.);
#51=FACE_OUTER_BOUND($,#72,.T.);
#52=FACE_OUTER_BOUND($,#73,.T.);
#53=FACE_OUTER_BOUND($,#74,.T.);
#54=FACE_OUTER_BOUND($,#76,.T.);
#55=FACE_OUTER_BOUND($,#77,.T.);
#56=EDGE_LOOP($,(#138,#139,#140,#141));
#57=EDGE_LOOP($,(#142,#143,#144,#145));
#58=EDGE_LOOP($,(#146,#147,#148,#149));
#59=EDGE_LOOP($,(#150,#151,#152,#153));
#60=EDGE_LOOP($,(#154,#155,#156,#157));
#61=EDGE_LOOP($,(#158,#159,#160,#161));
#62=EDGE_LOOP($,(#162));
#63=EDGE_LOOP($,(#163));
#64=EDGE_LOOP($,(#164));
#65=EDGE_LOOP($,(#165));
#66=EDGE_LOOP($,(#166));
#67=EDGE_LOOP($,(#167));
#68=EDGE_LOOP($,(#168));
#69=EDGE_LOOP($,(#169));
#70=EDGE_LOOP($,(#170));
#71=EDGE_LOOP($,(#171));
#72=EDGE_LOOP($,(#172));
#73=EDGE_LOOP($,(#173));
#74=EDGE_LOOP($,(#174));
#75=EDGE_LOOP($,(#175));
#76=EDGE_LOOP($,(#176));
#77=EDGE_LOOP($,(#177));
#78=LINE($,#317,#90);
#79=LINE($,#319,#91);
#80=LINE($,#321,#92);
#81=LINE($,#322,#93);
#82=LINE($,#325,#94);
#83=LINE($,#327,#95);
#84=LINE($,#328,#96);
#85=LINE($,#331,#97);
#86=LINE($,#333,#98);
#87=LINE($,#334,#99);
#88=LINE($,#336,#100);
#89=LINE($,#337,#101);
#90=VECTOR($,#251,41.5);
#91=VECTOR($,#252,25.);
#92=VECTOR($,#253,41.5);
#93=VECTOR($,#254,25.);
#94=VECTOR($,#257,35.5);
#95=VECTOR($,#258,35.5);
#96=VECTOR($,#259,25.);
#97=VECTOR($,#262,41.5);
#98=VECTOR($,#263,41.5);
#99=VECTOR($,#264,25.);
#100=VECTOR($,#267,35.5);
#101=VECTOR($,#268,35.5);
#102=VERTEX_POINT($,#315);
#103=VERTEX_POINT($,#316);
#104=VERTEX_POINT($,#318);
#105=VERTEX_POINT($,#320);
#106=VERTEX_POINT($,#324);
#107=VERTEX_POINT($,#326);
#108=VERTEX_POINT($,#330);
#109=VERTEX_POINT($,#332);
#110=VERTEX_POINT($,#341);
#111=VERTEX_POINT($,#343);
#112=VERTEX_POINT($,#348);
#113=VERTEX_POINT($,#350);
#114=VERTEX_POINT($,#355);
#115=VERTEX_POINT($,#357);
#116=VERTEX_POINT($,#362);
#117=VERTEX_POINT($,#364);
#118=EDGE_CURVE($,#102,#103,#78,.T.);
#119=EDGE_CURVE($,#103,#104,#79,.T.);
#120=EDGE_CURVE($,#105,#104,#80,.T.);
#121=EDGE_CURVE($,#102,#105,#81,.T.);
#122=EDGE_CURVE($,#106,#102,#82,.T.);
#123=EDGE_CURVE($,#107,#105,#83,.T.);
#124=EDGE_CURVE($,#106,#107,#84,.T.);
#125=EDGE_CURVE($,#108,#106,#85,.T.);
#126=EDGE_CURVE($,#109,#107,#86,.T.);
#127=EDGE_CURVE($,#108,#109,#87,.T.);
#128=EDGE_CURVE($,#103,#108,#88,.T.);
#129=EDGE_CURVE($,#104,#109,#89,.T.);
#130=EDGE_CURVE($,#110,#110,#19,.T.);
#131=EDGE_CURVE($,#111,#111,#20,.T.);
#132=EDGE_CURVE($,#112,#112,#21,.T.);
#133=EDGE_CURVE($,#113,#113,#22,.T.);
#134=EDGE_CURVE($,#114,#114,#23,.T.);
#135=EDGE_CURVE($,#115,#115,#24,.T.);
#136=EDGE_CURVE($,#116,#116,#25,.T.);
#137=EDGE_CURVE($,#117,#117,#26,.T.);
#138=ORIENTED_EDGE($,*,*,#118,.T.);
#139=ORIENTED_EDGE($,*,*,#119,.T.);
#140=ORIENTED_EDGE($,*,*,#120,.F.);
#141=ORIENTED_EDGE($,*,*,#121,.F.);
#142=ORIENTED_EDGE($,*,*,#122,.T.);
#143=ORIENTED_EDGE($,*,*,#121,.T.);
#144=ORIENTED_EDGE($,*,*,#123,.F.);
#145=ORIENTED_EDGE($,*,*,#124,.F.);
#146=ORIENTED_EDGE($,*,*,#125,.T.);
#147=ORIENTED_EDGE($,*,*,#124,.T.);
#148=ORIENTED_EDGE($,*,*,#126,.F.);
#149=ORIENTED_EDGE($,*,*,#127,.F.);
#150=ORIENTED_EDGE($,*,*,#128,.T.);
#151=ORIENTED_EDGE($,*,*,#127,.T.);
#152=ORIENTED_EDGE($,*,*,#129,.F.);
#153=ORIENTED_EDGE($,*,*,#119,.F.);
#154=ORIENTED_EDGE($,*,*,#129,.T.);
#155=ORIENTED_EDGE($,*,*,#126,.T.);
#156=ORIENTED_EDGE($,*,*,#123,.T.);
#157=ORIENTED_EDGE($,*,*,#120,.T.);
#158=ORIENTED_EDGE($,*,*,#128,.F.);
#159=ORIENTED_EDGE($,*,*,#118,.F.);
#160=ORIENTED_EDGE($,*,*,#122,.F.);
#161=ORIENTED_EDGE($,*,*,#125,.F.);
#162=ORIENTED_EDGE($,*,*,#130,.F.);
#163=ORIENTED_EDGE($,*,*,#131,.T.);
#164=ORIENTED_EDGE($,*,*,#130,.T.);
#165=ORIENTED_EDGE($,*,*,#131,.F.);
#166=ORIENTED_EDGE($,*,*,#132,.F.);
#167=ORIENTED_EDGE($,*,*,#133,.T.);
#168=ORIENTED_EDGE($,*,*,#132,.T.);
#169=ORIENTED_EDGE($,*,*,#133,.F.);
#170=ORIENTED_EDGE($,*,*,#134,.F.);
#171=ORIENTED_EDGE($,*,*,#135,.T.);
#172=ORIENTED_EDGE($,*,*,#134,.T.);
#173=ORIENTED_EDGE($,*,*,#135,.F.);
#174=ORIENTED_EDGE($,*,*,#136,.F.);
#175=ORIENTED_EDGE($,*,*,#137,.T.);
#176=ORIENTED_EDGE($,*,*,#136,.T.);
#177=ORIENTED_EDGE($,*,*,#137,.F.);
#178=PLANE($,#221);
#179=PLANE($,#222);
#180=PLANE($,#223);
#181=PLANE($,#224);
#182=PLANE($,#225);
#183=PLANE($,#226);
#184=PLANE($,#230);
#185=PLANE($,#231);
#186=PLANE($,#235);
#187=PLANE($,#236);
#188=PLANE($,#240);
#189=PLANE($,#241);
#190=PLANE($,#245);
#191=PLANE($,#246);
#192=ADVANCED_FACE($,(#38),#178,.T.);
#193=ADVANCED_FACE($,(#39),#179,.T.);
#194=ADVANCED_FACE($,(#40),#180,.T.);
#195=ADVANCED_FACE($,(#41),#181,.T.);
#196=ADVANCED_FACE($,(#42),#182,.T.);
#197=ADVANCED_FACE($,(#43),#183,.F.);
#198=ADVANCED_FACE($,(#44,#15),#27,.T.);
#199=ADVANCED_FACE($,(#45),#184,.F.);
#200=ADVANCED_FACE($,(#46),#185,.T.);
#201=ADVANCED_FACE($,(#47,#16),#28,.T.);
#202=ADVANCED_FACE($,(#48),#186,.F.);
#203=ADVANCED_FACE($,(#49),#187,.T.);
#204=ADVANCED_FACE($,(#50,#17),#29,.T.);
#205=ADVANCED_FACE($,(#51),#188,.F.);
#206=ADVANCED_FACE($,(#52),#189,.T.);
#207=ADVANCED_FACE($,(#53,#18),#30,.T.);
#208=ADVANCED_FACE($,(#54),#190,.F.);
#209=ADVANCED_FACE($,(#55),#191,.T.);
#210=CLOSED_SHELL($,(#192,#193,#194,#195,#196,#197));
#211=CLOSED_SHELL($,(#198,#199,#200));
#212=CLOSED_SHELL($,(#201,#202,#203));
#213=CLOSED_SHELL($,(#204,#205,#206));
#214=CLOSED_SHELL($,(#207,#208,#209));
#215=MANIFOLD_SOLID_BREP('34A',#210);
#216=MANIFOLD_SOLID_BREP('352',#211);
#217=MANIFOLD_SOLID_BREP('356',#212);
#218=MANIFOLD_SOLID_BREP('35A',#213);
#219=MANIFOLD_SOLID_BREP('35E',#214);
#220=AXIS2_PLACEMENT_3D('placement',#313,#247,#248);
#221=AXIS2_PLACEMENT_3D($,#314,#249,#250);
#222=AXIS2_PLACEMENT_3D($,#323,#255,#256);
#223=AXIS2_PLACEMENT_3D($,#329,#260,#261);
#224=AXIS2_PLACEMENT_3D($,#335,#265,#266);
#225=AXIS2_PLACEMENT_3D($,#338,#269,#270);
#226=AXIS2_PLACEMENT_3D($,#339,#271,#272);
#227=AXIS2_PLACEMENT_3D($,#340,#273,#274);
#228=AXIS2_PLACEMENT_3D($,#342,#275,#276);
#229=AXIS2_PLACEMENT_3D($,#344,#277,#278);
#230=AXIS2_PLACEMENT_3D($,#345,#279,#280);
#231=AXIS2_PLACEMENT_3D($,#346,#281,#282);
#232=AXIS2_PLACEMENT_3D($,#347,#283,#284);
#233=AXIS2_PLACEMENT_3D($,#349,#285,#286);
#234=AXIS2_PLACEMENT_3D($,#351,#287,#288);
#235=AXIS2_PLACEMENT_3D($,#352,#289,#290);
#236=AXIS2_PLACEMENT_3D($,#353,#291,#292);
#237=AXIS2_PLACEMENT_3D($,#354,#293,#294);
#238=AXIS2_PLACEMENT_3D($,#356,#295,#296);
#239=AXIS2_PLACEMENT_3D($,#358,#297,#298);
#240=AXIS2_PLACEMENT_3D($,#359,#299,#300);
#241=AXIS2_PLACEMENT_3D($,#360,#301,#302);
#242=AXIS2_PLACEMENT_3D($,#361,#303,#304);
#243=AXIS2_PLACEMENT_3D($,#363,#305,#306);
#244=AXIS2_PLACEMENT_3D($,#365,#307,#308);
#245=AXIS2_PLACEMENT_3D($,#366,#309,#310);
#246=AXIS2_PLACEMENT_3D($,#367,#311,#312);
#247=DIRECTION('axis',(0.,0.,1.));
#248=DIRECTION('refdir',(1.,0.,0.));
#249=DIRECTION('center_axis',(0.,1.,0.));
#250=DIRECTION('ref_axis',(-1.,0.,0.));
#251=DIRECTION($,(-1.,0.,0.));
#252=DIRECTION($,(0.,0.,1.));
#253=DIRECTION($,(-1.,0.,0.));
#254=DIRECTION($,(0.,0.,1.));
#255=DIRECTION('center_axis',(1.,-2.00152883312704E-16,0.));
#256=DIRECTION('ref_axis',(0.,1.,0.));
#257=DIRECTION($,(2.00152883312704E-16,1.,0.));
#258=DIRECTION($,(2.00152883312704E-16,1.,0.));
#259=DIRECTION($,(0.,0.,1.));
#260=DIRECTION('center_axis',(0.,-1.,0.));
#261=DIRECTION('ref_axis',(1.,0.,0.));
#262=DIRECTION($,(1.,0.,0.));
#263=DIRECTION($,(1.,0.,0.));
#264=DIRECTION($,(0.,0.,1.));
#265=DIRECTION('center_axis',(-1.,0.,0.));
#266=DIRECTION('ref_axis',(0.,-1.,0.));
#267=DIRECTION($,(0.,-1.,0.));
#268=DIRECTION($,(0.,-1.,0.));
#269=DIRECTION('center_axis',(0.,0.,1.));
#270=DIRECTION('ref_axis',(1.,0.,0.));
#271=DIRECTION('center_axis',(0.,0.,1.));
#272=DIRECTION('ref_axis',(1.,0.,0.));
#273=DIRECTION('center_axis',(0.,0.,-1.));
#274=DIRECTION('ref_axis',(1.,0.,0.));
#275=DIRECTION('center_axis',(0.,0.,-1.));
#276=DIRECTION('ref_axis',(1.,0.,0.));
#277=DIRECTION('center_axis',(0.,0.,-1.));
#278=DIRECTION('ref_axis',(1.,0.,0.));
#279=DIRECTION('center_axis',(0.,0.,1.));
#280=DIRECTION('ref_axis',(1.,0.,0.));
#281=DIRECTION('center_axis',(0.,0.,1.));
#282=DIRECTION('ref_axis',(1.,0.,0.));
#283=DIRECTION('center_axis',(0.,0.,-1.));
#284=DIRECTION('ref_axis',(1.,0.,0.));
#285=DIRECTION('center_axis',(0.,0.,-1.));
#286=DIRECTION('ref_axis',(1.,0.,0.));
#287=DIRECTION('center_axis',(0.,0.,-1.));
#288=DIRECTION('ref_axis',(1.,0.,0.));
#289=DIRECTION('center_axis',(0.,0.,1.));
#290=DIRECTION('ref_axis',(1.,0.,0.));
#291=DIRECTION('center_axis',(0.,0.,1.));
#292=DIRECTION('ref_axis',(1.,0.,0.));
#293=DIRECTION('center_axis',(0.,0.,-1.));
#294=DIRECTION('ref_axis',(1.,0.,0.));
#295=DIRECTION('center_axis',(0.,0.,-1.));
#296=DIRECTION('ref_axis',(1.,0.,0.));
#297=DIRECTION('center_axis',(0.,0.,-1.));
#298=DIRECTION('ref_axis',(1.,0.,0.));
#299=DIRECTION('center_axis',(0.,0.,1.));
#300=DIRECTION('ref_axis',(1.,0.,0.));
#301=DIRECTION('center_axis',(0.,0.,1.));
#302=DIRECTION('ref_axis',(1.,0.,0.));
#303=DIRECTION('center_axis',(0.,0.,-1.));
#304=DIRECTION('ref_axis',(1.,0.,0.));
#305=DIRECTION('center_axis',(0.,0.,-1.));
#306=DIRECTION('ref_axis',(1.,0.,0.));
#307=DIRECTION('center_axis',(0.,0.,-1.));
#308=DIRECTION('ref_axis',(1.,0.,0.));
#309=DIRECTION('center_axis',(0.,0.,1.));
#310=DIRECTION('ref_axis',(1.,0.,0.));
#311=DIRECTION('center_axis',(0.,0.,1.));
#312=DIRECTION('ref_axis',(1.,0.,0.));
#313=CARTESIAN_POINT('',(0.,0.,0.));
#314=CARTESIAN_POINT('Origin',(20.75,17.75,0.));
#315=CARTESIAN_POINT('',(20.75,17.75,0.));
#316=CARTESIAN_POINT('',(-20.75,17.75,0.));
#317=CARTESIAN_POINT($,(20.75,17.75,0.));
#318=CARTESIAN_POINT('',(-20.75,17.75,25.));
#319=CARTESIAN_POINT($,(-20.75,17.75,0.));
#320=CARTESIAN_POINT('',(20.75,17.75,25.));
#321=CARTESIAN_POINT($,(20.75,17.75,25.));
#322=CARTESIAN_POINT($,(20.75,17.75,0.));
#323=CARTESIAN_POINT('Origin',(20.75,-17.75,0.));
#324=CARTESIAN_POINT('',(20.75,-17.75,0.));
#325=CARTESIAN_POINT($,(20.75,-17.75,0.));
#326=CARTESIAN_POINT('',(20.75,-17.75,25.));
#327=CARTESIAN_POINT($,(20.75,-17.75,25.));
#328=CARTESIAN_POINT($,(20.75,-17.75,0.));
#329=CARTESIAN_POINT('Origin',(-20.75,-17.75,0.));
#330=CARTESIAN_POINT('',(-20.75,-17.75,0.));
#331=CARTESIAN_POINT($,(-20.75,-17.75,0.));
#332=CARTESIAN_POINT('',(-20.75,-17.75,25.));
#333=CARTESIAN_POINT($,(-20.75,-17.75,25.));
#334=CARTESIAN_POINT($,(-20.75,-17.75,0.));
#335=CARTESIAN_POINT('Origin',(-20.75,17.75,0.));
#336=CARTESIAN_POINT($,(-20.75,17.75,0.));
#337=CARTESIAN_POINT($,(-20.75,17.75,25.));
#338=CARTESIAN_POINT('Origin',(-7.105427357601E-15,0.,25.));
#339=CARTESIAN_POINT('Origin',(-8.76643635028695E-15,5.53669664228649E-16,
0.));
#340=CARTESIAN_POINT('Origin',(-10.,-12.5,0.));
#341=CARTESIAN_POINT('',(-10.4,-12.5,-3.6));
#342=CARTESIAN_POINT('Origin',(-10.,-12.5,-3.6));
#343=CARTESIAN_POINT('',(-10.4,-12.5,0.));
#344=CARTESIAN_POINT('Origin',(-10.,-12.5,0.));
#345=CARTESIAN_POINT('Origin',(-10.,-12.5,-3.6));
#346=CARTESIAN_POINT('Origin',(-10.,-12.5,0.));
#347=CARTESIAN_POINT('Origin',(10.,-12.5,0.));
#348=CARTESIAN_POINT('',(9.6,-12.5,-3.6));
#349=CARTESIAN_POINT('Origin',(10.,-12.5,-3.6));
#350=CARTESIAN_POINT('',(9.6,-12.5,0.));
#351=CARTESIAN_POINT('Origin',(10.,-12.5,0.));
#352=CARTESIAN_POINT('Origin',(10.,-12.5,-3.6));
#353=CARTESIAN_POINT('Origin',(10.,-12.5,0.));
#354=CARTESIAN_POINT('Origin',(5.,12.5,0.));
#355=CARTESIAN_POINT('',(4.6,12.5,-3.6));
#356=CARTESIAN_POINT('Origin',(5.,12.5,-3.6));
#357=CARTESIAN_POINT('',(4.6,12.5,0.));
#358=CARTESIAN_POINT('Origin',(5.,12.5,0.));
#359=CARTESIAN_POINT('Origin',(5.,12.5,-3.6));
#360=CARTESIAN_POINT('Origin',(5.,12.5,0.));
#361=CARTESIAN_POINT('Origin',(-5.,12.5,0.));
#362=CARTESIAN_POINT('',(-5.4,12.5,-3.6));
#363=CARTESIAN_POINT('Origin',(-5.,12.5,-3.6));
#364=CARTESIAN_POINT('',(-5.4,12.5,0.));
#365=CARTESIAN_POINT('Origin',(-5.,12.5,0.));
#366=CARTESIAN_POINT('Origin',(-5.,12.5,-3.6));
#367=CARTESIAN_POINT('Origin',(-5.,12.5,0.));
#368=UNCERTAINTY_MEASURE_WITH_UNIT(LENGTH_MEASURE(0.01),#372,
'DISTANCE_ACCURACY_VALUE',
'Maximum model space distance between geometric entities at asserted c
onnectivities');
#369=UNCERTAINTY_MEASURE_WITH_UNIT(LENGTH_MEASURE(1.E-6),#372,
'DISTANCE_ACCURACY_VALUE',
'Maximum model space distance between geometric entities at asserted c
onnectivities');
#370=(
GEOMETRIC_REPRESENTATION_CONTEXT(3)
GLOBAL_UNCERTAINTY_ASSIGNED_CONTEXT((#368))
GLOBAL_UNIT_ASSIGNED_CONTEXT((#372,#374,#373))
REPRESENTATION_CONTEXT('','3D')
);
#371=(
GEOMETRIC_REPRESENTATION_CONTEXT(3)
GLOBAL_UNCERTAINTY_ASSIGNED_CONTEXT((#369))
GLOBAL_UNIT_ASSIGNED_CONTEXT((#372,#12,#373))
REPRESENTATION_CONTEXT('','3D')
);
#372=(
LENGTH_UNIT()
NAMED_UNIT(*)
SI_UNIT(.MILLI.,.METRE.)
);
#373=(
NAMED_UNIT(*)
SI_UNIT($,.STERADIAN.)
SOLID_ANGLE_UNIT()
);
#374=(
NAMED_UNIT(*)
PLANE_ANGLE_UNIT()
SI_UNIT($,.RADIAN.)
);
#375=SHAPE_DEFINITION_REPRESENTATION(#376,#377);
#376=PRODUCT_DEFINITION_SHAPE('',$,#379);
#377=SHAPE_REPRESENTATION('',(#220),#370);
#378=PRODUCT_DEFINITION_CONTEXT('part definition',#383,'design');
#379=PRODUCT_DEFINITION('Product','Product',#380,#378);
#380=PRODUCT_DEFINITION_FORMATION('',$,#385);
#381=PRODUCT_RELATED_PRODUCT_CATEGORY('Product','Product',(#385));
#382=APPLICATION_PROTOCOL_DEFINITION('international standard',
'automotive_design',2009,#383);
#383=APPLICATION_CONTEXT(
'Core Data for Automotive Mechanical Design Process');
#384=PRODUCT_CONTEXT('part definition',#383,'mechanical');
#385=PRODUCT('Product','Product',$,(#384));
#386=PRESENTATION_STYLE_ASSIGNMENT((#389));
#387=PRESENTATION_STYLE_ASSIGNMENT((#390));
#388=PRESENTATION_STYLE_ASSIGNMENT((#391));
#389=SURFACE_STYLE_USAGE(.BOTH.,#392);
#390=SURFACE_STYLE_USAGE(.BOTH.,#393);
#391=SURFACE_STYLE_USAGE(.BOTH.,#394);
#392=SURFACE_SIDE_STYLE($,(#395));
#393=SURFACE_SIDE_STYLE($,(#396));
#394=SURFACE_SIDE_STYLE($,(#397));
#395=SURFACE_STYLE_FILL_AREA(#398);
#396=SURFACE_STYLE_FILL_AREA(#399);
#397=SURFACE_STYLE_FILL_AREA(#400);
#398=FILL_AREA_STYLE($,(#401));
#399=FILL_AREA_STYLE($,(#402));
#400=FILL_AREA_STYLE($,(#403));
#401=FILL_AREA_STYLE_COLOUR($,#404);
#402=FILL_AREA_STYLE_COLOUR($,#405);
#403=FILL_AREA_STYLE_COLOUR($,#406);
#404=COLOUR_RGB('',1.,1.,1.);
#405=COLOUR_RGB('',1.,0.,0.);
#406=COLOUR_RGB('',0.866666666666667,0.866666666666667,0.866666666666667);
ENDSEC;
END-ISO-10303-21;
