ISO-10303-21;
HEADER;
/* Generated by software containing ST-Developer
 * from STEP Tools, Inc. (www.steptools.com) 
 */

FILE_DESCRIPTION(
/* description */ (''),
/* implementation_level */ '2;1');

FILE_NAME(
/* name */ 
'G:\\Applications\\Altium\\CernLib\\StepLib\\PWS_TRACO_TMLM 04.stp',
/* time_stamp */ '2016-01-29T14:02:15+01:00',
/* author */ ('riccim'),
/* organization */ (''),
/* preprocessor_version */ 'ST-DEVELOPER v15.5',
/* originating_system */ 'AutoCAD Mechanical',
/* authorisation */ '');

FILE_SCHEMA (('AUTOMOTIVE_DESIGN { 1 0 10303 214 3 1 1 }'));
ENDSEC;

DATA;
#10=MECHANICAL_DESIGN_GEOMETRIC_PRESENTATION_REPRESENTATION('',(#25,#26,
#24,#27,#28,#29,#30,#31,#32),#949);
#11=DIMENSIONAL_EXPONENTS(0.,0.,0.,0.,0.,0.,0.);
#12=(
CONVERSION_BASED_UNIT('degree',#13)
NAMED_UNIT(#11)
PLANE_ANGLE_UNIT()
);
#13=PLANE_ANGLE_MEASURE_WITH_UNIT(PLANE_ANGLE_MEASURE(0.01745329252),#952);
#14=PRESENTATION_LAYER_ASSIGNMENT('3D','',(#539,#540,#541,#542,#543,#544,
#545,#546,#547));
#15=FACE_BOUND($,#121,.T.);
#16=FACE_BOUND($,#125,.T.);
#17=FACE_BOUND($,#129,.T.);
#18=FACE_BOUND($,#133,.T.);
#19=FACE_BOUND($,#137,.T.);
#20=FACE_BOUND($,#141,.T.);
#21=FACE_BOUND($,#145,.T.);
#22=SHAPE_REPRESENTATION_RELATIONSHIP('SRR','None',#955,#23);
#23=ADVANCED_BREP_SHAPE_REPRESENTATION($,(#539,#540,#541,#542,#543,#544,
#545,#546,#547),#948);
#24=STYLED_ITEM($,(#965),#539);
#25=STYLED_ITEM($,(#966),#540);
#26=STYLED_ITEM($,(#967),#541);
#27=STYLED_ITEM($,(#967),#542);
#28=STYLED_ITEM($,(#967),#543);
#29=STYLED_ITEM($,(#967),#544);
#30=STYLED_ITEM($,(#967),#545);
#31=STYLED_ITEM($,(#967),#546);
#32=STYLED_ITEM($,(#964),#547);
#33=PLANE($,#552);
#34=PLANE($,#556);
#35=PLANE($,#560);
#36=PLANE($,#564);
#37=PLANE($,#565);
#38=PLANE($,#566);
#39=PLANE($,#567);
#40=PLANE($,#571);
#41=PLANE($,#575);
#42=PLANE($,#579);
#43=PLANE($,#583);
#44=PLANE($,#584);
#45=PLANE($,#588);
#46=PLANE($,#589);
#47=PLANE($,#593);
#48=PLANE($,#594);
#49=PLANE($,#598);
#50=PLANE($,#599);
#51=PLANE($,#603);
#52=PLANE($,#604);
#53=PLANE($,#608);
#54=PLANE($,#609);
#55=PLANE($,#613);
#56=PLANE($,#614);
#57=PLANE($,#618);
#58=PLANE($,#619);
#59=FACE_OUTER_BOUND($,#100,.T.);
#60=FACE_OUTER_BOUND($,#101,.T.);
#61=FACE_OUTER_BOUND($,#102,.T.);
#62=FACE_OUTER_BOUND($,#103,.T.);
#63=FACE_OUTER_BOUND($,#104,.T.);
#64=FACE_OUTER_BOUND($,#105,.T.);
#65=FACE_OUTER_BOUND($,#106,.T.);
#66=FACE_OUTER_BOUND($,#107,.T.);
#67=FACE_OUTER_BOUND($,#108,.T.);
#68=FACE_OUTER_BOUND($,#109,.T.);
#69=FACE_OUTER_BOUND($,#110,.T.);
#70=FACE_OUTER_BOUND($,#111,.T.);
#71=FACE_OUTER_BOUND($,#112,.T.);
#72=FACE_OUTER_BOUND($,#113,.T.);
#73=FACE_OUTER_BOUND($,#114,.T.);
#74=FACE_OUTER_BOUND($,#115,.T.);
#75=FACE_OUTER_BOUND($,#116,.T.);
#76=FACE_OUTER_BOUND($,#117,.T.);
#77=FACE_OUTER_BOUND($,#118,.T.);
#78=FACE_OUTER_BOUND($,#119,.T.);
#79=FACE_OUTER_BOUND($,#120,.T.);
#80=FACE_OUTER_BOUND($,#122,.T.);
#81=FACE_OUTER_BOUND($,#123,.T.);
#82=FACE_OUTER_BOUND($,#124,.T.);
#83=FACE_OUTER_BOUND($,#126,.T.);
#84=FACE_OUTER_BOUND($,#127,.T.);
#85=FACE_OUTER_BOUND($,#128,.T.);
#86=FACE_OUTER_BOUND($,#130,.T.);
#87=FACE_OUTER_BOUND($,#131,.T.);
#88=FACE_OUTER_BOUND($,#132,.T.);
#89=FACE_OUTER_BOUND($,#134,.T.);
#90=FACE_OUTER_BOUND($,#135,.T.);
#91=FACE_OUTER_BOUND($,#136,.T.);
#92=FACE_OUTER_BOUND($,#138,.T.);
#93=FACE_OUTER_BOUND($,#139,.T.);
#94=FACE_OUTER_BOUND($,#140,.T.);
#95=FACE_OUTER_BOUND($,#142,.T.);
#96=FACE_OUTER_BOUND($,#143,.T.);
#97=FACE_OUTER_BOUND($,#144,.T.);
#98=FACE_OUTER_BOUND($,#146,.T.);
#99=FACE_OUTER_BOUND($,#147,.T.);
#100=EDGE_LOOP($,(#350,#351,#352,#353));
#101=EDGE_LOOP($,(#354,#355,#356,#357));
#102=EDGE_LOOP($,(#358,#359,#360,#361));
#103=EDGE_LOOP($,(#362,#363,#364,#365));
#104=EDGE_LOOP($,(#366,#367,#368,#369));
#105=EDGE_LOOP($,(#370,#371,#372,#373));
#106=EDGE_LOOP($,(#374,#375,#376,#377));
#107=EDGE_LOOP($,(#378,#379,#380,#381));
#108=EDGE_LOOP($,(#382,#383,#384,#385,#386,#387,#388,#389));
#109=EDGE_LOOP($,(#390,#391,#392,#393,#394,#395,#396,#397));
#110=EDGE_LOOP($,(#398,#399,#400,#401));
#111=EDGE_LOOP($,(#402,#403,#404,#405));
#112=EDGE_LOOP($,(#406,#407,#408,#409));
#113=EDGE_LOOP($,(#410,#411,#412,#413));
#114=EDGE_LOOP($,(#414,#415,#416,#417));
#115=EDGE_LOOP($,(#418,#419,#420,#421));
#116=EDGE_LOOP($,(#422,#423,#424,#425));
#117=EDGE_LOOP($,(#426,#427,#428,#429));
#118=EDGE_LOOP($,(#430,#431,#432,#433,#434,#435,#436,#437));
#119=EDGE_LOOP($,(#438,#439,#440,#441,#442,#443,#444,#445));
#120=EDGE_LOOP($,(#446));
#121=EDGE_LOOP($,(#447));
#122=EDGE_LOOP($,(#448));
#123=EDGE_LOOP($,(#449));
#124=EDGE_LOOP($,(#450));
#125=EDGE_LOOP($,(#451));
#126=EDGE_LOOP($,(#452));
#127=EDGE_LOOP($,(#453));
#128=EDGE_LOOP($,(#454));
#129=EDGE_LOOP($,(#455));
#130=EDGE_LOOP($,(#456));
#131=EDGE_LOOP($,(#457));
#132=EDGE_LOOP($,(#458));
#133=EDGE_LOOP($,(#459));
#134=EDGE_LOOP($,(#460));
#135=EDGE_LOOP($,(#461));
#136=EDGE_LOOP($,(#462));
#137=EDGE_LOOP($,(#463));
#138=EDGE_LOOP($,(#464));
#139=EDGE_LOOP($,(#465));
#140=EDGE_LOOP($,(#466));
#141=EDGE_LOOP($,(#467));
#142=EDGE_LOOP($,(#468));
#143=EDGE_LOOP($,(#469));
#144=EDGE_LOOP($,(#470));
#145=EDGE_LOOP($,(#471));
#146=EDGE_LOOP($,(#472));
#147=EDGE_LOOP($,(#473));
#148=LINE($,#802,#180);
#149=LINE($,#805,#181);
#150=LINE($,#808,#182);
#151=LINE($,#810,#183);
#152=LINE($,#811,#184);
#153=LINE($,#817,#185);
#154=LINE($,#820,#186);
#155=LINE($,#822,#187);
#156=LINE($,#823,#188);
#157=LINE($,#829,#189);
#158=LINE($,#832,#190);
#159=LINE($,#834,#191);
#160=LINE($,#835,#192);
#161=LINE($,#841,#193);
#162=LINE($,#843,#194);
#163=LINE($,#844,#195);
#164=LINE($,#850,#196);
#165=LINE($,#852,#197);
#166=LINE($,#854,#198);
#167=LINE($,#855,#199);
#168=LINE($,#861,#200);
#169=LINE($,#864,#201);
#170=LINE($,#866,#202);
#171=LINE($,#867,#203);
#172=LINE($,#873,#204);
#173=LINE($,#876,#205);
#174=LINE($,#878,#206);
#175=LINE($,#879,#207);
#176=LINE($,#885,#208);
#177=LINE($,#888,#209);
#178=LINE($,#890,#210);
#179=LINE($,#891,#211);
#180=VECTOR($,#626,0.1);
#181=VECTOR($,#629,0.1);
#182=VECTOR($,#632,21.);
#183=VECTOR($,#633,21.);
#184=VECTOR($,#634,0.1);
#185=VECTOR($,#641,0.1);
#186=VECTOR($,#644,30.5);
#187=VECTOR($,#645,30.5);
#188=VECTOR($,#646,0.1);
#189=VECTOR($,#653,0.1);
#190=VECTOR($,#656,21.);
#191=VECTOR($,#657,21.);
#192=VECTOR($,#658,0.1);
#193=VECTOR($,#665,0.1);
#194=VECTOR($,#668,30.5);
#195=VECTOR($,#669,30.5);
#196=VECTOR($,#676,25.);
#197=VECTOR($,#677,17.1);
#198=VECTOR($,#678,25.);
#199=VECTOR($,#679,17.1);
#200=VECTOR($,#686,17.1);
#201=VECTOR($,#689,34.5);
#202=VECTOR($,#690,34.5);
#203=VECTOR($,#691,17.1);
#204=VECTOR($,#698,17.1);
#205=VECTOR($,#701,25.);
#206=VECTOR($,#702,25.);
#207=VECTOR($,#703,17.1);
#208=VECTOR($,#710,17.1);
#209=VECTOR($,#713,34.5);
#210=VECTOR($,#714,34.5);
#211=VECTOR($,#715,17.1);
#212=CIRCLE($,#550,1.);
#213=CIRCLE($,#551,1.);
#214=CIRCLE($,#554,1.);
#215=CIRCLE($,#555,1.);
#216=CIRCLE($,#558,1.);
#217=CIRCLE($,#559,1.);
#218=CIRCLE($,#562,1.);
#219=CIRCLE($,#563,1.);
#220=CIRCLE($,#569,1.);
#221=CIRCLE($,#570,1.);
#222=CIRCLE($,#573,1.00000000000001);
#223=CIRCLE($,#574,1.00000000000001);
#224=CIRCLE($,#577,1.);
#225=CIRCLE($,#578,1.);
#226=CIRCLE($,#581,1.00000000000001);
#227=CIRCLE($,#582,1.00000000000001);
#228=CIRCLE($,#586,0.25);
#229=CIRCLE($,#587,0.25);
#230=CIRCLE($,#591,0.25);
#231=CIRCLE($,#592,0.25);
#232=CIRCLE($,#596,0.25);
#233=CIRCLE($,#597,0.25);
#234=CIRCLE($,#601,0.25);
#235=CIRCLE($,#602,0.25);
#236=CIRCLE($,#606,0.25);
#237=CIRCLE($,#607,0.25);
#238=CIRCLE($,#611,0.25);
#239=CIRCLE($,#612,0.25);
#240=CIRCLE($,#616,0.25);
#241=CIRCLE($,#617,0.25);
#242=VERTEX_POINT($,#798);
#243=VERTEX_POINT($,#799);
#244=VERTEX_POINT($,#801);
#245=VERTEX_POINT($,#803);
#246=VERTEX_POINT($,#807);
#247=VERTEX_POINT($,#809);
#248=VERTEX_POINT($,#813);
#249=VERTEX_POINT($,#815);
#250=VERTEX_POINT($,#819);
#251=VERTEX_POINT($,#821);
#252=VERTEX_POINT($,#825);
#253=VERTEX_POINT($,#827);
#254=VERTEX_POINT($,#831);
#255=VERTEX_POINT($,#833);
#256=VERTEX_POINT($,#837);
#257=VERTEX_POINT($,#839);
#258=VERTEX_POINT($,#848);
#259=VERTEX_POINT($,#849);
#260=VERTEX_POINT($,#851);
#261=VERTEX_POINT($,#853);
#262=VERTEX_POINT($,#857);
#263=VERTEX_POINT($,#859);
#264=VERTEX_POINT($,#863);
#265=VERTEX_POINT($,#865);
#266=VERTEX_POINT($,#869);
#267=VERTEX_POINT($,#871);
#268=VERTEX_POINT($,#875);
#269=VERTEX_POINT($,#877);
#270=VERTEX_POINT($,#881);
#271=VERTEX_POINT($,#883);
#272=VERTEX_POINT($,#887);
#273=VERTEX_POINT($,#889);
#274=VERTEX_POINT($,#898);
#275=VERTEX_POINT($,#900);
#276=VERTEX_POINT($,#905);
#277=VERTEX_POINT($,#907);
#278=VERTEX_POINT($,#912);
#279=VERTEX_POINT($,#914);
#280=VERTEX_POINT($,#919);
#281=VERTEX_POINT($,#921);
#282=VERTEX_POINT($,#926);
#283=VERTEX_POINT($,#928);
#284=VERTEX_POINT($,#933);
#285=VERTEX_POINT($,#935);
#286=VERTEX_POINT($,#940);
#287=VERTEX_POINT($,#942);
#288=EDGE_CURVE($,#242,#243,#212,.T.);
#289=EDGE_CURVE($,#243,#244,#148,.T.);
#290=EDGE_CURVE($,#245,#244,#213,.T.);
#291=EDGE_CURVE($,#242,#245,#149,.T.);
#292=EDGE_CURVE($,#246,#242,#150,.T.);
#293=EDGE_CURVE($,#247,#245,#151,.T.);
#294=EDGE_CURVE($,#246,#247,#152,.T.);
#295=EDGE_CURVE($,#248,#246,#214,.T.);
#296=EDGE_CURVE($,#249,#247,#215,.T.);
#297=EDGE_CURVE($,#248,#249,#153,.T.);
#298=EDGE_CURVE($,#250,#248,#154,.T.);
#299=EDGE_CURVE($,#251,#249,#155,.T.);
#300=EDGE_CURVE($,#250,#251,#156,.T.);
#301=EDGE_CURVE($,#252,#250,#216,.T.);
#302=EDGE_CURVE($,#253,#251,#217,.T.);
#303=EDGE_CURVE($,#252,#253,#157,.T.);
#304=EDGE_CURVE($,#254,#252,#158,.T.);
#305=EDGE_CURVE($,#255,#253,#159,.T.);
#306=EDGE_CURVE($,#254,#255,#160,.T.);
#307=EDGE_CURVE($,#256,#254,#218,.T.);
#308=EDGE_CURVE($,#257,#255,#219,.T.);
#309=EDGE_CURVE($,#256,#257,#161,.T.);
#310=EDGE_CURVE($,#243,#256,#162,.T.);
#311=EDGE_CURVE($,#244,#257,#163,.T.);
#312=EDGE_CURVE($,#258,#259,#164,.T.);
#313=EDGE_CURVE($,#258,#260,#165,.T.);
#314=EDGE_CURVE($,#261,#260,#166,.T.);
#315=EDGE_CURVE($,#259,#261,#167,.T.);
#316=EDGE_CURVE($,#259,#262,#220,.T.);
#317=EDGE_CURVE($,#263,#261,#221,.T.);
#318=EDGE_CURVE($,#262,#263,#168,.T.);
#319=EDGE_CURVE($,#262,#264,#169,.T.);
#320=EDGE_CURVE($,#265,#263,#170,.T.);
#321=EDGE_CURVE($,#264,#265,#171,.T.);
#322=EDGE_CURVE($,#264,#266,#222,.T.);
#323=EDGE_CURVE($,#267,#265,#223,.T.);
#324=EDGE_CURVE($,#266,#267,#172,.T.);
#325=EDGE_CURVE($,#266,#268,#173,.T.);
#326=EDGE_CURVE($,#269,#267,#174,.T.);
#327=EDGE_CURVE($,#268,#269,#175,.T.);
#328=EDGE_CURVE($,#268,#270,#224,.T.);
#329=EDGE_CURVE($,#271,#269,#225,.T.);
#330=EDGE_CURVE($,#270,#271,#176,.T.);
#331=EDGE_CURVE($,#270,#272,#177,.T.);
#332=EDGE_CURVE($,#273,#271,#178,.T.);
#333=EDGE_CURVE($,#272,#273,#179,.T.);
#334=EDGE_CURVE($,#272,#258,#226,.T.);
#335=EDGE_CURVE($,#260,#273,#227,.T.);
#336=EDGE_CURVE($,#274,#274,#228,.T.);
#337=EDGE_CURVE($,#275,#275,#229,.T.);
#338=EDGE_CURVE($,#276,#276,#230,.T.);
#339=EDGE_CURVE($,#277,#277,#231,.T.);
#340=EDGE_CURVE($,#278,#278,#232,.T.);
#341=EDGE_CURVE($,#279,#279,#233,.T.);
#342=EDGE_CURVE($,#280,#280,#234,.T.);
#343=EDGE_CURVE($,#281,#281,#235,.T.);
#344=EDGE_CURVE($,#282,#282,#236,.T.);
#345=EDGE_CURVE($,#283,#283,#237,.T.);
#346=EDGE_CURVE($,#284,#284,#238,.T.);
#347=EDGE_CURVE($,#285,#285,#239,.T.);
#348=EDGE_CURVE($,#286,#286,#240,.T.);
#349=EDGE_CURVE($,#287,#287,#241,.T.);
#350=ORIENTED_EDGE($,*,*,#288,.T.);
#351=ORIENTED_EDGE($,*,*,#289,.T.);
#352=ORIENTED_EDGE($,*,*,#290,.F.);
#353=ORIENTED_EDGE($,*,*,#291,.F.);
#354=ORIENTED_EDGE($,*,*,#292,.T.);
#355=ORIENTED_EDGE($,*,*,#291,.T.);
#356=ORIENTED_EDGE($,*,*,#293,.F.);
#357=ORIENTED_EDGE($,*,*,#294,.F.);
#358=ORIENTED_EDGE($,*,*,#295,.T.);
#359=ORIENTED_EDGE($,*,*,#294,.T.);
#360=ORIENTED_EDGE($,*,*,#296,.F.);
#361=ORIENTED_EDGE($,*,*,#297,.F.);
#362=ORIENTED_EDGE($,*,*,#298,.T.);
#363=ORIENTED_EDGE($,*,*,#297,.T.);
#364=ORIENTED_EDGE($,*,*,#299,.F.);
#365=ORIENTED_EDGE($,*,*,#300,.F.);
#366=ORIENTED_EDGE($,*,*,#301,.T.);
#367=ORIENTED_EDGE($,*,*,#300,.T.);
#368=ORIENTED_EDGE($,*,*,#302,.F.);
#369=ORIENTED_EDGE($,*,*,#303,.F.);
#370=ORIENTED_EDGE($,*,*,#304,.T.);
#371=ORIENTED_EDGE($,*,*,#303,.T.);
#372=ORIENTED_EDGE($,*,*,#305,.F.);
#373=ORIENTED_EDGE($,*,*,#306,.F.);
#374=ORIENTED_EDGE($,*,*,#307,.T.);
#375=ORIENTED_EDGE($,*,*,#306,.T.);
#376=ORIENTED_EDGE($,*,*,#308,.F.);
#377=ORIENTED_EDGE($,*,*,#309,.F.);
#378=ORIENTED_EDGE($,*,*,#310,.T.);
#379=ORIENTED_EDGE($,*,*,#309,.T.);
#380=ORIENTED_EDGE($,*,*,#311,.F.);
#381=ORIENTED_EDGE($,*,*,#289,.F.);
#382=ORIENTED_EDGE($,*,*,#311,.T.);
#383=ORIENTED_EDGE($,*,*,#308,.T.);
#384=ORIENTED_EDGE($,*,*,#305,.T.);
#385=ORIENTED_EDGE($,*,*,#302,.T.);
#386=ORIENTED_EDGE($,*,*,#299,.T.);
#387=ORIENTED_EDGE($,*,*,#296,.T.);
#388=ORIENTED_EDGE($,*,*,#293,.T.);
#389=ORIENTED_EDGE($,*,*,#290,.T.);
#390=ORIENTED_EDGE($,*,*,#310,.F.);
#391=ORIENTED_EDGE($,*,*,#288,.F.);
#392=ORIENTED_EDGE($,*,*,#292,.F.);
#393=ORIENTED_EDGE($,*,*,#295,.F.);
#394=ORIENTED_EDGE($,*,*,#298,.F.);
#395=ORIENTED_EDGE($,*,*,#301,.F.);
#396=ORIENTED_EDGE($,*,*,#304,.F.);
#397=ORIENTED_EDGE($,*,*,#307,.F.);
#398=ORIENTED_EDGE($,*,*,#312,.F.);
#399=ORIENTED_EDGE($,*,*,#313,.T.);
#400=ORIENTED_EDGE($,*,*,#314,.F.);
#401=ORIENTED_EDGE($,*,*,#315,.F.);
#402=ORIENTED_EDGE($,*,*,#316,.F.);
#403=ORIENTED_EDGE($,*,*,#315,.T.);
#404=ORIENTED_EDGE($,*,*,#317,.F.);
#405=ORIENTED_EDGE($,*,*,#318,.F.);
#406=ORIENTED_EDGE($,*,*,#319,.F.);
#407=ORIENTED_EDGE($,*,*,#318,.T.);
#408=ORIENTED_EDGE($,*,*,#320,.F.);
#409=ORIENTED_EDGE($,*,*,#321,.F.);
#410=ORIENTED_EDGE($,*,*,#322,.F.);
#411=ORIENTED_EDGE($,*,*,#321,.T.);
#412=ORIENTED_EDGE($,*,*,#323,.F.);
#413=ORIENTED_EDGE($,*,*,#324,.F.);
#414=ORIENTED_EDGE($,*,*,#325,.F.);
#415=ORIENTED_EDGE($,*,*,#324,.T.);
#416=ORIENTED_EDGE($,*,*,#326,.F.);
#417=ORIENTED_EDGE($,*,*,#327,.F.);
#418=ORIENTED_EDGE($,*,*,#328,.F.);
#419=ORIENTED_EDGE($,*,*,#327,.T.);
#420=ORIENTED_EDGE($,*,*,#329,.F.);
#421=ORIENTED_EDGE($,*,*,#330,.F.);
#422=ORIENTED_EDGE($,*,*,#331,.F.);
#423=ORIENTED_EDGE($,*,*,#330,.T.);
#424=ORIENTED_EDGE($,*,*,#332,.F.);
#425=ORIENTED_EDGE($,*,*,#333,.F.);
#426=ORIENTED_EDGE($,*,*,#334,.F.);
#427=ORIENTED_EDGE($,*,*,#333,.T.);
#428=ORIENTED_EDGE($,*,*,#335,.F.);
#429=ORIENTED_EDGE($,*,*,#313,.F.);
#430=ORIENTED_EDGE($,*,*,#334,.T.);
#431=ORIENTED_EDGE($,*,*,#312,.T.);
#432=ORIENTED_EDGE($,*,*,#316,.T.);
#433=ORIENTED_EDGE($,*,*,#319,.T.);
#434=ORIENTED_EDGE($,*,*,#322,.T.);
#435=ORIENTED_EDGE($,*,*,#325,.T.);
#436=ORIENTED_EDGE($,*,*,#328,.T.);
#437=ORIENTED_EDGE($,*,*,#331,.T.);
#438=ORIENTED_EDGE($,*,*,#335,.T.);
#439=ORIENTED_EDGE($,*,*,#332,.T.);
#440=ORIENTED_EDGE($,*,*,#329,.T.);
#441=ORIENTED_EDGE($,*,*,#326,.T.);
#442=ORIENTED_EDGE($,*,*,#323,.T.);
#443=ORIENTED_EDGE($,*,*,#320,.T.);
#444=ORIENTED_EDGE($,*,*,#317,.T.);
#445=ORIENTED_EDGE($,*,*,#314,.T.);
#446=ORIENTED_EDGE($,*,*,#336,.F.);
#447=ORIENTED_EDGE($,*,*,#337,.T.);
#448=ORIENTED_EDGE($,*,*,#336,.T.);
#449=ORIENTED_EDGE($,*,*,#337,.F.);
#450=ORIENTED_EDGE($,*,*,#338,.F.);
#451=ORIENTED_EDGE($,*,*,#339,.T.);
#452=ORIENTED_EDGE($,*,*,#338,.T.);
#453=ORIENTED_EDGE($,*,*,#339,.F.);
#454=ORIENTED_EDGE($,*,*,#340,.F.);
#455=ORIENTED_EDGE($,*,*,#341,.T.);
#456=ORIENTED_EDGE($,*,*,#340,.T.);
#457=ORIENTED_EDGE($,*,*,#341,.F.);
#458=ORIENTED_EDGE($,*,*,#342,.F.);
#459=ORIENTED_EDGE($,*,*,#343,.T.);
#460=ORIENTED_EDGE($,*,*,#342,.T.);
#461=ORIENTED_EDGE($,*,*,#343,.F.);
#462=ORIENTED_EDGE($,*,*,#344,.F.);
#463=ORIENTED_EDGE($,*,*,#345,.T.);
#464=ORIENTED_EDGE($,*,*,#344,.T.);
#465=ORIENTED_EDGE($,*,*,#345,.F.);
#466=ORIENTED_EDGE($,*,*,#346,.F.);
#467=ORIENTED_EDGE($,*,*,#347,.T.);
#468=ORIENTED_EDGE($,*,*,#346,.T.);
#469=ORIENTED_EDGE($,*,*,#347,.F.);
#470=ORIENTED_EDGE($,*,*,#348,.F.);
#471=ORIENTED_EDGE($,*,*,#349,.T.);
#472=ORIENTED_EDGE($,*,*,#348,.T.);
#473=ORIENTED_EDGE($,*,*,#349,.F.);
#474=CYLINDRICAL_SURFACE($,#549,1.);
#475=CYLINDRICAL_SURFACE($,#553,1.);
#476=CYLINDRICAL_SURFACE($,#557,1.);
#477=CYLINDRICAL_SURFACE($,#561,1.);
#478=CYLINDRICAL_SURFACE($,#568,1.);
#479=CYLINDRICAL_SURFACE($,#572,1.00000000000001);
#480=CYLINDRICAL_SURFACE($,#576,1.);
#481=CYLINDRICAL_SURFACE($,#580,1.00000000000001);
#482=CYLINDRICAL_SURFACE($,#585,0.25);
#483=CYLINDRICAL_SURFACE($,#590,0.25);
#484=CYLINDRICAL_SURFACE($,#595,0.25);
#485=CYLINDRICAL_SURFACE($,#600,0.25);
#486=CYLINDRICAL_SURFACE($,#605,0.25);
#487=CYLINDRICAL_SURFACE($,#610,0.25);
#488=CYLINDRICAL_SURFACE($,#615,0.25);
#489=ADVANCED_FACE($,(#59),#474,.T.);
#490=ADVANCED_FACE($,(#60),#33,.T.);
#491=ADVANCED_FACE($,(#61),#475,.T.);
#492=ADVANCED_FACE($,(#62),#34,.T.);
#493=ADVANCED_FACE($,(#63),#476,.T.);
#494=ADVANCED_FACE($,(#64),#35,.T.);
#495=ADVANCED_FACE($,(#65),#477,.T.);
#496=ADVANCED_FACE($,(#66),#36,.T.);
#497=ADVANCED_FACE($,(#67),#37,.T.);
#498=ADVANCED_FACE($,(#68),#38,.F.);
#499=ADVANCED_FACE($,(#69),#39,.T.);
#500=ADVANCED_FACE($,(#70),#478,.T.);
#501=ADVANCED_FACE($,(#71),#40,.T.);
#502=ADVANCED_FACE($,(#72),#479,.T.);
#503=ADVANCED_FACE($,(#73),#41,.T.);
#504=ADVANCED_FACE($,(#74),#480,.T.);
#505=ADVANCED_FACE($,(#75),#42,.T.);
#506=ADVANCED_FACE($,(#76),#481,.T.);
#507=ADVANCED_FACE($,(#77),#43,.F.);
#508=ADVANCED_FACE($,(#78),#44,.T.);
#509=ADVANCED_FACE($,(#79,#15),#482,.T.);
#510=ADVANCED_FACE($,(#80),#45,.T.);
#511=ADVANCED_FACE($,(#81),#46,.F.);
#512=ADVANCED_FACE($,(#82,#16),#483,.T.);
#513=ADVANCED_FACE($,(#83),#47,.T.);
#514=ADVANCED_FACE($,(#84),#48,.F.);
#515=ADVANCED_FACE($,(#85,#17),#484,.T.);
#516=ADVANCED_FACE($,(#86),#49,.T.);
#517=ADVANCED_FACE($,(#87),#50,.F.);
#518=ADVANCED_FACE($,(#88,#18),#485,.T.);
#519=ADVANCED_FACE($,(#89),#51,.T.);
#520=ADVANCED_FACE($,(#90),#52,.F.);
#521=ADVANCED_FACE($,(#91,#19),#486,.T.);
#522=ADVANCED_FACE($,(#92),#53,.T.);
#523=ADVANCED_FACE($,(#93),#54,.F.);
#524=ADVANCED_FACE($,(#94,#20),#487,.T.);
#525=ADVANCED_FACE($,(#95),#55,.T.);
#526=ADVANCED_FACE($,(#96),#56,.F.);
#527=ADVANCED_FACE($,(#97,#21),#488,.T.);
#528=ADVANCED_FACE($,(#98),#57,.F.);
#529=ADVANCED_FACE($,(#99),#58,.T.);
#530=CLOSED_SHELL($,(#489,#490,#491,#492,#493,#494,#495,#496,#497,#498));
#531=CLOSED_SHELL($,(#499,#500,#501,#502,#503,#504,#505,#506,#507,#508));
#532=CLOSED_SHELL($,(#509,#510,#511));
#533=CLOSED_SHELL($,(#512,#513,#514));
#534=CLOSED_SHELL($,(#515,#516,#517));
#535=CLOSED_SHELL($,(#518,#519,#520));
#536=CLOSED_SHELL($,(#521,#522,#523));
#537=CLOSED_SHELL($,(#524,#525,#526));
#538=CLOSED_SHELL($,(#527,#528,#529));
#539=MANIFOLD_SOLID_BREP('9B2',#530);
#540=MANIFOLD_SOLID_BREP('9B6',#531);
#541=MANIFOLD_SOLID_BREP('9C1',#532);
#542=MANIFOLD_SOLID_BREP('9C5',#533);
#543=MANIFOLD_SOLID_BREP('9C9',#534);
#544=MANIFOLD_SOLID_BREP('9CD',#535);
#545=MANIFOLD_SOLID_BREP('9D1',#536);
#546=MANIFOLD_SOLID_BREP('9D5',#537);
#547=MANIFOLD_SOLID_BREP('A10',#538);
#548=AXIS2_PLACEMENT_3D('placement',#796,#620,#621);
#549=AXIS2_PLACEMENT_3D($,#797,#622,#623);
#550=AXIS2_PLACEMENT_3D($,#800,#624,#625);
#551=AXIS2_PLACEMENT_3D($,#804,#627,#628);
#552=AXIS2_PLACEMENT_3D($,#806,#630,#631);
#553=AXIS2_PLACEMENT_3D($,#812,#635,#636);
#554=AXIS2_PLACEMENT_3D($,#814,#637,#638);
#555=AXIS2_PLACEMENT_3D($,#816,#639,#640);
#556=AXIS2_PLACEMENT_3D($,#818,#642,#643);
#557=AXIS2_PLACEMENT_3D($,#824,#647,#648);
#558=AXIS2_PLACEMENT_3D($,#826,#649,#650);
#559=AXIS2_PLACEMENT_3D($,#828,#651,#652);
#560=AXIS2_PLACEMENT_3D($,#830,#654,#655);
#561=AXIS2_PLACEMENT_3D($,#836,#659,#660);
#562=AXIS2_PLACEMENT_3D($,#838,#661,#662);
#563=AXIS2_PLACEMENT_3D($,#840,#663,#664);
#564=AXIS2_PLACEMENT_3D($,#842,#666,#667);
#565=AXIS2_PLACEMENT_3D($,#845,#670,#671);
#566=AXIS2_PLACEMENT_3D($,#846,#672,#673);
#567=AXIS2_PLACEMENT_3D($,#847,#674,#675);
#568=AXIS2_PLACEMENT_3D($,#856,#680,#681);
#569=AXIS2_PLACEMENT_3D($,#858,#682,#683);
#570=AXIS2_PLACEMENT_3D($,#860,#684,#685);
#571=AXIS2_PLACEMENT_3D($,#862,#687,#688);
#572=AXIS2_PLACEMENT_3D($,#868,#692,#693);
#573=AXIS2_PLACEMENT_3D($,#870,#694,#695);
#574=AXIS2_PLACEMENT_3D($,#872,#696,#697);
#575=AXIS2_PLACEMENT_3D($,#874,#699,#700);
#576=AXIS2_PLACEMENT_3D($,#880,#704,#705);
#577=AXIS2_PLACEMENT_3D($,#882,#706,#707);
#578=AXIS2_PLACEMENT_3D($,#884,#708,#709);
#579=AXIS2_PLACEMENT_3D($,#886,#711,#712);
#580=AXIS2_PLACEMENT_3D($,#892,#716,#717);
#581=AXIS2_PLACEMENT_3D($,#893,#718,#719);
#582=AXIS2_PLACEMENT_3D($,#894,#720,#721);
#583=AXIS2_PLACEMENT_3D($,#895,#722,#723);
#584=AXIS2_PLACEMENT_3D($,#896,#724,#725);
#585=AXIS2_PLACEMENT_3D($,#897,#726,#727);
#586=AXIS2_PLACEMENT_3D($,#899,#728,#729);
#587=AXIS2_PLACEMENT_3D($,#901,#730,#731);
#588=AXIS2_PLACEMENT_3D($,#902,#732,#733);
#589=AXIS2_PLACEMENT_3D($,#903,#734,#735);
#590=AXIS2_PLACEMENT_3D($,#904,#736,#737);
#591=AXIS2_PLACEMENT_3D($,#906,#738,#739);
#592=AXIS2_PLACEMENT_3D($,#908,#740,#741);
#593=AXIS2_PLACEMENT_3D($,#909,#742,#743);
#594=AXIS2_PLACEMENT_3D($,#910,#744,#745);
#595=AXIS2_PLACEMENT_3D($,#911,#746,#747);
#596=AXIS2_PLACEMENT_3D($,#913,#748,#749);
#597=AXIS2_PLACEMENT_3D($,#915,#750,#751);
#598=AXIS2_PLACEMENT_3D($,#916,#752,#753);
#599=AXIS2_PLACEMENT_3D($,#917,#754,#755);
#600=AXIS2_PLACEMENT_3D($,#918,#756,#757);
#601=AXIS2_PLACEMENT_3D($,#920,#758,#759);
#602=AXIS2_PLACEMENT_3D($,#922,#760,#761);
#603=AXIS2_PLACEMENT_3D($,#923,#762,#763);
#604=AXIS2_PLACEMENT_3D($,#924,#764,#765);
#605=AXIS2_PLACEMENT_3D($,#925,#766,#767);
#606=AXIS2_PLACEMENT_3D($,#927,#768,#769);
#607=AXIS2_PLACEMENT_3D($,#929,#770,#771);
#608=AXIS2_PLACEMENT_3D($,#930,#772,#773);
#609=AXIS2_PLACEMENT_3D($,#931,#774,#775);
#610=AXIS2_PLACEMENT_3D($,#932,#776,#777);
#611=AXIS2_PLACEMENT_3D($,#934,#778,#779);
#612=AXIS2_PLACEMENT_3D($,#936,#780,#781);
#613=AXIS2_PLACEMENT_3D($,#937,#782,#783);
#614=AXIS2_PLACEMENT_3D($,#938,#784,#785);
#615=AXIS2_PLACEMENT_3D($,#939,#786,#787);
#616=AXIS2_PLACEMENT_3D($,#941,#788,#789);
#617=AXIS2_PLACEMENT_3D($,#943,#790,#791);
#618=AXIS2_PLACEMENT_3D($,#944,#792,#793);
#619=AXIS2_PLACEMENT_3D($,#945,#794,#795);
#620=DIRECTION('axis',(0.,0.,1.));
#621=DIRECTION('refdir',(1.,0.,0.));
#622=DIRECTION('center_axis',(0.,0.,1.));
#623=DIRECTION('ref_axis',(0.,-1.,0.));
#624=DIRECTION('center_axis',(0.,0.,1.));
#625=DIRECTION('ref_axis',(0.,-1.,0.));
#626=DIRECTION($,(0.,0.,1.));
#627=DIRECTION('center_axis',(0.,0.,1.));
#628=DIRECTION('ref_axis',(0.,-1.,0.));
#629=DIRECTION($,(0.,0.,1.));
#630=DIRECTION('center_axis',(0.,-1.,0.));
#631=DIRECTION('ref_axis',(1.,0.,0.));
#632=DIRECTION($,(1.,0.,0.));
#633=DIRECTION($,(1.,0.,0.));
#634=DIRECTION($,(0.,0.,1.));
#635=DIRECTION('center_axis',(0.,0.,1.));
#636=DIRECTION('ref_axis',(-1.,-1.77635683940025E-15,0.));
#637=DIRECTION('center_axis',(0.,0.,1.));
#638=DIRECTION('ref_axis',(-1.,-1.77635683940025E-15,0.));
#639=DIRECTION('center_axis',(0.,0.,1.));
#640=DIRECTION('ref_axis',(-1.,-1.77635683940025E-15,0.));
#641=DIRECTION($,(0.,0.,1.));
#642=DIRECTION('center_axis',(-1.,0.,0.));
#643=DIRECTION('ref_axis',(0.,-1.,0.));
#644=DIRECTION($,(0.,-1.,0.));
#645=DIRECTION($,(0.,-1.,0.));
#646=DIRECTION($,(0.,0.,1.));
#647=DIRECTION('center_axis',(0.,0.,1.));
#648=DIRECTION('ref_axis',(0.,1.,0.));
#649=DIRECTION('center_axis',(0.,0.,1.));
#650=DIRECTION('ref_axis',(0.,1.,0.));
#651=DIRECTION('center_axis',(0.,0.,1.));
#652=DIRECTION('ref_axis',(0.,1.,0.));
#653=DIRECTION($,(0.,0.,1.));
#654=DIRECTION('center_axis',(0.,1.,0.));
#655=DIRECTION('ref_axis',(-1.,0.,0.));
#656=DIRECTION($,(-1.,0.,0.));
#657=DIRECTION($,(-1.,0.,0.));
#658=DIRECTION($,(0.,0.,1.));
#659=DIRECTION('center_axis',(0.,0.,1.));
#660=DIRECTION('ref_axis',(1.,1.77635683940025E-15,0.));
#661=DIRECTION('center_axis',(0.,0.,1.));
#662=DIRECTION('ref_axis',(1.,1.77635683940025E-15,0.));
#663=DIRECTION('center_axis',(0.,0.,1.));
#664=DIRECTION('ref_axis',(1.,1.77635683940025E-15,0.));
#665=DIRECTION($,(0.,0.,1.));
#666=DIRECTION('center_axis',(1.,0.,0.));
#667=DIRECTION('ref_axis',(0.,1.,0.));
#668=DIRECTION($,(0.,1.,0.));
#669=DIRECTION($,(0.,1.,0.));
#670=DIRECTION('center_axis',(0.,0.,1.));
#671=DIRECTION('ref_axis',(1.,0.,0.));
#672=DIRECTION('center_axis',(0.,0.,1.));
#673=DIRECTION('ref_axis',(1.,0.,0.));
#674=DIRECTION('center_axis',(0.,-1.,0.));
#675=DIRECTION('ref_axis',(1.,0.,0.));
#676=DIRECTION($,(-1.,0.,0.));
#677=DIRECTION($,(0.,0.,1.));
#678=DIRECTION($,(1.,0.,0.));
#679=DIRECTION($,(0.,0.,1.));
#680=DIRECTION('center_axis',(0.,0.,1.));
#681=DIRECTION('ref_axis',(-7.10542735760098E-15,-1.,0.));
#682=DIRECTION('center_axis',(0.,0.,-1.));
#683=DIRECTION('ref_axis',(-7.10542735760098E-15,-1.,0.));
#684=DIRECTION('center_axis',(0.,0.,1.));
#685=DIRECTION('ref_axis',(-7.10542735760098E-15,-1.,0.));
#686=DIRECTION($,(0.,0.,1.));
#687=DIRECTION('center_axis',(-1.,0.,0.));
#688=DIRECTION('ref_axis',(0.,-1.,0.));
#689=DIRECTION($,(0.,1.,0.));
#690=DIRECTION($,(0.,-1.,0.));
#691=DIRECTION($,(0.,0.,1.));
#692=DIRECTION('center_axis',(0.,0.,1.));
#693=DIRECTION('ref_axis',(-1.,3.55271367880048E-15,0.));
#694=DIRECTION('center_axis',(0.,0.,-1.));
#695=DIRECTION('ref_axis',(-1.,3.55271367880048E-15,0.));
#696=DIRECTION('center_axis',(0.,0.,1.));
#697=DIRECTION('ref_axis',(-1.,3.55271367880048E-15,0.));
#698=DIRECTION($,(0.,0.,1.));
#699=DIRECTION('center_axis',(0.,1.,0.));
#700=DIRECTION('ref_axis',(-1.,0.,0.));
#701=DIRECTION($,(1.,0.,0.));
#702=DIRECTION($,(-1.,0.,0.));
#703=DIRECTION($,(0.,0.,1.));
#704=DIRECTION('center_axis',(0.,0.,1.));
#705=DIRECTION('ref_axis',(7.10542735760098E-15,1.,0.));
#706=DIRECTION('center_axis',(0.,0.,-1.));
#707=DIRECTION('ref_axis',(7.10542735760098E-15,1.,0.));
#708=DIRECTION('center_axis',(0.,0.,1.));
#709=DIRECTION('ref_axis',(7.10542735760098E-15,1.,0.));
#710=DIRECTION($,(0.,0.,1.));
#711=DIRECTION('center_axis',(1.,0.,0.));
#712=DIRECTION('ref_axis',(0.,1.,0.));
#713=DIRECTION($,(0.,-1.,0.));
#714=DIRECTION($,(0.,1.,0.));
#715=DIRECTION($,(0.,0.,1.));
#716=DIRECTION('center_axis',(0.,0.,1.));
#717=DIRECTION('ref_axis',(1.,-3.55271367880048E-15,0.));
#718=DIRECTION('center_axis',(0.,0.,-1.));
#719=DIRECTION('ref_axis',(1.,-3.55271367880048E-15,0.));
#720=DIRECTION('center_axis',(0.,0.,1.));
#721=DIRECTION('ref_axis',(1.,-3.55271367880048E-15,0.));
#722=DIRECTION('center_axis',(0.,0.,1.));
#723=DIRECTION('ref_axis',(1.,0.,0.));
#724=DIRECTION('center_axis',(0.,0.,1.));
#725=DIRECTION('ref_axis',(1.,0.,0.));
#726=DIRECTION('center_axis',(0.,0.,1.));
#727=DIRECTION('ref_axis',(-1.,0.,0.));
#728=DIRECTION('center_axis',(0.,0.,1.));
#729=DIRECTION('ref_axis',(-1.,0.,0.));
#730=DIRECTION('center_axis',(0.,0.,1.));
#731=DIRECTION('ref_axis',(-1.,0.,0.));
#732=DIRECTION('center_axis',(0.,0.,1.));
#733=DIRECTION('ref_axis',(1.,0.,0.));
#734=DIRECTION('center_axis',(0.,0.,1.));
#735=DIRECTION('ref_axis',(1.,0.,0.));
#736=DIRECTION('center_axis',(0.,0.,1.));
#737=DIRECTION('ref_axis',(-1.,0.,0.));
#738=DIRECTION('center_axis',(0.,0.,1.));
#739=DIRECTION('ref_axis',(-1.,0.,0.));
#740=DIRECTION('center_axis',(0.,0.,1.));
#741=DIRECTION('ref_axis',(-1.,0.,0.));
#742=DIRECTION('center_axis',(0.,0.,1.));
#743=DIRECTION('ref_axis',(1.,0.,0.));
#744=DIRECTION('center_axis',(0.,0.,1.));
#745=DIRECTION('ref_axis',(1.,0.,0.));
#746=DIRECTION('center_axis',(0.,0.,1.));
#747=DIRECTION('ref_axis',(-1.,0.,0.));
#748=DIRECTION('center_axis',(0.,0.,1.));
#749=DIRECTION('ref_axis',(-1.,0.,0.));
#750=DIRECTION('center_axis',(0.,0.,1.));
#751=DIRECTION('ref_axis',(-1.,0.,0.));
#752=DIRECTION('center_axis',(0.,0.,1.));
#753=DIRECTION('ref_axis',(1.,0.,0.));
#754=DIRECTION('center_axis',(0.,0.,1.));
#755=DIRECTION('ref_axis',(1.,0.,0.));
#756=DIRECTION('center_axis',(0.,0.,1.));
#757=DIRECTION('ref_axis',(-1.,0.,0.));
#758=DIRECTION('center_axis',(0.,0.,1.));
#759=DIRECTION('ref_axis',(-1.,0.,0.));
#760=DIRECTION('center_axis',(0.,0.,1.));
#761=DIRECTION('ref_axis',(-1.,0.,0.));
#762=DIRECTION('center_axis',(0.,0.,1.));
#763=DIRECTION('ref_axis',(1.,0.,0.));
#764=DIRECTION('center_axis',(0.,0.,1.));
#765=DIRECTION('ref_axis',(1.,0.,0.));
#766=DIRECTION('center_axis',(0.,0.,1.));
#767=DIRECTION('ref_axis',(-1.,0.,0.));
#768=DIRECTION('center_axis',(0.,0.,1.));
#769=DIRECTION('ref_axis',(-1.,0.,0.));
#770=DIRECTION('center_axis',(0.,0.,1.));
#771=DIRECTION('ref_axis',(-1.,0.,0.));
#772=DIRECTION('center_axis',(0.,0.,1.));
#773=DIRECTION('ref_axis',(1.,0.,0.));
#774=DIRECTION('center_axis',(0.,0.,1.));
#775=DIRECTION('ref_axis',(1.,0.,0.));
#776=DIRECTION('center_axis',(0.,0.,1.));
#777=DIRECTION('ref_axis',(-1.,0.,0.));
#778=DIRECTION('center_axis',(0.,0.,1.));
#779=DIRECTION('ref_axis',(-1.,0.,0.));
#780=DIRECTION('center_axis',(0.,0.,1.));
#781=DIRECTION('ref_axis',(-1.,0.,0.));
#782=DIRECTION('center_axis',(0.,0.,1.));
#783=DIRECTION('ref_axis',(1.,0.,0.));
#784=DIRECTION('center_axis',(0.,0.,1.));
#785=DIRECTION('ref_axis',(1.,0.,0.));
#786=DIRECTION('center_axis',(0.,0.,-1.));
#787=DIRECTION('ref_axis',(1.,0.,0.));
#788=DIRECTION('center_axis',(0.,0.,-1.));
#789=DIRECTION('ref_axis',(1.,0.,0.));
#790=DIRECTION('center_axis',(0.,0.,-1.));
#791=DIRECTION('ref_axis',(1.,0.,0.));
#792=DIRECTION('center_axis',(0.,0.,1.));
#793=DIRECTION('ref_axis',(1.,0.,0.));
#794=DIRECTION('center_axis',(0.,0.,1.));
#795=DIRECTION('ref_axis',(1.,0.,0.));
#796=CARTESIAN_POINT('',(0.,0.,0.));
#797=CARTESIAN_POINT('Origin',(10.5,-15.25,17.1));
#798=CARTESIAN_POINT('',(10.5,-16.25,17.1));
#799=CARTESIAN_POINT('',(11.5,-15.25,17.1));
#800=CARTESIAN_POINT('Origin',(10.5,-15.25,17.1));
#801=CARTESIAN_POINT('',(11.5,-15.25,17.2));
#802=CARTESIAN_POINT($,(11.5,-15.25,17.1));
#803=CARTESIAN_POINT('',(10.5,-16.25,17.2));
#804=CARTESIAN_POINT('Origin',(10.5,-15.25,17.2));
#805=CARTESIAN_POINT($,(10.5,-16.25,17.1));
#806=CARTESIAN_POINT('Origin',(-10.5,-16.25,17.1));
#807=CARTESIAN_POINT('',(-10.5,-16.25,17.1));
#808=CARTESIAN_POINT($,(-10.5,-16.25,17.1));
#809=CARTESIAN_POINT('',(-10.5,-16.25,17.2));
#810=CARTESIAN_POINT($,(-10.5,-16.25,17.2));
#811=CARTESIAN_POINT($,(-10.5,-16.25,17.1));
#812=CARTESIAN_POINT('Origin',(-10.5,-15.25,17.1));
#813=CARTESIAN_POINT('',(-11.5,-15.25,17.1));
#814=CARTESIAN_POINT('Origin',(-10.5,-15.25,17.1));
#815=CARTESIAN_POINT('',(-11.5,-15.25,17.2));
#816=CARTESIAN_POINT('Origin',(-10.5,-15.25,17.2));
#817=CARTESIAN_POINT($,(-11.5,-15.25,17.1));
#818=CARTESIAN_POINT('Origin',(-11.5,15.25,17.1));
#819=CARTESIAN_POINT('',(-11.5,15.25,17.1));
#820=CARTESIAN_POINT($,(-11.5,15.25,17.1));
#821=CARTESIAN_POINT('',(-11.5,15.25,17.2));
#822=CARTESIAN_POINT($,(-11.5,15.25,17.2));
#823=CARTESIAN_POINT($,(-11.5,15.25,17.1));
#824=CARTESIAN_POINT('Origin',(-10.5,15.25,17.1));
#825=CARTESIAN_POINT('',(-10.5,16.25,17.1));
#826=CARTESIAN_POINT('Origin',(-10.5,15.25,17.1));
#827=CARTESIAN_POINT('',(-10.5,16.25,17.2));
#828=CARTESIAN_POINT('Origin',(-10.5,15.25,17.2));
#829=CARTESIAN_POINT($,(-10.5,16.25,17.1));
#830=CARTESIAN_POINT('Origin',(10.5,16.25,17.1));
#831=CARTESIAN_POINT('',(10.5,16.25,17.1));
#832=CARTESIAN_POINT($,(10.5,16.25,17.1));
#833=CARTESIAN_POINT('',(10.5,16.25,17.2));
#834=CARTESIAN_POINT($,(10.5,16.25,17.2));
#835=CARTESIAN_POINT($,(10.5,16.25,17.1));
#836=CARTESIAN_POINT('Origin',(10.5,15.25,17.1));
#837=CARTESIAN_POINT('',(11.5,15.25,17.1));
#838=CARTESIAN_POINT('Origin',(10.5,15.25,17.1));
#839=CARTESIAN_POINT('',(11.5,15.25,17.2));
#840=CARTESIAN_POINT('Origin',(10.5,15.25,17.2));
#841=CARTESIAN_POINT($,(11.5,15.25,17.1));
#842=CARTESIAN_POINT('Origin',(11.5,-15.25,17.1));
#843=CARTESIAN_POINT($,(11.5,-15.25,17.1));
#844=CARTESIAN_POINT($,(11.5,-15.25,17.2));
#845=CARTESIAN_POINT('Origin',(-1.4210854715202E-14,-1.23687501703523E-16,
17.2));
#846=CARTESIAN_POINT('Origin',(-1.4210854715202E-14,-1.23687501703523E-16,
17.1));
#847=CARTESIAN_POINT('Origin',(-12.5,-18.25,0.));
#848=CARTESIAN_POINT('',(12.5,-18.25,0.));
#849=CARTESIAN_POINT('',(-12.5,-18.25,0.));
#850=CARTESIAN_POINT($,(12.5,-18.25,0.));
#851=CARTESIAN_POINT('',(12.5,-18.25,17.1));
#852=CARTESIAN_POINT($,(12.5,-18.25,0.));
#853=CARTESIAN_POINT('',(-12.5,-18.25,17.1));
#854=CARTESIAN_POINT($,(12.5,-18.25,17.1));
#855=CARTESIAN_POINT($,(-12.5,-18.25,0.));
#856=CARTESIAN_POINT('Origin',(-12.5,-17.25,0.));
#857=CARTESIAN_POINT('',(-13.5,-17.25,0.));
#858=CARTESIAN_POINT('Origin',(-12.5,-17.25,0.));
#859=CARTESIAN_POINT('',(-13.5,-17.25,17.1));
#860=CARTESIAN_POINT('Origin',(-12.5,-17.25,17.1));
#861=CARTESIAN_POINT($,(-13.5,-17.25,0.));
#862=CARTESIAN_POINT('Origin',(-13.5,17.25,0.));
#863=CARTESIAN_POINT('',(-13.5,17.25,0.));
#864=CARTESIAN_POINT($,(-13.5,-17.25,0.));
#865=CARTESIAN_POINT('',(-13.5,17.25,17.1));
#866=CARTESIAN_POINT($,(-13.5,-17.25,17.1));
#867=CARTESIAN_POINT($,(-13.5,17.25,0.));
#868=CARTESIAN_POINT('Origin',(-12.5,17.25,0.));
#869=CARTESIAN_POINT('',(-12.5,18.25,0.));
#870=CARTESIAN_POINT('Origin',(-12.5,17.25,0.));
#871=CARTESIAN_POINT('',(-12.5,18.25,17.1));
#872=CARTESIAN_POINT('Origin',(-12.5,17.25,17.1));
#873=CARTESIAN_POINT($,(-12.5,18.25,0.));
#874=CARTESIAN_POINT('Origin',(12.5,18.25,0.));
#875=CARTESIAN_POINT('',(12.5,18.25,0.));
#876=CARTESIAN_POINT($,(-12.5,18.25,0.));
#877=CARTESIAN_POINT('',(12.5,18.25,17.1));
#878=CARTESIAN_POINT($,(-12.5,18.25,17.1));
#879=CARTESIAN_POINT($,(12.5,18.25,0.));
#880=CARTESIAN_POINT('Origin',(12.5,17.25,0.));
#881=CARTESIAN_POINT('',(13.5,17.25,0.));
#882=CARTESIAN_POINT('Origin',(12.5,17.25,0.));
#883=CARTESIAN_POINT('',(13.5,17.25,17.1));
#884=CARTESIAN_POINT('Origin',(12.5,17.25,17.1));
#885=CARTESIAN_POINT($,(13.5,17.25,0.));
#886=CARTESIAN_POINT('Origin',(13.5,-17.25,0.));
#887=CARTESIAN_POINT('',(13.5,-17.25,0.));
#888=CARTESIAN_POINT($,(13.5,17.25,0.));
#889=CARTESIAN_POINT('',(13.5,-17.25,17.1));
#890=CARTESIAN_POINT($,(13.5,17.25,17.1));
#891=CARTESIAN_POINT($,(13.5,-17.25,0.));
#892=CARTESIAN_POINT('Origin',(12.5,-17.25,0.));
#893=CARTESIAN_POINT('Origin',(12.5,-17.25,0.));
#894=CARTESIAN_POINT('Origin',(12.5,-17.25,17.1));
#895=CARTESIAN_POINT('Origin',(0.,-1.50767008602994E-16,0.));
#896=CARTESIAN_POINT('Origin',(0.,-1.50767008602994E-16,17.1));
#897=CARTESIAN_POINT('Origin',(-10.5,14.5,-4.));
#898=CARTESIAN_POINT('',(-10.25,14.5,0.));
#899=CARTESIAN_POINT('Origin',(-10.5,14.5,0.));
#900=CARTESIAN_POINT('',(-10.25,14.5,-4.));
#901=CARTESIAN_POINT('Origin',(-10.5,14.5,-4.));
#902=CARTESIAN_POINT('Origin',(-10.5,14.5,0.));
#903=CARTESIAN_POINT('Origin',(-10.5,14.5,-4.));
#904=CARTESIAN_POINT('Origin',(-10.5,10.75,-4.));
#905=CARTESIAN_POINT('',(-10.25,10.75,0.));
#906=CARTESIAN_POINT('Origin',(-10.5,10.75,0.));
#907=CARTESIAN_POINT('',(-10.25,10.75,-4.));
#908=CARTESIAN_POINT('Origin',(-10.5,10.75,-4.));
#909=CARTESIAN_POINT('Origin',(-10.5,10.75,0.));
#910=CARTESIAN_POINT('Origin',(-10.5,10.75,-4.));
#911=CARTESIAN_POINT('Origin',(10.5,14.5,-4.));
#912=CARTESIAN_POINT('',(10.75,14.5,0.));
#913=CARTESIAN_POINT('Origin',(10.5,14.5,0.));
#914=CARTESIAN_POINT('',(10.75,14.5,-4.));
#915=CARTESIAN_POINT('Origin',(10.5,14.5,-4.));
#916=CARTESIAN_POINT('Origin',(10.5,14.5,0.));
#917=CARTESIAN_POINT('Origin',(10.5,14.5,-4.));
#918=CARTESIAN_POINT('Origin',(10.5,7.,-4.));
#919=CARTESIAN_POINT('',(10.75,7.,0.));
#920=CARTESIAN_POINT('Origin',(10.5,7.,0.));
#921=CARTESIAN_POINT('',(10.75,7.,-4.));
#922=CARTESIAN_POINT('Origin',(10.5,7.,-4.));
#923=CARTESIAN_POINT('Origin',(10.5,7.,0.));
#924=CARTESIAN_POINT('Origin',(10.5,7.,-4.));
#925=CARTESIAN_POINT('Origin',(10.5,-14.5,-4.));
#926=CARTESIAN_POINT('',(10.75,-14.5,0.));
#927=CARTESIAN_POINT('Origin',(10.5,-14.5,0.));
#928=CARTESIAN_POINT('',(10.75,-14.5,-4.));
#929=CARTESIAN_POINT('Origin',(10.5,-14.5,-4.));
#930=CARTESIAN_POINT('Origin',(10.5,-14.5,0.));
#931=CARTESIAN_POINT('Origin',(10.5,-14.5,-4.));
#932=CARTESIAN_POINT('Origin',(-10.5,-14.5,-4.));
#933=CARTESIAN_POINT('',(-10.25,-14.5,0.));
#934=CARTESIAN_POINT('Origin',(-10.5,-14.5,0.));
#935=CARTESIAN_POINT('',(-10.25,-14.5,-4.));
#936=CARTESIAN_POINT('Origin',(-10.5,-14.5,-4.));
#937=CARTESIAN_POINT('Origin',(-10.5,-14.5,0.));
#938=CARTESIAN_POINT('Origin',(-10.5,-14.5,-4.));
#939=CARTESIAN_POINT('Origin',(-10.5,7.,0.));
#940=CARTESIAN_POINT('',(-10.75,7.,-4.));
#941=CARTESIAN_POINT('Origin',(-10.5,7.,-4.));
#942=CARTESIAN_POINT('',(-10.75,7.,0.));
#943=CARTESIAN_POINT('Origin',(-10.5,7.,0.));
#944=CARTESIAN_POINT('Origin',(-10.5,7.,-4.));
#945=CARTESIAN_POINT('Origin',(-10.5,7.,0.));
#946=UNCERTAINTY_MEASURE_WITH_UNIT(LENGTH_MEASURE(0.01),#950,
'DISTANCE_ACCURACY_VALUE',
'Maximum model space distance between geometric entities at asserted c
onnectivities');
#947=UNCERTAINTY_MEASURE_WITH_UNIT(LENGTH_MEASURE(1.E-6),#950,
'DISTANCE_ACCURACY_VALUE',
'Maximum model space distance between geometric entities at asserted c
onnectivities');
#948=(
GEOMETRIC_REPRESENTATION_CONTEXT(3)
GLOBAL_UNCERTAINTY_ASSIGNED_CONTEXT((#946))
GLOBAL_UNIT_ASSIGNED_CONTEXT((#950,#952,#951))
REPRESENTATION_CONTEXT('','3D')
);
#949=(
GEOMETRIC_REPRESENTATION_CONTEXT(3)
GLOBAL_UNCERTAINTY_ASSIGNED_CONTEXT((#947))
GLOBAL_UNIT_ASSIGNED_CONTEXT((#950,#12,#951))
REPRESENTATION_CONTEXT('','3D')
);
#950=(
LENGTH_UNIT()
NAMED_UNIT(*)
SI_UNIT(.MILLI.,.METRE.)
);
#951=(
NAMED_UNIT(*)
SI_UNIT($,.STERADIAN.)
SOLID_ANGLE_UNIT()
);
#952=(
NAMED_UNIT(*)
PLANE_ANGLE_UNIT()
SI_UNIT($,.RADIAN.)
);
#953=SHAPE_DEFINITION_REPRESENTATION(#954,#955);
#954=PRODUCT_DEFINITION_SHAPE('',$,#957);
#955=SHAPE_REPRESENTATION('',(#548),#948);
#956=PRODUCT_DEFINITION_CONTEXT('part definition',#961,'design');
#957=PRODUCT_DEFINITION('Product','Product',#958,#956);
#958=PRODUCT_DEFINITION_FORMATION('',$,#963);
#959=PRODUCT_RELATED_PRODUCT_CATEGORY('Product','Product',(#963));
#960=APPLICATION_PROTOCOL_DEFINITION('international standard',
'automotive_design',2009,#961);
#961=APPLICATION_CONTEXT(
'Core Data for Automotive Mechanical Design Process');
#962=PRODUCT_CONTEXT('part definition',#961,'mechanical');
#963=PRODUCT('Product','Product',$,(#962));
#964=PRESENTATION_STYLE_ASSIGNMENT((#968));
#965=PRESENTATION_STYLE_ASSIGNMENT((#969));
#966=PRESENTATION_STYLE_ASSIGNMENT((#970));
#967=PRESENTATION_STYLE_ASSIGNMENT((#971));
#968=SURFACE_STYLE_USAGE(.BOTH.,#972);
#969=SURFACE_STYLE_USAGE(.BOTH.,#973);
#970=SURFACE_STYLE_USAGE(.BOTH.,#974);
#971=SURFACE_STYLE_USAGE(.BOTH.,#975);
#972=SURFACE_SIDE_STYLE($,(#976));
#973=SURFACE_SIDE_STYLE($,(#977));
#974=SURFACE_SIDE_STYLE($,(#978));
#975=SURFACE_SIDE_STYLE($,(#979));
#976=SURFACE_STYLE_FILL_AREA(#980);
#977=SURFACE_STYLE_FILL_AREA(#981);
#978=SURFACE_STYLE_FILL_AREA(#982);
#979=SURFACE_STYLE_FILL_AREA(#983);
#980=FILL_AREA_STYLE($,(#984));
#981=FILL_AREA_STYLE($,(#985));
#982=FILL_AREA_STYLE($,(#986));
#983=FILL_AREA_STYLE($,(#987));
#984=FILL_AREA_STYLE_COLOUR($,#988);
#985=FILL_AREA_STYLE_COLOUR($,#989);
#986=FILL_AREA_STYLE_COLOUR($,#990);
#987=FILL_AREA_STYLE_COLOUR($,#991);
#988=COLOUR_RGB('',1.,1.,1.);
#989=COLOUR_RGB('',1.,0.,0.501960784313725);
#990=COLOUR_RGB('',0.329411764705882,0.329411764705882,0.329411764705882);
#991=COLOUR_RGB('',0.866666666666667,0.866666666666667,0.866666666666667);
ENDSEC;
END-ISO-10303-21;
