ISO-10303-21;
HEADER;
/****************************************************************
 * Generated by software with PDE/Lib inside                    *
 * PDElib Version v51a, created Mon 11/03/2008                  *
 * International Technegroup Inc. (www.iti-oh.com)              *
 ****************************************************************/
FILE_DESCRIPTION((''),'2;1');
FILE_NAME('REL_NTE_R24-5D10-24.stp','2010-09-30T15:25:06',(''),(''),'Mechanical Desktop 2010','Mechanical Desktop 2010',', , ');
FILE_SCHEMA(('AUTOMOTIVE_DESIGN { 1 2 10303 214 1 1 1 1 }'));
ENDSEC;
DATA;
#8=(NAMED_UNIT(*)PLANE_ANGLE_UNIT()SI_UNIT($,.RADIAN.));
#9=DIMENSIONAL_EXPONENTS(0.0,0.0,0.0,0.0,0.0,0.0,0.0);
#10=PLANE_ANGLE_MEASURE_WITH_UNIT(PLANE_ANGLE_MEASURE(0.017453292500000),#8);
#14=(CONVERSION_BASED_UNIT('DEGREE',#10)NAMED_UNIT(#9)PLANE_ANGLE_UNIT());
#18=(NAMED_UNIT(*)SI_UNIT($,.STERADIAN.)SOLID_ANGLE_UNIT());
#22=(LENGTH_UNIT()NAMED_UNIT(*)SI_UNIT(.MILLI.,.METRE.));
#23=UNCERTAINTY_MEASURE_WITH_UNIT(LENGTH_MEASURE(0.000001000000000),#22,'DISTANCE_ACCURACY_VALUE','');
#28=(GEOMETRIC_REPRESENTATION_CONTEXT(3)GLOBAL_UNCERTAINTY_ASSIGNED_CONTEXT((#23))GLOBAL_UNIT_ASSIGNED_CONTEXT((#14,#18,#22))REPRESENTATION_CONTEXT('None','None'));
#29=APPLICATION_CONTEXT('automotive design');
#30=APPLICATION_PROTOCOL_DEFINITION('INTERNATIONAL_STANDARD','automotive_design',1998,#29);
#31=PRODUCT_CONTEXT('3D Mechanical Parts',#29,'mechanical');
#32=PRODUCT('Product','Product','',(#31));
#33=PRODUCT_RELATED_PRODUCT_CATEGORY('part',$,(#32));
#34=PRODUCT_CATEGORY('part',$);
#35=PERSON('1','Design','Joe',$,$,$);
#36=ORGANIZATION($,'None','None');
#37=PERSON_AND_ORGANIZATION(#35,#36);
#38=PERSON_AND_ORGANIZATION_ROLE('design_owner');
#39=APPLIED_PERSON_AND_ORGANIZATION_ASSIGNMENT(#37,#38,(#32));
#40=PRODUCT_DEFINITION_FORMATION_WITH_SPECIFIED_SOURCE('None','',#32,.BOUGHT.);
#41=PERSON('2','Creator','Joe',$,$,$);
#42=ORGANIZATION($,'None','None');
#43=PERSON_AND_ORGANIZATION(#41,#42);
#44=PERSON_AND_ORGANIZATION_ROLE('creator');
#45=APPLIED_PERSON_AND_ORGANIZATION_ASSIGNMENT(#43,#44,(#40));
#46=PERSON('3','Supplier','Joe',$,$,$);
#47=ORGANIZATION($,'None','None');
#48=PERSON_AND_ORGANIZATION(#46,#47);
#49=PERSON_AND_ORGANIZATION_ROLE('design_supplier');
#50=APPLIED_PERSON_AND_ORGANIZATION_ASSIGNMENT(#48,#49,(#40));
#51=PRODUCT_DEFINITION_CONTEXT('part definition',#29,'design');
#52=PRODUCT_DEFINITION('None','',#40,#51);
#53=PERSON('4','Creator','Joe',$,$,$);
#54=ORGANIZATION($,'None','None');
#55=PERSON_AND_ORGANIZATION(#53,#54);
#56=PERSON_AND_ORGANIZATION_ROLE('creator');
#57=APPLIED_PERSON_AND_ORGANIZATION_ASSIGNMENT(#55,#56,(#52));
#58=CARTESIAN_POINT('NONE',(0.0,0.0,0.0));
#59=DIRECTION('NONE',(0.0,0.0,1.0));
#60=DIRECTION('NONE',(1.0,0.0,0.0));
#61=AXIS2_PLACEMENT_3D('NONE',#58,#59,#60);
#62=SHAPE_REPRESENTATION('SR1',(#61),#28);
#63=PRODUCT_DEFINITION_SHAPE('PDS1','Test Part',#52);
#64=SHAPE_DEFINITION_REPRESENTATION(#63,#62);
#65=CARTESIAN_POINT('',(6.370000000000001,4.309999999999997,0.0));
#66=DIRECTION('',(0.0,1.0,0.0));
#67=DIRECTION('',(0.0,0.0,1.0));
#68=AXIS2_PLACEMENT_3D('',#65,#66,#67);
#69=PLANE('',#68);
#70=CARTESIAN_POINT('',(6.370000000000001,4.309999999999997,-3.800000000000000));
#71=VERTEX_POINT('',#70);
#72=CARTESIAN_POINT('',(5.770000000000000,4.309999999999997,-3.800000000000000));
#73=VERTEX_POINT('',#72);
#74=CARTESIAN_POINT('',(6.370000000000001,4.309999999999997,-3.800000000000000));
#75=DIRECTION('',(-1.0,0.0,0.0));
#76=VECTOR('',#75,0.600000000000001);
#77=LINE('',#74,#76);
#78=EDGE_CURVE('',#71,#73,#77,.T.);
#79=ORIENTED_EDGE('',*,*,#78,.T.);
#80=CARTESIAN_POINT('',(5.770000000000000,4.309999999999997,0.0));
#81=VERTEX_POINT('',#80);
#82=CARTESIAN_POINT('',(5.770000000000000,4.309999999999997,0.0));
#83=DIRECTION('',(0.0,0.0,-1.0));
#84=VECTOR('',#83,3.800000000000000);
#85=LINE('',#82,#84);
#86=EDGE_CURVE('',#81,#73,#85,.T.);
#87=ORIENTED_EDGE('',*,*,#86,.F.);
#88=CARTESIAN_POINT('',(6.370000000000001,4.309999999999997,0.0));
#89=VERTEX_POINT('',#88);
#90=CARTESIAN_POINT('',(6.370000000000001,4.309999999999997,0.0));
#91=DIRECTION('',(-1.0,0.0,0.0));
#92=VECTOR('',#91,0.600000000000001);
#93=LINE('',#90,#92);
#94=EDGE_CURVE('',#89,#81,#93,.T.);
#95=ORIENTED_EDGE('',*,*,#94,.F.);
#96=CARTESIAN_POINT('',(6.370000000000001,4.309999999999997,0.0));
#97=DIRECTION('',(0.0,0.0,-1.0));
#98=VECTOR('',#97,3.800000000000000);
#99=LINE('',#96,#98);
#100=EDGE_CURVE('',#89,#71,#99,.T.);
#101=ORIENTED_EDGE('',*,*,#100,.T.);
#102=EDGE_LOOP('',(#79,#87,#95,#101));
#103=FACE_OUTER_BOUND('',#102,.T.);
#104=ADVANCED_FACE('',(#103),#69,.T.);
#105=CARTESIAN_POINT('',(5.770000000000000,4.309999999999997,0.0));
#106=DIRECTION('',(-1.0,0.0,0.0));
#107=DIRECTION('',(0.0,0.0,1.0));
#108=AXIS2_PLACEMENT_3D('',#105,#106,#107);
#109=PLANE('',#108);
#110=CARTESIAN_POINT('',(5.770000000000000,3.309999999999997,-3.800000000000000));
#111=VERTEX_POINT('',#110);
#112=CARTESIAN_POINT('',(5.770000000000000,4.309999999999997,-3.800000000000000));
#113=DIRECTION('',(0.0,-1.0,0.0));
#114=VECTOR('',#113,1.000000000000001);
#115=LINE('',#112,#114);
#116=EDGE_CURVE('',#73,#111,#115,.T.);
#117=ORIENTED_EDGE('',*,*,#116,.T.);
#118=CARTESIAN_POINT('',(5.770000000000000,3.309999999999997,0.0));
#119=VERTEX_POINT('',#118);
#120=CARTESIAN_POINT('',(5.770000000000000,3.309999999999997,0.0));
#121=DIRECTION('',(0.0,0.0,-1.0));
#122=VECTOR('',#121,3.800000000000000);
#123=LINE('',#120,#122);
#124=EDGE_CURVE('',#119,#111,#123,.T.);
#125=ORIENTED_EDGE('',*,*,#124,.F.);
#126=CARTESIAN_POINT('',(5.770000000000000,4.309999999999997,0.0));
#127=DIRECTION('',(0.0,-1.0,0.0));
#128=VECTOR('',#127,1.000000000000001);
#129=LINE('',#126,#128);
#130=EDGE_CURVE('',#81,#119,#129,.T.);
#131=ORIENTED_EDGE('',*,*,#130,.F.);
#132=ORIENTED_EDGE('',*,*,#86,.T.);
#133=EDGE_LOOP('',(#117,#125,#131,#132));
#134=FACE_OUTER_BOUND('',#133,.T.);
#135=ADVANCED_FACE('',(#134),#109,.T.);
#136=CARTESIAN_POINT('',(5.770000000000000,3.309999999999997,0.0));
#137=DIRECTION('',(0.0,-1.0,0.0));
#138=DIRECTION('',(0.0,0.0,-1.0));
#139=AXIS2_PLACEMENT_3D('',#136,#137,#138);
#140=PLANE('',#139);
#141=CARTESIAN_POINT('',(6.370000000000001,3.309999999999997,-3.800000000000000));
#142=VERTEX_POINT('',#141);
#143=CARTESIAN_POINT('',(5.770000000000000,3.309999999999997,-3.800000000000000));
#144=DIRECTION('',(1.0,0.0,0.0));
#145=VECTOR('',#144,0.600000000000001);
#146=LINE('',#143,#145);
#147=EDGE_CURVE('',#111,#142,#146,.T.);
#148=ORIENTED_EDGE('',*,*,#147,.T.);
#149=CARTESIAN_POINT('',(6.370000000000001,3.309999999999997,0.0));
#150=VERTEX_POINT('',#149);
#151=CARTESIAN_POINT('',(6.370000000000001,3.309999999999997,0.0));
#152=DIRECTION('',(0.0,0.0,-1.0));
#153=VECTOR('',#152,3.800000000000000);
#154=LINE('',#151,#153);
#155=EDGE_CURVE('',#150,#142,#154,.T.);
#156=ORIENTED_EDGE('',*,*,#155,.F.);
#157=CARTESIAN_POINT('',(5.770000000000000,3.309999999999997,0.0));
#158=DIRECTION('',(1.0,0.0,0.0));
#159=VECTOR('',#158,0.600000000000001);
#160=LINE('',#157,#159);
#161=EDGE_CURVE('',#119,#150,#160,.T.);
#162=ORIENTED_EDGE('',*,*,#161,.F.);
#163=ORIENTED_EDGE('',*,*,#124,.T.);
#164=EDGE_LOOP('',(#148,#156,#162,#163));
#165=FACE_OUTER_BOUND('',#164,.T.);
#166=ADVANCED_FACE('',(#165),#140,.T.);
#167=CARTESIAN_POINT('',(6.370000000000001,3.309999999999997,0.0));
#168=DIRECTION('',(1.0,0.0,0.0));
#169=DIRECTION('',(0.0,0.0,-1.0));
#170=AXIS2_PLACEMENT_3D('',#167,#168,#169);
#171=PLANE('',#170);
#172=CARTESIAN_POINT('',(6.370000000000001,3.309999999999997,-3.800000000000000));
#173=DIRECTION('',(0.0,1.0,0.0));
#174=VECTOR('',#173,1.000000000000000);
#175=LINE('',#172,#174);
#176=EDGE_CURVE('',#142,#71,#175,.T.);
#177=ORIENTED_EDGE('',*,*,#176,.T.);
#178=ORIENTED_EDGE('',*,*,#100,.F.);
#179=CARTESIAN_POINT('',(6.370000000000001,3.309999999999997,0.0));
#180=DIRECTION('',(0.0,1.0,0.0));
#181=VECTOR('',#180,1.000000000000000);
#182=LINE('',#179,#181);
#183=EDGE_CURVE('',#150,#89,#182,.T.);
#184=ORIENTED_EDGE('',*,*,#183,.F.);
#185=ORIENTED_EDGE('',*,*,#155,.T.);
#186=EDGE_LOOP('',(#177,#178,#184,#185));
#187=FACE_OUTER_BOUND('',#186,.T.);
#188=ADVANCED_FACE('',(#187),#171,.T.);
#189=CARTESIAN_POINT('',(6.070000000000000,3.809999999999997,-3.800000000000000));
#190=DIRECTION('',(0.0,0.0,1.0));
#191=DIRECTION('',(1.0,0.0,0.0));
#192=AXIS2_PLACEMENT_3D('',#189,#190,#191);
#193=PLANE('',#192);
#194=ORIENTED_EDGE('',*,*,#78,.F.);
#195=ORIENTED_EDGE('',*,*,#176,.F.);
#196=ORIENTED_EDGE('',*,*,#147,.F.);
#197=ORIENTED_EDGE('',*,*,#116,.F.);
#198=EDGE_LOOP('',(#194,#195,#196,#197));
#199=FACE_OUTER_BOUND('',#198,.T.);
#200=ADVANCED_FACE('',(#199),#193,.F.);
#201=CARTESIAN_POINT('',(6.070000000000000,3.809999999999997,0.0));
#202=DIRECTION('',(0.0,0.0,1.0));
#203=DIRECTION('',(1.0,0.0,0.0));
#204=AXIS2_PLACEMENT_3D('',#201,#202,#203);
#205=PLANE('',#204);
#206=ORIENTED_EDGE('',*,*,#183,.T.);
#207=ORIENTED_EDGE('',*,*,#94,.T.);
#208=ORIENTED_EDGE('',*,*,#130,.T.);
#209=ORIENTED_EDGE('',*,*,#161,.T.);
#210=EDGE_LOOP('',(#206,#207,#208,#209));
#211=FACE_OUTER_BOUND('',#210,.T.);
#212=ADVANCED_FACE('',(#211),#205,.T.);
#213=CLOSED_SHELL('',(#104,#135,#166,#188,#200,#212));
#214=MANIFOLD_SOLID_BREP('938',#213);
#215=COLOUR_RGB('253',0.732000000000000,0.732000000000000,0.732000000000000);
#216=SURFACE_STYLE_USAGE(.BOTH.,#217);
#217=SURFACE_SIDE_STYLE('NONE',(#218));
#218=SURFACE_STYLE_FILL_AREA(#219);
#219=FILL_AREA_STYLE('NONE',(#220));
#220=FILL_AREA_STYLE_COLOUR('NONE',#215);
#221=PRESENTATION_STYLE_ASSIGNMENT((#216));
#222=STYLED_ITEM('NONE',(#221),#214);
#223=MECHANICAL_DESIGN_GEOMETRIC_PRESENTATION_REPRESENTATION('NONE',(#222,#375,#526,#677,#828,#1290),#28);
#224=PRESENTATION_LAYER_ASSIGNMENT('3D','None',(#214,#374,#525,#676,#827,#1282));
#225=CARTESIAN_POINT('',(11.449999999999999,4.309999999999995,0.0));
#226=DIRECTION('',(0.0,1.0,0.0));
#227=DIRECTION('',(0.0,0.0,1.0));
#228=AXIS2_PLACEMENT_3D('',#225,#226,#227);
#229=PLANE('',#228);
#230=CARTESIAN_POINT('',(11.449999999999999,4.309999999999995,-3.800000000000000));
#231=VERTEX_POINT('',#230);
#232=CARTESIAN_POINT('',(10.849999999999998,4.309999999999995,-3.800000000000000));
#233=VERTEX_POINT('',#232);
#234=CARTESIAN_POINT('',(11.449999999999999,4.309999999999995,-3.800000000000000));
#235=DIRECTION('',(-1.0,0.0,0.0));
#236=VECTOR('',#235,0.600000000000001);
#237=LINE('',#234,#236);
#238=EDGE_CURVE('',#231,#233,#237,.T.);
#239=ORIENTED_EDGE('',*,*,#238,.T.);
#240=CARTESIAN_POINT('',(10.849999999999998,4.309999999999995,0.0));
#241=VERTEX_POINT('',#240);
#242=CARTESIAN_POINT('',(10.849999999999998,4.309999999999995,0.0));
#243=DIRECTION('',(0.0,0.0,-1.0));
#244=VECTOR('',#243,3.800000000000000);
#245=LINE('',#242,#244);
#246=EDGE_CURVE('',#241,#233,#245,.T.);
#247=ORIENTED_EDGE('',*,*,#246,.F.);
#248=CARTESIAN_POINT('',(11.449999999999999,4.309999999999995,0.0));
#249=VERTEX_POINT('',#248);
#250=CARTESIAN_POINT('',(11.449999999999999,4.309999999999995,0.0));
#251=DIRECTION('',(-1.0,0.0,0.0));
#252=VECTOR('',#251,0.600000000000001);
#253=LINE('',#250,#252);
#254=EDGE_CURVE('',#249,#241,#253,.T.);
#255=ORIENTED_EDGE('',*,*,#254,.F.);
#256=CARTESIAN_POINT('',(11.449999999999999,4.309999999999995,0.0));
#257=DIRECTION('',(0.0,0.0,-1.0));
#258=VECTOR('',#257,3.800000000000000);
#259=LINE('',#256,#258);
#260=EDGE_CURVE('',#249,#231,#259,.T.);
#261=ORIENTED_EDGE('',*,*,#260,.T.);
#262=EDGE_LOOP('',(#239,#247,#255,#261));
#263=FACE_OUTER_BOUND('',#262,.T.);
#264=ADVANCED_FACE('',(#263),#229,.T.);
#265=CARTESIAN_POINT('',(10.849999999999998,4.309999999999995,0.0));
#266=DIRECTION('',(-1.0,0.0,0.0));
#267=DIRECTION('',(0.0,0.0,1.0));
#268=AXIS2_PLACEMENT_3D('',#265,#266,#267);
#269=PLANE('',#268);
#270=CARTESIAN_POINT('',(10.849999999999998,3.309999999999995,-3.800000000000000));
#271=VERTEX_POINT('',#270);
#272=CARTESIAN_POINT('',(10.849999999999998,4.309999999999995,-3.800000000000000));
#273=DIRECTION('',(0.0,-1.0,0.0));
#274=VECTOR('',#273,1.0);
#275=LINE('',#272,#274);
#276=EDGE_CURVE('',#233,#271,#275,.T.);
#277=ORIENTED_EDGE('',*,*,#276,.T.);
#278=CARTESIAN_POINT('',(10.849999999999998,3.309999999999995,0.0));
#279=VERTEX_POINT('',#278);
#280=CARTESIAN_POINT('',(10.849999999999998,3.309999999999995,0.0));
#281=DIRECTION('',(0.0,0.0,-1.0));
#282=VECTOR('',#281,3.800000000000000);
#283=LINE('',#280,#282);
#284=EDGE_CURVE('',#279,#271,#283,.T.);
#285=ORIENTED_EDGE('',*,*,#284,.F.);
#286=CARTESIAN_POINT('',(10.849999999999998,4.309999999999995,0.0));
#287=DIRECTION('',(0.0,-1.0,0.0));
#288=VECTOR('',#287,1.0);
#289=LINE('',#286,#288);
#290=EDGE_CURVE('',#241,#279,#289,.T.);
#291=ORIENTED_EDGE('',*,*,#290,.F.);
#292=ORIENTED_EDGE('',*,*,#246,.T.);
#293=EDGE_LOOP('',(#277,#285,#291,#292));
#294=FACE_OUTER_BOUND('',#293,.T.);
#295=ADVANCED_FACE('',(#294),#269,.T.);
#296=CARTESIAN_POINT('',(10.849999999999998,3.309999999999995,0.0));
#297=DIRECTION('',(0.0,-1.0,0.0));
#298=DIRECTION('',(0.0,0.0,-1.0));
#299=AXIS2_PLACEMENT_3D('',#296,#297,#298);
#300=PLANE('',#299);
#301=CARTESIAN_POINT('',(11.449999999999999,3.309999999999995,-3.800000000000000));
#302=VERTEX_POINT('',#301);
#303=CARTESIAN_POINT('',(10.849999999999998,3.309999999999995,-3.800000000000000));
#304=DIRECTION('',(1.0,0.0,0.0));
#305=VECTOR('',#304,0.600000000000001);
#306=LINE('',#303,#305);
#307=EDGE_CURVE('',#271,#302,#306,.T.);
#308=ORIENTED_EDGE('',*,*,#307,.T.);
#309=CARTESIAN_POINT('',(11.449999999999999,3.309999999999995,0.0));
#310=VERTEX_POINT('',#309);
#311=CARTESIAN_POINT('',(11.449999999999999,3.309999999999995,0.0));
#312=DIRECTION('',(0.0,0.0,-1.0));
#313=VECTOR('',#312,3.800000000000000);
#314=LINE('',#311,#313);
#315=EDGE_CURVE('',#310,#302,#314,.T.);
#316=ORIENTED_EDGE('',*,*,#315,.F.);
#317=CARTESIAN_POINT('',(10.849999999999998,3.309999999999995,0.0));
#318=DIRECTION('',(1.0,0.0,0.0));
#319=VECTOR('',#318,0.600000000000001);
#320=LINE('',#317,#319);
#321=EDGE_CURVE('',#279,#310,#320,.T.);
#322=ORIENTED_EDGE('',*,*,#321,.F.);
#323=ORIENTED_EDGE('',*,*,#284,.T.);
#324=EDGE_LOOP('',(#308,#316,#322,#323));
#325=FACE_OUTER_BOUND('',#324,.T.);
#326=ADVANCED_FACE('',(#325),#300,.T.);
#327=CARTESIAN_POINT('',(11.449999999999999,3.309999999999995,0.0));
#328=DIRECTION('',(1.0,0.0,0.0));
#329=DIRECTION('',(0.0,0.0,-1.0));
#330=AXIS2_PLACEMENT_3D('',#327,#328,#329);
#331=PLANE('',#330);
#332=CARTESIAN_POINT('',(11.449999999999999,3.309999999999995,-3.800000000000000));
#333=DIRECTION('',(0.0,1.0,0.0));
#334=VECTOR('',#333,1.0);
#335=LINE('',#332,#334);
#336=EDGE_CURVE('',#302,#231,#335,.T.);
#337=ORIENTED_EDGE('',*,*,#336,.T.);
#338=ORIENTED_EDGE('',*,*,#260,.F.);
#339=CARTESIAN_POINT('',(11.449999999999999,3.309999999999995,0.0));
#340=DIRECTION('',(0.0,1.0,0.0));
#341=VECTOR('',#340,1.0);
#342=LINE('',#339,#341);
#343=EDGE_CURVE('',#310,#249,#342,.T.);
#344=ORIENTED_EDGE('',*,*,#343,.F.);
#345=ORIENTED_EDGE('',*,*,#315,.T.);
#346=EDGE_LOOP('',(#337,#338,#344,#345));
#347=FACE_OUTER_BOUND('',#346,.T.);
#348=ADVANCED_FACE('',(#347),#331,.T.);
#349=CARTESIAN_POINT('',(11.149999999999999,3.809999999999995,-3.800000000000000));
#350=DIRECTION('',(0.0,0.0,1.0));
#351=DIRECTION('',(1.0,0.0,0.0));
#352=AXIS2_PLACEMENT_3D('',#349,#350,#351);
#353=PLANE('',#352);
#354=ORIENTED_EDGE('',*,*,#238,.F.);
#355=ORIENTED_EDGE('',*,*,#336,.F.);
#356=ORIENTED_EDGE('',*,*,#307,.F.);
#357=ORIENTED_EDGE('',*,*,#276,.F.);
#358=EDGE_LOOP('',(#354,#355,#356,#357));
#359=FACE_OUTER_BOUND('',#358,.T.);
#360=ADVANCED_FACE('',(#359),#353,.F.);
#361=CARTESIAN_POINT('',(11.149999999999999,3.809999999999995,0.0));
#362=DIRECTION('',(0.0,0.0,1.0));
#363=DIRECTION('',(1.0,0.0,0.0));
#364=AXIS2_PLACEMENT_3D('',#361,#362,#363);
#365=PLANE('',#364);
#366=ORIENTED_EDGE('',*,*,#343,.T.);
#367=ORIENTED_EDGE('',*,*,#254,.T.);
#368=ORIENTED_EDGE('',*,*,#290,.T.);
#369=ORIENTED_EDGE('',*,*,#321,.T.);
#370=EDGE_LOOP('',(#366,#367,#368,#369));
#371=FACE_OUTER_BOUND('',#370,.T.);
#372=ADVANCED_FACE('',(#371),#365,.T.);
#373=CLOSED_SHELL('',(#264,#295,#326,#348,#360,#372));
#374=MANIFOLD_SOLID_BREP('934',#373);
#375=STYLED_ITEM('NONE',(#221),#374);
#376=CARTESIAN_POINT('',(8.910000000000000,-3.310000000000003,0.0));
#377=DIRECTION('',(0.0,1.0,0.0));
#378=DIRECTION('',(0.0,0.0,1.0));
#379=AXIS2_PLACEMENT_3D('',#376,#377,#378);
#380=PLANE('',#379);
#381=CARTESIAN_POINT('',(8.910000000000000,-3.310000000000003,-3.800000000000000));
#382=VERTEX_POINT('',#381);
#383=CARTESIAN_POINT('',(8.309999999999999,-3.310000000000003,-3.800000000000000));
#384=VERTEX_POINT('',#383);
#385=CARTESIAN_POINT('',(8.910000000000000,-3.310000000000003,-3.800000000000000));
#386=DIRECTION('',(-1.0,0.0,0.0));
#387=VECTOR('',#386,0.600000000000001);
#388=LINE('',#385,#387);
#389=EDGE_CURVE('',#382,#384,#388,.T.);
#390=ORIENTED_EDGE('',*,*,#389,.T.);
#391=CARTESIAN_POINT('',(8.309999999999999,-3.310000000000003,0.0));
#392=VERTEX_POINT('',#391);
#393=CARTESIAN_POINT('',(8.309999999999999,-3.310000000000003,0.0));
#394=DIRECTION('',(0.0,0.0,-1.0));
#395=VECTOR('',#394,3.800000000000000);
#396=LINE('',#393,#395);
#397=EDGE_CURVE('',#392,#384,#396,.T.);
#398=ORIENTED_EDGE('',*,*,#397,.F.);
#399=CARTESIAN_POINT('',(8.910000000000000,-3.310000000000003,0.0));
#400=VERTEX_POINT('',#399);
#401=CARTESIAN_POINT('',(8.910000000000000,-3.310000000000003,0.0));
#402=DIRECTION('',(-1.0,0.0,0.0));
#403=VECTOR('',#402,0.600000000000001);
#404=LINE('',#401,#403);
#405=EDGE_CURVE('',#400,#392,#404,.T.);
#406=ORIENTED_EDGE('',*,*,#405,.F.);
#407=CARTESIAN_POINT('',(8.910000000000000,-3.310000000000003,0.0));
#408=DIRECTION('',(0.0,0.0,-1.0));
#409=VECTOR('',#408,3.800000000000000);
#410=LINE('',#407,#409);
#411=EDGE_CURVE('',#400,#382,#410,.T.);
#412=ORIENTED_EDGE('',*,*,#411,.T.);
#413=EDGE_LOOP('',(#390,#398,#406,#412));
#414=FACE_OUTER_BOUND('',#413,.T.);
#415=ADVANCED_FACE('',(#414),#380,.T.);
#416=CARTESIAN_POINT('',(8.309999999999999,-3.310000000000003,0.0));
#417=DIRECTION('',(-1.0,0.0,0.0));
#418=DIRECTION('',(0.0,0.0,1.0));
#419=AXIS2_PLACEMENT_3D('',#416,#417,#418);
#420=PLANE('',#419);
#421=CARTESIAN_POINT('',(8.309999999999999,-4.310000000000003,-3.800000000000000));
#422=VERTEX_POINT('',#421);
#423=CARTESIAN_POINT('',(8.309999999999999,-3.310000000000003,-3.800000000000000));
#424=DIRECTION('',(0.0,-1.0,0.0));
#425=VECTOR('',#424,1.0);
#426=LINE('',#423,#425);
#427=EDGE_CURVE('',#384,#422,#426,.T.);
#428=ORIENTED_EDGE('',*,*,#427,.T.);
#429=CARTESIAN_POINT('',(8.309999999999999,-4.310000000000003,0.0));
#430=VERTEX_POINT('',#429);
#431=CARTESIAN_POINT('',(8.309999999999999,-4.310000000000003,0.0));
#432=DIRECTION('',(0.0,0.0,-1.0));
#433=VECTOR('',#432,3.800000000000000);
#434=LINE('',#431,#433);
#435=EDGE_CURVE('',#430,#422,#434,.T.);
#436=ORIENTED_EDGE('',*,*,#435,.F.);
#437=CARTESIAN_POINT('',(8.309999999999999,-3.310000000000003,0.0));
#438=DIRECTION('',(0.0,-1.0,0.0));
#439=VECTOR('',#438,1.0);
#440=LINE('',#437,#439);
#441=EDGE_CURVE('',#392,#430,#440,.T.);
#442=ORIENTED_EDGE('',*,*,#441,.F.);
#443=ORIENTED_EDGE('',*,*,#397,.T.);
#444=EDGE_LOOP('',(#428,#436,#442,#443));
#445=FACE_OUTER_BOUND('',#444,.T.);
#446=ADVANCED_FACE('',(#445),#420,.T.);
#447=CARTESIAN_POINT('',(8.309999999999999,-4.310000000000003,0.0));
#448=DIRECTION('',(0.0,-1.0,0.0));
#449=DIRECTION('',(0.0,0.0,-1.0));
#450=AXIS2_PLACEMENT_3D('',#447,#448,#449);
#451=PLANE('',#450);
#452=CARTESIAN_POINT('',(8.910000000000000,-4.310000000000003,-3.800000000000000));
#453=VERTEX_POINT('',#452);
#454=CARTESIAN_POINT('',(8.309999999999999,-4.310000000000003,-3.800000000000000));
#455=DIRECTION('',(1.0,0.0,0.0));
#456=VECTOR('',#455,0.600000000000001);
#457=LINE('',#454,#456);
#458=EDGE_CURVE('',#422,#453,#457,.T.);
#459=ORIENTED_EDGE('',*,*,#458,.T.);
#460=CARTESIAN_POINT('',(8.910000000000000,-4.310000000000003,0.0));
#461=VERTEX_POINT('',#460);
#462=CARTESIAN_POINT('',(8.910000000000000,-4.310000000000003,0.0));
#463=DIRECTION('',(0.0,0.0,-1.0));
#464=VECTOR('',#463,3.800000000000000);
#465=LINE('',#462,#464);
#466=EDGE_CURVE('',#461,#453,#465,.T.);
#467=ORIENTED_EDGE('',*,*,#466,.F.);
#468=CARTESIAN_POINT('',(8.309999999999999,-4.310000000000003,0.0));
#469=DIRECTION('',(1.0,0.0,0.0));
#470=VECTOR('',#469,0.600000000000001);
#471=LINE('',#468,#470);
#472=EDGE_CURVE('',#430,#461,#471,.T.);
#473=ORIENTED_EDGE('',*,*,#472,.F.);
#474=ORIENTED_EDGE('',*,*,#435,.T.);
#475=EDGE_LOOP('',(#459,#467,#473,#474));
#476=FACE_OUTER_BOUND('',#475,.T.);
#477=ADVANCED_FACE('',(#476),#451,.T.);
#478=CARTESIAN_POINT('',(8.910000000000000,-4.310000000000003,0.0));
#479=DIRECTION('',(1.0,0.0,0.0));
#480=DIRECTION('',(0.0,0.0,-1.0));
#481=AXIS2_PLACEMENT_3D('',#478,#479,#480);
#482=PLANE('',#481);
#483=CARTESIAN_POINT('',(8.910000000000000,-4.310000000000003,-3.800000000000000));
#484=DIRECTION('',(0.0,1.0,0.0));
#485=VECTOR('',#484,1.0);
#486=LINE('',#483,#485);
#487=EDGE_CURVE('',#453,#382,#486,.T.);
#488=ORIENTED_EDGE('',*,*,#487,.T.);
#489=ORIENTED_EDGE('',*,*,#411,.F.);
#490=CARTESIAN_POINT('',(8.910000000000000,-4.310000000000003,0.0));
#491=DIRECTION('',(0.0,1.0,0.0));
#492=VECTOR('',#491,1.0);
#493=LINE('',#490,#492);
#494=EDGE_CURVE('',#461,#400,#493,.T.);
#495=ORIENTED_EDGE('',*,*,#494,.F.);
#496=ORIENTED_EDGE('',*,*,#466,.T.);
#497=EDGE_LOOP('',(#488,#489,#495,#496));
#498=FACE_OUTER_BOUND('',#497,.T.);
#499=ADVANCED_FACE('',(#498),#482,.T.);
#500=CARTESIAN_POINT('',(8.609999999999999,-3.810000000000004,-3.800000000000000));
#501=DIRECTION('',(0.0,0.0,1.0));
#502=DIRECTION('',(1.0,0.0,0.0));
#503=AXIS2_PLACEMENT_3D('',#500,#501,#502);
#504=PLANE('',#503);
#505=ORIENTED_EDGE('',*,*,#389,.F.);
#506=ORIENTED_EDGE('',*,*,#487,.F.);
#507=ORIENTED_EDGE('',*,*,#458,.F.);
#508=ORIENTED_EDGE('',*,*,#427,.F.);
#509=EDGE_LOOP('',(#505,#506,#507,#508));
#510=FACE_OUTER_BOUND('',#509,.T.);
#511=ADVANCED_FACE('',(#510),#504,.F.);
#512=CARTESIAN_POINT('',(8.609999999999999,-3.810000000000003,0.0));
#513=DIRECTION('',(0.0,0.0,1.0));
#514=DIRECTION('',(1.0,0.0,0.0));
#515=AXIS2_PLACEMENT_3D('',#512,#513,#514);
#516=PLANE('',#515);
#517=ORIENTED_EDGE('',*,*,#494,.T.);
#518=ORIENTED_EDGE('',*,*,#405,.T.);
#519=ORIENTED_EDGE('',*,*,#441,.T.);
#520=ORIENTED_EDGE('',*,*,#472,.T.);
#521=EDGE_LOOP('',(#517,#518,#519,#520));
#522=FACE_OUTER_BOUND('',#521,.T.);
#523=ADVANCED_FACE('',(#522),#516,.T.);
#524=CLOSED_SHELL('',(#415,#446,#477,#499,#511,#523));
#525=MANIFOLD_SOLID_BREP('930',#524);
#526=STYLED_ITEM('NONE',(#221),#525);
#527=CARTESIAN_POINT('',(-11.410000000000000,-3.309999999999996,0.0));
#528=DIRECTION('',(0.0,1.0,0.0));
#529=DIRECTION('',(0.0,0.0,1.0));
#530=AXIS2_PLACEMENT_3D('',#527,#528,#529);
#531=PLANE('',#530);
#532=CARTESIAN_POINT('',(-11.410000000000000,-3.309999999999996,-3.800000000000000));
#533=VERTEX_POINT('',#532);
#534=CARTESIAN_POINT('',(-12.010000000000002,-3.309999999999996,-3.800000000000000));
#535=VERTEX_POINT('',#534);
#536=CARTESIAN_POINT('',(-11.410000000000000,-3.309999999999996,-3.800000000000000));
#537=DIRECTION('',(-1.0,0.0,0.0));
#538=VECTOR('',#537,0.600000000000001);
#539=LINE('',#536,#538);
#540=EDGE_CURVE('',#533,#535,#539,.T.);
#541=ORIENTED_EDGE('',*,*,#540,.T.);
#542=CARTESIAN_POINT('',(-12.010000000000002,-3.309999999999996,0.0));
#543=VERTEX_POINT('',#542);
#544=CARTESIAN_POINT('',(-12.010000000000002,-3.309999999999996,0.0));
#545=DIRECTION('',(0.0,0.0,-1.0));
#546=VECTOR('',#545,3.800000000000000);
#547=LINE('',#544,#546);
#548=EDGE_CURVE('',#543,#535,#547,.T.);
#549=ORIENTED_EDGE('',*,*,#548,.F.);
#550=CARTESIAN_POINT('',(-11.410000000000000,-3.309999999999996,0.0));
#551=VERTEX_POINT('',#550);
#552=CARTESIAN_POINT('',(-11.410000000000000,-3.309999999999996,0.0));
#553=DIRECTION('',(-1.0,0.0,0.0));
#554=VECTOR('',#553,0.600000000000001);
#555=LINE('',#552,#554);
#556=EDGE_CURVE('',#551,#543,#555,.T.);
#557=ORIENTED_EDGE('',*,*,#556,.F.);
#558=CARTESIAN_POINT('',(-11.410000000000000,-3.309999999999996,0.0));
#559=DIRECTION('',(0.0,0.0,-1.0));
#560=VECTOR('',#559,3.800000000000000);
#561=LINE('',#558,#560);
#562=EDGE_CURVE('',#551,#533,#561,.T.);
#563=ORIENTED_EDGE('',*,*,#562,.T.);
#564=EDGE_LOOP('',(#541,#549,#557,#563));
#565=FACE_OUTER_BOUND('',#564,.T.);
#566=ADVANCED_FACE('',(#565),#531,.T.);
#567=CARTESIAN_POINT('',(-12.010000000000002,-3.309999999999996,0.0));
#568=DIRECTION('',(-1.0,0.0,0.0));
#569=DIRECTION('',(0.0,0.0,1.0));
#570=AXIS2_PLACEMENT_3D('',#567,#568,#569);
#571=PLANE('',#570);
#572=CARTESIAN_POINT('',(-12.010000000000002,-4.309999999999996,-3.800000000000000));
#573=VERTEX_POINT('',#572);
#574=CARTESIAN_POINT('',(-12.010000000000002,-3.309999999999996,-3.800000000000000));
#575=DIRECTION('',(0.0,-1.0,0.0));
#576=VECTOR('',#575,1.0);
#577=LINE('',#574,#576);
#578=EDGE_CURVE('',#535,#573,#577,.T.);
#579=ORIENTED_EDGE('',*,*,#578,.T.);
#580=CARTESIAN_POINT('',(-12.010000000000002,-4.309999999999996,0.0));
#581=VERTEX_POINT('',#580);
#582=CARTESIAN_POINT('',(-12.010000000000002,-4.309999999999996,0.0));
#583=DIRECTION('',(0.0,0.0,-1.0));
#584=VECTOR('',#583,3.800000000000000);
#585=LINE('',#582,#584);
#586=EDGE_CURVE('',#581,#573,#585,.T.);
#587=ORIENTED_EDGE('',*,*,#586,.F.);
#588=CARTESIAN_POINT('',(-12.010000000000002,-3.309999999999996,0.0));
#589=DIRECTION('',(0.0,-1.0,0.0));
#590=VECTOR('',#589,1.0);
#591=LINE('',#588,#590);
#592=EDGE_CURVE('',#543,#581,#591,.T.);
#593=ORIENTED_EDGE('',*,*,#592,.F.);
#594=ORIENTED_EDGE('',*,*,#548,.T.);
#595=EDGE_LOOP('',(#579,#587,#593,#594));
#596=FACE_OUTER_BOUND('',#595,.T.);
#597=ADVANCED_FACE('',(#596),#571,.T.);
#598=CARTESIAN_POINT('',(-12.010000000000002,-4.309999999999996,0.0));
#599=DIRECTION('',(0.0,-1.0,0.0));
#600=DIRECTION('',(0.0,0.0,-1.0));
#601=AXIS2_PLACEMENT_3D('',#598,#599,#600);
#602=PLANE('',#601);
#603=CARTESIAN_POINT('',(-11.410000000000000,-4.309999999999996,-3.800000000000000));
#604=VERTEX_POINT('',#603);
#605=CARTESIAN_POINT('',(-12.010000000000002,-4.309999999999996,-3.800000000000000));
#606=DIRECTION('',(1.0,0.0,0.0));
#607=VECTOR('',#606,0.600000000000001);
#608=LINE('',#605,#607);
#609=EDGE_CURVE('',#573,#604,#608,.T.);
#610=ORIENTED_EDGE('',*,*,#609,.T.);
#611=CARTESIAN_POINT('',(-11.410000000000000,-4.309999999999996,0.0));
#612=VERTEX_POINT('',#611);
#613=CARTESIAN_POINT('',(-11.410000000000000,-4.309999999999996,0.0));
#614=DIRECTION('',(0.0,0.0,-1.0));
#615=VECTOR('',#614,3.800000000000000);
#616=LINE('',#613,#615);
#617=EDGE_CURVE('',#612,#604,#616,.T.);
#618=ORIENTED_EDGE('',*,*,#617,.F.);
#619=CARTESIAN_POINT('',(-12.010000000000002,-4.309999999999996,0.0));
#620=DIRECTION('',(1.0,0.0,0.0));
#621=VECTOR('',#620,0.600000000000001);
#622=LINE('',#619,#621);
#623=EDGE_CURVE('',#581,#612,#622,.T.);
#624=ORIENTED_EDGE('',*,*,#623,.F.);
#625=ORIENTED_EDGE('',*,*,#586,.T.);
#626=EDGE_LOOP('',(#610,#618,#624,#625));
#627=FACE_OUTER_BOUND('',#626,.T.);
#628=ADVANCED_FACE('',(#627),#602,.T.);
#629=CARTESIAN_POINT('',(-11.410000000000000,-4.309999999999996,0.0));
#630=DIRECTION('',(1.0,0.0,0.0));
#631=DIRECTION('',(0.0,0.0,-1.0));
#632=AXIS2_PLACEMENT_3D('',#629,#630,#631);
#633=PLANE('',#632);
#634=CARTESIAN_POINT('',(-11.410000000000000,-4.309999999999996,-3.800000000000000));
#635=DIRECTION('',(0.0,1.0,0.0));
#636=VECTOR('',#635,1.0);
#637=LINE('',#634,#636);
#638=EDGE_CURVE('',#604,#533,#637,.T.);
#639=ORIENTED_EDGE('',*,*,#638,.T.);
#640=ORIENTED_EDGE('',*,*,#562,.F.);
#641=CARTESIAN_POINT('',(-11.410000000000000,-4.309999999999996,0.0));
#642=DIRECTION('',(0.0,1.0,0.0));
#643=VECTOR('',#642,1.0);
#644=LINE('',#641,#643);
#645=EDGE_CURVE('',#612,#551,#644,.T.);
#646=ORIENTED_EDGE('',*,*,#645,.F.);
#647=ORIENTED_EDGE('',*,*,#617,.T.);
#648=EDGE_LOOP('',(#639,#640,#646,#647));
#649=FACE_OUTER_BOUND('',#648,.T.);
#650=ADVANCED_FACE('',(#649),#633,.T.);
#651=CARTESIAN_POINT('',(-11.710000000000001,-3.809999999999997,-3.800000000000000));
#652=DIRECTION('',(0.0,0.0,1.0));
#653=DIRECTION('',(1.0,0.0,0.0));
#654=AXIS2_PLACEMENT_3D('',#651,#652,#653);
#655=PLANE('',#654);
#656=ORIENTED_EDGE('',*,*,#540,.F.);
#657=ORIENTED_EDGE('',*,*,#638,.F.);
#658=ORIENTED_EDGE('',*,*,#609,.F.);
#659=ORIENTED_EDGE('',*,*,#578,.F.);
#660=EDGE_LOOP('',(#656,#657,#658,#659));
#661=FACE_OUTER_BOUND('',#660,.T.);
#662=ADVANCED_FACE('',(#661),#655,.F.);
#663=CARTESIAN_POINT('',(-11.710000000000001,-3.809999999999996,0.0));
#664=DIRECTION('',(0.0,0.0,1.0));
#665=DIRECTION('',(1.0,0.0,0.0));
#666=AXIS2_PLACEMENT_3D('',#663,#664,#665);
#667=PLANE('',#666);
#668=ORIENTED_EDGE('',*,*,#645,.T.);
#669=ORIENTED_EDGE('',*,*,#556,.T.);
#670=ORIENTED_EDGE('',*,*,#592,.T.);
#671=ORIENTED_EDGE('',*,*,#623,.T.);
#672=EDGE_LOOP('',(#668,#669,#670,#671));
#673=FACE_OUTER_BOUND('',#672,.T.);
#674=ADVANCED_FACE('',(#673),#667,.T.);
#675=CLOSED_SHELL('',(#566,#597,#628,#650,#662,#674));
#676=MANIFOLD_SOLID_BREP('92C',#675);
#677=STYLED_ITEM('NONE',(#221),#676);
#678=CARTESIAN_POINT('',(-11.410000000000000,4.310000000000003,0.0));
#679=DIRECTION('',(0.0,1.0,0.0));
#680=DIRECTION('',(0.0,0.0,1.0));
#681=AXIS2_PLACEMENT_3D('',#678,#679,#680);
#682=PLANE('',#681);
#683=CARTESIAN_POINT('',(-11.410000000000000,4.310000000000003,-3.800000000000000));
#684=VERTEX_POINT('',#683);
#685=CARTESIAN_POINT('',(-12.010000000000002,4.310000000000003,-3.800000000000000));
#686=VERTEX_POINT('',#685);
#687=CARTESIAN_POINT('',(-11.410000000000000,4.310000000000003,-3.800000000000000));
#688=DIRECTION('',(-1.0,0.0,0.0));
#689=VECTOR('',#688,0.600000000000001);
#690=LINE('',#687,#689);
#691=EDGE_CURVE('',#684,#686,#690,.T.);
#692=ORIENTED_EDGE('',*,*,#691,.T.);
#693=CARTESIAN_POINT('',(-12.010000000000002,4.310000000000003,0.0));
#694=VERTEX_POINT('',#693);
#695=CARTESIAN_POINT('',(-12.010000000000002,4.310000000000003,0.0));
#696=DIRECTION('',(0.0,0.0,-1.0));
#697=VECTOR('',#696,3.800000000000000);
#698=LINE('',#695,#697);
#699=EDGE_CURVE('',#694,#686,#698,.T.);
#700=ORIENTED_EDGE('',*,*,#699,.F.);
#701=CARTESIAN_POINT('',(-11.410000000000000,4.310000000000003,0.0));
#702=VERTEX_POINT('',#701);
#703=CARTESIAN_POINT('',(-11.410000000000000,4.310000000000003,0.0));
#704=DIRECTION('',(-1.0,0.0,0.0));
#705=VECTOR('',#704,0.600000000000001);
#706=LINE('',#703,#705);
#707=EDGE_CURVE('',#702,#694,#706,.T.);
#708=ORIENTED_EDGE('',*,*,#707,.F.);
#709=CARTESIAN_POINT('',(-11.410000000000000,4.310000000000003,0.0));
#710=DIRECTION('',(0.0,0.0,-1.0));
#711=VECTOR('',#710,3.800000000000000);
#712=LINE('',#709,#711);
#713=EDGE_CURVE('',#702,#684,#712,.T.);
#714=ORIENTED_EDGE('',*,*,#713,.T.);
#715=EDGE_LOOP('',(#692,#700,#708,#714));
#716=FACE_OUTER_BOUND('',#715,.T.);
#717=ADVANCED_FACE('',(#716),#682,.T.);
#718=CARTESIAN_POINT('',(-12.010000000000002,4.310000000000003,0.0));
#719=DIRECTION('',(-1.0,0.0,0.0));
#720=DIRECTION('',(0.0,0.0,1.0));
#721=AXIS2_PLACEMENT_3D('',#718,#719,#720);
#722=PLANE('',#721);
#723=CARTESIAN_POINT('',(-12.010000000000002,3.310000000000003,-3.800000000000000));
#724=VERTEX_POINT('',#723);
#725=CARTESIAN_POINT('',(-12.010000000000002,4.310000000000003,-3.800000000000000));
#726=DIRECTION('',(0.0,-1.0,0.0));
#727=VECTOR('',#726,1.0);
#728=LINE('',#725,#727);
#729=EDGE_CURVE('',#686,#724,#728,.T.);
#730=ORIENTED_EDGE('',*,*,#729,.T.);
#731=CARTESIAN_POINT('',(-12.010000000000002,3.310000000000003,0.0));
#732=VERTEX_POINT('',#731);
#733=CARTESIAN_POINT('',(-12.010000000000002,3.310000000000003,0.0));
#734=DIRECTION('',(0.0,0.0,-1.0));
#735=VECTOR('',#734,3.800000000000000);
#736=LINE('',#733,#735);
#737=EDGE_CURVE('',#732,#724,#736,.T.);
#738=ORIENTED_EDGE('',*,*,#737,.F.);
#739=CARTESIAN_POINT('',(-12.010000000000002,4.310000000000003,0.0));
#740=DIRECTION('',(0.0,-1.0,0.0));
#741=VECTOR('',#740,1.0);
#742=LINE('',#739,#741);
#743=EDGE_CURVE('',#694,#732,#742,.T.);
#744=ORIENTED_EDGE('',*,*,#743,.F.);
#745=ORIENTED_EDGE('',*,*,#699,.T.);
#746=EDGE_LOOP('',(#730,#738,#744,#745));
#747=FACE_OUTER_BOUND('',#746,.T.);
#748=ADVANCED_FACE('',(#747),#722,.T.);
#749=CARTESIAN_POINT('',(-12.010000000000002,3.310000000000003,0.0));
#750=DIRECTION('',(0.0,-1.0,0.0));
#751=DIRECTION('',(0.0,0.0,-1.0));
#752=AXIS2_PLACEMENT_3D('',#749,#750,#751);
#753=PLANE('',#752);
#754=CARTESIAN_POINT('',(-11.410000000000000,3.310000000000003,-3.800000000000000));
#755=VERTEX_POINT('',#754);
#756=CARTESIAN_POINT('',(-12.010000000000002,3.310000000000003,-3.800000000000000));
#757=DIRECTION('',(1.0,0.0,0.0));
#758=VECTOR('',#757,0.600000000000001);
#759=LINE('',#756,#758);
#760=EDGE_CURVE('',#724,#755,#759,.T.);
#761=ORIENTED_EDGE('',*,*,#760,.T.);
#762=CARTESIAN_POINT('',(-11.410000000000000,3.310000000000003,0.0));
#763=VERTEX_POINT('',#762);
#764=CARTESIAN_POINT('',(-11.410000000000000,3.310000000000003,0.0));
#765=DIRECTION('',(0.0,0.0,-1.0));
#766=VECTOR('',#765,3.800000000000000);
#767=LINE('',#764,#766);
#768=EDGE_CURVE('',#763,#755,#767,.T.);
#769=ORIENTED_EDGE('',*,*,#768,.F.);
#770=CARTESIAN_POINT('',(-12.010000000000002,3.310000000000003,0.0));
#771=DIRECTION('',(1.0,0.0,0.0));
#772=VECTOR('',#771,0.600000000000001);
#773=LINE('',#770,#772);
#774=EDGE_CURVE('',#732,#763,#773,.T.);
#775=ORIENTED_EDGE('',*,*,#774,.F.);
#776=ORIENTED_EDGE('',*,*,#737,.T.);
#777=EDGE_LOOP('',(#761,#769,#775,#776));
#778=FACE_OUTER_BOUND('',#777,.T.);
#779=ADVANCED_FACE('',(#778),#753,.T.);
#780=CARTESIAN_POINT('',(-11.410000000000000,3.310000000000003,0.0));
#781=DIRECTION('',(1.0,0.0,0.0));
#782=DIRECTION('',(0.0,0.0,-1.0));
#783=AXIS2_PLACEMENT_3D('',#780,#781,#782);
#784=PLANE('',#783);
#785=CARTESIAN_POINT('',(-11.410000000000000,3.310000000000003,-3.800000000000000));
#786=DIRECTION('',(0.0,1.0,0.0));
#787=VECTOR('',#786,1.0);
#788=LINE('',#785,#787);
#789=EDGE_CURVE('',#755,#684,#788,.T.);
#790=ORIENTED_EDGE('',*,*,#789,.T.);
#791=ORIENTED_EDGE('',*,*,#713,.F.);
#792=CARTESIAN_POINT('',(-11.410000000000000,3.310000000000003,0.0));
#793=DIRECTION('',(0.0,1.0,0.0));
#794=VECTOR('',#793,1.0);
#795=LINE('',#792,#794);
#796=EDGE_CURVE('',#763,#702,#795,.T.);
#797=ORIENTED_EDGE('',*,*,#796,.F.);
#798=ORIENTED_EDGE('',*,*,#768,.T.);
#799=EDGE_LOOP('',(#790,#791,#797,#798));
#800=FACE_OUTER_BOUND('',#799,.T.);
#801=ADVANCED_FACE('',(#800),#784,.T.);
#802=CARTESIAN_POINT('',(-11.710000000000001,3.810000000000003,-3.800000000000000));
#803=DIRECTION('',(0.0,0.0,1.0));
#804=DIRECTION('',(1.0,0.0,0.0));
#805=AXIS2_PLACEMENT_3D('',#802,#803,#804);
#806=PLANE('',#805);
#807=ORIENTED_EDGE('',*,*,#691,.F.);
#808=ORIENTED_EDGE('',*,*,#789,.F.);
#809=ORIENTED_EDGE('',*,*,#760,.F.);
#810=ORIENTED_EDGE('',*,*,#729,.F.);
#811=EDGE_LOOP('',(#807,#808,#809,#810));
#812=FACE_OUTER_BOUND('',#811,.T.);
#813=ADVANCED_FACE('',(#812),#806,.F.);
#814=CARTESIAN_POINT('',(-11.710000000000001,3.810000000000003,0.0));
#815=DIRECTION('',(0.0,0.0,1.0));
#816=DIRECTION('',(1.0,0.0,0.0));
#817=AXIS2_PLACEMENT_3D('',#814,#815,#816);
#818=PLANE('',#817);
#819=ORIENTED_EDGE('',*,*,#796,.T.);
#820=ORIENTED_EDGE('',*,*,#707,.T.);
#821=ORIENTED_EDGE('',*,*,#743,.T.);
#822=ORIENTED_EDGE('',*,*,#774,.T.);
#823=EDGE_LOOP('',(#819,#820,#821,#822));
#824=FACE_OUTER_BOUND('',#823,.T.);
#825=ADVANCED_FACE('',(#824),#818,.T.);
#826=CLOSED_SHELL('',(#717,#748,#779,#801,#813,#825));
#827=MANIFOLD_SOLID_BREP('928',#826);
#828=STYLED_ITEM('NONE',(#221),#827);
#829=CARTESIAN_POINT('',(-14.000000000000004,-5.549999999999995,25.699999999999999));
#830=DIRECTION('',(0.0,0.0,1.0));
#831=DIRECTION('',(1.0,0.0,0.0));
#832=AXIS2_PLACEMENT_3D('',#829,#830,#831);
#833=SPHERICAL_SURFACE('',#832,0.500000000000000);
#834=CARTESIAN_POINT('',(-14.500000000000004,-5.549999999999995,25.699999999999999));
#835=VERTEX_POINT('',#834);
#836=CARTESIAN_POINT('',(-14.000000000000004,-6.049999999999995,25.699999999999999));
#837=VERTEX_POINT('',#836);
#838=CARTESIAN_POINT('',(-14.000000000000004,-5.549999999999995,25.699999999999999));
#839=DIRECTION('',(0.0,0.0,1.000000000000000));
#840=DIRECTION('',(-0.707106781186548,-0.707106781186548,0.0));
#841=AXIS2_PLACEMENT_3D('',#838,#839,#840);
#842=CIRCLE('',#841,0.500000000000000);
#843=EDGE_CURVE('',#835,#837,#842,.T.);
#844=ORIENTED_EDGE('',*,*,#843,.T.);
#845=CARTESIAN_POINT('',(-14.000000000000004,-5.549999999999995,26.199999999999999));
#846=VERTEX_POINT('',#845);
#847=CARTESIAN_POINT('',(-14.000000000000004,-5.549999999999995,25.699999999999999));
#848=DIRECTION('',(-1.0,0.0,0.0));
#849=DIRECTION('',(0.0,0.0,1.0));
#850=AXIS2_PLACEMENT_3D('',#847,#848,#849);
#851=CIRCLE('',#850,0.500000000000000);
#852=EDGE_CURVE('',#846,#837,#851,.F.);
#853=ORIENTED_EDGE('',*,*,#852,.F.);
#854=CARTESIAN_POINT('',(-14.000000000000004,-5.549999999999995,25.699999999999999));
#855=DIRECTION('',(0.0,-1.000000000000000,0.0));
#856=DIRECTION('',(-0.707106781186548,0.0,0.707106781186548));
#857=AXIS2_PLACEMENT_3D('',#854,#855,#856);
#858=CIRCLE('',#857,0.500000000000000);
#859=EDGE_CURVE('',#846,#835,#858,.T.);
#860=ORIENTED_EDGE('',*,*,#859,.T.);
#861=EDGE_LOOP('',(#844,#853,#860));
#862=FACE_OUTER_BOUND('',#861,.T.);
#863=ADVANCED_FACE('',(#862),#833,.T.);
#864=CARTESIAN_POINT('',(-14.0,5.550000000000005,25.699999999999999));
#865=DIRECTION('',(0.0,0.0,1.0));
#866=DIRECTION('',(1.0,0.0,0.0));
#867=AXIS2_PLACEMENT_3D('',#864,#865,#866);
#868=SPHERICAL_SURFACE('',#867,0.500000000000000);
#869=CARTESIAN_POINT('',(-14.500000000000000,5.550000000000005,25.699999999999999));
#870=VERTEX_POINT('',#869);
#871=CARTESIAN_POINT('',(-14.0,5.550000000000005,26.199999999999999));
#872=VERTEX_POINT('',#871);
#873=CARTESIAN_POINT('',(-14.0,5.550000000000005,25.699999999999999));
#874=DIRECTION('',(0.0,1.000000000000000,0.0));
#875=DIRECTION('',(-0.707106781186548,0.0,0.707106781186548));
#876=AXIS2_PLACEMENT_3D('',#873,#874,#875);
#877=CIRCLE('',#876,0.500000000000000);
#878=EDGE_CURVE('',#870,#872,#877,.T.);
#879=ORIENTED_EDGE('',*,*,#878,.T.);
#880=CARTESIAN_POINT('',(-13.999999999999998,6.050000000000005,25.699999999999999));
#881=VERTEX_POINT('',#880);
#882=CARTESIAN_POINT('',(-13.999999999999998,5.550000000000005,25.699999999999999));
#883=DIRECTION('',(-1.0,0.0,0.0));
#884=DIRECTION('',(0.0,1.0,0.0));
#885=AXIS2_PLACEMENT_3D('',#882,#883,#884);
#886=CIRCLE('',#885,0.500000000000000);
#887=EDGE_CURVE('',#881,#872,#886,.F.);
#888=ORIENTED_EDGE('',*,*,#887,.F.);
#889=CARTESIAN_POINT('',(-13.999999999999998,5.550000000000005,25.699999999999999));
#890=DIRECTION('',(0.0,0.0,1.0));
#891=DIRECTION('',(-0.707106781186550,0.707106781186545,0.0));
#892=AXIS2_PLACEMENT_3D('',#889,#890,#891);
#893=CIRCLE('',#892,0.500000000000000);
#894=EDGE_CURVE('',#881,#870,#893,.T.);
#895=ORIENTED_EDGE('',*,*,#894,.T.);
#896=EDGE_LOOP('',(#879,#888,#895));
#897=FACE_OUTER_BOUND('',#896,.T.);
#898=ADVANCED_FACE('',(#897),#868,.T.);
#899=CARTESIAN_POINT('',(14.0,-5.550000000000005,25.699999999999999));
#900=DIRECTION('',(0.0,0.0,1.0));
#901=DIRECTION('',(1.0,0.0,0.0));
#902=AXIS2_PLACEMENT_3D('',#899,#900,#901);
#903=SPHERICAL_SURFACE('',#902,0.500000000000000);
#904=CARTESIAN_POINT('',(13.999999999999998,-6.050000000000005,25.699999999999999));
#905=VERTEX_POINT('',#904);
#906=CARTESIAN_POINT('',(14.500000000000000,-5.550000000000005,25.699999999999999));
#907=VERTEX_POINT('',#906);
#908=CARTESIAN_POINT('',(13.999999999999998,-5.550000000000005,25.699999999999999));
#909=DIRECTION('',(0.0,0.0,1.0));
#910=DIRECTION('',(0.707106781186550,-0.707106781186545,0.0));
#911=AXIS2_PLACEMENT_3D('',#908,#909,#910);
#912=CIRCLE('',#911,0.500000000000000);
#913=EDGE_CURVE('',#905,#907,#912,.T.);
#914=ORIENTED_EDGE('',*,*,#913,.T.);
#915=CARTESIAN_POINT('',(14.0,-5.550000000000005,26.199999999999999));
#916=VERTEX_POINT('',#915);
#917=CARTESIAN_POINT('',(14.0,-5.550000000000005,25.699999999999999));
#918=DIRECTION('',(0.0,-1.0,0.0));
#919=DIRECTION('',(0.0,0.0,1.0));
#920=AXIS2_PLACEMENT_3D('',#917,#918,#919);
#921=CIRCLE('',#920,0.500000000000000);
#922=EDGE_CURVE('',#916,#907,#921,.F.);
#923=ORIENTED_EDGE('',*,*,#922,.F.);
#924=CARTESIAN_POINT('',(13.999999999999998,-5.550000000000005,25.699999999999999));
#925=DIRECTION('',(1.000000000000000,3.552714E-015,-3.552714E-015));
#926=DIRECTION('',(5.024296E-015,-0.707106781186548,0.707106781186548));
#927=AXIS2_PLACEMENT_3D('',#924,#925,#926);
#928=CIRCLE('',#927,0.500000000000000);
#929=EDGE_CURVE('',#916,#905,#928,.T.);
#930=ORIENTED_EDGE('',*,*,#929,.T.);
#931=EDGE_LOOP('',(#914,#923,#930));
#932=FACE_OUTER_BOUND('',#931,.T.);
#933=ADVANCED_FACE('',(#932),#903,.T.);
#934=CARTESIAN_POINT('',(14.000000000000004,5.549999999999995,25.699999999999999));
#935=DIRECTION('',(0.0,0.0,1.0));
#936=DIRECTION('',(1.0,0.0,0.0));
#937=AXIS2_PLACEMENT_3D('',#934,#935,#936);
#938=SPHERICAL_SURFACE('',#937,0.500000000000000);
#939=CARTESIAN_POINT('',(14.000000000000004,6.049999999999995,25.699999999999999));
#940=VERTEX_POINT('',#939);
#941=CARTESIAN_POINT('',(14.000000000000004,5.549999999999995,26.199999999999999));
#942=VERTEX_POINT('',#941);
#943=CARTESIAN_POINT('',(14.000000000000004,5.549999999999995,25.699999999999999));
#944=DIRECTION('',(1.000000000000000,0.0,0.0));
#945=DIRECTION('',(0.0,0.707106781186548,0.707106781186548));
#946=AXIS2_PLACEMENT_3D('',#943,#944,#945);
#947=CIRCLE('',#946,0.500000000000000);
#948=EDGE_CURVE('',#940,#942,#947,.T.);
#949=ORIENTED_EDGE('',*,*,#948,.T.);
#950=CARTESIAN_POINT('',(14.500000000000004,5.549999999999995,25.699999999999999));
#951=VERTEX_POINT('',#950);
#952=CARTESIAN_POINT('',(14.000000000000004,5.549999999999995,25.699999999999999));
#953=DIRECTION('',(0.0,1.0,0.0));
#954=DIRECTION('',(1.0,0.0,0.0));
#955=AXIS2_PLACEMENT_3D('',#952,#953,#954);
#956=CIRCLE('',#955,0.500000000000000);
#957=EDGE_CURVE('',#951,#942,#956,.F.);
#958=ORIENTED_EDGE('',*,*,#957,.F.);
#959=CARTESIAN_POINT('',(14.000000000000004,5.549999999999995,25.699999999999999));
#960=DIRECTION('',(0.0,0.0,1.000000000000000));
#961=DIRECTION('',(0.707106781186548,0.707106781186548,0.0));
#962=AXIS2_PLACEMENT_3D('',#959,#960,#961);
#963=CIRCLE('',#962,0.500000000000000);
#964=EDGE_CURVE('',#951,#940,#963,.T.);
#965=ORIENTED_EDGE('',*,*,#964,.T.);
#966=EDGE_LOOP('',(#949,#958,#965));
#967=FACE_OUTER_BOUND('',#966,.T.);
#968=ADVANCED_FACE('',(#967),#938,.T.);
#969=CARTESIAN_POINT('',(14.000000000000002,-5.143347E-015,25.699999999999999));
#970=DIRECTION('',(-3.673819E-016,-1.0,0.0));
#971=DIRECTION('',(0.707106781186548,-2.597782E-016,0.707106781186548));
#972=AXIS2_PLACEMENT_3D('',#969,#970,#971);
#973=CYLINDRICAL_SURFACE('',#972,0.500000000000000);
#974=ORIENTED_EDGE('',*,*,#922,.T.);
#975=CARTESIAN_POINT('',(14.500000000000000,-5.550000000000005,25.699999999999999));
#976=DIRECTION('',(0.0,1.0,0.0));
#977=VECTOR('',#976,11.100000000000000);
#978=LINE('',#975,#977);
#979=EDGE_CURVE('',#907,#951,#978,.T.);
#980=ORIENTED_EDGE('',*,*,#979,.T.);
#981=ORIENTED_EDGE('',*,*,#957,.T.);
#982=CARTESIAN_POINT('',(14.000000000000004,5.549999999999995,26.199999999999999));
#983=DIRECTION('',(0.0,-1.0,0.0));
#984=VECTOR('',#983,11.100000000000000);
#985=LINE('',#982,#984);
#986=EDGE_CURVE('',#942,#916,#985,.T.);
#987=ORIENTED_EDGE('',*,*,#986,.T.);
#988=EDGE_LOOP('',(#974,#980,#981,#987));
#989=FACE_OUTER_BOUND('',#988,.T.);
#990=ADVANCED_FACE('',(#989),#973,.T.);
#991=CARTESIAN_POINT('',(2.038970E-015,5.550000000000000,25.699999999999999));
#992=DIRECTION('',(1.0,-3.673819E-016,0.0));
#993=DIRECTION('',(2.597782E-016,0.707106781186548,0.707106781186548));
#994=AXIS2_PLACEMENT_3D('',#991,#992,#993);
#995=CYLINDRICAL_SURFACE('',#994,0.500000000000000);
#996=ORIENTED_EDGE('',*,*,#948,.F.);
#997=CARTESIAN_POINT('',(14.000000000000004,6.049999999999995,25.699999999999999));
#998=DIRECTION('',(-1.0,0.0,0.0));
#999=VECTOR('',#998,28.0);
#1000=LINE('',#997,#999);
#1001=EDGE_CURVE('',#940,#881,#1000,.T.);
#1002=ORIENTED_EDGE('',*,*,#1001,.T.);
#1003=ORIENTED_EDGE('',*,*,#887,.T.);
#1004=CARTESIAN_POINT('',(-14.0,5.550000000000005,26.199999999999999));
#1005=DIRECTION('',(1.0,0.0,0.0));
#1006=VECTOR('',#1005,28.000000000000004);
#1007=LINE('',#1004,#1006);
#1008=EDGE_CURVE('',#872,#942,#1007,.T.);
#1009=ORIENTED_EDGE('',*,*,#1008,.T.);
#1010=EDGE_LOOP('',(#996,#1002,#1003,#1009));
#1011=FACE_OUTER_BOUND('',#1010,.T.);
#1012=ADVANCED_FACE('',(#1011),#995,.T.);
#1013=CARTESIAN_POINT('',(14.000000000000004,5.549999999999995,13.100000000000000));
#1014=DIRECTION('',(0.0,0.0,-1.0));
#1015=DIRECTION('',(0.707106781186548,0.707106781186548,0.0));
#1016=AXIS2_PLACEMENT_3D('',#1013,#1014,#1015);
#1017=CYLINDRICAL_SURFACE('',#1016,0.500000000000000);
#1018=CARTESIAN_POINT('',(14.500000000000004,5.549999999999995,0.0));
#1019=VERTEX_POINT('',#1018);
#1020=CARTESIAN_POINT('',(14.000000000000004,6.049999999999995,0.0));
#1021=VERTEX_POINT('',#1020);
#1022=CARTESIAN_POINT('',(14.000000000000004,5.549999999999995,0.0));
#1023=DIRECTION('',(0.0,0.0,1.000000000000000));
#1024=DIRECTION('',(0.707106781186548,0.707106781186548,0.0));
#1025=AXIS2_PLACEMENT_3D('',#1022,#1023,#1024);
#1026=CIRCLE('',#1025,0.500000000000000);
#1027=EDGE_CURVE('',#1019,#1021,#1026,.T.);
#1028=ORIENTED_EDGE('',*,*,#1027,.T.);
#1029=CARTESIAN_POINT('',(14.000000000000004,6.049999999999995,0.0));
#1030=DIRECTION('',(0.0,0.0,1.0));
#1031=VECTOR('',#1030,25.699999999999999);
#1032=LINE('',#1029,#1031);
#1033=EDGE_CURVE('',#1021,#940,#1032,.T.);
#1034=ORIENTED_EDGE('',*,*,#1033,.T.);
#1035=ORIENTED_EDGE('',*,*,#964,.F.);
#1036=CARTESIAN_POINT('',(14.500000000000004,5.549999999999995,25.699999999999999));
#1037=DIRECTION('',(0.0,0.0,-1.0));
#1038=VECTOR('',#1037,25.699999999999999);
#1039=LINE('',#1036,#1038);
#1040=EDGE_CURVE('',#951,#1019,#1039,.T.);
#1041=ORIENTED_EDGE('',*,*,#1040,.T.);
#1042=EDGE_LOOP('',(#1028,#1034,#1035,#1041));
#1043=FACE_OUTER_BOUND('',#1042,.T.);
#1044=ADVANCED_FACE('',(#1043),#1017,.T.);
#1045=CARTESIAN_POINT('',(-2.038970E-015,-5.550000000000000,25.699999999999999));
#1046=DIRECTION('',(-1.0,3.673819E-016,0.0));
#1047=DIRECTION('',(-2.597782E-016,-0.707106781186548,0.707106781186548));
#1048=AXIS2_PLACEMENT_3D('',#1045,#1046,#1047);
#1049=CYLINDRICAL_SURFACE('',#1048,0.500000000000000);
#1050=ORIENTED_EDGE('',*,*,#852,.T.);
#1051=CARTESIAN_POINT('',(-14.000000000000004,-6.049999999999995,25.699999999999999));
#1052=DIRECTION('',(1.0,0.0,0.0));
#1053=VECTOR('',#1052,28.0);
#1054=LINE('',#1051,#1053);
#1055=EDGE_CURVE('',#837,#905,#1054,.T.);
#1056=ORIENTED_EDGE('',*,*,#1055,.T.);
#1057=ORIENTED_EDGE('',*,*,#929,.F.);
#1058=CARTESIAN_POINT('',(14.0,-5.550000000000005,26.199999999999999));
#1059=DIRECTION('',(-1.0,0.0,0.0));
#1060=VECTOR('',#1059,28.000000000000004);
#1061=LINE('',#1058,#1060);
#1062=EDGE_CURVE('',#916,#846,#1061,.T.);
#1063=ORIENTED_EDGE('',*,*,#1062,.T.);
#1064=EDGE_LOOP('',(#1050,#1056,#1057,#1063));
#1065=FACE_OUTER_BOUND('',#1064,.T.);
#1066=ADVANCED_FACE('',(#1065),#1049,.T.);
#1067=CARTESIAN_POINT('',(13.999999999999998,-5.550000000000005,13.100000000000000));
#1068=DIRECTION('',(0.0,0.0,-1.0));
#1069=DIRECTION('',(0.707106781186550,-0.707106781186545,0.0));
#1070=AXIS2_PLACEMENT_3D('',#1067,#1068,#1069);
#1071=CYLINDRICAL_SURFACE('',#1070,0.500000000000000);
#1072=CARTESIAN_POINT('',(13.999999999999998,-6.050000000000005,0.0));
#1073=VERTEX_POINT('',#1072);
#1074=CARTESIAN_POINT('',(14.500000000000000,-5.550000000000005,0.0));
#1075=VERTEX_POINT('',#1074);
#1076=CARTESIAN_POINT('',(13.999999999999998,-5.550000000000005,0.0));
#1077=DIRECTION('',(0.0,0.0,1.0));
#1078=DIRECTION('',(0.707106781186550,-0.707106781186545,0.0));
#1079=AXIS2_PLACEMENT_3D('',#1076,#1077,#1078);
#1080=CIRCLE('',#1079,0.500000000000000);
#1081=EDGE_CURVE('',#1073,#1075,#1080,.T.);
#1082=ORIENTED_EDGE('',*,*,#1081,.T.);
#1083=CARTESIAN_POINT('',(14.500000000000000,-5.550000000000005,0.0));
#1084=DIRECTION('',(0.0,0.0,1.0));
#1085=VECTOR('',#1084,25.699999999999999);
#1086=LINE('',#1083,#1085);
#1087=EDGE_CURVE('',#1075,#907,#1086,.T.);
#1088=ORIENTED_EDGE('',*,*,#1087,.T.);
#1089=ORIENTED_EDGE('',*,*,#913,.F.);
#1090=CARTESIAN_POINT('',(13.999999999999998,-6.050000000000005,25.699999999999999));
#1091=DIRECTION('',(0.0,0.0,-1.0));
#1092=VECTOR('',#1091,25.699999999999999);
#1093=LINE('',#1090,#1092);
#1094=EDGE_CURVE('',#905,#1073,#1093,.T.);
#1095=ORIENTED_EDGE('',*,*,#1094,.T.);
#1096=EDGE_LOOP('',(#1082,#1088,#1089,#1095));
#1097=FACE_OUTER_BOUND('',#1096,.T.);
#1098=ADVANCED_FACE('',(#1097),#1071,.T.);
#1099=CARTESIAN_POINT('',(-14.000000000000002,5.143347E-015,25.699999999999999));
#1100=DIRECTION('',(3.673819E-016,1.0,0.0));
#1101=DIRECTION('',(-0.707106781186548,2.597782E-016,0.707106781186548));
#1102=AXIS2_PLACEMENT_3D('',#1099,#1100,#1101);
#1103=CYLINDRICAL_SURFACE('',#1102,0.500000000000000);
#1104=ORIENTED_EDGE('',*,*,#878,.F.);
#1105=CARTESIAN_POINT('',(-14.500000000000000,5.550000000000005,25.699999999999999));
#1106=DIRECTION('',(0.0,-1.0,0.0));
#1107=VECTOR('',#1106,11.100000000000000);
#1108=LINE('',#1105,#1107);
#1109=EDGE_CURVE('',#870,#835,#1108,.T.);
#1110=ORIENTED_EDGE('',*,*,#1109,.T.);
#1111=ORIENTED_EDGE('',*,*,#859,.F.);
#1112=CARTESIAN_POINT('',(-14.000000000000004,-5.549999999999995,26.199999999999999));
#1113=DIRECTION('',(0.0,1.0,0.0));
#1114=VECTOR('',#1113,11.100000000000000);
#1115=LINE('',#1112,#1114);
#1116=EDGE_CURVE('',#846,#872,#1115,.T.);
#1117=ORIENTED_EDGE('',*,*,#1116,.T.);
#1118=EDGE_LOOP('',(#1104,#1110,#1111,#1117));
#1119=FACE_OUTER_BOUND('',#1118,.T.);
#1120=ADVANCED_FACE('',(#1119),#1103,.T.);
#1121=CARTESIAN_POINT('',(-13.999999999999998,5.550000000000005,13.100000000000000));
#1122=DIRECTION('',(0.0,0.0,-1.0));
#1123=DIRECTION('',(-0.707106781186550,0.707106781186545,0.0));
#1124=AXIS2_PLACEMENT_3D('',#1121,#1122,#1123);
#1125=CYLINDRICAL_SURFACE('',#1124,0.500000000000000);
#1126=CARTESIAN_POINT('',(-13.999999999999998,6.050000000000005,0.0));
#1127=VERTEX_POINT('',#1126);
#1128=CARTESIAN_POINT('',(-14.500000000000000,5.550000000000005,0.0));
#1129=VERTEX_POINT('',#1128);
#1130=CARTESIAN_POINT('',(-13.999999999999998,5.550000000000005,0.0));
#1131=DIRECTION('',(0.0,0.0,1.0));
#1132=DIRECTION('',(-0.707106781186550,0.707106781186545,0.0));
#1133=AXIS2_PLACEMENT_3D('',#1130,#1131,#1132);
#1134=CIRCLE('',#1133,0.500000000000000);
#1135=EDGE_CURVE('',#1127,#1129,#1134,.T.);
#1136=ORIENTED_EDGE('',*,*,#1135,.T.);
#1137=CARTESIAN_POINT('',(-14.500000000000000,5.550000000000005,0.0));
#1138=DIRECTION('',(0.0,0.0,1.0));
#1139=VECTOR('',#1138,25.699999999999999);
#1140=LINE('',#1137,#1139);
#1141=EDGE_CURVE('',#1129,#870,#1140,.T.);
#1142=ORIENTED_EDGE('',*,*,#1141,.T.);
#1143=ORIENTED_EDGE('',*,*,#894,.F.);
#1144=CARTESIAN_POINT('',(-13.999999999999998,6.050000000000005,25.699999999999999));
#1145=DIRECTION('',(0.0,0.0,-1.0));
#1146=VECTOR('',#1145,25.699999999999999);
#1147=LINE('',#1144,#1146);
#1148=EDGE_CURVE('',#881,#1127,#1147,.T.);
#1149=ORIENTED_EDGE('',*,*,#1148,.T.);
#1150=EDGE_LOOP('',(#1136,#1142,#1143,#1149));
#1151=FACE_OUTER_BOUND('',#1150,.T.);
#1152=ADVANCED_FACE('',(#1151),#1125,.T.);
#1153=CARTESIAN_POINT('',(-14.000000000000004,-5.549999999999995,13.100000000000000));
#1154=DIRECTION('',(0.0,0.0,-1.0));
#1155=DIRECTION('',(-0.707106781186548,-0.707106781186548,0.0));
#1156=AXIS2_PLACEMENT_3D('',#1153,#1154,#1155);
#1157=CYLINDRICAL_SURFACE('',#1156,0.500000000000000);
#1158=CARTESIAN_POINT('',(-14.500000000000004,-5.549999999999995,0.0));
#1159=VERTEX_POINT('',#1158);
#1160=CARTESIAN_POINT('',(-14.000000000000004,-6.049999999999995,0.0));
#1161=VERTEX_POINT('',#1160);
#1162=CARTESIAN_POINT('',(-14.000000000000004,-5.549999999999995,0.0));
#1163=DIRECTION('',(0.0,0.0,1.000000000000000));
#1164=DIRECTION('',(-0.707106781186548,-0.707106781186548,0.0));
#1165=AXIS2_PLACEMENT_3D('',#1162,#1163,#1164);
#1166=CIRCLE('',#1165,0.500000000000000);
#1167=EDGE_CURVE('',#1159,#1161,#1166,.T.);
#1168=ORIENTED_EDGE('',*,*,#1167,.T.);
#1169=CARTESIAN_POINT('',(-14.000000000000004,-6.049999999999995,0.0));
#1170=DIRECTION('',(0.0,0.0,1.0));
#1171=VECTOR('',#1170,25.699999999999999);
#1172=LINE('',#1169,#1171);
#1173=EDGE_CURVE('',#1161,#837,#1172,.T.);
#1174=ORIENTED_EDGE('',*,*,#1173,.T.);
#1175=ORIENTED_EDGE('',*,*,#843,.F.);
#1176=CARTESIAN_POINT('',(-14.500000000000004,-5.549999999999995,25.699999999999999));
#1177=DIRECTION('',(0.0,0.0,-1.0));
#1178=VECTOR('',#1177,25.699999999999999);
#1179=LINE('',#1176,#1178);
#1180=EDGE_CURVE('',#835,#1159,#1179,.T.);
#1181=ORIENTED_EDGE('',*,*,#1180,.T.);
#1182=EDGE_LOOP('',(#1168,#1174,#1175,#1181));
#1183=FACE_OUTER_BOUND('',#1182,.T.);
#1184=ADVANCED_FACE('',(#1183),#1157,.T.);
#1185=CARTESIAN_POINT('',(14.500000000000004,5.549999999999995,25.699999999999999));
#1186=CARTESIAN_POINT('',(14.500000000000004,5.549999999999995,0.0));
#1187=CARTESIAN_POINT('',(14.500000000000000,-5.550000000000005,25.699999999999999));
#1188=CARTESIAN_POINT('',(14.500000000000000,-5.550000000000005,0.0));
#1189=B_SPLINE_SURFACE_WITH_KNOTS('',1,1,((#1185,#1187),(#1186,#1188)),.UNSPECIFIED.,.F.,.F.,.U.,(2,2),(2,2),(0.0,25.699999999999999),(0.0,11.100000000000000),.UNSPECIFIED.);
#1190=ORIENTED_EDGE('',*,*,#1040,.F.);
#1191=ORIENTED_EDGE('',*,*,#979,.F.);
#1192=ORIENTED_EDGE('',*,*,#1087,.F.);
#1193=CARTESIAN_POINT('',(14.500000000000000,-5.550000000000005,0.0));
#1194=DIRECTION('',(0.0,1.0,0.0));
#1195=VECTOR('',#1194,11.100000000000000);
#1196=LINE('',#1193,#1195);
#1197=EDGE_CURVE('',#1075,#1019,#1196,.T.);
#1198=ORIENTED_EDGE('',*,*,#1197,.T.);
#1199=EDGE_LOOP('',(#1190,#1191,#1192,#1198));
#1200=FACE_OUTER_BOUND('',#1199,.T.);
#1201=ADVANCED_FACE('',(#1200),#1189,.F.);
#1202=CARTESIAN_POINT('',(-14.000000000000004,-6.049999999999995,0.0));
#1203=CARTESIAN_POINT('',(-14.000000000000004,-6.049999999999995,25.699999999999999));
#1204=CARTESIAN_POINT('',(13.999999999999996,-6.050000000000005,0.0));
#1205=CARTESIAN_POINT('',(13.999999999999996,-6.050000000000005,25.699999999999999));
#1206=B_SPLINE_SURFACE_WITH_KNOTS('',1,1,((#1202,#1204),(#1203,#1205)),.UNSPECIFIED.,.F.,.F.,.U.,(2,2),(2,2),(0.0,25.699999999999999),(0.0,28.0),.UNSPECIFIED.);
#1207=ORIENTED_EDGE('',*,*,#1094,.F.);
#1208=ORIENTED_EDGE('',*,*,#1055,.F.);
#1209=ORIENTED_EDGE('',*,*,#1173,.F.);
#1210=CARTESIAN_POINT('',(-14.000000000000004,-6.049999999999995,0.0));
#1211=DIRECTION('',(1.0,0.0,0.0));
#1212=VECTOR('',#1211,28.0);
#1213=LINE('',#1210,#1212);
#1214=EDGE_CURVE('',#1161,#1073,#1213,.T.);
#1215=ORIENTED_EDGE('',*,*,#1214,.T.);
#1216=EDGE_LOOP('',(#1207,#1208,#1209,#1215));
#1217=FACE_OUTER_BOUND('',#1216,.T.);
#1218=ADVANCED_FACE('',(#1217),#1206,.F.);
#1219=CARTESIAN_POINT('',(14.000000000000007,5.550000000000005,26.199999999999999));
#1220=CARTESIAN_POINT('',(-14.000000000000004,5.550000000000016,26.199999999999999));
#1221=CARTESIAN_POINT('',(14.000000000000004,-5.550000000000016,26.199999999999999));
#1222=CARTESIAN_POINT('',(-14.000000000000007,-5.550000000000005,26.199999999999999));
#1223=B_SPLINE_SURFACE_WITH_KNOTS('',1,1,((#1219,#1221),(#1220,#1222)),.UNSPECIFIED.,.F.,.F.,.U.,(2,2),(2,2),(0.0,28.000000000000011),(0.0,11.100000000000021),.UNSPECIFIED.);
#1224=ORIENTED_EDGE('',*,*,#986,.F.);
#1225=ORIENTED_EDGE('',*,*,#1008,.F.);
#1226=ORIENTED_EDGE('',*,*,#1116,.F.);
#1227=ORIENTED_EDGE('',*,*,#1062,.F.);
#1228=EDGE_LOOP('',(#1224,#1225,#1226,#1227));
#1229=FACE_OUTER_BOUND('',#1228,.T.);
#1230=ADVANCED_FACE('',(#1229),#1223,.T.);
#1231=CARTESIAN_POINT('',(14.500000000000007,6.050000000000005,0.0));
#1232=CARTESIAN_POINT('',(-14.500000000000004,6.050000000000016,0.0));
#1233=CARTESIAN_POINT('',(14.500000000000002,-6.050000000000016,0.0));
#1234=CARTESIAN_POINT('',(-14.500000000000009,-6.050000000000005,0.0));
#1235=B_SPLINE_SURFACE_WITH_KNOTS('',1,1,((#1231,#1233),(#1232,#1234)),.UNSPECIFIED.,.F.,.F.,.U.,(2,2),(2,2),(0.0,29.000000000000011),(0.0,12.100000000000021),.UNSPECIFIED.);
#1236=ORIENTED_EDGE('',*,*,#1027,.F.);
#1237=ORIENTED_EDGE('',*,*,#1197,.F.);
#1238=ORIENTED_EDGE('',*,*,#1081,.F.);
#1239=ORIENTED_EDGE('',*,*,#1214,.F.);
#1240=ORIENTED_EDGE('',*,*,#1167,.F.);
#1241=CARTESIAN_POINT('',(-14.500000000000000,5.550000000000005,0.0));
#1242=DIRECTION('',(0.0,-1.0,0.0));
#1243=VECTOR('',#1242,11.100000000000000);
#1244=LINE('',#1241,#1243);
#1245=EDGE_CURVE('',#1129,#1159,#1244,.T.);
#1246=ORIENTED_EDGE('',*,*,#1245,.F.);
#1247=ORIENTED_EDGE('',*,*,#1135,.F.);
#1248=CARTESIAN_POINT('',(14.000000000000004,6.049999999999995,0.0));
#1249=DIRECTION('',(-1.0,0.0,0.0));
#1250=VECTOR('',#1249,28.0);
#1251=LINE('',#1248,#1250);
#1252=EDGE_CURVE('',#1021,#1127,#1251,.T.);
#1253=ORIENTED_EDGE('',*,*,#1252,.F.);
#1254=EDGE_LOOP('',(#1236,#1237,#1238,#1239,#1240,#1246,#1247,#1253));
#1255=FACE_OUTER_BOUND('',#1254,.T.);
#1256=ADVANCED_FACE('',(#1255),#1235,.F.);
#1257=CARTESIAN_POINT('',(-13.999999999999998,6.050000000000005,25.699999999999999));
#1258=CARTESIAN_POINT('',(-13.999999999999998,6.050000000000005,0.0));
#1259=CARTESIAN_POINT('',(14.000000000000002,6.049999999999995,25.699999999999999));
#1260=CARTESIAN_POINT('',(14.000000000000002,6.049999999999995,0.0));
#1261=B_SPLINE_SURFACE_WITH_KNOTS('',1,1,((#1257,#1259),(#1258,#1260)),.UNSPECIFIED.,.F.,.F.,.U.,(2,2),(2,2),(0.0,25.699999999999999),(0.0,28.0),.UNSPECIFIED.);
#1262=ORIENTED_EDGE('',*,*,#1033,.F.);
#1263=ORIENTED_EDGE('',*,*,#1252,.T.);
#1264=ORIENTED_EDGE('',*,*,#1148,.F.);
#1265=ORIENTED_EDGE('',*,*,#1001,.F.);
#1266=EDGE_LOOP('',(#1262,#1263,#1264,#1265));
#1267=FACE_OUTER_BOUND('',#1266,.T.);
#1268=ADVANCED_FACE('',(#1267),#1261,.F.);
#1269=CARTESIAN_POINT('',(-14.500000000000000,5.550000000000005,0.0));
#1270=CARTESIAN_POINT('',(-14.500000000000000,5.550000000000005,25.699999999999999));
#1271=CARTESIAN_POINT('',(-14.500000000000004,-5.549999999999995,0.0));
#1272=CARTESIAN_POINT('',(-14.500000000000004,-5.549999999999995,25.699999999999999));
#1273=B_SPLINE_SURFACE_WITH_KNOTS('',1,1,((#1269,#1271),(#1270,#1272)),.UNSPECIFIED.,.F.,.F.,.U.,(2,2),(2,2),(0.0,25.699999999999999),(0.0,11.100000000000000),.UNSPECIFIED.);
#1274=ORIENTED_EDGE('',*,*,#1141,.F.);
#1275=ORIENTED_EDGE('',*,*,#1245,.T.);
#1276=ORIENTED_EDGE('',*,*,#1180,.F.);
#1277=ORIENTED_EDGE('',*,*,#1109,.F.);
#1278=EDGE_LOOP('',(#1274,#1275,#1276,#1277));
#1279=FACE_OUTER_BOUND('',#1278,.T.);
#1280=ADVANCED_FACE('',(#1279),#1273,.F.);
#1281=CLOSED_SHELL('',(#863,#898,#933,#968,#990,#1012,#1044,#1066,#1098,#1120,#1152,#1184,#1201,#1218,#1230,#1256,#1268,#1280));
#1282=MANIFOLD_SOLID_BREP('856',#1281);
#1283=COLOUR_RGB('250',0.330000000000000,0.330000000000000,0.330000000000000);
#1284=SURFACE_STYLE_USAGE(.BOTH.,#1285);
#1285=SURFACE_SIDE_STYLE('NONE',(#1286));
#1286=SURFACE_STYLE_FILL_AREA(#1287);
#1287=FILL_AREA_STYLE('NONE',(#1288));
#1288=FILL_AREA_STYLE_COLOUR('NONE',#1283);
#1289=PRESENTATION_STYLE_ASSIGNMENT((#1284));
#1290=STYLED_ITEM('NONE',(#1289),#1282);
#1291=ADVANCED_BREP_SHAPE_REPRESENTATION('ABSR1',(#214,#374,#525,#676,#827,#1282),#28);
#1292=SHAPE_REPRESENTATION_RELATIONSHIP('SRRPL1','',#1291,#62);
ENDSEC;
END-ISO-10303-21;
