ISO-10303-21;
HEADER;
/****************************************************************
 * Generated by software with PDE/Lib inside                    *
 * PDElib Version v51a, created Thu 12/14/2006                  *
 * International Technegroup Inc. (www.iti-oh.com)              *
 ****************************************************************/
FILE_DESCRIPTION((''),'2;1');
FILE_NAME('REL_OMRON_G5V-1.stp','2009-06-18T19:52:39',(''),(''),'Mechanical Desktop 2009','Mechanical Desktop 2009',', , ');
FILE_SCHEMA(('AUTOMOTIVE_DESIGN { 1 2 10303 214 1 1 1 1 }'));
ENDSEC;
DATA;
#8=(NAMED_UNIT(*)PLANE_ANGLE_UNIT()SI_UNIT($,.RADIAN.));
#9=DIMENSIONAL_EXPONENTS(0.0,0.0,0.0,0.0,0.0,0.0,0.0);
#10=PLANE_ANGLE_MEASURE_WITH_UNIT(PLANE_ANGLE_MEASURE(0.017453292500000),#8);
#14=(CONVERSION_BASED_UNIT('DEGREE',#10)NAMED_UNIT(#9)PLANE_ANGLE_UNIT());
#18=(NAMED_UNIT(*)SI_UNIT($,.STERADIAN.)SOLID_ANGLE_UNIT());
#22=(LENGTH_UNIT()NAMED_UNIT(*)SI_UNIT(.MILLI.,.METRE.));
#23=UNCERTAINTY_MEASURE_WITH_UNIT(LENGTH_MEASURE(0.000001000000000),#22,'DISTANCE_ACCURACY_VALUE','');
#28=(GEOMETRIC_REPRESENTATION_CONTEXT(3)GLOBAL_UNCERTAINTY_ASSIGNED_CONTEXT((#23))GLOBAL_UNIT_ASSIGNED_CONTEXT((#14,#18,#22))REPRESENTATION_CONTEXT('None','None'));
#29=APPLICATION_CONTEXT('automotive design');
#30=APPLICATION_PROTOCOL_DEFINITION('INTERNATIONAL_STANDARD','automotive_design',1998,#29);
#31=PRODUCT_CONTEXT('3D Mechanical Parts',#29,'mechanical');
#32=PRODUCT('Product','Product','',(#31));
#33=PRODUCT_RELATED_PRODUCT_CATEGORY('part',$,(#32));
#34=PRODUCT_CATEGORY('part',$);
#35=PERSON('1','Design','Joe',$,$,$);
#36=ORGANIZATION($,'None','None');
#37=PERSON_AND_ORGANIZATION(#35,#36);
#38=PERSON_AND_ORGANIZATION_ROLE('design_owner');
#39=APPLIED_PERSON_AND_ORGANIZATION_ASSIGNMENT(#37,#38,(#32));
#40=PRODUCT_DEFINITION_FORMATION_WITH_SPECIFIED_SOURCE('None','',#32,.BOUGHT.);
#41=PERSON('2','Creator','Joe',$,$,$);
#42=ORGANIZATION($,'None','None');
#43=PERSON_AND_ORGANIZATION(#41,#42);
#44=PERSON_AND_ORGANIZATION_ROLE('creator');
#45=APPLIED_PERSON_AND_ORGANIZATION_ASSIGNMENT(#43,#44,(#40));
#46=PERSON('3','Supplier','Joe',$,$,$);
#47=ORGANIZATION($,'None','None');
#48=PERSON_AND_ORGANIZATION(#46,#47);
#49=PERSON_AND_ORGANIZATION_ROLE('design_supplier');
#50=APPLIED_PERSON_AND_ORGANIZATION_ASSIGNMENT(#48,#49,(#40));
#51=PRODUCT_DEFINITION_CONTEXT('part definition',#29,'design');
#52=PRODUCT_DEFINITION('None','',#40,#51);
#53=PERSON('4','Creator','Joe',$,$,$);
#54=ORGANIZATION($,'None','None');
#55=PERSON_AND_ORGANIZATION(#53,#54);
#56=PERSON_AND_ORGANIZATION_ROLE('creator');
#57=APPLIED_PERSON_AND_ORGANIZATION_ASSIGNMENT(#55,#56,(#52));
#58=CARTESIAN_POINT('NONE',(0.0,0.0,0.0));
#59=DIRECTION('NONE',(0.0,0.0,1.0));
#60=DIRECTION('NONE',(1.0,0.0,0.0));
#61=AXIS2_PLACEMENT_3D('NONE',#58,#59,#60);
#62=SHAPE_REPRESENTATION('SR1',(#61),#28);
#63=PRODUCT_DEFINITION_SHAPE('PDS1','Test Part',#52);
#64=SHAPE_DEFINITION_REPRESENTATION(#63,#62);
#65=CARTESIAN_POINT('',(0.500000000000000,-3.250000000000000,9.750000000000000));
#66=DIRECTION('',(0.0,1.0,0.0));
#67=DIRECTION('',(0.0,0.0,1.0));
#68=AXIS2_PLACEMENT_3D('',#65,#66,#67);
#69=PLANE('',#68);
#70=CARTESIAN_POINT('',(-5.750000000000000,-3.250000000000000,10.0));
#71=VERTEX_POINT('',#70);
#72=CARTESIAN_POINT('',(-5.750000000000000,-3.250000000000000,9.500000000000000));
#73=VERTEX_POINT('',#72);
#74=CARTESIAN_POINT('',(-5.750000000000000,-3.250000000000000,10.0));
#75=DIRECTION('',(0.0,0.0,-1.0));
#76=VECTOR('',#75,0.500000000000000);
#77=LINE('',#74,#76);
#78=EDGE_CURVE('',#71,#73,#77,.T.);
#79=ORIENTED_EDGE('',*,*,#78,.T.);
#80=CARTESIAN_POINT('',(-4.750000000000000,-3.250000000000000,9.500000000000000));
#81=VERTEX_POINT('',#80);
#82=CARTESIAN_POINT('',(-4.750000000000000,-3.250000000000000,9.500000000000000));
#83=DIRECTION('',(-1.0,0.0,0.0));
#84=VECTOR('',#83,1.0);
#85=LINE('',#82,#84);
#86=EDGE_CURVE('',#81,#73,#85,.T.);
#87=ORIENTED_EDGE('',*,*,#86,.F.);
#88=CARTESIAN_POINT('',(-4.750000000000000,-3.250000000000000,10.0));
#89=VERTEX_POINT('',#88);
#90=CARTESIAN_POINT('',(-4.750000000000000,-3.250000000000000,10.0));
#91=DIRECTION('',(0.0,0.0,-1.0));
#92=VECTOR('',#91,0.500000000000000);
#93=LINE('',#90,#92);
#94=EDGE_CURVE('',#89,#81,#93,.T.);
#95=ORIENTED_EDGE('',*,*,#94,.F.);
#96=CARTESIAN_POINT('',(-5.750000000000000,-3.250000000000000,10.0));
#97=DIRECTION('',(1.0,0.0,0.0));
#98=VECTOR('',#97,1.0);
#99=LINE('',#96,#98);
#100=EDGE_CURVE('',#71,#89,#99,.T.);
#101=ORIENTED_EDGE('',*,*,#100,.F.);
#102=EDGE_LOOP('',(#79,#87,#95,#101));
#103=FACE_OUTER_BOUND('',#102,.T.);
#104=ADVANCED_FACE('',(#103),#69,.F.);
#105=CARTESIAN_POINT('',(0.500000000000000,0.0,10.0));
#106=DIRECTION('',(0.0,0.0,1.0));
#107=DIRECTION('',(1.0,0.0,0.0));
#108=AXIS2_PLACEMENT_3D('',#105,#106,#107);
#109=PLANE('',#108);
#110=CARTESIAN_POINT('',(-4.750000000000000,3.250000000000000,10.0));
#111=VERTEX_POINT('',#110);
#112=CARTESIAN_POINT('',(-4.750000000000000,-3.250000000000000,10.0));
#113=DIRECTION('',(0.0,1.0,0.0));
#114=VECTOR('',#113,6.500000000000000);
#115=LINE('',#112,#114);
#116=EDGE_CURVE('',#89,#111,#115,.T.);
#117=ORIENTED_EDGE('',*,*,#116,.T.);
#118=CARTESIAN_POINT('',(-5.750000000000000,3.250000000000000,10.0));
#119=VERTEX_POINT('',#118);
#120=CARTESIAN_POINT('',(-4.750000000000000,3.250000000000000,10.0));
#121=DIRECTION('',(-1.0,0.0,0.0));
#122=VECTOR('',#121,1.0);
#123=LINE('',#120,#122);
#124=EDGE_CURVE('',#111,#119,#123,.T.);
#125=ORIENTED_EDGE('',*,*,#124,.T.);
#126=CARTESIAN_POINT('',(-5.750000000000000,3.250000000000000,10.0));
#127=DIRECTION('',(0.0,-1.0,0.0));
#128=VECTOR('',#127,6.500000000000000);
#129=LINE('',#126,#128);
#130=EDGE_CURVE('',#119,#71,#129,.T.);
#131=ORIENTED_EDGE('',*,*,#130,.T.);
#132=ORIENTED_EDGE('',*,*,#100,.T.);
#133=EDGE_LOOP('',(#117,#125,#131,#132));
#134=FACE_OUTER_BOUND('',#133,.T.);
#135=ADVANCED_FACE('',(#134),#109,.T.);
#136=CARTESIAN_POINT('',(-5.750000000000000,0.0,9.750000000000000));
#137=DIRECTION('',(1.0,0.0,0.0));
#138=DIRECTION('',(0.0,0.0,-1.0));
#139=AXIS2_PLACEMENT_3D('',#136,#137,#138);
#140=PLANE('',#139);
#141=CARTESIAN_POINT('',(-5.750000000000000,3.250000000000000,9.500000000000000));
#142=VERTEX_POINT('',#141);
#143=CARTESIAN_POINT('',(-5.750000000000000,3.250000000000000,10.0));
#144=DIRECTION('',(0.0,0.0,-1.0));
#145=VECTOR('',#144,0.500000000000000);
#146=LINE('',#143,#145);
#147=EDGE_CURVE('',#119,#142,#146,.T.);
#148=ORIENTED_EDGE('',*,*,#147,.T.);
#149=CARTESIAN_POINT('',(-5.750000000000000,-3.250000000000000,9.500000000000000));
#150=DIRECTION('',(0.0,1.0,0.0));
#151=VECTOR('',#150,6.500000000000000);
#152=LINE('',#149,#151);
#153=EDGE_CURVE('',#73,#142,#152,.T.);
#154=ORIENTED_EDGE('',*,*,#153,.F.);
#155=ORIENTED_EDGE('',*,*,#78,.F.);
#156=ORIENTED_EDGE('',*,*,#130,.F.);
#157=EDGE_LOOP('',(#148,#154,#155,#156));
#158=FACE_OUTER_BOUND('',#157,.T.);
#159=ADVANCED_FACE('',(#158),#140,.F.);
#160=CARTESIAN_POINT('',(-4.750000000000000,0.0,9.750000000000000));
#161=DIRECTION('',(-1.0,0.0,0.0));
#162=DIRECTION('',(0.0,0.0,1.0));
#163=AXIS2_PLACEMENT_3D('',#160,#161,#162);
#164=PLANE('',#163);
#165=ORIENTED_EDGE('',*,*,#94,.T.);
#166=CARTESIAN_POINT('',(-4.750000000000000,3.250000000000000,9.500000000000000));
#167=VERTEX_POINT('',#166);
#168=CARTESIAN_POINT('',(-4.750000000000000,3.250000000000000,9.500000000000000));
#169=DIRECTION('',(0.0,-1.0,0.0));
#170=VECTOR('',#169,6.500000000000000);
#171=LINE('',#168,#170);
#172=EDGE_CURVE('',#167,#81,#171,.T.);
#173=ORIENTED_EDGE('',*,*,#172,.F.);
#174=CARTESIAN_POINT('',(-4.750000000000000,3.250000000000000,10.0));
#175=DIRECTION('',(0.0,0.0,-1.0));
#176=VECTOR('',#175,0.500000000000000);
#177=LINE('',#174,#176);
#178=EDGE_CURVE('',#111,#167,#177,.T.);
#179=ORIENTED_EDGE('',*,*,#178,.F.);
#180=ORIENTED_EDGE('',*,*,#116,.F.);
#181=EDGE_LOOP('',(#165,#173,#179,#180));
#182=FACE_OUTER_BOUND('',#181,.T.);
#183=ADVANCED_FACE('',(#182),#164,.F.);
#184=CARTESIAN_POINT('',(-11.0,0.0,9.500000000000000));
#185=DIRECTION('',(0.0,0.0,1.0));
#186=DIRECTION('',(1.0,0.0,0.0));
#187=AXIS2_PLACEMENT_3D('',#184,#185,#186);
#188=PLANE('',#187);
#189=ORIENTED_EDGE('',*,*,#172,.T.);
#190=ORIENTED_EDGE('',*,*,#86,.T.);
#191=ORIENTED_EDGE('',*,*,#153,.T.);
#192=CARTESIAN_POINT('',(-5.750000000000000,3.250000000000000,9.500000000000000));
#193=DIRECTION('',(1.0,0.0,0.0));
#194=VECTOR('',#193,1.0);
#195=LINE('',#192,#194);
#196=EDGE_CURVE('',#142,#167,#195,.T.);
#197=ORIENTED_EDGE('',*,*,#196,.T.);
#198=EDGE_LOOP('',(#189,#190,#191,#197));
#199=FACE_OUTER_BOUND('',#198,.T.);
#200=ADVANCED_FACE('',(#199),#188,.F.);
#201=CARTESIAN_POINT('',(0.500000000000000,3.250000000000000,9.750000000000000));
#202=DIRECTION('',(0.0,-1.0,0.0));
#203=DIRECTION('',(0.0,0.0,-1.0));
#204=AXIS2_PLACEMENT_3D('',#201,#202,#203);
#205=PLANE('',#204);
#206=ORIENTED_EDGE('',*,*,#178,.T.);
#207=ORIENTED_EDGE('',*,*,#196,.F.);
#208=ORIENTED_EDGE('',*,*,#147,.F.);
#209=ORIENTED_EDGE('',*,*,#124,.F.);
#210=EDGE_LOOP('',(#206,#207,#208,#209));
#211=FACE_OUTER_BOUND('',#210,.T.);
#212=ADVANCED_FACE('',(#211),#205,.F.);
#213=CLOSED_SHELL('',(#104,#135,#159,#183,#200,#212));
#214=MANIFOLD_SOLID_BREP('298',#213);
#215=DRAUGHTING_PRE_DEFINED_COLOUR('white');
#216=SURFACE_STYLE_USAGE(.BOTH.,#217);
#217=SURFACE_SIDE_STYLE('NONE',(#218));
#218=SURFACE_STYLE_FILL_AREA(#219);
#219=FILL_AREA_STYLE('NONE',(#220));
#220=FILL_AREA_STYLE_COLOUR('NONE',#215);
#221=PRESENTATION_STYLE_ASSIGNMENT((#216));
#222=STYLED_ITEM('NONE',(#221),#214);
#223=MECHANICAL_DESIGN_GEOMETRIC_PRESENTATION_REPRESENTATION('NONE',(#222,#838,#996,#1147,#1298,#1449,#1600,#1751),#28);
#224=PRESENTATION_LAYER_ASSIGNMENT('0','None',(#214,#830,#988,#1146,#1297,#1448,#1599,#1750));
#225=CARTESIAN_POINT('',(3.810000000000001,-1.318859231478539,0.500000000000000));
#226=DIRECTION('',(3.445093E-016,-1.0,-7.649643E-032));
#227=DIRECTION('',(0.0,0.0,-1.0));
#228=AXIS2_PLACEMENT_3D('',#225,#226,#227);
#229=CYLINDRICAL_SURFACE('',#228,0.500000000000000);
#230=CARTESIAN_POINT('',(4.309999999999999,3.250000000000000,0.500000000000000));
#231=VERTEX_POINT('',#230);
#232=CARTESIAN_POINT('',(4.309999999999999,3.750000000000000,0.500000000000000));
#233=VERTEX_POINT('',#232);
#234=CARTESIAN_POINT('',(4.309999999999999,3.250000000000000,0.500000000000000));
#235=DIRECTION('',(0.0,1.0,0.0));
#236=VECTOR('',#235,0.500000000000000);
#237=LINE('',#234,#236);
#238=EDGE_CURVE('',#231,#233,#237,.T.);
#239=ORIENTED_EDGE('',*,*,#238,.F.);
#240=CARTESIAN_POINT('',(3.309999999999999,3.250000000000000,0.500000000000000));
#241=VERTEX_POINT('',#240);
#242=CARTESIAN_POINT('',(3.809999999999999,3.250000000000000,0.500000000000000));
#243=DIRECTION('',(0.0,-1.0,0.0));
#244=DIRECTION('',(0.0,0.0,-1.0));
#245=AXIS2_PLACEMENT_3D('',#242,#243,#244);
#246=CIRCLE('',#245,0.500000000000000);
#247=EDGE_CURVE('',#241,#231,#246,.T.);
#248=ORIENTED_EDGE('',*,*,#247,.F.);
#249=CARTESIAN_POINT('',(3.309999999999999,3.750000000000000,0.500000000000000));
#250=VERTEX_POINT('',#249);
#251=CARTESIAN_POINT('',(3.309999999999999,3.750000000000000,0.500000000000000));
#252=DIRECTION('',(0.0,-1.0,0.0));
#253=VECTOR('',#252,0.500000000000000);
#254=LINE('',#251,#253);
#255=EDGE_CURVE('',#250,#241,#254,.T.);
#256=ORIENTED_EDGE('',*,*,#255,.F.);
#257=CARTESIAN_POINT('',(3.809999999999999,3.750000000000000,0.500000000000000));
#258=DIRECTION('',(0.0,1.0,0.0));
#259=DIRECTION('',(0.0,0.0,-1.0));
#260=AXIS2_PLACEMENT_3D('',#257,#258,#259);
#261=CIRCLE('',#260,0.500000000000000);
#262=EDGE_CURVE('',#233,#250,#261,.T.);
#263=ORIENTED_EDGE('',*,*,#262,.F.);
#264=EDGE_LOOP('',(#239,#248,#256,#263));
#265=FACE_OUTER_BOUND('',#264,.T.);
#266=ADVANCED_FACE('',(#265),#229,.T.);
#267=CARTESIAN_POINT('',(3.809999999999999,3.250000000000000,0.500000000000000));
#268=DIRECTION('',(0.0,1.0,0.0));
#269=DIRECTION('',(0.0,0.0,1.0));
#270=AXIS2_PLACEMENT_3D('',#267,#268,#269);
#271=PLANE('',#270);
#272=CARTESIAN_POINT('',(3.309999999999999,3.250000000000000,0.500000000000000));
#273=DIRECTION('',(1.0,0.0,0.0));
#274=VECTOR('',#273,1.000000000000000);
#275=LINE('',#272,#274);
#276=EDGE_CURVE('',#241,#231,#275,.T.);
#277=ORIENTED_EDGE('',*,*,#276,.F.);
#278=ORIENTED_EDGE('',*,*,#247,.T.);
#279=EDGE_LOOP('',(#277,#278));
#280=FACE_OUTER_BOUND('',#279,.T.);
#281=ADVANCED_FACE('',(#280),#271,.F.);
#282=CARTESIAN_POINT('',(0.0,3.750000000000000,5.0));
#283=DIRECTION('',(0.0,-1.0,0.0));
#284=DIRECTION('',(0.0,0.0,-1.0));
#285=AXIS2_PLACEMENT_3D('',#282,#283,#284);
#286=PLANE('',#285);
#287=CARTESIAN_POINT('',(-3.309999999999999,3.750000000000000,0.500000000000000));
#288=VERTEX_POINT('',#287);
#289=CARTESIAN_POINT('',(-3.309999999999999,3.750000000000000,0.500000000000000));
#290=DIRECTION('',(1.0,0.0,0.0));
#291=VECTOR('',#290,6.619999999999998);
#292=LINE('',#289,#291);
#293=EDGE_CURVE('',#288,#250,#292,.T.);
#294=ORIENTED_EDGE('',*,*,#293,.F.);
#295=CARTESIAN_POINT('',(-4.309999999999999,3.750000000000000,0.500000000000000));
#296=VERTEX_POINT('',#295);
#297=CARTESIAN_POINT('',(-3.809999999999999,3.750000000000000,0.500000000000000));
#298=DIRECTION('',(0.0,-1.0,0.0));
#299=DIRECTION('',(0.0,0.0,-1.0));
#300=AXIS2_PLACEMENT_3D('',#297,#298,#299);
#301=CIRCLE('',#300,0.500000000000000);
#302=EDGE_CURVE('',#296,#288,#301,.T.);
#303=ORIENTED_EDGE('',*,*,#302,.F.);
#304=CARTESIAN_POINT('',(-6.250000000000000,3.750000000000000,0.500000000000000));
#305=VERTEX_POINT('',#304);
#306=CARTESIAN_POINT('',(-6.250000000000000,3.750000000000000,0.500000000000000));
#307=DIRECTION('',(1.0,0.0,0.0));
#308=VECTOR('',#307,1.940000000000001);
#309=LINE('',#306,#308);
#310=EDGE_CURVE('',#305,#296,#309,.T.);
#311=ORIENTED_EDGE('',*,*,#310,.F.);
#312=CARTESIAN_POINT('',(-6.250000000000000,3.750000000000000,10.0));
#313=VERTEX_POINT('',#312);
#314=CARTESIAN_POINT('',(-6.250000000000000,3.750000000000000,10.0));
#315=DIRECTION('',(0.0,0.0,-1.0));
#316=VECTOR('',#315,9.500000000000000);
#317=LINE('',#314,#316);
#318=EDGE_CURVE('',#313,#305,#317,.T.);
#319=ORIENTED_EDGE('',*,*,#318,.F.);
#320=CARTESIAN_POINT('',(6.250000000000000,3.750000000000000,10.0));
#321=VERTEX_POINT('',#320);
#322=CARTESIAN_POINT('',(6.250000000000000,3.750000000000000,10.0));
#323=DIRECTION('',(-1.0,0.0,0.0));
#324=VECTOR('',#323,12.500000000000000);
#325=LINE('',#322,#324);
#326=EDGE_CURVE('',#321,#313,#325,.T.);
#327=ORIENTED_EDGE('',*,*,#326,.F.);
#328=CARTESIAN_POINT('',(6.250000000000000,3.750000000000000,0.500000000000000));
#329=VERTEX_POINT('',#328);
#330=CARTESIAN_POINT('',(6.250000000000000,3.750000000000000,10.0));
#331=DIRECTION('',(0.0,0.0,-1.0));
#332=VECTOR('',#331,9.500000000000000);
#333=LINE('',#330,#332);
#334=EDGE_CURVE('',#321,#329,#333,.T.);
#335=ORIENTED_EDGE('',*,*,#334,.T.);
#336=CARTESIAN_POINT('',(4.309999999999999,3.750000000000000,0.500000000000000));
#337=DIRECTION('',(1.0,0.0,0.0));
#338=VECTOR('',#337,1.940000000000001);
#339=LINE('',#336,#338);
#340=EDGE_CURVE('',#233,#329,#339,.T.);
#341=ORIENTED_EDGE('',*,*,#340,.F.);
#342=ORIENTED_EDGE('',*,*,#262,.T.);
#343=EDGE_LOOP('',(#294,#303,#311,#319,#327,#335,#341,#342));
#344=FACE_OUTER_BOUND('',#343,.T.);
#345=ADVANCED_FACE('',(#344),#286,.F.);
#346=CARTESIAN_POINT('',(3.809999999999999,-3.750000000000000,1.0));
#347=CARTESIAN_POINT('',(3.809999999999999,-3.249999999999999,1.0));
#348=CARTESIAN_POINT('',(3.309999999999999,-3.750000000000000,1.000000000000000));
#349=CARTESIAN_POINT('',(3.309999999999999,-3.249999999999999,1.000000000000000));
#350=CARTESIAN_POINT('',(3.309999999999999,-3.750000000000000,0.500000000000000));
#351=CARTESIAN_POINT('',(3.309999999999999,-3.249999999999999,0.500000000000000));
#352=CARTESIAN_POINT('',(3.309999999999999,-3.750000000000000,1.110223E-016));
#353=CARTESIAN_POINT('',(3.309999999999999,-3.249999999999999,1.110223E-016));
#354=CARTESIAN_POINT('',(3.809999999999999,-3.750000000000000,0.0));
#355=CARTESIAN_POINT('',(3.809999999999999,-3.249999999999999,0.0));
#356=CARTESIAN_POINT('',(4.309999999999999,-3.750000000000000,1.110223E-016));
#357=CARTESIAN_POINT('',(4.309999999999999,-3.249999999999999,1.110223E-016));
#358=CARTESIAN_POINT('',(4.309999999999999,-3.750000000000000,0.500000000000000));
#359=CARTESIAN_POINT('',(4.309999999999999,-3.249999999999999,0.500000000000000));
#360=CARTESIAN_POINT('',(4.309999999999999,-3.750000000000000,1.000000000000000));
#361=CARTESIAN_POINT('',(4.309999999999999,-3.249999999999999,1.000000000000000));
#362=CARTESIAN_POINT('',(3.809999999999999,-3.750000000000000,1.0));
#363=CARTESIAN_POINT('',(3.809999999999999,-3.249999999999999,1.0));
#371=(BOUNDED_SURFACE()B_SPLINE_SURFACE(1,2,((#346,#348,#350,#352,#354,#356,#358,#360,#362),(#347,#349,#351,#353,#355,#357,#359,#361,#363)),.UNSPECIFIED.,.F.,.T.,.U.)B_SPLINE_SURFACE_WITH_KNOTS((2,2),(3,2,2,2,3),(-10.137718462957078,-9.137718462957077),(0.0,0.785398163397448,1.570796326794897,2.356194490192345,3.141592653589793),.UNSPECIFIED.)GEOMETRIC_REPRESENTATION_ITEM()RATIONAL_B_SPLINE_SURFACE(((1.0,0.707106781186548,1.0,0.707106781186548,1.0,0.707106781186548,1.0,0.707106781186548,1.0),(1.0,0.707106781186548,1.0,0.707106781186548,1.0,0.707106781186548,1.0,0.707106781186548,1.0)))REPRESENTATION_ITEM('')SURFACE());
#372=CARTESIAN_POINT('',(3.309999999999999,-3.250000000000000,0.500000000000000));
#373=VERTEX_POINT('',#372);
#374=CARTESIAN_POINT('',(3.309999999999999,-3.750000000000000,0.500000000000000));
#375=VERTEX_POINT('',#374);
#376=CARTESIAN_POINT('',(3.309999999999999,-3.250000000000000,0.500000000000000));
#377=DIRECTION('',(0.0,-1.0,0.0));
#378=VECTOR('',#377,0.500000000000000);
#379=LINE('',#376,#378);
#380=EDGE_CURVE('',#373,#375,#379,.T.);
#381=ORIENTED_EDGE('',*,*,#380,.F.);
#382=CARTESIAN_POINT('',(4.309999999999999,-3.250000000000000,0.500000000000000));
#383=VERTEX_POINT('',#382);
#384=CARTESIAN_POINT('',(3.809999999999999,-3.250000000000000,0.500000000000000));
#385=DIRECTION('',(0.0,1.0,0.0));
#386=DIRECTION('',(0.0,0.0,-1.0));
#387=AXIS2_PLACEMENT_3D('',#384,#385,#386);
#388=CIRCLE('',#387,0.500000000000000);
#389=EDGE_CURVE('',#383,#373,#388,.T.);
#390=ORIENTED_EDGE('',*,*,#389,.F.);
#391=CARTESIAN_POINT('',(4.309999999999999,-3.750000000000000,0.500000000000000));
#392=VERTEX_POINT('',#391);
#393=CARTESIAN_POINT('',(4.309999999999999,-3.750000000000000,0.500000000000000));
#394=DIRECTION('',(0.0,1.0,0.0));
#395=VECTOR('',#394,0.500000000000000);
#396=LINE('',#393,#395);
#397=EDGE_CURVE('',#392,#383,#396,.T.);
#398=ORIENTED_EDGE('',*,*,#397,.F.);
#399=CARTESIAN_POINT('',(3.809999999999999,-3.750000000000000,0.500000000000000));
#400=DIRECTION('',(0.0,1.0,0.0));
#401=DIRECTION('',(0.0,0.0,-1.0));
#402=AXIS2_PLACEMENT_3D('',#399,#400,#401);
#403=CIRCLE('',#402,0.500000000000000);
#404=EDGE_CURVE('',#392,#375,#403,.T.);
#405=ORIENTED_EDGE('',*,*,#404,.T.);
#406=EDGE_LOOP('',(#381,#390,#398,#405));
#407=FACE_OUTER_BOUND('',#406,.T.);
#408=ADVANCED_FACE('',(#407),#371,.T.);
#409=CARTESIAN_POINT('',(4.309999999999999,-3.250000000000000,-2.220446E-016));
#410=CARTESIAN_POINT('',(4.309999999999999,-3.250000000000000,0.500000000000000));
#411=CARTESIAN_POINT('',(3.310000000000000,-3.250000000000000,0.0));
#412=CARTESIAN_POINT('',(3.310000000000000,-3.250000000000000,0.500000000000000));
#413=B_SPLINE_SURFACE_WITH_KNOTS('',1,1,((#409,#411),(#410,#412)),.UNSPECIFIED.,.F.,.F.,.U.,(2,2),(2,2),(0.0,0.500000000000000),(0.0,0.999999999999999),.UNSPECIFIED.);
#414=CARTESIAN_POINT('',(4.309999999999999,-3.250000000000000,0.500000000000000));
#415=DIRECTION('',(-1.0,0.0,0.0));
#416=VECTOR('',#415,1.000000000000000);
#417=LINE('',#414,#416);
#418=EDGE_CURVE('',#383,#373,#417,.T.);
#419=ORIENTED_EDGE('',*,*,#418,.F.);
#420=ORIENTED_EDGE('',*,*,#389,.T.);
#421=EDGE_LOOP('',(#419,#420));
#422=FACE_OUTER_BOUND('',#421,.T.);
#423=ADVANCED_FACE('',(#422),#413,.F.);
#424=CARTESIAN_POINT('',(0.0,-3.750000000000000,5.500000000000000));
#425=DIRECTION('',(0.0,1.0,0.0));
#426=DIRECTION('',(0.0,0.0,1.0));
#427=AXIS2_PLACEMENT_3D('',#424,#425,#426);
#428=PLANE('',#427);
#429=CARTESIAN_POINT('',(6.250000000000000,-3.750000000000000,0.500000000000000));
#430=VERTEX_POINT('',#429);
#431=CARTESIAN_POINT('',(6.250000000000000,-3.750000000000000,0.500000000000000));
#432=DIRECTION('',(-1.0,0.0,0.0));
#433=VECTOR('',#432,1.940000000000001);
#434=LINE('',#431,#433);
#435=EDGE_CURVE('',#430,#392,#434,.T.);
#436=ORIENTED_EDGE('',*,*,#435,.F.);
#437=CARTESIAN_POINT('',(6.250000000000000,-3.750000000000000,10.0));
#438=VERTEX_POINT('',#437);
#439=CARTESIAN_POINT('',(6.250000000000000,-3.750000000000000,10.0));
#440=DIRECTION('',(0.0,0.0,-1.0));
#441=VECTOR('',#440,9.500000000000000);
#442=LINE('',#439,#441);
#443=EDGE_CURVE('',#438,#430,#442,.T.);
#444=ORIENTED_EDGE('',*,*,#443,.F.);
#445=CARTESIAN_POINT('',(-6.250000000000000,-3.750000000000000,10.0));
#446=VERTEX_POINT('',#445);
#447=CARTESIAN_POINT('',(-6.250000000000000,-3.750000000000000,10.0));
#448=DIRECTION('',(1.0,0.0,0.0));
#449=VECTOR('',#448,12.500000000000000);
#450=LINE('',#447,#449);
#451=EDGE_CURVE('',#446,#438,#450,.T.);
#452=ORIENTED_EDGE('',*,*,#451,.F.);
#453=CARTESIAN_POINT('',(-6.250000000000000,-3.750000000000000,0.500000000000000));
#454=VERTEX_POINT('',#453);
#455=CARTESIAN_POINT('',(-6.250000000000000,-3.750000000000000,10.0));
#456=DIRECTION('',(0.0,0.0,-1.0));
#457=VECTOR('',#456,9.500000000000000);
#458=LINE('',#455,#457);
#459=EDGE_CURVE('',#446,#454,#458,.T.);
#460=ORIENTED_EDGE('',*,*,#459,.T.);
#461=CARTESIAN_POINT('',(-4.309999999999999,-3.750000000000000,0.500000000000000));
#462=VERTEX_POINT('',#461);
#463=CARTESIAN_POINT('',(-4.309999999999999,-3.750000000000000,0.500000000000000));
#464=DIRECTION('',(-1.0,0.0,0.0));
#465=VECTOR('',#464,1.940000000000001);
#466=LINE('',#463,#465);
#467=EDGE_CURVE('',#462,#454,#466,.T.);
#468=ORIENTED_EDGE('',*,*,#467,.F.);
#469=CARTESIAN_POINT('',(-3.309999999999999,-3.750000000000000,0.500000000000000));
#470=VERTEX_POINT('',#469);
#471=CARTESIAN_POINT('',(-3.809999999999999,-3.750000000000000,0.500000000000000));
#472=DIRECTION('',(0.0,-1.0,0.0));
#473=DIRECTION('',(0.0,0.0,-1.0));
#474=AXIS2_PLACEMENT_3D('',#471,#472,#473);
#475=CIRCLE('',#474,0.500000000000000);
#476=EDGE_CURVE('',#462,#470,#475,.T.);
#477=ORIENTED_EDGE('',*,*,#476,.T.);
#478=CARTESIAN_POINT('',(3.309999999999999,-3.750000000000000,0.500000000000000));
#479=DIRECTION('',(-1.0,0.0,0.0));
#480=VECTOR('',#479,6.619999999999998);
#481=LINE('',#478,#480);
#482=EDGE_CURVE('',#375,#470,#481,.T.);
#483=ORIENTED_EDGE('',*,*,#482,.F.);
#484=ORIENTED_EDGE('',*,*,#404,.F.);
#485=EDGE_LOOP('',(#436,#444,#452,#460,#468,#477,#483,#484));
#486=FACE_OUTER_BOUND('',#485,.T.);
#487=ADVANCED_FACE('',(#486),#428,.F.);
#488=CARTESIAN_POINT('',(-3.809999999999999,3.750000000000000,1.0));
#489=CARTESIAN_POINT('',(-3.809999999999999,3.249999999999999,1.0));
#490=CARTESIAN_POINT('',(-3.309999999999999,3.750000000000000,1.000000000000000));
#491=CARTESIAN_POINT('',(-3.309999999999999,3.249999999999999,1.000000000000000));
#492=CARTESIAN_POINT('',(-3.309999999999999,3.750000000000000,0.500000000000000));
#493=CARTESIAN_POINT('',(-3.309999999999999,3.249999999999999,0.500000000000000));
#494=CARTESIAN_POINT('',(-3.309999999999999,3.750000000000000,1.110223E-016));
#495=CARTESIAN_POINT('',(-3.309999999999999,3.249999999999999,1.110223E-016));
#496=CARTESIAN_POINT('',(-3.809999999999999,3.750000000000000,0.0));
#497=CARTESIAN_POINT('',(-3.809999999999999,3.249999999999999,0.0));
#498=CARTESIAN_POINT('',(-4.309999999999999,3.750000000000000,1.110223E-016));
#499=CARTESIAN_POINT('',(-4.309999999999999,3.249999999999999,1.110223E-016));
#500=CARTESIAN_POINT('',(-4.309999999999999,3.750000000000000,0.500000000000000));
#501=CARTESIAN_POINT('',(-4.309999999999999,3.249999999999999,0.500000000000000));
#502=CARTESIAN_POINT('',(-4.309999999999999,3.750000000000000,1.000000000000000));
#503=CARTESIAN_POINT('',(-4.309999999999999,3.249999999999999,1.000000000000000));
#504=CARTESIAN_POINT('',(-3.809999999999999,3.750000000000000,1.0));
#505=CARTESIAN_POINT('',(-3.809999999999999,3.249999999999999,1.0));
#513=(BOUNDED_SURFACE()B_SPLINE_SURFACE(1,2,((#488,#490,#492,#494,#496,#498,#500,#502,#504),(#489,#491,#493,#495,#497,#499,#501,#503,#505)),.UNSPECIFIED.,.F.,.T.,.U.)B_SPLINE_SURFACE_WITH_KNOTS((2,2),(3,2,2,2,3),(-10.137718462957078,-9.137718462957077),(0.0,0.785398163397448,1.570796326794897,2.356194490192345,3.141592653589793),.UNSPECIFIED.)GEOMETRIC_REPRESENTATION_ITEM()RATIONAL_B_SPLINE_SURFACE(((1.0,0.707106781186548,1.0,0.707106781186548,1.0,0.707106781186548,1.0,0.707106781186548,1.0),(1.0,0.707106781186548,1.0,0.707106781186548,1.0,0.707106781186548,1.0,0.707106781186548,1.0)))REPRESENTATION_ITEM('')SURFACE());
#514=CARTESIAN_POINT('',(-4.309999999999999,3.250000000000000,0.500000000000000));
#515=VERTEX_POINT('',#514);
#516=CARTESIAN_POINT('',(-4.309999999999999,3.750000000000000,0.500000000000000));
#517=DIRECTION('',(0.0,-1.0,0.0));
#518=VECTOR('',#517,0.500000000000001);
#519=LINE('',#516,#518);
#520=EDGE_CURVE('',#296,#515,#519,.T.);
#521=ORIENTED_EDGE('',*,*,#520,.F.);
#522=ORIENTED_EDGE('',*,*,#302,.T.);
#523=CARTESIAN_POINT('',(-3.309999999999999,3.250000000000000,0.500000000000000));
#524=VERTEX_POINT('',#523);
#525=CARTESIAN_POINT('',(-3.309999999999999,3.250000000000000,0.500000000000000));
#526=DIRECTION('',(0.0,1.0,0.0));
#527=VECTOR('',#526,0.500000000000000);
#528=LINE('',#525,#527);
#529=EDGE_CURVE('',#524,#288,#528,.T.);
#530=ORIENTED_EDGE('',*,*,#529,.F.);
#531=CARTESIAN_POINT('',(-3.809999999999999,3.250000000000000,0.500000000000000));
#532=DIRECTION('',(0.0,-1.0,0.0));
#533=DIRECTION('',(0.0,0.0,-1.0));
#534=AXIS2_PLACEMENT_3D('',#531,#532,#533);
#535=CIRCLE('',#534,0.500000000000000);
#536=EDGE_CURVE('',#515,#524,#535,.T.);
#537=ORIENTED_EDGE('',*,*,#536,.F.);
#538=EDGE_LOOP('',(#521,#522,#530,#537));
#539=FACE_OUTER_BOUND('',#538,.T.);
#540=ADVANCED_FACE('',(#539),#513,.T.);
#541=CARTESIAN_POINT('',(-4.309999999999999,3.250000000000000,-2.220446E-016));
#542=CARTESIAN_POINT('',(-4.309999999999999,3.250000000000000,0.500000000000000));
#543=CARTESIAN_POINT('',(-3.310000000000000,3.250000000000000,0.0));
#544=CARTESIAN_POINT('',(-3.310000000000000,3.250000000000000,0.500000000000000));
#545=B_SPLINE_SURFACE_WITH_KNOTS('',1,1,((#541,#543),(#542,#544)),.UNSPECIFIED.,.F.,.F.,.U.,(2,2),(2,2),(0.0,0.500000000000000),(0.0,0.999999999999999),.UNSPECIFIED.);
#546=CARTESIAN_POINT('',(-4.309999999999999,3.250000000000000,0.500000000000000));
#547=DIRECTION('',(1.0,0.0,0.0));
#548=VECTOR('',#547,1.000000000000000);
#549=LINE('',#546,#548);
#550=EDGE_CURVE('',#515,#524,#549,.T.);
#551=ORIENTED_EDGE('',*,*,#550,.F.);
#552=ORIENTED_EDGE('',*,*,#536,.T.);
#553=EDGE_LOOP('',(#551,#552));
#554=FACE_OUTER_BOUND('',#553,.T.);
#555=ADVANCED_FACE('',(#554),#545,.F.);
#556=CARTESIAN_POINT('',(0.0,0.0,0.500000000000000));
#557=DIRECTION('',(0.0,0.0,1.0));
#558=DIRECTION('',(1.0,0.0,0.0));
#559=AXIS2_PLACEMENT_3D('',#556,#557,#558);
#560=PLANE('',#559);
#561=ORIENTED_EDGE('',*,*,#238,.T.);
#562=ORIENTED_EDGE('',*,*,#340,.T.);
#563=CARTESIAN_POINT('',(6.250000000000000,3.750000000000000,0.500000000000000));
#564=DIRECTION('',(0.0,-1.0,0.0));
#565=VECTOR('',#564,7.500000000000000);
#566=LINE('',#563,#565);
#567=EDGE_CURVE('',#329,#430,#566,.T.);
#568=ORIENTED_EDGE('',*,*,#567,.T.);
#569=ORIENTED_EDGE('',*,*,#435,.T.);
#570=ORIENTED_EDGE('',*,*,#397,.T.);
#571=ORIENTED_EDGE('',*,*,#418,.T.);
#572=ORIENTED_EDGE('',*,*,#380,.T.);
#573=ORIENTED_EDGE('',*,*,#482,.T.);
#574=CARTESIAN_POINT('',(-3.309999999999999,-3.250000000000000,0.500000000000000));
#575=VERTEX_POINT('',#574);
#576=CARTESIAN_POINT('',(-3.309999999999999,-3.750000000000000,0.500000000000000));
#577=DIRECTION('',(0.0,1.0,0.0));
#578=VECTOR('',#577,0.500000000000000);
#579=LINE('',#576,#578);
#580=EDGE_CURVE('',#470,#575,#579,.T.);
#581=ORIENTED_EDGE('',*,*,#580,.T.);
#582=CARTESIAN_POINT('',(-4.309999999999999,-3.250000000000000,0.500000000000000));
#583=VERTEX_POINT('',#582);
#584=CARTESIAN_POINT('',(-3.309999999999999,-3.250000000000000,0.500000000000000));
#585=DIRECTION('',(-1.0,0.0,0.0));
#586=VECTOR('',#585,1.000000000000000);
#587=LINE('',#584,#586);
#588=EDGE_CURVE('',#575,#583,#587,.T.);
#589=ORIENTED_EDGE('',*,*,#588,.T.);
#590=CARTESIAN_POINT('',(-4.309999999999999,-3.250000000000000,0.500000000000000));
#591=DIRECTION('',(0.0,-1.0,0.0));
#592=VECTOR('',#591,0.500000000000000);
#593=LINE('',#590,#592);
#594=EDGE_CURVE('',#583,#462,#593,.T.);
#595=ORIENTED_EDGE('',*,*,#594,.T.);
#596=ORIENTED_EDGE('',*,*,#467,.T.);
#597=CARTESIAN_POINT('',(-6.250000000000000,-3.750000000000000,0.500000000000000));
#598=DIRECTION('',(0.0,1.0,0.0));
#599=VECTOR('',#598,7.500000000000000);
#600=LINE('',#597,#599);
#601=EDGE_CURVE('',#454,#305,#600,.T.);
#602=ORIENTED_EDGE('',*,*,#601,.T.);
#603=ORIENTED_EDGE('',*,*,#310,.T.);
#604=ORIENTED_EDGE('',*,*,#520,.T.);
#605=ORIENTED_EDGE('',*,*,#550,.T.);
#606=ORIENTED_EDGE('',*,*,#529,.T.);
#607=ORIENTED_EDGE('',*,*,#293,.T.);
#608=ORIENTED_EDGE('',*,*,#255,.T.);
#609=ORIENTED_EDGE('',*,*,#276,.T.);
#610=EDGE_LOOP('',(#561,#562,#568,#569,#570,#571,#572,#573,#581,#589,#595,#596,#602,#603,#604,#605,#606,#607,#608,#609));
#611=FACE_OUTER_BOUND('',#610,.T.);
#612=ADVANCED_FACE('',(#611),#560,.F.);
#613=CARTESIAN_POINT('',(-3.810000000000001,1.318859231478539,0.500000000000000));
#614=DIRECTION('',(-3.445093E-016,1.0,-7.649643E-032));
#615=DIRECTION('',(0.0,0.0,-1.0));
#616=AXIS2_PLACEMENT_3D('',#613,#614,#615);
#617=CYLINDRICAL_SURFACE('',#616,0.500000000000000);
#618=ORIENTED_EDGE('',*,*,#594,.F.);
#619=CARTESIAN_POINT('',(-3.809999999999999,-3.250000000000000,0.500000000000000));
#620=DIRECTION('',(0.0,-1.0,0.0));
#621=DIRECTION('',(0.0,0.0,-1.0));
#622=AXIS2_PLACEMENT_3D('',#619,#620,#621);
#623=CIRCLE('',#622,0.500000000000000);
#624=EDGE_CURVE('',#583,#575,#623,.T.);
#625=ORIENTED_EDGE('',*,*,#624,.T.);
#626=ORIENTED_EDGE('',*,*,#580,.F.);
#627=ORIENTED_EDGE('',*,*,#476,.F.);
#628=EDGE_LOOP('',(#618,#625,#626,#627));
#629=FACE_OUTER_BOUND('',#628,.T.);
#630=ADVANCED_FACE('',(#629),#617,.T.);
#631=CARTESIAN_POINT('',(-3.809999999999999,-3.250000000000000,0.500000000000000));
#632=DIRECTION('',(0.0,-1.0,0.0));
#633=DIRECTION('',(0.0,0.0,1.0));
#634=AXIS2_PLACEMENT_3D('',#631,#632,#633);
#635=PLANE('',#634);
#636=ORIENTED_EDGE('',*,*,#588,.F.);
#637=ORIENTED_EDGE('',*,*,#624,.F.);
#638=EDGE_LOOP('',(#636,#637));
#639=FACE_OUTER_BOUND('',#638,.T.);
#640=ADVANCED_FACE('',(#639),#635,.F.);
#641=CARTESIAN_POINT('',(0.500000000000000,-3.250000000000000,9.750000000000000));
#642=DIRECTION('',(0.0,1.0,0.0));
#643=DIRECTION('',(0.0,0.0,1.0));
#644=AXIS2_PLACEMENT_3D('',#641,#642,#643);
#645=PLANE('',#644);
#646=CARTESIAN_POINT('',(-5.750000000000000,-3.250000000000000,10.0));
#647=VERTEX_POINT('',#646);
#648=CARTESIAN_POINT('',(-5.750000000000000,-3.250000000000000,9.500000000000000));
#649=VERTEX_POINT('',#648);
#650=CARTESIAN_POINT('',(-5.750000000000000,-3.250000000000000,10.0));
#651=DIRECTION('',(0.0,0.0,-1.0));
#652=VECTOR('',#651,0.500000000000000);
#653=LINE('',#650,#652);
#654=EDGE_CURVE('',#647,#649,#653,.T.);
#655=ORIENTED_EDGE('',*,*,#654,.F.);
#656=CARTESIAN_POINT('',(-4.750000000000000,-3.250000000000000,10.0));
#657=VERTEX_POINT('',#656);
#658=CARTESIAN_POINT('',(-4.750000000000000,-3.250000000000000,10.0));
#659=DIRECTION('',(-1.0,0.0,0.0));
#660=VECTOR('',#659,1.0);
#661=LINE('',#658,#660);
#662=EDGE_CURVE('',#657,#647,#661,.T.);
#663=ORIENTED_EDGE('',*,*,#662,.F.);
#664=CARTESIAN_POINT('',(-4.750000000000000,-3.250000000000000,9.500000000000000));
#665=VERTEX_POINT('',#664);
#666=CARTESIAN_POINT('',(-4.750000000000000,-3.250000000000000,10.0));
#667=DIRECTION('',(0.0,0.0,-1.0));
#668=VECTOR('',#667,0.500000000000000);
#669=LINE('',#666,#668);
#670=EDGE_CURVE('',#657,#665,#669,.T.);
#671=ORIENTED_EDGE('',*,*,#670,.T.);
#672=CARTESIAN_POINT('',(-4.750000000000000,-3.250000000000000,9.500000000000000));
#673=DIRECTION('',(-1.0,0.0,0.0));
#674=VECTOR('',#673,1.0);
#675=LINE('',#672,#674);
#676=EDGE_CURVE('',#665,#649,#675,.T.);
#677=ORIENTED_EDGE('',*,*,#676,.T.);
#678=EDGE_LOOP('',(#655,#663,#671,#677));
#679=FACE_OUTER_BOUND('',#678,.T.);
#680=ADVANCED_FACE('',(#679),#645,.T.);
#681=CARTESIAN_POINT('',(-5.750000000000000,0.0,9.750000000000000));
#682=DIRECTION('',(1.0,0.0,0.0));
#683=DIRECTION('',(0.0,0.0,-1.0));
#684=AXIS2_PLACEMENT_3D('',#681,#682,#683);
#685=PLANE('',#684);
#686=CARTESIAN_POINT('',(-5.750000000000000,3.250000000000000,10.0));
#687=VERTEX_POINT('',#686);
#688=CARTESIAN_POINT('',(-5.750000000000000,3.250000000000000,9.500000000000000));
#689=VERTEX_POINT('',#688);
#690=CARTESIAN_POINT('',(-5.750000000000000,3.250000000000000,10.0));
#691=DIRECTION('',(0.0,0.0,-1.0));
#692=VECTOR('',#691,0.500000000000000);
#693=LINE('',#690,#692);
#694=EDGE_CURVE('',#687,#689,#693,.T.);
#695=ORIENTED_EDGE('',*,*,#694,.F.);
#696=CARTESIAN_POINT('',(-5.750000000000000,-3.250000000000000,10.0));
#697=DIRECTION('',(0.0,1.0,0.0));
#698=VECTOR('',#697,6.500000000000000);
#699=LINE('',#696,#698);
#700=EDGE_CURVE('',#647,#687,#699,.T.);
#701=ORIENTED_EDGE('',*,*,#700,.F.);
#702=ORIENTED_EDGE('',*,*,#654,.T.);
#703=CARTESIAN_POINT('',(-5.750000000000000,-3.250000000000000,9.500000000000000));
#704=DIRECTION('',(0.0,1.0,0.0));
#705=VECTOR('',#704,6.500000000000000);
#706=LINE('',#703,#705);
#707=EDGE_CURVE('',#649,#689,#706,.T.);
#708=ORIENTED_EDGE('',*,*,#707,.T.);
#709=EDGE_LOOP('',(#695,#701,#702,#708));
#710=FACE_OUTER_BOUND('',#709,.T.);
#711=ADVANCED_FACE('',(#710),#685,.T.);
#712=CARTESIAN_POINT('',(-4.750000000000000,0.0,9.750000000000000));
#713=DIRECTION('',(-1.0,0.0,0.0));
#714=DIRECTION('',(0.0,0.0,1.0));
#715=AXIS2_PLACEMENT_3D('',#712,#713,#714);
#716=PLANE('',#715);
#717=ORIENTED_EDGE('',*,*,#670,.F.);
#718=CARTESIAN_POINT('',(-4.750000000000000,3.250000000000000,10.0));
#719=VERTEX_POINT('',#718);
#720=CARTESIAN_POINT('',(-4.750000000000000,3.250000000000000,10.0));
#721=DIRECTION('',(0.0,-1.0,0.0));
#722=VECTOR('',#721,6.500000000000000);
#723=LINE('',#720,#722);
#724=EDGE_CURVE('',#719,#657,#723,.T.);
#725=ORIENTED_EDGE('',*,*,#724,.F.);
#726=CARTESIAN_POINT('',(-4.750000000000000,3.250000000000000,9.500000000000000));
#727=VERTEX_POINT('',#726);
#728=CARTESIAN_POINT('',(-4.750000000000000,3.250000000000000,10.0));
#729=DIRECTION('',(0.0,0.0,-1.0));
#730=VECTOR('',#729,0.500000000000000);
#731=LINE('',#728,#730);
#732=EDGE_CURVE('',#719,#727,#731,.T.);
#733=ORIENTED_EDGE('',*,*,#732,.T.);
#734=CARTESIAN_POINT('',(-4.750000000000000,3.250000000000000,9.500000000000000));
#735=DIRECTION('',(0.0,-1.0,0.0));
#736=VECTOR('',#735,6.500000000000000);
#737=LINE('',#734,#736);
#738=EDGE_CURVE('',#727,#665,#737,.T.);
#739=ORIENTED_EDGE('',*,*,#738,.T.);
#740=EDGE_LOOP('',(#717,#725,#733,#739));
#741=FACE_OUTER_BOUND('',#740,.T.);
#742=ADVANCED_FACE('',(#741),#716,.T.);
#743=CARTESIAN_POINT('',(-11.0,0.0,9.500000000000000));
#744=DIRECTION('',(0.0,0.0,1.0));
#745=DIRECTION('',(1.0,0.0,0.0));
#746=AXIS2_PLACEMENT_3D('',#743,#744,#745);
#747=PLANE('',#746);
#748=ORIENTED_EDGE('',*,*,#738,.F.);
#749=CARTESIAN_POINT('',(-5.750000000000000,3.250000000000000,9.500000000000000));
#750=DIRECTION('',(1.0,0.0,0.0));
#751=VECTOR('',#750,1.0);
#752=LINE('',#749,#751);
#753=EDGE_CURVE('',#689,#727,#752,.T.);
#754=ORIENTED_EDGE('',*,*,#753,.F.);
#755=ORIENTED_EDGE('',*,*,#707,.F.);
#756=ORIENTED_EDGE('',*,*,#676,.F.);
#757=EDGE_LOOP('',(#748,#754,#755,#756));
#758=FACE_OUTER_BOUND('',#757,.T.);
#759=ADVANCED_FACE('',(#758),#747,.T.);
#760=CARTESIAN_POINT('',(0.500000000000000,3.250000000000000,9.750000000000000));
#761=DIRECTION('',(0.0,-1.0,0.0));
#762=DIRECTION('',(0.0,0.0,-1.0));
#763=AXIS2_PLACEMENT_3D('',#760,#761,#762);
#764=PLANE('',#763);
#765=ORIENTED_EDGE('',*,*,#732,.F.);
#766=CARTESIAN_POINT('',(-5.750000000000000,3.250000000000000,10.0));
#767=DIRECTION('',(1.0,0.0,0.0));
#768=VECTOR('',#767,1.0);
#769=LINE('',#766,#768);
#770=EDGE_CURVE('',#687,#719,#769,.T.);
#771=ORIENTED_EDGE('',*,*,#770,.F.);
#772=ORIENTED_EDGE('',*,*,#694,.T.);
#773=ORIENTED_EDGE('',*,*,#753,.T.);
#774=EDGE_LOOP('',(#765,#771,#772,#773));
#775=FACE_OUTER_BOUND('',#774,.T.);
#776=ADVANCED_FACE('',(#775),#764,.T.);
#777=CARTESIAN_POINT('',(0.0,0.0,10.0));
#778=DIRECTION('',(0.0,0.0,1.0));
#779=DIRECTION('',(1.0,0.0,0.0));
#780=AXIS2_PLACEMENT_3D('',#777,#778,#779);
#781=PLANE('',#780);
#782=CARTESIAN_POINT('',(6.250000000000000,-3.750000000000000,10.0));
#783=DIRECTION('',(0.0,1.0,0.0));
#784=VECTOR('',#783,7.500000000000000);
#785=LINE('',#782,#784);
#786=EDGE_CURVE('',#438,#321,#785,.T.);
#787=ORIENTED_EDGE('',*,*,#786,.T.);
#788=ORIENTED_EDGE('',*,*,#326,.T.);
#789=CARTESIAN_POINT('',(-6.250000000000000,3.750000000000000,10.0));
#790=DIRECTION('',(0.0,-1.0,0.0));
#791=VECTOR('',#790,7.500000000000000);
#792=LINE('',#789,#791);
#793=EDGE_CURVE('',#313,#446,#792,.T.);
#794=ORIENTED_EDGE('',*,*,#793,.T.);
#795=ORIENTED_EDGE('',*,*,#451,.T.);
#796=EDGE_LOOP('',(#787,#788,#794,#795));
#797=FACE_OUTER_BOUND('',#796,.T.);
#798=ORIENTED_EDGE('',*,*,#662,.T.);
#799=ORIENTED_EDGE('',*,*,#700,.T.);
#800=ORIENTED_EDGE('',*,*,#770,.T.);
#801=ORIENTED_EDGE('',*,*,#724,.T.);
#802=EDGE_LOOP('',(#798,#799,#800,#801));
#803=FACE_BOUND('',#802,.T.);
#804=ADVANCED_FACE('',(#797,#803),#781,.T.);
#805=CARTESIAN_POINT('',(6.250000000000000,0.0,5.0));
#806=DIRECTION('',(-1.0,0.0,0.0));
#807=DIRECTION('',(0.0,0.0,1.0));
#808=AXIS2_PLACEMENT_3D('',#805,#806,#807);
#809=PLANE('',#808);
#810=ORIENTED_EDGE('',*,*,#443,.T.);
#811=ORIENTED_EDGE('',*,*,#567,.F.);
#812=ORIENTED_EDGE('',*,*,#334,.F.);
#813=ORIENTED_EDGE('',*,*,#786,.F.);
#814=EDGE_LOOP('',(#810,#811,#812,#813));
#815=FACE_OUTER_BOUND('',#814,.T.);
#816=ADVANCED_FACE('',(#815),#809,.F.);
#817=CARTESIAN_POINT('',(-6.250000000000000,0.0,5.0));
#818=DIRECTION('',(1.0,0.0,0.0));
#819=DIRECTION('',(0.0,0.0,-1.0));
#820=AXIS2_PLACEMENT_3D('',#817,#818,#819);
#821=PLANE('',#820);
#822=ORIENTED_EDGE('',*,*,#318,.T.);
#823=ORIENTED_EDGE('',*,*,#601,.F.);
#824=ORIENTED_EDGE('',*,*,#459,.F.);
#825=ORIENTED_EDGE('',*,*,#793,.F.);
#826=EDGE_LOOP('',(#822,#823,#824,#825));
#827=FACE_OUTER_BOUND('',#826,.T.);
#828=ADVANCED_FACE('',(#827),#821,.F.);
#829=CLOSED_SHELL('',(#266,#281,#345,#408,#423,#487,#540,#555,#612,#630,#640,#680,#711,#742,#759,#776,#804,#816,#828));
#830=MANIFOLD_SOLID_BREP('277',#829);
#831=COLOUR_RGB('8',0.300000000000000,0.300000000000000,0.300000000000000);
#832=SURFACE_STYLE_USAGE(.BOTH.,#833);
#833=SURFACE_SIDE_STYLE('NONE',(#834));
#834=SURFACE_STYLE_FILL_AREA(#835);
#835=FILL_AREA_STYLE('NONE',(#836));
#836=FILL_AREA_STYLE_COLOUR('NONE',#831);
#837=PRESENTATION_STYLE_ASSIGNMENT((#832));
#838=STYLED_ITEM('NONE',(#837),#830);
#839=CARTESIAN_POINT('',(-4.830000000000000,2.790000000000000,0.500000000000000));
#840=CARTESIAN_POINT('',(-4.830000000000000,2.790000000000000,-3.500000000000000));
#841=CARTESIAN_POINT('',(-4.830000000000000,2.290000000000000,0.500000000000000));
#842=CARTESIAN_POINT('',(-4.830000000000000,2.290000000000000,-3.500000000000000));
#843=B_SPLINE_SURFACE_WITH_KNOTS('',1,1,((#839,#841),(#840,#842)),.UNSPECIFIED.,.F.,.F.,.U.,(2,2),(2,2),(0.0,4.0),(0.0,0.500000000000000),.UNSPECIFIED.);
#844=CARTESIAN_POINT('',(-4.830000000000000,2.290000000000000,-3.500000000000000));
#845=VERTEX_POINT('',#844);
#846=CARTESIAN_POINT('',(-4.830000000000000,2.290000000000000,0.500000000000000));
#847=VERTEX_POINT('',#846);
#848=CARTESIAN_POINT('',(-4.830000000000000,2.290000000000000,-3.500000000000000));
#849=DIRECTION('',(0.0,0.0,1.0));
#850=VECTOR('',#849,4.0);
#851=LINE('',#848,#850);
#852=EDGE_CURVE('',#845,#847,#851,.T.);
#853=ORIENTED_EDGE('',*,*,#852,.F.);
#854=CARTESIAN_POINT('',(-4.830000000000000,2.790000000000000,-3.500000000000000));
#855=VERTEX_POINT('',#854);
#856=CARTESIAN_POINT('',(-4.830000000000000,2.290000000000000,-3.500000000000000));
#857=DIRECTION('',(0.0,1.0,0.0));
#858=VECTOR('',#857,0.500000000000000);
#859=LINE('',#856,#858);
#860=EDGE_CURVE('',#845,#855,#859,.T.);
#861=ORIENTED_EDGE('',*,*,#860,.T.);
#862=CARTESIAN_POINT('',(-4.830000000000000,2.790000000000000,0.500000000000000));
#863=VERTEX_POINT('',#862);
#864=CARTESIAN_POINT('',(-4.830000000000000,2.790000000000000,-3.500000000000000));
#865=DIRECTION('',(0.0,0.0,1.0));
#866=VECTOR('',#865,4.0);
#867=LINE('',#864,#866);
#868=EDGE_CURVE('',#855,#863,#867,.T.);
#869=ORIENTED_EDGE('',*,*,#868,.T.);
#870=CARTESIAN_POINT('',(-4.830000000000000,2.290000000000000,0.500000000000000));
#871=DIRECTION('',(0.0,1.0,0.0));
#872=VECTOR('',#871,0.500000000000000);
#873=LINE('',#870,#872);
#874=EDGE_CURVE('',#863,#847,#873,.F.);
#875=ORIENTED_EDGE('',*,*,#874,.T.);
#876=EDGE_LOOP('',(#853,#861,#869,#875));
#877=FACE_OUTER_BOUND('',#876,.T.);
#878=ADVANCED_FACE('',(#877),#843,.F.);
#879=CARTESIAN_POINT('',(-4.830000000000000,2.290000000000000,0.500000000000000));
#880=CARTESIAN_POINT('',(-4.830000000000000,2.290000000000000,-3.500000000000000));
#881=CARTESIAN_POINT('',(-5.330000000000000,2.290000000000000,0.500000000000000));
#882=CARTESIAN_POINT('',(-5.330000000000000,2.290000000000000,-3.500000000000000));
#883=B_SPLINE_SURFACE_WITH_KNOTS('',1,1,((#879,#881),(#880,#882)),.UNSPECIFIED.,.F.,.F.,.U.,(2,2),(2,2),(0.0,4.0),(0.0,0.500000000000000),.UNSPECIFIED.);
#884=CARTESIAN_POINT('',(-5.330000000000000,2.290000000000000,-3.500000000000000));
#885=VERTEX_POINT('',#884);
#886=CARTESIAN_POINT('',(-5.330000000000000,2.290000000000000,0.500000000000000));
#887=VERTEX_POINT('',#886);
#888=CARTESIAN_POINT('',(-5.330000000000000,2.290000000000000,-3.500000000000000));
#889=DIRECTION('',(0.0,0.0,1.0));
#890=VECTOR('',#889,4.0);
#891=LINE('',#888,#890);
#892=EDGE_CURVE('',#885,#887,#891,.T.);
#893=ORIENTED_EDGE('',*,*,#892,.F.);
#894=CARTESIAN_POINT('',(-4.830000000000000,2.290000000000000,-3.500000000000000));
#895=DIRECTION('',(-1.0,0.0,0.0));
#896=VECTOR('',#895,0.500000000000000);
#897=LINE('',#894,#896);
#898=EDGE_CURVE('',#885,#845,#897,.F.);
#899=ORIENTED_EDGE('',*,*,#898,.T.);
#900=ORIENTED_EDGE('',*,*,#852,.T.);
#901=CARTESIAN_POINT('',(-4.830000000000000,2.290000000000000,0.500000000000000));
#902=DIRECTION('',(-1.0,0.0,0.0));
#903=VECTOR('',#902,0.500000000000000);
#904=LINE('',#901,#903);
#905=EDGE_CURVE('',#847,#887,#904,.T.);
#906=ORIENTED_EDGE('',*,*,#905,.T.);
#907=EDGE_LOOP('',(#893,#899,#900,#906));
#908=FACE_OUTER_BOUND('',#907,.T.);
#909=ADVANCED_FACE('',(#908),#883,.F.);
#910=CARTESIAN_POINT('',(-5.330000000000000,2.790000000000000,-3.500000000000000));
#911=CARTESIAN_POINT('',(-4.830000000000000,2.790000000000000,-3.500000000000000));
#912=CARTESIAN_POINT('',(-5.330000000000000,2.290000000000000,-3.500000000000000));
#913=CARTESIAN_POINT('',(-4.830000000000000,2.290000000000000,-3.500000000000000));
#914=B_SPLINE_SURFACE_WITH_KNOTS('',1,1,((#910,#912),(#911,#913)),.UNSPECIFIED.,.F.,.F.,.U.,(2,2),(2,2),(0.0,0.500000000000000),(0.0,0.500000000000000),.UNSPECIFIED.);
#915=ORIENTED_EDGE('',*,*,#860,.F.);
#916=ORIENTED_EDGE('',*,*,#898,.F.);
#917=CARTESIAN_POINT('',(-5.330000000000000,2.790000000000000,-3.500000000000000));
#918=VERTEX_POINT('',#917);
#919=CARTESIAN_POINT('',(-5.330000000000000,2.790000000000000,-3.500000000000000));
#920=DIRECTION('',(0.0,-1.0,0.0));
#921=VECTOR('',#920,0.500000000000000);
#922=LINE('',#919,#921);
#923=EDGE_CURVE('',#918,#885,#922,.T.);
#924=ORIENTED_EDGE('',*,*,#923,.F.);
#925=CARTESIAN_POINT('',(-4.830000000000000,2.790000000000000,-3.500000000000000));
#926=DIRECTION('',(-1.0,0.0,0.0));
#927=VECTOR('',#926,0.500000000000000);
#928=LINE('',#925,#927);
#929=EDGE_CURVE('',#855,#918,#928,.T.);
#930=ORIENTED_EDGE('',*,*,#929,.F.);
#931=EDGE_LOOP('',(#915,#916,#924,#930));
#932=FACE_OUTER_BOUND('',#931,.T.);
#933=ADVANCED_FACE('',(#932),#914,.T.);
#934=CARTESIAN_POINT('',(-4.830000000000000,2.790000000000000,-3.500000000000000));
#935=CARTESIAN_POINT('',(-4.830000000000000,2.790000000000000,0.500000000000000));
#936=CARTESIAN_POINT('',(-5.330000000000000,2.790000000000000,-3.500000000000000));
#937=CARTESIAN_POINT('',(-5.330000000000000,2.790000000000000,0.500000000000000));
#938=B_SPLINE_SURFACE_WITH_KNOTS('',1,1,((#934,#936),(#935,#937)),.UNSPECIFIED.,.F.,.F.,.U.,(2,2),(2,2),(0.0,4.0),(0.0,0.500000000000000),.UNSPECIFIED.);
#939=ORIENTED_EDGE('',*,*,#868,.F.);
#940=ORIENTED_EDGE('',*,*,#929,.T.);
#941=CARTESIAN_POINT('',(-5.330000000000000,2.790000000000000,0.500000000000000));
#942=VERTEX_POINT('',#941);
#943=CARTESIAN_POINT('',(-5.330000000000000,2.790000000000000,-3.500000000000000));
#944=DIRECTION('',(0.0,0.0,1.0));
#945=VECTOR('',#944,4.0);
#946=LINE('',#943,#945);
#947=EDGE_CURVE('',#918,#942,#946,.T.);
#948=ORIENTED_EDGE('',*,*,#947,.T.);
#949=CARTESIAN_POINT('',(-5.330000000000000,2.790000000000000,0.500000000000000));
#950=DIRECTION('',(1.0,0.0,0.0));
#951=VECTOR('',#950,0.500000000000000);
#952=LINE('',#949,#951);
#953=EDGE_CURVE('',#942,#863,#952,.T.);
#954=ORIENTED_EDGE('',*,*,#953,.T.);
#955=EDGE_LOOP('',(#939,#940,#948,#954));
#956=FACE_OUTER_BOUND('',#955,.T.);
#957=ADVANCED_FACE('',(#956),#938,.F.);
#958=CARTESIAN_POINT('',(-5.330000000000000,2.790000000000000,0.500000000000000));
#959=CARTESIAN_POINT('',(-4.830000000000000,2.790000000000000,0.500000000000000));
#960=CARTESIAN_POINT('',(-5.330000000000000,2.290000000000000,0.500000000000000));
#961=CARTESIAN_POINT('',(-4.830000000000000,2.290000000000000,0.500000000000000));
#962=B_SPLINE_SURFACE_WITH_KNOTS('',1,1,((#958,#960),(#959,#961)),.UNSPECIFIED.,.F.,.F.,.U.,(2,2),(2,2),(0.0,0.500000000000000),(0.0,0.500000000000000),.UNSPECIFIED.);
#963=ORIENTED_EDGE('',*,*,#874,.F.);
#964=ORIENTED_EDGE('',*,*,#953,.F.);
#965=CARTESIAN_POINT('',(-5.330000000000000,2.790000000000000,0.500000000000000));
#966=DIRECTION('',(0.0,-1.0,0.0));
#967=VECTOR('',#966,0.500000000000000);
#968=LINE('',#965,#967);
#969=EDGE_CURVE('',#887,#942,#968,.F.);
#970=ORIENTED_EDGE('',*,*,#969,.F.);
#971=ORIENTED_EDGE('',*,*,#905,.F.);
#972=EDGE_LOOP('',(#963,#964,#970,#971));
#973=FACE_OUTER_BOUND('',#972,.T.);
#974=ADVANCED_FACE('',(#973),#962,.F.);
#975=CARTESIAN_POINT('',(-5.330000000000000,2.790000000000000,-3.500000000000000));
#976=CARTESIAN_POINT('',(-5.330000000000000,2.790000000000000,0.500000000000000));
#977=CARTESIAN_POINT('',(-5.330000000000000,2.290000000000000,-3.500000000000000));
#978=CARTESIAN_POINT('',(-5.330000000000000,2.290000000000000,0.500000000000000));
#979=B_SPLINE_SURFACE_WITH_KNOTS('',1,1,((#975,#977),(#976,#978)),.UNSPECIFIED.,.F.,.F.,.U.,(2,2),(2,2),(0.0,4.0),(0.0,0.500000000000000),.UNSPECIFIED.);
#980=ORIENTED_EDGE('',*,*,#947,.F.);
#981=ORIENTED_EDGE('',*,*,#923,.T.);
#982=ORIENTED_EDGE('',*,*,#892,.T.);
#983=ORIENTED_EDGE('',*,*,#969,.T.);
#984=EDGE_LOOP('',(#980,#981,#982,#983));
#985=FACE_OUTER_BOUND('',#984,.T.);
#986=ADVANCED_FACE('',(#985),#979,.F.);
#987=CLOSED_SHELL('',(#878,#909,#933,#957,#974,#986));
#988=MANIFOLD_SOLID_BREP('273',#987);
#989=COLOUR_RGB('9',0.750000000000000,0.750000000000000,0.750000000000000);
#990=SURFACE_STYLE_USAGE(.BOTH.,#991);
#991=SURFACE_SIDE_STYLE('NONE',(#992));
#992=SURFACE_STYLE_FILL_AREA(#993);
#993=FILL_AREA_STYLE('NONE',(#994));
#994=FILL_AREA_STYLE_COLOUR('NONE',#989);
#995=PRESENTATION_STYLE_ASSIGNMENT((#990));
#996=STYLED_ITEM('NONE',(#995),#988);
#997=CARTESIAN_POINT('',(-2.390000000000000,2.790000000000000,-3.500000000000000));
#998=CARTESIAN_POINT('',(-2.390000000000000,2.790000000000000,0.500000000000000));
#999=CARTESIAN_POINT('',(-2.690000000000000,2.790000000000000,-3.500000000000000));
#1000=CARTESIAN_POINT('',(-2.690000000000000,2.790000000000000,0.500000000000000));
#1001=B_SPLINE_SURFACE_WITH_KNOTS('',1,1,((#997,#999),(#998,#1000)),.UNSPECIFIED.,.F.,.F.,.U.,(2,2),(2,2),(0.0,4.0),(0.0,0.300000000000001),.UNSPECIFIED.);
#1002=CARTESIAN_POINT('',(-2.390000000000000,2.790000000000000,-3.500000000000000));
#1003=VERTEX_POINT('',#1002);
#1004=CARTESIAN_POINT('',(-2.390000000000000,2.790000000000000,0.500000000000000));
#1005=VERTEX_POINT('',#1004);
#1006=CARTESIAN_POINT('',(-2.390000000000000,2.790000000000000,-3.500000000000000));
#1007=DIRECTION('',(0.0,0.0,1.0));
#1008=VECTOR('',#1007,4.0);
#1009=LINE('',#1006,#1008);
#1010=EDGE_CURVE('',#1003,#1005,#1009,.T.);
#1011=ORIENTED_EDGE('',*,*,#1010,.F.);
#1012=CARTESIAN_POINT('',(-2.690000000000000,2.790000000000000,-3.500000000000000));
#1013=VERTEX_POINT('',#1012);
#1014=CARTESIAN_POINT('',(-2.390000000000000,2.790000000000000,-3.500000000000000));
#1015=DIRECTION('',(-1.0,0.0,0.0));
#1016=VECTOR('',#1015,0.300000000000001);
#1017=LINE('',#1014,#1016);
#1018=EDGE_CURVE('',#1003,#1013,#1017,.T.);
#1019=ORIENTED_EDGE('',*,*,#1018,.T.);
#1020=CARTESIAN_POINT('',(-2.690000000000000,2.790000000000000,0.500000000000000));
#1021=VERTEX_POINT('',#1020);
#1022=CARTESIAN_POINT('',(-2.690000000000000,2.790000000000000,-3.500000000000000));
#1023=DIRECTION('',(0.0,0.0,1.0));
#1024=VECTOR('',#1023,4.0);
#1025=LINE('',#1022,#1024);
#1026=EDGE_CURVE('',#1013,#1021,#1025,.T.);
#1027=ORIENTED_EDGE('',*,*,#1026,.T.);
#1028=CARTESIAN_POINT('',(-2.690000000000000,2.790000000000000,0.500000000000000));
#1029=DIRECTION('',(1.0,0.0,0.0));
#1030=VECTOR('',#1029,0.300000000000001);
#1031=LINE('',#1028,#1030);
#1032=EDGE_CURVE('',#1021,#1005,#1031,.T.);
#1033=ORIENTED_EDGE('',*,*,#1032,.T.);
#1034=EDGE_LOOP('',(#1011,#1019,#1027,#1033));
#1035=FACE_OUTER_BOUND('',#1034,.T.);
#1036=ADVANCED_FACE('',(#1035),#1001,.F.);
#1037=CARTESIAN_POINT('',(-2.390000000000000,2.790000000000000,0.500000000000000));
#1038=CARTESIAN_POINT('',(-2.390000000000000,2.790000000000000,-3.500000000000000));
#1039=CARTESIAN_POINT('',(-2.390000000000000,2.290000000000000,0.500000000000000));
#1040=CARTESIAN_POINT('',(-2.390000000000000,2.290000000000000,-3.500000000000000));
#1041=B_SPLINE_SURFACE_WITH_KNOTS('',1,1,((#1037,#1039),(#1038,#1040)),.UNSPECIFIED.,.F.,.F.,.U.,(2,2),(2,2),(0.0,4.0),(0.0,0.500000000000000),.UNSPECIFIED.);
#1042=CARTESIAN_POINT('',(-2.390000000000000,2.290000000000000,-3.500000000000000));
#1043=VERTEX_POINT('',#1042);
#1044=CARTESIAN_POINT('',(-2.390000000000000,2.290000000000000,0.500000000000000));
#1045=VERTEX_POINT('',#1044);
#1046=CARTESIAN_POINT('',(-2.390000000000000,2.290000000000000,-3.500000000000000));
#1047=DIRECTION('',(0.0,0.0,1.0));
#1048=VECTOR('',#1047,4.0);
#1049=LINE('',#1046,#1048);
#1050=EDGE_CURVE('',#1043,#1045,#1049,.T.);
#1051=ORIENTED_EDGE('',*,*,#1050,.F.);
#1052=CARTESIAN_POINT('',(-2.390000000000000,2.290000000000000,-3.500000000000000));
#1053=DIRECTION('',(0.0,1.0,0.0));
#1054=VECTOR('',#1053,0.500000000000000);
#1055=LINE('',#1052,#1054);
#1056=EDGE_CURVE('',#1043,#1003,#1055,.T.);
#1057=ORIENTED_EDGE('',*,*,#1056,.T.);
#1058=ORIENTED_EDGE('',*,*,#1010,.T.);
#1059=CARTESIAN_POINT('',(-2.390000000000000,2.790000000000000,0.500000000000000));
#1060=DIRECTION('',(0.0,-1.0,0.0));
#1061=VECTOR('',#1060,0.500000000000000);
#1062=LINE('',#1059,#1061);
#1063=EDGE_CURVE('',#1005,#1045,#1062,.T.);
#1064=ORIENTED_EDGE('',*,*,#1063,.T.);
#1065=EDGE_LOOP('',(#1051,#1057,#1058,#1064));
#1066=FACE_OUTER_BOUND('',#1065,.T.);
#1067=ADVANCED_FACE('',(#1066),#1041,.F.);
#1068=CARTESIAN_POINT('',(-2.690000000000000,2.790000000000000,-3.500000000000000));
#1069=CARTESIAN_POINT('',(-2.390000000000000,2.790000000000000,-3.500000000000000));
#1070=CARTESIAN_POINT('',(-2.690000000000000,2.290000000000000,-3.500000000000000));
#1071=CARTESIAN_POINT('',(-2.390000000000000,2.290000000000000,-3.500000000000000));
#1072=B_SPLINE_SURFACE_WITH_KNOTS('',1,1,((#1068,#1070),(#1069,#1071)),.UNSPECIFIED.,.F.,.F.,.U.,(2,2),(2,2),(0.0,0.300000000000001),(0.0,0.500000000000000),.UNSPECIFIED.);
#1073=ORIENTED_EDGE('',*,*,#1056,.F.);
#1074=CARTESIAN_POINT('',(-2.690000000000000,2.290000000000000,-3.500000000000000));
#1075=VERTEX_POINT('',#1074);
#1076=CARTESIAN_POINT('',(-2.390000000000000,2.290000000000000,-3.500000000000000));
#1077=DIRECTION('',(-1.0,0.0,0.0));
#1078=VECTOR('',#1077,0.300000000000001);
#1079=LINE('',#1076,#1078);
#1080=EDGE_CURVE('',#1075,#1043,#1079,.F.);
#1081=ORIENTED_EDGE('',*,*,#1080,.F.);
#1082=CARTESIAN_POINT('',(-2.690000000000000,2.790000000000000,-3.500000000000000));
#1083=DIRECTION('',(0.0,-1.0,0.0));
#1084=VECTOR('',#1083,0.500000000000000);
#1085=LINE('',#1082,#1084);
#1086=EDGE_CURVE('',#1013,#1075,#1085,.T.);
#1087=ORIENTED_EDGE('',*,*,#1086,.F.);
#1088=ORIENTED_EDGE('',*,*,#1018,.F.);
#1089=EDGE_LOOP('',(#1073,#1081,#1087,#1088));
#1090=FACE_OUTER_BOUND('',#1089,.T.);
#1091=ADVANCED_FACE('',(#1090),#1072,.T.);
#1092=CARTESIAN_POINT('',(-2.690000000000000,2.790000000000000,-3.500000000000000));
#1093=CARTESIAN_POINT('',(-2.690000000000000,2.790000000000000,0.500000000000000));
#1094=CARTESIAN_POINT('',(-2.690000000000000,2.290000000000000,-3.500000000000000));
#1095=CARTESIAN_POINT('',(-2.690000000000000,2.290000000000000,0.500000000000000));
#1096=B_SPLINE_SURFACE_WITH_KNOTS('',1,1,((#1092,#1094),(#1093,#1095)),.UNSPECIFIED.,.F.,.F.,.U.,(2,2),(2,2),(0.0,4.0),(0.0,0.500000000000000),.UNSPECIFIED.);
#1097=ORIENTED_EDGE('',*,*,#1026,.F.);
#1098=ORIENTED_EDGE('',*,*,#1086,.T.);
#1099=CARTESIAN_POINT('',(-2.690000000000000,2.290000000000000,0.500000000000000));
#1100=VERTEX_POINT('',#1099);
#1101=CARTESIAN_POINT('',(-2.690000000000000,2.290000000000000,-3.500000000000000));
#1102=DIRECTION('',(0.0,0.0,1.0));
#1103=VECTOR('',#1102,4.0);
#1104=LINE('',#1101,#1103);
#1105=EDGE_CURVE('',#1075,#1100,#1104,.T.);
#1106=ORIENTED_EDGE('',*,*,#1105,.T.);
#1107=CARTESIAN_POINT('',(-2.690000000000000,2.290000000000000,0.500000000000000));
#1108=DIRECTION('',(0.0,1.0,0.0));
#1109=VECTOR('',#1108,0.500000000000000);
#1110=LINE('',#1107,#1109);
#1111=EDGE_CURVE('',#1100,#1021,#1110,.T.);
#1112=ORIENTED_EDGE('',*,*,#1111,.T.);
#1113=EDGE_LOOP('',(#1097,#1098,#1106,#1112));
#1114=FACE_OUTER_BOUND('',#1113,.T.);
#1115=ADVANCED_FACE('',(#1114),#1096,.F.);
#1116=CARTESIAN_POINT('',(-2.690000000000000,2.790000000000000,0.500000000000000));
#1117=CARTESIAN_POINT('',(-2.390000000000000,2.790000000000000,0.500000000000000));
#1118=CARTESIAN_POINT('',(-2.690000000000000,2.290000000000000,0.500000000000000));
#1119=CARTESIAN_POINT('',(-2.390000000000000,2.290000000000000,0.500000000000000));
#1120=B_SPLINE_SURFACE_WITH_KNOTS('',1,1,((#1116,#1118),(#1117,#1119)),.UNSPECIFIED.,.F.,.F.,.U.,(2,2),(2,2),(0.0,0.300000000000001),(0.0,0.500000000000000),.UNSPECIFIED.);
#1121=ORIENTED_EDGE('',*,*,#1063,.F.);
#1122=ORIENTED_EDGE('',*,*,#1032,.F.);
#1123=ORIENTED_EDGE('',*,*,#1111,.F.);
#1124=CARTESIAN_POINT('',(-2.390000000000000,2.290000000000000,0.500000000000000));
#1125=DIRECTION('',(-1.0,0.0,0.0));
#1126=VECTOR('',#1125,0.300000000000001);
#1127=LINE('',#1124,#1126);
#1128=EDGE_CURVE('',#1045,#1100,#1127,.T.);
#1129=ORIENTED_EDGE('',*,*,#1128,.F.);
#1130=EDGE_LOOP('',(#1121,#1122,#1123,#1129));
#1131=FACE_OUTER_BOUND('',#1130,.T.);
#1132=ADVANCED_FACE('',(#1131),#1120,.F.);
#1133=CARTESIAN_POINT('',(-2.390000000000000,2.290000000000000,0.500000000000000));
#1134=CARTESIAN_POINT('',(-2.390000000000000,2.290000000000000,-3.500000000000000));
#1135=CARTESIAN_POINT('',(-2.690000000000000,2.290000000000000,0.500000000000000));
#1136=CARTESIAN_POINT('',(-2.690000000000000,2.290000000000000,-3.500000000000000));
#1137=B_SPLINE_SURFACE_WITH_KNOTS('',1,1,((#1133,#1135),(#1134,#1136)),.UNSPECIFIED.,.F.,.F.,.U.,(2,2),(2,2),(0.0,4.0),(0.0,0.300000000000001),.UNSPECIFIED.);
#1138=ORIENTED_EDGE('',*,*,#1105,.F.);
#1139=ORIENTED_EDGE('',*,*,#1080,.T.);
#1140=ORIENTED_EDGE('',*,*,#1050,.T.);
#1141=ORIENTED_EDGE('',*,*,#1128,.T.);
#1142=EDGE_LOOP('',(#1138,#1139,#1140,#1141));
#1143=FACE_OUTER_BOUND('',#1142,.T.);
#1144=ADVANCED_FACE('',(#1143),#1137,.F.);
#1145=CLOSED_SHELL('',(#1036,#1067,#1091,#1115,#1132,#1144));
#1146=MANIFOLD_SOLID_BREP('26F',#1145);
#1147=STYLED_ITEM('NONE',(#995),#1146);
#1148=CARTESIAN_POINT('',(5.230000000000000,2.790000000000000,-3.500000000000000));
#1149=CARTESIAN_POINT('',(5.230000000000000,2.790000000000000,0.500000000000000));
#1150=CARTESIAN_POINT('',(4.930000000000000,2.790000000000000,-3.500000000000000));
#1151=CARTESIAN_POINT('',(4.930000000000000,2.790000000000000,0.500000000000000));
#1152=B_SPLINE_SURFACE_WITH_KNOTS('',1,1,((#1148,#1150),(#1149,#1151)),.UNSPECIFIED.,.F.,.F.,.U.,(2,2),(2,2),(0.0,4.0),(0.0,0.300000000000001),.UNSPECIFIED.);
#1153=CARTESIAN_POINT('',(5.230000000000000,2.790000000000000,-3.500000000000000));
#1154=VERTEX_POINT('',#1153);
#1155=CARTESIAN_POINT('',(5.230000000000000,2.790000000000000,0.500000000000000));
#1156=VERTEX_POINT('',#1155);
#1157=CARTESIAN_POINT('',(5.230000000000000,2.790000000000000,-3.500000000000000));
#1158=DIRECTION('',(0.0,0.0,1.0));
#1159=VECTOR('',#1158,4.0);
#1160=LINE('',#1157,#1159);
#1161=EDGE_CURVE('',#1154,#1156,#1160,.T.);
#1162=ORIENTED_EDGE('',*,*,#1161,.F.);
#1163=CARTESIAN_POINT('',(4.930000000000000,2.790000000000000,-3.500000000000000));
#1164=VERTEX_POINT('',#1163);
#1165=CARTESIAN_POINT('',(5.230000000000000,2.790000000000000,-3.500000000000000));
#1166=DIRECTION('',(-1.0,0.0,0.0));
#1167=VECTOR('',#1166,0.300000000000001);
#1168=LINE('',#1165,#1167);
#1169=EDGE_CURVE('',#1154,#1164,#1168,.T.);
#1170=ORIENTED_EDGE('',*,*,#1169,.T.);
#1171=CARTESIAN_POINT('',(4.930000000000000,2.790000000000000,0.500000000000000));
#1172=VERTEX_POINT('',#1171);
#1173=CARTESIAN_POINT('',(4.930000000000000,2.790000000000000,-3.500000000000000));
#1174=DIRECTION('',(0.0,0.0,1.0));
#1175=VECTOR('',#1174,4.0);
#1176=LINE('',#1173,#1175);
#1177=EDGE_CURVE('',#1164,#1172,#1176,.T.);
#1178=ORIENTED_EDGE('',*,*,#1177,.T.);
#1179=CARTESIAN_POINT('',(4.930000000000000,2.790000000000000,0.500000000000000));
#1180=DIRECTION('',(1.0,0.0,0.0));
#1181=VECTOR('',#1180,0.300000000000001);
#1182=LINE('',#1179,#1181);
#1183=EDGE_CURVE('',#1172,#1156,#1182,.T.);
#1184=ORIENTED_EDGE('',*,*,#1183,.T.);
#1185=EDGE_LOOP('',(#1162,#1170,#1178,#1184));
#1186=FACE_OUTER_BOUND('',#1185,.T.);
#1187=ADVANCED_FACE('',(#1186),#1152,.F.);
#1188=CARTESIAN_POINT('',(5.230000000000000,2.790000000000000,0.500000000000000));
#1189=CARTESIAN_POINT('',(5.230000000000000,2.790000000000000,-3.500000000000000));
#1190=CARTESIAN_POINT('',(5.230000000000000,2.290000000000000,0.500000000000000));
#1191=CARTESIAN_POINT('',(5.230000000000000,2.290000000000000,-3.500000000000000));
#1192=B_SPLINE_SURFACE_WITH_KNOTS('',1,1,((#1188,#1190),(#1189,#1191)),.UNSPECIFIED.,.F.,.F.,.U.,(2,2),(2,2),(0.0,4.0),(0.0,0.500000000000000),.UNSPECIFIED.);
#1193=CARTESIAN_POINT('',(5.230000000000000,2.290000000000000,-3.500000000000000));
#1194=VERTEX_POINT('',#1193);
#1195=CARTESIAN_POINT('',(5.230000000000000,2.290000000000000,0.500000000000000));
#1196=VERTEX_POINT('',#1195);
#1197=CARTESIAN_POINT('',(5.230000000000000,2.290000000000000,-3.500000000000000));
#1198=DIRECTION('',(0.0,0.0,1.0));
#1199=VECTOR('',#1198,4.0);
#1200=LINE('',#1197,#1199);
#1201=EDGE_CURVE('',#1194,#1196,#1200,.T.);
#1202=ORIENTED_EDGE('',*,*,#1201,.F.);
#1203=CARTESIAN_POINT('',(5.230000000000000,2.290000000000000,-3.500000000000000));
#1204=DIRECTION('',(0.0,1.0,0.0));
#1205=VECTOR('',#1204,0.500000000000000);
#1206=LINE('',#1203,#1205);
#1207=EDGE_CURVE('',#1194,#1154,#1206,.T.);
#1208=ORIENTED_EDGE('',*,*,#1207,.T.);
#1209=ORIENTED_EDGE('',*,*,#1161,.T.);
#1210=CARTESIAN_POINT('',(5.230000000000000,2.790000000000000,0.500000000000000));
#1211=DIRECTION('',(0.0,-1.0,0.0));
#1212=VECTOR('',#1211,0.500000000000000);
#1213=LINE('',#1210,#1212);
#1214=EDGE_CURVE('',#1156,#1196,#1213,.T.);
#1215=ORIENTED_EDGE('',*,*,#1214,.T.);
#1216=EDGE_LOOP('',(#1202,#1208,#1209,#1215));
#1217=FACE_OUTER_BOUND('',#1216,.T.);
#1218=ADVANCED_FACE('',(#1217),#1192,.F.);
#1219=CARTESIAN_POINT('',(4.930000000000000,2.790000000000000,-3.500000000000000));
#1220=CARTESIAN_POINT('',(5.230000000000000,2.790000000000000,-3.500000000000000));
#1221=CARTESIAN_POINT('',(4.930000000000000,2.290000000000000,-3.500000000000000));
#1222=CARTESIAN_POINT('',(5.230000000000000,2.290000000000000,-3.500000000000000));
#1223=B_SPLINE_SURFACE_WITH_KNOTS('',1,1,((#1219,#1221),(#1220,#1222)),.UNSPECIFIED.,.F.,.F.,.U.,(2,2),(2,2),(0.0,0.300000000000001),(0.0,0.500000000000000),.UNSPECIFIED.);
#1224=ORIENTED_EDGE('',*,*,#1207,.F.);
#1225=CARTESIAN_POINT('',(4.930000000000000,2.290000000000000,-3.500000000000000));
#1226=VERTEX_POINT('',#1225);
#1227=CARTESIAN_POINT('',(5.230000000000000,2.290000000000000,-3.500000000000000));
#1228=DIRECTION('',(-1.0,0.0,0.0));
#1229=VECTOR('',#1228,0.300000000000001);
#1230=LINE('',#1227,#1229);
#1231=EDGE_CURVE('',#1226,#1194,#1230,.F.);
#1232=ORIENTED_EDGE('',*,*,#1231,.F.);
#1233=CARTESIAN_POINT('',(4.930000000000000,2.790000000000000,-3.500000000000000));
#1234=DIRECTION('',(0.0,-1.0,0.0));
#1235=VECTOR('',#1234,0.500000000000000);
#1236=LINE('',#1233,#1235);
#1237=EDGE_CURVE('',#1164,#1226,#1236,.T.);
#1238=ORIENTED_EDGE('',*,*,#1237,.F.);
#1239=ORIENTED_EDGE('',*,*,#1169,.F.);
#1240=EDGE_LOOP('',(#1224,#1232,#1238,#1239));
#1241=FACE_OUTER_BOUND('',#1240,.T.);
#1242=ADVANCED_FACE('',(#1241),#1223,.T.);
#1243=CARTESIAN_POINT('',(4.930000000000000,2.790000000000000,-3.500000000000000));
#1244=CARTESIAN_POINT('',(4.930000000000000,2.790000000000000,0.500000000000000));
#1245=CARTESIAN_POINT('',(4.930000000000000,2.290000000000000,-3.500000000000000));
#1246=CARTESIAN_POINT('',(4.930000000000000,2.290000000000000,0.500000000000000));
#1247=B_SPLINE_SURFACE_WITH_KNOTS('',1,1,((#1243,#1245),(#1244,#1246)),.UNSPECIFIED.,.F.,.F.,.U.,(2,2),(2,2),(0.0,4.0),(0.0,0.500000000000000),.UNSPECIFIED.);
#1248=ORIENTED_EDGE('',*,*,#1177,.F.);
#1249=ORIENTED_EDGE('',*,*,#1237,.T.);
#1250=CARTESIAN_POINT('',(4.930000000000000,2.290000000000000,0.500000000000000));
#1251=VERTEX_POINT('',#1250);
#1252=CARTESIAN_POINT('',(4.930000000000000,2.290000000000000,-3.500000000000000));
#1253=DIRECTION('',(0.0,0.0,1.0));
#1254=VECTOR('',#1253,4.0);
#1255=LINE('',#1252,#1254);
#1256=EDGE_CURVE('',#1226,#1251,#1255,.T.);
#1257=ORIENTED_EDGE('',*,*,#1256,.T.);
#1258=CARTESIAN_POINT('',(4.930000000000000,2.290000000000000,0.500000000000000));
#1259=DIRECTION('',(0.0,1.0,0.0));
#1260=VECTOR('',#1259,0.500000000000000);
#1261=LINE('',#1258,#1260);
#1262=EDGE_CURVE('',#1251,#1172,#1261,.T.);
#1263=ORIENTED_EDGE('',*,*,#1262,.T.);
#1264=EDGE_LOOP('',(#1248,#1249,#1257,#1263));
#1265=FACE_OUTER_BOUND('',#1264,.T.);
#1266=ADVANCED_FACE('',(#1265),#1247,.F.);
#1267=CARTESIAN_POINT('',(4.930000000000000,2.790000000000000,0.500000000000000));
#1268=CARTESIAN_POINT('',(5.230000000000000,2.790000000000000,0.500000000000000));
#1269=CARTESIAN_POINT('',(4.930000000000000,2.290000000000000,0.500000000000000));
#1270=CARTESIAN_POINT('',(5.230000000000000,2.290000000000000,0.500000000000000));
#1271=B_SPLINE_SURFACE_WITH_KNOTS('',1,1,((#1267,#1269),(#1268,#1270)),.UNSPECIFIED.,.F.,.F.,.U.,(2,2),(2,2),(0.0,0.300000000000001),(0.0,0.500000000000000),.UNSPECIFIED.);
#1272=ORIENTED_EDGE('',*,*,#1214,.F.);
#1273=ORIENTED_EDGE('',*,*,#1183,.F.);
#1274=ORIENTED_EDGE('',*,*,#1262,.F.);
#1275=CARTESIAN_POINT('',(5.230000000000000,2.290000000000000,0.500000000000000));
#1276=DIRECTION('',(-1.0,0.0,0.0));
#1277=VECTOR('',#1276,0.300000000000001);
#1278=LINE('',#1275,#1277);
#1279=EDGE_CURVE('',#1196,#1251,#1278,.T.);
#1280=ORIENTED_EDGE('',*,*,#1279,.F.);
#1281=EDGE_LOOP('',(#1272,#1273,#1274,#1280));
#1282=FACE_OUTER_BOUND('',#1281,.T.);
#1283=ADVANCED_FACE('',(#1282),#1271,.F.);
#1284=CARTESIAN_POINT('',(5.230000000000000,2.290000000000000,0.500000000000000));
#1285=CARTESIAN_POINT('',(5.230000000000000,2.290000000000000,-3.500000000000000));
#1286=CARTESIAN_POINT('',(4.930000000000000,2.290000000000000,0.500000000000000));
#1287=CARTESIAN_POINT('',(4.930000000000000,2.290000000000000,-3.500000000000000));
#1288=B_SPLINE_SURFACE_WITH_KNOTS('',1,1,((#1284,#1286),(#1285,#1287)),.UNSPECIFIED.,.F.,.F.,.U.,(2,2),(2,2),(0.0,4.0),(0.0,0.300000000000001),.UNSPECIFIED.);
#1289=ORIENTED_EDGE('',*,*,#1256,.F.);
#1290=ORIENTED_EDGE('',*,*,#1231,.T.);
#1291=ORIENTED_EDGE('',*,*,#1201,.T.);
#1292=ORIENTED_EDGE('',*,*,#1279,.T.);
#1293=EDGE_LOOP('',(#1289,#1290,#1291,#1292));
#1294=FACE_OUTER_BOUND('',#1293,.T.);
#1295=ADVANCED_FACE('',(#1294),#1288,.F.);
#1296=CLOSED_SHELL('',(#1187,#1218,#1242,#1266,#1283,#1295));
#1297=MANIFOLD_SOLID_BREP('26B',#1296);
#1298=STYLED_ITEM('NONE',(#995),#1297);
#1299=CARTESIAN_POINT('',(5.230000000000000,-2.290000000000000,-3.500000000000000));
#1300=CARTESIAN_POINT('',(5.230000000000000,-2.290000000000000,0.500000000000000));
#1301=CARTESIAN_POINT('',(4.930000000000000,-2.290000000000000,-3.500000000000000));
#1302=CARTESIAN_POINT('',(4.930000000000000,-2.290000000000000,0.500000000000000));
#1303=B_SPLINE_SURFACE_WITH_KNOTS('',1,1,((#1299,#1301),(#1300,#1302)),.UNSPECIFIED.,.F.,.F.,.U.,(2,2),(2,2),(0.0,4.0),(0.0,0.300000000000001),.UNSPECIFIED.);
#1304=CARTESIAN_POINT('',(5.230000000000000,-2.290000000000000,-3.500000000000000));
#1305=VERTEX_POINT('',#1304);
#1306=CARTESIAN_POINT('',(5.230000000000000,-2.290000000000000,0.500000000000000));
#1307=VERTEX_POINT('',#1306);
#1308=CARTESIAN_POINT('',(5.230000000000000,-2.290000000000000,-3.500000000000000));
#1309=DIRECTION('',(0.0,0.0,1.0));
#1310=VECTOR('',#1309,4.0);
#1311=LINE('',#1308,#1310);
#1312=EDGE_CURVE('',#1305,#1307,#1311,.T.);
#1313=ORIENTED_EDGE('',*,*,#1312,.F.);
#1314=CARTESIAN_POINT('',(4.930000000000000,-2.290000000000000,-3.500000000000000));
#1315=VERTEX_POINT('',#1314);
#1316=CARTESIAN_POINT('',(5.230000000000000,-2.290000000000000,-3.500000000000000));
#1317=DIRECTION('',(-1.0,0.0,0.0));
#1318=VECTOR('',#1317,0.300000000000001);
#1319=LINE('',#1316,#1318);
#1320=EDGE_CURVE('',#1305,#1315,#1319,.T.);
#1321=ORIENTED_EDGE('',*,*,#1320,.T.);
#1322=CARTESIAN_POINT('',(4.930000000000000,-2.290000000000000,0.500000000000000));
#1323=VERTEX_POINT('',#1322);
#1324=CARTESIAN_POINT('',(4.930000000000000,-2.290000000000000,-3.500000000000000));
#1325=DIRECTION('',(0.0,0.0,1.0));
#1326=VECTOR('',#1325,4.0);
#1327=LINE('',#1324,#1326);
#1328=EDGE_CURVE('',#1315,#1323,#1327,.T.);
#1329=ORIENTED_EDGE('',*,*,#1328,.T.);
#1330=CARTESIAN_POINT('',(4.930000000000000,-2.290000000000000,0.500000000000000));
#1331=DIRECTION('',(1.0,0.0,0.0));
#1332=VECTOR('',#1331,0.300000000000001);
#1333=LINE('',#1330,#1332);
#1334=EDGE_CURVE('',#1323,#1307,#1333,.T.);
#1335=ORIENTED_EDGE('',*,*,#1334,.T.);
#1336=EDGE_LOOP('',(#1313,#1321,#1329,#1335));
#1337=FACE_OUTER_BOUND('',#1336,.T.);
#1338=ADVANCED_FACE('',(#1337),#1303,.F.);
#1339=CARTESIAN_POINT('',(5.230000000000000,-2.290000000000000,0.500000000000000));
#1340=CARTESIAN_POINT('',(5.230000000000000,-2.290000000000000,-3.500000000000000));
#1341=CARTESIAN_POINT('',(5.230000000000000,-2.790000000000000,0.500000000000000));
#1342=CARTESIAN_POINT('',(5.230000000000000,-2.790000000000000,-3.500000000000000));
#1343=B_SPLINE_SURFACE_WITH_KNOTS('',1,1,((#1339,#1341),(#1340,#1342)),.UNSPECIFIED.,.F.,.F.,.U.,(2,2),(2,2),(0.0,4.0),(0.0,0.500000000000000),.UNSPECIFIED.);
#1344=CARTESIAN_POINT('',(5.230000000000000,-2.790000000000000,-3.500000000000000));
#1345=VERTEX_POINT('',#1344);
#1346=CARTESIAN_POINT('',(5.230000000000000,-2.790000000000000,0.500000000000000));
#1347=VERTEX_POINT('',#1346);
#1348=CARTESIAN_POINT('',(5.230000000000000,-2.790000000000000,-3.500000000000000));
#1349=DIRECTION('',(0.0,0.0,1.0));
#1350=VECTOR('',#1349,4.0);
#1351=LINE('',#1348,#1350);
#1352=EDGE_CURVE('',#1345,#1347,#1351,.T.);
#1353=ORIENTED_EDGE('',*,*,#1352,.F.);
#1354=CARTESIAN_POINT('',(5.230000000000000,-2.790000000000000,-3.500000000000000));
#1355=DIRECTION('',(0.0,1.0,0.0));
#1356=VECTOR('',#1355,0.500000000000000);
#1357=LINE('',#1354,#1356);
#1358=EDGE_CURVE('',#1345,#1305,#1357,.T.);
#1359=ORIENTED_EDGE('',*,*,#1358,.T.);
#1360=ORIENTED_EDGE('',*,*,#1312,.T.);
#1361=CARTESIAN_POINT('',(5.230000000000000,-2.290000000000000,0.500000000000000));
#1362=DIRECTION('',(0.0,-1.0,0.0));
#1363=VECTOR('',#1362,0.500000000000000);
#1364=LINE('',#1361,#1363);
#1365=EDGE_CURVE('',#1307,#1347,#1364,.T.);
#1366=ORIENTED_EDGE('',*,*,#1365,.T.);
#1367=EDGE_LOOP('',(#1353,#1359,#1360,#1366));
#1368=FACE_OUTER_BOUND('',#1367,.T.);
#1369=ADVANCED_FACE('',(#1368),#1343,.F.);
#1370=CARTESIAN_POINT('',(4.930000000000000,-2.290000000000000,-3.500000000000000));
#1371=CARTESIAN_POINT('',(5.230000000000000,-2.290000000000000,-3.500000000000000));
#1372=CARTESIAN_POINT('',(4.930000000000000,-2.790000000000000,-3.500000000000000));
#1373=CARTESIAN_POINT('',(5.230000000000000,-2.790000000000000,-3.500000000000000));
#1374=B_SPLINE_SURFACE_WITH_KNOTS('',1,1,((#1370,#1372),(#1371,#1373)),.UNSPECIFIED.,.F.,.F.,.U.,(2,2),(2,2),(0.0,0.300000000000001),(0.0,0.500000000000000),.UNSPECIFIED.);
#1375=ORIENTED_EDGE('',*,*,#1358,.F.);
#1376=CARTESIAN_POINT('',(4.930000000000000,-2.790000000000000,-3.500000000000000));
#1377=VERTEX_POINT('',#1376);
#1378=CARTESIAN_POINT('',(5.230000000000000,-2.790000000000000,-3.500000000000000));
#1379=DIRECTION('',(-1.0,0.0,0.0));
#1380=VECTOR('',#1379,0.300000000000001);
#1381=LINE('',#1378,#1380);
#1382=EDGE_CURVE('',#1377,#1345,#1381,.F.);
#1383=ORIENTED_EDGE('',*,*,#1382,.F.);
#1384=CARTESIAN_POINT('',(4.930000000000000,-2.290000000000000,-3.500000000000000));
#1385=DIRECTION('',(0.0,-1.0,0.0));
#1386=VECTOR('',#1385,0.500000000000000);
#1387=LINE('',#1384,#1386);
#1388=EDGE_CURVE('',#1315,#1377,#1387,.T.);
#1389=ORIENTED_EDGE('',*,*,#1388,.F.);
#1390=ORIENTED_EDGE('',*,*,#1320,.F.);
#1391=EDGE_LOOP('',(#1375,#1383,#1389,#1390));
#1392=FACE_OUTER_BOUND('',#1391,.T.);
#1393=ADVANCED_FACE('',(#1392),#1374,.T.);
#1394=CARTESIAN_POINT('',(4.930000000000000,-2.290000000000000,-3.500000000000000));
#1395=CARTESIAN_POINT('',(4.930000000000000,-2.290000000000000,0.500000000000000));
#1396=CARTESIAN_POINT('',(4.930000000000000,-2.790000000000000,-3.500000000000000));
#1397=CARTESIAN_POINT('',(4.930000000000000,-2.790000000000000,0.500000000000000));
#1398=B_SPLINE_SURFACE_WITH_KNOTS('',1,1,((#1394,#1396),(#1395,#1397)),.UNSPECIFIED.,.F.,.F.,.U.,(2,2),(2,2),(0.0,4.0),(0.0,0.500000000000000),.UNSPECIFIED.);
#1399=ORIENTED_EDGE('',*,*,#1328,.F.);
#1400=ORIENTED_EDGE('',*,*,#1388,.T.);
#1401=CARTESIAN_POINT('',(4.930000000000000,-2.790000000000000,0.500000000000000));
#1402=VERTEX_POINT('',#1401);
#1403=CARTESIAN_POINT('',(4.930000000000000,-2.790000000000000,-3.500000000000000));
#1404=DIRECTION('',(0.0,0.0,1.0));
#1405=VECTOR('',#1404,4.0);
#1406=LINE('',#1403,#1405);
#1407=EDGE_CURVE('',#1377,#1402,#1406,.T.);
#1408=ORIENTED_EDGE('',*,*,#1407,.T.);
#1409=CARTESIAN_POINT('',(4.930000000000000,-2.790000000000000,0.500000000000000));
#1410=DIRECTION('',(0.0,1.0,0.0));
#1411=VECTOR('',#1410,0.500000000000000);
#1412=LINE('',#1409,#1411);
#1413=EDGE_CURVE('',#1402,#1323,#1412,.T.);
#1414=ORIENTED_EDGE('',*,*,#1413,.T.);
#1415=EDGE_LOOP('',(#1399,#1400,#1408,#1414));
#1416=FACE_OUTER_BOUND('',#1415,.T.);
#1417=ADVANCED_FACE('',(#1416),#1398,.F.);
#1418=CARTESIAN_POINT('',(4.930000000000000,-2.290000000000000,0.500000000000000));
#1419=CARTESIAN_POINT('',(5.230000000000000,-2.290000000000000,0.500000000000000));
#1420=CARTESIAN_POINT('',(4.930000000000000,-2.790000000000000,0.500000000000000));
#1421=CARTESIAN_POINT('',(5.230000000000000,-2.790000000000000,0.500000000000000));
#1422=B_SPLINE_SURFACE_WITH_KNOTS('',1,1,((#1418,#1420),(#1419,#1421)),.UNSPECIFIED.,.F.,.F.,.U.,(2,2),(2,2),(0.0,0.300000000000001),(0.0,0.500000000000000),.UNSPECIFIED.);
#1423=ORIENTED_EDGE('',*,*,#1365,.F.);
#1424=ORIENTED_EDGE('',*,*,#1334,.F.);
#1425=ORIENTED_EDGE('',*,*,#1413,.F.);
#1426=CARTESIAN_POINT('',(5.230000000000000,-2.790000000000000,0.500000000000000));
#1427=DIRECTION('',(-1.0,0.0,0.0));
#1428=VECTOR('',#1427,0.300000000000001);
#1429=LINE('',#1426,#1428);
#1430=EDGE_CURVE('',#1347,#1402,#1429,.T.);
#1431=ORIENTED_EDGE('',*,*,#1430,.F.);
#1432=EDGE_LOOP('',(#1423,#1424,#1425,#1431));
#1433=FACE_OUTER_BOUND('',#1432,.T.);
#1434=ADVANCED_FACE('',(#1433),#1422,.F.);
#1435=CARTESIAN_POINT('',(5.230000000000000,-2.790000000000000,0.500000000000000));
#1436=CARTESIAN_POINT('',(5.230000000000000,-2.790000000000000,-3.500000000000000));
#1437=CARTESIAN_POINT('',(4.930000000000000,-2.790000000000000,0.500000000000000));
#1438=CARTESIAN_POINT('',(4.930000000000000,-2.790000000000000,-3.500000000000000));
#1439=B_SPLINE_SURFACE_WITH_KNOTS('',1,1,((#1435,#1437),(#1436,#1438)),.UNSPECIFIED.,.F.,.F.,.U.,(2,2),(2,2),(0.0,4.0),(0.0,0.300000000000001),.UNSPECIFIED.);
#1440=ORIENTED_EDGE('',*,*,#1407,.F.);
#1441=ORIENTED_EDGE('',*,*,#1382,.T.);
#1442=ORIENTED_EDGE('',*,*,#1352,.T.);
#1443=ORIENTED_EDGE('',*,*,#1430,.T.);
#1444=EDGE_LOOP('',(#1440,#1441,#1442,#1443));
#1445=FACE_OUTER_BOUND('',#1444,.T.);
#1446=ADVANCED_FACE('',(#1445),#1439,.F.);
#1447=CLOSED_SHELL('',(#1338,#1369,#1393,#1417,#1434,#1446));
#1448=MANIFOLD_SOLID_BREP('267',#1447);
#1449=STYLED_ITEM('NONE',(#995),#1448);
#1450=CARTESIAN_POINT('',(-2.390000000000000,-2.790000000000000,0.500000000000000));
#1451=CARTESIAN_POINT('',(-2.390000000000000,-2.790000000000000,-3.500000000000000));
#1452=CARTESIAN_POINT('',(-2.690000000000000,-2.790000000000000,0.500000000000000));
#1453=CARTESIAN_POINT('',(-2.690000000000000,-2.790000000000000,-3.500000000000000));
#1454=B_SPLINE_SURFACE_WITH_KNOTS('',1,1,((#1450,#1452),(#1451,#1453)),.UNSPECIFIED.,.F.,.F.,.U.,(2,2),(2,2),(0.0,4.0),(0.0,0.300000000000001),.UNSPECIFIED.);
#1455=CARTESIAN_POINT('',(-2.690000000000000,-2.790000000000000,-3.500000000000000));
#1456=VERTEX_POINT('',#1455);
#1457=CARTESIAN_POINT('',(-2.690000000000000,-2.790000000000000,0.500000000000000));
#1458=VERTEX_POINT('',#1457);
#1459=CARTESIAN_POINT('',(-2.690000000000000,-2.790000000000000,-3.500000000000000));
#1460=DIRECTION('',(0.0,0.0,1.0));
#1461=VECTOR('',#1460,4.0);
#1462=LINE('',#1459,#1461);
#1463=EDGE_CURVE('',#1456,#1458,#1462,.T.);
#1464=ORIENTED_EDGE('',*,*,#1463,.F.);
#1465=CARTESIAN_POINT('',(-2.390000000000000,-2.790000000000000,-3.500000000000000));
#1466=VERTEX_POINT('',#1465);
#1467=CARTESIAN_POINT('',(-2.690000000000000,-2.790000000000000,-3.500000000000000));
#1468=DIRECTION('',(1.0,0.0,0.0));
#1469=VECTOR('',#1468,0.300000000000001);
#1470=LINE('',#1467,#1469);
#1471=EDGE_CURVE('',#1456,#1466,#1470,.T.);
#1472=ORIENTED_EDGE('',*,*,#1471,.T.);
#1473=CARTESIAN_POINT('',(-2.390000000000000,-2.790000000000000,0.500000000000000));
#1474=VERTEX_POINT('',#1473);
#1475=CARTESIAN_POINT('',(-2.390000000000000,-2.790000000000000,-3.500000000000000));
#1476=DIRECTION('',(0.0,0.0,1.0));
#1477=VECTOR('',#1476,4.0);
#1478=LINE('',#1475,#1477);
#1479=EDGE_CURVE('',#1466,#1474,#1478,.T.);
#1480=ORIENTED_EDGE('',*,*,#1479,.T.);
#1481=CARTESIAN_POINT('',(-2.390000000000000,-2.790000000000000,0.500000000000000));
#1482=DIRECTION('',(-1.0,0.0,0.0));
#1483=VECTOR('',#1482,0.300000000000001);
#1484=LINE('',#1481,#1483);
#1485=EDGE_CURVE('',#1474,#1458,#1484,.T.);
#1486=ORIENTED_EDGE('',*,*,#1485,.T.);
#1487=EDGE_LOOP('',(#1464,#1472,#1480,#1486));
#1488=FACE_OUTER_BOUND('',#1487,.T.);
#1489=ADVANCED_FACE('',(#1488),#1454,.F.);
#1490=CARTESIAN_POINT('',(-2.690000000000000,-2.290000000000000,-3.500000000000000));
#1491=CARTESIAN_POINT('',(-2.690000000000000,-2.290000000000000,0.500000000000000));
#1492=CARTESIAN_POINT('',(-2.690000000000000,-2.790000000000000,-3.500000000000000));
#1493=CARTESIAN_POINT('',(-2.690000000000000,-2.790000000000000,0.500000000000000));
#1494=B_SPLINE_SURFACE_WITH_KNOTS('',1,1,((#1490,#1492),(#1491,#1493)),.UNSPECIFIED.,.F.,.F.,.U.,(2,2),(2,2),(0.0,4.0),(0.0,0.500000000000000),.UNSPECIFIED.);
#1495=CARTESIAN_POINT('',(-2.690000000000000,-2.290000000000000,-3.500000000000000));
#1496=VERTEX_POINT('',#1495);
#1497=CARTESIAN_POINT('',(-2.690000000000000,-2.290000000000000,0.500000000000000));
#1498=VERTEX_POINT('',#1497);
#1499=CARTESIAN_POINT('',(-2.690000000000000,-2.290000000000000,-3.500000000000000));
#1500=DIRECTION('',(0.0,0.0,1.0));
#1501=VECTOR('',#1500,4.0);
#1502=LINE('',#1499,#1501);
#1503=EDGE_CURVE('',#1496,#1498,#1502,.T.);
#1504=ORIENTED_EDGE('',*,*,#1503,.F.);
#1505=CARTESIAN_POINT('',(-2.690000000000000,-2.290000000000000,-3.500000000000000));
#1506=DIRECTION('',(0.0,-1.0,0.0));
#1507=VECTOR('',#1506,0.500000000000000);
#1508=LINE('',#1505,#1507);
#1509=EDGE_CURVE('',#1496,#1456,#1508,.T.);
#1510=ORIENTED_EDGE('',*,*,#1509,.T.);
#1511=ORIENTED_EDGE('',*,*,#1463,.T.);
#1512=CARTESIAN_POINT('',(-2.690000000000000,-2.790000000000000,0.500000000000000));
#1513=DIRECTION('',(0.0,1.0,0.0));
#1514=VECTOR('',#1513,0.500000000000000);
#1515=LINE('',#1512,#1514);
#1516=EDGE_CURVE('',#1458,#1498,#1515,.T.);
#1517=ORIENTED_EDGE('',*,*,#1516,.T.);
#1518=EDGE_LOOP('',(#1504,#1510,#1511,#1517));
#1519=FACE_OUTER_BOUND('',#1518,.T.);
#1520=ADVANCED_FACE('',(#1519),#1494,.F.);
#1521=CARTESIAN_POINT('',(-2.690000000000000,-2.290000000000000,-3.500000000000000));
#1522=CARTESIAN_POINT('',(-2.390000000000000,-2.290000000000000,-3.500000000000000));
#1523=CARTESIAN_POINT('',(-2.690000000000000,-2.790000000000000,-3.500000000000000));
#1524=CARTESIAN_POINT('',(-2.390000000000000,-2.790000000000000,-3.500000000000000));
#1525=B_SPLINE_SURFACE_WITH_KNOTS('',1,1,((#1521,#1523),(#1522,#1524)),.UNSPECIFIED.,.F.,.F.,.U.,(2,2),(2,2),(0.0,0.300000000000001),(0.0,0.500000000000000),.UNSPECIFIED.);
#1526=CARTESIAN_POINT('',(-2.390000000000000,-2.290000000000000,-3.500000000000000));
#1527=VERTEX_POINT('',#1526);
#1528=CARTESIAN_POINT('',(-2.390000000000000,-2.790000000000000,-3.500000000000000));
#1529=DIRECTION('',(0.0,1.0,0.0));
#1530=VECTOR('',#1529,0.500000000000000);
#1531=LINE('',#1528,#1530);
#1532=EDGE_CURVE('',#1466,#1527,#1531,.T.);
#1533=ORIENTED_EDGE('',*,*,#1532,.F.);
#1534=ORIENTED_EDGE('',*,*,#1471,.F.);
#1535=ORIENTED_EDGE('',*,*,#1509,.F.);
#1536=CARTESIAN_POINT('',(-2.690000000000000,-2.290000000000000,-3.500000000000000));
#1537=DIRECTION('',(1.0,0.0,0.0));
#1538=VECTOR('',#1537,0.300000000000001);
#1539=LINE('',#1536,#1538);
#1540=EDGE_CURVE('',#1527,#1496,#1539,.F.);
#1541=ORIENTED_EDGE('',*,*,#1540,.F.);
#1542=EDGE_LOOP('',(#1533,#1534,#1535,#1541));
#1543=FACE_OUTER_BOUND('',#1542,.T.);
#1544=ADVANCED_FACE('',(#1543),#1525,.T.);
#1545=CARTESIAN_POINT('',(-2.390000000000000,-2.290000000000000,0.500000000000000));
#1546=CARTESIAN_POINT('',(-2.390000000000000,-2.290000000000000,-3.500000000000000));
#1547=CARTESIAN_POINT('',(-2.390000000000000,-2.790000000000000,0.500000000000000));
#1548=CARTESIAN_POINT('',(-2.390000000000000,-2.790000000000000,-3.500000000000000));
#1549=B_SPLINE_SURFACE_WITH_KNOTS('',1,1,((#1545,#1547),(#1546,#1548)),.UNSPECIFIED.,.F.,.F.,.U.,(2,2),(2,2),(0.0,4.0),(0.0,0.500000000000000),.UNSPECIFIED.);
#1550=ORIENTED_EDGE('',*,*,#1479,.F.);
#1551=ORIENTED_EDGE('',*,*,#1532,.T.);
#1552=CARTESIAN_POINT('',(-2.390000000000000,-2.290000000000000,0.500000000000000));
#1553=VERTEX_POINT('',#1552);
#1554=CARTESIAN_POINT('',(-2.390000000000000,-2.290000000000000,-3.500000000000000));
#1555=DIRECTION('',(0.0,0.0,1.0));
#1556=VECTOR('',#1555,4.0);
#1557=LINE('',#1554,#1556);
#1558=EDGE_CURVE('',#1527,#1553,#1557,.T.);
#1559=ORIENTED_EDGE('',*,*,#1558,.T.);
#1560=CARTESIAN_POINT('',(-2.390000000000000,-2.290000000000000,0.500000000000000));
#1561=DIRECTION('',(0.0,-1.0,0.0));
#1562=VECTOR('',#1561,0.500000000000000);
#1563=LINE('',#1560,#1562);
#1564=EDGE_CURVE('',#1553,#1474,#1563,.T.);
#1565=ORIENTED_EDGE('',*,*,#1564,.T.);
#1566=EDGE_LOOP('',(#1550,#1551,#1559,#1565));
#1567=FACE_OUTER_BOUND('',#1566,.T.);
#1568=ADVANCED_FACE('',(#1567),#1549,.F.);
#1569=CARTESIAN_POINT('',(-2.690000000000000,-2.290000000000000,0.500000000000000));
#1570=CARTESIAN_POINT('',(-2.390000000000000,-2.290000000000000,0.500000000000000));
#1571=CARTESIAN_POINT('',(-2.690000000000000,-2.790000000000000,0.500000000000000));
#1572=CARTESIAN_POINT('',(-2.390000000000000,-2.790000000000000,0.500000000000000));
#1573=B_SPLINE_SURFACE_WITH_KNOTS('',1,1,((#1569,#1571),(#1570,#1572)),.UNSPECIFIED.,.F.,.F.,.U.,(2,2),(2,2),(0.0,0.300000000000001),(0.0,0.500000000000000),.UNSPECIFIED.);
#1574=ORIENTED_EDGE('',*,*,#1564,.F.);
#1575=CARTESIAN_POINT('',(-2.690000000000000,-2.290000000000000,0.500000000000000));
#1576=DIRECTION('',(1.0,0.0,0.0));
#1577=VECTOR('',#1576,0.300000000000001);
#1578=LINE('',#1575,#1577);
#1579=EDGE_CURVE('',#1498,#1553,#1578,.T.);
#1580=ORIENTED_EDGE('',*,*,#1579,.F.);
#1581=ORIENTED_EDGE('',*,*,#1516,.F.);
#1582=ORIENTED_EDGE('',*,*,#1485,.F.);
#1583=EDGE_LOOP('',(#1574,#1580,#1581,#1582));
#1584=FACE_OUTER_BOUND('',#1583,.T.);
#1585=ADVANCED_FACE('',(#1584),#1573,.F.);
#1586=CARTESIAN_POINT('',(-2.390000000000000,-2.290000000000000,-3.500000000000000));
#1587=CARTESIAN_POINT('',(-2.390000000000000,-2.290000000000000,0.500000000000000));
#1588=CARTESIAN_POINT('',(-2.690000000000000,-2.290000000000000,-3.500000000000000));
#1589=CARTESIAN_POINT('',(-2.690000000000000,-2.290000000000000,0.500000000000000));
#1590=B_SPLINE_SURFACE_WITH_KNOTS('',1,1,((#1586,#1588),(#1587,#1589)),.UNSPECIFIED.,.F.,.F.,.U.,(2,2),(2,2),(0.0,4.0),(0.0,0.300000000000001),.UNSPECIFIED.);
#1591=ORIENTED_EDGE('',*,*,#1558,.F.);
#1592=ORIENTED_EDGE('',*,*,#1540,.T.);
#1593=ORIENTED_EDGE('',*,*,#1503,.T.);
#1594=ORIENTED_EDGE('',*,*,#1579,.T.);
#1595=EDGE_LOOP('',(#1591,#1592,#1593,#1594));
#1596=FACE_OUTER_BOUND('',#1595,.T.);
#1597=ADVANCED_FACE('',(#1596),#1590,.F.);
#1598=CLOSED_SHELL('',(#1489,#1520,#1544,#1568,#1585,#1597));
#1599=MANIFOLD_SOLID_BREP('263',#1598);
#1600=STYLED_ITEM('NONE',(#995),#1599);
#1601=CARTESIAN_POINT('',(-4.830000000000000,-2.290000000000000,0.500000000000000));
#1602=CARTESIAN_POINT('',(-4.830000000000000,-2.290000000000000,-3.500000000000000));
#1603=CARTESIAN_POINT('',(-4.830000000000000,-2.790000000000000,0.500000000000000));
#1604=CARTESIAN_POINT('',(-4.830000000000000,-2.790000000000000,-3.500000000000000));
#1605=B_SPLINE_SURFACE_WITH_KNOTS('',1,1,((#1601,#1603),(#1602,#1604)),.UNSPECIFIED.,.F.,.F.,.U.,(2,2),(2,2),(0.0,4.0),(0.0,0.500000000000000),.UNSPECIFIED.);
#1606=CARTESIAN_POINT('',(-4.830000000000000,-2.790000000000000,-3.500000000000000));
#1607=VERTEX_POINT('',#1606);
#1608=CARTESIAN_POINT('',(-4.830000000000000,-2.790000000000000,0.500000000000000));
#1609=VERTEX_POINT('',#1608);
#1610=CARTESIAN_POINT('',(-4.830000000000000,-2.790000000000000,-3.500000000000000));
#1611=DIRECTION('',(0.0,0.0,1.0));
#1612=VECTOR('',#1611,4.0);
#1613=LINE('',#1610,#1612);
#1614=EDGE_CURVE('',#1607,#1609,#1613,.T.);
#1615=ORIENTED_EDGE('',*,*,#1614,.F.);
#1616=CARTESIAN_POINT('',(-4.830000000000000,-2.290000000000000,-3.500000000000000));
#1617=VERTEX_POINT('',#1616);
#1618=CARTESIAN_POINT('',(-4.830000000000000,-2.790000000000000,-3.500000000000000));
#1619=DIRECTION('',(0.0,1.0,0.0));
#1620=VECTOR('',#1619,0.500000000000000);
#1621=LINE('',#1618,#1620);
#1622=EDGE_CURVE('',#1607,#1617,#1621,.T.);
#1623=ORIENTED_EDGE('',*,*,#1622,.T.);
#1624=CARTESIAN_POINT('',(-4.830000000000000,-2.290000000000000,0.500000000000000));
#1625=VERTEX_POINT('',#1624);
#1626=CARTESIAN_POINT('',(-4.830000000000000,-2.290000000000000,-3.500000000000000));
#1627=DIRECTION('',(0.0,0.0,1.0));
#1628=VECTOR('',#1627,4.0);
#1629=LINE('',#1626,#1628);
#1630=EDGE_CURVE('',#1617,#1625,#1629,.T.);
#1631=ORIENTED_EDGE('',*,*,#1630,.T.);
#1632=CARTESIAN_POINT('',(-4.830000000000000,-2.790000000000000,0.500000000000000));
#1633=DIRECTION('',(0.0,1.0,0.0));
#1634=VECTOR('',#1633,0.500000000000000);
#1635=LINE('',#1632,#1634);
#1636=EDGE_CURVE('',#1625,#1609,#1635,.F.);
#1637=ORIENTED_EDGE('',*,*,#1636,.T.);
#1638=EDGE_LOOP('',(#1615,#1623,#1631,#1637));
#1639=FACE_OUTER_BOUND('',#1638,.T.);
#1640=ADVANCED_FACE('',(#1639),#1605,.F.);
#1641=CARTESIAN_POINT('',(-4.830000000000000,-2.790000000000000,0.500000000000000));
#1642=CARTESIAN_POINT('',(-4.830000000000000,-2.790000000000000,-3.500000000000000));
#1643=CARTESIAN_POINT('',(-5.330000000000000,-2.790000000000000,0.500000000000000));
#1644=CARTESIAN_POINT('',(-5.330000000000000,-2.790000000000000,-3.500000000000000));
#1645=B_SPLINE_SURFACE_WITH_KNOTS('',1,1,((#1641,#1643),(#1642,#1644)),.UNSPECIFIED.,.F.,.F.,.U.,(2,2),(2,2),(0.0,4.0),(0.0,0.500000000000000),.UNSPECIFIED.);
#1646=CARTESIAN_POINT('',(-5.330000000000000,-2.790000000000000,-3.500000000000000));
#1647=VERTEX_POINT('',#1646);
#1648=CARTESIAN_POINT('',(-5.330000000000000,-2.790000000000000,0.500000000000000));
#1649=VERTEX_POINT('',#1648);
#1650=CARTESIAN_POINT('',(-5.330000000000000,-2.790000000000000,-3.500000000000000));
#1651=DIRECTION('',(0.0,0.0,1.0));
#1652=VECTOR('',#1651,4.0);
#1653=LINE('',#1650,#1652);
#1654=EDGE_CURVE('',#1647,#1649,#1653,.T.);
#1655=ORIENTED_EDGE('',*,*,#1654,.F.);
#1656=CARTESIAN_POINT('',(-4.830000000000000,-2.790000000000000,-3.500000000000000));
#1657=DIRECTION('',(-1.0,0.0,0.0));
#1658=VECTOR('',#1657,0.500000000000000);
#1659=LINE('',#1656,#1658);
#1660=EDGE_CURVE('',#1647,#1607,#1659,.F.);
#1661=ORIENTED_EDGE('',*,*,#1660,.T.);
#1662=ORIENTED_EDGE('',*,*,#1614,.T.);
#1663=CARTESIAN_POINT('',(-4.830000000000000,-2.790000000000000,0.500000000000000));
#1664=DIRECTION('',(-1.0,0.0,0.0));
#1665=VECTOR('',#1664,0.500000000000000);
#1666=LINE('',#1663,#1665);
#1667=EDGE_CURVE('',#1609,#1649,#1666,.T.);
#1668=ORIENTED_EDGE('',*,*,#1667,.T.);
#1669=EDGE_LOOP('',(#1655,#1661,#1662,#1668));
#1670=FACE_OUTER_BOUND('',#1669,.T.);
#1671=ADVANCED_FACE('',(#1670),#1645,.F.);
#1672=CARTESIAN_POINT('',(-5.330000000000000,-2.290000000000000,-3.500000000000000));
#1673=CARTESIAN_POINT('',(-4.830000000000000,-2.290000000000000,-3.500000000000000));
#1674=CARTESIAN_POINT('',(-5.330000000000000,-2.790000000000000,-3.500000000000000));
#1675=CARTESIAN_POINT('',(-4.830000000000000,-2.790000000000000,-3.500000000000000));
#1676=B_SPLINE_SURFACE_WITH_KNOTS('',1,1,((#1672,#1674),(#1673,#1675)),.UNSPECIFIED.,.F.,.F.,.U.,(2,2),(2,2),(0.0,0.500000000000000),(0.0,0.500000000000000),.UNSPECIFIED.);
#1677=ORIENTED_EDGE('',*,*,#1622,.F.);
#1678=ORIENTED_EDGE('',*,*,#1660,.F.);
#1679=CARTESIAN_POINT('',(-5.330000000000000,-2.290000000000000,-3.500000000000000));
#1680=VERTEX_POINT('',#1679);
#1681=CARTESIAN_POINT('',(-5.330000000000000,-2.290000000000000,-3.500000000000000));
#1682=DIRECTION('',(0.0,-1.0,0.0));
#1683=VECTOR('',#1682,0.500000000000000);
#1684=LINE('',#1681,#1683);
#1685=EDGE_CURVE('',#1680,#1647,#1684,.T.);
#1686=ORIENTED_EDGE('',*,*,#1685,.F.);
#1687=CARTESIAN_POINT('',(-4.830000000000000,-2.290000000000000,-3.500000000000000));
#1688=DIRECTION('',(-1.0,0.0,0.0));
#1689=VECTOR('',#1688,0.500000000000000);
#1690=LINE('',#1687,#1689);
#1691=EDGE_CURVE('',#1617,#1680,#1690,.T.);
#1692=ORIENTED_EDGE('',*,*,#1691,.F.);
#1693=EDGE_LOOP('',(#1677,#1678,#1686,#1692));
#1694=FACE_OUTER_BOUND('',#1693,.T.);
#1695=ADVANCED_FACE('',(#1694),#1676,.T.);
#1696=CARTESIAN_POINT('',(-4.830000000000000,-2.290000000000000,-3.500000000000000));
#1697=CARTESIAN_POINT('',(-4.830000000000000,-2.290000000000000,0.500000000000000));
#1698=CARTESIAN_POINT('',(-5.330000000000000,-2.290000000000000,-3.500000000000000));
#1699=CARTESIAN_POINT('',(-5.330000000000000,-2.290000000000000,0.500000000000000));
#1700=B_SPLINE_SURFACE_WITH_KNOTS('',1,1,((#1696,#1698),(#1697,#1699)),.UNSPECIFIED.,.F.,.F.,.U.,(2,2),(2,2),(0.0,4.0),(0.0,0.500000000000000),.UNSPECIFIED.);
#1701=ORIENTED_EDGE('',*,*,#1630,.F.);
#1702=ORIENTED_EDGE('',*,*,#1691,.T.);
#1703=CARTESIAN_POINT('',(-5.330000000000000,-2.290000000000000,0.500000000000000));
#1704=VERTEX_POINT('',#1703);
#1705=CARTESIAN_POINT('',(-5.330000000000000,-2.290000000000000,-3.500000000000000));
#1706=DIRECTION('',(0.0,0.0,1.0));
#1707=VECTOR('',#1706,4.0);
#1708=LINE('',#1705,#1707);
#1709=EDGE_CURVE('',#1680,#1704,#1708,.T.);
#1710=ORIENTED_EDGE('',*,*,#1709,.T.);
#1711=CARTESIAN_POINT('',(-5.330000000000000,-2.290000000000000,0.500000000000000));
#1712=DIRECTION('',(1.0,0.0,0.0));
#1713=VECTOR('',#1712,0.500000000000000);
#1714=LINE('',#1711,#1713);
#1715=EDGE_CURVE('',#1704,#1625,#1714,.T.);
#1716=ORIENTED_EDGE('',*,*,#1715,.T.);
#1717=EDGE_LOOP('',(#1701,#1702,#1710,#1716));
#1718=FACE_OUTER_BOUND('',#1717,.T.);
#1719=ADVANCED_FACE('',(#1718),#1700,.F.);
#1720=CARTESIAN_POINT('',(-5.330000000000000,-2.290000000000000,0.500000000000000));
#1721=CARTESIAN_POINT('',(-4.830000000000000,-2.290000000000000,0.500000000000000));
#1722=CARTESIAN_POINT('',(-5.330000000000000,-2.790000000000000,0.500000000000000));
#1723=CARTESIAN_POINT('',(-4.830000000000000,-2.790000000000000,0.500000000000000));
#1724=B_SPLINE_SURFACE_WITH_KNOTS('',1,1,((#1720,#1722),(#1721,#1723)),.UNSPECIFIED.,.F.,.F.,.U.,(2,2),(2,2),(0.0,0.500000000000000),(0.0,0.500000000000000),.UNSPECIFIED.);
#1725=ORIENTED_EDGE('',*,*,#1636,.F.);
#1726=ORIENTED_EDGE('',*,*,#1715,.F.);
#1727=CARTESIAN_POINT('',(-5.330000000000000,-2.290000000000000,0.500000000000000));
#1728=DIRECTION('',(0.0,-1.0,0.0));
#1729=VECTOR('',#1728,0.500000000000000);
#1730=LINE('',#1727,#1729);
#1731=EDGE_CURVE('',#1649,#1704,#1730,.F.);
#1732=ORIENTED_EDGE('',*,*,#1731,.F.);
#1733=ORIENTED_EDGE('',*,*,#1667,.F.);
#1734=EDGE_LOOP('',(#1725,#1726,#1732,#1733));
#1735=FACE_OUTER_BOUND('',#1734,.T.);
#1736=ADVANCED_FACE('',(#1735),#1724,.F.);
#1737=CARTESIAN_POINT('',(-5.330000000000000,-2.290000000000000,-3.500000000000000));
#1738=CARTESIAN_POINT('',(-5.330000000000000,-2.290000000000000,0.500000000000000));
#1739=CARTESIAN_POINT('',(-5.330000000000000,-2.790000000000000,-3.500000000000000));
#1740=CARTESIAN_POINT('',(-5.330000000000000,-2.790000000000000,0.500000000000000));
#1741=B_SPLINE_SURFACE_WITH_KNOTS('',1,1,((#1737,#1739),(#1738,#1740)),.UNSPECIFIED.,.F.,.F.,.U.,(2,2),(2,2),(0.0,4.0),(0.0,0.500000000000000),.UNSPECIFIED.);
#1742=ORIENTED_EDGE('',*,*,#1709,.F.);
#1743=ORIENTED_EDGE('',*,*,#1685,.T.);
#1744=ORIENTED_EDGE('',*,*,#1654,.T.);
#1745=ORIENTED_EDGE('',*,*,#1731,.T.);
#1746=EDGE_LOOP('',(#1742,#1743,#1744,#1745));
#1747=FACE_OUTER_BOUND('',#1746,.T.);
#1748=ADVANCED_FACE('',(#1747),#1741,.F.);
#1749=CLOSED_SHELL('',(#1640,#1671,#1695,#1719,#1736,#1748));
#1750=MANIFOLD_SOLID_BREP('25F',#1749);
#1751=STYLED_ITEM('NONE',(#995),#1750);
#1752=ADVANCED_BREP_SHAPE_REPRESENTATION('ABSR1',(#214,#830,#988,#1146,#1297,#1448,#1599,#1750),#28);
#1753=SHAPE_REPRESENTATION_RELATIONSHIP('SRRPL1','',#1752,#62);
ENDSEC;
END-ISO-10303-21;
