ISO-10303-21;
HEADER;
/****************************************************************
 * Generated by software with PDE/Lib inside                    *
 * PDE/Lib Version 3.2.2, created Thu Mar 23, 2000 at 18:38:49  *
 * International Technegroup Inc. (www.iti-oh.com)              *
 ****************************************************************/
FILE_DESCRIPTION((''),'2;1');
FILE_NAME('RES1016-630X250.stp','2009-08-27T12:05:52',(''),(''),'Mechanical Desktop 2006','Mechanical Desktop 2006',', , ');
FILE_SCHEMA(('AUTOMOTIVE_DESIGN { 1 2 10303 214 0 1 1 1 }'));
ENDSEC;
DATA;
#8=(NAMED_UNIT(*)PLANE_ANGLE_UNIT()SI_UNIT($,.RADIAN.));
#9=DIMENSIONAL_EXPONENTS(0.0,0.0,0.0,0.0,0.0,0.0,0.0);
#10=PLANE_ANGLE_MEASURE_WITH_UNIT(PLANE_ANGLE_MEASURE(0.017453292500000),#8);
#14=(CONVERSION_BASED_UNIT('DEGREE',#10)NAMED_UNIT(#9)PLANE_ANGLE_UNIT());
#18=(NAMED_UNIT(*)SI_UNIT($,.STERADIAN.)SOLID_ANGLE_UNIT());
#22=(LENGTH_UNIT()NAMED_UNIT(*)SI_UNIT(.MILLI.,.METRE.));
#23=UNCERTAINTY_MEASURE_WITH_UNIT(LENGTH_MEASURE(0.000001000000000),#22,'DISTANCE_ACCURACY_VALUE','');
#28=(GEOMETRIC_REPRESENTATION_CONTEXT(3)GLOBAL_UNCERTAINTY_ASSIGNED_CONTEXT((#23))GLOBAL_UNIT_ASSIGNED_CONTEXT((#14,#18,#22))REPRESENTATION_CONTEXT('None','None'));
#29=APPLICATION_CONTEXT('automotive design');
#30=APPLICATION_PROTOCOL_DEFINITION('DRAFT_INTERNATIONAL_STANDARD','automotive_design',1998,#29);
#31=PRODUCT_CONTEXT('3D Mechanical Parts',#29,'mechanical');
#32=PRODUCT('Product','Product','',(#31));
#33=PRODUCT_RELATED_PRODUCT_CATEGORY('part',$,(#32));
#34=PRODUCT_CATEGORY('part',$);
#35=PERSON('1','Design','Joe',$,$,$);
#36=ORGANIZATION($,'None','None');
#37=PERSON_AND_ORGANIZATION(#35,#36);
#38=PERSON_AND_ORGANIZATION_ROLE('design_owner');
#39=APPLIED_PERSON_AND_ORGANIZATION_ASSIGNMENT(#37,#38,(#32));
#40=PRODUCT_DEFINITION_FORMATION_WITH_SPECIFIED_SOURCE('None','',#32,.BOUGHT.);
#41=PERSON('2','Creator','Joe',$,$,$);
#42=ORGANIZATION($,'None','None');
#43=PERSON_AND_ORGANIZATION(#41,#42);
#44=PERSON_AND_ORGANIZATION_ROLE('creator');
#45=APPLIED_PERSON_AND_ORGANIZATION_ASSIGNMENT(#43,#44,(#40));
#46=PERSON('3','Supplier','Joe',$,$,$);
#47=ORGANIZATION($,'None','None');
#48=PERSON_AND_ORGANIZATION(#46,#47);
#49=PERSON_AND_ORGANIZATION_ROLE('design_supplier');
#50=APPLIED_PERSON_AND_ORGANIZATION_ASSIGNMENT(#48,#49,(#40));
#51=PRODUCT_DEFINITION_CONTEXT('part definition',#29,'design');
#52=PRODUCT_DEFINITION('None','',#40,#51);
#53=PERSON('4','Creator','Joe',$,$,$);
#54=ORGANIZATION($,'None','None');
#55=PERSON_AND_ORGANIZATION(#53,#54);
#56=PERSON_AND_ORGANIZATION_ROLE('creator');
#57=APPLIED_PERSON_AND_ORGANIZATION_ASSIGNMENT(#55,#56,(#52));
#58=CARTESIAN_POINT('NONE',(0.0,0.0,0.0));
#59=DIRECTION('NONE',(0.0,0.0,1.0));
#60=DIRECTION('NONE',(1.0,0.0,0.0));
#61=AXIS2_PLACEMENT_3D('NONE',#58,#59,#60);
#62=SHAPE_REPRESENTATION('SR1',(#61),#28);
#63=PRODUCT_DEFINITION_SHAPE('PDS1','Test Part',#52);
#64=SHAPE_DEFINITION_REPRESENTATION(#63,#62);
#65=CARTESIAN_POINT('',(-3.150000000000000,1.060647E-015,1.250000000000002));
#66=DIRECTION('',(1.0,1.608143E-016,-2.220446E-016));
#67=DIRECTION('',(0.0,1.0,0.0));
#68=AXIS2_PLACEMENT_3D('',#65,#66,#67);
#69=CYLINDRICAL_SURFACE('',#68,1.250000000000000);
#70=CARTESIAN_POINT('',(-0.950000000000000,1.250000000000001,1.250000000000001));
#71=VERTEX_POINT('',#70);
#72=CARTESIAN_POINT('',(-0.050000000000001,1.250000000000001,1.250000000000001));
#73=VERTEX_POINT('',#72);
#74=CARTESIAN_POINT('',(-0.950000000000000,1.250000000000001,1.250000000000001));
#75=DIRECTION('',(1.0,0.0,0.0));
#76=VECTOR('',#75,0.899999999999999);
#77=LINE('',#74,#76);
#78=EDGE_CURVE('',#71,#73,#77,.T.);
#79=ORIENTED_EDGE('',*,*,#78,.F.);
#80=CARTESIAN_POINT('',(-0.950000000000001,-1.249999999999999,1.250000000000002));
#81=VERTEX_POINT('',#80);
#82=CARTESIAN_POINT('',(-0.950000000000001,1.060647E-015,1.250000000000002));
#83=DIRECTION('',(1.0,0.0,0.0));
#84=DIRECTION('',(0.0,1.0,0.0));
#85=AXIS2_PLACEMENT_3D('',#82,#83,#84);
#86=CIRCLE('',#85,1.250000000000000);
#87=EDGE_CURVE('',#71,#81,#86,.T.);
#88=ORIENTED_EDGE('',*,*,#87,.T.);
#89=CARTESIAN_POINT('',(-0.050000000000001,-1.249999999999999,1.250000000000002));
#90=VERTEX_POINT('',#89);
#91=CARTESIAN_POINT('',(-0.050000000000001,-1.249999999999999,1.250000000000002));
#92=DIRECTION('',(-1.0,0.0,0.0));
#93=VECTOR('',#92,0.899999999999999);
#94=LINE('',#91,#93);
#95=EDGE_CURVE('',#90,#81,#94,.T.);
#96=ORIENTED_EDGE('',*,*,#95,.F.);
#97=CARTESIAN_POINT('',(-0.050000000000001,1.060647E-015,1.250000000000001));
#98=DIRECTION('',(-1.0,0.0,0.0));
#99=DIRECTION('',(0.0,1.0,0.0));
#100=AXIS2_PLACEMENT_3D('',#97,#98,#99);
#101=CIRCLE('',#100,1.250000000000000);
#102=EDGE_CURVE('',#90,#73,#101,.T.);
#103=ORIENTED_EDGE('',*,*,#102,.T.);
#104=EDGE_LOOP('',(#79,#88,#96,#103));
#105=FACE_OUTER_BOUND('',#104,.T.);
#106=ADVANCED_FACE('',(#105),#69,.T.);
#107=CARTESIAN_POINT('',(-0.950000000000001,1.060647E-015,1.249999999999999));
#108=DIRECTION('',(1.0,0.0,0.0));
#109=DIRECTION('',(0.0,0.0,-1.0));
#110=AXIS2_PLACEMENT_3D('',#107,#108,#109);
#111=PLANE('',#110);
#112=CARTESIAN_POINT('',(-0.950000000000001,1.060647E-015,1.250000000000002));
#113=DIRECTION('',(1.0,0.0,0.0));
#114=DIRECTION('',(0.0,1.0,0.0));
#115=AXIS2_PLACEMENT_3D('',#112,#113,#114);
#116=CIRCLE('',#115,1.250000000000000);
#117=EDGE_CURVE('',#81,#71,#116,.T.);
#118=ORIENTED_EDGE('',*,*,#117,.F.);
#119=ORIENTED_EDGE('',*,*,#87,.F.);
#120=EDGE_LOOP('',(#118,#119));
#121=FACE_OUTER_BOUND('',#120,.T.);
#122=ADVANCED_FACE('',(#121),#111,.F.);
#123=CARTESIAN_POINT('',(-0.050000000000001,1.060647E-015,1.249999999999999));
#124=DIRECTION('',(1.0,0.0,0.0));
#125=DIRECTION('',(0.0,0.0,-1.0));
#126=AXIS2_PLACEMENT_3D('',#123,#124,#125);
#127=PLANE('',#126);
#128=ORIENTED_EDGE('',*,*,#102,.F.);
#129=CARTESIAN_POINT('',(-0.050000000000001,1.060647E-015,1.250000000000001));
#130=DIRECTION('',(-1.0,0.0,0.0));
#131=DIRECTION('',(0.0,1.0,0.0));
#132=AXIS2_PLACEMENT_3D('',#129,#130,#131);
#133=CIRCLE('',#132,1.250000000000000);
#134=EDGE_CURVE('',#73,#90,#133,.T.);
#135=ORIENTED_EDGE('',*,*,#134,.F.);
#136=EDGE_LOOP('',(#128,#135));
#137=FACE_OUTER_BOUND('',#136,.T.);
#138=ADVANCED_FACE('',(#137),#127,.T.);
#139=CARTESIAN_POINT('',(-3.150000000000000,1.060647E-015,1.250000000000002));
#140=DIRECTION('',(1.0,1.608143E-016,-2.220446E-016));
#141=DIRECTION('',(0.0,1.0,0.0));
#142=AXIS2_PLACEMENT_3D('',#139,#140,#141);
#143=CYLINDRICAL_SURFACE('',#142,1.250000000000000);
#144=ORIENTED_EDGE('',*,*,#78,.T.);
#145=ORIENTED_EDGE('',*,*,#134,.T.);
#146=ORIENTED_EDGE('',*,*,#95,.T.);
#147=ORIENTED_EDGE('',*,*,#117,.T.);
#148=EDGE_LOOP('',(#144,#145,#146,#147));
#149=FACE_OUTER_BOUND('',#148,.T.);
#150=ADVANCED_FACE('',(#149),#143,.T.);
#151=CLOSED_SHELL('',(#106,#122,#138,#150));
#152=CARTESIAN_POINT('',(-3.150000000000000,1.060647E-015,1.250000000000002));
#153=DIRECTION('',(1.0,1.608143E-016,-2.220446E-016));
#154=DIRECTION('',(0.0,1.0,0.0));
#155=AXIS2_PLACEMENT_3D('',#152,#153,#154);
#156=CYLINDRICAL_SURFACE('',#155,1.250000000000000);
#157=CARTESIAN_POINT('',(0.349999999999999,1.250000000000001,1.250000000000001));
#158=VERTEX_POINT('',#157);
#159=CARTESIAN_POINT('',(0.949999999999999,1.250000000000001,1.250000000000001));
#160=VERTEX_POINT('',#159);
#161=CARTESIAN_POINT('',(0.349999999999999,1.250000000000001,1.250000000000001));
#162=DIRECTION('',(1.0,0.0,0.0));
#163=VECTOR('',#162,0.600000000000000);
#164=LINE('',#161,#163);
#165=EDGE_CURVE('',#158,#160,#164,.T.);
#166=ORIENTED_EDGE('',*,*,#165,.F.);
#167=CARTESIAN_POINT('',(0.349999999999999,-1.249999999999999,1.250000000000002));
#168=VERTEX_POINT('',#167);
#169=CARTESIAN_POINT('',(0.349999999999999,1.060647E-015,1.250000000000001));
#170=DIRECTION('',(1.0,0.0,0.0));
#171=DIRECTION('',(0.0,1.0,0.0));
#172=AXIS2_PLACEMENT_3D('',#169,#170,#171);
#173=CIRCLE('',#172,1.250000000000000);
#174=EDGE_CURVE('',#158,#168,#173,.T.);
#175=ORIENTED_EDGE('',*,*,#174,.T.);
#176=CARTESIAN_POINT('',(0.949999999999999,-1.249999999999999,1.250000000000002));
#177=VERTEX_POINT('',#176);
#178=CARTESIAN_POINT('',(0.949999999999999,-1.249999999999999,1.250000000000002));
#179=DIRECTION('',(-1.0,0.0,0.0));
#180=VECTOR('',#179,0.600000000000000);
#181=LINE('',#178,#180);
#182=EDGE_CURVE('',#177,#168,#181,.T.);
#183=ORIENTED_EDGE('',*,*,#182,.F.);
#184=CARTESIAN_POINT('',(0.949999999999999,1.060647E-015,1.250000000000001));
#185=DIRECTION('',(-1.0,0.0,0.0));
#186=DIRECTION('',(0.0,1.0,0.0));
#187=AXIS2_PLACEMENT_3D('',#184,#185,#186);
#188=CIRCLE('',#187,1.250000000000000);
#189=EDGE_CURVE('',#177,#160,#188,.T.);
#190=ORIENTED_EDGE('',*,*,#189,.T.);
#191=EDGE_LOOP('',(#166,#175,#183,#190));
#192=FACE_OUTER_BOUND('',#191,.F.);
#193=ADVANCED_FACE('',(#192),#156,.F.);
#194=CARTESIAN_POINT('',(-3.150000000000000,1.060647E-015,1.250000000000002));
#195=DIRECTION('',(1.0,1.608143E-016,-2.220446E-016));
#196=DIRECTION('',(0.0,1.0,0.0));
#197=AXIS2_PLACEMENT_3D('',#194,#195,#196);
#198=CYLINDRICAL_SURFACE('',#197,1.250000000000000);
#199=ORIENTED_EDGE('',*,*,#165,.T.);
#200=CARTESIAN_POINT('',(0.949999999999999,1.060647E-015,1.250000000000001));
#201=DIRECTION('',(-1.0,0.0,0.0));
#202=DIRECTION('',(0.0,1.0,0.0));
#203=AXIS2_PLACEMENT_3D('',#200,#201,#202);
#204=CIRCLE('',#203,1.250000000000000);
#205=EDGE_CURVE('',#160,#177,#204,.T.);
#206=ORIENTED_EDGE('',*,*,#205,.T.);
#207=ORIENTED_EDGE('',*,*,#182,.T.);
#208=CARTESIAN_POINT('',(0.349999999999999,1.060647E-015,1.250000000000001));
#209=DIRECTION('',(1.0,0.0,0.0));
#210=DIRECTION('',(0.0,1.0,0.0));
#211=AXIS2_PLACEMENT_3D('',#208,#209,#210);
#212=CIRCLE('',#211,1.250000000000000);
#213=EDGE_CURVE('',#168,#158,#212,.T.);
#214=ORIENTED_EDGE('',*,*,#213,.T.);
#215=EDGE_LOOP('',(#199,#206,#207,#214));
#216=FACE_OUTER_BOUND('',#215,.F.);
#217=ADVANCED_FACE('',(#216),#198,.F.);
#218=CARTESIAN_POINT('',(0.349999999999999,1.060647E-015,1.249999999999999));
#219=DIRECTION('',(1.0,0.0,0.0));
#220=DIRECTION('',(0.0,0.0,-1.0));
#221=AXIS2_PLACEMENT_3D('',#218,#219,#220);
#222=PLANE('',#221);
#223=ORIENTED_EDGE('',*,*,#213,.F.);
#224=ORIENTED_EDGE('',*,*,#174,.F.);
#225=EDGE_LOOP('',(#223,#224));
#226=FACE_OUTER_BOUND('',#225,.F.);
#227=ADVANCED_FACE('',(#226),#222,.T.);
#228=CARTESIAN_POINT('',(0.949999999999999,1.060647E-015,1.250000000000000));
#229=DIRECTION('',(1.0,0.0,0.0));
#230=DIRECTION('',(0.0,0.0,-1.0));
#231=AXIS2_PLACEMENT_3D('',#228,#229,#230);
#232=PLANE('',#231);
#233=ORIENTED_EDGE('',*,*,#189,.F.);
#234=ORIENTED_EDGE('',*,*,#205,.F.);
#235=EDGE_LOOP('',(#233,#234));
#236=FACE_OUTER_BOUND('',#235,.F.);
#237=ADVANCED_FACE('',(#236),#232,.F.);
#238=CLOSED_SHELL('',(#193,#217,#227,#237));
#239=ORIENTED_CLOSED_SHELL('',*,#238,.F.);
#240=CARTESIAN_POINT('',(-3.150000000000000,1.060647E-015,1.250000000000002));
#241=DIRECTION('',(1.0,1.608143E-016,-2.220446E-016));
#242=DIRECTION('',(0.0,1.0,0.0));
#243=AXIS2_PLACEMENT_3D('',#240,#241,#242);
#244=CYLINDRICAL_SURFACE('',#243,1.250000000000000);
#245=CARTESIAN_POINT('',(1.349999999999999,1.250000000000001,1.250000000000000));
#246=VERTEX_POINT('',#245);
#247=CARTESIAN_POINT('',(1.949999999999999,1.250000000000001,1.250000000000000));
#248=VERTEX_POINT('',#247);
#249=CARTESIAN_POINT('',(1.349999999999999,1.250000000000001,1.250000000000000));
#250=DIRECTION('',(1.0,0.0,0.0));
#251=VECTOR('',#250,0.600000000000000);
#252=LINE('',#249,#251);
#253=EDGE_CURVE('',#246,#248,#252,.T.);
#254=ORIENTED_EDGE('',*,*,#253,.F.);
#255=CARTESIAN_POINT('',(1.349999999999999,-1.249999999999999,1.250000000000001));
#256=VERTEX_POINT('',#255);
#257=CARTESIAN_POINT('',(1.349999999999999,1.060647E-015,1.250000000000001));
#258=DIRECTION('',(1.0,0.0,0.0));
#259=DIRECTION('',(0.0,1.0,0.0));
#260=AXIS2_PLACEMENT_3D('',#257,#258,#259);
#261=CIRCLE('',#260,1.250000000000000);
#262=EDGE_CURVE('',#246,#256,#261,.T.);
#263=ORIENTED_EDGE('',*,*,#262,.T.);
#264=CARTESIAN_POINT('',(1.949999999999999,-1.249999999999999,1.250000000000001));
#265=VERTEX_POINT('',#264);
#266=CARTESIAN_POINT('',(1.949999999999999,-1.249999999999999,1.250000000000001));
#267=DIRECTION('',(-1.0,0.0,0.0));
#268=VECTOR('',#267,0.600000000000000);
#269=LINE('',#266,#268);
#270=EDGE_CURVE('',#265,#256,#269,.T.);
#271=ORIENTED_EDGE('',*,*,#270,.F.);
#272=CARTESIAN_POINT('',(1.949999999999999,1.060647E-015,1.250000000000001));
#273=DIRECTION('',(-1.0,0.0,0.0));
#274=DIRECTION('',(0.0,1.0,0.0));
#275=AXIS2_PLACEMENT_3D('',#272,#273,#274);
#276=CIRCLE('',#275,1.250000000000000);
#277=EDGE_CURVE('',#265,#248,#276,.T.);
#278=ORIENTED_EDGE('',*,*,#277,.T.);
#279=EDGE_LOOP('',(#254,#263,#271,#278));
#280=FACE_OUTER_BOUND('',#279,.F.);
#281=ADVANCED_FACE('',(#280),#244,.F.);
#282=CARTESIAN_POINT('',(1.349999999999999,1.060647E-015,1.250000000000000));
#283=DIRECTION('',(1.0,0.0,0.0));
#284=DIRECTION('',(0.0,0.0,-1.0));
#285=AXIS2_PLACEMENT_3D('',#282,#283,#284);
#286=PLANE('',#285);
#287=CARTESIAN_POINT('',(1.349999999999999,1.060647E-015,1.250000000000001));
#288=DIRECTION('',(1.0,0.0,0.0));
#289=DIRECTION('',(0.0,1.0,0.0));
#290=AXIS2_PLACEMENT_3D('',#287,#288,#289);
#291=CIRCLE('',#290,1.250000000000000);
#292=EDGE_CURVE('',#256,#246,#291,.T.);
#293=ORIENTED_EDGE('',*,*,#292,.F.);
#294=ORIENTED_EDGE('',*,*,#262,.F.);
#295=EDGE_LOOP('',(#293,#294));
#296=FACE_OUTER_BOUND('',#295,.F.);
#297=ADVANCED_FACE('',(#296),#286,.T.);
#298=CARTESIAN_POINT('',(1.949999999999999,1.060647E-015,1.250000000000000));
#299=DIRECTION('',(1.0,0.0,0.0));
#300=DIRECTION('',(0.0,0.0,-1.0));
#301=AXIS2_PLACEMENT_3D('',#298,#299,#300);
#302=PLANE('',#301);
#303=ORIENTED_EDGE('',*,*,#277,.F.);
#304=CARTESIAN_POINT('',(1.949999999999999,1.060647E-015,1.250000000000001));
#305=DIRECTION('',(-1.0,0.0,0.0));
#306=DIRECTION('',(0.0,1.0,0.0));
#307=AXIS2_PLACEMENT_3D('',#304,#305,#306);
#308=CIRCLE('',#307,1.250000000000000);
#309=EDGE_CURVE('',#248,#265,#308,.T.);
#310=ORIENTED_EDGE('',*,*,#309,.F.);
#311=EDGE_LOOP('',(#303,#310));
#312=FACE_OUTER_BOUND('',#311,.F.);
#313=ADVANCED_FACE('',(#312),#302,.F.);
#314=CARTESIAN_POINT('',(-3.150000000000000,1.060647E-015,1.250000000000002));
#315=DIRECTION('',(1.0,1.608143E-016,-2.220446E-016));
#316=DIRECTION('',(0.0,1.0,0.0));
#317=AXIS2_PLACEMENT_3D('',#314,#315,#316);
#318=CYLINDRICAL_SURFACE('',#317,1.250000000000000);
#319=ORIENTED_EDGE('',*,*,#253,.T.);
#320=ORIENTED_EDGE('',*,*,#309,.T.);
#321=ORIENTED_EDGE('',*,*,#270,.T.);
#322=ORIENTED_EDGE('',*,*,#292,.T.);
#323=EDGE_LOOP('',(#319,#320,#321,#322));
#324=FACE_OUTER_BOUND('',#323,.F.);
#325=ADVANCED_FACE('',(#324),#318,.F.);
#326=CLOSED_SHELL('',(#281,#297,#313,#325));
#327=ORIENTED_CLOSED_SHELL('',*,#326,.F.);
#328=CARTESIAN_POINT('',(-3.150000000000000,1.060647E-015,1.250000000000002));
#329=DIRECTION('',(1.0,1.608143E-016,-2.220446E-016));
#330=DIRECTION('',(0.0,1.0,0.0));
#331=AXIS2_PLACEMENT_3D('',#328,#329,#330);
#332=CYLINDRICAL_SURFACE('',#331,1.250000000000000);
#333=CARTESIAN_POINT('',(-2.950000000000000,1.250000000000001,1.250000000000001));
#334=VERTEX_POINT('',#333);
#335=CARTESIAN_POINT('',(-2.350000000000000,1.250000000000001,1.250000000000002));
#336=VERTEX_POINT('',#335);
#337=CARTESIAN_POINT('',(-2.950000000000000,1.250000000000001,1.250000000000001));
#338=DIRECTION('',(1.0,0.0,0.0));
#339=VECTOR('',#338,0.600000000000001);
#340=LINE('',#337,#339);
#341=EDGE_CURVE('',#334,#336,#340,.T.);
#342=ORIENTED_EDGE('',*,*,#341,.F.);
#343=CARTESIAN_POINT('',(-2.950000000000000,-1.249999999999999,1.250000000000002));
#344=VERTEX_POINT('',#343);
#345=CARTESIAN_POINT('',(-2.950000000000000,1.060647E-015,1.250000000000002));
#346=DIRECTION('',(-1.0,0.0,0.0));
#347=DIRECTION('',(0.0,-1.0,0.0));
#348=AXIS2_PLACEMENT_3D('',#345,#346,#347);
#349=CIRCLE('',#348,1.250000000000000);
#350=EDGE_CURVE('',#344,#334,#349,.T.);
#351=ORIENTED_EDGE('',*,*,#350,.F.);
#352=CARTESIAN_POINT('',(-2.350000000000000,-1.249999999999999,1.250000000000002));
#353=VERTEX_POINT('',#352);
#354=CARTESIAN_POINT('',(-2.350000000000000,-1.249999999999999,1.250000000000002));
#355=DIRECTION('',(-1.0,0.0,0.0));
#356=VECTOR('',#355,0.600000000000000);
#357=LINE('',#354,#356);
#358=EDGE_CURVE('',#353,#344,#357,.T.);
#359=ORIENTED_EDGE('',*,*,#358,.F.);
#360=CARTESIAN_POINT('',(-2.350000000000000,1.060647E-015,1.250000000000002));
#361=DIRECTION('',(-1.0,0.0,0.0));
#362=DIRECTION('',(0.0,1.0,0.0));
#363=AXIS2_PLACEMENT_3D('',#360,#361,#362);
#364=CIRCLE('',#363,1.250000000000000);
#365=EDGE_CURVE('',#353,#336,#364,.T.);
#366=ORIENTED_EDGE('',*,*,#365,.T.);
#367=EDGE_LOOP('',(#342,#351,#359,#366));
#368=FACE_OUTER_BOUND('',#367,.F.);
#369=ADVANCED_FACE('',(#368),#332,.F.);
#370=CARTESIAN_POINT('',(-2.950000000000000,1.060647E-015,1.250000000000002));
#371=DIRECTION('',(1.0,1.608143E-016,-2.220446E-016));
#372=DIRECTION('',(0.0,1.0,0.0));
#373=AXIS2_PLACEMENT_3D('',#370,#371,#372);
#374=TOROIDAL_SURFACE('',#373,1.050000000000000,0.200000000000000);
#375=CARTESIAN_POINT('',(-3.150000000000000,1.050000000000002,1.250000000000002));
#376=VERTEX_POINT('',#375);
#377=CARTESIAN_POINT('',(-2.950000000000000,1.050000000000001,1.250000000000002));
#378=DIRECTION('',(0.0,0.0,-1.0));
#379=DIRECTION('',(0.0,1.0,0.0));
#380=AXIS2_PLACEMENT_3D('',#377,#378,#379);
#381=CIRCLE('',#380,0.200000000000000);
#382=EDGE_CURVE('',#376,#334,#381,.T.);
#383=ORIENTED_EDGE('',*,*,#382,.F.);
#384=CARTESIAN_POINT('',(-3.150000000000000,-1.049999999999999,1.250000000000002));
#385=VERTEX_POINT('',#384);
#386=CARTESIAN_POINT('',(-3.150000000000000,1.060647E-015,1.250000000000002));
#387=DIRECTION('',(1.0,0.0,0.0));
#388=DIRECTION('',(0.0,-1.0,0.0));
#389=AXIS2_PLACEMENT_3D('',#386,#387,#388);
#390=CIRCLE('',#389,1.050000000000000);
#391=EDGE_CURVE('',#376,#385,#390,.T.);
#392=ORIENTED_EDGE('',*,*,#391,.T.);
#393=CARTESIAN_POINT('',(-2.950000000000000,-1.049999999999999,1.250000000000002));
#394=DIRECTION('',(0.0,0.0,-1.0));
#395=DIRECTION('',(0.0,-1.0,0.0));
#396=AXIS2_PLACEMENT_3D('',#393,#394,#395);
#397=CIRCLE('',#396,0.200000000000000);
#398=EDGE_CURVE('',#344,#385,#397,.T.);
#399=ORIENTED_EDGE('',*,*,#398,.F.);
#400=ORIENTED_EDGE('',*,*,#350,.T.);
#401=EDGE_LOOP('',(#383,#392,#399,#400));
#402=FACE_OUTER_BOUND('',#401,.F.);
#403=ADVANCED_FACE('',(#402),#374,.F.);
#404=CARTESIAN_POINT('',(-3.150000000000000,1.060647E-015,1.250000000000002));
#405=DIRECTION('',(1.0,0.0,0.0));
#406=DIRECTION('',(0.0,1.0,0.0));
#407=AXIS2_PLACEMENT_3D('',#404,#405,#406);
#408=PLANE('',#407);
#409=ORIENTED_EDGE('',*,*,#391,.F.);
#410=CARTESIAN_POINT('',(-3.150000000000000,1.060647E-015,1.250000000000002));
#411=DIRECTION('',(1.0,0.0,0.0));
#412=DIRECTION('',(0.0,-1.0,0.0));
#413=AXIS2_PLACEMENT_3D('',#410,#411,#412);
#414=CIRCLE('',#413,1.050000000000000);
#415=EDGE_CURVE('',#385,#376,#414,.T.);
#416=ORIENTED_EDGE('',*,*,#415,.F.);
#417=EDGE_LOOP('',(#409,#416));
#418=FACE_OUTER_BOUND('',#417,.F.);
#419=ADVANCED_FACE('',(#418),#408,.T.);
#420=CARTESIAN_POINT('',(-2.950000000000000,1.060647E-015,1.250000000000002));
#421=DIRECTION('',(1.0,1.608143E-016,-2.220446E-016));
#422=DIRECTION('',(0.0,1.0,0.0));
#423=AXIS2_PLACEMENT_3D('',#420,#421,#422);
#424=TOROIDAL_SURFACE('',#423,1.050000000000000,0.200000000000000);
#425=ORIENTED_EDGE('',*,*,#382,.T.);
#426=CARTESIAN_POINT('',(-2.950000000000000,1.060647E-015,1.250000000000002));
#427=DIRECTION('',(-1.0,0.0,0.0));
#428=DIRECTION('',(0.0,-1.0,0.0));
#429=AXIS2_PLACEMENT_3D('',#426,#427,#428);
#430=CIRCLE('',#429,1.250000000000000);
#431=EDGE_CURVE('',#334,#344,#430,.T.);
#432=ORIENTED_EDGE('',*,*,#431,.T.);
#433=ORIENTED_EDGE('',*,*,#398,.T.);
#434=ORIENTED_EDGE('',*,*,#415,.T.);
#435=EDGE_LOOP('',(#425,#432,#433,#434));
#436=FACE_OUTER_BOUND('',#435,.F.);
#437=ADVANCED_FACE('',(#436),#424,.F.);
#438=CARTESIAN_POINT('',(-3.150000000000000,1.060647E-015,1.250000000000002));
#439=DIRECTION('',(1.0,1.608143E-016,-2.220446E-016));
#440=DIRECTION('',(0.0,1.0,0.0));
#441=AXIS2_PLACEMENT_3D('',#438,#439,#440);
#442=CYLINDRICAL_SURFACE('',#441,1.250000000000000);
#443=ORIENTED_EDGE('',*,*,#341,.T.);
#444=CARTESIAN_POINT('',(-2.350000000000000,1.060647E-015,1.250000000000002));
#445=DIRECTION('',(-1.0,0.0,0.0));
#446=DIRECTION('',(0.0,1.0,0.0));
#447=AXIS2_PLACEMENT_3D('',#444,#445,#446);
#448=CIRCLE('',#447,1.250000000000000);
#449=EDGE_CURVE('',#336,#353,#448,.T.);
#450=ORIENTED_EDGE('',*,*,#449,.T.);
#451=ORIENTED_EDGE('',*,*,#358,.T.);
#452=ORIENTED_EDGE('',*,*,#431,.F.);
#453=EDGE_LOOP('',(#443,#450,#451,#452));
#454=FACE_OUTER_BOUND('',#453,.F.);
#455=ADVANCED_FACE('',(#454),#442,.F.);
#456=CARTESIAN_POINT('',(-2.350000000000000,-0.010000000000001,1.250000000000002));
#457=DIRECTION('',(1.0,0.0,0.0));
#458=DIRECTION('',(0.0,0.0,-1.0));
#459=AXIS2_PLACEMENT_3D('',#456,#457,#458);
#460=PLANE('',#459);
#461=ORIENTED_EDGE('',*,*,#449,.F.);
#462=ORIENTED_EDGE('',*,*,#365,.F.);
#463=EDGE_LOOP('',(#461,#462));
#464=FACE_OUTER_BOUND('',#463,.F.);
#465=ADVANCED_FACE('',(#464),#460,.F.);
#466=CLOSED_SHELL('',(#369,#403,#419,#437,#455,#465));
#467=ORIENTED_CLOSED_SHELL('',*,#466,.F.);
#468=CARTESIAN_POINT('',(-3.150000000000000,1.060647E-015,1.250000000000002));
#469=DIRECTION('',(1.0,1.608143E-016,-2.220446E-016));
#470=DIRECTION('',(0.0,1.0,0.0));
#471=AXIS2_PLACEMENT_3D('',#468,#469,#470);
#472=CYLINDRICAL_SURFACE('',#471,1.250000000000000);
#473=CARTESIAN_POINT('',(-1.850000000000000,1.250000000000001,1.250000000000002));
#474=VERTEX_POINT('',#473);
#475=CARTESIAN_POINT('',(-1.350000000000001,1.250000000000001,1.250000000000001));
#476=VERTEX_POINT('',#475);
#477=CARTESIAN_POINT('',(-1.850000000000000,1.250000000000001,1.250000000000002));
#478=DIRECTION('',(1.0,0.0,0.0));
#479=VECTOR('',#478,0.499999999999999);
#480=LINE('',#477,#479);
#481=EDGE_CURVE('',#474,#476,#480,.T.);
#482=ORIENTED_EDGE('',*,*,#481,.F.);
#483=CARTESIAN_POINT('',(-1.850000000000000,-1.249999999999999,1.250000000000002));
#484=VERTEX_POINT('',#483);
#485=CARTESIAN_POINT('',(-1.850000000000000,1.060647E-015,1.250000000000002));
#486=DIRECTION('',(1.0,0.0,0.0));
#487=DIRECTION('',(0.0,1.0,0.0));
#488=AXIS2_PLACEMENT_3D('',#485,#486,#487);
#489=CIRCLE('',#488,1.250000000000000);
#490=EDGE_CURVE('',#474,#484,#489,.T.);
#491=ORIENTED_EDGE('',*,*,#490,.T.);
#492=CARTESIAN_POINT('',(-1.350000000000001,-1.249999999999999,1.250000000000002));
#493=VERTEX_POINT('',#492);
#494=CARTESIAN_POINT('',(-1.350000000000001,-1.249999999999999,1.250000000000002));
#495=DIRECTION('',(-1.0,0.0,0.0));
#496=VECTOR('',#495,0.499999999999999);
#497=LINE('',#494,#496);
#498=EDGE_CURVE('',#493,#484,#497,.T.);
#499=ORIENTED_EDGE('',*,*,#498,.F.);
#500=CARTESIAN_POINT('',(-1.350000000000001,1.060647E-015,1.250000000000002));
#501=DIRECTION('',(-1.0,0.0,0.0));
#502=DIRECTION('',(0.0,1.0,0.0));
#503=AXIS2_PLACEMENT_3D('',#500,#501,#502);
#504=CIRCLE('',#503,1.250000000000000);
#505=EDGE_CURVE('',#493,#476,#504,.T.);
#506=ORIENTED_EDGE('',*,*,#505,.T.);
#507=EDGE_LOOP('',(#482,#491,#499,#506));
#508=FACE_OUTER_BOUND('',#507,.F.);
#509=ADVANCED_FACE('',(#508),#472,.F.);
#510=CARTESIAN_POINT('',(-1.350000000000001,1.060647E-015,1.249999999999999));
#511=DIRECTION('',(1.0,0.0,0.0));
#512=DIRECTION('',(0.0,0.0,-1.0));
#513=AXIS2_PLACEMENT_3D('',#510,#511,#512);
#514=PLANE('',#513);
#515=ORIENTED_EDGE('',*,*,#505,.F.);
#516=CARTESIAN_POINT('',(-1.350000000000001,1.060647E-015,1.250000000000002));
#517=DIRECTION('',(-1.0,0.0,0.0));
#518=DIRECTION('',(0.0,1.0,0.0));
#519=AXIS2_PLACEMENT_3D('',#516,#517,#518);
#520=CIRCLE('',#519,1.250000000000000);
#521=EDGE_CURVE('',#476,#493,#520,.T.);
#522=ORIENTED_EDGE('',*,*,#521,.F.);
#523=EDGE_LOOP('',(#515,#522));
#524=FACE_OUTER_BOUND('',#523,.F.);
#525=ADVANCED_FACE('',(#524),#514,.F.);
#526=CARTESIAN_POINT('',(-1.850000000000000,-0.010000000000001,1.250000000000002));
#527=DIRECTION('',(1.0,0.0,0.0));
#528=DIRECTION('',(0.0,0.0,-1.0));
#529=AXIS2_PLACEMENT_3D('',#526,#527,#528);
#530=PLANE('',#529);
#531=ORIENTED_EDGE('',*,*,#490,.F.);
#532=CARTESIAN_POINT('',(-1.850000000000000,1.060647E-015,1.250000000000002));
#533=DIRECTION('',(1.0,0.0,0.0));
#534=DIRECTION('',(0.0,1.0,0.0));
#535=AXIS2_PLACEMENT_3D('',#532,#533,#534);
#536=CIRCLE('',#535,1.250000000000000);
#537=EDGE_CURVE('',#484,#474,#536,.T.);
#538=ORIENTED_EDGE('',*,*,#537,.F.);
#539=EDGE_LOOP('',(#531,#538));
#540=FACE_OUTER_BOUND('',#539,.F.);
#541=ADVANCED_FACE('',(#540),#530,.T.);
#542=CARTESIAN_POINT('',(-3.150000000000000,1.060647E-015,1.250000000000002));
#543=DIRECTION('',(1.0,1.608143E-016,-2.220446E-016));
#544=DIRECTION('',(0.0,1.0,0.0));
#545=AXIS2_PLACEMENT_3D('',#542,#543,#544);
#546=CYLINDRICAL_SURFACE('',#545,1.250000000000000);
#547=ORIENTED_EDGE('',*,*,#481,.T.);
#548=ORIENTED_EDGE('',*,*,#521,.T.);
#549=ORIENTED_EDGE('',*,*,#498,.T.);
#550=ORIENTED_EDGE('',*,*,#537,.T.);
#551=EDGE_LOOP('',(#547,#548,#549,#550));
#552=FACE_OUTER_BOUND('',#551,.F.);
#553=ADVANCED_FACE('',(#552),#546,.F.);
#554=CLOSED_SHELL('',(#509,#525,#541,#553));
#555=ORIENTED_CLOSED_SHELL('',*,#554,.F.);
#556=CARTESIAN_POINT('',(-3.150000000000000,1.060647E-015,1.250000000000002));
#557=DIRECTION('',(1.0,1.608143E-016,-2.220446E-016));
#558=DIRECTION('',(0.0,1.0,0.0));
#559=AXIS2_PLACEMENT_3D('',#556,#557,#558);
#560=CYLINDRICAL_SURFACE('',#559,1.250000000000000);
#561=CARTESIAN_POINT('',(2.349999999999999,1.250000000000001,1.250000000000000));
#562=VERTEX_POINT('',#561);
#563=CARTESIAN_POINT('',(2.949999999999999,1.250000000000001,1.250000000000001));
#564=VERTEX_POINT('',#563);
#565=CARTESIAN_POINT('',(2.349999999999999,1.250000000000001,1.250000000000000));
#566=DIRECTION('',(1.0,0.0,0.0));
#567=VECTOR('',#566,0.600000000000000);
#568=LINE('',#565,#567);
#569=EDGE_CURVE('',#562,#564,#568,.T.);
#570=ORIENTED_EDGE('',*,*,#569,.F.);
#571=CARTESIAN_POINT('',(2.349999999999999,-1.249999999999999,1.250000000000001));
#572=VERTEX_POINT('',#571);
#573=CARTESIAN_POINT('',(2.349999999999999,1.060647E-015,1.250000000000001));
#574=DIRECTION('',(1.0,0.0,0.0));
#575=DIRECTION('',(0.0,1.0,0.0));
#576=AXIS2_PLACEMENT_3D('',#573,#574,#575);
#577=CIRCLE('',#576,1.250000000000000);
#578=EDGE_CURVE('',#562,#572,#577,.T.);
#579=ORIENTED_EDGE('',*,*,#578,.T.);
#580=CARTESIAN_POINT('',(2.950000000000000,-1.249999999999999,1.250000000000001));
#581=VERTEX_POINT('',#580);
#582=CARTESIAN_POINT('',(2.950000000000000,-1.249999999999999,1.250000000000001));
#583=DIRECTION('',(-1.0,0.0,0.0));
#584=VECTOR('',#583,0.600000000000001);
#585=LINE('',#582,#584);
#586=EDGE_CURVE('',#581,#572,#585,.T.);
#587=ORIENTED_EDGE('',*,*,#586,.F.);
#588=CARTESIAN_POINT('',(2.950000000000000,1.060647E-015,1.250000000000001));
#589=DIRECTION('',(1.0,0.0,0.0));
#590=DIRECTION('',(0.0,-1.0,0.0));
#591=AXIS2_PLACEMENT_3D('',#588,#589,#590);
#592=CIRCLE('',#591,1.250000000000000);
#593=EDGE_CURVE('',#564,#581,#592,.T.);
#594=ORIENTED_EDGE('',*,*,#593,.F.);
#595=EDGE_LOOP('',(#570,#579,#587,#594));
#596=FACE_OUTER_BOUND('',#595,.F.);
#597=ADVANCED_FACE('',(#596),#560,.F.);
#598=CARTESIAN_POINT('',(2.950000000000000,1.060647E-015,1.250000000000001));
#599=DIRECTION('',(-1.0,-1.608143E-016,2.220446E-016));
#600=DIRECTION('',(0.0,-1.0,0.0));
#601=AXIS2_PLACEMENT_3D('',#598,#599,#600);
#602=TOROIDAL_SURFACE('',#601,1.050000000000000,0.200000000000000);
#603=CARTESIAN_POINT('',(3.150000000000000,-1.049999999999999,1.250000000000001));
#604=VERTEX_POINT('',#603);
#605=CARTESIAN_POINT('',(2.950000000000000,-1.049999999999999,1.250000000000001));
#606=DIRECTION('',(0.0,0.0,-1.0));
#607=DIRECTION('',(0.0,-1.0,0.0));
#608=AXIS2_PLACEMENT_3D('',#605,#606,#607);
#609=CIRCLE('',#608,0.200000000000000);
#610=EDGE_CURVE('',#604,#581,#609,.T.);
#611=ORIENTED_EDGE('',*,*,#610,.F.);
#612=CARTESIAN_POINT('',(3.149999999999999,1.050000000000002,1.250000000000000));
#613=VERTEX_POINT('',#612);
#614=CARTESIAN_POINT('',(3.150000000000000,1.060647E-015,1.250000000000001));
#615=DIRECTION('',(-1.0,0.0,0.0));
#616=DIRECTION('',(0.0,-1.0,0.0));
#617=AXIS2_PLACEMENT_3D('',#614,#615,#616);
#618=CIRCLE('',#617,1.050000000000000);
#619=EDGE_CURVE('',#604,#613,#618,.T.);
#620=ORIENTED_EDGE('',*,*,#619,.T.);
#621=CARTESIAN_POINT('',(2.950000000000000,1.050000000000001,1.250000000000000));
#622=DIRECTION('',(0.0,0.0,-1.0));
#623=DIRECTION('',(0.0,1.0,0.0));
#624=AXIS2_PLACEMENT_3D('',#621,#622,#623);
#625=CIRCLE('',#624,0.200000000000000);
#626=EDGE_CURVE('',#564,#613,#625,.T.);
#627=ORIENTED_EDGE('',*,*,#626,.F.);
#628=ORIENTED_EDGE('',*,*,#593,.T.);
#629=EDGE_LOOP('',(#611,#620,#627,#628));
#630=FACE_OUTER_BOUND('',#629,.F.);
#631=ADVANCED_FACE('',(#630),#602,.F.);
#632=CARTESIAN_POINT('',(3.150000000000000,1.060647E-015,1.250000000000001));
#633=DIRECTION('',(1.0,0.0,0.0));
#634=DIRECTION('',(0.0,1.0,0.0));
#635=AXIS2_PLACEMENT_3D('',#632,#633,#634);
#636=PLANE('',#635);
#637=CARTESIAN_POINT('',(3.150000000000000,1.060647E-015,1.250000000000001));
#638=DIRECTION('',(-1.0,0.0,0.0));
#639=DIRECTION('',(0.0,-1.0,0.0));
#640=AXIS2_PLACEMENT_3D('',#637,#638,#639);
#641=CIRCLE('',#640,1.050000000000000);
#642=EDGE_CURVE('',#613,#604,#641,.T.);
#643=ORIENTED_EDGE('',*,*,#642,.F.);
#644=ORIENTED_EDGE('',*,*,#619,.F.);
#645=EDGE_LOOP('',(#643,#644));
#646=FACE_OUTER_BOUND('',#645,.F.);
#647=ADVANCED_FACE('',(#646),#636,.F.);
#648=CARTESIAN_POINT('',(2.950000000000000,1.060647E-015,1.250000000000001));
#649=DIRECTION('',(-1.0,-1.608143E-016,2.220446E-016));
#650=DIRECTION('',(0.0,-1.0,0.0));
#651=AXIS2_PLACEMENT_3D('',#648,#649,#650);
#652=TOROIDAL_SURFACE('',#651,1.050000000000000,0.200000000000000);
#653=ORIENTED_EDGE('',*,*,#610,.T.);
#654=CARTESIAN_POINT('',(2.950000000000000,1.060647E-015,1.250000000000001));
#655=DIRECTION('',(1.0,0.0,0.0));
#656=DIRECTION('',(0.0,-1.0,0.0));
#657=AXIS2_PLACEMENT_3D('',#654,#655,#656);
#658=CIRCLE('',#657,1.250000000000000);
#659=EDGE_CURVE('',#581,#564,#658,.T.);
#660=ORIENTED_EDGE('',*,*,#659,.T.);
#661=ORIENTED_EDGE('',*,*,#626,.T.);
#662=ORIENTED_EDGE('',*,*,#642,.T.);
#663=EDGE_LOOP('',(#653,#660,#661,#662));
#664=FACE_OUTER_BOUND('',#663,.F.);
#665=ADVANCED_FACE('',(#664),#652,.F.);
#666=CARTESIAN_POINT('',(-3.150000000000000,1.060647E-015,1.250000000000002));
#667=DIRECTION('',(1.0,1.608143E-016,-2.220446E-016));
#668=DIRECTION('',(0.0,1.0,0.0));
#669=AXIS2_PLACEMENT_3D('',#666,#667,#668);
#670=CYLINDRICAL_SURFACE('',#669,1.250000000000000);
#671=ORIENTED_EDGE('',*,*,#569,.T.);
#672=ORIENTED_EDGE('',*,*,#659,.F.);
#673=ORIENTED_EDGE('',*,*,#586,.T.);
#674=CARTESIAN_POINT('',(2.349999999999999,1.060647E-015,1.250000000000001));
#675=DIRECTION('',(1.0,0.0,0.0));
#676=DIRECTION('',(0.0,1.0,0.0));
#677=AXIS2_PLACEMENT_3D('',#674,#675,#676);
#678=CIRCLE('',#677,1.250000000000000);
#679=EDGE_CURVE('',#572,#562,#678,.T.);
#680=ORIENTED_EDGE('',*,*,#679,.T.);
#681=EDGE_LOOP('',(#671,#672,#673,#680));
#682=FACE_OUTER_BOUND('',#681,.F.);
#683=ADVANCED_FACE('',(#682),#670,.F.);
#684=CARTESIAN_POINT('',(2.349999999999999,1.060647E-015,1.250000000000000));
#685=DIRECTION('',(1.0,0.0,0.0));
#686=DIRECTION('',(0.0,0.0,-1.0));
#687=AXIS2_PLACEMENT_3D('',#684,#685,#686);
#688=PLANE('',#687);
#689=ORIENTED_EDGE('',*,*,#679,.F.);
#690=ORIENTED_EDGE('',*,*,#578,.F.);
#691=EDGE_LOOP('',(#689,#690));
#692=FACE_OUTER_BOUND('',#691,.F.);
#693=ADVANCED_FACE('',(#692),#688,.T.);
#694=CLOSED_SHELL('',(#597,#631,#647,#665,#683,#693));
#695=ORIENTED_CLOSED_SHELL('',*,#694,.F.);
#696=BREP_WITH_VOIDS('E4',#151,(#239,#327,#467,#555,#695));
#697=COLOUR_RGB('140',0.0,0.750000000000000,1.0);
#698=SURFACE_STYLE_USAGE(.BOTH.,#699);
#699=SURFACE_SIDE_STYLE('NONE',(#700));
#700=SURFACE_STYLE_FILL_AREA(#701);
#701=FILL_AREA_STYLE('NONE',(#702));
#702=FILL_AREA_STYLE_COLOUR('NONE',#697);
#703=PRESENTATION_STYLE_ASSIGNMENT((#698));
#704=STYLED_ITEM('NONE',(#703),#696);
#705=MECHANICAL_DESIGN_GEOMETRIC_PRESENTATION_REPRESENTATION('NONE',(#704,#802,#898,#994,#1090,#1179,#1597,#1828),#28);
#706=PRESENTATION_LAYER_ASSIGNMENT('0','None',(#696,#794,#890,#986,#1082,#1178,#1589,#1827));
#707=CARTESIAN_POINT('',(-1.350000000000001,-1.161896E-016,1.249999999999999));
#708=DIRECTION('',(1.0,0.0,0.0));
#709=DIRECTION('',(0.0,1.0,0.0));
#710=AXIS2_PLACEMENT_3D('',#707,#708,#709);
#711=CYLINDRICAL_SURFACE('',#710,1.260000000000000);
#712=CARTESIAN_POINT('',(-1.350000000000001,1.260000000000000,1.249999999999999));
#713=VERTEX_POINT('',#712);
#714=CARTESIAN_POINT('',(-0.950000000000001,1.260000000000000,1.249999999999999));
#715=VERTEX_POINT('',#714);
#716=CARTESIAN_POINT('',(-1.350000000000001,1.260000000000000,1.249999999999999));
#717=DIRECTION('',(1.0,0.0,0.0));
#718=VECTOR('',#717,0.400000000000000);
#719=LINE('',#716,#718);
#720=EDGE_CURVE('',#713,#715,#719,.T.);
#721=ORIENTED_EDGE('',*,*,#720,.F.);
#722=CARTESIAN_POINT('',(-1.350000000000001,-1.260000000000000,1.249999999999999));
#723=VERTEX_POINT('',#722);
#724=CARTESIAN_POINT('',(-1.350000000000001,-1.161896E-016,1.249999999999999));
#725=DIRECTION('',(1.0,0.0,0.0));
#726=DIRECTION('',(0.0,1.0,0.0));
#727=AXIS2_PLACEMENT_3D('',#724,#725,#726);
#728=CIRCLE('',#727,1.260000000000000);
#729=EDGE_CURVE('',#713,#723,#728,.T.);
#730=ORIENTED_EDGE('',*,*,#729,.T.);
#731=CARTESIAN_POINT('',(-0.950000000000001,-1.260000000000000,1.249999999999999));
#732=VERTEX_POINT('',#731);
#733=CARTESIAN_POINT('',(-0.950000000000001,-1.260000000000000,1.249999999999999));
#734=DIRECTION('',(-1.0,0.0,0.0));
#735=VECTOR('',#734,0.400000000000000);
#736=LINE('',#733,#735);
#737=EDGE_CURVE('',#732,#723,#736,.T.);
#738=ORIENTED_EDGE('',*,*,#737,.F.);
#739=CARTESIAN_POINT('',(-0.950000000000001,-1.161896E-016,1.249999999999999));
#740=DIRECTION('',(-1.0,0.0,0.0));
#741=DIRECTION('',(0.0,1.0,0.0));
#742=AXIS2_PLACEMENT_3D('',#739,#740,#741);
#743=CIRCLE('',#742,1.260000000000000);
#744=EDGE_CURVE('',#732,#715,#743,.T.);
#745=ORIENTED_EDGE('',*,*,#744,.T.);
#746=EDGE_LOOP('',(#721,#730,#738,#745));
#747=FACE_OUTER_BOUND('',#746,.T.);
#748=ADVANCED_FACE('',(#747),#711,.T.);
#749=CARTESIAN_POINT('',(-1.350000000000001,-1.161896E-016,1.249999999999999));
#750=DIRECTION('',(1.0,0.0,0.0));
#751=DIRECTION('',(0.0,1.0,0.0));
#752=AXIS2_PLACEMENT_3D('',#749,#750,#751);
#753=CYLINDRICAL_SURFACE('',#752,1.260000000000000);
#754=ORIENTED_EDGE('',*,*,#720,.T.);
#755=CARTESIAN_POINT('',(-0.950000000000001,-1.161896E-016,1.249999999999999));
#756=DIRECTION('',(-1.0,0.0,0.0));
#757=DIRECTION('',(0.0,1.0,0.0));
#758=AXIS2_PLACEMENT_3D('',#755,#756,#757);
#759=CIRCLE('',#758,1.260000000000000);
#760=EDGE_CURVE('',#715,#732,#759,.T.);
#761=ORIENTED_EDGE('',*,*,#760,.T.);
#762=ORIENTED_EDGE('',*,*,#737,.T.);
#763=CARTESIAN_POINT('',(-1.350000000000001,-1.161896E-016,1.249999999999999));
#764=DIRECTION('',(1.0,0.0,0.0));
#765=DIRECTION('',(0.0,1.0,0.0));
#766=AXIS2_PLACEMENT_3D('',#763,#764,#765);
#767=CIRCLE('',#766,1.260000000000000);
#768=EDGE_CURVE('',#723,#713,#767,.T.);
#769=ORIENTED_EDGE('',*,*,#768,.T.);
#770=EDGE_LOOP('',(#754,#761,#762,#769));
#771=FACE_OUTER_BOUND('',#770,.T.);
#772=ADVANCED_FACE('',(#771),#753,.T.);
#773=CARTESIAN_POINT('',(-0.950000000000001,-1.161896E-016,1.249999999999999));
#774=DIRECTION('',(1.0,0.0,0.0));
#775=DIRECTION('',(0.0,0.0,-1.0));
#776=AXIS2_PLACEMENT_3D('',#773,#774,#775);
#777=PLANE('',#776);
#778=ORIENTED_EDGE('',*,*,#760,.F.);
#779=ORIENTED_EDGE('',*,*,#744,.F.);
#780=EDGE_LOOP('',(#778,#779));
#781=FACE_OUTER_BOUND('',#780,.T.);
#782=ADVANCED_FACE('',(#781),#777,.T.);
#783=CARTESIAN_POINT('',(-1.350000000000001,-1.161896E-016,1.249999999999999));
#784=DIRECTION('',(1.0,0.0,0.0));
#785=DIRECTION('',(0.0,0.0,-1.0));
#786=AXIS2_PLACEMENT_3D('',#783,#784,#785);
#787=PLANE('',#786);
#788=ORIENTED_EDGE('',*,*,#729,.F.);
#789=ORIENTED_EDGE('',*,*,#768,.F.);
#790=EDGE_LOOP('',(#788,#789));
#791=FACE_OUTER_BOUND('',#790,.T.);
#792=ADVANCED_FACE('',(#791),#787,.F.);
#793=CLOSED_SHELL('',(#748,#772,#782,#792));
#794=MANIFOLD_SOLID_BREP('C5',#793);
#795=COLOUR_RGB('40',1.0,0.750000000000000,0.0);
#796=SURFACE_STYLE_USAGE(.BOTH.,#797);
#797=SURFACE_SIDE_STYLE('NONE',(#798));
#798=SURFACE_STYLE_FILL_AREA(#799);
#799=FILL_AREA_STYLE('NONE',(#800));
#800=FILL_AREA_STYLE_COLOUR('NONE',#795);
#801=PRESENTATION_STYLE_ASSIGNMENT((#796));
#802=STYLED_ITEM('NONE',(#801),#794);
#803=CARTESIAN_POINT('',(-0.050000000000001,-1.161896E-016,1.249999999999999));
#804=DIRECTION('',(1.0,0.0,0.0));
#805=DIRECTION('',(0.0,1.0,0.0));
#806=AXIS2_PLACEMENT_3D('',#803,#804,#805);
#807=CYLINDRICAL_SURFACE('',#806,1.260000000000000);
#808=CARTESIAN_POINT('',(-0.050000000000001,1.260000000000000,1.249999999999999));
#809=VERTEX_POINT('',#808);
#810=CARTESIAN_POINT('',(0.349999999999999,1.260000000000000,1.249999999999999));
#811=VERTEX_POINT('',#810);
#812=CARTESIAN_POINT('',(-0.050000000000001,1.260000000000000,1.249999999999999));
#813=DIRECTION('',(1.0,0.0,0.0));
#814=VECTOR('',#813,0.400000000000000);
#815=LINE('',#812,#814);
#816=EDGE_CURVE('',#809,#811,#815,.T.);
#817=ORIENTED_EDGE('',*,*,#816,.F.);
#818=CARTESIAN_POINT('',(-0.050000000000001,-1.260000000000000,1.250000000000000));
#819=VERTEX_POINT('',#818);
#820=CARTESIAN_POINT('',(-0.050000000000001,-1.161896E-016,1.249999999999999));
#821=DIRECTION('',(1.0,0.0,0.0));
#822=DIRECTION('',(0.0,1.0,0.0));
#823=AXIS2_PLACEMENT_3D('',#820,#821,#822);
#824=CIRCLE('',#823,1.260000000000000);
#825=EDGE_CURVE('',#809,#819,#824,.T.);
#826=ORIENTED_EDGE('',*,*,#825,.T.);
#827=CARTESIAN_POINT('',(0.349999999999999,-1.260000000000000,1.250000000000000));
#828=VERTEX_POINT('',#827);
#829=CARTESIAN_POINT('',(0.349999999999999,-1.260000000000000,1.250000000000000));
#830=DIRECTION('',(-1.0,0.0,0.0));
#831=VECTOR('',#830,0.400000000000000);
#832=LINE('',#829,#831);
#833=EDGE_CURVE('',#828,#819,#832,.T.);
#834=ORIENTED_EDGE('',*,*,#833,.F.);
#835=CARTESIAN_POINT('',(0.349999999999999,-1.161896E-016,1.249999999999999));
#836=DIRECTION('',(-1.0,0.0,0.0));
#837=DIRECTION('',(0.0,1.0,0.0));
#838=AXIS2_PLACEMENT_3D('',#835,#836,#837);
#839=CIRCLE('',#838,1.260000000000000);
#840=EDGE_CURVE('',#828,#811,#839,.T.);
#841=ORIENTED_EDGE('',*,*,#840,.T.);
#842=EDGE_LOOP('',(#817,#826,#834,#841));
#843=FACE_OUTER_BOUND('',#842,.T.);
#844=ADVANCED_FACE('',(#843),#807,.T.);
#845=CARTESIAN_POINT('',(-0.050000000000001,-1.161896E-016,1.249999999999999));
#846=DIRECTION('',(1.0,0.0,0.0));
#847=DIRECTION('',(0.0,1.0,0.0));
#848=AXIS2_PLACEMENT_3D('',#845,#846,#847);
#849=CYLINDRICAL_SURFACE('',#848,1.260000000000000);
#850=ORIENTED_EDGE('',*,*,#816,.T.);
#851=CARTESIAN_POINT('',(0.349999999999999,-1.161896E-016,1.249999999999999));
#852=DIRECTION('',(-1.0,0.0,0.0));
#853=DIRECTION('',(0.0,1.0,0.0));
#854=AXIS2_PLACEMENT_3D('',#851,#852,#853);
#855=CIRCLE('',#854,1.260000000000000);
#856=EDGE_CURVE('',#811,#828,#855,.T.);
#857=ORIENTED_EDGE('',*,*,#856,.T.);
#858=ORIENTED_EDGE('',*,*,#833,.T.);
#859=CARTESIAN_POINT('',(-0.050000000000001,-1.161896E-016,1.249999999999999));
#860=DIRECTION('',(1.0,0.0,0.0));
#861=DIRECTION('',(0.0,1.0,0.0));
#862=AXIS2_PLACEMENT_3D('',#859,#860,#861);
#863=CIRCLE('',#862,1.260000000000000);
#864=EDGE_CURVE('',#819,#809,#863,.T.);
#865=ORIENTED_EDGE('',*,*,#864,.T.);
#866=EDGE_LOOP('',(#850,#857,#858,#865));
#867=FACE_OUTER_BOUND('',#866,.T.);
#868=ADVANCED_FACE('',(#867),#849,.T.);
#869=CARTESIAN_POINT('',(0.349999999999999,-1.161896E-016,1.249999999999999));
#870=DIRECTION('',(1.0,0.0,0.0));
#871=DIRECTION('',(0.0,0.0,-1.0));
#872=AXIS2_PLACEMENT_3D('',#869,#870,#871);
#873=PLANE('',#872);
#874=ORIENTED_EDGE('',*,*,#856,.F.);
#875=ORIENTED_EDGE('',*,*,#840,.F.);
#876=EDGE_LOOP('',(#874,#875));
#877=FACE_OUTER_BOUND('',#876,.T.);
#878=ADVANCED_FACE('',(#877),#873,.T.);
#879=CARTESIAN_POINT('',(-0.050000000000001,-1.161896E-016,1.249999999999999));
#880=DIRECTION('',(1.0,0.0,0.0));
#881=DIRECTION('',(0.0,0.0,-1.0));
#882=AXIS2_PLACEMENT_3D('',#879,#880,#881);
#883=PLANE('',#882);
#884=ORIENTED_EDGE('',*,*,#825,.F.);
#885=ORIENTED_EDGE('',*,*,#864,.F.);
#886=EDGE_LOOP('',(#884,#885));
#887=FACE_OUTER_BOUND('',#886,.T.);
#888=ADVANCED_FACE('',(#887),#883,.F.);
#889=CLOSED_SHELL('',(#844,#868,#878,#888));
#890=MANIFOLD_SOLID_BREP('C4',#889);
#891=COLOUR_RGB('250',0.330000000000000,0.330000000000000,0.330000000000000);
#892=SURFACE_STYLE_USAGE(.BOTH.,#893);
#893=SURFACE_SIDE_STYLE('NONE',(#894));
#894=SURFACE_STYLE_FILL_AREA(#895);
#895=FILL_AREA_STYLE('NONE',(#896));
#896=FILL_AREA_STYLE_COLOUR('NONE',#891);
#897=PRESENTATION_STYLE_ASSIGNMENT((#892));
#898=STYLED_ITEM('NONE',(#897),#890);
#899=CARTESIAN_POINT('',(0.949999999999999,-1.161896E-016,1.250000000000000));
#900=DIRECTION('',(1.0,0.0,0.0));
#901=DIRECTION('',(0.0,1.0,0.0));
#902=AXIS2_PLACEMENT_3D('',#899,#900,#901);
#903=CYLINDRICAL_SURFACE('',#902,1.260000000000000);
#904=CARTESIAN_POINT('',(0.949999999999999,1.260000000000000,1.250000000000000));
#905=VERTEX_POINT('',#904);
#906=CARTESIAN_POINT('',(1.349999999999999,1.260000000000000,1.250000000000000));
#907=VERTEX_POINT('',#906);
#908=CARTESIAN_POINT('',(0.949999999999999,1.260000000000000,1.250000000000000));
#909=DIRECTION('',(1.0,0.0,0.0));
#910=VECTOR('',#909,0.400000000000000);
#911=LINE('',#908,#910);
#912=EDGE_CURVE('',#905,#907,#911,.T.);
#913=ORIENTED_EDGE('',*,*,#912,.F.);
#914=CARTESIAN_POINT('',(0.949999999999999,-1.260000000000000,1.250000000000000));
#915=VERTEX_POINT('',#914);
#916=CARTESIAN_POINT('',(0.949999999999999,-1.161896E-016,1.250000000000000));
#917=DIRECTION('',(1.0,0.0,0.0));
#918=DIRECTION('',(0.0,1.0,0.0));
#919=AXIS2_PLACEMENT_3D('',#916,#917,#918);
#920=CIRCLE('',#919,1.260000000000000);
#921=EDGE_CURVE('',#905,#915,#920,.T.);
#922=ORIENTED_EDGE('',*,*,#921,.T.);
#923=CARTESIAN_POINT('',(1.349999999999999,-1.260000000000000,1.250000000000000));
#924=VERTEX_POINT('',#923);
#925=CARTESIAN_POINT('',(1.349999999999999,-1.260000000000000,1.250000000000000));
#926=DIRECTION('',(-1.0,0.0,0.0));
#927=VECTOR('',#926,0.400000000000000);
#928=LINE('',#925,#927);
#929=EDGE_CURVE('',#924,#915,#928,.T.);
#930=ORIENTED_EDGE('',*,*,#929,.F.);
#931=CARTESIAN_POINT('',(1.349999999999999,-1.161896E-016,1.250000000000000));
#932=DIRECTION('',(-1.0,0.0,0.0));
#933=DIRECTION('',(0.0,1.0,0.0));
#934=AXIS2_PLACEMENT_3D('',#931,#932,#933);
#935=CIRCLE('',#934,1.260000000000000);
#936=EDGE_CURVE('',#924,#907,#935,.T.);
#937=ORIENTED_EDGE('',*,*,#936,.T.);
#938=EDGE_LOOP('',(#913,#922,#930,#937));
#939=FACE_OUTER_BOUND('',#938,.T.);
#940=ADVANCED_FACE('',(#939),#903,.T.);
#941=CARTESIAN_POINT('',(0.949999999999999,-1.161896E-016,1.250000000000000));
#942=DIRECTION('',(1.0,0.0,0.0));
#943=DIRECTION('',(0.0,1.0,0.0));
#944=AXIS2_PLACEMENT_3D('',#941,#942,#943);
#945=CYLINDRICAL_SURFACE('',#944,1.260000000000000);
#946=ORIENTED_EDGE('',*,*,#912,.T.);
#947=CARTESIAN_POINT('',(1.349999999999999,-1.161896E-016,1.250000000000000));
#948=DIRECTION('',(-1.0,0.0,0.0));
#949=DIRECTION('',(0.0,1.0,0.0));
#950=AXIS2_PLACEMENT_3D('',#947,#948,#949);
#951=CIRCLE('',#950,1.260000000000000);
#952=EDGE_CURVE('',#907,#924,#951,.T.);
#953=ORIENTED_EDGE('',*,*,#952,.T.);
#954=ORIENTED_EDGE('',*,*,#929,.T.);
#955=CARTESIAN_POINT('',(0.949999999999999,-1.161896E-016,1.250000000000000));
#956=DIRECTION('',(1.0,0.0,0.0));
#957=DIRECTION('',(0.0,1.0,0.0));
#958=AXIS2_PLACEMENT_3D('',#955,#956,#957);
#959=CIRCLE('',#958,1.260000000000000);
#960=EDGE_CURVE('',#915,#905,#959,.T.);
#961=ORIENTED_EDGE('',*,*,#960,.T.);
#962=EDGE_LOOP('',(#946,#953,#954,#961));
#963=FACE_OUTER_BOUND('',#962,.T.);
#964=ADVANCED_FACE('',(#963),#945,.T.);
#965=CARTESIAN_POINT('',(1.349999999999999,-1.161896E-016,1.250000000000000));
#966=DIRECTION('',(1.0,0.0,0.0));
#967=DIRECTION('',(0.0,0.0,-1.0));
#968=AXIS2_PLACEMENT_3D('',#965,#966,#967);
#969=PLANE('',#968);
#970=ORIENTED_EDGE('',*,*,#952,.F.);
#971=ORIENTED_EDGE('',*,*,#936,.F.);
#972=EDGE_LOOP('',(#970,#971));
#973=FACE_OUTER_BOUND('',#972,.T.);
#974=ADVANCED_FACE('',(#973),#969,.T.);
#975=CARTESIAN_POINT('',(0.949999999999999,-1.161896E-016,1.250000000000000));
#976=DIRECTION('',(1.0,0.0,0.0));
#977=DIRECTION('',(0.0,0.0,-1.0));
#978=AXIS2_PLACEMENT_3D('',#975,#976,#977);
#979=PLANE('',#978);
#980=ORIENTED_EDGE('',*,*,#921,.F.);
#981=ORIENTED_EDGE('',*,*,#960,.F.);
#982=EDGE_LOOP('',(#980,#981));
#983=FACE_OUTER_BOUND('',#982,.T.);
#984=ADVANCED_FACE('',(#983),#979,.F.);
#985=CLOSED_SHELL('',(#940,#964,#974,#984));
#986=MANIFOLD_SOLID_BREP('C3',#985);
#987=DRAUGHTING_PRE_DEFINED_COLOUR('red');
#988=SURFACE_STYLE_USAGE(.BOTH.,#989);
#989=SURFACE_SIDE_STYLE('NONE',(#990));
#990=SURFACE_STYLE_FILL_AREA(#991);
#991=FILL_AREA_STYLE('NONE',(#992));
#992=FILL_AREA_STYLE_COLOUR('NONE',#987);
#993=PRESENTATION_STYLE_ASSIGNMENT((#988));
#994=STYLED_ITEM('NONE',(#993),#986);
#995=CARTESIAN_POINT('',(-2.350000000000000,-0.009999999999999,1.250000000000002));
#996=DIRECTION('',(1.0,0.0,0.0));
#997=DIRECTION('',(0.0,1.0,0.0));
#998=AXIS2_PLACEMENT_3D('',#995,#996,#997);
#999=CYLINDRICAL_SURFACE('',#998,1.260000000000000);
#1000=CARTESIAN_POINT('',(-2.350000000000000,1.250000000000001,1.250000000000002));
#1001=VERTEX_POINT('',#1000);
#1002=CARTESIAN_POINT('',(-1.850000000000000,1.250000000000001,1.250000000000002));
#1003=VERTEX_POINT('',#1002);
#1004=CARTESIAN_POINT('',(-2.350000000000000,1.250000000000001,1.250000000000002));
#1005=DIRECTION('',(1.0,0.0,0.0));
#1006=VECTOR('',#1005,0.500000000000000);
#1007=LINE('',#1004,#1006);
#1008=EDGE_CURVE('',#1001,#1003,#1007,.T.);
#1009=ORIENTED_EDGE('',*,*,#1008,.F.);
#1010=CARTESIAN_POINT('',(-2.350000000000000,-1.269999999999999,1.250000000000002));
#1011=VERTEX_POINT('',#1010);
#1012=CARTESIAN_POINT('',(-2.350000000000000,-0.009999999999999,1.250000000000002));
#1013=DIRECTION('',(1.0,0.0,0.0));
#1014=DIRECTION('',(0.0,1.0,0.0));
#1015=AXIS2_PLACEMENT_3D('',#1012,#1013,#1014);
#1016=CIRCLE('',#1015,1.260000000000000);
#1017=EDGE_CURVE('',#1001,#1011,#1016,.T.);
#1018=ORIENTED_EDGE('',*,*,#1017,.T.);
#1019=CARTESIAN_POINT('',(-1.850000000000000,-1.269999999999999,1.250000000000002));
#1020=VERTEX_POINT('',#1019);
#1021=CARTESIAN_POINT('',(-1.850000000000000,-1.269999999999999,1.250000000000002));
#1022=DIRECTION('',(-1.0,0.0,0.0));
#1023=VECTOR('',#1022,0.500000000000000);
#1024=LINE('',#1021,#1023);
#1025=EDGE_CURVE('',#1020,#1011,#1024,.T.);
#1026=ORIENTED_EDGE('',*,*,#1025,.F.);
#1027=CARTESIAN_POINT('',(-1.850000000000000,-0.009999999999999,1.250000000000002));
#1028=DIRECTION('',(-1.0,0.0,0.0));
#1029=DIRECTION('',(0.0,1.0,0.0));
#1030=AXIS2_PLACEMENT_3D('',#1027,#1028,#1029);
#1031=CIRCLE('',#1030,1.260000000000000);
#1032=EDGE_CURVE('',#1020,#1003,#1031,.T.);
#1033=ORIENTED_EDGE('',*,*,#1032,.T.);
#1034=EDGE_LOOP('',(#1009,#1018,#1026,#1033));
#1035=FACE_OUTER_BOUND('',#1034,.T.);
#1036=ADVANCED_FACE('',(#1035),#999,.T.);
#1037=CARTESIAN_POINT('',(-2.350000000000000,-0.009999999999999,1.250000000000002));
#1038=DIRECTION('',(1.0,0.0,0.0));
#1039=DIRECTION('',(0.0,1.0,0.0));
#1040=AXIS2_PLACEMENT_3D('',#1037,#1038,#1039);
#1041=CYLINDRICAL_SURFACE('',#1040,1.260000000000000);
#1042=ORIENTED_EDGE('',*,*,#1008,.T.);
#1043=CARTESIAN_POINT('',(-1.850000000000000,-0.009999999999999,1.250000000000002));
#1044=DIRECTION('',(-1.0,0.0,0.0));
#1045=DIRECTION('',(0.0,1.0,0.0));
#1046=AXIS2_PLACEMENT_3D('',#1043,#1044,#1045);
#1047=CIRCLE('',#1046,1.260000000000000);
#1048=EDGE_CURVE('',#1003,#1020,#1047,.T.);
#1049=ORIENTED_EDGE('',*,*,#1048,.T.);
#1050=ORIENTED_EDGE('',*,*,#1025,.T.);
#1051=CARTESIAN_POINT('',(-2.350000000000000,-0.009999999999999,1.250000000000002));
#1052=DIRECTION('',(1.0,0.0,0.0));
#1053=DIRECTION('',(0.0,1.0,0.0));
#1054=AXIS2_PLACEMENT_3D('',#1051,#1052,#1053);
#1055=CIRCLE('',#1054,1.260000000000000);
#1056=EDGE_CURVE('',#1011,#1001,#1055,.T.);
#1057=ORIENTED_EDGE('',*,*,#1056,.T.);
#1058=EDGE_LOOP('',(#1042,#1049,#1050,#1057));
#1059=FACE_OUTER_BOUND('',#1058,.T.);
#1060=ADVANCED_FACE('',(#1059),#1041,.T.);
#1061=CARTESIAN_POINT('',(-1.850000000000000,-0.009999999999999,1.250000000000002));
#1062=DIRECTION('',(1.0,0.0,0.0));
#1063=DIRECTION('',(0.0,0.0,-1.0));
#1064=AXIS2_PLACEMENT_3D('',#1061,#1062,#1063);
#1065=PLANE('',#1064);
#1066=ORIENTED_EDGE('',*,*,#1048,.F.);
#1067=ORIENTED_EDGE('',*,*,#1032,.F.);
#1068=EDGE_LOOP('',(#1066,#1067));
#1069=FACE_OUTER_BOUND('',#1068,.T.);
#1070=ADVANCED_FACE('',(#1069),#1065,.T.);
#1071=CARTESIAN_POINT('',(-2.350000000000000,-0.009999999999999,1.250000000000002));
#1072=DIRECTION('',(1.0,0.0,0.0));
#1073=DIRECTION('',(0.0,0.0,-1.0));
#1074=AXIS2_PLACEMENT_3D('',#1071,#1072,#1073);
#1075=PLANE('',#1074);
#1076=ORIENTED_EDGE('',*,*,#1017,.F.);
#1077=ORIENTED_EDGE('',*,*,#1056,.F.);
#1078=EDGE_LOOP('',(#1076,#1077));
#1079=FACE_OUTER_BOUND('',#1078,.T.);
#1080=ADVANCED_FACE('',(#1079),#1075,.F.);
#1081=CLOSED_SHELL('',(#1036,#1060,#1070,#1080));
#1082=MANIFOLD_SOLID_BREP('C2',#1081);
#1083=COLOUR_RGB('32',0.650000000000000,0.325000000000000,0.0);
#1084=SURFACE_STYLE_USAGE(.BOTH.,#1085);
#1085=SURFACE_SIDE_STYLE('NONE',(#1086));
#1086=SURFACE_STYLE_FILL_AREA(#1087);
#1087=FILL_AREA_STYLE('NONE',(#1088));
#1088=FILL_AREA_STYLE_COLOUR('NONE',#1083);
#1089=PRESENTATION_STYLE_ASSIGNMENT((#1084));
#1090=STYLED_ITEM('NONE',(#1089),#1082);
#1091=CARTESIAN_POINT('',(1.949999999999999,-1.161896E-016,1.250000000000000));
#1092=DIRECTION('',(1.0,0.0,0.0));
#1093=DIRECTION('',(0.0,1.0,0.0));
#1094=AXIS2_PLACEMENT_3D('',#1091,#1092,#1093);
#1095=CYLINDRICAL_SURFACE('',#1094,1.260000000000000);
#1096=CARTESIAN_POINT('',(1.949999999999999,1.260000000000000,1.250000000000000));
#1097=VERTEX_POINT('',#1096);
#1098=CARTESIAN_POINT('',(2.349999999999999,1.260000000000000,1.250000000000000));
#1099=VERTEX_POINT('',#1098);
#1100=CARTESIAN_POINT('',(1.949999999999999,1.260000000000000,1.250000000000000));
#1101=DIRECTION('',(1.0,0.0,0.0));
#1102=VECTOR('',#1101,0.400000000000000);
#1103=LINE('',#1100,#1102);
#1104=EDGE_CURVE('',#1097,#1099,#1103,.T.);
#1105=ORIENTED_EDGE('',*,*,#1104,.F.);
#1106=CARTESIAN_POINT('',(1.949999999999999,-1.260000000000000,1.250000000000000));
#1107=VERTEX_POINT('',#1106);
#1108=CARTESIAN_POINT('',(1.949999999999999,-1.161896E-016,1.250000000000000));
#1109=DIRECTION('',(1.0,0.0,0.0));
#1110=DIRECTION('',(0.0,1.0,0.0));
#1111=AXIS2_PLACEMENT_3D('',#1108,#1109,#1110);
#1112=CIRCLE('',#1111,1.260000000000000);
#1113=EDGE_CURVE('',#1097,#1107,#1112,.T.);
#1114=ORIENTED_EDGE('',*,*,#1113,.T.);
#1115=CARTESIAN_POINT('',(2.349999999999999,-1.260000000000000,1.250000000000000));
#1116=VERTEX_POINT('',#1115);
#1117=CARTESIAN_POINT('',(2.349999999999999,-1.260000000000000,1.250000000000000));
#1118=DIRECTION('',(-1.0,0.0,0.0));
#1119=VECTOR('',#1118,0.400000000000000);
#1120=LINE('',#1117,#1119);
#1121=EDGE_CURVE('',#1116,#1107,#1120,.T.);
#1122=ORIENTED_EDGE('',*,*,#1121,.F.);
#1123=CARTESIAN_POINT('',(2.349999999999999,-1.161896E-016,1.250000000000000));
#1124=DIRECTION('',(-1.0,0.0,0.0));
#1125=DIRECTION('',(0.0,1.0,0.0));
#1126=AXIS2_PLACEMENT_3D('',#1123,#1124,#1125);
#1127=CIRCLE('',#1126,1.260000000000000);
#1128=EDGE_CURVE('',#1116,#1099,#1127,.T.);
#1129=ORIENTED_EDGE('',*,*,#1128,.T.);
#1130=EDGE_LOOP('',(#1105,#1114,#1122,#1129));
#1131=FACE_OUTER_BOUND('',#1130,.T.);
#1132=ADVANCED_FACE('',(#1131),#1095,.T.);
#1133=CARTESIAN_POINT('',(1.949999999999999,-1.161896E-016,1.250000000000000));
#1134=DIRECTION('',(1.0,0.0,0.0));
#1135=DIRECTION('',(0.0,1.0,0.0));
#1136=AXIS2_PLACEMENT_3D('',#1133,#1134,#1135);
#1137=CYLINDRICAL_SURFACE('',#1136,1.260000000000000);
#1138=ORIENTED_EDGE('',*,*,#1104,.T.);
#1139=CARTESIAN_POINT('',(2.349999999999999,-1.161896E-016,1.250000000000000));
#1140=DIRECTION('',(-1.0,0.0,0.0));
#1141=DIRECTION('',(0.0,1.0,0.0));
#1142=AXIS2_PLACEMENT_3D('',#1139,#1140,#1141);
#1143=CIRCLE('',#1142,1.260000000000000);
#1144=EDGE_CURVE('',#1099,#1116,#1143,.T.);
#1145=ORIENTED_EDGE('',*,*,#1144,.T.);
#1146=ORIENTED_EDGE('',*,*,#1121,.T.);
#1147=CARTESIAN_POINT('',(1.949999999999999,-1.161896E-016,1.250000000000000));
#1148=DIRECTION('',(1.0,0.0,0.0));
#1149=DIRECTION('',(0.0,1.0,0.0));
#1150=AXIS2_PLACEMENT_3D('',#1147,#1148,#1149);
#1151=CIRCLE('',#1150,1.260000000000000);
#1152=EDGE_CURVE('',#1107,#1097,#1151,.T.);
#1153=ORIENTED_EDGE('',*,*,#1152,.T.);
#1154=EDGE_LOOP('',(#1138,#1145,#1146,#1153));
#1155=FACE_OUTER_BOUND('',#1154,.T.);
#1156=ADVANCED_FACE('',(#1155),#1137,.T.);
#1157=CARTESIAN_POINT('',(2.349999999999999,-1.161896E-016,1.250000000000000));
#1158=DIRECTION('',(1.0,0.0,0.0));
#1159=DIRECTION('',(0.0,0.0,-1.0));
#1160=AXIS2_PLACEMENT_3D('',#1157,#1158,#1159);
#1161=PLANE('',#1160);
#1162=ORIENTED_EDGE('',*,*,#1144,.F.);
#1163=ORIENTED_EDGE('',*,*,#1128,.F.);
#1164=EDGE_LOOP('',(#1162,#1163));
#1165=FACE_OUTER_BOUND('',#1164,.T.);
#1166=ADVANCED_FACE('',(#1165),#1161,.T.);
#1167=CARTESIAN_POINT('',(1.949999999999999,-1.161896E-016,1.250000000000000));
#1168=DIRECTION('',(1.0,0.0,0.0));
#1169=DIRECTION('',(0.0,0.0,-1.0));
#1170=AXIS2_PLACEMENT_3D('',#1167,#1168,#1169);
#1171=PLANE('',#1170);
#1172=ORIENTED_EDGE('',*,*,#1113,.F.);
#1173=ORIENTED_EDGE('',*,*,#1152,.F.);
#1174=EDGE_LOOP('',(#1172,#1173));
#1175=FACE_OUTER_BOUND('',#1174,.T.);
#1176=ADVANCED_FACE('',(#1175),#1171,.F.);
#1177=CLOSED_SHELL('',(#1132,#1156,#1166,#1176));
#1178=MANIFOLD_SOLID_BREP('C1',#1177);
#1179=STYLED_ITEM('NONE',(#993),#1178);
#1180=CARTESIAN_POINT('',(5.379999999999998,2.246589E-016,0.750000000000000));
#1181=CARTESIAN_POINT('',(5.379999999999998,-0.300000000000000,0.750000000000000));
#1182=CARTESIAN_POINT('',(5.079999999999998,-0.300000000000000,0.750000000000000));
#1183=CARTESIAN_POINT('',(4.779999999999999,-0.300000000000000,0.750000000000000));
#1184=CARTESIAN_POINT('',(4.779999999999999,2.283074E-016,0.750000000000000));
#1185=CARTESIAN_POINT('',(5.379999999999998,-2.026242E-017,-0.050000000000000));
#1186=CARTESIAN_POINT('',(5.379999999999998,-0.300000000000000,-0.049999999999999));
#1187=CARTESIAN_POINT('',(5.079999999999998,-0.300000000000000,0.250000000000000));
#1188=CARTESIAN_POINT('',(4.779999999999999,-0.300000000000000,0.550000000000000));
#1189=CARTESIAN_POINT('',(4.779999999999999,1.670771E-016,0.550000000000000));
#1190=CARTESIAN_POINT('',(4.579999999999998,5.127237E-017,-0.050000000000000));
#1191=CARTESIAN_POINT('',(4.579999999999998,-0.300000000000000,-0.049999999999999));
#1192=CARTESIAN_POINT('',(4.579999999999998,-0.300000000000000,0.250000000000000));
#1193=CARTESIAN_POINT('',(4.579999999999998,-0.300000000000000,0.550000000000000));
#1194=CARTESIAN_POINT('',(4.579999999999998,1.849608E-016,0.550000000000000));
#1195=CARTESIAN_POINT('',(3.779999999999999,1.228072E-016,-0.049999999999999));
#1196=CARTESIAN_POINT('',(3.779999999999999,-0.300000000000000,-0.049999999999999));
#1197=CARTESIAN_POINT('',(4.079999999999998,-0.300000000000000,0.250000000000001));
#1198=CARTESIAN_POINT('',(4.379999999999998,-0.300000000000000,0.550000000000000));
#1199=CARTESIAN_POINT('',(4.379999999999998,2.028445E-016,0.550000000000000));
#1200=CARTESIAN_POINT('',(3.779999999999999,3.677284E-016,0.750000000000000));
#1201=CARTESIAN_POINT('',(3.779999999999999,-0.300000000000000,0.750000000000000));
#1202=CARTESIAN_POINT('',(4.079999999999998,-0.300000000000000,0.750000000000000));
#1203=CARTESIAN_POINT('',(4.379999999999998,-0.300000000000000,0.750000000000000));
#1204=CARTESIAN_POINT('',(4.379999999999998,2.640748E-016,0.750000000000000));
#1205=CARTESIAN_POINT('',(3.779999999999999,6.126497E-016,1.550000000000000));
#1206=CARTESIAN_POINT('',(3.779999999999999,-0.300000000000000,1.550000000000000));
#1207=CARTESIAN_POINT('',(4.079999999999998,-0.300000000000000,1.250000000000000));
#1208=CARTESIAN_POINT('',(4.379999999999998,-0.300000000000000,0.950000000000000));
#1209=CARTESIAN_POINT('',(4.379999999999998,3.253051E-016,0.950000000000000));
#1210=CARTESIAN_POINT('',(4.579999999999998,5.411149E-016,1.550000000000000));
#1211=CARTESIAN_POINT('',(4.579999999999998,-0.300000000000000,1.550000000000000));
#1212=CARTESIAN_POINT('',(4.579999999999998,-0.300000000000000,1.250000000000000));
#1213=CARTESIAN_POINT('',(4.579999999999998,-0.300000000000000,0.950000000000001));
#1214=CARTESIAN_POINT('',(4.579999999999998,3.074214E-016,0.950000000000000));
#1215=CARTESIAN_POINT('',(5.379999999999998,4.695801E-016,1.550000000000000));
#1216=CARTESIAN_POINT('',(5.379999999999998,-0.300000000000000,1.550000000000000));
#1217=CARTESIAN_POINT('',(5.079999999999998,-0.300000000000000,1.250000000000000));
#1218=CARTESIAN_POINT('',(4.779999999999999,-0.300000000000000,0.950000000000000));
#1219=CARTESIAN_POINT('',(4.779999999999999,2.895377E-016,0.950000000000000));
#1220=CARTESIAN_POINT('',(5.379999999999998,2.246589E-016,0.750000000000000));
#1221=CARTESIAN_POINT('',(5.379999999999998,-0.300000000000000,0.750000000000000));
#1222=CARTESIAN_POINT('',(5.079999999999998,-0.300000000000000,0.750000000000000));
#1223=CARTESIAN_POINT('',(4.779999999999999,-0.300000000000000,0.750000000000000));
#1224=CARTESIAN_POINT('',(4.779999999999999,2.283074E-016,0.750000000000000));
#1232=(BOUNDED_SURFACE()B_SPLINE_SURFACE(2,2,((#1180,#1185,#1190,#1195,#1200,#1205,#1210,#1215,#1220),(#1181,#1186,#1191,#1196,#1201,#1206,#1211,#1216,#1221),(#1182,#1187,#1192,#1197,#1202,#1207,#1212,#1217,#1222),(#1183,#1188,#1193,#1198,#1203,#1208,#1213,#1218,#1223),(#1184,#1189,#1194,#1199,#1204,#1209,#1214,#1219,#1224)),.UNSPECIFIED.,.F.,.T.,.U.)B_SPLINE_SURFACE_WITH_KNOTS((3,2,3),(3,2,2,2,3),(-9.323929E-016,1.570796326794897,3.141592653589794),(0.0,1.570796326794897,3.141592653589793,4.712388980384690,6.283185307179586),.UNSPECIFIED.)GEOMETRIC_REPRESENTATION_ITEM()RATIONAL_B_SPLINE_SURFACE(((1.0,0.707106781186548,1.0,0.707106781186548,1.0,0.707106781186548,1.0,0.707106781186548,1.0),(0.707106781186544,0.499999999999998,0.707106781186544,0.499999999999998,0.707106781186544,0.499999999999998,0.707106781186544,0.499999999999998,0.707106781186544),(1.0,0.707106781186548,1.0,0.707106781186548,1.0,0.707106781186548,1.0,0.707106781186548,1.0),(0.707106781186544,0.499999999999998,0.707106781186544,0.499999999999998,0.707106781186544,0.499999999999998,0.707106781186544,0.499999999999998,0.707106781186544),(1.0,0.707106781186548,1.0,0.707106781186548,1.0,0.707106781186548,1.0,0.707106781186548,1.0)))REPRESENTATION_ITEM('')SURFACE());
#1233=CARTESIAN_POINT('',(4.579999999999998,2.246589E-016,1.550000000000000));
#1234=VERTEX_POINT('',#1233);
#1235=CARTESIAN_POINT('',(5.379999999999998,-9.179720E-017,0.750000000000000));
#1236=VERTEX_POINT('',#1235);
#1237=CARTESIAN_POINT('',(4.579999999999998,-2.026242E-017,0.750000000000000));
#1238=DIRECTION('',(0.0,1.0,0.0));
#1239=DIRECTION('',(0.0,0.0,-1.0));
#1240=AXIS2_PLACEMENT_3D('',#1237,#1238,#1239);
#1241=CIRCLE('',#1240,0.800000000000000);
#1242=EDGE_CURVE('',#1234,#1236,#1241,.T.);
#1243=ORIENTED_EDGE('',*,*,#1242,.F.);
#1244=CARTESIAN_POINT('',(4.579999999999998,-0.300000000000000,1.250000000000000));
#1245=VERTEX_POINT('',#1244);
#1246=CARTESIAN_POINT('',(4.579999999999998,1.695516E-016,1.250000000000000));
#1247=DIRECTION('',(1.0,0.0,0.0));
#1248=DIRECTION('',(0.0,1.0,0.0));
#1249=AXIS2_PLACEMENT_3D('',#1246,#1247,#1248);
#1250=CIRCLE('',#1249,0.300000000000000);
#1251=EDGE_CURVE('',#1234,#1245,#1250,.T.);
#1252=ORIENTED_EDGE('',*,*,#1251,.T.);
#1253=CARTESIAN_POINT('',(4.579999999999998,4.096790E-017,0.950000000000000));
#1254=VERTEX_POINT('',#1253);
#1255=CARTESIAN_POINT('',(4.579999999999998,1.695516E-016,1.250000000000000));
#1256=DIRECTION('',(1.0,0.0,0.0));
#1257=DIRECTION('',(0.0,1.0,0.0));
#1258=AXIS2_PLACEMENT_3D('',#1255,#1256,#1257);
#1259=CIRCLE('',#1258,0.300000000000000);
#1260=EDGE_CURVE('',#1245,#1254,#1259,.T.);
#1261=ORIENTED_EDGE('',*,*,#1260,.T.);
#1262=CARTESIAN_POINT('',(4.779999999999999,-3.814611E-017,0.750000000000000));
#1263=VERTEX_POINT('',#1262);
#1264=CARTESIAN_POINT('',(4.579999999999998,-2.026242E-017,0.750000000000000));
#1265=DIRECTION('',(0.0,-1.0,0.0));
#1266=DIRECTION('',(0.0,0.0,-1.0));
#1267=AXIS2_PLACEMENT_3D('',#1264,#1265,#1266);
#1268=CIRCLE('',#1267,0.200000000000000);
#1269=EDGE_CURVE('',#1263,#1254,#1268,.T.);
#1270=ORIENTED_EDGE('',*,*,#1269,.F.);
#1271=CARTESIAN_POINT('',(5.079999999999998,-0.300000000000000,0.750000000000000));
#1272=VERTEX_POINT('',#1271);
#1273=CARTESIAN_POINT('',(5.079999999999998,-2.823347E-017,0.750000000000000));
#1274=DIRECTION('',(0.0,0.0,-1.0));
#1275=DIRECTION('',(0.0,1.0,0.0));
#1276=AXIS2_PLACEMENT_3D('',#1273,#1274,#1275);
#1277=CIRCLE('',#1276,0.300000000000000);
#1278=EDGE_CURVE('',#1272,#1263,#1277,.T.);
#1279=ORIENTED_EDGE('',*,*,#1278,.F.);
#1280=CARTESIAN_POINT('',(5.079999999999998,-2.823347E-017,0.750000000000000));
#1281=DIRECTION('',(0.0,0.0,-1.0));
#1282=DIRECTION('',(0.0,1.0,0.0));
#1283=AXIS2_PLACEMENT_3D('',#1280,#1281,#1282);
#1284=CIRCLE('',#1283,0.300000000000000);
#1285=EDGE_CURVE('',#1236,#1272,#1284,.T.);
#1286=ORIENTED_EDGE('',*,*,#1285,.F.);
#1287=EDGE_LOOP('',(#1243,#1252,#1261,#1270,#1279,#1286));
#1288=FACE_OUTER_BOUND('',#1287,.T.);
#1289=ADVANCED_FACE('',(#1288),#1232,.T.);
#1290=CARTESIAN_POINT('',(3.149999999999999,-0.300000000000000,1.250000000000001));
#1291=CARTESIAN_POINT('',(4.579999999999998,-0.300000000000000,1.250000000000001));
#1292=CARTESIAN_POINT('',(3.149999999999999,-0.299999999999999,1.550000000000001));
#1293=CARTESIAN_POINT('',(4.579999999999998,-0.300000000000000,1.550000000000001));
#1294=CARTESIAN_POINT('',(3.149999999999999,5.194646E-016,1.550000000000001));
#1295=CARTESIAN_POINT('',(4.579999999999998,3.915962E-016,1.550000000000001));
#1296=CARTESIAN_POINT('',(3.149999999999999,0.300000000000000,1.550000000000001));
#1297=CARTESIAN_POINT('',(4.579999999999998,0.300000000000000,1.550000000000000));
#1298=CARTESIAN_POINT('',(3.149999999999999,0.300000000000000,1.250000000000000));
#1299=CARTESIAN_POINT('',(4.579999999999998,0.300000000000000,1.250000000000000));
#1300=CARTESIAN_POINT('',(3.149999999999999,0.300000000000000,0.950000000000001));
#1301=CARTESIAN_POINT('',(4.579999999999998,0.300000000000000,0.950000000000000));
#1302=CARTESIAN_POINT('',(3.149999999999999,7.537539E-017,0.950000000000001));
#1303=CARTESIAN_POINT('',(4.579999999999998,-5.249304E-017,0.950000000000000));
#1304=CARTESIAN_POINT('',(3.149999999999999,-0.300000000000000,0.950000000000001));
#1305=CARTESIAN_POINT('',(4.579999999999998,-0.300000000000000,0.950000000000001));
#1306=CARTESIAN_POINT('',(3.149999999999999,-0.300000000000000,1.250000000000001));
#1307=CARTESIAN_POINT('',(4.579999999999998,-0.300000000000000,1.250000000000001));
#1315=(BOUNDED_SURFACE()B_SPLINE_SURFACE(1,2,((#1290,#1292,#1294,#1296,#1298,#1300,#1302,#1304,#1306),(#1291,#1293,#1295,#1297,#1299,#1301,#1303,#1305,#1307)),.UNSPECIFIED.,.F.,.T.,.U.)B_SPLINE_SURFACE_WITH_KNOTS((2,2),(3,2,2,2,3),(-1.480297E-015,4.766666666666666),(0.0,0.471238898038469,0.942477796076938,1.413716694115407,1.884955592153876),.UNSPECIFIED.)GEOMETRIC_REPRESENTATION_ITEM()RATIONAL_B_SPLINE_SURFACE(((1.0,0.707106781186548,1.0,0.707106781186548,1.0,0.707106781186548,1.0,0.707106781186548,1.0),(1.0,0.707106781186548,1.0,0.707106781186548,1.0,0.707106781186548,1.0,0.707106781186548,1.0)))REPRESENTATION_ITEM('')SURFACE());
#1316=CARTESIAN_POINT('',(3.149999999999999,0.300000000000000,1.250000000000000));
#1317=VERTEX_POINT('',#1316);
#1318=CARTESIAN_POINT('',(4.579999999999998,0.300000000000000,1.250000000000000));
#1319=VERTEX_POINT('',#1318);
#1320=CARTESIAN_POINT('',(3.149999999999999,0.300000000000000,1.250000000000000));
#1321=DIRECTION('',(1.0,0.0,0.0));
#1322=VECTOR('',#1321,1.429999999999999);
#1323=LINE('',#1320,#1322);
#1324=EDGE_CURVE('',#1317,#1319,#1323,.T.);
#1325=ORIENTED_EDGE('',*,*,#1324,.F.);
#1326=CARTESIAN_POINT('',(3.149999999999999,-0.300000000000000,1.250000000000001));
#1327=VERTEX_POINT('',#1326);
#1328=CARTESIAN_POINT('',(3.149999999999999,2.974200E-016,1.250000000000001));
#1329=DIRECTION('',(1.0,0.0,0.0));
#1330=DIRECTION('',(0.0,1.0,0.0));
#1331=AXIS2_PLACEMENT_3D('',#1328,#1329,#1330);
#1332=CIRCLE('',#1331,0.300000000000000);
#1333=EDGE_CURVE('',#1317,#1327,#1332,.T.);
#1334=ORIENTED_EDGE('',*,*,#1333,.T.);
#1335=CARTESIAN_POINT('',(4.579999999999998,-0.300000000000000,1.250000000000000));
#1336=DIRECTION('',(-1.0,0.0,0.0));
#1337=VECTOR('',#1336,1.430000000000000);
#1338=LINE('',#1335,#1337);
#1339=EDGE_CURVE('',#1245,#1327,#1338,.T.);
#1340=ORIENTED_EDGE('',*,*,#1339,.F.);
#1341=ORIENTED_EDGE('',*,*,#1251,.F.);
#1342=CARTESIAN_POINT('',(4.579999999999998,1.695516E-016,1.250000000000000));
#1343=DIRECTION('',(1.0,0.0,0.0));
#1344=DIRECTION('',(0.0,1.0,0.0));
#1345=AXIS2_PLACEMENT_3D('',#1342,#1343,#1344);
#1346=CIRCLE('',#1345,0.300000000000000);
#1347=EDGE_CURVE('',#1319,#1234,#1346,.T.);
#1348=ORIENTED_EDGE('',*,*,#1347,.F.);
#1349=EDGE_LOOP('',(#1325,#1334,#1340,#1341,#1348));
#1350=FACE_OUTER_BOUND('',#1349,.T.);
#1351=ADVANCED_FACE('',(#1350),#1315,.T.);
#1352=CARTESIAN_POINT('',(5.079999999999998,-0.300000000000000,0.750000000000000));
#1353=CARTESIAN_POINT('',(5.079999999999998,-0.300000000000001,-3.200000000000001));
#1354=CARTESIAN_POINT('',(5.379999999999998,-0.300000000000000,0.750000000000000));
#1355=CARTESIAN_POINT('',(5.379999999999998,-0.300000000000001,-3.200000000000001));
#1356=CARTESIAN_POINT('',(5.379999999999998,-2.823347E-017,0.750000000000000));
#1357=CARTESIAN_POINT('',(5.379999999999998,-1.237532E-015,-3.200000000000001));
#1358=CARTESIAN_POINT('',(5.379999999999998,0.300000000000000,0.750000000000000));
#1359=CARTESIAN_POINT('',(5.379999999999998,0.299999999999999,-3.200000000000001));
#1360=CARTESIAN_POINT('',(5.079999999999998,0.300000000000000,0.750000000000000));
#1361=CARTESIAN_POINT('',(5.079999999999998,0.299999999999999,-3.200000000000001));
#1362=CARTESIAN_POINT('',(4.779999999999999,0.300000000000000,0.750000000000000));
#1363=CARTESIAN_POINT('',(4.779999999999999,0.299999999999999,-3.200000000000001));
#1364=CARTESIAN_POINT('',(4.779999999999999,-2.823347E-017,0.750000000000000));
#1365=CARTESIAN_POINT('',(4.779999999999999,-1.237532E-015,-3.200000000000001));
#1366=CARTESIAN_POINT('',(4.779999999999999,-0.300000000000000,0.750000000000000));
#1367=CARTESIAN_POINT('',(4.779999999999999,-0.300000000000001,-3.200000000000001));
#1368=CARTESIAN_POINT('',(5.079999999999998,-0.300000000000000,0.750000000000000));
#1369=CARTESIAN_POINT('',(5.079999999999998,-0.300000000000001,-3.200000000000001));
#1377=(BOUNDED_SURFACE()B_SPLINE_SURFACE(1,2,((#1352,#1354,#1356,#1358,#1360,#1362,#1364,#1366,#1368),(#1353,#1355,#1357,#1359,#1361,#1363,#1365,#1367,#1369)),.UNSPECIFIED.,.F.,.T.,.U.)B_SPLINE_SURFACE_WITH_KNOTS((2,2),(3,2,2,2,3),(-7.401487E-016,13.166666666666671),(0.0,0.471238898038469,0.942477796076938,1.413716694115407,1.884955592153876),.UNSPECIFIED.)GEOMETRIC_REPRESENTATION_ITEM()RATIONAL_B_SPLINE_SURFACE(((1.0,0.707106781186548,1.0,0.707106781186548,1.0,0.707106781186548,1.0,0.707106781186548,1.0),(1.0,0.707106781186548,1.0,0.707106781186548,1.0,0.707106781186548,1.0,0.707106781186548,1.0)))REPRESENTATION_ITEM('')SURFACE());
#1378=CARTESIAN_POINT('',(5.079999999999998,0.300000000000000,0.750000000000000));
#1379=VERTEX_POINT('',#1378);
#1380=CARTESIAN_POINT('',(5.079999999999998,0.299999999999999,-3.200000000000001));
#1381=VERTEX_POINT('',#1380);
#1382=CARTESIAN_POINT('',(5.079999999999998,0.300000000000000,0.750000000000000));
#1383=DIRECTION('',(0.0,0.0,-1.0));
#1384=VECTOR('',#1383,3.950000000000001);
#1385=LINE('',#1382,#1384);
#1386=EDGE_CURVE('',#1379,#1381,#1385,.T.);
#1387=ORIENTED_EDGE('',*,*,#1386,.F.);
#1388=CARTESIAN_POINT('',(5.079999999999998,-2.823347E-017,0.750000000000000));
#1389=DIRECTION('',(0.0,0.0,-1.0));
#1390=DIRECTION('',(0.0,1.0,0.0));
#1391=AXIS2_PLACEMENT_3D('',#1388,#1389,#1390);
#1392=CIRCLE('',#1391,0.300000000000000);
#1393=EDGE_CURVE('',#1379,#1236,#1392,.T.);
#1394=ORIENTED_EDGE('',*,*,#1393,.T.);
#1395=ORIENTED_EDGE('',*,*,#1285,.T.);
#1396=CARTESIAN_POINT('',(5.079999999999998,-0.300000000000001,-3.200000000000001));
#1397=VERTEX_POINT('',#1396);
#1398=CARTESIAN_POINT('',(5.079999999999998,-0.300000000000001,-3.200000000000001));
#1399=DIRECTION('',(0.0,0.0,1.0));
#1400=VECTOR('',#1399,3.950000000000001);
#1401=LINE('',#1398,#1400);
#1402=EDGE_CURVE('',#1397,#1272,#1401,.T.);
#1403=ORIENTED_EDGE('',*,*,#1402,.F.);
#1404=CARTESIAN_POINT('',(5.079999999999998,-1.237532E-015,-3.200000000000001));
#1405=DIRECTION('',(0.0,0.0,-1.0));
#1406=DIRECTION('',(0.0,1.0,0.0));
#1407=AXIS2_PLACEMENT_3D('',#1404,#1405,#1406);
#1408=CIRCLE('',#1407,0.300000000000000);
#1409=EDGE_CURVE('',#1381,#1397,#1408,.T.);
#1410=ORIENTED_EDGE('',*,*,#1409,.F.);
#1411=EDGE_LOOP('',(#1387,#1394,#1395,#1403,#1410));
#1412=FACE_OUTER_BOUND('',#1411,.T.);
#1413=ADVANCED_FACE('',(#1412),#1377,.T.);
#1414=CARTESIAN_POINT('',(5.079999999999998,-0.300000000000000,0.750000000000000));
#1415=CARTESIAN_POINT('',(5.079999999999998,-0.300000000000001,-3.200000000000001));
#1416=CARTESIAN_POINT('',(5.379999999999998,-0.300000000000000,0.750000000000000));
#1417=CARTESIAN_POINT('',(5.379999999999998,-0.300000000000001,-3.200000000000001));
#1418=CARTESIAN_POINT('',(5.379999999999998,-2.823347E-017,0.750000000000000));
#1419=CARTESIAN_POINT('',(5.379999999999998,-1.237532E-015,-3.200000000000001));
#1420=CARTESIAN_POINT('',(5.379999999999998,0.300000000000000,0.750000000000000));
#1421=CARTESIAN_POINT('',(5.379999999999998,0.299999999999999,-3.200000000000001));
#1422=CARTESIAN_POINT('',(5.079999999999998,0.300000000000000,0.750000000000000));
#1423=CARTESIAN_POINT('',(5.079999999999998,0.299999999999999,-3.200000000000001));
#1424=CARTESIAN_POINT('',(4.779999999999999,0.300000000000000,0.750000000000000));
#1425=CARTESIAN_POINT('',(4.779999999999999,0.299999999999999,-3.200000000000001));
#1426=CARTESIAN_POINT('',(4.779999999999999,-2.823347E-017,0.750000000000000));
#1427=CARTESIAN_POINT('',(4.779999999999999,-1.237532E-015,-3.200000000000001));
#1428=CARTESIAN_POINT('',(4.779999999999999,-0.300000000000000,0.750000000000000));
#1429=CARTESIAN_POINT('',(4.779999999999999,-0.300000000000001,-3.200000000000001));
#1430=CARTESIAN_POINT('',(5.079999999999998,-0.300000000000000,0.750000000000000));
#1431=CARTESIAN_POINT('',(5.079999999999998,-0.300000000000001,-3.200000000000001));
#1439=(BOUNDED_SURFACE()B_SPLINE_SURFACE(1,2,((#1414,#1416,#1418,#1420,#1422,#1424,#1426,#1428,#1430),(#1415,#1417,#1419,#1421,#1423,#1425,#1427,#1429,#1431)),.UNSPECIFIED.,.F.,.T.,.U.)B_SPLINE_SURFACE_WITH_KNOTS((2,2),(3,2,2,2,3),(-7.401487E-016,13.166666666666671),(0.0,0.471238898038469,0.942477796076938,1.413716694115407,1.884955592153876),.UNSPECIFIED.)GEOMETRIC_REPRESENTATION_ITEM()RATIONAL_B_SPLINE_SURFACE(((1.0,0.707106781186548,1.0,0.707106781186548,1.0,0.707106781186548,1.0,0.707106781186548,1.0),(1.0,0.707106781186548,1.0,0.707106781186548,1.0,0.707106781186548,1.0,0.707106781186548,1.0)))REPRESENTATION_ITEM('')SURFACE());
#1440=ORIENTED_EDGE('',*,*,#1386,.T.);
#1441=CARTESIAN_POINT('',(5.079999999999998,-1.237532E-015,-3.200000000000001));
#1442=DIRECTION('',(0.0,0.0,-1.0));
#1443=DIRECTION('',(0.0,1.0,0.0));
#1444=AXIS2_PLACEMENT_3D('',#1441,#1442,#1443);
#1445=CIRCLE('',#1444,0.300000000000000);
#1446=EDGE_CURVE('',#1397,#1381,#1445,.T.);
#1447=ORIENTED_EDGE('',*,*,#1446,.F.);
#1448=ORIENTED_EDGE('',*,*,#1402,.T.);
#1449=ORIENTED_EDGE('',*,*,#1278,.T.);
#1450=CARTESIAN_POINT('',(5.079999999999998,-2.823347E-017,0.750000000000000));
#1451=DIRECTION('',(0.0,0.0,-1.0));
#1452=DIRECTION('',(0.0,1.0,0.0));
#1453=AXIS2_PLACEMENT_3D('',#1450,#1451,#1452);
#1454=CIRCLE('',#1453,0.300000000000000);
#1455=EDGE_CURVE('',#1263,#1379,#1454,.T.);
#1456=ORIENTED_EDGE('',*,*,#1455,.T.);
#1457=EDGE_LOOP('',(#1440,#1447,#1448,#1449,#1456));
#1458=FACE_OUTER_BOUND('',#1457,.T.);
#1459=ADVANCED_FACE('',(#1458),#1439,.T.);
#1460=CARTESIAN_POINT('',(4.779999999999999,-3.643500E-016,0.750000000000000));
#1461=CARTESIAN_POINT('',(4.779999999999999,0.300000000000000,0.750000000000000));
#1462=CARTESIAN_POINT('',(5.079999999999998,0.300000000000000,0.750000000000000));
#1463=CARTESIAN_POINT('',(5.379999999999998,0.300000000000000,0.750000000000000));
#1464=CARTESIAN_POINT('',(5.379999999999998,-4.197593E-016,0.750000000000000));
#1465=CARTESIAN_POINT('',(4.779999999999999,-4.255803E-016,0.550000000000000));
#1466=CARTESIAN_POINT('',(4.779999999999999,0.300000000000000,0.550000000000000));
#1467=CARTESIAN_POINT('',(5.079999999999998,0.300000000000000,0.250000000000000));
#1468=CARTESIAN_POINT('',(5.379999999999998,0.299999999999999,-0.050000000000000));
#1469=CARTESIAN_POINT('',(5.379999999999998,-6.646806E-016,-0.050000000000000));
#1470=CARTESIAN_POINT('',(4.579999999999998,-4.076966E-016,0.550000000000000));
#1471=CARTESIAN_POINT('',(4.579999999999998,0.300000000000000,0.550000000000000));
#1472=CARTESIAN_POINT('',(4.579999999999998,0.300000000000000,0.250000000000000));
#1473=CARTESIAN_POINT('',(4.579999999999998,0.300000000000000,-0.050000000000000));
#1474=CARTESIAN_POINT('',(4.579999999999998,-5.931458E-016,-0.050000000000000));
#1475=CARTESIAN_POINT('',(4.379999999999998,-3.898129E-016,0.550000000000000));
#1476=CARTESIAN_POINT('',(4.379999999999998,0.300000000000000,0.550000000000000));
#1477=CARTESIAN_POINT('',(4.079999999999998,0.300000000000000,0.250000000000000));
#1478=CARTESIAN_POINT('',(3.779999999999999,0.300000000000000,-0.049999999999999));
#1479=CARTESIAN_POINT('',(3.779999999999999,-5.216111E-016,-0.049999999999999));
#1480=CARTESIAN_POINT('',(4.379999999999998,-3.285826E-016,0.750000000000000));
#1481=CARTESIAN_POINT('',(4.379999999999998,0.300000000000000,0.750000000000000));
#1482=CARTESIAN_POINT('',(4.079999999999998,0.300000000000000,0.750000000000000));
#1483=CARTESIAN_POINT('',(3.779999999999998,0.300000000000000,0.750000000000000));
#1484=CARTESIAN_POINT('',(3.779999999999999,-2.766898E-016,0.750000000000000));
#1485=CARTESIAN_POINT('',(4.379999999999998,-2.673523E-016,0.950000000000000));
#1486=CARTESIAN_POINT('',(4.379999999999998,0.300000000000000,0.950000000000000));
#1487=CARTESIAN_POINT('',(4.079999999999998,0.300000000000000,1.250000000000000));
#1488=CARTESIAN_POINT('',(3.779999999999999,0.300000000000000,1.550000000000000));
#1489=CARTESIAN_POINT('',(3.779999999999999,-3.176851E-017,1.550000000000000));
#1490=CARTESIAN_POINT('',(4.579999999999998,-2.852360E-016,0.950000000000000));
#1491=CARTESIAN_POINT('',(4.579999999999998,0.300000000000000,0.950000000000000));
#1492=CARTESIAN_POINT('',(4.579999999999998,0.300000000000000,1.250000000000000));
#1493=CARTESIAN_POINT('',(4.579999999999998,0.300000000000000,1.550000000000000));
#1494=CARTESIAN_POINT('',(4.579999999999998,-1.033033E-016,1.550000000000000));
#1495=CARTESIAN_POINT('',(4.779999999999999,-3.031197E-016,0.950000000000000));
#1496=CARTESIAN_POINT('',(4.779999999999999,0.300000000000000,0.950000000000000));
#1497=CARTESIAN_POINT('',(5.079999999999998,0.300000000000000,1.250000000000000));
#1498=CARTESIAN_POINT('',(5.379999999999998,0.300000000000000,1.550000000000000));
#1499=CARTESIAN_POINT('',(5.379999999999998,-1.748381E-016,1.550000000000000));
#1500=CARTESIAN_POINT('',(4.779999999999999,-3.643500E-016,0.750000000000000));
#1501=CARTESIAN_POINT('',(4.779999999999999,0.300000000000000,0.750000000000000));
#1502=CARTESIAN_POINT('',(5.079999999999998,0.300000000000000,0.750000000000000));
#1503=CARTESIAN_POINT('',(5.379999999999998,0.300000000000000,0.750000000000000));
#1504=CARTESIAN_POINT('',(5.379999999999998,-4.197593E-016,0.750000000000000));
#1512=(BOUNDED_SURFACE()B_SPLINE_SURFACE(2,2,((#1460,#1465,#1470,#1475,#1480,#1485,#1490,#1495,#1500),(#1461,#1466,#1471,#1476,#1481,#1486,#1491,#1496,#1501),(#1462,#1467,#1472,#1477,#1482,#1487,#1492,#1497,#1502),(#1463,#1468,#1473,#1478,#1483,#1488,#1493,#1498,#1503),(#1464,#1469,#1474,#1479,#1484,#1489,#1494,#1499,#1504)),.UNSPECIFIED.,.F.,.T.,.U.)B_SPLINE_SURFACE_WITH_KNOTS((3,2,3),(3,2,2,2,3),(-3.141592653589794,-1.570796326794897,1.215668E-015),(0.0,1.570796326794897,3.141592653589793,4.712388980384690,6.283185307179586),.UNSPECIFIED.)GEOMETRIC_REPRESENTATION_ITEM()RATIONAL_B_SPLINE_SURFACE(((1.0,0.707106781186548,1.0,0.707106781186548,1.0,0.707106781186548,1.0,0.707106781186548,1.0),(0.707106781186544,0.499999999999998,0.707106781186544,0.499999999999998,0.707106781186544,0.499999999999998,0.707106781186544,0.499999999999998,0.707106781186544),(1.0,0.707106781186548,1.0,0.707106781186548,1.0,0.707106781186548,1.0,0.707106781186548,1.0),(0.707106781186545,0.499999999999998,0.707106781186545,0.499999999999998,0.707106781186545,0.499999999999998,0.707106781186545,0.499999999999998,0.707106781186545),(1.0,0.707106781186548,1.0,0.707106781186548,1.0,0.707106781186548,1.0,0.707106781186548,1.0)))REPRESENTATION_ITEM('')SURFACE());
#1513=ORIENTED_EDGE('',*,*,#1242,.T.);
#1514=ORIENTED_EDGE('',*,*,#1393,.F.);
#1515=ORIENTED_EDGE('',*,*,#1455,.F.);
#1516=ORIENTED_EDGE('',*,*,#1269,.T.);
#1517=CARTESIAN_POINT('',(4.579999999999998,1.695516E-016,1.250000000000000));
#1518=DIRECTION('',(1.0,0.0,0.0));
#1519=DIRECTION('',(0.0,1.0,0.0));
#1520=AXIS2_PLACEMENT_3D('',#1517,#1518,#1519);
#1521=CIRCLE('',#1520,0.300000000000000);
#1522=EDGE_CURVE('',#1254,#1319,#1521,.T.);
#1523=ORIENTED_EDGE('',*,*,#1522,.T.);
#1524=ORIENTED_EDGE('',*,*,#1347,.T.);
#1525=EDGE_LOOP('',(#1513,#1514,#1515,#1516,#1523,#1524));
#1526=FACE_OUTER_BOUND('',#1525,.T.);
#1527=ADVANCED_FACE('',(#1526),#1512,.T.);
#1528=CARTESIAN_POINT('',(3.149999999999999,-0.300000000000000,1.250000000000001));
#1529=CARTESIAN_POINT('',(4.579999999999998,-0.300000000000000,1.250000000000001));
#1530=CARTESIAN_POINT('',(3.149999999999999,-0.299999999999999,1.550000000000001));
#1531=CARTESIAN_POINT('',(4.579999999999998,-0.300000000000000,1.550000000000001));
#1532=CARTESIAN_POINT('',(3.149999999999999,5.194646E-016,1.550000000000001));
#1533=CARTESIAN_POINT('',(4.579999999999998,3.915962E-016,1.550000000000001));
#1534=CARTESIAN_POINT('',(3.149999999999999,0.300000000000000,1.550000000000001));
#1535=CARTESIAN_POINT('',(4.579999999999998,0.300000000000000,1.550000000000000));
#1536=CARTESIAN_POINT('',(3.149999999999999,0.300000000000000,1.250000000000000));
#1537=CARTESIAN_POINT('',(4.579999999999998,0.300000000000000,1.250000000000000));
#1538=CARTESIAN_POINT('',(3.149999999999999,0.300000000000000,0.950000000000001));
#1539=CARTESIAN_POINT('',(4.579999999999998,0.300000000000000,0.950000000000000));
#1540=CARTESIAN_POINT('',(3.149999999999999,7.537539E-017,0.950000000000001));
#1541=CARTESIAN_POINT('',(4.579999999999998,-5.249304E-017,0.950000000000000));
#1542=CARTESIAN_POINT('',(3.149999999999999,-0.300000000000000,0.950000000000001));
#1543=CARTESIAN_POINT('',(4.579999999999998,-0.300000000000000,0.950000000000001));
#1544=CARTESIAN_POINT('',(3.149999999999999,-0.300000000000000,1.250000000000001));
#1545=CARTESIAN_POINT('',(4.579999999999998,-0.300000000000000,1.250000000000001));
#1553=(BOUNDED_SURFACE()B_SPLINE_SURFACE(1,2,((#1528,#1530,#1532,#1534,#1536,#1538,#1540,#1542,#1544),(#1529,#1531,#1533,#1535,#1537,#1539,#1541,#1543,#1545)),.UNSPECIFIED.,.F.,.T.,.U.)B_SPLINE_SURFACE_WITH_KNOTS((2,2),(3,2,2,2,3),(-1.480297E-015,4.766666666666666),(0.0,0.471238898038469,0.942477796076938,1.413716694115407,1.884955592153876),.UNSPECIFIED.)GEOMETRIC_REPRESENTATION_ITEM()RATIONAL_B_SPLINE_SURFACE(((1.0,0.707106781186548,1.0,0.707106781186548,1.0,0.707106781186548,1.0,0.707106781186548,1.0),(1.0,0.707106781186548,1.0,0.707106781186548,1.0,0.707106781186548,1.0,0.707106781186548,1.0)))REPRESENTATION_ITEM('')SURFACE());
#1554=ORIENTED_EDGE('',*,*,#1324,.T.);
#1555=ORIENTED_EDGE('',*,*,#1522,.F.);
#1556=ORIENTED_EDGE('',*,*,#1260,.F.);
#1557=ORIENTED_EDGE('',*,*,#1339,.T.);
#1558=CARTESIAN_POINT('',(3.149999999999999,2.974200E-016,1.250000000000001));
#1559=DIRECTION('',(1.0,0.0,0.0));
#1560=DIRECTION('',(0.0,1.0,0.0));
#1561=AXIS2_PLACEMENT_3D('',#1558,#1559,#1560);
#1562=CIRCLE('',#1561,0.300000000000000);
#1563=EDGE_CURVE('',#1327,#1317,#1562,.T.);
#1564=ORIENTED_EDGE('',*,*,#1563,.T.);
#1565=EDGE_LOOP('',(#1554,#1555,#1556,#1557,#1564));
#1566=FACE_OUTER_BOUND('',#1565,.T.);
#1567=ADVANCED_FACE('',(#1566),#1553,.T.);
#1568=CARTESIAN_POINT('',(5.379999999999998,0.299999999999999,-3.200000000000001));
#1569=CARTESIAN_POINT('',(4.779999999999999,0.299999999999999,-3.200000000000001));
#1570=CARTESIAN_POINT('',(5.379999999999998,-0.300000000000001,-3.200000000000001));
#1571=CARTESIAN_POINT('',(4.779999999999999,-0.300000000000001,-3.200000000000001));
#1572=B_SPLINE_SURFACE_WITH_KNOTS('',1,1,((#1568,#1570),(#1569,#1571)),.UNSPECIFIED.,.F.,.F.,.U.,(2,2),(2,2),(0.0,0.600000000000000),(0.0,0.600000000000000),.UNSPECIFIED.);
#1573=ORIENTED_EDGE('',*,*,#1409,.T.);
#1574=ORIENTED_EDGE('',*,*,#1446,.T.);
#1575=EDGE_LOOP('',(#1573,#1574));
#1576=FACE_OUTER_BOUND('',#1575,.T.);
#1577=ADVANCED_FACE('',(#1576),#1572,.F.);
#1578=CARTESIAN_POINT('',(3.149999999999999,-0.300000000000000,1.550000000000001));
#1579=CARTESIAN_POINT('',(3.149999999999999,0.300000000000000,1.550000000000001));
#1580=CARTESIAN_POINT('',(3.149999999999999,-0.300000000000000,0.950000000000001));
#1581=CARTESIAN_POINT('',(3.149999999999999,0.300000000000000,0.950000000000000));
#1582=B_SPLINE_SURFACE_WITH_KNOTS('',1,1,((#1578,#1580),(#1579,#1581)),.UNSPECIFIED.,.F.,.F.,.U.,(2,2),(2,2),(0.0,0.600000000000000),(0.0,0.600000000000000),.UNSPECIFIED.);
#1583=ORIENTED_EDGE('',*,*,#1333,.F.);
#1584=ORIENTED_EDGE('',*,*,#1563,.F.);
#1585=EDGE_LOOP('',(#1583,#1584));
#1586=FACE_OUTER_BOUND('',#1585,.T.);
#1587=ADVANCED_FACE('',(#1586),#1582,.T.);
#1588=CLOSED_SHELL('',(#1289,#1351,#1413,#1459,#1527,#1567,#1577,#1587));
#1589=MANIFOLD_SOLID_BREP('A7',#1588);
#1590=COLOUR_RGB('9',0.750000000000000,0.750000000000000,0.750000000000000);
#1591=SURFACE_STYLE_USAGE(.BOTH.,#1592);
#1592=SURFACE_SIDE_STYLE('NONE',(#1593));
#1593=SURFACE_STYLE_FILL_AREA(#1594);
#1594=FILL_AREA_STYLE('NONE',(#1595));
#1595=FILL_AREA_STYLE_COLOUR('NONE',#1590);
#1596=PRESENTATION_STYLE_ASSIGNMENT((#1591));
#1597=STYLED_ITEM('NONE',(#1596),#1589);
#1598=CARTESIAN_POINT('',(-4.580000000000000,9.951304E-016,0.750000000000002));
#1599=DIRECTION('',(-6.123032E-017,-1.0,3.061516E-016));
#1600=DIRECTION('',(1.0,0.0,0.0));
#1601=AXIS2_PLACEMENT_3D('',#1598,#1599,#1600);
#1602=TOROIDAL_SURFACE('',#1601,0.500000000000000,0.300000000000000);
#1603=CARTESIAN_POINT('',(-4.579999999999999,1.203313E-015,1.550000000000002));
#1604=VERTEX_POINT('',#1603);
#1605=CARTESIAN_POINT('',(-5.380000000000000,1.007376E-015,0.750000000000002));
#1606=VERTEX_POINT('',#1605);
#1607=CARTESIAN_POINT('',(-4.580000000000000,9.583922E-016,0.750000000000002));
#1608=DIRECTION('',(0.0,-1.0,0.0));
#1609=DIRECTION('',(0.0,0.0,-1.0));
#1610=AXIS2_PLACEMENT_3D('',#1607,#1608,#1609);
#1611=CIRCLE('',#1610,0.800000000000000);
#1612=EDGE_CURVE('',#1604,#1606,#1611,.T.);
#1613=ORIENTED_EDGE('',*,*,#1612,.F.);
#1614=CARTESIAN_POINT('',(-4.580000000000000,0.300000000000001,1.250000000000002));
#1615=VERTEX_POINT('',#1614);
#1616=CARTESIAN_POINT('',(-4.579999999999999,1.148206E-015,1.250000000000002));
#1617=DIRECTION('',(1.0,0.0,0.0));
#1618=DIRECTION('',(0.0,1.0,0.0));
#1619=AXIS2_PLACEMENT_3D('',#1616,#1617,#1618);
#1620=CIRCLE('',#1619,0.300000000000000);
#1621=EDGE_CURVE('',#1615,#1604,#1620,.T.);
#1622=ORIENTED_EDGE('',*,*,#1621,.F.);
#1623=CARTESIAN_POINT('',(-4.579999999999999,1.019623E-015,0.950000000000002));
#1624=VERTEX_POINT('',#1623);
#1625=CARTESIAN_POINT('',(-4.579999999999999,1.148206E-015,1.250000000000002));
#1626=DIRECTION('',(1.0,0.0,0.0));
#1627=DIRECTION('',(0.0,1.0,0.0));
#1628=AXIS2_PLACEMENT_3D('',#1625,#1626,#1627);
#1629=CIRCLE('',#1628,0.300000000000000);
#1630=EDGE_CURVE('',#1624,#1615,#1629,.T.);
#1631=ORIENTED_EDGE('',*,*,#1630,.F.);
#1632=CARTESIAN_POINT('',(-4.780000000000000,9.706383E-016,0.750000000000002));
#1633=VERTEX_POINT('',#1632);
#1634=CARTESIAN_POINT('',(-4.580000000000000,9.583922E-016,0.750000000000002));
#1635=DIRECTION('',(0.0,1.0,0.0));
#1636=DIRECTION('',(0.0,0.0,-1.0));
#1637=AXIS2_PLACEMENT_3D('',#1634,#1635,#1636);
#1638=CIRCLE('',#1637,0.200000000000000);
#1639=EDGE_CURVE('',#1633,#1624,#1638,.T.);
#1640=ORIENTED_EDGE('',*,*,#1639,.F.);
#1641=CARTESIAN_POINT('',(-5.080000000000000,0.300000000000001,0.750000000000002));
#1642=VERTEX_POINT('',#1641);
#1643=CARTESIAN_POINT('',(-5.080000000000000,1.025746E-015,0.750000000000002));
#1644=DIRECTION('',(0.0,0.0,1.0));
#1645=DIRECTION('',(0.0,1.0,0.0));
#1646=AXIS2_PLACEMENT_3D('',#1643,#1644,#1645);
#1647=CIRCLE('',#1646,0.300000000000000);
#1648=EDGE_CURVE('',#1633,#1642,#1647,.T.);
#1649=ORIENTED_EDGE('',*,*,#1648,.T.);
#1650=CARTESIAN_POINT('',(-5.080000000000000,1.025746E-015,0.750000000000002));
#1651=DIRECTION('',(0.0,0.0,1.0));
#1652=DIRECTION('',(0.0,1.0,0.0));
#1653=AXIS2_PLACEMENT_3D('',#1650,#1651,#1652);
#1654=CIRCLE('',#1653,0.300000000000000);
#1655=EDGE_CURVE('',#1642,#1606,#1654,.T.);
#1656=ORIENTED_EDGE('',*,*,#1655,.T.);
#1657=EDGE_LOOP('',(#1613,#1622,#1631,#1640,#1649,#1656));
#1658=FACE_OUTER_BOUND('',#1657,.T.);
#1659=ADVANCED_FACE('',(#1658),#1602,.T.);
#1660=CARTESIAN_POINT('',(-3.150000000000000,1.060647E-015,1.250000000000002));
#1661=DIRECTION('',(-1.0,6.123032E-017,2.220446E-016));
#1662=DIRECTION('',(0.0,1.0,0.0));
#1663=AXIS2_PLACEMENT_3D('',#1660,#1661,#1662);
#1664=CYLINDRICAL_SURFACE('',#1663,0.300000000000000);
#1665=CARTESIAN_POINT('',(-3.150000000000000,0.300000000000001,1.250000000000002));
#1666=VERTEX_POINT('',#1665);
#1667=CARTESIAN_POINT('',(-3.150000000000000,0.300000000000001,1.250000000000002));
#1668=DIRECTION('',(-1.0,0.0,0.0));
#1669=VECTOR('',#1668,1.430000000000000);
#1670=LINE('',#1667,#1669);
#1671=EDGE_CURVE('',#1666,#1615,#1670,.T.);
#1672=ORIENTED_EDGE('',*,*,#1671,.F.);
#1673=CARTESIAN_POINT('',(-3.150000000000000,-0.299999999999999,1.250000000000002));
#1674=VERTEX_POINT('',#1673);
#1675=CARTESIAN_POINT('',(-3.150000000000000,1.060647E-015,1.250000000000002));
#1676=DIRECTION('',(1.0,0.0,0.0));
#1677=DIRECTION('',(0.0,1.0,0.0));
#1678=AXIS2_PLACEMENT_3D('',#1675,#1676,#1677);
#1679=CIRCLE('',#1678,0.300000000000000);
#1680=EDGE_CURVE('',#1674,#1666,#1679,.T.);
#1681=ORIENTED_EDGE('',*,*,#1680,.F.);
#1682=CARTESIAN_POINT('',(-4.579999999999999,-0.299999999999999,1.250000000000002));
#1683=VERTEX_POINT('',#1682);
#1684=CARTESIAN_POINT('',(-4.579999999999999,-0.299999999999999,1.250000000000002));
#1685=DIRECTION('',(1.0,0.0,0.0));
#1686=VECTOR('',#1685,1.430000000000000);
#1687=LINE('',#1684,#1686);
#1688=EDGE_CURVE('',#1683,#1674,#1687,.T.);
#1689=ORIENTED_EDGE('',*,*,#1688,.F.);
#1690=CARTESIAN_POINT('',(-4.579999999999999,1.148206E-015,1.250000000000002));
#1691=DIRECTION('',(1.0,0.0,0.0));
#1692=DIRECTION('',(0.0,1.0,0.0));
#1693=AXIS2_PLACEMENT_3D('',#1690,#1691,#1692);
#1694=CIRCLE('',#1693,0.300000000000000);
#1695=EDGE_CURVE('',#1683,#1624,#1694,.T.);
#1696=ORIENTED_EDGE('',*,*,#1695,.T.);
#1697=ORIENTED_EDGE('',*,*,#1630,.T.);
#1698=EDGE_LOOP('',(#1672,#1681,#1689,#1696,#1697));
#1699=FACE_OUTER_BOUND('',#1698,.T.);
#1700=ADVANCED_FACE('',(#1699),#1664,.T.);
#1701=CARTESIAN_POINT('',(-5.080000000000000,1.025746E-015,0.750000000000002));
#1702=DIRECTION('',(-3.906861E-016,-3.061516E-016,-1.0));
#1703=DIRECTION('',(0.0,1.0,0.0));
#1704=AXIS2_PLACEMENT_3D('',#1701,#1702,#1703);
#1705=CYLINDRICAL_SURFACE('',#1704,0.300000000000000);
#1706=CARTESIAN_POINT('',(-5.080000000000001,0.300000000000000,-3.199999999999999));
#1707=VERTEX_POINT('',#1706);
#1708=CARTESIAN_POINT('',(-5.080000000000000,0.300000000000001,0.750000000000002));
#1709=DIRECTION('',(0.0,0.0,-1.0));
#1710=VECTOR('',#1709,3.950000000000002);
#1711=LINE('',#1708,#1710);
#1712=EDGE_CURVE('',#1642,#1707,#1711,.T.);
#1713=ORIENTED_EDGE('',*,*,#1712,.F.);
#1714=ORIENTED_EDGE('',*,*,#1648,.F.);
#1715=CARTESIAN_POINT('',(-5.080000000000000,-0.299999999999999,0.750000000000002));
#1716=VERTEX_POINT('',#1715);
#1717=CARTESIAN_POINT('',(-5.080000000000000,1.025746E-015,0.750000000000002));
#1718=DIRECTION('',(0.0,0.0,1.0));
#1719=DIRECTION('',(0.0,1.0,0.0));
#1720=AXIS2_PLACEMENT_3D('',#1717,#1718,#1719);
#1721=CIRCLE('',#1720,0.300000000000000);
#1722=EDGE_CURVE('',#1716,#1633,#1721,.T.);
#1723=ORIENTED_EDGE('',*,*,#1722,.F.);
#1724=CARTESIAN_POINT('',(-5.080000000000002,-0.300000000000000,-3.199999999999998));
#1725=VERTEX_POINT('',#1724);
#1726=CARTESIAN_POINT('',(-5.080000000000002,-0.300000000000000,-3.199999999999998));
#1727=DIRECTION('',(0.0,0.0,1.0));
#1728=VECTOR('',#1727,3.950000000000001);
#1729=LINE('',#1726,#1728);
#1730=EDGE_CURVE('',#1725,#1716,#1729,.T.);
#1731=ORIENTED_EDGE('',*,*,#1730,.F.);
#1732=CARTESIAN_POINT('',(-5.080000000000001,-1.835532E-016,-3.199999999999998));
#1733=DIRECTION('',(0.0,0.0,1.0));
#1734=DIRECTION('',(0.0,1.0,0.0));
#1735=AXIS2_PLACEMENT_3D('',#1732,#1733,#1734);
#1736=CIRCLE('',#1735,0.300000000000000);
#1737=EDGE_CURVE('',#1725,#1707,#1736,.T.);
#1738=ORIENTED_EDGE('',*,*,#1737,.T.);
#1739=EDGE_LOOP('',(#1713,#1714,#1723,#1731,#1738));
#1740=FACE_OUTER_BOUND('',#1739,.T.);
#1741=ADVANCED_FACE('',(#1740),#1705,.T.);
#1742=CARTESIAN_POINT('',(-5.080000000000000,1.025746E-015,0.750000000000002));
#1743=DIRECTION('',(-3.906861E-016,-3.061516E-016,-1.0));
#1744=DIRECTION('',(0.0,1.0,0.0));
#1745=AXIS2_PLACEMENT_3D('',#1742,#1743,#1744);
#1746=CYLINDRICAL_SURFACE('',#1745,0.300000000000000);
#1747=ORIENTED_EDGE('',*,*,#1712,.T.);
#1748=CARTESIAN_POINT('',(-5.080000000000001,-1.835532E-016,-3.199999999999998));
#1749=DIRECTION('',(0.0,0.0,1.0));
#1750=DIRECTION('',(0.0,1.0,0.0));
#1751=AXIS2_PLACEMENT_3D('',#1748,#1749,#1750);
#1752=CIRCLE('',#1751,0.300000000000000);
#1753=EDGE_CURVE('',#1707,#1725,#1752,.T.);
#1754=ORIENTED_EDGE('',*,*,#1753,.T.);
#1755=ORIENTED_EDGE('',*,*,#1730,.T.);
#1756=CARTESIAN_POINT('',(-5.080000000000000,1.025746E-015,0.750000000000002));
#1757=DIRECTION('',(0.0,0.0,1.0));
#1758=DIRECTION('',(0.0,1.0,0.0));
#1759=AXIS2_PLACEMENT_3D('',#1756,#1757,#1758);
#1760=CIRCLE('',#1759,0.300000000000000);
#1761=EDGE_CURVE('',#1606,#1716,#1760,.T.);
#1762=ORIENTED_EDGE('',*,*,#1761,.F.);
#1763=ORIENTED_EDGE('',*,*,#1655,.F.);
#1764=EDGE_LOOP('',(#1747,#1754,#1755,#1762,#1763));
#1765=FACE_OUTER_BOUND('',#1764,.T.);
#1766=ADVANCED_FACE('',(#1765),#1746,.T.);
#1767=CARTESIAN_POINT('',(-4.580000000000000,9.951304E-016,0.750000000000002));
#1768=DIRECTION('',(-6.123032E-017,-1.0,3.061516E-016));
#1769=DIRECTION('',(1.0,0.0,0.0));
#1770=AXIS2_PLACEMENT_3D('',#1767,#1768,#1769);
#1771=TOROIDAL_SURFACE('',#1770,0.500000000000000,0.300000000000000);
#1772=ORIENTED_EDGE('',*,*,#1612,.T.);
#1773=ORIENTED_EDGE('',*,*,#1761,.T.);
#1774=ORIENTED_EDGE('',*,*,#1722,.T.);
#1775=ORIENTED_EDGE('',*,*,#1639,.T.);
#1776=ORIENTED_EDGE('',*,*,#1695,.F.);
#1777=CARTESIAN_POINT('',(-4.579999999999999,1.148206E-015,1.250000000000002));
#1778=DIRECTION('',(1.0,0.0,0.0));
#1779=DIRECTION('',(0.0,1.0,0.0));
#1780=AXIS2_PLACEMENT_3D('',#1777,#1778,#1779);
#1781=CIRCLE('',#1780,0.300000000000000);
#1782=EDGE_CURVE('',#1604,#1683,#1781,.T.);
#1783=ORIENTED_EDGE('',*,*,#1782,.F.);
#1784=EDGE_LOOP('',(#1772,#1773,#1774,#1775,#1776,#1783));
#1785=FACE_OUTER_BOUND('',#1784,.T.);
#1786=ADVANCED_FACE('',(#1785),#1771,.T.);
#1787=CARTESIAN_POINT('',(-3.150000000000000,1.060647E-015,1.250000000000002));
#1788=DIRECTION('',(-1.0,6.123032E-017,2.220446E-016));
#1789=DIRECTION('',(0.0,1.0,0.0));
#1790=AXIS2_PLACEMENT_3D('',#1787,#1788,#1789);
#1791=CYLINDRICAL_SURFACE('',#1790,0.300000000000000);
#1792=ORIENTED_EDGE('',*,*,#1671,.T.);
#1793=ORIENTED_EDGE('',*,*,#1621,.T.);
#1794=ORIENTED_EDGE('',*,*,#1782,.T.);
#1795=ORIENTED_EDGE('',*,*,#1688,.T.);
#1796=CARTESIAN_POINT('',(-3.150000000000000,1.060647E-015,1.250000000000002));
#1797=DIRECTION('',(1.0,0.0,0.0));
#1798=DIRECTION('',(0.0,1.0,0.0));
#1799=AXIS2_PLACEMENT_3D('',#1796,#1797,#1798);
#1800=CIRCLE('',#1799,0.300000000000000);
#1801=EDGE_CURVE('',#1666,#1674,#1800,.T.);
#1802=ORIENTED_EDGE('',*,*,#1801,.F.);
#1803=EDGE_LOOP('',(#1792,#1793,#1794,#1795,#1802));
#1804=FACE_OUTER_BOUND('',#1803,.T.);
#1805=ADVANCED_FACE('',(#1804),#1791,.T.);
#1806=CARTESIAN_POINT('',(-5.080000000000001,-1.835532E-016,-3.199999999999998));
#1807=DIRECTION('',(0.0,0.0,1.0));
#1808=DIRECTION('',(1.0,0.0,0.0));
#1809=AXIS2_PLACEMENT_3D('',#1806,#1807,#1808);
#1810=PLANE('',#1809);
#1811=ORIENTED_EDGE('',*,*,#1753,.F.);
#1812=ORIENTED_EDGE('',*,*,#1737,.F.);
#1813=EDGE_LOOP('',(#1811,#1812));
#1814=FACE_OUTER_BOUND('',#1813,.T.);
#1815=ADVANCED_FACE('',(#1814),#1810,.F.);
#1816=CARTESIAN_POINT('',(-3.150000000000000,1.060647E-015,1.250000000000002));
#1817=DIRECTION('',(1.0,0.0,0.0));
#1818=DIRECTION('',(0.0,1.0,0.0));
#1819=AXIS2_PLACEMENT_3D('',#1816,#1817,#1818);
#1820=PLANE('',#1819);
#1821=ORIENTED_EDGE('',*,*,#1801,.T.);
#1822=ORIENTED_EDGE('',*,*,#1680,.T.);
#1823=EDGE_LOOP('',(#1821,#1822));
#1824=FACE_OUTER_BOUND('',#1823,.T.);
#1825=ADVANCED_FACE('',(#1824),#1820,.T.);
#1826=CLOSED_SHELL('',(#1659,#1700,#1741,#1766,#1786,#1805,#1815,#1825));
#1827=MANIFOLD_SOLID_BREP('A5',#1826);
#1828=STYLED_ITEM('NONE',(#1596),#1827);
#1829=ADVANCED_BREP_SHAPE_REPRESENTATION('ABSR1',(#696,#794,#890,#986,#1082,#1178,#1589,#1827),#28);
#1830=SHAPE_REPRESENTATION_RELATIONSHIP('SRRPL1','',#1829,#62);
ENDSEC;
END-ISO-10303-21;
