ISO-10303-21;
HEADER;
/****************************************************************
 * Generated by software with PDE/Lib inside                    *
 * PDElib Version v51a, created Mon 11/03/2008                  *
 * International Technegroup Inc. (www.iti-oh.com)              *
 ****************************************************************/
FILE_DESCRIPTION((''),'2;1');
FILE_NAME('RES2200-1826X764.stp','2010-04-15T14:28:40',(''),(''),'Mechanical Desktop 2010','Mechanical Desktop 2010',', , ');
FILE_SCHEMA(('AUTOMOTIVE_DESIGN { 1 2 10303 214 1 1 1 1 }'));
ENDSEC;
DATA;
#8=(NAMED_UNIT(*)PLANE_ANGLE_UNIT()SI_UNIT($,.RADIAN.));
#9=DIMENSIONAL_EXPONENTS(0.0,0.0,0.0,0.0,0.0,0.0,0.0);
#10=PLANE_ANGLE_MEASURE_WITH_UNIT(PLANE_ANGLE_MEASURE(0.017453292500000),#8);
#14=(CONVERSION_BASED_UNIT('DEGREE',#10)NAMED_UNIT(#9)PLANE_ANGLE_UNIT());
#18=(NAMED_UNIT(*)SI_UNIT($,.STERADIAN.)SOLID_ANGLE_UNIT());
#22=(LENGTH_UNIT()NAMED_UNIT(*)SI_UNIT(.MILLI.,.METRE.));
#23=UNCERTAINTY_MEASURE_WITH_UNIT(LENGTH_MEASURE(0.000001000000000),#22,'DISTANCE_ACCURACY_VALUE','');
#28=(GEOMETRIC_REPRESENTATION_CONTEXT(3)GLOBAL_UNCERTAINTY_ASSIGNED_CONTEXT((#23))GLOBAL_UNIT_ASSIGNED_CONTEXT((#14,#18,#22))REPRESENTATION_CONTEXT('None','None'));
#29=APPLICATION_CONTEXT('automotive design');
#30=APPLICATION_PROTOCOL_DEFINITION('INTERNATIONAL_STANDARD','automotive_design',1998,#29);
#31=PRODUCT_CONTEXT('3D Mechanical Parts',#29,'mechanical');
#32=PRODUCT('Product','Product','',(#31));
#33=PRODUCT_RELATED_PRODUCT_CATEGORY('part',$,(#32));
#34=PRODUCT_CATEGORY('part',$);
#35=PERSON('1','Design','Joe',$,$,$);
#36=ORGANIZATION($,'None','None');
#37=PERSON_AND_ORGANIZATION(#35,#36);
#38=PERSON_AND_ORGANIZATION_ROLE('design_owner');
#39=APPLIED_PERSON_AND_ORGANIZATION_ASSIGNMENT(#37,#38,(#32));
#40=PRODUCT_DEFINITION_FORMATION_WITH_SPECIFIED_SOURCE('None','',#32,.BOUGHT.);
#41=PERSON('2','Creator','Joe',$,$,$);
#42=ORGANIZATION($,'None','None');
#43=PERSON_AND_ORGANIZATION(#41,#42);
#44=PERSON_AND_ORGANIZATION_ROLE('creator');
#45=APPLIED_PERSON_AND_ORGANIZATION_ASSIGNMENT(#43,#44,(#40));
#46=PERSON('3','Supplier','Joe',$,$,$);
#47=ORGANIZATION($,'None','None');
#48=PERSON_AND_ORGANIZATION(#46,#47);
#49=PERSON_AND_ORGANIZATION_ROLE('design_supplier');
#50=APPLIED_PERSON_AND_ORGANIZATION_ASSIGNMENT(#48,#49,(#40));
#51=PRODUCT_DEFINITION_CONTEXT('part definition',#29,'design');
#52=PRODUCT_DEFINITION('None','',#40,#51);
#53=PERSON('4','Creator','Joe',$,$,$);
#54=ORGANIZATION($,'None','None');
#55=PERSON_AND_ORGANIZATION(#53,#54);
#56=PERSON_AND_ORGANIZATION_ROLE('creator');
#57=APPLIED_PERSON_AND_ORGANIZATION_ASSIGNMENT(#55,#56,(#52));
#58=CARTESIAN_POINT('NONE',(0.0,0.0,0.0));
#59=DIRECTION('NONE',(0.0,0.0,1.0));
#60=DIRECTION('NONE',(1.0,0.0,0.0));
#61=AXIS2_PLACEMENT_3D('NONE',#58,#59,#60);
#62=SHAPE_REPRESENTATION('SR1',(#61),#28);
#63=PRODUCT_DEFINITION_SHAPE('PDS1','Test Part',#52);
#64=SHAPE_DEFINITION_REPRESENTATION(#63,#62);
#65=CARTESIAN_POINT('',(-0.730000000000000,0.0,3.830000000000001));
#66=DIRECTION('',(1.0,0.0,3.700743E-016));
#67=DIRECTION('',(0.0,1.0,0.0));
#68=AXIS2_PLACEMENT_3D('',#65,#66,#67);
#69=CYLINDRICAL_SURFACE('',#68,3.820000000000000);
#70=CARTESIAN_POINT('',(0.470000000000000,3.820000000000000,3.830000000000001));
#71=VERTEX_POINT('',#70);
#72=CARTESIAN_POINT('',(-0.730000000000000,3.820000000000000,3.830000000000001));
#73=VERTEX_POINT('',#72);
#74=CARTESIAN_POINT('',(0.470000000000000,3.820000000000000,3.830000000000001));
#75=DIRECTION('',(-1.0,0.0,0.0));
#76=VECTOR('',#75,1.200000000000000);
#77=LINE('',#74,#76);
#78=EDGE_CURVE('',#71,#73,#77,.T.);
#79=ORIENTED_EDGE('',*,*,#78,.F.);
#80=CARTESIAN_POINT('',(0.470000000000000,-3.820000000000000,3.830000000000001));
#81=VERTEX_POINT('',#80);
#82=CARTESIAN_POINT('',(0.470000000000000,0.0,3.830000000000001));
#83=DIRECTION('',(-1.0,0.0,0.0));
#84=DIRECTION('',(0.0,1.0,0.0));
#85=AXIS2_PLACEMENT_3D('',#82,#83,#84);
#86=CIRCLE('',#85,3.820000000000000);
#87=EDGE_CURVE('',#71,#81,#86,.T.);
#88=ORIENTED_EDGE('',*,*,#87,.T.);
#89=CARTESIAN_POINT('',(-0.730000000000000,-3.820000000000000,3.830000000000001));
#90=VERTEX_POINT('',#89);
#91=CARTESIAN_POINT('',(0.470000000000000,-3.820000000000000,3.830000000000001));
#92=DIRECTION('',(-1.0,0.0,0.0));
#93=VECTOR('',#92,1.200000000000000);
#94=LINE('',#91,#93);
#95=EDGE_CURVE('',#81,#90,#94,.T.);
#96=ORIENTED_EDGE('',*,*,#95,.T.);
#97=CARTESIAN_POINT('',(-0.730000000000000,0.0,3.830000000000001));
#98=DIRECTION('',(1.0,0.0,0.0));
#99=DIRECTION('',(0.0,1.0,0.0));
#100=AXIS2_PLACEMENT_3D('',#97,#98,#99);
#101=CIRCLE('',#100,3.820000000000000);
#102=EDGE_CURVE('',#90,#73,#101,.T.);
#103=ORIENTED_EDGE('',*,*,#102,.T.);
#104=EDGE_LOOP('',(#79,#88,#96,#103));
#105=FACE_OUTER_BOUND('',#104,.T.);
#106=ADVANCED_FACE('',(#105),#69,.T.);
#107=CARTESIAN_POINT('',(-0.730000000000000,0.0,3.830000000000001));
#108=DIRECTION('',(1.0,0.0,3.700743E-016));
#109=DIRECTION('',(0.0,1.0,0.0));
#110=AXIS2_PLACEMENT_3D('',#107,#108,#109);
#111=CYLINDRICAL_SURFACE('',#110,3.820000000000000);
#112=ORIENTED_EDGE('',*,*,#78,.T.);
#113=CARTESIAN_POINT('',(-0.730000000000000,0.0,3.830000000000001));
#114=DIRECTION('',(1.0,0.0,0.0));
#115=DIRECTION('',(0.0,1.0,0.0));
#116=AXIS2_PLACEMENT_3D('',#113,#114,#115);
#117=CIRCLE('',#116,3.820000000000000);
#118=EDGE_CURVE('',#73,#90,#117,.T.);
#119=ORIENTED_EDGE('',*,*,#118,.T.);
#120=ORIENTED_EDGE('',*,*,#95,.F.);
#121=CARTESIAN_POINT('',(0.470000000000000,0.0,3.830000000000001));
#122=DIRECTION('',(-1.0,0.0,0.0));
#123=DIRECTION('',(0.0,1.0,0.0));
#124=AXIS2_PLACEMENT_3D('',#121,#122,#123);
#125=CIRCLE('',#124,3.820000000000000);
#126=EDGE_CURVE('',#81,#71,#125,.T.);
#127=ORIENTED_EDGE('',*,*,#126,.T.);
#128=EDGE_LOOP('',(#112,#119,#120,#127));
#129=FACE_OUTER_BOUND('',#128,.T.);
#130=ADVANCED_FACE('',(#129),#111,.T.);
#131=CARTESIAN_POINT('',(-0.730000000000000,0.0,3.830000000000001));
#132=DIRECTION('',(1.0,0.0,0.0));
#133=DIRECTION('',(0.0,0.0,-1.0));
#134=AXIS2_PLACEMENT_3D('',#131,#132,#133);
#135=PLANE('',#134);
#136=ORIENTED_EDGE('',*,*,#118,.F.);
#137=ORIENTED_EDGE('',*,*,#102,.F.);
#138=EDGE_LOOP('',(#136,#137));
#139=FACE_OUTER_BOUND('',#138,.T.);
#140=ADVANCED_FACE('',(#139),#135,.F.);
#141=CARTESIAN_POINT('',(0.470000000000000,0.0,3.830000000000001));
#142=DIRECTION('',(1.0,0.0,0.0));
#143=DIRECTION('',(0.0,0.0,-1.0));
#144=AXIS2_PLACEMENT_3D('',#141,#142,#143);
#145=PLANE('',#144);
#146=ORIENTED_EDGE('',*,*,#87,.F.);
#147=ORIENTED_EDGE('',*,*,#126,.F.);
#148=EDGE_LOOP('',(#146,#147));
#149=FACE_OUTER_BOUND('',#148,.T.);
#150=ADVANCED_FACE('',(#149),#145,.T.);
#151=CLOSED_SHELL('',(#106,#130,#140,#150));
#152=MANIFOLD_SOLID_BREP('5EE',#151);
#153=COLOUR_RGB('42',0.650000000000000,0.487500000000000,0.0);
#154=SURFACE_STYLE_USAGE(.BOTH.,#155);
#155=SURFACE_SIDE_STYLE('NONE',(#156));
#156=SURFACE_STYLE_FILL_AREA(#157);
#157=FILL_AREA_STYLE('NONE',(#158));
#158=FILL_AREA_STYLE_COLOUR('NONE',#153);
#159=PRESENTATION_STYLE_ASSIGNMENT((#154));
#160=STYLED_ITEM('NONE',(#159),#152);
#161=MECHANICAL_DESIGN_GEOMETRIC_PRESENTATION_REPRESENTATION('NONE',(#160,#258,#354,#450,#868,#964,#1053,#1142,#1231,#1320,#1551,#1562,#1569,#1576,#1583),#28);
#162=PRESENTATION_LAYER_ASSIGNMENT('3D','None',(#152,#250,#346,#442,#860,#956,#1052,#1141,#1230,#1319,#1550,#1557,#1568,#1575,#1582));
#163=CARTESIAN_POINT('',(-5.529999999999999,0.0,3.830000000000001));
#164=DIRECTION('',(1.0,0.0,3.700743E-016));
#165=DIRECTION('',(0.0,1.0,0.0));
#166=AXIS2_PLACEMENT_3D('',#163,#164,#165);
#167=CYLINDRICAL_SURFACE('',#166,3.820000000000000);
#168=CARTESIAN_POINT('',(-4.330000000000000,3.820000000000000,3.830000000000001));
#169=VERTEX_POINT('',#168);
#170=CARTESIAN_POINT('',(-5.529999999999999,3.820000000000000,3.830000000000001));
#171=VERTEX_POINT('',#170);
#172=CARTESIAN_POINT('',(-4.330000000000000,3.820000000000000,3.830000000000001));
#173=DIRECTION('',(-1.0,0.0,0.0));
#174=VECTOR('',#173,1.199999999999999);
#175=LINE('',#172,#174);
#176=EDGE_CURVE('',#169,#171,#175,.T.);
#177=ORIENTED_EDGE('',*,*,#176,.F.);
#178=CARTESIAN_POINT('',(-4.330000000000000,-3.820000000000000,3.830000000000001));
#179=VERTEX_POINT('',#178);
#180=CARTESIAN_POINT('',(-4.330000000000000,0.0,3.830000000000001));
#181=DIRECTION('',(-1.0,0.0,0.0));
#182=DIRECTION('',(0.0,1.0,0.0));
#183=AXIS2_PLACEMENT_3D('',#180,#181,#182);
#184=CIRCLE('',#183,3.820000000000000);
#185=EDGE_CURVE('',#169,#179,#184,.T.);
#186=ORIENTED_EDGE('',*,*,#185,.T.);
#187=CARTESIAN_POINT('',(-5.529999999999999,-3.820000000000000,3.830000000000001));
#188=VERTEX_POINT('',#187);
#189=CARTESIAN_POINT('',(-4.330000000000000,-3.820000000000000,3.830000000000001));
#190=DIRECTION('',(-1.0,0.0,0.0));
#191=VECTOR('',#190,1.199999999999999);
#192=LINE('',#189,#191);
#193=EDGE_CURVE('',#179,#188,#192,.T.);
#194=ORIENTED_EDGE('',*,*,#193,.T.);
#195=CARTESIAN_POINT('',(-5.529999999999999,0.0,3.830000000000001));
#196=DIRECTION('',(1.0,0.0,0.0));
#197=DIRECTION('',(0.0,1.0,0.0));
#198=AXIS2_PLACEMENT_3D('',#195,#196,#197);
#199=CIRCLE('',#198,3.820000000000000);
#200=EDGE_CURVE('',#188,#171,#199,.T.);
#201=ORIENTED_EDGE('',*,*,#200,.T.);
#202=EDGE_LOOP('',(#177,#186,#194,#201));
#203=FACE_OUTER_BOUND('',#202,.T.);
#204=ADVANCED_FACE('',(#203),#167,.T.);
#205=CARTESIAN_POINT('',(-5.529999999999999,0.0,3.830000000000001));
#206=DIRECTION('',(1.0,0.0,3.700743E-016));
#207=DIRECTION('',(0.0,1.0,0.0));
#208=AXIS2_PLACEMENT_3D('',#205,#206,#207);
#209=CYLINDRICAL_SURFACE('',#208,3.820000000000000);
#210=ORIENTED_EDGE('',*,*,#176,.T.);
#211=CARTESIAN_POINT('',(-5.529999999999999,0.0,3.830000000000001));
#212=DIRECTION('',(1.0,0.0,0.0));
#213=DIRECTION('',(0.0,1.0,0.0));
#214=AXIS2_PLACEMENT_3D('',#211,#212,#213);
#215=CIRCLE('',#214,3.820000000000000);
#216=EDGE_CURVE('',#171,#188,#215,.T.);
#217=ORIENTED_EDGE('',*,*,#216,.T.);
#218=ORIENTED_EDGE('',*,*,#193,.F.);
#219=CARTESIAN_POINT('',(-4.330000000000000,0.0,3.830000000000001));
#220=DIRECTION('',(-1.0,0.0,0.0));
#221=DIRECTION('',(0.0,1.0,0.0));
#222=AXIS2_PLACEMENT_3D('',#219,#220,#221);
#223=CIRCLE('',#222,3.820000000000000);
#224=EDGE_CURVE('',#179,#169,#223,.T.);
#225=ORIENTED_EDGE('',*,*,#224,.T.);
#226=EDGE_LOOP('',(#210,#217,#218,#225));
#227=FACE_OUTER_BOUND('',#226,.T.);
#228=ADVANCED_FACE('',(#227),#209,.T.);
#229=CARTESIAN_POINT('',(-5.529999999999999,0.0,3.830000000000001));
#230=DIRECTION('',(1.0,0.0,0.0));
#231=DIRECTION('',(0.0,0.0,-1.0));
#232=AXIS2_PLACEMENT_3D('',#229,#230,#231);
#233=PLANE('',#232);
#234=ORIENTED_EDGE('',*,*,#216,.F.);
#235=ORIENTED_EDGE('',*,*,#200,.F.);
#236=EDGE_LOOP('',(#234,#235));
#237=FACE_OUTER_BOUND('',#236,.T.);
#238=ADVANCED_FACE('',(#237),#233,.F.);
#239=CARTESIAN_POINT('',(-4.330000000000000,0.0,3.830000000000001));
#240=DIRECTION('',(1.0,0.0,0.0));
#241=DIRECTION('',(0.0,0.0,-1.0));
#242=AXIS2_PLACEMENT_3D('',#239,#240,#241);
#243=PLANE('',#242);
#244=ORIENTED_EDGE('',*,*,#185,.F.);
#245=ORIENTED_EDGE('',*,*,#224,.F.);
#246=EDGE_LOOP('',(#244,#245));
#247=FACE_OUTER_BOUND('',#246,.T.);
#248=ADVANCED_FACE('',(#247),#243,.T.);
#249=CLOSED_SHELL('',(#204,#228,#238,#248));
#250=MANIFOLD_SOLID_BREP('5E6',#249);
#251=COLOUR_RGB('183',0.406250000000000,0.325000000000000,0.650000000000000);
#252=SURFACE_STYLE_USAGE(.BOTH.,#253);
#253=SURFACE_SIDE_STYLE('NONE',(#254));
#254=SURFACE_STYLE_FILL_AREA(#255);
#255=FILL_AREA_STYLE('NONE',(#256));
#256=FILL_AREA_STYLE_COLOUR('NONE',#251);
#257=PRESENTATION_STYLE_ASSIGNMENT((#252));
#258=STYLED_ITEM('NONE',(#257),#250);
#259=CARTESIAN_POINT('',(-3.130000000000001,0.0,3.830000000000001));
#260=DIRECTION('',(1.0,0.0,3.700743E-016));
#261=DIRECTION('',(0.0,1.0,0.0));
#262=AXIS2_PLACEMENT_3D('',#259,#260,#261);
#263=CYLINDRICAL_SURFACE('',#262,3.820000000000000);
#264=CARTESIAN_POINT('',(-1.930000000000001,3.820000000000000,3.830000000000001));
#265=VERTEX_POINT('',#264);
#266=CARTESIAN_POINT('',(-3.130000000000001,3.820000000000000,3.830000000000001));
#267=VERTEX_POINT('',#266);
#268=CARTESIAN_POINT('',(-1.930000000000001,3.820000000000000,3.830000000000001));
#269=DIRECTION('',(-1.0,0.0,0.0));
#270=VECTOR('',#269,1.200000000000000);
#271=LINE('',#268,#270);
#272=EDGE_CURVE('',#265,#267,#271,.T.);
#273=ORIENTED_EDGE('',*,*,#272,.F.);
#274=CARTESIAN_POINT('',(-1.930000000000001,-3.820000000000000,3.830000000000001));
#275=VERTEX_POINT('',#274);
#276=CARTESIAN_POINT('',(-1.930000000000001,0.0,3.830000000000001));
#277=DIRECTION('',(-1.0,0.0,0.0));
#278=DIRECTION('',(0.0,1.0,0.0));
#279=AXIS2_PLACEMENT_3D('',#276,#277,#278);
#280=CIRCLE('',#279,3.820000000000000);
#281=EDGE_CURVE('',#265,#275,#280,.T.);
#282=ORIENTED_EDGE('',*,*,#281,.T.);
#283=CARTESIAN_POINT('',(-3.130000000000001,-3.820000000000000,3.830000000000001));
#284=VERTEX_POINT('',#283);
#285=CARTESIAN_POINT('',(-1.930000000000001,-3.820000000000000,3.830000000000001));
#286=DIRECTION('',(-1.0,0.0,0.0));
#287=VECTOR('',#286,1.200000000000000);
#288=LINE('',#285,#287);
#289=EDGE_CURVE('',#275,#284,#288,.T.);
#290=ORIENTED_EDGE('',*,*,#289,.T.);
#291=CARTESIAN_POINT('',(-3.130000000000001,0.0,3.830000000000001));
#292=DIRECTION('',(1.0,0.0,0.0));
#293=DIRECTION('',(0.0,1.0,0.0));
#294=AXIS2_PLACEMENT_3D('',#291,#292,#293);
#295=CIRCLE('',#294,3.820000000000000);
#296=EDGE_CURVE('',#284,#267,#295,.T.);
#297=ORIENTED_EDGE('',*,*,#296,.T.);
#298=EDGE_LOOP('',(#273,#282,#290,#297));
#299=FACE_OUTER_BOUND('',#298,.T.);
#300=ADVANCED_FACE('',(#299),#263,.T.);
#301=CARTESIAN_POINT('',(-3.130000000000001,0.0,3.830000000000001));
#302=DIRECTION('',(1.0,0.0,3.700743E-016));
#303=DIRECTION('',(0.0,1.0,0.0));
#304=AXIS2_PLACEMENT_3D('',#301,#302,#303);
#305=CYLINDRICAL_SURFACE('',#304,3.820000000000000);
#306=ORIENTED_EDGE('',*,*,#272,.T.);
#307=CARTESIAN_POINT('',(-3.130000000000001,0.0,3.830000000000001));
#308=DIRECTION('',(1.0,0.0,0.0));
#309=DIRECTION('',(0.0,1.0,0.0));
#310=AXIS2_PLACEMENT_3D('',#307,#308,#309);
#311=CIRCLE('',#310,3.820000000000000);
#312=EDGE_CURVE('',#267,#284,#311,.T.);
#313=ORIENTED_EDGE('',*,*,#312,.T.);
#314=ORIENTED_EDGE('',*,*,#289,.F.);
#315=CARTESIAN_POINT('',(-1.930000000000001,0.0,3.830000000000001));
#316=DIRECTION('',(-1.0,0.0,0.0));
#317=DIRECTION('',(0.0,1.0,0.0));
#318=AXIS2_PLACEMENT_3D('',#315,#316,#317);
#319=CIRCLE('',#318,3.820000000000000);
#320=EDGE_CURVE('',#275,#265,#319,.T.);
#321=ORIENTED_EDGE('',*,*,#320,.T.);
#322=EDGE_LOOP('',(#306,#313,#314,#321));
#323=FACE_OUTER_BOUND('',#322,.T.);
#324=ADVANCED_FACE('',(#323),#305,.T.);
#325=CARTESIAN_POINT('',(-3.130000000000001,0.0,3.830000000000001));
#326=DIRECTION('',(1.0,0.0,0.0));
#327=DIRECTION('',(0.0,0.0,-1.0));
#328=AXIS2_PLACEMENT_3D('',#325,#326,#327);
#329=PLANE('',#328);
#330=ORIENTED_EDGE('',*,*,#312,.F.);
#331=ORIENTED_EDGE('',*,*,#296,.F.);
#332=EDGE_LOOP('',(#330,#331));
#333=FACE_OUTER_BOUND('',#332,.T.);
#334=ADVANCED_FACE('',(#333),#329,.F.);
#335=CARTESIAN_POINT('',(-1.930000000000001,0.0,3.830000000000001));
#336=DIRECTION('',(1.0,0.0,0.0));
#337=DIRECTION('',(0.0,0.0,-1.0));
#338=AXIS2_PLACEMENT_3D('',#335,#336,#337);
#339=PLANE('',#338);
#340=ORIENTED_EDGE('',*,*,#281,.F.);
#341=ORIENTED_EDGE('',*,*,#320,.F.);
#342=EDGE_LOOP('',(#340,#341));
#343=FACE_OUTER_BOUND('',#342,.T.);
#344=ADVANCED_FACE('',(#343),#339,.T.);
#345=CLOSED_SHELL('',(#300,#324,#334,#344));
#346=MANIFOLD_SOLID_BREP('5D4',#345);
#347=COLOUR_RGB('30',1.0,0.500000000000000,0.0);
#348=SURFACE_STYLE_USAGE(.BOTH.,#349);
#349=SURFACE_SIDE_STYLE('NONE',(#350));
#350=SURFACE_STYLE_FILL_AREA(#351);
#351=FILL_AREA_STYLE('NONE',(#352));
#352=FILL_AREA_STYLE_COLOUR('NONE',#347);
#353=PRESENTATION_STYLE_ASSIGNMENT((#348));
#354=STYLED_ITEM('NONE',(#353),#346);
#355=CARTESIAN_POINT('',(-7.930000000000001,0.0,3.830000000000000));
#356=DIRECTION('',(1.0,0.0,3.700743E-016));
#357=DIRECTION('',(0.0,1.0,0.0));
#358=AXIS2_PLACEMENT_3D('',#355,#356,#357);
#359=CYLINDRICAL_SURFACE('',#358,3.820000000000000);
#360=CARTESIAN_POINT('',(-6.730000000000000,3.820000000000000,3.830000000000001));
#361=VERTEX_POINT('',#360);
#362=CARTESIAN_POINT('',(-7.930000000000001,3.820000000000000,3.830000000000000));
#363=VERTEX_POINT('',#362);
#364=CARTESIAN_POINT('',(-6.730000000000000,3.820000000000000,3.830000000000001));
#365=DIRECTION('',(-1.0,0.0,0.0));
#366=VECTOR('',#365,1.200000000000000);
#367=LINE('',#364,#366);
#368=EDGE_CURVE('',#361,#363,#367,.T.);
#369=ORIENTED_EDGE('',*,*,#368,.F.);
#370=CARTESIAN_POINT('',(-6.730000000000000,-3.820000000000000,3.830000000000000));
#371=VERTEX_POINT('',#370);
#372=CARTESIAN_POINT('',(-6.730000000000000,0.0,3.830000000000001));
#373=DIRECTION('',(-1.0,0.0,0.0));
#374=DIRECTION('',(0.0,1.0,0.0));
#375=AXIS2_PLACEMENT_3D('',#372,#373,#374);
#376=CIRCLE('',#375,3.820000000000000);
#377=EDGE_CURVE('',#361,#371,#376,.T.);
#378=ORIENTED_EDGE('',*,*,#377,.T.);
#379=CARTESIAN_POINT('',(-7.930000000000001,-3.820000000000000,3.830000000000000));
#380=VERTEX_POINT('',#379);
#381=CARTESIAN_POINT('',(-6.730000000000000,-3.820000000000000,3.830000000000000));
#382=DIRECTION('',(-1.0,0.0,0.0));
#383=VECTOR('',#382,1.200000000000000);
#384=LINE('',#381,#383);
#385=EDGE_CURVE('',#371,#380,#384,.T.);
#386=ORIENTED_EDGE('',*,*,#385,.T.);
#387=CARTESIAN_POINT('',(-7.930000000000001,0.0,3.830000000000000));
#388=DIRECTION('',(1.0,0.0,0.0));
#389=DIRECTION('',(0.0,1.0,0.0));
#390=AXIS2_PLACEMENT_3D('',#387,#388,#389);
#391=CIRCLE('',#390,3.820000000000000);
#392=EDGE_CURVE('',#380,#363,#391,.T.);
#393=ORIENTED_EDGE('',*,*,#392,.T.);
#394=EDGE_LOOP('',(#369,#378,#386,#393));
#395=FACE_OUTER_BOUND('',#394,.T.);
#396=ADVANCED_FACE('',(#395),#359,.T.);
#397=CARTESIAN_POINT('',(-7.930000000000001,0.0,3.830000000000000));
#398=DIRECTION('',(1.0,0.0,3.700743E-016));
#399=DIRECTION('',(0.0,1.0,0.0));
#400=AXIS2_PLACEMENT_3D('',#397,#398,#399);
#401=CYLINDRICAL_SURFACE('',#400,3.820000000000000);
#402=ORIENTED_EDGE('',*,*,#368,.T.);
#403=CARTESIAN_POINT('',(-7.930000000000001,0.0,3.830000000000000));
#404=DIRECTION('',(1.0,0.0,0.0));
#405=DIRECTION('',(0.0,1.0,0.0));
#406=AXIS2_PLACEMENT_3D('',#403,#404,#405);
#407=CIRCLE('',#406,3.820000000000000);
#408=EDGE_CURVE('',#363,#380,#407,.T.);
#409=ORIENTED_EDGE('',*,*,#408,.T.);
#410=ORIENTED_EDGE('',*,*,#385,.F.);
#411=CARTESIAN_POINT('',(-6.730000000000000,0.0,3.830000000000001));
#412=DIRECTION('',(-1.0,0.0,0.0));
#413=DIRECTION('',(0.0,1.0,0.0));
#414=AXIS2_PLACEMENT_3D('',#411,#412,#413);
#415=CIRCLE('',#414,3.820000000000000);
#416=EDGE_CURVE('',#371,#361,#415,.T.);
#417=ORIENTED_EDGE('',*,*,#416,.T.);
#418=EDGE_LOOP('',(#402,#409,#410,#417));
#419=FACE_OUTER_BOUND('',#418,.T.);
#420=ADVANCED_FACE('',(#419),#401,.T.);
#421=CARTESIAN_POINT('',(-7.930000000000001,0.0,3.830000000000000));
#422=DIRECTION('',(1.0,0.0,0.0));
#423=DIRECTION('',(0.0,0.0,-1.0));
#424=AXIS2_PLACEMENT_3D('',#421,#422,#423);
#425=PLANE('',#424);
#426=ORIENTED_EDGE('',*,*,#408,.F.);
#427=ORIENTED_EDGE('',*,*,#392,.F.);
#428=EDGE_LOOP('',(#426,#427));
#429=FACE_OUTER_BOUND('',#428,.T.);
#430=ADVANCED_FACE('',(#429),#425,.F.);
#431=CARTESIAN_POINT('',(-6.730000000000000,0.0,3.830000000000001));
#432=DIRECTION('',(1.0,0.0,0.0));
#433=DIRECTION('',(0.0,0.0,-1.0));
#434=AXIS2_PLACEMENT_3D('',#431,#432,#433);
#435=PLANE('',#434);
#436=ORIENTED_EDGE('',*,*,#377,.F.);
#437=ORIENTED_EDGE('',*,*,#416,.F.);
#438=EDGE_LOOP('',(#436,#437));
#439=FACE_OUTER_BOUND('',#438,.T.);
#440=ADVANCED_FACE('',(#439),#435,.T.);
#441=CLOSED_SHELL('',(#396,#420,#430,#440));
#442=MANIFOLD_SOLID_BREP('5CC',#441);
#443=DRAUGHTING_PRE_DEFINED_COLOUR('red');
#444=SURFACE_STYLE_USAGE(.BOTH.,#445);
#445=SURFACE_SIDE_STYLE('NONE',(#446));
#446=SURFACE_STYLE_FILL_AREA(#447);
#447=FILL_AREA_STYLE('NONE',(#448));
#448=FILL_AREA_STYLE_COLOUR('NONE',#443);
#449=PRESENTATION_STYLE_ASSIGNMENT((#444));
#450=STYLED_ITEM('NONE',(#449),#442);
#451=CARTESIAN_POINT('',(10.100000000000001,-3.262015E-016,3.230000000000000));
#452=CARTESIAN_POINT('',(10.100000000000001,0.600000000000000,3.230000000000000));
#453=CARTESIAN_POINT('',(10.100000000000001,0.600000000000000,3.830000000000001));
#454=CARTESIAN_POINT('',(10.100000000000001,0.600000000000000,4.430000000000001));
#455=CARTESIAN_POINT('',(10.100000000000001,-1.998401E-016,4.430000000000001));
#456=CARTESIAN_POINT('',(10.400000000000000,-3.262015E-016,3.230000000000000));
#457=CARTESIAN_POINT('',(10.400000000000000,0.600000000000000,3.230000000000000));
#458=CARTESIAN_POINT('',(11.000000000000002,0.600000000000000,3.830000000000000));
#459=CARTESIAN_POINT('',(11.600000000000001,0.600000000000000,4.430000000000000));
#460=CARTESIAN_POINT('',(11.600000000000001,-1.998401E-016,4.430000000000000));
#461=CARTESIAN_POINT('',(10.400000000000002,-3.928149E-016,2.930000000000001));
#462=CARTESIAN_POINT('',(10.400000000000000,0.600000000000000,2.930000000000001));
#463=CARTESIAN_POINT('',(11.000000000000002,0.600000000000000,2.930000000000001));
#464=CARTESIAN_POINT('',(11.600000000000001,0.600000000000000,2.930000000000001));
#465=CARTESIAN_POINT('',(11.600000000000001,-5.329071E-016,2.930000000000001));
#466=CARTESIAN_POINT('',(10.400000000000000,-4.594282E-016,2.630000000000001));
#467=CARTESIAN_POINT('',(10.400000000000000,0.600000000000000,2.630000000000001));
#468=CARTESIAN_POINT('',(11.000000000000002,0.600000000000000,2.030000000000001));
#469=CARTESIAN_POINT('',(11.600000000000001,0.600000000000000,1.430000000000001));
#470=CARTESIAN_POINT('',(11.600000000000001,-8.659740E-016,1.430000000000001));
#471=CARTESIAN_POINT('',(10.100000000000001,-4.594282E-016,2.630000000000001));
#472=CARTESIAN_POINT('',(10.100000000000001,0.600000000000000,2.630000000000001));
#473=CARTESIAN_POINT('',(10.100000000000001,0.600000000000000,2.030000000000001));
#474=CARTESIAN_POINT('',(10.100000000000001,0.600000000000000,1.430000000000001));
#475=CARTESIAN_POINT('',(10.100000000000001,-8.659740E-016,1.430000000000001));
#476=CARTESIAN_POINT('',(9.800000000000003,-4.594282E-016,2.630000000000001));
#477=CARTESIAN_POINT('',(9.800000000000003,0.600000000000000,2.630000000000001));
#478=CARTESIAN_POINT('',(9.200000000000001,0.600000000000000,2.030000000000001));
#479=CARTESIAN_POINT('',(8.600000000000001,0.600000000000000,1.430000000000001));
#480=CARTESIAN_POINT('',(8.600000000000001,-8.659740E-016,1.430000000000001));
#481=CARTESIAN_POINT('',(9.800000000000001,-3.928149E-016,2.930000000000001));
#482=CARTESIAN_POINT('',(9.800000000000003,0.600000000000000,2.930000000000001));
#483=CARTESIAN_POINT('',(9.200000000000001,0.600000000000000,2.930000000000001));
#484=CARTESIAN_POINT('',(8.600000000000001,0.600000000000000,2.930000000000001));
#485=CARTESIAN_POINT('',(8.600000000000001,-5.329071E-016,2.930000000000001));
#486=CARTESIAN_POINT('',(9.800000000000003,-3.262015E-016,3.230000000000000));
#487=CARTESIAN_POINT('',(9.800000000000003,0.600000000000000,3.230000000000000));
#488=CARTESIAN_POINT('',(9.200000000000001,0.600000000000000,3.830000000000000));
#489=CARTESIAN_POINT('',(8.600000000000001,0.600000000000000,4.430000000000000));
#490=CARTESIAN_POINT('',(8.600000000000001,-1.998401E-016,4.430000000000000));
#491=CARTESIAN_POINT('',(10.100000000000001,-3.262015E-016,3.230000000000000));
#492=CARTESIAN_POINT('',(10.100000000000001,0.600000000000000,3.230000000000000));
#493=CARTESIAN_POINT('',(10.100000000000001,0.600000000000000,3.830000000000001));
#494=CARTESIAN_POINT('',(10.100000000000001,0.600000000000000,4.430000000000001));
#495=CARTESIAN_POINT('',(10.100000000000001,-1.998401E-016,4.430000000000001));
#503=(BOUNDED_SURFACE()B_SPLINE_SURFACE(2,2,((#451,#456,#461,#466,#471,#476,#481,#486,#491),(#452,#457,#462,#467,#472,#477,#482,#487,#492),(#453,#458,#463,#468,#473,#478,#483,#488,#493),(#454,#459,#464,#469,#474,#479,#484,#489,#494),(#455,#460,#465,#470,#475,#480,#485,#490,#495)),.UNSPECIFIED.,.F.,.T.,.U.)B_SPLINE_SURFACE_WITH_KNOTS((3,2,3),(3,2,2,2,3),(-3.141592653589794,-1.570796326794897,5.551115E-016),(0.0,1.570796326794897,3.141592653589793,4.712388980384690,6.283185307179586),.UNSPECIFIED.)GEOMETRIC_REPRESENTATION_ITEM()RATIONAL_B_SPLINE_SURFACE(((1.0,0.707106781186548,1.0,0.707106781186548,1.0,0.707106781186548,1.0,0.707106781186548,1.0),(0.707106781186547,0.500000000000000,0.707106781186547,0.500000000000000,0.707106781186547,0.500000000000000,0.707106781186547,0.500000000000000,0.707106781186547),(1.0,0.707106781186548,1.0,0.707106781186548,1.0,0.707106781186548,1.0,0.707106781186548,1.0),(0.707106781186550,0.500000000000002,0.707106781186550,0.500000000000002,0.707106781186550,0.500000000000002,0.707106781186550,0.500000000000002,0.707106781186550),(1.0,0.707106781186548,1.0,0.707106781186548,1.0,0.707106781186548,1.0,0.707106781186548,1.0)))REPRESENTATION_ITEM('')SURFACE());
#504=CARTESIAN_POINT('',(11.600000000000000,-1.998401E-016,2.930000000000001));
#505=VERTEX_POINT('',#504);
#506=CARTESIAN_POINT('',(10.100000000000000,1.332268E-016,4.430000000000001));
#507=VERTEX_POINT('',#506);
#508=CARTESIAN_POINT('',(10.100000000000001,-1.998401E-016,2.930000000000001));
#509=DIRECTION('',(0.0,-1.0,0.0));
#510=DIRECTION('',(0.0,0.0,-1.0));
#511=AXIS2_PLACEMENT_3D('',#508,#509,#510);
#512=CIRCLE('',#511,1.500000000000000);
#513=EDGE_CURVE('',#505,#507,#512,.T.);
#514=ORIENTED_EDGE('',*,*,#513,.F.);
#515=CARTESIAN_POINT('',(11.000000000000002,0.600000000000000,2.930000000000001));
#516=VERTEX_POINT('',#515);
#517=CARTESIAN_POINT('',(11.0,-1.998401E-016,2.930000000000002));
#518=DIRECTION('',(0.0,0.0,-1.0));
#519=DIRECTION('',(0.0,1.0,0.0));
#520=AXIS2_PLACEMENT_3D('',#517,#518,#519);
#521=CIRCLE('',#520,0.600000000000000);
#522=EDGE_CURVE('',#516,#505,#521,.T.);
#523=ORIENTED_EDGE('',*,*,#522,.F.);
#524=CARTESIAN_POINT('',(10.400000000000000,-1.263638E-016,2.930000000000002));
#525=VERTEX_POINT('',#524);
#526=CARTESIAN_POINT('',(11.0,-1.998401E-016,2.930000000000002));
#527=DIRECTION('',(0.0,0.0,-1.0));
#528=DIRECTION('',(0.0,1.0,0.0));
#529=AXIS2_PLACEMENT_3D('',#526,#527,#528);
#530=CIRCLE('',#529,0.600000000000000);
#531=EDGE_CURVE('',#525,#516,#530,.T.);
#532=ORIENTED_EDGE('',*,*,#531,.F.);
#533=CARTESIAN_POINT('',(10.100000000000000,-5.975038E-017,3.230000000000000));
#534=VERTEX_POINT('',#533);
#535=CARTESIAN_POINT('',(10.100000000000001,-1.263638E-016,2.930000000000001));
#536=DIRECTION('',(0.0,-1.0,0.0));
#537=DIRECTION('',(0.0,0.0,-1.0));
#538=AXIS2_PLACEMENT_3D('',#535,#536,#537);
#539=CIRCLE('',#538,0.300000000000000);
#540=EDGE_CURVE('',#525,#534,#539,.T.);
#541=ORIENTED_EDGE('',*,*,#540,.T.);
#542=CARTESIAN_POINT('',(10.100000000000000,0.600000000000000,3.830000000000001));
#543=VERTEX_POINT('',#542);
#544=CARTESIAN_POINT('',(10.100000000000000,9.860761E-032,3.830000000000001));
#545=DIRECTION('',(1.0,0.0,0.0));
#546=DIRECTION('',(0.0,1.0,0.0));
#547=AXIS2_PLACEMENT_3D('',#544,#545,#546);
#548=CIRCLE('',#547,0.600000000000000);
#549=EDGE_CURVE('',#534,#543,#548,.T.);
#550=ORIENTED_EDGE('',*,*,#549,.T.);
#551=CARTESIAN_POINT('',(10.100000000000000,9.860761E-032,3.830000000000001));
#552=DIRECTION('',(1.0,0.0,0.0));
#553=DIRECTION('',(0.0,1.0,0.0));
#554=AXIS2_PLACEMENT_3D('',#551,#552,#553);
#555=CIRCLE('',#554,0.600000000000000);
#556=EDGE_CURVE('',#543,#507,#555,.T.);
#557=ORIENTED_EDGE('',*,*,#556,.T.);
#558=EDGE_LOOP('',(#514,#523,#532,#541,#550,#557));
#559=FACE_OUTER_BOUND('',#558,.T.);
#560=ADVANCED_FACE('',(#559),#503,.T.);
#561=CARTESIAN_POINT('',(11.0,-0.600000000000000,2.930000000000002));
#562=CARTESIAN_POINT('',(11.0,-0.600000000000002,-3.600000000000001));
#563=CARTESIAN_POINT('',(11.600000000000000,-0.600000000000000,2.930000000000003));
#564=CARTESIAN_POINT('',(11.600000000000000,-0.600000000000002,-3.600000000000001));
#565=CARTESIAN_POINT('',(11.600000000000000,-1.998401E-016,2.930000000000002));
#566=CARTESIAN_POINT('',(11.600000000000000,-1.649791E-015,-3.600000000000001));
#567=CARTESIAN_POINT('',(11.600000000000000,0.600000000000000,2.930000000000003));
#568=CARTESIAN_POINT('',(11.600000000000000,0.599999999999998,-3.600000000000001));
#569=CARTESIAN_POINT('',(11.0,0.600000000000000,2.930000000000002));
#570=CARTESIAN_POINT('',(11.0,0.599999999999998,-3.600000000000001));
#571=CARTESIAN_POINT('',(10.400000000000000,0.600000000000000,2.930000000000003));
#572=CARTESIAN_POINT('',(10.400000000000000,0.599999999999998,-3.600000000000001));
#573=CARTESIAN_POINT('',(10.400000000000000,-1.998401E-016,2.930000000000002));
#574=CARTESIAN_POINT('',(10.400000000000000,-1.649791E-015,-3.600000000000001));
#575=CARTESIAN_POINT('',(10.400000000000000,-0.600000000000000,2.930000000000003));
#576=CARTESIAN_POINT('',(10.400000000000000,-0.600000000000002,-3.600000000000001));
#577=CARTESIAN_POINT('',(11.0,-0.600000000000000,2.930000000000002));
#578=CARTESIAN_POINT('',(11.0,-0.600000000000002,-3.600000000000001));
#586=(BOUNDED_SURFACE()B_SPLINE_SURFACE(1,2,((#561,#563,#565,#567,#569,#571,#573,#575,#577),(#562,#564,#566,#568,#570,#572,#574,#576,#578)),.UNSPECIFIED.,.F.,.T.,.U.)B_SPLINE_SURFACE_WITH_KNOTS((2,2),(3,2,2,2,3),(-1.480297E-015,10.883333333333336),(0.0,0.942477796076938,1.884955592153876,2.827433388230814,3.769911184307752),.UNSPECIFIED.)GEOMETRIC_REPRESENTATION_ITEM()RATIONAL_B_SPLINE_SURFACE(((1.0,0.707106781186548,1.0,0.707106781186548,1.0,0.707106781186548,1.0,0.707106781186548,1.0),(1.0,0.707106781186548,1.0,0.707106781186548,1.0,0.707106781186548,1.0,0.707106781186548,1.0)))REPRESENTATION_ITEM('')SURFACE());
#587=CARTESIAN_POINT('',(11.000000000000002,0.599999999999998,-3.600000000000000));
#588=VERTEX_POINT('',#587);
#589=CARTESIAN_POINT('',(11.0,0.599999999999998,-3.600000000000001));
#590=DIRECTION('',(0.0,0.0,1.0));
#591=VECTOR('',#590,6.530000000000001);
#592=LINE('',#589,#591);
#593=EDGE_CURVE('',#588,#516,#592,.T.);
#594=ORIENTED_EDGE('',*,*,#593,.F.);
#595=CARTESIAN_POINT('',(11.0,-0.600000000000002,-3.600000000000001));
#596=VERTEX_POINT('',#595);
#597=CARTESIAN_POINT('',(11.0,-1.649791E-015,-3.600000000000000));
#598=DIRECTION('',(0.0,0.0,-1.0));
#599=DIRECTION('',(0.0,1.0,0.0));
#600=AXIS2_PLACEMENT_3D('',#597,#598,#599);
#601=CIRCLE('',#600,0.600000000000000);
#602=EDGE_CURVE('',#596,#588,#601,.T.);
#603=ORIENTED_EDGE('',*,*,#602,.F.);
#604=CARTESIAN_POINT('',(11.0,-0.600000000000000,2.930000000000002));
#605=VERTEX_POINT('',#604);
#606=CARTESIAN_POINT('',(11.0,-0.600000000000002,-3.600000000000001));
#607=DIRECTION('',(0.0,0.0,1.0));
#608=VECTOR('',#607,6.530000000000002);
#609=LINE('',#606,#608);
#610=EDGE_CURVE('',#596,#605,#609,.T.);
#611=ORIENTED_EDGE('',*,*,#610,.T.);
#612=CARTESIAN_POINT('',(11.0,-1.998401E-016,2.930000000000002));
#613=DIRECTION('',(0.0,0.0,-1.0));
#614=DIRECTION('',(0.0,1.0,0.0));
#615=AXIS2_PLACEMENT_3D('',#612,#613,#614);
#616=CIRCLE('',#615,0.600000000000000);
#617=EDGE_CURVE('',#605,#525,#616,.T.);
#618=ORIENTED_EDGE('',*,*,#617,.T.);
#619=ORIENTED_EDGE('',*,*,#531,.T.);
#620=EDGE_LOOP('',(#594,#603,#611,#618,#619));
#621=FACE_OUTER_BOUND('',#620,.T.);
#622=ADVANCED_FACE('',(#621),#586,.T.);
#623=CARTESIAN_POINT('',(9.130000000000001,-0.600000000000000,3.830000000000000));
#624=CARTESIAN_POINT('',(10.100000000000001,-0.600000000000000,3.830000000000001));
#625=CARTESIAN_POINT('',(9.130000000000001,-0.600000000000000,4.430000000000000));
#626=CARTESIAN_POINT('',(10.100000000000001,-0.600000000000000,4.430000000000001));
#627=CARTESIAN_POINT('',(9.130000000000001,2.879054E-032,4.430000000000000));
#628=CARTESIAN_POINT('',(10.100000000000001,9.860761E-032,4.430000000000001));
#629=CARTESIAN_POINT('',(9.130000000000001,0.600000000000000,4.430000000000000));
#630=CARTESIAN_POINT('',(10.100000000000001,0.600000000000000,4.430000000000001));
#631=CARTESIAN_POINT('',(9.130000000000001,0.600000000000000,3.830000000000000));
#632=CARTESIAN_POINT('',(10.100000000000001,0.600000000000000,3.830000000000001));
#633=CARTESIAN_POINT('',(9.130000000000001,0.600000000000000,3.230000000000000));
#634=CARTESIAN_POINT('',(10.100000000000001,0.600000000000000,3.230000000000000));
#635=CARTESIAN_POINT('',(9.130000000000001,2.879054E-032,3.230000000000000));
#636=CARTESIAN_POINT('',(10.100000000000001,9.860761E-032,3.230000000000000));
#637=CARTESIAN_POINT('',(9.130000000000001,-0.600000000000000,3.230000000000000));
#638=CARTESIAN_POINT('',(10.100000000000001,-0.600000000000000,3.230000000000000));
#639=CARTESIAN_POINT('',(9.130000000000001,-0.600000000000000,3.830000000000000));
#640=CARTESIAN_POINT('',(10.100000000000001,-0.600000000000000,3.830000000000001));
#648=(BOUNDED_SURFACE()B_SPLINE_SURFACE(1,2,((#623,#625,#627,#629,#631,#633,#635,#637,#639),(#624,#626,#628,#630,#632,#634,#636,#638,#640)),.UNSPECIFIED.,.F.,.T.,.U.)B_SPLINE_SURFACE_WITH_KNOTS((2,2),(3,2,2,2,3),(0.666666666666667,2.283333333333335),(0.0,0.942477796076938,1.884955592153876,2.827433388230814,3.769911184307752),.UNSPECIFIED.)GEOMETRIC_REPRESENTATION_ITEM()RATIONAL_B_SPLINE_SURFACE(((1.0,0.707106781186548,1.0,0.707106781186548,1.0,0.707106781186548,1.0,0.707106781186548,1.0),(1.0,0.707106781186548,1.0,0.707106781186548,1.0,0.707106781186548,1.0,0.707106781186548,1.0)))REPRESENTATION_ITEM('')SURFACE());
#649=CARTESIAN_POINT('',(9.130000000000001,0.600000000000000,3.830000000000000));
#650=VERTEX_POINT('',#649);
#651=CARTESIAN_POINT('',(10.100000000000000,0.600000000000000,3.830000000000001));
#652=DIRECTION('',(-1.0,0.0,0.0));
#653=VECTOR('',#652,0.969999999999999);
#654=LINE('',#651,#653);
#655=EDGE_CURVE('',#543,#650,#654,.T.);
#656=ORIENTED_EDGE('',*,*,#655,.F.);
#657=ORIENTED_EDGE('',*,*,#549,.F.);
#658=CARTESIAN_POINT('',(10.100000000000001,-0.600000000000000,3.830000000000001));
#659=VERTEX_POINT('',#658);
#660=CARTESIAN_POINT('',(10.100000000000000,9.860761E-032,3.830000000000001));
#661=DIRECTION('',(1.0,0.0,0.0));
#662=DIRECTION('',(0.0,1.0,0.0));
#663=AXIS2_PLACEMENT_3D('',#660,#661,#662);
#664=CIRCLE('',#663,0.600000000000000);
#665=EDGE_CURVE('',#659,#534,#664,.T.);
#666=ORIENTED_EDGE('',*,*,#665,.F.);
#667=CARTESIAN_POINT('',(9.130000000000001,-0.600000000000000,3.830000000000000));
#668=VERTEX_POINT('',#667);
#669=CARTESIAN_POINT('',(10.100000000000000,-0.600000000000000,3.830000000000001));
#670=DIRECTION('',(-1.0,0.0,0.0));
#671=VECTOR('',#670,0.969999999999999);
#672=LINE('',#669,#671);
#673=EDGE_CURVE('',#659,#668,#672,.T.);
#674=ORIENTED_EDGE('',*,*,#673,.T.);
#675=CARTESIAN_POINT('',(9.130000000000001,0.0,3.830000000000000));
#676=DIRECTION('',(1.0,0.0,0.0));
#677=DIRECTION('',(0.0,1.0,0.0));
#678=AXIS2_PLACEMENT_3D('',#675,#676,#677);
#679=CIRCLE('',#678,0.600000000000000);
#680=EDGE_CURVE('',#668,#650,#679,.T.);
#681=ORIENTED_EDGE('',*,*,#680,.T.);
#682=EDGE_LOOP('',(#656,#657,#666,#674,#681));
#683=FACE_OUTER_BOUND('',#682,.T.);
#684=ADVANCED_FACE('',(#683),#648,.T.);
#685=CARTESIAN_POINT('',(9.130000000000001,-0.600000000000000,3.830000000000000));
#686=CARTESIAN_POINT('',(10.100000000000001,-0.600000000000000,3.830000000000001));
#687=CARTESIAN_POINT('',(9.130000000000001,-0.600000000000000,4.430000000000000));
#688=CARTESIAN_POINT('',(10.100000000000001,-0.600000000000000,4.430000000000001));
#689=CARTESIAN_POINT('',(9.130000000000001,2.879054E-032,4.430000000000000));
#690=CARTESIAN_POINT('',(10.100000000000001,9.860761E-032,4.430000000000001));
#691=CARTESIAN_POINT('',(9.130000000000001,0.600000000000000,4.430000000000000));
#692=CARTESIAN_POINT('',(10.100000000000001,0.600000000000000,4.430000000000001));
#693=CARTESIAN_POINT('',(9.130000000000001,0.600000000000000,3.830000000000000));
#694=CARTESIAN_POINT('',(10.100000000000001,0.600000000000000,3.830000000000001));
#695=CARTESIAN_POINT('',(9.130000000000001,0.600000000000000,3.230000000000000));
#696=CARTESIAN_POINT('',(10.100000000000001,0.600000000000000,3.230000000000000));
#697=CARTESIAN_POINT('',(9.130000000000001,2.879054E-032,3.230000000000000));
#698=CARTESIAN_POINT('',(10.100000000000001,9.860761E-032,3.230000000000000));
#699=CARTESIAN_POINT('',(9.130000000000001,-0.600000000000000,3.230000000000000));
#700=CARTESIAN_POINT('',(10.100000000000001,-0.600000000000000,3.230000000000000));
#701=CARTESIAN_POINT('',(9.130000000000001,-0.600000000000000,3.830000000000000));
#702=CARTESIAN_POINT('',(10.100000000000001,-0.600000000000000,3.830000000000001));
#710=(BOUNDED_SURFACE()B_SPLINE_SURFACE(1,2,((#685,#687,#689,#691,#693,#695,#697,#699,#701),(#686,#688,#690,#692,#694,#696,#698,#700,#702)),.UNSPECIFIED.,.F.,.T.,.U.)B_SPLINE_SURFACE_WITH_KNOTS((2,2),(3,2,2,2,3),(0.666666666666667,2.283333333333335),(0.0,0.942477796076938,1.884955592153876,2.827433388230814,3.769911184307752),.UNSPECIFIED.)GEOMETRIC_REPRESENTATION_ITEM()RATIONAL_B_SPLINE_SURFACE(((1.0,0.707106781186548,1.0,0.707106781186548,1.0,0.707106781186548,1.0,0.707106781186548,1.0),(1.0,0.707106781186548,1.0,0.707106781186548,1.0,0.707106781186548,1.0,0.707106781186548,1.0)))REPRESENTATION_ITEM('')SURFACE());
#711=ORIENTED_EDGE('',*,*,#655,.T.);
#712=CARTESIAN_POINT('',(9.130000000000001,0.0,3.830000000000000));
#713=DIRECTION('',(1.0,0.0,0.0));
#714=DIRECTION('',(0.0,1.0,0.0));
#715=AXIS2_PLACEMENT_3D('',#712,#713,#714);
#716=CIRCLE('',#715,0.600000000000000);
#717=EDGE_CURVE('',#650,#668,#716,.T.);
#718=ORIENTED_EDGE('',*,*,#717,.T.);
#719=ORIENTED_EDGE('',*,*,#673,.F.);
#720=CARTESIAN_POINT('',(10.100000000000000,9.860761E-032,3.830000000000001));
#721=DIRECTION('',(1.0,0.0,0.0));
#722=DIRECTION('',(0.0,1.0,0.0));
#723=AXIS2_PLACEMENT_3D('',#720,#721,#722);
#724=CIRCLE('',#723,0.600000000000000);
#725=EDGE_CURVE('',#507,#659,#724,.T.);
#726=ORIENTED_EDGE('',*,*,#725,.F.);
#727=ORIENTED_EDGE('',*,*,#556,.F.);
#728=EDGE_LOOP('',(#711,#718,#719,#726,#727));
#729=FACE_OUTER_BOUND('',#728,.T.);
#730=ADVANCED_FACE('',(#729),#710,.T.);
#731=CARTESIAN_POINT('',(11.0,-0.600000000000000,2.930000000000002));
#732=CARTESIAN_POINT('',(11.0,-0.600000000000002,-3.600000000000001));
#733=CARTESIAN_POINT('',(11.600000000000000,-0.600000000000000,2.930000000000002));
#734=CARTESIAN_POINT('',(11.600000000000000,-0.600000000000002,-3.600000000000001));
#735=CARTESIAN_POINT('',(11.600000000000000,-1.998401E-016,2.930000000000002));
#736=CARTESIAN_POINT('',(11.600000000000000,-1.649791E-015,-3.600000000000001));
#737=CARTESIAN_POINT('',(11.600000000000000,0.600000000000000,2.930000000000002));
#738=CARTESIAN_POINT('',(11.600000000000000,0.599999999999998,-3.600000000000001));
#739=CARTESIAN_POINT('',(11.0,0.600000000000000,2.930000000000002));
#740=CARTESIAN_POINT('',(11.0,0.599999999999998,-3.600000000000001));
#741=CARTESIAN_POINT('',(10.400000000000000,0.600000000000000,2.930000000000002));
#742=CARTESIAN_POINT('',(10.400000000000000,0.599999999999998,-3.600000000000001));
#743=CARTESIAN_POINT('',(10.400000000000000,-1.998401E-016,2.930000000000002));
#744=CARTESIAN_POINT('',(10.400000000000000,-1.649791E-015,-3.600000000000001));
#745=CARTESIAN_POINT('',(10.400000000000000,-0.600000000000000,2.930000000000002));
#746=CARTESIAN_POINT('',(10.400000000000000,-0.600000000000002,-3.600000000000001));
#747=CARTESIAN_POINT('',(11.0,-0.600000000000000,2.930000000000002));
#748=CARTESIAN_POINT('',(11.0,-0.600000000000002,-3.600000000000001));
#756=(BOUNDED_SURFACE()B_SPLINE_SURFACE(1,2,((#731,#733,#735,#737,#739,#741,#743,#745,#747),(#732,#734,#736,#738,#740,#742,#744,#746,#748)),.UNSPECIFIED.,.F.,.T.,.U.)B_SPLINE_SURFACE_WITH_KNOTS((2,2),(3,2,2,2,3),(0.0,10.883333333333336),(0.0,0.942477796076938,1.884955592153876,2.827433388230814,3.769911184307752),.UNSPECIFIED.)GEOMETRIC_REPRESENTATION_ITEM()RATIONAL_B_SPLINE_SURFACE(((1.0,0.707106781186548,1.0,0.707106781186548,1.0,0.707106781186548,1.0,0.707106781186548,1.0),(1.0,0.707106781186548,1.0,0.707106781186548,1.0,0.707106781186548,1.0,0.707106781186548,1.0)))REPRESENTATION_ITEM('')SURFACE());
#757=ORIENTED_EDGE('',*,*,#593,.T.);
#758=ORIENTED_EDGE('',*,*,#522,.T.);
#759=CARTESIAN_POINT('',(11.0,-1.998401E-016,2.930000000000002));
#760=DIRECTION('',(0.0,0.0,-1.0));
#761=DIRECTION('',(0.0,1.0,0.0));
#762=AXIS2_PLACEMENT_3D('',#759,#760,#761);
#763=CIRCLE('',#762,0.600000000000000);
#764=EDGE_CURVE('',#505,#605,#763,.T.);
#765=ORIENTED_EDGE('',*,*,#764,.T.);
#766=ORIENTED_EDGE('',*,*,#610,.F.);
#767=CARTESIAN_POINT('',(11.0,-1.649791E-015,-3.600000000000000));
#768=DIRECTION('',(0.0,0.0,-1.0));
#769=DIRECTION('',(0.0,1.0,0.0));
#770=AXIS2_PLACEMENT_3D('',#767,#768,#769);
#771=CIRCLE('',#770,0.600000000000000);
#772=EDGE_CURVE('',#588,#596,#771,.T.);
#773=ORIENTED_EDGE('',*,*,#772,.F.);
#774=EDGE_LOOP('',(#757,#758,#765,#766,#773));
#775=FACE_OUTER_BOUND('',#774,.T.);
#776=ADVANCED_FACE('',(#775),#756,.T.);
#777=CARTESIAN_POINT('',(10.100000000000001,5.030319E-016,4.430000000000001));
#778=CARTESIAN_POINT('',(10.100000000000001,-0.600000000000000,4.430000000000002));
#779=CARTESIAN_POINT('',(10.100000000000001,-0.600000000000000,3.830000000000001));
#780=CARTESIAN_POINT('',(10.100000000000001,-0.600000000000000,3.230000000000000));
#781=CARTESIAN_POINT('',(10.100000000000001,5.974796E-017,3.230000000000000));
#782=CARTESIAN_POINT('',(11.600000000000001,5.030319E-016,4.430000000000000));
#783=CARTESIAN_POINT('',(11.600000000000001,-0.600000000000000,4.430000000000002));
#784=CARTESIAN_POINT('',(11.000000000000002,-0.600000000000000,3.830000000000000));
#785=CARTESIAN_POINT('',(10.400000000000000,-0.600000000000000,3.230000000000000));
#786=CARTESIAN_POINT('',(10.400000000000000,5.974796E-017,3.230000000000000));
#787=CARTESIAN_POINT('',(11.600000000000001,1.699650E-016,2.930000000000001));
#788=CARTESIAN_POINT('',(11.600000000000001,-0.600000000000000,2.930000000000001));
#789=CARTESIAN_POINT('',(11.000000000000002,-0.600000000000000,2.930000000000001));
#790=CARTESIAN_POINT('',(10.400000000000002,-0.600000000000000,2.930000000000001));
#791=CARTESIAN_POINT('',(10.400000000000002,-6.865426E-018,2.930000000000001));
#792=CARTESIAN_POINT('',(11.600000000000001,-1.631020E-016,1.430000000000001));
#793=CARTESIAN_POINT('',(11.600000000000001,-0.600000000000001,1.430000000000000));
#794=CARTESIAN_POINT('',(11.000000000000002,-0.600000000000001,2.030000000000001));
#795=CARTESIAN_POINT('',(10.400000000000000,-0.600000000000001,2.630000000000001));
#796=CARTESIAN_POINT('',(10.400000000000000,-7.347881E-017,2.630000000000001));
#797=CARTESIAN_POINT('',(10.100000000000001,-1.631020E-016,1.430000000000001));
#798=CARTESIAN_POINT('',(10.100000000000001,-0.600000000000001,1.430000000000000));
#799=CARTESIAN_POINT('',(10.100000000000001,-0.600000000000001,2.030000000000001));
#800=CARTESIAN_POINT('',(10.100000000000001,-0.600000000000001,2.630000000000001));
#801=CARTESIAN_POINT('',(10.100000000000001,-7.347881E-017,2.630000000000001));
#802=CARTESIAN_POINT('',(8.600000000000001,-1.631020E-016,1.430000000000001));
#803=CARTESIAN_POINT('',(8.600000000000001,-0.600000000000001,1.430000000000000));
#804=CARTESIAN_POINT('',(9.200000000000001,-0.600000000000001,2.030000000000001));
#805=CARTESIAN_POINT('',(9.800000000000003,-0.600000000000001,2.630000000000001));
#806=CARTESIAN_POINT('',(9.800000000000003,-7.347881E-017,2.630000000000001));
#807=CARTESIAN_POINT('',(8.600000000000001,1.699650E-016,2.930000000000001));
#808=CARTESIAN_POINT('',(8.600000000000001,-0.600000000000000,2.930000000000001));
#809=CARTESIAN_POINT('',(9.200000000000001,-0.600000000000000,2.930000000000001));
#810=CARTESIAN_POINT('',(9.800000000000001,-0.600000000000000,2.930000000000001));
#811=CARTESIAN_POINT('',(9.800000000000001,-6.865426E-018,2.930000000000001));
#812=CARTESIAN_POINT('',(8.600000000000001,5.030319E-016,4.430000000000000));
#813=CARTESIAN_POINT('',(8.600000000000001,-0.600000000000000,4.430000000000002));
#814=CARTESIAN_POINT('',(9.200000000000001,-0.600000000000000,3.830000000000000));
#815=CARTESIAN_POINT('',(9.800000000000003,-0.600000000000000,3.230000000000000));
#816=CARTESIAN_POINT('',(9.800000000000003,5.974796E-017,3.230000000000000));
#817=CARTESIAN_POINT('',(10.100000000000001,5.030319E-016,4.430000000000001));
#818=CARTESIAN_POINT('',(10.100000000000001,-0.600000000000000,4.430000000000002));
#819=CARTESIAN_POINT('',(10.100000000000001,-0.600000000000000,3.830000000000001));
#820=CARTESIAN_POINT('',(10.100000000000001,-0.600000000000000,3.230000000000000));
#821=CARTESIAN_POINT('',(10.100000000000001,5.974796E-017,3.230000000000000));
#829=(BOUNDED_SURFACE()B_SPLINE_SURFACE(2,2,((#777,#782,#787,#792,#797,#802,#807,#812,#817),(#778,#783,#788,#793,#798,#803,#808,#813,#818),(#779,#784,#789,#794,#799,#804,#809,#814,#819),(#780,#785,#790,#795,#800,#805,#810,#815,#820),(#781,#786,#791,#796,#801,#806,#811,#816,#821)),.UNSPECIFIED.,.F.,.T.,.U.)B_SPLINE_SURFACE_WITH_KNOTS((3,2,3),(3,2,2,2,3),(-6.163418E-016,1.570796326794897,3.141592653589794),(0.0,1.570796326794897,3.141592653589793,4.712388980384690,6.283185307179586),.UNSPECIFIED.)GEOMETRIC_REPRESENTATION_ITEM()RATIONAL_B_SPLINE_SURFACE(((1.0,0.707106781186548,1.0,0.707106781186548,1.0,0.707106781186548,1.0,0.707106781186548,1.0),(0.707106781186548,0.500000000000000,0.707106781186548,0.500000000000000,0.707106781186548,0.500000000000000,0.707106781186548,0.500000000000000,0.707106781186548),(1.0,0.707106781186548,1.0,0.707106781186548,1.0,0.707106781186548,1.0,0.707106781186548,1.0),(0.707106781186548,0.500000000000000,0.707106781186548,0.500000000000000,0.707106781186548,0.500000000000000,0.707106781186548,0.500000000000000,0.707106781186548),(1.0,0.707106781186548,1.0,0.707106781186548,1.0,0.707106781186548,1.0,0.707106781186548,1.0)))REPRESENTATION_ITEM('')SURFACE());
#830=ORIENTED_EDGE('',*,*,#513,.T.);
#831=ORIENTED_EDGE('',*,*,#725,.T.);
#832=ORIENTED_EDGE('',*,*,#665,.T.);
#833=ORIENTED_EDGE('',*,*,#540,.F.);
#834=ORIENTED_EDGE('',*,*,#617,.F.);
#835=ORIENTED_EDGE('',*,*,#764,.F.);
#836=EDGE_LOOP('',(#830,#831,#832,#833,#834,#835));
#837=FACE_OUTER_BOUND('',#836,.T.);
#838=ADVANCED_FACE('',(#837),#829,.T.);
#839=CARTESIAN_POINT('',(11.600000000000000,0.599999999999998,-3.600000000000000));
#840=CARTESIAN_POINT('',(10.400000000000000,0.599999999999998,-3.600000000000000));
#841=CARTESIAN_POINT('',(11.600000000000000,-0.600000000000002,-3.600000000000000));
#842=CARTESIAN_POINT('',(10.400000000000000,-0.600000000000002,-3.599999999999999));
#843=B_SPLINE_SURFACE_WITH_KNOTS('',1,1,((#839,#841),(#840,#842)),.UNSPECIFIED.,.F.,.F.,.U.,(2,2),(2,2),(0.0,1.199999999999999),(0.0,1.200000000000000),.UNSPECIFIED.);
#844=ORIENTED_EDGE('',*,*,#772,.T.);
#845=ORIENTED_EDGE('',*,*,#602,.T.);
#846=EDGE_LOOP('',(#844,#845));
#847=FACE_OUTER_BOUND('',#846,.T.);
#848=ADVANCED_FACE('',(#847),#843,.F.);
#849=CARTESIAN_POINT('',(9.130000000000001,0.600000000000000,4.430000000000000));
#850=CARTESIAN_POINT('',(9.130000000000001,0.600000000000000,3.230000000000000));
#851=CARTESIAN_POINT('',(9.130000000000001,-0.600000000000000,4.430000000000000));
#852=CARTESIAN_POINT('',(9.130000000000001,-0.600000000000000,3.230000000000000));
#853=B_SPLINE_SURFACE_WITH_KNOTS('',1,1,((#849,#851),(#850,#852)),.UNSPECIFIED.,.F.,.F.,.U.,(2,2),(2,2),(0.0,1.199999999999999),(0.0,1.200000000000000),.UNSPECIFIED.);
#854=ORIENTED_EDGE('',*,*,#717,.F.);
#855=ORIENTED_EDGE('',*,*,#680,.F.);
#856=EDGE_LOOP('',(#854,#855));
#857=FACE_OUTER_BOUND('',#856,.T.);
#858=ADVANCED_FACE('',(#857),#853,.T.);
#859=CLOSED_SHELL('',(#560,#622,#684,#730,#776,#838,#848,#858));
#860=MANIFOLD_SOLID_BREP('5C7',#859);
#861=COLOUR_RGB('253',0.732000000000000,0.732000000000000,0.732000000000000);
#862=SURFACE_STYLE_USAGE(.BOTH.,#863);
#863=SURFACE_SIDE_STYLE('NONE',(#864));
#864=SURFACE_STYLE_FILL_AREA(#865);
#865=FILL_AREA_STYLE('NONE',(#866));
#866=FILL_AREA_STYLE_COLOUR('NONE',#861);
#867=PRESENTATION_STYLE_ASSIGNMENT((#862));
#868=STYLED_ITEM('NONE',(#867),#860);
#869=CARTESIAN_POINT('',(-9.130000000000001,0.0,3.830000000000000));
#870=DIRECTION('',(1.0,0.0,2.188830E-016));
#871=DIRECTION('',(0.0,1.0,0.0));
#872=AXIS2_PLACEMENT_3D('',#869,#870,#871);
#873=CYLINDRICAL_SURFACE('',#872,3.820000000000000);
#874=CARTESIAN_POINT('',(-5.529999999999999,3.820000000000000,3.830000000000001));
#875=VERTEX_POINT('',#874);
#876=CARTESIAN_POINT('',(-6.730000000000000,3.820000000000000,3.830000000000001));
#877=VERTEX_POINT('',#876);
#878=CARTESIAN_POINT('',(-5.529999999999999,3.820000000000000,3.830000000000001));
#879=DIRECTION('',(-1.0,0.0,0.0));
#880=VECTOR('',#879,1.200000000000001);
#881=LINE('',#878,#880);
#882=EDGE_CURVE('',#875,#877,#881,.T.);
#883=ORIENTED_EDGE('',*,*,#882,.F.);
#884=CARTESIAN_POINT('',(-5.529999999999999,-3.820000000000000,3.830000000000001));
#885=VERTEX_POINT('',#884);
#886=CARTESIAN_POINT('',(-5.529999999999999,0.0,3.830000000000001));
#887=DIRECTION('',(-1.0,0.0,0.0));
#888=DIRECTION('',(0.0,1.0,0.0));
#889=AXIS2_PLACEMENT_3D('',#886,#887,#888);
#890=CIRCLE('',#889,3.820000000000000);
#891=EDGE_CURVE('',#875,#885,#890,.T.);
#892=ORIENTED_EDGE('',*,*,#891,.T.);
#893=CARTESIAN_POINT('',(-6.730000000000000,-3.820000000000000,3.830000000000000));
#894=VERTEX_POINT('',#893);
#895=CARTESIAN_POINT('',(-5.529999999999999,-3.820000000000000,3.830000000000001));
#896=DIRECTION('',(-1.0,0.0,0.0));
#897=VECTOR('',#896,1.200000000000001);
#898=LINE('',#895,#897);
#899=EDGE_CURVE('',#885,#894,#898,.T.);
#900=ORIENTED_EDGE('',*,*,#899,.T.);
#901=CARTESIAN_POINT('',(-6.730000000000000,0.0,3.830000000000001));
#902=DIRECTION('',(1.0,0.0,0.0));
#903=DIRECTION('',(0.0,1.0,0.0));
#904=AXIS2_PLACEMENT_3D('',#901,#902,#903);
#905=CIRCLE('',#904,3.820000000000000);
#906=EDGE_CURVE('',#894,#877,#905,.T.);
#907=ORIENTED_EDGE('',*,*,#906,.T.);
#908=EDGE_LOOP('',(#883,#892,#900,#907));
#909=FACE_OUTER_BOUND('',#908,.T.);
#910=ADVANCED_FACE('',(#909),#873,.T.);
#911=CARTESIAN_POINT('',(-5.529999999999999,0.0,3.830000000000001));
#912=DIRECTION('',(1.0,0.0,0.0));
#913=DIRECTION('',(0.0,0.0,-1.0));
#914=AXIS2_PLACEMENT_3D('',#911,#912,#913);
#915=PLANE('',#914);
#916=ORIENTED_EDGE('',*,*,#891,.F.);
#917=CARTESIAN_POINT('',(-5.529999999999999,0.0,3.830000000000001));
#918=DIRECTION('',(-1.0,0.0,0.0));
#919=DIRECTION('',(0.0,1.0,0.0));
#920=AXIS2_PLACEMENT_3D('',#917,#918,#919);
#921=CIRCLE('',#920,3.820000000000000);
#922=EDGE_CURVE('',#885,#875,#921,.T.);
#923=ORIENTED_EDGE('',*,*,#922,.F.);
#924=EDGE_LOOP('',(#916,#923));
#925=FACE_OUTER_BOUND('',#924,.T.);
#926=ADVANCED_FACE('',(#925),#915,.T.);
#927=CARTESIAN_POINT('',(-6.730000000000000,0.0,3.830000000000001));
#928=DIRECTION('',(1.0,0.0,0.0));
#929=DIRECTION('',(0.0,0.0,-1.0));
#930=AXIS2_PLACEMENT_3D('',#927,#928,#929);
#931=PLANE('',#930);
#932=CARTESIAN_POINT('',(-6.730000000000000,0.0,3.830000000000001));
#933=DIRECTION('',(1.0,0.0,0.0));
#934=DIRECTION('',(0.0,1.0,0.0));
#935=AXIS2_PLACEMENT_3D('',#932,#933,#934);
#936=CIRCLE('',#935,3.820000000000000);
#937=EDGE_CURVE('',#877,#894,#936,.T.);
#938=ORIENTED_EDGE('',*,*,#937,.F.);
#939=ORIENTED_EDGE('',*,*,#906,.F.);
#940=EDGE_LOOP('',(#938,#939));
#941=FACE_OUTER_BOUND('',#940,.T.);
#942=ADVANCED_FACE('',(#941),#931,.F.);
#943=CARTESIAN_POINT('',(-9.130000000000001,0.0,3.830000000000000));
#944=DIRECTION('',(1.0,0.0,2.188830E-016));
#945=DIRECTION('',(0.0,1.0,0.0));
#946=AXIS2_PLACEMENT_3D('',#943,#944,#945);
#947=CYLINDRICAL_SURFACE('',#946,3.820000000000000);
#948=ORIENTED_EDGE('',*,*,#882,.T.);
#949=ORIENTED_EDGE('',*,*,#937,.T.);
#950=ORIENTED_EDGE('',*,*,#899,.F.);
#951=ORIENTED_EDGE('',*,*,#922,.T.);
#952=EDGE_LOOP('',(#948,#949,#950,#951));
#953=FACE_OUTER_BOUND('',#952,.T.);
#954=ADVANCED_FACE('',(#953),#947,.T.);
#955=CLOSED_SHELL('',(#910,#926,#942,#954));
#956=MANIFOLD_SOLID_BREP('5C3',#955);
#957=COLOUR_RGB('36',0.300000000000000,0.150000000000000,0.0);
#958=SURFACE_STYLE_USAGE(.BOTH.,#959);
#959=SURFACE_SIDE_STYLE('NONE',(#960));
#960=SURFACE_STYLE_FILL_AREA(#961);
#961=FILL_AREA_STYLE('NONE',(#962));
#962=FILL_AREA_STYLE_COLOUR('NONE',#957);
#963=PRESENTATION_STYLE_ASSIGNMENT((#958));
#964=STYLED_ITEM('NONE',(#963),#956);
#965=CARTESIAN_POINT('',(-9.130000000000001,0.0,3.830000000000000));
#966=DIRECTION('',(1.0,0.0,2.188830E-016));
#967=DIRECTION('',(0.0,1.0,0.0));
#968=AXIS2_PLACEMENT_3D('',#965,#966,#967);
#969=CYLINDRICAL_SURFACE('',#968,3.820000000000000);
#970=CARTESIAN_POINT('',(-7.930000000000001,3.820000000000000,3.830000000000000));
#971=VERTEX_POINT('',#970);
#972=CARTESIAN_POINT('',(-9.130000000000001,3.820000000000000,3.830000000000000));
#973=VERTEX_POINT('',#972);
#974=CARTESIAN_POINT('',(-7.930000000000001,3.820000000000000,3.830000000000001));
#975=DIRECTION('',(-1.0,0.0,0.0));
#976=VECTOR('',#975,1.200000000000000);
#977=LINE('',#974,#976);
#978=EDGE_CURVE('',#971,#973,#977,.T.);
#979=ORIENTED_EDGE('',*,*,#978,.F.);
#980=CARTESIAN_POINT('',(-7.930000000000001,-3.820000000000000,3.830000000000000));
#981=VERTEX_POINT('',#980);
#982=CARTESIAN_POINT('',(-7.930000000000001,0.0,3.830000000000001));
#983=DIRECTION('',(-1.0,0.0,0.0));
#984=DIRECTION('',(0.0,1.0,0.0));
#985=AXIS2_PLACEMENT_3D('',#982,#983,#984);
#986=CIRCLE('',#985,3.820000000000000);
#987=EDGE_CURVE('',#971,#981,#986,.T.);
#988=ORIENTED_EDGE('',*,*,#987,.T.);
#989=CARTESIAN_POINT('',(-9.130000000000001,-3.820000000000000,3.830000000000000));
#990=VERTEX_POINT('',#989);
#991=CARTESIAN_POINT('',(-7.930000000000001,-3.820000000000000,3.830000000000000));
#992=DIRECTION('',(-1.0,0.0,0.0));
#993=VECTOR('',#992,1.200000000000000);
#994=LINE('',#991,#993);
#995=EDGE_CURVE('',#981,#990,#994,.T.);
#996=ORIENTED_EDGE('',*,*,#995,.T.);
#997=CARTESIAN_POINT('',(-9.130000000000001,0.0,3.830000000000000));
#998=DIRECTION('',(1.0,0.0,0.0));
#999=DIRECTION('',(0.0,1.0,0.0));
#1000=AXIS2_PLACEMENT_3D('',#997,#998,#999);
#1001=CIRCLE('',#1000,3.820000000000000);
#1002=EDGE_CURVE('',#990,#973,#1001,.T.);
#1003=ORIENTED_EDGE('',*,*,#1002,.T.);
#1004=EDGE_LOOP('',(#979,#988,#996,#1003));
#1005=FACE_OUTER_BOUND('',#1004,.T.);
#1006=ADVANCED_FACE('',(#1005),#969,.T.);
#1007=CARTESIAN_POINT('',(-9.130000000000001,0.0,3.830000000000000));
#1008=DIRECTION('',(1.0,0.0,0.0));
#1009=DIRECTION('',(0.0,0.0,-1.0));
#1010=AXIS2_PLACEMENT_3D('',#1007,#1008,#1009);
#1011=PLANE('',#1010);
#1012=CARTESIAN_POINT('',(-9.130000000000001,0.0,3.830000000000000));
#1013=DIRECTION('',(1.0,0.0,0.0));
#1014=DIRECTION('',(0.0,1.0,0.0));
#1015=AXIS2_PLACEMENT_3D('',#1012,#1013,#1014);
#1016=CIRCLE('',#1015,3.820000000000000);
#1017=EDGE_CURVE('',#973,#990,#1016,.T.);
#1018=ORIENTED_EDGE('',*,*,#1017,.F.);
#1019=ORIENTED_EDGE('',*,*,#1002,.F.);
#1020=EDGE_LOOP('',(#1018,#1019));
#1021=FACE_OUTER_BOUND('',#1020,.T.);
#1022=ADVANCED_FACE('',(#1021),#1011,.F.);
#1023=CARTESIAN_POINT('',(-9.130000000000001,0.0,3.830000000000000));
#1024=DIRECTION('',(1.0,0.0,2.188830E-016));
#1025=DIRECTION('',(0.0,1.0,0.0));
#1026=AXIS2_PLACEMENT_3D('',#1023,#1024,#1025);
#1027=CYLINDRICAL_SURFACE('',#1026,3.820000000000000);
#1028=ORIENTED_EDGE('',*,*,#978,.T.);
#1029=ORIENTED_EDGE('',*,*,#1017,.T.);
#1030=ORIENTED_EDGE('',*,*,#995,.F.);
#1031=CARTESIAN_POINT('',(-7.930000000000001,0.0,3.830000000000001));
#1032=DIRECTION('',(-1.0,0.0,0.0));
#1033=DIRECTION('',(0.0,1.0,0.0));
#1034=AXIS2_PLACEMENT_3D('',#1031,#1032,#1033);
#1035=CIRCLE('',#1034,3.820000000000000);
#1036=EDGE_CURVE('',#981,#971,#1035,.T.);
#1037=ORIENTED_EDGE('',*,*,#1036,.T.);
#1038=EDGE_LOOP('',(#1028,#1029,#1030,#1037));
#1039=FACE_OUTER_BOUND('',#1038,.T.);
#1040=ADVANCED_FACE('',(#1039),#1027,.T.);
#1041=CARTESIAN_POINT('',(-7.930000000000001,0.0,3.830000000000000));
#1042=DIRECTION('',(1.0,0.0,0.0));
#1043=DIRECTION('',(0.0,0.0,-1.0));
#1044=AXIS2_PLACEMENT_3D('',#1041,#1042,#1043);
#1045=PLANE('',#1044);
#1046=ORIENTED_EDGE('',*,*,#987,.F.);
#1047=ORIENTED_EDGE('',*,*,#1036,.F.);
#1048=EDGE_LOOP('',(#1046,#1047));
#1049=FACE_OUTER_BOUND('',#1048,.T.);
#1050=ADVANCED_FACE('',(#1049),#1045,.T.);
#1051=CLOSED_SHELL('',(#1006,#1022,#1040,#1050));
#1052=MANIFOLD_SOLID_BREP('5C3',#1051);
#1053=STYLED_ITEM('NONE',(#963),#1052);
#1054=CARTESIAN_POINT('',(-9.130000000000001,0.0,3.830000000000000));
#1055=DIRECTION('',(1.0,0.0,2.188830E-016));
#1056=DIRECTION('',(0.0,1.0,0.0));
#1057=AXIS2_PLACEMENT_3D('',#1054,#1055,#1056);
#1058=CYLINDRICAL_SURFACE('',#1057,3.820000000000000);
#1059=CARTESIAN_POINT('',(-3.130000000000001,3.820000000000000,3.830000000000001));
#1060=VERTEX_POINT('',#1059);
#1061=CARTESIAN_POINT('',(-4.330000000000000,3.820000000000000,3.830000000000001));
#1062=VERTEX_POINT('',#1061);
#1063=CARTESIAN_POINT('',(-3.130000000000001,3.820000000000000,3.830000000000001));
#1064=DIRECTION('',(-1.0,0.0,0.0));
#1065=VECTOR('',#1064,1.199999999999999);
#1066=LINE('',#1063,#1065);
#1067=EDGE_CURVE('',#1060,#1062,#1066,.T.);
#1068=ORIENTED_EDGE('',*,*,#1067,.F.);
#1069=CARTESIAN_POINT('',(-3.130000000000001,-3.820000000000000,3.830000000000001));
#1070=VERTEX_POINT('',#1069);
#1071=CARTESIAN_POINT('',(-3.130000000000001,0.0,3.830000000000001));
#1072=DIRECTION('',(-1.0,0.0,0.0));
#1073=DIRECTION('',(0.0,1.0,0.0));
#1074=AXIS2_PLACEMENT_3D('',#1071,#1072,#1073);
#1075=CIRCLE('',#1074,3.820000000000000);
#1076=EDGE_CURVE('',#1060,#1070,#1075,.T.);
#1077=ORIENTED_EDGE('',*,*,#1076,.T.);
#1078=CARTESIAN_POINT('',(-4.330000000000000,-3.820000000000000,3.830000000000001));
#1079=VERTEX_POINT('',#1078);
#1080=CARTESIAN_POINT('',(-3.130000000000001,-3.820000000000000,3.830000000000001));
#1081=DIRECTION('',(-1.0,0.0,0.0));
#1082=VECTOR('',#1081,1.199999999999999);
#1083=LINE('',#1080,#1082);
#1084=EDGE_CURVE('',#1070,#1079,#1083,.T.);
#1085=ORIENTED_EDGE('',*,*,#1084,.T.);
#1086=CARTESIAN_POINT('',(-4.330000000000000,0.0,3.830000000000001));
#1087=DIRECTION('',(1.0,0.0,0.0));
#1088=DIRECTION('',(0.0,1.0,0.0));
#1089=AXIS2_PLACEMENT_3D('',#1086,#1087,#1088);
#1090=CIRCLE('',#1089,3.820000000000000);
#1091=EDGE_CURVE('',#1079,#1062,#1090,.T.);
#1092=ORIENTED_EDGE('',*,*,#1091,.T.);
#1093=EDGE_LOOP('',(#1068,#1077,#1085,#1092));
#1094=FACE_OUTER_BOUND('',#1093,.T.);
#1095=ADVANCED_FACE('',(#1094),#1058,.T.);
#1096=CARTESIAN_POINT('',(-3.130000000000001,0.0,3.830000000000001));
#1097=DIRECTION('',(1.0,0.0,0.0));
#1098=DIRECTION('',(0.0,0.0,-1.0));
#1099=AXIS2_PLACEMENT_3D('',#1096,#1097,#1098);
#1100=PLANE('',#1099);
#1101=ORIENTED_EDGE('',*,*,#1076,.F.);
#1102=CARTESIAN_POINT('',(-3.130000000000001,0.0,3.830000000000001));
#1103=DIRECTION('',(-1.0,0.0,0.0));
#1104=DIRECTION('',(0.0,1.0,0.0));
#1105=AXIS2_PLACEMENT_3D('',#1102,#1103,#1104);
#1106=CIRCLE('',#1105,3.820000000000000);
#1107=EDGE_CURVE('',#1070,#1060,#1106,.T.);
#1108=ORIENTED_EDGE('',*,*,#1107,.F.);
#1109=EDGE_LOOP('',(#1101,#1108));
#1110=FACE_OUTER_BOUND('',#1109,.T.);
#1111=ADVANCED_FACE('',(#1110),#1100,.T.);
#1112=CARTESIAN_POINT('',(-4.330000000000000,0.0,3.830000000000001));
#1113=DIRECTION('',(1.0,0.0,0.0));
#1114=DIRECTION('',(0.0,0.0,-1.0));
#1115=AXIS2_PLACEMENT_3D('',#1112,#1113,#1114);
#1116=PLANE('',#1115);
#1117=CARTESIAN_POINT('',(-4.330000000000000,0.0,3.830000000000001));
#1118=DIRECTION('',(1.0,0.0,0.0));
#1119=DIRECTION('',(0.0,1.0,0.0));
#1120=AXIS2_PLACEMENT_3D('',#1117,#1118,#1119);
#1121=CIRCLE('',#1120,3.820000000000000);
#1122=EDGE_CURVE('',#1062,#1079,#1121,.T.);
#1123=ORIENTED_EDGE('',*,*,#1122,.F.);
#1124=ORIENTED_EDGE('',*,*,#1091,.F.);
#1125=EDGE_LOOP('',(#1123,#1124));
#1126=FACE_OUTER_BOUND('',#1125,.T.);
#1127=ADVANCED_FACE('',(#1126),#1116,.F.);
#1128=CARTESIAN_POINT('',(-9.130000000000001,0.0,3.830000000000000));
#1129=DIRECTION('',(1.0,0.0,2.188830E-016));
#1130=DIRECTION('',(0.0,1.0,0.0));
#1131=AXIS2_PLACEMENT_3D('',#1128,#1129,#1130);
#1132=CYLINDRICAL_SURFACE('',#1131,3.820000000000000);
#1133=ORIENTED_EDGE('',*,*,#1067,.T.);
#1134=ORIENTED_EDGE('',*,*,#1122,.T.);
#1135=ORIENTED_EDGE('',*,*,#1084,.F.);
#1136=ORIENTED_EDGE('',*,*,#1107,.T.);
#1137=EDGE_LOOP('',(#1133,#1134,#1135,#1136));
#1138=FACE_OUTER_BOUND('',#1137,.T.);
#1139=ADVANCED_FACE('',(#1138),#1132,.T.);
#1140=CLOSED_SHELL('',(#1095,#1111,#1127,#1139));
#1141=MANIFOLD_SOLID_BREP('5C3',#1140);
#1142=STYLED_ITEM('NONE',(#963),#1141);
#1143=CARTESIAN_POINT('',(-9.130000000000001,0.0,3.830000000000000));
#1144=DIRECTION('',(1.0,0.0,2.188830E-016));
#1145=DIRECTION('',(0.0,1.0,0.0));
#1146=AXIS2_PLACEMENT_3D('',#1143,#1144,#1145);
#1147=CYLINDRICAL_SURFACE('',#1146,3.820000000000000);
#1148=CARTESIAN_POINT('',(9.130000000000001,3.820000000000000,3.830000000000004));
#1149=VERTEX_POINT('',#1148);
#1150=CARTESIAN_POINT('',(0.470000000000000,3.820000000000000,3.830000000000001));
#1151=VERTEX_POINT('',#1150);
#1152=CARTESIAN_POINT('',(9.130000000000001,3.820000000000000,3.830000000000004));
#1153=DIRECTION('',(-1.0,0.0,0.0));
#1154=VECTOR('',#1153,8.660000000000000);
#1155=LINE('',#1152,#1154);
#1156=EDGE_CURVE('',#1149,#1151,#1155,.T.);
#1157=ORIENTED_EDGE('',*,*,#1156,.F.);
#1158=CARTESIAN_POINT('',(9.130000000000001,-3.820000000000000,3.830000000000004));
#1159=VERTEX_POINT('',#1158);
#1160=CARTESIAN_POINT('',(9.130000000000001,0.0,3.830000000000004));
#1161=DIRECTION('',(-1.0,0.0,0.0));
#1162=DIRECTION('',(0.0,1.0,0.0));
#1163=AXIS2_PLACEMENT_3D('',#1160,#1161,#1162);
#1164=CIRCLE('',#1163,3.820000000000000);
#1165=EDGE_CURVE('',#1149,#1159,#1164,.T.);
#1166=ORIENTED_EDGE('',*,*,#1165,.T.);
#1167=CARTESIAN_POINT('',(0.470000000000001,-3.820000000000000,3.830000000000002));
#1168=VERTEX_POINT('',#1167);
#1169=CARTESIAN_POINT('',(9.130000000000001,-3.820000000000000,3.830000000000004));
#1170=DIRECTION('',(-1.0,0.0,0.0));
#1171=VECTOR('',#1170,8.660000000000000);
#1172=LINE('',#1169,#1171);
#1173=EDGE_CURVE('',#1159,#1168,#1172,.T.);
#1174=ORIENTED_EDGE('',*,*,#1173,.T.);
#1175=CARTESIAN_POINT('',(0.470000000000001,0.0,3.830000000000002));
#1176=DIRECTION('',(1.0,0.0,0.0));
#1177=DIRECTION('',(0.0,1.0,0.0));
#1178=AXIS2_PLACEMENT_3D('',#1175,#1176,#1177);
#1179=CIRCLE('',#1178,3.820000000000000);
#1180=EDGE_CURVE('',#1168,#1151,#1179,.T.);
#1181=ORIENTED_EDGE('',*,*,#1180,.T.);
#1182=EDGE_LOOP('',(#1157,#1166,#1174,#1181));
#1183=FACE_OUTER_BOUND('',#1182,.T.);
#1184=ADVANCED_FACE('',(#1183),#1147,.T.);
#1185=CARTESIAN_POINT('',(9.130000000000001,0.0,3.830000000000004));
#1186=DIRECTION('',(1.0,0.0,0.0));
#1187=DIRECTION('',(0.0,0.0,-1.0));
#1188=AXIS2_PLACEMENT_3D('',#1185,#1186,#1187);
#1189=PLANE('',#1188);
#1190=ORIENTED_EDGE('',*,*,#1165,.F.);
#1191=CARTESIAN_POINT('',(9.130000000000001,0.0,3.830000000000004));
#1192=DIRECTION('',(-1.0,0.0,0.0));
#1193=DIRECTION('',(0.0,1.0,0.0));
#1194=AXIS2_PLACEMENT_3D('',#1191,#1192,#1193);
#1195=CIRCLE('',#1194,3.820000000000000);
#1196=EDGE_CURVE('',#1159,#1149,#1195,.T.);
#1197=ORIENTED_EDGE('',*,*,#1196,.F.);
#1198=EDGE_LOOP('',(#1190,#1197));
#1199=FACE_OUTER_BOUND('',#1198,.T.);
#1200=ADVANCED_FACE('',(#1199),#1189,.T.);
#1201=CARTESIAN_POINT('',(-9.130000000000001,0.0,3.830000000000000));
#1202=DIRECTION('',(1.0,0.0,2.188830E-016));
#1203=DIRECTION('',(0.0,1.0,0.0));
#1204=AXIS2_PLACEMENT_3D('',#1201,#1202,#1203);
#1205=CYLINDRICAL_SURFACE('',#1204,3.820000000000000);
#1206=ORIENTED_EDGE('',*,*,#1156,.T.);
#1207=CARTESIAN_POINT('',(0.470000000000001,0.0,3.830000000000002));
#1208=DIRECTION('',(1.0,0.0,0.0));
#1209=DIRECTION('',(0.0,1.0,0.0));
#1210=AXIS2_PLACEMENT_3D('',#1207,#1208,#1209);
#1211=CIRCLE('',#1210,3.820000000000000);
#1212=EDGE_CURVE('',#1151,#1168,#1211,.T.);
#1213=ORIENTED_EDGE('',*,*,#1212,.T.);
#1214=ORIENTED_EDGE('',*,*,#1173,.F.);
#1215=ORIENTED_EDGE('',*,*,#1196,.T.);
#1216=EDGE_LOOP('',(#1206,#1213,#1214,#1215));
#1217=FACE_OUTER_BOUND('',#1216,.T.);
#1218=ADVANCED_FACE('',(#1217),#1205,.T.);
#1219=CARTESIAN_POINT('',(0.470000000000000,0.0,3.830000000000001));
#1220=DIRECTION('',(1.0,0.0,0.0));
#1221=DIRECTION('',(0.0,0.0,-1.0));
#1222=AXIS2_PLACEMENT_3D('',#1219,#1220,#1221);
#1223=PLANE('',#1222);
#1224=ORIENTED_EDGE('',*,*,#1212,.F.);
#1225=ORIENTED_EDGE('',*,*,#1180,.F.);
#1226=EDGE_LOOP('',(#1224,#1225));
#1227=FACE_OUTER_BOUND('',#1226,.T.);
#1228=ADVANCED_FACE('',(#1227),#1223,.F.);
#1229=CLOSED_SHELL('',(#1184,#1200,#1218,#1228));
#1230=MANIFOLD_SOLID_BREP('5C3',#1229);
#1231=STYLED_ITEM('NONE',(#963),#1230);
#1232=CARTESIAN_POINT('',(-9.130000000000001,0.0,3.830000000000000));
#1233=DIRECTION('',(1.0,0.0,2.188830E-016));
#1234=DIRECTION('',(0.0,1.0,0.0));
#1235=AXIS2_PLACEMENT_3D('',#1232,#1233,#1234);
#1236=CYLINDRICAL_SURFACE('',#1235,3.820000000000000);
#1237=CARTESIAN_POINT('',(-0.730000000000000,3.820000000000000,3.830000000000001));
#1238=VERTEX_POINT('',#1237);
#1239=CARTESIAN_POINT('',(-1.930000000000001,3.820000000000000,3.830000000000001));
#1240=VERTEX_POINT('',#1239);
#1241=CARTESIAN_POINT('',(-0.730000000000000,3.820000000000000,3.830000000000002));
#1242=DIRECTION('',(-1.0,0.0,0.0));
#1243=VECTOR('',#1242,1.200000000000000);
#1244=LINE('',#1241,#1243);
#1245=EDGE_CURVE('',#1238,#1240,#1244,.T.);
#1246=ORIENTED_EDGE('',*,*,#1245,.F.);
#1247=CARTESIAN_POINT('',(-0.730000000000000,-3.820000000000000,3.830000000000001));
#1248=VERTEX_POINT('',#1247);
#1249=CARTESIAN_POINT('',(-0.730000000000000,0.0,3.830000000000002));
#1250=DIRECTION('',(-1.0,0.0,0.0));
#1251=DIRECTION('',(0.0,1.0,0.0));
#1252=AXIS2_PLACEMENT_3D('',#1249,#1250,#1251);
#1253=CIRCLE('',#1252,3.820000000000000);
#1254=EDGE_CURVE('',#1238,#1248,#1253,.T.);
#1255=ORIENTED_EDGE('',*,*,#1254,.T.);
#1256=CARTESIAN_POINT('',(-1.930000000000001,-3.820000000000000,3.830000000000001));
#1257=VERTEX_POINT('',#1256);
#1258=CARTESIAN_POINT('',(-0.730000000000000,-3.820000000000000,3.830000000000001));
#1259=DIRECTION('',(-1.0,0.0,0.0));
#1260=VECTOR('',#1259,1.200000000000000);
#1261=LINE('',#1258,#1260);
#1262=EDGE_CURVE('',#1248,#1257,#1261,.T.);
#1263=ORIENTED_EDGE('',*,*,#1262,.T.);
#1264=CARTESIAN_POINT('',(-1.930000000000001,0.0,3.830000000000002));
#1265=DIRECTION('',(1.0,0.0,0.0));
#1266=DIRECTION('',(0.0,1.0,0.0));
#1267=AXIS2_PLACEMENT_3D('',#1264,#1265,#1266);
#1268=CIRCLE('',#1267,3.820000000000000);
#1269=EDGE_CURVE('',#1257,#1240,#1268,.T.);
#1270=ORIENTED_EDGE('',*,*,#1269,.T.);
#1271=EDGE_LOOP('',(#1246,#1255,#1263,#1270));
#1272=FACE_OUTER_BOUND('',#1271,.T.);
#1273=ADVANCED_FACE('',(#1272),#1236,.T.);
#1274=CARTESIAN_POINT('',(-0.730000000000000,0.0,3.830000000000001));
#1275=DIRECTION('',(1.0,0.0,0.0));
#1276=DIRECTION('',(0.0,0.0,-1.0));
#1277=AXIS2_PLACEMENT_3D('',#1274,#1275,#1276);
#1278=PLANE('',#1277);
#1279=ORIENTED_EDGE('',*,*,#1254,.F.);
#1280=CARTESIAN_POINT('',(-0.730000000000000,0.0,3.830000000000002));
#1281=DIRECTION('',(-1.0,0.0,0.0));
#1282=DIRECTION('',(0.0,1.0,0.0));
#1283=AXIS2_PLACEMENT_3D('',#1280,#1281,#1282);
#1284=CIRCLE('',#1283,3.820000000000000);
#1285=EDGE_CURVE('',#1248,#1238,#1284,.T.);
#1286=ORIENTED_EDGE('',*,*,#1285,.F.);
#1287=EDGE_LOOP('',(#1279,#1286));
#1288=FACE_OUTER_BOUND('',#1287,.T.);
#1289=ADVANCED_FACE('',(#1288),#1278,.T.);
#1290=CARTESIAN_POINT('',(-1.930000000000001,0.0,3.830000000000001));
#1291=DIRECTION('',(1.0,0.0,0.0));
#1292=DIRECTION('',(0.0,0.0,-1.0));
#1293=AXIS2_PLACEMENT_3D('',#1290,#1291,#1292);
#1294=PLANE('',#1293);
#1295=CARTESIAN_POINT('',(-1.930000000000001,0.0,3.830000000000002));
#1296=DIRECTION('',(1.0,0.0,0.0));
#1297=DIRECTION('',(0.0,1.0,0.0));
#1298=AXIS2_PLACEMENT_3D('',#1295,#1296,#1297);
#1299=CIRCLE('',#1298,3.820000000000000);
#1300=EDGE_CURVE('',#1240,#1257,#1299,.T.);
#1301=ORIENTED_EDGE('',*,*,#1300,.F.);
#1302=ORIENTED_EDGE('',*,*,#1269,.F.);
#1303=EDGE_LOOP('',(#1301,#1302));
#1304=FACE_OUTER_BOUND('',#1303,.T.);
#1305=ADVANCED_FACE('',(#1304),#1294,.F.);
#1306=CARTESIAN_POINT('',(-9.130000000000001,0.0,3.830000000000000));
#1307=DIRECTION('',(1.0,0.0,2.188830E-016));
#1308=DIRECTION('',(0.0,1.0,0.0));
#1309=AXIS2_PLACEMENT_3D('',#1306,#1307,#1308);
#1310=CYLINDRICAL_SURFACE('',#1309,3.820000000000000);
#1311=ORIENTED_EDGE('',*,*,#1245,.T.);
#1312=ORIENTED_EDGE('',*,*,#1300,.T.);
#1313=ORIENTED_EDGE('',*,*,#1262,.F.);
#1314=ORIENTED_EDGE('',*,*,#1285,.T.);
#1315=EDGE_LOOP('',(#1311,#1312,#1313,#1314));
#1316=FACE_OUTER_BOUND('',#1315,.T.);
#1317=ADVANCED_FACE('',(#1316),#1310,.T.);
#1318=CLOSED_SHELL('',(#1273,#1289,#1305,#1317));
#1319=MANIFOLD_SOLID_BREP('5C3',#1318);
#1320=STYLED_ITEM('NONE',(#963),#1319);
#1321=CARTESIAN_POINT('',(-10.100000000000001,-1.998401E-016,2.930000000000001));
#1322=DIRECTION('',(0.0,-1.0,2.220446E-016));
#1323=DIRECTION('',(0.0,0.0,-1.0));
#1324=AXIS2_PLACEMENT_3D('',#1321,#1322,#1323);
#1325=TOROIDAL_SURFACE('',#1324,0.900000000000000,0.600000000000000);
#1326=CARTESIAN_POINT('',(-11.600000000000000,-1.998401E-016,2.930000000000001));
#1327=VERTEX_POINT('',#1326);
#1328=CARTESIAN_POINT('',(-10.100000000000000,1.332268E-016,4.430000000000001));
#1329=VERTEX_POINT('',#1328);
#1330=CARTESIAN_POINT('',(-10.100000000000001,-1.998401E-016,2.930000000000001));
#1331=DIRECTION('',(0.0,1.0,0.0));
#1332=DIRECTION('',(0.0,0.0,-1.0));
#1333=AXIS2_PLACEMENT_3D('',#1330,#1331,#1332);
#1334=CIRCLE('',#1333,1.500000000000000);
#1335=EDGE_CURVE('',#1327,#1329,#1334,.T.);
#1336=ORIENTED_EDGE('',*,*,#1335,.F.);
#1337=CARTESIAN_POINT('',(-11.0,-0.600000000000000,2.930000000000002));
#1338=VERTEX_POINT('',#1337);
#1339=CARTESIAN_POINT('',(-11.0,-1.998401E-016,2.930000000000002));
#1340=DIRECTION('',(0.0,0.0,1.0));
#1341=DIRECTION('',(0.0,1.0,0.0));
#1342=AXIS2_PLACEMENT_3D('',#1339,#1340,#1341);
#1343=CIRCLE('',#1342,0.600000000000000);
#1344=EDGE_CURVE('',#1327,#1338,#1343,.T.);
#1345=ORIENTED_EDGE('',*,*,#1344,.T.);
#1346=CARTESIAN_POINT('',(-10.400000000000000,-1.263638E-016,2.930000000000002));
#1347=VERTEX_POINT('',#1346);
#1348=CARTESIAN_POINT('',(-11.0,-1.998401E-016,2.930000000000002));
#1349=DIRECTION('',(0.0,0.0,1.0));
#1350=DIRECTION('',(0.0,1.0,0.0));
#1351=AXIS2_PLACEMENT_3D('',#1348,#1349,#1350);
#1352=CIRCLE('',#1351,0.600000000000000);
#1353=EDGE_CURVE('',#1338,#1347,#1352,.T.);
#1354=ORIENTED_EDGE('',*,*,#1353,.T.);
#1355=CARTESIAN_POINT('',(-10.100000000000000,-5.975038E-017,3.230000000000000));
#1356=VERTEX_POINT('',#1355);
#1357=CARTESIAN_POINT('',(-10.100000000000001,-1.263638E-016,2.930000000000001));
#1358=DIRECTION('',(0.0,1.0,0.0));
#1359=DIRECTION('',(0.0,0.0,-1.0));
#1360=AXIS2_PLACEMENT_3D('',#1357,#1358,#1359);
#1361=CIRCLE('',#1360,0.300000000000000);
#1362=EDGE_CURVE('',#1347,#1356,#1361,.T.);
#1363=ORIENTED_EDGE('',*,*,#1362,.T.);
#1364=CARTESIAN_POINT('',(-10.100000000000001,-0.600000000000000,3.830000000000001));
#1365=VERTEX_POINT('',#1364);
#1366=CARTESIAN_POINT('',(-10.100000000000000,9.860761E-032,3.830000000000001));
#1367=DIRECTION('',(1.0,0.0,0.0));
#1368=DIRECTION('',(0.0,1.0,0.0));
#1369=AXIS2_PLACEMENT_3D('',#1366,#1367,#1368);
#1370=CIRCLE('',#1369,0.600000000000000);
#1371=EDGE_CURVE('',#1365,#1356,#1370,.T.);
#1372=ORIENTED_EDGE('',*,*,#1371,.F.);
#1373=CARTESIAN_POINT('',(-10.100000000000000,9.860761E-032,3.830000000000001));
#1374=DIRECTION('',(1.0,0.0,0.0));
#1375=DIRECTION('',(0.0,1.0,0.0));
#1376=AXIS2_PLACEMENT_3D('',#1373,#1374,#1375);
#1377=CIRCLE('',#1376,0.600000000000000);
#1378=EDGE_CURVE('',#1329,#1365,#1377,.T.);
#1379=ORIENTED_EDGE('',*,*,#1378,.F.);
#1380=EDGE_LOOP('',(#1336,#1345,#1354,#1363,#1372,#1379));
#1381=FACE_OUTER_BOUND('',#1380,.T.);
#1382=ADVANCED_FACE('',(#1381),#1325,.T.);
#1383=CARTESIAN_POINT('',(-11.0,-1.998401E-016,2.930000000000002));
#1384=DIRECTION('',(0.0,-2.220446E-016,-1.0));
#1385=DIRECTION('',(0.0,1.0,0.0));
#1386=AXIS2_PLACEMENT_3D('',#1383,#1384,#1385);
#1387=CYLINDRICAL_SURFACE('',#1386,0.600000000000000);
#1388=CARTESIAN_POINT('',(-11.000000000000002,0.599999999999998,-3.600000000000000));
#1389=VERTEX_POINT('',#1388);
#1390=CARTESIAN_POINT('',(-11.000000000000002,0.600000000000000,2.930000000000001));
#1391=VERTEX_POINT('',#1390);
#1392=CARTESIAN_POINT('',(-11.0,0.599999999999998,-3.600000000000001));
#1393=DIRECTION('',(0.0,0.0,1.0));
#1394=VECTOR('',#1393,6.530000000000001);
#1395=LINE('',#1392,#1394);
#1396=EDGE_CURVE('',#1389,#1391,#1395,.T.);
#1397=ORIENTED_EDGE('',*,*,#1396,.F.);
#1398=CARTESIAN_POINT('',(-11.0,-0.600000000000002,-3.600000000000001));
#1399=VERTEX_POINT('',#1398);
#1400=CARTESIAN_POINT('',(-11.0,-1.649791E-015,-3.600000000000000));
#1401=DIRECTION('',(0.0,0.0,1.0));
#1402=DIRECTION('',(0.0,1.0,0.0));
#1403=AXIS2_PLACEMENT_3D('',#1400,#1401,#1402);
#1404=CIRCLE('',#1403,0.600000000000000);
#1405=EDGE_CURVE('',#1389,#1399,#1404,.T.);
#1406=ORIENTED_EDGE('',*,*,#1405,.T.);
#1407=CARTESIAN_POINT('',(-11.0,-0.600000000000002,-3.600000000000001));
#1408=DIRECTION('',(0.0,0.0,1.0));
#1409=VECTOR('',#1408,6.530000000000002);
#1410=LINE('',#1407,#1409);
#1411=EDGE_CURVE('',#1399,#1338,#1410,.T.);
#1412=ORIENTED_EDGE('',*,*,#1411,.T.);
#1413=ORIENTED_EDGE('',*,*,#1344,.F.);
#1414=CARTESIAN_POINT('',(-11.0,-1.998401E-016,2.930000000000002));
#1415=DIRECTION('',(0.0,0.0,1.0));
#1416=DIRECTION('',(0.0,1.0,0.0));
#1417=AXIS2_PLACEMENT_3D('',#1414,#1415,#1416);
#1418=CIRCLE('',#1417,0.600000000000000);
#1419=EDGE_CURVE('',#1391,#1327,#1418,.T.);
#1420=ORIENTED_EDGE('',*,*,#1419,.F.);
#1421=EDGE_LOOP('',(#1397,#1406,#1412,#1413,#1420));
#1422=FACE_OUTER_BOUND('',#1421,.T.);
#1423=ADVANCED_FACE('',(#1422),#1387,.T.);
#1424=CARTESIAN_POINT('',(-8.730000000000000,0.0,3.830000000000000));
#1425=DIRECTION('',(-1.0,7.197636E-032,3.241527E-016));
#1426=DIRECTION('',(0.0,1.0,0.0));
#1427=AXIS2_PLACEMENT_3D('',#1424,#1425,#1426);
#1428=CYLINDRICAL_SURFACE('',#1427,0.600000000000000);
#1429=CARTESIAN_POINT('',(-10.100000000000000,0.600000000000000,3.830000000000001));
#1430=VERTEX_POINT('',#1429);
#1431=CARTESIAN_POINT('',(-9.129999999999999,0.600000000000000,3.830000000000000));
#1432=VERTEX_POINT('',#1431);
#1433=CARTESIAN_POINT('',(-10.100000000000000,0.600000000000000,3.830000000000001));
#1434=DIRECTION('',(1.0,0.0,0.0));
#1435=VECTOR('',#1434,0.970000000000001);
#1436=LINE('',#1433,#1435);
#1437=EDGE_CURVE('',#1430,#1432,#1436,.T.);
#1438=ORIENTED_EDGE('',*,*,#1437,.F.);
#1439=CARTESIAN_POINT('',(-10.100000000000000,9.860761E-032,3.830000000000001));
#1440=DIRECTION('',(1.0,0.0,0.0));
#1441=DIRECTION('',(0.0,1.0,0.0));
#1442=AXIS2_PLACEMENT_3D('',#1439,#1440,#1441);
#1443=CIRCLE('',#1442,0.600000000000000);
#1444=EDGE_CURVE('',#1430,#1329,#1443,.T.);
#1445=ORIENTED_EDGE('',*,*,#1444,.T.);
#1446=ORIENTED_EDGE('',*,*,#1378,.T.);
#1447=CARTESIAN_POINT('',(-9.129999999999999,-0.600000000000000,3.830000000000000));
#1448=VERTEX_POINT('',#1447);
#1449=CARTESIAN_POINT('',(-10.100000000000000,-0.600000000000000,3.830000000000001));
#1450=DIRECTION('',(1.0,0.0,0.0));
#1451=VECTOR('',#1450,0.970000000000001);
#1452=LINE('',#1449,#1451);
#1453=EDGE_CURVE('',#1365,#1448,#1452,.T.);
#1454=ORIENTED_EDGE('',*,*,#1453,.T.);
#1455=CARTESIAN_POINT('',(-9.129999999999999,0.0,3.830000000000000));
#1456=DIRECTION('',(1.0,0.0,0.0));
#1457=DIRECTION('',(0.0,1.0,0.0));
#1458=AXIS2_PLACEMENT_3D('',#1455,#1456,#1457);
#1459=CIRCLE('',#1458,0.600000000000000);
#1460=EDGE_CURVE('',#1432,#1448,#1459,.T.);
#1461=ORIENTED_EDGE('',*,*,#1460,.F.);
#1462=EDGE_LOOP('',(#1438,#1445,#1446,#1454,#1461));
#1463=FACE_OUTER_BOUND('',#1462,.T.);
#1464=ADVANCED_FACE('',(#1463),#1428,.T.);
#1465=CARTESIAN_POINT('',(-8.730000000000000,0.0,3.830000000000000));
#1466=DIRECTION('',(-1.0,7.197636E-032,3.241527E-016));
#1467=DIRECTION('',(0.0,1.0,0.0));
#1468=AXIS2_PLACEMENT_3D('',#1465,#1466,#1467);
#1469=CYLINDRICAL_SURFACE('',#1468,0.600000000000000);
#1470=ORIENTED_EDGE('',*,*,#1437,.T.);
#1471=CARTESIAN_POINT('',(-9.129999999999999,0.0,3.830000000000000));
#1472=DIRECTION('',(1.0,0.0,0.0));
#1473=DIRECTION('',(0.0,1.0,0.0));
#1474=AXIS2_PLACEMENT_3D('',#1471,#1472,#1473);
#1475=CIRCLE('',#1474,0.600000000000000);
#1476=EDGE_CURVE('',#1448,#1432,#1475,.T.);
#1477=ORIENTED_EDGE('',*,*,#1476,.F.);
#1478=ORIENTED_EDGE('',*,*,#1453,.F.);
#1479=ORIENTED_EDGE('',*,*,#1371,.T.);
#1480=CARTESIAN_POINT('',(-10.100000000000000,9.860761E-032,3.830000000000001));
#1481=DIRECTION('',(1.0,0.0,0.0));
#1482=DIRECTION('',(0.0,1.0,0.0));
#1483=AXIS2_PLACEMENT_3D('',#1480,#1481,#1482);
#1484=CIRCLE('',#1483,0.600000000000000);
#1485=EDGE_CURVE('',#1356,#1430,#1484,.T.);
#1486=ORIENTED_EDGE('',*,*,#1485,.T.);
#1487=EDGE_LOOP('',(#1470,#1477,#1478,#1479,#1486));
#1488=FACE_OUTER_BOUND('',#1487,.T.);
#1489=ADVANCED_FACE('',(#1488),#1469,.T.);
#1490=CARTESIAN_POINT('',(-11.0,-1.998401E-016,2.930000000000002));
#1491=DIRECTION('',(0.0,-2.220446E-016,-1.0));
#1492=DIRECTION('',(0.0,1.0,0.0));
#1493=AXIS2_PLACEMENT_3D('',#1490,#1491,#1492);
#1494=CYLINDRICAL_SURFACE('',#1493,0.600000000000000);
#1495=ORIENTED_EDGE('',*,*,#1396,.T.);
#1496=CARTESIAN_POINT('',(-11.0,-1.998401E-016,2.930000000000002));
#1497=DIRECTION('',(0.0,0.0,1.0));
#1498=DIRECTION('',(0.0,1.0,0.0));
#1499=AXIS2_PLACEMENT_3D('',#1496,#1497,#1498);
#1500=CIRCLE('',#1499,0.600000000000000);
#1501=EDGE_CURVE('',#1347,#1391,#1500,.T.);
#1502=ORIENTED_EDGE('',*,*,#1501,.F.);
#1503=ORIENTED_EDGE('',*,*,#1353,.F.);
#1504=ORIENTED_EDGE('',*,*,#1411,.F.);
#1505=CARTESIAN_POINT('',(-11.0,-1.649791E-015,-3.600000000000000));
#1506=DIRECTION('',(0.0,0.0,1.0));
#1507=DIRECTION('',(0.0,1.0,0.0));
#1508=AXIS2_PLACEMENT_3D('',#1505,#1506,#1507);
#1509=CIRCLE('',#1508,0.600000000000000);
#1510=EDGE_CURVE('',#1399,#1389,#1509,.T.);
#1511=ORIENTED_EDGE('',*,*,#1510,.T.);
#1512=EDGE_LOOP('',(#1495,#1502,#1503,#1504,#1511));
#1513=FACE_OUTER_BOUND('',#1512,.T.);
#1514=ADVANCED_FACE('',(#1513),#1494,.T.);
#1515=CARTESIAN_POINT('',(-10.100000000000001,-1.998401E-016,2.930000000000001));
#1516=DIRECTION('',(0.0,-1.0,2.220446E-016));
#1517=DIRECTION('',(0.0,0.0,-1.0));
#1518=AXIS2_PLACEMENT_3D('',#1515,#1516,#1517);
#1519=TOROIDAL_SURFACE('',#1518,0.900000000000000,0.600000000000000);
#1520=ORIENTED_EDGE('',*,*,#1335,.T.);
#1521=ORIENTED_EDGE('',*,*,#1444,.F.);
#1522=ORIENTED_EDGE('',*,*,#1485,.F.);
#1523=ORIENTED_EDGE('',*,*,#1362,.F.);
#1524=ORIENTED_EDGE('',*,*,#1501,.T.);
#1525=ORIENTED_EDGE('',*,*,#1419,.T.);
#1526=EDGE_LOOP('',(#1520,#1521,#1522,#1523,#1524,#1525));
#1527=FACE_OUTER_BOUND('',#1526,.T.);
#1528=ADVANCED_FACE('',(#1527),#1519,.T.);
#1529=CARTESIAN_POINT('',(-11.0,-7.993606E-016,-3.600000000000000));
#1530=DIRECTION('',(0.0,0.0,1.0));
#1531=DIRECTION('',(1.0,0.0,0.0));
#1532=AXIS2_PLACEMENT_3D('',#1529,#1530,#1531);
#1533=PLANE('',#1532);
#1534=ORIENTED_EDGE('',*,*,#1405,.F.);
#1535=ORIENTED_EDGE('',*,*,#1510,.F.);
#1536=EDGE_LOOP('',(#1534,#1535));
#1537=FACE_OUTER_BOUND('',#1536,.T.);
#1538=ADVANCED_FACE('',(#1537),#1533,.F.);
#1539=CARTESIAN_POINT('',(-9.129999999999999,0.0,3.830000000000000));
#1540=DIRECTION('',(1.0,0.0,0.0));
#1541=DIRECTION('',(0.0,0.0,-1.0));
#1542=AXIS2_PLACEMENT_3D('',#1539,#1540,#1541);
#1543=PLANE('',#1542);
#1544=ORIENTED_EDGE('',*,*,#1460,.T.);
#1545=ORIENTED_EDGE('',*,*,#1476,.T.);
#1546=EDGE_LOOP('',(#1544,#1545));
#1547=FACE_OUTER_BOUND('',#1546,.T.);
#1548=ADVANCED_FACE('',(#1547),#1543,.T.);
#1549=CLOSED_SHELL('',(#1382,#1423,#1464,#1489,#1514,#1528,#1538,#1548));
#1550=MANIFOLD_SOLID_BREP('5BF',#1549);
#1551=STYLED_ITEM('NONE',(#867),#1550);
#1552=CARTESIAN_POINT('',(0.0,0.0,0.0));
#1553=DIRECTION('',(-1.0,0.0,0.0));
#1554=VECTOR('',#1553,0.500000000000000);
#1555=LINE('',#1552,#1554);
#1556=CARTESIAN_POINT('',(-0.500000000000000,0.0,0.0));
#1557=TRIMMED_CURVE('5B1',#1555,(PARAMETER_VALUE(0.0),#1552),(PARAMETER_VALUE(1.0),#1556),.T.,.PARAMETER.);
#1558=COLOUR_RGB('255',1.0,1.0,1.0);
#1559=CURVE_STYLE('NONE',#1560,POSITIVE_LENGTH_MEASURE(0.200000000000000),#1558);
#1560=DRAUGHTING_PRE_DEFINED_CURVE_FONT('continuous');
#1561=PRESENTATION_STYLE_ASSIGNMENT((#1559));
#1562=STYLED_ITEM('NONE',(#1561),#1557);
#1563=CARTESIAN_POINT('',(0.0,0.0,0.0));
#1564=DIRECTION('',(0.0,-1.0,0.0));
#1565=VECTOR('',#1564,0.500000000000000);
#1566=LINE('',#1563,#1565);
#1567=CARTESIAN_POINT('',(0.0,-0.500000000000000,0.0));
#1568=TRIMMED_CURVE('5B0',#1566,(PARAMETER_VALUE(0.0),#1563),(PARAMETER_VALUE(1.0),#1567),.T.,.PARAMETER.);
#1569=STYLED_ITEM('NONE',(#1561),#1568);
#1570=CARTESIAN_POINT('',(0.0,0.0,0.0));
#1571=DIRECTION('',(1.0,0.0,0.0));
#1572=VECTOR('',#1571,0.500000000000000);
#1573=LINE('',#1570,#1572);
#1574=CARTESIAN_POINT('',(0.500000000000000,0.0,0.0));
#1575=TRIMMED_CURVE('5AF',#1573,(PARAMETER_VALUE(0.0),#1570),(PARAMETER_VALUE(1.0),#1574),.T.,.PARAMETER.);
#1576=STYLED_ITEM('NONE',(#1561),#1575);
#1577=CARTESIAN_POINT('',(0.0,0.500000000000000,0.0));
#1578=DIRECTION('',(0.0,-1.0,0.0));
#1579=VECTOR('',#1578,0.500000000000000);
#1580=LINE('',#1577,#1579);
#1581=CARTESIAN_POINT('',(0.0,0.0,0.0));
#1582=TRIMMED_CURVE('5AE',#1580,(PARAMETER_VALUE(0.0),#1577),(PARAMETER_VALUE(1.0),#1581),.T.,.PARAMETER.);
#1583=STYLED_ITEM('NONE',(#1561),#1582);
#1584=ADVANCED_BREP_SHAPE_REPRESENTATION('ABSR1',(#152,#250,#346,#442,#860,#956,#1052,#1141,#1230,#1319,#1550),#28);
#1585=SHAPE_REPRESENTATION_RELATIONSHIP('SRRPL1','',#1584,#62);
#1586=GEOMETRIC_CURVE_SET('GCS1',(#1557,#1568,#1575,#1582));
#1587=GEOMETRICALLY_BOUNDED_WIREFRAME_SHAPE_REPRESENTATION('GBWSR1',(#1586),#28);
#1588=SHAPE_REPRESENTATION_RELATIONSHIP('SRRPL2','',#1587,#62);
ENDSEC;
END-ISO-10303-21;
