ISO-10303-21;
HEADER;
/****************************************************************
 * Generated by software with PDElib inside                    *
 * PDElib Version v51a, created Fri 09/10/2010                  *
 * ITI Transcendata (http://www.transcendata.com/)              *
 ****************************************************************/
FILE_DESCRIPTION((''),'2;1');
FILE_NAME('RES_METALLUX_PR 2550.stp','2012-11-12T11:59:13',(''),(''),'Mechanical Desktop 2011','Mechanical Desktop 2011',', , ');
FILE_SCHEMA(('AUTOMOTIVE_DESIGN { 1 2 10303 214 1 1 1 1 }'));
ENDSEC;
DATA;
#10=(NAMED_UNIT(*)PLANE_ANGLE_UNIT()SI_UNIT($,.RADIAN.));
#11=DIMENSIONAL_EXPONENTS(0.0,0.0,0.0,0.0,0.0,0.0,0.0);
#12=PLANE_ANGLE_MEASURE_WITH_UNIT(PLANE_ANGLE_MEASURE(0.0174532925),#10);
#16=(CONVERSION_BASED_UNIT('DEGREE',#12)NAMED_UNIT(#11)PLANE_ANGLE_UNIT());
#20=(NAMED_UNIT(*)SI_UNIT($,.STERADIAN.)SOLID_ANGLE_UNIT());
#24=(LENGTH_UNIT()NAMED_UNIT(*)SI_UNIT(.MILLI.,.METRE.));
#26=UNCERTAINTY_MEASURE_WITH_UNIT(LENGTH_MEASURE(0.000001),#24,'DISTANCE_ACCURACY_VALUE','');
#28=(GEOMETRIC_REPRESENTATION_CONTEXT(3)GLOBAL_UNCERTAINTY_ASSIGNED_CONTEXT((#26))GLOBAL_UNIT_ASSIGNED_CONTEXT((#16,#20,#24))REPRESENTATION_CONTEXT('','3D'));
#29=APPLICATION_CONTEXT('automotive design');
#30=APPLICATION_PROTOCOL_DEFINITION('INTERNATIONAL_STANDARD','automotive_design',1998,#29);
#31=PRODUCT_CONTEXT('3D Mechanical Parts',#29,'mechanical');
#32=PRODUCT('Product','Product','',(#31));
#33=PRODUCT_RELATED_PRODUCT_CATEGORY('part',$,(#32));
#34=PRODUCT_CATEGORY('part',$);
#35=PERSON('1','Design','Joe',$,$,$);
#36=ORGANIZATION($,'None','None');
#37=PERSON_AND_ORGANIZATION(#35,#36);
#38=PERSON_AND_ORGANIZATION_ROLE('design_owner');
#39=APPLIED_PERSON_AND_ORGANIZATION_ASSIGNMENT(#37,#38,(#32));
#40=PRODUCT_DEFINITION_FORMATION_WITH_SPECIFIED_SOURCE('None','',#32,.BOUGHT.);
#41=PERSON('2','Creator','Joe',$,$,$);
#42=ORGANIZATION($,'None','None');
#43=PERSON_AND_ORGANIZATION(#41,#42);
#44=PERSON_AND_ORGANIZATION_ROLE('creator');
#45=APPLIED_PERSON_AND_ORGANIZATION_ASSIGNMENT(#43,#44,(#40));
#46=PERSON('3','Supplier','Joe',$,$,$);
#47=ORGANIZATION($,'None','None');
#48=PERSON_AND_ORGANIZATION(#46,#47);
#49=PERSON_AND_ORGANIZATION_ROLE('design_supplier');
#50=APPLIED_PERSON_AND_ORGANIZATION_ASSIGNMENT(#48,#49,(#40));
#51=PRODUCT_DEFINITION_CONTEXT('part definition',#29,'design');
#52=PRODUCT_DEFINITION('None','',#40,#51);
#53=PERSON('4','Creator','Joe',$,$,$);
#54=ORGANIZATION($,'None','None');
#55=PERSON_AND_ORGANIZATION(#53,#54);
#56=PERSON_AND_ORGANIZATION_ROLE('creator');
#57=APPLIED_PERSON_AND_ORGANIZATION_ASSIGNMENT(#55,#56,(#52));
#58=CARTESIAN_POINT('NONE',(0.0,0.0,0.0));
#59=DIRECTION('NONE',(0.0,0.0,1.0));
#60=DIRECTION('NONE',(1.0,0.0,0.0));
#61=AXIS2_PLACEMENT_3D('NONE',#58,#59,#60);
#62=SHAPE_REPRESENTATION('SR1',(#61),#28);
#63=PRODUCT_DEFINITION_SHAPE('PDS1','Test Part',#52);
#64=SHAPE_DEFINITION_REPRESENTATION(#63,#62);
#65=CARTESIAN_POINT('',(5.361446609406726,2.186446609406725,0.76));
#66=CARTESIAN_POINT('',(5.361446609406726,2.186446609406725,0.5));
#67=CARTESIAN_POINT('',(5.714999999999999,1.832893218813452,0.76));
#68=CARTESIAN_POINT('',(5.714999999999999,1.832893218813452,0.5));
#69=CARTESIAN_POINT('',(6.068553390593273,2.186446609406725,0.76));
#70=CARTESIAN_POINT('',(6.068553390593273,2.186446609406725,0.5));
#71=CARTESIAN_POINT('',(6.422106781186548,2.539999999999998,0.76));
#72=CARTESIAN_POINT('',(6.422106781186548,2.539999999999998,0.5));
#73=CARTESIAN_POINT('',(6.068553390593274,2.893553390593272,0.76));
#74=CARTESIAN_POINT('',(6.068553390593274,2.893553390593272,0.5));
#75=CARTESIAN_POINT('',(5.715000000000001,3.247106781186546,0.76));
#76=CARTESIAN_POINT('',(5.715000000000001,3.247106781186546,0.5));
#77=CARTESIAN_POINT('',(5.361446609406727,2.893553390593273,0.76));
#78=CARTESIAN_POINT('',(5.361446609406727,2.893553390593273,0.5));
#79=CARTESIAN_POINT('',(5.007893218813453,2.539999999999999,0.76));
#80=CARTESIAN_POINT('',(5.007893218813453,2.539999999999999,0.5));
#81=CARTESIAN_POINT('',(5.361446609406726,2.186446609406725,0.76));
#82=CARTESIAN_POINT('',(5.361446609406726,2.186446609406725,0.5));
#90=(BOUNDED_SURFACE()B_SPLINE_SURFACE(1,2,((#65,#67,#69,#71,#73,#75,#77,#79,#81),(#66,#68,#70,#72,#74,#76,#78,#80,#82)),.UNSPECIFIED.,.F.,.T.,.U.)B_SPLINE_SURFACE_WITH_KNOTS((2,2),(3,2,2,2,3),(-0.559860537852774,-0.039860537852774),(0.0,0.785398163397448,1.570796326794896,2.356194490192344,3.141592653589793),.UNSPECIFIED.)GEOMETRIC_REPRESENTATION_ITEM()RATIONAL_B_SPLINE_SURFACE(((1.0,0.707106781186548,1.0,0.707106781186548,1.0,0.707106781186548,1.0,0.707106781186548,1.0),(1.0,0.707106781186548,1.0,0.707106781186548,1.0,0.707106781186548,1.0,0.707106781186548,1.0)))REPRESENTATION_ITEM('')SURFACE());
#91=CARTESIAN_POINT('',(6.215,2.539999999999999,0.76));
#92=VERTEX_POINT('',#91);
#93=CARTESIAN_POINT('',(5.215,2.539999999999999,0.76));
#94=VERTEX_POINT('',#93);
#95=CARTESIAN_POINT('',(5.715,2.539999999999999,0.76));
#96=DIRECTION('',(0.0,0.0,1.0));
#97=DIRECTION('',(-0.707106781186548,0.707106781186548,0.0));
#98=AXIS2_PLACEMENT_3D('',#95,#96,#97);
#99=CIRCLE('',#98,0.5);
#100=EDGE_CURVE('',#92,#94,#99,.T.);
#101=ORIENTED_EDGE('',*,*,#100,.F.);
#102=CARTESIAN_POINT('',(6.215,2.539999999999999,0.5));
#103=VERTEX_POINT('',#102);
#104=CARTESIAN_POINT('',(6.215,2.539999999999999,0.5));
#105=DIRECTION('',(0.0,0.0,1.0));
#106=VECTOR('',#105,0.26);
#107=LINE('',#104,#106);
#108=EDGE_CURVE('',#103,#92,#107,.T.);
#109=ORIENTED_EDGE('',*,*,#108,.F.);
#110=CARTESIAN_POINT('',(5.215,2.539999999999999,0.5));
#111=VERTEX_POINT('',#110);
#112=CARTESIAN_POINT('',(5.715,2.539999999999999,0.5));
#113=DIRECTION('',(0.0,0.0,-1.0));
#114=DIRECTION('',(0.0,1.0,0.0));
#115=AXIS2_PLACEMENT_3D('',#112,#113,#114);
#116=CIRCLE('',#115,0.5);
#117=EDGE_CURVE('',#111,#103,#116,.T.);
#118=ORIENTED_EDGE('',*,*,#117,.F.);
#119=CARTESIAN_POINT('',(5.215,2.539999999999999,0.76));
#120=DIRECTION('',(0.0,0.0,-1.0));
#121=VECTOR('',#120,0.26);
#122=LINE('',#119,#121);
#123=EDGE_CURVE('',#94,#111,#122,.T.);
#124=ORIENTED_EDGE('',*,*,#123,.F.);
#125=EDGE_LOOP('',(#101,#109,#118,#124));
#126=FACE_OUTER_BOUND('',#125,.T.);
#127=ADVANCED_FACE('',(#126),#90,.T.);
#128=CARTESIAN_POINT('',(5.715,2.539999999999999,2.220446E-016));
#129=CARTESIAN_POINT('',(6.215,2.539999999999999,2.651083E-016));
#130=CARTESIAN_POINT('',(6.215,2.539999999999999,0.5));
#131=CARTESIAN_POINT('',(5.715,2.539999999999999,2.220446E-016));
#132=CARTESIAN_POINT('',(6.215,2.039999999999999,2.651083E-016));
#133=CARTESIAN_POINT('',(6.215,2.039999999999999,0.5));
#134=CARTESIAN_POINT('',(5.715,2.539999999999999,2.220446E-016));
#135=CARTESIAN_POINT('',(5.714999999999999,2.039999999999999,2.775558E-016));
#136=CARTESIAN_POINT('',(5.715,2.039999999999999,0.5));
#137=CARTESIAN_POINT('',(5.715,2.539999999999999,2.220446E-016));
#138=CARTESIAN_POINT('',(5.215,2.039999999999999,2.900032E-016));
#139=CARTESIAN_POINT('',(5.215,2.039999999999999,0.5));
#140=CARTESIAN_POINT('',(5.715,2.539999999999999,2.220446E-016));
#141=CARTESIAN_POINT('',(5.215,2.539999999999999,2.900032E-016));
#142=CARTESIAN_POINT('',(5.215,2.539999999999999,0.5));
#143=CARTESIAN_POINT('',(5.715,2.539999999999999,2.220446E-016));
#144=CARTESIAN_POINT('',(5.215,3.039999999999999,2.900032E-016));
#145=CARTESIAN_POINT('',(5.215,3.039999999999998,0.5));
#146=CARTESIAN_POINT('',(5.715,2.539999999999999,2.220446E-016));
#147=CARTESIAN_POINT('',(5.714999999999999,3.039999999999999,2.775558E-016));
#148=CARTESIAN_POINT('',(5.715,3.039999999999999,0.5));
#149=CARTESIAN_POINT('',(5.715,2.539999999999999,2.220446E-016));
#150=CARTESIAN_POINT('',(6.215,3.039999999999999,2.651083E-016));
#151=CARTESIAN_POINT('',(6.215,3.039999999999998,0.5));
#152=CARTESIAN_POINT('',(5.715,2.539999999999999,2.220446E-016));
#153=CARTESIAN_POINT('',(6.215,2.539999999999999,2.651083E-016));
#154=CARTESIAN_POINT('',(6.215,2.539999999999999,0.5));
#162=(BOUNDED_SURFACE()B_SPLINE_SURFACE(2,2,((#128,#131,#134,#137,#140,#143,#146,#149,#152),(#129,#132,#135,#138,#141,#144,#147,#150,#153),(#130,#133,#136,#139,#142,#145,#148,#151,#154)),.UNSPECIFIED.,.F.,.T.,.U.)B_SPLINE_SURFACE_WITH_KNOTS((3,3),(3,2,2,2,3),(-1.570796326794897,0.0),(0.0,1.570796326794897,3.141592653589793,4.71238898038469,6.283185307179586),.UNSPECIFIED.)GEOMETRIC_REPRESENTATION_ITEM()RATIONAL_B_SPLINE_SURFACE(((1.0,0.707106781186548,1.0,0.707106781186548,1.0,0.707106781186548,1.0,0.707106781186548,1.0),(0.707106781186549,0.500000000000001,0.707106781186549,0.500000000000001,0.707106781186549,0.500000000000001,0.707106781186549,0.500000000000001,0.707106781186549),(1.0,0.707106781186548,1.0,0.707106781186548,1.0,0.707106781186548,1.0,0.707106781186548,1.0)))REPRESENTATION_ITEM('')SURFACE());
#163=ORIENTED_EDGE('',*,*,#117,.T.);
#164=CARTESIAN_POINT('',(5.715,2.539999999999999,2.220446E-016));
#165=VERTEX_POINT('',#164);
#166=CARTESIAN_POINT('',(5.715,2.539999999999999,0.5));
#167=DIRECTION('',(0.0,-1.0,0.0));
#168=DIRECTION('',(0.0,0.0,-1.0));
#169=AXIS2_PLACEMENT_3D('',#166,#167,#168);
#170=CIRCLE('',#169,0.5);
#171=EDGE_CURVE('',#165,#103,#170,.T.);
#172=ORIENTED_EDGE('',*,*,#171,.F.);
#173=CARTESIAN_POINT('',(5.715,2.539999999999999,0.5));
#174=DIRECTION('',(0.0,-1.0,0.0));
#175=DIRECTION('',(0.0,0.0,-1.0));
#176=AXIS2_PLACEMENT_3D('',#173,#174,#175);
#177=CIRCLE('',#176,0.5);
#178=EDGE_CURVE('',#111,#165,#177,.T.);
#179=ORIENTED_EDGE('',*,*,#178,.F.);
#180=EDGE_LOOP('',(#163,#172,#179));
#181=FACE_OUTER_BOUND('',#180,.T.);
#182=ADVANCED_FACE('',(#181),#162,.T.);
#183=CARTESIAN_POINT('',(6.215,2.539999999999999,0.5));
#184=CARTESIAN_POINT('',(6.215,2.539999999999999,0.760000000000001));
#185=CARTESIAN_POINT('',(6.215,-2.54,0.5));
#186=CARTESIAN_POINT('',(6.215,-2.54,0.760000000000001));
#187=B_SPLINE_SURFACE_WITH_KNOTS('',1,1,((#183,#185),(#184,#186)),.UNSPECIFIED.,.F.,.F.,.U.,(2,2),(2,2),(0.0,0.260000000000001),(0.0,5.079999999999998),.UNSPECIFIED.);
#188=ORIENTED_EDGE('',*,*,#108,.T.);
#189=CARTESIAN_POINT('',(6.215,-2.54,0.760000000000001));
#190=VERTEX_POINT('',#189);
#191=CARTESIAN_POINT('',(6.215,2.539999999999999,0.76));
#192=DIRECTION('',(0.0,-1.0,0.0));
#193=VECTOR('',#192,5.079999999999998);
#194=LINE('',#191,#193);
#195=EDGE_CURVE('',#92,#190,#194,.T.);
#196=ORIENTED_EDGE('',*,*,#195,.T.);
#197=CARTESIAN_POINT('',(6.215,-2.54,0.500000000000001));
#198=VERTEX_POINT('',#197);
#199=CARTESIAN_POINT('',(6.215,-2.54,0.760000000000001));
#200=DIRECTION('',(0.0,0.0,-1.0));
#201=VECTOR('',#200,0.26);
#202=LINE('',#199,#201);
#203=EDGE_CURVE('',#190,#198,#202,.T.);
#204=ORIENTED_EDGE('',*,*,#203,.T.);
#205=CARTESIAN_POINT('',(6.215,2.539999999999999,0.5));
#206=DIRECTION('',(0.0,-1.0,0.0));
#207=VECTOR('',#206,5.079999999999998);
#208=LINE('',#205,#207);
#209=EDGE_CURVE('',#103,#198,#208,.T.);
#210=ORIENTED_EDGE('',*,*,#209,.F.);
#211=EDGE_LOOP('',(#188,#196,#204,#210));
#212=FACE_OUTER_BOUND('',#211,.T.);
#213=ADVANCED_FACE('',(#212),#187,.T.);
#214=CARTESIAN_POINT('',(5.715,2.539999999999999,1.0));
#215=CARTESIAN_POINT('',(5.715,-2.54,1.000000000000001));
#216=CARTESIAN_POINT('',(6.215,2.539999999999999,1.0));
#217=CARTESIAN_POINT('',(6.215,-2.54,1.000000000000001));
#218=CARTESIAN_POINT('',(6.215,2.539999999999999,0.5));
#219=CARTESIAN_POINT('',(6.215,-2.54,0.500000000000001));
#220=CARTESIAN_POINT('',(6.215,2.539999999999999,3.330669E-016));
#221=CARTESIAN_POINT('',(6.215,-2.54,1.443290E-015));
#222=CARTESIAN_POINT('',(5.715,2.539999999999999,2.220446E-016));
#223=CARTESIAN_POINT('',(5.715,-2.54,1.332268E-015));
#224=CARTESIAN_POINT('',(5.215,2.539999999999999,3.330669E-016));
#225=CARTESIAN_POINT('',(5.215,-2.54,1.443290E-015));
#226=CARTESIAN_POINT('',(5.215,2.539999999999999,0.5));
#227=CARTESIAN_POINT('',(5.215,-2.54,0.500000000000001));
#228=CARTESIAN_POINT('',(5.215,2.539999999999999,1.0));
#229=CARTESIAN_POINT('',(5.215,-2.54,1.000000000000001));
#230=CARTESIAN_POINT('',(5.715,2.539999999999999,1.0));
#231=CARTESIAN_POINT('',(5.715,-2.54,1.000000000000001));
#239=(BOUNDED_SURFACE()B_SPLINE_SURFACE(1,2,((#214,#216,#218,#220,#222,#224,#226,#228,#230),(#215,#217,#219,#221,#223,#225,#227,#229,#231)),.UNSPECIFIED.,.F.,.T.,.U.)B_SPLINE_SURFACE_WITH_KNOTS((2,2),(3,2,2,2,3),(1.0,11.159999999999997),(0.0,0.785398163397448,1.570796326794897,2.356194490192345,3.141592653589793),.UNSPECIFIED.)GEOMETRIC_REPRESENTATION_ITEM()RATIONAL_B_SPLINE_SURFACE(((1.0,0.707106781186548,1.0,0.707106781186548,1.0,0.707106781186548,1.0,0.707106781186548,1.0),(1.0,0.707106781186548,1.0,0.707106781186548,1.0,0.707106781186548,1.0,0.707106781186548,1.0)))REPRESENTATION_ITEM('')SURFACE());
#240=ORIENTED_EDGE('',*,*,#178,.T.);
#241=ORIENTED_EDGE('',*,*,#171,.T.);
#242=ORIENTED_EDGE('',*,*,#209,.T.);
#243=CARTESIAN_POINT('',(5.715,-2.54,1.332268E-015));
#244=VERTEX_POINT('',#243);
#245=CARTESIAN_POINT('',(5.715,-2.54,0.500000000000001));
#246=DIRECTION('',(0.0,1.0,0.0));
#247=DIRECTION('',(0.0,0.0,-1.0));
#248=AXIS2_PLACEMENT_3D('',#245,#246,#247);
#249=CIRCLE('',#248,0.5);
#250=EDGE_CURVE('',#198,#244,#249,.T.);
#251=ORIENTED_EDGE('',*,*,#250,.T.);
#252=CARTESIAN_POINT('',(5.215,-2.54,0.500000000000001));
#253=VERTEX_POINT('',#252);
#254=CARTESIAN_POINT('',(5.715,-2.54,0.500000000000001));
#255=DIRECTION('',(0.0,1.0,0.0));
#256=DIRECTION('',(0.0,0.0,-1.0));
#257=AXIS2_PLACEMENT_3D('',#254,#255,#256);
#258=CIRCLE('',#257,0.5);
#259=EDGE_CURVE('',#244,#253,#258,.T.);
#260=ORIENTED_EDGE('',*,*,#259,.T.);
#261=CARTESIAN_POINT('',(5.215,2.539999999999999,0.5));
#262=DIRECTION('',(0.0,-1.0,0.0));
#263=VECTOR('',#262,5.079999999999998);
#264=LINE('',#261,#263);
#265=EDGE_CURVE('',#111,#253,#264,.T.);
#266=ORIENTED_EDGE('',*,*,#265,.F.);
#267=EDGE_LOOP('',(#240,#241,#242,#251,#260,#266));
#268=FACE_OUTER_BOUND('',#267,.T.);
#269=ADVANCED_FACE('',(#268),#239,.T.);
#270=CARTESIAN_POINT('',(5.215,2.539999999999999,0.760000000000001));
#271=CARTESIAN_POINT('',(5.215,2.539999999999999,0.5));
#272=CARTESIAN_POINT('',(5.215,-2.54,0.760000000000001));
#273=CARTESIAN_POINT('',(5.215,-2.54,0.5));
#274=B_SPLINE_SURFACE_WITH_KNOTS('',1,1,((#270,#272),(#271,#273)),.UNSPECIFIED.,.F.,.F.,.U.,(2,2),(2,2),(0.0,0.260000000000001),(0.0,5.079999999999998),.UNSPECIFIED.);
#275=ORIENTED_EDGE('',*,*,#123,.T.);
#276=ORIENTED_EDGE('',*,*,#265,.T.);
#277=CARTESIAN_POINT('',(5.215,-2.54,0.760000000000001));
#278=VERTEX_POINT('',#277);
#279=CARTESIAN_POINT('',(5.215,-2.54,0.500000000000001));
#280=DIRECTION('',(0.0,0.0,1.0));
#281=VECTOR('',#280,0.26);
#282=LINE('',#279,#281);
#283=EDGE_CURVE('',#253,#278,#282,.T.);
#284=ORIENTED_EDGE('',*,*,#283,.T.);
#285=CARTESIAN_POINT('',(5.215,2.539999999999999,0.76));
#286=DIRECTION('',(0.0,-1.0,0.0));
#287=VECTOR('',#286,5.079999999999998);
#288=LINE('',#285,#287);
#289=EDGE_CURVE('',#94,#278,#288,.T.);
#290=ORIENTED_EDGE('',*,*,#289,.F.);
#291=EDGE_LOOP('',(#275,#276,#284,#290));
#292=FACE_OUTER_BOUND('',#291,.T.);
#293=ADVANCED_FACE('',(#292),#274,.T.);
#294=CARTESIAN_POINT('',(6.068553390593274,-2.186446609406726,0.760000000000001));
#295=CARTESIAN_POINT('',(6.068553390593274,-2.186446609406726,0.500000000000001));
#296=CARTESIAN_POINT('',(5.715,-1.832893218813452,0.760000000000001));
#297=CARTESIAN_POINT('',(5.715,-1.832893218813452,0.500000000000001));
#298=CARTESIAN_POINT('',(5.361446609406726,-2.186446609406726,0.760000000000001));
#299=CARTESIAN_POINT('',(5.361446609406726,-2.186446609406726,0.500000000000001));
#300=CARTESIAN_POINT('',(5.007893218813452,-2.54,0.760000000000001));
#301=CARTESIAN_POINT('',(5.007893218813452,-2.54,0.500000000000001));
#302=CARTESIAN_POINT('',(5.361446609406726,-2.893553390593274,0.760000000000001));
#303=CARTESIAN_POINT('',(5.361446609406726,-2.893553390593274,0.500000000000001));
#304=CARTESIAN_POINT('',(5.715,-3.247106781186548,0.760000000000001));
#305=CARTESIAN_POINT('',(5.715,-3.247106781186548,0.500000000000001));
#306=CARTESIAN_POINT('',(6.068553390593274,-2.893553390593274,0.760000000000001));
#307=CARTESIAN_POINT('',(6.068553390593274,-2.893553390593274,0.500000000000001));
#308=CARTESIAN_POINT('',(6.422106781186548,-2.54,0.760000000000001));
#309=CARTESIAN_POINT('',(6.422106781186548,-2.54,0.500000000000001));
#310=CARTESIAN_POINT('',(6.068553390593274,-2.186446609406726,0.760000000000001));
#311=CARTESIAN_POINT('',(6.068553390593274,-2.186446609406726,0.500000000000001));
#319=(BOUNDED_SURFACE()B_SPLINE_SURFACE(1,2,((#294,#296,#298,#300,#302,#304,#306,#308,#310),(#295,#297,#299,#301,#303,#305,#307,#309,#311)),.UNSPECIFIED.,.F.,.T.,.U.)B_SPLINE_SURFACE_WITH_KNOTS((2,2),(3,2,2,2,3),(-0.299860537852775,0.220139462147225),(0.0,0.785398163397448,1.570796326794896,2.356194490192344,3.141592653589793),.UNSPECIFIED.)GEOMETRIC_REPRESENTATION_ITEM()RATIONAL_B_SPLINE_SURFACE(((1.0,0.707106781186548,1.0,0.707106781186548,1.0,0.707106781186548,1.0,0.707106781186548,1.0),(1.0,0.707106781186548,1.0,0.707106781186548,1.0,0.707106781186548,1.0,0.707106781186548,1.0)))REPRESENTATION_ITEM('')SURFACE());
#320=CARTESIAN_POINT('',(5.715,-2.54,0.76));
#321=DIRECTION('',(0.0,0.0,1.0));
#322=DIRECTION('',(0.707106781186548,-0.707106781186548,0.0));
#323=AXIS2_PLACEMENT_3D('',#320,#321,#322);
#324=CIRCLE('',#323,0.5);
#325=EDGE_CURVE('',#278,#190,#324,.T.);
#326=ORIENTED_EDGE('',*,*,#325,.F.);
#327=ORIENTED_EDGE('',*,*,#283,.F.);
#328=CARTESIAN_POINT('',(5.715,-2.54,0.500000000000001));
#329=DIRECTION('',(0.0,0.0,-1.0));
#330=DIRECTION('',(0.0,-1.0,0.0));
#331=AXIS2_PLACEMENT_3D('',#328,#329,#330);
#332=CIRCLE('',#331,0.5);
#333=EDGE_CURVE('',#198,#253,#332,.T.);
#334=ORIENTED_EDGE('',*,*,#333,.F.);
#335=ORIENTED_EDGE('',*,*,#203,.F.);
#336=EDGE_LOOP('',(#326,#327,#334,#335));
#337=FACE_OUTER_BOUND('',#336,.T.);
#338=ADVANCED_FACE('',(#337),#319,.T.);
#339=CARTESIAN_POINT('',(5.715,-2.54,1.332268E-015));
#340=CARTESIAN_POINT('',(6.215,-2.54,1.375331E-015));
#341=CARTESIAN_POINT('',(6.215,-2.54,0.500000000000001));
#342=CARTESIAN_POINT('',(5.715,-2.54,1.332268E-015));
#343=CARTESIAN_POINT('',(6.215,-3.04,1.375331E-015));
#344=CARTESIAN_POINT('',(6.215,-3.04,0.500000000000001));
#345=CARTESIAN_POINT('',(5.715,-2.54,1.332268E-015));
#346=CARTESIAN_POINT('',(5.714999999999999,-3.04,1.387779E-015));
#347=CARTESIAN_POINT('',(5.715,-3.04,0.500000000000001));
#348=CARTESIAN_POINT('',(5.715,-2.54,1.332268E-015));
#349=CARTESIAN_POINT('',(5.215,-3.04,1.400226E-015));
#350=CARTESIAN_POINT('',(5.215,-3.04,0.500000000000001));
#351=CARTESIAN_POINT('',(5.715,-2.54,1.332268E-015));
#352=CARTESIAN_POINT('',(5.215,-2.54,1.400226E-015));
#353=CARTESIAN_POINT('',(5.215,-2.54,0.500000000000001));
#354=CARTESIAN_POINT('',(5.715,-2.54,1.332268E-015));
#355=CARTESIAN_POINT('',(5.215,-2.04,1.400226E-015));
#356=CARTESIAN_POINT('',(5.215,-2.04,0.500000000000001));
#357=CARTESIAN_POINT('',(5.715,-2.54,1.332268E-015));
#358=CARTESIAN_POINT('',(5.714999999999999,-2.04,1.387779E-015));
#359=CARTESIAN_POINT('',(5.715,-2.04,0.500000000000001));
#360=CARTESIAN_POINT('',(5.715,-2.54,1.332268E-015));
#361=CARTESIAN_POINT('',(6.215,-2.04,1.375331E-015));
#362=CARTESIAN_POINT('',(6.215,-2.04,0.500000000000001));
#363=CARTESIAN_POINT('',(5.715,-2.54,1.332268E-015));
#364=CARTESIAN_POINT('',(6.215,-2.54,1.375331E-015));
#365=CARTESIAN_POINT('',(6.215,-2.54,0.500000000000001));
#373=(BOUNDED_SURFACE()B_SPLINE_SURFACE(2,2,((#339,#342,#345,#348,#351,#354,#357,#360,#363),(#340,#343,#346,#349,#352,#355,#358,#361,#364),(#341,#344,#347,#350,#353,#356,#359,#362,#365)),.UNSPECIFIED.,.F.,.T.,.U.)B_SPLINE_SURFACE_WITH_KNOTS((3,3),(3,2,2,2,3),(-1.570796326794897,0.0),(0.0,1.570796326794897,3.141592653589793,4.71238898038469,6.283185307179586),.UNSPECIFIED.)GEOMETRIC_REPRESENTATION_ITEM()RATIONAL_B_SPLINE_SURFACE(((1.0,0.707106781186548,1.0,0.707106781186548,1.0,0.707106781186548,1.0,0.707106781186548,1.0),(0.707106781186549,0.500000000000001,0.707106781186549,0.500000000000001,0.707106781186549,0.500000000000001,0.707106781186549,0.500000000000001,0.707106781186549),(1.0,0.707106781186548,1.0,0.707106781186548,1.0,0.707106781186548,1.0,0.707106781186548,1.0)))REPRESENTATION_ITEM('')SURFACE());
#374=ORIENTED_EDGE('',*,*,#333,.T.);
#375=ORIENTED_EDGE('',*,*,#259,.F.);
#376=ORIENTED_EDGE('',*,*,#250,.F.);
#377=EDGE_LOOP('',(#374,#375,#376));
#378=FACE_OUTER_BOUND('',#377,.T.);
#379=ADVANCED_FACE('',(#378),#373,.T.);
#380=CARTESIAN_POINT('',(6.215,3.039999999999999,0.76));
#381=CARTESIAN_POINT('',(5.215,3.039999999999999,0.76));
#382=CARTESIAN_POINT('',(6.215,-3.04,0.760000000000001));
#383=CARTESIAN_POINT('',(5.215,-3.04,0.760000000000001));
#384=B_SPLINE_SURFACE_WITH_KNOTS('',1,1,((#380,#382),(#381,#383)),.UNSPECIFIED.,.F.,.F.,.U.,(2,2),(2,2),(0.0,1.0),(0.0,6.079999999999998),.UNSPECIFIED.);
#385=ORIENTED_EDGE('',*,*,#100,.T.);
#386=ORIENTED_EDGE('',*,*,#289,.T.);
#387=ORIENTED_EDGE('',*,*,#325,.T.);
#388=ORIENTED_EDGE('',*,*,#195,.F.);
#389=EDGE_LOOP('',(#385,#386,#387,#388));
#390=FACE_OUTER_BOUND('',#389,.T.);
#391=ADVANCED_FACE('',(#390),#384,.T.);
#392=CLOSED_SHELL('',(#127,#182,#213,#269,#293,#338,#379,#391));
#393=MANIFOLD_SOLID_BREP('1BEC',#392);
#394=COLOUR_RGB('252',0.598,0.598,0.598);
#395=SURFACE_STYLE_USAGE(.BOTH.,#396);
#396=SURFACE_SIDE_STYLE('NONE',(#397));
#397=SURFACE_STYLE_FILL_AREA(#398);
#398=FILL_AREA_STYLE('NONE',(#399));
#399=FILL_AREA_STYLE_COLOUR('NONE',#394);
#400=PRESENTATION_STYLE_ASSIGNMENT((#395));
#401=STYLED_ITEM('NONE',(#400),#393);
#402=MECHANICAL_DESIGN_GEOMETRIC_PRESENTATION_REPRESENTATION('NONE',(#401,#610,#621,#778,#936,#1087),#28);
#403=PRESENTATION_LAYER_ASSIGNMENT('3D','None',(#393,#609,#616,#771,#928,#1086));
#404=CARTESIAN_POINT('',(-5.715,2.539999999999999,0.480069731073613));
#405=DIRECTION('',(0.0,-5.830894E-030,-1.0));
#406=DIRECTION('',(-0.707106781186548,0.707106781186548,0.0));
#407=AXIS2_PLACEMENT_3D('',#404,#405,#406);
#408=CYLINDRICAL_SURFACE('',#407,0.5);
#409=CARTESIAN_POINT('',(-6.215,2.539999999999999,0.76));
#410=VERTEX_POINT('',#409);
#411=CARTESIAN_POINT('',(-5.215,2.539999999999999,0.76));
#412=VERTEX_POINT('',#411);
#413=CARTESIAN_POINT('',(-5.715,2.539999999999999,0.76));
#414=DIRECTION('',(0.0,0.0,-1.0));
#415=DIRECTION('',(0.707106781186548,0.707106781186548,0.0));
#416=AXIS2_PLACEMENT_3D('',#413,#414,#415);
#417=CIRCLE('',#416,0.5);
#418=EDGE_CURVE('',#410,#412,#417,.T.);
#419=ORIENTED_EDGE('',*,*,#418,.T.);
#420=CARTESIAN_POINT('',(-5.215,2.539999999999999,0.5));
#421=VERTEX_POINT('',#420);
#422=CARTESIAN_POINT('',(-5.215,2.539999999999999,0.76));
#423=DIRECTION('',(0.0,0.0,-1.0));
#424=VECTOR('',#423,0.26);
#425=LINE('',#422,#424);
#426=EDGE_CURVE('',#412,#421,#425,.T.);
#427=ORIENTED_EDGE('',*,*,#426,.T.);
#428=CARTESIAN_POINT('',(-6.215,2.539999999999999,0.5));
#429=VERTEX_POINT('',#428);
#430=CARTESIAN_POINT('',(-5.715,2.539999999999999,0.5));
#431=DIRECTION('',(0.0,0.0,1.0));
#432=DIRECTION('',(0.0,1.0,0.0));
#433=AXIS2_PLACEMENT_3D('',#430,#431,#432);
#434=CIRCLE('',#433,0.5);
#435=EDGE_CURVE('',#421,#429,#434,.T.);
#436=ORIENTED_EDGE('',*,*,#435,.T.);
#437=CARTESIAN_POINT('',(-6.215,2.539999999999999,0.5));
#438=DIRECTION('',(0.0,0.0,1.0));
#439=VECTOR('',#438,0.26);
#440=LINE('',#437,#439);
#441=EDGE_CURVE('',#429,#410,#440,.T.);
#442=ORIENTED_EDGE('',*,*,#441,.T.);
#443=EDGE_LOOP('',(#419,#427,#436,#442));
#444=FACE_OUTER_BOUND('',#443,.T.);
#445=ADVANCED_FACE('',(#444),#408,.T.);
#446=CARTESIAN_POINT('',(-5.715,2.539999999999999,0.5));
#447=DIRECTION('',(0.0,0.0,1.0));
#448=DIRECTION('',(1.0,0.0,0.0));
#449=AXIS2_PLACEMENT_3D('',#446,#447,#448);
#450=SPHERICAL_SURFACE('',#449,0.5);
#451=ORIENTED_EDGE('',*,*,#435,.F.);
#452=CARTESIAN_POINT('',(-5.715,2.539999999999999,2.220446E-016));
#453=VERTEX_POINT('',#452);
#454=CARTESIAN_POINT('',(-5.715,2.539999999999999,0.5));
#455=DIRECTION('',(0.0,1.0,0.0));
#456=DIRECTION('',(0.0,0.0,-1.0));
#457=AXIS2_PLACEMENT_3D('',#454,#455,#456);
#458=CIRCLE('',#457,0.5);
#459=EDGE_CURVE('',#421,#453,#458,.T.);
#460=ORIENTED_EDGE('',*,*,#459,.T.);
#461=CARTESIAN_POINT('',(-5.715,2.539999999999999,0.5));
#462=DIRECTION('',(0.0,1.0,0.0));
#463=DIRECTION('',(0.0,0.0,-1.0));
#464=AXIS2_PLACEMENT_3D('',#461,#462,#463);
#465=CIRCLE('',#464,0.5);
#466=EDGE_CURVE('',#453,#429,#465,.T.);
#467=ORIENTED_EDGE('',*,*,#466,.T.);
#468=EDGE_LOOP('',(#451,#460,#467));
#469=FACE_OUTER_BOUND('',#468,.T.);
#470=ADVANCED_FACE('',(#469),#450,.T.);
#471=CARTESIAN_POINT('',(-6.215,3.039999999999999,0.5));
#472=DIRECTION('',(-1.0,0.0,0.0));
#473=DIRECTION('',(0.0,0.0,1.0));
#474=AXIS2_PLACEMENT_3D('',#471,#472,#473);
#475=PLANE('',#474);
#476=ORIENTED_EDGE('',*,*,#441,.F.);
#477=CARTESIAN_POINT('',(-6.215,-2.54,0.500000000000001));
#478=VERTEX_POINT('',#477);
#479=CARTESIAN_POINT('',(-6.215,2.539999999999999,0.5));
#480=DIRECTION('',(0.0,-1.0,0.0));
#481=VECTOR('',#480,5.079999999999998);
#482=LINE('',#479,#481);
#483=EDGE_CURVE('',#429,#478,#482,.T.);
#484=ORIENTED_EDGE('',*,*,#483,.T.);
#485=CARTESIAN_POINT('',(-6.215,-2.54,0.760000000000001));
#486=VERTEX_POINT('',#485);
#487=CARTESIAN_POINT('',(-6.215,-2.54,0.760000000000001));
#488=DIRECTION('',(0.0,0.0,-1.0));
#489=VECTOR('',#488,0.26);
#490=LINE('',#487,#489);
#491=EDGE_CURVE('',#486,#478,#490,.T.);
#492=ORIENTED_EDGE('',*,*,#491,.F.);
#493=CARTESIAN_POINT('',(-6.215,2.539999999999999,0.76));
#494=DIRECTION('',(0.0,-1.0,0.0));
#495=VECTOR('',#494,5.079999999999998);
#496=LINE('',#493,#495);
#497=EDGE_CURVE('',#410,#486,#496,.T.);
#498=ORIENTED_EDGE('',*,*,#497,.F.);
#499=EDGE_LOOP('',(#476,#484,#492,#498));
#500=FACE_OUTER_BOUND('',#499,.T.);
#501=ADVANCED_FACE('',(#500),#475,.T.);
#502=CARTESIAN_POINT('',(-5.715,3.039999999999999,0.5));
#503=DIRECTION('',(0.0,-1.0,2.272898E-016));
#504=DIRECTION('',(0.0,0.0,-1.0));
#505=AXIS2_PLACEMENT_3D('',#502,#503,#504);
#506=CYLINDRICAL_SURFACE('',#505,0.5);
#507=ORIENTED_EDGE('',*,*,#459,.F.);
#508=CARTESIAN_POINT('',(-5.215,-2.54,0.500000000000001));
#509=VERTEX_POINT('',#508);
#510=CARTESIAN_POINT('',(-5.215,2.539999999999999,0.5));
#511=DIRECTION('',(0.0,-1.0,0.0));
#512=VECTOR('',#511,5.079999999999998);
#513=LINE('',#510,#512);
#514=EDGE_CURVE('',#421,#509,#513,.T.);
#515=ORIENTED_EDGE('',*,*,#514,.T.);
#516=CARTESIAN_POINT('',(-5.715,-2.54,1.332268E-015));
#517=VERTEX_POINT('',#516);
#518=CARTESIAN_POINT('',(-5.715,-2.54,0.500000000000001));
#519=DIRECTION('',(0.0,-1.0,0.0));
#520=DIRECTION('',(0.0,0.0,-1.0));
#521=AXIS2_PLACEMENT_3D('',#518,#519,#520);
#522=CIRCLE('',#521,0.5);
#523=EDGE_CURVE('',#517,#509,#522,.T.);
#524=ORIENTED_EDGE('',*,*,#523,.F.);
#525=CARTESIAN_POINT('',(-5.715,-2.54,0.500000000000001));
#526=DIRECTION('',(0.0,-1.0,0.0));
#527=DIRECTION('',(0.0,0.0,-1.0));
#528=AXIS2_PLACEMENT_3D('',#525,#526,#527);
#529=CIRCLE('',#528,0.5);
#530=EDGE_CURVE('',#478,#517,#529,.T.);
#531=ORIENTED_EDGE('',*,*,#530,.F.);
#532=ORIENTED_EDGE('',*,*,#483,.F.);
#533=ORIENTED_EDGE('',*,*,#466,.F.);
#534=EDGE_LOOP('',(#507,#515,#524,#531,#532,#533));
#535=FACE_OUTER_BOUND('',#534,.T.);
#536=ADVANCED_FACE('',(#535),#506,.T.);
#537=CARTESIAN_POINT('',(-5.215,3.309999999999999,0.76));
#538=DIRECTION('',(1.0,0.0,0.0));
#539=DIRECTION('',(0.0,0.0,-1.0));
#540=AXIS2_PLACEMENT_3D('',#537,#538,#539);
#541=PLANE('',#540);
#542=ORIENTED_EDGE('',*,*,#426,.F.);
#543=CARTESIAN_POINT('',(-5.215,-2.54,0.760000000000001));
#544=VERTEX_POINT('',#543);
#545=CARTESIAN_POINT('',(-5.215,2.539999999999999,0.76));
#546=DIRECTION('',(0.0,-1.0,0.0));
#547=VECTOR('',#546,5.079999999999998);
#548=LINE('',#545,#547);
#549=EDGE_CURVE('',#412,#544,#548,.T.);
#550=ORIENTED_EDGE('',*,*,#549,.T.);
#551=CARTESIAN_POINT('',(-5.215,-2.54,0.500000000000001));
#552=DIRECTION('',(0.0,0.0,1.0));
#553=VECTOR('',#552,0.26);
#554=LINE('',#551,#553);
#555=EDGE_CURVE('',#509,#544,#554,.T.);
#556=ORIENTED_EDGE('',*,*,#555,.F.);
#557=ORIENTED_EDGE('',*,*,#514,.F.);
#558=EDGE_LOOP('',(#542,#550,#556,#557));
#559=FACE_OUTER_BOUND('',#558,.T.);
#560=ADVANCED_FACE('',(#559),#541,.T.);
#561=CARTESIAN_POINT('',(-5.715,-2.54,0.610069731073614));
#562=DIRECTION('',(0.0,-3.511542E-030,-1.0));
#563=DIRECTION('',(0.707106781186548,-0.707106781186548,0.0));
#564=AXIS2_PLACEMENT_3D('',#561,#562,#563);
#565=CYLINDRICAL_SURFACE('',#564,0.5);
#566=CARTESIAN_POINT('',(-5.715,-2.54,0.76));
#567=DIRECTION('',(0.0,0.0,-1.0));
#568=DIRECTION('',(-0.707106781186548,-0.707106781186548,0.0));
#569=AXIS2_PLACEMENT_3D('',#566,#567,#568);
#570=CIRCLE('',#569,0.5);
#571=EDGE_CURVE('',#544,#486,#570,.T.);
#572=ORIENTED_EDGE('',*,*,#571,.T.);
#573=ORIENTED_EDGE('',*,*,#491,.T.);
#574=CARTESIAN_POINT('',(-5.715,-2.54,0.500000000000001));
#575=DIRECTION('',(0.0,0.0,1.0));
#576=DIRECTION('',(0.0,-1.0,0.0));
#577=AXIS2_PLACEMENT_3D('',#574,#575,#576);
#578=CIRCLE('',#577,0.5);
#579=EDGE_CURVE('',#478,#509,#578,.T.);
#580=ORIENTED_EDGE('',*,*,#579,.T.);
#581=ORIENTED_EDGE('',*,*,#555,.T.);
#582=EDGE_LOOP('',(#572,#573,#580,#581));
#583=FACE_OUTER_BOUND('',#582,.T.);
#584=ADVANCED_FACE('',(#583),#565,.T.);
#585=CARTESIAN_POINT('',(-5.715,-2.54,0.500000000000001));
#586=DIRECTION('',(0.0,0.0,1.0));
#587=DIRECTION('',(1.0,0.0,0.0));
#588=AXIS2_PLACEMENT_3D('',#585,#586,#587);
#589=SPHERICAL_SURFACE('',#588,0.5);
#590=ORIENTED_EDGE('',*,*,#579,.F.);
#591=ORIENTED_EDGE('',*,*,#530,.T.);
#592=ORIENTED_EDGE('',*,*,#523,.T.);
#593=EDGE_LOOP('',(#590,#591,#592));
#594=FACE_OUTER_BOUND('',#593,.T.);
#595=ADVANCED_FACE('',(#594),#589,.T.);
#596=CARTESIAN_POINT('',(-6.215,3.039999999999999,0.76));
#597=DIRECTION('',(0.0,0.0,1.0));
#598=DIRECTION('',(1.0,0.0,0.0));
#599=AXIS2_PLACEMENT_3D('',#596,#597,#598);
#600=PLANE('',#599);
#601=ORIENTED_EDGE('',*,*,#418,.F.);
#602=ORIENTED_EDGE('',*,*,#497,.T.);
#603=ORIENTED_EDGE('',*,*,#571,.F.);
#604=ORIENTED_EDGE('',*,*,#549,.F.);
#605=EDGE_LOOP('',(#601,#602,#603,#604));
#606=FACE_OUTER_BOUND('',#605,.T.);
#607=ADVANCED_FACE('',(#606),#600,.T.);
#608=CLOSED_SHELL('',(#445,#470,#501,#536,#560,#584,#595,#607));
#609=MANIFOLD_SOLID_BREP('1BE6',#608);
#610=STYLED_ITEM('NONE',(#400),#609);
#611=CARTESIAN_POINT('',(-6.215,3.174999999999999,0.76));
#612=DIRECTION('',(1.0,0.0,0.0));
#613=VECTOR('',#612,1.0);
#614=LINE('',#611,#613);
#615=CARTESIAN_POINT('',(-5.215,3.174999999999999,0.76));
#616=TRIMMED_CURVE('1BD9',#614,(PARAMETER_VALUE(0.0),#611),(PARAMETER_VALUE(1.0),#615),.T.,.PARAMETER.);
#617=COLOUR_RGB('253',0.732,0.732,0.732);
#618=CURVE_STYLE('NONE',#619,POSITIVE_LENGTH_MEASURE(0.2),#617);
#619=DRAUGHTING_PRE_DEFINED_CURVE_FONT('continuous');
#620=PRESENTATION_STYLE_ASSIGNMENT((#618));
#621=STYLED_ITEM('NONE',(#620),#616);
#622=CARTESIAN_POINT('',(5.08,3.174999999999999,0.76));
#623=DIRECTION('',(0.0,1.0,0.0));
#624=DIRECTION('',(0.0,0.0,1.0));
#625=AXIS2_PLACEMENT_3D('',#622,#623,#624);
#626=PLANE('',#625);
#627=CARTESIAN_POINT('',(5.08,3.174999999999999,1.52));
#628=VERTEX_POINT('',#627);
#629=CARTESIAN_POINT('',(6.35,3.174999999999999,1.52));
#630=VERTEX_POINT('',#629);
#631=CARTESIAN_POINT('',(5.08,3.174999999999999,1.52));
#632=DIRECTION('',(1.0,0.0,0.0));
#633=VECTOR('',#632,1.27);
#634=LINE('',#631,#633);
#635=EDGE_CURVE('',#628,#630,#634,.T.);
#636=ORIENTED_EDGE('',*,*,#635,.T.);
#637=CARTESIAN_POINT('',(6.35,3.174999999999999,0.76));
#638=VERTEX_POINT('',#637);
#639=CARTESIAN_POINT('',(6.35,3.174999999999999,0.76));
#640=DIRECTION('',(0.0,0.0,1.0));
#641=VECTOR('',#640,0.76);
#642=LINE('',#639,#641);
#643=EDGE_CURVE('',#638,#630,#642,.T.);
#644=ORIENTED_EDGE('',*,*,#643,.F.);
#645=CARTESIAN_POINT('',(5.08,3.174999999999999,0.76));
#646=VERTEX_POINT('',#645);
#647=CARTESIAN_POINT('',(6.35,3.174999999999999,0.76));
#648=DIRECTION('',(-1.0,0.0,0.0));
#649=VECTOR('',#648,1.27);
#650=LINE('',#647,#649);
#651=EDGE_CURVE('',#638,#646,#650,.T.);
#652=ORIENTED_EDGE('',*,*,#651,.T.);
#653=CARTESIAN_POINT('',(5.08,3.174999999999999,0.76));
#654=DIRECTION('',(0.0,0.0,1.0));
#655=VECTOR('',#654,0.76);
#656=LINE('',#653,#655);
#657=EDGE_CURVE('',#646,#628,#656,.T.);
#658=ORIENTED_EDGE('',*,*,#657,.T.);
#659=EDGE_LOOP('',(#636,#644,#652,#658));
#660=FACE_OUTER_BOUND('',#659,.T.);
#661=ADVANCED_FACE('',(#660),#626,.T.);
#662=CARTESIAN_POINT('',(6.35,3.174999999999999,0.76));
#663=DIRECTION('',(1.0,0.0,0.0));
#664=DIRECTION('',(0.0,0.0,-1.0));
#665=AXIS2_PLACEMENT_3D('',#662,#663,#664);
#666=PLANE('',#665);
#667=CARTESIAN_POINT('',(6.35,-3.175000000000001,1.52));
#668=VERTEX_POINT('',#667);
#669=CARTESIAN_POINT('',(6.35,3.174999999999999,1.52));
#670=DIRECTION('',(0.0,-1.0,0.0));
#671=VECTOR('',#670,6.35);
#672=LINE('',#669,#671);
#673=EDGE_CURVE('',#630,#668,#672,.T.);
#674=ORIENTED_EDGE('',*,*,#673,.T.);
#675=CARTESIAN_POINT('',(6.35,-3.175000000000001,0.76));
#676=VERTEX_POINT('',#675);
#677=CARTESIAN_POINT('',(6.35,-3.175000000000001,0.76));
#678=DIRECTION('',(0.0,0.0,1.0));
#679=VECTOR('',#678,0.76);
#680=LINE('',#677,#679);
#681=EDGE_CURVE('',#676,#668,#680,.T.);
#682=ORIENTED_EDGE('',*,*,#681,.F.);
#683=CARTESIAN_POINT('',(6.35,-3.175000000000001,0.76));
#684=DIRECTION('',(0.0,1.0,0.0));
#685=VECTOR('',#684,6.35);
#686=LINE('',#683,#685);
#687=EDGE_CURVE('',#676,#638,#686,.T.);
#688=ORIENTED_EDGE('',*,*,#687,.T.);
#689=ORIENTED_EDGE('',*,*,#643,.T.);
#690=EDGE_LOOP('',(#674,#682,#688,#689));
#691=FACE_OUTER_BOUND('',#690,.T.);
#692=ADVANCED_FACE('',(#691),#666,.T.);
#693=CARTESIAN_POINT('',(6.35,-3.175000000000001,0.76));
#694=DIRECTION('',(0.0,-1.0,0.0));
#695=DIRECTION('',(0.0,0.0,-1.0));
#696=AXIS2_PLACEMENT_3D('',#693,#694,#695);
#697=PLANE('',#696);
#698=CARTESIAN_POINT('',(5.08,-3.175000000000001,1.52));
#699=VERTEX_POINT('',#698);
#700=CARTESIAN_POINT('',(6.35,-3.175000000000001,1.52));
#701=DIRECTION('',(-1.0,0.0,0.0));
#702=VECTOR('',#701,1.27);
#703=LINE('',#700,#702);
#704=EDGE_CURVE('',#668,#699,#703,.T.);
#705=ORIENTED_EDGE('',*,*,#704,.T.);
#706=CARTESIAN_POINT('',(5.08,-3.175000000000001,0.76));
#707=VERTEX_POINT('',#706);
#708=CARTESIAN_POINT('',(5.08,-3.175000000000001,0.76));
#709=DIRECTION('',(0.0,0.0,1.0));
#710=VECTOR('',#709,0.76);
#711=LINE('',#708,#710);
#712=EDGE_CURVE('',#707,#699,#711,.T.);
#713=ORIENTED_EDGE('',*,*,#712,.F.);
#714=CARTESIAN_POINT('',(5.08,-3.175000000000001,0.76));
#715=DIRECTION('',(1.0,0.0,0.0));
#716=VECTOR('',#715,1.27);
#717=LINE('',#714,#716);
#718=EDGE_CURVE('',#707,#676,#717,.T.);
#719=ORIENTED_EDGE('',*,*,#718,.T.);
#720=ORIENTED_EDGE('',*,*,#681,.T.);
#721=EDGE_LOOP('',(#705,#713,#719,#720));
#722=FACE_OUTER_BOUND('',#721,.T.);
#723=ADVANCED_FACE('',(#722),#697,.T.);
#724=CARTESIAN_POINT('',(5.08,-3.175000000000001,0.76));
#725=DIRECTION('',(-1.0,0.0,0.0));
#726=DIRECTION('',(0.0,0.0,1.0));
#727=AXIS2_PLACEMENT_3D('',#724,#725,#726);
#728=PLANE('',#727);
#729=CARTESIAN_POINT('',(5.08,-3.175000000000001,1.52));
#730=DIRECTION('',(0.0,1.0,0.0));
#731=VECTOR('',#730,6.35);
#732=LINE('',#729,#731);
#733=EDGE_CURVE('',#699,#628,#732,.T.);
#734=ORIENTED_EDGE('',*,*,#733,.T.);
#735=ORIENTED_EDGE('',*,*,#657,.F.);
#736=CARTESIAN_POINT('',(5.08,3.174999999999999,0.76));
#737=DIRECTION('',(0.0,-1.0,0.0));
#738=VECTOR('',#737,6.35);
#739=LINE('',#736,#738);
#740=EDGE_CURVE('',#646,#707,#739,.T.);
#741=ORIENTED_EDGE('',*,*,#740,.T.);
#742=ORIENTED_EDGE('',*,*,#712,.T.);
#743=EDGE_LOOP('',(#734,#735,#741,#742));
#744=FACE_OUTER_BOUND('',#743,.T.);
#745=ADVANCED_FACE('',(#744),#728,.T.);
#746=CARTESIAN_POINT('',(5.715,-9.436896E-016,0.76));
#747=DIRECTION('',(0.0,0.0,1.0));
#748=DIRECTION('',(1.0,0.0,0.0));
#749=AXIS2_PLACEMENT_3D('',#746,#747,#748);
#750=PLANE('',#749);
#751=ORIENTED_EDGE('',*,*,#740,.F.);
#752=ORIENTED_EDGE('',*,*,#651,.F.);
#753=ORIENTED_EDGE('',*,*,#687,.F.);
#754=ORIENTED_EDGE('',*,*,#718,.F.);
#755=EDGE_LOOP('',(#751,#752,#753,#754));
#756=FACE_OUTER_BOUND('',#755,.T.);
#757=ADVANCED_FACE('',(#756),#750,.F.);
#758=CARTESIAN_POINT('',(5.714999999999999,-9.436896E-016,1.52));
#759=DIRECTION('',(0.0,0.0,1.0));
#760=DIRECTION('',(1.0,0.0,0.0));
#761=AXIS2_PLACEMENT_3D('',#758,#759,#760);
#762=PLANE('',#761);
#763=ORIENTED_EDGE('',*,*,#635,.F.);
#764=ORIENTED_EDGE('',*,*,#733,.F.);
#765=ORIENTED_EDGE('',*,*,#704,.F.);
#766=ORIENTED_EDGE('',*,*,#673,.F.);
#767=EDGE_LOOP('',(#763,#764,#765,#766));
#768=FACE_OUTER_BOUND('',#767,.T.);
#769=ADVANCED_FACE('',(#768),#762,.T.);
#770=CLOSED_SHELL('',(#661,#692,#723,#745,#757,#769));
#771=MANIFOLD_SOLID_BREP('1BB4',#770);
#772=SURFACE_STYLE_USAGE(.BOTH.,#773);
#773=SURFACE_SIDE_STYLE('NONE',(#774));
#774=SURFACE_STYLE_FILL_AREA(#775);
#775=FILL_AREA_STYLE('NONE',(#776));
#776=FILL_AREA_STYLE_COLOUR('NONE',#617);
#777=PRESENTATION_STYLE_ASSIGNMENT((#772));
#778=STYLED_ITEM('NONE',(#777),#771);
#779=CARTESIAN_POINT('',(5.08,-3.175000000000001,0.76));
#780=DIRECTION('',(-1.0,0.0,0.0));
#781=DIRECTION('',(0.0,0.0,1.0));
#782=AXIS2_PLACEMENT_3D('',#779,#780,#781);
#783=PLANE('',#782);
#784=CARTESIAN_POINT('',(5.08,-3.175000000000001,1.52));
#785=VERTEX_POINT('',#784);
#786=CARTESIAN_POINT('',(5.08,3.174999999999999,1.52));
#787=VERTEX_POINT('',#786);
#788=CARTESIAN_POINT('',(5.08,-3.175000000000001,1.52));
#789=DIRECTION('',(0.0,1.0,0.0));
#790=VECTOR('',#789,6.35);
#791=LINE('',#788,#790);
#792=EDGE_CURVE('',#785,#787,#791,.T.);
#793=ORIENTED_EDGE('',*,*,#792,.F.);
#794=CARTESIAN_POINT('',(5.08,-3.175000000000001,0.76));
#795=VERTEX_POINT('',#794);
#796=CARTESIAN_POINT('',(5.08,-3.175000000000001,0.76));
#797=DIRECTION('',(0.0,0.0,1.0));
#798=VECTOR('',#797,0.76);
#799=LINE('',#796,#798);
#800=EDGE_CURVE('',#795,#785,#799,.T.);
#801=ORIENTED_EDGE('',*,*,#800,.F.);
#802=CARTESIAN_POINT('',(5.08,3.174999999999999,0.76));
#803=VERTEX_POINT('',#802);
#804=CARTESIAN_POINT('',(5.08,3.174999999999999,0.76));
#805=DIRECTION('',(0.0,-1.0,0.0));
#806=VECTOR('',#805,6.35);
#807=LINE('',#804,#806);
#808=EDGE_CURVE('',#803,#795,#807,.T.);
#809=ORIENTED_EDGE('',*,*,#808,.F.);
#810=CARTESIAN_POINT('',(5.08,3.174999999999999,1.52));
#811=DIRECTION('',(0.0,0.0,-1.0));
#812=VECTOR('',#811,0.76);
#813=LINE('',#810,#812);
#814=EDGE_CURVE('',#787,#803,#813,.T.);
#815=ORIENTED_EDGE('',*,*,#814,.F.);
#816=EDGE_LOOP('',(#793,#801,#809,#815));
#817=FACE_OUTER_BOUND('',#816,.T.);
#818=ADVANCED_FACE('',(#817),#783,.F.);
#819=CARTESIAN_POINT('',(-5.08,3.174999999999999,0.76));
#820=DIRECTION('',(1.0,0.0,0.0));
#821=DIRECTION('',(0.0,0.0,-1.0));
#822=AXIS2_PLACEMENT_3D('',#819,#820,#821);
#823=PLANE('',#822);
#824=CARTESIAN_POINT('',(-5.08,3.174999999999999,1.52));
#825=VERTEX_POINT('',#824);
#826=CARTESIAN_POINT('',(-5.08,-3.175000000000001,1.52));
#827=VERTEX_POINT('',#826);
#828=CARTESIAN_POINT('',(-5.08,3.174999999999999,1.52));
#829=DIRECTION('',(0.0,-1.0,0.0));
#830=VECTOR('',#829,6.35);
#831=LINE('',#828,#830);
#832=EDGE_CURVE('',#825,#827,#831,.T.);
#833=ORIENTED_EDGE('',*,*,#832,.F.);
#834=CARTESIAN_POINT('',(-5.08,3.174999999999999,0.76));
#835=VERTEX_POINT('',#834);
#836=CARTESIAN_POINT('',(-5.08,3.174999999999999,0.76));
#837=DIRECTION('',(0.0,0.0,1.0));
#838=VECTOR('',#837,0.76);
#839=LINE('',#836,#838);
#840=EDGE_CURVE('',#835,#825,#839,.T.);
#841=ORIENTED_EDGE('',*,*,#840,.F.);
#842=CARTESIAN_POINT('',(-5.08,-3.175000000000001,0.76));
#843=VERTEX_POINT('',#842);
#844=CARTESIAN_POINT('',(-5.08,-3.175000000000001,0.76));
#845=DIRECTION('',(0.0,1.0,0.0));
#846=VECTOR('',#845,6.35);
#847=LINE('',#844,#846);
#848=EDGE_CURVE('',#843,#835,#847,.T.);
#849=ORIENTED_EDGE('',*,*,#848,.F.);
#850=CARTESIAN_POINT('',(-5.08,-3.175000000000001,1.52));
#851=DIRECTION('',(0.0,0.0,-1.0));
#852=VECTOR('',#851,0.76);
#853=LINE('',#850,#852);
#854=EDGE_CURVE('',#827,#843,#853,.T.);
#855=ORIENTED_EDGE('',*,*,#854,.F.);
#856=EDGE_LOOP('',(#833,#841,#849,#855));
#857=FACE_OUTER_BOUND('',#856,.T.);
#858=ADVANCED_FACE('',(#857),#823,.F.);
#859=CARTESIAN_POINT('',(-6.35,3.174999999999999,0.76));
#860=DIRECTION('',(0.0,1.0,0.0));
#861=DIRECTION('',(0.0,0.0,1.0));
#862=AXIS2_PLACEMENT_3D('',#859,#860,#861);
#863=PLANE('',#862);
#864=ORIENTED_EDGE('',*,*,#814,.T.);
#865=CARTESIAN_POINT('',(5.08,3.174999999999999,0.76));
#866=DIRECTION('',(-1.0,0.0,0.0));
#867=VECTOR('',#866,10.16);
#868=LINE('',#865,#867);
#869=EDGE_CURVE('',#803,#835,#868,.T.);
#870=ORIENTED_EDGE('',*,*,#869,.T.);
#871=ORIENTED_EDGE('',*,*,#840,.T.);
#872=CARTESIAN_POINT('',(-5.08,3.174999999999999,1.52));
#873=DIRECTION('',(1.0,0.0,0.0));
#874=VECTOR('',#873,10.16);
#875=LINE('',#872,#874);
#876=EDGE_CURVE('',#825,#787,#875,.T.);
#877=ORIENTED_EDGE('',*,*,#876,.T.);
#878=EDGE_LOOP('',(#864,#870,#871,#877));
#879=FACE_OUTER_BOUND('',#878,.T.);
#880=ADVANCED_FACE('',(#879),#863,.T.);
#881=CARTESIAN_POINT('',(0.0,-1.244796E-015,0.76));
#882=DIRECTION('',(0.0,0.0,1.0));
#883=DIRECTION('',(1.0,0.0,0.0));
#884=AXIS2_PLACEMENT_3D('',#881,#882,#883);
#885=PLANE('',#884);
#886=ORIENTED_EDGE('',*,*,#808,.T.);
#887=CARTESIAN_POINT('',(-5.08,-3.175000000000001,0.76));
#888=DIRECTION('',(1.0,0.0,0.0));
#889=VECTOR('',#888,10.16);
#890=LINE('',#887,#889);
#891=EDGE_CURVE('',#843,#795,#890,.T.);
#892=ORIENTED_EDGE('',*,*,#891,.F.);
#893=ORIENTED_EDGE('',*,*,#848,.T.);
#894=ORIENTED_EDGE('',*,*,#869,.F.);
#895=EDGE_LOOP('',(#886,#892,#893,#894));
#896=FACE_OUTER_BOUND('',#895,.T.);
#897=ADVANCED_FACE('',(#896),#885,.F.);
#898=CARTESIAN_POINT('',(6.35,-3.175000000000001,0.76));
#899=DIRECTION('',(0.0,-1.0,0.0));
#900=DIRECTION('',(0.0,0.0,-1.0));
#901=AXIS2_PLACEMENT_3D('',#898,#899,#900);
#902=PLANE('',#901);
#903=ORIENTED_EDGE('',*,*,#800,.T.);
#904=CARTESIAN_POINT('',(5.08,-3.175000000000001,1.52));
#905=DIRECTION('',(-1.0,0.0,0.0));
#906=VECTOR('',#905,10.16);
#907=LINE('',#904,#906);
#908=EDGE_CURVE('',#785,#827,#907,.T.);
#909=ORIENTED_EDGE('',*,*,#908,.T.);
#910=ORIENTED_EDGE('',*,*,#854,.T.);
#911=ORIENTED_EDGE('',*,*,#891,.T.);
#912=EDGE_LOOP('',(#903,#909,#910,#911));
#913=FACE_OUTER_BOUND('',#912,.T.);
#914=ADVANCED_FACE('',(#913),#902,.T.);
#915=CARTESIAN_POINT('',(0.0,-1.271710E-015,1.52));
#916=DIRECTION('',(0.0,0.0,1.0));
#917=DIRECTION('',(1.0,0.0,0.0));
#918=AXIS2_PLACEMENT_3D('',#915,#916,#917);
#919=PLANE('',#918);
#920=ORIENTED_EDGE('',*,*,#792,.T.);
#921=ORIENTED_EDGE('',*,*,#876,.F.);
#922=ORIENTED_EDGE('',*,*,#832,.T.);
#923=ORIENTED_EDGE('',*,*,#908,.F.);
#924=EDGE_LOOP('',(#920,#921,#922,#923));
#925=FACE_OUTER_BOUND('',#924,.T.);
#926=ADVANCED_FACE('',(#925),#919,.T.);
#927=CLOSED_SHELL('',(#818,#858,#880,#897,#914,#926));
#928=MANIFOLD_SOLID_BREP('1BB0',#927);
#929=COLOUR_RGB('150',0.0,0.5,1.0);
#930=SURFACE_STYLE_USAGE(.BOTH.,#931);
#931=SURFACE_SIDE_STYLE('NONE',(#932));
#932=SURFACE_STYLE_FILL_AREA(#933);
#933=FILL_AREA_STYLE('NONE',(#934));
#934=FILL_AREA_STYLE_COLOUR('NONE',#929);
#935=PRESENTATION_STYLE_ASSIGNMENT((#930));
#936=STYLED_ITEM('NONE',(#935),#928);
#937=CARTESIAN_POINT('',(-6.35,3.174999999999999,0.76));
#938=DIRECTION('',(0.0,1.0,0.0));
#939=DIRECTION('',(0.0,0.0,1.0));
#940=AXIS2_PLACEMENT_3D('',#937,#938,#939);
#941=PLANE('',#940);
#942=CARTESIAN_POINT('',(-6.35,3.174999999999999,1.52));
#943=VERTEX_POINT('',#942);
#944=CARTESIAN_POINT('',(-5.08,3.174999999999999,1.52));
#945=VERTEX_POINT('',#944);
#946=CARTESIAN_POINT('',(-6.35,3.174999999999999,1.52));
#947=DIRECTION('',(1.0,0.0,0.0));
#948=VECTOR('',#947,1.27);
#949=LINE('',#946,#948);
#950=EDGE_CURVE('',#943,#945,#949,.T.);
#951=ORIENTED_EDGE('',*,*,#950,.T.);
#952=CARTESIAN_POINT('',(-5.08,3.174999999999999,0.76));
#953=VERTEX_POINT('',#952);
#954=CARTESIAN_POINT('',(-5.08,3.174999999999999,0.76));
#955=DIRECTION('',(0.0,0.0,1.0));
#956=VECTOR('',#955,0.76);
#957=LINE('',#954,#956);
#958=EDGE_CURVE('',#953,#945,#957,.T.);
#959=ORIENTED_EDGE('',*,*,#958,.F.);
#960=CARTESIAN_POINT('',(-6.35,3.174999999999999,0.76));
#961=VERTEX_POINT('',#960);
#962=CARTESIAN_POINT('',(-5.08,3.174999999999999,0.76));
#963=DIRECTION('',(-1.0,0.0,0.0));
#964=VECTOR('',#963,1.27);
#965=LINE('',#962,#964);
#966=EDGE_CURVE('',#953,#961,#965,.T.);
#967=ORIENTED_EDGE('',*,*,#966,.T.);
#968=CARTESIAN_POINT('',(-6.35,3.174999999999999,0.76));
#969=DIRECTION('',(0.0,0.0,1.0));
#970=VECTOR('',#969,0.76);
#971=LINE('',#968,#970);
#972=EDGE_CURVE('',#961,#943,#971,.T.);
#973=ORIENTED_EDGE('',*,*,#972,.T.);
#974=EDGE_LOOP('',(#951,#959,#967,#973));
#975=FACE_OUTER_BOUND('',#974,.T.);
#976=ADVANCED_FACE('',(#975),#941,.T.);
#977=CARTESIAN_POINT('',(-5.08,3.174999999999999,0.76));
#978=DIRECTION('',(1.0,0.0,0.0));
#979=DIRECTION('',(0.0,0.0,-1.0));
#980=AXIS2_PLACEMENT_3D('',#977,#978,#979);
#981=PLANE('',#980);
#982=CARTESIAN_POINT('',(-5.08,-3.175000000000001,1.52));
#983=VERTEX_POINT('',#982);
#984=CARTESIAN_POINT('',(-5.08,3.174999999999999,1.52));
#985=DIRECTION('',(0.0,-1.0,0.0));
#986=VECTOR('',#985,6.35);
#987=LINE('',#984,#986);
#988=EDGE_CURVE('',#945,#983,#987,.T.);
#989=ORIENTED_EDGE('',*,*,#988,.T.);
#990=CARTESIAN_POINT('',(-5.08,-3.175000000000001,0.76));
#991=VERTEX_POINT('',#990);
#992=CARTESIAN_POINT('',(-5.08,-3.175000000000001,0.76));
#993=DIRECTION('',(0.0,0.0,1.0));
#994=VECTOR('',#993,0.76);
#995=LINE('',#992,#994);
#996=EDGE_CURVE('',#991,#983,#995,.T.);
#997=ORIENTED_EDGE('',*,*,#996,.F.);
#998=CARTESIAN_POINT('',(-5.08,-3.175000000000001,0.76));
#999=DIRECTION('',(0.0,1.0,0.0));
#1000=VECTOR('',#999,6.35);
#1001=LINE('',#998,#1000);
#1002=EDGE_CURVE('',#991,#953,#1001,.T.);
#1003=ORIENTED_EDGE('',*,*,#1002,.T.);
#1004=ORIENTED_EDGE('',*,*,#958,.T.);
#1005=EDGE_LOOP('',(#989,#997,#1003,#1004));
#1006=FACE_OUTER_BOUND('',#1005,.T.);
#1007=ADVANCED_FACE('',(#1006),#981,.T.);
#1008=CARTESIAN_POINT('',(-5.08,-3.175000000000001,0.76));
#1009=DIRECTION('',(0.0,-1.0,0.0));
#1010=DIRECTION('',(0.0,0.0,-1.0));
#1011=AXIS2_PLACEMENT_3D('',#1008,#1009,#1010);
#1012=PLANE('',#1011);
#1013=CARTESIAN_POINT('',(-6.35,-3.175000000000001,1.52));
#1014=VERTEX_POINT('',#1013);
#1015=CARTESIAN_POINT('',(-5.08,-3.175000000000001,1.52));
#1016=DIRECTION('',(-1.0,0.0,0.0));
#1017=VECTOR('',#1016,1.27);
#1018=LINE('',#1015,#1017);
#1019=EDGE_CURVE('',#983,#1014,#1018,.T.);
#1020=ORIENTED_EDGE('',*,*,#1019,.T.);
#1021=CARTESIAN_POINT('',(-6.35,-3.175000000000001,0.76));
#1022=VERTEX_POINT('',#1021);
#1023=CARTESIAN_POINT('',(-6.35,-3.175000000000001,0.76));
#1024=DIRECTION('',(0.0,0.0,1.0));
#1025=VECTOR('',#1024,0.76);
#1026=LINE('',#1023,#1025);
#1027=EDGE_CURVE('',#1022,#1014,#1026,.T.);
#1028=ORIENTED_EDGE('',*,*,#1027,.F.);
#1029=CARTESIAN_POINT('',(-6.35,-3.175000000000001,0.76));
#1030=DIRECTION('',(1.0,0.0,0.0));
#1031=VECTOR('',#1030,1.27);
#1032=LINE('',#1029,#1031);
#1033=EDGE_CURVE('',#1022,#991,#1032,.T.);
#1034=ORIENTED_EDGE('',*,*,#1033,.T.);
#1035=ORIENTED_EDGE('',*,*,#996,.T.);
#1036=EDGE_LOOP('',(#1020,#1028,#1034,#1035));
#1037=FACE_OUTER_BOUND('',#1036,.T.);
#1038=ADVANCED_FACE('',(#1037),#1012,.T.);
#1039=CARTESIAN_POINT('',(-6.35,-3.175000000000001,0.76));
#1040=DIRECTION('',(-1.0,0.0,0.0));
#1041=DIRECTION('',(0.0,0.0,1.0));
#1042=AXIS2_PLACEMENT_3D('',#1039,#1040,#1041);
#1043=PLANE('',#1042);
#1044=CARTESIAN_POINT('',(-6.35,-3.175000000000001,1.52));
#1045=DIRECTION('',(0.0,1.0,0.0));
#1046=VECTOR('',#1045,6.35);
#1047=LINE('',#1044,#1046);
#1048=EDGE_CURVE('',#1014,#943,#1047,.T.);
#1049=ORIENTED_EDGE('',*,*,#1048,.T.);
#1050=ORIENTED_EDGE('',*,*,#972,.F.);
#1051=CARTESIAN_POINT('',(-6.35,3.174999999999999,0.76));
#1052=DIRECTION('',(0.0,-1.0,0.0));
#1053=VECTOR('',#1052,6.35);
#1054=LINE('',#1051,#1053);
#1055=EDGE_CURVE('',#961,#1022,#1054,.T.);
#1056=ORIENTED_EDGE('',*,*,#1055,.T.);
#1057=ORIENTED_EDGE('',*,*,#1027,.T.);
#1058=EDGE_LOOP('',(#1049,#1050,#1056,#1057));
#1059=FACE_OUTER_BOUND('',#1058,.T.);
#1060=ADVANCED_FACE('',(#1059),#1043,.T.);
#1061=CARTESIAN_POINT('',(-5.714999999999999,-9.436896E-016,0.76));
#1062=DIRECTION('',(0.0,0.0,1.0));
#1063=DIRECTION('',(1.0,0.0,0.0));
#1064=AXIS2_PLACEMENT_3D('',#1061,#1062,#1063);
#1065=PLANE('',#1064);
#1066=ORIENTED_EDGE('',*,*,#1055,.F.);
#1067=ORIENTED_EDGE('',*,*,#966,.F.);
#1068=ORIENTED_EDGE('',*,*,#1002,.F.);
#1069=ORIENTED_EDGE('',*,*,#1033,.F.);
#1070=EDGE_LOOP('',(#1066,#1067,#1068,#1069));
#1071=FACE_OUTER_BOUND('',#1070,.T.);
#1072=ADVANCED_FACE('',(#1071),#1065,.F.);
#1073=CARTESIAN_POINT('',(-5.715,-9.436896E-016,1.52));
#1074=DIRECTION('',(0.0,0.0,1.0));
#1075=DIRECTION('',(1.0,0.0,0.0));
#1076=AXIS2_PLACEMENT_3D('',#1073,#1074,#1075);
#1077=PLANE('',#1076);
#1078=ORIENTED_EDGE('',*,*,#950,.F.);
#1079=ORIENTED_EDGE('',*,*,#1048,.F.);
#1080=ORIENTED_EDGE('',*,*,#1019,.F.);
#1081=ORIENTED_EDGE('',*,*,#988,.F.);
#1082=EDGE_LOOP('',(#1078,#1079,#1080,#1081));
#1083=FACE_OUTER_BOUND('',#1082,.T.);
#1084=ADVANCED_FACE('',(#1083),#1077,.T.);
#1085=CLOSED_SHELL('',(#976,#1007,#1038,#1060,#1072,#1084));
#1086=MANIFOLD_SOLID_BREP('1BAC',#1085);
#1087=STYLED_ITEM('NONE',(#777),#1086);
#1088=ADVANCED_BREP_SHAPE_REPRESENTATION('ABSR1',(#393,#609,#771,#928,#1086),#28);
#1089=SHAPE_REPRESENTATION_RELATIONSHIP('SRRPL1','',#1088,#62);
#1090=GEOMETRIC_CURVE_SET('GCS1',(#616));
#1091=GEOMETRICALLY_BOUNDED_WIREFRAME_SHAPE_REPRESENTATION('GBWSR1',(#1090),#28);
#1092=SHAPE_REPRESENTATION_RELATIONSHIP('SRRPL2','',#1091,#62);
ENDSEC;
END-ISO-10303-21;
