ISO-10303-21;
HEADER;
/****************************************************************
 * Generated by software with PDElib inside                    *
 * PDElib Version v51a, created Fri 09/10/2010                  *
 * ITI Transcendata (http://www.transcendata.com/)              *
 ****************************************************************/
FILE_DESCRIPTION((''),'2;1');
FILE_NAME('RES_TYCO_SQM.stp','2013-10-23T08:43:19',(''),(''),'Mechanical Desktop 2011','Mechanical Desktop 2011',', , ');
FILE_SCHEMA(('AUTOMOTIVE_DESIGN { 1 2 10303 214 1 1 1 1 }'));
ENDSEC;
DATA;
#10=(NAMED_UNIT(*)PLANE_ANGLE_UNIT()SI_UNIT($,.RADIAN.));
#11=DIMENSIONAL_EXPONENTS(0.0,0.0,0.0,0.0,0.0,0.0,0.0);
#12=PLANE_ANGLE_MEASURE_WITH_UNIT(PLANE_ANGLE_MEASURE(0.0174532925),#10);
#16=(CONVERSION_BASED_UNIT('DEGREE',#12)NAMED_UNIT(#11)PLANE_ANGLE_UNIT());
#20=(NAMED_UNIT(*)SI_UNIT($,.STERADIAN.)SOLID_ANGLE_UNIT());
#24=(LENGTH_UNIT()NAMED_UNIT(*)SI_UNIT(.MILLI.,.METRE.));
#26=UNCERTAINTY_MEASURE_WITH_UNIT(LENGTH_MEASURE(0.000001),#24,'DISTANCE_ACCURACY_VALUE','');
#28=(GEOMETRIC_REPRESENTATION_CONTEXT(3)GLOBAL_UNCERTAINTY_ASSIGNED_CONTEXT((#26))GLOBAL_UNIT_ASSIGNED_CONTEXT((#16,#20,#24))REPRESENTATION_CONTEXT('','3D'));
#29=APPLICATION_CONTEXT('automotive design');
#30=APPLICATION_PROTOCOL_DEFINITION('INTERNATIONAL_STANDARD','automotive_design',1998,#29);
#31=PRODUCT_CONTEXT('3D Mechanical Parts',#29,'mechanical');
#32=PRODUCT('Product','Product','',(#31));
#33=PRODUCT_RELATED_PRODUCT_CATEGORY('part',$,(#32));
#34=PRODUCT_CATEGORY('part',$);
#35=PERSON('1','Design','Joe',$,$,$);
#36=ORGANIZATION($,'None','None');
#37=PERSON_AND_ORGANIZATION(#35,#36);
#38=PERSON_AND_ORGANIZATION_ROLE('design_owner');
#39=APPLIED_PERSON_AND_ORGANIZATION_ASSIGNMENT(#37,#38,(#32));
#40=PRODUCT_DEFINITION_FORMATION_WITH_SPECIFIED_SOURCE('None','',#32,.BOUGHT.);
#41=PERSON('2','Creator','Joe',$,$,$);
#42=ORGANIZATION($,'None','None');
#43=PERSON_AND_ORGANIZATION(#41,#42);
#44=PERSON_AND_ORGANIZATION_ROLE('creator');
#45=APPLIED_PERSON_AND_ORGANIZATION_ASSIGNMENT(#43,#44,(#40));
#46=PERSON('3','Supplier','Joe',$,$,$);
#47=ORGANIZATION($,'None','None');
#48=PERSON_AND_ORGANIZATION(#46,#47);
#49=PERSON_AND_ORGANIZATION_ROLE('design_supplier');
#50=APPLIED_PERSON_AND_ORGANIZATION_ASSIGNMENT(#48,#49,(#40));
#51=PRODUCT_DEFINITION_CONTEXT('part definition',#29,'design');
#52=PRODUCT_DEFINITION('None','',#40,#51);
#53=PERSON('4','Creator','Joe',$,$,$);
#54=ORGANIZATION($,'None','None');
#55=PERSON_AND_ORGANIZATION(#53,#54);
#56=PERSON_AND_ORGANIZATION_ROLE('creator');
#57=APPLIED_PERSON_AND_ORGANIZATION_ASSIGNMENT(#55,#56,(#52));
#58=CARTESIAN_POINT('NONE',(0.0,0.0,0.0));
#59=DIRECTION('NONE',(0.0,0.0,1.0));
#60=DIRECTION('NONE',(1.0,0.0,0.0));
#61=AXIS2_PLACEMENT_3D('NONE',#58,#59,#60);
#62=SHAPE_REPRESENTATION('SR1',(#61),#28);
#63=PRODUCT_DEFINITION_SHAPE('PDS1','Test Part',#52);
#64=SHAPE_DEFINITION_REPRESENTATION(#63,#62);
#65=CARTESIAN_POINT('',(-2.5,0.0,-0.6));
#66=DIRECTION('',(0.0,-1.224647E-016,-1.0));
#67=DIRECTION('',(1.0,0.0,0.0));
#68=AXIS2_PLACEMENT_3D('',#65,#66,#67);
#69=CYLINDRICAL_SURFACE('',#68,0.425);
#70=CARTESIAN_POINT('',(-2.075,-3.184082E-016,-3.2));
#71=VERTEX_POINT('',#70);
#72=CARTESIAN_POINT('',(-2.075,3.184082E-016,2.0));
#73=VERTEX_POINT('',#72);
#74=CARTESIAN_POINT('',(-2.075,-3.184082E-016,-3.2));
#75=DIRECTION('',(0.0,0.0,1.0));
#76=VECTOR('',#75,5.2);
#77=LINE('',#74,#76);
#78=EDGE_CURVE('',#71,#73,#77,.T.);
#79=ORIENTED_EDGE('',*,*,#78,.F.);
#80=CARTESIAN_POINT('',(-2.925,-2.663607E-016,-3.2));
#81=VERTEX_POINT('',#80);
#82=CARTESIAN_POINT('',(-2.5,-3.184082E-016,-3.2));
#83=DIRECTION('',(0.0,0.0,-1.0));
#84=DIRECTION('',(1.0,0.0,0.0));
#85=AXIS2_PLACEMENT_3D('',#82,#83,#84);
#86=CIRCLE('',#85,0.425);
#87=EDGE_CURVE('',#81,#71,#86,.T.);
#88=ORIENTED_EDGE('',*,*,#87,.F.);
#89=CARTESIAN_POINT('',(-2.925,3.704557E-016,2.0));
#90=VERTEX_POINT('',#89);
#91=CARTESIAN_POINT('',(-2.925,-2.663607E-016,-3.2));
#92=DIRECTION('',(0.0,0.0,1.0));
#93=VECTOR('',#92,5.2);
#94=LINE('',#91,#93);
#95=EDGE_CURVE('',#81,#90,#94,.T.);
#96=ORIENTED_EDGE('',*,*,#95,.T.);
#97=CARTESIAN_POINT('',(-2.5,3.184082E-016,2.0));
#98=DIRECTION('',(0.0,0.0,1.0));
#99=DIRECTION('',(1.0,0.0,0.0));
#100=AXIS2_PLACEMENT_3D('',#97,#98,#99);
#101=CIRCLE('',#100,0.425);
#102=EDGE_CURVE('',#73,#90,#101,.T.);
#103=ORIENTED_EDGE('',*,*,#102,.F.);
#104=EDGE_LOOP('',(#79,#88,#96,#103));
#105=FACE_OUTER_BOUND('',#104,.T.);
#106=ADVANCED_FACE('',(#105),#69,.T.);
#107=CARTESIAN_POINT('',(-2.5,0.0,-0.6));
#108=DIRECTION('',(0.0,-1.224647E-016,-1.0));
#109=DIRECTION('',(1.0,0.0,0.0));
#110=AXIS2_PLACEMENT_3D('',#107,#108,#109);
#111=CYLINDRICAL_SURFACE('',#110,0.425);
#112=ORIENTED_EDGE('',*,*,#78,.T.);
#113=CARTESIAN_POINT('',(-2.5,3.184082E-016,2.0));
#114=DIRECTION('',(0.0,0.0,1.0));
#115=DIRECTION('',(1.0,0.0,0.0));
#116=AXIS2_PLACEMENT_3D('',#113,#114,#115);
#117=CIRCLE('',#116,0.425);
#118=EDGE_CURVE('',#90,#73,#117,.T.);
#119=ORIENTED_EDGE('',*,*,#118,.F.);
#120=ORIENTED_EDGE('',*,*,#95,.F.);
#121=CARTESIAN_POINT('',(-2.5,-3.184082E-016,-3.2));
#122=DIRECTION('',(0.0,0.0,-1.0));
#123=DIRECTION('',(1.0,0.0,0.0));
#124=AXIS2_PLACEMENT_3D('',#121,#122,#123);
#125=CIRCLE('',#124,0.425);
#126=EDGE_CURVE('',#71,#81,#125,.T.);
#127=ORIENTED_EDGE('',*,*,#126,.F.);
#128=EDGE_LOOP('',(#112,#119,#120,#127));
#129=FACE_OUTER_BOUND('',#128,.T.);
#130=ADVANCED_FACE('',(#129),#111,.T.);
#131=CARTESIAN_POINT('',(-2.5,3.184082E-016,2.0));
#132=DIRECTION('',(0.0,0.0,1.0));
#133=DIRECTION('',(-1.0,0.0,0.0));
#134=AXIS2_PLACEMENT_3D('',#131,#132,#133);
#135=PLANE('',#134);
#136=ORIENTED_EDGE('',*,*,#102,.T.);
#137=ORIENTED_EDGE('',*,*,#118,.T.);
#138=EDGE_LOOP('',(#136,#137));
#139=FACE_OUTER_BOUND('',#138,.T.);
#140=ADVANCED_FACE('',(#139),#135,.T.);
#141=CARTESIAN_POINT('',(-2.5,-3.184082E-016,-3.2));
#142=DIRECTION('',(0.0,0.0,-1.0));
#143=DIRECTION('',(1.0,0.0,0.0));
#144=AXIS2_PLACEMENT_3D('',#141,#142,#143);
#145=PLANE('',#144);
#146=ORIENTED_EDGE('',*,*,#126,.T.);
#147=ORIENTED_EDGE('',*,*,#87,.T.);
#148=EDGE_LOOP('',(#146,#147));
#149=FACE_OUTER_BOUND('',#148,.T.);
#150=ADVANCED_FACE('',(#149),#145,.T.);
#151=CLOSED_SHELL('',(#106,#130,#140,#150));
#152=MANIFOLD_SOLID_BREP('21D5',#151);
#153=COLOUR_RGB('253',0.732,0.732,0.732);
#154=SURFACE_STYLE_USAGE(.BOTH.,#155);
#155=SURFACE_SIDE_STYLE('NONE',(#156));
#156=SURFACE_STYLE_FILL_AREA(#157);
#157=FILL_AREA_STYLE('NONE',(#158));
#158=FILL_AREA_STYLE_COLOUR('NONE',#153);
#159=PRESENTATION_STYLE_ASSIGNMENT((#154));
#160=STYLED_ITEM('NONE',(#159),#152);
#161=MECHANICAL_DESIGN_GEOMETRIC_PRESENTATION_REPRESENTATION('NONE',(#160,#251,#645),#28);
#162=PRESENTATION_LAYER_ASSIGNMENT('3D','None',(#152,#250,#637));
#163=CARTESIAN_POINT('',(2.499999999999999,0.0,-0.6));
#164=DIRECTION('',(0.0,-1.224647E-016,-1.0));
#165=DIRECTION('',(1.0,0.0,0.0));
#166=AXIS2_PLACEMENT_3D('',#163,#164,#165);
#167=CYLINDRICAL_SURFACE('',#166,0.425);
#168=CARTESIAN_POINT('',(2.924999999999999,-3.184082E-016,-3.2));
#169=VERTEX_POINT('',#168);
#170=CARTESIAN_POINT('',(2.924999999999999,3.184082E-016,2.0));
#171=VERTEX_POINT('',#170);
#172=CARTESIAN_POINT('',(2.924999999999999,-3.184082E-016,-3.2));
#173=DIRECTION('',(0.0,0.0,1.0));
#174=VECTOR('',#173,5.2);
#175=LINE('',#172,#174);
#176=EDGE_CURVE('',#169,#171,#175,.T.);
#177=ORIENTED_EDGE('',*,*,#176,.F.);
#178=CARTESIAN_POINT('',(2.074999999999999,-2.663607E-016,-3.2));
#179=VERTEX_POINT('',#178);
#180=CARTESIAN_POINT('',(2.499999999999999,-3.184082E-016,-3.2));
#181=DIRECTION('',(0.0,0.0,-1.0));
#182=DIRECTION('',(1.0,0.0,0.0));
#183=AXIS2_PLACEMENT_3D('',#180,#181,#182);
#184=CIRCLE('',#183,0.425);
#185=EDGE_CURVE('',#179,#169,#184,.T.);
#186=ORIENTED_EDGE('',*,*,#185,.F.);
#187=CARTESIAN_POINT('',(2.074999999999999,3.704557E-016,2.0));
#188=VERTEX_POINT('',#187);
#189=CARTESIAN_POINT('',(2.074999999999999,-2.663607E-016,-3.2));
#190=DIRECTION('',(0.0,0.0,1.0));
#191=VECTOR('',#190,5.2);
#192=LINE('',#189,#191);
#193=EDGE_CURVE('',#179,#188,#192,.T.);
#194=ORIENTED_EDGE('',*,*,#193,.T.);
#195=CARTESIAN_POINT('',(2.499999999999999,3.184082E-016,2.0));
#196=DIRECTION('',(0.0,0.0,1.0));
#197=DIRECTION('',(1.0,0.0,0.0));
#198=AXIS2_PLACEMENT_3D('',#195,#196,#197);
#199=CIRCLE('',#198,0.425);
#200=EDGE_CURVE('',#171,#188,#199,.T.);
#201=ORIENTED_EDGE('',*,*,#200,.F.);
#202=EDGE_LOOP('',(#177,#186,#194,#201));
#203=FACE_OUTER_BOUND('',#202,.T.);
#204=ADVANCED_FACE('',(#203),#167,.T.);
#205=CARTESIAN_POINT('',(2.499999999999999,0.0,-0.6));
#206=DIRECTION('',(0.0,-1.224647E-016,-1.0));
#207=DIRECTION('',(1.0,0.0,0.0));
#208=AXIS2_PLACEMENT_3D('',#205,#206,#207);
#209=CYLINDRICAL_SURFACE('',#208,0.425);
#210=ORIENTED_EDGE('',*,*,#176,.T.);
#211=CARTESIAN_POINT('',(2.499999999999999,3.184082E-016,2.0));
#212=DIRECTION('',(0.0,0.0,1.0));
#213=DIRECTION('',(1.0,0.0,0.0));
#214=AXIS2_PLACEMENT_3D('',#211,#212,#213);
#215=CIRCLE('',#214,0.425);
#216=EDGE_CURVE('',#188,#171,#215,.T.);
#217=ORIENTED_EDGE('',*,*,#216,.F.);
#218=ORIENTED_EDGE('',*,*,#193,.F.);
#219=CARTESIAN_POINT('',(2.499999999999999,-3.184082E-016,-3.2));
#220=DIRECTION('',(0.0,0.0,-1.0));
#221=DIRECTION('',(1.0,0.0,0.0));
#222=AXIS2_PLACEMENT_3D('',#219,#220,#221);
#223=CIRCLE('',#222,0.425);
#224=EDGE_CURVE('',#169,#179,#223,.T.);
#225=ORIENTED_EDGE('',*,*,#224,.F.);
#226=EDGE_LOOP('',(#210,#217,#218,#225));
#227=FACE_OUTER_BOUND('',#226,.T.);
#228=ADVANCED_FACE('',(#227),#209,.T.);
#229=CARTESIAN_POINT('',(2.499999999999999,3.184082E-016,2.0));
#230=DIRECTION('',(0.0,0.0,1.0));
#231=DIRECTION('',(-1.0,0.0,0.0));
#232=AXIS2_PLACEMENT_3D('',#229,#230,#231);
#233=PLANE('',#232);
#234=ORIENTED_EDGE('',*,*,#200,.T.);
#235=ORIENTED_EDGE('',*,*,#216,.T.);
#236=EDGE_LOOP('',(#234,#235));
#237=FACE_OUTER_BOUND('',#236,.T.);
#238=ADVANCED_FACE('',(#237),#233,.T.);
#239=CARTESIAN_POINT('',(2.499999999999999,-3.184082E-016,-3.2));
#240=DIRECTION('',(0.0,0.0,-1.0));
#241=DIRECTION('',(1.0,0.0,0.0));
#242=AXIS2_PLACEMENT_3D('',#239,#240,#241);
#243=PLANE('',#242);
#244=ORIENTED_EDGE('',*,*,#224,.T.);
#245=ORIENTED_EDGE('',*,*,#185,.T.);
#246=EDGE_LOOP('',(#244,#245));
#247=FACE_OUTER_BOUND('',#246,.T.);
#248=ADVANCED_FACE('',(#247),#243,.T.);
#249=CLOSED_SHELL('',(#204,#228,#238,#248));
#250=MANIFOLD_SOLID_BREP('21D1',#249);
#251=STYLED_ITEM('NONE',(#159),#250);
#252=CARTESIAN_POINT('',(-6.0,-4.25,1.5));
#253=DIRECTION('',(0.0,0.0,-1.0));
#254=DIRECTION('',(-0.707106781186548,-0.707106781186548,0.0));
#255=AXIS2_PLACEMENT_3D('',#252,#253,#254);
#256=CYLINDRICAL_SURFACE('',#255,1.0);
#257=CARTESIAN_POINT('',(-7.0,-4.25,-1.559599E-016));
#258=VERTEX_POINT('',#257);
#259=CARTESIAN_POINT('',(-6.0,-5.25,5.551115E-017));
#260=VERTEX_POINT('',#259);
#261=CARTESIAN_POINT('',(-6.0,-4.25,0.0));
#262=DIRECTION('',(0.0,0.0,1.0));
#263=DIRECTION('',(-0.707106781186548,-0.707106781186548,0.0));
#264=AXIS2_PLACEMENT_3D('',#261,#262,#263);
#265=CIRCLE('',#264,1.0);
#266=EDGE_CURVE('',#258,#260,#265,.T.);
#267=ORIENTED_EDGE('',*,*,#266,.T.);
#268=CARTESIAN_POINT('',(-6.0,-5.25,40.0));
#269=VERTEX_POINT('',#268);
#270=CARTESIAN_POINT('',(-6.0,-5.25,0.0));
#271=DIRECTION('',(0.0,0.0,1.0));
#272=VECTOR('',#271,40.0);
#273=LINE('',#270,#272);
#274=EDGE_CURVE('',#260,#269,#273,.T.);
#275=ORIENTED_EDGE('',*,*,#274,.T.);
#276=CARTESIAN_POINT('',(-7.0,-4.25,40.0));
#277=VERTEX_POINT('',#276);
#278=CARTESIAN_POINT('',(-6.0,-4.25,40.0));
#279=DIRECTION('',(0.0,0.0,-1.0));
#280=DIRECTION('',(-0.707106781186548,-0.707106781186548,0.0));
#281=AXIS2_PLACEMENT_3D('',#278,#279,#280);
#282=CIRCLE('',#281,1.0);
#283=EDGE_CURVE('',#269,#277,#282,.T.);
#284=ORIENTED_EDGE('',*,*,#283,.T.);
#285=CARTESIAN_POINT('',(-7.0,-4.25,40.0));
#286=DIRECTION('',(0.0,0.0,-1.0));
#287=VECTOR('',#286,40.0);
#288=LINE('',#285,#287);
#289=EDGE_CURVE('',#277,#258,#288,.T.);
#290=ORIENTED_EDGE('',*,*,#289,.T.);
#291=EDGE_LOOP('',(#267,#275,#284,#290));
#292=FACE_OUTER_BOUND('',#291,.T.);
#293=ADVANCED_FACE('',(#292),#256,.T.);
#294=CARTESIAN_POINT('',(-7.0,-5.25,5.551115E-017));
#295=DIRECTION('',(0.0,0.0,-1.0));
#296=DIRECTION('',(-1.0,0.0,0.0));
#297=AXIS2_PLACEMENT_3D('',#294,#295,#296);
#298=PLANE('',#297);
#299=ORIENTED_EDGE('',*,*,#266,.F.);
#300=CARTESIAN_POINT('',(-7.0,4.25,-1.953464E-015));
#301=VERTEX_POINT('',#300);
#302=CARTESIAN_POINT('',(-7.0,-4.25,-1.559599E-016));
#303=DIRECTION('',(0.0,1.0,0.0));
#304=VECTOR('',#303,8.5);
#305=LINE('',#302,#304);
#306=EDGE_CURVE('',#258,#301,#305,.T.);
#307=ORIENTED_EDGE('',*,*,#306,.T.);
#308=CARTESIAN_POINT('',(-6.0,5.25,-2.164935E-015));
#309=VERTEX_POINT('',#308);
#310=CARTESIAN_POINT('',(-6.0,4.25,0.0));
#311=DIRECTION('',(0.0,0.0,1.0));
#312=DIRECTION('',(-0.707106781186548,0.707106781186548,0.0));
#313=AXIS2_PLACEMENT_3D('',#310,#311,#312);
#314=CIRCLE('',#313,1.0);
#315=EDGE_CURVE('',#309,#301,#314,.T.);
#316=ORIENTED_EDGE('',*,*,#315,.F.);
#317=CARTESIAN_POINT('',(-6.0,-5.25,5.551115E-017));
#318=DIRECTION('',(0.0,1.0,0.0));
#319=VECTOR('',#318,10.5);
#320=LINE('',#317,#319);
#321=EDGE_CURVE('',#260,#309,#320,.T.);
#322=ORIENTED_EDGE('',*,*,#321,.F.);
#323=EDGE_LOOP('',(#299,#307,#316,#322));
#324=FACE_OUTER_BOUND('',#323,.T.);
#325=ADVANCED_FACE('',(#324),#298,.T.);
#326=CARTESIAN_POINT('',(-7.0,-5.25,2.0));
#327=DIRECTION('',(-1.0,0.0,0.0));
#328=DIRECTION('',(0.0,0.0,1.0));
#329=AXIS2_PLACEMENT_3D('',#326,#327,#328);
#330=PLANE('',#329);
#331=ORIENTED_EDGE('',*,*,#289,.F.);
#332=CARTESIAN_POINT('',(-7.0,4.25,40.0));
#333=VERTEX_POINT('',#332);
#334=CARTESIAN_POINT('',(-7.0,-4.25,40.0));
#335=DIRECTION('',(0.0,1.0,0.0));
#336=VECTOR('',#335,8.5);
#337=LINE('',#334,#336);
#338=EDGE_CURVE('',#277,#333,#337,.T.);
#339=ORIENTED_EDGE('',*,*,#338,.T.);
#340=CARTESIAN_POINT('',(-7.0,4.25,-1.998401E-015));
#341=DIRECTION('',(0.0,0.0,1.0));
#342=VECTOR('',#341,40.0);
#343=LINE('',#340,#342);
#344=EDGE_CURVE('',#301,#333,#343,.T.);
#345=ORIENTED_EDGE('',*,*,#344,.F.);
#346=ORIENTED_EDGE('',*,*,#306,.F.);
#347=EDGE_LOOP('',(#331,#339,#345,#346));
#348=FACE_OUTER_BOUND('',#347,.T.);
#349=ADVANCED_FACE('',(#348),#330,.T.);
#350=CARTESIAN_POINT('',(6.0,-4.25,1.5));
#351=DIRECTION('',(0.0,0.0,-1.0));
#352=DIRECTION('',(0.707106781186548,-0.707106781186548,0.0));
#353=AXIS2_PLACEMENT_3D('',#350,#351,#352);
#354=CYLINDRICAL_SURFACE('',#353,1.0);
#355=CARTESIAN_POINT('',(6.0,-5.25,5.551115E-017));
#356=VERTEX_POINT('',#355);
#357=CARTESIAN_POINT('',(7.0,-4.25,-1.559599E-016));
#358=VERTEX_POINT('',#357);
#359=CARTESIAN_POINT('',(6.0,-4.25,0.0));
#360=DIRECTION('',(0.0,0.0,1.0));
#361=DIRECTION('',(0.707106781186548,-0.707106781186548,0.0));
#362=AXIS2_PLACEMENT_3D('',#359,#360,#361);
#363=CIRCLE('',#362,1.0);
#364=EDGE_CURVE('',#356,#358,#363,.T.);
#365=ORIENTED_EDGE('',*,*,#364,.T.);
#366=CARTESIAN_POINT('',(7.0,-4.25,40.0));
#367=VERTEX_POINT('',#366);
#368=CARTESIAN_POINT('',(7.0,-4.25,-2.220446E-016));
#369=DIRECTION('',(0.0,0.0,1.0));
#370=VECTOR('',#369,40.0);
#371=LINE('',#368,#370);
#372=EDGE_CURVE('',#358,#367,#371,.T.);
#373=ORIENTED_EDGE('',*,*,#372,.T.);
#374=CARTESIAN_POINT('',(6.0,-5.25,40.0));
#375=VERTEX_POINT('',#374);
#376=CARTESIAN_POINT('',(6.0,-4.25,40.0));
#377=DIRECTION('',(0.0,0.0,-1.0));
#378=DIRECTION('',(0.707106781186548,-0.707106781186548,0.0));
#379=AXIS2_PLACEMENT_3D('',#376,#377,#378);
#380=CIRCLE('',#379,1.0);
#381=EDGE_CURVE('',#367,#375,#380,.T.);
#382=ORIENTED_EDGE('',*,*,#381,.T.);
#383=CARTESIAN_POINT('',(6.0,-5.25,40.0));
#384=DIRECTION('',(0.0,0.0,-1.0));
#385=VECTOR('',#384,40.0);
#386=LINE('',#383,#385);
#387=EDGE_CURVE('',#375,#356,#386,.T.);
#388=ORIENTED_EDGE('',*,*,#387,.T.);
#389=EDGE_LOOP('',(#365,#373,#382,#388));
#390=FACE_OUTER_BOUND('',#389,.T.);
#391=ADVANCED_FACE('',(#390),#354,.T.);
#392=CARTESIAN_POINT('',(7.0,5.25,2.0));
#393=DIRECTION('',(1.0,0.0,0.0));
#394=DIRECTION('',(0.0,0.0,-1.0));
#395=AXIS2_PLACEMENT_3D('',#392,#393,#394);
#396=PLANE('',#395);
#397=ORIENTED_EDGE('',*,*,#372,.F.);
#398=CARTESIAN_POINT('',(7.0,4.25,-1.953464E-015));
#399=VERTEX_POINT('',#398);
#400=CARTESIAN_POINT('',(7.0,-4.25,-1.559599E-016));
#401=DIRECTION('',(0.0,1.0,0.0));
#402=VECTOR('',#401,8.5);
#403=LINE('',#400,#402);
#404=EDGE_CURVE('',#358,#399,#403,.T.);
#405=ORIENTED_EDGE('',*,*,#404,.T.);
#406=CARTESIAN_POINT('',(7.0,4.25,40.0));
#407=VERTEX_POINT('',#406);
#408=CARTESIAN_POINT('',(7.0,4.25,40.0));
#409=DIRECTION('',(0.0,0.0,-1.0));
#410=VECTOR('',#409,40.0);
#411=LINE('',#408,#410);
#412=EDGE_CURVE('',#407,#399,#411,.T.);
#413=ORIENTED_EDGE('',*,*,#412,.F.);
#414=CARTESIAN_POINT('',(7.0,4.25,40.0));
#415=DIRECTION('',(0.0,-1.0,0.0));
#416=VECTOR('',#415,8.5);
#417=LINE('',#414,#416);
#418=EDGE_CURVE('',#407,#367,#417,.T.);
#419=ORIENTED_EDGE('',*,*,#418,.T.);
#420=EDGE_LOOP('',(#397,#405,#413,#419));
#421=FACE_OUTER_BOUND('',#420,.T.);
#422=ADVANCED_FACE('',(#421),#396,.T.);
#423=CARTESIAN_POINT('',(6.0,5.25,-2.164935E-015));
#424=CARTESIAN_POINT('',(7.0,5.25,-2.164935E-015));
#425=CARTESIAN_POINT('',(6.0,-5.25,5.551115E-017));
#426=CARTESIAN_POINT('',(7.0,-5.25,5.551115E-017));
#427=B_SPLINE_SURFACE_WITH_KNOTS('',1,1,((#423,#425),(#424,#426)),.UNSPECIFIED.,.F.,.F.,.U.,(2,2),(2,2),(0.0,1.0),(0.0,10.5),.UNSPECIFIED.);
#428=ORIENTED_EDGE('',*,*,#364,.F.);
#429=CARTESIAN_POINT('',(6.0,5.25,-2.275957E-015));
#430=VERTEX_POINT('',#429);
#431=CARTESIAN_POINT('',(6.0,-5.25,5.551115E-017));
#432=DIRECTION('',(0.0,1.0,0.0));
#433=VECTOR('',#432,10.5);
#434=LINE('',#431,#433);
#435=EDGE_CURVE('',#356,#430,#434,.T.);
#436=ORIENTED_EDGE('',*,*,#435,.T.);
#437=CARTESIAN_POINT('',(6.0,4.25,0.0));
#438=DIRECTION('',(0.0,0.0,1.0));
#439=DIRECTION('',(0.707106781186548,0.707106781186548,0.0));
#440=AXIS2_PLACEMENT_3D('',#437,#438,#439);
#441=CIRCLE('',#440,1.0);
#442=EDGE_CURVE('',#399,#430,#441,.T.);
#443=ORIENTED_EDGE('',*,*,#442,.F.);
#444=ORIENTED_EDGE('',*,*,#404,.F.);
#445=EDGE_LOOP('',(#428,#436,#443,#444));
#446=FACE_OUTER_BOUND('',#445,.T.);
#447=ADVANCED_FACE('',(#446),#427,.T.);
#448=CARTESIAN_POINT('',(6.0,4.25,1.499999999999999));
#449=DIRECTION('',(0.0,0.0,-1.0));
#450=DIRECTION('',(0.707106781186548,0.707106781186548,0.0));
#451=AXIS2_PLACEMENT_3D('',#448,#449,#450);
#452=CYLINDRICAL_SURFACE('',#451,1.0);
#453=ORIENTED_EDGE('',*,*,#442,.T.);
#454=CARTESIAN_POINT('',(6.0,5.25,40.0));
#455=VERTEX_POINT('',#454);
#456=CARTESIAN_POINT('',(6.0,5.25,-2.220446E-015));
#457=DIRECTION('',(0.0,0.0,1.0));
#458=VECTOR('',#457,40.0);
#459=LINE('',#456,#458);
#460=EDGE_CURVE('',#430,#455,#459,.T.);
#461=ORIENTED_EDGE('',*,*,#460,.T.);
#462=CARTESIAN_POINT('',(6.0,4.25,40.0));
#463=DIRECTION('',(0.0,0.0,-1.0));
#464=DIRECTION('',(0.707106781186548,0.707106781186548,0.0));
#465=AXIS2_PLACEMENT_3D('',#462,#463,#464);
#466=CIRCLE('',#465,1.0);
#467=EDGE_CURVE('',#455,#407,#466,.T.);
#468=ORIENTED_EDGE('',*,*,#467,.T.);
#469=ORIENTED_EDGE('',*,*,#412,.T.);
#470=EDGE_LOOP('',(#453,#461,#468,#469));
#471=FACE_OUTER_BOUND('',#470,.T.);
#472=ADVANCED_FACE('',(#471),#452,.T.);
#473=CARTESIAN_POINT('',(-6.499999999999999,5.25,0.999999999999998));
#474=DIRECTION('',(0.0,1.0,0.0));
#475=DIRECTION('',(0.0,0.0,1.0));
#476=AXIS2_PLACEMENT_3D('',#473,#474,#475);
#477=PLANE('',#476);
#478=ORIENTED_EDGE('',*,*,#460,.F.);
#479=CARTESIAN_POINT('',(5.0,5.25,1.999999999999998));
#480=VERTEX_POINT('',#479);
#481=CARTESIAN_POINT('',(6.0,5.249999999999999,-2.664535E-015));
#482=DIRECTION('',(-0.447213595499958,3.972055E-016,0.894427190999916));
#483=VECTOR('',#482,2.23606797749979);
#484=LINE('',#481,#483);
#485=EDGE_CURVE('',#430,#480,#484,.T.);
#486=ORIENTED_EDGE('',*,*,#485,.T.);
#487=CARTESIAN_POINT('',(-5.0,5.25,1.999999999999998));
#488=VERTEX_POINT('',#487);
#489=CARTESIAN_POINT('',(-5.0,5.25,2.0));
#490=DIRECTION('',(1.0,0.0,0.0));
#491=VECTOR('',#490,10.0);
#492=LINE('',#489,#491);
#493=EDGE_CURVE('',#488,#480,#492,.T.);
#494=ORIENTED_EDGE('',*,*,#493,.F.);
#495=CARTESIAN_POINT('',(-6.0,5.249999999999999,-2.664535E-015));
#496=DIRECTION('',(0.447213595499958,3.972055E-016,0.894427190999916));
#497=VECTOR('',#496,2.23606797749979);
#498=LINE('',#495,#497);
#499=EDGE_CURVE('',#309,#488,#498,.T.);
#500=ORIENTED_EDGE('',*,*,#499,.F.);
#501=CARTESIAN_POINT('',(-6.0,5.25,40.0));
#502=VERTEX_POINT('',#501);
#503=CARTESIAN_POINT('',(-6.0,5.25,40.0));
#504=DIRECTION('',(0.0,0.0,-1.0));
#505=VECTOR('',#504,40.0);
#506=LINE('',#503,#505);
#507=EDGE_CURVE('',#502,#309,#506,.T.);
#508=ORIENTED_EDGE('',*,*,#507,.F.);
#509=CARTESIAN_POINT('',(-6.0,5.25,40.0));
#510=DIRECTION('',(1.0,0.0,0.0));
#511=VECTOR('',#510,12.0);
#512=LINE('',#509,#511);
#513=EDGE_CURVE('',#502,#455,#512,.T.);
#514=ORIENTED_EDGE('',*,*,#513,.T.);
#515=EDGE_LOOP('',(#478,#486,#494,#500,#508,#514));
#516=FACE_OUTER_BOUND('',#515,.T.);
#517=ADVANCED_FACE('',(#516),#477,.T.);
#518=CARTESIAN_POINT('',(-6.0,4.25,1.499999999999999));
#519=DIRECTION('',(0.0,0.0,-1.0));
#520=DIRECTION('',(-0.707106781186548,0.707106781186548,0.0));
#521=AXIS2_PLACEMENT_3D('',#518,#519,#520);
#522=CYLINDRICAL_SURFACE('',#521,1.0);
#523=ORIENTED_EDGE('',*,*,#315,.T.);
#524=ORIENTED_EDGE('',*,*,#344,.T.);
#525=CARTESIAN_POINT('',(-6.0,4.25,40.0));
#526=DIRECTION('',(0.0,0.0,-1.0));
#527=DIRECTION('',(-0.707106781186548,0.707106781186548,0.0));
#528=AXIS2_PLACEMENT_3D('',#525,#526,#527);
#529=CIRCLE('',#528,1.0);
#530=EDGE_CURVE('',#333,#502,#529,.T.);
#531=ORIENTED_EDGE('',*,*,#530,.T.);
#532=ORIENTED_EDGE('',*,*,#507,.T.);
#533=EDGE_LOOP('',(#523,#524,#531,#532));
#534=FACE_OUTER_BOUND('',#533,.T.);
#535=ADVANCED_FACE('',(#534),#522,.T.);
#536=CARTESIAN_POINT('',(4.999999999999999,5.25,2.0));
#537=CARTESIAN_POINT('',(6.0,5.25,-2.220446E-015));
#538=CARTESIAN_POINT('',(5.0,-5.25,2.000000000000001));
#539=CARTESIAN_POINT('',(6.000000000000001,-5.25,-1.776357E-015));
#540=B_SPLINE_SURFACE_WITH_KNOTS('',1,1,((#536,#538),(#537,#539)),.UNSPECIFIED.,.F.,.F.,.U.,(2,2),(2,2),(0.0,2.236067977499793),(0.0,10.5),.UNSPECIFIED.);
#541=ORIENTED_EDGE('',*,*,#485,.F.);
#542=ORIENTED_EDGE('',*,*,#435,.F.);
#543=CARTESIAN_POINT('',(5.0,-5.25,2.0));
#544=VERTEX_POINT('',#543);
#545=CARTESIAN_POINT('',(5.0,-5.25,2.0));
#546=DIRECTION('',(0.447213595499958,-3.972055E-016,-0.894427190999916));
#547=VECTOR('',#546,2.23606797749979);
#548=LINE('',#545,#547);
#549=EDGE_CURVE('',#544,#356,#548,.T.);
#550=ORIENTED_EDGE('',*,*,#549,.F.);
#551=CARTESIAN_POINT('',(4.999999999999999,5.25,2.0));
#552=DIRECTION('',(0.0,-1.0,0.0));
#553=VECTOR('',#552,10.5);
#554=LINE('',#551,#553);
#555=EDGE_CURVE('',#480,#544,#554,.T.);
#556=ORIENTED_EDGE('',*,*,#555,.F.);
#557=EDGE_LOOP('',(#541,#542,#550,#556));
#558=FACE_OUTER_BOUND('',#557,.T.);
#559=ADVANCED_FACE('',(#558),#540,.T.);
#560=CARTESIAN_POINT('',(0.0,-6.920871E-017,40.0));
#561=DIRECTION('',(0.0,0.0,1.0));
#562=DIRECTION('',(1.0,0.0,0.0));
#563=AXIS2_PLACEMENT_3D('',#560,#561,#562);
#564=PLANE('',#563);
#565=ORIENTED_EDGE('',*,*,#283,.F.);
#566=CARTESIAN_POINT('',(6.0,-5.25,40.0));
#567=DIRECTION('',(-1.0,0.0,0.0));
#568=VECTOR('',#567,12.0);
#569=LINE('',#566,#568);
#570=EDGE_CURVE('',#375,#269,#569,.T.);
#571=ORIENTED_EDGE('',*,*,#570,.F.);
#572=ORIENTED_EDGE('',*,*,#381,.F.);
#573=ORIENTED_EDGE('',*,*,#418,.F.);
#574=ORIENTED_EDGE('',*,*,#467,.F.);
#575=ORIENTED_EDGE('',*,*,#513,.F.);
#576=ORIENTED_EDGE('',*,*,#530,.F.);
#577=ORIENTED_EDGE('',*,*,#338,.F.);
#578=EDGE_LOOP('',(#565,#571,#572,#573,#574,#575,#576,#577));
#579=FACE_OUTER_BOUND('',#578,.T.);
#580=ADVANCED_FACE('',(#579),#564,.T.);
#581=CARTESIAN_POINT('',(0.0,2.912533E-016,2.0));
#582=DIRECTION('',(0.0,0.0,1.0));
#583=DIRECTION('',(1.0,0.0,0.0));
#584=AXIS2_PLACEMENT_3D('',#581,#582,#583);
#585=PLANE('',#584);
#586=ORIENTED_EDGE('',*,*,#555,.T.);
#587=CARTESIAN_POINT('',(-5.0,-5.25,2.0));
#588=VERTEX_POINT('',#587);
#589=CARTESIAN_POINT('',(5.0,-5.25,2.0));
#590=DIRECTION('',(-1.0,0.0,0.0));
#591=VECTOR('',#590,10.0);
#592=LINE('',#589,#591);
#593=EDGE_CURVE('',#544,#588,#592,.T.);
#594=ORIENTED_EDGE('',*,*,#593,.T.);
#595=CARTESIAN_POINT('',(-5.0,-5.25,2.0));
#596=DIRECTION('',(0.0,1.0,0.0));
#597=VECTOR('',#596,10.5);
#598=LINE('',#595,#597);
#599=EDGE_CURVE('',#588,#488,#598,.T.);
#600=ORIENTED_EDGE('',*,*,#599,.T.);
#601=ORIENTED_EDGE('',*,*,#493,.T.);
#602=EDGE_LOOP('',(#586,#594,#600,#601));
#603=FACE_OUTER_BOUND('',#602,.T.);
#604=ADVANCED_FACE('',(#603),#585,.F.);
#605=CARTESIAN_POINT('',(-6.0,-5.25,5.551115E-017));
#606=DIRECTION('',(0.894427190999916,-9.930137E-017,-0.447213595499958));
#607=DIRECTION('',(-0.447213595499958,0.0,-0.894427190999916));
#608=AXIS2_PLACEMENT_3D('',#605,#606,#607);
#609=PLANE('',#608);
#610=ORIENTED_EDGE('',*,*,#499,.T.);
#611=ORIENTED_EDGE('',*,*,#599,.F.);
#612=CARTESIAN_POINT('',(-5.0,-5.25,2.0));
#613=DIRECTION('',(-0.447213595499958,-3.972055E-016,-0.894427190999916));
#614=VECTOR('',#613,2.23606797749979);
#615=LINE('',#612,#614);
#616=EDGE_CURVE('',#588,#260,#615,.T.);
#617=ORIENTED_EDGE('',*,*,#616,.T.);
#618=ORIENTED_EDGE('',*,*,#321,.T.);
#619=EDGE_LOOP('',(#610,#611,#617,#618));
#620=FACE_OUTER_BOUND('',#619,.T.);
#621=ADVANCED_FACE('',(#620),#609,.T.);
#622=CARTESIAN_POINT('',(-6.499999999999999,-5.25,1.0));
#623=DIRECTION('',(0.0,1.0,0.0));
#624=DIRECTION('',(0.0,0.0,1.0));
#625=AXIS2_PLACEMENT_3D('',#622,#623,#624);
#626=PLANE('',#625);
#627=ORIENTED_EDGE('',*,*,#274,.F.);
#628=ORIENTED_EDGE('',*,*,#616,.F.);
#629=ORIENTED_EDGE('',*,*,#593,.F.);
#630=ORIENTED_EDGE('',*,*,#549,.T.);
#631=ORIENTED_EDGE('',*,*,#387,.F.);
#632=ORIENTED_EDGE('',*,*,#570,.T.);
#633=EDGE_LOOP('',(#627,#628,#629,#630,#631,#632));
#634=FACE_OUTER_BOUND('',#633,.T.);
#635=ADVANCED_FACE('',(#634),#626,.F.);
#636=CLOSED_SHELL('',(#293,#325,#349,#391,#422,#447,#472,#517,#535,#559,#580,#604,#621,#635));
#637=MANIFOLD_SOLID_BREP('21C1',#636);
#638=DRAUGHTING_PRE_DEFINED_COLOUR('white');
#639=SURFACE_STYLE_USAGE(.BOTH.,#640);
#640=SURFACE_SIDE_STYLE('NONE',(#641));
#641=SURFACE_STYLE_FILL_AREA(#642);
#642=FILL_AREA_STYLE('NONE',(#643));
#643=FILL_AREA_STYLE_COLOUR('NONE',#638);
#644=PRESENTATION_STYLE_ASSIGNMENT((#639));
#645=STYLED_ITEM('NONE',(#644),#637);
#646=ADVANCED_BREP_SHAPE_REPRESENTATION('ABSR1',(#152,#250,#637),#28);
#647=SHAPE_REPRESENTATION_RELATIONSHIP('SRRPL1','',#646,#62);
ENDSEC;
END-ISO-10303-21;
