ISO-10303-21;
HEADER;
/****************************************************************
 * Generated by software with PDE/Lib inside                    *
 * PDE/Lib Version 3.2.2, created Thu Mar 23, 2000 at 18:38:49  *
 * International Technegroup Inc. (www.iti-oh.com)              *
 ****************************************************************/
FILE_DESCRIPTION((''),'2;1');
FILE_NAME('RES_VISHAY_VHP202.stp','2009-08-27T14:21:50',(''),(''),'Mechanical Desktop 2006','Mechanical Desktop 2006',', , ');
FILE_SCHEMA(('AUTOMOTIVE_DESIGN { 1 2 10303 214 0 1 1 1 }'));
ENDSEC;
DATA;
#8=(NAMED_UNIT(*)PLANE_ANGLE_UNIT()SI_UNIT($,.RADIAN.));
#9=DIMENSIONAL_EXPONENTS(0.0,0.0,0.0,0.0,0.0,0.0,0.0);
#10=PLANE_ANGLE_MEASURE_WITH_UNIT(PLANE_ANGLE_MEASURE(0.017453292500000),#8);
#14=(CONVERSION_BASED_UNIT('DEGREE',#10)NAMED_UNIT(#9)PLANE_ANGLE_UNIT());
#18=(NAMED_UNIT(*)SI_UNIT($,.STERADIAN.)SOLID_ANGLE_UNIT());
#22=(LENGTH_UNIT()NAMED_UNIT(*)SI_UNIT(.MILLI.,.METRE.));
#23=UNCERTAINTY_MEASURE_WITH_UNIT(LENGTH_MEASURE(0.000001000000000),#22,'DISTANCE_ACCURACY_VALUE','');
#28=(GEOMETRIC_REPRESENTATION_CONTEXT(3)GLOBAL_UNCERTAINTY_ASSIGNED_CONTEXT((#23))GLOBAL_UNIT_ASSIGNED_CONTEXT((#14,#18,#22))REPRESENTATION_CONTEXT('None','None'));
#29=APPLICATION_CONTEXT('automotive design');
#30=APPLICATION_PROTOCOL_DEFINITION('DRAFT_INTERNATIONAL_STANDARD','automotive_design',1998,#29);
#31=PRODUCT_CONTEXT('3D Mechanical Parts',#29,'mechanical');
#32=PRODUCT('Product','Product','',(#31));
#33=PRODUCT_RELATED_PRODUCT_CATEGORY('part',$,(#32));
#34=PRODUCT_CATEGORY('part',$);
#35=PERSON('1','Design','Joe',$,$,$);
#36=ORGANIZATION($,'None','None');
#37=PERSON_AND_ORGANIZATION(#35,#36);
#38=PERSON_AND_ORGANIZATION_ROLE('design_owner');
#39=APPLIED_PERSON_AND_ORGANIZATION_ASSIGNMENT(#37,#38,(#32));
#40=PRODUCT_DEFINITION_FORMATION_WITH_SPECIFIED_SOURCE('None','',#32,.BOUGHT.);
#41=PERSON('2','Creator','Joe',$,$,$);
#42=ORGANIZATION($,'None','None');
#43=PERSON_AND_ORGANIZATION(#41,#42);
#44=PERSON_AND_ORGANIZATION_ROLE('creator');
#45=APPLIED_PERSON_AND_ORGANIZATION_ASSIGNMENT(#43,#44,(#40));
#46=PERSON('3','Supplier','Joe',$,$,$);
#47=ORGANIZATION($,'None','None');
#48=PERSON_AND_ORGANIZATION(#46,#47);
#49=PERSON_AND_ORGANIZATION_ROLE('design_supplier');
#50=APPLIED_PERSON_AND_ORGANIZATION_ASSIGNMENT(#48,#49,(#40));
#51=PRODUCT_DEFINITION_CONTEXT('part definition',#29,'design');
#52=PRODUCT_DEFINITION('None','',#40,#51);
#53=PERSON('4','Creator','Joe',$,$,$);
#54=ORGANIZATION($,'None','None');
#55=PERSON_AND_ORGANIZATION(#53,#54);
#56=PERSON_AND_ORGANIZATION_ROLE('creator');
#57=APPLIED_PERSON_AND_ORGANIZATION_ASSIGNMENT(#55,#56,(#52));
#58=CARTESIAN_POINT('NONE',(0.0,0.0,0.0));
#59=DIRECTION('NONE',(0.0,0.0,1.0));
#60=DIRECTION('NONE',(1.0,0.0,0.0));
#61=AXIS2_PLACEMENT_3D('NONE',#58,#59,#60);
#62=SHAPE_REPRESENTATION('SR1',(#61),#28);
#63=PRODUCT_DEFINITION_SHAPE('PDS1','Test Part',#52);
#64=SHAPE_DEFINITION_REPRESENTATION(#63,#62);
#65=CARTESIAN_POINT('',(3.175000000000015,-3.552714E-015,2.410000000000000));
#66=DIRECTION('',(0.0,0.0,1.0));
#67=DIRECTION('',(1.0,0.0,0.0));
#68=AXIS2_PLACEMENT_3D('',#65,#66,#67);
#69=CYLINDRICAL_SURFACE('',#68,2.599999999999998);
#70=CARTESIAN_POINT('',(5.775000000000013,-3.871111E-015,2.410000000000000));
#71=VERTEX_POINT('',#70);
#72=CARTESIAN_POINT('',(5.775000000000013,-3.234316E-015,3.210000000000000));
#73=VERTEX_POINT('',#72);
#74=CARTESIAN_POINT('',(5.775000000000013,-3.871111E-015,2.410000000000000));
#75=DIRECTION('',(0.0,0.0,1.0));
#76=VECTOR('',#75,0.800000000000000);
#77=LINE('',#74,#76);
#78=EDGE_CURVE('',#71,#73,#77,.T.);
#79=ORIENTED_EDGE('',*,*,#78,.F.);
#80=CARTESIAN_POINT('',(3.175000000000015,2.599999999999994,2.410000000000000));
#81=VERTEX_POINT('',#80);
#82=CARTESIAN_POINT('',(3.175000000000015,-3.552714E-015,2.410000000000000));
#83=DIRECTION('',(0.0,0.0,1.0));
#84=DIRECTION('',(1.0,0.0,0.0));
#85=AXIS2_PLACEMENT_3D('',#82,#83,#84);
#86=CIRCLE('',#85,2.599999999999998);
#87=EDGE_CURVE('',#71,#81,#86,.T.);
#88=ORIENTED_EDGE('',*,*,#87,.T.);
#89=CARTESIAN_POINT('',(3.175000000000015,2.599999999999994,3.210000000000000));
#90=VERTEX_POINT('',#89);
#91=CARTESIAN_POINT('',(3.175000000000015,2.599999999999994,2.410000000000000));
#92=DIRECTION('',(0.0,0.0,1.0));
#93=VECTOR('',#92,0.800000000000000);
#94=LINE('',#91,#93);
#95=EDGE_CURVE('',#81,#90,#94,.T.);
#96=ORIENTED_EDGE('',*,*,#95,.T.);
#97=CARTESIAN_POINT('',(3.175000000000015,-3.552714E-015,3.210000000000000));
#98=DIRECTION('',(0.0,0.0,1.0));
#99=DIRECTION('',(1.0,0.0,0.0));
#100=AXIS2_PLACEMENT_3D('',#97,#98,#99);
#101=CIRCLE('',#100,2.599999999999998);
#102=EDGE_CURVE('',#73,#90,#101,.T.);
#103=ORIENTED_EDGE('',*,*,#102,.F.);
#104=EDGE_LOOP('',(#79,#88,#96,#103));
#105=FACE_OUTER_BOUND('',#104,.T.);
#106=ADVANCED_FACE('',(#105),#69,.T.);
#107=CARTESIAN_POINT('',(-3.175000000000004,0.0,2.410000000000000));
#108=DIRECTION('',(0.0,0.0,1.0));
#109=DIRECTION('',(-1.0,0.0,0.0));
#110=AXIS2_PLACEMENT_3D('',#107,#108,#109);
#111=CYLINDRICAL_SURFACE('',#110,2.099999999999987);
#112=CARTESIAN_POINT('',(-5.274999999999992,2.571673E-016,2.710000000000000));
#113=VERTEX_POINT('',#112);
#114=CARTESIAN_POINT('',(-5.274999999999992,2.571673E-016,2.410000000000000));
#115=VERTEX_POINT('',#114);
#116=CARTESIAN_POINT('',(-5.274999999999992,2.571673E-016,2.710000000000000));
#117=DIRECTION('',(0.0,0.0,-1.0));
#118=VECTOR('',#117,0.300000000000000);
#119=LINE('',#116,#118);
#120=EDGE_CURVE('',#113,#115,#119,.T.);
#121=ORIENTED_EDGE('',*,*,#120,.F.);
#122=CARTESIAN_POINT('',(-3.175000000000004,-2.099999999999987,2.710000000000001));
#123=VERTEX_POINT('',#122);
#124=CARTESIAN_POINT('',(-3.175000000000004,0.0,2.710000000000000));
#125=DIRECTION('',(0.0,0.0,-1.0));
#126=DIRECTION('',(-1.0,0.0,0.0));
#127=AXIS2_PLACEMENT_3D('',#124,#125,#126);
#128=CIRCLE('',#127,2.099999999999987);
#129=EDGE_CURVE('',#123,#113,#128,.T.);
#130=ORIENTED_EDGE('',*,*,#129,.F.);
#131=CARTESIAN_POINT('',(-3.175000000000004,-2.099999999999987,2.410000000000000));
#132=VERTEX_POINT('',#131);
#133=CARTESIAN_POINT('',(-3.175000000000004,-2.099999999999987,2.410000000000000));
#134=DIRECTION('',(0.0,0.0,1.0));
#135=VECTOR('',#134,0.300000000000001);
#136=LINE('',#133,#135);
#137=EDGE_CURVE('',#132,#123,#136,.T.);
#138=ORIENTED_EDGE('',*,*,#137,.F.);
#139=CARTESIAN_POINT('',(-3.175000000000004,0.0,2.410000000000000));
#140=DIRECTION('',(0.0,0.0,1.0));
#141=DIRECTION('',(-1.0,0.0,0.0));
#142=AXIS2_PLACEMENT_3D('',#139,#140,#141);
#143=CIRCLE('',#142,2.099999999999987);
#144=EDGE_CURVE('',#115,#132,#143,.T.);
#145=ORIENTED_EDGE('',*,*,#144,.F.);
#146=EDGE_LOOP('',(#121,#130,#138,#145));
#147=FACE_OUTER_BOUND('',#146,.T.);
#148=ADVANCED_FACE('',(#147),#111,.F.);
#149=CARTESIAN_POINT('',(3.175000000000017,-3.552714E-015,2.410000000000000));
#150=DIRECTION('',(0.0,0.0,1.0));
#151=DIRECTION('',(1.0,0.0,0.0));
#152=AXIS2_PLACEMENT_3D('',#149,#150,#151);
#153=CYLINDRICAL_SURFACE('',#152,2.099999999999998);
#154=CARTESIAN_POINT('',(5.275000000000015,-2.921703E-015,2.710000000000000));
#155=VERTEX_POINT('',#154);
#156=CARTESIAN_POINT('',(5.275000000000015,-2.921703E-015,2.410000000000000));
#157=VERTEX_POINT('',#156);
#158=CARTESIAN_POINT('',(5.275000000000015,-2.921703E-015,2.710000000000000));
#159=DIRECTION('',(0.0,0.0,-1.0));
#160=VECTOR('',#159,0.300000000000000);
#161=LINE('',#158,#160);
#162=EDGE_CURVE('',#155,#157,#161,.T.);
#163=ORIENTED_EDGE('',*,*,#162,.F.);
#164=CARTESIAN_POINT('',(3.175000000000015,2.099999999999994,2.710000000000001));
#165=VERTEX_POINT('',#164);
#166=CARTESIAN_POINT('',(3.175000000000017,-3.552714E-015,2.710000000000000));
#167=DIRECTION('',(0.0,0.0,-1.0));
#168=DIRECTION('',(1.0,0.0,0.0));
#169=AXIS2_PLACEMENT_3D('',#166,#167,#168);
#170=CIRCLE('',#169,2.099999999999998);
#171=EDGE_CURVE('',#165,#155,#170,.T.);
#172=ORIENTED_EDGE('',*,*,#171,.F.);
#173=CARTESIAN_POINT('',(3.175000000000015,2.099999999999994,2.410000000000000));
#174=VERTEX_POINT('',#173);
#175=CARTESIAN_POINT('',(3.175000000000015,2.099999999999994,2.410000000000000));
#176=DIRECTION('',(0.0,0.0,1.0));
#177=VECTOR('',#176,0.300000000000001);
#178=LINE('',#175,#177);
#179=EDGE_CURVE('',#174,#165,#178,.T.);
#180=ORIENTED_EDGE('',*,*,#179,.F.);
#181=CARTESIAN_POINT('',(3.175000000000017,-3.552714E-015,2.410000000000000));
#182=DIRECTION('',(0.0,0.0,1.0));
#183=DIRECTION('',(1.0,0.0,0.0));
#184=AXIS2_PLACEMENT_3D('',#181,#182,#183);
#185=CIRCLE('',#184,2.099999999999998);
#186=EDGE_CURVE('',#157,#174,#185,.T.);
#187=ORIENTED_EDGE('',*,*,#186,.F.);
#188=EDGE_LOOP('',(#163,#172,#180,#187));
#189=FACE_OUTER_BOUND('',#188,.T.);
#190=ADVANCED_FACE('',(#189),#153,.F.);
#191=CARTESIAN_POINT('',(-3.175000000000004,0.0,2.410000000000000));
#192=DIRECTION('',(0.0,0.0,1.0));
#193=DIRECTION('',(-1.0,0.0,0.0));
#194=AXIS2_PLACEMENT_3D('',#191,#192,#193);
#195=CYLINDRICAL_SURFACE('',#194,2.599999999999987);
#196=CARTESIAN_POINT('',(-5.774999999999992,3.183977E-016,2.410000000000000));
#197=VERTEX_POINT('',#196);
#198=CARTESIAN_POINT('',(-5.774999999999992,-3.183977E-016,3.210000000000000));
#199=VERTEX_POINT('',#198);
#200=CARTESIAN_POINT('',(-5.774999999999992,3.183977E-016,2.410000000000000));
#201=DIRECTION('',(0.0,0.0,1.0));
#202=VECTOR('',#201,0.800000000000000);
#203=LINE('',#200,#202);
#204=EDGE_CURVE('',#197,#199,#203,.T.);
#205=ORIENTED_EDGE('',*,*,#204,.F.);
#206=CARTESIAN_POINT('',(-3.175000000000004,-2.599999999999987,2.410000000000000));
#207=VERTEX_POINT('',#206);
#208=CARTESIAN_POINT('',(-3.175000000000004,0.0,2.410000000000000));
#209=DIRECTION('',(0.0,0.0,1.0));
#210=DIRECTION('',(-1.0,0.0,0.0));
#211=AXIS2_PLACEMENT_3D('',#208,#209,#210);
#212=CIRCLE('',#211,2.599999999999987);
#213=EDGE_CURVE('',#197,#207,#212,.T.);
#214=ORIENTED_EDGE('',*,*,#213,.T.);
#215=CARTESIAN_POINT('',(-3.175000000000004,-2.599999999999987,3.210000000000000));
#216=VERTEX_POINT('',#215);
#217=CARTESIAN_POINT('',(-3.175000000000004,-2.599999999999987,2.410000000000000));
#218=DIRECTION('',(0.0,0.0,1.0));
#219=VECTOR('',#218,0.800000000000000);
#220=LINE('',#217,#219);
#221=EDGE_CURVE('',#207,#216,#220,.T.);
#222=ORIENTED_EDGE('',*,*,#221,.T.);
#223=CARTESIAN_POINT('',(-3.175000000000004,0.0,3.210000000000000));
#224=DIRECTION('',(0.0,0.0,1.0));
#225=DIRECTION('',(-1.0,0.0,0.0));
#226=AXIS2_PLACEMENT_3D('',#223,#224,#225);
#227=CIRCLE('',#226,2.599999999999987);
#228=EDGE_CURVE('',#199,#216,#227,.T.);
#229=ORIENTED_EDGE('',*,*,#228,.F.);
#230=EDGE_LOOP('',(#205,#214,#222,#229));
#231=FACE_OUTER_BOUND('',#230,.T.);
#232=ADVANCED_FACE('',(#231),#195,.T.);
#233=CARTESIAN_POINT('',(3.175000000000015,-3.552714E-015,3.210000000000000));
#234=DIRECTION('',(2.888326E-033,7.779693E-033,-1.0));
#235=DIRECTION('',(-1.0,0.0,0.0));
#236=AXIS2_PLACEMENT_3D('',#233,#234,#235);
#237=TOROIDAL_SURFACE('',#236,2.399999999999998,0.200000000000000);
#238=CARTESIAN_POINT('',(5.575000000000012,-3.258808E-015,3.410000000000000));
#239=VERTEX_POINT('',#238);
#240=CARTESIAN_POINT('',(5.575000000000012,-3.258808E-015,3.210000000000000));
#241=DIRECTION('',(0.0,-1.0,0.0));
#242=DIRECTION('',(1.0,0.0,0.0));
#243=AXIS2_PLACEMENT_3D('',#240,#241,#242);
#244=CIRCLE('',#243,0.200000000000000);
#245=EDGE_CURVE('',#73,#239,#244,.T.);
#246=ORIENTED_EDGE('',*,*,#245,.F.);
#247=ORIENTED_EDGE('',*,*,#102,.T.);
#248=CARTESIAN_POINT('',(3.175000000000015,2.541421356237304,3.351421356237310));
#249=VERTEX_POINT('',#248);
#250=CARTESIAN_POINT('',(3.175000000000015,2.399999999999994,3.210000000000000));
#251=DIRECTION('',(-1.0,0.0,0.0));
#252=DIRECTION('',(0.0,0.0,1.0));
#253=AXIS2_PLACEMENT_3D('',#250,#251,#252);
#254=CIRCLE('',#253,0.200000000000000);
#255=EDGE_CURVE('',#249,#90,#254,.T.);
#256=ORIENTED_EDGE('',*,*,#255,.F.);
#257=CARTESIAN_POINT('',(3.175000000000015,2.399999999999994,3.410000000000000));
#258=VERTEX_POINT('',#257);
#259=CARTESIAN_POINT('',(3.175000000000015,2.399999999999994,3.210000000000000));
#260=DIRECTION('',(-1.0,0.0,0.0));
#261=DIRECTION('',(0.0,0.0,1.0));
#262=AXIS2_PLACEMENT_3D('',#259,#260,#261);
#263=CIRCLE('',#262,0.200000000000000);
#264=EDGE_CURVE('',#258,#249,#263,.T.);
#265=ORIENTED_EDGE('',*,*,#264,.F.);
#266=CARTESIAN_POINT('',(3.175000000000015,-3.552714E-015,3.410000000000000));
#267=DIRECTION('',(0.0,0.0,-1.0));
#268=DIRECTION('',(1.0,0.0,0.0));
#269=AXIS2_PLACEMENT_3D('',#266,#267,#268);
#270=CIRCLE('',#269,2.399999999999998);
#271=EDGE_CURVE('',#258,#239,#270,.T.);
#272=ORIENTED_EDGE('',*,*,#271,.T.);
#273=EDGE_LOOP('',(#246,#247,#256,#265,#272));
#274=FACE_OUTER_BOUND('',#273,.T.);
#275=ADVANCED_FACE('',(#274),#237,.T.);
#276=CARTESIAN_POINT('',(-1.587499999999997,2.399999999999989,3.210000000000000));
#277=DIRECTION('',(1.0,1.118965E-015,2.888326E-033));
#278=DIRECTION('',(0.0,0.707106781186547,0.707106781186547));
#279=AXIS2_PLACEMENT_3D('',#276,#277,#278);
#280=CYLINDRICAL_SURFACE('',#279,0.200000000000000);
#281=CARTESIAN_POINT('',(-3.175000000000005,2.541421356237297,3.351421356237310));
#282=VERTEX_POINT('',#281);
#283=CARTESIAN_POINT('',(-3.175000000000005,2.541421356237297,3.351421356237310));
#284=DIRECTION('',(1.0,0.0,0.0));
#285=VECTOR('',#284,6.350000000000019);
#286=LINE('',#283,#285);
#287=EDGE_CURVE('',#282,#249,#286,.T.);
#288=ORIENTED_EDGE('',*,*,#287,.F.);
#289=CARTESIAN_POINT('',(-3.175000000000004,2.399999999999987,3.410000000000000));
#290=VERTEX_POINT('',#289);
#291=CARTESIAN_POINT('',(-3.175000000000004,2.399999999999987,3.210000000000000));
#292=DIRECTION('',(-1.0,0.0,0.0));
#293=DIRECTION('',(0.0,0.0,1.0));
#294=AXIS2_PLACEMENT_3D('',#291,#292,#293);
#295=CIRCLE('',#294,0.200000000000000);
#296=EDGE_CURVE('',#290,#282,#295,.T.);
#297=ORIENTED_EDGE('',*,*,#296,.F.);
#298=CARTESIAN_POINT('',(-3.175000000000004,2.399999999999987,3.410000000000000));
#299=DIRECTION('',(1.0,0.0,0.0));
#300=VECTOR('',#299,6.350000000000019);
#301=LINE('',#298,#300);
#302=EDGE_CURVE('',#290,#258,#301,.T.);
#303=ORIENTED_EDGE('',*,*,#302,.T.);
#304=ORIENTED_EDGE('',*,*,#264,.T.);
#305=EDGE_LOOP('',(#288,#297,#303,#304));
#306=FACE_OUTER_BOUND('',#305,.T.);
#307=ADVANCED_FACE('',(#306),#280,.T.);
#308=CARTESIAN_POINT('',(1.587500000000011,-2.399999999999998,3.210000000000000));
#309=DIRECTION('',(-1.0,2.237930E-015,-2.888326E-033));
#310=DIRECTION('',(-1.570092E-015,-0.707106781186547,0.707106781186547));
#311=AXIS2_PLACEMENT_3D('',#308,#309,#310);
#312=CYLINDRICAL_SURFACE('',#311,0.200000000000000);
#313=CARTESIAN_POINT('',(3.175000000000015,-2.541421356237311,3.351421356237310));
#314=VERTEX_POINT('',#313);
#315=CARTESIAN_POINT('',(-3.175000000000005,-2.541421356237297,3.351421356237310));
#316=VERTEX_POINT('',#315);
#317=CARTESIAN_POINT('',(3.175000000000015,-2.541421356237311,3.351421356237310));
#318=DIRECTION('',(-1.0,0.0,0.0));
#319=VECTOR('',#318,6.350000000000019);
#320=LINE('',#317,#319);
#321=EDGE_CURVE('',#314,#316,#320,.T.);
#322=ORIENTED_EDGE('',*,*,#321,.F.);
#323=CARTESIAN_POINT('',(3.175000000000015,-2.400000000000001,3.410000000000000));
#324=VERTEX_POINT('',#323);
#325=CARTESIAN_POINT('',(3.175000000000015,-2.400000000000001,3.210000000000000));
#326=DIRECTION('',(-1.0,0.0,0.0));
#327=DIRECTION('',(0.0,-1.0,0.0));
#328=AXIS2_PLACEMENT_3D('',#325,#326,#327);
#329=CIRCLE('',#328,0.200000000000000);
#330=EDGE_CURVE('',#314,#324,#329,.T.);
#331=ORIENTED_EDGE('',*,*,#330,.T.);
#332=CARTESIAN_POINT('',(-3.175000000000004,-2.399999999999987,3.410000000000000));
#333=VERTEX_POINT('',#332);
#334=CARTESIAN_POINT('',(3.175000000000015,-2.400000000000001,3.410000000000000));
#335=DIRECTION('',(-1.0,0.0,0.0));
#336=VECTOR('',#335,6.350000000000019);
#337=LINE('',#334,#336);
#338=EDGE_CURVE('',#324,#333,#337,.T.);
#339=ORIENTED_EDGE('',*,*,#338,.T.);
#340=CARTESIAN_POINT('',(-3.175000000000004,-2.399999999999987,3.210000000000000));
#341=DIRECTION('',(-1.0,0.0,0.0));
#342=DIRECTION('',(0.0,-1.0,0.0));
#343=AXIS2_PLACEMENT_3D('',#340,#341,#342);
#344=CIRCLE('',#343,0.200000000000000);
#345=EDGE_CURVE('',#316,#333,#344,.T.);
#346=ORIENTED_EDGE('',*,*,#345,.F.);
#347=EDGE_LOOP('',(#322,#331,#339,#346));
#348=FACE_OUTER_BOUND('',#347,.T.);
#349=ADVANCED_FACE('',(#348),#312,.T.);
#350=CARTESIAN_POINT('',(-3.175000000000004,0.0,3.210000000000000));
#351=DIRECTION('',(2.888326E-033,7.779693E-033,-1.0));
#352=DIRECTION('',(-1.0,0.0,0.0));
#353=AXIS2_PLACEMENT_3D('',#350,#351,#352);
#354=TOROIDAL_SURFACE('',#353,2.399999999999987,0.200000000000000);
#355=CARTESIAN_POINT('',(-5.574999999999990,-2.939055E-016,3.410000000000000));
#356=VERTEX_POINT('',#355);
#357=CARTESIAN_POINT('',(-5.574999999999990,-2.939055E-016,3.210000000000000));
#358=DIRECTION('',(0.0,-1.0,0.0));
#359=DIRECTION('',(-1.0,0.0,0.0));
#360=AXIS2_PLACEMENT_3D('',#357,#358,#359);
#361=CIRCLE('',#360,0.200000000000000);
#362=EDGE_CURVE('',#356,#199,#361,.T.);
#363=ORIENTED_EDGE('',*,*,#362,.F.);
#364=CARTESIAN_POINT('',(-3.175000000000004,-1.555939E-033,3.410000000000000));
#365=DIRECTION('',(0.0,0.0,-1.0));
#366=DIRECTION('',(-1.0,0.0,0.0));
#367=AXIS2_PLACEMENT_3D('',#364,#365,#366);
#368=CIRCLE('',#367,2.399999999999987);
#369=EDGE_CURVE('',#356,#290,#368,.T.);
#370=ORIENTED_EDGE('',*,*,#369,.T.);
#371=ORIENTED_EDGE('',*,*,#296,.T.);
#372=CARTESIAN_POINT('',(-3.175000000000004,2.599999999999987,3.210000000000000));
#373=VERTEX_POINT('',#372);
#374=CARTESIAN_POINT('',(-3.175000000000004,2.399999999999987,3.210000000000000));
#375=DIRECTION('',(-1.0,0.0,0.0));
#376=DIRECTION('',(0.0,0.0,1.0));
#377=AXIS2_PLACEMENT_3D('',#374,#375,#376);
#378=CIRCLE('',#377,0.200000000000000);
#379=EDGE_CURVE('',#282,#373,#378,.T.);
#380=ORIENTED_EDGE('',*,*,#379,.T.);
#381=CARTESIAN_POINT('',(-3.175000000000004,0.0,3.210000000000000));
#382=DIRECTION('',(0.0,0.0,1.0));
#383=DIRECTION('',(-1.0,0.0,0.0));
#384=AXIS2_PLACEMENT_3D('',#381,#382,#383);
#385=CIRCLE('',#384,2.599999999999987);
#386=EDGE_CURVE('',#373,#199,#385,.T.);
#387=ORIENTED_EDGE('',*,*,#386,.T.);
#388=EDGE_LOOP('',(#363,#370,#371,#380,#387));
#389=FACE_OUTER_BOUND('',#388,.T.);
#390=ADVANCED_FACE('',(#389),#354,.T.);
#391=CARTESIAN_POINT('',(-3.175000000000004,0.0,3.210000000000000));
#392=DIRECTION('',(2.888326E-033,7.779693E-033,-1.0));
#393=DIRECTION('',(-1.0,0.0,0.0));
#394=AXIS2_PLACEMENT_3D('',#391,#392,#393);
#395=TOROIDAL_SURFACE('',#394,2.399999999999987,0.200000000000000);
#396=ORIENTED_EDGE('',*,*,#362,.T.);
#397=ORIENTED_EDGE('',*,*,#228,.T.);
#398=CARTESIAN_POINT('',(-3.175000000000004,-2.399999999999987,3.210000000000000));
#399=DIRECTION('',(-1.0,0.0,0.0));
#400=DIRECTION('',(0.0,-1.0,0.0));
#401=AXIS2_PLACEMENT_3D('',#398,#399,#400);
#402=CIRCLE('',#401,0.200000000000000);
#403=EDGE_CURVE('',#216,#316,#402,.T.);
#404=ORIENTED_EDGE('',*,*,#403,.T.);
#405=ORIENTED_EDGE('',*,*,#345,.T.);
#406=CARTESIAN_POINT('',(-3.175000000000004,-1.555939E-033,3.410000000000000));
#407=DIRECTION('',(0.0,0.0,-1.0));
#408=DIRECTION('',(-1.0,0.0,0.0));
#409=AXIS2_PLACEMENT_3D('',#406,#407,#408);
#410=CIRCLE('',#409,2.399999999999987);
#411=EDGE_CURVE('',#333,#356,#410,.T.);
#412=ORIENTED_EDGE('',*,*,#411,.T.);
#413=EDGE_LOOP('',(#396,#397,#404,#405,#412));
#414=FACE_OUTER_BOUND('',#413,.T.);
#415=ADVANCED_FACE('',(#414),#395,.T.);
#416=CARTESIAN_POINT('',(1.587500000000011,-2.399999999999998,3.210000000000000));
#417=DIRECTION('',(-1.0,2.237930E-015,-2.888326E-033));
#418=DIRECTION('',(-1.570092E-015,-0.707106781186547,0.707106781186547));
#419=AXIS2_PLACEMENT_3D('',#416,#417,#418);
#420=CYLINDRICAL_SURFACE('',#419,0.200000000000000);
#421=ORIENTED_EDGE('',*,*,#321,.T.);
#422=ORIENTED_EDGE('',*,*,#403,.F.);
#423=CARTESIAN_POINT('',(3.175000000000015,-2.600000000000001,3.210000000000000));
#424=VERTEX_POINT('',#423);
#425=CARTESIAN_POINT('',(-3.175000000000004,-2.599999999999987,3.210000000000000));
#426=DIRECTION('',(1.0,0.0,0.0));
#427=VECTOR('',#426,6.350000000000019);
#428=LINE('',#425,#427);
#429=EDGE_CURVE('',#216,#424,#428,.T.);
#430=ORIENTED_EDGE('',*,*,#429,.T.);
#431=CARTESIAN_POINT('',(3.175000000000015,-2.400000000000001,3.210000000000000));
#432=DIRECTION('',(-1.0,0.0,0.0));
#433=DIRECTION('',(0.0,-1.0,0.0));
#434=AXIS2_PLACEMENT_3D('',#431,#432,#433);
#435=CIRCLE('',#434,0.200000000000000);
#436=EDGE_CURVE('',#424,#314,#435,.T.);
#437=ORIENTED_EDGE('',*,*,#436,.T.);
#438=EDGE_LOOP('',(#421,#422,#430,#437));
#439=FACE_OUTER_BOUND('',#438,.T.);
#440=ADVANCED_FACE('',(#439),#420,.T.);
#441=CARTESIAN_POINT('',(-1.587499999999997,2.399999999999989,3.210000000000000));
#442=DIRECTION('',(1.0,1.118965E-015,2.888326E-033));
#443=DIRECTION('',(0.0,0.707106781186547,0.707106781186547));
#444=AXIS2_PLACEMENT_3D('',#441,#442,#443);
#445=CYLINDRICAL_SURFACE('',#444,0.200000000000000);
#446=ORIENTED_EDGE('',*,*,#287,.T.);
#447=ORIENTED_EDGE('',*,*,#255,.T.);
#448=CARTESIAN_POINT('',(3.175000000000015,2.599999999999994,3.210000000000000));
#449=DIRECTION('',(-1.0,0.0,0.0));
#450=VECTOR('',#449,6.350000000000019);
#451=LINE('',#448,#450);
#452=EDGE_CURVE('',#90,#373,#451,.T.);
#453=ORIENTED_EDGE('',*,*,#452,.T.);
#454=ORIENTED_EDGE('',*,*,#379,.F.);
#455=EDGE_LOOP('',(#446,#447,#453,#454));
#456=FACE_OUTER_BOUND('',#455,.T.);
#457=ADVANCED_FACE('',(#456),#445,.T.);
#458=CARTESIAN_POINT('',(3.175000000000015,-3.552714E-015,3.210000000000000));
#459=DIRECTION('',(2.888326E-033,7.779693E-033,-1.0));
#460=DIRECTION('',(-1.0,0.0,0.0));
#461=AXIS2_PLACEMENT_3D('',#458,#459,#460);
#462=TOROIDAL_SURFACE('',#461,2.399999999999998,0.200000000000000);
#463=ORIENTED_EDGE('',*,*,#245,.T.);
#464=CARTESIAN_POINT('',(3.175000000000015,-3.552714E-015,3.410000000000000));
#465=DIRECTION('',(0.0,0.0,-1.0));
#466=DIRECTION('',(1.0,0.0,0.0));
#467=AXIS2_PLACEMENT_3D('',#464,#465,#466);
#468=CIRCLE('',#467,2.399999999999998);
#469=EDGE_CURVE('',#239,#324,#468,.T.);
#470=ORIENTED_EDGE('',*,*,#469,.T.);
#471=ORIENTED_EDGE('',*,*,#330,.F.);
#472=ORIENTED_EDGE('',*,*,#436,.F.);
#473=CARTESIAN_POINT('',(3.175000000000015,-3.552714E-015,3.210000000000000));
#474=DIRECTION('',(0.0,0.0,1.0));
#475=DIRECTION('',(1.0,0.0,0.0));
#476=AXIS2_PLACEMENT_3D('',#473,#474,#475);
#477=CIRCLE('',#476,2.599999999999998);
#478=EDGE_CURVE('',#424,#73,#477,.T.);
#479=ORIENTED_EDGE('',*,*,#478,.T.);
#480=EDGE_LOOP('',(#463,#470,#471,#472,#479));
#481=FACE_OUTER_BOUND('',#480,.T.);
#482=ADVANCED_FACE('',(#481),#462,.T.);
#483=CARTESIAN_POINT('',(3.175000000000015,-2.600000000000001,2.410000000000000));
#484=DIRECTION('',(0.0,-1.0,0.0));
#485=DIRECTION('',(0.0,0.0,-1.0));
#486=AXIS2_PLACEMENT_3D('',#483,#484,#485);
#487=PLANE('',#486);
#488=ORIENTED_EDGE('',*,*,#429,.F.);
#489=ORIENTED_EDGE('',*,*,#221,.F.);
#490=CARTESIAN_POINT('',(3.175000000000015,-2.600000000000001,2.410000000000000));
#491=VERTEX_POINT('',#490);
#492=CARTESIAN_POINT('',(-3.175000000000004,-2.599999999999987,2.410000000000000));
#493=DIRECTION('',(1.0,0.0,0.0));
#494=VECTOR('',#493,6.350000000000019);
#495=LINE('',#492,#494);
#496=EDGE_CURVE('',#207,#491,#495,.T.);
#497=ORIENTED_EDGE('',*,*,#496,.T.);
#498=CARTESIAN_POINT('',(3.175000000000015,-2.600000000000001,2.410000000000000));
#499=DIRECTION('',(0.0,0.0,1.0));
#500=VECTOR('',#499,0.800000000000000);
#501=LINE('',#498,#500);
#502=EDGE_CURVE('',#491,#424,#501,.T.);
#503=ORIENTED_EDGE('',*,*,#502,.T.);
#504=EDGE_LOOP('',(#488,#489,#497,#503));
#505=FACE_OUTER_BOUND('',#504,.T.);
#506=ADVANCED_FACE('',(#505),#487,.T.);
#507=CARTESIAN_POINT('',(-3.175000000000004,0.0,2.410000000000000));
#508=DIRECTION('',(0.0,0.0,1.0));
#509=DIRECTION('',(-1.0,0.0,0.0));
#510=AXIS2_PLACEMENT_3D('',#507,#508,#509);
#511=CYLINDRICAL_SURFACE('',#510,2.599999999999987);
#512=ORIENTED_EDGE('',*,*,#204,.T.);
#513=ORIENTED_EDGE('',*,*,#386,.F.);
#514=CARTESIAN_POINT('',(-3.175000000000004,2.599999999999987,2.410000000000000));
#515=VERTEX_POINT('',#514);
#516=CARTESIAN_POINT('',(-3.175000000000004,2.599999999999987,2.410000000000000));
#517=DIRECTION('',(0.0,0.0,1.0));
#518=VECTOR('',#517,0.800000000000000);
#519=LINE('',#516,#518);
#520=EDGE_CURVE('',#515,#373,#519,.T.);
#521=ORIENTED_EDGE('',*,*,#520,.F.);
#522=CARTESIAN_POINT('',(-3.175000000000004,0.0,2.410000000000000));
#523=DIRECTION('',(0.0,0.0,1.0));
#524=DIRECTION('',(-1.0,0.0,0.0));
#525=AXIS2_PLACEMENT_3D('',#522,#523,#524);
#526=CIRCLE('',#525,2.599999999999987);
#527=EDGE_CURVE('',#515,#197,#526,.T.);
#528=ORIENTED_EDGE('',*,*,#527,.T.);
#529=EDGE_LOOP('',(#512,#513,#521,#528));
#530=FACE_OUTER_BOUND('',#529,.T.);
#531=ADVANCED_FACE('',(#530),#511,.T.);
#532=CARTESIAN_POINT('',(1.199041E-014,-1.776563E-015,3.410000000000000));
#533=DIRECTION('',(0.0,0.0,1.0));
#534=DIRECTION('',(1.0,0.0,0.0));
#535=AXIS2_PLACEMENT_3D('',#532,#533,#534);
#536=PLANE('',#535);
#537=ORIENTED_EDGE('',*,*,#411,.F.);
#538=ORIENTED_EDGE('',*,*,#338,.F.);
#539=ORIENTED_EDGE('',*,*,#469,.F.);
#540=ORIENTED_EDGE('',*,*,#271,.F.);
#541=ORIENTED_EDGE('',*,*,#302,.F.);
#542=ORIENTED_EDGE('',*,*,#369,.F.);
#543=EDGE_LOOP('',(#537,#538,#539,#540,#541,#542));
#544=FACE_OUTER_BOUND('',#543,.T.);
#545=ADVANCED_FACE('',(#544),#536,.T.);
#546=CARTESIAN_POINT('',(3.175000000000017,-3.552714E-015,2.410000000000000));
#547=DIRECTION('',(0.0,0.0,1.0));
#548=DIRECTION('',(1.0,0.0,0.0));
#549=AXIS2_PLACEMENT_3D('',#546,#547,#548);
#550=CYLINDRICAL_SURFACE('',#549,2.099999999999998);
#551=ORIENTED_EDGE('',*,*,#162,.T.);
#552=CARTESIAN_POINT('',(3.175000000000017,-2.100000000000001,2.410000000000000));
#553=VERTEX_POINT('',#552);
#554=CARTESIAN_POINT('',(3.175000000000017,-3.552714E-015,2.410000000000000));
#555=DIRECTION('',(0.0,0.0,1.0));
#556=DIRECTION('',(1.0,0.0,0.0));
#557=AXIS2_PLACEMENT_3D('',#554,#555,#556);
#558=CIRCLE('',#557,2.099999999999998);
#559=EDGE_CURVE('',#553,#157,#558,.T.);
#560=ORIENTED_EDGE('',*,*,#559,.F.);
#561=CARTESIAN_POINT('',(3.175000000000017,-2.100000000000001,2.710000000000001));
#562=VERTEX_POINT('',#561);
#563=CARTESIAN_POINT('',(3.175000000000017,-2.100000000000001,2.410000000000000));
#564=DIRECTION('',(0.0,0.0,1.0));
#565=VECTOR('',#564,0.300000000000001);
#566=LINE('',#563,#565);
#567=EDGE_CURVE('',#553,#562,#566,.T.);
#568=ORIENTED_EDGE('',*,*,#567,.T.);
#569=CARTESIAN_POINT('',(3.175000000000017,-3.552714E-015,2.710000000000000));
#570=DIRECTION('',(0.0,0.0,-1.0));
#571=DIRECTION('',(1.0,0.0,0.0));
#572=AXIS2_PLACEMENT_3D('',#569,#570,#571);
#573=CIRCLE('',#572,2.099999999999998);
#574=EDGE_CURVE('',#155,#562,#573,.T.);
#575=ORIENTED_EDGE('',*,*,#574,.F.);
#576=EDGE_LOOP('',(#551,#560,#568,#575));
#577=FACE_OUTER_BOUND('',#576,.T.);
#578=ADVANCED_FACE('',(#577),#550,.F.);
#579=CARTESIAN_POINT('',(3.175000000000017,-2.100000000000001,2.410000000000000));
#580=DIRECTION('',(0.0,-1.0,0.0));
#581=DIRECTION('',(0.0,0.0,-1.0));
#582=AXIS2_PLACEMENT_3D('',#579,#580,#581);
#583=PLANE('',#582);
#584=CARTESIAN_POINT('',(3.175000000000017,-2.100000000000001,2.710000000000001));
#585=DIRECTION('',(-1.0,0.0,0.0));
#586=VECTOR('',#585,6.350000000000021);
#587=LINE('',#584,#586);
#588=EDGE_CURVE('',#562,#123,#587,.T.);
#589=ORIENTED_EDGE('',*,*,#588,.F.);
#590=ORIENTED_EDGE('',*,*,#567,.F.);
#591=CARTESIAN_POINT('',(-3.175000000000004,-2.099999999999987,2.410000000000000));
#592=DIRECTION('',(1.0,0.0,0.0));
#593=VECTOR('',#592,6.350000000000021);
#594=LINE('',#591,#593);
#595=EDGE_CURVE('',#132,#553,#594,.T.);
#596=ORIENTED_EDGE('',*,*,#595,.F.);
#597=ORIENTED_EDGE('',*,*,#137,.T.);
#598=EDGE_LOOP('',(#589,#590,#596,#597));
#599=FACE_OUTER_BOUND('',#598,.T.);
#600=ADVANCED_FACE('',(#599),#583,.F.);
#601=CARTESIAN_POINT('',(-3.175000000000004,0.0,2.410000000000000));
#602=DIRECTION('',(0.0,0.0,1.0));
#603=DIRECTION('',(-1.0,0.0,0.0));
#604=AXIS2_PLACEMENT_3D('',#601,#602,#603);
#605=CYLINDRICAL_SURFACE('',#604,2.099999999999987);
#606=ORIENTED_EDGE('',*,*,#120,.T.);
#607=CARTESIAN_POINT('',(-3.175000000000004,2.099999999999987,2.410000000000000));
#608=VERTEX_POINT('',#607);
#609=CARTESIAN_POINT('',(-3.175000000000004,0.0,2.410000000000000));
#610=DIRECTION('',(0.0,0.0,1.0));
#611=DIRECTION('',(-1.0,0.0,0.0));
#612=AXIS2_PLACEMENT_3D('',#609,#610,#611);
#613=CIRCLE('',#612,2.099999999999987);
#614=EDGE_CURVE('',#608,#115,#613,.T.);
#615=ORIENTED_EDGE('',*,*,#614,.F.);
#616=CARTESIAN_POINT('',(-3.175000000000004,2.099999999999987,2.710000000000001));
#617=VERTEX_POINT('',#616);
#618=CARTESIAN_POINT('',(-3.175000000000004,2.099999999999987,2.410000000000000));
#619=DIRECTION('',(0.0,0.0,1.0));
#620=VECTOR('',#619,0.300000000000001);
#621=LINE('',#618,#620);
#622=EDGE_CURVE('',#608,#617,#621,.T.);
#623=ORIENTED_EDGE('',*,*,#622,.T.);
#624=CARTESIAN_POINT('',(-3.175000000000004,0.0,2.710000000000000));
#625=DIRECTION('',(0.0,0.0,-1.0));
#626=DIRECTION('',(-1.0,0.0,0.0));
#627=AXIS2_PLACEMENT_3D('',#624,#625,#626);
#628=CIRCLE('',#627,2.099999999999987);
#629=EDGE_CURVE('',#113,#617,#628,.T.);
#630=ORIENTED_EDGE('',*,*,#629,.F.);
#631=EDGE_LOOP('',(#606,#615,#623,#630));
#632=FACE_OUTER_BOUND('',#631,.T.);
#633=ADVANCED_FACE('',(#632),#605,.F.);
#634=CARTESIAN_POINT('',(-3.175000000000004,2.099999999999987,2.410000000000000));
#635=DIRECTION('',(0.0,1.0,0.0));
#636=DIRECTION('',(0.0,0.0,1.0));
#637=AXIS2_PLACEMENT_3D('',#634,#635,#636);
#638=PLANE('',#637);
#639=CARTESIAN_POINT('',(-3.175000000000004,2.099999999999987,2.710000000000001));
#640=DIRECTION('',(1.0,0.0,0.0));
#641=VECTOR('',#640,6.350000000000019);
#642=LINE('',#639,#641);
#643=EDGE_CURVE('',#617,#165,#642,.T.);
#644=ORIENTED_EDGE('',*,*,#643,.F.);
#645=ORIENTED_EDGE('',*,*,#622,.F.);
#646=CARTESIAN_POINT('',(3.175000000000015,2.099999999999994,2.410000000000000));
#647=DIRECTION('',(-1.0,0.0,0.0));
#648=VECTOR('',#647,6.350000000000019);
#649=LINE('',#646,#648);
#650=EDGE_CURVE('',#174,#608,#649,.T.);
#651=ORIENTED_EDGE('',*,*,#650,.F.);
#652=ORIENTED_EDGE('',*,*,#179,.T.);
#653=EDGE_LOOP('',(#644,#645,#651,#652));
#654=FACE_OUTER_BOUND('',#653,.T.);
#655=ADVANCED_FACE('',(#654),#638,.F.);
#656=CARTESIAN_POINT('',(1.598721E-014,-3.552714E-015,2.710000000000001));
#657=DIRECTION('',(0.0,0.0,1.0));
#658=DIRECTION('',(1.0,0.0,0.0));
#659=AXIS2_PLACEMENT_3D('',#656,#657,#658);
#660=PLANE('',#659);
#661=ORIENTED_EDGE('',*,*,#171,.T.);
#662=ORIENTED_EDGE('',*,*,#574,.T.);
#663=ORIENTED_EDGE('',*,*,#588,.T.);
#664=ORIENTED_EDGE('',*,*,#129,.T.);
#665=ORIENTED_EDGE('',*,*,#629,.T.);
#666=ORIENTED_EDGE('',*,*,#643,.T.);
#667=EDGE_LOOP('',(#661,#662,#663,#664,#665,#666));
#668=FACE_OUTER_BOUND('',#667,.T.);
#669=ADVANCED_FACE('',(#668),#660,.F.);
#670=CARTESIAN_POINT('',(3.175000000000015,-3.552714E-015,2.410000000000000));
#671=DIRECTION('',(0.0,0.0,1.0));
#672=DIRECTION('',(1.0,0.0,0.0));
#673=AXIS2_PLACEMENT_3D('',#670,#671,#672);
#674=CYLINDRICAL_SURFACE('',#673,2.599999999999998);
#675=ORIENTED_EDGE('',*,*,#78,.T.);
#676=ORIENTED_EDGE('',*,*,#478,.F.);
#677=ORIENTED_EDGE('',*,*,#502,.F.);
#678=CARTESIAN_POINT('',(3.175000000000015,-3.552714E-015,2.410000000000000));
#679=DIRECTION('',(0.0,0.0,1.0));
#680=DIRECTION('',(1.0,0.0,0.0));
#681=AXIS2_PLACEMENT_3D('',#678,#679,#680);
#682=CIRCLE('',#681,2.599999999999998);
#683=EDGE_CURVE('',#491,#71,#682,.T.);
#684=ORIENTED_EDGE('',*,*,#683,.T.);
#685=EDGE_LOOP('',(#675,#676,#677,#684));
#686=FACE_OUTER_BOUND('',#685,.T.);
#687=ADVANCED_FACE('',(#686),#674,.T.);
#688=CARTESIAN_POINT('',(-3.175000000000004,2.599999999999987,2.410000000000000));
#689=DIRECTION('',(0.0,1.0,0.0));
#690=DIRECTION('',(0.0,0.0,1.0));
#691=AXIS2_PLACEMENT_3D('',#688,#689,#690);
#692=PLANE('',#691);
#693=ORIENTED_EDGE('',*,*,#452,.F.);
#694=ORIENTED_EDGE('',*,*,#95,.F.);
#695=CARTESIAN_POINT('',(3.175000000000015,2.599999999999994,2.410000000000000));
#696=DIRECTION('',(-1.0,0.0,0.0));
#697=VECTOR('',#696,6.350000000000019);
#698=LINE('',#695,#697);
#699=EDGE_CURVE('',#81,#515,#698,.T.);
#700=ORIENTED_EDGE('',*,*,#699,.T.);
#701=ORIENTED_EDGE('',*,*,#520,.T.);
#702=EDGE_LOOP('',(#693,#694,#700,#701));
#703=FACE_OUTER_BOUND('',#702,.T.);
#704=ADVANCED_FACE('',(#703),#692,.T.);
#705=CARTESIAN_POINT('',(1.199041E-014,-1.776563E-015,2.410000000000000));
#706=DIRECTION('',(0.0,0.0,1.0));
#707=DIRECTION('',(1.0,0.0,0.0));
#708=AXIS2_PLACEMENT_3D('',#705,#706,#707);
#709=PLANE('',#708);
#710=ORIENTED_EDGE('',*,*,#699,.F.);
#711=ORIENTED_EDGE('',*,*,#87,.F.);
#712=ORIENTED_EDGE('',*,*,#683,.F.);
#713=ORIENTED_EDGE('',*,*,#496,.F.);
#714=ORIENTED_EDGE('',*,*,#213,.F.);
#715=ORIENTED_EDGE('',*,*,#527,.F.);
#716=EDGE_LOOP('',(#710,#711,#712,#713,#714,#715));
#717=FACE_OUTER_BOUND('',#716,.T.);
#718=ORIENTED_EDGE('',*,*,#559,.T.);
#719=ORIENTED_EDGE('',*,*,#186,.T.);
#720=ORIENTED_EDGE('',*,*,#650,.T.);
#721=ORIENTED_EDGE('',*,*,#614,.T.);
#722=ORIENTED_EDGE('',*,*,#144,.T.);
#723=ORIENTED_EDGE('',*,*,#595,.T.);
#724=EDGE_LOOP('',(#718,#719,#720,#721,#722,#723));
#725=FACE_BOUND('',#724,.T.);
#726=ADVANCED_FACE('',(#717,#725),#709,.F.);
#727=CLOSED_SHELL('',(#106,#148,#190,#232,#275,#307,#349,#390,#415,#440,#457,#482,#506,#531,#545,#578,#600,#633,#655,#669,#687,#704,#726));
#728=MANIFOLD_SOLID_BREP('7F0',#727);
#729=COLOUR_RGB('253',0.732000000000000,0.732000000000000,0.732000000000000);
#730=SURFACE_STYLE_USAGE(.BOTH.,#731);
#731=SURFACE_SIDE_STYLE('NONE',(#732));
#732=SURFACE_STYLE_FILL_AREA(#733);
#733=FILL_AREA_STYLE('NONE',(#734));
#734=FILL_AREA_STYLE_COLOUR('NONE',#729);
#735=PRESENTATION_STYLE_ASSIGNMENT((#730));
#736=STYLED_ITEM('NONE',(#735),#728);
#737=MECHANICAL_DESIGN_GEOMETRIC_PRESENTATION_REPRESENTATION('NONE',(#736,#970,#1419,#1508,#1649,#1738,#1879),#28);
#738=PRESENTATION_LAYER_ASSIGNMENT('3D','None',(#728,#962,#1418,#1507,#1648,#1737,#1878));
#739=CARTESIAN_POINT('',(-3.175000000000004,0.0,2.510000000000001));
#740=DIRECTION('',(0.0,0.0,1.0));
#741=DIRECTION('',(-1.0,0.0,0.0));
#742=AXIS2_PLACEMENT_3D('',#739,#740,#741);
#743=CYLINDRICAL_SURFACE('',#742,2.099999999999987);
#744=CARTESIAN_POINT('',(-5.274999999999992,4.792119E-016,2.510000000000001));
#745=VERTEX_POINT('',#744);
#746=CARTESIAN_POINT('',(-5.274999999999992,4.792119E-016,2.710000000000001));
#747=VERTEX_POINT('',#746);
#748=CARTESIAN_POINT('',(-5.274999999999992,4.792119E-016,2.510000000000001));
#749=DIRECTION('',(0.0,0.0,1.0));
#750=VECTOR('',#749,0.200000000000000);
#751=LINE('',#748,#750);
#752=EDGE_CURVE('',#745,#747,#751,.T.);
#753=ORIENTED_EDGE('',*,*,#752,.F.);
#754=CARTESIAN_POINT('',(-3.175000000000004,-2.099999999999987,2.510000000000001));
#755=VERTEX_POINT('',#754);
#756=CARTESIAN_POINT('',(-3.175000000000004,0.0,2.510000000000001));
#757=DIRECTION('',(0.0,0.0,1.0));
#758=DIRECTION('',(-1.0,0.0,0.0));
#759=AXIS2_PLACEMENT_3D('',#756,#757,#758);
#760=CIRCLE('',#759,2.099999999999987);
#761=EDGE_CURVE('',#745,#755,#760,.T.);
#762=ORIENTED_EDGE('',*,*,#761,.T.);
#763=CARTESIAN_POINT('',(-3.175000000000004,-2.099999999999987,2.710000000000001));
#764=VERTEX_POINT('',#763);
#765=CARTESIAN_POINT('',(-3.175000000000004,-2.099999999999987,2.510000000000001));
#766=DIRECTION('',(0.0,0.0,1.0));
#767=VECTOR('',#766,0.200000000000000);
#768=LINE('',#765,#767);
#769=EDGE_CURVE('',#755,#764,#768,.T.);
#770=ORIENTED_EDGE('',*,*,#769,.T.);
#771=CARTESIAN_POINT('',(-3.175000000000004,0.0,2.710000000000001));
#772=DIRECTION('',(0.0,0.0,-1.0));
#773=DIRECTION('',(-1.0,0.0,0.0));
#774=AXIS2_PLACEMENT_3D('',#771,#772,#773);
#775=CIRCLE('',#774,2.099999999999987);
#776=EDGE_CURVE('',#764,#747,#775,.T.);
#777=ORIENTED_EDGE('',*,*,#776,.T.);
#778=EDGE_LOOP('',(#753,#762,#770,#777));
#779=FACE_OUTER_BOUND('',#778,.T.);
#780=ADVANCED_FACE('',(#779),#743,.T.);
#781=CARTESIAN_POINT('',(3.175000000000016,-3.552714E-015,2.510000000000001));
#782=DIRECTION('',(0.0,0.0,1.0));
#783=DIRECTION('',(1.0,0.0,0.0));
#784=AXIS2_PLACEMENT_3D('',#781,#782,#783);
#785=CYLINDRICAL_SURFACE('',#784,2.099999999999998);
#786=CARTESIAN_POINT('',(5.275000000000014,-2.921703E-015,2.510000000000001));
#787=VERTEX_POINT('',#786);
#788=CARTESIAN_POINT('',(5.275000000000014,-2.921703E-015,2.710000000000001));
#789=VERTEX_POINT('',#788);
#790=CARTESIAN_POINT('',(5.275000000000014,-2.921703E-015,2.510000000000001));
#791=DIRECTION('',(0.0,0.0,1.0));
#792=VECTOR('',#791,0.200000000000000);
#793=LINE('',#790,#792);
#794=EDGE_CURVE('',#787,#789,#793,.T.);
#795=ORIENTED_EDGE('',*,*,#794,.F.);
#796=CARTESIAN_POINT('',(3.175000000000015,2.099999999999994,2.510000000000001));
#797=VERTEX_POINT('',#796);
#798=CARTESIAN_POINT('',(3.175000000000016,-3.552714E-015,2.510000000000001));
#799=DIRECTION('',(0.0,0.0,1.0));
#800=DIRECTION('',(1.0,0.0,0.0));
#801=AXIS2_PLACEMENT_3D('',#798,#799,#800);
#802=CIRCLE('',#801,2.099999999999998);
#803=EDGE_CURVE('',#787,#797,#802,.T.);
#804=ORIENTED_EDGE('',*,*,#803,.T.);
#805=CARTESIAN_POINT('',(3.175000000000015,2.099999999999994,2.710000000000001));
#806=VERTEX_POINT('',#805);
#807=CARTESIAN_POINT('',(3.175000000000015,2.099999999999994,2.510000000000001));
#808=DIRECTION('',(0.0,0.0,1.0));
#809=VECTOR('',#808,0.200000000000000);
#810=LINE('',#807,#809);
#811=EDGE_CURVE('',#797,#806,#810,.T.);
#812=ORIENTED_EDGE('',*,*,#811,.T.);
#813=CARTESIAN_POINT('',(3.175000000000016,-3.552714E-015,2.710000000000001));
#814=DIRECTION('',(0.0,0.0,-1.0));
#815=DIRECTION('',(1.0,0.0,0.0));
#816=AXIS2_PLACEMENT_3D('',#813,#814,#815);
#817=CIRCLE('',#816,2.099999999999998);
#818=EDGE_CURVE('',#806,#789,#817,.T.);
#819=ORIENTED_EDGE('',*,*,#818,.T.);
#820=EDGE_LOOP('',(#795,#804,#812,#819));
#821=FACE_OUTER_BOUND('',#820,.T.);
#822=ADVANCED_FACE('',(#821),#785,.T.);
#823=CARTESIAN_POINT('',(3.175000000000016,-3.552714E-015,2.510000000000001));
#824=DIRECTION('',(0.0,0.0,1.0));
#825=DIRECTION('',(1.0,0.0,0.0));
#826=AXIS2_PLACEMENT_3D('',#823,#824,#825);
#827=CYLINDRICAL_SURFACE('',#826,2.099999999999998);
#828=ORIENTED_EDGE('',*,*,#794,.T.);
#829=CARTESIAN_POINT('',(3.175000000000017,-2.100000000000001,2.710000000000001));
#830=VERTEX_POINT('',#829);
#831=CARTESIAN_POINT('',(3.175000000000016,-3.552714E-015,2.710000000000001));
#832=DIRECTION('',(0.0,0.0,-1.0));
#833=DIRECTION('',(1.0,0.0,0.0));
#834=AXIS2_PLACEMENT_3D('',#831,#832,#833);
#835=CIRCLE('',#834,2.099999999999998);
#836=EDGE_CURVE('',#789,#830,#835,.T.);
#837=ORIENTED_EDGE('',*,*,#836,.T.);
#838=CARTESIAN_POINT('',(3.175000000000017,-2.100000000000001,2.510000000000001));
#839=VERTEX_POINT('',#838);
#840=CARTESIAN_POINT('',(3.175000000000017,-2.100000000000001,2.510000000000001));
#841=DIRECTION('',(0.0,0.0,1.0));
#842=VECTOR('',#841,0.200000000000000);
#843=LINE('',#840,#842);
#844=EDGE_CURVE('',#839,#830,#843,.T.);
#845=ORIENTED_EDGE('',*,*,#844,.F.);
#846=CARTESIAN_POINT('',(3.175000000000016,-3.552714E-015,2.510000000000001));
#847=DIRECTION('',(0.0,0.0,1.0));
#848=DIRECTION('',(1.0,0.0,0.0));
#849=AXIS2_PLACEMENT_3D('',#846,#847,#848);
#850=CIRCLE('',#849,2.099999999999998);
#851=EDGE_CURVE('',#839,#787,#850,.T.);
#852=ORIENTED_EDGE('',*,*,#851,.T.);
#853=EDGE_LOOP('',(#828,#837,#845,#852));
#854=FACE_OUTER_BOUND('',#853,.T.);
#855=ADVANCED_FACE('',(#854),#827,.T.);
#856=CARTESIAN_POINT('',(3.175000000000017,-2.100000000000001,2.510000000000001));
#857=DIRECTION('',(0.0,-1.0,0.0));
#858=DIRECTION('',(0.0,0.0,-1.0));
#859=AXIS2_PLACEMENT_3D('',#856,#857,#858);
#860=PLANE('',#859);
#861=CARTESIAN_POINT('',(3.175000000000017,-2.100000000000001,2.710000000000001));
#862=DIRECTION('',(-1.0,0.0,0.0));
#863=VECTOR('',#862,6.350000000000021);
#864=LINE('',#861,#863);
#865=EDGE_CURVE('',#830,#764,#864,.T.);
#866=ORIENTED_EDGE('',*,*,#865,.T.);
#867=ORIENTED_EDGE('',*,*,#769,.F.);
#868=CARTESIAN_POINT('',(-3.175000000000004,-2.099999999999987,2.510000000000001));
#869=DIRECTION('',(1.0,0.0,0.0));
#870=VECTOR('',#869,6.350000000000021);
#871=LINE('',#868,#870);
#872=EDGE_CURVE('',#755,#839,#871,.T.);
#873=ORIENTED_EDGE('',*,*,#872,.T.);
#874=ORIENTED_EDGE('',*,*,#844,.T.);
#875=EDGE_LOOP('',(#866,#867,#873,#874));
#876=FACE_OUTER_BOUND('',#875,.T.);
#877=ADVANCED_FACE('',(#876),#860,.T.);
#878=CARTESIAN_POINT('',(-3.175000000000004,0.0,2.510000000000001));
#879=DIRECTION('',(0.0,0.0,1.0));
#880=DIRECTION('',(-1.0,0.0,0.0));
#881=AXIS2_PLACEMENT_3D('',#878,#879,#880);
#882=CYLINDRICAL_SURFACE('',#881,2.099999999999987);
#883=ORIENTED_EDGE('',*,*,#752,.T.);
#884=CARTESIAN_POINT('',(-3.175000000000003,2.099999999999987,2.710000000000001));
#885=VERTEX_POINT('',#884);
#886=CARTESIAN_POINT('',(-3.175000000000004,0.0,2.710000000000001));
#887=DIRECTION('',(0.0,0.0,-1.0));
#888=DIRECTION('',(-1.0,0.0,0.0));
#889=AXIS2_PLACEMENT_3D('',#886,#887,#888);
#890=CIRCLE('',#889,2.099999999999987);
#891=EDGE_CURVE('',#747,#885,#890,.T.);
#892=ORIENTED_EDGE('',*,*,#891,.T.);
#893=CARTESIAN_POINT('',(-3.175000000000003,2.099999999999987,2.510000000000001));
#894=VERTEX_POINT('',#893);
#895=CARTESIAN_POINT('',(-3.175000000000003,2.099999999999987,2.510000000000001));
#896=DIRECTION('',(0.0,0.0,1.0));
#897=VECTOR('',#896,0.200000000000000);
#898=LINE('',#895,#897);
#899=EDGE_CURVE('',#894,#885,#898,.T.);
#900=ORIENTED_EDGE('',*,*,#899,.F.);
#901=CARTESIAN_POINT('',(-3.175000000000004,0.0,2.510000000000001));
#902=DIRECTION('',(0.0,0.0,1.0));
#903=DIRECTION('',(-1.0,0.0,0.0));
#904=AXIS2_PLACEMENT_3D('',#901,#902,#903);
#905=CIRCLE('',#904,2.099999999999987);
#906=EDGE_CURVE('',#894,#745,#905,.T.);
#907=ORIENTED_EDGE('',*,*,#906,.T.);
#908=EDGE_LOOP('',(#883,#892,#900,#907));
#909=FACE_OUTER_BOUND('',#908,.T.);
#910=ADVANCED_FACE('',(#909),#882,.T.);
#911=CARTESIAN_POINT('',(-3.175000000000003,2.099999999999987,2.510000000000001));
#912=DIRECTION('',(0.0,1.0,0.0));
#913=DIRECTION('',(0.0,0.0,1.0));
#914=AXIS2_PLACEMENT_3D('',#911,#912,#913);
#915=PLANE('',#914);
#916=CARTESIAN_POINT('',(-3.175000000000003,2.099999999999987,2.710000000000001));
#917=DIRECTION('',(1.0,0.0,0.0));
#918=VECTOR('',#917,6.350000000000018);
#919=LINE('',#916,#918);
#920=EDGE_CURVE('',#885,#806,#919,.T.);
#921=ORIENTED_EDGE('',*,*,#920,.T.);
#922=ORIENTED_EDGE('',*,*,#811,.F.);
#923=CARTESIAN_POINT('',(3.175000000000015,2.099999999999994,2.510000000000001));
#924=DIRECTION('',(-1.0,0.0,0.0));
#925=VECTOR('',#924,6.350000000000018);
#926=LINE('',#923,#925);
#927=EDGE_CURVE('',#797,#894,#926,.T.);
#928=ORIENTED_EDGE('',*,*,#927,.T.);
#929=ORIENTED_EDGE('',*,*,#899,.T.);
#930=EDGE_LOOP('',(#921,#922,#928,#929));
#931=FACE_OUTER_BOUND('',#930,.T.);
#932=ADVANCED_FACE('',(#931),#915,.T.);
#933=CARTESIAN_POINT('',(1.287859E-014,-1.776357E-015,2.710000000000001));
#934=DIRECTION('',(0.0,0.0,1.0));
#935=DIRECTION('',(1.0,0.0,0.0));
#936=AXIS2_PLACEMENT_3D('',#933,#934,#935);
#937=PLANE('',#936);
#938=ORIENTED_EDGE('',*,*,#818,.F.);
#939=ORIENTED_EDGE('',*,*,#920,.F.);
#940=ORIENTED_EDGE('',*,*,#891,.F.);
#941=ORIENTED_EDGE('',*,*,#776,.F.);
#942=ORIENTED_EDGE('',*,*,#865,.F.);
#943=ORIENTED_EDGE('',*,*,#836,.F.);
#944=EDGE_LOOP('',(#938,#939,#940,#941,#942,#943));
#945=FACE_OUTER_BOUND('',#944,.T.);
#946=ADVANCED_FACE('',(#945),#937,.T.);
#947=CARTESIAN_POINT('',(1.287859E-014,-1.776357E-015,2.510000000000001));
#948=DIRECTION('',(0.0,0.0,1.0));
#949=DIRECTION('',(1.0,0.0,0.0));
#950=AXIS2_PLACEMENT_3D('',#947,#948,#949);
#951=PLANE('',#950);
#952=ORIENTED_EDGE('',*,*,#927,.F.);
#953=ORIENTED_EDGE('',*,*,#803,.F.);
#954=ORIENTED_EDGE('',*,*,#851,.F.);
#955=ORIENTED_EDGE('',*,*,#872,.F.);
#956=ORIENTED_EDGE('',*,*,#761,.F.);
#957=ORIENTED_EDGE('',*,*,#906,.F.);
#958=EDGE_LOOP('',(#952,#953,#954,#955,#956,#957));
#959=FACE_OUTER_BOUND('',#958,.T.);
#960=ADVANCED_FACE('',(#959),#951,.F.);
#961=CLOSED_SHELL('',(#780,#822,#855,#877,#910,#932,#946,#960));
#962=MANIFOLD_SOLID_BREP('7EC',#961);
#963=COLOUR_RGB('250',0.330000000000000,0.330000000000000,0.330000000000000);
#964=SURFACE_STYLE_USAGE(.BOTH.,#965);
#965=SURFACE_SIDE_STYLE('NONE',(#966));
#966=SURFACE_STYLE_FILL_AREA(#967);
#967=FILL_AREA_STYLE('NONE',(#968));
#968=FILL_AREA_STYLE_COLOUR('NONE',#963);
#969=PRESENTATION_STYLE_ASSIGNMENT((#964));
#970=STYLED_ITEM('NONE',(#969),#962);
#971=CARTESIAN_POINT('',(-3.175000000000004,2.220446E-016,3.410000000000000));
#972=DIRECTION('',(0.0,0.0,1.0));
#973=DIRECTION('',(-1.0,0.0,0.0));
#974=AXIS2_PLACEMENT_3D('',#971,#972,#973);
#975=CYLINDRICAL_SURFACE('',#974,2.099999999999987);
#976=CARTESIAN_POINT('',(-5.274999999999992,4.792119E-016,3.410000000000000));
#977=VERTEX_POINT('',#976);
#978=CARTESIAN_POINT('',(-5.274999999999992,-3.512273E-017,13.640000000000001));
#979=VERTEX_POINT('',#978);
#980=CARTESIAN_POINT('',(-5.274999999999992,4.792119E-016,3.410000000000000));
#981=DIRECTION('',(0.0,0.0,1.0));
#982=VECTOR('',#981,10.230000000000000);
#983=LINE('',#980,#982);
#984=EDGE_CURVE('',#977,#979,#983,.T.);
#985=ORIENTED_EDGE('',*,*,#984,.F.);
#986=CARTESIAN_POINT('',(-3.175000000000004,-2.099999999999987,3.410000000000000));
#987=VERTEX_POINT('',#986);
#988=CARTESIAN_POINT('',(-3.175000000000004,2.220446E-016,3.410000000000000));
#989=DIRECTION('',(0.0,0.0,1.0));
#990=DIRECTION('',(-1.0,0.0,0.0));
#991=AXIS2_PLACEMENT_3D('',#988,#989,#990);
#992=CIRCLE('',#991,2.099999999999987);
#993=EDGE_CURVE('',#977,#987,#992,.T.);
#994=ORIENTED_EDGE('',*,*,#993,.T.);
#995=CARTESIAN_POINT('',(-3.175000000000004,-2.099999999999987,13.640000000000001));
#996=VERTEX_POINT('',#995);
#997=CARTESIAN_POINT('',(-3.175000000000004,-2.099999999999987,3.410000000000000));
#998=DIRECTION('',(0.0,0.0,1.0));
#999=VECTOR('',#998,10.230000000000000);
#1000=LINE('',#997,#999);
#1001=EDGE_CURVE('',#987,#996,#1000,.T.);
#1002=ORIENTED_EDGE('',*,*,#1001,.T.);
#1003=CARTESIAN_POINT('',(-3.175000000000004,2.220446E-016,13.640000000000001));
#1004=DIRECTION('',(0.0,0.0,1.0));
#1005=DIRECTION('',(-1.0,0.0,0.0));
#1006=AXIS2_PLACEMENT_3D('',#1003,#1004,#1005);
#1007=CIRCLE('',#1006,2.099999999999987);
#1008=EDGE_CURVE('',#979,#996,#1007,.T.);
#1009=ORIENTED_EDGE('',*,*,#1008,.F.);
#1010=EDGE_LOOP('',(#985,#994,#1002,#1009));
#1011=FACE_OUTER_BOUND('',#1010,.T.);
#1012=ADVANCED_FACE('',(#1011),#975,.T.);
#1013=CARTESIAN_POINT('',(3.175000000000015,-3.330669E-015,3.410000000000000));
#1014=DIRECTION('',(0.0,0.0,1.0));
#1015=DIRECTION('',(1.0,0.0,0.0));
#1016=AXIS2_PLACEMENT_3D('',#1013,#1014,#1015);
#1017=CYLINDRICAL_SURFACE('',#1016,2.099999999999998);
#1018=CARTESIAN_POINT('',(5.275000000000013,-3.587836E-015,3.410000000000000));
#1019=VERTEX_POINT('',#1018);
#1020=CARTESIAN_POINT('',(5.275000000000013,-3.073502E-015,13.640000000000001));
#1021=VERTEX_POINT('',#1020);
#1022=CARTESIAN_POINT('',(5.275000000000013,-3.587836E-015,3.410000000000000));
#1023=DIRECTION('',(0.0,0.0,1.0));
#1024=VECTOR('',#1023,10.230000000000000);
#1025=LINE('',#1022,#1024);
#1026=EDGE_CURVE('',#1019,#1021,#1025,.T.);
#1027=ORIENTED_EDGE('',*,*,#1026,.F.);
#1028=CARTESIAN_POINT('',(3.175000000000015,2.099999999999994,3.410000000000000));
#1029=VERTEX_POINT('',#1028);
#1030=CARTESIAN_POINT('',(3.175000000000015,-3.330669E-015,3.410000000000000));
#1031=DIRECTION('',(0.0,0.0,1.0));
#1032=DIRECTION('',(1.0,0.0,0.0));
#1033=AXIS2_PLACEMENT_3D('',#1030,#1031,#1032);
#1034=CIRCLE('',#1033,2.099999999999998);
#1035=EDGE_CURVE('',#1019,#1029,#1034,.T.);
#1036=ORIENTED_EDGE('',*,*,#1035,.T.);
#1037=CARTESIAN_POINT('',(3.175000000000015,2.099999999999994,13.640000000000001));
#1038=VERTEX_POINT('',#1037);
#1039=CARTESIAN_POINT('',(3.175000000000015,2.099999999999994,3.410000000000000));
#1040=DIRECTION('',(0.0,0.0,1.0));
#1041=VECTOR('',#1040,10.230000000000000);
#1042=LINE('',#1039,#1041);
#1043=EDGE_CURVE('',#1029,#1038,#1042,.T.);
#1044=ORIENTED_EDGE('',*,*,#1043,.T.);
#1045=CARTESIAN_POINT('',(3.175000000000015,-3.330669E-015,13.640000000000001));
#1046=DIRECTION('',(0.0,0.0,1.0));
#1047=DIRECTION('',(1.0,0.0,0.0));
#1048=AXIS2_PLACEMENT_3D('',#1045,#1046,#1047);
#1049=CIRCLE('',#1048,2.099999999999998);
#1050=EDGE_CURVE('',#1021,#1038,#1049,.T.);
#1051=ORIENTED_EDGE('',*,*,#1050,.F.);
#1052=EDGE_LOOP('',(#1027,#1036,#1044,#1051));
#1053=FACE_OUTER_BOUND('',#1052,.T.);
#1054=ADVANCED_FACE('',(#1053),#1017,.T.);
#1055=CARTESIAN_POINT('',(-1.587499999999997,1.899999999999989,13.640000000000001));
#1056=DIRECTION('',(1.0,1.118965E-015,6.537767E-033));
#1057=DIRECTION('',(0.0,0.707106781186548,0.707106781186547));
#1058=AXIS2_PLACEMENT_3D('',#1055,#1056,#1057);
#1059=CYLINDRICAL_SURFACE('',#1058,0.200000000000000);
#1060=CARTESIAN_POINT('',(-3.175000000000005,2.041421356237297,13.781421356237310));
#1061=VERTEX_POINT('',#1060);
#1062=CARTESIAN_POINT('',(3.175000000000015,2.041421356237304,13.781421356237310));
#1063=VERTEX_POINT('',#1062);
#1064=CARTESIAN_POINT('',(-3.175000000000005,2.041421356237297,13.781421356237310));
#1065=DIRECTION('',(1.0,0.0,0.0));
#1066=VECTOR('',#1065,6.350000000000019);
#1067=LINE('',#1064,#1066);
#1068=EDGE_CURVE('',#1061,#1063,#1067,.T.);
#1069=ORIENTED_EDGE('',*,*,#1068,.F.);
#1070=CARTESIAN_POINT('',(-3.175000000000004,1.899999999999988,13.840000000000000));
#1071=VERTEX_POINT('',#1070);
#1072=CARTESIAN_POINT('',(-3.175000000000004,1.899999999999988,13.640000000000001));
#1073=DIRECTION('',(-1.0,0.0,0.0));
#1074=DIRECTION('',(0.0,0.0,1.0));
#1075=AXIS2_PLACEMENT_3D('',#1072,#1073,#1074);
#1076=CIRCLE('',#1075,0.199999999999999);
#1077=EDGE_CURVE('',#1071,#1061,#1076,.T.);
#1078=ORIENTED_EDGE('',*,*,#1077,.F.);
#1079=CARTESIAN_POINT('',(3.175000000000015,1.899999999999995,13.840000000000000));
#1080=VERTEX_POINT('',#1079);
#1081=CARTESIAN_POINT('',(-3.175000000000004,1.899999999999988,13.840000000000000));
#1082=DIRECTION('',(1.0,0.0,0.0));
#1083=VECTOR('',#1082,6.350000000000018);
#1084=LINE('',#1081,#1083);
#1085=EDGE_CURVE('',#1071,#1080,#1084,.T.);
#1086=ORIENTED_EDGE('',*,*,#1085,.T.);
#1087=CARTESIAN_POINT('',(3.175000000000015,1.899999999999995,13.640000000000001));
#1088=DIRECTION('',(1.0,0.0,0.0));
#1089=DIRECTION('',(0.0,1.0,0.0));
#1090=AXIS2_PLACEMENT_3D('',#1087,#1088,#1089);
#1091=CIRCLE('',#1090,0.200000000000000);
#1092=EDGE_CURVE('',#1063,#1080,#1091,.T.);
#1093=ORIENTED_EDGE('',*,*,#1092,.F.);
#1094=EDGE_LOOP('',(#1069,#1078,#1086,#1093));
#1095=FACE_OUTER_BOUND('',#1094,.T.);
#1096=ADVANCED_FACE('',(#1095),#1059,.T.);
#1097=CARTESIAN_POINT('',(-3.175000000000004,2.220446E-016,13.640000000000001));
#1098=DIRECTION('',(6.537767E-033,-4.770134E-032,-1.0));
#1099=DIRECTION('',(-1.0,0.0,0.0));
#1100=AXIS2_PLACEMENT_3D('',#1097,#1098,#1099);
#1101=TOROIDAL_SURFACE('',#1100,1.899999999999987,0.200000000000000);
#1102=CARTESIAN_POINT('',(-5.074999999999991,-1.063060E-017,13.840000000000000));
#1103=VERTEX_POINT('',#1102);
#1104=CARTESIAN_POINT('',(-5.074999999999991,-1.063060E-017,13.640000000000001));
#1105=DIRECTION('',(0.0,-1.0,0.0));
#1106=DIRECTION('',(-1.0,0.0,0.0));
#1107=AXIS2_PLACEMENT_3D('',#1104,#1105,#1106);
#1108=CIRCLE('',#1107,0.200000000000000);
#1109=EDGE_CURVE('',#1103,#979,#1108,.T.);
#1110=ORIENTED_EDGE('',*,*,#1109,.F.);
#1111=CARTESIAN_POINT('',(-3.175000000000004,2.220446E-016,13.840000000000000));
#1112=DIRECTION('',(0.0,0.0,-1.0));
#1113=DIRECTION('',(-1.0,0.0,0.0));
#1114=AXIS2_PLACEMENT_3D('',#1111,#1112,#1113);
#1115=CIRCLE('',#1114,1.899999999999987);
#1116=EDGE_CURVE('',#1103,#1071,#1115,.T.);
#1117=ORIENTED_EDGE('',*,*,#1116,.T.);
#1118=ORIENTED_EDGE('',*,*,#1077,.T.);
#1119=CARTESIAN_POINT('',(-3.175000000000004,2.099999999999987,13.640000000000001));
#1120=VERTEX_POINT('',#1119);
#1121=CARTESIAN_POINT('',(-3.175000000000004,1.899999999999988,13.640000000000001));
#1122=DIRECTION('',(-1.0,0.0,0.0));
#1123=DIRECTION('',(0.0,0.0,1.0));
#1124=AXIS2_PLACEMENT_3D('',#1121,#1122,#1123);
#1125=CIRCLE('',#1124,0.199999999999999);
#1126=EDGE_CURVE('',#1061,#1120,#1125,.T.);
#1127=ORIENTED_EDGE('',*,*,#1126,.T.);
#1128=CARTESIAN_POINT('',(-3.175000000000004,2.220446E-016,13.640000000000001));
#1129=DIRECTION('',(0.0,0.0,1.0));
#1130=DIRECTION('',(-1.0,0.0,0.0));
#1131=AXIS2_PLACEMENT_3D('',#1128,#1129,#1130);
#1132=CIRCLE('',#1131,2.099999999999987);
#1133=EDGE_CURVE('',#1120,#979,#1132,.T.);
#1134=ORIENTED_EDGE('',*,*,#1133,.T.);
#1135=EDGE_LOOP('',(#1110,#1117,#1118,#1127,#1134));
#1136=FACE_OUTER_BOUND('',#1135,.T.);
#1137=ADVANCED_FACE('',(#1136),#1101,.T.);
#1138=CARTESIAN_POINT('',(3.175000000000015,-3.330669E-015,13.640000000000001));
#1139=DIRECTION('',(6.537767E-033,-4.770134E-032,-1.0));
#1140=DIRECTION('',(-1.0,0.0,0.0));
#1141=AXIS2_PLACEMENT_3D('',#1138,#1139,#1140);
#1142=TOROIDAL_SURFACE('',#1141,1.899999999999998,0.200000000000000);
#1143=CARTESIAN_POINT('',(5.075000000000013,-3.097994E-015,13.840000000000000));
#1144=VERTEX_POINT('',#1143);
#1145=CARTESIAN_POINT('',(5.075000000000013,-3.097994E-015,13.640000000000001));
#1146=DIRECTION('',(0.0,-1.0,0.0));
#1147=DIRECTION('',(1.0,0.0,0.0));
#1148=AXIS2_PLACEMENT_3D('',#1145,#1146,#1147);
#1149=CIRCLE('',#1148,0.200000000000000);
#1150=EDGE_CURVE('',#1021,#1144,#1149,.T.);
#1151=ORIENTED_EDGE('',*,*,#1150,.F.);
#1152=ORIENTED_EDGE('',*,*,#1050,.T.);
#1153=CARTESIAN_POINT('',(3.175000000000015,1.899999999999995,13.640000000000001));
#1154=DIRECTION('',(1.0,0.0,0.0));
#1155=DIRECTION('',(0.0,1.0,0.0));
#1156=AXIS2_PLACEMENT_3D('',#1153,#1154,#1155);
#1157=CIRCLE('',#1156,0.200000000000000);
#1158=EDGE_CURVE('',#1038,#1063,#1157,.T.);
#1159=ORIENTED_EDGE('',*,*,#1158,.T.);
#1160=ORIENTED_EDGE('',*,*,#1092,.T.);
#1161=CARTESIAN_POINT('',(3.175000000000015,-3.330669E-015,13.840000000000000));
#1162=DIRECTION('',(0.0,0.0,-1.0));
#1163=DIRECTION('',(1.0,0.0,0.0));
#1164=AXIS2_PLACEMENT_3D('',#1161,#1162,#1163);
#1165=CIRCLE('',#1164,1.899999999999998);
#1166=EDGE_CURVE('',#1080,#1144,#1165,.T.);
#1167=ORIENTED_EDGE('',*,*,#1166,.T.);
#1168=EDGE_LOOP('',(#1151,#1152,#1159,#1160,#1167));
#1169=FACE_OUTER_BOUND('',#1168,.T.);
#1170=ADVANCED_FACE('',(#1169),#1142,.T.);
#1171=CARTESIAN_POINT('',(1.587500000000012,-1.899999999999998,13.640000000000001));
#1172=DIRECTION('',(-1.0,2.237930E-015,-6.537767E-033));
#1173=DIRECTION('',(-1.570092E-015,-0.707106781186548,0.707106781186547));
#1174=AXIS2_PLACEMENT_3D('',#1171,#1172,#1173);
#1175=CYLINDRICAL_SURFACE('',#1174,0.200000000000000);
#1176=CARTESIAN_POINT('',(3.175000000000015,-2.041421356237311,13.781421356237310));
#1177=VERTEX_POINT('',#1176);
#1178=CARTESIAN_POINT('',(-3.175000000000004,-2.041421356237296,13.781421356237310));
#1179=VERTEX_POINT('',#1178);
#1180=CARTESIAN_POINT('',(3.175000000000015,-2.041421356237311,13.781421356237310));
#1181=DIRECTION('',(-1.0,0.0,0.0));
#1182=VECTOR('',#1181,6.350000000000019);
#1183=LINE('',#1180,#1182);
#1184=EDGE_CURVE('',#1177,#1179,#1183,.T.);
#1185=ORIENTED_EDGE('',*,*,#1184,.F.);
#1186=CARTESIAN_POINT('',(3.175000000000015,-1.900000000000002,13.840000000000000));
#1187=VERTEX_POINT('',#1186);
#1188=CARTESIAN_POINT('',(3.175000000000015,-1.900000000000002,13.640000000000001));
#1189=DIRECTION('',(-1.0,0.0,0.0));
#1190=DIRECTION('',(0.0,-1.0,0.0));
#1191=AXIS2_PLACEMENT_3D('',#1188,#1189,#1190);
#1192=CIRCLE('',#1191,0.200000000000000);
#1193=EDGE_CURVE('',#1177,#1187,#1192,.T.);
#1194=ORIENTED_EDGE('',*,*,#1193,.T.);
#1195=CARTESIAN_POINT('',(-3.175000000000003,-1.899999999999987,13.840000000000000));
#1196=VERTEX_POINT('',#1195);
#1197=CARTESIAN_POINT('',(3.175000000000015,-1.900000000000002,13.840000000000000));
#1198=DIRECTION('',(-1.0,0.0,0.0));
#1199=VECTOR('',#1198,6.350000000000019);
#1200=LINE('',#1197,#1199);
#1201=EDGE_CURVE('',#1187,#1196,#1200,.T.);
#1202=ORIENTED_EDGE('',*,*,#1201,.T.);
#1203=CARTESIAN_POINT('',(-3.175000000000003,-1.899999999999987,13.640000000000001));
#1204=DIRECTION('',(1.0,0.0,0.0));
#1205=DIRECTION('',(0.0,0.0,1.0));
#1206=AXIS2_PLACEMENT_3D('',#1203,#1204,#1205);
#1207=CIRCLE('',#1206,0.199999999999999);
#1208=EDGE_CURVE('',#1196,#1179,#1207,.T.);
#1209=ORIENTED_EDGE('',*,*,#1208,.T.);
#1210=EDGE_LOOP('',(#1185,#1194,#1202,#1209));
#1211=FACE_OUTER_BOUND('',#1210,.T.);
#1212=ADVANCED_FACE('',(#1211),#1175,.T.);
#1213=CARTESIAN_POINT('',(1.587500000000012,-1.899999999999998,13.640000000000001));
#1214=DIRECTION('',(-1.0,2.237930E-015,-6.537767E-033));
#1215=DIRECTION('',(-1.570092E-015,-0.707106781186548,0.707106781186547));
#1216=AXIS2_PLACEMENT_3D('',#1213,#1214,#1215);
#1217=CYLINDRICAL_SURFACE('',#1216,0.200000000000000);
#1218=ORIENTED_EDGE('',*,*,#1184,.T.);
#1219=CARTESIAN_POINT('',(-3.175000000000003,-1.899999999999987,13.640000000000001));
#1220=DIRECTION('',(1.0,0.0,0.0));
#1221=DIRECTION('',(0.0,0.0,1.0));
#1222=AXIS2_PLACEMENT_3D('',#1219,#1220,#1221);
#1223=CIRCLE('',#1222,0.199999999999999);
#1224=EDGE_CURVE('',#1179,#996,#1223,.T.);
#1225=ORIENTED_EDGE('',*,*,#1224,.T.);
#1226=CARTESIAN_POINT('',(3.175000000000015,-2.100000000000001,13.640000000000001));
#1227=VERTEX_POINT('',#1226);
#1228=CARTESIAN_POINT('',(-3.175000000000004,-2.099999999999987,13.640000000000001));
#1229=DIRECTION('',(1.0,0.0,0.0));
#1230=VECTOR('',#1229,6.350000000000019);
#1231=LINE('',#1228,#1230);
#1232=EDGE_CURVE('',#996,#1227,#1231,.T.);
#1233=ORIENTED_EDGE('',*,*,#1232,.T.);
#1234=CARTESIAN_POINT('',(3.175000000000015,-1.900000000000002,13.640000000000001));
#1235=DIRECTION('',(-1.0,0.0,0.0));
#1236=DIRECTION('',(0.0,-1.0,0.0));
#1237=AXIS2_PLACEMENT_3D('',#1234,#1235,#1236);
#1238=CIRCLE('',#1237,0.200000000000000);
#1239=EDGE_CURVE('',#1227,#1177,#1238,.T.);
#1240=ORIENTED_EDGE('',*,*,#1239,.T.);
#1241=EDGE_LOOP('',(#1218,#1225,#1233,#1240));
#1242=FACE_OUTER_BOUND('',#1241,.T.);
#1243=ADVANCED_FACE('',(#1242),#1217,.T.);
#1244=CARTESIAN_POINT('',(3.175000000000015,-3.330669E-015,13.640000000000001));
#1245=DIRECTION('',(6.537767E-033,-4.770134E-032,-1.0));
#1246=DIRECTION('',(-1.0,0.0,0.0));
#1247=AXIS2_PLACEMENT_3D('',#1244,#1245,#1246);
#1248=TOROIDAL_SURFACE('',#1247,1.899999999999998,0.200000000000000);
#1249=ORIENTED_EDGE('',*,*,#1150,.T.);
#1250=CARTESIAN_POINT('',(3.175000000000015,-3.330669E-015,13.840000000000000));
#1251=DIRECTION('',(0.0,0.0,-1.0));
#1252=DIRECTION('',(1.0,0.0,0.0));
#1253=AXIS2_PLACEMENT_3D('',#1250,#1251,#1252);
#1254=CIRCLE('',#1253,1.899999999999998);
#1255=EDGE_CURVE('',#1144,#1187,#1254,.T.);
#1256=ORIENTED_EDGE('',*,*,#1255,.T.);
#1257=ORIENTED_EDGE('',*,*,#1193,.F.);
#1258=ORIENTED_EDGE('',*,*,#1239,.F.);
#1259=CARTESIAN_POINT('',(3.175000000000015,-3.330669E-015,13.640000000000001));
#1260=DIRECTION('',(0.0,0.0,1.0));
#1261=DIRECTION('',(1.0,0.0,0.0));
#1262=AXIS2_PLACEMENT_3D('',#1259,#1260,#1261);
#1263=CIRCLE('',#1262,2.099999999999998);
#1264=EDGE_CURVE('',#1227,#1021,#1263,.T.);
#1265=ORIENTED_EDGE('',*,*,#1264,.T.);
#1266=EDGE_LOOP('',(#1249,#1256,#1257,#1258,#1265));
#1267=FACE_OUTER_BOUND('',#1266,.T.);
#1268=ADVANCED_FACE('',(#1267),#1248,.T.);
#1269=CARTESIAN_POINT('',(-3.175000000000004,2.220446E-016,13.640000000000001));
#1270=DIRECTION('',(6.537767E-033,-4.770134E-032,-1.0));
#1271=DIRECTION('',(-1.0,0.0,0.0));
#1272=AXIS2_PLACEMENT_3D('',#1269,#1270,#1271);
#1273=TOROIDAL_SURFACE('',#1272,1.899999999999987,0.200000000000000);
#1274=ORIENTED_EDGE('',*,*,#1109,.T.);
#1275=ORIENTED_EDGE('',*,*,#1008,.T.);
#1276=ORIENTED_EDGE('',*,*,#1224,.F.);
#1277=ORIENTED_EDGE('',*,*,#1208,.F.);
#1278=CARTESIAN_POINT('',(-3.175000000000004,2.220446E-016,13.840000000000000));
#1279=DIRECTION('',(0.0,0.0,-1.0));
#1280=DIRECTION('',(-1.0,0.0,0.0));
#1281=AXIS2_PLACEMENT_3D('',#1278,#1279,#1280);
#1282=CIRCLE('',#1281,1.899999999999987);
#1283=EDGE_CURVE('',#1196,#1103,#1282,.T.);
#1284=ORIENTED_EDGE('',*,*,#1283,.T.);
#1285=EDGE_LOOP('',(#1274,#1275,#1276,#1277,#1284));
#1286=FACE_OUTER_BOUND('',#1285,.T.);
#1287=ADVANCED_FACE('',(#1286),#1273,.T.);
#1288=CARTESIAN_POINT('',(-1.587499999999997,1.899999999999989,13.640000000000001));
#1289=DIRECTION('',(1.0,1.118965E-015,6.537767E-033));
#1290=DIRECTION('',(0.0,0.707106781186548,0.707106781186547));
#1291=AXIS2_PLACEMENT_3D('',#1288,#1289,#1290);
#1292=CYLINDRICAL_SURFACE('',#1291,0.200000000000000);
#1293=ORIENTED_EDGE('',*,*,#1068,.T.);
#1294=ORIENTED_EDGE('',*,*,#1158,.F.);
#1295=CARTESIAN_POINT('',(3.175000000000015,2.099999999999994,13.640000000000001));
#1296=DIRECTION('',(-1.0,0.0,0.0));
#1297=VECTOR('',#1296,6.350000000000019);
#1298=LINE('',#1295,#1297);
#1299=EDGE_CURVE('',#1038,#1120,#1298,.T.);
#1300=ORIENTED_EDGE('',*,*,#1299,.T.);
#1301=ORIENTED_EDGE('',*,*,#1126,.F.);
#1302=EDGE_LOOP('',(#1293,#1294,#1300,#1301));
#1303=FACE_OUTER_BOUND('',#1302,.T.);
#1304=ADVANCED_FACE('',(#1303),#1292,.T.);
#1305=CARTESIAN_POINT('',(3.175000000000015,-3.330669E-015,3.410000000000000));
#1306=DIRECTION('',(0.0,0.0,1.0));
#1307=DIRECTION('',(1.0,0.0,0.0));
#1308=AXIS2_PLACEMENT_3D('',#1305,#1306,#1307);
#1309=CYLINDRICAL_SURFACE('',#1308,2.099999999999998);
#1310=ORIENTED_EDGE('',*,*,#1026,.T.);
#1311=ORIENTED_EDGE('',*,*,#1264,.F.);
#1312=CARTESIAN_POINT('',(3.175000000000015,-2.100000000000001,3.410000000000000));
#1313=VERTEX_POINT('',#1312);
#1314=CARTESIAN_POINT('',(3.175000000000015,-2.100000000000001,3.410000000000000));
#1315=DIRECTION('',(0.0,0.0,1.0));
#1316=VECTOR('',#1315,10.230000000000000);
#1317=LINE('',#1314,#1316);
#1318=EDGE_CURVE('',#1313,#1227,#1317,.T.);
#1319=ORIENTED_EDGE('',*,*,#1318,.F.);
#1320=CARTESIAN_POINT('',(3.175000000000015,-3.330669E-015,3.410000000000000));
#1321=DIRECTION('',(0.0,0.0,1.0));
#1322=DIRECTION('',(1.0,0.0,0.0));
#1323=AXIS2_PLACEMENT_3D('',#1320,#1321,#1322);
#1324=CIRCLE('',#1323,2.099999999999998);
#1325=EDGE_CURVE('',#1313,#1019,#1324,.T.);
#1326=ORIENTED_EDGE('',*,*,#1325,.T.);
#1327=EDGE_LOOP('',(#1310,#1311,#1319,#1326));
#1328=FACE_OUTER_BOUND('',#1327,.T.);
#1329=ADVANCED_FACE('',(#1328),#1309,.T.);
#1330=CARTESIAN_POINT('',(3.175000000000015,-2.100000000000001,3.410000000000000));
#1331=DIRECTION('',(0.0,-1.0,0.0));
#1332=DIRECTION('',(0.0,0.0,-1.0));
#1333=AXIS2_PLACEMENT_3D('',#1330,#1331,#1332);
#1334=PLANE('',#1333);
#1335=ORIENTED_EDGE('',*,*,#1232,.F.);
#1336=ORIENTED_EDGE('',*,*,#1001,.F.);
#1337=CARTESIAN_POINT('',(-3.175000000000004,-2.099999999999987,3.410000000000000));
#1338=DIRECTION('',(1.0,0.0,0.0));
#1339=VECTOR('',#1338,6.350000000000019);
#1340=LINE('',#1337,#1339);
#1341=EDGE_CURVE('',#987,#1313,#1340,.T.);
#1342=ORIENTED_EDGE('',*,*,#1341,.T.);
#1343=ORIENTED_EDGE('',*,*,#1318,.T.);
#1344=EDGE_LOOP('',(#1335,#1336,#1342,#1343));
#1345=FACE_OUTER_BOUND('',#1344,.T.);
#1346=ADVANCED_FACE('',(#1345),#1334,.T.);
#1347=CARTESIAN_POINT('',(1.243450E-014,-1.813896E-015,13.840000000000000));
#1348=DIRECTION('',(0.0,0.0,1.0));
#1349=DIRECTION('',(1.0,0.0,0.0));
#1350=AXIS2_PLACEMENT_3D('',#1347,#1348,#1349);
#1351=PLANE('',#1350);
#1352=ORIENTED_EDGE('',*,*,#1201,.F.);
#1353=ORIENTED_EDGE('',*,*,#1255,.F.);
#1354=ORIENTED_EDGE('',*,*,#1166,.F.);
#1355=ORIENTED_EDGE('',*,*,#1085,.F.);
#1356=ORIENTED_EDGE('',*,*,#1116,.F.);
#1357=ORIENTED_EDGE('',*,*,#1283,.F.);
#1358=EDGE_LOOP('',(#1352,#1353,#1354,#1355,#1356,#1357));
#1359=FACE_OUTER_BOUND('',#1358,.T.);
#1360=ADVANCED_FACE('',(#1359),#1351,.T.);
#1361=CARTESIAN_POINT('',(-3.175000000000004,2.220446E-016,3.410000000000000));
#1362=DIRECTION('',(0.0,0.0,1.0));
#1363=DIRECTION('',(-1.0,0.0,0.0));
#1364=AXIS2_PLACEMENT_3D('',#1361,#1362,#1363);
#1365=CYLINDRICAL_SURFACE('',#1364,2.099999999999987);
#1366=ORIENTED_EDGE('',*,*,#984,.T.);
#1367=ORIENTED_EDGE('',*,*,#1133,.F.);
#1368=CARTESIAN_POINT('',(-3.175000000000004,2.099999999999987,3.410000000000000));
#1369=VERTEX_POINT('',#1368);
#1370=CARTESIAN_POINT('',(-3.175000000000004,2.099999999999987,3.410000000000000));
#1371=DIRECTION('',(0.0,0.0,1.0));
#1372=VECTOR('',#1371,10.230000000000000);
#1373=LINE('',#1370,#1372);
#1374=EDGE_CURVE('',#1369,#1120,#1373,.T.);
#1375=ORIENTED_EDGE('',*,*,#1374,.F.);
#1376=CARTESIAN_POINT('',(-3.175000000000004,2.220446E-016,3.410000000000000));
#1377=DIRECTION('',(0.0,0.0,1.0));
#1378=DIRECTION('',(-1.0,0.0,0.0));
#1379=AXIS2_PLACEMENT_3D('',#1376,#1377,#1378);
#1380=CIRCLE('',#1379,2.099999999999987);
#1381=EDGE_CURVE('',#1369,#977,#1380,.T.);
#1382=ORIENTED_EDGE('',*,*,#1381,.T.);
#1383=EDGE_LOOP('',(#1366,#1367,#1375,#1382));
#1384=FACE_OUTER_BOUND('',#1383,.T.);
#1385=ADVANCED_FACE('',(#1384),#1365,.T.);
#1386=CARTESIAN_POINT('',(-3.175000000000004,2.099999999999987,3.410000000000000));
#1387=DIRECTION('',(0.0,1.0,0.0));
#1388=DIRECTION('',(0.0,0.0,1.0));
#1389=AXIS2_PLACEMENT_3D('',#1386,#1387,#1388);
#1390=PLANE('',#1389);
#1391=ORIENTED_EDGE('',*,*,#1299,.F.);
#1392=ORIENTED_EDGE('',*,*,#1043,.F.);
#1393=CARTESIAN_POINT('',(3.175000000000015,2.099999999999994,3.410000000000000));
#1394=DIRECTION('',(-1.0,0.0,0.0));
#1395=VECTOR('',#1394,6.350000000000019);
#1396=LINE('',#1393,#1395);
#1397=EDGE_CURVE('',#1029,#1369,#1396,.T.);
#1398=ORIENTED_EDGE('',*,*,#1397,.T.);
#1399=ORIENTED_EDGE('',*,*,#1374,.T.);
#1400=EDGE_LOOP('',(#1391,#1392,#1398,#1399));
#1401=FACE_OUTER_BOUND('',#1400,.T.);
#1402=ADVANCED_FACE('',(#1401),#1390,.T.);
#1403=CARTESIAN_POINT('',(1.243450E-014,-1.591851E-015,3.410000000000000));
#1404=DIRECTION('',(0.0,0.0,1.0));
#1405=DIRECTION('',(1.0,0.0,0.0));
#1406=AXIS2_PLACEMENT_3D('',#1403,#1404,#1405);
#1407=PLANE('',#1406);
#1408=ORIENTED_EDGE('',*,*,#1397,.F.);
#1409=ORIENTED_EDGE('',*,*,#1035,.F.);
#1410=ORIENTED_EDGE('',*,*,#1325,.F.);
#1411=ORIENTED_EDGE('',*,*,#1341,.F.);
#1412=ORIENTED_EDGE('',*,*,#993,.F.);
#1413=ORIENTED_EDGE('',*,*,#1381,.F.);
#1414=EDGE_LOOP('',(#1408,#1409,#1410,#1411,#1412,#1413));
#1415=FACE_OUTER_BOUND('',#1414,.T.);
#1416=ADVANCED_FACE('',(#1415),#1407,.F.);
#1417=CLOSED_SHELL('',(#1012,#1054,#1096,#1137,#1170,#1212,#1243,#1268,#1287,#1304,#1329,#1346,#1360,#1385,#1402,#1416));
#1418=MANIFOLD_SOLID_BREP('7E4',#1417);
#1419=STYLED_ITEM('NONE',(#735),#1418);
#1420=CARTESIAN_POINT('',(1.905000000000000,0.0,0.0));
#1421=DIRECTION('',(0.0,0.0,-1.0));
#1422=DIRECTION('',(1.0,0.0,0.0));
#1423=AXIS2_PLACEMENT_3D('',#1420,#1421,#1422);
#1424=CYLINDRICAL_SURFACE('',#1423,0.320000000000000);
#1425=CARTESIAN_POINT('',(2.225000000000000,0.0,0.0));
#1426=VERTEX_POINT('',#1425);
#1427=CARTESIAN_POINT('',(2.225000000000000,0.0,-3.600000000000000));
#1428=VERTEX_POINT('',#1427);
#1429=CARTESIAN_POINT('',(2.225000000000000,0.0,0.0));
#1430=DIRECTION('',(0.0,0.0,-1.0));
#1431=VECTOR('',#1430,3.600000000000000);
#1432=LINE('',#1429,#1431);
#1433=EDGE_CURVE('',#1426,#1428,#1432,.T.);
#1434=ORIENTED_EDGE('',*,*,#1433,.F.);
#1435=CARTESIAN_POINT('',(1.585000000000000,-3.918740E-017,0.0));
#1436=VERTEX_POINT('',#1435);
#1437=CARTESIAN_POINT('',(1.905000000000000,0.0,0.0));
#1438=DIRECTION('',(0.0,0.0,1.0));
#1439=DIRECTION('',(1.0,0.0,0.0));
#1440=AXIS2_PLACEMENT_3D('',#1437,#1438,#1439);
#1441=CIRCLE('',#1440,0.320000000000000);
#1442=EDGE_CURVE('',#1436,#1426,#1441,.T.);
#1443=ORIENTED_EDGE('',*,*,#1442,.F.);
#1444=CARTESIAN_POINT('',(1.585000000000000,-3.918740E-017,-3.600000000000000));
#1445=VERTEX_POINT('',#1444);
#1446=CARTESIAN_POINT('',(1.585000000000000,-3.918740E-017,-3.600000000000000));
#1447=DIRECTION('',(0.0,0.0,1.0));
#1448=VECTOR('',#1447,3.600000000000000);
#1449=LINE('',#1446,#1448);
#1450=EDGE_CURVE('',#1445,#1436,#1449,.T.);
#1451=ORIENTED_EDGE('',*,*,#1450,.F.);
#1452=CARTESIAN_POINT('',(1.905000000000000,0.0,-3.600000000000000));
#1453=DIRECTION('',(0.0,0.0,1.0));
#1454=DIRECTION('',(1.0,0.0,0.0));
#1455=AXIS2_PLACEMENT_3D('',#1452,#1453,#1454);
#1456=CIRCLE('',#1455,0.320000000000000);
#1457=EDGE_CURVE('',#1445,#1428,#1456,.T.);
#1458=ORIENTED_EDGE('',*,*,#1457,.T.);
#1459=EDGE_LOOP('',(#1434,#1443,#1451,#1458));
#1460=FACE_OUTER_BOUND('',#1459,.T.);
#1461=ADVANCED_FACE('',(#1460),#1424,.T.);
#1462=CARTESIAN_POINT('',(1.905000000000000,0.0,0.0));
#1463=DIRECTION('',(0.0,0.0,-1.0));
#1464=DIRECTION('',(1.0,0.0,0.0));
#1465=AXIS2_PLACEMENT_3D('',#1462,#1463,#1464);
#1466=CYLINDRICAL_SURFACE('',#1465,0.320000000000000);
#1467=ORIENTED_EDGE('',*,*,#1433,.T.);
#1468=CARTESIAN_POINT('',(1.905000000000000,0.0,-3.600000000000000));
#1469=DIRECTION('',(0.0,0.0,1.0));
#1470=DIRECTION('',(1.0,0.0,0.0));
#1471=AXIS2_PLACEMENT_3D('',#1468,#1469,#1470);
#1472=CIRCLE('',#1471,0.320000000000000);
#1473=EDGE_CURVE('',#1428,#1445,#1472,.T.);
#1474=ORIENTED_EDGE('',*,*,#1473,.T.);
#1475=ORIENTED_EDGE('',*,*,#1450,.T.);
#1476=CARTESIAN_POINT('',(1.905000000000000,0.0,0.0));
#1477=DIRECTION('',(0.0,0.0,1.0));
#1478=DIRECTION('',(1.0,0.0,0.0));
#1479=AXIS2_PLACEMENT_3D('',#1476,#1477,#1478);
#1480=CIRCLE('',#1479,0.320000000000000);
#1481=EDGE_CURVE('',#1426,#1436,#1480,.T.);
#1482=ORIENTED_EDGE('',*,*,#1481,.F.);
#1483=EDGE_LOOP('',(#1467,#1474,#1475,#1482));
#1484=FACE_OUTER_BOUND('',#1483,.T.);
#1485=ADVANCED_FACE('',(#1484),#1466,.T.);
#1486=CARTESIAN_POINT('',(1.905000000000000,0.0,-3.600000000000000));
#1487=DIRECTION('',(0.0,0.0,1.0));
#1488=DIRECTION('',(1.0,0.0,0.0));
#1489=AXIS2_PLACEMENT_3D('',#1486,#1487,#1488);
#1490=PLANE('',#1489);
#1491=ORIENTED_EDGE('',*,*,#1473,.F.);
#1492=ORIENTED_EDGE('',*,*,#1457,.F.);
#1493=EDGE_LOOP('',(#1491,#1492));
#1494=FACE_OUTER_BOUND('',#1493,.T.);
#1495=ADVANCED_FACE('',(#1494),#1490,.F.);
#1496=CARTESIAN_POINT('',(1.905000000000000,0.0,0.0));
#1497=DIRECTION('',(0.0,0.0,1.0));
#1498=DIRECTION('',(1.0,0.0,0.0));
#1499=AXIS2_PLACEMENT_3D('',#1496,#1497,#1498);
#1500=PLANE('',#1499);
#1501=ORIENTED_EDGE('',*,*,#1481,.T.);
#1502=ORIENTED_EDGE('',*,*,#1442,.T.);
#1503=EDGE_LOOP('',(#1501,#1502));
#1504=FACE_OUTER_BOUND('',#1503,.T.);
#1505=ADVANCED_FACE('',(#1504),#1500,.T.);
#1506=CLOSED_SHELL('',(#1461,#1485,#1495,#1505));
#1507=MANIFOLD_SOLID_BREP('795',#1506);
#1508=STYLED_ITEM('NONE',(#735),#1507);
#1509=CARTESIAN_POINT('',(1.905000000000000,0.0,0.0));
#1510=DIRECTION('',(0.0,4.440892E-016,1.0));
#1511=DIRECTION('',(-1.0,0.0,0.0));
#1512=AXIS2_PLACEMENT_3D('',#1509,#1510,#1511);
#1513=CYLINDRICAL_SURFACE('',#1512,0.600000000000000);
#1514=CARTESIAN_POINT('',(1.305000000000000,8.881784E-017,0.200000000000000));
#1515=VERTEX_POINT('',#1514);
#1516=CARTESIAN_POINT('',(1.305000000000000,1.070255E-015,2.410000000000000));
#1517=VERTEX_POINT('',#1516);
#1518=CARTESIAN_POINT('',(1.305000000000000,8.881784E-017,0.200000000000000));
#1519=DIRECTION('',(0.0,0.0,1.0));
#1520=VECTOR('',#1519,2.210000000000000);
#1521=LINE('',#1518,#1520);
#1522=EDGE_CURVE('',#1515,#1517,#1521,.T.);
#1523=ORIENTED_EDGE('',*,*,#1522,.F.);
#1524=CARTESIAN_POINT('',(2.505000000000000,1.622942E-016,0.200000000000000));
#1525=VERTEX_POINT('',#1524);
#1526=CARTESIAN_POINT('',(1.905000000000000,8.881784E-017,0.200000000000000));
#1527=DIRECTION('',(0.0,0.0,-1.0));
#1528=DIRECTION('',(1.0,0.0,0.0));
#1529=AXIS2_PLACEMENT_3D('',#1526,#1527,#1528);
#1530=CIRCLE('',#1529,0.600000000000000);
#1531=EDGE_CURVE('',#1525,#1515,#1530,.T.);
#1532=ORIENTED_EDGE('',*,*,#1531,.F.);
#1533=CARTESIAN_POINT('',(2.505000000000000,9.967786E-016,2.410000000000000));
#1534=VERTEX_POINT('',#1533);
#1535=CARTESIAN_POINT('',(2.505000000000000,9.967786E-016,2.410000000000000));
#1536=DIRECTION('',(0.0,0.0,-1.0));
#1537=VECTOR('',#1536,2.210000000000000);
#1538=LINE('',#1535,#1537);
#1539=EDGE_CURVE('',#1534,#1525,#1538,.T.);
#1540=ORIENTED_EDGE('',*,*,#1539,.F.);
#1541=CARTESIAN_POINT('',(1.905000000000000,1.070255E-015,2.410000000000000));
#1542=DIRECTION('',(0.0,0.0,-1.0));
#1543=DIRECTION('',(-1.0,0.0,0.0));
#1544=AXIS2_PLACEMENT_3D('',#1541,#1542,#1543);
#1545=CIRCLE('',#1544,0.600000000000000);
#1546=EDGE_CURVE('',#1534,#1517,#1545,.T.);
#1547=ORIENTED_EDGE('',*,*,#1546,.T.);
#1548=EDGE_LOOP('',(#1523,#1532,#1540,#1547));
#1549=FACE_OUTER_BOUND('',#1548,.T.);
#1550=ADVANCED_FACE('',(#1549),#1513,.T.);
#1551=CARTESIAN_POINT('',(1.905000000000000,8.881784E-017,0.200000000000000));
#1552=DIRECTION('',(0.0,-4.440892E-016,-1.0));
#1553=DIRECTION('',(-1.0,0.0,0.0));
#1554=AXIS2_PLACEMENT_3D('',#1551,#1552,#1553);
#1555=TOROIDAL_SURFACE('',#1554,0.400000000000000,0.200000000000000);
#1556=CARTESIAN_POINT('',(1.505000000000000,-9.796851E-017,4.350676E-032));
#1557=VERTEX_POINT('',#1556);
#1558=CARTESIAN_POINT('',(1.505000000000000,3.983359E-017,0.200000000000000));
#1559=DIRECTION('',(0.0,-1.0,0.0));
#1560=DIRECTION('',(-1.0,0.0,0.0));
#1561=AXIS2_PLACEMENT_3D('',#1558,#1559,#1560);
#1562=CIRCLE('',#1561,0.200000000000000);
#1563=EDGE_CURVE('',#1515,#1557,#1562,.T.);
#1564=ORIENTED_EDGE('',*,*,#1563,.F.);
#1565=CARTESIAN_POINT('',(1.905000000000000,8.881784E-017,0.200000000000000));
#1566=DIRECTION('',(0.0,0.0,-1.0));
#1567=DIRECTION('',(1.0,0.0,0.0));
#1568=AXIS2_PLACEMENT_3D('',#1565,#1566,#1567);
#1569=CIRCLE('',#1568,0.600000000000000);
#1570=EDGE_CURVE('',#1515,#1525,#1569,.T.);
#1571=ORIENTED_EDGE('',*,*,#1570,.T.);
#1572=CARTESIAN_POINT('',(2.305000000000000,4.898425E-017,-2.175338E-032));
#1573=VERTEX_POINT('',#1572);
#1574=CARTESIAN_POINT('',(2.305000000000000,1.378021E-016,0.200000000000000));
#1575=DIRECTION('',(0.0,-1.0,0.0));
#1576=DIRECTION('',(1.0,0.0,0.0));
#1577=AXIS2_PLACEMENT_3D('',#1574,#1575,#1576);
#1578=CIRCLE('',#1577,0.200000000000000);
#1579=EDGE_CURVE('',#1573,#1525,#1578,.T.);
#1580=ORIENTED_EDGE('',*,*,#1579,.F.);
#1581=CARTESIAN_POINT('',(1.905000000000000,0.0,0.0));
#1582=DIRECTION('',(0.0,0.0,1.0));
#1583=DIRECTION('',(1.0,0.0,0.0));
#1584=AXIS2_PLACEMENT_3D('',#1581,#1582,#1583);
#1585=CIRCLE('',#1584,0.400000000000000);
#1586=EDGE_CURVE('',#1573,#1557,#1585,.T.);
#1587=ORIENTED_EDGE('',*,*,#1586,.T.);
#1588=EDGE_LOOP('',(#1564,#1571,#1580,#1587));
#1589=FACE_OUTER_BOUND('',#1588,.T.);
#1590=ADVANCED_FACE('',(#1589),#1555,.T.);
#1591=CARTESIAN_POINT('',(1.905000000000000,8.881784E-017,0.200000000000000));
#1592=DIRECTION('',(0.0,-4.440892E-016,-1.0));
#1593=DIRECTION('',(-1.0,0.0,0.0));
#1594=AXIS2_PLACEMENT_3D('',#1591,#1592,#1593);
#1595=TOROIDAL_SURFACE('',#1594,0.400000000000000,0.200000000000000);
#1596=ORIENTED_EDGE('',*,*,#1563,.T.);
#1597=CARTESIAN_POINT('',(1.905000000000000,0.0,0.0));
#1598=DIRECTION('',(0.0,0.0,1.0));
#1599=DIRECTION('',(1.0,0.0,0.0));
#1600=AXIS2_PLACEMENT_3D('',#1597,#1598,#1599);
#1601=CIRCLE('',#1600,0.400000000000000);
#1602=EDGE_CURVE('',#1557,#1573,#1601,.T.);
#1603=ORIENTED_EDGE('',*,*,#1602,.T.);
#1604=ORIENTED_EDGE('',*,*,#1579,.T.);
#1605=ORIENTED_EDGE('',*,*,#1531,.T.);
#1606=EDGE_LOOP('',(#1596,#1603,#1604,#1605));
#1607=FACE_OUTER_BOUND('',#1606,.T.);
#1608=ADVANCED_FACE('',(#1607),#1595,.T.);
#1609=CARTESIAN_POINT('',(1.905000000000000,0.0,0.0));
#1610=DIRECTION('',(0.0,4.440892E-016,1.0));
#1611=DIRECTION('',(-1.0,0.0,0.0));
#1612=AXIS2_PLACEMENT_3D('',#1609,#1610,#1611);
#1613=CYLINDRICAL_SURFACE('',#1612,0.600000000000000);
#1614=ORIENTED_EDGE('',*,*,#1522,.T.);
#1615=CARTESIAN_POINT('',(1.905000000000000,1.070255E-015,2.410000000000000));
#1616=DIRECTION('',(0.0,0.0,-1.0));
#1617=DIRECTION('',(-1.0,0.0,0.0));
#1618=AXIS2_PLACEMENT_3D('',#1615,#1616,#1617);
#1619=CIRCLE('',#1618,0.600000000000000);
#1620=EDGE_CURVE('',#1517,#1534,#1619,.T.);
#1621=ORIENTED_EDGE('',*,*,#1620,.T.);
#1622=ORIENTED_EDGE('',*,*,#1539,.T.);
#1623=ORIENTED_EDGE('',*,*,#1570,.F.);
#1624=EDGE_LOOP('',(#1614,#1621,#1622,#1623));
#1625=FACE_OUTER_BOUND('',#1624,.T.);
#1626=ADVANCED_FACE('',(#1625),#1613,.T.);
#1627=CARTESIAN_POINT('',(1.905000000000000,0.0,0.0));
#1628=DIRECTION('',(0.0,0.0,-1.0));
#1629=DIRECTION('',(-1.0,0.0,0.0));
#1630=AXIS2_PLACEMENT_3D('',#1627,#1628,#1629);
#1631=PLANE('',#1630);
#1632=ORIENTED_EDGE('',*,*,#1602,.F.);
#1633=ORIENTED_EDGE('',*,*,#1586,.F.);
#1634=EDGE_LOOP('',(#1632,#1633));
#1635=FACE_OUTER_BOUND('',#1634,.T.);
#1636=ADVANCED_FACE('',(#1635),#1631,.T.);
#1637=CARTESIAN_POINT('',(1.905000000000000,1.070255E-015,2.410000000000000));
#1638=DIRECTION('',(0.0,0.0,-1.0));
#1639=DIRECTION('',(-1.0,0.0,0.0));
#1640=AXIS2_PLACEMENT_3D('',#1637,#1638,#1639);
#1641=PLANE('',#1640);
#1642=ORIENTED_EDGE('',*,*,#1620,.F.);
#1643=ORIENTED_EDGE('',*,*,#1546,.F.);
#1644=EDGE_LOOP('',(#1642,#1643));
#1645=FACE_OUTER_BOUND('',#1644,.T.);
#1646=ADVANCED_FACE('',(#1645),#1641,.F.);
#1647=CLOSED_SHELL('',(#1550,#1590,#1608,#1626,#1636,#1646));
#1648=MANIFOLD_SOLID_BREP('794',#1647);
#1649=STYLED_ITEM('NONE',(#735),#1648);
#1650=CARTESIAN_POINT('',(-1.905000000000000,0.0,0.0));
#1651=DIRECTION('',(0.0,0.0,-1.0));
#1652=DIRECTION('',(1.0,0.0,0.0));
#1653=AXIS2_PLACEMENT_3D('',#1650,#1651,#1652);
#1654=CYLINDRICAL_SURFACE('',#1653,0.320000000000000);
#1655=CARTESIAN_POINT('',(-1.585000000000000,0.0,0.0));
#1656=VERTEX_POINT('',#1655);
#1657=CARTESIAN_POINT('',(-1.585000000000000,0.0,-3.600000000000000));
#1658=VERTEX_POINT('',#1657);
#1659=CARTESIAN_POINT('',(-1.585000000000000,0.0,0.0));
#1660=DIRECTION('',(0.0,0.0,-1.0));
#1661=VECTOR('',#1660,3.600000000000000);
#1662=LINE('',#1659,#1661);
#1663=EDGE_CURVE('',#1656,#1658,#1662,.T.);
#1664=ORIENTED_EDGE('',*,*,#1663,.F.);
#1665=CARTESIAN_POINT('',(-2.225000000000000,-3.918740E-017,0.0));
#1666=VERTEX_POINT('',#1665);
#1667=CARTESIAN_POINT('',(-1.905000000000000,0.0,0.0));
#1668=DIRECTION('',(0.0,0.0,1.0));
#1669=DIRECTION('',(1.0,0.0,0.0));
#1670=AXIS2_PLACEMENT_3D('',#1667,#1668,#1669);
#1671=CIRCLE('',#1670,0.320000000000000);
#1672=EDGE_CURVE('',#1666,#1656,#1671,.T.);
#1673=ORIENTED_EDGE('',*,*,#1672,.F.);
#1674=CARTESIAN_POINT('',(-2.225000000000000,-3.918740E-017,-3.600000000000000));
#1675=VERTEX_POINT('',#1674);
#1676=CARTESIAN_POINT('',(-2.225000000000000,-3.918740E-017,-3.600000000000000));
#1677=DIRECTION('',(0.0,0.0,1.0));
#1678=VECTOR('',#1677,3.600000000000000);
#1679=LINE('',#1676,#1678);
#1680=EDGE_CURVE('',#1675,#1666,#1679,.T.);
#1681=ORIENTED_EDGE('',*,*,#1680,.F.);
#1682=CARTESIAN_POINT('',(-1.905000000000000,0.0,-3.600000000000000));
#1683=DIRECTION('',(0.0,0.0,1.0));
#1684=DIRECTION('',(1.0,0.0,0.0));
#1685=AXIS2_PLACEMENT_3D('',#1682,#1683,#1684);
#1686=CIRCLE('',#1685,0.320000000000000);
#1687=EDGE_CURVE('',#1675,#1658,#1686,.T.);
#1688=ORIENTED_EDGE('',*,*,#1687,.T.);
#1689=EDGE_LOOP('',(#1664,#1673,#1681,#1688));
#1690=FACE_OUTER_BOUND('',#1689,.T.);
#1691=ADVANCED_FACE('',(#1690),#1654,.T.);
#1692=CARTESIAN_POINT('',(-1.905000000000000,0.0,0.0));
#1693=DIRECTION('',(0.0,0.0,-1.0));
#1694=DIRECTION('',(1.0,0.0,0.0));
#1695=AXIS2_PLACEMENT_3D('',#1692,#1693,#1694);
#1696=CYLINDRICAL_SURFACE('',#1695,0.320000000000000);
#1697=ORIENTED_EDGE('',*,*,#1663,.T.);
#1698=CARTESIAN_POINT('',(-1.905000000000000,0.0,-3.600000000000000));
#1699=DIRECTION('',(0.0,0.0,1.0));
#1700=DIRECTION('',(1.0,0.0,0.0));
#1701=AXIS2_PLACEMENT_3D('',#1698,#1699,#1700);
#1702=CIRCLE('',#1701,0.320000000000000);
#1703=EDGE_CURVE('',#1658,#1675,#1702,.T.);
#1704=ORIENTED_EDGE('',*,*,#1703,.T.);
#1705=ORIENTED_EDGE('',*,*,#1680,.T.);
#1706=CARTESIAN_POINT('',(-1.905000000000000,0.0,0.0));
#1707=DIRECTION('',(0.0,0.0,1.0));
#1708=DIRECTION('',(1.0,0.0,0.0));
#1709=AXIS2_PLACEMENT_3D('',#1706,#1707,#1708);
#1710=CIRCLE('',#1709,0.320000000000000);
#1711=EDGE_CURVE('',#1656,#1666,#1710,.T.);
#1712=ORIENTED_EDGE('',*,*,#1711,.F.);
#1713=EDGE_LOOP('',(#1697,#1704,#1705,#1712));
#1714=FACE_OUTER_BOUND('',#1713,.T.);
#1715=ADVANCED_FACE('',(#1714),#1696,.T.);
#1716=CARTESIAN_POINT('',(-1.905000000000000,0.0,-3.600000000000000));
#1717=DIRECTION('',(0.0,0.0,1.0));
#1718=DIRECTION('',(1.0,0.0,0.0));
#1719=AXIS2_PLACEMENT_3D('',#1716,#1717,#1718);
#1720=PLANE('',#1719);
#1721=ORIENTED_EDGE('',*,*,#1703,.F.);
#1722=ORIENTED_EDGE('',*,*,#1687,.F.);
#1723=EDGE_LOOP('',(#1721,#1722));
#1724=FACE_OUTER_BOUND('',#1723,.T.);
#1725=ADVANCED_FACE('',(#1724),#1720,.F.);
#1726=CARTESIAN_POINT('',(-1.905000000000000,0.0,0.0));
#1727=DIRECTION('',(0.0,0.0,1.0));
#1728=DIRECTION('',(1.0,0.0,0.0));
#1729=AXIS2_PLACEMENT_3D('',#1726,#1727,#1728);
#1730=PLANE('',#1729);
#1731=ORIENTED_EDGE('',*,*,#1711,.T.);
#1732=ORIENTED_EDGE('',*,*,#1672,.T.);
#1733=EDGE_LOOP('',(#1731,#1732));
#1734=FACE_OUTER_BOUND('',#1733,.T.);
#1735=ADVANCED_FACE('',(#1734),#1730,.T.);
#1736=CLOSED_SHELL('',(#1691,#1715,#1725,#1735));
#1737=MANIFOLD_SOLID_BREP('793',#1736);
#1738=STYLED_ITEM('NONE',(#735),#1737);
#1739=CARTESIAN_POINT('',(-1.905000000000000,0.0,0.0));
#1740=DIRECTION('',(0.0,4.440892E-016,1.0));
#1741=DIRECTION('',(-1.0,0.0,0.0));
#1742=AXIS2_PLACEMENT_3D('',#1739,#1740,#1741);
#1743=CYLINDRICAL_SURFACE('',#1742,0.600000000000000);
#1744=CARTESIAN_POINT('',(-2.505000000000000,8.881784E-017,0.200000000000000));
#1745=VERTEX_POINT('',#1744);
#1746=CARTESIAN_POINT('',(-2.505000000000000,1.070255E-015,2.410000000000000));
#1747=VERTEX_POINT('',#1746);
#1748=CARTESIAN_POINT('',(-2.505000000000000,8.881784E-017,0.200000000000000));
#1749=DIRECTION('',(0.0,0.0,1.0));
#1750=VECTOR('',#1749,2.210000000000000);
#1751=LINE('',#1748,#1750);
#1752=EDGE_CURVE('',#1745,#1747,#1751,.T.);
#1753=ORIENTED_EDGE('',*,*,#1752,.F.);
#1754=CARTESIAN_POINT('',(-1.305000000000000,1.622942E-016,0.200000000000000));
#1755=VERTEX_POINT('',#1754);
#1756=CARTESIAN_POINT('',(-1.905000000000000,8.881784E-017,0.200000000000000));
#1757=DIRECTION('',(0.0,0.0,-1.0));
#1758=DIRECTION('',(1.0,0.0,0.0));
#1759=AXIS2_PLACEMENT_3D('',#1756,#1757,#1758);
#1760=CIRCLE('',#1759,0.600000000000000);
#1761=EDGE_CURVE('',#1755,#1745,#1760,.T.);
#1762=ORIENTED_EDGE('',*,*,#1761,.F.);
#1763=CARTESIAN_POINT('',(-1.305000000000000,9.967786E-016,2.410000000000000));
#1764=VERTEX_POINT('',#1763);
#1765=CARTESIAN_POINT('',(-1.305000000000000,9.967786E-016,2.410000000000000));
#1766=DIRECTION('',(0.0,0.0,-1.0));
#1767=VECTOR('',#1766,2.210000000000000);
#1768=LINE('',#1765,#1767);
#1769=EDGE_CURVE('',#1764,#1755,#1768,.T.);
#1770=ORIENTED_EDGE('',*,*,#1769,.F.);
#1771=CARTESIAN_POINT('',(-1.905000000000000,1.070255E-015,2.410000000000000));
#1772=DIRECTION('',(0.0,0.0,-1.0));
#1773=DIRECTION('',(-1.0,0.0,0.0));
#1774=AXIS2_PLACEMENT_3D('',#1771,#1772,#1773);
#1775=CIRCLE('',#1774,0.600000000000000);
#1776=EDGE_CURVE('',#1764,#1747,#1775,.T.);
#1777=ORIENTED_EDGE('',*,*,#1776,.T.);
#1778=EDGE_LOOP('',(#1753,#1762,#1770,#1777));
#1779=FACE_OUTER_BOUND('',#1778,.T.);
#1780=ADVANCED_FACE('',(#1779),#1743,.T.);
#1781=CARTESIAN_POINT('',(-1.905000000000000,8.881784E-017,0.200000000000000));
#1782=DIRECTION('',(0.0,-4.440892E-016,-1.0));
#1783=DIRECTION('',(-1.0,0.0,0.0));
#1784=AXIS2_PLACEMENT_3D('',#1781,#1782,#1783);
#1785=TOROIDAL_SURFACE('',#1784,0.400000000000000,0.200000000000000);
#1786=CARTESIAN_POINT('',(-2.305000000000000,-9.796851E-017,4.350676E-032));
#1787=VERTEX_POINT('',#1786);
#1788=CARTESIAN_POINT('',(-2.305000000000000,3.983359E-017,0.200000000000000));
#1789=DIRECTION('',(0.0,-1.0,0.0));
#1790=DIRECTION('',(-1.0,0.0,0.0));
#1791=AXIS2_PLACEMENT_3D('',#1788,#1789,#1790);
#1792=CIRCLE('',#1791,0.200000000000000);
#1793=EDGE_CURVE('',#1745,#1787,#1792,.T.);
#1794=ORIENTED_EDGE('',*,*,#1793,.F.);
#1795=CARTESIAN_POINT('',(-1.905000000000000,8.881784E-017,0.200000000000000));
#1796=DIRECTION('',(0.0,0.0,-1.0));
#1797=DIRECTION('',(1.0,0.0,0.0));
#1798=AXIS2_PLACEMENT_3D('',#1795,#1796,#1797);
#1799=CIRCLE('',#1798,0.600000000000000);
#1800=EDGE_CURVE('',#1745,#1755,#1799,.T.);
#1801=ORIENTED_EDGE('',*,*,#1800,.T.);
#1802=CARTESIAN_POINT('',(-1.505000000000000,4.898425E-017,-2.175338E-032));
#1803=VERTEX_POINT('',#1802);
#1804=CARTESIAN_POINT('',(-1.505000000000000,1.378021E-016,0.200000000000000));
#1805=DIRECTION('',(0.0,-1.0,0.0));
#1806=DIRECTION('',(1.0,0.0,0.0));
#1807=AXIS2_PLACEMENT_3D('',#1804,#1805,#1806);
#1808=CIRCLE('',#1807,0.200000000000000);
#1809=EDGE_CURVE('',#1803,#1755,#1808,.T.);
#1810=ORIENTED_EDGE('',*,*,#1809,.F.);
#1811=CARTESIAN_POINT('',(-1.905000000000000,0.0,0.0));
#1812=DIRECTION('',(0.0,0.0,1.0));
#1813=DIRECTION('',(1.0,0.0,0.0));
#1814=AXIS2_PLACEMENT_3D('',#1811,#1812,#1813);
#1815=CIRCLE('',#1814,0.400000000000000);
#1816=EDGE_CURVE('',#1803,#1787,#1815,.T.);
#1817=ORIENTED_EDGE('',*,*,#1816,.T.);
#1818=EDGE_LOOP('',(#1794,#1801,#1810,#1817));
#1819=FACE_OUTER_BOUND('',#1818,.T.);
#1820=ADVANCED_FACE('',(#1819),#1785,.T.);
#1821=CARTESIAN_POINT('',(-1.905000000000000,8.881784E-017,0.200000000000000));
#1822=DIRECTION('',(0.0,-4.440892E-016,-1.0));
#1823=DIRECTION('',(-1.0,0.0,0.0));
#1824=AXIS2_PLACEMENT_3D('',#1821,#1822,#1823);
#1825=TOROIDAL_SURFACE('',#1824,0.400000000000000,0.200000000000000);
#1826=ORIENTED_EDGE('',*,*,#1793,.T.);
#1827=CARTESIAN_POINT('',(-1.905000000000000,0.0,0.0));
#1828=DIRECTION('',(0.0,0.0,1.0));
#1829=DIRECTION('',(1.0,0.0,0.0));
#1830=AXIS2_PLACEMENT_3D('',#1827,#1828,#1829);
#1831=CIRCLE('',#1830,0.400000000000000);
#1832=EDGE_CURVE('',#1787,#1803,#1831,.T.);
#1833=ORIENTED_EDGE('',*,*,#1832,.T.);
#1834=ORIENTED_EDGE('',*,*,#1809,.T.);
#1835=ORIENTED_EDGE('',*,*,#1761,.T.);
#1836=EDGE_LOOP('',(#1826,#1833,#1834,#1835));
#1837=FACE_OUTER_BOUND('',#1836,.T.);
#1838=ADVANCED_FACE('',(#1837),#1825,.T.);
#1839=CARTESIAN_POINT('',(-1.905000000000000,0.0,0.0));
#1840=DIRECTION('',(0.0,4.440892E-016,1.0));
#1841=DIRECTION('',(-1.0,0.0,0.0));
#1842=AXIS2_PLACEMENT_3D('',#1839,#1840,#1841);
#1843=CYLINDRICAL_SURFACE('',#1842,0.600000000000000);
#1844=ORIENTED_EDGE('',*,*,#1752,.T.);
#1845=CARTESIAN_POINT('',(-1.905000000000000,1.070255E-015,2.410000000000000));
#1846=DIRECTION('',(0.0,0.0,-1.0));
#1847=DIRECTION('',(-1.0,0.0,0.0));
#1848=AXIS2_PLACEMENT_3D('',#1845,#1846,#1847);
#1849=CIRCLE('',#1848,0.600000000000000);
#1850=EDGE_CURVE('',#1747,#1764,#1849,.T.);
#1851=ORIENTED_EDGE('',*,*,#1850,.T.);
#1852=ORIENTED_EDGE('',*,*,#1769,.T.);
#1853=ORIENTED_EDGE('',*,*,#1800,.F.);
#1854=EDGE_LOOP('',(#1844,#1851,#1852,#1853));
#1855=FACE_OUTER_BOUND('',#1854,.T.);
#1856=ADVANCED_FACE('',(#1855),#1843,.T.);
#1857=CARTESIAN_POINT('',(-1.905000000000000,0.0,0.0));
#1858=DIRECTION('',(0.0,0.0,-1.0));
#1859=DIRECTION('',(-1.0,0.0,0.0));
#1860=AXIS2_PLACEMENT_3D('',#1857,#1858,#1859);
#1861=PLANE('',#1860);
#1862=ORIENTED_EDGE('',*,*,#1832,.F.);
#1863=ORIENTED_EDGE('',*,*,#1816,.F.);
#1864=EDGE_LOOP('',(#1862,#1863));
#1865=FACE_OUTER_BOUND('',#1864,.T.);
#1866=ADVANCED_FACE('',(#1865),#1861,.T.);
#1867=CARTESIAN_POINT('',(-1.905000000000000,1.070255E-015,2.410000000000000));
#1868=DIRECTION('',(0.0,0.0,-1.0));
#1869=DIRECTION('',(-1.0,0.0,0.0));
#1870=AXIS2_PLACEMENT_3D('',#1867,#1868,#1869);
#1871=PLANE('',#1870);
#1872=ORIENTED_EDGE('',*,*,#1850,.F.);
#1873=ORIENTED_EDGE('',*,*,#1776,.F.);
#1874=EDGE_LOOP('',(#1872,#1873));
#1875=FACE_OUTER_BOUND('',#1874,.T.);
#1876=ADVANCED_FACE('',(#1875),#1871,.F.);
#1877=CLOSED_SHELL('',(#1780,#1820,#1838,#1856,#1866,#1876));
#1878=MANIFOLD_SOLID_BREP('792',#1877);
#1879=STYLED_ITEM('NONE',(#735),#1878);
#1880=ADVANCED_BREP_SHAPE_REPRESENTATION('ABSR1',(#728,#962,#1418,#1507,#1648,#1737,#1878),#28);
#1881=SHAPE_REPRESENTATION_RELATIONSHIP('SRRPL1','',#1880,#62);
ENDSEC;
END-ISO-10303-21;
