ISO-10303-21;
HEADER;
/****************************************************************
 * Generated by software with PDElib inside                    *
 * PDElib Version v51a, created Fri 09/10/2010                  *
 * ITI Transcendata (http://www.transcendata.com/)              *
 ****************************************************************/
FILE_DESCRIPTION((''),'2;1');
FILE_NAME('RES_VISHAY_PZR2512.stp','2013-06-18T10:05:15',(''),(''),'Mechanical Desktop 2011','Mechanical Desktop 2011',', , ');
FILE_SCHEMA(('AUTOMOTIVE_DESIGN { 1 2 10303 214 1 1 1 1 }'));
ENDSEC;
DATA;
#10=(NAMED_UNIT(*)PLANE_ANGLE_UNIT()SI_UNIT($,.RADIAN.));
#11=DIMENSIONAL_EXPONENTS(0.0,0.0,0.0,0.0,0.0,0.0,0.0);
#12=PLANE_ANGLE_MEASURE_WITH_UNIT(PLANE_ANGLE_MEASURE(0.0174532925),#10);
#16=(CONVERSION_BASED_UNIT('DEGREE',#12)NAMED_UNIT(#11)PLANE_ANGLE_UNIT());
#20=(NAMED_UNIT(*)SI_UNIT($,.STERADIAN.)SOLID_ANGLE_UNIT());
#24=(LENGTH_UNIT()NAMED_UNIT(*)SI_UNIT(.MILLI.,.METRE.));
#26=UNCERTAINTY_MEASURE_WITH_UNIT(LENGTH_MEASURE(0.000001),#24,'DISTANCE_ACCURACY_VALUE','');
#28=(GEOMETRIC_REPRESENTATION_CONTEXT(3)GLOBAL_UNCERTAINTY_ASSIGNED_CONTEXT((#26))GLOBAL_UNIT_ASSIGNED_CONTEXT((#16,#20,#24))REPRESENTATION_CONTEXT('','3D'));
#29=APPLICATION_CONTEXT('automotive design');
#30=APPLICATION_PROTOCOL_DEFINITION('INTERNATIONAL_STANDARD','automotive_design',1998,#29);
#31=PRODUCT_CONTEXT('3D Mechanical Parts',#29,'mechanical');
#32=PRODUCT('Product','Product','',(#31));
#33=PRODUCT_RELATED_PRODUCT_CATEGORY('part',$,(#32));
#34=PRODUCT_CATEGORY('part',$);
#35=PERSON('1','Design','Joe',$,$,$);
#36=ORGANIZATION($,'None','None');
#37=PERSON_AND_ORGANIZATION(#35,#36);
#38=PERSON_AND_ORGANIZATION_ROLE('design_owner');
#39=APPLIED_PERSON_AND_ORGANIZATION_ASSIGNMENT(#37,#38,(#32));
#40=PRODUCT_DEFINITION_FORMATION_WITH_SPECIFIED_SOURCE('None','',#32,.BOUGHT.);
#41=PERSON('2','Creator','Joe',$,$,$);
#42=ORGANIZATION($,'None','None');
#43=PERSON_AND_ORGANIZATION(#41,#42);
#44=PERSON_AND_ORGANIZATION_ROLE('creator');
#45=APPLIED_PERSON_AND_ORGANIZATION_ASSIGNMENT(#43,#44,(#40));
#46=PERSON('3','Supplier','Joe',$,$,$);
#47=ORGANIZATION($,'None','None');
#48=PERSON_AND_ORGANIZATION(#46,#47);
#49=PERSON_AND_ORGANIZATION_ROLE('design_supplier');
#50=APPLIED_PERSON_AND_ORGANIZATION_ASSIGNMENT(#48,#49,(#40));
#51=PRODUCT_DEFINITION_CONTEXT('part definition',#29,'design');
#52=PRODUCT_DEFINITION('None','',#40,#51);
#53=PERSON('4','Creator','Joe',$,$,$);
#54=ORGANIZATION($,'None','None');
#55=PERSON_AND_ORGANIZATION(#53,#54);
#56=PERSON_AND_ORGANIZATION_ROLE('creator');
#57=APPLIED_PERSON_AND_ORGANIZATION_ASSIGNMENT(#55,#56,(#52));
#58=CARTESIAN_POINT('NONE',(0.0,0.0,0.0));
#59=DIRECTION('NONE',(0.0,0.0,1.0));
#60=DIRECTION('NONE',(1.0,0.0,0.0));
#61=AXIS2_PLACEMENT_3D('NONE',#58,#59,#60);
#62=SHAPE_REPRESENTATION('SR1',(#61),#28);
#63=PRODUCT_DEFINITION_SHAPE('PDS1','Test Part',#52);
#64=SHAPE_DEFINITION_REPRESENTATION(#63,#62);
#65=CARTESIAN_POINT('',(0.0,-1.65,0.3135));
#66=DIRECTION('',(0.0,-1.0,0.0));
#67=DIRECTION('',(1.0,0.0,0.0));
#68=AXIS2_PLACEMENT_3D('',#65,#66,#67);
#69=PLANE('',#68);
#70=CARTESIAN_POINT('',(3.074999999999999,-1.65,0.100000000000001));
#71=VERTEX_POINT('',#70);
#72=CARTESIAN_POINT('',(3.074999999999999,-1.65,0.527));
#73=VERTEX_POINT('',#72);
#74=CARTESIAN_POINT('',(3.074999999999999,-1.65,0.100000000000001));
#75=DIRECTION('',(0.0,0.0,1.0));
#76=VECTOR('',#75,0.426999999999999);
#77=LINE('',#74,#76);
#78=EDGE_CURVE('',#71,#73,#77,.T.);
#79=ORIENTED_EDGE('',*,*,#78,.T.);
#80=CARTESIAN_POINT('',(-3.074999999999999,-1.65,0.527));
#81=VERTEX_POINT('',#80);
#82=CARTESIAN_POINT('',(3.074999999999999,-1.65,0.527));
#83=DIRECTION('',(-1.0,0.0,0.0));
#84=VECTOR('',#83,6.149999999999999);
#85=LINE('',#82,#84);
#86=EDGE_CURVE('',#73,#81,#85,.T.);
#87=ORIENTED_EDGE('',*,*,#86,.T.);
#88=CARTESIAN_POINT('',(-3.074999999999999,-1.65,0.100000000000001));
#89=VERTEX_POINT('',#88);
#90=CARTESIAN_POINT('',(-3.074999999999999,-1.65,0.527));
#91=DIRECTION('',(0.0,0.0,-1.0));
#92=VECTOR('',#91,0.426999999999999);
#93=LINE('',#90,#92);
#94=EDGE_CURVE('',#81,#89,#93,.T.);
#95=ORIENTED_EDGE('',*,*,#94,.T.);
#96=CARTESIAN_POINT('',(-3.074999999999999,-1.65,0.100000000000001));
#97=DIRECTION('',(1.0,0.0,0.0));
#98=VECTOR('',#97,6.149999999999999);
#99=LINE('',#96,#98);
#100=EDGE_CURVE('',#89,#71,#99,.T.);
#101=ORIENTED_EDGE('',*,*,#100,.T.);
#102=EDGE_LOOP('',(#79,#87,#95,#101));
#103=FACE_OUTER_BOUND('',#102,.T.);
#104=ADVANCED_FACE('',(#103),#69,.T.);
#105=CARTESIAN_POINT('',(0.0,1.65,0.3135));
#106=DIRECTION('',(0.0,-1.0,0.0));
#107=DIRECTION('',(1.0,0.0,0.0));
#108=AXIS2_PLACEMENT_3D('',#105,#106,#107);
#109=PLANE('',#108);
#110=CARTESIAN_POINT('',(3.074999999999999,1.65,0.526999999999999));
#111=VERTEX_POINT('',#110);
#112=CARTESIAN_POINT('',(3.074999999999999,1.65,0.1));
#113=VERTEX_POINT('',#112);
#114=CARTESIAN_POINT('',(3.074999999999999,1.65,0.526999999999999));
#115=DIRECTION('',(0.0,0.0,-1.0));
#116=VECTOR('',#115,0.426999999999999);
#117=LINE('',#114,#116);
#118=EDGE_CURVE('',#111,#113,#117,.T.);
#119=ORIENTED_EDGE('',*,*,#118,.T.);
#120=CARTESIAN_POINT('',(-3.074999999999999,1.65,0.1));
#121=VERTEX_POINT('',#120);
#122=CARTESIAN_POINT('',(3.074999999999999,1.65,0.1));
#123=DIRECTION('',(-1.0,0.0,0.0));
#124=VECTOR('',#123,6.149999999999999);
#125=LINE('',#122,#124);
#126=EDGE_CURVE('',#113,#121,#125,.T.);
#127=ORIENTED_EDGE('',*,*,#126,.T.);
#128=CARTESIAN_POINT('',(-3.074999999999999,1.65,0.526999999999999));
#129=VERTEX_POINT('',#128);
#130=CARTESIAN_POINT('',(-3.074999999999999,1.65,0.1));
#131=DIRECTION('',(0.0,0.0,1.0));
#132=VECTOR('',#131,0.426999999999999);
#133=LINE('',#130,#132);
#134=EDGE_CURVE('',#121,#129,#133,.T.);
#135=ORIENTED_EDGE('',*,*,#134,.T.);
#136=CARTESIAN_POINT('',(-3.074999999999999,1.65,0.526999999999999));
#137=DIRECTION('',(1.0,0.0,0.0));
#138=VECTOR('',#137,6.149999999999999);
#139=LINE('',#136,#138);
#140=EDGE_CURVE('',#129,#111,#139,.T.);
#141=ORIENTED_EDGE('',*,*,#140,.T.);
#142=EDGE_LOOP('',(#119,#127,#135,#141));
#143=FACE_OUTER_BOUND('',#142,.T.);
#144=ADVANCED_FACE('',(#143),#109,.F.);
#145=CARTESIAN_POINT('',(0.0,2.220446E-017,0.1));
#146=DIRECTION('',(0.0,0.0,1.0));
#147=DIRECTION('',(0.0,-1.0,0.0));
#148=AXIS2_PLACEMENT_3D('',#145,#146,#147);
#149=PLANE('',#148);
#150=CARTESIAN_POINT('',(-3.074999999999999,-1.65,0.100000000000001));
#151=DIRECTION('',(0.0,1.0,0.0));
#152=VECTOR('',#151,3.3);
#153=LINE('',#150,#152);
#154=EDGE_CURVE('',#89,#121,#153,.T.);
#155=ORIENTED_EDGE('',*,*,#154,.T.);
#156=ORIENTED_EDGE('',*,*,#126,.F.);
#157=CARTESIAN_POINT('',(3.074999999999999,-1.65,0.100000000000001));
#158=DIRECTION('',(0.0,1.0,0.0));
#159=VECTOR('',#158,3.3);
#160=LINE('',#157,#159);
#161=EDGE_CURVE('',#71,#113,#160,.T.);
#162=ORIENTED_EDGE('',*,*,#161,.F.);
#163=ORIENTED_EDGE('',*,*,#100,.F.);
#164=EDGE_LOOP('',(#155,#156,#162,#163));
#165=FACE_OUTER_BOUND('',#164,.T.);
#166=ADVANCED_FACE('',(#165),#149,.F.);
#167=CARTESIAN_POINT('',(-3.074999999999999,6.961098E-017,0.3135));
#168=DIRECTION('',(1.0,0.0,0.0));
#169=DIRECTION('',(0.0,1.0,0.0));
#170=AXIS2_PLACEMENT_3D('',#167,#168,#169);
#171=PLANE('',#170);
#172=CARTESIAN_POINT('',(-3.074999999999999,-1.65,0.527));
#173=DIRECTION('',(0.0,1.0,0.0));
#174=VECTOR('',#173,3.3);
#175=LINE('',#172,#174);
#176=EDGE_CURVE('',#81,#129,#175,.T.);
#177=ORIENTED_EDGE('',*,*,#176,.T.);
#178=ORIENTED_EDGE('',*,*,#134,.F.);
#179=ORIENTED_EDGE('',*,*,#154,.F.);
#180=ORIENTED_EDGE('',*,*,#94,.F.);
#181=EDGE_LOOP('',(#177,#178,#179,#180));
#182=FACE_OUTER_BOUND('',#181,.T.);
#183=ADVANCED_FACE('',(#182),#171,.F.);
#184=CARTESIAN_POINT('',(0.0,1.170175E-016,0.527));
#185=DIRECTION('',(0.0,0.0,-1.0));
#186=DIRECTION('',(0.0,1.0,0.0));
#187=AXIS2_PLACEMENT_3D('',#184,#185,#186);
#188=PLANE('',#187);
#189=CARTESIAN_POINT('',(3.074999999999999,-1.65,0.527));
#190=DIRECTION('',(0.0,1.0,0.0));
#191=VECTOR('',#190,3.3);
#192=LINE('',#189,#191);
#193=EDGE_CURVE('',#73,#111,#192,.T.);
#194=ORIENTED_EDGE('',*,*,#193,.T.);
#195=ORIENTED_EDGE('',*,*,#140,.F.);
#196=ORIENTED_EDGE('',*,*,#176,.F.);
#197=ORIENTED_EDGE('',*,*,#86,.F.);
#198=EDGE_LOOP('',(#194,#195,#196,#197));
#199=FACE_OUTER_BOUND('',#198,.T.);
#200=ADVANCED_FACE('',(#199),#188,.F.);
#201=CARTESIAN_POINT('',(3.074999999999999,6.961098E-017,0.3135));
#202=DIRECTION('',(-1.0,0.0,0.0));
#203=DIRECTION('',(0.0,-1.0,0.0));
#204=AXIS2_PLACEMENT_3D('',#201,#202,#203);
#205=PLANE('',#204);
#206=ORIENTED_EDGE('',*,*,#161,.T.);
#207=ORIENTED_EDGE('',*,*,#118,.F.);
#208=ORIENTED_EDGE('',*,*,#193,.F.);
#209=ORIENTED_EDGE('',*,*,#78,.F.);
#210=EDGE_LOOP('',(#206,#207,#208,#209));
#211=FACE_OUTER_BOUND('',#210,.T.);
#212=ADVANCED_FACE('',(#211),#205,.F.);
#213=CLOSED_SHELL('',(#104,#144,#166,#183,#200,#212));
#214=MANIFOLD_SOLID_BREP('1BDF',#213);
#215=COLOUR_RGB('254',0.866,0.866,0.866);
#216=SURFACE_STYLE_USAGE(.BOTH.,#217);
#217=SURFACE_SIDE_STYLE('NONE',(#218));
#218=SURFACE_STYLE_FILL_AREA(#219);
#219=FILL_AREA_STYLE('NONE',(#220));
#220=FILL_AREA_STYLE_COLOUR('NONE',#215);
#221=PRESENTATION_STYLE_ASSIGNMENT((#216));
#222=STYLED_ITEM('NONE',(#221),#214);
#223=MECHANICAL_DESIGN_GEOMETRIC_PRESENTATION_REPRESENTATION('NONE',(#222,#646),#28);
#224=PRESENTATION_LAYER_ASSIGNMENT('3D','None',(#214,#638));
#225=CARTESIAN_POINT('',(2.695,1.65,0.1));
#226=CARTESIAN_POINT('',(2.695,1.65,0.0));
#227=CARTESIAN_POINT('',(2.695,-1.65,0.1));
#228=CARTESIAN_POINT('',(2.695,-1.65,0.0));
#229=B_SPLINE_SURFACE_WITH_KNOTS('',1,1,((#225,#227),(#226,#228)),.UNSPECIFIED.,.F.,.F.,.U.,(2,2),(2,2),(0.0,0.1),(0.0,3.3),.UNSPECIFIED.);
#230=CARTESIAN_POINT('',(2.695,1.65,0.1));
#231=VERTEX_POINT('',#230);
#232=CARTESIAN_POINT('',(2.695,-1.65,0.1));
#233=VERTEX_POINT('',#232);
#234=CARTESIAN_POINT('',(2.695,1.65,0.1));
#235=DIRECTION('',(0.0,-1.0,0.0));
#236=VECTOR('',#235,3.3);
#237=LINE('',#234,#236);
#238=EDGE_CURVE('',#231,#233,#237,.T.);
#239=ORIENTED_EDGE('',*,*,#238,.F.);
#240=CARTESIAN_POINT('',(2.695,1.65,0.0));
#241=VERTEX_POINT('',#240);
#242=CARTESIAN_POINT('',(2.695,1.65,0.0));
#243=DIRECTION('',(0.0,0.0,1.0));
#244=VECTOR('',#243,0.1);
#245=LINE('',#242,#244);
#246=EDGE_CURVE('',#241,#231,#245,.T.);
#247=ORIENTED_EDGE('',*,*,#246,.F.);
#248=CARTESIAN_POINT('',(2.695,-1.65,0.0));
#249=VERTEX_POINT('',#248);
#250=CARTESIAN_POINT('',(2.695,-1.65,0.0));
#251=DIRECTION('',(0.0,1.0,0.0));
#252=VECTOR('',#251,3.3);
#253=LINE('',#250,#252);
#254=EDGE_CURVE('',#249,#241,#253,.T.);
#255=ORIENTED_EDGE('',*,*,#254,.F.);
#256=CARTESIAN_POINT('',(2.695,-1.65,0.0));
#257=DIRECTION('',(0.0,0.0,1.0));
#258=VECTOR('',#257,0.1);
#259=LINE('',#256,#258);
#260=EDGE_CURVE('',#249,#233,#259,.T.);
#261=ORIENTED_EDGE('',*,*,#260,.T.);
#262=EDGE_LOOP('',(#239,#247,#255,#261));
#263=FACE_OUTER_BOUND('',#262,.T.);
#264=ADVANCED_FACE('',(#263),#229,.T.);
#265=CARTESIAN_POINT('',(3.175,1.65,0.0));
#266=CARTESIAN_POINT('',(2.695,1.65,0.0));
#267=CARTESIAN_POINT('',(3.175,-1.65,0.0));
#268=CARTESIAN_POINT('',(2.694999999999999,-1.65,0.0));
#269=B_SPLINE_SURFACE_WITH_KNOTS('',1,1,((#265,#267),(#266,#268)),.UNSPECIFIED.,.F.,.F.,.U.,(2,2),(2,2),(0.0,0.48),(0.0,3.3),.UNSPECIFIED.);
#270=CARTESIAN_POINT('',(3.175,1.65,0.0));
#271=VERTEX_POINT('',#270);
#272=CARTESIAN_POINT('',(3.175,-1.65,0.0));
#273=VERTEX_POINT('',#272);
#274=CARTESIAN_POINT('',(3.175,1.65,0.0));
#275=DIRECTION('',(0.0,-1.0,0.0));
#276=VECTOR('',#275,3.3);
#277=LINE('',#274,#276);
#278=EDGE_CURVE('',#271,#273,#277,.T.);
#279=ORIENTED_EDGE('',*,*,#278,.T.);
#280=CARTESIAN_POINT('',(3.175,-1.65,0.0));
#281=DIRECTION('',(-1.0,0.0,0.0));
#282=VECTOR('',#281,0.48);
#283=LINE('',#280,#282);
#284=EDGE_CURVE('',#273,#249,#283,.T.);
#285=ORIENTED_EDGE('',*,*,#284,.T.);
#286=ORIENTED_EDGE('',*,*,#254,.T.);
#287=CARTESIAN_POINT('',(2.695,1.65,0.0));
#288=DIRECTION('',(1.0,0.0,0.0));
#289=VECTOR('',#288,0.48);
#290=LINE('',#287,#289);
#291=EDGE_CURVE('',#241,#271,#290,.T.);
#292=ORIENTED_EDGE('',*,*,#291,.T.);
#293=EDGE_LOOP('',(#279,#285,#286,#292));
#294=FACE_OUTER_BOUND('',#293,.T.);
#295=ADVANCED_FACE('',(#294),#269,.F.);
#296=CARTESIAN_POINT('',(3.074999999999999,1.65,0.1));
#297=CARTESIAN_POINT('',(2.695,1.65,0.1));
#298=CARTESIAN_POINT('',(3.074999999999999,-1.65,0.1));
#299=CARTESIAN_POINT('',(2.695,-1.65,0.1));
#300=B_SPLINE_SURFACE_WITH_KNOTS('',1,1,((#296,#298),(#297,#299)),.UNSPECIFIED.,.F.,.F.,.U.,(2,2),(2,2),(0.0,0.379999999999999),(0.0,3.3),.UNSPECIFIED.);
#301=CARTESIAN_POINT('',(3.074999999999999,-1.65,0.1));
#302=VERTEX_POINT('',#301);
#303=CARTESIAN_POINT('',(3.074999999999999,1.65,0.1));
#304=VERTEX_POINT('',#303);
#305=CARTESIAN_POINT('',(3.074999999999999,-1.65,0.1));
#306=DIRECTION('',(0.0,1.0,0.0));
#307=VECTOR('',#306,3.3);
#308=LINE('',#305,#307);
#309=EDGE_CURVE('',#302,#304,#308,.T.);
#310=ORIENTED_EDGE('',*,*,#309,.T.);
#311=CARTESIAN_POINT('',(3.074999999999999,1.65,0.1));
#312=DIRECTION('',(-1.0,0.0,0.0));
#313=VECTOR('',#312,0.379999999999999);
#314=LINE('',#311,#313);
#315=EDGE_CURVE('',#304,#231,#314,.T.);
#316=ORIENTED_EDGE('',*,*,#315,.T.);
#317=ORIENTED_EDGE('',*,*,#238,.T.);
#318=CARTESIAN_POINT('',(2.695,-1.65,0.1));
#319=DIRECTION('',(1.0,0.0,0.0));
#320=VECTOR('',#319,0.379999999999999);
#321=LINE('',#318,#320);
#322=EDGE_CURVE('',#233,#302,#321,.T.);
#323=ORIENTED_EDGE('',*,*,#322,.T.);
#324=EDGE_LOOP('',(#310,#316,#317,#323));
#325=FACE_OUTER_BOUND('',#324,.T.);
#326=ADVANCED_FACE('',(#325),#300,.T.);
#327=CARTESIAN_POINT('',(3.074999999999999,1.65,0.527));
#328=CARTESIAN_POINT('',(3.074999999999999,1.65,0.1));
#329=CARTESIAN_POINT('',(3.074999999999999,-1.65,0.527));
#330=CARTESIAN_POINT('',(3.074999999999999,-1.65,0.1));
#331=B_SPLINE_SURFACE_WITH_KNOTS('',1,1,((#327,#329),(#328,#330)),.UNSPECIFIED.,.F.,.F.,.U.,(2,2),(2,2),(0.0,0.427),(0.0,3.3),.UNSPECIFIED.);
#332=CARTESIAN_POINT('',(3.074999999999999,1.65,0.527));
#333=VERTEX_POINT('',#332);
#334=CARTESIAN_POINT('',(3.074999999999999,-1.65,0.527));
#335=VERTEX_POINT('',#334);
#336=CARTESIAN_POINT('',(3.074999999999999,1.65,0.527));
#337=DIRECTION('',(0.0,-1.0,0.0));
#338=VECTOR('',#337,3.3);
#339=LINE('',#336,#338);
#340=EDGE_CURVE('',#333,#335,#339,.T.);
#341=ORIENTED_EDGE('',*,*,#340,.F.);
#342=CARTESIAN_POINT('',(3.074999999999999,1.65,0.1));
#343=DIRECTION('',(0.0,0.0,1.0));
#344=VECTOR('',#343,0.427);
#345=LINE('',#342,#344);
#346=EDGE_CURVE('',#304,#333,#345,.T.);
#347=ORIENTED_EDGE('',*,*,#346,.F.);
#348=ORIENTED_EDGE('',*,*,#309,.F.);
#349=CARTESIAN_POINT('',(3.074999999999999,-1.65,0.1));
#350=DIRECTION('',(0.0,0.0,1.0));
#351=VECTOR('',#350,0.427);
#352=LINE('',#349,#351);
#353=EDGE_CURVE('',#302,#335,#352,.T.);
#354=ORIENTED_EDGE('',*,*,#353,.T.);
#355=EDGE_LOOP('',(#341,#347,#348,#354));
#356=FACE_OUTER_BOUND('',#355,.T.);
#357=ADVANCED_FACE('',(#356),#331,.T.);
#358=CARTESIAN_POINT('',(3.175,1.65,0.427));
#359=DIRECTION('',(1.0,0.0,0.0));
#360=DIRECTION('',(0.0,0.0,-1.0));
#361=AXIS2_PLACEMENT_3D('',#358,#359,#360);
#362=PLANE('',#361);
#363=CARTESIAN_POINT('',(3.175,1.65,0.627));
#364=VERTEX_POINT('',#363);
#365=CARTESIAN_POINT('',(3.175,-1.65,0.627));
#366=VERTEX_POINT('',#365);
#367=CARTESIAN_POINT('',(3.175,1.65,0.627));
#368=DIRECTION('',(0.0,-1.0,0.0));
#369=VECTOR('',#368,3.3);
#370=LINE('',#367,#369);
#371=EDGE_CURVE('',#364,#366,#370,.T.);
#372=ORIENTED_EDGE('',*,*,#371,.T.);
#373=CARTESIAN_POINT('',(3.175,-1.65,0.0));
#374=DIRECTION('',(0.0,0.0,1.0));
#375=VECTOR('',#374,0.627);
#376=LINE('',#373,#375);
#377=EDGE_CURVE('',#273,#366,#376,.T.);
#378=ORIENTED_EDGE('',*,*,#377,.F.);
#379=ORIENTED_EDGE('',*,*,#278,.F.);
#380=CARTESIAN_POINT('',(3.175,1.65,-2.775558E-017));
#381=DIRECTION('',(0.0,0.0,1.0));
#382=VECTOR('',#381,0.627);
#383=LINE('',#380,#382);
#384=EDGE_CURVE('',#271,#364,#383,.T.);
#385=ORIENTED_EDGE('',*,*,#384,.T.);
#386=EDGE_LOOP('',(#372,#378,#379,#385));
#387=FACE_OUTER_BOUND('',#386,.T.);
#388=ADVANCED_FACE('',(#387),#362,.T.);
#389=CARTESIAN_POINT('',(0.0,1.380588E-017,0.627));
#390=DIRECTION('',(0.0,0.0,1.0));
#391=DIRECTION('',(1.0,0.0,0.0));
#392=AXIS2_PLACEMENT_3D('',#389,#390,#391);
#393=PLANE('',#392);
#394=ORIENTED_EDGE('',*,*,#371,.F.);
#395=CARTESIAN_POINT('',(-3.175,1.65,0.627));
#396=VERTEX_POINT('',#395);
#397=CARTESIAN_POINT('',(-3.175,1.65,0.627));
#398=DIRECTION('',(1.0,0.0,0.0));
#399=VECTOR('',#398,6.35);
#400=LINE('',#397,#399);
#401=EDGE_CURVE('',#396,#364,#400,.T.);
#402=ORIENTED_EDGE('',*,*,#401,.F.);
#403=CARTESIAN_POINT('',(-3.175,-1.65,0.627));
#404=VERTEX_POINT('',#403);
#405=CARTESIAN_POINT('',(-3.175,-1.65,0.627));
#406=DIRECTION('',(0.0,1.0,0.0));
#407=VECTOR('',#406,3.3);
#408=LINE('',#405,#407);
#409=EDGE_CURVE('',#404,#396,#408,.T.);
#410=ORIENTED_EDGE('',*,*,#409,.F.);
#411=CARTESIAN_POINT('',(3.175,-1.65,0.627));
#412=DIRECTION('',(-1.0,0.0,0.0));
#413=VECTOR('',#412,6.35);
#414=LINE('',#411,#413);
#415=EDGE_CURVE('',#366,#404,#414,.T.);
#416=ORIENTED_EDGE('',*,*,#415,.F.);
#417=EDGE_LOOP('',(#394,#402,#410,#416));
#418=FACE_OUTER_BOUND('',#417,.T.);
#419=ADVANCED_FACE('',(#418),#393,.T.);
#420=CARTESIAN_POINT('',(0.0,-1.380588E-017,0.527));
#421=DIRECTION('',(0.0,0.0,1.0));
#422=DIRECTION('',(1.0,0.0,0.0));
#423=AXIS2_PLACEMENT_3D('',#420,#421,#422);
#424=PLANE('',#423);
#425=ORIENTED_EDGE('',*,*,#340,.T.);
#426=CARTESIAN_POINT('',(-3.074999999999999,-1.65,0.527));
#427=VERTEX_POINT('',#426);
#428=CARTESIAN_POINT('',(3.074999999999999,-1.65,0.527));
#429=DIRECTION('',(-1.0,0.0,0.0));
#430=VECTOR('',#429,6.149999999999999);
#431=LINE('',#428,#430);
#432=EDGE_CURVE('',#335,#427,#431,.T.);
#433=ORIENTED_EDGE('',*,*,#432,.T.);
#434=CARTESIAN_POINT('',(-3.074999999999999,1.65,0.527));
#435=VERTEX_POINT('',#434);
#436=CARTESIAN_POINT('',(-3.074999999999999,1.65,0.527));
#437=DIRECTION('',(0.0,-1.0,0.0));
#438=VECTOR('',#437,3.3);
#439=LINE('',#436,#438);
#440=EDGE_CURVE('',#435,#427,#439,.T.);
#441=ORIENTED_EDGE('',*,*,#440,.F.);
#442=CARTESIAN_POINT('',(-3.074999999999999,1.65,0.527));
#443=DIRECTION('',(1.0,0.0,0.0));
#444=VECTOR('',#443,6.149999999999999);
#445=LINE('',#442,#444);
#446=EDGE_CURVE('',#435,#333,#445,.T.);
#447=ORIENTED_EDGE('',*,*,#446,.T.);
#448=EDGE_LOOP('',(#425,#433,#441,#447));
#449=FACE_OUTER_BOUND('',#448,.T.);
#450=ADVANCED_FACE('',(#449),#424,.F.);
#451=CARTESIAN_POINT('',(-3.074999999999999,1.65,0.2));
#452=DIRECTION('',(1.0,0.0,0.0));
#453=DIRECTION('',(0.0,0.0,-1.0));
#454=AXIS2_PLACEMENT_3D('',#451,#452,#453);
#455=PLANE('',#454);
#456=ORIENTED_EDGE('',*,*,#440,.T.);
#457=CARTESIAN_POINT('',(-3.074999999999999,-1.65,0.1));
#458=VERTEX_POINT('',#457);
#459=CARTESIAN_POINT('',(-3.074999999999999,-1.65,0.1));
#460=DIRECTION('',(0.0,0.0,1.0));
#461=VECTOR('',#460,0.427);
#462=LINE('',#459,#461);
#463=EDGE_CURVE('',#458,#427,#462,.T.);
#464=ORIENTED_EDGE('',*,*,#463,.F.);
#465=CARTESIAN_POINT('',(-3.074999999999999,1.65,0.1));
#466=VERTEX_POINT('',#465);
#467=CARTESIAN_POINT('',(-3.074999999999999,1.65,0.1));
#468=DIRECTION('',(0.0,-1.0,0.0));
#469=VECTOR('',#468,3.3);
#470=LINE('',#467,#469);
#471=EDGE_CURVE('',#466,#458,#470,.T.);
#472=ORIENTED_EDGE('',*,*,#471,.F.);
#473=CARTESIAN_POINT('',(-3.074999999999999,1.65,0.1));
#474=DIRECTION('',(0.0,0.0,1.0));
#475=VECTOR('',#474,0.427);
#476=LINE('',#473,#475);
#477=EDGE_CURVE('',#466,#435,#476,.T.);
#478=ORIENTED_EDGE('',*,*,#477,.T.);
#479=EDGE_LOOP('',(#456,#464,#472,#478));
#480=FACE_OUTER_BOUND('',#479,.T.);
#481=ADVANCED_FACE('',(#480),#455,.T.);
#482=CARTESIAN_POINT('',(-3.175,1.65,0.0));
#483=DIRECTION('',(0.0,1.0,0.0));
#484=DIRECTION('',(0.0,0.0,1.0));
#485=AXIS2_PLACEMENT_3D('',#482,#483,#484);
#486=PLANE('',#485);
#487=CARTESIAN_POINT('',(-2.695,1.65,0.1));
#488=VERTEX_POINT('',#487);
#489=CARTESIAN_POINT('',(-3.074999999999999,1.65,0.1));
#490=DIRECTION('',(1.0,0.0,0.0));
#491=VECTOR('',#490,0.379999999999999);
#492=LINE('',#489,#491);
#493=EDGE_CURVE('',#466,#488,#492,.T.);
#494=ORIENTED_EDGE('',*,*,#493,.T.);
#495=CARTESIAN_POINT('',(-2.695,1.65,0.0));
#496=VERTEX_POINT('',#495);
#497=CARTESIAN_POINT('',(-2.695,1.65,0.0));
#498=DIRECTION('',(0.0,0.0,1.0));
#499=VECTOR('',#498,0.1);
#500=LINE('',#497,#499);
#501=EDGE_CURVE('',#496,#488,#500,.T.);
#502=ORIENTED_EDGE('',*,*,#501,.F.);
#503=CARTESIAN_POINT('',(-3.175,1.65,0.0));
#504=VERTEX_POINT('',#503);
#505=CARTESIAN_POINT('',(-2.695,1.65,0.0));
#506=DIRECTION('',(-1.0,0.0,0.0));
#507=VECTOR('',#506,0.48);
#508=LINE('',#505,#507);
#509=EDGE_CURVE('',#496,#504,#508,.T.);
#510=ORIENTED_EDGE('',*,*,#509,.T.);
#511=CARTESIAN_POINT('',(-3.175,1.65,0.0));
#512=DIRECTION('',(0.0,0.0,1.0));
#513=VECTOR('',#512,0.627);
#514=LINE('',#511,#513);
#515=EDGE_CURVE('',#504,#396,#514,.T.);
#516=ORIENTED_EDGE('',*,*,#515,.T.);
#517=ORIENTED_EDGE('',*,*,#401,.T.);
#518=ORIENTED_EDGE('',*,*,#384,.F.);
#519=ORIENTED_EDGE('',*,*,#291,.F.);
#520=ORIENTED_EDGE('',*,*,#246,.T.);
#521=ORIENTED_EDGE('',*,*,#315,.F.);
#522=ORIENTED_EDGE('',*,*,#346,.T.);
#523=ORIENTED_EDGE('',*,*,#446,.F.);
#524=ORIENTED_EDGE('',*,*,#477,.F.);
#525=EDGE_LOOP('',(#494,#502,#510,#516,#517,#518,#519,#520,#521,#522,#523,#524));
#526=FACE_OUTER_BOUND('',#525,.T.);
#527=ADVANCED_FACE('',(#526),#486,.T.);
#528=CARTESIAN_POINT('',(-2.695,1.65,0.0));
#529=DIRECTION('',(1.0,0.0,0.0));
#530=DIRECTION('',(0.0,0.0,-1.0));
#531=AXIS2_PLACEMENT_3D('',#528,#529,#530);
#532=PLANE('',#531);
#533=CARTESIAN_POINT('',(-2.695,-1.65,0.1));
#534=VERTEX_POINT('',#533);
#535=CARTESIAN_POINT('',(-2.695,1.65,0.1));
#536=DIRECTION('',(0.0,-1.0,0.0));
#537=VECTOR('',#536,3.3);
#538=LINE('',#535,#537);
#539=EDGE_CURVE('',#488,#534,#538,.T.);
#540=ORIENTED_EDGE('',*,*,#539,.T.);
#541=CARTESIAN_POINT('',(-2.695,-1.65,0.0));
#542=VERTEX_POINT('',#541);
#543=CARTESIAN_POINT('',(-2.695,-1.65,0.0));
#544=DIRECTION('',(0.0,0.0,1.0));
#545=VECTOR('',#544,0.1);
#546=LINE('',#543,#545);
#547=EDGE_CURVE('',#542,#534,#546,.T.);
#548=ORIENTED_EDGE('',*,*,#547,.F.);
#549=CARTESIAN_POINT('',(-2.695,-1.65,0.0));
#550=DIRECTION('',(0.0,1.0,0.0));
#551=VECTOR('',#550,3.3);
#552=LINE('',#549,#551);
#553=EDGE_CURVE('',#542,#496,#552,.T.);
#554=ORIENTED_EDGE('',*,*,#553,.T.);
#555=ORIENTED_EDGE('',*,*,#501,.T.);
#556=EDGE_LOOP('',(#540,#548,#554,#555));
#557=FACE_OUTER_BOUND('',#556,.T.);
#558=ADVANCED_FACE('',(#557),#532,.T.);
#559=CARTESIAN_POINT('',(-2.695,-1.65,0.0));
#560=DIRECTION('',(0.0,-1.0,0.0));
#561=DIRECTION('',(0.0,0.0,-1.0));
#562=AXIS2_PLACEMENT_3D('',#559,#560,#561);
#563=PLANE('',#562);
#564=CARTESIAN_POINT('',(-2.695,-1.65,0.1));
#565=DIRECTION('',(-1.0,0.0,0.0));
#566=VECTOR('',#565,0.379999999999999);
#567=LINE('',#564,#566);
#568=EDGE_CURVE('',#534,#458,#567,.T.);
#569=ORIENTED_EDGE('',*,*,#568,.T.);
#570=ORIENTED_EDGE('',*,*,#463,.T.);
#571=ORIENTED_EDGE('',*,*,#432,.F.);
#572=ORIENTED_EDGE('',*,*,#353,.F.);
#573=ORIENTED_EDGE('',*,*,#322,.F.);
#574=ORIENTED_EDGE('',*,*,#260,.F.);
#575=ORIENTED_EDGE('',*,*,#284,.F.);
#576=ORIENTED_EDGE('',*,*,#377,.T.);
#577=ORIENTED_EDGE('',*,*,#415,.T.);
#578=CARTESIAN_POINT('',(-3.175,-1.65,0.0));
#579=VERTEX_POINT('',#578);
#580=CARTESIAN_POINT('',(-3.175,-1.65,0.0));
#581=DIRECTION('',(0.0,0.0,1.0));
#582=VECTOR('',#581,0.627);
#583=LINE('',#580,#582);
#584=EDGE_CURVE('',#579,#404,#583,.T.);
#585=ORIENTED_EDGE('',*,*,#584,.F.);
#586=CARTESIAN_POINT('',(-3.175,-1.65,0.0));
#587=DIRECTION('',(1.0,0.0,0.0));
#588=VECTOR('',#587,0.48);
#589=LINE('',#586,#588);
#590=EDGE_CURVE('',#579,#542,#589,.T.);
#591=ORIENTED_EDGE('',*,*,#590,.T.);
#592=ORIENTED_EDGE('',*,*,#547,.T.);
#593=EDGE_LOOP('',(#569,#570,#571,#572,#573,#574,#575,#576,#577,#585,#591,#592));
#594=FACE_OUTER_BOUND('',#593,.T.);
#595=ADVANCED_FACE('',(#594),#563,.T.);
#596=CARTESIAN_POINT('',(-3.175,-1.65,0.0));
#597=DIRECTION('',(-1.0,0.0,0.0));
#598=DIRECTION('',(0.0,0.0,1.0));
#599=AXIS2_PLACEMENT_3D('',#596,#597,#598);
#600=PLANE('',#599);
#601=ORIENTED_EDGE('',*,*,#515,.F.);
#602=CARTESIAN_POINT('',(-3.175,1.65,0.0));
#603=DIRECTION('',(0.0,-1.0,0.0));
#604=VECTOR('',#603,3.3);
#605=LINE('',#602,#604);
#606=EDGE_CURVE('',#504,#579,#605,.T.);
#607=ORIENTED_EDGE('',*,*,#606,.T.);
#608=ORIENTED_EDGE('',*,*,#584,.T.);
#609=ORIENTED_EDGE('',*,*,#409,.T.);
#610=EDGE_LOOP('',(#601,#607,#608,#609));
#611=FACE_OUTER_BOUND('',#610,.T.);
#612=ADVANCED_FACE('',(#611),#600,.T.);
#613=CARTESIAN_POINT('',(-2.935,0.0,0.0));
#614=DIRECTION('',(0.0,0.0,1.0));
#615=DIRECTION('',(1.0,0.0,0.0));
#616=AXIS2_PLACEMENT_3D('',#613,#614,#615);
#617=PLANE('',#616);
#618=ORIENTED_EDGE('',*,*,#606,.F.);
#619=ORIENTED_EDGE('',*,*,#509,.F.);
#620=ORIENTED_EDGE('',*,*,#553,.F.);
#621=ORIENTED_EDGE('',*,*,#590,.F.);
#622=EDGE_LOOP('',(#618,#619,#620,#621));
#623=FACE_OUTER_BOUND('',#622,.T.);
#624=ADVANCED_FACE('',(#623),#617,.F.);
#625=CARTESIAN_POINT('',(-2.935,0.0,0.1));
#626=DIRECTION('',(0.0,0.0,1.0));
#627=DIRECTION('',(1.0,0.0,0.0));
#628=AXIS2_PLACEMENT_3D('',#625,#626,#627);
#629=PLANE('',#628);
#630=ORIENTED_EDGE('',*,*,#471,.T.);
#631=ORIENTED_EDGE('',*,*,#568,.F.);
#632=ORIENTED_EDGE('',*,*,#539,.F.);
#633=ORIENTED_EDGE('',*,*,#493,.F.);
#634=EDGE_LOOP('',(#630,#631,#632,#633));
#635=FACE_OUTER_BOUND('',#634,.T.);
#636=ADVANCED_FACE('',(#635),#629,.T.);
#637=CLOSED_SHELL('',(#264,#295,#326,#357,#388,#419,#450,#481,#527,#558,#595,#612,#624,#636));
#638=MANIFOLD_SOLID_BREP('1BAF',#637);
#639=COLOUR_RGB('251',0.464,0.464,0.464);
#640=SURFACE_STYLE_USAGE(.BOTH.,#641);
#641=SURFACE_SIDE_STYLE('NONE',(#642));
#642=SURFACE_STYLE_FILL_AREA(#643);
#643=FILL_AREA_STYLE('NONE',(#644));
#644=FILL_AREA_STYLE_COLOUR('NONE',#639);
#645=PRESENTATION_STYLE_ASSIGNMENT((#640));
#646=STYLED_ITEM('NONE',(#645),#638);
#647=ADVANCED_BREP_SHAPE_REPRESENTATION('ABSR1',(#214,#638),#28);
#648=SHAPE_REPRESENTATION_RELATIONSHIP('SRRPL1','',#647,#62);
ENDSEC;
END-ISO-10303-21;
