ISO-10303-21;
HEADER;
/****************************************************************
 * Generated by software with PDE/Lib inside                    *
 * PDElib Version v51a, created Mon 11/23/2009                  *
 * ITI Transcendata (http://www.transcendata.com/)              *
 ****************************************************************/
FILE_DESCRIPTION((''),'2;1');
FILE_NAME('RESC2013X84N.stp','2011-06-23T16:11:25',(''),(''),'Mechanical Desktop 2011','Mechanical Desktop 2011',', , ');
FILE_SCHEMA(('AUTOMOTIVE_DESIGN { 1 2 10303 214 1 1 1 1 }'));
ENDSEC;
DATA;
#10=(NAMED_UNIT(*)PLANE_ANGLE_UNIT()SI_UNIT($,.RADIAN.));
#11=DIMENSIONAL_EXPONENTS(0.0,0.0,0.0,0.0,0.0,0.0,0.0);
#12=PLANE_ANGLE_MEASURE_WITH_UNIT(PLANE_ANGLE_MEASURE(0.017453292500000),#10);
#16=(CONVERSION_BASED_UNIT('DEGREE',#12)NAMED_UNIT(#11)PLANE_ANGLE_UNIT());
#20=(NAMED_UNIT(*)SI_UNIT($,.STERADIAN.)SOLID_ANGLE_UNIT());
#24=(LENGTH_UNIT()NAMED_UNIT(*)SI_UNIT(.MILLI.,.METRE.));
#26=UNCERTAINTY_MEASURE_WITH_UNIT(LENGTH_MEASURE(0.000001000000000),#24,'DISTANCE_ACCURACY_VALUE','');
#28=(GEOMETRIC_REPRESENTATION_CONTEXT(3)GLOBAL_UNCERTAINTY_ASSIGNED_CONTEXT((#26))GLOBAL_UNIT_ASSIGNED_CONTEXT((#16,#20,#24))REPRESENTATION_CONTEXT('','3D'));
#29=APPLICATION_CONTEXT('automotive design');
#30=APPLICATION_PROTOCOL_DEFINITION('INTERNATIONAL_STANDARD','automotive_design',1998,#29);
#31=PRODUCT_CONTEXT('3D Mechanical Parts',#29,'mechanical');
#32=PRODUCT('Product','Product','',(#31));
#33=PRODUCT_RELATED_PRODUCT_CATEGORY('part',$,(#32));
#34=PRODUCT_CATEGORY('part',$);
#35=PERSON('1','Design','Joe',$,$,$);
#36=ORGANIZATION($,'None','None');
#37=PERSON_AND_ORGANIZATION(#35,#36);
#38=PERSON_AND_ORGANIZATION_ROLE('design_owner');
#39=APPLIED_PERSON_AND_ORGANIZATION_ASSIGNMENT(#37,#38,(#32));
#40=PRODUCT_DEFINITION_FORMATION_WITH_SPECIFIED_SOURCE('None','',#32,.BOUGHT.);
#41=PERSON('2','Creator','Joe',$,$,$);
#42=ORGANIZATION($,'None','None');
#43=PERSON_AND_ORGANIZATION(#41,#42);
#44=PERSON_AND_ORGANIZATION_ROLE('creator');
#45=APPLIED_PERSON_AND_ORGANIZATION_ASSIGNMENT(#43,#44,(#40));
#46=PERSON('3','Supplier','Joe',$,$,$);
#47=ORGANIZATION($,'None','None');
#48=PERSON_AND_ORGANIZATION(#46,#47);
#49=PERSON_AND_ORGANIZATION_ROLE('design_supplier');
#50=APPLIED_PERSON_AND_ORGANIZATION_ASSIGNMENT(#48,#49,(#40));
#51=PRODUCT_DEFINITION_CONTEXT('part definition',#29,'design');
#52=PRODUCT_DEFINITION('None','',#40,#51);
#53=PERSON('4','Creator','Joe',$,$,$);
#54=ORGANIZATION($,'None','None');
#55=PERSON_AND_ORGANIZATION(#53,#54);
#56=PERSON_AND_ORGANIZATION_ROLE('creator');
#57=APPLIED_PERSON_AND_ORGANIZATION_ASSIGNMENT(#55,#56,(#52));
#58=CARTESIAN_POINT('NONE',(0.0,0.0,0.0));
#59=DIRECTION('NONE',(0.0,0.0,1.0));
#60=DIRECTION('NONE',(1.0,0.0,0.0));
#61=AXIS2_PLACEMENT_3D('NONE',#58,#59,#60);
#62=SHAPE_REPRESENTATION('SR1',(#61),#28);
#63=PRODUCT_DEFINITION_SHAPE('PDS1','Test Part',#52);
#64=SHAPE_DEFINITION_REPRESENTATION(#63,#62);
#65=CARTESIAN_POINT('',(0.825500000000000,-5.551115E-017,0.840000000000000));
#66=DIRECTION('',(0.0,0.0,1.0));
#67=DIRECTION('',(0.0,-1.0,0.0));
#68=AXIS2_PLACEMENT_3D('',#65,#66,#67);
#69=PLANE('',#68);
#70=CARTESIAN_POINT('',(0.635000000000000,-0.635000000000000,0.840000000000000));
#71=VERTEX_POINT('',#70);
#72=CARTESIAN_POINT('',(1.016000000000000,-0.635000000000000,0.840000000000000));
#73=VERTEX_POINT('',#72);
#74=CARTESIAN_POINT('',(0.635000000000000,-0.635000000000000,0.840000000000000));
#75=DIRECTION('',(1.0,0.0,0.0));
#76=VECTOR('',#75,0.381000000000000);
#77=LINE('',#74,#76);
#78=EDGE_CURVE('',#71,#73,#77,.T.);
#79=ORIENTED_EDGE('',*,*,#78,.T.);
#80=CARTESIAN_POINT('',(1.016000000000000,0.635000000000000,0.840000000000000));
#81=VERTEX_POINT('',#80);
#82=CARTESIAN_POINT('',(1.016000000000000,-0.635000000000000,0.840000000000000));
#83=DIRECTION('',(0.0,1.0,0.0));
#84=VECTOR('',#83,1.270000000000000);
#85=LINE('',#82,#84);
#86=EDGE_CURVE('',#73,#81,#85,.T.);
#87=ORIENTED_EDGE('',*,*,#86,.T.);
#88=CARTESIAN_POINT('',(0.635000000000000,0.635000000000000,0.840000000000000));
#89=VERTEX_POINT('',#88);
#90=CARTESIAN_POINT('',(1.016000000000000,0.635000000000000,0.840000000000000));
#91=DIRECTION('',(-1.0,0.0,0.0));
#92=VECTOR('',#91,0.381000000000000);
#93=LINE('',#90,#92);
#94=EDGE_CURVE('',#81,#89,#93,.T.);
#95=ORIENTED_EDGE('',*,*,#94,.T.);
#96=CARTESIAN_POINT('',(0.635000000000000,0.635000000000000,0.840000000000000));
#97=DIRECTION('',(0.0,-1.0,0.0));
#98=VECTOR('',#97,1.270000000000000);
#99=LINE('',#96,#98);
#100=EDGE_CURVE('',#89,#71,#99,.T.);
#101=ORIENTED_EDGE('',*,*,#100,.T.);
#102=EDGE_LOOP('',(#79,#87,#95,#101));
#103=FACE_OUTER_BOUND('',#102,.T.);
#104=ADVANCED_FACE('',(#103),#69,.T.);
#105=CARTESIAN_POINT('',(0.825500000000000,-5.551115E-017,0.0));
#106=DIRECTION('',(0.0,0.0,1.0));
#107=DIRECTION('',(0.0,-1.0,0.0));
#108=AXIS2_PLACEMENT_3D('',#105,#106,#107);
#109=PLANE('',#108);
#110=CARTESIAN_POINT('',(1.016000000000000,-0.635000000000000,0.0));
#111=VERTEX_POINT('',#110);
#112=CARTESIAN_POINT('',(0.635000000000000,-0.635000000000000,0.0));
#113=VERTEX_POINT('',#112);
#114=CARTESIAN_POINT('',(1.016000000000000,-0.635000000000000,0.0));
#115=DIRECTION('',(-1.0,0.0,0.0));
#116=VECTOR('',#115,0.381000000000000);
#117=LINE('',#114,#116);
#118=EDGE_CURVE('',#111,#113,#117,.T.);
#119=ORIENTED_EDGE('',*,*,#118,.T.);
#120=CARTESIAN_POINT('',(0.635000000000000,0.635000000000000,0.0));
#121=VERTEX_POINT('',#120);
#122=CARTESIAN_POINT('',(0.635000000000000,-0.635000000000000,0.0));
#123=DIRECTION('',(0.0,1.0,0.0));
#124=VECTOR('',#123,1.270000000000000);
#125=LINE('',#122,#124);
#126=EDGE_CURVE('',#113,#121,#125,.T.);
#127=ORIENTED_EDGE('',*,*,#126,.T.);
#128=CARTESIAN_POINT('',(1.016000000000000,0.635000000000000,0.0));
#129=VERTEX_POINT('',#128);
#130=CARTESIAN_POINT('',(0.635000000000000,0.635000000000000,0.0));
#131=DIRECTION('',(1.0,0.0,0.0));
#132=VECTOR('',#131,0.381000000000000);
#133=LINE('',#130,#132);
#134=EDGE_CURVE('',#121,#129,#133,.T.);
#135=ORIENTED_EDGE('',*,*,#134,.T.);
#136=CARTESIAN_POINT('',(1.016000000000000,0.635000000000000,0.0));
#137=DIRECTION('',(0.0,-1.0,0.0));
#138=VECTOR('',#137,1.270000000000000);
#139=LINE('',#136,#138);
#140=EDGE_CURVE('',#129,#111,#139,.T.);
#141=ORIENTED_EDGE('',*,*,#140,.T.);
#142=EDGE_LOOP('',(#119,#127,#135,#141));
#143=FACE_OUTER_BOUND('',#142,.T.);
#144=ADVANCED_FACE('',(#143),#109,.F.);
#145=CARTESIAN_POINT('',(0.635000000000000,0.0,0.420000000000000));
#146=DIRECTION('',(1.0,0.0,0.0));
#147=DIRECTION('',(0.0,0.0,1.0));
#148=AXIS2_PLACEMENT_3D('',#145,#146,#147);
#149=PLANE('',#148);
#150=CARTESIAN_POINT('',(0.635000000000000,0.635000000000000,0.840000000000000));
#151=DIRECTION('',(0.0,0.0,-1.0));
#152=VECTOR('',#151,0.840000000000000);
#153=LINE('',#150,#152);
#154=EDGE_CURVE('',#89,#121,#153,.T.);
#155=ORIENTED_EDGE('',*,*,#154,.T.);
#156=ORIENTED_EDGE('',*,*,#126,.F.);
#157=CARTESIAN_POINT('',(0.635000000000000,-0.635000000000000,0.840000000000000));
#158=DIRECTION('',(0.0,0.0,-1.0));
#159=VECTOR('',#158,0.840000000000000);
#160=LINE('',#157,#159);
#161=EDGE_CURVE('',#71,#113,#160,.T.);
#162=ORIENTED_EDGE('',*,*,#161,.F.);
#163=ORIENTED_EDGE('',*,*,#100,.F.);
#164=EDGE_LOOP('',(#155,#156,#162,#163));
#165=FACE_OUTER_BOUND('',#164,.T.);
#166=ADVANCED_FACE('',(#165),#149,.F.);
#167=CARTESIAN_POINT('',(0.825500000000000,0.635000000000000,0.420000000000000));
#168=DIRECTION('',(0.0,-1.0,0.0));
#169=DIRECTION('',(0.0,0.0,-1.0));
#170=AXIS2_PLACEMENT_3D('',#167,#168,#169);
#171=PLANE('',#170);
#172=CARTESIAN_POINT('',(1.016000000000000,0.635000000000000,0.840000000000000));
#173=DIRECTION('',(0.0,0.0,-1.0));
#174=VECTOR('',#173,0.840000000000000);
#175=LINE('',#172,#174);
#176=EDGE_CURVE('',#81,#129,#175,.T.);
#177=ORIENTED_EDGE('',*,*,#176,.T.);
#178=ORIENTED_EDGE('',*,*,#134,.F.);
#179=ORIENTED_EDGE('',*,*,#154,.F.);
#180=ORIENTED_EDGE('',*,*,#94,.F.);
#181=EDGE_LOOP('',(#177,#178,#179,#180));
#182=FACE_OUTER_BOUND('',#181,.T.);
#183=ADVANCED_FACE('',(#182),#171,.F.);
#184=CARTESIAN_POINT('',(1.016000000000000,-1.110223E-016,0.420000000000000));
#185=DIRECTION('',(-1.0,0.0,0.0));
#186=DIRECTION('',(0.0,0.0,-1.0));
#187=AXIS2_PLACEMENT_3D('',#184,#185,#186);
#188=PLANE('',#187);
#189=CARTESIAN_POINT('',(1.016000000000000,-0.635000000000000,0.840000000000000));
#190=DIRECTION('',(0.0,0.0,-1.0));
#191=VECTOR('',#190,0.840000000000000);
#192=LINE('',#189,#191);
#193=EDGE_CURVE('',#73,#111,#192,.T.);
#194=ORIENTED_EDGE('',*,*,#193,.T.);
#195=ORIENTED_EDGE('',*,*,#140,.F.);
#196=ORIENTED_EDGE('',*,*,#176,.F.);
#197=ORIENTED_EDGE('',*,*,#86,.F.);
#198=EDGE_LOOP('',(#194,#195,#196,#197));
#199=FACE_OUTER_BOUND('',#198,.T.);
#200=ADVANCED_FACE('',(#199),#188,.F.);
#201=CARTESIAN_POINT('',(0.825500000000000,-0.635000000000000,0.420000000000000));
#202=DIRECTION('',(0.0,1.0,0.0));
#203=DIRECTION('',(0.0,0.0,1.0));
#204=AXIS2_PLACEMENT_3D('',#201,#202,#203);
#205=PLANE('',#204);
#206=ORIENTED_EDGE('',*,*,#161,.T.);
#207=ORIENTED_EDGE('',*,*,#118,.F.);
#208=ORIENTED_EDGE('',*,*,#193,.F.);
#209=ORIENTED_EDGE('',*,*,#78,.F.);
#210=EDGE_LOOP('',(#206,#207,#208,#209));
#211=FACE_OUTER_BOUND('',#210,.T.);
#212=ADVANCED_FACE('',(#211),#205,.F.);
#213=CLOSED_SHELL('',(#104,#144,#166,#183,#200,#212));
#214=MANIFOLD_SOLID_BREP('4C9',#213);
#215=COLOUR_RGB('254',0.866000000000000,0.866000000000000,0.866000000000000);
#216=SURFACE_STYLE_USAGE(.BOTH.,#217);
#217=SURFACE_SIDE_STYLE('NONE',(#218));
#218=SURFACE_STYLE_FILL_AREA(#219);
#219=FILL_AREA_STYLE('NONE',(#220));
#220=FILL_AREA_STYLE_COLOUR('NONE',#215);
#221=PRESENTATION_STYLE_ASSIGNMENT((#216));
#222=STYLED_ITEM('NONE',(#221),#214);
#223=MECHANICAL_DESIGN_GEOMETRIC_PRESENTATION_REPRESENTATION('NONE',(#222,#375,#533),#28);
#224=PRESENTATION_LAYER_ASSIGNMENT('3D','None',(#214,#374,#525));
#225=CARTESIAN_POINT('',(-0.825500000000000,1.665335E-016,0.840000000000000));
#226=DIRECTION('',(0.0,0.0,1.0));
#227=DIRECTION('',(0.0,-1.0,0.0));
#228=AXIS2_PLACEMENT_3D('',#225,#226,#227);
#229=PLANE('',#228);
#230=CARTESIAN_POINT('',(-1.016000000000000,-0.635000000000000,0.840000000000000));
#231=VERTEX_POINT('',#230);
#232=CARTESIAN_POINT('',(-0.635000000000000,-0.635000000000000,0.840000000000000));
#233=VERTEX_POINT('',#232);
#234=CARTESIAN_POINT('',(-1.016000000000000,-0.635000000000000,0.840000000000000));
#235=DIRECTION('',(1.0,0.0,0.0));
#236=VECTOR('',#235,0.381000000000000);
#237=LINE('',#234,#236);
#238=EDGE_CURVE('',#231,#233,#237,.T.);
#239=ORIENTED_EDGE('',*,*,#238,.T.);
#240=CARTESIAN_POINT('',(-0.635000000000000,0.635000000000000,0.840000000000000));
#241=VERTEX_POINT('',#240);
#242=CARTESIAN_POINT('',(-0.635000000000000,-0.635000000000000,0.840000000000000));
#243=DIRECTION('',(0.0,1.0,0.0));
#244=VECTOR('',#243,1.270000000000000);
#245=LINE('',#242,#244);
#246=EDGE_CURVE('',#233,#241,#245,.T.);
#247=ORIENTED_EDGE('',*,*,#246,.T.);
#248=CARTESIAN_POINT('',(-1.016000000000000,0.635000000000000,0.840000000000000));
#249=VERTEX_POINT('',#248);
#250=CARTESIAN_POINT('',(-0.635000000000000,0.635000000000000,0.840000000000000));
#251=DIRECTION('',(-1.0,0.0,0.0));
#252=VECTOR('',#251,0.381000000000000);
#253=LINE('',#250,#252);
#254=EDGE_CURVE('',#241,#249,#253,.T.);
#255=ORIENTED_EDGE('',*,*,#254,.T.);
#256=CARTESIAN_POINT('',(-1.016000000000000,0.635000000000000,0.840000000000000));
#257=DIRECTION('',(0.0,-1.0,0.0));
#258=VECTOR('',#257,1.270000000000000);
#259=LINE('',#256,#258);
#260=EDGE_CURVE('',#249,#231,#259,.T.);
#261=ORIENTED_EDGE('',*,*,#260,.T.);
#262=EDGE_LOOP('',(#239,#247,#255,#261));
#263=FACE_OUTER_BOUND('',#262,.T.);
#264=ADVANCED_FACE('',(#263),#229,.T.);
#265=CARTESIAN_POINT('',(-0.825500000000000,1.665335E-016,0.0));
#266=DIRECTION('',(0.0,0.0,1.0));
#267=DIRECTION('',(0.0,-1.0,0.0));
#268=AXIS2_PLACEMENT_3D('',#265,#266,#267);
#269=PLANE('',#268);
#270=CARTESIAN_POINT('',(-0.635000000000000,-0.635000000000000,0.0));
#271=VERTEX_POINT('',#270);
#272=CARTESIAN_POINT('',(-1.016000000000000,-0.635000000000000,0.0));
#273=VERTEX_POINT('',#272);
#274=CARTESIAN_POINT('',(-0.635000000000000,-0.635000000000000,0.0));
#275=DIRECTION('',(-1.0,0.0,0.0));
#276=VECTOR('',#275,0.381000000000000);
#277=LINE('',#274,#276);
#278=EDGE_CURVE('',#271,#273,#277,.T.);
#279=ORIENTED_EDGE('',*,*,#278,.T.);
#280=CARTESIAN_POINT('',(-1.016000000000000,0.635000000000000,0.0));
#281=VERTEX_POINT('',#280);
#282=CARTESIAN_POINT('',(-1.016000000000000,-0.635000000000000,0.0));
#283=DIRECTION('',(0.0,1.0,0.0));
#284=VECTOR('',#283,1.270000000000000);
#285=LINE('',#282,#284);
#286=EDGE_CURVE('',#273,#281,#285,.T.);
#287=ORIENTED_EDGE('',*,*,#286,.T.);
#288=CARTESIAN_POINT('',(-0.635000000000000,0.635000000000000,0.0));
#289=VERTEX_POINT('',#288);
#290=CARTESIAN_POINT('',(-1.016000000000000,0.635000000000000,0.0));
#291=DIRECTION('',(1.0,0.0,0.0));
#292=VECTOR('',#291,0.381000000000000);
#293=LINE('',#290,#292);
#294=EDGE_CURVE('',#281,#289,#293,.T.);
#295=ORIENTED_EDGE('',*,*,#294,.T.);
#296=CARTESIAN_POINT('',(-0.635000000000000,0.635000000000000,0.0));
#297=DIRECTION('',(0.0,-1.0,0.0));
#298=VECTOR('',#297,1.270000000000000);
#299=LINE('',#296,#298);
#300=EDGE_CURVE('',#289,#271,#299,.T.);
#301=ORIENTED_EDGE('',*,*,#300,.T.);
#302=EDGE_LOOP('',(#279,#287,#295,#301));
#303=FACE_OUTER_BOUND('',#302,.T.);
#304=ADVANCED_FACE('',(#303),#269,.F.);
#305=CARTESIAN_POINT('',(-1.016000000000000,1.665335E-016,0.420000000000000));
#306=DIRECTION('',(1.0,0.0,0.0));
#307=DIRECTION('',(0.0,0.0,1.0));
#308=AXIS2_PLACEMENT_3D('',#305,#306,#307);
#309=PLANE('',#308);
#310=CARTESIAN_POINT('',(-1.016000000000000,0.635000000000000,0.840000000000000));
#311=DIRECTION('',(0.0,0.0,-1.0));
#312=VECTOR('',#311,0.840000000000000);
#313=LINE('',#310,#312);
#314=EDGE_CURVE('',#249,#281,#313,.T.);
#315=ORIENTED_EDGE('',*,*,#314,.T.);
#316=ORIENTED_EDGE('',*,*,#286,.F.);
#317=CARTESIAN_POINT('',(-1.016000000000000,-0.635000000000000,0.840000000000000));
#318=DIRECTION('',(0.0,0.0,-1.0));
#319=VECTOR('',#318,0.840000000000000);
#320=LINE('',#317,#319);
#321=EDGE_CURVE('',#231,#273,#320,.T.);
#322=ORIENTED_EDGE('',*,*,#321,.F.);
#323=ORIENTED_EDGE('',*,*,#260,.F.);
#324=EDGE_LOOP('',(#315,#316,#322,#323));
#325=FACE_OUTER_BOUND('',#324,.T.);
#326=ADVANCED_FACE('',(#325),#309,.F.);
#327=CARTESIAN_POINT('',(-0.825500000000000,0.635000000000000,0.420000000000000));
#328=DIRECTION('',(0.0,-1.0,0.0));
#329=DIRECTION('',(0.0,0.0,-1.0));
#330=AXIS2_PLACEMENT_3D('',#327,#328,#329);
#331=PLANE('',#330);
#332=CARTESIAN_POINT('',(-0.635000000000000,0.635000000000000,0.840000000000000));
#333=DIRECTION('',(0.0,0.0,-1.0));
#334=VECTOR('',#333,0.840000000000000);
#335=LINE('',#332,#334);
#336=EDGE_CURVE('',#241,#289,#335,.T.);
#337=ORIENTED_EDGE('',*,*,#336,.T.);
#338=ORIENTED_EDGE('',*,*,#294,.F.);
#339=ORIENTED_EDGE('',*,*,#314,.F.);
#340=ORIENTED_EDGE('',*,*,#254,.F.);
#341=EDGE_LOOP('',(#337,#338,#339,#340));
#342=FACE_OUTER_BOUND('',#341,.T.);
#343=ADVANCED_FACE('',(#342),#331,.F.);
#344=CARTESIAN_POINT('',(-0.635000000000000,1.665335E-016,0.420000000000000));
#345=DIRECTION('',(-1.0,0.0,0.0));
#346=DIRECTION('',(0.0,0.0,-1.0));
#347=AXIS2_PLACEMENT_3D('',#344,#345,#346);
#348=PLANE('',#347);
#349=CARTESIAN_POINT('',(-0.635000000000000,-0.635000000000000,0.840000000000000));
#350=DIRECTION('',(0.0,0.0,-1.0));
#351=VECTOR('',#350,0.840000000000000);
#352=LINE('',#349,#351);
#353=EDGE_CURVE('',#233,#271,#352,.T.);
#354=ORIENTED_EDGE('',*,*,#353,.T.);
#355=ORIENTED_EDGE('',*,*,#300,.F.);
#356=ORIENTED_EDGE('',*,*,#336,.F.);
#357=ORIENTED_EDGE('',*,*,#246,.F.);
#358=EDGE_LOOP('',(#354,#355,#356,#357));
#359=FACE_OUTER_BOUND('',#358,.T.);
#360=ADVANCED_FACE('',(#359),#348,.F.);
#361=CARTESIAN_POINT('',(-0.825500000000000,-0.635000000000000,0.420000000000000));
#362=DIRECTION('',(0.0,1.0,0.0));
#363=DIRECTION('',(0.0,0.0,1.0));
#364=AXIS2_PLACEMENT_3D('',#361,#362,#363);
#365=PLANE('',#364);
#366=ORIENTED_EDGE('',*,*,#321,.T.);
#367=ORIENTED_EDGE('',*,*,#278,.F.);
#368=ORIENTED_EDGE('',*,*,#353,.F.);
#369=ORIENTED_EDGE('',*,*,#238,.F.);
#370=EDGE_LOOP('',(#366,#367,#368,#369));
#371=FACE_OUTER_BOUND('',#370,.T.);
#372=ADVANCED_FACE('',(#371),#365,.F.);
#373=CLOSED_SHELL('',(#264,#304,#326,#343,#360,#372));
#374=MANIFOLD_SOLID_BREP('4BE',#373);
#375=STYLED_ITEM('NONE',(#221),#374);
#376=CARTESIAN_POINT('',(-0.634999999999999,-1.110223E-016,0.420000000000000));
#377=DIRECTION('',(-1.0,0.0,0.0));
#378=DIRECTION('',(0.0,0.0,-1.0));
#379=AXIS2_PLACEMENT_3D('',#376,#377,#378);
#380=PLANE('',#379);
#381=CARTESIAN_POINT('',(-0.635000000000000,-0.635000000000000,0.840000000000000));
#382=VERTEX_POINT('',#381);
#383=CARTESIAN_POINT('',(-0.635000000000000,-0.635000000000000,0.0));
#384=VERTEX_POINT('',#383);
#385=CARTESIAN_POINT('',(-0.635000000000000,-0.635000000000000,0.840000000000000));
#386=DIRECTION('',(0.0,0.0,-1.0));
#387=VECTOR('',#386,0.840000000000000);
#388=LINE('',#385,#387);
#389=EDGE_CURVE('',#382,#384,#388,.T.);
#390=ORIENTED_EDGE('',*,*,#389,.F.);
#391=CARTESIAN_POINT('',(-0.634999999999999,0.635000000000000,0.840000000000000));
#392=VERTEX_POINT('',#391);
#393=CARTESIAN_POINT('',(-0.634999999999999,0.635000000000000,0.840000000000000));
#394=DIRECTION('',(0.0,-1.0,0.0));
#395=VECTOR('',#394,1.270000000000000);
#396=LINE('',#393,#395);
#397=EDGE_CURVE('',#392,#382,#396,.T.);
#398=ORIENTED_EDGE('',*,*,#397,.F.);
#399=CARTESIAN_POINT('',(-0.634999999999999,0.635000000000000,0.0));
#400=VERTEX_POINT('',#399);
#401=CARTESIAN_POINT('',(-0.634999999999999,0.635000000000000,0.0));
#402=DIRECTION('',(0.0,0.0,1.0));
#403=VECTOR('',#402,0.840000000000000);
#404=LINE('',#401,#403);
#405=EDGE_CURVE('',#400,#392,#404,.T.);
#406=ORIENTED_EDGE('',*,*,#405,.F.);
#407=CARTESIAN_POINT('',(-0.634999999999999,-0.635000000000000,0.0));
#408=DIRECTION('',(0.0,1.0,0.0));
#409=VECTOR('',#408,1.270000000000000);
#410=LINE('',#407,#409);
#411=EDGE_CURVE('',#384,#400,#410,.T.);
#412=ORIENTED_EDGE('',*,*,#411,.F.);
#413=EDGE_LOOP('',(#390,#398,#406,#412));
#414=FACE_OUTER_BOUND('',#413,.T.);
#415=ADVANCED_FACE('',(#414),#380,.T.);
#416=CARTESIAN_POINT('',(0.635000000000000,-2.220446E-016,0.420000000000000));
#417=DIRECTION('',(1.0,0.0,0.0));
#418=DIRECTION('',(0.0,0.0,1.0));
#419=AXIS2_PLACEMENT_3D('',#416,#417,#418);
#420=PLANE('',#419);
#421=CARTESIAN_POINT('',(0.635000000000000,0.635000000000000,0.840000000000000));
#422=VERTEX_POINT('',#421);
#423=CARTESIAN_POINT('',(0.635000000000000,0.635000000000000,0.0));
#424=VERTEX_POINT('',#423);
#425=CARTESIAN_POINT('',(0.635000000000000,0.635000000000000,0.840000000000000));
#426=DIRECTION('',(0.0,0.0,-1.0));
#427=VECTOR('',#426,0.840000000000000);
#428=LINE('',#425,#427);
#429=EDGE_CURVE('',#422,#424,#428,.T.);
#430=ORIENTED_EDGE('',*,*,#429,.F.);
#431=CARTESIAN_POINT('',(0.635000000000000,-0.635000000000000,0.840000000000000));
#432=VERTEX_POINT('',#431);
#433=CARTESIAN_POINT('',(0.635000000000000,-0.635000000000000,0.840000000000000));
#434=DIRECTION('',(0.0,1.0,0.0));
#435=VECTOR('',#434,1.270000000000000);
#436=LINE('',#433,#435);
#437=EDGE_CURVE('',#432,#422,#436,.T.);
#438=ORIENTED_EDGE('',*,*,#437,.F.);
#439=CARTESIAN_POINT('',(0.635000000000000,-0.635000000000000,0.0));
#440=VERTEX_POINT('',#439);
#441=CARTESIAN_POINT('',(0.635000000000000,-0.635000000000000,0.0));
#442=DIRECTION('',(0.0,0.0,1.0));
#443=VECTOR('',#442,0.840000000000000);
#444=LINE('',#441,#443);
#445=EDGE_CURVE('',#440,#432,#444,.T.);
#446=ORIENTED_EDGE('',*,*,#445,.F.);
#447=CARTESIAN_POINT('',(0.635000000000001,0.635000000000000,0.0));
#448=DIRECTION('',(0.0,-1.0,0.0));
#449=VECTOR('',#448,1.270000000000000);
#450=LINE('',#447,#449);
#451=EDGE_CURVE('',#424,#440,#450,.T.);
#452=ORIENTED_EDGE('',*,*,#451,.F.);
#453=EDGE_LOOP('',(#430,#438,#446,#452));
#454=FACE_OUTER_BOUND('',#453,.T.);
#455=ADVANCED_FACE('',(#454),#420,.T.);
#456=CARTESIAN_POINT('',(0.635000000000000,-0.635000000000000,0.840000000000000));
#457=CARTESIAN_POINT('',(0.635000000000000,-0.635000000000000,0.0));
#458=CARTESIAN_POINT('',(-0.635000000000000,-0.635000000000000,0.840000000000000));
#459=CARTESIAN_POINT('',(-0.635000000000000,-0.635000000000000,0.0));
#460=B_SPLINE_SURFACE_WITH_KNOTS('',1,1,((#456,#458),(#457,#459)),.UNSPECIFIED.,.F.,.F.,.U.,(2,2),(2,2),(0.0,0.840000000000000),(0.0,1.270000000000000),.UNSPECIFIED.);
#461=ORIENTED_EDGE('',*,*,#389,.T.);
#462=CARTESIAN_POINT('',(-0.635000000000000,-0.635000000000000,0.0));
#463=DIRECTION('',(1.0,0.0,0.0));
#464=VECTOR('',#463,1.270000000000000);
#465=LINE('',#462,#464);
#466=EDGE_CURVE('',#384,#440,#465,.T.);
#467=ORIENTED_EDGE('',*,*,#466,.T.);
#468=ORIENTED_EDGE('',*,*,#445,.T.);
#469=CARTESIAN_POINT('',(0.635000000000000,-0.635000000000000,0.840000000000000));
#470=DIRECTION('',(-1.0,0.0,0.0));
#471=VECTOR('',#470,1.270000000000000);
#472=LINE('',#469,#471);
#473=EDGE_CURVE('',#432,#382,#472,.T.);
#474=ORIENTED_EDGE('',*,*,#473,.T.);
#475=EDGE_LOOP('',(#461,#467,#468,#474));
#476=FACE_OUTER_BOUND('',#475,.T.);
#477=ADVANCED_FACE('',(#476),#460,.F.);
#478=CARTESIAN_POINT('',(-0.635000000000000,-0.635000000000000,0.840000000000000));
#479=CARTESIAN_POINT('',(0.635000000000000,-0.635000000000000,0.840000000000000));
#480=CARTESIAN_POINT('',(-0.635000000000000,0.635000000000000,0.840000000000000));
#481=CARTESIAN_POINT('',(0.635000000000000,0.635000000000000,0.840000000000000));
#482=B_SPLINE_SURFACE_WITH_KNOTS('',1,1,((#478,#480),(#479,#481)),.UNSPECIFIED.,.F.,.F.,.U.,(2,2),(2,2),(0.0,1.270000000000000),(0.0,1.270000000000000),.UNSPECIFIED.);
#483=ORIENTED_EDGE('',*,*,#397,.T.);
#484=ORIENTED_EDGE('',*,*,#473,.F.);
#485=ORIENTED_EDGE('',*,*,#437,.T.);
#486=CARTESIAN_POINT('',(-0.634999999999999,0.635000000000000,0.840000000000000));
#487=DIRECTION('',(1.0,0.0,0.0));
#488=VECTOR('',#487,1.270000000000000);
#489=LINE('',#486,#488);
#490=EDGE_CURVE('',#392,#422,#489,.T.);
#491=ORIENTED_EDGE('',*,*,#490,.F.);
#492=EDGE_LOOP('',(#483,#484,#485,#491));
#493=FACE_OUTER_BOUND('',#492,.T.);
#494=ADVANCED_FACE('',(#493),#482,.T.);
#495=CARTESIAN_POINT('',(0.635000000000000,0.635000000000000,0.0));
#496=CARTESIAN_POINT('',(0.635000000000000,0.635000000000000,0.840000000000000));
#497=CARTESIAN_POINT('',(-0.634999999999999,0.635000000000000,0.0));
#498=CARTESIAN_POINT('',(-0.634999999999999,0.635000000000000,0.840000000000000));
#499=B_SPLINE_SURFACE_WITH_KNOTS('',1,1,((#495,#497),(#496,#498)),.UNSPECIFIED.,.F.,.F.,.U.,(2,2),(2,2),(0.0,0.840000000000000),(0.0,1.270000000000000),.UNSPECIFIED.);
#500=ORIENTED_EDGE('',*,*,#405,.T.);
#501=ORIENTED_EDGE('',*,*,#490,.T.);
#502=ORIENTED_EDGE('',*,*,#429,.T.);
#503=CARTESIAN_POINT('',(0.635000000000000,0.635000000000000,0.0));
#504=DIRECTION('',(-1.0,0.0,0.0));
#505=VECTOR('',#504,1.270000000000000);
#506=LINE('',#503,#505);
#507=EDGE_CURVE('',#424,#400,#506,.T.);
#508=ORIENTED_EDGE('',*,*,#507,.T.);
#509=EDGE_LOOP('',(#500,#501,#502,#508));
#510=FACE_OUTER_BOUND('',#509,.T.);
#511=ADVANCED_FACE('',(#510),#499,.F.);
#512=CARTESIAN_POINT('',(-0.635000000000000,-0.635000000000000,0.0));
#513=CARTESIAN_POINT('',(0.635000000000000,-0.635000000000000,0.0));
#514=CARTESIAN_POINT('',(-0.635000000000000,0.635000000000000,0.0));
#515=CARTESIAN_POINT('',(0.635000000000000,0.635000000000000,0.0));
#516=B_SPLINE_SURFACE_WITH_KNOTS('',1,1,((#512,#514),(#513,#515)),.UNSPECIFIED.,.F.,.F.,.U.,(2,2),(2,2),(0.0,1.270000000000000),(0.0,1.270000000000001),.UNSPECIFIED.);
#517=ORIENTED_EDGE('',*,*,#411,.T.);
#518=ORIENTED_EDGE('',*,*,#507,.F.);
#519=ORIENTED_EDGE('',*,*,#451,.T.);
#520=ORIENTED_EDGE('',*,*,#466,.F.);
#521=EDGE_LOOP('',(#517,#518,#519,#520));
#522=FACE_OUTER_BOUND('',#521,.T.);
#523=ADVANCED_FACE('',(#522),#516,.F.);
#524=CLOSED_SHELL('',(#415,#455,#477,#494,#511,#523));
#525=MANIFOLD_SOLID_BREP('4BA',#524);
#526=COLOUR_RGB('250',0.330000000000000,0.330000000000000,0.330000000000000);
#527=SURFACE_STYLE_USAGE(.BOTH.,#528);
#528=SURFACE_SIDE_STYLE('NONE',(#529));
#529=SURFACE_STYLE_FILL_AREA(#530);
#530=FILL_AREA_STYLE('NONE',(#531));
#531=FILL_AREA_STYLE_COLOUR('NONE',#526);
#532=PRESENTATION_STYLE_ASSIGNMENT((#527));
#533=STYLED_ITEM('NONE',(#532),#525);
#534=ADVANCED_BREP_SHAPE_REPRESENTATION('ABSR1',(#214,#374,#525),#28);
#535=SHAPE_REPRESENTATION_RELATIONSHIP('SRRPL1','',#534,#62);
ENDSEC;
END-ISO-10303-21;
