ISO-10303-21;
HEADER;
/****************************************************************
 * Generated by software with PDE/Lib inside                    *
 * PDElib Version v51a, created Mon 11/23/2009                  *
 * ITI Transcendata (http://www.transcendata.com/)              *
 ****************************************************************/
FILE_DESCRIPTION((''),'2;1');
FILE_NAME('RESC1608X50N.stp','2011-06-20T17:04:57',(''),(''),'Mechanical Desktop 2011','Mechanical Desktop 2011',', , ');
FILE_SCHEMA(('AUTOMOTIVE_DESIGN { 1 2 10303 214 1 1 1 1 }'));
ENDSEC;
DATA;
#10=(NAMED_UNIT(*)PLANE_ANGLE_UNIT()SI_UNIT($,.RADIAN.));
#11=DIMENSIONAL_EXPONENTS(0.0,0.0,0.0,0.0,0.0,0.0,0.0);
#12=PLANE_ANGLE_MEASURE_WITH_UNIT(PLANE_ANGLE_MEASURE(0.017453292500000),#10);
#16=(CONVERSION_BASED_UNIT('DEGREE',#12)NAMED_UNIT(#11)PLANE_ANGLE_UNIT());
#20=(NAMED_UNIT(*)SI_UNIT($,.STERADIAN.)SOLID_ANGLE_UNIT());
#24=(LENGTH_UNIT()NAMED_UNIT(*)SI_UNIT(.MILLI.,.METRE.));
#26=UNCERTAINTY_MEASURE_WITH_UNIT(LENGTH_MEASURE(0.000001000000000),#24,'DISTANCE_ACCURACY_VALUE','');
#28=(GEOMETRIC_REPRESENTATION_CONTEXT(3)GLOBAL_UNCERTAINTY_ASSIGNED_CONTEXT((#26))GLOBAL_UNIT_ASSIGNED_CONTEXT((#16,#20,#24))REPRESENTATION_CONTEXT('','3D'));
#29=APPLICATION_CONTEXT('automotive design');
#30=APPLICATION_PROTOCOL_DEFINITION('INTERNATIONAL_STANDARD','automotive_design',1998,#29);
#31=PRODUCT_CONTEXT('3D Mechanical Parts',#29,'mechanical');
#32=PRODUCT('Product','Product','',(#31));
#33=PRODUCT_RELATED_PRODUCT_CATEGORY('part',$,(#32));
#34=PRODUCT_CATEGORY('part',$);
#35=PERSON('1','Design','Joe',$,$,$);
#36=ORGANIZATION($,'None','None');
#37=PERSON_AND_ORGANIZATION(#35,#36);
#38=PERSON_AND_ORGANIZATION_ROLE('design_owner');
#39=APPLIED_PERSON_AND_ORGANIZATION_ASSIGNMENT(#37,#38,(#32));
#40=PRODUCT_DEFINITION_FORMATION_WITH_SPECIFIED_SOURCE('None','',#32,.BOUGHT.);
#41=PERSON('2','Creator','Joe',$,$,$);
#42=ORGANIZATION($,'None','None');
#43=PERSON_AND_ORGANIZATION(#41,#42);
#44=PERSON_AND_ORGANIZATION_ROLE('creator');
#45=APPLIED_PERSON_AND_ORGANIZATION_ASSIGNMENT(#43,#44,(#40));
#46=PERSON('3','Supplier','Joe',$,$,$);
#47=ORGANIZATION($,'None','None');
#48=PERSON_AND_ORGANIZATION(#46,#47);
#49=PERSON_AND_ORGANIZATION_ROLE('design_supplier');
#50=APPLIED_PERSON_AND_ORGANIZATION_ASSIGNMENT(#48,#49,(#40));
#51=PRODUCT_DEFINITION_CONTEXT('part definition',#29,'design');
#52=PRODUCT_DEFINITION('None','',#40,#51);
#53=PERSON('4','Creator','Joe',$,$,$);
#54=ORGANIZATION($,'None','None');
#55=PERSON_AND_ORGANIZATION(#53,#54);
#56=PERSON_AND_ORGANIZATION_ROLE('creator');
#57=APPLIED_PERSON_AND_ORGANIZATION_ASSIGNMENT(#55,#56,(#52));
#58=CARTESIAN_POINT('NONE',(0.0,0.0,0.0));
#59=DIRECTION('NONE',(0.0,0.0,1.0));
#60=DIRECTION('NONE',(1.0,0.0,0.0));
#61=AXIS2_PLACEMENT_3D('NONE',#58,#59,#60);
#62=SHAPE_REPRESENTATION('SR1',(#61),#28);
#63=PRODUCT_DEFINITION_SHAPE('PDS1','Test Part',#52);
#64=SHAPE_DEFINITION_REPRESENTATION(#63,#62);
#65=CARTESIAN_POINT('',(0.875000000000000,-0.475000000000000,0.0));
#66=DIRECTION('',(0.0,-1.0,0.0));
#67=DIRECTION('',(0.0,0.0,-1.0));
#68=AXIS2_PLACEMENT_3D('',#65,#66,#67);
#69=PLANE('',#68);
#70=CARTESIAN_POINT('',(0.875000000000000,-0.475000000000000,0.500000000000000));
#71=VERTEX_POINT('',#70);
#72=CARTESIAN_POINT('',(0.425000000000000,-0.475000000000000,0.500000000000000));
#73=VERTEX_POINT('',#72);
#74=CARTESIAN_POINT('',(0.875000000000000,-0.475000000000000,0.500000000000000));
#75=DIRECTION('',(-1.0,0.0,0.0));
#76=VECTOR('',#75,0.450000000000000);
#77=LINE('',#74,#76);
#78=EDGE_CURVE('',#71,#73,#77,.T.);
#79=ORIENTED_EDGE('',*,*,#78,.T.);
#80=CARTESIAN_POINT('',(0.425000000000000,-0.475000000000000,0.0));
#81=VERTEX_POINT('',#80);
#82=CARTESIAN_POINT('',(0.425000000000000,-0.475000000000000,0.0));
#83=DIRECTION('',(0.0,0.0,1.0));
#84=VECTOR('',#83,0.500000000000000);
#85=LINE('',#82,#84);
#86=EDGE_CURVE('',#81,#73,#85,.T.);
#87=ORIENTED_EDGE('',*,*,#86,.F.);
#88=CARTESIAN_POINT('',(0.875000000000000,-0.475000000000000,0.0));
#89=VERTEX_POINT('',#88);
#90=CARTESIAN_POINT('',(0.425000000000000,-0.475000000000000,0.0));
#91=DIRECTION('',(1.0,0.0,0.0));
#92=VECTOR('',#91,0.450000000000000);
#93=LINE('',#90,#92);
#94=EDGE_CURVE('',#81,#89,#93,.T.);
#95=ORIENTED_EDGE('',*,*,#94,.T.);
#96=CARTESIAN_POINT('',(0.875000000000000,-0.475000000000000,0.0));
#97=DIRECTION('',(0.0,0.0,1.0));
#98=VECTOR('',#97,0.500000000000000);
#99=LINE('',#96,#98);
#100=EDGE_CURVE('',#89,#71,#99,.T.);
#101=ORIENTED_EDGE('',*,*,#100,.T.);
#102=EDGE_LOOP('',(#79,#87,#95,#101));
#103=FACE_OUTER_BOUND('',#102,.T.);
#104=ADVANCED_FACE('',(#103),#69,.T.);
#105=CARTESIAN_POINT('',(0.425000000000000,-0.475000000000000,0.0));
#106=DIRECTION('',(-1.0,0.0,0.0));
#107=DIRECTION('',(0.0,0.0,1.0));
#108=AXIS2_PLACEMENT_3D('',#105,#106,#107);
#109=PLANE('',#108);
#110=CARTESIAN_POINT('',(0.425000000000000,0.475000000000000,0.500000000000000));
#111=VERTEX_POINT('',#110);
#112=CARTESIAN_POINT('',(0.425000000000000,-0.475000000000000,0.500000000000000));
#113=DIRECTION('',(0.0,1.0,0.0));
#114=VECTOR('',#113,0.950000000000000);
#115=LINE('',#112,#114);
#116=EDGE_CURVE('',#73,#111,#115,.T.);
#117=ORIENTED_EDGE('',*,*,#116,.T.);
#118=CARTESIAN_POINT('',(0.425000000000000,0.475000000000000,0.0));
#119=VERTEX_POINT('',#118);
#120=CARTESIAN_POINT('',(0.425000000000000,0.475000000000000,0.0));
#121=DIRECTION('',(0.0,0.0,1.0));
#122=VECTOR('',#121,0.500000000000000);
#123=LINE('',#120,#122);
#124=EDGE_CURVE('',#119,#111,#123,.T.);
#125=ORIENTED_EDGE('',*,*,#124,.F.);
#126=CARTESIAN_POINT('',(0.425000000000000,0.475000000000000,0.0));
#127=DIRECTION('',(0.0,-1.0,0.0));
#128=VECTOR('',#127,0.950000000000000);
#129=LINE('',#126,#128);
#130=EDGE_CURVE('',#119,#81,#129,.T.);
#131=ORIENTED_EDGE('',*,*,#130,.T.);
#132=ORIENTED_EDGE('',*,*,#86,.T.);
#133=EDGE_LOOP('',(#117,#125,#131,#132));
#134=FACE_OUTER_BOUND('',#133,.T.);
#135=ADVANCED_FACE('',(#134),#109,.T.);
#136=CARTESIAN_POINT('',(0.425000000000000,0.475000000000000,0.0));
#137=DIRECTION('',(0.0,1.0,0.0));
#138=DIRECTION('',(0.0,0.0,1.0));
#139=AXIS2_PLACEMENT_3D('',#136,#137,#138);
#140=PLANE('',#139);
#141=CARTESIAN_POINT('',(0.875000000000000,0.475000000000000,0.500000000000000));
#142=VERTEX_POINT('',#141);
#143=CARTESIAN_POINT('',(0.425000000000000,0.475000000000000,0.500000000000000));
#144=DIRECTION('',(1.0,0.0,0.0));
#145=VECTOR('',#144,0.450000000000000);
#146=LINE('',#143,#145);
#147=EDGE_CURVE('',#111,#142,#146,.T.);
#148=ORIENTED_EDGE('',*,*,#147,.T.);
#149=CARTESIAN_POINT('',(0.875000000000000,0.475000000000000,0.0));
#150=VERTEX_POINT('',#149);
#151=CARTESIAN_POINT('',(0.875000000000000,0.475000000000000,0.0));
#152=DIRECTION('',(0.0,0.0,1.0));
#153=VECTOR('',#152,0.500000000000000);
#154=LINE('',#151,#153);
#155=EDGE_CURVE('',#150,#142,#154,.T.);
#156=ORIENTED_EDGE('',*,*,#155,.F.);
#157=CARTESIAN_POINT('',(0.875000000000000,0.475000000000000,0.0));
#158=DIRECTION('',(-1.0,0.0,0.0));
#159=VECTOR('',#158,0.450000000000000);
#160=LINE('',#157,#159);
#161=EDGE_CURVE('',#150,#119,#160,.T.);
#162=ORIENTED_EDGE('',*,*,#161,.T.);
#163=ORIENTED_EDGE('',*,*,#124,.T.);
#164=EDGE_LOOP('',(#148,#156,#162,#163));
#165=FACE_OUTER_BOUND('',#164,.T.);
#166=ADVANCED_FACE('',(#165),#140,.T.);
#167=CARTESIAN_POINT('',(0.875000000000000,0.475000000000000,0.0));
#168=DIRECTION('',(1.0,0.0,0.0));
#169=DIRECTION('',(0.0,0.0,-1.0));
#170=AXIS2_PLACEMENT_3D('',#167,#168,#169);
#171=PLANE('',#170);
#172=CARTESIAN_POINT('',(0.875000000000000,0.475000000000000,0.500000000000000));
#173=DIRECTION('',(0.0,-1.0,0.0));
#174=VECTOR('',#173,0.950000000000000);
#175=LINE('',#172,#174);
#176=EDGE_CURVE('',#142,#71,#175,.T.);
#177=ORIENTED_EDGE('',*,*,#176,.T.);
#178=ORIENTED_EDGE('',*,*,#100,.F.);
#179=CARTESIAN_POINT('',(0.875000000000000,-0.475000000000000,0.0));
#180=DIRECTION('',(0.0,1.0,0.0));
#181=VECTOR('',#180,0.950000000000000);
#182=LINE('',#179,#181);
#183=EDGE_CURVE('',#89,#150,#182,.T.);
#184=ORIENTED_EDGE('',*,*,#183,.T.);
#185=ORIENTED_EDGE('',*,*,#155,.T.);
#186=EDGE_LOOP('',(#177,#178,#184,#185));
#187=FACE_OUTER_BOUND('',#186,.T.);
#188=ADVANCED_FACE('',(#187),#171,.T.);
#189=CARTESIAN_POINT('',(0.650000000000000,-1.748241E-017,0.500000000000000));
#190=DIRECTION('',(0.0,0.0,1.0));
#191=DIRECTION('',(1.0,0.0,0.0));
#192=AXIS2_PLACEMENT_3D('',#189,#190,#191);
#193=PLANE('',#192);
#194=ORIENTED_EDGE('',*,*,#176,.F.);
#195=ORIENTED_EDGE('',*,*,#147,.F.);
#196=ORIENTED_EDGE('',*,*,#116,.F.);
#197=ORIENTED_EDGE('',*,*,#78,.F.);
#198=EDGE_LOOP('',(#194,#195,#196,#197));
#199=FACE_OUTER_BOUND('',#198,.T.);
#200=ADVANCED_FACE('',(#199),#193,.T.);
#201=CARTESIAN_POINT('',(0.650000000000000,-1.748241E-017,0.0));
#202=DIRECTION('',(0.0,0.0,1.0));
#203=DIRECTION('',(1.0,0.0,0.0));
#204=AXIS2_PLACEMENT_3D('',#201,#202,#203);
#205=PLANE('',#204);
#206=ORIENTED_EDGE('',*,*,#161,.F.);
#207=ORIENTED_EDGE('',*,*,#183,.F.);
#208=ORIENTED_EDGE('',*,*,#94,.F.);
#209=ORIENTED_EDGE('',*,*,#130,.F.);
#210=EDGE_LOOP('',(#206,#207,#208,#209));
#211=FACE_OUTER_BOUND('',#210,.T.);
#212=ADVANCED_FACE('',(#211),#205,.F.);
#213=CLOSED_SHELL('',(#104,#135,#166,#188,#200,#212));
#214=MANIFOLD_SOLID_BREP('417',#213);
#215=COLOUR_RGB('254',0.866000000000000,0.866000000000000,0.866000000000000);
#216=SURFACE_STYLE_USAGE(.BOTH.,#217);
#217=SURFACE_SIDE_STYLE('NONE',(#218));
#218=SURFACE_STYLE_FILL_AREA(#219);
#219=FILL_AREA_STYLE('NONE',(#220));
#220=FILL_AREA_STYLE_COLOUR('NONE',#215);
#221=PRESENTATION_STYLE_ASSIGNMENT((#216));
#222=STYLED_ITEM('NONE',(#221),#214);
#223=MECHANICAL_DESIGN_GEOMETRIC_PRESENTATION_REPRESENTATION('NONE',(#222,#382,#533),#28);
#224=PRESENTATION_LAYER_ASSIGNMENT('3D','None',(#214,#374,#532));
#225=CARTESIAN_POINT('',(-0.425000000000000,-0.475000000000000,0.0));
#226=DIRECTION('',(-1.0,0.0,0.0));
#227=DIRECTION('',(0.0,0.0,1.0));
#228=AXIS2_PLACEMENT_3D('',#225,#226,#227);
#229=PLANE('',#228);
#230=CARTESIAN_POINT('',(-0.425000000000000,-0.475000000000000,0.500000000000000));
#231=VERTEX_POINT('',#230);
#232=CARTESIAN_POINT('',(-0.425000000000000,0.475000000000000,0.500000000000000));
#233=VERTEX_POINT('',#232);
#234=CARTESIAN_POINT('',(-0.425000000000000,-0.475000000000000,0.500000000000000));
#235=DIRECTION('',(0.0,1.0,0.0));
#236=VECTOR('',#235,0.950000000000000);
#237=LINE('',#234,#236);
#238=EDGE_CURVE('',#231,#233,#237,.T.);
#239=ORIENTED_EDGE('',*,*,#238,.T.);
#240=CARTESIAN_POINT('',(-0.425000000000000,0.475000000000000,0.0));
#241=VERTEX_POINT('',#240);
#242=CARTESIAN_POINT('',(-0.425000000000000,0.475000000000000,0.0));
#243=DIRECTION('',(0.0,0.0,1.0));
#244=VECTOR('',#243,0.500000000000000);
#245=LINE('',#242,#244);
#246=EDGE_CURVE('',#241,#233,#245,.T.);
#247=ORIENTED_EDGE('',*,*,#246,.F.);
#248=CARTESIAN_POINT('',(-0.425000000000000,-0.475000000000000,0.0));
#249=VERTEX_POINT('',#248);
#250=CARTESIAN_POINT('',(-0.425000000000000,-0.475000000000000,0.0));
#251=DIRECTION('',(0.0,1.0,0.0));
#252=VECTOR('',#251,0.950000000000000);
#253=LINE('',#250,#252);
#254=EDGE_CURVE('',#249,#241,#253,.T.);
#255=ORIENTED_EDGE('',*,*,#254,.F.);
#256=CARTESIAN_POINT('',(-0.425000000000000,-0.475000000000000,0.0));
#257=DIRECTION('',(0.0,0.0,1.0));
#258=VECTOR('',#257,0.500000000000000);
#259=LINE('',#256,#258);
#260=EDGE_CURVE('',#249,#231,#259,.T.);
#261=ORIENTED_EDGE('',*,*,#260,.T.);
#262=EDGE_LOOP('',(#239,#247,#255,#261));
#263=FACE_OUTER_BOUND('',#262,.T.);
#264=ADVANCED_FACE('',(#263),#229,.T.);
#265=CARTESIAN_POINT('',(-0.425000000000000,0.475000000000000,0.0));
#266=DIRECTION('',(0.0,1.0,0.0));
#267=DIRECTION('',(0.0,0.0,1.0));
#268=AXIS2_PLACEMENT_3D('',#265,#266,#267);
#269=PLANE('',#268);
#270=CARTESIAN_POINT('',(0.425000000000000,0.475000000000000,0.500000000000000));
#271=VERTEX_POINT('',#270);
#272=CARTESIAN_POINT('',(-0.425000000000000,0.475000000000000,0.500000000000000));
#273=DIRECTION('',(1.0,0.0,0.0));
#274=VECTOR('',#273,0.850000000000000);
#275=LINE('',#272,#274);
#276=EDGE_CURVE('',#233,#271,#275,.T.);
#277=ORIENTED_EDGE('',*,*,#276,.T.);
#278=CARTESIAN_POINT('',(0.425000000000000,0.475000000000000,0.0));
#279=VERTEX_POINT('',#278);
#280=CARTESIAN_POINT('',(0.425000000000000,0.475000000000000,0.0));
#281=DIRECTION('',(0.0,0.0,1.0));
#282=VECTOR('',#281,0.500000000000000);
#283=LINE('',#280,#282);
#284=EDGE_CURVE('',#279,#271,#283,.T.);
#285=ORIENTED_EDGE('',*,*,#284,.F.);
#286=CARTESIAN_POINT('',(-0.425000000000000,0.475000000000000,0.0));
#287=DIRECTION('',(1.0,0.0,0.0));
#288=VECTOR('',#287,0.850000000000000);
#289=LINE('',#286,#288);
#290=EDGE_CURVE('',#241,#279,#289,.T.);
#291=ORIENTED_EDGE('',*,*,#290,.F.);
#292=ORIENTED_EDGE('',*,*,#246,.T.);
#293=EDGE_LOOP('',(#277,#285,#291,#292));
#294=FACE_OUTER_BOUND('',#293,.T.);
#295=ADVANCED_FACE('',(#294),#269,.T.);
#296=CARTESIAN_POINT('',(0.425000000000000,0.475000000000000,0.0));
#297=DIRECTION('',(1.0,0.0,0.0));
#298=DIRECTION('',(0.0,0.0,-1.0));
#299=AXIS2_PLACEMENT_3D('',#296,#297,#298);
#300=PLANE('',#299);
#301=CARTESIAN_POINT('',(0.425000000000000,-0.475000000000000,0.500000000000000));
#302=VERTEX_POINT('',#301);
#303=CARTESIAN_POINT('',(0.425000000000000,0.475000000000000,0.500000000000000));
#304=DIRECTION('',(0.0,-1.0,0.0));
#305=VECTOR('',#304,0.950000000000000);
#306=LINE('',#303,#305);
#307=EDGE_CURVE('',#271,#302,#306,.T.);
#308=ORIENTED_EDGE('',*,*,#307,.T.);
#309=CARTESIAN_POINT('',(0.425000000000000,-0.475000000000000,0.0));
#310=VERTEX_POINT('',#309);
#311=CARTESIAN_POINT('',(0.425000000000000,-0.475000000000000,0.0));
#312=DIRECTION('',(0.0,0.0,1.0));
#313=VECTOR('',#312,0.500000000000000);
#314=LINE('',#311,#313);
#315=EDGE_CURVE('',#310,#302,#314,.T.);
#316=ORIENTED_EDGE('',*,*,#315,.F.);
#317=CARTESIAN_POINT('',(0.425000000000000,0.475000000000000,0.0));
#318=DIRECTION('',(0.0,-1.0,0.0));
#319=VECTOR('',#318,0.950000000000000);
#320=LINE('',#317,#319);
#321=EDGE_CURVE('',#279,#310,#320,.T.);
#322=ORIENTED_EDGE('',*,*,#321,.F.);
#323=ORIENTED_EDGE('',*,*,#284,.T.);
#324=EDGE_LOOP('',(#308,#316,#322,#323));
#325=FACE_OUTER_BOUND('',#324,.T.);
#326=ADVANCED_FACE('',(#325),#300,.T.);
#327=CARTESIAN_POINT('',(0.425000000000000,-0.475000000000000,0.0));
#328=DIRECTION('',(0.0,-1.0,0.0));
#329=DIRECTION('',(0.0,0.0,-1.0));
#330=AXIS2_PLACEMENT_3D('',#327,#328,#329);
#331=PLANE('',#330);
#332=CARTESIAN_POINT('',(0.425000000000000,-0.475000000000000,0.500000000000000));
#333=DIRECTION('',(-1.0,0.0,0.0));
#334=VECTOR('',#333,0.850000000000000);
#335=LINE('',#332,#334);
#336=EDGE_CURVE('',#302,#231,#335,.T.);
#337=ORIENTED_EDGE('',*,*,#336,.T.);
#338=ORIENTED_EDGE('',*,*,#260,.F.);
#339=CARTESIAN_POINT('',(0.425000000000000,-0.475000000000000,0.0));
#340=DIRECTION('',(-1.0,0.0,0.0));
#341=VECTOR('',#340,0.850000000000000);
#342=LINE('',#339,#341);
#343=EDGE_CURVE('',#310,#249,#342,.T.);
#344=ORIENTED_EDGE('',*,*,#343,.F.);
#345=ORIENTED_EDGE('',*,*,#315,.T.);
#346=EDGE_LOOP('',(#337,#338,#344,#345));
#347=FACE_OUTER_BOUND('',#346,.T.);
#348=ADVANCED_FACE('',(#347),#331,.T.);
#349=CARTESIAN_POINT('',(-6.728624E-018,-6.938894E-017,0.500000000000000));
#350=DIRECTION('',(0.0,0.0,1.0));
#351=DIRECTION('',(1.0,0.0,0.0));
#352=AXIS2_PLACEMENT_3D('',#349,#350,#351);
#353=PLANE('',#352);
#354=ORIENTED_EDGE('',*,*,#336,.F.);
#355=ORIENTED_EDGE('',*,*,#307,.F.);
#356=ORIENTED_EDGE('',*,*,#276,.F.);
#357=ORIENTED_EDGE('',*,*,#238,.F.);
#358=EDGE_LOOP('',(#354,#355,#356,#357));
#359=FACE_OUTER_BOUND('',#358,.T.);
#360=ADVANCED_FACE('',(#359),#353,.T.);
#361=CARTESIAN_POINT('',(-6.728624E-018,-6.938894E-017,0.0));
#362=DIRECTION('',(0.0,0.0,1.0));
#363=DIRECTION('',(1.0,0.0,0.0));
#364=AXIS2_PLACEMENT_3D('',#361,#362,#363);
#365=PLANE('',#364);
#366=ORIENTED_EDGE('',*,*,#321,.T.);
#367=ORIENTED_EDGE('',*,*,#343,.T.);
#368=ORIENTED_EDGE('',*,*,#254,.T.);
#369=ORIENTED_EDGE('',*,*,#290,.T.);
#370=EDGE_LOOP('',(#366,#367,#368,#369));
#371=FACE_OUTER_BOUND('',#370,.T.);
#372=ADVANCED_FACE('',(#371),#365,.F.);
#373=CLOSED_SHELL('',(#264,#295,#326,#348,#360,#372));
#374=MANIFOLD_SOLID_BREP('416',#373);
#375=COLOUR_RGB('250',0.330000000000000,0.330000000000000,0.330000000000000);
#376=SURFACE_STYLE_USAGE(.BOTH.,#377);
#377=SURFACE_SIDE_STYLE('NONE',(#378));
#378=SURFACE_STYLE_FILL_AREA(#379);
#379=FILL_AREA_STYLE('NONE',(#380));
#380=FILL_AREA_STYLE_COLOUR('NONE',#375);
#381=PRESENTATION_STYLE_ASSIGNMENT((#376));
#382=STYLED_ITEM('NONE',(#381),#374);
#383=CARTESIAN_POINT('',(-0.425000000000000,-0.475000000000000,0.0));
#384=DIRECTION('',(0.0,-1.0,0.0));
#385=DIRECTION('',(0.0,0.0,-1.0));
#386=AXIS2_PLACEMENT_3D('',#383,#384,#385);
#387=PLANE('',#386);
#388=CARTESIAN_POINT('',(-0.425000000000000,-0.475000000000000,0.500000000000000));
#389=VERTEX_POINT('',#388);
#390=CARTESIAN_POINT('',(-0.875000000000000,-0.475000000000000,0.500000000000000));
#391=VERTEX_POINT('',#390);
#392=CARTESIAN_POINT('',(-0.425000000000000,-0.475000000000000,0.500000000000000));
#393=DIRECTION('',(-1.0,0.0,0.0));
#394=VECTOR('',#393,0.450000000000000);
#395=LINE('',#392,#394);
#396=EDGE_CURVE('',#389,#391,#395,.T.);
#397=ORIENTED_EDGE('',*,*,#396,.T.);
#398=CARTESIAN_POINT('',(-0.875000000000000,-0.475000000000000,0.0));
#399=VERTEX_POINT('',#398);
#400=CARTESIAN_POINT('',(-0.875000000000000,-0.475000000000000,0.0));
#401=DIRECTION('',(0.0,0.0,1.0));
#402=VECTOR('',#401,0.500000000000000);
#403=LINE('',#400,#402);
#404=EDGE_CURVE('',#399,#391,#403,.T.);
#405=ORIENTED_EDGE('',*,*,#404,.F.);
#406=CARTESIAN_POINT('',(-0.425000000000000,-0.475000000000000,0.0));
#407=VERTEX_POINT('',#406);
#408=CARTESIAN_POINT('',(-0.425000000000000,-0.475000000000000,0.0));
#409=DIRECTION('',(-1.0,0.0,0.0));
#410=VECTOR('',#409,0.450000000000000);
#411=LINE('',#408,#410);
#412=EDGE_CURVE('',#407,#399,#411,.T.);
#413=ORIENTED_EDGE('',*,*,#412,.F.);
#414=CARTESIAN_POINT('',(-0.425000000000000,-0.475000000000000,0.0));
#415=DIRECTION('',(0.0,0.0,1.0));
#416=VECTOR('',#415,0.500000000000000);
#417=LINE('',#414,#416);
#418=EDGE_CURVE('',#407,#389,#417,.T.);
#419=ORIENTED_EDGE('',*,*,#418,.T.);
#420=EDGE_LOOP('',(#397,#405,#413,#419));
#421=FACE_OUTER_BOUND('',#420,.T.);
#422=ADVANCED_FACE('',(#421),#387,.T.);
#423=CARTESIAN_POINT('',(-0.875000000000000,-0.475000000000000,0.0));
#424=DIRECTION('',(-1.0,0.0,0.0));
#425=DIRECTION('',(0.0,0.0,1.0));
#426=AXIS2_PLACEMENT_3D('',#423,#424,#425);
#427=PLANE('',#426);
#428=CARTESIAN_POINT('',(-0.875000000000000,0.475000000000000,0.500000000000000));
#429=VERTEX_POINT('',#428);
#430=CARTESIAN_POINT('',(-0.875000000000000,-0.475000000000000,0.500000000000000));
#431=DIRECTION('',(0.0,1.0,0.0));
#432=VECTOR('',#431,0.950000000000000);
#433=LINE('',#430,#432);
#434=EDGE_CURVE('',#391,#429,#433,.T.);
#435=ORIENTED_EDGE('',*,*,#434,.T.);
#436=CARTESIAN_POINT('',(-0.875000000000000,0.475000000000000,0.0));
#437=VERTEX_POINT('',#436);
#438=CARTESIAN_POINT('',(-0.875000000000000,0.475000000000000,0.0));
#439=DIRECTION('',(0.0,0.0,1.0));
#440=VECTOR('',#439,0.500000000000000);
#441=LINE('',#438,#440);
#442=EDGE_CURVE('',#437,#429,#441,.T.);
#443=ORIENTED_EDGE('',*,*,#442,.F.);
#444=CARTESIAN_POINT('',(-0.875000000000000,-0.475000000000000,0.0));
#445=DIRECTION('',(0.0,1.0,0.0));
#446=VECTOR('',#445,0.950000000000000);
#447=LINE('',#444,#446);
#448=EDGE_CURVE('',#399,#437,#447,.T.);
#449=ORIENTED_EDGE('',*,*,#448,.F.);
#450=ORIENTED_EDGE('',*,*,#404,.T.);
#451=EDGE_LOOP('',(#435,#443,#449,#450));
#452=FACE_OUTER_BOUND('',#451,.T.);
#453=ADVANCED_FACE('',(#452),#427,.T.);
#454=CARTESIAN_POINT('',(-0.875000000000000,0.475000000000000,0.0));
#455=DIRECTION('',(0.0,1.0,0.0));
#456=DIRECTION('',(0.0,0.0,1.0));
#457=AXIS2_PLACEMENT_3D('',#454,#455,#456);
#458=PLANE('',#457);
#459=CARTESIAN_POINT('',(-0.425000000000000,0.475000000000000,0.500000000000000));
#460=VERTEX_POINT('',#459);
#461=CARTESIAN_POINT('',(-0.875000000000000,0.475000000000000,0.500000000000000));
#462=DIRECTION('',(1.0,0.0,0.0));
#463=VECTOR('',#462,0.450000000000000);
#464=LINE('',#461,#463);
#465=EDGE_CURVE('',#429,#460,#464,.T.);
#466=ORIENTED_EDGE('',*,*,#465,.T.);
#467=CARTESIAN_POINT('',(-0.425000000000000,0.475000000000000,0.0));
#468=VERTEX_POINT('',#467);
#469=CARTESIAN_POINT('',(-0.425000000000000,0.475000000000000,0.0));
#470=DIRECTION('',(0.0,0.0,1.0));
#471=VECTOR('',#470,0.500000000000000);
#472=LINE('',#469,#471);
#473=EDGE_CURVE('',#468,#460,#472,.T.);
#474=ORIENTED_EDGE('',*,*,#473,.F.);
#475=CARTESIAN_POINT('',(-0.875000000000000,0.475000000000000,0.0));
#476=DIRECTION('',(1.0,0.0,0.0));
#477=VECTOR('',#476,0.450000000000000);
#478=LINE('',#475,#477);
#479=EDGE_CURVE('',#437,#468,#478,.T.);
#480=ORIENTED_EDGE('',*,*,#479,.F.);
#481=ORIENTED_EDGE('',*,*,#442,.T.);
#482=EDGE_LOOP('',(#466,#474,#480,#481));
#483=FACE_OUTER_BOUND('',#482,.T.);
#484=ADVANCED_FACE('',(#483),#458,.T.);
#485=CARTESIAN_POINT('',(-0.425000000000000,0.475000000000000,0.0));
#486=DIRECTION('',(1.0,0.0,0.0));
#487=DIRECTION('',(0.0,0.0,-1.0));
#488=AXIS2_PLACEMENT_3D('',#485,#486,#487);
#489=PLANE('',#488);
#490=CARTESIAN_POINT('',(-0.425000000000000,0.475000000000000,0.500000000000000));
#491=DIRECTION('',(0.0,-1.0,0.0));
#492=VECTOR('',#491,0.950000000000000);
#493=LINE('',#490,#492);
#494=EDGE_CURVE('',#460,#389,#493,.T.);
#495=ORIENTED_EDGE('',*,*,#494,.T.);
#496=ORIENTED_EDGE('',*,*,#418,.F.);
#497=CARTESIAN_POINT('',(-0.425000000000000,0.475000000000000,0.0));
#498=DIRECTION('',(0.0,-1.0,0.0));
#499=VECTOR('',#498,0.950000000000000);
#500=LINE('',#497,#499);
#501=EDGE_CURVE('',#468,#407,#500,.T.);
#502=ORIENTED_EDGE('',*,*,#501,.F.);
#503=ORIENTED_EDGE('',*,*,#473,.T.);
#504=EDGE_LOOP('',(#495,#496,#502,#503));
#505=FACE_OUTER_BOUND('',#504,.T.);
#506=ADVANCED_FACE('',(#505),#489,.T.);
#507=CARTESIAN_POINT('',(-0.650000000000000,-3.136020E-017,0.500000000000000));
#508=DIRECTION('',(0.0,0.0,1.0));
#509=DIRECTION('',(1.0,0.0,0.0));
#510=AXIS2_PLACEMENT_3D('',#507,#508,#509);
#511=PLANE('',#510);
#512=ORIENTED_EDGE('',*,*,#494,.F.);
#513=ORIENTED_EDGE('',*,*,#465,.F.);
#514=ORIENTED_EDGE('',*,*,#434,.F.);
#515=ORIENTED_EDGE('',*,*,#396,.F.);
#516=EDGE_LOOP('',(#512,#513,#514,#515));
#517=FACE_OUTER_BOUND('',#516,.T.);
#518=ADVANCED_FACE('',(#517),#511,.T.);
#519=CARTESIAN_POINT('',(-0.650000000000000,-3.136020E-017,0.0));
#520=DIRECTION('',(0.0,0.0,1.0));
#521=DIRECTION('',(1.0,0.0,0.0));
#522=AXIS2_PLACEMENT_3D('',#519,#520,#521);
#523=PLANE('',#522);
#524=ORIENTED_EDGE('',*,*,#479,.T.);
#525=ORIENTED_EDGE('',*,*,#501,.T.);
#526=ORIENTED_EDGE('',*,*,#412,.T.);
#527=ORIENTED_EDGE('',*,*,#448,.T.);
#528=EDGE_LOOP('',(#524,#525,#526,#527));
#529=FACE_OUTER_BOUND('',#528,.T.);
#530=ADVANCED_FACE('',(#529),#523,.F.);
#531=CLOSED_SHELL('',(#422,#453,#484,#506,#518,#530));
#532=MANIFOLD_SOLID_BREP('415',#531);
#533=STYLED_ITEM('NONE',(#221),#532);
#534=ADVANCED_BREP_SHAPE_REPRESENTATION('ABSR1',(#214,#374,#532),#28);
#535=SHAPE_REPRESENTATION_RELATIONSHIP('SRRPL1','',#534,#62);
ENDSEC;
END-ISO-10303-21;
