ISO-10303-21;
HEADER;
/****************************************************************
 * Generated by software with PDElib inside                    *
 * PDElib Version v51a, created Wed 11/30/2011                  *
 * ITI Transcendata (http://www.transcendata.com/)              *
 ****************************************************************/
FILE_DESCRIPTION((''),'2;1');
FILE_NAME('RESM12055X530N.stp','2014-10-21T16:49:47',(''),(''),'Mechanical Desktop 2011','Mechanical Desktop 2011',', , ');
FILE_SCHEMA(('AUTOMOTIVE_DESIGN { 1 2 10303 214 1 1 1 1 }'));
ENDSEC;
DATA;
#10=(NAMED_UNIT(*)PLANE_ANGLE_UNIT()SI_UNIT($,.RADIAN.));
#11=DIMENSIONAL_EXPONENTS(0.0,0.0,0.0,0.0,0.0,0.0,0.0);
#12=PLANE_ANGLE_MEASURE_WITH_UNIT(PLANE_ANGLE_MEASURE(0.0174532925),#10);
#16=(CONVERSION_BASED_UNIT('DEGREE',#12)NAMED_UNIT(#11)PLANE_ANGLE_UNIT());
#20=(NAMED_UNIT(*)SI_UNIT($,.STERADIAN.)SOLID_ANGLE_UNIT());
#24=(LENGTH_UNIT()NAMED_UNIT(*)SI_UNIT(.MILLI.,.METRE.));
#26=UNCERTAINTY_MEASURE_WITH_UNIT(LENGTH_MEASURE(0.000001),#24,'DISTANCE_ACCURACY_VALUE','');
#28=(GEOMETRIC_REPRESENTATION_CONTEXT(3)GLOBAL_UNCERTAINTY_ASSIGNED_CONTEXT((#26))GLOBAL_UNIT_ASSIGNED_CONTEXT((#16,#20,#24))REPRESENTATION_CONTEXT('','3D'));
#29=APPLICATION_CONTEXT('automotive design');
#30=APPLICATION_PROTOCOL_DEFINITION('INTERNATIONAL_STANDARD','automotive_design',1998,#29);
#31=PRODUCT_CONTEXT('3D Mechanical Parts',#29,'mechanical');
#32=PRODUCT('Product','Product','',(#31));
#33=PRODUCT_RELATED_PRODUCT_CATEGORY('part',$,(#32));
#34=PRODUCT_CATEGORY('part',$);
#35=PERSON('1','Design','Joe',$,$,$);
#36=ORGANIZATION($,'None','None');
#37=PERSON_AND_ORGANIZATION(#35,#36);
#38=PERSON_AND_ORGANIZATION_ROLE('design_owner');
#39=APPLIED_PERSON_AND_ORGANIZATION_ASSIGNMENT(#37,#38,(#32));
#40=PRODUCT_DEFINITION_FORMATION_WITH_SPECIFIED_SOURCE('None','',#32,.BOUGHT.);
#41=PERSON('2','Creator','Joe',$,$,$);
#42=ORGANIZATION($,'None','None');
#43=PERSON_AND_ORGANIZATION(#41,#42);
#44=PERSON_AND_ORGANIZATION_ROLE('creator');
#45=APPLIED_PERSON_AND_ORGANIZATION_ASSIGNMENT(#43,#44,(#40));
#46=PERSON('3','Supplier','Joe',$,$,$);
#47=ORGANIZATION($,'None','None');
#48=PERSON_AND_ORGANIZATION(#46,#47);
#49=PERSON_AND_ORGANIZATION_ROLE('design_supplier');
#50=APPLIED_PERSON_AND_ORGANIZATION_ASSIGNMENT(#48,#49,(#40));
#51=PRODUCT_DEFINITION_CONTEXT('part definition',#29,'design');
#52=PRODUCT_DEFINITION('None','',#40,#51);
#53=PERSON('4','Creator','Joe',$,$,$);
#54=ORGANIZATION($,'None','None');
#55=PERSON_AND_ORGANIZATION(#53,#54);
#56=PERSON_AND_ORGANIZATION_ROLE('creator');
#57=APPLIED_PERSON_AND_ORGANIZATION_ASSIGNMENT(#55,#56,(#52));
#58=CARTESIAN_POINT('NONE',(0.0,0.0,0.0));
#59=DIRECTION('NONE',(0.0,0.0,1.0));
#60=DIRECTION('NONE',(1.0,0.0,0.0));
#61=AXIS2_PLACEMENT_3D('NONE',#58,#59,#60);
#62=SHAPE_REPRESENTATION('SR1',(#61),#28);
#63=PRODUCT_DEFINITION_SHAPE('PDS1','Test Part',#52);
#64=SHAPE_DEFINITION_REPRESENTATION(#63,#62);
#65=CARTESIAN_POINT('',(-2.9,2.900000000000006,0.0));
#66=DIRECTION('',(0.0,1.0,0.0));
#67=DIRECTION('',(0.0,0.0,1.0));
#68=AXIS2_PLACEMENT_3D('',#65,#66,#67);
#69=PLANE('',#68);
#70=CARTESIAN_POINT('',(-2.9,2.900000000000006,0.5));
#71=VERTEX_POINT('',#70);
#72=CARTESIAN_POINT('',(2.9,2.900000000000006,0.5));
#73=VERTEX_POINT('',#72);
#74=CARTESIAN_POINT('',(-2.9,2.900000000000006,0.5));
#75=DIRECTION('',(1.0,0.0,0.0));
#76=VECTOR('',#75,5.8);
#77=LINE('',#74,#76);
#78=EDGE_CURVE('',#71,#73,#77,.T.);
#79=ORIENTED_EDGE('',*,*,#78,.T.);
#80=CARTESIAN_POINT('',(2.9,2.900000000000006,0.0));
#81=VERTEX_POINT('',#80);
#82=CARTESIAN_POINT('',(2.9,2.900000000000006,0.0));
#83=DIRECTION('',(0.0,0.0,1.0));
#84=VECTOR('',#83,0.5);
#85=LINE('',#82,#84);
#86=EDGE_CURVE('',#81,#73,#85,.T.);
#87=ORIENTED_EDGE('',*,*,#86,.F.);
#88=CARTESIAN_POINT('',(-2.9,2.900000000000006,0.0));
#89=VERTEX_POINT('',#88);
#90=CARTESIAN_POINT('',(2.9,2.900000000000006,0.0));
#91=DIRECTION('',(-1.0,0.0,0.0));
#92=VECTOR('',#91,5.8);
#93=LINE('',#90,#92);
#94=EDGE_CURVE('',#81,#89,#93,.T.);
#95=ORIENTED_EDGE('',*,*,#94,.T.);
#96=CARTESIAN_POINT('',(-2.9,2.900000000000006,0.0));
#97=DIRECTION('',(0.0,0.0,1.0));
#98=VECTOR('',#97,0.5);
#99=LINE('',#96,#98);
#100=EDGE_CURVE('',#89,#71,#99,.T.);
#101=ORIENTED_EDGE('',*,*,#100,.T.);
#102=EDGE_LOOP('',(#79,#87,#95,#101));
#103=FACE_OUTER_BOUND('',#102,.T.);
#104=ADVANCED_FACE('',(#103),#69,.T.);
#105=CARTESIAN_POINT('',(2.9,2.900000000000006,0.0));
#106=DIRECTION('',(1.0,0.0,0.0));
#107=DIRECTION('',(0.0,0.0,-1.0));
#108=AXIS2_PLACEMENT_3D('',#105,#106,#107);
#109=PLANE('',#108);
#110=CARTESIAN_POINT('',(2.9,-2.899999999999992,0.5));
#111=VERTEX_POINT('',#110);
#112=CARTESIAN_POINT('',(2.9,2.900000000000006,0.5));
#113=DIRECTION('',(0.0,-1.0,0.0));
#114=VECTOR('',#113,5.799999999999997);
#115=LINE('',#112,#114);
#116=EDGE_CURVE('',#73,#111,#115,.T.);
#117=ORIENTED_EDGE('',*,*,#116,.T.);
#118=CARTESIAN_POINT('',(2.9,-2.899999999999992,0.0));
#119=VERTEX_POINT('',#118);
#120=CARTESIAN_POINT('',(2.9,-2.899999999999992,0.0));
#121=DIRECTION('',(0.0,0.0,1.0));
#122=VECTOR('',#121,0.5);
#123=LINE('',#120,#122);
#124=EDGE_CURVE('',#119,#111,#123,.T.);
#125=ORIENTED_EDGE('',*,*,#124,.F.);
#126=CARTESIAN_POINT('',(2.9,-2.899999999999992,0.0));
#127=DIRECTION('',(0.0,1.0,0.0));
#128=VECTOR('',#127,5.799999999999997);
#129=LINE('',#126,#128);
#130=EDGE_CURVE('',#119,#81,#129,.T.);
#131=ORIENTED_EDGE('',*,*,#130,.T.);
#132=ORIENTED_EDGE('',*,*,#86,.T.);
#133=EDGE_LOOP('',(#117,#125,#131,#132));
#134=FACE_OUTER_BOUND('',#133,.T.);
#135=ADVANCED_FACE('',(#134),#109,.T.);
#136=CARTESIAN_POINT('',(2.9,-2.899999999999992,0.0));
#137=DIRECTION('',(0.0,-1.0,0.0));
#138=DIRECTION('',(0.0,0.0,-1.0));
#139=AXIS2_PLACEMENT_3D('',#136,#137,#138);
#140=PLANE('',#139);
#141=CARTESIAN_POINT('',(-2.9,-2.899999999999992,0.5));
#142=VERTEX_POINT('',#141);
#143=CARTESIAN_POINT('',(2.9,-2.899999999999992,0.5));
#144=DIRECTION('',(-1.0,0.0,0.0));
#145=VECTOR('',#144,5.8);
#146=LINE('',#143,#145);
#147=EDGE_CURVE('',#111,#142,#146,.T.);
#148=ORIENTED_EDGE('',*,*,#147,.T.);
#149=CARTESIAN_POINT('',(-2.9,-2.899999999999992,0.0));
#150=VERTEX_POINT('',#149);
#151=CARTESIAN_POINT('',(-2.9,-2.899999999999992,0.0));
#152=DIRECTION('',(0.0,0.0,1.0));
#153=VECTOR('',#152,0.5);
#154=LINE('',#151,#153);
#155=EDGE_CURVE('',#150,#142,#154,.T.);
#156=ORIENTED_EDGE('',*,*,#155,.F.);
#157=CARTESIAN_POINT('',(-2.9,-2.899999999999992,0.0));
#158=DIRECTION('',(1.0,0.0,0.0));
#159=VECTOR('',#158,5.8);
#160=LINE('',#157,#159);
#161=EDGE_CURVE('',#150,#119,#160,.T.);
#162=ORIENTED_EDGE('',*,*,#161,.T.);
#163=ORIENTED_EDGE('',*,*,#124,.T.);
#164=EDGE_LOOP('',(#148,#156,#162,#163));
#165=FACE_OUTER_BOUND('',#164,.T.);
#166=ADVANCED_FACE('',(#165),#140,.T.);
#167=CARTESIAN_POINT('',(-2.9,-2.899999999999992,0.0));
#168=DIRECTION('',(-1.0,0.0,0.0));
#169=DIRECTION('',(0.0,0.0,1.0));
#170=AXIS2_PLACEMENT_3D('',#167,#168,#169);
#171=PLANE('',#170);
#172=CARTESIAN_POINT('',(-2.9,-2.899999999999992,0.5));
#173=DIRECTION('',(0.0,1.0,0.0));
#174=VECTOR('',#173,5.799999999999997);
#175=LINE('',#172,#174);
#176=EDGE_CURVE('',#142,#71,#175,.T.);
#177=ORIENTED_EDGE('',*,*,#176,.T.);
#178=ORIENTED_EDGE('',*,*,#100,.F.);
#179=CARTESIAN_POINT('',(-2.9,2.900000000000006,0.0));
#180=DIRECTION('',(0.0,-1.0,0.0));
#181=VECTOR('',#180,5.799999999999997);
#182=LINE('',#179,#181);
#183=EDGE_CURVE('',#89,#150,#182,.T.);
#184=ORIENTED_EDGE('',*,*,#183,.T.);
#185=ORIENTED_EDGE('',*,*,#155,.T.);
#186=EDGE_LOOP('',(#177,#178,#184,#185));
#187=FACE_OUTER_BOUND('',#186,.T.);
#188=ADVANCED_FACE('',(#187),#171,.T.);
#189=CARTESIAN_POINT('',(-2.018587E-017,7.105427E-015,0.0));
#190=DIRECTION('',(0.0,0.0,1.0));
#191=DIRECTION('',(1.0,0.0,0.0));
#192=AXIS2_PLACEMENT_3D('',#189,#190,#191);
#193=PLANE('',#192);
#194=ORIENTED_EDGE('',*,*,#183,.F.);
#195=ORIENTED_EDGE('',*,*,#94,.F.);
#196=ORIENTED_EDGE('',*,*,#130,.F.);
#197=ORIENTED_EDGE('',*,*,#161,.F.);
#198=EDGE_LOOP('',(#194,#195,#196,#197));
#199=FACE_OUTER_BOUND('',#198,.T.);
#200=ADVANCED_FACE('',(#199),#193,.F.);
#201=CARTESIAN_POINT('',(2.018587E-017,7.105427E-015,0.5));
#202=DIRECTION('',(0.0,0.0,1.0));
#203=DIRECTION('',(1.0,0.0,0.0));
#204=AXIS2_PLACEMENT_3D('',#201,#202,#203);
#205=PLANE('',#204);
#206=ORIENTED_EDGE('',*,*,#78,.F.);
#207=ORIENTED_EDGE('',*,*,#176,.F.);
#208=ORIENTED_EDGE('',*,*,#147,.F.);
#209=ORIENTED_EDGE('',*,*,#116,.F.);
#210=EDGE_LOOP('',(#206,#207,#208,#209));
#211=FACE_OUTER_BOUND('',#210,.T.);
#212=ADVANCED_FACE('',(#211),#205,.T.);
#213=CLOSED_SHELL('',(#104,#135,#166,#188,#200,#212));
#214=MANIFOLD_SOLID_BREP('4E3',#213);
#215=COLOUR_RGB('250',0.33,0.33,0.33);
#216=SURFACE_STYLE_USAGE(.BOTH.,#217);
#217=SURFACE_SIDE_STYLE('NONE',(#218));
#218=SURFACE_STYLE_FILL_AREA(#219);
#219=FILL_AREA_STYLE('NONE',(#220));
#220=FILL_AREA_STYLE_COLOUR('NONE',#215);
#221=PRESENTATION_STYLE_ASSIGNMENT((#216));
#222=STYLED_ITEM('NONE',(#221),#214);
#223=MECHANICAL_DESIGN_GEOMETRIC_PRESENTATION_REPRESENTATION('NONE',(#222,#705,#999,#1286),#28);
#224=PRESENTATION_LAYER_ASSIGNMENT('3D','None',(#214,#704,#991,#1285));
#225=CARTESIAN_POINT('',(5.200000000000006,1.450000000000006,3.9));
#226=DIRECTION('',(0.983869910099908,0.0,0.178885438199983));
#227=DIRECTION('',(0.178885438199983,0.0,-0.983869910099908));
#228=AXIS2_PLACEMENT_3D('',#225,#226,#227);
#229=PLANE('',#228);
#230=CARTESIAN_POINT('',(5.000000000000005,-2.899999999999992,5.0));
#231=VERTEX_POINT('',#230);
#232=CARTESIAN_POINT('',(5.400000000000006,-2.899999999999992,2.8));
#233=VERTEX_POINT('',#232);
#234=CARTESIAN_POINT('',(5.000000000000006,-2.899999999999992,5.0));
#235=DIRECTION('',(0.178885438199983,0.0,-0.983869910099908));
#236=VECTOR('',#235,2.23606797749979);
#237=LINE('',#234,#236);
#238=EDGE_CURVE('',#231,#233,#237,.T.);
#239=ORIENTED_EDGE('',*,*,#238,.T.);
#240=CARTESIAN_POINT('',(5.400000000000006,2.900000000000006,2.8));
#241=VERTEX_POINT('',#240);
#242=CARTESIAN_POINT('',(5.400000000000006,-2.899999999999992,2.8));
#243=DIRECTION('',(0.0,1.0,0.0));
#244=VECTOR('',#243,5.799999999999997);
#245=LINE('',#242,#244);
#246=EDGE_CURVE('',#233,#241,#245,.T.);
#247=ORIENTED_EDGE('',*,*,#246,.T.);
#248=CARTESIAN_POINT('',(5.000000000000005,2.900000000000006,5.0));
#249=VERTEX_POINT('',#248);
#250=CARTESIAN_POINT('',(5.400000000000008,2.900000000000006,2.8));
#251=DIRECTION('',(-0.178885438199983,0.0,0.983869910099908));
#252=VECTOR('',#251,2.23606797749979);
#253=LINE('',#250,#252);
#254=EDGE_CURVE('',#241,#249,#253,.T.);
#255=ORIENTED_EDGE('',*,*,#254,.T.);
#256=CARTESIAN_POINT('',(5.000000000000005,2.900000000000006,5.0));
#257=DIRECTION('',(0.0,-1.0,0.0));
#258=VECTOR('',#257,5.799999999999997);
#259=LINE('',#256,#258);
#260=EDGE_CURVE('',#249,#231,#259,.T.);
#261=ORIENTED_EDGE('',*,*,#260,.T.);
#262=EDGE_LOOP('',(#239,#247,#255,#261));
#263=FACE_OUTER_BOUND('',#262,.T.);
#264=ADVANCED_FACE('',(#263),#229,.T.);
#265=CARTESIAN_POINT('',(5.400000000000006,2.900000000000006,0.0));
#266=DIRECTION('',(1.0,0.0,0.0));
#267=DIRECTION('',(0.0,0.0,-1.0));
#268=AXIS2_PLACEMENT_3D('',#265,#266,#267);
#269=PLANE('',#268);
#270=ORIENTED_EDGE('',*,*,#246,.F.);
#271=CARTESIAN_POINT('',(5.400000000000006,-2.899999999999992,0.5));
#272=VERTEX_POINT('',#271);
#273=CARTESIAN_POINT('',(5.400000000000006,-2.899999999999992,0.5));
#274=DIRECTION('',(0.0,0.0,1.0));
#275=VECTOR('',#274,2.3);
#276=LINE('',#273,#275);
#277=EDGE_CURVE('',#272,#233,#276,.T.);
#278=ORIENTED_EDGE('',*,*,#277,.F.);
#279=CARTESIAN_POINT('',(5.400000000000006,-0.999999999999993,0.5));
#280=VERTEX_POINT('',#279);
#281=CARTESIAN_POINT('',(5.400000000000006,-2.899999999999992,0.5));
#282=DIRECTION('',(0.0,1.0,0.0));
#283=VECTOR('',#282,1.899999999999999);
#284=LINE('',#281,#283);
#285=EDGE_CURVE('',#272,#280,#284,.T.);
#286=ORIENTED_EDGE('',*,*,#285,.T.);
#287=CARTESIAN_POINT('',(5.4,-0.999999999999993,0.6));
#288=VERTEX_POINT('',#287);
#289=CARTESIAN_POINT('',(5.400000000000006,-0.999999999999993,0.5));
#290=DIRECTION('',(0.0,0.0,1.0));
#291=VECTOR('',#290,0.1);
#292=LINE('',#289,#291);
#293=EDGE_CURVE('',#280,#288,#292,.T.);
#294=ORIENTED_EDGE('',*,*,#293,.T.);
#295=CARTESIAN_POINT('',(5.4,1.000000000000007,0.6));
#296=VERTEX_POINT('',#295);
#297=CARTESIAN_POINT('',(5.400000000000006,-0.999999999999993,0.6));
#298=DIRECTION('',(0.0,1.0,0.0));
#299=VECTOR('',#298,2.0);
#300=LINE('',#297,#299);
#301=EDGE_CURVE('',#288,#296,#300,.T.);
#302=ORIENTED_EDGE('',*,*,#301,.T.);
#303=CARTESIAN_POINT('',(5.400000000000006,1.000000000000007,0.5));
#304=VERTEX_POINT('',#303);
#305=CARTESIAN_POINT('',(5.400000000000006,1.000000000000007,0.6));
#306=DIRECTION('',(0.0,0.0,-1.0));
#307=VECTOR('',#306,0.1);
#308=LINE('',#305,#307);
#309=EDGE_CURVE('',#296,#304,#308,.T.);
#310=ORIENTED_EDGE('',*,*,#309,.T.);
#311=CARTESIAN_POINT('',(5.400000000000006,2.900000000000006,0.5));
#312=VERTEX_POINT('',#311);
#313=CARTESIAN_POINT('',(5.400000000000006,1.000000000000007,0.5));
#314=DIRECTION('',(0.0,1.0,0.0));
#315=VECTOR('',#314,1.899999999999999);
#316=LINE('',#313,#315);
#317=EDGE_CURVE('',#304,#312,#316,.T.);
#318=ORIENTED_EDGE('',*,*,#317,.T.);
#319=CARTESIAN_POINT('',(5.400000000000006,2.900000000000006,0.5));
#320=DIRECTION('',(0.0,0.0,1.0));
#321=VECTOR('',#320,2.3);
#322=LINE('',#319,#321);
#323=EDGE_CURVE('',#312,#241,#322,.T.);
#324=ORIENTED_EDGE('',*,*,#323,.T.);
#325=EDGE_LOOP('',(#270,#278,#286,#294,#302,#310,#318,#324));
#326=FACE_OUTER_BOUND('',#325,.T.);
#327=ADVANCED_FACE('',(#326),#269,.T.);
#328=CARTESIAN_POINT('',(5.400000000000006,-2.899999999999992,0.0));
#329=DIRECTION('',(0.0,-1.0,0.0));
#330=DIRECTION('',(0.0,0.0,-1.0));
#331=AXIS2_PLACEMENT_3D('',#328,#329,#330);
#332=PLANE('',#331);
#333=ORIENTED_EDGE('',*,*,#238,.F.);
#334=CARTESIAN_POINT('',(-5.000000000000005,-2.899999999999992,5.0));
#335=VERTEX_POINT('',#334);
#336=CARTESIAN_POINT('',(5.000000000000005,-2.899999999999992,5.0));
#337=DIRECTION('',(-1.0,0.0,0.0));
#338=VECTOR('',#337,10.000000000000011);
#339=LINE('',#336,#338);
#340=EDGE_CURVE('',#231,#335,#339,.T.);
#341=ORIENTED_EDGE('',*,*,#340,.T.);
#342=CARTESIAN_POINT('',(-5.400000000000006,-2.899999999999992,2.8));
#343=VERTEX_POINT('',#342);
#344=CARTESIAN_POINT('',(-5.400000000000008,-2.899999999999992,2.8));
#345=DIRECTION('',(0.178885438199983,0.0,0.983869910099908));
#346=VECTOR('',#345,2.23606797749979);
#347=LINE('',#344,#346);
#348=EDGE_CURVE('',#343,#335,#347,.T.);
#349=ORIENTED_EDGE('',*,*,#348,.F.);
#350=CARTESIAN_POINT('',(-5.400000000000006,-2.899999999999992,0.5));
#351=VERTEX_POINT('',#350);
#352=CARTESIAN_POINT('',(-5.400000000000006,-2.899999999999992,0.5));
#353=DIRECTION('',(0.0,0.0,1.0));
#354=VECTOR('',#353,2.3);
#355=LINE('',#352,#354);
#356=EDGE_CURVE('',#351,#343,#355,.T.);
#357=ORIENTED_EDGE('',*,*,#356,.F.);
#358=CARTESIAN_POINT('',(-5.400000000000006,-2.899999999999992,0.5));
#359=DIRECTION('',(1.0,0.0,0.0));
#360=VECTOR('',#359,10.800000000000011);
#361=LINE('',#358,#360);
#362=EDGE_CURVE('',#351,#272,#361,.T.);
#363=ORIENTED_EDGE('',*,*,#362,.T.);
#364=ORIENTED_EDGE('',*,*,#277,.T.);
#365=EDGE_LOOP('',(#333,#341,#349,#357,#363,#364));
#366=FACE_OUTER_BOUND('',#365,.T.);
#367=ADVANCED_FACE('',(#366),#332,.T.);
#368=CARTESIAN_POINT('',(-5.200000000000006,-1.449999999999992,3.9));
#369=DIRECTION('',(-0.983869910099908,0.0,0.178885438199983));
#370=DIRECTION('',(0.178885438199983,0.0,0.983869910099908));
#371=AXIS2_PLACEMENT_3D('',#368,#369,#370);
#372=PLANE('',#371);
#373=CARTESIAN_POINT('',(-5.000000000000005,2.900000000000006,5.0));
#374=VERTEX_POINT('',#373);
#375=CARTESIAN_POINT('',(-5.400000000000006,2.900000000000006,2.8));
#376=VERTEX_POINT('',#375);
#377=CARTESIAN_POINT('',(-5.000000000000006,2.900000000000006,5.0));
#378=DIRECTION('',(-0.178885438199983,0.0,-0.983869910099908));
#379=VECTOR('',#378,2.23606797749979);
#380=LINE('',#377,#379);
#381=EDGE_CURVE('',#374,#376,#380,.T.);
#382=ORIENTED_EDGE('',*,*,#381,.T.);
#383=CARTESIAN_POINT('',(-5.400000000000006,2.900000000000006,2.8));
#384=DIRECTION('',(0.0,-1.0,0.0));
#385=VECTOR('',#384,5.799999999999997);
#386=LINE('',#383,#385);
#387=EDGE_CURVE('',#376,#343,#386,.T.);
#388=ORIENTED_EDGE('',*,*,#387,.T.);
#389=ORIENTED_EDGE('',*,*,#348,.T.);
#390=CARTESIAN_POINT('',(-5.000000000000005,-2.899999999999992,5.0));
#391=DIRECTION('',(0.0,1.0,0.0));
#392=VECTOR('',#391,5.799999999999997);
#393=LINE('',#390,#392);
#394=EDGE_CURVE('',#335,#374,#393,.T.);
#395=ORIENTED_EDGE('',*,*,#394,.T.);
#396=EDGE_LOOP('',(#382,#388,#389,#395));
#397=FACE_OUTER_BOUND('',#396,.T.);
#398=ADVANCED_FACE('',(#397),#372,.T.);
#399=CARTESIAN_POINT('',(-5.400000000000006,-2.899999999999992,0.0));
#400=DIRECTION('',(-1.0,0.0,0.0));
#401=DIRECTION('',(0.0,0.0,1.0));
#402=AXIS2_PLACEMENT_3D('',#399,#400,#401);
#403=PLANE('',#402);
#404=ORIENTED_EDGE('',*,*,#387,.F.);
#405=CARTESIAN_POINT('',(-5.400000000000006,2.900000000000006,0.5));
#406=VERTEX_POINT('',#405);
#407=CARTESIAN_POINT('',(-5.400000000000006,2.900000000000006,0.5));
#408=DIRECTION('',(0.0,0.0,1.0));
#409=VECTOR('',#408,2.3);
#410=LINE('',#407,#409);
#411=EDGE_CURVE('',#406,#376,#410,.T.);
#412=ORIENTED_EDGE('',*,*,#411,.F.);
#413=CARTESIAN_POINT('',(-5.400000000000006,1.000000000000007,0.5));
#414=VERTEX_POINT('',#413);
#415=CARTESIAN_POINT('',(-5.400000000000006,2.900000000000006,0.5));
#416=DIRECTION('',(0.0,-1.0,0.0));
#417=VECTOR('',#416,1.899999999999999);
#418=LINE('',#415,#417);
#419=EDGE_CURVE('',#406,#414,#418,.T.);
#420=ORIENTED_EDGE('',*,*,#419,.T.);
#421=CARTESIAN_POINT('',(-5.4,1.000000000000007,0.6));
#422=VERTEX_POINT('',#421);
#423=CARTESIAN_POINT('',(-5.400000000000006,1.000000000000007,0.5));
#424=DIRECTION('',(0.0,0.0,1.0));
#425=VECTOR('',#424,0.1);
#426=LINE('',#423,#425);
#427=EDGE_CURVE('',#414,#422,#426,.T.);
#428=ORIENTED_EDGE('',*,*,#427,.T.);
#429=CARTESIAN_POINT('',(-5.4,-0.999999999999993,0.6));
#430=VERTEX_POINT('',#429);
#431=CARTESIAN_POINT('',(-5.400000000000006,1.000000000000007,0.6));
#432=DIRECTION('',(0.0,-1.0,0.0));
#433=VECTOR('',#432,2.0);
#434=LINE('',#431,#433);
#435=EDGE_CURVE('',#422,#430,#434,.T.);
#436=ORIENTED_EDGE('',*,*,#435,.T.);
#437=CARTESIAN_POINT('',(-5.400000000000006,-0.999999999999993,0.5));
#438=VERTEX_POINT('',#437);
#439=CARTESIAN_POINT('',(-5.400000000000006,-0.999999999999993,0.6));
#440=DIRECTION('',(0.0,0.0,-1.0));
#441=VECTOR('',#440,0.1);
#442=LINE('',#439,#441);
#443=EDGE_CURVE('',#430,#438,#442,.T.);
#444=ORIENTED_EDGE('',*,*,#443,.T.);
#445=CARTESIAN_POINT('',(-5.400000000000006,-0.999999999999993,0.5));
#446=DIRECTION('',(0.0,-1.0,0.0));
#447=VECTOR('',#446,1.899999999999999);
#448=LINE('',#445,#447);
#449=EDGE_CURVE('',#438,#351,#448,.T.);
#450=ORIENTED_EDGE('',*,*,#449,.T.);
#451=ORIENTED_EDGE('',*,*,#356,.T.);
#452=EDGE_LOOP('',(#404,#412,#420,#428,#436,#444,#450,#451));
#453=FACE_OUTER_BOUND('',#452,.T.);
#454=ADVANCED_FACE('',(#453),#403,.T.);
#455=CARTESIAN_POINT('',(-5.072549019607843,1.000000000000007,0.877450980392157));
#456=DIRECTION('',(0.0,1.0,0.0));
#457=DIRECTION('',(0.0,0.0,1.0));
#458=AXIS2_PLACEMENT_3D('',#455,#456,#457);
#459=PLANE('',#458);
#460=ORIENTED_EDGE('',*,*,#427,.F.);
#461=CARTESIAN_POINT('',(-3.4,1.000000000000007,0.5));
#462=VERTEX_POINT('',#461);
#463=CARTESIAN_POINT('',(-3.4,1.000000000000007,0.5));
#464=DIRECTION('',(-1.0,0.0,0.0));
#465=VECTOR('',#464,2.000000000000006);
#466=LINE('',#463,#465);
#467=EDGE_CURVE('',#462,#414,#466,.T.);
#468=ORIENTED_EDGE('',*,*,#467,.F.);
#469=CARTESIAN_POINT('',(-3.4,1.000000000000007,0.6));
#470=VERTEX_POINT('',#469);
#471=CARTESIAN_POINT('',(-3.4,1.000000000000007,0.5));
#472=DIRECTION('',(0.0,0.0,1.0));
#473=VECTOR('',#472,0.1);
#474=LINE('',#471,#473);
#475=EDGE_CURVE('',#462,#470,#474,.T.);
#476=ORIENTED_EDGE('',*,*,#475,.T.);
#477=CARTESIAN_POINT('',(-3.4,1.000000000000007,0.6));
#478=DIRECTION('',(-1.0,0.0,0.0));
#479=VECTOR('',#478,2.0);
#480=LINE('',#477,#479);
#481=EDGE_CURVE('',#470,#422,#480,.T.);
#482=ORIENTED_EDGE('',*,*,#481,.T.);
#483=EDGE_LOOP('',(#460,#468,#476,#482));
#484=FACE_OUTER_BOUND('',#483,.T.);
#485=ADVANCED_FACE('',(#484),#459,.F.);
#486=CARTESIAN_POINT('',(-3.4,-0.999999999999993,2.465190E-032));
#487=DIRECTION('',(1.0,0.0,0.0));
#488=DIRECTION('',(0.0,0.0,-1.0));
#489=AXIS2_PLACEMENT_3D('',#486,#487,#488);
#490=PLANE('',#489);
#491=ORIENTED_EDGE('',*,*,#475,.F.);
#492=CARTESIAN_POINT('',(-3.4,-0.999999999999993,0.5));
#493=VERTEX_POINT('',#492);
#494=CARTESIAN_POINT('',(-3.4,-0.999999999999993,0.5));
#495=DIRECTION('',(0.0,1.0,0.0));
#496=VECTOR('',#495,2.0);
#497=LINE('',#494,#496);
#498=EDGE_CURVE('',#493,#462,#497,.T.);
#499=ORIENTED_EDGE('',*,*,#498,.F.);
#500=CARTESIAN_POINT('',(-3.4,-0.999999999999993,0.6));
#501=VERTEX_POINT('',#500);
#502=CARTESIAN_POINT('',(-3.4,-0.999999999999993,0.5));
#503=DIRECTION('',(0.0,0.0,1.0));
#504=VECTOR('',#503,0.1);
#505=LINE('',#502,#504);
#506=EDGE_CURVE('',#493,#501,#505,.T.);
#507=ORIENTED_EDGE('',*,*,#506,.T.);
#508=CARTESIAN_POINT('',(-3.4,-0.999999999999993,0.6));
#509=DIRECTION('',(0.0,1.0,0.0));
#510=VECTOR('',#509,2.0);
#511=LINE('',#508,#510);
#512=EDGE_CURVE('',#501,#470,#511,.T.);
#513=ORIENTED_EDGE('',*,*,#512,.T.);
#514=EDGE_LOOP('',(#491,#499,#507,#513));
#515=FACE_OUTER_BOUND('',#514,.T.);
#516=ADVANCED_FACE('',(#515),#490,.F.);
#517=CARTESIAN_POINT('',(-3.4,-0.999999999999993,0.6));
#518=DIRECTION('',(0.0,0.0,1.0));
#519=DIRECTION('',(1.0,0.0,0.0));
#520=AXIS2_PLACEMENT_3D('',#517,#518,#519);
#521=PLANE('',#520);
#522=ORIENTED_EDGE('',*,*,#481,.F.);
#523=ORIENTED_EDGE('',*,*,#512,.F.);
#524=CARTESIAN_POINT('',(-3.4,-0.999999999999993,0.6));
#525=DIRECTION('',(-1.0,0.0,0.0));
#526=VECTOR('',#525,2.0);
#527=LINE('',#524,#526);
#528=EDGE_CURVE('',#501,#430,#527,.T.);
#529=ORIENTED_EDGE('',*,*,#528,.T.);
#530=ORIENTED_EDGE('',*,*,#435,.F.);
#531=EDGE_LOOP('',(#522,#523,#529,#530));
#532=FACE_OUTER_BOUND('',#531,.T.);
#533=ADVANCED_FACE('',(#532),#521,.F.);
#534=CARTESIAN_POINT('',(-5.072549019607843,-0.999999999999993,0.877450980392157));
#535=DIRECTION('',(0.0,1.0,0.0));
#536=DIRECTION('',(0.0,0.0,1.0));
#537=AXIS2_PLACEMENT_3D('',#534,#535,#536);
#538=PLANE('',#537);
#539=ORIENTED_EDGE('',*,*,#443,.F.);
#540=ORIENTED_EDGE('',*,*,#528,.F.);
#541=ORIENTED_EDGE('',*,*,#506,.F.);
#542=CARTESIAN_POINT('',(-5.400000000000006,-0.999999999999993,0.5));
#543=DIRECTION('',(1.0,0.0,0.0));
#544=VECTOR('',#543,2.000000000000006);
#545=LINE('',#542,#544);
#546=EDGE_CURVE('',#438,#493,#545,.T.);
#547=ORIENTED_EDGE('',*,*,#546,.F.);
#548=EDGE_LOOP('',(#539,#540,#541,#547));
#549=FACE_OUTER_BOUND('',#548,.T.);
#550=ADVANCED_FACE('',(#549),#538,.T.);
#551=CARTESIAN_POINT('',(3.4,-0.999999999999993,0.5));
#552=CARTESIAN_POINT('',(3.4,-0.999999999999993,0.6));
#553=CARTESIAN_POINT('',(5.400000000000006,-0.999999999999993,0.5));
#554=CARTESIAN_POINT('',(5.400000000000006,-0.999999999999993,0.6));
#555=B_SPLINE_SURFACE_WITH_KNOTS('',1,1,((#551,#553),(#552,#554)),.UNSPECIFIED.,.F.,.F.,.U.,(2,2),(2,2),(0.0,0.1),(0.0,2.000000000000006),.UNSPECIFIED.);
#556=ORIENTED_EDGE('',*,*,#293,.F.);
#557=CARTESIAN_POINT('',(3.4,-0.999999999999993,0.5));
#558=VERTEX_POINT('',#557);
#559=CARTESIAN_POINT('',(3.4,-0.999999999999993,0.5));
#560=DIRECTION('',(1.0,0.0,0.0));
#561=VECTOR('',#560,2.000000000000006);
#562=LINE('',#559,#561);
#563=EDGE_CURVE('',#558,#280,#562,.T.);
#564=ORIENTED_EDGE('',*,*,#563,.F.);
#565=CARTESIAN_POINT('',(3.4,-0.999999999999993,0.6));
#566=VERTEX_POINT('',#565);
#567=CARTESIAN_POINT('',(3.4,-0.999999999999993,0.5));
#568=DIRECTION('',(0.0,0.0,1.0));
#569=VECTOR('',#568,0.1);
#570=LINE('',#567,#569);
#571=EDGE_CURVE('',#558,#566,#570,.T.);
#572=ORIENTED_EDGE('',*,*,#571,.T.);
#573=CARTESIAN_POINT('',(3.4,-0.999999999999993,0.6));
#574=DIRECTION('',(1.0,0.0,0.0));
#575=VECTOR('',#574,2.0);
#576=LINE('',#573,#575);
#577=EDGE_CURVE('',#566,#288,#576,.T.);
#578=ORIENTED_EDGE('',*,*,#577,.T.);
#579=EDGE_LOOP('',(#556,#564,#572,#578));
#580=FACE_OUTER_BOUND('',#579,.T.);
#581=ADVANCED_FACE('',(#580),#555,.T.);
#582=CARTESIAN_POINT('',(3.4,1.000000000000007,0.6));
#583=CARTESIAN_POINT('',(3.4,1.000000000000007,0.5));
#584=CARTESIAN_POINT('',(3.4,-0.999999999999993,0.6));
#585=CARTESIAN_POINT('',(3.4,-0.999999999999993,0.5));
#586=B_SPLINE_SURFACE_WITH_KNOTS('',1,1,((#582,#584),(#583,#585)),.UNSPECIFIED.,.F.,.F.,.U.,(2,2),(2,2),(0.0,0.1),(0.0,2.0),.UNSPECIFIED.);
#587=CARTESIAN_POINT('',(3.4,1.000000000000007,0.5));
#588=VERTEX_POINT('',#587);
#589=CARTESIAN_POINT('',(3.4,1.000000000000007,0.6));
#590=VERTEX_POINT('',#589);
#591=CARTESIAN_POINT('',(3.4,1.000000000000007,0.5));
#592=DIRECTION('',(0.0,0.0,1.0));
#593=VECTOR('',#592,0.1);
#594=LINE('',#591,#593);
#595=EDGE_CURVE('',#588,#590,#594,.T.);
#596=ORIENTED_EDGE('',*,*,#595,.T.);
#597=CARTESIAN_POINT('',(3.4,-0.999999999999993,0.6));
#598=DIRECTION('',(0.0,1.0,0.0));
#599=VECTOR('',#598,2.0);
#600=LINE('',#597,#599);
#601=EDGE_CURVE('',#566,#590,#600,.T.);
#602=ORIENTED_EDGE('',*,*,#601,.F.);
#603=ORIENTED_EDGE('',*,*,#571,.F.);
#604=CARTESIAN_POINT('',(3.4,1.000000000000007,0.5));
#605=DIRECTION('',(0.0,-1.0,0.0));
#606=VECTOR('',#605,2.0);
#607=LINE('',#604,#606);
#608=EDGE_CURVE('',#588,#558,#607,.T.);
#609=ORIENTED_EDGE('',*,*,#608,.F.);
#610=EDGE_LOOP('',(#596,#602,#603,#609));
#611=FACE_OUTER_BOUND('',#610,.T.);
#612=ADVANCED_FACE('',(#611),#586,.F.);
#613=CARTESIAN_POINT('',(5.400000000000006,1.000000000000007,0.6));
#614=CARTESIAN_POINT('',(3.4,1.000000000000007,0.6));
#615=CARTESIAN_POINT('',(5.400000000000006,-0.999999999999993,0.6));
#616=CARTESIAN_POINT('',(3.4,-0.999999999999993,0.6));
#617=B_SPLINE_SURFACE_WITH_KNOTS('',1,1,((#613,#615),(#614,#616)),.UNSPECIFIED.,.F.,.F.,.U.,(2,2),(2,2),(0.0,2.000000000000006),(0.0,2.0),.UNSPECIFIED.);
#618=CARTESIAN_POINT('',(3.4,1.000000000000007,0.6));
#619=DIRECTION('',(1.0,0.0,0.0));
#620=VECTOR('',#619,2.0);
#621=LINE('',#618,#620);
#622=EDGE_CURVE('',#590,#296,#621,.T.);
#623=ORIENTED_EDGE('',*,*,#622,.T.);
#624=ORIENTED_EDGE('',*,*,#301,.F.);
#625=ORIENTED_EDGE('',*,*,#577,.F.);
#626=ORIENTED_EDGE('',*,*,#601,.T.);
#627=EDGE_LOOP('',(#623,#624,#625,#626));
#628=FACE_OUTER_BOUND('',#627,.T.);
#629=ADVANCED_FACE('',(#628),#617,.F.);
#630=CARTESIAN_POINT('',(3.4,1.000000000000007,0.5));
#631=CARTESIAN_POINT('',(3.4,1.000000000000007,0.6));
#632=CARTESIAN_POINT('',(5.400000000000006,1.000000000000007,0.5));
#633=CARTESIAN_POINT('',(5.400000000000006,1.000000000000007,0.6));
#634=B_SPLINE_SURFACE_WITH_KNOTS('',1,1,((#630,#632),(#631,#633)),.UNSPECIFIED.,.F.,.F.,.U.,(2,2),(2,2),(0.0,0.1),(0.0,2.000000000000006),.UNSPECIFIED.);
#635=ORIENTED_EDGE('',*,*,#309,.F.);
#636=ORIENTED_EDGE('',*,*,#622,.F.);
#637=ORIENTED_EDGE('',*,*,#595,.F.);
#638=CARTESIAN_POINT('',(5.400000000000006,1.000000000000007,0.5));
#639=DIRECTION('',(-1.0,0.0,0.0));
#640=VECTOR('',#639,2.000000000000006);
#641=LINE('',#638,#640);
#642=EDGE_CURVE('',#304,#588,#641,.T.);
#643=ORIENTED_EDGE('',*,*,#642,.F.);
#644=EDGE_LOOP('',(#635,#636,#637,#643));
#645=FACE_OUTER_BOUND('',#644,.T.);
#646=ADVANCED_FACE('',(#645),#634,.F.);
#647=CARTESIAN_POINT('',(0.0,7.111386E-015,0.5));
#648=DIRECTION('',(0.0,0.0,1.0));
#649=DIRECTION('',(1.0,0.0,0.0));
#650=AXIS2_PLACEMENT_3D('',#647,#648,#649);
#651=PLANE('',#650);
#652=ORIENTED_EDGE('',*,*,#546,.T.);
#653=ORIENTED_EDGE('',*,*,#498,.T.);
#654=ORIENTED_EDGE('',*,*,#467,.T.);
#655=ORIENTED_EDGE('',*,*,#419,.F.);
#656=CARTESIAN_POINT('',(5.400000000000006,2.900000000000006,0.5));
#657=DIRECTION('',(-1.0,0.0,0.0));
#658=VECTOR('',#657,10.800000000000011);
#659=LINE('',#656,#658);
#660=EDGE_CURVE('',#312,#406,#659,.T.);
#661=ORIENTED_EDGE('',*,*,#660,.F.);
#662=ORIENTED_EDGE('',*,*,#317,.F.);
#663=ORIENTED_EDGE('',*,*,#642,.T.);
#664=ORIENTED_EDGE('',*,*,#608,.T.);
#665=ORIENTED_EDGE('',*,*,#563,.T.);
#666=ORIENTED_EDGE('',*,*,#285,.F.);
#667=ORIENTED_EDGE('',*,*,#362,.F.);
#668=ORIENTED_EDGE('',*,*,#449,.F.);
#669=EDGE_LOOP('',(#652,#653,#654,#655,#661,#662,#663,#664,#665,#666,#667,#668));
#670=FACE_OUTER_BOUND('',#669,.T.);
#671=ADVANCED_FACE('',(#670),#651,.F.);
#672=CARTESIAN_POINT('',(-5.400000000000006,2.900000000000006,0.0));
#673=DIRECTION('',(0.0,1.0,0.0));
#674=DIRECTION('',(0.0,0.0,1.0));
#675=AXIS2_PLACEMENT_3D('',#672,#673,#674);
#676=PLANE('',#675);
#677=ORIENTED_EDGE('',*,*,#254,.F.);
#678=ORIENTED_EDGE('',*,*,#323,.F.);
#679=ORIENTED_EDGE('',*,*,#660,.T.);
#680=ORIENTED_EDGE('',*,*,#411,.T.);
#681=ORIENTED_EDGE('',*,*,#381,.F.);
#682=CARTESIAN_POINT('',(-5.000000000000005,2.900000000000006,5.0));
#683=DIRECTION('',(1.0,0.0,0.0));
#684=VECTOR('',#683,10.000000000000011);
#685=LINE('',#682,#684);
#686=EDGE_CURVE('',#374,#249,#685,.T.);
#687=ORIENTED_EDGE('',*,*,#686,.T.);
#688=EDGE_LOOP('',(#677,#678,#679,#680,#681,#687));
#689=FACE_OUTER_BOUND('',#688,.T.);
#690=ADVANCED_FACE('',(#689),#676,.T.);
#691=CARTESIAN_POINT('',(0.0,7.111386E-015,5.0));
#692=DIRECTION('',(0.0,0.0,1.0));
#693=DIRECTION('',(1.0,0.0,0.0));
#694=AXIS2_PLACEMENT_3D('',#691,#692,#693);
#695=PLANE('',#694);
#696=ORIENTED_EDGE('',*,*,#260,.F.);
#697=ORIENTED_EDGE('',*,*,#686,.F.);
#698=ORIENTED_EDGE('',*,*,#394,.F.);
#699=ORIENTED_EDGE('',*,*,#340,.F.);
#700=EDGE_LOOP('',(#696,#697,#698,#699));
#701=FACE_OUTER_BOUND('',#700,.T.);
#702=ADVANCED_FACE('',(#701),#695,.T.);
#703=CLOSED_SHELL('',(#264,#327,#367,#398,#454,#485,#516,#533,#550,#581,#612,#629,#646,#671,#690,#702));
#704=MANIFOLD_SOLID_BREP('3B6',#703);
#705=STYLED_ITEM('NONE',(#221),#704);
#706=CARTESIAN_POINT('',(5.699999999999999,-0.999999999999993,0.3));
#707=DIRECTION('',(0.0,1.0,-2.220446E-016));
#708=DIRECTION('',(0.707106781186548,-5.233642E-016,-0.707106781186547));
#709=AXIS2_PLACEMENT_3D('',#706,#707,#708);
#710=CYLINDRICAL_SURFACE('',#709,0.3);
#711=CARTESIAN_POINT('',(5.699999999999999,1.000000000000007,-4.440892E-016));
#712=VERTEX_POINT('',#711);
#713=CARTESIAN_POINT('',(6.0,1.000000000000007,0.3));
#714=VERTEX_POINT('',#713);
#715=CARTESIAN_POINT('',(5.699999999999999,1.000000000000007,0.3));
#716=DIRECTION('',(-3.700743E-016,-1.0,3.700743E-016));
#717=DIRECTION('',(0.707106781186548,-5.233642E-016,-0.707106781186547));
#718=AXIS2_PLACEMENT_3D('',#715,#716,#717);
#719=CIRCLE('',#718,0.3);
#720=EDGE_CURVE('',#712,#714,#719,.T.);
#721=ORIENTED_EDGE('',*,*,#720,.T.);
#722=CARTESIAN_POINT('',(6.0,-0.999999999999993,0.3));
#723=VERTEX_POINT('',#722);
#724=CARTESIAN_POINT('',(6.0,1.000000000000007,0.3));
#725=DIRECTION('',(0.0,-1.0,0.0));
#726=VECTOR('',#725,2.0);
#727=LINE('',#724,#726);
#728=EDGE_CURVE('',#714,#723,#727,.T.);
#729=ORIENTED_EDGE('',*,*,#728,.T.);
#730=CARTESIAN_POINT('',(5.699999999999999,-0.999999999999993,2.844450E-033));
#731=VERTEX_POINT('',#730);
#732=CARTESIAN_POINT('',(5.699999999999999,-0.999999999999993,0.3));
#733=DIRECTION('',(3.700743E-016,1.0,-3.700743E-016));
#734=DIRECTION('',(0.707106781186548,-5.233642E-016,-0.707106781186547));
#735=AXIS2_PLACEMENT_3D('',#732,#733,#734);
#736=CIRCLE('',#735,0.3);
#737=EDGE_CURVE('',#723,#731,#736,.T.);
#738=ORIENTED_EDGE('',*,*,#737,.T.);
#739=CARTESIAN_POINT('',(5.699999999999999,-0.999999999999993,1.402422E-064));
#740=DIRECTION('',(0.0,1.0,0.0));
#741=VECTOR('',#740,2.0);
#742=LINE('',#739,#741);
#743=EDGE_CURVE('',#731,#712,#742,.T.);
#744=ORIENTED_EDGE('',*,*,#743,.T.);
#745=EDGE_LOOP('',(#721,#729,#738,#744));
#746=FACE_OUTER_BOUND('',#745,.T.);
#747=ADVANCED_FACE('',(#746),#710,.T.);
#748=CARTESIAN_POINT('',(6.0,1.000000000000008,0.3));
#749=CARTESIAN_POINT('',(6.0,1.000000000000008,2.2));
#750=CARTESIAN_POINT('',(6.0,-0.999999999999993,0.3));
#751=CARTESIAN_POINT('',(6.0,-0.999999999999993,2.2));
#752=B_SPLINE_SURFACE_WITH_KNOTS('',1,1,((#748,#750),(#749,#751)),.UNSPECIFIED.,.F.,.F.,.U.,(2,2),(2,2),(0.0,1.9),(0.0,2.0),.UNSPECIFIED.);
#753=ORIENTED_EDGE('',*,*,#728,.F.);
#754=CARTESIAN_POINT('',(6.0,1.000000000000008,2.2));
#755=VERTEX_POINT('',#754);
#756=CARTESIAN_POINT('',(6.0,1.000000000000008,2.2));
#757=DIRECTION('',(0.0,0.0,-1.0));
#758=VECTOR('',#757,1.9);
#759=LINE('',#756,#758);
#760=EDGE_CURVE('',#755,#714,#759,.T.);
#761=ORIENTED_EDGE('',*,*,#760,.F.);
#762=CARTESIAN_POINT('',(6.0,-0.999999999999992,2.2));
#763=VERTEX_POINT('',#762);
#764=CARTESIAN_POINT('',(6.0,-0.999999999999992,2.2));
#765=DIRECTION('',(0.0,1.0,0.0));
#766=VECTOR('',#765,2.0);
#767=LINE('',#764,#766);
#768=EDGE_CURVE('',#763,#755,#767,.T.);
#769=ORIENTED_EDGE('',*,*,#768,.F.);
#770=CARTESIAN_POINT('',(6.0,-0.999999999999992,2.2));
#771=DIRECTION('',(0.0,0.0,-1.0));
#772=VECTOR('',#771,1.9);
#773=LINE('',#770,#772);
#774=EDGE_CURVE('',#763,#723,#773,.T.);
#775=ORIENTED_EDGE('',*,*,#774,.T.);
#776=EDGE_LOOP('',(#753,#761,#769,#775));
#777=FACE_OUTER_BOUND('',#776,.T.);
#778=ADVANCED_FACE('',(#777),#752,.T.);
#779=CARTESIAN_POINT('',(3.4,1.000000000000007,-4.440892E-016));
#780=CARTESIAN_POINT('',(3.4,1.000000000000007,2.499999999999999));
#781=CARTESIAN_POINT('',(6.0,1.000000000000007,-4.440892E-016));
#782=CARTESIAN_POINT('',(6.0,1.000000000000007,2.499999999999999));
#783=B_SPLINE_SURFACE_WITH_KNOTS('',1,1,((#779,#781),(#780,#782)),.UNSPECIFIED.,.F.,.F.,.U.,(2,2),(2,2),(0.0,2.5),(0.0,2.6),.UNSPECIFIED.);
#784=ORIENTED_EDGE('',*,*,#720,.F.);
#785=CARTESIAN_POINT('',(3.4,1.000000000000007,-4.440892E-016));
#786=VERTEX_POINT('',#785);
#787=CARTESIAN_POINT('',(5.699999999999999,1.000000000000007,-4.440892E-016));
#788=DIRECTION('',(-1.0,0.0,0.0));
#789=VECTOR('',#788,2.299999999999999);
#790=LINE('',#787,#789);
#791=EDGE_CURVE('',#712,#786,#790,.T.);
#792=ORIENTED_EDGE('',*,*,#791,.T.);
#793=CARTESIAN_POINT('',(3.4,1.000000000000007,0.6));
#794=VERTEX_POINT('',#793);
#795=CARTESIAN_POINT('',(3.4,1.000000000000007,-4.440892E-016));
#796=DIRECTION('',(0.0,0.0,1.0));
#797=VECTOR('',#796,0.6);
#798=LINE('',#795,#797);
#799=EDGE_CURVE('',#786,#794,#798,.T.);
#800=ORIENTED_EDGE('',*,*,#799,.T.);
#801=CARTESIAN_POINT('',(5.4,1.000000000000007,0.6));
#802=VERTEX_POINT('',#801);
#803=CARTESIAN_POINT('',(3.4,1.000000000000007,0.6));
#804=DIRECTION('',(1.0,0.0,0.0));
#805=VECTOR('',#804,2.0);
#806=LINE('',#803,#805);
#807=EDGE_CURVE('',#794,#802,#806,.T.);
#808=ORIENTED_EDGE('',*,*,#807,.T.);
#809=CARTESIAN_POINT('',(5.4,1.000000000000008,2.5));
#810=VERTEX_POINT('',#809);
#811=CARTESIAN_POINT('',(5.4,1.000000000000007,0.6));
#812=DIRECTION('',(0.0,0.0,1.0));
#813=VECTOR('',#812,1.9);
#814=LINE('',#811,#813);
#815=EDGE_CURVE('',#802,#810,#814,.T.);
#816=ORIENTED_EDGE('',*,*,#815,.T.);
#817=CARTESIAN_POINT('',(5.7,1.000000000000008,2.5));
#818=VERTEX_POINT('',#817);
#819=CARTESIAN_POINT('',(5.4,1.000000000000008,2.5));
#820=DIRECTION('',(1.0,0.0,0.0));
#821=VECTOR('',#820,0.3);
#822=LINE('',#819,#821);
#823=EDGE_CURVE('',#810,#818,#822,.T.);
#824=ORIENTED_EDGE('',*,*,#823,.T.);
#825=CARTESIAN_POINT('',(5.7,1.000000000000007,2.2));
#826=DIRECTION('',(0.0,-1.0,0.0));
#827=DIRECTION('',(0.707106781186547,0.0,0.707106781186549));
#828=AXIS2_PLACEMENT_3D('',#825,#826,#827);
#829=CIRCLE('',#828,0.3);
#830=EDGE_CURVE('',#755,#818,#829,.T.);
#831=ORIENTED_EDGE('',*,*,#830,.F.);
#832=ORIENTED_EDGE('',*,*,#760,.T.);
#833=EDGE_LOOP('',(#784,#792,#800,#808,#816,#824,#831,#832));
#834=FACE_OUTER_BOUND('',#833,.T.);
#835=ADVANCED_FACE('',(#834),#783,.T.);
#836=CARTESIAN_POINT('',(5.7,-0.999999999999992,2.2));
#837=DIRECTION('',(0.0,1.0,-2.220446E-016));
#838=DIRECTION('',(0.707106781186547,0.0,0.707106781186549));
#839=AXIS2_PLACEMENT_3D('',#836,#837,#838);
#840=CYLINDRICAL_SURFACE('',#839,0.3);
#841=ORIENTED_EDGE('',*,*,#830,.T.);
#842=CARTESIAN_POINT('',(5.7,-0.999999999999992,2.5));
#843=VERTEX_POINT('',#842);
#844=CARTESIAN_POINT('',(5.7,1.000000000000008,2.5));
#845=DIRECTION('',(0.0,-1.0,0.0));
#846=VECTOR('',#845,2.0);
#847=LINE('',#844,#846);
#848=EDGE_CURVE('',#818,#843,#847,.T.);
#849=ORIENTED_EDGE('',*,*,#848,.T.);
#850=CARTESIAN_POINT('',(5.7,-0.999999999999993,2.2));
#851=DIRECTION('',(0.0,1.0,0.0));
#852=DIRECTION('',(0.707106781186547,0.0,0.707106781186549));
#853=AXIS2_PLACEMENT_3D('',#850,#851,#852);
#854=CIRCLE('',#853,0.3);
#855=EDGE_CURVE('',#843,#763,#854,.T.);
#856=ORIENTED_EDGE('',*,*,#855,.T.);
#857=ORIENTED_EDGE('',*,*,#768,.T.);
#858=EDGE_LOOP('',(#841,#849,#856,#857));
#859=FACE_OUTER_BOUND('',#858,.T.);
#860=ADVANCED_FACE('',(#859),#840,.T.);
#861=CARTESIAN_POINT('',(5.4,1.000000000000008,2.5));
#862=CARTESIAN_POINT('',(5.4,1.000000000000008,0.6));
#863=CARTESIAN_POINT('',(5.4,-0.999999999999993,2.5));
#864=CARTESIAN_POINT('',(5.4,-0.999999999999993,0.6));
#865=B_SPLINE_SURFACE_WITH_KNOTS('',1,1,((#861,#863),(#862,#864)),.UNSPECIFIED.,.F.,.F.,.U.,(2,2),(2,2),(0.0,1.9),(0.0,2.0),.UNSPECIFIED.);
#866=ORIENTED_EDGE('',*,*,#815,.F.);
#867=CARTESIAN_POINT('',(5.4,-0.999999999999993,0.6));
#868=VERTEX_POINT('',#867);
#869=CARTESIAN_POINT('',(5.4,-0.999999999999993,0.6));
#870=DIRECTION('',(0.0,1.0,0.0));
#871=VECTOR('',#870,2.0);
#872=LINE('',#869,#871);
#873=EDGE_CURVE('',#868,#802,#872,.T.);
#874=ORIENTED_EDGE('',*,*,#873,.F.);
#875=CARTESIAN_POINT('',(5.4,-0.999999999999992,2.5));
#876=VERTEX_POINT('',#875);
#877=CARTESIAN_POINT('',(5.4,-0.999999999999993,0.6));
#878=DIRECTION('',(0.0,0.0,1.0));
#879=VECTOR('',#878,1.9);
#880=LINE('',#877,#879);
#881=EDGE_CURVE('',#868,#876,#880,.T.);
#882=ORIENTED_EDGE('',*,*,#881,.T.);
#883=CARTESIAN_POINT('',(5.4,-0.999999999999992,2.5));
#884=DIRECTION('',(0.0,1.0,0.0));
#885=VECTOR('',#884,2.0);
#886=LINE('',#883,#885);
#887=EDGE_CURVE('',#876,#810,#886,.T.);
#888=ORIENTED_EDGE('',*,*,#887,.T.);
#889=EDGE_LOOP('',(#866,#874,#882,#888));
#890=FACE_OUTER_BOUND('',#889,.T.);
#891=ADVANCED_FACE('',(#890),#865,.T.);
#892=CARTESIAN_POINT('',(5.7,1.000000000000008,2.5));
#893=CARTESIAN_POINT('',(5.4,1.000000000000008,2.5));
#894=CARTESIAN_POINT('',(5.7,-0.999999999999992,2.5));
#895=CARTESIAN_POINT('',(5.400000000000001,-0.999999999999992,2.5));
#896=B_SPLINE_SURFACE_WITH_KNOTS('',1,1,((#892,#894),(#893,#895)),.UNSPECIFIED.,.F.,.F.,.U.,(2,2),(2,2),(0.0,0.3),(0.0,2.0),.UNSPECIFIED.);
#897=ORIENTED_EDGE('',*,*,#848,.F.);
#898=ORIENTED_EDGE('',*,*,#823,.F.);
#899=ORIENTED_EDGE('',*,*,#887,.F.);
#900=CARTESIAN_POINT('',(5.4,-0.999999999999992,2.5));
#901=DIRECTION('',(1.0,0.0,0.0));
#902=VECTOR('',#901,0.3);
#903=LINE('',#900,#902);
#904=EDGE_CURVE('',#876,#843,#903,.T.);
#905=ORIENTED_EDGE('',*,*,#904,.T.);
#906=EDGE_LOOP('',(#897,#898,#899,#905));
#907=FACE_OUTER_BOUND('',#906,.T.);
#908=ADVANCED_FACE('',(#907),#896,.T.);
#909=CARTESIAN_POINT('',(3.4,1.000000000000007,-4.440892E-016));
#910=CARTESIAN_POINT('',(5.699999999999999,1.000000000000007,-4.440892E-016));
#911=CARTESIAN_POINT('',(3.4,-0.999999999999993,0.0));
#912=CARTESIAN_POINT('',(5.699999999999999,-0.999999999999993,0.0));
#913=B_SPLINE_SURFACE_WITH_KNOTS('',1,1,((#909,#911),(#910,#912)),.UNSPECIFIED.,.F.,.F.,.U.,(2,2),(2,2),(0.0,2.299999999999999),(0.0,2.0),.UNSPECIFIED.);
#914=ORIENTED_EDGE('',*,*,#743,.F.);
#915=CARTESIAN_POINT('',(3.4,-0.999999999999993,2.465190E-032));
#916=VERTEX_POINT('',#915);
#917=CARTESIAN_POINT('',(5.699999999999999,-0.999999999999993,2.844450E-033));
#918=DIRECTION('',(-1.0,0.0,0.0));
#919=VECTOR('',#918,2.299999999999999);
#920=LINE('',#917,#919);
#921=EDGE_CURVE('',#731,#916,#920,.T.);
#922=ORIENTED_EDGE('',*,*,#921,.T.);
#923=CARTESIAN_POINT('',(3.4,-0.999999999999993,2.465190E-032));
#924=DIRECTION('',(0.0,1.0,0.0));
#925=VECTOR('',#924,2.0);
#926=LINE('',#923,#925);
#927=EDGE_CURVE('',#916,#786,#926,.T.);
#928=ORIENTED_EDGE('',*,*,#927,.T.);
#929=ORIENTED_EDGE('',*,*,#791,.F.);
#930=EDGE_LOOP('',(#914,#922,#928,#929));
#931=FACE_OUTER_BOUND('',#930,.T.);
#932=ADVANCED_FACE('',(#931),#913,.T.);
#933=CARTESIAN_POINT('',(3.4,1.000000000000007,0.6));
#934=CARTESIAN_POINT('',(3.4,1.000000000000007,-4.440892E-016));
#935=CARTESIAN_POINT('',(3.4,-0.999999999999993,0.6));
#936=CARTESIAN_POINT('',(3.4,-0.999999999999993,-4.440892E-016));
#937=B_SPLINE_SURFACE_WITH_KNOTS('',1,1,((#933,#935),(#934,#936)),.UNSPECIFIED.,.F.,.F.,.U.,(2,2),(2,2),(0.0,0.6),(0.0,2.0),.UNSPECIFIED.);
#938=ORIENTED_EDGE('',*,*,#799,.F.);
#939=ORIENTED_EDGE('',*,*,#927,.F.);
#940=CARTESIAN_POINT('',(3.4,-0.999999999999993,0.6));
#941=VERTEX_POINT('',#940);
#942=CARTESIAN_POINT('',(3.4,-0.999999999999993,2.465190E-032));
#943=DIRECTION('',(0.0,0.0,1.0));
#944=VECTOR('',#943,0.6);
#945=LINE('',#942,#944);
#946=EDGE_CURVE('',#916,#941,#945,.T.);
#947=ORIENTED_EDGE('',*,*,#946,.T.);
#948=CARTESIAN_POINT('',(3.4,-0.999999999999993,0.6));
#949=DIRECTION('',(0.0,1.0,0.0));
#950=VECTOR('',#949,2.0);
#951=LINE('',#948,#950);
#952=EDGE_CURVE('',#941,#794,#951,.T.);
#953=ORIENTED_EDGE('',*,*,#952,.T.);
#954=EDGE_LOOP('',(#938,#939,#947,#953));
#955=FACE_OUTER_BOUND('',#954,.T.);
#956=ADVANCED_FACE('',(#955),#937,.T.);
#957=CARTESIAN_POINT('',(5.4,1.000000000000007,0.6));
#958=CARTESIAN_POINT('',(3.4,1.000000000000007,0.6));
#959=CARTESIAN_POINT('',(5.4,-0.999999999999993,0.6));
#960=CARTESIAN_POINT('',(3.4,-0.999999999999993,0.6));
#961=B_SPLINE_SURFACE_WITH_KNOTS('',1,1,((#957,#959),(#958,#960)),.UNSPECIFIED.,.F.,.F.,.U.,(2,2),(2,2),(0.0,2.0),(0.0,2.0),.UNSPECIFIED.);
#962=ORIENTED_EDGE('',*,*,#807,.F.);
#963=ORIENTED_EDGE('',*,*,#952,.F.);
#964=CARTESIAN_POINT('',(3.4,-0.999999999999993,0.6));
#965=DIRECTION('',(1.0,0.0,0.0));
#966=VECTOR('',#965,2.0);
#967=LINE('',#964,#966);
#968=EDGE_CURVE('',#941,#868,#967,.T.);
#969=ORIENTED_EDGE('',*,*,#968,.T.);
#970=ORIENTED_EDGE('',*,*,#873,.T.);
#971=EDGE_LOOP('',(#962,#963,#969,#970));
#972=FACE_OUTER_BOUND('',#971,.T.);
#973=ADVANCED_FACE('',(#972),#961,.T.);
#974=CARTESIAN_POINT('',(3.4,-0.999999999999993,2.974710E-034));
#975=CARTESIAN_POINT('',(3.4,-0.999999999999993,2.5));
#976=CARTESIAN_POINT('',(6.0,-0.999999999999993,-1.649517E-034));
#977=CARTESIAN_POINT('',(6.0,-0.999999999999993,2.5));
#978=B_SPLINE_SURFACE_WITH_KNOTS('',1,1,((#974,#976),(#975,#977)),.UNSPECIFIED.,.F.,.F.,.U.,(2,2),(2,2),(0.0,2.5),(0.0,2.6),.UNSPECIFIED.);
#979=ORIENTED_EDGE('',*,*,#737,.F.);
#980=ORIENTED_EDGE('',*,*,#774,.F.);
#981=ORIENTED_EDGE('',*,*,#855,.F.);
#982=ORIENTED_EDGE('',*,*,#904,.F.);
#983=ORIENTED_EDGE('',*,*,#881,.F.);
#984=ORIENTED_EDGE('',*,*,#968,.F.);
#985=ORIENTED_EDGE('',*,*,#946,.F.);
#986=ORIENTED_EDGE('',*,*,#921,.F.);
#987=EDGE_LOOP('',(#979,#980,#981,#982,#983,#984,#985,#986));
#988=FACE_OUTER_BOUND('',#987,.T.);
#989=ADVANCED_FACE('',(#988),#978,.F.);
#990=CLOSED_SHELL('',(#747,#778,#835,#860,#891,#908,#932,#956,#973,#989));
#991=MANIFOLD_SOLID_BREP('3B3',#990);
#992=COLOUR_RGB('254',0.866,0.866,0.866);
#993=SURFACE_STYLE_USAGE(.BOTH.,#994);
#994=SURFACE_SIDE_STYLE('NONE',(#995));
#995=SURFACE_STYLE_FILL_AREA(#996);
#996=FILL_AREA_STYLE('NONE',(#997));
#997=FILL_AREA_STYLE_COLOUR('NONE',#992);
#998=PRESENTATION_STYLE_ASSIGNMENT((#993));
#999=STYLED_ITEM('NONE',(#998),#991);
#1000=CARTESIAN_POINT('',(-5.7,-0.999999999999993,0.3));
#1001=DIRECTION('',(0.0,1.0,-2.220446E-016));
#1002=DIRECTION('',(-0.707106781186547,-5.233642E-016,-0.707106781186549));
#1003=AXIS2_PLACEMENT_3D('',#1000,#1001,#1002);
#1004=CYLINDRICAL_SURFACE('',#1003,0.3);
#1005=CARTESIAN_POINT('',(-6.0,1.000000000000007,0.299999999999999));
#1006=VERTEX_POINT('',#1005);
#1007=CARTESIAN_POINT('',(-5.7,1.000000000000007,-4.440892E-016));
#1008=VERTEX_POINT('',#1007);
#1009=CARTESIAN_POINT('',(-5.7,1.000000000000007,0.299999999999999));
#1010=DIRECTION('',(3.700743E-016,-1.0,3.700743E-016));
#1011=DIRECTION('',(-0.707106781186547,-5.233642E-016,-0.707106781186549));
#1012=AXIS2_PLACEMENT_3D('',#1009,#1010,#1011);
#1013=CIRCLE('',#1012,0.3);
#1014=EDGE_CURVE('',#1006,#1008,#1013,.T.);
#1015=ORIENTED_EDGE('',*,*,#1014,.T.);
#1016=CARTESIAN_POINT('',(-5.7,-0.999999999999993,2.844450E-033));
#1017=VERTEX_POINT('',#1016);
#1018=CARTESIAN_POINT('',(-5.7,1.000000000000007,-4.440892E-016));
#1019=DIRECTION('',(0.0,-1.0,0.0));
#1020=VECTOR('',#1019,2.0);
#1021=LINE('',#1018,#1020);
#1022=EDGE_CURVE('',#1008,#1017,#1021,.T.);
#1023=ORIENTED_EDGE('',*,*,#1022,.T.);
#1024=CARTESIAN_POINT('',(-6.0,-0.999999999999993,0.3));
#1025=VERTEX_POINT('',#1024);
#1026=CARTESIAN_POINT('',(-5.7,-0.999999999999993,0.3));
#1027=DIRECTION('',(-3.700743E-016,1.0,-3.700743E-016));
#1028=DIRECTION('',(-0.707106781186547,-5.233642E-016,-0.707106781186549));
#1029=AXIS2_PLACEMENT_3D('',#1026,#1027,#1028);
#1030=CIRCLE('',#1029,0.3);
#1031=EDGE_CURVE('',#1017,#1025,#1030,.T.);
#1032=ORIENTED_EDGE('',*,*,#1031,.T.);
#1033=CARTESIAN_POINT('',(-6.0,-0.999999999999993,0.3));
#1034=DIRECTION('',(0.0,1.0,0.0));
#1035=VECTOR('',#1034,2.0);
#1036=LINE('',#1033,#1035);
#1037=EDGE_CURVE('',#1025,#1006,#1036,.T.);
#1038=ORIENTED_EDGE('',*,*,#1037,.T.);
#1039=EDGE_LOOP('',(#1015,#1023,#1032,#1038));
#1040=FACE_OUTER_BOUND('',#1039,.T.);
#1041=ADVANCED_FACE('',(#1040),#1004,.T.);
#1042=CARTESIAN_POINT('',(-6.0,-0.999999999999992,2.5));
#1043=DIRECTION('',(-1.0,0.0,0.0));
#1044=DIRECTION('',(0.0,0.0,1.0));
#1045=AXIS2_PLACEMENT_3D('',#1042,#1043,#1044);
#1046=PLANE('',#1045);
#1047=ORIENTED_EDGE('',*,*,#1037,.F.);
#1048=CARTESIAN_POINT('',(-6.0,-0.999999999999992,2.2));
#1049=VERTEX_POINT('',#1048);
#1050=CARTESIAN_POINT('',(-6.0,-0.999999999999992,2.2));
#1051=DIRECTION('',(0.0,0.0,-1.0));
#1052=VECTOR('',#1051,1.9);
#1053=LINE('',#1050,#1052);
#1054=EDGE_CURVE('',#1049,#1025,#1053,.T.);
#1055=ORIENTED_EDGE('',*,*,#1054,.F.);
#1056=CARTESIAN_POINT('',(-6.0,1.000000000000008,2.2));
#1057=VERTEX_POINT('',#1056);
#1058=CARTESIAN_POINT('',(-6.0,1.000000000000008,2.2));
#1059=DIRECTION('',(0.0,-1.0,0.0));
#1060=VECTOR('',#1059,2.0);
#1061=LINE('',#1058,#1060);
#1062=EDGE_CURVE('',#1057,#1049,#1061,.T.);
#1063=ORIENTED_EDGE('',*,*,#1062,.F.);
#1064=CARTESIAN_POINT('',(-6.0,1.000000000000008,2.2));
#1065=DIRECTION('',(0.0,0.0,-1.0));
#1066=VECTOR('',#1065,1.9);
#1067=LINE('',#1064,#1066);
#1068=EDGE_CURVE('',#1057,#1006,#1067,.T.);
#1069=ORIENTED_EDGE('',*,*,#1068,.T.);
#1070=EDGE_LOOP('',(#1047,#1055,#1063,#1069));
#1071=FACE_OUTER_BOUND('',#1070,.T.);
#1072=ADVANCED_FACE('',(#1071),#1046,.T.);
#1073=CARTESIAN_POINT('',(-5.072549019607843,-0.999999999999993,0.877450980392157));
#1074=DIRECTION('',(0.0,1.0,0.0));
#1075=DIRECTION('',(0.0,0.0,1.0));
#1076=AXIS2_PLACEMENT_3D('',#1073,#1074,#1075);
#1077=PLANE('',#1076);
#1078=ORIENTED_EDGE('',*,*,#1031,.F.);
#1079=CARTESIAN_POINT('',(-3.4,-0.999999999999993,2.465190E-032));
#1080=VERTEX_POINT('',#1079);
#1081=CARTESIAN_POINT('',(-5.7,-0.999999999999993,2.844450E-033));
#1082=DIRECTION('',(1.0,0.0,0.0));
#1083=VECTOR('',#1082,2.3);
#1084=LINE('',#1081,#1083);
#1085=EDGE_CURVE('',#1017,#1080,#1084,.T.);
#1086=ORIENTED_EDGE('',*,*,#1085,.T.);
#1087=CARTESIAN_POINT('',(-3.4,-0.999999999999993,0.6));
#1088=VERTEX_POINT('',#1087);
#1089=CARTESIAN_POINT('',(-3.4,-0.999999999999993,2.465190E-032));
#1090=DIRECTION('',(0.0,0.0,1.0));
#1091=VECTOR('',#1090,0.6);
#1092=LINE('',#1089,#1091);
#1093=EDGE_CURVE('',#1080,#1088,#1092,.T.);
#1094=ORIENTED_EDGE('',*,*,#1093,.T.);
#1095=CARTESIAN_POINT('',(-5.4,-0.999999999999993,0.6));
#1096=VERTEX_POINT('',#1095);
#1097=CARTESIAN_POINT('',(-3.4,-0.999999999999993,0.6));
#1098=DIRECTION('',(-1.0,0.0,0.0));
#1099=VECTOR('',#1098,2.0);
#1100=LINE('',#1097,#1099);
#1101=EDGE_CURVE('',#1088,#1096,#1100,.T.);
#1102=ORIENTED_EDGE('',*,*,#1101,.T.);
#1103=CARTESIAN_POINT('',(-5.4,-0.999999999999992,2.5));
#1104=VERTEX_POINT('',#1103);
#1105=CARTESIAN_POINT('',(-5.4,-0.999999999999993,0.6));
#1106=DIRECTION('',(0.0,0.0,1.0));
#1107=VECTOR('',#1106,1.9);
#1108=LINE('',#1105,#1107);
#1109=EDGE_CURVE('',#1096,#1104,#1108,.T.);
#1110=ORIENTED_EDGE('',*,*,#1109,.T.);
#1111=CARTESIAN_POINT('',(-5.700000000000001,-0.999999999999992,2.5));
#1112=VERTEX_POINT('',#1111);
#1113=CARTESIAN_POINT('',(-5.4,-0.999999999999992,2.5));
#1114=DIRECTION('',(-1.0,0.0,0.0));
#1115=VECTOR('',#1114,0.300000000000001);
#1116=LINE('',#1113,#1115);
#1117=EDGE_CURVE('',#1104,#1112,#1116,.T.);
#1118=ORIENTED_EDGE('',*,*,#1117,.T.);
#1119=CARTESIAN_POINT('',(-5.700000000000001,-0.999999999999993,2.2));
#1120=DIRECTION('',(0.0,1.0,0.0));
#1121=DIRECTION('',(-0.707106781186547,0.0,0.707106781186549));
#1122=AXIS2_PLACEMENT_3D('',#1119,#1120,#1121);
#1123=CIRCLE('',#1122,0.3);
#1124=EDGE_CURVE('',#1049,#1112,#1123,.T.);
#1125=ORIENTED_EDGE('',*,*,#1124,.F.);
#1126=ORIENTED_EDGE('',*,*,#1054,.T.);
#1127=EDGE_LOOP('',(#1078,#1086,#1094,#1102,#1110,#1118,#1125,#1126));
#1128=FACE_OUTER_BOUND('',#1127,.T.);
#1129=ADVANCED_FACE('',(#1128),#1077,.F.);
#1130=CARTESIAN_POINT('',(-5.700000000000001,-0.999999999999992,2.2));
#1131=DIRECTION('',(0.0,1.0,-2.220446E-016));
#1132=DIRECTION('',(-0.707106781186547,0.0,0.707106781186549));
#1133=AXIS2_PLACEMENT_3D('',#1130,#1131,#1132);
#1134=CYLINDRICAL_SURFACE('',#1133,0.3);
#1135=CARTESIAN_POINT('',(-5.700000000000001,1.000000000000008,2.5));
#1136=VERTEX_POINT('',#1135);
#1137=CARTESIAN_POINT('',(-5.700000000000001,1.000000000000007,2.2));
#1138=DIRECTION('',(0.0,-1.0,0.0));
#1139=DIRECTION('',(-0.707106781186547,0.0,0.707106781186549));
#1140=AXIS2_PLACEMENT_3D('',#1137,#1138,#1139);
#1141=CIRCLE('',#1140,0.3);
#1142=EDGE_CURVE('',#1136,#1057,#1141,.T.);
#1143=ORIENTED_EDGE('',*,*,#1142,.T.);
#1144=ORIENTED_EDGE('',*,*,#1062,.T.);
#1145=ORIENTED_EDGE('',*,*,#1124,.T.);
#1146=CARTESIAN_POINT('',(-5.700000000000001,-0.999999999999992,2.5));
#1147=DIRECTION('',(0.0,1.0,0.0));
#1148=VECTOR('',#1147,2.0);
#1149=LINE('',#1146,#1148);
#1150=EDGE_CURVE('',#1112,#1136,#1149,.T.);
#1151=ORIENTED_EDGE('',*,*,#1150,.T.);
#1152=EDGE_LOOP('',(#1143,#1144,#1145,#1151));
#1153=FACE_OUTER_BOUND('',#1152,.T.);
#1154=ADVANCED_FACE('',(#1153),#1134,.T.);
#1155=CARTESIAN_POINT('',(-5.4,-0.999999999999993,0.6));
#1156=DIRECTION('',(1.0,0.0,0.0));
#1157=DIRECTION('',(0.0,0.0,-1.0));
#1158=AXIS2_PLACEMENT_3D('',#1155,#1156,#1157);
#1159=PLANE('',#1158);
#1160=CARTESIAN_POINT('',(-5.4,1.000000000000007,0.6));
#1161=VERTEX_POINT('',#1160);
#1162=CARTESIAN_POINT('',(-5.4,1.000000000000008,2.5));
#1163=VERTEX_POINT('',#1162);
#1164=CARTESIAN_POINT('',(-5.4,1.000000000000007,0.6));
#1165=DIRECTION('',(0.0,0.0,1.0));
#1166=VECTOR('',#1165,1.9);
#1167=LINE('',#1164,#1166);
#1168=EDGE_CURVE('',#1161,#1163,#1167,.T.);
#1169=ORIENTED_EDGE('',*,*,#1168,.T.);
#1170=CARTESIAN_POINT('',(-5.4,-0.999999999999992,2.5));
#1171=DIRECTION('',(0.0,1.0,0.0));
#1172=VECTOR('',#1171,2.0);
#1173=LINE('',#1170,#1172);
#1174=EDGE_CURVE('',#1104,#1163,#1173,.T.);
#1175=ORIENTED_EDGE('',*,*,#1174,.F.);
#1176=ORIENTED_EDGE('',*,*,#1109,.F.);
#1177=CARTESIAN_POINT('',(-5.4,-0.999999999999993,0.6));
#1178=DIRECTION('',(0.0,1.0,0.0));
#1179=VECTOR('',#1178,2.0);
#1180=LINE('',#1177,#1179);
#1181=EDGE_CURVE('',#1096,#1161,#1180,.T.);
#1182=ORIENTED_EDGE('',*,*,#1181,.T.);
#1183=EDGE_LOOP('',(#1169,#1175,#1176,#1182));
#1184=FACE_OUTER_BOUND('',#1183,.T.);
#1185=ADVANCED_FACE('',(#1184),#1159,.T.);
#1186=CARTESIAN_POINT('',(-5.4,-0.999999999999992,2.5));
#1187=DIRECTION('',(0.0,0.0,1.0));
#1188=DIRECTION('',(1.0,0.0,0.0));
#1189=AXIS2_PLACEMENT_3D('',#1186,#1187,#1188);
#1190=PLANE('',#1189);
#1191=ORIENTED_EDGE('',*,*,#1150,.F.);
#1192=ORIENTED_EDGE('',*,*,#1117,.F.);
#1193=ORIENTED_EDGE('',*,*,#1174,.T.);
#1194=CARTESIAN_POINT('',(-5.4,1.000000000000008,2.5));
#1195=DIRECTION('',(-1.0,0.0,0.0));
#1196=VECTOR('',#1195,0.300000000000001);
#1197=LINE('',#1194,#1196);
#1198=EDGE_CURVE('',#1163,#1136,#1197,.T.);
#1199=ORIENTED_EDGE('',*,*,#1198,.T.);
#1200=EDGE_LOOP('',(#1191,#1192,#1193,#1199));
#1201=FACE_OUTER_BOUND('',#1200,.T.);
#1202=ADVANCED_FACE('',(#1201),#1190,.T.);
#1203=CARTESIAN_POINT('',(-6.0,-0.999999999999993,0.0));
#1204=DIRECTION('',(0.0,0.0,-1.0));
#1205=DIRECTION('',(-1.0,0.0,0.0));
#1206=AXIS2_PLACEMENT_3D('',#1203,#1204,#1205);
#1207=PLANE('',#1206);
#1208=ORIENTED_EDGE('',*,*,#1022,.F.);
#1209=CARTESIAN_POINT('',(-3.4,1.000000000000007,-4.440892E-016));
#1210=VERTEX_POINT('',#1209);
#1211=CARTESIAN_POINT('',(-5.7,1.000000000000007,-4.440892E-016));
#1212=DIRECTION('',(1.0,0.0,0.0));
#1213=VECTOR('',#1212,2.3);
#1214=LINE('',#1211,#1213);
#1215=EDGE_CURVE('',#1008,#1210,#1214,.T.);
#1216=ORIENTED_EDGE('',*,*,#1215,.T.);
#1217=CARTESIAN_POINT('',(-3.4,-0.999999999999993,2.465190E-032));
#1218=DIRECTION('',(0.0,1.0,0.0));
#1219=VECTOR('',#1218,2.0);
#1220=LINE('',#1217,#1219);
#1221=EDGE_CURVE('',#1080,#1210,#1220,.T.);
#1222=ORIENTED_EDGE('',*,*,#1221,.F.);
#1223=ORIENTED_EDGE('',*,*,#1085,.F.);
#1224=EDGE_LOOP('',(#1208,#1216,#1222,#1223));
#1225=FACE_OUTER_BOUND('',#1224,.T.);
#1226=ADVANCED_FACE('',(#1225),#1207,.T.);
#1227=CARTESIAN_POINT('',(-3.4,-0.999999999999993,2.465190E-032));
#1228=DIRECTION('',(1.0,0.0,0.0));
#1229=DIRECTION('',(0.0,0.0,-1.0));
#1230=AXIS2_PLACEMENT_3D('',#1227,#1228,#1229);
#1231=PLANE('',#1230);
#1232=CARTESIAN_POINT('',(-3.4,1.000000000000007,0.6));
#1233=VERTEX_POINT('',#1232);
#1234=CARTESIAN_POINT('',(-3.4,1.000000000000007,-4.440892E-016));
#1235=DIRECTION('',(0.0,0.0,1.0));
#1236=VECTOR('',#1235,0.6);
#1237=LINE('',#1234,#1236);
#1238=EDGE_CURVE('',#1210,#1233,#1237,.T.);
#1239=ORIENTED_EDGE('',*,*,#1238,.T.);
#1240=CARTESIAN_POINT('',(-3.4,-0.999999999999993,0.6));
#1241=DIRECTION('',(0.0,1.0,0.0));
#1242=VECTOR('',#1241,2.0);
#1243=LINE('',#1240,#1242);
#1244=EDGE_CURVE('',#1088,#1233,#1243,.T.);
#1245=ORIENTED_EDGE('',*,*,#1244,.F.);
#1246=ORIENTED_EDGE('',*,*,#1093,.F.);
#1247=ORIENTED_EDGE('',*,*,#1221,.T.);
#1248=EDGE_LOOP('',(#1239,#1245,#1246,#1247));
#1249=FACE_OUTER_BOUND('',#1248,.T.);
#1250=ADVANCED_FACE('',(#1249),#1231,.T.);
#1251=CARTESIAN_POINT('',(-3.4,-0.999999999999993,0.6));
#1252=DIRECTION('',(0.0,0.0,1.0));
#1253=DIRECTION('',(1.0,0.0,0.0));
#1254=AXIS2_PLACEMENT_3D('',#1251,#1252,#1253);
#1255=PLANE('',#1254);
#1256=CARTESIAN_POINT('',(-3.4,1.000000000000007,0.6));
#1257=DIRECTION('',(-1.0,0.0,0.0));
#1258=VECTOR('',#1257,2.0);
#1259=LINE('',#1256,#1258);
#1260=EDGE_CURVE('',#1233,#1161,#1259,.T.);
#1261=ORIENTED_EDGE('',*,*,#1260,.T.);
#1262=ORIENTED_EDGE('',*,*,#1181,.F.);
#1263=ORIENTED_EDGE('',*,*,#1101,.F.);
#1264=ORIENTED_EDGE('',*,*,#1244,.T.);
#1265=EDGE_LOOP('',(#1261,#1262,#1263,#1264));
#1266=FACE_OUTER_BOUND('',#1265,.T.);
#1267=ADVANCED_FACE('',(#1266),#1255,.T.);
#1268=CARTESIAN_POINT('',(-5.072549019607843,1.000000000000007,0.877450980392157));
#1269=DIRECTION('',(0.0,1.0,0.0));
#1270=DIRECTION('',(0.0,0.0,1.0));
#1271=AXIS2_PLACEMENT_3D('',#1268,#1269,#1270);
#1272=PLANE('',#1271);
#1273=ORIENTED_EDGE('',*,*,#1014,.F.);
#1274=ORIENTED_EDGE('',*,*,#1068,.F.);
#1275=ORIENTED_EDGE('',*,*,#1142,.F.);
#1276=ORIENTED_EDGE('',*,*,#1198,.F.);
#1277=ORIENTED_EDGE('',*,*,#1168,.F.);
#1278=ORIENTED_EDGE('',*,*,#1260,.F.);
#1279=ORIENTED_EDGE('',*,*,#1238,.F.);
#1280=ORIENTED_EDGE('',*,*,#1215,.F.);
#1281=EDGE_LOOP('',(#1273,#1274,#1275,#1276,#1277,#1278,#1279,#1280));
#1282=FACE_OUTER_BOUND('',#1281,.T.);
#1283=ADVANCED_FACE('',(#1282),#1272,.T.);
#1284=CLOSED_SHELL('',(#1041,#1072,#1129,#1154,#1185,#1202,#1226,#1250,#1267,#1283));
#1285=MANIFOLD_SOLID_BREP('3B1',#1284);
#1286=STYLED_ITEM('NONE',(#998),#1285);
#1287=ADVANCED_BREP_SHAPE_REPRESENTATION('ABSR1',(#214,#704,#991,#1285),#28);
#1288=SHAPE_REPRESENTATION_RELATIONSHIP('SRRPL1','',#1287,#62);
ENDSEC;
END-ISO-10303-21;
