ISO-10303-21;
HEADER;
/****************************************************************
 * Generated by software with PDElib inside                    *
 * PDElib Version v51a, created Fri 09/10/2010                  *
 * ITI Transcendata (http://www.transcendata.com/)              *
 ****************************************************************/
FILE_DESCRIPTION((''),'2;1');
FILE_NAME('RMF_MULTICOMP_MOR07W.stp','2012-02-28T16:40:00',(''),(''),'Mechanical Desktop 2011','Mechanical Desktop 2011',', , ');
FILE_SCHEMA(('AUTOMOTIVE_DESIGN { 1 2 10303 214 1 1 1 1 }'));
ENDSEC;
DATA;
#10=(NAMED_UNIT(*)PLANE_ANGLE_UNIT()SI_UNIT($,.RADIAN.));
#11=DIMENSIONAL_EXPONENTS(0.0,0.0,0.0,0.0,0.0,0.0,0.0);
#12=PLANE_ANGLE_MEASURE_WITH_UNIT(PLANE_ANGLE_MEASURE(0.0174532925),#10);
#16=(CONVERSION_BASED_UNIT('DEGREE',#12)NAMED_UNIT(#11)PLANE_ANGLE_UNIT());
#20=(NAMED_UNIT(*)SI_UNIT($,.STERADIAN.)SOLID_ANGLE_UNIT());
#24=(LENGTH_UNIT()NAMED_UNIT(*)SI_UNIT(.MILLI.,.METRE.));
#26=UNCERTAINTY_MEASURE_WITH_UNIT(LENGTH_MEASURE(0.000001),#24,'DISTANCE_ACCURACY_VALUE','');
#28=(GEOMETRIC_REPRESENTATION_CONTEXT(3)GLOBAL_UNCERTAINTY_ASSIGNED_CONTEXT((#26))GLOBAL_UNIT_ASSIGNED_CONTEXT((#16,#20,#24))REPRESENTATION_CONTEXT('','3D'));
#29=APPLICATION_CONTEXT('automotive design');
#30=APPLICATION_PROTOCOL_DEFINITION('INTERNATIONAL_STANDARD','automotive_design',1998,#29);
#31=PRODUCT_CONTEXT('3D Mechanical Parts',#29,'mechanical');
#32=PRODUCT('Product','Product','',(#31));
#33=PRODUCT_RELATED_PRODUCT_CATEGORY('part',$,(#32));
#34=PRODUCT_CATEGORY('part',$);
#35=PERSON('1','Design','Joe',$,$,$);
#36=ORGANIZATION($,'None','None');
#37=PERSON_AND_ORGANIZATION(#35,#36);
#38=PERSON_AND_ORGANIZATION_ROLE('design_owner');
#39=APPLIED_PERSON_AND_ORGANIZATION_ASSIGNMENT(#37,#38,(#32));
#40=PRODUCT_DEFINITION_FORMATION_WITH_SPECIFIED_SOURCE('None','',#32,.BOUGHT.);
#41=PERSON('2','Creator','Joe',$,$,$);
#42=ORGANIZATION($,'None','None');
#43=PERSON_AND_ORGANIZATION(#41,#42);
#44=PERSON_AND_ORGANIZATION_ROLE('creator');
#45=APPLIED_PERSON_AND_ORGANIZATION_ASSIGNMENT(#43,#44,(#40));
#46=PERSON('3','Supplier','Joe',$,$,$);
#47=ORGANIZATION($,'None','None');
#48=PERSON_AND_ORGANIZATION(#46,#47);
#49=PERSON_AND_ORGANIZATION_ROLE('design_supplier');
#50=APPLIED_PERSON_AND_ORGANIZATION_ASSIGNMENT(#48,#49,(#40));
#51=PRODUCT_DEFINITION_CONTEXT('part definition',#29,'design');
#52=PRODUCT_DEFINITION('None','',#40,#51);
#53=PERSON('4','Creator','Joe',$,$,$);
#54=ORGANIZATION($,'None','None');
#55=PERSON_AND_ORGANIZATION(#53,#54);
#56=PERSON_AND_ORGANIZATION_ROLE('creator');
#57=APPLIED_PERSON_AND_ORGANIZATION_ASSIGNMENT(#55,#56,(#52));
#58=CARTESIAN_POINT('NONE',(0.0,0.0,0.0));
#59=DIRECTION('NONE',(0.0,0.0,1.0));
#60=DIRECTION('NONE',(1.0,0.0,0.0));
#61=AXIS2_PLACEMENT_3D('NONE',#58,#59,#60);
#62=SHAPE_REPRESENTATION('SR1',(#61),#28);
#63=PRODUCT_DEFINITION_SHAPE('PDS1','Test Part',#52);
#64=SHAPE_DEFINITION_REPRESENTATION(#63,#62);
#65=CARTESIAN_POINT('',(16.730000000000004,-3.446806E-015,2.5));
#66=CARTESIAN_POINT('',(16.730000000000004,-0.350000000000004,2.500000000000001));
#67=CARTESIAN_POINT('',(16.730000000000004,-0.350000000000004,2.15));
#68=CARTESIAN_POINT('',(16.730000000000004,-0.350000000000004,1.8));
#69=CARTESIAN_POINT('',(16.730000000000004,-3.369091E-015,1.8));
#70=CARTESIAN_POINT('',(17.43,-3.602238E-015,2.5));
#71=CARTESIAN_POINT('',(17.43,-0.350000000000004,2.500000000000001));
#72=CARTESIAN_POINT('',(17.780000000000001,-0.350000000000004,2.15));
#73=CARTESIAN_POINT('',(18.130000000000003,-0.350000000000004,1.8));
#74=CARTESIAN_POINT('',(18.130000000000003,-3.679953E-015,1.800000000000001));
#75=CARTESIAN_POINT('',(17.43,-3.602238E-015,3.199999999999998));
#76=CARTESIAN_POINT('',(17.43,-0.350000000000004,3.199999999999998));
#77=CARTESIAN_POINT('',(17.780000000000001,-0.350000000000004,3.199999999999998));
#78=CARTESIAN_POINT('',(18.130000000000003,-0.350000000000004,3.199999999999997));
#79=CARTESIAN_POINT('',(18.130000000000003,-3.679953E-015,3.199999999999998));
#80=CARTESIAN_POINT('',(17.43,-3.602238E-015,3.899999999999995));
#81=CARTESIAN_POINT('',(17.43,-0.350000000000004,3.899999999999994));
#82=CARTESIAN_POINT('',(17.780000000000001,-0.350000000000004,4.249999999999995));
#83=CARTESIAN_POINT('',(18.130000000000003,-0.350000000000004,4.599999999999995));
#84=CARTESIAN_POINT('',(18.130000000000003,-3.679953E-015,4.599999999999994));
#85=CARTESIAN_POINT('',(16.730000000000004,-3.446806E-015,3.899999999999995));
#86=CARTESIAN_POINT('',(16.730000000000004,-0.350000000000004,3.899999999999994));
#87=CARTESIAN_POINT('',(16.730000000000004,-0.350000000000004,4.249999999999995));
#88=CARTESIAN_POINT('',(16.730000000000004,-0.350000000000004,4.599999999999995));
#89=CARTESIAN_POINT('',(16.730000000000004,-3.369091E-015,4.599999999999994));
#90=CARTESIAN_POINT('',(16.030000000000008,-3.291375E-015,3.899999999999995));
#91=CARTESIAN_POINT('',(16.030000000000008,-0.350000000000004,3.899999999999994));
#92=CARTESIAN_POINT('',(15.680000000000007,-0.350000000000004,4.249999999999995));
#93=CARTESIAN_POINT('',(15.330000000000007,-0.350000000000003,4.599999999999995));
#94=CARTESIAN_POINT('',(15.330000000000007,-3.058228E-015,4.599999999999994));
#95=CARTESIAN_POINT('',(16.030000000000008,-3.291375E-015,3.199999999999998));
#96=CARTESIAN_POINT('',(16.030000000000008,-0.350000000000004,3.199999999999998));
#97=CARTESIAN_POINT('',(15.680000000000007,-0.350000000000004,3.199999999999998));
#98=CARTESIAN_POINT('',(15.330000000000007,-0.350000000000003,3.199999999999997));
#99=CARTESIAN_POINT('',(15.330000000000007,-3.058228E-015,3.199999999999998));
#100=CARTESIAN_POINT('',(16.030000000000008,-3.291375E-015,2.5));
#101=CARTESIAN_POINT('',(16.030000000000008,-0.350000000000004,2.500000000000001));
#102=CARTESIAN_POINT('',(15.680000000000007,-0.350000000000004,2.15));
#103=CARTESIAN_POINT('',(15.330000000000007,-0.350000000000003,1.8));
#104=CARTESIAN_POINT('',(15.330000000000007,-3.058228E-015,1.800000000000001));
#105=CARTESIAN_POINT('',(16.730000000000004,-3.446806E-015,2.5));
#106=CARTESIAN_POINT('',(16.730000000000004,-0.350000000000004,2.500000000000001));
#107=CARTESIAN_POINT('',(16.730000000000004,-0.350000000000004,2.15));
#108=CARTESIAN_POINT('',(16.730000000000004,-0.350000000000004,1.8));
#109=CARTESIAN_POINT('',(16.730000000000004,-3.369091E-015,1.8));
#117=(BOUNDED_SURFACE()B_SPLINE_SURFACE(2,2,((#65,#70,#75,#80,#85,#90,#95,#100,#105),(#66,#71,#76,#81,#86,#91,#96,#101,#106),(#67,#72,#77,#82,#87,#92,#97,#102,#107),(#68,#73,#78,#83,#88,#93,#98,#103,#108),(#69,#74,#79,#84,#89,#94,#99,#104,#109)),.UNSPECIFIED.,.F.,.T.,.U.)B_SPLINE_SURFACE_WITH_KNOTS((3,2,3),(3,2,2,2,3),(-3.141592653589794,-1.570796326794897,9.877583E-016),(0.0,1.570796326794897,3.141592653589793,4.71238898038469,6.283185307179586),.UNSPECIFIED.)GEOMETRIC_REPRESENTATION_ITEM()RATIONAL_B_SPLINE_SURFACE(((1.0,0.707106781186548,1.0,0.707106781186548,1.0,0.707106781186548,1.0,0.707106781186548,1.0),(0.707106781186545,0.499999999999998,0.707106781186545,0.499999999999998,0.707106781186545,0.499999999999998,0.707106781186545,0.499999999999998,0.707106781186545),(1.0,0.707106781186548,1.0,0.707106781186548,1.0,0.707106781186548,1.0,0.707106781186548,1.0),(0.707106781186547,0.5,0.707106781186547,0.5,0.707106781186547,0.5,0.707106781186547,0.5,0.707106781186547),(1.0,0.707106781186548,1.0,0.707106781186548,1.0,0.707106781186548,1.0,0.707106781186548,1.0)))REPRESENTATION_ITEM('')SURFACE());
#118=CARTESIAN_POINT('',(16.729999999999997,-3.679953E-015,4.599999999999996));
#119=VERTEX_POINT('',#118);
#120=CARTESIAN_POINT('',(18.130000000000003,-3.990816E-015,3.199999999999997));
#121=VERTEX_POINT('',#120);
#122=CARTESIAN_POINT('',(16.730000000000004,-3.714806E-015,3.199999999999998));
#123=DIRECTION('',(0.0,1.0,0.0));
#124=DIRECTION('',(0.0,0.0,1.0));
#125=AXIS2_PLACEMENT_3D('',#122,#123,#124);
#126=CIRCLE('',#125,1.399999999999997);
#127=EDGE_CURVE('',#119,#121,#126,.T.);
#128=ORIENTED_EDGE('',*,*,#127,.F.);
#129=CARTESIAN_POINT('',(16.73,-3.792522E-015,3.899999999999993));
#130=VERTEX_POINT('',#129);
#131=CARTESIAN_POINT('',(16.729999999999997,-3.714806E-015,4.249999999999996));
#132=DIRECTION('',(-1.0,0.0,0.0));
#133=DIRECTION('',(0.0,0.0,-1.0));
#134=AXIS2_PLACEMENT_3D('',#131,#132,#133);
#135=CIRCLE('',#134,0.35);
#136=EDGE_CURVE('',#130,#119,#135,.T.);
#137=ORIENTED_EDGE('',*,*,#136,.F.);
#138=CARTESIAN_POINT('',(17.43,-3.947953E-015,3.199999999999997));
#139=VERTEX_POINT('',#138);
#140=CARTESIAN_POINT('',(16.730000000000004,-3.757669E-015,3.199999999999998));
#141=DIRECTION('',(0.0,1.0,0.0));
#142=DIRECTION('',(0.0,0.0,1.0));
#143=AXIS2_PLACEMENT_3D('',#140,#141,#142);
#144=CIRCLE('',#143,0.699999999999997);
#145=EDGE_CURVE('',#130,#139,#144,.T.);
#146=ORIENTED_EDGE('',*,*,#145,.T.);
#147=CARTESIAN_POINT('',(17.780000000000001,-3.947953E-015,3.199999999999997));
#148=DIRECTION('',(0.0,0.0,1.0));
#149=DIRECTION('',(-1.0,0.0,0.0));
#150=AXIS2_PLACEMENT_3D('',#147,#148,#149);
#151=CIRCLE('',#150,0.35);
#152=EDGE_CURVE('',#139,#121,#151,.T.);
#153=ORIENTED_EDGE('',*,*,#152,.T.);
#154=EDGE_LOOP('',(#128,#137,#146,#153));
#155=FACE_OUTER_BOUND('',#154,.T.);
#156=ADVANCED_FACE('',(#155),#117,.T.);
#157=CARTESIAN_POINT('',(18.130000000000003,-3.990816E-015,-3.800000000000003));
#158=CARTESIAN_POINT('',(18.130000000000003,-3.990816E-015,3.199999999999997));
#159=CARTESIAN_POINT('',(18.130000000000003,-0.350000000000005,-3.800000000000003));
#160=CARTESIAN_POINT('',(18.130000000000003,-0.350000000000005,3.199999999999997));
#161=CARTESIAN_POINT('',(17.780000000000001,-0.350000000000005,-3.800000000000003));
#162=CARTESIAN_POINT('',(17.780000000000001,-0.350000000000005,3.199999999999997));
#163=CARTESIAN_POINT('',(17.43,-0.350000000000005,-3.800000000000003));
#164=CARTESIAN_POINT('',(17.43,-0.350000000000005,3.199999999999997));
#165=CARTESIAN_POINT('',(17.43,-3.905090E-015,-3.800000000000003));
#166=CARTESIAN_POINT('',(17.43,-3.905090E-015,3.199999999999997));
#167=CARTESIAN_POINT('',(17.43,0.349999999999997,-3.800000000000003));
#168=CARTESIAN_POINT('',(17.43,0.349999999999997,3.199999999999997));
#169=CARTESIAN_POINT('',(17.780000000000001,0.349999999999997,-3.800000000000003));
#170=CARTESIAN_POINT('',(17.780000000000001,0.349999999999997,3.199999999999997));
#171=CARTESIAN_POINT('',(18.130000000000003,0.349999999999997,-3.800000000000003));
#172=CARTESIAN_POINT('',(18.130000000000003,0.349999999999997,3.199999999999997));
#173=CARTESIAN_POINT('',(18.130000000000003,-3.990816E-015,-3.800000000000003));
#174=CARTESIAN_POINT('',(18.130000000000003,-3.990816E-015,3.199999999999997));
#182=(BOUNDED_SURFACE()B_SPLINE_SURFACE(1,2,((#157,#159,#161,#163,#165,#167,#169,#171,#173),(#158,#160,#162,#164,#166,#168,#170,#172,#174)),.UNSPECIFIED.,.F.,.T.,.U.)B_SPLINE_SURFACE_WITH_KNOTS((2,2),(3,2,2,2,3),(0.0,20.0),(0.0,0.549778714378214,1.099557428756428,1.649336143134641,2.199114857512855),.UNSPECIFIED.)GEOMETRIC_REPRESENTATION_ITEM()RATIONAL_B_SPLINE_SURFACE(((1.0,0.707106781186548,1.0,0.707106781186548,1.0,0.707106781186548,1.0,0.707106781186548,1.0),(1.0,0.707106781186548,1.0,0.707106781186548,1.0,0.707106781186548,1.0,0.707106781186548,1.0)))REPRESENTATION_ITEM('')SURFACE());
#183=CARTESIAN_POINT('',(17.43,-3.947953E-015,-3.800000000000003));
#184=VERTEX_POINT('',#183);
#185=CARTESIAN_POINT('',(17.43,-3.947953E-015,3.199999999999997));
#186=DIRECTION('',(0.0,0.0,-1.0));
#187=VECTOR('',#186,7.0);
#188=LINE('',#185,#187);
#189=EDGE_CURVE('',#139,#184,#188,.T.);
#190=ORIENTED_EDGE('',*,*,#189,.F.);
#191=CARTESIAN_POINT('',(17.780000000000001,-3.947953E-015,3.199999999999997));
#192=DIRECTION('',(0.0,0.0,1.0));
#193=DIRECTION('',(-1.0,0.0,0.0));
#194=AXIS2_PLACEMENT_3D('',#191,#192,#193);
#195=CIRCLE('',#194,0.35);
#196=EDGE_CURVE('',#121,#139,#195,.T.);
#197=ORIENTED_EDGE('',*,*,#196,.F.);
#198=CARTESIAN_POINT('',(18.130000000000003,-3.990816E-015,-3.800000000000003));
#199=VERTEX_POINT('',#198);
#200=CARTESIAN_POINT('',(18.130000000000003,-3.990816E-015,3.199999999999997));
#201=DIRECTION('',(0.0,0.0,-1.0));
#202=VECTOR('',#201,7.0);
#203=LINE('',#200,#202);
#204=EDGE_CURVE('',#121,#199,#203,.T.);
#205=ORIENTED_EDGE('',*,*,#204,.T.);
#206=CARTESIAN_POINT('',(17.780000000000001,-3.947953E-015,-3.800000000000003));
#207=DIRECTION('',(0.0,0.0,-1.0));
#208=DIRECTION('',(-1.0,0.0,0.0));
#209=AXIS2_PLACEMENT_3D('',#206,#207,#208);
#210=CIRCLE('',#209,0.35);
#211=EDGE_CURVE('',#184,#199,#210,.T.);
#212=ORIENTED_EDGE('',*,*,#211,.F.);
#213=EDGE_LOOP('',(#190,#197,#205,#212));
#214=FACE_OUTER_BOUND('',#213,.T.);
#215=ADVANCED_FACE('',(#214),#182,.T.);
#216=CARTESIAN_POINT('',(16.73,-3.679953E-015,4.599999999999996));
#217=CARTESIAN_POINT('',(15.999999999999995,-3.517861E-015,4.599999999999996));
#218=CARTESIAN_POINT('',(16.73,-0.350000000000003,4.599999999999996));
#219=CARTESIAN_POINT('',(15.999999999999995,-0.350000000000003,4.599999999999996));
#220=CARTESIAN_POINT('',(16.73,-0.350000000000003,4.249999999999996));
#221=CARTESIAN_POINT('',(15.999999999999995,-0.350000000000003,4.249999999999996));
#222=CARTESIAN_POINT('',(16.73,-0.350000000000003,3.899999999999997));
#223=CARTESIAN_POINT('',(15.999999999999995,-0.350000000000003,3.899999999999997));
#224=CARTESIAN_POINT('',(16.73,-3.749659E-015,3.899999999999997));
#225=CARTESIAN_POINT('',(15.999999999999995,-3.587567E-015,3.899999999999997));
#226=CARTESIAN_POINT('',(16.73,0.349999999999996,3.899999999999997));
#227=CARTESIAN_POINT('',(15.999999999999995,0.349999999999996,3.899999999999997));
#228=CARTESIAN_POINT('',(16.73,0.349999999999996,4.249999999999996));
#229=CARTESIAN_POINT('',(15.999999999999995,0.349999999999996,4.249999999999996));
#230=CARTESIAN_POINT('',(16.73,0.349999999999996,4.599999999999996));
#231=CARTESIAN_POINT('',(15.999999999999995,0.349999999999996,4.599999999999996));
#232=CARTESIAN_POINT('',(16.73,-3.679953E-015,4.599999999999996));
#233=CARTESIAN_POINT('',(15.999999999999995,-3.517861E-015,4.599999999999996));
#241=(BOUNDED_SURFACE()B_SPLINE_SURFACE(1,2,((#216,#218,#220,#222,#224,#226,#228,#230,#232),(#217,#219,#221,#223,#225,#227,#229,#231,#233)),.UNSPECIFIED.,.F.,.T.,.U.)B_SPLINE_SURFACE_WITH_KNOTS((2,2),(3,2,2,2,3),(-1.015061E-014,2.085714285714292),(0.0,0.549778714378214,1.099557428756428,1.649336143134641,2.199114857512855),.UNSPECIFIED.)GEOMETRIC_REPRESENTATION_ITEM()RATIONAL_B_SPLINE_SURFACE(((1.0,0.707106781186548,1.0,0.707106781186548,1.0,0.707106781186548,1.0,0.707106781186548,1.0),(1.0,0.707106781186548,1.0,0.707106781186548,1.0,0.707106781186548,1.0,0.707106781186548,1.0)))REPRESENTATION_ITEM('')SURFACE());
#242=CARTESIAN_POINT('',(16.0,-3.630429E-015,3.899999999999993));
#243=VERTEX_POINT('',#242);
#244=CARTESIAN_POINT('',(16.0,-3.630429E-015,3.899999999999996));
#245=DIRECTION('',(1.0,0.0,0.0));
#246=VECTOR('',#245,0.729999999999997);
#247=LINE('',#244,#246);
#248=EDGE_CURVE('',#243,#130,#247,.T.);
#249=ORIENTED_EDGE('',*,*,#248,.F.);
#250=CARTESIAN_POINT('',(15.999999999999998,-3.517861E-015,4.599999999999996));
#251=VERTEX_POINT('',#250);
#252=CARTESIAN_POINT('',(15.999999999999996,-3.552714E-015,4.249999999999996));
#253=DIRECTION('',(-1.0,0.0,0.0));
#254=DIRECTION('',(0.0,0.0,-1.0));
#255=AXIS2_PLACEMENT_3D('',#252,#253,#254);
#256=CIRCLE('',#255,0.35);
#257=EDGE_CURVE('',#251,#243,#256,.T.);
#258=ORIENTED_EDGE('',*,*,#257,.F.);
#259=CARTESIAN_POINT('',(15.999999999999998,-3.517861E-015,4.599999999999996));
#260=DIRECTION('',(1.0,0.0,0.0));
#261=VECTOR('',#260,0.729999999999999);
#262=LINE('',#259,#261);
#263=EDGE_CURVE('',#251,#119,#262,.T.);
#264=ORIENTED_EDGE('',*,*,#263,.T.);
#265=CARTESIAN_POINT('',(16.729999999999997,-3.714806E-015,4.249999999999996));
#266=DIRECTION('',(-1.0,0.0,0.0));
#267=DIRECTION('',(0.0,0.0,-1.0));
#268=AXIS2_PLACEMENT_3D('',#265,#266,#267);
#269=CIRCLE('',#268,0.35);
#270=EDGE_CURVE('',#119,#130,#269,.T.);
#271=ORIENTED_EDGE('',*,*,#270,.T.);
#272=EDGE_LOOP('',(#249,#258,#264,#271));
#273=FACE_OUTER_BOUND('',#272,.T.);
#274=ADVANCED_FACE('',(#273),#241,.T.);
#275=CARTESIAN_POINT('',(16.73,-3.679953E-015,4.599999999999996));
#276=CARTESIAN_POINT('',(15.999999999999995,-3.517861E-015,4.599999999999996));
#277=CARTESIAN_POINT('',(16.73,-0.350000000000003,4.599999999999996));
#278=CARTESIAN_POINT('',(15.999999999999995,-0.350000000000003,4.599999999999996));
#279=CARTESIAN_POINT('',(16.73,-0.350000000000003,4.249999999999996));
#280=CARTESIAN_POINT('',(15.999999999999995,-0.350000000000003,4.249999999999996));
#281=CARTESIAN_POINT('',(16.73,-0.350000000000003,3.899999999999997));
#282=CARTESIAN_POINT('',(15.999999999999995,-0.350000000000003,3.899999999999997));
#283=CARTESIAN_POINT('',(16.73,-3.749659E-015,3.899999999999997));
#284=CARTESIAN_POINT('',(15.999999999999995,-3.587567E-015,3.899999999999997));
#285=CARTESIAN_POINT('',(16.73,0.349999999999996,3.899999999999997));
#286=CARTESIAN_POINT('',(15.999999999999995,0.349999999999996,3.899999999999997));
#287=CARTESIAN_POINT('',(16.73,0.349999999999996,4.249999999999996));
#288=CARTESIAN_POINT('',(15.999999999999995,0.349999999999996,4.249999999999996));
#289=CARTESIAN_POINT('',(16.73,0.349999999999996,4.599999999999996));
#290=CARTESIAN_POINT('',(15.999999999999995,0.349999999999996,4.599999999999996));
#291=CARTESIAN_POINT('',(16.73,-3.679953E-015,4.599999999999996));
#292=CARTESIAN_POINT('',(15.999999999999995,-3.517861E-015,4.599999999999996));
#300=(BOUNDED_SURFACE()B_SPLINE_SURFACE(1,2,((#275,#277,#279,#281,#283,#285,#287,#289,#291),(#276,#278,#280,#282,#284,#286,#288,#290,#292)),.UNSPECIFIED.,.F.,.T.,.U.)B_SPLINE_SURFACE_WITH_KNOTS((2,2),(3,2,2,2,3),(-1.015061E-014,2.085714285714292),(0.0,0.549778714378214,1.099557428756428,1.649336143134641,2.199114857512855),.UNSPECIFIED.)GEOMETRIC_REPRESENTATION_ITEM()RATIONAL_B_SPLINE_SURFACE(((1.0,0.707106781186548,1.0,0.707106781186548,1.0,0.707106781186548,1.0,0.707106781186548,1.0),(1.0,0.707106781186548,1.0,0.707106781186548,1.0,0.707106781186548,1.0,0.707106781186548,1.0)))REPRESENTATION_ITEM('')SURFACE());
#301=ORIENTED_EDGE('',*,*,#248,.T.);
#302=ORIENTED_EDGE('',*,*,#136,.T.);
#303=ORIENTED_EDGE('',*,*,#263,.F.);
#304=CARTESIAN_POINT('',(15.999999999999996,-3.552714E-015,4.249999999999996));
#305=DIRECTION('',(-1.0,0.0,0.0));
#306=DIRECTION('',(0.0,0.0,-1.0));
#307=AXIS2_PLACEMENT_3D('',#304,#305,#306);
#308=CIRCLE('',#307,0.35);
#309=EDGE_CURVE('',#243,#251,#308,.T.);
#310=ORIENTED_EDGE('',*,*,#309,.F.);
#311=EDGE_LOOP('',(#301,#302,#303,#310));
#312=FACE_OUTER_BOUND('',#311,.T.);
#313=ADVANCED_FACE('',(#312),#300,.T.);
#314=CARTESIAN_POINT('',(16.730000000000004,-4.025669E-015,1.8));
#315=CARTESIAN_POINT('',(16.730000000000004,0.349999999999996,1.8));
#316=CARTESIAN_POINT('',(16.730000000000004,0.349999999999996,2.15));
#317=CARTESIAN_POINT('',(16.730000000000004,0.349999999999996,2.500000000000001));
#318=CARTESIAN_POINT('',(16.730000000000004,-3.982806E-015,2.5));
#319=CARTESIAN_POINT('',(18.130000000000003,-4.336531E-015,1.800000000000001));
#320=CARTESIAN_POINT('',(18.130000000000003,0.349999999999996,1.8));
#321=CARTESIAN_POINT('',(17.780000000000001,0.349999999999996,2.15));
#322=CARTESIAN_POINT('',(17.43,0.349999999999996,2.500000000000001));
#323=CARTESIAN_POINT('',(17.43,-4.138237E-015,2.5));
#324=CARTESIAN_POINT('',(18.130000000000003,-4.336531E-015,3.199999999999998));
#325=CARTESIAN_POINT('',(18.130000000000003,0.349999999999996,3.199999999999998));
#326=CARTESIAN_POINT('',(17.780000000000001,0.349999999999996,3.199999999999998));
#327=CARTESIAN_POINT('',(17.43,0.349999999999996,3.199999999999997));
#328=CARTESIAN_POINT('',(17.43,-4.138237E-015,3.199999999999998));
#329=CARTESIAN_POINT('',(18.130000000000003,-4.336531E-015,4.599999999999994));
#330=CARTESIAN_POINT('',(18.130000000000003,0.349999999999996,4.599999999999995));
#331=CARTESIAN_POINT('',(17.780000000000001,0.349999999999996,4.249999999999995));
#332=CARTESIAN_POINT('',(17.43,0.349999999999996,3.899999999999994));
#333=CARTESIAN_POINT('',(17.43,-4.138237E-015,3.899999999999995));
#334=CARTESIAN_POINT('',(16.730000000000004,-4.025669E-015,4.599999999999994));
#335=CARTESIAN_POINT('',(16.730000000000004,0.349999999999996,4.599999999999995));
#336=CARTESIAN_POINT('',(16.730000000000004,0.349999999999996,4.249999999999995));
#337=CARTESIAN_POINT('',(16.730000000000004,0.349999999999996,3.899999999999994));
#338=CARTESIAN_POINT('',(16.730000000000004,-3.982806E-015,3.899999999999995));
#339=CARTESIAN_POINT('',(15.330000000000007,-3.714806E-015,4.599999999999994));
#340=CARTESIAN_POINT('',(15.330000000000007,0.349999999999997,4.599999999999995));
#341=CARTESIAN_POINT('',(15.680000000000007,0.349999999999997,4.249999999999995));
#342=CARTESIAN_POINT('',(16.030000000000008,0.349999999999997,3.899999999999994));
#343=CARTESIAN_POINT('',(16.030000000000008,-3.827375E-015,3.899999999999995));
#344=CARTESIAN_POINT('',(15.330000000000007,-3.714806E-015,3.199999999999998));
#345=CARTESIAN_POINT('',(15.330000000000005,0.349999999999997,3.199999999999998));
#346=CARTESIAN_POINT('',(15.680000000000007,0.349999999999997,3.199999999999998));
#347=CARTESIAN_POINT('',(16.030000000000008,0.349999999999997,3.199999999999997));
#348=CARTESIAN_POINT('',(16.030000000000008,-3.827375E-015,3.199999999999998));
#349=CARTESIAN_POINT('',(15.330000000000007,-3.714806E-015,1.800000000000001));
#350=CARTESIAN_POINT('',(15.330000000000007,0.349999999999997,1.8));
#351=CARTESIAN_POINT('',(15.680000000000007,0.349999999999997,2.15));
#352=CARTESIAN_POINT('',(16.030000000000008,0.349999999999997,2.500000000000001));
#353=CARTESIAN_POINT('',(16.030000000000008,-3.827375E-015,2.5));
#354=CARTESIAN_POINT('',(16.730000000000004,-4.025669E-015,1.8));
#355=CARTESIAN_POINT('',(16.730000000000004,0.349999999999996,1.8));
#356=CARTESIAN_POINT('',(16.730000000000004,0.349999999999996,2.15));
#357=CARTESIAN_POINT('',(16.730000000000004,0.349999999999996,2.500000000000001));
#358=CARTESIAN_POINT('',(16.730000000000004,-3.982806E-015,2.5));
#366=(BOUNDED_SURFACE()B_SPLINE_SURFACE(2,2,((#314,#319,#324,#329,#334,#339,#344,#349,#354),(#315,#320,#325,#330,#335,#340,#345,#350,#355),(#316,#321,#326,#331,#336,#341,#346,#351,#356),(#317,#322,#327,#332,#337,#342,#347,#352,#357),(#318,#323,#328,#333,#338,#343,#348,#353,#358)),.UNSPECIFIED.,.F.,.T.,.U.)B_SPLINE_SURFACE_WITH_KNOTS((3,2,3),(3,2,2,2,3),(-8.881784E-016,1.570796326794897,3.141592653589794),(0.0,1.570796326794897,3.141592653589793,4.71238898038469,6.283185307179586),.UNSPECIFIED.)GEOMETRIC_REPRESENTATION_ITEM()RATIONAL_B_SPLINE_SURFACE(((1.0,0.707106781186548,1.0,0.707106781186548,1.0,0.707106781186548,1.0,0.707106781186548,1.0),(0.707106781186547,0.5,0.707106781186547,0.5,0.707106781186547,0.5,0.707106781186547,0.5,0.707106781186547),(1.0,0.707106781186548,1.0,0.707106781186548,1.0,0.707106781186548,1.0,0.707106781186548,1.0),(0.707106781186545,0.499999999999998,0.707106781186545,0.499999999999998,0.707106781186545,0.499999999999998,0.707106781186545,0.499999999999998,0.707106781186545),(1.0,0.707106781186548,1.0,0.707106781186548,1.0,0.707106781186548,1.0,0.707106781186548,1.0)))REPRESENTATION_ITEM('')SURFACE());
#367=ORIENTED_EDGE('',*,*,#127,.T.);
#368=ORIENTED_EDGE('',*,*,#196,.T.);
#369=ORIENTED_EDGE('',*,*,#145,.F.);
#370=ORIENTED_EDGE('',*,*,#270,.F.);
#371=EDGE_LOOP('',(#367,#368,#369,#370));
#372=FACE_OUTER_BOUND('',#371,.T.);
#373=ADVANCED_FACE('',(#372),#366,.T.);
#374=CARTESIAN_POINT('',(18.130000000000003,-3.990816E-015,-3.800000000000003));
#375=CARTESIAN_POINT('',(18.130000000000003,-3.990816E-015,3.199999999999997));
#376=CARTESIAN_POINT('',(18.130000000000003,-0.350000000000005,-3.800000000000003));
#377=CARTESIAN_POINT('',(18.130000000000003,-0.350000000000005,3.199999999999997));
#378=CARTESIAN_POINT('',(17.780000000000001,-0.350000000000005,-3.800000000000003));
#379=CARTESIAN_POINT('',(17.780000000000001,-0.350000000000005,3.199999999999997));
#380=CARTESIAN_POINT('',(17.43,-0.350000000000005,-3.800000000000003));
#381=CARTESIAN_POINT('',(17.43,-0.350000000000005,3.199999999999997));
#382=CARTESIAN_POINT('',(17.43,-3.905090E-015,-3.800000000000003));
#383=CARTESIAN_POINT('',(17.43,-3.905090E-015,3.199999999999997));
#384=CARTESIAN_POINT('',(17.43,0.349999999999997,-3.800000000000003));
#385=CARTESIAN_POINT('',(17.43,0.349999999999997,3.199999999999997));
#386=CARTESIAN_POINT('',(17.780000000000001,0.349999999999997,-3.800000000000003));
#387=CARTESIAN_POINT('',(17.780000000000001,0.349999999999997,3.199999999999997));
#388=CARTESIAN_POINT('',(18.130000000000003,0.349999999999997,-3.800000000000003));
#389=CARTESIAN_POINT('',(18.130000000000003,0.349999999999997,3.199999999999997));
#390=CARTESIAN_POINT('',(18.130000000000003,-3.990816E-015,-3.800000000000003));
#391=CARTESIAN_POINT('',(18.130000000000003,-3.990816E-015,3.199999999999997));
#399=(BOUNDED_SURFACE()B_SPLINE_SURFACE(1,2,((#374,#376,#378,#380,#382,#384,#386,#388,#390),(#375,#377,#379,#381,#383,#385,#387,#389,#391)),.UNSPECIFIED.,.F.,.T.,.U.)B_SPLINE_SURFACE_WITH_KNOTS((2,2),(3,2,2,2,3),(0.0,20.0),(0.0,0.549778714378214,1.099557428756428,1.649336143134641,2.199114857512855),.UNSPECIFIED.)GEOMETRIC_REPRESENTATION_ITEM()RATIONAL_B_SPLINE_SURFACE(((1.0,0.707106781186548,1.0,0.707106781186548,1.0,0.707106781186548,1.0,0.707106781186548,1.0),(1.0,0.707106781186548,1.0,0.707106781186548,1.0,0.707106781186548,1.0,0.707106781186548,1.0)))REPRESENTATION_ITEM('')SURFACE());
#400=ORIENTED_EDGE('',*,*,#189,.T.);
#401=CARTESIAN_POINT('',(17.780000000000001,-3.947953E-015,-3.800000000000003));
#402=DIRECTION('',(0.0,0.0,-1.0));
#403=DIRECTION('',(-1.0,0.0,0.0));
#404=AXIS2_PLACEMENT_3D('',#401,#402,#403);
#405=CIRCLE('',#404,0.35);
#406=EDGE_CURVE('',#199,#184,#405,.T.);
#407=ORIENTED_EDGE('',*,*,#406,.F.);
#408=ORIENTED_EDGE('',*,*,#204,.F.);
#409=ORIENTED_EDGE('',*,*,#152,.F.);
#410=EDGE_LOOP('',(#400,#407,#408,#409));
#411=FACE_OUTER_BOUND('',#410,.T.);
#412=ADVANCED_FACE('',(#411),#399,.T.);
#413=CARTESIAN_POINT('',(18.130000000000003,0.349999999999996,-3.800000000000003));
#414=CARTESIAN_POINT('',(17.43,0.349999999999996,-3.800000000000003));
#415=CARTESIAN_POINT('',(18.130000000000003,-0.350000000000004,-3.800000000000003));
#416=CARTESIAN_POINT('',(17.43,-0.350000000000004,-3.800000000000003));
#417=B_SPLINE_SURFACE_WITH_KNOTS('',1,1,((#413,#415),(#414,#416)),.UNSPECIFIED.,.F.,.F.,.U.,(2,2),(2,2),(0.0,0.700000000000003),(0.0,0.7),.UNSPECIFIED.);
#418=ORIENTED_EDGE('',*,*,#211,.T.);
#419=ORIENTED_EDGE('',*,*,#406,.T.);
#420=EDGE_LOOP('',(#418,#419));
#421=FACE_OUTER_BOUND('',#420,.T.);
#422=ADVANCED_FACE('',(#421),#417,.F.);
#423=CARTESIAN_POINT('',(16.0,0.349999999999996,4.599999999999996));
#424=CARTESIAN_POINT('',(16.0,0.349999999999996,3.899999999999993));
#425=CARTESIAN_POINT('',(16.0,-0.350000000000004,4.599999999999996));
#426=CARTESIAN_POINT('',(16.0,-0.350000000000004,3.899999999999993));
#427=B_SPLINE_SURFACE_WITH_KNOTS('',1,1,((#423,#425),(#424,#426)),.UNSPECIFIED.,.F.,.F.,.U.,(2,2),(2,2),(0.0,0.700000000000003),(0.0,0.7),.UNSPECIFIED.);
#428=ORIENTED_EDGE('',*,*,#309,.T.);
#429=ORIENTED_EDGE('',*,*,#257,.T.);
#430=EDGE_LOOP('',(#428,#429));
#431=FACE_OUTER_BOUND('',#430,.T.);
#432=ADVANCED_FACE('',(#431),#427,.T.);
#433=CLOSED_SHELL('',(#156,#215,#274,#313,#373,#412,#422,#432));
#434=MANIFOLD_SOLID_BREP('1191',#433);
#435=COLOUR_RGB('254',0.866,0.866,0.866);
#436=SURFACE_STYLE_USAGE(.BOTH.,#437);
#437=SURFACE_SIDE_STYLE('NONE',(#438));
#438=SURFACE_STYLE_FILL_AREA(#439);
#439=FILL_AREA_STYLE('NONE',(#440));
#440=FILL_AREA_STYLE_COLOUR('NONE',#435);
#441=PRESENTATION_STYLE_ASSIGNMENT((#436));
#442=STYLED_ITEM('NONE',(#441),#434);
#443=MECHANICAL_DESIGN_GEOMETRIC_PRESENTATION_REPRESENTATION('NONE',(#442,#635,#895),#28);
#444=PRESENTATION_LAYER_ASSIGNMENT('3D','None',(#434,#634,#887));
#445=CARTESIAN_POINT('',(-16.730000000000004,-3.714806E-015,3.199999999999998));
#446=DIRECTION('',(-2.220446E-016,1.0,0.0));
#447=DIRECTION('',(0.0,0.0,1.0));
#448=AXIS2_PLACEMENT_3D('',#445,#446,#447);
#449=TOROIDAL_SURFACE('',#448,1.049999999999997,0.35);
#450=CARTESIAN_POINT('',(-16.729999999999997,-3.679953E-015,4.599999999999996));
#451=VERTEX_POINT('',#450);
#452=CARTESIAN_POINT('',(-18.130000000000003,-3.990816E-015,3.199999999999997));
#453=VERTEX_POINT('',#452);
#454=CARTESIAN_POINT('',(-16.730000000000004,-3.714806E-015,3.199999999999998));
#455=DIRECTION('',(0.0,-1.0,0.0));
#456=DIRECTION('',(0.0,0.0,1.0));
#457=AXIS2_PLACEMENT_3D('',#454,#455,#456);
#458=CIRCLE('',#457,1.399999999999997);
#459=EDGE_CURVE('',#451,#453,#458,.T.);
#460=ORIENTED_EDGE('',*,*,#459,.F.);
#461=CARTESIAN_POINT('',(-16.73,-3.792522E-015,3.899999999999993));
#462=VERTEX_POINT('',#461);
#463=CARTESIAN_POINT('',(-16.729999999999997,-3.714806E-015,4.249999999999996));
#464=DIRECTION('',(-1.0,0.0,0.0));
#465=DIRECTION('',(0.0,0.0,-1.0));
#466=AXIS2_PLACEMENT_3D('',#463,#464,#465);
#467=CIRCLE('',#466,0.35);
#468=EDGE_CURVE('',#451,#462,#467,.T.);
#469=ORIENTED_EDGE('',*,*,#468,.T.);
#470=CARTESIAN_POINT('',(-17.43,-3.947953E-015,3.199999999999997));
#471=VERTEX_POINT('',#470);
#472=CARTESIAN_POINT('',(-16.730000000000004,-3.757669E-015,3.199999999999998));
#473=DIRECTION('',(0.0,-1.0,0.0));
#474=DIRECTION('',(0.0,0.0,1.0));
#475=AXIS2_PLACEMENT_3D('',#472,#473,#474);
#476=CIRCLE('',#475,0.699999999999997);
#477=EDGE_CURVE('',#462,#471,#476,.T.);
#478=ORIENTED_EDGE('',*,*,#477,.T.);
#479=CARTESIAN_POINT('',(-17.780000000000001,-3.947953E-015,3.199999999999997));
#480=DIRECTION('',(0.0,0.0,-1.0));
#481=DIRECTION('',(1.0,0.0,0.0));
#482=AXIS2_PLACEMENT_3D('',#479,#480,#481);
#483=CIRCLE('',#482,0.35);
#484=EDGE_CURVE('',#453,#471,#483,.T.);
#485=ORIENTED_EDGE('',*,*,#484,.F.);
#486=EDGE_LOOP('',(#460,#469,#478,#485));
#487=FACE_OUTER_BOUND('',#486,.T.);
#488=ADVANCED_FACE('',(#487),#449,.T.);
#489=CARTESIAN_POINT('',(-17.780000000000001,-3.947953E-015,-3.800000000000003));
#490=DIRECTION('',(0.0,0.0,1.0));
#491=DIRECTION('',(1.0,0.0,0.0));
#492=AXIS2_PLACEMENT_3D('',#489,#490,#491);
#493=CYLINDRICAL_SURFACE('',#492,0.35);
#494=CARTESIAN_POINT('',(-17.43,-3.947953E-015,-3.800000000000003));
#495=VERTEX_POINT('',#494);
#496=CARTESIAN_POINT('',(-17.43,-3.947953E-015,3.199999999999997));
#497=DIRECTION('',(0.0,0.0,-1.0));
#498=VECTOR('',#497,7.0);
#499=LINE('',#496,#498);
#500=EDGE_CURVE('',#471,#495,#499,.T.);
#501=ORIENTED_EDGE('',*,*,#500,.F.);
#502=CARTESIAN_POINT('',(-17.780000000000001,-3.947953E-015,3.199999999999997));
#503=DIRECTION('',(0.0,0.0,-1.0));
#504=DIRECTION('',(1.0,0.0,0.0));
#505=AXIS2_PLACEMENT_3D('',#502,#503,#504);
#506=CIRCLE('',#505,0.35);
#507=EDGE_CURVE('',#471,#453,#506,.T.);
#508=ORIENTED_EDGE('',*,*,#507,.T.);
#509=CARTESIAN_POINT('',(-18.130000000000003,-3.990816E-015,-3.800000000000003));
#510=VERTEX_POINT('',#509);
#511=CARTESIAN_POINT('',(-18.130000000000003,-3.990816E-015,3.199999999999997));
#512=DIRECTION('',(0.0,0.0,-1.0));
#513=VECTOR('',#512,7.0);
#514=LINE('',#511,#513);
#515=EDGE_CURVE('',#453,#510,#514,.T.);
#516=ORIENTED_EDGE('',*,*,#515,.T.);
#517=CARTESIAN_POINT('',(-17.780000000000001,-3.947953E-015,-3.800000000000003));
#518=DIRECTION('',(0.0,0.0,1.0));
#519=DIRECTION('',(1.0,0.0,0.0));
#520=AXIS2_PLACEMENT_3D('',#517,#518,#519);
#521=CIRCLE('',#520,0.35);
#522=EDGE_CURVE('',#510,#495,#521,.T.);
#523=ORIENTED_EDGE('',*,*,#522,.T.);
#524=EDGE_LOOP('',(#501,#508,#516,#523));
#525=FACE_OUTER_BOUND('',#524,.T.);
#526=ADVANCED_FACE('',(#525),#493,.T.);
#527=CARTESIAN_POINT('',(-16.729999999999997,-3.714806E-015,4.249999999999996));
#528=DIRECTION('',(1.0,2.220446E-016,0.0));
#529=DIRECTION('',(0.0,0.0,-1.0));
#530=AXIS2_PLACEMENT_3D('',#527,#528,#529);
#531=CYLINDRICAL_SURFACE('',#530,0.35);
#532=CARTESIAN_POINT('',(-16.0,-3.630429E-015,3.899999999999993));
#533=VERTEX_POINT('',#532);
#534=CARTESIAN_POINT('',(-16.0,-3.630429E-015,3.899999999999996));
#535=DIRECTION('',(-1.0,0.0,0.0));
#536=VECTOR('',#535,0.729999999999997);
#537=LINE('',#534,#536);
#538=EDGE_CURVE('',#533,#462,#537,.T.);
#539=ORIENTED_EDGE('',*,*,#538,.F.);
#540=CARTESIAN_POINT('',(-15.999999999999998,-3.517861E-015,4.599999999999996));
#541=VERTEX_POINT('',#540);
#542=CARTESIAN_POINT('',(-15.999999999999996,-3.552714E-015,4.249999999999996));
#543=DIRECTION('',(-1.0,0.0,0.0));
#544=DIRECTION('',(0.0,0.0,-1.0));
#545=AXIS2_PLACEMENT_3D('',#542,#543,#544);
#546=CIRCLE('',#545,0.35);
#547=EDGE_CURVE('',#533,#541,#546,.T.);
#548=ORIENTED_EDGE('',*,*,#547,.T.);
#549=CARTESIAN_POINT('',(-15.999999999999998,-3.517861E-015,4.599999999999996));
#550=DIRECTION('',(-1.0,0.0,0.0));
#551=VECTOR('',#550,0.729999999999999);
#552=LINE('',#549,#551);
#553=EDGE_CURVE('',#541,#451,#552,.T.);
#554=ORIENTED_EDGE('',*,*,#553,.T.);
#555=CARTESIAN_POINT('',(-16.729999999999997,-3.714806E-015,4.249999999999996));
#556=DIRECTION('',(-1.0,0.0,0.0));
#557=DIRECTION('',(0.0,0.0,-1.0));
#558=AXIS2_PLACEMENT_3D('',#555,#556,#557);
#559=CIRCLE('',#558,0.35);
#560=EDGE_CURVE('',#462,#451,#559,.T.);
#561=ORIENTED_EDGE('',*,*,#560,.F.);
#562=EDGE_LOOP('',(#539,#548,#554,#561));
#563=FACE_OUTER_BOUND('',#562,.T.);
#564=ADVANCED_FACE('',(#563),#531,.T.);
#565=CARTESIAN_POINT('',(-16.729999999999997,-3.714806E-015,4.249999999999996));
#566=DIRECTION('',(1.0,2.220446E-016,0.0));
#567=DIRECTION('',(0.0,0.0,-1.0));
#568=AXIS2_PLACEMENT_3D('',#565,#566,#567);
#569=CYLINDRICAL_SURFACE('',#568,0.35);
#570=ORIENTED_EDGE('',*,*,#538,.T.);
#571=ORIENTED_EDGE('',*,*,#468,.F.);
#572=ORIENTED_EDGE('',*,*,#553,.F.);
#573=CARTESIAN_POINT('',(-15.999999999999996,-3.552714E-015,4.249999999999996));
#574=DIRECTION('',(-1.0,0.0,0.0));
#575=DIRECTION('',(0.0,0.0,-1.0));
#576=AXIS2_PLACEMENT_3D('',#573,#574,#575);
#577=CIRCLE('',#576,0.35);
#578=EDGE_CURVE('',#541,#533,#577,.T.);
#579=ORIENTED_EDGE('',*,*,#578,.T.);
#580=EDGE_LOOP('',(#570,#571,#572,#579));
#581=FACE_OUTER_BOUND('',#580,.T.);
#582=ADVANCED_FACE('',(#581),#569,.T.);
#583=CARTESIAN_POINT('',(-16.730000000000004,-3.714806E-015,3.199999999999998));
#584=DIRECTION('',(-2.220446E-016,1.0,0.0));
#585=DIRECTION('',(0.0,0.0,1.0));
#586=AXIS2_PLACEMENT_3D('',#583,#584,#585);
#587=TOROIDAL_SURFACE('',#586,1.049999999999997,0.35);
#588=ORIENTED_EDGE('',*,*,#459,.T.);
#589=ORIENTED_EDGE('',*,*,#507,.F.);
#590=ORIENTED_EDGE('',*,*,#477,.F.);
#591=ORIENTED_EDGE('',*,*,#560,.T.);
#592=EDGE_LOOP('',(#588,#589,#590,#591));
#593=FACE_OUTER_BOUND('',#592,.T.);
#594=ADVANCED_FACE('',(#593),#587,.T.);
#595=CARTESIAN_POINT('',(-17.780000000000001,-3.947953E-015,-3.800000000000003));
#596=DIRECTION('',(0.0,0.0,1.0));
#597=DIRECTION('',(1.0,0.0,0.0));
#598=AXIS2_PLACEMENT_3D('',#595,#596,#597);
#599=CYLINDRICAL_SURFACE('',#598,0.35);
#600=ORIENTED_EDGE('',*,*,#500,.T.);
#601=CARTESIAN_POINT('',(-17.780000000000001,-3.947953E-015,-3.800000000000003));
#602=DIRECTION('',(0.0,0.0,1.0));
#603=DIRECTION('',(1.0,0.0,0.0));
#604=AXIS2_PLACEMENT_3D('',#601,#602,#603);
#605=CIRCLE('',#604,0.35);
#606=EDGE_CURVE('',#495,#510,#605,.T.);
#607=ORIENTED_EDGE('',*,*,#606,.T.);
#608=ORIENTED_EDGE('',*,*,#515,.F.);
#609=ORIENTED_EDGE('',*,*,#484,.T.);
#610=EDGE_LOOP('',(#600,#607,#608,#609));
#611=FACE_OUTER_BOUND('',#610,.T.);
#612=ADVANCED_FACE('',(#611),#599,.T.);
#613=CARTESIAN_POINT('',(-17.780000000000001,-3.947953E-015,-3.800000000000003));
#614=DIRECTION('',(0.0,0.0,1.0));
#615=DIRECTION('',(1.0,0.0,0.0));
#616=AXIS2_PLACEMENT_3D('',#613,#614,#615);
#617=PLANE('',#616);
#618=ORIENTED_EDGE('',*,*,#606,.F.);
#619=ORIENTED_EDGE('',*,*,#522,.F.);
#620=EDGE_LOOP('',(#618,#619));
#621=FACE_OUTER_BOUND('',#620,.T.);
#622=ADVANCED_FACE('',(#621),#617,.F.);
#623=CARTESIAN_POINT('',(-16.0,-3.552714E-015,4.249999999999996));
#624=DIRECTION('',(1.0,0.0,0.0));
#625=DIRECTION('',(0.0,0.0,-1.0));
#626=AXIS2_PLACEMENT_3D('',#623,#624,#625);
#627=PLANE('',#626);
#628=ORIENTED_EDGE('',*,*,#547,.F.);
#629=ORIENTED_EDGE('',*,*,#578,.F.);
#630=EDGE_LOOP('',(#628,#629));
#631=FACE_OUTER_BOUND('',#630,.T.);
#632=ADVANCED_FACE('',(#631),#627,.T.);
#633=CLOSED_SHELL('',(#488,#526,#564,#582,#594,#612,#622,#632));
#634=MANIFOLD_SOLID_BREP('1189',#633);
#635=STYLED_ITEM('NONE',(#441),#634);
#636=CARTESIAN_POINT('',(-15.5,0.0,4.249999999999996));
#637=DIRECTION('',(1.0,0.0,2.220446E-016));
#638=DIRECTION('',(0.0,0.0,-1.0));
#639=AXIS2_PLACEMENT_3D('',#636,#637,#638);
#640=TOROIDAL_SURFACE('',#639,3.75,0.5);
#641=CARTESIAN_POINT('',(-15.499999999999998,0.0,-3.552714E-015));
#642=VERTEX_POINT('',#641);
#643=CARTESIAN_POINT('',(-16.0,0.0,0.499999999999996));
#644=VERTEX_POINT('',#643);
#645=CARTESIAN_POINT('',(-15.499999999999998,0.0,0.499999999999996));
#646=DIRECTION('',(0.0,1.0,0.0));
#647=DIRECTION('',(0.0,0.0,-1.0));
#648=AXIS2_PLACEMENT_3D('',#645,#646,#647);
#649=CIRCLE('',#648,0.5);
#650=EDGE_CURVE('',#642,#644,#649,.T.);
#651=ORIENTED_EDGE('',*,*,#650,.F.);
#652=CARTESIAN_POINT('',(-15.5,-4.25,4.249999999999996));
#653=VERTEX_POINT('',#652);
#654=CARTESIAN_POINT('',(-15.5,0.0,4.249999999999996));
#655=DIRECTION('',(-1.0,0.0,0.0));
#656=DIRECTION('',(0.0,-1.0,0.0));
#657=AXIS2_PLACEMENT_3D('',#654,#655,#656);
#658=CIRCLE('',#657,4.25);
#659=EDGE_CURVE('',#642,#653,#658,.T.);
#660=ORIENTED_EDGE('',*,*,#659,.T.);
#661=CARTESIAN_POINT('',(-15.500000000000002,-5.204749E-016,8.499999999999996));
#662=VERTEX_POINT('',#661);
#663=CARTESIAN_POINT('',(-15.5,0.0,4.249999999999996));
#664=DIRECTION('',(-1.0,0.0,0.0));
#665=DIRECTION('',(0.0,-1.0,0.0));
#666=AXIS2_PLACEMENT_3D('',#663,#664,#665);
#667=CIRCLE('',#666,4.25);
#668=EDGE_CURVE('',#653,#662,#667,.T.);
#669=ORIENTED_EDGE('',*,*,#668,.T.);
#670=CARTESIAN_POINT('',(-16.0,-4.592425E-016,7.999999999999996));
#671=VERTEX_POINT('',#670);
#672=CARTESIAN_POINT('',(-15.500000000000002,-4.592425E-016,7.999999999999996));
#673=DIRECTION('',(0.0,-1.0,0.0));
#674=DIRECTION('',(0.0,0.0,1.0));
#675=AXIS2_PLACEMENT_3D('',#672,#673,#674);
#676=CIRCLE('',#675,0.5);
#677=EDGE_CURVE('',#662,#671,#676,.T.);
#678=ORIENTED_EDGE('',*,*,#677,.T.);
#679=CARTESIAN_POINT('',(-16.0,0.0,4.249999999999996));
#680=DIRECTION('',(1.0,0.0,0.0));
#681=DIRECTION('',(0.0,-1.0,0.0));
#682=AXIS2_PLACEMENT_3D('',#679,#680,#681);
#683=CIRCLE('',#682,3.75);
#684=EDGE_CURVE('',#671,#644,#683,.T.);
#685=ORIENTED_EDGE('',*,*,#684,.T.);
#686=EDGE_LOOP('',(#651,#660,#669,#678,#685));
#687=FACE_OUTER_BOUND('',#686,.T.);
#688=ADVANCED_FACE('',(#687),#640,.T.);
#689=CARTESIAN_POINT('',(-16.0,0.0,4.249999999999996));
#690=DIRECTION('',(1.0,0.0,2.220446E-016));
#691=DIRECTION('',(0.0,1.0,0.0));
#692=AXIS2_PLACEMENT_3D('',#689,#690,#691);
#693=CYLINDRICAL_SURFACE('',#692,4.25);
#694=CARTESIAN_POINT('',(15.5,4.25,4.250000000000005));
#695=VERTEX_POINT('',#694);
#696=CARTESIAN_POINT('',(-15.5,4.25,4.249999999999995));
#697=VERTEX_POINT('',#696);
#698=CARTESIAN_POINT('',(15.5,4.25,4.250000000000004));
#699=DIRECTION('',(-1.0,0.0,0.0));
#700=VECTOR('',#699,31.0);
#701=LINE('',#698,#700);
#702=EDGE_CURVE('',#695,#697,#701,.T.);
#703=ORIENTED_EDGE('',*,*,#702,.F.);
#704=CARTESIAN_POINT('',(15.500000000000002,-5.204749E-016,3.552714E-015));
#705=VERTEX_POINT('',#704);
#706=CARTESIAN_POINT('',(15.5,0.0,4.250000000000004));
#707=DIRECTION('',(1.0,0.0,0.0));
#708=DIRECTION('',(0.0,-1.0,0.0));
#709=AXIS2_PLACEMENT_3D('',#706,#707,#708);
#710=CIRCLE('',#709,4.25);
#711=EDGE_CURVE('',#705,#695,#710,.T.);
#712=ORIENTED_EDGE('',*,*,#711,.F.);
#713=CARTESIAN_POINT('',(15.5,-4.25,4.250000000000003));
#714=VERTEX_POINT('',#713);
#715=CARTESIAN_POINT('',(15.5,0.0,4.250000000000004));
#716=DIRECTION('',(1.0,0.0,0.0));
#717=DIRECTION('',(0.0,-1.0,0.0));
#718=AXIS2_PLACEMENT_3D('',#715,#716,#717);
#719=CIRCLE('',#718,4.25);
#720=EDGE_CURVE('',#714,#705,#719,.T.);
#721=ORIENTED_EDGE('',*,*,#720,.F.);
#722=CARTESIAN_POINT('',(15.5,-4.25,4.250000000000003));
#723=DIRECTION('',(-1.0,0.0,0.0));
#724=VECTOR('',#723,31.0);
#725=LINE('',#722,#724);
#726=EDGE_CURVE('',#714,#653,#725,.T.);
#727=ORIENTED_EDGE('',*,*,#726,.T.);
#728=ORIENTED_EDGE('',*,*,#659,.F.);
#729=CARTESIAN_POINT('',(-15.5,0.0,4.249999999999996));
#730=DIRECTION('',(-1.0,0.0,0.0));
#731=DIRECTION('',(0.0,-1.0,0.0));
#732=AXIS2_PLACEMENT_3D('',#729,#730,#731);
#733=CIRCLE('',#732,4.25);
#734=EDGE_CURVE('',#697,#642,#733,.T.);
#735=ORIENTED_EDGE('',*,*,#734,.F.);
#736=EDGE_LOOP('',(#703,#712,#721,#727,#728,#735));
#737=FACE_OUTER_BOUND('',#736,.T.);
#738=ADVANCED_FACE('',(#737),#693,.T.);
#739=CARTESIAN_POINT('',(15.5,0.0,4.250000000000004));
#740=DIRECTION('',(-1.0,0.0,-2.220446E-016));
#741=DIRECTION('',(0.0,0.0,1.0));
#742=AXIS2_PLACEMENT_3D('',#739,#740,#741);
#743=TOROIDAL_SURFACE('',#742,3.75,0.5);
#744=CARTESIAN_POINT('',(15.499999999999998,0.0,8.500000000000004));
#745=VERTEX_POINT('',#744);
#746=CARTESIAN_POINT('',(16.0,0.0,8.000000000000004));
#747=VERTEX_POINT('',#746);
#748=CARTESIAN_POINT('',(15.499999999999998,0.0,8.000000000000004));
#749=DIRECTION('',(0.0,1.0,0.0));
#750=DIRECTION('',(0.0,0.0,1.0));
#751=AXIS2_PLACEMENT_3D('',#748,#749,#750);
#752=CIRCLE('',#751,0.5);
#753=EDGE_CURVE('',#745,#747,#752,.T.);
#754=ORIENTED_EDGE('',*,*,#753,.F.);
#755=CARTESIAN_POINT('',(15.5,0.0,4.250000000000004));
#756=DIRECTION('',(1.0,0.0,0.0));
#757=DIRECTION('',(0.0,-1.0,0.0));
#758=AXIS2_PLACEMENT_3D('',#755,#756,#757);
#759=CIRCLE('',#758,4.25);
#760=EDGE_CURVE('',#745,#714,#759,.T.);
#761=ORIENTED_EDGE('',*,*,#760,.T.);
#762=ORIENTED_EDGE('',*,*,#720,.T.);
#763=CARTESIAN_POINT('',(16.0,-4.592425E-016,0.500000000000004));
#764=VERTEX_POINT('',#763);
#765=CARTESIAN_POINT('',(15.500000000000002,-4.592425E-016,0.500000000000004));
#766=DIRECTION('',(0.0,-1.0,0.0));
#767=DIRECTION('',(0.0,0.0,-1.0));
#768=AXIS2_PLACEMENT_3D('',#765,#766,#767);
#769=CIRCLE('',#768,0.5);
#770=EDGE_CURVE('',#705,#764,#769,.T.);
#771=ORIENTED_EDGE('',*,*,#770,.T.);
#772=CARTESIAN_POINT('',(16.0,0.0,4.250000000000004));
#773=DIRECTION('',(-1.0,0.0,0.0));
#774=DIRECTION('',(0.0,-1.0,0.0));
#775=AXIS2_PLACEMENT_3D('',#772,#773,#774);
#776=CIRCLE('',#775,3.75);
#777=EDGE_CURVE('',#764,#747,#776,.T.);
#778=ORIENTED_EDGE('',*,*,#777,.T.);
#779=EDGE_LOOP('',(#754,#761,#762,#771,#778));
#780=FACE_OUTER_BOUND('',#779,.T.);
#781=ADVANCED_FACE('',(#780),#743,.T.);
#782=CARTESIAN_POINT('',(15.5,0.0,4.250000000000004));
#783=DIRECTION('',(-1.0,0.0,-2.220446E-016));
#784=DIRECTION('',(0.0,0.0,1.0));
#785=AXIS2_PLACEMENT_3D('',#782,#783,#784);
#786=TOROIDAL_SURFACE('',#785,3.75,0.5);
#787=ORIENTED_EDGE('',*,*,#753,.T.);
#788=CARTESIAN_POINT('',(16.0,3.75,4.250000000000004));
#789=VERTEX_POINT('',#788);
#790=CARTESIAN_POINT('',(16.0,0.0,4.250000000000004));
#791=DIRECTION('',(-1.0,0.0,0.0));
#792=DIRECTION('',(0.0,-1.0,0.0));
#793=AXIS2_PLACEMENT_3D('',#790,#791,#792);
#794=CIRCLE('',#793,3.75);
#795=EDGE_CURVE('',#747,#789,#794,.T.);
#796=ORIENTED_EDGE('',*,*,#795,.T.);
#797=CARTESIAN_POINT('',(16.0,0.0,4.250000000000004));
#798=DIRECTION('',(-1.0,0.0,0.0));
#799=DIRECTION('',(0.0,-1.0,0.0));
#800=AXIS2_PLACEMENT_3D('',#797,#798,#799);
#801=CIRCLE('',#800,3.75);
#802=EDGE_CURVE('',#789,#764,#801,.T.);
#803=ORIENTED_EDGE('',*,*,#802,.T.);
#804=ORIENTED_EDGE('',*,*,#770,.F.);
#805=ORIENTED_EDGE('',*,*,#711,.T.);
#806=CARTESIAN_POINT('',(15.5,0.0,4.250000000000004));
#807=DIRECTION('',(1.0,0.0,0.0));
#808=DIRECTION('',(0.0,-1.0,0.0));
#809=AXIS2_PLACEMENT_3D('',#806,#807,#808);
#810=CIRCLE('',#809,4.25);
#811=EDGE_CURVE('',#695,#745,#810,.T.);
#812=ORIENTED_EDGE('',*,*,#811,.T.);
#813=EDGE_LOOP('',(#787,#796,#803,#804,#805,#812));
#814=FACE_OUTER_BOUND('',#813,.T.);
#815=ADVANCED_FACE('',(#814),#786,.T.);
#816=CARTESIAN_POINT('',(-16.0,0.0,4.249999999999996));
#817=DIRECTION('',(1.0,0.0,2.220446E-016));
#818=DIRECTION('',(0.0,1.0,0.0));
#819=AXIS2_PLACEMENT_3D('',#816,#817,#818);
#820=CYLINDRICAL_SURFACE('',#819,4.25);
#821=ORIENTED_EDGE('',*,*,#702,.T.);
#822=CARTESIAN_POINT('',(-15.5,0.0,4.249999999999996));
#823=DIRECTION('',(-1.0,0.0,0.0));
#824=DIRECTION('',(0.0,-1.0,0.0));
#825=AXIS2_PLACEMENT_3D('',#822,#823,#824);
#826=CIRCLE('',#825,4.25);
#827=EDGE_CURVE('',#662,#697,#826,.T.);
#828=ORIENTED_EDGE('',*,*,#827,.F.);
#829=ORIENTED_EDGE('',*,*,#668,.F.);
#830=ORIENTED_EDGE('',*,*,#726,.F.);
#831=ORIENTED_EDGE('',*,*,#760,.F.);
#832=ORIENTED_EDGE('',*,*,#811,.F.);
#833=EDGE_LOOP('',(#821,#828,#829,#830,#831,#832));
#834=FACE_OUTER_BOUND('',#833,.T.);
#835=ADVANCED_FACE('',(#834),#820,.T.);
#836=CARTESIAN_POINT('',(16.0,0.0,4.250000000000004));
#837=DIRECTION('',(1.0,0.0,0.0));
#838=DIRECTION('',(0.0,0.0,-1.0));
#839=AXIS2_PLACEMENT_3D('',#836,#837,#838);
#840=PLANE('',#839);
#841=ORIENTED_EDGE('',*,*,#802,.F.);
#842=ORIENTED_EDGE('',*,*,#795,.F.);
#843=ORIENTED_EDGE('',*,*,#777,.F.);
#844=EDGE_LOOP('',(#841,#842,#843));
#845=FACE_OUTER_BOUND('',#844,.T.);
#846=ADVANCED_FACE('',(#845),#840,.T.);
#847=CARTESIAN_POINT('',(-15.5,0.0,4.249999999999996));
#848=DIRECTION('',(1.0,0.0,2.220446E-016));
#849=DIRECTION('',(0.0,0.0,-1.0));
#850=AXIS2_PLACEMENT_3D('',#847,#848,#849);
#851=TOROIDAL_SURFACE('',#850,3.75,0.5);
#852=ORIENTED_EDGE('',*,*,#650,.T.);
#853=CARTESIAN_POINT('',(-16.0,3.75,4.249999999999996));
#854=VERTEX_POINT('',#853);
#855=CARTESIAN_POINT('',(-16.0,0.0,4.249999999999996));
#856=DIRECTION('',(1.0,0.0,0.0));
#857=DIRECTION('',(0.0,-1.0,0.0));
#858=AXIS2_PLACEMENT_3D('',#855,#856,#857);
#859=CIRCLE('',#858,3.75);
#860=EDGE_CURVE('',#644,#854,#859,.T.);
#861=ORIENTED_EDGE('',*,*,#860,.T.);
#862=CARTESIAN_POINT('',(-16.0,0.0,4.249999999999996));
#863=DIRECTION('',(1.0,0.0,0.0));
#864=DIRECTION('',(0.0,-1.0,0.0));
#865=AXIS2_PLACEMENT_3D('',#862,#863,#864);
#866=CIRCLE('',#865,3.75);
#867=EDGE_CURVE('',#854,#671,#866,.T.);
#868=ORIENTED_EDGE('',*,*,#867,.T.);
#869=ORIENTED_EDGE('',*,*,#677,.F.);
#870=ORIENTED_EDGE('',*,*,#827,.T.);
#871=ORIENTED_EDGE('',*,*,#734,.T.);
#872=EDGE_LOOP('',(#852,#861,#868,#869,#870,#871));
#873=FACE_OUTER_BOUND('',#872,.T.);
#874=ADVANCED_FACE('',(#873),#851,.T.);
#875=CARTESIAN_POINT('',(-16.0,0.0,4.249999999999996));
#876=DIRECTION('',(1.0,0.0,0.0));
#877=DIRECTION('',(0.0,0.0,-1.0));
#878=AXIS2_PLACEMENT_3D('',#875,#876,#877);
#879=PLANE('',#878);
#880=ORIENTED_EDGE('',*,*,#867,.F.);
#881=ORIENTED_EDGE('',*,*,#860,.F.);
#882=ORIENTED_EDGE('',*,*,#684,.F.);
#883=EDGE_LOOP('',(#880,#881,#882));
#884=FACE_OUTER_BOUND('',#883,.T.);
#885=ADVANCED_FACE('',(#884),#879,.F.);
#886=CLOSED_SHELL('',(#688,#738,#781,#815,#835,#846,#874,#885));
#887=MANIFOLD_SOLID_BREP('117F',#886);
#888=COLOUR_RGB('253',0.732,0.732,0.732);
#889=SURFACE_STYLE_USAGE(.BOTH.,#890);
#890=SURFACE_SIDE_STYLE('NONE',(#891));
#891=SURFACE_STYLE_FILL_AREA(#892);
#892=FILL_AREA_STYLE('NONE',(#893));
#893=FILL_AREA_STYLE_COLOUR('NONE',#888);
#894=PRESENTATION_STYLE_ASSIGNMENT((#889));
#895=STYLED_ITEM('NONE',(#894),#887);
#896=ADVANCED_BREP_SHAPE_REPRESENTATION('ABSR1',(#434,#634,#887),#28);
#897=SHAPE_REPRESENTATION_RELATIONSHIP('SRRPL1','',#896,#62);
ENDSEC;
END-ISO-10303-21;
