ISO-10303-21;
HEADER;
/****************************************************************
 * Generated by software with PDElib inside                    *
 * PDElib Version v51a, created Wed 11/30/2011                  *
 * ITI Transcendata (http://www.transcendata.com/)              *
 ****************************************************************/
FILE_DESCRIPTION((''),'2;1');
FILE_NAME('SAMTEC_TMM-103-01-L-D-SM-P-TR_Part2.stp','2014-10-15T16:30:13',(''),(''),'Mechanical Desktop 2011','Mechanical Desktop 2011',', , ');
FILE_SCHEMA(('AUTOMOTIVE_DESIGN { 1 2 10303 214 1 1 1 1 }'));
ENDSEC;
DATA;
#10=(NAMED_UNIT(*)PLANE_ANGLE_UNIT()SI_UNIT($,.RADIAN.));
#11=DIMENSIONAL_EXPONENTS(0.0,0.0,0.0,0.0,0.0,0.0,0.0);
#12=PLANE_ANGLE_MEASURE_WITH_UNIT(PLANE_ANGLE_MEASURE(0.0174532925),#10);
#16=(CONVERSION_BASED_UNIT('DEGREE',#12)NAMED_UNIT(#11)PLANE_ANGLE_UNIT());
#20=(NAMED_UNIT(*)SI_UNIT($,.STERADIAN.)SOLID_ANGLE_UNIT());
#24=(LENGTH_UNIT()NAMED_UNIT(*)SI_UNIT(.MILLI.,.METRE.));
#26=UNCERTAINTY_MEASURE_WITH_UNIT(LENGTH_MEASURE(0.000001),#24,'DISTANCE_ACCURACY_VALUE','');
#28=(GEOMETRIC_REPRESENTATION_CONTEXT(3)GLOBAL_UNCERTAINTY_ASSIGNED_CONTEXT((#26))GLOBAL_UNIT_ASSIGNED_CONTEXT((#16,#20,#24))REPRESENTATION_CONTEXT('','3D'));
#29=APPLICATION_CONTEXT('automotive design');
#30=APPLICATION_PROTOCOL_DEFINITION('INTERNATIONAL_STANDARD','automotive_design',1998,#29);
#31=PRODUCT_CONTEXT('3D Mechanical Parts',#29,'mechanical');
#32=PRODUCT('Product','Product','',(#31));
#33=PRODUCT_RELATED_PRODUCT_CATEGORY('part',$,(#32));
#34=PRODUCT_CATEGORY('part',$);
#35=PERSON('1','Design','Joe',$,$,$);
#36=ORGANIZATION($,'None','None');
#37=PERSON_AND_ORGANIZATION(#35,#36);
#38=PERSON_AND_ORGANIZATION_ROLE('design_owner');
#39=APPLIED_PERSON_AND_ORGANIZATION_ASSIGNMENT(#37,#38,(#32));
#40=PRODUCT_DEFINITION_FORMATION_WITH_SPECIFIED_SOURCE('None','',#32,.BOUGHT.);
#41=PERSON('2','Creator','Joe',$,$,$);
#42=ORGANIZATION($,'None','None');
#43=PERSON_AND_ORGANIZATION(#41,#42);
#44=PERSON_AND_ORGANIZATION_ROLE('creator');
#45=APPLIED_PERSON_AND_ORGANIZATION_ASSIGNMENT(#43,#44,(#40));
#46=PERSON('3','Supplier','Joe',$,$,$);
#47=ORGANIZATION($,'None','None');
#48=PERSON_AND_ORGANIZATION(#46,#47);
#49=PERSON_AND_ORGANIZATION_ROLE('design_supplier');
#50=APPLIED_PERSON_AND_ORGANIZATION_ASSIGNMENT(#48,#49,(#40));
#51=PRODUCT_DEFINITION_CONTEXT('part definition',#29,'design');
#52=PRODUCT_DEFINITION('None','',#40,#51);
#53=PERSON('4','Creator','Joe',$,$,$);
#54=ORGANIZATION($,'None','None');
#55=PERSON_AND_ORGANIZATION(#53,#54);
#56=PERSON_AND_ORGANIZATION_ROLE('creator');
#57=APPLIED_PERSON_AND_ORGANIZATION_ASSIGNMENT(#55,#56,(#52));
#58=CARTESIAN_POINT('NONE',(0.0,0.0,0.0));
#59=DIRECTION('NONE',(0.0,0.0,1.0));
#60=DIRECTION('NONE',(1.0,0.0,0.0));
#61=AXIS2_PLACEMENT_3D('NONE',#58,#59,#60);
#62=SHAPE_REPRESENTATION('SR1',(#61),#28);
#63=PRODUCT_DEFINITION_SHAPE('PDS1','Test Part',#52);
#64=SHAPE_DEFINITION_REPRESENTATION(#63,#62);
#65=CARTESIAN_POINT('',(4.000500000000001,-1.343474057876992,3.666813532492815));
#66=DIRECTION('',(-1.0,1.224647E-016,2.220169E-016));
#67=DIRECTION('',(-2.293766E-016,-0.810092587300975,-0.586301969977938));
#68=AXIS2_PLACEMENT_3D('',#65,#66,#67);
#69=CYLINDRICAL_SURFACE('',#68,0.127000000000005);
#70=CARTESIAN_POINT('',(-4.000500000000001,-1.383161557876994,3.546173977023846));
#71=VERTEX_POINT('',#70);
#72=CARTESIAN_POINT('',(-4.000500000000001,-1.470474057876996,3.666813532492812));
#73=VERTEX_POINT('',#72);
#74=CARTESIAN_POINT('',(-4.000500000000001,-1.343474057876991,3.666813532492817));
#75=DIRECTION('',(-1.0,1.858295E-016,1.344935E-016));
#76=DIRECTION('',(-2.293929E-016,-0.810092587300975,-0.586301969977938));
#77=AXIS2_PLACEMENT_3D('',#74,#75,#76);
#78=CIRCLE('',#77,0.127000000000005);
#79=EDGE_CURVE('',#71,#73,#78,.T.);
#80=ORIENTED_EDGE('',*,*,#79,.T.);
#81=CARTESIAN_POINT('',(4.000500000000001,-1.470474057876996,3.666813532492811));
#82=VERTEX_POINT('',#81);
#83=CARTESIAN_POINT('',(4.000500000000001,-1.470474057876996,3.666813532492811));
#84=DIRECTION('',(-1.0,0.0,0.0));
#85=VECTOR('',#84,8.001000000000001);
#86=LINE('',#83,#85);
#87=EDGE_CURVE('',#82,#73,#86,.T.);
#88=ORIENTED_EDGE('',*,*,#87,.F.);
#89=CARTESIAN_POINT('',(4.000500000000001,-1.383161557876995,3.546173977023845));
#90=VERTEX_POINT('',#89);
#91=CARTESIAN_POINT('',(4.000500000000001,-1.343474057876992,3.666813532492815));
#92=DIRECTION('',(1.0,-1.858295E-016,-1.344935E-016));
#93=DIRECTION('',(-2.293929E-016,-0.810092587300975,-0.586301969977938));
#94=AXIS2_PLACEMENT_3D('',#91,#92,#93);
#95=CIRCLE('',#94,0.127000000000005);
#96=EDGE_CURVE('',#82,#90,#95,.T.);
#97=ORIENTED_EDGE('',*,*,#96,.T.);
#98=CARTESIAN_POINT('',(4.000500000000001,-1.383161557876995,3.546173977023845));
#99=DIRECTION('',(-1.0,0.0,0.0));
#100=VECTOR('',#99,8.001000000000001);
#101=LINE('',#98,#100);
#102=EDGE_CURVE('',#90,#71,#101,.T.);
#103=ORIENTED_EDGE('',*,*,#102,.T.);
#104=EDGE_LOOP('',(#80,#88,#97,#103));
#105=FACE_OUTER_BOUND('',#104,.T.);
#106=ADVANCED_FACE('',(#105),#69,.F.);
#107=CARTESIAN_POINT('',(4.000500000000001,-1.470474057876996,3.666813532492811));
#108=DIRECTION('',(0.0,1.0,0.0));
#109=DIRECTION('',(0.0,0.0,-1.0));
#110=AXIS2_PLACEMENT_3D('',#107,#108,#109);
#111=PLANE('',#110);
#112=CARTESIAN_POINT('',(-4.0005,-1.470474057876996,6.826250000000004));
#113=VERTEX_POINT('',#112);
#114=CARTESIAN_POINT('',(-4.000500000000001,-1.470474057876996,3.666813532492812));
#115=DIRECTION('',(0.0,0.0,1.0));
#116=VECTOR('',#115,3.159436467507192);
#117=LINE('',#114,#116);
#118=EDGE_CURVE('',#73,#113,#117,.T.);
#119=ORIENTED_EDGE('',*,*,#118,.T.);
#120=CARTESIAN_POINT('',(4.000500000000002,-1.470474057876996,6.826250000000003));
#121=VERTEX_POINT('',#120);
#122=CARTESIAN_POINT('',(4.000500000000002,-1.470474057876996,6.826250000000003));
#123=DIRECTION('',(-1.0,0.0,0.0));
#124=VECTOR('',#123,8.001000000000001);
#125=LINE('',#122,#124);
#126=EDGE_CURVE('',#121,#113,#125,.T.);
#127=ORIENTED_EDGE('',*,*,#126,.F.);
#128=CARTESIAN_POINT('',(4.000500000000002,-1.470474057876996,6.826250000000003));
#129=DIRECTION('',(0.0,0.0,-1.0));
#130=VECTOR('',#129,3.159436467507192);
#131=LINE('',#128,#130);
#132=EDGE_CURVE('',#121,#82,#131,.T.);
#133=ORIENTED_EDGE('',*,*,#132,.T.);
#134=ORIENTED_EDGE('',*,*,#87,.T.);
#135=EDGE_LOOP('',(#119,#127,#133,#134));
#136=FACE_OUTER_BOUND('',#135,.T.);
#137=ADVANCED_FACE('',(#136),#111,.T.);
#138=CARTESIAN_POINT('',(4.000500000000002,-2.539999999999998,8.096250000000001));
#139=DIRECTION('',(0.0,-1.0,0.0));
#140=DIRECTION('',(0.0,0.0,1.0));
#141=AXIS2_PLACEMENT_3D('',#138,#139,#140);
#142=PLANE('',#141);
#143=CARTESIAN_POINT('',(-4.0005,-2.539999999999997,8.096250000000003));
#144=VERTEX_POINT('',#143);
#145=CARTESIAN_POINT('',(-4.0005,-2.539999999999997,6.826250000000004));
#146=VERTEX_POINT('',#145);
#147=CARTESIAN_POINT('',(-4.0005,-2.539999999999997,8.096250000000003));
#148=DIRECTION('',(0.0,0.0,-1.0));
#149=VECTOR('',#148,1.269999999999999);
#150=LINE('',#147,#149);
#151=EDGE_CURVE('',#144,#146,#150,.T.);
#152=ORIENTED_EDGE('',*,*,#151,.T.);
#153=CARTESIAN_POINT('',(4.000500000000002,-2.539999999999998,6.826250000000003));
#154=VERTEX_POINT('',#153);
#155=CARTESIAN_POINT('',(4.000500000000002,-2.539999999999998,6.826250000000003));
#156=DIRECTION('',(-1.0,0.0,0.0));
#157=VECTOR('',#156,8.001000000000001);
#158=LINE('',#155,#157);
#159=EDGE_CURVE('',#154,#146,#158,.T.);
#160=ORIENTED_EDGE('',*,*,#159,.F.);
#161=CARTESIAN_POINT('',(4.000500000000002,-2.539999999999998,8.096250000000001));
#162=VERTEX_POINT('',#161);
#163=CARTESIAN_POINT('',(4.000500000000002,-2.539999999999998,6.826250000000003));
#164=DIRECTION('',(0.0,0.0,1.0));
#165=VECTOR('',#164,1.269999999999999);
#166=LINE('',#163,#165);
#167=EDGE_CURVE('',#154,#162,#166,.T.);
#168=ORIENTED_EDGE('',*,*,#167,.T.);
#169=CARTESIAN_POINT('',(4.000500000000002,-2.539999999999998,8.096250000000001));
#170=DIRECTION('',(-1.0,0.0,0.0));
#171=VECTOR('',#170,8.001000000000001);
#172=LINE('',#169,#171);
#173=EDGE_CURVE('',#162,#144,#172,.T.);
#174=ORIENTED_EDGE('',*,*,#173,.T.);
#175=EDGE_LOOP('',(#152,#160,#168,#174));
#176=FACE_OUTER_BOUND('',#175,.T.);
#177=ADVANCED_FACE('',(#176),#142,.T.);
#178=CARTESIAN_POINT('',(4.000500000000002,-2.539999999999998,6.826250000000003));
#179=DIRECTION('',(0.0,0.0,-1.0));
#180=DIRECTION('',(1.0,0.0,0.0));
#181=AXIS2_PLACEMENT_3D('',#178,#179,#180);
#182=PLANE('',#181);
#183=CARTESIAN_POINT('',(-4.0005,-1.978474057876995,6.826250000000004));
#184=VERTEX_POINT('',#183);
#185=CARTESIAN_POINT('',(-4.0005,-2.539999999999997,6.826250000000004));
#186=DIRECTION('',(0.0,1.0,0.0));
#187=VECTOR('',#186,0.561525942123002);
#188=LINE('',#185,#187);
#189=EDGE_CURVE('',#146,#184,#188,.T.);
#190=ORIENTED_EDGE('',*,*,#189,.T.);
#191=CARTESIAN_POINT('',(4.000500000000002,-1.978474057876996,6.826250000000003));
#192=VERTEX_POINT('',#191);
#193=CARTESIAN_POINT('',(4.000500000000002,-1.978474057876996,6.826250000000003));
#194=DIRECTION('',(-1.0,0.0,0.0));
#195=VECTOR('',#194,8.001000000000001);
#196=LINE('',#193,#195);
#197=EDGE_CURVE('',#192,#184,#196,.T.);
#198=ORIENTED_EDGE('',*,*,#197,.F.);
#199=CARTESIAN_POINT('',(4.000500000000002,-1.978474057876996,6.826250000000003));
#200=DIRECTION('',(0.0,-1.0,0.0));
#201=VECTOR('',#200,0.561525942123002);
#202=LINE('',#199,#201);
#203=EDGE_CURVE('',#192,#154,#202,.T.);
#204=ORIENTED_EDGE('',*,*,#203,.T.);
#205=ORIENTED_EDGE('',*,*,#159,.T.);
#206=EDGE_LOOP('',(#190,#198,#204,#205));
#207=FACE_OUTER_BOUND('',#206,.T.);
#208=ADVANCED_FACE('',(#207),#182,.T.);
#209=CARTESIAN_POINT('',(4.000500000000002,-1.978474057876996,6.826250000000003));
#210=DIRECTION('',(0.0,-1.0,0.0));
#211=DIRECTION('',(0.0,0.0,1.0));
#212=AXIS2_PLACEMENT_3D('',#209,#210,#211);
#213=PLANE('',#212);
#214=CARTESIAN_POINT('',(-4.000500000000001,-1.978474057876994,3.016250000000003));
#215=VERTEX_POINT('',#214);
#216=CARTESIAN_POINT('',(-4.0005,-1.978474057876995,6.826250000000004));
#217=DIRECTION('',(0.0,0.0,-1.0));
#218=VECTOR('',#217,3.810000000000001);
#219=LINE('',#216,#218);
#220=EDGE_CURVE('',#184,#215,#219,.T.);
#221=ORIENTED_EDGE('',*,*,#220,.T.);
#222=CARTESIAN_POINT('',(4.000500000000001,-1.978474057876995,3.016250000000001));
#223=VERTEX_POINT('',#222);
#224=CARTESIAN_POINT('',(4.000500000000001,-1.978474057876995,3.016250000000001));
#225=DIRECTION('',(-1.0,0.0,0.0));
#226=VECTOR('',#225,8.001000000000001);
#227=LINE('',#224,#226);
#228=EDGE_CURVE('',#223,#215,#227,.T.);
#229=ORIENTED_EDGE('',*,*,#228,.F.);
#230=CARTESIAN_POINT('',(4.000500000000001,-1.978474057876995,3.016250000000001));
#231=DIRECTION('',(0.0,0.0,1.0));
#232=VECTOR('',#231,3.810000000000001);
#233=LINE('',#230,#232);
#234=EDGE_CURVE('',#223,#192,#233,.T.);
#235=ORIENTED_EDGE('',*,*,#234,.T.);
#236=ORIENTED_EDGE('',*,*,#197,.T.);
#237=EDGE_LOOP('',(#221,#229,#235,#236));
#238=FACE_OUTER_BOUND('',#237,.T.);
#239=ADVANCED_FACE('',(#238),#213,.T.);
#240=CARTESIAN_POINT('',(4.000500000000001,-1.724474057876996,3.016250000000001));
#241=DIRECTION('',(-1.0,1.224647E-016,2.220169E-016));
#242=DIRECTION('',(-2.396598E-016,-0.170661495790083,-0.985329718345434));
#243=AXIS2_PLACEMENT_3D('',#240,#241,#242);
#244=CYLINDRICAL_SURFACE('',#243,0.253999999999999);
#245=CARTESIAN_POINT('',(-4.000500000000001,-1.485269733718812,2.930825815461743));
#246=VERTEX_POINT('',#245);
#247=CARTESIAN_POINT('',(-4.000500000000001,-1.724474057876995,3.016250000000003));
#248=DIRECTION('',(1.0,-4.090537E-017,-2.361709E-016));
#249=DIRECTION('',(-2.396872E-016,-0.170661495790083,-0.985329718345434));
#250=AXIS2_PLACEMENT_3D('',#247,#248,#249);
#251=CIRCLE('',#250,0.253999999999999);
#252=EDGE_CURVE('',#215,#246,#251,.T.);
#253=ORIENTED_EDGE('',*,*,#252,.T.);
#254=CARTESIAN_POINT('',(4.000500000000001,-1.485269733718813,2.930825815461741));
#255=VERTEX_POINT('',#254);
#256=CARTESIAN_POINT('',(4.000500000000001,-1.485269733718813,2.930825815461741));
#257=DIRECTION('',(-1.0,0.0,0.0));
#258=VECTOR('',#257,8.001000000000001);
#259=LINE('',#256,#258);
#260=EDGE_CURVE('',#255,#246,#259,.T.);
#261=ORIENTED_EDGE('',*,*,#260,.F.);
#262=CARTESIAN_POINT('',(4.000500000000001,-1.724474057876996,3.016250000000001));
#263=DIRECTION('',(-1.0,4.090537E-017,2.361709E-016));
#264=DIRECTION('',(-2.396872E-016,-0.170661495790083,-0.985329718345434));
#265=AXIS2_PLACEMENT_3D('',#262,#263,#264);
#266=CIRCLE('',#265,0.253999999999999);
#267=EDGE_CURVE('',#255,#223,#266,.T.);
#268=ORIENTED_EDGE('',*,*,#267,.T.);
#269=ORIENTED_EDGE('',*,*,#228,.T.);
#270=EDGE_LOOP('',(#253,#261,#268,#269));
#271=FACE_OUTER_BOUND('',#270,.T.);
#272=ADVANCED_FACE('',(#271),#244,.T.);
#273=CARTESIAN_POINT('',(4.000500000000001,-1.36566757163972,2.888113723192609));
#274=DIRECTION('',(-1.0,1.224647E-016,2.220169E-016));
#275=DIRECTION('',(8.033881E-017,-0.677468868584212,0.735551447622277));
#276=AXIS2_PLACEMENT_3D('',#273,#274,#275);
#277=CYLINDRICAL_SURFACE('',#276,0.127000000000002);
#278=CARTESIAN_POINT('',(-4.000500000000001,-1.398419598588869,3.010817858129958));
#279=VERTEX_POINT('',#278);
#280=CARTESIAN_POINT('',(-4.000500000000001,-1.365667571639719,2.888113723192611));
#281=DIRECTION('',(-1.0,-5.444087E-017,5.910834E-017));
#282=DIRECTION('',(8.035922E-017,-0.677468868584212,0.735551447622277));
#283=AXIS2_PLACEMENT_3D('',#280,#281,#282);
#284=CIRCLE('',#283,0.127000000000002);
#285=EDGE_CURVE('',#246,#279,#284,.T.);
#286=ORIENTED_EDGE('',*,*,#285,.T.);
#287=CARTESIAN_POINT('',(4.000500000000001,-1.39841959858887,3.010817858129956));
#288=VERTEX_POINT('',#287);
#289=CARTESIAN_POINT('',(4.000500000000001,-1.39841959858887,3.010817858129956));
#290=DIRECTION('',(-1.0,0.0,0.0));
#291=VECTOR('',#290,8.001000000000001);
#292=LINE('',#289,#291);
#293=EDGE_CURVE('',#288,#279,#292,.T.);
#294=ORIENTED_EDGE('',*,*,#293,.F.);
#295=CARTESIAN_POINT('',(4.000500000000001,-1.36566757163972,2.888113723192609));
#296=DIRECTION('',(1.0,5.444087E-017,-5.910834E-017));
#297=DIRECTION('',(8.035922E-017,-0.677468868584212,0.735551447622277));
#298=AXIS2_PLACEMENT_3D('',#295,#296,#297);
#299=CIRCLE('',#298,0.127000000000002);
#300=EDGE_CURVE('',#288,#255,#299,.T.);
#301=ORIENTED_EDGE('',*,*,#300,.T.);
#302=ORIENTED_EDGE('',*,*,#260,.T.);
#303=EDGE_LOOP('',(#286,#294,#301,#302));
#304=FACE_OUTER_BOUND('',#303,.T.);
#305=ADVANCED_FACE('',(#304),#277,.F.);
#306=CARTESIAN_POINT('',(4.000500000000001,-1.470474057876996,3.280766954992116));
#307=DIRECTION('',(-1.0,1.224647E-016,2.220169E-016));
#308=DIRECTION('',(1.160899E-016,0.999594101431686,-0.028489162553156));
#309=AXIS2_PLACEMENT_3D('',#306,#307,#308);
#310=CYLINDRICAL_SURFACE('',#309,0.279400000000001);
#311=CARTESIAN_POINT('',(-4.000500000000001,-1.470474057876995,3.280766954992118));
#312=DIRECTION('',(1.0,-1.160420E-016,3.307281E-018));
#313=DIRECTION('',(1.160891E-016,0.999594101431686,-0.028489162553156));
#314=AXIS2_PLACEMENT_3D('',#311,#312,#313);
#315=CIRCLE('',#314,0.279400000000001);
#316=EDGE_CURVE('',#279,#71,#315,.T.);
#317=ORIENTED_EDGE('',*,*,#316,.T.);
#318=ORIENTED_EDGE('',*,*,#102,.F.);
#319=CARTESIAN_POINT('',(4.000500000000001,-1.470474057876996,3.280766954992116));
#320=DIRECTION('',(-1.0,1.160420E-016,-3.307281E-018));
#321=DIRECTION('',(1.160891E-016,0.999594101431686,-0.028489162553156));
#322=AXIS2_PLACEMENT_3D('',#319,#320,#321);
#323=CIRCLE('',#322,0.279400000000001);
#324=EDGE_CURVE('',#90,#288,#323,.T.);
#325=ORIENTED_EDGE('',*,*,#324,.T.);
#326=ORIENTED_EDGE('',*,*,#293,.T.);
#327=EDGE_LOOP('',(#317,#318,#325,#326));
#328=FACE_OUTER_BOUND('',#327,.T.);
#329=ADVANCED_FACE('',(#328),#310,.T.);
#330=CARTESIAN_POINT('',(-4.000499999999999,1.343474057876996,3.666813532492816));
#331=DIRECTION('',(1.0,-2.449294E-016,2.220169E-016));
#332=DIRECTION('',(3.285844E-016,0.810092587300971,-0.586301969977945));
#333=AXIS2_PLACEMENT_3D('',#330,#331,#332);
#334=CYLINDRICAL_SURFACE('',#333,0.127000000000005);
#335=CARTESIAN_POINT('',(4.000500000000001,1.383161557876996,3.546173977023846));
#336=VERTEX_POINT('',#335);
#337=CARTESIAN_POINT('',(4.000500000000001,1.470474057876999,3.666813532492812));
#338=VERTEX_POINT('',#337);
#339=CARTESIAN_POINT('',(4.000500000000002,1.343474057876994,3.666813532492818));
#340=DIRECTION('',(1.0,-2.661969E-016,1.926592E-016));
#341=DIRECTION('',(3.286006E-016,0.810092587300971,-0.586301969977945));
#342=AXIS2_PLACEMENT_3D('',#339,#340,#341);
#343=CIRCLE('',#342,0.127000000000005);
#344=EDGE_CURVE('',#336,#338,#343,.T.);
#345=ORIENTED_EDGE('',*,*,#344,.T.);
#346=CARTESIAN_POINT('',(-4.000499999999999,1.470474057877001,3.666813532492811));
#347=VERTEX_POINT('',#346);
#348=CARTESIAN_POINT('',(-4.000499999999999,1.470474057877001,3.666813532492811));
#349=DIRECTION('',(1.0,0.0,0.0));
#350=VECTOR('',#349,8.000999999999999);
#351=LINE('',#348,#350);
#352=EDGE_CURVE('',#347,#338,#351,.T.);
#353=ORIENTED_EDGE('',*,*,#352,.F.);
#354=CARTESIAN_POINT('',(-4.000499999999999,1.383161557876998,3.546173977023845));
#355=VERTEX_POINT('',#354);
#356=CARTESIAN_POINT('',(-4.000499999999999,1.343474057876996,3.666813532492816));
#357=DIRECTION('',(-1.0,2.661969E-016,-1.926592E-016));
#358=DIRECTION('',(3.286006E-016,0.810092587300971,-0.586301969977945));
#359=AXIS2_PLACEMENT_3D('',#356,#357,#358);
#360=CIRCLE('',#359,0.127000000000005);
#361=EDGE_CURVE('',#347,#355,#360,.T.);
#362=ORIENTED_EDGE('',*,*,#361,.T.);
#363=CARTESIAN_POINT('',(-4.000499999999999,1.383161557876998,3.546173977023845));
#364=DIRECTION('',(1.0,0.0,0.0));
#365=VECTOR('',#364,8.000999999999999);
#366=LINE('',#363,#365);
#367=EDGE_CURVE('',#355,#336,#366,.T.);
#368=ORIENTED_EDGE('',*,*,#367,.T.);
#369=EDGE_LOOP('',(#345,#353,#362,#368));
#370=FACE_OUTER_BOUND('',#369,.T.);
#371=ADVANCED_FACE('',(#370),#334,.F.);
#372=CARTESIAN_POINT('',(-4.000499999999999,1.470474057877001,3.666813532492811));
#373=DIRECTION('',(0.0,-1.0,0.0));
#374=DIRECTION('',(0.0,0.0,-1.0));
#375=AXIS2_PLACEMENT_3D('',#372,#373,#374);
#376=PLANE('',#375);
#377=CARTESIAN_POINT('',(4.000500000000002,1.470474057876999,6.826250000000004));
#378=VERTEX_POINT('',#377);
#379=CARTESIAN_POINT('',(4.000500000000002,1.470474057876999,3.666813532492812));
#380=DIRECTION('',(0.0,0.0,1.0));
#381=VECTOR('',#380,3.159436467507192);
#382=LINE('',#379,#381);
#383=EDGE_CURVE('',#338,#378,#382,.T.);
#384=ORIENTED_EDGE('',*,*,#383,.T.);
#385=CARTESIAN_POINT('',(-4.0005,1.470474057877001,6.826250000000003));
#386=VERTEX_POINT('',#385);
#387=CARTESIAN_POINT('',(-4.0005,1.470474057877001,6.826250000000003));
#388=DIRECTION('',(1.0,0.0,0.0));
#389=VECTOR('',#388,8.001000000000001);
#390=LINE('',#387,#389);
#391=EDGE_CURVE('',#386,#378,#390,.T.);
#392=ORIENTED_EDGE('',*,*,#391,.F.);
#393=CARTESIAN_POINT('',(-4.0005,1.470474057877001,6.826250000000003));
#394=DIRECTION('',(0.0,0.0,-1.0));
#395=VECTOR('',#394,3.159436467507192);
#396=LINE('',#393,#395);
#397=EDGE_CURVE('',#386,#347,#396,.T.);
#398=ORIENTED_EDGE('',*,*,#397,.T.);
#399=ORIENTED_EDGE('',*,*,#352,.T.);
#400=EDGE_LOOP('',(#384,#392,#398,#399));
#401=FACE_OUTER_BOUND('',#400,.T.);
#402=ADVANCED_FACE('',(#401),#376,.T.);
#403=CARTESIAN_POINT('',(-4.0005,1.470474057877001,6.826250000000003));
#404=DIRECTION('',(0.0,0.0,-1.0));
#405=DIRECTION('',(-1.0,0.0,0.0));
#406=AXIS2_PLACEMENT_3D('',#403,#404,#405);
#407=PLANE('',#406);
#408=CARTESIAN_POINT('',(4.000500000000002,1.470474057877001,6.826250000000003));
#409=DIRECTION('',(0.0,-1.0,0.0));
#410=VECTOR('',#409,2.940948115753997);
#411=LINE('',#408,#410);
#412=EDGE_CURVE('',#378,#121,#411,.T.);
#413=ORIENTED_EDGE('',*,*,#412,.T.);
#414=ORIENTED_EDGE('',*,*,#126,.T.);
#415=CARTESIAN_POINT('',(-4.0005,-1.470474057876996,6.826250000000004));
#416=DIRECTION('',(0.0,1.0,0.0));
#417=VECTOR('',#416,2.940948115753997);
#418=LINE('',#415,#417);
#419=EDGE_CURVE('',#113,#386,#418,.T.);
#420=ORIENTED_EDGE('',*,*,#419,.T.);
#421=ORIENTED_EDGE('',*,*,#391,.T.);
#422=EDGE_LOOP('',(#413,#414,#420,#421));
#423=FACE_OUTER_BOUND('',#422,.T.);
#424=ADVANCED_FACE('',(#423),#407,.T.);
#425=CARTESIAN_POINT('',(-4.0005,2.266277E-015,8.096250000000001));
#426=DIRECTION('',(0.0,0.0,1.0));
#427=DIRECTION('',(1.0,0.0,0.0));
#428=AXIS2_PLACEMENT_3D('',#425,#426,#427);
#429=PLANE('',#428);
#430=CARTESIAN_POINT('',(4.000500000000002,2.54,8.096250000000003));
#431=VERTEX_POINT('',#430);
#432=CARTESIAN_POINT('',(4.000500000000001,-2.54,8.096250000000003));
#433=DIRECTION('',(0.0,1.0,0.0));
#434=VECTOR('',#433,5.079999999999999);
#435=LINE('',#432,#434);
#436=EDGE_CURVE('',#162,#431,#435,.T.);
#437=ORIENTED_EDGE('',*,*,#436,.T.);
#438=CARTESIAN_POINT('',(-4.0005,2.540000000000001,8.096250000000001));
#439=VERTEX_POINT('',#438);
#440=CARTESIAN_POINT('',(-4.0005,2.540000000000001,8.096250000000001));
#441=DIRECTION('',(1.0,0.0,0.0));
#442=VECTOR('',#441,8.001000000000001);
#443=LINE('',#440,#442);
#444=EDGE_CURVE('',#439,#431,#443,.T.);
#445=ORIENTED_EDGE('',*,*,#444,.F.);
#446=CARTESIAN_POINT('',(-4.0005,2.540000000000001,8.096250000000001));
#447=DIRECTION('',(0.0,-1.0,0.0));
#448=VECTOR('',#447,5.079999999999999);
#449=LINE('',#446,#448);
#450=EDGE_CURVE('',#439,#144,#449,.T.);
#451=ORIENTED_EDGE('',*,*,#450,.T.);
#452=ORIENTED_EDGE('',*,*,#173,.F.);
#453=EDGE_LOOP('',(#437,#445,#451,#452));
#454=FACE_OUTER_BOUND('',#453,.T.);
#455=ADVANCED_FACE('',(#454),#429,.T.);
#456=CARTESIAN_POINT('',(-4.0005,2.540000000000001,8.096250000000001));
#457=DIRECTION('',(0.0,1.0,0.0));
#458=DIRECTION('',(0.0,0.0,1.0));
#459=AXIS2_PLACEMENT_3D('',#456,#457,#458);
#460=PLANE('',#459);
#461=CARTESIAN_POINT('',(4.000500000000002,2.54,6.826250000000004));
#462=VERTEX_POINT('',#461);
#463=CARTESIAN_POINT('',(4.000500000000002,2.54,8.096250000000003));
#464=DIRECTION('',(0.0,0.0,-1.0));
#465=VECTOR('',#464,1.269999999999999);
#466=LINE('',#463,#465);
#467=EDGE_CURVE('',#431,#462,#466,.T.);
#468=ORIENTED_EDGE('',*,*,#467,.T.);
#469=CARTESIAN_POINT('',(-4.0005,2.540000000000001,6.826250000000003));
#470=VERTEX_POINT('',#469);
#471=CARTESIAN_POINT('',(-4.0005,2.540000000000001,6.826250000000003));
#472=DIRECTION('',(1.0,0.0,0.0));
#473=VECTOR('',#472,8.001000000000001);
#474=LINE('',#471,#473);
#475=EDGE_CURVE('',#470,#462,#474,.T.);
#476=ORIENTED_EDGE('',*,*,#475,.F.);
#477=CARTESIAN_POINT('',(-4.0005,2.540000000000001,6.826250000000003));
#478=DIRECTION('',(0.0,0.0,1.0));
#479=VECTOR('',#478,1.269999999999999);
#480=LINE('',#477,#479);
#481=EDGE_CURVE('',#470,#439,#480,.T.);
#482=ORIENTED_EDGE('',*,*,#481,.T.);
#483=ORIENTED_EDGE('',*,*,#444,.T.);
#484=EDGE_LOOP('',(#468,#476,#482,#483));
#485=FACE_OUTER_BOUND('',#484,.T.);
#486=ADVANCED_FACE('',(#485),#460,.T.);
#487=CARTESIAN_POINT('',(-4.0005,2.540000000000001,6.826250000000003));
#488=DIRECTION('',(0.0,0.0,-1.0));
#489=DIRECTION('',(-1.0,0.0,0.0));
#490=AXIS2_PLACEMENT_3D('',#487,#488,#489);
#491=PLANE('',#490);
#492=CARTESIAN_POINT('',(4.000500000000002,1.978474057876998,6.826250000000004));
#493=VERTEX_POINT('',#492);
#494=CARTESIAN_POINT('',(4.000500000000002,2.54,6.826250000000004));
#495=DIRECTION('',(0.0,-1.0,0.0));
#496=VECTOR('',#495,0.561525942123001);
#497=LINE('',#494,#496);
#498=EDGE_CURVE('',#462,#493,#497,.T.);
#499=ORIENTED_EDGE('',*,*,#498,.T.);
#500=CARTESIAN_POINT('',(-4.0005,1.978474057877,6.826250000000003));
#501=VERTEX_POINT('',#500);
#502=CARTESIAN_POINT('',(-4.0005,1.978474057877,6.826250000000003));
#503=DIRECTION('',(1.0,0.0,0.0));
#504=VECTOR('',#503,8.001000000000001);
#505=LINE('',#502,#504);
#506=EDGE_CURVE('',#501,#493,#505,.T.);
#507=ORIENTED_EDGE('',*,*,#506,.F.);
#508=CARTESIAN_POINT('',(-4.0005,1.978474057877,6.826250000000003));
#509=DIRECTION('',(0.0,1.0,0.0));
#510=VECTOR('',#509,0.561525942123001);
#511=LINE('',#508,#510);
#512=EDGE_CURVE('',#501,#470,#511,.T.);
#513=ORIENTED_EDGE('',*,*,#512,.T.);
#514=ORIENTED_EDGE('',*,*,#475,.T.);
#515=EDGE_LOOP('',(#499,#507,#513,#514));
#516=FACE_OUTER_BOUND('',#515,.T.);
#517=ADVANCED_FACE('',(#516),#491,.T.);
#518=CARTESIAN_POINT('',(-4.0005,1.978474057877,6.826250000000003));
#519=DIRECTION('',(0.0,1.0,0.0));
#520=DIRECTION('',(0.0,0.0,1.0));
#521=AXIS2_PLACEMENT_3D('',#518,#519,#520);
#522=PLANE('',#521);
#523=CARTESIAN_POINT('',(4.000500000000001,1.978474057876996,3.016250000000003));
#524=VERTEX_POINT('',#523);
#525=CARTESIAN_POINT('',(4.000500000000002,1.978474057876998,6.826250000000004));
#526=DIRECTION('',(0.0,0.0,-1.0));
#527=VECTOR('',#526,3.810000000000001);
#528=LINE('',#525,#527);
#529=EDGE_CURVE('',#493,#524,#528,.T.);
#530=ORIENTED_EDGE('',*,*,#529,.T.);
#531=CARTESIAN_POINT('',(-4.000499999999999,1.978474057876998,3.016250000000001));
#532=VERTEX_POINT('',#531);
#533=CARTESIAN_POINT('',(-4.000499999999999,1.978474057876998,3.016250000000001));
#534=DIRECTION('',(1.0,0.0,0.0));
#535=VECTOR('',#534,8.000999999999999);
#536=LINE('',#533,#535);
#537=EDGE_CURVE('',#532,#524,#536,.T.);
#538=ORIENTED_EDGE('',*,*,#537,.F.);
#539=CARTESIAN_POINT('',(-4.000499999999999,1.978474057876998,3.016250000000001));
#540=DIRECTION('',(0.0,0.0,1.0));
#541=VECTOR('',#540,3.810000000000001);
#542=LINE('',#539,#541);
#543=EDGE_CURVE('',#532,#501,#542,.T.);
#544=ORIENTED_EDGE('',*,*,#543,.T.);
#545=ORIENTED_EDGE('',*,*,#506,.T.);
#546=EDGE_LOOP('',(#530,#538,#544,#545));
#547=FACE_OUTER_BOUND('',#546,.T.);
#548=ADVANCED_FACE('',(#547),#522,.T.);
#549=CARTESIAN_POINT('',(-4.000499999999999,1.724474057876999,3.01625));
#550=DIRECTION('',(1.0,-2.449294E-016,2.220169E-016));
#551=DIRECTION('',(2.605598E-016,0.170661495790083,-0.985329718345434));
#552=AXIS2_PLACEMENT_3D('',#549,#550,#551);
#553=CYLINDRICAL_SURFACE('',#552,0.253999999999999);
#554=CARTESIAN_POINT('',(4.000500000000001,1.485269733718815,2.930825815461743));
#555=VERTEX_POINT('',#554);
#556=CARTESIAN_POINT('',(4.000500000000002,1.724474057876997,3.016250000000002));
#557=DIRECTION('',(-1.0,4.447219E-017,-2.567643E-016));
#558=DIRECTION('',(2.605872E-016,0.170661495790083,-0.985329718345434));
#559=AXIS2_PLACEMENT_3D('',#556,#557,#558);
#560=CIRCLE('',#559,0.253999999999999);
#561=EDGE_CURVE('',#524,#555,#560,.T.);
#562=ORIENTED_EDGE('',*,*,#561,.T.);
#563=CARTESIAN_POINT('',(-4.000499999999999,1.485269733718817,2.930825815461741));
#564=VERTEX_POINT('',#563);
#565=CARTESIAN_POINT('',(-4.000499999999999,1.485269733718817,2.930825815461741));
#566=DIRECTION('',(1.0,0.0,0.0));
#567=VECTOR('',#566,8.000999999999999);
#568=LINE('',#565,#567);
#569=EDGE_CURVE('',#564,#555,#568,.T.);
#570=ORIENTED_EDGE('',*,*,#569,.F.);
#571=CARTESIAN_POINT('',(-4.000499999999999,1.724474057876999,3.01625));
#572=DIRECTION('',(1.0,-4.447219E-017,2.567643E-016));
#573=DIRECTION('',(2.605872E-016,0.170661495790083,-0.985329718345434));
#574=AXIS2_PLACEMENT_3D('',#571,#572,#573);
#575=CIRCLE('',#574,0.253999999999999);
#576=EDGE_CURVE('',#564,#532,#575,.T.);
#577=ORIENTED_EDGE('',*,*,#576,.T.);
#578=ORIENTED_EDGE('',*,*,#537,.T.);
#579=EDGE_LOOP('',(#562,#570,#577,#578));
#580=FACE_OUTER_BOUND('',#579,.T.);
#581=ADVANCED_FACE('',(#580),#553,.T.);
#582=CARTESIAN_POINT('',(-4.000499999999999,1.365667571639723,2.888113723192609));
#583=DIRECTION('',(1.0,-2.449294E-016,2.220169E-016));
#584=DIRECTION('',(2.627199E-018,0.677468868584213,0.735551447622276));
#585=AXIS2_PLACEMENT_3D('',#582,#583,#584);
#586=CYLINDRICAL_SURFACE('',#585,0.127000000000002);
#587=CARTESIAN_POINT('',(4.000500000000001,1.398419598588872,3.010817858129958));
#588=VERTEX_POINT('',#587);
#589=CARTESIAN_POINT('',(4.000500000000002,1.365667571639722,2.888113723192611));
#590=DIRECTION('',(1.0,-1.766016E-018,-1.917425E-018));
#591=DIRECTION('',(2.606786E-018,0.677468868584213,0.735551447622276));
#592=AXIS2_PLACEMENT_3D('',#589,#590,#591);
#593=CIRCLE('',#592,0.127000000000002);
#594=EDGE_CURVE('',#555,#588,#593,.T.);
#595=ORIENTED_EDGE('',*,*,#594,.T.);
#596=CARTESIAN_POINT('',(-4.000499999999999,1.398419598588874,3.010817858129956));
#597=VERTEX_POINT('',#596);
#598=CARTESIAN_POINT('',(-4.000499999999999,1.398419598588874,3.010817858129956));
#599=DIRECTION('',(1.0,0.0,0.0));
#600=VECTOR('',#599,8.000999999999999);
#601=LINE('',#598,#600);
#602=EDGE_CURVE('',#597,#588,#601,.T.);
#603=ORIENTED_EDGE('',*,*,#602,.F.);
#604=CARTESIAN_POINT('',(-4.000499999999999,1.365667571639723,2.888113723192609));
#605=DIRECTION('',(-1.0,1.766016E-018,1.917425E-018));
#606=DIRECTION('',(2.606786E-018,0.677468868584213,0.735551447622276));
#607=AXIS2_PLACEMENT_3D('',#604,#605,#606);
#608=CIRCLE('',#607,0.127000000000002);
#609=EDGE_CURVE('',#597,#564,#608,.T.);
#610=ORIENTED_EDGE('',*,*,#609,.T.);
#611=ORIENTED_EDGE('',*,*,#569,.T.);
#612=EDGE_LOOP('',(#595,#603,#610,#611));
#613=FACE_OUTER_BOUND('',#612,.T.);
#614=ADVANCED_FACE('',(#613),#586,.F.);
#615=CARTESIAN_POINT('',(-4.000499999999999,1.470474057876999,3.280766954992116));
#616=DIRECTION('',(1.0,-2.449294E-016,2.220169E-016));
#617=DIRECTION('',(-2.385049E-016,-0.999594101431686,-0.028489162553158));
#618=AXIS2_PLACEMENT_3D('',#615,#616,#617);
#619=CYLINDRICAL_SURFACE('',#618,0.279400000000001);
#620=CARTESIAN_POINT('',(4.000500000000002,1.470474057876998,3.280766954992118));
#621=DIRECTION('',(-1.0,2.384073E-016,6.794781E-018));
#622=DIRECTION('',(-2.385041E-016,-0.999594101431686,-0.028489162553158));
#623=AXIS2_PLACEMENT_3D('',#620,#621,#622);
#624=CIRCLE('',#623,0.279400000000001);
#625=EDGE_CURVE('',#588,#336,#624,.T.);
#626=ORIENTED_EDGE('',*,*,#625,.T.);
#627=ORIENTED_EDGE('',*,*,#367,.F.);
#628=CARTESIAN_POINT('',(-4.000499999999999,1.470474057876999,3.280766954992116));
#629=DIRECTION('',(1.0,-2.384073E-016,-6.794781E-018));
#630=DIRECTION('',(-2.385041E-016,-0.999594101431686,-0.028489162553158));
#631=AXIS2_PLACEMENT_3D('',#628,#629,#630);
#632=CIRCLE('',#631,0.279400000000001);
#633=EDGE_CURVE('',#355,#597,#632,.T.);
#634=ORIENTED_EDGE('',*,*,#633,.T.);
#635=ORIENTED_EDGE('',*,*,#602,.T.);
#636=EDGE_LOOP('',(#626,#627,#634,#635));
#637=FACE_OUTER_BOUND('',#636,.T.);
#638=ADVANCED_FACE('',(#637),#619,.T.);
#639=CARTESIAN_POINT('',(-4.0005,1.491446187650692,5.954587329944225));
#640=DIRECTION('',(1.0,0.0,0.0));
#641=DIRECTION('',(0.0,0.0,-1.0));
#642=AXIS2_PLACEMENT_3D('',#639,#640,#641);
#643=PLANE('',#642);
#644=ORIENTED_EDGE('',*,*,#633,.F.);
#645=ORIENTED_EDGE('',*,*,#361,.F.);
#646=ORIENTED_EDGE('',*,*,#397,.F.);
#647=ORIENTED_EDGE('',*,*,#419,.F.);
#648=ORIENTED_EDGE('',*,*,#118,.F.);
#649=ORIENTED_EDGE('',*,*,#79,.F.);
#650=ORIENTED_EDGE('',*,*,#316,.F.);
#651=ORIENTED_EDGE('',*,*,#285,.F.);
#652=ORIENTED_EDGE('',*,*,#252,.F.);
#653=ORIENTED_EDGE('',*,*,#220,.F.);
#654=ORIENTED_EDGE('',*,*,#189,.F.);
#655=ORIENTED_EDGE('',*,*,#151,.F.);
#656=ORIENTED_EDGE('',*,*,#450,.F.);
#657=ORIENTED_EDGE('',*,*,#481,.F.);
#658=ORIENTED_EDGE('',*,*,#512,.F.);
#659=ORIENTED_EDGE('',*,*,#543,.F.);
#660=ORIENTED_EDGE('',*,*,#576,.F.);
#661=ORIENTED_EDGE('',*,*,#609,.F.);
#662=EDGE_LOOP('',(#644,#645,#646,#647,#648,#649,#650,#651,#652,#653,#654,#655,#656,#657,#658,#659,#660,#661));
#663=FACE_OUTER_BOUND('',#662,.T.);
#664=ADVANCED_FACE('',(#663),#643,.F.);
#665=CARTESIAN_POINT('',(4.000500000000001,1.491446187650691,5.954587329944229));
#666=DIRECTION('',(1.0,0.0,0.0));
#667=DIRECTION('',(0.0,0.0,-1.0));
#668=AXIS2_PLACEMENT_3D('',#665,#666,#667);
#669=PLANE('',#668);
#670=ORIENTED_EDGE('',*,*,#344,.F.);
#671=ORIENTED_EDGE('',*,*,#625,.F.);
#672=ORIENTED_EDGE('',*,*,#594,.F.);
#673=ORIENTED_EDGE('',*,*,#561,.F.);
#674=ORIENTED_EDGE('',*,*,#529,.F.);
#675=ORIENTED_EDGE('',*,*,#498,.F.);
#676=ORIENTED_EDGE('',*,*,#467,.F.);
#677=ORIENTED_EDGE('',*,*,#436,.F.);
#678=ORIENTED_EDGE('',*,*,#167,.F.);
#679=ORIENTED_EDGE('',*,*,#203,.F.);
#680=ORIENTED_EDGE('',*,*,#234,.F.);
#681=ORIENTED_EDGE('',*,*,#267,.F.);
#682=ORIENTED_EDGE('',*,*,#300,.F.);
#683=ORIENTED_EDGE('',*,*,#324,.F.);
#684=ORIENTED_EDGE('',*,*,#96,.F.);
#685=ORIENTED_EDGE('',*,*,#132,.F.);
#686=ORIENTED_EDGE('',*,*,#412,.F.);
#687=ORIENTED_EDGE('',*,*,#383,.F.);
#688=EDGE_LOOP('',(#670,#671,#672,#673,#674,#675,#676,#677,#678,#679,#680,#681,#682,#683,#684,#685,#686,#687));
#689=FACE_OUTER_BOUND('',#688,.T.);
#690=ADVANCED_FACE('',(#689),#669,.T.);
#691=CLOSED_SHELL('',(#106,#137,#177,#208,#239,#272,#305,#329,#371,#402,#424,#455,#486,#517,#548,#581,#614,#638,#664,#690));
#692=MANIFOLD_SOLID_BREP('2E1B',#691);
#693=DRAUGHTING_PRE_DEFINED_COLOUR('white');
#694=SURFACE_STYLE_USAGE(.BOTH.,#695);
#695=SURFACE_SIDE_STYLE('NONE',(#696));
#696=SURFACE_STYLE_FILL_AREA(#697);
#697=FILL_AREA_STYLE('NONE',(#698));
#698=FILL_AREA_STYLE_COLOUR('NONE',#693);
#699=PRESENTATION_STYLE_ASSIGNMENT((#694));
#700=STYLED_ITEM('NONE',(#699),#692);
#701=MECHANICAL_DESIGN_GEOMETRIC_PRESENTATION_REPRESENTATION('NONE',(#700),#28);
#702=PRESENTATION_LAYER_ASSIGNMENT('3D','None',(#692));
#703=ADVANCED_BREP_SHAPE_REPRESENTATION('ABSR1',(#692),#28);
#704=SHAPE_REPRESENTATION_RELATIONSHIP('SRRPL1','',#703,#62);
ENDSEC;
END-ISO-10303-21;
