ISO-10303-21;
HEADER;
/* Generated by software containing ST-Developer
 * from STEP Tools, Inc. (www.steptools.com) 
 */

FILE_DESCRIPTION(
/* description */ (''),
/* implementation_level */ '2;1');

FILE_NAME(
/* name */ 'S:\\bcivel\\Altium-Lib\\Compo\\SAR_TDK_A81-A230X.stp',
/* time_stamp */ '2015-07-31T10:00:49+02:00',
/* author */ ('bcivel'),
/* organization */ (''),
/* preprocessor_version */ 'ST-DEVELOPER v15.5',
/* originating_system */ 'AutoCAD Mechanical',
/* authorisation */ '');

FILE_SCHEMA (('AUTOMOTIVE_DESIGN { 1 0 10303 214 3 1 1 }'));
ENDSEC;

DATA;
#10=MECHANICAL_DESIGN_GEOMETRIC_PRESENTATION_REPRESENTATION('',(#20,#21,
#22,#23,#19),#497);
#11=DIMENSIONAL_EXPONENTS(0.,0.,0.,0.,0.,0.,0.);
#12=(
CONVERSION_BASED_UNIT('degree',#13)
NAMED_UNIT(#11)
PLANE_ANGLE_UNIT()
);
#13=PLANE_ANGLE_MEASURE_WITH_UNIT(PLANE_ANGLE_MEASURE(0.01745329252),#500);
#14=PRESENTATION_LAYER_ASSIGNMENT('3D','',(#275,#276,#277,#278,#279));
#15=TOROIDAL_SURFACE($,#313,1.6,0.6);
#16=TOROIDAL_SURFACE($,#322,1.6,0.6);
#17=SHAPE_REPRESENTATION_RELATIONSHIP('SRR','None',#503,#18);
#18=ADVANCED_BREP_SHAPE_REPRESENTATION($,(#275,#276,#277,#278,#279),#496);
#19=STYLED_ITEM($,(#512),#275);
#20=STYLED_ITEM($,(#513),#276);
#21=STYLED_ITEM($,(#513),#277);
#22=STYLED_ITEM($,(#514),#278);
#23=STYLED_ITEM($,(#514),#279);
#24=PLANE($,#284);
#25=PLANE($,#288);
#26=PLANE($,#292);
#27=PLANE($,#293);
#28=PLANE($,#300);
#29=PLANE($,#301);
#30=PLANE($,#308);
#31=PLANE($,#309);
#32=PLANE($,#317);
#33=PLANE($,#318);
#34=PLANE($,#326);
#35=PLANE($,#327);
#36=FACE_BOUND($,#81,.T.);
#37=FACE_BOUND($,#84,.T.);
#38=FACE_BOUND($,#87,.T.);
#39=FACE_BOUND($,#89,.T.);
#40=FACE_BOUND($,#91,.T.);
#41=FACE_BOUND($,#93,.T.);
#42=FACE_BOUND($,#95,.T.);
#43=FACE_BOUND($,#97,.T.);
#44=FACE_BOUND($,#99,.T.);
#45=FACE_BOUND($,#101,.T.);
#46=FACE_BOUND($,#103,.T.);
#47=FACE_BOUND($,#105,.T.);
#48=FACE_BOUND($,#107,.T.);
#49=FACE_BOUND($,#109,.T.);
#50=FACE_BOUND($,#111,.T.);
#51=FACE_BOUND($,#113,.T.);
#52=FACE_BOUND($,#117,.T.);
#53=FACE_BOUND($,#119,.T.);
#54=FACE_BOUND($,#121,.T.);
#55=FACE_OUTER_BOUND($,#80,.T.);
#56=FACE_OUTER_BOUND($,#82,.T.);
#57=FACE_OUTER_BOUND($,#83,.T.);
#58=FACE_OUTER_BOUND($,#85,.T.);
#59=FACE_OUTER_BOUND($,#86,.T.);
#60=FACE_OUTER_BOUND($,#88,.T.);
#61=FACE_OUTER_BOUND($,#90,.T.);
#62=FACE_OUTER_BOUND($,#92,.T.);
#63=FACE_OUTER_BOUND($,#94,.T.);
#64=FACE_OUTER_BOUND($,#96,.T.);
#65=FACE_OUTER_BOUND($,#98,.T.);
#66=FACE_OUTER_BOUND($,#100,.T.);
#67=FACE_OUTER_BOUND($,#102,.T.);
#68=FACE_OUTER_BOUND($,#104,.T.);
#69=FACE_OUTER_BOUND($,#106,.T.);
#70=FACE_OUTER_BOUND($,#108,.T.);
#71=FACE_OUTER_BOUND($,#110,.T.);
#72=FACE_OUTER_BOUND($,#112,.T.);
#73=FACE_OUTER_BOUND($,#114,.T.);
#74=FACE_OUTER_BOUND($,#115,.T.);
#75=FACE_OUTER_BOUND($,#116,.T.);
#76=FACE_OUTER_BOUND($,#118,.T.);
#77=FACE_OUTER_BOUND($,#120,.T.);
#78=FACE_OUTER_BOUND($,#122,.T.);
#79=FACE_OUTER_BOUND($,#123,.T.);
#80=EDGE_LOOP($,(#190));
#81=EDGE_LOOP($,(#191));
#82=EDGE_LOOP($,(#192));
#83=EDGE_LOOP($,(#193));
#84=EDGE_LOOP($,(#194));
#85=EDGE_LOOP($,(#195));
#86=EDGE_LOOP($,(#196));
#87=EDGE_LOOP($,(#197));
#88=EDGE_LOOP($,(#198));
#89=EDGE_LOOP($,(#199));
#90=EDGE_LOOP($,(#200));
#91=EDGE_LOOP($,(#201));
#92=EDGE_LOOP($,(#202));
#93=EDGE_LOOP($,(#203));
#94=EDGE_LOOP($,(#204));
#95=EDGE_LOOP($,(#205));
#96=EDGE_LOOP($,(#206));
#97=EDGE_LOOP($,(#207));
#98=EDGE_LOOP($,(#208));
#99=EDGE_LOOP($,(#209));
#100=EDGE_LOOP($,(#210));
#101=EDGE_LOOP($,(#211));
#102=EDGE_LOOP($,(#212));
#103=EDGE_LOOP($,(#213));
#104=EDGE_LOOP($,(#214));
#105=EDGE_LOOP($,(#215));
#106=EDGE_LOOP($,(#216));
#107=EDGE_LOOP($,(#217));
#108=EDGE_LOOP($,(#218));
#109=EDGE_LOOP($,(#219));
#110=EDGE_LOOP($,(#220));
#111=EDGE_LOOP($,(#221));
#112=EDGE_LOOP($,(#222));
#113=EDGE_LOOP($,(#223));
#114=EDGE_LOOP($,(#224));
#115=EDGE_LOOP($,(#225));
#116=EDGE_LOOP($,(#226));
#117=EDGE_LOOP($,(#227));
#118=EDGE_LOOP($,(#228));
#119=EDGE_LOOP($,(#229));
#120=EDGE_LOOP($,(#230));
#121=EDGE_LOOP($,(#231));
#122=EDGE_LOOP($,(#232));
#123=EDGE_LOOP($,(#233));
#124=CIRCLE($,#282,1.5);
#125=CIRCLE($,#283,1.5);
#126=CIRCLE($,#286,1.5);
#127=CIRCLE($,#287,1.5);
#128=CIRCLE($,#290,4.1);
#129=CIRCLE($,#291,4.1);
#130=CIRCLE($,#295,1.5);
#131=CIRCLE($,#296,1.5);
#132=CIRCLE($,#298,4.);
#133=CIRCLE($,#299,4.);
#134=CIRCLE($,#303,1.5);
#135=CIRCLE($,#304,1.5);
#136=CIRCLE($,#306,4.);
#137=CIRCLE($,#307,4.);
#138=CIRCLE($,#311,0.6);
#139=CIRCLE($,#312,0.6);
#140=CIRCLE($,#314,0.6);
#141=CIRCLE($,#316,0.6);
#142=CIRCLE($,#320,0.6);
#143=CIRCLE($,#321,0.6);
#144=CIRCLE($,#323,0.6);
#145=CIRCLE($,#325,0.6);
#146=VERTEX_POINT($,#426);
#147=VERTEX_POINT($,#428);
#148=VERTEX_POINT($,#432);
#149=VERTEX_POINT($,#434);
#150=VERTEX_POINT($,#438);
#151=VERTEX_POINT($,#440);
#152=VERTEX_POINT($,#445);
#153=VERTEX_POINT($,#447);
#154=VERTEX_POINT($,#450);
#155=VERTEX_POINT($,#452);
#156=VERTEX_POINT($,#457);
#157=VERTEX_POINT($,#459);
#158=VERTEX_POINT($,#462);
#159=VERTEX_POINT($,#464);
#160=VERTEX_POINT($,#469);
#161=VERTEX_POINT($,#471);
#162=VERTEX_POINT($,#474);
#163=VERTEX_POINT($,#477);
#164=VERTEX_POINT($,#482);
#165=VERTEX_POINT($,#484);
#166=VERTEX_POINT($,#487);
#167=VERTEX_POINT($,#490);
#168=EDGE_CURVE($,#146,#146,#124,.T.);
#169=EDGE_CURVE($,#147,#147,#125,.T.);
#170=EDGE_CURVE($,#148,#148,#126,.T.);
#171=EDGE_CURVE($,#149,#149,#127,.T.);
#172=EDGE_CURVE($,#150,#150,#128,.T.);
#173=EDGE_CURVE($,#151,#151,#129,.T.);
#174=EDGE_CURVE($,#152,#152,#130,.T.);
#175=EDGE_CURVE($,#153,#153,#131,.T.);
#176=EDGE_CURVE($,#154,#154,#132,.T.);
#177=EDGE_CURVE($,#155,#155,#133,.T.);
#178=EDGE_CURVE($,#156,#156,#134,.T.);
#179=EDGE_CURVE($,#157,#157,#135,.T.);
#180=EDGE_CURVE($,#158,#158,#136,.T.);
#181=EDGE_CURVE($,#159,#159,#137,.T.);
#182=EDGE_CURVE($,#160,#160,#138,.T.);
#183=EDGE_CURVE($,#161,#161,#139,.T.);
#184=EDGE_CURVE($,#162,#162,#140,.T.);
#185=EDGE_CURVE($,#163,#163,#141,.T.);
#186=EDGE_CURVE($,#164,#164,#142,.T.);
#187=EDGE_CURVE($,#165,#165,#143,.T.);
#188=EDGE_CURVE($,#166,#166,#144,.T.);
#189=EDGE_CURVE($,#167,#167,#145,.T.);
#190=ORIENTED_EDGE($,*,*,#168,.F.);
#191=ORIENTED_EDGE($,*,*,#169,.T.);
#192=ORIENTED_EDGE($,*,*,#169,.F.);
#193=ORIENTED_EDGE($,*,*,#170,.F.);
#194=ORIENTED_EDGE($,*,*,#171,.F.);
#195=ORIENTED_EDGE($,*,*,#171,.T.);
#196=ORIENTED_EDGE($,*,*,#172,.T.);
#197=ORIENTED_EDGE($,*,*,#173,.T.);
#198=ORIENTED_EDGE($,*,*,#172,.F.);
#199=ORIENTED_EDGE($,*,*,#168,.T.);
#200=ORIENTED_EDGE($,*,*,#173,.F.);
#201=ORIENTED_EDGE($,*,*,#170,.T.);
#202=ORIENTED_EDGE($,*,*,#174,.F.);
#203=ORIENTED_EDGE($,*,*,#175,.F.);
#204=ORIENTED_EDGE($,*,*,#176,.T.);
#205=ORIENTED_EDGE($,*,*,#177,.F.);
#206=ORIENTED_EDGE($,*,*,#176,.F.);
#207=ORIENTED_EDGE($,*,*,#174,.T.);
#208=ORIENTED_EDGE($,*,*,#177,.T.);
#209=ORIENTED_EDGE($,*,*,#175,.T.);
#210=ORIENTED_EDGE($,*,*,#178,.F.);
#211=ORIENTED_EDGE($,*,*,#179,.F.);
#212=ORIENTED_EDGE($,*,*,#180,.T.);
#213=ORIENTED_EDGE($,*,*,#181,.F.);
#214=ORIENTED_EDGE($,*,*,#180,.F.);
#215=ORIENTED_EDGE($,*,*,#179,.T.);
#216=ORIENTED_EDGE($,*,*,#181,.T.);
#217=ORIENTED_EDGE($,*,*,#178,.T.);
#218=ORIENTED_EDGE($,*,*,#182,.F.);
#219=ORIENTED_EDGE($,*,*,#183,.T.);
#220=ORIENTED_EDGE($,*,*,#183,.F.);
#221=ORIENTED_EDGE($,*,*,#184,.T.);
#222=ORIENTED_EDGE($,*,*,#184,.F.);
#223=ORIENTED_EDGE($,*,*,#185,.T.);
#224=ORIENTED_EDGE($,*,*,#182,.T.);
#225=ORIENTED_EDGE($,*,*,#185,.F.);
#226=ORIENTED_EDGE($,*,*,#186,.T.);
#227=ORIENTED_EDGE($,*,*,#187,.F.);
#228=ORIENTED_EDGE($,*,*,#187,.T.);
#229=ORIENTED_EDGE($,*,*,#188,.F.);
#230=ORIENTED_EDGE($,*,*,#188,.T.);
#231=ORIENTED_EDGE($,*,*,#189,.F.);
#232=ORIENTED_EDGE($,*,*,#186,.F.);
#233=ORIENTED_EDGE($,*,*,#189,.T.);
#234=CYLINDRICAL_SURFACE($,#281,1.5);
#235=CYLINDRICAL_SURFACE($,#285,1.5);
#236=CYLINDRICAL_SURFACE($,#289,4.1);
#237=CYLINDRICAL_SURFACE($,#294,1.5);
#238=CYLINDRICAL_SURFACE($,#297,4.);
#239=CYLINDRICAL_SURFACE($,#302,1.5);
#240=CYLINDRICAL_SURFACE($,#305,4.);
#241=CYLINDRICAL_SURFACE($,#310,0.6);
#242=CYLINDRICAL_SURFACE($,#315,0.6);
#243=CYLINDRICAL_SURFACE($,#319,0.6);
#244=CYLINDRICAL_SURFACE($,#324,0.6);
#245=ADVANCED_FACE($,(#55,#36),#234,.F.);
#246=ADVANCED_FACE($,(#56),#24,.F.);
#247=ADVANCED_FACE($,(#57,#37),#235,.F.);
#248=ADVANCED_FACE($,(#58),#25,.T.);
#249=ADVANCED_FACE($,(#59,#38),#236,.T.);
#250=ADVANCED_FACE($,(#60,#39),#26,.T.);
#251=ADVANCED_FACE($,(#61,#40),#27,.F.);
#252=ADVANCED_FACE($,(#62,#41),#237,.F.);
#253=ADVANCED_FACE($,(#63,#42),#238,.T.);
#254=ADVANCED_FACE($,(#64,#43),#28,.F.);
#255=ADVANCED_FACE($,(#65,#44),#29,.T.);
#256=ADVANCED_FACE($,(#66,#45),#239,.F.);
#257=ADVANCED_FACE($,(#67,#46),#240,.T.);
#258=ADVANCED_FACE($,(#68,#47),#30,.F.);
#259=ADVANCED_FACE($,(#69,#48),#31,.T.);
#260=ADVANCED_FACE($,(#70,#49),#241,.T.);
#261=ADVANCED_FACE($,(#71,#50),#15,.T.);
#262=ADVANCED_FACE($,(#72,#51),#242,.T.);
#263=ADVANCED_FACE($,(#73),#32,.T.);
#264=ADVANCED_FACE($,(#74),#33,.F.);
#265=ADVANCED_FACE($,(#75,#52),#243,.T.);
#266=ADVANCED_FACE($,(#76,#53),#16,.T.);
#267=ADVANCED_FACE($,(#77,#54),#244,.T.);
#268=ADVANCED_FACE($,(#78),#34,.F.);
#269=ADVANCED_FACE($,(#79),#35,.T.);
#270=CLOSED_SHELL($,(#245,#246,#247,#248,#249,#250,#251));
#271=CLOSED_SHELL($,(#252,#253,#254,#255));
#272=CLOSED_SHELL($,(#256,#257,#258,#259));
#273=CLOSED_SHELL($,(#260,#261,#262,#263,#264));
#274=CLOSED_SHELL($,(#265,#266,#267,#268,#269));
#275=MANIFOLD_SOLID_BREP('35D',#270);
#276=MANIFOLD_SOLID_BREP('4EB',#271);
#277=MANIFOLD_SOLID_BREP('4EC',#272);
#278=MANIFOLD_SOLID_BREP('68E',#273);
#279=MANIFOLD_SOLID_BREP('692',#274);
#280=AXIS2_PLACEMENT_3D('placement',#424,#328,#329);
#281=AXIS2_PLACEMENT_3D($,#425,#330,#331);
#282=AXIS2_PLACEMENT_3D($,#427,#332,#333);
#283=AXIS2_PLACEMENT_3D($,#429,#334,#335);
#284=AXIS2_PLACEMENT_3D($,#430,#336,#337);
#285=AXIS2_PLACEMENT_3D($,#431,#338,#339);
#286=AXIS2_PLACEMENT_3D($,#433,#340,#341);
#287=AXIS2_PLACEMENT_3D($,#435,#342,#343);
#288=AXIS2_PLACEMENT_3D($,#436,#344,#345);
#289=AXIS2_PLACEMENT_3D($,#437,#346,#347);
#290=AXIS2_PLACEMENT_3D($,#439,#348,#349);
#291=AXIS2_PLACEMENT_3D($,#441,#350,#351);
#292=AXIS2_PLACEMENT_3D($,#442,#352,#353);
#293=AXIS2_PLACEMENT_3D($,#443,#354,#355);
#294=AXIS2_PLACEMENT_3D($,#444,#356,#357);
#295=AXIS2_PLACEMENT_3D($,#446,#358,#359);
#296=AXIS2_PLACEMENT_3D($,#448,#360,#361);
#297=AXIS2_PLACEMENT_3D($,#449,#362,#363);
#298=AXIS2_PLACEMENT_3D($,#451,#364,#365);
#299=AXIS2_PLACEMENT_3D($,#453,#366,#367);
#300=AXIS2_PLACEMENT_3D($,#454,#368,#369);
#301=AXIS2_PLACEMENT_3D($,#455,#370,#371);
#302=AXIS2_PLACEMENT_3D($,#456,#372,#373);
#303=AXIS2_PLACEMENT_3D($,#458,#374,#375);
#304=AXIS2_PLACEMENT_3D($,#460,#376,#377);
#305=AXIS2_PLACEMENT_3D($,#461,#378,#379);
#306=AXIS2_PLACEMENT_3D($,#463,#380,#381);
#307=AXIS2_PLACEMENT_3D($,#465,#382,#383);
#308=AXIS2_PLACEMENT_3D($,#466,#384,#385);
#309=AXIS2_PLACEMENT_3D($,#467,#386,#387);
#310=AXIS2_PLACEMENT_3D($,#468,#388,#389);
#311=AXIS2_PLACEMENT_3D($,#470,#390,#391);
#312=AXIS2_PLACEMENT_3D($,#472,#392,#393);
#313=AXIS2_PLACEMENT_3D($,#473,#394,#395);
#314=AXIS2_PLACEMENT_3D($,#475,#396,#397);
#315=AXIS2_PLACEMENT_3D($,#476,#398,#399);
#316=AXIS2_PLACEMENT_3D($,#478,#400,#401);
#317=AXIS2_PLACEMENT_3D($,#479,#402,#403);
#318=AXIS2_PLACEMENT_3D($,#480,#404,#405);
#319=AXIS2_PLACEMENT_3D($,#481,#406,#407);
#320=AXIS2_PLACEMENT_3D($,#483,#408,#409);
#321=AXIS2_PLACEMENT_3D($,#485,#410,#411);
#322=AXIS2_PLACEMENT_3D($,#486,#412,#413);
#323=AXIS2_PLACEMENT_3D($,#488,#414,#415);
#324=AXIS2_PLACEMENT_3D($,#489,#416,#417);
#325=AXIS2_PLACEMENT_3D($,#491,#418,#419);
#326=AXIS2_PLACEMENT_3D($,#492,#420,#421);
#327=AXIS2_PLACEMENT_3D($,#493,#422,#423);
#328=DIRECTION('axis',(0.,0.,1.));
#329=DIRECTION('refdir',(1.,0.,0.));
#330=DIRECTION('center_axis',(1.,-6.66133814775094E-16,9.86076131526265E-32));
#331=DIRECTION('ref_axis',(-6.66133814775094E-16,-1.,0.));
#332=DIRECTION('center_axis',(-1.,0.,-2.22044604925031E-16));
#333=DIRECTION('ref_axis',(-6.66133814775094E-16,-1.,0.));
#334=DIRECTION('center_axis',(-1.,6.66133814775094E-16,-1.4791141972894E-31));
#335=DIRECTION('ref_axis',(-6.66133814775094E-16,-1.,0.));
#336=DIRECTION('center_axis',(-1.,6.66133814775094E-16,-1.4791141972894E-31));
#337=DIRECTION('ref_axis',(0.,0.,1.));
#338=DIRECTION('center_axis',(1.,-6.66133814775094E-16,9.86076131526265E-32));
#339=DIRECTION('ref_axis',(-6.66133814775094E-16,-1.,0.));
#340=DIRECTION('center_axis',(1.,0.,2.22044604925031E-16));
#341=DIRECTION('ref_axis',(-6.66133814775094E-16,-1.,0.));
#342=DIRECTION('center_axis',(-1.,6.66133814775094E-16,-1.4791141972894E-31));
#343=DIRECTION('ref_axis',(-6.66133814775094E-16,-1.,0.));
#344=DIRECTION('center_axis',(-1.,6.66133814775094E-16,-1.4791141972894E-31));
#345=DIRECTION('ref_axis',(0.,0.,1.));
#346=DIRECTION('center_axis',(1.,0.,2.22044604925031E-16));
#347=DIRECTION('ref_axis',(0.,1.,0.));
#348=DIRECTION('center_axis',(-1.,0.,-2.22044604925031E-16));
#349=DIRECTION('ref_axis',(0.,1.,0.));
#350=DIRECTION('center_axis',(1.,0.,2.22044604925031E-16));
#351=DIRECTION('ref_axis',(0.,1.,0.));
#352=DIRECTION('center_axis',(1.,0.,2.22044604925031E-16));
#353=DIRECTION('ref_axis',(4.44089209850063E-16,0.,-1.));
#354=DIRECTION('center_axis',(1.,0.,2.22044604925031E-16));
#355=DIRECTION('ref_axis',(4.44089209850063E-16,0.,-1.));
#356=DIRECTION('center_axis',(1.,-6.66133814775094E-16,9.86076131526265E-32));
#357=DIRECTION('ref_axis',(-6.66133814775094E-16,-1.,0.));
#358=DIRECTION('center_axis',(1.,-2.22044604925031E-16,4.93038065763132E-32));
#359=DIRECTION('ref_axis',(-6.66133814775094E-16,-1.,0.));
#360=DIRECTION('center_axis',(-1.,2.22044604925031E-16,-4.93038065763132E-32));
#361=DIRECTION('ref_axis',(-6.66133814775094E-16,-1.,0.));
#362=DIRECTION('center_axis',(-1.,0.,0.));
#363=DIRECTION('ref_axis',(0.,1.,0.));
#364=DIRECTION('center_axis',(1.,-2.22044604925031E-16,4.93038065763132E-32));
#365=DIRECTION('ref_axis',(2.22044604925031E-16,1.,0.));
#366=DIRECTION('center_axis',(1.,-2.22044604925031E-16,4.93038065763132E-32));
#367=DIRECTION('ref_axis',(2.22044604925031E-16,1.,0.));
#368=DIRECTION('center_axis',(1.,-2.22044604925031E-16,4.93038065763132E-32));
#369=DIRECTION('ref_axis',(0.,0.,-1.));
#370=DIRECTION('center_axis',(1.,-2.22044604925031E-16,4.93038065763132E-32));
#371=DIRECTION('ref_axis',(0.,0.,-1.));
#372=DIRECTION('center_axis',(1.,-6.66133814775094E-16,9.86076131526265E-32));
#373=DIRECTION('ref_axis',(-6.66133814775094E-16,-1.,0.));
#374=DIRECTION('center_axis',(-1.,2.22044604925031E-16,-4.93038065763132E-32));
#375=DIRECTION('ref_axis',(-6.66133814775094E-16,-1.,0.));
#376=DIRECTION('center_axis',(1.,-2.22044604925031E-16,4.93038065763132E-32));
#377=DIRECTION('ref_axis',(-6.66133814775094E-16,-1.,0.));
#378=DIRECTION('center_axis',(-1.,0.,0.));
#379=DIRECTION('ref_axis',(0.,1.,0.));
#380=DIRECTION('center_axis',(1.,-2.22044604925031E-16,4.93038065763132E-32));
#381=DIRECTION('ref_axis',(2.22044604925031E-16,1.,0.));
#382=DIRECTION('center_axis',(1.,-2.22044604925031E-16,4.93038065763132E-32));
#383=DIRECTION('ref_axis',(2.22044604925031E-16,1.,0.));
#384=DIRECTION('center_axis',(1.,-2.22044604925031E-16,4.93038065763132E-32));
#385=DIRECTION('ref_axis',(0.,0.,-1.));
#386=DIRECTION('center_axis',(1.,-2.22044604925031E-16,4.93038065763132E-32));
#387=DIRECTION('ref_axis',(0.,0.,-1.));
#388=DIRECTION('center_axis',(-1.,0.,-2.433365533425E-16));
#389=DIRECTION('ref_axis',(2.433365533425E-16,0.,-1.));
#390=DIRECTION('center_axis',(-1.,0.,6.12323399573678E-17));
#391=DIRECTION('ref_axis',(-6.12323399573678E-17,0.,-1.));
#392=DIRECTION('center_axis',(-1.,0.,6.12323399573678E-17));
#393=DIRECTION('ref_axis',(-6.12323399573678E-17,0.,-1.));
#394=DIRECTION('center_axis',(0.,-1.,0.));
#395=DIRECTION('ref_axis',(0.,0.,-1.));
#396=DIRECTION('center_axis',(0.,0.,1.));
#397=DIRECTION('ref_axis',(-1.,0.,0.));
#398=DIRECTION('center_axis',(-8.45884209238214E-16,0.,1.));
#399=DIRECTION('ref_axis',(-1.,0.,-8.45884209238214E-16));
#400=DIRECTION('center_axis',(0.,0.,1.));
#401=DIRECTION('ref_axis',(-1.,0.,0.));
#402=DIRECTION('center_axis',(-1.,0.,6.12323399573678E-17));
#403=DIRECTION('ref_axis',(0.,0.,1.));
#404=DIRECTION('center_axis',(0.,0.,1.));
#405=DIRECTION('ref_axis',(1.,0.,0.));
#406=DIRECTION('center_axis',(-1.,0.,2.433365533425E-16));
#407=DIRECTION('ref_axis',(-2.433365533425E-16,0.,-1.));
#408=DIRECTION('center_axis',(-1.,0.,-6.12323399573678E-17));
#409=DIRECTION('ref_axis',(6.12323399573678E-17,0.,-1.));
#410=DIRECTION('center_axis',(-1.,0.,-6.12323399573678E-17));
#411=DIRECTION('ref_axis',(6.12323399573678E-17,0.,-1.));
#412=DIRECTION('center_axis',(0.,-1.,0.));
#413=DIRECTION('ref_axis',(0.,0.,-1.));
#414=DIRECTION('center_axis',(0.,0.,-1.));
#415=DIRECTION('ref_axis',(1.,0.,0.));
#416=DIRECTION('center_axis',(-8.45884209238214E-16,0.,-1.));
#417=DIRECTION('ref_axis',(1.,0.,-8.45884209238214E-16));
#418=DIRECTION('center_axis',(0.,0.,-1.));
#419=DIRECTION('ref_axis',(1.,0.,0.));
#420=DIRECTION('center_axis',(-1.,0.,-6.12323399573678E-17));
#421=DIRECTION('ref_axis',(0.,0.,1.));
#422=DIRECTION('center_axis',(0.,0.,-1.));
#423=DIRECTION('ref_axis',(-1.,0.,0.));
#424=CARTESIAN_POINT('',(0.,0.,0.));
#425=CARTESIAN_POINT('Origin',(1.1,5.32907051820075E-15,4.1));
#426=CARTESIAN_POINT('',(2.6,1.5,4.1));
#427=CARTESIAN_POINT('Origin',(2.6,4.44089209850063E-15,4.1));
#428=CARTESIAN_POINT('',(1.1,-1.49999999999999,4.1));
#429=CARTESIAN_POINT('Origin',(1.1,5.32907051820075E-15,4.1));
#430=CARTESIAN_POINT('Origin',(1.1,5.32907051820075E-15,4.1));
#431=CARTESIAN_POINT('Origin',(-3.1,8.88178419700125E-16,4.1));
#432=CARTESIAN_POINT('',(-2.6,1.5,4.1));
#433=CARTESIAN_POINT('Origin',(-2.6,8.88178419700125E-16,4.1));
#434=CARTESIAN_POINT('',(-1.1,-1.5,4.1));
#435=CARTESIAN_POINT('Origin',(-1.1,0.,4.1));
#436=CARTESIAN_POINT('Origin',(-1.1,0.,4.1));
#437=CARTESIAN_POINT('Origin',(-3.1,8.88178419700125E-16,4.1));
#438=CARTESIAN_POINT('',(2.6,4.1,4.1));
#439=CARTESIAN_POINT('Origin',(2.6,8.88178419700125E-16,4.1));
#440=CARTESIAN_POINT('',(-2.6,4.1,4.1));
#441=CARTESIAN_POINT('Origin',(-2.6,8.88178419700125E-16,4.1));
#442=CARTESIAN_POINT('Origin',(2.6,8.88178419700125E-16,4.1));
#443=CARTESIAN_POINT('Origin',(-2.6,8.88178419700125E-16,4.1));
#444=CARTESIAN_POINT('Origin',(1.1,5.32907051820075E-15,4.1));
#445=CARTESIAN_POINT('',(2.6,1.5,4.1));
#446=CARTESIAN_POINT('Origin',(2.6,4.44089209850063E-15,4.1));
#447=CARTESIAN_POINT('',(3.1,-1.5,4.1));
#448=CARTESIAN_POINT('Origin',(3.1,3.5527136788005E-15,4.1));
#449=CARTESIAN_POINT('Origin',(3.1,8.88178419700125E-16,4.1));
#450=CARTESIAN_POINT('',(2.6,4.,4.1));
#451=CARTESIAN_POINT('Origin',(2.6,8.88178419700125E-16,4.1));
#452=CARTESIAN_POINT('',(3.1,4.,4.1));
#453=CARTESIAN_POINT('Origin',(3.1,8.88178419700125E-16,4.1));
#454=CARTESIAN_POINT('Origin',(2.6,8.88178419700125E-16,4.1));
#455=CARTESIAN_POINT('Origin',(3.1,8.88178419700125E-16,4.1));
#456=CARTESIAN_POINT('Origin',(-3.1,8.88178419700125E-16,4.1));
#457=CARTESIAN_POINT('',(-2.6,1.5,4.1));
#458=CARTESIAN_POINT('Origin',(-2.6,8.88178419700125E-16,4.1));
#459=CARTESIAN_POINT('',(-3.1,-1.5,4.1));
#460=CARTESIAN_POINT('Origin',(-3.1,8.88178419700125E-16,4.1));
#461=CARTESIAN_POINT('Origin',(-2.6,1.77635683940025E-15,4.1));
#462=CARTESIAN_POINT('',(-3.1,4.,4.1));
#463=CARTESIAN_POINT('Origin',(-3.1,1.77635683940025E-15,4.1));
#464=CARTESIAN_POINT('',(-2.6,4.,4.1));
#465=CARTESIAN_POINT('Origin',(-2.6,1.77635683940025E-15,4.1));
#466=CARTESIAN_POINT('Origin',(-3.1,1.77635683940025E-15,4.1));
#467=CARTESIAN_POINT('Origin',(-2.6,1.77635683940025E-15,4.1));
#468=CARTESIAN_POINT('Origin',(4.75,5.32907051820075E-15,4.1));
#469=CARTESIAN_POINT('',(1.1,5.32907051820075E-15,4.7));
#470=CARTESIAN_POINT('Origin',(1.1,5.32907051820075E-15,4.1));
#471=CARTESIAN_POINT('',(4.75,5.32907051820075E-15,4.7));
#472=CARTESIAN_POINT('Origin',(4.75,5.32907051820075E-15,4.1));
#473=CARTESIAN_POINT('Origin',(4.75,5.32907051820075E-15,2.5));
#474=CARTESIAN_POINT('',(6.95,5.32907051820075E-15,2.5));
#475=CARTESIAN_POINT('Origin',(6.35,5.32907051820075E-15,2.5));
#476=CARTESIAN_POINT('Origin',(6.35000000000001,5.32907051820075E-15,-3.8));
#477=CARTESIAN_POINT('',(6.95000000000001,5.32907051820075E-15,-3.8));
#478=CARTESIAN_POINT('Origin',(6.35000000000001,5.32907051820075E-15,-3.8));
#479=CARTESIAN_POINT('Origin',(1.1,7.105427357601E-15,4.1));
#480=CARTESIAN_POINT('Origin',(6.35000000000001,7.105427357601E-15,-3.8));
#481=CARTESIAN_POINT('Origin',(-4.75,0.,4.1));
#482=CARTESIAN_POINT('',(-1.1,0.,4.7));
#483=CARTESIAN_POINT('Origin',(-1.1,0.,4.1));
#484=CARTESIAN_POINT('',(-4.75,0.,4.7));
#485=CARTESIAN_POINT('Origin',(-4.75,0.,4.1));
#486=CARTESIAN_POINT('Origin',(-4.75,0.,2.5));
#487=CARTESIAN_POINT('',(-6.95,0.,2.5));
#488=CARTESIAN_POINT('Origin',(-6.35,0.,2.5));
#489=CARTESIAN_POINT('Origin',(-6.35000000000001,0.,-3.8));
#490=CARTESIAN_POINT('',(-6.95000000000001,0.,-3.8));
#491=CARTESIAN_POINT('Origin',(-6.35000000000001,0.,-3.8));
#492=CARTESIAN_POINT('Origin',(-1.1,1.77635683940025E-15,4.1));
#493=CARTESIAN_POINT('Origin',(-6.35000000000001,1.77635683940025E-15,-3.8));
#494=UNCERTAINTY_MEASURE_WITH_UNIT(LENGTH_MEASURE(0.01),#498,
'DISTANCE_ACCURACY_VALUE',
'Maximum model space distance between geometric entities at asserted c
onnectivities');
#495=UNCERTAINTY_MEASURE_WITH_UNIT(LENGTH_MEASURE(1.E-6),#498,
'DISTANCE_ACCURACY_VALUE',
'Maximum model space distance between geometric entities at asserted c
onnectivities');
#496=(
GEOMETRIC_REPRESENTATION_CONTEXT(3)
GLOBAL_UNCERTAINTY_ASSIGNED_CONTEXT((#494))
GLOBAL_UNIT_ASSIGNED_CONTEXT((#498,#500,#499))
REPRESENTATION_CONTEXT('','3D')
);
#497=(
GEOMETRIC_REPRESENTATION_CONTEXT(3)
GLOBAL_UNCERTAINTY_ASSIGNED_CONTEXT((#495))
GLOBAL_UNIT_ASSIGNED_CONTEXT((#498,#12,#499))
REPRESENTATION_CONTEXT('','3D')
);
#498=(
LENGTH_UNIT()
NAMED_UNIT(*)
SI_UNIT(.MILLI.,.METRE.)
);
#499=(
NAMED_UNIT(*)
SI_UNIT($,.STERADIAN.)
SOLID_ANGLE_UNIT()
);
#500=(
NAMED_UNIT(*)
PLANE_ANGLE_UNIT()
SI_UNIT($,.RADIAN.)
);
#501=SHAPE_DEFINITION_REPRESENTATION(#502,#503);
#502=PRODUCT_DEFINITION_SHAPE('',$,#505);
#503=SHAPE_REPRESENTATION('',(#280),#496);
#504=PRODUCT_DEFINITION_CONTEXT('part definition',#509,'design');
#505=PRODUCT_DEFINITION('Product','Product',#506,#504);
#506=PRODUCT_DEFINITION_FORMATION('',$,#511);
#507=PRODUCT_RELATED_PRODUCT_CATEGORY('Product','Product',(#511));
#508=APPLICATION_PROTOCOL_DEFINITION('international standard',
'automotive_design',2009,#509);
#509=APPLICATION_CONTEXT(
'Core Data for Automotive Mechanical Design Process');
#510=PRODUCT_CONTEXT('part definition',#509,'mechanical');
#511=PRODUCT('Product','Product',$,(#510));
#512=PRESENTATION_STYLE_ASSIGNMENT((#515));
#513=PRESENTATION_STYLE_ASSIGNMENT((#516));
#514=PRESENTATION_STYLE_ASSIGNMENT((#517));
#515=SURFACE_STYLE_USAGE(.BOTH.,#518);
#516=SURFACE_STYLE_USAGE(.BOTH.,#519);
#517=SURFACE_STYLE_USAGE(.BOTH.,#520);
#518=SURFACE_SIDE_STYLE($,(#521));
#519=SURFACE_SIDE_STYLE($,(#522));
#520=SURFACE_SIDE_STYLE($,(#523));
#521=SURFACE_STYLE_FILL_AREA(#524);
#522=SURFACE_STYLE_FILL_AREA(#525);
#523=SURFACE_STYLE_FILL_AREA(#526);
#524=FILL_AREA_STYLE($,(#527));
#525=FILL_AREA_STYLE($,(#528));
#526=FILL_AREA_STYLE($,(#529));
#527=FILL_AREA_STYLE_COLOUR($,#530);
#528=FILL_AREA_STYLE_COLOUR($,#531);
#529=FILL_AREA_STYLE_COLOUR($,#532);
#530=COLOUR_RGB('',1.,1.,1.);
#531=COLOUR_RGB('',0.733333333333333,0.733333333333333,0.733333333333333);
#532=COLOUR_RGB('',0.866666666666667,0.866666666666667,0.866666666666667);
ENDSEC;
END-ISO-10303-21;
