ISO-10303-21;
HEADER;
/****************************************************************
 * Generated by software with PDE/Lib inside                    *
 * PDElib Version v51a, created Mon 11/23/2009                  *
 * ITI Transcendata (http://www.transcendata.com/)              *
 ****************************************************************/
FILE_DESCRIPTION((''),'2;1');
FILE_NAME('SCREW_M3X5_TORKX_ISO 14583_v.stp','2011-10-13T17:11:35',(''),(''),'Mechanical Desktop 2011','Mechanical Desktop 2011',', , ');
FILE_SCHEMA(('AUTOMOTIVE_DESIGN { 1 2 10303 214 1 1 1 1 }'));
ENDSEC;
DATA;
#10=(NAMED_UNIT(*)PLANE_ANGLE_UNIT()SI_UNIT($,.RADIAN.));
#11=DIMENSIONAL_EXPONENTS(0.0,0.0,0.0,0.0,0.0,0.0,0.0);
#12=PLANE_ANGLE_MEASURE_WITH_UNIT(PLANE_ANGLE_MEASURE(0.017453292500000),#10);
#16=(CONVERSION_BASED_UNIT('DEGREE',#12)NAMED_UNIT(#11)PLANE_ANGLE_UNIT());
#20=(NAMED_UNIT(*)SI_UNIT($,.STERADIAN.)SOLID_ANGLE_UNIT());
#24=(LENGTH_UNIT()NAMED_UNIT(*)SI_UNIT(.MILLI.,.METRE.));
#26=UNCERTAINTY_MEASURE_WITH_UNIT(LENGTH_MEASURE(0.000001000000000),#24,'DISTANCE_ACCURACY_VALUE','');
#28=(GEOMETRIC_REPRESENTATION_CONTEXT(3)GLOBAL_UNCERTAINTY_ASSIGNED_CONTEXT((#26))GLOBAL_UNIT_ASSIGNED_CONTEXT((#16,#20,#24))REPRESENTATION_CONTEXT('','3D'));
#29=APPLICATION_CONTEXT('automotive design');
#30=APPLICATION_PROTOCOL_DEFINITION('INTERNATIONAL_STANDARD','automotive_design',1998,#29);
#31=PRODUCT_CONTEXT('3D Mechanical Parts',#29,'mechanical');
#32=PRODUCT('Product','Product','',(#31));
#33=PRODUCT_RELATED_PRODUCT_CATEGORY('part',$,(#32,#70));
#34=PRODUCT_CATEGORY('part',$);
#35=PERSON('1','Design','Joe',$,$,$);
#36=ORGANIZATION($,'None','None');
#37=PERSON_AND_ORGANIZATION(#35,#36);
#38=PERSON_AND_ORGANIZATION_ROLE('design_owner');
#39=APPLIED_PERSON_AND_ORGANIZATION_ASSIGNMENT(#37,#38,(#32,#70));
#40=PRODUCT_DEFINITION_FORMATION_WITH_SPECIFIED_SOURCE('None','',#32,.BOUGHT.);
#41=PERSON('2','Creator','Joe',$,$,$);
#42=ORGANIZATION($,'None','None');
#43=PERSON_AND_ORGANIZATION(#41,#42);
#44=PERSON_AND_ORGANIZATION_ROLE('creator');
#45=APPLIED_PERSON_AND_ORGANIZATION_ASSIGNMENT(#43,#44,(#40,#71));
#46=PERSON('3','Supplier','Joe',$,$,$);
#47=ORGANIZATION($,'None','None');
#48=PERSON_AND_ORGANIZATION(#46,#47);
#49=PERSON_AND_ORGANIZATION_ROLE('design_supplier');
#50=APPLIED_PERSON_AND_ORGANIZATION_ASSIGNMENT(#48,#49,(#40,#71));
#51=PRODUCT_DEFINITION_CONTEXT('part definition',#29,'design');
#52=PRODUCT_DEFINITION('None','',#40,#51);
#53=PERSON('4','Creator','Joe',$,$,$);
#54=ORGANIZATION($,'None','None');
#55=PERSON_AND_ORGANIZATION(#53,#54);
#56=PERSON_AND_ORGANIZATION_ROLE('creator');
#57=APPLIED_PERSON_AND_ORGANIZATION_ASSIGNMENT(#55,#56,(#52,#72));
#58=CARTESIAN_POINT('NONE',(0.0,0.0,0.0));
#59=DIRECTION('NONE',(0.0,0.0,1.0));
#60=DIRECTION('NONE',(1.0,0.0,0.0));
#61=AXIS2_PLACEMENT_3D('NONE',#58,#59,#60);
#62=SHAPE_REPRESENTATION('SR1',(#61,#925),#28);
#63=PRODUCT_DEFINITION_SHAPE('PDS1','Test Part',#52);
#64=SHAPE_DEFINITION_REPRESENTATION(#63,#62);
#69=(GEOMETRIC_REPRESENTATION_CONTEXT(3)GLOBAL_UNCERTAINTY_ASSIGNED_CONTEXT((#26))GLOBAL_UNIT_ASSIGNED_CONTEXT((#16,#20,#24))REPRESENTATION_CONTEXT('Component','Component'));
#70=PRODUCT('BOSSARD_BN 5687_M3x5','BOSSARD_BN 5687_M3x5','',(#31));
#71=PRODUCT_DEFINITION_FORMATION_WITH_SPECIFIED_SOURCE('None','',#70,.BOUGHT.);
#72=PRODUCT_DEFINITION('None','',#71,#51);
#73=SHAPE_REPRESENTATION('SR2',(#61),#69);
#74=PRODUCT_DEFINITION_SHAPE('PDS2','Test Part',#72);
#75=SHAPE_DEFINITION_REPRESENTATION(#74,#73);
#76=CARTESIAN_POINT('',(-6.299059E-016,-1.298239E-015,-4.846750000000000));
#77=DIRECTION('',(1.836910E-016,2.220446E-016,1.0));
#78=DIRECTION('',(-2.287667E-017,1.0,-3.587604E-013));
#79=AXIS2_PLACEMENT_3D('',#76,#77,#78);
#80=CONICAL_SURFACE('',#79,1.346750000000000,45.000000000000043);
#81=CARTESIAN_POINT('',(-6.360702E-016,1.499999999999999,-4.693500000000000));
#82=VERTEX_POINT('',#81);
#83=CARTESIAN_POINT('',(-6.853598E-016,1.193499999999999,-5.0));
#84=VERTEX_POINT('',#83);
#85=CARTESIAN_POINT('',(-6.360702E-016,1.500000000000268,-4.693500000000269));
#86=DIRECTION('',(-1.137129E-016,-0.707106781186675,-0.707106781186420));
#87=VECTOR('',#86,0.433456456867354);
#88=LINE('',#85,#87);
#89=EDGE_CURVE('',#82,#84,#88,.T.);
#90=ORIENTED_EDGE('',*,*,#89,.F.);
#91=CARTESIAN_POINT('',(-3.837493E-016,-1.500000000000001,-4.693500000000000));
#92=VERTEX_POINT('',#91);
#93=CARTESIAN_POINT('',(-6.017552E-016,-1.264211E-015,-4.693500000000000));
#94=DIRECTION('',(-8.207242E-030,3.587604E-013,1.0));
#95=DIRECTION('',(-2.287667E-017,1.0,-3.587604E-013));
#96=AXIS2_PLACEMENT_3D('',#93,#94,#95);
#97=CIRCLE('',#96,1.500000000000000);
#98=EDGE_CURVE('',#92,#82,#97,.T.);
#99=ORIENTED_EDGE('',*,*,#98,.F.);
#100=CARTESIAN_POINT('',(-4.845964E-016,-1.193499999999815,-4.999999999999758));
#101=VERTEX_POINT('',#100);
#102=CARTESIAN_POINT('',(-3.837493E-016,-1.499999999999732,-4.693499999999731));
#103=DIRECTION('',(-2.326581E-016,0.707106781186421,-0.707106781186674));
#104=VECTOR('',#103,0.433456456867315);
#105=LINE('',#102,#104);
#106=EDGE_CURVE('',#92,#101,#105,.T.);
#107=ORIENTED_EDGE('',*,*,#106,.T.);
#108=CARTESIAN_POINT('',(-6.580565E-016,-1.332268E-015,-5.0));
#109=DIRECTION('',(-8.207242E-030,3.587604E-013,1.0));
#110=DIRECTION('',(-2.287667E-017,1.0,-3.587604E-013));
#111=AXIS2_PLACEMENT_3D('',#108,#109,#110);
#112=CIRCLE('',#111,1.193500000000000);
#113=EDGE_CURVE('',#101,#84,#112,.T.);
#114=ORIENTED_EDGE('',*,*,#113,.T.);
#115=EDGE_LOOP('',(#90,#99,#107,#114));
#116=FACE_OUTER_BOUND('',#115,.T.);
#117=ADVANCED_FACE('',(#116),#80,.T.);
#118=CARTESIAN_POINT('',(-7.883301E-017,-6.321055E-016,-1.846749999999995));
#119=DIRECTION('',(1.836910E-016,2.220446E-016,1.0));
#120=DIRECTION('',(-2.287667E-017,1.0,-3.587604E-013));
#121=AXIS2_PLACEMENT_3D('',#118,#119,#120);
#122=CYLINDRICAL_SURFACE('',#121,1.500000000000000);
#123=CARTESIAN_POINT('',(2.260833E-016,1.500000000000000,5.422329E-013));
#124=VERTEX_POINT('',#123);
#125=CARTESIAN_POINT('',(2.260833E-016,1.500000000000000,5.422329E-013));
#126=DIRECTION('',(0.0,0.0,-1.0));
#127=VECTOR('',#126,4.693500000000542);
#128=LINE('',#125,#127);
#129=EDGE_CURVE('',#124,#82,#128,.T.);
#130=ORIENTED_EDGE('',*,*,#129,.F.);
#131=CARTESIAN_POINT('',(4.784042E-016,-1.500000000000000,5.425815E-013));
#132=VERTEX_POINT('',#131);
#133=CARTESIAN_POINT('',(2.603983E-016,-2.220446E-016,4.440892E-015));
#134=DIRECTION('',(-8.207242E-030,3.587604E-013,1.0));
#135=DIRECTION('',(-2.287667E-017,1.0,-3.587604E-013));
#136=AXIS2_PLACEMENT_3D('',#133,#134,#135);
#137=CIRCLE('',#136,1.500000000000000);
#138=EDGE_CURVE('',#132,#124,#137,.T.);
#139=ORIENTED_EDGE('',*,*,#138,.F.);
#140=CARTESIAN_POINT('',(4.784042E-016,-1.500000000000000,5.426770E-013));
#141=DIRECTION('',(0.0,0.0,-1.0));
#142=VECTOR('',#141,4.693500000000543);
#143=LINE('',#140,#142);
#144=EDGE_CURVE('',#132,#92,#143,.T.);
#145=ORIENTED_EDGE('',*,*,#144,.T.);
#146=ORIENTED_EDGE('',*,*,#98,.T.);
#147=EDGE_LOOP('',(#130,#139,#145,#146));
#148=FACE_OUTER_BOUND('',#147,.T.);
#149=ADVANCED_FACE('',(#148),#122,.T.);
#150=CARTESIAN_POINT('',(8.740453E-016,5.197285E-016,2.340649253876508));
#151=DIRECTION('',(1.836910E-016,2.220446E-016,1.0));
#152=DIRECTION('',(-2.287667E-017,1.0,-3.587604E-013));
#153=AXIS2_PLACEMENT_3D('',#150,#151,#152);
#154=CONICAL_SURFACE('',#153,1.228500000000000,75.000000000000398);
#155=CARTESIAN_POINT('',(8.517763E-016,1.450000000000001,2.400000000000000));
#156=VERTEX_POINT('',#155);
#157=CARTESIAN_POINT('',(1.056669E-015,1.400000000000000,2.386602540377942));
#158=VERTEX_POINT('',#157);
#159=CARTESIAN_POINT('',(8.517763E-016,1.450000000000131,2.399999999999515));
#160=DIRECTION('',(-2.544555E-017,-0.965925826289156,-0.258819045102195));
#161=VECTOR('',#160,0.051763809020635);
#162=LINE('',#159,#161);
#163=EDGE_CURVE('',#156,#158,#162,.T.);
#164=ORIENTED_EDGE('',*,*,#163,.F.);
#165=CARTESIAN_POINT('',(1.095687E-015,-1.449999999999851,2.400000000000480));
#166=VERTEX_POINT('',#165);
#167=CARTESIAN_POINT('',(8.849475E-016,5.329071E-016,2.400000000000000));
#168=DIRECTION('',(-8.207242E-030,3.587604E-013,1.0));
#169=DIRECTION('',(-2.287667E-017,1.0,-3.587604E-013));
#170=AXIS2_PLACEMENT_3D('',#167,#168,#169);
#171=CIRCLE('',#170,1.450000000000001);
#172=EDGE_CURVE('',#156,#166,#171,.T.);
#173=ORIENTED_EDGE('',*,*,#172,.T.);
#174=CARTESIAN_POINT('',(1.049519E-015,-1.400000000000000,2.386602540378947));
#175=VERTEX_POINT('',#174);
#176=CARTESIAN_POINT('',(1.095687E-015,-1.449999999999851,2.400000000000480));
#177=DIRECTION('',(-1.879278E-016,0.965925826288982,-0.258819045102843));
#178=VECTOR('',#177,0.051763809020354);
#179=LINE('',#176,#178);
#180=EDGE_CURVE('',#166,#175,#179,.T.);
#181=ORIENTED_EDGE('',*,*,#180,.T.);
#182=CARTESIAN_POINT('',(-0.272443064731101,-1.184612510243176,2.337176029596857));
#183=VERTEX_POINT('',#182);
#184=CARTESIAN_POINT('',(1.009609E-015,-1.400000000000000,2.386602540378445));
#185=CARTESIAN_POINT('',(-0.041418837916571,-1.400000000000000,2.386602540378445));
#186=CARTESIAN_POINT('',(-0.084946816665889,-1.390276356044144,2.384535544593880));
#187=CARTESIAN_POINT('',(-0.162438981047244,-1.352118177255967,2.376217939541030));
#188=CARTESIAN_POINT('',(-0.196401510360992,-1.323684825720157,2.369946483593211));
#189=CARTESIAN_POINT('',(-0.245073015340312,-1.260850182980237,2.355555195886616));
#190=CARTESIAN_POINT('',(-0.263164663125310,-1.223735524652829,2.346835077804515));
#191=CARTESIAN_POINT('',(-0.272443064731101,-1.184612510243176,2.337176029596857));
#192=B_SPLINE_CURVE_WITH_KNOTS('',3,(#184,#185,#186,#187,#188,#189,#190,#191),.UNSPECIFIED.,.F.,.U.,(4,2,2,4),(0.501992769068897,0.626249282818613,0.750505796568329,0.868567156661080),.UNSPECIFIED.);
#193=EDGE_CURVE('',#175,#183,#192,.T.);
#194=ORIENTED_EDGE('',*,*,#193,.T.);
#195=CARTESIAN_POINT('',(-0.889682990098640,-0.828248868753370,2.337176028331261));
#196=VERTEX_POINT('',#195);
#197=CARTESIAN_POINT('',(-0.272443064731101,-1.184612510243176,2.337176029596857));
#198=CARTESIAN_POINT('',(-0.280287868567394,-1.151534354437513,2.329009391396921));
#199=CARTESIAN_POINT('',(-0.291559880848186,-1.119701303387233,2.321450676364651));
#200=CARTESIAN_POINT('',(-0.324934876671143,-1.048119138101300,2.305388890656008));
#201=CARTESIAN_POINT('',(-0.352987006435283,-1.004921265408082,2.296603572470253));
#202=CARTESIAN_POINT('',(-0.421894227911612,-0.929488170061750,2.284706477524521));
#203=CARTESIAN_POINT('',(-0.462772914282373,-0.897260521655264,2.281683513955132));
#204=CARTESIAN_POINT('',(-0.545663948425149,-0.849403360779526,2.281683513955132));
#205=CARTESIAN_POINT('',(-0.594013253834786,-0.830115204112351,2.284706477524469));
#206=CARTESIAN_POINT('',(-0.693793841428967,-0.808156347482818,2.296603572470200));
#207=CARTESIAN_POINT('',(-0.745230361452803,-0.805461426823424,2.305388890656007));
#208=CARTESIAN_POINT('',(-0.823909831309288,-0.812348915088026,2.321450676027713));
#209=CARTESIAN_POINT('',(-0.857114066561050,-0.818503591126317,2.329009390614593));
#210=CARTESIAN_POINT('',(-0.889682990098640,-0.828248868753370,2.337176028331261));
#211=B_SPLINE_CURVE_WITH_KNOTS('',3,(#197,#198,#199,#200,#201,#202,#203,#204,#205,#206,#207,#208,#209,#210),.UNSPECIFIED.,.F.,.U.,(4,2,2,2,2,2,4),(0.202573687901510,0.300793229177582,0.444364711804795,0.587936194432009,0.731507677059223,0.875079159686436,0.973298695890304),.UNSPECIFIED.);
#212=EDGE_CURVE('',#183,#196,#211,.T.);
#213=ORIENTED_EDGE('',*,*,#212,.T.);
#214=CARTESIAN_POINT('',(-1.162126056045462,-0.356363636363636,2.337176028331261));
#215=VERTEX_POINT('',#214);
#216=CARTESIAN_POINT('',(-0.889682990098640,-0.828248868753370,2.337176028331261));
#217=CARTESIAN_POINT('',(-0.928203716711522,-0.839775045687192,2.346835077039677));
#218=CARTESIAN_POINT('',(-0.969391779481215,-0.842664548785281,2.355555195580383));
#219=CARTESIAN_POINT('',(-1.048143930497136,-0.831931110174331,2.369946483593211));
#220=CARTESIAN_POINT('',(-1.089749199898773,-0.816735372779748,2.376217939540824));
#221=CARTESIAN_POINT('',(-1.161541234282157,-0.768704279225338,2.384535544593673));
#222=CARTESIAN_POINT('',(-1.191726146339927,-0.735869765830981,2.386602540378445));
#223=CARTESIAN_POINT('',(-1.233144984256499,-0.664130234169018,2.386602540378445));
#224=CARTESIAN_POINT('',(-1.246488050948026,-0.621572076818818,2.384535544593597));
#225=CARTESIAN_POINT('',(-1.252188180946002,-0.535382804476237,2.376217939540749));
#226=CARTESIAN_POINT('',(-1.244545440858129,-0.491753715545825,2.369946483593211));
#227=CARTESIAN_POINT('',(-1.214464795857212,-0.418185632857895,2.355555195580383));
#228=CARTESIAN_POINT('',(-1.191368381385108,-0.383960475715717,2.346835077039677));
#229=CARTESIAN_POINT('',(-1.162126056045462,-0.356363636363636,2.337176028331261));
#230=B_SPLINE_CURVE_WITH_KNOTS('',3,(#216,#217,#218,#219,#220,#221,#222,#223,#224,#225,#226,#227,#228,#229),.UNSPECIFIED.,.F.,.U.,(4,2,2,2,2,2,4),(0.135418376320421,0.253479741569466,0.377736255319182,0.501992769068898,0.626249282818613,0.750505796568329,0.868567161817374),.UNSPECIFIED.);
#231=EDGE_CURVE('',#196,#215,#230,.T.);
#232=ORIENTED_EDGE('',*,*,#231,.T.);
#233=CARTESIAN_POINT('',(-1.162126049409055,0.356363630100665,2.337176026139186));
#234=VERTEX_POINT('',#233);
#235=CARTESIAN_POINT('',(-1.162126056045462,-0.356363636363636,2.337176028331261));
#236=CARTESIAN_POINT('',(-1.137401936284929,-0.333030760019907,2.329009390614666));
#237=CARTESIAN_POINT('',(-1.115469712857442,-0.307352386797352,2.321450676027656));
#238=CARTESIAN_POINT('',(-1.070165238123948,-0.242657711277875,2.305388890656007));
#239=CARTESIAN_POINT('',(-1.046780847864259,-0.196764917925294,2.296603572469964));
#240=CARTESIAN_POINT('',(-1.015907481746399,-0.099372965949430,2.284706477524230));
#241=CARTESIAN_POINT('',(-1.008436862707523,-0.047857160875737,2.281683513955132));
#242=CARTESIAN_POINT('',(-1.008436862707523,0.047857160875738,2.281683513955132));
#243=CARTESIAN_POINT('',(-1.015907481746402,0.099372965949443,2.284706477524125));
#244=CARTESIAN_POINT('',(-1.046780847864264,0.196764917925306,2.296603572469859));
#245=CARTESIAN_POINT('',(-1.070165238123948,0.242657711277876,2.305388890656007));
#246=CARTESIAN_POINT('',(-1.115469711211218,0.307352384446548,2.321450675444020));
#247=CARTESIAN_POINT('',(-1.137401932349196,0.333030755435147,2.329009389259688));
#248=CARTESIAN_POINT('',(-1.162126049409055,0.356363630100665,2.337176026139186));
#249=B_SPLINE_CURVE_WITH_KNOTS('',3,(#235,#236,#237,#238,#239,#240,#241,#242,#243,#244,#245,#246,#247,#248),.UNSPECIFIED.,.F.,.U.,(4,2,2,2,2,2,4),(0.202573692974569,0.300793229177582,0.444364711804795,0.587936194432009,0.731507677059222,0.875079159686436,0.973298687103510),.UNSPECIFIED.);
#250=EDGE_CURVE('',#215,#234,#249,.T.);
#251=ORIENTED_EDGE('',*,*,#250,.T.);
#252=CARTESIAN_POINT('',(-0.889682979391801,0.828248865549670,2.337176025646528));
#253=VERTEX_POINT('',#252);
#254=CARTESIAN_POINT('',(-1.162126049409055,0.356363630100665,2.337176026139186));
#255=CARTESIAN_POINT('',(-1.191368377851074,0.383960470578794,2.346835075714940));
#256=CARTESIAN_POINT('',(-1.214464794748548,0.418185630146443,2.355555195049973));
#257=CARTESIAN_POINT('',(-1.244545440858129,0.491753715545827,2.369946483593211));
#258=CARTESIAN_POINT('',(-1.252188180946005,0.535382804476279,2.376217939540338));
#259=CARTESIAN_POINT('',(-1.246488050948017,0.621572076818859,2.384535544593185));
#260=CARTESIAN_POINT('',(-1.233144984256499,0.664130234169020,2.386602540378445));
#261=CARTESIAN_POINT('',(-1.191726146339927,0.735869765830982,2.386602540378445));
#262=CARTESIAN_POINT('',(-1.161541234282197,0.768704279225302,2.384535544593109));
#263=CARTESIAN_POINT('',(-1.089749199898822,0.816735372779726,2.376217939540263));
#264=CARTESIAN_POINT('',(-1.048143930497136,0.831931110174332,2.369946483593211));
#265=CARTESIAN_POINT('',(-0.969391775926369,0.842664549269786,2.355555194930765));
#266=CARTESIAN_POINT('',(-0.928203709098848,0.839775045084496,2.346835075417213));
#267=CARTESIAN_POINT('',(-0.889682979391801,0.828248865549670,2.337176025646528));
#268=B_SPLINE_CURVE_WITH_KNOTS('',3,(#254,#255,#256,#257,#258,#259,#260,#261,#262,#263,#264,#265,#266,#267),.UNSPECIFIED.,.F.,.U.,(4,2,2,2,2,2,4),(0.135418367389460,0.253479741569466,0.377736255319182,0.501992769068898,0.626249282818613,0.750505796568329,0.868567172755523),.UNSPECIFIED.);
#269=EDGE_CURVE('',#234,#253,#268,.T.);
#270=ORIENTED_EDGE('',*,*,#269,.T.);
#271=CARTESIAN_POINT('',(-0.272443065946822,1.184612505117008,2.337176028331261));
#272=VERTEX_POINT('',#271);
#273=CARTESIAN_POINT('',(-0.889682979391801,0.828248865549670,2.337176025646528));
#274=CARTESIAN_POINT('',(-0.857114059288694,0.818503589759619,2.329009388955254));
#275=CARTESIAN_POINT('',(-0.823909827807160,0.812348914781456,2.321450675312782));
#276=CARTESIAN_POINT('',(-0.745230361452803,0.805461426823425,2.305388890656007));
#277=CARTESIAN_POINT('',(-0.693793841429034,0.808156347482811,2.296603572469623));
#278=CARTESIAN_POINT('',(-0.594013253834850,0.830115204112331,2.284706477523886));
#279=CARTESIAN_POINT('',(-0.545663948425149,0.849403360779527,2.281683513955132));
#280=CARTESIAN_POINT('',(-0.462772914282373,0.897260521655265,2.281683513955132));
#281=CARTESIAN_POINT('',(-0.421894227911552,0.929488170061805,2.284706477523834));
#282=CARTESIAN_POINT('',(-0.352987006435236,1.004921265408148,2.296603572469570));
#283=CARTESIAN_POINT('',(-0.324934876671143,1.048119138101300,2.305388890656007));
#284=CARTESIAN_POINT('',(-0.291559881548315,1.119701301885607,2.321450676027712));
#285=CARTESIAN_POINT('',(-0.280287869723656,1.151534351146016,2.329009390614592));
#286=CARTESIAN_POINT('',(-0.272443065946822,1.184612505117008,2.337176028331261));
#287=B_SPLINE_CURVE_WITH_KNOTS('',3,(#273,#274,#275,#276,#277,#278,#279,#280,#281,#282,#283,#284,#285,#286),.UNSPECIFIED.,.F.,.U.,(4,2,2,2,2,2,4),(0.202573703736149,0.300793229177582,0.444364711804795,0.587936194432009,0.731507677059222,0.875079159686436,0.973298695890298),.UNSPECIFIED.);
#288=EDGE_CURVE('',#253,#272,#287,.T.);
#289=ORIENTED_EDGE('',*,*,#288,.T.);
#290=CARTESIAN_POINT('',(-0.272443065946822,1.184612505117008,2.337176028331261));
#291=CARTESIAN_POINT('',(-0.263164664673584,1.223735521402912,2.346835077039677));
#292=CARTESIAN_POINT('',(-0.245073016375996,1.260850181643176,2.355555195580382));
#293=CARTESIAN_POINT('',(-0.196401510360992,1.323684825720157,2.369946483593211));
#294=CARTESIAN_POINT('',(-0.162438981047166,1.352118177256022,2.376217939540056));
#295=CARTESIAN_POINT('',(-0.084946816665797,1.390276356044173,2.384535544592902));
#296=CARTESIAN_POINT('',(-0.041418837916571,1.400000000000001,2.386602540378444));
#297=CARTESIAN_POINT('',(1.242062E-015,1.400000000000001,2.386602540378444));
#298=B_SPLINE_CURVE_WITH_KNOTS('',3,(#290,#291,#292,#293,#294,#295,#296,#297),.UNSPECIFIED.,.F.,.U.,(4,2,2,4),(0.135418376320419,0.253479741569466,0.377736255319182,0.501992769068898),.UNSPECIFIED.);
#299=EDGE_CURVE('',#272,#158,#298,.T.);
#300=ORIENTED_EDGE('',*,*,#299,.T.);
#301=EDGE_LOOP('',(#164,#173,#181,#194,#213,#232,#251,#270,#289,#300));
#302=FACE_OUTER_BOUND('',#301,.T.);
#303=ADVANCED_FACE('',(#302),#154,.F.);
#304=CARTESIAN_POINT('',(6.002915E-016,1.888165E-016,0.850353712026630));
#305=DIRECTION('',(-1.836910E-016,-2.220446E-016,-1.0));
#306=DIRECTION('',(-2.287667E-017,1.0,-3.587604E-013));
#307=AXIS2_PLACEMENT_3D('',#304,#305,#306);
#308=CONICAL_SURFACE('',#307,2.740537475893651,3.999999999999994);
#309=CARTESIAN_POINT('',(6.951597E-016,2.681074951787304,1.700707424053259));
#310=VERTEX_POINT('',#309);
#311=CARTESIAN_POINT('',(3.800345E-016,2.800000000000000,-6.217249E-016));
#312=VERTEX_POINT('',#311);
#313=CARTESIAN_POINT('',(6.951597E-016,2.681074951787234,1.700707424053233));
#314=DIRECTION('',(-1.848393E-016,0.069756473744123,-0.997564050259825));
#315=VECTOR('',#314,1.704860378248668);
#316=LINE('',#313,#315);
#317=EDGE_CURVE('',#310,#312,#316,.T.);
#318=ORIENTED_EDGE('',*,*,#317,.F.);
#319=CARTESIAN_POINT('',(1.146154E-015,-2.681074951787365,1.700707424053286));
#320=VERTEX_POINT('',#319);
#321=CARTESIAN_POINT('',(7.564938E-016,3.776329E-016,1.700707424053260));
#322=DIRECTION('',(-8.207242E-030,3.587604E-013,1.0));
#323=DIRECTION('',(-2.287667E-017,1.0,-3.587604E-013));
#324=AXIS2_PLACEMENT_3D('',#321,#322,#323);
#325=CIRCLE('',#324,2.681074951787303);
#326=EDGE_CURVE('',#320,#310,#325,.T.);
#327=ORIENTED_EDGE('',*,*,#326,.F.);
#328=CARTESIAN_POINT('',(8.510337E-016,-2.800000000000075,-1.532108E-014));
#329=VERTEX_POINT('',#328);
#330=CARTESIAN_POINT('',(1.146154E-015,-2.681074951787365,1.700707424053286));
#331=DIRECTION('',(-1.731053E-016,-0.069756473744127,-0.997564050259824));
#332=VECTOR('',#331,1.704860378248732);
#333=LINE('',#330,#332);
#334=EDGE_CURVE('',#320,#329,#333,.T.);
#335=ORIENTED_EDGE('',*,*,#334,.T.);
#336=CARTESIAN_POINT('',(4.440892E-016,0.0,0.0));
#337=DIRECTION('',(-8.207242E-030,3.587604E-013,1.0));
#338=DIRECTION('',(-2.287667E-017,1.0,-3.587604E-013));
#339=AXIS2_PLACEMENT_3D('',#336,#337,#338);
#340=CIRCLE('',#339,2.800000000000000);
#341=EDGE_CURVE('',#329,#312,#340,.T.);
#342=ORIENTED_EDGE('',*,*,#341,.T.);
#343=EDGE_LOOP('',(#318,#327,#335,#342));
#344=FACE_OUTER_BOUND('',#343,.T.);
#345=ADVANCED_FACE('',(#344),#308,.T.);
#346=CARTESIAN_POINT('',(3.949044E-016,2.150000000000000,3.963496E-015));
#347=DIRECTION('',(0.0,0.0,-1.0));
#348=DIRECTION('',(0.0,-1.0,0.0));
#349=AXIS2_PLACEMENT_3D('',#346,#347,#348);
#350=PLANE('',#349);
#351=CARTESIAN_POINT('',(4.440892E-016,0.0,0.0));
#352=DIRECTION('',(-8.207242E-030,3.587604E-013,1.0));
#353=DIRECTION('',(-2.287667E-017,1.0,-3.587604E-013));
#354=AXIS2_PLACEMENT_3D('',#351,#352,#353);
#355=CIRCLE('',#354,2.800000000000000);
#356=EDGE_CURVE('',#312,#329,#355,.T.);
#357=ORIENTED_EDGE('',*,*,#356,.F.);
#358=ORIENTED_EDGE('',*,*,#341,.F.);
#359=EDGE_LOOP('',(#357,#358));
#360=FACE_OUTER_BOUND('',#359,.T.);
#361=ORIENTED_EDGE('',*,*,#138,.T.);
#362=CARTESIAN_POINT('',(2.603983E-016,-2.220446E-016,4.440892E-015));
#363=DIRECTION('',(-8.207242E-030,3.587604E-013,1.0));
#364=DIRECTION('',(-2.287667E-017,1.0,-3.587604E-013));
#365=AXIS2_PLACEMENT_3D('',#362,#363,#364);
#366=CIRCLE('',#365,1.500000000000000);
#367=EDGE_CURVE('',#124,#132,#366,.T.);
#368=ORIENTED_EDGE('',*,*,#367,.T.);
#369=EDGE_LOOP('',(#361,#368));
#370=FACE_BOUND('',#369,.T.);
#371=ADVANCED_FACE('',(#360,#370),#350,.T.);
#372=CARTESIAN_POINT('',(-1.498436862707523,4.215377E-016,2.400000000000001));
#373=DIRECTION('',(-1.836910E-016,-2.220446E-016,-1.0));
#374=DIRECTION('',(0.686348585024614,-0.727272727272727,3.541096E-017));
#375=AXIS2_PLACEMENT_3D('',#372,#373,#374);
#376=CYLINDRICAL_SURFACE('',#375,0.490000000000000);
#377=ORIENTED_EDGE('',*,*,#250,.F.);
#378=CARTESIAN_POINT('',(-1.162126056045462,-0.356363636363636,1.130000000000001));
#379=VERTEX_POINT('',#378);
#380=CARTESIAN_POINT('',(-1.162126056045462,-0.356363636363636,2.337176028331261));
#381=DIRECTION('',(0.0,0.0,-1.0));
#382=VECTOR('',#381,1.207176028331261);
#383=LINE('',#380,#382);
#384=EDGE_CURVE('',#215,#379,#383,.T.);
#385=ORIENTED_EDGE('',*,*,#384,.T.);
#386=CARTESIAN_POINT('',(-1.162126049409055,0.356363630100664,1.130000000000001));
#387=VERTEX_POINT('',#386);
#388=CARTESIAN_POINT('',(-1.498436862707523,1.395410E-016,1.130000000000001));
#389=DIRECTION('',(2.430426E-017,-2.575343E-017,-1.0));
#390=DIRECTION('',(0.686348585024614,-0.727272727272727,3.541096E-017));
#391=AXIS2_PLACEMENT_3D('',#388,#389,#390);
#392=CIRCLE('',#391,0.490000000000000);
#393=EDGE_CURVE('',#387,#379,#392,.T.);
#394=ORIENTED_EDGE('',*,*,#393,.F.);
#395=CARTESIAN_POINT('',(-1.162126049409055,0.356363630100665,2.337176026139186));
#396=DIRECTION('',(0.0,0.0,-1.0));
#397=VECTOR('',#396,1.207176026139186);
#398=LINE('',#395,#397);
#399=EDGE_CURVE('',#234,#387,#398,.T.);
#400=ORIENTED_EDGE('',*,*,#399,.F.);
#401=EDGE_LOOP('',(#377,#385,#394,#400));
#402=FACE_OUTER_BOUND('',#401,.T.);
#403=ADVANCED_FACE('',(#402),#376,.T.);
#404=CARTESIAN_POINT('',(-0.969948452238570,0.560000000000001,2.400000000000000));
#405=DIRECTION('',(-1.836910E-016,-2.220446E-016,-1.0));
#406=DIRECTION('',(-0.686348561323158,-0.727272749640485,2.875630E-016));
#407=AXIS2_PLACEMENT_3D('',#404,#405,#406);
#408=CYLINDRICAL_SURFACE('',#407,0.280000000000000);
#409=ORIENTED_EDGE('',*,*,#269,.F.);
#410=ORIENTED_EDGE('',*,*,#399,.T.);
#411=CARTESIAN_POINT('',(-0.889682979391802,0.828248865549670,1.130000000000000));
#412=VERTEX_POINT('',#411);
#413=CARTESIAN_POINT('',(-0.969948452238571,0.560000000000001,1.130000000000000));
#414=DIRECTION('',(1.973685E-016,2.091367E-016,1.000000000000000));
#415=DIRECTION('',(-0.686348561323158,-0.727272749640485,2.875630E-016));
#416=AXIS2_PLACEMENT_3D('',#413,#414,#415);
#417=CIRCLE('',#416,0.280000000000000);
#418=EDGE_CURVE('',#412,#387,#417,.T.);
#419=ORIENTED_EDGE('',*,*,#418,.F.);
#420=CARTESIAN_POINT('',(-0.889682979391801,0.828248865549670,2.337176025646528));
#421=DIRECTION('',(0.0,0.0,-1.0));
#422=VECTOR('',#421,1.207176025646528);
#423=LINE('',#420,#422);
#424=EDGE_CURVE('',#253,#412,#423,.T.);
#425=ORIENTED_EDGE('',*,*,#424,.F.);
#426=EDGE_LOOP('',(#409,#410,#419,#425));
#427=FACE_OUTER_BOUND('',#426,.T.);
#428=ADVANCED_FACE('',(#427),#408,.F.);
#429=CARTESIAN_POINT('',(-0.749218431353761,1.297684389071771,2.400000000000000));
#430=DIRECTION('',(-1.836910E-016,-2.220446E-016,-1.0));
#431=DIRECTION('',(-0.286662342934777,-0.958031680657349,2.653830E-016));
#432=AXIS2_PLACEMENT_3D('',#429,#430,#431);
#433=CYLINDRICAL_SURFACE('',#432,0.490000000000000);
#434=ORIENTED_EDGE('',*,*,#288,.F.);
#435=ORIENTED_EDGE('',*,*,#424,.T.);
#436=CARTESIAN_POINT('',(-0.272443065946822,1.184612505117008,1.130000000000000));
#437=VERTEX_POINT('',#436);
#438=CARTESIAN_POINT('',(-0.749218431353761,1.297684389071771,1.130000000000000));
#439=DIRECTION('',(-7.607533E-017,-2.542454E-016,-1.0));
#440=DIRECTION('',(-0.286662342934777,-0.958031680657349,2.653830E-016));
#441=AXIS2_PLACEMENT_3D('',#438,#439,#440);
#442=CIRCLE('',#441,0.490000000000000);
#443=EDGE_CURVE('',#437,#412,#442,.T.);
#444=ORIENTED_EDGE('',*,*,#443,.F.);
#445=CARTESIAN_POINT('',(-0.272443065946822,1.184612505117008,2.337176028331261));
#446=DIRECTION('',(0.0,0.0,-1.0));
#447=VECTOR('',#446,1.207176028331261);
#448=LINE('',#445,#447);
#449=EDGE_CURVE('',#272,#437,#448,.T.);
#450=ORIENTED_EDGE('',*,*,#449,.F.);
#451=EDGE_LOOP('',(#434,#435,#444,#450));
#452=FACE_OUTER_BOUND('',#451,.T.);
#453=ADVANCED_FACE('',(#452),#433,.T.);
#454=CARTESIAN_POINT('',(1.133637E-015,1.120000000000000,2.400000000000000));
#455=DIRECTION('',(-1.836910E-016,-2.220446E-016,-1.0));
#456=DIRECTION('',(-0.973010949810080,0.230758946846455,1.274945E-016));
#457=AXIS2_PLACEMENT_3D('',#454,#455,#456);
#458=CYLINDRICAL_SURFACE('',#457,0.280000000000000);
#459=ORIENTED_EDGE('',*,*,#299,.F.);
#460=ORIENTED_EDGE('',*,*,#449,.T.);
#461=CARTESIAN_POINT('',(0.272443064227535,1.184612512366504,1.130000000000000));
#462=VERTEX_POINT('',#461);
#463=CARTESIAN_POINT('',(9.003499E-016,1.120000000000000,1.130000000000000));
#464=DIRECTION('',(1.240536E-016,-2.942050E-017,1.0));
#465=DIRECTION('',(-0.973010949810080,0.230758946846455,1.274945E-016));
#466=AXIS2_PLACEMENT_3D('',#463,#464,#465);
#467=CIRCLE('',#466,0.280000000000000);
#468=EDGE_CURVE('',#462,#437,#467,.T.);
#469=ORIENTED_EDGE('',*,*,#468,.F.);
#470=CARTESIAN_POINT('',(0.272443064227535,1.184612512366505,2.337176030121083));
#471=VERTEX_POINT('',#470);
#472=CARTESIAN_POINT('',(0.272443064227535,1.184612512366505,2.337176030121083));
#473=DIRECTION('',(0.0,0.0,-1.0));
#474=VECTOR('',#473,1.207176030121083);
#475=LINE('',#472,#474);
#476=EDGE_CURVE('',#471,#462,#475,.T.);
#477=ORIENTED_EDGE('',*,*,#476,.F.);
#478=CARTESIAN_POINT('',(1.242062E-015,1.400000000000001,2.386602540378444));
#479=CARTESIAN_POINT('',(0.041418837916573,1.400000000000001,2.386602540378444));
#480=CARTESIAN_POINT('',(0.084946816665800,1.390276356044173,2.384535544592902));
#481=CARTESIAN_POINT('',(0.162438981047168,1.352118177256022,2.376217939540057));
#482=CARTESIAN_POINT('',(0.196401510360994,1.323684825720157,2.369946483593210));
#483=CARTESIAN_POINT('',(0.245073014911321,1.260850183534065,2.355555196013461));
#484=CARTESIAN_POINT('',(0.263164662483996,1.223735525998991,2.346835078121320));
#485=CARTESIAN_POINT('',(0.272443064227535,1.184612512366505,2.337176030121083));
#486=B_SPLINE_CURVE_WITH_KNOTS('',3,(#478,#479,#480,#481,#482,#483,#484,#485),.UNSPECIFIED.,.F.,.U.,(4,2,2,4),(0.501992769068898,0.626249282818613,0.750505796568329,0.868567154525278),.UNSPECIFIED.);
#487=EDGE_CURVE('',#158,#471,#486,.T.);
#488=ORIENTED_EDGE('',*,*,#487,.F.);
#489=EDGE_LOOP('',(#459,#460,#469,#477,#488));
#490=FACE_OUTER_BOUND('',#489,.T.);
#491=ADVANCED_FACE('',(#490),#458,.F.);
#492=CARTESIAN_POINT('',(0.749218431353762,1.297684389071771,2.400000000000000));
#493=DIRECTION('',(-1.836910E-016,-2.220446E-016,-1.0));
#494=DIRECTION('',(-0.973010953318831,-0.230758932051566,2.299721E-016));
#495=AXIS2_PLACEMENT_3D('',#492,#493,#494);
#496=CYLINDRICAL_SURFACE('',#495,0.490000000000000);
#497=CARTESIAN_POINT('',(0.889682997236533,0.828248870889174,2.337176030121084));
#498=VERTEX_POINT('',#497);
#499=CARTESIAN_POINT('',(0.272443064227535,1.184612512366505,2.337176030121083));
#500=CARTESIAN_POINT('',(0.280287868088486,1.151534355800774,2.329009391720941));
#501=CARTESIAN_POINT('',(0.291559880558137,1.119701304009329,2.321450676504238));
#502=CARTESIAN_POINT('',(0.324934876671145,1.048119138101301,2.305388890656007));
#503=CARTESIAN_POINT('',(0.352987006435238,1.004921265408148,2.296603572469570));
#504=CARTESIAN_POINT('',(0.421894227911553,0.929488170061806,2.284706477523834));
#505=CARTESIAN_POINT('',(0.462772914282375,0.897260521655266,2.281683513955132));
#506=CARTESIAN_POINT('',(0.545663948425150,0.849403360779528,2.281683513955132));
#507=CARTESIAN_POINT('',(0.594013253834851,0.830115204112332,2.284706477523887));
#508=CARTESIAN_POINT('',(0.693793841429036,0.808156347482812,2.296603572469623));
#509=CARTESIAN_POINT('',(0.745230361452805,0.805461426823426,2.305388890656007));
#510=CARTESIAN_POINT('',(0.823909833643852,0.812348915292392,2.321450676504295));
#511=CARTESIAN_POINT('',(0.857114071409484,0.818503592037510,2.329009391720868));
#512=CARTESIAN_POINT('',(0.889682997236533,0.828248870889174,2.337176030121084));
#513=B_SPLINE_CURVE_WITH_KNOTS('',3,(#499,#500,#501,#502,#503,#504,#505,#506,#507,#508,#509,#510,#511,#512),.UNSPECIFIED.,.F.,.U.,(4,2,2,2,2,2,4),(0.202573685800189,0.300793229177581,0.444364711804795,0.587936194432008,0.731507677059221,0.875079159686435,0.973298703064683),.UNSPECIFIED.);
#514=EDGE_CURVE('',#471,#498,#513,.T.);
#515=ORIENTED_EDGE('',*,*,#514,.F.);
#516=ORIENTED_EDGE('',*,*,#476,.T.);
#517=CARTESIAN_POINT('',(0.889682997236533,0.828248870889173,1.130000000000000));
#518=VERTEX_POINT('',#517);
#519=CARTESIAN_POINT('',(0.749218431353762,1.297684389071771,1.130000000000000));
#520=DIRECTION('',(-2.237654E-016,-5.306811E-017,-1.000000000000000));
#521=DIRECTION('',(-0.973010953318831,-0.230758932051566,2.299721E-016));
#522=AXIS2_PLACEMENT_3D('',#519,#520,#521);
#523=CIRCLE('',#522,0.489999999999999);
#524=EDGE_CURVE('',#518,#462,#523,.T.);
#525=ORIENTED_EDGE('',*,*,#524,.F.);
#526=CARTESIAN_POINT('',(0.889682997236533,0.828248870889174,2.337176030121084));
#527=DIRECTION('',(0.0,0.0,-1.0));
#528=VECTOR('',#527,1.207176030121083);
#529=LINE('',#526,#528);
#530=EDGE_CURVE('',#498,#518,#529,.T.);
#531=ORIENTED_EDGE('',*,*,#530,.F.);
#532=EDGE_LOOP('',(#515,#516,#525,#531));
#533=FACE_OUTER_BOUND('',#532,.T.);
#534=ADVANCED_FACE('',(#533),#496,.T.);
#535=CARTESIAN_POINT('',(0.969948452238572,0.560000000000000,2.400000000000000));
#536=DIRECTION('',(-1.836910E-016,-2.220446E-016,-1.0));
#537=DIRECTION('',(-0.286662339292994,0.958031681747044,-1.600685E-016));
#538=AXIS2_PLACEMENT_3D('',#535,#536,#537);
#539=CYLINDRICAL_SURFACE('',#538,0.280000000000000);
#540=CARTESIAN_POINT('',(1.162126047917558,0.356363628693094,2.337176025646528));
#541=VERTEX_POINT('',#540);
#542=CARTESIAN_POINT('',(0.889682997236533,0.828248870889174,2.337176030121084));
#543=CARTESIAN_POINT('',(0.928203721786641,0.839775046088994,2.346835078121321));
#544=CARTESIAN_POINT('',(0.969391781851113,0.842664548462278,2.355555196013461));
#545=CARTESIAN_POINT('',(1.048143930497137,0.831931110174331,2.369946483593211));
#546=CARTESIAN_POINT('',(1.089749199898824,0.816735372779725,2.376217939540263));
#547=CARTESIAN_POINT('',(1.161541234282199,0.768704279225302,2.384535544593109));
#548=CARTESIAN_POINT('',(1.191726146339929,0.735869765830982,2.386602540378444));
#549=CARTESIAN_POINT('',(1.233144984256501,0.664130234169019,2.386602540378444));
#550=CARTESIAN_POINT('',(1.246488050948019,0.621572076818859,2.384535544593184));
#551=CARTESIAN_POINT('',(1.252188180946007,0.535382804476278,2.376217939540338));
#552=CARTESIAN_POINT('',(1.244545440858130,0.491753715545826,2.369946483593210));
#553=CARTESIAN_POINT('',(1.214464794499383,0.418185629537057,2.355555194930764));
#554=CARTESIAN_POINT('',(1.191368377056820,0.383960469424297,2.346835075417213));
#555=CARTESIAN_POINT('',(1.162126047917558,0.356363628693094,2.337176025646528));
#556=B_SPLINE_CURVE_WITH_KNOTS('',3,(#542,#543,#544,#545,#546,#547,#548,#549,#550,#551,#552,#553,#554,#555),.UNSPECIFIED.,.F.,.U.,(4,2,2,2,2,2,4),(0.135418383612517,0.253479741569466,0.377736255319182,0.501992769068897,0.626249282818613,0.750505796568328,0.868567172755521),.UNSPECIFIED.);
#557=EDGE_CURVE('',#498,#541,#556,.T.);
#558=ORIENTED_EDGE('',*,*,#557,.F.);
#559=ORIENTED_EDGE('',*,*,#530,.T.);
#560=CARTESIAN_POINT('',(1.162126047917558,0.356363628693094,1.130000000000000));
#561=VERTEX_POINT('',#560);
#562=CARTESIAN_POINT('',(0.969948452238572,0.560000000000000,1.130000000000000));
#563=DIRECTION('',(-4.588561E-017,1.533507E-016,1.0));
#564=DIRECTION('',(-0.286662339292994,0.958031681747044,-1.600685E-016));
#565=AXIS2_PLACEMENT_3D('',#562,#563,#564);
#566=CIRCLE('',#565,0.280000000000000);
#567=EDGE_CURVE('',#561,#518,#566,.T.);
#568=ORIENTED_EDGE('',*,*,#567,.F.);
#569=CARTESIAN_POINT('',(1.162126047917558,0.356363628693094,2.337176025646528));
#570=DIRECTION('',(0.0,0.0,-1.0));
#571=VECTOR('',#570,1.207176025646528);
#572=LINE('',#569,#571);
#573=EDGE_CURVE('',#541,#561,#572,.T.);
#574=ORIENTED_EDGE('',*,*,#573,.F.);
#575=EDGE_LOOP('',(#558,#559,#568,#574));
#576=FACE_OUTER_BOUND('',#575,.T.);
#577=ADVANCED_FACE('',(#576),#539,.F.);
#578=CARTESIAN_POINT('',(1.498436862707524,5.332541E-016,2.400000000000000));
#579=DIRECTION('',(-1.836910E-016,-2.220446E-016,-1.0));
#580=DIRECTION('',(-0.686348601612176,0.727272711618558,-3.541095E-017));
#581=AXIS2_PLACEMENT_3D('',#578,#579,#580);
#582=CYLINDRICAL_SURFACE('',#581,0.490000000000000);
#583=CARTESIAN_POINT('',(1.162126056045464,-0.356363636363636,2.337176028331261));
#584=VERTEX_POINT('',#583);
#585=CARTESIAN_POINT('',(1.162126047917558,0.356363628693094,2.337176025646528));
#586=CARTESIAN_POINT('',(1.137401931464934,0.333030754405003,2.329009388955254));
#587=CARTESIAN_POINT('',(1.115469710841042,0.307352383917938,2.321450675312782));
#588=CARTESIAN_POINT('',(1.070165238123949,0.242657711277876,2.305388890656007));
#589=CARTESIAN_POINT('',(1.046780847864265,0.196764917925307,2.296603572469859));
#590=CARTESIAN_POINT('',(1.015907481746403,0.099372965949443,2.284706477524125));
#591=CARTESIAN_POINT('',(1.008436862707524,0.047857160875738,2.281683513955132));
#592=CARTESIAN_POINT('',(1.008436862707524,-0.047857160875737,2.281683513955132));
#593=CARTESIAN_POINT('',(1.015907481746401,-0.099372965949430,2.284706477524230));
#594=CARTESIAN_POINT('',(1.046780847864260,-0.196764917925294,2.296603572469964));
#595=CARTESIAN_POINT('',(1.070165238123949,-0.242657711277875,2.305388890656007));
#596=CARTESIAN_POINT('',(1.115469712857604,-0.307352386797581,2.321450676027713));
#597=CARTESIAN_POINT('',(1.137401936284709,-0.333030760019698,2.329009390614593));
#598=CARTESIAN_POINT('',(1.162126056045464,-0.356363636363636,2.337176028331261));
#599=B_SPLINE_CURVE_WITH_KNOTS('',3,(#585,#586,#587,#588,#589,#590,#591,#592,#593,#594,#595,#596,#597,#598),.UNSPECIFIED.,.F.,.U.,(4,2,2,2,2,2,4),(0.202573703736147,0.300793229177581,0.444364711804795,0.587936194432008,0.731507677059221,0.875079159686435,0.973298695890303),.UNSPECIFIED.);
#600=EDGE_CURVE('',#541,#584,#599,.T.);
#601=ORIENTED_EDGE('',*,*,#600,.F.);
#602=ORIENTED_EDGE('',*,*,#573,.T.);
#603=CARTESIAN_POINT('',(1.162126056045464,-0.356363636363636,1.130000000000000));
#604=VERTEX_POINT('',#603);
#605=CARTESIAN_POINT('',(1.498436862707524,2.512575E-016,1.130000000000000));
#606=DIRECTION('',(2.430426E-017,-2.575342E-017,-1.0));
#607=DIRECTION('',(-0.686348601612176,0.727272711618558,-3.541095E-017));
#608=AXIS2_PLACEMENT_3D('',#605,#606,#607);
#609=CIRCLE('',#608,0.490000000000000);
#610=EDGE_CURVE('',#604,#561,#609,.T.);
#611=ORIENTED_EDGE('',*,*,#610,.F.);
#612=CARTESIAN_POINT('',(1.162126056045464,-0.356363636363636,2.337176028331261));
#613=DIRECTION('',(0.0,0.0,-1.0));
#614=VECTOR('',#613,1.207176028331261);
#615=LINE('',#612,#614);
#616=EDGE_CURVE('',#584,#604,#615,.T.);
#617=ORIENTED_EDGE('',*,*,#616,.F.);
#618=EDGE_LOOP('',(#601,#602,#611,#617));
#619=FACE_OUTER_BOUND('',#618,.T.);
#620=ADVANCED_FACE('',(#619),#582,.T.);
#621=CARTESIAN_POINT('',(-0.969948452238570,-0.560000000000000,2.400000000000000));
#622=DIRECTION('',(-1.836910E-016,-2.220446E-016,-1.0));
#623=DIRECTION('',(0.286662364785467,-0.958031674119183,1.600685E-016));
#624=AXIS2_PLACEMENT_3D('',#621,#622,#623);
#625=CYLINDRICAL_SURFACE('',#624,0.280000000000000);
#626=ORIENTED_EDGE('',*,*,#231,.F.);
#627=CARTESIAN_POINT('',(-0.889682990098640,-0.828248868753371,1.130000000000001));
#628=VERTEX_POINT('',#627);
#629=CARTESIAN_POINT('',(-0.889682990098640,-0.828248868753370,2.337176028331261));
#630=DIRECTION('',(0.0,0.0,-1.0));
#631=VECTOR('',#630,1.207176028331261);
#632=LINE('',#629,#631);
#633=EDGE_CURVE('',#196,#628,#632,.T.);
#634=ORIENTED_EDGE('',*,*,#633,.T.);
#635=CARTESIAN_POINT('',(-0.969948452238570,-0.560000000000000,1.130000000000001));
#636=DIRECTION('',(-4.588561E-017,1.533507E-016,1.000000000000000));
#637=DIRECTION('',(0.286662364785467,-0.958031674119183,1.600685E-016));
#638=AXIS2_PLACEMENT_3D('',#635,#636,#637);
#639=CIRCLE('',#638,0.280000000000000);
#640=EDGE_CURVE('',#379,#628,#639,.T.);
#641=ORIENTED_EDGE('',*,*,#640,.F.);
#642=ORIENTED_EDGE('',*,*,#384,.F.);
#643=EDGE_LOOP('',(#626,#634,#641,#642));
#644=FACE_OUTER_BOUND('',#643,.T.);
#645=ADVANCED_FACE('',(#644),#625,.F.);
#646=CARTESIAN_POINT('',(-0.749218431353761,-1.297684389071770,2.400000000000001));
#647=DIRECTION('',(-1.836910E-016,-2.220446E-016,-1.0));
#648=DIRECTION('',(0.973010952291142,0.230758936384887,-2.299721E-016));
#649=AXIS2_PLACEMENT_3D('',#646,#647,#648);
#650=CYLINDRICAL_SURFACE('',#649,0.490000000000000);
#651=ORIENTED_EDGE('',*,*,#212,.F.);
#652=CARTESIAN_POINT('',(-0.272443064731101,-1.184612510243176,1.130000000000001));
#653=VERTEX_POINT('',#652);
#654=CARTESIAN_POINT('',(-0.272443064731101,-1.184612510243176,2.337176029596857));
#655=DIRECTION('',(0.0,0.0,-1.0));
#656=VECTOR('',#655,1.207176029596857);
#657=LINE('',#654,#656);
#658=EDGE_CURVE('',#183,#653,#657,.T.);
#659=ORIENTED_EDGE('',*,*,#658,.T.);
#660=CARTESIAN_POINT('',(-0.749218431353761,-1.297684389071770,1.130000000000001));
#661=DIRECTION('',(-2.237654E-016,-5.306811E-017,-1.000000000000000));
#662=DIRECTION('',(0.973010952291142,0.230758936384887,-2.299721E-016));
#663=AXIS2_PLACEMENT_3D('',#660,#661,#662);
#664=CIRCLE('',#663,0.490000000000000);
#665=EDGE_CURVE('',#628,#653,#664,.T.);
#666=ORIENTED_EDGE('',*,*,#665,.F.);
#667=ORIENTED_EDGE('',*,*,#633,.F.);
#668=EDGE_LOOP('',(#651,#659,#666,#667));
#669=FACE_OUTER_BOUND('',#668,.T.);
#670=ADVANCED_FACE('',(#669),#650,.T.);
#671=CARTESIAN_POINT('',(1.024836E-015,-1.120000000000000,2.400000000000001));
#672=DIRECTION('',(-1.836910E-016,-2.220446E-016,-1.0));
#673=DIRECTION('',(0.973010949810081,-0.230758946846455,-1.274945E-016));
#674=AXIS2_PLACEMENT_3D('',#671,#672,#673);
#675=CYLINDRICAL_SURFACE('',#674,0.280000000000000);
#676=CARTESIAN_POINT('',(0.272443065946824,-1.184612505117007,2.337176028331262));
#677=VERTEX_POINT('',#676);
#678=CARTESIAN_POINT('',(0.272443065946824,-1.184612505117007,2.337176028331262));
#679=CARTESIAN_POINT('',(0.263164664673587,-1.223735521402910,2.346835077039677));
#680=CARTESIAN_POINT('',(0.245073016375997,-1.260850181643176,2.355555195580384));
#681=CARTESIAN_POINT('',(0.196401510360994,-1.323684825720157,2.369946483593211));
#682=CARTESIAN_POINT('',(0.162438981047246,-1.352118177255967,2.376217939541029));
#683=CARTESIAN_POINT('',(0.084946816665891,-1.390276356044144,2.384535544593880));
#684=CARTESIAN_POINT('',(0.041418837916573,-1.400000000000000,2.386602540378445));
#685=CARTESIAN_POINT('',(1.009609E-015,-1.400000000000000,2.386602540378445));
#686=B_SPLINE_CURVE_WITH_KNOTS('',3,(#678,#679,#680,#681,#682,#683,#684,#685),.UNSPECIFIED.,.F.,.U.,(4,2,2,4),(0.135418376320421,0.253479741569466,0.377736255319182,0.501992769068897),.UNSPECIFIED.);
#687=EDGE_CURVE('',#677,#175,#686,.T.);
#688=ORIENTED_EDGE('',*,*,#687,.F.);
#689=CARTESIAN_POINT('',(0.272443065946823,-1.184612505117007,1.130000000000001));
#690=VERTEX_POINT('',#689);
#691=CARTESIAN_POINT('',(0.272443065946824,-1.184612505117007,2.337176028331262));
#692=DIRECTION('',(0.0,0.0,-1.0));
#693=VECTOR('',#692,1.207176028331261);
#694=LINE('',#691,#693);
#695=EDGE_CURVE('',#677,#690,#694,.T.);
#696=ORIENTED_EDGE('',*,*,#695,.T.);
#697=CARTESIAN_POINT('',(7.915481E-016,-1.120000000000000,1.130000000000001));
#698=DIRECTION('',(1.240536E-016,-2.942050E-017,1.0));
#699=DIRECTION('',(0.973010949810081,-0.230758946846455,-1.274945E-016));
#700=AXIS2_PLACEMENT_3D('',#697,#698,#699);
#701=CIRCLE('',#700,0.280000000000000);
#702=EDGE_CURVE('',#653,#690,#701,.T.);
#703=ORIENTED_EDGE('',*,*,#702,.F.);
#704=ORIENTED_EDGE('',*,*,#658,.F.);
#705=ORIENTED_EDGE('',*,*,#193,.F.);
#706=EDGE_LOOP('',(#688,#696,#703,#704,#705));
#707=FACE_OUTER_BOUND('',#706,.T.);
#708=ADVANCED_FACE('',(#707),#675,.F.);
#709=CARTESIAN_POINT('',(0.749218431353763,-1.297684389071770,2.400000000000001));
#710=DIRECTION('',(-1.836910E-016,-2.220446E-016,-1.0));
#711=DIRECTION('',(0.286662386636157,0.958031667581016,-2.653831E-016));
#712=AXIS2_PLACEMENT_3D('',#709,#710,#711);
#713=CYLINDRICAL_SURFACE('',#712,0.490000000000000);
#714=CARTESIAN_POINT('',(0.889683000805480,-0.828248871957072,2.337176031015995));
#715=VERTEX_POINT('',#714);
#716=CARTESIAN_POINT('',(0.889683000805480,-0.828248871957072,2.337176031015995));
#717=CARTESIAN_POINT('',(0.857114073833993,-0.818503592493191,2.329009392274079));
#718=CARTESIAN_POINT('',(0.823909834810858,-0.812348915394548,2.321450676742530));
#719=CARTESIAN_POINT('',(0.745230361452805,-0.805461426823424,2.305388890656007));
#720=CARTESIAN_POINT('',(0.693793841428969,-0.808156347482817,2.296603572470200));
#721=CARTESIAN_POINT('',(0.594013253834788,-0.830115204112351,2.284706477524469));
#722=CARTESIAN_POINT('',(0.545663948425151,-0.849403360779526,2.281683513955132));
#723=CARTESIAN_POINT('',(0.462772914282375,-0.897260521655264,2.281683513955132));
#724=CARTESIAN_POINT('',(0.421894227911614,-0.929488170061750,2.284706477524521));
#725=CARTESIAN_POINT('',(0.352987006435286,-1.004921265408082,2.296603572470253));
#726=CARTESIAN_POINT('',(0.324934876671145,-1.048119138101300,2.305388890656008));
#727=CARTESIAN_POINT('',(0.291559881548316,-1.119701301885608,2.321450676027713));
#728=CARTESIAN_POINT('',(0.280287869723658,-1.151534351146015,2.329009390614593));
#729=CARTESIAN_POINT('',(0.272443065946824,-1.184612505117007,2.337176028331262));
#730=B_SPLINE_CURVE_WITH_KNOTS('',3,(#716,#717,#718,#719,#720,#721,#722,#723,#724,#725,#726,#727,#728,#729),.UNSPECIFIED.,.F.,.U.,(4,2,2,2,2,2,4),(0.202573682212990,0.300793229177582,0.444364711804795,0.587936194432008,0.731507677059222,0.875079159686435,0.973298695890305),.UNSPECIFIED.);
#731=EDGE_CURVE('',#715,#677,#730,.T.);
#732=ORIENTED_EDGE('',*,*,#731,.F.);
#733=CARTESIAN_POINT('',(0.889683000805480,-0.828248871957072,1.130000000000000));
#734=VERTEX_POINT('',#733);
#735=CARTESIAN_POINT('',(0.889683000805480,-0.828248871957072,2.337176031015995));
#736=DIRECTION('',(0.0,0.0,-1.0));
#737=VECTOR('',#736,1.207176031015994);
#738=LINE('',#735,#737);
#739=EDGE_CURVE('',#715,#734,#738,.T.);
#740=ORIENTED_EDGE('',*,*,#739,.T.);
#741=CARTESIAN_POINT('',(0.749218431353763,-1.297684389071770,1.130000000000000));
#742=DIRECTION('',(-7.607534E-017,-2.542454E-016,-1.000000000000000));
#743=DIRECTION('',(0.286662386636157,0.958031667581016,-2.653831E-016));
#744=AXIS2_PLACEMENT_3D('',#741,#742,#743);
#745=CIRCLE('',#744,0.490000000000000);
#746=EDGE_CURVE('',#690,#734,#745,.T.);
#747=ORIENTED_EDGE('',*,*,#746,.F.);
#748=ORIENTED_EDGE('',*,*,#695,.F.);
#749=EDGE_LOOP('',(#732,#740,#747,#748));
#750=FACE_OUTER_BOUND('',#749,.T.);
#751=ADVANCED_FACE('',(#750),#713,.T.);
#752=CARTESIAN_POINT('',(0.969948452238572,-0.559999999999999,2.400000000000000));
#753=DIRECTION('',(-1.836910E-016,-2.220446E-016,-1.0));
#754=DIRECTION('',(0.686348585024613,0.727272727272727,-2.875630E-016));
#755=AXIS2_PLACEMENT_3D('',#752,#753,#754);
#756=CYLINDRICAL_SURFACE('',#755,0.280000000000000);
#757=CARTESIAN_POINT('',(1.162126056045464,-0.356363636363636,2.337176028331261));
#758=CARTESIAN_POINT('',(1.191368381385110,-0.383960475715717,2.346835077039677));
#759=CARTESIAN_POINT('',(1.214464795857213,-0.418185632857895,2.355555195580382));
#760=CARTESIAN_POINT('',(1.244545440858130,-0.491753715545825,2.369946483593211));
#761=CARTESIAN_POINT('',(1.252188180946003,-0.535382804476237,2.376217939540748));
#762=CARTESIAN_POINT('',(1.246488050948028,-0.621572076818818,2.384535544593597));
#763=CARTESIAN_POINT('',(1.233144984256501,-0.664130234169018,2.386602540378444));
#764=CARTESIAN_POINT('',(1.191726146339929,-0.735869765830981,2.386602540378445));
#765=CARTESIAN_POINT('',(1.161541234282159,-0.768704279225337,2.384535544593673));
#766=CARTESIAN_POINT('',(1.089749199898775,-0.816735372779747,2.376217939540824));
#767=CARTESIAN_POINT('',(1.048143930497138,-0.831931110174330,2.369946483593211));
#768=CARTESIAN_POINT('',(0.969391783036063,-0.842664548300776,2.355555196230001));
#769=CARTESIAN_POINT('',(0.928203724324199,-0.839775046289891,2.346835078662142));
#770=CARTESIAN_POINT('',(0.889683000805480,-0.828248871957072,2.337176031015995));
#771=B_SPLINE_CURVE_WITH_KNOTS('',3,(#757,#758,#759,#760,#761,#762,#763,#764,#765,#766,#767,#768,#769,#770),.UNSPECIFIED.,.F.,.U.,(4,2,2,2,2,2,4),(0.135418376320420,0.253479741569466,0.377736255319181,0.501992769068897,0.626249282818613,0.750505796568328,0.868567150879226),.UNSPECIFIED.);
#772=EDGE_CURVE('',#584,#715,#771,.T.);
#773=ORIENTED_EDGE('',*,*,#772,.F.);
#774=ORIENTED_EDGE('',*,*,#616,.T.);
#775=CARTESIAN_POINT('',(0.969948452238572,-0.560000000000000,1.130000000000000));
#776=DIRECTION('',(1.973685E-016,2.091367E-016,1.000000000000000));
#777=DIRECTION('',(0.686348585024613,0.727272727272727,-2.875630E-016));
#778=AXIS2_PLACEMENT_3D('',#775,#776,#777);
#779=CIRCLE('',#778,0.280000000000000);
#780=EDGE_CURVE('',#734,#604,#779,.T.);
#781=ORIENTED_EDGE('',*,*,#780,.F.);
#782=ORIENTED_EDGE('',*,*,#739,.F.);
#783=EDGE_LOOP('',(#773,#774,#781,#782));
#784=FACE_OUTER_BOUND('',#783,.T.);
#785=ADVANCED_FACE('',(#784),#756,.F.);
#786=CARTESIAN_POINT('',(6.516600E-016,2.509104E-016,1.130000000000000));
#787=DIRECTION('',(0.0,0.0,-1.0));
#788=DIRECTION('',(-1.0,0.0,0.0));
#789=AXIS2_PLACEMENT_3D('',#786,#787,#788);
#790=PLANE('',#789);
#791=ORIENTED_EDGE('',*,*,#610,.T.);
#792=ORIENTED_EDGE('',*,*,#567,.T.);
#793=ORIENTED_EDGE('',*,*,#524,.T.);
#794=ORIENTED_EDGE('',*,*,#468,.T.);
#795=ORIENTED_EDGE('',*,*,#443,.T.);
#796=ORIENTED_EDGE('',*,*,#418,.T.);
#797=ORIENTED_EDGE('',*,*,#393,.T.);
#798=ORIENTED_EDGE('',*,*,#640,.T.);
#799=ORIENTED_EDGE('',*,*,#665,.T.);
#800=ORIENTED_EDGE('',*,*,#702,.T.);
#801=ORIENTED_EDGE('',*,*,#746,.T.);
#802=ORIENTED_EDGE('',*,*,#780,.T.);
#803=EDGE_LOOP('',(#791,#792,#793,#794,#795,#796,#797,#798,#799,#800,#801,#802));
#804=FACE_OUTER_BOUND('',#803,.T.);
#805=ADVANCED_FACE('',(#804),#790,.F.);
#806=CARTESIAN_POINT('',(6.002915E-016,1.888165E-016,0.850353712026630));
#807=DIRECTION('',(-1.836910E-016,-2.220446E-016,-1.0));
#808=DIRECTION('',(-2.287667E-017,1.0,-3.587604E-013));
#809=AXIS2_PLACEMENT_3D('',#806,#807,#808);
#810=CONICAL_SURFACE('',#809,2.740537475893651,3.999999999999994);
#811=ORIENTED_EDGE('',*,*,#317,.T.);
#812=ORIENTED_EDGE('',*,*,#356,.T.);
#813=ORIENTED_EDGE('',*,*,#334,.F.);
#814=CARTESIAN_POINT('',(7.564938E-016,3.776329E-016,1.700707424053260));
#815=DIRECTION('',(-8.207242E-030,3.587604E-013,1.0));
#816=DIRECTION('',(-2.287667E-017,1.0,-3.587604E-013));
#817=AXIS2_PLACEMENT_3D('',#814,#815,#816);
#818=CIRCLE('',#817,2.681074951787303);
#819=EDGE_CURVE('',#310,#320,#818,.T.);
#820=ORIENTED_EDGE('',*,*,#819,.F.);
#821=EDGE_LOOP('',(#811,#812,#813,#820));
#822=FACE_OUTER_BOUND('',#821,.T.);
#823=ADVANCED_FACE('',(#822),#810,.T.);
#824=CARTESIAN_POINT('',(1.527668E-016,-3.521489E-016,-1.585937499999992));
#825=DIRECTION('',(1.0,0.0,0.0));
#826=DIRECTION('',(0.0,0.0,-1.0));
#827=AXIS2_PLACEMENT_3D('',#824,#825,#826);
#828=SPHERICAL_SURFACE('',#827,4.241485324023442);
#829=ORIENTED_EDGE('',*,*,#172,.F.);
#830=CARTESIAN_POINT('',(8.849475E-016,5.329071E-016,2.400000000000000));
#831=DIRECTION('',(-8.207242E-030,3.587604E-013,1.0));
#832=DIRECTION('',(-2.287667E-017,1.0,-3.587604E-013));
#833=AXIS2_PLACEMENT_3D('',#830,#831,#832);
#834=CIRCLE('',#833,1.450000000000001);
#835=EDGE_CURVE('',#166,#156,#834,.T.);
#836=ORIENTED_EDGE('',*,*,#835,.F.);
#837=EDGE_LOOP('',(#829,#836));
#838=FACE_OUTER_BOUND('',#837,.T.);
#839=ORIENTED_EDGE('',*,*,#819,.T.);
#840=ORIENTED_EDGE('',*,*,#326,.T.);
#841=EDGE_LOOP('',(#839,#840));
#842=FACE_BOUND('',#841,.T.);
#843=ADVANCED_FACE('',(#838,#842),#828,.T.);
#844=CARTESIAN_POINT('',(8.740453E-016,5.197285E-016,2.340649253876508));
#845=DIRECTION('',(1.836910E-016,2.220446E-016,1.0));
#846=DIRECTION('',(-2.287667E-017,1.0,-3.587604E-013));
#847=AXIS2_PLACEMENT_3D('',#844,#845,#846);
#848=CONICAL_SURFACE('',#847,1.228500000000000,75.000000000000398);
#849=ORIENTED_EDGE('',*,*,#163,.T.);
#850=ORIENTED_EDGE('',*,*,#487,.T.);
#851=ORIENTED_EDGE('',*,*,#514,.T.);
#852=ORIENTED_EDGE('',*,*,#557,.T.);
#853=ORIENTED_EDGE('',*,*,#600,.T.);
#854=ORIENTED_EDGE('',*,*,#772,.T.);
#855=ORIENTED_EDGE('',*,*,#731,.T.);
#856=ORIENTED_EDGE('',*,*,#687,.T.);
#857=ORIENTED_EDGE('',*,*,#180,.F.);
#858=ORIENTED_EDGE('',*,*,#835,.T.);
#859=EDGE_LOOP('',(#849,#850,#851,#852,#853,#854,#855,#856,#857,#858));
#860=FACE_OUTER_BOUND('',#859,.T.);
#861=ADVANCED_FACE('',(#860),#848,.F.);
#862=CARTESIAN_POINT('',(-7.883301E-017,-6.321055E-016,-1.846749999999995));
#863=DIRECTION('',(1.836910E-016,2.220446E-016,1.0));
#864=DIRECTION('',(-2.287667E-017,1.0,-3.587604E-013));
#865=AXIS2_PLACEMENT_3D('',#862,#863,#864);
#866=CYLINDRICAL_SURFACE('',#865,1.500000000000000);
#867=ORIENTED_EDGE('',*,*,#129,.T.);
#868=CARTESIAN_POINT('',(-6.017552E-016,-1.264211E-015,-4.693500000000000));
#869=DIRECTION('',(-8.207242E-030,3.587604E-013,1.0));
#870=DIRECTION('',(-2.287667E-017,1.0,-3.587604E-013));
#871=AXIS2_PLACEMENT_3D('',#868,#869,#870);
#872=CIRCLE('',#871,1.500000000000000);
#873=EDGE_CURVE('',#82,#92,#872,.T.);
#874=ORIENTED_EDGE('',*,*,#873,.T.);
#875=ORIENTED_EDGE('',*,*,#144,.F.);
#876=ORIENTED_EDGE('',*,*,#367,.F.);
#877=EDGE_LOOP('',(#867,#874,#875,#876));
#878=FACE_OUTER_BOUND('',#877,.T.);
#879=ADVANCED_FACE('',(#878),#866,.T.);
#880=CARTESIAN_POINT('',(-6.299059E-016,-1.298239E-015,-4.846750000000000));
#881=DIRECTION('',(1.836910E-016,2.220446E-016,1.0));
#882=DIRECTION('',(-2.287667E-017,1.0,-3.587604E-013));
#883=AXIS2_PLACEMENT_3D('',#880,#881,#882);
#884=CONICAL_SURFACE('',#883,1.346750000000000,45.000000000000043);
#885=ORIENTED_EDGE('',*,*,#89,.T.);
#886=CARTESIAN_POINT('',(-6.580565E-016,-1.332268E-015,-5.0));
#887=DIRECTION('',(-8.207242E-030,3.587604E-013,1.0));
#888=DIRECTION('',(-2.287667E-017,1.0,-3.587604E-013));
#889=AXIS2_PLACEMENT_3D('',#886,#887,#888);
#890=CIRCLE('',#889,1.193500000000000);
#891=EDGE_CURVE('',#84,#101,#890,.T.);
#892=ORIENTED_EDGE('',*,*,#891,.T.);
#893=ORIENTED_EDGE('',*,*,#106,.F.);
#894=ORIENTED_EDGE('',*,*,#873,.F.);
#895=EDGE_LOOP('',(#885,#892,#893,#894));
#896=FACE_OUTER_BOUND('',#895,.T.);
#897=ADVANCED_FACE('',(#896),#884,.T.);
#898=CARTESIAN_POINT('',(-6.717082E-016,0.596749999999999,-5.0));
#899=DIRECTION('',(0.0,0.0,-1.0));
#900=DIRECTION('',(0.0,-1.0,0.0));
#901=AXIS2_PLACEMENT_3D('',#898,#899,#900);
#902=PLANE('',#901);
#903=ORIENTED_EDGE('',*,*,#891,.F.);
#904=ORIENTED_EDGE('',*,*,#113,.F.);
#905=EDGE_LOOP('',(#903,#904));
#906=FACE_OUTER_BOUND('',#905,.T.);
#907=ADVANCED_FACE('',(#906),#902,.T.);
#908=CLOSED_SHELL('',(#117,#149,#303,#345,#371,#403,#428,#453,#491,#534,#577,#620,#645,#670,#708,#751,#785,#805,#823,#843,#861,#879,#897,#907));
#909=MANIFOLD_SOLID_BREP('365A',#908);
#910=COLOUR_RGB('9',0.750000000000000,0.750000000000000,0.750000000000000);
#911=SURFACE_STYLE_USAGE(.BOTH.,#912);
#912=SURFACE_SIDE_STYLE('NONE',(#913));
#913=SURFACE_STYLE_FILL_AREA(#914);
#914=FILL_AREA_STYLE('NONE',(#915));
#915=FILL_AREA_STYLE_COLOUR('NONE',#910);
#916=PRESENTATION_STYLE_ASSIGNMENT((#911));
#917=STYLED_ITEM('NONE',(#916),#909);
#918=MECHANICAL_DESIGN_GEOMETRIC_PRESENTATION_REPRESENTATION('NONE',(#917),#28);
#919=PRESENTATION_LAYER_ASSIGNMENT('AM_2-3D','None',(#909));
#920=ADVANCED_BREP_SHAPE_REPRESENTATION('ABSR1',(#909),#69);
#921=SHAPE_REPRESENTATION_RELATIONSHIP('SRRPL1','',#920,#73);
#922=CARTESIAN_POINT('NONE',(0.0,0.0,0.0));
#923=DIRECTION('NONE',(0.0,0.0,1.0));
#924=DIRECTION('NONE',(1.0,0.0,0.0));
#925=AXIS2_PLACEMENT_3D('NONE',#922,#923,#924);
#926=ITEM_DEFINED_TRANSFORMATION('IDT1','',#61,#925);
#930=(REPRESENTATION_RELATIONSHIP(' ',$,#73,#62)REPRESENTATION_RELATIONSHIP_WITH_TRANSFORMATION(#926)SHAPE_REPRESENTATION_RELATIONSHIP());
#931=NEXT_ASSEMBLY_USAGE_OCCURRENCE('NAUO1',' ',$,#52,#72,$);
#932=PRODUCT_DEFINITION_SHAPE('PDS_NAUO1',' ',#931);
#933=CONTEXT_DEPENDENT_SHAPE_REPRESENTATION(#930,#932);
ENDSEC;
END-ISO-10303-21;
