ISO-10303-21;
HEADER;
/****************************************************************
 * Generated by software with PDE/Lib inside                    *
 * PDElib Version v51a, created Mon 11/03/2008                  *
 * International Technegroup Inc. (www.iti-oh.com)              *
 ****************************************************************/
FILE_DESCRIPTION((''),'2;1');
FILE_NAME('SFH756.stp','2010-10-07T12:46:22',(''),(''),'Mechanical Desktop 2010','Mechanical Desktop 2010',', , ');
FILE_SCHEMA(('AUTOMOTIVE_DESIGN { 1 2 10303 214 1 1 1 1 }'));
ENDSEC;
DATA;
#8=(NAMED_UNIT(*)PLANE_ANGLE_UNIT()SI_UNIT($,.RADIAN.));
#9=DIMENSIONAL_EXPONENTS(0.0,0.0,0.0,0.0,0.0,0.0,0.0);
#10=PLANE_ANGLE_MEASURE_WITH_UNIT(PLANE_ANGLE_MEASURE(0.017453292500000),#8);
#14=(CONVERSION_BASED_UNIT('DEGREE',#10)NAMED_UNIT(#9)PLANE_ANGLE_UNIT());
#18=(NAMED_UNIT(*)SI_UNIT($,.STERADIAN.)SOLID_ANGLE_UNIT());
#22=(LENGTH_UNIT()NAMED_UNIT(*)SI_UNIT(.MILLI.,.METRE.));
#23=UNCERTAINTY_MEASURE_WITH_UNIT(LENGTH_MEASURE(0.000001000000000),#22,'DISTANCE_ACCURACY_VALUE','');
#28=(GEOMETRIC_REPRESENTATION_CONTEXT(3)GLOBAL_UNCERTAINTY_ASSIGNED_CONTEXT((#23))GLOBAL_UNIT_ASSIGNED_CONTEXT((#14,#18,#22))REPRESENTATION_CONTEXT('None','None'));
#29=APPLICATION_CONTEXT('automotive design');
#30=APPLICATION_PROTOCOL_DEFINITION('INTERNATIONAL_STANDARD','automotive_design',1998,#29);
#31=PRODUCT_CONTEXT('3D Mechanical Parts',#29,'mechanical');
#32=PRODUCT('Product','Product','',(#31));
#33=PRODUCT_RELATED_PRODUCT_CATEGORY('part',$,(#32));
#34=PRODUCT_CATEGORY('part',$);
#35=PERSON('1','Design','Joe',$,$,$);
#36=ORGANIZATION($,'None','None');
#37=PERSON_AND_ORGANIZATION(#35,#36);
#38=PERSON_AND_ORGANIZATION_ROLE('design_owner');
#39=APPLIED_PERSON_AND_ORGANIZATION_ASSIGNMENT(#37,#38,(#32));
#40=PRODUCT_DEFINITION_FORMATION_WITH_SPECIFIED_SOURCE('None','',#32,.BOUGHT.);
#41=PERSON('2','Creator','Joe',$,$,$);
#42=ORGANIZATION($,'None','None');
#43=PERSON_AND_ORGANIZATION(#41,#42);
#44=PERSON_AND_ORGANIZATION_ROLE('creator');
#45=APPLIED_PERSON_AND_ORGANIZATION_ASSIGNMENT(#43,#44,(#40));
#46=PERSON('3','Supplier','Joe',$,$,$);
#47=ORGANIZATION($,'None','None');
#48=PERSON_AND_ORGANIZATION(#46,#47);
#49=PERSON_AND_ORGANIZATION_ROLE('design_supplier');
#50=APPLIED_PERSON_AND_ORGANIZATION_ASSIGNMENT(#48,#49,(#40));
#51=PRODUCT_DEFINITION_CONTEXT('part definition',#29,'design');
#52=PRODUCT_DEFINITION('None','',#40,#51);
#53=PERSON('4','Creator','Joe',$,$,$);
#54=ORGANIZATION($,'None','None');
#55=PERSON_AND_ORGANIZATION(#53,#54);
#56=PERSON_AND_ORGANIZATION_ROLE('creator');
#57=APPLIED_PERSON_AND_ORGANIZATION_ASSIGNMENT(#55,#56,(#52));
#58=CARTESIAN_POINT('NONE',(0.0,0.0,0.0));
#59=DIRECTION('NONE',(0.0,0.0,1.0));
#60=DIRECTION('NONE',(1.0,0.0,0.0));
#61=AXIS2_PLACEMENT_3D('NONE',#58,#59,#60);
#62=SHAPE_REPRESENTATION('SR1',(#61),#28);
#63=PRODUCT_DEFINITION_SHAPE('PDS1','Test Part',#52);
#64=SHAPE_DEFINITION_REPRESENTATION(#63,#62);
#65=CARTESIAN_POINT('',(-0.249999999999999,-1.519999628695953,0.938046313653659));
#66=DIRECTION('',(0.0,-0.704975886227979,-0.709231273871278));
#67=DIRECTION('',(-1.0,0.0,0.0));
#68=AXIS2_PLACEMENT_3D('',#65,#66,#67);
#69=PLANE('',#68);
#70=CARTESIAN_POINT('',(0.250000000000001,-1.519999628695953,0.938046313653659));
#71=VERTEX_POINT('',#70);
#72=CARTESIAN_POINT('',(0.250000000000001,-1.598815062193960,1.016388854550671));
#73=VERTEX_POINT('',#72);
#74=CARTESIAN_POINT('',(0.250000000000001,-1.519999628695953,0.938046313653659));
#75=DIRECTION('',(0.0,-0.709231273871278,0.704975886227979));
#76=VECTOR('',#75,0.111127972498732);
#77=LINE('',#74,#76);
#78=EDGE_CURVE('',#71,#73,#77,.T.);
#79=ORIENTED_EDGE('',*,*,#78,.T.);
#80=CARTESIAN_POINT('',(-0.249999999999999,-1.598815062193960,1.016388854550671));
#81=VERTEX_POINT('',#80);
#82=CARTESIAN_POINT('',(-0.249999999999999,-1.598815062193960,1.016388854550671));
#83=DIRECTION('',(1.0,0.0,0.0));
#84=VECTOR('',#83,0.500000000000000);
#85=LINE('',#82,#84);
#86=EDGE_CURVE('',#81,#73,#85,.T.);
#87=ORIENTED_EDGE('',*,*,#86,.F.);
#88=CARTESIAN_POINT('',(-0.249999999999999,-1.519999628695953,0.938046313653659));
#89=VERTEX_POINT('',#88);
#90=CARTESIAN_POINT('',(-0.249999999999999,-1.519999628695953,0.938046313653659));
#91=DIRECTION('',(-2.497623E-016,-0.709231273871278,0.704975886227979));
#92=VECTOR('',#91,0.111127972498732);
#93=LINE('',#90,#92);
#94=EDGE_CURVE('',#89,#81,#93,.T.);
#95=ORIENTED_EDGE('',*,*,#94,.F.);
#96=CARTESIAN_POINT('',(-0.249999999999999,-1.519999628695953,0.938046313653659));
#97=DIRECTION('',(1.0,0.0,0.0));
#98=VECTOR('',#97,0.500000000000000);
#99=LINE('',#96,#98);
#100=EDGE_CURVE('',#89,#71,#99,.T.);
#101=ORIENTED_EDGE('',*,*,#100,.T.);
#102=EDGE_LOOP('',(#79,#87,#95,#101));
#103=FACE_OUTER_BOUND('',#102,.T.);
#104=ADVANCED_FACE('',(#103),#69,.T.);
#105=CARTESIAN_POINT('',(-0.249999999999999,-1.598815062193960,1.016388854550671));
#106=DIRECTION('',(0.0,-1.0,0.0));
#107=DIRECTION('',(0.0,0.0,-1.0));
#108=AXIS2_PLACEMENT_3D('',#105,#106,#107);
#109=PLANE('',#108);
#110=CARTESIAN_POINT('',(0.250000000000001,-1.598815062193960,1.997798632467772));
#111=VERTEX_POINT('',#110);
#112=CARTESIAN_POINT('',(0.250000000000001,-1.598815062193960,1.016388854550671));
#113=DIRECTION('',(0.0,0.0,1.0));
#114=VECTOR('',#113,0.981409777917101);
#115=LINE('',#112,#114);
#116=EDGE_CURVE('',#73,#111,#115,.T.);
#117=ORIENTED_EDGE('',*,*,#116,.T.);
#118=CARTESIAN_POINT('',(-0.249999999999999,-1.598815062193960,1.997798632467772));
#119=VERTEX_POINT('',#118);
#120=CARTESIAN_POINT('',(-0.249999999999999,-1.598815062193960,1.997798632467772));
#121=DIRECTION('',(1.0,0.0,0.0));
#122=VECTOR('',#121,0.500000000000000);
#123=LINE('',#120,#122);
#124=EDGE_CURVE('',#119,#111,#123,.T.);
#125=ORIENTED_EDGE('',*,*,#124,.F.);
#126=CARTESIAN_POINT('',(-0.249999999999999,-1.598815062193960,1.016388854550671));
#127=DIRECTION('',(0.0,0.0,1.0));
#128=VECTOR('',#127,0.981409777917101);
#129=LINE('',#126,#128);
#130=EDGE_CURVE('',#81,#119,#129,.T.);
#131=ORIENTED_EDGE('',*,*,#130,.F.);
#132=ORIENTED_EDGE('',*,*,#86,.T.);
#133=EDGE_LOOP('',(#117,#125,#131,#132));
#134=FACE_OUTER_BOUND('',#133,.T.);
#135=ADVANCED_FACE('',(#134),#109,.T.);
#136=CARTESIAN_POINT('',(-0.249999999999999,-1.598815062193960,1.997798632467772));
#137=DIRECTION('',(0.0,-0.706729460356319,0.707483900781117));
#138=DIRECTION('',(1.0,0.0,0.0));
#139=AXIS2_PLACEMENT_3D('',#136,#137,#138);
#140=PLANE('',#139);
#141=CARTESIAN_POINT('',(0.250000000000001,-1.520000000000007,2.076529648552780));
#142=VERTEX_POINT('',#141);
#143=CARTESIAN_POINT('',(0.250000000000001,-1.598815062193960,1.997798632467772));
#144=DIRECTION('',(0.0,0.707483900781117,0.706729460356319));
#145=VECTOR('',#144,0.111401916152347);
#146=LINE('',#143,#145);
#147=EDGE_CURVE('',#111,#142,#146,.T.);
#148=ORIENTED_EDGE('',*,*,#147,.T.);
#149=CARTESIAN_POINT('',(-0.249999999999999,-1.520000000000007,2.076529648552780));
#150=VERTEX_POINT('',#149);
#151=CARTESIAN_POINT('',(-0.249999999999999,-1.520000000000007,2.076529648552780));
#152=DIRECTION('',(1.0,0.0,0.0));
#153=VECTOR('',#152,0.500000000000000);
#154=LINE('',#151,#153);
#155=EDGE_CURVE('',#150,#142,#154,.T.);
#156=ORIENTED_EDGE('',*,*,#155,.F.);
#157=CARTESIAN_POINT('',(-0.249999999999999,-1.598815062193960,1.997798632467772));
#158=DIRECTION('',(-2.491481E-016,0.707483900781117,0.706729460356319));
#159=VECTOR('',#158,0.111401916152347);
#160=LINE('',#157,#159);
#161=EDGE_CURVE('',#119,#150,#160,.T.);
#162=ORIENTED_EDGE('',*,*,#161,.F.);
#163=ORIENTED_EDGE('',*,*,#124,.T.);
#164=EDGE_LOOP('',(#148,#156,#162,#163));
#165=FACE_OUTER_BOUND('',#164,.T.);
#166=ADVANCED_FACE('',(#165),#140,.T.);
#167=CARTESIAN_POINT('',(-0.249999999999999,-1.520000000000007,2.076529648552780));
#168=DIRECTION('',(0.0,-1.0,0.0));
#169=DIRECTION('',(0.0,0.0,-1.0));
#170=AXIS2_PLACEMENT_3D('',#167,#168,#169);
#171=PLANE('',#170);
#172=CARTESIAN_POINT('',(0.250000000000000,-1.520000000000007,4.549999999999999));
#173=VERTEX_POINT('',#172);
#174=CARTESIAN_POINT('',(0.250000000000001,-1.520000000000007,2.076529648552780));
#175=DIRECTION('',(0.0,0.0,1.0));
#176=VECTOR('',#175,2.473470351447219);
#177=LINE('',#174,#176);
#178=EDGE_CURVE('',#142,#173,#177,.T.);
#179=ORIENTED_EDGE('',*,*,#178,.T.);
#180=CARTESIAN_POINT('',(-0.250000000000000,-1.520000000000007,4.549999999999999));
#181=VERTEX_POINT('',#180);
#182=CARTESIAN_POINT('',(-0.250000000000000,-1.520000000000007,4.549999999999999));
#183=DIRECTION('',(1.0,0.0,0.0));
#184=VECTOR('',#183,0.500000000000000);
#185=LINE('',#182,#184);
#186=EDGE_CURVE('',#181,#173,#185,.T.);
#187=ORIENTED_EDGE('',*,*,#186,.F.);
#188=CARTESIAN_POINT('',(-0.249999999999999,-1.520000000000007,2.076529648552780));
#189=DIRECTION('',(0.0,0.0,1.0));
#190=VECTOR('',#189,2.473470351447219);
#191=LINE('',#188,#190);
#192=EDGE_CURVE('',#150,#181,#191,.T.);
#193=ORIENTED_EDGE('',*,*,#192,.F.);
#194=ORIENTED_EDGE('',*,*,#155,.T.);
#195=EDGE_LOOP('',(#179,#187,#193,#194));
#196=FACE_OUTER_BOUND('',#195,.T.);
#197=ADVANCED_FACE('',(#196),#171,.T.);
#198=CARTESIAN_POINT('',(-0.250000000000000,-1.520000000000007,4.549999999999999));
#199=DIRECTION('',(0.0,0.0,1.0));
#200=DIRECTION('',(1.0,0.0,0.0));
#201=AXIS2_PLACEMENT_3D('',#198,#199,#200);
#202=PLANE('',#201);
#203=CARTESIAN_POINT('',(0.250000000000000,-1.020000000000007,4.549999999999999));
#204=VERTEX_POINT('',#203);
#205=CARTESIAN_POINT('',(0.250000000000000,-1.520000000000007,4.549999999999999));
#206=DIRECTION('',(0.0,1.0,0.0));
#207=VECTOR('',#206,0.500000000000000);
#208=LINE('',#205,#207);
#209=EDGE_CURVE('',#173,#204,#208,.T.);
#210=ORIENTED_EDGE('',*,*,#209,.T.);
#211=CARTESIAN_POINT('',(-0.250000000000000,-1.020000000000007,4.549999999999999));
#212=VERTEX_POINT('',#211);
#213=CARTESIAN_POINT('',(-0.250000000000000,-1.020000000000007,4.549999999999999));
#214=DIRECTION('',(1.0,0.0,0.0));
#215=VECTOR('',#214,0.500000000000000);
#216=LINE('',#213,#215);
#217=EDGE_CURVE('',#212,#204,#216,.T.);
#218=ORIENTED_EDGE('',*,*,#217,.F.);
#219=CARTESIAN_POINT('',(-0.250000000000000,-1.520000000000007,4.549999999999999));
#220=DIRECTION('',(0.0,1.0,0.0));
#221=VECTOR('',#220,0.500000000000000);
#222=LINE('',#219,#221);
#223=EDGE_CURVE('',#181,#212,#222,.T.);
#224=ORIENTED_EDGE('',*,*,#223,.F.);
#225=ORIENTED_EDGE('',*,*,#186,.T.);
#226=EDGE_LOOP('',(#210,#218,#224,#225));
#227=FACE_OUTER_BOUND('',#226,.T.);
#228=ADVANCED_FACE('',(#227),#202,.T.);
#229=CARTESIAN_POINT('',(-0.250000000000000,-1.020000000000007,4.549999999999999));
#230=DIRECTION('',(0.0,1.0,0.0));
#231=DIRECTION('',(0.0,0.0,1.0));
#232=AXIS2_PLACEMENT_3D('',#229,#230,#231);
#233=PLANE('',#232);
#234=CARTESIAN_POINT('',(0.250000000000001,-1.020000000000007,2.076529648552780));
#235=VERTEX_POINT('',#234);
#236=CARTESIAN_POINT('',(0.250000000000000,-1.020000000000007,4.549999999999999));
#237=DIRECTION('',(0.0,0.0,-1.0));
#238=VECTOR('',#237,2.473470351447219);
#239=LINE('',#236,#238);
#240=EDGE_CURVE('',#204,#235,#239,.T.);
#241=ORIENTED_EDGE('',*,*,#240,.T.);
#242=CARTESIAN_POINT('',(-0.249999999999999,-1.020000000000007,2.076529648552780));
#243=VERTEX_POINT('',#242);
#244=CARTESIAN_POINT('',(-0.249999999999999,-1.020000000000007,2.076529648552780));
#245=DIRECTION('',(1.0,0.0,0.0));
#246=VECTOR('',#245,0.500000000000000);
#247=LINE('',#244,#246);
#248=EDGE_CURVE('',#243,#235,#247,.T.);
#249=ORIENTED_EDGE('',*,*,#248,.F.);
#250=CARTESIAN_POINT('',(-0.250000000000000,-1.020000000000007,4.549999999999999));
#251=DIRECTION('',(0.0,0.0,-1.0));
#252=VECTOR('',#251,2.473470351447219);
#253=LINE('',#250,#252);
#254=EDGE_CURVE('',#212,#243,#253,.T.);
#255=ORIENTED_EDGE('',*,*,#254,.F.);
#256=ORIENTED_EDGE('',*,*,#217,.T.);
#257=EDGE_LOOP('',(#241,#249,#255,#256));
#258=FACE_OUTER_BOUND('',#257,.T.);
#259=ADVANCED_FACE('',(#258),#233,.T.);
#260=CARTESIAN_POINT('',(-0.249999999999999,-1.020000000000007,2.076529648552780));
#261=DIRECTION('',(0.0,0.706729460356319,0.707483900781117));
#262=DIRECTION('',(1.0,0.0,0.0));
#263=AXIS2_PLACEMENT_3D('',#260,#261,#262);
#264=PLANE('',#263);
#265=CARTESIAN_POINT('',(0.250000000000001,-0.941184937806053,1.997798632467772));
#266=VERTEX_POINT('',#265);
#267=CARTESIAN_POINT('',(0.250000000000001,-1.020000000000007,2.076529648552780));
#268=DIRECTION('',(0.0,0.707483900781117,-0.706729460356319));
#269=VECTOR('',#268,0.111401916152347);
#270=LINE('',#267,#269);
#271=EDGE_CURVE('',#235,#266,#270,.T.);
#272=ORIENTED_EDGE('',*,*,#271,.T.);
#273=CARTESIAN_POINT('',(-0.249999999999999,-0.941184937806053,1.997798632467772));
#274=VERTEX_POINT('',#273);
#275=CARTESIAN_POINT('',(-0.249999999999999,-0.941184937806053,1.997798632467772));
#276=DIRECTION('',(1.0,0.0,0.0));
#277=VECTOR('',#276,0.500000000000000);
#278=LINE('',#275,#277);
#279=EDGE_CURVE('',#274,#266,#278,.T.);
#280=ORIENTED_EDGE('',*,*,#279,.F.);
#281=CARTESIAN_POINT('',(-0.249999999999999,-1.020000000000007,2.076529648552780));
#282=DIRECTION('',(2.491481E-016,0.707483900781117,-0.706729460356319));
#283=VECTOR('',#282,0.111401916152347);
#284=LINE('',#281,#283);
#285=EDGE_CURVE('',#243,#274,#284,.T.);
#286=ORIENTED_EDGE('',*,*,#285,.F.);
#287=ORIENTED_EDGE('',*,*,#248,.T.);
#288=EDGE_LOOP('',(#272,#280,#286,#287));
#289=FACE_OUTER_BOUND('',#288,.T.);
#290=ADVANCED_FACE('',(#289),#264,.T.);
#291=CARTESIAN_POINT('',(-0.249999999999999,-0.941184937806053,1.997798632467772));
#292=DIRECTION('',(0.0,1.0,0.0));
#293=DIRECTION('',(0.0,0.0,1.0));
#294=AXIS2_PLACEMENT_3D('',#291,#292,#293);
#295=PLANE('',#294);
#296=CARTESIAN_POINT('',(0.250000000000001,-0.941184937806053,1.016388854550671));
#297=VERTEX_POINT('',#296);
#298=CARTESIAN_POINT('',(0.250000000000001,-0.941184937806053,1.997798632467772));
#299=DIRECTION('',(0.0,0.0,-1.0));
#300=VECTOR('',#299,0.981409777917101);
#301=LINE('',#298,#300);
#302=EDGE_CURVE('',#266,#297,#301,.T.);
#303=ORIENTED_EDGE('',*,*,#302,.T.);
#304=CARTESIAN_POINT('',(-0.249999999999999,-0.941184937806053,1.016388854550671));
#305=VERTEX_POINT('',#304);
#306=CARTESIAN_POINT('',(-0.249999999999999,-0.941184937806053,1.016388854550671));
#307=DIRECTION('',(1.0,0.0,0.0));
#308=VECTOR('',#307,0.500000000000000);
#309=LINE('',#306,#308);
#310=EDGE_CURVE('',#305,#297,#309,.T.);
#311=ORIENTED_EDGE('',*,*,#310,.F.);
#312=CARTESIAN_POINT('',(-0.249999999999999,-0.941184937806053,1.997798632467772));
#313=DIRECTION('',(0.0,0.0,-1.0));
#314=VECTOR('',#313,0.981409777917101);
#315=LINE('',#312,#314);
#316=EDGE_CURVE('',#274,#305,#315,.T.);
#317=ORIENTED_EDGE('',*,*,#316,.F.);
#318=ORIENTED_EDGE('',*,*,#279,.T.);
#319=EDGE_LOOP('',(#303,#311,#317,#318));
#320=FACE_OUTER_BOUND('',#319,.T.);
#321=ADVANCED_FACE('',(#320),#295,.T.);
#322=CARTESIAN_POINT('',(-0.249999999999999,-0.941184937806053,1.016388854550671));
#323=DIRECTION('',(0.0,0.704975886227979,-0.709231273871278));
#324=DIRECTION('',(-1.0,0.0,0.0));
#325=AXIS2_PLACEMENT_3D('',#322,#323,#324);
#326=PLANE('',#325);
#327=CARTESIAN_POINT('',(0.250000000000001,-1.020000371304061,0.938046313653659));
#328=VERTEX_POINT('',#327);
#329=CARTESIAN_POINT('',(0.250000000000001,-0.941184937806053,1.016388854550671));
#330=DIRECTION('',(0.0,-0.709231273871278,-0.704975886227979));
#331=VECTOR('',#330,0.111127972498732);
#332=LINE('',#329,#331);
#333=EDGE_CURVE('',#297,#328,#332,.T.);
#334=ORIENTED_EDGE('',*,*,#333,.T.);
#335=CARTESIAN_POINT('',(-0.249999999999999,-1.020000371304061,0.938046313653659));
#336=VERTEX_POINT('',#335);
#337=CARTESIAN_POINT('',(-0.249999999999999,-1.020000371304061,0.938046313653659));
#338=DIRECTION('',(1.0,0.0,0.0));
#339=VECTOR('',#338,0.500000000000000);
#340=LINE('',#337,#339);
#341=EDGE_CURVE('',#336,#328,#340,.T.);
#342=ORIENTED_EDGE('',*,*,#341,.F.);
#343=CARTESIAN_POINT('',(-0.249999999999999,-0.941184937806053,1.016388854550671));
#344=DIRECTION('',(2.497623E-016,-0.709231273871278,-0.704975886227979));
#345=VECTOR('',#344,0.111127972498732);
#346=LINE('',#343,#345);
#347=EDGE_CURVE('',#305,#336,#346,.T.);
#348=ORIENTED_EDGE('',*,*,#347,.F.);
#349=ORIENTED_EDGE('',*,*,#310,.T.);
#350=EDGE_LOOP('',(#334,#342,#348,#349));
#351=FACE_OUTER_BOUND('',#350,.T.);
#352=ADVANCED_FACE('',(#351),#326,.T.);
#353=CARTESIAN_POINT('',(-0.249999999999999,-1.020000371304061,0.938046313653659));
#354=DIRECTION('',(0.0,1.0,0.0));
#355=DIRECTION('',(0.0,0.0,1.0));
#356=AXIS2_PLACEMENT_3D('',#353,#354,#355);
#357=PLANE('',#356);
#358=CARTESIAN_POINT('',(0.250000000000002,-1.020000371304062,-3.200000000000001));
#359=VERTEX_POINT('',#358);
#360=CARTESIAN_POINT('',(0.250000000000001,-1.020000371304061,0.938046313653659));
#361=DIRECTION('',(0.0,0.0,-1.0));
#362=VECTOR('',#361,4.138046313653661);
#363=LINE('',#360,#362);
#364=EDGE_CURVE('',#328,#359,#363,.T.);
#365=ORIENTED_EDGE('',*,*,#364,.T.);
#366=CARTESIAN_POINT('',(-0.249999999999998,-1.020000371304062,-3.200000000000001));
#367=VERTEX_POINT('',#366);
#368=CARTESIAN_POINT('',(-0.249999999999998,-1.020000371304062,-3.200000000000001));
#369=DIRECTION('',(1.0,0.0,0.0));
#370=VECTOR('',#369,0.500000000000000);
#371=LINE('',#368,#370);
#372=EDGE_CURVE('',#367,#359,#371,.T.);
#373=ORIENTED_EDGE('',*,*,#372,.F.);
#374=CARTESIAN_POINT('',(-0.249999999999999,-1.020000371304061,0.938046313653659));
#375=DIRECTION('',(0.0,0.0,-1.0));
#376=VECTOR('',#375,4.138046313653661);
#377=LINE('',#374,#376);
#378=EDGE_CURVE('',#336,#367,#377,.T.);
#379=ORIENTED_EDGE('',*,*,#378,.F.);
#380=ORIENTED_EDGE('',*,*,#341,.T.);
#381=EDGE_LOOP('',(#365,#373,#379,#380));
#382=FACE_OUTER_BOUND('',#381,.T.);
#383=ADVANCED_FACE('',(#382),#357,.T.);
#384=CARTESIAN_POINT('',(-0.249999999999998,-1.020000371304062,-3.200000000000001));
#385=DIRECTION('',(0.0,0.0,-1.0));
#386=DIRECTION('',(-1.0,0.0,0.0));
#387=AXIS2_PLACEMENT_3D('',#384,#385,#386);
#388=PLANE('',#387);
#389=CARTESIAN_POINT('',(0.250000000000002,-1.519999628695951,-3.200000000000001));
#390=VERTEX_POINT('',#389);
#391=CARTESIAN_POINT('',(0.250000000000002,-1.020000371304062,-3.200000000000001));
#392=DIRECTION('',(0.0,-1.0,0.0));
#393=VECTOR('',#392,0.499999257391889);
#394=LINE('',#391,#393);
#395=EDGE_CURVE('',#359,#390,#394,.T.);
#396=ORIENTED_EDGE('',*,*,#395,.T.);
#397=CARTESIAN_POINT('',(-0.249999999999998,-1.519999628695951,-3.200000000000001));
#398=VERTEX_POINT('',#397);
#399=CARTESIAN_POINT('',(-0.249999999999998,-1.519999628695951,-3.200000000000001));
#400=DIRECTION('',(1.0,0.0,0.0));
#401=VECTOR('',#400,0.500000000000000);
#402=LINE('',#399,#401);
#403=EDGE_CURVE('',#398,#390,#402,.T.);
#404=ORIENTED_EDGE('',*,*,#403,.F.);
#405=CARTESIAN_POINT('',(-0.249999999999998,-1.020000371304062,-3.200000000000001));
#406=DIRECTION('',(0.0,-1.0,0.0));
#407=VECTOR('',#406,0.499999257391889);
#408=LINE('',#405,#407);
#409=EDGE_CURVE('',#367,#398,#408,.T.);
#410=ORIENTED_EDGE('',*,*,#409,.F.);
#411=ORIENTED_EDGE('',*,*,#372,.T.);
#412=EDGE_LOOP('',(#396,#404,#410,#411));
#413=FACE_OUTER_BOUND('',#412,.T.);
#414=ADVANCED_FACE('',(#413),#388,.T.);
#415=CARTESIAN_POINT('',(-0.249999999999998,-1.519999628695951,-3.200000000000001));
#416=DIRECTION('',(0.0,-1.0,0.0));
#417=DIRECTION('',(0.0,0.0,-1.0));
#418=AXIS2_PLACEMENT_3D('',#415,#416,#417);
#419=PLANE('',#418);
#420=CARTESIAN_POINT('',(0.250000000000002,-1.519999628695951,-3.200000000000001));
#421=DIRECTION('',(0.0,0.0,1.0));
#422=VECTOR('',#421,4.138046313653661);
#423=LINE('',#420,#422);
#424=EDGE_CURVE('',#390,#71,#423,.T.);
#425=ORIENTED_EDGE('',*,*,#424,.T.);
#426=ORIENTED_EDGE('',*,*,#100,.F.);
#427=CARTESIAN_POINT('',(-0.249999999999998,-1.519999628695951,-3.200000000000001));
#428=DIRECTION('',(0.0,0.0,1.0));
#429=VECTOR('',#428,4.138046313653661);
#430=LINE('',#427,#429);
#431=EDGE_CURVE('',#398,#89,#430,.T.);
#432=ORIENTED_EDGE('',*,*,#431,.F.);
#433=ORIENTED_EDGE('',*,*,#403,.T.);
#434=EDGE_LOOP('',(#425,#426,#432,#433));
#435=FACE_OUTER_BOUND('',#434,.T.);
#436=ADVANCED_FACE('',(#435),#419,.T.);
#437=CARTESIAN_POINT('',(0.250000000000001,-1.270000000000007,0.681543586004773));
#438=DIRECTION('',(1.0,0.0,0.0));
#439=DIRECTION('',(0.0,0.0,-1.0));
#440=AXIS2_PLACEMENT_3D('',#437,#438,#439);
#441=PLANE('',#440);
#442=ORIENTED_EDGE('',*,*,#78,.F.);
#443=ORIENTED_EDGE('',*,*,#424,.F.);
#444=ORIENTED_EDGE('',*,*,#395,.F.);
#445=ORIENTED_EDGE('',*,*,#364,.F.);
#446=ORIENTED_EDGE('',*,*,#333,.F.);
#447=ORIENTED_EDGE('',*,*,#302,.F.);
#448=ORIENTED_EDGE('',*,*,#271,.F.);
#449=ORIENTED_EDGE('',*,*,#240,.F.);
#450=ORIENTED_EDGE('',*,*,#209,.F.);
#451=ORIENTED_EDGE('',*,*,#178,.F.);
#452=ORIENTED_EDGE('',*,*,#147,.F.);
#453=ORIENTED_EDGE('',*,*,#116,.F.);
#454=EDGE_LOOP('',(#442,#443,#444,#445,#446,#447,#448,#449,#450,#451,#452,#453));
#455=FACE_OUTER_BOUND('',#454,.T.);
#456=ADVANCED_FACE('',(#455),#441,.T.);
#457=CARTESIAN_POINT('',(-0.249999999999999,-1.270000000000007,0.681543586004773));
#458=DIRECTION('',(1.0,0.0,0.0));
#459=DIRECTION('',(0.0,0.0,-1.0));
#460=AXIS2_PLACEMENT_3D('',#457,#458,#459);
#461=PLANE('',#460);
#462=ORIENTED_EDGE('',*,*,#431,.T.);
#463=ORIENTED_EDGE('',*,*,#94,.T.);
#464=ORIENTED_EDGE('',*,*,#130,.T.);
#465=ORIENTED_EDGE('',*,*,#161,.T.);
#466=ORIENTED_EDGE('',*,*,#192,.T.);
#467=ORIENTED_EDGE('',*,*,#223,.T.);
#468=ORIENTED_EDGE('',*,*,#254,.T.);
#469=ORIENTED_EDGE('',*,*,#285,.T.);
#470=ORIENTED_EDGE('',*,*,#316,.T.);
#471=ORIENTED_EDGE('',*,*,#347,.T.);
#472=ORIENTED_EDGE('',*,*,#378,.T.);
#473=ORIENTED_EDGE('',*,*,#409,.T.);
#474=EDGE_LOOP('',(#462,#463,#464,#465,#466,#467,#468,#469,#470,#471,#472,#473));
#475=FACE_OUTER_BOUND('',#474,.T.);
#476=ADVANCED_FACE('',(#475),#461,.F.);
#477=CLOSED_SHELL('',(#104,#135,#166,#197,#228,#259,#290,#321,#352,#383,#414,#436,#456,#476));
#478=MANIFOLD_SOLID_BREP('C67',#477);
#479=COLOUR_RGB('254',0.866000000000000,0.866000000000000,0.866000000000000);
#480=SURFACE_STYLE_USAGE(.BOTH.,#481);
#481=SURFACE_SIDE_STYLE('NONE',(#482));
#482=SURFACE_STYLE_FILL_AREA(#483);
#483=FILL_AREA_STYLE('NONE',(#484));
#484=FILL_AREA_STYLE_COLOUR('NONE',#479);
#485=PRESENTATION_STYLE_ASSIGNMENT((#480));
#486=STYLED_ITEM('NONE',(#485),#478);
#487=MECHANICAL_DESIGN_GEOMETRIC_PRESENTATION_REPRESENTATION('NONE',(#486,#641,#1056,#1209,#1355,#1442),#28);
#488=PRESENTATION_LAYER_ASSIGNMENT('3D','None',(#478,#640,#1055,#1208,#1347,#1441));
#489=CARTESIAN_POINT('',(0.832354687189881,-1.276199900000007,5.049999999999999));
#490=DIRECTION('',(0.0,0.0,1.0));
#491=DIRECTION('',(1.0,0.0,0.0));
#492=AXIS2_PLACEMENT_3D('',#489,#490,#491);
#493=PLANE('',#492);
#494=CARTESIAN_POINT('',(0.250000000000000,-1.520000000000006,5.049999999999999));
#495=VERTEX_POINT('',#494);
#496=CARTESIAN_POINT('',(0.250000000000000,-1.020000000000008,5.049999999999999));
#497=VERTEX_POINT('',#496);
#498=CARTESIAN_POINT('',(0.250000000000000,-1.520000000000006,5.049999999999999));
#499=DIRECTION('',(0.0,1.0,0.0));
#500=VECTOR('',#499,0.499999999999998);
#501=LINE('',#498,#500);
#502=EDGE_CURVE('',#495,#497,#501,.T.);
#503=ORIENTED_EDGE('',*,*,#502,.F.);
#504=CARTESIAN_POINT('',(1.914709374379768,-1.520000000000007,5.049999999999999));
#505=VERTEX_POINT('',#504);
#506=CARTESIAN_POINT('',(1.914709374379768,-1.520000000000007,5.049999999999999));
#507=DIRECTION('',(-1.0,0.0,0.0));
#508=VECTOR('',#507,1.664709374379768);
#509=LINE('',#506,#508);
#510=EDGE_CURVE('',#505,#495,#509,.T.);
#511=ORIENTED_EDGE('',*,*,#510,.F.);
#512=CARTESIAN_POINT('',(1.914709374379768,-1.020000000000010,5.049999999999999));
#513=VERTEX_POINT('',#512);
#514=CARTESIAN_POINT('',(1.914709374379768,-1.020000000000010,5.049999999999999));
#515=DIRECTION('',(0.0,-1.0,0.0));
#516=VECTOR('',#515,0.499999999999997);
#517=LINE('',#514,#516);
#518=EDGE_CURVE('',#513,#505,#517,.T.);
#519=ORIENTED_EDGE('',*,*,#518,.F.);
#520=CARTESIAN_POINT('',(0.250000000000000,-1.020000000000008,5.049999999999999));
#521=DIRECTION('',(1.0,0.0,0.0));
#522=VECTOR('',#521,1.664709374379768);
#523=LINE('',#520,#522);
#524=EDGE_CURVE('',#497,#513,#523,.T.);
#525=ORIENTED_EDGE('',*,*,#524,.F.);
#526=EDGE_LOOP('',(#503,#511,#519,#525));
#527=FACE_OUTER_BOUND('',#526,.T.);
#528=ADVANCED_FACE('',(#527),#493,.T.);
#529=CARTESIAN_POINT('',(1.914709374379768,-1.020000000000010,4.549999999999999));
#530=DIRECTION('',(1.0,0.0,0.0));
#531=DIRECTION('',(0.0,0.0,-1.0));
#532=AXIS2_PLACEMENT_3D('',#529,#530,#531);
#533=PLANE('',#532);
#534=ORIENTED_EDGE('',*,*,#518,.T.);
#535=CARTESIAN_POINT('',(1.914709374379768,-1.520000000000007,4.549999999999999));
#536=VERTEX_POINT('',#535);
#537=CARTESIAN_POINT('',(1.914709374379768,-1.520000000000007,4.549999999999999));
#538=DIRECTION('',(0.0,0.0,1.0));
#539=VECTOR('',#538,0.500000000000000);
#540=LINE('',#537,#539);
#541=EDGE_CURVE('',#536,#505,#540,.T.);
#542=ORIENTED_EDGE('',*,*,#541,.F.);
#543=CARTESIAN_POINT('',(1.914709374379768,-1.020000000000010,4.549999999999999));
#544=VERTEX_POINT('',#543);
#545=CARTESIAN_POINT('',(1.914709374379768,-1.520000000000007,4.549999999999999));
#546=DIRECTION('',(0.0,1.0,0.0));
#547=VECTOR('',#546,0.499999999999997);
#548=LINE('',#545,#547);
#549=EDGE_CURVE('',#536,#544,#548,.T.);
#550=ORIENTED_EDGE('',*,*,#549,.T.);
#551=CARTESIAN_POINT('',(1.914709374379768,-1.020000000000010,4.549999999999999));
#552=DIRECTION('',(0.0,0.0,1.0));
#553=VECTOR('',#552,0.500000000000000);
#554=LINE('',#551,#553);
#555=EDGE_CURVE('',#544,#513,#554,.T.);
#556=ORIENTED_EDGE('',*,*,#555,.T.);
#557=EDGE_LOOP('',(#534,#542,#550,#556));
#558=FACE_OUTER_BOUND('',#557,.T.);
#559=ADVANCED_FACE('',(#558),#533,.T.);
#560=CARTESIAN_POINT('',(0.832354687189884,-1.276199900000007,4.549999999999999));
#561=DIRECTION('',(0.0,0.0,1.0));
#562=DIRECTION('',(1.0,0.0,0.0));
#563=AXIS2_PLACEMENT_3D('',#560,#561,#562);
#564=PLANE('',#563);
#565=CARTESIAN_POINT('',(-0.250000000000000,-1.520000000000005,4.549999999999999));
#566=VERTEX_POINT('',#565);
#567=CARTESIAN_POINT('',(-0.250000000000000,-1.520000000000005,4.549999999999999));
#568=DIRECTION('',(1.0,0.0,0.0));
#569=VECTOR('',#568,2.164709374379768);
#570=LINE('',#567,#569);
#571=EDGE_CURVE('',#566,#536,#570,.T.);
#572=ORIENTED_EDGE('',*,*,#571,.F.);
#573=CARTESIAN_POINT('',(-0.250000000000000,-1.020000000000007,4.549999999999999));
#574=VERTEX_POINT('',#573);
#575=CARTESIAN_POINT('',(-0.250000000000000,-1.020000000000007,4.549999999999999));
#576=DIRECTION('',(0.0,-1.0,0.0));
#577=VECTOR('',#576,0.499999999999998);
#578=LINE('',#575,#577);
#579=EDGE_CURVE('',#574,#566,#578,.T.);
#580=ORIENTED_EDGE('',*,*,#579,.F.);
#581=CARTESIAN_POINT('',(1.914709374379768,-1.020000000000010,4.549999999999999));
#582=DIRECTION('',(-1.0,0.0,0.0));
#583=VECTOR('',#582,2.164709374379768);
#584=LINE('',#581,#583);
#585=EDGE_CURVE('',#544,#574,#584,.T.);
#586=ORIENTED_EDGE('',*,*,#585,.F.);
#587=ORIENTED_EDGE('',*,*,#549,.F.);
#588=EDGE_LOOP('',(#572,#580,#586,#587));
#589=FACE_OUTER_BOUND('',#588,.T.);
#590=ADVANCED_FACE('',(#589),#564,.F.);
#591=CARTESIAN_POINT('',(1.914709374379768,-1.520000000000007,4.549999999999999));
#592=DIRECTION('',(0.0,-1.0,0.0));
#593=DIRECTION('',(0.0,0.0,-1.0));
#594=AXIS2_PLACEMENT_3D('',#591,#592,#593);
#595=PLANE('',#594);
#596=CARTESIAN_POINT('',(0.250000000000000,-1.520000000000007,4.549999999999999));
#597=DIRECTION('',(0.0,1.000000000000000,0.0));
#598=DIRECTION('',(-0.707106781186548,0.0,0.707106781186548));
#599=AXIS2_PLACEMENT_3D('',#596,#597,#598);
#600=CIRCLE('',#599,0.500000000000000);
#601=EDGE_CURVE('',#566,#495,#600,.T.);
#602=ORIENTED_EDGE('',*,*,#601,.F.);
#603=ORIENTED_EDGE('',*,*,#571,.T.);
#604=ORIENTED_EDGE('',*,*,#541,.T.);
#605=ORIENTED_EDGE('',*,*,#510,.T.);
#606=EDGE_LOOP('',(#602,#603,#604,#605));
#607=FACE_OUTER_BOUND('',#606,.T.);
#608=ADVANCED_FACE('',(#607),#595,.T.);
#609=CARTESIAN_POINT('',(0.250000000000000,-1.404299850000006,4.549999999999999));
#610=DIRECTION('',(0.0,1.0,6.242333E-028));
#611=DIRECTION('',(-0.707106781186548,0.0,0.707106781186548));
#612=AXIS2_PLACEMENT_3D('',#609,#610,#611);
#613=CYLINDRICAL_SURFACE('',#612,0.500000000000000);
#614=CARTESIAN_POINT('',(0.250000000000000,-1.020000000000007,4.549999999999999));
#615=DIRECTION('',(0.0,-1.000000000000000,0.0));
#616=DIRECTION('',(-0.707106781186548,0.0,0.707106781186548));
#617=AXIS2_PLACEMENT_3D('',#614,#615,#616);
#618=CIRCLE('',#617,0.500000000000000);
#619=EDGE_CURVE('',#497,#574,#618,.T.);
#620=ORIENTED_EDGE('',*,*,#619,.T.);
#621=ORIENTED_EDGE('',*,*,#579,.T.);
#622=ORIENTED_EDGE('',*,*,#601,.T.);
#623=ORIENTED_EDGE('',*,*,#502,.T.);
#624=EDGE_LOOP('',(#620,#621,#622,#623));
#625=FACE_OUTER_BOUND('',#624,.T.);
#626=ADVANCED_FACE('',(#625),#613,.T.);
#627=CARTESIAN_POINT('',(-0.250000000000000,-1.020000000000007,4.549999999999999));
#628=DIRECTION('',(0.0,1.0,0.0));
#629=DIRECTION('',(0.0,0.0,1.0));
#630=AXIS2_PLACEMENT_3D('',#627,#628,#629);
#631=PLANE('',#630);
#632=ORIENTED_EDGE('',*,*,#619,.F.);
#633=ORIENTED_EDGE('',*,*,#524,.T.);
#634=ORIENTED_EDGE('',*,*,#555,.F.);
#635=ORIENTED_EDGE('',*,*,#585,.T.);
#636=EDGE_LOOP('',(#632,#633,#634,#635));
#637=FACE_OUTER_BOUND('',#636,.T.);
#638=ADVANCED_FACE('',(#637),#631,.T.);
#639=CLOSED_SHELL('',(#528,#559,#590,#608,#626,#638));
#640=MANIFOLD_SOLID_BREP('C64',#639);
#641=STYLED_ITEM('NONE',(#485),#640);
#642=CARTESIAN_POINT('',(-0.249999999999999,1.020000371304047,0.938046313653659));
#643=DIRECTION('',(0.0,-0.704975886227979,-0.709231273871278));
#644=DIRECTION('',(-1.0,0.0,0.0));
#645=AXIS2_PLACEMENT_3D('',#642,#643,#644);
#646=PLANE('',#645);
#647=CARTESIAN_POINT('',(0.250000000000001,1.020000371304047,0.938046313653659));
#648=VERTEX_POINT('',#647);
#649=CARTESIAN_POINT('',(0.250000000000001,0.941184937806039,1.016388854550671));
#650=VERTEX_POINT('',#649);
#651=CARTESIAN_POINT('',(0.250000000000001,1.020000371304047,0.938046313653659));
#652=DIRECTION('',(0.0,-0.709231273871278,0.704975886227979));
#653=VECTOR('',#652,0.111127972498732);
#654=LINE('',#651,#653);
#655=EDGE_CURVE('',#648,#650,#654,.T.);
#656=ORIENTED_EDGE('',*,*,#655,.T.);
#657=CARTESIAN_POINT('',(-0.249999999999999,0.941184937806039,1.016388854550671));
#658=VERTEX_POINT('',#657);
#659=CARTESIAN_POINT('',(-0.249999999999999,0.941184937806039,1.016388854550671));
#660=DIRECTION('',(1.0,0.0,0.0));
#661=VECTOR('',#660,0.500000000000000);
#662=LINE('',#659,#661);
#663=EDGE_CURVE('',#658,#650,#662,.T.);
#664=ORIENTED_EDGE('',*,*,#663,.F.);
#665=CARTESIAN_POINT('',(-0.249999999999999,1.020000371304047,0.938046313653659));
#666=VERTEX_POINT('',#665);
#667=CARTESIAN_POINT('',(-0.249999999999999,1.020000371304047,0.938046313653659));
#668=DIRECTION('',(-2.497623E-016,-0.709231273871278,0.704975886227979));
#669=VECTOR('',#668,0.111127972498732);
#670=LINE('',#667,#669);
#671=EDGE_CURVE('',#666,#658,#670,.T.);
#672=ORIENTED_EDGE('',*,*,#671,.F.);
#673=CARTESIAN_POINT('',(-0.249999999999999,1.020000371304047,0.938046313653659));
#674=DIRECTION('',(1.0,0.0,0.0));
#675=VECTOR('',#674,0.500000000000000);
#676=LINE('',#673,#675);
#677=EDGE_CURVE('',#666,#648,#676,.T.);
#678=ORIENTED_EDGE('',*,*,#677,.T.);
#679=EDGE_LOOP('',(#656,#664,#672,#678));
#680=FACE_OUTER_BOUND('',#679,.T.);
#681=ADVANCED_FACE('',(#680),#646,.T.);
#682=CARTESIAN_POINT('',(-0.249999999999999,0.941184937806039,1.016388854550671));
#683=DIRECTION('',(0.0,-1.0,0.0));
#684=DIRECTION('',(0.0,0.0,-1.0));
#685=AXIS2_PLACEMENT_3D('',#682,#683,#684);
#686=PLANE('',#685);
#687=CARTESIAN_POINT('',(0.250000000000001,0.941184937806039,1.997798632467772));
#688=VERTEX_POINT('',#687);
#689=CARTESIAN_POINT('',(0.250000000000001,0.941184937806039,1.016388854550671));
#690=DIRECTION('',(0.0,0.0,1.0));
#691=VECTOR('',#690,0.981409777917101);
#692=LINE('',#689,#691);
#693=EDGE_CURVE('',#650,#688,#692,.T.);
#694=ORIENTED_EDGE('',*,*,#693,.T.);
#695=CARTESIAN_POINT('',(-0.249999999999999,0.941184937806039,1.997798632467772));
#696=VERTEX_POINT('',#695);
#697=CARTESIAN_POINT('',(-0.249999999999999,0.941184937806039,1.997798632467772));
#698=DIRECTION('',(1.0,0.0,0.0));
#699=VECTOR('',#698,0.500000000000000);
#700=LINE('',#697,#699);
#701=EDGE_CURVE('',#696,#688,#700,.T.);
#702=ORIENTED_EDGE('',*,*,#701,.F.);
#703=CARTESIAN_POINT('',(-0.249999999999999,0.941184937806039,1.016388854550671));
#704=DIRECTION('',(0.0,0.0,1.0));
#705=VECTOR('',#704,0.981409777917101);
#706=LINE('',#703,#705);
#707=EDGE_CURVE('',#658,#696,#706,.T.);
#708=ORIENTED_EDGE('',*,*,#707,.F.);
#709=ORIENTED_EDGE('',*,*,#663,.T.);
#710=EDGE_LOOP('',(#694,#702,#708,#709));
#711=FACE_OUTER_BOUND('',#710,.T.);
#712=ADVANCED_FACE('',(#711),#686,.T.);
#713=CARTESIAN_POINT('',(-0.249999999999999,0.941184937806039,1.997798632467772));
#714=DIRECTION('',(0.0,-0.706729460356319,0.707483900781117));
#715=DIRECTION('',(1.0,0.0,0.0));
#716=AXIS2_PLACEMENT_3D('',#713,#714,#715);
#717=PLANE('',#716);
#718=CARTESIAN_POINT('',(0.250000000000001,1.019999999999993,2.076529648552780));
#719=VERTEX_POINT('',#718);
#720=CARTESIAN_POINT('',(0.250000000000001,0.941184937806039,1.997798632467772));
#721=DIRECTION('',(0.0,0.707483900781117,0.706729460356319));
#722=VECTOR('',#721,0.111401916152347);
#723=LINE('',#720,#722);
#724=EDGE_CURVE('',#688,#719,#723,.T.);
#725=ORIENTED_EDGE('',*,*,#724,.T.);
#726=CARTESIAN_POINT('',(-0.249999999999999,1.019999999999993,2.076529648552780));
#727=VERTEX_POINT('',#726);
#728=CARTESIAN_POINT('',(-0.249999999999999,1.019999999999993,2.076529648552780));
#729=DIRECTION('',(1.0,0.0,0.0));
#730=VECTOR('',#729,0.500000000000000);
#731=LINE('',#728,#730);
#732=EDGE_CURVE('',#727,#719,#731,.T.);
#733=ORIENTED_EDGE('',*,*,#732,.F.);
#734=CARTESIAN_POINT('',(-0.249999999999999,0.941184937806039,1.997798632467772));
#735=DIRECTION('',(-2.491481E-016,0.707483900781117,0.706729460356319));
#736=VECTOR('',#735,0.111401916152347);
#737=LINE('',#734,#736);
#738=EDGE_CURVE('',#696,#727,#737,.T.);
#739=ORIENTED_EDGE('',*,*,#738,.F.);
#740=ORIENTED_EDGE('',*,*,#701,.T.);
#741=EDGE_LOOP('',(#725,#733,#739,#740));
#742=FACE_OUTER_BOUND('',#741,.T.);
#743=ADVANCED_FACE('',(#742),#717,.T.);
#744=CARTESIAN_POINT('',(-0.249999999999999,1.019999999999993,2.076529648552780));
#745=DIRECTION('',(0.0,-1.0,0.0));
#746=DIRECTION('',(0.0,0.0,-1.0));
#747=AXIS2_PLACEMENT_3D('',#744,#745,#746);
#748=PLANE('',#747);
#749=CARTESIAN_POINT('',(0.250000000000000,1.019999999999993,4.549999999999999));
#750=VERTEX_POINT('',#749);
#751=CARTESIAN_POINT('',(0.250000000000001,1.019999999999993,2.076529648552780));
#752=DIRECTION('',(0.0,0.0,1.0));
#753=VECTOR('',#752,2.473470351447219);
#754=LINE('',#751,#753);
#755=EDGE_CURVE('',#719,#750,#754,.T.);
#756=ORIENTED_EDGE('',*,*,#755,.T.);
#757=CARTESIAN_POINT('',(-0.250000000000000,1.019999999999993,4.549999999999999));
#758=VERTEX_POINT('',#757);
#759=CARTESIAN_POINT('',(-0.250000000000000,1.019999999999993,4.549999999999999));
#760=DIRECTION('',(1.0,0.0,0.0));
#761=VECTOR('',#760,0.500000000000000);
#762=LINE('',#759,#761);
#763=EDGE_CURVE('',#758,#750,#762,.T.);
#764=ORIENTED_EDGE('',*,*,#763,.F.);
#765=CARTESIAN_POINT('',(-0.249999999999999,1.019999999999993,2.076529648552780));
#766=DIRECTION('',(0.0,0.0,1.0));
#767=VECTOR('',#766,2.473470351447219);
#768=LINE('',#765,#767);
#769=EDGE_CURVE('',#727,#758,#768,.T.);
#770=ORIENTED_EDGE('',*,*,#769,.F.);
#771=ORIENTED_EDGE('',*,*,#732,.T.);
#772=EDGE_LOOP('',(#756,#764,#770,#771));
#773=FACE_OUTER_BOUND('',#772,.T.);
#774=ADVANCED_FACE('',(#773),#748,.T.);
#775=CARTESIAN_POINT('',(-0.250000000000000,1.019999999999993,4.549999999999999));
#776=DIRECTION('',(0.0,0.0,1.0));
#777=DIRECTION('',(1.0,0.0,0.0));
#778=AXIS2_PLACEMENT_3D('',#775,#776,#777);
#779=PLANE('',#778);
#780=CARTESIAN_POINT('',(0.250000000000000,1.519999999999993,4.549999999999999));
#781=VERTEX_POINT('',#780);
#782=CARTESIAN_POINT('',(0.250000000000000,1.019999999999993,4.549999999999999));
#783=DIRECTION('',(0.0,1.0,0.0));
#784=VECTOR('',#783,0.500000000000000);
#785=LINE('',#782,#784);
#786=EDGE_CURVE('',#750,#781,#785,.T.);
#787=ORIENTED_EDGE('',*,*,#786,.T.);
#788=CARTESIAN_POINT('',(-0.250000000000000,1.519999999999993,4.549999999999999));
#789=VERTEX_POINT('',#788);
#790=CARTESIAN_POINT('',(-0.250000000000000,1.519999999999993,4.549999999999999));
#791=DIRECTION('',(1.0,0.0,0.0));
#792=VECTOR('',#791,0.500000000000000);
#793=LINE('',#790,#792);
#794=EDGE_CURVE('',#789,#781,#793,.T.);
#795=ORIENTED_EDGE('',*,*,#794,.F.);
#796=CARTESIAN_POINT('',(-0.250000000000000,1.019999999999993,4.549999999999999));
#797=DIRECTION('',(0.0,1.0,0.0));
#798=VECTOR('',#797,0.500000000000000);
#799=LINE('',#796,#798);
#800=EDGE_CURVE('',#758,#789,#799,.T.);
#801=ORIENTED_EDGE('',*,*,#800,.F.);
#802=ORIENTED_EDGE('',*,*,#763,.T.);
#803=EDGE_LOOP('',(#787,#795,#801,#802));
#804=FACE_OUTER_BOUND('',#803,.T.);
#805=ADVANCED_FACE('',(#804),#779,.T.);
#806=CARTESIAN_POINT('',(-0.250000000000000,1.519999999999993,4.549999999999999));
#807=DIRECTION('',(0.0,1.0,0.0));
#808=DIRECTION('',(0.0,0.0,1.0));
#809=AXIS2_PLACEMENT_3D('',#806,#807,#808);
#810=PLANE('',#809);
#811=CARTESIAN_POINT('',(0.250000000000001,1.519999999999993,2.076529648552780));
#812=VERTEX_POINT('',#811);
#813=CARTESIAN_POINT('',(0.250000000000000,1.519999999999993,4.549999999999999));
#814=DIRECTION('',(0.0,0.0,-1.0));
#815=VECTOR('',#814,2.473470351447219);
#816=LINE('',#813,#815);
#817=EDGE_CURVE('',#781,#812,#816,.T.);
#818=ORIENTED_EDGE('',*,*,#817,.T.);
#819=CARTESIAN_POINT('',(-0.249999999999999,1.519999999999993,2.076529648552780));
#820=VERTEX_POINT('',#819);
#821=CARTESIAN_POINT('',(-0.249999999999999,1.519999999999993,2.076529648552780));
#822=DIRECTION('',(1.0,0.0,0.0));
#823=VECTOR('',#822,0.500000000000000);
#824=LINE('',#821,#823);
#825=EDGE_CURVE('',#820,#812,#824,.T.);
#826=ORIENTED_EDGE('',*,*,#825,.F.);
#827=CARTESIAN_POINT('',(-0.250000000000000,1.519999999999993,4.549999999999999));
#828=DIRECTION('',(0.0,0.0,-1.0));
#829=VECTOR('',#828,2.473470351447219);
#830=LINE('',#827,#829);
#831=EDGE_CURVE('',#789,#820,#830,.T.);
#832=ORIENTED_EDGE('',*,*,#831,.F.);
#833=ORIENTED_EDGE('',*,*,#794,.T.);
#834=EDGE_LOOP('',(#818,#826,#832,#833));
#835=FACE_OUTER_BOUND('',#834,.T.);
#836=ADVANCED_FACE('',(#835),#810,.T.);
#837=CARTESIAN_POINT('',(-0.249999999999999,1.519999999999993,2.076529648552780));
#838=DIRECTION('',(0.0,0.706729460356319,0.707483900781117));
#839=DIRECTION('',(1.0,0.0,0.0));
#840=AXIS2_PLACEMENT_3D('',#837,#838,#839);
#841=PLANE('',#840);
#842=CARTESIAN_POINT('',(0.250000000000001,1.598815062193946,1.997798632467772));
#843=VERTEX_POINT('',#842);
#844=CARTESIAN_POINT('',(0.250000000000001,1.519999999999993,2.076529648552780));
#845=DIRECTION('',(0.0,0.707483900781117,-0.706729460356319));
#846=VECTOR('',#845,0.111401916152347);
#847=LINE('',#844,#846);
#848=EDGE_CURVE('',#812,#843,#847,.T.);
#849=ORIENTED_EDGE('',*,*,#848,.T.);
#850=CARTESIAN_POINT('',(-0.249999999999999,1.598815062193946,1.997798632467772));
#851=VERTEX_POINT('',#850);
#852=CARTESIAN_POINT('',(-0.249999999999999,1.598815062193946,1.997798632467772));
#853=DIRECTION('',(1.0,0.0,0.0));
#854=VECTOR('',#853,0.500000000000000);
#855=LINE('',#852,#854);
#856=EDGE_CURVE('',#851,#843,#855,.T.);
#857=ORIENTED_EDGE('',*,*,#856,.F.);
#858=CARTESIAN_POINT('',(-0.249999999999999,1.519999999999993,2.076529648552780));
#859=DIRECTION('',(2.491481E-016,0.707483900781117,-0.706729460356319));
#860=VECTOR('',#859,0.111401916152347);
#861=LINE('',#858,#860);
#862=EDGE_CURVE('',#820,#851,#861,.T.);
#863=ORIENTED_EDGE('',*,*,#862,.F.);
#864=ORIENTED_EDGE('',*,*,#825,.T.);
#865=EDGE_LOOP('',(#849,#857,#863,#864));
#866=FACE_OUTER_BOUND('',#865,.T.);
#867=ADVANCED_FACE('',(#866),#841,.T.);
#868=CARTESIAN_POINT('',(-0.249999999999999,1.598815062193946,1.997798632467772));
#869=DIRECTION('',(0.0,1.0,0.0));
#870=DIRECTION('',(0.0,0.0,1.0));
#871=AXIS2_PLACEMENT_3D('',#868,#869,#870);
#872=PLANE('',#871);
#873=CARTESIAN_POINT('',(0.250000000000001,1.598815062193946,1.016388854550671));
#874=VERTEX_POINT('',#873);
#875=CARTESIAN_POINT('',(0.250000000000001,1.598815062193946,1.997798632467772));
#876=DIRECTION('',(0.0,0.0,-1.0));
#877=VECTOR('',#876,0.981409777917101);
#878=LINE('',#875,#877);
#879=EDGE_CURVE('',#843,#874,#878,.T.);
#880=ORIENTED_EDGE('',*,*,#879,.T.);
#881=CARTESIAN_POINT('',(-0.249999999999999,1.598815062193946,1.016388854550671));
#882=VERTEX_POINT('',#881);
#883=CARTESIAN_POINT('',(-0.249999999999999,1.598815062193946,1.016388854550671));
#884=DIRECTION('',(1.0,0.0,0.0));
#885=VECTOR('',#884,0.500000000000000);
#886=LINE('',#883,#885);
#887=EDGE_CURVE('',#882,#874,#886,.T.);
#888=ORIENTED_EDGE('',*,*,#887,.F.);
#889=CARTESIAN_POINT('',(-0.249999999999999,1.598815062193946,1.997798632467772));
#890=DIRECTION('',(0.0,0.0,-1.0));
#891=VECTOR('',#890,0.981409777917101);
#892=LINE('',#889,#891);
#893=EDGE_CURVE('',#851,#882,#892,.T.);
#894=ORIENTED_EDGE('',*,*,#893,.F.);
#895=ORIENTED_EDGE('',*,*,#856,.T.);
#896=EDGE_LOOP('',(#880,#888,#894,#895));
#897=FACE_OUTER_BOUND('',#896,.T.);
#898=ADVANCED_FACE('',(#897),#872,.T.);
#899=CARTESIAN_POINT('',(-0.249999999999999,1.598815062193946,1.016388854550671));
#900=DIRECTION('',(0.0,0.704975886227979,-0.709231273871278));
#901=DIRECTION('',(-1.0,0.0,0.0));
#902=AXIS2_PLACEMENT_3D('',#899,#900,#901);
#903=PLANE('',#902);
#904=CARTESIAN_POINT('',(0.250000000000001,1.519999628695938,0.938046313653659));
#905=VERTEX_POINT('',#904);
#906=CARTESIAN_POINT('',(0.250000000000001,1.598815062193946,1.016388854550671));
#907=DIRECTION('',(0.0,-0.709231273871278,-0.704975886227979));
#908=VECTOR('',#907,0.111127972498732);
#909=LINE('',#906,#908);
#910=EDGE_CURVE('',#874,#905,#909,.T.);
#911=ORIENTED_EDGE('',*,*,#910,.T.);
#912=CARTESIAN_POINT('',(-0.249999999999999,1.519999628695938,0.938046313653659));
#913=VERTEX_POINT('',#912);
#914=CARTESIAN_POINT('',(-0.249999999999999,1.519999628695938,0.938046313653659));
#915=DIRECTION('',(1.0,0.0,0.0));
#916=VECTOR('',#915,0.500000000000000);
#917=LINE('',#914,#916);
#918=EDGE_CURVE('',#913,#905,#917,.T.);
#919=ORIENTED_EDGE('',*,*,#918,.F.);
#920=CARTESIAN_POINT('',(-0.249999999999999,1.598815062193946,1.016388854550671));
#921=DIRECTION('',(2.497623E-016,-0.709231273871278,-0.704975886227979));
#922=VECTOR('',#921,0.111127972498732);
#923=LINE('',#920,#922);
#924=EDGE_CURVE('',#882,#913,#923,.T.);
#925=ORIENTED_EDGE('',*,*,#924,.F.);
#926=ORIENTED_EDGE('',*,*,#887,.T.);
#927=EDGE_LOOP('',(#911,#919,#925,#926));
#928=FACE_OUTER_BOUND('',#927,.T.);
#929=ADVANCED_FACE('',(#928),#903,.T.);
#930=CARTESIAN_POINT('',(-0.249999999999999,1.519999628695938,0.938046313653659));
#931=DIRECTION('',(0.0,1.0,0.0));
#932=DIRECTION('',(0.0,0.0,1.0));
#933=AXIS2_PLACEMENT_3D('',#930,#931,#932);
#934=PLANE('',#933);
#935=CARTESIAN_POINT('',(0.250000000000002,1.519999628695937,-3.200000000000001));
#936=VERTEX_POINT('',#935);
#937=CARTESIAN_POINT('',(0.250000000000001,1.519999628695938,0.938046313653659));
#938=DIRECTION('',(0.0,0.0,-1.0));
#939=VECTOR('',#938,4.138046313653661);
#940=LINE('',#937,#939);
#941=EDGE_CURVE('',#905,#936,#940,.T.);
#942=ORIENTED_EDGE('',*,*,#941,.T.);
#943=CARTESIAN_POINT('',(-0.249999999999998,1.519999628695937,-3.200000000000001));
#944=VERTEX_POINT('',#943);
#945=CARTESIAN_POINT('',(-0.249999999999998,1.519999628695937,-3.200000000000001));
#946=DIRECTION('',(1.0,0.0,0.0));
#947=VECTOR('',#946,0.500000000000000);
#948=LINE('',#945,#947);
#949=EDGE_CURVE('',#944,#936,#948,.T.);
#950=ORIENTED_EDGE('',*,*,#949,.F.);
#951=CARTESIAN_POINT('',(-0.249999999999999,1.519999628695938,0.938046313653659));
#952=DIRECTION('',(0.0,0.0,-1.0));
#953=VECTOR('',#952,4.138046313653661);
#954=LINE('',#951,#953);
#955=EDGE_CURVE('',#913,#944,#954,.T.);
#956=ORIENTED_EDGE('',*,*,#955,.F.);
#957=ORIENTED_EDGE('',*,*,#918,.T.);
#958=EDGE_LOOP('',(#942,#950,#956,#957));
#959=FACE_OUTER_BOUND('',#958,.T.);
#960=ADVANCED_FACE('',(#959),#934,.T.);
#961=CARTESIAN_POINT('',(-0.249999999999998,1.519999628695937,-3.200000000000001));
#962=DIRECTION('',(0.0,0.0,-1.0));
#963=DIRECTION('',(-1.0,0.0,0.0));
#964=AXIS2_PLACEMENT_3D('',#961,#962,#963);
#965=PLANE('',#964);
#966=CARTESIAN_POINT('',(0.250000000000002,1.020000371304048,-3.200000000000001));
#967=VERTEX_POINT('',#966);
#968=CARTESIAN_POINT('',(0.250000000000002,1.519999628695937,-3.200000000000001));
#969=DIRECTION('',(0.0,-1.0,0.0));
#970=VECTOR('',#969,0.499999257391889);
#971=LINE('',#968,#970);
#972=EDGE_CURVE('',#936,#967,#971,.T.);
#973=ORIENTED_EDGE('',*,*,#972,.T.);
#974=CARTESIAN_POINT('',(-0.249999999999998,1.020000371304048,-3.200000000000001));
#975=VERTEX_POINT('',#974);
#976=CARTESIAN_POINT('',(-0.249999999999998,1.020000371304048,-3.200000000000001));
#977=DIRECTION('',(1.0,0.0,0.0));
#978=VECTOR('',#977,0.500000000000000);
#979=LINE('',#976,#978);
#980=EDGE_CURVE('',#975,#967,#979,.T.);
#981=ORIENTED_EDGE('',*,*,#980,.F.);
#982=CARTESIAN_POINT('',(-0.249999999999998,1.519999628695937,-3.200000000000001));
#983=DIRECTION('',(0.0,-1.0,0.0));
#984=VECTOR('',#983,0.499999257391889);
#985=LINE('',#982,#984);
#986=EDGE_CURVE('',#944,#975,#985,.T.);
#987=ORIENTED_EDGE('',*,*,#986,.F.);
#988=ORIENTED_EDGE('',*,*,#949,.T.);
#989=EDGE_LOOP('',(#973,#981,#987,#988));
#990=FACE_OUTER_BOUND('',#989,.T.);
#991=ADVANCED_FACE('',(#990),#965,.T.);
#992=CARTESIAN_POINT('',(-0.249999999999998,1.020000371304048,-3.200000000000001));
#993=DIRECTION('',(0.0,-1.0,0.0));
#994=DIRECTION('',(0.0,0.0,-1.0));
#995=AXIS2_PLACEMENT_3D('',#992,#993,#994);
#996=PLANE('',#995);
#997=CARTESIAN_POINT('',(0.250000000000002,1.020000371304048,-3.200000000000001));
#998=DIRECTION('',(0.0,0.0,1.0));
#999=VECTOR('',#998,4.138046313653661);
#1000=LINE('',#997,#999);
#1001=EDGE_CURVE('',#967,#648,#1000,.T.);
#1002=ORIENTED_EDGE('',*,*,#1001,.T.);
#1003=ORIENTED_EDGE('',*,*,#677,.F.);
#1004=CARTESIAN_POINT('',(-0.249999999999998,1.020000371304048,-3.200000000000001));
#1005=DIRECTION('',(0.0,0.0,1.0));
#1006=VECTOR('',#1005,4.138046313653661);
#1007=LINE('',#1004,#1006);
#1008=EDGE_CURVE('',#975,#666,#1007,.T.);
#1009=ORIENTED_EDGE('',*,*,#1008,.F.);
#1010=ORIENTED_EDGE('',*,*,#980,.T.);
#1011=EDGE_LOOP('',(#1002,#1003,#1009,#1010));
#1012=FACE_OUTER_BOUND('',#1011,.T.);
#1013=ADVANCED_FACE('',(#1012),#996,.T.);
#1014=CARTESIAN_POINT('',(0.250000000000001,1.269999999999993,0.681543586004773));
#1015=DIRECTION('',(1.0,0.0,0.0));
#1016=DIRECTION('',(0.0,0.0,-1.0));
#1017=AXIS2_PLACEMENT_3D('',#1014,#1015,#1016);
#1018=PLANE('',#1017);
#1019=ORIENTED_EDGE('',*,*,#655,.F.);
#1020=ORIENTED_EDGE('',*,*,#1001,.F.);
#1021=ORIENTED_EDGE('',*,*,#972,.F.);
#1022=ORIENTED_EDGE('',*,*,#941,.F.);
#1023=ORIENTED_EDGE('',*,*,#910,.F.);
#1024=ORIENTED_EDGE('',*,*,#879,.F.);
#1025=ORIENTED_EDGE('',*,*,#848,.F.);
#1026=ORIENTED_EDGE('',*,*,#817,.F.);
#1027=ORIENTED_EDGE('',*,*,#786,.F.);
#1028=ORIENTED_EDGE('',*,*,#755,.F.);
#1029=ORIENTED_EDGE('',*,*,#724,.F.);
#1030=ORIENTED_EDGE('',*,*,#693,.F.);
#1031=EDGE_LOOP('',(#1019,#1020,#1021,#1022,#1023,#1024,#1025,#1026,#1027,#1028,#1029,#1030));
#1032=FACE_OUTER_BOUND('',#1031,.T.);
#1033=ADVANCED_FACE('',(#1032),#1018,.T.);
#1034=CARTESIAN_POINT('',(-0.249999999999999,1.269999999999993,0.681543586004773));
#1035=DIRECTION('',(1.0,0.0,0.0));
#1036=DIRECTION('',(0.0,0.0,-1.0));
#1037=AXIS2_PLACEMENT_3D('',#1034,#1035,#1036);
#1038=PLANE('',#1037);
#1039=ORIENTED_EDGE('',*,*,#1008,.T.);
#1040=ORIENTED_EDGE('',*,*,#671,.T.);
#1041=ORIENTED_EDGE('',*,*,#707,.T.);
#1042=ORIENTED_EDGE('',*,*,#738,.T.);
#1043=ORIENTED_EDGE('',*,*,#769,.T.);
#1044=ORIENTED_EDGE('',*,*,#800,.T.);
#1045=ORIENTED_EDGE('',*,*,#831,.T.);
#1046=ORIENTED_EDGE('',*,*,#862,.T.);
#1047=ORIENTED_EDGE('',*,*,#893,.T.);
#1048=ORIENTED_EDGE('',*,*,#924,.T.);
#1049=ORIENTED_EDGE('',*,*,#955,.T.);
#1050=ORIENTED_EDGE('',*,*,#986,.T.);
#1051=EDGE_LOOP('',(#1039,#1040,#1041,#1042,#1043,#1044,#1045,#1046,#1047,#1048,#1049,#1050));
#1052=FACE_OUTER_BOUND('',#1051,.T.);
#1053=ADVANCED_FACE('',(#1052),#1038,.F.);
#1054=CLOSED_SHELL('',(#681,#712,#743,#774,#805,#836,#867,#898,#929,#960,#991,#1013,#1033,#1053));
#1055=MANIFOLD_SOLID_BREP('C60',#1054);
#1056=STYLED_ITEM('NONE',(#485),#1055);
#1057=CARTESIAN_POINT('',(0.832354687189881,1.263800099999992,5.049999999999999));
#1058=DIRECTION('',(0.0,0.0,1.0));
#1059=DIRECTION('',(1.0,0.0,0.0));
#1060=AXIS2_PLACEMENT_3D('',#1057,#1058,#1059);
#1061=PLANE('',#1060);
#1062=CARTESIAN_POINT('',(0.250000000000000,1.019999999999994,5.049999999999999));
#1063=VERTEX_POINT('',#1062);
#1064=CARTESIAN_POINT('',(0.250000000000000,1.519999999999992,5.049999999999999));
#1065=VERTEX_POINT('',#1064);
#1066=CARTESIAN_POINT('',(0.250000000000000,1.019999999999994,5.049999999999999));
#1067=DIRECTION('',(0.0,1.0,0.0));
#1068=VECTOR('',#1067,0.499999999999998);
#1069=LINE('',#1066,#1068);
#1070=EDGE_CURVE('',#1063,#1065,#1069,.T.);
#1071=ORIENTED_EDGE('',*,*,#1070,.F.);
#1072=CARTESIAN_POINT('',(1.914709374379768,1.019999999999992,5.049999999999999));
#1073=VERTEX_POINT('',#1072);
#1074=CARTESIAN_POINT('',(1.914709374379768,1.019999999999992,5.049999999999999));
#1075=DIRECTION('',(-1.0,0.0,0.0));
#1076=VECTOR('',#1075,1.664709374379768);
#1077=LINE('',#1074,#1076);
#1078=EDGE_CURVE('',#1073,#1063,#1077,.T.);
#1079=ORIENTED_EDGE('',*,*,#1078,.F.);
#1080=CARTESIAN_POINT('',(1.914709374379768,1.519999999999989,5.049999999999999));
#1081=VERTEX_POINT('',#1080);
#1082=CARTESIAN_POINT('',(1.914709374379768,1.519999999999989,5.049999999999999));
#1083=DIRECTION('',(0.0,-1.0,0.0));
#1084=VECTOR('',#1083,0.499999999999997);
#1085=LINE('',#1082,#1084);
#1086=EDGE_CURVE('',#1081,#1073,#1085,.T.);
#1087=ORIENTED_EDGE('',*,*,#1086,.F.);
#1088=CARTESIAN_POINT('',(0.250000000000000,1.519999999999992,5.049999999999999));
#1089=DIRECTION('',(1.0,0.0,0.0));
#1090=VECTOR('',#1089,1.664709374379768);
#1091=LINE('',#1088,#1090);
#1092=EDGE_CURVE('',#1065,#1081,#1091,.T.);
#1093=ORIENTED_EDGE('',*,*,#1092,.F.);
#1094=EDGE_LOOP('',(#1071,#1079,#1087,#1093));
#1095=FACE_OUTER_BOUND('',#1094,.T.);
#1096=ADVANCED_FACE('',(#1095),#1061,.T.);
#1097=CARTESIAN_POINT('',(1.914709374379768,1.519999999999989,4.549999999999999));
#1098=DIRECTION('',(1.0,0.0,0.0));
#1099=DIRECTION('',(0.0,0.0,-1.0));
#1100=AXIS2_PLACEMENT_3D('',#1097,#1098,#1099);
#1101=PLANE('',#1100);
#1102=ORIENTED_EDGE('',*,*,#1086,.T.);
#1103=CARTESIAN_POINT('',(1.914709374379768,1.019999999999992,4.549999999999999));
#1104=VERTEX_POINT('',#1103);
#1105=CARTESIAN_POINT('',(1.914709374379768,1.019999999999992,4.549999999999999));
#1106=DIRECTION('',(0.0,0.0,1.0));
#1107=VECTOR('',#1106,0.500000000000000);
#1108=LINE('',#1105,#1107);
#1109=EDGE_CURVE('',#1104,#1073,#1108,.T.);
#1110=ORIENTED_EDGE('',*,*,#1109,.F.);
#1111=CARTESIAN_POINT('',(1.914709374379768,1.519999999999989,4.549999999999999));
#1112=VERTEX_POINT('',#1111);
#1113=CARTESIAN_POINT('',(1.914709374379768,1.019999999999992,4.549999999999999));
#1114=DIRECTION('',(0.0,1.0,0.0));
#1115=VECTOR('',#1114,0.499999999999997);
#1116=LINE('',#1113,#1115);
#1117=EDGE_CURVE('',#1104,#1112,#1116,.T.);
#1118=ORIENTED_EDGE('',*,*,#1117,.T.);
#1119=CARTESIAN_POINT('',(1.914709374379768,1.519999999999989,4.549999999999999));
#1120=DIRECTION('',(0.0,0.0,1.0));
#1121=VECTOR('',#1120,0.500000000000000);
#1122=LINE('',#1119,#1121);
#1123=EDGE_CURVE('',#1112,#1081,#1122,.T.);
#1124=ORIENTED_EDGE('',*,*,#1123,.T.);
#1125=EDGE_LOOP('',(#1102,#1110,#1118,#1124));
#1126=FACE_OUTER_BOUND('',#1125,.T.);
#1127=ADVANCED_FACE('',(#1126),#1101,.T.);
#1128=CARTESIAN_POINT('',(0.832354687189884,1.263800099999992,4.549999999999999));
#1129=DIRECTION('',(0.0,0.0,1.0));
#1130=DIRECTION('',(1.0,0.0,0.0));
#1131=AXIS2_PLACEMENT_3D('',#1128,#1129,#1130);
#1132=PLANE('',#1131);
#1133=CARTESIAN_POINT('',(-0.250000000000000,1.019999999999994,4.549999999999999));
#1134=VERTEX_POINT('',#1133);
#1135=CARTESIAN_POINT('',(-0.250000000000000,1.019999999999994,4.549999999999999));
#1136=DIRECTION('',(1.0,0.0,0.0));
#1137=VECTOR('',#1136,2.164709374379768);
#1138=LINE('',#1135,#1137);
#1139=EDGE_CURVE('',#1134,#1104,#1138,.T.);
#1140=ORIENTED_EDGE('',*,*,#1139,.F.);
#1141=CARTESIAN_POINT('',(-0.250000000000000,1.519999999999993,4.549999999999999));
#1142=VERTEX_POINT('',#1141);
#1143=CARTESIAN_POINT('',(-0.250000000000000,1.519999999999993,4.549999999999999));
#1144=DIRECTION('',(0.0,-1.0,0.0));
#1145=VECTOR('',#1144,0.499999999999998);
#1146=LINE('',#1143,#1145);
#1147=EDGE_CURVE('',#1142,#1134,#1146,.T.);
#1148=ORIENTED_EDGE('',*,*,#1147,.F.);
#1149=CARTESIAN_POINT('',(1.914709374379768,1.519999999999989,4.549999999999999));
#1150=DIRECTION('',(-1.0,0.0,0.0));
#1151=VECTOR('',#1150,2.164709374379768);
#1152=LINE('',#1149,#1151);
#1153=EDGE_CURVE('',#1112,#1142,#1152,.T.);
#1154=ORIENTED_EDGE('',*,*,#1153,.F.);
#1155=ORIENTED_EDGE('',*,*,#1117,.F.);
#1156=EDGE_LOOP('',(#1140,#1148,#1154,#1155));
#1157=FACE_OUTER_BOUND('',#1156,.T.);
#1158=ADVANCED_FACE('',(#1157),#1132,.F.);
#1159=CARTESIAN_POINT('',(1.914709374379768,1.019999999999992,4.549999999999999));
#1160=DIRECTION('',(0.0,-1.0,0.0));
#1161=DIRECTION('',(0.0,0.0,-1.0));
#1162=AXIS2_PLACEMENT_3D('',#1159,#1160,#1161);
#1163=PLANE('',#1162);
#1164=CARTESIAN_POINT('',(0.250000000000000,1.019999999999992,4.549999999999999));
#1165=DIRECTION('',(0.0,1.000000000000000,0.0));
#1166=DIRECTION('',(-0.707106781186548,0.0,0.707106781186548));
#1167=AXIS2_PLACEMENT_3D('',#1164,#1165,#1166);
#1168=CIRCLE('',#1167,0.500000000000000);
#1169=EDGE_CURVE('',#1134,#1063,#1168,.T.);
#1170=ORIENTED_EDGE('',*,*,#1169,.F.);
#1171=ORIENTED_EDGE('',*,*,#1139,.T.);
#1172=ORIENTED_EDGE('',*,*,#1109,.T.);
#1173=ORIENTED_EDGE('',*,*,#1078,.T.);
#1174=EDGE_LOOP('',(#1170,#1171,#1172,#1173));
#1175=FACE_OUTER_BOUND('',#1174,.T.);
#1176=ADVANCED_FACE('',(#1175),#1163,.T.);
#1177=CARTESIAN_POINT('',(0.250000000000000,1.135700149999993,4.549999999999999));
#1178=DIRECTION('',(0.0,1.0,6.242333E-028));
#1179=DIRECTION('',(-0.707106781186548,0.0,0.707106781186548));
#1180=AXIS2_PLACEMENT_3D('',#1177,#1178,#1179);
#1181=CYLINDRICAL_SURFACE('',#1180,0.500000000000000);
#1182=CARTESIAN_POINT('',(0.250000000000000,1.519999999999993,4.549999999999999));
#1183=DIRECTION('',(0.0,-1.000000000000000,0.0));
#1184=DIRECTION('',(-0.707106781186548,0.0,0.707106781186548));
#1185=AXIS2_PLACEMENT_3D('',#1182,#1183,#1184);
#1186=CIRCLE('',#1185,0.500000000000000);
#1187=EDGE_CURVE('',#1065,#1142,#1186,.T.);
#1188=ORIENTED_EDGE('',*,*,#1187,.T.);
#1189=ORIENTED_EDGE('',*,*,#1147,.T.);
#1190=ORIENTED_EDGE('',*,*,#1169,.T.);
#1191=ORIENTED_EDGE('',*,*,#1070,.T.);
#1192=EDGE_LOOP('',(#1188,#1189,#1190,#1191));
#1193=FACE_OUTER_BOUND('',#1192,.T.);
#1194=ADVANCED_FACE('',(#1193),#1181,.T.);
#1195=CARTESIAN_POINT('',(-0.250000000000000,1.519999999999993,4.549999999999999));
#1196=DIRECTION('',(0.0,1.0,0.0));
#1197=DIRECTION('',(0.0,0.0,1.0));
#1198=AXIS2_PLACEMENT_3D('',#1195,#1196,#1197);
#1199=PLANE('',#1198);
#1200=ORIENTED_EDGE('',*,*,#1187,.F.);
#1201=ORIENTED_EDGE('',*,*,#1092,.T.);
#1202=ORIENTED_EDGE('',*,*,#1123,.F.);
#1203=ORIENTED_EDGE('',*,*,#1153,.T.);
#1204=EDGE_LOOP('',(#1200,#1201,#1202,#1203));
#1205=FACE_OUTER_BOUND('',#1204,.T.);
#1206=ADVANCED_FACE('',(#1205),#1199,.T.);
#1207=CLOSED_SHELL('',(#1096,#1127,#1158,#1176,#1194,#1206));
#1208=MANIFOLD_SOLID_BREP('C5D',#1207);
#1209=STYLED_ITEM('NONE',(#485),#1208);
#1210=CARTESIAN_POINT('',(2.299709374379768,-9.325873E-015,4.800000000000001));
#1211=DIRECTION('',(1.0,1.764970E-015,2.277381E-016));
#1212=DIRECTION('',(0.0,1.0,0.0));
#1213=AXIS2_PLACEMENT_3D('',#1210,#1211,#1212);
#1214=CYLINDRICAL_SURFACE('',#1213,2.375000000000000);
#1215=CARTESIAN_POINT('',(9.899709374379762,2.375000000000004,4.800000000000003));
#1216=VERTEX_POINT('',#1215);
#1217=CARTESIAN_POINT('',(2.299709374379764,2.374999999999991,4.800000000000001));
#1218=VERTEX_POINT('',#1217);
#1219=CARTESIAN_POINT('',(9.899709374379762,2.375000000000004,4.800000000000003));
#1220=DIRECTION('',(-1.0,0.0,0.0));
#1221=VECTOR('',#1220,7.599999999999998);
#1222=LINE('',#1219,#1221);
#1223=EDGE_CURVE('',#1216,#1218,#1222,.T.);
#1224=ORIENTED_EDGE('',*,*,#1223,.F.);
#1225=CARTESIAN_POINT('',(9.899709374379771,-2.374999999999996,4.800000000000003));
#1226=VERTEX_POINT('',#1225);
#1227=CARTESIAN_POINT('',(9.899709374379766,4.087898E-015,4.800000000000003));
#1228=DIRECTION('',(1.0,0.0,0.0));
#1229=DIRECTION('',(0.0,-1.0,0.0));
#1230=AXIS2_PLACEMENT_3D('',#1227,#1228,#1229);
#1231=CIRCLE('',#1230,2.375000000000000);
#1232=EDGE_CURVE('',#1226,#1216,#1231,.T.);
#1233=ORIENTED_EDGE('',*,*,#1232,.F.);
#1234=CARTESIAN_POINT('',(2.299709374379772,-2.375000000000009,4.800000000000001));
#1235=VERTEX_POINT('',#1234);
#1236=CARTESIAN_POINT('',(9.899709374379770,-2.374999999999996,4.800000000000003));
#1237=DIRECTION('',(-1.0,0.0,0.0));
#1238=VECTOR('',#1237,7.599999999999998);
#1239=LINE('',#1236,#1238);
#1240=EDGE_CURVE('',#1226,#1235,#1239,.T.);
#1241=ORIENTED_EDGE('',*,*,#1240,.T.);
#1242=CARTESIAN_POINT('',(2.299709374379768,-9.325873E-015,4.800000000000001));
#1243=DIRECTION('',(1.0,0.0,0.0));
#1244=DIRECTION('',(0.0,1.0,0.0));
#1245=AXIS2_PLACEMENT_3D('',#1242,#1243,#1244);
#1246=CIRCLE('',#1245,2.375000000000000);
#1247=EDGE_CURVE('',#1235,#1218,#1246,.T.);
#1248=ORIENTED_EDGE('',*,*,#1247,.T.);
#1249=EDGE_LOOP('',(#1224,#1233,#1241,#1248));
#1250=FACE_OUTER_BOUND('',#1249,.T.);
#1251=ADVANCED_FACE('',(#1250),#1214,.T.);
#1252=CARTESIAN_POINT('',(9.999709374379767,4.265534E-015,4.800000000000003));
#1253=DIRECTION('',(-1.0,-1.776357E-015,0.0));
#1254=DIRECTION('',(0.0,-1.0,0.0));
#1255=AXIS2_PLACEMENT_3D('',#1252,#1253,#1254);
#1256=CONICAL_SURFACE('',#1255,2.275000000000000,44.999999999999751);
#1257=CARTESIAN_POINT('',(10.099709374379772,-2.174999999999995,4.800000000000003));
#1258=VERTEX_POINT('',#1257);
#1259=CARTESIAN_POINT('',(9.899709374379771,-2.374999999999995,4.800000000000003));
#1260=DIRECTION('',(0.707106781186550,0.707106781186545,0.0));
#1261=VECTOR('',#1260,0.282842712474620);
#1262=LINE('',#1259,#1261);
#1263=EDGE_CURVE('',#1226,#1258,#1262,.T.);
#1264=ORIENTED_EDGE('',*,*,#1263,.F.);
#1265=ORIENTED_EDGE('',*,*,#1232,.T.);
#1266=CARTESIAN_POINT('',(10.099709374379763,2.175000000000004,4.800000000000003));
#1267=VERTEX_POINT('',#1266);
#1268=CARTESIAN_POINT('',(9.899709374379762,2.375000000000004,4.800000000000003));
#1269=DIRECTION('',(0.707106781186551,-0.707106781186544,0.0));
#1270=VECTOR('',#1269,0.282842712474619);
#1271=LINE('',#1268,#1270);
#1272=EDGE_CURVE('',#1216,#1267,#1271,.T.);
#1273=ORIENTED_EDGE('',*,*,#1272,.T.);
#1274=CARTESIAN_POINT('',(10.099709374379767,4.443169E-015,4.800000000000003));
#1275=DIRECTION('',(-1.0,0.0,0.0));
#1276=DIRECTION('',(0.0,-1.0,0.0));
#1277=AXIS2_PLACEMENT_3D('',#1274,#1275,#1276);
#1278=CIRCLE('',#1277,2.175000000000000);
#1279=EDGE_CURVE('',#1267,#1258,#1278,.T.);
#1280=ORIENTED_EDGE('',*,*,#1279,.T.);
#1281=EDGE_LOOP('',(#1264,#1265,#1273,#1280));
#1282=FACE_OUTER_BOUND('',#1281,.T.);
#1283=ADVANCED_FACE('',(#1282),#1256,.T.);
#1284=CARTESIAN_POINT('',(9.999709374379767,4.265534E-015,4.800000000000003));
#1285=DIRECTION('',(-1.0,-1.776357E-015,0.0));
#1286=DIRECTION('',(0.0,-1.0,0.0));
#1287=AXIS2_PLACEMENT_3D('',#1284,#1285,#1286);
#1288=CONICAL_SURFACE('',#1287,2.275000000000000,44.999999999999751);
#1289=ORIENTED_EDGE('',*,*,#1263,.T.);
#1290=CARTESIAN_POINT('',(10.099709374379767,4.443169E-015,4.800000000000003));
#1291=DIRECTION('',(-1.0,0.0,0.0));
#1292=DIRECTION('',(0.0,-1.0,0.0));
#1293=AXIS2_PLACEMENT_3D('',#1290,#1291,#1292);
#1294=CIRCLE('',#1293,2.175000000000000);
#1295=EDGE_CURVE('',#1258,#1267,#1294,.T.);
#1296=ORIENTED_EDGE('',*,*,#1295,.T.);
#1297=ORIENTED_EDGE('',*,*,#1272,.F.);
#1298=CARTESIAN_POINT('',(9.899709374379766,4.087898E-015,4.800000000000003));
#1299=DIRECTION('',(1.0,0.0,0.0));
#1300=DIRECTION('',(0.0,-1.0,0.0));
#1301=AXIS2_PLACEMENT_3D('',#1298,#1299,#1300);
#1302=CIRCLE('',#1301,2.375000000000000);
#1303=EDGE_CURVE('',#1216,#1226,#1302,.T.);
#1304=ORIENTED_EDGE('',*,*,#1303,.T.);
#1305=EDGE_LOOP('',(#1289,#1296,#1297,#1304));
#1306=FACE_OUTER_BOUND('',#1305,.T.);
#1307=ADVANCED_FACE('',(#1306),#1288,.T.);
#1308=CARTESIAN_POINT('',(2.299709374379768,-9.325873E-015,4.800000000000001));
#1309=DIRECTION('',(1.0,1.764970E-015,2.277381E-016));
#1310=DIRECTION('',(0.0,1.0,0.0));
#1311=AXIS2_PLACEMENT_3D('',#1308,#1309,#1310);
#1312=CYLINDRICAL_SURFACE('',#1311,2.375000000000000);
#1313=ORIENTED_EDGE('',*,*,#1223,.T.);
#1314=CARTESIAN_POINT('',(2.299709374379768,-9.325873E-015,4.800000000000001));
#1315=DIRECTION('',(1.0,0.0,0.0));
#1316=DIRECTION('',(0.0,1.0,0.0));
#1317=AXIS2_PLACEMENT_3D('',#1314,#1315,#1316);
#1318=CIRCLE('',#1317,2.375000000000000);
#1319=EDGE_CURVE('',#1218,#1235,#1318,.T.);
#1320=ORIENTED_EDGE('',*,*,#1319,.T.);
#1321=ORIENTED_EDGE('',*,*,#1240,.F.);
#1322=ORIENTED_EDGE('',*,*,#1303,.F.);
#1323=EDGE_LOOP('',(#1313,#1320,#1321,#1322));
#1324=FACE_OUTER_BOUND('',#1323,.T.);
#1325=ADVANCED_FACE('',(#1324),#1312,.T.);
#1326=CARTESIAN_POINT('',(10.099709374379767,4.440892E-015,4.800000000000003));
#1327=DIRECTION('',(1.0,0.0,0.0));
#1328=DIRECTION('',(0.0,0.0,-1.0));
#1329=AXIS2_PLACEMENT_3D('',#1326,#1327,#1328);
#1330=PLANE('',#1329);
#1331=ORIENTED_EDGE('',*,*,#1279,.F.);
#1332=ORIENTED_EDGE('',*,*,#1295,.F.);
#1333=EDGE_LOOP('',(#1331,#1332));
#1334=FACE_OUTER_BOUND('',#1333,.T.);
#1335=ADVANCED_FACE('',(#1334),#1330,.T.);
#1336=CARTESIAN_POINT('',(2.299709374379768,-9.325873E-015,4.800000000000001));
#1337=DIRECTION('',(1.0,0.0,0.0));
#1338=DIRECTION('',(0.0,0.0,-1.0));
#1339=AXIS2_PLACEMENT_3D('',#1336,#1337,#1338);
#1340=PLANE('',#1339);
#1341=ORIENTED_EDGE('',*,*,#1319,.F.);
#1342=ORIENTED_EDGE('',*,*,#1247,.F.);
#1343=EDGE_LOOP('',(#1341,#1342));
#1344=FACE_OUTER_BOUND('',#1343,.T.);
#1345=ADVANCED_FACE('',(#1344),#1340,.F.);
#1346=CLOSED_SHELL('',(#1251,#1283,#1307,#1325,#1335,#1345));
#1347=MANIFOLD_SOLID_BREP('9A9',#1346);
#1348=COLOUR_RGB('255',1.0,1.0,1.0);
#1349=SURFACE_STYLE_USAGE(.BOTH.,#1350);
#1350=SURFACE_SIDE_STYLE('NONE',(#1351));
#1351=SURFACE_STYLE_FILL_AREA(#1352);
#1352=FILL_AREA_STYLE('NONE',(#1353));
#1353=FILL_AREA_STYLE_COLOUR('NONE',#1348);
#1354=PRESENTATION_STYLE_ASSIGNMENT((#1349));
#1355=STYLED_ITEM('NONE',(#1354),#1347);
#1356=CARTESIAN_POINT('',(1.099709374379768,-9.325873E-015,4.800000000000001));
#1357=DIRECTION('',(1.0,0.0,3.700743E-016));
#1358=DIRECTION('',(0.0,1.0,0.0));
#1359=AXIS2_PLACEMENT_3D('',#1356,#1357,#1358);
#1360=CYLINDRICAL_SURFACE('',#1359,2.749999999999999);
#1361=CARTESIAN_POINT('',(2.299709374379767,-2.250000000000008,6.381138830084191));
#1362=VERTEX_POINT('',#1361);
#1363=CARTESIAN_POINT('',(2.299709374379769,-2.250000000000008,3.218861169915812));
#1364=VERTEX_POINT('',#1363);
#1365=CARTESIAN_POINT('',(2.299709374379768,-9.325873E-015,4.800000000000001));
#1366=DIRECTION('',(-1.0,0.0,0.0));
#1367=DIRECTION('',(0.0,1.0,0.0));
#1368=AXIS2_PLACEMENT_3D('',#1365,#1366,#1367);
#1369=CIRCLE('',#1368,2.749999999999999);
#1370=EDGE_CURVE('',#1362,#1364,#1369,.T.);
#1371=ORIENTED_EDGE('',*,*,#1370,.T.);
#1372=CARTESIAN_POINT('',(1.099709374379768,-2.250000000000008,3.218861169915811));
#1373=VERTEX_POINT('',#1372);
#1374=CARTESIAN_POINT('',(1.099709374379768,-2.250000000000008,3.218861169915811));
#1375=DIRECTION('',(1.0,0.0,0.0));
#1376=VECTOR('',#1375,1.200000000000001);
#1377=LINE('',#1374,#1376);
#1378=EDGE_CURVE('',#1373,#1364,#1377,.T.);
#1379=ORIENTED_EDGE('',*,*,#1378,.F.);
#1380=CARTESIAN_POINT('',(1.099709374379767,-2.250000000000008,6.381138830084190));
#1381=VERTEX_POINT('',#1380);
#1382=CARTESIAN_POINT('',(1.099709374379768,-9.325873E-015,4.800000000000001));
#1383=DIRECTION('',(-1.0,0.0,0.0));
#1384=DIRECTION('',(0.0,1.0,0.0));
#1385=AXIS2_PLACEMENT_3D('',#1382,#1383,#1384);
#1386=CIRCLE('',#1385,2.749999999999999);
#1387=EDGE_CURVE('',#1381,#1373,#1386,.T.);
#1388=ORIENTED_EDGE('',*,*,#1387,.F.);
#1389=CARTESIAN_POINT('',(1.099709374379767,-2.250000000000008,6.381138830084190));
#1390=DIRECTION('',(1.0,0.0,0.0));
#1391=VECTOR('',#1390,1.200000000000000);
#1392=LINE('',#1389,#1391);
#1393=EDGE_CURVE('',#1381,#1362,#1392,.T.);
#1394=ORIENTED_EDGE('',*,*,#1393,.T.);
#1395=EDGE_LOOP('',(#1371,#1379,#1388,#1394));
#1396=FACE_OUTER_BOUND('',#1395,.T.);
#1397=ADVANCED_FACE('',(#1396),#1360,.T.);
#1398=CARTESIAN_POINT('',(1.099709374379768,-2.250000000000008,3.218861169915811));
#1399=DIRECTION('',(0.0,-1.0,0.0));
#1400=DIRECTION('',(0.0,0.0,-1.0));
#1401=AXIS2_PLACEMENT_3D('',#1398,#1399,#1400);
#1402=PLANE('',#1401);
#1403=CARTESIAN_POINT('',(2.299709374379768,-2.250000000000008,3.218861169915812));
#1404=DIRECTION('',(0.0,0.0,1.0));
#1405=VECTOR('',#1404,3.162277660168379);
#1406=LINE('',#1403,#1405);
#1407=EDGE_CURVE('',#1364,#1362,#1406,.T.);
#1408=ORIENTED_EDGE('',*,*,#1407,.T.);
#1409=ORIENTED_EDGE('',*,*,#1393,.F.);
#1410=CARTESIAN_POINT('',(1.099709374379768,-2.250000000000008,3.218861169915811));
#1411=DIRECTION('',(0.0,0.0,1.0));
#1412=VECTOR('',#1411,3.162277660168379);
#1413=LINE('',#1410,#1412);
#1414=EDGE_CURVE('',#1373,#1381,#1413,.T.);
#1415=ORIENTED_EDGE('',*,*,#1414,.F.);
#1416=ORIENTED_EDGE('',*,*,#1378,.T.);
#1417=EDGE_LOOP('',(#1408,#1409,#1415,#1416));
#1418=FACE_OUTER_BOUND('',#1417,.T.);
#1419=ADVANCED_FACE('',(#1418),#1402,.T.);
#1420=CARTESIAN_POINT('',(2.299709374379768,-0.130264374953265,4.800000000000003));
#1421=DIRECTION('',(1.0,0.0,0.0));
#1422=DIRECTION('',(0.0,0.0,-1.0));
#1423=AXIS2_PLACEMENT_3D('',#1420,#1421,#1422);
#1424=PLANE('',#1423);
#1425=ORIENTED_EDGE('',*,*,#1370,.F.);
#1426=ORIENTED_EDGE('',*,*,#1407,.F.);
#1427=EDGE_LOOP('',(#1425,#1426));
#1428=FACE_OUTER_BOUND('',#1427,.T.);
#1429=ADVANCED_FACE('',(#1428),#1424,.T.);
#1430=CARTESIAN_POINT('',(1.099709374379768,-0.130264374953265,4.800000000000002));
#1431=DIRECTION('',(1.0,0.0,0.0));
#1432=DIRECTION('',(0.0,0.0,-1.0));
#1433=AXIS2_PLACEMENT_3D('',#1430,#1431,#1432);
#1434=PLANE('',#1433);
#1435=ORIENTED_EDGE('',*,*,#1414,.T.);
#1436=ORIENTED_EDGE('',*,*,#1387,.T.);
#1437=EDGE_LOOP('',(#1435,#1436));
#1438=FACE_OUTER_BOUND('',#1437,.T.);
#1439=ADVANCED_FACE('',(#1438),#1434,.F.);
#1440=CLOSED_SHELL('',(#1397,#1419,#1429,#1439));
#1441=MANIFOLD_SOLID_BREP('9A5',#1440);
#1442=STYLED_ITEM('NONE',(#1354),#1441);
#1443=ADVANCED_BREP_SHAPE_REPRESENTATION('ABSR1',(#478,#640,#1055,#1208,#1347,#1441),#28);
#1444=SHAPE_REPRESENTATION_RELATIONSHIP('SRRPL1','',#1443,#62);
ENDSEC;
END-ISO-10303-21;
