ISO-10303-21;
HEADER;
/* Generated by software containing ST-Developer
 * from STEP Tools, Inc. (www.steptools.com) 
 */

FILE_DESCRIPTION(
/* description */ (''),
/* implementation_level */ '2;1');

FILE_NAME(
/* name */ 
'G:\\Applications\\Altium\\CernLib\\StepLib\\SKS-HIRSCHMANN_930 103-10
0_Part2.stp',
/* time_stamp */ '2015-05-27T15:17:15+02:00',
/* author */ ('admchouv'),
/* organization */ (''),
/* preprocessor_version */ 'ST-DEVELOPER v15.5',
/* originating_system */ 'AutoCAD Mechanical',
/* authorisation */ '');

FILE_SCHEMA (('AUTOMOTIVE_DESIGN { 1 0 10303 214 3 1 1 }'));
ENDSEC;

DATA;
#10=MECHANICAL_DESIGN_GEOMETRIC_PRESENTATION_REPRESENTATION('',(#17),#187);
#11=DIMENSIONAL_EXPONENTS(0.,0.,0.,0.,0.,0.,0.);
#12=(
CONVERSION_BASED_UNIT('degree',#13)
NAMED_UNIT(#11)
PLANE_ANGLE_UNIT()
);
#13=PLANE_ANGLE_MEASURE_WITH_UNIT(PLANE_ANGLE_MEASURE(0.01745329252),#190);
#14=PRESENTATION_LAYER_ASSIGNMENT('3D','',(#107));
#15=SHAPE_REPRESENTATION_RELATIONSHIP('SRR','None',#193,#16);
#16=ADVANCED_BREP_SHAPE_REPRESENTATION($,(#107),#186);
#17=STYLED_ITEM($,(#203),#107);
#18=FACE_BOUND($,#36,.T.);
#19=FACE_BOUND($,#38,.T.);
#20=FACE_BOUND($,#40,.T.);
#21=FACE_BOUND($,#42,.T.);
#22=FACE_BOUND($,#44,.T.);
#23=PLANE($,#115);
#24=PLANE($,#122);
#25=PLANE($,#123);
#26=FACE_OUTER_BOUND($,#33,.T.);
#27=FACE_OUTER_BOUND($,#34,.T.);
#28=FACE_OUTER_BOUND($,#35,.T.);
#29=FACE_OUTER_BOUND($,#37,.T.);
#30=FACE_OUTER_BOUND($,#39,.T.);
#31=FACE_OUTER_BOUND($,#41,.T.);
#32=FACE_OUTER_BOUND($,#43,.T.);
#33=EDGE_LOOP($,(#75,#76,#77,#78));
#34=EDGE_LOOP($,(#79,#80,#81,#82));
#35=EDGE_LOOP($,(#83,#84));
#36=EDGE_LOOP($,(#85));
#37=EDGE_LOOP($,(#86));
#38=EDGE_LOOP($,(#87));
#39=EDGE_LOOP($,(#88));
#40=EDGE_LOOP($,(#89));
#41=EDGE_LOOP($,(#90));
#42=EDGE_LOOP($,(#91));
#43=EDGE_LOOP($,(#92));
#44=EDGE_LOOP($,(#93,#94));
#45=CIRCLE($,#110,1.25);
#46=CIRCLE($,#111,1.25);
#47=CIRCLE($,#113,3.6);
#48=CIRCLE($,#114,3.6);
#49=CIRCLE($,#116,2.2);
#50=CIRCLE($,#118,2.2);
#51=CIRCLE($,#120,6.2);
#52=CIRCLE($,#121,6.2);
#53=LINE($,#162,#55);
#54=LINE($,#166,#56);
#55=VECTOR($,#128,2.4);
#56=VECTOR($,#131,2.4);
#57=VERTEX_POINT($,#160);
#58=VERTEX_POINT($,#161);
#59=VERTEX_POINT($,#163);
#60=VERTEX_POINT($,#165);
#61=VERTEX_POINT($,#172);
#62=VERTEX_POINT($,#175);
#63=VERTEX_POINT($,#178);
#64=VERTEX_POINT($,#180);
#65=EDGE_CURVE($,#57,#58,#53,.T.);
#66=EDGE_CURVE($,#59,#57,#45,.T.);
#67=EDGE_CURVE($,#60,#59,#54,.T.);
#68=EDGE_CURVE($,#60,#58,#46,.T.);
#69=EDGE_CURVE($,#58,#60,#47,.T.);
#70=EDGE_CURVE($,#57,#59,#48,.T.);
#71=EDGE_CURVE($,#61,#61,#49,.T.);
#72=EDGE_CURVE($,#62,#62,#50,.T.);
#73=EDGE_CURVE($,#63,#63,#51,.T.);
#74=EDGE_CURVE($,#64,#64,#52,.T.);
#75=ORIENTED_EDGE($,*,*,#65,.F.);
#76=ORIENTED_EDGE($,*,*,#66,.F.);
#77=ORIENTED_EDGE($,*,*,#67,.F.);
#78=ORIENTED_EDGE($,*,*,#68,.T.);
#79=ORIENTED_EDGE($,*,*,#65,.T.);
#80=ORIENTED_EDGE($,*,*,#69,.T.);
#81=ORIENTED_EDGE($,*,*,#67,.T.);
#82=ORIENTED_EDGE($,*,*,#70,.F.);
#83=ORIENTED_EDGE($,*,*,#69,.F.);
#84=ORIENTED_EDGE($,*,*,#68,.F.);
#85=ORIENTED_EDGE($,*,*,#71,.F.);
#86=ORIENTED_EDGE($,*,*,#71,.T.);
#87=ORIENTED_EDGE($,*,*,#72,.F.);
#88=ORIENTED_EDGE($,*,*,#73,.F.);
#89=ORIENTED_EDGE($,*,*,#74,.F.);
#90=ORIENTED_EDGE($,*,*,#73,.T.);
#91=ORIENTED_EDGE($,*,*,#72,.T.);
#92=ORIENTED_EDGE($,*,*,#74,.T.);
#93=ORIENTED_EDGE($,*,*,#66,.T.);
#94=ORIENTED_EDGE($,*,*,#70,.T.);
#95=CYLINDRICAL_SURFACE($,#109,1.25);
#96=CYLINDRICAL_SURFACE($,#112,3.6);
#97=CYLINDRICAL_SURFACE($,#117,2.2);
#98=CYLINDRICAL_SURFACE($,#119,6.2);
#99=ADVANCED_FACE($,(#26),#95,.F.);
#100=ADVANCED_FACE($,(#27),#96,.F.);
#101=ADVANCED_FACE($,(#28,#18),#23,.F.);
#102=ADVANCED_FACE($,(#29,#19),#97,.F.);
#103=ADVANCED_FACE($,(#30,#20),#98,.T.);
#104=ADVANCED_FACE($,(#31,#21),#24,.T.);
#105=ADVANCED_FACE($,(#32,#22),#25,.T.);
#106=CLOSED_SHELL($,(#99,#100,#101,#102,#103,#104,#105));
#107=MANIFOLD_SOLID_BREP('8BA',#106);
#108=AXIS2_PLACEMENT_3D('placement',#158,#124,#125);
#109=AXIS2_PLACEMENT_3D($,#159,#126,#127);
#110=AXIS2_PLACEMENT_3D($,#164,#129,#130);
#111=AXIS2_PLACEMENT_3D($,#167,#132,#133);
#112=AXIS2_PLACEMENT_3D($,#168,#134,#135);
#113=AXIS2_PLACEMENT_3D($,#169,#136,#137);
#114=AXIS2_PLACEMENT_3D($,#170,#138,#139);
#115=AXIS2_PLACEMENT_3D($,#171,#140,#141);
#116=AXIS2_PLACEMENT_3D($,#173,#142,#143);
#117=AXIS2_PLACEMENT_3D($,#174,#144,#145);
#118=AXIS2_PLACEMENT_3D($,#176,#146,#147);
#119=AXIS2_PLACEMENT_3D($,#177,#148,#149);
#120=AXIS2_PLACEMENT_3D($,#179,#150,#151);
#121=AXIS2_PLACEMENT_3D($,#181,#152,#153);
#122=AXIS2_PLACEMENT_3D($,#182,#154,#155);
#123=AXIS2_PLACEMENT_3D($,#183,#156,#157);
#124=DIRECTION('axis',(0.,0.,1.));
#125=DIRECTION('refdir',(1.,0.,0.));
#126=DIRECTION('center_axis',(0.,0.,-1.));
#127=DIRECTION('ref_axis',(-1.,0.,0.));
#128=DIRECTION($,(0.,0.,-1.));
#129=DIRECTION('center_axis',(0.,0.,-1.));
#130=DIRECTION('ref_axis',(-1.,0.,0.));
#131=DIRECTION($,(0.,0.,1.));
#132=DIRECTION('center_axis',(0.,0.,-1.));
#133=DIRECTION('ref_axis',(-1.,0.,0.));
#134=DIRECTION('center_axis',(0.,-1.22464679914735E-16,-1.));
#135=DIRECTION('ref_axis',(1.,0.,0.));
#136=DIRECTION('center_axis',(0.,-1.22464679914735E-16,-1.));
#137=DIRECTION('ref_axis',(1.,0.,0.));
#138=DIRECTION('center_axis',(0.,0.,-1.));
#139=DIRECTION('ref_axis',(1.,0.,0.));
#140=DIRECTION('center_axis',(0.,-1.22464679914735E-16,-1.));
#141=DIRECTION('ref_axis',(1.,0.,0.));
#142=DIRECTION('center_axis',(0.,1.22464679914735E-16,1.));
#143=DIRECTION('ref_axis',(1.,0.,0.));
#144=DIRECTION('center_axis',(0.,-1.22464679914735E-16,-1.));
#145=DIRECTION('ref_axis',(1.,0.,0.));
#146=DIRECTION('center_axis',(0.,0.,1.));
#147=DIRECTION('ref_axis',(1.,0.,0.));
#148=DIRECTION('center_axis',(0.,0.,1.));
#149=DIRECTION('ref_axis',(1.,0.,0.));
#150=DIRECTION('center_axis',(0.,0.,-1.));
#151=DIRECTION('ref_axis',(1.,0.,0.));
#152=DIRECTION('center_axis',(0.,0.,1.));
#153=DIRECTION('ref_axis',(1.,0.,0.));
#154=DIRECTION('center_axis',(0.,0.,-1.));
#155=DIRECTION('ref_axis',(-1.,0.,0.));
#156=DIRECTION('center_axis',(0.,0.,1.));
#157=DIRECTION('ref_axis',(1.,0.,0.));
#158=CARTESIAN_POINT('',(0.,0.,0.));
#159=CARTESIAN_POINT('Origin',(0.,-3.25,-1.6));
#160=CARTESIAN_POINT('',(-1.24338153160488,-3.37846153846154,-1.6));
#161=CARTESIAN_POINT('',(-1.24338153160488,-3.37846153846154,-4.));
#162=CARTESIAN_POINT($,(-1.24338153160488,-3.37846153846154,-1.6));
#163=CARTESIAN_POINT('',(1.24338153160488,-3.37846153846154,-1.6));
#164=CARTESIAN_POINT('Origin',(0.,-3.25,-1.6));
#165=CARTESIAN_POINT('',(1.24338153160488,-3.37846153846154,-4.));
#166=CARTESIAN_POINT($,(1.24338153160488,-3.37846153846154,-1.6));
#167=CARTESIAN_POINT('Origin',(0.,-3.25,-4.));
#168=CARTESIAN_POINT('Origin',(0.,-4.40872847693047E-16,-2.8));
#169=CARTESIAN_POINT('Origin',(0.,-5.8783046359073E-16,-4.));
#170=CARTESIAN_POINT('Origin',(0.,-2.93915231795365E-16,-1.6));
#171=CARTESIAN_POINT('Origin',(0.,-5.8783046359073E-16,-4.));
#172=CARTESIAN_POINT('',(-0.553512720143762,-2.12923076923077,-4.));
#173=CARTESIAN_POINT('Origin',(0.,1.14602088091899E-16,-4.));
#174=CARTESIAN_POINT('Origin',(0.,-4.40872847693047E-16,-8.53579706550239));
#175=CARTESIAN_POINT('',(-2.2,-5.34460715456199E-16,-7.1));
#176=CARTESIAN_POINT('Origin',(0.,-2.65038419643781E-16,-7.1));
#177=CARTESIAN_POINT('Origin',(0.,0.,-4.35));
#178=CARTESIAN_POINT('',(6.2,0.,-7.1));
#179=CARTESIAN_POINT('Origin',(0.,0.,-7.1));
#180=CARTESIAN_POINT('',(6.2,0.,-1.6));
#181=CARTESIAN_POINT('Origin',(0.,0.,-1.6));
#182=CARTESIAN_POINT('Origin',(0.,0.,-7.1));
#183=CARTESIAN_POINT('Origin',(0.,0.,-1.6));
#184=UNCERTAINTY_MEASURE_WITH_UNIT(LENGTH_MEASURE(0.01),#188,
'DISTANCE_ACCURACY_VALUE',
'Maximum model space distance between geometric entities at asserted c
onnectivities');
#185=UNCERTAINTY_MEASURE_WITH_UNIT(LENGTH_MEASURE(1.E-6),#188,
'DISTANCE_ACCURACY_VALUE',
'Maximum model space distance between geometric entities at asserted c
onnectivities');
#186=(
GEOMETRIC_REPRESENTATION_CONTEXT(3)
GLOBAL_UNCERTAINTY_ASSIGNED_CONTEXT((#184))
GLOBAL_UNIT_ASSIGNED_CONTEXT((#188,#190,#189))
REPRESENTATION_CONTEXT('','3D')
);
#187=(
GEOMETRIC_REPRESENTATION_CONTEXT(3)
GLOBAL_UNCERTAINTY_ASSIGNED_CONTEXT((#185))
GLOBAL_UNIT_ASSIGNED_CONTEXT((#188,#12,#189))
REPRESENTATION_CONTEXT('','3D')
);
#188=(
LENGTH_UNIT()
NAMED_UNIT(*)
SI_UNIT(.MILLI.,.METRE.)
);
#189=(
NAMED_UNIT(*)
SI_UNIT($,.STERADIAN.)
SOLID_ANGLE_UNIT()
);
#190=(
NAMED_UNIT(*)
PLANE_ANGLE_UNIT()
SI_UNIT($,.RADIAN.)
);
#191=SHAPE_DEFINITION_REPRESENTATION(#192,#193);
#192=PRODUCT_DEFINITION_SHAPE('',$,#195);
#193=SHAPE_REPRESENTATION('',(#108),#186);
#194=PRODUCT_DEFINITION_CONTEXT('part definition',#199,'design');
#195=PRODUCT_DEFINITION('Product','Product',#196,#194);
#196=PRODUCT_DEFINITION_FORMATION('',$,#201);
#197=PRODUCT_RELATED_PRODUCT_CATEGORY('Product','Product',(#201));
#198=APPLICATION_PROTOCOL_DEFINITION('international standard',
'automotive_design',2009,#199);
#199=APPLICATION_CONTEXT(
'Core Data for Automotive Mechanical Design Process');
#200=PRODUCT_CONTEXT('part definition',#199,'mechanical');
#201=PRODUCT('Product','Product',$,(#200));
#202=PRESENTATION_STYLE_ASSIGNMENT((#204));
#203=PRESENTATION_STYLE_ASSIGNMENT((#205));
#204=SURFACE_STYLE_USAGE(.BOTH.,#206);
#205=SURFACE_STYLE_USAGE(.BOTH.,#207);
#206=SURFACE_SIDE_STYLE($,(#208));
#207=SURFACE_SIDE_STYLE($,(#209));
#208=SURFACE_STYLE_FILL_AREA(#210);
#209=SURFACE_STYLE_FILL_AREA(#211);
#210=FILL_AREA_STYLE($,(#212));
#211=FILL_AREA_STYLE($,(#213));
#212=FILL_AREA_STYLE_COLOUR($,#214);
#213=FILL_AREA_STYLE_COLOUR($,#215);
#214=COLOUR_RGB('',1.,1.,1.);
#215=COLOUR_RGB('',0.329411764705882,0.329411764705882,0.329411764705882);
ENDSEC;
END-ISO-10303-21;
