ISO-10303-21;
HEADER;
/* Generated by software containing ST-Developer
 * from STEP Tools, Inc. (www.steptools.com) 
 */

FILE_DESCRIPTION(
/* description */ (''),
/* implementation_level */ '2;1');

FILE_NAME(
/* name */ 'G:\\Applications\\Altium\\CernLib\\StepLib\\SOT50P160X90-3
N.stp',
/* time_stamp */ '2017-05-22T15:32:45+02:00',
/* author */ ('jchouvet'),
/* organization */ (''),
/* preprocessor_version */ 'ST-DEVELOPER v16.1',
/* originating_system */ 'AutoCAD Mechanical',
/* authorisation */ '');

FILE_SCHEMA (('AUTOMOTIVE_DESIGN { 1 0 10303 214 3 1 1 }'));
ENDSEC;

DATA;
#10=MECHANICAL_DESIGN_GEOMETRIC_PRESENTATION_REPRESENTATION('',(#53,#55,
#54,#56,#57),#1595);
#11=DIMENSIONAL_EXPONENTS(0.,0.,0.,0.,0.,0.,0.);
#12=(
CONVERSION_BASED_UNIT('degree',#13)
NAMED_UNIT(#11)
PLANE_ANGLE_UNIT()
);
#13=PLANE_ANGLE_MEASURE_WITH_UNIT(PLANE_ANGLE_MEASURE(0.01745329252),#1598);
#14=PRESENTATION_LAYER_ASSIGNMENT('1','3D',(#58,#59,#60,#61,#62));
#15=CIRCLE('',#988,0.0500000000000001);
#16=CIRCLE('',#989,0.0500000000000001);
#17=CIRCLE('',#992,0.15);
#18=CIRCLE('',#993,0.15);
#19=CIRCLE('',#998,0.0499999999999998);
#20=CIRCLE('',#999,0.0499999999999998);
#21=CIRCLE('',#1002,0.15);
#22=CIRCLE('',#1003,0.15);
#23=CIRCLE('',#1010,0.0500000000000001);
#24=CIRCLE('',#1011,0.0500000000000001);
#25=CIRCLE('',#1014,0.15);
#26=CIRCLE('',#1015,0.15);
#27=CIRCLE('',#1020,0.0499999999999998);
#28=CIRCLE('',#1021,0.0499999999999998);
#29=CIRCLE('',#1024,0.15);
#30=CIRCLE('',#1025,0.15);
#31=CIRCLE('',#1032,0.0500000000000001);
#32=CIRCLE('',#1033,0.0500000000000001);
#33=CIRCLE('',#1036,0.15);
#34=CIRCLE('',#1037,0.15);
#35=CIRCLE('',#1042,0.0499999999999998);
#36=CIRCLE('',#1043,0.0499999999999998);
#37=CIRCLE('',#1046,0.15);
#38=CIRCLE('',#1047,0.15);
#39=CYLINDRICAL_SURFACE('',#987,0.0500000000000001);
#40=CYLINDRICAL_SURFACE('',#991,0.15);
#41=CYLINDRICAL_SURFACE('',#997,0.0499999999999998);
#42=CYLINDRICAL_SURFACE('',#1001,0.15);
#43=CYLINDRICAL_SURFACE('',#1009,0.0500000000000001);
#44=CYLINDRICAL_SURFACE('',#1013,0.15);
#45=CYLINDRICAL_SURFACE('',#1019,0.0499999999999998);
#46=CYLINDRICAL_SURFACE('',#1023,0.15);
#47=CYLINDRICAL_SURFACE('',#1031,0.0500000000000001);
#48=CYLINDRICAL_SURFACE('',#1035,0.15);
#49=CYLINDRICAL_SURFACE('',#1041,0.0499999999999998);
#50=CYLINDRICAL_SURFACE('',#1045,0.15);
#51=SHAPE_REPRESENTATION_RELATIONSHIP('SRR','None',#1601,#52);
#52=ADVANCED_BREP_SHAPE_REPRESENTATION('',(#58,#59,#60,#61,#62),#1594);
#53=STYLED_ITEM('',(#1611),#58);
#54=STYLED_ITEM('',(#1611),#59);
#55=STYLED_ITEM('',(#1612),#60);
#56=STYLED_ITEM('',(#1612),#61);
#57=STYLED_ITEM('',(#1612),#62);
#58=MANIFOLD_SOLID_BREP('2D8F',#967);
#59=MANIFOLD_SOLID_BREP('2D93',#968);
#60=MANIFOLD_SOLID_BREP('2DCE',#969);
#61=MANIFOLD_SOLID_BREP('2DD2',#970);
#62=MANIFOLD_SOLID_BREP('2DD6',#971);
#63=FACE_OUTER_BOUND('',#117,.T.);
#64=FACE_OUTER_BOUND('',#118,.T.);
#65=FACE_OUTER_BOUND('',#119,.T.);
#66=FACE_OUTER_BOUND('',#120,.T.);
#67=FACE_OUTER_BOUND('',#121,.T.);
#68=FACE_OUTER_BOUND('',#122,.T.);
#69=FACE_OUTER_BOUND('',#123,.T.);
#70=FACE_OUTER_BOUND('',#124,.T.);
#71=FACE_OUTER_BOUND('',#125,.T.);
#72=FACE_OUTER_BOUND('',#126,.T.);
#73=FACE_OUTER_BOUND('',#127,.T.);
#74=FACE_OUTER_BOUND('',#128,.T.);
#75=FACE_OUTER_BOUND('',#129,.T.);
#76=FACE_OUTER_BOUND('',#130,.T.);
#77=FACE_OUTER_BOUND('',#131,.T.);
#78=FACE_OUTER_BOUND('',#132,.T.);
#79=FACE_OUTER_BOUND('',#133,.T.);
#80=FACE_OUTER_BOUND('',#134,.T.);
#81=FACE_OUTER_BOUND('',#135,.T.);
#82=FACE_OUTER_BOUND('',#136,.T.);
#83=FACE_OUTER_BOUND('',#137,.T.);
#84=FACE_OUTER_BOUND('',#138,.T.);
#85=FACE_OUTER_BOUND('',#139,.T.);
#86=FACE_OUTER_BOUND('',#140,.T.);
#87=FACE_OUTER_BOUND('',#141,.T.);
#88=FACE_OUTER_BOUND('',#142,.T.);
#89=FACE_OUTER_BOUND('',#143,.T.);
#90=FACE_OUTER_BOUND('',#144,.T.);
#91=FACE_OUTER_BOUND('',#145,.T.);
#92=FACE_OUTER_BOUND('',#146,.T.);
#93=FACE_OUTER_BOUND('',#147,.T.);
#94=FACE_OUTER_BOUND('',#148,.T.);
#95=FACE_OUTER_BOUND('',#149,.T.);
#96=FACE_OUTER_BOUND('',#150,.T.);
#97=FACE_OUTER_BOUND('',#151,.T.);
#98=FACE_OUTER_BOUND('',#152,.T.);
#99=FACE_OUTER_BOUND('',#153,.T.);
#100=FACE_OUTER_BOUND('',#154,.T.);
#101=FACE_OUTER_BOUND('',#155,.T.);
#102=FACE_OUTER_BOUND('',#156,.T.);
#103=FACE_OUTER_BOUND('',#157,.T.);
#104=FACE_OUTER_BOUND('',#158,.T.);
#105=FACE_OUTER_BOUND('',#159,.T.);
#106=FACE_OUTER_BOUND('',#160,.T.);
#107=FACE_OUTER_BOUND('',#161,.T.);
#108=FACE_OUTER_BOUND('',#162,.T.);
#109=FACE_OUTER_BOUND('',#163,.T.);
#110=FACE_OUTER_BOUND('',#164,.T.);
#111=FACE_OUTER_BOUND('',#165,.T.);
#112=FACE_OUTER_BOUND('',#166,.T.);
#113=FACE_OUTER_BOUND('',#167,.T.);
#114=FACE_OUTER_BOUND('',#168,.T.);
#115=FACE_OUTER_BOUND('',#169,.T.);
#116=FACE_OUTER_BOUND('',#170,.T.);
#117=EDGE_LOOP('',(#607,#608,#609,#610));
#118=EDGE_LOOP('',(#611,#612,#613,#614));
#119=EDGE_LOOP('',(#615,#616,#617,#618));
#120=EDGE_LOOP('',(#619,#620,#621,#622));
#121=EDGE_LOOP('',(#623,#624,#625,#626));
#122=EDGE_LOOP('',(#627,#628,#629,#630));
#123=EDGE_LOOP('',(#631,#632,#633,#634));
#124=EDGE_LOOP('',(#635,#636,#637,#638));
#125=EDGE_LOOP('',(#639,#640,#641,#642));
#126=EDGE_LOOP('',(#643,#644,#645,#646));
#127=EDGE_LOOP('',(#647,#648,#649,#650));
#128=EDGE_LOOP('',(#651,#652,#653,#654));
#129=EDGE_LOOP('',(#655,#656,#657,#658));
#130=EDGE_LOOP('',(#659,#660,#661,#662));
#131=EDGE_LOOP('',(#663,#664,#665,#666));
#132=EDGE_LOOP('',(#667,#668,#669,#670));
#133=EDGE_LOOP('',(#671,#672,#673,#674));
#134=EDGE_LOOP('',(#675,#676,#677,#678));
#135=EDGE_LOOP('',(#679,#680,#681,#682));
#136=EDGE_LOOP('',(#683,#684,#685,#686));
#137=EDGE_LOOP('',(#687,#688,#689,#690));
#138=EDGE_LOOP('',(#691,#692,#693,#694));
#139=EDGE_LOOP('',(#695,#696,#697,#698));
#140=EDGE_LOOP('',(#699,#700,#701,#702));
#141=EDGE_LOOP('',(#703,#704,#705,#706,#707,#708,#709,#710,#711,#712,#713,
#714));
#142=EDGE_LOOP('',(#715,#716,#717,#718,#719,#720,#721,#722,#723,#724,#725,
#726));
#143=EDGE_LOOP('',(#727,#728,#729,#730));
#144=EDGE_LOOP('',(#731,#732,#733,#734));
#145=EDGE_LOOP('',(#735,#736,#737,#738));
#146=EDGE_LOOP('',(#739,#740,#741,#742));
#147=EDGE_LOOP('',(#743,#744,#745,#746));
#148=EDGE_LOOP('',(#747,#748,#749,#750));
#149=EDGE_LOOP('',(#751,#752,#753,#754));
#150=EDGE_LOOP('',(#755,#756,#757,#758));
#151=EDGE_LOOP('',(#759,#760,#761,#762));
#152=EDGE_LOOP('',(#763,#764,#765,#766));
#153=EDGE_LOOP('',(#767,#768,#769,#770));
#154=EDGE_LOOP('',(#771,#772,#773,#774));
#155=EDGE_LOOP('',(#775,#776,#777,#778,#779,#780,#781,#782,#783,#784,#785,
#786));
#156=EDGE_LOOP('',(#787,#788,#789,#790,#791,#792,#793,#794,#795,#796,#797,
#798));
#157=EDGE_LOOP('',(#799,#800,#801,#802));
#158=EDGE_LOOP('',(#803,#804,#805,#806));
#159=EDGE_LOOP('',(#807,#808,#809,#810));
#160=EDGE_LOOP('',(#811,#812,#813,#814));
#161=EDGE_LOOP('',(#815,#816,#817,#818));
#162=EDGE_LOOP('',(#819,#820,#821,#822));
#163=EDGE_LOOP('',(#823,#824,#825,#826));
#164=EDGE_LOOP('',(#827,#828,#829,#830));
#165=EDGE_LOOP('',(#831,#832,#833,#834));
#166=EDGE_LOOP('',(#835,#836,#837,#838));
#167=EDGE_LOOP('',(#839,#840,#841,#842));
#168=EDGE_LOOP('',(#843,#844,#845,#846));
#169=EDGE_LOOP('',(#847,#848,#849,#850,#851,#852,#853,#854,#855,#856,#857,
#858));
#170=EDGE_LOOP('',(#859,#860,#861,#862,#863,#864,#865,#866,#867,#868,#869,
#870));
#171=LINE('',#1321,#279);
#172=LINE('',#1323,#280);
#173=LINE('',#1325,#281);
#174=LINE('',#1326,#282);
#175=LINE('',#1329,#283);
#176=LINE('',#1331,#284);
#177=LINE('',#1332,#285);
#178=LINE('',#1335,#286);
#179=LINE('',#1337,#287);
#180=LINE('',#1338,#288);
#181=LINE('',#1340,#289);
#182=LINE('',#1341,#290);
#183=LINE('',#1347,#291);
#184=LINE('',#1349,#292);
#185=LINE('',#1351,#293);
#186=LINE('',#1352,#294);
#187=LINE('',#1355,#295);
#188=LINE('',#1357,#296);
#189=LINE('',#1358,#297);
#190=LINE('',#1361,#298);
#191=LINE('',#1363,#299);
#192=LINE('',#1364,#300);
#193=LINE('',#1366,#301);
#194=LINE('',#1367,#302);
#195=LINE('',#1373,#303);
#196=LINE('',#1375,#304);
#197=LINE('',#1377,#305);
#198=LINE('',#1378,#306);
#199=LINE('',#1381,#307);
#200=LINE('',#1383,#308);
#201=LINE('',#1384,#309);
#202=LINE('',#1390,#310);
#203=LINE('',#1393,#311);
#204=LINE('',#1395,#312);
#205=LINE('',#1396,#313);
#206=LINE('',#1402,#314);
#207=LINE('',#1405,#315);
#208=LINE('',#1407,#316);
#209=LINE('',#1408,#317);
#210=LINE('',#1411,#318);
#211=LINE('',#1413,#319);
#212=LINE('',#1414,#320);
#213=LINE('',#1417,#321);
#214=LINE('',#1419,#322);
#215=LINE('',#1420,#323);
#216=LINE('',#1426,#324);
#217=LINE('',#1429,#325);
#218=LINE('',#1431,#326);
#219=LINE('',#1432,#327);
#220=LINE('',#1438,#328);
#221=LINE('',#1440,#329);
#222=LINE('',#1441,#330);
#223=LINE('',#1447,#331);
#224=LINE('',#1449,#332);
#225=LINE('',#1451,#333);
#226=LINE('',#1452,#334);
#227=LINE('',#1455,#335);
#228=LINE('',#1457,#336);
#229=LINE('',#1458,#337);
#230=LINE('',#1464,#338);
#231=LINE('',#1467,#339);
#232=LINE('',#1469,#340);
#233=LINE('',#1470,#341);
#234=LINE('',#1476,#342);
#235=LINE('',#1479,#343);
#236=LINE('',#1481,#344);
#237=LINE('',#1482,#345);
#238=LINE('',#1485,#346);
#239=LINE('',#1487,#347);
#240=LINE('',#1488,#348);
#241=LINE('',#1491,#349);
#242=LINE('',#1493,#350);
#243=LINE('',#1494,#351);
#244=LINE('',#1500,#352);
#245=LINE('',#1503,#353);
#246=LINE('',#1505,#354);
#247=LINE('',#1506,#355);
#248=LINE('',#1512,#356);
#249=LINE('',#1514,#357);
#250=LINE('',#1515,#358);
#251=LINE('',#1521,#359);
#252=LINE('',#1523,#360);
#253=LINE('',#1525,#361);
#254=LINE('',#1526,#362);
#255=LINE('',#1529,#363);
#256=LINE('',#1531,#364);
#257=LINE('',#1532,#365);
#258=LINE('',#1537,#366);
#259=LINE('',#1541,#367);
#260=LINE('',#1543,#368);
#261=LINE('',#1544,#369);
#262=LINE('',#1549,#370);
#263=LINE('',#1553,#371);
#264=LINE('',#1555,#372);
#265=LINE('',#1556,#373);
#266=LINE('',#1559,#374);
#267=LINE('',#1561,#375);
#268=LINE('',#1562,#376);
#269=LINE('',#1565,#377);
#270=LINE('',#1567,#378);
#271=LINE('',#1568,#379);
#272=LINE('',#1573,#380);
#273=LINE('',#1577,#381);
#274=LINE('',#1579,#382);
#275=LINE('',#1580,#383);
#276=LINE('',#1585,#384);
#277=LINE('',#1588,#385);
#278=LINE('',#1589,#386);
#279=VECTOR('',#1055,1.6);
#280=VECTOR('',#1056,0.507148893324239);
#281=VECTOR('',#1057,1.48);
#282=VECTOR('',#1058,0.507148893324239);
#283=VECTOR('',#1061,0.68);
#284=VECTOR('',#1062,0.8);
#285=VECTOR('',#1063,0.507148893324239);
#286=VECTOR('',#1066,0.8);
#287=VECTOR('',#1067,0.68);
#288=VECTOR('',#1068,0.507148893324239);
#289=VECTOR('',#1071,1.6);
#290=VECTOR('',#1072,1.48);
#291=VECTOR('',#1079,1.5);
#292=VECTOR('',#1080,0.406201920231798);
#293=VECTOR('',#1081,1.6);
#294=VECTOR('',#1082,0.406201920231798);
#295=VECTOR('',#1085,0.8);
#296=VECTOR('',#1086,0.7);
#297=VECTOR('',#1087,0.406201920231798);
#298=VECTOR('',#1090,0.7);
#299=VECTOR('',#1091,0.8);
#300=VECTOR('',#1092,0.406201920231798);
#301=VECTOR('',#1095,1.5);
#302=VECTOR('',#1096,1.6);
#303=VECTOR('',#1103,0.1);
#304=VECTOR('',#1104,0.2);
#305=VECTOR('',#1105,0.1);
#306=VECTOR('',#1106,0.2);
#307=VECTOR('',#1109,0.154715896732137);
#308=VECTOR('',#1110,0.154715896732137);
#309=VECTOR('',#1111,0.2);
#310=VECTOR('',#1118,0.2);
#311=VECTOR('',#1121,0.339893379707417);
#312=VECTOR('',#1122,0.339893379707417);
#313=VECTOR('',#1123,0.2);
#314=VECTOR('',#1130,0.2);
#315=VECTOR('',#1133,0.214300686678174);
#316=VECTOR('',#1134,0.214300686678174);
#317=VECTOR('',#1135,0.2);
#318=VECTOR('',#1138,0.1);
#319=VECTOR('',#1139,0.1);
#320=VECTOR('',#1140,0.2);
#321=VECTOR('',#1143,0.214300686678174);
#322=VECTOR('',#1144,0.214300686678174);
#323=VECTOR('',#1145,0.2);
#324=VECTOR('',#1152,0.2);
#325=VECTOR('',#1155,0.339893379707417);
#326=VECTOR('',#1156,0.339893379707417);
#327=VECTOR('',#1157,0.2);
#328=VECTOR('',#1164,0.2);
#329=VECTOR('',#1167,0.154715896732137);
#330=VECTOR('',#1168,0.154715896732137);
#331=VECTOR('',#1175,0.1);
#332=VECTOR('',#1176,0.2);
#333=VECTOR('',#1177,0.1);
#334=VECTOR('',#1178,0.2);
#335=VECTOR('',#1181,0.154715896732137);
#336=VECTOR('',#1182,0.154715896732137);
#337=VECTOR('',#1183,0.2);
#338=VECTOR('',#1190,0.2);
#339=VECTOR('',#1193,0.339893379707417);
#340=VECTOR('',#1194,0.339893379707417);
#341=VECTOR('',#1195,0.2);
#342=VECTOR('',#1202,0.2);
#343=VECTOR('',#1205,0.214300686678174);
#344=VECTOR('',#1206,0.214300686678174);
#345=VECTOR('',#1207,0.2);
#346=VECTOR('',#1210,0.1);
#347=VECTOR('',#1211,0.1);
#348=VECTOR('',#1212,0.2);
#349=VECTOR('',#1215,0.214300686678174);
#350=VECTOR('',#1216,0.214300686678174);
#351=VECTOR('',#1217,0.2);
#352=VECTOR('',#1224,0.2);
#353=VECTOR('',#1227,0.339893379707417);
#354=VECTOR('',#1228,0.339893379707417);
#355=VECTOR('',#1229,0.2);
#356=VECTOR('',#1236,0.2);
#357=VECTOR('',#1239,0.154715896732137);
#358=VECTOR('',#1240,0.154715896732137);
#359=VECTOR('',#1247,0.1);
#360=VECTOR('',#1248,0.2);
#361=VECTOR('',#1249,0.1);
#362=VECTOR('',#1250,0.2);
#363=VECTOR('',#1253,0.154715896732137);
#364=VECTOR('',#1254,0.2);
#365=VECTOR('',#1255,0.154715896732137);
#366=VECTOR('',#1260,0.2);
#367=VECTOR('',#1265,0.339893379707417);
#368=VECTOR('',#1266,0.2);
#369=VECTOR('',#1267,0.339893379707417);
#370=VECTOR('',#1272,0.2);
#371=VECTOR('',#1277,0.214300686678174);
#372=VECTOR('',#1278,0.2);
#373=VECTOR('',#1279,0.214300686678174);
#374=VECTOR('',#1282,0.1);
#375=VECTOR('',#1283,0.2);
#376=VECTOR('',#1284,0.1);
#377=VECTOR('',#1287,0.214300686678174);
#378=VECTOR('',#1288,0.2);
#379=VECTOR('',#1289,0.214300686678174);
#380=VECTOR('',#1294,0.2);
#381=VECTOR('',#1299,0.339893379707417);
#382=VECTOR('',#1300,0.2);
#383=VECTOR('',#1301,0.339893379707417);
#384=VECTOR('',#1306,0.2);
#385=VECTOR('',#1311,0.154715896732137);
#386=VECTOR('',#1312,0.154715896732137);
#387=VERTEX_POINT('',#1319);
#388=VERTEX_POINT('',#1320);
#389=VERTEX_POINT('',#1322);
#390=VERTEX_POINT('',#1324);
#391=VERTEX_POINT('',#1328);
#392=VERTEX_POINT('',#1330);
#393=VERTEX_POINT('',#1334);
#394=VERTEX_POINT('',#1336);
#395=VERTEX_POINT('',#1345);
#396=VERTEX_POINT('',#1346);
#397=VERTEX_POINT('',#1348);
#398=VERTEX_POINT('',#1350);
#399=VERTEX_POINT('',#1354);
#400=VERTEX_POINT('',#1356);
#401=VERTEX_POINT('',#1360);
#402=VERTEX_POINT('',#1362);
#403=VERTEX_POINT('',#1371);
#404=VERTEX_POINT('',#1372);
#405=VERTEX_POINT('',#1374);
#406=VERTEX_POINT('',#1376);
#407=VERTEX_POINT('',#1380);
#408=VERTEX_POINT('',#1382);
#409=VERTEX_POINT('',#1386);
#410=VERTEX_POINT('',#1388);
#411=VERTEX_POINT('',#1392);
#412=VERTEX_POINT('',#1394);
#413=VERTEX_POINT('',#1398);
#414=VERTEX_POINT('',#1400);
#415=VERTEX_POINT('',#1404);
#416=VERTEX_POINT('',#1406);
#417=VERTEX_POINT('',#1410);
#418=VERTEX_POINT('',#1412);
#419=VERTEX_POINT('',#1416);
#420=VERTEX_POINT('',#1418);
#421=VERTEX_POINT('',#1422);
#422=VERTEX_POINT('',#1424);
#423=VERTEX_POINT('',#1428);
#424=VERTEX_POINT('',#1430);
#425=VERTEX_POINT('',#1434);
#426=VERTEX_POINT('',#1436);
#427=VERTEX_POINT('',#1445);
#428=VERTEX_POINT('',#1446);
#429=VERTEX_POINT('',#1448);
#430=VERTEX_POINT('',#1450);
#431=VERTEX_POINT('',#1454);
#432=VERTEX_POINT('',#1456);
#433=VERTEX_POINT('',#1460);
#434=VERTEX_POINT('',#1462);
#435=VERTEX_POINT('',#1466);
#436=VERTEX_POINT('',#1468);
#437=VERTEX_POINT('',#1472);
#438=VERTEX_POINT('',#1474);
#439=VERTEX_POINT('',#1478);
#440=VERTEX_POINT('',#1480);
#441=VERTEX_POINT('',#1484);
#442=VERTEX_POINT('',#1486);
#443=VERTEX_POINT('',#1490);
#444=VERTEX_POINT('',#1492);
#445=VERTEX_POINT('',#1496);
#446=VERTEX_POINT('',#1498);
#447=VERTEX_POINT('',#1502);
#448=VERTEX_POINT('',#1504);
#449=VERTEX_POINT('',#1508);
#450=VERTEX_POINT('',#1510);
#451=VERTEX_POINT('',#1519);
#452=VERTEX_POINT('',#1520);
#453=VERTEX_POINT('',#1522);
#454=VERTEX_POINT('',#1524);
#455=VERTEX_POINT('',#1528);
#456=VERTEX_POINT('',#1530);
#457=VERTEX_POINT('',#1534);
#458=VERTEX_POINT('',#1536);
#459=VERTEX_POINT('',#1540);
#460=VERTEX_POINT('',#1542);
#461=VERTEX_POINT('',#1546);
#462=VERTEX_POINT('',#1548);
#463=VERTEX_POINT('',#1552);
#464=VERTEX_POINT('',#1554);
#465=VERTEX_POINT('',#1558);
#466=VERTEX_POINT('',#1560);
#467=VERTEX_POINT('',#1564);
#468=VERTEX_POINT('',#1566);
#469=VERTEX_POINT('',#1570);
#470=VERTEX_POINT('',#1572);
#471=VERTEX_POINT('',#1576);
#472=VERTEX_POINT('',#1578);
#473=VERTEX_POINT('',#1582);
#474=VERTEX_POINT('',#1584);
#475=EDGE_CURVE('',#387,#388,#171,.T.);
#476=EDGE_CURVE('',#387,#389,#172,.T.);
#477=EDGE_CURVE('',#389,#390,#173,.T.);
#478=EDGE_CURVE('',#390,#388,#174,.T.);
#479=EDGE_CURVE('',#391,#389,#175,.T.);
#480=EDGE_CURVE('',#392,#387,#176,.T.);
#481=EDGE_CURVE('',#391,#392,#177,.T.);
#482=EDGE_CURVE('',#388,#393,#178,.T.);
#483=EDGE_CURVE('',#390,#394,#179,.T.);
#484=EDGE_CURVE('',#394,#393,#180,.T.);
#485=EDGE_CURVE('',#393,#392,#181,.T.);
#486=EDGE_CURVE('',#394,#391,#182,.T.);
#487=EDGE_CURVE('',#395,#396,#183,.T.);
#488=EDGE_CURVE('',#396,#397,#184,.T.);
#489=EDGE_CURVE('',#398,#397,#185,.T.);
#490=EDGE_CURVE('',#398,#395,#186,.T.);
#491=EDGE_CURVE('',#397,#399,#187,.T.);
#492=EDGE_CURVE('',#396,#400,#188,.T.);
#493=EDGE_CURVE('',#399,#400,#189,.T.);
#494=EDGE_CURVE('',#401,#395,#190,.T.);
#495=EDGE_CURVE('',#402,#398,#191,.T.);
#496=EDGE_CURVE('',#402,#401,#192,.T.);
#497=EDGE_CURVE('',#400,#401,#193,.T.);
#498=EDGE_CURVE('',#399,#402,#194,.T.);
#499=EDGE_CURVE('',#403,#404,#195,.T.);
#500=EDGE_CURVE('',#404,#405,#196,.T.);
#501=EDGE_CURVE('',#406,#405,#197,.T.);
#502=EDGE_CURVE('',#403,#406,#198,.T.);
#503=EDGE_CURVE('',#407,#403,#199,.T.);
#504=EDGE_CURVE('',#408,#406,#200,.T.);
#505=EDGE_CURVE('',#407,#408,#201,.T.);
#506=EDGE_CURVE('',#409,#407,#15,.T.);
#507=EDGE_CURVE('',#410,#408,#16,.T.);
#508=EDGE_CURVE('',#409,#410,#202,.T.);
#509=EDGE_CURVE('',#411,#409,#203,.T.);
#510=EDGE_CURVE('',#412,#410,#204,.T.);
#511=EDGE_CURVE('',#411,#412,#205,.T.);
#512=EDGE_CURVE('',#413,#411,#17,.T.);
#513=EDGE_CURVE('',#414,#412,#18,.T.);
#514=EDGE_CURVE('',#413,#414,#206,.T.);
#515=EDGE_CURVE('',#415,#413,#207,.T.);
#516=EDGE_CURVE('',#416,#414,#208,.T.);
#517=EDGE_CURVE('',#415,#416,#209,.T.);
#518=EDGE_CURVE('',#417,#415,#210,.T.);
#519=EDGE_CURVE('',#418,#416,#211,.T.);
#520=EDGE_CURVE('',#417,#418,#212,.T.);
#521=EDGE_CURVE('',#419,#417,#213,.T.);
#522=EDGE_CURVE('',#420,#418,#214,.T.);
#523=EDGE_CURVE('',#419,#420,#215,.T.);
#524=EDGE_CURVE('',#421,#419,#19,.T.);
#525=EDGE_CURVE('',#422,#420,#20,.T.);
#526=EDGE_CURVE('',#421,#422,#216,.T.);
#527=EDGE_CURVE('',#423,#421,#217,.T.);
#528=EDGE_CURVE('',#424,#422,#218,.T.);
#529=EDGE_CURVE('',#423,#424,#219,.T.);
#530=EDGE_CURVE('',#425,#423,#21,.T.);
#531=EDGE_CURVE('',#426,#424,#22,.T.);
#532=EDGE_CURVE('',#425,#426,#220,.T.);
#533=EDGE_CURVE('',#404,#425,#221,.T.);
#534=EDGE_CURVE('',#405,#426,#222,.T.);
#535=EDGE_CURVE('',#427,#428,#223,.T.);
#536=EDGE_CURVE('',#428,#429,#224,.T.);
#537=EDGE_CURVE('',#430,#429,#225,.T.);
#538=EDGE_CURVE('',#427,#430,#226,.T.);
#539=EDGE_CURVE('',#431,#427,#227,.T.);
#540=EDGE_CURVE('',#432,#430,#228,.T.);
#541=EDGE_CURVE('',#431,#432,#229,.T.);
#542=EDGE_CURVE('',#433,#431,#23,.T.);
#543=EDGE_CURVE('',#434,#432,#24,.T.);
#544=EDGE_CURVE('',#433,#434,#230,.T.);
#545=EDGE_CURVE('',#435,#433,#231,.T.);
#546=EDGE_CURVE('',#436,#434,#232,.T.);
#547=EDGE_CURVE('',#435,#436,#233,.T.);
#548=EDGE_CURVE('',#437,#435,#25,.T.);
#549=EDGE_CURVE('',#438,#436,#26,.T.);
#550=EDGE_CURVE('',#437,#438,#234,.T.);
#551=EDGE_CURVE('',#439,#437,#235,.T.);
#552=EDGE_CURVE('',#440,#438,#236,.T.);
#553=EDGE_CURVE('',#439,#440,#237,.T.);
#554=EDGE_CURVE('',#441,#439,#238,.T.);
#555=EDGE_CURVE('',#442,#440,#239,.T.);
#556=EDGE_CURVE('',#441,#442,#240,.T.);
#557=EDGE_CURVE('',#443,#441,#241,.T.);
#558=EDGE_CURVE('',#444,#442,#242,.T.);
#559=EDGE_CURVE('',#443,#444,#243,.T.);
#560=EDGE_CURVE('',#445,#443,#27,.T.);
#561=EDGE_CURVE('',#446,#444,#28,.T.);
#562=EDGE_CURVE('',#445,#446,#244,.T.);
#563=EDGE_CURVE('',#447,#445,#245,.T.);
#564=EDGE_CURVE('',#448,#446,#246,.T.);
#565=EDGE_CURVE('',#447,#448,#247,.T.);
#566=EDGE_CURVE('',#449,#447,#29,.T.);
#567=EDGE_CURVE('',#450,#448,#30,.T.);
#568=EDGE_CURVE('',#449,#450,#248,.T.);
#569=EDGE_CURVE('',#428,#449,#249,.T.);
#570=EDGE_CURVE('',#429,#450,#250,.T.);
#571=EDGE_CURVE('',#451,#452,#251,.T.);
#572=EDGE_CURVE('',#451,#453,#252,.T.);
#573=EDGE_CURVE('',#453,#454,#253,.T.);
#574=EDGE_CURVE('',#452,#454,#254,.T.);
#575=EDGE_CURVE('',#455,#451,#255,.T.);
#576=EDGE_CURVE('',#455,#456,#256,.T.);
#577=EDGE_CURVE('',#456,#453,#257,.T.);
#578=EDGE_CURVE('',#457,#455,#31,.T.);
#579=EDGE_CURVE('',#457,#458,#258,.T.);
#580=EDGE_CURVE('',#458,#456,#32,.T.);
#581=EDGE_CURVE('',#459,#457,#259,.T.);
#582=EDGE_CURVE('',#459,#460,#260,.T.);
#583=EDGE_CURVE('',#460,#458,#261,.T.);
#584=EDGE_CURVE('',#461,#459,#33,.T.);
#585=EDGE_CURVE('',#461,#462,#262,.T.);
#586=EDGE_CURVE('',#462,#460,#34,.T.);
#587=EDGE_CURVE('',#463,#461,#263,.T.);
#588=EDGE_CURVE('',#463,#464,#264,.T.);
#589=EDGE_CURVE('',#464,#462,#265,.T.);
#590=EDGE_CURVE('',#465,#463,#266,.T.);
#591=EDGE_CURVE('',#465,#466,#267,.T.);
#592=EDGE_CURVE('',#466,#464,#268,.T.);
#593=EDGE_CURVE('',#467,#465,#269,.T.);
#594=EDGE_CURVE('',#467,#468,#270,.T.);
#595=EDGE_CURVE('',#468,#466,#271,.T.);
#596=EDGE_CURVE('',#469,#467,#35,.T.);
#597=EDGE_CURVE('',#469,#470,#272,.T.);
#598=EDGE_CURVE('',#470,#468,#36,.T.);
#599=EDGE_CURVE('',#471,#469,#273,.T.);
#600=EDGE_CURVE('',#471,#472,#274,.T.);
#601=EDGE_CURVE('',#472,#470,#275,.T.);
#602=EDGE_CURVE('',#473,#471,#37,.T.);
#603=EDGE_CURVE('',#473,#474,#276,.T.);
#604=EDGE_CURVE('',#474,#472,#38,.T.);
#605=EDGE_CURVE('',#452,#473,#277,.T.);
#606=EDGE_CURVE('',#454,#474,#278,.T.);
#607=ORIENTED_EDGE('',*,*,#475,.F.);
#608=ORIENTED_EDGE('',*,*,#476,.T.);
#609=ORIENTED_EDGE('',*,*,#477,.T.);
#610=ORIENTED_EDGE('',*,*,#478,.T.);
#611=ORIENTED_EDGE('',*,*,#479,.T.);
#612=ORIENTED_EDGE('',*,*,#476,.F.);
#613=ORIENTED_EDGE('',*,*,#480,.F.);
#614=ORIENTED_EDGE('',*,*,#481,.F.);
#615=ORIENTED_EDGE('',*,*,#482,.F.);
#616=ORIENTED_EDGE('',*,*,#478,.F.);
#617=ORIENTED_EDGE('',*,*,#483,.T.);
#618=ORIENTED_EDGE('',*,*,#484,.T.);
#619=ORIENTED_EDGE('',*,*,#485,.F.);
#620=ORIENTED_EDGE('',*,*,#484,.F.);
#621=ORIENTED_EDGE('',*,*,#486,.T.);
#622=ORIENTED_EDGE('',*,*,#481,.T.);
#623=ORIENTED_EDGE('',*,*,#477,.F.);
#624=ORIENTED_EDGE('',*,*,#479,.F.);
#625=ORIENTED_EDGE('',*,*,#486,.F.);
#626=ORIENTED_EDGE('',*,*,#483,.F.);
#627=ORIENTED_EDGE('',*,*,#475,.T.);
#628=ORIENTED_EDGE('',*,*,#482,.T.);
#629=ORIENTED_EDGE('',*,*,#485,.T.);
#630=ORIENTED_EDGE('',*,*,#480,.T.);
#631=ORIENTED_EDGE('',*,*,#487,.T.);
#632=ORIENTED_EDGE('',*,*,#488,.T.);
#633=ORIENTED_EDGE('',*,*,#489,.F.);
#634=ORIENTED_EDGE('',*,*,#490,.T.);
#635=ORIENTED_EDGE('',*,*,#491,.F.);
#636=ORIENTED_EDGE('',*,*,#488,.F.);
#637=ORIENTED_EDGE('',*,*,#492,.T.);
#638=ORIENTED_EDGE('',*,*,#493,.F.);
#639=ORIENTED_EDGE('',*,*,#494,.T.);
#640=ORIENTED_EDGE('',*,*,#490,.F.);
#641=ORIENTED_EDGE('',*,*,#495,.F.);
#642=ORIENTED_EDGE('',*,*,#496,.T.);
#643=ORIENTED_EDGE('',*,*,#497,.T.);
#644=ORIENTED_EDGE('',*,*,#496,.F.);
#645=ORIENTED_EDGE('',*,*,#498,.F.);
#646=ORIENTED_EDGE('',*,*,#493,.T.);
#647=ORIENTED_EDGE('',*,*,#487,.F.);
#648=ORIENTED_EDGE('',*,*,#494,.F.);
#649=ORIENTED_EDGE('',*,*,#497,.F.);
#650=ORIENTED_EDGE('',*,*,#492,.F.);
#651=ORIENTED_EDGE('',*,*,#489,.T.);
#652=ORIENTED_EDGE('',*,*,#491,.T.);
#653=ORIENTED_EDGE('',*,*,#498,.T.);
#654=ORIENTED_EDGE('',*,*,#495,.T.);
#655=ORIENTED_EDGE('',*,*,#499,.T.);
#656=ORIENTED_EDGE('',*,*,#500,.T.);
#657=ORIENTED_EDGE('',*,*,#501,.F.);
#658=ORIENTED_EDGE('',*,*,#502,.F.);
#659=ORIENTED_EDGE('',*,*,#503,.T.);
#660=ORIENTED_EDGE('',*,*,#502,.T.);
#661=ORIENTED_EDGE('',*,*,#504,.F.);
#662=ORIENTED_EDGE('',*,*,#505,.F.);
#663=ORIENTED_EDGE('',*,*,#506,.T.);
#664=ORIENTED_EDGE('',*,*,#505,.T.);
#665=ORIENTED_EDGE('',*,*,#507,.F.);
#666=ORIENTED_EDGE('',*,*,#508,.F.);
#667=ORIENTED_EDGE('',*,*,#509,.T.);
#668=ORIENTED_EDGE('',*,*,#508,.T.);
#669=ORIENTED_EDGE('',*,*,#510,.F.);
#670=ORIENTED_EDGE('',*,*,#511,.F.);
#671=ORIENTED_EDGE('',*,*,#512,.T.);
#672=ORIENTED_EDGE('',*,*,#511,.T.);
#673=ORIENTED_EDGE('',*,*,#513,.F.);
#674=ORIENTED_EDGE('',*,*,#514,.F.);
#675=ORIENTED_EDGE('',*,*,#515,.T.);
#676=ORIENTED_EDGE('',*,*,#514,.T.);
#677=ORIENTED_EDGE('',*,*,#516,.F.);
#678=ORIENTED_EDGE('',*,*,#517,.F.);
#679=ORIENTED_EDGE('',*,*,#518,.T.);
#680=ORIENTED_EDGE('',*,*,#517,.T.);
#681=ORIENTED_EDGE('',*,*,#519,.F.);
#682=ORIENTED_EDGE('',*,*,#520,.F.);
#683=ORIENTED_EDGE('',*,*,#521,.T.);
#684=ORIENTED_EDGE('',*,*,#520,.T.);
#685=ORIENTED_EDGE('',*,*,#522,.F.);
#686=ORIENTED_EDGE('',*,*,#523,.F.);
#687=ORIENTED_EDGE('',*,*,#524,.T.);
#688=ORIENTED_EDGE('',*,*,#523,.T.);
#689=ORIENTED_EDGE('',*,*,#525,.F.);
#690=ORIENTED_EDGE('',*,*,#526,.F.);
#691=ORIENTED_EDGE('',*,*,#527,.T.);
#692=ORIENTED_EDGE('',*,*,#526,.T.);
#693=ORIENTED_EDGE('',*,*,#528,.F.);
#694=ORIENTED_EDGE('',*,*,#529,.F.);
#695=ORIENTED_EDGE('',*,*,#530,.T.);
#696=ORIENTED_EDGE('',*,*,#529,.T.);
#697=ORIENTED_EDGE('',*,*,#531,.F.);
#698=ORIENTED_EDGE('',*,*,#532,.F.);
#699=ORIENTED_EDGE('',*,*,#533,.T.);
#700=ORIENTED_EDGE('',*,*,#532,.T.);
#701=ORIENTED_EDGE('',*,*,#534,.F.);
#702=ORIENTED_EDGE('',*,*,#500,.F.);
#703=ORIENTED_EDGE('',*,*,#534,.T.);
#704=ORIENTED_EDGE('',*,*,#531,.T.);
#705=ORIENTED_EDGE('',*,*,#528,.T.);
#706=ORIENTED_EDGE('',*,*,#525,.T.);
#707=ORIENTED_EDGE('',*,*,#522,.T.);
#708=ORIENTED_EDGE('',*,*,#519,.T.);
#709=ORIENTED_EDGE('',*,*,#516,.T.);
#710=ORIENTED_EDGE('',*,*,#513,.T.);
#711=ORIENTED_EDGE('',*,*,#510,.T.);
#712=ORIENTED_EDGE('',*,*,#507,.T.);
#713=ORIENTED_EDGE('',*,*,#504,.T.);
#714=ORIENTED_EDGE('',*,*,#501,.T.);
#715=ORIENTED_EDGE('',*,*,#533,.F.);
#716=ORIENTED_EDGE('',*,*,#499,.F.);
#717=ORIENTED_EDGE('',*,*,#503,.F.);
#718=ORIENTED_EDGE('',*,*,#506,.F.);
#719=ORIENTED_EDGE('',*,*,#509,.F.);
#720=ORIENTED_EDGE('',*,*,#512,.F.);
#721=ORIENTED_EDGE('',*,*,#515,.F.);
#722=ORIENTED_EDGE('',*,*,#518,.F.);
#723=ORIENTED_EDGE('',*,*,#521,.F.);
#724=ORIENTED_EDGE('',*,*,#524,.F.);
#725=ORIENTED_EDGE('',*,*,#527,.F.);
#726=ORIENTED_EDGE('',*,*,#530,.F.);
#727=ORIENTED_EDGE('',*,*,#535,.T.);
#728=ORIENTED_EDGE('',*,*,#536,.T.);
#729=ORIENTED_EDGE('',*,*,#537,.F.);
#730=ORIENTED_EDGE('',*,*,#538,.F.);
#731=ORIENTED_EDGE('',*,*,#539,.T.);
#732=ORIENTED_EDGE('',*,*,#538,.T.);
#733=ORIENTED_EDGE('',*,*,#540,.F.);
#734=ORIENTED_EDGE('',*,*,#541,.F.);
#735=ORIENTED_EDGE('',*,*,#542,.T.);
#736=ORIENTED_EDGE('',*,*,#541,.T.);
#737=ORIENTED_EDGE('',*,*,#543,.F.);
#738=ORIENTED_EDGE('',*,*,#544,.F.);
#739=ORIENTED_EDGE('',*,*,#545,.T.);
#740=ORIENTED_EDGE('',*,*,#544,.T.);
#741=ORIENTED_EDGE('',*,*,#546,.F.);
#742=ORIENTED_EDGE('',*,*,#547,.F.);
#743=ORIENTED_EDGE('',*,*,#548,.T.);
#744=ORIENTED_EDGE('',*,*,#547,.T.);
#745=ORIENTED_EDGE('',*,*,#549,.F.);
#746=ORIENTED_EDGE('',*,*,#550,.F.);
#747=ORIENTED_EDGE('',*,*,#551,.T.);
#748=ORIENTED_EDGE('',*,*,#550,.T.);
#749=ORIENTED_EDGE('',*,*,#552,.F.);
#750=ORIENTED_EDGE('',*,*,#553,.F.);
#751=ORIENTED_EDGE('',*,*,#554,.T.);
#752=ORIENTED_EDGE('',*,*,#553,.T.);
#753=ORIENTED_EDGE('',*,*,#555,.F.);
#754=ORIENTED_EDGE('',*,*,#556,.F.);
#755=ORIENTED_EDGE('',*,*,#557,.T.);
#756=ORIENTED_EDGE('',*,*,#556,.T.);
#757=ORIENTED_EDGE('',*,*,#558,.F.);
#758=ORIENTED_EDGE('',*,*,#559,.F.);
#759=ORIENTED_EDGE('',*,*,#560,.T.);
#760=ORIENTED_EDGE('',*,*,#559,.T.);
#761=ORIENTED_EDGE('',*,*,#561,.F.);
#762=ORIENTED_EDGE('',*,*,#562,.F.);
#763=ORIENTED_EDGE('',*,*,#563,.T.);
#764=ORIENTED_EDGE('',*,*,#562,.T.);
#765=ORIENTED_EDGE('',*,*,#564,.F.);
#766=ORIENTED_EDGE('',*,*,#565,.F.);
#767=ORIENTED_EDGE('',*,*,#566,.T.);
#768=ORIENTED_EDGE('',*,*,#565,.T.);
#769=ORIENTED_EDGE('',*,*,#567,.F.);
#770=ORIENTED_EDGE('',*,*,#568,.F.);
#771=ORIENTED_EDGE('',*,*,#569,.T.);
#772=ORIENTED_EDGE('',*,*,#568,.T.);
#773=ORIENTED_EDGE('',*,*,#570,.F.);
#774=ORIENTED_EDGE('',*,*,#536,.F.);
#775=ORIENTED_EDGE('',*,*,#570,.T.);
#776=ORIENTED_EDGE('',*,*,#567,.T.);
#777=ORIENTED_EDGE('',*,*,#564,.T.);
#778=ORIENTED_EDGE('',*,*,#561,.T.);
#779=ORIENTED_EDGE('',*,*,#558,.T.);
#780=ORIENTED_EDGE('',*,*,#555,.T.);
#781=ORIENTED_EDGE('',*,*,#552,.T.);
#782=ORIENTED_EDGE('',*,*,#549,.T.);
#783=ORIENTED_EDGE('',*,*,#546,.T.);
#784=ORIENTED_EDGE('',*,*,#543,.T.);
#785=ORIENTED_EDGE('',*,*,#540,.T.);
#786=ORIENTED_EDGE('',*,*,#537,.T.);
#787=ORIENTED_EDGE('',*,*,#569,.F.);
#788=ORIENTED_EDGE('',*,*,#535,.F.);
#789=ORIENTED_EDGE('',*,*,#539,.F.);
#790=ORIENTED_EDGE('',*,*,#542,.F.);
#791=ORIENTED_EDGE('',*,*,#545,.F.);
#792=ORIENTED_EDGE('',*,*,#548,.F.);
#793=ORIENTED_EDGE('',*,*,#551,.F.);
#794=ORIENTED_EDGE('',*,*,#554,.F.);
#795=ORIENTED_EDGE('',*,*,#557,.F.);
#796=ORIENTED_EDGE('',*,*,#560,.F.);
#797=ORIENTED_EDGE('',*,*,#563,.F.);
#798=ORIENTED_EDGE('',*,*,#566,.F.);
#799=ORIENTED_EDGE('',*,*,#571,.F.);
#800=ORIENTED_EDGE('',*,*,#572,.T.);
#801=ORIENTED_EDGE('',*,*,#573,.T.);
#802=ORIENTED_EDGE('',*,*,#574,.F.);
#803=ORIENTED_EDGE('',*,*,#575,.F.);
#804=ORIENTED_EDGE('',*,*,#576,.T.);
#805=ORIENTED_EDGE('',*,*,#577,.T.);
#806=ORIENTED_EDGE('',*,*,#572,.F.);
#807=ORIENTED_EDGE('',*,*,#578,.F.);
#808=ORIENTED_EDGE('',*,*,#579,.T.);
#809=ORIENTED_EDGE('',*,*,#580,.T.);
#810=ORIENTED_EDGE('',*,*,#576,.F.);
#811=ORIENTED_EDGE('',*,*,#581,.F.);
#812=ORIENTED_EDGE('',*,*,#582,.T.);
#813=ORIENTED_EDGE('',*,*,#583,.T.);
#814=ORIENTED_EDGE('',*,*,#579,.F.);
#815=ORIENTED_EDGE('',*,*,#584,.F.);
#816=ORIENTED_EDGE('',*,*,#585,.T.);
#817=ORIENTED_EDGE('',*,*,#586,.T.);
#818=ORIENTED_EDGE('',*,*,#582,.F.);
#819=ORIENTED_EDGE('',*,*,#587,.F.);
#820=ORIENTED_EDGE('',*,*,#588,.T.);
#821=ORIENTED_EDGE('',*,*,#589,.T.);
#822=ORIENTED_EDGE('',*,*,#585,.F.);
#823=ORIENTED_EDGE('',*,*,#590,.F.);
#824=ORIENTED_EDGE('',*,*,#591,.T.);
#825=ORIENTED_EDGE('',*,*,#592,.T.);
#826=ORIENTED_EDGE('',*,*,#588,.F.);
#827=ORIENTED_EDGE('',*,*,#593,.F.);
#828=ORIENTED_EDGE('',*,*,#594,.T.);
#829=ORIENTED_EDGE('',*,*,#595,.T.);
#830=ORIENTED_EDGE('',*,*,#591,.F.);
#831=ORIENTED_EDGE('',*,*,#596,.F.);
#832=ORIENTED_EDGE('',*,*,#597,.T.);
#833=ORIENTED_EDGE('',*,*,#598,.T.);
#834=ORIENTED_EDGE('',*,*,#594,.F.);
#835=ORIENTED_EDGE('',*,*,#599,.F.);
#836=ORIENTED_EDGE('',*,*,#600,.T.);
#837=ORIENTED_EDGE('',*,*,#601,.T.);
#838=ORIENTED_EDGE('',*,*,#597,.F.);
#839=ORIENTED_EDGE('',*,*,#602,.F.);
#840=ORIENTED_EDGE('',*,*,#603,.T.);
#841=ORIENTED_EDGE('',*,*,#604,.T.);
#842=ORIENTED_EDGE('',*,*,#600,.F.);
#843=ORIENTED_EDGE('',*,*,#605,.F.);
#844=ORIENTED_EDGE('',*,*,#574,.T.);
#845=ORIENTED_EDGE('',*,*,#606,.T.);
#846=ORIENTED_EDGE('',*,*,#603,.F.);
#847=ORIENTED_EDGE('',*,*,#606,.F.);
#848=ORIENTED_EDGE('',*,*,#573,.F.);
#849=ORIENTED_EDGE('',*,*,#577,.F.);
#850=ORIENTED_EDGE('',*,*,#580,.F.);
#851=ORIENTED_EDGE('',*,*,#583,.F.);
#852=ORIENTED_EDGE('',*,*,#586,.F.);
#853=ORIENTED_EDGE('',*,*,#589,.F.);
#854=ORIENTED_EDGE('',*,*,#592,.F.);
#855=ORIENTED_EDGE('',*,*,#595,.F.);
#856=ORIENTED_EDGE('',*,*,#598,.F.);
#857=ORIENTED_EDGE('',*,*,#601,.F.);
#858=ORIENTED_EDGE('',*,*,#604,.F.);
#859=ORIENTED_EDGE('',*,*,#605,.T.);
#860=ORIENTED_EDGE('',*,*,#602,.T.);
#861=ORIENTED_EDGE('',*,*,#599,.T.);
#862=ORIENTED_EDGE('',*,*,#596,.T.);
#863=ORIENTED_EDGE('',*,*,#593,.T.);
#864=ORIENTED_EDGE('',*,*,#590,.T.);
#865=ORIENTED_EDGE('',*,*,#587,.T.);
#866=ORIENTED_EDGE('',*,*,#584,.T.);
#867=ORIENTED_EDGE('',*,*,#581,.T.);
#868=ORIENTED_EDGE('',*,*,#578,.T.);
#869=ORIENTED_EDGE('',*,*,#575,.T.);
#870=ORIENTED_EDGE('',*,*,#571,.T.);
#871=PLANE('',#973);
#872=PLANE('',#974);
#873=PLANE('',#975);
#874=PLANE('',#976);
#875=PLANE('',#977);
#876=PLANE('',#978);
#877=PLANE('',#979);
#878=PLANE('',#980);
#879=PLANE('',#981);
#880=PLANE('',#982);
#881=PLANE('',#983);
#882=PLANE('',#984);
#883=PLANE('',#985);
#884=PLANE('',#986);
#885=PLANE('',#990);
#886=PLANE('',#994);
#887=PLANE('',#995);
#888=PLANE('',#996);
#889=PLANE('',#1000);
#890=PLANE('',#1004);
#891=PLANE('',#1005);
#892=PLANE('',#1006);
#893=PLANE('',#1007);
#894=PLANE('',#1008);
#895=PLANE('',#1012);
#896=PLANE('',#1016);
#897=PLANE('',#1017);
#898=PLANE('',#1018);
#899=PLANE('',#1022);
#900=PLANE('',#1026);
#901=PLANE('',#1027);
#902=PLANE('',#1028);
#903=PLANE('',#1029);
#904=PLANE('',#1030);
#905=PLANE('',#1034);
#906=PLANE('',#1038);
#907=PLANE('',#1039);
#908=PLANE('',#1040);
#909=PLANE('',#1044);
#910=PLANE('',#1048);
#911=PLANE('',#1049);
#912=PLANE('',#1050);
#913=ADVANCED_FACE('',(#63),#871,.T.);
#914=ADVANCED_FACE('',(#64),#872,.T.);
#915=ADVANCED_FACE('',(#65),#873,.T.);
#916=ADVANCED_FACE('',(#66),#874,.T.);
#917=ADVANCED_FACE('',(#67),#875,.F.);
#918=ADVANCED_FACE('',(#68),#876,.T.);
#919=ADVANCED_FACE('',(#69),#877,.T.);
#920=ADVANCED_FACE('',(#70),#878,.T.);
#921=ADVANCED_FACE('',(#71),#879,.T.);
#922=ADVANCED_FACE('',(#72),#880,.T.);
#923=ADVANCED_FACE('',(#73),#881,.T.);
#924=ADVANCED_FACE('',(#74),#882,.T.);
#925=ADVANCED_FACE('',(#75),#883,.T.);
#926=ADVANCED_FACE('',(#76),#884,.T.);
#927=ADVANCED_FACE('',(#77),#39,.F.);
#928=ADVANCED_FACE('',(#78),#885,.T.);
#929=ADVANCED_FACE('',(#79),#40,.T.);
#930=ADVANCED_FACE('',(#80),#886,.T.);
#931=ADVANCED_FACE('',(#81),#887,.T.);
#932=ADVANCED_FACE('',(#82),#888,.T.);
#933=ADVANCED_FACE('',(#83),#41,.F.);
#934=ADVANCED_FACE('',(#84),#889,.T.);
#935=ADVANCED_FACE('',(#85),#42,.T.);
#936=ADVANCED_FACE('',(#86),#890,.T.);
#937=ADVANCED_FACE('',(#87),#891,.T.);
#938=ADVANCED_FACE('',(#88),#892,.F.);
#939=ADVANCED_FACE('',(#89),#893,.T.);
#940=ADVANCED_FACE('',(#90),#894,.T.);
#941=ADVANCED_FACE('',(#91),#43,.F.);
#942=ADVANCED_FACE('',(#92),#895,.T.);
#943=ADVANCED_FACE('',(#93),#44,.T.);
#944=ADVANCED_FACE('',(#94),#896,.T.);
#945=ADVANCED_FACE('',(#95),#897,.T.);
#946=ADVANCED_FACE('',(#96),#898,.T.);
#947=ADVANCED_FACE('',(#97),#45,.F.);
#948=ADVANCED_FACE('',(#98),#899,.T.);
#949=ADVANCED_FACE('',(#99),#46,.T.);
#950=ADVANCED_FACE('',(#100),#900,.T.);
#951=ADVANCED_FACE('',(#101),#901,.T.);
#952=ADVANCED_FACE('',(#102),#902,.F.);
#953=ADVANCED_FACE('',(#103),#903,.F.);
#954=ADVANCED_FACE('',(#104),#904,.F.);
#955=ADVANCED_FACE('',(#105),#47,.F.);
#956=ADVANCED_FACE('',(#106),#905,.F.);
#957=ADVANCED_FACE('',(#107),#48,.T.);
#958=ADVANCED_FACE('',(#108),#906,.F.);
#959=ADVANCED_FACE('',(#109),#907,.F.);
#960=ADVANCED_FACE('',(#110),#908,.F.);
#961=ADVANCED_FACE('',(#111),#49,.F.);
#962=ADVANCED_FACE('',(#112),#909,.F.);
#963=ADVANCED_FACE('',(#113),#50,.T.);
#964=ADVANCED_FACE('',(#114),#910,.F.);
#965=ADVANCED_FACE('',(#115),#911,.F.);
#966=ADVANCED_FACE('',(#116),#912,.T.);
#967=CLOSED_SHELL('',(#913,#914,#915,#916,#917,#918));
#968=CLOSED_SHELL('',(#919,#920,#921,#922,#923,#924));
#969=CLOSED_SHELL('',(#925,#926,#927,#928,#929,#930,#931,#932,#933,#934,
#935,#936,#937,#938));
#970=CLOSED_SHELL('',(#939,#940,#941,#942,#943,#944,#945,#946,#947,#948,
#949,#950,#951,#952));
#971=CLOSED_SHELL('',(#953,#954,#955,#956,#957,#958,#959,#960,#961,#962,
#963,#964,#965,#966));
#972=AXIS2_PLACEMENT_3D('placement',#1317,#1051,#1052);
#973=AXIS2_PLACEMENT_3D('',#1318,#1053,#1054);
#974=AXIS2_PLACEMENT_3D('',#1327,#1059,#1060);
#975=AXIS2_PLACEMENT_3D('',#1333,#1064,#1065);
#976=AXIS2_PLACEMENT_3D('',#1339,#1069,#1070);
#977=AXIS2_PLACEMENT_3D('',#1342,#1073,#1074);
#978=AXIS2_PLACEMENT_3D('',#1343,#1075,#1076);
#979=AXIS2_PLACEMENT_3D('',#1344,#1077,#1078);
#980=AXIS2_PLACEMENT_3D('',#1353,#1083,#1084);
#981=AXIS2_PLACEMENT_3D('',#1359,#1088,#1089);
#982=AXIS2_PLACEMENT_3D('',#1365,#1093,#1094);
#983=AXIS2_PLACEMENT_3D('',#1368,#1097,#1098);
#984=AXIS2_PLACEMENT_3D('',#1369,#1099,#1100);
#985=AXIS2_PLACEMENT_3D('',#1370,#1101,#1102);
#986=AXIS2_PLACEMENT_3D('',#1379,#1107,#1108);
#987=AXIS2_PLACEMENT_3D('',#1385,#1112,#1113);
#988=AXIS2_PLACEMENT_3D('',#1387,#1114,#1115);
#989=AXIS2_PLACEMENT_3D('',#1389,#1116,#1117);
#990=AXIS2_PLACEMENT_3D('',#1391,#1119,#1120);
#991=AXIS2_PLACEMENT_3D('',#1397,#1124,#1125);
#992=AXIS2_PLACEMENT_3D('',#1399,#1126,#1127);
#993=AXIS2_PLACEMENT_3D('',#1401,#1128,#1129);
#994=AXIS2_PLACEMENT_3D('',#1403,#1131,#1132);
#995=AXIS2_PLACEMENT_3D('',#1409,#1136,#1137);
#996=AXIS2_PLACEMENT_3D('',#1415,#1141,#1142);
#997=AXIS2_PLACEMENT_3D('',#1421,#1146,#1147);
#998=AXIS2_PLACEMENT_3D('',#1423,#1148,#1149);
#999=AXIS2_PLACEMENT_3D('',#1425,#1150,#1151);
#1000=AXIS2_PLACEMENT_3D('',#1427,#1153,#1154);
#1001=AXIS2_PLACEMENT_3D('',#1433,#1158,#1159);
#1002=AXIS2_PLACEMENT_3D('',#1435,#1160,#1161);
#1003=AXIS2_PLACEMENT_3D('',#1437,#1162,#1163);
#1004=AXIS2_PLACEMENT_3D('',#1439,#1165,#1166);
#1005=AXIS2_PLACEMENT_3D('',#1442,#1169,#1170);
#1006=AXIS2_PLACEMENT_3D('',#1443,#1171,#1172);
#1007=AXIS2_PLACEMENT_3D('',#1444,#1173,#1174);
#1008=AXIS2_PLACEMENT_3D('',#1453,#1179,#1180);
#1009=AXIS2_PLACEMENT_3D('',#1459,#1184,#1185);
#1010=AXIS2_PLACEMENT_3D('',#1461,#1186,#1187);
#1011=AXIS2_PLACEMENT_3D('',#1463,#1188,#1189);
#1012=AXIS2_PLACEMENT_3D('',#1465,#1191,#1192);
#1013=AXIS2_PLACEMENT_3D('',#1471,#1196,#1197);
#1014=AXIS2_PLACEMENT_3D('',#1473,#1198,#1199);
#1015=AXIS2_PLACEMENT_3D('',#1475,#1200,#1201);
#1016=AXIS2_PLACEMENT_3D('',#1477,#1203,#1204);
#1017=AXIS2_PLACEMENT_3D('',#1483,#1208,#1209);
#1018=AXIS2_PLACEMENT_3D('',#1489,#1213,#1214);
#1019=AXIS2_PLACEMENT_3D('',#1495,#1218,#1219);
#1020=AXIS2_PLACEMENT_3D('',#1497,#1220,#1221);
#1021=AXIS2_PLACEMENT_3D('',#1499,#1222,#1223);
#1022=AXIS2_PLACEMENT_3D('',#1501,#1225,#1226);
#1023=AXIS2_PLACEMENT_3D('',#1507,#1230,#1231);
#1024=AXIS2_PLACEMENT_3D('',#1509,#1232,#1233);
#1025=AXIS2_PLACEMENT_3D('',#1511,#1234,#1235);
#1026=AXIS2_PLACEMENT_3D('',#1513,#1237,#1238);
#1027=AXIS2_PLACEMENT_3D('',#1516,#1241,#1242);
#1028=AXIS2_PLACEMENT_3D('',#1517,#1243,#1244);
#1029=AXIS2_PLACEMENT_3D('',#1518,#1245,#1246);
#1030=AXIS2_PLACEMENT_3D('',#1527,#1251,#1252);
#1031=AXIS2_PLACEMENT_3D('',#1533,#1256,#1257);
#1032=AXIS2_PLACEMENT_3D('',#1535,#1258,#1259);
#1033=AXIS2_PLACEMENT_3D('',#1538,#1261,#1262);
#1034=AXIS2_PLACEMENT_3D('',#1539,#1263,#1264);
#1035=AXIS2_PLACEMENT_3D('',#1545,#1268,#1269);
#1036=AXIS2_PLACEMENT_3D('',#1547,#1270,#1271);
#1037=AXIS2_PLACEMENT_3D('',#1550,#1273,#1274);
#1038=AXIS2_PLACEMENT_3D('',#1551,#1275,#1276);
#1039=AXIS2_PLACEMENT_3D('',#1557,#1280,#1281);
#1040=AXIS2_PLACEMENT_3D('',#1563,#1285,#1286);
#1041=AXIS2_PLACEMENT_3D('',#1569,#1290,#1291);
#1042=AXIS2_PLACEMENT_3D('',#1571,#1292,#1293);
#1043=AXIS2_PLACEMENT_3D('',#1574,#1295,#1296);
#1044=AXIS2_PLACEMENT_3D('',#1575,#1297,#1298);
#1045=AXIS2_PLACEMENT_3D('',#1581,#1302,#1303);
#1046=AXIS2_PLACEMENT_3D('',#1583,#1304,#1305);
#1047=AXIS2_PLACEMENT_3D('',#1586,#1307,#1308);
#1048=AXIS2_PLACEMENT_3D('',#1587,#1309,#1310);
#1049=AXIS2_PLACEMENT_3D('',#1590,#1313,#1314);
#1050=AXIS2_PLACEMENT_3D('',#1591,#1315,#1316);
#1051=DIRECTION('axis',(0.,0.,1.));
#1052=DIRECTION('refdir',(1.,0.,0.));
#1053=DIRECTION('center_axis',(-0.992876838486922,0.,-0.119145220618431));
#1054=DIRECTION('ref_axis',(-0.119145220618431,0.,0.992876838486922));
#1055=DIRECTION('',(0.,-1.,0.));
#1056=DIRECTION('',(0.118308451008765,-0.118308451008765,-0.985903758406374));
#1057=DIRECTION('',(0.,-1.,0.));
#1058=DIRECTION('',(-0.118308451008765,-0.118308451008765,0.985903758406374));
#1059=DIRECTION('center_axis',(0.,0.992876838486922,-0.119145220618431));
#1060=DIRECTION('ref_axis',(0.,0.119145220618431,0.992876838486922));
#1061=DIRECTION('',(-1.,0.,0.));
#1062=DIRECTION('',(-1.,0.,0.));
#1063=DIRECTION('',(0.118308451008765,0.118308451008765,0.985903758406374));
#1064=DIRECTION('center_axis',(0.,-0.992876838486922,-0.119145220618431));
#1065=DIRECTION('ref_axis',(0.,0.119145220618431,-0.992876838486922));
#1066=DIRECTION('',(1.,0.,0.));
#1067=DIRECTION('',(1.,0.,0.));
#1068=DIRECTION('',(0.118308451008765,-0.118308451008765,0.985903758406374));
#1069=DIRECTION('center_axis',(0.992876838486922,0.,-0.119145220618431));
#1070=DIRECTION('ref_axis',(-0.119145220618431,0.,-0.992876838486922));
#1071=DIRECTION('',(0.,1.,0.));
#1072=DIRECTION('',(0.,1.,0.));
#1073=DIRECTION('center_axis',(0.,0.,1.));
#1074=DIRECTION('ref_axis',(1.,0.,0.));
#1075=DIRECTION('center_axis',(0.,0.,1.));
#1076=DIRECTION('ref_axis',(1.,0.,0.));
#1077=DIRECTION('center_axis',(-0.992277876713668,0.,0.124034734589208));
#1078=DIRECTION('ref_axis',(0.124034734589208,0.,0.992277876713668));
#1079=DIRECTION('',(0.,1.,0.));
#1080=DIRECTION('',(-0.123091490979333,0.123091490979333,-0.984731927834662));
#1081=DIRECTION('',(0.,1.,0.));
#1082=DIRECTION('',(0.123091490979333,0.123091490979333,0.984731927834662));
#1083=DIRECTION('center_axis',(0.,0.992277876713668,0.124034734589209));
#1084=DIRECTION('ref_axis',(0.,-0.124034734589209,0.992277876713668));
#1085=DIRECTION('',(1.,0.,0.));
#1086=DIRECTION('',(1.,0.,0.));
#1087=DIRECTION('',(-0.123091490979333,-0.123091490979333,0.984731927834662));
#1088=DIRECTION('center_axis',(0.,-0.992277876713668,0.124034734589209));
#1089=DIRECTION('ref_axis',(0.,-0.124034734589209,-0.992277876713668));
#1090=DIRECTION('',(-1.,0.,0.));
#1091=DIRECTION('',(-1.,0.,0.));
#1092=DIRECTION('',(-0.123091490979333,0.123091490979333,0.984731927834662));
#1093=DIRECTION('center_axis',(0.992277876713668,0.,0.124034734589208));
#1094=DIRECTION('ref_axis',(0.124034734589208,0.,-0.992277876713668));
#1095=DIRECTION('',(0.,-1.,0.));
#1096=DIRECTION('',(0.,-1.,0.));
#1097=DIRECTION('center_axis',(0.,0.,1.));
#1098=DIRECTION('ref_axis',(1.,0.,0.));
#1099=DIRECTION('center_axis',(0.,0.,-1.));
#1100=DIRECTION('ref_axis',(-1.,0.,0.));
#1101=DIRECTION('center_axis',(-1.,0.,0.));
#1102=DIRECTION('ref_axis',(0.,0.,-1.));
#1103=DIRECTION('',(0.,0.,-1.));
#1104=DIRECTION('',(0.,-1.,0.));
#1105=DIRECTION('',(0.,0.,-1.));
#1106=DIRECTION('',(0.,-1.,0.));
#1107=DIRECTION('center_axis',(0.,0.,1.));
#1108=DIRECTION('ref_axis',(-1.,0.,0.));
#1109=DIRECTION('',(-1.,0.,0.));
#1110=DIRECTION('',(-1.,0.,0.));
#1111=DIRECTION('',(0.,-1.,0.));
#1112=DIRECTION('center_axis',(0.,-1.,0.));
#1113=DIRECTION('ref_axis',(0.984807753012207,0.,-0.173648177666934));
#1114=DIRECTION('center_axis',(0.,1.,0.));
#1115=DIRECTION('ref_axis',(0.984807753012207,0.,-0.173648177666934));
#1116=DIRECTION('center_axis',(0.,1.,0.));
#1117=DIRECTION('ref_axis',(0.984807753012207,0.,-0.173648177666934));
#1118=DIRECTION('',(0.,-1.,0.));
#1119=DIRECTION('center_axis',(-0.984807753012208,0.,0.173648177666932));
#1120=DIRECTION('ref_axis',(-0.173648177666932,0.,-0.984807753012208));
#1121=DIRECTION('',(-0.173648177666932,0.,-0.984807753012208));
#1122=DIRECTION('',(-0.173648177666932,0.,-0.984807753012208));
#1123=DIRECTION('',(0.,-1.,0.));
#1124=DIRECTION('center_axis',(0.,-1.,0.));
#1125=DIRECTION('ref_axis',(7.40148683083438E-16,0.,1.));
#1126=DIRECTION('center_axis',(0.,-1.,0.));
#1127=DIRECTION('ref_axis',(7.40148683083438E-16,0.,1.));
#1128=DIRECTION('center_axis',(0.,-1.,0.));
#1129=DIRECTION('ref_axis',(7.40148683083438E-16,0.,1.));
#1130=DIRECTION('',(0.,-1.,0.));
#1131=DIRECTION('center_axis',(0.,0.,1.));
#1132=DIRECTION('ref_axis',(-1.,0.,0.));
#1133=DIRECTION('',(-1.,0.,0.));
#1134=DIRECTION('',(-1.,0.,0.));
#1135=DIRECTION('',(0.,-1.,0.));
#1136=DIRECTION('center_axis',(1.,0.,0.));
#1137=DIRECTION('ref_axis',(0.,0.,1.));
#1138=DIRECTION('',(0.,0.,1.));
#1139=DIRECTION('',(0.,0.,1.));
#1140=DIRECTION('',(0.,-1.,0.));
#1141=DIRECTION('center_axis',(0.,0.,-1.));
#1142=DIRECTION('ref_axis',(1.,0.,0.));
#1143=DIRECTION('',(1.,0.,0.));
#1144=DIRECTION('',(1.,0.,0.));
#1145=DIRECTION('',(0.,-1.,0.));
#1146=DIRECTION('center_axis',(0.,-1.,0.));
#1147=DIRECTION('ref_axis',(-0.984807753012208,0.,0.173648177666931));
#1148=DIRECTION('center_axis',(0.,1.,0.));
#1149=DIRECTION('ref_axis',(-0.984807753012208,0.,0.173648177666931));
#1150=DIRECTION('center_axis',(0.,1.,0.));
#1151=DIRECTION('ref_axis',(-0.984807753012208,0.,0.173648177666931));
#1152=DIRECTION('',(0.,-1.,0.));
#1153=DIRECTION('center_axis',(0.984807753012208,0.,-0.173648177666932));
#1154=DIRECTION('ref_axis',(0.173648177666932,0.,0.984807753012208));
#1155=DIRECTION('',(0.173648177666932,0.,0.984807753012208));
#1156=DIRECTION('',(0.173648177666932,0.,0.984807753012208));
#1157=DIRECTION('',(0.,-1.,0.));
#1158=DIRECTION('center_axis',(0.,-1.,0.));
#1159=DIRECTION('ref_axis',(0.,0.,-1.));
#1160=DIRECTION('center_axis',(0.,-1.,0.));
#1161=DIRECTION('ref_axis',(0.,0.,-1.));
#1162=DIRECTION('center_axis',(0.,-1.,0.));
#1163=DIRECTION('ref_axis',(0.,0.,-1.));
#1164=DIRECTION('',(0.,-1.,0.));
#1165=DIRECTION('center_axis',(0.,0.,-1.));
#1166=DIRECTION('ref_axis',(1.,0.,0.));
#1167=DIRECTION('',(1.,0.,0.));
#1168=DIRECTION('',(1.,0.,0.));
#1169=DIRECTION('center_axis',(0.,-1.,0.));
#1170=DIRECTION('ref_axis',(0.,0.,-1.));
#1171=DIRECTION('center_axis',(0.,-1.,0.));
#1172=DIRECTION('ref_axis',(0.,0.,-1.));
#1173=DIRECTION('center_axis',(-1.,0.,0.));
#1174=DIRECTION('ref_axis',(0.,0.,-1.));
#1175=DIRECTION('',(0.,0.,-1.));
#1176=DIRECTION('',(0.,-1.,0.));
#1177=DIRECTION('',(0.,0.,-1.));
#1178=DIRECTION('',(0.,-1.,0.));
#1179=DIRECTION('center_axis',(0.,0.,1.));
#1180=DIRECTION('ref_axis',(-1.,0.,0.));
#1181=DIRECTION('',(-1.,0.,0.));
#1182=DIRECTION('',(-1.,0.,0.));
#1183=DIRECTION('',(0.,-1.,0.));
#1184=DIRECTION('center_axis',(0.,-1.,0.));
#1185=DIRECTION('ref_axis',(0.984807753012207,0.,-0.173648177666934));
#1186=DIRECTION('center_axis',(0.,1.,0.));
#1187=DIRECTION('ref_axis',(0.984807753012207,0.,-0.173648177666934));
#1188=DIRECTION('center_axis',(0.,1.,0.));
#1189=DIRECTION('ref_axis',(0.984807753012207,0.,-0.173648177666934));
#1190=DIRECTION('',(0.,-1.,0.));
#1191=DIRECTION('center_axis',(-0.984807753012208,0.,0.173648177666932));
#1192=DIRECTION('ref_axis',(-0.173648177666932,0.,-0.984807753012208));
#1193=DIRECTION('',(-0.173648177666932,0.,-0.984807753012208));
#1194=DIRECTION('',(-0.173648177666932,0.,-0.984807753012208));
#1195=DIRECTION('',(0.,-1.,0.));
#1196=DIRECTION('center_axis',(0.,-1.,0.));
#1197=DIRECTION('ref_axis',(7.40148683083438E-16,0.,1.));
#1198=DIRECTION('center_axis',(0.,-1.,0.));
#1199=DIRECTION('ref_axis',(7.40148683083438E-16,0.,1.));
#1200=DIRECTION('center_axis',(0.,-1.,0.));
#1201=DIRECTION('ref_axis',(7.40148683083438E-16,0.,1.));
#1202=DIRECTION('',(0.,-1.,0.));
#1203=DIRECTION('center_axis',(0.,0.,1.));
#1204=DIRECTION('ref_axis',(-1.,0.,0.));
#1205=DIRECTION('',(-1.,0.,0.));
#1206=DIRECTION('',(-1.,0.,0.));
#1207=DIRECTION('',(0.,-1.,0.));
#1208=DIRECTION('center_axis',(1.,0.,0.));
#1209=DIRECTION('ref_axis',(0.,0.,1.));
#1210=DIRECTION('',(0.,0.,1.));
#1211=DIRECTION('',(0.,0.,1.));
#1212=DIRECTION('',(0.,-1.,0.));
#1213=DIRECTION('center_axis',(0.,0.,-1.));
#1214=DIRECTION('ref_axis',(1.,0.,0.));
#1215=DIRECTION('',(1.,0.,0.));
#1216=DIRECTION('',(1.,0.,0.));
#1217=DIRECTION('',(0.,-1.,0.));
#1218=DIRECTION('center_axis',(0.,-1.,0.));
#1219=DIRECTION('ref_axis',(-0.984807753012208,0.,0.173648177666931));
#1220=DIRECTION('center_axis',(0.,1.,0.));
#1221=DIRECTION('ref_axis',(-0.984807753012208,0.,0.173648177666931));
#1222=DIRECTION('center_axis',(0.,1.,0.));
#1223=DIRECTION('ref_axis',(-0.984807753012208,0.,0.173648177666931));
#1224=DIRECTION('',(0.,-1.,0.));
#1225=DIRECTION('center_axis',(0.984807753012208,0.,-0.173648177666932));
#1226=DIRECTION('ref_axis',(0.173648177666932,0.,0.984807753012208));
#1227=DIRECTION('',(0.173648177666932,0.,0.984807753012208));
#1228=DIRECTION('',(0.173648177666932,0.,0.984807753012208));
#1229=DIRECTION('',(0.,-1.,0.));
#1230=DIRECTION('center_axis',(0.,-1.,0.));
#1231=DIRECTION('ref_axis',(0.,0.,-1.));
#1232=DIRECTION('center_axis',(0.,-1.,0.));
#1233=DIRECTION('ref_axis',(0.,0.,-1.));
#1234=DIRECTION('center_axis',(0.,-1.,0.));
#1235=DIRECTION('ref_axis',(0.,0.,-1.));
#1236=DIRECTION('',(0.,-1.,0.));
#1237=DIRECTION('center_axis',(0.,0.,-1.));
#1238=DIRECTION('ref_axis',(1.,0.,0.));
#1239=DIRECTION('',(1.,0.,0.));
#1240=DIRECTION('',(1.,0.,0.));
#1241=DIRECTION('center_axis',(0.,-1.,0.));
#1242=DIRECTION('ref_axis',(0.,0.,-1.));
#1243=DIRECTION('center_axis',(0.,-1.,0.));
#1244=DIRECTION('ref_axis',(0.,0.,-1.));
#1245=DIRECTION('center_axis',(-1.,0.,0.));
#1246=DIRECTION('ref_axis',(0.,0.,-1.));
#1247=DIRECTION('',(0.,0.,-1.));
#1248=DIRECTION('',(0.,-1.,0.));
#1249=DIRECTION('',(0.,0.,-1.));
#1250=DIRECTION('',(0.,-1.,0.));
#1251=DIRECTION('center_axis',(0.,0.,-1.));
#1252=DIRECTION('ref_axis',(1.,0.,0.));
#1253=DIRECTION('',(1.,0.,0.));
#1254=DIRECTION('',(0.,-1.,0.));
#1255=DIRECTION('',(1.,0.,0.));
#1256=DIRECTION('center_axis',(0.,1.,0.));
#1257=DIRECTION('ref_axis',(-0.984807753012207,0.,-0.173648177666934));
#1258=DIRECTION('center_axis',(0.,-1.,0.));
#1259=DIRECTION('ref_axis',(-0.984807753012207,0.,-0.173648177666934));
#1260=DIRECTION('',(0.,-1.,0.));
#1261=DIRECTION('center_axis',(0.,-1.,0.));
#1262=DIRECTION('ref_axis',(-0.984807753012207,0.,-0.173648177666934));
#1263=DIRECTION('center_axis',(-0.984807753012208,0.,-0.173648177666932));
#1264=DIRECTION('ref_axis',(0.173648177666932,0.,-0.984807753012208));
#1265=DIRECTION('',(0.173648177666932,0.,-0.984807753012208));
#1266=DIRECTION('',(0.,-1.,0.));
#1267=DIRECTION('',(0.173648177666932,0.,-0.984807753012208));
#1268=DIRECTION('center_axis',(0.,1.,0.));
#1269=DIRECTION('ref_axis',(-7.40148683083438E-16,0.,1.));
#1270=DIRECTION('center_axis',(0.,1.,0.));
#1271=DIRECTION('ref_axis',(-7.40148683083438E-16,0.,1.));
#1272=DIRECTION('',(0.,-1.,0.));
#1273=DIRECTION('center_axis',(0.,1.,0.));
#1274=DIRECTION('ref_axis',(-7.40148683083438E-16,0.,1.));
#1275=DIRECTION('center_axis',(0.,0.,-1.));
#1276=DIRECTION('ref_axis',(1.,0.,0.));
#1277=DIRECTION('',(1.,0.,0.));
#1278=DIRECTION('',(0.,-1.,0.));
#1279=DIRECTION('',(1.,0.,0.));
#1280=DIRECTION('center_axis',(1.,0.,0.));
#1281=DIRECTION('ref_axis',(0.,0.,1.));
#1282=DIRECTION('',(0.,0.,1.));
#1283=DIRECTION('',(0.,-1.,0.));
#1284=DIRECTION('',(0.,0.,1.));
#1285=DIRECTION('center_axis',(0.,0.,1.));
#1286=DIRECTION('ref_axis',(-1.,0.,0.));
#1287=DIRECTION('',(-1.,0.,0.));
#1288=DIRECTION('',(0.,-1.,0.));
#1289=DIRECTION('',(-1.,0.,0.));
#1290=DIRECTION('center_axis',(0.,1.,0.));
#1291=DIRECTION('ref_axis',(0.984807753012208,0.,0.173648177666931));
#1292=DIRECTION('center_axis',(0.,-1.,0.));
#1293=DIRECTION('ref_axis',(0.984807753012208,0.,0.173648177666931));
#1294=DIRECTION('',(0.,-1.,0.));
#1295=DIRECTION('center_axis',(0.,-1.,0.));
#1296=DIRECTION('ref_axis',(0.984807753012208,0.,0.173648177666931));
#1297=DIRECTION('center_axis',(0.984807753012208,0.,0.173648177666932));
#1298=DIRECTION('ref_axis',(-0.173648177666932,0.,0.984807753012208));
#1299=DIRECTION('',(-0.173648177666932,0.,0.984807753012208));
#1300=DIRECTION('',(0.,-1.,0.));
#1301=DIRECTION('',(-0.173648177666932,0.,0.984807753012208));
#1302=DIRECTION('center_axis',(0.,1.,0.));
#1303=DIRECTION('ref_axis',(0.,0.,-1.));
#1304=DIRECTION('center_axis',(0.,1.,0.));
#1305=DIRECTION('ref_axis',(0.,0.,-1.));
#1306=DIRECTION('',(0.,-1.,0.));
#1307=DIRECTION('center_axis',(0.,1.,0.));
#1308=DIRECTION('ref_axis',(0.,0.,-1.));
#1309=DIRECTION('center_axis',(0.,0.,1.));
#1310=DIRECTION('ref_axis',(-1.,0.,0.));
#1311=DIRECTION('',(-1.,0.,0.));
#1312=DIRECTION('',(-1.,0.,0.));
#1313=DIRECTION('center_axis',(0.,1.,0.));
#1314=DIRECTION('ref_axis',(0.,0.,-1.));
#1315=DIRECTION('center_axis',(0.,1.,0.));
#1316=DIRECTION('ref_axis',(0.,0.,-1.));
#1317=CARTESIAN_POINT('',(0.,0.,0.));
#1318=CARTESIAN_POINT('Origin',(-0.37,0.4,0.25));
#1319=CARTESIAN_POINT('',(-0.4,0.8,0.5));
#1320=CARTESIAN_POINT('',(-0.4,-0.8,0.5));
#1321=CARTESIAN_POINT('',(-0.4,0.8,0.5));
#1322=CARTESIAN_POINT('',(-0.34,0.74,0.));
#1323=CARTESIAN_POINT('',(-0.4,0.8,0.5));
#1324=CARTESIAN_POINT('',(-0.34,-0.74,0.));
#1325=CARTESIAN_POINT('',(-0.34,0.4,0.));
#1326=CARTESIAN_POINT('',(-0.34,-0.74,0.));
#1327=CARTESIAN_POINT('Origin',(0.2,0.77,0.25));
#1328=CARTESIAN_POINT('',(0.34,0.74,0.));
#1329=CARTESIAN_POINT('',(0.2,0.74,0.));
#1330=CARTESIAN_POINT('',(0.4,0.8,0.5));
#1331=CARTESIAN_POINT('',(0.4,0.8,0.5));
#1332=CARTESIAN_POINT('',(0.34,0.74,0.));
#1333=CARTESIAN_POINT('Origin',(-0.2,-0.77,0.25));
#1334=CARTESIAN_POINT('',(0.4,-0.8,0.5));
#1335=CARTESIAN_POINT('',(-0.4,-0.8,0.5));
#1336=CARTESIAN_POINT('',(0.34,-0.74,0.));
#1337=CARTESIAN_POINT('',(-0.2,-0.74,0.));
#1338=CARTESIAN_POINT('',(0.34,-0.74,0.));
#1339=CARTESIAN_POINT('Origin',(0.37,-0.4,0.25));
#1340=CARTESIAN_POINT('',(0.4,-0.8,0.5));
#1341=CARTESIAN_POINT('',(0.34,-0.4,0.));
#1342=CARTESIAN_POINT('Origin',(1.05239890875926E-16,0.,0.));
#1343=CARTESIAN_POINT('Origin',(1.11022302462516E-16,0.,0.5));
#1344=CARTESIAN_POINT('Origin',(-0.375,-0.4,0.7));
#1345=CARTESIAN_POINT('',(-0.35,-0.75,0.9));
#1346=CARTESIAN_POINT('',(-0.35,0.75,0.9));
#1347=CARTESIAN_POINT('',(-0.35,-0.4,0.9));
#1348=CARTESIAN_POINT('',(-0.4,0.8,0.5));
#1349=CARTESIAN_POINT('',(-0.35,0.75,0.9));
#1350=CARTESIAN_POINT('',(-0.4,-0.8,0.5));
#1351=CARTESIAN_POINT('',(-0.4,0.8,0.5));
#1352=CARTESIAN_POINT('',(-0.4,-0.8,0.5));
#1353=CARTESIAN_POINT('Origin',(-0.2,0.775,0.7));
#1354=CARTESIAN_POINT('',(0.4,0.8,0.5));
#1355=CARTESIAN_POINT('',(0.4,0.8,0.5));
#1356=CARTESIAN_POINT('',(0.35,0.75,0.9));
#1357=CARTESIAN_POINT('',(-0.2,0.75,0.9));
#1358=CARTESIAN_POINT('',(0.4,0.8,0.5));
#1359=CARTESIAN_POINT('Origin',(0.2,-0.775,0.7));
#1360=CARTESIAN_POINT('',(0.35,-0.75,0.9));
#1361=CARTESIAN_POINT('',(0.2,-0.75,0.9));
#1362=CARTESIAN_POINT('',(0.4,-0.8,0.5));
#1363=CARTESIAN_POINT('',(-0.4,-0.8,0.5));
#1364=CARTESIAN_POINT('',(0.4,-0.8,0.5));
#1365=CARTESIAN_POINT('Origin',(0.375,0.4,0.7));
#1366=CARTESIAN_POINT('',(0.35,0.4,0.9));
#1367=CARTESIAN_POINT('',(0.4,-0.8,0.5));
#1368=CARTESIAN_POINT('Origin',(1.05239890875926E-16,0.,0.9));
#1369=CARTESIAN_POINT('Origin',(1.11022302462516E-16,0.,0.5));
#1370=CARTESIAN_POINT('Origin',(-0.85,0.6,0.1));
#1371=CARTESIAN_POINT('',(-0.85,0.6,0.1));
#1372=CARTESIAN_POINT('',(-0.85,0.6,0.));
#1373=CARTESIAN_POINT('',(-0.85,0.6,0.1));
#1374=CARTESIAN_POINT('',(-0.85,0.4,0.));
#1375=CARTESIAN_POINT('',(-0.85,0.6,0.));
#1376=CARTESIAN_POINT('',(-0.85,0.4,0.1));
#1377=CARTESIAN_POINT('',(-0.85,0.4,0.1));
#1378=CARTESIAN_POINT('',(-0.85,0.6,0.1));
#1379=CARTESIAN_POINT('Origin',(-0.695284103267863,0.6,0.1));
#1380=CARTESIAN_POINT('',(-0.695284103267863,0.6,0.1));
#1381=CARTESIAN_POINT('',(-0.695284103267863,0.6,0.1));
#1382=CARTESIAN_POINT('',(-0.695284103267863,0.4,0.1));
#1383=CARTESIAN_POINT('',(-0.695284103267863,0.4,0.1));
#1384=CARTESIAN_POINT('',(-0.695284103267863,0.6,0.1));
#1385=CARTESIAN_POINT('Origin',(-0.695284103267863,0.6,0.15));
#1386=CARTESIAN_POINT('',(-0.646043715617253,0.6,0.141317591116653));
#1387=CARTESIAN_POINT('Origin',(-0.695284103267863,0.6,0.15));
#1388=CARTESIAN_POINT('',(-0.646043715617253,0.4,0.141317591116653));
#1389=CARTESIAN_POINT('Origin',(-0.695284103267863,0.4,0.15));
#1390=CARTESIAN_POINT('',(-0.646043715617253,0.6,0.141317591116653));
#1391=CARTESIAN_POINT('Origin',(-0.587021849630005,0.6,0.47604722665004));
#1392=CARTESIAN_POINT('',(-0.587021849630005,0.6,0.47604722665004));
#1393=CARTESIAN_POINT('',(-0.587021849630005,0.6,0.47604722665004));
#1394=CARTESIAN_POINT('',(-0.587021849630005,0.4,0.47604722665004));
#1395=CARTESIAN_POINT('',(-0.587021849630005,0.4,0.47604722665004));
#1396=CARTESIAN_POINT('',(-0.587021849630005,0.6,0.47604722665004));
#1397=CARTESIAN_POINT('Origin',(-0.439300686678174,0.6,0.45));
#1398=CARTESIAN_POINT('',(-0.439300686678174,0.6,0.6));
#1399=CARTESIAN_POINT('Origin',(-0.439300686678174,0.6,0.45));
#1400=CARTESIAN_POINT('',(-0.439300686678174,0.4,0.6));
#1401=CARTESIAN_POINT('Origin',(-0.439300686678174,0.4,0.45));
#1402=CARTESIAN_POINT('',(-0.439300686678174,0.6,0.6));
#1403=CARTESIAN_POINT('Origin',(-0.225,0.6,0.6));
#1404=CARTESIAN_POINT('',(-0.225,0.6,0.6));
#1405=CARTESIAN_POINT('',(-0.225,0.6,0.6));
#1406=CARTESIAN_POINT('',(-0.225,0.4,0.6));
#1407=CARTESIAN_POINT('',(-0.225,0.4,0.6));
#1408=CARTESIAN_POINT('',(-0.225,0.6,0.6));
#1409=CARTESIAN_POINT('Origin',(-0.225,0.6,0.5));
#1410=CARTESIAN_POINT('',(-0.225,0.6,0.5));
#1411=CARTESIAN_POINT('',(-0.225,0.6,0.5));
#1412=CARTESIAN_POINT('',(-0.225,0.4,0.5));
#1413=CARTESIAN_POINT('',(-0.225,0.4,0.5));
#1414=CARTESIAN_POINT('',(-0.225,0.6,0.5));
#1415=CARTESIAN_POINT('Origin',(-0.439300686678174,0.6,0.5));
#1416=CARTESIAN_POINT('',(-0.439300686678174,0.6,0.5));
#1417=CARTESIAN_POINT('',(-0.439300686678174,0.6,0.5));
#1418=CARTESIAN_POINT('',(-0.439300686678174,0.4,0.5));
#1419=CARTESIAN_POINT('',(-0.439300686678174,0.4,0.5));
#1420=CARTESIAN_POINT('',(-0.439300686678174,0.6,0.5));
#1421=CARTESIAN_POINT('Origin',(-0.439300686678174,0.6,0.45));
#1422=CARTESIAN_POINT('',(-0.488541074328784,0.6,0.458682408883347));
#1423=CARTESIAN_POINT('Origin',(-0.439300686678174,0.6,0.45));
#1424=CARTESIAN_POINT('',(-0.488541074328784,0.4,0.458682408883347));
#1425=CARTESIAN_POINT('Origin',(-0.439300686678174,0.4,0.45));
#1426=CARTESIAN_POINT('',(-0.488541074328784,0.6,0.458682408883347));
#1427=CARTESIAN_POINT('Origin',(-0.547562940316032,0.6,0.12395277334996));
#1428=CARTESIAN_POINT('',(-0.547562940316032,0.6,0.12395277334996));
#1429=CARTESIAN_POINT('',(-0.547562940316032,0.6,0.12395277334996));
#1430=CARTESIAN_POINT('',(-0.547562940316032,0.4,0.12395277334996));
#1431=CARTESIAN_POINT('',(-0.547562940316032,0.4,0.12395277334996));
#1432=CARTESIAN_POINT('',(-0.547562940316032,0.6,0.12395277334996));
#1433=CARTESIAN_POINT('Origin',(-0.695284103267863,0.6,0.15));
#1434=CARTESIAN_POINT('',(-0.695284103267863,0.6,0.));
#1435=CARTESIAN_POINT('Origin',(-0.695284103267863,0.6,0.15));
#1436=CARTESIAN_POINT('',(-0.695284103267863,0.4,0.));
#1437=CARTESIAN_POINT('Origin',(-0.695284103267863,0.4,0.15));
#1438=CARTESIAN_POINT('',(-0.695284103267863,0.6,0.));
#1439=CARTESIAN_POINT('Origin',(-0.775,0.6,0.));
#1440=CARTESIAN_POINT('',(-0.775,0.6,0.));
#1441=CARTESIAN_POINT('',(-0.775,0.4,0.));
#1442=CARTESIAN_POINT('Origin',(-0.520925636981617,0.4,0.335666736916463));
#1443=CARTESIAN_POINT('Origin',(-0.520925636981617,0.6,0.335666736916463));
#1444=CARTESIAN_POINT('Origin',(-0.85,-0.4,0.1));
#1445=CARTESIAN_POINT('',(-0.85,-0.4,0.1));
#1446=CARTESIAN_POINT('',(-0.85,-0.4,0.));
#1447=CARTESIAN_POINT('',(-0.85,-0.4,0.1));
#1448=CARTESIAN_POINT('',(-0.85,-0.6,0.));
#1449=CARTESIAN_POINT('',(-0.85,-0.4,0.));
#1450=CARTESIAN_POINT('',(-0.85,-0.6,0.1));
#1451=CARTESIAN_POINT('',(-0.85,-0.6,0.1));
#1452=CARTESIAN_POINT('',(-0.85,-0.4,0.1));
#1453=CARTESIAN_POINT('Origin',(-0.695284103267863,-0.4,0.1));
#1454=CARTESIAN_POINT('',(-0.695284103267863,-0.4,0.1));
#1455=CARTESIAN_POINT('',(-0.695284103267863,-0.4,0.1));
#1456=CARTESIAN_POINT('',(-0.695284103267863,-0.6,0.1));
#1457=CARTESIAN_POINT('',(-0.695284103267863,-0.6,0.1));
#1458=CARTESIAN_POINT('',(-0.695284103267863,-0.4,0.1));
#1459=CARTESIAN_POINT('Origin',(-0.695284103267863,-0.4,0.15));
#1460=CARTESIAN_POINT('',(-0.646043715617253,-0.4,0.141317591116653));
#1461=CARTESIAN_POINT('Origin',(-0.695284103267863,-0.4,0.15));
#1462=CARTESIAN_POINT('',(-0.646043715617253,-0.6,0.141317591116653));
#1463=CARTESIAN_POINT('Origin',(-0.695284103267863,-0.6,0.15));
#1464=CARTESIAN_POINT('',(-0.646043715617253,-0.4,0.141317591116653));
#1465=CARTESIAN_POINT('Origin',(-0.587021849630005,-0.4,0.47604722665004));
#1466=CARTESIAN_POINT('',(-0.587021849630005,-0.4,0.47604722665004));
#1467=CARTESIAN_POINT('',(-0.587021849630005,-0.4,0.47604722665004));
#1468=CARTESIAN_POINT('',(-0.587021849630005,-0.6,0.47604722665004));
#1469=CARTESIAN_POINT('',(-0.587021849630005,-0.6,0.47604722665004));
#1470=CARTESIAN_POINT('',(-0.587021849630005,-0.4,0.47604722665004));
#1471=CARTESIAN_POINT('Origin',(-0.439300686678174,-0.4,0.45));
#1472=CARTESIAN_POINT('',(-0.439300686678174,-0.4,0.6));
#1473=CARTESIAN_POINT('Origin',(-0.439300686678174,-0.4,0.45));
#1474=CARTESIAN_POINT('',(-0.439300686678174,-0.6,0.6));
#1475=CARTESIAN_POINT('Origin',(-0.439300686678174,-0.6,0.45));
#1476=CARTESIAN_POINT('',(-0.439300686678174,-0.4,0.6));
#1477=CARTESIAN_POINT('Origin',(-0.225,-0.4,0.6));
#1478=CARTESIAN_POINT('',(-0.225,-0.4,0.6));
#1479=CARTESIAN_POINT('',(-0.225,-0.4,0.6));
#1480=CARTESIAN_POINT('',(-0.225,-0.6,0.6));
#1481=CARTESIAN_POINT('',(-0.225,-0.6,0.6));
#1482=CARTESIAN_POINT('',(-0.225,-0.4,0.6));
#1483=CARTESIAN_POINT('Origin',(-0.225,-0.4,0.5));
#1484=CARTESIAN_POINT('',(-0.225,-0.4,0.5));
#1485=CARTESIAN_POINT('',(-0.225,-0.4,0.5));
#1486=CARTESIAN_POINT('',(-0.225,-0.6,0.5));
#1487=CARTESIAN_POINT('',(-0.225,-0.6,0.5));
#1488=CARTESIAN_POINT('',(-0.225,-0.4,0.5));
#1489=CARTESIAN_POINT('Origin',(-0.439300686678174,-0.4,0.5));
#1490=CARTESIAN_POINT('',(-0.439300686678174,-0.4,0.5));
#1491=CARTESIAN_POINT('',(-0.439300686678174,-0.4,0.5));
#1492=CARTESIAN_POINT('',(-0.439300686678174,-0.6,0.5));
#1493=CARTESIAN_POINT('',(-0.439300686678174,-0.6,0.5));
#1494=CARTESIAN_POINT('',(-0.439300686678174,-0.4,0.5));
#1495=CARTESIAN_POINT('Origin',(-0.439300686678174,-0.4,0.45));
#1496=CARTESIAN_POINT('',(-0.488541074328784,-0.4,0.458682408883347));
#1497=CARTESIAN_POINT('Origin',(-0.439300686678174,-0.4,0.45));
#1498=CARTESIAN_POINT('',(-0.488541074328784,-0.6,0.458682408883347));
#1499=CARTESIAN_POINT('Origin',(-0.439300686678174,-0.6,0.45));
#1500=CARTESIAN_POINT('',(-0.488541074328784,-0.4,0.458682408883347));
#1501=CARTESIAN_POINT('Origin',(-0.547562940316032,-0.4,0.12395277334996));
#1502=CARTESIAN_POINT('',(-0.547562940316032,-0.4,0.12395277334996));
#1503=CARTESIAN_POINT('',(-0.547562940316032,-0.4,0.12395277334996));
#1504=CARTESIAN_POINT('',(-0.547562940316032,-0.6,0.12395277334996));
#1505=CARTESIAN_POINT('',(-0.547562940316032,-0.6,0.12395277334996));
#1506=CARTESIAN_POINT('',(-0.547562940316032,-0.4,0.12395277334996));
#1507=CARTESIAN_POINT('Origin',(-0.695284103267863,-0.4,0.15));
#1508=CARTESIAN_POINT('',(-0.695284103267863,-0.4,0.));
#1509=CARTESIAN_POINT('Origin',(-0.695284103267863,-0.4,0.15));
#1510=CARTESIAN_POINT('',(-0.695284103267863,-0.6,0.));
#1511=CARTESIAN_POINT('Origin',(-0.695284103267863,-0.6,0.15));
#1512=CARTESIAN_POINT('',(-0.695284103267863,-0.4,0.));
#1513=CARTESIAN_POINT('Origin',(-0.775,-0.4,0.));
#1514=CARTESIAN_POINT('',(-0.775,-0.4,0.));
#1515=CARTESIAN_POINT('',(-0.775,-0.6,0.));
#1516=CARTESIAN_POINT('Origin',(-0.520925636981617,-0.6,0.335666736916463));
#1517=CARTESIAN_POINT('Origin',(-0.520925636981617,-0.4,0.335666736916463));
#1518=CARTESIAN_POINT('Origin',(0.85,0.1,0.075));
#1519=CARTESIAN_POINT('',(0.85,0.1,0.1));
#1520=CARTESIAN_POINT('',(0.85,0.1,0.));
#1521=CARTESIAN_POINT('',(0.85,0.1,0.075));
#1522=CARTESIAN_POINT('',(0.85,-0.1,0.1));
#1523=CARTESIAN_POINT('',(0.85,0.1,0.1));
#1524=CARTESIAN_POINT('',(0.85,-0.1,0.));
#1525=CARTESIAN_POINT('',(0.85,-0.1,0.075));
#1526=CARTESIAN_POINT('',(0.85,0.1,0.));
#1527=CARTESIAN_POINT('Origin',(0.695284103267863,0.1,0.1));
#1528=CARTESIAN_POINT('',(0.695284103267863,0.1,0.1));
#1529=CARTESIAN_POINT('',(0.695284103267863,0.1,0.1));
#1530=CARTESIAN_POINT('',(0.695284103267863,-0.1,0.1));
#1531=CARTESIAN_POINT('',(0.695284103267863,0.1,0.1));
#1532=CARTESIAN_POINT('',(0.695284103267863,-0.1,0.1));
#1533=CARTESIAN_POINT('Origin',(0.695284103267863,0.1,0.15));
#1534=CARTESIAN_POINT('',(0.646043715617253,0.1,0.141317591116653));
#1535=CARTESIAN_POINT('Origin',(0.695284103267863,0.1,0.15));
#1536=CARTESIAN_POINT('',(0.646043715617253,-0.1,0.141317591116653));
#1537=CARTESIAN_POINT('',(0.646043715617253,0.1,0.141317591116653));
#1538=CARTESIAN_POINT('Origin',(0.695284103267863,-0.1,0.15));
#1539=CARTESIAN_POINT('Origin',(0.587021849630005,0.1,0.47604722665004));
#1540=CARTESIAN_POINT('',(0.587021849630005,0.1,0.47604722665004));
#1541=CARTESIAN_POINT('',(0.587021849630005,0.1,0.47604722665004));
#1542=CARTESIAN_POINT('',(0.587021849630005,-0.1,0.47604722665004));
#1543=CARTESIAN_POINT('',(0.587021849630005,0.1,0.47604722665004));
#1544=CARTESIAN_POINT('',(0.587021849630005,-0.1,0.47604722665004));
#1545=CARTESIAN_POINT('Origin',(0.439300686678174,0.1,0.45));
#1546=CARTESIAN_POINT('',(0.439300686678174,0.1,0.6));
#1547=CARTESIAN_POINT('Origin',(0.439300686678174,0.1,0.45));
#1548=CARTESIAN_POINT('',(0.439300686678174,-0.1,0.6));
#1549=CARTESIAN_POINT('',(0.439300686678174,0.1,0.6));
#1550=CARTESIAN_POINT('Origin',(0.439300686678174,-0.1,0.45));
#1551=CARTESIAN_POINT('Origin',(0.225,0.1,0.6));
#1552=CARTESIAN_POINT('',(0.225,0.1,0.6));
#1553=CARTESIAN_POINT('',(0.225,0.1,0.6));
#1554=CARTESIAN_POINT('',(0.225,-0.1,0.6));
#1555=CARTESIAN_POINT('',(0.225,0.1,0.6));
#1556=CARTESIAN_POINT('',(0.225,-0.1,0.6));
#1557=CARTESIAN_POINT('Origin',(0.225,0.1,0.5));
#1558=CARTESIAN_POINT('',(0.225,0.1,0.5));
#1559=CARTESIAN_POINT('',(0.225,0.1,0.5));
#1560=CARTESIAN_POINT('',(0.225,-0.1,0.5));
#1561=CARTESIAN_POINT('',(0.225,0.1,0.5));
#1562=CARTESIAN_POINT('',(0.225,-0.1,0.5));
#1563=CARTESIAN_POINT('Origin',(0.439300686678174,0.1,0.5));
#1564=CARTESIAN_POINT('',(0.439300686678174,0.1,0.5));
#1565=CARTESIAN_POINT('',(0.439300686678174,0.1,0.5));
#1566=CARTESIAN_POINT('',(0.439300686678174,-0.1,0.5));
#1567=CARTESIAN_POINT('',(0.439300686678174,0.1,0.5));
#1568=CARTESIAN_POINT('',(0.439300686678174,-0.1,0.5));
#1569=CARTESIAN_POINT('Origin',(0.439300686678174,0.1,0.45));
#1570=CARTESIAN_POINT('',(0.488541074328784,0.1,0.458682408883347));
#1571=CARTESIAN_POINT('Origin',(0.439300686678174,0.1,0.45));
#1572=CARTESIAN_POINT('',(0.488541074328784,-0.1,0.458682408883347));
#1573=CARTESIAN_POINT('',(0.488541074328784,0.1,0.458682408883347));
#1574=CARTESIAN_POINT('Origin',(0.439300686678174,-0.1,0.45));
#1575=CARTESIAN_POINT('Origin',(0.547562940316032,0.1,0.12395277334996));
#1576=CARTESIAN_POINT('',(0.547562940316032,0.1,0.12395277334996));
#1577=CARTESIAN_POINT('',(0.547562940316032,0.1,0.12395277334996));
#1578=CARTESIAN_POINT('',(0.547562940316032,-0.1,0.12395277334996));
#1579=CARTESIAN_POINT('',(0.547562940316032,0.1,0.12395277334996));
#1580=CARTESIAN_POINT('',(0.547562940316032,-0.1,0.12395277334996));
#1581=CARTESIAN_POINT('Origin',(0.695284103267863,0.1,0.15));
#1582=CARTESIAN_POINT('',(0.695284103267863,0.1,0.));
#1583=CARTESIAN_POINT('Origin',(0.695284103267863,0.1,0.15));
#1584=CARTESIAN_POINT('',(0.695284103267863,-0.1,0.));
#1585=CARTESIAN_POINT('',(0.695284103267863,0.1,0.));
#1586=CARTESIAN_POINT('Origin',(0.695284103267863,-0.1,0.15));
#1587=CARTESIAN_POINT('Origin',(0.775,0.1,0.));
#1588=CARTESIAN_POINT('',(0.775,0.1,0.));
#1589=CARTESIAN_POINT('',(0.775,-0.1,0.));
#1590=CARTESIAN_POINT('Origin',(0.520925636981617,-0.1,0.335666736916463));
#1591=CARTESIAN_POINT('Origin',(0.520925636981617,0.1,0.335666736916463));
#1592=UNCERTAINTY_MEASURE_WITH_UNIT(LENGTH_MEASURE(0.01),#1596,
'DISTANCE_ACCURACY_VALUE',
'Maximum model space distance between geometric entities at asserted c
onnectivities');
#1593=UNCERTAINTY_MEASURE_WITH_UNIT(LENGTH_MEASURE(1.E-6),#1596,
'DISTANCE_ACCURACY_VALUE',
'Maximum model space distance between geometric entities at asserted c
onnectivities');
#1594=(
GEOMETRIC_REPRESENTATION_CONTEXT(3)
GLOBAL_UNCERTAINTY_ASSIGNED_CONTEXT((#1592))
GLOBAL_UNIT_ASSIGNED_CONTEXT((#1596,#1598,#1597))
REPRESENTATION_CONTEXT('','3D')
);
#1595=(
GEOMETRIC_REPRESENTATION_CONTEXT(3)
GLOBAL_UNCERTAINTY_ASSIGNED_CONTEXT((#1593))
GLOBAL_UNIT_ASSIGNED_CONTEXT((#1596,#12,#1597))
REPRESENTATION_CONTEXT('','3D')
);
#1596=(
LENGTH_UNIT()
NAMED_UNIT(*)
SI_UNIT(.MILLI.,.METRE.)
);
#1597=(
NAMED_UNIT(*)
SI_UNIT($,.STERADIAN.)
SOLID_ANGLE_UNIT()
);
#1598=(
NAMED_UNIT(*)
PLANE_ANGLE_UNIT()
SI_UNIT($,.RADIAN.)
);
#1599=SHAPE_DEFINITION_REPRESENTATION(#1600,#1601);
#1600=PRODUCT_DEFINITION_SHAPE('',$,#1603);
#1601=SHAPE_REPRESENTATION('',(#972),#1594);
#1602=PRODUCT_DEFINITION_CONTEXT('part definition',#1607,'design');
#1603=PRODUCT_DEFINITION('Product','Product',#1604,#1602);
#1604=PRODUCT_DEFINITION_FORMATION('',$,#1609);
#1605=PRODUCT_RELATED_PRODUCT_CATEGORY('Product','Product',(#1609));
#1606=APPLICATION_PROTOCOL_DEFINITION('international standard',
'automotive_design',2009,#1607);
#1607=APPLICATION_CONTEXT(
'Core Data for Automotive Mechanical Design Process');
#1608=PRODUCT_CONTEXT('part definition',#1607,'mechanical');
#1609=PRODUCT('Product','Product',$,(#1608));
#1610=PRESENTATION_STYLE_ASSIGNMENT((#1613));
#1611=PRESENTATION_STYLE_ASSIGNMENT((#1614));
#1612=PRESENTATION_STYLE_ASSIGNMENT((#1615));
#1613=SURFACE_STYLE_USAGE(.BOTH.,#1616);
#1614=SURFACE_STYLE_USAGE(.BOTH.,#1617);
#1615=SURFACE_STYLE_USAGE(.BOTH.,#1618);
#1616=SURFACE_SIDE_STYLE('',(#1619));
#1617=SURFACE_SIDE_STYLE('',(#1620));
#1618=SURFACE_SIDE_STYLE('',(#1621));
#1619=SURFACE_STYLE_FILL_AREA(#1622);
#1620=SURFACE_STYLE_FILL_AREA(#1623);
#1621=SURFACE_STYLE_FILL_AREA(#1624);
#1622=FILL_AREA_STYLE('',(#1625));
#1623=FILL_AREA_STYLE('',(#1626));
#1624=FILL_AREA_STYLE('',(#1627));
#1625=FILL_AREA_STYLE_COLOUR('',#1628);
#1626=FILL_AREA_STYLE_COLOUR('',#1629);
#1627=FILL_AREA_STYLE_COLOUR('',#1630);
#1628=COLOUR_RGB('',1.,1.,1.);
#1629=COLOUR_RGB('',0.329411764705882,0.329411764705882,0.329411764705882);
#1630=COLOUR_RGB('',0.866666666666667,0.866666666666667,0.866666666666667);
ENDSEC;
END-ISO-10303-21;
