ISO-10303-21;
HEADER;
/****************************************************************
 * Generated by software with PDElib inside                    *
 * PDElib Version v51a, created Wed 11/30/2011                  *
 * ITI Transcendata (http://www.transcendata.com/)              *
 ****************************************************************/
FILE_DESCRIPTION((''),'2;1');
FILE_NAME('SOT95P275X140-3N.stp','2014-09-30T11:04:51',(''),(''),'Mechanical Desktop 2011','Mechanical Desktop 2011',', , ');
FILE_SCHEMA(('AUTOMOTIVE_DESIGN { 1 2 10303 214 1 1 1 1 }'));
ENDSEC;
DATA;
#10=(NAMED_UNIT(*)PLANE_ANGLE_UNIT()SI_UNIT($,.RADIAN.));
#11=DIMENSIONAL_EXPONENTS(0.0,0.0,0.0,0.0,0.0,0.0,0.0);
#12=PLANE_ANGLE_MEASURE_WITH_UNIT(PLANE_ANGLE_MEASURE(0.0174532925),#10);
#16=(CONVERSION_BASED_UNIT('DEGREE',#12)NAMED_UNIT(#11)PLANE_ANGLE_UNIT());
#20=(NAMED_UNIT(*)SI_UNIT($,.STERADIAN.)SOLID_ANGLE_UNIT());
#24=(LENGTH_UNIT()NAMED_UNIT(*)SI_UNIT(.MILLI.,.METRE.));
#26=UNCERTAINTY_MEASURE_WITH_UNIT(LENGTH_MEASURE(0.000001),#24,'DISTANCE_ACCURACY_VALUE','');
#28=(GEOMETRIC_REPRESENTATION_CONTEXT(3)GLOBAL_UNCERTAINTY_ASSIGNED_CONTEXT((#26))GLOBAL_UNIT_ASSIGNED_CONTEXT((#16,#20,#24))REPRESENTATION_CONTEXT('','3D'));
#29=APPLICATION_CONTEXT('automotive design');
#30=APPLICATION_PROTOCOL_DEFINITION('INTERNATIONAL_STANDARD','automotive_design',1998,#29);
#31=PRODUCT_CONTEXT('3D Mechanical Parts',#29,'mechanical');
#32=PRODUCT('Product','Product','',(#31));
#33=PRODUCT_RELATED_PRODUCT_CATEGORY('part',$,(#32));
#34=PRODUCT_CATEGORY('part',$);
#35=PERSON('1','Design','Joe',$,$,$);
#36=ORGANIZATION($,'None','None');
#37=PERSON_AND_ORGANIZATION(#35,#36);
#38=PERSON_AND_ORGANIZATION_ROLE('design_owner');
#39=APPLIED_PERSON_AND_ORGANIZATION_ASSIGNMENT(#37,#38,(#32));
#40=PRODUCT_DEFINITION_FORMATION_WITH_SPECIFIED_SOURCE('None','',#32,.BOUGHT.);
#41=PERSON('2','Creator','Joe',$,$,$);
#42=ORGANIZATION($,'None','None');
#43=PERSON_AND_ORGANIZATION(#41,#42);
#44=PERSON_AND_ORGANIZATION_ROLE('creator');
#45=APPLIED_PERSON_AND_ORGANIZATION_ASSIGNMENT(#43,#44,(#40));
#46=PERSON('3','Supplier','Joe',$,$,$);
#47=ORGANIZATION($,'None','None');
#48=PERSON_AND_ORGANIZATION(#46,#47);
#49=PERSON_AND_ORGANIZATION_ROLE('design_supplier');
#50=APPLIED_PERSON_AND_ORGANIZATION_ASSIGNMENT(#48,#49,(#40));
#51=PRODUCT_DEFINITION_CONTEXT('part definition',#29,'design');
#52=PRODUCT_DEFINITION('None','',#40,#51);
#53=PERSON('4','Creator','Joe',$,$,$);
#54=ORGANIZATION($,'None','None');
#55=PERSON_AND_ORGANIZATION(#53,#54);
#56=PERSON_AND_ORGANIZATION_ROLE('creator');
#57=APPLIED_PERSON_AND_ORGANIZATION_ASSIGNMENT(#55,#56,(#52));
#58=CARTESIAN_POINT('NONE',(0.0,0.0,0.0));
#59=DIRECTION('NONE',(0.0,0.0,1.0));
#60=DIRECTION('NONE',(1.0,0.0,0.0));
#61=AXIS2_PLACEMENT_3D('NONE',#58,#59,#60);
#62=SHAPE_REPRESENTATION('SR1',(#61),#28);
#63=PRODUCT_DEFINITION_SHAPE('PDS1','Test Part',#52);
#64=SHAPE_DEFINITION_REPRESENTATION(#63,#62);
#65=CARTESIAN_POINT('',(0.849999999999801,0.254999999999999,0.86499999999994));
#66=CARTESIAN_POINT('',(0.775000000000106,0.254999999999999,0.865000000000001));
#67=CARTESIAN_POINT('',(0.849999999999801,-0.255000000000001,0.86499999999994));
#68=CARTESIAN_POINT('',(0.775000000000106,-0.255000000000001,0.865000000000001));
#69=B_SPLINE_SURFACE_WITH_KNOTS('',1,1,((#65,#67),(#66,#68)),.UNSPECIFIED.,.F.,.F.,.U.,(2,2),(2,2),(0.0,0.074999999999695),(0.0,0.51),.UNSPECIFIED.);
#70=CARTESIAN_POINT('',(0.775000000000106,0.254999999999999,0.865000000000001));
#71=VERTEX_POINT('',#70);
#72=CARTESIAN_POINT('',(0.849999999999801,0.254999999999999,0.86499999999994));
#73=VERTEX_POINT('',#72);
#74=CARTESIAN_POINT('',(0.775000000000106,0.254999999999999,0.865000000000001));
#75=DIRECTION('',(1.0,0.0,-8.141636E-013));
#76=VECTOR('',#75,0.074999999999695);
#77=LINE('',#74,#76);
#78=EDGE_CURVE('',#71,#73,#77,.T.);
#79=ORIENTED_EDGE('',*,*,#78,.F.);
#80=CARTESIAN_POINT('',(0.775000000000106,-0.255000000000001,0.865000000000001));
#81=VERTEX_POINT('',#80);
#82=CARTESIAN_POINT('',(0.775000000000106,-0.255000000000001,0.865000000000001));
#83=DIRECTION('',(0.0,1.0,0.0));
#84=VECTOR('',#83,0.51);
#85=LINE('',#82,#84);
#86=EDGE_CURVE('',#81,#71,#85,.T.);
#87=ORIENTED_EDGE('',*,*,#86,.F.);
#88=CARTESIAN_POINT('',(0.849999999999801,-0.255000000000001,0.86499999999994));
#89=VERTEX_POINT('',#88);
#90=CARTESIAN_POINT('',(0.775000000000106,-0.255000000000001,0.865000000000001));
#91=DIRECTION('',(1.0,0.0,-8.141636E-013));
#92=VECTOR('',#91,0.074999999999695);
#93=LINE('',#90,#92);
#94=EDGE_CURVE('',#81,#89,#93,.T.);
#95=ORIENTED_EDGE('',*,*,#94,.T.);
#96=CARTESIAN_POINT('',(0.849999999999801,-0.255000000000001,0.86499999999994));
#97=DIRECTION('',(0.0,1.0,0.0));
#98=VECTOR('',#97,0.51);
#99=LINE('',#96,#98);
#100=EDGE_CURVE('',#89,#73,#99,.T.);
#101=ORIENTED_EDGE('',*,*,#100,.T.);
#102=EDGE_LOOP('',(#79,#87,#95,#101));
#103=FACE_OUTER_BOUND('',#102,.T.);
#104=ADVANCED_FACE('',(#103),#69,.T.);
#105=CARTESIAN_POINT('',(0.687365440326988,-0.255000000000001,0.472365440327016));
#106=CARTESIAN_POINT('',(0.687365440326988,0.254999999999999,0.472365440327016));
#107=CARTESIAN_POINT('',(0.849999999999922,-0.255000000000001,0.309730880654153));
#108=CARTESIAN_POINT('',(0.849999999999922,0.254999999999999,0.309730880654153));
#109=CARTESIAN_POINT('',(1.012634559672785,-0.255000000000001,0.472365440327087));
#110=CARTESIAN_POINT('',(1.012634559672785,0.254999999999999,0.472365440327087));
#111=CARTESIAN_POINT('',(1.175269119345648,-0.255000000000001,0.635000000000021));
#112=CARTESIAN_POINT('',(1.175269119345648,0.254999999999999,0.635000000000021));
#113=CARTESIAN_POINT('',(1.012634559672715,-0.255000000000001,0.797634559672884));
#114=CARTESIAN_POINT('',(1.012634559672715,0.254999999999999,0.797634559672884));
#115=CARTESIAN_POINT('',(0.849999999999781,-0.255000000000001,0.960269119345748));
#116=CARTESIAN_POINT('',(0.849999999999781,0.254999999999999,0.960269119345748));
#117=CARTESIAN_POINT('',(0.687365440326917,-0.255000000000001,0.797634559672814));
#118=CARTESIAN_POINT('',(0.687365440326917,0.254999999999999,0.797634559672814));
#119=CARTESIAN_POINT('',(0.524730880654054,-0.255000000000001,0.63499999999988));
#120=CARTESIAN_POINT('',(0.524730880654054,0.254999999999999,0.63499999999988));
#121=CARTESIAN_POINT('',(0.687365440326988,-0.255000000000001,0.472365440327016));
#122=CARTESIAN_POINT('',(0.687365440326988,0.254999999999999,0.472365440327016));
#130=(BOUNDED_SURFACE()B_SPLINE_SURFACE(1,2,((#105,#107,#109,#111,#113,#115,#117,#119,#121),(#106,#108,#110,#112,#114,#116,#118,#120,#122)),.UNSPECIFIED.,.F.,.T.,.U.)B_SPLINE_SURFACE_WITH_KNOTS((2,2),(3,2,2,2,3),(0.0,2.217391304347924),(0.0,0.36128315516281,0.72256631032562,1.083849465488431,1.445132620651241),.UNSPECIFIED.)GEOMETRIC_REPRESENTATION_ITEM()RATIONAL_B_SPLINE_SURFACE(((1.0,0.707106781186548,1.0,0.707106781186548,1.0,0.707106781186548,1.0,0.707106781186548,1.0),(1.0,0.707106781186548,1.0,0.707106781186548,1.0,0.707106781186548,1.0,0.707106781186548,1.0)))REPRESENTATION_ITEM('')SURFACE());
#131=CARTESIAN_POINT('',(1.079999999999841,0.254999999999999,0.635));
#132=VERTEX_POINT('',#131);
#133=CARTESIAN_POINT('',(0.849999999999851,0.254999999999999,0.63499999999995));
#134=DIRECTION('',(0.0,1.0,0.0));
#135=DIRECTION('',(0.707106781186394,0.0,0.707106781186701));
#136=AXIS2_PLACEMENT_3D('',#133,#134,#135);
#137=CIRCLE('',#136,0.22999999999999);
#138=EDGE_CURVE('',#73,#132,#137,.T.);
#139=ORIENTED_EDGE('',*,*,#138,.F.);
#140=ORIENTED_EDGE('',*,*,#100,.F.);
#141=CARTESIAN_POINT('',(1.079999999999841,-0.255000000000001,0.635));
#142=VERTEX_POINT('',#141);
#143=CARTESIAN_POINT('',(0.849999999999851,-0.255000000000001,0.63499999999995));
#144=DIRECTION('',(0.0,1.0,0.0));
#145=DIRECTION('',(0.707106781186394,0.0,0.707106781186701));
#146=AXIS2_PLACEMENT_3D('',#143,#144,#145);
#147=CIRCLE('',#146,0.22999999999999);
#148=EDGE_CURVE('',#89,#142,#147,.T.);
#149=ORIENTED_EDGE('',*,*,#148,.T.);
#150=CARTESIAN_POINT('',(1.079999999999841,-0.255000000000001,0.635));
#151=DIRECTION('',(0.0,1.0,0.0));
#152=VECTOR('',#151,0.51);
#153=LINE('',#150,#152);
#154=EDGE_CURVE('',#142,#132,#153,.T.);
#155=ORIENTED_EDGE('',*,*,#154,.T.);
#156=EDGE_LOOP('',(#139,#140,#149,#155));
#157=FACE_OUTER_BOUND('',#156,.T.);
#158=ADVANCED_FACE('',(#157),#130,.T.);
#159=CARTESIAN_POINT('',(1.079999999999838,0.254999999999999,0.232198105317515));
#160=CARTESIAN_POINT('',(1.079999999999841,0.254999999999999,0.635));
#161=CARTESIAN_POINT('',(1.079999999999838,-0.255000000000001,0.232198105317515));
#162=CARTESIAN_POINT('',(1.079999999999841,-0.255000000000001,0.635));
#163=B_SPLINE_SURFACE_WITH_KNOTS('',1,1,((#159,#161),(#160,#162)),.UNSPECIFIED.,.F.,.F.,.U.,(2,2),(2,2),(0.0,0.402801894682486),(0.0,0.51),.UNSPECIFIED.);
#164=CARTESIAN_POINT('',(1.079999999999838,0.254999999999999,0.232198105317515));
#165=VERTEX_POINT('',#164);
#166=CARTESIAN_POINT('',(1.079999999999841,0.254999999999999,0.635));
#167=DIRECTION('',(0.0,0.0,-1.0));
#168=VECTOR('',#167,0.402801894682486);
#169=LINE('',#166,#168);
#170=EDGE_CURVE('',#132,#165,#169,.T.);
#171=ORIENTED_EDGE('',*,*,#170,.F.);
#172=ORIENTED_EDGE('',*,*,#154,.F.);
#173=CARTESIAN_POINT('',(1.079999999999838,-0.255000000000001,0.232198105317515));
#174=VERTEX_POINT('',#173);
#175=CARTESIAN_POINT('',(1.079999999999841,-0.255000000000001,0.635));
#176=DIRECTION('',(0.0,0.0,-1.0));
#177=VECTOR('',#176,0.402801894682486);
#178=LINE('',#175,#177);
#179=EDGE_CURVE('',#142,#174,#178,.T.);
#180=ORIENTED_EDGE('',*,*,#179,.T.);
#181=CARTESIAN_POINT('',(1.079999999999838,-0.255000000000001,0.232198105317515));
#182=DIRECTION('',(0.0,1.0,0.0));
#183=VECTOR('',#182,0.51);
#184=LINE('',#181,#183);
#185=EDGE_CURVE('',#174,#165,#184,.T.);
#186=ORIENTED_EDGE('',*,*,#185,.T.);
#187=EDGE_LOOP('',(#171,#172,#180,#186));
#188=FACE_OUTER_BOUND('',#187,.T.);
#189=ADVANCED_FACE('',(#188),#163,.T.);
#190=CARTESIAN_POINT('',(1.202426900455066,0.254999999999999,0.278581508692621));
#191=CARTESIAN_POINT('',(1.202426900455066,-0.255000000000001,0.278581508692621));
#192=CARTESIAN_POINT('',(1.156043497079963,0.254999999999999,0.33100840914785));
#193=CARTESIAN_POINT('',(1.156043497079963,-0.255000000000001,0.33100840914785));
#194=CARTESIAN_POINT('',(1.103616596624735,0.254999999999999,0.284625005772747));
#195=CARTESIAN_POINT('',(1.103616596624735,-0.255000000000001,0.284625005772747));
#196=CARTESIAN_POINT('',(1.051189696169506,0.254999999999999,0.238241602397645));
#197=CARTESIAN_POINT('',(1.051189696169506,-0.255000000000001,0.238241602397645));
#198=CARTESIAN_POINT('',(1.097573099544609,0.254999999999999,0.185814701942416));
#199=CARTESIAN_POINT('',(1.097573099544609,-0.255000000000001,0.185814701942416));
#200=CARTESIAN_POINT('',(1.143956502919711,0.254999999999999,0.133387801487188));
#201=CARTESIAN_POINT('',(1.143956502919711,-0.255000000000001,0.133387801487188));
#202=CARTESIAN_POINT('',(1.19638340337494,0.254999999999999,0.17977120486229));
#203=CARTESIAN_POINT('',(1.19638340337494,-0.255000000000001,0.17977120486229));
#204=CARTESIAN_POINT('',(1.248810303830168,0.254999999999999,0.226154608237393));
#205=CARTESIAN_POINT('',(1.248810303830168,-0.255000000000001,0.226154608237393));
#206=CARTESIAN_POINT('',(1.202426900455066,0.254999999999999,0.278581508692621));
#207=CARTESIAN_POINT('',(1.202426900455066,-0.255000000000001,0.278581508692621));
#215=(BOUNDED_SURFACE()B_SPLINE_SURFACE(1,2,((#190,#192,#194,#196,#198,#200,#202,#204,#206),(#191,#193,#195,#197,#199,#201,#203,#205,#207)),.UNSPECIFIED.,.F.,.T.,.U.)B_SPLINE_SURFACE_WITH_KNOTS((2,2),(3,2,2,2,3),(-7.285714285714337,0.0),(0.0,0.109955742875642,0.219911485751284,0.329867228626926,0.439822971502568),.UNSPECIFIED.)GEOMETRIC_REPRESENTATION_ITEM()RATIONAL_B_SPLINE_SURFACE(((1.0,0.707106781186548,1.0,0.707106781186548,1.0,0.707106781186548,1.0,0.707106781186548,1.0),(1.0,0.707106781186548,1.0,0.707106781186548,1.0,0.707106781186548,1.0,0.707106781186548,1.0)))REPRESENTATION_ITEM('')SURFACE());
#216=CARTESIAN_POINT('',(1.141469145961476,0.254999999999999,0.162719874702627));
#217=VERTEX_POINT('',#216);
#218=CARTESIAN_POINT('',(1.149999999999837,0.254999999999999,0.232198105317519));
#219=DIRECTION('',(0.0,-1.0,0.0));
#220=DIRECTION('',(-0.748955720788986,0.0,-0.662620048215756));
#221=AXIS2_PLACEMENT_3D('',#218,#219,#220);
#222=CIRCLE('',#221,0.069999999999999);
#223=EDGE_CURVE('',#165,#217,#222,.T.);
#224=ORIENTED_EDGE('',*,*,#223,.F.);
#225=ORIENTED_EDGE('',*,*,#185,.F.);
#226=CARTESIAN_POINT('',(1.141469145961476,-0.255000000000001,0.162719874702627));
#227=VERTEX_POINT('',#226);
#228=CARTESIAN_POINT('',(1.149999999999837,-0.255000000000001,0.232198105317519));
#229=DIRECTION('',(0.0,-1.0,0.0));
#230=DIRECTION('',(-0.748955720788986,0.0,-0.662620048215756));
#231=AXIS2_PLACEMENT_3D('',#228,#229,#230);
#232=CIRCLE('',#231,0.069999999999999);
#233=EDGE_CURVE('',#174,#227,#232,.T.);
#234=ORIENTED_EDGE('',*,*,#233,.T.);
#235=CARTESIAN_POINT('',(1.141469145961476,-0.255000000000001,0.162719874702627));
#236=DIRECTION('',(0.0,1.0,0.0));
#237=VECTOR('',#236,0.51);
#238=LINE('',#235,#237);
#239=EDGE_CURVE('',#227,#217,#238,.T.);
#240=ORIENTED_EDGE('',*,*,#239,.T.);
#241=EDGE_LOOP('',(#224,#225,#234,#240));
#242=FACE_OUTER_BOUND('',#241,.T.);
#243=ADVANCED_FACE('',(#242),#215,.T.);
#244=CARTESIAN_POINT('',(1.350742606843013,0.254999999999999,0.137024324699642));
#245=CARTESIAN_POINT('',(1.141469145961476,0.254999999999999,0.162719874702627));
#246=CARTESIAN_POINT('',(1.350742606843013,-0.255000000000001,0.137024324699642));
#247=CARTESIAN_POINT('',(1.141469145961477,-0.255000000000001,0.162719874702627));
#248=B_SPLINE_SURFACE_WITH_KNOTS('',1,1,((#244,#246),(#245,#247)),.UNSPECIFIED.,.F.,.F.,.U.,(2,2),(2,2),(0.0,0.210845068045928),(0.0,0.51),.UNSPECIFIED.);
#249=CARTESIAN_POINT('',(1.350742606843013,0.254999999999999,0.137024324699642));
#250=VERTEX_POINT('',#249);
#251=CARTESIAN_POINT('',(1.141469145961476,0.254999999999999,0.162719874702627));
#252=DIRECTION('',(0.992546151641314,0.0,-0.121869343405213));
#253=VECTOR('',#252,0.210845068045928);
#254=LINE('',#251,#253);
#255=EDGE_CURVE('',#217,#250,#254,.T.);
#256=ORIENTED_EDGE('',*,*,#255,.F.);
#257=ORIENTED_EDGE('',*,*,#239,.F.);
#258=CARTESIAN_POINT('',(1.350742606843013,-0.255000000000001,0.137024324699642));
#259=VERTEX_POINT('',#258);
#260=CARTESIAN_POINT('',(1.141469145961476,-0.255000000000001,0.162719874702627));
#261=DIRECTION('',(0.992546151641314,0.0,-0.121869343405213));
#262=VECTOR('',#261,0.210845068045928);
#263=LINE('',#260,#262);
#264=EDGE_CURVE('',#227,#259,#263,.T.);
#265=ORIENTED_EDGE('',*,*,#264,.T.);
#266=CARTESIAN_POINT('',(1.350742606843013,-0.255000000000001,0.137024324699642));
#267=DIRECTION('',(0.0,1.0,0.0));
#268=VECTOR('',#267,0.51);
#269=LINE('',#266,#268);
#270=EDGE_CURVE('',#259,#250,#269,.T.);
#271=ORIENTED_EDGE('',*,*,#270,.T.);
#272=EDGE_LOOP('',(#256,#257,#265,#271));
#273=FACE_OUTER_BOUND('',#272,.T.);
#274=ADVANCED_FACE('',(#273),#248,.T.);
#275=CARTESIAN_POINT('',(1.334899592200335,0.254999999999999,0.007993324986271));
#276=CARTESIAN_POINT('',(1.350742606843013,0.254999999999999,0.137024324699642));
#277=CARTESIAN_POINT('',(1.334899592200335,-0.255000000000001,0.007993324986271));
#278=CARTESIAN_POINT('',(1.350742606843013,-0.255000000000001,0.137024324699642));
#279=B_SPLINE_SURFACE_WITH_KNOTS('',1,1,((#275,#277),(#276,#278)),.UNSPECIFIED.,.F.,.F.,.U.,(2,2),(2,2),(0.0,0.13),(0.0,0.51),.UNSPECIFIED.);
#280=CARTESIAN_POINT('',(1.334899592200335,0.254999999999999,0.007993324986271));
#281=VERTEX_POINT('',#280);
#282=CARTESIAN_POINT('',(1.350742606843013,0.254999999999999,0.137024324699642));
#283=DIRECTION('',(-0.121869343405214,0.0,-0.992546151641314));
#284=VECTOR('',#283,0.13);
#285=LINE('',#282,#284);
#286=EDGE_CURVE('',#250,#281,#285,.T.);
#287=ORIENTED_EDGE('',*,*,#286,.F.);
#288=ORIENTED_EDGE('',*,*,#270,.F.);
#289=CARTESIAN_POINT('',(1.334899592200335,-0.255000000000001,0.007993324986271));
#290=VERTEX_POINT('',#289);
#291=CARTESIAN_POINT('',(1.350742606843013,-0.255000000000001,0.137024324699642));
#292=DIRECTION('',(-0.121869343405214,0.0,-0.992546151641314));
#293=VECTOR('',#292,0.13);
#294=LINE('',#291,#293);
#295=EDGE_CURVE('',#259,#290,#294,.T.);
#296=ORIENTED_EDGE('',*,*,#295,.T.);
#297=CARTESIAN_POINT('',(1.334899592200335,-0.255000000000001,0.007993324986271));
#298=DIRECTION('',(0.0,1.0,0.0));
#299=VECTOR('',#298,0.51);
#300=LINE('',#297,#299);
#301=EDGE_CURVE('',#290,#281,#300,.T.);
#302=ORIENTED_EDGE('',*,*,#301,.T.);
#303=EDGE_LOOP('',(#287,#288,#296,#302));
#304=FACE_OUTER_BOUND('',#303,.T.);
#305=ADVANCED_FACE('',(#304),#279,.T.);
#306=CARTESIAN_POINT('',(1.125626131318799,0.254999999999999,0.033688874989256));
#307=CARTESIAN_POINT('',(1.334899592200335,0.254999999999999,0.007993324986271));
#308=CARTESIAN_POINT('',(1.125626131318799,-0.255000000000001,0.033688874989256));
#309=CARTESIAN_POINT('',(1.334899592200335,-0.255000000000001,0.007993324986271));
#310=B_SPLINE_SURFACE_WITH_KNOTS('',1,1,((#306,#308),(#307,#309)),.UNSPECIFIED.,.F.,.F.,.U.,(2,2),(2,2),(0.0,0.210845068045928),(0.0,0.51),.UNSPECIFIED.);
#311=CARTESIAN_POINT('',(1.125626131318799,0.254999999999999,0.033688874989256));
#312=VERTEX_POINT('',#311);
#313=CARTESIAN_POINT('',(1.334899592200335,0.254999999999999,0.007993324986271));
#314=DIRECTION('',(-0.992546151641314,0.0,0.121869343405213));
#315=VECTOR('',#314,0.210845068045928);
#316=LINE('',#313,#315);
#317=EDGE_CURVE('',#281,#312,#316,.T.);
#318=ORIENTED_EDGE('',*,*,#317,.F.);
#319=ORIENTED_EDGE('',*,*,#301,.F.);
#320=CARTESIAN_POINT('',(1.125626131318799,-0.255000000000001,0.033688874989256));
#321=VERTEX_POINT('',#320);
#322=CARTESIAN_POINT('',(1.334899592200335,-0.255000000000001,0.007993324986271));
#323=DIRECTION('',(-0.992546151641314,0.0,0.121869343405213));
#324=VECTOR('',#323,0.210845068045928);
#325=LINE('',#322,#324);
#326=EDGE_CURVE('',#290,#321,#325,.T.);
#327=ORIENTED_EDGE('',*,*,#326,.T.);
#328=CARTESIAN_POINT('',(1.125626131318799,-0.255000000000001,0.033688874989256));
#329=DIRECTION('',(0.0,1.0,0.0));
#330=VECTOR('',#329,0.51);
#331=LINE('',#328,#330);
#332=EDGE_CURVE('',#321,#312,#331,.T.);
#333=ORIENTED_EDGE('',*,*,#332,.T.);
#334=EDGE_LOOP('',(#318,#319,#327,#333));
#335=FACE_OUTER_BOUND('',#334,.T.);
#336=ADVANCED_FACE('',(#335),#310,.T.);
#337=CARTESIAN_POINT('',(1.299791144157634,-0.255000000000001,0.364722114960662));
#338=CARTESIAN_POINT('',(1.299791144157634,0.254999999999999,0.364722114960662));
#339=CARTESIAN_POINT('',(1.167267134514489,-0.255000000000001,0.514513259118461));
#340=CARTESIAN_POINT('',(1.167267134514489,0.254999999999999,0.514513259118461));
#341=CARTESIAN_POINT('',(1.01747599035669,-0.255000000000001,0.381989249475316));
#342=CARTESIAN_POINT('',(1.01747599035669,0.254999999999999,0.381989249475316));
#343=CARTESIAN_POINT('',(0.867684846198891,-0.255000000000001,0.24946523983217));
#344=CARTESIAN_POINT('',(0.867684846198891,0.254999999999999,0.24946523983217));
#345=CARTESIAN_POINT('',(1.000208855842036,-0.255000000000001,0.099674095674372));
#346=CARTESIAN_POINT('',(1.000208855842036,0.254999999999999,0.099674095674372));
#347=CARTESIAN_POINT('',(1.132732865485181,-0.255000000000001,-0.050117048483427));
#348=CARTESIAN_POINT('',(1.132732865485181,0.254999999999999,-0.050117048483427));
#349=CARTESIAN_POINT('',(1.28252400964298,-0.255000000000001,0.082406961159718));
#350=CARTESIAN_POINT('',(1.28252400964298,0.254999999999999,0.082406961159718));
#351=CARTESIAN_POINT('',(1.432315153800779,-0.255000000000001,0.214930970802863));
#352=CARTESIAN_POINT('',(1.432315153800779,0.254999999999999,0.214930970802863));
#353=CARTESIAN_POINT('',(1.299791144157634,-0.255000000000001,0.364722114960662));
#354=CARTESIAN_POINT('',(1.299791144157634,0.254999999999999,0.364722114960662));
#362=(BOUNDED_SURFACE()B_SPLINE_SURFACE(1,2,((#337,#339,#341,#343,#345,#347,#349,#351,#353),(#338,#340,#342,#344,#346,#348,#350,#352,#354)),.UNSPECIFIED.,.F.,.T.,.U.)B_SPLINE_SURFACE_WITH_KNOTS((2,2),(3,2,2,2,3),(0.0,2.550000000000035),(0.0,0.314159265358975,0.62831853071795,0.942477796076925,1.2566370614359),.UNSPECIFIED.)GEOMETRIC_REPRESENTATION_ITEM()RATIONAL_B_SPLINE_SURFACE(((1.0,0.707106781186548,1.0,0.707106781186548,1.0,0.707106781186548,1.0,0.707106781186548,1.0),(1.0,0.707106781186548,1.0,0.707106781186548,1.0,0.707106781186548,1.0,0.707106781186548,1.0)))REPRESENTATION_ITEM('')SURFACE());
#363=CARTESIAN_POINT('',(0.949999999999838,0.254999999999999,0.232198105317511));
#364=VERTEX_POINT('',#363);
#365=CARTESIAN_POINT('',(1.149999999999835,0.254999999999999,0.232198105317517));
#366=DIRECTION('',(0.0,1.0,0.0));
#367=DIRECTION('',(-0.748955720789004,0.0,-0.662620048215735));
#368=AXIS2_PLACEMENT_3D('',#365,#366,#367);
#369=CIRCLE('',#368,0.199999999999997);
#370=EDGE_CURVE('',#312,#364,#369,.T.);
#371=ORIENTED_EDGE('',*,*,#370,.F.);
#372=ORIENTED_EDGE('',*,*,#332,.F.);
#373=CARTESIAN_POINT('',(0.949999999999838,-0.255000000000001,0.232198105317511));
#374=VERTEX_POINT('',#373);
#375=CARTESIAN_POINT('',(1.149999999999835,-0.255000000000001,0.232198105317517));
#376=DIRECTION('',(0.0,1.0,0.0));
#377=DIRECTION('',(-0.748955720789004,0.0,-0.662620048215735));
#378=AXIS2_PLACEMENT_3D('',#375,#376,#377);
#379=CIRCLE('',#378,0.199999999999997);
#380=EDGE_CURVE('',#321,#374,#379,.T.);
#381=ORIENTED_EDGE('',*,*,#380,.T.);
#382=CARTESIAN_POINT('',(0.949999999999838,-0.255000000000001,0.232198105317511));
#383=DIRECTION('',(0.0,1.0,0.0));
#384=VECTOR('',#383,0.51);
#385=LINE('',#382,#384);
#386=EDGE_CURVE('',#374,#364,#385,.T.);
#387=ORIENTED_EDGE('',*,*,#386,.T.);
#388=EDGE_LOOP('',(#371,#372,#381,#387));
#389=FACE_OUTER_BOUND('',#388,.T.);
#390=ADVANCED_FACE('',(#389),#362,.T.);
#391=CARTESIAN_POINT('',(0.949999999999841,0.254999999999999,0.635000000000001));
#392=CARTESIAN_POINT('',(0.949999999999838,0.254999999999999,0.232198105317511));
#393=CARTESIAN_POINT('',(0.949999999999841,-0.255000000000001,0.635000000000001));
#394=CARTESIAN_POINT('',(0.949999999999838,-0.255000000000001,0.232198105317511));
#395=B_SPLINE_SURFACE_WITH_KNOTS('',1,1,((#391,#393),(#392,#394)),.UNSPECIFIED.,.F.,.F.,.U.,(2,2),(2,2),(0.0,0.402801894682491),(0.0,0.51),.UNSPECIFIED.);
#396=CARTESIAN_POINT('',(0.949999999999841,0.254999999999999,0.635000000000001));
#397=VERTEX_POINT('',#396);
#398=CARTESIAN_POINT('',(0.949999999999838,0.254999999999999,0.232198105317511));
#399=DIRECTION('',(0.0,0.0,1.0));
#400=VECTOR('',#399,0.402801894682491);
#401=LINE('',#398,#400);
#402=EDGE_CURVE('',#364,#397,#401,.T.);
#403=ORIENTED_EDGE('',*,*,#402,.F.);
#404=ORIENTED_EDGE('',*,*,#386,.F.);
#405=CARTESIAN_POINT('',(0.949999999999841,-0.255000000000001,0.635000000000001));
#406=VERTEX_POINT('',#405);
#407=CARTESIAN_POINT('',(0.949999999999838,-0.255000000000001,0.232198105317511));
#408=DIRECTION('',(0.0,0.0,1.0));
#409=VECTOR('',#408,0.402801894682491);
#410=LINE('',#407,#409);
#411=EDGE_CURVE('',#374,#406,#410,.T.);
#412=ORIENTED_EDGE('',*,*,#411,.T.);
#413=CARTESIAN_POINT('',(0.949999999999841,-0.255000000000001,0.635000000000001));
#414=DIRECTION('',(0.0,1.0,0.0));
#415=VECTOR('',#414,0.51);
#416=LINE('',#413,#415);
#417=EDGE_CURVE('',#406,#397,#416,.T.);
#418=ORIENTED_EDGE('',*,*,#417,.T.);
#419=EDGE_LOOP('',(#403,#404,#412,#418));
#420=FACE_OUTER_BOUND('',#419,.T.);
#421=ADVANCED_FACE('',(#420),#395,.T.);
#422=CARTESIAN_POINT('',(0.77928932188126,0.254999999999999,0.564289321881316));
#423=CARTESIAN_POINT('',(0.77928932188126,-0.255000000000001,0.564289321881316));
#424=CARTESIAN_POINT('',(0.849999999999915,0.254999999999999,0.493578643762705));
#425=CARTESIAN_POINT('',(0.849999999999915,-0.255000000000001,0.493578643762705));
#426=CARTESIAN_POINT('',(0.920710678118526,0.254999999999999,0.564289321881359));
#427=CARTESIAN_POINT('',(0.920710678118526,-0.255000000000001,0.564289321881359));
#428=CARTESIAN_POINT('',(0.991421356237138,0.254999999999999,0.635000000000014));
#429=CARTESIAN_POINT('',(0.991421356237138,-0.255000000000001,0.635000000000014));
#430=CARTESIAN_POINT('',(0.920710678118483,0.254999999999999,0.705710678118625));
#431=CARTESIAN_POINT('',(0.920710678118483,-0.255000000000001,0.705710678118625));
#432=CARTESIAN_POINT('',(0.849999999999828,0.254999999999999,0.776421356237237));
#433=CARTESIAN_POINT('',(0.849999999999828,-0.255000000000001,0.776421356237237));
#434=CARTESIAN_POINT('',(0.779289321881217,0.254999999999999,0.705710678118582));
#435=CARTESIAN_POINT('',(0.779289321881217,-0.255000000000001,0.705710678118582));
#436=CARTESIAN_POINT('',(0.708578643762605,0.254999999999999,0.634999999999927));
#437=CARTESIAN_POINT('',(0.708578643762605,-0.255000000000001,0.634999999999927));
#438=CARTESIAN_POINT('',(0.77928932188126,0.254999999999999,0.564289321881316));
#439=CARTESIAN_POINT('',(0.77928932188126,-0.255000000000001,0.564289321881316));
#447=(BOUNDED_SURFACE()B_SPLINE_SURFACE(1,2,((#422,#424,#426,#428,#430,#432,#434,#436,#438),(#423,#425,#427,#429,#431,#433,#435,#437,#439)),.UNSPECIFIED.,.F.,.T.,.U.)B_SPLINE_SURFACE_WITH_KNOTS((2,2),(3,2,2,2,3),(-5.100000000001561,0.0),(0.0,0.157079632679442,0.314159265358883,0.471238898038325,0.628318530717766),.UNSPECIFIED.)GEOMETRIC_REPRESENTATION_ITEM()RATIONAL_B_SPLINE_SURFACE(((1.0,0.707106781186548,1.0,0.707106781186548,1.0,0.707106781186548,1.0,0.707106781186548,1.0),(1.0,0.707106781186548,1.0,0.707106781186548,1.0,0.707106781186548,1.0,0.707106781186548,1.0)))REPRESENTATION_ITEM('')SURFACE());
#448=CARTESIAN_POINT('',(0.849999999999841,0.254999999999999,0.73499999999994));
#449=VERTEX_POINT('',#448);
#450=CARTESIAN_POINT('',(0.849999999999872,0.254999999999999,0.634999999999971));
#451=DIRECTION('',(0.0,-1.0,0.0));
#452=DIRECTION('',(0.707106781186331,0.0,0.707106781186764));
#453=AXIS2_PLACEMENT_3D('',#450,#451,#452);
#454=CIRCLE('',#453,0.099999999999969);
#455=EDGE_CURVE('',#397,#449,#454,.T.);
#456=ORIENTED_EDGE('',*,*,#455,.F.);
#457=ORIENTED_EDGE('',*,*,#417,.F.);
#458=CARTESIAN_POINT('',(0.849999999999841,-0.255000000000001,0.73499999999994));
#459=VERTEX_POINT('',#458);
#460=CARTESIAN_POINT('',(0.849999999999872,-0.255000000000001,0.634999999999971));
#461=DIRECTION('',(0.0,-1.0,0.0));
#462=DIRECTION('',(0.707106781186331,0.0,0.707106781186764));
#463=AXIS2_PLACEMENT_3D('',#460,#461,#462);
#464=CIRCLE('',#463,0.099999999999969);
#465=EDGE_CURVE('',#406,#459,#464,.T.);
#466=ORIENTED_EDGE('',*,*,#465,.T.);
#467=CARTESIAN_POINT('',(0.849999999999841,-0.255000000000001,0.73499999999994));
#468=DIRECTION('',(0.0,1.0,0.0));
#469=VECTOR('',#468,0.51);
#470=LINE('',#467,#469);
#471=EDGE_CURVE('',#459,#449,#470,.T.);
#472=ORIENTED_EDGE('',*,*,#471,.T.);
#473=EDGE_LOOP('',(#456,#457,#466,#472));
#474=FACE_OUTER_BOUND('',#473,.T.);
#475=ADVANCED_FACE('',(#474),#447,.T.);
#476=CARTESIAN_POINT('',(0.775,0.254999999999999,0.735000000000001));
#477=CARTESIAN_POINT('',(0.849999999999841,0.254999999999999,0.73499999999994));
#478=CARTESIAN_POINT('',(0.775,-0.255000000000001,0.735000000000001));
#479=CARTESIAN_POINT('',(0.849999999999841,-0.255000000000001,0.73499999999994));
#480=B_SPLINE_SURFACE_WITH_KNOTS('',1,1,((#476,#478),(#477,#479)),.UNSPECIFIED.,.F.,.F.,.U.,(2,2),(2,2),(0.0,0.074999999999841),(0.0,0.51),.UNSPECIFIED.);
#481=CARTESIAN_POINT('',(0.775,0.254999999999999,0.735000000000001));
#482=VERTEX_POINT('',#481);
#483=CARTESIAN_POINT('',(0.849999999999841,0.254999999999999,0.73499999999994));
#484=DIRECTION('',(-1.0,0.0,8.156438E-013));
#485=VECTOR('',#484,0.074999999999841);
#486=LINE('',#483,#485);
#487=EDGE_CURVE('',#449,#482,#486,.T.);
#488=ORIENTED_EDGE('',*,*,#487,.F.);
#489=ORIENTED_EDGE('',*,*,#471,.F.);
#490=CARTESIAN_POINT('',(0.775,-0.255000000000001,0.735000000000001));
#491=VERTEX_POINT('',#490);
#492=CARTESIAN_POINT('',(0.849999999999841,-0.255000000000001,0.73499999999994));
#493=DIRECTION('',(-1.0,0.0,8.156438E-013));
#494=VECTOR('',#493,0.074999999999841);
#495=LINE('',#492,#494);
#496=EDGE_CURVE('',#459,#491,#495,.T.);
#497=ORIENTED_EDGE('',*,*,#496,.T.);
#498=CARTESIAN_POINT('',(0.775,-0.255000000000001,0.735000000000001));
#499=DIRECTION('',(0.0,1.0,0.0));
#500=VECTOR('',#499,0.51);
#501=LINE('',#498,#500);
#502=EDGE_CURVE('',#491,#482,#501,.T.);
#503=ORIENTED_EDGE('',*,*,#502,.T.);
#504=EDGE_LOOP('',(#488,#489,#497,#503));
#505=FACE_OUTER_BOUND('',#504,.T.);
#506=ADVANCED_FACE('',(#505),#480,.T.);
#507=CARTESIAN_POINT('',(0.775000000000106,0.254999999999999,0.865000000000001));
#508=CARTESIAN_POINT('',(0.775,0.254999999999999,0.735000000000001));
#509=CARTESIAN_POINT('',(0.775000000000106,-0.255000000000001,0.865000000000001));
#510=CARTESIAN_POINT('',(0.775,-0.255000000000001,0.735000000000001));
#511=B_SPLINE_SURFACE_WITH_KNOTS('',1,1,((#507,#509),(#508,#510)),.UNSPECIFIED.,.F.,.F.,.U.,(2,2),(2,2),(0.0,0.13),(0.0,0.51),.UNSPECIFIED.);
#512=CARTESIAN_POINT('',(0.775,0.254999999999999,0.735000000000001));
#513=DIRECTION('',(8.155869E-013,0.0,1.0));
#514=VECTOR('',#513,0.13);
#515=LINE('',#512,#514);
#516=EDGE_CURVE('',#482,#71,#515,.T.);
#517=ORIENTED_EDGE('',*,*,#516,.F.);
#518=ORIENTED_EDGE('',*,*,#502,.F.);
#519=CARTESIAN_POINT('',(0.775,-0.255000000000001,0.735000000000001));
#520=DIRECTION('',(8.155869E-013,0.0,1.0));
#521=VECTOR('',#520,0.13);
#522=LINE('',#519,#521);
#523=EDGE_CURVE('',#491,#81,#522,.T.);
#524=ORIENTED_EDGE('',*,*,#523,.T.);
#525=ORIENTED_EDGE('',*,*,#86,.T.);
#526=EDGE_LOOP('',(#517,#518,#524,#525));
#527=FACE_OUTER_BOUND('',#526,.T.);
#528=ADVANCED_FACE('',(#527),#511,.T.);
#529=CARTESIAN_POINT('',(0.775,0.254999999999999,0.007993324986271));
#530=CARTESIAN_POINT('',(0.775,0.254999999999999,0.865000000000001));
#531=CARTESIAN_POINT('',(1.350742606843013,0.254999999999999,0.007993324986271));
#532=CARTESIAN_POINT('',(1.350742606843013,0.254999999999999,0.865000000000001));
#533=B_SPLINE_SURFACE_WITH_KNOTS('',1,1,((#529,#531),(#530,#532)),.UNSPECIFIED.,.F.,.F.,.U.,(2,2),(2,2),(0.0,0.85700667501373),(0.0,0.575742606843012),.UNSPECIFIED.);
#534=ORIENTED_EDGE('',*,*,#78,.T.);
#535=ORIENTED_EDGE('',*,*,#138,.T.);
#536=ORIENTED_EDGE('',*,*,#170,.T.);
#537=ORIENTED_EDGE('',*,*,#223,.T.);
#538=ORIENTED_EDGE('',*,*,#255,.T.);
#539=ORIENTED_EDGE('',*,*,#286,.T.);
#540=ORIENTED_EDGE('',*,*,#317,.T.);
#541=ORIENTED_EDGE('',*,*,#370,.T.);
#542=ORIENTED_EDGE('',*,*,#402,.T.);
#543=ORIENTED_EDGE('',*,*,#455,.T.);
#544=ORIENTED_EDGE('',*,*,#487,.T.);
#545=ORIENTED_EDGE('',*,*,#516,.T.);
#546=EDGE_LOOP('',(#534,#535,#536,#537,#538,#539,#540,#541,#542,#543,#544,#545));
#547=FACE_OUTER_BOUND('',#546,.T.);
#548=ADVANCED_FACE('',(#547),#533,.T.);
#549=CARTESIAN_POINT('',(0.775,-0.255000000000002,0.007993324986271));
#550=CARTESIAN_POINT('',(0.775,-0.255000000000002,0.865000000000001));
#551=CARTESIAN_POINT('',(1.350742606843013,-0.255000000000002,0.007993324986271));
#552=CARTESIAN_POINT('',(1.350742606843013,-0.255000000000002,0.865000000000001));
#553=B_SPLINE_SURFACE_WITH_KNOTS('',1,1,((#549,#551),(#550,#552)),.UNSPECIFIED.,.F.,.F.,.U.,(2,2),(2,2),(0.0,0.85700667501373),(0.0,0.575742606843012),.UNSPECIFIED.);
#554=ORIENTED_EDGE('',*,*,#523,.F.);
#555=ORIENTED_EDGE('',*,*,#496,.F.);
#556=ORIENTED_EDGE('',*,*,#465,.F.);
#557=ORIENTED_EDGE('',*,*,#411,.F.);
#558=ORIENTED_EDGE('',*,*,#380,.F.);
#559=ORIENTED_EDGE('',*,*,#326,.F.);
#560=ORIENTED_EDGE('',*,*,#295,.F.);
#561=ORIENTED_EDGE('',*,*,#264,.F.);
#562=ORIENTED_EDGE('',*,*,#233,.F.);
#563=ORIENTED_EDGE('',*,*,#179,.F.);
#564=ORIENTED_EDGE('',*,*,#148,.F.);
#565=ORIENTED_EDGE('',*,*,#94,.F.);
#566=EDGE_LOOP('',(#554,#555,#556,#557,#558,#559,#560,#561,#562,#563,#564,#565));
#567=FACE_OUTER_BOUND('',#566,.T.);
#568=ADVANCED_FACE('',(#567),#553,.F.);
#569=CLOSED_SHELL('',(#104,#158,#189,#243,#274,#305,#336,#390,#421,#475,#506,#528,#548,#568));
#570=MANIFOLD_SOLID_BREP('3A0',#569);
#571=COLOUR_RGB('254',0.866,0.866,0.866);
#572=SURFACE_STYLE_USAGE(.BOTH.,#573);
#573=SURFACE_SIDE_STYLE('NONE',(#574));
#574=SURFACE_STYLE_FILL_AREA(#575);
#575=FILL_AREA_STYLE('NONE',(#576));
#576=FILL_AREA_STYLE_COLOUR('NONE',#571);
#577=PRESENTATION_STYLE_ASSIGNMENT((#572));
#578=STYLED_ITEM('NONE',(#577),#570);
#579=MECHANICAL_DESIGN_GEOMETRIC_PRESENTATION_REPRESENTATION('NONE',(#578,#1003,#1426,#1776),#28);
#580=PRESENTATION_LAYER_ASSIGNMENT('3D','None',(#570,#1002,#1425,#1768));
#581=CARTESIAN_POINT('',(-0.775000000000106,0.694999999999999,0.865000000000001));
#582=DIRECTION('',(-8.141636E-013,0.0,1.0));
#583=DIRECTION('',(1.0,0.0,8.141636E-013));
#584=AXIS2_PLACEMENT_3D('',#581,#582,#583);
#585=PLANE('',#584);
#586=CARTESIAN_POINT('',(-0.775000000000106,1.204999999999999,0.865000000000001));
#587=VERTEX_POINT('',#586);
#588=CARTESIAN_POINT('',(-0.849999999999801,1.204999999999999,0.86499999999994));
#589=VERTEX_POINT('',#588);
#590=CARTESIAN_POINT('',(-0.775000000000106,1.204999999999999,0.865000000000001));
#591=DIRECTION('',(-1.0,0.0,-8.141636E-013));
#592=VECTOR('',#591,0.074999999999695);
#593=LINE('',#590,#592);
#594=EDGE_CURVE('',#587,#589,#593,.T.);
#595=ORIENTED_EDGE('',*,*,#594,.T.);
#596=CARTESIAN_POINT('',(-0.849999999999801,0.694999999999999,0.86499999999994));
#597=VERTEX_POINT('',#596);
#598=CARTESIAN_POINT('',(-0.849999999999801,0.694999999999999,0.86499999999994));
#599=DIRECTION('',(0.0,1.0,0.0));
#600=VECTOR('',#599,0.51);
#601=LINE('',#598,#600);
#602=EDGE_CURVE('',#597,#589,#601,.T.);
#603=ORIENTED_EDGE('',*,*,#602,.F.);
#604=CARTESIAN_POINT('',(-0.775000000000106,0.694999999999999,0.865000000000001));
#605=VERTEX_POINT('',#604);
#606=CARTESIAN_POINT('',(-0.775000000000106,0.694999999999999,0.865000000000001));
#607=DIRECTION('',(-1.0,0.0,-8.141636E-013));
#608=VECTOR('',#607,0.074999999999695);
#609=LINE('',#606,#608);
#610=EDGE_CURVE('',#605,#597,#609,.T.);
#611=ORIENTED_EDGE('',*,*,#610,.F.);
#612=CARTESIAN_POINT('',(-0.775000000000106,0.694999999999999,0.865000000000001));
#613=DIRECTION('',(0.0,1.0,0.0));
#614=VECTOR('',#613,0.51);
#615=LINE('',#612,#614);
#616=EDGE_CURVE('',#605,#587,#615,.T.);
#617=ORIENTED_EDGE('',*,*,#616,.T.);
#618=EDGE_LOOP('',(#595,#603,#611,#617));
#619=FACE_OUTER_BOUND('',#618,.T.);
#620=ADVANCED_FACE('',(#619),#585,.T.);
#621=CARTESIAN_POINT('',(-0.849999999999851,0.694999999999999,0.63499999999995));
#622=DIRECTION('',(0.0,1.0,0.0));
#623=DIRECTION('',(-0.707106781186394,0.0,0.707106781186701));
#624=AXIS2_PLACEMENT_3D('',#621,#622,#623);
#625=CYLINDRICAL_SURFACE('',#624,0.22999999999999);
#626=CARTESIAN_POINT('',(-1.079999999999841,1.204999999999999,0.635));
#627=VERTEX_POINT('',#626);
#628=CARTESIAN_POINT('',(-0.849999999999851,1.204999999999999,0.63499999999995));
#629=DIRECTION('',(0.0,-1.0,0.0));
#630=DIRECTION('',(-0.707106781186394,0.0,0.707106781186701));
#631=AXIS2_PLACEMENT_3D('',#628,#629,#630);
#632=CIRCLE('',#631,0.22999999999999);
#633=EDGE_CURVE('',#589,#627,#632,.T.);
#634=ORIENTED_EDGE('',*,*,#633,.T.);
#635=CARTESIAN_POINT('',(-1.079999999999841,0.694999999999999,0.635));
#636=VERTEX_POINT('',#635);
#637=CARTESIAN_POINT('',(-1.079999999999841,0.694999999999999,0.635));
#638=DIRECTION('',(0.0,1.0,0.0));
#639=VECTOR('',#638,0.51);
#640=LINE('',#637,#639);
#641=EDGE_CURVE('',#636,#627,#640,.T.);
#642=ORIENTED_EDGE('',*,*,#641,.F.);
#643=CARTESIAN_POINT('',(-0.849999999999851,0.694999999999999,0.63499999999995));
#644=DIRECTION('',(0.0,-1.0,0.0));
#645=DIRECTION('',(-0.707106781186394,0.0,0.707106781186701));
#646=AXIS2_PLACEMENT_3D('',#643,#644,#645);
#647=CIRCLE('',#646,0.22999999999999);
#648=EDGE_CURVE('',#597,#636,#647,.T.);
#649=ORIENTED_EDGE('',*,*,#648,.F.);
#650=ORIENTED_EDGE('',*,*,#602,.T.);
#651=EDGE_LOOP('',(#634,#642,#649,#650));
#652=FACE_OUTER_BOUND('',#651,.T.);
#653=ADVANCED_FACE('',(#652),#625,.T.);
#654=CARTESIAN_POINT('',(-1.079999999999841,0.694999999999999,0.635));
#655=DIRECTION('',(-1.0,0.0,0.0));
#656=DIRECTION('',(0.0,0.0,1.0));
#657=AXIS2_PLACEMENT_3D('',#654,#655,#656);
#658=PLANE('',#657);
#659=CARTESIAN_POINT('',(-1.079999999999838,1.204999999999999,0.232198105317515));
#660=VERTEX_POINT('',#659);
#661=CARTESIAN_POINT('',(-1.079999999999841,1.204999999999999,0.635));
#662=DIRECTION('',(0.0,0.0,-1.0));
#663=VECTOR('',#662,0.402801894682486);
#664=LINE('',#661,#663);
#665=EDGE_CURVE('',#627,#660,#664,.T.);
#666=ORIENTED_EDGE('',*,*,#665,.T.);
#667=CARTESIAN_POINT('',(-1.079999999999838,0.694999999999999,0.232198105317515));
#668=VERTEX_POINT('',#667);
#669=CARTESIAN_POINT('',(-1.079999999999838,0.694999999999999,0.232198105317515));
#670=DIRECTION('',(0.0,1.0,0.0));
#671=VECTOR('',#670,0.51);
#672=LINE('',#669,#671);
#673=EDGE_CURVE('',#668,#660,#672,.T.);
#674=ORIENTED_EDGE('',*,*,#673,.F.);
#675=CARTESIAN_POINT('',(-1.079999999999841,0.694999999999999,0.635));
#676=DIRECTION('',(0.0,0.0,-1.0));
#677=VECTOR('',#676,0.402801894682486);
#678=LINE('',#675,#677);
#679=EDGE_CURVE('',#636,#668,#678,.T.);
#680=ORIENTED_EDGE('',*,*,#679,.F.);
#681=ORIENTED_EDGE('',*,*,#641,.T.);
#682=EDGE_LOOP('',(#666,#674,#680,#681));
#683=FACE_OUTER_BOUND('',#682,.T.);
#684=ADVANCED_FACE('',(#683),#658,.T.);
#685=CARTESIAN_POINT('',(-1.149999999999837,0.694999999999999,0.232198105317519));
#686=DIRECTION('',(0.0,1.0,0.0));
#687=DIRECTION('',(0.748955720788986,0.0,-0.662620048215756));
#688=AXIS2_PLACEMENT_3D('',#685,#686,#687);
#689=CYLINDRICAL_SURFACE('',#688,0.069999999999999);
#690=CARTESIAN_POINT('',(-1.141469145961476,1.204999999999999,0.162719874702627));
#691=VERTEX_POINT('',#690);
#692=CARTESIAN_POINT('',(-1.149999999999837,1.204999999999999,0.232198105317519));
#693=DIRECTION('',(0.0,1.0,0.0));
#694=DIRECTION('',(0.748955720788986,0.0,-0.662620048215756));
#695=AXIS2_PLACEMENT_3D('',#692,#693,#694);
#696=CIRCLE('',#695,0.069999999999999);
#697=EDGE_CURVE('',#660,#691,#696,.T.);
#698=ORIENTED_EDGE('',*,*,#697,.T.);
#699=CARTESIAN_POINT('',(-1.141469145961476,0.694999999999999,0.162719874702627));
#700=VERTEX_POINT('',#699);
#701=CARTESIAN_POINT('',(-1.141469145961476,0.694999999999999,0.162719874702627));
#702=DIRECTION('',(0.0,1.0,0.0));
#703=VECTOR('',#702,0.51);
#704=LINE('',#701,#703);
#705=EDGE_CURVE('',#700,#691,#704,.T.);
#706=ORIENTED_EDGE('',*,*,#705,.F.);
#707=CARTESIAN_POINT('',(-1.149999999999837,0.694999999999999,0.232198105317519));
#708=DIRECTION('',(0.0,1.0,0.0));
#709=DIRECTION('',(0.748955720788986,0.0,-0.662620048215756));
#710=AXIS2_PLACEMENT_3D('',#707,#708,#709);
#711=CIRCLE('',#710,0.069999999999999);
#712=EDGE_CURVE('',#668,#700,#711,.T.);
#713=ORIENTED_EDGE('',*,*,#712,.F.);
#714=ORIENTED_EDGE('',*,*,#673,.T.);
#715=EDGE_LOOP('',(#698,#706,#713,#714));
#716=FACE_OUTER_BOUND('',#715,.T.);
#717=ADVANCED_FACE('',(#716),#689,.F.);
#718=CARTESIAN_POINT('',(-1.141469145961476,0.694999999999999,0.162719874702627));
#719=DIRECTION('',(-0.121869343405213,0.0,0.992546151641314));
#720=DIRECTION('',(0.992546151641314,0.0,0.121869343405213));
#721=AXIS2_PLACEMENT_3D('',#718,#719,#720);
#722=PLANE('',#721);
#723=CARTESIAN_POINT('',(-1.350742606843013,1.204999999999999,0.137024324699642));
#724=VERTEX_POINT('',#723);
#725=CARTESIAN_POINT('',(-1.141469145961476,1.204999999999999,0.162719874702627));
#726=DIRECTION('',(-0.992546151641314,0.0,-0.121869343405213));
#727=VECTOR('',#726,0.210845068045928);
#728=LINE('',#725,#727);
#729=EDGE_CURVE('',#691,#724,#728,.T.);
#730=ORIENTED_EDGE('',*,*,#729,.T.);
#731=CARTESIAN_POINT('',(-1.350742606843013,0.694999999999999,0.137024324699642));
#732=VERTEX_POINT('',#731);
#733=CARTESIAN_POINT('',(-1.350742606843013,0.694999999999999,0.137024324699642));
#734=DIRECTION('',(0.0,1.0,0.0));
#735=VECTOR('',#734,0.51);
#736=LINE('',#733,#735);
#737=EDGE_CURVE('',#732,#724,#736,.T.);
#738=ORIENTED_EDGE('',*,*,#737,.F.);
#739=CARTESIAN_POINT('',(-1.141469145961476,0.694999999999999,0.162719874702627));
#740=DIRECTION('',(-0.992546151641314,0.0,-0.121869343405213));
#741=VECTOR('',#740,0.210845068045928);
#742=LINE('',#739,#741);
#743=EDGE_CURVE('',#700,#732,#742,.T.);
#744=ORIENTED_EDGE('',*,*,#743,.F.);
#745=ORIENTED_EDGE('',*,*,#705,.T.);
#746=EDGE_LOOP('',(#730,#738,#744,#745));
#747=FACE_OUTER_BOUND('',#746,.T.);
#748=ADVANCED_FACE('',(#747),#722,.T.);
#749=CARTESIAN_POINT('',(-1.350742606843013,0.694999999999999,0.137024324699642));
#750=DIRECTION('',(-0.992546151641314,0.0,-0.121869343405214));
#751=DIRECTION('',(-0.121869343405214,0.0,0.992546151641314));
#752=AXIS2_PLACEMENT_3D('',#749,#750,#751);
#753=PLANE('',#752);
#754=CARTESIAN_POINT('',(-1.334899592200335,1.204999999999999,0.007993324986271));
#755=VERTEX_POINT('',#754);
#756=CARTESIAN_POINT('',(-1.350742606843013,1.204999999999999,0.137024324699642));
#757=DIRECTION('',(0.121869343405214,0.0,-0.992546151641314));
#758=VECTOR('',#757,0.13);
#759=LINE('',#756,#758);
#760=EDGE_CURVE('',#724,#755,#759,.T.);
#761=ORIENTED_EDGE('',*,*,#760,.T.);
#762=CARTESIAN_POINT('',(-1.334899592200335,0.694999999999999,0.007993324986271));
#763=VERTEX_POINT('',#762);
#764=CARTESIAN_POINT('',(-1.334899592200335,0.694999999999999,0.007993324986271));
#765=DIRECTION('',(0.0,1.0,0.0));
#766=VECTOR('',#765,0.51);
#767=LINE('',#764,#766);
#768=EDGE_CURVE('',#763,#755,#767,.T.);
#769=ORIENTED_EDGE('',*,*,#768,.F.);
#770=CARTESIAN_POINT('',(-1.350742606843013,0.694999999999999,0.137024324699642));
#771=DIRECTION('',(0.121869343405214,0.0,-0.992546151641314));
#772=VECTOR('',#771,0.13);
#773=LINE('',#770,#772);
#774=EDGE_CURVE('',#732,#763,#773,.T.);
#775=ORIENTED_EDGE('',*,*,#774,.F.);
#776=ORIENTED_EDGE('',*,*,#737,.T.);
#777=EDGE_LOOP('',(#761,#769,#775,#776));
#778=FACE_OUTER_BOUND('',#777,.T.);
#779=ADVANCED_FACE('',(#778),#753,.T.);
#780=CARTESIAN_POINT('',(-1.334899592200335,0.694999999999999,0.007993324986271));
#781=DIRECTION('',(0.121869343405213,0.0,-0.992546151641314));
#782=DIRECTION('',(-0.992546151641314,0.0,-0.121869343405213));
#783=AXIS2_PLACEMENT_3D('',#780,#781,#782);
#784=PLANE('',#783);
#785=CARTESIAN_POINT('',(-1.125626131318799,1.204999999999999,0.033688874989256));
#786=VERTEX_POINT('',#785);
#787=CARTESIAN_POINT('',(-1.334899592200335,1.204999999999999,0.007993324986271));
#788=DIRECTION('',(0.992546151641314,0.0,0.121869343405213));
#789=VECTOR('',#788,0.210845068045928);
#790=LINE('',#787,#789);
#791=EDGE_CURVE('',#755,#786,#790,.T.);
#792=ORIENTED_EDGE('',*,*,#791,.T.);
#793=CARTESIAN_POINT('',(-1.125626131318799,0.694999999999999,0.033688874989256));
#794=VERTEX_POINT('',#793);
#795=CARTESIAN_POINT('',(-1.125626131318799,0.694999999999999,0.033688874989256));
#796=DIRECTION('',(0.0,1.0,0.0));
#797=VECTOR('',#796,0.51);
#798=LINE('',#795,#797);
#799=EDGE_CURVE('',#794,#786,#798,.T.);
#800=ORIENTED_EDGE('',*,*,#799,.F.);
#801=CARTESIAN_POINT('',(-1.334899592200335,0.694999999999999,0.007993324986271));
#802=DIRECTION('',(0.992546151641314,0.0,0.121869343405213));
#803=VECTOR('',#802,0.210845068045928);
#804=LINE('',#801,#803);
#805=EDGE_CURVE('',#763,#794,#804,.T.);
#806=ORIENTED_EDGE('',*,*,#805,.F.);
#807=ORIENTED_EDGE('',*,*,#768,.T.);
#808=EDGE_LOOP('',(#792,#800,#806,#807));
#809=FACE_OUTER_BOUND('',#808,.T.);
#810=ADVANCED_FACE('',(#809),#784,.T.);
#811=CARTESIAN_POINT('',(-1.149999999999835,0.694999999999999,0.232198105317517));
#812=DIRECTION('',(0.0,1.0,0.0));
#813=DIRECTION('',(0.748955720789004,0.0,-0.662620048215735));
#814=AXIS2_PLACEMENT_3D('',#811,#812,#813);
#815=CYLINDRICAL_SURFACE('',#814,0.199999999999997);
#816=CARTESIAN_POINT('',(-0.949999999999838,1.204999999999999,0.232198105317511));
#817=VERTEX_POINT('',#816);
#818=CARTESIAN_POINT('',(-1.149999999999835,1.204999999999999,0.232198105317517));
#819=DIRECTION('',(0.0,-1.0,0.0));
#820=DIRECTION('',(0.748955720789004,0.0,-0.662620048215735));
#821=AXIS2_PLACEMENT_3D('',#818,#819,#820);
#822=CIRCLE('',#821,0.199999999999997);
#823=EDGE_CURVE('',#786,#817,#822,.T.);
#824=ORIENTED_EDGE('',*,*,#823,.T.);
#825=CARTESIAN_POINT('',(-0.949999999999838,0.694999999999999,0.232198105317511));
#826=VERTEX_POINT('',#825);
#827=CARTESIAN_POINT('',(-0.949999999999838,0.694999999999999,0.232198105317511));
#828=DIRECTION('',(0.0,1.0,0.0));
#829=VECTOR('',#828,0.51);
#830=LINE('',#827,#829);
#831=EDGE_CURVE('',#826,#817,#830,.T.);
#832=ORIENTED_EDGE('',*,*,#831,.F.);
#833=CARTESIAN_POINT('',(-1.149999999999835,0.694999999999999,0.232198105317517));
#834=DIRECTION('',(0.0,-1.0,0.0));
#835=DIRECTION('',(0.748955720789004,0.0,-0.662620048215735));
#836=AXIS2_PLACEMENT_3D('',#833,#834,#835);
#837=CIRCLE('',#836,0.199999999999997);
#838=EDGE_CURVE('',#794,#826,#837,.T.);
#839=ORIENTED_EDGE('',*,*,#838,.F.);
#840=ORIENTED_EDGE('',*,*,#799,.T.);
#841=EDGE_LOOP('',(#824,#832,#839,#840));
#842=FACE_OUTER_BOUND('',#841,.T.);
#843=ADVANCED_FACE('',(#842),#815,.T.);
#844=CARTESIAN_POINT('',(-0.949999999999838,0.694999999999999,0.232198105317511));
#845=DIRECTION('',(1.0,0.0,0.0));
#846=DIRECTION('',(0.0,0.0,-1.0));
#847=AXIS2_PLACEMENT_3D('',#844,#845,#846);
#848=PLANE('',#847);
#849=CARTESIAN_POINT('',(-0.949999999999841,1.204999999999999,0.635000000000001));
#850=VERTEX_POINT('',#849);
#851=CARTESIAN_POINT('',(-0.949999999999838,1.204999999999999,0.232198105317511));
#852=DIRECTION('',(0.0,0.0,1.0));
#853=VECTOR('',#852,0.402801894682491);
#854=LINE('',#851,#853);
#855=EDGE_CURVE('',#817,#850,#854,.T.);
#856=ORIENTED_EDGE('',*,*,#855,.T.);
#857=CARTESIAN_POINT('',(-0.949999999999841,0.694999999999999,0.635000000000001));
#858=VERTEX_POINT('',#857);
#859=CARTESIAN_POINT('',(-0.949999999999841,0.694999999999999,0.635000000000001));
#860=DIRECTION('',(0.0,1.0,0.0));
#861=VECTOR('',#860,0.51);
#862=LINE('',#859,#861);
#863=EDGE_CURVE('',#858,#850,#862,.T.);
#864=ORIENTED_EDGE('',*,*,#863,.F.);
#865=CARTESIAN_POINT('',(-0.949999999999838,0.694999999999999,0.232198105317511));
#866=DIRECTION('',(0.0,0.0,1.0));
#867=VECTOR('',#866,0.402801894682491);
#868=LINE('',#865,#867);
#869=EDGE_CURVE('',#826,#858,#868,.T.);
#870=ORIENTED_EDGE('',*,*,#869,.F.);
#871=ORIENTED_EDGE('',*,*,#831,.T.);
#872=EDGE_LOOP('',(#856,#864,#870,#871));
#873=FACE_OUTER_BOUND('',#872,.T.);
#874=ADVANCED_FACE('',(#873),#848,.T.);
#875=CARTESIAN_POINT('',(-0.849999999999872,0.694999999999999,0.634999999999971));
#876=DIRECTION('',(0.0,1.0,0.0));
#877=DIRECTION('',(-0.707106781186331,0.0,0.707106781186764));
#878=AXIS2_PLACEMENT_3D('',#875,#876,#877);
#879=CYLINDRICAL_SURFACE('',#878,0.099999999999969);
#880=CARTESIAN_POINT('',(-0.849999999999841,1.204999999999999,0.73499999999994));
#881=VERTEX_POINT('',#880);
#882=CARTESIAN_POINT('',(-0.849999999999872,1.204999999999999,0.634999999999971));
#883=DIRECTION('',(0.0,1.0,0.0));
#884=DIRECTION('',(-0.707106781186331,0.0,0.707106781186764));
#885=AXIS2_PLACEMENT_3D('',#882,#883,#884);
#886=CIRCLE('',#885,0.099999999999969);
#887=EDGE_CURVE('',#850,#881,#886,.T.);
#888=ORIENTED_EDGE('',*,*,#887,.T.);
#889=CARTESIAN_POINT('',(-0.849999999999841,0.694999999999999,0.73499999999994));
#890=VERTEX_POINT('',#889);
#891=CARTESIAN_POINT('',(-0.849999999999841,0.694999999999999,0.73499999999994));
#892=DIRECTION('',(0.0,1.0,0.0));
#893=VECTOR('',#892,0.51);
#894=LINE('',#891,#893);
#895=EDGE_CURVE('',#890,#881,#894,.T.);
#896=ORIENTED_EDGE('',*,*,#895,.F.);
#897=CARTESIAN_POINT('',(-0.849999999999872,0.694999999999999,0.634999999999971));
#898=DIRECTION('',(0.0,1.0,0.0));
#899=DIRECTION('',(-0.707106781186331,0.0,0.707106781186764));
#900=AXIS2_PLACEMENT_3D('',#897,#898,#899);
#901=CIRCLE('',#900,0.099999999999969);
#902=EDGE_CURVE('',#858,#890,#901,.T.);
#903=ORIENTED_EDGE('',*,*,#902,.F.);
#904=ORIENTED_EDGE('',*,*,#863,.T.);
#905=EDGE_LOOP('',(#888,#896,#903,#904));
#906=FACE_OUTER_BOUND('',#905,.T.);
#907=ADVANCED_FACE('',(#906),#879,.F.);
#908=CARTESIAN_POINT('',(-0.849999999999841,0.694999999999999,0.73499999999994));
#909=DIRECTION('',(8.156438E-013,0.0,-1.0));
#910=DIRECTION('',(-1.0,0.0,-8.156438E-013));
#911=AXIS2_PLACEMENT_3D('',#908,#909,#910);
#912=PLANE('',#911);
#913=CARTESIAN_POINT('',(-0.775,1.204999999999999,0.735000000000001));
#914=VERTEX_POINT('',#913);
#915=CARTESIAN_POINT('',(-0.849999999999841,1.204999999999999,0.73499999999994));
#916=DIRECTION('',(1.0,0.0,8.156438E-013));
#917=VECTOR('',#916,0.074999999999841);
#918=LINE('',#915,#917);
#919=EDGE_CURVE('',#881,#914,#918,.T.);
#920=ORIENTED_EDGE('',*,*,#919,.T.);
#921=CARTESIAN_POINT('',(-0.775,0.694999999999999,0.735000000000001));
#922=VERTEX_POINT('',#921);
#923=CARTESIAN_POINT('',(-0.775,0.694999999999999,0.735000000000001));
#924=DIRECTION('',(0.0,1.0,0.0));
#925=VECTOR('',#924,0.51);
#926=LINE('',#923,#925);
#927=EDGE_CURVE('',#922,#914,#926,.T.);
#928=ORIENTED_EDGE('',*,*,#927,.F.);
#929=CARTESIAN_POINT('',(-0.849999999999841,0.694999999999999,0.73499999999994));
#930=DIRECTION('',(1.0,0.0,8.156438E-013));
#931=VECTOR('',#930,0.074999999999841);
#932=LINE('',#929,#931);
#933=EDGE_CURVE('',#890,#922,#932,.T.);
#934=ORIENTED_EDGE('',*,*,#933,.F.);
#935=ORIENTED_EDGE('',*,*,#895,.T.);
#936=EDGE_LOOP('',(#920,#928,#934,#935));
#937=FACE_OUTER_BOUND('',#936,.T.);
#938=ADVANCED_FACE('',(#937),#912,.T.);
#939=CARTESIAN_POINT('',(-0.775,0.694999999999999,0.735000000000001));
#940=DIRECTION('',(1.0,0.0,8.155869E-013));
#941=DIRECTION('',(8.155869E-013,0.0,-1.0));
#942=AXIS2_PLACEMENT_3D('',#939,#940,#941);
#943=PLANE('',#942);
#944=CARTESIAN_POINT('',(-0.775,1.204999999999999,0.735000000000001));
#945=DIRECTION('',(-8.155869E-013,0.0,1.0));
#946=VECTOR('',#945,0.13);
#947=LINE('',#944,#946);
#948=EDGE_CURVE('',#914,#587,#947,.T.);
#949=ORIENTED_EDGE('',*,*,#948,.T.);
#950=ORIENTED_EDGE('',*,*,#616,.F.);
#951=CARTESIAN_POINT('',(-0.775,0.694999999999999,0.735000000000001));
#952=DIRECTION('',(-8.155869E-013,0.0,1.0));
#953=VECTOR('',#952,0.13);
#954=LINE('',#951,#953);
#955=EDGE_CURVE('',#922,#605,#954,.T.);
#956=ORIENTED_EDGE('',*,*,#955,.F.);
#957=ORIENTED_EDGE('',*,*,#927,.T.);
#958=EDGE_LOOP('',(#949,#950,#956,#957));
#959=FACE_OUTER_BOUND('',#958,.T.);
#960=ADVANCED_FACE('',(#959),#943,.T.);
#961=CARTESIAN_POINT('',(-1.038647155442711,1.204999999999999,0.41681909579265));
#962=DIRECTION('',(0.0,1.0,0.0));
#963=DIRECTION('',(0.0,0.0,1.0));
#964=AXIS2_PLACEMENT_3D('',#961,#962,#963);
#965=PLANE('',#964);
#966=ORIENTED_EDGE('',*,*,#594,.F.);
#967=ORIENTED_EDGE('',*,*,#948,.F.);
#968=ORIENTED_EDGE('',*,*,#919,.F.);
#969=ORIENTED_EDGE('',*,*,#887,.F.);
#970=ORIENTED_EDGE('',*,*,#855,.F.);
#971=ORIENTED_EDGE('',*,*,#823,.F.);
#972=ORIENTED_EDGE('',*,*,#791,.F.);
#973=ORIENTED_EDGE('',*,*,#760,.F.);
#974=ORIENTED_EDGE('',*,*,#729,.F.);
#975=ORIENTED_EDGE('',*,*,#697,.F.);
#976=ORIENTED_EDGE('',*,*,#665,.F.);
#977=ORIENTED_EDGE('',*,*,#633,.F.);
#978=EDGE_LOOP('',(#966,#967,#968,#969,#970,#971,#972,#973,#974,#975,#976,#977));
#979=FACE_OUTER_BOUND('',#978,.T.);
#980=ADVANCED_FACE('',(#979),#965,.T.);
#981=CARTESIAN_POINT('',(-1.038647155442711,0.694999999999998,0.41681909579265));
#982=DIRECTION('',(0.0,1.0,0.0));
#983=DIRECTION('',(0.0,0.0,1.0));
#984=AXIS2_PLACEMENT_3D('',#981,#982,#983);
#985=PLANE('',#984);
#986=ORIENTED_EDGE('',*,*,#955,.T.);
#987=ORIENTED_EDGE('',*,*,#610,.T.);
#988=ORIENTED_EDGE('',*,*,#648,.T.);
#989=ORIENTED_EDGE('',*,*,#679,.T.);
#990=ORIENTED_EDGE('',*,*,#712,.T.);
#991=ORIENTED_EDGE('',*,*,#743,.T.);
#992=ORIENTED_EDGE('',*,*,#774,.T.);
#993=ORIENTED_EDGE('',*,*,#805,.T.);
#994=ORIENTED_EDGE('',*,*,#838,.T.);
#995=ORIENTED_EDGE('',*,*,#869,.T.);
#996=ORIENTED_EDGE('',*,*,#902,.T.);
#997=ORIENTED_EDGE('',*,*,#933,.T.);
#998=EDGE_LOOP('',(#986,#987,#988,#989,#990,#991,#992,#993,#994,#995,#996,#997));
#999=FACE_OUTER_BOUND('',#998,.T.);
#1000=ADVANCED_FACE('',(#999),#985,.F.);
#1001=CLOSED_SHELL('',(#620,#653,#684,#717,#748,#779,#810,#843,#874,#907,#938,#960,#980,#1000));
#1002=MANIFOLD_SOLID_BREP('398',#1001);
#1003=STYLED_ITEM('NONE',(#577),#1002);
#1004=CARTESIAN_POINT('',(-0.775000000000106,-1.205000000000001,0.865000000000001));
#1005=DIRECTION('',(-8.141636E-013,0.0,1.0));
#1006=DIRECTION('',(1.0,0.0,8.141636E-013));
#1007=AXIS2_PLACEMENT_3D('',#1004,#1005,#1006);
#1008=PLANE('',#1007);
#1009=CARTESIAN_POINT('',(-0.775000000000106,-0.695000000000001,0.865000000000001));
#1010=VERTEX_POINT('',#1009);
#1011=CARTESIAN_POINT('',(-0.849999999999801,-0.695000000000001,0.86499999999994));
#1012=VERTEX_POINT('',#1011);
#1013=CARTESIAN_POINT('',(-0.775000000000106,-0.695000000000001,0.865000000000001));
#1014=DIRECTION('',(-1.0,0.0,-8.141636E-013));
#1015=VECTOR('',#1014,0.074999999999695);
#1016=LINE('',#1013,#1015);
#1017=EDGE_CURVE('',#1010,#1012,#1016,.T.);
#1018=ORIENTED_EDGE('',*,*,#1017,.T.);
#1019=CARTESIAN_POINT('',(-0.849999999999801,-1.205000000000001,0.86499999999994));
#1020=VERTEX_POINT('',#1019);
#1021=CARTESIAN_POINT('',(-0.849999999999801,-1.205000000000001,0.86499999999994));
#1022=DIRECTION('',(0.0,1.0,0.0));
#1023=VECTOR('',#1022,0.51);
#1024=LINE('',#1021,#1023);
#1025=EDGE_CURVE('',#1020,#1012,#1024,.T.);
#1026=ORIENTED_EDGE('',*,*,#1025,.F.);
#1027=CARTESIAN_POINT('',(-0.775000000000106,-1.205000000000001,0.865000000000001));
#1028=VERTEX_POINT('',#1027);
#1029=CARTESIAN_POINT('',(-0.775000000000106,-1.205000000000001,0.865000000000001));
#1030=DIRECTION('',(-1.0,0.0,-8.141636E-013));
#1031=VECTOR('',#1030,0.074999999999695);
#1032=LINE('',#1029,#1031);
#1033=EDGE_CURVE('',#1028,#1020,#1032,.T.);
#1034=ORIENTED_EDGE('',*,*,#1033,.F.);
#1035=CARTESIAN_POINT('',(-0.775000000000106,-1.205000000000001,0.865000000000001));
#1036=DIRECTION('',(0.0,1.0,0.0));
#1037=VECTOR('',#1036,0.51);
#1038=LINE('',#1035,#1037);
#1039=EDGE_CURVE('',#1028,#1010,#1038,.T.);
#1040=ORIENTED_EDGE('',*,*,#1039,.T.);
#1041=EDGE_LOOP('',(#1018,#1026,#1034,#1040));
#1042=FACE_OUTER_BOUND('',#1041,.T.);
#1043=ADVANCED_FACE('',(#1042),#1008,.T.);
#1044=CARTESIAN_POINT('',(-0.849999999999851,-1.205000000000001,0.63499999999995));
#1045=DIRECTION('',(0.0,1.0,0.0));
#1046=DIRECTION('',(-0.707106781186394,0.0,0.707106781186701));
#1047=AXIS2_PLACEMENT_3D('',#1044,#1045,#1046);
#1048=CYLINDRICAL_SURFACE('',#1047,0.22999999999999);
#1049=CARTESIAN_POINT('',(-1.079999999999841,-0.695000000000001,0.635));
#1050=VERTEX_POINT('',#1049);
#1051=CARTESIAN_POINT('',(-0.849999999999851,-0.695000000000001,0.63499999999995));
#1052=DIRECTION('',(0.0,-1.0,0.0));
#1053=DIRECTION('',(-0.707106781186394,0.0,0.707106781186701));
#1054=AXIS2_PLACEMENT_3D('',#1051,#1052,#1053);
#1055=CIRCLE('',#1054,0.22999999999999);
#1056=EDGE_CURVE('',#1012,#1050,#1055,.T.);
#1057=ORIENTED_EDGE('',*,*,#1056,.T.);
#1058=CARTESIAN_POINT('',(-1.079999999999841,-1.205000000000001,0.635));
#1059=VERTEX_POINT('',#1058);
#1060=CARTESIAN_POINT('',(-1.079999999999841,-1.205000000000001,0.635));
#1061=DIRECTION('',(0.0,1.0,0.0));
#1062=VECTOR('',#1061,0.51);
#1063=LINE('',#1060,#1062);
#1064=EDGE_CURVE('',#1059,#1050,#1063,.T.);
#1065=ORIENTED_EDGE('',*,*,#1064,.F.);
#1066=CARTESIAN_POINT('',(-0.849999999999851,-1.205000000000001,0.63499999999995));
#1067=DIRECTION('',(0.0,-1.0,0.0));
#1068=DIRECTION('',(-0.707106781186394,0.0,0.707106781186701));
#1069=AXIS2_PLACEMENT_3D('',#1066,#1067,#1068);
#1070=CIRCLE('',#1069,0.22999999999999);
#1071=EDGE_CURVE('',#1020,#1059,#1070,.T.);
#1072=ORIENTED_EDGE('',*,*,#1071,.F.);
#1073=ORIENTED_EDGE('',*,*,#1025,.T.);
#1074=EDGE_LOOP('',(#1057,#1065,#1072,#1073));
#1075=FACE_OUTER_BOUND('',#1074,.T.);
#1076=ADVANCED_FACE('',(#1075),#1048,.T.);
#1077=CARTESIAN_POINT('',(-1.079999999999841,-1.205000000000001,0.635));
#1078=DIRECTION('',(-1.0,0.0,0.0));
#1079=DIRECTION('',(0.0,0.0,1.0));
#1080=AXIS2_PLACEMENT_3D('',#1077,#1078,#1079);
#1081=PLANE('',#1080);
#1082=CARTESIAN_POINT('',(-1.079999999999838,-0.695000000000001,0.232198105317515));
#1083=VERTEX_POINT('',#1082);
#1084=CARTESIAN_POINT('',(-1.079999999999841,-0.695000000000001,0.635));
#1085=DIRECTION('',(0.0,0.0,-1.0));
#1086=VECTOR('',#1085,0.402801894682486);
#1087=LINE('',#1084,#1086);
#1088=EDGE_CURVE('',#1050,#1083,#1087,.T.);
#1089=ORIENTED_EDGE('',*,*,#1088,.T.);
#1090=CARTESIAN_POINT('',(-1.079999999999838,-1.205000000000001,0.232198105317515));
#1091=VERTEX_POINT('',#1090);
#1092=CARTESIAN_POINT('',(-1.079999999999838,-1.205000000000001,0.232198105317515));
#1093=DIRECTION('',(0.0,1.0,0.0));
#1094=VECTOR('',#1093,0.51);
#1095=LINE('',#1092,#1094);
#1096=EDGE_CURVE('',#1091,#1083,#1095,.T.);
#1097=ORIENTED_EDGE('',*,*,#1096,.F.);
#1098=CARTESIAN_POINT('',(-1.079999999999841,-1.205000000000001,0.635));
#1099=DIRECTION('',(0.0,0.0,-1.0));
#1100=VECTOR('',#1099,0.402801894682486);
#1101=LINE('',#1098,#1100);
#1102=EDGE_CURVE('',#1059,#1091,#1101,.T.);
#1103=ORIENTED_EDGE('',*,*,#1102,.F.);
#1104=ORIENTED_EDGE('',*,*,#1064,.T.);
#1105=EDGE_LOOP('',(#1089,#1097,#1103,#1104));
#1106=FACE_OUTER_BOUND('',#1105,.T.);
#1107=ADVANCED_FACE('',(#1106),#1081,.T.);
#1108=CARTESIAN_POINT('',(-1.149999999999837,-1.205000000000001,0.232198105317519));
#1109=DIRECTION('',(0.0,1.0,0.0));
#1110=DIRECTION('',(0.748955720788986,0.0,-0.662620048215756));
#1111=AXIS2_PLACEMENT_3D('',#1108,#1109,#1110);
#1112=CYLINDRICAL_SURFACE('',#1111,0.069999999999999);
#1113=CARTESIAN_POINT('',(-1.141469145961476,-0.695000000000001,0.162719874702627));
#1114=VERTEX_POINT('',#1113);
#1115=CARTESIAN_POINT('',(-1.149999999999837,-0.695000000000001,0.232198105317519));
#1116=DIRECTION('',(0.0,1.0,0.0));
#1117=DIRECTION('',(0.748955720788986,0.0,-0.662620048215756));
#1118=AXIS2_PLACEMENT_3D('',#1115,#1116,#1117);
#1119=CIRCLE('',#1118,0.069999999999999);
#1120=EDGE_CURVE('',#1083,#1114,#1119,.T.);
#1121=ORIENTED_EDGE('',*,*,#1120,.T.);
#1122=CARTESIAN_POINT('',(-1.141469145961476,-1.205000000000001,0.162719874702627));
#1123=VERTEX_POINT('',#1122);
#1124=CARTESIAN_POINT('',(-1.141469145961476,-1.205000000000001,0.162719874702627));
#1125=DIRECTION('',(0.0,1.0,0.0));
#1126=VECTOR('',#1125,0.51);
#1127=LINE('',#1124,#1126);
#1128=EDGE_CURVE('',#1123,#1114,#1127,.T.);
#1129=ORIENTED_EDGE('',*,*,#1128,.F.);
#1130=CARTESIAN_POINT('',(-1.149999999999837,-1.205000000000001,0.232198105317519));
#1131=DIRECTION('',(0.0,1.0,0.0));
#1132=DIRECTION('',(0.748955720788986,0.0,-0.662620048215756));
#1133=AXIS2_PLACEMENT_3D('',#1130,#1131,#1132);
#1134=CIRCLE('',#1133,0.069999999999999);
#1135=EDGE_CURVE('',#1091,#1123,#1134,.T.);
#1136=ORIENTED_EDGE('',*,*,#1135,.F.);
#1137=ORIENTED_EDGE('',*,*,#1096,.T.);
#1138=EDGE_LOOP('',(#1121,#1129,#1136,#1137));
#1139=FACE_OUTER_BOUND('',#1138,.T.);
#1140=ADVANCED_FACE('',(#1139),#1112,.F.);
#1141=CARTESIAN_POINT('',(-1.141469145961476,-1.205000000000001,0.162719874702627));
#1142=DIRECTION('',(-0.121869343405213,0.0,0.992546151641314));
#1143=DIRECTION('',(0.992546151641314,0.0,0.121869343405213));
#1144=AXIS2_PLACEMENT_3D('',#1141,#1142,#1143);
#1145=PLANE('',#1144);
#1146=CARTESIAN_POINT('',(-1.350742606843013,-0.695000000000001,0.137024324699642));
#1147=VERTEX_POINT('',#1146);
#1148=CARTESIAN_POINT('',(-1.141469145961476,-0.695000000000001,0.162719874702627));
#1149=DIRECTION('',(-0.992546151641314,0.0,-0.121869343405213));
#1150=VECTOR('',#1149,0.210845068045928);
#1151=LINE('',#1148,#1150);
#1152=EDGE_CURVE('',#1114,#1147,#1151,.T.);
#1153=ORIENTED_EDGE('',*,*,#1152,.T.);
#1154=CARTESIAN_POINT('',(-1.350742606843013,-1.205000000000001,0.137024324699642));
#1155=VERTEX_POINT('',#1154);
#1156=CARTESIAN_POINT('',(-1.350742606843013,-1.205000000000001,0.137024324699642));
#1157=DIRECTION('',(0.0,1.0,0.0));
#1158=VECTOR('',#1157,0.51);
#1159=LINE('',#1156,#1158);
#1160=EDGE_CURVE('',#1155,#1147,#1159,.T.);
#1161=ORIENTED_EDGE('',*,*,#1160,.F.);
#1162=CARTESIAN_POINT('',(-1.141469145961476,-1.205000000000001,0.162719874702627));
#1163=DIRECTION('',(-0.992546151641314,0.0,-0.121869343405213));
#1164=VECTOR('',#1163,0.210845068045928);
#1165=LINE('',#1162,#1164);
#1166=EDGE_CURVE('',#1123,#1155,#1165,.T.);
#1167=ORIENTED_EDGE('',*,*,#1166,.F.);
#1168=ORIENTED_EDGE('',*,*,#1128,.T.);
#1169=EDGE_LOOP('',(#1153,#1161,#1167,#1168));
#1170=FACE_OUTER_BOUND('',#1169,.T.);
#1171=ADVANCED_FACE('',(#1170),#1145,.T.);
#1172=CARTESIAN_POINT('',(-1.350742606843013,-1.205000000000001,0.137024324699642));
#1173=DIRECTION('',(-0.992546151641314,0.0,-0.121869343405214));
#1174=DIRECTION('',(-0.121869343405214,0.0,0.992546151641314));
#1175=AXIS2_PLACEMENT_3D('',#1172,#1173,#1174);
#1176=PLANE('',#1175);
#1177=CARTESIAN_POINT('',(-1.334899592200335,-0.695000000000001,0.007993324986271));
#1178=VERTEX_POINT('',#1177);
#1179=CARTESIAN_POINT('',(-1.350742606843013,-0.695000000000001,0.137024324699642));
#1180=DIRECTION('',(0.121869343405214,0.0,-0.992546151641314));
#1181=VECTOR('',#1180,0.13);
#1182=LINE('',#1179,#1181);
#1183=EDGE_CURVE('',#1147,#1178,#1182,.T.);
#1184=ORIENTED_EDGE('',*,*,#1183,.T.);
#1185=CARTESIAN_POINT('',(-1.334899592200335,-1.205000000000001,0.007993324986271));
#1186=VERTEX_POINT('',#1185);
#1187=CARTESIAN_POINT('',(-1.334899592200335,-1.205000000000001,0.007993324986271));
#1188=DIRECTION('',(0.0,1.0,0.0));
#1189=VECTOR('',#1188,0.51);
#1190=LINE('',#1187,#1189);
#1191=EDGE_CURVE('',#1186,#1178,#1190,.T.);
#1192=ORIENTED_EDGE('',*,*,#1191,.F.);
#1193=CARTESIAN_POINT('',(-1.350742606843013,-1.205000000000001,0.137024324699642));
#1194=DIRECTION('',(0.121869343405214,0.0,-0.992546151641314));
#1195=VECTOR('',#1194,0.13);
#1196=LINE('',#1193,#1195);
#1197=EDGE_CURVE('',#1155,#1186,#1196,.T.);
#1198=ORIENTED_EDGE('',*,*,#1197,.F.);
#1199=ORIENTED_EDGE('',*,*,#1160,.T.);
#1200=EDGE_LOOP('',(#1184,#1192,#1198,#1199));
#1201=FACE_OUTER_BOUND('',#1200,.T.);
#1202=ADVANCED_FACE('',(#1201),#1176,.T.);
#1203=CARTESIAN_POINT('',(-1.334899592200335,-1.205000000000001,0.007993324986271));
#1204=DIRECTION('',(0.121869343405213,0.0,-0.992546151641314));
#1205=DIRECTION('',(-0.992546151641314,0.0,-0.121869343405213));
#1206=AXIS2_PLACEMENT_3D('',#1203,#1204,#1205);
#1207=PLANE('',#1206);
#1208=CARTESIAN_POINT('',(-1.125626131318799,-0.695000000000001,0.033688874989256));
#1209=VERTEX_POINT('',#1208);
#1210=CARTESIAN_POINT('',(-1.334899592200335,-0.695000000000001,0.007993324986271));
#1211=DIRECTION('',(0.992546151641314,0.0,0.121869343405213));
#1212=VECTOR('',#1211,0.210845068045928);
#1213=LINE('',#1210,#1212);
#1214=EDGE_CURVE('',#1178,#1209,#1213,.T.);
#1215=ORIENTED_EDGE('',*,*,#1214,.T.);
#1216=CARTESIAN_POINT('',(-1.125626131318799,-1.205000000000001,0.033688874989256));
#1217=VERTEX_POINT('',#1216);
#1218=CARTESIAN_POINT('',(-1.125626131318799,-1.205000000000001,0.033688874989256));
#1219=DIRECTION('',(0.0,1.0,0.0));
#1220=VECTOR('',#1219,0.51);
#1221=LINE('',#1218,#1220);
#1222=EDGE_CURVE('',#1217,#1209,#1221,.T.);
#1223=ORIENTED_EDGE('',*,*,#1222,.F.);
#1224=CARTESIAN_POINT('',(-1.334899592200335,-1.205000000000001,0.007993324986271));
#1225=DIRECTION('',(0.992546151641314,0.0,0.121869343405213));
#1226=VECTOR('',#1225,0.210845068045928);
#1227=LINE('',#1224,#1226);
#1228=EDGE_CURVE('',#1186,#1217,#1227,.T.);
#1229=ORIENTED_EDGE('',*,*,#1228,.F.);
#1230=ORIENTED_EDGE('',*,*,#1191,.T.);
#1231=EDGE_LOOP('',(#1215,#1223,#1229,#1230));
#1232=FACE_OUTER_BOUND('',#1231,.T.);
#1233=ADVANCED_FACE('',(#1232),#1207,.T.);
#1234=CARTESIAN_POINT('',(-1.149999999999835,-1.205000000000001,0.232198105317517));
#1235=DIRECTION('',(0.0,1.0,0.0));
#1236=DIRECTION('',(0.748955720789004,0.0,-0.662620048215735));
#1237=AXIS2_PLACEMENT_3D('',#1234,#1235,#1236);
#1238=CYLINDRICAL_SURFACE('',#1237,0.199999999999997);
#1239=CARTESIAN_POINT('',(-0.949999999999838,-0.695000000000001,0.232198105317511));
#1240=VERTEX_POINT('',#1239);
#1241=CARTESIAN_POINT('',(-1.149999999999835,-0.695000000000001,0.232198105317517));
#1242=DIRECTION('',(0.0,-1.0,0.0));
#1243=DIRECTION('',(0.748955720789004,0.0,-0.662620048215735));
#1244=AXIS2_PLACEMENT_3D('',#1241,#1242,#1243);
#1245=CIRCLE('',#1244,0.199999999999997);
#1246=EDGE_CURVE('',#1209,#1240,#1245,.T.);
#1247=ORIENTED_EDGE('',*,*,#1246,.T.);
#1248=CARTESIAN_POINT('',(-0.949999999999838,-1.205000000000001,0.232198105317511));
#1249=VERTEX_POINT('',#1248);
#1250=CARTESIAN_POINT('',(-0.949999999999838,-1.205000000000001,0.232198105317511));
#1251=DIRECTION('',(0.0,1.0,0.0));
#1252=VECTOR('',#1251,0.51);
#1253=LINE('',#1250,#1252);
#1254=EDGE_CURVE('',#1249,#1240,#1253,.T.);
#1255=ORIENTED_EDGE('',*,*,#1254,.F.);
#1256=CARTESIAN_POINT('',(-1.149999999999835,-1.205000000000001,0.232198105317517));
#1257=DIRECTION('',(0.0,-1.0,0.0));
#1258=DIRECTION('',(0.748955720789004,0.0,-0.662620048215735));
#1259=AXIS2_PLACEMENT_3D('',#1256,#1257,#1258);
#1260=CIRCLE('',#1259,0.199999999999997);
#1261=EDGE_CURVE('',#1217,#1249,#1260,.T.);
#1262=ORIENTED_EDGE('',*,*,#1261,.F.);
#1263=ORIENTED_EDGE('',*,*,#1222,.T.);
#1264=EDGE_LOOP('',(#1247,#1255,#1262,#1263));
#1265=FACE_OUTER_BOUND('',#1264,.T.);
#1266=ADVANCED_FACE('',(#1265),#1238,.T.);
#1267=CARTESIAN_POINT('',(-0.949999999999838,-1.205000000000001,0.232198105317511));
#1268=DIRECTION('',(1.0,0.0,0.0));
#1269=DIRECTION('',(0.0,0.0,-1.0));
#1270=AXIS2_PLACEMENT_3D('',#1267,#1268,#1269);
#1271=PLANE('',#1270);
#1272=CARTESIAN_POINT('',(-0.949999999999841,-0.695000000000001,0.635000000000001));
#1273=VERTEX_POINT('',#1272);
#1274=CARTESIAN_POINT('',(-0.949999999999838,-0.695000000000001,0.232198105317511));
#1275=DIRECTION('',(0.0,0.0,1.0));
#1276=VECTOR('',#1275,0.402801894682491);
#1277=LINE('',#1274,#1276);
#1278=EDGE_CURVE('',#1240,#1273,#1277,.T.);
#1279=ORIENTED_EDGE('',*,*,#1278,.T.);
#1280=CARTESIAN_POINT('',(-0.949999999999841,-1.205000000000001,0.635000000000001));
#1281=VERTEX_POINT('',#1280);
#1282=CARTESIAN_POINT('',(-0.949999999999841,-1.205000000000001,0.635000000000001));
#1283=DIRECTION('',(0.0,1.0,0.0));
#1284=VECTOR('',#1283,0.51);
#1285=LINE('',#1282,#1284);
#1286=EDGE_CURVE('',#1281,#1273,#1285,.T.);
#1287=ORIENTED_EDGE('',*,*,#1286,.F.);
#1288=CARTESIAN_POINT('',(-0.949999999999838,-1.205000000000001,0.232198105317511));
#1289=DIRECTION('',(0.0,0.0,1.0));
#1290=VECTOR('',#1289,0.402801894682491);
#1291=LINE('',#1288,#1290);
#1292=EDGE_CURVE('',#1249,#1281,#1291,.T.);
#1293=ORIENTED_EDGE('',*,*,#1292,.F.);
#1294=ORIENTED_EDGE('',*,*,#1254,.T.);
#1295=EDGE_LOOP('',(#1279,#1287,#1293,#1294));
#1296=FACE_OUTER_BOUND('',#1295,.T.);
#1297=ADVANCED_FACE('',(#1296),#1271,.T.);
#1298=CARTESIAN_POINT('',(-0.849999999999872,-1.205000000000001,0.634999999999971));
#1299=DIRECTION('',(0.0,1.0,0.0));
#1300=DIRECTION('',(-0.707106781186331,0.0,0.707106781186764));
#1301=AXIS2_PLACEMENT_3D('',#1298,#1299,#1300);
#1302=CYLINDRICAL_SURFACE('',#1301,0.099999999999969);
#1303=CARTESIAN_POINT('',(-0.849999999999841,-0.695000000000001,0.73499999999994));
#1304=VERTEX_POINT('',#1303);
#1305=CARTESIAN_POINT('',(-0.849999999999872,-0.695000000000001,0.634999999999971));
#1306=DIRECTION('',(0.0,1.0,0.0));
#1307=DIRECTION('',(-0.707106781186331,0.0,0.707106781186764));
#1308=AXIS2_PLACEMENT_3D('',#1305,#1306,#1307);
#1309=CIRCLE('',#1308,0.099999999999969);
#1310=EDGE_CURVE('',#1273,#1304,#1309,.T.);
#1311=ORIENTED_EDGE('',*,*,#1310,.T.);
#1312=CARTESIAN_POINT('',(-0.849999999999841,-1.205000000000001,0.73499999999994));
#1313=VERTEX_POINT('',#1312);
#1314=CARTESIAN_POINT('',(-0.849999999999841,-1.205000000000001,0.73499999999994));
#1315=DIRECTION('',(0.0,1.0,0.0));
#1316=VECTOR('',#1315,0.51);
#1317=LINE('',#1314,#1316);
#1318=EDGE_CURVE('',#1313,#1304,#1317,.T.);
#1319=ORIENTED_EDGE('',*,*,#1318,.F.);
#1320=CARTESIAN_POINT('',(-0.849999999999872,-1.205000000000001,0.634999999999971));
#1321=DIRECTION('',(0.0,1.0,0.0));
#1322=DIRECTION('',(-0.707106781186331,0.0,0.707106781186764));
#1323=AXIS2_PLACEMENT_3D('',#1320,#1321,#1322);
#1324=CIRCLE('',#1323,0.099999999999969);
#1325=EDGE_CURVE('',#1281,#1313,#1324,.T.);
#1326=ORIENTED_EDGE('',*,*,#1325,.F.);
#1327=ORIENTED_EDGE('',*,*,#1286,.T.);
#1328=EDGE_LOOP('',(#1311,#1319,#1326,#1327));
#1329=FACE_OUTER_BOUND('',#1328,.T.);
#1330=ADVANCED_FACE('',(#1329),#1302,.F.);
#1331=CARTESIAN_POINT('',(-0.849999999999841,-1.205000000000001,0.73499999999994));
#1332=DIRECTION('',(8.156438E-013,0.0,-1.0));
#1333=DIRECTION('',(-1.0,0.0,-8.156438E-013));
#1334=AXIS2_PLACEMENT_3D('',#1331,#1332,#1333);
#1335=PLANE('',#1334);
#1336=CARTESIAN_POINT('',(-0.775,-0.695000000000001,0.735000000000001));
#1337=VERTEX_POINT('',#1336);
#1338=CARTESIAN_POINT('',(-0.849999999999841,-0.695000000000001,0.73499999999994));
#1339=DIRECTION('',(1.0,0.0,8.156438E-013));
#1340=VECTOR('',#1339,0.074999999999841);
#1341=LINE('',#1338,#1340);
#1342=EDGE_CURVE('',#1304,#1337,#1341,.T.);
#1343=ORIENTED_EDGE('',*,*,#1342,.T.);
#1344=CARTESIAN_POINT('',(-0.775,-1.205000000000001,0.735000000000001));
#1345=VERTEX_POINT('',#1344);
#1346=CARTESIAN_POINT('',(-0.775,-1.205000000000001,0.735000000000001));
#1347=DIRECTION('',(0.0,1.0,0.0));
#1348=VECTOR('',#1347,0.51);
#1349=LINE('',#1346,#1348);
#1350=EDGE_CURVE('',#1345,#1337,#1349,.T.);
#1351=ORIENTED_EDGE('',*,*,#1350,.F.);
#1352=CARTESIAN_POINT('',(-0.849999999999841,-1.205000000000001,0.73499999999994));
#1353=DIRECTION('',(1.0,0.0,8.156438E-013));
#1354=VECTOR('',#1353,0.074999999999841);
#1355=LINE('',#1352,#1354);
#1356=EDGE_CURVE('',#1313,#1345,#1355,.T.);
#1357=ORIENTED_EDGE('',*,*,#1356,.F.);
#1358=ORIENTED_EDGE('',*,*,#1318,.T.);
#1359=EDGE_LOOP('',(#1343,#1351,#1357,#1358));
#1360=FACE_OUTER_BOUND('',#1359,.T.);
#1361=ADVANCED_FACE('',(#1360),#1335,.T.);
#1362=CARTESIAN_POINT('',(-0.775,-1.205000000000001,0.735000000000001));
#1363=DIRECTION('',(1.0,0.0,8.155869E-013));
#1364=DIRECTION('',(8.155869E-013,0.0,-1.0));
#1365=AXIS2_PLACEMENT_3D('',#1362,#1363,#1364);
#1366=PLANE('',#1365);
#1367=CARTESIAN_POINT('',(-0.775,-0.695000000000001,0.735000000000001));
#1368=DIRECTION('',(-8.155869E-013,0.0,1.0));
#1369=VECTOR('',#1368,0.13);
#1370=LINE('',#1367,#1369);
#1371=EDGE_CURVE('',#1337,#1010,#1370,.T.);
#1372=ORIENTED_EDGE('',*,*,#1371,.T.);
#1373=ORIENTED_EDGE('',*,*,#1039,.F.);
#1374=CARTESIAN_POINT('',(-0.775,-1.205000000000001,0.735000000000001));
#1375=DIRECTION('',(-8.155869E-013,0.0,1.0));
#1376=VECTOR('',#1375,0.13);
#1377=LINE('',#1374,#1376);
#1378=EDGE_CURVE('',#1345,#1028,#1377,.T.);
#1379=ORIENTED_EDGE('',*,*,#1378,.F.);
#1380=ORIENTED_EDGE('',*,*,#1350,.T.);
#1381=EDGE_LOOP('',(#1372,#1373,#1379,#1380));
#1382=FACE_OUTER_BOUND('',#1381,.T.);
#1383=ADVANCED_FACE('',(#1382),#1366,.T.);
#1384=CARTESIAN_POINT('',(-1.038647155442711,-0.695000000000001,0.41681909579265));
#1385=DIRECTION('',(0.0,1.0,0.0));
#1386=DIRECTION('',(0.0,0.0,1.0));
#1387=AXIS2_PLACEMENT_3D('',#1384,#1385,#1386);
#1388=PLANE('',#1387);
#1389=ORIENTED_EDGE('',*,*,#1017,.F.);
#1390=ORIENTED_EDGE('',*,*,#1371,.F.);
#1391=ORIENTED_EDGE('',*,*,#1342,.F.);
#1392=ORIENTED_EDGE('',*,*,#1310,.F.);
#1393=ORIENTED_EDGE('',*,*,#1278,.F.);
#1394=ORIENTED_EDGE('',*,*,#1246,.F.);
#1395=ORIENTED_EDGE('',*,*,#1214,.F.);
#1396=ORIENTED_EDGE('',*,*,#1183,.F.);
#1397=ORIENTED_EDGE('',*,*,#1152,.F.);
#1398=ORIENTED_EDGE('',*,*,#1120,.F.);
#1399=ORIENTED_EDGE('',*,*,#1088,.F.);
#1400=ORIENTED_EDGE('',*,*,#1056,.F.);
#1401=EDGE_LOOP('',(#1389,#1390,#1391,#1392,#1393,#1394,#1395,#1396,#1397,#1398,#1399,#1400));
#1402=FACE_OUTER_BOUND('',#1401,.T.);
#1403=ADVANCED_FACE('',(#1402),#1388,.T.);
#1404=CARTESIAN_POINT('',(-1.038647155442711,-1.205000000000001,0.41681909579265));
#1405=DIRECTION('',(0.0,1.0,0.0));
#1406=DIRECTION('',(0.0,0.0,1.0));
#1407=AXIS2_PLACEMENT_3D('',#1404,#1405,#1406);
#1408=PLANE('',#1407);
#1409=ORIENTED_EDGE('',*,*,#1378,.T.);
#1410=ORIENTED_EDGE('',*,*,#1033,.T.);
#1411=ORIENTED_EDGE('',*,*,#1071,.T.);
#1412=ORIENTED_EDGE('',*,*,#1102,.T.);
#1413=ORIENTED_EDGE('',*,*,#1135,.T.);
#1414=ORIENTED_EDGE('',*,*,#1166,.T.);
#1415=ORIENTED_EDGE('',*,*,#1197,.T.);
#1416=ORIENTED_EDGE('',*,*,#1228,.T.);
#1417=ORIENTED_EDGE('',*,*,#1261,.T.);
#1418=ORIENTED_EDGE('',*,*,#1292,.T.);
#1419=ORIENTED_EDGE('',*,*,#1325,.T.);
#1420=ORIENTED_EDGE('',*,*,#1356,.T.);
#1421=EDGE_LOOP('',(#1409,#1410,#1411,#1412,#1413,#1414,#1415,#1416,#1417,#1418,#1419,#1420));
#1422=FACE_OUTER_BOUND('',#1421,.T.);
#1423=ADVANCED_FACE('',(#1422),#1408,.F.);
#1424=CLOSED_SHELL('',(#1043,#1076,#1107,#1140,#1171,#1202,#1233,#1266,#1297,#1330,#1361,#1383,#1403,#1423));
#1425=MANIFOLD_SOLID_BREP('390',#1424);
#1426=STYLED_ITEM('NONE',(#577),#1425);
#1427=CARTESIAN_POINT('',(0.3875,-1.415,1.155000000000003));
#1428=DIRECTION('',(-9.021795E-035,-0.993035236117013,0.11781773987829));
#1429=DIRECTION('',(0.0,-0.11781773987829,-0.993035236117013));
#1430=AXIS2_PLACEMENT_3D('',#1427,#1428,#1429);
#1431=PLANE('',#1430);
#1432=CARTESIAN_POINT('',(0.71093220338983,-1.385932203389831,1.400000000000002));
#1433=VERTEX_POINT('',#1432);
#1434=CARTESIAN_POINT('',(-0.710932203389831,-1.38593220338983,1.400000000000003));
#1435=VERTEX_POINT('',#1434);
#1436=CARTESIAN_POINT('',(-0.710932203389831,-1.38593220338983,1.400000000000003));
#1437=DIRECTION('',(1.0,0.0,0.0));
#1438=VECTOR('',#1437,1.421864406779661);
#1439=LINE('',#1436,#1438);
#1440=EDGE_CURVE('',#1433,#1435,#1439,.F.);
#1441=ORIENTED_EDGE('',*,*,#1440,.T.);
#1442=CARTESIAN_POINT('',(-0.775,-1.45,0.860000000000002));
#1443=VERTEX_POINT('',#1442);
#1444=CARTESIAN_POINT('',(-0.710932203389831,-1.385932203389831,1.400000000000002));
#1445=DIRECTION('',(-0.117008440433666,-0.117008440433665,-0.986213997940894));
#1446=VECTOR('',#1445,0.547548504814838);
#1447=LINE('',#1444,#1446);
#1448=EDGE_CURVE('',#1435,#1443,#1447,.T.);
#1449=ORIENTED_EDGE('',*,*,#1448,.T.);
#1450=CARTESIAN_POINT('',(0.775,-1.45,0.860000000000002));
#1451=VERTEX_POINT('',#1450);
#1452=CARTESIAN_POINT('',(-0.775,-1.45,0.860000000000002));
#1453=DIRECTION('',(1.0,0.0,0.0));
#1454=VECTOR('',#1453,1.55);
#1455=LINE('',#1452,#1454);
#1456=EDGE_CURVE('',#1443,#1451,#1455,.T.);
#1457=ORIENTED_EDGE('',*,*,#1456,.T.);
#1458=CARTESIAN_POINT('',(0.71093220338983,-1.385932203389831,1.400000000000002));
#1459=DIRECTION('',(0.117008440433666,-0.117008440433665,-0.986213997940894));
#1460=VECTOR('',#1459,0.547548504814838);
#1461=LINE('',#1458,#1460);
#1462=EDGE_CURVE('',#1433,#1451,#1461,.T.);
#1463=ORIENTED_EDGE('',*,*,#1462,.F.);
#1464=EDGE_LOOP('',(#1441,#1449,#1457,#1463));
#1465=FACE_OUTER_BOUND('',#1464,.T.);
#1466=ADVANCED_FACE('',(#1465),#1431,.T.);
#1467=CARTESIAN_POINT('',(-0.74,-0.725,1.155000000000003));
#1468=DIRECTION('',(-0.993035236117013,1.778318E-033,0.11781773987829));
#1469=DIRECTION('',(0.11781773987829,0.0,0.993035236117013));
#1470=AXIS2_PLACEMENT_3D('',#1467,#1468,#1469);
#1471=PLANE('',#1470);
#1472=CARTESIAN_POINT('',(-0.710932203389831,1.38593220338983,1.400000000000003));
#1473=VERTEX_POINT('',#1472);
#1474=CARTESIAN_POINT('',(-0.710932203389831,1.385932203389831,1.400000000000003));
#1475=DIRECTION('',(0.0,-1.0,0.0));
#1476=VECTOR('',#1475,2.771864406779661);
#1477=LINE('',#1474,#1476);
#1478=EDGE_CURVE('',#1435,#1473,#1477,.F.);
#1479=ORIENTED_EDGE('',*,*,#1478,.T.);
#1480=CARTESIAN_POINT('',(-0.775,1.45,0.860000000000002));
#1481=VERTEX_POINT('',#1480);
#1482=CARTESIAN_POINT('',(-0.710932203389831,1.385932203389831,1.400000000000002));
#1483=DIRECTION('',(-0.117008440433666,0.117008440433665,-0.986213997940894));
#1484=VECTOR('',#1483,0.547548504814838);
#1485=LINE('',#1482,#1484);
#1486=EDGE_CURVE('',#1473,#1481,#1485,.T.);
#1487=ORIENTED_EDGE('',*,*,#1486,.T.);
#1488=CARTESIAN_POINT('',(-0.775,1.45,0.860000000000002));
#1489=DIRECTION('',(0.0,-1.0,0.0));
#1490=VECTOR('',#1489,2.9);
#1491=LINE('',#1488,#1490);
#1492=EDGE_CURVE('',#1481,#1443,#1491,.T.);
#1493=ORIENTED_EDGE('',*,*,#1492,.T.);
#1494=ORIENTED_EDGE('',*,*,#1448,.F.);
#1495=EDGE_LOOP('',(#1479,#1487,#1493,#1494));
#1496=FACE_OUTER_BOUND('',#1495,.T.);
#1497=ADVANCED_FACE('',(#1496),#1471,.T.);
#1498=CARTESIAN_POINT('',(-0.3875,1.415,1.155000000000003));
#1499=DIRECTION('',(-9.021795E-035,0.993035236117013,0.11781773987829));
#1500=DIRECTION('',(0.0,-0.11781773987829,0.993035236117013));
#1501=AXIS2_PLACEMENT_3D('',#1498,#1499,#1500);
#1502=PLANE('',#1501);
#1503=CARTESIAN_POINT('',(0.71093220338983,1.38593220338983,1.400000000000003));
#1504=VERTEX_POINT('',#1503);
#1505=CARTESIAN_POINT('',(0.71093220338983,1.38593220338983,1.400000000000003));
#1506=DIRECTION('',(-1.0,0.0,0.0));
#1507=VECTOR('',#1506,1.421864406779661);
#1508=LINE('',#1505,#1507);
#1509=EDGE_CURVE('',#1473,#1504,#1508,.F.);
#1510=ORIENTED_EDGE('',*,*,#1509,.T.);
#1511=CARTESIAN_POINT('',(0.775,1.45,0.860000000000002));
#1512=VERTEX_POINT('',#1511);
#1513=CARTESIAN_POINT('',(0.71093220338983,1.385932203389831,1.400000000000002));
#1514=DIRECTION('',(0.117008440433666,0.117008440433665,-0.986213997940894));
#1515=VECTOR('',#1514,0.547548504814838);
#1516=LINE('',#1513,#1515);
#1517=EDGE_CURVE('',#1504,#1512,#1516,.T.);
#1518=ORIENTED_EDGE('',*,*,#1517,.T.);
#1519=CARTESIAN_POINT('',(0.775,1.45,0.860000000000002));
#1520=DIRECTION('',(-1.0,0.0,0.0));
#1521=VECTOR('',#1520,1.55);
#1522=LINE('',#1519,#1521);
#1523=EDGE_CURVE('',#1512,#1481,#1522,.T.);
#1524=ORIENTED_EDGE('',*,*,#1523,.T.);
#1525=ORIENTED_EDGE('',*,*,#1486,.F.);
#1526=EDGE_LOOP('',(#1510,#1518,#1524,#1525));
#1527=FACE_OUTER_BOUND('',#1526,.T.);
#1528=ADVANCED_FACE('',(#1527),#1502,.T.);
#1529=CARTESIAN_POINT('',(0.74,0.725,1.155000000000003));
#1530=DIRECTION('',(0.993035236117013,1.778318E-033,0.11781773987829));
#1531=DIRECTION('',(0.11781773987829,0.0,-0.993035236117013));
#1532=AXIS2_PLACEMENT_3D('',#1529,#1530,#1531);
#1533=PLANE('',#1532);
#1534=CARTESIAN_POINT('',(0.71093220338983,-1.385932203389831,1.400000000000003));
#1535=DIRECTION('',(0.0,1.0,0.0));
#1536=VECTOR('',#1535,2.771864406779661);
#1537=LINE('',#1534,#1536);
#1538=EDGE_CURVE('',#1504,#1433,#1537,.F.);
#1539=ORIENTED_EDGE('',*,*,#1538,.T.);
#1540=ORIENTED_EDGE('',*,*,#1462,.T.);
#1541=CARTESIAN_POINT('',(0.775,-1.45,0.860000000000002));
#1542=DIRECTION('',(0.0,1.0,0.0));
#1543=VECTOR('',#1542,2.9);
#1544=LINE('',#1541,#1543);
#1545=EDGE_CURVE('',#1451,#1512,#1544,.T.);
#1546=ORIENTED_EDGE('',*,*,#1545,.T.);
#1547=ORIENTED_EDGE('',*,*,#1517,.F.);
#1548=EDGE_LOOP('',(#1539,#1540,#1546,#1547));
#1549=FACE_OUTER_BOUND('',#1548,.T.);
#1550=ADVANCED_FACE('',(#1549),#1533,.T.);
#1551=CARTESIAN_POINT('',(0.775,1.45,0.15));
#1552=DIRECTION('',(1.0,0.0,0.0));
#1553=DIRECTION('',(0.0,0.0,-1.0));
#1554=AXIS2_PLACEMENT_3D('',#1551,#1552,#1553);
#1555=PLANE('',#1554);
#1556=ORIENTED_EDGE('',*,*,#1545,.F.);
#1557=CARTESIAN_POINT('',(0.775,-1.45,0.74));
#1558=VERTEX_POINT('',#1557);
#1559=CARTESIAN_POINT('',(0.775,-1.45,0.74));
#1560=DIRECTION('',(0.0,0.0,1.0));
#1561=VECTOR('',#1560,0.120000000000002);
#1562=LINE('',#1559,#1561);
#1563=EDGE_CURVE('',#1558,#1451,#1562,.T.);
#1564=ORIENTED_EDGE('',*,*,#1563,.F.);
#1565=CARTESIAN_POINT('',(0.775,1.45,0.74));
#1566=VERTEX_POINT('',#1565);
#1567=CARTESIAN_POINT('',(0.775,1.45,0.74));
#1568=DIRECTION('',(0.0,-1.0,0.0));
#1569=VECTOR('',#1568,2.9);
#1570=LINE('',#1567,#1569);
#1571=EDGE_CURVE('',#1566,#1558,#1570,.T.);
#1572=ORIENTED_EDGE('',*,*,#1571,.F.);
#1573=CARTESIAN_POINT('',(0.775,1.45,0.74));
#1574=DIRECTION('',(0.0,0.0,1.0));
#1575=VECTOR('',#1574,0.120000000000002);
#1576=LINE('',#1573,#1575);
#1577=EDGE_CURVE('',#1566,#1512,#1576,.T.);
#1578=ORIENTED_EDGE('',*,*,#1577,.T.);
#1579=EDGE_LOOP('',(#1556,#1564,#1572,#1578));
#1580=FACE_OUTER_BOUND('',#1579,.T.);
#1581=ADVANCED_FACE('',(#1580),#1555,.T.);
#1582=CARTESIAN_POINT('',(0.775,-1.45,0.15));
#1583=DIRECTION('',(0.0,-1.0,0.0));
#1584=DIRECTION('',(0.0,0.0,-1.0));
#1585=AXIS2_PLACEMENT_3D('',#1582,#1583,#1584);
#1586=PLANE('',#1585);
#1587=ORIENTED_EDGE('',*,*,#1456,.F.);
#1588=CARTESIAN_POINT('',(-0.775,-1.45,0.74));
#1589=VERTEX_POINT('',#1588);
#1590=CARTESIAN_POINT('',(-0.775,-1.45,0.74));
#1591=DIRECTION('',(0.0,0.0,1.0));
#1592=VECTOR('',#1591,0.120000000000002);
#1593=LINE('',#1590,#1592);
#1594=EDGE_CURVE('',#1589,#1443,#1593,.T.);
#1595=ORIENTED_EDGE('',*,*,#1594,.F.);
#1596=CARTESIAN_POINT('',(0.775,-1.45,0.74));
#1597=DIRECTION('',(-1.0,0.0,0.0));
#1598=VECTOR('',#1597,1.55);
#1599=LINE('',#1596,#1598);
#1600=EDGE_CURVE('',#1558,#1589,#1599,.T.);
#1601=ORIENTED_EDGE('',*,*,#1600,.F.);
#1602=ORIENTED_EDGE('',*,*,#1563,.T.);
#1603=EDGE_LOOP('',(#1587,#1595,#1601,#1602));
#1604=FACE_OUTER_BOUND('',#1603,.T.);
#1605=ADVANCED_FACE('',(#1604),#1586,.T.);
#1606=CARTESIAN_POINT('',(-5.551115E-017,0.0,1.400000000000002));
#1607=DIRECTION('',(0.0,0.0,1.0));
#1608=DIRECTION('',(1.0,0.0,0.0));
#1609=AXIS2_PLACEMENT_3D('',#1606,#1607,#1608);
#1610=PLANE('',#1609);
#1611=ORIENTED_EDGE('',*,*,#1440,.F.);
#1612=ORIENTED_EDGE('',*,*,#1538,.F.);
#1613=ORIENTED_EDGE('',*,*,#1509,.F.);
#1614=ORIENTED_EDGE('',*,*,#1478,.F.);
#1615=EDGE_LOOP('',(#1611,#1612,#1613,#1614));
#1616=FACE_OUTER_BOUND('',#1615,.T.);
#1617=ADVANCED_FACE('',(#1616),#1610,.T.);
#1618=CARTESIAN_POINT('',(0.3875,-1.415,0.445));
#1619=DIRECTION('',(-4.510897E-034,-0.993035236117013,-0.11781773987829));
#1620=DIRECTION('',(0.0,0.11781773987829,-0.993035236117013));
#1621=AXIS2_PLACEMENT_3D('',#1618,#1619,#1620);
#1622=PLANE('',#1621);
#1623=CARTESIAN_POINT('',(-0.705,-1.38,0.15));
#1624=VERTEX_POINT('',#1623);
#1625=CARTESIAN_POINT('',(0.705,-1.38,0.15));
#1626=VERTEX_POINT('',#1625);
#1627=CARTESIAN_POINT('',(-0.705,-1.38,0.15));
#1628=DIRECTION('',(1.0,0.0,0.0));
#1629=VECTOR('',#1628,1.41);
#1630=LINE('',#1627,#1629);
#1631=EDGE_CURVE('',#1624,#1626,#1630,.T.);
#1632=ORIENTED_EDGE('',*,*,#1631,.T.);
#1633=CARTESIAN_POINT('',(0.705,-1.38,0.15));
#1634=DIRECTION('',(0.117008440433666,-0.117008440433665,0.986213997940895));
#1635=VECTOR('',#1634,0.598247440445841);
#1636=LINE('',#1633,#1635);
#1637=EDGE_CURVE('',#1626,#1558,#1636,.T.);
#1638=ORIENTED_EDGE('',*,*,#1637,.T.);
#1639=ORIENTED_EDGE('',*,*,#1600,.T.);
#1640=CARTESIAN_POINT('',(-0.775,-1.45,0.74));
#1641=DIRECTION('',(0.117008440433666,0.117008440433666,-0.986213997940895));
#1642=VECTOR('',#1641,0.598247440445841);
#1643=LINE('',#1640,#1642);
#1644=EDGE_CURVE('',#1589,#1624,#1643,.T.);
#1645=ORIENTED_EDGE('',*,*,#1644,.T.);
#1646=EDGE_LOOP('',(#1632,#1638,#1639,#1645));
#1647=FACE_OUTER_BOUND('',#1646,.T.);
#1648=ADVANCED_FACE('',(#1647),#1622,.T.);
#1649=CARTESIAN_POINT('',(-0.3875,1.415,0.445));
#1650=DIRECTION('',(-4.510897E-034,0.993035236117013,-0.11781773987829));
#1651=DIRECTION('',(0.0,0.11781773987829,0.993035236117013));
#1652=AXIS2_PLACEMENT_3D('',#1649,#1650,#1651);
#1653=PLANE('',#1652);
#1654=CARTESIAN_POINT('',(0.705,1.38,0.15));
#1655=VERTEX_POINT('',#1654);
#1656=CARTESIAN_POINT('',(-0.705,1.38,0.15));
#1657=VERTEX_POINT('',#1656);
#1658=CARTESIAN_POINT('',(0.705,1.38,0.15));
#1659=DIRECTION('',(-1.0,0.0,0.0));
#1660=VECTOR('',#1659,1.41);
#1661=LINE('',#1658,#1660);
#1662=EDGE_CURVE('',#1655,#1657,#1661,.T.);
#1663=ORIENTED_EDGE('',*,*,#1662,.T.);
#1664=CARTESIAN_POINT('',(-0.775,1.45,0.74));
#1665=VERTEX_POINT('',#1664);
#1666=CARTESIAN_POINT('',(-0.705,1.38,0.15));
#1667=DIRECTION('',(-0.117008440433666,0.117008440433665,0.986213997940895));
#1668=VECTOR('',#1667,0.598247440445841);
#1669=LINE('',#1666,#1668);
#1670=EDGE_CURVE('',#1657,#1665,#1669,.T.);
#1671=ORIENTED_EDGE('',*,*,#1670,.T.);
#1672=CARTESIAN_POINT('',(-0.775,1.45,0.74));
#1673=DIRECTION('',(1.0,0.0,0.0));
#1674=VECTOR('',#1673,1.55);
#1675=LINE('',#1672,#1674);
#1676=EDGE_CURVE('',#1665,#1566,#1675,.T.);
#1677=ORIENTED_EDGE('',*,*,#1676,.T.);
#1678=CARTESIAN_POINT('',(0.705,1.38,0.15));
#1679=DIRECTION('',(0.117008440433666,0.117008440433666,0.986213997940895));
#1680=VECTOR('',#1679,0.598247440445841);
#1681=LINE('',#1678,#1680);
#1682=EDGE_CURVE('',#1655,#1566,#1681,.T.);
#1683=ORIENTED_EDGE('',*,*,#1682,.F.);
#1684=EDGE_LOOP('',(#1663,#1671,#1677,#1683));
#1685=FACE_OUTER_BOUND('',#1684,.T.);
#1686=ADVANCED_FACE('',(#1685),#1653,.T.);
#1687=CARTESIAN_POINT('',(-0.74,-0.725,0.445));
#1688=DIRECTION('',(-0.993035236117013,2.061818E-034,-0.11781773987829));
#1689=DIRECTION('',(-0.11781773987829,0.0,0.993035236117013));
#1690=AXIS2_PLACEMENT_3D('',#1687,#1688,#1689);
#1691=PLANE('',#1690);
#1692=CARTESIAN_POINT('',(-0.705,1.38,0.15));
#1693=DIRECTION('',(0.0,-1.0,0.0));
#1694=VECTOR('',#1693,2.760000000000001);
#1695=LINE('',#1692,#1694);
#1696=EDGE_CURVE('',#1657,#1624,#1695,.T.);
#1697=ORIENTED_EDGE('',*,*,#1696,.T.);
#1698=ORIENTED_EDGE('',*,*,#1644,.F.);
#1699=CARTESIAN_POINT('',(-0.775,-1.45,0.74));
#1700=DIRECTION('',(0.0,1.0,0.0));
#1701=VECTOR('',#1700,2.9);
#1702=LINE('',#1699,#1701);
#1703=EDGE_CURVE('',#1589,#1665,#1702,.T.);
#1704=ORIENTED_EDGE('',*,*,#1703,.T.);
#1705=ORIENTED_EDGE('',*,*,#1670,.F.);
#1706=EDGE_LOOP('',(#1697,#1698,#1704,#1705));
#1707=FACE_OUTER_BOUND('',#1706,.T.);
#1708=ADVANCED_FACE('',(#1707),#1691,.T.);
#1709=CARTESIAN_POINT('',(0.74,0.725,0.445));
#1710=DIRECTION('',(0.993035236117013,2.061818E-034,-0.11781773987829));
#1711=DIRECTION('',(-0.11781773987829,0.0,-0.993035236117013));
#1712=AXIS2_PLACEMENT_3D('',#1709,#1710,#1711);
#1713=PLANE('',#1712);
#1714=CARTESIAN_POINT('',(0.705,-1.38,0.15));
#1715=DIRECTION('',(0.0,1.0,0.0));
#1716=VECTOR('',#1715,2.760000000000001);
#1717=LINE('',#1714,#1716);
#1718=EDGE_CURVE('',#1626,#1655,#1717,.T.);
#1719=ORIENTED_EDGE('',*,*,#1718,.T.);
#1720=ORIENTED_EDGE('',*,*,#1682,.T.);
#1721=ORIENTED_EDGE('',*,*,#1571,.T.);
#1722=ORIENTED_EDGE('',*,*,#1637,.F.);
#1723=EDGE_LOOP('',(#1719,#1720,#1721,#1722));
#1724=FACE_OUTER_BOUND('',#1723,.T.);
#1725=ADVANCED_FACE('',(#1724),#1713,.T.);
#1726=CARTESIAN_POINT('',(-0.775,1.45,0.15));
#1727=DIRECTION('',(0.0,1.0,0.0));
#1728=DIRECTION('',(0.0,0.0,1.0));
#1729=AXIS2_PLACEMENT_3D('',#1726,#1727,#1728);
#1730=PLANE('',#1729);
#1731=ORIENTED_EDGE('',*,*,#1523,.F.);
#1732=ORIENTED_EDGE('',*,*,#1577,.F.);
#1733=ORIENTED_EDGE('',*,*,#1676,.F.);
#1734=CARTESIAN_POINT('',(-0.775,1.45,0.74));
#1735=DIRECTION('',(0.0,0.0,1.0));
#1736=VECTOR('',#1735,0.120000000000002);
#1737=LINE('',#1734,#1736);
#1738=EDGE_CURVE('',#1665,#1481,#1737,.T.);
#1739=ORIENTED_EDGE('',*,*,#1738,.T.);
#1740=EDGE_LOOP('',(#1731,#1732,#1733,#1739));
#1741=FACE_OUTER_BOUND('',#1740,.T.);
#1742=ADVANCED_FACE('',(#1741),#1730,.T.);
#1743=CARTESIAN_POINT('',(-5.551115E-017,0.0,0.15));
#1744=DIRECTION('',(0.0,0.0,1.0));
#1745=DIRECTION('',(1.0,0.0,0.0));
#1746=AXIS2_PLACEMENT_3D('',#1743,#1744,#1745);
#1747=PLANE('',#1746);
#1748=ORIENTED_EDGE('',*,*,#1662,.F.);
#1749=ORIENTED_EDGE('',*,*,#1718,.F.);
#1750=ORIENTED_EDGE('',*,*,#1631,.F.);
#1751=ORIENTED_EDGE('',*,*,#1696,.F.);
#1752=EDGE_LOOP('',(#1748,#1749,#1750,#1751));
#1753=FACE_OUTER_BOUND('',#1752,.T.);
#1754=ADVANCED_FACE('',(#1753),#1747,.F.);
#1755=CARTESIAN_POINT('',(-0.775,-1.45,0.15));
#1756=DIRECTION('',(-1.0,0.0,0.0));
#1757=DIRECTION('',(0.0,0.0,1.0));
#1758=AXIS2_PLACEMENT_3D('',#1755,#1756,#1757);
#1759=PLANE('',#1758);
#1760=ORIENTED_EDGE('',*,*,#1492,.F.);
#1761=ORIENTED_EDGE('',*,*,#1738,.F.);
#1762=ORIENTED_EDGE('',*,*,#1703,.F.);
#1763=ORIENTED_EDGE('',*,*,#1594,.T.);
#1764=EDGE_LOOP('',(#1760,#1761,#1762,#1763));
#1765=FACE_OUTER_BOUND('',#1764,.T.);
#1766=ADVANCED_FACE('',(#1765),#1759,.T.);
#1767=CLOSED_SHELL('',(#1466,#1497,#1528,#1550,#1581,#1605,#1617,#1648,#1686,#1708,#1725,#1742,#1754,#1766));
#1768=MANIFOLD_SOLID_BREP('360',#1767);
#1769=COLOUR_RGB('250',0.33,0.33,0.33);
#1770=SURFACE_STYLE_USAGE(.BOTH.,#1771);
#1771=SURFACE_SIDE_STYLE('NONE',(#1772));
#1772=SURFACE_STYLE_FILL_AREA(#1773);
#1773=FILL_AREA_STYLE('NONE',(#1774));
#1774=FILL_AREA_STYLE_COLOUR('NONE',#1769);
#1775=PRESENTATION_STYLE_ASSIGNMENT((#1770));
#1776=STYLED_ITEM('NONE',(#1775),#1768);
#1777=ADVANCED_BREP_SHAPE_REPRESENTATION('ABSR1',(#570,#1002,#1425,#1768),#28);
#1778=SHAPE_REPRESENTATION_RELATIONSHIP('SRRPL1','',#1777,#62);
ENDSEC;
END-ISO-10303-21;
