ISO-10303-21;
HEADER;
/****************************************************************
 * Generated by software with PDElib inside                    *
 * PDElib Version v51a, created Fri 09/10/2010                  *
 * ITI Transcendata (http://www.transcendata.com/)              *
 ****************************************************************/
FILE_DESCRIPTION((''),'2;1');
FILE_NAME('SOT95P248X115-3N.stp','2013-05-27T15:28:28',(''),(''),'Mechanical Desktop 2011','Mechanical Desktop 2011',', , ');
FILE_SCHEMA(('AUTOMOTIVE_DESIGN { 1 2 10303 214 1 1 1 1 }'));
ENDSEC;
DATA;
#10=(NAMED_UNIT(*)PLANE_ANGLE_UNIT()SI_UNIT($,.RADIAN.));
#11=DIMENSIONAL_EXPONENTS(0.0,0.0,0.0,0.0,0.0,0.0,0.0);
#12=PLANE_ANGLE_MEASURE_WITH_UNIT(PLANE_ANGLE_MEASURE(0.0174532925),#10);
#16=(CONVERSION_BASED_UNIT('DEGREE',#12)NAMED_UNIT(#11)PLANE_ANGLE_UNIT());
#20=(NAMED_UNIT(*)SI_UNIT($,.STERADIAN.)SOLID_ANGLE_UNIT());
#24=(LENGTH_UNIT()NAMED_UNIT(*)SI_UNIT(.MILLI.,.METRE.));
#26=UNCERTAINTY_MEASURE_WITH_UNIT(LENGTH_MEASURE(0.000001),#24,'DISTANCE_ACCURACY_VALUE','');
#28=(GEOMETRIC_REPRESENTATION_CONTEXT(3)GLOBAL_UNCERTAINTY_ASSIGNED_CONTEXT((#26))GLOBAL_UNIT_ASSIGNED_CONTEXT((#16,#20,#24))REPRESENTATION_CONTEXT('','3D'));
#29=APPLICATION_CONTEXT('automotive design');
#30=APPLICATION_PROTOCOL_DEFINITION('INTERNATIONAL_STANDARD','automotive_design',1998,#29);
#31=PRODUCT_CONTEXT('3D Mechanical Parts',#29,'mechanical');
#32=PRODUCT('Product','Product','',(#31));
#33=PRODUCT_RELATED_PRODUCT_CATEGORY('part',$,(#32));
#34=PRODUCT_CATEGORY('part',$);
#35=PERSON('1','Design','Joe',$,$,$);
#36=ORGANIZATION($,'None','None');
#37=PERSON_AND_ORGANIZATION(#35,#36);
#38=PERSON_AND_ORGANIZATION_ROLE('design_owner');
#39=APPLIED_PERSON_AND_ORGANIZATION_ASSIGNMENT(#37,#38,(#32));
#40=PRODUCT_DEFINITION_FORMATION_WITH_SPECIFIED_SOURCE('None','',#32,.BOUGHT.);
#41=PERSON('2','Creator','Joe',$,$,$);
#42=ORGANIZATION($,'None','None');
#43=PERSON_AND_ORGANIZATION(#41,#42);
#44=PERSON_AND_ORGANIZATION_ROLE('creator');
#45=APPLIED_PERSON_AND_ORGANIZATION_ASSIGNMENT(#43,#44,(#40));
#46=PERSON('3','Supplier','Joe',$,$,$);
#47=ORGANIZATION($,'None','None');
#48=PERSON_AND_ORGANIZATION(#46,#47);
#49=PERSON_AND_ORGANIZATION_ROLE('design_supplier');
#50=APPLIED_PERSON_AND_ORGANIZATION_ASSIGNMENT(#48,#49,(#40));
#51=PRODUCT_DEFINITION_CONTEXT('part definition',#29,'design');
#52=PRODUCT_DEFINITION('None','',#40,#51);
#53=PERSON('4','Creator','Joe',$,$,$);
#54=ORGANIZATION($,'None','None');
#55=PERSON_AND_ORGANIZATION(#53,#54);
#56=PERSON_AND_ORGANIZATION_ROLE('creator');
#57=APPLIED_PERSON_AND_ORGANIZATION_ASSIGNMENT(#55,#56,(#52));
#58=CARTESIAN_POINT('NONE',(0.0,0.0,0.0));
#59=DIRECTION('NONE',(0.0,0.0,1.0));
#60=DIRECTION('NONE',(1.0,0.0,0.0));
#61=AXIS2_PLACEMENT_3D('NONE',#58,#59,#60);
#62=SHAPE_REPRESENTATION('SR1',(#61),#28);
#63=PRODUCT_DEFINITION_SHAPE('PDS1','Test Part',#52);
#64=SHAPE_DEFINITION_REPRESENTATION(#63,#62);
#65=CARTESIAN_POINT('',(-1.001970051016653,-1.205000000000001,0.030454248376692));
#66=CARTESIAN_POINT('',(-1.253859942619989,-1.205000000000002,-0.000473941359721));
#67=CARTESIAN_POINT('',(-1.001970051016655,-0.695,0.030454248376692));
#68=CARTESIAN_POINT('',(-1.25385994261999,-0.695000000000001,-0.000473941359721));
#69=B_SPLINE_SURFACE_WITH_KNOTS('',1,1,((#65,#67),(#66,#68)),.UNSPECIFIED.,.F.,.F.,.U.,(2,2),(2,2),(0.0,0.253781540724127),(0.0,0.510000000000001),.UNSPECIFIED.);
#70=CARTESIAN_POINT('',(-1.253859942619988,-1.205000000000001,-0.000473941359721));
#71=VERTEX_POINT('',#70);
#72=CARTESIAN_POINT('',(-1.001970051016656,-1.205000000000001,0.030454248376691));
#73=VERTEX_POINT('',#72);
#74=CARTESIAN_POINT('',(-1.253859942619988,-1.205000000000001,-0.000473941359721));
#75=DIRECTION('',(0.992546151641314,1.749888E-015,0.121869343405213));
#76=VECTOR('',#75,0.253781540724123);
#77=LINE('',#74,#76);
#78=EDGE_CURVE('',#71,#73,#77,.T.);
#79=ORIENTED_EDGE('',*,*,#78,.F.);
#80=CARTESIAN_POINT('',(-1.253859942619989,-0.695000000000002,-0.000473941359721));
#81=VERTEX_POINT('',#80);
#82=CARTESIAN_POINT('',(-1.253859942619989,-0.695000000000002,-0.000473941359721));
#83=DIRECTION('',(0.0,-1.0,0.0));
#84=VECTOR('',#83,0.51);
#85=LINE('',#82,#84);
#86=EDGE_CURVE('',#81,#71,#85,.T.);
#87=ORIENTED_EDGE('',*,*,#86,.F.);
#88=CARTESIAN_POINT('',(-1.001970051016656,-0.695000000000001,0.030454248376691));
#89=VERTEX_POINT('',#88);
#90=CARTESIAN_POINT('',(-1.001970051016656,-0.695000000000001,0.030454248376691));
#91=DIRECTION('',(-0.992546151641314,-2.187360E-015,-0.121869343405213));
#92=VECTOR('',#91,0.253781540724125);
#93=LINE('',#90,#92);
#94=EDGE_CURVE('',#89,#81,#93,.T.);
#95=ORIENTED_EDGE('',*,*,#94,.F.);
#96=CARTESIAN_POINT('',(-1.001970051016656,-0.695000000000001,0.030454248376691));
#97=DIRECTION('',(0.0,-1.0,0.0));
#98=VECTOR('',#97,0.51);
#99=LINE('',#96,#98);
#100=EDGE_CURVE('',#89,#73,#99,.T.);
#101=ORIENTED_EDGE('',*,*,#100,.T.);
#102=EDGE_LOOP('',(#79,#87,#95,#101));
#103=FACE_OUTER_BOUND('',#102,.T.);
#104=ADVANCED_FACE('',(#103),#69,.T.);
#105=CARTESIAN_POINT('',(-0.700000000000046,-0.695,-0.000473941359721));
#106=CARTESIAN_POINT('',(-0.700000000000046,-0.695000000000001,0.585000000000002));
#107=CARTESIAN_POINT('',(-1.269702957262759,-0.695000000000002,-0.000473941359721));
#108=CARTESIAN_POINT('',(-1.269702957262759,-0.695000000000002,0.585000000000002));
#109=B_SPLINE_SURFACE_WITH_KNOTS('',1,1,((#105,#107),(#106,#108)),.UNSPECIFIED.,.F.,.F.,.U.,(2,2),(2,2),(0.0,0.585473941359723),(0.0,0.569702957262713),.UNSPECIFIED.);
#110=CARTESIAN_POINT('',(-0.799999999999841,-0.695000000000001,0.258739863254301));
#111=VERTEX_POINT('',#110);
#112=CARTESIAN_POINT('',(-1.029999999999802,-0.695000000000001,0.258739863254184));
#113=DIRECTION('',(-1.287028E-015,1.0,1.138666E-015));
#114=DIRECTION('',(0.748955720789156,1.718429E-015,-0.662620048215563));
#115=AXIS2_PLACEMENT_3D('',#112,#113,#114);
#116=CIRCLE('',#115,0.229999999999988);
#117=EDGE_CURVE('',#111,#89,#116,.T.);
#118=ORIENTED_EDGE('',*,*,#117,.T.);
#119=ORIENTED_EDGE('',*,*,#94,.T.);
#120=CARTESIAN_POINT('',(-1.269702957262758,-0.695000000000002,0.128557058353649));
#121=VERTEX_POINT('',#120);
#122=CARTESIAN_POINT('',(-1.253859942619989,-0.695000000000001,-0.000473941359721));
#123=DIRECTION('',(-0.121869343405908,-8.540177E-016,0.992546151641229));
#124=VECTOR('',#123,0.130000000000011);
#125=LINE('',#122,#124);
#126=EDGE_CURVE('',#81,#121,#125,.T.);
#127=ORIENTED_EDGE('',*,*,#126,.T.);
#128=CARTESIAN_POINT('',(-1.017813065659368,-0.695000000000001,0.159485248090044));
#129=VERTEX_POINT('',#128);
#130=CARTESIAN_POINT('',(-1.269702957262758,-0.695000000000001,0.128557058353649));
#131=DIRECTION('',(0.992546151641326,1.749888E-015,0.121869343405117));
#132=VECTOR('',#131,0.253781540724179);
#133=LINE('',#130,#132);
#134=EDGE_CURVE('',#121,#129,#133,.T.);
#135=ORIENTED_EDGE('',*,*,#134,.T.);
#136=CARTESIAN_POINT('',(-0.929999999999836,-0.695000000000001,0.25873986325423));
#137=VERTEX_POINT('',#136);
#138=CARTESIAN_POINT('',(-1.029999999999859,-0.695000000000001,0.258739863254204));
#139=DIRECTION('',(1.287028E-015,-1.0,-1.138666E-015));
#140=DIRECTION('',(0.748955720789008,1.718429E-015,-0.662620048215731));
#141=AXIS2_PLACEMENT_3D('',#138,#139,#140);
#142=CIRCLE('',#141,0.100000000000023);
#143=EDGE_CURVE('',#129,#137,#142,.T.);
#144=ORIENTED_EDGE('',*,*,#143,.T.);
#145=CARTESIAN_POINT('',(-0.930000000000064,-0.695000000000001,0.354999999999905));
#146=VERTEX_POINT('',#145);
#147=CARTESIAN_POINT('',(-0.929999999999836,-0.695000000000001,0.25873986325423));
#148=DIRECTION('',(-2.362075E-012,0.0,1.0));
#149=VECTOR('',#148,0.096260136745675);
#150=LINE('',#147,#149);
#151=EDGE_CURVE('',#137,#146,#150,.T.);
#152=ORIENTED_EDGE('',*,*,#151,.T.);
#153=CARTESIAN_POINT('',(-0.700000000000046,-0.695,0.585000000000002));
#154=VERTEX_POINT('',#153);
#155=CARTESIAN_POINT('',(-0.700000000000046,-0.695,0.354999999999992));
#156=DIRECTION('',(-1.160015E-015,1.0,1.160015E-015));
#157=DIRECTION('',(-0.707106781186668,-1.640509E-015,0.707106781186427));
#158=AXIS2_PLACEMENT_3D('',#155,#156,#157);
#159=CIRCLE('',#158,0.23000000000001);
#160=EDGE_CURVE('',#146,#154,#159,.T.);
#161=ORIENTED_EDGE('',*,*,#160,.T.);
#162=CARTESIAN_POINT('',(-0.700000000000046,-0.695,0.455000000000001));
#163=VERTEX_POINT('',#162);
#164=CARTESIAN_POINT('',(-0.700000000000046,-0.695,0.585000000000002));
#165=DIRECTION('',(0.0,0.0,-1.0));
#166=VECTOR('',#165,0.130000000000001);
#167=LINE('',#164,#166);
#168=EDGE_CURVE('',#154,#163,#167,.T.);
#169=ORIENTED_EDGE('',*,*,#168,.T.);
#170=CARTESIAN_POINT('',(-0.800000000000068,-0.695000000000001,0.35499999999996));
#171=VERTEX_POINT('',#170);
#172=CARTESIAN_POINT('',(-0.700000000000046,-0.695,0.354999999999991));
#173=DIRECTION('',(1.160015E-015,-1.0,-1.160015E-015));
#174=DIRECTION('',(-0.70710678118661,-1.640509E-015,0.707106781186485));
#175=AXIS2_PLACEMENT_3D('',#172,#173,#174);
#176=CIRCLE('',#175,0.100000000000011);
#177=EDGE_CURVE('',#163,#171,#176,.T.);
#178=ORIENTED_EDGE('',*,*,#177,.T.);
#179=CARTESIAN_POINT('',(-0.800000000000068,-0.695000000000001,0.35499999999996));
#180=DIRECTION('',(2.362075E-012,0.0,-1.0));
#181=VECTOR('',#180,0.096260136745659);
#182=LINE('',#179,#181);
#183=EDGE_CURVE('',#171,#111,#182,.T.);
#184=ORIENTED_EDGE('',*,*,#183,.T.);
#185=EDGE_LOOP('',(#118,#119,#127,#135,#144,#152,#161,#169,#178,#184));
#186=FACE_OUTER_BOUND('',#185,.T.);
#187=ADVANCED_FACE('',(#186),#109,.F.);
#188=CARTESIAN_POINT('',(-1.269702957262759,-1.205000000000002,0.128557058353649));
#189=CARTESIAN_POINT('',(-1.017813065659366,-1.205000000000001,0.159485248090044));
#190=CARTESIAN_POINT('',(-1.26970295726276,-0.695000000000001,0.128557058353649));
#191=CARTESIAN_POINT('',(-1.017813065659367,-0.695,0.159485248090044));
#192=B_SPLINE_SURFACE_WITH_KNOTS('',1,1,((#188,#190),(#189,#191)),.UNSPECIFIED.,.F.,.F.,.U.,(2,2),(2,2),(0.0,0.253781540724181),(0.0,0.510000000000001),.UNSPECIFIED.);
#193=CARTESIAN_POINT('',(-1.017813065659368,-1.205000000000001,0.159485248090044));
#194=VERTEX_POINT('',#193);
#195=CARTESIAN_POINT('',(-1.269702957262759,-1.205000000000001,0.128557058353649));
#196=VERTEX_POINT('',#195);
#197=CARTESIAN_POINT('',(-1.017813065659368,-1.205000000000001,0.159485248090044));
#198=DIRECTION('',(-0.992546151641326,-1.749888E-015,-0.121869343405117));
#199=VECTOR('',#198,0.253781540724179);
#200=LINE('',#197,#199);
#201=EDGE_CURVE('',#194,#196,#200,.T.);
#202=ORIENTED_EDGE('',*,*,#201,.F.);
#203=CARTESIAN_POINT('',(-1.017813065659368,-0.695000000000001,0.159485248090044));
#204=DIRECTION('',(0.0,-1.0,0.0));
#205=VECTOR('',#204,0.51);
#206=LINE('',#203,#205);
#207=EDGE_CURVE('',#129,#194,#206,.T.);
#208=ORIENTED_EDGE('',*,*,#207,.F.);
#209=ORIENTED_EDGE('',*,*,#134,.F.);
#210=CARTESIAN_POINT('',(-1.269702957262757,-1.205000000000001,0.128557058353649));
#211=DIRECTION('',(0.0,1.0,0.0));
#212=VECTOR('',#211,0.509999999999999);
#213=LINE('',#210,#212);
#214=EDGE_CURVE('',#121,#196,#213,.F.);
#215=ORIENTED_EDGE('',*,*,#214,.T.);
#216=EDGE_LOOP('',(#202,#208,#209,#215));
#217=FACE_OUTER_BOUND('',#216,.T.);
#218=ADVANCED_FACE('',(#217),#192,.T.);
#219=CARTESIAN_POINT('',(-1.253859942619988,-1.205000000000001,-0.000473941359721));
#220=CARTESIAN_POINT('',(-1.269702957262757,-1.205000000000001,0.128557058353649));
#221=CARTESIAN_POINT('',(-1.253859942619989,-0.695000000000001,-0.000473941359721));
#222=CARTESIAN_POINT('',(-1.269702957262758,-0.695000000000001,0.128557058353649));
#223=B_SPLINE_SURFACE_WITH_KNOTS('',1,1,((#219,#221),(#220,#222)),.UNSPECIFIED.,.F.,.F.,.U.,(2,2),(2,2),(0.0,0.130000000000011),(0.0,0.51),.UNSPECIFIED.);
#224=CARTESIAN_POINT('',(-1.269702957262759,-1.205000000000001,0.128557058353649));
#225=DIRECTION('',(0.121869343405908,0.0,-0.992546151641229));
#226=VECTOR('',#225,0.13000000000001);
#227=LINE('',#224,#226);
#228=EDGE_CURVE('',#196,#71,#227,.T.);
#229=ORIENTED_EDGE('',*,*,#228,.F.);
#230=ORIENTED_EDGE('',*,*,#214,.F.);
#231=ORIENTED_EDGE('',*,*,#126,.F.);
#232=ORIENTED_EDGE('',*,*,#86,.T.);
#233=EDGE_LOOP('',(#229,#230,#231,#232));
#234=FACE_OUTER_BOUND('',#233,.T.);
#235=ADVANCED_FACE('',(#234),#223,.T.);
#236=CARTESIAN_POINT('',(-0.700000000000046,-1.205,-0.000473941359721));
#237=CARTESIAN_POINT('',(-0.700000000000046,-1.205000000000001,0.585000000000002));
#238=CARTESIAN_POINT('',(-1.269702957262759,-1.205000000000001,-0.000473941359721));
#239=CARTESIAN_POINT('',(-1.269702957262759,-1.205000000000002,0.585000000000002));
#240=B_SPLINE_SURFACE_WITH_KNOTS('',1,1,((#236,#238),(#237,#239)),.UNSPECIFIED.,.F.,.F.,.U.,(2,2),(2,2),(0.0,0.585473941359723),(0.0,0.569702957262713),.UNSPECIFIED.);
#241=CARTESIAN_POINT('',(-0.799999999999841,-1.205000000000001,0.258739863254301));
#242=VERTEX_POINT('',#241);
#243=CARTESIAN_POINT('',(-0.800000000000068,-1.205000000000001,0.35499999999996));
#244=VERTEX_POINT('',#243);
#245=CARTESIAN_POINT('',(-0.799999999999841,-1.205000000000001,0.258739863254301));
#246=DIRECTION('',(-2.362075E-012,0.0,1.0));
#247=VECTOR('',#246,0.096260136745659);
#248=LINE('',#245,#247);
#249=EDGE_CURVE('',#242,#244,#248,.T.);
#250=ORIENTED_EDGE('',*,*,#249,.T.);
#251=CARTESIAN_POINT('',(-0.700000000000046,-1.205,0.455000000000001));
#252=VERTEX_POINT('',#251);
#253=CARTESIAN_POINT('',(-0.700000000000046,-1.205,0.354999999999991));
#254=DIRECTION('',(-1.160015E-015,1.0,1.160015E-015));
#255=DIRECTION('',(-0.70710678118661,-1.640509E-015,0.707106781186485));
#256=AXIS2_PLACEMENT_3D('',#253,#254,#255);
#257=CIRCLE('',#256,0.100000000000011);
#258=EDGE_CURVE('',#244,#252,#257,.T.);
#259=ORIENTED_EDGE('',*,*,#258,.T.);
#260=CARTESIAN_POINT('',(-0.700000000000046,-1.205,0.585000000000002));
#261=VERTEX_POINT('',#260);
#262=CARTESIAN_POINT('',(-0.700000000000046,-1.205,0.455000000000001));
#263=DIRECTION('',(0.0,0.0,1.0));
#264=VECTOR('',#263,0.130000000000001);
#265=LINE('',#262,#264);
#266=EDGE_CURVE('',#252,#261,#265,.T.);
#267=ORIENTED_EDGE('',*,*,#266,.T.);
#268=CARTESIAN_POINT('',(-0.930000000000064,-1.205000000000001,0.354999999999905));
#269=VERTEX_POINT('',#268);
#270=CARTESIAN_POINT('',(-0.700000000000046,-1.205,0.354999999999992));
#271=DIRECTION('',(1.160015E-015,-1.0,-1.160015E-015));
#272=DIRECTION('',(-0.707106781186668,-1.640509E-015,0.707106781186427));
#273=AXIS2_PLACEMENT_3D('',#270,#271,#272);
#274=CIRCLE('',#273,0.23000000000001);
#275=EDGE_CURVE('',#261,#269,#274,.T.);
#276=ORIENTED_EDGE('',*,*,#275,.T.);
#277=CARTESIAN_POINT('',(-0.929999999999836,-1.205000000000001,0.25873986325423));
#278=VERTEX_POINT('',#277);
#279=CARTESIAN_POINT('',(-0.930000000000064,-1.205000000000001,0.354999999999905));
#280=DIRECTION('',(2.362075E-012,0.0,-1.0));
#281=VECTOR('',#280,0.096260136745675);
#282=LINE('',#279,#281);
#283=EDGE_CURVE('',#269,#278,#282,.T.);
#284=ORIENTED_EDGE('',*,*,#283,.T.);
#285=CARTESIAN_POINT('',(-1.029999999999859,-1.205000000000001,0.258739863254204));
#286=DIRECTION('',(-1.287028E-015,1.0,1.138666E-015));
#287=DIRECTION('',(0.748955720789008,1.718429E-015,-0.662620048215731));
#288=AXIS2_PLACEMENT_3D('',#285,#286,#287);
#289=CIRCLE('',#288,0.100000000000023);
#290=EDGE_CURVE('',#278,#194,#289,.T.);
#291=ORIENTED_EDGE('',*,*,#290,.T.);
#292=ORIENTED_EDGE('',*,*,#201,.T.);
#293=ORIENTED_EDGE('',*,*,#228,.T.);
#294=ORIENTED_EDGE('',*,*,#78,.T.);
#295=CARTESIAN_POINT('',(-1.029999999999802,-1.205000000000001,0.258739863254184));
#296=DIRECTION('',(1.287028E-015,-1.0,-1.138666E-015));
#297=DIRECTION('',(0.748955720789156,1.718429E-015,-0.662620048215563));
#298=AXIS2_PLACEMENT_3D('',#295,#296,#297);
#299=CIRCLE('',#298,0.229999999999988);
#300=EDGE_CURVE('',#73,#242,#299,.T.);
#301=ORIENTED_EDGE('',*,*,#300,.T.);
#302=EDGE_LOOP('',(#250,#259,#267,#276,#284,#291,#292,#293,#294,#301));
#303=FACE_OUTER_BOUND('',#302,.T.);
#304=ADVANCED_FACE('',(#303),#240,.T.);
#305=CARTESIAN_POINT('',(-0.800000000000067,-1.205000000000001,0.35499999999996));
#306=CARTESIAN_POINT('',(-0.79999999999984,-1.205000000000001,0.258739863254301));
#307=CARTESIAN_POINT('',(-0.800000000000068,-0.695000000000001,0.35499999999996));
#308=CARTESIAN_POINT('',(-0.799999999999841,-0.695000000000001,0.258739863254301));
#309=B_SPLINE_SURFACE_WITH_KNOTS('',1,1,((#305,#307),(#306,#308)),.UNSPECIFIED.,.F.,.F.,.U.,(2,2),(2,2),(0.0,0.096260136745659),(0.0,0.51),.UNSPECIFIED.);
#310=ORIENTED_EDGE('',*,*,#249,.F.);
#311=CARTESIAN_POINT('',(-0.799999999999841,-0.695000000000001,0.258739863254301));
#312=DIRECTION('',(0.0,-1.0,0.0));
#313=VECTOR('',#312,0.51);
#314=LINE('',#311,#313);
#315=EDGE_CURVE('',#111,#242,#314,.T.);
#316=ORIENTED_EDGE('',*,*,#315,.F.);
#317=ORIENTED_EDGE('',*,*,#183,.F.);
#318=CARTESIAN_POINT('',(-0.800000000000068,-0.695000000000001,0.35499999999996));
#319=DIRECTION('',(0.0,-1.0,0.0));
#320=VECTOR('',#319,0.51);
#321=LINE('',#318,#320);
#322=EDGE_CURVE('',#171,#244,#321,.T.);
#323=ORIENTED_EDGE('',*,*,#322,.T.);
#324=EDGE_LOOP('',(#310,#316,#317,#323));
#325=FACE_OUTER_BOUND('',#324,.T.);
#326=ADVANCED_FACE('',(#325),#309,.T.);
#327=CARTESIAN_POINT('',(-0.629289321881376,-1.205,0.284289321881334));
#328=CARTESIAN_POINT('',(-0.629289321881377,-0.695,0.284289321881334));
#329=CARTESIAN_POINT('',(-0.700000000000032,-1.205000000000001,0.213578643762666));
#330=CARTESIAN_POINT('',(-0.700000000000033,-0.695,0.213578643762666));
#331=CARTESIAN_POINT('',(-0.770710678118701,-1.205000000000001,0.284289321881322));
#332=CARTESIAN_POINT('',(-0.770710678118702,-0.695,0.284289321881322));
#333=CARTESIAN_POINT('',(-0.841421356237369,-1.205000000000001,0.354999999999978));
#334=CARTESIAN_POINT('',(-0.841421356237371,-0.695,0.354999999999978));
#335=CARTESIAN_POINT('',(-0.770710678118713,-1.205000000000001,0.425710678118647));
#336=CARTESIAN_POINT('',(-0.770710678118714,-0.695,0.425710678118647));
#337=CARTESIAN_POINT('',(-0.700000000000057,-1.205000000000001,0.496421356237316));
#338=CARTESIAN_POINT('',(-0.700000000000058,-0.695,0.496421356237316));
#339=CARTESIAN_POINT('',(-0.629289321881388,-1.205,0.425710678118659));
#340=CARTESIAN_POINT('',(-0.629289321881389,-0.695,0.425710678118659));
#341=CARTESIAN_POINT('',(-0.55857864376272,-1.205,0.355000000000003));
#342=CARTESIAN_POINT('',(-0.558578643762721,-0.695,0.355000000000003));
#343=CARTESIAN_POINT('',(-0.629289321881376,-1.205,0.284289321881334));
#344=CARTESIAN_POINT('',(-0.629289321881377,-0.695,0.284289321881334));
#352=(BOUNDED_SURFACE()B_SPLINE_SURFACE(1,2,((#327,#329,#331,#333,#335,#337,#339,#341,#343),(#328,#330,#332,#334,#336,#338,#340,#342,#344)),.UNSPECIFIED.,.F.,.T.,.U.)B_SPLINE_SURFACE_WITH_KNOTS((2,2),(3,2,2,2,3),(-5.099999999999449,1.776357E-015),(0.0,0.157079632679507,0.314159265359013,0.47123889803852,0.628318530718027),.UNSPECIFIED.)GEOMETRIC_REPRESENTATION_ITEM()RATIONAL_B_SPLINE_SURFACE(((1.0,0.707106781186548,1.0,0.707106781186548,1.0,0.707106781186548,1.0,0.707106781186548,1.0),(1.0,0.707106781186548,1.0,0.707106781186548,1.0,0.707106781186548,1.0,0.707106781186548,1.0)))REPRESENTATION_ITEM('')SURFACE());
#353=ORIENTED_EDGE('',*,*,#258,.F.);
#354=ORIENTED_EDGE('',*,*,#322,.F.);
#355=ORIENTED_EDGE('',*,*,#177,.F.);
#356=CARTESIAN_POINT('',(-0.700000000000046,-0.695,0.455000000000001));
#357=DIRECTION('',(0.0,-1.0,0.0));
#358=VECTOR('',#357,0.51);
#359=LINE('',#356,#358);
#360=EDGE_CURVE('',#163,#252,#359,.T.);
#361=ORIENTED_EDGE('',*,*,#360,.T.);
#362=EDGE_LOOP('',(#353,#354,#355,#361));
#363=FACE_OUTER_BOUND('',#362,.T.);
#364=ADVANCED_FACE('',(#363),#352,.T.);
#365=CARTESIAN_POINT('',(-0.700000000000044,-1.205,0.585000000000002));
#366=CARTESIAN_POINT('',(-0.700000000000044,-1.205,0.455000000000001));
#367=CARTESIAN_POINT('',(-0.700000000000046,-0.695,0.585000000000002));
#368=CARTESIAN_POINT('',(-0.700000000000046,-0.695,0.455000000000001));
#369=B_SPLINE_SURFACE_WITH_KNOTS('',1,1,((#365,#367),(#366,#368)),.UNSPECIFIED.,.F.,.F.,.U.,(2,2),(2,2),(0.0,0.130000000000001),(0.0,0.51),.UNSPECIFIED.);
#370=ORIENTED_EDGE('',*,*,#266,.F.);
#371=ORIENTED_EDGE('',*,*,#360,.F.);
#372=ORIENTED_EDGE('',*,*,#168,.F.);
#373=CARTESIAN_POINT('',(-0.700000000000046,-0.695,0.585000000000002));
#374=DIRECTION('',(0.0,-1.0,0.0));
#375=VECTOR('',#374,0.51);
#376=LINE('',#373,#375);
#377=EDGE_CURVE('',#154,#261,#376,.T.);
#378=ORIENTED_EDGE('',*,*,#377,.T.);
#379=EDGE_LOOP('',(#370,#371,#372,#378));
#380=FACE_OUTER_BOUND('',#379,.T.);
#381=ADVANCED_FACE('',(#380),#369,.T.);
#382=CARTESIAN_POINT('',(-0.537365440327105,-0.694999999999999,0.192365440327107));
#383=CARTESIAN_POINT('',(-0.537365440327104,-1.205,0.192365440327107));
#384=CARTESIAN_POINT('',(-0.69999999999999,-0.695,0.029730880654167));
#385=CARTESIAN_POINT('',(-0.699999999999989,-1.205000000000001,0.029730880654167));
#386=CARTESIAN_POINT('',(-0.862634559672931,-0.695,0.192365440327052));
#387=CARTESIAN_POINT('',(-0.862634559672929,-1.205000000000001,0.192365440327052));
#388=CARTESIAN_POINT('',(-1.025269119345871,-0.695,0.354999999999937));
#389=CARTESIAN_POINT('',(-1.02526911934587,-1.205000000000001,0.354999999999937));
#390=CARTESIAN_POINT('',(-0.862634559672986,-0.695,0.517634559672878));
#391=CARTESIAN_POINT('',(-0.862634559672985,-1.205000000000001,0.517634559672878));
#392=CARTESIAN_POINT('',(-0.700000000000101,-0.695,0.680269119345818));
#393=CARTESIAN_POINT('',(-0.7000000000001,-1.205,0.680269119345818));
#394=CARTESIAN_POINT('',(-0.537365440327161,-0.694999999999999,0.517634559672933));
#395=CARTESIAN_POINT('',(-0.537365440327159,-1.205,0.517634559672933));
#396=CARTESIAN_POINT('',(-0.37473088065422,-0.694999999999999,0.355000000000048));
#397=CARTESIAN_POINT('',(-0.374730880654219,-1.205,0.355000000000048));
#398=CARTESIAN_POINT('',(-0.537365440327105,-0.694999999999999,0.192365440327107));
#399=CARTESIAN_POINT('',(-0.537365440327104,-1.205,0.192365440327107));
#407=(BOUNDED_SURFACE()B_SPLINE_SURFACE(1,2,((#382,#384,#386,#388,#390,#392,#394,#396,#398),(#383,#385,#387,#389,#391,#393,#395,#397,#399)),.UNSPECIFIED.,.F.,.T.,.U.)B_SPLINE_SURFACE_WITH_KNOTS((2,2),(3,2,2,2,3),(-2.413528E-015,2.217391304347737),(0.0,0.361283155162841,0.722566310325682,1.083849465488523,1.445132620651365),.UNSPECIFIED.)GEOMETRIC_REPRESENTATION_ITEM()RATIONAL_B_SPLINE_SURFACE(((1.0,0.707106781186548,1.0,0.707106781186548,1.0,0.707106781186548,1.0,0.707106781186548,1.0),(1.0,0.707106781186548,1.0,0.707106781186548,1.0,0.707106781186548,1.0,0.707106781186548,1.0)))REPRESENTATION_ITEM('')SURFACE());
#408=ORIENTED_EDGE('',*,*,#275,.F.);
#409=ORIENTED_EDGE('',*,*,#377,.F.);
#410=ORIENTED_EDGE('',*,*,#160,.F.);
#411=CARTESIAN_POINT('',(-0.930000000000064,-0.695000000000001,0.354999999999905));
#412=DIRECTION('',(0.0,-1.0,0.0));
#413=VECTOR('',#412,0.51);
#414=LINE('',#411,#413);
#415=EDGE_CURVE('',#146,#269,#414,.T.);
#416=ORIENTED_EDGE('',*,*,#415,.T.);
#417=EDGE_LOOP('',(#408,#409,#410,#416));
#418=FACE_OUTER_BOUND('',#417,.T.);
#419=ADVANCED_FACE('',(#418),#407,.T.);
#420=CARTESIAN_POINT('',(-0.929999999999835,-1.205000000000001,0.25873986325423));
#421=CARTESIAN_POINT('',(-0.930000000000063,-1.205000000000001,0.354999999999905));
#422=CARTESIAN_POINT('',(-0.929999999999836,-0.695000000000001,0.25873986325423));
#423=CARTESIAN_POINT('',(-0.930000000000064,-0.695000000000001,0.354999999999905));
#424=B_SPLINE_SURFACE_WITH_KNOTS('',1,1,((#420,#422),(#421,#423)),.UNSPECIFIED.,.F.,.F.,.U.,(2,2),(2,2),(0.0,0.096260136745675),(0.0,0.51),.UNSPECIFIED.);
#425=ORIENTED_EDGE('',*,*,#283,.F.);
#426=ORIENTED_EDGE('',*,*,#415,.F.);
#427=ORIENTED_EDGE('',*,*,#151,.F.);
#428=CARTESIAN_POINT('',(-0.929999999999836,-0.695000000000001,0.25873986325423));
#429=DIRECTION('',(0.0,-1.0,0.0));
#430=VECTOR('',#429,0.51);
#431=LINE('',#428,#430);
#432=EDGE_CURVE('',#137,#278,#431,.T.);
#433=ORIENTED_EDGE('',*,*,#432,.T.);
#434=EDGE_LOOP('',(#425,#426,#427,#433));
#435=FACE_OUTER_BOUND('',#434,.T.);
#436=ADVANCED_FACE('',(#435),#424,.T.);
#437=CARTESIAN_POINT('',(-1.104895572078776,-1.205000000000001,0.325001868075792));
#438=CARTESIAN_POINT('',(-1.104895572078777,-0.695000000000001,0.325001868075792));
#439=CARTESIAN_POINT('',(-1.038633567257188,-1.205000000000001,0.39989744015471));
#440=CARTESIAN_POINT('',(-1.038633567257189,-0.695000000000001,0.39989744015471));
#441=CARTESIAN_POINT('',(-0.96373799517827,-1.205000000000001,0.333635435333121));
#442=CARTESIAN_POINT('',(-0.963737995178271,-0.695000000000001,0.333635435333121));
#443=CARTESIAN_POINT('',(-0.888842423099352,-1.205000000000001,0.267373430511533));
#444=CARTESIAN_POINT('',(-0.888842423099353,-0.695,0.267373430511533));
#445=CARTESIAN_POINT('',(-0.95510442792094,-1.205000000000001,0.192477858432615));
#446=CARTESIAN_POINT('',(-0.955104427920941,-0.695000000000001,0.192477858432615));
#447=CARTESIAN_POINT('',(-1.021366432742528,-1.205000000000001,0.117582286353697));
#448=CARTESIAN_POINT('',(-1.021366432742529,-0.695000000000001,0.117582286353697));
#449=CARTESIAN_POINT('',(-1.096262004821446,-1.205000000000001,0.183844291175286));
#450=CARTESIAN_POINT('',(-1.096262004821447,-0.695000000000001,0.183844291175286));
#451=CARTESIAN_POINT('',(-1.171157576900364,-1.205000000000001,0.250106295996874));
#452=CARTESIAN_POINT('',(-1.171157576900365,-0.695000000000001,0.250106295996874));
#453=CARTESIAN_POINT('',(-1.104895572078776,-1.205000000000001,0.325001868075792));
#454=CARTESIAN_POINT('',(-1.104895572078777,-0.695000000000001,0.325001868075792));
#462=(BOUNDED_SURFACE()B_SPLINE_SURFACE(1,2,((#437,#439,#441,#443,#445,#447,#449,#451,#453),(#438,#440,#442,#444,#446,#448,#450,#452,#454)),.UNSPECIFIED.,.F.,.T.,.U.)B_SPLINE_SURFACE_WITH_KNOTS((2,2),(3,2,2,2,3),(-5.099999999998827,4.440892E-015),(0.0,0.157079632679526,0.314159265359051,0.471238898038577,0.628318530718103),.UNSPECIFIED.)GEOMETRIC_REPRESENTATION_ITEM()RATIONAL_B_SPLINE_SURFACE(((1.0,0.707106781186548,1.0,0.707106781186548,1.0,0.707106781186548,1.0,0.707106781186548,1.0),(1.0,0.707106781186548,1.0,0.707106781186548,1.0,0.707106781186548,1.0,0.707106781186548,1.0)))REPRESENTATION_ITEM('')SURFACE());
#463=ORIENTED_EDGE('',*,*,#290,.F.);
#464=ORIENTED_EDGE('',*,*,#432,.F.);
#465=ORIENTED_EDGE('',*,*,#143,.F.);
#466=ORIENTED_EDGE('',*,*,#207,.T.);
#467=EDGE_LOOP('',(#463,#464,#465,#466));
#468=FACE_OUTER_BOUND('',#467,.T.);
#469=ADVANCED_FACE('',(#468),#462,.T.);
#470=CARTESIAN_POINT('',(-1.202259815781299,-0.695000000000001,0.411142474343756));
#471=CARTESIAN_POINT('',(-1.202259815781298,-1.205000000000001,0.411142474343756));
#472=CARTESIAN_POINT('',(-1.049857204691727,-0.695000000000001,0.583402290125253));
#473=CARTESIAN_POINT('',(-1.049857204691726,-1.205000000000001,0.583402290125253));
#474=CARTESIAN_POINT('',(-0.877597388910231,-0.695,0.430999679035681));
#475=CARTESIAN_POINT('',(-0.877597388910229,-1.205000000000001,0.430999679035681));
#476=CARTESIAN_POINT('',(-0.705337573128734,-0.695,0.278597067946109));
#477=CARTESIAN_POINT('',(-0.705337573128732,-1.205,0.278597067946109));
#478=CARTESIAN_POINT('',(-0.857740184218305,-0.695,0.106337252164612));
#479=CARTESIAN_POINT('',(-0.857740184218304,-1.205000000000001,0.106337252164612));
#480=CARTESIAN_POINT('',(-1.010142795307877,-0.695000000000001,-0.065922563616885));
#481=CARTESIAN_POINT('',(-1.010142795307876,-1.205000000000001,-0.065922563616885));
#482=CARTESIAN_POINT('',(-1.182402611089374,-0.695000000000001,0.086480047472687));
#483=CARTESIAN_POINT('',(-1.182402611089373,-1.205000000000001,0.086480047472687));
#484=CARTESIAN_POINT('',(-1.354662426870871,-0.695000000000001,0.238882658562259));
#485=CARTESIAN_POINT('',(-1.35466242687087,-1.205000000000002,0.238882658562259));
#486=CARTESIAN_POINT('',(-1.202259815781299,-0.695000000000001,0.411142474343756));
#487=CARTESIAN_POINT('',(-1.202259815781298,-1.205000000000001,0.411142474343756));
#495=(BOUNDED_SURFACE()B_SPLINE_SURFACE(1,2,((#470,#472,#474,#476,#478,#480,#482,#484,#486),(#471,#473,#475,#477,#479,#481,#483,#485,#487)),.UNSPECIFIED.,.F.,.T.,.U.)B_SPLINE_SURFACE_WITH_KNOTS((2,2),(3,2,2,2,3),(-2.413528E-015,2.217391304347941),(0.0,0.361283155162807,0.722566310325615,1.083849465488422,1.44513262065123),.UNSPECIFIED.)GEOMETRIC_REPRESENTATION_ITEM()RATIONAL_B_SPLINE_SURFACE(((1.0,0.707106781186548,1.0,0.707106781186548,1.0,0.707106781186548,1.0,0.707106781186548,1.0),(1.0,0.707106781186548,1.0,0.707106781186548,1.0,0.707106781186548,1.0,0.707106781186548,1.0)))REPRESENTATION_ITEM('')SURFACE());
#496=ORIENTED_EDGE('',*,*,#300,.F.);
#497=ORIENTED_EDGE('',*,*,#100,.F.);
#498=ORIENTED_EDGE('',*,*,#117,.F.);
#499=ORIENTED_EDGE('',*,*,#315,.T.);
#500=EDGE_LOOP('',(#496,#497,#498,#499));
#501=FACE_OUTER_BOUND('',#500,.T.);
#502=ADVANCED_FACE('',(#501),#495,.T.);
#503=CLOSED_SHELL('',(#104,#187,#218,#235,#304,#326,#364,#381,#419,#436,#469,#502));
#504=MANIFOLD_SOLID_BREP('FF',#503);
#505=COLOUR_RGB('9',0.75,0.75,0.75);
#506=SURFACE_STYLE_USAGE(.BOTH.,#507);
#507=SURFACE_SIDE_STYLE('NONE',(#508));
#508=SURFACE_STYLE_FILL_AREA(#509);
#509=FILL_AREA_STYLE('NONE',(#510));
#510=FILL_AREA_STYLE_COLOUR('NONE',#505);
#511=PRESENTATION_STYLE_ASSIGNMENT((#506));
#512=STYLED_ITEM('NONE',(#511),#504);
#513=MECHANICAL_DESIGN_GEOMETRIC_PRESENTATION_REPRESENTATION('NONE',(#512,#955,#1312,#1602),#28);
#514=PRESENTATION_LAYER_ASSIGNMENT('0','None',(#504,#954,#1311,#1594));
#515=CARTESIAN_POINT('',(-1.001970051016653,0.694999999999998,0.030454248376692));
#516=CARTESIAN_POINT('',(-1.253859942619989,0.694999999999998,-0.000473941359721));
#517=CARTESIAN_POINT('',(-1.001970051016655,1.204999999999999,0.030454248376692));
#518=CARTESIAN_POINT('',(-1.25385994261999,1.204999999999999,-0.000473941359721));
#519=B_SPLINE_SURFACE_WITH_KNOTS('',1,1,((#515,#517),(#516,#518)),.UNSPECIFIED.,.F.,.F.,.U.,(2,2),(2,2),(0.0,0.253781540724127),(0.0,0.510000000000001),.UNSPECIFIED.);
#520=CARTESIAN_POINT('',(-1.253859942619988,0.694999999999998,-0.000473941359721));
#521=VERTEX_POINT('',#520);
#522=CARTESIAN_POINT('',(-1.001970051016656,0.694999999999999,0.030454248376691));
#523=VERTEX_POINT('',#522);
#524=CARTESIAN_POINT('',(-1.253859942619988,0.694999999999998,-0.000473941359721));
#525=DIRECTION('',(0.992546151641314,2.187360E-015,0.121869343405213));
#526=VECTOR('',#525,0.253781540724123);
#527=LINE('',#524,#526);
#528=EDGE_CURVE('',#521,#523,#527,.T.);
#529=ORIENTED_EDGE('',*,*,#528,.F.);
#530=CARTESIAN_POINT('',(-1.253859942619989,1.204999999999999,-0.000473941359721));
#531=VERTEX_POINT('',#530);
#532=CARTESIAN_POINT('',(-1.253859942619989,1.204999999999999,-0.000473941359721));
#533=DIRECTION('',(0.0,-1.0,0.0));
#534=VECTOR('',#533,0.51);
#535=LINE('',#532,#534);
#536=EDGE_CURVE('',#531,#521,#535,.T.);
#537=ORIENTED_EDGE('',*,*,#536,.F.);
#538=CARTESIAN_POINT('',(-1.001970051016656,1.204999999999999,0.030454248376691));
#539=VERTEX_POINT('',#538);
#540=CARTESIAN_POINT('',(-1.001970051016656,1.204999999999999,0.030454248376691));
#541=DIRECTION('',(-0.992546151641314,-1.749888E-015,-0.121869343405213));
#542=VECTOR('',#541,0.253781540724125);
#543=LINE('',#540,#542);
#544=EDGE_CURVE('',#539,#531,#543,.T.);
#545=ORIENTED_EDGE('',*,*,#544,.F.);
#546=CARTESIAN_POINT('',(-1.001970051016656,1.204999999999999,0.030454248376691));
#547=DIRECTION('',(0.0,-1.0,0.0));
#548=VECTOR('',#547,0.51);
#549=LINE('',#546,#548);
#550=EDGE_CURVE('',#539,#523,#549,.T.);
#551=ORIENTED_EDGE('',*,*,#550,.T.);
#552=EDGE_LOOP('',(#529,#537,#545,#551));
#553=FACE_OUTER_BOUND('',#552,.T.);
#554=ADVANCED_FACE('',(#553),#519,.T.);
#555=CARTESIAN_POINT('',(-0.700000000000045,1.205,-0.000473941359721));
#556=CARTESIAN_POINT('',(-0.700000000000045,1.204999999999999,0.585000000000002));
#557=CARTESIAN_POINT('',(-1.269702957262758,1.204999999999999,-0.000473941359721));
#558=CARTESIAN_POINT('',(-1.269702957262758,1.204999999999998,0.585000000000002));
#559=B_SPLINE_SURFACE_WITH_KNOTS('',1,1,((#555,#557),(#556,#558)),.UNSPECIFIED.,.F.,.F.,.U.,(2,2),(2,2),(0.0,0.585473941359723),(0.0,0.569702957262713),.UNSPECIFIED.);
#560=CARTESIAN_POINT('',(-0.799999999999841,1.204999999999999,0.258739863254301));
#561=VERTEX_POINT('',#560);
#562=CARTESIAN_POINT('',(-1.029999999999802,1.204999999999999,0.258739863254184));
#563=DIRECTION('',(-1.287028E-015,1.0,1.138666E-015));
#564=DIRECTION('',(0.748955720789156,1.718429E-015,-0.662620048215563));
#565=AXIS2_PLACEMENT_3D('',#562,#563,#564);
#566=CIRCLE('',#565,0.229999999999988);
#567=EDGE_CURVE('',#561,#539,#566,.T.);
#568=ORIENTED_EDGE('',*,*,#567,.T.);
#569=ORIENTED_EDGE('',*,*,#544,.T.);
#570=CARTESIAN_POINT('',(-1.269702957262758,1.204999999999999,0.128557058353649));
#571=VERTEX_POINT('',#570);
#572=CARTESIAN_POINT('',(-1.253859942619989,1.204999999999999,-0.000473941359721));
#573=DIRECTION('',(-0.121869343405908,0.0,0.992546151641229));
#574=VECTOR('',#573,0.130000000000011);
#575=LINE('',#572,#574);
#576=EDGE_CURVE('',#531,#571,#575,.T.);
#577=ORIENTED_EDGE('',*,*,#576,.T.);
#578=CARTESIAN_POINT('',(-1.017813065659368,1.204999999999999,0.159485248090044));
#579=VERTEX_POINT('',#578);
#580=CARTESIAN_POINT('',(-1.269702957262758,1.204999999999999,0.128557058353649));
#581=DIRECTION('',(0.992546151641326,1.749888E-015,0.121869343405117));
#582=VECTOR('',#581,0.253781540724179);
#583=LINE('',#580,#582);
#584=EDGE_CURVE('',#571,#579,#583,.T.);
#585=ORIENTED_EDGE('',*,*,#584,.T.);
#586=CARTESIAN_POINT('',(-0.929999999999836,1.204999999999999,0.25873986325423));
#587=VERTEX_POINT('',#586);
#588=CARTESIAN_POINT('',(-1.029999999999859,1.204999999999999,0.258739863254204));
#589=DIRECTION('',(1.287028E-015,-1.0,-1.138666E-015));
#590=DIRECTION('',(0.748955720789008,1.718429E-015,-0.662620048215731));
#591=AXIS2_PLACEMENT_3D('',#588,#589,#590);
#592=CIRCLE('',#591,0.100000000000023);
#593=EDGE_CURVE('',#579,#587,#592,.T.);
#594=ORIENTED_EDGE('',*,*,#593,.T.);
#595=CARTESIAN_POINT('',(-0.930000000000064,1.204999999999999,0.354999999999905));
#596=VERTEX_POINT('',#595);
#597=CARTESIAN_POINT('',(-0.929999999999836,1.204999999999999,0.25873986325423));
#598=DIRECTION('',(-2.362075E-012,0.0,1.0));
#599=VECTOR('',#598,0.096260136745675);
#600=LINE('',#597,#599);
#601=EDGE_CURVE('',#587,#596,#600,.T.);
#602=ORIENTED_EDGE('',*,*,#601,.T.);
#603=CARTESIAN_POINT('',(-0.700000000000045,1.204999999999999,0.585000000000002));
#604=VERTEX_POINT('',#603);
#605=CARTESIAN_POINT('',(-0.700000000000045,1.204999999999999,0.354999999999992));
#606=DIRECTION('',(-1.160015E-015,1.0,1.160015E-015));
#607=DIRECTION('',(-0.707106781186668,-1.640509E-015,0.707106781186427));
#608=AXIS2_PLACEMENT_3D('',#605,#606,#607);
#609=CIRCLE('',#608,0.23000000000001);
#610=EDGE_CURVE('',#596,#604,#609,.T.);
#611=ORIENTED_EDGE('',*,*,#610,.T.);
#612=CARTESIAN_POINT('',(-0.700000000000045,1.204999999999999,0.455000000000001));
#613=VERTEX_POINT('',#612);
#614=CARTESIAN_POINT('',(-0.700000000000045,1.204999999999999,0.585000000000002));
#615=DIRECTION('',(0.0,0.0,-1.0));
#616=VECTOR('',#615,0.130000000000001);
#617=LINE('',#614,#616);
#618=EDGE_CURVE('',#604,#613,#617,.T.);
#619=ORIENTED_EDGE('',*,*,#618,.T.);
#620=CARTESIAN_POINT('',(-0.800000000000068,1.204999999999999,0.35499999999996));
#621=VERTEX_POINT('',#620);
#622=CARTESIAN_POINT('',(-0.700000000000045,1.204999999999999,0.354999999999991));
#623=DIRECTION('',(1.160015E-015,-1.0,-1.160015E-015));
#624=DIRECTION('',(-0.70710678118661,-1.640509E-015,0.707106781186485));
#625=AXIS2_PLACEMENT_3D('',#622,#623,#624);
#626=CIRCLE('',#625,0.100000000000011);
#627=EDGE_CURVE('',#613,#621,#626,.T.);
#628=ORIENTED_EDGE('',*,*,#627,.T.);
#629=CARTESIAN_POINT('',(-0.800000000000068,1.204999999999999,0.35499999999996));
#630=DIRECTION('',(2.362075E-012,0.0,-1.0));
#631=VECTOR('',#630,0.096260136745659);
#632=LINE('',#629,#631);
#633=EDGE_CURVE('',#621,#561,#632,.T.);
#634=ORIENTED_EDGE('',*,*,#633,.T.);
#635=EDGE_LOOP('',(#568,#569,#577,#585,#594,#602,#611,#619,#628,#634));
#636=FACE_OUTER_BOUND('',#635,.T.);
#637=ADVANCED_FACE('',(#636),#559,.F.);
#638=CARTESIAN_POINT('',(-1.269702957262758,0.694999999999998,0.128557058353649));
#639=CARTESIAN_POINT('',(-1.017813065659366,0.694999999999998,0.159485248090044));
#640=CARTESIAN_POINT('',(-1.269702957262759,1.204999999999999,0.128557058353649));
#641=CARTESIAN_POINT('',(-1.017813065659367,1.205,0.159485248090044));
#642=B_SPLINE_SURFACE_WITH_KNOTS('',1,1,((#638,#640),(#639,#641)),.UNSPECIFIED.,.F.,.F.,.U.,(2,2),(2,2),(0.0,0.253781540724181),(0.0,0.510000000000001),.UNSPECIFIED.);
#643=CARTESIAN_POINT('',(-1.017813065659368,0.694999999999999,0.159485248090044));
#644=VERTEX_POINT('',#643);
#645=CARTESIAN_POINT('',(-1.269702957262758,0.694999999999998,0.128557058353649));
#646=VERTEX_POINT('',#645);
#647=CARTESIAN_POINT('',(-1.017813065659368,0.694999999999999,0.159485248090044));
#648=DIRECTION('',(-0.992546151641326,-1.749888E-015,-0.121869343405117));
#649=VECTOR('',#648,0.253781540724179);
#650=LINE('',#647,#649);
#651=EDGE_CURVE('',#644,#646,#650,.T.);
#652=ORIENTED_EDGE('',*,*,#651,.F.);
#653=CARTESIAN_POINT('',(-1.017813065659368,1.204999999999999,0.159485248090044));
#654=DIRECTION('',(0.0,-1.0,0.0));
#655=VECTOR('',#654,0.51);
#656=LINE('',#653,#655);
#657=EDGE_CURVE('',#579,#644,#656,.T.);
#658=ORIENTED_EDGE('',*,*,#657,.F.);
#659=ORIENTED_EDGE('',*,*,#584,.F.);
#660=CARTESIAN_POINT('',(-1.269702957262757,0.694999999999998,0.128557058353649));
#661=DIRECTION('',(0.0,1.0,0.0));
#662=VECTOR('',#661,0.51);
#663=LINE('',#660,#662);
#664=EDGE_CURVE('',#571,#646,#663,.F.);
#665=ORIENTED_EDGE('',*,*,#664,.T.);
#666=EDGE_LOOP('',(#652,#658,#659,#665));
#667=FACE_OUTER_BOUND('',#666,.T.);
#668=ADVANCED_FACE('',(#667),#642,.T.);
#669=CARTESIAN_POINT('',(-1.253859942619988,0.694999999999998,-0.000473941359721));
#670=CARTESIAN_POINT('',(-1.269702957262757,0.694999999999998,0.128557058353649));
#671=CARTESIAN_POINT('',(-1.253859942619989,1.204999999999999,-0.000473941359721));
#672=CARTESIAN_POINT('',(-1.269702957262758,1.204999999999999,0.128557058353649));
#673=B_SPLINE_SURFACE_WITH_KNOTS('',1,1,((#669,#671),(#670,#672)),.UNSPECIFIED.,.F.,.F.,.U.,(2,2),(2,2),(0.0,0.130000000000011),(0.0,0.51),.UNSPECIFIED.);
#674=CARTESIAN_POINT('',(-1.269702957262758,0.694999999999998,0.128557058353649));
#675=DIRECTION('',(0.121869343405908,8.540177E-016,-0.992546151641229));
#676=VECTOR('',#675,0.13000000000001);
#677=LINE('',#674,#676);
#678=EDGE_CURVE('',#646,#521,#677,.T.);
#679=ORIENTED_EDGE('',*,*,#678,.F.);
#680=ORIENTED_EDGE('',*,*,#664,.F.);
#681=ORIENTED_EDGE('',*,*,#576,.F.);
#682=ORIENTED_EDGE('',*,*,#536,.T.);
#683=EDGE_LOOP('',(#679,#680,#681,#682));
#684=FACE_OUTER_BOUND('',#683,.T.);
#685=ADVANCED_FACE('',(#684),#673,.T.);
#686=CARTESIAN_POINT('',(-0.700000000000045,0.695,-0.000473941359721));
#687=CARTESIAN_POINT('',(-0.700000000000045,0.695,0.585000000000002));
#688=CARTESIAN_POINT('',(-1.269702957262758,0.694999999999998,-0.000473941359721));
#689=CARTESIAN_POINT('',(-1.269702957262758,0.694999999999998,0.585000000000002));
#690=B_SPLINE_SURFACE_WITH_KNOTS('',1,1,((#686,#688),(#687,#689)),.UNSPECIFIED.,.F.,.F.,.U.,(2,2),(2,2),(0.0,0.585473941359723),(0.0,0.569702957262713),.UNSPECIFIED.);
#691=CARTESIAN_POINT('',(-0.799999999999841,0.694999999999999,0.258739863254301));
#692=VERTEX_POINT('',#691);
#693=CARTESIAN_POINT('',(-0.800000000000068,0.694999999999999,0.35499999999996));
#694=VERTEX_POINT('',#693);
#695=CARTESIAN_POINT('',(-0.799999999999841,0.694999999999999,0.258739863254301));
#696=DIRECTION('',(-2.362075E-012,0.0,1.0));
#697=VECTOR('',#696,0.096260136745659);
#698=LINE('',#695,#697);
#699=EDGE_CURVE('',#692,#694,#698,.T.);
#700=ORIENTED_EDGE('',*,*,#699,.T.);
#701=CARTESIAN_POINT('',(-0.700000000000045,0.695,0.455000000000001));
#702=VERTEX_POINT('',#701);
#703=CARTESIAN_POINT('',(-0.700000000000045,0.695,0.354999999999991));
#704=DIRECTION('',(-1.160015E-015,1.0,1.160015E-015));
#705=DIRECTION('',(-0.70710678118661,-1.640509E-015,0.707106781186485));
#706=AXIS2_PLACEMENT_3D('',#703,#704,#705);
#707=CIRCLE('',#706,0.100000000000011);
#708=EDGE_CURVE('',#694,#702,#707,.T.);
#709=ORIENTED_EDGE('',*,*,#708,.T.);
#710=CARTESIAN_POINT('',(-0.700000000000045,0.694999999999999,0.585000000000002));
#711=VERTEX_POINT('',#710);
#712=CARTESIAN_POINT('',(-0.700000000000045,0.694999999999999,0.455000000000001));
#713=DIRECTION('',(0.0,0.0,1.0));
#714=VECTOR('',#713,0.130000000000001);
#715=LINE('',#712,#714);
#716=EDGE_CURVE('',#702,#711,#715,.T.);
#717=ORIENTED_EDGE('',*,*,#716,.T.);
#718=CARTESIAN_POINT('',(-0.930000000000064,0.694999999999999,0.354999999999905));
#719=VERTEX_POINT('',#718);
#720=CARTESIAN_POINT('',(-0.700000000000045,0.695,0.354999999999992));
#721=DIRECTION('',(1.160015E-015,-1.0,-1.160015E-015));
#722=DIRECTION('',(-0.707106781186668,-1.640509E-015,0.707106781186427));
#723=AXIS2_PLACEMENT_3D('',#720,#721,#722);
#724=CIRCLE('',#723,0.23000000000001);
#725=EDGE_CURVE('',#711,#719,#724,.T.);
#726=ORIENTED_EDGE('',*,*,#725,.T.);
#727=CARTESIAN_POINT('',(-0.929999999999836,0.694999999999999,0.25873986325423));
#728=VERTEX_POINT('',#727);
#729=CARTESIAN_POINT('',(-0.930000000000064,0.694999999999999,0.354999999999905));
#730=DIRECTION('',(2.362075E-012,0.0,-1.0));
#731=VECTOR('',#730,0.096260136745675);
#732=LINE('',#729,#731);
#733=EDGE_CURVE('',#719,#728,#732,.T.);
#734=ORIENTED_EDGE('',*,*,#733,.T.);
#735=CARTESIAN_POINT('',(-1.029999999999859,0.694999999999999,0.258739863254204));
#736=DIRECTION('',(-1.287028E-015,1.0,1.138666E-015));
#737=DIRECTION('',(0.748955720789008,1.718429E-015,-0.662620048215731));
#738=AXIS2_PLACEMENT_3D('',#735,#736,#737);
#739=CIRCLE('',#738,0.100000000000023);
#740=EDGE_CURVE('',#728,#644,#739,.T.);
#741=ORIENTED_EDGE('',*,*,#740,.T.);
#742=ORIENTED_EDGE('',*,*,#651,.T.);
#743=ORIENTED_EDGE('',*,*,#678,.T.);
#744=ORIENTED_EDGE('',*,*,#528,.T.);
#745=CARTESIAN_POINT('',(-1.029999999999802,0.694999999999999,0.258739863254184));
#746=DIRECTION('',(1.287028E-015,-1.0,-1.138666E-015));
#747=DIRECTION('',(0.748955720789156,1.718429E-015,-0.662620048215563));
#748=AXIS2_PLACEMENT_3D('',#745,#746,#747);
#749=CIRCLE('',#748,0.229999999999988);
#750=EDGE_CURVE('',#523,#692,#749,.T.);
#751=ORIENTED_EDGE('',*,*,#750,.T.);
#752=EDGE_LOOP('',(#700,#709,#717,#726,#734,#741,#742,#743,#744,#751));
#753=FACE_OUTER_BOUND('',#752,.T.);
#754=ADVANCED_FACE('',(#753),#690,.T.);
#755=CARTESIAN_POINT('',(-0.800000000000067,0.694999999999999,0.35499999999996));
#756=CARTESIAN_POINT('',(-0.79999999999984,0.694999999999999,0.258739863254301));
#757=CARTESIAN_POINT('',(-0.800000000000068,1.204999999999999,0.35499999999996));
#758=CARTESIAN_POINT('',(-0.799999999999841,1.204999999999999,0.258739863254301));
#759=B_SPLINE_SURFACE_WITH_KNOTS('',1,1,((#755,#757),(#756,#758)),.UNSPECIFIED.,.F.,.F.,.U.,(2,2),(2,2),(0.0,0.096260136745659),(0.0,0.51),.UNSPECIFIED.);
#760=ORIENTED_EDGE('',*,*,#699,.F.);
#761=CARTESIAN_POINT('',(-0.799999999999841,1.204999999999999,0.258739863254301));
#762=DIRECTION('',(0.0,-1.0,0.0));
#763=VECTOR('',#762,0.51);
#764=LINE('',#761,#763);
#765=EDGE_CURVE('',#561,#692,#764,.T.);
#766=ORIENTED_EDGE('',*,*,#765,.F.);
#767=ORIENTED_EDGE('',*,*,#633,.F.);
#768=CARTESIAN_POINT('',(-0.800000000000068,1.204999999999999,0.35499999999996));
#769=DIRECTION('',(0.0,-1.0,0.0));
#770=VECTOR('',#769,0.51);
#771=LINE('',#768,#770);
#772=EDGE_CURVE('',#621,#694,#771,.T.);
#773=ORIENTED_EDGE('',*,*,#772,.T.);
#774=EDGE_LOOP('',(#760,#766,#767,#773));
#775=FACE_OUTER_BOUND('',#774,.T.);
#776=ADVANCED_FACE('',(#775),#759,.T.);
#777=CARTESIAN_POINT('',(-0.629289321881376,0.694999999999999,0.284289321881334));
#778=CARTESIAN_POINT('',(-0.629289321881377,1.205,0.284289321881334));
#779=CARTESIAN_POINT('',(-0.700000000000032,0.694999999999999,0.213578643762666));
#780=CARTESIAN_POINT('',(-0.700000000000033,1.205,0.213578643762666));
#781=CARTESIAN_POINT('',(-0.7707106781187,0.694999999999999,0.284289321881322));
#782=CARTESIAN_POINT('',(-0.770710678118702,1.204999999999999,0.284289321881322));
#783=CARTESIAN_POINT('',(-0.841421356237369,0.694999999999999,0.354999999999978));
#784=CARTESIAN_POINT('',(-0.84142135623737,1.204999999999999,0.354999999999978));
#785=CARTESIAN_POINT('',(-0.770710678118713,0.694999999999999,0.425710678118647));
#786=CARTESIAN_POINT('',(-0.770710678118714,1.204999999999999,0.425710678118647));
#787=CARTESIAN_POINT('',(-0.700000000000057,0.694999999999999,0.496421356237316));
#788=CARTESIAN_POINT('',(-0.700000000000058,1.205,0.496421356237316));
#789=CARTESIAN_POINT('',(-0.629289321881388,0.694999999999999,0.425710678118659));
#790=CARTESIAN_POINT('',(-0.629289321881389,1.205,0.425710678118659));
#791=CARTESIAN_POINT('',(-0.558578643762719,0.695,0.355000000000003));
#792=CARTESIAN_POINT('',(-0.55857864376272,1.205,0.355000000000003));
#793=CARTESIAN_POINT('',(-0.629289321881376,0.694999999999999,0.284289321881334));
#794=CARTESIAN_POINT('',(-0.629289321881377,1.205,0.284289321881334));
#802=(BOUNDED_SURFACE()B_SPLINE_SURFACE(1,2,((#777,#779,#781,#783,#785,#787,#789,#791,#793),(#778,#780,#782,#784,#786,#788,#790,#792,#794)),.UNSPECIFIED.,.F.,.T.,.U.)B_SPLINE_SURFACE_WITH_KNOTS((2,2),(3,2,2,2,3),(-5.099999999999449,1.776357E-015),(0.0,0.157079632679507,0.314159265359013,0.47123889803852,0.628318530718027),.UNSPECIFIED.)GEOMETRIC_REPRESENTATION_ITEM()RATIONAL_B_SPLINE_SURFACE(((1.0,0.707106781186548,1.0,0.707106781186548,1.0,0.707106781186548,1.0,0.707106781186548,1.0),(1.0,0.707106781186548,1.0,0.707106781186548,1.0,0.707106781186548,1.0,0.707106781186548,1.0)))REPRESENTATION_ITEM('')SURFACE());
#803=ORIENTED_EDGE('',*,*,#708,.F.);
#804=ORIENTED_EDGE('',*,*,#772,.F.);
#805=ORIENTED_EDGE('',*,*,#627,.F.);
#806=CARTESIAN_POINT('',(-0.700000000000045,1.204999999999999,0.455000000000001));
#807=DIRECTION('',(0.0,-1.0,0.0));
#808=VECTOR('',#807,0.51);
#809=LINE('',#806,#808);
#810=EDGE_CURVE('',#613,#702,#809,.T.);
#811=ORIENTED_EDGE('',*,*,#810,.T.);
#812=EDGE_LOOP('',(#803,#804,#805,#811));
#813=FACE_OUTER_BOUND('',#812,.T.);
#814=ADVANCED_FACE('',(#813),#802,.T.);
#815=CARTESIAN_POINT('',(-0.700000000000044,0.694999999999999,0.585000000000002));
#816=CARTESIAN_POINT('',(-0.700000000000044,0.694999999999999,0.455000000000001));
#817=CARTESIAN_POINT('',(-0.700000000000045,1.204999999999999,0.585000000000002));
#818=CARTESIAN_POINT('',(-0.700000000000045,1.204999999999999,0.455000000000001));
#819=B_SPLINE_SURFACE_WITH_KNOTS('',1,1,((#815,#817),(#816,#818)),.UNSPECIFIED.,.F.,.F.,.U.,(2,2),(2,2),(0.0,0.130000000000001),(0.0,0.51),.UNSPECIFIED.);
#820=ORIENTED_EDGE('',*,*,#716,.F.);
#821=ORIENTED_EDGE('',*,*,#810,.F.);
#822=ORIENTED_EDGE('',*,*,#618,.F.);
#823=CARTESIAN_POINT('',(-0.700000000000045,1.204999999999999,0.585000000000002));
#824=DIRECTION('',(0.0,-1.0,0.0));
#825=VECTOR('',#824,0.51);
#826=LINE('',#823,#825);
#827=EDGE_CURVE('',#604,#711,#826,.T.);
#828=ORIENTED_EDGE('',*,*,#827,.T.);
#829=EDGE_LOOP('',(#820,#821,#822,#828));
#830=FACE_OUTER_BOUND('',#829,.T.);
#831=ADVANCED_FACE('',(#830),#819,.T.);
#832=CARTESIAN_POINT('',(-0.537365440327105,1.205,0.192365440327107));
#833=CARTESIAN_POINT('',(-0.537365440327104,0.694999999999999,0.192365440327107));
#834=CARTESIAN_POINT('',(-0.69999999999999,1.205,0.029730880654167));
#835=CARTESIAN_POINT('',(-0.699999999999989,0.694999999999999,0.029730880654167));
#836=CARTESIAN_POINT('',(-0.86263455967293,1.204999999999999,0.192365440327052));
#837=CARTESIAN_POINT('',(-0.862634559672929,0.694999999999999,0.192365440327052));
#838=CARTESIAN_POINT('',(-1.025269119345871,1.204999999999999,0.354999999999937));
#839=CARTESIAN_POINT('',(-1.025269119345869,0.694999999999998,0.354999999999937));
#840=CARTESIAN_POINT('',(-0.862634559672986,1.204999999999999,0.517634559672878));
#841=CARTESIAN_POINT('',(-0.862634559672985,0.694999999999999,0.517634559672878));
#842=CARTESIAN_POINT('',(-0.700000000000101,1.205,0.680269119345818));
#843=CARTESIAN_POINT('',(-0.7000000000001,0.694999999999999,0.680269119345818));
#844=CARTESIAN_POINT('',(-0.53736544032716,1.205,0.517634559672933));
#845=CARTESIAN_POINT('',(-0.537365440327159,0.694999999999999,0.517634559672933));
#846=CARTESIAN_POINT('',(-0.37473088065422,1.205000000000001,0.355000000000048));
#847=CARTESIAN_POINT('',(-0.374730880654219,0.695,0.355000000000048));
#848=CARTESIAN_POINT('',(-0.537365440327105,1.205,0.192365440327107));
#849=CARTESIAN_POINT('',(-0.537365440327104,0.694999999999999,0.192365440327107));
#857=(BOUNDED_SURFACE()B_SPLINE_SURFACE(1,2,((#832,#834,#836,#838,#840,#842,#844,#846,#848),(#833,#835,#837,#839,#841,#843,#845,#847,#849)),.UNSPECIFIED.,.F.,.T.,.U.)B_SPLINE_SURFACE_WITH_KNOTS((2,2),(3,2,2,2,3),(-1.930823E-015,2.217391304347737),(0.0,0.361283155162841,0.722566310325682,1.083849465488523,1.445132620651365),.UNSPECIFIED.)GEOMETRIC_REPRESENTATION_ITEM()RATIONAL_B_SPLINE_SURFACE(((1.0,0.707106781186548,1.0,0.707106781186548,1.0,0.707106781186548,1.0,0.707106781186548,1.0),(1.0,0.707106781186548,1.0,0.707106781186548,1.0,0.707106781186548,1.0,0.707106781186548,1.0)))REPRESENTATION_ITEM('')SURFACE());
#858=ORIENTED_EDGE('',*,*,#725,.F.);
#859=ORIENTED_EDGE('',*,*,#827,.F.);
#860=ORIENTED_EDGE('',*,*,#610,.F.);
#861=CARTESIAN_POINT('',(-0.930000000000064,1.204999999999999,0.354999999999905));
#862=DIRECTION('',(0.0,-1.0,0.0));
#863=VECTOR('',#862,0.51);
#864=LINE('',#861,#863);
#865=EDGE_CURVE('',#596,#719,#864,.T.);
#866=ORIENTED_EDGE('',*,*,#865,.T.);
#867=EDGE_LOOP('',(#858,#859,#860,#866));
#868=FACE_OUTER_BOUND('',#867,.T.);
#869=ADVANCED_FACE('',(#868),#857,.T.);
#870=CARTESIAN_POINT('',(-0.929999999999835,0.694999999999999,0.25873986325423));
#871=CARTESIAN_POINT('',(-0.930000000000062,0.694999999999999,0.354999999999905));
#872=CARTESIAN_POINT('',(-0.929999999999836,1.204999999999999,0.25873986325423));
#873=CARTESIAN_POINT('',(-0.930000000000064,1.204999999999999,0.354999999999905));
#874=B_SPLINE_SURFACE_WITH_KNOTS('',1,1,((#870,#872),(#871,#873)),.UNSPECIFIED.,.F.,.F.,.U.,(2,2),(2,2),(0.0,0.096260136745675),(0.0,0.51),.UNSPECIFIED.);
#875=ORIENTED_EDGE('',*,*,#733,.F.);
#876=ORIENTED_EDGE('',*,*,#865,.F.);
#877=ORIENTED_EDGE('',*,*,#601,.F.);
#878=CARTESIAN_POINT('',(-0.929999999999836,1.204999999999999,0.25873986325423));
#879=DIRECTION('',(0.0,-1.0,0.0));
#880=VECTOR('',#879,0.51);
#881=LINE('',#878,#880);
#882=EDGE_CURVE('',#587,#728,#881,.T.);
#883=ORIENTED_EDGE('',*,*,#882,.T.);
#884=EDGE_LOOP('',(#875,#876,#877,#883));
#885=FACE_OUTER_BOUND('',#884,.T.);
#886=ADVANCED_FACE('',(#885),#874,.T.);
#887=CARTESIAN_POINT('',(-1.104895572078776,0.694999999999998,0.325001868075792));
#888=CARTESIAN_POINT('',(-1.104895572078777,1.204999999999999,0.325001868075792));
#889=CARTESIAN_POINT('',(-1.038633567257187,0.694999999999998,0.39989744015471));
#890=CARTESIAN_POINT('',(-1.038633567257189,1.204999999999999,0.39989744015471));
#891=CARTESIAN_POINT('',(-0.963737995178269,0.694999999999999,0.333635435333121));
#892=CARTESIAN_POINT('',(-0.963737995178271,1.204999999999999,0.333635435333121));
#893=CARTESIAN_POINT('',(-0.888842423099351,0.694999999999999,0.267373430511533));
#894=CARTESIAN_POINT('',(-0.888842423099353,1.205,0.267373430511533));
#895=CARTESIAN_POINT('',(-0.95510442792094,0.694999999999999,0.192477858432615));
#896=CARTESIAN_POINT('',(-0.955104427920941,1.204999999999999,0.192477858432615));
#897=CARTESIAN_POINT('',(-1.021366432742528,0.694999999999998,0.117582286353697));
#898=CARTESIAN_POINT('',(-1.021366432742529,1.204999999999999,0.117582286353697));
#899=CARTESIAN_POINT('',(-1.096262004821446,0.694999999999998,0.183844291175286));
#900=CARTESIAN_POINT('',(-1.096262004821447,1.204999999999999,0.183844291175286));
#901=CARTESIAN_POINT('',(-1.171157576900364,0.694999999999998,0.250106295996874));
#902=CARTESIAN_POINT('',(-1.171157576900365,1.204999999999999,0.250106295996874));
#903=CARTESIAN_POINT('',(-1.104895572078776,0.694999999999998,0.325001868075792));
#904=CARTESIAN_POINT('',(-1.104895572078777,1.204999999999999,0.325001868075792));
#912=(BOUNDED_SURFACE()B_SPLINE_SURFACE(1,2,((#887,#889,#891,#893,#895,#897,#899,#901,#903),(#888,#890,#892,#894,#896,#898,#900,#902,#904)),.UNSPECIFIED.,.F.,.T.,.U.)B_SPLINE_SURFACE_WITH_KNOTS((2,2),(3,2,2,2,3),(-5.099999999998834,1.776357E-015),(0.0,0.157079632679526,0.314159265359051,0.471238898038577,0.628318530718103),.UNSPECIFIED.)GEOMETRIC_REPRESENTATION_ITEM()RATIONAL_B_SPLINE_SURFACE(((1.0,0.707106781186548,1.0,0.707106781186548,1.0,0.707106781186548,1.0,0.707106781186548,1.0),(1.0,0.707106781186548,1.0,0.707106781186548,1.0,0.707106781186548,1.0,0.707106781186548,1.0)))REPRESENTATION_ITEM('')SURFACE());
#913=ORIENTED_EDGE('',*,*,#740,.F.);
#914=ORIENTED_EDGE('',*,*,#882,.F.);
#915=ORIENTED_EDGE('',*,*,#593,.F.);
#916=ORIENTED_EDGE('',*,*,#657,.T.);
#917=EDGE_LOOP('',(#913,#914,#915,#916));
#918=FACE_OUTER_BOUND('',#917,.T.);
#919=ADVANCED_FACE('',(#918),#912,.T.);
#920=CARTESIAN_POINT('',(-1.202259815781299,1.204999999999999,0.411142474343756));
#921=CARTESIAN_POINT('',(-1.202259815781298,0.694999999999998,0.411142474343756));
#922=CARTESIAN_POINT('',(-1.049857204691727,1.204999999999999,0.583402290125253));
#923=CARTESIAN_POINT('',(-1.049857204691726,0.694999999999998,0.583402290125253));
#924=CARTESIAN_POINT('',(-0.87759738891023,1.204999999999999,0.430999679035681));
#925=CARTESIAN_POINT('',(-0.877597388910229,0.694999999999999,0.430999679035681));
#926=CARTESIAN_POINT('',(-0.705337573128733,1.205,0.278597067946109));
#927=CARTESIAN_POINT('',(-0.705337573128732,0.694999999999999,0.278597067946109));
#928=CARTESIAN_POINT('',(-0.857740184218305,1.205,0.106337252164612));
#929=CARTESIAN_POINT('',(-0.857740184218304,0.694999999999999,0.106337252164612));
#930=CARTESIAN_POINT('',(-1.010142795307877,1.204999999999999,-0.065922563616885));
#931=CARTESIAN_POINT('',(-1.010142795307875,0.694999999999998,-0.065922563616885));
#932=CARTESIAN_POINT('',(-1.182402611089374,1.204999999999999,0.086480047472687));
#933=CARTESIAN_POINT('',(-1.182402611089373,0.694999999999998,0.086480047472687));
#934=CARTESIAN_POINT('',(-1.354662426870871,1.204999999999999,0.238882658562259));
#935=CARTESIAN_POINT('',(-1.354662426870869,0.694999999999998,0.238882658562259));
#936=CARTESIAN_POINT('',(-1.202259815781299,1.204999999999999,0.411142474343756));
#937=CARTESIAN_POINT('',(-1.202259815781298,0.694999999999998,0.411142474343756));
#945=(BOUNDED_SURFACE()B_SPLINE_SURFACE(1,2,((#920,#922,#924,#926,#928,#930,#932,#934,#936),(#921,#923,#925,#927,#929,#931,#933,#935,#937)),.UNSPECIFIED.,.F.,.T.,.U.)B_SPLINE_SURFACE_WITH_KNOTS((2,2),(3,2,2,2,3),(-9.654113E-016,2.217391304347944),(0.0,0.361283155162807,0.722566310325615,1.083849465488422,1.44513262065123),.UNSPECIFIED.)GEOMETRIC_REPRESENTATION_ITEM()RATIONAL_B_SPLINE_SURFACE(((1.0,0.707106781186548,1.0,0.707106781186548,1.0,0.707106781186548,1.0,0.707106781186548,1.0),(1.0,0.707106781186548,1.0,0.707106781186548,1.0,0.707106781186548,1.0,0.707106781186548,1.0)))REPRESENTATION_ITEM('')SURFACE());
#946=ORIENTED_EDGE('',*,*,#750,.F.);
#947=ORIENTED_EDGE('',*,*,#550,.F.);
#948=ORIENTED_EDGE('',*,*,#567,.F.);
#949=ORIENTED_EDGE('',*,*,#765,.T.);
#950=EDGE_LOOP('',(#946,#947,#948,#949));
#951=FACE_OUTER_BOUND('',#950,.T.);
#952=ADVANCED_FACE('',(#951),#945,.T.);
#953=CLOSED_SHELL('',(#554,#637,#668,#685,#754,#776,#814,#831,#869,#886,#919,#952));
#954=MANIFOLD_SOLID_BREP('FE',#953);
#955=STYLED_ITEM('NONE',(#511),#954);
#956=CARTESIAN_POINT('',(1.017813065659368,0.255000000000001,0.159485248090044));
#957=DIRECTION('',(0.121869343405117,-1.492420E-017,0.992546151641326));
#958=DIRECTION('',(-0.992546151641326,1.215478E-016,0.121869343405117));
#959=AXIS2_PLACEMENT_3D('',#956,#957,#958);
#960=PLANE('',#959);
#961=CARTESIAN_POINT('',(1.017813065659368,-0.254999999999999,0.159485248090044));
#962=VERTEX_POINT('',#961);
#963=CARTESIAN_POINT('',(1.266254939741776,-0.254999999999999,0.128980421670948));
#964=VERTEX_POINT('',#963);
#965=CARTESIAN_POINT('',(1.017813065659368,-0.254999999999999,0.159485248090044));
#966=DIRECTION('',(0.992546151641326,0.0,-0.121869343405117));
#967=VECTOR('',#966,0.250307629193435);
#968=LINE('',#965,#967);
#969=EDGE_CURVE('',#962,#964,#968,.T.);
#970=ORIENTED_EDGE('',*,*,#969,.T.);
#971=CARTESIAN_POINT('',(1.266254939741776,0.255000000000001,0.128980421670948));
#972=VERTEX_POINT('',#971);
#973=CARTESIAN_POINT('',(1.266254939741776,0.255000000000001,0.128980421670948));
#974=DIRECTION('',(0.0,-1.0,0.0));
#975=VECTOR('',#974,0.51);
#976=LINE('',#973,#975);
#977=EDGE_CURVE('',#972,#964,#976,.T.);
#978=ORIENTED_EDGE('',*,*,#977,.F.);
#979=CARTESIAN_POINT('',(1.017813065659368,0.255000000000001,0.159485248090044));
#980=VERTEX_POINT('',#979);
#981=CARTESIAN_POINT('',(1.266254939741776,0.255000000000001,0.128980421670948));
#982=DIRECTION('',(-0.992546151641326,0.0,0.121869343405117));
#983=VECTOR('',#982,0.250307629193435);
#984=LINE('',#981,#983);
#985=EDGE_CURVE('',#972,#980,#984,.T.);
#986=ORIENTED_EDGE('',*,*,#985,.T.);
#987=CARTESIAN_POINT('',(1.017813065659368,0.255000000000001,0.159485248090044));
#988=DIRECTION('',(0.0,-1.0,0.0));
#989=VECTOR('',#988,0.51);
#990=LINE('',#987,#989);
#991=EDGE_CURVE('',#980,#962,#990,.T.);
#992=ORIENTED_EDGE('',*,*,#991,.T.);
#993=EDGE_LOOP('',(#970,#978,#986,#992));
#994=FACE_OUTER_BOUND('',#993,.T.);
#995=ADVANCED_FACE('',(#994),#960,.T.);
#996=CARTESIAN_POINT('',(0.939747415734132,0.255000000000001,0.254649440083198));
#997=DIRECTION('',(0.0,-1.0,0.0));
#998=DIRECTION('',(0.0,0.0,1.0));
#999=AXIS2_PLACEMENT_3D('',#996,#997,#998);
#1000=PLANE('',#999);
#1001=CARTESIAN_POINT('',(0.799999999999841,0.255000000000001,0.258739863254301));
#1002=VERTEX_POINT('',#1001);
#1003=CARTESIAN_POINT('',(1.001970051016656,0.255000000000001,0.030454248376691));
#1004=VERTEX_POINT('',#1003);
#1005=CARTESIAN_POINT('',(1.029999999999802,0.255000000000001,0.258739863254184));
#1006=DIRECTION('',(-1.788872E-016,-1.0,-1.582660E-016));
#1007=DIRECTION('',(-0.748955720789156,2.388488E-016,-0.662620048215563));
#1008=AXIS2_PLACEMENT_3D('',#1005,#1006,#1007);
#1009=CIRCLE('',#1008,0.229999999999988);
#1010=EDGE_CURVE('',#1002,#1004,#1009,.T.);
#1011=ORIENTED_EDGE('',*,*,#1010,.F.);
#1012=CARTESIAN_POINT('',(0.800000000000068,0.255000000000001,0.35499999999996));
#1013=VERTEX_POINT('',#1012);
#1014=CARTESIAN_POINT('',(0.800000000000068,0.255000000000001,0.35499999999996));
#1015=DIRECTION('',(-2.362075E-012,0.0,-1.0));
#1016=VECTOR('',#1015,0.096260136745659);
#1017=LINE('',#1014,#1016);
#1018=EDGE_CURVE('',#1013,#1002,#1017,.T.);
#1019=ORIENTED_EDGE('',*,*,#1018,.F.);
#1020=CARTESIAN_POINT('',(0.700000000000045,0.255000000000001,0.455000000000001));
#1021=VERTEX_POINT('',#1020);
#1022=CARTESIAN_POINT('',(0.700000000000045,0.255000000000001,0.354999999999991));
#1023=DIRECTION('',(1.722526E-016,1.0,1.722526E-016));
#1024=DIRECTION('',(0.70710678118661,-2.436020E-016,0.707106781186485));
#1025=AXIS2_PLACEMENT_3D('',#1022,#1023,#1024);
#1026=CIRCLE('',#1025,0.100000000000011);
#1027=EDGE_CURVE('',#1021,#1013,#1026,.T.);
#1028=ORIENTED_EDGE('',*,*,#1027,.F.);
#1029=CARTESIAN_POINT('',(0.700000000000045,0.255000000000001,0.585000000000002));
#1030=VERTEX_POINT('',#1029);
#1031=CARTESIAN_POINT('',(0.700000000000045,0.255000000000001,0.585000000000002));
#1032=DIRECTION('',(0.0,0.0,-1.0));
#1033=VECTOR('',#1032,0.130000000000001);
#1034=LINE('',#1031,#1033);
#1035=EDGE_CURVE('',#1030,#1021,#1034,.T.);
#1036=ORIENTED_EDGE('',*,*,#1035,.F.);
#1037=CARTESIAN_POINT('',(0.930000000000064,0.255000000000001,0.354999999999905));
#1038=VERTEX_POINT('',#1037);
#1039=CARTESIAN_POINT('',(0.700000000000045,0.255000000000001,0.354999999999992));
#1040=DIRECTION('',(-1.722526E-016,-1.0,-1.722526E-016));
#1041=DIRECTION('',(0.707106781186668,-2.436020E-016,0.707106781186427));
#1042=AXIS2_PLACEMENT_3D('',#1039,#1040,#1041);
#1043=CIRCLE('',#1042,0.23000000000001);
#1044=EDGE_CURVE('',#1038,#1030,#1043,.T.);
#1045=ORIENTED_EDGE('',*,*,#1044,.F.);
#1046=CARTESIAN_POINT('',(0.929999999999836,0.255000000000001,0.25873986325423));
#1047=VERTEX_POINT('',#1046);
#1048=CARTESIAN_POINT('',(0.929999999999836,0.255000000000001,0.25873986325423));
#1049=DIRECTION('',(2.362075E-012,0.0,1.0));
#1050=VECTOR('',#1049,0.096260136745675);
#1051=LINE('',#1048,#1050);
#1052=EDGE_CURVE('',#1047,#1038,#1051,.T.);
#1053=ORIENTED_EDGE('',*,*,#1052,.F.);
#1054=CARTESIAN_POINT('',(1.029999999999859,0.255000000000001,0.258739863254204));
#1055=DIRECTION('',(1.788872E-016,1.0,1.582660E-016));
#1056=DIRECTION('',(-0.748955720789008,2.388488E-016,-0.662620048215731));
#1057=AXIS2_PLACEMENT_3D('',#1054,#1055,#1056);
#1058=CIRCLE('',#1057,0.100000000000023);
#1059=EDGE_CURVE('',#980,#1047,#1058,.T.);
#1060=ORIENTED_EDGE('',*,*,#1059,.F.);
#1061=ORIENTED_EDGE('',*,*,#985,.F.);
#1062=CARTESIAN_POINT('',(1.250411925099006,0.255000000000001,-0.000050578042421));
#1063=VERTEX_POINT('',#1062);
#1064=CARTESIAN_POINT('',(1.250411925099006,0.255000000000001,-0.000050578042421));
#1065=DIRECTION('',(0.121869343405908,-4.270089E-016,0.992546151641229));
#1066=VECTOR('',#1065,0.13000000000001);
#1067=LINE('',#1064,#1066);
#1068=EDGE_CURVE('',#1063,#972,#1067,.T.);
#1069=ORIENTED_EDGE('',*,*,#1068,.F.);
#1070=CARTESIAN_POINT('',(1.001970051016656,0.255000000000001,0.030454248376691));
#1071=DIRECTION('',(0.992546151641314,0.0,-0.121869343405213));
#1072=VECTOR('',#1071,0.25030762919338);
#1073=LINE('',#1070,#1072);
#1074=EDGE_CURVE('',#1004,#1063,#1073,.T.);
#1075=ORIENTED_EDGE('',*,*,#1074,.F.);
#1076=EDGE_LOOP('',(#1011,#1019,#1028,#1036,#1045,#1053,#1060,#1061,#1069,#1075));
#1077=FACE_OUTER_BOUND('',#1076,.T.);
#1078=ADVANCED_FACE('',(#1077),#1000,.F.);
#1079=CARTESIAN_POINT('',(1.234156985357231,0.255000000000001,0.001945277596277));
#1080=DIRECTION('',(-0.121869343405213,1.492420E-017,-0.992546151641314));
#1081=DIRECTION('',(0.992546151641314,-1.215478E-016,-0.121869343405213));
#1082=AXIS2_PLACEMENT_3D('',#1079,#1080,#1081);
#1083=PLANE('',#1082);
#1084=CARTESIAN_POINT('',(1.250411925099006,-0.254999999999999,-0.000050578042421));
#1085=VERTEX_POINT('',#1084);
#1086=CARTESIAN_POINT('',(1.001970051016656,-0.254999999999999,0.030454248376691));
#1087=VERTEX_POINT('',#1086);
#1088=CARTESIAN_POINT('',(1.250411925099006,-0.254999999999999,-0.000050578042421));
#1089=DIRECTION('',(-0.992546151641314,0.0,0.121869343405213));
#1090=VECTOR('',#1089,0.25030762919338);
#1091=LINE('',#1088,#1090);
#1092=EDGE_CURVE('',#1085,#1087,#1091,.T.);
#1093=ORIENTED_EDGE('',*,*,#1092,.T.);
#1094=CARTESIAN_POINT('',(1.001970051016656,0.255000000000001,0.030454248376691));
#1095=DIRECTION('',(0.0,-1.0,0.0));
#1096=VECTOR('',#1095,0.51);
#1097=LINE('',#1094,#1096);
#1098=EDGE_CURVE('',#1004,#1087,#1097,.T.);
#1099=ORIENTED_EDGE('',*,*,#1098,.F.);
#1100=ORIENTED_EDGE('',*,*,#1074,.T.);
#1101=CARTESIAN_POINT('',(1.250411925099006,-0.254999999999999,-0.000050578042421));
#1102=DIRECTION('',(0.0,1.0,0.0));
#1103=VECTOR('',#1102,0.51);
#1104=LINE('',#1101,#1103);
#1105=EDGE_CURVE('',#1063,#1085,#1104,.F.);
#1106=ORIENTED_EDGE('',*,*,#1105,.T.);
#1107=EDGE_LOOP('',(#1093,#1099,#1100,#1106));
#1108=FACE_OUTER_BOUND('',#1107,.T.);
#1109=ADVANCED_FACE('',(#1108),#1083,.T.);
#1110=CARTESIAN_POINT('',(0.939747415734132,-0.254999999999999,0.254649440083198));
#1111=DIRECTION('',(0.0,-1.0,0.0));
#1112=DIRECTION('',(0.0,0.0,1.0));
#1113=AXIS2_PLACEMENT_3D('',#1110,#1111,#1112);
#1114=PLANE('',#1113);
#1115=CARTESIAN_POINT('',(0.799999999999841,-0.254999999999999,0.258739863254301));
#1116=VERTEX_POINT('',#1115);
#1117=CARTESIAN_POINT('',(0.800000000000068,-0.254999999999999,0.35499999999996));
#1118=VERTEX_POINT('',#1117);
#1119=CARTESIAN_POINT('',(0.799999999999841,-0.254999999999999,0.258739863254301));
#1120=DIRECTION('',(2.362075E-012,0.0,1.0));
#1121=VECTOR('',#1120,0.096260136745659);
#1122=LINE('',#1119,#1121);
#1123=EDGE_CURVE('',#1116,#1118,#1122,.T.);
#1124=ORIENTED_EDGE('',*,*,#1123,.F.);
#1125=CARTESIAN_POINT('',(1.029999999999802,-0.254999999999999,0.258739863254184));
#1126=DIRECTION('',(1.788872E-016,1.0,1.582660E-016));
#1127=DIRECTION('',(-0.748955720789156,2.388488E-016,-0.662620048215563));
#1128=AXIS2_PLACEMENT_3D('',#1125,#1126,#1127);
#1129=CIRCLE('',#1128,0.229999999999988);
#1130=EDGE_CURVE('',#1087,#1116,#1129,.T.);
#1131=ORIENTED_EDGE('',*,*,#1130,.F.);
#1132=ORIENTED_EDGE('',*,*,#1092,.F.);
#1133=CARTESIAN_POINT('',(1.266254939741776,-0.254999999999999,0.128980421670948));
#1134=DIRECTION('',(-0.121869343405908,4.270089E-016,-0.992546151641229));
#1135=VECTOR('',#1134,0.13000000000001);
#1136=LINE('',#1133,#1135);
#1137=EDGE_CURVE('',#964,#1085,#1136,.T.);
#1138=ORIENTED_EDGE('',*,*,#1137,.F.);
#1139=ORIENTED_EDGE('',*,*,#969,.F.);
#1140=CARTESIAN_POINT('',(0.929999999999836,-0.254999999999999,0.25873986325423));
#1141=VERTEX_POINT('',#1140);
#1142=CARTESIAN_POINT('',(1.029999999999859,-0.254999999999999,0.258739863254204));
#1143=DIRECTION('',(-1.788872E-016,-1.0,-1.582660E-016));
#1144=DIRECTION('',(-0.748955720789008,2.388488E-016,-0.662620048215731));
#1145=AXIS2_PLACEMENT_3D('',#1142,#1143,#1144);
#1146=CIRCLE('',#1145,0.100000000000023);
#1147=EDGE_CURVE('',#1141,#962,#1146,.T.);
#1148=ORIENTED_EDGE('',*,*,#1147,.F.);
#1149=CARTESIAN_POINT('',(0.930000000000064,-0.254999999999999,0.354999999999905));
#1150=VERTEX_POINT('',#1149);
#1151=CARTESIAN_POINT('',(0.930000000000064,-0.254999999999999,0.354999999999905));
#1152=DIRECTION('',(-2.362075E-012,0.0,-1.0));
#1153=VECTOR('',#1152,0.096260136745675);
#1154=LINE('',#1151,#1153);
#1155=EDGE_CURVE('',#1150,#1141,#1154,.T.);
#1156=ORIENTED_EDGE('',*,*,#1155,.F.);
#1157=CARTESIAN_POINT('',(0.700000000000045,-0.254999999999999,0.585000000000002));
#1158=VERTEX_POINT('',#1157);
#1159=CARTESIAN_POINT('',(0.700000000000045,-0.254999999999999,0.354999999999992));
#1160=DIRECTION('',(1.722526E-016,1.0,1.722526E-016));
#1161=DIRECTION('',(0.707106781186668,-2.436020E-016,0.707106781186427));
#1162=AXIS2_PLACEMENT_3D('',#1159,#1160,#1161);
#1163=CIRCLE('',#1162,0.23000000000001);
#1164=EDGE_CURVE('',#1158,#1150,#1163,.T.);
#1165=ORIENTED_EDGE('',*,*,#1164,.F.);
#1166=CARTESIAN_POINT('',(0.700000000000045,-0.254999999999999,0.455000000000001));
#1167=VERTEX_POINT('',#1166);
#1168=CARTESIAN_POINT('',(0.700000000000045,-0.254999999999999,0.455000000000001));
#1169=DIRECTION('',(0.0,0.0,1.0));
#1170=VECTOR('',#1169,0.130000000000001);
#1171=LINE('',#1168,#1170);
#1172=EDGE_CURVE('',#1167,#1158,#1171,.T.);
#1173=ORIENTED_EDGE('',*,*,#1172,.F.);
#1174=CARTESIAN_POINT('',(0.700000000000045,-0.254999999999999,0.354999999999991));
#1175=DIRECTION('',(-1.722526E-016,-1.0,-1.722526E-016));
#1176=DIRECTION('',(0.70710678118661,-2.436020E-016,0.707106781186485));
#1177=AXIS2_PLACEMENT_3D('',#1174,#1175,#1176);
#1178=CIRCLE('',#1177,0.100000000000011);
#1179=EDGE_CURVE('',#1118,#1167,#1178,.T.);
#1180=ORIENTED_EDGE('',*,*,#1179,.F.);
#1181=EDGE_LOOP('',(#1124,#1131,#1132,#1138,#1139,#1148,#1156,#1165,#1173,#1180));
#1182=FACE_OUTER_BOUND('',#1181,.T.);
#1183=ADVANCED_FACE('',(#1182),#1114,.T.);
#1184=CARTESIAN_POINT('',(0.799999999999841,0.255000000000001,0.258739863254301));
#1185=DIRECTION('',(-1.0,1.224606E-016,2.362075E-012));
#1186=DIRECTION('',(-2.362075E-012,2.892612E-028,-1.0));
#1187=AXIS2_PLACEMENT_3D('',#1184,#1185,#1186);
#1188=PLANE('',#1187);
#1189=ORIENTED_EDGE('',*,*,#1123,.T.);
#1190=CARTESIAN_POINT('',(0.800000000000068,0.255000000000001,0.35499999999996));
#1191=DIRECTION('',(0.0,-1.0,0.0));
#1192=VECTOR('',#1191,0.51);
#1193=LINE('',#1190,#1192);
#1194=EDGE_CURVE('',#1013,#1118,#1193,.T.);
#1195=ORIENTED_EDGE('',*,*,#1194,.F.);
#1196=ORIENTED_EDGE('',*,*,#1018,.T.);
#1197=CARTESIAN_POINT('',(0.799999999999841,0.255000000000001,0.258739863254301));
#1198=DIRECTION('',(0.0,-1.0,0.0));
#1199=VECTOR('',#1198,0.51);
#1200=LINE('',#1197,#1199);
#1201=EDGE_CURVE('',#1002,#1116,#1200,.T.);
#1202=ORIENTED_EDGE('',*,*,#1201,.T.);
#1203=EDGE_LOOP('',(#1189,#1195,#1196,#1202));
#1204=FACE_OUTER_BOUND('',#1203,.T.);
#1205=ADVANCED_FACE('',(#1204),#1188,.T.);
#1206=CARTESIAN_POINT('',(0.700000000000045,0.255000000000001,0.354999999999991));
#1207=DIRECTION('',(-1.224606E-016,-1.0,0.0));
#1208=DIRECTION('',(0.70710678118661,-8.659275E-017,0.707106781186485));
#1209=AXIS2_PLACEMENT_3D('',#1206,#1207,#1208);
#1210=CYLINDRICAL_SURFACE('',#1209,0.100000000000011);
#1211=ORIENTED_EDGE('',*,*,#1179,.T.);
#1212=CARTESIAN_POINT('',(0.700000000000045,0.255000000000001,0.455000000000001));
#1213=DIRECTION('',(0.0,-1.0,0.0));
#1214=VECTOR('',#1213,0.51);
#1215=LINE('',#1212,#1214);
#1216=EDGE_CURVE('',#1021,#1167,#1215,.T.);
#1217=ORIENTED_EDGE('',*,*,#1216,.F.);
#1218=ORIENTED_EDGE('',*,*,#1027,.T.);
#1219=ORIENTED_EDGE('',*,*,#1194,.T.);
#1220=EDGE_LOOP('',(#1211,#1217,#1218,#1219));
#1221=FACE_OUTER_BOUND('',#1220,.T.);
#1222=ADVANCED_FACE('',(#1221),#1210,.F.);
#1223=CARTESIAN_POINT('',(0.700000000000045,0.255000000000001,0.455000000000001));
#1224=DIRECTION('',(-1.0,0.0,0.0));
#1225=DIRECTION('',(0.0,0.0,-1.0));
#1226=AXIS2_PLACEMENT_3D('',#1223,#1224,#1225);
#1227=PLANE('',#1226);
#1228=ORIENTED_EDGE('',*,*,#1172,.T.);
#1229=CARTESIAN_POINT('',(0.700000000000045,0.255000000000001,0.585000000000002));
#1230=DIRECTION('',(0.0,-1.0,0.0));
#1231=VECTOR('',#1230,0.51);
#1232=LINE('',#1229,#1231);
#1233=EDGE_CURVE('',#1030,#1158,#1232,.T.);
#1234=ORIENTED_EDGE('',*,*,#1233,.F.);
#1235=ORIENTED_EDGE('',*,*,#1035,.T.);
#1236=ORIENTED_EDGE('',*,*,#1216,.T.);
#1237=EDGE_LOOP('',(#1228,#1234,#1235,#1236));
#1238=FACE_OUTER_BOUND('',#1237,.T.);
#1239=ADVANCED_FACE('',(#1238),#1227,.T.);
#1240=CARTESIAN_POINT('',(0.700000000000045,0.255000000000001,0.354999999999992));
#1241=DIRECTION('',(-1.224606E-016,-1.0,0.0));
#1242=DIRECTION('',(0.707106781186668,-8.659275E-017,0.707106781186427));
#1243=AXIS2_PLACEMENT_3D('',#1240,#1241,#1242);
#1244=CYLINDRICAL_SURFACE('',#1243,0.23000000000001);
#1245=ORIENTED_EDGE('',*,*,#1164,.T.);
#1246=CARTESIAN_POINT('',(0.930000000000064,0.255000000000001,0.354999999999905));
#1247=DIRECTION('',(0.0,-1.0,0.0));
#1248=VECTOR('',#1247,0.51);
#1249=LINE('',#1246,#1248);
#1250=EDGE_CURVE('',#1038,#1150,#1249,.T.);
#1251=ORIENTED_EDGE('',*,*,#1250,.F.);
#1252=ORIENTED_EDGE('',*,*,#1044,.T.);
#1253=ORIENTED_EDGE('',*,*,#1233,.T.);
#1254=EDGE_LOOP('',(#1245,#1251,#1252,#1253));
#1255=FACE_OUTER_BOUND('',#1254,.T.);
#1256=ADVANCED_FACE('',(#1255),#1244,.T.);
#1257=CARTESIAN_POINT('',(0.930000000000064,0.255000000000001,0.354999999999905));
#1258=DIRECTION('',(1.0,-1.224606E-016,-2.362075E-012));
#1259=DIRECTION('',(2.362075E-012,-2.892612E-028,1.0));
#1260=AXIS2_PLACEMENT_3D('',#1257,#1258,#1259);
#1261=PLANE('',#1260);
#1262=ORIENTED_EDGE('',*,*,#1155,.T.);
#1263=CARTESIAN_POINT('',(0.929999999999836,0.255000000000001,0.25873986325423));
#1264=DIRECTION('',(0.0,-1.0,0.0));
#1265=VECTOR('',#1264,0.51);
#1266=LINE('',#1263,#1265);
#1267=EDGE_CURVE('',#1047,#1141,#1266,.T.);
#1268=ORIENTED_EDGE('',*,*,#1267,.F.);
#1269=ORIENTED_EDGE('',*,*,#1052,.T.);
#1270=ORIENTED_EDGE('',*,*,#1250,.T.);
#1271=EDGE_LOOP('',(#1262,#1268,#1269,#1270));
#1272=FACE_OUTER_BOUND('',#1271,.T.);
#1273=ADVANCED_FACE('',(#1272),#1261,.T.);
#1274=CARTESIAN_POINT('',(1.029999999999859,0.255000000000001,0.258739863254204));
#1275=DIRECTION('',(-1.224606E-016,-1.0,0.0));
#1276=DIRECTION('',(-0.748955720789008,9.171759E-017,-0.662620048215731));
#1277=AXIS2_PLACEMENT_3D('',#1274,#1275,#1276);
#1278=CYLINDRICAL_SURFACE('',#1277,0.100000000000023);
#1279=ORIENTED_EDGE('',*,*,#1147,.T.);
#1280=ORIENTED_EDGE('',*,*,#991,.F.);
#1281=ORIENTED_EDGE('',*,*,#1059,.T.);
#1282=ORIENTED_EDGE('',*,*,#1267,.T.);
#1283=EDGE_LOOP('',(#1279,#1280,#1281,#1282));
#1284=FACE_OUTER_BOUND('',#1283,.T.);
#1285=ADVANCED_FACE('',(#1284),#1278,.F.);
#1286=CARTESIAN_POINT('',(1.029999999999802,0.255000000000001,0.258739863254184));
#1287=DIRECTION('',(-1.224606E-016,-1.0,0.0));
#1288=DIRECTION('',(-0.748955720789156,9.171759E-017,-0.662620048215563));
#1289=AXIS2_PLACEMENT_3D('',#1286,#1287,#1288);
#1290=CYLINDRICAL_SURFACE('',#1289,0.229999999999988);
#1291=ORIENTED_EDGE('',*,*,#1130,.T.);
#1292=ORIENTED_EDGE('',*,*,#1201,.F.);
#1293=ORIENTED_EDGE('',*,*,#1010,.T.);
#1294=ORIENTED_EDGE('',*,*,#1098,.T.);
#1295=EDGE_LOOP('',(#1291,#1292,#1293,#1294));
#1296=FACE_OUTER_BOUND('',#1295,.T.);
#1297=ADVANCED_FACE('',(#1296),#1290,.T.);
#1298=CARTESIAN_POINT('',(1.2665,0.255000000000001,0.130976277309645));
#1299=DIRECTION('',(0.992546151641229,-1.215478E-016,-0.121869343405908));
#1300=DIRECTION('',(0.121869343405908,-1.492420E-017,0.992546151641229));
#1301=AXIS2_PLACEMENT_3D('',#1298,#1299,#1300);
#1302=PLANE('',#1301);
#1303=ORIENTED_EDGE('',*,*,#1137,.T.);
#1304=ORIENTED_EDGE('',*,*,#1105,.F.);
#1305=ORIENTED_EDGE('',*,*,#1068,.T.);
#1306=ORIENTED_EDGE('',*,*,#977,.T.);
#1307=EDGE_LOOP('',(#1303,#1304,#1305,#1306));
#1308=FACE_OUTER_BOUND('',#1307,.T.);
#1309=ADVANCED_FACE('',(#1308),#1302,.T.);
#1310=CLOSED_SHELL('',(#995,#1078,#1109,#1183,#1205,#1222,#1239,#1256,#1273,#1285,#1297,#1309));
#1311=MANIFOLD_SOLID_BREP('F7',#1310);
#1312=STYLED_ITEM('NONE',(#511),#1311);
#1313=CARTESIAN_POINT('',(-0.700000000000045,1.500000000000001,0.585000000000002));
#1314=DIRECTION('',(-0.986715772637724,1.208338E-016,0.162456098771143));
#1315=DIRECTION('',(-0.162456098771143,1.989448E-017,-0.986715772637724));
#1316=AXIS2_PLACEMENT_3D('',#1313,#1314,#1315);
#1317=PLANE('',#1316);
#1318=CARTESIAN_POINT('',(-0.700000000000046,-1.549999999999999,0.585000000000002));
#1319=VERTEX_POINT('',#1318);
#1320=CARTESIAN_POINT('',(-0.60697655966289,-1.549999999999999,1.150000000000002));
#1321=VERTEX_POINT('',#1320);
#1322=CARTESIAN_POINT('',(-0.700000000000046,-1.549999999999999,0.585000000000002));
#1323=DIRECTION('',(0.162456098771143,-3.877786E-016,0.986715772637724));
#1324=VECTOR('',#1323,0.572606636751759);
#1325=LINE('',#1322,#1324);
#1326=EDGE_CURVE('',#1319,#1321,#1325,.T.);
#1327=ORIENTED_EDGE('',*,*,#1326,.T.);
#1328=CARTESIAN_POINT('',(-0.60697655966289,1.550000000000001,1.150000000000002));
#1329=VERTEX_POINT('',#1328);
#1330=CARTESIAN_POINT('',(-0.60697655966289,1.550000000000001,1.150000000000002));
#1331=DIRECTION('',(0.0,-1.0,0.0));
#1332=VECTOR('',#1331,3.1);
#1333=LINE('',#1330,#1332);
#1334=EDGE_CURVE('',#1329,#1321,#1333,.T.);
#1335=ORIENTED_EDGE('',*,*,#1334,.F.);
#1336=CARTESIAN_POINT('',(-0.700000000000045,1.550000000000001,0.585000000000002));
#1337=VERTEX_POINT('',#1336);
#1338=CARTESIAN_POINT('',(-0.60697655966289,1.550000000000001,1.150000000000002));
#1339=DIRECTION('',(-0.162456098771143,3.877786E-016,-0.986715772637724));
#1340=VECTOR('',#1339,0.572606636751759);
#1341=LINE('',#1338,#1340);
#1342=EDGE_CURVE('',#1329,#1337,#1341,.T.);
#1343=ORIENTED_EDGE('',*,*,#1342,.T.);
#1344=CARTESIAN_POINT('',(-0.700000000000045,1.550000000000001,0.585000000000002));
#1345=DIRECTION('',(0.0,-1.0,0.0));
#1346=VECTOR('',#1345,3.1);
#1347=LINE('',#1344,#1346);
#1348=EDGE_CURVE('',#1337,#1319,#1347,.T.);
#1349=ORIENTED_EDGE('',*,*,#1348,.T.);
#1350=EDGE_LOOP('',(#1327,#1335,#1343,#1349));
#1351=FACE_OUTER_BOUND('',#1350,.T.);
#1352=ADVANCED_FACE('',(#1351),#1317,.T.);
#1353=CARTESIAN_POINT('',(1.138710E-013,1.550000000000001,0.608057452974479));
#1354=DIRECTION('',(0.0,-1.0,0.0));
#1355=DIRECTION('',(0.0,0.0,1.0));
#1356=AXIS2_PLACEMENT_3D('',#1353,#1354,#1355);
#1357=PLANE('',#1356);
#1358=CARTESIAN_POINT('',(-0.700000000000045,1.550000000000001,0.455000000000001));
#1359=VERTEX_POINT('',#1358);
#1360=CARTESIAN_POINT('',(-0.647816561616366,1.550000000000001,0.130000000000003));
#1361=VERTEX_POINT('',#1360);
#1362=CARTESIAN_POINT('',(-0.700000000000045,1.550000000000001,0.455000000000001));
#1363=DIRECTION('',(0.158533854534227,0.0,-0.987353542033714));
#1364=VECTOR('',#1363,0.329162742790769);
#1365=LINE('',#1362,#1364);
#1366=EDGE_CURVE('',#1359,#1361,#1365,.T.);
#1367=ORIENTED_EDGE('',*,*,#1366,.F.);
#1368=CARTESIAN_POINT('',(-0.700000000000045,1.550000000000001,0.585000000000002));
#1369=DIRECTION('',(0.0,0.0,-1.0));
#1370=VECTOR('',#1369,0.130000000000001);
#1371=LINE('',#1368,#1370);
#1372=EDGE_CURVE('',#1337,#1359,#1371,.T.);
#1373=ORIENTED_EDGE('',*,*,#1372,.F.);
#1374=ORIENTED_EDGE('',*,*,#1342,.F.);
#1375=CARTESIAN_POINT('',(0.60697655966289,1.550000000000001,1.150000000000002));
#1376=VERTEX_POINT('',#1375);
#1377=CARTESIAN_POINT('',(0.60697655966289,1.550000000000001,1.150000000000002));
#1378=DIRECTION('',(-1.0,0.0,0.0));
#1379=VECTOR('',#1378,1.21395311932578);
#1380=LINE('',#1377,#1379);
#1381=EDGE_CURVE('',#1376,#1329,#1380,.T.);
#1382=ORIENTED_EDGE('',*,*,#1381,.F.);
#1383=CARTESIAN_POINT('',(0.700000000000046,1.550000000000001,0.585000000000002));
#1384=VERTEX_POINT('',#1383);
#1385=CARTESIAN_POINT('',(0.700000000000046,1.550000000000001,0.585000000000002));
#1386=DIRECTION('',(-0.162456098771143,-3.877786E-016,0.986715772637724));
#1387=VECTOR('',#1386,0.572606636751759);
#1388=LINE('',#1385,#1387);
#1389=EDGE_CURVE('',#1384,#1376,#1388,.T.);
#1390=ORIENTED_EDGE('',*,*,#1389,.F.);
#1391=CARTESIAN_POINT('',(0.700000000000046,1.550000000000001,0.455000000000001));
#1392=VERTEX_POINT('',#1391);
#1393=CARTESIAN_POINT('',(0.700000000000046,1.550000000000001,0.455000000000001));
#1394=DIRECTION('',(0.0,0.0,1.0));
#1395=VECTOR('',#1394,0.130000000000001);
#1396=LINE('',#1393,#1395);
#1397=EDGE_CURVE('',#1392,#1384,#1396,.T.);
#1398=ORIENTED_EDGE('',*,*,#1397,.F.);
#1399=CARTESIAN_POINT('',(0.647816561616367,1.550000000000001,0.130000000000003));
#1400=VERTEX_POINT('',#1399);
#1401=CARTESIAN_POINT('',(0.647816561616367,1.550000000000001,0.130000000000003));
#1402=DIRECTION('',(0.158533854534227,0.0,0.987353542033714));
#1403=VECTOR('',#1402,0.329162742790769);
#1404=LINE('',#1401,#1403);
#1405=EDGE_CURVE('',#1400,#1392,#1404,.T.);
#1406=ORIENTED_EDGE('',*,*,#1405,.F.);
#1407=CARTESIAN_POINT('',(-0.647816561616366,1.550000000000001,0.130000000000003));
#1408=DIRECTION('',(1.0,0.0,0.0));
#1409=VECTOR('',#1408,1.295633123232733);
#1410=LINE('',#1407,#1409);
#1411=EDGE_CURVE('',#1361,#1400,#1410,.T.);
#1412=ORIENTED_EDGE('',*,*,#1411,.F.);
#1413=EDGE_LOOP('',(#1367,#1373,#1374,#1382,#1390,#1398,#1406,#1412));
#1414=FACE_OUTER_BOUND('',#1413,.T.);
#1415=ADVANCED_FACE('',(#1414),#1357,.F.);
#1416=CARTESIAN_POINT('',(0.615208722524585,1.500000000000001,1.100000000000002));
#1417=DIRECTION('',(0.986715772637724,-1.208338E-016,0.162456098771143));
#1418=DIRECTION('',(-0.162456098771143,1.989448E-017,0.986715772637724));
#1419=AXIS2_PLACEMENT_3D('',#1416,#1417,#1418);
#1420=PLANE('',#1419);
#1421=CARTESIAN_POINT('',(0.60697655966289,-1.549999999999999,1.150000000000002));
#1422=VERTEX_POINT('',#1421);
#1423=CARTESIAN_POINT('',(0.700000000000045,-1.549999999999999,0.585000000000002));
#1424=VERTEX_POINT('',#1423);
#1425=CARTESIAN_POINT('',(0.60697655966289,-1.549999999999999,1.150000000000002));
#1426=DIRECTION('',(0.162456098771143,3.877786E-016,-0.986715772637724));
#1427=VECTOR('',#1426,0.572606636751759);
#1428=LINE('',#1425,#1427);
#1429=EDGE_CURVE('',#1422,#1424,#1428,.T.);
#1430=ORIENTED_EDGE('',*,*,#1429,.T.);
#1431=CARTESIAN_POINT('',(0.700000000000046,1.550000000000001,0.585000000000002));
#1432=DIRECTION('',(0.0,-1.0,0.0));
#1433=VECTOR('',#1432,3.1);
#1434=LINE('',#1431,#1433);
#1435=EDGE_CURVE('',#1384,#1424,#1434,.T.);
#1436=ORIENTED_EDGE('',*,*,#1435,.F.);
#1437=ORIENTED_EDGE('',*,*,#1389,.T.);
#1438=CARTESIAN_POINT('',(0.60697655966289,-1.549999999999999,1.150000000000002));
#1439=DIRECTION('',(0.0,1.0,0.0));
#1440=VECTOR('',#1439,3.1);
#1441=LINE('',#1438,#1440);
#1442=EDGE_CURVE('',#1376,#1422,#1441,.F.);
#1443=ORIENTED_EDGE('',*,*,#1442,.T.);
#1444=EDGE_LOOP('',(#1430,#1436,#1437,#1443));
#1445=FACE_OUTER_BOUND('',#1444,.T.);
#1446=ADVANCED_FACE('',(#1445),#1420,.T.);
#1447=CARTESIAN_POINT('',(1.135036E-013,-1.549999999999999,0.608057452974479));
#1448=DIRECTION('',(0.0,-1.0,0.0));
#1449=DIRECTION('',(0.0,0.0,1.0));
#1450=AXIS2_PLACEMENT_3D('',#1447,#1448,#1449);
#1451=PLANE('',#1450);
#1452=CARTESIAN_POINT('',(-0.700000000000046,-1.549999999999999,0.455000000000001));
#1453=VERTEX_POINT('',#1452);
#1454=CARTESIAN_POINT('',(-0.700000000000046,-1.549999999999999,0.455000000000001));
#1455=DIRECTION('',(0.0,0.0,1.0));
#1456=VECTOR('',#1455,0.130000000000001);
#1457=LINE('',#1454,#1456);
#1458=EDGE_CURVE('',#1453,#1319,#1457,.T.);
#1459=ORIENTED_EDGE('',*,*,#1458,.F.);
#1460=CARTESIAN_POINT('',(-0.647816561616367,-1.549999999999999,0.130000000000003));
#1461=VERTEX_POINT('',#1460);
#1462=CARTESIAN_POINT('',(-0.647816561616367,-1.549999999999999,0.130000000000003));
#1463=DIRECTION('',(-0.158533854534227,0.0,0.987353542033714));
#1464=VECTOR('',#1463,0.329162742790769);
#1465=LINE('',#1462,#1464);
#1466=EDGE_CURVE('',#1461,#1453,#1465,.T.);
#1467=ORIENTED_EDGE('',*,*,#1466,.F.);
#1468=CARTESIAN_POINT('',(0.647816561616366,-1.549999999999999,0.130000000000003));
#1469=VERTEX_POINT('',#1468);
#1470=CARTESIAN_POINT('',(0.647816561616366,-1.549999999999999,0.130000000000003));
#1471=DIRECTION('',(-1.0,0.0,0.0));
#1472=VECTOR('',#1471,1.295633123232733);
#1473=LINE('',#1470,#1472);
#1474=EDGE_CURVE('',#1469,#1461,#1473,.T.);
#1475=ORIENTED_EDGE('',*,*,#1474,.F.);
#1476=CARTESIAN_POINT('',(0.700000000000045,-1.549999999999999,0.455000000000001));
#1477=VERTEX_POINT('',#1476);
#1478=CARTESIAN_POINT('',(0.700000000000045,-1.549999999999999,0.455000000000001));
#1479=DIRECTION('',(-0.158533854534227,0.0,-0.987353542033714));
#1480=VECTOR('',#1479,0.329162742790769);
#1481=LINE('',#1478,#1480);
#1482=EDGE_CURVE('',#1477,#1469,#1481,.T.);
#1483=ORIENTED_EDGE('',*,*,#1482,.F.);
#1484=CARTESIAN_POINT('',(0.700000000000045,-1.549999999999999,0.585000000000002));
#1485=DIRECTION('',(0.0,0.0,-1.0));
#1486=VECTOR('',#1485,0.130000000000001);
#1487=LINE('',#1484,#1486);
#1488=EDGE_CURVE('',#1424,#1477,#1487,.T.);
#1489=ORIENTED_EDGE('',*,*,#1488,.F.);
#1490=ORIENTED_EDGE('',*,*,#1429,.F.);
#1491=CARTESIAN_POINT('',(-0.60697655966289,-1.549999999999999,1.150000000000002));
#1492=DIRECTION('',(1.0,0.0,0.0));
#1493=VECTOR('',#1492,1.21395311932578);
#1494=LINE('',#1491,#1493);
#1495=EDGE_CURVE('',#1321,#1422,#1494,.T.);
#1496=ORIENTED_EDGE('',*,*,#1495,.F.);
#1497=ORIENTED_EDGE('',*,*,#1326,.F.);
#1498=EDGE_LOOP('',(#1459,#1467,#1475,#1483,#1489,#1490,#1496,#1497));
#1499=FACE_OUTER_BOUND('',#1498,.T.);
#1500=ADVANCED_FACE('',(#1499),#1451,.T.);
#1501=CARTESIAN_POINT('',(-0.700000000000045,1.500000000000001,0.455000000000001));
#1502=DIRECTION('',(-1.0,0.0,0.0));
#1503=DIRECTION('',(0.0,0.0,-1.0));
#1504=AXIS2_PLACEMENT_3D('',#1501,#1502,#1503);
#1505=PLANE('',#1504);
#1506=ORIENTED_EDGE('',*,*,#1458,.T.);
#1507=ORIENTED_EDGE('',*,*,#1348,.F.);
#1508=ORIENTED_EDGE('',*,*,#1372,.T.);
#1509=CARTESIAN_POINT('',(-0.700000000000045,1.550000000000001,0.455000000000001));
#1510=DIRECTION('',(0.0,-1.0,0.0));
#1511=VECTOR('',#1510,3.1);
#1512=LINE('',#1509,#1511);
#1513=EDGE_CURVE('',#1359,#1453,#1512,.T.);
#1514=ORIENTED_EDGE('',*,*,#1513,.T.);
#1515=EDGE_LOOP('',(#1506,#1507,#1508,#1514));
#1516=FACE_OUTER_BOUND('',#1515,.T.);
#1517=ADVANCED_FACE('',(#1516),#1505,.T.);
#1518=CARTESIAN_POINT('',(0.700000000000046,1.500000000000001,0.585000000000002));
#1519=DIRECTION('',(1.0,0.0,0.0));
#1520=DIRECTION('',(0.0,0.0,1.0));
#1521=AXIS2_PLACEMENT_3D('',#1518,#1519,#1520);
#1522=PLANE('',#1521);
#1523=ORIENTED_EDGE('',*,*,#1488,.T.);
#1524=CARTESIAN_POINT('',(0.700000000000046,1.550000000000001,0.455000000000001));
#1525=DIRECTION('',(0.0,-1.0,0.0));
#1526=VECTOR('',#1525,3.1);
#1527=LINE('',#1524,#1526);
#1528=EDGE_CURVE('',#1392,#1477,#1527,.T.);
#1529=ORIENTED_EDGE('',*,*,#1528,.F.);
#1530=ORIENTED_EDGE('',*,*,#1397,.T.);
#1531=ORIENTED_EDGE('',*,*,#1435,.T.);
#1532=EDGE_LOOP('',(#1523,#1529,#1530,#1531));
#1533=FACE_OUTER_BOUND('',#1532,.T.);
#1534=ADVANCED_FACE('',(#1533),#1522,.T.);
#1535=CARTESIAN_POINT('',(0.700000000000046,1.500000000000001,0.455000000000001));
#1536=DIRECTION('',(0.987353542033714,-1.209119E-016,-0.158533854534227));
#1537=DIRECTION('',(0.158533854534227,-1.941416E-017,0.987353542033714));
#1538=AXIS2_PLACEMENT_3D('',#1535,#1536,#1537);
#1539=PLANE('',#1538);
#1540=ORIENTED_EDGE('',*,*,#1482,.T.);
#1541=CARTESIAN_POINT('',(0.647816561616367,1.550000000000001,0.130000000000003));
#1542=DIRECTION('',(0.0,-1.0,0.0));
#1543=VECTOR('',#1542,3.1);
#1544=LINE('',#1541,#1543);
#1545=EDGE_CURVE('',#1400,#1469,#1544,.T.);
#1546=ORIENTED_EDGE('',*,*,#1545,.F.);
#1547=ORIENTED_EDGE('',*,*,#1405,.T.);
#1548=ORIENTED_EDGE('',*,*,#1528,.T.);
#1549=EDGE_LOOP('',(#1540,#1546,#1547,#1548));
#1550=FACE_OUTER_BOUND('',#1549,.T.);
#1551=ADVANCED_FACE('',(#1550),#1539,.T.);
#1552=CARTESIAN_POINT('',(0.647816561616367,1.500000000000001,0.130000000000003));
#1553=DIRECTION('',(0.0,0.0,-1.0));
#1554=DIRECTION('',(1.0,0.0,0.0));
#1555=AXIS2_PLACEMENT_3D('',#1552,#1553,#1554);
#1556=PLANE('',#1555);
#1557=ORIENTED_EDGE('',*,*,#1474,.T.);
#1558=CARTESIAN_POINT('',(-0.647816561616366,1.550000000000001,0.130000000000003));
#1559=DIRECTION('',(0.0,-1.0,0.0));
#1560=VECTOR('',#1559,3.1);
#1561=LINE('',#1558,#1560);
#1562=EDGE_CURVE('',#1361,#1461,#1561,.T.);
#1563=ORIENTED_EDGE('',*,*,#1562,.F.);
#1564=ORIENTED_EDGE('',*,*,#1411,.T.);
#1565=ORIENTED_EDGE('',*,*,#1545,.T.);
#1566=EDGE_LOOP('',(#1557,#1563,#1564,#1565));
#1567=FACE_OUTER_BOUND('',#1566,.T.);
#1568=ADVANCED_FACE('',(#1567),#1556,.T.);
#1569=CARTESIAN_POINT('',(-0.647816561616366,1.500000000000001,0.130000000000003));
#1570=DIRECTION('',(-0.987353542033714,1.209119E-016,-0.158533854534227));
#1571=DIRECTION('',(0.158533854534227,-1.941416E-017,-0.987353542033714));
#1572=AXIS2_PLACEMENT_3D('',#1569,#1570,#1571);
#1573=PLANE('',#1572);
#1574=ORIENTED_EDGE('',*,*,#1466,.T.);
#1575=ORIENTED_EDGE('',*,*,#1513,.F.);
#1576=ORIENTED_EDGE('',*,*,#1366,.T.);
#1577=ORIENTED_EDGE('',*,*,#1562,.T.);
#1578=EDGE_LOOP('',(#1574,#1575,#1576,#1577));
#1579=FACE_OUTER_BOUND('',#1578,.T.);
#1580=ADVANCED_FACE('',(#1579),#1573,.T.);
#1581=CARTESIAN_POINT('',(-0.615208722524585,1.500000000000001,1.150000000000002));
#1582=DIRECTION('',(0.0,0.0,1.0));
#1583=DIRECTION('',(-1.0,0.0,0.0));
#1584=AXIS2_PLACEMENT_3D('',#1581,#1582,#1583);
#1585=PLANE('',#1584);
#1586=ORIENTED_EDGE('',*,*,#1495,.T.);
#1587=ORIENTED_EDGE('',*,*,#1442,.F.);
#1588=ORIENTED_EDGE('',*,*,#1381,.T.);
#1589=ORIENTED_EDGE('',*,*,#1334,.T.);
#1590=EDGE_LOOP('',(#1586,#1587,#1588,#1589));
#1591=FACE_OUTER_BOUND('',#1590,.T.);
#1592=ADVANCED_FACE('',(#1591),#1585,.T.);
#1593=CLOSED_SHELL('',(#1352,#1415,#1446,#1500,#1517,#1534,#1551,#1568,#1580,#1592));
#1594=MANIFOLD_SOLID_BREP('EE',#1593);
#1595=COLOUR_RGB('250',0.33,0.33,0.33);
#1596=SURFACE_STYLE_USAGE(.BOTH.,#1597);
#1597=SURFACE_SIDE_STYLE('NONE',(#1598));
#1598=SURFACE_STYLE_FILL_AREA(#1599);
#1599=FILL_AREA_STYLE('NONE',(#1600));
#1600=FILL_AREA_STYLE_COLOUR('NONE',#1595);
#1601=PRESENTATION_STYLE_ASSIGNMENT((#1596));
#1602=STYLED_ITEM('NONE',(#1601),#1594);
#1603=ADVANCED_BREP_SHAPE_REPRESENTATION('ABSR1',(#504,#954,#1311,#1594),#28);
#1604=SHAPE_REPRESENTATION_RELATIONSHIP('SRRPL1','',#1603,#62);
ENDSEC;
END-ISO-10303-21;
