ISO-10303-21;
HEADER;
/****************************************************************
 * Generated by software with PDE/Lib inside                    *
 * PDElib Version v51a, created Mon 11/03/2008                  *
 * International Technegroup Inc. (www.iti-oh.com)              *
 ****************************************************************/
FILE_DESCRIPTION((''),'2;1');
FILE_NAME('SOT95P280X115-3N.stp','2010-05-19T11:48:32',(''),(''),'Mechanical Desktop 2010','Mechanical Desktop 2010',', , ');
FILE_SCHEMA(('AUTOMOTIVE_DESIGN { 1 2 10303 214 1 1 1 1 }'));
ENDSEC;
DATA;
#8=(NAMED_UNIT(*)PLANE_ANGLE_UNIT()SI_UNIT($,.RADIAN.));
#9=DIMENSIONAL_EXPONENTS(0.0,0.0,0.0,0.0,0.0,0.0,0.0);
#10=PLANE_ANGLE_MEASURE_WITH_UNIT(PLANE_ANGLE_MEASURE(0.017453292500000),#8);
#14=(CONVERSION_BASED_UNIT('DEGREE',#10)NAMED_UNIT(#9)PLANE_ANGLE_UNIT());
#18=(NAMED_UNIT(*)SI_UNIT($,.STERADIAN.)SOLID_ANGLE_UNIT());
#22=(LENGTH_UNIT()NAMED_UNIT(*)SI_UNIT(.MILLI.,.METRE.));
#23=UNCERTAINTY_MEASURE_WITH_UNIT(LENGTH_MEASURE(0.000001000000000),#22,'DISTANCE_ACCURACY_VALUE','');
#28=(GEOMETRIC_REPRESENTATION_CONTEXT(3)GLOBAL_UNCERTAINTY_ASSIGNED_CONTEXT((#23))GLOBAL_UNIT_ASSIGNED_CONTEXT((#14,#18,#22))REPRESENTATION_CONTEXT('None','None'));
#29=APPLICATION_CONTEXT('automotive design');
#30=APPLICATION_PROTOCOL_DEFINITION('INTERNATIONAL_STANDARD','automotive_design',1998,#29);
#31=PRODUCT_CONTEXT('3D Mechanical Parts',#29,'mechanical');
#32=PRODUCT('Product','Product','',(#31));
#33=PRODUCT_RELATED_PRODUCT_CATEGORY('part',$,(#32));
#34=PRODUCT_CATEGORY('part',$);
#35=PERSON('1','Design','Joe',$,$,$);
#36=ORGANIZATION($,'None','None');
#37=PERSON_AND_ORGANIZATION(#35,#36);
#38=PERSON_AND_ORGANIZATION_ROLE('design_owner');
#39=APPLIED_PERSON_AND_ORGANIZATION_ASSIGNMENT(#37,#38,(#32));
#40=PRODUCT_DEFINITION_FORMATION_WITH_SPECIFIED_SOURCE('None','',#32,.BOUGHT.);
#41=PERSON('2','Creator','Joe',$,$,$);
#42=ORGANIZATION($,'None','None');
#43=PERSON_AND_ORGANIZATION(#41,#42);
#44=PERSON_AND_ORGANIZATION_ROLE('creator');
#45=APPLIED_PERSON_AND_ORGANIZATION_ASSIGNMENT(#43,#44,(#40));
#46=PERSON('3','Supplier','Joe',$,$,$);
#47=ORGANIZATION($,'None','None');
#48=PERSON_AND_ORGANIZATION(#46,#47);
#49=PERSON_AND_ORGANIZATION_ROLE('design_supplier');
#50=APPLIED_PERSON_AND_ORGANIZATION_ASSIGNMENT(#48,#49,(#40));
#51=PRODUCT_DEFINITION_CONTEXT('part definition',#29,'design');
#52=PRODUCT_DEFINITION('None','',#40,#51);
#53=PERSON('4','Creator','Joe',$,$,$);
#54=ORGANIZATION($,'None','None');
#55=PERSON_AND_ORGANIZATION(#53,#54);
#56=PERSON_AND_ORGANIZATION_ROLE('creator');
#57=APPLIED_PERSON_AND_ORGANIZATION_ASSIGNMENT(#55,#56,(#52));
#58=CARTESIAN_POINT('NONE',(0.0,0.0,0.0));
#59=DIRECTION('NONE',(0.0,0.0,1.0));
#60=DIRECTION('NONE',(1.0,0.0,0.0));
#61=AXIS2_PLACEMENT_3D('NONE',#58,#59,#60);
#62=SHAPE_REPRESENTATION('SR1',(#61),#28);
#63=PRODUCT_DEFINITION_SHAPE('PDS1','Test Part',#52);
#64=SHAPE_DEFINITION_REPRESENTATION(#63,#62);
#65=CARTESIAN_POINT('',(1.167813065659368,0.254999999999999,0.159485248090044));
#66=DIRECTION('',(0.121869343405117,-1.492420E-017,0.992546151641326));
#67=DIRECTION('',(-0.992546151641326,1.215478E-016,0.121869343405117));
#68=AXIS2_PLACEMENT_3D('',#65,#66,#67);
#69=PLANE('',#68);
#70=CARTESIAN_POINT('',(1.167813065659368,-0.255000000000001,0.159485248090044));
#71=VERTEX_POINT('',#70);
#72=CARTESIAN_POINT('',(1.498514786313791,-0.255000000000001,0.118880182529666));
#73=VERTEX_POINT('',#72);
#74=CARTESIAN_POINT('',(1.167813065659368,-0.255000000000001,0.159485248090044));
#75=DIRECTION('',(0.992546151641326,0.0,-0.121869343405117));
#76=VECTOR('',#75,0.333185232855477);
#77=LINE('',#74,#76);
#78=EDGE_CURVE('',#71,#73,#77,.T.);
#79=ORIENTED_EDGE('',*,*,#78,.T.);
#80=CARTESIAN_POINT('',(1.498514786313791,0.254999999999999,0.118880182529666));
#81=VERTEX_POINT('',#80);
#82=CARTESIAN_POINT('',(1.498514786313791,0.254999999999999,0.118880182529666));
#83=DIRECTION('',(0.0,-1.0,0.0));
#84=VECTOR('',#83,0.510000000000000);
#85=LINE('',#82,#84);
#86=EDGE_CURVE('',#81,#73,#85,.T.);
#87=ORIENTED_EDGE('',*,*,#86,.F.);
#88=CARTESIAN_POINT('',(1.167813065659368,0.254999999999999,0.159485248090044));
#89=VERTEX_POINT('',#88);
#90=CARTESIAN_POINT('',(1.498514786313791,0.254999999999999,0.118880182529666));
#91=DIRECTION('',(-0.992546151641326,0.0,0.121869343405117));
#92=VECTOR('',#91,0.333185232855477);
#93=LINE('',#90,#92);
#94=EDGE_CURVE('',#81,#89,#93,.T.);
#95=ORIENTED_EDGE('',*,*,#94,.T.);
#96=CARTESIAN_POINT('',(1.167813065659368,0.254999999999999,0.159485248090044));
#97=DIRECTION('',(0.0,-1.0,0.0));
#98=VECTOR('',#97,0.510000000000000);
#99=LINE('',#96,#98);
#100=EDGE_CURVE('',#89,#71,#99,.T.);
#101=ORIENTED_EDGE('',*,*,#100,.T.);
#102=EDGE_LOOP('',(#79,#87,#95,#101));
#103=FACE_OUTER_BOUND('',#102,.T.);
#104=ADVANCED_FACE('',(#103),#69,.T.);
#105=CARTESIAN_POINT('',(0.775000000000047,0.254999999999999,0.520000000000001));
#106=DIRECTION('',(0.0,-1.0,0.0));
#107=DIRECTION('',(1.0,0.0,0.0));
#108=AXIS2_PLACEMENT_3D('',#105,#106,#107);
#109=PLANE('',#108);
#110=CARTESIAN_POINT('',(0.850000000000047,0.254999999999999,0.455000000000001));
#111=VERTEX_POINT('',#110);
#112=CARTESIAN_POINT('',(0.700000000000047,0.255000000000000,0.455000000000001));
#113=VERTEX_POINT('',#112);
#114=CARTESIAN_POINT('',(0.850000000000047,0.254999999999999,0.455000000000001));
#115=DIRECTION('',(-1.0,0.0,0.0));
#116=VECTOR('',#115,0.150000000000000);
#117=LINE('',#114,#116);
#118=EDGE_CURVE('',#111,#113,#117,.T.);
#119=ORIENTED_EDGE('',*,*,#118,.T.);
#120=CARTESIAN_POINT('',(0.700000000000047,0.255000000000000,0.585000000000002));
#121=VERTEX_POINT('',#120);
#122=CARTESIAN_POINT('',(0.700000000000047,0.255000000000000,0.585000000000002));
#123=DIRECTION('',(0.0,0.0,-1.0));
#124=VECTOR('',#123,0.130000000000000);
#125=LINE('',#122,#124);
#126=EDGE_CURVE('',#121,#113,#125,.T.);
#127=ORIENTED_EDGE('',*,*,#126,.F.);
#128=CARTESIAN_POINT('',(0.850000000000047,0.254999999999999,0.585000000000002));
#129=VERTEX_POINT('',#128);
#130=CARTESIAN_POINT('',(0.850000000000047,0.254999999999999,0.585000000000002));
#131=DIRECTION('',(-1.0,0.0,0.0));
#132=VECTOR('',#131,0.150000000000000);
#133=LINE('',#130,#132);
#134=EDGE_CURVE('',#129,#121,#133,.T.);
#135=ORIENTED_EDGE('',*,*,#134,.F.);
#136=CARTESIAN_POINT('',(1.080000000000064,0.254999999999999,0.354999999999905));
#137=VERTEX_POINT('',#136);
#138=CARTESIAN_POINT('',(0.850000000000046,0.254999999999999,0.354999999999992));
#139=DIRECTION('',(-1.722526E-016,-1.0,-1.722526E-016));
#140=DIRECTION('',(0.707106781186668,-2.436020E-016,0.707106781186427));
#141=AXIS2_PLACEMENT_3D('',#138,#139,#140);
#142=CIRCLE('',#141,0.230000000000010);
#143=EDGE_CURVE('',#137,#129,#142,.T.);
#144=ORIENTED_EDGE('',*,*,#143,.F.);
#145=CARTESIAN_POINT('',(1.079999999999836,0.254999999999999,0.258739863254230));
#146=VERTEX_POINT('',#145);
#147=CARTESIAN_POINT('',(1.079999999999836,0.254999999999999,0.258739863254230));
#148=DIRECTION('',(2.362075E-012,0.0,1.0));
#149=VECTOR('',#148,0.096260136745675);
#150=LINE('',#147,#149);
#151=EDGE_CURVE('',#146,#137,#150,.T.);
#152=ORIENTED_EDGE('',*,*,#151,.F.);
#153=CARTESIAN_POINT('',(1.179999999999859,0.254999999999999,0.258739863254203));
#154=DIRECTION('',(1.788872E-016,1.0,1.582660E-016));
#155=DIRECTION('',(-0.748955720789008,2.388488E-016,-0.662620048215731));
#156=AXIS2_PLACEMENT_3D('',#153,#154,#155);
#157=CIRCLE('',#156,0.100000000000023);
#158=EDGE_CURVE('',#89,#146,#157,.T.);
#159=ORIENTED_EDGE('',*,*,#158,.F.);
#160=ORIENTED_EDGE('',*,*,#94,.F.);
#161=CARTESIAN_POINT('',(1.482671771671021,0.254999999999999,-0.010150817183712));
#162=VERTEX_POINT('',#161);
#163=CARTESIAN_POINT('',(1.482671771671021,0.254999999999999,-0.010150817183712));
#164=DIRECTION('',(0.121869343405907,0.0,0.992546151641229));
#165=VECTOR('',#164,0.130000000000018);
#166=LINE('',#163,#165);
#167=EDGE_CURVE('',#162,#81,#166,.T.);
#168=ORIENTED_EDGE('',*,*,#167,.F.);
#169=CARTESIAN_POINT('',(1.151970051016656,0.254999999999999,0.030454248376691));
#170=VERTEX_POINT('',#169);
#171=CARTESIAN_POINT('',(1.151970051016656,0.254999999999999,0.030454248376691));
#172=DIRECTION('',(0.992546151641314,-1.666075E-016,-0.121869343405213));
#173=VECTOR('',#172,0.333185232855423);
#174=LINE('',#171,#173);
#175=EDGE_CURVE('',#170,#162,#174,.T.);
#176=ORIENTED_EDGE('',*,*,#175,.F.);
#177=CARTESIAN_POINT('',(0.949999999999841,0.254999999999999,0.258739863254301));
#178=VERTEX_POINT('',#177);
#179=CARTESIAN_POINT('',(1.179999999999802,0.254999999999999,0.258739863254184));
#180=DIRECTION('',(-1.788872E-016,-1.0,-1.582660E-016));
#181=DIRECTION('',(-0.748955720789156,2.388488E-016,-0.662620048215563));
#182=AXIS2_PLACEMENT_3D('',#179,#180,#181);
#183=CIRCLE('',#182,0.229999999999988);
#184=EDGE_CURVE('',#178,#170,#183,.T.);
#185=ORIENTED_EDGE('',*,*,#184,.F.);
#186=CARTESIAN_POINT('',(0.950000000000068,0.254999999999999,0.354999999999960));
#187=VERTEX_POINT('',#186);
#188=CARTESIAN_POINT('',(0.950000000000068,0.254999999999999,0.354999999999960));
#189=DIRECTION('',(-2.362075E-012,0.0,-1.0));
#190=VECTOR('',#189,0.096260136745659);
#191=LINE('',#188,#190);
#192=EDGE_CURVE('',#187,#178,#191,.T.);
#193=ORIENTED_EDGE('',*,*,#192,.F.);
#194=CARTESIAN_POINT('',(0.850000000000046,0.254999999999999,0.354999999999990));
#195=DIRECTION('',(1.722526E-016,1.0,1.722526E-016));
#196=DIRECTION('',(0.707106781186610,-2.436020E-016,0.707106781186485));
#197=AXIS2_PLACEMENT_3D('',#194,#195,#196);
#198=CIRCLE('',#197,0.100000000000011);
#199=EDGE_CURVE('',#111,#187,#198,.T.);
#200=ORIENTED_EDGE('',*,*,#199,.F.);
#201=EDGE_LOOP('',(#119,#127,#135,#144,#152,#159,#160,#168,#176,#185,#193,#200));
#202=FACE_OUTER_BOUND('',#201,.T.);
#203=ADVANCED_FACE('',(#202),#109,.F.);
#204=CARTESIAN_POINT('',(1.384156985357231,0.254999999999999,0.001945277596276));
#205=DIRECTION('',(-0.121869343405213,1.492420E-017,-0.992546151641314));
#206=DIRECTION('',(0.992546151641314,-1.215478E-016,-0.121869343405213));
#207=AXIS2_PLACEMENT_3D('',#204,#205,#206);
#208=PLANE('',#207);
#209=CARTESIAN_POINT('',(1.482671771671021,-0.255000000000001,-0.010150817183712));
#210=VERTEX_POINT('',#209);
#211=CARTESIAN_POINT('',(1.151970051016656,-0.255000000000001,0.030454248376691));
#212=VERTEX_POINT('',#211);
#213=CARTESIAN_POINT('',(1.482671771671021,-0.255000000000001,-0.010150817183712));
#214=DIRECTION('',(-0.992546151641314,1.666075E-016,0.121869343405213));
#215=VECTOR('',#214,0.333185232855423);
#216=LINE('',#213,#215);
#217=EDGE_CURVE('',#210,#212,#216,.T.);
#218=ORIENTED_EDGE('',*,*,#217,.T.);
#219=CARTESIAN_POINT('',(1.151970051016656,0.254999999999999,0.030454248376691));
#220=DIRECTION('',(0.0,-1.0,0.0));
#221=VECTOR('',#220,0.510000000000000);
#222=LINE('',#219,#221);
#223=EDGE_CURVE('',#170,#212,#222,.T.);
#224=ORIENTED_EDGE('',*,*,#223,.F.);
#225=ORIENTED_EDGE('',*,*,#175,.T.);
#226=CARTESIAN_POINT('',(1.482671771671021,-0.255000000000001,-0.010150817183712));
#227=DIRECTION('',(0.0,1.0,0.0));
#228=VECTOR('',#227,0.510000000000000);
#229=LINE('',#226,#228);
#230=EDGE_CURVE('',#162,#210,#229,.F.);
#231=ORIENTED_EDGE('',*,*,#230,.T.);
#232=EDGE_LOOP('',(#218,#224,#225,#231));
#233=FACE_OUTER_BOUND('',#232,.T.);
#234=ADVANCED_FACE('',(#233),#208,.T.);
#235=CARTESIAN_POINT('',(0.775000000000046,-0.255000000000000,0.520000000000002));
#236=DIRECTION('',(0.0,1.0,0.0));
#237=DIRECTION('',(-1.0,0.0,0.0));
#238=AXIS2_PLACEMENT_3D('',#235,#236,#237);
#239=PLANE('',#238);
#240=CARTESIAN_POINT('',(0.850000000000046,-0.255000000000000,0.585000000000002));
#241=VERTEX_POINT('',#240);
#242=CARTESIAN_POINT('',(0.700000000000046,-0.255000000000000,0.585000000000002));
#243=VERTEX_POINT('',#242);
#244=CARTESIAN_POINT('',(0.850000000000046,-0.255000000000000,0.585000000000002));
#245=DIRECTION('',(-1.0,0.0,0.0));
#246=VECTOR('',#245,0.150000000000000);
#247=LINE('',#244,#246);
#248=EDGE_CURVE('',#241,#243,#247,.T.);
#249=ORIENTED_EDGE('',*,*,#248,.T.);
#250=CARTESIAN_POINT('',(0.700000000000046,-0.255000000000000,0.455000000000001));
#251=VERTEX_POINT('',#250);
#252=CARTESIAN_POINT('',(0.700000000000046,-0.255000000000000,0.455000000000001));
#253=DIRECTION('',(0.0,0.0,1.0));
#254=VECTOR('',#253,0.130000000000000);
#255=LINE('',#252,#254);
#256=EDGE_CURVE('',#251,#243,#255,.T.);
#257=ORIENTED_EDGE('',*,*,#256,.F.);
#258=CARTESIAN_POINT('',(0.850000000000046,-0.255000000000000,0.455000000000001));
#259=VERTEX_POINT('',#258);
#260=CARTESIAN_POINT('',(0.850000000000046,-0.255000000000000,0.455000000000001));
#261=DIRECTION('',(-1.0,0.0,0.0));
#262=VECTOR('',#261,0.150000000000000);
#263=LINE('',#260,#262);
#264=EDGE_CURVE('',#259,#251,#263,.T.);
#265=ORIENTED_EDGE('',*,*,#264,.F.);
#266=CARTESIAN_POINT('',(0.950000000000068,-0.255000000000001,0.354999999999960));
#267=VERTEX_POINT('',#266);
#268=CARTESIAN_POINT('',(0.850000000000046,-0.255000000000001,0.354999999999990));
#269=DIRECTION('',(-1.722526E-016,-1.0,-1.722526E-016));
#270=DIRECTION('',(0.707106781186610,-2.436020E-016,0.707106781186485));
#271=AXIS2_PLACEMENT_3D('',#268,#269,#270);
#272=CIRCLE('',#271,0.100000000000011);
#273=EDGE_CURVE('',#267,#259,#272,.T.);
#274=ORIENTED_EDGE('',*,*,#273,.F.);
#275=CARTESIAN_POINT('',(0.949999999999841,-0.255000000000001,0.258739863254301));
#276=VERTEX_POINT('',#275);
#277=CARTESIAN_POINT('',(0.949999999999841,-0.255000000000001,0.258739863254301));
#278=DIRECTION('',(2.362075E-012,0.0,1.0));
#279=VECTOR('',#278,0.096260136745659);
#280=LINE('',#277,#279);
#281=EDGE_CURVE('',#276,#267,#280,.T.);
#282=ORIENTED_EDGE('',*,*,#281,.F.);
#283=CARTESIAN_POINT('',(1.179999999999802,-0.255000000000001,0.258739863254184));
#284=DIRECTION('',(1.788872E-016,1.0,1.582660E-016));
#285=DIRECTION('',(-0.748955720789156,2.388488E-016,-0.662620048215563));
#286=AXIS2_PLACEMENT_3D('',#283,#284,#285);
#287=CIRCLE('',#286,0.229999999999988);
#288=EDGE_CURVE('',#212,#276,#287,.T.);
#289=ORIENTED_EDGE('',*,*,#288,.F.);
#290=ORIENTED_EDGE('',*,*,#217,.F.);
#291=CARTESIAN_POINT('',(1.498514786313791,-0.255000000000001,0.118880182529666));
#292=DIRECTION('',(-0.121869343405907,0.0,-0.992546151641229));
#293=VECTOR('',#292,0.130000000000018);
#294=LINE('',#291,#293);
#295=EDGE_CURVE('',#73,#210,#294,.T.);
#296=ORIENTED_EDGE('',*,*,#295,.F.);
#297=ORIENTED_EDGE('',*,*,#78,.F.);
#298=CARTESIAN_POINT('',(1.079999999999836,-0.255000000000001,0.258739863254230));
#299=VERTEX_POINT('',#298);
#300=CARTESIAN_POINT('',(1.179999999999859,-0.255000000000001,0.258739863254203));
#301=DIRECTION('',(-1.788872E-016,-1.0,-1.582660E-016));
#302=DIRECTION('',(-0.748955720789008,2.388488E-016,-0.662620048215731));
#303=AXIS2_PLACEMENT_3D('',#300,#301,#302);
#304=CIRCLE('',#303,0.100000000000023);
#305=EDGE_CURVE('',#299,#71,#304,.T.);
#306=ORIENTED_EDGE('',*,*,#305,.F.);
#307=CARTESIAN_POINT('',(1.080000000000064,-0.255000000000001,0.354999999999905));
#308=VERTEX_POINT('',#307);
#309=CARTESIAN_POINT('',(1.080000000000064,-0.255000000000001,0.354999999999905));
#310=DIRECTION('',(-2.362075E-012,0.0,-1.0));
#311=VECTOR('',#310,0.096260136745675);
#312=LINE('',#309,#311);
#313=EDGE_CURVE('',#308,#299,#312,.T.);
#314=ORIENTED_EDGE('',*,*,#313,.F.);
#315=CARTESIAN_POINT('',(0.850000000000046,-0.255000000000001,0.354999999999992));
#316=DIRECTION('',(1.722526E-016,1.0,1.722526E-016));
#317=DIRECTION('',(0.707106781186668,-2.436020E-016,0.707106781186427));
#318=AXIS2_PLACEMENT_3D('',#315,#316,#317);
#319=CIRCLE('',#318,0.230000000000010);
#320=EDGE_CURVE('',#241,#308,#319,.T.);
#321=ORIENTED_EDGE('',*,*,#320,.F.);
#322=EDGE_LOOP('',(#249,#257,#265,#274,#282,#289,#290,#296,#297,#306,#314,#321));
#323=FACE_OUTER_BOUND('',#322,.T.);
#324=ADVANCED_FACE('',(#323),#239,.F.);
#325=CARTESIAN_POINT('',(0.949999999999841,0.254999999999999,0.258739863254301));
#326=DIRECTION('',(-1.0,1.224606E-016,2.362075E-012));
#327=DIRECTION('',(-2.362075E-012,2.892612E-028,-1.0));
#328=AXIS2_PLACEMENT_3D('',#325,#326,#327);
#329=PLANE('',#328);
#330=ORIENTED_EDGE('',*,*,#281,.T.);
#331=CARTESIAN_POINT('',(0.950000000000068,0.254999999999999,0.354999999999960));
#332=DIRECTION('',(0.0,-1.0,0.0));
#333=VECTOR('',#332,0.510000000000000);
#334=LINE('',#331,#333);
#335=EDGE_CURVE('',#187,#267,#334,.T.);
#336=ORIENTED_EDGE('',*,*,#335,.F.);
#337=ORIENTED_EDGE('',*,*,#192,.T.);
#338=CARTESIAN_POINT('',(0.949999999999841,0.254999999999999,0.258739863254301));
#339=DIRECTION('',(0.0,-1.0,0.0));
#340=VECTOR('',#339,0.510000000000000);
#341=LINE('',#338,#340);
#342=EDGE_CURVE('',#178,#276,#341,.T.);
#343=ORIENTED_EDGE('',*,*,#342,.T.);
#344=EDGE_LOOP('',(#330,#336,#337,#343));
#345=FACE_OUTER_BOUND('',#344,.T.);
#346=ADVANCED_FACE('',(#345),#329,.T.);
#347=CARTESIAN_POINT('',(0.850000000000046,0.254999999999999,0.354999999999990));
#348=DIRECTION('',(-1.224606E-016,-1.0,0.0));
#349=DIRECTION('',(0.707106781186610,-8.659275E-017,0.707106781186485));
#350=AXIS2_PLACEMENT_3D('',#347,#348,#349);
#351=CYLINDRICAL_SURFACE('',#350,0.100000000000011);
#352=ORIENTED_EDGE('',*,*,#273,.T.);
#353=CARTESIAN_POINT('',(0.850000000000046,-0.255000000000000,0.455000000000001));
#354=DIRECTION('',(0.0,1.0,0.0));
#355=VECTOR('',#354,0.510000000000000);
#356=LINE('',#353,#355);
#357=EDGE_CURVE('',#259,#111,#356,.T.);
#358=ORIENTED_EDGE('',*,*,#357,.T.);
#359=ORIENTED_EDGE('',*,*,#199,.T.);
#360=ORIENTED_EDGE('',*,*,#335,.T.);
#361=EDGE_LOOP('',(#352,#358,#359,#360));
#362=FACE_OUTER_BOUND('',#361,.T.);
#363=ADVANCED_FACE('',(#362),#351,.F.);
#364=CARTESIAN_POINT('',(0.850000000000046,0.254999999999999,0.354999999999992));
#365=DIRECTION('',(-1.224606E-016,-1.0,0.0));
#366=DIRECTION('',(0.707106781186668,-8.659275E-017,0.707106781186427));
#367=AXIS2_PLACEMENT_3D('',#364,#365,#366);
#368=CYLINDRICAL_SURFACE('',#367,0.230000000000010);
#369=ORIENTED_EDGE('',*,*,#320,.T.);
#370=CARTESIAN_POINT('',(1.080000000000064,0.254999999999999,0.354999999999905));
#371=DIRECTION('',(0.0,-1.0,0.0));
#372=VECTOR('',#371,0.510000000000000);
#373=LINE('',#370,#372);
#374=EDGE_CURVE('',#137,#308,#373,.T.);
#375=ORIENTED_EDGE('',*,*,#374,.F.);
#376=ORIENTED_EDGE('',*,*,#143,.T.);
#377=CARTESIAN_POINT('',(0.850000000000047,0.254999999999999,0.585000000000002));
#378=DIRECTION('',(0.0,-1.0,0.0));
#379=VECTOR('',#378,0.510000000000000);
#380=LINE('',#377,#379);
#381=EDGE_CURVE('',#129,#241,#380,.T.);
#382=ORIENTED_EDGE('',*,*,#381,.T.);
#383=EDGE_LOOP('',(#369,#375,#376,#382));
#384=FACE_OUTER_BOUND('',#383,.T.);
#385=ADVANCED_FACE('',(#384),#368,.T.);
#386=CARTESIAN_POINT('',(1.080000000000064,0.254999999999999,0.354999999999905));
#387=DIRECTION('',(1.0,-1.224606E-016,-2.362075E-012));
#388=DIRECTION('',(2.362075E-012,-2.892612E-028,1.0));
#389=AXIS2_PLACEMENT_3D('',#386,#387,#388);
#390=PLANE('',#389);
#391=ORIENTED_EDGE('',*,*,#313,.T.);
#392=CARTESIAN_POINT('',(1.079999999999836,0.254999999999999,0.258739863254230));
#393=DIRECTION('',(0.0,-1.0,0.0));
#394=VECTOR('',#393,0.510000000000000);
#395=LINE('',#392,#394);
#396=EDGE_CURVE('',#146,#299,#395,.T.);
#397=ORIENTED_EDGE('',*,*,#396,.F.);
#398=ORIENTED_EDGE('',*,*,#151,.T.);
#399=ORIENTED_EDGE('',*,*,#374,.T.);
#400=EDGE_LOOP('',(#391,#397,#398,#399));
#401=FACE_OUTER_BOUND('',#400,.T.);
#402=ADVANCED_FACE('',(#401),#390,.T.);
#403=CARTESIAN_POINT('',(1.179999999999859,0.254999999999999,0.258739863254203));
#404=DIRECTION('',(-1.224606E-016,-1.0,0.0));
#405=DIRECTION('',(-0.748955720789008,9.171759E-017,-0.662620048215731));
#406=AXIS2_PLACEMENT_3D('',#403,#404,#405);
#407=CYLINDRICAL_SURFACE('',#406,0.100000000000023);
#408=ORIENTED_EDGE('',*,*,#305,.T.);
#409=ORIENTED_EDGE('',*,*,#100,.F.);
#410=ORIENTED_EDGE('',*,*,#158,.T.);
#411=ORIENTED_EDGE('',*,*,#396,.T.);
#412=EDGE_LOOP('',(#408,#409,#410,#411));
#413=FACE_OUTER_BOUND('',#412,.T.);
#414=ADVANCED_FACE('',(#413),#407,.F.);
#415=CARTESIAN_POINT('',(1.179999999999802,0.254999999999999,0.258739863254184));
#416=DIRECTION('',(-1.224606E-016,-1.0,0.0));
#417=DIRECTION('',(-0.748955720789156,9.171759E-017,-0.662620048215563));
#418=AXIS2_PLACEMENT_3D('',#415,#416,#417);
#419=CYLINDRICAL_SURFACE('',#418,0.229999999999988);
#420=ORIENTED_EDGE('',*,*,#288,.T.);
#421=ORIENTED_EDGE('',*,*,#342,.F.);
#422=ORIENTED_EDGE('',*,*,#184,.T.);
#423=ORIENTED_EDGE('',*,*,#223,.T.);
#424=EDGE_LOOP('',(#420,#421,#422,#423));
#425=FACE_OUTER_BOUND('',#424,.T.);
#426=ADVANCED_FACE('',(#425),#419,.T.);
#427=CARTESIAN_POINT('',(0.700000000000046,-2.220446E-016,0.520000000000001));
#428=DIRECTION('',(1.0,0.0,0.0));
#429=DIRECTION('',(0.0,1.0,0.0));
#430=AXIS2_PLACEMENT_3D('',#427,#428,#429);
#431=PLANE('',#430);
#432=ORIENTED_EDGE('',*,*,#126,.T.);
#433=CARTESIAN_POINT('',(0.700000000000047,0.255000000000000,0.455000000000001));
#434=DIRECTION('',(0.0,-1.0,0.0));
#435=VECTOR('',#434,0.510000000000000);
#436=LINE('',#433,#435);
#437=EDGE_CURVE('',#113,#251,#436,.T.);
#438=ORIENTED_EDGE('',*,*,#437,.T.);
#439=ORIENTED_EDGE('',*,*,#256,.T.);
#440=CARTESIAN_POINT('',(0.700000000000046,-0.255000000000000,0.585000000000002));
#441=DIRECTION('',(0.0,1.0,0.0));
#442=VECTOR('',#441,0.510000000000000);
#443=LINE('',#440,#442);
#444=EDGE_CURVE('',#243,#121,#443,.T.);
#445=ORIENTED_EDGE('',*,*,#444,.T.);
#446=EDGE_LOOP('',(#432,#438,#439,#445));
#447=FACE_OUTER_BOUND('',#446,.T.);
#448=ADVANCED_FACE('',(#447),#431,.F.);
#449=CARTESIAN_POINT('',(0.775000000000046,-3.330669E-016,0.455000000000001));
#450=DIRECTION('',(0.0,0.0,1.0));
#451=DIRECTION('',(1.0,0.0,0.0));
#452=AXIS2_PLACEMENT_3D('',#449,#450,#451);
#453=PLANE('',#452);
#454=ORIENTED_EDGE('',*,*,#264,.T.);
#455=ORIENTED_EDGE('',*,*,#437,.F.);
#456=ORIENTED_EDGE('',*,*,#118,.F.);
#457=ORIENTED_EDGE('',*,*,#357,.F.);
#458=EDGE_LOOP('',(#454,#455,#456,#457));
#459=FACE_OUTER_BOUND('',#458,.T.);
#460=ADVANCED_FACE('',(#459),#453,.F.);
#461=CARTESIAN_POINT('',(0.775000000000046,-3.330669E-016,0.585000000000002));
#462=DIRECTION('',(0.0,0.0,-1.0));
#463=DIRECTION('',(-1.0,0.0,0.0));
#464=AXIS2_PLACEMENT_3D('',#461,#462,#463);
#465=PLANE('',#464);
#466=ORIENTED_EDGE('',*,*,#134,.T.);
#467=ORIENTED_EDGE('',*,*,#444,.F.);
#468=ORIENTED_EDGE('',*,*,#248,.F.);
#469=ORIENTED_EDGE('',*,*,#381,.F.);
#470=EDGE_LOOP('',(#466,#467,#468,#469));
#471=FACE_OUTER_BOUND('',#470,.T.);
#472=ADVANCED_FACE('',(#471),#465,.F.);
#473=CARTESIAN_POINT('',(1.500000000000000,0.254999999999999,0.130976277309645));
#474=DIRECTION('',(0.992546151641229,-1.215478E-016,-0.121869343405908));
#475=DIRECTION('',(0.121869343405908,-1.492420E-017,0.992546151641229));
#476=AXIS2_PLACEMENT_3D('',#473,#474,#475);
#477=PLANE('',#476);
#478=ORIENTED_EDGE('',*,*,#295,.T.);
#479=ORIENTED_EDGE('',*,*,#230,.F.);
#480=ORIENTED_EDGE('',*,*,#167,.T.);
#481=ORIENTED_EDGE('',*,*,#86,.T.);
#482=EDGE_LOOP('',(#478,#479,#480,#481));
#483=FACE_OUTER_BOUND('',#482,.T.);
#484=ADVANCED_FACE('',(#483),#477,.T.);
#485=CLOSED_SHELL('',(#104,#203,#234,#324,#346,#363,#385,#402,#414,#426,#448,#460,#472,#484));
#486=MANIFOLD_SOLID_BREP('2B1',#485);
#487=COLOUR_RGB('9',0.750000000000000,0.750000000000000,0.750000000000000);
#488=SURFACE_STYLE_USAGE(.BOTH.,#489);
#489=SURFACE_SIDE_STYLE('NONE',(#490));
#490=SURFACE_STYLE_FILL_AREA(#491);
#491=FILL_AREA_STYLE('NONE',(#492));
#492=FILL_AREA_STYLE_COLOUR('NONE',#487);
#493=PRESENTATION_STYLE_ASSIGNMENT((#488));
#494=STYLED_ITEM('NONE',(#493),#486);
#495=MECHANICAL_DESIGN_GEOMETRIC_PRESENTATION_REPRESENTATION('NONE',(#494,#1003,#1510,#1800),#28);
#496=PRESENTATION_LAYER_ASSIGNMENT('0','None',(#486,#1002,#1509,#1792));
#497=CARTESIAN_POINT('',(-1.151970051016654,-1.205000000000001,0.030454248376692));
#498=CARTESIAN_POINT('',(-1.482671771671021,-1.205000000000002,-0.010150817183712));
#499=CARTESIAN_POINT('',(-1.151970051016655,-0.694999999999998,0.030454248376692));
#500=CARTESIAN_POINT('',(-1.482671771671022,-0.694999999999999,-0.010150817183712));
#501=B_SPLINE_SURFACE_WITH_KNOTS('',1,1,((#497,#499),(#498,#500)),.UNSPECIFIED.,.F.,.F.,.U.,(2,2),(2,2),(0.0,0.333185232855425),(0.0,0.510000000000003),.UNSPECIFIED.);
#502=CARTESIAN_POINT('',(-1.482671771671020,-1.205000000000001,-0.010150817183712));
#503=VERTEX_POINT('',#502);
#504=CARTESIAN_POINT('',(-1.151970051016656,-1.205000000000001,0.030454248376691));
#505=VERTEX_POINT('',#504);
#506=CARTESIAN_POINT('',(-1.482671771671020,-1.205000000000001,-0.010150817183712));
#507=DIRECTION('',(0.992546151641314,1.999290E-015,0.121869343405213));
#508=VECTOR('',#507,0.333185232855421);
#509=LINE('',#506,#508);
#510=EDGE_CURVE('',#503,#505,#509,.T.);
#511=ORIENTED_EDGE('',*,*,#510,.F.);
#512=CARTESIAN_POINT('',(-1.482671771671021,-0.694999999999999,-0.010150817183712));
#513=VERTEX_POINT('',#512);
#514=CARTESIAN_POINT('',(-1.482671771671021,-0.694999999999999,-0.010150817183712));
#515=DIRECTION('',(0.0,-1.0,0.0));
#516=VECTOR('',#515,0.510000000000002);
#517=LINE('',#514,#516);
#518=EDGE_CURVE('',#513,#503,#517,.T.);
#519=ORIENTED_EDGE('',*,*,#518,.F.);
#520=CARTESIAN_POINT('',(-1.151970051016656,-0.695000000000001,0.030454248376691));
#521=VERTEX_POINT('',#520);
#522=CARTESIAN_POINT('',(-1.151970051016656,-0.695000000000001,0.030454248376691));
#523=DIRECTION('',(-0.992546151641314,-1.999290E-015,-0.121869343405213));
#524=VECTOR('',#523,0.333185232855423);
#525=LINE('',#522,#524);
#526=EDGE_CURVE('',#521,#513,#525,.T.);
#527=ORIENTED_EDGE('',*,*,#526,.F.);
#528=CARTESIAN_POINT('',(-1.151970051016656,-0.695000000000001,0.030454248376691));
#529=DIRECTION('',(0.0,-1.0,0.0));
#530=VECTOR('',#529,0.510000000000000);
#531=LINE('',#528,#530);
#532=EDGE_CURVE('',#521,#505,#531,.T.);
#533=ORIENTED_EDGE('',*,*,#532,.T.);
#534=EDGE_LOOP('',(#511,#519,#527,#533));
#535=FACE_OUTER_BOUND('',#534,.T.);
#536=ADVANCED_FACE('',(#535),#501,.T.);
#537=CARTESIAN_POINT('',(-0.775000000000045,-0.695000000000000,0.520000000000001));
#538=DIRECTION('',(0.0,-1.0,0.0));
#539=DIRECTION('',(1.0,0.0,0.0));
#540=AXIS2_PLACEMENT_3D('',#537,#538,#539);
#541=PLANE('',#540);
#542=CARTESIAN_POINT('',(-0.700000000000045,-0.695000000000001,0.455000000000001));
#543=VERTEX_POINT('',#542);
#544=CARTESIAN_POINT('',(-0.850000000000045,-0.695000000000000,0.455000000000001));
#545=VERTEX_POINT('',#544);
#546=CARTESIAN_POINT('',(-0.700000000000045,-0.695000000000000,0.455000000000001));
#547=DIRECTION('',(-1.0,0.0,0.0));
#548=VECTOR('',#547,0.150000000000000);
#549=LINE('',#546,#548);
#550=EDGE_CURVE('',#543,#545,#549,.T.);
#551=ORIENTED_EDGE('',*,*,#550,.T.);
#552=CARTESIAN_POINT('',(-0.950000000000068,-0.695000000000001,0.354999999999960));
#553=VERTEX_POINT('',#552);
#554=CARTESIAN_POINT('',(-0.850000000000046,-0.695000000000000,0.354999999999991));
#555=DIRECTION('',(1.160015E-015,-1.0,-1.160015E-015));
#556=DIRECTION('',(-0.707106781186610,-1.640509E-015,0.707106781186485));
#557=AXIS2_PLACEMENT_3D('',#554,#555,#556);
#558=CIRCLE('',#557,0.100000000000011);
#559=EDGE_CURVE('',#545,#553,#558,.T.);
#560=ORIENTED_EDGE('',*,*,#559,.T.);
#561=CARTESIAN_POINT('',(-0.949999999999841,-0.695000000000001,0.258739863254301));
#562=VERTEX_POINT('',#561);
#563=CARTESIAN_POINT('',(-0.950000000000068,-0.695000000000001,0.354999999999960));
#564=DIRECTION('',(2.362075E-012,0.0,-1.0));
#565=VECTOR('',#564,0.096260136745659);
#566=LINE('',#563,#565);
#567=EDGE_CURVE('',#553,#562,#566,.T.);
#568=ORIENTED_EDGE('',*,*,#567,.T.);
#569=CARTESIAN_POINT('',(-1.179999999999802,-0.695000000000001,0.258739863254184));
#570=DIRECTION('',(-1.287028E-015,1.0,1.138666E-015));
#571=DIRECTION('',(0.748955720789156,1.718429E-015,-0.662620048215563));
#572=AXIS2_PLACEMENT_3D('',#569,#570,#571);
#573=CIRCLE('',#572,0.229999999999988);
#574=EDGE_CURVE('',#562,#521,#573,.T.);
#575=ORIENTED_EDGE('',*,*,#574,.T.);
#576=ORIENTED_EDGE('',*,*,#526,.T.);
#577=CARTESIAN_POINT('',(-1.498514786313791,-0.694999999999999,0.118880182529666));
#578=VERTEX_POINT('',#577);
#579=CARTESIAN_POINT('',(-1.482671771671021,-0.695000000000001,-0.010150817183712));
#580=DIRECTION('',(-0.121869343405907,-8.540177E-016,0.992546151641229));
#581=VECTOR('',#580,0.130000000000018);
#582=LINE('',#579,#581);
#583=EDGE_CURVE('',#513,#578,#582,.T.);
#584=ORIENTED_EDGE('',*,*,#583,.T.);
#585=CARTESIAN_POINT('',(-1.167813065659368,-0.695000000000001,0.159485248090044));
#586=VERTEX_POINT('',#585);
#587=CARTESIAN_POINT('',(-1.498514786313791,-0.695000000000001,0.118880182529666));
#588=DIRECTION('',(0.992546151641326,1.999290E-015,0.121869343405117));
#589=VECTOR('',#588,0.333185232855477);
#590=LINE('',#587,#589);
#591=EDGE_CURVE('',#578,#586,#590,.T.);
#592=ORIENTED_EDGE('',*,*,#591,.T.);
#593=CARTESIAN_POINT('',(-1.079999999999836,-0.695000000000001,0.258739863254230));
#594=VERTEX_POINT('',#593);
#595=CARTESIAN_POINT('',(-1.179999999999859,-0.695000000000001,0.258739863254204));
#596=DIRECTION('',(1.287028E-015,-1.0,-1.138666E-015));
#597=DIRECTION('',(0.748955720789008,1.718429E-015,-0.662620048215731));
#598=AXIS2_PLACEMENT_3D('',#595,#596,#597);
#599=CIRCLE('',#598,0.100000000000023);
#600=EDGE_CURVE('',#586,#594,#599,.T.);
#601=ORIENTED_EDGE('',*,*,#600,.T.);
#602=CARTESIAN_POINT('',(-1.080000000000064,-0.695000000000001,0.354999999999905));
#603=VERTEX_POINT('',#602);
#604=CARTESIAN_POINT('',(-1.079999999999836,-0.695000000000001,0.258739863254230));
#605=DIRECTION('',(-2.362075E-012,0.0,1.0));
#606=VECTOR('',#605,0.096260136745675);
#607=LINE('',#604,#606);
#608=EDGE_CURVE('',#594,#603,#607,.T.);
#609=ORIENTED_EDGE('',*,*,#608,.T.);
#610=CARTESIAN_POINT('',(-0.850000000000045,-0.695000000000000,0.585000000000002));
#611=VERTEX_POINT('',#610);
#612=CARTESIAN_POINT('',(-0.850000000000046,-0.695000000000000,0.354999999999992));
#613=DIRECTION('',(-1.160015E-015,1.0,1.160015E-015));
#614=DIRECTION('',(-0.707106781186668,-1.640509E-015,0.707106781186427));
#615=AXIS2_PLACEMENT_3D('',#612,#613,#614);
#616=CIRCLE('',#615,0.230000000000010);
#617=EDGE_CURVE('',#603,#611,#616,.T.);
#618=ORIENTED_EDGE('',*,*,#617,.T.);
#619=CARTESIAN_POINT('',(-0.700000000000045,-0.695000000000001,0.585000000000002));
#620=VERTEX_POINT('',#619);
#621=CARTESIAN_POINT('',(-0.700000000000045,-0.695000000000000,0.585000000000002));
#622=DIRECTION('',(-1.0,0.0,0.0));
#623=VECTOR('',#622,0.150000000000000);
#624=LINE('',#621,#623);
#625=EDGE_CURVE('',#620,#611,#624,.T.);
#626=ORIENTED_EDGE('',*,*,#625,.F.);
#627=CARTESIAN_POINT('',(-0.700000000000045,-0.695000000000001,0.455000000000001));
#628=DIRECTION('',(0.0,0.0,1.0));
#629=VECTOR('',#628,0.130000000000001);
#630=LINE('',#627,#629);
#631=EDGE_CURVE('',#543,#620,#630,.T.);
#632=ORIENTED_EDGE('',*,*,#631,.F.);
#633=EDGE_LOOP('',(#551,#560,#568,#575,#576,#584,#592,#601,#609,#618,#626,#632));
#634=FACE_OUTER_BOUND('',#633,.T.);
#635=ADVANCED_FACE('',(#634),#541,.F.);
#636=CARTESIAN_POINT('',(-1.498514786313791,-1.205000000000002,0.118880182529666));
#637=CARTESIAN_POINT('',(-1.167813065659366,-1.205000000000001,0.159485248090044));
#638=CARTESIAN_POINT('',(-1.498514786313792,-0.694999999999999,0.118880182529666));
#639=CARTESIAN_POINT('',(-1.167813065659367,-0.694999999999998,0.159485248090044));
#640=B_SPLINE_SURFACE_WITH_KNOTS('',1,1,((#636,#638),(#637,#639)),.UNSPECIFIED.,.F.,.F.,.U.,(2,2),(2,2),(0.0,0.333185232855479),(0.0,0.510000000000003),.UNSPECIFIED.);
#641=CARTESIAN_POINT('',(-1.167813065659368,-1.205000000000001,0.159485248090044));
#642=VERTEX_POINT('',#641);
#643=CARTESIAN_POINT('',(-1.498514786313791,-1.205000000000001,0.118880182529666));
#644=VERTEX_POINT('',#643);
#645=CARTESIAN_POINT('',(-1.167813065659368,-1.205000000000001,0.159485248090044));
#646=DIRECTION('',(-0.992546151641326,-1.999290E-015,-0.121869343405117));
#647=VECTOR('',#646,0.333185232855477);
#648=LINE('',#645,#647);
#649=EDGE_CURVE('',#642,#644,#648,.T.);
#650=ORIENTED_EDGE('',*,*,#649,.F.);
#651=CARTESIAN_POINT('',(-1.167813065659368,-0.695000000000001,0.159485248090044));
#652=DIRECTION('',(0.0,-1.0,0.0));
#653=VECTOR('',#652,0.510000000000000);
#654=LINE('',#651,#653);
#655=EDGE_CURVE('',#586,#642,#654,.T.);
#656=ORIENTED_EDGE('',*,*,#655,.F.);
#657=ORIENTED_EDGE('',*,*,#591,.F.);
#658=CARTESIAN_POINT('',(-1.498514786313790,-1.205000000000001,0.118880182529666));
#659=DIRECTION('',(0.0,1.0,0.0));
#660=VECTOR('',#659,0.510000000000002);
#661=LINE('',#658,#660);
#662=EDGE_CURVE('',#578,#644,#661,.F.);
#663=ORIENTED_EDGE('',*,*,#662,.T.);
#664=EDGE_LOOP('',(#650,#656,#657,#663));
#665=FACE_OUTER_BOUND('',#664,.T.);
#666=ADVANCED_FACE('',(#665),#640,.T.);
#667=CARTESIAN_POINT('',(-1.482671771671020,-1.205000000000001,-0.010150817183712));
#668=CARTESIAN_POINT('',(-1.498514786313790,-1.205000000000001,0.118880182529666));
#669=CARTESIAN_POINT('',(-1.482671771671021,-0.694999999999999,-0.010150817183712));
#670=CARTESIAN_POINT('',(-1.498514786313791,-0.694999999999999,0.118880182529666));
#671=B_SPLINE_SURFACE_WITH_KNOTS('',1,1,((#667,#669),(#668,#670)),.UNSPECIFIED.,.F.,.F.,.U.,(2,2),(2,2),(0.0,0.130000000000019),(0.0,0.510000000000002),.UNSPECIFIED.);
#672=CARTESIAN_POINT('',(-1.498514786313791,-1.205000000000001,0.118880182529666));
#673=DIRECTION('',(0.121869343405907,0.0,-0.992546151641229));
#674=VECTOR('',#673,0.130000000000018);
#675=LINE('',#672,#674);
#676=EDGE_CURVE('',#644,#503,#675,.T.);
#677=ORIENTED_EDGE('',*,*,#676,.F.);
#678=ORIENTED_EDGE('',*,*,#662,.F.);
#679=ORIENTED_EDGE('',*,*,#583,.F.);
#680=ORIENTED_EDGE('',*,*,#518,.T.);
#681=EDGE_LOOP('',(#677,#678,#679,#680));
#682=FACE_OUTER_BOUND('',#681,.T.);
#683=ADVANCED_FACE('',(#682),#671,.T.);
#684=CARTESIAN_POINT('',(-0.775000000000046,-1.205000000000000,0.520000000000002));
#685=DIRECTION('',(0.0,1.0,0.0));
#686=DIRECTION('',(-1.0,0.0,0.0));
#687=AXIS2_PLACEMENT_3D('',#684,#685,#686);
#688=PLANE('',#687);
#689=CARTESIAN_POINT('',(-0.700000000000046,-1.205000000000001,0.585000000000002));
#690=VERTEX_POINT('',#689);
#691=CARTESIAN_POINT('',(-0.850000000000046,-1.205000000000000,0.585000000000002));
#692=VERTEX_POINT('',#691);
#693=CARTESIAN_POINT('',(-0.700000000000046,-1.205000000000001,0.585000000000002));
#694=DIRECTION('',(-1.0,0.0,0.0));
#695=VECTOR('',#694,0.150000000000000);
#696=LINE('',#693,#695);
#697=EDGE_CURVE('',#690,#692,#696,.T.);
#698=ORIENTED_EDGE('',*,*,#697,.T.);
#699=CARTESIAN_POINT('',(-1.080000000000064,-1.205000000000001,0.354999999999905));
#700=VERTEX_POINT('',#699);
#701=CARTESIAN_POINT('',(-0.850000000000046,-1.205000000000000,0.354999999999992));
#702=DIRECTION('',(1.160015E-015,-1.0,-1.160015E-015));
#703=DIRECTION('',(-0.707106781186668,-1.640509E-015,0.707106781186427));
#704=AXIS2_PLACEMENT_3D('',#701,#702,#703);
#705=CIRCLE('',#704,0.230000000000010);
#706=EDGE_CURVE('',#692,#700,#705,.T.);
#707=ORIENTED_EDGE('',*,*,#706,.T.);
#708=CARTESIAN_POINT('',(-1.079999999999836,-1.205000000000001,0.258739863254230));
#709=VERTEX_POINT('',#708);
#710=CARTESIAN_POINT('',(-1.080000000000064,-1.205000000000001,0.354999999999905));
#711=DIRECTION('',(2.362075E-012,0.0,-1.0));
#712=VECTOR('',#711,0.096260136745675);
#713=LINE('',#710,#712);
#714=EDGE_CURVE('',#700,#709,#713,.T.);
#715=ORIENTED_EDGE('',*,*,#714,.T.);
#716=CARTESIAN_POINT('',(-1.179999999999859,-1.205000000000001,0.258739863254204));
#717=DIRECTION('',(-1.287028E-015,1.0,1.138666E-015));
#718=DIRECTION('',(0.748955720789008,1.718429E-015,-0.662620048215731));
#719=AXIS2_PLACEMENT_3D('',#716,#717,#718);
#720=CIRCLE('',#719,0.100000000000023);
#721=EDGE_CURVE('',#709,#642,#720,.T.);
#722=ORIENTED_EDGE('',*,*,#721,.T.);
#723=ORIENTED_EDGE('',*,*,#649,.T.);
#724=ORIENTED_EDGE('',*,*,#676,.T.);
#725=ORIENTED_EDGE('',*,*,#510,.T.);
#726=CARTESIAN_POINT('',(-0.949999999999841,-1.205000000000001,0.258739863254301));
#727=VERTEX_POINT('',#726);
#728=CARTESIAN_POINT('',(-1.179999999999802,-1.205000000000001,0.258739863254184));
#729=DIRECTION('',(1.287028E-015,-1.0,-1.138666E-015));
#730=DIRECTION('',(0.748955720789156,1.718429E-015,-0.662620048215563));
#731=AXIS2_PLACEMENT_3D('',#728,#729,#730);
#732=CIRCLE('',#731,0.229999999999988);
#733=EDGE_CURVE('',#505,#727,#732,.T.);
#734=ORIENTED_EDGE('',*,*,#733,.T.);
#735=CARTESIAN_POINT('',(-0.950000000000068,-1.205000000000001,0.354999999999960));
#736=VERTEX_POINT('',#735);
#737=CARTESIAN_POINT('',(-0.949999999999841,-1.205000000000001,0.258739863254301));
#738=DIRECTION('',(-2.362075E-012,0.0,1.0));
#739=VECTOR('',#738,0.096260136745659);
#740=LINE('',#737,#739);
#741=EDGE_CURVE('',#727,#736,#740,.T.);
#742=ORIENTED_EDGE('',*,*,#741,.T.);
#743=CARTESIAN_POINT('',(-0.850000000000046,-1.205000000000000,0.455000000000001));
#744=VERTEX_POINT('',#743);
#745=CARTESIAN_POINT('',(-0.850000000000046,-1.205000000000000,0.354999999999991));
#746=DIRECTION('',(-1.160015E-015,1.0,1.160015E-015));
#747=DIRECTION('',(-0.707106781186610,-1.640509E-015,0.707106781186485));
#748=AXIS2_PLACEMENT_3D('',#745,#746,#747);
#749=CIRCLE('',#748,0.100000000000011);
#750=EDGE_CURVE('',#736,#744,#749,.T.);
#751=ORIENTED_EDGE('',*,*,#750,.T.);
#752=CARTESIAN_POINT('',(-0.700000000000046,-1.205000000000001,0.455000000000001));
#753=VERTEX_POINT('',#752);
#754=CARTESIAN_POINT('',(-0.700000000000046,-1.205000000000001,0.455000000000001));
#755=DIRECTION('',(-1.0,0.0,0.0));
#756=VECTOR('',#755,0.150000000000000);
#757=LINE('',#754,#756);
#758=EDGE_CURVE('',#753,#744,#757,.T.);
#759=ORIENTED_EDGE('',*,*,#758,.F.);
#760=CARTESIAN_POINT('',(-0.700000000000046,-1.205000000000001,0.585000000000002));
#761=DIRECTION('',(0.0,0.0,-1.0));
#762=VECTOR('',#761,0.130000000000001);
#763=LINE('',#760,#762);
#764=EDGE_CURVE('',#690,#753,#763,.T.);
#765=ORIENTED_EDGE('',*,*,#764,.F.);
#766=EDGE_LOOP('',(#698,#707,#715,#722,#723,#724,#725,#734,#742,#751,#759,#765));
#767=FACE_OUTER_BOUND('',#766,.T.);
#768=ADVANCED_FACE('',(#767),#688,.F.);
#769=CARTESIAN_POINT('',(-0.950000000000067,-1.205000000000001,0.354999999999960));
#770=CARTESIAN_POINT('',(-0.949999999999840,-1.205000000000001,0.258739863254301));
#771=CARTESIAN_POINT('',(-0.950000000000068,-0.695000000000001,0.354999999999960));
#772=CARTESIAN_POINT('',(-0.949999999999841,-0.695000000000001,0.258739863254301));
#773=B_SPLINE_SURFACE_WITH_KNOTS('',1,1,((#769,#771),(#770,#772)),.UNSPECIFIED.,.F.,.F.,.U.,(2,2),(2,2),(0.0,0.096260136745659),(0.0,0.510000000000000),.UNSPECIFIED.);
#774=ORIENTED_EDGE('',*,*,#741,.F.);
#775=CARTESIAN_POINT('',(-0.949999999999841,-0.695000000000001,0.258739863254301));
#776=DIRECTION('',(0.0,-1.0,0.0));
#777=VECTOR('',#776,0.510000000000000);
#778=LINE('',#775,#777);
#779=EDGE_CURVE('',#562,#727,#778,.T.);
#780=ORIENTED_EDGE('',*,*,#779,.F.);
#781=ORIENTED_EDGE('',*,*,#567,.F.);
#782=CARTESIAN_POINT('',(-0.950000000000068,-0.695000000000001,0.354999999999960));
#783=DIRECTION('',(0.0,-1.0,0.0));
#784=VECTOR('',#783,0.510000000000000);
#785=LINE('',#782,#784);
#786=EDGE_CURVE('',#553,#736,#785,.T.);
#787=ORIENTED_EDGE('',*,*,#786,.T.);
#788=EDGE_LOOP('',(#774,#780,#781,#787));
#789=FACE_OUTER_BOUND('',#788,.T.);
#790=ADVANCED_FACE('',(#789),#773,.T.);
#791=CARTESIAN_POINT('',(-0.779289321881376,-1.205000000000001,0.284289321881334));
#792=CARTESIAN_POINT('',(-0.779289321881377,-0.695000000000000,0.284289321881334));
#793=CARTESIAN_POINT('',(-0.850000000000032,-1.205000000000001,0.213578643762666));
#794=CARTESIAN_POINT('',(-0.850000000000033,-0.695000000000000,0.213578643762666));
#795=CARTESIAN_POINT('',(-0.920710678118701,-1.205000000000001,0.284289321881322));
#796=CARTESIAN_POINT('',(-0.920710678118702,-0.695000000000000,0.284289321881322));
#797=CARTESIAN_POINT('',(-0.991421356237369,-1.205000000000001,0.354999999999978));
#798=CARTESIAN_POINT('',(-0.991421356237370,-0.695000000000000,0.354999999999978));
#799=CARTESIAN_POINT('',(-0.920710678118713,-1.205000000000001,0.425710678118647));
#800=CARTESIAN_POINT('',(-0.920710678118714,-0.695000000000000,0.425710678118647));
#801=CARTESIAN_POINT('',(-0.850000000000057,-1.205000000000000,0.496421356237316));
#802=CARTESIAN_POINT('',(-0.850000000000058,-0.695000000000000,0.496421356237316));
#803=CARTESIAN_POINT('',(-0.779289321881388,-1.205000000000000,0.425710678118659));
#804=CARTESIAN_POINT('',(-0.779289321881389,-0.695000000000000,0.425710678118659));
#805=CARTESIAN_POINT('',(-0.708578643762720,-1.205000000000000,0.355000000000003));
#806=CARTESIAN_POINT('',(-0.708578643762721,-0.695000000000000,0.355000000000003));
#807=CARTESIAN_POINT('',(-0.779289321881376,-1.205000000000001,0.284289321881334));
#808=CARTESIAN_POINT('',(-0.779289321881377,-0.695000000000000,0.284289321881334));
#816=(BOUNDED_SURFACE()B_SPLINE_SURFACE(1,2,((#791,#793,#795,#797,#799,#801,#803,#805,#807),(#792,#794,#796,#798,#800,#802,#804,#806,#808)),.UNSPECIFIED.,.F.,.T.,.U.)B_SPLINE_SURFACE_WITH_KNOTS((2,2),(3,2,2,2,3),(-5.099999999999450,1.776357E-015),(0.0,0.157079632679507,0.314159265359013,0.471238898038520,0.628318530718027),.UNSPECIFIED.)GEOMETRIC_REPRESENTATION_ITEM()RATIONAL_B_SPLINE_SURFACE(((1.0,0.707106781186548,1.0,0.707106781186548,1.0,0.707106781186548,1.0,0.707106781186548,1.0),(1.0,0.707106781186548,1.0,0.707106781186548,1.0,0.707106781186548,1.0,0.707106781186548,1.0)))REPRESENTATION_ITEM('')SURFACE());
#817=ORIENTED_EDGE('',*,*,#750,.F.);
#818=ORIENTED_EDGE('',*,*,#786,.F.);
#819=ORIENTED_EDGE('',*,*,#559,.F.);
#820=CARTESIAN_POINT('',(-0.850000000000045,-0.695000000000000,0.455000000000001));
#821=DIRECTION('',(0.0,-1.0,0.0));
#822=VECTOR('',#821,0.510000000000000);
#823=LINE('',#820,#822);
#824=EDGE_CURVE('',#545,#744,#823,.T.);
#825=ORIENTED_EDGE('',*,*,#824,.T.);
#826=EDGE_LOOP('',(#817,#818,#819,#825));
#827=FACE_OUTER_BOUND('',#826,.T.);
#828=ADVANCED_FACE('',(#827),#816,.T.);
#829=CARTESIAN_POINT('',(-0.687365440327105,-0.694999999999999,0.192365440327107));
#830=CARTESIAN_POINT('',(-0.687365440327104,-1.205000000000001,0.192365440327107));
#831=CARTESIAN_POINT('',(-0.849999999999990,-0.695000000000000,0.029730880654167));
#832=CARTESIAN_POINT('',(-0.849999999999989,-1.205000000000001,0.029730880654167));
#833=CARTESIAN_POINT('',(-1.012634559672931,-0.695000000000000,0.192365440327052));
#834=CARTESIAN_POINT('',(-1.012634559672930,-1.205000000000001,0.192365440327052));
#835=CARTESIAN_POINT('',(-1.175269119345871,-0.695000000000000,0.354999999999937));
#836=CARTESIAN_POINT('',(-1.175269119345870,-1.205000000000002,0.354999999999937));
#837=CARTESIAN_POINT('',(-1.012634559672986,-0.695000000000000,0.517634559672878));
#838=CARTESIAN_POINT('',(-1.012634559672985,-1.205000000000001,0.517634559672878));
#839=CARTESIAN_POINT('',(-0.850000000000101,-0.695000000000000,0.680269119345818));
#840=CARTESIAN_POINT('',(-0.850000000000100,-1.205000000000001,0.680269119345818));
#841=CARTESIAN_POINT('',(-0.687365440327161,-0.694999999999999,0.517634559672933));
#842=CARTESIAN_POINT('',(-0.687365440327159,-1.205000000000001,0.517634559672933));
#843=CARTESIAN_POINT('',(-0.524730880654220,-0.694999999999999,0.355000000000048));
#844=CARTESIAN_POINT('',(-0.524730880654219,-1.205000000000000,0.355000000000048));
#845=CARTESIAN_POINT('',(-0.687365440327105,-0.694999999999999,0.192365440327107));
#846=CARTESIAN_POINT('',(-0.687365440327104,-1.205000000000001,0.192365440327107));
#854=(BOUNDED_SURFACE()B_SPLINE_SURFACE(1,2,((#829,#831,#833,#835,#837,#839,#841,#843,#845),(#830,#832,#834,#836,#838,#840,#842,#844,#846)),.UNSPECIFIED.,.F.,.T.,.U.)B_SPLINE_SURFACE_WITH_KNOTS((2,2),(3,2,2,2,3),(-1.930823E-015,2.217391304347737),(0.0,0.361283155162841,0.722566310325682,1.083849465488523,1.445132620651365),.UNSPECIFIED.)GEOMETRIC_REPRESENTATION_ITEM()RATIONAL_B_SPLINE_SURFACE(((1.0,0.707106781186548,1.0,0.707106781186548,1.0,0.707106781186548,1.0,0.707106781186548,1.0),(1.0,0.707106781186548,1.0,0.707106781186548,1.0,0.707106781186548,1.0,0.707106781186548,1.0)))REPRESENTATION_ITEM('')SURFACE());
#855=ORIENTED_EDGE('',*,*,#706,.F.);
#856=CARTESIAN_POINT('',(-0.850000000000046,-1.205000000000000,0.585000000000002));
#857=DIRECTION('',(0.0,1.0,0.0));
#858=VECTOR('',#857,0.510000000000000);
#859=LINE('',#856,#858);
#860=EDGE_CURVE('',#692,#611,#859,.T.);
#861=ORIENTED_EDGE('',*,*,#860,.T.);
#862=ORIENTED_EDGE('',*,*,#617,.F.);
#863=CARTESIAN_POINT('',(-1.080000000000064,-0.695000000000001,0.354999999999905));
#864=DIRECTION('',(0.0,-1.0,0.0));
#865=VECTOR('',#864,0.510000000000000);
#866=LINE('',#863,#865);
#867=EDGE_CURVE('',#603,#700,#866,.T.);
#868=ORIENTED_EDGE('',*,*,#867,.T.);
#869=EDGE_LOOP('',(#855,#861,#862,#868));
#870=FACE_OUTER_BOUND('',#869,.T.);
#871=ADVANCED_FACE('',(#870),#854,.T.);
#872=CARTESIAN_POINT('',(-1.079999999999835,-1.205000000000001,0.258739863254230));
#873=CARTESIAN_POINT('',(-1.080000000000063,-1.205000000000001,0.354999999999905));
#874=CARTESIAN_POINT('',(-1.079999999999836,-0.695000000000001,0.258739863254230));
#875=CARTESIAN_POINT('',(-1.080000000000064,-0.695000000000001,0.354999999999905));
#876=B_SPLINE_SURFACE_WITH_KNOTS('',1,1,((#872,#874),(#873,#875)),.UNSPECIFIED.,.F.,.F.,.U.,(2,2),(2,2),(0.0,0.096260136745675),(0.0,0.510000000000000),.UNSPECIFIED.);
#877=ORIENTED_EDGE('',*,*,#714,.F.);
#878=ORIENTED_EDGE('',*,*,#867,.F.);
#879=ORIENTED_EDGE('',*,*,#608,.F.);
#880=CARTESIAN_POINT('',(-1.079999999999836,-0.695000000000001,0.258739863254230));
#881=DIRECTION('',(0.0,-1.0,0.0));
#882=VECTOR('',#881,0.510000000000000);
#883=LINE('',#880,#882);
#884=EDGE_CURVE('',#594,#709,#883,.T.);
#885=ORIENTED_EDGE('',*,*,#884,.T.);
#886=EDGE_LOOP('',(#877,#878,#879,#885));
#887=FACE_OUTER_BOUND('',#886,.T.);
#888=ADVANCED_FACE('',(#887),#876,.T.);
#889=CARTESIAN_POINT('',(-1.254895572078776,-1.205000000000001,0.325001868075792));
#890=CARTESIAN_POINT('',(-1.254895572078777,-0.695000000000001,0.325001868075792));
#891=CARTESIAN_POINT('',(-1.188633567257188,-1.205000000000001,0.399897440154710));
#892=CARTESIAN_POINT('',(-1.188633567257189,-0.695000000000001,0.399897440154710));
#893=CARTESIAN_POINT('',(-1.113737995178270,-1.205000000000001,0.333635435333121));
#894=CARTESIAN_POINT('',(-1.113737995178271,-0.695000000000001,0.333635435333121));
#895=CARTESIAN_POINT('',(-1.038842423099352,-1.205000000000001,0.267373430511533));
#896=CARTESIAN_POINT('',(-1.038842423099353,-0.695000000000000,0.267373430511533));
#897=CARTESIAN_POINT('',(-1.105104427920940,-1.205000000000001,0.192477858432615));
#898=CARTESIAN_POINT('',(-1.105104427920941,-0.695000000000001,0.192477858432615));
#899=CARTESIAN_POINT('',(-1.171366432742528,-1.205000000000001,0.117582286353697));
#900=CARTESIAN_POINT('',(-1.171366432742529,-0.695000000000001,0.117582286353697));
#901=CARTESIAN_POINT('',(-1.246262004821446,-1.205000000000001,0.183844291175286));
#902=CARTESIAN_POINT('',(-1.246262004821447,-0.695000000000001,0.183844291175286));
#903=CARTESIAN_POINT('',(-1.321157576900364,-1.205000000000001,0.250106295996874));
#904=CARTESIAN_POINT('',(-1.321157576900365,-0.695000000000001,0.250106295996874));
#905=CARTESIAN_POINT('',(-1.254895572078776,-1.205000000000001,0.325001868075792));
#906=CARTESIAN_POINT('',(-1.254895572078777,-0.695000000000001,0.325001868075792));
#914=(BOUNDED_SURFACE()B_SPLINE_SURFACE(1,2,((#889,#891,#893,#895,#897,#899,#901,#903,#905),(#890,#892,#894,#896,#898,#900,#902,#904,#906)),.UNSPECIFIED.,.F.,.T.,.U.)B_SPLINE_SURFACE_WITH_KNOTS((2,2),(3,2,2,2,3),(-5.099999999998829,4.440892E-015),(0.0,0.157079632679526,0.314159265359051,0.471238898038577,0.628318530718103),.UNSPECIFIED.)GEOMETRIC_REPRESENTATION_ITEM()RATIONAL_B_SPLINE_SURFACE(((1.0,0.707106781186548,1.0,0.707106781186548,1.0,0.707106781186548,1.0,0.707106781186548,1.0),(1.0,0.707106781186548,1.0,0.707106781186548,1.0,0.707106781186548,1.0,0.707106781186548,1.0)))REPRESENTATION_ITEM('')SURFACE());
#915=ORIENTED_EDGE('',*,*,#721,.F.);
#916=ORIENTED_EDGE('',*,*,#884,.F.);
#917=ORIENTED_EDGE('',*,*,#600,.F.);
#918=ORIENTED_EDGE('',*,*,#655,.T.);
#919=EDGE_LOOP('',(#915,#916,#917,#918));
#920=FACE_OUTER_BOUND('',#919,.T.);
#921=ADVANCED_FACE('',(#920),#914,.T.);
#922=CARTESIAN_POINT('',(-1.352259815781299,-0.695000000000001,0.411142474343756));
#923=CARTESIAN_POINT('',(-1.352259815781298,-1.205000000000001,0.411142474343756));
#924=CARTESIAN_POINT('',(-1.199857204691728,-0.695000000000001,0.583402290125253));
#925=CARTESIAN_POINT('',(-1.199857204691726,-1.205000000000001,0.583402290125253));
#926=CARTESIAN_POINT('',(-1.027597388910230,-0.695000000000000,0.430999679035681));
#927=CARTESIAN_POINT('',(-1.027597388910229,-1.205000000000001,0.430999679035681));
#928=CARTESIAN_POINT('',(-0.855337573128733,-0.695000000000000,0.278597067946109));
#929=CARTESIAN_POINT('',(-0.855337573128732,-1.205000000000000,0.278597067946109));
#930=CARTESIAN_POINT('',(-1.007740184218305,-0.695000000000000,0.106337252164612));
#931=CARTESIAN_POINT('',(-1.007740184218304,-1.205000000000001,0.106337252164612));
#932=CARTESIAN_POINT('',(-1.160142795307877,-0.695000000000001,-0.065922563616885));
#933=CARTESIAN_POINT('',(-1.160142795307876,-1.205000000000001,-0.065922563616885));
#934=CARTESIAN_POINT('',(-1.332402611089374,-0.695000000000001,0.086480047472687));
#935=CARTESIAN_POINT('',(-1.332402611089373,-1.205000000000001,0.086480047472687));
#936=CARTESIAN_POINT('',(-1.504662426870870,-0.695000000000001,0.238882658562259));
#937=CARTESIAN_POINT('',(-1.504662426870870,-1.205000000000002,0.238882658562259));
#938=CARTESIAN_POINT('',(-1.352259815781299,-0.695000000000001,0.411142474343756));
#939=CARTESIAN_POINT('',(-1.352259815781298,-1.205000000000001,0.411142474343756));
#947=(BOUNDED_SURFACE()B_SPLINE_SURFACE(1,2,((#922,#924,#926,#928,#930,#932,#934,#936,#938),(#923,#925,#927,#929,#931,#933,#935,#937,#939)),.UNSPECIFIED.,.F.,.T.,.U.)B_SPLINE_SURFACE_WITH_KNOTS((2,2),(3,2,2,2,3),(-2.413528E-015,2.217391304347942),(0.0,0.361283155162807,0.722566310325615,1.083849465488422,1.445132620651230),.UNSPECIFIED.)GEOMETRIC_REPRESENTATION_ITEM()RATIONAL_B_SPLINE_SURFACE(((1.0,0.707106781186548,1.0,0.707106781186548,1.0,0.707106781186548,1.0,0.707106781186548,1.0),(1.0,0.707106781186548,1.0,0.707106781186548,1.0,0.707106781186548,1.0,0.707106781186548,1.0)))REPRESENTATION_ITEM('')SURFACE());
#948=ORIENTED_EDGE('',*,*,#733,.F.);
#949=ORIENTED_EDGE('',*,*,#532,.F.);
#950=ORIENTED_EDGE('',*,*,#574,.F.);
#951=ORIENTED_EDGE('',*,*,#779,.T.);
#952=EDGE_LOOP('',(#948,#949,#950,#951));
#953=FACE_OUTER_BOUND('',#952,.T.);
#954=ADVANCED_FACE('',(#953),#947,.T.);
#955=CARTESIAN_POINT('',(-0.700000000000045,-0.950000000000000,0.520000000000001));
#956=DIRECTION('',(1.0,0.0,0.0));
#957=DIRECTION('',(0.0,1.0,0.0));
#958=AXIS2_PLACEMENT_3D('',#955,#956,#957);
#959=PLANE('',#958);
#960=ORIENTED_EDGE('',*,*,#631,.T.);
#961=CARTESIAN_POINT('',(-0.700000000000045,-0.695000000000001,0.585000000000002));
#962=DIRECTION('',(0.0,-1.0,0.0));
#963=VECTOR('',#962,0.510000000000000);
#964=LINE('',#961,#963);
#965=EDGE_CURVE('',#620,#690,#964,.T.);
#966=ORIENTED_EDGE('',*,*,#965,.T.);
#967=ORIENTED_EDGE('',*,*,#764,.T.);
#968=CARTESIAN_POINT('',(-0.700000000000046,-1.205000000000001,0.455000000000001));
#969=DIRECTION('',(0.0,1.0,0.0));
#970=VECTOR('',#969,0.510000000000000);
#971=LINE('',#968,#970);
#972=EDGE_CURVE('',#753,#543,#971,.T.);
#973=ORIENTED_EDGE('',*,*,#972,.T.);
#974=EDGE_LOOP('',(#960,#966,#967,#973));
#975=FACE_OUTER_BOUND('',#974,.T.);
#976=ADVANCED_FACE('',(#975),#959,.T.);
#977=CARTESIAN_POINT('',(-0.775000000000045,-0.950000000000000,0.455000000000001));
#978=DIRECTION('',(0.0,0.0,1.0));
#979=DIRECTION('',(1.0,0.0,0.0));
#980=AXIS2_PLACEMENT_3D('',#977,#978,#979);
#981=PLANE('',#980);
#982=ORIENTED_EDGE('',*,*,#758,.T.);
#983=ORIENTED_EDGE('',*,*,#824,.F.);
#984=ORIENTED_EDGE('',*,*,#550,.F.);
#985=ORIENTED_EDGE('',*,*,#972,.F.);
#986=EDGE_LOOP('',(#982,#983,#984,#985));
#987=FACE_OUTER_BOUND('',#986,.T.);
#988=ADVANCED_FACE('',(#987),#981,.F.);
#989=CARTESIAN_POINT('',(-0.775000000000045,-0.950000000000000,0.585000000000002));
#990=DIRECTION('',(0.0,0.0,-1.0));
#991=DIRECTION('',(-1.0,0.0,0.0));
#992=AXIS2_PLACEMENT_3D('',#989,#990,#991);
#993=PLANE('',#992);
#994=ORIENTED_EDGE('',*,*,#625,.T.);
#995=ORIENTED_EDGE('',*,*,#860,.F.);
#996=ORIENTED_EDGE('',*,*,#697,.F.);
#997=ORIENTED_EDGE('',*,*,#965,.F.);
#998=EDGE_LOOP('',(#994,#995,#996,#997));
#999=FACE_OUTER_BOUND('',#998,.T.);
#1000=ADVANCED_FACE('',(#999),#993,.F.);
#1001=CLOSED_SHELL('',(#536,#635,#666,#683,#768,#790,#828,#871,#888,#921,#954,#976,#988,#1000));
#1002=MANIFOLD_SOLID_BREP('153',#1001);
#1003=STYLED_ITEM('NONE',(#493),#1002);
#1004=CARTESIAN_POINT('',(-1.254895572078776,0.694999999999998,0.325001868075792));
#1005=CARTESIAN_POINT('',(-1.254895572078777,1.205000000000000,0.325001868075792));
#1006=CARTESIAN_POINT('',(-1.188633567257187,0.694999999999998,0.399897440154710));
#1007=CARTESIAN_POINT('',(-1.188633567257188,1.205000000000000,0.399897440154710));
#1008=CARTESIAN_POINT('',(-1.113737995178269,0.694999999999999,0.333635435333121));
#1009=CARTESIAN_POINT('',(-1.113737995178270,1.205000000000000,0.333635435333121));
#1010=CARTESIAN_POINT('',(-1.038842423099351,0.694999999999999,0.267373430511533));
#1011=CARTESIAN_POINT('',(-1.038842423099353,1.205000000000000,0.267373430511533));
#1012=CARTESIAN_POINT('',(-1.105104427920940,0.694999999999999,0.192477858432615));
#1013=CARTESIAN_POINT('',(-1.105104427920941,1.205000000000000,0.192477858432615));
#1014=CARTESIAN_POINT('',(-1.171366432742528,0.694999999999998,0.117582286353697));
#1015=CARTESIAN_POINT('',(-1.171366432742529,1.205000000000000,0.117582286353697));
#1016=CARTESIAN_POINT('',(-1.246262004821446,0.694999999999998,0.183844291175286));
#1017=CARTESIAN_POINT('',(-1.246262004821447,1.205000000000000,0.183844291175286));
#1018=CARTESIAN_POINT('',(-1.321157576900364,0.694999999999998,0.250106295996874));
#1019=CARTESIAN_POINT('',(-1.321157576900365,1.204999999999999,0.250106295996874));
#1020=CARTESIAN_POINT('',(-1.254895572078776,0.694999999999998,0.325001868075792));
#1021=CARTESIAN_POINT('',(-1.254895572078777,1.205000000000000,0.325001868075792));
#1029=(BOUNDED_SURFACE()B_SPLINE_SURFACE(1,2,((#1004,#1006,#1008,#1010,#1012,#1014,#1016,#1018,#1020),(#1005,#1007,#1009,#1011,#1013,#1015,#1017,#1019,#1021)),.UNSPECIFIED.,.F.,.T.,.U.)B_SPLINE_SURFACE_WITH_KNOTS((2,2),(3,2,2,2,3),(-5.099999999998834,8.881784E-015),(0.0,0.157079632679526,0.314159265359051,0.471238898038577,0.628318530718103),.UNSPECIFIED.)GEOMETRIC_REPRESENTATION_ITEM()RATIONAL_B_SPLINE_SURFACE(((1.0,0.707106781186548,1.0,0.707106781186548,1.0,0.707106781186548,1.0,0.707106781186548,1.0),(1.0,0.707106781186548,1.0,0.707106781186548,1.0,0.707106781186548,1.0,0.707106781186548,1.0)))REPRESENTATION_ITEM('')SURFACE());
#1030=CARTESIAN_POINT('',(-1.079999999999836,0.694999999999999,0.258739863254230));
#1031=VERTEX_POINT('',#1030);
#1032=CARTESIAN_POINT('',(-1.216783760872275,0.695000000000000,0.165750858871506));
#1033=VERTEX_POINT('',#1032);
#1034=CARTESIAN_POINT('',(-1.179999999999859,0.694999999999999,0.258739863254204));
#1035=DIRECTION('',(-1.287028E-015,1.0,1.138666E-015));
#1036=DIRECTION('',(0.748955720789008,1.718429E-015,-0.662620048215731));
#1037=AXIS2_PLACEMENT_3D('',#1034,#1035,#1036);
#1038=CIRCLE('',#1037,0.100000000000023);
#1039=EDGE_CURVE('',#1031,#1033,#1038,.T.);
#1040=ORIENTED_EDGE('',*,*,#1039,.F.);
#1041=CARTESIAN_POINT('',(-1.079999999999836,1.204999999999999,0.258739863254230));
#1042=VERTEX_POINT('',#1041);
#1043=CARTESIAN_POINT('',(-1.079999999999836,1.204999999999999,0.258739863254230));
#1044=DIRECTION('',(0.0,-1.0,0.0));
#1045=VECTOR('',#1044,0.510000000000000);
#1046=LINE('',#1043,#1045);
#1047=EDGE_CURVE('',#1042,#1031,#1046,.T.);
#1048=ORIENTED_EDGE('',*,*,#1047,.F.);
#1049=CARTESIAN_POINT('',(-1.216783760872276,1.205000000000000,0.165750858871506));
#1050=VERTEX_POINT('',#1049);
#1051=CARTESIAN_POINT('',(-1.179999999999859,1.204999999999999,0.258739863254204));
#1052=DIRECTION('',(1.287028E-015,-1.0,-1.138666E-015));
#1053=DIRECTION('',(0.748955720789008,1.718429E-015,-0.662620048215731));
#1054=AXIS2_PLACEMENT_3D('',#1051,#1052,#1053);
#1055=CIRCLE('',#1054,0.100000000000023);
#1056=EDGE_CURVE('',#1050,#1042,#1055,.T.);
#1057=ORIENTED_EDGE('',*,*,#1056,.F.);
#1058=CARTESIAN_POINT('',(-1.216783760872275,0.695000000000000,0.165750858871506));
#1059=DIRECTION('',(0.0,1.0,0.0));
#1060=VECTOR('',#1059,0.510000000000000);
#1061=LINE('',#1058,#1060);
#1062=EDGE_CURVE('',#1050,#1033,#1061,.F.);
#1063=ORIENTED_EDGE('',*,*,#1062,.T.);
#1064=EDGE_LOOP('',(#1040,#1048,#1057,#1063));
#1065=FACE_OUTER_BOUND('',#1064,.T.);
#1066=ADVANCED_FACE('',(#1065),#1029,.T.);
#1067=CARTESIAN_POINT('',(-1.151970051016653,0.694999999999998,0.030454248376692));
#1068=CARTESIAN_POINT('',(-1.482671771671020,0.694999999999998,-0.010150817183712));
#1069=CARTESIAN_POINT('',(-1.151970051016654,1.205000000000001,0.030454248376692));
#1070=CARTESIAN_POINT('',(-1.482671771671021,1.205000000000000,-0.010150817183712));
#1071=B_SPLINE_SURFACE_WITH_KNOTS('',1,1,((#1067,#1069),(#1068,#1070)),.UNSPECIFIED.,.F.,.F.,.U.,(2,2),(2,2),(0.0,0.333185232855425),(0.0,0.510000000000003),.UNSPECIFIED.);
#1072=CARTESIAN_POINT('',(-1.482671771671019,0.694999999999998,-0.010150817183712));
#1073=VERTEX_POINT('',#1072);
#1074=CARTESIAN_POINT('',(-1.151970051016656,0.694999999999999,0.030454248376691));
#1075=VERTEX_POINT('',#1074);
#1076=CARTESIAN_POINT('',(-1.482671771671019,0.694999999999998,-0.010150817183712));
#1077=DIRECTION('',(0.992546151641314,1.999290E-015,0.121869343405213));
#1078=VECTOR('',#1077,0.333185232855421);
#1079=LINE('',#1076,#1078);
#1080=EDGE_CURVE('',#1073,#1075,#1079,.T.);
#1081=ORIENTED_EDGE('',*,*,#1080,.F.);
#1082=CARTESIAN_POINT('',(-1.482671771671021,1.205000000000000,-0.010150817183712));
#1083=VERTEX_POINT('',#1082);
#1084=CARTESIAN_POINT('',(-1.482671771671021,1.205000000000000,-0.010150817183712));
#1085=DIRECTION('',(0.0,-1.0,0.0));
#1086=VECTOR('',#1085,0.510000000000002);
#1087=LINE('',#1084,#1086);
#1088=EDGE_CURVE('',#1083,#1073,#1087,.T.);
#1089=ORIENTED_EDGE('',*,*,#1088,.F.);
#1090=CARTESIAN_POINT('',(-1.151970051016656,1.204999999999999,0.030454248376691));
#1091=VERTEX_POINT('',#1090);
#1092=CARTESIAN_POINT('',(-1.151970051016656,1.204999999999999,0.030454248376691));
#1093=DIRECTION('',(-0.992546151641314,-1.999290E-015,-0.121869343405213));
#1094=VECTOR('',#1093,0.333185232855423);
#1095=LINE('',#1092,#1094);
#1096=EDGE_CURVE('',#1091,#1083,#1095,.T.);
#1097=ORIENTED_EDGE('',*,*,#1096,.F.);
#1098=CARTESIAN_POINT('',(-1.151970051016656,1.204999999999999,0.030454248376691));
#1099=DIRECTION('',(0.0,-1.0,0.0));
#1100=VECTOR('',#1099,0.510000000000000);
#1101=LINE('',#1098,#1100);
#1102=EDGE_CURVE('',#1091,#1075,#1101,.T.);
#1103=ORIENTED_EDGE('',*,*,#1102,.T.);
#1104=EDGE_LOOP('',(#1081,#1089,#1097,#1103));
#1105=FACE_OUTER_BOUND('',#1104,.T.);
#1106=ADVANCED_FACE('',(#1105),#1071,.T.);
#1107=CARTESIAN_POINT('',(-0.775000000000044,1.204999999999999,0.520000000000001));
#1108=DIRECTION('',(0.0,-1.0,0.0));
#1109=DIRECTION('',(1.0,0.0,0.0));
#1110=AXIS2_PLACEMENT_3D('',#1107,#1108,#1109);
#1111=PLANE('',#1110);
#1112=CARTESIAN_POINT('',(-0.700000000000044,1.204999999999999,0.455000000000001));
#1113=VERTEX_POINT('',#1112);
#1114=CARTESIAN_POINT('',(-0.850000000000044,1.204999999999999,0.455000000000001));
#1115=VERTEX_POINT('',#1114);
#1116=CARTESIAN_POINT('',(-0.700000000000044,1.204999999999999,0.455000000000001));
#1117=DIRECTION('',(-1.0,0.0,0.0));
#1118=VECTOR('',#1117,0.150000000000000);
#1119=LINE('',#1116,#1118);
#1120=EDGE_CURVE('',#1113,#1115,#1119,.T.);
#1121=ORIENTED_EDGE('',*,*,#1120,.T.);
#1122=CARTESIAN_POINT('',(-0.950000000000068,1.204999999999999,0.354999999999960));
#1123=VERTEX_POINT('',#1122);
#1124=CARTESIAN_POINT('',(-0.850000000000045,1.204999999999999,0.354999999999991));
#1125=DIRECTION('',(1.160015E-015,-1.0,-1.160015E-015));
#1126=DIRECTION('',(-0.707106781186610,-1.640509E-015,0.707106781186485));
#1127=AXIS2_PLACEMENT_3D('',#1124,#1125,#1126);
#1128=CIRCLE('',#1127,0.100000000000011);
#1129=EDGE_CURVE('',#1115,#1123,#1128,.T.);
#1130=ORIENTED_EDGE('',*,*,#1129,.T.);
#1131=CARTESIAN_POINT('',(-0.949999999999841,1.204999999999999,0.258739863254301));
#1132=VERTEX_POINT('',#1131);
#1133=CARTESIAN_POINT('',(-0.950000000000068,1.204999999999999,0.354999999999960));
#1134=DIRECTION('',(2.362075E-012,0.0,-1.0));
#1135=VECTOR('',#1134,0.096260136745659);
#1136=LINE('',#1133,#1135);
#1137=EDGE_CURVE('',#1123,#1132,#1136,.T.);
#1138=ORIENTED_EDGE('',*,*,#1137,.T.);
#1139=CARTESIAN_POINT('',(-1.179999999999802,1.204999999999999,0.258739863254184));
#1140=DIRECTION('',(-1.287028E-015,1.0,1.138666E-015));
#1141=DIRECTION('',(0.748955720789156,1.718429E-015,-0.662620048215563));
#1142=AXIS2_PLACEMENT_3D('',#1139,#1140,#1141);
#1143=CIRCLE('',#1142,0.229999999999988);
#1144=EDGE_CURVE('',#1132,#1091,#1143,.T.);
#1145=ORIENTED_EDGE('',*,*,#1144,.T.);
#1146=ORIENTED_EDGE('',*,*,#1096,.T.);
#1147=CARTESIAN_POINT('',(-1.500000000000000,1.204999999999999,0.130976277309645));
#1148=VERTEX_POINT('',#1147);
#1149=CARTESIAN_POINT('',(-1.482671771671021,1.204999999999999,-0.010150817183712));
#1150=DIRECTION('',(-0.121869343405908,0.0,0.992546151641229));
#1151=VECTOR('',#1150,0.142186934340530);
#1152=LINE('',#1149,#1151);
#1153=EDGE_CURVE('',#1083,#1148,#1152,.T.);
#1154=ORIENTED_EDGE('',*,*,#1153,.T.);
#1155=CARTESIAN_POINT('',(-1.500000000000000,1.204999999999999,0.130976277309645));
#1156=DIRECTION('',(0.992546151641326,2.334501E-015,0.121869343405117));
#1157=VECTOR('',#1156,0.285343143650683);
#1158=LINE('',#1155,#1157);
#1159=EDGE_CURVE('',#1148,#1050,#1158,.T.);
#1160=ORIENTED_EDGE('',*,*,#1159,.T.);
#1161=ORIENTED_EDGE('',*,*,#1056,.T.);
#1162=CARTESIAN_POINT('',(-1.080000000000064,1.204999999999999,0.354999999999905));
#1163=VERTEX_POINT('',#1162);
#1164=CARTESIAN_POINT('',(-1.079999999999836,1.204999999999999,0.258739863254230));
#1165=DIRECTION('',(-2.362075E-012,0.0,1.0));
#1166=VECTOR('',#1165,0.096260136745675);
#1167=LINE('',#1164,#1166);
#1168=EDGE_CURVE('',#1042,#1163,#1167,.T.);
#1169=ORIENTED_EDGE('',*,*,#1168,.T.);
#1170=CARTESIAN_POINT('',(-0.850000000000044,1.204999999999999,0.585000000000002));
#1171=VERTEX_POINT('',#1170);
#1172=CARTESIAN_POINT('',(-0.850000000000045,1.204999999999999,0.354999999999992));
#1173=DIRECTION('',(-1.160015E-015,1.0,1.160015E-015));
#1174=DIRECTION('',(-0.707106781186668,-1.640509E-015,0.707106781186427));
#1175=AXIS2_PLACEMENT_3D('',#1172,#1173,#1174);
#1176=CIRCLE('',#1175,0.230000000000010);
#1177=EDGE_CURVE('',#1163,#1171,#1176,.T.);
#1178=ORIENTED_EDGE('',*,*,#1177,.T.);
#1179=CARTESIAN_POINT('',(-0.700000000000044,1.204999999999999,0.585000000000002));
#1180=VERTEX_POINT('',#1179);
#1181=CARTESIAN_POINT('',(-0.700000000000044,1.204999999999999,0.585000000000002));
#1182=DIRECTION('',(-1.0,0.0,0.0));
#1183=VECTOR('',#1182,0.150000000000000);
#1184=LINE('',#1181,#1183);
#1185=EDGE_CURVE('',#1180,#1171,#1184,.T.);
#1186=ORIENTED_EDGE('',*,*,#1185,.F.);
#1187=CARTESIAN_POINT('',(-0.700000000000044,1.204999999999999,0.455000000000001));
#1188=DIRECTION('',(0.0,0.0,1.0));
#1189=VECTOR('',#1188,0.130000000000001);
#1190=LINE('',#1187,#1189);
#1191=EDGE_CURVE('',#1113,#1180,#1190,.T.);
#1192=ORIENTED_EDGE('',*,*,#1191,.F.);
#1193=EDGE_LOOP('',(#1121,#1130,#1138,#1145,#1146,#1154,#1160,#1161,#1169,#1178,#1186,#1192));
#1194=FACE_OUTER_BOUND('',#1193,.T.);
#1195=ADVANCED_FACE('',(#1194),#1111,.F.);
#1196=CARTESIAN_POINT('',(-1.500000000000000,0.694999999999998,0.130976277309645));
#1197=CARTESIAN_POINT('',(-1.216783760872274,0.694999999999998,0.165750858871506));
#1198=CARTESIAN_POINT('',(-1.500000000000001,1.205000000000000,0.130976277309645));
#1199=CARTESIAN_POINT('',(-1.216783760872275,1.205000000000001,0.165750858871506));
#1200=B_SPLINE_SURFACE_WITH_KNOTS('',1,1,((#1196,#1198),(#1197,#1199)),.UNSPECIFIED.,.F.,.F.,.U.,(2,2),(2,2),(0.0,0.285343143650685),(0.0,0.510000000000002),.UNSPECIFIED.);
#1201=CARTESIAN_POINT('',(-1.500000000000000,0.694999999999998,0.130976277309645));
#1202=VERTEX_POINT('',#1201);
#1203=CARTESIAN_POINT('',(-1.216783760872275,0.694999999999999,0.165750858871506));
#1204=DIRECTION('',(-0.992546151641326,-1.945417E-015,-0.121869343405117));
#1205=VECTOR('',#1204,0.285343143650684);
#1206=LINE('',#1203,#1205);
#1207=EDGE_CURVE('',#1033,#1202,#1206,.T.);
#1208=ORIENTED_EDGE('',*,*,#1207,.F.);
#1209=ORIENTED_EDGE('',*,*,#1062,.F.);
#1210=ORIENTED_EDGE('',*,*,#1159,.F.);
#1211=CARTESIAN_POINT('',(-1.500000000000000,1.204999999999999,0.130976277309645));
#1212=DIRECTION('',(0.0,-1.0,0.0));
#1213=VECTOR('',#1212,0.510000000000000);
#1214=LINE('',#1211,#1213);
#1215=EDGE_CURVE('',#1148,#1202,#1214,.T.);
#1216=ORIENTED_EDGE('',*,*,#1215,.T.);
#1217=EDGE_LOOP('',(#1208,#1209,#1210,#1216));
#1218=FACE_OUTER_BOUND('',#1217,.T.);
#1219=ADVANCED_FACE('',(#1218),#1200,.T.);
#1220=CARTESIAN_POINT('',(-1.482671771671019,0.694999999999998,-0.010150817183712));
#1221=CARTESIAN_POINT('',(-1.499999999999999,0.694999999999998,0.130976277309645));
#1222=CARTESIAN_POINT('',(-1.482671771671021,1.205000000000000,-0.010150817183712));
#1223=CARTESIAN_POINT('',(-1.500000000000000,1.205000000000000,0.130976277309645));
#1224=B_SPLINE_SURFACE_WITH_KNOTS('',1,1,((#1220,#1222),(#1221,#1223)),.UNSPECIFIED.,.F.,.F.,.U.,(2,2),(2,2),(0.0,0.142186934340530),(0.0,0.510000000000002),.UNSPECIFIED.);
#1225=CARTESIAN_POINT('',(-1.500000000000000,0.694999999999998,0.130976277309645));
#1226=DIRECTION('',(0.121869343405908,7.808193E-016,-0.992546151641229));
#1227=VECTOR('',#1226,0.142186934340530);
#1228=LINE('',#1225,#1227);
#1229=EDGE_CURVE('',#1202,#1073,#1228,.T.);
#1230=ORIENTED_EDGE('',*,*,#1229,.F.);
#1231=ORIENTED_EDGE('',*,*,#1215,.F.);
#1232=ORIENTED_EDGE('',*,*,#1153,.F.);
#1233=ORIENTED_EDGE('',*,*,#1088,.T.);
#1234=EDGE_LOOP('',(#1230,#1231,#1232,#1233));
#1235=FACE_OUTER_BOUND('',#1234,.T.);
#1236=ADVANCED_FACE('',(#1235),#1224,.T.);
#1237=CARTESIAN_POINT('',(-0.775000000000045,0.694999999999999,0.520000000000001));
#1238=DIRECTION('',(0.0,1.0,0.0));
#1239=DIRECTION('',(-1.0,0.0,0.0));
#1240=AXIS2_PLACEMENT_3D('',#1237,#1238,#1239);
#1241=PLANE('',#1240);
#1242=CARTESIAN_POINT('',(-0.700000000000045,0.694999999999999,0.585000000000002));
#1243=VERTEX_POINT('',#1242);
#1244=CARTESIAN_POINT('',(-0.850000000000045,0.695000000000000,0.585000000000002));
#1245=VERTEX_POINT('',#1244);
#1246=CARTESIAN_POINT('',(-0.700000000000045,0.694999999999999,0.585000000000002));
#1247=DIRECTION('',(-1.0,0.0,0.0));
#1248=VECTOR('',#1247,0.150000000000000);
#1249=LINE('',#1246,#1248);
#1250=EDGE_CURVE('',#1243,#1245,#1249,.T.);
#1251=ORIENTED_EDGE('',*,*,#1250,.T.);
#1252=CARTESIAN_POINT('',(-1.080000000000064,0.694999999999999,0.354999999999905));
#1253=VERTEX_POINT('',#1252);
#1254=CARTESIAN_POINT('',(-0.850000000000045,0.695000000000000,0.354999999999992));
#1255=DIRECTION('',(1.160015E-015,-1.0,-1.160015E-015));
#1256=DIRECTION('',(-0.707106781186668,-1.640509E-015,0.707106781186427));
#1257=AXIS2_PLACEMENT_3D('',#1254,#1255,#1256);
#1258=CIRCLE('',#1257,0.230000000000010);
#1259=EDGE_CURVE('',#1245,#1253,#1258,.T.);
#1260=ORIENTED_EDGE('',*,*,#1259,.T.);
#1261=CARTESIAN_POINT('',(-1.080000000000064,0.694999999999999,0.354999999999905));
#1262=DIRECTION('',(2.362075E-012,0.0,-1.0));
#1263=VECTOR('',#1262,0.096260136745675);
#1264=LINE('',#1261,#1263);
#1265=EDGE_CURVE('',#1253,#1031,#1264,.T.);
#1266=ORIENTED_EDGE('',*,*,#1265,.T.);
#1267=ORIENTED_EDGE('',*,*,#1039,.T.);
#1268=ORIENTED_EDGE('',*,*,#1207,.T.);
#1269=ORIENTED_EDGE('',*,*,#1229,.T.);
#1270=ORIENTED_EDGE('',*,*,#1080,.T.);
#1271=CARTESIAN_POINT('',(-0.949999999999841,0.694999999999999,0.258739863254301));
#1272=VERTEX_POINT('',#1271);
#1273=CARTESIAN_POINT('',(-1.179999999999802,0.694999999999999,0.258739863254184));
#1274=DIRECTION('',(1.287028E-015,-1.0,-1.138666E-015));
#1275=DIRECTION('',(0.748955720789156,1.718429E-015,-0.662620048215563));
#1276=AXIS2_PLACEMENT_3D('',#1273,#1274,#1275);
#1277=CIRCLE('',#1276,0.229999999999988);
#1278=EDGE_CURVE('',#1075,#1272,#1277,.T.);
#1279=ORIENTED_EDGE('',*,*,#1278,.T.);
#1280=CARTESIAN_POINT('',(-0.950000000000068,0.694999999999999,0.354999999999960));
#1281=VERTEX_POINT('',#1280);
#1282=CARTESIAN_POINT('',(-0.949999999999841,0.694999999999999,0.258739863254301));
#1283=DIRECTION('',(-2.362075E-012,0.0,1.0));
#1284=VECTOR('',#1283,0.096260136745659);
#1285=LINE('',#1282,#1284);
#1286=EDGE_CURVE('',#1272,#1281,#1285,.T.);
#1287=ORIENTED_EDGE('',*,*,#1286,.T.);
#1288=CARTESIAN_POINT('',(-0.850000000000045,0.695000000000000,0.455000000000001));
#1289=VERTEX_POINT('',#1288);
#1290=CARTESIAN_POINT('',(-0.850000000000045,0.695000000000000,0.354999999999991));
#1291=DIRECTION('',(-1.160015E-015,1.0,1.160015E-015));
#1292=DIRECTION('',(-0.707106781186610,-1.640509E-015,0.707106781186485));
#1293=AXIS2_PLACEMENT_3D('',#1290,#1291,#1292);
#1294=CIRCLE('',#1293,0.100000000000011);
#1295=EDGE_CURVE('',#1281,#1289,#1294,.T.);
#1296=ORIENTED_EDGE('',*,*,#1295,.T.);
#1297=CARTESIAN_POINT('',(-0.700000000000045,0.694999999999999,0.455000000000001));
#1298=VERTEX_POINT('',#1297);
#1299=CARTESIAN_POINT('',(-0.700000000000045,0.694999999999999,0.455000000000001));
#1300=DIRECTION('',(-1.0,0.0,0.0));
#1301=VECTOR('',#1300,0.150000000000000);
#1302=LINE('',#1299,#1301);
#1303=EDGE_CURVE('',#1298,#1289,#1302,.T.);
#1304=ORIENTED_EDGE('',*,*,#1303,.F.);
#1305=CARTESIAN_POINT('',(-0.700000000000045,0.694999999999999,0.585000000000002));
#1306=DIRECTION('',(0.0,0.0,-1.0));
#1307=VECTOR('',#1306,0.130000000000001);
#1308=LINE('',#1305,#1307);
#1309=EDGE_CURVE('',#1243,#1298,#1308,.T.);
#1310=ORIENTED_EDGE('',*,*,#1309,.F.);
#1311=EDGE_LOOP('',(#1251,#1260,#1266,#1267,#1268,#1269,#1270,#1279,#1287,#1296,#1304,#1310));
#1312=FACE_OUTER_BOUND('',#1311,.T.);
#1313=ADVANCED_FACE('',(#1312),#1241,.F.);
#1314=CARTESIAN_POINT('',(-0.950000000000067,0.694999999999999,0.354999999999960));
#1315=CARTESIAN_POINT('',(-0.949999999999840,0.694999999999999,0.258739863254301));
#1316=CARTESIAN_POINT('',(-0.950000000000068,1.204999999999999,0.354999999999960));
#1317=CARTESIAN_POINT('',(-0.949999999999841,1.204999999999999,0.258739863254301));
#1318=B_SPLINE_SURFACE_WITH_KNOTS('',1,1,((#1314,#1316),(#1315,#1317)),.UNSPECIFIED.,.F.,.F.,.U.,(2,2),(2,2),(0.0,0.096260136745659),(0.0,0.510000000000000),.UNSPECIFIED.);
#1319=ORIENTED_EDGE('',*,*,#1286,.F.);
#1320=CARTESIAN_POINT('',(-0.949999999999841,1.204999999999999,0.258739863254301));
#1321=DIRECTION('',(0.0,-1.0,0.0));
#1322=VECTOR('',#1321,0.510000000000000);
#1323=LINE('',#1320,#1322);
#1324=EDGE_CURVE('',#1132,#1272,#1323,.T.);
#1325=ORIENTED_EDGE('',*,*,#1324,.F.);
#1326=ORIENTED_EDGE('',*,*,#1137,.F.);
#1327=CARTESIAN_POINT('',(-0.950000000000068,1.204999999999999,0.354999999999960));
#1328=DIRECTION('',(0.0,-1.0,0.0));
#1329=VECTOR('',#1328,0.510000000000000);
#1330=LINE('',#1327,#1329);
#1331=EDGE_CURVE('',#1123,#1281,#1330,.T.);
#1332=ORIENTED_EDGE('',*,*,#1331,.T.);
#1333=EDGE_LOOP('',(#1319,#1325,#1326,#1332));
#1334=FACE_OUTER_BOUND('',#1333,.T.);
#1335=ADVANCED_FACE('',(#1334),#1318,.T.);
#1336=CARTESIAN_POINT('',(-0.779289321881376,0.695000000000000,0.284289321881334));
#1337=CARTESIAN_POINT('',(-0.779289321881377,1.205000000000000,0.284289321881334));
#1338=CARTESIAN_POINT('',(-0.850000000000032,0.694999999999999,0.213578643762666));
#1339=CARTESIAN_POINT('',(-0.850000000000033,1.204999999999999,0.213578643762666));
#1340=CARTESIAN_POINT('',(-0.920710678118700,0.694999999999999,0.284289321881322));
#1341=CARTESIAN_POINT('',(-0.920710678118702,1.204999999999999,0.284289321881322));
#1342=CARTESIAN_POINT('',(-0.991421356237369,0.694999999999999,0.354999999999978));
#1343=CARTESIAN_POINT('',(-0.991421356237370,1.204999999999999,0.354999999999978));
#1344=CARTESIAN_POINT('',(-0.920710678118713,0.694999999999999,0.425710678118647));
#1345=CARTESIAN_POINT('',(-0.920710678118714,1.204999999999999,0.425710678118647));
#1346=CARTESIAN_POINT('',(-0.850000000000057,0.694999999999999,0.496421356237316));
#1347=CARTESIAN_POINT('',(-0.850000000000058,1.204999999999999,0.496421356237316));
#1348=CARTESIAN_POINT('',(-0.779289321881388,0.695000000000000,0.425710678118659));
#1349=CARTESIAN_POINT('',(-0.779289321881389,1.205000000000000,0.425710678118659));
#1350=CARTESIAN_POINT('',(-0.708578643762719,0.695000000000000,0.355000000000003));
#1351=CARTESIAN_POINT('',(-0.708578643762721,1.205000000000000,0.355000000000003));
#1352=CARTESIAN_POINT('',(-0.779289321881376,0.695000000000000,0.284289321881334));
#1353=CARTESIAN_POINT('',(-0.779289321881377,1.205000000000000,0.284289321881334));
#1361=(BOUNDED_SURFACE()B_SPLINE_SURFACE(1,2,((#1336,#1338,#1340,#1342,#1344,#1346,#1348,#1350,#1352),(#1337,#1339,#1341,#1343,#1345,#1347,#1349,#1351,#1353)),.UNSPECIFIED.,.F.,.T.,.U.)B_SPLINE_SURFACE_WITH_KNOTS((2,2),(3,2,2,2,3),(-5.099999999999447,0.0),(0.0,0.157079632679507,0.314159265359013,0.471238898038520,0.628318530718027),.UNSPECIFIED.)GEOMETRIC_REPRESENTATION_ITEM()RATIONAL_B_SPLINE_SURFACE(((1.0,0.707106781186548,1.0,0.707106781186548,1.0,0.707106781186548,1.0,0.707106781186548,1.0),(1.0,0.707106781186548,1.0,0.707106781186548,1.0,0.707106781186548,1.0,0.707106781186548,1.0)))REPRESENTATION_ITEM('')SURFACE());
#1362=ORIENTED_EDGE('',*,*,#1295,.F.);
#1363=ORIENTED_EDGE('',*,*,#1331,.F.);
#1364=ORIENTED_EDGE('',*,*,#1129,.F.);
#1365=CARTESIAN_POINT('',(-0.850000000000044,1.204999999999999,0.455000000000001));
#1366=DIRECTION('',(0.0,-1.0,0.0));
#1367=VECTOR('',#1366,0.510000000000000);
#1368=LINE('',#1365,#1367);
#1369=EDGE_CURVE('',#1115,#1289,#1368,.T.);
#1370=ORIENTED_EDGE('',*,*,#1369,.T.);
#1371=EDGE_LOOP('',(#1362,#1363,#1364,#1370));
#1372=FACE_OUTER_BOUND('',#1371,.T.);
#1373=ADVANCED_FACE('',(#1372),#1361,.T.);
#1374=CARTESIAN_POINT('',(-0.687365440327105,1.205000000000000,0.192365440327107));
#1375=CARTESIAN_POINT('',(-0.687365440327104,0.694999999999999,0.192365440327107));
#1376=CARTESIAN_POINT('',(-0.849999999999990,1.205000000000000,0.029730880654167));
#1377=CARTESIAN_POINT('',(-0.849999999999989,0.694999999999999,0.029730880654167));
#1378=CARTESIAN_POINT('',(-1.012634559672931,1.204999999999999,0.192365440327052));
#1379=CARTESIAN_POINT('',(-1.012634559672929,0.694999999999999,0.192365440327052));
#1380=CARTESIAN_POINT('',(-1.175269119345871,1.204999999999999,0.354999999999937));
#1381=CARTESIAN_POINT('',(-1.175269119345870,0.694999999999998,0.354999999999937));
#1382=CARTESIAN_POINT('',(-1.012634559672986,1.204999999999999,0.517634559672878));
#1383=CARTESIAN_POINT('',(-1.012634559672985,0.694999999999999,0.517634559672878));
#1384=CARTESIAN_POINT('',(-0.850000000000101,1.205000000000000,0.680269119345818));
#1385=CARTESIAN_POINT('',(-0.850000000000100,0.694999999999999,0.680269119345818));
#1386=CARTESIAN_POINT('',(-0.687365440327160,1.205000000000000,0.517634559672933));
#1387=CARTESIAN_POINT('',(-0.687365440327159,0.694999999999999,0.517634559672933));
#1388=CARTESIAN_POINT('',(-0.524730880654220,1.205000000000001,0.355000000000048));
#1389=CARTESIAN_POINT('',(-0.524730880654219,0.695000000000000,0.355000000000048));
#1390=CARTESIAN_POINT('',(-0.687365440327105,1.205000000000000,0.192365440327107));
#1391=CARTESIAN_POINT('',(-0.687365440327104,0.694999999999999,0.192365440327107));
#1399=(BOUNDED_SURFACE()B_SPLINE_SURFACE(1,2,((#1374,#1376,#1378,#1380,#1382,#1384,#1386,#1388,#1390),(#1375,#1377,#1379,#1381,#1383,#1385,#1387,#1389,#1391)),.UNSPECIFIED.,.F.,.T.,.U.)B_SPLINE_SURFACE_WITH_KNOTS((2,2),(3,2,2,2,3),(-1.930823E-015,2.217391304347737),(0.0,0.361283155162841,0.722566310325682,1.083849465488523,1.445132620651365),.UNSPECIFIED.)GEOMETRIC_REPRESENTATION_ITEM()RATIONAL_B_SPLINE_SURFACE(((1.0,0.707106781186548,1.0,0.707106781186548,1.0,0.707106781186548,1.0,0.707106781186548,1.0),(1.0,0.707106781186548,1.0,0.707106781186548,1.0,0.707106781186548,1.0,0.707106781186548,1.0)))REPRESENTATION_ITEM('')SURFACE());
#1400=ORIENTED_EDGE('',*,*,#1259,.F.);
#1401=CARTESIAN_POINT('',(-0.850000000000045,0.695000000000000,0.585000000000002));
#1402=DIRECTION('',(0.0,1.0,0.0));
#1403=VECTOR('',#1402,0.510000000000000);
#1404=LINE('',#1401,#1403);
#1405=EDGE_CURVE('',#1245,#1171,#1404,.T.);
#1406=ORIENTED_EDGE('',*,*,#1405,.T.);
#1407=ORIENTED_EDGE('',*,*,#1177,.F.);
#1408=CARTESIAN_POINT('',(-1.080000000000064,1.204999999999999,0.354999999999905));
#1409=DIRECTION('',(0.0,-1.0,0.0));
#1410=VECTOR('',#1409,0.510000000000000);
#1411=LINE('',#1408,#1410);
#1412=EDGE_CURVE('',#1163,#1253,#1411,.T.);
#1413=ORIENTED_EDGE('',*,*,#1412,.T.);
#1414=EDGE_LOOP('',(#1400,#1406,#1407,#1413));
#1415=FACE_OUTER_BOUND('',#1414,.T.);
#1416=ADVANCED_FACE('',(#1415),#1399,.T.);
#1417=CARTESIAN_POINT('',(-1.079999999999835,0.694999999999999,0.258739863254230));
#1418=CARTESIAN_POINT('',(-1.080000000000063,0.694999999999999,0.354999999999905));
#1419=CARTESIAN_POINT('',(-1.079999999999836,1.204999999999999,0.258739863254230));
#1420=CARTESIAN_POINT('',(-1.080000000000064,1.204999999999999,0.354999999999905));
#1421=B_SPLINE_SURFACE_WITH_KNOTS('',1,1,((#1417,#1419),(#1418,#1420)),.UNSPECIFIED.,.F.,.F.,.U.,(2,2),(2,2),(0.0,0.096260136745675),(0.0,0.510000000000000),.UNSPECIFIED.);
#1422=ORIENTED_EDGE('',*,*,#1265,.F.);
#1423=ORIENTED_EDGE('',*,*,#1412,.F.);
#1424=ORIENTED_EDGE('',*,*,#1168,.F.);
#1425=ORIENTED_EDGE('',*,*,#1047,.T.);
#1426=EDGE_LOOP('',(#1422,#1423,#1424,#1425));
#1427=FACE_OUTER_BOUND('',#1426,.T.);
#1428=ADVANCED_FACE('',(#1427),#1421,.T.);
#1429=CARTESIAN_POINT('',(-1.352259815781299,1.204999999999999,0.411142474343756));
#1430=CARTESIAN_POINT('',(-1.352259815781298,0.694999999999998,0.411142474343756));
#1431=CARTESIAN_POINT('',(-1.199857204691727,1.204999999999999,0.583402290125253));
#1432=CARTESIAN_POINT('',(-1.199857204691726,0.694999999999998,0.583402290125253));
#1433=CARTESIAN_POINT('',(-1.027597388910230,1.205000000000000,0.430999679035681));
#1434=CARTESIAN_POINT('',(-1.027597388910229,0.694999999999999,0.430999679035681));
#1435=CARTESIAN_POINT('',(-0.855337573128733,1.205000000000000,0.278597067946109));
#1436=CARTESIAN_POINT('',(-0.855337573128732,0.694999999999999,0.278597067946109));
#1437=CARTESIAN_POINT('',(-1.007740184218305,1.205000000000000,0.106337252164612));
#1438=CARTESIAN_POINT('',(-1.007740184218304,0.694999999999999,0.106337252164612));
#1439=CARTESIAN_POINT('',(-1.160142795307877,1.205000000000000,-0.065922563616885));
#1440=CARTESIAN_POINT('',(-1.160142795307875,0.694999999999998,-0.065922563616885));
#1441=CARTESIAN_POINT('',(-1.332402611089373,1.204999999999999,0.086480047472687));
#1442=CARTESIAN_POINT('',(-1.332402611089373,0.694999999999998,0.086480047472687));
#1443=CARTESIAN_POINT('',(-1.504662426870870,1.204999999999999,0.238882658562259));
#1444=CARTESIAN_POINT('',(-1.504662426870869,0.694999999999998,0.238882658562259));
#1445=CARTESIAN_POINT('',(-1.352259815781299,1.204999999999999,0.411142474343756));
#1446=CARTESIAN_POINT('',(-1.352259815781298,0.694999999999998,0.411142474343756));
#1454=(BOUNDED_SURFACE()B_SPLINE_SURFACE(1,2,((#1429,#1431,#1433,#1435,#1437,#1439,#1441,#1443,#1445),(#1430,#1432,#1434,#1436,#1438,#1440,#1442,#1444,#1446)),.UNSPECIFIED.,.F.,.T.,.U.)B_SPLINE_SURFACE_WITH_KNOTS((2,2),(3,2,2,2,3),(-1.930823E-015,2.217391304347944),(0.0,0.361283155162807,0.722566310325615,1.083849465488422,1.445132620651230),.UNSPECIFIED.)GEOMETRIC_REPRESENTATION_ITEM()RATIONAL_B_SPLINE_SURFACE(((1.0,0.707106781186548,1.0,0.707106781186548,1.0,0.707106781186548,1.0,0.707106781186548,1.0),(1.0,0.707106781186548,1.0,0.707106781186548,1.0,0.707106781186548,1.0,0.707106781186548,1.0)))REPRESENTATION_ITEM('')SURFACE());
#1455=ORIENTED_EDGE('',*,*,#1278,.F.);
#1456=ORIENTED_EDGE('',*,*,#1102,.F.);
#1457=ORIENTED_EDGE('',*,*,#1144,.F.);
#1458=ORIENTED_EDGE('',*,*,#1324,.T.);
#1459=EDGE_LOOP('',(#1455,#1456,#1457,#1458));
#1460=FACE_OUTER_BOUND('',#1459,.T.);
#1461=ADVANCED_FACE('',(#1460),#1454,.T.);
#1462=CARTESIAN_POINT('',(-0.700000000000045,0.949999999999999,0.520000000000001));
#1463=DIRECTION('',(1.0,0.0,0.0));
#1464=DIRECTION('',(0.0,1.0,0.0));
#1465=AXIS2_PLACEMENT_3D('',#1462,#1463,#1464);
#1466=PLANE('',#1465);
#1467=ORIENTED_EDGE('',*,*,#1191,.T.);
#1468=CARTESIAN_POINT('',(-0.700000000000044,1.204999999999999,0.585000000000002));
#1469=DIRECTION('',(0.0,-1.0,0.0));
#1470=VECTOR('',#1469,0.510000000000000);
#1471=LINE('',#1468,#1470);
#1472=EDGE_CURVE('',#1180,#1243,#1471,.T.);
#1473=ORIENTED_EDGE('',*,*,#1472,.T.);
#1474=ORIENTED_EDGE('',*,*,#1309,.T.);
#1475=CARTESIAN_POINT('',(-0.700000000000045,0.694999999999999,0.455000000000001));
#1476=DIRECTION('',(0.0,1.0,0.0));
#1477=VECTOR('',#1476,0.510000000000000);
#1478=LINE('',#1475,#1477);
#1479=EDGE_CURVE('',#1298,#1113,#1478,.T.);
#1480=ORIENTED_EDGE('',*,*,#1479,.T.);
#1481=EDGE_LOOP('',(#1467,#1473,#1474,#1480));
#1482=FACE_OUTER_BOUND('',#1481,.T.);
#1483=ADVANCED_FACE('',(#1482),#1466,.T.);
#1484=CARTESIAN_POINT('',(-0.775000000000045,0.949999999999999,0.455000000000001));
#1485=DIRECTION('',(0.0,0.0,1.0));
#1486=DIRECTION('',(1.0,0.0,0.0));
#1487=AXIS2_PLACEMENT_3D('',#1484,#1485,#1486);
#1488=PLANE('',#1487);
#1489=ORIENTED_EDGE('',*,*,#1303,.T.);
#1490=ORIENTED_EDGE('',*,*,#1369,.F.);
#1491=ORIENTED_EDGE('',*,*,#1120,.F.);
#1492=ORIENTED_EDGE('',*,*,#1479,.F.);
#1493=EDGE_LOOP('',(#1489,#1490,#1491,#1492));
#1494=FACE_OUTER_BOUND('',#1493,.T.);
#1495=ADVANCED_FACE('',(#1494),#1488,.F.);
#1496=CARTESIAN_POINT('',(-0.775000000000045,0.949999999999999,0.585000000000002));
#1497=DIRECTION('',(0.0,0.0,-1.0));
#1498=DIRECTION('',(-1.0,0.0,0.0));
#1499=AXIS2_PLACEMENT_3D('',#1496,#1497,#1498);
#1500=PLANE('',#1499);
#1501=ORIENTED_EDGE('',*,*,#1185,.T.);
#1502=ORIENTED_EDGE('',*,*,#1405,.F.);
#1503=ORIENTED_EDGE('',*,*,#1250,.F.);
#1504=ORIENTED_EDGE('',*,*,#1472,.F.);
#1505=EDGE_LOOP('',(#1501,#1502,#1503,#1504));
#1506=FACE_OUTER_BOUND('',#1505,.T.);
#1507=ADVANCED_FACE('',(#1506),#1500,.F.);
#1508=CLOSED_SHELL('',(#1066,#1106,#1195,#1219,#1236,#1313,#1335,#1373,#1416,#1428,#1461,#1483,#1495,#1507));
#1509=MANIFOLD_SOLID_BREP('151',#1508);
#1510=STYLED_ITEM('NONE',(#493),#1509);
#1511=CARTESIAN_POINT('',(-0.700000000000045,1.500000000000001,0.585000000000002));
#1512=DIRECTION('',(-0.986715772637724,1.208338E-016,0.162456098771143));
#1513=DIRECTION('',(-0.162456098771143,1.989448E-017,-0.986715772637724));
#1514=AXIS2_PLACEMENT_3D('',#1511,#1512,#1513);
#1515=PLANE('',#1514);
#1516=CARTESIAN_POINT('',(-0.700000000000046,-1.499999999999999,0.585000000000002));
#1517=VERTEX_POINT('',#1516);
#1518=CARTESIAN_POINT('',(-0.606976559662890,-1.499999999999999,1.150000000000002));
#1519=VERTEX_POINT('',#1518);
#1520=CARTESIAN_POINT('',(-0.700000000000046,-1.499999999999999,0.585000000000002));
#1521=DIRECTION('',(0.162456098771143,-3.877786E-016,0.986715772637724));
#1522=VECTOR('',#1521,0.572606636751759);
#1523=LINE('',#1520,#1522);
#1524=EDGE_CURVE('',#1517,#1519,#1523,.T.);
#1525=ORIENTED_EDGE('',*,*,#1524,.T.);
#1526=CARTESIAN_POINT('',(-0.606976559662890,1.500000000000001,1.150000000000002));
#1527=VERTEX_POINT('',#1526);
#1528=CARTESIAN_POINT('',(-0.606976559662890,1.500000000000001,1.150000000000002));
#1529=DIRECTION('',(0.0,-1.0,0.0));
#1530=VECTOR('',#1529,3.0);
#1531=LINE('',#1528,#1530);
#1532=EDGE_CURVE('',#1527,#1519,#1531,.T.);
#1533=ORIENTED_EDGE('',*,*,#1532,.F.);
#1534=CARTESIAN_POINT('',(-0.700000000000045,1.500000000000001,0.585000000000002));
#1535=VERTEX_POINT('',#1534);
#1536=CARTESIAN_POINT('',(-0.606976559662890,1.500000000000001,1.150000000000002));
#1537=DIRECTION('',(-0.162456098771143,3.877786E-016,-0.986715772637724));
#1538=VECTOR('',#1537,0.572606636751759);
#1539=LINE('',#1536,#1538);
#1540=EDGE_CURVE('',#1527,#1535,#1539,.T.);
#1541=ORIENTED_EDGE('',*,*,#1540,.T.);
#1542=CARTESIAN_POINT('',(-0.700000000000045,1.500000000000001,0.585000000000002));
#1543=DIRECTION('',(0.0,-1.0,0.0));
#1544=VECTOR('',#1543,3.0);
#1545=LINE('',#1542,#1544);
#1546=EDGE_CURVE('',#1535,#1517,#1545,.T.);
#1547=ORIENTED_EDGE('',*,*,#1546,.T.);
#1548=EDGE_LOOP('',(#1525,#1533,#1541,#1547));
#1549=FACE_OUTER_BOUND('',#1548,.T.);
#1550=ADVANCED_FACE('',(#1549),#1515,.T.);
#1551=CARTESIAN_POINT('',(1.138710E-013,1.500000000000001,0.608057452974479));
#1552=DIRECTION('',(0.0,-1.0,0.0));
#1553=DIRECTION('',(0.0,0.0,1.0));
#1554=AXIS2_PLACEMENT_3D('',#1551,#1552,#1553);
#1555=PLANE('',#1554);
#1556=CARTESIAN_POINT('',(-0.700000000000045,1.500000000000001,0.455000000000001));
#1557=VERTEX_POINT('',#1556);
#1558=CARTESIAN_POINT('',(-0.647816561616366,1.500000000000001,0.130000000000003));
#1559=VERTEX_POINT('',#1558);
#1560=CARTESIAN_POINT('',(-0.700000000000045,1.500000000000001,0.455000000000001));
#1561=DIRECTION('',(0.158533854534227,0.0,-0.987353542033714));
#1562=VECTOR('',#1561,0.329162742790769);
#1563=LINE('',#1560,#1562);
#1564=EDGE_CURVE('',#1557,#1559,#1563,.T.);
#1565=ORIENTED_EDGE('',*,*,#1564,.F.);
#1566=CARTESIAN_POINT('',(-0.700000000000045,1.500000000000001,0.585000000000002));
#1567=DIRECTION('',(0.0,0.0,-1.0));
#1568=VECTOR('',#1567,0.130000000000001);
#1569=LINE('',#1566,#1568);
#1570=EDGE_CURVE('',#1535,#1557,#1569,.T.);
#1571=ORIENTED_EDGE('',*,*,#1570,.F.);
#1572=ORIENTED_EDGE('',*,*,#1540,.F.);
#1573=CARTESIAN_POINT('',(0.606976559662890,1.500000000000001,1.150000000000002));
#1574=VERTEX_POINT('',#1573);
#1575=CARTESIAN_POINT('',(0.606976559662890,1.500000000000001,1.150000000000002));
#1576=DIRECTION('',(-1.0,0.0,0.0));
#1577=VECTOR('',#1576,1.213953119325780);
#1578=LINE('',#1575,#1577);
#1579=EDGE_CURVE('',#1574,#1527,#1578,.T.);
#1580=ORIENTED_EDGE('',*,*,#1579,.F.);
#1581=CARTESIAN_POINT('',(0.700000000000046,1.500000000000001,0.585000000000002));
#1582=VERTEX_POINT('',#1581);
#1583=CARTESIAN_POINT('',(0.700000000000046,1.500000000000001,0.585000000000002));
#1584=DIRECTION('',(-0.162456098771143,-3.877786E-016,0.986715772637724));
#1585=VECTOR('',#1584,0.572606636751759);
#1586=LINE('',#1583,#1585);
#1587=EDGE_CURVE('',#1582,#1574,#1586,.T.);
#1588=ORIENTED_EDGE('',*,*,#1587,.F.);
#1589=CARTESIAN_POINT('',(0.700000000000046,1.500000000000001,0.455000000000001));
#1590=VERTEX_POINT('',#1589);
#1591=CARTESIAN_POINT('',(0.700000000000046,1.500000000000001,0.455000000000001));
#1592=DIRECTION('',(0.0,0.0,1.0));
#1593=VECTOR('',#1592,0.130000000000001);
#1594=LINE('',#1591,#1593);
#1595=EDGE_CURVE('',#1590,#1582,#1594,.T.);
#1596=ORIENTED_EDGE('',*,*,#1595,.F.);
#1597=CARTESIAN_POINT('',(0.647816561616367,1.500000000000001,0.130000000000003));
#1598=VERTEX_POINT('',#1597);
#1599=CARTESIAN_POINT('',(0.647816561616367,1.500000000000001,0.130000000000003));
#1600=DIRECTION('',(0.158533854534227,0.0,0.987353542033714));
#1601=VECTOR('',#1600,0.329162742790769);
#1602=LINE('',#1599,#1601);
#1603=EDGE_CURVE('',#1598,#1590,#1602,.T.);
#1604=ORIENTED_EDGE('',*,*,#1603,.F.);
#1605=CARTESIAN_POINT('',(-0.647816561616366,1.500000000000001,0.130000000000003));
#1606=DIRECTION('',(1.0,0.0,0.0));
#1607=VECTOR('',#1606,1.295633123232733);
#1608=LINE('',#1605,#1607);
#1609=EDGE_CURVE('',#1559,#1598,#1608,.T.);
#1610=ORIENTED_EDGE('',*,*,#1609,.F.);
#1611=EDGE_LOOP('',(#1565,#1571,#1572,#1580,#1588,#1596,#1604,#1610));
#1612=FACE_OUTER_BOUND('',#1611,.T.);
#1613=ADVANCED_FACE('',(#1612),#1555,.F.);
#1614=CARTESIAN_POINT('',(0.615208722524585,1.500000000000001,1.100000000000002));
#1615=DIRECTION('',(0.986715772637724,-1.208338E-016,0.162456098771143));
#1616=DIRECTION('',(-0.162456098771143,1.989448E-017,0.986715772637724));
#1617=AXIS2_PLACEMENT_3D('',#1614,#1615,#1616);
#1618=PLANE('',#1617);
#1619=CARTESIAN_POINT('',(0.606976559662890,-1.499999999999999,1.150000000000002));
#1620=VERTEX_POINT('',#1619);
#1621=CARTESIAN_POINT('',(0.700000000000045,-1.499999999999999,0.585000000000002));
#1622=VERTEX_POINT('',#1621);
#1623=CARTESIAN_POINT('',(0.606976559662890,-1.499999999999999,1.150000000000002));
#1624=DIRECTION('',(0.162456098771143,3.877786E-016,-0.986715772637724));
#1625=VECTOR('',#1624,0.572606636751759);
#1626=LINE('',#1623,#1625);
#1627=EDGE_CURVE('',#1620,#1622,#1626,.T.);
#1628=ORIENTED_EDGE('',*,*,#1627,.T.);
#1629=CARTESIAN_POINT('',(0.700000000000046,1.500000000000001,0.585000000000002));
#1630=DIRECTION('',(0.0,-1.0,0.0));
#1631=VECTOR('',#1630,3.0);
#1632=LINE('',#1629,#1631);
#1633=EDGE_CURVE('',#1582,#1622,#1632,.T.);
#1634=ORIENTED_EDGE('',*,*,#1633,.F.);
#1635=ORIENTED_EDGE('',*,*,#1587,.T.);
#1636=CARTESIAN_POINT('',(0.606976559662890,-1.499999999999999,1.150000000000002));
#1637=DIRECTION('',(0.0,1.0,0.0));
#1638=VECTOR('',#1637,3.0);
#1639=LINE('',#1636,#1638);
#1640=EDGE_CURVE('',#1574,#1620,#1639,.F.);
#1641=ORIENTED_EDGE('',*,*,#1640,.T.);
#1642=EDGE_LOOP('',(#1628,#1634,#1635,#1641));
#1643=FACE_OUTER_BOUND('',#1642,.T.);
#1644=ADVANCED_FACE('',(#1643),#1618,.T.);
#1645=CARTESIAN_POINT('',(1.135036E-013,-1.499999999999999,0.608057452974479));
#1646=DIRECTION('',(0.0,-1.0,0.0));
#1647=DIRECTION('',(0.0,0.0,1.0));
#1648=AXIS2_PLACEMENT_3D('',#1645,#1646,#1647);
#1649=PLANE('',#1648);
#1650=CARTESIAN_POINT('',(-0.700000000000046,-1.499999999999999,0.455000000000001));
#1651=VERTEX_POINT('',#1650);
#1652=CARTESIAN_POINT('',(-0.700000000000046,-1.499999999999999,0.455000000000001));
#1653=DIRECTION('',(0.0,0.0,1.0));
#1654=VECTOR('',#1653,0.130000000000001);
#1655=LINE('',#1652,#1654);
#1656=EDGE_CURVE('',#1651,#1517,#1655,.T.);
#1657=ORIENTED_EDGE('',*,*,#1656,.F.);
#1658=CARTESIAN_POINT('',(-0.647816561616367,-1.499999999999999,0.130000000000003));
#1659=VERTEX_POINT('',#1658);
#1660=CARTESIAN_POINT('',(-0.647816561616367,-1.499999999999999,0.130000000000003));
#1661=DIRECTION('',(-0.158533854534227,0.0,0.987353542033714));
#1662=VECTOR('',#1661,0.329162742790769);
#1663=LINE('',#1660,#1662);
#1664=EDGE_CURVE('',#1659,#1651,#1663,.T.);
#1665=ORIENTED_EDGE('',*,*,#1664,.F.);
#1666=CARTESIAN_POINT('',(0.647816561616366,-1.499999999999999,0.130000000000003));
#1667=VERTEX_POINT('',#1666);
#1668=CARTESIAN_POINT('',(0.647816561616366,-1.499999999999999,0.130000000000003));
#1669=DIRECTION('',(-1.0,0.0,0.0));
#1670=VECTOR('',#1669,1.295633123232733);
#1671=LINE('',#1668,#1670);
#1672=EDGE_CURVE('',#1667,#1659,#1671,.T.);
#1673=ORIENTED_EDGE('',*,*,#1672,.F.);
#1674=CARTESIAN_POINT('',(0.700000000000045,-1.499999999999999,0.455000000000001));
#1675=VERTEX_POINT('',#1674);
#1676=CARTESIAN_POINT('',(0.700000000000045,-1.499999999999999,0.455000000000001));
#1677=DIRECTION('',(-0.158533854534227,0.0,-0.987353542033714));
#1678=VECTOR('',#1677,0.329162742790769);
#1679=LINE('',#1676,#1678);
#1680=EDGE_CURVE('',#1675,#1667,#1679,.T.);
#1681=ORIENTED_EDGE('',*,*,#1680,.F.);
#1682=CARTESIAN_POINT('',(0.700000000000045,-1.499999999999999,0.585000000000002));
#1683=DIRECTION('',(0.0,0.0,-1.0));
#1684=VECTOR('',#1683,0.130000000000001);
#1685=LINE('',#1682,#1684);
#1686=EDGE_CURVE('',#1622,#1675,#1685,.T.);
#1687=ORIENTED_EDGE('',*,*,#1686,.F.);
#1688=ORIENTED_EDGE('',*,*,#1627,.F.);
#1689=CARTESIAN_POINT('',(-0.606976559662890,-1.499999999999999,1.150000000000002));
#1690=DIRECTION('',(1.0,0.0,0.0));
#1691=VECTOR('',#1690,1.213953119325780);
#1692=LINE('',#1689,#1691);
#1693=EDGE_CURVE('',#1519,#1620,#1692,.T.);
#1694=ORIENTED_EDGE('',*,*,#1693,.F.);
#1695=ORIENTED_EDGE('',*,*,#1524,.F.);
#1696=EDGE_LOOP('',(#1657,#1665,#1673,#1681,#1687,#1688,#1694,#1695));
#1697=FACE_OUTER_BOUND('',#1696,.T.);
#1698=ADVANCED_FACE('',(#1697),#1649,.T.);
#1699=CARTESIAN_POINT('',(-0.700000000000045,1.500000000000001,0.455000000000001));
#1700=DIRECTION('',(-1.0,0.0,0.0));
#1701=DIRECTION('',(0.0,0.0,-1.0));
#1702=AXIS2_PLACEMENT_3D('',#1699,#1700,#1701);
#1703=PLANE('',#1702);
#1704=ORIENTED_EDGE('',*,*,#1656,.T.);
#1705=ORIENTED_EDGE('',*,*,#1546,.F.);
#1706=ORIENTED_EDGE('',*,*,#1570,.T.);
#1707=CARTESIAN_POINT('',(-0.700000000000045,1.500000000000001,0.455000000000001));
#1708=DIRECTION('',(0.0,-1.0,0.0));
#1709=VECTOR('',#1708,3.0);
#1710=LINE('',#1707,#1709);
#1711=EDGE_CURVE('',#1557,#1651,#1710,.T.);
#1712=ORIENTED_EDGE('',*,*,#1711,.T.);
#1713=EDGE_LOOP('',(#1704,#1705,#1706,#1712));
#1714=FACE_OUTER_BOUND('',#1713,.T.);
#1715=ADVANCED_FACE('',(#1714),#1703,.T.);
#1716=CARTESIAN_POINT('',(0.700000000000046,1.500000000000001,0.585000000000002));
#1717=DIRECTION('',(1.0,0.0,0.0));
#1718=DIRECTION('',(0.0,0.0,1.0));
#1719=AXIS2_PLACEMENT_3D('',#1716,#1717,#1718);
#1720=PLANE('',#1719);
#1721=ORIENTED_EDGE('',*,*,#1686,.T.);
#1722=CARTESIAN_POINT('',(0.700000000000046,1.500000000000001,0.455000000000001));
#1723=DIRECTION('',(0.0,-1.0,0.0));
#1724=VECTOR('',#1723,3.0);
#1725=LINE('',#1722,#1724);
#1726=EDGE_CURVE('',#1590,#1675,#1725,.T.);
#1727=ORIENTED_EDGE('',*,*,#1726,.F.);
#1728=ORIENTED_EDGE('',*,*,#1595,.T.);
#1729=ORIENTED_EDGE('',*,*,#1633,.T.);
#1730=EDGE_LOOP('',(#1721,#1727,#1728,#1729));
#1731=FACE_OUTER_BOUND('',#1730,.T.);
#1732=ADVANCED_FACE('',(#1731),#1720,.T.);
#1733=CARTESIAN_POINT('',(0.700000000000046,1.500000000000001,0.455000000000001));
#1734=DIRECTION('',(0.987353542033714,-1.209119E-016,-0.158533854534227));
#1735=DIRECTION('',(0.158533854534227,-1.941416E-017,0.987353542033714));
#1736=AXIS2_PLACEMENT_3D('',#1733,#1734,#1735);
#1737=PLANE('',#1736);
#1738=ORIENTED_EDGE('',*,*,#1680,.T.);
#1739=CARTESIAN_POINT('',(0.647816561616367,1.500000000000001,0.130000000000003));
#1740=DIRECTION('',(0.0,-1.0,0.0));
#1741=VECTOR('',#1740,3.0);
#1742=LINE('',#1739,#1741);
#1743=EDGE_CURVE('',#1598,#1667,#1742,.T.);
#1744=ORIENTED_EDGE('',*,*,#1743,.F.);
#1745=ORIENTED_EDGE('',*,*,#1603,.T.);
#1746=ORIENTED_EDGE('',*,*,#1726,.T.);
#1747=EDGE_LOOP('',(#1738,#1744,#1745,#1746));
#1748=FACE_OUTER_BOUND('',#1747,.T.);
#1749=ADVANCED_FACE('',(#1748),#1737,.T.);
#1750=CARTESIAN_POINT('',(0.647816561616367,1.500000000000001,0.130000000000003));
#1751=DIRECTION('',(0.0,0.0,-1.0));
#1752=DIRECTION('',(1.0,0.0,0.0));
#1753=AXIS2_PLACEMENT_3D('',#1750,#1751,#1752);
#1754=PLANE('',#1753);
#1755=ORIENTED_EDGE('',*,*,#1672,.T.);
#1756=CARTESIAN_POINT('',(-0.647816561616366,1.500000000000001,0.130000000000003));
#1757=DIRECTION('',(0.0,-1.0,0.0));
#1758=VECTOR('',#1757,3.0);
#1759=LINE('',#1756,#1758);
#1760=EDGE_CURVE('',#1559,#1659,#1759,.T.);
#1761=ORIENTED_EDGE('',*,*,#1760,.F.);
#1762=ORIENTED_EDGE('',*,*,#1609,.T.);
#1763=ORIENTED_EDGE('',*,*,#1743,.T.);
#1764=EDGE_LOOP('',(#1755,#1761,#1762,#1763));
#1765=FACE_OUTER_BOUND('',#1764,.T.);
#1766=ADVANCED_FACE('',(#1765),#1754,.T.);
#1767=CARTESIAN_POINT('',(-0.647816561616366,1.500000000000001,0.130000000000003));
#1768=DIRECTION('',(-0.987353542033714,1.209119E-016,-0.158533854534227));
#1769=DIRECTION('',(0.158533854534227,-1.941416E-017,-0.987353542033714));
#1770=AXIS2_PLACEMENT_3D('',#1767,#1768,#1769);
#1771=PLANE('',#1770);
#1772=ORIENTED_EDGE('',*,*,#1664,.T.);
#1773=ORIENTED_EDGE('',*,*,#1711,.F.);
#1774=ORIENTED_EDGE('',*,*,#1564,.T.);
#1775=ORIENTED_EDGE('',*,*,#1760,.T.);
#1776=EDGE_LOOP('',(#1772,#1773,#1774,#1775));
#1777=FACE_OUTER_BOUND('',#1776,.T.);
#1778=ADVANCED_FACE('',(#1777),#1771,.T.);
#1779=CARTESIAN_POINT('',(-0.615208722524585,1.500000000000001,1.150000000000002));
#1780=DIRECTION('',(0.0,0.0,1.0));
#1781=DIRECTION('',(-1.0,0.0,0.0));
#1782=AXIS2_PLACEMENT_3D('',#1779,#1780,#1781);
#1783=PLANE('',#1782);
#1784=ORIENTED_EDGE('',*,*,#1693,.T.);
#1785=ORIENTED_EDGE('',*,*,#1640,.F.);
#1786=ORIENTED_EDGE('',*,*,#1579,.T.);
#1787=ORIENTED_EDGE('',*,*,#1532,.T.);
#1788=EDGE_LOOP('',(#1784,#1785,#1786,#1787));
#1789=FACE_OUTER_BOUND('',#1788,.T.);
#1790=ADVANCED_FACE('',(#1789),#1783,.T.);
#1791=CLOSED_SHELL('',(#1550,#1613,#1644,#1698,#1715,#1732,#1749,#1766,#1778,#1790));
#1792=MANIFOLD_SOLID_BREP('EE',#1791);
#1793=COLOUR_RGB('250',0.330000000000000,0.330000000000000,0.330000000000000);
#1794=SURFACE_STYLE_USAGE(.BOTH.,#1795);
#1795=SURFACE_SIDE_STYLE('NONE',(#1796));
#1796=SURFACE_STYLE_FILL_AREA(#1797);
#1797=FILL_AREA_STYLE('NONE',(#1798));
#1798=FILL_AREA_STYLE_COLOUR('NONE',#1793);
#1799=PRESENTATION_STYLE_ASSIGNMENT((#1794));
#1800=STYLED_ITEM('NONE',(#1799),#1792);
#1801=ADVANCED_BREP_SHAPE_REPRESENTATION('ABSR1',(#486,#1002,#1509,#1792),#28);
#1802=SHAPE_REPRESENTATION_RELATIONSHIP('SRRPL1','',#1801,#62);
ENDSEC;
END-ISO-10303-21;
