ISO-10303-21;
HEADER;
/* Generated by software containing ST-Developer
 * from STEP Tools, Inc. (www.steptools.com) 
 */

FILE_DESCRIPTION(
/* description */ (''),
/* implementation_level */ '2;1');

FILE_NAME(
/* name */ 
'G:\\Applications\\Altium\\CernLib\\StepLib\\SOURIAU_UT07125P21E8T_NUT.
stp',
/* time_stamp */ '2016-03-03T13:44:51+01:00',
/* author */ ('riccim'),
/* organization */ (''),
/* preprocessor_version */ 'ST-DEVELOPER v15.5',
/* originating_system */ 'AutoCAD Mechanical',
/* authorisation */ '');

FILE_SCHEMA (('AUTOMOTIVE_DESIGN { 1 0 10303 214 3 1 1 }'));
ENDSEC;

DATA;
#10=MECHANICAL_DESIGN_GEOMETRIC_PRESENTATION_REPRESENTATION('',(#17),#901);
#11=DIMENSIONAL_EXPONENTS(0.,0.,0.,0.,0.,0.,0.);
#12=(
CONVERSION_BASED_UNIT('degree',#13)
NAMED_UNIT(#11)
PLANE_ANGLE_UNIT()
);
#13=PLANE_ANGLE_MEASURE_WITH_UNIT(PLANE_ANGLE_MEASURE(0.01745329252),#904);
#14=PRESENTATION_LAYER_ASSIGNMENT('3D','',(#441));
#15=SHAPE_REPRESENTATION_RELATIONSHIP('SRR','None',#907,#16);
#16=ADVANCED_BREP_SHAPE_REPRESENTATION($,(#441),#900);
#17=STYLED_ITEM($,(#917),#441);
#18=PLANE($,#470);
#19=PLANE($,#473);
#20=PLANE($,#476);
#21=PLANE($,#479);
#22=PLANE($,#482);
#23=PLANE($,#485);
#24=PLANE($,#496);
#25=PLANE($,#497);
#26=B_SPLINE_CURVE_WITH_KNOTS($,3,(#643,#644,#645,#646,#647,#648,#649),
 .UNSPECIFIED.,.F.,.F.,(4,1,1,1,4),(0.,0.25,0.5,0.75,1.),.UNSPECIFIED.);
#27=B_SPLINE_CURVE_WITH_KNOTS($,3,(#652,#653,#654,#655,#656,#657,#658),
 .UNSPECIFIED.,.F.,.F.,(4,1,1,1,4),(0.,0.25,0.5,0.75,1.),.UNSPECIFIED.);
#28=B_SPLINE_CURVE_WITH_KNOTS($,3,(#662,#663,#664,#665,#666,#667,#668),
 .UNSPECIFIED.,.F.,.F.,(4,1,1,1,4),(0.,0.25,0.5,0.75,1.),.UNSPECIFIED.);
#29=B_SPLINE_CURVE_WITH_KNOTS($,3,(#672,#673,#674,#675,#676,#677,#678),
 .UNSPECIFIED.,.F.,.F.,(4,1,1,1,4),(0.,0.25,0.5,0.75,1.),.UNSPECIFIED.);
#30=B_SPLINE_CURVE_WITH_KNOTS($,3,(#684,#685,#686,#687,#688,#689,#690),
 .UNSPECIFIED.,.F.,.F.,(4,1,1,1,4),(0.,0.25,0.5,0.75,1.),.UNSPECIFIED.);
#31=B_SPLINE_CURVE_WITH_KNOTS($,3,(#693,#694,#695,#696,#697,#698,#699),
 .UNSPECIFIED.,.F.,.F.,(4,1,1,1,4),(0.,0.25,0.5,0.75,1.),.UNSPECIFIED.);
#32=B_SPLINE_CURVE_WITH_KNOTS($,3,(#703,#704,#705,#706,#707,#708,#709),
 .UNSPECIFIED.,.F.,.F.,(4,1,1,1,4),(0.,0.25,0.5,0.75,1.),.UNSPECIFIED.);
#33=B_SPLINE_CURVE_WITH_KNOTS($,3,(#712,#713,#714,#715,#716,#717,#718),
 .UNSPECIFIED.,.F.,.F.,(4,1,1,1,4),(0.,0.25,0.5,0.75,1.),.UNSPECIFIED.);
#34=B_SPLINE_CURVE_WITH_KNOTS($,3,(#723,#724,#725,#726,#727,#728,#729),
 .UNSPECIFIED.,.F.,.F.,(4,1,1,1,4),(0.,0.25,0.5,0.75,1.),.UNSPECIFIED.);
#35=B_SPLINE_CURVE_WITH_KNOTS($,3,(#732,#733,#734,#735,#736,#737,#738),
 .UNSPECIFIED.,.F.,.F.,(4,1,1,1,4),(0.,0.25,0.5,0.75,1.),.UNSPECIFIED.);
#36=B_SPLINE_CURVE_WITH_KNOTS($,3,(#742,#743,#744,#745,#746,#747,#748),
 .UNSPECIFIED.,.F.,.F.,(4,1,1,1,4),(0.,0.25,0.5,0.75,1.),.UNSPECIFIED.);
#37=B_SPLINE_CURVE_WITH_KNOTS($,3,(#751,#752,#753,#754,#755,#756,#757),
 .UNSPECIFIED.,.F.,.F.,(4,1,1,1,4),(0.,0.25,0.5,0.75,1.),.UNSPECIFIED.);
#38=B_SPLINE_CURVE_WITH_KNOTS($,3,(#768,#769,#770,#771,#772,#773,#774),
 .UNSPECIFIED.,.F.,.F.,(4,1,1,1,4),(0.,0.25,0.5,0.75,1.),.UNSPECIFIED.);
#39=B_SPLINE_CURVE_WITH_KNOTS($,3,(#775,#776,#777,#778,#779,#780,#781),
 .UNSPECIFIED.,.F.,.F.,(4,1,1,1,4),(0.,0.25,0.5,0.75,1.),.UNSPECIFIED.);
#40=B_SPLINE_CURVE_WITH_KNOTS($,3,(#790,#791,#792,#793,#794,#795,#796),
 .UNSPECIFIED.,.F.,.F.,(4,1,1,1,4),(0.,0.25,0.5,0.75,1.),.UNSPECIFIED.);
#41=B_SPLINE_CURVE_WITH_KNOTS($,3,(#797,#798,#799,#800,#801,#802,#803),
 .UNSPECIFIED.,.F.,.F.,(4,1,1,1,4),(0.,0.25,0.5,0.75,1.),.UNSPECIFIED.);
#42=B_SPLINE_CURVE_WITH_KNOTS($,3,(#812,#813,#814,#815,#816,#817,#818),
 .UNSPECIFIED.,.F.,.F.,(4,1,1,1,4),(0.,0.25,0.5,0.75,1.),.UNSPECIFIED.);
#43=B_SPLINE_CURVE_WITH_KNOTS($,3,(#819,#820,#821,#822,#823,#824,#825),
 .UNSPECIFIED.,.F.,.F.,(4,1,1,1,4),(0.,0.25,0.5,0.75,1.),.UNSPECIFIED.);
#44=B_SPLINE_CURVE_WITH_KNOTS($,3,(#832,#833,#834,#835,#836,#837,#838),
 .UNSPECIFIED.,.F.,.F.,(4,1,1,1,4),(0.,0.25,0.5,0.75,1.),.UNSPECIFIED.);
#45=B_SPLINE_CURVE_WITH_KNOTS($,3,(#839,#840,#841,#842,#843,#844,#845),
 .UNSPECIFIED.,.F.,.F.,(4,1,1,1,4),(0.,0.25,0.5,0.75,1.),.UNSPECIFIED.);
#46=B_SPLINE_CURVE_WITH_KNOTS($,3,(#848,#849,#850,#851,#852,#853,#854),
 .UNSPECIFIED.,.F.,.F.,(4,1,1,1,4),(0.,0.25,0.5,0.75,1.),.UNSPECIFIED.);
#47=B_SPLINE_CURVE_WITH_KNOTS($,3,(#859,#860,#861,#862,#863,#864,#865),
 .UNSPECIFIED.,.F.,.F.,(4,1,1,1,4),(0.,0.25,0.5,0.75,1.),.UNSPECIFIED.);
#48=B_SPLINE_CURVE_WITH_KNOTS($,3,(#872,#873,#874,#875,#876,#877,#878),
 .UNSPECIFIED.,.F.,.F.,(4,1,1,1,4),(0.,0.25,0.5,0.75,1.),.UNSPECIFIED.);
#49=B_SPLINE_CURVE_WITH_KNOTS($,3,(#879,#880,#881,#882,#883,#884,#885),
 .UNSPECIFIED.,.F.,.F.,(4,1,1,1,4),(0.,0.25,0.5,0.75,1.),.UNSPECIFIED.);
#50=CONICAL_SURFACE($,#451,3.73205080756888,1.30899693899575);
#51=CONICAL_SURFACE($,#453,3.73205080756888,1.30899693899575);
#52=CONICAL_SURFACE($,#456,3.73205080756888,1.30899693899575);
#53=CONICAL_SURFACE($,#459,3.73205080756888,1.30899693899575);
#54=CONICAL_SURFACE($,#462,3.73205080756888,1.30899693899575);
#55=CONICAL_SURFACE($,#465,3.73205080756888,1.30899693899575);
#56=CONICAL_SURFACE($,#480,3.73205080756888,1.30899693899575);
#57=CONICAL_SURFACE($,#486,3.73205080756888,1.30899693899575);
#58=CONICAL_SURFACE($,#488,3.73205080756888,1.30899693899575);
#59=CONICAL_SURFACE($,#490,3.73205080756888,1.30899693899575);
#60=CONICAL_SURFACE($,#492,3.73205080756888,1.30899693899575);
#61=CONICAL_SURFACE($,#494,3.73205080756888,1.30899693899575);
#62=LINE($,#635,#74);
#63=LINE($,#639,#75);
#64=LINE($,#760,#76);
#65=LINE($,#762,#77);
#66=LINE($,#766,#78);
#67=LINE($,#784,#79);
#68=LINE($,#788,#80);
#69=LINE($,#806,#81);
#70=LINE($,#810,#82);
#71=LINE($,#828,#83);
#72=LINE($,#858,#84);
#73=LINE($,#868,#85);
#74=VECTOR($,#512,2.894101615138);
#75=VECTOR($,#515,2.894101615138);
#76=VECTOR($,#554,2.894101615138);
#77=VECTOR($,#555,2.894101615138);
#78=VECTOR($,#560,2.894101615138);
#79=VECTOR($,#563,2.894101615138);
#80=VECTOR($,#568,2.894101615138);
#81=VECTOR($,#571,2.894101615138);
#82=VECTOR($,#576,2.894101615138);
#83=VECTOR($,#579,2.894101615138);
#84=VECTOR($,#590,2.894101615138);
#85=VECTOR($,#593,2.894101615138);
#86=FACE_BOUND($,#117,.T.);
#87=FACE_BOUND($,#143,.T.);
#88=FACE_BOUND($,#145,.T.);
#89=FACE_OUTER_BOUND($,#116,.T.);
#90=FACE_OUTER_BOUND($,#118,.T.);
#91=FACE_OUTER_BOUND($,#119,.T.);
#92=FACE_OUTER_BOUND($,#120,.T.);
#93=FACE_OUTER_BOUND($,#121,.T.);
#94=FACE_OUTER_BOUND($,#122,.T.);
#95=FACE_OUTER_BOUND($,#123,.T.);
#96=FACE_OUTER_BOUND($,#124,.T.);
#97=FACE_OUTER_BOUND($,#125,.T.);
#98=FACE_OUTER_BOUND($,#126,.T.);
#99=FACE_OUTER_BOUND($,#127,.T.);
#100=FACE_OUTER_BOUND($,#128,.T.);
#101=FACE_OUTER_BOUND($,#129,.T.);
#102=FACE_OUTER_BOUND($,#130,.T.);
#103=FACE_OUTER_BOUND($,#131,.T.);
#104=FACE_OUTER_BOUND($,#132,.T.);
#105=FACE_OUTER_BOUND($,#133,.T.);
#106=FACE_OUTER_BOUND($,#134,.T.);
#107=FACE_OUTER_BOUND($,#135,.T.);
#108=FACE_OUTER_BOUND($,#136,.T.);
#109=FACE_OUTER_BOUND($,#137,.T.);
#110=FACE_OUTER_BOUND($,#138,.T.);
#111=FACE_OUTER_BOUND($,#139,.T.);
#112=FACE_OUTER_BOUND($,#140,.T.);
#113=FACE_OUTER_BOUND($,#141,.T.);
#114=FACE_OUTER_BOUND($,#142,.T.);
#115=FACE_OUTER_BOUND($,#144,.T.);
#116=EDGE_LOOP($,(#278,#279));
#117=EDGE_LOOP($,(#280,#281));
#118=EDGE_LOOP($,(#282,#283,#284,#285));
#119=EDGE_LOOP($,(#286,#287,#288,#289));
#120=EDGE_LOOP($,(#290,#291,#292,#293));
#121=EDGE_LOOP($,(#294,#295,#296,#297));
#122=EDGE_LOOP($,(#298,#299,#300,#301));
#123=EDGE_LOOP($,(#302,#303,#304,#305));
#124=EDGE_LOOP($,(#306,#307,#308,#309));
#125=EDGE_LOOP($,(#310,#311,#312,#313));
#126=EDGE_LOOP($,(#314,#315,#316,#317,#318,#319));
#127=EDGE_LOOP($,(#320,#321,#322,#323));
#128=EDGE_LOOP($,(#324,#325,#326,#327,#328,#329));
#129=EDGE_LOOP($,(#330,#331,#332,#333));
#130=EDGE_LOOP($,(#334,#335,#336,#337,#338,#339));
#131=EDGE_LOOP($,(#340,#341,#342,#343));
#132=EDGE_LOOP($,(#344,#345,#346,#347,#348,#349));
#133=EDGE_LOOP($,(#350,#351,#352,#353));
#134=EDGE_LOOP($,(#354,#355,#356,#357,#358,#359));
#135=EDGE_LOOP($,(#360,#361,#362,#363));
#136=EDGE_LOOP($,(#364,#365,#366,#367,#368,#369));
#137=EDGE_LOOP($,(#370,#371,#372,#373));
#138=EDGE_LOOP($,(#374,#375,#376,#377));
#139=EDGE_LOOP($,(#378,#379,#380,#381));
#140=EDGE_LOOP($,(#382,#383,#384,#385));
#141=EDGE_LOOP($,(#386,#387,#388,#389));
#142=EDGE_LOOP($,(#390,#391,#392,#393,#394,#395));
#143=EDGE_LOOP($,(#396,#397));
#144=EDGE_LOOP($,(#398,#399,#400,#401,#402,#403));
#145=EDGE_LOOP($,(#404,#405));
#146=CIRCLE($,#444,10.74);
#147=CIRCLE($,#445,10.74);
#148=CIRCLE($,#446,10.74);
#149=CIRCLE($,#447,10.74);
#150=CIRCLE($,#449,14.);
#151=CIRCLE($,#450,14.);
#152=CIRCLE($,#452,13.);
#153=CIRCLE($,#454,13.);
#154=CIRCLE($,#455,14.);
#155=CIRCLE($,#457,13.);
#156=CIRCLE($,#458,14.);
#157=CIRCLE($,#460,13.);
#158=CIRCLE($,#461,14.);
#159=CIRCLE($,#463,13.);
#160=CIRCLE($,#464,14.);
#161=CIRCLE($,#466,13.);
#162=CIRCLE($,#467,14.);
#163=CIRCLE($,#469,14.);
#164=CIRCLE($,#472,14.);
#165=CIRCLE($,#475,14.);
#166=CIRCLE($,#478,14.);
#167=CIRCLE($,#481,13.);
#168=CIRCLE($,#484,14.);
#169=CIRCLE($,#487,13.);
#170=CIRCLE($,#489,13.);
#171=CIRCLE($,#491,13.);
#172=CIRCLE($,#493,13.);
#173=CIRCLE($,#495,13.);
#174=VERTEX_POINT($,#624);
#175=VERTEX_POINT($,#625);
#176=VERTEX_POINT($,#628);
#177=VERTEX_POINT($,#629);
#178=VERTEX_POINT($,#633);
#179=VERTEX_POINT($,#634);
#180=VERTEX_POINT($,#636);
#181=VERTEX_POINT($,#638);
#182=VERTEX_POINT($,#642);
#183=VERTEX_POINT($,#650);
#184=VERTEX_POINT($,#660);
#185=VERTEX_POINT($,#661);
#186=VERTEX_POINT($,#669);
#187=VERTEX_POINT($,#671);
#188=VERTEX_POINT($,#681);
#189=VERTEX_POINT($,#683);
#190=VERTEX_POINT($,#691);
#191=VERTEX_POINT($,#702);
#192=VERTEX_POINT($,#710);
#193=VERTEX_POINT($,#720);
#194=VERTEX_POINT($,#722);
#195=VERTEX_POINT($,#730);
#196=VERTEX_POINT($,#741);
#197=VERTEX_POINT($,#749);
#198=VERTEX_POINT($,#759);
#199=VERTEX_POINT($,#761);
#200=VERTEX_POINT($,#765);
#201=VERTEX_POINT($,#767);
#202=VERTEX_POINT($,#783);
#203=VERTEX_POINT($,#787);
#204=VERTEX_POINT($,#789);
#205=VERTEX_POINT($,#805);
#206=VERTEX_POINT($,#809);
#207=VERTEX_POINT($,#811);
#208=VERTEX_POINT($,#827);
#209=VERTEX_POINT($,#831);
#210=VERTEX_POINT($,#847);
#211=VERTEX_POINT($,#857);
#212=VERTEX_POINT($,#867);
#213=VERTEX_POINT($,#871);
#214=EDGE_CURVE($,#174,#175,#146,.T.);
#215=EDGE_CURVE($,#175,#174,#147,.T.);
#216=EDGE_CURVE($,#176,#177,#148,.T.);
#217=EDGE_CURVE($,#176,#177,#149,.T.);
#218=EDGE_CURVE($,#178,#179,#62,.T.);
#219=EDGE_CURVE($,#178,#180,#150,.T.);
#220=EDGE_CURVE($,#180,#181,#63,.T.);
#221=EDGE_CURVE($,#181,#179,#151,.T.);
#222=EDGE_CURVE($,#182,#178,#26,.T.);
#223=EDGE_CURVE($,#183,#182,#152,.T.);
#224=EDGE_CURVE($,#183,#180,#27,.T.);
#225=EDGE_CURVE($,#184,#185,#28,.T.);
#226=EDGE_CURVE($,#186,#184,#153,.T.);
#227=EDGE_CURVE($,#186,#187,#29,.T.);
#228=EDGE_CURVE($,#185,#187,#154,.T.);
#229=EDGE_CURVE($,#188,#184,#155,.T.);
#230=EDGE_CURVE($,#184,#189,#30,.T.);
#231=EDGE_CURVE($,#190,#189,#156,.T.);
#232=EDGE_CURVE($,#188,#190,#31,.T.);
#233=EDGE_CURVE($,#183,#188,#157,.T.);
#234=EDGE_CURVE($,#188,#191,#32,.T.);
#235=EDGE_CURVE($,#192,#191,#158,.T.);
#236=EDGE_CURVE($,#183,#192,#33,.T.);
#237=EDGE_CURVE($,#186,#193,#159,.T.);
#238=EDGE_CURVE($,#193,#194,#34,.T.);
#239=EDGE_CURVE($,#195,#194,#160,.T.);
#240=EDGE_CURVE($,#186,#195,#35,.T.);
#241=EDGE_CURVE($,#193,#182,#161,.T.);
#242=EDGE_CURVE($,#182,#196,#36,.T.);
#243=EDGE_CURVE($,#197,#196,#162,.T.);
#244=EDGE_CURVE($,#193,#197,#37,.T.);
#245=EDGE_CURVE($,#195,#198,#64,.T.);
#246=EDGE_CURVE($,#194,#199,#65,.T.);
#247=EDGE_CURVE($,#198,#199,#163,.T.);
#248=EDGE_CURVE($,#187,#200,#66,.T.);
#249=EDGE_CURVE($,#201,#198,#38,.T.);
#250=EDGE_CURVE($,#200,#201,#39,.T.);
#251=EDGE_CURVE($,#185,#202,#67,.T.);
#252=EDGE_CURVE($,#200,#202,#164,.T.);
#253=EDGE_CURVE($,#189,#203,#68,.T.);
#254=EDGE_CURVE($,#204,#202,#40,.T.);
#255=EDGE_CURVE($,#203,#204,#41,.T.);
#256=EDGE_CURVE($,#190,#205,#69,.T.);
#257=EDGE_CURVE($,#205,#203,#165,.T.);
#258=EDGE_CURVE($,#191,#206,#70,.T.);
#259=EDGE_CURVE($,#207,#205,#42,.T.);
#260=EDGE_CURVE($,#206,#207,#43,.T.);
#261=EDGE_CURVE($,#192,#208,#71,.T.);
#262=EDGE_CURVE($,#208,#206,#166,.T.);
#263=EDGE_CURVE($,#209,#208,#44,.T.);
#264=EDGE_CURVE($,#181,#209,#45,.T.);
#265=EDGE_CURVE($,#210,#179,#46,.T.);
#266=EDGE_CURVE($,#210,#209,#167,.T.);
#267=EDGE_CURVE($,#196,#211,#72,.T.);
#268=EDGE_CURVE($,#211,#210,#47,.T.);
#269=EDGE_CURVE($,#197,#212,#73,.T.);
#270=EDGE_CURVE($,#212,#211,#168,.T.);
#271=EDGE_CURVE($,#213,#212,#48,.T.);
#272=EDGE_CURVE($,#199,#213,#49,.T.);
#273=EDGE_CURVE($,#204,#201,#169,.T.);
#274=EDGE_CURVE($,#207,#204,#170,.T.);
#275=EDGE_CURVE($,#209,#207,#171,.T.);
#276=EDGE_CURVE($,#201,#213,#172,.T.);
#277=EDGE_CURVE($,#213,#210,#173,.T.);
#278=ORIENTED_EDGE($,*,*,#214,.F.);
#279=ORIENTED_EDGE($,*,*,#215,.F.);
#280=ORIENTED_EDGE($,*,*,#216,.F.);
#281=ORIENTED_EDGE($,*,*,#217,.T.);
#282=ORIENTED_EDGE($,*,*,#218,.F.);
#283=ORIENTED_EDGE($,*,*,#219,.T.);
#284=ORIENTED_EDGE($,*,*,#220,.T.);
#285=ORIENTED_EDGE($,*,*,#221,.T.);
#286=ORIENTED_EDGE($,*,*,#222,.F.);
#287=ORIENTED_EDGE($,*,*,#223,.F.);
#288=ORIENTED_EDGE($,*,*,#224,.T.);
#289=ORIENTED_EDGE($,*,*,#219,.F.);
#290=ORIENTED_EDGE($,*,*,#225,.F.);
#291=ORIENTED_EDGE($,*,*,#226,.F.);
#292=ORIENTED_EDGE($,*,*,#227,.T.);
#293=ORIENTED_EDGE($,*,*,#228,.F.);
#294=ORIENTED_EDGE($,*,*,#229,.T.);
#295=ORIENTED_EDGE($,*,*,#230,.T.);
#296=ORIENTED_EDGE($,*,*,#231,.F.);
#297=ORIENTED_EDGE($,*,*,#232,.F.);
#298=ORIENTED_EDGE($,*,*,#233,.T.);
#299=ORIENTED_EDGE($,*,*,#234,.T.);
#300=ORIENTED_EDGE($,*,*,#235,.F.);
#301=ORIENTED_EDGE($,*,*,#236,.F.);
#302=ORIENTED_EDGE($,*,*,#237,.T.);
#303=ORIENTED_EDGE($,*,*,#238,.T.);
#304=ORIENTED_EDGE($,*,*,#239,.F.);
#305=ORIENTED_EDGE($,*,*,#240,.F.);
#306=ORIENTED_EDGE($,*,*,#241,.T.);
#307=ORIENTED_EDGE($,*,*,#242,.T.);
#308=ORIENTED_EDGE($,*,*,#243,.F.);
#309=ORIENTED_EDGE($,*,*,#244,.F.);
#310=ORIENTED_EDGE($,*,*,#245,.F.);
#311=ORIENTED_EDGE($,*,*,#239,.T.);
#312=ORIENTED_EDGE($,*,*,#246,.T.);
#313=ORIENTED_EDGE($,*,*,#247,.F.);
#314=ORIENTED_EDGE($,*,*,#248,.F.);
#315=ORIENTED_EDGE($,*,*,#227,.F.);
#316=ORIENTED_EDGE($,*,*,#240,.T.);
#317=ORIENTED_EDGE($,*,*,#245,.T.);
#318=ORIENTED_EDGE($,*,*,#249,.F.);
#319=ORIENTED_EDGE($,*,*,#250,.F.);
#320=ORIENTED_EDGE($,*,*,#251,.F.);
#321=ORIENTED_EDGE($,*,*,#228,.T.);
#322=ORIENTED_EDGE($,*,*,#248,.T.);
#323=ORIENTED_EDGE($,*,*,#252,.T.);
#324=ORIENTED_EDGE($,*,*,#253,.F.);
#325=ORIENTED_EDGE($,*,*,#230,.F.);
#326=ORIENTED_EDGE($,*,*,#225,.T.);
#327=ORIENTED_EDGE($,*,*,#251,.T.);
#328=ORIENTED_EDGE($,*,*,#254,.F.);
#329=ORIENTED_EDGE($,*,*,#255,.F.);
#330=ORIENTED_EDGE($,*,*,#256,.F.);
#331=ORIENTED_EDGE($,*,*,#231,.T.);
#332=ORIENTED_EDGE($,*,*,#253,.T.);
#333=ORIENTED_EDGE($,*,*,#257,.F.);
#334=ORIENTED_EDGE($,*,*,#258,.F.);
#335=ORIENTED_EDGE($,*,*,#234,.F.);
#336=ORIENTED_EDGE($,*,*,#232,.T.);
#337=ORIENTED_EDGE($,*,*,#256,.T.);
#338=ORIENTED_EDGE($,*,*,#259,.F.);
#339=ORIENTED_EDGE($,*,*,#260,.F.);
#340=ORIENTED_EDGE($,*,*,#261,.F.);
#341=ORIENTED_EDGE($,*,*,#235,.T.);
#342=ORIENTED_EDGE($,*,*,#258,.T.);
#343=ORIENTED_EDGE($,*,*,#262,.F.);
#344=ORIENTED_EDGE($,*,*,#220,.F.);
#345=ORIENTED_EDGE($,*,*,#224,.F.);
#346=ORIENTED_EDGE($,*,*,#236,.T.);
#347=ORIENTED_EDGE($,*,*,#261,.T.);
#348=ORIENTED_EDGE($,*,*,#263,.F.);
#349=ORIENTED_EDGE($,*,*,#264,.F.);
#350=ORIENTED_EDGE($,*,*,#265,.T.);
#351=ORIENTED_EDGE($,*,*,#221,.F.);
#352=ORIENTED_EDGE($,*,*,#264,.T.);
#353=ORIENTED_EDGE($,*,*,#266,.F.);
#354=ORIENTED_EDGE($,*,*,#267,.F.);
#355=ORIENTED_EDGE($,*,*,#242,.F.);
#356=ORIENTED_EDGE($,*,*,#222,.T.);
#357=ORIENTED_EDGE($,*,*,#218,.T.);
#358=ORIENTED_EDGE($,*,*,#265,.F.);
#359=ORIENTED_EDGE($,*,*,#268,.F.);
#360=ORIENTED_EDGE($,*,*,#269,.F.);
#361=ORIENTED_EDGE($,*,*,#243,.T.);
#362=ORIENTED_EDGE($,*,*,#267,.T.);
#363=ORIENTED_EDGE($,*,*,#270,.F.);
#364=ORIENTED_EDGE($,*,*,#246,.F.);
#365=ORIENTED_EDGE($,*,*,#238,.F.);
#366=ORIENTED_EDGE($,*,*,#244,.T.);
#367=ORIENTED_EDGE($,*,*,#269,.T.);
#368=ORIENTED_EDGE($,*,*,#271,.F.);
#369=ORIENTED_EDGE($,*,*,#272,.F.);
#370=ORIENTED_EDGE($,*,*,#254,.T.);
#371=ORIENTED_EDGE($,*,*,#252,.F.);
#372=ORIENTED_EDGE($,*,*,#250,.T.);
#373=ORIENTED_EDGE($,*,*,#273,.F.);
#374=ORIENTED_EDGE($,*,*,#257,.T.);
#375=ORIENTED_EDGE($,*,*,#255,.T.);
#376=ORIENTED_EDGE($,*,*,#274,.F.);
#377=ORIENTED_EDGE($,*,*,#259,.T.);
#378=ORIENTED_EDGE($,*,*,#262,.T.);
#379=ORIENTED_EDGE($,*,*,#260,.T.);
#380=ORIENTED_EDGE($,*,*,#275,.F.);
#381=ORIENTED_EDGE($,*,*,#263,.T.);
#382=ORIENTED_EDGE($,*,*,#247,.T.);
#383=ORIENTED_EDGE($,*,*,#272,.T.);
#384=ORIENTED_EDGE($,*,*,#276,.F.);
#385=ORIENTED_EDGE($,*,*,#249,.T.);
#386=ORIENTED_EDGE($,*,*,#270,.T.);
#387=ORIENTED_EDGE($,*,*,#268,.T.);
#388=ORIENTED_EDGE($,*,*,#277,.F.);
#389=ORIENTED_EDGE($,*,*,#271,.T.);
#390=ORIENTED_EDGE($,*,*,#276,.T.);
#391=ORIENTED_EDGE($,*,*,#277,.T.);
#392=ORIENTED_EDGE($,*,*,#266,.T.);
#393=ORIENTED_EDGE($,*,*,#275,.T.);
#394=ORIENTED_EDGE($,*,*,#274,.T.);
#395=ORIENTED_EDGE($,*,*,#273,.T.);
#396=ORIENTED_EDGE($,*,*,#214,.T.);
#397=ORIENTED_EDGE($,*,*,#215,.T.);
#398=ORIENTED_EDGE($,*,*,#229,.F.);
#399=ORIENTED_EDGE($,*,*,#233,.F.);
#400=ORIENTED_EDGE($,*,*,#223,.T.);
#401=ORIENTED_EDGE($,*,*,#241,.F.);
#402=ORIENTED_EDGE($,*,*,#237,.F.);
#403=ORIENTED_EDGE($,*,*,#226,.T.);
#404=ORIENTED_EDGE($,*,*,#216,.T.);
#405=ORIENTED_EDGE($,*,*,#217,.F.);
#406=CYLINDRICAL_SURFACE($,#443,10.74);
#407=CYLINDRICAL_SURFACE($,#448,14.);
#408=CYLINDRICAL_SURFACE($,#468,14.);
#409=CYLINDRICAL_SURFACE($,#471,14.);
#410=CYLINDRICAL_SURFACE($,#474,14.);
#411=CYLINDRICAL_SURFACE($,#477,14.);
#412=CYLINDRICAL_SURFACE($,#483,14.);
#413=ADVANCED_FACE($,(#89,#86),#406,.F.);
#414=ADVANCED_FACE($,(#90),#407,.T.);
#415=ADVANCED_FACE($,(#91),#50,.T.);
#416=ADVANCED_FACE($,(#92),#51,.T.);
#417=ADVANCED_FACE($,(#93),#52,.T.);
#418=ADVANCED_FACE($,(#94),#53,.T.);
#419=ADVANCED_FACE($,(#95),#54,.T.);
#420=ADVANCED_FACE($,(#96),#55,.T.);
#421=ADVANCED_FACE($,(#97),#408,.T.);
#422=ADVANCED_FACE($,(#98),#18,.T.);
#423=ADVANCED_FACE($,(#99),#409,.T.);
#424=ADVANCED_FACE($,(#100),#19,.T.);
#425=ADVANCED_FACE($,(#101),#410,.T.);
#426=ADVANCED_FACE($,(#102),#20,.T.);
#427=ADVANCED_FACE($,(#103),#411,.T.);
#428=ADVANCED_FACE($,(#104),#21,.T.);
#429=ADVANCED_FACE($,(#105),#56,.T.);
#430=ADVANCED_FACE($,(#106),#22,.T.);
#431=ADVANCED_FACE($,(#107),#412,.T.);
#432=ADVANCED_FACE($,(#108),#23,.T.);
#433=ADVANCED_FACE($,(#109),#57,.T.);
#434=ADVANCED_FACE($,(#110),#58,.T.);
#435=ADVANCED_FACE($,(#111),#59,.T.);
#436=ADVANCED_FACE($,(#112),#60,.T.);
#437=ADVANCED_FACE($,(#113),#61,.T.);
#438=ADVANCED_FACE($,(#114,#87),#24,.T.);
#439=ADVANCED_FACE($,(#115,#88),#25,.F.);
#440=CLOSED_SHELL($,(#413,#414,#415,#416,#417,#418,#419,#420,#421,#422,
#423,#424,#425,#426,#427,#428,#429,#430,#431,#432,#433,#434,#435,#436,#437,
#438,#439));
#441=MANIFOLD_SOLID_BREP('98',#440);
#442=AXIS2_PLACEMENT_3D('placement',#622,#498,#499);
#443=AXIS2_PLACEMENT_3D($,#623,#500,#501);
#444=AXIS2_PLACEMENT_3D($,#626,#502,#503);
#445=AXIS2_PLACEMENT_3D($,#627,#504,#505);
#446=AXIS2_PLACEMENT_3D($,#630,#506,#507);
#447=AXIS2_PLACEMENT_3D($,#631,#508,#509);
#448=AXIS2_PLACEMENT_3D($,#632,#510,#511);
#449=AXIS2_PLACEMENT_3D($,#637,#513,#514);
#450=AXIS2_PLACEMENT_3D($,#640,#516,#517);
#451=AXIS2_PLACEMENT_3D($,#641,#518,#519);
#452=AXIS2_PLACEMENT_3D($,#651,#520,#521);
#453=AXIS2_PLACEMENT_3D($,#659,#522,#523);
#454=AXIS2_PLACEMENT_3D($,#670,#524,#525);
#455=AXIS2_PLACEMENT_3D($,#679,#526,#527);
#456=AXIS2_PLACEMENT_3D($,#680,#528,#529);
#457=AXIS2_PLACEMENT_3D($,#682,#530,#531);
#458=AXIS2_PLACEMENT_3D($,#692,#532,#533);
#459=AXIS2_PLACEMENT_3D($,#700,#534,#535);
#460=AXIS2_PLACEMENT_3D($,#701,#536,#537);
#461=AXIS2_PLACEMENT_3D($,#711,#538,#539);
#462=AXIS2_PLACEMENT_3D($,#719,#540,#541);
#463=AXIS2_PLACEMENT_3D($,#721,#542,#543);
#464=AXIS2_PLACEMENT_3D($,#731,#544,#545);
#465=AXIS2_PLACEMENT_3D($,#739,#546,#547);
#466=AXIS2_PLACEMENT_3D($,#740,#548,#549);
#467=AXIS2_PLACEMENT_3D($,#750,#550,#551);
#468=AXIS2_PLACEMENT_3D($,#758,#552,#553);
#469=AXIS2_PLACEMENT_3D($,#763,#556,#557);
#470=AXIS2_PLACEMENT_3D($,#764,#558,#559);
#471=AXIS2_PLACEMENT_3D($,#782,#561,#562);
#472=AXIS2_PLACEMENT_3D($,#785,#564,#565);
#473=AXIS2_PLACEMENT_3D($,#786,#566,#567);
#474=AXIS2_PLACEMENT_3D($,#804,#569,#570);
#475=AXIS2_PLACEMENT_3D($,#807,#572,#573);
#476=AXIS2_PLACEMENT_3D($,#808,#574,#575);
#477=AXIS2_PLACEMENT_3D($,#826,#577,#578);
#478=AXIS2_PLACEMENT_3D($,#829,#580,#581);
#479=AXIS2_PLACEMENT_3D($,#830,#582,#583);
#480=AXIS2_PLACEMENT_3D($,#846,#584,#585);
#481=AXIS2_PLACEMENT_3D($,#855,#586,#587);
#482=AXIS2_PLACEMENT_3D($,#856,#588,#589);
#483=AXIS2_PLACEMENT_3D($,#866,#591,#592);
#484=AXIS2_PLACEMENT_3D($,#869,#594,#595);
#485=AXIS2_PLACEMENT_3D($,#870,#596,#597);
#486=AXIS2_PLACEMENT_3D($,#886,#598,#599);
#487=AXIS2_PLACEMENT_3D($,#887,#600,#601);
#488=AXIS2_PLACEMENT_3D($,#888,#602,#603);
#489=AXIS2_PLACEMENT_3D($,#889,#604,#605);
#490=AXIS2_PLACEMENT_3D($,#890,#606,#607);
#491=AXIS2_PLACEMENT_3D($,#891,#608,#609);
#492=AXIS2_PLACEMENT_3D($,#892,#610,#611);
#493=AXIS2_PLACEMENT_3D($,#893,#612,#613);
#494=AXIS2_PLACEMENT_3D($,#894,#614,#615);
#495=AXIS2_PLACEMENT_3D($,#895,#616,#617);
#496=AXIS2_PLACEMENT_3D($,#896,#618,#619);
#497=AXIS2_PLACEMENT_3D($,#897,#620,#621);
#498=DIRECTION('axis',(0.,0.,1.));
#499=DIRECTION('refdir',(1.,0.,0.));
#500=DIRECTION('center_axis',(0.,0.,-1.));
#501=DIRECTION('ref_axis',(-1.,0.,0.));
#502=DIRECTION('center_axis',(0.,0.,-1.));
#503=DIRECTION('ref_axis',(-1.,0.,0.));
#504=DIRECTION('center_axis',(0.,0.,-1.));
#505=DIRECTION('ref_axis',(-0.996039159081584,-0.0889156542800586,0.));
#506=DIRECTION('center_axis',(0.,0.,1.));
#507=DIRECTION('ref_axis',(-1.,0.,0.));
#508=DIRECTION('center_axis',(0.,0.,-1.));
#509=DIRECTION('ref_axis',(-0.963462299995472,-0.267843977881592,0.));
#510=DIRECTION('center_axis',(0.,0.,1.));
#511=DIRECTION('ref_axis',(1.,0.,0.));
#512=DIRECTION($,(0.,0.,1.));
#513=DIRECTION('center_axis',(0.,0.,1.));
#514=DIRECTION('ref_axis',(-0.142857142857099,-0.989743318610793,0.));
#515=DIRECTION($,(0.,0.,1.));
#516=DIRECTION('center_axis',(0.,0.,-1.));
#517=DIRECTION('ref_axis',(0.142857142857099,-0.989743318610793,0.));
#518=DIRECTION('center_axis',(0.,0.,1.));
#519=DIRECTION('ref_axis',(0.,1.,0.));
#520=DIRECTION('center_axis',(0.,0.,-1.));
#521=DIRECTION('ref_axis',(0.499999999806288,-0.866025403896279,0.));
#522=DIRECTION('center_axis',(0.,0.,1.));
#523=DIRECTION('ref_axis',(-1.2061257004595E-8,-1.,0.));
#524=DIRECTION('center_axis',(0.,0.,-1.));
#525=DIRECTION('ref_axis',(-0.499999989142197,0.866025410053194,0.));
#526=DIRECTION('center_axis',(0.,0.,1.));
#527=DIRECTION('ref_axis',(0.142857142857099,0.989743318610793,0.));
#528=DIRECTION('center_axis',(0.,0.,1.));
#529=DIRECTION('ref_axis',(0.,1.,0.));
#530=DIRECTION('center_axis',(0.,0.,1.));
#531=DIRECTION('ref_axis',(1.,0.,0.));
#532=DIRECTION('center_axis',(0.,0.,1.));
#533=DIRECTION('ref_axis',(0.92857142857144,0.371153744479016,0.));
#534=DIRECTION('center_axis',(0.,0.,1.));
#535=DIRECTION('ref_axis',(0.,1.,0.));
#536=DIRECTION('center_axis',(0.,0.,1.));
#537=DIRECTION('ref_axis',(0.499999999806288,-0.866025403896279,0.));
#538=DIRECTION('center_axis',(0.,0.,1.));
#539=DIRECTION('ref_axis',(0.785714285714312,-0.618589574131709,0.));
#540=DIRECTION('center_axis',(0.,0.,1.));
#541=DIRECTION('ref_axis',(0.,1.,0.));
#542=DIRECTION('center_axis',(0.,0.,1.));
#543=DIRECTION('ref_axis',(-0.499999989142197,0.866025410053194,0.));
#544=DIRECTION('center_axis',(0.,0.,1.));
#545=DIRECTION('ref_axis',(-0.785714285714312,0.618589574131709,0.));
#546=DIRECTION('center_axis',(0.,0.,1.));
#547=DIRECTION('ref_axis',(0.,1.,0.));
#548=DIRECTION('center_axis',(0.,0.,1.));
#549=DIRECTION('ref_axis',(-1.,2.236440516316E-10,0.));
#550=DIRECTION('center_axis',(0.,0.,1.));
#551=DIRECTION('ref_axis',(-0.92857142857144,-0.371153744479016,0.));
#552=DIRECTION('center_axis',(0.,0.,1.));
#553=DIRECTION('ref_axis',(1.,0.,0.));
#554=DIRECTION($,(0.,0.,1.));
#555=DIRECTION($,(0.,0.,1.));
#556=DIRECTION('center_axis',(0.,0.,1.));
#557=DIRECTION('ref_axis',(-0.785714285714312,0.618589574131709,0.));
#558=DIRECTION('center_axis',(-0.500000000000017,0.866025403784429,0.));
#559=DIRECTION('ref_axis',(0.,0.,1.));
#560=DIRECTION($,(0.,0.,1.));
#561=DIRECTION('center_axis',(0.,0.,1.));
#562=DIRECTION('ref_axis',(1.,0.,0.));
#563=DIRECTION($,(0.,0.,1.));
#564=DIRECTION('center_axis',(0.,0.,-1.));
#565=DIRECTION('ref_axis',(-0.142857142857099,0.989743318610793,0.));
#566=DIRECTION('center_axis',(0.500000000000017,0.866025403784429,0.));
#567=DIRECTION('ref_axis',(0.,0.,-1.));
#568=DIRECTION($,(0.,0.,1.));
#569=DIRECTION('center_axis',(0.,0.,1.));
#570=DIRECTION('ref_axis',(1.,0.,0.));
#571=DIRECTION($,(0.,0.,1.));
#572=DIRECTION('center_axis',(0.,0.,1.));
#573=DIRECTION('ref_axis',(0.92857142857144,0.371153744479016,0.));
#574=DIRECTION('center_axis',(1.,0.,0.));
#575=DIRECTION('ref_axis',(0.,0.,-1.));
#576=DIRECTION($,(0.,0.,1.));
#577=DIRECTION('center_axis',(0.,0.,1.));
#578=DIRECTION('ref_axis',(1.,0.,0.));
#579=DIRECTION($,(0.,0.,1.));
#580=DIRECTION('center_axis',(0.,0.,1.));
#581=DIRECTION('ref_axis',(0.785714285714312,-0.618589574131709,0.));
#582=DIRECTION('center_axis',(0.500000000000017,-0.866025403784429,0.));
#583=DIRECTION('ref_axis',(0.,0.,-1.));
#584=DIRECTION('center_axis',(0.,0.,-1.));
#585=DIRECTION('ref_axis',(1.1633467400182E-8,1.,0.));
#586=DIRECTION('center_axis',(0.,0.,1.));
#587=DIRECTION('ref_axis',(-0.500000017425123,-0.866025393724039,0.));
#588=DIRECTION('center_axis',(-0.500000000000017,-0.866025403784429,0.));
#589=DIRECTION('ref_axis',(0.,0.,1.));
#590=DIRECTION($,(0.,0.,1.));
#591=DIRECTION('center_axis',(0.,0.,1.));
#592=DIRECTION('ref_axis',(1.,0.,0.));
#593=DIRECTION($,(0.,0.,1.));
#594=DIRECTION('center_axis',(0.,0.,1.));
#595=DIRECTION('ref_axis',(-0.92857142857144,-0.371153744479016,0.));
#596=DIRECTION('center_axis',(-1.,0.,0.));
#597=DIRECTION('ref_axis',(0.,0.,1.));
#598=DIRECTION('center_axis',(0.,0.,-1.));
#599=DIRECTION('ref_axis',(0.,-1.,0.));
#600=DIRECTION('center_axis',(0.,0.,1.));
#601=DIRECTION('ref_axis',(0.50000000003699,0.866025403763082,0.));
#602=DIRECTION('center_axis',(0.,0.,-1.));
#603=DIRECTION('ref_axis',(0.,-1.,0.));
#604=DIRECTION('center_axis',(0.,0.,1.));
#605=DIRECTION('ref_axis',(1.,0.,0.));
#606=DIRECTION('center_axis',(0.,0.,-1.));
#607=DIRECTION('ref_axis',(0.,-1.,0.));
#608=DIRECTION('center_axis',(0.,0.,1.));
#609=DIRECTION('ref_axis',(0.499999978198088,-0.866025416371778,0.));
#610=DIRECTION('center_axis',(0.,0.,-1.));
#611=DIRECTION('ref_axis',(0.,-1.,0.));
#612=DIRECTION('center_axis',(0.,0.,1.));
#613=DIRECTION('ref_axis',(-0.499999993300885,0.866025407652174,0.));
#614=DIRECTION('center_axis',(0.,0.,-1.));
#615=DIRECTION('ref_axis',(0.,-1.,0.));
#616=DIRECTION('center_axis',(0.,0.,1.));
#617=DIRECTION('ref_axis',(-1.,1.126852189076E-10,0.));
#618=DIRECTION('center_axis',(0.,0.,1.));
#619=DIRECTION('ref_axis',(1.,0.,0.));
#620=DIRECTION('center_axis',(0.,0.,1.));
#621=DIRECTION('ref_axis',(1.,0.,0.));
#622=CARTESIAN_POINT('',(0.,0.,0.));
#623=CARTESIAN_POINT('Origin',(-1.4210854715202E-14,0.,19.452872376081));
#624=CARTESIAN_POINT('',(-6.3623133521042,8.65254397736498,19.3498345849156));
#625=CARTESIAN_POINT('',(-10.6973662957169,-0.954944010874165,19.350164184929));
#626=CARTESIAN_POINT('Origin',(-1.4210854715202E-14,0.,19.35));
#627=CARTESIAN_POINT('Origin',(0.,0.,19.35));
#628=CARTESIAN_POINT('',(-10.3475211054047,-2.87662533857602,15.9201155964578));
#629=CARTESIAN_POINT('',(-7.82422928659548,7.35714871953948,15.9198872130158));
#630=CARTESIAN_POINT('Origin',(-1.4210854715202E-14,0.,15.92));
#631=CARTESIAN_POINT('Origin',(0.,0.,15.92));
#632=CARTESIAN_POINT('Origin',(0.,0.,15.92));
#633=CARTESIAN_POINT('',(-2.,-13.85640646055,16.187949192431));
#634=CARTESIAN_POINT('',(-2.,-13.85640646055,19.082050807569));
#635=CARTESIAN_POINT($,(-2.,-13.85640646055,16.187949192431));
#636=CARTESIAN_POINT('',(2.,-13.85640646055,16.187949192431));
#637=CARTESIAN_POINT('Origin',(0.,0.,16.187949192431));
#638=CARTESIAN_POINT('',(2.,-13.85640646055,19.082050807569));
#639=CARTESIAN_POINT($,(2.,-13.85640646055,16.187949192431));
#640=CARTESIAN_POINT('Origin',(0.,0.,19.082050807569));
#641=CARTESIAN_POINT('Origin',(0.,0.,13.4366604983958));
#642=CARTESIAN_POINT('',(-6.500000000922,-11.25833024873,15.919999999996));
#643=CARTESIAN_POINT('Ctrl Pts',(-6.500000000922,-11.25833024873,15.919999999996));
#644=CARTESIAN_POINT('Ctrl Pts',(-6.123576628274,-11.47565838426,15.919999999996));
#645=CARTESIAN_POINT('Ctrl Pts',(-5.371877392336,-11.90965214038,15.931691470289));
#646=CARTESIAN_POINT('Ctrl Pts',(-4.245758077295,-12.5598174301,15.983699348153));
#647=CARTESIAN_POINT('Ctrl Pts',(-3.127106803098,-13.20567104437,16.067898226042));
#648=CARTESIAN_POINT('Ctrl Pts',(-2.376042702332,-13.63929810513,16.144766190256));
#649=CARTESIAN_POINT('Ctrl Pts',(-2.,-13.85640646055,16.187949192431));
#650=CARTESIAN_POINT('',(6.499999924161,-11.25833029305,15.919999999996));
#651=CARTESIAN_POINT('Origin',(0.,0.,15.92));
#652=CARTESIAN_POINT('Ctrl Pts',(6.499999924161,-11.25833029305,15.919999999996));
#653=CARTESIAN_POINT('Ctrl Pts',(6.123603272784,-11.47564300104,15.920000003098));
#654=CARTESIAN_POINT('Ctrl Pts',(5.371943156142,-11.90961417163,15.93169075896));
#655=CARTESIAN_POINT('Ctrl Pts',(4.245949396113,-12.55970697213,15.983687601274));
#656=CARTESIAN_POINT('Ctrl Pts',(3.127159672822,-13.20564052003,16.067892261789));
#657=CARTESIAN_POINT('Ctrl Pts',(2.376063435994,-13.63928613455,16.144763809298));
#658=CARTESIAN_POINT('Ctrl Pts',(2.,-13.85640646055,16.187949192431));
#659=CARTESIAN_POINT('Origin',(0.,0.,13.4366604983958));
#660=CARTESIAN_POINT('',(6.500000156514,11.25833016413,15.919999999357));
#661=CARTESIAN_POINT('',(2.,13.85640646055,16.187949192431));
#662=CARTESIAN_POINT('Ctrl Pts',(6.500000156514,11.25833016413,15.919999999357));
#663=CARTESIAN_POINT('Ctrl Pts',(6.123576701239,11.47565834737,15.919999999357));
#664=CARTESIAN_POINT('Ctrl Pts',(5.371877358459,11.90965215751,15.931691470586));
#665=CARTESIAN_POINT('Ctrl Pts',(4.245758086415,12.55981742549,15.983699348073));
#666=CARTESIAN_POINT('Ctrl Pts',(3.127106800492,13.20567104569,16.067898226065));
#667=CARTESIAN_POINT('Ctrl Pts',(2.376042702332,13.63929810513,16.144766190256));
#668=CARTESIAN_POINT('Ctrl Pts',(2.,13.85640646055,16.187949192431));
#669=CARTESIAN_POINT('',(-6.499999884169,11.2583303196,15.919999999423));
#670=CARTESIAN_POINT('Origin',(0.,0.,15.92));
#671=CARTESIAN_POINT('',(-2.,13.85640646055,16.187949192431));
#672=CARTESIAN_POINT('Ctrl Pts',(-6.499999884169,11.2583303196,15.919999999423));
#673=CARTESIAN_POINT('Ctrl Pts',(-6.123603270402,11.47564300588,15.920000001274));
#674=CARTESIAN_POINT('Ctrl Pts',(-5.371943054234,11.90961422886,15.931690762491));
#675=CARTESIAN_POINT('Ctrl Pts',(-4.245949362247,12.55970699211,15.983687603807));
#676=CARTESIAN_POINT('Ctrl Pts',(-3.127159648212,13.20564053411,16.067892264029));
#677=CARTESIAN_POINT('Ctrl Pts',(-2.376063428725,13.63928613874,16.144763810133));
#678=CARTESIAN_POINT('Ctrl Pts',(-2.,13.85640646055,16.187949192431));
#679=CARTESIAN_POINT('Origin',(0.,0.,16.187949192431));
#680=CARTESIAN_POINT('Origin',(0.,0.,13.4366604983958));
#681=CARTESIAN_POINT('',(13.00000000005,-1.033445342186E-9,15.919999999996));
#682=CARTESIAN_POINT('Origin',(0.,0.,15.92));
#683=CARTESIAN_POINT('',(11.,8.660254037844,16.187949192431));
#684=CARTESIAN_POINT('Ctrl Pts',(6.500000156514,11.25833016413,15.919999999357));
#685=CARTESIAN_POINT('Ctrl Pts',(6.876396781199,11.04101747155,15.920000001823));
#686=CARTESIAN_POINT('Ctrl Pts',(7.6280569766,10.60704624764,15.931690763663));
#687=CARTESIAN_POINT('Ctrl Pts',(8.754050662059,9.956953493354,15.983687605345));
#688=CARTESIAN_POINT('Ctrl Pts',(9.872840363081,9.31101995745,16.067892265167));
#689=CARTESIAN_POINT('Ctrl Pts',(10.62393657514,8.877374357419,16.144763810577));
#690=CARTESIAN_POINT('Ctrl Pts',(11.,8.660254037844,16.187949192431));
#691=CARTESIAN_POINT('',(13.,5.196152422707,16.187949192431));
#692=CARTESIAN_POINT('Origin',(0.,0.,16.187949192431));
#693=CARTESIAN_POINT('Ctrl Pts',(13.00000000005,-1.033445342186E-9,15.919999999996));
#694=CARTESIAN_POINT('Ctrl Pts',(13.00000000005,0.4346562700215,15.919999999996));
#695=CARTESIAN_POINT('Ctrl Pts',(12.99999999997,1.302643782413,15.931691470289));
#696=CARTESIAN_POINT('Ctrl Pts',(13.00000000001,2.602974361789,15.983699348153));
#697=CARTESIAN_POINT('Ctrl Pts',(13.,3.894681590357,16.067898226042));
#698=CARTESIAN_POINT('Ctrl Pts',(13.,4.76193571187,16.144766190256));
#699=CARTESIAN_POINT('Ctrl Pts',(13.,5.196152422707,16.187949192431));
#700=CARTESIAN_POINT('Origin',(0.,0.,13.4366604983958));
#701=CARTESIAN_POINT('Origin',(0.,0.,15.92));
#702=CARTESIAN_POINT('',(13.,-5.196152422707,16.187949192431));
#703=CARTESIAN_POINT('Ctrl Pts',(13.00000000005,-1.033445342186E-9,15.919999999996));
#704=CARTESIAN_POINT('Ctrl Pts',(13.00000000005,-0.4346253450163,15.919999999996));
#705=CARTESIAN_POINT('Ctrl Pts',(12.99999999997,-1.302567715389,15.931690755817));
#706=CARTESIAN_POINT('Ctrl Pts',(13.00000000001,-2.602753359825,15.98368759617));
#707=CARTESIAN_POINT('Ctrl Pts',(13.,-3.894620498621,16.067892258184));
#708=CARTESIAN_POINT('Ctrl Pts',(13.,-4.761911756364,16.144763807872));
#709=CARTESIAN_POINT('Ctrl Pts',(13.,-5.196152422707,16.187949192431));
#710=CARTESIAN_POINT('',(11.,-8.660254037844,16.187949192431));
#711=CARTESIAN_POINT('Origin',(0.,0.,16.187949192431));
#712=CARTESIAN_POINT('Ctrl Pts',(6.499999924161,-11.25833029305,15.919999999996));
#713=CARTESIAN_POINT('Ctrl Pts',(6.876423296809,-11.04100215752,15.919999999996));
#714=CARTESIAN_POINT('Ctrl Pts',(7.628122642447,-10.60700833787,15.931691470289));
#715=CARTESIAN_POINT('Ctrl Pts',(8.754241913341,-9.95684307372,15.983699348153));
#716=CARTESIAN_POINT('Ctrl Pts',(9.872893199578,-9.310989452472,16.067898226042));
#717=CARTESIAN_POINT('Ctrl Pts',(10.62395729767,-8.877362393263,16.144766190256));
#718=CARTESIAN_POINT('Ctrl Pts',(11.,-8.660254037844,16.187949192431));
#719=CARTESIAN_POINT('Origin',(0.,0.,13.4366604983958));
#720=CARTESIAN_POINT('',(-13.00000000005,1.033445225839E-9,15.919999999996));
#721=CARTESIAN_POINT('Origin',(0.,0.,15.92));
#722=CARTESIAN_POINT('',(-13.,5.196152422707,16.187949192431));
#723=CARTESIAN_POINT('Ctrl Pts',(-13.00000000005,1.033445225839E-9,15.919999999996));
#724=CARTESIAN_POINT('Ctrl Pts',(-13.00000000005,0.4346253450163,15.919999999996));
#725=CARTESIAN_POINT('Ctrl Pts',(-12.99999999997,1.302567715389,15.931690755817));
#726=CARTESIAN_POINT('Ctrl Pts',(-13.00000000001,2.602753359825,15.98368759617));
#727=CARTESIAN_POINT('Ctrl Pts',(-13.,3.894620498621,16.067892258184));
#728=CARTESIAN_POINT('Ctrl Pts',(-13.,4.761911756364,16.144763807872));
#729=CARTESIAN_POINT('Ctrl Pts',(-13.,5.196152422707,16.187949192431));
#730=CARTESIAN_POINT('',(-11.,8.660254037844,16.187949192431));
#731=CARTESIAN_POINT('Origin',(0.,0.,16.187949192431));
#732=CARTESIAN_POINT('Ctrl Pts',(-6.499999884169,11.2583303196,15.919999999423));
#733=CARTESIAN_POINT('Ctrl Pts',(-6.876423330941,11.04100214128,15.919999999423));
#734=CARTESIAN_POINT('Ctrl Pts',(-7.6281226266,10.60700834541,15.931691470555));
#735=CARTESIAN_POINT('Ctrl Pts',(-8.754241917607,9.956843071689,15.983699348082));
#736=CARTESIAN_POINT('Ctrl Pts',(-9.872893198359,9.310989453052,16.067898226062));
#737=CARTESIAN_POINT('Ctrl Pts',(-10.62395729767,8.877362393263,16.144766190256));
#738=CARTESIAN_POINT('Ctrl Pts',(-11.,8.660254037844,16.187949192431));
#739=CARTESIAN_POINT('Origin',(0.,0.,13.4366604983958));
#740=CARTESIAN_POINT('Origin',(0.,0.,15.92));
#741=CARTESIAN_POINT('',(-11.,-8.660254037844,16.187949192431));
#742=CARTESIAN_POINT('Ctrl Pts',(-6.500000000922,-11.25833024873,15.919999999996));
#743=CARTESIAN_POINT('Ctrl Pts',(-6.87639658994,-11.04101757674,15.919999999996));
#744=CARTESIAN_POINT('Ctrl Pts',(-7.628056731663,-10.60704639148,15.931690755817));
#745=CARTESIAN_POINT('Ctrl Pts',(-8.754050529397,-9.956953569291,15.98368759617));
#746=CARTESIAN_POINT('Ctrl Pts',(-9.872840289904,-9.311019999886,16.067892258184));
#747=CARTESIAN_POINT('Ctrl Pts',(-10.62393655159,-8.877374371016,16.144763807872));
#748=CARTESIAN_POINT('Ctrl Pts',(-11.,-8.660254037844,16.187949192431));
#749=CARTESIAN_POINT('',(-13.,-5.196152422707,16.187949192431));
#750=CARTESIAN_POINT('Origin',(0.,0.,16.187949192431));
#751=CARTESIAN_POINT('Ctrl Pts',(-13.00000000005,1.033445225839E-9,15.919999999996));
#752=CARTESIAN_POINT('Ctrl Pts',(-13.00000000005,-0.4346562700215,15.919999999996));
#753=CARTESIAN_POINT('Ctrl Pts',(-12.99999999997,-1.302643782413,15.931691470289));
#754=CARTESIAN_POINT('Ctrl Pts',(-13.00000000001,-2.602974361789,15.983699348153));
#755=CARTESIAN_POINT('Ctrl Pts',(-13.,-3.894681590357,16.067898226042));
#756=CARTESIAN_POINT('Ctrl Pts',(-13.,-4.76193571187,16.144766190256));
#757=CARTESIAN_POINT('Ctrl Pts',(-13.,-5.196152422707,16.187949192431));
#758=CARTESIAN_POINT('Origin',(0.,0.,15.92));
#759=CARTESIAN_POINT('',(-11.,8.660254037844,19.082050807569));
#760=CARTESIAN_POINT($,(-11.,8.660254037844,16.187949192431));
#761=CARTESIAN_POINT('',(-13.,5.196152422707,19.082050807569));
#762=CARTESIAN_POINT($,(-13.,5.196152422707,16.187949192431));
#763=CARTESIAN_POINT('Origin',(0.,0.,19.082050807569));
#764=CARTESIAN_POINT('Origin',(-1.55000000000002,14.1162140816853,15.748499999394));
#765=CARTESIAN_POINT('',(-2.,13.85640646055,19.082050807569));
#766=CARTESIAN_POINT($,(-2.,13.85640646055,16.187949192431));
#767=CARTESIAN_POINT('',(-6.499999905671,11.25833030583,19.350000000004));
#768=CARTESIAN_POINT('Ctrl Pts',(-6.499999905671,11.25833030583,19.350000000004));
#769=CARTESIAN_POINT('Ctrl Pts',(-6.876423278319,11.04100217031,19.350000000004));
#770=CARTESIAN_POINT('Ctrl Pts',(-7.628122651032,10.60700833194,19.338308529711));
#771=CARTESIAN_POINT('Ctrl Pts',(-8.75424191103,9.956843075318,19.286300651847));
#772=CARTESIAN_POINT('Ctrl Pts',(-9.872893200238,9.310989452015,19.202101773958));
#773=CARTESIAN_POINT('Ctrl Pts',(-10.62395729767,8.877362393263,19.125233809744));
#774=CARTESIAN_POINT('Ctrl Pts',(-11.,8.660254037844,19.082050807569));
#775=CARTESIAN_POINT('Ctrl Pts',(-2.,13.85640646055,19.082050807569));
#776=CARTESIAN_POINT('Ctrl Pts',(-2.376063436282,13.63928613438,19.125236190735));
#777=CARTESIAN_POINT('Ctrl Pts',(-3.127159674409,13.20564051903,19.202107738295));
#778=CARTESIAN_POINT('Ctrl Pts',(-4.245949395312,12.55970697285,19.286312398844));
#779=CARTESIAN_POINT('Ctrl Pts',(-5.371943168134,11.90961416373,19.338309241113));
#780=CARTESIAN_POINT('Ctrl Pts',(-6.12360325574,11.47564301299,19.349999996974));
#781=CARTESIAN_POINT('Ctrl Pts',(-6.499999905671,11.25833030583,19.350000000004));
#782=CARTESIAN_POINT('Origin',(0.,0.,15.92));
#783=CARTESIAN_POINT('',(2.,13.85640646055,19.082050807569));
#784=CARTESIAN_POINT($,(2.,13.85640646055,16.187949192431));
#785=CARTESIAN_POINT('Origin',(0.,0.,19.082050807569));
#786=CARTESIAN_POINT('Origin',(11.45,8.40044641670867,15.7484999993079));
#787=CARTESIAN_POINT('',(11.,8.660254037844,19.082050807569));
#788=CARTESIAN_POINT($,(11.,8.660254037844,16.187949192431));
#789=CARTESIAN_POINT('',(6.500000102212,11.2583301902,19.350000000338));
#790=CARTESIAN_POINT('Ctrl Pts',(6.500000102212,11.2583301902,19.350000000338));
#791=CARTESIAN_POINT('Ctrl Pts',(6.123576686391,11.47565835065,19.350000000338));
#792=CARTESIAN_POINT('Ctrl Pts',(5.371877365353,11.90965215598,19.338308529556));
#793=CARTESIAN_POINT('Ctrl Pts',(4.245758084559,12.5598174259,19.286300651888));
#794=CARTESIAN_POINT('Ctrl Pts',(3.127106801022,13.20567104557,19.202101773946));
#795=CARTESIAN_POINT('Ctrl Pts',(2.376042702332,13.63929810513,19.125233809744));
#796=CARTESIAN_POINT('Ctrl Pts',(2.,13.85640646055,19.082050807569));
#797=CARTESIAN_POINT('Ctrl Pts',(11.,8.660254037844,19.082050807569));
#798=CARTESIAN_POINT('Ctrl Pts',(10.62393657203,8.877374359217,19.125236189781));
#799=CARTESIAN_POINT('Ctrl Pts',(9.872840353589,9.311019963119,19.202107735807));
#800=CARTESIAN_POINT('Ctrl Pts',(8.754050643864,9.956953503197,19.286312395694));
#801=CARTESIAN_POINT('Ctrl Pts',(7.62805694662,10.6070462674,19.338309238025));
#802=CARTESIAN_POINT('Ctrl Pts',(6.876396750706,11.04101748387,19.349999997018));
#803=CARTESIAN_POINT('Ctrl Pts',(6.500000102212,11.2583301902,19.350000000338));
#804=CARTESIAN_POINT('Origin',(0.,0.,15.92));
#805=CARTESIAN_POINT('',(13.,5.196152422707,19.082050807569));
#806=CARTESIAN_POINT($,(13.,5.196152422707,16.187949192431));
#807=CARTESIAN_POINT('Origin',(0.,0.,19.082050807569));
#808=CARTESIAN_POINT('Origin',(13.,-5.7157676649777,15.7484999999659));
#809=CARTESIAN_POINT('',(13.,-5.196152422707,19.082050807569));
#810=CARTESIAN_POINT($,(13.,-5.196152422707,16.187949192431));
#811=CARTESIAN_POINT('',(13.00000000001,-4.480771640672E-8,19.350000000598));
#812=CARTESIAN_POINT('Ctrl Pts',(13.00000000001,-4.480771640672E-8,19.350000000598));
#813=CARTESIAN_POINT('Ctrl Pts',(13.00000000001,0.4346563150071,19.350000000598));
#814=CARTESIAN_POINT('Ctrl Pts',(13.,1.302643761527,19.338308529435));
#815=CARTESIAN_POINT('Ctrl Pts',(13.,2.602974367412,19.286300651921));
#816=CARTESIAN_POINT('Ctrl Pts',(13.,3.894681588751,19.202101773937));
#817=CARTESIAN_POINT('Ctrl Pts',(13.,4.76193571187,19.125233809744));
#818=CARTESIAN_POINT('Ctrl Pts',(13.,5.196152422707,19.082050807569));
#819=CARTESIAN_POINT('Ctrl Pts',(13.,-5.196152422707,19.082050807569));
#820=CARTESIAN_POINT('Ctrl Pts',(13.,-4.761911771063,19.125236190666));
#821=CARTESIAN_POINT('Ctrl Pts',(13.,-3.894620547525,19.202107737985));
#822=CARTESIAN_POINT('Ctrl Pts',(13.,-2.602753431307,19.286312399069));
#823=CARTESIAN_POINT('Ctrl Pts',(13.,-1.30256791029,19.338309239208));
#824=CARTESIAN_POINT('Ctrl Pts',(13.00000000001,-0.4346253738618,19.350000000598));
#825=CARTESIAN_POINT('Ctrl Pts',(13.00000000001,-4.480771640672E-8,19.350000000598));
#826=CARTESIAN_POINT('Origin',(0.,0.,15.92));
#827=CARTESIAN_POINT('',(11.,-8.660254037844,19.082050807569));
#828=CARTESIAN_POINT($,(11.,-8.660254037844,16.187949192431));
#829=CARTESIAN_POINT('Origin',(0.,0.,19.082050807569));
#830=CARTESIAN_POINT('Origin',(1.55000000000002,-14.1162140816853,15.7484999999438));
#831=CARTESIAN_POINT('',(6.499999798015,-11.25833037289,19.350000001041));
#832=CARTESIAN_POINT('Ctrl Pts',(6.499999798015,-11.25833037289,19.350000001041));
#833=CARTESIAN_POINT('Ctrl Pts',(6.876423304816,-11.04100215991,19.350000001041));
#834=CARTESIAN_POINT('Ctrl Pts',(7.628122638729,-10.60700833676,19.338308529229));
#835=CARTESIAN_POINT('Ctrl Pts',(8.754241914342,-9.956843074019,19.286300651976));
#836=CARTESIAN_POINT('Ctrl Pts',(9.872893199292,-9.310989452386,19.202101773921));
#837=CARTESIAN_POINT('Ctrl Pts',(10.62395729767,-8.877362393263,19.125233809744));
#838=CARTESIAN_POINT('Ctrl Pts',(11.,-8.660254037844,19.082050807569));
#839=CARTESIAN_POINT('Ctrl Pts',(2.,-13.85640646055,19.082050807569));
#840=CARTESIAN_POINT('Ctrl Pts',(2.376063415123,-13.6392861466,19.125236188305));
#841=CARTESIAN_POINT('Ctrl Pts',(3.127159605375,-13.20564055872,19.202107731916));
#842=CARTESIAN_POINT('Ctrl Pts',(4.245949287628,-12.55970703564,19.286312390969));
#843=CARTESIAN_POINT('Ctrl Pts',(5.371942905331,-11.90961431318,19.338309232697));
#844=CARTESIAN_POINT('Ctrl Pts',(6.123603175955,-11.47564306396,19.349999998275));
#845=CARTESIAN_POINT('Ctrl Pts',(6.499999798015,-11.25833037289,19.350000001041));
#846=CARTESIAN_POINT('Origin',(0.,0.,21.8333395016042));
#847=CARTESIAN_POINT('',(-6.500000059347,-11.25833022059,19.350000000004));
#848=CARTESIAN_POINT('Ctrl Pts',(-6.500000059347,-11.25833022059,19.350000000004));
#849=CARTESIAN_POINT('Ctrl Pts',(-6.1235766867,-11.47565835612,19.350000000004));
#850=CARTESIAN_POINT('Ctrl Pts',(-5.37187736521,-11.90965215345,19.338308529711));
#851=CARTESIAN_POINT('Ctrl Pts',(-4.245758084598,-12.55981742658,19.286300651847));
#852=CARTESIAN_POINT('Ctrl Pts',(-3.127106801011,-13.20567104538,19.202101773958));
#853=CARTESIAN_POINT('Ctrl Pts',(-2.376042702332,-13.63929810513,19.125233809744));
#854=CARTESIAN_POINT('Ctrl Pts',(-2.,-13.85640646055,19.082050807569));
#855=CARTESIAN_POINT('Origin',(0.,0.,19.35));
#856=CARTESIAN_POINT('Origin',(-11.45,-8.40044641670867,15.7484999999956));
#857=CARTESIAN_POINT('',(-11.,-8.660254037844,19.082050807569));
#858=CARTESIAN_POINT($,(-11.,-8.660254037844,16.187949192431));
#859=CARTESIAN_POINT('Ctrl Pts',(-11.,-8.660254037844,19.082050807569));
#860=CARTESIAN_POINT('Ctrl Pts',(-10.62393655159,-8.877374371016,19.125236192128));
#861=CARTESIAN_POINT('Ctrl Pts',(-9.872840287817,-9.311020000891,19.202107741816));
#862=CARTESIAN_POINT('Ctrl Pts',(-8.7540505367,-9.956953565774,19.28631240383));
#863=CARTESIAN_POINT('Ctrl Pts',(-7.628056704538,-10.60704640454,19.338309244183));
#864=CARTESIAN_POINT('Ctrl Pts',(-6.876396648365,-11.0410175486,19.350000000004));
#865=CARTESIAN_POINT('Ctrl Pts',(-6.500000059347,-11.25833022059,19.350000000004));
#866=CARTESIAN_POINT('Origin',(0.,0.,15.92));
#867=CARTESIAN_POINT('',(-13.,-5.196152422707,19.082050807569));
#868=CARTESIAN_POINT($,(-13.,-5.196152422707,16.187949192431));
#869=CARTESIAN_POINT('Origin',(0.,0.,19.082050807569));
#870=CARTESIAN_POINT('Origin',(-13.,5.7157676649777,15.7484999999659));
#871=CARTESIAN_POINT('',(-13.00000000003,4.505261217415E-8,19.350000000598));
#872=CARTESIAN_POINT('Ctrl Pts',(-13.00000000003,4.505261217415E-8,19.350000000598));
#873=CARTESIAN_POINT('Ctrl Pts',(-13.00000000003,-0.4346563147622,19.350000000598));
#874=CARTESIAN_POINT('Ctrl Pts',(-12.99999999999,-1.302643761641,19.338308529435));
#875=CARTESIAN_POINT('Ctrl Pts',(-13.,-2.602974367381,19.286300651921));
#876=CARTESIAN_POINT('Ctrl Pts',(-13.,-3.894681588759,19.202101773937));
#877=CARTESIAN_POINT('Ctrl Pts',(-13.,-4.76193571187,19.125233809744));
#878=CARTESIAN_POINT('Ctrl Pts',(-13.,-5.196152422707,19.082050807569));
#879=CARTESIAN_POINT('Ctrl Pts',(-13.,5.196152422707,19.082050807569));
#880=CARTESIAN_POINT('Ctrl Pts',(-13.,4.761911771063,19.125236190666));
#881=CARTESIAN_POINT('Ctrl Pts',(-13.,3.894620547517,19.202107737985));
#882=CARTESIAN_POINT('Ctrl Pts',(-13.,2.602753431338,19.286312399069));
#883=CARTESIAN_POINT('Ctrl Pts',(-12.99999999999,1.302567910176,19.338309239208));
#884=CARTESIAN_POINT('Ctrl Pts',(-13.00000000003,0.4346253741067,19.350000000598));
#885=CARTESIAN_POINT('Ctrl Pts',(-13.00000000003,4.505261217415E-8,19.350000000598));
#886=CARTESIAN_POINT('Origin',(0.,0.,21.8333395016042));
#887=CARTESIAN_POINT('Origin',(0.,0.,19.35));
#888=CARTESIAN_POINT('Origin',(0.,0.,21.8333395016042));
#889=CARTESIAN_POINT('Origin',(0.,0.,19.35));
#890=CARTESIAN_POINT('Origin',(0.,0.,21.8333395016042));
#891=CARTESIAN_POINT('Origin',(0.,0.,19.35));
#892=CARTESIAN_POINT('Origin',(0.,0.,21.8333395016042));
#893=CARTESIAN_POINT('Origin',(0.,0.,19.35));
#894=CARTESIAN_POINT('Origin',(0.,0.,21.8333395016042));
#895=CARTESIAN_POINT('Origin',(0.,0.,19.35));
#896=CARTESIAN_POINT('Origin',(2.00000011401225,-0.856406505357698,19.35));
#897=CARTESIAN_POINT('Origin',(2.94935882964645E-15,-4.48076996255483E-8,
15.92));
#898=UNCERTAINTY_MEASURE_WITH_UNIT(LENGTH_MEASURE(0.01),#902,
'DISTANCE_ACCURACY_VALUE',
'Maximum model space distance between geometric entities at asserted c
onnectivities');
#899=UNCERTAINTY_MEASURE_WITH_UNIT(LENGTH_MEASURE(1.E-6),#902,
'DISTANCE_ACCURACY_VALUE',
'Maximum model space distance between geometric entities at asserted c
onnectivities');
#900=(
GEOMETRIC_REPRESENTATION_CONTEXT(3)
GLOBAL_UNCERTAINTY_ASSIGNED_CONTEXT((#898))
GLOBAL_UNIT_ASSIGNED_CONTEXT((#902,#904,#903))
REPRESENTATION_CONTEXT('','3D')
);
#901=(
GEOMETRIC_REPRESENTATION_CONTEXT(3)
GLOBAL_UNCERTAINTY_ASSIGNED_CONTEXT((#899))
GLOBAL_UNIT_ASSIGNED_CONTEXT((#902,#12,#903))
REPRESENTATION_CONTEXT('','3D')
);
#902=(
LENGTH_UNIT()
NAMED_UNIT(*)
SI_UNIT(.MILLI.,.METRE.)
);
#903=(
NAMED_UNIT(*)
SI_UNIT($,.STERADIAN.)
SOLID_ANGLE_UNIT()
);
#904=(
NAMED_UNIT(*)
PLANE_ANGLE_UNIT()
SI_UNIT($,.RADIAN.)
);
#905=SHAPE_DEFINITION_REPRESENTATION(#906,#907);
#906=PRODUCT_DEFINITION_SHAPE('',$,#909);
#907=SHAPE_REPRESENTATION('',(#442),#900);
#908=PRODUCT_DEFINITION_CONTEXT('part definition',#913,'design');
#909=PRODUCT_DEFINITION('Product','Product',#910,#908);
#910=PRODUCT_DEFINITION_FORMATION('',$,#915);
#911=PRODUCT_RELATED_PRODUCT_CATEGORY('Product','Product',(#915));
#912=APPLICATION_PROTOCOL_DEFINITION('international standard',
'automotive_design',2009,#913);
#913=APPLICATION_CONTEXT(
'Core Data for Automotive Mechanical Design Process');
#914=PRODUCT_CONTEXT('part definition',#913,'mechanical');
#915=PRODUCT('Product','Product',$,(#914));
#916=PRESENTATION_STYLE_ASSIGNMENT((#918));
#917=PRESENTATION_STYLE_ASSIGNMENT((#919));
#918=SURFACE_STYLE_USAGE(.BOTH.,#920);
#919=SURFACE_STYLE_USAGE(.BOTH.,#921);
#920=SURFACE_SIDE_STYLE($,(#922));
#921=SURFACE_SIDE_STYLE($,(#923));
#922=SURFACE_STYLE_FILL_AREA(#924);
#923=SURFACE_STYLE_FILL_AREA(#925);
#924=FILL_AREA_STYLE($,(#926));
#925=FILL_AREA_STYLE($,(#927));
#926=FILL_AREA_STYLE_COLOUR($,#928);
#927=FILL_AREA_STYLE_COLOUR($,#929);
#928=COLOUR_RGB('',1.,1.,1.);
#929=COLOUR_RGB('',0.866666666666667,0.866666666666667,0.866666666666667);
ENDSEC;
END-ISO-10303-21;
