ISO-10303-21;
HEADER;
/****************************************************************
 * Generated by software with PDE/Lib inside                    *
 * PDE/Lib Version 3.2.2, created Thu Mar 23, 2000 at 18:38:49  *
 * International Technegroup Inc. (www.iti-oh.com)              *
 ****************************************************************/
FILE_DESCRIPTION((''),'2;1');
FILE_NAME('COMATEL_311.0017.000.530.stp','2009-08-27T11:58:45',(''),(''),'Mechanical Desktop 2006','Mechanical Desktop 2006',', , ');
FILE_SCHEMA(('AUTOMOTIVE_DESIGN { 1 2 10303 214 0 1 1 1 }'));
ENDSEC;
DATA;
#8=(NAMED_UNIT(*)PLANE_ANGLE_UNIT()SI_UNIT($,.RADIAN.));
#9=DIMENSIONAL_EXPONENTS(0.0,0.0,0.0,0.0,0.0,0.0,0.0);
#10=PLANE_ANGLE_MEASURE_WITH_UNIT(PLANE_ANGLE_MEASURE(0.017453292500000),#8);
#14=(CONVERSION_BASED_UNIT('DEGREE',#10)NAMED_UNIT(#9)PLANE_ANGLE_UNIT());
#18=(NAMED_UNIT(*)SI_UNIT($,.STERADIAN.)SOLID_ANGLE_UNIT());
#22=(LENGTH_UNIT()NAMED_UNIT(*)SI_UNIT(.MILLI.,.METRE.));
#23=UNCERTAINTY_MEASURE_WITH_UNIT(LENGTH_MEASURE(0.000001000000000),#22,'DISTANCE_ACCURACY_VALUE','');
#28=(GEOMETRIC_REPRESENTATION_CONTEXT(3)GLOBAL_UNCERTAINTY_ASSIGNED_CONTEXT((#23))GLOBAL_UNIT_ASSIGNED_CONTEXT((#14,#18,#22))REPRESENTATION_CONTEXT('None','None'));
#29=APPLICATION_CONTEXT('automotive design');
#30=APPLICATION_PROTOCOL_DEFINITION('DRAFT_INTERNATIONAL_STANDARD','automotive_design',1998,#29);
#31=PRODUCT_CONTEXT('3D Mechanical Parts',#29,'mechanical');
#32=PRODUCT('Product','Product','',(#31));
#33=PRODUCT_RELATED_PRODUCT_CATEGORY('part',$,(#32));
#34=PRODUCT_CATEGORY('part',$);
#35=PERSON('1','Design','Joe',$,$,$);
#36=ORGANIZATION($,'None','None');
#37=PERSON_AND_ORGANIZATION(#35,#36);
#38=PERSON_AND_ORGANIZATION_ROLE('design_owner');
#39=APPLIED_PERSON_AND_ORGANIZATION_ASSIGNMENT(#37,#38,(#32));
#40=PRODUCT_DEFINITION_FORMATION_WITH_SPECIFIED_SOURCE('None','',#32,.BOUGHT.);
#41=PERSON('2','Creator','Joe',$,$,$);
#42=ORGANIZATION($,'None','None');
#43=PERSON_AND_ORGANIZATION(#41,#42);
#44=PERSON_AND_ORGANIZATION_ROLE('creator');
#45=APPLIED_PERSON_AND_ORGANIZATION_ASSIGNMENT(#43,#44,(#40));
#46=PERSON('3','Supplier','Joe',$,$,$);
#47=ORGANIZATION($,'None','None');
#48=PERSON_AND_ORGANIZATION(#46,#47);
#49=PERSON_AND_ORGANIZATION_ROLE('design_supplier');
#50=APPLIED_PERSON_AND_ORGANIZATION_ASSIGNMENT(#48,#49,(#40));
#51=PRODUCT_DEFINITION_CONTEXT('part definition',#29,'design');
#52=PRODUCT_DEFINITION('None','',#40,#51);
#53=PERSON('4','Creator','Joe',$,$,$);
#54=ORGANIZATION($,'None','None');
#55=PERSON_AND_ORGANIZATION(#53,#54);
#56=PERSON_AND_ORGANIZATION_ROLE('creator');
#57=APPLIED_PERSON_AND_ORGANIZATION_ASSIGNMENT(#55,#56,(#52));
#58=CARTESIAN_POINT('NONE',(0.0,0.0,0.0));
#59=DIRECTION('NONE',(0.0,0.0,1.0));
#60=DIRECTION('NONE',(1.0,0.0,0.0));
#61=AXIS2_PLACEMENT_3D('NONE',#58,#59,#60);
#62=SHAPE_REPRESENTATION('SR1',(#61),#28);
#63=PRODUCT_DEFINITION_SHAPE('PDS1','Test Part',#52);
#64=SHAPE_DEFINITION_REPRESENTATION(#63,#62);
#65=CARTESIAN_POINT('',(0.0,-1.110223E-016,-0.500000000000000));
#66=DIRECTION('',(0.0,0.0,-1.0));
#67=DIRECTION('',(1.0,0.0,0.0));
#68=AXIS2_PLACEMENT_3D('',#65,#66,#67);
#69=CYLINDRICAL_SURFACE('',#68,0.650000000000000);
#70=CARTESIAN_POINT('',(0.650000000000000,-1.110223E-016,-0.500000000000000));
#71=VERTEX_POINT('',#70);
#72=CARTESIAN_POINT('',(0.650000000000000,-1.110223E-016,-1.500000000000000));
#73=VERTEX_POINT('',#72);
#74=CARTESIAN_POINT('',(0.650000000000000,-1.110223E-016,-0.500000000000000));
#75=DIRECTION('',(0.0,0.0,-1.0));
#76=VECTOR('',#75,1.0);
#77=LINE('',#74,#76);
#78=EDGE_CURVE('',#71,#73,#77,.T.);
#79=ORIENTED_EDGE('',*,*,#78,.F.);
#80=CARTESIAN_POINT('',(-0.650000000000000,-1.906217E-016,-0.500000000000000));
#81=VERTEX_POINT('',#80);
#82=CARTESIAN_POINT('',(0.0,-1.110223E-016,-0.500000000000000));
#83=DIRECTION('',(0.0,0.0,1.0));
#84=DIRECTION('',(1.0,0.0,0.0));
#85=AXIS2_PLACEMENT_3D('',#82,#83,#84);
#86=CIRCLE('',#85,0.650000000000000);
#87=EDGE_CURVE('',#81,#71,#86,.T.);
#88=ORIENTED_EDGE('',*,*,#87,.F.);
#89=CARTESIAN_POINT('',(-0.650000000000000,-1.906217E-016,-1.500000000000000));
#90=VERTEX_POINT('',#89);
#91=CARTESIAN_POINT('',(-0.650000000000000,-1.906217E-016,-1.500000000000000));
#92=DIRECTION('',(0.0,0.0,1.0));
#93=VECTOR('',#92,1.0);
#94=LINE('',#91,#93);
#95=EDGE_CURVE('',#90,#81,#94,.T.);
#96=ORIENTED_EDGE('',*,*,#95,.F.);
#97=CARTESIAN_POINT('',(0.0,-1.110223E-016,-1.500000000000000));
#98=DIRECTION('',(0.0,0.0,1.0));
#99=DIRECTION('',(1.0,0.0,0.0));
#100=AXIS2_PLACEMENT_3D('',#97,#98,#99);
#101=CIRCLE('',#100,0.650000000000000);
#102=EDGE_CURVE('',#90,#73,#101,.T.);
#103=ORIENTED_EDGE('',*,*,#102,.T.);
#104=EDGE_LOOP('',(#79,#88,#96,#103));
#105=FACE_OUTER_BOUND('',#104,.T.);
#106=ADVANCED_FACE('',(#105),#69,.T.);
#107=CARTESIAN_POINT('',(0.0,-1.110223E-016,-0.500000000000000));
#108=DIRECTION('',(0.0,0.0,-1.0));
#109=DIRECTION('',(1.0,0.0,0.0));
#110=AXIS2_PLACEMENT_3D('',#107,#108,#109);
#111=CYLINDRICAL_SURFACE('',#110,0.650000000000000);
#112=ORIENTED_EDGE('',*,*,#78,.T.);
#113=CARTESIAN_POINT('',(0.0,-1.110223E-016,-1.500000000000000));
#114=DIRECTION('',(0.0,0.0,1.0));
#115=DIRECTION('',(1.0,0.0,0.0));
#116=AXIS2_PLACEMENT_3D('',#113,#114,#115);
#117=CIRCLE('',#116,0.650000000000000);
#118=EDGE_CURVE('',#73,#90,#117,.T.);
#119=ORIENTED_EDGE('',*,*,#118,.T.);
#120=ORIENTED_EDGE('',*,*,#95,.T.);
#121=CARTESIAN_POINT('',(0.0,-1.110223E-016,-0.500000000000000));
#122=DIRECTION('',(0.0,0.0,1.0));
#123=DIRECTION('',(1.0,0.0,0.0));
#124=AXIS2_PLACEMENT_3D('',#121,#122,#123);
#125=CIRCLE('',#124,0.650000000000000);
#126=EDGE_CURVE('',#71,#81,#125,.T.);
#127=ORIENTED_EDGE('',*,*,#126,.F.);
#128=EDGE_LOOP('',(#112,#119,#120,#127));
#129=FACE_OUTER_BOUND('',#128,.T.);
#130=ADVANCED_FACE('',(#129),#111,.T.);
#131=CARTESIAN_POINT('',(0.0,-1.110223E-016,-1.500000000000000));
#132=DIRECTION('',(0.0,0.0,1.0));
#133=DIRECTION('',(1.0,0.0,0.0));
#134=AXIS2_PLACEMENT_3D('',#131,#132,#133);
#135=PLANE('',#134);
#136=ORIENTED_EDGE('',*,*,#118,.F.);
#137=ORIENTED_EDGE('',*,*,#102,.F.);
#138=EDGE_LOOP('',(#136,#137));
#139=FACE_OUTER_BOUND('',#138,.T.);
#140=ADVANCED_FACE('',(#139),#135,.F.);
#141=CARTESIAN_POINT('',(0.0,-1.110223E-016,-0.500000000000000));
#142=DIRECTION('',(0.0,0.0,1.0));
#143=DIRECTION('',(1.0,0.0,0.0));
#144=AXIS2_PLACEMENT_3D('',#141,#142,#143);
#145=PLANE('',#144);
#146=ORIENTED_EDGE('',*,*,#126,.T.);
#147=ORIENTED_EDGE('',*,*,#87,.T.);
#148=EDGE_LOOP('',(#146,#147));
#149=FACE_OUTER_BOUND('',#148,.T.);
#150=ADVANCED_FACE('',(#149),#145,.T.);
#151=CLOSED_SHELL('',(#106,#130,#140,#150));
#152=MANIFOLD_SOLID_BREP('858',#151);
#153=COLOUR_RGB('253',0.732000000000000,0.732000000000000,0.732000000000000);
#154=SURFACE_STYLE_USAGE(.BOTH.,#155);
#155=SURFACE_SIDE_STYLE('NONE',(#156));
#156=SURFACE_STYLE_FILL_AREA(#157);
#157=FILL_AREA_STYLE('NONE',(#158));
#158=FILL_AREA_STYLE_COLOUR('NONE',#153);
#159=PRESENTATION_STYLE_ASSIGNMENT((#154));
#160=STYLED_ITEM('NONE',(#159),#152);
#161=MECHANICAL_DESIGN_GEOMETRIC_PRESENTATION_REPRESENTATION('NONE',(#160,#251,#630,#719),#28);
#162=PRESENTATION_LAYER_ASSIGNMENT('0','None',(#152,#250,#629,#718));
#163=CARTESIAN_POINT('',(0.0,0.0,0.0));
#164=DIRECTION('',(0.0,0.0,-1.0));
#165=DIRECTION('',(1.0,0.0,0.0));
#166=AXIS2_PLACEMENT_3D('',#163,#164,#165);
#167=CYLINDRICAL_SURFACE('',#166,0.600000000000000);
#168=CARTESIAN_POINT('',(0.600000000000000,0.0,0.0));
#169=VERTEX_POINT('',#168);
#170=CARTESIAN_POINT('',(0.600000000000000,0.0,-2.600000000000000));
#171=VERTEX_POINT('',#170);
#172=CARTESIAN_POINT('',(0.600000000000000,0.0,0.0));
#173=DIRECTION('',(0.0,0.0,-1.0));
#174=VECTOR('',#173,2.600000000000000);
#175=LINE('',#172,#174);
#176=EDGE_CURVE('',#169,#171,#175,.T.);
#177=ORIENTED_EDGE('',*,*,#176,.F.);
#178=CARTESIAN_POINT('',(-0.600000000000000,-7.347638E-017,0.0));
#179=VERTEX_POINT('',#178);
#180=CARTESIAN_POINT('',(0.0,0.0,0.0));
#181=DIRECTION('',(0.0,0.0,1.0));
#182=DIRECTION('',(1.0,0.0,0.0));
#183=AXIS2_PLACEMENT_3D('',#180,#181,#182);
#184=CIRCLE('',#183,0.600000000000000);
#185=EDGE_CURVE('',#179,#169,#184,.T.);
#186=ORIENTED_EDGE('',*,*,#185,.F.);
#187=CARTESIAN_POINT('',(-0.600000000000000,-7.347638E-017,-2.600000000000000));
#188=VERTEX_POINT('',#187);
#189=CARTESIAN_POINT('',(-0.600000000000000,-7.347638E-017,-2.600000000000000));
#190=DIRECTION('',(0.0,0.0,1.0));
#191=VECTOR('',#190,2.600000000000000);
#192=LINE('',#189,#191);
#193=EDGE_CURVE('',#188,#179,#192,.T.);
#194=ORIENTED_EDGE('',*,*,#193,.F.);
#195=CARTESIAN_POINT('',(0.0,0.0,-2.600000000000000));
#196=DIRECTION('',(0.0,0.0,1.0));
#197=DIRECTION('',(1.0,0.0,0.0));
#198=AXIS2_PLACEMENT_3D('',#195,#196,#197);
#199=CIRCLE('',#198,0.600000000000000);
#200=EDGE_CURVE('',#188,#171,#199,.T.);
#201=ORIENTED_EDGE('',*,*,#200,.T.);
#202=EDGE_LOOP('',(#177,#186,#194,#201));
#203=FACE_OUTER_BOUND('',#202,.T.);
#204=ADVANCED_FACE('',(#203),#167,.T.);
#205=CARTESIAN_POINT('',(0.0,0.0,0.0));
#206=DIRECTION('',(0.0,0.0,-1.0));
#207=DIRECTION('',(1.0,0.0,0.0));
#208=AXIS2_PLACEMENT_3D('',#205,#206,#207);
#209=CYLINDRICAL_SURFACE('',#208,0.600000000000000);
#210=ORIENTED_EDGE('',*,*,#176,.T.);
#211=CARTESIAN_POINT('',(0.0,0.0,-2.600000000000000));
#212=DIRECTION('',(0.0,0.0,1.0));
#213=DIRECTION('',(1.0,0.0,0.0));
#214=AXIS2_PLACEMENT_3D('',#211,#212,#213);
#215=CIRCLE('',#214,0.600000000000000);
#216=EDGE_CURVE('',#171,#188,#215,.T.);
#217=ORIENTED_EDGE('',*,*,#216,.T.);
#218=ORIENTED_EDGE('',*,*,#193,.T.);
#219=CARTESIAN_POINT('',(0.0,0.0,0.0));
#220=DIRECTION('',(0.0,0.0,1.0));
#221=DIRECTION('',(1.0,0.0,0.0));
#222=AXIS2_PLACEMENT_3D('',#219,#220,#221);
#223=CIRCLE('',#222,0.600000000000000);
#224=EDGE_CURVE('',#169,#179,#223,.T.);
#225=ORIENTED_EDGE('',*,*,#224,.F.);
#226=EDGE_LOOP('',(#210,#217,#218,#225));
#227=FACE_OUTER_BOUND('',#226,.T.);
#228=ADVANCED_FACE('',(#227),#209,.T.);
#229=CARTESIAN_POINT('',(0.0,0.0,-2.600000000000000));
#230=DIRECTION('',(0.0,0.0,1.0));
#231=DIRECTION('',(1.0,0.0,0.0));
#232=AXIS2_PLACEMENT_3D('',#229,#230,#231);
#233=PLANE('',#232);
#234=ORIENTED_EDGE('',*,*,#216,.F.);
#235=ORIENTED_EDGE('',*,*,#200,.F.);
#236=EDGE_LOOP('',(#234,#235));
#237=FACE_OUTER_BOUND('',#236,.T.);
#238=ADVANCED_FACE('',(#237),#233,.F.);
#239=CARTESIAN_POINT('',(0.0,0.0,0.0));
#240=DIRECTION('',(0.0,0.0,1.0));
#241=DIRECTION('',(1.0,0.0,0.0));
#242=AXIS2_PLACEMENT_3D('',#239,#240,#241);
#243=PLANE('',#242);
#244=ORIENTED_EDGE('',*,*,#224,.T.);
#245=ORIENTED_EDGE('',*,*,#185,.T.);
#246=EDGE_LOOP('',(#244,#245));
#247=FACE_OUTER_BOUND('',#246,.T.);
#248=ADVANCED_FACE('',(#247),#243,.T.);
#249=CLOSED_SHELL('',(#204,#228,#238,#248));
#250=MANIFOLD_SOLID_BREP('856',#249);
#251=STYLED_ITEM('NONE',(#159),#250);
#252=CARTESIAN_POINT('',(-4.365417E-018,-2.220446E-016,1.500000000000000));
#253=DIRECTION('',(0.0,0.0,1.0));
#254=DIRECTION('',(0.0,-1.0,0.0));
#255=AXIS2_PLACEMENT_3D('',#252,#253,#254);
#256=CYLINDRICAL_SURFACE('',#255,1.250000000000000);
#257=CARTESIAN_POINT('',(-5.043859E-016,-1.250000000000000,1.500000000000000));
#258=VERTEX_POINT('',#257);
#259=CARTESIAN_POINT('',(-5.043859E-016,-1.250000000000000,4.0));
#260=VERTEX_POINT('',#259);
#261=CARTESIAN_POINT('',(-5.043859E-016,-1.250000000000000,1.500000000000000));
#262=DIRECTION('',(0.0,0.0,1.0));
#263=VECTOR('',#262,2.500000000000000);
#264=LINE('',#261,#263);
#265=EDGE_CURVE('',#258,#260,#264,.T.);
#266=ORIENTED_EDGE('',*,*,#265,.F.);
#267=CARTESIAN_POINT('',(0.400000000000000,-1.184271928232701,1.500000000000000));
#268=VERTEX_POINT('',#267);
#269=CARTESIAN_POINT('',(-4.365417E-018,-2.220446E-016,1.500000000000000));
#270=DIRECTION('',(0.0,0.0,1.0));
#271=DIRECTION('',(0.0,-1.0,0.0));
#272=AXIS2_PLACEMENT_3D('',#269,#270,#271);
#273=CIRCLE('',#272,1.250000000000000);
#274=EDGE_CURVE('',#258,#268,#273,.T.);
#275=ORIENTED_EDGE('',*,*,#274,.T.);
#276=CARTESIAN_POINT('',(0.400000000000000,-1.184271928232701,4.0));
#277=VERTEX_POINT('',#276);
#278=CARTESIAN_POINT('',(0.400000000000000,-1.184271928232701,1.500000000000000));
#279=DIRECTION('',(0.0,0.0,1.0));
#280=VECTOR('',#279,2.500000000000000);
#281=LINE('',#278,#280);
#282=EDGE_CURVE('',#268,#277,#281,.T.);
#283=ORIENTED_EDGE('',*,*,#282,.T.);
#284=CARTESIAN_POINT('',(-4.365417E-018,-2.220446E-016,4.0));
#285=DIRECTION('',(0.0,0.0,-1.0));
#286=DIRECTION('',(0.0,-1.0,0.0));
#287=AXIS2_PLACEMENT_3D('',#284,#285,#286);
#288=CIRCLE('',#287,1.250000000000000);
#289=EDGE_CURVE('',#277,#260,#288,.T.);
#290=ORIENTED_EDGE('',*,*,#289,.T.);
#291=EDGE_LOOP('',(#266,#275,#283,#290));
#292=FACE_OUTER_BOUND('',#291,.T.);
#293=ADVANCED_FACE('',(#292),#256,.T.);
#294=CARTESIAN_POINT('',(-7.653790E-017,0.0,1.500000000000000));
#295=DIRECTION('',(0.0,0.0,1.0));
#296=DIRECTION('',(1.0,0.0,0.0));
#297=AXIS2_PLACEMENT_3D('',#294,#295,#296);
#298=CYLINDRICAL_SURFACE('',#297,0.600000000000000);
#299=CARTESIAN_POINT('',(-0.400000000000000,-0.447213595499958,4.0));
#300=VERTEX_POINT('',#299);
#301=CARTESIAN_POINT('',(-0.400000000000000,-0.447213595499958,1.500000000000000));
#302=VERTEX_POINT('',#301);
#303=CARTESIAN_POINT('',(-0.400000000000000,-0.447213595499958,4.0));
#304=DIRECTION('',(0.0,0.0,-1.0));
#305=VECTOR('',#304,2.500000000000000);
#306=LINE('',#303,#305);
#307=EDGE_CURVE('',#300,#302,#306,.T.);
#308=ORIENTED_EDGE('',*,*,#307,.F.);
#309=CARTESIAN_POINT('',(0.400000000000000,-0.447213595499958,4.0));
#310=VERTEX_POINT('',#309);
#311=CARTESIAN_POINT('',(-7.653790E-017,0.0,4.0));
#312=DIRECTION('',(0.0,0.0,-1.0));
#313=DIRECTION('',(1.0,0.0,0.0));
#314=AXIS2_PLACEMENT_3D('',#311,#312,#313);
#315=CIRCLE('',#314,0.600000000000000);
#316=EDGE_CURVE('',#310,#300,#315,.T.);
#317=ORIENTED_EDGE('',*,*,#316,.F.);
#318=CARTESIAN_POINT('',(0.400000000000000,-0.447213595499958,1.500000000000000));
#319=VERTEX_POINT('',#318);
#320=CARTESIAN_POINT('',(0.400000000000000,-0.447213595499958,1.500000000000000));
#321=DIRECTION('',(0.0,0.0,1.0));
#322=VECTOR('',#321,2.500000000000000);
#323=LINE('',#320,#322);
#324=EDGE_CURVE('',#319,#310,#323,.T.);
#325=ORIENTED_EDGE('',*,*,#324,.F.);
#326=CARTESIAN_POINT('',(-7.653790E-017,0.0,1.500000000000000));
#327=DIRECTION('',(0.0,0.0,1.0));
#328=DIRECTION('',(1.0,0.0,0.0));
#329=AXIS2_PLACEMENT_3D('',#326,#327,#328);
#330=CIRCLE('',#329,0.600000000000000);
#331=EDGE_CURVE('',#302,#319,#330,.T.);
#332=ORIENTED_EDGE('',*,*,#331,.F.);
#333=EDGE_LOOP('',(#308,#317,#325,#332));
#334=FACE_OUTER_BOUND('',#333,.T.);
#335=ADVANCED_FACE('',(#334),#298,.F.);
#336=CARTESIAN_POINT('',(-2.775558E-017,-1.502140E-017,4.0));
#337=DIRECTION('',(0.0,0.0,1.0));
#338=DIRECTION('',(1.0,0.0,0.0));
#339=AXIS2_PLACEMENT_3D('',#336,#337,#338);
#340=PLANE('',#339);
#341=ORIENTED_EDGE('',*,*,#316,.T.);
#342=CARTESIAN_POINT('',(-0.400000000000000,-1.184271928232701,4.0));
#343=VERTEX_POINT('',#342);
#344=CARTESIAN_POINT('',(-0.400000000000000,-1.184271928232701,4.0));
#345=DIRECTION('',(0.0,1.0,0.0));
#346=VECTOR('',#345,0.737058332732743);
#347=LINE('',#344,#346);
#348=EDGE_CURVE('',#343,#300,#347,.T.);
#349=ORIENTED_EDGE('',*,*,#348,.F.);
#350=CARTESIAN_POINT('',(-4.365417E-018,-2.220446E-016,4.0));
#351=DIRECTION('',(0.0,0.0,-1.0));
#352=DIRECTION('',(0.0,-1.0,0.0));
#353=AXIS2_PLACEMENT_3D('',#350,#351,#352);
#354=CIRCLE('',#353,1.250000000000000);
#355=EDGE_CURVE('',#260,#343,#354,.T.);
#356=ORIENTED_EDGE('',*,*,#355,.F.);
#357=ORIENTED_EDGE('',*,*,#289,.F.);
#358=CARTESIAN_POINT('',(0.400000000000000,-0.447213595499958,4.0));
#359=DIRECTION('',(0.0,-1.0,0.0));
#360=VECTOR('',#359,0.737058332732743);
#361=LINE('',#358,#360);
#362=EDGE_CURVE('',#310,#277,#361,.T.);
#363=ORIENTED_EDGE('',*,*,#362,.F.);
#364=EDGE_LOOP('',(#341,#349,#356,#357,#363));
#365=FACE_OUTER_BOUND('',#364,.T.);
#366=ADVANCED_FACE('',(#365),#340,.T.);
#367=CARTESIAN_POINT('',(-0.400000000000000,-1.184271928232701,1.500000000000000));
#368=DIRECTION('',(-1.0,0.0,0.0));
#369=DIRECTION('',(0.0,0.0,1.0));
#370=AXIS2_PLACEMENT_3D('',#367,#368,#369);
#371=PLANE('',#370);
#372=ORIENTED_EDGE('',*,*,#307,.T.);
#373=CARTESIAN_POINT('',(-0.400000000000000,-1.184271928232701,1.500000000000000));
#374=VERTEX_POINT('',#373);
#375=CARTESIAN_POINT('',(-0.400000000000000,-0.447213595499958,1.500000000000000));
#376=DIRECTION('',(0.0,-1.0,0.0));
#377=VECTOR('',#376,0.737058332732743);
#378=LINE('',#375,#377);
#379=EDGE_CURVE('',#302,#374,#378,.T.);
#380=ORIENTED_EDGE('',*,*,#379,.T.);
#381=CARTESIAN_POINT('',(-0.400000000000000,-1.184271928232701,1.500000000000000));
#382=DIRECTION('',(0.0,0.0,1.0));
#383=VECTOR('',#382,2.500000000000000);
#384=LINE('',#381,#383);
#385=EDGE_CURVE('',#374,#343,#384,.T.);
#386=ORIENTED_EDGE('',*,*,#385,.T.);
#387=ORIENTED_EDGE('',*,*,#348,.T.);
#388=EDGE_LOOP('',(#372,#380,#386,#387));
#389=FACE_OUTER_BOUND('',#388,.T.);
#390=ADVANCED_FACE('',(#389),#371,.T.);
#391=CARTESIAN_POINT('',(-2.775558E-017,-1.502140E-017,1.500000000000000));
#392=DIRECTION('',(0.0,0.0,1.0));
#393=DIRECTION('',(1.0,0.0,0.0));
#394=AXIS2_PLACEMENT_3D('',#391,#392,#393);
#395=PLANE('',#394);
#396=ORIENTED_EDGE('',*,*,#331,.T.);
#397=CARTESIAN_POINT('',(0.400000000000000,-1.184271928232701,1.500000000000000));
#398=DIRECTION('',(0.0,1.0,0.0));
#399=VECTOR('',#398,0.737058332732743);
#400=LINE('',#397,#399);
#401=EDGE_CURVE('',#268,#319,#400,.T.);
#402=ORIENTED_EDGE('',*,*,#401,.F.);
#403=ORIENTED_EDGE('',*,*,#274,.F.);
#404=CARTESIAN_POINT('',(-4.365417E-018,-2.220446E-016,1.500000000000000));
#405=DIRECTION('',(0.0,0.0,1.0));
#406=DIRECTION('',(0.0,-1.0,0.0));
#407=AXIS2_PLACEMENT_3D('',#404,#405,#406);
#408=CIRCLE('',#407,1.250000000000000);
#409=EDGE_CURVE('',#374,#258,#408,.T.);
#410=ORIENTED_EDGE('',*,*,#409,.F.);
#411=ORIENTED_EDGE('',*,*,#379,.F.);
#412=EDGE_LOOP('',(#396,#402,#403,#410,#411));
#413=FACE_OUTER_BOUND('',#412,.T.);
#414=ADVANCED_FACE('',(#413),#395,.F.);
#415=CARTESIAN_POINT('',(0.400000000000000,1.184271928232701,1.500000000000000));
#416=DIRECTION('',(1.0,0.0,0.0));
#417=DIRECTION('',(0.0,0.0,-1.0));
#418=AXIS2_PLACEMENT_3D('',#415,#416,#417);
#419=PLANE('',#418);
#420=ORIENTED_EDGE('',*,*,#324,.T.);
#421=ORIENTED_EDGE('',*,*,#362,.T.);
#422=ORIENTED_EDGE('',*,*,#282,.F.);
#423=ORIENTED_EDGE('',*,*,#401,.T.);
#424=EDGE_LOOP('',(#420,#421,#422,#423));
#425=FACE_OUTER_BOUND('',#424,.T.);
#426=ADVANCED_FACE('',(#425),#419,.T.);
#427=CARTESIAN_POINT('',(-4.365417E-018,-2.220446E-016,1.500000000000000));
#428=DIRECTION('',(0.0,0.0,1.0));
#429=DIRECTION('',(0.0,-1.0,0.0));
#430=AXIS2_PLACEMENT_3D('',#427,#428,#429);
#431=CYLINDRICAL_SURFACE('',#430,1.250000000000000);
#432=ORIENTED_EDGE('',*,*,#265,.T.);
#433=ORIENTED_EDGE('',*,*,#355,.T.);
#434=ORIENTED_EDGE('',*,*,#385,.F.);
#435=ORIENTED_EDGE('',*,*,#409,.T.);
#436=EDGE_LOOP('',(#432,#433,#434,#435));
#437=FACE_OUTER_BOUND('',#436,.T.);
#438=ADVANCED_FACE('',(#437),#431,.T.);
#439=CLOSED_SHELL('',(#293,#335,#366,#390,#414,#426,#438));
#440=CARTESIAN_POINT('',(-1.344125E-016,2.220446E-016,1.500000000000000));
#441=DIRECTION('',(0.0,0.0,1.0));
#442=DIRECTION('',(0.0,1.0,0.0));
#443=AXIS2_PLACEMENT_3D('',#440,#441,#442);
#444=CYLINDRICAL_SURFACE('',#443,1.250000000000000);
#445=CARTESIAN_POINT('',(3.656080E-016,1.250000000000000,1.500000000000000));
#446=VERTEX_POINT('',#445);
#447=CARTESIAN_POINT('',(3.656080E-016,1.250000000000000,4.0));
#448=VERTEX_POINT('',#447);
#449=CARTESIAN_POINT('',(3.656080E-016,1.250000000000000,1.500000000000000));
#450=DIRECTION('',(0.0,0.0,1.0));
#451=VECTOR('',#450,2.500000000000000);
#452=LINE('',#449,#451);
#453=EDGE_CURVE('',#446,#448,#452,.T.);
#454=ORIENTED_EDGE('',*,*,#453,.F.);
#455=CARTESIAN_POINT('',(-0.400000000000000,1.184271928232701,1.500000000000000));
#456=VERTEX_POINT('',#455);
#457=CARTESIAN_POINT('',(-1.344125E-016,2.220446E-016,1.500000000000000));
#458=DIRECTION('',(0.0,0.0,1.0));
#459=DIRECTION('',(0.0,1.0,0.0));
#460=AXIS2_PLACEMENT_3D('',#457,#458,#459);
#461=CIRCLE('',#460,1.250000000000000);
#462=EDGE_CURVE('',#446,#456,#461,.T.);
#463=ORIENTED_EDGE('',*,*,#462,.T.);
#464=CARTESIAN_POINT('',(-0.400000000000000,1.184271928232701,4.0));
#465=VERTEX_POINT('',#464);
#466=CARTESIAN_POINT('',(-0.400000000000000,1.184271928232701,1.500000000000000));
#467=DIRECTION('',(0.0,0.0,1.0));
#468=VECTOR('',#467,2.500000000000000);
#469=LINE('',#466,#468);
#470=EDGE_CURVE('',#456,#465,#469,.T.);
#471=ORIENTED_EDGE('',*,*,#470,.T.);
#472=CARTESIAN_POINT('',(-1.344125E-016,2.220446E-016,4.0));
#473=DIRECTION('',(0.0,0.0,-1.0));
#474=DIRECTION('',(0.0,1.0,0.0));
#475=AXIS2_PLACEMENT_3D('',#472,#473,#474);
#476=CIRCLE('',#475,1.250000000000000);
#477=EDGE_CURVE('',#465,#448,#476,.T.);
#478=ORIENTED_EDGE('',*,*,#477,.T.);
#479=EDGE_LOOP('',(#454,#463,#471,#478));
#480=FACE_OUTER_BOUND('',#479,.F.);
#481=ADVANCED_FACE('',(#480),#444,.F.);
#482=CARTESIAN_POINT('',(-2.775558E-017,-1.502140E-017,1.500000000000000));
#483=DIRECTION('',(0.0,0.0,1.0));
#484=DIRECTION('',(1.0,0.0,0.0));
#485=AXIS2_PLACEMENT_3D('',#482,#483,#484);
#486=PLANE('',#485);
#487=CARTESIAN_POINT('',(0.400000000000000,0.447213595499958,1.500000000000000));
#488=VERTEX_POINT('',#487);
#489=CARTESIAN_POINT('',(-0.400000000000000,0.447213595499958,1.500000000000000));
#490=VERTEX_POINT('',#489);
#491=CARTESIAN_POINT('',(-7.653790E-017,0.0,1.500000000000000));
#492=DIRECTION('',(0.0,0.0,1.0));
#493=DIRECTION('',(1.0,0.0,0.0));
#494=AXIS2_PLACEMENT_3D('',#491,#492,#493);
#495=CIRCLE('',#494,0.600000000000000);
#496=EDGE_CURVE('',#488,#490,#495,.T.);
#497=ORIENTED_EDGE('',*,*,#496,.T.);
#498=CARTESIAN_POINT('',(-0.400000000000000,1.184271928232701,1.500000000000000));
#499=DIRECTION('',(0.0,-1.0,0.0));
#500=VECTOR('',#499,0.737058332732743);
#501=LINE('',#498,#500);
#502=EDGE_CURVE('',#456,#490,#501,.T.);
#503=ORIENTED_EDGE('',*,*,#502,.F.);
#504=ORIENTED_EDGE('',*,*,#462,.F.);
#505=CARTESIAN_POINT('',(0.400000000000000,1.184271928232701,1.500000000000000));
#506=VERTEX_POINT('',#505);
#507=CARTESIAN_POINT('',(-1.344125E-016,2.220446E-016,1.500000000000000));
#508=DIRECTION('',(0.0,0.0,1.0));
#509=DIRECTION('',(0.0,1.0,0.0));
#510=AXIS2_PLACEMENT_3D('',#507,#508,#509);
#511=CIRCLE('',#510,1.250000000000000);
#512=EDGE_CURVE('',#506,#446,#511,.T.);
#513=ORIENTED_EDGE('',*,*,#512,.F.);
#514=CARTESIAN_POINT('',(0.400000000000000,0.447213595499958,1.500000000000000));
#515=DIRECTION('',(0.0,1.0,0.0));
#516=VECTOR('',#515,0.737058332732743);
#517=LINE('',#514,#516);
#518=EDGE_CURVE('',#488,#506,#517,.T.);
#519=ORIENTED_EDGE('',*,*,#518,.F.);
#520=EDGE_LOOP('',(#497,#503,#504,#513,#519));
#521=FACE_OUTER_BOUND('',#520,.F.);
#522=ADVANCED_FACE('',(#521),#486,.T.);
#523=CARTESIAN_POINT('',(0.400000000000000,1.184271928232701,1.500000000000000));
#524=DIRECTION('',(1.0,0.0,0.0));
#525=DIRECTION('',(0.0,0.0,-1.0));
#526=AXIS2_PLACEMENT_3D('',#523,#524,#525);
#527=PLANE('',#526);
#528=CARTESIAN_POINT('',(0.400000000000000,0.447213595499958,4.0));
#529=VERTEX_POINT('',#528);
#530=CARTESIAN_POINT('',(0.400000000000000,0.447213595499958,4.0));
#531=DIRECTION('',(0.0,0.0,-1.0));
#532=VECTOR('',#531,2.500000000000000);
#533=LINE('',#530,#532);
#534=EDGE_CURVE('',#529,#488,#533,.T.);
#535=ORIENTED_EDGE('',*,*,#534,.T.);
#536=ORIENTED_EDGE('',*,*,#518,.T.);
#537=CARTESIAN_POINT('',(0.400000000000000,1.184271928232701,4.0));
#538=VERTEX_POINT('',#537);
#539=CARTESIAN_POINT('',(0.400000000000000,1.184271928232701,1.500000000000000));
#540=DIRECTION('',(0.0,0.0,1.0));
#541=VECTOR('',#540,2.500000000000000);
#542=LINE('',#539,#541);
#543=EDGE_CURVE('',#506,#538,#542,.T.);
#544=ORIENTED_EDGE('',*,*,#543,.T.);
#545=CARTESIAN_POINT('',(0.400000000000000,1.184271928232701,4.0));
#546=DIRECTION('',(0.0,-1.0,0.0));
#547=VECTOR('',#546,0.737058332732743);
#548=LINE('',#545,#547);
#549=EDGE_CURVE('',#538,#529,#548,.T.);
#550=ORIENTED_EDGE('',*,*,#549,.T.);
#551=EDGE_LOOP('',(#535,#536,#544,#550));
#552=FACE_OUTER_BOUND('',#551,.F.);
#553=ADVANCED_FACE('',(#552),#527,.F.);
#554=CARTESIAN_POINT('',(-1.344125E-016,2.220446E-016,1.500000000000000));
#555=DIRECTION('',(0.0,0.0,1.0));
#556=DIRECTION('',(0.0,1.0,0.0));
#557=AXIS2_PLACEMENT_3D('',#554,#555,#556);
#558=CYLINDRICAL_SURFACE('',#557,1.250000000000000);
#559=ORIENTED_EDGE('',*,*,#453,.T.);
#560=CARTESIAN_POINT('',(-1.344125E-016,2.220446E-016,4.0));
#561=DIRECTION('',(0.0,0.0,-1.0));
#562=DIRECTION('',(0.0,1.0,0.0));
#563=AXIS2_PLACEMENT_3D('',#560,#561,#562);
#564=CIRCLE('',#563,1.250000000000000);
#565=EDGE_CURVE('',#448,#538,#564,.T.);
#566=ORIENTED_EDGE('',*,*,#565,.T.);
#567=ORIENTED_EDGE('',*,*,#543,.F.);
#568=ORIENTED_EDGE('',*,*,#512,.T.);
#569=EDGE_LOOP('',(#559,#566,#567,#568));
#570=FACE_OUTER_BOUND('',#569,.F.);
#571=ADVANCED_FACE('',(#570),#558,.F.);
#572=CARTESIAN_POINT('',(-0.400000000000000,-1.184271928232701,1.500000000000000));
#573=DIRECTION('',(-1.0,0.0,0.0));
#574=DIRECTION('',(0.0,0.0,1.0));
#575=AXIS2_PLACEMENT_3D('',#572,#573,#574);
#576=PLANE('',#575);
#577=CARTESIAN_POINT('',(-0.400000000000000,0.447213595499958,4.0));
#578=VERTEX_POINT('',#577);
#579=CARTESIAN_POINT('',(-0.400000000000000,0.447213595499958,1.500000000000000));
#580=DIRECTION('',(0.0,0.0,1.0));
#581=VECTOR('',#580,2.500000000000000);
#582=LINE('',#579,#581);
#583=EDGE_CURVE('',#490,#578,#582,.T.);
#584=ORIENTED_EDGE('',*,*,#583,.T.);
#585=CARTESIAN_POINT('',(-0.400000000000000,0.447213595499958,4.0));
#586=DIRECTION('',(0.0,1.0,0.0));
#587=VECTOR('',#586,0.737058332732743);
#588=LINE('',#585,#587);
#589=EDGE_CURVE('',#578,#465,#588,.T.);
#590=ORIENTED_EDGE('',*,*,#589,.T.);
#591=ORIENTED_EDGE('',*,*,#470,.F.);
#592=ORIENTED_EDGE('',*,*,#502,.T.);
#593=EDGE_LOOP('',(#584,#590,#591,#592));
#594=FACE_OUTER_BOUND('',#593,.F.);
#595=ADVANCED_FACE('',(#594),#576,.F.);
#596=CARTESIAN_POINT('',(-2.775558E-017,-1.502140E-017,4.0));
#597=DIRECTION('',(0.0,0.0,1.0));
#598=DIRECTION('',(1.0,0.0,0.0));
#599=AXIS2_PLACEMENT_3D('',#596,#597,#598);
#600=PLANE('',#599);
#601=CARTESIAN_POINT('',(-7.653790E-017,0.0,4.0));
#602=DIRECTION('',(0.0,0.0,-1.0));
#603=DIRECTION('',(1.0,0.0,0.0));
#604=AXIS2_PLACEMENT_3D('',#601,#602,#603);
#605=CIRCLE('',#604,0.600000000000000);
#606=EDGE_CURVE('',#578,#529,#605,.T.);
#607=ORIENTED_EDGE('',*,*,#606,.T.);
#608=ORIENTED_EDGE('',*,*,#549,.F.);
#609=ORIENTED_EDGE('',*,*,#565,.F.);
#610=ORIENTED_EDGE('',*,*,#477,.F.);
#611=ORIENTED_EDGE('',*,*,#589,.F.);
#612=EDGE_LOOP('',(#607,#608,#609,#610,#611));
#613=FACE_OUTER_BOUND('',#612,.F.);
#614=ADVANCED_FACE('',(#613),#600,.F.);
#615=CARTESIAN_POINT('',(-7.653790E-017,0.0,1.500000000000000));
#616=DIRECTION('',(0.0,0.0,1.0));
#617=DIRECTION('',(1.0,0.0,0.0));
#618=AXIS2_PLACEMENT_3D('',#615,#616,#617);
#619=CYLINDRICAL_SURFACE('',#618,0.600000000000000);
#620=ORIENTED_EDGE('',*,*,#583,.F.);
#621=ORIENTED_EDGE('',*,*,#496,.F.);
#622=ORIENTED_EDGE('',*,*,#534,.F.);
#623=ORIENTED_EDGE('',*,*,#606,.F.);
#624=EDGE_LOOP('',(#620,#621,#622,#623));
#625=FACE_OUTER_BOUND('',#624,.F.);
#626=ADVANCED_FACE('',(#625),#619,.T.);
#627=CLOSED_SHELL('',(#481,#522,#553,#571,#595,#614,#626));
#628=ORIENTED_CLOSED_SHELL('',*,#627,.F.);
#629=BREP_WITH_VOIDS('84F',#439,(#628));
#630=STYLED_ITEM('NONE',(#159),#629);
#631=CARTESIAN_POINT('',(0.0,0.0,0.0));
#632=DIRECTION('',(0.0,0.0,1.0));
#633=DIRECTION('',(1.0,0.0,0.0));
#634=AXIS2_PLACEMENT_3D('',#631,#632,#633);
#635=CYLINDRICAL_SURFACE('',#634,1.250000000000000);
#636=CARTESIAN_POINT('',(1.250000000000000,0.0,0.0));
#637=VERTEX_POINT('',#636);
#638=CARTESIAN_POINT('',(1.250000000000000,0.0,1.500000000000000));
#639=VERTEX_POINT('',#638);
#640=CARTESIAN_POINT('',(1.250000000000000,0.0,0.0));
#641=DIRECTION('',(0.0,0.0,1.0));
#642=VECTOR('',#641,1.500000000000000);
#643=LINE('',#640,#642);
#644=EDGE_CURVE('',#637,#639,#643,.T.);
#645=ORIENTED_EDGE('',*,*,#644,.F.);
#646=CARTESIAN_POINT('',(-1.250000000000000,1.530758E-016,0.0));
#647=VERTEX_POINT('',#646);
#648=CARTESIAN_POINT('',(0.0,0.0,0.0));
#649=DIRECTION('',(0.0,0.0,1.0));
#650=DIRECTION('',(1.0,0.0,0.0));
#651=AXIS2_PLACEMENT_3D('',#648,#649,#650);
#652=CIRCLE('',#651,1.250000000000000);
#653=EDGE_CURVE('',#637,#647,#652,.T.);
#654=ORIENTED_EDGE('',*,*,#653,.T.);
#655=CARTESIAN_POINT('',(-1.250000000000000,1.530758E-016,1.500000000000000));
#656=VERTEX_POINT('',#655);
#657=CARTESIAN_POINT('',(-1.250000000000000,1.530758E-016,1.500000000000000));
#658=DIRECTION('',(0.0,0.0,-1.0));
#659=VECTOR('',#658,1.500000000000000);
#660=LINE('',#657,#659);
#661=EDGE_CURVE('',#656,#647,#660,.T.);
#662=ORIENTED_EDGE('',*,*,#661,.F.);
#663=CARTESIAN_POINT('',(0.0,0.0,1.500000000000000));
#664=DIRECTION('',(0.0,0.0,-1.0));
#665=DIRECTION('',(1.0,0.0,0.0));
#666=AXIS2_PLACEMENT_3D('',#663,#664,#665);
#667=CIRCLE('',#666,1.250000000000000);
#668=EDGE_CURVE('',#656,#639,#667,.T.);
#669=ORIENTED_EDGE('',*,*,#668,.T.);
#670=EDGE_LOOP('',(#645,#654,#662,#669));
#671=FACE_OUTER_BOUND('',#670,.T.);
#672=ADVANCED_FACE('',(#671),#635,.T.);
#673=CARTESIAN_POINT('',(0.0,0.0,0.0));
#674=DIRECTION('',(0.0,0.0,1.0));
#675=DIRECTION('',(1.0,0.0,0.0));
#676=AXIS2_PLACEMENT_3D('',#673,#674,#675);
#677=CYLINDRICAL_SURFACE('',#676,1.250000000000000);
#678=ORIENTED_EDGE('',*,*,#644,.T.);
#679=CARTESIAN_POINT('',(0.0,0.0,1.500000000000000));
#680=DIRECTION('',(0.0,0.0,-1.0));
#681=DIRECTION('',(1.0,0.0,0.0));
#682=AXIS2_PLACEMENT_3D('',#679,#680,#681);
#683=CIRCLE('',#682,1.250000000000000);
#684=EDGE_CURVE('',#639,#656,#683,.T.);
#685=ORIENTED_EDGE('',*,*,#684,.T.);
#686=ORIENTED_EDGE('',*,*,#661,.T.);
#687=CARTESIAN_POINT('',(0.0,0.0,0.0));
#688=DIRECTION('',(0.0,0.0,1.0));
#689=DIRECTION('',(1.0,0.0,0.0));
#690=AXIS2_PLACEMENT_3D('',#687,#688,#689);
#691=CIRCLE('',#690,1.250000000000000);
#692=EDGE_CURVE('',#647,#637,#691,.T.);
#693=ORIENTED_EDGE('',*,*,#692,.T.);
#694=EDGE_LOOP('',(#678,#685,#686,#693));
#695=FACE_OUTER_BOUND('',#694,.T.);
#696=ADVANCED_FACE('',(#695),#677,.T.);
#697=CARTESIAN_POINT('',(0.0,0.0,1.500000000000000));
#698=DIRECTION('',(0.0,0.0,1.0));
#699=DIRECTION('',(1.0,0.0,0.0));
#700=AXIS2_PLACEMENT_3D('',#697,#698,#699);
#701=PLANE('',#700);
#702=ORIENTED_EDGE('',*,*,#684,.F.);
#703=ORIENTED_EDGE('',*,*,#668,.F.);
#704=EDGE_LOOP('',(#702,#703));
#705=FACE_OUTER_BOUND('',#704,.T.);
#706=ADVANCED_FACE('',(#705),#701,.T.);
#707=CARTESIAN_POINT('',(0.0,0.0,0.0));
#708=DIRECTION('',(0.0,0.0,1.0));
#709=DIRECTION('',(1.0,0.0,0.0));
#710=AXIS2_PLACEMENT_3D('',#707,#708,#709);
#711=PLANE('',#710);
#712=ORIENTED_EDGE('',*,*,#653,.F.);
#713=ORIENTED_EDGE('',*,*,#692,.F.);
#714=EDGE_LOOP('',(#712,#713));
#715=FACE_OUTER_BOUND('',#714,.T.);
#716=ADVANCED_FACE('',(#715),#711,.F.);
#717=CLOSED_SHELL('',(#672,#696,#706,#716));
#718=MANIFOLD_SOLID_BREP('845',#717);
#719=STYLED_ITEM('NONE',(#159),#718);
#720=ADVANCED_BREP_SHAPE_REPRESENTATION('ABSR1',(#152,#250,#629,#718),#28);
#721=SHAPE_REPRESENTATION_RELATIONSHIP('SRRPL1','',#720,#62);
ENDSEC;
END-ISO-10303-21;
