ISO-10303-21;
HEADER;
/* Generated by software containing ST-Developer
 * from STEP Tools, Inc. (www.steptools.com) 
 */

FILE_DESCRIPTION(
/* description */ (''),
/* implementation_level */ '2;1');

FILE_NAME(
/* name */ 
'S:\\bcivel\\Altium-Lib\\Compo\\STELVIO-KONTEK_3131730000406.stp',
/* time_stamp */ '2015-09-14T17:26:54+02:00',
/* author */ ('bcivel'),
/* organization */ (''),
/* preprocessor_version */ 'ST-DEVELOPER v15.5',
/* originating_system */ 'AutoCAD Mechanical',
/* authorisation */ '');

FILE_SCHEMA (('AUTOMOTIVE_DESIGN { 1 0 10303 214 3 1 1 }'));
ENDSEC;

DATA;
#10=MECHANICAL_DESIGN_GEOMETRIC_PRESENTATION_REPRESENTATION('',(#20,#19,
#21),#613);
#11=DIMENSIONAL_EXPONENTS(0.,0.,0.,0.,0.,0.,0.);
#12=(
CONVERSION_BASED_UNIT('degree',#13)
NAMED_UNIT(#11)
PLANE_ANGLE_UNIT()
);
#13=PLANE_ANGLE_MEASURE_WITH_UNIT(PLANE_ANGLE_MEASURE(0.01745329252),#616);
#14=PRESENTATION_LAYER_ASSIGNMENT('3D','',(#387,#388,#389));
#15=FACE_BOUND($,#65,.T.);
#16=FACE_BOUND($,#67,.T.);
#17=SHAPE_REPRESENTATION_RELATIONSHIP('SRR','None',#619,#18);
#18=ADVANCED_BREP_SHAPE_REPRESENTATION($,(#387,#388,#389),#612);
#19=STYLED_ITEM($,(#629),#387);
#20=STYLED_ITEM($,(#629),#388);
#21=STYLED_ITEM($,(#629),#389);
#22=FACE_OUTER_BOUND($,#44,.T.);
#23=FACE_OUTER_BOUND($,#45,.T.);
#24=FACE_OUTER_BOUND($,#46,.T.);
#25=FACE_OUTER_BOUND($,#47,.T.);
#26=FACE_OUTER_BOUND($,#48,.T.);
#27=FACE_OUTER_BOUND($,#49,.T.);
#28=FACE_OUTER_BOUND($,#50,.T.);
#29=FACE_OUTER_BOUND($,#51,.T.);
#30=FACE_OUTER_BOUND($,#52,.T.);
#31=FACE_OUTER_BOUND($,#53,.T.);
#32=FACE_OUTER_BOUND($,#54,.T.);
#33=FACE_OUTER_BOUND($,#55,.T.);
#34=FACE_OUTER_BOUND($,#56,.T.);
#35=FACE_OUTER_BOUND($,#57,.T.);
#36=FACE_OUTER_BOUND($,#58,.T.);
#37=FACE_OUTER_BOUND($,#59,.T.);
#38=FACE_OUTER_BOUND($,#60,.T.);
#39=FACE_OUTER_BOUND($,#61,.T.);
#40=FACE_OUTER_BOUND($,#62,.T.);
#41=FACE_OUTER_BOUND($,#63,.T.);
#42=FACE_OUTER_BOUND($,#64,.T.);
#43=FACE_OUTER_BOUND($,#66,.T.);
#44=EDGE_LOOP($,(#244,#245,#246,#247));
#45=EDGE_LOOP($,(#248,#249,#250,#251));
#46=EDGE_LOOP($,(#252,#253,#254,#255));
#47=EDGE_LOOP($,(#256,#257,#258,#259));
#48=EDGE_LOOP($,(#260,#261,#262,#263));
#49=EDGE_LOOP($,(#264,#265,#266,#267));
#50=EDGE_LOOP($,(#268,#269,#270,#271));
#51=EDGE_LOOP($,(#272,#273,#274,#275));
#52=EDGE_LOOP($,(#276,#277,#278,#279));
#53=EDGE_LOOP($,(#280,#281,#282,#283));
#54=EDGE_LOOP($,(#284,#285,#286,#287));
#55=EDGE_LOOP($,(#288,#289,#290,#291));
#56=EDGE_LOOP($,(#292,#293,#294,#295));
#57=EDGE_LOOP($,(#296,#297,#298,#299));
#58=EDGE_LOOP($,(#300,#301,#302,#303));
#59=EDGE_LOOP($,(#304,#305,#306,#307));
#60=EDGE_LOOP($,(#308,#309,#310,#311));
#61=EDGE_LOOP($,(#312,#313,#314,#315));
#62=EDGE_LOOP($,(#316,#317,#318,#319));
#63=EDGE_LOOP($,(#320,#321,#322,#323));
#64=EDGE_LOOP($,(#324,#325,#326,#327));
#65=EDGE_LOOP($,(#328,#329,#330,#331));
#66=EDGE_LOOP($,(#332,#333,#334,#335));
#67=EDGE_LOOP($,(#336,#337,#338,#339));
#68=LINE($,#511,#116);
#69=LINE($,#513,#117);
#70=LINE($,#515,#118);
#71=LINE($,#516,#119);
#72=LINE($,#519,#120);
#73=LINE($,#521,#121);
#74=LINE($,#522,#122);
#75=LINE($,#525,#123);
#76=LINE($,#527,#124);
#77=LINE($,#528,#125);
#78=LINE($,#530,#126);
#79=LINE($,#531,#127);
#80=LINE($,#537,#128);
#81=LINE($,#539,#129);
#82=LINE($,#541,#130);
#83=LINE($,#542,#131);
#84=LINE($,#545,#132);
#85=LINE($,#547,#133);
#86=LINE($,#548,#134);
#87=LINE($,#551,#135);
#88=LINE($,#553,#136);
#89=LINE($,#554,#137);
#90=LINE($,#556,#138);
#91=LINE($,#557,#139);
#92=LINE($,#563,#140);
#93=LINE($,#565,#141);
#94=LINE($,#567,#142);
#95=LINE($,#568,#143);
#96=LINE($,#571,#144);
#97=LINE($,#573,#145);
#98=LINE($,#574,#146);
#99=LINE($,#577,#147);
#100=LINE($,#579,#148);
#101=LINE($,#580,#149);
#102=LINE($,#582,#150);
#103=LINE($,#583,#151);
#104=LINE($,#587,#152);
#105=LINE($,#589,#153);
#106=LINE($,#591,#154);
#107=LINE($,#592,#155);
#108=LINE($,#595,#156);
#109=LINE($,#597,#157);
#110=LINE($,#598,#158);
#111=LINE($,#601,#159);
#112=LINE($,#603,#160);
#113=LINE($,#604,#161);
#114=LINE($,#606,#162);
#115=LINE($,#607,#163);
#116=VECTOR($,#417,4.3);
#117=VECTOR($,#418,0.7);
#118=VECTOR($,#419,4.3);
#119=VECTOR($,#420,0.7);
#120=VECTOR($,#423,1.8);
#121=VECTOR($,#424,0.7);
#122=VECTOR($,#425,1.8);
#123=VECTOR($,#428,4.3);
#124=VECTOR($,#429,0.7);
#125=VECTOR($,#430,4.3);
#126=VECTOR($,#433,1.8);
#127=VECTOR($,#434,1.8);
#128=VECTOR($,#441,5.);
#129=VECTOR($,#442,0.8);
#130=VECTOR($,#443,5.);
#131=VECTOR($,#444,0.8);
#132=VECTOR($,#447,2.5);
#133=VECTOR($,#448,0.8);
#134=VECTOR($,#449,2.5);
#135=VECTOR($,#452,5.);
#136=VECTOR($,#453,0.8);
#137=VECTOR($,#454,5.);
#138=VECTOR($,#457,2.5);
#139=VECTOR($,#458,2.5);
#140=VECTOR($,#465,4.);
#141=VECTOR($,#466,5.);
#142=VECTOR($,#467,4.);
#143=VECTOR($,#468,5.);
#144=VECTOR($,#471,1.5);
#145=VECTOR($,#472,1.5);
#146=VECTOR($,#473,5.);
#147=VECTOR($,#476,4.);
#148=VECTOR($,#477,4.);
#149=VECTOR($,#478,5.);
#150=VECTOR($,#481,1.5);
#151=VECTOR($,#482,1.5);
#152=VECTOR($,#485,5.);
#153=VECTOR($,#486,5.);
#154=VECTOR($,#487,5.);
#155=VECTOR($,#488,5.);
#156=VECTOR($,#491,2.5);
#157=VECTOR($,#492,5.);
#158=VECTOR($,#493,2.5);
#159=VECTOR($,#496,5.);
#160=VECTOR($,#497,5.);
#161=VECTOR($,#498,5.);
#162=VECTOR($,#501,2.5);
#163=VECTOR($,#502,2.5);
#164=VERTEX_POINT($,#509);
#165=VERTEX_POINT($,#510);
#166=VERTEX_POINT($,#512);
#167=VERTEX_POINT($,#514);
#168=VERTEX_POINT($,#518);
#169=VERTEX_POINT($,#520);
#170=VERTEX_POINT($,#524);
#171=VERTEX_POINT($,#526);
#172=VERTEX_POINT($,#535);
#173=VERTEX_POINT($,#536);
#174=VERTEX_POINT($,#538);
#175=VERTEX_POINT($,#540);
#176=VERTEX_POINT($,#544);
#177=VERTEX_POINT($,#546);
#178=VERTEX_POINT($,#550);
#179=VERTEX_POINT($,#552);
#180=VERTEX_POINT($,#561);
#181=VERTEX_POINT($,#562);
#182=VERTEX_POINT($,#564);
#183=VERTEX_POINT($,#566);
#184=VERTEX_POINT($,#570);
#185=VERTEX_POINT($,#572);
#186=VERTEX_POINT($,#576);
#187=VERTEX_POINT($,#578);
#188=VERTEX_POINT($,#585);
#189=VERTEX_POINT($,#586);
#190=VERTEX_POINT($,#588);
#191=VERTEX_POINT($,#590);
#192=VERTEX_POINT($,#594);
#193=VERTEX_POINT($,#596);
#194=VERTEX_POINT($,#600);
#195=VERTEX_POINT($,#602);
#196=EDGE_CURVE($,#164,#165,#68,.T.);
#197=EDGE_CURVE($,#166,#165,#69,.T.);
#198=EDGE_CURVE($,#167,#166,#70,.T.);
#199=EDGE_CURVE($,#167,#164,#71,.T.);
#200=EDGE_CURVE($,#165,#168,#72,.T.);
#201=EDGE_CURVE($,#169,#168,#73,.T.);
#202=EDGE_CURVE($,#166,#169,#74,.T.);
#203=EDGE_CURVE($,#168,#170,#75,.T.);
#204=EDGE_CURVE($,#171,#170,#76,.T.);
#205=EDGE_CURVE($,#169,#171,#77,.T.);
#206=EDGE_CURVE($,#170,#164,#78,.T.);
#207=EDGE_CURVE($,#171,#167,#79,.T.);
#208=EDGE_CURVE($,#172,#173,#80,.T.);
#209=EDGE_CURVE($,#174,#173,#81,.T.);
#210=EDGE_CURVE($,#175,#174,#82,.T.);
#211=EDGE_CURVE($,#175,#172,#83,.T.);
#212=EDGE_CURVE($,#173,#176,#84,.T.);
#213=EDGE_CURVE($,#177,#176,#85,.T.);
#214=EDGE_CURVE($,#174,#177,#86,.T.);
#215=EDGE_CURVE($,#176,#178,#87,.T.);
#216=EDGE_CURVE($,#179,#178,#88,.T.);
#217=EDGE_CURVE($,#177,#179,#89,.T.);
#218=EDGE_CURVE($,#178,#172,#90,.T.);
#219=EDGE_CURVE($,#179,#175,#91,.T.);
#220=EDGE_CURVE($,#180,#181,#92,.T.);
#221=EDGE_CURVE($,#182,#180,#93,.T.);
#222=EDGE_CURVE($,#183,#182,#94,.T.);
#223=EDGE_CURVE($,#183,#181,#95,.T.);
#224=EDGE_CURVE($,#181,#184,#96,.T.);
#225=EDGE_CURVE($,#185,#183,#97,.T.);
#226=EDGE_CURVE($,#185,#184,#98,.T.);
#227=EDGE_CURVE($,#184,#186,#99,.T.);
#228=EDGE_CURVE($,#187,#185,#100,.T.);
#229=EDGE_CURVE($,#187,#186,#101,.T.);
#230=EDGE_CURVE($,#186,#180,#102,.T.);
#231=EDGE_CURVE($,#182,#187,#103,.T.);
#232=EDGE_CURVE($,#188,#189,#104,.T.);
#233=EDGE_CURVE($,#190,#189,#105,.T.);
#234=EDGE_CURVE($,#191,#190,#106,.T.);
#235=EDGE_CURVE($,#191,#188,#107,.T.);
#236=EDGE_CURVE($,#189,#192,#108,.T.);
#237=EDGE_CURVE($,#193,#192,#109,.T.);
#238=EDGE_CURVE($,#190,#193,#110,.T.);
#239=EDGE_CURVE($,#192,#194,#111,.T.);
#240=EDGE_CURVE($,#195,#194,#112,.T.);
#241=EDGE_CURVE($,#193,#195,#113,.T.);
#242=EDGE_CURVE($,#194,#188,#114,.T.);
#243=EDGE_CURVE($,#195,#191,#115,.T.);
#244=ORIENTED_EDGE($,*,*,#196,.T.);
#245=ORIENTED_EDGE($,*,*,#197,.F.);
#246=ORIENTED_EDGE($,*,*,#198,.F.);
#247=ORIENTED_EDGE($,*,*,#199,.T.);
#248=ORIENTED_EDGE($,*,*,#200,.T.);
#249=ORIENTED_EDGE($,*,*,#201,.F.);
#250=ORIENTED_EDGE($,*,*,#202,.F.);
#251=ORIENTED_EDGE($,*,*,#197,.T.);
#252=ORIENTED_EDGE($,*,*,#203,.T.);
#253=ORIENTED_EDGE($,*,*,#204,.F.);
#254=ORIENTED_EDGE($,*,*,#205,.F.);
#255=ORIENTED_EDGE($,*,*,#201,.T.);
#256=ORIENTED_EDGE($,*,*,#206,.T.);
#257=ORIENTED_EDGE($,*,*,#199,.F.);
#258=ORIENTED_EDGE($,*,*,#207,.F.);
#259=ORIENTED_EDGE($,*,*,#204,.T.);
#260=ORIENTED_EDGE($,*,*,#196,.F.);
#261=ORIENTED_EDGE($,*,*,#206,.F.);
#262=ORIENTED_EDGE($,*,*,#203,.F.);
#263=ORIENTED_EDGE($,*,*,#200,.F.);
#264=ORIENTED_EDGE($,*,*,#207,.T.);
#265=ORIENTED_EDGE($,*,*,#198,.T.);
#266=ORIENTED_EDGE($,*,*,#202,.T.);
#267=ORIENTED_EDGE($,*,*,#205,.T.);
#268=ORIENTED_EDGE($,*,*,#208,.T.);
#269=ORIENTED_EDGE($,*,*,#209,.F.);
#270=ORIENTED_EDGE($,*,*,#210,.F.);
#271=ORIENTED_EDGE($,*,*,#211,.T.);
#272=ORIENTED_EDGE($,*,*,#212,.T.);
#273=ORIENTED_EDGE($,*,*,#213,.F.);
#274=ORIENTED_EDGE($,*,*,#214,.F.);
#275=ORIENTED_EDGE($,*,*,#209,.T.);
#276=ORIENTED_EDGE($,*,*,#215,.T.);
#277=ORIENTED_EDGE($,*,*,#216,.F.);
#278=ORIENTED_EDGE($,*,*,#217,.F.);
#279=ORIENTED_EDGE($,*,*,#213,.T.);
#280=ORIENTED_EDGE($,*,*,#218,.T.);
#281=ORIENTED_EDGE($,*,*,#211,.F.);
#282=ORIENTED_EDGE($,*,*,#219,.F.);
#283=ORIENTED_EDGE($,*,*,#216,.T.);
#284=ORIENTED_EDGE($,*,*,#208,.F.);
#285=ORIENTED_EDGE($,*,*,#218,.F.);
#286=ORIENTED_EDGE($,*,*,#215,.F.);
#287=ORIENTED_EDGE($,*,*,#212,.F.);
#288=ORIENTED_EDGE($,*,*,#219,.T.);
#289=ORIENTED_EDGE($,*,*,#210,.T.);
#290=ORIENTED_EDGE($,*,*,#214,.T.);
#291=ORIENTED_EDGE($,*,*,#217,.T.);
#292=ORIENTED_EDGE($,*,*,#220,.F.);
#293=ORIENTED_EDGE($,*,*,#221,.F.);
#294=ORIENTED_EDGE($,*,*,#222,.F.);
#295=ORIENTED_EDGE($,*,*,#223,.T.);
#296=ORIENTED_EDGE($,*,*,#224,.F.);
#297=ORIENTED_EDGE($,*,*,#223,.F.);
#298=ORIENTED_EDGE($,*,*,#225,.F.);
#299=ORIENTED_EDGE($,*,*,#226,.T.);
#300=ORIENTED_EDGE($,*,*,#227,.F.);
#301=ORIENTED_EDGE($,*,*,#226,.F.);
#302=ORIENTED_EDGE($,*,*,#228,.F.);
#303=ORIENTED_EDGE($,*,*,#229,.T.);
#304=ORIENTED_EDGE($,*,*,#230,.F.);
#305=ORIENTED_EDGE($,*,*,#229,.F.);
#306=ORIENTED_EDGE($,*,*,#231,.F.);
#307=ORIENTED_EDGE($,*,*,#221,.T.);
#308=ORIENTED_EDGE($,*,*,#232,.T.);
#309=ORIENTED_EDGE($,*,*,#233,.F.);
#310=ORIENTED_EDGE($,*,*,#234,.F.);
#311=ORIENTED_EDGE($,*,*,#235,.T.);
#312=ORIENTED_EDGE($,*,*,#236,.T.);
#313=ORIENTED_EDGE($,*,*,#237,.F.);
#314=ORIENTED_EDGE($,*,*,#238,.F.);
#315=ORIENTED_EDGE($,*,*,#233,.T.);
#316=ORIENTED_EDGE($,*,*,#239,.T.);
#317=ORIENTED_EDGE($,*,*,#240,.F.);
#318=ORIENTED_EDGE($,*,*,#241,.F.);
#319=ORIENTED_EDGE($,*,*,#237,.T.);
#320=ORIENTED_EDGE($,*,*,#242,.T.);
#321=ORIENTED_EDGE($,*,*,#235,.F.);
#322=ORIENTED_EDGE($,*,*,#243,.F.);
#323=ORIENTED_EDGE($,*,*,#240,.T.);
#324=ORIENTED_EDGE($,*,*,#232,.F.);
#325=ORIENTED_EDGE($,*,*,#242,.F.);
#326=ORIENTED_EDGE($,*,*,#239,.F.);
#327=ORIENTED_EDGE($,*,*,#236,.F.);
#328=ORIENTED_EDGE($,*,*,#220,.T.);
#329=ORIENTED_EDGE($,*,*,#224,.T.);
#330=ORIENTED_EDGE($,*,*,#227,.T.);
#331=ORIENTED_EDGE($,*,*,#230,.T.);
#332=ORIENTED_EDGE($,*,*,#243,.T.);
#333=ORIENTED_EDGE($,*,*,#234,.T.);
#334=ORIENTED_EDGE($,*,*,#238,.T.);
#335=ORIENTED_EDGE($,*,*,#241,.T.);
#336=ORIENTED_EDGE($,*,*,#222,.T.);
#337=ORIENTED_EDGE($,*,*,#231,.T.);
#338=ORIENTED_EDGE($,*,*,#228,.T.);
#339=ORIENTED_EDGE($,*,*,#225,.T.);
#340=PLANE($,#391);
#341=PLANE($,#392);
#342=PLANE($,#393);
#343=PLANE($,#394);
#344=PLANE($,#395);
#345=PLANE($,#396);
#346=PLANE($,#397);
#347=PLANE($,#398);
#348=PLANE($,#399);
#349=PLANE($,#400);
#350=PLANE($,#401);
#351=PLANE($,#402);
#352=PLANE($,#403);
#353=PLANE($,#404);
#354=PLANE($,#405);
#355=PLANE($,#406);
#356=PLANE($,#407);
#357=PLANE($,#408);
#358=PLANE($,#409);
#359=PLANE($,#410);
#360=PLANE($,#411);
#361=PLANE($,#412);
#362=ADVANCED_FACE($,(#22),#340,.T.);
#363=ADVANCED_FACE($,(#23),#341,.T.);
#364=ADVANCED_FACE($,(#24),#342,.T.);
#365=ADVANCED_FACE($,(#25),#343,.T.);
#366=ADVANCED_FACE($,(#26),#344,.T.);
#367=ADVANCED_FACE($,(#27),#345,.F.);
#368=ADVANCED_FACE($,(#28),#346,.T.);
#369=ADVANCED_FACE($,(#29),#347,.T.);
#370=ADVANCED_FACE($,(#30),#348,.T.);
#371=ADVANCED_FACE($,(#31),#349,.T.);
#372=ADVANCED_FACE($,(#32),#350,.T.);
#373=ADVANCED_FACE($,(#33),#351,.F.);
#374=ADVANCED_FACE($,(#34),#352,.F.);
#375=ADVANCED_FACE($,(#35),#353,.F.);
#376=ADVANCED_FACE($,(#36),#354,.F.);
#377=ADVANCED_FACE($,(#37),#355,.F.);
#378=ADVANCED_FACE($,(#38),#356,.T.);
#379=ADVANCED_FACE($,(#39),#357,.T.);
#380=ADVANCED_FACE($,(#40),#358,.T.);
#381=ADVANCED_FACE($,(#41),#359,.T.);
#382=ADVANCED_FACE($,(#42,#15),#360,.T.);
#383=ADVANCED_FACE($,(#43,#16),#361,.F.);
#384=CLOSED_SHELL($,(#362,#363,#364,#365,#366,#367));
#385=CLOSED_SHELL($,(#368,#369,#370,#371,#372,#373));
#386=CLOSED_SHELL($,(#374,#375,#376,#377,#378,#379,#380,#381,#382,#383));
#387=MANIFOLD_SOLID_BREP('975',#384);
#388=MANIFOLD_SOLID_BREP('976',#385);
#389=MANIFOLD_SOLID_BREP('977',#386);
#390=AXIS2_PLACEMENT_3D('placement',#507,#413,#414);
#391=AXIS2_PLACEMENT_3D($,#508,#415,#416);
#392=AXIS2_PLACEMENT_3D($,#517,#421,#422);
#393=AXIS2_PLACEMENT_3D($,#523,#426,#427);
#394=AXIS2_PLACEMENT_3D($,#529,#431,#432);
#395=AXIS2_PLACEMENT_3D($,#532,#435,#436);
#396=AXIS2_PLACEMENT_3D($,#533,#437,#438);
#397=AXIS2_PLACEMENT_3D($,#534,#439,#440);
#398=AXIS2_PLACEMENT_3D($,#543,#445,#446);
#399=AXIS2_PLACEMENT_3D($,#549,#450,#451);
#400=AXIS2_PLACEMENT_3D($,#555,#455,#456);
#401=AXIS2_PLACEMENT_3D($,#558,#459,#460);
#402=AXIS2_PLACEMENT_3D($,#559,#461,#462);
#403=AXIS2_PLACEMENT_3D($,#560,#463,#464);
#404=AXIS2_PLACEMENT_3D($,#569,#469,#470);
#405=AXIS2_PLACEMENT_3D($,#575,#474,#475);
#406=AXIS2_PLACEMENT_3D($,#581,#479,#480);
#407=AXIS2_PLACEMENT_3D($,#584,#483,#484);
#408=AXIS2_PLACEMENT_3D($,#593,#489,#490);
#409=AXIS2_PLACEMENT_3D($,#599,#494,#495);
#410=AXIS2_PLACEMENT_3D($,#605,#499,#500);
#411=AXIS2_PLACEMENT_3D($,#608,#503,#504);
#412=AXIS2_PLACEMENT_3D($,#609,#505,#506);
#413=DIRECTION('axis',(0.,0.,1.));
#414=DIRECTION('refdir',(1.,0.,0.));
#415=DIRECTION('center_axis',(0.,-1.,0.));
#416=DIRECTION('ref_axis',(0.,0.,-1.));
#417=DIRECTION($,(-1.,0.,0.));
#418=DIRECTION($,(0.,0.,1.));
#419=DIRECTION($,(-1.,0.,0.));
#420=DIRECTION($,(0.,0.,1.));
#421=DIRECTION('center_axis',(-1.,2.46716227694479E-16,0.));
#422=DIRECTION('ref_axis',(0.,0.,1.));
#423=DIRECTION($,(2.46716227694479E-16,1.,0.));
#424=DIRECTION($,(0.,0.,1.));
#425=DIRECTION($,(2.46716227694479E-16,1.,0.));
#426=DIRECTION('center_axis',(1.03276560430247E-16,1.,0.));
#427=DIRECTION('ref_axis',(0.,0.,1.));
#428=DIRECTION($,(1.,-1.03276560430247E-16,0.));
#429=DIRECTION($,(0.,0.,1.));
#430=DIRECTION($,(1.,-1.03276560430247E-16,0.));
#431=DIRECTION('center_axis',(1.,0.,0.));
#432=DIRECTION('ref_axis',(0.,0.,-1.));
#433=DIRECTION($,(0.,-1.,0.));
#434=DIRECTION($,(0.,-1.,0.));
#435=DIRECTION('center_axis',(0.,0.,1.));
#436=DIRECTION('ref_axis',(1.,0.,0.));
#437=DIRECTION('center_axis',(0.,0.,1.));
#438=DIRECTION('ref_axis',(1.,0.,0.));
#439=DIRECTION('center_axis',(0.,-1.,0.));
#440=DIRECTION('ref_axis',(0.,0.,-1.));
#441=DIRECTION($,(-1.,0.,0.));
#442=DIRECTION($,(0.,0.,1.));
#443=DIRECTION($,(-1.,0.,0.));
#444=DIRECTION($,(0.,0.,1.));
#445=DIRECTION('center_axis',(-1.,0.,0.));
#446=DIRECTION('ref_axis',(0.,0.,1.));
#447=DIRECTION($,(0.,1.,0.));
#448=DIRECTION($,(0.,0.,1.));
#449=DIRECTION($,(0.,1.,0.));
#450=DIRECTION('center_axis',(0.,1.,0.));
#451=DIRECTION('ref_axis',(0.,0.,1.));
#452=DIRECTION($,(1.,0.,0.));
#453=DIRECTION($,(0.,0.,1.));
#454=DIRECTION($,(1.,0.,0.));
#455=DIRECTION('center_axis',(1.,0.,0.));
#456=DIRECTION('ref_axis',(0.,0.,-1.));
#457=DIRECTION($,(0.,-1.,0.));
#458=DIRECTION($,(0.,-1.,0.));
#459=DIRECTION('center_axis',(-1.26217744835362E-30,-1.00314849440045E-30,
1.));
#460=DIRECTION('ref_axis',(1.,0.,0.));
#461=DIRECTION('center_axis',(-1.26217744835362E-30,-1.00314849440045E-30,
1.));
#462=DIRECTION('ref_axis',(1.,0.,0.));
#463=DIRECTION('center_axis',(-5.55111512312578E-17,-1.,0.));
#464=DIRECTION('ref_axis',(0.,0.,-1.));
#465=DIRECTION($,(-1.,5.55111512312578E-17,0.));
#466=DIRECTION($,(0.,0.,1.));
#467=DIRECTION($,(1.,-5.55111512312578E-17,0.));
#468=DIRECTION($,(0.,0.,1.));
#469=DIRECTION('center_axis',(-1.,0.,0.));
#470=DIRECTION('ref_axis',(0.,0.,1.));
#471=DIRECTION($,(0.,1.,0.));
#472=DIRECTION($,(0.,-1.,0.));
#473=DIRECTION($,(0.,0.,1.));
#474=DIRECTION('center_axis',(5.55111512312578E-17,1.,0.));
#475=DIRECTION('ref_axis',(0.,0.,1.));
#476=DIRECTION($,(1.,-5.55111512312578E-17,0.));
#477=DIRECTION($,(-1.,5.55111512312578E-17,0.));
#478=DIRECTION($,(0.,0.,1.));
#479=DIRECTION('center_axis',(1.,0.,0.));
#480=DIRECTION('ref_axis',(0.,0.,-1.));
#481=DIRECTION($,(0.,-1.,0.));
#482=DIRECTION($,(0.,1.,0.));
#483=DIRECTION('center_axis',(-8.88178419700125E-17,-1.,0.));
#484=DIRECTION('ref_axis',(0.,0.,-1.));
#485=DIRECTION($,(-1.,8.88178419700125E-17,0.));
#486=DIRECTION($,(0.,0.,1.));
#487=DIRECTION($,(-1.,8.88178419700125E-17,0.));
#488=DIRECTION($,(0.,0.,1.));
#489=DIRECTION('center_axis',(-1.,0.,0.));
#490=DIRECTION('ref_axis',(0.,0.,1.));
#491=DIRECTION($,(0.,1.,0.));
#492=DIRECTION($,(0.,0.,1.));
#493=DIRECTION($,(0.,1.,0.));
#494=DIRECTION('center_axis',(8.88178419700125E-17,1.,0.));
#495=DIRECTION('ref_axis',(0.,0.,1.));
#496=DIRECTION($,(1.,-8.88178419700125E-17,0.));
#497=DIRECTION($,(0.,0.,1.));
#498=DIRECTION($,(1.,-8.88178419700125E-17,0.));
#499=DIRECTION('center_axis',(1.,0.,0.));
#500=DIRECTION('ref_axis',(0.,0.,-1.));
#501=DIRECTION($,(0.,-1.,0.));
#502=DIRECTION($,(0.,-1.,0.));
#503=DIRECTION('center_axis',(0.,0.,1.));
#504=DIRECTION('ref_axis',(1.,0.,0.));
#505=DIRECTION('center_axis',(0.,0.,1.));
#506=DIRECTION('ref_axis',(1.,0.,0.));
#507=CARTESIAN_POINT('',(0.,0.,0.));
#508=CARTESIAN_POINT('Origin',(3.42,-0.9,5.));
#509=CARTESIAN_POINT('',(3.42,-0.9,5.7));
#510=CARTESIAN_POINT('',(-0.88,-0.9,5.7));
#511=CARTESIAN_POINT($,(3.42,-0.9,5.7));
#512=CARTESIAN_POINT('',(-0.88,-0.9,5.));
#513=CARTESIAN_POINT($,(-0.88,-0.9,5.));
#514=CARTESIAN_POINT('',(3.42,-0.9,5.));
#515=CARTESIAN_POINT($,(3.42,-0.9,5.));
#516=CARTESIAN_POINT($,(3.42,-0.9,5.));
#517=CARTESIAN_POINT('Origin',(-0.88,-0.9,5.));
#518=CARTESIAN_POINT('',(-0.88,0.900000000000001,5.7));
#519=CARTESIAN_POINT($,(-0.88,-0.9,5.7));
#520=CARTESIAN_POINT('',(-0.88,0.900000000000001,5.));
#521=CARTESIAN_POINT($,(-0.88,0.900000000000001,5.));
#522=CARTESIAN_POINT($,(-0.88,-0.9,5.));
#523=CARTESIAN_POINT('Origin',(-0.88,0.900000000000001,5.));
#524=CARTESIAN_POINT('',(3.42,0.9,5.7));
#525=CARTESIAN_POINT($,(-0.88,0.900000000000001,5.7));
#526=CARTESIAN_POINT('',(3.42,0.9,5.));
#527=CARTESIAN_POINT($,(3.42,0.9,5.));
#528=CARTESIAN_POINT($,(-0.88,0.900000000000001,5.));
#529=CARTESIAN_POINT('Origin',(3.42,0.9,5.));
#530=CARTESIAN_POINT($,(3.42,0.9,5.7));
#531=CARTESIAN_POINT($,(3.42,0.9,5.));
#532=CARTESIAN_POINT('Origin',(1.27,-4.44089209850063E-16,5.7));
#533=CARTESIAN_POINT('Origin',(1.27,-4.44089209850063E-16,5.));
#534=CARTESIAN_POINT('Origin',(3.77,-1.25,5.7));
#535=CARTESIAN_POINT('',(3.77,-1.25,6.5));
#536=CARTESIAN_POINT('',(-1.23,-1.25,6.5));
#537=CARTESIAN_POINT($,(3.77,-1.25,6.5));
#538=CARTESIAN_POINT('',(-1.23,-1.25,5.7));
#539=CARTESIAN_POINT($,(-1.23,-1.25,5.7));
#540=CARTESIAN_POINT('',(3.77,-1.25,5.7));
#541=CARTESIAN_POINT($,(3.77,-1.25,5.7));
#542=CARTESIAN_POINT($,(3.77,-1.25,5.7));
#543=CARTESIAN_POINT('Origin',(-1.23,-1.25,5.7));
#544=CARTESIAN_POINT('',(-1.23,1.25,6.5));
#545=CARTESIAN_POINT($,(-1.23,-1.25,6.5));
#546=CARTESIAN_POINT('',(-1.23,1.25,5.7));
#547=CARTESIAN_POINT($,(-1.23,1.25,5.7));
#548=CARTESIAN_POINT($,(-1.23,-1.25,5.7));
#549=CARTESIAN_POINT('Origin',(-1.23,1.25,5.7));
#550=CARTESIAN_POINT('',(3.77,1.25,6.5));
#551=CARTESIAN_POINT($,(-1.23,1.25,6.5));
#552=CARTESIAN_POINT('',(3.77,1.25,5.7));
#553=CARTESIAN_POINT($,(3.77,1.25,5.7));
#554=CARTESIAN_POINT($,(-1.23,1.25,5.7));
#555=CARTESIAN_POINT('Origin',(3.77,1.25,5.7));
#556=CARTESIAN_POINT($,(3.77,1.25,6.5));
#557=CARTESIAN_POINT($,(3.77,1.25,5.7));
#558=CARTESIAN_POINT('Origin',(1.27,1.33226762955019E-15,6.5));
#559=CARTESIAN_POINT('Origin',(1.27,1.33226762955019E-15,5.7));
#560=CARTESIAN_POINT('Origin',(3.27,-0.75,0.));
#561=CARTESIAN_POINT('',(3.27,-0.75,5.));
#562=CARTESIAN_POINT('',(-0.73,-0.75,5.));
#563=CARTESIAN_POINT($,(2.27,-0.75,5.));
#564=CARTESIAN_POINT('',(3.27,-0.75,0.));
#565=CARTESIAN_POINT($,(3.27,-0.75,0.));
#566=CARTESIAN_POINT('',(-0.73,-0.75,0.));
#567=CARTESIAN_POINT($,(2.27,-0.75,0.));
#568=CARTESIAN_POINT($,(-0.73,-0.75,0.));
#569=CARTESIAN_POINT('Origin',(-0.73,-0.75,0.));
#570=CARTESIAN_POINT('',(-0.73,0.75,5.));
#571=CARTESIAN_POINT($,(-0.73,-0.375,5.));
#572=CARTESIAN_POINT('',(-0.73,0.75,0.));
#573=CARTESIAN_POINT($,(-0.73,-0.375,0.));
#574=CARTESIAN_POINT($,(-0.73,0.75,0.));
#575=CARTESIAN_POINT('Origin',(-0.73,0.75,0.));
#576=CARTESIAN_POINT('',(3.27,0.75,5.));
#577=CARTESIAN_POINT($,(0.27,0.75,5.));
#578=CARTESIAN_POINT('',(3.27,0.75,0.));
#579=CARTESIAN_POINT($,(0.27,0.75,0.));
#580=CARTESIAN_POINT($,(3.27,0.75,0.));
#581=CARTESIAN_POINT('Origin',(3.27,0.75,0.));
#582=CARTESIAN_POINT($,(3.27,0.375,5.));
#583=CARTESIAN_POINT($,(3.27,0.375,0.));
#584=CARTESIAN_POINT('Origin',(3.77,-1.25,0.));
#585=CARTESIAN_POINT('',(3.77,-1.25,5.));
#586=CARTESIAN_POINT('',(-1.23,-1.25,5.));
#587=CARTESIAN_POINT($,(3.77,-1.25,5.));
#588=CARTESIAN_POINT('',(-1.23,-1.25,0.));
#589=CARTESIAN_POINT($,(-1.23,-1.25,0.));
#590=CARTESIAN_POINT('',(3.77,-1.25,0.));
#591=CARTESIAN_POINT($,(3.77,-1.25,0.));
#592=CARTESIAN_POINT($,(3.77,-1.25,0.));
#593=CARTESIAN_POINT('Origin',(-1.23,-1.25,0.));
#594=CARTESIAN_POINT('',(-1.23,1.25,5.));
#595=CARTESIAN_POINT($,(-1.23,-1.25,5.));
#596=CARTESIAN_POINT('',(-1.23,1.25,0.));
#597=CARTESIAN_POINT($,(-1.23,1.25,0.));
#598=CARTESIAN_POINT($,(-1.23,-1.25,0.));
#599=CARTESIAN_POINT('Origin',(-1.23,1.25,0.));
#600=CARTESIAN_POINT('',(3.77,1.25,5.));
#601=CARTESIAN_POINT($,(-1.23,1.25,5.));
#602=CARTESIAN_POINT('',(3.77,1.25,0.));
#603=CARTESIAN_POINT($,(3.77,1.25,0.));
#604=CARTESIAN_POINT($,(-1.23,1.25,0.));
#605=CARTESIAN_POINT('Origin',(3.77,1.25,0.));
#606=CARTESIAN_POINT($,(3.77,1.25,5.));
#607=CARTESIAN_POINT($,(3.77,1.25,0.));
#608=CARTESIAN_POINT('Origin',(1.27,0.,5.));
#609=CARTESIAN_POINT('Origin',(1.27,0.,0.));
#610=UNCERTAINTY_MEASURE_WITH_UNIT(LENGTH_MEASURE(0.01),#614,
'DISTANCE_ACCURACY_VALUE',
'Maximum model space distance between geometric entities at asserted c
onnectivities');
#611=UNCERTAINTY_MEASURE_WITH_UNIT(LENGTH_MEASURE(1.E-6),#614,
'DISTANCE_ACCURACY_VALUE',
'Maximum model space distance between geometric entities at asserted c
onnectivities');
#612=(
GEOMETRIC_REPRESENTATION_CONTEXT(3)
GLOBAL_UNCERTAINTY_ASSIGNED_CONTEXT((#610))
GLOBAL_UNIT_ASSIGNED_CONTEXT((#614,#616,#615))
REPRESENTATION_CONTEXT('','3D')
);
#613=(
GEOMETRIC_REPRESENTATION_CONTEXT(3)
GLOBAL_UNCERTAINTY_ASSIGNED_CONTEXT((#611))
GLOBAL_UNIT_ASSIGNED_CONTEXT((#614,#12,#615))
REPRESENTATION_CONTEXT('','3D')
);
#614=(
LENGTH_UNIT()
NAMED_UNIT(*)
SI_UNIT(.MILLI.,.METRE.)
);
#615=(
NAMED_UNIT(*)
SI_UNIT($,.STERADIAN.)
SOLID_ANGLE_UNIT()
);
#616=(
NAMED_UNIT(*)
PLANE_ANGLE_UNIT()
SI_UNIT($,.RADIAN.)
);
#617=SHAPE_DEFINITION_REPRESENTATION(#618,#619);
#618=PRODUCT_DEFINITION_SHAPE('',$,#621);
#619=SHAPE_REPRESENTATION('',(#390),#612);
#620=PRODUCT_DEFINITION_CONTEXT('part definition',#625,'design');
#621=PRODUCT_DEFINITION('Product','Product',#622,#620);
#622=PRODUCT_DEFINITION_FORMATION('',$,#627);
#623=PRODUCT_RELATED_PRODUCT_CATEGORY('Product','Product',(#627));
#624=APPLICATION_PROTOCOL_DEFINITION('international standard',
'automotive_design',2009,#625);
#625=APPLICATION_CONTEXT(
'Core Data for Automotive Mechanical Design Process');
#626=PRODUCT_CONTEXT('part definition',#625,'mechanical');
#627=PRODUCT('Product','Product',$,(#626));
#628=PRESENTATION_STYLE_ASSIGNMENT((#630));
#629=PRESENTATION_STYLE_ASSIGNMENT((#631));
#630=SURFACE_STYLE_USAGE(.BOTH.,#632);
#631=SURFACE_STYLE_USAGE(.BOTH.,#633);
#632=SURFACE_SIDE_STYLE($,(#634));
#633=SURFACE_SIDE_STYLE($,(#635));
#634=SURFACE_STYLE_FILL_AREA(#636);
#635=SURFACE_STYLE_FILL_AREA(#637);
#636=FILL_AREA_STYLE($,(#638));
#637=FILL_AREA_STYLE($,(#639));
#638=FILL_AREA_STYLE_COLOUR($,#640);
#639=FILL_AREA_STYLE_COLOUR($,#641);
#640=COLOUR_RGB('',1.,1.,1.);
#641=COLOUR_RGB('',0.,0.749019607843137,1.);
ENDSEC;
END-ISO-10303-21;
