ISO-10303-21;
HEADER;
/****************************************************************
 * Generated by software with PDE/Lib inside                    *
 * PDE/Lib Version 3.2.2, created Thu Mar 23, 2000 at 18:38:49  *
 * International Technegroup Inc. (www.iti-oh.com)              *
 ****************************************************************/
FILE_DESCRIPTION((''),'2;1');
FILE_NAME('THERM_VISHAY_2381 640 5XXXX.stp','2009-12-17T16:52:56',(''),(''),'Mechanical Desktop 2006','Mechanical Desktop 2006',', , ');
FILE_SCHEMA(('AUTOMOTIVE_DESIGN { 1 2 10303 214 0 1 1 1 }'));
ENDSEC;
DATA;
#8=(NAMED_UNIT(*)PLANE_ANGLE_UNIT()SI_UNIT($,.RADIAN.));
#9=DIMENSIONAL_EXPONENTS(0.0,0.0,0.0,0.0,0.0,0.0,0.0);
#10=PLANE_ANGLE_MEASURE_WITH_UNIT(PLANE_ANGLE_MEASURE(0.017453292500000),#8);
#14=(CONVERSION_BASED_UNIT('DEGREE',#10)NAMED_UNIT(#9)PLANE_ANGLE_UNIT());
#18=(NAMED_UNIT(*)SI_UNIT($,.STERADIAN.)SOLID_ANGLE_UNIT());
#22=(LENGTH_UNIT()NAMED_UNIT(*)SI_UNIT(.MILLI.,.METRE.));
#23=UNCERTAINTY_MEASURE_WITH_UNIT(LENGTH_MEASURE(0.000001000000000),#22,'DISTANCE_ACCURACY_VALUE','');
#28=(GEOMETRIC_REPRESENTATION_CONTEXT(3)GLOBAL_UNCERTAINTY_ASSIGNED_CONTEXT((#23))GLOBAL_UNIT_ASSIGNED_CONTEXT((#14,#18,#22))REPRESENTATION_CONTEXT('None','None'));
#29=APPLICATION_CONTEXT('automotive design');
#30=APPLICATION_PROTOCOL_DEFINITION('DRAFT_INTERNATIONAL_STANDARD','automotive_design',1998,#29);
#31=PRODUCT_CONTEXT('3D Mechanical Parts',#29,'mechanical');
#32=PRODUCT('Product','Product','',(#31));
#33=PRODUCT_RELATED_PRODUCT_CATEGORY('part',$,(#32));
#34=PRODUCT_CATEGORY('part',$);
#35=PERSON('1','Design','Joe',$,$,$);
#36=ORGANIZATION($,'None','None');
#37=PERSON_AND_ORGANIZATION(#35,#36);
#38=PERSON_AND_ORGANIZATION_ROLE('design_owner');
#39=APPLIED_PERSON_AND_ORGANIZATION_ASSIGNMENT(#37,#38,(#32));
#40=PRODUCT_DEFINITION_FORMATION_WITH_SPECIFIED_SOURCE('None','',#32,.BOUGHT.);
#41=PERSON('2','Creator','Joe',$,$,$);
#42=ORGANIZATION($,'None','None');
#43=PERSON_AND_ORGANIZATION(#41,#42);
#44=PERSON_AND_ORGANIZATION_ROLE('creator');
#45=APPLIED_PERSON_AND_ORGANIZATION_ASSIGNMENT(#43,#44,(#40));
#46=PERSON('3','Supplier','Joe',$,$,$);
#47=ORGANIZATION($,'None','None');
#48=PERSON_AND_ORGANIZATION(#46,#47);
#49=PERSON_AND_ORGANIZATION_ROLE('design_supplier');
#50=APPLIED_PERSON_AND_ORGANIZATION_ASSIGNMENT(#48,#49,(#40));
#51=PRODUCT_DEFINITION_CONTEXT('part definition',#29,'design');
#52=PRODUCT_DEFINITION('None','',#40,#51);
#53=PERSON('4','Creator','Joe',$,$,$);
#54=ORGANIZATION($,'None','None');
#55=PERSON_AND_ORGANIZATION(#53,#54);
#56=PERSON_AND_ORGANIZATION_ROLE('creator');
#57=APPLIED_PERSON_AND_ORGANIZATION_ASSIGNMENT(#55,#56,(#52));
#58=CARTESIAN_POINT('NONE',(0.0,0.0,0.0));
#59=DIRECTION('NONE',(0.0,0.0,1.0));
#60=DIRECTION('NONE',(1.0,0.0,0.0));
#61=AXIS2_PLACEMENT_3D('NONE',#58,#59,#60);
#62=SHAPE_REPRESENTATION('SR1',(#61),#28);
#63=PRODUCT_DEFINITION_SHAPE('PDS1','Test Part',#52);
#64=SHAPE_DEFINITION_REPRESENTATION(#63,#62);
#65=CARTESIAN_POINT('',(0.869999999999996,3.656062E-014,3.0));
#66=CARTESIAN_POINT('',(1.069999999999997,3.569693E-014,1.000000000000000));
#67=CARTESIAN_POINT('',(0.869999999999996,-0.399999999999963,3.0));
#68=CARTESIAN_POINT('',(1.069999999999997,-0.199999999999964,1.0));
#69=CARTESIAN_POINT('',(1.269999999999996,-0.399999999999963,3.0));
#70=CARTESIAN_POINT('',(1.269999999999996,-0.199999999999964,1.0));
#71=CARTESIAN_POINT('',(1.669999999999996,-0.399999999999963,3.0));
#72=CARTESIAN_POINT('',(1.469999999999996,-0.199999999999964,1.0));
#73=CARTESIAN_POINT('',(1.669999999999996,3.665859E-014,3.0));
#74=CARTESIAN_POINT('',(1.469999999999996,3.574592E-014,1.000000000000000));
#75=CARTESIAN_POINT('',(1.669999999999996,0.400000000000036,3.0));
#76=CARTESIAN_POINT('',(1.469999999999996,0.200000000000035,1.000000000000000));
#77=CARTESIAN_POINT('',(1.269999999999996,0.400000000000037,3.0));
#78=CARTESIAN_POINT('',(1.269999999999996,0.200000000000035,1.000000000000000));
#79=CARTESIAN_POINT('',(0.869999999999996,0.400000000000036,3.0));
#80=CARTESIAN_POINT('',(1.069999999999997,0.200000000000035,1.000000000000000));
#81=CARTESIAN_POINT('',(0.869999999999996,3.656062E-014,3.0));
#82=CARTESIAN_POINT('',(1.069999999999997,3.569693E-014,1.000000000000000));
#90=(BOUNDED_SURFACE()B_SPLINE_SURFACE(1,2,((#65,#67,#69,#71,#73,#75,#77,#79,#81),(#66,#68,#70,#72,#74,#76,#78,#80,#82)),.UNSPECIFIED.,.F.,.T.,.U.)B_SPLINE_SURFACE_WITH_KNOTS((2,2),(3,2,2,2,3),(-6.029925372672532,2.009975124224182),(0.0,0.392699081698724,0.785398163397448,1.178097245096172,1.570796326794897),.UNSPECIFIED.)GEOMETRIC_REPRESENTATION_ITEM()RATIONAL_B_SPLINE_SURFACE(((1.0,0.707106781186548,1.0,0.707106781186548,1.0,0.707106781186548,1.0,0.707106781186548,1.0),(1.0,0.707106781186548,1.0,0.707106781186548,1.0,0.707106781186548,1.0,0.707106781186548,1.0)))REPRESENTATION_ITEM('')SURFACE());
#91=CARTESIAN_POINT('',(1.669999999999996,3.656062E-014,3.0));
#92=VERTEX_POINT('',#91);
#93=CARTESIAN_POINT('',(1.469999999999996,3.569693E-014,1.000000000000001));
#94=VERTEX_POINT('',#93);
#95=CARTESIAN_POINT('',(1.669999999999996,3.656062E-014,3.0));
#96=DIRECTION('',(-0.099503719020999,-4.297000E-016,-0.995037190209989));
#97=VECTOR('',#96,2.009975124224177);
#98=LINE('',#95,#97);
#99=EDGE_CURVE('',#92,#94,#98,.T.);
#100=ORIENTED_EDGE('',*,*,#99,.F.);
#101=CARTESIAN_POINT('',(1.407106781186548,-0.375768187254636,3.000000000000000));
#102=VERTEX_POINT('',#101);
#103=CARTESIAN_POINT('',(1.269999999999996,3.660960E-014,3.0));
#104=DIRECTION('',(0.0,0.0,1.0));
#105=DIRECTION('',(1.0,0.0,0.0));
#106=AXIS2_PLACEMENT_3D('',#103,#104,#105);
#107=CIRCLE('',#106,0.400000000000000);
#108=EDGE_CURVE('',#102,#92,#107,.T.);
#109=ORIENTED_EDGE('',*,*,#108,.F.);
#110=CARTESIAN_POINT('',(0.869999999999996,3.665859E-014,3.0));
#111=VERTEX_POINT('',#110);
#112=CARTESIAN_POINT('',(1.269999999999996,3.660960E-014,3.0));
#113=DIRECTION('',(0.0,0.0,1.0));
#114=DIRECTION('',(1.0,0.0,0.0));
#115=AXIS2_PLACEMENT_3D('',#112,#113,#114);
#116=CIRCLE('',#115,0.400000000000000);
#117=EDGE_CURVE('',#111,#102,#116,.T.);
#118=ORIENTED_EDGE('',*,*,#117,.F.);
#119=CARTESIAN_POINT('',(1.069999999999996,3.638756E-014,1.0));
#120=VERTEX_POINT('',#119);
#121=CARTESIAN_POINT('',(1.069999999999996,3.638756E-014,1.0));
#122=DIRECTION('',(-0.099503719020999,1.348419E-016,0.995037190209989));
#123=VECTOR('',#122,2.009975124224178);
#124=LINE('',#121,#123);
#125=EDGE_CURVE('',#120,#111,#124,.T.);
#126=ORIENTED_EDGE('',*,*,#125,.F.);
#127=CARTESIAN_POINT('',(1.269999999999996,3.638756E-014,1.000000000000001));
#128=DIRECTION('',(0.0,0.0,-1.0));
#129=DIRECTION('',(-1.0,0.0,0.0));
#130=AXIS2_PLACEMENT_3D('',#127,#128,#129);
#131=CIRCLE('',#130,0.200000000000000);
#132=EDGE_CURVE('',#94,#120,#131,.T.);
#133=ORIENTED_EDGE('',*,*,#132,.F.);
#134=EDGE_LOOP('',(#100,#109,#118,#126,#133));
#135=FACE_OUTER_BOUND('',#134,.T.);
#136=ADVANCED_FACE('',(#135),#90,.T.);
#137=CARTESIAN_POINT('',(1.469999999999996,0.200000000000036,1.0));
#138=CARTESIAN_POINT('',(1.069999999999996,0.200000000000036,1.0));
#139=CARTESIAN_POINT('',(1.469999999999996,-0.199999999999964,1.0));
#140=CARTESIAN_POINT('',(1.069999999999996,-0.199999999999964,1.0));
#141=B_SPLINE_SURFACE_WITH_KNOTS('',1,1,((#137,#139),(#138,#140)),.UNSPECIFIED.,.F.,.F.,.U.,(2,2),(2,2),(0.0,0.400000000000000),(0.0,0.400000000000000),.UNSPECIFIED.);
#142=CARTESIAN_POINT('',(1.269999999999996,3.638756E-014,1.000000000000001));
#143=DIRECTION('',(0.0,0.0,-1.0));
#144=DIRECTION('',(-1.0,0.0,0.0));
#145=AXIS2_PLACEMENT_3D('',#142,#143,#144);
#146=CIRCLE('',#145,0.200000000000000);
#147=EDGE_CURVE('',#120,#94,#146,.T.);
#148=ORIENTED_EDGE('',*,*,#147,.T.);
#149=ORIENTED_EDGE('',*,*,#132,.T.);
#150=EDGE_LOOP('',(#148,#149));
#151=FACE_OUTER_BOUND('',#150,.T.);
#152=ADVANCED_FACE('',(#151),#141,.F.);
#153=CARTESIAN_POINT('',(0.869999999999996,3.656062E-014,3.0));
#154=CARTESIAN_POINT('',(1.069999999999997,3.569693E-014,1.0));
#155=CARTESIAN_POINT('',(0.869999999999996,-0.399999999999963,3.0));
#156=CARTESIAN_POINT('',(1.069999999999997,-0.199999999999964,1.0));
#157=CARTESIAN_POINT('',(1.269999999999996,-0.399999999999963,3.0));
#158=CARTESIAN_POINT('',(1.269999999999996,-0.199999999999964,1.0));
#159=CARTESIAN_POINT('',(1.669999999999996,-0.399999999999963,3.0));
#160=CARTESIAN_POINT('',(1.469999999999996,-0.199999999999964,1.0));
#161=CARTESIAN_POINT('',(1.669999999999996,3.665859E-014,3.0));
#162=CARTESIAN_POINT('',(1.469999999999996,3.574592E-014,1.0));
#163=CARTESIAN_POINT('',(1.669999999999996,0.400000000000036,3.0));
#164=CARTESIAN_POINT('',(1.469999999999996,0.200000000000035,1.000000000000000));
#165=CARTESIAN_POINT('',(1.269999999999996,0.400000000000037,3.0));
#166=CARTESIAN_POINT('',(1.269999999999996,0.200000000000035,1.000000000000000));
#167=CARTESIAN_POINT('',(0.869999999999996,0.400000000000036,3.0));
#168=CARTESIAN_POINT('',(1.069999999999997,0.200000000000035,1.000000000000000));
#169=CARTESIAN_POINT('',(0.869999999999996,3.656062E-014,3.0));
#170=CARTESIAN_POINT('',(1.069999999999997,3.569693E-014,1.0));
#178=(BOUNDED_SURFACE()B_SPLINE_SURFACE(1,2,((#153,#155,#157,#159,#161,#163,#165,#167,#169),(#154,#156,#158,#160,#162,#164,#166,#168,#170)),.UNSPECIFIED.,.F.,.T.,.U.)B_SPLINE_SURFACE_WITH_KNOTS((2,2),(3,2,2,2,3),(-6.029925372672532,2.009975124224182),(0.0,0.392699081698724,0.785398163397448,1.178097245096172,1.570796326794897),.UNSPECIFIED.)GEOMETRIC_REPRESENTATION_ITEM()RATIONAL_B_SPLINE_SURFACE(((1.0,0.707106781186548,1.0,0.707106781186548,1.0,0.707106781186548,1.0,0.707106781186548,1.0),(1.0,0.707106781186548,1.0,0.707106781186548,1.0,0.707106781186548,1.0,0.707106781186548,1.0)))REPRESENTATION_ITEM('')SURFACE());
#179=ORIENTED_EDGE('',*,*,#99,.T.);
#180=ORIENTED_EDGE('',*,*,#147,.F.);
#181=ORIENTED_EDGE('',*,*,#125,.T.);
#182=CARTESIAN_POINT('',(1.269999999999996,3.660960E-014,3.0));
#183=DIRECTION('',(0.0,0.0,1.0));
#184=DIRECTION('',(1.0,0.0,0.0));
#185=AXIS2_PLACEMENT_3D('',#182,#183,#184);
#186=CIRCLE('',#185,0.400000000000000);
#187=EDGE_CURVE('',#92,#111,#186,.T.);
#188=ORIENTED_EDGE('',*,*,#187,.F.);
#189=EDGE_LOOP('',(#179,#180,#181,#188));
#190=FACE_OUTER_BOUND('',#189,.T.);
#191=ADVANCED_FACE('',(#190),#178,.T.);
#192=CARTESIAN_POINT('',(1.669999999999996,0.400000000000037,3.0));
#193=CARTESIAN_POINT('',(0.869999999999996,0.400000000000037,3.0));
#194=CARTESIAN_POINT('',(1.669999999999996,-0.399999999999963,3.0));
#195=CARTESIAN_POINT('',(0.869999999999996,-0.399999999999963,3.0));
#196=B_SPLINE_SURFACE_WITH_KNOTS('',1,1,((#192,#194),(#193,#195)),.UNSPECIFIED.,.F.,.F.,.U.,(2,2),(2,2),(0.0,0.800000000000000),(0.0,0.800000000000000),.UNSPECIFIED.);
#197=ORIENTED_EDGE('',*,*,#108,.T.);
#198=ORIENTED_EDGE('',*,*,#187,.T.);
#199=ORIENTED_EDGE('',*,*,#117,.T.);
#200=EDGE_LOOP('',(#197,#198,#199));
#201=FACE_OUTER_BOUND('',#200,.T.);
#202=ADVANCED_FACE('',(#201),#196,.T.);
#203=CLOSED_SHELL('',(#136,#152,#191,#202));
#204=MANIFOLD_SOLID_BREP('4DD',#203);
#205=COLOUR_RGB('251',0.464000000000000,0.464000000000000,0.464000000000000);
#206=SURFACE_STYLE_USAGE(.BOTH.,#207);
#207=SURFACE_SIDE_STYLE('NONE',(#208));
#208=SURFACE_STYLE_FILL_AREA(#209);
#209=FILL_AREA_STYLE('NONE',(#210));
#210=FILL_AREA_STYLE_COLOUR('NONE',#205);
#211=PRESENTATION_STYLE_ASSIGNMENT((#206));
#212=STYLED_ITEM('NONE',(#211),#204);
#213=MECHANICAL_DESIGN_GEOMETRIC_PRESENTATION_REPRESENTATION('NONE',(#212,#313,#1361,#1457,#1546),#28);
#214=PRESENTATION_LAYER_ASSIGNMENT('3D','None',(#204,#312,#1360,#1449,#1545));
#215=CARTESIAN_POINT('',(-1.269999999999996,3.594347E-014,1.500000000000001));
#216=DIRECTION('',(1.224606E-016,4.440892E-016,1.0));
#217=DIRECTION('',(-1.0,0.0,0.0));
#218=AXIS2_PLACEMENT_3D('',#215,#216,#217);
#219=CONICAL_SURFACE('',#218,0.250000000000000,5.710593137499646);
#220=CARTESIAN_POINT('',(-1.669999999999996,3.656062E-014,3.0));
#221=VERTEX_POINT('',#220);
#222=CARTESIAN_POINT('',(-1.469999999999996,3.569693E-014,1.000000000000001));
#223=VERTEX_POINT('',#222);
#224=CARTESIAN_POINT('',(-1.669999999999996,3.656062E-014,3.0));
#225=DIRECTION('',(0.099503719020999,-4.297000E-016,-0.995037190209989));
#226=VECTOR('',#225,2.009975124224177);
#227=LINE('',#224,#226);
#228=EDGE_CURVE('',#221,#223,#227,.T.);
#229=ORIENTED_EDGE('',*,*,#228,.F.);
#230=CARTESIAN_POINT('',(-0.869999999999996,3.665859E-014,3.0));
#231=VERTEX_POINT('',#230);
#232=CARTESIAN_POINT('',(-1.269999999999996,3.660960E-014,3.0));
#233=DIRECTION('',(0.0,0.0,-1.0));
#234=DIRECTION('',(-1.0,0.0,0.0));
#235=AXIS2_PLACEMENT_3D('',#232,#233,#234);
#236=CIRCLE('',#235,0.400000000000000);
#237=EDGE_CURVE('',#221,#231,#236,.T.);
#238=ORIENTED_EDGE('',*,*,#237,.T.);
#239=CARTESIAN_POINT('',(-1.069999999999996,3.638756E-014,1.0));
#240=VERTEX_POINT('',#239);
#241=CARTESIAN_POINT('',(-1.069999999999996,3.638756E-014,1.0));
#242=DIRECTION('',(0.099503719020999,1.348419E-016,0.995037190209989));
#243=VECTOR('',#242,2.009975124224178);
#244=LINE('',#241,#243);
#245=EDGE_CURVE('',#240,#231,#244,.T.);
#246=ORIENTED_EDGE('',*,*,#245,.F.);
#247=CARTESIAN_POINT('',(-1.269999999999996,3.638756E-014,1.000000000000001));
#248=DIRECTION('',(0.0,0.0,1.0));
#249=DIRECTION('',(1.0,0.0,0.0));
#250=AXIS2_PLACEMENT_3D('',#247,#248,#249);
#251=CIRCLE('',#250,0.200000000000000);
#252=EDGE_CURVE('',#240,#223,#251,.T.);
#253=ORIENTED_EDGE('',*,*,#252,.T.);
#254=EDGE_LOOP('',(#229,#238,#246,#253));
#255=FACE_OUTER_BOUND('',#254,.T.);
#256=ADVANCED_FACE('',(#255),#219,.T.);
#257=CARTESIAN_POINT('',(-1.269999999999996,3.638756E-014,1.0));
#258=DIRECTION('',(0.0,0.0,1.0));
#259=DIRECTION('',(1.0,0.0,0.0));
#260=AXIS2_PLACEMENT_3D('',#257,#258,#259);
#261=PLANE('',#260);
#262=ORIENTED_EDGE('',*,*,#252,.F.);
#263=CARTESIAN_POINT('',(-1.269999999999996,3.638756E-014,1.000000000000001));
#264=DIRECTION('',(0.0,0.0,1.0));
#265=DIRECTION('',(1.0,0.0,0.0));
#266=AXIS2_PLACEMENT_3D('',#263,#264,#265);
#267=CIRCLE('',#266,0.200000000000000);
#268=EDGE_CURVE('',#223,#240,#267,.T.);
#269=ORIENTED_EDGE('',*,*,#268,.F.);
#270=EDGE_LOOP('',(#262,#269));
#271=FACE_OUTER_BOUND('',#270,.T.);
#272=ADVANCED_FACE('',(#271),#261,.F.);
#273=CARTESIAN_POINT('',(-1.269999999999996,3.594347E-014,1.500000000000001));
#274=DIRECTION('',(1.224606E-016,4.440892E-016,1.0));
#275=DIRECTION('',(-1.0,0.0,0.0));
#276=AXIS2_PLACEMENT_3D('',#273,#274,#275);
#277=CONICAL_SURFACE('',#276,0.250000000000000,5.710593137499646);
#278=ORIENTED_EDGE('',*,*,#228,.T.);
#279=ORIENTED_EDGE('',*,*,#268,.T.);
#280=ORIENTED_EDGE('',*,*,#245,.T.);
#281=CARTESIAN_POINT('',(-1.407106781186548,-0.375768187254636,3.000000000000000));
#282=VERTEX_POINT('',#281);
#283=CARTESIAN_POINT('',(-1.269999999999996,3.660960E-014,3.0));
#284=DIRECTION('',(0.0,0.0,-1.0));
#285=DIRECTION('',(-1.0,0.0,0.0));
#286=AXIS2_PLACEMENT_3D('',#283,#284,#285);
#287=CIRCLE('',#286,0.400000000000000);
#288=EDGE_CURVE('',#231,#282,#287,.T.);
#289=ORIENTED_EDGE('',*,*,#288,.T.);
#290=CARTESIAN_POINT('',(-1.269999999999996,3.660960E-014,3.0));
#291=DIRECTION('',(0.0,0.0,-1.0));
#292=DIRECTION('',(-1.0,0.0,0.0));
#293=AXIS2_PLACEMENT_3D('',#290,#291,#292);
#294=CIRCLE('',#293,0.400000000000000);
#295=EDGE_CURVE('',#282,#221,#294,.T.);
#296=ORIENTED_EDGE('',*,*,#295,.T.);
#297=EDGE_LOOP('',(#278,#279,#280,#289,#296));
#298=FACE_OUTER_BOUND('',#297,.T.);
#299=ADVANCED_FACE('',(#298),#277,.T.);
#300=CARTESIAN_POINT('',(-1.110223E-016,1.332268E-015,3.0));
#301=DIRECTION('',(0.0,0.0,1.0));
#302=DIRECTION('',(1.0,0.0,0.0));
#303=AXIS2_PLACEMENT_3D('',#300,#301,#302);
#304=PLANE('',#303);
#305=ORIENTED_EDGE('',*,*,#295,.F.);
#306=ORIENTED_EDGE('',*,*,#288,.F.);
#307=ORIENTED_EDGE('',*,*,#237,.F.);
#308=EDGE_LOOP('',(#305,#306,#307));
#309=FACE_OUTER_BOUND('',#308,.T.);
#310=ADVANCED_FACE('',(#309),#304,.T.);
#311=CLOSED_SHELL('',(#256,#272,#299,#310));
#312=MANIFOLD_SOLID_BREP('4D3',#311);
#313=STYLED_ITEM('NONE',(#211),#312);
#314=CARTESIAN_POINT('',(0.0,1.500000000000002,7.300000000000003));
#315=DIRECTION('',(0.0,-1.0,2.220446E-016));
#316=DIRECTION('',(0.0,0.0,1.0));
#317=AXIS2_PLACEMENT_3D('',#314,#315,#316);
#318=CYLINDRICAL_SURFACE('',#317,1.700000000000000);
#319=CARTESIAN_POINT('',(2.081831E-016,0.500000000000002,9.000000000000004));
#320=VERTEX_POINT('',#319);
#321=CARTESIAN_POINT('',(-2.081831E-016,-0.499999999999997,9.000000000000004));
#322=VERTEX_POINT('',#321);
#323=CARTESIAN_POINT('',(2.081831E-016,0.500000000000002,9.000000000000004));
#324=DIRECTION('',(0.0,-1.0,0.0));
#325=VECTOR('',#324,1.000000000000000);
#326=LINE('',#323,#325);
#327=EDGE_CURVE('',#320,#322,#326,.T.);
#328=ORIENTED_EDGE('',*,*,#327,.F.);
#329=CARTESIAN_POINT('',(-1.700000000000000,0.500000000000002,7.300000000000003));
#330=VERTEX_POINT('',#329);
#331=CARTESIAN_POINT('',(0.0,0.500000000000002,7.300000000000003));
#332=DIRECTION('',(0.0,1.0,0.0));
#333=DIRECTION('',(0.0,0.0,1.0));
#334=AXIS2_PLACEMENT_3D('',#331,#332,#333);
#335=CIRCLE('',#334,1.700000000000000);
#336=EDGE_CURVE('',#330,#320,#335,.T.);
#337=ORIENTED_EDGE('',*,*,#336,.F.);
#338=CARTESIAN_POINT('',(-1.700000000000000,-0.499999999999998,7.300000000000003));
#339=VERTEX_POINT('',#338);
#340=CARTESIAN_POINT('',(-1.700000000000000,0.500000000000002,7.300000000000003));
#341=DIRECTION('',(0.0,-1.0,0.0));
#342=VECTOR('',#341,1.0);
#343=LINE('',#340,#342);
#344=EDGE_CURVE('',#330,#339,#343,.T.);
#345=ORIENTED_EDGE('',*,*,#344,.T.);
#346=CARTESIAN_POINT('',(0.0,-0.499999999999998,7.300000000000003));
#347=DIRECTION('',(0.0,-1.0,0.0));
#348=DIRECTION('',(0.0,0.0,1.0));
#349=AXIS2_PLACEMENT_3D('',#346,#347,#348);
#350=CIRCLE('',#349,1.700000000000000);
#351=EDGE_CURVE('',#322,#339,#350,.T.);
#352=ORIENTED_EDGE('',*,*,#351,.F.);
#353=EDGE_LOOP('',(#328,#337,#345,#352));
#354=FACE_OUTER_BOUND('',#353,.T.);
#355=ADVANCED_FACE('',(#354),#318,.T.);
#356=CARTESIAN_POINT('',(0.0,-1.214142842854283,7.300000000000003));
#357=CARTESIAN_POINT('',(5.811941E-017,-1.679340627573698,6.825403330758518));
#358=CARTESIAN_POINT('',(1.331512E-016,-1.421954445729287,6.212701665379261));
#359=CARTESIAN_POINT('',(2.081831E-016,-1.164568263884876,5.600000000000002));
#360=CARTESIAN_POINT('',(2.081831E-016,-0.499999999999998,5.600000000000002));
#361=CARTESIAN_POINT('',(7.596454E-065,-1.214142842854283,7.300000000000003));
#362=CARTESIAN_POINT('',(0.474596669241484,-1.679340627573698,6.825403330758519));
#363=CARTESIAN_POINT('',(1.087298334620741,-1.421954445729287,6.212701665379261));
#364=CARTESIAN_POINT('',(1.700000000000000,-1.164568263884876,5.600000000000003));
#365=CARTESIAN_POINT('',(1.700000000000000,-0.499999999999998,5.600000000000003));
#366=CARTESIAN_POINT('',(4.886364E-049,-1.214142842854283,7.300000000000003));
#367=CARTESIAN_POINT('',(0.474596669241484,-1.679340627573697,7.300000000000002));
#368=CARTESIAN_POINT('',(1.087298334620741,-1.421954445729287,7.300000000000003));
#369=CARTESIAN_POINT('',(1.700000000000000,-1.164568263884875,7.300000000000003));
#370=CARTESIAN_POINT('',(1.700000000000000,-0.499999999999997,7.300000000000003));
#371=CARTESIAN_POINT('',(9.772727E-049,-1.214142842854283,7.300000000000003));
#372=CARTESIAN_POINT('',(0.474596669241483,-1.679340627573697,7.774596669241487));
#373=CARTESIAN_POINT('',(1.087298334620741,-1.421954445729286,8.387298334620743));
#374=CARTESIAN_POINT('',(1.700000000000000,-1.164568263884875,9.000000000000002));
#375=CARTESIAN_POINT('',(1.699999999999999,-0.499999999999997,9.000000000000002));
#376=CARTESIAN_POINT('',(9.772727E-049,-1.214142842854283,7.300000000000003));
#377=CARTESIAN_POINT('',(-5.811941E-017,-1.679340627573697,7.774596669241485));
#378=CARTESIAN_POINT('',(-1.331512E-016,-1.421954445729286,8.387298334620745));
#379=CARTESIAN_POINT('',(-2.081831E-016,-1.164568263884875,9.000000000000004));
#380=CARTESIAN_POINT('',(-2.081831E-016,-0.499999999999997,9.000000000000004));
#381=CARTESIAN_POINT('',(9.772727E-049,-1.214142842854283,7.300000000000003));
#382=CARTESIAN_POINT('',(-0.474596669241484,-1.679340627573697,7.774596669241487));
#383=CARTESIAN_POINT('',(-1.087298334620741,-1.421954445729286,8.387298334620743));
#384=CARTESIAN_POINT('',(-1.700000000000000,-1.164568263884875,9.000000000000002));
#385=CARTESIAN_POINT('',(-1.700000000000000,-0.499999999999997,9.000000000000002));
#386=CARTESIAN_POINT('',(4.886364E-049,-1.214142842854283,7.300000000000003));
#387=CARTESIAN_POINT('',(-0.474596669241484,-1.679340627573697,7.300000000000002));
#388=CARTESIAN_POINT('',(-1.087298334620741,-1.421954445729287,7.300000000000003));
#389=CARTESIAN_POINT('',(-1.700000000000000,-1.164568263884875,7.300000000000003));
#390=CARTESIAN_POINT('',(-1.700000000000000,-0.499999999999997,7.300000000000003));
#391=CARTESIAN_POINT('',(7.596454E-065,-1.214142842854283,7.300000000000003));
#392=CARTESIAN_POINT('',(-0.474596669241483,-1.679340627573698,6.825403330758519));
#393=CARTESIAN_POINT('',(-1.087298334620741,-1.421954445729287,6.212701665379261));
#394=CARTESIAN_POINT('',(-1.700000000000000,-1.164568263884876,5.600000000000003));
#395=CARTESIAN_POINT('',(-1.699999999999999,-0.499999999999998,5.600000000000003));
#396=CARTESIAN_POINT('',(0.0,-1.214142842854283,7.300000000000003));
#397=CARTESIAN_POINT('',(5.811941E-017,-1.679340627573698,6.825403330758518));
#398=CARTESIAN_POINT('',(1.331512E-016,-1.421954445729287,6.212701665379261));
#399=CARTESIAN_POINT('',(2.081831E-016,-1.164568263884876,5.600000000000002));
#400=CARTESIAN_POINT('',(2.081831E-016,-0.499999999999998,5.600000000000002));
#408=(BOUNDED_SURFACE()B_SPLINE_SURFACE(2,2,((#356,#361,#366,#371,#376,#381,#386,#391,#396),(#357,#362,#367,#372,#377,#382,#387,#392,#397),(#358,#363,#368,#373,#378,#383,#388,#393,#398),(#359,#364,#369,#374,#379,#384,#389,#394,#399),(#360,#365,#370,#375,#380,#385,#390,#395,#400)),.UNSPECIFIED.,.F.,.T.,.U.)B_SPLINE_SURFACE_WITH_KNOTS((3,2,3),(3,2,2,2,3),(-2.346193823405650,-1.173096911702825,4.440892E-016),(0.0,1.570796326794897,3.141592653589793,4.712388980384690,6.283185307179586),.UNSPECIFIED.)GEOMETRIC_REPRESENTATION_ITEM()RATIONAL_B_SPLINE_SURFACE(((1.0,0.707106781186548,1.0,0.707106781186548,1.0,0.707106781186548,1.0,0.707106781186548,1.0),(0.832856030362014,0.588918146821089,0.832856030362014,0.588918146821089,0.832856030362014,0.588918146821089,0.832856030362014,0.588918146821089,0.832856030362014),(1.0,0.707106781186548,1.0,0.707106781186548,1.0,0.707106781186548,1.0,0.707106781186548,1.0),(0.832856030362019,0.588918146821093,0.832856030362019,0.588918146821093,0.832856030362019,0.588918146821093,0.832856030362019,0.588918146821093,0.832856030362019),(1.0,0.707106781186548,1.0,0.707106781186548,1.0,0.707106781186548,1.0,0.707106781186548,1.0)))REPRESENTATION_ITEM('')SURFACE());
#409=CARTESIAN_POINT('',(-8.572244E-017,-1.499999999999998,8.000000000000004));
#410=VERTEX_POINT('',#409);
#411=CARTESIAN_POINT('',(-8.572244E-017,-0.499999999999998,8.000000000000004));
#412=DIRECTION('',(-1.0,0.0,0.0));
#413=DIRECTION('',(0.0,0.0,1.0));
#414=AXIS2_PLACEMENT_3D('',#411,#412,#413);
#415=CIRCLE('',#414,1.0);
#416=EDGE_CURVE('',#410,#322,#415,.T.);
#417=ORIENTED_EDGE('',*,*,#416,.F.);
#418=CARTESIAN_POINT('',(0.700000000000000,-1.499999999999998,7.300000000000003));
#419=VERTEX_POINT('',#418);
#420=CARTESIAN_POINT('',(0.0,-1.499999999999998,7.300000000000003));
#421=DIRECTION('',(0.0,1.0,0.0));
#422=DIRECTION('',(0.0,0.0,1.0));
#423=AXIS2_PLACEMENT_3D('',#420,#421,#422);
#424=CIRCLE('',#423,0.700000000000000);
#425=EDGE_CURVE('',#410,#419,#424,.T.);
#426=ORIENTED_EDGE('',*,*,#425,.T.);
#427=CARTESIAN_POINT('',(1.407106781186548,-1.207106781186545,7.300000000000003));
#428=VERTEX_POINT('',#427);
#429=CARTESIAN_POINT('',(0.700000000000000,-0.499999999999998,7.300000000000003));
#430=DIRECTION('',(0.0,0.0,-1.0));
#431=DIRECTION('',(1.0,0.0,0.0));
#432=AXIS2_PLACEMENT_3D('',#429,#430,#431);
#433=CIRCLE('',#432,1.0);
#434=EDGE_CURVE('',#428,#419,#433,.T.);
#435=ORIENTED_EDGE('',*,*,#434,.F.);
#436=CARTESIAN_POINT('',(1.700000000000000,-0.499999999999998,7.300000000000003));
#437=VERTEX_POINT('',#436);
#438=CARTESIAN_POINT('',(0.700000000000000,-0.499999999999998,7.300000000000003));
#439=DIRECTION('',(0.0,0.0,-1.0));
#440=DIRECTION('',(1.0,0.0,0.0));
#441=AXIS2_PLACEMENT_3D('',#438,#439,#440);
#442=CIRCLE('',#441,1.0);
#443=EDGE_CURVE('',#437,#428,#442,.T.);
#444=ORIENTED_EDGE('',*,*,#443,.F.);
#445=CARTESIAN_POINT('',(0.0,-0.499999999999998,7.300000000000003));
#446=DIRECTION('',(0.0,-1.0,0.0));
#447=DIRECTION('',(0.0,0.0,1.0));
#448=AXIS2_PLACEMENT_3D('',#445,#446,#447);
#449=CIRCLE('',#448,1.700000000000000);
#450=EDGE_CURVE('',#437,#322,#449,.T.);
#451=ORIENTED_EDGE('',*,*,#450,.T.);
#452=EDGE_LOOP('',(#417,#426,#435,#444,#451));
#453=FACE_OUTER_BOUND('',#452,.T.);
#454=ADVANCED_FACE('',(#453),#408,.T.);
#455=CARTESIAN_POINT('',(-8.628166E-032,1.214142842854287,7.300000000000003));
#456=CARTESIAN_POINT('',(5.811941E-017,1.679340627573702,7.774596669241487));
#457=CARTESIAN_POINT('',(1.331512E-016,1.421954445729291,8.387298334620745));
#458=CARTESIAN_POINT('',(2.081831E-016,1.164568263884880,9.000000000000004));
#459=CARTESIAN_POINT('',(2.081831E-016,0.500000000000002,9.000000000000004));
#460=CARTESIAN_POINT('',(8.881784E-016,1.214142842854287,7.300000000000003));
#461=CARTESIAN_POINT('',(0.474596669241484,1.679340627573702,7.774596669241486));
#462=CARTESIAN_POINT('',(1.087298334620742,1.421954445729291,8.387298334620745));
#463=CARTESIAN_POINT('',(1.700000000000001,1.164568263884880,9.000000000000004));
#464=CARTESIAN_POINT('',(1.700000000000001,0.500000000000002,9.000000000000004));
#465=CARTESIAN_POINT('',(8.881784E-016,1.214142842854287,7.300000000000003));
#466=CARTESIAN_POINT('',(0.474596669241484,1.679340627573702,7.300000000000003));
#467=CARTESIAN_POINT('',(1.087298334620742,1.421954445729291,7.300000000000003));
#468=CARTESIAN_POINT('',(1.700000000000001,1.164568263884880,7.300000000000003));
#469=CARTESIAN_POINT('',(1.700000000000001,0.500000000000002,7.300000000000003));
#470=CARTESIAN_POINT('',(8.881784E-016,1.214142842854287,7.300000000000002));
#471=CARTESIAN_POINT('',(0.474596669241483,1.679340627573702,6.825403330758519));
#472=CARTESIAN_POINT('',(1.087298334620742,1.421954445729291,6.212701665379260));
#473=CARTESIAN_POINT('',(1.700000000000001,1.164568263884880,5.600000000000001));
#474=CARTESIAN_POINT('',(1.700000000000000,0.500000000000001,5.600000000000001));
#475=CARTESIAN_POINT('',(8.628166E-032,1.214142842854287,7.300000000000002));
#476=CARTESIAN_POINT('',(-5.811941E-017,1.679340627573702,6.825403330758520));
#477=CARTESIAN_POINT('',(-1.331512E-016,1.421954445729291,6.212701665379260));
#478=CARTESIAN_POINT('',(-2.081831E-016,1.164568263884880,5.600000000000002));
#479=CARTESIAN_POINT('',(-2.081831E-016,0.500000000000001,5.600000000000001));
#480=CARTESIAN_POINT('',(-8.881784E-016,1.214142842854287,7.300000000000002));
#481=CARTESIAN_POINT('',(-0.474596669241484,1.679340627573702,6.825403330758519));
#482=CARTESIAN_POINT('',(-1.087298334620742,1.421954445729291,6.212701665379260));
#483=CARTESIAN_POINT('',(-1.700000000000001,1.164568263884880,5.600000000000001));
#484=CARTESIAN_POINT('',(-1.700000000000001,0.500000000000001,5.600000000000001));
#485=CARTESIAN_POINT('',(-8.881784E-016,1.214142842854287,7.300000000000003));
#486=CARTESIAN_POINT('',(-0.474596669241484,1.679340627573702,7.300000000000003));
#487=CARTESIAN_POINT('',(-1.087298334620742,1.421954445729291,7.300000000000003));
#488=CARTESIAN_POINT('',(-1.700000000000001,1.164568263884880,7.300000000000003));
#489=CARTESIAN_POINT('',(-1.700000000000001,0.500000000000002,7.300000000000003));
#490=CARTESIAN_POINT('',(-8.881784E-016,1.214142842854287,7.300000000000003));
#491=CARTESIAN_POINT('',(-0.474596669241483,1.679340627573702,7.774596669241486));
#492=CARTESIAN_POINT('',(-1.087298334620742,1.421954445729291,8.387298334620745));
#493=CARTESIAN_POINT('',(-1.700000000000001,1.164568263884880,9.000000000000004));
#494=CARTESIAN_POINT('',(-1.700000000000000,0.500000000000002,9.000000000000004));
#495=CARTESIAN_POINT('',(-8.628166E-032,1.214142842854287,7.300000000000003));
#496=CARTESIAN_POINT('',(5.811941E-017,1.679340627573702,7.774596669241487));
#497=CARTESIAN_POINT('',(1.331512E-016,1.421954445729291,8.387298334620745));
#498=CARTESIAN_POINT('',(2.081831E-016,1.164568263884880,9.000000000000004));
#499=CARTESIAN_POINT('',(2.081831E-016,0.500000000000002,9.000000000000004));
#507=(BOUNDED_SURFACE()B_SPLINE_SURFACE(2,2,((#455,#460,#465,#470,#475,#480,#485,#490,#495),(#456,#461,#466,#471,#476,#481,#486,#491,#496),(#457,#462,#467,#472,#477,#482,#487,#492,#497),(#458,#463,#468,#473,#478,#483,#488,#493,#498),(#459,#464,#469,#474,#479,#484,#489,#494,#499)),.UNSPECIFIED.,.F.,.T.,.U.)B_SPLINE_SURFACE_WITH_KNOTS((3,2,3),(3,2,2,2,3),(-2.346193823405650,-1.173096911702825,3.774758E-016),(0.0,1.570796326794897,3.141592653589793,4.712388980384690,6.283185307179586),.UNSPECIFIED.)GEOMETRIC_REPRESENTATION_ITEM()RATIONAL_B_SPLINE_SURFACE(((1.0,0.707106781186548,1.0,0.707106781186548,1.0,0.707106781186548,1.0,0.707106781186548,1.0),(0.832856030362013,0.588918146821088,0.832856030362013,0.588918146821088,0.832856030362013,0.588918146821088,0.832856030362013,0.588918146821088,0.832856030362013),(1.0,0.707106781186548,1.0,0.707106781186548,1.0,0.707106781186548,1.0,0.707106781186548,1.0),(0.832856030362012,0.588918146821088,0.832856030362012,0.588918146821088,0.832856030362012,0.588918146821088,0.832856030362012,0.588918146821088,0.832856030362012),(1.0,0.707106781186548,1.0,0.707106781186548,1.0,0.707106781186548,1.0,0.707106781186548,1.0)))REPRESENTATION_ITEM('')SURFACE());
#508=CARTESIAN_POINT('',(8.572244E-017,1.500000000000002,8.000000000000004));
#509=VERTEX_POINT('',#508);
#510=CARTESIAN_POINT('',(8.572244E-017,0.500000000000002,8.000000000000004));
#511=DIRECTION('',(-1.0,0.0,0.0));
#512=DIRECTION('',(0.0,0.0,1.0));
#513=AXIS2_PLACEMENT_3D('',#510,#511,#512);
#514=CIRCLE('',#513,1.0);
#515=EDGE_CURVE('',#320,#509,#514,.T.);
#516=ORIENTED_EDGE('',*,*,#515,.F.);
#517=CARTESIAN_POINT('',(1.700000000000000,0.500000000000002,7.300000000000003));
#518=VERTEX_POINT('',#517);
#519=CARTESIAN_POINT('',(0.0,0.500000000000002,7.300000000000003));
#520=DIRECTION('',(0.0,1.0,0.0));
#521=DIRECTION('',(0.0,0.0,1.0));
#522=AXIS2_PLACEMENT_3D('',#519,#520,#521);
#523=CIRCLE('',#522,1.700000000000000);
#524=EDGE_CURVE('',#320,#518,#523,.T.);
#525=ORIENTED_EDGE('',*,*,#524,.T.);
#526=CARTESIAN_POINT('',(1.407106781186548,1.207106781186550,7.300000000000003));
#527=VERTEX_POINT('',#526);
#528=CARTESIAN_POINT('',(0.700000000000000,0.500000000000002,7.300000000000003));
#529=DIRECTION('',(0.0,0.0,1.0));
#530=DIRECTION('',(1.0,0.0,0.0));
#531=AXIS2_PLACEMENT_3D('',#528,#529,#530);
#532=CIRCLE('',#531,1.0);
#533=EDGE_CURVE('',#518,#527,#532,.T.);
#534=ORIENTED_EDGE('',*,*,#533,.T.);
#535=CARTESIAN_POINT('',(0.700000000000000,1.500000000000002,7.300000000000003));
#536=VERTEX_POINT('',#535);
#537=CARTESIAN_POINT('',(0.700000000000000,0.500000000000002,7.300000000000003));
#538=DIRECTION('',(0.0,0.0,1.0));
#539=DIRECTION('',(1.0,0.0,0.0));
#540=AXIS2_PLACEMENT_3D('',#537,#538,#539);
#541=CIRCLE('',#540,1.0);
#542=EDGE_CURVE('',#527,#536,#541,.T.);
#543=ORIENTED_EDGE('',*,*,#542,.T.);
#544=CARTESIAN_POINT('',(0.0,1.500000000000002,7.300000000000003));
#545=DIRECTION('',(0.0,-1.0,0.0));
#546=DIRECTION('',(0.0,0.0,1.0));
#547=AXIS2_PLACEMENT_3D('',#544,#545,#546);
#548=CIRCLE('',#547,0.700000000000000);
#549=EDGE_CURVE('',#536,#509,#548,.T.);
#550=ORIENTED_EDGE('',*,*,#549,.T.);
#551=EDGE_LOOP('',(#516,#525,#534,#543,#550));
#552=FACE_OUTER_BOUND('',#551,.T.);
#553=ADVANCED_FACE('',(#552),#507,.T.);
#554=CARTESIAN_POINT('',(0.850000000000002,-0.500000000000000,3.000000000000000));
#555=DIRECTION('',(-1.0,-6.842278E-049,1.519291E-064));
#556=DIRECTION('',(0.0,-0.707106781186548,-0.707106781186547));
#557=AXIS2_PLACEMENT_3D('',#554,#555,#556);
#558=CYLINDRICAL_SURFACE('',#557,1.0);
#559=CARTESIAN_POINT('',(0.700000000000000,-1.207106781186547,2.292893218813453));
#560=VERTEX_POINT('',#559);
#561=CARTESIAN_POINT('',(-0.700000000000000,-1.207106781186548,2.292893218813452));
#562=VERTEX_POINT('',#561);
#563=CARTESIAN_POINT('',(0.700000000000000,-1.207106781186547,2.292893218813453));
#564=DIRECTION('',(-1.0,0.0,0.0));
#565=VECTOR('',#564,1.400000000000000);
#566=LINE('',#563,#565);
#567=EDGE_CURVE('',#560,#562,#566,.T.);
#568=ORIENTED_EDGE('',*,*,#567,.F.);
#569=CARTESIAN_POINT('',(0.700000000000000,-1.500000000000000,3.000000000000000));
#570=VERTEX_POINT('',#569);
#571=CARTESIAN_POINT('',(0.700000000000000,-0.500000000000000,3.000000000000000));
#572=DIRECTION('',(-1.0,0.0,0.0));
#573=DIRECTION('',(0.0,0.0,-1.0));
#574=AXIS2_PLACEMENT_3D('',#571,#572,#573);
#575=CIRCLE('',#574,1.000000000000000);
#576=EDGE_CURVE('',#560,#570,#575,.T.);
#577=ORIENTED_EDGE('',*,*,#576,.T.);
#578=CARTESIAN_POINT('',(-0.700000000000000,-1.500000000000000,3.000000000000000));
#579=VERTEX_POINT('',#578);
#580=CARTESIAN_POINT('',(0.700000000000000,-1.500000000000000,3.000000000000000));
#581=DIRECTION('',(-1.0,0.0,0.0));
#582=VECTOR('',#581,1.400000000000000);
#583=LINE('',#580,#582);
#584=EDGE_CURVE('',#570,#579,#583,.T.);
#585=ORIENTED_EDGE('',*,*,#584,.T.);
#586=CARTESIAN_POINT('',(-0.700000000000000,-0.500000000000000,3.000000000000000));
#587=DIRECTION('',(1.0,0.0,0.0));
#588=DIRECTION('',(0.0,-1.0,0.0));
#589=AXIS2_PLACEMENT_3D('',#586,#587,#588);
#590=CIRCLE('',#589,1.0);
#591=EDGE_CURVE('',#579,#562,#590,.T.);
#592=ORIENTED_EDGE('',*,*,#591,.T.);
#593=EDGE_LOOP('',(#568,#577,#585,#592));
#594=FACE_OUTER_BOUND('',#593,.T.);
#595=ADVANCED_FACE('',(#594),#558,.T.);
#596=CARTESIAN_POINT('',(0.700000000000000,1.500000000000000,3.000000000000000));
#597=DIRECTION('',(0.0,-1.0,2.220446E-016));
#598=DIRECTION('',(0.707106781186548,-3.140185E-016,-0.707106781186548));
#599=AXIS2_PLACEMENT_3D('',#596,#597,#598);
#600=CYLINDRICAL_SURFACE('',#599,1.000000000000000);
#601=CARTESIAN_POINT('',(1.407106781186548,0.500000000000000,2.292893218813452));
#602=VERTEX_POINT('',#601);
#603=CARTESIAN_POINT('',(1.407106781186548,-0.500000000000000,2.292893218813453));
#604=VERTEX_POINT('',#603);
#605=CARTESIAN_POINT('',(1.407106781186548,0.500000000000000,2.292893218813452));
#606=DIRECTION('',(0.0,-1.0,0.0));
#607=VECTOR('',#606,1.0);
#608=LINE('',#605,#607);
#609=EDGE_CURVE('',#602,#604,#608,.T.);
#610=ORIENTED_EDGE('',*,*,#609,.F.);
#611=CARTESIAN_POINT('',(1.700000000000000,0.500000000000000,3.000000000000000));
#612=VERTEX_POINT('',#611);
#613=CARTESIAN_POINT('',(0.700000000000000,0.500000000000000,3.000000000000000));
#614=DIRECTION('',(0.0,-1.0,0.0));
#615=DIRECTION('',(0.0,0.0,-1.0));
#616=AXIS2_PLACEMENT_3D('',#613,#614,#615);
#617=CIRCLE('',#616,1.0);
#618=EDGE_CURVE('',#602,#612,#617,.T.);
#619=ORIENTED_EDGE('',*,*,#618,.T.);
#620=CARTESIAN_POINT('',(1.700000000000000,-0.500000000000000,3.0));
#621=VERTEX_POINT('',#620);
#622=CARTESIAN_POINT('',(1.700000000000000,0.500000000000000,3.000000000000000));
#623=DIRECTION('',(0.0,-1.0,0.0));
#624=VECTOR('',#623,1.0);
#625=LINE('',#622,#624);
#626=EDGE_CURVE('',#612,#621,#625,.T.);
#627=ORIENTED_EDGE('',*,*,#626,.T.);
#628=CARTESIAN_POINT('',(0.700000000000000,-0.500000000000000,3.0));
#629=DIRECTION('',(0.0,1.0,0.0));
#630=DIRECTION('',(1.0,0.0,0.0));
#631=AXIS2_PLACEMENT_3D('',#628,#629,#630);
#632=CIRCLE('',#631,1.0);
#633=EDGE_CURVE('',#621,#604,#632,.T.);
#634=ORIENTED_EDGE('',*,*,#633,.T.);
#635=EDGE_LOOP('',(#610,#619,#627,#634));
#636=FACE_OUTER_BOUND('',#635,.T.);
#637=ADVANCED_FACE('',(#636),#600,.T.);
#638=CARTESIAN_POINT('',(0.850000000000002,0.500000000000000,3.000000000000000));
#639=DIRECTION('',(1.0,6.842278E-049,-1.519291E-064));
#640=DIRECTION('',(0.0,0.707106781186547,-0.707106781186548));
#641=AXIS2_PLACEMENT_3D('',#638,#639,#640);
#642=CYLINDRICAL_SURFACE('',#641,1.0);
#643=CARTESIAN_POINT('',(-0.700000000000000,1.207106781186548,2.292893218813452));
#644=VERTEX_POINT('',#643);
#645=CARTESIAN_POINT('',(0.700000000000000,1.207106781186548,2.292893218813452));
#646=VERTEX_POINT('',#645);
#647=CARTESIAN_POINT('',(-0.700000000000000,1.207106781186548,2.292893218813452));
#648=DIRECTION('',(1.0,0.0,0.0));
#649=VECTOR('',#648,1.400000000000000);
#650=LINE('',#647,#649);
#651=EDGE_CURVE('',#644,#646,#650,.T.);
#652=ORIENTED_EDGE('',*,*,#651,.F.);
#653=CARTESIAN_POINT('',(-0.700000000000000,1.500000000000000,3.000000000000000));
#654=VERTEX_POINT('',#653);
#655=CARTESIAN_POINT('',(-0.700000000000000,0.500000000000000,3.000000000000000));
#656=DIRECTION('',(1.0,0.0,0.0));
#657=DIRECTION('',(0.0,0.0,-1.0));
#658=AXIS2_PLACEMENT_3D('',#655,#656,#657);
#659=CIRCLE('',#658,1.0);
#660=EDGE_CURVE('',#644,#654,#659,.T.);
#661=ORIENTED_EDGE('',*,*,#660,.T.);
#662=CARTESIAN_POINT('',(0.700000000000000,1.500000000000000,3.000000000000000));
#663=VERTEX_POINT('',#662);
#664=CARTESIAN_POINT('',(-0.700000000000000,1.500000000000000,3.000000000000000));
#665=DIRECTION('',(1.0,0.0,0.0));
#666=VECTOR('',#665,1.400000000000000);
#667=LINE('',#664,#666);
#668=EDGE_CURVE('',#654,#663,#667,.T.);
#669=ORIENTED_EDGE('',*,*,#668,.T.);
#670=CARTESIAN_POINT('',(0.700000000000000,0.500000000000000,3.000000000000000));
#671=DIRECTION('',(-1.0,0.0,0.0));
#672=DIRECTION('',(0.0,1.0,0.0));
#673=AXIS2_PLACEMENT_3D('',#670,#671,#672);
#674=CIRCLE('',#673,1.0);
#675=EDGE_CURVE('',#663,#646,#674,.T.);
#676=ORIENTED_EDGE('',*,*,#675,.T.);
#677=EDGE_LOOP('',(#652,#661,#669,#676));
#678=FACE_OUTER_BOUND('',#677,.T.);
#679=ADVANCED_FACE('',(#678),#642,.T.);
#680=CARTESIAN_POINT('',(-0.699999999999999,1.500000000000000,3.000000000000000));
#681=DIRECTION('',(0.0,-1.0,2.220446E-016));
#682=DIRECTION('',(-0.707106781186548,-3.140185E-016,-0.707106781186547));
#683=AXIS2_PLACEMENT_3D('',#680,#681,#682);
#684=CYLINDRICAL_SURFACE('',#683,1.0);
#685=CARTESIAN_POINT('',(-1.407106781186549,0.500000000000000,2.292893218813452));
#686=VERTEX_POINT('',#685);
#687=CARTESIAN_POINT('',(-1.407106781186548,-0.500000000000000,2.292893218813453));
#688=VERTEX_POINT('',#687);
#689=CARTESIAN_POINT('',(-1.407106781186549,0.500000000000000,2.292893218813452));
#690=DIRECTION('',(0.0,-1.0,0.0));
#691=VECTOR('',#690,1.0);
#692=LINE('',#689,#691);
#693=EDGE_CURVE('',#686,#688,#692,.T.);
#694=ORIENTED_EDGE('',*,*,#693,.F.);
#695=CARTESIAN_POINT('',(-0.700000000000000,0.500000000000000,2.000000000000000));
#696=VERTEX_POINT('',#695);
#697=CARTESIAN_POINT('',(-0.699999999999999,0.500000000000000,3.000000000000000));
#698=DIRECTION('',(0.0,-1.0,0.0));
#699=DIRECTION('',(-1.0,0.0,0.0));
#700=AXIS2_PLACEMENT_3D('',#697,#698,#699);
#701=CIRCLE('',#700,1.000000000000001);
#702=EDGE_CURVE('',#686,#696,#701,.T.);
#703=ORIENTED_EDGE('',*,*,#702,.T.);
#704=CARTESIAN_POINT('',(-0.699999999999999,-0.500000000000000,2.0));
#705=VERTEX_POINT('',#704);
#706=CARTESIAN_POINT('',(-0.700000000000000,0.500000000000000,2.000000000000000));
#707=DIRECTION('',(0.0,-1.0,0.0));
#708=VECTOR('',#707,1.0);
#709=LINE('',#706,#708);
#710=EDGE_CURVE('',#696,#705,#709,.T.);
#711=ORIENTED_EDGE('',*,*,#710,.T.);
#712=CARTESIAN_POINT('',(-0.699999999999999,-0.500000000000000,3.0));
#713=DIRECTION('',(0.0,1.0,0.0));
#714=DIRECTION('',(0.0,0.0,-1.0));
#715=AXIS2_PLACEMENT_3D('',#712,#713,#714);
#716=CIRCLE('',#715,1.0);
#717=EDGE_CURVE('',#705,#688,#716,.T.);
#718=ORIENTED_EDGE('',*,*,#717,.T.);
#719=EDGE_LOOP('',(#694,#703,#711,#718));
#720=FACE_OUTER_BOUND('',#719,.T.);
#721=ADVANCED_FACE('',(#720),#684,.T.);
#722=CARTESIAN_POINT('',(0.700000000000000,-0.499999999999998,6.495570806781233));
#723=DIRECTION('',(0.0,-2.220446E-016,-1.0));
#724=DIRECTION('',(0.707106781186548,-0.707106781186548,0.0));
#725=AXIS2_PLACEMENT_3D('',#722,#723,#724);
#726=CYLINDRICAL_SURFACE('',#725,1.000000000000000);
#727=CARTESIAN_POINT('',(1.407106781186549,-1.207106781186547,3.000000000000000));
#728=VERTEX_POINT('',#727);
#729=CARTESIAN_POINT('',(1.407106781186548,-1.207106781186545,7.300000000000003));
#730=DIRECTION('',(0.0,0.0,-1.0));
#731=VECTOR('',#730,4.300000000000003);
#732=LINE('',#729,#731);
#733=EDGE_CURVE('',#428,#728,#732,.T.);
#734=ORIENTED_EDGE('',*,*,#733,.F.);
#735=ORIENTED_EDGE('',*,*,#434,.T.);
#736=CARTESIAN_POINT('',(0.700000000000000,-1.499999999999998,7.300000000000003));
#737=DIRECTION('',(0.0,0.0,-1.0));
#738=VECTOR('',#737,4.300000000000003);
#739=LINE('',#736,#738);
#740=EDGE_CURVE('',#419,#570,#739,.T.);
#741=ORIENTED_EDGE('',*,*,#740,.T.);
#742=CARTESIAN_POINT('',(0.700000000000000,-0.500000000000000,3.0));
#743=DIRECTION('',(0.0,0.0,-1.0));
#744=DIRECTION('',(0.707106781186548,-0.707106781186547,0.0));
#745=AXIS2_PLACEMENT_3D('',#742,#743,#744);
#746=CIRCLE('',#745,1.000000000000000);
#747=EDGE_CURVE('',#728,#570,#746,.T.);
#748=ORIENTED_EDGE('',*,*,#747,.F.);
#749=EDGE_LOOP('',(#734,#735,#741,#748));
#750=FACE_OUTER_BOUND('',#749,.T.);
#751=ADVANCED_FACE('',(#750),#726,.T.);
#752=CARTESIAN_POINT('',(0.700000000000000,0.500000000000002,6.495570806781233));
#753=DIRECTION('',(0.0,2.220446E-016,1.0));
#754=DIRECTION('',(0.707106781186548,0.707106781186548,0.0));
#755=AXIS2_PLACEMENT_3D('',#752,#753,#754);
#756=CYLINDRICAL_SURFACE('',#755,1.000000000000000);
#757=CARTESIAN_POINT('',(1.407106781186548,1.207106781186548,2.999999999999999));
#758=VERTEX_POINT('',#757);
#759=CARTESIAN_POINT('',(1.407106781186548,1.207106781186548,2.999999999999999));
#760=DIRECTION('',(0.0,0.0,1.0));
#761=VECTOR('',#760,4.300000000000003);
#762=LINE('',#759,#761);
#763=EDGE_CURVE('',#758,#527,#762,.T.);
#764=ORIENTED_EDGE('',*,*,#763,.F.);
#765=CARTESIAN_POINT('',(0.700000000000000,0.500000000000000,3.000000000000000));
#766=DIRECTION('',(0.0,0.0,-1.000000000000000));
#767=DIRECTION('',(0.707106781186548,0.707106781186547,0.0));
#768=AXIS2_PLACEMENT_3D('',#765,#766,#767);
#769=CIRCLE('',#768,1.000000000000000);
#770=EDGE_CURVE('',#663,#758,#769,.T.);
#771=ORIENTED_EDGE('',*,*,#770,.F.);
#772=CARTESIAN_POINT('',(0.700000000000000,1.500000000000000,3.000000000000000));
#773=DIRECTION('',(0.0,0.0,1.0));
#774=VECTOR('',#773,4.300000000000003);
#775=LINE('',#772,#774);
#776=EDGE_CURVE('',#663,#536,#775,.T.);
#777=ORIENTED_EDGE('',*,*,#776,.T.);
#778=ORIENTED_EDGE('',*,*,#542,.F.);
#779=EDGE_LOOP('',(#764,#771,#777,#778));
#780=FACE_OUTER_BOUND('',#779,.T.);
#781=ADVANCED_FACE('',(#780),#756,.T.);
#782=CARTESIAN_POINT('',(-0.700000000000000,0.500000000000001,4.345570806781232));
#783=DIRECTION('',(0.0,-2.220446E-016,-1.0));
#784=DIRECTION('',(-0.707106781186548,0.707106781186547,0.0));
#785=AXIS2_PLACEMENT_3D('',#782,#783,#784);
#786=CYLINDRICAL_SURFACE('',#785,1.0);
#787=CARTESIAN_POINT('',(-1.407106781186548,1.207106781186550,7.300000000000003));
#788=VERTEX_POINT('',#787);
#789=CARTESIAN_POINT('',(-1.407106781186548,1.207106781186548,2.999999999999999));
#790=VERTEX_POINT('',#789);
#791=CARTESIAN_POINT('',(-1.407106781186548,1.207106781186550,7.300000000000003));
#792=DIRECTION('',(0.0,0.0,-1.0));
#793=VECTOR('',#792,4.300000000000003);
#794=LINE('',#791,#793);
#795=EDGE_CURVE('',#788,#790,#794,.T.);
#796=ORIENTED_EDGE('',*,*,#795,.F.);
#797=CARTESIAN_POINT('',(-0.700000000000000,1.500000000000002,7.300000000000003));
#798=VERTEX_POINT('',#797);
#799=CARTESIAN_POINT('',(-0.700000000000000,0.500000000000002,7.300000000000003));
#800=DIRECTION('',(0.0,0.0,1.0));
#801=DIRECTION('',(0.0,1.0,0.0));
#802=AXIS2_PLACEMENT_3D('',#799,#800,#801);
#803=CIRCLE('',#802,1.0);
#804=EDGE_CURVE('',#798,#788,#803,.T.);
#805=ORIENTED_EDGE('',*,*,#804,.F.);
#806=CARTESIAN_POINT('',(-0.700000000000000,1.500000000000002,7.300000000000003));
#807=DIRECTION('',(0.0,0.0,-1.0));
#808=VECTOR('',#807,4.300000000000003);
#809=LINE('',#806,#808);
#810=EDGE_CURVE('',#798,#654,#809,.T.);
#811=ORIENTED_EDGE('',*,*,#810,.T.);
#812=CARTESIAN_POINT('',(-0.700000000000000,0.500000000000000,3.000000000000000));
#813=DIRECTION('',(0.0,0.0,-1.0));
#814=DIRECTION('',(-0.707106781186548,0.707106781186547,0.0));
#815=AXIS2_PLACEMENT_3D('',#812,#813,#814);
#816=CIRCLE('',#815,1.000000000000000);
#817=EDGE_CURVE('',#790,#654,#816,.T.);
#818=ORIENTED_EDGE('',*,*,#817,.F.);
#819=EDGE_LOOP('',(#796,#805,#811,#818));
#820=FACE_OUTER_BOUND('',#819,.T.);
#821=ADVANCED_FACE('',(#820),#786,.T.);
#822=CARTESIAN_POINT('',(-0.700000000000000,-0.499999999999999,4.345570806781232));
#823=DIRECTION('',(0.0,2.220446E-016,1.0));
#824=DIRECTION('',(-0.707106781186547,-0.707106781186548,0.0));
#825=AXIS2_PLACEMENT_3D('',#822,#823,#824);
#826=CYLINDRICAL_SURFACE('',#825,1.0);
#827=CARTESIAN_POINT('',(-1.407106781186548,-1.207106781186547,2.999999999999999));
#828=VERTEX_POINT('',#827);
#829=CARTESIAN_POINT('',(-1.407106781186548,-1.207106781186546,7.300000000000003));
#830=VERTEX_POINT('',#829);
#831=CARTESIAN_POINT('',(-1.407106781186548,-1.207106781186547,2.999999999999999));
#832=DIRECTION('',(0.0,0.0,1.0));
#833=VECTOR('',#832,4.300000000000003);
#834=LINE('',#831,#833);
#835=EDGE_CURVE('',#828,#830,#834,.T.);
#836=ORIENTED_EDGE('',*,*,#835,.F.);
#837=CARTESIAN_POINT('',(-0.700000000000000,-0.500000000000000,3.000000000000000));
#838=DIRECTION('',(0.0,0.0,-1.0));
#839=DIRECTION('',(-0.707106781186548,-0.707106781186547,0.0));
#840=AXIS2_PLACEMENT_3D('',#837,#838,#839);
#841=CIRCLE('',#840,1.000000000000000);
#842=EDGE_CURVE('',#579,#828,#841,.T.);
#843=ORIENTED_EDGE('',*,*,#842,.F.);
#844=CARTESIAN_POINT('',(-0.700000000000000,-1.499999999999998,7.300000000000003));
#845=VERTEX_POINT('',#844);
#846=CARTESIAN_POINT('',(-0.700000000000000,-1.500000000000000,3.000000000000000));
#847=DIRECTION('',(0.0,0.0,1.0));
#848=VECTOR('',#847,4.300000000000003);
#849=LINE('',#846,#848);
#850=EDGE_CURVE('',#579,#845,#849,.T.);
#851=ORIENTED_EDGE('',*,*,#850,.T.);
#852=CARTESIAN_POINT('',(-0.700000000000000,-0.499999999999998,7.300000000000003));
#853=DIRECTION('',(0.0,0.0,1.0));
#854=DIRECTION('',(-1.0,0.0,0.0));
#855=AXIS2_PLACEMENT_3D('',#852,#853,#854);
#856=CIRCLE('',#855,1.0);
#857=EDGE_CURVE('',#830,#845,#856,.T.);
#858=ORIENTED_EDGE('',*,*,#857,.F.);
#859=EDGE_LOOP('',(#836,#843,#851,#858));
#860=FACE_OUTER_BOUND('',#859,.T.);
#861=ADVANCED_FACE('',(#860),#826,.T.);
#862=CARTESIAN_POINT('',(-0.700000000000000,-0.499999999999999,4.345570806781232));
#863=DIRECTION('',(0.0,2.220446E-016,1.0));
#864=DIRECTION('',(-0.707106781186547,-0.707106781186548,0.0));
#865=AXIS2_PLACEMENT_3D('',#862,#863,#864);
#866=CYLINDRICAL_SURFACE('',#865,1.0);
#867=ORIENTED_EDGE('',*,*,#835,.T.);
#868=CARTESIAN_POINT('',(-0.700000000000000,-0.499999999999998,7.300000000000003));
#869=DIRECTION('',(0.0,0.0,1.0));
#870=DIRECTION('',(-1.0,0.0,0.0));
#871=AXIS2_PLACEMENT_3D('',#868,#869,#870);
#872=CIRCLE('',#871,1.0);
#873=EDGE_CURVE('',#339,#830,#872,.T.);
#874=ORIENTED_EDGE('',*,*,#873,.F.);
#875=CARTESIAN_POINT('',(-1.700000000000000,-0.500000000000000,3.0));
#876=VERTEX_POINT('',#875);
#877=CARTESIAN_POINT('',(-1.700000000000000,-0.499999999999998,7.300000000000003));
#878=DIRECTION('',(0.0,0.0,-1.0));
#879=VECTOR('',#878,4.300000000000003);
#880=LINE('',#877,#879);
#881=EDGE_CURVE('',#339,#876,#880,.T.);
#882=ORIENTED_EDGE('',*,*,#881,.T.);
#883=CARTESIAN_POINT('',(-0.700000000000000,-0.500000000000000,3.000000000000000));
#884=DIRECTION('',(0.0,0.0,-1.0));
#885=DIRECTION('',(-0.707106781186548,-0.707106781186547,0.0));
#886=AXIS2_PLACEMENT_3D('',#883,#884,#885);
#887=CIRCLE('',#886,1.000000000000000);
#888=EDGE_CURVE('',#828,#876,#887,.T.);
#889=ORIENTED_EDGE('',*,*,#888,.F.);
#890=EDGE_LOOP('',(#867,#874,#882,#889));
#891=FACE_OUTER_BOUND('',#890,.T.);
#892=ADVANCED_FACE('',(#891),#866,.T.);
#893=CARTESIAN_POINT('',(-1.700000000000000,1.500000000000001,3.0));
#894=DIRECTION('',(-1.0,0.0,0.0));
#895=DIRECTION('',(0.0,0.0,1.0));
#896=AXIS2_PLACEMENT_3D('',#893,#894,#895);
#897=PLANE('',#896);
#898=CARTESIAN_POINT('',(-1.700000000000000,0.500000000000000,3.000000000000000));
#899=VERTEX_POINT('',#898);
#900=CARTESIAN_POINT('',(-1.700000000000000,-0.500000000000000,3.0));
#901=DIRECTION('',(0.0,1.0,0.0));
#902=VECTOR('',#901,1.0);
#903=LINE('',#900,#902);
#904=EDGE_CURVE('',#876,#899,#903,.T.);
#905=ORIENTED_EDGE('',*,*,#904,.F.);
#906=ORIENTED_EDGE('',*,*,#881,.F.);
#907=ORIENTED_EDGE('',*,*,#344,.F.);
#908=CARTESIAN_POINT('',(-1.700000000000000,0.500000000000000,3.000000000000000));
#909=DIRECTION('',(0.0,0.0,1.0));
#910=VECTOR('',#909,4.300000000000003);
#911=LINE('',#908,#910);
#912=EDGE_CURVE('',#899,#330,#911,.T.);
#913=ORIENTED_EDGE('',*,*,#912,.F.);
#914=EDGE_LOOP('',(#905,#906,#907,#913));
#915=FACE_OUTER_BOUND('',#914,.T.);
#916=ADVANCED_FACE('',(#915),#897,.T.);
#917=CARTESIAN_POINT('',(-0.700000000000000,0.500000000000001,4.345570806781232));
#918=DIRECTION('',(0.0,-2.220446E-016,-1.0));
#919=DIRECTION('',(-0.707106781186548,0.707106781186547,0.0));
#920=AXIS2_PLACEMENT_3D('',#917,#918,#919);
#921=CYLINDRICAL_SURFACE('',#920,1.0);
#922=ORIENTED_EDGE('',*,*,#795,.T.);
#923=CARTESIAN_POINT('',(-0.700000000000000,0.500000000000000,3.000000000000000));
#924=DIRECTION('',(0.0,0.0,-1.0));
#925=DIRECTION('',(-0.707106781186548,0.707106781186547,0.0));
#926=AXIS2_PLACEMENT_3D('',#923,#924,#925);
#927=CIRCLE('',#926,1.000000000000000);
#928=EDGE_CURVE('',#899,#790,#927,.T.);
#929=ORIENTED_EDGE('',*,*,#928,.F.);
#930=ORIENTED_EDGE('',*,*,#912,.T.);
#931=CARTESIAN_POINT('',(-0.700000000000000,0.500000000000002,7.300000000000003));
#932=DIRECTION('',(0.0,0.0,1.0));
#933=DIRECTION('',(0.0,1.0,0.0));
#934=AXIS2_PLACEMENT_3D('',#931,#932,#933);
#935=CIRCLE('',#934,1.0);
#936=EDGE_CURVE('',#788,#330,#935,.T.);
#937=ORIENTED_EDGE('',*,*,#936,.F.);
#938=EDGE_LOOP('',(#922,#929,#930,#937));
#939=FACE_OUTER_BOUND('',#938,.T.);
#940=ADVANCED_FACE('',(#939),#921,.T.);
#941=CARTESIAN_POINT('',(2.664535E-015,1.500000000000002,5.691141613562465));
#942=DIRECTION('',(0.0,1.0,0.0));
#943=DIRECTION('',(0.0,0.0,1.0));
#944=AXIS2_PLACEMENT_3D('',#941,#942,#943);
#945=PLANE('',#944);
#946=ORIENTED_EDGE('',*,*,#668,.F.);
#947=ORIENTED_EDGE('',*,*,#810,.F.);
#948=CARTESIAN_POINT('',(0.0,1.500000000000002,7.300000000000003));
#949=DIRECTION('',(0.0,-1.0,0.0));
#950=DIRECTION('',(0.0,0.0,1.0));
#951=AXIS2_PLACEMENT_3D('',#948,#949,#950);
#952=CIRCLE('',#951,0.700000000000000);
#953=EDGE_CURVE('',#509,#798,#952,.T.);
#954=ORIENTED_EDGE('',*,*,#953,.F.);
#955=ORIENTED_EDGE('',*,*,#549,.F.);
#956=ORIENTED_EDGE('',*,*,#776,.F.);
#957=EDGE_LOOP('',(#946,#947,#954,#955,#956));
#958=FACE_OUTER_BOUND('',#957,.T.);
#959=ADVANCED_FACE('',(#958),#945,.T.);
#960=CARTESIAN_POINT('',(0.700000000000000,0.500000000000002,6.495570806781233));
#961=DIRECTION('',(0.0,2.220446E-016,1.0));
#962=DIRECTION('',(0.707106781186548,0.707106781186548,0.0));
#963=AXIS2_PLACEMENT_3D('',#960,#961,#962);
#964=CYLINDRICAL_SURFACE('',#963,1.000000000000000);
#965=ORIENTED_EDGE('',*,*,#763,.T.);
#966=ORIENTED_EDGE('',*,*,#533,.F.);
#967=CARTESIAN_POINT('',(1.700000000000000,0.500000000000002,7.300000000000003));
#968=DIRECTION('',(0.0,0.0,-1.0));
#969=VECTOR('',#968,4.300000000000003);
#970=LINE('',#967,#969);
#971=EDGE_CURVE('',#518,#612,#970,.T.);
#972=ORIENTED_EDGE('',*,*,#971,.T.);
#973=CARTESIAN_POINT('',(0.700000000000000,0.500000000000000,3.000000000000000));
#974=DIRECTION('',(0.0,0.0,-1.000000000000000));
#975=DIRECTION('',(0.707106781186548,0.707106781186547,0.0));
#976=AXIS2_PLACEMENT_3D('',#973,#974,#975);
#977=CIRCLE('',#976,1.000000000000000);
#978=EDGE_CURVE('',#758,#612,#977,.T.);
#979=ORIENTED_EDGE('',*,*,#978,.F.);
#980=EDGE_LOOP('',(#965,#966,#972,#979));
#981=FACE_OUTER_BOUND('',#980,.T.);
#982=ADVANCED_FACE('',(#981),#964,.T.);
#983=CARTESIAN_POINT('',(1.700000000000000,1.500000000000002,7.300000000000003));
#984=DIRECTION('',(1.0,0.0,0.0));
#985=DIRECTION('',(0.0,0.0,-1.0));
#986=AXIS2_PLACEMENT_3D('',#983,#984,#985);
#987=PLANE('',#986);
#988=ORIENTED_EDGE('',*,*,#626,.F.);
#989=ORIENTED_EDGE('',*,*,#971,.F.);
#990=CARTESIAN_POINT('',(1.700000000000000,0.500000000000002,7.300000000000003));
#991=DIRECTION('',(0.0,-1.0,0.0));
#992=VECTOR('',#991,1.000000000000000);
#993=LINE('',#990,#992);
#994=EDGE_CURVE('',#518,#437,#993,.T.);
#995=ORIENTED_EDGE('',*,*,#994,.T.);
#996=CARTESIAN_POINT('',(1.700000000000000,-0.500000000000000,3.0));
#997=DIRECTION('',(0.0,0.0,1.0));
#998=VECTOR('',#997,4.300000000000003);
#999=LINE('',#996,#998);
#1000=EDGE_CURVE('',#621,#437,#999,.T.);
#1001=ORIENTED_EDGE('',*,*,#1000,.F.);
#1002=EDGE_LOOP('',(#988,#989,#995,#1001));
#1003=FACE_OUTER_BOUND('',#1002,.T.);
#1004=ADVANCED_FACE('',(#1003),#987,.T.);
#1005=CARTESIAN_POINT('',(0.700000000000000,-0.499999999999998,6.495570806781233));
#1006=DIRECTION('',(0.0,-2.220446E-016,-1.0));
#1007=DIRECTION('',(0.707106781186548,-0.707106781186548,0.0));
#1008=AXIS2_PLACEMENT_3D('',#1005,#1006,#1007);
#1009=CYLINDRICAL_SURFACE('',#1008,1.000000000000000);
#1010=ORIENTED_EDGE('',*,*,#733,.T.);
#1011=CARTESIAN_POINT('',(0.700000000000000,-0.500000000000000,3.0));
#1012=DIRECTION('',(0.0,0.0,-1.0));
#1013=DIRECTION('',(0.707106781186548,-0.707106781186547,0.0));
#1014=AXIS2_PLACEMENT_3D('',#1011,#1012,#1013);
#1015=CIRCLE('',#1014,1.000000000000000);
#1016=EDGE_CURVE('',#621,#728,#1015,.T.);
#1017=ORIENTED_EDGE('',*,*,#1016,.F.);
#1018=ORIENTED_EDGE('',*,*,#1000,.T.);
#1019=ORIENTED_EDGE('',*,*,#443,.T.);
#1020=EDGE_LOOP('',(#1010,#1017,#1018,#1019));
#1021=FACE_OUTER_BOUND('',#1020,.T.);
#1022=ADVANCED_FACE('',(#1021),#1009,.T.);
#1023=CARTESIAN_POINT('',(2.664535E-015,-1.499999999999998,5.691141613562465));
#1024=DIRECTION('',(0.0,1.0,0.0));
#1025=DIRECTION('',(0.0,0.0,1.0));
#1026=AXIS2_PLACEMENT_3D('',#1023,#1024,#1025);
#1027=PLANE('',#1026);
#1028=ORIENTED_EDGE('',*,*,#584,.F.);
#1029=ORIENTED_EDGE('',*,*,#740,.F.);
#1030=ORIENTED_EDGE('',*,*,#425,.F.);
#1031=CARTESIAN_POINT('',(0.0,-1.499999999999998,7.300000000000003));
#1032=DIRECTION('',(0.0,1.0,0.0));
#1033=DIRECTION('',(0.0,0.0,1.0));
#1034=AXIS2_PLACEMENT_3D('',#1031,#1032,#1033);
#1035=CIRCLE('',#1034,0.700000000000000);
#1036=EDGE_CURVE('',#845,#410,#1035,.T.);
#1037=ORIENTED_EDGE('',*,*,#1036,.F.);
#1038=ORIENTED_EDGE('',*,*,#850,.F.);
#1039=EDGE_LOOP('',(#1028,#1029,#1030,#1037,#1038));
#1040=FACE_OUTER_BOUND('',#1039,.T.);
#1041=ADVANCED_FACE('',(#1040),#1027,.F.);
#1042=CARTESIAN_POINT('',(-0.700000000000000,-0.500000000000000,3.000000000000000));
#1043=DIRECTION('',(0.0,0.0,1.0));
#1044=DIRECTION('',(1.0,0.0,0.0));
#1045=AXIS2_PLACEMENT_3D('',#1042,#1043,#1044);
#1046=SPHERICAL_SURFACE('',#1045,1.0);
#1047=ORIENTED_EDGE('',*,*,#591,.F.);
#1048=ORIENTED_EDGE('',*,*,#842,.T.);
#1049=ORIENTED_EDGE('',*,*,#888,.T.);
#1050=CARTESIAN_POINT('',(-0.699999999999999,-0.500000000000000,3.0));
#1051=DIRECTION('',(0.0,1.0,0.0));
#1052=DIRECTION('',(0.0,0.0,-1.0));
#1053=AXIS2_PLACEMENT_3D('',#1050,#1051,#1052);
#1054=CIRCLE('',#1053,1.0);
#1055=EDGE_CURVE('',#688,#876,#1054,.T.);
#1056=ORIENTED_EDGE('',*,*,#1055,.F.);
#1057=ORIENTED_EDGE('',*,*,#717,.F.);
#1058=CARTESIAN_POINT('',(-0.700000000000000,-0.500000000000000,3.000000000000000));
#1059=DIRECTION('',(1.0,0.0,0.0));
#1060=DIRECTION('',(0.0,-1.0,0.0));
#1061=AXIS2_PLACEMENT_3D('',#1058,#1059,#1060);
#1062=CIRCLE('',#1061,1.0);
#1063=EDGE_CURVE('',#562,#705,#1062,.T.);
#1064=ORIENTED_EDGE('',*,*,#1063,.F.);
#1065=EDGE_LOOP('',(#1047,#1048,#1049,#1056,#1057,#1064));
#1066=FACE_OUTER_BOUND('',#1065,.T.);
#1067=ADVANCED_FACE('',(#1066),#1046,.T.);
#1068=CARTESIAN_POINT('',(-0.699999999999999,1.500000000000000,3.000000000000000));
#1069=DIRECTION('',(0.0,-1.0,2.220446E-016));
#1070=DIRECTION('',(-0.707106781186548,-3.140185E-016,-0.707106781186547));
#1071=AXIS2_PLACEMENT_3D('',#1068,#1069,#1070);
#1072=CYLINDRICAL_SURFACE('',#1071,1.0);
#1073=ORIENTED_EDGE('',*,*,#693,.T.);
#1074=ORIENTED_EDGE('',*,*,#1055,.T.);
#1075=ORIENTED_EDGE('',*,*,#904,.T.);
#1076=CARTESIAN_POINT('',(-0.699999999999999,0.500000000000000,3.000000000000000));
#1077=DIRECTION('',(0.0,-1.0,0.0));
#1078=DIRECTION('',(-1.0,0.0,0.0));
#1079=AXIS2_PLACEMENT_3D('',#1076,#1077,#1078);
#1080=CIRCLE('',#1079,1.000000000000001);
#1081=EDGE_CURVE('',#899,#686,#1080,.T.);
#1082=ORIENTED_EDGE('',*,*,#1081,.T.);
#1083=EDGE_LOOP('',(#1073,#1074,#1075,#1082));
#1084=FACE_OUTER_BOUND('',#1083,.T.);
#1085=ADVANCED_FACE('',(#1084),#1072,.T.);
#1086=CARTESIAN_POINT('',(1.700000000000000,1.500000000000000,2.000000000000000));
#1087=DIRECTION('',(0.0,0.0,-1.0));
#1088=DIRECTION('',(-1.0,0.0,0.0));
#1089=AXIS2_PLACEMENT_3D('',#1086,#1087,#1088);
#1090=PLANE('',#1089);
#1091=ORIENTED_EDGE('',*,*,#710,.F.);
#1092=CARTESIAN_POINT('',(0.700000000000000,0.500000000000000,2.000000000000000));
#1093=VERTEX_POINT('',#1092);
#1094=CARTESIAN_POINT('',(0.700000000000000,0.500000000000000,2.000000000000000));
#1095=DIRECTION('',(-1.0,0.0,0.0));
#1096=VECTOR('',#1095,1.400000000000000);
#1097=LINE('',#1094,#1096);
#1098=EDGE_CURVE('',#1093,#696,#1097,.T.);
#1099=ORIENTED_EDGE('',*,*,#1098,.F.);
#1100=CARTESIAN_POINT('',(0.700000000000000,-0.500000000000000,2.0));
#1101=VERTEX_POINT('',#1100);
#1102=CARTESIAN_POINT('',(0.700000000000000,-0.500000000000000,2.0));
#1103=DIRECTION('',(0.0,1.0,0.0));
#1104=VECTOR('',#1103,1.0);
#1105=LINE('',#1102,#1104);
#1106=EDGE_CURVE('',#1101,#1093,#1105,.T.);
#1107=ORIENTED_EDGE('',*,*,#1106,.F.);
#1108=CARTESIAN_POINT('',(-0.699999999999999,-0.500000000000000,2.0));
#1109=DIRECTION('',(1.0,0.0,0.0));
#1110=VECTOR('',#1109,1.400000000000000);
#1111=LINE('',#1108,#1110);
#1112=EDGE_CURVE('',#705,#1101,#1111,.T.);
#1113=ORIENTED_EDGE('',*,*,#1112,.F.);
#1114=EDGE_LOOP('',(#1091,#1099,#1107,#1113));
#1115=FACE_OUTER_BOUND('',#1114,.T.);
#1116=ADVANCED_FACE('',(#1115),#1090,.T.);
#1117=CARTESIAN_POINT('',(-0.700000000000000,0.500000000000000,3.000000000000000));
#1118=DIRECTION('',(0.0,0.0,1.0));
#1119=DIRECTION('',(1.0,0.0,0.0));
#1120=AXIS2_PLACEMENT_3D('',#1117,#1118,#1119);
#1121=SPHERICAL_SURFACE('',#1120,1.0);
#1122=ORIENTED_EDGE('',*,*,#1081,.F.);
#1123=ORIENTED_EDGE('',*,*,#928,.T.);
#1124=ORIENTED_EDGE('',*,*,#817,.T.);
#1125=ORIENTED_EDGE('',*,*,#660,.F.);
#1126=CARTESIAN_POINT('',(-0.700000000000000,0.500000000000000,3.000000000000000));
#1127=DIRECTION('',(1.0,0.0,0.0));
#1128=DIRECTION('',(0.0,0.0,-1.0));
#1129=AXIS2_PLACEMENT_3D('',#1126,#1127,#1128);
#1130=CIRCLE('',#1129,1.0);
#1131=EDGE_CURVE('',#696,#644,#1130,.T.);
#1132=ORIENTED_EDGE('',*,*,#1131,.F.);
#1133=ORIENTED_EDGE('',*,*,#702,.F.);
#1134=EDGE_LOOP('',(#1122,#1123,#1124,#1125,#1132,#1133));
#1135=FACE_OUTER_BOUND('',#1134,.T.);
#1136=ADVANCED_FACE('',(#1135),#1121,.T.);
#1137=CARTESIAN_POINT('',(0.850000000000002,0.500000000000000,3.000000000000000));
#1138=DIRECTION('',(1.0,6.842278E-049,-1.519291E-064));
#1139=DIRECTION('',(0.0,0.707106781186547,-0.707106781186548));
#1140=AXIS2_PLACEMENT_3D('',#1137,#1138,#1139);
#1141=CYLINDRICAL_SURFACE('',#1140,1.0);
#1142=ORIENTED_EDGE('',*,*,#651,.T.);
#1143=CARTESIAN_POINT('',(0.700000000000000,0.500000000000000,3.000000000000000));
#1144=DIRECTION('',(-1.0,0.0,0.0));
#1145=DIRECTION('',(0.0,1.0,0.0));
#1146=AXIS2_PLACEMENT_3D('',#1143,#1144,#1145);
#1147=CIRCLE('',#1146,1.0);
#1148=EDGE_CURVE('',#646,#1093,#1147,.T.);
#1149=ORIENTED_EDGE('',*,*,#1148,.T.);
#1150=ORIENTED_EDGE('',*,*,#1098,.T.);
#1151=ORIENTED_EDGE('',*,*,#1131,.T.);
#1152=EDGE_LOOP('',(#1142,#1149,#1150,#1151));
#1153=FACE_OUTER_BOUND('',#1152,.T.);
#1154=ADVANCED_FACE('',(#1153),#1141,.T.);
#1155=CARTESIAN_POINT('',(0.700000000000000,0.500000000000000,3.000000000000000));
#1156=DIRECTION('',(0.0,0.0,1.0));
#1157=DIRECTION('',(1.0,0.0,0.0));
#1158=AXIS2_PLACEMENT_3D('',#1155,#1156,#1157);
#1159=SPHERICAL_SURFACE('',#1158,1.0);
#1160=ORIENTED_EDGE('',*,*,#675,.F.);
#1161=ORIENTED_EDGE('',*,*,#770,.T.);
#1162=ORIENTED_EDGE('',*,*,#978,.T.);
#1163=ORIENTED_EDGE('',*,*,#618,.F.);
#1164=CARTESIAN_POINT('',(0.700000000000000,0.500000000000000,3.000000000000000));
#1165=DIRECTION('',(0.0,-1.0,0.0));
#1166=DIRECTION('',(0.0,0.0,-1.0));
#1167=AXIS2_PLACEMENT_3D('',#1164,#1165,#1166);
#1168=CIRCLE('',#1167,1.0);
#1169=EDGE_CURVE('',#1093,#602,#1168,.T.);
#1170=ORIENTED_EDGE('',*,*,#1169,.F.);
#1171=ORIENTED_EDGE('',*,*,#1148,.F.);
#1172=EDGE_LOOP('',(#1160,#1161,#1162,#1163,#1170,#1171));
#1173=FACE_OUTER_BOUND('',#1172,.T.);
#1174=ADVANCED_FACE('',(#1173),#1159,.T.);
#1175=CARTESIAN_POINT('',(0.700000000000000,1.500000000000000,3.000000000000000));
#1176=DIRECTION('',(0.0,-1.0,2.220446E-016));
#1177=DIRECTION('',(0.707106781186548,-3.140185E-016,-0.707106781186548));
#1178=AXIS2_PLACEMENT_3D('',#1175,#1176,#1177);
#1179=CYLINDRICAL_SURFACE('',#1178,1.000000000000000);
#1180=ORIENTED_EDGE('',*,*,#609,.T.);
#1181=CARTESIAN_POINT('',(0.700000000000000,-0.500000000000000,3.0));
#1182=DIRECTION('',(0.0,1.0,0.0));
#1183=DIRECTION('',(1.0,0.0,0.0));
#1184=AXIS2_PLACEMENT_3D('',#1181,#1182,#1183);
#1185=CIRCLE('',#1184,1.0);
#1186=EDGE_CURVE('',#604,#1101,#1185,.T.);
#1187=ORIENTED_EDGE('',*,*,#1186,.T.);
#1188=ORIENTED_EDGE('',*,*,#1106,.T.);
#1189=ORIENTED_EDGE('',*,*,#1169,.T.);
#1190=EDGE_LOOP('',(#1180,#1187,#1188,#1189));
#1191=FACE_OUTER_BOUND('',#1190,.T.);
#1192=ADVANCED_FACE('',(#1191),#1179,.T.);
#1193=CARTESIAN_POINT('',(0.700000000000000,-0.500000000000000,3.0));
#1194=DIRECTION('',(0.0,0.0,1.0));
#1195=DIRECTION('',(1.0,0.0,0.0));
#1196=AXIS2_PLACEMENT_3D('',#1193,#1194,#1195);
#1197=SPHERICAL_SURFACE('',#1196,1.0);
#1198=ORIENTED_EDGE('',*,*,#633,.F.);
#1199=ORIENTED_EDGE('',*,*,#1016,.T.);
#1200=ORIENTED_EDGE('',*,*,#747,.T.);
#1201=ORIENTED_EDGE('',*,*,#576,.F.);
#1202=CARTESIAN_POINT('',(0.700000000000000,-0.500000000000000,3.000000000000000));
#1203=DIRECTION('',(-1.0,0.0,0.0));
#1204=DIRECTION('',(0.0,0.0,-1.0));
#1205=AXIS2_PLACEMENT_3D('',#1202,#1203,#1204);
#1206=CIRCLE('',#1205,1.000000000000000);
#1207=EDGE_CURVE('',#1101,#560,#1206,.T.);
#1208=ORIENTED_EDGE('',*,*,#1207,.F.);
#1209=ORIENTED_EDGE('',*,*,#1186,.F.);
#1210=EDGE_LOOP('',(#1198,#1199,#1200,#1201,#1208,#1209));
#1211=FACE_OUTER_BOUND('',#1210,.T.);
#1212=ADVANCED_FACE('',(#1211),#1197,.T.);
#1213=CARTESIAN_POINT('',(0.850000000000002,-0.500000000000000,3.000000000000000));
#1214=DIRECTION('',(-1.0,-6.842278E-049,1.519291E-064));
#1215=DIRECTION('',(0.0,-0.707106781186548,-0.707106781186547));
#1216=AXIS2_PLACEMENT_3D('',#1213,#1214,#1215);
#1217=CYLINDRICAL_SURFACE('',#1216,1.0);
#1218=ORIENTED_EDGE('',*,*,#567,.T.);
#1219=ORIENTED_EDGE('',*,*,#1063,.T.);
#1220=ORIENTED_EDGE('',*,*,#1112,.T.);
#1221=ORIENTED_EDGE('',*,*,#1207,.T.);
#1222=EDGE_LOOP('',(#1218,#1219,#1220,#1221));
#1223=FACE_OUTER_BOUND('',#1222,.T.);
#1224=ADVANCED_FACE('',(#1223),#1217,.T.);
#1225=CARTESIAN_POINT('',(-8.628166E-032,1.214142842854287,7.300000000000003));
#1226=CARTESIAN_POINT('',(5.811941E-017,1.679340627573702,7.774596669241487));
#1227=CARTESIAN_POINT('',(1.331512E-016,1.421954445729291,8.387298334620745));
#1228=CARTESIAN_POINT('',(2.081831E-016,1.164568263884880,9.000000000000004));
#1229=CARTESIAN_POINT('',(2.081831E-016,0.500000000000002,9.000000000000004));
#1230=CARTESIAN_POINT('',(8.881784E-016,1.214142842854287,7.300000000000003));
#1231=CARTESIAN_POINT('',(0.474596669241484,1.679340627573702,7.774596669241486));
#1232=CARTESIAN_POINT('',(1.087298334620742,1.421954445729291,8.387298334620745));
#1233=CARTESIAN_POINT('',(1.700000000000001,1.164568263884880,9.000000000000004));
#1234=CARTESIAN_POINT('',(1.700000000000001,0.500000000000002,9.000000000000004));
#1235=CARTESIAN_POINT('',(8.881784E-016,1.214142842854287,7.300000000000003));
#1236=CARTESIAN_POINT('',(0.474596669241484,1.679340627573702,7.300000000000003));
#1237=CARTESIAN_POINT('',(1.087298334620742,1.421954445729291,7.300000000000003));
#1238=CARTESIAN_POINT('',(1.700000000000001,1.164568263884880,7.300000000000003));
#1239=CARTESIAN_POINT('',(1.700000000000001,0.500000000000002,7.300000000000003));
#1240=CARTESIAN_POINT('',(8.881784E-016,1.214142842854287,7.300000000000002));
#1241=CARTESIAN_POINT('',(0.474596669241483,1.679340627573702,6.825403330758519));
#1242=CARTESIAN_POINT('',(1.087298334620742,1.421954445729291,6.212701665379260));
#1243=CARTESIAN_POINT('',(1.700000000000001,1.164568263884880,5.600000000000001));
#1244=CARTESIAN_POINT('',(1.700000000000000,0.500000000000001,5.600000000000001));
#1245=CARTESIAN_POINT('',(8.628166E-032,1.214142842854287,7.300000000000002));
#1246=CARTESIAN_POINT('',(-5.811941E-017,1.679340627573702,6.825403330758520));
#1247=CARTESIAN_POINT('',(-1.331512E-016,1.421954445729291,6.212701665379260));
#1248=CARTESIAN_POINT('',(-2.081831E-016,1.164568263884880,5.600000000000002));
#1249=CARTESIAN_POINT('',(-2.081831E-016,0.500000000000001,5.600000000000001));
#1250=CARTESIAN_POINT('',(-8.881784E-016,1.214142842854287,7.300000000000002));
#1251=CARTESIAN_POINT('',(-0.474596669241484,1.679340627573702,6.825403330758519));
#1252=CARTESIAN_POINT('',(-1.087298334620742,1.421954445729291,6.212701665379260));
#1253=CARTESIAN_POINT('',(-1.700000000000001,1.164568263884880,5.600000000000001));
#1254=CARTESIAN_POINT('',(-1.700000000000001,0.500000000000001,5.600000000000001));
#1255=CARTESIAN_POINT('',(-8.881784E-016,1.214142842854287,7.300000000000003));
#1256=CARTESIAN_POINT('',(-0.474596669241484,1.679340627573702,7.300000000000003));
#1257=CARTESIAN_POINT('',(-1.087298334620742,1.421954445729291,7.300000000000003));
#1258=CARTESIAN_POINT('',(-1.700000000000001,1.164568263884880,7.300000000000003));
#1259=CARTESIAN_POINT('',(-1.700000000000001,0.500000000000002,7.300000000000003));
#1260=CARTESIAN_POINT('',(-8.881784E-016,1.214142842854287,7.300000000000003));
#1261=CARTESIAN_POINT('',(-0.474596669241483,1.679340627573702,7.774596669241486));
#1262=CARTESIAN_POINT('',(-1.087298334620742,1.421954445729291,8.387298334620745));
#1263=CARTESIAN_POINT('',(-1.700000000000001,1.164568263884880,9.000000000000004));
#1264=CARTESIAN_POINT('',(-1.700000000000000,0.500000000000002,9.000000000000004));
#1265=CARTESIAN_POINT('',(-8.628166E-032,1.214142842854287,7.300000000000003));
#1266=CARTESIAN_POINT('',(5.811941E-017,1.679340627573702,7.774596669241487));
#1267=CARTESIAN_POINT('',(1.331512E-016,1.421954445729291,8.387298334620745));
#1268=CARTESIAN_POINT('',(2.081831E-016,1.164568263884880,9.000000000000004));
#1269=CARTESIAN_POINT('',(2.081831E-016,0.500000000000002,9.000000000000004));
#1277=(BOUNDED_SURFACE()B_SPLINE_SURFACE(2,2,((#1225,#1230,#1235,#1240,#1245,#1250,#1255,#1260,#1265),(#1226,#1231,#1236,#1241,#1246,#1251,#1256,#1261,#1266),(#1227,#1232,#1237,#1242,#1247,#1252,#1257,#1262,#1267),(#1228,#1233,#1238,#1243,#1248,#1253,#1258,#1263,#1268),(#1229,#1234,#1239,#1244,#1249,#1254,#1259,#1264,#1269)),.UNSPECIFIED.,.F.,.T.,.U.)B_SPLINE_SURFACE_WITH_KNOTS((3,2,3),(3,2,2,2,3),(-2.346193823405650,-1.173096911702825,3.774758E-016),(0.0,1.570796326794897,3.141592653589793,4.712388980384690,6.283185307179586),.UNSPECIFIED.)GEOMETRIC_REPRESENTATION_ITEM()RATIONAL_B_SPLINE_SURFACE(((1.0,0.707106781186548,1.0,0.707106781186548,1.0,0.707106781186548,1.0,0.707106781186548,1.0),(0.832856030362013,0.588918146821088,0.832856030362013,0.588918146821088,0.832856030362013,0.588918146821088,0.832856030362013,0.588918146821088,0.832856030362013),(1.0,0.707106781186548,1.0,0.707106781186548,1.0,0.707106781186548,1.0,0.707106781186548,1.0),(0.832856030362012,0.588918146821088,0.832856030362012,0.588918146821088,0.832856030362012,0.588918146821088,0.832856030362012,0.588918146821088,0.832856030362012),(1.0,0.707106781186548,1.0,0.707106781186548,1.0,0.707106781186548,1.0,0.707106781186548,1.0)))REPRESENTATION_ITEM('')SURFACE());
#1278=ORIENTED_EDGE('',*,*,#515,.T.);
#1279=ORIENTED_EDGE('',*,*,#953,.T.);
#1280=ORIENTED_EDGE('',*,*,#804,.T.);
#1281=ORIENTED_EDGE('',*,*,#936,.T.);
#1282=ORIENTED_EDGE('',*,*,#336,.T.);
#1283=EDGE_LOOP('',(#1278,#1279,#1280,#1281,#1282));
#1284=FACE_OUTER_BOUND('',#1283,.T.);
#1285=ADVANCED_FACE('',(#1284),#1277,.T.);
#1286=CARTESIAN_POINT('',(0.0,-1.214142842854283,7.300000000000003));
#1287=CARTESIAN_POINT('',(5.811941E-017,-1.679340627573698,6.825403330758518));
#1288=CARTESIAN_POINT('',(1.331512E-016,-1.421954445729287,6.212701665379261));
#1289=CARTESIAN_POINT('',(2.081831E-016,-1.164568263884876,5.600000000000002));
#1290=CARTESIAN_POINT('',(2.081831E-016,-0.499999999999998,5.600000000000002));
#1291=CARTESIAN_POINT('',(7.596454E-065,-1.214142842854283,7.300000000000003));
#1292=CARTESIAN_POINT('',(0.474596669241484,-1.679340627573698,6.825403330758519));
#1293=CARTESIAN_POINT('',(1.087298334620741,-1.421954445729287,6.212701665379261));
#1294=CARTESIAN_POINT('',(1.700000000000000,-1.164568263884876,5.600000000000003));
#1295=CARTESIAN_POINT('',(1.700000000000000,-0.499999999999998,5.600000000000003));
#1296=CARTESIAN_POINT('',(4.886364E-049,-1.214142842854283,7.300000000000003));
#1297=CARTESIAN_POINT('',(0.474596669241484,-1.679340627573697,7.300000000000002));
#1298=CARTESIAN_POINT('',(1.087298334620741,-1.421954445729287,7.300000000000003));
#1299=CARTESIAN_POINT('',(1.700000000000000,-1.164568263884875,7.300000000000003));
#1300=CARTESIAN_POINT('',(1.700000000000000,-0.499999999999997,7.300000000000003));
#1301=CARTESIAN_POINT('',(9.772727E-049,-1.214142842854283,7.300000000000003));
#1302=CARTESIAN_POINT('',(0.474596669241483,-1.679340627573697,7.774596669241487));
#1303=CARTESIAN_POINT('',(1.087298334620741,-1.421954445729286,8.387298334620743));
#1304=CARTESIAN_POINT('',(1.700000000000000,-1.164568263884875,9.000000000000002));
#1305=CARTESIAN_POINT('',(1.699999999999999,-0.499999999999997,9.000000000000002));
#1306=CARTESIAN_POINT('',(9.772727E-049,-1.214142842854283,7.300000000000003));
#1307=CARTESIAN_POINT('',(-5.811941E-017,-1.679340627573697,7.774596669241485));
#1308=CARTESIAN_POINT('',(-1.331512E-016,-1.421954445729286,8.387298334620745));
#1309=CARTESIAN_POINT('',(-2.081831E-016,-1.164568263884875,9.000000000000004));
#1310=CARTESIAN_POINT('',(-2.081831E-016,-0.499999999999997,9.000000000000004));
#1311=CARTESIAN_POINT('',(9.772727E-049,-1.214142842854283,7.300000000000003));
#1312=CARTESIAN_POINT('',(-0.474596669241484,-1.679340627573697,7.774596669241487));
#1313=CARTESIAN_POINT('',(-1.087298334620741,-1.421954445729286,8.387298334620743));
#1314=CARTESIAN_POINT('',(-1.700000000000000,-1.164568263884875,9.000000000000002));
#1315=CARTESIAN_POINT('',(-1.700000000000000,-0.499999999999997,9.000000000000002));
#1316=CARTESIAN_POINT('',(4.886364E-049,-1.214142842854283,7.300000000000003));
#1317=CARTESIAN_POINT('',(-0.474596669241484,-1.679340627573697,7.300000000000002));
#1318=CARTESIAN_POINT('',(-1.087298334620741,-1.421954445729287,7.300000000000003));
#1319=CARTESIAN_POINT('',(-1.700000000000000,-1.164568263884875,7.300000000000003));
#1320=CARTESIAN_POINT('',(-1.700000000000000,-0.499999999999997,7.300000000000003));
#1321=CARTESIAN_POINT('',(7.596454E-065,-1.214142842854283,7.300000000000003));
#1322=CARTESIAN_POINT('',(-0.474596669241483,-1.679340627573698,6.825403330758519));
#1323=CARTESIAN_POINT('',(-1.087298334620741,-1.421954445729287,6.212701665379261));
#1324=CARTESIAN_POINT('',(-1.700000000000000,-1.164568263884876,5.600000000000003));
#1325=CARTESIAN_POINT('',(-1.699999999999999,-0.499999999999998,5.600000000000003));
#1326=CARTESIAN_POINT('',(0.0,-1.214142842854283,7.300000000000003));
#1327=CARTESIAN_POINT('',(5.811941E-017,-1.679340627573698,6.825403330758518));
#1328=CARTESIAN_POINT('',(1.331512E-016,-1.421954445729287,6.212701665379261));
#1329=CARTESIAN_POINT('',(2.081831E-016,-1.164568263884876,5.600000000000002));
#1330=CARTESIAN_POINT('',(2.081831E-016,-0.499999999999998,5.600000000000002));
#1338=(BOUNDED_SURFACE()B_SPLINE_SURFACE(2,2,((#1286,#1291,#1296,#1301,#1306,#1311,#1316,#1321,#1326),(#1287,#1292,#1297,#1302,#1307,#1312,#1317,#1322,#1327),(#1288,#1293,#1298,#1303,#1308,#1313,#1318,#1323,#1328),(#1289,#1294,#1299,#1304,#1309,#1314,#1319,#1324,#1329),(#1290,#1295,#1300,#1305,#1310,#1315,#1320,#1325,#1330)),.UNSPECIFIED.,.F.,.T.,.U.)B_SPLINE_SURFACE_WITH_KNOTS((3,2,3),(3,2,2,2,3),(-2.346193823405650,-1.173096911702825,4.440892E-016),(0.0,1.570796326794897,3.141592653589793,4.712388980384690,6.283185307179586),.UNSPECIFIED.)GEOMETRIC_REPRESENTATION_ITEM()RATIONAL_B_SPLINE_SURFACE(((1.0,0.707106781186548,1.0,0.707106781186548,1.0,0.707106781186548,1.0,0.707106781186548,1.0),(0.832856030362014,0.588918146821089,0.832856030362014,0.588918146821089,0.832856030362014,0.588918146821089,0.832856030362014,0.588918146821089,0.832856030362014),(1.0,0.707106781186548,1.0,0.707106781186548,1.0,0.707106781186548,1.0,0.707106781186548,1.0),(0.832856030362019,0.588918146821093,0.832856030362019,0.588918146821093,0.832856030362019,0.588918146821093,0.832856030362019,0.588918146821093,0.832856030362019),(1.0,0.707106781186548,1.0,0.707106781186548,1.0,0.707106781186548,1.0,0.707106781186548,1.0)))REPRESENTATION_ITEM('')SURFACE());
#1339=ORIENTED_EDGE('',*,*,#416,.T.);
#1340=ORIENTED_EDGE('',*,*,#351,.T.);
#1341=ORIENTED_EDGE('',*,*,#873,.T.);
#1342=ORIENTED_EDGE('',*,*,#857,.T.);
#1343=ORIENTED_EDGE('',*,*,#1036,.T.);
#1344=EDGE_LOOP('',(#1339,#1340,#1341,#1342,#1343));
#1345=FACE_OUTER_BOUND('',#1344,.T.);
#1346=ADVANCED_FACE('',(#1345),#1338,.T.);
#1347=CARTESIAN_POINT('',(0.0,1.500000000000002,7.300000000000003));
#1348=DIRECTION('',(0.0,-1.0,2.220446E-016));
#1349=DIRECTION('',(0.0,0.0,1.0));
#1350=AXIS2_PLACEMENT_3D('',#1347,#1348,#1349);
#1351=CYLINDRICAL_SURFACE('',#1350,1.700000000000000);
#1352=ORIENTED_EDGE('',*,*,#327,.T.);
#1353=ORIENTED_EDGE('',*,*,#450,.F.);
#1354=ORIENTED_EDGE('',*,*,#994,.F.);
#1355=ORIENTED_EDGE('',*,*,#524,.F.);
#1356=EDGE_LOOP('',(#1352,#1353,#1354,#1355));
#1357=FACE_OUTER_BOUND('',#1356,.T.);
#1358=ADVANCED_FACE('',(#1357),#1351,.T.);
#1359=CLOSED_SHELL('',(#355,#454,#553,#595,#637,#679,#721,#751,#781,#821,#861,#892,#916,#940,#959,#982,#1004,#1022,#1041,#1067,#1085,#1116,#1136,#1154,#1174,#1192,#1212,#1224,#1285,#1346,#1358));
#1360=MANIFOLD_SOLID_BREP('4A7',#1359);
#1361=STYLED_ITEM('NONE',(#211),#1360);
#1362=CARTESIAN_POINT('',(1.269999999999997,-2.873815E-014,2.499999999999998));
#1363=DIRECTION('',(0.0,0.0,-1.0));
#1364=DIRECTION('',(1.0,0.0,0.0));
#1365=AXIS2_PLACEMENT_3D('',#1362,#1363,#1364);
#1366=CYLINDRICAL_SURFACE('',#1365,0.200000000000000);
#1367=CARTESIAN_POINT('',(1.469999999999997,-2.873815E-014,2.499999999999998));
#1368=VERTEX_POINT('',#1367);
#1369=CARTESIAN_POINT('',(1.469999999999997,-2.873815E-014,-2.800000000000002));
#1370=VERTEX_POINT('',#1369);
#1371=CARTESIAN_POINT('',(1.469999999999997,-2.873815E-014,2.499999999999998));
#1372=DIRECTION('',(0.0,0.0,-1.0));
#1373=VECTOR('',#1372,5.300000000000000);
#1374=LINE('',#1371,#1373);
#1375=EDGE_CURVE('',#1368,#1370,#1374,.T.);
#1376=ORIENTED_EDGE('',*,*,#1375,.F.);
#1377=CARTESIAN_POINT('',(1.069999999999997,-2.876264E-014,2.499999999999998));
#1378=VERTEX_POINT('',#1377);
#1379=CARTESIAN_POINT('',(1.269999999999997,-2.873815E-014,2.499999999999998));
#1380=DIRECTION('',(0.0,0.0,1.0));
#1381=DIRECTION('',(1.0,0.0,0.0));
#1382=AXIS2_PLACEMENT_3D('',#1379,#1380,#1381);
#1383=CIRCLE('',#1382,0.200000000000000);
#1384=EDGE_CURVE('',#1378,#1368,#1383,.T.);
#1385=ORIENTED_EDGE('',*,*,#1384,.F.);
#1386=CARTESIAN_POINT('',(1.069999999999997,-2.876264E-014,-2.800000000000002));
#1387=VERTEX_POINT('',#1386);
#1388=CARTESIAN_POINT('',(1.069999999999997,-2.876264E-014,-2.800000000000002));
#1389=DIRECTION('',(0.0,0.0,1.0));
#1390=VECTOR('',#1389,5.300000000000000);
#1391=LINE('',#1388,#1390);
#1392=EDGE_CURVE('',#1387,#1378,#1391,.T.);
#1393=ORIENTED_EDGE('',*,*,#1392,.F.);
#1394=CARTESIAN_POINT('',(1.269999999999997,-2.873815E-014,-2.800000000000002));
#1395=DIRECTION('',(0.0,0.0,1.0));
#1396=DIRECTION('',(1.0,0.0,0.0));
#1397=AXIS2_PLACEMENT_3D('',#1394,#1395,#1396);
#1398=CIRCLE('',#1397,0.200000000000000);
#1399=EDGE_CURVE('',#1387,#1370,#1398,.T.);
#1400=ORIENTED_EDGE('',*,*,#1399,.T.);
#1401=EDGE_LOOP('',(#1376,#1385,#1393,#1400));
#1402=FACE_OUTER_BOUND('',#1401,.T.);
#1403=ADVANCED_FACE('',(#1402),#1366,.T.);
#1404=CARTESIAN_POINT('',(1.269999999999997,-2.873815E-014,2.499999999999998));
#1405=DIRECTION('',(0.0,0.0,-1.0));
#1406=DIRECTION('',(1.0,0.0,0.0));
#1407=AXIS2_PLACEMENT_3D('',#1404,#1405,#1406);
#1408=CYLINDRICAL_SURFACE('',#1407,0.200000000000000);
#1409=ORIENTED_EDGE('',*,*,#1375,.T.);
#1410=CARTESIAN_POINT('',(1.269999999999997,-2.873815E-014,-2.800000000000002));
#1411=DIRECTION('',(0.0,0.0,1.0));
#1412=DIRECTION('',(1.0,0.0,0.0));
#1413=AXIS2_PLACEMENT_3D('',#1410,#1411,#1412);
#1414=CIRCLE('',#1413,0.200000000000000);
#1415=EDGE_CURVE('',#1370,#1387,#1414,.T.);
#1416=ORIENTED_EDGE('',*,*,#1415,.T.);
#1417=ORIENTED_EDGE('',*,*,#1392,.T.);
#1418=CARTESIAN_POINT('',(1.269999999999997,-2.873815E-014,2.499999999999998));
#1419=DIRECTION('',(0.0,0.0,1.0));
#1420=DIRECTION('',(1.0,0.0,0.0));
#1421=AXIS2_PLACEMENT_3D('',#1418,#1419,#1420);
#1422=CIRCLE('',#1421,0.200000000000000);
#1423=EDGE_CURVE('',#1368,#1378,#1422,.T.);
#1424=ORIENTED_EDGE('',*,*,#1423,.F.);
#1425=EDGE_LOOP('',(#1409,#1416,#1417,#1424));
#1426=FACE_OUTER_BOUND('',#1425,.T.);
#1427=ADVANCED_FACE('',(#1426),#1408,.T.);
#1428=CARTESIAN_POINT('',(1.269999999999997,-2.873815E-014,-2.800000000000002));
#1429=DIRECTION('',(0.0,0.0,1.0));
#1430=DIRECTION('',(1.0,0.0,0.0));
#1431=AXIS2_PLACEMENT_3D('',#1428,#1429,#1430);
#1432=PLANE('',#1431);
#1433=ORIENTED_EDGE('',*,*,#1415,.F.);
#1434=ORIENTED_EDGE('',*,*,#1399,.F.);
#1435=EDGE_LOOP('',(#1433,#1434));
#1436=FACE_OUTER_BOUND('',#1435,.T.);
#1437=ADVANCED_FACE('',(#1436),#1432,.F.);
#1438=CARTESIAN_POINT('',(1.269999999999997,-2.873815E-014,2.499999999999998));
#1439=DIRECTION('',(0.0,0.0,1.0));
#1440=DIRECTION('',(1.0,0.0,0.0));
#1441=AXIS2_PLACEMENT_3D('',#1438,#1439,#1440);
#1442=PLANE('',#1441);
#1443=ORIENTED_EDGE('',*,*,#1423,.T.);
#1444=ORIENTED_EDGE('',*,*,#1384,.T.);
#1445=EDGE_LOOP('',(#1443,#1444));
#1446=FACE_OUTER_BOUND('',#1445,.T.);
#1447=ADVANCED_FACE('',(#1446),#1442,.T.);
#1448=CLOSED_SHELL('',(#1403,#1427,#1437,#1447));
#1449=MANIFOLD_SOLID_BREP('440',#1448);
#1450=COLOUR_RGB('254',0.866000000000000,0.866000000000000,0.866000000000000);
#1451=SURFACE_STYLE_USAGE(.BOTH.,#1452);
#1452=SURFACE_SIDE_STYLE('NONE',(#1453));
#1453=SURFACE_STYLE_FILL_AREA(#1454);
#1454=FILL_AREA_STYLE('NONE',(#1455));
#1455=FILL_AREA_STYLE_COLOUR('NONE',#1450);
#1456=PRESENTATION_STYLE_ASSIGNMENT((#1451));
#1457=STYLED_ITEM('NONE',(#1456),#1449);
#1458=CARTESIAN_POINT('',(-1.269999999999996,3.673176E-014,2.499999999999998));
#1459=DIRECTION('',(0.0,0.0,-1.0));
#1460=DIRECTION('',(1.0,0.0,0.0));
#1461=AXIS2_PLACEMENT_3D('',#1458,#1459,#1460);
#1462=CYLINDRICAL_SURFACE('',#1461,0.200000000000000);
#1463=CARTESIAN_POINT('',(-1.069999999999996,3.673176E-014,2.499999999999998));
#1464=VERTEX_POINT('',#1463);
#1465=CARTESIAN_POINT('',(-1.069999999999996,3.673176E-014,-2.800000000000002));
#1466=VERTEX_POINT('',#1465);
#1467=CARTESIAN_POINT('',(-1.069999999999996,3.673176E-014,2.499999999999998));
#1468=DIRECTION('',(0.0,0.0,-1.0));
#1469=VECTOR('',#1468,5.300000000000000);
#1470=LINE('',#1467,#1469);
#1471=EDGE_CURVE('',#1464,#1466,#1470,.T.);
#1472=ORIENTED_EDGE('',*,*,#1471,.F.);
#1473=CARTESIAN_POINT('',(-1.469999999999996,3.670727E-014,2.499999999999998));
#1474=VERTEX_POINT('',#1473);
#1475=CARTESIAN_POINT('',(-1.269999999999996,3.673176E-014,2.499999999999998));
#1476=DIRECTION('',(0.0,0.0,1.0));
#1477=DIRECTION('',(1.0,0.0,0.0));
#1478=AXIS2_PLACEMENT_3D('',#1475,#1476,#1477);
#1479=CIRCLE('',#1478,0.200000000000000);
#1480=EDGE_CURVE('',#1474,#1464,#1479,.T.);
#1481=ORIENTED_EDGE('',*,*,#1480,.F.);
#1482=CARTESIAN_POINT('',(-1.469999999999996,3.670727E-014,-2.800000000000002));
#1483=VERTEX_POINT('',#1482);
#1484=CARTESIAN_POINT('',(-1.469999999999996,3.670727E-014,-2.800000000000002));
#1485=DIRECTION('',(0.0,0.0,1.0));
#1486=VECTOR('',#1485,5.300000000000000);
#1487=LINE('',#1484,#1486);
#1488=EDGE_CURVE('',#1483,#1474,#1487,.T.);
#1489=ORIENTED_EDGE('',*,*,#1488,.F.);
#1490=CARTESIAN_POINT('',(-1.269999999999996,3.673176E-014,-2.800000000000002));
#1491=DIRECTION('',(0.0,0.0,1.0));
#1492=DIRECTION('',(1.0,0.0,0.0));
#1493=AXIS2_PLACEMENT_3D('',#1490,#1491,#1492);
#1494=CIRCLE('',#1493,0.200000000000000);
#1495=EDGE_CURVE('',#1483,#1466,#1494,.T.);
#1496=ORIENTED_EDGE('',*,*,#1495,.T.);
#1497=EDGE_LOOP('',(#1472,#1481,#1489,#1496));
#1498=FACE_OUTER_BOUND('',#1497,.T.);
#1499=ADVANCED_FACE('',(#1498),#1462,.T.);
#1500=CARTESIAN_POINT('',(-1.269999999999996,3.673176E-014,2.499999999999998));
#1501=DIRECTION('',(0.0,0.0,-1.0));
#1502=DIRECTION('',(1.0,0.0,0.0));
#1503=AXIS2_PLACEMENT_3D('',#1500,#1501,#1502);
#1504=CYLINDRICAL_SURFACE('',#1503,0.200000000000000);
#1505=ORIENTED_EDGE('',*,*,#1471,.T.);
#1506=CARTESIAN_POINT('',(-1.269999999999996,3.673176E-014,-2.800000000000002));
#1507=DIRECTION('',(0.0,0.0,1.0));
#1508=DIRECTION('',(1.0,0.0,0.0));
#1509=AXIS2_PLACEMENT_3D('',#1506,#1507,#1508);
#1510=CIRCLE('',#1509,0.200000000000000);
#1511=EDGE_CURVE('',#1466,#1483,#1510,.T.);
#1512=ORIENTED_EDGE('',*,*,#1511,.T.);
#1513=ORIENTED_EDGE('',*,*,#1488,.T.);
#1514=CARTESIAN_POINT('',(-1.269999999999996,3.673176E-014,2.499999999999998));
#1515=DIRECTION('',(0.0,0.0,1.0));
#1516=DIRECTION('',(1.0,0.0,0.0));
#1517=AXIS2_PLACEMENT_3D('',#1514,#1515,#1516);
#1518=CIRCLE('',#1517,0.200000000000000);
#1519=EDGE_CURVE('',#1464,#1474,#1518,.T.);
#1520=ORIENTED_EDGE('',*,*,#1519,.F.);
#1521=EDGE_LOOP('',(#1505,#1512,#1513,#1520));
#1522=FACE_OUTER_BOUND('',#1521,.T.);
#1523=ADVANCED_FACE('',(#1522),#1504,.T.);
#1524=CARTESIAN_POINT('',(-1.269999999999996,3.673176E-014,-2.800000000000002));
#1525=DIRECTION('',(0.0,0.0,1.0));
#1526=DIRECTION('',(1.0,0.0,0.0));
#1527=AXIS2_PLACEMENT_3D('',#1524,#1525,#1526);
#1528=PLANE('',#1527);
#1529=ORIENTED_EDGE('',*,*,#1511,.F.);
#1530=ORIENTED_EDGE('',*,*,#1495,.F.);
#1531=EDGE_LOOP('',(#1529,#1530));
#1532=FACE_OUTER_BOUND('',#1531,.T.);
#1533=ADVANCED_FACE('',(#1532),#1528,.F.);
#1534=CARTESIAN_POINT('',(-1.269999999999996,3.673176E-014,2.499999999999998));
#1535=DIRECTION('',(0.0,0.0,1.0));
#1536=DIRECTION('',(1.0,0.0,0.0));
#1537=AXIS2_PLACEMENT_3D('',#1534,#1535,#1536);
#1538=PLANE('',#1537);
#1539=ORIENTED_EDGE('',*,*,#1519,.T.);
#1540=ORIENTED_EDGE('',*,*,#1480,.T.);
#1541=EDGE_LOOP('',(#1539,#1540));
#1542=FACE_OUTER_BOUND('',#1541,.T.);
#1543=ADVANCED_FACE('',(#1542),#1538,.T.);
#1544=CLOSED_SHELL('',(#1499,#1523,#1533,#1543));
#1545=MANIFOLD_SOLID_BREP('43F',#1544);
#1546=STYLED_ITEM('NONE',(#1456),#1545);
#1547=ADVANCED_BREP_SHAPE_REPRESENTATION('ABSR1',(#204,#312,#1360,#1449,#1545),#28);
#1548=SHAPE_REPRESENTATION_RELATIONSHIP('SRRPL1','',#1547,#62);
ENDSEC;
END-ISO-10303-21;
