ISO-10303-21;
HEADER;
/****************************************************************
 * Generated by software with PDElib inside                    *
 * PDElib Version v51a, created Fri 09/10/2010                  *
 * ITI Transcendata (http://www.transcendata.com/)              *
 ****************************************************************/
FILE_DESCRIPTION((''),'2;1');
FILE_NAME('TO-220-2-HFLIP.stp','2012-06-13T09:43:34',(''),(''),'Mechanical Desktop 2011','Mechanical Desktop 2011',', , ');
FILE_SCHEMA(('AUTOMOTIVE_DESIGN { 1 2 10303 214 1 1 1 1 }'));
ENDSEC;
DATA;
#10=(NAMED_UNIT(*)PLANE_ANGLE_UNIT()SI_UNIT($,.RADIAN.));
#11=DIMENSIONAL_EXPONENTS(0.0,0.0,0.0,0.0,0.0,0.0,0.0);
#12=PLANE_ANGLE_MEASURE_WITH_UNIT(PLANE_ANGLE_MEASURE(0.0174532925),#10);
#16=(CONVERSION_BASED_UNIT('DEGREE',#12)NAMED_UNIT(#11)PLANE_ANGLE_UNIT());
#20=(NAMED_UNIT(*)SI_UNIT($,.STERADIAN.)SOLID_ANGLE_UNIT());
#24=(LENGTH_UNIT()NAMED_UNIT(*)SI_UNIT(.MILLI.,.METRE.));
#26=UNCERTAINTY_MEASURE_WITH_UNIT(LENGTH_MEASURE(0.000001),#24,'DISTANCE_ACCURACY_VALUE','');
#28=(GEOMETRIC_REPRESENTATION_CONTEXT(3)GLOBAL_UNCERTAINTY_ASSIGNED_CONTEXT((#26))GLOBAL_UNIT_ASSIGNED_CONTEXT((#16,#20,#24))REPRESENTATION_CONTEXT('','3D'));
#29=APPLICATION_CONTEXT('automotive design');
#30=APPLICATION_PROTOCOL_DEFINITION('INTERNATIONAL_STANDARD','automotive_design',1998,#29);
#31=PRODUCT_CONTEXT('3D Mechanical Parts',#29,'mechanical');
#32=PRODUCT('Product','Product','',(#31));
#33=PRODUCT_RELATED_PRODUCT_CATEGORY('part',$,(#32));
#34=PRODUCT_CATEGORY('part',$);
#35=PERSON('1','Design','Joe',$,$,$);
#36=ORGANIZATION($,'None','None');
#37=PERSON_AND_ORGANIZATION(#35,#36);
#38=PERSON_AND_ORGANIZATION_ROLE('design_owner');
#39=APPLIED_PERSON_AND_ORGANIZATION_ASSIGNMENT(#37,#38,(#32));
#40=PRODUCT_DEFINITION_FORMATION_WITH_SPECIFIED_SOURCE('None','',#32,.BOUGHT.);
#41=PERSON('2','Creator','Joe',$,$,$);
#42=ORGANIZATION($,'None','None');
#43=PERSON_AND_ORGANIZATION(#41,#42);
#44=PERSON_AND_ORGANIZATION_ROLE('creator');
#45=APPLIED_PERSON_AND_ORGANIZATION_ASSIGNMENT(#43,#44,(#40));
#46=PERSON('3','Supplier','Joe',$,$,$);
#47=ORGANIZATION($,'None','None');
#48=PERSON_AND_ORGANIZATION(#46,#47);
#49=PERSON_AND_ORGANIZATION_ROLE('design_supplier');
#50=APPLIED_PERSON_AND_ORGANIZATION_ASSIGNMENT(#48,#49,(#40));
#51=PRODUCT_DEFINITION_CONTEXT('part definition',#29,'design');
#52=PRODUCT_DEFINITION('None','',#40,#51);
#53=PERSON('4','Creator','Joe',$,$,$);
#54=ORGANIZATION($,'None','None');
#55=PERSON_AND_ORGANIZATION(#53,#54);
#56=PERSON_AND_ORGANIZATION_ROLE('creator');
#57=APPLIED_PERSON_AND_ORGANIZATION_ASSIGNMENT(#55,#56,(#52));
#58=CARTESIAN_POINT('NONE',(0.0,0.0,0.0));
#59=DIRECTION('NONE',(0.0,0.0,1.0));
#60=DIRECTION('NONE',(1.0,0.0,0.0));
#61=AXIS2_PLACEMENT_3D('NONE',#58,#59,#60);
#62=SHAPE_REPRESENTATION('SR1',(#61),#28);
#63=PRODUCT_DEFINITION_SHAPE('PDS1','Test Part',#52);
#64=SHAPE_DEFINITION_REPRESENTATION(#63,#62);
#65=CARTESIAN_POINT('',(-1.840000000000014,3.999999999999903,2.030000000000014));
#66=DIRECTION('',(-0.92847669088526,0.0,-0.371390676354102));
#67=VECTOR('',#66,1.507846145997666);
#68=LINE('',#65,#67);
#69=CARTESIAN_POINT('',(-3.240000000000021,3.999999999999903,1.470000000000015));
#70=TRIMMED_CURVE('1D1',#68,(PARAMETER_VALUE(0.0),#65),(PARAMETER_VALUE(1.0),#69),.T.,.PARAMETER.);
#71=DRAUGHTING_PRE_DEFINED_COLOUR('white');
#72=CURVE_STYLE('NONE',#73,POSITIVE_LENGTH_MEASURE(0.2),#71);
#73=DRAUGHTING_PRE_DEFINED_CURVE_FONT('continuous');
#74=PRESENTATION_STYLE_ASSIGNMENT((#72));
#75=STYLED_ITEM('NONE',(#74),#70);
#76=MECHANICAL_DESIGN_GEOMETRIC_PRESENTATION_REPRESENTATION('NONE',(#75,#84,#343,#494,#645,#897,#1048,#1405,#1874),#28);
#77=PRESENTATION_LAYER_ASSIGNMENT('0','None',(#70,#83,#335,#493,#644,#896,#1047,#1404,#1866));
#78=CARTESIAN_POINT('',(3.239999999999998,3.999999999999908,2.030000000000017));
#79=DIRECTION('',(-0.92847669088526,0.0,-0.371390676354103));
#80=VECTOR('',#79,1.507846145997666);
#81=LINE('',#78,#80);
#82=CARTESIAN_POINT('',(1.839999999999992,3.999999999999908,1.470000000000017));
#83=TRIMMED_CURVE('1D0',#81,(PARAMETER_VALUE(0.0),#78),(PARAMETER_VALUE(1.0),#82),.T.,.PARAMETER.);
#84=STYLED_ITEM('NONE',(#74),#83);
#85=CARTESIAN_POINT('',(-2.305000000000035,0.019999999999995,1.730000000000015));
#86=DIRECTION('',(1.0,-8.498248E-016,4.212045E-016));
#87=DIRECTION('',(4.330209E-017,-0.707106781186553,0.707106781186542));
#88=AXIS2_PLACEMENT_3D('',#85,#86,#87);
#89=CYLINDRICAL_SURFACE('',#88,0.3);
#90=CARTESIAN_POINT('',(-2.070000000000038,-0.280000000000006,1.730000000000015));
#91=VERTEX_POINT('',#90);
#92=CARTESIAN_POINT('',(-2.070000000000026,0.019999999999995,2.030000000000014));
#93=VERTEX_POINT('',#92);
#94=CARTESIAN_POINT('',(-2.070000000000046,0.019999999999995,1.730000000000015));
#95=DIRECTION('',(-1.0,-3.061920E-017,3.061920E-017));
#96=DIRECTION('',(4.330209E-017,-0.707106781186553,0.707106781186542));
#97=AXIS2_PLACEMENT_3D('',#94,#95,#96);
#98=CIRCLE('',#97,0.3);
#99=EDGE_CURVE('',#91,#93,#98,.T.);
#100=ORIENTED_EDGE('',*,*,#99,.T.);
#101=CARTESIAN_POINT('',(-3.010000000000024,0.019999999999995,2.030000000000014));
#102=VERTEX_POINT('',#101);
#103=CARTESIAN_POINT('',(-2.070000000000026,0.019999999999995,2.030000000000014));
#104=DIRECTION('',(-1.0,0.0,0.0));
#105=VECTOR('',#104,0.939999999999998);
#106=LINE('',#103,#105);
#107=EDGE_CURVE('',#93,#102,#106,.T.);
#108=ORIENTED_EDGE('',*,*,#107,.T.);
#109=CARTESIAN_POINT('',(-3.01000000000003,-0.280000000000002,1.730000000000014));
#110=VERTEX_POINT('',#109);
#111=CARTESIAN_POINT('',(-3.01000000000003,0.019999999999995,1.730000000000014));
#112=DIRECTION('',(1.0,3.061920E-017,-3.061920E-017));
#113=DIRECTION('',(4.330209E-017,-0.707106781186553,0.707106781186542));
#114=AXIS2_PLACEMENT_3D('',#111,#112,#113);
#115=CIRCLE('',#114,0.3);
#116=EDGE_CURVE('',#102,#110,#115,.T.);
#117=ORIENTED_EDGE('',*,*,#116,.T.);
#118=CARTESIAN_POINT('',(-3.01000000000003,-0.280000000000005,1.730000000000014));
#119=DIRECTION('',(1.0,0.0,0.0));
#120=VECTOR('',#119,0.939999999999992);
#121=LINE('',#118,#120);
#122=EDGE_CURVE('',#110,#91,#121,.T.);
#123=ORIENTED_EDGE('',*,*,#122,.T.);
#124=EDGE_LOOP('',(#100,#108,#117,#123));
#125=FACE_OUTER_BOUND('',#124,.T.);
#126=ADVANCED_FACE('',(#125),#89,.T.);
#127=CARTESIAN_POINT('',(-2.070000000000026,-0.280000000000013,2.030000000000014));
#128=DIRECTION('',(0.0,0.0,1.0));
#129=DIRECTION('',(0.0,-1.0,0.0));
#130=AXIS2_PLACEMENT_3D('',#127,#128,#129);
#131=PLANE('',#130);
#132=ORIENTED_EDGE('',*,*,#107,.F.);
#133=CARTESIAN_POINT('',(-2.070000000000025,0.279999999999989,2.030000000000014));
#134=VERTEX_POINT('',#133);
#135=CARTESIAN_POINT('',(-2.070000000000026,0.019999999999995,2.030000000000014));
#136=DIRECTION('',(0.0,1.0,0.0));
#137=VECTOR('',#136,0.259999999999994);
#138=LINE('',#135,#137);
#139=EDGE_CURVE('',#93,#134,#138,.T.);
#140=ORIENTED_EDGE('',*,*,#139,.T.);
#141=CARTESIAN_POINT('',(-3.010000000000023,0.27999999999999,2.030000000000015));
#142=VERTEX_POINT('',#141);
#143=CARTESIAN_POINT('',(-2.070000000000025,0.279999999999989,2.030000000000015));
#144=DIRECTION('',(-1.0,0.0,0.0));
#145=VECTOR('',#144,0.939999999999998);
#146=LINE('',#143,#145);
#147=EDGE_CURVE('',#134,#142,#146,.T.);
#148=ORIENTED_EDGE('',*,*,#147,.T.);
#149=CARTESIAN_POINT('',(-3.010000000000023,0.019999999999995,2.030000000000014));
#150=DIRECTION('',(0.0,1.0,0.0));
#151=VECTOR('',#150,0.259999999999994);
#152=LINE('',#149,#151);
#153=EDGE_CURVE('',#102,#142,#152,.T.);
#154=ORIENTED_EDGE('',*,*,#153,.F.);
#155=EDGE_LOOP('',(#132,#140,#148,#154));
#156=FACE_OUTER_BOUND('',#155,.T.);
#157=ADVANCED_FACE('',(#156),#131,.T.);
#158=CARTESIAN_POINT('',(-2.070000000000044,-0.280000000000006,-3.900000000000016));
#159=DIRECTION('',(1.0,0.0,0.0));
#160=DIRECTION('',(0.0,-1.0,0.0));
#161=AXIS2_PLACEMENT_3D('',#158,#159,#160);
#162=PLANE('',#161);
#163=ORIENTED_EDGE('',*,*,#99,.F.);
#164=CARTESIAN_POINT('',(-2.070000000000044,-0.280000000000006,-3.900000000000016));
#165=VERTEX_POINT('',#164);
#166=CARTESIAN_POINT('',(-2.070000000000038,-0.280000000000005,1.730000000000014));
#167=DIRECTION('',(0.0,0.0,-1.0));
#168=VECTOR('',#167,5.630000000000031);
#169=LINE('',#166,#168);
#170=EDGE_CURVE('',#91,#165,#169,.T.);
#171=ORIENTED_EDGE('',*,*,#170,.T.);
#172=CARTESIAN_POINT('',(-2.070000000000043,0.279999999999996,-3.900000000000016));
#173=VERTEX_POINT('',#172);
#174=CARTESIAN_POINT('',(-2.070000000000044,-0.280000000000006,-3.900000000000016));
#175=DIRECTION('',(0.0,1.0,0.0));
#176=VECTOR('',#175,0.560000000000002);
#177=LINE('',#174,#176);
#178=EDGE_CURVE('',#165,#173,#177,.T.);
#179=ORIENTED_EDGE('',*,*,#178,.T.);
#180=CARTESIAN_POINT('',(-2.070000000000043,0.279999999999998,-3.900000000000016));
#181=DIRECTION('',(0.0,0.0,1.0));
#182=VECTOR('',#181,5.93000000000003);
#183=LINE('',#180,#182);
#184=EDGE_CURVE('',#173,#134,#183,.T.);
#185=ORIENTED_EDGE('',*,*,#184,.T.);
#186=ORIENTED_EDGE('',*,*,#139,.F.);
#187=EDGE_LOOP('',(#163,#171,#179,#185,#186));
#188=FACE_OUTER_BOUND('',#187,.T.);
#189=ADVANCED_FACE('',(#188),#162,.T.);
#190=CARTESIAN_POINT('',(-2.540000000000044,-0.280000000000006,0.457019685938647));
#191=DIRECTION('',(0.0,-1.0,0.0));
#192=DIRECTION('',(0.0,0.0,-1.0));
#193=AXIS2_PLACEMENT_3D('',#190,#191,#192);
#194=PLANE('',#193);
#195=ORIENTED_EDGE('',*,*,#122,.F.);
#196=CARTESIAN_POINT('',(-3.010000000000027,-0.280000000000002,-3.900000000000016));
#197=VERTEX_POINT('',#196);
#198=CARTESIAN_POINT('',(-3.010000000000027,-0.280000000000002,-3.900000000000016));
#199=DIRECTION('',(0.0,0.0,1.0));
#200=VECTOR('',#199,5.63000000000003);
#201=LINE('',#198,#200);
#202=EDGE_CURVE('',#197,#110,#201,.T.);
#203=ORIENTED_EDGE('',*,*,#202,.F.);
#204=CARTESIAN_POINT('',(-2.740000000000031,-0.280000000000002,-4.699999999999971));
#205=VERTEX_POINT('',#204);
#206=CARTESIAN_POINT('',(-2.740000000000031,-0.280000000000002,-4.699999999999971));
#207=DIRECTION('',(-0.319778644158192,6.574548E-017,0.947492278987195));
#208=VECTOR('',#207,0.844334057112424);
#209=LINE('',#206,#208);
#210=EDGE_CURVE('',#205,#197,#209,.T.);
#211=ORIENTED_EDGE('',*,*,#210,.F.);
#212=CARTESIAN_POINT('',(-2.340000000000025,-0.280000000000006,-4.699999999999971));
#213=VERTEX_POINT('',#212);
#214=CARTESIAN_POINT('',(-2.340000000000025,-0.280000000000006,-4.699999999999971));
#215=DIRECTION('',(-1.0,0.0,0.0));
#216=VECTOR('',#215,0.400000000000006);
#217=LINE('',#214,#216);
#218=EDGE_CURVE('',#213,#205,#217,.T.);
#219=ORIENTED_EDGE('',*,*,#218,.F.);
#220=CARTESIAN_POINT('',(-2.070000000000044,-0.280000000000006,-3.900000000000016));
#221=DIRECTION('',(-0.319778644158176,4.602184E-016,-0.9474922789872));
#222=VECTOR('',#221,0.844334057112419);
#223=LINE('',#220,#222);
#224=EDGE_CURVE('',#165,#213,#223,.T.);
#225=ORIENTED_EDGE('',*,*,#224,.F.);
#226=ORIENTED_EDGE('',*,*,#170,.F.);
#227=EDGE_LOOP('',(#195,#203,#211,#219,#225,#226));
#228=FACE_OUTER_BOUND('',#227,.T.);
#229=ADVANCED_FACE('',(#228),#194,.T.);
#230=CARTESIAN_POINT('',(-3.010000000000031,-0.280000000000006,5.400000000000048));
#231=DIRECTION('',(-1.0,0.0,0.0));
#232=DIRECTION('',(0.0,1.0,0.0));
#233=AXIS2_PLACEMENT_3D('',#230,#231,#232);
#234=PLANE('',#233);
#235=ORIENTED_EDGE('',*,*,#116,.F.);
#236=ORIENTED_EDGE('',*,*,#153,.T.);
#237=CARTESIAN_POINT('',(-3.010000000000026,0.28,-3.900000000000016));
#238=VERTEX_POINT('',#237);
#239=CARTESIAN_POINT('',(-3.010000000000029,0.279999999999999,2.030000000000014));
#240=DIRECTION('',(0.0,0.0,-1.0));
#241=VECTOR('',#240,5.93000000000003);
#242=LINE('',#239,#241);
#243=EDGE_CURVE('',#142,#238,#242,.T.);
#244=ORIENTED_EDGE('',*,*,#243,.T.);
#245=CARTESIAN_POINT('',(-3.010000000000027,-0.280000000000002,-3.900000000000016));
#246=DIRECTION('',(0.0,1.0,0.0));
#247=VECTOR('',#246,0.560000000000002);
#248=LINE('',#245,#247);
#249=EDGE_CURVE('',#197,#238,#248,.T.);
#250=ORIENTED_EDGE('',*,*,#249,.F.);
#251=ORIENTED_EDGE('',*,*,#202,.T.);
#252=EDGE_LOOP('',(#235,#236,#244,#250,#251));
#253=FACE_OUTER_BOUND('',#252,.T.);
#254=ADVANCED_FACE('',(#253),#234,.T.);
#255=CARTESIAN_POINT('',(-2.540000000000044,0.279999999999997,0.457019685938647));
#256=DIRECTION('',(0.0,-1.0,0.0));
#257=DIRECTION('',(0.0,0.0,-1.0));
#258=AXIS2_PLACEMENT_3D('',#255,#256,#257);
#259=PLANE('',#258);
#260=CARTESIAN_POINT('',(-2.74000000000003,0.28,-4.699999999999971));
#261=VERTEX_POINT('',#260);
#262=CARTESIAN_POINT('',(-2.340000000000024,0.279999999999997,-4.699999999999971));
#263=VERTEX_POINT('',#262);
#264=CARTESIAN_POINT('',(-2.74000000000003,0.279999999999997,-4.699999999999971));
#265=DIRECTION('',(1.0,0.0,0.0));
#266=VECTOR('',#265,0.400000000000006);
#267=LINE('',#264,#266);
#268=EDGE_CURVE('',#261,#263,#267,.T.);
#269=ORIENTED_EDGE('',*,*,#268,.F.);
#270=CARTESIAN_POINT('',(-3.010000000000026,0.28,-3.900000000000016));
#271=DIRECTION('',(0.319778644158192,-6.574548E-017,-0.947492278987195));
#272=VECTOR('',#271,0.844334057112424);
#273=LINE('',#270,#272);
#274=EDGE_CURVE('',#238,#261,#273,.T.);
#275=ORIENTED_EDGE('',*,*,#274,.F.);
#276=ORIENTED_EDGE('',*,*,#243,.F.);
#277=ORIENTED_EDGE('',*,*,#147,.F.);
#278=ORIENTED_EDGE('',*,*,#184,.F.);
#279=CARTESIAN_POINT('',(-2.340000000000024,0.279999999999997,-4.699999999999971));
#280=DIRECTION('',(0.319778644158176,-4.602184E-016,0.9474922789872));
#281=VECTOR('',#280,0.844334057112419);
#282=LINE('',#279,#281);
#283=EDGE_CURVE('',#263,#173,#282,.T.);
#284=ORIENTED_EDGE('',*,*,#283,.F.);
#285=EDGE_LOOP('',(#269,#275,#276,#277,#278,#284));
#286=FACE_OUTER_BOUND('',#285,.T.);
#287=ADVANCED_FACE('',(#286),#259,.F.);
#288=CARTESIAN_POINT('',(-2.740000000000031,-0.280000000000002,-4.699999999999971));
#289=DIRECTION('',(0.0,0.0,-1.0));
#290=DIRECTION('',(0.0,1.0,0.0));
#291=AXIS2_PLACEMENT_3D('',#288,#289,#290);
#292=PLANE('',#291);
#293=ORIENTED_EDGE('',*,*,#268,.T.);
#294=CARTESIAN_POINT('',(-2.340000000000025,-0.280000000000006,-4.699999999999971));
#295=DIRECTION('',(0.0,1.0,0.0));
#296=VECTOR('',#295,0.560000000000002);
#297=LINE('',#294,#296);
#298=EDGE_CURVE('',#213,#263,#297,.T.);
#299=ORIENTED_EDGE('',*,*,#298,.F.);
#300=ORIENTED_EDGE('',*,*,#218,.T.);
#301=CARTESIAN_POINT('',(-2.740000000000031,-0.280000000000002,-4.699999999999971));
#302=DIRECTION('',(0.0,1.0,0.0));
#303=VECTOR('',#302,0.560000000000002);
#304=LINE('',#301,#303);
#305=EDGE_CURVE('',#205,#261,#304,.T.);
#306=ORIENTED_EDGE('',*,*,#305,.T.);
#307=EDGE_LOOP('',(#293,#299,#300,#306));
#308=FACE_OUTER_BOUND('',#307,.T.);
#309=ADVANCED_FACE('',(#308),#292,.T.);
#310=CARTESIAN_POINT('',(-2.340000000000025,-0.280000000000006,-4.699999999999971));
#311=DIRECTION('',(0.9474922789872,-7.464620E-016,-0.319778644158176));
#312=DIRECTION('',(0.0,-1.0,0.0));
#313=AXIS2_PLACEMENT_3D('',#310,#311,#312);
#314=PLANE('',#313);
#315=ORIENTED_EDGE('',*,*,#283,.T.);
#316=ORIENTED_EDGE('',*,*,#178,.F.);
#317=ORIENTED_EDGE('',*,*,#224,.T.);
#318=ORIENTED_EDGE('',*,*,#298,.T.);
#319=EDGE_LOOP('',(#315,#316,#317,#318));
#320=FACE_OUTER_BOUND('',#319,.T.);
#321=ADVANCED_FACE('',(#320),#314,.T.);
#322=CARTESIAN_POINT('',(-3.010000000000027,-0.280000000000002,-3.900000000000016));
#323=DIRECTION('',(-0.947492278987195,8.639428E-016,-0.319778644158192));
#324=DIRECTION('',(0.0,1.0,0.0));
#325=AXIS2_PLACEMENT_3D('',#322,#323,#324);
#326=PLANE('',#325);
#327=ORIENTED_EDGE('',*,*,#274,.T.);
#328=ORIENTED_EDGE('',*,*,#305,.F.);
#329=ORIENTED_EDGE('',*,*,#210,.T.);
#330=ORIENTED_EDGE('',*,*,#249,.T.);
#331=EDGE_LOOP('',(#327,#328,#329,#330));
#332=FACE_OUTER_BOUND('',#331,.T.);
#333=ADVANCED_FACE('',(#332),#326,.T.);
#334=CLOSED_SHELL('',(#126,#157,#189,#229,#254,#287,#309,#321,#333));
#335=MANIFOLD_SOLID_BREP('158',#334);
#336=COLOUR_RGB('254',0.866,0.866,0.866);
#337=SURFACE_STYLE_USAGE(.BOTH.,#338);
#338=SURFACE_SIDE_STYLE('NONE',(#339));
#339=SURFACE_STYLE_FILL_AREA(#340);
#340=FILL_AREA_STYLE('NONE',(#341));
#341=FILL_AREA_STYLE_COLOUR('NONE',#336);
#342=PRESENTATION_STYLE_ASSIGNMENT((#337));
#343=STYLED_ITEM('NONE',(#342),#335);
#344=CARTESIAN_POINT('',(-3.240000000000021,3.999999999999903,2.030000000000015));
#345=DIRECTION('',(-1.0,0.0,0.0));
#346=DIRECTION('',(0.0,0.0,-1.0));
#347=AXIS2_PLACEMENT_3D('',#344,#345,#346);
#348=PLANE('',#347);
#349=CARTESIAN_POINT('',(-3.240000000000021,3.999999999999903,1.470000000000015));
#350=VERTEX_POINT('',#349);
#351=CARTESIAN_POINT('',(-3.240000000000022,0.279999999999961,1.470000000000015));
#352=VERTEX_POINT('',#351);
#353=CARTESIAN_POINT('',(-3.240000000000021,3.999999999999903,1.470000000000015));
#354=DIRECTION('',(0.0,-1.0,0.0));
#355=VECTOR('',#354,3.719999999999942);
#356=LINE('',#353,#355);
#357=EDGE_CURVE('',#350,#352,#356,.T.);
#358=ORIENTED_EDGE('',*,*,#357,.T.);
#359=CARTESIAN_POINT('',(-3.240000000000021,0.279999999999961,2.030000000000015));
#360=VERTEX_POINT('',#359);
#361=CARTESIAN_POINT('',(-3.240000000000021,0.279999999999961,2.030000000000015));
#362=DIRECTION('',(0.0,0.0,-1.0));
#363=VECTOR('',#362,0.56);
#364=LINE('',#361,#363);
#365=EDGE_CURVE('',#360,#352,#364,.T.);
#366=ORIENTED_EDGE('',*,*,#365,.F.);
#367=CARTESIAN_POINT('',(-3.240000000000021,3.999999999999903,2.030000000000015));
#368=VERTEX_POINT('',#367);
#369=CARTESIAN_POINT('',(-3.240000000000021,3.999999999999903,2.030000000000015));
#370=DIRECTION('',(0.0,-1.0,0.0));
#371=VECTOR('',#370,3.719999999999942);
#372=LINE('',#369,#371);
#373=EDGE_CURVE('',#368,#360,#372,.T.);
#374=ORIENTED_EDGE('',*,*,#373,.F.);
#375=CARTESIAN_POINT('',(-3.240000000000021,3.999999999999903,2.030000000000015));
#376=DIRECTION('',(0.0,0.0,-1.0));
#377=VECTOR('',#376,0.56);
#378=LINE('',#375,#377);
#379=EDGE_CURVE('',#368,#350,#378,.T.);
#380=ORIENTED_EDGE('',*,*,#379,.T.);
#381=EDGE_LOOP('',(#358,#366,#374,#380));
#382=FACE_OUTER_BOUND('',#381,.T.);
#383=ADVANCED_FACE('',(#382),#348,.T.);
#384=CARTESIAN_POINT('',(-2.540000000000018,1.99999999999996,2.030000000000015));
#385=DIRECTION('',(0.0,0.0,1.0));
#386=DIRECTION('',(0.0,-1.0,0.0));
#387=AXIS2_PLACEMENT_3D('',#384,#385,#386);
#388=PLANE('',#387);
#389=CARTESIAN_POINT('',(-1.840000000000029,0.280000000000018,2.030000000000014));
#390=VERTEX_POINT('',#389);
#391=CARTESIAN_POINT('',(-3.240000000000021,0.279999999999961,2.030000000000015));
#392=DIRECTION('',(1.0,0.0,0.0));
#393=VECTOR('',#392,1.399999999999992);
#394=LINE('',#391,#393);
#395=EDGE_CURVE('',#360,#390,#394,.T.);
#396=ORIENTED_EDGE('',*,*,#395,.T.);
#397=CARTESIAN_POINT('',(-1.840000000000014,3.999999999999903,2.030000000000015));
#398=VERTEX_POINT('',#397);
#399=CARTESIAN_POINT('',(-1.840000000000028,0.280000000000018,2.030000000000015));
#400=DIRECTION('',(0.0,1.0,0.0));
#401=VECTOR('',#400,3.719999999999885);
#402=LINE('',#399,#401);
#403=EDGE_CURVE('',#390,#398,#402,.T.);
#404=ORIENTED_EDGE('',*,*,#403,.T.);
#405=CARTESIAN_POINT('',(-1.840000000000014,3.999999999999903,2.030000000000015));
#406=DIRECTION('',(-1.0,0.0,0.0));
#407=VECTOR('',#406,1.400000000000006);
#408=LINE('',#405,#407);
#409=EDGE_CURVE('',#398,#368,#408,.T.);
#410=ORIENTED_EDGE('',*,*,#409,.T.);
#411=ORIENTED_EDGE('',*,*,#373,.T.);
#412=EDGE_LOOP('',(#396,#404,#410,#411));
#413=FACE_OUTER_BOUND('',#412,.T.);
#414=ADVANCED_FACE('',(#413),#388,.T.);
#415=CARTESIAN_POINT('',(-1.840000000000029,1.661330E-014,2.030000000000015));
#416=DIRECTION('',(1.0,0.0,0.0));
#417=DIRECTION('',(0.0,0.0,1.0));
#418=AXIS2_PLACEMENT_3D('',#415,#416,#417);
#419=PLANE('',#418);
#420=CARTESIAN_POINT('',(-1.840000000000029,0.280000000000018,1.470000000000015));
#421=VERTEX_POINT('',#420);
#422=CARTESIAN_POINT('',(-1.840000000000014,3.999999999999903,1.470000000000015));
#423=VERTEX_POINT('',#422);
#424=CARTESIAN_POINT('',(-1.840000000000028,0.280000000000018,1.470000000000015));
#425=DIRECTION('',(0.0,1.0,0.0));
#426=VECTOR('',#425,3.719999999999885);
#427=LINE('',#424,#426);
#428=EDGE_CURVE('',#421,#423,#427,.T.);
#429=ORIENTED_EDGE('',*,*,#428,.T.);
#430=CARTESIAN_POINT('',(-1.840000000000014,3.999999999999903,2.030000000000015));
#431=DIRECTION('',(0.0,0.0,-1.0));
#432=VECTOR('',#431,0.56);
#433=LINE('',#430,#432);
#434=EDGE_CURVE('',#398,#423,#433,.T.);
#435=ORIENTED_EDGE('',*,*,#434,.F.);
#436=ORIENTED_EDGE('',*,*,#403,.F.);
#437=CARTESIAN_POINT('',(-1.840000000000029,0.280000000000018,2.030000000000014));
#438=DIRECTION('',(0.0,0.0,-1.0));
#439=VECTOR('',#438,0.56);
#440=LINE('',#437,#439);
#441=EDGE_CURVE('',#390,#421,#440,.T.);
#442=ORIENTED_EDGE('',*,*,#441,.T.);
#443=EDGE_LOOP('',(#429,#435,#436,#442));
#444=FACE_OUTER_BOUND('',#443,.T.);
#445=ADVANCED_FACE('',(#444),#419,.T.);
#446=CARTESIAN_POINT('',(-1.840000000000014,3.999999999999903,2.030000000000015));
#447=DIRECTION('',(0.0,1.0,0.0));
#448=DIRECTION('',(0.0,0.0,1.0));
#449=AXIS2_PLACEMENT_3D('',#446,#447,#448);
#450=PLANE('',#449);
#451=CARTESIAN_POINT('',(-1.840000000000014,3.999999999999903,1.470000000000015));
#452=DIRECTION('',(-1.0,0.0,0.0));
#453=VECTOR('',#452,1.400000000000006);
#454=LINE('',#451,#453);
#455=EDGE_CURVE('',#423,#350,#454,.T.);
#456=ORIENTED_EDGE('',*,*,#455,.T.);
#457=ORIENTED_EDGE('',*,*,#379,.F.);
#458=ORIENTED_EDGE('',*,*,#409,.F.);
#459=ORIENTED_EDGE('',*,*,#434,.T.);
#460=EDGE_LOOP('',(#456,#457,#458,#459));
#461=FACE_OUTER_BOUND('',#460,.T.);
#462=ADVANCED_FACE('',(#461),#450,.T.);
#463=CARTESIAN_POINT('',(-2.540000000000018,1.99999999999996,1.470000000000015));
#464=DIRECTION('',(0.0,0.0,1.0));
#465=DIRECTION('',(0.0,-1.0,0.0));
#466=AXIS2_PLACEMENT_3D('',#463,#464,#465);
#467=PLANE('',#466);
#468=ORIENTED_EDGE('',*,*,#428,.F.);
#469=CARTESIAN_POINT('',(-3.240000000000022,0.279999999999961,1.470000000000015));
#470=DIRECTION('',(1.0,0.0,0.0));
#471=VECTOR('',#470,1.399999999999992);
#472=LINE('',#469,#471);
#473=EDGE_CURVE('',#352,#421,#472,.T.);
#474=ORIENTED_EDGE('',*,*,#473,.F.);
#475=ORIENTED_EDGE('',*,*,#357,.F.);
#476=ORIENTED_EDGE('',*,*,#455,.F.);
#477=EDGE_LOOP('',(#468,#474,#475,#476));
#478=FACE_OUTER_BOUND('',#477,.T.);
#479=ADVANCED_FACE('',(#478),#467,.F.);
#480=CARTESIAN_POINT('',(-3.240000000000021,0.279999999999961,2.030000000000015));
#481=DIRECTION('',(0.0,-1.0,0.0));
#482=DIRECTION('',(0.0,0.0,-1.0));
#483=AXIS2_PLACEMENT_3D('',#480,#481,#482);
#484=PLANE('',#483);
#485=ORIENTED_EDGE('',*,*,#473,.T.);
#486=ORIENTED_EDGE('',*,*,#441,.F.);
#487=ORIENTED_EDGE('',*,*,#395,.F.);
#488=ORIENTED_EDGE('',*,*,#365,.T.);
#489=EDGE_LOOP('',(#485,#486,#487,#488));
#490=FACE_OUTER_BOUND('',#489,.T.);
#491=ADVANCED_FACE('',(#490),#484,.T.);
#492=CLOSED_SHELL('',(#383,#414,#445,#462,#479,#491));
#493=MANIFOLD_SOLID_BREP('14F',#492);
#494=STYLED_ITEM('NONE',(#342),#493);
#495=CARTESIAN_POINT('',(0.699999999999991,3.999999999999907,1.470000000000014));
#496=DIRECTION('',(1.0,0.0,0.0));
#497=DIRECTION('',(0.0,0.0,1.0));
#498=AXIS2_PLACEMENT_3D('',#495,#496,#497);
#499=PLANE('',#498);
#500=CARTESIAN_POINT('',(0.699999999999991,3.999999999999907,2.030000000000014));
#501=VERTEX_POINT('',#500);
#502=CARTESIAN_POINT('',(0.699999999999992,2.179999999999965,2.030000000000015));
#503=VERTEX_POINT('',#502);
#504=CARTESIAN_POINT('',(0.699999999999991,3.999999999999907,2.030000000000014));
#505=DIRECTION('',(0.0,-1.0,0.0));
#506=VECTOR('',#505,1.819999999999942);
#507=LINE('',#504,#506);
#508=EDGE_CURVE('',#501,#503,#507,.T.);
#509=ORIENTED_EDGE('',*,*,#508,.T.);
#510=CARTESIAN_POINT('',(0.699999999999992,2.179999999999965,1.470000000000015));
#511=VERTEX_POINT('',#510);
#512=CARTESIAN_POINT('',(0.699999999999992,2.179999999999965,1.470000000000015));
#513=DIRECTION('',(0.0,0.0,1.0));
#514=VECTOR('',#513,0.56);
#515=LINE('',#512,#514);
#516=EDGE_CURVE('',#511,#503,#515,.T.);
#517=ORIENTED_EDGE('',*,*,#516,.F.);
#518=CARTESIAN_POINT('',(0.699999999999991,3.999999999999907,1.470000000000014));
#519=VERTEX_POINT('',#518);
#520=CARTESIAN_POINT('',(0.699999999999991,3.999999999999907,1.470000000000014));
#521=DIRECTION('',(0.0,-1.0,0.0));
#522=VECTOR('',#521,1.819999999999942);
#523=LINE('',#520,#522);
#524=EDGE_CURVE('',#519,#511,#523,.T.);
#525=ORIENTED_EDGE('',*,*,#524,.F.);
#526=CARTESIAN_POINT('',(0.699999999999991,3.999999999999907,1.470000000000014));
#527=DIRECTION('',(0.0,0.0,1.0));
#528=VECTOR('',#527,0.56);
#529=LINE('',#526,#528);
#530=EDGE_CURVE('',#519,#501,#529,.T.);
#531=ORIENTED_EDGE('',*,*,#530,.T.);
#532=EDGE_LOOP('',(#509,#517,#525,#531));
#533=FACE_OUTER_BOUND('',#532,.T.);
#534=ADVANCED_FACE('',(#533),#499,.T.);
#535=CARTESIAN_POINT('',(-1.128959E-014,1.999999999999964,1.470000000000015));
#536=DIRECTION('',(0.0,0.0,-1.0));
#537=DIRECTION('',(0.0,-1.0,0.0));
#538=AXIS2_PLACEMENT_3D('',#535,#536,#537);
#539=PLANE('',#538);
#540=CARTESIAN_POINT('',(-0.7,2.180000000000022,1.470000000000015));
#541=VERTEX_POINT('',#540);
#542=CARTESIAN_POINT('',(0.699999999999992,2.179999999999965,1.470000000000015));
#543=DIRECTION('',(-1.0,0.0,0.0));
#544=VECTOR('',#543,1.399999999999992);
#545=LINE('',#542,#544);
#546=EDGE_CURVE('',#511,#541,#545,.T.);
#547=ORIENTED_EDGE('',*,*,#546,.T.);
#548=CARTESIAN_POINT('',(-0.700000000000015,3.999999999999907,1.470000000000014));
#549=VERTEX_POINT('',#548);
#550=CARTESIAN_POINT('',(-0.700000000000008,2.180000000000022,1.470000000000015));
#551=DIRECTION('',(0.0,1.0,0.0));
#552=VECTOR('',#551,1.819999999999885);
#553=LINE('',#550,#552);
#554=EDGE_CURVE('',#541,#549,#553,.T.);
#555=ORIENTED_EDGE('',*,*,#554,.T.);
#556=CARTESIAN_POINT('',(-0.700000000000015,3.999999999999907,1.470000000000014));
#557=DIRECTION('',(1.0,0.0,0.0));
#558=VECTOR('',#557,1.400000000000006);
#559=LINE('',#556,#558);
#560=EDGE_CURVE('',#549,#519,#559,.T.);
#561=ORIENTED_EDGE('',*,*,#560,.T.);
#562=ORIENTED_EDGE('',*,*,#524,.T.);
#563=EDGE_LOOP('',(#547,#555,#561,#562));
#564=FACE_OUTER_BOUND('',#563,.T.);
#565=ADVANCED_FACE('',(#564),#539,.T.);
#566=CARTESIAN_POINT('',(-0.7,2.048604E-014,1.470000000000016));
#567=DIRECTION('',(-1.0,0.0,0.0));
#568=DIRECTION('',(0.0,0.0,-1.0));
#569=AXIS2_PLACEMENT_3D('',#566,#567,#568);
#570=PLANE('',#569);
#571=CARTESIAN_POINT('',(-0.7,2.180000000000022,2.030000000000015));
#572=VERTEX_POINT('',#571);
#573=CARTESIAN_POINT('',(-0.700000000000015,3.999999999999907,2.030000000000014));
#574=VERTEX_POINT('',#573);
#575=CARTESIAN_POINT('',(-0.700000000000008,2.180000000000022,2.030000000000015));
#576=DIRECTION('',(0.0,1.0,0.0));
#577=VECTOR('',#576,1.819999999999885);
#578=LINE('',#575,#577);
#579=EDGE_CURVE('',#572,#574,#578,.T.);
#580=ORIENTED_EDGE('',*,*,#579,.T.);
#581=CARTESIAN_POINT('',(-0.700000000000015,3.999999999999907,1.470000000000014));
#582=DIRECTION('',(0.0,0.0,1.0));
#583=VECTOR('',#582,0.56);
#584=LINE('',#581,#583);
#585=EDGE_CURVE('',#549,#574,#584,.T.);
#586=ORIENTED_EDGE('',*,*,#585,.F.);
#587=ORIENTED_EDGE('',*,*,#554,.F.);
#588=CARTESIAN_POINT('',(-0.7,2.180000000000022,1.470000000000015));
#589=DIRECTION('',(0.0,0.0,1.0));
#590=VECTOR('',#589,0.56);
#591=LINE('',#588,#590);
#592=EDGE_CURVE('',#541,#572,#591,.T.);
#593=ORIENTED_EDGE('',*,*,#592,.T.);
#594=EDGE_LOOP('',(#580,#586,#587,#593));
#595=FACE_OUTER_BOUND('',#594,.T.);
#596=ADVANCED_FACE('',(#595),#570,.T.);
#597=CARTESIAN_POINT('',(-0.700000000000015,3.999999999999907,1.470000000000014));
#598=DIRECTION('',(0.0,1.0,0.0));
#599=DIRECTION('',(0.0,0.0,-1.0));
#600=AXIS2_PLACEMENT_3D('',#597,#598,#599);
#601=PLANE('',#600);
#602=CARTESIAN_POINT('',(-0.700000000000015,3.999999999999907,2.030000000000014));
#603=DIRECTION('',(1.0,0.0,0.0));
#604=VECTOR('',#603,1.400000000000006);
#605=LINE('',#602,#604);
#606=EDGE_CURVE('',#574,#501,#605,.T.);
#607=ORIENTED_EDGE('',*,*,#606,.T.);
#608=ORIENTED_EDGE('',*,*,#530,.F.);
#609=ORIENTED_EDGE('',*,*,#560,.F.);
#610=ORIENTED_EDGE('',*,*,#585,.T.);
#611=EDGE_LOOP('',(#607,#608,#609,#610));
#612=FACE_OUTER_BOUND('',#611,.T.);
#613=ADVANCED_FACE('',(#612),#601,.T.);
#614=CARTESIAN_POINT('',(-1.122101E-014,1.999999999999964,2.030000000000015));
#615=DIRECTION('',(0.0,0.0,-1.0));
#616=DIRECTION('',(0.0,-1.0,0.0));
#617=AXIS2_PLACEMENT_3D('',#614,#615,#616);
#618=PLANE('',#617);
#619=ORIENTED_EDGE('',*,*,#579,.F.);
#620=CARTESIAN_POINT('',(0.699999999999992,2.179999999999965,2.030000000000015));
#621=DIRECTION('',(-1.0,0.0,0.0));
#622=VECTOR('',#621,1.399999999999992);
#623=LINE('',#620,#622);
#624=EDGE_CURVE('',#503,#572,#623,.T.);
#625=ORIENTED_EDGE('',*,*,#624,.F.);
#626=ORIENTED_EDGE('',*,*,#508,.F.);
#627=ORIENTED_EDGE('',*,*,#606,.F.);
#628=EDGE_LOOP('',(#619,#625,#626,#627));
#629=FACE_OUTER_BOUND('',#628,.T.);
#630=ADVANCED_FACE('',(#629),#618,.F.);
#631=CARTESIAN_POINT('',(0.699999999999992,2.179999999999965,1.470000000000015));
#632=DIRECTION('',(0.0,-1.0,0.0));
#633=DIRECTION('',(0.0,0.0,1.0));
#634=AXIS2_PLACEMENT_3D('',#631,#632,#633);
#635=PLANE('',#634);
#636=ORIENTED_EDGE('',*,*,#624,.T.);
#637=ORIENTED_EDGE('',*,*,#592,.F.);
#638=ORIENTED_EDGE('',*,*,#546,.F.);
#639=ORIENTED_EDGE('',*,*,#516,.T.);
#640=EDGE_LOOP('',(#636,#637,#638,#639));
#641=FACE_OUTER_BOUND('',#640,.T.);
#642=ADVANCED_FACE('',(#641),#635,.T.);
#643=CLOSED_SHELL('',(#534,#565,#596,#613,#630,#642));
#644=MANIFOLD_SOLID_BREP('14E',#643);
#645=STYLED_ITEM('NONE',(#342),#644);
#646=CARTESIAN_POINT('',(2.774999999999977,0.019999999999999,1.730000000000016));
#647=DIRECTION('',(1.0,-8.498248E-016,4.212045E-016));
#648=DIRECTION('',(4.330209E-017,-0.707106781186553,0.707106781186542));
#649=AXIS2_PLACEMENT_3D('',#646,#647,#648);
#650=CYLINDRICAL_SURFACE('',#649,0.3);
#651=CARTESIAN_POINT('',(3.009999999999975,-0.280000000000001,1.730000000000016));
#652=VERTEX_POINT('',#651);
#653=CARTESIAN_POINT('',(3.009999999999987,0.019999999999999,2.030000000000015));
#654=VERTEX_POINT('',#653);
#655=CARTESIAN_POINT('',(3.009999999999967,0.019999999999999,1.730000000000016));
#656=DIRECTION('',(-1.0,-3.061920E-017,3.061920E-017));
#657=DIRECTION('',(4.330209E-017,-0.707106781186553,0.707106781186542));
#658=AXIS2_PLACEMENT_3D('',#655,#656,#657);
#659=CIRCLE('',#658,0.3);
#660=EDGE_CURVE('',#652,#654,#659,.T.);
#661=ORIENTED_EDGE('',*,*,#660,.T.);
#662=CARTESIAN_POINT('',(2.069999999999989,0.02,2.030000000000015));
#663=VERTEX_POINT('',#662);
#664=CARTESIAN_POINT('',(3.009999999999987,0.019999999999999,2.030000000000015));
#665=DIRECTION('',(-1.0,0.0,0.0));
#666=VECTOR('',#665,0.939999999999998);
#667=LINE('',#664,#666);
#668=EDGE_CURVE('',#654,#663,#667,.T.);
#669=ORIENTED_EDGE('',*,*,#668,.T.);
#670=CARTESIAN_POINT('',(2.069999999999983,-0.279999999999998,1.730000000000016));
#671=VERTEX_POINT('',#670);
#672=CARTESIAN_POINT('',(2.069999999999983,0.02,1.730000000000016));
#673=DIRECTION('',(1.0,3.061920E-017,-3.061920E-017));
#674=DIRECTION('',(4.330209E-017,-0.707106781186553,0.707106781186542));
#675=AXIS2_PLACEMENT_3D('',#672,#673,#674);
#676=CIRCLE('',#675,0.3);
#677=EDGE_CURVE('',#663,#671,#676,.T.);
#678=ORIENTED_EDGE('',*,*,#677,.T.);
#679=CARTESIAN_POINT('',(2.069999999999983,-0.280000000000001,1.730000000000016));
#680=DIRECTION('',(1.0,0.0,0.0));
#681=VECTOR('',#680,0.939999999999992);
#682=LINE('',#679,#681);
#683=EDGE_CURVE('',#671,#652,#682,.T.);
#684=ORIENTED_EDGE('',*,*,#683,.T.);
#685=EDGE_LOOP('',(#661,#669,#678,#684));
#686=FACE_OUTER_BOUND('',#685,.T.);
#687=ADVANCED_FACE('',(#686),#650,.T.);
#688=CARTESIAN_POINT('',(3.009999999999987,-0.280000000000008,2.030000000000015));
#689=DIRECTION('',(0.0,0.0,1.0));
#690=DIRECTION('',(0.0,-1.0,0.0));
#691=AXIS2_PLACEMENT_3D('',#688,#689,#690);
#692=PLANE('',#691);
#693=ORIENTED_EDGE('',*,*,#668,.F.);
#694=CARTESIAN_POINT('',(3.009999999999987,0.279999999999994,2.030000000000015));
#695=VERTEX_POINT('',#694);
#696=CARTESIAN_POINT('',(3.009999999999987,0.019999999999999,2.030000000000015));
#697=DIRECTION('',(0.0,1.0,0.0));
#698=VECTOR('',#697,0.259999999999994);
#699=LINE('',#696,#698);
#700=EDGE_CURVE('',#654,#695,#699,.T.);
#701=ORIENTED_EDGE('',*,*,#700,.T.);
#702=CARTESIAN_POINT('',(2.06999999999999,0.279999999999994,2.030000000000015));
#703=VERTEX_POINT('',#702);
#704=CARTESIAN_POINT('',(3.009999999999987,0.279999999999993,2.030000000000016));
#705=DIRECTION('',(-1.0,0.0,0.0));
#706=VECTOR('',#705,0.939999999999998);
#707=LINE('',#704,#706);
#708=EDGE_CURVE('',#695,#703,#707,.T.);
#709=ORIENTED_EDGE('',*,*,#708,.T.);
#710=CARTESIAN_POINT('',(2.069999999999989,0.02,2.030000000000016));
#711=DIRECTION('',(0.0,1.0,0.0));
#712=VECTOR('',#711,0.259999999999994);
#713=LINE('',#710,#712);
#714=EDGE_CURVE('',#663,#703,#713,.T.);
#715=ORIENTED_EDGE('',*,*,#714,.F.);
#716=EDGE_LOOP('',(#693,#701,#709,#715));
#717=FACE_OUTER_BOUND('',#716,.T.);
#718=ADVANCED_FACE('',(#717),#692,.T.);
#719=CARTESIAN_POINT('',(3.009999999999969,-0.280000000000001,-3.900000000000015));
#720=DIRECTION('',(1.0,0.0,0.0));
#721=DIRECTION('',(0.0,-1.0,0.0));
#722=AXIS2_PLACEMENT_3D('',#719,#720,#721);
#723=PLANE('',#722);
#724=ORIENTED_EDGE('',*,*,#660,.F.);
#725=CARTESIAN_POINT('',(3.009999999999969,-0.280000000000001,-3.900000000000015));
#726=VERTEX_POINT('',#725);
#727=CARTESIAN_POINT('',(3.009999999999975,-0.280000000000001,1.730000000000016));
#728=DIRECTION('',(0.0,0.0,-1.0));
#729=VECTOR('',#728,5.630000000000031);
#730=LINE('',#727,#729);
#731=EDGE_CURVE('',#652,#726,#730,.T.);
#732=ORIENTED_EDGE('',*,*,#731,.T.);
#733=CARTESIAN_POINT('',(3.00999999999997,0.280000000000001,-3.900000000000015));
#734=VERTEX_POINT('',#733);
#735=CARTESIAN_POINT('',(3.009999999999969,-0.280000000000001,-3.900000000000015));
#736=DIRECTION('',(0.0,1.0,0.0));
#737=VECTOR('',#736,0.560000000000002);
#738=LINE('',#735,#737);
#739=EDGE_CURVE('',#726,#734,#738,.T.);
#740=ORIENTED_EDGE('',*,*,#739,.T.);
#741=CARTESIAN_POINT('',(3.00999999999997,0.280000000000003,-3.900000000000015));
#742=DIRECTION('',(0.0,0.0,1.0));
#743=VECTOR('',#742,5.93000000000003);
#744=LINE('',#741,#743);
#745=EDGE_CURVE('',#734,#695,#744,.T.);
#746=ORIENTED_EDGE('',*,*,#745,.T.);
#747=ORIENTED_EDGE('',*,*,#700,.F.);
#748=EDGE_LOOP('',(#724,#732,#740,#746,#747));
#749=FACE_OUTER_BOUND('',#748,.T.);
#750=ADVANCED_FACE('',(#749),#723,.T.);
#751=CARTESIAN_POINT('',(2.539999999999968,-0.280000000000001,0.457019685938649));
#752=DIRECTION('',(0.0,-1.0,0.0));
#753=DIRECTION('',(0.0,0.0,-1.0));
#754=AXIS2_PLACEMENT_3D('',#751,#752,#753);
#755=PLANE('',#754);
#756=ORIENTED_EDGE('',*,*,#683,.F.);
#757=CARTESIAN_POINT('',(2.069999999999985,-0.279999999999998,-3.900000000000015));
#758=VERTEX_POINT('',#757);
#759=CARTESIAN_POINT('',(2.069999999999985,-0.279999999999998,-3.900000000000015));
#760=DIRECTION('',(0.0,0.0,1.0));
#761=VECTOR('',#760,5.63000000000003);
#762=LINE('',#759,#761);
#763=EDGE_CURVE('',#758,#671,#762,.T.);
#764=ORIENTED_EDGE('',*,*,#763,.F.);
#765=CARTESIAN_POINT('',(2.339999999999982,-0.279999999999998,-4.699999999999969));
#766=VERTEX_POINT('',#765);
#767=CARTESIAN_POINT('',(2.339999999999982,-0.279999999999998,-4.699999999999969));
#768=DIRECTION('',(-0.319778644158192,6.574548E-017,0.947492278987195));
#769=VECTOR('',#768,0.844334057112424);
#770=LINE('',#767,#769);
#771=EDGE_CURVE('',#766,#758,#770,.T.);
#772=ORIENTED_EDGE('',*,*,#771,.F.);
#773=CARTESIAN_POINT('',(2.739999999999987,-0.280000000000001,-4.699999999999969));
#774=VERTEX_POINT('',#773);
#775=CARTESIAN_POINT('',(2.739999999999987,-0.280000000000001,-4.699999999999969));
#776=DIRECTION('',(-1.0,0.0,0.0));
#777=VECTOR('',#776,0.400000000000006);
#778=LINE('',#775,#777);
#779=EDGE_CURVE('',#774,#766,#778,.T.);
#780=ORIENTED_EDGE('',*,*,#779,.F.);
#781=CARTESIAN_POINT('',(3.009999999999969,-0.280000000000001,-3.900000000000015));
#782=DIRECTION('',(-0.319778644158176,4.602184E-016,-0.9474922789872));
#783=VECTOR('',#782,0.844334057112419);
#784=LINE('',#781,#783);
#785=EDGE_CURVE('',#726,#774,#784,.T.);
#786=ORIENTED_EDGE('',*,*,#785,.F.);
#787=ORIENTED_EDGE('',*,*,#731,.F.);
#788=EDGE_LOOP('',(#756,#764,#772,#780,#786,#787));
#789=FACE_OUTER_BOUND('',#788,.T.);
#790=ADVANCED_FACE('',(#789),#755,.T.);
#791=CARTESIAN_POINT('',(2.069999999999981,-0.280000000000001,5.40000000000005));
#792=DIRECTION('',(-1.0,0.0,0.0));
#793=DIRECTION('',(0.0,1.0,0.0));
#794=AXIS2_PLACEMENT_3D('',#791,#792,#793);
#795=PLANE('',#794);
#796=ORIENTED_EDGE('',*,*,#677,.F.);
#797=ORIENTED_EDGE('',*,*,#714,.T.);
#798=CARTESIAN_POINT('',(2.069999999999986,0.280000000000005,-3.900000000000015));
#799=VERTEX_POINT('',#798);
#800=CARTESIAN_POINT('',(2.069999999999983,0.280000000000004,2.030000000000015));
#801=DIRECTION('',(0.0,0.0,-1.0));
#802=VECTOR('',#801,5.93000000000003);
#803=LINE('',#800,#802);
#804=EDGE_CURVE('',#703,#799,#803,.T.);
#805=ORIENTED_EDGE('',*,*,#804,.T.);
#806=CARTESIAN_POINT('',(2.069999999999985,-0.279999999999998,-3.900000000000015));
#807=DIRECTION('',(0.0,1.0,0.0));
#808=VECTOR('',#807,0.560000000000002);
#809=LINE('',#806,#808);
#810=EDGE_CURVE('',#758,#799,#809,.T.);
#811=ORIENTED_EDGE('',*,*,#810,.F.);
#812=ORIENTED_EDGE('',*,*,#763,.T.);
#813=EDGE_LOOP('',(#796,#797,#805,#811,#812));
#814=FACE_OUTER_BOUND('',#813,.T.);
#815=ADVANCED_FACE('',(#814),#795,.T.);
#816=CARTESIAN_POINT('',(2.539999999999969,0.280000000000001,0.457019685938649));
#817=DIRECTION('',(0.0,-1.0,0.0));
#818=DIRECTION('',(0.0,0.0,-1.0));
#819=AXIS2_PLACEMENT_3D('',#816,#817,#818);
#820=PLANE('',#819);
#821=CARTESIAN_POINT('',(2.339999999999983,0.280000000000005,-4.699999999999969));
#822=VERTEX_POINT('',#821);
#823=CARTESIAN_POINT('',(2.739999999999988,0.280000000000001,-4.699999999999969));
#824=VERTEX_POINT('',#823);
#825=CARTESIAN_POINT('',(2.339999999999983,0.280000000000001,-4.699999999999969));
#826=DIRECTION('',(1.0,0.0,0.0));
#827=VECTOR('',#826,0.400000000000006);
#828=LINE('',#825,#827);
#829=EDGE_CURVE('',#822,#824,#828,.T.);
#830=ORIENTED_EDGE('',*,*,#829,.F.);
#831=CARTESIAN_POINT('',(2.069999999999986,0.280000000000005,-3.900000000000015));
#832=DIRECTION('',(0.319778644158192,-6.574548E-017,-0.947492278987195));
#833=VECTOR('',#832,0.844334057112424);
#834=LINE('',#831,#833);
#835=EDGE_CURVE('',#799,#822,#834,.T.);
#836=ORIENTED_EDGE('',*,*,#835,.F.);
#837=ORIENTED_EDGE('',*,*,#804,.F.);
#838=ORIENTED_EDGE('',*,*,#708,.F.);
#839=ORIENTED_EDGE('',*,*,#745,.F.);
#840=CARTESIAN_POINT('',(2.739999999999988,0.280000000000001,-4.699999999999969));
#841=DIRECTION('',(0.319778644158176,-4.602184E-016,0.9474922789872));
#842=VECTOR('',#841,0.844334057112419);
#843=LINE('',#840,#842);
#844=EDGE_CURVE('',#824,#734,#843,.T.);
#845=ORIENTED_EDGE('',*,*,#844,.F.);
#846=EDGE_LOOP('',(#830,#836,#837,#838,#839,#845));
#847=FACE_OUTER_BOUND('',#846,.T.);
#848=ADVANCED_FACE('',(#847),#820,.F.);
#849=CARTESIAN_POINT('',(2.339999999999982,-0.279999999999998,-4.699999999999969));
#850=DIRECTION('',(0.0,0.0,-1.0));
#851=DIRECTION('',(0.0,1.0,0.0));
#852=AXIS2_PLACEMENT_3D('',#849,#850,#851);
#853=PLANE('',#852);
#854=ORIENTED_EDGE('',*,*,#829,.T.);
#855=CARTESIAN_POINT('',(2.739999999999987,-0.280000000000001,-4.699999999999969));
#856=DIRECTION('',(0.0,1.0,0.0));
#857=VECTOR('',#856,0.560000000000002);
#858=LINE('',#855,#857);
#859=EDGE_CURVE('',#774,#824,#858,.T.);
#860=ORIENTED_EDGE('',*,*,#859,.F.);
#861=ORIENTED_EDGE('',*,*,#779,.T.);
#862=CARTESIAN_POINT('',(2.339999999999982,-0.279999999999998,-4.699999999999969));
#863=DIRECTION('',(0.0,1.0,0.0));
#864=VECTOR('',#863,0.560000000000002);
#865=LINE('',#862,#864);
#866=EDGE_CURVE('',#766,#822,#865,.T.);
#867=ORIENTED_EDGE('',*,*,#866,.T.);
#868=EDGE_LOOP('',(#854,#860,#861,#867));
#869=FACE_OUTER_BOUND('',#868,.T.);
#870=ADVANCED_FACE('',(#869),#853,.T.);
#871=CARTESIAN_POINT('',(2.739999999999987,-0.280000000000001,-4.699999999999969));
#872=DIRECTION('',(0.9474922789872,-7.464620E-016,-0.319778644158176));
#873=DIRECTION('',(0.0,-1.0,0.0));
#874=AXIS2_PLACEMENT_3D('',#871,#872,#873);
#875=PLANE('',#874);
#876=ORIENTED_EDGE('',*,*,#844,.T.);
#877=ORIENTED_EDGE('',*,*,#739,.F.);
#878=ORIENTED_EDGE('',*,*,#785,.T.);
#879=ORIENTED_EDGE('',*,*,#859,.T.);
#880=EDGE_LOOP('',(#876,#877,#878,#879));
#881=FACE_OUTER_BOUND('',#880,.T.);
#882=ADVANCED_FACE('',(#881),#875,.T.);
#883=CARTESIAN_POINT('',(2.069999999999985,-0.279999999999998,-3.900000000000015));
#884=DIRECTION('',(-0.947492278987195,8.639428E-016,-0.319778644158192));
#885=DIRECTION('',(0.0,1.0,0.0));
#886=AXIS2_PLACEMENT_3D('',#883,#884,#885);
#887=PLANE('',#886);
#888=ORIENTED_EDGE('',*,*,#835,.T.);
#889=ORIENTED_EDGE('',*,*,#866,.F.);
#890=ORIENTED_EDGE('',*,*,#771,.T.);
#891=ORIENTED_EDGE('',*,*,#810,.T.);
#892=EDGE_LOOP('',(#888,#889,#890,#891));
#893=FACE_OUTER_BOUND('',#892,.T.);
#894=ADVANCED_FACE('',(#893),#887,.T.);
#895=CLOSED_SHELL('',(#687,#718,#750,#790,#815,#848,#870,#882,#894));
#896=MANIFOLD_SOLID_BREP('112',#895);
#897=STYLED_ITEM('NONE',(#342),#896);
#898=CARTESIAN_POINT('',(1.839999999999993,3.999999999999908,2.030000000000016));
#899=DIRECTION('',(-1.0,0.0,0.0));
#900=DIRECTION('',(0.0,0.0,-1.0));
#901=AXIS2_PLACEMENT_3D('',#898,#899,#900);
#902=PLANE('',#901);
#903=CARTESIAN_POINT('',(1.839999999999993,3.999999999999908,1.470000000000017));
#904=VERTEX_POINT('',#903);
#905=CARTESIAN_POINT('',(1.839999999999992,0.279999999999966,1.470000000000017));
#906=VERTEX_POINT('',#905);
#907=CARTESIAN_POINT('',(1.839999999999993,3.999999999999908,1.470000000000017));
#908=DIRECTION('',(0.0,-1.0,0.0));
#909=VECTOR('',#908,3.719999999999942);
#910=LINE('',#907,#909);
#911=EDGE_CURVE('',#904,#906,#910,.T.);
#912=ORIENTED_EDGE('',*,*,#911,.T.);
#913=CARTESIAN_POINT('',(1.839999999999992,0.279999999999966,2.030000000000016));
#914=VERTEX_POINT('',#913);
#915=CARTESIAN_POINT('',(1.839999999999992,0.279999999999966,2.030000000000016));
#916=DIRECTION('',(0.0,0.0,-1.0));
#917=VECTOR('',#916,0.56);
#918=LINE('',#915,#917);
#919=EDGE_CURVE('',#914,#906,#918,.T.);
#920=ORIENTED_EDGE('',*,*,#919,.F.);
#921=CARTESIAN_POINT('',(1.839999999999993,3.999999999999908,2.030000000000016));
#922=VERTEX_POINT('',#921);
#923=CARTESIAN_POINT('',(1.839999999999993,3.999999999999908,2.030000000000016));
#924=DIRECTION('',(0.0,-1.0,0.0));
#925=VECTOR('',#924,3.719999999999942);
#926=LINE('',#923,#925);
#927=EDGE_CURVE('',#922,#914,#926,.T.);
#928=ORIENTED_EDGE('',*,*,#927,.F.);
#929=CARTESIAN_POINT('',(1.839999999999993,3.999999999999908,2.030000000000016));
#930=DIRECTION('',(0.0,0.0,-1.0));
#931=VECTOR('',#930,0.56);
#932=LINE('',#929,#931);
#933=EDGE_CURVE('',#922,#904,#932,.T.);
#934=ORIENTED_EDGE('',*,*,#933,.T.);
#935=EDGE_LOOP('',(#912,#920,#928,#934));
#936=FACE_OUTER_BOUND('',#935,.T.);
#937=ADVANCED_FACE('',(#936),#902,.T.);
#938=CARTESIAN_POINT('',(2.539999999999995,1.999999999999965,2.030000000000016));
#939=DIRECTION('',(0.0,0.0,1.0));
#940=DIRECTION('',(0.0,-1.0,0.0));
#941=AXIS2_PLACEMENT_3D('',#938,#939,#940);
#942=PLANE('',#941);
#943=CARTESIAN_POINT('',(3.239999999999983,0.280000000000022,2.030000000000016));
#944=VERTEX_POINT('',#943);
#945=CARTESIAN_POINT('',(1.839999999999992,0.279999999999966,2.030000000000016));
#946=DIRECTION('',(1.0,0.0,0.0));
#947=VECTOR('',#946,1.399999999999992);
#948=LINE('',#945,#947);
#949=EDGE_CURVE('',#914,#944,#948,.T.);
#950=ORIENTED_EDGE('',*,*,#949,.T.);
#951=CARTESIAN_POINT('',(3.239999999999998,3.999999999999908,2.030000000000016));
#952=VERTEX_POINT('',#951);
#953=CARTESIAN_POINT('',(3.239999999999984,0.280000000000022,2.030000000000016));
#954=DIRECTION('',(0.0,1.0,0.0));
#955=VECTOR('',#954,3.719999999999885);
#956=LINE('',#953,#955);
#957=EDGE_CURVE('',#944,#952,#956,.T.);
#958=ORIENTED_EDGE('',*,*,#957,.T.);
#959=CARTESIAN_POINT('',(3.239999999999998,3.999999999999908,2.030000000000016));
#960=DIRECTION('',(-1.0,0.0,0.0));
#961=VECTOR('',#960,1.400000000000006);
#962=LINE('',#959,#961);
#963=EDGE_CURVE('',#952,#922,#962,.T.);
#964=ORIENTED_EDGE('',*,*,#963,.T.);
#965=ORIENTED_EDGE('',*,*,#927,.T.);
#966=EDGE_LOOP('',(#950,#958,#964,#965));
#967=FACE_OUTER_BOUND('',#966,.T.);
#968=ADVANCED_FACE('',(#967),#942,.T.);
#969=CARTESIAN_POINT('',(3.239999999999983,2.109916E-014,2.030000000000016));
#970=DIRECTION('',(1.0,0.0,0.0));
#971=DIRECTION('',(0.0,0.0,1.0));
#972=AXIS2_PLACEMENT_3D('',#969,#970,#971);
#973=PLANE('',#972);
#974=CARTESIAN_POINT('',(3.239999999999983,0.280000000000022,1.470000000000017));
#975=VERTEX_POINT('',#974);
#976=CARTESIAN_POINT('',(3.239999999999998,3.999999999999908,1.470000000000017));
#977=VERTEX_POINT('',#976);
#978=CARTESIAN_POINT('',(3.239999999999983,0.280000000000022,1.470000000000017));
#979=DIRECTION('',(0.0,1.0,0.0));
#980=VECTOR('',#979,3.719999999999885);
#981=LINE('',#978,#980);
#982=EDGE_CURVE('',#975,#977,#981,.T.);
#983=ORIENTED_EDGE('',*,*,#982,.T.);
#984=CARTESIAN_POINT('',(3.239999999999998,3.999999999999908,2.030000000000016));
#985=DIRECTION('',(0.0,0.0,-1.0));
#986=VECTOR('',#985,0.56);
#987=LINE('',#984,#986);
#988=EDGE_CURVE('',#952,#977,#987,.T.);
#989=ORIENTED_EDGE('',*,*,#988,.F.);
#990=ORIENTED_EDGE('',*,*,#957,.F.);
#991=CARTESIAN_POINT('',(3.239999999999983,0.280000000000022,2.030000000000016));
#992=DIRECTION('',(0.0,0.0,-1.0));
#993=VECTOR('',#992,0.56);
#994=LINE('',#991,#993);
#995=EDGE_CURVE('',#944,#975,#994,.T.);
#996=ORIENTED_EDGE('',*,*,#995,.T.);
#997=EDGE_LOOP('',(#983,#989,#990,#996));
#998=FACE_OUTER_BOUND('',#997,.T.);
#999=ADVANCED_FACE('',(#998),#973,.T.);
#1000=CARTESIAN_POINT('',(3.239999999999998,3.999999999999908,2.030000000000016));
#1001=DIRECTION('',(0.0,1.0,0.0));
#1002=DIRECTION('',(0.0,0.0,1.0));
#1003=AXIS2_PLACEMENT_3D('',#1000,#1001,#1002);
#1004=PLANE('',#1003);
#1005=CARTESIAN_POINT('',(3.239999999999998,3.999999999999908,1.470000000000017));
#1006=DIRECTION('',(-1.0,0.0,0.0));
#1007=VECTOR('',#1006,1.400000000000006);
#1008=LINE('',#1005,#1007);
#1009=EDGE_CURVE('',#977,#904,#1008,.T.);
#1010=ORIENTED_EDGE('',*,*,#1009,.T.);
#1011=ORIENTED_EDGE('',*,*,#933,.F.);
#1012=ORIENTED_EDGE('',*,*,#963,.F.);
#1013=ORIENTED_EDGE('',*,*,#988,.T.);
#1014=EDGE_LOOP('',(#1010,#1011,#1012,#1013));
#1015=FACE_OUTER_BOUND('',#1014,.T.);
#1016=ADVANCED_FACE('',(#1015),#1004,.T.);
#1017=CARTESIAN_POINT('',(2.539999999999995,1.999999999999965,1.470000000000017));
#1018=DIRECTION('',(0.0,0.0,1.0));
#1019=DIRECTION('',(0.0,-1.0,0.0));
#1020=AXIS2_PLACEMENT_3D('',#1017,#1018,#1019);
#1021=PLANE('',#1020);
#1022=ORIENTED_EDGE('',*,*,#982,.F.);
#1023=CARTESIAN_POINT('',(1.839999999999992,0.279999999999966,1.470000000000017));
#1024=DIRECTION('',(1.0,0.0,0.0));
#1025=VECTOR('',#1024,1.399999999999992);
#1026=LINE('',#1023,#1025);
#1027=EDGE_CURVE('',#906,#975,#1026,.T.);
#1028=ORIENTED_EDGE('',*,*,#1027,.F.);
#1029=ORIENTED_EDGE('',*,*,#911,.F.);
#1030=ORIENTED_EDGE('',*,*,#1009,.F.);
#1031=EDGE_LOOP('',(#1022,#1028,#1029,#1030));
#1032=FACE_OUTER_BOUND('',#1031,.T.);
#1033=ADVANCED_FACE('',(#1032),#1021,.F.);
#1034=CARTESIAN_POINT('',(1.839999999999992,0.279999999999966,2.030000000000016));
#1035=DIRECTION('',(0.0,-1.0,0.0));
#1036=DIRECTION('',(0.0,0.0,-1.0));
#1037=AXIS2_PLACEMENT_3D('',#1034,#1035,#1036);
#1038=PLANE('',#1037);
#1039=ORIENTED_EDGE('',*,*,#1027,.T.);
#1040=ORIENTED_EDGE('',*,*,#995,.F.);
#1041=ORIENTED_EDGE('',*,*,#949,.F.);
#1042=ORIENTED_EDGE('',*,*,#919,.T.);
#1043=EDGE_LOOP('',(#1039,#1040,#1041,#1042));
#1044=FACE_OUTER_BOUND('',#1043,.T.);
#1045=ADVANCED_FACE('',(#1044),#1038,.T.);
#1046=CLOSED_SHELL('',(#937,#968,#999,#1016,#1033,#1045));
#1047=MANIFOLD_SOLID_BREP('ED',#1046);
#1048=STYLED_ITEM('NONE',(#342),#1047);
#1049=CARTESIAN_POINT('',(-2.756863E-014,16.949999999999839,3.379999999999999));
#1050=DIRECTION('',(1.224647E-016,4.440892E-016,1.0));
#1051=DIRECTION('',(0.0,-1.0,0.0));
#1052=AXIS2_PLACEMENT_3D('',#1049,#1050,#1051);
#1053=CYLINDRICAL_SURFACE('',#1052,1.945);
#1054=CARTESIAN_POINT('',(-2.721135E-014,15.004999999999846,3.379999999999999));
#1055=VERTEX_POINT('',#1054);
#1056=CARTESIAN_POINT('',(-2.704969E-014,15.004999999999846,4.699999999999999));
#1057=VERTEX_POINT('',#1056);
#1058=CARTESIAN_POINT('',(-2.721135E-014,15.004999999999839,3.38));
#1059=DIRECTION('',(0.0,0.0,1.0));
#1060=VECTOR('',#1059,1.319999999999999);
#1061=LINE('',#1058,#1060);
#1062=EDGE_CURVE('',#1055,#1057,#1061,.T.);
#1063=ORIENTED_EDGE('',*,*,#1062,.F.);
#1064=CARTESIAN_POINT('',(-2.816410E-014,18.89499999999984,3.379999999999998));
#1065=VERTEX_POINT('',#1064);
#1066=CARTESIAN_POINT('',(-2.756863E-014,16.949999999999839,3.379999999999999));
#1067=DIRECTION('',(0.0,0.0,1.0));
#1068=DIRECTION('',(0.0,-1.0,0.0));
#1069=AXIS2_PLACEMENT_3D('',#1066,#1067,#1068);
#1070=CIRCLE('',#1069,1.945);
#1071=EDGE_CURVE('',#1065,#1055,#1070,.T.);
#1072=ORIENTED_EDGE('',*,*,#1071,.F.);
#1073=CARTESIAN_POINT('',(-2.800245E-014,18.89499999999984,4.699999999999998));
#1074=VERTEX_POINT('',#1073);
#1075=CARTESIAN_POINT('',(-2.816410E-014,18.89499999999984,3.379999999999998));
#1076=DIRECTION('',(0.0,0.0,1.0));
#1077=VECTOR('',#1076,1.32);
#1078=LINE('',#1075,#1077);
#1079=EDGE_CURVE('',#1065,#1074,#1078,.T.);
#1080=ORIENTED_EDGE('',*,*,#1079,.T.);
#1081=CARTESIAN_POINT('',(-2.740697E-014,16.949999999999839,4.699999999999999));
#1082=DIRECTION('',(0.0,0.0,-1.0));
#1083=DIRECTION('',(0.0,-1.0,0.0));
#1084=AXIS2_PLACEMENT_3D('',#1081,#1082,#1083);
#1085=CIRCLE('',#1084,1.945);
#1086=EDGE_CURVE('',#1057,#1074,#1085,.T.);
#1087=ORIENTED_EDGE('',*,*,#1086,.F.);
#1088=EDGE_LOOP('',(#1063,#1072,#1080,#1087));
#1089=FACE_OUTER_BOUND('',#1088,.T.);
#1090=ADVANCED_FACE('',(#1089),#1053,.F.);
#1091=CARTESIAN_POINT('',(-2.756863E-014,16.949999999999839,3.379999999999999));
#1092=DIRECTION('',(1.224647E-016,4.440892E-016,1.0));
#1093=DIRECTION('',(0.0,-1.0,0.0));
#1094=AXIS2_PLACEMENT_3D('',#1091,#1092,#1093);
#1095=CYLINDRICAL_SURFACE('',#1094,1.945);
#1096=ORIENTED_EDGE('',*,*,#1062,.T.);
#1097=CARTESIAN_POINT('',(-2.740697E-014,16.949999999999839,4.699999999999999));
#1098=DIRECTION('',(0.0,0.0,-1.0));
#1099=DIRECTION('',(0.0,-1.0,0.0));
#1100=AXIS2_PLACEMENT_3D('',#1097,#1098,#1099);
#1101=CIRCLE('',#1100,1.945);
#1102=EDGE_CURVE('',#1074,#1057,#1101,.T.);
#1103=ORIENTED_EDGE('',*,*,#1102,.F.);
#1104=ORIENTED_EDGE('',*,*,#1079,.F.);
#1105=CARTESIAN_POINT('',(-2.756863E-014,16.949999999999839,3.379999999999999));
#1106=DIRECTION('',(0.0,0.0,1.0));
#1107=DIRECTION('',(0.0,-1.0,0.0));
#1108=AXIS2_PLACEMENT_3D('',#1105,#1106,#1107);
#1109=CIRCLE('',#1108,1.945);
#1110=EDGE_CURVE('',#1055,#1065,#1109,.T.);
#1111=ORIENTED_EDGE('',*,*,#1110,.F.);
#1112=EDGE_LOOP('',(#1096,#1103,#1104,#1111));
#1113=FACE_OUTER_BOUND('',#1112,.T.);
#1114=ADVANCED_FACE('',(#1113),#1095,.F.);
#1115=CARTESIAN_POINT('',(-5.270000000000009,12.889999999999779,4.700000000000001));
#1116=DIRECTION('',(0.0,-1.0,0.0));
#1117=DIRECTION('',(0.0,0.0,1.0));
#1118=AXIS2_PLACEMENT_3D('',#1115,#1116,#1117);
#1119=PLANE('',#1118);
#1120=CARTESIAN_POINT('',(-4.450000000000015,12.88999999999978,4.699999999999999));
#1121=VERTEX_POINT('',#1120);
#1122=CARTESIAN_POINT('',(-4.450000000000015,12.88999999999978,4.599999999999998));
#1123=VERTEX_POINT('',#1122);
#1124=CARTESIAN_POINT('',(-4.450000000000015,12.88999999999978,4.699999999999999));
#1125=DIRECTION('',(0.0,0.0,-1.0));
#1126=VECTOR('',#1125,0.1);
#1127=LINE('',#1124,#1126);
#1128=EDGE_CURVE('',#1121,#1123,#1127,.T.);
#1129=ORIENTED_EDGE('',*,*,#1128,.F.);
#1130=CARTESIAN_POINT('',(-5.270000000000009,12.889999999999779,4.700000000000001));
#1131=VERTEX_POINT('',#1130);
#1132=CARTESIAN_POINT('',(-5.270000000000009,12.889999999999779,4.700000000000001));
#1133=DIRECTION('',(1.0,0.0,0.0));
#1134=VECTOR('',#1133,0.819999999999993);
#1135=LINE('',#1132,#1134);
#1136=EDGE_CURVE('',#1131,#1121,#1135,.T.);
#1137=ORIENTED_EDGE('',*,*,#1136,.F.);
#1138=CARTESIAN_POINT('',(-5.270000000000009,12.889999999999779,3.380000000000001));
#1139=VERTEX_POINT('',#1138);
#1140=CARTESIAN_POINT('',(-5.270000000000009,12.889999999999779,4.700000000000001));
#1141=DIRECTION('',(0.0,0.0,-1.0));
#1142=VECTOR('',#1141,1.32);
#1143=LINE('',#1140,#1142);
#1144=EDGE_CURVE('',#1131,#1139,#1143,.T.);
#1145=ORIENTED_EDGE('',*,*,#1144,.T.);
#1146=CARTESIAN_POINT('',(5.269999999999984,12.889999999999782,3.379999999999999));
#1147=VERTEX_POINT('',#1146);
#1148=CARTESIAN_POINT('',(-5.270000000000009,12.889999999999779,3.380000000000001));
#1149=DIRECTION('',(1.0,0.0,0.0));
#1150=VECTOR('',#1149,10.539999999999992);
#1151=LINE('',#1148,#1150);
#1152=EDGE_CURVE('',#1139,#1147,#1151,.T.);
#1153=ORIENTED_EDGE('',*,*,#1152,.T.);
#1154=CARTESIAN_POINT('',(5.269999999999984,12.889999999999782,4.699999999999999));
#1155=VERTEX_POINT('',#1154);
#1156=CARTESIAN_POINT('',(5.269999999999984,12.889999999999782,4.699999999999999));
#1157=DIRECTION('',(0.0,0.0,-1.0));
#1158=VECTOR('',#1157,1.32);
#1159=LINE('',#1156,#1158);
#1160=EDGE_CURVE('',#1155,#1147,#1159,.T.);
#1161=ORIENTED_EDGE('',*,*,#1160,.F.);
#1162=CARTESIAN_POINT('',(4.44999999999999,12.88999999999978,4.699999999999998));
#1163=VERTEX_POINT('',#1162);
#1164=CARTESIAN_POINT('',(4.44999999999999,12.88999999999978,4.7));
#1165=DIRECTION('',(1.0,0.0,0.0));
#1166=VECTOR('',#1165,0.819999999999993);
#1167=LINE('',#1164,#1166);
#1168=EDGE_CURVE('',#1163,#1155,#1167,.T.);
#1169=ORIENTED_EDGE('',*,*,#1168,.F.);
#1170=CARTESIAN_POINT('',(4.44999999999999,12.88999999999978,4.599999999999998));
#1171=VERTEX_POINT('',#1170);
#1172=CARTESIAN_POINT('',(4.44999999999999,12.88999999999978,4.699999999999998));
#1173=DIRECTION('',(0.0,0.0,-1.0));
#1174=VECTOR('',#1173,0.1);
#1175=LINE('',#1172,#1174);
#1176=EDGE_CURVE('',#1163,#1171,#1175,.T.);
#1177=ORIENTED_EDGE('',*,*,#1176,.T.);
#1178=CARTESIAN_POINT('',(4.44999999999999,12.889999999999782,4.599999999999997));
#1179=DIRECTION('',(-1.0,0.0,0.0));
#1180=VECTOR('',#1179,8.900000000000006);
#1181=LINE('',#1178,#1180);
#1182=EDGE_CURVE('',#1171,#1123,#1181,.T.);
#1183=ORIENTED_EDGE('',*,*,#1182,.T.);
#1184=EDGE_LOOP('',(#1129,#1137,#1145,#1153,#1161,#1169,#1177,#1183));
#1185=FACE_OUTER_BOUND('',#1184,.T.);
#1186=ADVANCED_FACE('',(#1185),#1119,.T.);
#1187=CARTESIAN_POINT('',(5.269999999999984,12.889999999999782,4.699999999999999));
#1188=DIRECTION('',(1.0,0.0,0.0));
#1189=DIRECTION('',(0.0,0.0,1.0));
#1190=AXIS2_PLACEMENT_3D('',#1187,#1188,#1189);
#1191=PLANE('',#1190);
#1192=CARTESIAN_POINT('',(5.269999999999983,19.48999999999986,3.379999999999997));
#1193=VERTEX_POINT('',#1192);
#1194=CARTESIAN_POINT('',(5.269999999999984,12.889999999999782,3.379999999999999));
#1195=DIRECTION('',(0.0,1.0,0.0));
#1196=VECTOR('',#1195,6.600000000000078);
#1197=LINE('',#1194,#1196);
#1198=EDGE_CURVE('',#1147,#1193,#1197,.T.);
#1199=ORIENTED_EDGE('',*,*,#1198,.T.);
#1200=CARTESIAN_POINT('',(5.269999999999983,19.48999999999986,4.699999999999998));
#1201=VERTEX_POINT('',#1200);
#1202=CARTESIAN_POINT('',(5.269999999999983,19.48999999999986,4.699999999999998));
#1203=DIRECTION('',(0.0,0.0,-1.0));
#1204=VECTOR('',#1203,1.32);
#1205=LINE('',#1202,#1204);
#1206=EDGE_CURVE('',#1201,#1193,#1205,.T.);
#1207=ORIENTED_EDGE('',*,*,#1206,.F.);
#1208=CARTESIAN_POINT('',(5.269999999999984,12.889999999999782,4.699999999999999));
#1209=DIRECTION('',(0.0,1.0,0.0));
#1210=VECTOR('',#1209,6.600000000000078);
#1211=LINE('',#1208,#1210);
#1212=EDGE_CURVE('',#1155,#1201,#1211,.T.);
#1213=ORIENTED_EDGE('',*,*,#1212,.F.);
#1214=ORIENTED_EDGE('',*,*,#1160,.T.);
#1215=EDGE_LOOP('',(#1199,#1207,#1213,#1214));
#1216=FACE_OUTER_BOUND('',#1215,.T.);
#1217=ADVANCED_FACE('',(#1216),#1191,.T.);
#1218=CARTESIAN_POINT('',(5.269999999999983,19.48999999999986,4.699999999999998));
#1219=DIRECTION('',(0.0,1.0,0.0));
#1220=DIRECTION('',(0.0,0.0,-1.0));
#1221=AXIS2_PLACEMENT_3D('',#1218,#1219,#1220);
#1222=PLANE('',#1221);
#1223=CARTESIAN_POINT('',(-5.270000000000009,19.48999999999986,3.379999999999999));
#1224=VERTEX_POINT('',#1223);
#1225=CARTESIAN_POINT('',(5.269999999999983,19.48999999999986,3.379999999999997));
#1226=DIRECTION('',(-1.0,0.0,0.0));
#1227=VECTOR('',#1226,10.539999999999992);
#1228=LINE('',#1225,#1227);
#1229=EDGE_CURVE('',#1193,#1224,#1228,.T.);
#1230=ORIENTED_EDGE('',*,*,#1229,.T.);
#1231=CARTESIAN_POINT('',(-5.270000000000009,19.48999999999986,4.699999999999998));
#1232=VERTEX_POINT('',#1231);
#1233=CARTESIAN_POINT('',(-5.270000000000009,19.48999999999986,4.699999999999998));
#1234=DIRECTION('',(0.0,0.0,-1.0));
#1235=VECTOR('',#1234,1.32);
#1236=LINE('',#1233,#1235);
#1237=EDGE_CURVE('',#1232,#1224,#1236,.T.);
#1238=ORIENTED_EDGE('',*,*,#1237,.F.);
#1239=CARTESIAN_POINT('',(5.269999999999983,19.48999999999986,4.699999999999998));
#1240=DIRECTION('',(-1.0,0.0,0.0));
#1241=VECTOR('',#1240,10.539999999999992);
#1242=LINE('',#1239,#1241);
#1243=EDGE_CURVE('',#1201,#1232,#1242,.T.);
#1244=ORIENTED_EDGE('',*,*,#1243,.F.);
#1245=ORIENTED_EDGE('',*,*,#1206,.T.);
#1246=EDGE_LOOP('',(#1230,#1238,#1244,#1245));
#1247=FACE_OUTER_BOUND('',#1246,.T.);
#1248=ADVANCED_FACE('',(#1247),#1222,.T.);
#1249=CARTESIAN_POINT('',(-5.270000000000009,19.48999999999986,4.699999999999998));
#1250=DIRECTION('',(-1.0,0.0,0.0));
#1251=DIRECTION('',(0.0,0.0,-1.0));
#1252=AXIS2_PLACEMENT_3D('',#1249,#1250,#1251);
#1253=PLANE('',#1252);
#1254=CARTESIAN_POINT('',(-5.270000000000009,19.48999999999986,3.379999999999999));
#1255=DIRECTION('',(0.0,-1.0,0.0));
#1256=VECTOR('',#1255,6.60000000000008);
#1257=LINE('',#1254,#1256);
#1258=EDGE_CURVE('',#1224,#1139,#1257,.T.);
#1259=ORIENTED_EDGE('',*,*,#1258,.T.);
#1260=ORIENTED_EDGE('',*,*,#1144,.F.);
#1261=CARTESIAN_POINT('',(-5.270000000000009,19.48999999999986,4.699999999999998));
#1262=DIRECTION('',(0.0,-1.0,0.0));
#1263=VECTOR('',#1262,6.60000000000008);
#1264=LINE('',#1261,#1263);
#1265=EDGE_CURVE('',#1232,#1131,#1264,.T.);
#1266=ORIENTED_EDGE('',*,*,#1265,.F.);
#1267=ORIENTED_EDGE('',*,*,#1237,.T.);
#1268=EDGE_LOOP('',(#1259,#1260,#1266,#1267));
#1269=FACE_OUTER_BOUND('',#1268,.T.);
#1270=ADVANCED_FACE('',(#1269),#1253,.T.);
#1271=CARTESIAN_POINT('',(-2.742902E-014,16.189999999999849,3.379999999999999));
#1272=DIRECTION('',(0.0,0.0,-1.0));
#1273=DIRECTION('',(0.0,-1.0,0.0));
#1274=AXIS2_PLACEMENT_3D('',#1271,#1272,#1273);
#1275=PLANE('',#1274);
#1276=ORIENTED_EDGE('',*,*,#1152,.F.);
#1277=ORIENTED_EDGE('',*,*,#1258,.F.);
#1278=ORIENTED_EDGE('',*,*,#1229,.F.);
#1279=ORIENTED_EDGE('',*,*,#1198,.F.);
#1280=EDGE_LOOP('',(#1276,#1277,#1278,#1279));
#1281=FACE_OUTER_BOUND('',#1280,.T.);
#1282=ORIENTED_EDGE('',*,*,#1110,.T.);
#1283=ORIENTED_EDGE('',*,*,#1071,.T.);
#1284=EDGE_LOOP('',(#1282,#1283));
#1285=FACE_BOUND('',#1284,.T.);
#1286=ADVANCED_FACE('',(#1281,#1285),#1275,.T.);
#1287=CARTESIAN_POINT('',(-4.450000000000015,12.88999999999978,4.699999999999999));
#1288=DIRECTION('',(-1.0,0.0,0.0));
#1289=DIRECTION('',(0.0,0.0,-1.0));
#1290=AXIS2_PLACEMENT_3D('',#1287,#1288,#1289);
#1291=PLANE('',#1290);
#1292=CARTESIAN_POINT('',(-4.449999999999999,6.58999999999994,4.600000000000001));
#1293=VERTEX_POINT('',#1292);
#1294=CARTESIAN_POINT('',(-4.450000000000014,12.88999999999978,4.599999999999999));
#1295=DIRECTION('',(0.0,-1.0,0.0));
#1296=VECTOR('',#1295,6.299999999999841);
#1297=LINE('',#1294,#1296);
#1298=EDGE_CURVE('',#1123,#1293,#1297,.T.);
#1299=ORIENTED_EDGE('',*,*,#1298,.T.);
#1300=CARTESIAN_POINT('',(-4.449999999999999,6.58999999999994,4.700000000000001));
#1301=VERTEX_POINT('',#1300);
#1302=CARTESIAN_POINT('',(-4.449999999999999,6.58999999999994,4.700000000000001));
#1303=DIRECTION('',(0.0,0.0,-1.0));
#1304=VECTOR('',#1303,0.1);
#1305=LINE('',#1302,#1304);
#1306=EDGE_CURVE('',#1301,#1293,#1305,.T.);
#1307=ORIENTED_EDGE('',*,*,#1306,.F.);
#1308=CARTESIAN_POINT('',(-4.449999999999999,6.58999999999994,4.700000000000001));
#1309=DIRECTION('',(0.0,1.0,0.0));
#1310=VECTOR('',#1309,6.299999999999841);
#1311=LINE('',#1308,#1310);
#1312=EDGE_CURVE('',#1301,#1121,#1311,.T.);
#1313=ORIENTED_EDGE('',*,*,#1312,.T.);
#1314=ORIENTED_EDGE('',*,*,#1128,.T.);
#1315=EDGE_LOOP('',(#1299,#1307,#1313,#1314));
#1316=FACE_OUTER_BOUND('',#1315,.T.);
#1317=ADVANCED_FACE('',(#1316),#1291,.T.);
#1318=CARTESIAN_POINT('',(-4.449999999999999,6.58999999999994,4.700000000000001));
#1319=DIRECTION('',(0.0,-1.0,0.0));
#1320=DIRECTION('',(0.0,0.0,1.0));
#1321=AXIS2_PLACEMENT_3D('',#1318,#1319,#1320);
#1322=PLANE('',#1321);
#1323=CARTESIAN_POINT('',(4.449999999999992,6.589999999999941,4.6));
#1324=VERTEX_POINT('',#1323);
#1325=CARTESIAN_POINT('',(-4.449999999999999,6.58999999999994,4.600000000000001));
#1326=DIRECTION('',(1.0,0.0,0.0));
#1327=VECTOR('',#1326,8.899999999999992);
#1328=LINE('',#1325,#1327);
#1329=EDGE_CURVE('',#1293,#1324,#1328,.T.);
#1330=ORIENTED_EDGE('',*,*,#1329,.T.);
#1331=CARTESIAN_POINT('',(4.449999999999992,6.589999999999941,4.700000000000001));
#1332=VERTEX_POINT('',#1331);
#1333=CARTESIAN_POINT('',(4.449999999999992,6.589999999999941,4.700000000000001));
#1334=DIRECTION('',(0.0,0.0,-1.0));
#1335=VECTOR('',#1334,0.1);
#1336=LINE('',#1333,#1335);
#1337=EDGE_CURVE('',#1332,#1324,#1336,.T.);
#1338=ORIENTED_EDGE('',*,*,#1337,.F.);
#1339=CARTESIAN_POINT('',(4.449999999999992,6.589999999999941,4.700000000000001));
#1340=DIRECTION('',(-1.0,0.0,0.0));
#1341=VECTOR('',#1340,8.899999999999992);
#1342=LINE('',#1339,#1341);
#1343=EDGE_CURVE('',#1332,#1301,#1342,.T.);
#1344=ORIENTED_EDGE('',*,*,#1343,.T.);
#1345=ORIENTED_EDGE('',*,*,#1306,.T.);
#1346=EDGE_LOOP('',(#1330,#1338,#1344,#1345));
#1347=FACE_OUTER_BOUND('',#1346,.T.);
#1348=ADVANCED_FACE('',(#1347),#1322,.T.);
#1349=CARTESIAN_POINT('',(4.449999999999992,6.589999999999941,4.700000000000001));
#1350=DIRECTION('',(1.0,0.0,0.0));
#1351=DIRECTION('',(0.0,0.0,1.0));
#1352=AXIS2_PLACEMENT_3D('',#1349,#1350,#1351);
#1353=PLANE('',#1352);
#1354=CARTESIAN_POINT('',(4.449999999999991,6.58999999999994,4.600000000000001));
#1355=DIRECTION('',(0.0,1.0,0.0));
#1356=VECTOR('',#1355,6.299999999999841);
#1357=LINE('',#1354,#1356);
#1358=EDGE_CURVE('',#1324,#1171,#1357,.T.);
#1359=ORIENTED_EDGE('',*,*,#1358,.T.);
#1360=ORIENTED_EDGE('',*,*,#1176,.F.);
#1361=CARTESIAN_POINT('',(4.44999999999999,12.88999999999978,4.699999999999998));
#1362=DIRECTION('',(0.0,-1.0,0.0));
#1363=VECTOR('',#1362,6.299999999999841);
#1364=LINE('',#1361,#1363);
#1365=EDGE_CURVE('',#1163,#1332,#1364,.T.);
#1366=ORIENTED_EDGE('',*,*,#1365,.T.);
#1367=ORIENTED_EDGE('',*,*,#1337,.T.);
#1368=EDGE_LOOP('',(#1359,#1360,#1366,#1367));
#1369=FACE_OUTER_BOUND('',#1368,.T.);
#1370=ADVANCED_FACE('',(#1369),#1353,.T.);
#1371=CARTESIAN_POINT('',(2.326901E-015,9.73999999999986,4.6));
#1372=DIRECTION('',(0.0,0.0,-1.0));
#1373=DIRECTION('',(0.0,-1.0,0.0));
#1374=AXIS2_PLACEMENT_3D('',#1371,#1372,#1373);
#1375=PLANE('',#1374);
#1376=ORIENTED_EDGE('',*,*,#1298,.F.);
#1377=ORIENTED_EDGE('',*,*,#1182,.F.);
#1378=ORIENTED_EDGE('',*,*,#1358,.F.);
#1379=ORIENTED_EDGE('',*,*,#1329,.F.);
#1380=EDGE_LOOP('',(#1376,#1377,#1378,#1379));
#1381=FACE_OUTER_BOUND('',#1380,.T.);
#1382=ADVANCED_FACE('',(#1381),#1375,.T.);
#1383=CARTESIAN_POINT('',(2.339148E-015,9.73999999999986,4.699999999999999));
#1384=DIRECTION('',(0.0,0.0,-1.0));
#1385=DIRECTION('',(0.0,-1.0,0.0));
#1386=AXIS2_PLACEMENT_3D('',#1383,#1384,#1385);
#1387=PLANE('',#1386);
#1388=ORIENTED_EDGE('',*,*,#1312,.F.);
#1389=ORIENTED_EDGE('',*,*,#1343,.F.);
#1390=ORIENTED_EDGE('',*,*,#1365,.F.);
#1391=ORIENTED_EDGE('',*,*,#1168,.T.);
#1392=ORIENTED_EDGE('',*,*,#1212,.T.);
#1393=ORIENTED_EDGE('',*,*,#1243,.T.);
#1394=ORIENTED_EDGE('',*,*,#1265,.T.);
#1395=ORIENTED_EDGE('',*,*,#1136,.T.);
#1396=EDGE_LOOP('',(#1388,#1389,#1390,#1391,#1392,#1393,#1394,#1395));
#1397=FACE_OUTER_BOUND('',#1396,.T.);
#1398=ORIENTED_EDGE('',*,*,#1086,.T.);
#1399=ORIENTED_EDGE('',*,*,#1102,.T.);
#1400=EDGE_LOOP('',(#1398,#1399));
#1401=FACE_BOUND('',#1400,.T.);
#1402=ADVANCED_FACE('',(#1397,#1401),#1387,.F.);
#1403=CLOSED_SHELL('',(#1090,#1114,#1186,#1217,#1248,#1270,#1286,#1317,#1348,#1370,#1382,#1402));
#1404=MANIFOLD_SOLID_BREP('C1',#1403);
#1405=STYLED_ITEM('NONE',(#342),#1404);
#1406=CARTESIAN_POINT('',(3.269999999999984,6.180493304527111,1.900702E-013));
#1407=DIRECTION('',(1.224647E-016,4.440892E-016,1.0));
#1408=DIRECTION('',(0.0,-1.0,0.0));
#1409=AXIS2_PLACEMENT_3D('',#1406,#1407,#1408);
#1410=CYLINDRICAL_SURFACE('',#1409,0.8);
#1411=CARTESIAN_POINT('',(3.269999999999985,5.3804933045271,1.909584E-013));
#1412=VERTEX_POINT('',#1411);
#1413=CARTESIAN_POINT('',(3.269999999999985,5.3804933045271,0.100000000000191));
#1414=VERTEX_POINT('',#1413);
#1415=CARTESIAN_POINT('',(3.269999999999984,5.380493304527112,1.909584E-013));
#1416=DIRECTION('',(0.0,0.0,1.0));
#1417=VECTOR('',#1416,0.099999999999999);
#1418=LINE('',#1415,#1417);
#1419=EDGE_CURVE('',#1412,#1414,#1418,.T.);
#1420=ORIENTED_EDGE('',*,*,#1419,.F.);
#1421=CARTESIAN_POINT('',(3.269999999999984,6.980493304527111,-1.723066E-014));
#1422=VERTEX_POINT('',#1421);
#1423=CARTESIAN_POINT('',(3.269999999999984,6.180493304527111,-1.687539E-014));
#1424=DIRECTION('',(0.0,0.0,1.0));
#1425=DIRECTION('',(0.0,-1.0,0.0));
#1426=AXIS2_PLACEMENT_3D('',#1423,#1424,#1425);
#1427=CIRCLE('',#1426,0.8);
#1428=EDGE_CURVE('',#1422,#1412,#1427,.T.);
#1429=ORIENTED_EDGE('',*,*,#1428,.F.);
#1430=CARTESIAN_POINT('',(3.269999999999984,6.980493304527111,0.100000000000189));
#1431=VERTEX_POINT('',#1430);
#1432=CARTESIAN_POINT('',(3.269999999999984,6.980493304527111,-1.723066E-014));
#1433=DIRECTION('',(0.0,0.0,1.0));
#1434=VECTOR('',#1433,0.100000000000207);
#1435=LINE('',#1432,#1434);
#1436=EDGE_CURVE('',#1422,#1431,#1435,.T.);
#1437=ORIENTED_EDGE('',*,*,#1436,.T.);
#1438=CARTESIAN_POINT('',(3.269999999999984,6.180493304527111,0.10000000000019));
#1439=DIRECTION('',(0.0,0.0,-1.0));
#1440=DIRECTION('',(0.0,-1.0,0.0));
#1441=AXIS2_PLACEMENT_3D('',#1438,#1439,#1440);
#1442=CIRCLE('',#1441,0.8);
#1443=EDGE_CURVE('',#1414,#1431,#1442,.T.);
#1444=ORIENTED_EDGE('',*,*,#1443,.F.);
#1445=EDGE_LOOP('',(#1420,#1429,#1437,#1444));
#1446=FACE_OUTER_BOUND('',#1445,.T.);
#1447=ADVANCED_FACE('',(#1446),#1410,.F.);
#1448=CARTESIAN_POINT('',(3.269999999999984,6.180493304527111,1.900702E-013));
#1449=DIRECTION('',(1.224647E-016,4.440892E-016,1.0));
#1450=DIRECTION('',(0.0,-1.0,0.0));
#1451=AXIS2_PLACEMENT_3D('',#1448,#1449,#1450);
#1452=CYLINDRICAL_SURFACE('',#1451,0.8);
#1453=ORIENTED_EDGE('',*,*,#1419,.T.);
#1454=CARTESIAN_POINT('',(3.269999999999984,6.180493304527111,0.10000000000019));
#1455=DIRECTION('',(0.0,0.0,-1.0));
#1456=DIRECTION('',(0.0,-1.0,0.0));
#1457=AXIS2_PLACEMENT_3D('',#1454,#1455,#1456);
#1458=CIRCLE('',#1457,0.8);
#1459=EDGE_CURVE('',#1431,#1414,#1458,.T.);
#1460=ORIENTED_EDGE('',*,*,#1459,.F.);
#1461=ORIENTED_EDGE('',*,*,#1436,.F.);
#1462=CARTESIAN_POINT('',(3.269999999999984,6.180493304527111,-1.687539E-014));
#1463=DIRECTION('',(0.0,0.0,1.0));
#1464=DIRECTION('',(0.0,-1.0,0.0));
#1465=AXIS2_PLACEMENT_3D('',#1462,#1463,#1464);
#1466=CIRCLE('',#1465,0.8);
#1467=EDGE_CURVE('',#1412,#1422,#1466,.T.);
#1468=ORIENTED_EDGE('',*,*,#1467,.F.);
#1469=EDGE_LOOP('',(#1453,#1460,#1461,#1468));
#1470=FACE_OUTER_BOUND('',#1469,.T.);
#1471=ADVANCED_FACE('',(#1470),#1452,.F.);
#1472=CARTESIAN_POINT('',(3.269999999999984,6.180493304527111,0.10000000000019));
#1473=DIRECTION('',(0.0,0.0,-1.0));
#1474=DIRECTION('',(0.0,-1.0,0.0));
#1475=AXIS2_PLACEMENT_3D('',#1472,#1473,#1474);
#1476=PLANE('',#1475);
#1477=ORIENTED_EDGE('',*,*,#1443,.T.);
#1478=ORIENTED_EDGE('',*,*,#1459,.T.);
#1479=EDGE_LOOP('',(#1477,#1478));
#1480=FACE_OUTER_BOUND('',#1479,.T.);
#1481=ADVANCED_FACE('',(#1480),#1476,.T.);
#1482=CARTESIAN_POINT('',(-4.450000000000015,12.88999999999978,4.699999999999999));
#1483=DIRECTION('',(-1.0,0.0,0.0));
#1484=DIRECTION('',(0.0,0.0,-1.0));
#1485=AXIS2_PLACEMENT_3D('',#1482,#1483,#1484);
#1486=PLANE('',#1485);
#1487=CARTESIAN_POINT('',(-4.450000000000015,12.88999999999978,4.599999999999998));
#1488=VERTEX_POINT('',#1487);
#1489=CARTESIAN_POINT('',(-4.449999999999999,6.58999999999994,4.600000000000001));
#1490=VERTEX_POINT('',#1489);
#1491=CARTESIAN_POINT('',(-4.450000000000014,12.88999999999978,4.599999999999999));
#1492=DIRECTION('',(0.0,-1.0,0.0));
#1493=VECTOR('',#1492,6.299999999999841);
#1494=LINE('',#1491,#1493);
#1495=EDGE_CURVE('',#1488,#1490,#1494,.T.);
#1496=ORIENTED_EDGE('',*,*,#1495,.F.);
#1497=CARTESIAN_POINT('',(-4.450000000000015,12.88999999999978,4.699999999999999));
#1498=VERTEX_POINT('',#1497);
#1499=CARTESIAN_POINT('',(-4.450000000000015,12.88999999999978,4.699999999999999));
#1500=DIRECTION('',(0.0,0.0,-1.0));
#1501=VECTOR('',#1500,0.1);
#1502=LINE('',#1499,#1501);
#1503=EDGE_CURVE('',#1498,#1488,#1502,.T.);
#1504=ORIENTED_EDGE('',*,*,#1503,.F.);
#1505=CARTESIAN_POINT('',(-4.449999999999999,6.58999999999994,4.700000000000001));
#1506=VERTEX_POINT('',#1505);
#1507=CARTESIAN_POINT('',(-4.45,6.58999999999994,4.700000000000003));
#1508=DIRECTION('',(0.0,1.0,0.0));
#1509=VECTOR('',#1508,6.299999999999841);
#1510=LINE('',#1507,#1509);
#1511=EDGE_CURVE('',#1506,#1498,#1510,.T.);
#1512=ORIENTED_EDGE('',*,*,#1511,.F.);
#1513=CARTESIAN_POINT('',(-4.449999999999999,6.58999999999994,4.700000000000001));
#1514=DIRECTION('',(0.0,0.0,-1.0));
#1515=VECTOR('',#1514,0.1);
#1516=LINE('',#1513,#1515);
#1517=EDGE_CURVE('',#1506,#1490,#1516,.T.);
#1518=ORIENTED_EDGE('',*,*,#1517,.T.);
#1519=EDGE_LOOP('',(#1496,#1504,#1512,#1518));
#1520=FACE_OUTER_BOUND('',#1519,.T.);
#1521=ADVANCED_FACE('',(#1520),#1486,.F.);
#1522=CARTESIAN_POINT('',(-4.449999999999999,6.58999999999994,4.700000000000001));
#1523=DIRECTION('',(0.0,-1.0,0.0));
#1524=DIRECTION('',(0.0,0.0,1.0));
#1525=AXIS2_PLACEMENT_3D('',#1522,#1523,#1524);
#1526=PLANE('',#1525);
#1527=CARTESIAN_POINT('',(4.449999999999992,6.589999999999941,4.6));
#1528=VERTEX_POINT('',#1527);
#1529=CARTESIAN_POINT('',(-4.449999999999999,6.58999999999994,4.600000000000001));
#1530=DIRECTION('',(1.0,0.0,0.0));
#1531=VECTOR('',#1530,8.899999999999992);
#1532=LINE('',#1529,#1531);
#1533=EDGE_CURVE('',#1490,#1528,#1532,.T.);
#1534=ORIENTED_EDGE('',*,*,#1533,.F.);
#1535=ORIENTED_EDGE('',*,*,#1517,.F.);
#1536=CARTESIAN_POINT('',(4.449999999999992,6.589999999999941,4.700000000000001));
#1537=VERTEX_POINT('',#1536);
#1538=CARTESIAN_POINT('',(4.449999999999991,6.589999999999941,4.699999999999999));
#1539=DIRECTION('',(-1.0,0.0,0.0));
#1540=VECTOR('',#1539,8.899999999999992);
#1541=LINE('',#1538,#1540);
#1542=EDGE_CURVE('',#1537,#1506,#1541,.T.);
#1543=ORIENTED_EDGE('',*,*,#1542,.F.);
#1544=CARTESIAN_POINT('',(4.449999999999992,6.589999999999941,4.700000000000001));
#1545=DIRECTION('',(0.0,0.0,-1.0));
#1546=VECTOR('',#1545,0.1);
#1547=LINE('',#1544,#1546);
#1548=EDGE_CURVE('',#1537,#1528,#1547,.T.);
#1549=ORIENTED_EDGE('',*,*,#1548,.T.);
#1550=EDGE_LOOP('',(#1534,#1535,#1543,#1549));
#1551=FACE_OUTER_BOUND('',#1550,.T.);
#1552=ADVANCED_FACE('',(#1551),#1526,.F.);
#1553=CARTESIAN_POINT('',(4.449999999999992,6.589999999999941,4.700000000000001));
#1554=DIRECTION('',(1.0,0.0,0.0));
#1555=DIRECTION('',(0.0,0.0,1.0));
#1556=AXIS2_PLACEMENT_3D('',#1553,#1554,#1555);
#1557=PLANE('',#1556);
#1558=CARTESIAN_POINT('',(4.44999999999999,12.88999999999978,4.599999999999998));
#1559=VERTEX_POINT('',#1558);
#1560=CARTESIAN_POINT('',(4.449999999999991,6.58999999999994,4.600000000000001));
#1561=DIRECTION('',(0.0,1.0,0.0));
#1562=VECTOR('',#1561,6.299999999999841);
#1563=LINE('',#1560,#1562);
#1564=EDGE_CURVE('',#1528,#1559,#1563,.T.);
#1565=ORIENTED_EDGE('',*,*,#1564,.F.);
#1566=ORIENTED_EDGE('',*,*,#1548,.F.);
#1567=CARTESIAN_POINT('',(4.44999999999999,12.88999999999978,4.699999999999998));
#1568=VERTEX_POINT('',#1567);
#1569=CARTESIAN_POINT('',(4.44999999999999,12.88999999999978,4.699999999999998));
#1570=DIRECTION('',(0.0,-1.0,0.0));
#1571=VECTOR('',#1570,6.299999999999841);
#1572=LINE('',#1569,#1571);
#1573=EDGE_CURVE('',#1568,#1537,#1572,.T.);
#1574=ORIENTED_EDGE('',*,*,#1573,.F.);
#1575=CARTESIAN_POINT('',(4.44999999999999,12.88999999999978,4.599999999999998));
#1576=DIRECTION('',(0.0,0.0,1.0));
#1577=VECTOR('',#1576,0.100000000000001);
#1578=LINE('',#1575,#1577);
#1579=EDGE_CURVE('',#1559,#1568,#1578,.T.);
#1580=ORIENTED_EDGE('',*,*,#1579,.F.);
#1581=EDGE_LOOP('',(#1565,#1566,#1574,#1580));
#1582=FACE_OUTER_BOUND('',#1581,.T.);
#1583=ADVANCED_FACE('',(#1582),#1557,.F.);
#1584=CARTESIAN_POINT('',(2.326901E-015,9.73999999999986,4.6));
#1585=DIRECTION('',(0.0,0.0,-1.0));
#1586=DIRECTION('',(0.0,-1.0,0.0));
#1587=AXIS2_PLACEMENT_3D('',#1584,#1585,#1586);
#1588=PLANE('',#1587);
#1589=ORIENTED_EDGE('',*,*,#1495,.T.);
#1590=ORIENTED_EDGE('',*,*,#1533,.T.);
#1591=ORIENTED_EDGE('',*,*,#1564,.T.);
#1592=CARTESIAN_POINT('',(-4.450000000000015,12.88999999999978,4.599999999999999));
#1593=DIRECTION('',(1.0,0.0,0.0));
#1594=VECTOR('',#1593,8.900000000000006);
#1595=LINE('',#1592,#1594);
#1596=EDGE_CURVE('',#1488,#1559,#1595,.T.);
#1597=ORIENTED_EDGE('',*,*,#1596,.F.);
#1598=EDGE_LOOP('',(#1589,#1590,#1591,#1597));
#1599=FACE_OUTER_BOUND('',#1598,.T.);
#1600=ADVANCED_FACE('',(#1599),#1588,.F.);
#1601=CARTESIAN_POINT('',(5.269999999999984,12.889999999999782,4.699999999999998));
#1602=DIRECTION('',(0.0,0.0,1.0));
#1603=DIRECTION('',(-1.0,0.0,0.0));
#1604=AXIS2_PLACEMENT_3D('',#1601,#1602,#1603);
#1605=PLANE('',#1604);
#1606=ORIENTED_EDGE('',*,*,#1573,.T.);
#1607=ORIENTED_EDGE('',*,*,#1542,.T.);
#1608=ORIENTED_EDGE('',*,*,#1511,.T.);
#1609=CARTESIAN_POINT('',(-5.270000000000009,12.889999999999779,4.700000000000001));
#1610=VERTEX_POINT('',#1609);
#1611=CARTESIAN_POINT('',(-4.450000000000015,12.889999999999782,4.700000000000002));
#1612=DIRECTION('',(-1.0,0.0,0.0));
#1613=VECTOR('',#1612,0.819999999999993);
#1614=LINE('',#1611,#1613);
#1615=EDGE_CURVE('',#1498,#1610,#1614,.T.);
#1616=ORIENTED_EDGE('',*,*,#1615,.T.);
#1617=CARTESIAN_POINT('',(-5.270000000000007,4.280628308159145,4.700000000000005));
#1618=VERTEX_POINT('',#1617);
#1619=CARTESIAN_POINT('',(-5.270000000000007,12.88999999999978,4.700000000000003));
#1620=DIRECTION('',(0.0,-1.0,0.0));
#1621=VECTOR('',#1620,8.609371691840636);
#1622=LINE('',#1619,#1621);
#1623=EDGE_CURVE('',#1610,#1618,#1622,.T.);
#1624=ORIENTED_EDGE('',*,*,#1623,.T.);
#1625=CARTESIAN_POINT('',(5.269999999999985,4.280628308159146,4.700000000000001));
#1626=VERTEX_POINT('',#1625);
#1627=CARTESIAN_POINT('',(5.269999999999985,4.280628308159146,4.700000000000001));
#1628=DIRECTION('',(-1.0,0.0,0.0));
#1629=VECTOR('',#1628,10.539999999999999);
#1630=LINE('',#1627,#1629);
#1631=EDGE_CURVE('',#1626,#1618,#1630,.T.);
#1632=ORIENTED_EDGE('',*,*,#1631,.F.);
#1633=CARTESIAN_POINT('',(5.269999999999984,12.889999999999782,4.699999999999998));
#1634=VERTEX_POINT('',#1633);
#1635=CARTESIAN_POINT('',(5.269999999999985,4.280628308159146,4.700000000000001));
#1636=DIRECTION('',(0.0,1.0,0.0));
#1637=VECTOR('',#1636,8.609371691840636);
#1638=LINE('',#1635,#1637);
#1639=EDGE_CURVE('',#1626,#1634,#1638,.T.);
#1640=ORIENTED_EDGE('',*,*,#1639,.T.);
#1641=CARTESIAN_POINT('',(5.269999999999984,12.889999999999782,4.699999999999998));
#1642=DIRECTION('',(-1.0,0.0,0.0));
#1643=VECTOR('',#1642,0.819999999999993);
#1644=LINE('',#1641,#1643);
#1645=EDGE_CURVE('',#1634,#1568,#1644,.T.);
#1646=ORIENTED_EDGE('',*,*,#1645,.T.);
#1647=EDGE_LOOP('',(#1606,#1607,#1608,#1616,#1624,#1632,#1640,#1646));
#1648=FACE_OUTER_BOUND('',#1647,.T.);
#1649=ADVANCED_FACE('',(#1648),#1605,.T.);
#1650=CARTESIAN_POINT('',(5.269999999999985,4.280628308159146,4.700000000000001));
#1651=DIRECTION('',(6.659053E-018,-0.994521895368278,0.10452846326761));
#1652=DIRECTION('',(-1.0,0.0,0.0));
#1653=AXIS2_PLACEMENT_3D('',#1650,#1651,#1652);
#1654=PLANE('',#1653);
#1655=CARTESIAN_POINT('',(-5.270000000000007,3.999999999999906,2.030000000000017));
#1656=VERTEX_POINT('',#1655);
#1657=CARTESIAN_POINT('',(-5.270000000000006,4.280628308159144,4.700000000000005));
#1658=DIRECTION('',(-3.308288E-016,-0.10452846326761,-0.994521895368278));
#1659=VECTOR('',#1658,2.684707106434564);
#1660=LINE('',#1657,#1659);
#1661=EDGE_CURVE('',#1618,#1656,#1660,.T.);
#1662=ORIENTED_EDGE('',*,*,#1661,.T.);
#1663=CARTESIAN_POINT('',(5.269999999999985,3.999999999999908,2.030000000000014));
#1664=VERTEX_POINT('',#1663);
#1665=CARTESIAN_POINT('',(5.269999999999985,3.999999999999908,2.030000000000014));
#1666=DIRECTION('',(-1.0,0.0,0.0));
#1667=VECTOR('',#1666,10.539999999999999);
#1668=LINE('',#1665,#1667);
#1669=EDGE_CURVE('',#1664,#1656,#1668,.T.);
#1670=ORIENTED_EDGE('',*,*,#1669,.F.);
#1671=CARTESIAN_POINT('',(5.269999999999985,3.999999999999908,2.030000000000014));
#1672=DIRECTION('',(3.308288E-016,0.10452846326761,0.994521895368278));
#1673=VECTOR('',#1672,2.684707106434564);
#1674=LINE('',#1671,#1673);
#1675=EDGE_CURVE('',#1664,#1626,#1674,.T.);
#1676=ORIENTED_EDGE('',*,*,#1675,.T.);
#1677=ORIENTED_EDGE('',*,*,#1631,.T.);
#1678=EDGE_LOOP('',(#1662,#1670,#1676,#1677));
#1679=FACE_OUTER_BOUND('',#1678,.T.);
#1680=ADVANCED_FACE('',(#1679),#1654,.T.);
#1681=CARTESIAN_POINT('',(5.269999999999985,3.999999999999908,2.030000000000014));
#1682=DIRECTION('',(0.0,-1.0,0.0));
#1683=DIRECTION('',(-1.0,0.0,0.0));
#1684=AXIS2_PLACEMENT_3D('',#1681,#1682,#1683);
#1685=PLANE('',#1684);
#1686=CARTESIAN_POINT('',(-5.270000000000007,3.999999999999906,1.470000000000029));
#1687=VERTEX_POINT('',#1686);
#1688=CARTESIAN_POINT('',(-5.270000000000007,3.999999999999906,2.030000000000017));
#1689=DIRECTION('',(0.0,0.0,-1.0));
#1690=VECTOR('',#1689,0.559999999999988);
#1691=LINE('',#1688,#1690);
#1692=EDGE_CURVE('',#1656,#1687,#1691,.T.);
#1693=ORIENTED_EDGE('',*,*,#1692,.T.);
#1694=CARTESIAN_POINT('',(5.269999999999985,3.999999999999908,1.470000000000026));
#1695=VERTEX_POINT('',#1694);
#1696=CARTESIAN_POINT('',(5.269999999999985,3.999999999999908,1.470000000000026));
#1697=DIRECTION('',(-1.0,0.0,0.0));
#1698=VECTOR('',#1697,10.539999999999999);
#1699=LINE('',#1696,#1698);
#1700=EDGE_CURVE('',#1695,#1687,#1699,.T.);
#1701=ORIENTED_EDGE('',*,*,#1700,.F.);
#1702=CARTESIAN_POINT('',(5.269999999999985,3.999999999999908,1.470000000000026));
#1703=DIRECTION('',(0.0,0.0,1.0));
#1704=VECTOR('',#1703,0.559999999999988);
#1705=LINE('',#1702,#1704);
#1706=EDGE_CURVE('',#1695,#1664,#1705,.T.);
#1707=ORIENTED_EDGE('',*,*,#1706,.T.);
#1708=ORIENTED_EDGE('',*,*,#1669,.T.);
#1709=EDGE_LOOP('',(#1693,#1701,#1707,#1708));
#1710=FACE_OUTER_BOUND('',#1709,.T.);
#1711=ADVANCED_FACE('',(#1710),#1685,.T.);
#1712=CARTESIAN_POINT('',(5.269999999999985,3.999999999999908,1.470000000000026));
#1713=DIRECTION('',(-9.030295E-017,-0.992546151641328,-0.1218693434051));
#1714=DIRECTION('',(-1.0,0.0,0.0));
#1715=AXIS2_PLACEMENT_3D('',#1712,#1713,#1714);
#1716=PLANE('',#1715);
#1717=CARTESIAN_POINT('',(-5.270000000000008,4.18049330452711,-1.154632E-014));
#1718=VERTEX_POINT('',#1717);
#1719=CARTESIAN_POINT('',(-5.270000000000007,3.999999999999906,1.47000000000003));
#1720=DIRECTION('',(-5.996994E-016,0.1218693434051,-0.992546151641328));
#1721=VECTOR('',#1720,1.48103944342454);
#1722=LINE('',#1719,#1721);
#1723=EDGE_CURVE('',#1687,#1718,#1722,.T.);
#1724=ORIENTED_EDGE('',*,*,#1723,.T.);
#1725=CARTESIAN_POINT('',(5.269999999999985,4.180493304527111,-1.598721E-014));
#1726=VERTEX_POINT('',#1725);
#1727=CARTESIAN_POINT('',(5.269999999999985,4.180493304527111,-1.598721E-014));
#1728=DIRECTION('',(-1.0,0.0,0.0));
#1729=VECTOR('',#1728,10.539999999999999);
#1730=LINE('',#1727,#1729);
#1731=EDGE_CURVE('',#1726,#1718,#1730,.T.);
#1732=ORIENTED_EDGE('',*,*,#1731,.F.);
#1733=CARTESIAN_POINT('',(5.269999999999985,4.180493304527111,-1.598721E-014));
#1734=DIRECTION('',(5.996994E-016,-0.1218693434051,0.992546151641328));
#1735=VECTOR('',#1734,1.48103944342454);
#1736=LINE('',#1733,#1735);
#1737=EDGE_CURVE('',#1726,#1695,#1736,.T.);
#1738=ORIENTED_EDGE('',*,*,#1737,.T.);
#1739=ORIENTED_EDGE('',*,*,#1700,.T.);
#1740=EDGE_LOOP('',(#1724,#1732,#1738,#1739));
#1741=FACE_OUTER_BOUND('',#1740,.T.);
#1742=ADVANCED_FACE('',(#1741),#1716,.T.);
#1743=CARTESIAN_POINT('',(5.269999999999985,4.180493304527111,-1.598721E-014));
#1744=DIRECTION('',(0.0,0.0,-1.0));
#1745=DIRECTION('',(1.0,0.0,0.0));
#1746=AXIS2_PLACEMENT_3D('',#1743,#1744,#1745);
#1747=PLANE('',#1746);
#1748=CARTESIAN_POINT('',(-5.270000000000009,12.474988184148078,1.332268E-014));
#1749=VERTEX_POINT('',#1748);
#1750=CARTESIAN_POINT('',(-5.270000000000009,4.180493304527108,-1.325729E-014));
#1751=DIRECTION('',(0.0,1.0,0.0));
#1752=VECTOR('',#1751,8.29449487962097);
#1753=LINE('',#1750,#1752);
#1754=EDGE_CURVE('',#1718,#1749,#1753,.T.);
#1755=ORIENTED_EDGE('',*,*,#1754,.T.);
#1756=CARTESIAN_POINT('',(5.269999999999983,12.474988184148081,8.881784E-015));
#1757=VERTEX_POINT('',#1756);
#1758=CARTESIAN_POINT('',(5.269999999999983,12.474988184148081,8.881784E-015));
#1759=DIRECTION('',(-1.0,0.0,0.0));
#1760=VECTOR('',#1759,10.539999999999999);
#1761=LINE('',#1758,#1760);
#1762=EDGE_CURVE('',#1757,#1749,#1761,.T.);
#1763=ORIENTED_EDGE('',*,*,#1762,.F.);
#1764=CARTESIAN_POINT('',(5.269999999999983,12.474988184148081,8.881784E-015));
#1765=DIRECTION('',(0.0,-1.0,0.0));
#1766=VECTOR('',#1765,8.29449487962097);
#1767=LINE('',#1764,#1766);
#1768=EDGE_CURVE('',#1757,#1726,#1767,.T.);
#1769=ORIENTED_EDGE('',*,*,#1768,.T.);
#1770=ORIENTED_EDGE('',*,*,#1731,.T.);
#1771=EDGE_LOOP('',(#1755,#1763,#1769,#1770));
#1772=FACE_OUTER_BOUND('',#1771,.T.);
#1773=ORIENTED_EDGE('',*,*,#1467,.T.);
#1774=ORIENTED_EDGE('',*,*,#1428,.T.);
#1775=EDGE_LOOP('',(#1773,#1774));
#1776=FACE_BOUND('',#1775,.T.);
#1777=ADVANCED_FACE('',(#1772,#1776),#1747,.T.);
#1778=CARTESIAN_POINT('',(5.269999999999983,12.474988184148081,8.881784E-015));
#1779=DIRECTION('',(-1.416741E-017,0.992546151641326,-0.121869343405114));
#1780=DIRECTION('',(1.0,0.0,0.0));
#1781=AXIS2_PLACEMENT_3D('',#1778,#1779,#1780);
#1782=PLANE('',#1781);
#1783=CARTESIAN_POINT('',(-5.270000000000009,12.889999999999779,3.380000000000008));
#1784=VERTEX_POINT('',#1783);
#1785=CARTESIAN_POINT('',(-5.27000000000001,12.47498818414808,1.199041E-014));
#1786=DIRECTION('',(5.216320E-016,0.121869343405113,0.992546151641326));
#1787=VECTOR('',#1786,3.405383210050889);
#1788=LINE('',#1785,#1787);
#1789=EDGE_CURVE('',#1749,#1784,#1788,.T.);
#1790=ORIENTED_EDGE('',*,*,#1789,.T.);
#1791=CARTESIAN_POINT('',(5.269999999999984,12.889999999999782,3.380000000000004));
#1792=VERTEX_POINT('',#1791);
#1793=CARTESIAN_POINT('',(5.269999999999984,12.889999999999782,3.380000000000004));
#1794=DIRECTION('',(-1.0,0.0,0.0));
#1795=VECTOR('',#1794,10.539999999999999);
#1796=LINE('',#1793,#1795);
#1797=EDGE_CURVE('',#1792,#1784,#1796,.T.);
#1798=ORIENTED_EDGE('',*,*,#1797,.F.);
#1799=CARTESIAN_POINT('',(5.269999999999984,12.889999999999782,3.380000000000004));
#1800=DIRECTION('',(-5.216320E-016,-0.121869343405113,-0.992546151641326));
#1801=VECTOR('',#1800,3.405383210050888);
#1802=LINE('',#1799,#1801);
#1803=EDGE_CURVE('',#1792,#1757,#1802,.T.);
#1804=ORIENTED_EDGE('',*,*,#1803,.T.);
#1805=ORIENTED_EDGE('',*,*,#1762,.T.);
#1806=EDGE_LOOP('',(#1790,#1798,#1804,#1805));
#1807=FACE_OUTER_BOUND('',#1806,.T.);
#1808=ADVANCED_FACE('',(#1807),#1782,.T.);
#1809=CARTESIAN_POINT('',(5.269999999999984,12.889999999999782,3.380000000000004));
#1810=DIRECTION('',(0.0,1.0,0.0));
#1811=DIRECTION('',(1.0,0.0,0.0));
#1812=AXIS2_PLACEMENT_3D('',#1809,#1810,#1811);
#1813=PLANE('',#1812);
#1814=ORIENTED_EDGE('',*,*,#1579,.T.);
#1815=ORIENTED_EDGE('',*,*,#1645,.F.);
#1816=CARTESIAN_POINT('',(5.269999999999984,12.889999999999782,4.699999999999998));
#1817=DIRECTION('',(0.0,0.0,-1.0));
#1818=VECTOR('',#1817,1.319999999999993);
#1819=LINE('',#1816,#1818);
#1820=EDGE_CURVE('',#1634,#1792,#1819,.T.);
#1821=ORIENTED_EDGE('',*,*,#1820,.T.);
#1822=ORIENTED_EDGE('',*,*,#1797,.T.);
#1823=CARTESIAN_POINT('',(-5.270000000000009,12.889999999999779,3.380000000000008));
#1824=DIRECTION('',(0.0,0.0,1.0));
#1825=VECTOR('',#1824,1.319999999999993);
#1826=LINE('',#1823,#1825);
#1827=EDGE_CURVE('',#1784,#1610,#1826,.T.);
#1828=ORIENTED_EDGE('',*,*,#1827,.T.);
#1829=ORIENTED_EDGE('',*,*,#1615,.F.);
#1830=ORIENTED_EDGE('',*,*,#1503,.T.);
#1831=ORIENTED_EDGE('',*,*,#1596,.T.);
#1832=EDGE_LOOP('',(#1814,#1815,#1821,#1822,#1828,#1829,#1830,#1831));
#1833=FACE_OUTER_BOUND('',#1832,.T.);
#1834=ADVANCED_FACE('',(#1833),#1813,.T.);
#1835=CARTESIAN_POINT('',(-5.270000000000008,8.446423619563081,2.377330931597427));
#1836=DIRECTION('',(1.0,0.0,0.0));
#1837=DIRECTION('',(0.0,-1.0,0.0));
#1838=AXIS2_PLACEMENT_3D('',#1835,#1836,#1837);
#1839=PLANE('',#1838);
#1840=ORIENTED_EDGE('',*,*,#1623,.F.);
#1841=ORIENTED_EDGE('',*,*,#1827,.F.);
#1842=ORIENTED_EDGE('',*,*,#1789,.F.);
#1843=ORIENTED_EDGE('',*,*,#1754,.F.);
#1844=ORIENTED_EDGE('',*,*,#1723,.F.);
#1845=ORIENTED_EDGE('',*,*,#1692,.F.);
#1846=ORIENTED_EDGE('',*,*,#1661,.F.);
#1847=EDGE_LOOP('',(#1840,#1841,#1842,#1843,#1844,#1845,#1846));
#1848=FACE_OUTER_BOUND('',#1847,.T.);
#1849=ADVANCED_FACE('',(#1848),#1839,.F.);
#1850=CARTESIAN_POINT('',(5.269999999999985,8.446423619563085,2.377330931597424));
#1851=DIRECTION('',(1.0,0.0,0.0));
#1852=DIRECTION('',(0.0,-1.0,0.0));
#1853=AXIS2_PLACEMENT_3D('',#1850,#1851,#1852);
#1854=PLANE('',#1853);
#1855=ORIENTED_EDGE('',*,*,#1820,.F.);
#1856=ORIENTED_EDGE('',*,*,#1639,.F.);
#1857=ORIENTED_EDGE('',*,*,#1675,.F.);
#1858=ORIENTED_EDGE('',*,*,#1706,.F.);
#1859=ORIENTED_EDGE('',*,*,#1737,.F.);
#1860=ORIENTED_EDGE('',*,*,#1768,.F.);
#1861=ORIENTED_EDGE('',*,*,#1803,.F.);
#1862=EDGE_LOOP('',(#1855,#1856,#1857,#1858,#1859,#1860,#1861));
#1863=FACE_OUTER_BOUND('',#1862,.T.);
#1864=ADVANCED_FACE('',(#1863),#1854,.T.);
#1865=CLOSED_SHELL('',(#1447,#1471,#1481,#1521,#1552,#1583,#1600,#1649,#1680,#1711,#1742,#1777,#1808,#1834,#1849,#1864));
#1866=MANIFOLD_SOLID_BREP('A1',#1865);
#1867=COLOUR_RGB('250',0.33,0.33,0.33);
#1868=SURFACE_STYLE_USAGE(.BOTH.,#1869);
#1869=SURFACE_SIDE_STYLE('NONE',(#1870));
#1870=SURFACE_STYLE_FILL_AREA(#1871);
#1871=FILL_AREA_STYLE('NONE',(#1872));
#1872=FILL_AREA_STYLE_COLOUR('NONE',#1867);
#1873=PRESENTATION_STYLE_ASSIGNMENT((#1868));
#1874=STYLED_ITEM('NONE',(#1873),#1866);
#1875=ADVANCED_BREP_SHAPE_REPRESENTATION('ABSR1',(#335,#493,#644,#896,#1047,#1404,#1866),#28);
#1876=SHAPE_REPRESENTATION_RELATIONSHIP('SRRPL1','',#1875,#62);
#1877=GEOMETRIC_CURVE_SET('GCS1',(#70,#83));
#1878=GEOMETRICALLY_BOUNDED_WIREFRAME_SHAPE_REPRESENTATION('GBWSR1',(#1877),#28);
#1879=SHAPE_REPRESENTATION_RELATIONSHIP('SRRPL2','',#1878,#62);
ENDSEC;
END-ISO-10303-21;
