ISO-10303-21;
HEADER;
/****************************************************************
 * Generated by software with PDElib inside                    *
 * PDElib Version v51a, created Fri 09/10/2010                  *
 * ITI Transcendata (http://www.transcendata.com/)              *
 ****************************************************************/
FILE_DESCRIPTION((''),'2;1');
FILE_NAME('TO254P1524X483-3N-R800X1067.stp','2013-03-19T11:10:11',(''),(''),'Mechanical Desktop 2011','Mechanical Desktop 2011',', , ');
FILE_SCHEMA(('AUTOMOTIVE_DESIGN { 1 2 10303 214 1 1 1 1 }'));
ENDSEC;
DATA;
#10=(NAMED_UNIT(*)PLANE_ANGLE_UNIT()SI_UNIT($,.RADIAN.));
#11=DIMENSIONAL_EXPONENTS(0.0,0.0,0.0,0.0,0.0,0.0,0.0);
#12=PLANE_ANGLE_MEASURE_WITH_UNIT(PLANE_ANGLE_MEASURE(0.0174532925),#10);
#16=(CONVERSION_BASED_UNIT('DEGREE',#12)NAMED_UNIT(#11)PLANE_ANGLE_UNIT());
#20=(NAMED_UNIT(*)SI_UNIT($,.STERADIAN.)SOLID_ANGLE_UNIT());
#24=(LENGTH_UNIT()NAMED_UNIT(*)SI_UNIT(.MILLI.,.METRE.));
#26=UNCERTAINTY_MEASURE_WITH_UNIT(LENGTH_MEASURE(0.000001),#24,'DISTANCE_ACCURACY_VALUE','');
#28=(GEOMETRIC_REPRESENTATION_CONTEXT(3)GLOBAL_UNCERTAINTY_ASSIGNED_CONTEXT((#26))GLOBAL_UNIT_ASSIGNED_CONTEXT((#16,#20,#24))REPRESENTATION_CONTEXT('','3D'));
#29=APPLICATION_CONTEXT('automotive design');
#30=APPLICATION_PROTOCOL_DEFINITION('INTERNATIONAL_STANDARD','automotive_design',1998,#29);
#31=PRODUCT_CONTEXT('3D Mechanical Parts',#29,'mechanical');
#32=PRODUCT('Product','Product','',(#31));
#33=PRODUCT_RELATED_PRODUCT_CATEGORY('part',$,(#32));
#34=PRODUCT_CATEGORY('part',$);
#35=PERSON('1','Design','Joe',$,$,$);
#36=ORGANIZATION($,'None','None');
#37=PERSON_AND_ORGANIZATION(#35,#36);
#38=PERSON_AND_ORGANIZATION_ROLE('design_owner');
#39=APPLIED_PERSON_AND_ORGANIZATION_ASSIGNMENT(#37,#38,(#32));
#40=PRODUCT_DEFINITION_FORMATION_WITH_SPECIFIED_SOURCE('None','',#32,.BOUGHT.);
#41=PERSON('2','Creator','Joe',$,$,$);
#42=ORGANIZATION($,'None','None');
#43=PERSON_AND_ORGANIZATION(#41,#42);
#44=PERSON_AND_ORGANIZATION_ROLE('creator');
#45=APPLIED_PERSON_AND_ORGANIZATION_ASSIGNMENT(#43,#44,(#40));
#46=PERSON('3','Supplier','Joe',$,$,$);
#47=ORGANIZATION($,'None','None');
#48=PERSON_AND_ORGANIZATION(#46,#47);
#49=PERSON_AND_ORGANIZATION_ROLE('design_supplier');
#50=APPLIED_PERSON_AND_ORGANIZATION_ASSIGNMENT(#48,#49,(#40));
#51=PRODUCT_DEFINITION_CONTEXT('part definition',#29,'design');
#52=PRODUCT_DEFINITION('None','',#40,#51);
#53=PERSON('4','Creator','Joe',$,$,$);
#54=ORGANIZATION($,'None','None');
#55=PERSON_AND_ORGANIZATION(#53,#54);
#56=PERSON_AND_ORGANIZATION_ROLE('creator');
#57=APPLIED_PERSON_AND_ORGANIZATION_ASSIGNMENT(#55,#56,(#52));
#58=CARTESIAN_POINT('NONE',(0.0,0.0,0.0));
#59=DIRECTION('NONE',(0.0,0.0,1.0));
#60=DIRECTION('NONE',(1.0,0.0,0.0));
#61=AXIS2_PLACEMENT_3D('NONE',#58,#59,#60);
#62=SHAPE_REPRESENTATION('SR1',(#61),#28);
#63=PRODUCT_DEFINITION_SHAPE('PDS1','Test Part',#52);
#64=SHAPE_DEFINITION_REPRESENTATION(#63,#62);
#65=CARTESIAN_POINT('',(5.942500000000001,4.175000000000004,0.0));
#66=DIRECTION('',(1.0,0.0,0.0));
#67=DIRECTION('',(0.0,0.0,-1.0));
#68=AXIS2_PLACEMENT_3D('',#65,#66,#67);
#69=PLANE('',#68);
#70=CARTESIAN_POINT('',(5.942500000000001,4.175000000000004,1.649999999999998));
#71=VERTEX_POINT('',#70);
#72=CARTESIAN_POINT('',(5.942500000000001,-4.174999999999997,1.649999999999998));
#73=VERTEX_POINT('',#72);
#74=CARTESIAN_POINT('',(5.942500000000001,4.175000000000004,1.649999999999998));
#75=DIRECTION('',(0.0,-1.0,0.0));
#76=VECTOR('',#75,8.350000000000001);
#77=LINE('',#74,#76);
#78=EDGE_CURVE('',#71,#73,#77,.T.);
#79=ORIENTED_EDGE('',*,*,#78,.T.);
#80=CARTESIAN_POINT('',(5.942500000000001,-4.174999999999997,0.0));
#81=VERTEX_POINT('',#80);
#82=CARTESIAN_POINT('',(5.942500000000001,-4.174999999999997,0.0));
#83=DIRECTION('',(0.0,0.0,1.0));
#84=VECTOR('',#83,1.649999999999998);
#85=LINE('',#82,#84);
#86=EDGE_CURVE('',#81,#73,#85,.T.);
#87=ORIENTED_EDGE('',*,*,#86,.F.);
#88=CARTESIAN_POINT('',(5.942500000000001,4.175000000000004,0.0));
#89=VERTEX_POINT('',#88);
#90=CARTESIAN_POINT('',(5.942500000000001,-4.174999999999997,0.0));
#91=DIRECTION('',(0.0,1.0,0.0));
#92=VECTOR('',#91,8.350000000000001);
#93=LINE('',#90,#92);
#94=EDGE_CURVE('',#81,#89,#93,.T.);
#95=ORIENTED_EDGE('',*,*,#94,.T.);
#96=CARTESIAN_POINT('',(5.942500000000001,4.175000000000004,0.0));
#97=DIRECTION('',(0.0,0.0,1.0));
#98=VECTOR('',#97,1.649999999999998);
#99=LINE('',#96,#98);
#100=EDGE_CURVE('',#89,#71,#99,.T.);
#101=ORIENTED_EDGE('',*,*,#100,.T.);
#102=EDGE_LOOP('',(#79,#87,#95,#101));
#103=FACE_OUTER_BOUND('',#102,.T.);
#104=ADVANCED_FACE('',(#103),#69,.T.);
#105=CARTESIAN_POINT('',(5.942500000000001,-4.174999999999997,0.0));
#106=DIRECTION('',(0.0,-1.0,0.0));
#107=DIRECTION('',(0.0,0.0,-1.0));
#108=AXIS2_PLACEMENT_3D('',#105,#106,#107);
#109=PLANE('',#108);
#110=CARTESIAN_POINT('',(0.192500000000002,-4.174999999999995,1.649999999999998));
#111=VERTEX_POINT('',#110);
#112=CARTESIAN_POINT('',(5.942500000000001,-4.174999999999997,1.649999999999998));
#113=DIRECTION('',(-1.0,0.0,0.0));
#114=VECTOR('',#113,5.749999999999999);
#115=LINE('',#112,#114);
#116=EDGE_CURVE('',#73,#111,#115,.T.);
#117=ORIENTED_EDGE('',*,*,#116,.T.);
#118=CARTESIAN_POINT('',(0.192500000000002,-4.174999999999995,0.0));
#119=VERTEX_POINT('',#118);
#120=CARTESIAN_POINT('',(0.192500000000002,-4.174999999999995,0.0));
#121=DIRECTION('',(0.0,0.0,1.0));
#122=VECTOR('',#121,1.649999999999998);
#123=LINE('',#120,#122);
#124=EDGE_CURVE('',#119,#111,#123,.T.);
#125=ORIENTED_EDGE('',*,*,#124,.F.);
#126=CARTESIAN_POINT('',(0.192500000000002,-4.174999999999995,0.0));
#127=DIRECTION('',(1.0,0.0,0.0));
#128=VECTOR('',#127,5.749999999999999);
#129=LINE('',#126,#128);
#130=EDGE_CURVE('',#119,#81,#129,.T.);
#131=ORIENTED_EDGE('',*,*,#130,.T.);
#132=ORIENTED_EDGE('',*,*,#86,.T.);
#133=EDGE_LOOP('',(#117,#125,#131,#132));
#134=FACE_OUTER_BOUND('',#133,.T.);
#135=ADVANCED_FACE('',(#134),#109,.T.);
#136=CARTESIAN_POINT('',(0.192500000000002,-4.174999999999995,0.0));
#137=DIRECTION('',(-1.0,0.0,0.0));
#138=DIRECTION('',(0.0,0.0,1.0));
#139=AXIS2_PLACEMENT_3D('',#136,#137,#138);
#140=PLANE('',#139);
#141=CARTESIAN_POINT('',(0.192500000000002,4.175000000000004,1.649999999999998));
#142=VERTEX_POINT('',#141);
#143=CARTESIAN_POINT('',(0.192500000000002,-4.174999999999995,1.649999999999998));
#144=DIRECTION('',(0.0,1.0,0.0));
#145=VECTOR('',#144,8.35);
#146=LINE('',#143,#145);
#147=EDGE_CURVE('',#111,#142,#146,.T.);
#148=ORIENTED_EDGE('',*,*,#147,.T.);
#149=CARTESIAN_POINT('',(0.192500000000002,4.175000000000004,0.0));
#150=VERTEX_POINT('',#149);
#151=CARTESIAN_POINT('',(0.192500000000002,4.175000000000004,0.0));
#152=DIRECTION('',(0.0,0.0,1.0));
#153=VECTOR('',#152,1.649999999999998);
#154=LINE('',#151,#153);
#155=EDGE_CURVE('',#150,#142,#154,.T.);
#156=ORIENTED_EDGE('',*,*,#155,.F.);
#157=CARTESIAN_POINT('',(0.192500000000002,4.175000000000004,0.0));
#158=DIRECTION('',(0.0,-1.0,0.0));
#159=VECTOR('',#158,8.35);
#160=LINE('',#157,#159);
#161=EDGE_CURVE('',#150,#119,#160,.T.);
#162=ORIENTED_EDGE('',*,*,#161,.T.);
#163=ORIENTED_EDGE('',*,*,#124,.T.);
#164=EDGE_LOOP('',(#148,#156,#162,#163));
#165=FACE_OUTER_BOUND('',#164,.T.);
#166=ADVANCED_FACE('',(#165),#140,.T.);
#167=CARTESIAN_POINT('',(0.192500000000002,4.175000000000004,0.0));
#168=DIRECTION('',(0.0,1.0,0.0));
#169=DIRECTION('',(0.0,0.0,1.0));
#170=AXIS2_PLACEMENT_3D('',#167,#168,#169);
#171=PLANE('',#170);
#172=CARTESIAN_POINT('',(0.192500000000002,4.175000000000004,1.649999999999998));
#173=DIRECTION('',(1.0,0.0,0.0));
#174=VECTOR('',#173,5.749999999999999);
#175=LINE('',#172,#174);
#176=EDGE_CURVE('',#142,#71,#175,.T.);
#177=ORIENTED_EDGE('',*,*,#176,.T.);
#178=ORIENTED_EDGE('',*,*,#100,.F.);
#179=CARTESIAN_POINT('',(5.942500000000001,4.175000000000004,0.0));
#180=DIRECTION('',(-1.0,0.0,0.0));
#181=VECTOR('',#180,5.749999999999999);
#182=LINE('',#179,#181);
#183=EDGE_CURVE('',#89,#150,#182,.T.);
#184=ORIENTED_EDGE('',*,*,#183,.T.);
#185=ORIENTED_EDGE('',*,*,#155,.T.);
#186=EDGE_LOOP('',(#177,#178,#184,#185));
#187=FACE_OUTER_BOUND('',#186,.T.);
#188=ADVANCED_FACE('',(#187),#171,.T.);
#189=CARTESIAN_POINT('',(3.067500000000002,3.979480E-015,0.0));
#190=DIRECTION('',(0.0,0.0,1.0));
#191=DIRECTION('',(1.0,0.0,0.0));
#192=AXIS2_PLACEMENT_3D('',#189,#190,#191);
#193=PLANE('',#192);
#194=ORIENTED_EDGE('',*,*,#183,.F.);
#195=ORIENTED_EDGE('',*,*,#94,.F.);
#196=ORIENTED_EDGE('',*,*,#130,.F.);
#197=ORIENTED_EDGE('',*,*,#161,.F.);
#198=EDGE_LOOP('',(#194,#195,#196,#197));
#199=FACE_OUTER_BOUND('',#198,.T.);
#200=ADVANCED_FACE('',(#199),#193,.F.);
#201=CARTESIAN_POINT('',(3.067500000000002,4.010260E-015,1.649999999999998));
#202=DIRECTION('',(0.0,0.0,1.0));
#203=DIRECTION('',(1.0,0.0,0.0));
#204=AXIS2_PLACEMENT_3D('',#201,#202,#203);
#205=PLANE('',#204);
#206=ORIENTED_EDGE('',*,*,#78,.F.);
#207=ORIENTED_EDGE('',*,*,#176,.F.);
#208=ORIENTED_EDGE('',*,*,#147,.F.);
#209=ORIENTED_EDGE('',*,*,#116,.F.);
#210=EDGE_LOOP('',(#206,#207,#208,#209));
#211=FACE_OUTER_BOUND('',#210,.T.);
#212=ADVANCED_FACE('',(#211),#205,.T.);
#213=CLOSED_SHELL('',(#104,#135,#166,#188,#200,#212));
#214=MANIFOLD_SOLID_BREP('1BD4',#213);
#215=COLOUR_RGB('254',0.866,0.866,0.866);
#216=SURFACE_STYLE_USAGE(.BOTH.,#217);
#217=SURFACE_SIDE_STYLE('NONE',(#218));
#218=SURFACE_STYLE_FILL_AREA(#219);
#219=FILL_AREA_STYLE('NONE',(#220));
#220=FILL_AREA_STYLE_COLOUR('NONE',#215);
#221=PRESENTATION_STYLE_ASSIGNMENT((#216));
#222=STYLED_ITEM('NONE',(#221),#214);
#223=MECHANICAL_DESIGN_GEOMETRIC_PRESENTATION_REPRESENTATION('NONE',(#222,#441,#845,#1003,#1426,#1849),#28);
#224=PRESENTATION_LAYER_ASSIGNMENT('3D','None',(#214,#440,#837,#995,#1425,#1848));
#225=CARTESIAN_POINT('',(6.987500000000001,-5.08,1.230689E-015));
#226=DIRECTION('',(-0.939692620785908,0.34202014332567,0.0));
#227=DIRECTION('',(0.0,0.0,1.0));
#228=AXIS2_PLACEMENT_3D('',#225,#226,#227);
#229=PLANE('',#228);
#230=CARTESIAN_POINT('',(6.987500000000001,-5.08,1.649999999999998));
#231=VERTEX_POINT('',#230);
#232=CARTESIAN_POINT('',(7.622500000000001,-3.335351838646321,1.649999999999998));
#233=VERTEX_POINT('',#232);
#234=CARTESIAN_POINT('',(6.9875,-5.08,1.649999999999998));
#235=DIRECTION('',(0.34202014332567,0.939692620785908,0.0));
#236=VECTOR('',#235,1.856615794103555);
#237=LINE('',#234,#236);
#238=EDGE_CURVE('',#231,#233,#237,.T.);
#239=ORIENTED_EDGE('',*,*,#238,.F.);
#240=CARTESIAN_POINT('',(6.987500000000001,-5.08,1.230689E-015));
#241=VERTEX_POINT('',#240);
#242=CARTESIAN_POINT('',(6.987500000000001,-5.08,1.221245E-015));
#243=DIRECTION('',(0.0,0.0,1.0));
#244=VECTOR('',#243,1.649999999999997);
#245=LINE('',#242,#244);
#246=EDGE_CURVE('',#241,#231,#245,.T.);
#247=ORIENTED_EDGE('',*,*,#246,.F.);
#248=CARTESIAN_POINT('',(7.622500000000001,-3.335351838646321,3.895225E-015));
#249=VERTEX_POINT('',#248);
#250=CARTESIAN_POINT('',(7.622500000000001,-3.335351838646322,1.230689E-015));
#251=DIRECTION('',(-0.34202014332567,-0.939692620785908,0.0));
#252=VECTOR('',#251,1.856615794103554);
#253=LINE('',#250,#252);
#254=EDGE_CURVE('',#249,#241,#253,.T.);
#255=ORIENTED_EDGE('',*,*,#254,.F.);
#256=CARTESIAN_POINT('',(7.622500000000001,-3.335351838646321,1.649999999999998));
#257=DIRECTION('',(0.0,0.0,-1.0));
#258=VECTOR('',#257,1.649999999999994);
#259=LINE('',#256,#258);
#260=EDGE_CURVE('',#233,#249,#259,.T.);
#261=ORIENTED_EDGE('',*,*,#260,.F.);
#262=EDGE_LOOP('',(#239,#247,#255,#261));
#263=FACE_OUTER_BOUND('',#262,.T.);
#264=ADVANCED_FACE('',(#263),#229,.F.);
#265=CARTESIAN_POINT('',(6.782500000000001,-5.08,0.825000000000001));
#266=DIRECTION('',(0.0,-1.0,0.0));
#267=DIRECTION('',(1.0,0.0,0.0));
#268=AXIS2_PLACEMENT_3D('',#265,#266,#267);
#269=PLANE('',#268);
#270=ORIENTED_EDGE('',*,*,#246,.T.);
#271=CARTESIAN_POINT('',(5.942500000000001,-5.08,1.649999999999998));
#272=VERTEX_POINT('',#271);
#273=CARTESIAN_POINT('',(6.987500000000001,-5.08,1.649999999999998));
#274=DIRECTION('',(-1.0,0.0,0.0));
#275=VECTOR('',#274,1.045);
#276=LINE('',#273,#275);
#277=EDGE_CURVE('',#231,#272,#276,.T.);
#278=ORIENTED_EDGE('',*,*,#277,.T.);
#279=CARTESIAN_POINT('',(5.942500000000001,-5.08,-2.322024E-015));
#280=VERTEX_POINT('',#279);
#281=CARTESIAN_POINT('',(5.942500000000001,-5.08,1.649999999999998));
#282=DIRECTION('',(0.0,0.0,-1.0));
#283=VECTOR('',#282,1.65);
#284=LINE('',#281,#283);
#285=EDGE_CURVE('',#272,#280,#284,.T.);
#286=ORIENTED_EDGE('',*,*,#285,.T.);
#287=CARTESIAN_POINT('',(5.942500000000001,-5.08,1.230689E-015));
#288=DIRECTION('',(1.0,0.0,0.0));
#289=VECTOR('',#288,1.045);
#290=LINE('',#287,#289);
#291=EDGE_CURVE('',#280,#241,#290,.T.);
#292=ORIENTED_EDGE('',*,*,#291,.T.);
#293=EDGE_LOOP('',(#270,#278,#286,#292));
#294=FACE_OUTER_BOUND('',#293,.T.);
#295=ADVANCED_FACE('',(#294),#269,.T.);
#296=CARTESIAN_POINT('',(6.782500000000002,-4.440892E-016,3.895225E-015));
#297=DIRECTION('',(0.0,0.0,1.0));
#298=DIRECTION('',(0.0,-1.0,0.0));
#299=AXIS2_PLACEMENT_3D('',#296,#297,#298);
#300=PLANE('',#299);
#301=CARTESIAN_POINT('',(6.987500000000003,5.08,3.425110E-016));
#302=VERTEX_POINT('',#301);
#303=CARTESIAN_POINT('',(7.622500000000001,3.335351838646325,3.425110E-016));
#304=VERTEX_POINT('',#303);
#305=CARTESIAN_POINT('',(6.987500000000003,5.079999999999999,3.425110E-016));
#306=DIRECTION('',(0.342020143325669,-0.939692620785908,0.0));
#307=VECTOR('',#306,1.85661579410355);
#308=LINE('',#305,#307);
#309=EDGE_CURVE('',#302,#304,#308,.T.);
#310=ORIENTED_EDGE('',*,*,#309,.T.);
#311=CARTESIAN_POINT('',(7.622500000000001,-3.335351838646321,-2.322024E-015));
#312=DIRECTION('',(0.0,1.0,0.0));
#313=VECTOR('',#312,6.670703677292647);
#314=LINE('',#311,#313);
#315=EDGE_CURVE('',#249,#304,#314,.T.);
#316=ORIENTED_EDGE('',*,*,#315,.F.);
#317=ORIENTED_EDGE('',*,*,#254,.T.);
#318=ORIENTED_EDGE('',*,*,#291,.F.);
#319=CARTESIAN_POINT('',(5.942500000000001,5.08,3.425110E-016));
#320=VERTEX_POINT('',#319);
#321=CARTESIAN_POINT('',(5.942500000000001,-5.08,-2.322024E-015));
#322=DIRECTION('',(0.0,1.0,0.0));
#323=VECTOR('',#322,10.16);
#324=LINE('',#321,#323);
#325=EDGE_CURVE('',#280,#320,#324,.T.);
#326=ORIENTED_EDGE('',*,*,#325,.T.);
#327=CARTESIAN_POINT('',(6.987500000000003,5.08,3.425110E-016));
#328=DIRECTION('',(-1.0,0.0,0.0));
#329=VECTOR('',#328,1.045000000000002);
#330=LINE('',#327,#329);
#331=EDGE_CURVE('',#302,#320,#330,.T.);
#332=ORIENTED_EDGE('',*,*,#331,.F.);
#333=EDGE_LOOP('',(#310,#316,#317,#318,#326,#332));
#334=FACE_OUTER_BOUND('',#333,.T.);
#335=ADVANCED_FACE('',(#334),#300,.F.);
#336=CARTESIAN_POINT('',(7.622500000000001,-4.440892E-016,0.824999999999998));
#337=DIRECTION('',(-1.0,0.0,0.0));
#338=DIRECTION('',(0.0,-1.0,0.0));
#339=AXIS2_PLACEMENT_3D('',#336,#337,#338);
#340=PLANE('',#339);
#341=CARTESIAN_POINT('',(7.622500000000001,3.335351838646325,1.649999999999998));
#342=VERTEX_POINT('',#341);
#343=CARTESIAN_POINT('',(7.622500000000001,3.335351838646325,3.330669E-016));
#344=DIRECTION('',(0.0,0.0,1.0));
#345=VECTOR('',#344,1.649999999999998);
#346=LINE('',#343,#345);
#347=EDGE_CURVE('',#304,#342,#346,.T.);
#348=ORIENTED_EDGE('',*,*,#347,.T.);
#349=CARTESIAN_POINT('',(7.622500000000001,-3.335351838646321,1.649999999999998));
#350=DIRECTION('',(0.0,1.0,0.0));
#351=VECTOR('',#350,6.670703677292647);
#352=LINE('',#349,#351);
#353=EDGE_CURVE('',#233,#342,#352,.T.);
#354=ORIENTED_EDGE('',*,*,#353,.F.);
#355=ORIENTED_EDGE('',*,*,#260,.T.);
#356=ORIENTED_EDGE('',*,*,#315,.T.);
#357=EDGE_LOOP('',(#348,#354,#355,#356));
#358=FACE_OUTER_BOUND('',#357,.T.);
#359=ADVANCED_FACE('',(#358),#340,.F.);
#360=CARTESIAN_POINT('',(6.782500000000001,-4.440892E-016,1.649999999999998));
#361=DIRECTION('',(0.0,0.0,-1.0));
#362=DIRECTION('',(0.0,1.0,0.0));
#363=AXIS2_PLACEMENT_3D('',#360,#361,#362);
#364=PLANE('',#363);
#365=CARTESIAN_POINT('',(6.987500000000003,5.08,1.649999999999998));
#366=VERTEX_POINT('',#365);
#367=CARTESIAN_POINT('',(7.6225,3.335351838646325,1.649999999999998));
#368=DIRECTION('',(-0.342020143325669,0.939692620785908,0.0));
#369=VECTOR('',#368,1.85661579410355);
#370=LINE('',#367,#369);
#371=EDGE_CURVE('',#342,#366,#370,.T.);
#372=ORIENTED_EDGE('',*,*,#371,.T.);
#373=CARTESIAN_POINT('',(5.942500000000001,5.08,1.649999999999998));
#374=VERTEX_POINT('',#373);
#375=CARTESIAN_POINT('',(6.987500000000003,5.08,1.649999999999998));
#376=DIRECTION('',(-1.0,0.0,0.0));
#377=VECTOR('',#376,1.045000000000002);
#378=LINE('',#375,#377);
#379=EDGE_CURVE('',#374,#366,#378,.F.);
#380=ORIENTED_EDGE('',*,*,#379,.F.);
#381=CARTESIAN_POINT('',(5.942500000000001,-5.08,1.649999999999998));
#382=DIRECTION('',(0.0,1.0,0.0));
#383=VECTOR('',#382,10.16);
#384=LINE('',#381,#383);
#385=EDGE_CURVE('',#272,#374,#384,.T.);
#386=ORIENTED_EDGE('',*,*,#385,.F.);
#387=ORIENTED_EDGE('',*,*,#277,.F.);
#388=ORIENTED_EDGE('',*,*,#238,.T.);
#389=ORIENTED_EDGE('',*,*,#353,.T.);
#390=EDGE_LOOP('',(#372,#380,#386,#387,#388,#389));
#391=FACE_OUTER_BOUND('',#390,.T.);
#392=ADVANCED_FACE('',(#391),#364,.F.);
#393=CARTESIAN_POINT('',(7.622500000000001,3.335351838646325,3.330669E-016));
#394=CARTESIAN_POINT('',(7.622500000000001,3.335351838646325,1.649999999999998));
#395=CARTESIAN_POINT('',(6.987500000000003,5.08,3.330669E-016));
#396=CARTESIAN_POINT('',(6.987500000000003,5.08,1.649999999999998));
#397=B_SPLINE_SURFACE_WITH_KNOTS('',1,1,((#393,#395),(#394,#396)),.UNSPECIFIED.,.F.,.F.,.U.,(2,2),(2,2),(0.0,1.649999999999998),(0.0,1.85661579410355),.UNSPECIFIED.);
#398=ORIENTED_EDGE('',*,*,#371,.F.);
#399=ORIENTED_EDGE('',*,*,#347,.F.);
#400=ORIENTED_EDGE('',*,*,#309,.F.);
#401=CARTESIAN_POINT('',(6.987500000000003,5.08,1.649999999999998));
#402=DIRECTION('',(0.0,0.0,-1.0));
#403=VECTOR('',#402,1.649999999999998);
#404=LINE('',#401,#403);
#405=EDGE_CURVE('',#366,#302,#404,.T.);
#406=ORIENTED_EDGE('',*,*,#405,.F.);
#407=EDGE_LOOP('',(#398,#399,#400,#406));
#408=FACE_OUTER_BOUND('',#407,.T.);
#409=ADVANCED_FACE('',(#408),#397,.F.);
#410=CARTESIAN_POINT('',(5.942500000000001,-4.440892E-016,0.824999999999998));
#411=DIRECTION('',(1.0,0.0,0.0));
#412=DIRECTION('',(0.0,1.0,0.0));
#413=AXIS2_PLACEMENT_3D('',#410,#411,#412);
#414=PLANE('',#413);
#415=ORIENTED_EDGE('',*,*,#385,.T.);
#416=CARTESIAN_POINT('',(5.942500000000001,5.08,1.649999999999998));
#417=DIRECTION('',(0.0,0.0,-1.0));
#418=VECTOR('',#417,1.649999999999998);
#419=LINE('',#416,#418);
#420=EDGE_CURVE('',#320,#374,#419,.F.);
#421=ORIENTED_EDGE('',*,*,#420,.F.);
#422=ORIENTED_EDGE('',*,*,#325,.F.);
#423=ORIENTED_EDGE('',*,*,#285,.F.);
#424=EDGE_LOOP('',(#415,#421,#422,#423));
#425=FACE_OUTER_BOUND('',#424,.T.);
#426=ADVANCED_FACE('',(#425),#414,.F.);
#427=CARTESIAN_POINT('',(6.782500000000002,5.08,0.825000000000001));
#428=DIRECTION('',(0.0,-1.0,0.0));
#429=DIRECTION('',(1.0,0.0,0.0));
#430=AXIS2_PLACEMENT_3D('',#427,#428,#429);
#431=PLANE('',#430);
#432=ORIENTED_EDGE('',*,*,#405,.T.);
#433=ORIENTED_EDGE('',*,*,#331,.T.);
#434=ORIENTED_EDGE('',*,*,#420,.T.);
#435=ORIENTED_EDGE('',*,*,#379,.T.);
#436=EDGE_LOOP('',(#432,#433,#434,#435));
#437=FACE_OUTER_BOUND('',#436,.T.);
#438=ADVANCED_FACE('',(#437),#431,.F.);
#439=CLOSED_SHELL('',(#264,#295,#335,#359,#392,#409,#426,#438));
#440=MANIFOLD_SOLID_BREP('1BD1',#439);
#441=STYLED_ITEM('NONE',(#221),#440);
#442=CARTESIAN_POINT('',(5.942500000000001,-4.174999999999997,0.0));
#443=DIRECTION('',(0.0,-1.0,0.0));
#444=DIRECTION('',(0.0,0.0,-1.0));
#445=AXIS2_PLACEMENT_3D('',#442,#443,#444);
#446=PLANE('',#445);
#447=CARTESIAN_POINT('',(5.942500000000001,-4.174999999999997,1.649999999999998));
#448=VERTEX_POINT('',#447);
#449=CARTESIAN_POINT('',(0.192500000000002,-4.174999999999995,1.649999999999998));
#450=VERTEX_POINT('',#449);
#451=CARTESIAN_POINT('',(5.942500000000001,-4.174999999999997,1.649999999999998));
#452=DIRECTION('',(-1.0,0.0,0.0));
#453=VECTOR('',#452,5.749999999999999);
#454=LINE('',#451,#453);
#455=EDGE_CURVE('',#448,#450,#454,.T.);
#456=ORIENTED_EDGE('',*,*,#455,.F.);
#457=CARTESIAN_POINT('',(5.942500000000001,-4.174999999999997,0.0));
#458=VERTEX_POINT('',#457);
#459=CARTESIAN_POINT('',(5.942500000000001,-4.174999999999997,0.0));
#460=DIRECTION('',(0.0,0.0,1.0));
#461=VECTOR('',#460,1.649999999999998);
#462=LINE('',#459,#461);
#463=EDGE_CURVE('',#458,#448,#462,.T.);
#464=ORIENTED_EDGE('',*,*,#463,.F.);
#465=CARTESIAN_POINT('',(0.192500000000002,-4.174999999999995,0.0));
#466=VERTEX_POINT('',#465);
#467=CARTESIAN_POINT('',(0.192500000000002,-4.174999999999995,9.103065E-016));
#468=DIRECTION('',(1.0,0.0,0.0));
#469=VECTOR('',#468,5.749999999999999);
#470=LINE('',#467,#469);
#471=EDGE_CURVE('',#466,#458,#470,.T.);
#472=ORIENTED_EDGE('',*,*,#471,.F.);
#473=CARTESIAN_POINT('',(0.192500000000002,-4.174999999999995,0.0));
#474=DIRECTION('',(0.0,0.0,1.0));
#475=VECTOR('',#474,1.649999999999998);
#476=LINE('',#473,#475);
#477=EDGE_CURVE('',#466,#450,#476,.T.);
#478=ORIENTED_EDGE('',*,*,#477,.T.);
#479=EDGE_LOOP('',(#456,#464,#472,#478));
#480=FACE_OUTER_BOUND('',#479,.T.);
#481=ADVANCED_FACE('',(#480),#446,.F.);
#482=CARTESIAN_POINT('',(0.192500000000002,-4.174999999999995,0.0));
#483=DIRECTION('',(-1.0,0.0,0.0));
#484=DIRECTION('',(0.0,0.0,1.0));
#485=AXIS2_PLACEMENT_3D('',#482,#483,#484);
#486=PLANE('',#485);
#487=CARTESIAN_POINT('',(0.192500000000002,4.175000000000004,1.649999999999998));
#488=VERTEX_POINT('',#487);
#489=CARTESIAN_POINT('',(0.192500000000002,-4.174999999999995,1.649999999999998));
#490=DIRECTION('',(0.0,1.0,0.0));
#491=VECTOR('',#490,8.35);
#492=LINE('',#489,#491);
#493=EDGE_CURVE('',#450,#488,#492,.T.);
#494=ORIENTED_EDGE('',*,*,#493,.F.);
#495=ORIENTED_EDGE('',*,*,#477,.F.);
#496=CARTESIAN_POINT('',(0.192500000000002,4.175000000000004,0.0));
#497=VERTEX_POINT('',#496);
#498=CARTESIAN_POINT('',(0.192500000000002,4.175000000000004,9.103065E-016));
#499=DIRECTION('',(0.0,-1.0,0.0));
#500=VECTOR('',#499,8.35);
#501=LINE('',#498,#500);
#502=EDGE_CURVE('',#497,#466,#501,.T.);
#503=ORIENTED_EDGE('',*,*,#502,.F.);
#504=CARTESIAN_POINT('',(0.192500000000002,4.175000000000004,0.0));
#505=DIRECTION('',(0.0,0.0,1.0));
#506=VECTOR('',#505,1.649999999999998);
#507=LINE('',#504,#506);
#508=EDGE_CURVE('',#497,#488,#507,.T.);
#509=ORIENTED_EDGE('',*,*,#508,.T.);
#510=EDGE_LOOP('',(#494,#495,#503,#509));
#511=FACE_OUTER_BOUND('',#510,.T.);
#512=ADVANCED_FACE('',(#511),#486,.F.);
#513=CARTESIAN_POINT('',(0.192500000000002,4.175000000000004,0.0));
#514=DIRECTION('',(0.0,1.0,0.0));
#515=DIRECTION('',(0.0,0.0,1.0));
#516=AXIS2_PLACEMENT_3D('',#513,#514,#515);
#517=PLANE('',#516);
#518=CARTESIAN_POINT('',(5.942500000000001,4.175000000000004,1.649999999999998));
#519=VERTEX_POINT('',#518);
#520=CARTESIAN_POINT('',(0.192500000000002,4.175000000000004,1.649999999999998));
#521=DIRECTION('',(1.0,0.0,0.0));
#522=VECTOR('',#521,5.749999999999999);
#523=LINE('',#520,#522);
#524=EDGE_CURVE('',#488,#519,#523,.T.);
#525=ORIENTED_EDGE('',*,*,#524,.F.);
#526=ORIENTED_EDGE('',*,*,#508,.F.);
#527=CARTESIAN_POINT('',(5.942500000000001,4.175000000000004,0.0));
#528=VERTEX_POINT('',#527);
#529=CARTESIAN_POINT('',(5.942500000000001,4.175000000000004,3.555361E-016));
#530=DIRECTION('',(-1.0,0.0,0.0));
#531=VECTOR('',#530,5.749999999999999);
#532=LINE('',#529,#531);
#533=EDGE_CURVE('',#528,#497,#532,.T.);
#534=ORIENTED_EDGE('',*,*,#533,.F.);
#535=CARTESIAN_POINT('',(5.942500000000003,4.175000000000004,1.649999999999998));
#536=DIRECTION('',(0.0,0.0,-1.0));
#537=VECTOR('',#536,1.649999999999998);
#538=LINE('',#535,#537);
#539=EDGE_CURVE('',#519,#528,#538,.T.);
#540=ORIENTED_EDGE('',*,*,#539,.F.);
#541=EDGE_LOOP('',(#525,#526,#534,#540));
#542=FACE_OUTER_BOUND('',#541,.T.);
#543=ADVANCED_FACE('',(#542),#517,.F.);
#544=CARTESIAN_POINT('',(3.067500000000002,4.010260E-015,1.649999999999998));
#545=DIRECTION('',(0.0,0.0,1.0));
#546=DIRECTION('',(1.0,0.0,0.0));
#547=AXIS2_PLACEMENT_3D('',#544,#545,#546);
#548=PLANE('',#547);
#549=CARTESIAN_POINT('',(5.942500000000003,4.175000000000004,1.650000000000004));
#550=DIRECTION('',(0.0,-1.0,0.0));
#551=VECTOR('',#550,8.350000000000001);
#552=LINE('',#549,#551);
#553=EDGE_CURVE('',#519,#448,#552,.T.);
#554=ORIENTED_EDGE('',*,*,#553,.T.);
#555=ORIENTED_EDGE('',*,*,#455,.T.);
#556=ORIENTED_EDGE('',*,*,#493,.T.);
#557=ORIENTED_EDGE('',*,*,#524,.T.);
#558=EDGE_LOOP('',(#554,#555,#556,#557));
#559=FACE_OUTER_BOUND('',#558,.T.);
#560=ADVANCED_FACE('',(#559),#548,.F.);
#561=CARTESIAN_POINT('',(6.077500000000001,5.335000000000004,3.425110E-016));
#562=DIRECTION('',(0.0,0.0,-1.0));
#563=DIRECTION('',(-1.0,0.0,0.0));
#564=AXIS2_PLACEMENT_3D('',#561,#562,#563);
#565=PLANE('',#564);
#566=ORIENTED_EDGE('',*,*,#533,.T.);
#567=ORIENTED_EDGE('',*,*,#502,.T.);
#568=ORIENTED_EDGE('',*,*,#471,.T.);
#569=CARTESIAN_POINT('',(5.942500000000001,-5.08,3.425110E-016));
#570=VERTEX_POINT('',#569);
#571=CARTESIAN_POINT('',(5.942500000000001,-4.174999999999997,3.490236E-016));
#572=DIRECTION('',(0.0,-1.0,0.0));
#573=VECTOR('',#572,0.905000000000003);
#574=LINE('',#571,#573);
#575=EDGE_CURVE('',#458,#570,#574,.T.);
#576=ORIENTED_EDGE('',*,*,#575,.T.);
#577=CARTESIAN_POINT('',(-3.127274373711127,-5.08,1.230689E-015));
#578=VERTEX_POINT('',#577);
#579=CARTESIAN_POINT('',(5.942500000000001,-5.08,3.555361E-016));
#580=DIRECTION('',(-1.0,0.0,0.0));
#581=VECTOR('',#580,9.069774373711129);
#582=LINE('',#579,#581);
#583=EDGE_CURVE('',#570,#578,#582,.T.);
#584=ORIENTED_EDGE('',*,*,#583,.T.);
#585=CARTESIAN_POINT('',(-3.127274373711128,5.08,1.230689E-015));
#586=VERTEX_POINT('',#585);
#587=CARTESIAN_POINT('',(-3.127274373711128,5.08,1.230689E-015));
#588=DIRECTION('',(0.0,-1.0,0.0));
#589=VECTOR('',#588,10.16);
#590=LINE('',#587,#589);
#591=EDGE_CURVE('',#586,#578,#590,.T.);
#592=ORIENTED_EDGE('',*,*,#591,.F.);
#593=CARTESIAN_POINT('',(5.942500000000001,5.08,3.425110E-016));
#594=VERTEX_POINT('',#593);
#595=CARTESIAN_POINT('',(5.942500000000001,5.08,-5.326423E-016));
#596=DIRECTION('',(-1.0,0.0,0.0));
#597=VECTOR('',#596,9.069774373711129);
#598=LINE('',#595,#597);
#599=EDGE_CURVE('',#594,#586,#598,.T.);
#600=ORIENTED_EDGE('',*,*,#599,.F.);
#601=CARTESIAN_POINT('',(5.942500000000001,5.08,3.490236E-016));
#602=DIRECTION('',(0.0,-1.0,0.0));
#603=VECTOR('',#602,0.904999999999996);
#604=LINE('',#601,#603);
#605=EDGE_CURVE('',#594,#528,#604,.T.);
#606=ORIENTED_EDGE('',*,*,#605,.T.);
#607=EDGE_LOOP('',(#566,#567,#568,#576,#584,#592,#600,#606));
#608=FACE_OUTER_BOUND('',#607,.T.);
#609=ADVANCED_FACE('',(#608),#565,.T.);
#610=CARTESIAN_POINT('',(5.942500000000003,5.335000000000004,1.650000000000004));
#611=DIRECTION('',(1.0,0.0,0.0));
#612=DIRECTION('',(0.0,0.0,-1.0));
#613=AXIS2_PLACEMENT_3D('',#610,#611,#612);
#614=PLANE('',#613);
#615=ORIENTED_EDGE('',*,*,#463,.T.);
#616=CARTESIAN_POINT('',(5.942500000000003,-5.08,1.650000000000004));
#617=VERTEX_POINT('',#616);
#618=CARTESIAN_POINT('',(5.942500000000003,-4.174999999999997,1.650000000000004));
#619=DIRECTION('',(0.0,-1.0,0.0));
#620=VECTOR('',#619,0.905000000000003);
#621=LINE('',#618,#620);
#622=EDGE_CURVE('',#448,#617,#621,.T.);
#623=ORIENTED_EDGE('',*,*,#622,.T.);
#624=CARTESIAN_POINT('',(5.942500000000003,-5.08,1.650000000000004));
#625=DIRECTION('',(0.0,0.0,-1.0));
#626=VECTOR('',#625,1.650000000000004);
#627=LINE('',#624,#626);
#628=EDGE_CURVE('',#617,#570,#627,.T.);
#629=ORIENTED_EDGE('',*,*,#628,.T.);
#630=ORIENTED_EDGE('',*,*,#575,.F.);
#631=EDGE_LOOP('',(#615,#623,#629,#630));
#632=FACE_OUTER_BOUND('',#631,.T.);
#633=ADVANCED_FACE('',(#632),#614,.T.);
#634=CARTESIAN_POINT('',(1.139468726358455,5.08,2.382090949742119));
#635=DIRECTION('',(0.0,1.0,0.0));
#636=DIRECTION('',(0.0,0.0,1.0));
#637=AXIS2_PLACEMENT_3D('',#634,#635,#636);
#638=PLANE('',#637);
#639=CARTESIAN_POINT('',(5.942500000000003,5.08,1.650000000000004));
#640=VERTEX_POINT('',#639);
#641=CARTESIAN_POINT('',(5.942500000000003,5.08,1.650000000000004));
#642=DIRECTION('',(0.0,0.0,-1.0));
#643=VECTOR('',#642,1.650000000000003);
#644=LINE('',#641,#643);
#645=EDGE_CURVE('',#640,#594,#644,.T.);
#646=ORIENTED_EDGE('',*,*,#645,.T.);
#647=ORIENTED_EDGE('',*,*,#599,.T.);
#648=CARTESIAN_POINT('',(-3.5725,5.08,2.524999999999999));
#649=VERTEX_POINT('',#648);
#650=CARTESIAN_POINT('',(-3.572500000000001,5.08,2.524999999999999));
#651=DIRECTION('',(0.17364817766693,0.0,-0.984807753012208));
#652=VECTOR('',#651,2.563952195011504);
#653=LINE('',#650,#652);
#654=EDGE_CURVE('',#586,#649,#653,.F.);
#655=ORIENTED_EDGE('',*,*,#654,.T.);
#656=CARTESIAN_POINT('',(-3.5725,5.08,3.084999999999999));
#657=VERTEX_POINT('',#656);
#658=CARTESIAN_POINT('',(-3.5725,5.08,2.524999999999999));
#659=DIRECTION('',(0.0,0.0,1.0));
#660=VECTOR('',#659,0.56);
#661=LINE('',#658,#660);
#662=EDGE_CURVE('',#649,#657,#661,.T.);
#663=ORIENTED_EDGE('',*,*,#662,.T.);
#664=CARTESIAN_POINT('',(-3.264809418663729,5.08,4.83));
#665=VERTEX_POINT('',#664);
#666=CARTESIAN_POINT('',(-3.5725,5.08,3.084999999999999));
#667=DIRECTION('',(0.17364817766693,0.0,0.984807753012208));
#668=VECTOR('',#667,1.771919437740626);
#669=LINE('',#666,#668);
#670=EDGE_CURVE('',#657,#665,#669,.T.);
#671=ORIENTED_EDGE('',*,*,#670,.T.);
#672=CARTESIAN_POINT('',(5.381780201347084,5.08,4.829999999999999));
#673=VERTEX_POINT('',#672);
#674=CARTESIAN_POINT('',(-3.264809418663729,5.08,4.829999999999999));
#675=DIRECTION('',(1.0,0.0,0.0));
#676=VECTOR('',#675,8.646589620010811);
#677=LINE('',#674,#676);
#678=EDGE_CURVE('',#665,#673,#677,.T.);
#679=ORIENTED_EDGE('',*,*,#678,.T.);
#680=CARTESIAN_POINT('',(5.381780201347084,5.08,4.829999999999999));
#681=DIRECTION('',(0.173648177666931,0.0,-0.984807753012208));
#682=VECTOR('',#681,3.229056625796666);
#683=LINE('',#680,#682);
#684=EDGE_CURVE('',#673,#640,#683,.T.);
#685=ORIENTED_EDGE('',*,*,#684,.T.);
#686=EDGE_LOOP('',(#646,#647,#655,#663,#671,#679,#685));
#687=FACE_OUTER_BOUND('',#686,.T.);
#688=ADVANCED_FACE('',(#687),#638,.T.);
#689=CARTESIAN_POINT('',(-3.5725,5.08,2.345));
#690=DIRECTION('',(-1.0,0.0,0.0));
#691=DIRECTION('',(0.0,0.0,1.0));
#692=AXIS2_PLACEMENT_3D('',#689,#690,#691);
#693=PLANE('',#692);
#694=CARTESIAN_POINT('',(-3.5725,-5.08,2.524999999999999));
#695=VERTEX_POINT('',#694);
#696=CARTESIAN_POINT('',(-3.5725,-5.08,3.084999999999999));
#697=VERTEX_POINT('',#696);
#698=CARTESIAN_POINT('',(-3.5725,-5.08,3.084999999999999));
#699=DIRECTION('',(0.0,0.0,-1.0));
#700=VECTOR('',#699,0.56);
#701=LINE('',#698,#700);
#702=EDGE_CURVE('',#695,#697,#701,.F.);
#703=ORIENTED_EDGE('',*,*,#702,.T.);
#704=CARTESIAN_POINT('',(-3.5725,5.08,3.084999999999999));
#705=DIRECTION('',(0.0,-1.0,0.0));
#706=VECTOR('',#705,10.16);
#707=LINE('',#704,#706);
#708=EDGE_CURVE('',#657,#697,#707,.T.);
#709=ORIENTED_EDGE('',*,*,#708,.F.);
#710=ORIENTED_EDGE('',*,*,#662,.F.);
#711=CARTESIAN_POINT('',(-3.5725,5.08,2.524999999999999));
#712=DIRECTION('',(0.0,-1.0,0.0));
#713=VECTOR('',#712,10.16);
#714=LINE('',#711,#713);
#715=EDGE_CURVE('',#649,#695,#714,.T.);
#716=ORIENTED_EDGE('',*,*,#715,.T.);
#717=EDGE_LOOP('',(#703,#709,#710,#716));
#718=FACE_OUTER_BOUND('',#717,.T.);
#719=ADVANCED_FACE('',(#718),#693,.T.);
#720=CARTESIAN_POINT('',(-3.128156008614669,5.590000000000002,0.004999999999998));
#721=DIRECTION('',(-0.984807753012208,0.0,-0.17364817766693));
#722=DIRECTION('',(-0.17364817766693,0.0,0.984807753012208));
#723=AXIS2_PLACEMENT_3D('',#720,#721,#722);
#724=PLANE('',#723);
#725=CARTESIAN_POINT('',(-3.127274373711127,-5.08,1.223847E-015));
#726=DIRECTION('',(-0.17364817766693,0.0,0.984807753012208));
#727=VECTOR('',#726,2.563952195011504);
#728=LINE('',#725,#727);
#729=EDGE_CURVE('',#578,#695,#728,.T.);
#730=ORIENTED_EDGE('',*,*,#729,.T.);
#731=ORIENTED_EDGE('',*,*,#715,.F.);
#732=ORIENTED_EDGE('',*,*,#654,.F.);
#733=ORIENTED_EDGE('',*,*,#591,.T.);
#734=EDGE_LOOP('',(#730,#731,#732,#733));
#735=FACE_OUTER_BOUND('',#734,.T.);
#736=ADVANCED_FACE('',(#735),#724,.T.);
#737=CARTESIAN_POINT('',(1.274468726358455,-5.08,2.382090949742122));
#738=DIRECTION('',(0.0,1.0,0.0));
#739=DIRECTION('',(0.0,0.0,1.0));
#740=AXIS2_PLACEMENT_3D('',#737,#738,#739);
#741=PLANE('',#740);
#742=ORIENTED_EDGE('',*,*,#583,.F.);
#743=ORIENTED_EDGE('',*,*,#628,.F.);
#744=CARTESIAN_POINT('',(5.381780201347084,-5.08,4.83));
#745=VERTEX_POINT('',#744);
#746=CARTESIAN_POINT('',(5.381780201347084,-5.08,4.83));
#747=DIRECTION('',(0.173648177666931,0.0,-0.984807753012208));
#748=VECTOR('',#747,3.229056625796665);
#749=LINE('',#746,#748);
#750=EDGE_CURVE('',#745,#617,#749,.T.);
#751=ORIENTED_EDGE('',*,*,#750,.F.);
#752=CARTESIAN_POINT('',(-3.264809418663729,-5.08,4.83));
#753=VERTEX_POINT('',#752);
#754=CARTESIAN_POINT('',(-3.264809418663729,-5.08,4.83));
#755=DIRECTION('',(1.0,0.0,0.0));
#756=VECTOR('',#755,8.646589620010811);
#757=LINE('',#754,#756);
#758=EDGE_CURVE('',#753,#745,#757,.T.);
#759=ORIENTED_EDGE('',*,*,#758,.F.);
#760=CARTESIAN_POINT('',(-3.5725,-5.08,3.084999999999999));
#761=DIRECTION('',(0.17364817766693,0.0,0.984807753012208));
#762=VECTOR('',#761,1.771919437740626);
#763=LINE('',#760,#762);
#764=EDGE_CURVE('',#697,#753,#763,.T.);
#765=ORIENTED_EDGE('',*,*,#764,.F.);
#766=ORIENTED_EDGE('',*,*,#702,.F.);
#767=ORIENTED_EDGE('',*,*,#729,.F.);
#768=EDGE_LOOP('',(#742,#743,#751,#759,#765,#766,#767));
#769=FACE_OUTER_BOUND('',#768,.T.);
#770=ADVANCED_FACE('',(#769),#741,.F.);
#771=CARTESIAN_POINT('',(-3.295666640287711,5.335000000000004,4.83));
#772=DIRECTION('',(0.0,0.0,1.0));
#773=DIRECTION('',(1.0,0.0,0.0));
#774=AXIS2_PLACEMENT_3D('',#771,#772,#773);
#775=PLANE('',#774);
#776=ORIENTED_EDGE('',*,*,#758,.T.);
#777=CARTESIAN_POINT('',(5.381780201347084,-5.08,4.83));
#778=DIRECTION('',(0.0,1.0,0.0));
#779=VECTOR('',#778,10.16);
#780=LINE('',#777,#779);
#781=EDGE_CURVE('',#673,#745,#780,.F.);
#782=ORIENTED_EDGE('',*,*,#781,.F.);
#783=ORIENTED_EDGE('',*,*,#678,.F.);
#784=CARTESIAN_POINT('',(-3.264809418663729,-5.08,4.83));
#785=DIRECTION('',(0.0,1.0,0.0));
#786=VECTOR('',#785,10.16);
#787=LINE('',#784,#786);
#788=EDGE_CURVE('',#665,#753,#787,.F.);
#789=ORIENTED_EDGE('',*,*,#788,.T.);
#790=EDGE_LOOP('',(#776,#782,#783,#789));
#791=FACE_OUTER_BOUND('',#790,.T.);
#792=ADVANCED_FACE('',(#791),#775,.T.);
#793=CARTESIAN_POINT('',(5.381780201347084,5.335000000000004,4.83));
#794=DIRECTION('',(0.984807753012208,0.0,0.173648177666931));
#795=DIRECTION('',(0.173648177666931,0.0,-0.984807753012208));
#796=AXIS2_PLACEMENT_3D('',#793,#794,#795);
#797=PLANE('',#796);
#798=ORIENTED_EDGE('',*,*,#750,.T.);
#799=ORIENTED_EDGE('',*,*,#622,.F.);
#800=ORIENTED_EDGE('',*,*,#553,.F.);
#801=CARTESIAN_POINT('',(5.942500000000003,5.08,1.650000000000004));
#802=DIRECTION('',(0.0,-1.0,0.0));
#803=VECTOR('',#802,0.904999999999996);
#804=LINE('',#801,#803);
#805=EDGE_CURVE('',#640,#519,#804,.T.);
#806=ORIENTED_EDGE('',*,*,#805,.F.);
#807=ORIENTED_EDGE('',*,*,#684,.F.);
#808=ORIENTED_EDGE('',*,*,#781,.T.);
#809=EDGE_LOOP('',(#798,#799,#800,#806,#807,#808));
#810=FACE_OUTER_BOUND('',#809,.T.);
#811=ADVANCED_FACE('',(#810),#797,.T.);
#812=CARTESIAN_POINT('',(5.942500000000003,5.335000000000004,1.650000000000004));
#813=DIRECTION('',(1.0,0.0,0.0));
#814=DIRECTION('',(0.0,0.0,-1.0));
#815=AXIS2_PLACEMENT_3D('',#812,#813,#814);
#816=PLANE('',#815);
#817=ORIENTED_EDGE('',*,*,#539,.T.);
#818=ORIENTED_EDGE('',*,*,#605,.F.);
#819=ORIENTED_EDGE('',*,*,#645,.F.);
#820=ORIENTED_EDGE('',*,*,#805,.T.);
#821=EDGE_LOOP('',(#817,#818,#819,#820));
#822=FACE_OUTER_BOUND('',#821,.T.);
#823=ADVANCED_FACE('',(#822),#816,.T.);
#824=CARTESIAN_POINT('',(-3.5725,5.335000000000004,3.085));
#825=DIRECTION('',(-0.984807753012208,0.0,0.17364817766693));
#826=DIRECTION('',(0.17364817766693,0.0,0.984807753012208));
#827=AXIS2_PLACEMENT_3D('',#824,#825,#826);
#828=PLANE('',#827);
#829=ORIENTED_EDGE('',*,*,#764,.T.);
#830=ORIENTED_EDGE('',*,*,#788,.F.);
#831=ORIENTED_EDGE('',*,*,#670,.F.);
#832=ORIENTED_EDGE('',*,*,#708,.T.);
#833=EDGE_LOOP('',(#829,#830,#831,#832));
#834=FACE_OUTER_BOUND('',#833,.T.);
#835=ADVANCED_FACE('',(#834),#828,.T.);
#836=CLOSED_SHELL('',(#481,#512,#543,#560,#609,#633,#688,#719,#736,#770,#792,#811,#823,#835));
#837=MANIFOLD_SOLID_BREP('1BCE',#836);
#838=COLOUR_RGB('250',0.33,0.33,0.33);
#839=SURFACE_STYLE_USAGE(.BOTH.,#840);
#840=SURFACE_SIDE_STYLE('NONE',(#841));
#841=SURFACE_STYLE_FILL_AREA(#842);
#842=FILL_AREA_STYLE('NONE',(#843));
#843=FILL_AREA_STYLE_COLOUR('NONE',#838);
#844=PRESENTATION_STYLE_ASSIGNMENT((#839));
#845=STYLED_ITEM('NONE',(#844),#837);
#846=CARTESIAN_POINT('',(-3.5725,4.92,2.89));
#847=DIRECTION('',(1.0,0.0,0.0));
#848=DIRECTION('',(0.0,1.0,0.0));
#849=AXIS2_PLACEMENT_3D('',#846,#847,#848);
#850=PLANE('',#849);
#851=CARTESIAN_POINT('',(-3.5725,0.495,2.524999999999999));
#852=VERTEX_POINT('',#851);
#853=CARTESIAN_POINT('',(-3.5725,-0.495,2.524999999999999));
#854=VERTEX_POINT('',#853);
#855=CARTESIAN_POINT('',(-3.5725,0.495,2.524999999999999));
#856=DIRECTION('',(0.0,-1.0,0.0));
#857=VECTOR('',#856,0.99);
#858=LINE('',#855,#857);
#859=EDGE_CURVE('',#852,#854,#858,.T.);
#860=ORIENTED_EDGE('',*,*,#859,.F.);
#861=CARTESIAN_POINT('',(-3.5725,0.495,3.084999999999999));
#862=VERTEX_POINT('',#861);
#863=CARTESIAN_POINT('',(-3.5725,0.495,3.084999999999999));
#864=DIRECTION('',(0.0,0.0,-1.0));
#865=VECTOR('',#864,0.56);
#866=LINE('',#863,#865);
#867=EDGE_CURVE('',#862,#852,#866,.T.);
#868=ORIENTED_EDGE('',*,*,#867,.F.);
#869=CARTESIAN_POINT('',(-3.5725,-0.495,3.084999999999999));
#870=VERTEX_POINT('',#869);
#871=CARTESIAN_POINT('',(-3.5725,-0.495,3.084999999999999));
#872=DIRECTION('',(0.0,1.0,0.0));
#873=VECTOR('',#872,0.99);
#874=LINE('',#871,#873);
#875=EDGE_CURVE('',#870,#862,#874,.T.);
#876=ORIENTED_EDGE('',*,*,#875,.F.);
#877=CARTESIAN_POINT('',(-3.5725,-0.495,2.524999999999999));
#878=DIRECTION('',(0.0,0.0,1.0));
#879=VECTOR('',#878,0.56);
#880=LINE('',#877,#879);
#881=EDGE_CURVE('',#854,#870,#880,.T.);
#882=ORIENTED_EDGE('',*,*,#881,.F.);
#883=EDGE_LOOP('',(#860,#868,#876,#882));
#884=FACE_OUTER_BOUND('',#883,.T.);
#885=ADVANCED_FACE('',(#884),#850,.T.);
#886=CARTESIAN_POINT('',(-3.7075,0.0,3.084999999999999));
#887=DIRECTION('',(0.0,0.0,-1.0));
#888=DIRECTION('',(0.0,1.0,0.0));
#889=AXIS2_PLACEMENT_3D('',#886,#887,#888);
#890=PLANE('',#889);
#891=ORIENTED_EDGE('',*,*,#875,.T.);
#892=CARTESIAN_POINT('',(-4.342499999999999,0.495,3.084999999999999));
#893=VERTEX_POINT('',#892);
#894=CARTESIAN_POINT('',(-4.342499999999999,0.495,3.084999999999999));
#895=DIRECTION('',(1.0,0.0,0.0));
#896=VECTOR('',#895,0.77);
#897=LINE('',#894,#896);
#898=EDGE_CURVE('',#893,#862,#897,.T.);
#899=ORIENTED_EDGE('',*,*,#898,.F.);
#900=CARTESIAN_POINT('',(-4.342499999999999,-0.495,3.084999999999999));
#901=VERTEX_POINT('',#900);
#902=CARTESIAN_POINT('',(-4.342499999999999,-0.495,3.084999999999999));
#903=DIRECTION('',(0.0,1.0,0.0));
#904=VECTOR('',#903,0.99);
#905=LINE('',#902,#904);
#906=EDGE_CURVE('',#901,#893,#905,.T.);
#907=ORIENTED_EDGE('',*,*,#906,.F.);
#908=CARTESIAN_POINT('',(-3.5725,-0.495,3.084999999999999));
#909=DIRECTION('',(-1.0,0.0,0.0));
#910=VECTOR('',#909,0.77);
#911=LINE('',#908,#910);
#912=EDGE_CURVE('',#870,#901,#911,.T.);
#913=ORIENTED_EDGE('',*,*,#912,.F.);
#914=EDGE_LOOP('',(#891,#899,#907,#913));
#915=FACE_OUTER_BOUND('',#914,.T.);
#916=ADVANCED_FACE('',(#915),#890,.F.);
#917=CARTESIAN_POINT('',(-3.7075,0.495,2.894999999999999));
#918=DIRECTION('',(0.0,-1.0,0.0));
#919=DIRECTION('',(1.0,0.0,0.0));
#920=AXIS2_PLACEMENT_3D('',#917,#918,#919);
#921=PLANE('',#920);
#922=ORIENTED_EDGE('',*,*,#867,.T.);
#923=CARTESIAN_POINT('',(-4.342499999999999,0.495,2.524999999999999));
#924=VERTEX_POINT('',#923);
#925=CARTESIAN_POINT('',(-3.5725,0.495,2.524999999999999));
#926=DIRECTION('',(-1.0,0.0,0.0));
#927=VECTOR('',#926,0.77);
#928=LINE('',#925,#927);
#929=EDGE_CURVE('',#852,#924,#928,.T.);
#930=ORIENTED_EDGE('',*,*,#929,.T.);
#931=CARTESIAN_POINT('',(-4.342499999999999,0.495,2.524999999999999));
#932=DIRECTION('',(0.0,0.0,1.0));
#933=VECTOR('',#932,0.56);
#934=LINE('',#931,#933);
#935=EDGE_CURVE('',#924,#893,#934,.T.);
#936=ORIENTED_EDGE('',*,*,#935,.T.);
#937=ORIENTED_EDGE('',*,*,#898,.T.);
#938=EDGE_LOOP('',(#922,#930,#936,#937));
#939=FACE_OUTER_BOUND('',#938,.T.);
#940=ADVANCED_FACE('',(#939),#921,.F.);
#941=CARTESIAN_POINT('',(-3.7075,0.0,2.524999999999999));
#942=DIRECTION('',(0.0,0.0,1.0));
#943=DIRECTION('',(0.0,-1.0,0.0));
#944=AXIS2_PLACEMENT_3D('',#941,#942,#943);
#945=PLANE('',#944);
#946=ORIENTED_EDGE('',*,*,#859,.T.);
#947=CARTESIAN_POINT('',(-4.342499999999999,-0.495,2.524999999999999));
#948=VERTEX_POINT('',#947);
#949=CARTESIAN_POINT('',(-4.342499999999999,-0.495,2.524999999999999));
#950=DIRECTION('',(1.0,0.0,0.0));
#951=VECTOR('',#950,0.77);
#952=LINE('',#949,#951);
#953=EDGE_CURVE('',#948,#854,#952,.T.);
#954=ORIENTED_EDGE('',*,*,#953,.F.);
#955=CARTESIAN_POINT('',(-4.342499999999999,0.495,2.524999999999999));
#956=DIRECTION('',(0.0,-1.0,0.0));
#957=VECTOR('',#956,0.99);
#958=LINE('',#955,#957);
#959=EDGE_CURVE('',#948,#924,#958,.F.);
#960=ORIENTED_EDGE('',*,*,#959,.T.);
#961=ORIENTED_EDGE('',*,*,#929,.F.);
#962=EDGE_LOOP('',(#946,#954,#960,#961));
#963=FACE_OUTER_BOUND('',#962,.T.);
#964=ADVANCED_FACE('',(#963),#945,.F.);
#965=CARTESIAN_POINT('',(-3.7075,-0.495,2.894999999999999));
#966=DIRECTION('',(0.0,-1.0,0.0));
#967=DIRECTION('',(1.0,0.0,0.0));
#968=AXIS2_PLACEMENT_3D('',#965,#966,#967);
#969=PLANE('',#968);
#970=ORIENTED_EDGE('',*,*,#881,.T.);
#971=ORIENTED_EDGE('',*,*,#912,.T.);
#972=CARTESIAN_POINT('',(-4.342499999999999,-0.495,3.084999999999999));
#973=DIRECTION('',(0.0,0.0,-1.0));
#974=VECTOR('',#973,0.56);
#975=LINE('',#972,#974);
#976=EDGE_CURVE('',#901,#948,#975,.T.);
#977=ORIENTED_EDGE('',*,*,#976,.T.);
#978=ORIENTED_EDGE('',*,*,#953,.T.);
#979=EDGE_LOOP('',(#970,#971,#977,#978));
#980=FACE_OUTER_BOUND('',#979,.T.);
#981=ADVANCED_FACE('',(#980),#969,.T.);
#982=CARTESIAN_POINT('',(-4.342499999999999,0.0,2.714999999999999));
#983=DIRECTION('',(1.0,0.0,0.0));
#984=DIRECTION('',(0.0,1.0,0.0));
#985=AXIS2_PLACEMENT_3D('',#982,#983,#984);
#986=PLANE('',#985);
#987=ORIENTED_EDGE('',*,*,#906,.T.);
#988=ORIENTED_EDGE('',*,*,#935,.F.);
#989=ORIENTED_EDGE('',*,*,#959,.F.);
#990=ORIENTED_EDGE('',*,*,#976,.F.);
#991=EDGE_LOOP('',(#987,#988,#989,#990));
#992=FACE_OUTER_BOUND('',#991,.T.);
#993=ADVANCED_FACE('',(#992),#986,.F.);
#994=CLOSED_SHELL('',(#885,#916,#940,#964,#981,#993));
#995=MANIFOLD_SOLID_BREP('1BC8',#994);
#996=COLOUR_RGB('9',0.75,0.75,0.75);
#997=SURFACE_STYLE_USAGE(.BOTH.,#998);
#998=SURFACE_SIDE_STYLE('NONE',(#999));
#999=SURFACE_STYLE_FILL_AREA(#1000);
#1000=FILL_AREA_STYLE('NONE',(#1001));
#1001=FILL_AREA_STYLE_COLOUR('NONE',#996);
#1002=PRESENTATION_STYLE_ASSIGNMENT((#997));
#1003=STYLED_ITEM('NONE',(#1002),#995);
#1004=CARTESIAN_POINT('',(-3.011998344102069,3.027067053397202,2.525000000000002));
#1005=DIRECTION('',(0.0,0.0,-1.0));
#1006=DIRECTION('',(-1.0,0.0,0.0));
#1007=AXIS2_PLACEMENT_3D('',#1004,#1005,#1006);
#1008=PLANE('',#1007);
#1009=CARTESIAN_POINT('',(-4.111021958531159,2.909934917280495,2.525000000000002));
#1010=VERTEX_POINT('',#1009);
#1011=CARTESIAN_POINT('',(-4.111021958531159,2.170065082719509,2.525000000000002));
#1012=VERTEX_POINT('',#1011);
#1013=CARTESIAN_POINT('',(-4.111021958531159,2.909934917280495,2.525000000000002));
#1014=DIRECTION('',(0.0,-1.0,0.0));
#1015=VECTOR('',#1014,0.739869834560986);
#1016=LINE('',#1013,#1015);
#1017=EDGE_CURVE('',#1010,#1012,#1016,.T.);
#1018=ORIENTED_EDGE('',*,*,#1017,.F.);
#1019=CARTESIAN_POINT('',(-3.5725,2.909934917280495,2.524999999999999));
#1020=VERTEX_POINT('',#1019);
#1021=CARTESIAN_POINT('',(-3.5725,2.909934917280495,2.525000000000002));
#1022=DIRECTION('',(-1.0,0.0,0.0));
#1023=VECTOR('',#1022,0.538521958531159);
#1024=LINE('',#1021,#1023);
#1025=EDGE_CURVE('',#1010,#1020,#1024,.F.);
#1026=ORIENTED_EDGE('',*,*,#1025,.T.);
#1027=CARTESIAN_POINT('',(-3.5725,2.170065082719508,2.524999999999999));
#1028=VERTEX_POINT('',#1027);
#1029=CARTESIAN_POINT('',(-3.5725,2.909934917280495,2.524999999999999));
#1030=DIRECTION('',(0.0,-1.0,0.0));
#1031=VECTOR('',#1030,0.739869834560987);
#1032=LINE('',#1029,#1031);
#1033=EDGE_CURVE('',#1020,#1028,#1032,.T.);
#1034=ORIENTED_EDGE('',*,*,#1033,.T.);
#1035=CARTESIAN_POINT('',(-3.5725,2.170065082719509,2.525000000000002));
#1036=DIRECTION('',(-1.0,0.0,0.0));
#1037=VECTOR('',#1036,0.538521958531159);
#1038=LINE('',#1035,#1037);
#1039=EDGE_CURVE('',#1028,#1012,#1038,.T.);
#1040=ORIENTED_EDGE('',*,*,#1039,.T.);
#1041=EDGE_LOOP('',(#1018,#1026,#1034,#1040));
#1042=FACE_OUTER_BOUND('',#1041,.T.);
#1043=ADVANCED_FACE('',(#1042),#1008,.T.);
#1044=CARTESIAN_POINT('',(-5.163086074563749,2.909934917280495,1.282627636980925));
#1045=DIRECTION('',(0.0,1.0,0.0));
#1046=DIRECTION('',(0.0,0.0,1.0));
#1047=AXIS2_PLACEMENT_3D('',#1044,#1045,#1046);
#1048=PLANE('',#1047);
#1049=CARTESIAN_POINT('',(-5.3375,2.909934917280495,-7.677120E-016));
#1050=VERTEX_POINT('',#1049);
#1051=CARTESIAN_POINT('',(-4.587310447897924,2.909934917280495,0.638280503135757));
#1052=VERTEX_POINT('',#1051);
#1053=CARTESIAN_POINT('',(-5.3375,2.909934917280495,0.760000000000002));
#1054=DIRECTION('',(0.0,-1.0,0.0));
#1055=DIRECTION('',(0.648013413165147,0.0,-0.761628923005197));
#1056=AXIS2_PLACEMENT_3D('',#1053,#1054,#1055);
#1057=CIRCLE('',#1056,0.76);
#1058=EDGE_CURVE('',#1050,#1052,#1057,.T.);
#1059=ORIENTED_EDGE('',*,*,#1058,.F.);
#1060=CARTESIAN_POINT('',(-7.622500000000001,2.909934917280491,-7.866002E-016));
#1061=VERTEX_POINT('',#1060);
#1062=CARTESIAN_POINT('',(-5.3375,2.909934917280495,-7.866002E-016));
#1063=DIRECTION('',(-1.0,0.0,0.0));
#1064=VECTOR('',#1063,2.285);
#1065=LINE('',#1062,#1064);
#1066=EDGE_CURVE('',#1061,#1050,#1065,.F.);
#1067=ORIENTED_EDGE('',*,*,#1066,.F.);
#1068=CARTESIAN_POINT('',(-7.622500000000001,2.909934917280491,0.559999999999999));
#1069=VERTEX_POINT('',#1068);
#1070=CARTESIAN_POINT('',(-7.622500000000001,2.909934917280491,0.559999999999999));
#1071=DIRECTION('',(0.0,0.0,-1.0));
#1072=VECTOR('',#1071,0.56);
#1073=LINE('',#1070,#1072);
#1074=EDGE_CURVE('',#1069,#1061,#1073,.T.);
#1075=ORIENTED_EDGE('',*,*,#1074,.F.);
#1076=CARTESIAN_POINT('',(-5.3375,2.909934917280495,0.560000000000002));
#1077=VERTEX_POINT('',#1076);
#1078=CARTESIAN_POINT('',(-7.622500000000001,2.909934917280495,0.560000000000002));
#1079=DIRECTION('',(1.0,0.0,0.0));
#1080=VECTOR('',#1079,2.285);
#1081=LINE('',#1078,#1080);
#1082=EDGE_CURVE('',#1077,#1069,#1081,.F.);
#1083=ORIENTED_EDGE('',*,*,#1082,.F.);
#1084=CARTESIAN_POINT('',(-5.140081696815244,2.909934917280494,0.72796855345678));
#1085=VERTEX_POINT('',#1084);
#1086=CARTESIAN_POINT('',(-5.3375,2.909934917280495,0.760000000000002));
#1087=DIRECTION('',(0.0,1.0,0.0));
#1088=DIRECTION('',(0.648013413165149,0.0,-0.761628923005195));
#1089=AXIS2_PLACEMENT_3D('',#1086,#1087,#1088);
#1090=CIRCLE('',#1089,0.2);
#1091=EDGE_CURVE('',#1085,#1077,#1090,.T.);
#1092=ORIENTED_EDGE('',*,*,#1091,.F.);
#1093=CARTESIAN_POINT('',(-4.861211510633236,2.909934917280494,2.446719496864247));
#1094=VERTEX_POINT('',#1093);
#1095=CARTESIAN_POINT('',(-5.140081696815243,2.909934917280494,0.72796855345678));
#1096=DIRECTION('',(0.160157232716111,0.0,0.987091515923786));
#1097=VECTOR('',#1096,1.74122755152945);
#1098=LINE('',#1095,#1097);
#1099=EDGE_CURVE('',#1094,#1085,#1098,.F.);
#1100=ORIENTED_EDGE('',*,*,#1099,.F.);
#1101=CARTESIAN_POINT('',(-4.111021958531158,2.909934917280495,3.084999999999999));
#1102=VERTEX_POINT('',#1101);
#1103=CARTESIAN_POINT('',(-4.111021958531158,2.909934917280495,2.325000000000002));
#1104=DIRECTION('',(0.0,-1.0,0.0));
#1105=DIRECTION('',(-0.648013413165148,0.0,0.761628923005196));
#1106=AXIS2_PLACEMENT_3D('',#1103,#1104,#1105);
#1107=CIRCLE('',#1106,0.76);
#1108=EDGE_CURVE('',#1102,#1094,#1107,.T.);
#1109=ORIENTED_EDGE('',*,*,#1108,.F.);
#1110=CARTESIAN_POINT('',(-3.5725,2.909934917280495,3.084999999999999));
#1111=VERTEX_POINT('',#1110);
#1112=CARTESIAN_POINT('',(-4.111021958531158,2.909934917280495,3.084999999999999));
#1113=DIRECTION('',(1.0,0.0,0.0));
#1114=VECTOR('',#1113,0.538521958531157);
#1115=LINE('',#1112,#1114);
#1116=EDGE_CURVE('',#1111,#1102,#1115,.F.);
#1117=ORIENTED_EDGE('',*,*,#1116,.F.);
#1118=CARTESIAN_POINT('',(-3.5725,2.909934917280495,3.084999999999999));
#1119=DIRECTION('',(0.0,0.0,-1.0));
#1120=VECTOR('',#1119,0.56);
#1121=LINE('',#1118,#1120);
#1122=EDGE_CURVE('',#1111,#1020,#1121,.T.);
#1123=ORIENTED_EDGE('',*,*,#1122,.T.);
#1124=ORIENTED_EDGE('',*,*,#1025,.F.);
#1125=CARTESIAN_POINT('',(-4.308440261715916,2.909934917280495,2.357031446543224));
#1126=VERTEX_POINT('',#1125);
#1127=CARTESIAN_POINT('',(-4.111021958531159,2.909934917280495,2.325000000000002));
#1128=DIRECTION('',(0.0,1.0,0.0));
#1129=DIRECTION('',(-0.648013413165145,0.0,0.761628923005199));
#1130=AXIS2_PLACEMENT_3D('',#1127,#1128,#1129);
#1131=CIRCLE('',#1130,0.2);
#1132=EDGE_CURVE('',#1126,#1010,#1131,.T.);
#1133=ORIENTED_EDGE('',*,*,#1132,.F.);
#1134=CARTESIAN_POINT('',(-4.308440261715916,2.909934917280495,2.357031446543224));
#1135=DIRECTION('',(-0.160157232716111,0.0,-0.987091515923786));
#1136=VECTOR('',#1135,1.74122755152945);
#1137=LINE('',#1134,#1136);
#1138=EDGE_CURVE('',#1052,#1126,#1137,.F.);
#1139=ORIENTED_EDGE('',*,*,#1138,.F.);
#1140=EDGE_LOOP('',(#1059,#1067,#1075,#1083,#1092,#1100,#1109,#1117,#1123,#1124,#1133,#1139));
#1141=FACE_OUTER_BOUND('',#1140,.T.);
#1142=ADVANCED_FACE('',(#1141),#1048,.T.);
#1143=CARTESIAN_POINT('',(-5.01386577391049,2.170065082719508,1.438416396146453));
#1144=DIRECTION('',(0.0,1.0,0.0));
#1145=DIRECTION('',(0.0,0.0,1.0));
#1146=AXIS2_PLACEMENT_3D('',#1143,#1144,#1145);
#1147=PLANE('',#1146);
#1148=CARTESIAN_POINT('',(-4.587310447897924,2.170065082719509,0.638280503135757));
#1149=VERTEX_POINT('',#1148);
#1150=CARTESIAN_POINT('',(-5.3375,2.170065082719508,-7.677120E-016));
#1151=VERTEX_POINT('',#1150);
#1152=CARTESIAN_POINT('',(-5.3375,2.170065082719508,0.760000000000002));
#1153=DIRECTION('',(0.0,1.0,0.0));
#1154=DIRECTION('',(0.648013413165147,0.0,-0.761628923005197));
#1155=AXIS2_PLACEMENT_3D('',#1152,#1153,#1154);
#1156=CIRCLE('',#1155,0.76);
#1157=EDGE_CURVE('',#1149,#1151,#1156,.T.);
#1158=ORIENTED_EDGE('',*,*,#1157,.F.);
#1159=CARTESIAN_POINT('',(-4.308440261715916,2.170065082719509,2.357031446543224));
#1160=VERTEX_POINT('',#1159);
#1161=CARTESIAN_POINT('',(-4.308440261715916,2.170065082719509,2.357031446543224));
#1162=DIRECTION('',(-0.160157232716111,0.0,-0.987091515923786));
#1163=VECTOR('',#1162,1.74122755152945);
#1164=LINE('',#1161,#1163);
#1165=EDGE_CURVE('',#1160,#1149,#1164,.T.);
#1166=ORIENTED_EDGE('',*,*,#1165,.F.);
#1167=CARTESIAN_POINT('',(-4.111021958531159,2.170065082719508,2.325000000000002));
#1168=DIRECTION('',(0.0,-1.0,0.0));
#1169=DIRECTION('',(-0.648013413165145,0.0,0.761628923005199));
#1170=AXIS2_PLACEMENT_3D('',#1167,#1168,#1169);
#1171=CIRCLE('',#1170,0.2);
#1172=EDGE_CURVE('',#1012,#1160,#1171,.T.);
#1173=ORIENTED_EDGE('',*,*,#1172,.F.);
#1174=ORIENTED_EDGE('',*,*,#1039,.F.);
#1175=CARTESIAN_POINT('',(-3.5725,2.170065082719508,3.084999999999999));
#1176=VERTEX_POINT('',#1175);
#1177=CARTESIAN_POINT('',(-3.5725,2.170065082719509,3.084999999999999));
#1178=DIRECTION('',(0.0,0.0,-1.0));
#1179=VECTOR('',#1178,0.56);
#1180=LINE('',#1177,#1179);
#1181=EDGE_CURVE('',#1028,#1176,#1180,.F.);
#1182=ORIENTED_EDGE('',*,*,#1181,.T.);
#1183=CARTESIAN_POINT('',(-4.111021958531158,2.170065082719508,3.084999999999999));
#1184=VERTEX_POINT('',#1183);
#1185=CARTESIAN_POINT('',(-4.111021958531158,2.170065082719509,3.084999999999999));
#1186=DIRECTION('',(1.0,0.0,0.0));
#1187=VECTOR('',#1186,0.538521958531157);
#1188=LINE('',#1185,#1187);
#1189=EDGE_CURVE('',#1184,#1176,#1188,.T.);
#1190=ORIENTED_EDGE('',*,*,#1189,.F.);
#1191=CARTESIAN_POINT('',(-4.861211510633236,2.170065082719508,2.446719496864247));
#1192=VERTEX_POINT('',#1191);
#1193=CARTESIAN_POINT('',(-4.111021958531158,2.170065082719508,2.325000000000002));
#1194=DIRECTION('',(0.0,1.0,0.0));
#1195=DIRECTION('',(-0.648013413165148,0.0,0.761628923005196));
#1196=AXIS2_PLACEMENT_3D('',#1193,#1194,#1195);
#1197=CIRCLE('',#1196,0.76);
#1198=EDGE_CURVE('',#1192,#1184,#1197,.T.);
#1199=ORIENTED_EDGE('',*,*,#1198,.F.);
#1200=CARTESIAN_POINT('',(-5.140081696815244,2.170065082719508,0.72796855345678));
#1201=VERTEX_POINT('',#1200);
#1202=CARTESIAN_POINT('',(-5.140081696815243,2.170065082719508,0.72796855345678));
#1203=DIRECTION('',(0.160157232716111,0.0,0.987091515923786));
#1204=VECTOR('',#1203,1.74122755152945);
#1205=LINE('',#1202,#1204);
#1206=EDGE_CURVE('',#1201,#1192,#1205,.T.);
#1207=ORIENTED_EDGE('',*,*,#1206,.F.);
#1208=CARTESIAN_POINT('',(-5.3375,2.170065082719509,0.560000000000002));
#1209=VERTEX_POINT('',#1208);
#1210=CARTESIAN_POINT('',(-5.3375,2.170065082719508,0.760000000000002));
#1211=DIRECTION('',(0.0,-1.0,0.0));
#1212=DIRECTION('',(0.648013413165149,0.0,-0.761628923005195));
#1213=AXIS2_PLACEMENT_3D('',#1210,#1211,#1212);
#1214=CIRCLE('',#1213,0.2);
#1215=EDGE_CURVE('',#1209,#1201,#1214,.T.);
#1216=ORIENTED_EDGE('',*,*,#1215,.F.);
#1217=CARTESIAN_POINT('',(-7.622500000000001,2.170065082719509,0.559999999999999));
#1218=VERTEX_POINT('',#1217);
#1219=CARTESIAN_POINT('',(-7.622500000000001,2.170065082719509,0.560000000000002));
#1220=DIRECTION('',(1.0,0.0,0.0));
#1221=VECTOR('',#1220,2.285);
#1222=LINE('',#1219,#1221);
#1223=EDGE_CURVE('',#1218,#1209,#1222,.T.);
#1224=ORIENTED_EDGE('',*,*,#1223,.F.);
#1225=CARTESIAN_POINT('',(-7.622500000000001,2.170065082719509,-7.866002E-016));
#1226=VERTEX_POINT('',#1225);
#1227=CARTESIAN_POINT('',(-7.622500000000001,2.170065082719509,-7.771561E-016));
#1228=DIRECTION('',(0.0,0.0,1.0));
#1229=VECTOR('',#1228,0.56);
#1230=LINE('',#1227,#1229);
#1231=EDGE_CURVE('',#1226,#1218,#1230,.T.);
#1232=ORIENTED_EDGE('',*,*,#1231,.F.);
#1233=CARTESIAN_POINT('',(-5.3375,2.170065082719509,-7.866002E-016));
#1234=DIRECTION('',(-1.0,0.0,0.0));
#1235=VECTOR('',#1234,2.285);
#1236=LINE('',#1233,#1235);
#1237=EDGE_CURVE('',#1151,#1226,#1236,.T.);
#1238=ORIENTED_EDGE('',*,*,#1237,.F.);
#1239=EDGE_LOOP('',(#1158,#1166,#1173,#1174,#1182,#1190,#1199,#1207,#1216,#1224,#1232,#1238));
#1240=FACE_OUTER_BOUND('',#1239,.T.);
#1241=ADVANCED_FACE('',(#1240),#1147,.F.);
#1242=CARTESIAN_POINT('',(-7.775648614563488,3.027067053397202,0.560000000000002));
#1243=DIRECTION('',(0.0,0.0,1.0));
#1244=DIRECTION('',(1.0,0.0,0.0));
#1245=AXIS2_PLACEMENT_3D('',#1242,#1243,#1244);
#1246=PLANE('',#1245);
#1247=CARTESIAN_POINT('',(-5.3375,2.909934917280495,0.560000000000002));
#1248=DIRECTION('',(0.0,-1.0,0.0));
#1249=VECTOR('',#1248,0.739869834560986);
#1250=LINE('',#1247,#1249);
#1251=EDGE_CURVE('',#1077,#1209,#1250,.T.);
#1252=ORIENTED_EDGE('',*,*,#1251,.F.);
#1253=ORIENTED_EDGE('',*,*,#1082,.T.);
#1254=CARTESIAN_POINT('',(-7.622500000000001,2.909934917280491,0.559999999999999));
#1255=DIRECTION('',(0.0,-1.0,0.0));
#1256=VECTOR('',#1255,0.739869834560982);
#1257=LINE('',#1254,#1256);
#1258=EDGE_CURVE('',#1069,#1218,#1257,.T.);
#1259=ORIENTED_EDGE('',*,*,#1258,.T.);
#1260=ORIENTED_EDGE('',*,*,#1223,.T.);
#1261=EDGE_LOOP('',(#1252,#1253,#1259,#1260));
#1262=FACE_OUTER_BOUND('',#1261,.T.);
#1263=ADVANCED_FACE('',(#1262),#1246,.T.);
#1264=CARTESIAN_POINT('',(-5.144010010725472,3.027067053397201,0.703757312622312));
#1265=DIRECTION('',(-0.987091515923786,0.0,0.160157232716111));
#1266=DIRECTION('',(0.160157232716111,0.0,0.987091515923786));
#1267=AXIS2_PLACEMENT_3D('',#1264,#1265,#1266);
#1268=PLANE('',#1267);
#1269=CARTESIAN_POINT('',(-4.861211510633236,2.909934917280494,2.446719496864247));
#1270=DIRECTION('',(0.0,-1.0,0.0));
#1271=VECTOR('',#1270,0.739869834560986);
#1272=LINE('',#1269,#1271);
#1273=EDGE_CURVE('',#1094,#1192,#1272,.T.);
#1274=ORIENTED_EDGE('',*,*,#1273,.F.);
#1275=ORIENTED_EDGE('',*,*,#1099,.T.);
#1276=CARTESIAN_POINT('',(-5.140081696815242,2.170065082719508,0.72796855345678));
#1277=DIRECTION('',(0.0,1.0,0.0));
#1278=VECTOR('',#1277,0.739869834560986);
#1279=LINE('',#1276,#1278);
#1280=EDGE_CURVE('',#1201,#1085,#1279,.T.);
#1281=ORIENTED_EDGE('',*,*,#1280,.F.);
#1282=ORIENTED_EDGE('',*,*,#1206,.T.);
#1283=EDGE_LOOP('',(#1274,#1275,#1281,#1282));
#1284=FACE_OUTER_BOUND('',#1283,.T.);
#1285=ADVANCED_FACE('',(#1284),#1268,.T.);
#1286=CARTESIAN_POINT('',(-4.111021958531159,3.027067053397202,2.325000000000002));
#1287=DIRECTION('',(0.0,1.0,0.0));
#1288=DIRECTION('',(-0.648013413165145,0.0,0.761628923005199));
#1289=AXIS2_PLACEMENT_3D('',#1286,#1287,#1288);
#1290=CYLINDRICAL_SURFACE('',#1289,0.2);
#1291=ORIENTED_EDGE('',*,*,#1172,.T.);
#1292=CARTESIAN_POINT('',(-4.308440261715916,2.170065082719509,2.357031446543224));
#1293=DIRECTION('',(0.0,1.0,0.0));
#1294=VECTOR('',#1293,0.739869834560986);
#1295=LINE('',#1292,#1294);
#1296=EDGE_CURVE('',#1160,#1126,#1295,.T.);
#1297=ORIENTED_EDGE('',*,*,#1296,.T.);
#1298=ORIENTED_EDGE('',*,*,#1132,.T.);
#1299=ORIENTED_EDGE('',*,*,#1017,.T.);
#1300=EDGE_LOOP('',(#1291,#1297,#1298,#1299));
#1301=FACE_OUTER_BOUND('',#1300,.T.);
#1302=ADVANCED_FACE('',(#1301),#1290,.F.);
#1303=CARTESIAN_POINT('',(-4.309251519994062,3.027067053397202,2.352031446543224));
#1304=DIRECTION('',(0.987091515923786,0.0,-0.160157232716111));
#1305=DIRECTION('',(-0.160157232716111,0.0,-0.987091515923786));
#1306=AXIS2_PLACEMENT_3D('',#1303,#1304,#1305);
#1307=PLANE('',#1306);
#1308=CARTESIAN_POINT('',(-4.587310447897922,2.909934917280495,0.638280503135757));
#1309=DIRECTION('',(0.0,-1.0,0.0));
#1310=VECTOR('',#1309,0.739869834560986);
#1311=LINE('',#1308,#1310);
#1312=EDGE_CURVE('',#1052,#1149,#1311,.T.);
#1313=ORIENTED_EDGE('',*,*,#1312,.F.);
#1314=ORIENTED_EDGE('',*,*,#1138,.T.);
#1315=ORIENTED_EDGE('',*,*,#1296,.F.);
#1316=ORIENTED_EDGE('',*,*,#1165,.T.);
#1317=EDGE_LOOP('',(#1313,#1314,#1315,#1316));
#1318=FACE_OUTER_BOUND('',#1317,.T.);
#1319=ADVANCED_FACE('',(#1318),#1307,.T.);
#1320=CARTESIAN_POINT('',(-5.3375,3.027067053397202,0.760000000000002));
#1321=DIRECTION('',(0.0,1.0,0.0));
#1322=DIRECTION('',(0.648013413165149,0.0,-0.761628923005195));
#1323=AXIS2_PLACEMENT_3D('',#1320,#1321,#1322);
#1324=CYLINDRICAL_SURFACE('',#1323,0.2);
#1325=ORIENTED_EDGE('',*,*,#1215,.T.);
#1326=ORIENTED_EDGE('',*,*,#1280,.T.);
#1327=ORIENTED_EDGE('',*,*,#1091,.T.);
#1328=ORIENTED_EDGE('',*,*,#1251,.T.);
#1329=EDGE_LOOP('',(#1325,#1326,#1327,#1328));
#1330=FACE_OUTER_BOUND('',#1329,.T.);
#1331=ADVANCED_FACE('',(#1330),#1324,.F.);
#1332=CARTESIAN_POINT('',(-5.3375,3.035,0.760000000000002));
#1333=DIRECTION('',(0.0,1.0,0.0));
#1334=DIRECTION('',(0.648013413165147,0.0,-0.761628923005197));
#1335=AXIS2_PLACEMENT_3D('',#1332,#1333,#1334);
#1336=CYLINDRICAL_SURFACE('',#1335,0.76);
#1337=ORIENTED_EDGE('',*,*,#1058,.T.);
#1338=ORIENTED_EDGE('',*,*,#1312,.T.);
#1339=ORIENTED_EDGE('',*,*,#1157,.T.);
#1340=CARTESIAN_POINT('',(-5.3375,2.170065082719508,-7.677120E-016));
#1341=DIRECTION('',(0.0,1.0,0.0));
#1342=VECTOR('',#1341,0.739869834560986);
#1343=LINE('',#1340,#1342);
#1344=EDGE_CURVE('',#1151,#1050,#1343,.T.);
#1345=ORIENTED_EDGE('',*,*,#1344,.T.);
#1346=EDGE_LOOP('',(#1337,#1338,#1339,#1345));
#1347=FACE_OUTER_BOUND('',#1346,.T.);
#1348=ADVANCED_FACE('',(#1347),#1336,.T.);
#1349=CARTESIAN_POINT('',(-7.622500000000001,3.027067053397202,-0.180000000000001));
#1350=DIRECTION('',(-1.0,0.0,0.0));
#1351=DIRECTION('',(0.0,0.0,1.0));
#1352=AXIS2_PLACEMENT_3D('',#1349,#1350,#1351);
#1353=PLANE('',#1352);
#1354=ORIENTED_EDGE('',*,*,#1231,.T.);
#1355=ORIENTED_EDGE('',*,*,#1258,.F.);
#1356=ORIENTED_EDGE('',*,*,#1074,.T.);
#1357=CARTESIAN_POINT('',(-7.622500000000001,2.909934917280491,-7.866002E-016));
#1358=DIRECTION('',(0.0,-1.0,0.0));
#1359=VECTOR('',#1358,0.739869834560982);
#1360=LINE('',#1357,#1359);
#1361=EDGE_CURVE('',#1061,#1226,#1360,.T.);
#1362=ORIENTED_EDGE('',*,*,#1361,.T.);
#1363=EDGE_LOOP('',(#1354,#1355,#1356,#1362));
#1364=FACE_OUTER_BOUND('',#1363,.T.);
#1365=ADVANCED_FACE('',(#1364),#1353,.T.);
#1366=CARTESIAN_POINT('',(-5.551150270461417,3.042932946602798,-7.866002E-016));
#1367=DIRECTION('',(0.0,0.0,-1.0));
#1368=DIRECTION('',(-1.0,0.0,0.0));
#1369=AXIS2_PLACEMENT_3D('',#1366,#1367,#1368);
#1370=PLANE('',#1369);
#1371=ORIENTED_EDGE('',*,*,#1344,.F.);
#1372=ORIENTED_EDGE('',*,*,#1237,.T.);
#1373=ORIENTED_EDGE('',*,*,#1361,.F.);
#1374=ORIENTED_EDGE('',*,*,#1066,.T.);
#1375=EDGE_LOOP('',(#1371,#1372,#1373,#1374));
#1376=FACE_OUTER_BOUND('',#1375,.T.);
#1377=ADVANCED_FACE('',(#1376),#1370,.T.);
#1378=CARTESIAN_POINT('',(-4.111021958531158,3.027067053397202,2.325000000000002));
#1379=DIRECTION('',(0.0,1.0,0.0));
#1380=DIRECTION('',(-0.648013413165148,0.0,0.761628923005196));
#1381=AXIS2_PLACEMENT_3D('',#1378,#1379,#1380);
#1382=CYLINDRICAL_SURFACE('',#1381,0.76);
#1383=ORIENTED_EDGE('',*,*,#1108,.T.);
#1384=ORIENTED_EDGE('',*,*,#1273,.T.);
#1385=ORIENTED_EDGE('',*,*,#1198,.T.);
#1386=CARTESIAN_POINT('',(-4.111021958531158,2.170065082719508,3.084999999999999));
#1387=DIRECTION('',(0.0,1.0,0.0));
#1388=VECTOR('',#1387,0.739869834560986);
#1389=LINE('',#1386,#1388);
#1390=EDGE_CURVE('',#1184,#1102,#1389,.T.);
#1391=ORIENTED_EDGE('',*,*,#1390,.T.);
#1392=EDGE_LOOP('',(#1383,#1384,#1385,#1391));
#1393=FACE_OUTER_BOUND('',#1392,.T.);
#1394=ADVANCED_FACE('',(#1393),#1382,.T.);
#1395=CARTESIAN_POINT('',(-3.5725,4.92,2.889999999999997));
#1396=DIRECTION('',(1.0,0.0,0.0));
#1397=DIRECTION('',(0.0,1.0,0.0));
#1398=AXIS2_PLACEMENT_3D('',#1395,#1396,#1397);
#1399=PLANE('',#1398);
#1400=ORIENTED_EDGE('',*,*,#1181,.F.);
#1401=ORIENTED_EDGE('',*,*,#1033,.F.);
#1402=ORIENTED_EDGE('',*,*,#1122,.F.);
#1403=CARTESIAN_POINT('',(-3.5725,2.170065082719508,3.084999999999999));
#1404=DIRECTION('',(0.0,1.0,0.0));
#1405=VECTOR('',#1404,0.739869834560987);
#1406=LINE('',#1403,#1405);
#1407=EDGE_CURVE('',#1176,#1111,#1406,.T.);
#1408=ORIENTED_EDGE('',*,*,#1407,.F.);
#1409=EDGE_LOOP('',(#1400,#1401,#1402,#1408));
#1410=FACE_OUTER_BOUND('',#1409,.T.);
#1411=ADVANCED_FACE('',(#1410),#1399,.T.);
#1412=CARTESIAN_POINT('',(-3.958684602245817,3.027067053397202,3.084999999999999));
#1413=DIRECTION('',(0.0,0.0,1.0));
#1414=DIRECTION('',(1.0,0.0,0.0));
#1415=AXIS2_PLACEMENT_3D('',#1412,#1413,#1414);
#1416=PLANE('',#1415);
#1417=ORIENTED_EDGE('',*,*,#1390,.F.);
#1418=ORIENTED_EDGE('',*,*,#1189,.T.);
#1419=ORIENTED_EDGE('',*,*,#1407,.T.);
#1420=ORIENTED_EDGE('',*,*,#1116,.T.);
#1421=EDGE_LOOP('',(#1417,#1418,#1419,#1420));
#1422=FACE_OUTER_BOUND('',#1421,.T.);
#1423=ADVANCED_FACE('',(#1422),#1416,.T.);
#1424=CLOSED_SHELL('',(#1043,#1142,#1241,#1263,#1285,#1302,#1319,#1331,#1348,#1365,#1377,#1394,#1411,#1423));
#1425=MANIFOLD_SOLID_BREP('1BC5',#1424);
#1426=STYLED_ITEM('NONE',(#221),#1425);
#1427=CARTESIAN_POINT('',(-4.111021958531158,-2.044999999999998,2.325000000000002));
#1428=DIRECTION('',(0.0,1.0,0.0));
#1429=DIRECTION('',(-0.648013413165148,0.0,0.761628923005196));
#1430=AXIS2_PLACEMENT_3D('',#1427,#1428,#1429);
#1431=CYLINDRICAL_SURFACE('',#1430,0.76);
#1432=CARTESIAN_POINT('',(-4.111021958531158,-2.164999999999997,3.084999999999999));
#1433=VERTEX_POINT('',#1432);
#1434=CARTESIAN_POINT('',(-4.861211510633236,-2.164999999999996,2.446719496864247));
#1435=VERTEX_POINT('',#1434);
#1436=CARTESIAN_POINT('',(-4.111021958531158,-2.164999999999997,2.325000000000002));
#1437=DIRECTION('',(0.0,-1.0,0.0));
#1438=DIRECTION('',(-0.648013413165148,0.0,0.761628923005196));
#1439=AXIS2_PLACEMENT_3D('',#1436,#1437,#1438);
#1440=CIRCLE('',#1439,0.76);
#1441=EDGE_CURVE('',#1433,#1435,#1440,.T.);
#1442=ORIENTED_EDGE('',*,*,#1441,.T.);
#1443=CARTESIAN_POINT('',(-4.861211510633236,-2.914999999999996,2.446719496864247));
#1444=VERTEX_POINT('',#1443);
#1445=CARTESIAN_POINT('',(-4.861211510633236,-2.164999999999996,2.446719496864247));
#1446=DIRECTION('',(0.0,-1.0,0.0));
#1447=VECTOR('',#1446,0.75);
#1448=LINE('',#1445,#1447);
#1449=EDGE_CURVE('',#1435,#1444,#1448,.T.);
#1450=ORIENTED_EDGE('',*,*,#1449,.T.);
#1451=CARTESIAN_POINT('',(-4.111021958531158,-2.914999999999996,3.084999999999999));
#1452=VERTEX_POINT('',#1451);
#1453=CARTESIAN_POINT('',(-4.111021958531158,-2.914999999999996,2.325000000000002));
#1454=DIRECTION('',(0.0,1.0,0.0));
#1455=DIRECTION('',(-0.648013413165148,0.0,0.761628923005196));
#1456=AXIS2_PLACEMENT_3D('',#1453,#1454,#1455);
#1457=CIRCLE('',#1456,0.76);
#1458=EDGE_CURVE('',#1444,#1452,#1457,.T.);
#1459=ORIENTED_EDGE('',*,*,#1458,.T.);
#1460=CARTESIAN_POINT('',(-4.111021958531158,-2.914999999999996,3.084999999999999));
#1461=DIRECTION('',(0.0,1.0,0.0));
#1462=VECTOR('',#1461,0.749999999999999);
#1463=LINE('',#1460,#1462);
#1464=EDGE_CURVE('',#1452,#1433,#1463,.T.);
#1465=ORIENTED_EDGE('',*,*,#1464,.T.);
#1466=EDGE_LOOP('',(#1442,#1450,#1459,#1465));
#1467=FACE_OUTER_BOUND('',#1466,.T.);
#1468=ADVANCED_FACE('',(#1467),#1431,.T.);
#1469=CARTESIAN_POINT('',(-3.01199834410207,-2.044999999999998,2.525));
#1470=DIRECTION('',(0.0,0.0,-1.0));
#1471=DIRECTION('',(-1.0,0.0,0.0));
#1472=AXIS2_PLACEMENT_3D('',#1469,#1470,#1471);
#1473=PLANE('',#1472);
#1474=CARTESIAN_POINT('',(-4.111021958531159,-2.164999999999997,2.525));
#1475=VERTEX_POINT('',#1474);
#1476=CARTESIAN_POINT('',(-4.111021958531159,-2.914999999999996,2.525));
#1477=VERTEX_POINT('',#1476);
#1478=CARTESIAN_POINT('',(-4.111021958531159,-2.164999999999997,2.525));
#1479=DIRECTION('',(0.0,-1.0,0.0));
#1480=VECTOR('',#1479,0.749999999999999);
#1481=LINE('',#1478,#1480);
#1482=EDGE_CURVE('',#1475,#1477,#1481,.T.);
#1483=ORIENTED_EDGE('',*,*,#1482,.F.);
#1484=CARTESIAN_POINT('',(-3.5725,-2.164999999999996,2.524999999999997));
#1485=VERTEX_POINT('',#1484);
#1486=CARTESIAN_POINT('',(-3.5725,-2.164999999999997,2.525));
#1487=DIRECTION('',(-1.0,0.0,0.0));
#1488=VECTOR('',#1487,0.538521958531159);
#1489=LINE('',#1486,#1488);
#1490=EDGE_CURVE('',#1475,#1485,#1489,.F.);
#1491=ORIENTED_EDGE('',*,*,#1490,.T.);
#1492=CARTESIAN_POINT('',(-3.5725,-2.914999999999995,2.524999999999997));
#1493=VERTEX_POINT('',#1492);
#1494=CARTESIAN_POINT('',(-3.5725,-2.164999999999996,2.524999999999997));
#1495=DIRECTION('',(0.0,-1.0,0.0));
#1496=VECTOR('',#1495,0.749999999999999);
#1497=LINE('',#1494,#1496);
#1498=EDGE_CURVE('',#1485,#1493,#1497,.T.);
#1499=ORIENTED_EDGE('',*,*,#1498,.T.);
#1500=CARTESIAN_POINT('',(-3.5725,-2.914999999999996,2.525));
#1501=DIRECTION('',(-1.0,0.0,0.0));
#1502=VECTOR('',#1501,0.538521958531159);
#1503=LINE('',#1500,#1502);
#1504=EDGE_CURVE('',#1493,#1477,#1503,.T.);
#1505=ORIENTED_EDGE('',*,*,#1504,.T.);
#1506=EDGE_LOOP('',(#1483,#1491,#1499,#1505));
#1507=FACE_OUTER_BOUND('',#1506,.T.);
#1508=ADVANCED_FACE('',(#1507),#1473,.T.);
#1509=CARTESIAN_POINT('',(-5.01386577391049,-2.914999999999996,1.438416396146451));
#1510=DIRECTION('',(0.0,1.0,0.0));
#1511=DIRECTION('',(0.0,0.0,1.0));
#1512=AXIS2_PLACEMENT_3D('',#1509,#1510,#1511);
#1513=PLANE('',#1512);
#1514=ORIENTED_EDGE('',*,*,#1458,.F.);
#1515=CARTESIAN_POINT('',(-5.140081696815242,-2.914999999999996,0.72796855345678));
#1516=VERTEX_POINT('',#1515);
#1517=CARTESIAN_POINT('',(-5.140081696815242,-2.914999999999996,0.72796855345678));
#1518=DIRECTION('',(0.160157232716111,0.0,0.987091515923786));
#1519=VECTOR('',#1518,1.74122755152945);
#1520=LINE('',#1517,#1519);
#1521=EDGE_CURVE('',#1516,#1444,#1520,.T.);
#1522=ORIENTED_EDGE('',*,*,#1521,.F.);
#1523=CARTESIAN_POINT('',(-5.3375,-2.914999999999996,0.560000000000002));
#1524=VERTEX_POINT('',#1523);
#1525=CARTESIAN_POINT('',(-5.3375,-2.914999999999996,0.760000000000002));
#1526=DIRECTION('',(0.0,-1.0,0.0));
#1527=DIRECTION('',(0.648013413165149,0.0,-0.761628923005195));
#1528=AXIS2_PLACEMENT_3D('',#1525,#1526,#1527);
#1529=CIRCLE('',#1528,0.2);
#1530=EDGE_CURVE('',#1524,#1516,#1529,.T.);
#1531=ORIENTED_EDGE('',*,*,#1530,.F.);
#1532=CARTESIAN_POINT('',(-7.622500000000001,-2.914999999999996,0.560000000000002));
#1533=VERTEX_POINT('',#1532);
#1534=CARTESIAN_POINT('',(-7.622500000000001,-2.914999999999996,0.560000000000002));
#1535=DIRECTION('',(1.0,0.0,0.0));
#1536=VECTOR('',#1535,2.285);
#1537=LINE('',#1534,#1536);
#1538=EDGE_CURVE('',#1533,#1524,#1537,.T.);
#1539=ORIENTED_EDGE('',*,*,#1538,.F.);
#1540=CARTESIAN_POINT('',(-7.622500000000001,-2.914999999999996,3.425110E-016));
#1541=VERTEX_POINT('',#1540);
#1542=CARTESIAN_POINT('',(-7.622500000000001,-2.914999999999996,3.330669E-016));
#1543=DIRECTION('',(0.0,0.0,1.0));
#1544=VECTOR('',#1543,0.560000000000002);
#1545=LINE('',#1542,#1544);
#1546=EDGE_CURVE('',#1541,#1533,#1545,.T.);
#1547=ORIENTED_EDGE('',*,*,#1546,.F.);
#1548=CARTESIAN_POINT('',(-5.3375,-2.914999999999996,3.425110E-016));
#1549=VERTEX_POINT('',#1548);
#1550=CARTESIAN_POINT('',(-5.3375,-2.914999999999996,3.425110E-016));
#1551=DIRECTION('',(-1.0,0.0,0.0));
#1552=VECTOR('',#1551,2.285);
#1553=LINE('',#1550,#1552);
#1554=EDGE_CURVE('',#1549,#1541,#1553,.T.);
#1555=ORIENTED_EDGE('',*,*,#1554,.F.);
#1556=CARTESIAN_POINT('',(-4.587310447897924,-2.914999999999996,0.638280503135756));
#1557=VERTEX_POINT('',#1556);
#1558=CARTESIAN_POINT('',(-5.3375,-2.914999999999996,0.76));
#1559=DIRECTION('',(0.0,1.0,0.0));
#1560=DIRECTION('',(0.648013413165147,0.0,-0.761628923005197));
#1561=AXIS2_PLACEMENT_3D('',#1558,#1559,#1560);
#1562=CIRCLE('',#1561,0.76);
#1563=EDGE_CURVE('',#1557,#1549,#1562,.T.);
#1564=ORIENTED_EDGE('',*,*,#1563,.F.);
#1565=CARTESIAN_POINT('',(-4.308440261715917,-2.914999999999996,2.357031446543222));
#1566=VERTEX_POINT('',#1565);
#1567=CARTESIAN_POINT('',(-4.308440261715917,-2.914999999999996,2.357031446543222));
#1568=DIRECTION('',(-0.160157232716111,0.0,-0.987091515923786));
#1569=VECTOR('',#1568,1.74122755152945);
#1570=LINE('',#1567,#1569);
#1571=EDGE_CURVE('',#1566,#1557,#1570,.T.);
#1572=ORIENTED_EDGE('',*,*,#1571,.F.);
#1573=CARTESIAN_POINT('',(-4.111021958531159,-2.914999999999996,2.325));
#1574=DIRECTION('',(0.0,-1.0,0.0));
#1575=DIRECTION('',(-0.648013413165148,0.0,0.761628923005196));
#1576=AXIS2_PLACEMENT_3D('',#1573,#1574,#1575);
#1577=CIRCLE('',#1576,0.2);
#1578=EDGE_CURVE('',#1477,#1566,#1577,.T.);
#1579=ORIENTED_EDGE('',*,*,#1578,.F.);
#1580=ORIENTED_EDGE('',*,*,#1504,.F.);
#1581=CARTESIAN_POINT('',(-3.5725,-2.914999999999995,3.084999999999999));
#1582=VERTEX_POINT('',#1581);
#1583=CARTESIAN_POINT('',(-3.5725,-2.914999999999995,3.084999999999999));
#1584=DIRECTION('',(0.0,0.0,-1.0));
#1585=VECTOR('',#1584,0.560000000000002);
#1586=LINE('',#1583,#1585);
#1587=EDGE_CURVE('',#1493,#1582,#1586,.F.);
#1588=ORIENTED_EDGE('',*,*,#1587,.T.);
#1589=CARTESIAN_POINT('',(-4.111021958531158,-2.914999999999995,3.084999999999999));
#1590=DIRECTION('',(1.0,0.0,0.0));
#1591=VECTOR('',#1590,0.538521958531157);
#1592=LINE('',#1589,#1591);
#1593=EDGE_CURVE('',#1452,#1582,#1592,.T.);
#1594=ORIENTED_EDGE('',*,*,#1593,.F.);
#1595=EDGE_LOOP('',(#1514,#1522,#1531,#1539,#1547,#1555,#1564,#1572,#1579,#1580,#1588,#1594));
#1596=FACE_OUTER_BOUND('',#1595,.T.);
#1597=ADVANCED_FACE('',(#1596),#1513,.F.);
#1598=CARTESIAN_POINT('',(-7.775648614563488,-2.044999999999998,0.560000000000002));
#1599=DIRECTION('',(0.0,0.0,1.0));
#1600=DIRECTION('',(1.0,0.0,0.0));
#1601=AXIS2_PLACEMENT_3D('',#1598,#1599,#1600);
#1602=PLANE('',#1601);
#1603=CARTESIAN_POINT('',(-5.3375,-2.164999999999997,0.560000000000002));
#1604=VERTEX_POINT('',#1603);
#1605=CARTESIAN_POINT('',(-5.3375,-2.164999999999997,0.560000000000002));
#1606=DIRECTION('',(0.0,-1.0,0.0));
#1607=VECTOR('',#1606,0.749999999999999);
#1608=LINE('',#1605,#1607);
#1609=EDGE_CURVE('',#1604,#1524,#1608,.T.);
#1610=ORIENTED_EDGE('',*,*,#1609,.F.);
#1611=CARTESIAN_POINT('',(-7.622500000000001,-2.165,0.560000000000002));
#1612=VERTEX_POINT('',#1611);
#1613=CARTESIAN_POINT('',(-7.622500000000001,-2.164999999999997,0.560000000000002));
#1614=DIRECTION('',(1.0,0.0,0.0));
#1615=VECTOR('',#1614,2.285);
#1616=LINE('',#1613,#1615);
#1617=EDGE_CURVE('',#1604,#1612,#1616,.F.);
#1618=ORIENTED_EDGE('',*,*,#1617,.T.);
#1619=CARTESIAN_POINT('',(-7.622500000000001,-2.165,0.560000000000002));
#1620=DIRECTION('',(0.0,-1.0,0.0));
#1621=VECTOR('',#1620,0.749999999999996);
#1622=LINE('',#1619,#1621);
#1623=EDGE_CURVE('',#1612,#1533,#1622,.T.);
#1624=ORIENTED_EDGE('',*,*,#1623,.T.);
#1625=ORIENTED_EDGE('',*,*,#1538,.T.);
#1626=EDGE_LOOP('',(#1610,#1618,#1624,#1625));
#1627=FACE_OUTER_BOUND('',#1626,.T.);
#1628=ADVANCED_FACE('',(#1627),#1602,.T.);
#1629=CARTESIAN_POINT('',(-5.144010010725472,-2.044999999999997,0.703757312622312));
#1630=DIRECTION('',(-0.987091515923786,0.0,0.160157232716111));
#1631=DIRECTION('',(0.160157232716111,0.0,0.987091515923786));
#1632=AXIS2_PLACEMENT_3D('',#1629,#1630,#1631);
#1633=PLANE('',#1632);
#1634=ORIENTED_EDGE('',*,*,#1449,.F.);
#1635=CARTESIAN_POINT('',(-5.140081696815244,-2.164999999999996,0.72796855345678));
#1636=VERTEX_POINT('',#1635);
#1637=CARTESIAN_POINT('',(-5.140081696815243,-2.164999999999996,0.72796855345678));
#1638=DIRECTION('',(0.160157232716111,0.0,0.987091515923786));
#1639=VECTOR('',#1638,1.74122755152945);
#1640=LINE('',#1637,#1639);
#1641=EDGE_CURVE('',#1435,#1636,#1640,.F.);
#1642=ORIENTED_EDGE('',*,*,#1641,.T.);
#1643=CARTESIAN_POINT('',(-5.140081696815242,-2.914999999999996,0.72796855345678));
#1644=DIRECTION('',(0.0,1.0,0.0));
#1645=VECTOR('',#1644,0.75);
#1646=LINE('',#1643,#1645);
#1647=EDGE_CURVE('',#1516,#1636,#1646,.T.);
#1648=ORIENTED_EDGE('',*,*,#1647,.F.);
#1649=ORIENTED_EDGE('',*,*,#1521,.T.);
#1650=EDGE_LOOP('',(#1634,#1642,#1648,#1649));
#1651=FACE_OUTER_BOUND('',#1650,.T.);
#1652=ADVANCED_FACE('',(#1651),#1633,.T.);
#1653=CARTESIAN_POINT('',(-5.3375,-2.044999999999998,0.760000000000002));
#1654=DIRECTION('',(0.0,1.0,0.0));
#1655=DIRECTION('',(0.648013413165149,0.0,-0.761628923005195));
#1656=AXIS2_PLACEMENT_3D('',#1653,#1654,#1655);
#1657=CYLINDRICAL_SURFACE('',#1656,0.2);
#1658=ORIENTED_EDGE('',*,*,#1530,.T.);
#1659=ORIENTED_EDGE('',*,*,#1647,.T.);
#1660=CARTESIAN_POINT('',(-5.3375,-2.164999999999997,0.760000000000002));
#1661=DIRECTION('',(0.0,1.0,0.0));
#1662=DIRECTION('',(0.648013413165149,0.0,-0.761628923005195));
#1663=AXIS2_PLACEMENT_3D('',#1660,#1661,#1662);
#1664=CIRCLE('',#1663,0.2);
#1665=EDGE_CURVE('',#1636,#1604,#1664,.T.);
#1666=ORIENTED_EDGE('',*,*,#1665,.T.);
#1667=ORIENTED_EDGE('',*,*,#1609,.T.);
#1668=EDGE_LOOP('',(#1658,#1659,#1666,#1667));
#1669=FACE_OUTER_BOUND('',#1668,.T.);
#1670=ADVANCED_FACE('',(#1669),#1657,.F.);
#1671=CARTESIAN_POINT('',(-4.111021958531159,-2.044999999999998,2.325));
#1672=DIRECTION('',(0.0,1.0,0.0));
#1673=DIRECTION('',(-0.648013413165148,0.0,0.761628923005196));
#1674=AXIS2_PLACEMENT_3D('',#1671,#1672,#1673);
#1675=CYLINDRICAL_SURFACE('',#1674,0.2);
#1676=ORIENTED_EDGE('',*,*,#1578,.T.);
#1677=CARTESIAN_POINT('',(-4.308440261715917,-2.164999999999997,2.357031446543222));
#1678=VERTEX_POINT('',#1677);
#1679=CARTESIAN_POINT('',(-4.308440261715917,-2.914999999999996,2.357031446543222));
#1680=DIRECTION('',(0.0,1.0,0.0));
#1681=VECTOR('',#1680,0.749999999999999);
#1682=LINE('',#1679,#1681);
#1683=EDGE_CURVE('',#1566,#1678,#1682,.T.);
#1684=ORIENTED_EDGE('',*,*,#1683,.T.);
#1685=CARTESIAN_POINT('',(-4.111021958531159,-2.164999999999997,2.325));
#1686=DIRECTION('',(0.0,1.0,0.0));
#1687=DIRECTION('',(-0.648013413165148,0.0,0.761628923005196));
#1688=AXIS2_PLACEMENT_3D('',#1685,#1686,#1687);
#1689=CIRCLE('',#1688,0.2);
#1690=EDGE_CURVE('',#1678,#1475,#1689,.T.);
#1691=ORIENTED_EDGE('',*,*,#1690,.T.);
#1692=ORIENTED_EDGE('',*,*,#1482,.T.);
#1693=EDGE_LOOP('',(#1676,#1684,#1691,#1692));
#1694=FACE_OUTER_BOUND('',#1693,.T.);
#1695=ADVANCED_FACE('',(#1694),#1675,.F.);
#1696=CARTESIAN_POINT('',(-4.309251519994062,-2.044999999999998,2.352031446543223));
#1697=DIRECTION('',(0.987091515923786,0.0,-0.160157232716111));
#1698=DIRECTION('',(-0.160157232716111,0.0,-0.987091515923786));
#1699=AXIS2_PLACEMENT_3D('',#1696,#1697,#1698);
#1700=PLANE('',#1699);
#1701=CARTESIAN_POINT('',(-4.587310447897924,-2.164999999999997,0.638280503135756));
#1702=VERTEX_POINT('',#1701);
#1703=CARTESIAN_POINT('',(-4.587310447897924,-2.164999999999997,0.638280503135756));
#1704=DIRECTION('',(0.0,-1.0,0.0));
#1705=VECTOR('',#1704,0.749999999999999);
#1706=LINE('',#1703,#1705);
#1707=EDGE_CURVE('',#1702,#1557,#1706,.T.);
#1708=ORIENTED_EDGE('',*,*,#1707,.F.);
#1709=CARTESIAN_POINT('',(-4.308440261715917,-2.164999999999997,2.357031446543222));
#1710=DIRECTION('',(-0.160157232716111,0.0,-0.987091515923786));
#1711=VECTOR('',#1710,1.74122755152945);
#1712=LINE('',#1709,#1711);
#1713=EDGE_CURVE('',#1702,#1678,#1712,.F.);
#1714=ORIENTED_EDGE('',*,*,#1713,.T.);
#1715=ORIENTED_EDGE('',*,*,#1683,.F.);
#1716=ORIENTED_EDGE('',*,*,#1571,.T.);
#1717=EDGE_LOOP('',(#1708,#1714,#1715,#1716));
#1718=FACE_OUTER_BOUND('',#1717,.T.);
#1719=ADVANCED_FACE('',(#1718),#1700,.T.);
#1720=CARTESIAN_POINT('',(-5.3375,-1.984999999999997,0.76));
#1721=DIRECTION('',(0.0,1.0,0.0));
#1722=DIRECTION('',(0.648013413165147,0.0,-0.761628923005197));
#1723=AXIS2_PLACEMENT_3D('',#1720,#1721,#1722);
#1724=CYLINDRICAL_SURFACE('',#1723,0.76);
#1725=CARTESIAN_POINT('',(-5.3375,-2.164999999999997,3.425110E-016));
#1726=VERTEX_POINT('',#1725);
#1727=CARTESIAN_POINT('',(-5.3375,-2.164999999999997,0.76));
#1728=DIRECTION('',(0.0,-1.0,0.0));
#1729=DIRECTION('',(0.648013413165147,0.0,-0.761628923005197));
#1730=AXIS2_PLACEMENT_3D('',#1727,#1728,#1729);
#1731=CIRCLE('',#1730,0.76);
#1732=EDGE_CURVE('',#1726,#1702,#1731,.T.);
#1733=ORIENTED_EDGE('',*,*,#1732,.T.);
#1734=ORIENTED_EDGE('',*,*,#1707,.T.);
#1735=ORIENTED_EDGE('',*,*,#1563,.T.);
#1736=CARTESIAN_POINT('',(-5.3375,-2.914999999999996,3.425110E-016));
#1737=DIRECTION('',(0.0,1.0,0.0));
#1738=VECTOR('',#1737,0.749999999999999);
#1739=LINE('',#1736,#1738);
#1740=EDGE_CURVE('',#1549,#1726,#1739,.T.);
#1741=ORIENTED_EDGE('',*,*,#1740,.T.);
#1742=EDGE_LOOP('',(#1733,#1734,#1735,#1741));
#1743=FACE_OUTER_BOUND('',#1742,.T.);
#1744=ADVANCED_FACE('',(#1743),#1724,.T.);
#1745=CARTESIAN_POINT('',(-7.622500000000001,-2.165,-0.179999999999998));
#1746=DIRECTION('',(-1.0,0.0,0.0));
#1747=DIRECTION('',(0.0,0.0,1.0));
#1748=AXIS2_PLACEMENT_3D('',#1745,#1746,#1747);
#1749=PLANE('',#1748);
#1750=ORIENTED_EDGE('',*,*,#1546,.T.);
#1751=ORIENTED_EDGE('',*,*,#1623,.F.);
#1752=CARTESIAN_POINT('',(-7.622500000000001,-2.165,3.425110E-016));
#1753=VERTEX_POINT('',#1752);
#1754=CARTESIAN_POINT('',(-7.622500000000001,-2.165,0.560000000000002));
#1755=DIRECTION('',(0.0,0.0,-1.0));
#1756=VECTOR('',#1755,0.560000000000002);
#1757=LINE('',#1754,#1756);
#1758=EDGE_CURVE('',#1612,#1753,#1757,.T.);
#1759=ORIENTED_EDGE('',*,*,#1758,.T.);
#1760=CARTESIAN_POINT('',(-7.622500000000001,-2.165,3.425110E-016));
#1761=DIRECTION('',(0.0,-1.0,0.0));
#1762=VECTOR('',#1761,0.749999999999996);
#1763=LINE('',#1760,#1762);
#1764=EDGE_CURVE('',#1753,#1541,#1763,.T.);
#1765=ORIENTED_EDGE('',*,*,#1764,.T.);
#1766=EDGE_LOOP('',(#1750,#1751,#1759,#1765));
#1767=FACE_OUTER_BOUND('',#1766,.T.);
#1768=ADVANCED_FACE('',(#1767),#1749,.T.);
#1769=CARTESIAN_POINT('',(-5.551150270461418,-1.924999999999996,3.425110E-016));
#1770=DIRECTION('',(0.0,0.0,-1.0));
#1771=DIRECTION('',(-1.0,0.0,0.0));
#1772=AXIS2_PLACEMENT_3D('',#1769,#1770,#1771);
#1773=PLANE('',#1772);
#1774=ORIENTED_EDGE('',*,*,#1740,.F.);
#1775=ORIENTED_EDGE('',*,*,#1554,.T.);
#1776=ORIENTED_EDGE('',*,*,#1764,.F.);
#1777=CARTESIAN_POINT('',(-5.3375,-2.164999999999997,3.425110E-016));
#1778=DIRECTION('',(-1.0,0.0,0.0));
#1779=VECTOR('',#1778,2.285);
#1780=LINE('',#1777,#1779);
#1781=EDGE_CURVE('',#1753,#1726,#1780,.F.);
#1782=ORIENTED_EDGE('',*,*,#1781,.T.);
#1783=EDGE_LOOP('',(#1774,#1775,#1776,#1782));
#1784=FACE_OUTER_BOUND('',#1783,.T.);
#1785=ADVANCED_FACE('',(#1784),#1773,.T.);
#1786=CARTESIAN_POINT('',(-5.163086074563749,-2.164999999999997,1.462627636980923));
#1787=DIRECTION('',(0.0,1.0,0.0));
#1788=DIRECTION('',(0.0,0.0,1.0));
#1789=AXIS2_PLACEMENT_3D('',#1786,#1787,#1788);
#1790=PLANE('',#1789);
#1791=ORIENTED_EDGE('',*,*,#1441,.F.);
#1792=CARTESIAN_POINT('',(-3.5725,-2.165,3.084999999999999));
#1793=VERTEX_POINT('',#1792);
#1794=CARTESIAN_POINT('',(-3.5725,-2.165,3.084999999999999));
#1795=DIRECTION('',(-1.0,0.0,0.0));
#1796=VECTOR('',#1795,0.538521958531157);
#1797=LINE('',#1794,#1796);
#1798=EDGE_CURVE('',#1793,#1433,#1797,.T.);
#1799=ORIENTED_EDGE('',*,*,#1798,.F.);
#1800=CARTESIAN_POINT('',(-3.5725,-2.164999999999996,3.084999999999999));
#1801=DIRECTION('',(0.0,0.0,-1.0));
#1802=VECTOR('',#1801,0.560000000000002);
#1803=LINE('',#1800,#1802);
#1804=EDGE_CURVE('',#1793,#1485,#1803,.T.);
#1805=ORIENTED_EDGE('',*,*,#1804,.T.);
#1806=ORIENTED_EDGE('',*,*,#1490,.F.);
#1807=ORIENTED_EDGE('',*,*,#1690,.F.);
#1808=ORIENTED_EDGE('',*,*,#1713,.F.);
#1809=ORIENTED_EDGE('',*,*,#1732,.F.);
#1810=ORIENTED_EDGE('',*,*,#1781,.F.);
#1811=ORIENTED_EDGE('',*,*,#1758,.F.);
#1812=ORIENTED_EDGE('',*,*,#1617,.F.);
#1813=ORIENTED_EDGE('',*,*,#1665,.F.);
#1814=ORIENTED_EDGE('',*,*,#1641,.F.);
#1815=EDGE_LOOP('',(#1791,#1799,#1805,#1806,#1807,#1808,#1809,#1810,#1811,#1812,#1813,#1814));
#1816=FACE_OUTER_BOUND('',#1815,.T.);
#1817=ADVANCED_FACE('',(#1816),#1790,.T.);
#1818=CARTESIAN_POINT('',(-3.958684602245817,-2.044999999999998,3.084999999999999));
#1819=DIRECTION('',(0.0,0.0,1.0));
#1820=DIRECTION('',(1.0,0.0,0.0));
#1821=AXIS2_PLACEMENT_3D('',#1818,#1819,#1820);
#1822=PLANE('',#1821);
#1823=ORIENTED_EDGE('',*,*,#1464,.F.);
#1824=ORIENTED_EDGE('',*,*,#1593,.T.);
#1825=CARTESIAN_POINT('',(-3.5725,-2.914999999999995,3.084999999999999));
#1826=DIRECTION('',(0.0,1.0,0.0));
#1827=VECTOR('',#1826,0.749999999999996);
#1828=LINE('',#1825,#1827);
#1829=EDGE_CURVE('',#1582,#1793,#1828,.T.);
#1830=ORIENTED_EDGE('',*,*,#1829,.T.);
#1831=ORIENTED_EDGE('',*,*,#1798,.T.);
#1832=EDGE_LOOP('',(#1823,#1824,#1830,#1831));
#1833=FACE_OUTER_BOUND('',#1832,.T.);
#1834=ADVANCED_FACE('',(#1833),#1822,.T.);
#1835=CARTESIAN_POINT('',(-3.5725,4.92,2.889999999999997));
#1836=DIRECTION('',(1.0,0.0,0.0));
#1837=DIRECTION('',(0.0,1.0,0.0));
#1838=AXIS2_PLACEMENT_3D('',#1835,#1836,#1837);
#1839=PLANE('',#1838);
#1840=ORIENTED_EDGE('',*,*,#1804,.F.);
#1841=ORIENTED_EDGE('',*,*,#1829,.F.);
#1842=ORIENTED_EDGE('',*,*,#1587,.F.);
#1843=ORIENTED_EDGE('',*,*,#1498,.F.);
#1844=EDGE_LOOP('',(#1840,#1841,#1842,#1843));
#1845=FACE_OUTER_BOUND('',#1844,.T.);
#1846=ADVANCED_FACE('',(#1845),#1839,.T.);
#1847=CLOSED_SHELL('',(#1468,#1508,#1597,#1628,#1652,#1670,#1695,#1719,#1744,#1768,#1785,#1817,#1834,#1846));
#1848=MANIFOLD_SOLID_BREP('1BC2',#1847);
#1849=STYLED_ITEM('NONE',(#221),#1848);
#1850=ADVANCED_BREP_SHAPE_REPRESENTATION('ABSR1',(#214,#440,#837,#995,#1425,#1848),#28);
#1851=SHAPE_REPRESENTATION_RELATIONSHIP('SRRPL1','',#1850,#62);
ENDSEC;
END-ISO-10303-21;
