ISO-10303-21;
HEADER;
/****************************************************************
 * Generated by software with PDElib inside                    *
 * PDElib Version v51a, created Fri 09/10/2010                  *
 * ITI Transcendata (http://www.transcendata.com/)              *
 ****************************************************************/
FILE_DESCRIPTION((''),'2;1');
FILE_NAME('TO254P1542X460-3N-R820X1040.stp','2013-05-22T16:32:23',(''),(''),'Mechanical Desktop 2011','Mechanical Desktop 2011',', , ');
FILE_SCHEMA(('AUTOMOTIVE_DESIGN { 1 2 10303 214 1 1 1 1 }'));
ENDSEC;
DATA;
#10=(NAMED_UNIT(*)PLANE_ANGLE_UNIT()SI_UNIT($,.RADIAN.));
#11=DIMENSIONAL_EXPONENTS(0.0,0.0,0.0,0.0,0.0,0.0,0.0);
#12=PLANE_ANGLE_MEASURE_WITH_UNIT(PLANE_ANGLE_MEASURE(0.0174532925),#10);
#16=(CONVERSION_BASED_UNIT('DEGREE',#12)NAMED_UNIT(#11)PLANE_ANGLE_UNIT());
#20=(NAMED_UNIT(*)SI_UNIT($,.STERADIAN.)SOLID_ANGLE_UNIT());
#24=(LENGTH_UNIT()NAMED_UNIT(*)SI_UNIT(.MILLI.,.METRE.));
#26=UNCERTAINTY_MEASURE_WITH_UNIT(LENGTH_MEASURE(0.000001),#24,'DISTANCE_ACCURACY_VALUE','');
#28=(GEOMETRIC_REPRESENTATION_CONTEXT(3)GLOBAL_UNCERTAINTY_ASSIGNED_CONTEXT((#26))GLOBAL_UNIT_ASSIGNED_CONTEXT((#16,#20,#24))REPRESENTATION_CONTEXT('','3D'));
#29=APPLICATION_CONTEXT('automotive design');
#30=APPLICATION_PROTOCOL_DEFINITION('INTERNATIONAL_STANDARD','automotive_design',1998,#29);
#31=PRODUCT_CONTEXT('3D Mechanical Parts',#29,'mechanical');
#32=PRODUCT('Product','Product','',(#31));
#33=PRODUCT_RELATED_PRODUCT_CATEGORY('part',$,(#32));
#34=PRODUCT_CATEGORY('part',$);
#35=PERSON('1','Design','Joe',$,$,$);
#36=ORGANIZATION($,'None','None');
#37=PERSON_AND_ORGANIZATION(#35,#36);
#38=PERSON_AND_ORGANIZATION_ROLE('design_owner');
#39=APPLIED_PERSON_AND_ORGANIZATION_ASSIGNMENT(#37,#38,(#32));
#40=PRODUCT_DEFINITION_FORMATION_WITH_SPECIFIED_SOURCE('None','',#32,.BOUGHT.);
#41=PERSON('2','Creator','Joe',$,$,$);
#42=ORGANIZATION($,'None','None');
#43=PERSON_AND_ORGANIZATION(#41,#42);
#44=PERSON_AND_ORGANIZATION_ROLE('creator');
#45=APPLIED_PERSON_AND_ORGANIZATION_ASSIGNMENT(#43,#44,(#40));
#46=PERSON('3','Supplier','Joe',$,$,$);
#47=ORGANIZATION($,'None','None');
#48=PERSON_AND_ORGANIZATION(#46,#47);
#49=PERSON_AND_ORGANIZATION_ROLE('design_supplier');
#50=APPLIED_PERSON_AND_ORGANIZATION_ASSIGNMENT(#48,#49,(#40));
#51=PRODUCT_DEFINITION_CONTEXT('part definition',#29,'design');
#52=PRODUCT_DEFINITION('None','',#40,#51);
#53=PERSON('4','Creator','Joe',$,$,$);
#54=ORGANIZATION($,'None','None');
#55=PERSON_AND_ORGANIZATION(#53,#54);
#56=PERSON_AND_ORGANIZATION_ROLE('creator');
#57=APPLIED_PERSON_AND_ORGANIZATION_ASSIGNMENT(#55,#56,(#52));
#58=CARTESIAN_POINT('NONE',(0.0,0.0,0.0));
#59=DIRECTION('NONE',(0.0,0.0,1.0));
#60=DIRECTION('NONE',(1.0,0.0,0.0));
#61=AXIS2_PLACEMENT_3D('NONE',#58,#59,#60);
#62=SHAPE_REPRESENTATION('SR1',(#61),#28);
#63=PRODUCT_DEFINITION_SHAPE('PDS1','Test Part',#52);
#64=SHAPE_DEFINITION_REPRESENTATION(#63,#62);
#65=CARTESIAN_POINT('',(5.93,-4.297467458640245,0.0));
#66=DIRECTION('',(0.0,-1.0,0.0));
#67=DIRECTION('',(0.0,0.0,-1.0));
#68=AXIS2_PLACEMENT_3D('',#65,#66,#67);
#69=PLANE('',#68);
#70=CARTESIAN_POINT('',(6.310000000000001,-4.297467458640245,1.359999999999996));
#71=VERTEX_POINT('',#70);
#72=CARTESIAN_POINT('',(-0.29,-4.297467458640245,1.36));
#73=VERTEX_POINT('',#72);
#74=CARTESIAN_POINT('',(6.310000000000001,-4.297467458640245,1.36));
#75=DIRECTION('',(-1.0,0.0,0.0));
#76=VECTOR('',#75,6.600000000000001);
#77=LINE('',#74,#76);
#78=EDGE_CURVE('',#71,#73,#77,.T.);
#79=ORIENTED_EDGE('',*,*,#78,.T.);
#80=CARTESIAN_POINT('',(-0.29,-4.297467458640245,0.0));
#81=VERTEX_POINT('',#80);
#82=CARTESIAN_POINT('',(-0.29,-4.297467458640245,0.0));
#83=DIRECTION('',(0.0,0.0,1.0));
#84=VECTOR('',#83,1.36);
#85=LINE('',#82,#84);
#86=EDGE_CURVE('',#81,#73,#85,.T.);
#87=ORIENTED_EDGE('',*,*,#86,.F.);
#88=CARTESIAN_POINT('',(6.310000000000001,-4.297467458640245,-4.440892E-015));
#89=VERTEX_POINT('',#88);
#90=CARTESIAN_POINT('',(6.310000000000001,-4.297467458640245,0.0));
#91=DIRECTION('',(-1.0,0.0,0.0));
#92=VECTOR('',#91,6.600000000000001);
#93=LINE('',#90,#92);
#94=EDGE_CURVE('',#89,#81,#93,.T.);
#95=ORIENTED_EDGE('',*,*,#94,.F.);
#96=CARTESIAN_POINT('',(6.310000000000001,-4.297467458640245,-4.440892E-015));
#97=DIRECTION('',(0.0,0.0,1.0));
#98=VECTOR('',#97,1.36);
#99=LINE('',#96,#98);
#100=EDGE_CURVE('',#89,#71,#99,.T.);
#101=ORIENTED_EDGE('',*,*,#100,.T.);
#102=EDGE_LOOP('',(#79,#87,#95,#101));
#103=FACE_OUTER_BOUND('',#102,.T.);
#104=ADVANCED_FACE('',(#103),#69,.T.);
#105=CARTESIAN_POINT('',(-0.29,-4.297467458640245,0.0));
#106=DIRECTION('',(-1.0,0.0,0.0));
#107=DIRECTION('',(0.0,0.0,1.0));
#108=AXIS2_PLACEMENT_3D('',#105,#106,#107);
#109=PLANE('',#108);
#110=CARTESIAN_POINT('',(-0.29,4.302532541359755,1.36));
#111=VERTEX_POINT('',#110);
#112=CARTESIAN_POINT('',(-0.29,-4.297467458640245,1.36));
#113=DIRECTION('',(0.0,1.0,0.0));
#114=VECTOR('',#113,8.6);
#115=LINE('',#112,#114);
#116=EDGE_CURVE('',#73,#111,#115,.T.);
#117=ORIENTED_EDGE('',*,*,#116,.T.);
#118=CARTESIAN_POINT('',(-0.29,4.302532541359755,0.0));
#119=VERTEX_POINT('',#118);
#120=CARTESIAN_POINT('',(-0.29,4.302532541359755,0.0));
#121=DIRECTION('',(0.0,0.0,1.0));
#122=VECTOR('',#121,1.36);
#123=LINE('',#120,#122);
#124=EDGE_CURVE('',#119,#111,#123,.T.);
#125=ORIENTED_EDGE('',*,*,#124,.F.);
#126=CARTESIAN_POINT('',(-0.29,-4.297467458640245,0.0));
#127=DIRECTION('',(0.0,1.0,0.0));
#128=VECTOR('',#127,8.6);
#129=LINE('',#126,#128);
#130=EDGE_CURVE('',#81,#119,#129,.T.);
#131=ORIENTED_EDGE('',*,*,#130,.F.);
#132=ORIENTED_EDGE('',*,*,#86,.T.);
#133=EDGE_LOOP('',(#117,#125,#131,#132));
#134=FACE_OUTER_BOUND('',#133,.T.);
#135=ADVANCED_FACE('',(#134),#109,.T.);
#136=CARTESIAN_POINT('',(-0.29,4.302532541359755,0.0));
#137=DIRECTION('',(0.0,1.0,0.0));
#138=DIRECTION('',(0.0,0.0,1.0));
#139=AXIS2_PLACEMENT_3D('',#136,#137,#138);
#140=PLANE('',#139);
#141=CARTESIAN_POINT('',(6.310000000000001,4.302532541359755,1.359999999999996));
#142=VERTEX_POINT('',#141);
#143=CARTESIAN_POINT('',(-0.29,4.302532541359755,1.36));
#144=DIRECTION('',(1.0,0.0,0.0));
#145=VECTOR('',#144,6.600000000000001);
#146=LINE('',#143,#145);
#147=EDGE_CURVE('',#111,#142,#146,.T.);
#148=ORIENTED_EDGE('',*,*,#147,.T.);
#149=CARTESIAN_POINT('',(6.310000000000001,4.302532541359755,-4.440892E-015));
#150=VERTEX_POINT('',#149);
#151=CARTESIAN_POINT('',(6.310000000000001,4.302532541359755,-4.440892E-015));
#152=DIRECTION('',(0.0,0.0,1.0));
#153=VECTOR('',#152,1.36);
#154=LINE('',#151,#153);
#155=EDGE_CURVE('',#150,#142,#154,.T.);
#156=ORIENTED_EDGE('',*,*,#155,.F.);
#157=CARTESIAN_POINT('',(-0.29,4.302532541359755,0.0));
#158=DIRECTION('',(1.0,0.0,0.0));
#159=VECTOR('',#158,6.600000000000001);
#160=LINE('',#157,#159);
#161=EDGE_CURVE('',#119,#150,#160,.T.);
#162=ORIENTED_EDGE('',*,*,#161,.F.);
#163=ORIENTED_EDGE('',*,*,#124,.T.);
#164=EDGE_LOOP('',(#148,#156,#162,#163));
#165=FACE_OUTER_BOUND('',#164,.T.);
#166=ADVANCED_FACE('',(#165),#140,.T.);
#167=CARTESIAN_POINT('',(6.310000000000001,4.302532541359755,-4.440892E-015));
#168=DIRECTION('',(1.0,0.0,0.0));
#169=DIRECTION('',(0.0,0.0,-1.0));
#170=AXIS2_PLACEMENT_3D('',#167,#168,#169);
#171=PLANE('',#170);
#172=CARTESIAN_POINT('',(6.310000000000001,4.302532541359755,1.359999999999996));
#173=DIRECTION('',(0.0,-1.0,0.0));
#174=VECTOR('',#173,8.6);
#175=LINE('',#172,#174);
#176=EDGE_CURVE('',#142,#71,#175,.T.);
#177=ORIENTED_EDGE('',*,*,#176,.T.);
#178=ORIENTED_EDGE('',*,*,#100,.F.);
#179=CARTESIAN_POINT('',(6.310000000000001,4.302532541359755,-4.440892E-015));
#180=DIRECTION('',(0.0,-1.0,0.0));
#181=VECTOR('',#180,8.6);
#182=LINE('',#179,#181);
#183=EDGE_CURVE('',#150,#89,#182,.T.);
#184=ORIENTED_EDGE('',*,*,#183,.F.);
#185=ORIENTED_EDGE('',*,*,#155,.T.);
#186=EDGE_LOOP('',(#177,#178,#184,#185));
#187=FACE_OUTER_BOUND('',#186,.T.);
#188=ADVANCED_FACE('',(#187),#171,.T.);
#189=CARTESIAN_POINT('',(2.819999999999999,0.002532541359754,1.36));
#190=DIRECTION('',(0.0,0.0,1.0));
#191=DIRECTION('',(1.0,0.0,0.0));
#192=AXIS2_PLACEMENT_3D('',#189,#190,#191);
#193=PLANE('',#192);
#194=ORIENTED_EDGE('',*,*,#78,.F.);
#195=ORIENTED_EDGE('',*,*,#176,.F.);
#196=ORIENTED_EDGE('',*,*,#147,.F.);
#197=ORIENTED_EDGE('',*,*,#116,.F.);
#198=EDGE_LOOP('',(#194,#195,#196,#197));
#199=FACE_OUTER_BOUND('',#198,.T.);
#200=ADVANCED_FACE('',(#199),#193,.T.);
#201=CARTESIAN_POINT('',(2.82,0.002532541359754,0.0));
#202=DIRECTION('',(0.0,0.0,1.0));
#203=DIRECTION('',(1.0,0.0,0.0));
#204=AXIS2_PLACEMENT_3D('',#201,#202,#203);
#205=PLANE('',#204);
#206=ORIENTED_EDGE('',*,*,#183,.T.);
#207=ORIENTED_EDGE('',*,*,#94,.T.);
#208=ORIENTED_EDGE('',*,*,#130,.T.);
#209=ORIENTED_EDGE('',*,*,#161,.T.);
#210=EDGE_LOOP('',(#206,#207,#208,#209));
#211=FACE_OUTER_BOUND('',#210,.T.);
#212=ADVANCED_FACE('',(#211),#205,.F.);
#213=CLOSED_SHELL('',(#104,#135,#166,#188,#200,#212));
#214=MANIFOLD_SOLID_BREP('4D7',#213);
#215=COLOUR_RGB('254',0.866,0.866,0.866);
#216=SURFACE_STYLE_USAGE(.BOTH.,#217);
#217=SURFACE_SIDE_STYLE('NONE',(#218));
#218=SURFACE_STYLE_FILL_AREA(#219);
#219=FILL_AREA_STYLE('NONE',(#220));
#220=FILL_AREA_STYLE_COLOUR('NONE',#215);
#221=PRESENTATION_STYLE_ASSIGNMENT((#216));
#222=STYLED_ITEM('NONE',(#221),#214);
#223=MECHANICAL_DESIGN_GEOMETRIC_PRESENTATION_REPRESENTATION('NONE',(#222,#441,#830,#981,#1404,#1827),#28);
#224=PRESENTATION_LAYER_ASSIGNMENT('3D','None',(#214,#440,#822,#980,#1403,#1826));
#225=CARTESIAN_POINT('',(7.71,0.002532541359752,0.824999999999996));
#226=DIRECTION('',(-1.0,0.0,0.0));
#227=DIRECTION('',(0.0,-1.0,0.0));
#228=AXIS2_PLACEMENT_3D('',#225,#226,#227);
#229=PLANE('',#228);
#230=CARTESIAN_POINT('',(7.71,3.337884380006077,-1.776357E-015));
#231=VERTEX_POINT('',#230);
#232=CARTESIAN_POINT('',(7.71,3.337884380006077,1.359999999999996));
#233=VERTEX_POINT('',#232);
#234=CARTESIAN_POINT('',(7.71,3.337884380006077,-1.776357E-015));
#235=DIRECTION('',(0.0,0.0,1.0));
#236=VECTOR('',#235,1.359999999999998);
#237=LINE('',#234,#236);
#238=EDGE_CURVE('',#231,#233,#237,.T.);
#239=ORIENTED_EDGE('',*,*,#238,.T.);
#240=CARTESIAN_POINT('',(7.71,-3.332819297286568,1.359999999999996));
#241=VERTEX_POINT('',#240);
#242=CARTESIAN_POINT('',(7.71,-3.332819297286569,1.359999999999996));
#243=DIRECTION('',(0.0,1.0,0.0));
#244=VECTOR('',#243,6.670703677292647);
#245=LINE('',#242,#244);
#246=EDGE_CURVE('',#241,#233,#245,.T.);
#247=ORIENTED_EDGE('',*,*,#246,.F.);
#248=CARTESIAN_POINT('',(7.71,-3.332819297286568,1.776357E-015));
#249=VERTEX_POINT('',#248);
#250=CARTESIAN_POINT('',(7.71,-3.332819297286568,1.359999999999996));
#251=DIRECTION('',(0.0,0.0,-1.0));
#252=VECTOR('',#251,1.359999999999994);
#253=LINE('',#250,#252);
#254=EDGE_CURVE('',#241,#249,#253,.T.);
#255=ORIENTED_EDGE('',*,*,#254,.T.);
#256=CARTESIAN_POINT('',(7.71,-3.332819297286569,-4.440892E-015));
#257=DIRECTION('',(0.0,1.0,0.0));
#258=VECTOR('',#257,6.670703677292647);
#259=LINE('',#256,#258);
#260=EDGE_CURVE('',#249,#231,#259,.T.);
#261=ORIENTED_EDGE('',*,*,#260,.T.);
#262=EDGE_LOOP('',(#239,#247,#255,#261));
#263=FACE_OUTER_BOUND('',#262,.T.);
#264=ADVANCED_FACE('',(#263),#229,.F.);
#265=CARTESIAN_POINT('',(7.075,-5.077467458640248,-8.881784E-016));
#266=DIRECTION('',(-0.939692620785908,0.34202014332567,0.0));
#267=DIRECTION('',(0.0,0.0,1.0));
#268=AXIS2_PLACEMENT_3D('',#265,#266,#267);
#269=PLANE('',#268);
#270=CARTESIAN_POINT('',(7.075,-5.077467458640248,1.359999999999996));
#271=VERTEX_POINT('',#270);
#272=CARTESIAN_POINT('',(7.074999999999999,-5.077467458640248,1.359999999999996));
#273=DIRECTION('',(0.34202014332567,0.939692620785908,0.0));
#274=VECTOR('',#273,1.856615794103555);
#275=LINE('',#272,#274);
#276=EDGE_CURVE('',#271,#241,#275,.T.);
#277=ORIENTED_EDGE('',*,*,#276,.F.);
#278=CARTESIAN_POINT('',(7.075,-5.077467458640248,-8.881784E-016));
#279=VERTEX_POINT('',#278);
#280=CARTESIAN_POINT('',(7.075,-5.077467458640248,-8.881784E-016));
#281=DIRECTION('',(0.0,0.0,1.0));
#282=VECTOR('',#281,1.359999999999997);
#283=LINE('',#280,#282);
#284=EDGE_CURVE('',#279,#271,#283,.T.);
#285=ORIENTED_EDGE('',*,*,#284,.F.);
#286=CARTESIAN_POINT('',(7.710000000000001,-3.332819297286569,-8.881784E-016));
#287=DIRECTION('',(-0.34202014332567,-0.939692620785908,0.0));
#288=VECTOR('',#287,1.856615794103554);
#289=LINE('',#286,#288);
#290=EDGE_CURVE('',#249,#279,#289,.T.);
#291=ORIENTED_EDGE('',*,*,#290,.F.);
#292=ORIENTED_EDGE('',*,*,#254,.F.);
#293=EDGE_LOOP('',(#277,#285,#291,#292));
#294=FACE_OUTER_BOUND('',#293,.T.);
#295=ADVANCED_FACE('',(#294),#269,.F.);
#296=CARTESIAN_POINT('',(6.87,-5.077467458640248,0.824999999999999));
#297=DIRECTION('',(0.0,-1.0,0.0));
#298=DIRECTION('',(1.0,0.0,0.0));
#299=AXIS2_PLACEMENT_3D('',#296,#297,#298);
#300=PLANE('',#299);
#301=ORIENTED_EDGE('',*,*,#284,.T.);
#302=CARTESIAN_POINT('',(6.310000000000001,-5.077467458640248,1.359999999999996));
#303=VERTEX_POINT('',#302);
#304=CARTESIAN_POINT('',(7.075,-5.077467458640248,1.359999999999996));
#305=DIRECTION('',(-1.0,0.0,0.0));
#306=VECTOR('',#305,0.765);
#307=LINE('',#304,#306);
#308=EDGE_CURVE('',#271,#303,#307,.T.);
#309=ORIENTED_EDGE('',*,*,#308,.T.);
#310=CARTESIAN_POINT('',(6.310000000000001,-5.077467458640248,-4.440892E-015));
#311=VERTEX_POINT('',#310);
#312=CARTESIAN_POINT('',(6.310000000000001,-5.077467458640248,1.359999999999996));
#313=DIRECTION('',(0.0,0.0,-1.0));
#314=VECTOR('',#313,1.36);
#315=LINE('',#312,#314);
#316=EDGE_CURVE('',#303,#311,#315,.T.);
#317=ORIENTED_EDGE('',*,*,#316,.T.);
#318=CARTESIAN_POINT('',(6.310000000000001,-5.077467458640248,-8.881784E-016));
#319=DIRECTION('',(1.0,0.0,0.0));
#320=VECTOR('',#319,0.765);
#321=LINE('',#318,#320);
#322=EDGE_CURVE('',#311,#279,#321,.T.);
#323=ORIENTED_EDGE('',*,*,#322,.T.);
#324=EDGE_LOOP('',(#301,#309,#317,#323));
#325=FACE_OUTER_BOUND('',#324,.T.);
#326=ADVANCED_FACE('',(#325),#300,.T.);
#327=CARTESIAN_POINT('',(6.310000000000001,0.002532541359752,0.824999999999996));
#328=DIRECTION('',(1.0,0.0,0.0));
#329=DIRECTION('',(0.0,1.0,0.0));
#330=AXIS2_PLACEMENT_3D('',#327,#328,#329);
#331=PLANE('',#330);
#332=CARTESIAN_POINT('',(6.310000000000001,5.082532541359752,1.359999999999996));
#333=VERTEX_POINT('',#332);
#334=CARTESIAN_POINT('',(6.310000000000001,-5.077467458640248,1.359999999999996));
#335=DIRECTION('',(0.0,1.0,0.0));
#336=VECTOR('',#335,10.16);
#337=LINE('',#334,#336);
#338=EDGE_CURVE('',#303,#333,#337,.T.);
#339=ORIENTED_EDGE('',*,*,#338,.T.);
#340=CARTESIAN_POINT('',(6.310000000000001,5.082532541359752,-1.776357E-015));
#341=VERTEX_POINT('',#340);
#342=CARTESIAN_POINT('',(6.310000000000001,5.082532541359752,1.359999999999996));
#343=DIRECTION('',(0.0,0.0,-1.0));
#344=VECTOR('',#343,1.359999999999998);
#345=LINE('',#342,#344);
#346=EDGE_CURVE('',#341,#333,#345,.F.);
#347=ORIENTED_EDGE('',*,*,#346,.F.);
#348=CARTESIAN_POINT('',(6.310000000000001,-5.077467458640248,-4.440892E-015));
#349=DIRECTION('',(0.0,1.0,0.0));
#350=VECTOR('',#349,10.16);
#351=LINE('',#348,#350);
#352=EDGE_CURVE('',#311,#341,#351,.T.);
#353=ORIENTED_EDGE('',*,*,#352,.F.);
#354=ORIENTED_EDGE('',*,*,#316,.F.);
#355=EDGE_LOOP('',(#339,#347,#353,#354));
#356=FACE_OUTER_BOUND('',#355,.T.);
#357=ADVANCED_FACE('',(#356),#331,.F.);
#358=CARTESIAN_POINT('',(6.870000000000002,5.082532541359752,0.824999999999998));
#359=DIRECTION('',(0.0,-1.0,0.0));
#360=DIRECTION('',(1.0,0.0,0.0));
#361=AXIS2_PLACEMENT_3D('',#358,#359,#360);
#362=PLANE('',#361);
#363=CARTESIAN_POINT('',(7.075000000000002,5.082532541359752,1.359999999999996));
#364=VERTEX_POINT('',#363);
#365=CARTESIAN_POINT('',(7.075000000000002,5.082532541359752,-1.776357E-015));
#366=VERTEX_POINT('',#365);
#367=CARTESIAN_POINT('',(7.075000000000002,5.082532541359752,1.359999999999996));
#368=DIRECTION('',(0.0,0.0,-1.0));
#369=VECTOR('',#368,1.359999999999998);
#370=LINE('',#367,#369);
#371=EDGE_CURVE('',#364,#366,#370,.T.);
#372=ORIENTED_EDGE('',*,*,#371,.T.);
#373=CARTESIAN_POINT('',(7.075000000000002,5.082532541359752,-1.776357E-015));
#374=DIRECTION('',(-1.0,0.0,0.0));
#375=VECTOR('',#374,0.765000000000001);
#376=LINE('',#373,#375);
#377=EDGE_CURVE('',#366,#341,#376,.T.);
#378=ORIENTED_EDGE('',*,*,#377,.T.);
#379=ORIENTED_EDGE('',*,*,#346,.T.);
#380=CARTESIAN_POINT('',(7.075000000000002,5.082532541359752,1.359999999999996));
#381=DIRECTION('',(-1.0,0.0,0.0));
#382=VECTOR('',#381,0.765000000000001);
#383=LINE('',#380,#382);
#384=EDGE_CURVE('',#333,#364,#383,.F.);
#385=ORIENTED_EDGE('',*,*,#384,.T.);
#386=EDGE_LOOP('',(#372,#378,#379,#385));
#387=FACE_OUTER_BOUND('',#386,.T.);
#388=ADVANCED_FACE('',(#387),#362,.F.);
#389=CARTESIAN_POINT('',(7.71,3.337884380006078,-1.776357E-015));
#390=CARTESIAN_POINT('',(7.71,3.337884380006078,1.359999999999996));
#391=CARTESIAN_POINT('',(7.075000000000002,5.082532541359752,-1.776357E-015));
#392=CARTESIAN_POINT('',(7.075000000000002,5.082532541359752,1.359999999999996));
#393=B_SPLINE_SURFACE_WITH_KNOTS('',1,1,((#389,#391),(#390,#392)),.UNSPECIFIED.,.F.,.F.,.U.,(2,2),(2,2),(0.0,1.359999999999998),(0.0,1.85661579410355),.UNSPECIFIED.);
#394=CARTESIAN_POINT('',(7.709999999999999,3.337884380006078,1.359999999999996));
#395=DIRECTION('',(-0.342020143325669,0.939692620785908,0.0));
#396=VECTOR('',#395,1.85661579410355);
#397=LINE('',#394,#396);
#398=EDGE_CURVE('',#233,#364,#397,.T.);
#399=ORIENTED_EDGE('',*,*,#398,.F.);
#400=ORIENTED_EDGE('',*,*,#238,.F.);
#401=CARTESIAN_POINT('',(7.075000000000001,5.082532541359752,-1.776357E-015));
#402=DIRECTION('',(0.34202014332567,-0.939692620785908,0.0));
#403=VECTOR('',#402,1.85661579410355);
#404=LINE('',#401,#403);
#405=EDGE_CURVE('',#366,#231,#404,.T.);
#406=ORIENTED_EDGE('',*,*,#405,.F.);
#407=ORIENTED_EDGE('',*,*,#371,.F.);
#408=EDGE_LOOP('',(#399,#400,#406,#407));
#409=FACE_OUTER_BOUND('',#408,.T.);
#410=ADVANCED_FACE('',(#409),#393,.F.);
#411=CARTESIAN_POINT('',(6.87,0.002532541359752,1.359999999999996));
#412=DIRECTION('',(0.0,0.0,-1.0));
#413=DIRECTION('',(0.0,1.0,0.0));
#414=AXIS2_PLACEMENT_3D('',#411,#412,#413);
#415=PLANE('',#414);
#416=ORIENTED_EDGE('',*,*,#398,.T.);
#417=ORIENTED_EDGE('',*,*,#384,.F.);
#418=ORIENTED_EDGE('',*,*,#338,.F.);
#419=ORIENTED_EDGE('',*,*,#308,.F.);
#420=ORIENTED_EDGE('',*,*,#276,.T.);
#421=ORIENTED_EDGE('',*,*,#246,.T.);
#422=EDGE_LOOP('',(#416,#417,#418,#419,#420,#421));
#423=FACE_OUTER_BOUND('',#422,.T.);
#424=ADVANCED_FACE('',(#423),#415,.F.);
#425=CARTESIAN_POINT('',(6.870000000000002,0.002532541359752,1.776357E-015));
#426=DIRECTION('',(0.0,0.0,1.0));
#427=DIRECTION('',(0.0,-1.0,0.0));
#428=AXIS2_PLACEMENT_3D('',#425,#426,#427);
#429=PLANE('',#428);
#430=ORIENTED_EDGE('',*,*,#405,.T.);
#431=ORIENTED_EDGE('',*,*,#260,.F.);
#432=ORIENTED_EDGE('',*,*,#290,.T.);
#433=ORIENTED_EDGE('',*,*,#322,.F.);
#434=ORIENTED_EDGE('',*,*,#352,.T.);
#435=ORIENTED_EDGE('',*,*,#377,.F.);
#436=EDGE_LOOP('',(#430,#431,#432,#433,#434,#435));
#437=FACE_OUTER_BOUND('',#436,.T.);
#438=ADVANCED_FACE('',(#437),#429,.F.);
#439=CLOSED_SHELL('',(#264,#295,#326,#357,#388,#410,#424,#438));
#440=MANIFOLD_SOLID_BREP('38D',#439);
#441=STYLED_ITEM('NONE',(#221),#440);
#442=CARTESIAN_POINT('',(6.475000000000001,-4.300000000000002,2.220446E-016));
#443=DIRECTION('',(0.0,-1.0,0.0));
#444=DIRECTION('',(0.0,0.0,-1.0));
#445=AXIS2_PLACEMENT_3D('',#442,#443,#444);
#446=PLANE('',#445);
#447=CARTESIAN_POINT('',(6.310000000000001,-4.300000000000002,1.36));
#448=VERTEX_POINT('',#447);
#449=CARTESIAN_POINT('',(-0.29,-4.300000000000003,1.36));
#450=VERTEX_POINT('',#449);
#451=CARTESIAN_POINT('',(6.310000000000001,-4.300000000000002,1.36));
#452=DIRECTION('',(-1.0,0.0,0.0));
#453=VECTOR('',#452,6.600000000000001);
#454=LINE('',#451,#453);
#455=EDGE_CURVE('',#448,#450,#454,.T.);
#456=ORIENTED_EDGE('',*,*,#455,.F.);
#457=CARTESIAN_POINT('',(6.310000000000001,-4.300000000000003,5.336815E-016));
#458=VERTEX_POINT('',#457);
#459=CARTESIAN_POINT('',(6.310000000000001,-4.300000000000003,5.551115E-016));
#460=DIRECTION('',(0.0,0.0,1.0));
#461=VECTOR('',#460,1.36);
#462=LINE('',#459,#461);
#463=EDGE_CURVE('',#458,#448,#462,.T.);
#464=ORIENTED_EDGE('',*,*,#463,.F.);
#465=CARTESIAN_POINT('',(-0.29,-4.300000000000003,0.0));
#466=VERTEX_POINT('',#465);
#467=CARTESIAN_POINT('',(-0.29,-4.300000000000003,1.170461E-015));
#468=DIRECTION('',(1.0,0.0,0.0));
#469=VECTOR('',#468,6.600000000000001);
#470=LINE('',#467,#469);
#471=EDGE_CURVE('',#466,#458,#470,.T.);
#472=ORIENTED_EDGE('',*,*,#471,.F.);
#473=CARTESIAN_POINT('',(-0.29,-4.300000000000003,0.0));
#474=DIRECTION('',(0.0,0.0,1.0));
#475=VECTOR('',#474,1.36);
#476=LINE('',#473,#475);
#477=EDGE_CURVE('',#466,#450,#476,.T.);
#478=ORIENTED_EDGE('',*,*,#477,.T.);
#479=EDGE_LOOP('',(#456,#464,#472,#478));
#480=FACE_OUTER_BOUND('',#479,.T.);
#481=ADVANCED_FACE('',(#480),#446,.F.);
#482=CARTESIAN_POINT('',(-0.29,-4.300000000000003,0.0));
#483=DIRECTION('',(-1.0,0.0,0.0));
#484=DIRECTION('',(0.0,0.0,1.0));
#485=AXIS2_PLACEMENT_3D('',#482,#483,#484);
#486=PLANE('',#485);
#487=CARTESIAN_POINT('',(-0.29,4.299999999999997,1.36));
#488=VERTEX_POINT('',#487);
#489=CARTESIAN_POINT('',(-0.29,-4.300000000000003,1.36));
#490=DIRECTION('',(0.0,1.0,0.0));
#491=VECTOR('',#490,8.6);
#492=LINE('',#489,#491);
#493=EDGE_CURVE('',#450,#488,#492,.T.);
#494=ORIENTED_EDGE('',*,*,#493,.F.);
#495=ORIENTED_EDGE('',*,*,#477,.F.);
#496=CARTESIAN_POINT('',(-0.29,4.299999999999997,0.0));
#497=VERTEX_POINT('',#496);
#498=CARTESIAN_POINT('',(-0.29,4.299999999999997,9.556530E-016));
#499=DIRECTION('',(0.0,-1.0,0.0));
#500=VECTOR('',#499,8.600000000000001);
#501=LINE('',#498,#500);
#502=EDGE_CURVE('',#497,#466,#501,.T.);
#503=ORIENTED_EDGE('',*,*,#502,.F.);
#504=CARTESIAN_POINT('',(-0.29,4.299999999999997,0.0));
#505=DIRECTION('',(0.0,0.0,1.0));
#506=VECTOR('',#505,1.36);
#507=LINE('',#504,#506);
#508=EDGE_CURVE('',#497,#488,#507,.T.);
#509=ORIENTED_EDGE('',*,*,#508,.T.);
#510=EDGE_LOOP('',(#494,#495,#503,#509));
#511=FACE_OUTER_BOUND('',#510,.T.);
#512=ADVANCED_FACE('',(#511),#486,.F.);
#513=CARTESIAN_POINT('',(0.255000000000002,4.299999999999998,2.220446E-016));
#514=DIRECTION('',(0.0,1.0,0.0));
#515=DIRECTION('',(0.0,0.0,1.0));
#516=AXIS2_PLACEMENT_3D('',#513,#514,#515);
#517=PLANE('',#516);
#518=CARTESIAN_POINT('',(6.310000000000001,4.299999999999998,1.36));
#519=VERTEX_POINT('',#518);
#520=CARTESIAN_POINT('',(-0.29,4.299999999999998,1.36));
#521=DIRECTION('',(1.0,0.0,0.0));
#522=VECTOR('',#521,6.600000000000001);
#523=LINE('',#520,#522);
#524=EDGE_CURVE('',#488,#519,#523,.T.);
#525=ORIENTED_EDGE('',*,*,#524,.F.);
#526=ORIENTED_EDGE('',*,*,#508,.F.);
#527=CARTESIAN_POINT('',(6.310000000000001,4.299999999999998,6.506967E-016));
#528=VERTEX_POINT('',#527);
#529=CARTESIAN_POINT('',(6.310000000000001,4.299999999999999,5.336815E-016));
#530=DIRECTION('',(-1.0,0.0,0.0));
#531=VECTOR('',#530,6.600000000000001);
#532=LINE('',#529,#531);
#533=EDGE_CURVE('',#528,#497,#532,.T.);
#534=ORIENTED_EDGE('',*,*,#533,.F.);
#535=CARTESIAN_POINT('',(6.310000000000003,4.299999999999999,1.36));
#536=DIRECTION('',(0.0,0.0,-1.0));
#537=VECTOR('',#536,1.36);
#538=LINE('',#535,#537);
#539=EDGE_CURVE('',#519,#528,#538,.T.);
#540=ORIENTED_EDGE('',*,*,#539,.F.);
#541=EDGE_LOOP('',(#525,#526,#534,#540));
#542=FACE_OUTER_BOUND('',#541,.T.);
#543=ADVANCED_FACE('',(#542),#517,.F.);
#544=CARTESIAN_POINT('',(3.365000000000001,-1.887379E-015,1.36));
#545=DIRECTION('',(0.0,0.0,1.0));
#546=DIRECTION('',(1.0,0.0,0.0));
#547=AXIS2_PLACEMENT_3D('',#544,#545,#546);
#548=PLANE('',#547);
#549=ORIENTED_EDGE('',*,*,#455,.T.);
#550=ORIENTED_EDGE('',*,*,#493,.T.);
#551=ORIENTED_EDGE('',*,*,#524,.T.);
#552=CARTESIAN_POINT('',(6.310000000000003,-4.300000000000002,1.36));
#553=DIRECTION('',(0.0,1.0,0.0));
#554=VECTOR('',#553,8.6);
#555=LINE('',#552,#554);
#556=EDGE_CURVE('',#448,#519,#555,.T.);
#557=ORIENTED_EDGE('',*,*,#556,.F.);
#558=EDGE_LOOP('',(#549,#550,#551,#557));
#559=FACE_OUTER_BOUND('',#558,.T.);
#560=ADVANCED_FACE('',(#559),#548,.F.);
#561=CARTESIAN_POINT('',(5.990000000000001,5.335000000000003,5.645556E-016));
#562=DIRECTION('',(0.0,0.0,-1.0));
#563=DIRECTION('',(-1.0,0.0,0.0));
#564=AXIS2_PLACEMENT_3D('',#561,#562,#563);
#565=PLANE('',#564);
#566=ORIENTED_EDGE('',*,*,#533,.T.);
#567=ORIENTED_EDGE('',*,*,#502,.T.);
#568=ORIENTED_EDGE('',*,*,#471,.T.);
#569=CARTESIAN_POINT('',(6.310000000000001,-5.080000000000002,6.661338E-016));
#570=VERTEX_POINT('',#569);
#571=CARTESIAN_POINT('',(6.310000000000001,-4.300000000000003,6.506967E-016));
#572=DIRECTION('',(0.0,-1.0,0.0));
#573=VECTOR('',#572,0.779999999999999);
#574=LINE('',#571,#573);
#575=EDGE_CURVE('',#458,#570,#574,.T.);
#576=ORIENTED_EDGE('',*,*,#575,.T.);
#577=CARTESIAN_POINT('',(-2.594774373711127,-5.080000000000003,1.392913E-015));
#578=VERTEX_POINT('',#577);
#579=CARTESIAN_POINT('',(6.310000000000001,-5.080000000000002,5.336815E-016));
#580=DIRECTION('',(-1.0,0.0,0.0));
#581=VECTOR('',#580,8.904774373711128);
#582=LINE('',#579,#581);
#583=EDGE_CURVE('',#570,#578,#582,.T.);
#584=ORIENTED_EDGE('',*,*,#583,.T.);
#585=CARTESIAN_POINT('',(-2.594774373711127,5.079999999999998,1.392913E-015));
#586=VERTEX_POINT('',#585);
#587=CARTESIAN_POINT('',(-2.594774373711127,-5.080000000000003,1.392913E-015));
#588=DIRECTION('',(0.0,1.0,0.0));
#589=VECTOR('',#588,10.16);
#590=LINE('',#587,#589);
#591=EDGE_CURVE('',#586,#578,#590,.F.);
#592=ORIENTED_EDGE('',*,*,#591,.F.);
#593=CARTESIAN_POINT('',(6.310000000000001,5.079999999999998,-3.544970E-016));
#594=VERTEX_POINT('',#593);
#595=CARTESIAN_POINT('',(6.310000000000001,5.079999999999998,-3.544970E-016));
#596=DIRECTION('',(-1.0,0.0,0.0));
#597=VECTOR('',#596,8.904774373711128);
#598=LINE('',#595,#597);
#599=EDGE_CURVE('',#594,#586,#598,.T.);
#600=ORIENTED_EDGE('',*,*,#599,.F.);
#601=CARTESIAN_POINT('',(6.310000000000001,5.079999999999998,6.506967E-016));
#602=DIRECTION('',(0.0,-1.0,0.0));
#603=VECTOR('',#602,0.78);
#604=LINE('',#601,#603);
#605=EDGE_CURVE('',#594,#528,#604,.T.);
#606=ORIENTED_EDGE('',*,*,#605,.T.);
#607=EDGE_LOOP('',(#566,#567,#568,#576,#584,#592,#600,#606));
#608=FACE_OUTER_BOUND('',#607,.T.);
#609=ADVANCED_FACE('',(#608),#565,.T.);
#610=CARTESIAN_POINT('',(-3.04,5.335000000000003,3.085));
#611=DIRECTION('',(-0.984807753012208,0.0,0.17364817766693));
#612=DIRECTION('',(0.17364817766693,0.0,0.984807753012208));
#613=AXIS2_PLACEMENT_3D('',#610,#611,#612);
#614=PLANE('',#613);
#615=CARTESIAN_POINT('',(-3.04,-5.080000000000002,3.084999999999999));
#616=VERTEX_POINT('',#615);
#617=CARTESIAN_POINT('',(-2.772864624226676,-5.080000000000002,4.6));
#618=VERTEX_POINT('',#617);
#619=CARTESIAN_POINT('',(-3.04,-5.080000000000002,3.084999999999999));
#620=DIRECTION('',(0.17364817766693,0.0,0.984807753012208));
#621=VECTOR('',#620,1.538371317006904);
#622=LINE('',#619,#621);
#623=EDGE_CURVE('',#616,#618,#622,.T.);
#624=ORIENTED_EDGE('',*,*,#623,.T.);
#625=CARTESIAN_POINT('',(-2.772864624226676,5.079999999999998,4.6));
#626=VERTEX_POINT('',#625);
#627=CARTESIAN_POINT('',(-2.772864624226676,5.079999999999998,4.6));
#628=DIRECTION('',(0.0,-1.0,0.0));
#629=VECTOR('',#628,10.16);
#630=LINE('',#627,#629);
#631=EDGE_CURVE('',#626,#618,#630,.T.);
#632=ORIENTED_EDGE('',*,*,#631,.F.);
#633=CARTESIAN_POINT('',(-3.04,5.079999999999998,3.084999999999999));
#634=VERTEX_POINT('',#633);
#635=CARTESIAN_POINT('',(-3.04,5.079999999999998,3.084999999999999));
#636=DIRECTION('',(0.17364817766693,0.0,0.984807753012208));
#637=VECTOR('',#636,1.538371317006904);
#638=LINE('',#635,#637);
#639=EDGE_CURVE('',#634,#626,#638,.T.);
#640=ORIENTED_EDGE('',*,*,#639,.F.);
#641=CARTESIAN_POINT('',(-3.04,5.079999999999998,3.084999999999999));
#642=DIRECTION('',(0.0,-1.0,0.0));
#643=VECTOR('',#642,10.16);
#644=LINE('',#641,#643);
#645=EDGE_CURVE('',#634,#616,#644,.T.);
#646=ORIENTED_EDGE('',*,*,#645,.T.);
#647=EDGE_LOOP('',(#624,#632,#640,#646));
#648=FACE_OUTER_BOUND('',#647,.T.);
#649=ADVANCED_FACE('',(#648),#614,.T.);
#650=CARTESIAN_POINT('',(1.671968726358456,5.079999999999998,2.382090949742119));
#651=DIRECTION('',(0.0,1.0,0.0));
#652=DIRECTION('',(0.0,0.0,1.0));
#653=AXIS2_PLACEMENT_3D('',#650,#651,#652);
#654=PLANE('',#653);
#655=CARTESIAN_POINT('',(6.310000000000003,5.079999999999998,1.650000000000004));
#656=VERTEX_POINT('',#655);
#657=CARTESIAN_POINT('',(6.310000000000003,5.079999999999998,1.650000000000004));
#658=DIRECTION('',(0.0,0.0,-1.0));
#659=VECTOR('',#658,1.650000000000003);
#660=LINE('',#657,#659);
#661=EDGE_CURVE('',#656,#594,#660,.T.);
#662=ORIENTED_EDGE('',*,*,#661,.T.);
#663=ORIENTED_EDGE('',*,*,#599,.T.);
#664=CARTESIAN_POINT('',(-3.04,5.079999999999998,2.525));
#665=VERTEX_POINT('',#664);
#666=CARTESIAN_POINT('',(-3.04,5.079999999999998,2.524999999999999));
#667=DIRECTION('',(0.17364817766693,0.0,-0.984807753012208));
#668=VECTOR('',#667,2.563952195011504);
#669=LINE('',#666,#668);
#670=EDGE_CURVE('',#586,#665,#669,.F.);
#671=ORIENTED_EDGE('',*,*,#670,.T.);
#672=CARTESIAN_POINT('',(-3.04,5.079999999999998,2.525));
#673=DIRECTION('',(0.0,0.0,1.0));
#674=VECTOR('',#673,0.56);
#675=LINE('',#672,#674);
#676=EDGE_CURVE('',#665,#634,#675,.T.);
#677=ORIENTED_EDGE('',*,*,#676,.T.);
#678=ORIENTED_EDGE('',*,*,#639,.T.);
#679=CARTESIAN_POINT('',(5.789835406910031,5.079999999999998,4.599999999999999));
#680=VERTEX_POINT('',#679);
#681=CARTESIAN_POINT('',(-2.772864624226676,5.079999999999998,4.599999999999999));
#682=DIRECTION('',(1.0,0.0,0.0));
#683=VECTOR('',#682,8.562700031136705);
#684=LINE('',#681,#683);
#685=EDGE_CURVE('',#626,#680,#684,.T.);
#686=ORIENTED_EDGE('',*,*,#685,.T.);
#687=CARTESIAN_POINT('',(5.789835406910032,5.079999999999998,4.599999999999999));
#688=DIRECTION('',(0.17364817766693,0.0,-0.984807753012208));
#689=VECTOR('',#688,2.995508505062944);
#690=LINE('',#687,#689);
#691=EDGE_CURVE('',#680,#656,#690,.T.);
#692=ORIENTED_EDGE('',*,*,#691,.T.);
#693=EDGE_LOOP('',(#662,#663,#671,#677,#678,#686,#692));
#694=FACE_OUTER_BOUND('',#693,.T.);
#695=ADVANCED_FACE('',(#694),#654,.T.);
#696=CARTESIAN_POINT('',(5.749280201347085,5.335000000000003,4.83));
#697=DIRECTION('',(0.984807753012208,0.0,0.173648177666931));
#698=DIRECTION('',(0.173648177666931,0.0,-0.984807753012208));
#699=AXIS2_PLACEMENT_3D('',#696,#697,#698);
#700=PLANE('',#699);
#701=CARTESIAN_POINT('',(5.78983540691003,-5.080000000000002,4.6));
#702=VERTEX_POINT('',#701);
#703=CARTESIAN_POINT('',(6.310000000000003,-5.080000000000002,1.650000000000005));
#704=VERTEX_POINT('',#703);
#705=CARTESIAN_POINT('',(5.789835406910032,-5.080000000000002,4.600000000000001));
#706=DIRECTION('',(0.17364817766693,0.0,-0.984807753012208));
#707=VECTOR('',#706,2.995508505062944);
#708=LINE('',#705,#707);
#709=EDGE_CURVE('',#702,#704,#708,.T.);
#710=ORIENTED_EDGE('',*,*,#709,.T.);
#711=CARTESIAN_POINT('',(6.310000000000003,5.079999999999998,1.650000000000005));
#712=DIRECTION('',(0.0,-1.0,0.0));
#713=VECTOR('',#712,10.16);
#714=LINE('',#711,#713);
#715=EDGE_CURVE('',#656,#704,#714,.T.);
#716=ORIENTED_EDGE('',*,*,#715,.F.);
#717=ORIENTED_EDGE('',*,*,#691,.F.);
#718=CARTESIAN_POINT('',(5.78983540691003,-5.080000000000002,4.6));
#719=DIRECTION('',(0.0,1.0,0.0));
#720=VECTOR('',#719,10.16);
#721=LINE('',#718,#720);
#722=EDGE_CURVE('',#680,#702,#721,.F.);
#723=ORIENTED_EDGE('',*,*,#722,.T.);
#724=EDGE_LOOP('',(#710,#716,#717,#723));
#725=FACE_OUTER_BOUND('',#724,.T.);
#726=ADVANCED_FACE('',(#725),#700,.T.);
#727=CARTESIAN_POINT('',(1.806968726358456,-5.080000000000002,2.382090949742122));
#728=DIRECTION('',(0.0,1.0,0.0));
#729=DIRECTION('',(0.0,0.0,1.0));
#730=AXIS2_PLACEMENT_3D('',#727,#728,#729);
#731=PLANE('',#730);
#732=ORIENTED_EDGE('',*,*,#583,.F.);
#733=CARTESIAN_POINT('',(6.310000000000003,-5.080000000000002,1.650000000000005));
#734=DIRECTION('',(0.0,0.0,-1.0));
#735=VECTOR('',#734,1.650000000000004);
#736=LINE('',#733,#735);
#737=EDGE_CURVE('',#704,#570,#736,.T.);
#738=ORIENTED_EDGE('',*,*,#737,.F.);
#739=ORIENTED_EDGE('',*,*,#709,.F.);
#740=CARTESIAN_POINT('',(-2.772864624226676,-5.080000000000002,4.6));
#741=DIRECTION('',(1.0,0.0,0.0));
#742=VECTOR('',#741,8.562700031136705);
#743=LINE('',#740,#742);
#744=EDGE_CURVE('',#618,#702,#743,.T.);
#745=ORIENTED_EDGE('',*,*,#744,.F.);
#746=ORIENTED_EDGE('',*,*,#623,.F.);
#747=CARTESIAN_POINT('',(-3.04,-5.080000000000002,2.525));
#748=VERTEX_POINT('',#747);
#749=CARTESIAN_POINT('',(-3.04,-5.080000000000002,3.084999999999999));
#750=DIRECTION('',(0.0,0.0,-1.0));
#751=VECTOR('',#750,0.56);
#752=LINE('',#749,#751);
#753=EDGE_CURVE('',#748,#616,#752,.F.);
#754=ORIENTED_EDGE('',*,*,#753,.F.);
#755=CARTESIAN_POINT('',(-2.594774373711127,-5.080000000000002,1.387779E-015));
#756=DIRECTION('',(-0.17364817766693,0.0,0.984807753012208));
#757=VECTOR('',#756,2.563952195011504);
#758=LINE('',#755,#757);
#759=EDGE_CURVE('',#578,#748,#758,.T.);
#760=ORIENTED_EDGE('',*,*,#759,.F.);
#761=EDGE_LOOP('',(#732,#738,#739,#745,#746,#754,#760));
#762=FACE_OUTER_BOUND('',#761,.T.);
#763=ADVANCED_FACE('',(#762),#731,.F.);
#764=CARTESIAN_POINT('',(-3.04,5.079999999999998,2.345000000000001));
#765=DIRECTION('',(-1.0,0.0,0.0));
#766=DIRECTION('',(0.0,0.0,1.0));
#767=AXIS2_PLACEMENT_3D('',#764,#765,#766);
#768=PLANE('',#767);
#769=ORIENTED_EDGE('',*,*,#753,.T.);
#770=ORIENTED_EDGE('',*,*,#645,.F.);
#771=ORIENTED_EDGE('',*,*,#676,.F.);
#772=CARTESIAN_POINT('',(-3.04,5.079999999999998,2.525));
#773=DIRECTION('',(0.0,-1.0,0.0));
#774=VECTOR('',#773,10.16);
#775=LINE('',#772,#774);
#776=EDGE_CURVE('',#665,#748,#775,.T.);
#777=ORIENTED_EDGE('',*,*,#776,.T.);
#778=EDGE_LOOP('',(#769,#770,#771,#777));
#779=FACE_OUTER_BOUND('',#778,.T.);
#780=ADVANCED_FACE('',(#779),#768,.T.);
#781=CARTESIAN_POINT('',(-2.595656008614669,5.59,0.004999999999999));
#782=DIRECTION('',(-0.984807753012208,0.0,-0.17364817766693));
#783=DIRECTION('',(-0.17364817766693,0.0,0.984807753012208));
#784=AXIS2_PLACEMENT_3D('',#781,#782,#783);
#785=PLANE('',#784);
#786=ORIENTED_EDGE('',*,*,#759,.T.);
#787=ORIENTED_EDGE('',*,*,#776,.F.);
#788=ORIENTED_EDGE('',*,*,#670,.F.);
#789=ORIENTED_EDGE('',*,*,#591,.T.);
#790=EDGE_LOOP('',(#786,#787,#788,#789));
#791=FACE_OUTER_BOUND('',#790,.T.);
#792=ADVANCED_FACE('',(#791),#785,.T.);
#793=CARTESIAN_POINT('',(6.310000000000003,5.335000000000003,1.650000000000005));
#794=DIRECTION('',(1.0,0.0,0.0));
#795=DIRECTION('',(0.0,0.0,-1.0));
#796=AXIS2_PLACEMENT_3D('',#793,#794,#795);
#797=PLANE('',#796);
#798=ORIENTED_EDGE('',*,*,#539,.T.);
#799=ORIENTED_EDGE('',*,*,#605,.F.);
#800=ORIENTED_EDGE('',*,*,#661,.F.);
#801=ORIENTED_EDGE('',*,*,#715,.T.);
#802=ORIENTED_EDGE('',*,*,#737,.T.);
#803=ORIENTED_EDGE('',*,*,#575,.F.);
#804=ORIENTED_EDGE('',*,*,#463,.T.);
#805=ORIENTED_EDGE('',*,*,#556,.T.);
#806=EDGE_LOOP('',(#798,#799,#800,#801,#802,#803,#804,#805));
#807=FACE_OUTER_BOUND('',#806,.T.);
#808=ADVANCED_FACE('',(#807),#797,.T.);
#809=CARTESIAN_POINT('',(-2.76316664028771,5.335000000000003,4.6));
#810=DIRECTION('',(0.0,0.0,1.0));
#811=DIRECTION('',(1.0,0.0,0.0));
#812=AXIS2_PLACEMENT_3D('',#809,#810,#811);
#813=PLANE('',#812);
#814=ORIENTED_EDGE('',*,*,#744,.T.);
#815=ORIENTED_EDGE('',*,*,#722,.F.);
#816=ORIENTED_EDGE('',*,*,#685,.F.);
#817=ORIENTED_EDGE('',*,*,#631,.T.);
#818=EDGE_LOOP('',(#814,#815,#816,#817));
#819=FACE_OUTER_BOUND('',#818,.T.);
#820=ADVANCED_FACE('',(#819),#813,.T.);
#821=CLOSED_SHELL('',(#481,#512,#543,#560,#609,#649,#695,#726,#763,#780,#792,#808,#820));
#822=MANIFOLD_SOLID_BREP('377',#821);
#823=COLOUR_RGB('250',0.33,0.33,0.33);
#824=SURFACE_STYLE_USAGE(.BOTH.,#825);
#825=SURFACE_SIDE_STYLE('NONE',(#826));
#826=SURFACE_STYLE_FILL_AREA(#827);
#827=FILL_AREA_STYLE('NONE',(#828));
#828=FILL_AREA_STYLE_COLOUR('NONE',#823);
#829=PRESENTATION_STYLE_ASSIGNMENT((#824));
#830=STYLED_ITEM('NONE',(#829),#822);
#831=CARTESIAN_POINT('',(-3.039999999999999,4.919999999999998,2.890000000000001));
#832=DIRECTION('',(1.0,0.0,0.0));
#833=DIRECTION('',(0.0,1.0,0.0));
#834=AXIS2_PLACEMENT_3D('',#831,#832,#833);
#835=PLANE('',#834);
#836=CARTESIAN_POINT('',(-3.039999999999999,0.494999999999998,2.525));
#837=VERTEX_POINT('',#836);
#838=CARTESIAN_POINT('',(-3.039999999999999,-0.495000000000002,2.525));
#839=VERTEX_POINT('',#838);
#840=CARTESIAN_POINT('',(-3.039999999999999,0.494999999999998,2.525));
#841=DIRECTION('',(0.0,-1.0,0.0));
#842=VECTOR('',#841,0.99);
#843=LINE('',#840,#842);
#844=EDGE_CURVE('',#837,#839,#843,.T.);
#845=ORIENTED_EDGE('',*,*,#844,.F.);
#846=CARTESIAN_POINT('',(-3.039999999999999,0.494999999999998,3.084999999999999));
#847=VERTEX_POINT('',#846);
#848=CARTESIAN_POINT('',(-3.039999999999999,0.494999999999998,3.084999999999999));
#849=DIRECTION('',(0.0,0.0,-1.0));
#850=VECTOR('',#849,0.56);
#851=LINE('',#848,#850);
#852=EDGE_CURVE('',#847,#837,#851,.T.);
#853=ORIENTED_EDGE('',*,*,#852,.F.);
#854=CARTESIAN_POINT('',(-3.039999999999999,-0.495000000000002,3.084999999999999));
#855=VERTEX_POINT('',#854);
#856=CARTESIAN_POINT('',(-3.039999999999999,-0.495000000000002,3.084999999999999));
#857=DIRECTION('',(0.0,1.0,0.0));
#858=VECTOR('',#857,0.99);
#859=LINE('',#856,#858);
#860=EDGE_CURVE('',#855,#847,#859,.T.);
#861=ORIENTED_EDGE('',*,*,#860,.F.);
#862=CARTESIAN_POINT('',(-3.039999999999999,-0.495000000000002,2.525));
#863=DIRECTION('',(0.0,0.0,1.0));
#864=VECTOR('',#863,0.56);
#865=LINE('',#862,#864);
#866=EDGE_CURVE('',#839,#855,#865,.T.);
#867=ORIENTED_EDGE('',*,*,#866,.F.);
#868=EDGE_LOOP('',(#845,#853,#861,#867));
#869=FACE_OUTER_BOUND('',#868,.T.);
#870=ADVANCED_FACE('',(#869),#835,.T.);
#871=CARTESIAN_POINT('',(-3.174999999999999,-1.887379E-015,3.084999999999999));
#872=DIRECTION('',(0.0,0.0,-1.0));
#873=DIRECTION('',(0.0,1.0,0.0));
#874=AXIS2_PLACEMENT_3D('',#871,#872,#873);
#875=PLANE('',#874);
#876=ORIENTED_EDGE('',*,*,#860,.T.);
#877=CARTESIAN_POINT('',(-3.809999999999999,0.494999999999998,3.084999999999999));
#878=VERTEX_POINT('',#877);
#879=CARTESIAN_POINT('',(-3.809999999999999,0.494999999999998,3.084999999999999));
#880=DIRECTION('',(1.0,0.0,0.0));
#881=VECTOR('',#880,0.77);
#882=LINE('',#879,#881);
#883=EDGE_CURVE('',#878,#847,#882,.T.);
#884=ORIENTED_EDGE('',*,*,#883,.F.);
#885=CARTESIAN_POINT('',(-3.809999999999999,-0.495000000000002,3.084999999999999));
#886=VERTEX_POINT('',#885);
#887=CARTESIAN_POINT('',(-3.809999999999999,-0.495000000000002,3.084999999999999));
#888=DIRECTION('',(0.0,1.0,0.0));
#889=VECTOR('',#888,0.99);
#890=LINE('',#887,#889);
#891=EDGE_CURVE('',#886,#878,#890,.T.);
#892=ORIENTED_EDGE('',*,*,#891,.F.);
#893=CARTESIAN_POINT('',(-3.039999999999999,-0.495000000000002,3.084999999999999));
#894=DIRECTION('',(-1.0,0.0,0.0));
#895=VECTOR('',#894,0.77);
#896=LINE('',#893,#895);
#897=EDGE_CURVE('',#855,#886,#896,.T.);
#898=ORIENTED_EDGE('',*,*,#897,.F.);
#899=EDGE_LOOP('',(#876,#884,#892,#898));
#900=FACE_OUTER_BOUND('',#899,.T.);
#901=ADVANCED_FACE('',(#900),#875,.F.);
#902=CARTESIAN_POINT('',(-3.174999999999999,0.494999999999998,2.895));
#903=DIRECTION('',(0.0,-1.0,0.0));
#904=DIRECTION('',(1.0,0.0,0.0));
#905=AXIS2_PLACEMENT_3D('',#902,#903,#904);
#906=PLANE('',#905);
#907=ORIENTED_EDGE('',*,*,#852,.T.);
#908=CARTESIAN_POINT('',(-3.809999999999999,0.494999999999998,2.525));
#909=VERTEX_POINT('',#908);
#910=CARTESIAN_POINT('',(-3.039999999999999,0.494999999999998,2.525));
#911=DIRECTION('',(-1.0,0.0,0.0));
#912=VECTOR('',#911,0.77);
#913=LINE('',#910,#912);
#914=EDGE_CURVE('',#837,#909,#913,.T.);
#915=ORIENTED_EDGE('',*,*,#914,.T.);
#916=CARTESIAN_POINT('',(-3.809999999999999,0.494999999999998,2.525));
#917=DIRECTION('',(0.0,0.0,1.0));
#918=VECTOR('',#917,0.56);
#919=LINE('',#916,#918);
#920=EDGE_CURVE('',#909,#878,#919,.T.);
#921=ORIENTED_EDGE('',*,*,#920,.T.);
#922=ORIENTED_EDGE('',*,*,#883,.T.);
#923=EDGE_LOOP('',(#907,#915,#921,#922));
#924=FACE_OUTER_BOUND('',#923,.T.);
#925=ADVANCED_FACE('',(#924),#906,.F.);
#926=CARTESIAN_POINT('',(-3.174999999999999,-1.887379E-015,2.525));
#927=DIRECTION('',(0.0,0.0,1.0));
#928=DIRECTION('',(0.0,-1.0,0.0));
#929=AXIS2_PLACEMENT_3D('',#926,#927,#928);
#930=PLANE('',#929);
#931=ORIENTED_EDGE('',*,*,#844,.T.);
#932=CARTESIAN_POINT('',(-3.809999999999999,-0.495000000000002,2.525));
#933=VERTEX_POINT('',#932);
#934=CARTESIAN_POINT('',(-3.809999999999999,-0.495000000000002,2.525));
#935=DIRECTION('',(1.0,0.0,0.0));
#936=VECTOR('',#935,0.77);
#937=LINE('',#934,#936);
#938=EDGE_CURVE('',#933,#839,#937,.T.);
#939=ORIENTED_EDGE('',*,*,#938,.F.);
#940=CARTESIAN_POINT('',(-3.809999999999999,0.494999999999998,2.525));
#941=DIRECTION('',(0.0,-1.0,0.0));
#942=VECTOR('',#941,0.99);
#943=LINE('',#940,#942);
#944=EDGE_CURVE('',#933,#909,#943,.F.);
#945=ORIENTED_EDGE('',*,*,#944,.T.);
#946=ORIENTED_EDGE('',*,*,#914,.F.);
#947=EDGE_LOOP('',(#931,#939,#945,#946));
#948=FACE_OUTER_BOUND('',#947,.T.);
#949=ADVANCED_FACE('',(#948),#930,.F.);
#950=CARTESIAN_POINT('',(-3.174999999999999,-0.495000000000002,2.895));
#951=DIRECTION('',(0.0,-1.0,0.0));
#952=DIRECTION('',(1.0,0.0,0.0));
#953=AXIS2_PLACEMENT_3D('',#950,#951,#952);
#954=PLANE('',#953);
#955=ORIENTED_EDGE('',*,*,#866,.T.);
#956=ORIENTED_EDGE('',*,*,#897,.T.);
#957=CARTESIAN_POINT('',(-3.809999999999999,-0.495000000000002,3.084999999999999));
#958=DIRECTION('',(0.0,0.0,-1.0));
#959=VECTOR('',#958,0.56);
#960=LINE('',#957,#959);
#961=EDGE_CURVE('',#886,#933,#960,.T.);
#962=ORIENTED_EDGE('',*,*,#961,.T.);
#963=ORIENTED_EDGE('',*,*,#938,.T.);
#964=EDGE_LOOP('',(#955,#956,#962,#963));
#965=FACE_OUTER_BOUND('',#964,.T.);
#966=ADVANCED_FACE('',(#965),#954,.T.);
#967=CARTESIAN_POINT('',(-3.809999999999999,-1.887379E-015,2.714999999999999));
#968=DIRECTION('',(1.0,0.0,0.0));
#969=DIRECTION('',(0.0,1.0,0.0));
#970=AXIS2_PLACEMENT_3D('',#967,#968,#969);
#971=PLANE('',#970);
#972=ORIENTED_EDGE('',*,*,#891,.T.);
#973=ORIENTED_EDGE('',*,*,#920,.F.);
#974=ORIENTED_EDGE('',*,*,#944,.F.);
#975=ORIENTED_EDGE('',*,*,#961,.F.);
#976=EDGE_LOOP('',(#972,#973,#974,#975));
#977=FACE_OUTER_BOUND('',#976,.T.);
#978=ADVANCED_FACE('',(#977),#971,.F.);
#979=CLOSED_SHELL('',(#870,#901,#925,#949,#966,#978));
#980=MANIFOLD_SOLID_BREP('362',#979);
#981=STYLED_ITEM('NONE',(#221),#980);
#982=CARTESIAN_POINT('',(-3.099498344102069,3.0270670533972,2.525000000000002));
#983=DIRECTION('',(0.0,0.0,-1.0));
#984=DIRECTION('',(-1.0,0.0,0.0));
#985=AXIS2_PLACEMENT_3D('',#982,#983,#984);
#986=PLANE('',#985);
#987=CARTESIAN_POINT('',(-4.198521958531159,2.909934917280493,2.525000000000002));
#988=VERTEX_POINT('',#987);
#989=CARTESIAN_POINT('',(-4.198521958531159,2.170065082719507,2.525000000000002));
#990=VERTEX_POINT('',#989);
#991=CARTESIAN_POINT('',(-4.198521958531159,2.909934917280493,2.525000000000002));
#992=DIRECTION('',(0.0,-1.0,0.0));
#993=VECTOR('',#992,0.739869834560986);
#994=LINE('',#991,#993);
#995=EDGE_CURVE('',#988,#990,#994,.T.);
#996=ORIENTED_EDGE('',*,*,#995,.F.);
#997=CARTESIAN_POINT('',(-3.04,2.909934917280493,2.524999999999999));
#998=VERTEX_POINT('',#997);
#999=CARTESIAN_POINT('',(-3.04,2.909934917280493,2.525000000000002));
#1000=DIRECTION('',(-1.0,0.0,0.0));
#1001=VECTOR('',#1000,1.158521958531159);
#1002=LINE('',#999,#1001);
#1003=EDGE_CURVE('',#988,#998,#1002,.F.);
#1004=ORIENTED_EDGE('',*,*,#1003,.T.);
#1005=CARTESIAN_POINT('',(-3.04,2.170065082719507,2.524999999999999));
#1006=VERTEX_POINT('',#1005);
#1007=CARTESIAN_POINT('',(-3.04,2.909934917280493,2.524999999999999));
#1008=DIRECTION('',(0.0,-1.0,0.0));
#1009=VECTOR('',#1008,0.739869834560987);
#1010=LINE('',#1007,#1009);
#1011=EDGE_CURVE('',#998,#1006,#1010,.T.);
#1012=ORIENTED_EDGE('',*,*,#1011,.T.);
#1013=CARTESIAN_POINT('',(-3.04,2.170065082719507,2.525000000000002));
#1014=DIRECTION('',(-1.0,0.0,0.0));
#1015=VECTOR('',#1014,1.158521958531159);
#1016=LINE('',#1013,#1015);
#1017=EDGE_CURVE('',#1006,#990,#1016,.T.);
#1018=ORIENTED_EDGE('',*,*,#1017,.T.);
#1019=EDGE_LOOP('',(#996,#1004,#1012,#1018));
#1020=FACE_OUTER_BOUND('',#1019,.T.);
#1021=ADVANCED_FACE('',(#1020),#986,.T.);
#1022=CARTESIAN_POINT('',(-5.250586074563748,2.909934917280493,1.282627636980925));
#1023=DIRECTION('',(0.0,1.0,0.0));
#1024=DIRECTION('',(0.0,0.0,1.0));
#1025=AXIS2_PLACEMENT_3D('',#1022,#1023,#1024);
#1026=PLANE('',#1025);
#1027=CARTESIAN_POINT('',(-5.425,2.909934917280493,-5.456674E-016));
#1028=VERTEX_POINT('',#1027);
#1029=CARTESIAN_POINT('',(-4.674810447897923,2.909934917280493,0.638280503135757));
#1030=VERTEX_POINT('',#1029);
#1031=CARTESIAN_POINT('',(-5.425,2.909934917280493,0.760000000000002));
#1032=DIRECTION('',(0.0,-1.0,0.0));
#1033=DIRECTION('',(0.648013413165147,0.0,-0.761628923005197));
#1034=AXIS2_PLACEMENT_3D('',#1031,#1032,#1033);
#1035=CIRCLE('',#1034,0.76);
#1036=EDGE_CURVE('',#1028,#1030,#1035,.T.);
#1037=ORIENTED_EDGE('',*,*,#1036,.F.);
#1038=CARTESIAN_POINT('',(-7.71,2.909934917280489,-5.645556E-016));
#1039=VERTEX_POINT('',#1038);
#1040=CARTESIAN_POINT('',(-5.425,2.909934917280493,-5.645556E-016));
#1041=DIRECTION('',(-1.0,0.0,0.0));
#1042=VECTOR('',#1041,2.285);
#1043=LINE('',#1040,#1042);
#1044=EDGE_CURVE('',#1039,#1028,#1043,.F.);
#1045=ORIENTED_EDGE('',*,*,#1044,.F.);
#1046=CARTESIAN_POINT('',(-7.71,2.909934917280489,0.56));
#1047=VERTEX_POINT('',#1046);
#1048=CARTESIAN_POINT('',(-7.71,2.909934917280489,0.56));
#1049=DIRECTION('',(0.0,0.0,-1.0));
#1050=VECTOR('',#1049,0.56);
#1051=LINE('',#1048,#1050);
#1052=EDGE_CURVE('',#1047,#1039,#1051,.T.);
#1053=ORIENTED_EDGE('',*,*,#1052,.F.);
#1054=CARTESIAN_POINT('',(-5.425,2.909934917280493,0.560000000000003));
#1055=VERTEX_POINT('',#1054);
#1056=CARTESIAN_POINT('',(-7.71,2.909934917280493,0.560000000000003));
#1057=DIRECTION('',(1.0,0.0,0.0));
#1058=VECTOR('',#1057,2.285);
#1059=LINE('',#1056,#1058);
#1060=EDGE_CURVE('',#1055,#1047,#1059,.F.);
#1061=ORIENTED_EDGE('',*,*,#1060,.F.);
#1062=CARTESIAN_POINT('',(-5.227581696815244,2.909934917280492,0.72796855345678));
#1063=VERTEX_POINT('',#1062);
#1064=CARTESIAN_POINT('',(-5.425,2.909934917280493,0.760000000000003));
#1065=DIRECTION('',(0.0,1.0,0.0));
#1066=DIRECTION('',(0.648013413165149,0.0,-0.761628923005195));
#1067=AXIS2_PLACEMENT_3D('',#1064,#1065,#1066);
#1068=CIRCLE('',#1067,0.2);
#1069=EDGE_CURVE('',#1063,#1055,#1068,.T.);
#1070=ORIENTED_EDGE('',*,*,#1069,.F.);
#1071=CARTESIAN_POINT('',(-4.948711510633236,2.909934917280492,2.446719496864247));
#1072=VERTEX_POINT('',#1071);
#1073=CARTESIAN_POINT('',(-5.227581696815243,2.909934917280492,0.72796855345678));
#1074=DIRECTION('',(0.160157232716111,0.0,0.987091515923786));
#1075=VECTOR('',#1074,1.74122755152945);
#1076=LINE('',#1073,#1075);
#1077=EDGE_CURVE('',#1072,#1063,#1076,.F.);
#1078=ORIENTED_EDGE('',*,*,#1077,.F.);
#1079=CARTESIAN_POINT('',(-4.198521958531157,2.909934917280493,3.084999999999999));
#1080=VERTEX_POINT('',#1079);
#1081=CARTESIAN_POINT('',(-4.198521958531157,2.909934917280493,2.325000000000002));
#1082=DIRECTION('',(0.0,-1.0,0.0));
#1083=DIRECTION('',(-0.648013413165148,0.0,0.761628923005196));
#1084=AXIS2_PLACEMENT_3D('',#1081,#1082,#1083);
#1085=CIRCLE('',#1084,0.76);
#1086=EDGE_CURVE('',#1080,#1072,#1085,.T.);
#1087=ORIENTED_EDGE('',*,*,#1086,.F.);
#1088=CARTESIAN_POINT('',(-3.04,2.909934917280493,3.084999999999999));
#1089=VERTEX_POINT('',#1088);
#1090=CARTESIAN_POINT('',(-4.198521958531157,2.909934917280493,3.084999999999999));
#1091=DIRECTION('',(1.0,0.0,0.0));
#1092=VECTOR('',#1091,1.158521958531158);
#1093=LINE('',#1090,#1092);
#1094=EDGE_CURVE('',#1089,#1080,#1093,.F.);
#1095=ORIENTED_EDGE('',*,*,#1094,.F.);
#1096=CARTESIAN_POINT('',(-3.04,2.909934917280493,3.084999999999999));
#1097=DIRECTION('',(0.0,0.0,-1.0));
#1098=VECTOR('',#1097,0.56);
#1099=LINE('',#1096,#1098);
#1100=EDGE_CURVE('',#1089,#998,#1099,.T.);
#1101=ORIENTED_EDGE('',*,*,#1100,.T.);
#1102=ORIENTED_EDGE('',*,*,#1003,.F.);
#1103=CARTESIAN_POINT('',(-4.395940261715915,2.909934917280493,2.357031446543224));
#1104=VERTEX_POINT('',#1103);
#1105=CARTESIAN_POINT('',(-4.198521958531159,2.909934917280493,2.325000000000002));
#1106=DIRECTION('',(0.0,1.0,0.0));
#1107=DIRECTION('',(-0.648013413165145,0.0,0.761628923005199));
#1108=AXIS2_PLACEMENT_3D('',#1105,#1106,#1107);
#1109=CIRCLE('',#1108,0.2);
#1110=EDGE_CURVE('',#1104,#988,#1109,.T.);
#1111=ORIENTED_EDGE('',*,*,#1110,.F.);
#1112=CARTESIAN_POINT('',(-4.395940261715915,2.909934917280493,2.357031446543224));
#1113=DIRECTION('',(-0.160157232716111,0.0,-0.987091515923786));
#1114=VECTOR('',#1113,1.74122755152945);
#1115=LINE('',#1112,#1114);
#1116=EDGE_CURVE('',#1030,#1104,#1115,.F.);
#1117=ORIENTED_EDGE('',*,*,#1116,.F.);
#1118=EDGE_LOOP('',(#1037,#1045,#1053,#1061,#1070,#1078,#1087,#1095,#1101,#1102,#1111,#1117));
#1119=FACE_OUTER_BOUND('',#1118,.T.);
#1120=ADVANCED_FACE('',(#1119),#1026,.T.);
#1121=CARTESIAN_POINT('',(-5.10136577391049,2.170065082719507,1.438416396146453));
#1122=DIRECTION('',(0.0,1.0,0.0));
#1123=DIRECTION('',(0.0,0.0,1.0));
#1124=AXIS2_PLACEMENT_3D('',#1121,#1122,#1123);
#1125=PLANE('',#1124);
#1126=CARTESIAN_POINT('',(-4.674810447897923,2.170065082719507,0.638280503135757));
#1127=VERTEX_POINT('',#1126);
#1128=CARTESIAN_POINT('',(-5.425,2.170065082719507,-5.456674E-016));
#1129=VERTEX_POINT('',#1128);
#1130=CARTESIAN_POINT('',(-5.425,2.170065082719507,0.760000000000002));
#1131=DIRECTION('',(0.0,1.0,0.0));
#1132=DIRECTION('',(0.648013413165147,0.0,-0.761628923005197));
#1133=AXIS2_PLACEMENT_3D('',#1130,#1131,#1132);
#1134=CIRCLE('',#1133,0.76);
#1135=EDGE_CURVE('',#1127,#1129,#1134,.T.);
#1136=ORIENTED_EDGE('',*,*,#1135,.F.);
#1137=CARTESIAN_POINT('',(-4.395940261715915,2.170065082719507,2.357031446543224));
#1138=VERTEX_POINT('',#1137);
#1139=CARTESIAN_POINT('',(-4.395940261715915,2.170065082719507,2.357031446543224));
#1140=DIRECTION('',(-0.160157232716111,0.0,-0.987091515923786));
#1141=VECTOR('',#1140,1.74122755152945);
#1142=LINE('',#1139,#1141);
#1143=EDGE_CURVE('',#1138,#1127,#1142,.T.);
#1144=ORIENTED_EDGE('',*,*,#1143,.F.);
#1145=CARTESIAN_POINT('',(-4.198521958531159,2.170065082719507,2.325000000000002));
#1146=DIRECTION('',(0.0,-1.0,0.0));
#1147=DIRECTION('',(-0.648013413165145,0.0,0.761628923005199));
#1148=AXIS2_PLACEMENT_3D('',#1145,#1146,#1147);
#1149=CIRCLE('',#1148,0.2);
#1150=EDGE_CURVE('',#990,#1138,#1149,.T.);
#1151=ORIENTED_EDGE('',*,*,#1150,.F.);
#1152=ORIENTED_EDGE('',*,*,#1017,.F.);
#1153=CARTESIAN_POINT('',(-3.04,2.170065082719507,3.084999999999999));
#1154=VERTEX_POINT('',#1153);
#1155=CARTESIAN_POINT('',(-3.04,2.170065082719507,3.084999999999999));
#1156=DIRECTION('',(0.0,0.0,-1.0));
#1157=VECTOR('',#1156,0.56);
#1158=LINE('',#1155,#1157);
#1159=EDGE_CURVE('',#1006,#1154,#1158,.F.);
#1160=ORIENTED_EDGE('',*,*,#1159,.T.);
#1161=CARTESIAN_POINT('',(-4.198521958531157,2.170065082719507,3.084999999999999));
#1162=VERTEX_POINT('',#1161);
#1163=CARTESIAN_POINT('',(-4.198521958531157,2.170065082719507,3.084999999999999));
#1164=DIRECTION('',(1.0,0.0,0.0));
#1165=VECTOR('',#1164,1.158521958531158);
#1166=LINE('',#1163,#1165);
#1167=EDGE_CURVE('',#1162,#1154,#1166,.T.);
#1168=ORIENTED_EDGE('',*,*,#1167,.F.);
#1169=CARTESIAN_POINT('',(-4.948711510633236,2.170065082719506,2.446719496864247));
#1170=VERTEX_POINT('',#1169);
#1171=CARTESIAN_POINT('',(-4.198521958531157,2.170065082719507,2.325000000000002));
#1172=DIRECTION('',(0.0,1.0,0.0));
#1173=DIRECTION('',(-0.648013413165148,0.0,0.761628923005196));
#1174=AXIS2_PLACEMENT_3D('',#1171,#1172,#1173);
#1175=CIRCLE('',#1174,0.76);
#1176=EDGE_CURVE('',#1170,#1162,#1175,.T.);
#1177=ORIENTED_EDGE('',*,*,#1176,.F.);
#1178=CARTESIAN_POINT('',(-5.227581696815244,2.170065082719506,0.72796855345678));
#1179=VERTEX_POINT('',#1178);
#1180=CARTESIAN_POINT('',(-5.227581696815243,2.170065082719506,0.72796855345678));
#1181=DIRECTION('',(0.160157232716111,0.0,0.987091515923786));
#1182=VECTOR('',#1181,1.74122755152945);
#1183=LINE('',#1180,#1182);
#1184=EDGE_CURVE('',#1179,#1170,#1183,.T.);
#1185=ORIENTED_EDGE('',*,*,#1184,.F.);
#1186=CARTESIAN_POINT('',(-5.425,2.170065082719507,0.560000000000003));
#1187=VERTEX_POINT('',#1186);
#1188=CARTESIAN_POINT('',(-5.425,2.170065082719507,0.760000000000003));
#1189=DIRECTION('',(0.0,-1.0,0.0));
#1190=DIRECTION('',(0.648013413165149,0.0,-0.761628923005195));
#1191=AXIS2_PLACEMENT_3D('',#1188,#1189,#1190);
#1192=CIRCLE('',#1191,0.2);
#1193=EDGE_CURVE('',#1187,#1179,#1192,.T.);
#1194=ORIENTED_EDGE('',*,*,#1193,.F.);
#1195=CARTESIAN_POINT('',(-7.71,2.170065082719507,0.56));
#1196=VERTEX_POINT('',#1195);
#1197=CARTESIAN_POINT('',(-7.71,2.170065082719507,0.560000000000003));
#1198=DIRECTION('',(1.0,0.0,0.0));
#1199=VECTOR('',#1198,2.285);
#1200=LINE('',#1197,#1199);
#1201=EDGE_CURVE('',#1196,#1187,#1200,.T.);
#1202=ORIENTED_EDGE('',*,*,#1201,.F.);
#1203=CARTESIAN_POINT('',(-7.71,2.170065082719507,-5.645556E-016));
#1204=VERTEX_POINT('',#1203);
#1205=CARTESIAN_POINT('',(-7.71,2.170065082719507,-5.551115E-016));
#1206=DIRECTION('',(0.0,0.0,1.0));
#1207=VECTOR('',#1206,0.56);
#1208=LINE('',#1205,#1207);
#1209=EDGE_CURVE('',#1204,#1196,#1208,.T.);
#1210=ORIENTED_EDGE('',*,*,#1209,.F.);
#1211=CARTESIAN_POINT('',(-5.425,2.170065082719507,-5.645556E-016));
#1212=DIRECTION('',(-1.0,0.0,0.0));
#1213=VECTOR('',#1212,2.285);
#1214=LINE('',#1211,#1213);
#1215=EDGE_CURVE('',#1129,#1204,#1214,.T.);
#1216=ORIENTED_EDGE('',*,*,#1215,.F.);
#1217=EDGE_LOOP('',(#1136,#1144,#1151,#1152,#1160,#1168,#1177,#1185,#1194,#1202,#1210,#1216));
#1218=FACE_OUTER_BOUND('',#1217,.T.);
#1219=ADVANCED_FACE('',(#1218),#1125,.F.);
#1220=CARTESIAN_POINT('',(-7.863148614563488,3.0270670533972,0.560000000000003));
#1221=DIRECTION('',(0.0,0.0,1.0));
#1222=DIRECTION('',(1.0,0.0,0.0));
#1223=AXIS2_PLACEMENT_3D('',#1220,#1221,#1222);
#1224=PLANE('',#1223);
#1225=CARTESIAN_POINT('',(-5.425,2.909934917280493,0.560000000000003));
#1226=DIRECTION('',(0.0,-1.0,0.0));
#1227=VECTOR('',#1226,0.739869834560986);
#1228=LINE('',#1225,#1227);
#1229=EDGE_CURVE('',#1055,#1187,#1228,.T.);
#1230=ORIENTED_EDGE('',*,*,#1229,.F.);
#1231=ORIENTED_EDGE('',*,*,#1060,.T.);
#1232=CARTESIAN_POINT('',(-7.71,2.909934917280489,0.56));
#1233=DIRECTION('',(0.0,-1.0,0.0));
#1234=VECTOR('',#1233,0.739869834560982);
#1235=LINE('',#1232,#1234);
#1236=EDGE_CURVE('',#1047,#1196,#1235,.T.);
#1237=ORIENTED_EDGE('',*,*,#1236,.T.);
#1238=ORIENTED_EDGE('',*,*,#1201,.T.);
#1239=EDGE_LOOP('',(#1230,#1231,#1237,#1238));
#1240=FACE_OUTER_BOUND('',#1239,.T.);
#1241=ADVANCED_FACE('',(#1240),#1224,.T.);
#1242=CARTESIAN_POINT('',(-5.231510010725471,3.027067053397199,0.703757312622312));
#1243=DIRECTION('',(-0.987091515923786,0.0,0.160157232716111));
#1244=DIRECTION('',(0.160157232716111,0.0,0.987091515923786));
#1245=AXIS2_PLACEMENT_3D('',#1242,#1243,#1244);
#1246=PLANE('',#1245);
#1247=CARTESIAN_POINT('',(-4.948711510633236,2.909934917280492,2.446719496864247));
#1248=DIRECTION('',(0.0,-1.0,0.0));
#1249=VECTOR('',#1248,0.739869834560986);
#1250=LINE('',#1247,#1249);
#1251=EDGE_CURVE('',#1072,#1170,#1250,.T.);
#1252=ORIENTED_EDGE('',*,*,#1251,.F.);
#1253=ORIENTED_EDGE('',*,*,#1077,.T.);
#1254=CARTESIAN_POINT('',(-5.227581696815242,2.170065082719506,0.72796855345678));
#1255=DIRECTION('',(0.0,1.0,0.0));
#1256=VECTOR('',#1255,0.739869834560986);
#1257=LINE('',#1254,#1256);
#1258=EDGE_CURVE('',#1179,#1063,#1257,.T.);
#1259=ORIENTED_EDGE('',*,*,#1258,.F.);
#1260=ORIENTED_EDGE('',*,*,#1184,.T.);
#1261=EDGE_LOOP('',(#1252,#1253,#1259,#1260));
#1262=FACE_OUTER_BOUND('',#1261,.T.);
#1263=ADVANCED_FACE('',(#1262),#1246,.T.);
#1264=CARTESIAN_POINT('',(-4.198521958531159,3.0270670533972,2.325000000000002));
#1265=DIRECTION('',(0.0,1.0,0.0));
#1266=DIRECTION('',(-0.648013413165145,0.0,0.761628923005199));
#1267=AXIS2_PLACEMENT_3D('',#1264,#1265,#1266);
#1268=CYLINDRICAL_SURFACE('',#1267,0.2);
#1269=ORIENTED_EDGE('',*,*,#1150,.T.);
#1270=CARTESIAN_POINT('',(-4.395940261715915,2.170065082719507,2.357031446543224));
#1271=DIRECTION('',(0.0,1.0,0.0));
#1272=VECTOR('',#1271,0.739869834560986);
#1273=LINE('',#1270,#1272);
#1274=EDGE_CURVE('',#1138,#1104,#1273,.T.);
#1275=ORIENTED_EDGE('',*,*,#1274,.T.);
#1276=ORIENTED_EDGE('',*,*,#1110,.T.);
#1277=ORIENTED_EDGE('',*,*,#995,.T.);
#1278=EDGE_LOOP('',(#1269,#1275,#1276,#1277));
#1279=FACE_OUTER_BOUND('',#1278,.T.);
#1280=ADVANCED_FACE('',(#1279),#1268,.F.);
#1281=CARTESIAN_POINT('',(-4.396751519994061,3.0270670533972,2.352031446543225));
#1282=DIRECTION('',(0.987091515923786,0.0,-0.160157232716111));
#1283=DIRECTION('',(-0.160157232716111,0.0,-0.987091515923786));
#1284=AXIS2_PLACEMENT_3D('',#1281,#1282,#1283);
#1285=PLANE('',#1284);
#1286=CARTESIAN_POINT('',(-4.674810447897921,2.909934917280493,0.638280503135757));
#1287=DIRECTION('',(0.0,-1.0,0.0));
#1288=VECTOR('',#1287,0.739869834560986);
#1289=LINE('',#1286,#1288);
#1290=EDGE_CURVE('',#1030,#1127,#1289,.T.);
#1291=ORIENTED_EDGE('',*,*,#1290,.F.);
#1292=ORIENTED_EDGE('',*,*,#1116,.T.);
#1293=ORIENTED_EDGE('',*,*,#1274,.F.);
#1294=ORIENTED_EDGE('',*,*,#1143,.T.);
#1295=EDGE_LOOP('',(#1291,#1292,#1293,#1294));
#1296=FACE_OUTER_BOUND('',#1295,.T.);
#1297=ADVANCED_FACE('',(#1296),#1285,.T.);
#1298=CARTESIAN_POINT('',(-5.425,3.0270670533972,0.760000000000003));
#1299=DIRECTION('',(0.0,1.0,0.0));
#1300=DIRECTION('',(0.648013413165149,0.0,-0.761628923005195));
#1301=AXIS2_PLACEMENT_3D('',#1298,#1299,#1300);
#1302=CYLINDRICAL_SURFACE('',#1301,0.2);
#1303=ORIENTED_EDGE('',*,*,#1193,.T.);
#1304=ORIENTED_EDGE('',*,*,#1258,.T.);
#1305=ORIENTED_EDGE('',*,*,#1069,.T.);
#1306=ORIENTED_EDGE('',*,*,#1229,.T.);
#1307=EDGE_LOOP('',(#1303,#1304,#1305,#1306));
#1308=FACE_OUTER_BOUND('',#1307,.T.);
#1309=ADVANCED_FACE('',(#1308),#1302,.F.);
#1310=CARTESIAN_POINT('',(-5.425,3.034999999999998,0.760000000000002));
#1311=DIRECTION('',(0.0,1.0,0.0));
#1312=DIRECTION('',(0.648013413165147,0.0,-0.761628923005197));
#1313=AXIS2_PLACEMENT_3D('',#1310,#1311,#1312);
#1314=CYLINDRICAL_SURFACE('',#1313,0.76);
#1315=ORIENTED_EDGE('',*,*,#1036,.T.);
#1316=ORIENTED_EDGE('',*,*,#1290,.T.);
#1317=ORIENTED_EDGE('',*,*,#1135,.T.);
#1318=CARTESIAN_POINT('',(-5.425,2.170065082719507,-5.456674E-016));
#1319=DIRECTION('',(0.0,1.0,0.0));
#1320=VECTOR('',#1319,0.739869834560986);
#1321=LINE('',#1318,#1320);
#1322=EDGE_CURVE('',#1129,#1028,#1321,.T.);
#1323=ORIENTED_EDGE('',*,*,#1322,.T.);
#1324=EDGE_LOOP('',(#1315,#1316,#1317,#1323));
#1325=FACE_OUTER_BOUND('',#1324,.T.);
#1326=ADVANCED_FACE('',(#1325),#1314,.T.);
#1327=CARTESIAN_POINT('',(-7.71,3.0270670533972,-0.180000000000001));
#1328=DIRECTION('',(-1.0,0.0,0.0));
#1329=DIRECTION('',(0.0,0.0,1.0));
#1330=AXIS2_PLACEMENT_3D('',#1327,#1328,#1329);
#1331=PLANE('',#1330);
#1332=ORIENTED_EDGE('',*,*,#1209,.T.);
#1333=ORIENTED_EDGE('',*,*,#1236,.F.);
#1334=ORIENTED_EDGE('',*,*,#1052,.T.);
#1335=CARTESIAN_POINT('',(-7.71,2.909934917280489,-5.645556E-016));
#1336=DIRECTION('',(0.0,-1.0,0.0));
#1337=VECTOR('',#1336,0.739869834560982);
#1338=LINE('',#1335,#1337);
#1339=EDGE_CURVE('',#1039,#1204,#1338,.T.);
#1340=ORIENTED_EDGE('',*,*,#1339,.T.);
#1341=EDGE_LOOP('',(#1332,#1333,#1334,#1340));
#1342=FACE_OUTER_BOUND('',#1341,.T.);
#1343=ADVANCED_FACE('',(#1342),#1331,.T.);
#1344=CARTESIAN_POINT('',(-5.638650270461416,3.042932946602797,-5.645556E-016));
#1345=DIRECTION('',(0.0,0.0,-1.0));
#1346=DIRECTION('',(-1.0,0.0,0.0));
#1347=AXIS2_PLACEMENT_3D('',#1344,#1345,#1346);
#1348=PLANE('',#1347);
#1349=ORIENTED_EDGE('',*,*,#1322,.F.);
#1350=ORIENTED_EDGE('',*,*,#1215,.T.);
#1351=ORIENTED_EDGE('',*,*,#1339,.F.);
#1352=ORIENTED_EDGE('',*,*,#1044,.T.);
#1353=EDGE_LOOP('',(#1349,#1350,#1351,#1352));
#1354=FACE_OUTER_BOUND('',#1353,.T.);
#1355=ADVANCED_FACE('',(#1354),#1348,.T.);
#1356=CARTESIAN_POINT('',(-4.198521958531157,3.0270670533972,2.325000000000002));
#1357=DIRECTION('',(0.0,1.0,0.0));
#1358=DIRECTION('',(-0.648013413165148,0.0,0.761628923005196));
#1359=AXIS2_PLACEMENT_3D('',#1356,#1357,#1358);
#1360=CYLINDRICAL_SURFACE('',#1359,0.76);
#1361=ORIENTED_EDGE('',*,*,#1086,.T.);
#1362=ORIENTED_EDGE('',*,*,#1251,.T.);
#1363=ORIENTED_EDGE('',*,*,#1176,.T.);
#1364=CARTESIAN_POINT('',(-4.198521958531157,2.170065082719507,3.084999999999999));
#1365=DIRECTION('',(0.0,1.0,0.0));
#1366=VECTOR('',#1365,0.739869834560986);
#1367=LINE('',#1364,#1366);
#1368=EDGE_CURVE('',#1162,#1080,#1367,.T.);
#1369=ORIENTED_EDGE('',*,*,#1368,.T.);
#1370=EDGE_LOOP('',(#1361,#1362,#1363,#1369));
#1371=FACE_OUTER_BOUND('',#1370,.T.);
#1372=ADVANCED_FACE('',(#1371),#1360,.T.);
#1373=CARTESIAN_POINT('',(-3.04,4.919999999999998,2.889999999999997));
#1374=DIRECTION('',(1.0,0.0,0.0));
#1375=DIRECTION('',(0.0,1.0,0.0));
#1376=AXIS2_PLACEMENT_3D('',#1373,#1374,#1375);
#1377=PLANE('',#1376);
#1378=ORIENTED_EDGE('',*,*,#1159,.F.);
#1379=ORIENTED_EDGE('',*,*,#1011,.F.);
#1380=ORIENTED_EDGE('',*,*,#1100,.F.);
#1381=CARTESIAN_POINT('',(-3.04,2.170065082719507,3.084999999999999));
#1382=DIRECTION('',(0.0,1.0,0.0));
#1383=VECTOR('',#1382,0.739869834560987);
#1384=LINE('',#1381,#1383);
#1385=EDGE_CURVE('',#1154,#1089,#1384,.T.);
#1386=ORIENTED_EDGE('',*,*,#1385,.F.);
#1387=EDGE_LOOP('',(#1378,#1379,#1380,#1386));
#1388=FACE_OUTER_BOUND('',#1387,.T.);
#1389=ADVANCED_FACE('',(#1388),#1377,.T.);
#1390=CARTESIAN_POINT('',(-4.046184602245816,3.0270670533972,3.084999999999999));
#1391=DIRECTION('',(0.0,0.0,1.0));
#1392=DIRECTION('',(1.0,0.0,0.0));
#1393=AXIS2_PLACEMENT_3D('',#1390,#1391,#1392);
#1394=PLANE('',#1393);
#1395=ORIENTED_EDGE('',*,*,#1368,.F.);
#1396=ORIENTED_EDGE('',*,*,#1167,.T.);
#1397=ORIENTED_EDGE('',*,*,#1385,.T.);
#1398=ORIENTED_EDGE('',*,*,#1094,.T.);
#1399=EDGE_LOOP('',(#1395,#1396,#1397,#1398));
#1400=FACE_OUTER_BOUND('',#1399,.T.);
#1401=ADVANCED_FACE('',(#1400),#1394,.T.);
#1402=CLOSED_SHELL('',(#1021,#1120,#1219,#1241,#1263,#1280,#1297,#1309,#1326,#1343,#1355,#1372,#1389,#1401));
#1403=MANIFOLD_SOLID_BREP('350',#1402);
#1404=STYLED_ITEM('NONE',(#221),#1403);
#1405=CARTESIAN_POINT('',(-4.198521958531157,-2.045,2.325000000000002));
#1406=DIRECTION('',(0.0,1.0,0.0));
#1407=DIRECTION('',(-0.648013413165148,0.0,0.761628923005196));
#1408=AXIS2_PLACEMENT_3D('',#1405,#1406,#1407);
#1409=CYLINDRICAL_SURFACE('',#1408,0.76);
#1410=CARTESIAN_POINT('',(-4.198521958531157,-2.164999999999998,3.084999999999999));
#1411=VERTEX_POINT('',#1410);
#1412=CARTESIAN_POINT('',(-4.948711510633236,-2.164999999999997,2.446719496864247));
#1413=VERTEX_POINT('',#1412);
#1414=CARTESIAN_POINT('',(-4.198521958531157,-2.164999999999998,2.325000000000002));
#1415=DIRECTION('',(0.0,-1.0,0.0));
#1416=DIRECTION('',(-0.648013413165148,0.0,0.761628923005196));
#1417=AXIS2_PLACEMENT_3D('',#1414,#1415,#1416);
#1418=CIRCLE('',#1417,0.76);
#1419=EDGE_CURVE('',#1411,#1413,#1418,.T.);
#1420=ORIENTED_EDGE('',*,*,#1419,.T.);
#1421=CARTESIAN_POINT('',(-4.948711510633236,-2.914999999999997,2.446719496864247));
#1422=VERTEX_POINT('',#1421);
#1423=CARTESIAN_POINT('',(-4.948711510633236,-2.164999999999997,2.446719496864247));
#1424=DIRECTION('',(0.0,-1.0,0.0));
#1425=VECTOR('',#1424,0.75);
#1426=LINE('',#1423,#1425);
#1427=EDGE_CURVE('',#1413,#1422,#1426,.T.);
#1428=ORIENTED_EDGE('',*,*,#1427,.T.);
#1429=CARTESIAN_POINT('',(-4.198521958531157,-2.914999999999997,3.084999999999999));
#1430=VERTEX_POINT('',#1429);
#1431=CARTESIAN_POINT('',(-4.198521958531157,-2.914999999999997,2.325000000000002));
#1432=DIRECTION('',(0.0,1.0,0.0));
#1433=DIRECTION('',(-0.648013413165148,0.0,0.761628923005196));
#1434=AXIS2_PLACEMENT_3D('',#1431,#1432,#1433);
#1435=CIRCLE('',#1434,0.76);
#1436=EDGE_CURVE('',#1422,#1430,#1435,.T.);
#1437=ORIENTED_EDGE('',*,*,#1436,.T.);
#1438=CARTESIAN_POINT('',(-4.198521958531157,-2.914999999999997,3.084999999999999));
#1439=DIRECTION('',(0.0,1.0,0.0));
#1440=VECTOR('',#1439,0.749999999999999);
#1441=LINE('',#1438,#1440);
#1442=EDGE_CURVE('',#1430,#1411,#1441,.T.);
#1443=ORIENTED_EDGE('',*,*,#1442,.T.);
#1444=EDGE_LOOP('',(#1420,#1428,#1437,#1443));
#1445=FACE_OUTER_BOUND('',#1444,.T.);
#1446=ADVANCED_FACE('',(#1445),#1409,.T.);
#1447=CARTESIAN_POINT('',(-3.09949834410207,-2.045,2.525));
#1448=DIRECTION('',(0.0,0.0,-1.0));
#1449=DIRECTION('',(-1.0,0.0,0.0));
#1450=AXIS2_PLACEMENT_3D('',#1447,#1448,#1449);
#1451=PLANE('',#1450);
#1452=CARTESIAN_POINT('',(-4.198521958531159,-2.164999999999998,2.525));
#1453=VERTEX_POINT('',#1452);
#1454=CARTESIAN_POINT('',(-4.198521958531159,-2.914999999999997,2.525));
#1455=VERTEX_POINT('',#1454);
#1456=CARTESIAN_POINT('',(-4.198521958531159,-2.164999999999998,2.525));
#1457=DIRECTION('',(0.0,-1.0,0.0));
#1458=VECTOR('',#1457,0.749999999999999);
#1459=LINE('',#1456,#1458);
#1460=EDGE_CURVE('',#1453,#1455,#1459,.T.);
#1461=ORIENTED_EDGE('',*,*,#1460,.F.);
#1462=CARTESIAN_POINT('',(-3.04,-2.164999999999998,2.524999999999997));
#1463=VERTEX_POINT('',#1462);
#1464=CARTESIAN_POINT('',(-3.04,-2.164999999999998,2.525));
#1465=DIRECTION('',(-1.0,0.0,0.0));
#1466=VECTOR('',#1465,1.158521958531159);
#1467=LINE('',#1464,#1466);
#1468=EDGE_CURVE('',#1453,#1463,#1467,.F.);
#1469=ORIENTED_EDGE('',*,*,#1468,.T.);
#1470=CARTESIAN_POINT('',(-3.04,-2.914999999999997,2.524999999999997));
#1471=VERTEX_POINT('',#1470);
#1472=CARTESIAN_POINT('',(-3.04,-2.164999999999998,2.524999999999997));
#1473=DIRECTION('',(0.0,-1.0,0.0));
#1474=VECTOR('',#1473,0.749999999999999);
#1475=LINE('',#1472,#1474);
#1476=EDGE_CURVE('',#1463,#1471,#1475,.T.);
#1477=ORIENTED_EDGE('',*,*,#1476,.T.);
#1478=CARTESIAN_POINT('',(-3.04,-2.914999999999997,2.525));
#1479=DIRECTION('',(-1.0,0.0,0.0));
#1480=VECTOR('',#1479,1.158521958531159);
#1481=LINE('',#1478,#1480);
#1482=EDGE_CURVE('',#1471,#1455,#1481,.T.);
#1483=ORIENTED_EDGE('',*,*,#1482,.T.);
#1484=EDGE_LOOP('',(#1461,#1469,#1477,#1483));
#1485=FACE_OUTER_BOUND('',#1484,.T.);
#1486=ADVANCED_FACE('',(#1485),#1451,.T.);
#1487=CARTESIAN_POINT('',(-5.10136577391049,-2.914999999999997,1.438416396146452));
#1488=DIRECTION('',(0.0,1.0,0.0));
#1489=DIRECTION('',(0.0,0.0,1.0));
#1490=AXIS2_PLACEMENT_3D('',#1487,#1488,#1489);
#1491=PLANE('',#1490);
#1492=ORIENTED_EDGE('',*,*,#1436,.F.);
#1493=CARTESIAN_POINT('',(-5.227581696815242,-2.914999999999997,0.72796855345678));
#1494=VERTEX_POINT('',#1493);
#1495=CARTESIAN_POINT('',(-5.227581696815242,-2.914999999999997,0.72796855345678));
#1496=DIRECTION('',(0.160157232716111,0.0,0.987091515923786));
#1497=VECTOR('',#1496,1.74122755152945);
#1498=LINE('',#1495,#1497);
#1499=EDGE_CURVE('',#1494,#1422,#1498,.T.);
#1500=ORIENTED_EDGE('',*,*,#1499,.F.);
#1501=CARTESIAN_POINT('',(-5.425,-2.914999999999997,0.560000000000003));
#1502=VERTEX_POINT('',#1501);
#1503=CARTESIAN_POINT('',(-5.425,-2.914999999999997,0.760000000000003));
#1504=DIRECTION('',(0.0,-1.0,0.0));
#1505=DIRECTION('',(0.648013413165149,0.0,-0.761628923005195));
#1506=AXIS2_PLACEMENT_3D('',#1503,#1504,#1505);
#1507=CIRCLE('',#1506,0.2);
#1508=EDGE_CURVE('',#1502,#1494,#1507,.T.);
#1509=ORIENTED_EDGE('',*,*,#1508,.F.);
#1510=CARTESIAN_POINT('',(-7.71,-2.914999999999997,0.560000000000003));
#1511=VERTEX_POINT('',#1510);
#1512=CARTESIAN_POINT('',(-7.71,-2.914999999999997,0.560000000000003));
#1513=DIRECTION('',(1.0,0.0,0.0));
#1514=VECTOR('',#1513,2.285);
#1515=LINE('',#1512,#1514);
#1516=EDGE_CURVE('',#1511,#1502,#1515,.T.);
#1517=ORIENTED_EDGE('',*,*,#1516,.F.);
#1518=CARTESIAN_POINT('',(-7.71,-2.914999999999997,5.645556E-016));
#1519=VERTEX_POINT('',#1518);
#1520=CARTESIAN_POINT('',(-7.71,-2.914999999999997,5.551115E-016));
#1521=DIRECTION('',(0.0,0.0,1.0));
#1522=VECTOR('',#1521,0.560000000000002);
#1523=LINE('',#1520,#1522);
#1524=EDGE_CURVE('',#1519,#1511,#1523,.T.);
#1525=ORIENTED_EDGE('',*,*,#1524,.F.);
#1526=CARTESIAN_POINT('',(-5.425,-2.914999999999997,5.645556E-016));
#1527=VERTEX_POINT('',#1526);
#1528=CARTESIAN_POINT('',(-5.425,-2.914999999999997,5.645556E-016));
#1529=DIRECTION('',(-1.0,0.0,0.0));
#1530=VECTOR('',#1529,2.285);
#1531=LINE('',#1528,#1530);
#1532=EDGE_CURVE('',#1527,#1519,#1531,.T.);
#1533=ORIENTED_EDGE('',*,*,#1532,.F.);
#1534=CARTESIAN_POINT('',(-4.674810447897923,-2.914999999999997,0.638280503135756));
#1535=VERTEX_POINT('',#1534);
#1536=CARTESIAN_POINT('',(-5.425,-2.914999999999997,0.76));
#1537=DIRECTION('',(0.0,1.0,0.0));
#1538=DIRECTION('',(0.648013413165147,0.0,-0.761628923005197));
#1539=AXIS2_PLACEMENT_3D('',#1536,#1537,#1538);
#1540=CIRCLE('',#1539,0.76);
#1541=EDGE_CURVE('',#1535,#1527,#1540,.T.);
#1542=ORIENTED_EDGE('',*,*,#1541,.F.);
#1543=CARTESIAN_POINT('',(-4.395940261715917,-2.914999999999997,2.357031446543222));
#1544=VERTEX_POINT('',#1543);
#1545=CARTESIAN_POINT('',(-4.395940261715917,-2.914999999999997,2.357031446543222));
#1546=DIRECTION('',(-0.160157232716112,0.0,-0.987091515923786));
#1547=VECTOR('',#1546,1.74122755152945);
#1548=LINE('',#1545,#1547);
#1549=EDGE_CURVE('',#1544,#1535,#1548,.T.);
#1550=ORIENTED_EDGE('',*,*,#1549,.F.);
#1551=CARTESIAN_POINT('',(-4.198521958531159,-2.914999999999997,2.325));
#1552=DIRECTION('',(0.0,-1.0,0.0));
#1553=DIRECTION('',(-0.648013413165148,0.0,0.761628923005196));
#1554=AXIS2_PLACEMENT_3D('',#1551,#1552,#1553);
#1555=CIRCLE('',#1554,0.2);
#1556=EDGE_CURVE('',#1455,#1544,#1555,.T.);
#1557=ORIENTED_EDGE('',*,*,#1556,.F.);
#1558=ORIENTED_EDGE('',*,*,#1482,.F.);
#1559=CARTESIAN_POINT('',(-3.04,-2.914999999999997,3.084999999999999));
#1560=VERTEX_POINT('',#1559);
#1561=CARTESIAN_POINT('',(-3.04,-2.914999999999997,3.084999999999999));
#1562=DIRECTION('',(0.0,0.0,-1.0));
#1563=VECTOR('',#1562,0.560000000000002);
#1564=LINE('',#1561,#1563);
#1565=EDGE_CURVE('',#1471,#1560,#1564,.F.);
#1566=ORIENTED_EDGE('',*,*,#1565,.T.);
#1567=CARTESIAN_POINT('',(-4.198521958531157,-2.914999999999997,3.084999999999999));
#1568=DIRECTION('',(1.0,0.0,0.0));
#1569=VECTOR('',#1568,1.158521958531158);
#1570=LINE('',#1567,#1569);
#1571=EDGE_CURVE('',#1430,#1560,#1570,.T.);
#1572=ORIENTED_EDGE('',*,*,#1571,.F.);
#1573=EDGE_LOOP('',(#1492,#1500,#1509,#1517,#1525,#1533,#1542,#1550,#1557,#1558,#1566,#1572));
#1574=FACE_OUTER_BOUND('',#1573,.T.);
#1575=ADVANCED_FACE('',(#1574),#1491,.F.);
#1576=CARTESIAN_POINT('',(-7.863148614563488,-2.045,0.560000000000003));
#1577=DIRECTION('',(0.0,0.0,1.0));
#1578=DIRECTION('',(1.0,0.0,0.0));
#1579=AXIS2_PLACEMENT_3D('',#1576,#1577,#1578);
#1580=PLANE('',#1579);
#1581=CARTESIAN_POINT('',(-5.425,-2.164999999999998,0.560000000000003));
#1582=VERTEX_POINT('',#1581);
#1583=CARTESIAN_POINT('',(-5.425,-2.164999999999998,0.560000000000003));
#1584=DIRECTION('',(0.0,-1.0,0.0));
#1585=VECTOR('',#1584,0.749999999999999);
#1586=LINE('',#1583,#1585);
#1587=EDGE_CURVE('',#1582,#1502,#1586,.T.);
#1588=ORIENTED_EDGE('',*,*,#1587,.F.);
#1589=CARTESIAN_POINT('',(-7.71,-2.165000000000002,0.560000000000003));
#1590=VERTEX_POINT('',#1589);
#1591=CARTESIAN_POINT('',(-7.71,-2.164999999999998,0.560000000000003));
#1592=DIRECTION('',(1.0,0.0,0.0));
#1593=VECTOR('',#1592,2.285);
#1594=LINE('',#1591,#1593);
#1595=EDGE_CURVE('',#1582,#1590,#1594,.F.);
#1596=ORIENTED_EDGE('',*,*,#1595,.T.);
#1597=CARTESIAN_POINT('',(-7.71,-2.165000000000002,0.560000000000003));
#1598=DIRECTION('',(0.0,-1.0,0.0));
#1599=VECTOR('',#1598,0.749999999999996);
#1600=LINE('',#1597,#1599);
#1601=EDGE_CURVE('',#1590,#1511,#1600,.T.);
#1602=ORIENTED_EDGE('',*,*,#1601,.T.);
#1603=ORIENTED_EDGE('',*,*,#1516,.T.);
#1604=EDGE_LOOP('',(#1588,#1596,#1602,#1603));
#1605=FACE_OUTER_BOUND('',#1604,.T.);
#1606=ADVANCED_FACE('',(#1605),#1580,.T.);
#1607=CARTESIAN_POINT('',(-5.231510010725471,-2.044999999999999,0.703757312622312));
#1608=DIRECTION('',(-0.987091515923786,0.0,0.160157232716111));
#1609=DIRECTION('',(0.160157232716111,0.0,0.987091515923786));
#1610=AXIS2_PLACEMENT_3D('',#1607,#1608,#1609);
#1611=PLANE('',#1610);
#1612=ORIENTED_EDGE('',*,*,#1427,.F.);
#1613=CARTESIAN_POINT('',(-5.227581696815244,-2.164999999999997,0.72796855345678));
#1614=VERTEX_POINT('',#1613);
#1615=CARTESIAN_POINT('',(-5.227581696815243,-2.164999999999997,0.72796855345678));
#1616=DIRECTION('',(0.160157232716111,0.0,0.987091515923786));
#1617=VECTOR('',#1616,1.74122755152945);
#1618=LINE('',#1615,#1617);
#1619=EDGE_CURVE('',#1413,#1614,#1618,.F.);
#1620=ORIENTED_EDGE('',*,*,#1619,.T.);
#1621=CARTESIAN_POINT('',(-5.227581696815242,-2.914999999999997,0.72796855345678));
#1622=DIRECTION('',(0.0,1.0,0.0));
#1623=VECTOR('',#1622,0.75);
#1624=LINE('',#1621,#1623);
#1625=EDGE_CURVE('',#1494,#1614,#1624,.T.);
#1626=ORIENTED_EDGE('',*,*,#1625,.F.);
#1627=ORIENTED_EDGE('',*,*,#1499,.T.);
#1628=EDGE_LOOP('',(#1612,#1620,#1626,#1627));
#1629=FACE_OUTER_BOUND('',#1628,.T.);
#1630=ADVANCED_FACE('',(#1629),#1611,.T.);
#1631=CARTESIAN_POINT('',(-5.425,-2.045,0.760000000000003));
#1632=DIRECTION('',(0.0,1.0,0.0));
#1633=DIRECTION('',(0.648013413165149,0.0,-0.761628923005195));
#1634=AXIS2_PLACEMENT_3D('',#1631,#1632,#1633);
#1635=CYLINDRICAL_SURFACE('',#1634,0.2);
#1636=ORIENTED_EDGE('',*,*,#1508,.T.);
#1637=ORIENTED_EDGE('',*,*,#1625,.T.);
#1638=CARTESIAN_POINT('',(-5.425,-2.164999999999998,0.760000000000003));
#1639=DIRECTION('',(0.0,1.0,0.0));
#1640=DIRECTION('',(0.648013413165149,0.0,-0.761628923005195));
#1641=AXIS2_PLACEMENT_3D('',#1638,#1639,#1640);
#1642=CIRCLE('',#1641,0.2);
#1643=EDGE_CURVE('',#1614,#1582,#1642,.T.);
#1644=ORIENTED_EDGE('',*,*,#1643,.T.);
#1645=ORIENTED_EDGE('',*,*,#1587,.T.);
#1646=EDGE_LOOP('',(#1636,#1637,#1644,#1645));
#1647=FACE_OUTER_BOUND('',#1646,.T.);
#1648=ADVANCED_FACE('',(#1647),#1635,.F.);
#1649=CARTESIAN_POINT('',(-4.198521958531159,-2.045,2.325));
#1650=DIRECTION('',(0.0,1.0,0.0));
#1651=DIRECTION('',(-0.648013413165148,0.0,0.761628923005196));
#1652=AXIS2_PLACEMENT_3D('',#1649,#1650,#1651);
#1653=CYLINDRICAL_SURFACE('',#1652,0.2);
#1654=ORIENTED_EDGE('',*,*,#1556,.T.);
#1655=CARTESIAN_POINT('',(-4.395940261715917,-2.164999999999998,2.357031446543222));
#1656=VERTEX_POINT('',#1655);
#1657=CARTESIAN_POINT('',(-4.395940261715917,-2.914999999999997,2.357031446543222));
#1658=DIRECTION('',(0.0,1.0,0.0));
#1659=VECTOR('',#1658,0.749999999999999);
#1660=LINE('',#1657,#1659);
#1661=EDGE_CURVE('',#1544,#1656,#1660,.T.);
#1662=ORIENTED_EDGE('',*,*,#1661,.T.);
#1663=CARTESIAN_POINT('',(-4.198521958531159,-2.164999999999998,2.325));
#1664=DIRECTION('',(0.0,1.0,0.0));
#1665=DIRECTION('',(-0.648013413165148,0.0,0.761628923005196));
#1666=AXIS2_PLACEMENT_3D('',#1663,#1664,#1665);
#1667=CIRCLE('',#1666,0.2);
#1668=EDGE_CURVE('',#1656,#1453,#1667,.T.);
#1669=ORIENTED_EDGE('',*,*,#1668,.T.);
#1670=ORIENTED_EDGE('',*,*,#1460,.T.);
#1671=EDGE_LOOP('',(#1654,#1662,#1669,#1670));
#1672=FACE_OUTER_BOUND('',#1671,.T.);
#1673=ADVANCED_FACE('',(#1672),#1653,.F.);
#1674=CARTESIAN_POINT('',(-4.396751519994061,-2.045,2.352031446543223));
#1675=DIRECTION('',(0.987091515923786,0.0,-0.160157232716111));
#1676=DIRECTION('',(-0.160157232716111,0.0,-0.987091515923786));
#1677=AXIS2_PLACEMENT_3D('',#1674,#1675,#1676);
#1678=PLANE('',#1677);
#1679=CARTESIAN_POINT('',(-4.674810447897923,-2.164999999999998,0.638280503135756));
#1680=VERTEX_POINT('',#1679);
#1681=CARTESIAN_POINT('',(-4.674810447897923,-2.164999999999998,0.638280503135756));
#1682=DIRECTION('',(0.0,-1.0,0.0));
#1683=VECTOR('',#1682,0.749999999999999);
#1684=LINE('',#1681,#1683);
#1685=EDGE_CURVE('',#1680,#1535,#1684,.T.);
#1686=ORIENTED_EDGE('',*,*,#1685,.F.);
#1687=CARTESIAN_POINT('',(-4.395940261715917,-2.164999999999998,2.357031446543223));
#1688=DIRECTION('',(-0.160157232716111,0.0,-0.987091515923786));
#1689=VECTOR('',#1688,1.74122755152945);
#1690=LINE('',#1687,#1689);
#1691=EDGE_CURVE('',#1680,#1656,#1690,.F.);
#1692=ORIENTED_EDGE('',*,*,#1691,.T.);
#1693=ORIENTED_EDGE('',*,*,#1661,.F.);
#1694=ORIENTED_EDGE('',*,*,#1549,.T.);
#1695=EDGE_LOOP('',(#1686,#1692,#1693,#1694));
#1696=FACE_OUTER_BOUND('',#1695,.T.);
#1697=ADVANCED_FACE('',(#1696),#1678,.T.);
#1698=CARTESIAN_POINT('',(-5.425,-1.984999999999999,0.76));
#1699=DIRECTION('',(0.0,1.0,0.0));
#1700=DIRECTION('',(0.648013413165147,0.0,-0.761628923005197));
#1701=AXIS2_PLACEMENT_3D('',#1698,#1699,#1700);
#1702=CYLINDRICAL_SURFACE('',#1701,0.76);
#1703=CARTESIAN_POINT('',(-5.425,-2.164999999999998,5.645556E-016));
#1704=VERTEX_POINT('',#1703);
#1705=CARTESIAN_POINT('',(-5.425,-2.164999999999998,0.76));
#1706=DIRECTION('',(0.0,-1.0,0.0));
#1707=DIRECTION('',(0.648013413165147,0.0,-0.761628923005197));
#1708=AXIS2_PLACEMENT_3D('',#1705,#1706,#1707);
#1709=CIRCLE('',#1708,0.76);
#1710=EDGE_CURVE('',#1704,#1680,#1709,.T.);
#1711=ORIENTED_EDGE('',*,*,#1710,.T.);
#1712=ORIENTED_EDGE('',*,*,#1685,.T.);
#1713=ORIENTED_EDGE('',*,*,#1541,.T.);
#1714=CARTESIAN_POINT('',(-5.425,-2.914999999999997,5.645556E-016));
#1715=DIRECTION('',(0.0,1.0,0.0));
#1716=VECTOR('',#1715,0.749999999999999);
#1717=LINE('',#1714,#1716);
#1718=EDGE_CURVE('',#1527,#1704,#1717,.T.);
#1719=ORIENTED_EDGE('',*,*,#1718,.T.);
#1720=EDGE_LOOP('',(#1711,#1712,#1713,#1719));
#1721=FACE_OUTER_BOUND('',#1720,.T.);
#1722=ADVANCED_FACE('',(#1721),#1702,.T.);
#1723=CARTESIAN_POINT('',(-7.71,-2.165000000000002,-0.179999999999998));
#1724=DIRECTION('',(-1.0,0.0,0.0));
#1725=DIRECTION('',(0.0,0.0,1.0));
#1726=AXIS2_PLACEMENT_3D('',#1723,#1724,#1725);
#1727=PLANE('',#1726);
#1728=ORIENTED_EDGE('',*,*,#1524,.T.);
#1729=ORIENTED_EDGE('',*,*,#1601,.F.);
#1730=CARTESIAN_POINT('',(-7.71,-2.165000000000002,5.645556E-016));
#1731=VERTEX_POINT('',#1730);
#1732=CARTESIAN_POINT('',(-7.71,-2.165000000000002,0.560000000000003));
#1733=DIRECTION('',(0.0,0.0,-1.0));
#1734=VECTOR('',#1733,0.560000000000002);
#1735=LINE('',#1732,#1734);
#1736=EDGE_CURVE('',#1590,#1731,#1735,.T.);
#1737=ORIENTED_EDGE('',*,*,#1736,.T.);
#1738=CARTESIAN_POINT('',(-7.71,-2.165000000000002,5.645556E-016));
#1739=DIRECTION('',(0.0,-1.0,0.0));
#1740=VECTOR('',#1739,0.749999999999996);
#1741=LINE('',#1738,#1740);
#1742=EDGE_CURVE('',#1731,#1519,#1741,.T.);
#1743=ORIENTED_EDGE('',*,*,#1742,.T.);
#1744=EDGE_LOOP('',(#1728,#1729,#1737,#1743));
#1745=FACE_OUTER_BOUND('',#1744,.T.);
#1746=ADVANCED_FACE('',(#1745),#1727,.T.);
#1747=CARTESIAN_POINT('',(-5.638650270461418,-1.924999999999998,5.645556E-016));
#1748=DIRECTION('',(0.0,0.0,-1.0));
#1749=DIRECTION('',(-1.0,0.0,0.0));
#1750=AXIS2_PLACEMENT_3D('',#1747,#1748,#1749);
#1751=PLANE('',#1750);
#1752=ORIENTED_EDGE('',*,*,#1718,.F.);
#1753=ORIENTED_EDGE('',*,*,#1532,.T.);
#1754=ORIENTED_EDGE('',*,*,#1742,.F.);
#1755=CARTESIAN_POINT('',(-5.425,-2.164999999999998,5.645556E-016));
#1756=DIRECTION('',(-1.0,0.0,0.0));
#1757=VECTOR('',#1756,2.285);
#1758=LINE('',#1755,#1757);
#1759=EDGE_CURVE('',#1731,#1704,#1758,.F.);
#1760=ORIENTED_EDGE('',*,*,#1759,.T.);
#1761=EDGE_LOOP('',(#1752,#1753,#1754,#1760));
#1762=FACE_OUTER_BOUND('',#1761,.T.);
#1763=ADVANCED_FACE('',(#1762),#1751,.T.);
#1764=CARTESIAN_POINT('',(-5.250586074563748,-2.164999999999998,1.462627636980924));
#1765=DIRECTION('',(0.0,1.0,0.0));
#1766=DIRECTION('',(0.0,0.0,1.0));
#1767=AXIS2_PLACEMENT_3D('',#1764,#1765,#1766);
#1768=PLANE('',#1767);
#1769=ORIENTED_EDGE('',*,*,#1419,.F.);
#1770=CARTESIAN_POINT('',(-3.04,-2.165000000000001,3.084999999999999));
#1771=VERTEX_POINT('',#1770);
#1772=CARTESIAN_POINT('',(-3.04,-2.165000000000001,3.084999999999999));
#1773=DIRECTION('',(-1.0,0.0,0.0));
#1774=VECTOR('',#1773,1.158521958531158);
#1775=LINE('',#1772,#1774);
#1776=EDGE_CURVE('',#1771,#1411,#1775,.T.);
#1777=ORIENTED_EDGE('',*,*,#1776,.F.);
#1778=CARTESIAN_POINT('',(-3.04,-2.164999999999998,3.084999999999999));
#1779=DIRECTION('',(0.0,0.0,-1.0));
#1780=VECTOR('',#1779,0.560000000000002);
#1781=LINE('',#1778,#1780);
#1782=EDGE_CURVE('',#1771,#1463,#1781,.T.);
#1783=ORIENTED_EDGE('',*,*,#1782,.T.);
#1784=ORIENTED_EDGE('',*,*,#1468,.F.);
#1785=ORIENTED_EDGE('',*,*,#1668,.F.);
#1786=ORIENTED_EDGE('',*,*,#1691,.F.);
#1787=ORIENTED_EDGE('',*,*,#1710,.F.);
#1788=ORIENTED_EDGE('',*,*,#1759,.F.);
#1789=ORIENTED_EDGE('',*,*,#1736,.F.);
#1790=ORIENTED_EDGE('',*,*,#1595,.F.);
#1791=ORIENTED_EDGE('',*,*,#1643,.F.);
#1792=ORIENTED_EDGE('',*,*,#1619,.F.);
#1793=EDGE_LOOP('',(#1769,#1777,#1783,#1784,#1785,#1786,#1787,#1788,#1789,#1790,#1791,#1792));
#1794=FACE_OUTER_BOUND('',#1793,.T.);
#1795=ADVANCED_FACE('',(#1794),#1768,.T.);
#1796=CARTESIAN_POINT('',(-4.046184602245816,-2.045,3.084999999999999));
#1797=DIRECTION('',(0.0,0.0,1.0));
#1798=DIRECTION('',(1.0,0.0,0.0));
#1799=AXIS2_PLACEMENT_3D('',#1796,#1797,#1798);
#1800=PLANE('',#1799);
#1801=ORIENTED_EDGE('',*,*,#1442,.F.);
#1802=ORIENTED_EDGE('',*,*,#1571,.T.);
#1803=CARTESIAN_POINT('',(-3.04,-2.914999999999997,3.084999999999999));
#1804=DIRECTION('',(0.0,1.0,0.0));
#1805=VECTOR('',#1804,0.749999999999996);
#1806=LINE('',#1803,#1805);
#1807=EDGE_CURVE('',#1560,#1771,#1806,.T.);
#1808=ORIENTED_EDGE('',*,*,#1807,.T.);
#1809=ORIENTED_EDGE('',*,*,#1776,.T.);
#1810=EDGE_LOOP('',(#1801,#1802,#1808,#1809));
#1811=FACE_OUTER_BOUND('',#1810,.T.);
#1812=ADVANCED_FACE('',(#1811),#1800,.T.);
#1813=CARTESIAN_POINT('',(-3.04,4.919999999999998,2.889999999999997));
#1814=DIRECTION('',(1.0,0.0,0.0));
#1815=DIRECTION('',(0.0,1.0,0.0));
#1816=AXIS2_PLACEMENT_3D('',#1813,#1814,#1815);
#1817=PLANE('',#1816);
#1818=ORIENTED_EDGE('',*,*,#1782,.F.);
#1819=ORIENTED_EDGE('',*,*,#1807,.F.);
#1820=ORIENTED_EDGE('',*,*,#1565,.F.);
#1821=ORIENTED_EDGE('',*,*,#1476,.F.);
#1822=EDGE_LOOP('',(#1818,#1819,#1820,#1821));
#1823=FACE_OUTER_BOUND('',#1822,.T.);
#1824=ADVANCED_FACE('',(#1823),#1817,.T.);
#1825=CLOSED_SHELL('',(#1446,#1486,#1575,#1606,#1630,#1648,#1673,#1697,#1722,#1746,#1763,#1795,#1812,#1824));
#1826=MANIFOLD_SOLID_BREP('34C',#1825);
#1827=STYLED_ITEM('NONE',(#221),#1826);
#1828=ADVANCED_BREP_SHAPE_REPRESENTATION('ABSR1',(#214,#440,#822,#980,#1403,#1826),#28);
#1829=SHAPE_REPRESENTATION_RELATIONSHIP('SRRPL1','',#1828,#62);
ENDSEC;
END-ISO-10303-21;
