ISO-10303-21;
HEADER;
/****************************************************************
 * Generated by software with PDE/Lib inside                    *
 * PDElib Version v51a, created Mon 11/23/2009                  *
 * ITI Transcendata (http://www.transcendata.com/)              *
 ****************************************************************/
FILE_DESCRIPTION((''),'2;1');
FILE_NAME('TYCO_5-1634506-1.stp','2011-02-14T15:40:31',(''),(''),'Mechanical Desktop 2011','Mechanical Desktop 2011',', , ');
FILE_SCHEMA(('AUTOMOTIVE_DESIGN { 1 2 10303 214 1 1 1 1 }'));
ENDSEC;
DATA;
#10=(NAMED_UNIT(*)PLANE_ANGLE_UNIT()SI_UNIT($,.RADIAN.));
#11=DIMENSIONAL_EXPONENTS(0.0,0.0,0.0,0.0,0.0,0.0,0.0);
#12=PLANE_ANGLE_MEASURE_WITH_UNIT(PLANE_ANGLE_MEASURE(0.017453292500000),#10);
#16=(CONVERSION_BASED_UNIT('DEGREE',#12)NAMED_UNIT(#11)PLANE_ANGLE_UNIT());
#20=(NAMED_UNIT(*)SI_UNIT($,.STERADIAN.)SOLID_ANGLE_UNIT());
#24=(LENGTH_UNIT()NAMED_UNIT(*)SI_UNIT(.MILLI.,.METRE.));
#26=UNCERTAINTY_MEASURE_WITH_UNIT(LENGTH_MEASURE(0.000001000000000),#24,'DISTANCE_ACCURACY_VALUE','');
#28=(GEOMETRIC_REPRESENTATION_CONTEXT(3)GLOBAL_UNCERTAINTY_ASSIGNED_CONTEXT((#26))GLOBAL_UNIT_ASSIGNED_CONTEXT((#16,#20,#24))REPRESENTATION_CONTEXT('','3D'));
#29=APPLICATION_CONTEXT('automotive design');
#30=APPLICATION_PROTOCOL_DEFINITION('INTERNATIONAL_STANDARD','automotive_design',1998,#29);
#31=PRODUCT_CONTEXT('3D Mechanical Parts',#29,'mechanical');
#32=PRODUCT('Product','Product','',(#31));
#33=PRODUCT_RELATED_PRODUCT_CATEGORY('part',$,(#32));
#34=PRODUCT_CATEGORY('part',$);
#35=PERSON('1','Design','Joe',$,$,$);
#36=ORGANIZATION($,'None','None');
#37=PERSON_AND_ORGANIZATION(#35,#36);
#38=PERSON_AND_ORGANIZATION_ROLE('design_owner');
#39=APPLIED_PERSON_AND_ORGANIZATION_ASSIGNMENT(#37,#38,(#32));
#40=PRODUCT_DEFINITION_FORMATION_WITH_SPECIFIED_SOURCE('None','',#32,.BOUGHT.);
#41=PERSON('2','Creator','Joe',$,$,$);
#42=ORGANIZATION($,'None','None');
#43=PERSON_AND_ORGANIZATION(#41,#42);
#44=PERSON_AND_ORGANIZATION_ROLE('creator');
#45=APPLIED_PERSON_AND_ORGANIZATION_ASSIGNMENT(#43,#44,(#40));
#46=PERSON('3','Supplier','Joe',$,$,$);
#47=ORGANIZATION($,'None','None');
#48=PERSON_AND_ORGANIZATION(#46,#47);
#49=PERSON_AND_ORGANIZATION_ROLE('design_supplier');
#50=APPLIED_PERSON_AND_ORGANIZATION_ASSIGNMENT(#48,#49,(#40));
#51=PRODUCT_DEFINITION_CONTEXT('part definition',#29,'design');
#52=PRODUCT_DEFINITION('None','',#40,#51);
#53=PERSON('4','Creator','Joe',$,$,$);
#54=ORGANIZATION($,'None','None');
#55=PERSON_AND_ORGANIZATION(#53,#54);
#56=PERSON_AND_ORGANIZATION_ROLE('creator');
#57=APPLIED_PERSON_AND_ORGANIZATION_ASSIGNMENT(#55,#56,(#52));
#58=CARTESIAN_POINT('NONE',(0.0,0.0,0.0));
#59=DIRECTION('NONE',(0.0,0.0,1.0));
#60=DIRECTION('NONE',(1.0,0.0,0.0));
#61=AXIS2_PLACEMENT_3D('NONE',#58,#59,#60);
#62=SHAPE_REPRESENTATION('SR1',(#61),#28);
#63=PRODUCT_DEFINITION_SHAPE('PDS1','Test Part',#52);
#64=SHAPE_DEFINITION_REPRESENTATION(#63,#62);
#65=CARTESIAN_POINT('',(-0.000042253377117,-5.749556E-009,0.0));
#66=DIRECTION('',(0.0,0.0,1.0));
#67=DIRECTION('',(1.0,0.0,0.0));
#68=AXIS2_PLACEMENT_3D('',#65,#66,#67);
#69=CYLINDRICAL_SURFACE('',#68,2.900028492421501);
#70=CARTESIAN_POINT('',(2.899986239044385,-5.749556E-009,0.600000000000000));
#71=VERTEX_POINT('',#70);
#72=CARTESIAN_POINT('',(2.899986239044385,-5.749556E-009,0.0));
#73=VERTEX_POINT('',#72);
#74=CARTESIAN_POINT('',(2.899986239044385,-5.749556E-009,0.600000000000000));
#75=DIRECTION('',(0.0,0.0,-1.0));
#76=VECTOR('',#75,0.600000000000000);
#77=LINE('',#74,#76);
#78=EDGE_CURVE('',#71,#73,#77,.T.);
#79=ORIENTED_EDGE('',*,*,#78,.F.);
#80=CARTESIAN_POINT('',(-2.900070745798618,-5.749556E-009,0.600000000000000));
#81=VERTEX_POINT('',#80);
#82=CARTESIAN_POINT('',(-0.000042253377117,-5.749556E-009,0.600000000000000));
#83=DIRECTION('',(0.0,0.0,-1.0));
#84=DIRECTION('',(1.0,0.0,0.0));
#85=AXIS2_PLACEMENT_3D('',#82,#83,#84);
#86=CIRCLE('',#85,2.900028492421501);
#87=EDGE_CURVE('',#71,#81,#86,.T.);
#88=ORIENTED_EDGE('',*,*,#87,.T.);
#89=CARTESIAN_POINT('',(-2.900070745798618,-5.749556E-009,0.0));
#90=VERTEX_POINT('',#89);
#91=CARTESIAN_POINT('',(-2.900070745798618,-5.749556E-009,0.600000000000000));
#92=DIRECTION('',(0.0,0.0,-1.0));
#93=VECTOR('',#92,0.600000000000000);
#94=LINE('',#91,#93);
#95=EDGE_CURVE('',#81,#90,#94,.T.);
#96=ORIENTED_EDGE('',*,*,#95,.T.);
#97=CARTESIAN_POINT('',(-0.000042253377117,-5.749556E-009,0.0));
#98=DIRECTION('',(0.0,0.0,1.0));
#99=DIRECTION('',(1.0,0.0,0.0));
#100=AXIS2_PLACEMENT_3D('',#97,#98,#99);
#101=CIRCLE('',#100,2.900028492421501);
#102=EDGE_CURVE('',#90,#73,#101,.T.);
#103=ORIENTED_EDGE('',*,*,#102,.T.);
#104=EDGE_LOOP('',(#79,#88,#96,#103));
#105=FACE_OUTER_BOUND('',#104,.T.);
#106=ADVANCED_FACE('',(#105),#69,.T.);
#107=CARTESIAN_POINT('',(-0.000042253377117,-5.749556E-009,0.0));
#108=DIRECTION('',(0.0,0.0,1.0));
#109=DIRECTION('',(1.0,0.0,0.0));
#110=AXIS2_PLACEMENT_3D('',#107,#108,#109);
#111=CYLINDRICAL_SURFACE('',#110,2.900028492421501);
#112=ORIENTED_EDGE('',*,*,#78,.T.);
#113=CARTESIAN_POINT('',(-0.000042253377117,-5.749556E-009,0.0));
#114=DIRECTION('',(0.0,0.0,1.0));
#115=DIRECTION('',(1.0,0.0,0.0));
#116=AXIS2_PLACEMENT_3D('',#113,#114,#115);
#117=CIRCLE('',#116,2.900028492421501);
#118=EDGE_CURVE('',#73,#90,#117,.T.);
#119=ORIENTED_EDGE('',*,*,#118,.T.);
#120=ORIENTED_EDGE('',*,*,#95,.F.);
#121=CARTESIAN_POINT('',(-0.000042253377117,-5.749556E-009,0.600000000000000));
#122=DIRECTION('',(0.0,0.0,-1.0));
#123=DIRECTION('',(1.0,0.0,0.0));
#124=AXIS2_PLACEMENT_3D('',#121,#122,#123);
#125=CIRCLE('',#124,2.900028492421501);
#126=EDGE_CURVE('',#81,#71,#125,.T.);
#127=ORIENTED_EDGE('',*,*,#126,.T.);
#128=EDGE_LOOP('',(#112,#119,#120,#127));
#129=FACE_OUTER_BOUND('',#128,.T.);
#130=ADVANCED_FACE('',(#129),#111,.T.);
#131=CARTESIAN_POINT('',(-0.000042253377117,-5.749556E-009,0.0));
#132=DIRECTION('',(0.0,0.0,1.0));
#133=DIRECTION('',(1.0,0.0,0.0));
#134=AXIS2_PLACEMENT_3D('',#131,#132,#133);
#135=PLANE('',#134);
#136=ORIENTED_EDGE('',*,*,#118,.F.);
#137=ORIENTED_EDGE('',*,*,#102,.F.);
#138=EDGE_LOOP('',(#136,#137));
#139=FACE_OUTER_BOUND('',#138,.T.);
#140=ADVANCED_FACE('',(#139),#135,.F.);
#141=CARTESIAN_POINT('',(-0.000042253377117,-5.749556E-009,0.600000000000000));
#142=DIRECTION('',(0.0,0.0,1.0));
#143=DIRECTION('',(1.0,0.0,0.0));
#144=AXIS2_PLACEMENT_3D('',#141,#142,#143);
#145=PLANE('',#144);
#146=ORIENTED_EDGE('',*,*,#87,.F.);
#147=ORIENTED_EDGE('',*,*,#126,.F.);
#148=EDGE_LOOP('',(#146,#147));
#149=FACE_OUTER_BOUND('',#148,.T.);
#150=ADVANCED_FACE('',(#149),#145,.T.);
#151=CLOSED_SHELL('',(#106,#130,#140,#150));
#152=MANIFOLD_SOLID_BREP('522',#151);
#153=COLOUR_RGB('255',1.0,1.0,1.0);
#154=SURFACE_STYLE_USAGE(.BOTH.,#155);
#155=SURFACE_SIDE_STYLE('NONE',(#156));
#156=SURFACE_STYLE_FILL_AREA(#157);
#157=FILL_AREA_STYLE('NONE',(#158));
#158=FILL_AREA_STYLE_COLOUR('NONE',#153);
#159=PRESENTATION_STYLE_ASSIGNMENT((#154));
#160=STYLED_ITEM('NONE',(#159),#152);
#161=MECHANICAL_DESIGN_GEOMETRIC_PRESENTATION_REPRESENTATION('NONE',(#160,#258,#413,#568,#723,#878,#967,#1056,#1145,#1234,#1323,#1454,#1543,#1713,#1876,#2045),#28);
#162=PRESENTATION_LAYER_ASSIGNMENT('3D','None',(#152,#250,#412,#567,#722,#877,#966,#1055,#1144,#1233,#1322,#1453,#1542,#1705,#1875,#2044));
#163=CARTESIAN_POINT('',(0.0,0.0,0.600000000000000));
#164=DIRECTION('',(0.0,0.0,-1.0));
#165=DIRECTION('',(1.0,0.0,0.0));
#166=AXIS2_PLACEMENT_3D('',#163,#164,#165);
#167=CYLINDRICAL_SURFACE('',#166,0.450000000000000);
#168=CARTESIAN_POINT('',(0.450000000000000,0.0,-3.180000000000000));
#169=VERTEX_POINT('',#168);
#170=CARTESIAN_POINT('',(0.450000000000000,0.0,0.600000000000000));
#171=VERTEX_POINT('',#170);
#172=CARTESIAN_POINT('',(0.450000000000000,0.0,-3.179999999999999));
#173=DIRECTION('',(0.0,0.0,1.0));
#174=VECTOR('',#173,3.779999999999999);
#175=LINE('',#172,#174);
#176=EDGE_CURVE('',#169,#171,#175,.T.);
#177=ORIENTED_EDGE('',*,*,#176,.F.);
#178=CARTESIAN_POINT('',(-0.450000000000000,5.510729E-017,-3.179999999999999));
#179=VERTEX_POINT('',#178);
#180=CARTESIAN_POINT('',(0.0,0.0,-3.180000000000000));
#181=DIRECTION('',(0.0,0.0,1.0));
#182=DIRECTION('',(1.0,0.0,0.0));
#183=AXIS2_PLACEMENT_3D('',#180,#181,#182);
#184=CIRCLE('',#183,0.450000000000000);
#185=EDGE_CURVE('',#169,#179,#184,.T.);
#186=ORIENTED_EDGE('',*,*,#185,.T.);
#187=CARTESIAN_POINT('',(-0.450000000000000,5.510729E-017,0.600000000000000));
#188=VERTEX_POINT('',#187);
#189=CARTESIAN_POINT('',(-0.450000000000000,5.510729E-017,-3.179999999999999));
#190=DIRECTION('',(0.0,0.0,1.0));
#191=VECTOR('',#190,3.779999999999999);
#192=LINE('',#189,#191);
#193=EDGE_CURVE('',#179,#188,#192,.T.);
#194=ORIENTED_EDGE('',*,*,#193,.T.);
#195=CARTESIAN_POINT('',(0.0,0.0,0.600000000000000));
#196=DIRECTION('',(0.0,0.0,1.0));
#197=DIRECTION('',(1.0,0.0,0.0));
#198=AXIS2_PLACEMENT_3D('',#195,#196,#197);
#199=CIRCLE('',#198,0.450000000000000);
#200=EDGE_CURVE('',#171,#188,#199,.T.);
#201=ORIENTED_EDGE('',*,*,#200,.F.);
#202=EDGE_LOOP('',(#177,#186,#194,#201));
#203=FACE_OUTER_BOUND('',#202,.T.);
#204=ADVANCED_FACE('',(#203),#167,.T.);
#205=CARTESIAN_POINT('',(0.0,0.0,0.600000000000000));
#206=DIRECTION('',(0.0,0.0,-1.0));
#207=DIRECTION('',(1.0,0.0,0.0));
#208=AXIS2_PLACEMENT_3D('',#205,#206,#207);
#209=CYLINDRICAL_SURFACE('',#208,0.450000000000000);
#210=ORIENTED_EDGE('',*,*,#176,.T.);
#211=CARTESIAN_POINT('',(0.0,0.0,0.600000000000000));
#212=DIRECTION('',(0.0,0.0,1.0));
#213=DIRECTION('',(1.0,0.0,0.0));
#214=AXIS2_PLACEMENT_3D('',#211,#212,#213);
#215=CIRCLE('',#214,0.450000000000000);
#216=EDGE_CURVE('',#188,#171,#215,.T.);
#217=ORIENTED_EDGE('',*,*,#216,.F.);
#218=ORIENTED_EDGE('',*,*,#193,.F.);
#219=CARTESIAN_POINT('',(0.0,0.0,-3.180000000000000));
#220=DIRECTION('',(0.0,0.0,1.0));
#221=DIRECTION('',(1.0,0.0,0.0));
#222=AXIS2_PLACEMENT_3D('',#219,#220,#221);
#223=CIRCLE('',#222,0.450000000000000);
#224=EDGE_CURVE('',#179,#169,#223,.T.);
#225=ORIENTED_EDGE('',*,*,#224,.T.);
#226=EDGE_LOOP('',(#210,#217,#218,#225));
#227=FACE_OUTER_BOUND('',#226,.T.);
#228=ADVANCED_FACE('',(#227),#209,.T.);
#229=CARTESIAN_POINT('',(0.0,0.0,-3.180000000000000));
#230=DIRECTION('',(0.0,0.0,1.0));
#231=DIRECTION('',(1.0,0.0,0.0));
#232=AXIS2_PLACEMENT_3D('',#229,#230,#231);
#233=PLANE('',#232);
#234=ORIENTED_EDGE('',*,*,#185,.F.);
#235=ORIENTED_EDGE('',*,*,#224,.F.);
#236=EDGE_LOOP('',(#234,#235));
#237=FACE_OUTER_BOUND('',#236,.T.);
#238=ADVANCED_FACE('',(#237),#233,.F.);
#239=CARTESIAN_POINT('',(0.0,0.0,0.600000000000000));
#240=DIRECTION('',(0.0,0.0,1.0));
#241=DIRECTION('',(1.0,0.0,0.0));
#242=AXIS2_PLACEMENT_3D('',#239,#240,#241);
#243=PLANE('',#242);
#244=ORIENTED_EDGE('',*,*,#200,.T.);
#245=ORIENTED_EDGE('',*,*,#216,.T.);
#246=EDGE_LOOP('',(#244,#245));
#247=FACE_OUTER_BOUND('',#246,.T.);
#248=ADVANCED_FACE('',(#247),#243,.T.);
#249=CLOSED_SHELL('',(#204,#228,#238,#248));
#250=MANIFOLD_SOLID_BREP('51D',#249);
#251=COLOUR_RGB('254',0.866000000000000,0.866000000000000,0.866000000000000);
#252=SURFACE_STYLE_USAGE(.BOTH.,#253);
#253=SURFACE_SIDE_STYLE('NONE',(#254));
#254=SURFACE_STYLE_FILL_AREA(#255);
#255=FILL_AREA_STYLE('NONE',(#256));
#256=FILL_AREA_STYLE_COLOUR('NONE',#251);
#257=PRESENTATION_STYLE_ASSIGNMENT((#252));
#258=STYLED_ITEM('NONE',(#257),#250);
#259=CARTESIAN_POINT('',(-5.749556E-009,0.000042253377117,0.0));
#260=DIRECTION('',(0.0,0.0,1.0));
#261=DIRECTION('',(-0.000000978796924,0.999999999999521,0.0));
#262=AXIS2_PLACEMENT_3D('',#259,#260,#261);
#263=CYLINDRICAL_SURFACE('',#262,2.899999999999980);
#264=CARTESIAN_POINT('',(0.825119518149032,2.780182136778894,0.600000000000000));
#265=VERTEX_POINT('',#264);
#266=CARTESIAN_POINT('',(-0.825124972031295,2.780180521524663,0.600000000000000));
#267=VERTEX_POINT('',#266);
#268=CARTESIAN_POINT('',(-5.749556E-009,0.000042253377117,0.600000000000000));
#269=DIRECTION('',(0.0,0.0,1.000000000000000));
#270=DIRECTION('',(-0.000000978796924,0.999999999999521,0.0));
#271=AXIS2_PLACEMENT_3D('',#268,#269,#270);
#272=CIRCLE('',#271,2.899999999999980);
#273=EDGE_CURVE('',#265,#267,#272,.T.);
#274=ORIENTED_EDGE('',*,*,#273,.T.);
#275=CARTESIAN_POINT('',(-0.825124972031295,2.780180521524663,0.0));
#276=VERTEX_POINT('',#275);
#277=CARTESIAN_POINT('',(-0.825124972031295,2.780180521524663,0.0));
#278=DIRECTION('',(0.0,0.0,1.0));
#279=VECTOR('',#278,0.600000000000000);
#280=LINE('',#277,#279);
#281=EDGE_CURVE('',#276,#267,#280,.T.);
#282=ORIENTED_EDGE('',*,*,#281,.F.);
#283=CARTESIAN_POINT('',(0.825119518149032,2.780182136778894,0.0));
#284=VERTEX_POINT('',#283);
#285=CARTESIAN_POINT('',(-5.749556E-009,0.000042253377117,0.0));
#286=DIRECTION('',(0.0,0.0,1.000000000000000));
#287=DIRECTION('',(-0.000000978796924,0.999999999999521,0.0));
#288=AXIS2_PLACEMENT_3D('',#285,#286,#287);
#289=CIRCLE('',#288,2.899999999999980);
#290=EDGE_CURVE('',#284,#276,#289,.T.);
#291=ORIENTED_EDGE('',*,*,#290,.F.);
#292=CARTESIAN_POINT('',(0.825119518149032,2.780182136778894,0.0));
#293=DIRECTION('',(0.0,0.0,1.0));
#294=VECTOR('',#293,0.600000000000000);
#295=LINE('',#292,#294);
#296=EDGE_CURVE('',#284,#265,#295,.T.);
#297=ORIENTED_EDGE('',*,*,#296,.T.);
#298=EDGE_LOOP('',(#274,#282,#291,#297));
#299=FACE_OUTER_BOUND('',#298,.T.);
#300=ADVANCED_FACE('',(#299),#263,.F.);
#301=CARTESIAN_POINT('',(-0.825124972031295,2.780180521524663,0.0));
#302=DIRECTION('',(-0.958669547826321,-0.284521876259941,0.0));
#303=DIRECTION('',(0.0,0.0,1.0));
#304=AXIS2_PLACEMENT_3D('',#301,#302,#303);
#305=PLANE('',#304);
#306=CARTESIAN_POINT('',(-1.564870325179219,5.272682513044778,0.600000000000000));
#307=VERTEX_POINT('',#306);
#308=CARTESIAN_POINT('',(-0.825124972031295,2.780180521524663,0.600000000000000));
#309=DIRECTION('',(-0.284521876259941,0.958669547826321,0.0));
#310=VECTOR('',#309,2.599959492999013);
#311=LINE('',#308,#310);
#312=EDGE_CURVE('',#267,#307,#311,.T.);
#313=ORIENTED_EDGE('',*,*,#312,.T.);
#314=CARTESIAN_POINT('',(-1.564870325179219,5.272682513044778,0.0));
#315=VERTEX_POINT('',#314);
#316=CARTESIAN_POINT('',(-1.564870325179219,5.272682513044778,0.0));
#317=DIRECTION('',(0.0,0.0,1.0));
#318=VECTOR('',#317,0.600000000000000);
#319=LINE('',#316,#318);
#320=EDGE_CURVE('',#315,#307,#319,.T.);
#321=ORIENTED_EDGE('',*,*,#320,.F.);
#322=CARTESIAN_POINT('',(-0.825124972031295,2.780180521524663,0.0));
#323=DIRECTION('',(-0.284521876259941,0.958669547826321,0.0));
#324=VECTOR('',#323,2.599959492999013);
#325=LINE('',#322,#324);
#326=EDGE_CURVE('',#276,#315,#325,.T.);
#327=ORIENTED_EDGE('',*,*,#326,.F.);
#328=ORIENTED_EDGE('',*,*,#281,.T.);
#329=EDGE_LOOP('',(#313,#321,#327,#328));
#330=FACE_OUTER_BOUND('',#329,.T.);
#331=ADVANCED_FACE('',(#330),#305,.T.);
#332=CARTESIAN_POINT('',(-5.749584E-009,-8.881784E-016,0.0));
#333=DIRECTION('',(0.0,0.0,1.0));
#334=DIRECTION('',(1.045379E-009,1.0,0.0));
#335=AXIS2_PLACEMENT_3D('',#332,#333,#334);
#336=CYLINDRICAL_SURFACE('',#335,5.500000000000001);
#337=CARTESIAN_POINT('',(1.564870324703956,5.272682509773013,0.600000000000000));
#338=VERTEX_POINT('',#337);
#339=CARTESIAN_POINT('',(-5.749584E-009,-8.881784E-016,0.600000000000000));
#340=DIRECTION('',(0.0,0.0,-1.0));
#341=DIRECTION('',(1.045379E-009,1.0,0.0));
#342=AXIS2_PLACEMENT_3D('',#339,#340,#341);
#343=CIRCLE('',#342,5.500000000000001);
#344=EDGE_CURVE('',#307,#338,#343,.T.);
#345=ORIENTED_EDGE('',*,*,#344,.T.);
#346=CARTESIAN_POINT('',(1.564870324703956,5.272682509773013,0.0));
#347=VERTEX_POINT('',#346);
#348=CARTESIAN_POINT('',(1.564870324703956,5.272682509773013,0.0));
#349=DIRECTION('',(0.0,0.0,1.0));
#350=VECTOR('',#349,0.600000000000000);
#351=LINE('',#348,#350);
#352=EDGE_CURVE('',#347,#338,#351,.T.);
#353=ORIENTED_EDGE('',*,*,#352,.F.);
#354=CARTESIAN_POINT('',(-5.749584E-009,-8.881784E-016,0.0));
#355=DIRECTION('',(0.0,0.0,-1.0));
#356=DIRECTION('',(1.045379E-009,1.0,0.0));
#357=AXIS2_PLACEMENT_3D('',#354,#355,#356);
#358=CIRCLE('',#357,5.500000000000001);
#359=EDGE_CURVE('',#315,#347,#358,.T.);
#360=ORIENTED_EDGE('',*,*,#359,.F.);
#361=ORIENTED_EDGE('',*,*,#320,.T.);
#362=EDGE_LOOP('',(#345,#353,#360,#361));
#363=FACE_OUTER_BOUND('',#362,.T.);
#364=ADVANCED_FACE('',(#363),#336,.T.);
#365=CARTESIAN_POINT('',(1.564870324703956,5.272682509773013,0.0));
#366=DIRECTION('',(0.958668925310964,-0.284523973758138,0.0));
#367=DIRECTION('',(0.0,0.0,-1.0));
#368=AXIS2_PLACEMENT_3D('',#365,#366,#367);
#369=PLANE('',#368);
#370=CARTESIAN_POINT('',(1.564870324703956,5.272682509773013,0.600000000000000));
#371=DIRECTION('',(-0.284523973758138,-0.958668925310964,0.0));
#372=VECTOR('',#371,2.599959492987243);
#373=LINE('',#370,#372);
#374=EDGE_CURVE('',#338,#265,#373,.T.);
#375=ORIENTED_EDGE('',*,*,#374,.T.);
#376=ORIENTED_EDGE('',*,*,#296,.F.);
#377=CARTESIAN_POINT('',(1.564870324703956,5.272682509773013,0.0));
#378=DIRECTION('',(-0.284523973758138,-0.958668925310964,0.0));
#379=VECTOR('',#378,2.599959492987242);
#380=LINE('',#377,#379);
#381=EDGE_CURVE('',#347,#284,#380,.T.);
#382=ORIENTED_EDGE('',*,*,#381,.F.);
#383=ORIENTED_EDGE('',*,*,#352,.T.);
#384=EDGE_LOOP('',(#375,#376,#382,#383));
#385=FACE_OUTER_BOUND('',#384,.T.);
#386=ADVANCED_FACE('',(#385),#369,.T.);
#387=CARTESIAN_POINT('',(-0.000001171675419,4.267512281804859,0.600000000000000));
#388=DIRECTION('',(0.0,0.0,1.0));
#389=DIRECTION('',(0.0,1.0,0.0));
#390=AXIS2_PLACEMENT_3D('',#387,#388,#389);
#391=PLANE('',#390);
#392=ORIENTED_EDGE('',*,*,#273,.F.);
#393=ORIENTED_EDGE('',*,*,#374,.F.);
#394=ORIENTED_EDGE('',*,*,#344,.F.);
#395=ORIENTED_EDGE('',*,*,#312,.F.);
#396=EDGE_LOOP('',(#392,#393,#394,#395));
#397=FACE_OUTER_BOUND('',#396,.T.);
#398=ADVANCED_FACE('',(#397),#391,.T.);
#399=CARTESIAN_POINT('',(-0.000001171675419,4.267512281804859,0.0));
#400=DIRECTION('',(0.0,0.0,1.0));
#401=DIRECTION('',(0.0,1.0,0.0));
#402=AXIS2_PLACEMENT_3D('',#399,#400,#401);
#403=PLANE('',#402);
#404=ORIENTED_EDGE('',*,*,#381,.T.);
#405=ORIENTED_EDGE('',*,*,#290,.T.);
#406=ORIENTED_EDGE('',*,*,#326,.T.);
#407=ORIENTED_EDGE('',*,*,#359,.T.);
#408=EDGE_LOOP('',(#404,#405,#406,#407));
#409=FACE_OUTER_BOUND('',#408,.T.);
#410=ADVANCED_FACE('',(#409),#403,.F.);
#411=CLOSED_SHELL('',(#300,#331,#364,#386,#398,#410));
#412=MANIFOLD_SOLID_BREP('50D',#411);
#413=STYLED_ITEM('NONE',(#257),#412);
#414=CARTESIAN_POINT('',(5.749556E-009,-0.000042253377117,0.0));
#415=DIRECTION('',(0.0,0.0,1.0));
#416=DIRECTION('',(0.000000978796924,-0.999999999999521,0.0));
#417=AXIS2_PLACEMENT_3D('',#414,#415,#416);
#418=CYLINDRICAL_SURFACE('',#417,2.899999999999980);
#419=CARTESIAN_POINT('',(-0.825119518149033,-2.780182136778894,0.600000000000000));
#420=VERTEX_POINT('',#419);
#421=CARTESIAN_POINT('',(0.825124972031295,-2.780180521524663,0.600000000000000));
#422=VERTEX_POINT('',#421);
#423=CARTESIAN_POINT('',(5.749556E-009,-0.000042253377117,0.600000000000000));
#424=DIRECTION('',(0.0,0.0,1.000000000000000));
#425=DIRECTION('',(0.000000978796924,-0.999999999999521,0.0));
#426=AXIS2_PLACEMENT_3D('',#423,#424,#425);
#427=CIRCLE('',#426,2.899999999999980);
#428=EDGE_CURVE('',#420,#422,#427,.T.);
#429=ORIENTED_EDGE('',*,*,#428,.T.);
#430=CARTESIAN_POINT('',(0.825124972031295,-2.780180521524663,0.0));
#431=VERTEX_POINT('',#430);
#432=CARTESIAN_POINT('',(0.825124972031295,-2.780180521524663,0.0));
#433=DIRECTION('',(0.0,0.0,1.0));
#434=VECTOR('',#433,0.600000000000000);
#435=LINE('',#432,#434);
#436=EDGE_CURVE('',#431,#422,#435,.T.);
#437=ORIENTED_EDGE('',*,*,#436,.F.);
#438=CARTESIAN_POINT('',(-0.825119518149033,-2.780182136778894,0.0));
#439=VERTEX_POINT('',#438);
#440=CARTESIAN_POINT('',(5.749556E-009,-0.000042253377117,0.0));
#441=DIRECTION('',(0.0,0.0,1.000000000000000));
#442=DIRECTION('',(0.000000978796924,-0.999999999999521,0.0));
#443=AXIS2_PLACEMENT_3D('',#440,#441,#442);
#444=CIRCLE('',#443,2.899999999999980);
#445=EDGE_CURVE('',#439,#431,#444,.T.);
#446=ORIENTED_EDGE('',*,*,#445,.F.);
#447=CARTESIAN_POINT('',(-0.825119518149033,-2.780182136778894,0.0));
#448=DIRECTION('',(0.0,0.0,1.0));
#449=VECTOR('',#448,0.600000000000000);
#450=LINE('',#447,#449);
#451=EDGE_CURVE('',#439,#420,#450,.T.);
#452=ORIENTED_EDGE('',*,*,#451,.T.);
#453=EDGE_LOOP('',(#429,#437,#446,#452));
#454=FACE_OUTER_BOUND('',#453,.T.);
#455=ADVANCED_FACE('',(#454),#418,.F.);
#456=CARTESIAN_POINT('',(0.825124972031295,-2.780180521524663,0.0));
#457=DIRECTION('',(0.958669547826321,0.284521876259941,0.0));
#458=DIRECTION('',(0.0,0.0,1.0));
#459=AXIS2_PLACEMENT_3D('',#456,#457,#458);
#460=PLANE('',#459);
#461=CARTESIAN_POINT('',(1.564870325179219,-5.272682513044778,0.600000000000000));
#462=VERTEX_POINT('',#461);
#463=CARTESIAN_POINT('',(0.825124972031295,-2.780180521524663,0.600000000000000));
#464=DIRECTION('',(0.284521876259941,-0.958669547826321,0.0));
#465=VECTOR('',#464,2.599959492999013);
#466=LINE('',#463,#465);
#467=EDGE_CURVE('',#422,#462,#466,.T.);
#468=ORIENTED_EDGE('',*,*,#467,.T.);
#469=CARTESIAN_POINT('',(1.564870325179219,-5.272682513044778,0.0));
#470=VERTEX_POINT('',#469);
#471=CARTESIAN_POINT('',(1.564870325179219,-5.272682513044778,0.0));
#472=DIRECTION('',(0.0,0.0,1.0));
#473=VECTOR('',#472,0.600000000000000);
#474=LINE('',#471,#473);
#475=EDGE_CURVE('',#470,#462,#474,.T.);
#476=ORIENTED_EDGE('',*,*,#475,.F.);
#477=CARTESIAN_POINT('',(0.825124972031295,-2.780180521524663,0.0));
#478=DIRECTION('',(0.284521876259941,-0.958669547826321,0.0));
#479=VECTOR('',#478,2.599959492999013);
#480=LINE('',#477,#479);
#481=EDGE_CURVE('',#431,#470,#480,.T.);
#482=ORIENTED_EDGE('',*,*,#481,.F.);
#483=ORIENTED_EDGE('',*,*,#436,.T.);
#484=EDGE_LOOP('',(#468,#476,#482,#483));
#485=FACE_OUTER_BOUND('',#484,.T.);
#486=ADVANCED_FACE('',(#485),#460,.T.);
#487=CARTESIAN_POINT('',(5.749584E-009,8.881784E-016,0.0));
#488=DIRECTION('',(0.0,0.0,1.0));
#489=DIRECTION('',(-1.045379E-009,-1.0,0.0));
#490=AXIS2_PLACEMENT_3D('',#487,#488,#489);
#491=CYLINDRICAL_SURFACE('',#490,5.500000000000001);
#492=CARTESIAN_POINT('',(-1.564870324703956,-5.272682509773013,0.600000000000000));
#493=VERTEX_POINT('',#492);
#494=CARTESIAN_POINT('',(5.749584E-009,8.881784E-016,0.600000000000000));
#495=DIRECTION('',(0.0,0.0,-1.0));
#496=DIRECTION('',(-1.045379E-009,-1.0,0.0));
#497=AXIS2_PLACEMENT_3D('',#494,#495,#496);
#498=CIRCLE('',#497,5.500000000000001);
#499=EDGE_CURVE('',#462,#493,#498,.T.);
#500=ORIENTED_EDGE('',*,*,#499,.T.);
#501=CARTESIAN_POINT('',(-1.564870324703956,-5.272682509773013,0.0));
#502=VERTEX_POINT('',#501);
#503=CARTESIAN_POINT('',(-1.564870324703956,-5.272682509773013,0.0));
#504=DIRECTION('',(0.0,0.0,1.0));
#505=VECTOR('',#504,0.600000000000000);
#506=LINE('',#503,#505);
#507=EDGE_CURVE('',#502,#493,#506,.T.);
#508=ORIENTED_EDGE('',*,*,#507,.F.);
#509=CARTESIAN_POINT('',(5.749584E-009,8.881784E-016,0.0));
#510=DIRECTION('',(0.0,0.0,-1.0));
#511=DIRECTION('',(-1.045379E-009,-1.0,0.0));
#512=AXIS2_PLACEMENT_3D('',#509,#510,#511);
#513=CIRCLE('',#512,5.500000000000001);
#514=EDGE_CURVE('',#470,#502,#513,.T.);
#515=ORIENTED_EDGE('',*,*,#514,.F.);
#516=ORIENTED_EDGE('',*,*,#475,.T.);
#517=EDGE_LOOP('',(#500,#508,#515,#516));
#518=FACE_OUTER_BOUND('',#517,.T.);
#519=ADVANCED_FACE('',(#518),#491,.T.);
#520=CARTESIAN_POINT('',(-1.564870324703956,-5.272682509773013,0.0));
#521=DIRECTION('',(-0.958668925310964,0.284523973758138,0.0));
#522=DIRECTION('',(0.0,0.0,-1.0));
#523=AXIS2_PLACEMENT_3D('',#520,#521,#522);
#524=PLANE('',#523);
#525=CARTESIAN_POINT('',(-1.564870324703956,-5.272682509773013,0.600000000000000));
#526=DIRECTION('',(0.284523973758138,0.958668925310964,0.0));
#527=VECTOR('',#526,2.599959492987243);
#528=LINE('',#525,#527);
#529=EDGE_CURVE('',#493,#420,#528,.T.);
#530=ORIENTED_EDGE('',*,*,#529,.T.);
#531=ORIENTED_EDGE('',*,*,#451,.F.);
#532=CARTESIAN_POINT('',(-1.564870324703956,-5.272682509773013,0.0));
#533=DIRECTION('',(0.284523973758138,0.958668925310964,0.0));
#534=VECTOR('',#533,2.599959492987242);
#535=LINE('',#532,#534);
#536=EDGE_CURVE('',#502,#439,#535,.T.);
#537=ORIENTED_EDGE('',*,*,#536,.F.);
#538=ORIENTED_EDGE('',*,*,#507,.T.);
#539=EDGE_LOOP('',(#530,#531,#537,#538));
#540=FACE_OUTER_BOUND('',#539,.T.);
#541=ADVANCED_FACE('',(#540),#524,.T.);
#542=CARTESIAN_POINT('',(0.000001171675418,-4.267512281804859,0.600000000000000));
#543=DIRECTION('',(0.0,0.0,1.0));
#544=DIRECTION('',(0.0,-1.0,0.0));
#545=AXIS2_PLACEMENT_3D('',#542,#543,#544);
#546=PLANE('',#545);
#547=ORIENTED_EDGE('',*,*,#428,.F.);
#548=ORIENTED_EDGE('',*,*,#529,.F.);
#549=ORIENTED_EDGE('',*,*,#499,.F.);
#550=ORIENTED_EDGE('',*,*,#467,.F.);
#551=EDGE_LOOP('',(#547,#548,#549,#550));
#552=FACE_OUTER_BOUND('',#551,.T.);
#553=ADVANCED_FACE('',(#552),#546,.T.);
#554=CARTESIAN_POINT('',(0.000001171675418,-4.267512281804859,0.0));
#555=DIRECTION('',(0.0,0.0,1.0));
#556=DIRECTION('',(0.0,-1.0,0.0));
#557=AXIS2_PLACEMENT_3D('',#554,#555,#556);
#558=PLANE('',#557);
#559=ORIENTED_EDGE('',*,*,#536,.T.);
#560=ORIENTED_EDGE('',*,*,#445,.T.);
#561=ORIENTED_EDGE('',*,*,#481,.T.);
#562=ORIENTED_EDGE('',*,*,#514,.T.);
#563=EDGE_LOOP('',(#559,#560,#561,#562));
#564=FACE_OUTER_BOUND('',#563,.T.);
#565=ADVANCED_FACE('',(#564),#558,.F.);
#566=CLOSED_SHELL('',(#455,#486,#519,#541,#553,#565));
#567=MANIFOLD_SOLID_BREP('509',#566);
#568=STYLED_ITEM('NONE',(#257),#567);
#569=CARTESIAN_POINT('',(-0.000042253377117,-5.749556E-009,0.0));
#570=DIRECTION('',(0.0,0.0,1.0));
#571=DIRECTION('',(-0.999999999999521,-0.000000978796924,0.0));
#572=AXIS2_PLACEMENT_3D('',#569,#570,#571);
#573=CYLINDRICAL_SURFACE('',#572,2.899999999999980);
#574=CARTESIAN_POINT('',(-2.780182136778894,0.825119518149032,0.600000000000000));
#575=VERTEX_POINT('',#574);
#576=CARTESIAN_POINT('',(-2.780180521524663,-0.825124972031295,0.600000000000000));
#577=VERTEX_POINT('',#576);
#578=CARTESIAN_POINT('',(-0.000042253377117,-5.749556E-009,0.600000000000000));
#579=DIRECTION('',(0.0,0.0,1.000000000000000));
#580=DIRECTION('',(-0.999999999999521,-0.000000978796924,0.0));
#581=AXIS2_PLACEMENT_3D('',#578,#579,#580);
#582=CIRCLE('',#581,2.899999999999980);
#583=EDGE_CURVE('',#575,#577,#582,.T.);
#584=ORIENTED_EDGE('',*,*,#583,.T.);
#585=CARTESIAN_POINT('',(-2.780180521524663,-0.825124972031295,0.0));
#586=VERTEX_POINT('',#585);
#587=CARTESIAN_POINT('',(-2.780180521524663,-0.825124972031295,0.0));
#588=DIRECTION('',(0.0,0.0,1.0));
#589=VECTOR('',#588,0.600000000000000);
#590=LINE('',#587,#589);
#591=EDGE_CURVE('',#586,#577,#590,.T.);
#592=ORIENTED_EDGE('',*,*,#591,.F.);
#593=CARTESIAN_POINT('',(-2.780182136778894,0.825119518149032,0.0));
#594=VERTEX_POINT('',#593);
#595=CARTESIAN_POINT('',(-0.000042253377117,-5.749556E-009,0.0));
#596=DIRECTION('',(0.0,0.0,1.000000000000000));
#597=DIRECTION('',(-0.999999999999521,-0.000000978796924,0.0));
#598=AXIS2_PLACEMENT_3D('',#595,#596,#597);
#599=CIRCLE('',#598,2.899999999999980);
#600=EDGE_CURVE('',#594,#586,#599,.T.);
#601=ORIENTED_EDGE('',*,*,#600,.F.);
#602=CARTESIAN_POINT('',(-2.780182136778894,0.825119518149032,0.0));
#603=DIRECTION('',(0.0,0.0,1.0));
#604=VECTOR('',#603,0.600000000000000);
#605=LINE('',#602,#604);
#606=EDGE_CURVE('',#594,#575,#605,.T.);
#607=ORIENTED_EDGE('',*,*,#606,.T.);
#608=EDGE_LOOP('',(#584,#592,#601,#607));
#609=FACE_OUTER_BOUND('',#608,.T.);
#610=ADVANCED_FACE('',(#609),#573,.F.);
#611=CARTESIAN_POINT('',(-2.780180521524663,-0.825124972031295,0.0));
#612=DIRECTION('',(0.284521876259941,-0.958669547826321,0.0));
#613=DIRECTION('',(0.0,0.0,1.0));
#614=AXIS2_PLACEMENT_3D('',#611,#612,#613);
#615=PLANE('',#614);
#616=CARTESIAN_POINT('',(-5.272682513044778,-1.564870325179219,0.600000000000000));
#617=VERTEX_POINT('',#616);
#618=CARTESIAN_POINT('',(-2.780180521524663,-0.825124972031295,0.600000000000000));
#619=DIRECTION('',(-0.958669547826321,-0.284521876259941,0.0));
#620=VECTOR('',#619,2.599959492999013);
#621=LINE('',#618,#620);
#622=EDGE_CURVE('',#577,#617,#621,.T.);
#623=ORIENTED_EDGE('',*,*,#622,.T.);
#624=CARTESIAN_POINT('',(-5.272682513044778,-1.564870325179219,0.0));
#625=VERTEX_POINT('',#624);
#626=CARTESIAN_POINT('',(-5.272682513044778,-1.564870325179219,0.0));
#627=DIRECTION('',(0.0,0.0,1.0));
#628=VECTOR('',#627,0.600000000000000);
#629=LINE('',#626,#628);
#630=EDGE_CURVE('',#625,#617,#629,.T.);
#631=ORIENTED_EDGE('',*,*,#630,.F.);
#632=CARTESIAN_POINT('',(-2.780180521524663,-0.825124972031295,0.0));
#633=DIRECTION('',(-0.958669547826321,-0.284521876259941,0.0));
#634=VECTOR('',#633,2.599959492999013);
#635=LINE('',#632,#634);
#636=EDGE_CURVE('',#586,#625,#635,.T.);
#637=ORIENTED_EDGE('',*,*,#636,.F.);
#638=ORIENTED_EDGE('',*,*,#591,.T.);
#639=EDGE_LOOP('',(#623,#631,#637,#638));
#640=FACE_OUTER_BOUND('',#639,.T.);
#641=ADVANCED_FACE('',(#640),#615,.T.);
#642=CARTESIAN_POINT('',(8.881784E-016,-5.749584E-009,0.0));
#643=DIRECTION('',(0.0,0.0,1.0));
#644=DIRECTION('',(-1.0,1.045379E-009,0.0));
#645=AXIS2_PLACEMENT_3D('',#642,#643,#644);
#646=CYLINDRICAL_SURFACE('',#645,5.500000000000001);
#647=CARTESIAN_POINT('',(-5.272682509773013,1.564870324703956,0.600000000000000));
#648=VERTEX_POINT('',#647);
#649=CARTESIAN_POINT('',(8.881784E-016,-5.749584E-009,0.600000000000000));
#650=DIRECTION('',(0.0,0.0,-1.0));
#651=DIRECTION('',(-1.0,1.045379E-009,0.0));
#652=AXIS2_PLACEMENT_3D('',#649,#650,#651);
#653=CIRCLE('',#652,5.500000000000001);
#654=EDGE_CURVE('',#617,#648,#653,.T.);
#655=ORIENTED_EDGE('',*,*,#654,.T.);
#656=CARTESIAN_POINT('',(-5.272682509773013,1.564870324703956,0.0));
#657=VERTEX_POINT('',#656);
#658=CARTESIAN_POINT('',(-5.272682509773013,1.564870324703956,0.0));
#659=DIRECTION('',(0.0,0.0,1.0));
#660=VECTOR('',#659,0.600000000000000);
#661=LINE('',#658,#660);
#662=EDGE_CURVE('',#657,#648,#661,.T.);
#663=ORIENTED_EDGE('',*,*,#662,.F.);
#664=CARTESIAN_POINT('',(8.881784E-016,-5.749584E-009,0.0));
#665=DIRECTION('',(0.0,0.0,-1.0));
#666=DIRECTION('',(-1.0,1.045379E-009,0.0));
#667=AXIS2_PLACEMENT_3D('',#664,#665,#666);
#668=CIRCLE('',#667,5.500000000000001);
#669=EDGE_CURVE('',#625,#657,#668,.T.);
#670=ORIENTED_EDGE('',*,*,#669,.F.);
#671=ORIENTED_EDGE('',*,*,#630,.T.);
#672=EDGE_LOOP('',(#655,#663,#670,#671));
#673=FACE_OUTER_BOUND('',#672,.T.);
#674=ADVANCED_FACE('',(#673),#646,.T.);
#675=CARTESIAN_POINT('',(-5.272682509773013,1.564870324703956,0.0));
#676=DIRECTION('',(0.284523973758138,0.958668925310964,0.0));
#677=DIRECTION('',(0.0,0.0,-1.0));
#678=AXIS2_PLACEMENT_3D('',#675,#676,#677);
#679=PLANE('',#678);
#680=CARTESIAN_POINT('',(-5.272682509773013,1.564870324703956,0.600000000000000));
#681=DIRECTION('',(0.958668925310964,-0.284523973758138,0.0));
#682=VECTOR('',#681,2.599959492987243);
#683=LINE('',#680,#682);
#684=EDGE_CURVE('',#648,#575,#683,.T.);
#685=ORIENTED_EDGE('',*,*,#684,.T.);
#686=ORIENTED_EDGE('',*,*,#606,.F.);
#687=CARTESIAN_POINT('',(-5.272682509773013,1.564870324703956,0.0));
#688=DIRECTION('',(0.958668925310964,-0.284523973758138,0.0));
#689=VECTOR('',#688,2.599959492987242);
#690=LINE('',#687,#689);
#691=EDGE_CURVE('',#657,#594,#690,.T.);
#692=ORIENTED_EDGE('',*,*,#691,.F.);
#693=ORIENTED_EDGE('',*,*,#662,.T.);
#694=EDGE_LOOP('',(#685,#686,#692,#693));
#695=FACE_OUTER_BOUND('',#694,.T.);
#696=ADVANCED_FACE('',(#695),#679,.T.);
#697=CARTESIAN_POINT('',(-4.267512281804859,-0.000001171675419,0.600000000000000));
#698=DIRECTION('',(0.0,0.0,1.0));
#699=DIRECTION('',(-1.0,0.0,0.0));
#700=AXIS2_PLACEMENT_3D('',#697,#698,#699);
#701=PLANE('',#700);
#702=ORIENTED_EDGE('',*,*,#583,.F.);
#703=ORIENTED_EDGE('',*,*,#684,.F.);
#704=ORIENTED_EDGE('',*,*,#654,.F.);
#705=ORIENTED_EDGE('',*,*,#622,.F.);
#706=EDGE_LOOP('',(#702,#703,#704,#705));
#707=FACE_OUTER_BOUND('',#706,.T.);
#708=ADVANCED_FACE('',(#707),#701,.T.);
#709=CARTESIAN_POINT('',(-4.267512281804859,-0.000001171675419,0.0));
#710=DIRECTION('',(0.0,0.0,1.0));
#711=DIRECTION('',(-1.0,0.0,0.0));
#712=AXIS2_PLACEMENT_3D('',#709,#710,#711);
#713=PLANE('',#712);
#714=ORIENTED_EDGE('',*,*,#691,.T.);
#715=ORIENTED_EDGE('',*,*,#600,.T.);
#716=ORIENTED_EDGE('',*,*,#636,.T.);
#717=ORIENTED_EDGE('',*,*,#669,.T.);
#718=EDGE_LOOP('',(#714,#715,#716,#717));
#719=FACE_OUTER_BOUND('',#718,.T.);
#720=ADVANCED_FACE('',(#719),#713,.F.);
#721=CLOSED_SHELL('',(#610,#641,#674,#696,#708,#720));
#722=MANIFOLD_SOLID_BREP('505',#721);
#723=STYLED_ITEM('NONE',(#257),#722);
#724=CARTESIAN_POINT('',(0.000042253377117,5.749556E-009,0.0));
#725=DIRECTION('',(0.0,0.0,1.0));
#726=DIRECTION('',(0.999999999999521,0.000000978796924,0.0));
#727=AXIS2_PLACEMENT_3D('',#724,#725,#726);
#728=CYLINDRICAL_SURFACE('',#727,2.899999999999980);
#729=CARTESIAN_POINT('',(2.780182136778894,-0.825119518149032,0.600000000000000));
#730=VERTEX_POINT('',#729);
#731=CARTESIAN_POINT('',(2.780180521524663,0.825124972031295,0.600000000000000));
#732=VERTEX_POINT('',#731);
#733=CARTESIAN_POINT('',(0.000042253377117,5.749556E-009,0.600000000000000));
#734=DIRECTION('',(0.0,0.0,1.000000000000000));
#735=DIRECTION('',(0.999999999999521,0.000000978796924,0.0));
#736=AXIS2_PLACEMENT_3D('',#733,#734,#735);
#737=CIRCLE('',#736,2.899999999999980);
#738=EDGE_CURVE('',#730,#732,#737,.T.);
#739=ORIENTED_EDGE('',*,*,#738,.T.);
#740=CARTESIAN_POINT('',(2.780180521524663,0.825124972031295,0.0));
#741=VERTEX_POINT('',#740);
#742=CARTESIAN_POINT('',(2.780180521524663,0.825124972031295,0.0));
#743=DIRECTION('',(0.0,0.0,1.0));
#744=VECTOR('',#743,0.600000000000000);
#745=LINE('',#742,#744);
#746=EDGE_CURVE('',#741,#732,#745,.T.);
#747=ORIENTED_EDGE('',*,*,#746,.F.);
#748=CARTESIAN_POINT('',(2.780182136778894,-0.825119518149032,0.0));
#749=VERTEX_POINT('',#748);
#750=CARTESIAN_POINT('',(0.000042253377117,5.749556E-009,0.0));
#751=DIRECTION('',(0.0,0.0,1.000000000000000));
#752=DIRECTION('',(0.999999999999521,0.000000978796924,0.0));
#753=AXIS2_PLACEMENT_3D('',#750,#751,#752);
#754=CIRCLE('',#753,2.899999999999980);
#755=EDGE_CURVE('',#749,#741,#754,.T.);
#756=ORIENTED_EDGE('',*,*,#755,.F.);
#757=CARTESIAN_POINT('',(2.780182136778894,-0.825119518149032,0.0));
#758=DIRECTION('',(0.0,0.0,1.0));
#759=VECTOR('',#758,0.600000000000000);
#760=LINE('',#757,#759);
#761=EDGE_CURVE('',#749,#730,#760,.T.);
#762=ORIENTED_EDGE('',*,*,#761,.T.);
#763=EDGE_LOOP('',(#739,#747,#756,#762));
#764=FACE_OUTER_BOUND('',#763,.T.);
#765=ADVANCED_FACE('',(#764),#728,.F.);
#766=CARTESIAN_POINT('',(2.780180521524663,0.825124972031295,0.0));
#767=DIRECTION('',(-0.284521876259941,0.958669547826321,0.0));
#768=DIRECTION('',(0.0,0.0,1.0));
#769=AXIS2_PLACEMENT_3D('',#766,#767,#768);
#770=PLANE('',#769);
#771=CARTESIAN_POINT('',(5.272682513044778,1.564870325179220,0.600000000000000));
#772=VERTEX_POINT('',#771);
#773=CARTESIAN_POINT('',(2.780180521524663,0.825124972031295,0.600000000000000));
#774=DIRECTION('',(0.958669547826321,0.284521876259941,0.0));
#775=VECTOR('',#774,2.599959492999013);
#776=LINE('',#773,#775);
#777=EDGE_CURVE('',#732,#772,#776,.T.);
#778=ORIENTED_EDGE('',*,*,#777,.T.);
#779=CARTESIAN_POINT('',(5.272682513044778,1.564870325179220,0.0));
#780=VERTEX_POINT('',#779);
#781=CARTESIAN_POINT('',(5.272682513044778,1.564870325179220,0.0));
#782=DIRECTION('',(0.0,0.0,1.0));
#783=VECTOR('',#782,0.600000000000000);
#784=LINE('',#781,#783);
#785=EDGE_CURVE('',#780,#772,#784,.T.);
#786=ORIENTED_EDGE('',*,*,#785,.F.);
#787=CARTESIAN_POINT('',(2.780180521524663,0.825124972031295,0.0));
#788=DIRECTION('',(0.958669547826321,0.284521876259941,0.0));
#789=VECTOR('',#788,2.599959492999013);
#790=LINE('',#787,#789);
#791=EDGE_CURVE('',#741,#780,#790,.T.);
#792=ORIENTED_EDGE('',*,*,#791,.F.);
#793=ORIENTED_EDGE('',*,*,#746,.T.);
#794=EDGE_LOOP('',(#778,#786,#792,#793));
#795=FACE_OUTER_BOUND('',#794,.T.);
#796=ADVANCED_FACE('',(#795),#770,.T.);
#797=CARTESIAN_POINT('',(-8.881784E-016,5.749584E-009,0.0));
#798=DIRECTION('',(0.0,0.0,1.0));
#799=DIRECTION('',(1.0,-1.045379E-009,0.0));
#800=AXIS2_PLACEMENT_3D('',#797,#798,#799);
#801=CYLINDRICAL_SURFACE('',#800,5.500000000000001);
#802=CARTESIAN_POINT('',(5.272682509773013,-1.564870324703955,0.600000000000000));
#803=VERTEX_POINT('',#802);
#804=CARTESIAN_POINT('',(-8.881784E-016,5.749584E-009,0.600000000000000));
#805=DIRECTION('',(0.0,0.0,-1.0));
#806=DIRECTION('',(1.0,-1.045379E-009,0.0));
#807=AXIS2_PLACEMENT_3D('',#804,#805,#806);
#808=CIRCLE('',#807,5.500000000000001);
#809=EDGE_CURVE('',#772,#803,#808,.T.);
#810=ORIENTED_EDGE('',*,*,#809,.T.);
#811=CARTESIAN_POINT('',(5.272682509773013,-1.564870324703955,0.0));
#812=VERTEX_POINT('',#811);
#813=CARTESIAN_POINT('',(5.272682509773013,-1.564870324703955,0.0));
#814=DIRECTION('',(0.0,0.0,1.0));
#815=VECTOR('',#814,0.600000000000000);
#816=LINE('',#813,#815);
#817=EDGE_CURVE('',#812,#803,#816,.T.);
#818=ORIENTED_EDGE('',*,*,#817,.F.);
#819=CARTESIAN_POINT('',(-8.881784E-016,5.749584E-009,0.0));
#820=DIRECTION('',(0.0,0.0,-1.0));
#821=DIRECTION('',(1.0,-1.045379E-009,0.0));
#822=AXIS2_PLACEMENT_3D('',#819,#820,#821);
#823=CIRCLE('',#822,5.500000000000001);
#824=EDGE_CURVE('',#780,#812,#823,.T.);
#825=ORIENTED_EDGE('',*,*,#824,.F.);
#826=ORIENTED_EDGE('',*,*,#785,.T.);
#827=EDGE_LOOP('',(#810,#818,#825,#826));
#828=FACE_OUTER_BOUND('',#827,.T.);
#829=ADVANCED_FACE('',(#828),#801,.T.);
#830=CARTESIAN_POINT('',(5.272682509773013,-1.564870324703955,0.0));
#831=DIRECTION('',(-0.284523973758138,-0.958668925310964,0.0));
#832=DIRECTION('',(0.0,0.0,-1.0));
#833=AXIS2_PLACEMENT_3D('',#830,#831,#832);
#834=PLANE('',#833);
#835=CARTESIAN_POINT('',(5.272682509773013,-1.564870324703955,0.600000000000000));
#836=DIRECTION('',(-0.958668925310964,0.284523973758138,0.0));
#837=VECTOR('',#836,2.599959492987243);
#838=LINE('',#835,#837);
#839=EDGE_CURVE('',#803,#730,#838,.T.);
#840=ORIENTED_EDGE('',*,*,#839,.T.);
#841=ORIENTED_EDGE('',*,*,#761,.F.);
#842=CARTESIAN_POINT('',(5.272682509773013,-1.564870324703955,0.0));
#843=DIRECTION('',(-0.958668925310964,0.284523973758138,0.0));
#844=VECTOR('',#843,2.599959492987242);
#845=LINE('',#842,#844);
#846=EDGE_CURVE('',#812,#749,#845,.T.);
#847=ORIENTED_EDGE('',*,*,#846,.F.);
#848=ORIENTED_EDGE('',*,*,#817,.T.);
#849=EDGE_LOOP('',(#840,#841,#847,#848));
#850=FACE_OUTER_BOUND('',#849,.T.);
#851=ADVANCED_FACE('',(#850),#834,.T.);
#852=CARTESIAN_POINT('',(4.267512281804859,0.000001171675419,0.600000000000000));
#853=DIRECTION('',(0.0,0.0,1.0));
#854=DIRECTION('',(1.0,0.0,0.0));
#855=AXIS2_PLACEMENT_3D('',#852,#853,#854);
#856=PLANE('',#855);
#857=ORIENTED_EDGE('',*,*,#738,.F.);
#858=ORIENTED_EDGE('',*,*,#839,.F.);
#859=ORIENTED_EDGE('',*,*,#809,.F.);
#860=ORIENTED_EDGE('',*,*,#777,.F.);
#861=EDGE_LOOP('',(#857,#858,#859,#860));
#862=FACE_OUTER_BOUND('',#861,.T.);
#863=ADVANCED_FACE('',(#862),#856,.T.);
#864=CARTESIAN_POINT('',(4.267512281804859,0.000001171675419,0.0));
#865=DIRECTION('',(0.0,0.0,1.0));
#866=DIRECTION('',(1.0,0.0,0.0));
#867=AXIS2_PLACEMENT_3D('',#864,#865,#866);
#868=PLANE('',#867);
#869=ORIENTED_EDGE('',*,*,#846,.T.);
#870=ORIENTED_EDGE('',*,*,#755,.T.);
#871=ORIENTED_EDGE('',*,*,#791,.T.);
#872=ORIENTED_EDGE('',*,*,#824,.T.);
#873=EDGE_LOOP('',(#869,#870,#871,#872));
#874=FACE_OUTER_BOUND('',#873,.T.);
#875=ADVANCED_FACE('',(#874),#868,.F.);
#876=CLOSED_SHELL('',(#765,#796,#829,#851,#863,#875));
#877=MANIFOLD_SOLID_BREP('501',#876);
#878=STYLED_ITEM('NONE',(#257),#877);
#879=CARTESIAN_POINT('',(3.419286043049774,-3.419286043049778,-3.180000000000000));
#880=DIRECTION('',(0.0,0.0,1.0));
#881=DIRECTION('',(-1.0,0.0,0.0));
#882=AXIS2_PLACEMENT_3D('',#879,#880,#881);
#883=PLANE('',#882);
#884=CARTESIAN_POINT('',(4.375037368323179,-3.333023856166616,-3.180000000000001));
#885=VERTEX_POINT('',#884);
#886=CARTESIAN_POINT('',(3.333023856166610,-4.375037368323183,-3.180000000000001));
#887=VERTEX_POINT('',#886);
#888=CARTESIAN_POINT('',(3.429999999999998,-3.430000000000002,-3.180000000000001));
#889=DIRECTION('',(0.0,0.0,-1.0));
#890=DIRECTION('',(-0.707106781186547,0.707106781186548,0.0));
#891=AXIS2_PLACEMENT_3D('',#888,#889,#890);
#892=CIRCLE('',#891,0.950000000000000);
#893=EDGE_CURVE('',#885,#887,#892,.F.);
#894=ORIENTED_EDGE('',*,*,#893,.F.);
#895=CARTESIAN_POINT('',(-2.220446E-015,-4.440892E-016,-3.180000000000000));
#896=DIRECTION('',(0.0,0.0,1.0));
#897=DIRECTION('',(0.707106781186547,-0.707106781186548,0.0));
#898=AXIS2_PLACEMENT_3D('',#895,#896,#897);
#899=CIRCLE('',#898,5.500000000000000);
#900=EDGE_CURVE('',#887,#885,#899,.T.);
#901=ORIENTED_EDGE('',*,*,#900,.F.);
#902=EDGE_LOOP('',(#894,#901));
#903=FACE_OUTER_BOUND('',#902,.T.);
#904=ADVANCED_FACE('',(#903),#883,.F.);
#905=CARTESIAN_POINT('',(-2.220446E-015,-4.440892E-016,0.0));
#906=DIRECTION('',(0.0,0.0,-1.0));
#907=DIRECTION('',(0.707106781186547,-0.707106781186548,0.0));
#908=AXIS2_PLACEMENT_3D('',#905,#906,#907);
#909=CYLINDRICAL_SURFACE('',#908,5.500000000000000);
#910=ORIENTED_EDGE('',*,*,#900,.T.);
#911=CARTESIAN_POINT('',(4.375037368323180,-3.333023856166617,0.600000000000000));
#912=VERTEX_POINT('',#911);
#913=CARTESIAN_POINT('',(4.375037368323180,-3.333023856166617,0.600000000000000));
#914=DIRECTION('',(0.0,0.0,-1.0));
#915=VECTOR('',#914,3.780000000000000);
#916=LINE('',#913,#915);
#917=EDGE_CURVE('',#912,#885,#916,.T.);
#918=ORIENTED_EDGE('',*,*,#917,.F.);
#919=CARTESIAN_POINT('',(3.333023856166611,-4.375037368323184,0.600000000000000));
#920=VERTEX_POINT('',#919);
#921=CARTESIAN_POINT('',(-2.220446E-015,-4.440892E-016,0.600000000000000));
#922=DIRECTION('',(0.0,0.0,1.0));
#923=DIRECTION('',(0.707106781186547,-0.707106781186548,0.0));
#924=AXIS2_PLACEMENT_3D('',#921,#922,#923);
#925=CIRCLE('',#924,5.500000000000000);
#926=EDGE_CURVE('',#920,#912,#925,.T.);
#927=ORIENTED_EDGE('',*,*,#926,.F.);
#928=CARTESIAN_POINT('',(3.333023856166611,-4.375037368323184,0.600000000000000));
#929=DIRECTION('',(0.0,0.0,-1.0));
#930=VECTOR('',#929,3.780000000000000);
#931=LINE('',#928,#930);
#932=EDGE_CURVE('',#920,#887,#931,.T.);
#933=ORIENTED_EDGE('',*,*,#932,.T.);
#934=EDGE_LOOP('',(#910,#918,#927,#933));
#935=FACE_OUTER_BOUND('',#934,.T.);
#936=ADVANCED_FACE('',(#935),#909,.T.);
#937=CARTESIAN_POINT('',(3.429999999999998,-3.430000000000002,0.600000000000000));
#938=DIRECTION('',(0.0,0.0,-1.0));
#939=DIRECTION('',(-0.707106781186547,0.707106781186548,0.0));
#940=AXIS2_PLACEMENT_3D('',#937,#938,#939);
#941=CYLINDRICAL_SURFACE('',#940,0.950000000000000);
#942=ORIENTED_EDGE('',*,*,#893,.T.);
#943=ORIENTED_EDGE('',*,*,#932,.F.);
#944=CARTESIAN_POINT('',(3.429999999999998,-3.430000000000002,0.600000000000000));
#945=DIRECTION('',(0.0,0.0,1.0));
#946=DIRECTION('',(-0.707106781186547,0.707106781186548,0.0));
#947=AXIS2_PLACEMENT_3D('',#944,#945,#946);
#948=CIRCLE('',#947,0.950000000000000);
#949=EDGE_CURVE('',#912,#920,#948,.T.);
#950=ORIENTED_EDGE('',*,*,#949,.F.);
#951=ORIENTED_EDGE('',*,*,#917,.T.);
#952=EDGE_LOOP('',(#942,#943,#950,#951));
#953=FACE_OUTER_BOUND('',#952,.T.);
#954=ADVANCED_FACE('',(#953),#941,.T.);
#955=CARTESIAN_POINT('',(3.419286043049774,-3.419286043049778,0.600000000000000));
#956=DIRECTION('',(0.0,0.0,1.0));
#957=DIRECTION('',(-1.0,0.0,0.0));
#958=AXIS2_PLACEMENT_3D('',#955,#956,#957);
#959=PLANE('',#958);
#960=ORIENTED_EDGE('',*,*,#926,.T.);
#961=ORIENTED_EDGE('',*,*,#949,.T.);
#962=EDGE_LOOP('',(#960,#961));
#963=FACE_OUTER_BOUND('',#962,.T.);
#964=ADVANCED_FACE('',(#963),#959,.T.);
#965=CLOSED_SHELL('',(#904,#936,#954,#964));
#966=MANIFOLD_SOLID_BREP('4FD',#965);
#967=STYLED_ITEM('NONE',(#257),#966);
#968=CARTESIAN_POINT('',(-3.419286043049777,-3.419286043049775,-3.180000000000000));
#969=DIRECTION('',(0.0,0.0,1.0));
#970=DIRECTION('',(0.0,1.0,0.0));
#971=AXIS2_PLACEMENT_3D('',#968,#969,#970);
#972=PLANE('',#971);
#973=CARTESIAN_POINT('',(-3.333023856166615,-4.375037368323179,-3.180000000000000));
#974=VERTEX_POINT('',#973);
#975=CARTESIAN_POINT('',(-4.375037368323183,-3.333023856166611,-3.180000000000000));
#976=VERTEX_POINT('',#975);
#977=CARTESIAN_POINT('',(-3.430000000000001,-3.429999999999998,-3.180000000000000));
#978=DIRECTION('',(0.0,0.0,1.000000000000000));
#979=DIRECTION('',(0.707106781186548,0.707106781186548,0.0));
#980=AXIS2_PLACEMENT_3D('',#977,#978,#979);
#981=CIRCLE('',#980,0.950000000000000);
#982=EDGE_CURVE('',#974,#976,#981,.T.);
#983=ORIENTED_EDGE('',*,*,#982,.F.);
#984=CARTESIAN_POINT('',(-4.440892E-016,2.220446E-015,-3.180000000000000));
#985=DIRECTION('',(0.0,0.0,-1.0));
#986=DIRECTION('',(-0.707106781186548,-0.707106781186547,0.0));
#987=AXIS2_PLACEMENT_3D('',#984,#985,#986);
#988=CIRCLE('',#987,5.500000000000000);
#989=EDGE_CURVE('',#976,#974,#988,.F.);
#990=ORIENTED_EDGE('',*,*,#989,.F.);
#991=EDGE_LOOP('',(#983,#990));
#992=FACE_OUTER_BOUND('',#991,.T.);
#993=ADVANCED_FACE('',(#992),#972,.F.);
#994=CARTESIAN_POINT('',(-3.430000000000001,-3.429999999999998,0.0));
#995=DIRECTION('',(0.0,0.0,-1.0));
#996=DIRECTION('',(0.707106781186548,0.707106781186548,0.0));
#997=AXIS2_PLACEMENT_3D('',#994,#995,#996);
#998=CYLINDRICAL_SURFACE('',#997,0.950000000000000);
#999=ORIENTED_EDGE('',*,*,#982,.T.);
#1000=CARTESIAN_POINT('',(-4.375037368323183,-3.333023856166612,0.600000000000000));
#1001=VERTEX_POINT('',#1000);
#1002=CARTESIAN_POINT('',(-4.375037368323183,-3.333023856166612,0.600000000000000));
#1003=DIRECTION('',(0.0,0.0,-1.0));
#1004=VECTOR('',#1003,3.780000000000000);
#1005=LINE('',#1002,#1004);
#1006=EDGE_CURVE('',#1001,#976,#1005,.T.);
#1007=ORIENTED_EDGE('',*,*,#1006,.F.);
#1008=CARTESIAN_POINT('',(-3.333023856166616,-4.375037368323181,0.600000000000000));
#1009=VERTEX_POINT('',#1008);
#1010=CARTESIAN_POINT('',(-3.430000000000001,-3.429999999999998,0.600000000000000));
#1011=DIRECTION('',(0.0,0.0,1.000000000000000));
#1012=DIRECTION('',(0.707106781186548,0.707106781186548,0.0));
#1013=AXIS2_PLACEMENT_3D('',#1010,#1011,#1012);
#1014=CIRCLE('',#1013,0.950000000000000);
#1015=EDGE_CURVE('',#1009,#1001,#1014,.T.);
#1016=ORIENTED_EDGE('',*,*,#1015,.F.);
#1017=CARTESIAN_POINT('',(-3.333023856166616,-4.375037368323181,0.600000000000000));
#1018=DIRECTION('',(0.0,0.0,-1.0));
#1019=VECTOR('',#1018,3.780000000000000);
#1020=LINE('',#1017,#1019);
#1021=EDGE_CURVE('',#1009,#974,#1020,.T.);
#1022=ORIENTED_EDGE('',*,*,#1021,.T.);
#1023=EDGE_LOOP('',(#999,#1007,#1016,#1022));
#1024=FACE_OUTER_BOUND('',#1023,.T.);
#1025=ADVANCED_FACE('',(#1024),#998,.T.);
#1026=CARTESIAN_POINT('',(-4.440892E-016,2.220446E-015,0.600000000000000));
#1027=DIRECTION('',(0.0,0.0,-1.0));
#1028=DIRECTION('',(-0.707106781186548,-0.707106781186547,0.0));
#1029=AXIS2_PLACEMENT_3D('',#1026,#1027,#1028);
#1030=CYLINDRICAL_SURFACE('',#1029,5.500000000000000);
#1031=ORIENTED_EDGE('',*,*,#989,.T.);
#1032=ORIENTED_EDGE('',*,*,#1021,.F.);
#1033=CARTESIAN_POINT('',(-4.440892E-016,2.220446E-015,0.600000000000000));
#1034=DIRECTION('',(0.0,0.0,1.0));
#1035=DIRECTION('',(-0.707106781186548,-0.707106781186547,0.0));
#1036=AXIS2_PLACEMENT_3D('',#1033,#1034,#1035);
#1037=CIRCLE('',#1036,5.500000000000000);
#1038=EDGE_CURVE('',#1001,#1009,#1037,.T.);
#1039=ORIENTED_EDGE('',*,*,#1038,.F.);
#1040=ORIENTED_EDGE('',*,*,#1006,.T.);
#1041=EDGE_LOOP('',(#1031,#1032,#1039,#1040));
#1042=FACE_OUTER_BOUND('',#1041,.T.);
#1043=ADVANCED_FACE('',(#1042),#1030,.T.);
#1044=CARTESIAN_POINT('',(-3.419286043049777,-3.419286043049775,0.600000000000000));
#1045=DIRECTION('',(0.0,0.0,1.0));
#1046=DIRECTION('',(0.0,1.0,0.0));
#1047=AXIS2_PLACEMENT_3D('',#1044,#1045,#1046);
#1048=PLANE('',#1047);
#1049=ORIENTED_EDGE('',*,*,#1038,.T.);
#1050=ORIENTED_EDGE('',*,*,#1015,.T.);
#1051=EDGE_LOOP('',(#1049,#1050));
#1052=FACE_OUTER_BOUND('',#1051,.T.);
#1053=ADVANCED_FACE('',(#1052),#1048,.T.);
#1054=CLOSED_SHELL('',(#993,#1025,#1043,#1053));
#1055=MANIFOLD_SOLID_BREP('4F9',#1054);
#1056=STYLED_ITEM('NONE',(#257),#1055);
#1057=CARTESIAN_POINT('',(3.419286043049778,3.419286043049774,-3.180000000000000));
#1058=DIRECTION('',(0.0,0.0,1.0));
#1059=DIRECTION('',(0.0,-1.0,0.0));
#1060=AXIS2_PLACEMENT_3D('',#1057,#1058,#1059);
#1061=PLANE('',#1060);
#1062=CARTESIAN_POINT('',(3.333023856166617,4.375037368323180,-3.180000000000000));
#1063=VERTEX_POINT('',#1062);
#1064=CARTESIAN_POINT('',(4.375037368323184,3.333023856166612,-3.180000000000001));
#1065=VERTEX_POINT('',#1064);
#1066=CARTESIAN_POINT('',(3.430000000000002,3.429999999999998,-3.180000000000000));
#1067=DIRECTION('',(0.0,0.0,-1.000000000000000));
#1068=DIRECTION('',(-0.707106781186548,-0.707106781186547,0.0));
#1069=AXIS2_PLACEMENT_3D('',#1066,#1067,#1068);
#1070=CIRCLE('',#1069,0.950000000000000);
#1071=EDGE_CURVE('',#1063,#1065,#1070,.F.);
#1072=ORIENTED_EDGE('',*,*,#1071,.F.);
#1073=CARTESIAN_POINT('',(4.440892E-016,-2.220446E-015,-3.180000000000000));
#1074=DIRECTION('',(0.0,0.0,1.0));
#1075=DIRECTION('',(0.707106781186548,0.707106781186547,0.0));
#1076=AXIS2_PLACEMENT_3D('',#1073,#1074,#1075);
#1077=CIRCLE('',#1076,5.500000000000001);
#1078=EDGE_CURVE('',#1065,#1063,#1077,.T.);
#1079=ORIENTED_EDGE('',*,*,#1078,.F.);
#1080=EDGE_LOOP('',(#1072,#1079));
#1081=FACE_OUTER_BOUND('',#1080,.T.);
#1082=ADVANCED_FACE('',(#1081),#1061,.F.);
#1083=CARTESIAN_POINT('',(4.440892E-016,-2.220446E-015,0.0));
#1084=DIRECTION('',(0.0,0.0,-1.0));
#1085=DIRECTION('',(0.707106781186548,0.707106781186547,0.0));
#1086=AXIS2_PLACEMENT_3D('',#1083,#1084,#1085);
#1087=CYLINDRICAL_SURFACE('',#1086,5.500000000000001);
#1088=ORIENTED_EDGE('',*,*,#1078,.T.);
#1089=CARTESIAN_POINT('',(3.333023856166616,4.375037368323180,0.600000000000000));
#1090=VERTEX_POINT('',#1089);
#1091=CARTESIAN_POINT('',(3.333023856166616,4.375037368323180,0.600000000000000));
#1092=DIRECTION('',(0.0,0.0,-1.0));
#1093=VECTOR('',#1092,3.780000000000000);
#1094=LINE('',#1091,#1093);
#1095=EDGE_CURVE('',#1090,#1063,#1094,.T.);
#1096=ORIENTED_EDGE('',*,*,#1095,.F.);
#1097=CARTESIAN_POINT('',(4.375037368323184,3.333023856166612,0.600000000000000));
#1098=VERTEX_POINT('',#1097);
#1099=CARTESIAN_POINT('',(4.440892E-016,-2.220446E-015,0.600000000000000));
#1100=DIRECTION('',(0.0,0.0,1.0));
#1101=DIRECTION('',(0.707106781186548,0.707106781186547,0.0));
#1102=AXIS2_PLACEMENT_3D('',#1099,#1100,#1101);
#1103=CIRCLE('',#1102,5.500000000000001);
#1104=EDGE_CURVE('',#1098,#1090,#1103,.T.);
#1105=ORIENTED_EDGE('',*,*,#1104,.F.);
#1106=CARTESIAN_POINT('',(4.375037368323184,3.333023856166612,0.600000000000000));
#1107=DIRECTION('',(0.0,0.0,-1.0));
#1108=VECTOR('',#1107,3.780000000000001);
#1109=LINE('',#1106,#1108);
#1110=EDGE_CURVE('',#1098,#1065,#1109,.T.);
#1111=ORIENTED_EDGE('',*,*,#1110,.T.);
#1112=EDGE_LOOP('',(#1088,#1096,#1105,#1111));
#1113=FACE_OUTER_BOUND('',#1112,.T.);
#1114=ADVANCED_FACE('',(#1113),#1087,.T.);
#1115=CARTESIAN_POINT('',(3.430000000000002,3.429999999999998,0.600000000000000));
#1116=DIRECTION('',(0.0,0.0,-1.0));
#1117=DIRECTION('',(-0.707106781186548,-0.707106781186547,0.0));
#1118=AXIS2_PLACEMENT_3D('',#1115,#1116,#1117);
#1119=CYLINDRICAL_SURFACE('',#1118,0.950000000000000);
#1120=ORIENTED_EDGE('',*,*,#1071,.T.);
#1121=ORIENTED_EDGE('',*,*,#1110,.F.);
#1122=CARTESIAN_POINT('',(3.430000000000002,3.429999999999998,0.600000000000000));
#1123=DIRECTION('',(0.0,0.0,1.000000000000000));
#1124=DIRECTION('',(-0.707106781186548,-0.707106781186547,0.0));
#1125=AXIS2_PLACEMENT_3D('',#1122,#1123,#1124);
#1126=CIRCLE('',#1125,0.950000000000000);
#1127=EDGE_CURVE('',#1090,#1098,#1126,.T.);
#1128=ORIENTED_EDGE('',*,*,#1127,.F.);
#1129=ORIENTED_EDGE('',*,*,#1095,.T.);
#1130=EDGE_LOOP('',(#1120,#1121,#1128,#1129));
#1131=FACE_OUTER_BOUND('',#1130,.T.);
#1132=ADVANCED_FACE('',(#1131),#1119,.T.);
#1133=CARTESIAN_POINT('',(3.419286043049778,3.419286043049774,0.600000000000000));
#1134=DIRECTION('',(0.0,0.0,1.0));
#1135=DIRECTION('',(0.0,-1.0,0.0));
#1136=AXIS2_PLACEMENT_3D('',#1133,#1134,#1135);
#1137=PLANE('',#1136);
#1138=ORIENTED_EDGE('',*,*,#1104,.T.);
#1139=ORIENTED_EDGE('',*,*,#1127,.T.);
#1140=EDGE_LOOP('',(#1138,#1139));
#1141=FACE_OUTER_BOUND('',#1140,.T.);
#1142=ADVANCED_FACE('',(#1141),#1137,.T.);
#1143=CLOSED_SHELL('',(#1082,#1114,#1132,#1142));
#1144=MANIFOLD_SOLID_BREP('4F5',#1143);
#1145=STYLED_ITEM('NONE',(#257),#1144);
#1146=CARTESIAN_POINT('',(-3.419286043049775,3.419286043049777,-3.180000000000000));
#1147=DIRECTION('',(0.0,0.0,1.0));
#1148=DIRECTION('',(1.0,0.0,0.0));
#1149=AXIS2_PLACEMENT_3D('',#1146,#1147,#1148);
#1150=PLANE('',#1149);
#1151=CARTESIAN_POINT('',(-4.375037368323179,3.333023856166615,-3.180000000000000));
#1152=VERTEX_POINT('',#1151);
#1153=CARTESIAN_POINT('',(-3.333023856166611,4.375037368323183,-3.180000000000000));
#1154=VERTEX_POINT('',#1153);
#1155=CARTESIAN_POINT('',(-3.429999999999998,3.430000000000001,-3.180000000000000));
#1156=DIRECTION('',(0.0,0.0,-1.000000000000000));
#1157=DIRECTION('',(0.707106781186548,-0.707106781186548,0.0));
#1158=AXIS2_PLACEMENT_3D('',#1155,#1156,#1157);
#1159=CIRCLE('',#1158,0.950000000000000);
#1160=EDGE_CURVE('',#1152,#1154,#1159,.F.);
#1161=ORIENTED_EDGE('',*,*,#1160,.F.);
#1162=CARTESIAN_POINT('',(2.220446E-015,4.440892E-016,-3.180000000000000));
#1163=DIRECTION('',(0.0,0.0,1.000000000000000));
#1164=DIRECTION('',(-0.707106781186548,0.707106781186548,0.0));
#1165=AXIS2_PLACEMENT_3D('',#1162,#1163,#1164);
#1166=CIRCLE('',#1165,5.500000000000000);
#1167=EDGE_CURVE('',#1154,#1152,#1166,.T.);
#1168=ORIENTED_EDGE('',*,*,#1167,.F.);
#1169=EDGE_LOOP('',(#1161,#1168));
#1170=FACE_OUTER_BOUND('',#1169,.T.);
#1171=ADVANCED_FACE('',(#1170),#1150,.F.);
#1172=CARTESIAN_POINT('',(2.220446E-015,4.440892E-016,0.0));
#1173=DIRECTION('',(0.0,0.0,-1.0));
#1174=DIRECTION('',(-0.707106781186548,0.707106781186548,0.0));
#1175=AXIS2_PLACEMENT_3D('',#1172,#1173,#1174);
#1176=CYLINDRICAL_SURFACE('',#1175,5.500000000000000);
#1177=ORIENTED_EDGE('',*,*,#1167,.T.);
#1178=CARTESIAN_POINT('',(-4.375037368323181,3.333023856166615,0.600000000000000));
#1179=VERTEX_POINT('',#1178);
#1180=CARTESIAN_POINT('',(-4.375037368323181,3.333023856166615,0.600000000000000));
#1181=DIRECTION('',(0.0,0.0,-1.0));
#1182=VECTOR('',#1181,3.780000000000000);
#1183=LINE('',#1180,#1182);
#1184=EDGE_CURVE('',#1179,#1152,#1183,.T.);
#1185=ORIENTED_EDGE('',*,*,#1184,.F.);
#1186=CARTESIAN_POINT('',(-3.333023856166613,4.375037368323183,0.600000000000000));
#1187=VERTEX_POINT('',#1186);
#1188=CARTESIAN_POINT('',(2.220446E-015,4.440892E-016,0.600000000000000));
#1189=DIRECTION('',(0.0,0.0,1.000000000000000));
#1190=DIRECTION('',(-0.707106781186548,0.707106781186548,0.0));
#1191=AXIS2_PLACEMENT_3D('',#1188,#1189,#1190);
#1192=CIRCLE('',#1191,5.500000000000000);
#1193=EDGE_CURVE('',#1187,#1179,#1192,.T.);
#1194=ORIENTED_EDGE('',*,*,#1193,.F.);
#1195=CARTESIAN_POINT('',(-3.333023856166613,4.375037368323183,0.600000000000000));
#1196=DIRECTION('',(0.0,0.0,-1.0));
#1197=VECTOR('',#1196,3.780000000000000);
#1198=LINE('',#1195,#1197);
#1199=EDGE_CURVE('',#1187,#1154,#1198,.T.);
#1200=ORIENTED_EDGE('',*,*,#1199,.T.);
#1201=EDGE_LOOP('',(#1177,#1185,#1194,#1200));
#1202=FACE_OUTER_BOUND('',#1201,.T.);
#1203=ADVANCED_FACE('',(#1202),#1176,.T.);
#1204=CARTESIAN_POINT('',(-3.429999999999998,3.430000000000001,0.600000000000000));
#1205=DIRECTION('',(0.0,0.0,-1.0));
#1206=DIRECTION('',(0.707106781186548,-0.707106781186548,0.0));
#1207=AXIS2_PLACEMENT_3D('',#1204,#1205,#1206);
#1208=CYLINDRICAL_SURFACE('',#1207,0.950000000000000);
#1209=ORIENTED_EDGE('',*,*,#1160,.T.);
#1210=ORIENTED_EDGE('',*,*,#1199,.F.);
#1211=CARTESIAN_POINT('',(-3.429999999999998,3.430000000000001,0.600000000000000));
#1212=DIRECTION('',(0.0,0.0,1.000000000000000));
#1213=DIRECTION('',(0.707106781186548,-0.707106781186548,0.0));
#1214=AXIS2_PLACEMENT_3D('',#1211,#1212,#1213);
#1215=CIRCLE('',#1214,0.950000000000000);
#1216=EDGE_CURVE('',#1179,#1187,#1215,.T.);
#1217=ORIENTED_EDGE('',*,*,#1216,.F.);
#1218=ORIENTED_EDGE('',*,*,#1184,.T.);
#1219=EDGE_LOOP('',(#1209,#1210,#1217,#1218));
#1220=FACE_OUTER_BOUND('',#1219,.T.);
#1221=ADVANCED_FACE('',(#1220),#1208,.T.);
#1222=CARTESIAN_POINT('',(-3.419286043049775,3.419286043049777,0.600000000000000));
#1223=DIRECTION('',(0.0,0.0,1.0));
#1224=DIRECTION('',(1.0,0.0,0.0));
#1225=AXIS2_PLACEMENT_3D('',#1222,#1223,#1224);
#1226=PLANE('',#1225);
#1227=ORIENTED_EDGE('',*,*,#1193,.T.);
#1228=ORIENTED_EDGE('',*,*,#1216,.T.);
#1229=EDGE_LOOP('',(#1227,#1228));
#1230=FACE_OUTER_BOUND('',#1229,.T.);
#1231=ADVANCED_FACE('',(#1230),#1226,.T.);
#1232=CLOSED_SHELL('',(#1171,#1203,#1221,#1231));
#1233=MANIFOLD_SOLID_BREP('4F1',#1232);
#1234=STYLED_ITEM('NONE',(#257),#1233);
#1235=CARTESIAN_POINT('',(0.0,0.0,3.140000000000000));
#1236=DIRECTION('',(0.0,0.0,1.0));
#1237=DIRECTION('',(1.0,0.0,0.0));
#1238=AXIS2_PLACEMENT_3D('',#1235,#1236,#1237);
#1239=CYLINDRICAL_SURFACE('',#1238,5.500000000000000);
#1240=CARTESIAN_POINT('',(5.500000000000000,0.0,5.080000000000000));
#1241=VERTEX_POINT('',#1240);
#1242=CARTESIAN_POINT('',(5.500000000000000,0.0,0.600000000000000));
#1243=VERTEX_POINT('',#1242);
#1244=CARTESIAN_POINT('',(5.500000000000000,0.0,5.080000000000000));
#1245=DIRECTION('',(0.0,0.0,-1.0));
#1246=VECTOR('',#1245,4.480000000000000);
#1247=LINE('',#1244,#1246);
#1248=EDGE_CURVE('',#1241,#1243,#1247,.T.);
#1249=ORIENTED_EDGE('',*,*,#1248,.F.);
#1250=CARTESIAN_POINT('',(-5.500000000000000,6.735335E-016,5.080000000000000));
#1251=VERTEX_POINT('',#1250);
#1252=CARTESIAN_POINT('',(0.0,0.0,5.080000000000000));
#1253=DIRECTION('',(0.0,0.0,-1.0));
#1254=DIRECTION('',(1.0,0.0,0.0));
#1255=AXIS2_PLACEMENT_3D('',#1252,#1253,#1254);
#1256=CIRCLE('',#1255,5.500000000000000);
#1257=EDGE_CURVE('',#1251,#1241,#1256,.F.);
#1258=ORIENTED_EDGE('',*,*,#1257,.F.);
#1259=CARTESIAN_POINT('',(-5.500000000000000,-6.735335E-016,0.600000000000000));
#1260=VERTEX_POINT('',#1259);
#1261=CARTESIAN_POINT('',(-5.500000000000000,-6.735335E-016,5.080000000000000));
#1262=DIRECTION('',(0.0,0.0,-1.0));
#1263=VECTOR('',#1262,4.480000000000000);
#1264=LINE('',#1261,#1263);
#1265=EDGE_CURVE('',#1251,#1260,#1264,.T.);
#1266=ORIENTED_EDGE('',*,*,#1265,.T.);
#1267=CARTESIAN_POINT('',(0.0,0.0,0.600000000000000));
#1268=DIRECTION('',(0.0,0.0,-1.0));
#1269=DIRECTION('',(1.0,0.0,0.0));
#1270=AXIS2_PLACEMENT_3D('',#1267,#1268,#1269);
#1271=CIRCLE('',#1270,5.500000000000000);
#1272=EDGE_CURVE('',#1243,#1260,#1271,.T.);
#1273=ORIENTED_EDGE('',*,*,#1272,.F.);
#1274=EDGE_LOOP('',(#1249,#1258,#1266,#1273));
#1275=FACE_OUTER_BOUND('',#1274,.T.);
#1276=ADVANCED_FACE('',(#1275),#1239,.T.);
#1277=CARTESIAN_POINT('',(0.0,0.0,5.080000000000000));
#1278=DIRECTION('',(0.0,0.0,1.0));
#1279=DIRECTION('',(1.0,0.0,0.0));
#1280=AXIS2_PLACEMENT_3D('',#1277,#1278,#1279);
#1281=PLANE('',#1280);
#1282=ORIENTED_EDGE('',*,*,#1257,.T.);
#1283=CARTESIAN_POINT('',(0.0,0.0,5.080000000000000));
#1284=DIRECTION('',(0.0,0.0,-1.0));
#1285=DIRECTION('',(1.0,0.0,0.0));
#1286=AXIS2_PLACEMENT_3D('',#1283,#1284,#1285);
#1287=CIRCLE('',#1286,5.500000000000000);
#1288=EDGE_CURVE('',#1241,#1251,#1287,.F.);
#1289=ORIENTED_EDGE('',*,*,#1288,.T.);
#1290=EDGE_LOOP('',(#1282,#1289));
#1291=FACE_OUTER_BOUND('',#1290,.T.);
#1292=ADVANCED_FACE('',(#1291),#1281,.T.);
#1293=CARTESIAN_POINT('',(0.0,0.0,3.140000000000000));
#1294=DIRECTION('',(0.0,0.0,1.0));
#1295=DIRECTION('',(1.0,0.0,0.0));
#1296=AXIS2_PLACEMENT_3D('',#1293,#1294,#1295);
#1297=CYLINDRICAL_SURFACE('',#1296,5.500000000000000);
#1298=ORIENTED_EDGE('',*,*,#1248,.T.);
#1299=CARTESIAN_POINT('',(0.0,0.0,0.600000000000000));
#1300=DIRECTION('',(0.0,0.0,-1.0));
#1301=DIRECTION('',(1.0,0.0,0.0));
#1302=AXIS2_PLACEMENT_3D('',#1299,#1300,#1301);
#1303=CIRCLE('',#1302,5.500000000000000);
#1304=EDGE_CURVE('',#1260,#1243,#1303,.T.);
#1305=ORIENTED_EDGE('',*,*,#1304,.F.);
#1306=ORIENTED_EDGE('',*,*,#1265,.F.);
#1307=ORIENTED_EDGE('',*,*,#1288,.F.);
#1308=EDGE_LOOP('',(#1298,#1305,#1306,#1307));
#1309=FACE_OUTER_BOUND('',#1308,.T.);
#1310=ADVANCED_FACE('',(#1309),#1297,.T.);
#1311=CARTESIAN_POINT('',(0.0,0.0,0.600000000000000));
#1312=DIRECTION('',(0.0,0.0,-1.0));
#1313=DIRECTION('',(-1.0,0.0,0.0));
#1314=AXIS2_PLACEMENT_3D('',#1311,#1312,#1313);
#1315=PLANE('',#1314);
#1316=ORIENTED_EDGE('',*,*,#1272,.T.);
#1317=ORIENTED_EDGE('',*,*,#1304,.T.);
#1318=EDGE_LOOP('',(#1316,#1317));
#1319=FACE_OUTER_BOUND('',#1318,.T.);
#1320=ADVANCED_FACE('',(#1319),#1315,.T.);
#1321=CLOSED_SHELL('',(#1276,#1292,#1310,#1320));
#1322=MANIFOLD_SOLID_BREP('475',#1321);
#1323=STYLED_ITEM('NONE',(#257),#1322);
#1324=CARTESIAN_POINT('',(-4.500000000000041,-0.999999999999997,12.399999999999984));
#1325=CARTESIAN_POINT('',(-5.500000000000051,-0.999999999999997,12.399999999999981));
#1326=CARTESIAN_POINT('',(-4.500000000000037,-0.999999999999997,11.399999999999984));
#1327=CARTESIAN_POINT('',(-5.500000000000047,-0.999999999999997,11.399999999999983));
#1328=CARTESIAN_POINT('',(-4.500000000000036,2.581269E-015,11.399999999999984));
#1329=CARTESIAN_POINT('',(-5.500000000000046,3.086588E-015,11.399999999999981));
#1330=CARTESIAN_POINT('',(-4.500000000000036,1.000000000000002,11.399999999999984));
#1331=CARTESIAN_POINT('',(-5.500000000000045,1.000000000000003,11.399999999999983));
#1332=CARTESIAN_POINT('',(-4.500000000000039,1.000000000000003,12.399999999999984));
#1333=CARTESIAN_POINT('',(-5.500000000000049,1.000000000000003,12.399999999999981));
#1334=CARTESIAN_POINT('',(-4.500000000000043,1.000000000000002,13.399999999999984));
#1335=CARTESIAN_POINT('',(-5.500000000000052,1.000000000000003,13.399999999999981));
#1336=CARTESIAN_POINT('',(-4.500000000000044,2.581269E-015,13.399999999999984));
#1337=CARTESIAN_POINT('',(-5.500000000000053,3.086588E-015,13.399999999999981));
#1338=CARTESIAN_POINT('',(-4.500000000000044,-0.999999999999997,13.399999999999984));
#1339=CARTESIAN_POINT('',(-5.500000000000054,-0.999999999999997,13.399999999999981));
#1340=CARTESIAN_POINT('',(-4.500000000000041,-0.999999999999997,12.399999999999984));
#1341=CARTESIAN_POINT('',(-5.500000000000051,-0.999999999999997,12.399999999999981));
#1349=(BOUNDED_SURFACE()B_SPLINE_SURFACE(1,2,((#1324,#1326,#1328,#1330,#1332,#1334,#1336,#1338,#1340),(#1325,#1327,#1329,#1331,#1333,#1335,#1337,#1339,#1341)),.UNSPECIFIED.,.F.,.T.,.U.)B_SPLINE_SURFACE_WITH_KNOTS((2,2),(3,2,2,2,3),(-5.329071E-015,1.000000000000004),(0.0,1.570796326794897,3.141592653589793,4.712388980384690,6.283185307179586),.UNSPECIFIED.)GEOMETRIC_REPRESENTATION_ITEM()RATIONAL_B_SPLINE_SURFACE(((1.0,0.707106781186548,1.0,0.707106781186548,1.0,0.707106781186548,1.0,0.707106781186548,1.0),(1.0,0.707106781186548,1.0,0.707106781186548,1.0,0.707106781186548,1.0,0.707106781186548,1.0)))REPRESENTATION_ITEM('')SURFACE());
#1350=CARTESIAN_POINT('',(-5.500000000000045,1.000000000000003,12.399999999999981));
#1351=VERTEX_POINT('',#1350);
#1352=CARTESIAN_POINT('',(-4.500000000000045,1.000000000000002,12.399999999999984));
#1353=VERTEX_POINT('',#1352);
#1354=CARTESIAN_POINT('',(-5.500000000000044,1.000000000000003,12.399999999999981));
#1355=DIRECTION('',(1.0,0.0,0.0));
#1356=VECTOR('',#1355,0.999999999999999);
#1357=LINE('',#1354,#1356);
#1358=EDGE_CURVE('',#1351,#1353,#1357,.T.);
#1359=ORIENTED_EDGE('',*,*,#1358,.F.);
#1360=CARTESIAN_POINT('',(-5.500000000000046,-0.999999999999997,12.399999999999981));
#1361=VERTEX_POINT('',#1360);
#1362=CARTESIAN_POINT('',(-5.500000000000045,3.080869E-015,12.399999999999981));
#1363=DIRECTION('',(-1.0,0.0,0.0));
#1364=DIRECTION('',(0.0,1.0,0.0));
#1365=AXIS2_PLACEMENT_3D('',#1362,#1363,#1364);
#1366=CIRCLE('',#1365,1.0);
#1367=EDGE_CURVE('',#1361,#1351,#1366,.T.);
#1368=ORIENTED_EDGE('',*,*,#1367,.F.);
#1369=CARTESIAN_POINT('',(-4.500000000000046,-0.999999999999997,12.399999999999984));
#1370=VERTEX_POINT('',#1369);
#1371=CARTESIAN_POINT('',(-5.500000000000046,-0.999999999999997,12.399999999999981));
#1372=DIRECTION('',(1.0,0.0,0.0));
#1373=VECTOR('',#1372,1.0);
#1374=LINE('',#1371,#1373);
#1375=EDGE_CURVE('',#1361,#1370,#1374,.T.);
#1376=ORIENTED_EDGE('',*,*,#1375,.T.);
#1377=CARTESIAN_POINT('',(-4.500000000000045,2.581269E-015,12.399999999999984));
#1378=DIRECTION('',(1.0,0.0,0.0));
#1379=DIRECTION('',(0.0,1.0,0.0));
#1380=AXIS2_PLACEMENT_3D('',#1377,#1378,#1379);
#1381=CIRCLE('',#1380,1.0);
#1382=EDGE_CURVE('',#1353,#1370,#1381,.T.);
#1383=ORIENTED_EDGE('',*,*,#1382,.F.);
#1384=EDGE_LOOP('',(#1359,#1368,#1376,#1383));
#1385=FACE_OUTER_BOUND('',#1384,.T.);
#1386=ADVANCED_FACE('',(#1385),#1349,.T.);
#1387=CARTESIAN_POINT('',(-4.500000000000042,-0.999999999999997,12.399999999999984));
#1388=CARTESIAN_POINT('',(-5.500000000000052,-0.999999999999997,12.399999999999981));
#1389=CARTESIAN_POINT('',(-4.500000000000038,-0.999999999999997,11.399999999999984));
#1390=CARTESIAN_POINT('',(-5.500000000000048,-0.999999999999997,11.399999999999983));
#1391=CARTESIAN_POINT('',(-4.500000000000037,2.581269E-015,11.399999999999984));
#1392=CARTESIAN_POINT('',(-5.500000000000048,3.086588E-015,11.399999999999981));
#1393=CARTESIAN_POINT('',(-4.500000000000036,1.000000000000002,11.399999999999984));
#1394=CARTESIAN_POINT('',(-5.500000000000048,1.000000000000003,11.399999999999983));
#1395=CARTESIAN_POINT('',(-4.500000000000040,1.000000000000003,12.399999999999984));
#1396=CARTESIAN_POINT('',(-5.500000000000052,1.000000000000003,12.399999999999981));
#1397=CARTESIAN_POINT('',(-4.500000000000044,1.000000000000002,13.399999999999984));
#1398=CARTESIAN_POINT('',(-5.500000000000055,1.000000000000003,13.399999999999981));
#1399=CARTESIAN_POINT('',(-4.500000000000044,2.581269E-015,13.399999999999984));
#1400=CARTESIAN_POINT('',(-5.500000000000055,3.086588E-015,13.399999999999981));
#1401=CARTESIAN_POINT('',(-4.500000000000045,-0.999999999999997,13.399999999999984));
#1402=CARTESIAN_POINT('',(-5.500000000000055,-0.999999999999997,13.399999999999981));
#1403=CARTESIAN_POINT('',(-4.500000000000042,-0.999999999999997,12.399999999999984));
#1404=CARTESIAN_POINT('',(-5.500000000000052,-0.999999999999997,12.399999999999981));
#1412=(BOUNDED_SURFACE()B_SPLINE_SURFACE(1,2,((#1387,#1389,#1391,#1393,#1395,#1397,#1399,#1401,#1403),(#1388,#1390,#1392,#1394,#1396,#1398,#1400,#1402,#1404)),.UNSPECIFIED.,.F.,.T.,.U.)B_SPLINE_SURFACE_WITH_KNOTS((2,2),(3,2,2,2,3),(-4.440892E-015,1.000000000000005),(0.0,1.570796326794897,3.141592653589793,4.712388980384690,6.283185307179586),.UNSPECIFIED.)GEOMETRIC_REPRESENTATION_ITEM()RATIONAL_B_SPLINE_SURFACE(((1.0,0.707106781186548,1.0,0.707106781186548,1.0,0.707106781186548,1.0,0.707106781186548,1.0),(1.0,0.707106781186548,1.0,0.707106781186548,1.0,0.707106781186548,1.0,0.707106781186548,1.0)))REPRESENTATION_ITEM('')SURFACE());
#1413=ORIENTED_EDGE('',*,*,#1358,.T.);
#1414=CARTESIAN_POINT('',(-4.500000000000045,2.581269E-015,12.399999999999984));
#1415=DIRECTION('',(1.0,0.0,0.0));
#1416=DIRECTION('',(0.0,1.0,0.0));
#1417=AXIS2_PLACEMENT_3D('',#1414,#1415,#1416);
#1418=CIRCLE('',#1417,1.0);
#1419=EDGE_CURVE('',#1370,#1353,#1418,.T.);
#1420=ORIENTED_EDGE('',*,*,#1419,.F.);
#1421=ORIENTED_EDGE('',*,*,#1375,.F.);
#1422=CARTESIAN_POINT('',(-5.500000000000045,3.080869E-015,12.399999999999981));
#1423=DIRECTION('',(-1.0,0.0,0.0));
#1424=DIRECTION('',(0.0,1.0,0.0));
#1425=AXIS2_PLACEMENT_3D('',#1422,#1423,#1424);
#1426=CIRCLE('',#1425,1.0);
#1427=EDGE_CURVE('',#1351,#1361,#1426,.T.);
#1428=ORIENTED_EDGE('',*,*,#1427,.F.);
#1429=EDGE_LOOP('',(#1413,#1420,#1421,#1428));
#1430=FACE_OUTER_BOUND('',#1429,.T.);
#1431=ADVANCED_FACE('',(#1430),#1412,.T.);
#1432=CARTESIAN_POINT('',(-5.500000000000048,1.000000000000003,13.399999999999981));
#1433=CARTESIAN_POINT('',(-5.500000000000041,1.000000000000003,11.399999999999981));
#1434=CARTESIAN_POINT('',(-5.500000000000049,-0.999999999999997,13.399999999999981));
#1435=CARTESIAN_POINT('',(-5.500000000000041,-0.999999999999997,11.399999999999981));
#1436=B_SPLINE_SURFACE_WITH_KNOTS('',1,1,((#1432,#1434),(#1433,#1435)),.UNSPECIFIED.,.F.,.F.,.U.,(2,2),(2,2),(0.0,2.0),(0.0,2.0),.UNSPECIFIED.);
#1437=ORIENTED_EDGE('',*,*,#1427,.T.);
#1438=ORIENTED_EDGE('',*,*,#1367,.T.);
#1439=EDGE_LOOP('',(#1437,#1438));
#1440=FACE_OUTER_BOUND('',#1439,.T.);
#1441=ADVANCED_FACE('',(#1440),#1436,.T.);
#1442=CARTESIAN_POINT('',(-4.500000000000048,1.000000000000003,13.399999999999984));
#1443=CARTESIAN_POINT('',(-4.500000000000041,1.000000000000003,11.399999999999984));
#1444=CARTESIAN_POINT('',(-4.500000000000049,-0.999999999999997,13.399999999999984));
#1445=CARTESIAN_POINT('',(-4.500000000000041,-0.999999999999997,11.399999999999984));
#1446=B_SPLINE_SURFACE_WITH_KNOTS('',1,1,((#1442,#1444),(#1443,#1445)),.UNSPECIFIED.,.F.,.F.,.U.,(2,2),(2,2),(0.0,2.0),(0.0,2.0),.UNSPECIFIED.);
#1447=ORIENTED_EDGE('',*,*,#1382,.T.);
#1448=ORIENTED_EDGE('',*,*,#1419,.T.);
#1449=EDGE_LOOP('',(#1447,#1448));
#1450=FACE_OUTER_BOUND('',#1449,.T.);
#1451=ADVANCED_FACE('',(#1450),#1446,.F.);
#1452=CLOSED_SHELL('',(#1386,#1431,#1441,#1451));
#1453=MANIFOLD_SOLID_BREP('3D3',#1452);
#1454=STYLED_ITEM('NONE',(#257),#1453);
#1455=CARTESIAN_POINT('',(4.500000000000000,2.775558E-017,12.399999999999999));
#1456=DIRECTION('',(1.0,-6.123032E-017,0.0));
#1457=DIRECTION('',(0.0,1.0,0.0));
#1458=AXIS2_PLACEMENT_3D('',#1455,#1456,#1457);
#1459=CYLINDRICAL_SURFACE('',#1458,1.0);
#1460=CARTESIAN_POINT('',(5.500000000000000,1.000000000000000,12.399999999999999));
#1461=VERTEX_POINT('',#1460);
#1462=CARTESIAN_POINT('',(4.500000000000000,1.0,12.399999999999999));
#1463=VERTEX_POINT('',#1462);
#1464=CARTESIAN_POINT('',(5.500000000000000,1.000000000000000,12.399999999999999));
#1465=DIRECTION('',(-1.0,0.0,0.0));
#1466=VECTOR('',#1465,1.0);
#1467=LINE('',#1464,#1466);
#1468=EDGE_CURVE('',#1461,#1463,#1467,.T.);
#1469=ORIENTED_EDGE('',*,*,#1468,.F.);
#1470=CARTESIAN_POINT('',(5.500000000000000,-1.0,12.399999999999999));
#1471=VERTEX_POINT('',#1470);
#1472=CARTESIAN_POINT('',(5.500000000000000,-5.551115E-017,12.399999999999999));
#1473=DIRECTION('',(-1.0,0.0,0.0));
#1474=DIRECTION('',(0.0,1.0,0.0));
#1475=AXIS2_PLACEMENT_3D('',#1472,#1473,#1474);
#1476=CIRCLE('',#1475,1.0);
#1477=EDGE_CURVE('',#1461,#1471,#1476,.T.);
#1478=ORIENTED_EDGE('',*,*,#1477,.T.);
#1479=CARTESIAN_POINT('',(4.500000000000000,-1.0,12.399999999999999));
#1480=VERTEX_POINT('',#1479);
#1481=CARTESIAN_POINT('',(5.500000000000000,-1.0,12.399999999999999));
#1482=DIRECTION('',(-1.0,0.0,0.0));
#1483=VECTOR('',#1482,1.0);
#1484=LINE('',#1481,#1483);
#1485=EDGE_CURVE('',#1471,#1480,#1484,.T.);
#1486=ORIENTED_EDGE('',*,*,#1485,.T.);
#1487=CARTESIAN_POINT('',(4.500000000000000,2.775558E-017,12.399999999999999));
#1488=DIRECTION('',(1.0,0.0,0.0));
#1489=DIRECTION('',(0.0,1.0,0.0));
#1490=AXIS2_PLACEMENT_3D('',#1487,#1488,#1489);
#1491=CIRCLE('',#1490,1.0);
#1492=EDGE_CURVE('',#1480,#1463,#1491,.T.);
#1493=ORIENTED_EDGE('',*,*,#1492,.T.);
#1494=EDGE_LOOP('',(#1469,#1478,#1486,#1493));
#1495=FACE_OUTER_BOUND('',#1494,.T.);
#1496=ADVANCED_FACE('',(#1495),#1459,.T.);
#1497=CARTESIAN_POINT('',(4.500000000000000,2.775558E-017,12.399999999999999));
#1498=DIRECTION('',(1.0,-6.123032E-017,0.0));
#1499=DIRECTION('',(0.0,1.0,0.0));
#1500=AXIS2_PLACEMENT_3D('',#1497,#1498,#1499);
#1501=CYLINDRICAL_SURFACE('',#1500,1.0);
#1502=ORIENTED_EDGE('',*,*,#1468,.T.);
#1503=CARTESIAN_POINT('',(4.500000000000000,2.775558E-017,12.399999999999999));
#1504=DIRECTION('',(1.0,0.0,0.0));
#1505=DIRECTION('',(0.0,1.0,0.0));
#1506=AXIS2_PLACEMENT_3D('',#1503,#1504,#1505);
#1507=CIRCLE('',#1506,1.0);
#1508=EDGE_CURVE('',#1463,#1480,#1507,.T.);
#1509=ORIENTED_EDGE('',*,*,#1508,.T.);
#1510=ORIENTED_EDGE('',*,*,#1485,.F.);
#1511=CARTESIAN_POINT('',(5.500000000000000,-5.551115E-017,12.399999999999999));
#1512=DIRECTION('',(-1.0,0.0,0.0));
#1513=DIRECTION('',(0.0,1.0,0.0));
#1514=AXIS2_PLACEMENT_3D('',#1511,#1512,#1513);
#1515=CIRCLE('',#1514,1.0);
#1516=EDGE_CURVE('',#1471,#1461,#1515,.T.);
#1517=ORIENTED_EDGE('',*,*,#1516,.T.);
#1518=EDGE_LOOP('',(#1502,#1509,#1510,#1517));
#1519=FACE_OUTER_BOUND('',#1518,.T.);
#1520=ADVANCED_FACE('',(#1519),#1501,.T.);
#1521=CARTESIAN_POINT('',(5.500000000000000,-5.551115E-017,12.399999999999999));
#1522=DIRECTION('',(1.0,0.0,0.0));
#1523=DIRECTION('',(0.0,0.0,-1.0));
#1524=AXIS2_PLACEMENT_3D('',#1521,#1522,#1523);
#1525=PLANE('',#1524);
#1526=ORIENTED_EDGE('',*,*,#1477,.F.);
#1527=ORIENTED_EDGE('',*,*,#1516,.F.);
#1528=EDGE_LOOP('',(#1526,#1527));
#1529=FACE_OUTER_BOUND('',#1528,.T.);
#1530=ADVANCED_FACE('',(#1529),#1525,.T.);
#1531=CARTESIAN_POINT('',(4.500000000000000,2.775558E-017,12.399999999999999));
#1532=DIRECTION('',(1.0,0.0,0.0));
#1533=DIRECTION('',(0.0,0.0,-1.0));
#1534=AXIS2_PLACEMENT_3D('',#1531,#1532,#1533);
#1535=PLANE('',#1534);
#1536=ORIENTED_EDGE('',*,*,#1508,.F.);
#1537=ORIENTED_EDGE('',*,*,#1492,.F.);
#1538=EDGE_LOOP('',(#1536,#1537));
#1539=FACE_OUTER_BOUND('',#1538,.T.);
#1540=ADVANCED_FACE('',(#1539),#1535,.F.);
#1541=CLOSED_SHELL('',(#1496,#1520,#1530,#1540));
#1542=MANIFOLD_SOLID_BREP('3D1',#1541);
#1543=STYLED_ITEM('NONE',(#257),#1542);
#1544=CARTESIAN_POINT('',(0.0,-2.620126E-014,13.100000000000001));
#1545=DIRECTION('',(0.0,0.0,-1.0));
#1546=DIRECTION('',(1.0,0.0,0.0));
#1547=AXIS2_PLACEMENT_3D('',#1544,#1545,#1546);
#1548=CYLINDRICAL_SURFACE('',#1547,1.0);
#1549=CARTESIAN_POINT('',(1.0,-2.620126E-014,8.399999999999999));
#1550=VERTEX_POINT('',#1549);
#1551=CARTESIAN_POINT('',(1.0,-2.620126E-014,13.100000000000001));
#1552=VERTEX_POINT('',#1551);
#1553=CARTESIAN_POINT('',(1.0,-2.620126E-014,8.399999999999999));
#1554=DIRECTION('',(0.0,0.0,1.0));
#1555=VECTOR('',#1554,4.700000000000003);
#1556=LINE('',#1553,#1555);
#1557=EDGE_CURVE('',#1550,#1552,#1556,.T.);
#1558=ORIENTED_EDGE('',*,*,#1557,.F.);
#1559=CARTESIAN_POINT('',(-1.0,-2.607880E-014,8.399999999999999));
#1560=VERTEX_POINT('',#1559);
#1561=CARTESIAN_POINT('',(0.0,-2.620126E-014,8.399999999999999));
#1562=DIRECTION('',(0.0,0.0,1.0));
#1563=DIRECTION('',(1.0,0.0,0.0));
#1564=AXIS2_PLACEMENT_3D('',#1561,#1562,#1563);
#1565=CIRCLE('',#1564,1.0);
#1566=EDGE_CURVE('',#1550,#1560,#1565,.T.);
#1567=ORIENTED_EDGE('',*,*,#1566,.T.);
#1568=CARTESIAN_POINT('',(-1.0,-2.607880E-014,13.100000000000001));
#1569=VERTEX_POINT('',#1568);
#1570=CARTESIAN_POINT('',(-1.0,-2.607880E-014,8.399999999999999));
#1571=DIRECTION('',(0.0,0.0,1.0));
#1572=VECTOR('',#1571,4.700000000000003);
#1573=LINE('',#1570,#1572);
#1574=EDGE_CURVE('',#1560,#1569,#1573,.T.);
#1575=ORIENTED_EDGE('',*,*,#1574,.T.);
#1576=CARTESIAN_POINT('',(0.0,-2.620126E-014,13.100000000000001));
#1577=DIRECTION('',(0.0,0.0,1.0));
#1578=DIRECTION('',(1.0,0.0,0.0));
#1579=AXIS2_PLACEMENT_3D('',#1576,#1577,#1578);
#1580=CIRCLE('',#1579,1.0);
#1581=EDGE_CURVE('',#1552,#1569,#1580,.T.);
#1582=ORIENTED_EDGE('',*,*,#1581,.F.);
#1583=EDGE_LOOP('',(#1558,#1567,#1575,#1582));
#1584=FACE_OUTER_BOUND('',#1583,.T.);
#1585=ADVANCED_FACE('',(#1584),#1548,.T.);
#1586=CARTESIAN_POINT('',(0.0,-2.620126E-014,13.100000000000001));
#1587=DIRECTION('',(0.0,0.0,-1.0));
#1588=DIRECTION('',(1.0,0.0,0.0));
#1589=AXIS2_PLACEMENT_3D('',#1586,#1587,#1588);
#1590=CYLINDRICAL_SURFACE('',#1589,0.400000000000000);
#1591=CARTESIAN_POINT('',(0.400000000000000,-2.620126E-014,13.100000000000001));
#1592=VERTEX_POINT('',#1591);
#1593=CARTESIAN_POINT('',(0.400000000000000,-2.620126E-014,8.399999999999999));
#1594=VERTEX_POINT('',#1593);
#1595=CARTESIAN_POINT('',(0.400000000000000,-2.620126E-014,13.100000000000001));
#1596=DIRECTION('',(0.0,0.0,-1.0));
#1597=VECTOR('',#1596,4.700000000000003);
#1598=LINE('',#1595,#1597);
#1599=EDGE_CURVE('',#1592,#1594,#1598,.T.);
#1600=ORIENTED_EDGE('',*,*,#1599,.F.);
#1601=CARTESIAN_POINT('',(-0.400000000000000,-2.615228E-014,13.100000000000001));
#1602=VERTEX_POINT('',#1601);
#1603=CARTESIAN_POINT('',(0.0,-2.620126E-014,13.100000000000001));
#1604=DIRECTION('',(0.0,0.0,-1.0));
#1605=DIRECTION('',(1.0,0.0,0.0));
#1606=AXIS2_PLACEMENT_3D('',#1603,#1604,#1605);
#1607=CIRCLE('',#1606,0.400000000000000);
#1608=EDGE_CURVE('',#1602,#1592,#1607,.T.);
#1609=ORIENTED_EDGE('',*,*,#1608,.F.);
#1610=CARTESIAN_POINT('',(-0.400000000000000,-2.615228E-014,8.399999999999999));
#1611=VERTEX_POINT('',#1610);
#1612=CARTESIAN_POINT('',(-0.400000000000000,-2.615228E-014,13.100000000000001));
#1613=DIRECTION('',(0.0,0.0,-1.0));
#1614=VECTOR('',#1613,4.700000000000003);
#1615=LINE('',#1612,#1614);
#1616=EDGE_CURVE('',#1602,#1611,#1615,.T.);
#1617=ORIENTED_EDGE('',*,*,#1616,.T.);
#1618=CARTESIAN_POINT('',(0.0,-2.620126E-014,8.399999999999999));
#1619=DIRECTION('',(0.0,0.0,1.0));
#1620=DIRECTION('',(1.0,0.0,0.0));
#1621=AXIS2_PLACEMENT_3D('',#1618,#1619,#1620);
#1622=CIRCLE('',#1621,0.400000000000000);
#1623=EDGE_CURVE('',#1594,#1611,#1622,.T.);
#1624=ORIENTED_EDGE('',*,*,#1623,.F.);
#1625=EDGE_LOOP('',(#1600,#1609,#1617,#1624));
#1626=FACE_OUTER_BOUND('',#1625,.T.);
#1627=ADVANCED_FACE('',(#1626),#1590,.F.);
#1628=CARTESIAN_POINT('',(0.0,-2.620126E-014,13.100000000000001));
#1629=DIRECTION('',(0.0,0.0,-1.0));
#1630=DIRECTION('',(1.0,0.0,0.0));
#1631=AXIS2_PLACEMENT_3D('',#1628,#1629,#1630);
#1632=CYLINDRICAL_SURFACE('',#1631,0.400000000000000);
#1633=ORIENTED_EDGE('',*,*,#1599,.T.);
#1634=CARTESIAN_POINT('',(0.0,-2.620126E-014,8.399999999999999));
#1635=DIRECTION('',(0.0,0.0,1.0));
#1636=DIRECTION('',(1.0,0.0,0.0));
#1637=AXIS2_PLACEMENT_3D('',#1634,#1635,#1636);
#1638=CIRCLE('',#1637,0.400000000000000);
#1639=EDGE_CURVE('',#1611,#1594,#1638,.T.);
#1640=ORIENTED_EDGE('',*,*,#1639,.F.);
#1641=ORIENTED_EDGE('',*,*,#1616,.F.);
#1642=CARTESIAN_POINT('',(0.0,-2.620126E-014,13.100000000000001));
#1643=DIRECTION('',(0.0,0.0,-1.0));
#1644=DIRECTION('',(1.0,0.0,0.0));
#1645=AXIS2_PLACEMENT_3D('',#1642,#1643,#1644);
#1646=CIRCLE('',#1645,0.400000000000000);
#1647=EDGE_CURVE('',#1592,#1602,#1646,.T.);
#1648=ORIENTED_EDGE('',*,*,#1647,.F.);
#1649=EDGE_LOOP('',(#1633,#1640,#1641,#1648));
#1650=FACE_OUTER_BOUND('',#1649,.T.);
#1651=ADVANCED_FACE('',(#1650),#1632,.F.);
#1652=CARTESIAN_POINT('',(0.0,-2.620126E-014,13.100000000000001));
#1653=DIRECTION('',(0.0,0.0,-1.0));
#1654=DIRECTION('',(1.0,0.0,0.0));
#1655=AXIS2_PLACEMENT_3D('',#1652,#1653,#1654);
#1656=CYLINDRICAL_SURFACE('',#1655,1.0);
#1657=ORIENTED_EDGE('',*,*,#1557,.T.);
#1658=CARTESIAN_POINT('',(0.0,-2.620126E-014,13.100000000000001));
#1659=DIRECTION('',(0.0,0.0,1.0));
#1660=DIRECTION('',(1.0,0.0,0.0));
#1661=AXIS2_PLACEMENT_3D('',#1658,#1659,#1660);
#1662=CIRCLE('',#1661,1.0);
#1663=EDGE_CURVE('',#1569,#1552,#1662,.T.);
#1664=ORIENTED_EDGE('',*,*,#1663,.F.);
#1665=ORIENTED_EDGE('',*,*,#1574,.F.);
#1666=CARTESIAN_POINT('',(0.0,-2.620126E-014,8.399999999999999));
#1667=DIRECTION('',(0.0,0.0,1.0));
#1668=DIRECTION('',(1.0,0.0,0.0));
#1669=AXIS2_PLACEMENT_3D('',#1666,#1667,#1668);
#1670=CIRCLE('',#1669,1.0);
#1671=EDGE_CURVE('',#1560,#1550,#1670,.T.);
#1672=ORIENTED_EDGE('',*,*,#1671,.T.);
#1673=EDGE_LOOP('',(#1657,#1664,#1665,#1672));
#1674=FACE_OUTER_BOUND('',#1673,.T.);
#1675=ADVANCED_FACE('',(#1674),#1656,.T.);
#1676=CARTESIAN_POINT('',(0.0,-2.620126E-014,8.399999999999999));
#1677=DIRECTION('',(0.0,0.0,1.0));
#1678=DIRECTION('',(1.0,0.0,0.0));
#1679=AXIS2_PLACEMENT_3D('',#1676,#1677,#1678);
#1680=PLANE('',#1679);
#1681=ORIENTED_EDGE('',*,*,#1566,.F.);
#1682=ORIENTED_EDGE('',*,*,#1671,.F.);
#1683=EDGE_LOOP('',(#1681,#1682));
#1684=FACE_OUTER_BOUND('',#1683,.T.);
#1685=ORIENTED_EDGE('',*,*,#1623,.T.);
#1686=ORIENTED_EDGE('',*,*,#1639,.T.);
#1687=EDGE_LOOP('',(#1685,#1686));
#1688=FACE_BOUND('',#1687,.T.);
#1689=ADVANCED_FACE('',(#1684,#1688),#1680,.F.);
#1690=CARTESIAN_POINT('',(0.0,-2.620126E-014,13.100000000000001));
#1691=DIRECTION('',(0.0,0.0,1.0));
#1692=DIRECTION('',(1.0,0.0,0.0));
#1693=AXIS2_PLACEMENT_3D('',#1690,#1691,#1692);
#1694=PLANE('',#1693);
#1695=ORIENTED_EDGE('',*,*,#1581,.T.);
#1696=ORIENTED_EDGE('',*,*,#1663,.T.);
#1697=EDGE_LOOP('',(#1695,#1696));
#1698=FACE_OUTER_BOUND('',#1697,.T.);
#1699=ORIENTED_EDGE('',*,*,#1647,.T.);
#1700=ORIENTED_EDGE('',*,*,#1608,.T.);
#1701=EDGE_LOOP('',(#1699,#1700));
#1702=FACE_BOUND('',#1701,.T.);
#1703=ADVANCED_FACE('',(#1698,#1702),#1694,.T.);
#1704=CLOSED_SHELL('',(#1585,#1627,#1651,#1675,#1689,#1703));
#1705=MANIFOLD_SOLID_BREP('3C9',#1704);
#1706=COLOUR_RGB('40',1.0,0.750000000000000,0.0);
#1707=SURFACE_STYLE_USAGE(.BOTH.,#1708);
#1708=SURFACE_SIDE_STYLE('NONE',(#1709));
#1709=SURFACE_STYLE_FILL_AREA(#1710);
#1710=FILL_AREA_STYLE('NONE',(#1711));
#1711=FILL_AREA_STYLE_COLOUR('NONE',#1706);
#1712=PRESENTATION_STYLE_ASSIGNMENT((#1707));
#1713=STYLED_ITEM('NONE',(#1712),#1705);
#1714=CARTESIAN_POINT('',(0.0,-2.386980E-015,13.100000000000001));
#1715=DIRECTION('',(0.0,-4.440892E-016,-1.0));
#1716=DIRECTION('',(-1.0,0.0,0.0));
#1717=AXIS2_PLACEMENT_3D('',#1714,#1715,#1716);
#1718=CYLINDRICAL_SURFACE('',#1717,2.500000000000000);
#1719=CARTESIAN_POINT('',(-2.500000000000000,-4.496403E-015,8.399999999999999));
#1720=VERTEX_POINT('',#1719);
#1721=CARTESIAN_POINT('',(-2.500000000000000,-2.386980E-015,13.100000000000001));
#1722=VERTEX_POINT('',#1721);
#1723=CARTESIAN_POINT('',(-2.500000000000000,-4.474199E-015,8.399999999999999));
#1724=DIRECTION('',(0.0,0.0,1.0));
#1725=VECTOR('',#1724,4.700000000000003);
#1726=LINE('',#1723,#1725);
#1727=EDGE_CURVE('',#1720,#1722,#1726,.T.);
#1728=ORIENTED_EDGE('',*,*,#1727,.F.);
#1729=CARTESIAN_POINT('',(2.500000000000000,-4.780350E-015,8.399999999999999));
#1730=VERTEX_POINT('',#1729);
#1731=CARTESIAN_POINT('',(0.0,-4.496403E-015,8.399999999999999));
#1732=DIRECTION('',(0.0,0.0,1.0));
#1733=DIRECTION('',(-1.0,0.0,0.0));
#1734=AXIS2_PLACEMENT_3D('',#1731,#1732,#1733);
#1735=CIRCLE('',#1734,2.500000000000000);
#1736=EDGE_CURVE('',#1720,#1730,#1735,.T.);
#1737=ORIENTED_EDGE('',*,*,#1736,.T.);
#1738=CARTESIAN_POINT('',(2.500000000000000,-2.693131E-015,13.100000000000001));
#1739=VERTEX_POINT('',#1738);
#1740=CARTESIAN_POINT('',(2.500000000000000,-4.780350E-015,8.399999999999999));
#1741=DIRECTION('',(0.0,0.0,1.0));
#1742=VECTOR('',#1741,4.700000000000003);
#1743=LINE('',#1740,#1742);
#1744=EDGE_CURVE('',#1730,#1739,#1743,.T.);
#1745=ORIENTED_EDGE('',*,*,#1744,.T.);
#1746=CARTESIAN_POINT('',(0.0,-2.386980E-015,13.100000000000001));
#1747=DIRECTION('',(0.0,0.0,-1.0));
#1748=DIRECTION('',(-1.0,0.0,0.0));
#1749=AXIS2_PLACEMENT_3D('',#1746,#1747,#1748);
#1750=CIRCLE('',#1749,2.500000000000000);
#1751=EDGE_CURVE('',#1739,#1722,#1750,.T.);
#1752=ORIENTED_EDGE('',*,*,#1751,.T.);
#1753=EDGE_LOOP('',(#1728,#1737,#1745,#1752));
#1754=FACE_OUTER_BOUND('',#1753,.T.);
#1755=ADVANCED_FACE('',(#1754),#1718,.T.);
#1756=CARTESIAN_POINT('',(0.0,-1.429412E-014,13.100000000000001));
#1757=DIRECTION('',(0.0,0.0,-1.0));
#1758=DIRECTION('',(1.0,0.0,0.0));
#1759=AXIS2_PLACEMENT_3D('',#1756,#1757,#1758);
#1760=CYLINDRICAL_SURFACE('',#1759,1.0);
#1761=CARTESIAN_POINT('',(1.0,-1.429412E-014,13.100000000000001));
#1762=VERTEX_POINT('',#1761);
#1763=CARTESIAN_POINT('',(1.0,-1.429412E-014,8.399999999999999));
#1764=VERTEX_POINT('',#1763);
#1765=CARTESIAN_POINT('',(1.0,-1.429412E-014,13.100000000000001));
#1766=DIRECTION('',(0.0,0.0,-1.0));
#1767=VECTOR('',#1766,4.700000000000003);
#1768=LINE('',#1765,#1767);
#1769=EDGE_CURVE('',#1762,#1764,#1768,.T.);
#1770=ORIENTED_EDGE('',*,*,#1769,.F.);
#1771=CARTESIAN_POINT('',(-1.0,-1.417166E-014,13.100000000000001));
#1772=VERTEX_POINT('',#1771);
#1773=CARTESIAN_POINT('',(0.0,-1.429412E-014,13.100000000000001));
#1774=DIRECTION('',(0.0,0.0,-1.0));
#1775=DIRECTION('',(1.0,0.0,0.0));
#1776=AXIS2_PLACEMENT_3D('',#1773,#1774,#1775);
#1777=CIRCLE('',#1776,1.0);
#1778=EDGE_CURVE('',#1772,#1762,#1777,.T.);
#1779=ORIENTED_EDGE('',*,*,#1778,.F.);
#1780=CARTESIAN_POINT('',(-1.0,-1.417166E-014,8.399999999999999));
#1781=VERTEX_POINT('',#1780);
#1782=CARTESIAN_POINT('',(-1.0,-1.417166E-014,13.100000000000001));
#1783=DIRECTION('',(0.0,0.0,-1.0));
#1784=VECTOR('',#1783,4.700000000000003);
#1785=LINE('',#1782,#1784);
#1786=EDGE_CURVE('',#1772,#1781,#1785,.T.);
#1787=ORIENTED_EDGE('',*,*,#1786,.T.);
#1788=CARTESIAN_POINT('',(0.0,-1.429412E-014,8.399999999999999));
#1789=DIRECTION('',(0.0,0.0,1.0));
#1790=DIRECTION('',(1.0,0.0,0.0));
#1791=AXIS2_PLACEMENT_3D('',#1788,#1789,#1790);
#1792=CIRCLE('',#1791,1.0);
#1793=EDGE_CURVE('',#1764,#1781,#1792,.T.);
#1794=ORIENTED_EDGE('',*,*,#1793,.F.);
#1795=EDGE_LOOP('',(#1770,#1779,#1787,#1794));
#1796=FACE_OUTER_BOUND('',#1795,.T.);
#1797=ADVANCED_FACE('',(#1796),#1760,.F.);
#1798=CARTESIAN_POINT('',(0.0,-1.429412E-014,13.100000000000001));
#1799=DIRECTION('',(0.0,0.0,-1.0));
#1800=DIRECTION('',(1.0,0.0,0.0));
#1801=AXIS2_PLACEMENT_3D('',#1798,#1799,#1800);
#1802=CYLINDRICAL_SURFACE('',#1801,1.0);
#1803=ORIENTED_EDGE('',*,*,#1769,.T.);
#1804=CARTESIAN_POINT('',(0.0,-1.429412E-014,8.399999999999999));
#1805=DIRECTION('',(0.0,0.0,1.0));
#1806=DIRECTION('',(1.0,0.0,0.0));
#1807=AXIS2_PLACEMENT_3D('',#1804,#1805,#1806);
#1808=CIRCLE('',#1807,1.0);
#1809=EDGE_CURVE('',#1781,#1764,#1808,.T.);
#1810=ORIENTED_EDGE('',*,*,#1809,.F.);
#1811=ORIENTED_EDGE('',*,*,#1786,.F.);
#1812=CARTESIAN_POINT('',(0.0,-1.429412E-014,13.100000000000001));
#1813=DIRECTION('',(0.0,0.0,-1.0));
#1814=DIRECTION('',(1.0,0.0,0.0));
#1815=AXIS2_PLACEMENT_3D('',#1812,#1813,#1814);
#1816=CIRCLE('',#1815,1.0);
#1817=EDGE_CURVE('',#1762,#1772,#1816,.T.);
#1818=ORIENTED_EDGE('',*,*,#1817,.F.);
#1819=EDGE_LOOP('',(#1803,#1810,#1811,#1818));
#1820=FACE_OUTER_BOUND('',#1819,.T.);
#1821=ADVANCED_FACE('',(#1820),#1802,.F.);
#1822=CARTESIAN_POINT('',(0.0,-2.386980E-015,13.100000000000001));
#1823=DIRECTION('',(0.0,-4.440892E-016,-1.0));
#1824=DIRECTION('',(-1.0,0.0,0.0));
#1825=AXIS2_PLACEMENT_3D('',#1822,#1823,#1824);
#1826=CYLINDRICAL_SURFACE('',#1825,2.500000000000000);
#1827=ORIENTED_EDGE('',*,*,#1727,.T.);
#1828=CARTESIAN_POINT('',(0.0,-2.386980E-015,13.100000000000001));
#1829=DIRECTION('',(0.0,0.0,-1.0));
#1830=DIRECTION('',(-1.0,0.0,0.0));
#1831=AXIS2_PLACEMENT_3D('',#1828,#1829,#1830);
#1832=CIRCLE('',#1831,2.500000000000000);
#1833=EDGE_CURVE('',#1722,#1739,#1832,.T.);
#1834=ORIENTED_EDGE('',*,*,#1833,.T.);
#1835=ORIENTED_EDGE('',*,*,#1744,.F.);
#1836=CARTESIAN_POINT('',(0.0,-4.496403E-015,8.399999999999999));
#1837=DIRECTION('',(0.0,0.0,1.0));
#1838=DIRECTION('',(-1.0,0.0,0.0));
#1839=AXIS2_PLACEMENT_3D('',#1836,#1837,#1838);
#1840=CIRCLE('',#1839,2.500000000000000);
#1841=EDGE_CURVE('',#1730,#1720,#1840,.T.);
#1842=ORIENTED_EDGE('',*,*,#1841,.T.);
#1843=EDGE_LOOP('',(#1827,#1834,#1835,#1842));
#1844=FACE_OUTER_BOUND('',#1843,.T.);
#1845=ADVANCED_FACE('',(#1844),#1826,.T.);
#1846=CARTESIAN_POINT('',(0.0,-4.496403E-015,8.399999999999999));
#1847=DIRECTION('',(0.0,0.0,-1.0));
#1848=DIRECTION('',(-1.0,0.0,0.0));
#1849=AXIS2_PLACEMENT_3D('',#1846,#1847,#1848);
#1850=PLANE('',#1849);
#1851=ORIENTED_EDGE('',*,*,#1736,.F.);
#1852=ORIENTED_EDGE('',*,*,#1841,.F.);
#1853=EDGE_LOOP('',(#1851,#1852));
#1854=FACE_OUTER_BOUND('',#1853,.T.);
#1855=ORIENTED_EDGE('',*,*,#1793,.T.);
#1856=ORIENTED_EDGE('',*,*,#1809,.T.);
#1857=EDGE_LOOP('',(#1855,#1856));
#1858=FACE_BOUND('',#1857,.T.);
#1859=ADVANCED_FACE('',(#1854,#1858),#1850,.T.);
#1860=CARTESIAN_POINT('',(0.0,-2.386980E-015,13.100000000000001));
#1861=DIRECTION('',(0.0,0.0,-1.0));
#1862=DIRECTION('',(-1.0,0.0,0.0));
#1863=AXIS2_PLACEMENT_3D('',#1860,#1861,#1862);
#1864=PLANE('',#1863);
#1865=ORIENTED_EDGE('',*,*,#1833,.F.);
#1866=ORIENTED_EDGE('',*,*,#1751,.F.);
#1867=EDGE_LOOP('',(#1865,#1866));
#1868=FACE_OUTER_BOUND('',#1867,.T.);
#1869=ORIENTED_EDGE('',*,*,#1817,.T.);
#1870=ORIENTED_EDGE('',*,*,#1778,.T.);
#1871=EDGE_LOOP('',(#1869,#1870));
#1872=FACE_BOUND('',#1871,.T.);
#1873=ADVANCED_FACE('',(#1868,#1872),#1864,.F.);
#1874=CLOSED_SHELL('',(#1755,#1797,#1821,#1845,#1859,#1873));
#1875=MANIFOLD_SOLID_BREP('3C4',#1874);
#1876=STYLED_ITEM('NONE',(#159),#1875);
#1877=CARTESIAN_POINT('',(0.0,0.0,0.300000000000000));
#1878=DIRECTION('',(0.0,0.0,1.0));
#1879=DIRECTION('',(1.0,0.0,0.0));
#1880=AXIS2_PLACEMENT_3D('',#1877,#1878,#1879);
#1881=CYLINDRICAL_SURFACE('',#1880,4.800000000000000);
#1882=CARTESIAN_POINT('',(4.800000000000000,0.0,16.699999999999999));
#1883=VERTEX_POINT('',#1882);
#1884=CARTESIAN_POINT('',(4.800000000000000,0.0,5.080000000000000));
#1885=VERTEX_POINT('',#1884);
#1886=CARTESIAN_POINT('',(4.800000000000000,0.0,16.699999999999999));
#1887=DIRECTION('',(0.0,0.0,-1.0));
#1888=VECTOR('',#1887,11.619999999999999);
#1889=LINE('',#1886,#1888);
#1890=EDGE_CURVE('',#1883,#1885,#1889,.T.);
#1891=ORIENTED_EDGE('',*,*,#1890,.F.);
#1892=CARTESIAN_POINT('',(-4.800000000000000,-5.878110E-016,16.699999999999999));
#1893=VERTEX_POINT('',#1892);
#1894=CARTESIAN_POINT('',(0.0,0.0,16.699999999999999));
#1895=DIRECTION('',(0.0,0.0,-1.0));
#1896=DIRECTION('',(1.0,0.0,0.0));
#1897=AXIS2_PLACEMENT_3D('',#1894,#1895,#1896);
#1898=CIRCLE('',#1897,4.800000000000000);
#1899=EDGE_CURVE('',#1883,#1893,#1898,.T.);
#1900=ORIENTED_EDGE('',*,*,#1899,.T.);
#1901=CARTESIAN_POINT('',(-4.800000000000000,-5.878110E-016,5.080000000000000));
#1902=VERTEX_POINT('',#1901);
#1903=CARTESIAN_POINT('',(-4.800000000000000,-5.878110E-016,16.699999999999999));
#1904=DIRECTION('',(0.0,0.0,-1.0));
#1905=VECTOR('',#1904,11.619999999999999);
#1906=LINE('',#1903,#1905);
#1907=EDGE_CURVE('',#1893,#1902,#1906,.T.);
#1908=ORIENTED_EDGE('',*,*,#1907,.T.);
#1909=CARTESIAN_POINT('',(0.0,0.0,5.080000000000000));
#1910=DIRECTION('',(0.0,0.0,1.0));
#1911=DIRECTION('',(1.0,0.0,0.0));
#1912=AXIS2_PLACEMENT_3D('',#1909,#1910,#1911);
#1913=CIRCLE('',#1912,4.800000000000000);
#1914=EDGE_CURVE('',#1902,#1885,#1913,.T.);
#1915=ORIENTED_EDGE('',*,*,#1914,.T.);
#1916=EDGE_LOOP('',(#1891,#1900,#1908,#1915));
#1917=FACE_OUTER_BOUND('',#1916,.T.);
#1918=ADVANCED_FACE('',(#1917),#1881,.T.);
#1919=CARTESIAN_POINT('',(0.0,0.0,16.699999999999999));
#1920=DIRECTION('',(0.0,-4.440892E-016,-1.0));
#1921=DIRECTION('',(-1.0,0.0,0.0));
#1922=AXIS2_PLACEMENT_3D('',#1919,#1920,#1921);
#1923=CYLINDRICAL_SURFACE('',#1922,4.400000000000000);
#1924=CARTESIAN_POINT('',(-4.400000000000000,0.0,16.699999999999999));
#1925=VERTEX_POINT('',#1924);
#1926=CARTESIAN_POINT('',(-4.400000000000000,-3.691492E-015,8.399999999999999));
#1927=VERTEX_POINT('',#1926);
#1928=CARTESIAN_POINT('',(-4.400000000000000,0.0,16.699999999999999));
#1929=DIRECTION('',(0.0,0.0,-1.0));
#1930=VECTOR('',#1929,8.300000000000001);
#1931=LINE('',#1928,#1930);
#1932=EDGE_CURVE('',#1925,#1927,#1931,.T.);
#1933=ORIENTED_EDGE('',*,*,#1932,.F.);
#1934=CARTESIAN_POINT('',(4.400000000000000,-5.388268E-016,16.699999999999999));
#1935=VERTEX_POINT('',#1934);
#1936=CARTESIAN_POINT('',(0.0,0.0,16.699999999999999));
#1937=DIRECTION('',(0.0,0.0,-1.0));
#1938=DIRECTION('',(-1.0,0.0,0.0));
#1939=AXIS2_PLACEMENT_3D('',#1936,#1937,#1938);
#1940=CIRCLE('',#1939,4.400000000000000);
#1941=EDGE_CURVE('',#1935,#1925,#1940,.T.);
#1942=ORIENTED_EDGE('',*,*,#1941,.F.);
#1943=CARTESIAN_POINT('',(4.400000000000000,-4.224767E-015,8.399999999999999));
#1944=VERTEX_POINT('',#1943);
#1945=CARTESIAN_POINT('',(4.400000000000000,-5.388268E-016,16.699999999999999));
#1946=DIRECTION('',(0.0,0.0,-1.0));
#1947=VECTOR('',#1946,8.300000000000001);
#1948=LINE('',#1945,#1947);
#1949=EDGE_CURVE('',#1935,#1944,#1948,.T.);
#1950=ORIENTED_EDGE('',*,*,#1949,.T.);
#1951=CARTESIAN_POINT('',(0.0,-3.691492E-015,8.399999999999999));
#1952=DIRECTION('',(0.0,0.0,1.0));
#1953=DIRECTION('',(-1.0,0.0,0.0));
#1954=AXIS2_PLACEMENT_3D('',#1951,#1952,#1953);
#1955=CIRCLE('',#1954,4.400000000000000);
#1956=EDGE_CURVE('',#1927,#1944,#1955,.T.);
#1957=ORIENTED_EDGE('',*,*,#1956,.F.);
#1958=EDGE_LOOP('',(#1933,#1942,#1950,#1957));
#1959=FACE_OUTER_BOUND('',#1958,.T.);
#1960=ADVANCED_FACE('',(#1959),#1923,.F.);
#1961=CARTESIAN_POINT('',(0.0,0.0,5.080000000000000));
#1962=DIRECTION('',(0.0,0.0,1.0));
#1963=DIRECTION('',(1.0,0.0,0.0));
#1964=AXIS2_PLACEMENT_3D('',#1961,#1962,#1963);
#1965=PLANE('',#1964);
#1966=ORIENTED_EDGE('',*,*,#1914,.F.);
#1967=CARTESIAN_POINT('',(0.0,0.0,5.080000000000000));
#1968=DIRECTION('',(0.0,0.0,1.0));
#1969=DIRECTION('',(1.0,0.0,0.0));
#1970=AXIS2_PLACEMENT_3D('',#1967,#1968,#1969);
#1971=CIRCLE('',#1970,4.800000000000000);
#1972=EDGE_CURVE('',#1885,#1902,#1971,.T.);
#1973=ORIENTED_EDGE('',*,*,#1972,.F.);
#1974=EDGE_LOOP('',(#1966,#1973));
#1975=FACE_OUTER_BOUND('',#1974,.T.);
#1976=ADVANCED_FACE('',(#1975),#1965,.F.);
#1977=CARTESIAN_POINT('',(0.0,0.0,16.699999999999999));
#1978=DIRECTION('',(0.0,-4.440892E-016,-1.0));
#1979=DIRECTION('',(-1.0,0.0,0.0));
#1980=AXIS2_PLACEMENT_3D('',#1977,#1978,#1979);
#1981=CYLINDRICAL_SURFACE('',#1980,4.400000000000000);
#1982=ORIENTED_EDGE('',*,*,#1932,.T.);
#1983=CARTESIAN_POINT('',(0.0,-3.691492E-015,8.399999999999999));
#1984=DIRECTION('',(0.0,0.0,1.0));
#1985=DIRECTION('',(-1.0,0.0,0.0));
#1986=AXIS2_PLACEMENT_3D('',#1983,#1984,#1985);
#1987=CIRCLE('',#1986,4.400000000000000);
#1988=EDGE_CURVE('',#1944,#1927,#1987,.T.);
#1989=ORIENTED_EDGE('',*,*,#1988,.F.);
#1990=ORIENTED_EDGE('',*,*,#1949,.F.);
#1991=CARTESIAN_POINT('',(0.0,0.0,16.699999999999999));
#1992=DIRECTION('',(0.0,0.0,-1.0));
#1993=DIRECTION('',(-1.0,0.0,0.0));
#1994=AXIS2_PLACEMENT_3D('',#1991,#1992,#1993);
#1995=CIRCLE('',#1994,4.400000000000000);
#1996=EDGE_CURVE('',#1925,#1935,#1995,.T.);
#1997=ORIENTED_EDGE('',*,*,#1996,.F.);
#1998=EDGE_LOOP('',(#1982,#1989,#1990,#1997));
#1999=FACE_OUTER_BOUND('',#1998,.T.);
#2000=ADVANCED_FACE('',(#1999),#1981,.F.);
#2001=CARTESIAN_POINT('',(0.0,-3.691492E-015,8.399999999999999));
#2002=DIRECTION('',(0.0,0.0,-1.0));
#2003=DIRECTION('',(-1.0,0.0,0.0));
#2004=AXIS2_PLACEMENT_3D('',#2001,#2002,#2003);
#2005=PLANE('',#2004);
#2006=ORIENTED_EDGE('',*,*,#1956,.T.);
#2007=ORIENTED_EDGE('',*,*,#1988,.T.);
#2008=EDGE_LOOP('',(#2006,#2007));
#2009=FACE_OUTER_BOUND('',#2008,.T.);
#2010=ADVANCED_FACE('',(#2009),#2005,.F.);
#2011=CARTESIAN_POINT('',(0.0,0.0,0.300000000000000));
#2012=DIRECTION('',(0.0,0.0,1.0));
#2013=DIRECTION('',(1.0,0.0,0.0));
#2014=AXIS2_PLACEMENT_3D('',#2011,#2012,#2013);
#2015=CYLINDRICAL_SURFACE('',#2014,4.800000000000000);
#2016=ORIENTED_EDGE('',*,*,#1890,.T.);
#2017=ORIENTED_EDGE('',*,*,#1972,.T.);
#2018=ORIENTED_EDGE('',*,*,#1907,.F.);
#2019=CARTESIAN_POINT('',(0.0,0.0,16.699999999999999));
#2020=DIRECTION('',(0.0,0.0,-1.0));
#2021=DIRECTION('',(1.0,0.0,0.0));
#2022=AXIS2_PLACEMENT_3D('',#2019,#2020,#2021);
#2023=CIRCLE('',#2022,4.800000000000000);
#2024=EDGE_CURVE('',#1893,#1883,#2023,.T.);
#2025=ORIENTED_EDGE('',*,*,#2024,.T.);
#2026=EDGE_LOOP('',(#2016,#2017,#2018,#2025));
#2027=FACE_OUTER_BOUND('',#2026,.T.);
#2028=ADVANCED_FACE('',(#2027),#2015,.T.);
#2029=CARTESIAN_POINT('',(0.0,0.0,16.699999999999999));
#2030=DIRECTION('',(0.0,0.0,1.0));
#2031=DIRECTION('',(1.0,0.0,0.0));
#2032=AXIS2_PLACEMENT_3D('',#2029,#2030,#2031);
#2033=PLANE('',#2032);
#2034=ORIENTED_EDGE('',*,*,#1899,.F.);
#2035=ORIENTED_EDGE('',*,*,#2024,.F.);
#2036=EDGE_LOOP('',(#2034,#2035));
#2037=FACE_OUTER_BOUND('',#2036,.T.);
#2038=ORIENTED_EDGE('',*,*,#1996,.T.);
#2039=ORIENTED_EDGE('',*,*,#1941,.T.);
#2040=EDGE_LOOP('',(#2038,#2039));
#2041=FACE_BOUND('',#2040,.T.);
#2042=ADVANCED_FACE('',(#2037,#2041),#2033,.T.);
#2043=CLOSED_SHELL('',(#1918,#1960,#1976,#2000,#2010,#2028,#2042));
#2044=MANIFOLD_SOLID_BREP('3B7',#2043);
#2045=STYLED_ITEM('NONE',(#257),#2044);
#2046=ADVANCED_BREP_SHAPE_REPRESENTATION('ABSR1',(#152,#250,#412,#567,#722,#877,#966,#1055,#1144,#1233,#1322,#1453,#1542,#1705,#1875,#2044),#28);
#2047=SHAPE_REPRESENTATION_RELATIONSHIP('SRRPL1','',#2046,#62);
ENDSEC;
END-ISO-10303-21;
