ISO-10303-21;
HEADER;
/****************************************************************
 * Generated by software with PDElib inside                    *
 * PDElib Version v51a, created Wed 11/30/2011                  *
 * ITI Transcendata (http://www.transcendata.com/)              *
 ****************************************************************/
FILE_DESCRIPTION((''),'2;1');
FILE_NAME('TYCO_RCT-0C.stp','2014-05-07T10:34:00',(''),(''),'Mechanical Desktop 2011','Mechanical Desktop 2011',', , ');
FILE_SCHEMA(('AUTOMOTIVE_DESIGN { 1 2 10303 214 1 1 1 1 }'));
ENDSEC;
DATA;
#10=(NAMED_UNIT(*)PLANE_ANGLE_UNIT()SI_UNIT($,.RADIAN.));
#11=DIMENSIONAL_EXPONENTS(0.0,0.0,0.0,0.0,0.0,0.0,0.0);
#12=PLANE_ANGLE_MEASURE_WITH_UNIT(PLANE_ANGLE_MEASURE(0.0174532925),#10);
#16=(CONVERSION_BASED_UNIT('DEGREE',#12)NAMED_UNIT(#11)PLANE_ANGLE_UNIT());
#20=(NAMED_UNIT(*)SI_UNIT($,.STERADIAN.)SOLID_ANGLE_UNIT());
#24=(LENGTH_UNIT()NAMED_UNIT(*)SI_UNIT(.MILLI.,.METRE.));
#26=UNCERTAINTY_MEASURE_WITH_UNIT(LENGTH_MEASURE(0.000001),#24,'DISTANCE_ACCURACY_VALUE','');
#28=(GEOMETRIC_REPRESENTATION_CONTEXT(3)GLOBAL_UNCERTAINTY_ASSIGNED_CONTEXT((#26))GLOBAL_UNIT_ASSIGNED_CONTEXT((#16,#20,#24))REPRESENTATION_CONTEXT('','3D'));
#29=APPLICATION_CONTEXT('automotive design');
#30=APPLICATION_PROTOCOL_DEFINITION('INTERNATIONAL_STANDARD','automotive_design',1998,#29);
#31=PRODUCT_CONTEXT('3D Mechanical Parts',#29,'mechanical');
#32=PRODUCT('Product','Product','',(#31));
#33=PRODUCT_RELATED_PRODUCT_CATEGORY('part',$,(#32));
#34=PRODUCT_CATEGORY('part',$);
#35=PERSON('1','Design','Joe',$,$,$);
#36=ORGANIZATION($,'None','None');
#37=PERSON_AND_ORGANIZATION(#35,#36);
#38=PERSON_AND_ORGANIZATION_ROLE('design_owner');
#39=APPLIED_PERSON_AND_ORGANIZATION_ASSIGNMENT(#37,#38,(#32));
#40=PRODUCT_DEFINITION_FORMATION_WITH_SPECIFIED_SOURCE('None','',#32,.BOUGHT.);
#41=PERSON('2','Creator','Joe',$,$,$);
#42=ORGANIZATION($,'None','None');
#43=PERSON_AND_ORGANIZATION(#41,#42);
#44=PERSON_AND_ORGANIZATION_ROLE('creator');
#45=APPLIED_PERSON_AND_ORGANIZATION_ASSIGNMENT(#43,#44,(#40));
#46=PERSON('3','Supplier','Joe',$,$,$);
#47=ORGANIZATION($,'None','None');
#48=PERSON_AND_ORGANIZATION(#46,#47);
#49=PERSON_AND_ORGANIZATION_ROLE('design_supplier');
#50=APPLIED_PERSON_AND_ORGANIZATION_ASSIGNMENT(#48,#49,(#40));
#51=PRODUCT_DEFINITION_CONTEXT('part definition',#29,'design');
#52=PRODUCT_DEFINITION('None','',#40,#51);
#53=PERSON('4','Creator','Joe',$,$,$);
#54=ORGANIZATION($,'None','None');
#55=PERSON_AND_ORGANIZATION(#53,#54);
#56=PERSON_AND_ORGANIZATION_ROLE('creator');
#57=APPLIED_PERSON_AND_ORGANIZATION_ASSIGNMENT(#55,#56,(#52));
#58=CARTESIAN_POINT('NONE',(0.0,0.0,0.0));
#59=DIRECTION('NONE',(0.0,0.0,1.0));
#60=DIRECTION('NONE',(1.0,0.0,0.0));
#61=AXIS2_PLACEMENT_3D('NONE',#58,#59,#60);
#62=SHAPE_REPRESENTATION('SR1',(#61),#28);
#63=PRODUCT_DEFINITION_SHAPE('PDS1','Test Part',#52);
#64=SHAPE_DEFINITION_REPRESENTATION(#63,#62);
#65=CARTESIAN_POINT('',(-0.25,0.525,1.22));
#66=DIRECTION('',(0.0,1.0,0.0));
#67=DIRECTION('',(0.0,0.0,1.0));
#68=AXIS2_PLACEMENT_3D('',#65,#66,#67);
#69=PLANE('',#68);
#70=CARTESIAN_POINT('',(-0.3,0.525,1.45));
#71=VERTEX_POINT('',#70);
#72=CARTESIAN_POINT('',(0.3,0.525,1.45));
#73=VERTEX_POINT('',#72);
#74=CARTESIAN_POINT('',(-0.3,0.525,1.45));
#75=DIRECTION('',(1.0,0.0,0.0));
#76=VECTOR('',#75,0.6);
#77=LINE('',#74,#76);
#78=EDGE_CURVE('',#71,#73,#77,.T.);
#79=ORIENTED_EDGE('',*,*,#78,.T.);
#80=CARTESIAN_POINT('',(0.3,0.525,1.22));
#81=VERTEX_POINT('',#80);
#82=CARTESIAN_POINT('',(0.3,0.525,1.22));
#83=DIRECTION('',(0.0,0.0,1.0));
#84=VECTOR('',#83,0.23);
#85=LINE('',#82,#84);
#86=EDGE_CURVE('',#81,#73,#85,.T.);
#87=ORIENTED_EDGE('',*,*,#86,.F.);
#88=CARTESIAN_POINT('',(-0.3,0.525,1.22));
#89=VERTEX_POINT('',#88);
#90=CARTESIAN_POINT('',(-0.3,0.525,1.22));
#91=DIRECTION('',(1.0,0.0,0.0));
#92=VECTOR('',#91,0.6);
#93=LINE('',#90,#92);
#94=EDGE_CURVE('',#89,#81,#93,.T.);
#95=ORIENTED_EDGE('',*,*,#94,.F.);
#96=CARTESIAN_POINT('',(-0.3,0.525,1.22));
#97=DIRECTION('',(0.0,0.0,1.0));
#98=VECTOR('',#97,0.23);
#99=LINE('',#96,#98);
#100=EDGE_CURVE('',#89,#71,#99,.T.);
#101=ORIENTED_EDGE('',*,*,#100,.T.);
#102=EDGE_LOOP('',(#79,#87,#95,#101));
#103=FACE_OUTER_BOUND('',#102,.T.);
#104=ADVANCED_FACE('',(#103),#69,.T.);
#105=CARTESIAN_POINT('',(0.3,0.525,1.22));
#106=DIRECTION('',(-1.0,0.0,0.0));
#107=DIRECTION('',(0.0,0.0,1.0));
#108=AXIS2_PLACEMENT_3D('',#105,#106,#107);
#109=PLANE('',#108);
#110=CARTESIAN_POINT('',(0.3,0.625,1.45));
#111=VERTEX_POINT('',#110);
#112=CARTESIAN_POINT('',(0.3,0.525,1.45));
#113=DIRECTION('',(0.0,1.0,0.0));
#114=VECTOR('',#113,0.1);
#115=LINE('',#112,#114);
#116=EDGE_CURVE('',#73,#111,#115,.T.);
#117=ORIENTED_EDGE('',*,*,#116,.T.);
#118=CARTESIAN_POINT('',(0.3,0.625,1.22));
#119=VERTEX_POINT('',#118);
#120=CARTESIAN_POINT('',(0.3,0.625,1.22));
#121=DIRECTION('',(0.0,0.0,1.0));
#122=VECTOR('',#121,0.23);
#123=LINE('',#120,#122);
#124=EDGE_CURVE('',#119,#111,#123,.T.);
#125=ORIENTED_EDGE('',*,*,#124,.F.);
#126=CARTESIAN_POINT('',(0.3,0.525,1.22));
#127=DIRECTION('',(0.0,1.0,0.0));
#128=VECTOR('',#127,0.1);
#129=LINE('',#126,#128);
#130=EDGE_CURVE('',#81,#119,#129,.T.);
#131=ORIENTED_EDGE('',*,*,#130,.F.);
#132=ORIENTED_EDGE('',*,*,#86,.T.);
#133=EDGE_LOOP('',(#117,#125,#131,#132));
#134=FACE_OUTER_BOUND('',#133,.T.);
#135=ADVANCED_FACE('',(#134),#109,.T.);
#136=CARTESIAN_POINT('',(0.25,0.625,1.22));
#137=DIRECTION('',(0.0,1.0,0.0));
#138=DIRECTION('',(0.0,0.0,1.0));
#139=AXIS2_PLACEMENT_3D('',#136,#137,#138);
#140=PLANE('',#139);
#141=CARTESIAN_POINT('',(0.75,0.625,1.45));
#142=VERTEX_POINT('',#141);
#143=CARTESIAN_POINT('',(0.3,0.625,1.45));
#144=DIRECTION('',(1.0,0.0,0.0));
#145=VECTOR('',#144,0.45);
#146=LINE('',#143,#145);
#147=EDGE_CURVE('',#111,#142,#146,.T.);
#148=ORIENTED_EDGE('',*,*,#147,.T.);
#149=CARTESIAN_POINT('',(0.75,0.625,1.22));
#150=VERTEX_POINT('',#149);
#151=CARTESIAN_POINT('',(0.75,0.625,1.22));
#152=DIRECTION('',(0.0,0.0,1.0));
#153=VECTOR('',#152,0.23);
#154=LINE('',#151,#153);
#155=EDGE_CURVE('',#150,#142,#154,.T.);
#156=ORIENTED_EDGE('',*,*,#155,.F.);
#157=CARTESIAN_POINT('',(0.3,0.625,1.22));
#158=DIRECTION('',(1.0,0.0,0.0));
#159=VECTOR('',#158,0.45);
#160=LINE('',#157,#159);
#161=EDGE_CURVE('',#119,#150,#160,.T.);
#162=ORIENTED_EDGE('',*,*,#161,.F.);
#163=ORIENTED_EDGE('',*,*,#124,.T.);
#164=EDGE_LOOP('',(#148,#156,#162,#163));
#165=FACE_OUTER_BOUND('',#164,.T.);
#166=ADVANCED_FACE('',(#165),#140,.T.);
#167=CARTESIAN_POINT('',(0.75,0.625,1.22));
#168=DIRECTION('',(0.707106781186548,0.707106781186547,0.0));
#169=DIRECTION('',(0.0,0.0,-1.0));
#170=AXIS2_PLACEMENT_3D('',#167,#168,#169);
#171=PLANE('',#170);
#172=CARTESIAN_POINT('',(1.0,0.375,1.45));
#173=VERTEX_POINT('',#172);
#174=CARTESIAN_POINT('',(0.75,0.625,1.45));
#175=DIRECTION('',(0.707106781186547,-0.707106781186548,0.0));
#176=VECTOR('',#175,0.353553390593274);
#177=LINE('',#174,#176);
#178=EDGE_CURVE('',#142,#173,#177,.T.);
#179=ORIENTED_EDGE('',*,*,#178,.T.);
#180=CARTESIAN_POINT('',(1.0,0.375,1.22));
#181=VERTEX_POINT('',#180);
#182=CARTESIAN_POINT('',(1.0,0.375,1.22));
#183=DIRECTION('',(0.0,0.0,1.0));
#184=VECTOR('',#183,0.23);
#185=LINE('',#182,#184);
#186=EDGE_CURVE('',#181,#173,#185,.T.);
#187=ORIENTED_EDGE('',*,*,#186,.F.);
#188=CARTESIAN_POINT('',(0.75,0.625,1.22));
#189=DIRECTION('',(0.707106781186547,-0.707106781186548,0.0));
#190=VECTOR('',#189,0.353553390593274);
#191=LINE('',#188,#190);
#192=EDGE_CURVE('',#150,#181,#191,.T.);
#193=ORIENTED_EDGE('',*,*,#192,.F.);
#194=ORIENTED_EDGE('',*,*,#155,.T.);
#195=EDGE_LOOP('',(#179,#187,#193,#194));
#196=FACE_OUTER_BOUND('',#195,.T.);
#197=ADVANCED_FACE('',(#196),#171,.T.);
#198=CARTESIAN_POINT('',(1.0,0.375,1.22));
#199=DIRECTION('',(1.0,0.0,0.0));
#200=DIRECTION('',(0.0,0.0,-1.0));
#201=AXIS2_PLACEMENT_3D('',#198,#199,#200);
#202=PLANE('',#201);
#203=CARTESIAN_POINT('',(1.0,-0.375,1.45));
#204=VERTEX_POINT('',#203);
#205=CARTESIAN_POINT('',(1.0,0.375,1.45));
#206=DIRECTION('',(0.0,-1.0,0.0));
#207=VECTOR('',#206,0.75);
#208=LINE('',#205,#207);
#209=EDGE_CURVE('',#173,#204,#208,.T.);
#210=ORIENTED_EDGE('',*,*,#209,.T.);
#211=CARTESIAN_POINT('',(1.0,-0.375,1.22));
#212=VERTEX_POINT('',#211);
#213=CARTESIAN_POINT('',(1.0,-0.375,1.22));
#214=DIRECTION('',(0.0,0.0,1.0));
#215=VECTOR('',#214,0.23);
#216=LINE('',#213,#215);
#217=EDGE_CURVE('',#212,#204,#216,.T.);
#218=ORIENTED_EDGE('',*,*,#217,.F.);
#219=CARTESIAN_POINT('',(1.0,0.375,1.22));
#220=DIRECTION('',(0.0,-1.0,0.0));
#221=VECTOR('',#220,0.75);
#222=LINE('',#219,#221);
#223=EDGE_CURVE('',#181,#212,#222,.T.);
#224=ORIENTED_EDGE('',*,*,#223,.F.);
#225=ORIENTED_EDGE('',*,*,#186,.T.);
#226=EDGE_LOOP('',(#210,#218,#224,#225));
#227=FACE_OUTER_BOUND('',#226,.T.);
#228=ADVANCED_FACE('',(#227),#202,.T.);
#229=CARTESIAN_POINT('',(1.0,-0.375,1.22));
#230=DIRECTION('',(0.707106781186548,-0.707106781186547,0.0));
#231=DIRECTION('',(0.0,0.0,-1.0));
#232=AXIS2_PLACEMENT_3D('',#229,#230,#231);
#233=PLANE('',#232);
#234=CARTESIAN_POINT('',(0.75,-0.625,1.45));
#235=VERTEX_POINT('',#234);
#236=CARTESIAN_POINT('',(1.0,-0.375,1.45));
#237=DIRECTION('',(-0.707106781186547,-0.707106781186548,0.0));
#238=VECTOR('',#237,0.353553390593274);
#239=LINE('',#236,#238);
#240=EDGE_CURVE('',#204,#235,#239,.T.);
#241=ORIENTED_EDGE('',*,*,#240,.T.);
#242=CARTESIAN_POINT('',(0.75,-0.625,1.22));
#243=VERTEX_POINT('',#242);
#244=CARTESIAN_POINT('',(0.75,-0.625,1.22));
#245=DIRECTION('',(0.0,0.0,1.0));
#246=VECTOR('',#245,0.23);
#247=LINE('',#244,#246);
#248=EDGE_CURVE('',#243,#235,#247,.T.);
#249=ORIENTED_EDGE('',*,*,#248,.F.);
#250=CARTESIAN_POINT('',(1.0,-0.375,1.22));
#251=DIRECTION('',(-0.707106781186547,-0.707106781186548,0.0));
#252=VECTOR('',#251,0.353553390593274);
#253=LINE('',#250,#252);
#254=EDGE_CURVE('',#212,#243,#253,.T.);
#255=ORIENTED_EDGE('',*,*,#254,.F.);
#256=ORIENTED_EDGE('',*,*,#217,.T.);
#257=EDGE_LOOP('',(#241,#249,#255,#256));
#258=FACE_OUTER_BOUND('',#257,.T.);
#259=ADVANCED_FACE('',(#258),#233,.T.);
#260=CARTESIAN_POINT('',(0.75,-0.625,1.22));
#261=DIRECTION('',(0.0,-1.0,0.0));
#262=DIRECTION('',(0.0,0.0,-1.0));
#263=AXIS2_PLACEMENT_3D('',#260,#261,#262);
#264=PLANE('',#263);
#265=CARTESIAN_POINT('',(0.3,-0.625,1.45));
#266=VERTEX_POINT('',#265);
#267=CARTESIAN_POINT('',(0.75,-0.625,1.45));
#268=DIRECTION('',(-1.0,0.0,0.0));
#269=VECTOR('',#268,0.45);
#270=LINE('',#267,#269);
#271=EDGE_CURVE('',#235,#266,#270,.T.);
#272=ORIENTED_EDGE('',*,*,#271,.T.);
#273=CARTESIAN_POINT('',(0.3,-0.625,1.22));
#274=VERTEX_POINT('',#273);
#275=CARTESIAN_POINT('',(0.3,-0.625,1.22));
#276=DIRECTION('',(0.0,0.0,1.0));
#277=VECTOR('',#276,0.23);
#278=LINE('',#275,#277);
#279=EDGE_CURVE('',#274,#266,#278,.T.);
#280=ORIENTED_EDGE('',*,*,#279,.F.);
#281=CARTESIAN_POINT('',(0.75,-0.625,1.22));
#282=DIRECTION('',(-1.0,0.0,0.0));
#283=VECTOR('',#282,0.45);
#284=LINE('',#281,#283);
#285=EDGE_CURVE('',#243,#274,#284,.T.);
#286=ORIENTED_EDGE('',*,*,#285,.F.);
#287=ORIENTED_EDGE('',*,*,#248,.T.);
#288=EDGE_LOOP('',(#272,#280,#286,#287));
#289=FACE_OUTER_BOUND('',#288,.T.);
#290=ADVANCED_FACE('',(#289),#264,.T.);
#291=CARTESIAN_POINT('',(0.3,-0.625,1.22));
#292=DIRECTION('',(-1.0,0.0,0.0));
#293=DIRECTION('',(0.0,0.0,1.0));
#294=AXIS2_PLACEMENT_3D('',#291,#292,#293);
#295=PLANE('',#294);
#296=CARTESIAN_POINT('',(0.3,-0.525,1.45));
#297=VERTEX_POINT('',#296);
#298=CARTESIAN_POINT('',(0.3,-0.625,1.45));
#299=DIRECTION('',(0.0,1.0,0.0));
#300=VECTOR('',#299,0.1);
#301=LINE('',#298,#300);
#302=EDGE_CURVE('',#266,#297,#301,.T.);
#303=ORIENTED_EDGE('',*,*,#302,.T.);
#304=CARTESIAN_POINT('',(0.3,-0.525,1.22));
#305=VERTEX_POINT('',#304);
#306=CARTESIAN_POINT('',(0.3,-0.525,1.22));
#307=DIRECTION('',(0.0,0.0,1.0));
#308=VECTOR('',#307,0.23);
#309=LINE('',#306,#308);
#310=EDGE_CURVE('',#305,#297,#309,.T.);
#311=ORIENTED_EDGE('',*,*,#310,.F.);
#312=CARTESIAN_POINT('',(0.3,-0.625,1.22));
#313=DIRECTION('',(0.0,1.0,0.0));
#314=VECTOR('',#313,0.1);
#315=LINE('',#312,#314);
#316=EDGE_CURVE('',#274,#305,#315,.T.);
#317=ORIENTED_EDGE('',*,*,#316,.F.);
#318=ORIENTED_EDGE('',*,*,#279,.T.);
#319=EDGE_LOOP('',(#303,#311,#317,#318));
#320=FACE_OUTER_BOUND('',#319,.T.);
#321=ADVANCED_FACE('',(#320),#295,.T.);
#322=CARTESIAN_POINT('',(0.25,-0.525,1.22));
#323=DIRECTION('',(0.0,-1.0,0.0));
#324=DIRECTION('',(0.0,0.0,-1.0));
#325=AXIS2_PLACEMENT_3D('',#322,#323,#324);
#326=PLANE('',#325);
#327=CARTESIAN_POINT('',(-0.3,-0.525,1.45));
#328=VERTEX_POINT('',#327);
#329=CARTESIAN_POINT('',(0.3,-0.525,1.45));
#330=DIRECTION('',(-1.0,0.0,0.0));
#331=VECTOR('',#330,0.6);
#332=LINE('',#329,#331);
#333=EDGE_CURVE('',#297,#328,#332,.T.);
#334=ORIENTED_EDGE('',*,*,#333,.T.);
#335=CARTESIAN_POINT('',(-0.3,-0.525,1.22));
#336=VERTEX_POINT('',#335);
#337=CARTESIAN_POINT('',(-0.3,-0.525,1.22));
#338=DIRECTION('',(0.0,0.0,1.0));
#339=VECTOR('',#338,0.23);
#340=LINE('',#337,#339);
#341=EDGE_CURVE('',#336,#328,#340,.T.);
#342=ORIENTED_EDGE('',*,*,#341,.F.);
#343=CARTESIAN_POINT('',(0.3,-0.525,1.22));
#344=DIRECTION('',(-1.0,0.0,0.0));
#345=VECTOR('',#344,0.6);
#346=LINE('',#343,#345);
#347=EDGE_CURVE('',#305,#336,#346,.T.);
#348=ORIENTED_EDGE('',*,*,#347,.F.);
#349=ORIENTED_EDGE('',*,*,#310,.T.);
#350=EDGE_LOOP('',(#334,#342,#348,#349));
#351=FACE_OUTER_BOUND('',#350,.T.);
#352=ADVANCED_FACE('',(#351),#326,.T.);
#353=CARTESIAN_POINT('',(-0.3,-0.525,1.22));
#354=DIRECTION('',(1.0,0.0,0.0));
#355=DIRECTION('',(0.0,0.0,-1.0));
#356=AXIS2_PLACEMENT_3D('',#353,#354,#355);
#357=PLANE('',#356);
#358=CARTESIAN_POINT('',(-0.299999999999999,-0.625,1.45));
#359=VERTEX_POINT('',#358);
#360=CARTESIAN_POINT('',(-0.3,-0.525,1.45));
#361=DIRECTION('',(0.0,-1.0,0.0));
#362=VECTOR('',#361,0.1);
#363=LINE('',#360,#362);
#364=EDGE_CURVE('',#328,#359,#363,.T.);
#365=ORIENTED_EDGE('',*,*,#364,.T.);
#366=CARTESIAN_POINT('',(-0.299999999999999,-0.625,1.22));
#367=VERTEX_POINT('',#366);
#368=CARTESIAN_POINT('',(-0.299999999999999,-0.625,1.22));
#369=DIRECTION('',(0.0,0.0,1.0));
#370=VECTOR('',#369,0.23);
#371=LINE('',#368,#370);
#372=EDGE_CURVE('',#367,#359,#371,.T.);
#373=ORIENTED_EDGE('',*,*,#372,.F.);
#374=CARTESIAN_POINT('',(-0.3,-0.525,1.22));
#375=DIRECTION('',(0.0,-1.0,0.0));
#376=VECTOR('',#375,0.1);
#377=LINE('',#374,#376);
#378=EDGE_CURVE('',#336,#367,#377,.T.);
#379=ORIENTED_EDGE('',*,*,#378,.F.);
#380=ORIENTED_EDGE('',*,*,#341,.T.);
#381=EDGE_LOOP('',(#365,#373,#379,#380));
#382=FACE_OUTER_BOUND('',#381,.T.);
#383=ADVANCED_FACE('',(#382),#357,.T.);
#384=CARTESIAN_POINT('',(-0.25,-0.625,1.22));
#385=DIRECTION('',(0.0,-1.0,0.0));
#386=DIRECTION('',(0.0,0.0,-1.0));
#387=AXIS2_PLACEMENT_3D('',#384,#385,#386);
#388=PLANE('',#387);
#389=CARTESIAN_POINT('',(-0.75,-0.625,1.45));
#390=VERTEX_POINT('',#389);
#391=CARTESIAN_POINT('',(-0.299999999999999,-0.625,1.45));
#392=DIRECTION('',(-1.0,0.0,0.0));
#393=VECTOR('',#392,0.45);
#394=LINE('',#391,#393);
#395=EDGE_CURVE('',#359,#390,#394,.T.);
#396=ORIENTED_EDGE('',*,*,#395,.T.);
#397=CARTESIAN_POINT('',(-0.75,-0.625,1.22));
#398=VERTEX_POINT('',#397);
#399=CARTESIAN_POINT('',(-0.75,-0.625,1.22));
#400=DIRECTION('',(0.0,0.0,1.0));
#401=VECTOR('',#400,0.23);
#402=LINE('',#399,#401);
#403=EDGE_CURVE('',#398,#390,#402,.T.);
#404=ORIENTED_EDGE('',*,*,#403,.F.);
#405=CARTESIAN_POINT('',(-0.299999999999999,-0.625,1.22));
#406=DIRECTION('',(-1.0,0.0,0.0));
#407=VECTOR('',#406,0.45);
#408=LINE('',#405,#407);
#409=EDGE_CURVE('',#367,#398,#408,.T.);
#410=ORIENTED_EDGE('',*,*,#409,.F.);
#411=ORIENTED_EDGE('',*,*,#372,.T.);
#412=EDGE_LOOP('',(#396,#404,#410,#411));
#413=FACE_OUTER_BOUND('',#412,.T.);
#414=ADVANCED_FACE('',(#413),#388,.T.);
#415=CARTESIAN_POINT('',(-0.75,-0.625,1.22));
#416=DIRECTION('',(-0.707106781186548,-0.707106781186548,0.0));
#417=DIRECTION('',(0.0,0.0,1.0));
#418=AXIS2_PLACEMENT_3D('',#415,#416,#417);
#419=PLANE('',#418);
#420=CARTESIAN_POINT('',(-1.0,-0.375,1.45));
#421=VERTEX_POINT('',#420);
#422=CARTESIAN_POINT('',(-0.75,-0.625,1.45));
#423=DIRECTION('',(-0.707106781186548,0.707106781186547,0.0));
#424=VECTOR('',#423,0.353553390593274);
#425=LINE('',#422,#424);
#426=EDGE_CURVE('',#390,#421,#425,.T.);
#427=ORIENTED_EDGE('',*,*,#426,.T.);
#428=CARTESIAN_POINT('',(-1.0,-0.375,1.22));
#429=VERTEX_POINT('',#428);
#430=CARTESIAN_POINT('',(-1.0,-0.375,1.22));
#431=DIRECTION('',(0.0,0.0,1.0));
#432=VECTOR('',#431,0.23);
#433=LINE('',#430,#432);
#434=EDGE_CURVE('',#429,#421,#433,.T.);
#435=ORIENTED_EDGE('',*,*,#434,.F.);
#436=CARTESIAN_POINT('',(-0.75,-0.625,1.22));
#437=DIRECTION('',(-0.707106781186547,0.707106781186548,0.0));
#438=VECTOR('',#437,0.353553390593274);
#439=LINE('',#436,#438);
#440=EDGE_CURVE('',#398,#429,#439,.T.);
#441=ORIENTED_EDGE('',*,*,#440,.F.);
#442=ORIENTED_EDGE('',*,*,#403,.T.);
#443=EDGE_LOOP('',(#427,#435,#441,#442));
#444=FACE_OUTER_BOUND('',#443,.T.);
#445=ADVANCED_FACE('',(#444),#419,.T.);
#446=CARTESIAN_POINT('',(-1.0,-0.375,1.22));
#447=DIRECTION('',(-1.0,0.0,0.0));
#448=DIRECTION('',(0.0,0.0,1.0));
#449=AXIS2_PLACEMENT_3D('',#446,#447,#448);
#450=PLANE('',#449);
#451=CARTESIAN_POINT('',(-1.0,0.375,1.45));
#452=VERTEX_POINT('',#451);
#453=CARTESIAN_POINT('',(-1.0,-0.375,1.45));
#454=DIRECTION('',(0.0,1.0,0.0));
#455=VECTOR('',#454,0.75);
#456=LINE('',#453,#455);
#457=EDGE_CURVE('',#421,#452,#456,.T.);
#458=ORIENTED_EDGE('',*,*,#457,.T.);
#459=CARTESIAN_POINT('',(-1.0,0.375,1.22));
#460=VERTEX_POINT('',#459);
#461=CARTESIAN_POINT('',(-1.0,0.375,1.22));
#462=DIRECTION('',(0.0,0.0,1.0));
#463=VECTOR('',#462,0.23);
#464=LINE('',#461,#463);
#465=EDGE_CURVE('',#460,#452,#464,.T.);
#466=ORIENTED_EDGE('',*,*,#465,.F.);
#467=CARTESIAN_POINT('',(-1.0,-0.375,1.22));
#468=DIRECTION('',(0.0,1.0,0.0));
#469=VECTOR('',#468,0.75);
#470=LINE('',#467,#469);
#471=EDGE_CURVE('',#429,#460,#470,.T.);
#472=ORIENTED_EDGE('',*,*,#471,.F.);
#473=ORIENTED_EDGE('',*,*,#434,.T.);
#474=EDGE_LOOP('',(#458,#466,#472,#473));
#475=FACE_OUTER_BOUND('',#474,.T.);
#476=ADVANCED_FACE('',(#475),#450,.T.);
#477=CARTESIAN_POINT('',(-1.0,0.375,1.22));
#478=DIRECTION('',(-0.707106781186547,0.707106781186548,0.0));
#479=DIRECTION('',(0.0,0.0,1.0));
#480=AXIS2_PLACEMENT_3D('',#477,#478,#479);
#481=PLANE('',#480);
#482=CARTESIAN_POINT('',(-0.75,0.625,1.45));
#483=VERTEX_POINT('',#482);
#484=CARTESIAN_POINT('',(-1.0,0.375,1.45));
#485=DIRECTION('',(0.707106781186548,0.707106781186547,0.0));
#486=VECTOR('',#485,0.353553390593274);
#487=LINE('',#484,#486);
#488=EDGE_CURVE('',#452,#483,#487,.T.);
#489=ORIENTED_EDGE('',*,*,#488,.T.);
#490=CARTESIAN_POINT('',(-0.75,0.625,1.22));
#491=VERTEX_POINT('',#490);
#492=CARTESIAN_POINT('',(-0.75,0.625,1.22));
#493=DIRECTION('',(0.0,0.0,1.0));
#494=VECTOR('',#493,0.23);
#495=LINE('',#492,#494);
#496=EDGE_CURVE('',#491,#483,#495,.T.);
#497=ORIENTED_EDGE('',*,*,#496,.F.);
#498=CARTESIAN_POINT('',(-1.0,0.375,1.22));
#499=DIRECTION('',(0.707106781186548,0.707106781186547,0.0));
#500=VECTOR('',#499,0.353553390593274);
#501=LINE('',#498,#500);
#502=EDGE_CURVE('',#460,#491,#501,.T.);
#503=ORIENTED_EDGE('',*,*,#502,.F.);
#504=ORIENTED_EDGE('',*,*,#465,.T.);
#505=EDGE_LOOP('',(#489,#497,#503,#504));
#506=FACE_OUTER_BOUND('',#505,.T.);
#507=ADVANCED_FACE('',(#506),#481,.T.);
#508=CARTESIAN_POINT('',(-0.75,0.625,1.22));
#509=DIRECTION('',(0.0,1.0,0.0));
#510=DIRECTION('',(0.0,0.0,1.0));
#511=AXIS2_PLACEMENT_3D('',#508,#509,#510);
#512=PLANE('',#511);
#513=CARTESIAN_POINT('',(-0.3,0.625,1.45));
#514=VERTEX_POINT('',#513);
#515=CARTESIAN_POINT('',(-0.75,0.625,1.45));
#516=DIRECTION('',(1.0,0.0,0.0));
#517=VECTOR('',#516,0.45);
#518=LINE('',#515,#517);
#519=EDGE_CURVE('',#483,#514,#518,.T.);
#520=ORIENTED_EDGE('',*,*,#519,.T.);
#521=CARTESIAN_POINT('',(-0.3,0.625,1.22));
#522=VERTEX_POINT('',#521);
#523=CARTESIAN_POINT('',(-0.3,0.625,1.22));
#524=DIRECTION('',(0.0,0.0,1.0));
#525=VECTOR('',#524,0.23);
#526=LINE('',#523,#525);
#527=EDGE_CURVE('',#522,#514,#526,.T.);
#528=ORIENTED_EDGE('',*,*,#527,.F.);
#529=CARTESIAN_POINT('',(-0.75,0.625,1.22));
#530=DIRECTION('',(1.0,0.0,0.0));
#531=VECTOR('',#530,0.45);
#532=LINE('',#529,#531);
#533=EDGE_CURVE('',#491,#522,#532,.T.);
#534=ORIENTED_EDGE('',*,*,#533,.F.);
#535=ORIENTED_EDGE('',*,*,#496,.T.);
#536=EDGE_LOOP('',(#520,#528,#534,#535));
#537=FACE_OUTER_BOUND('',#536,.T.);
#538=ADVANCED_FACE('',(#537),#512,.T.);
#539=CARTESIAN_POINT('',(-0.3,0.625,1.22));
#540=DIRECTION('',(1.0,0.0,0.0));
#541=DIRECTION('',(0.0,0.0,-1.0));
#542=AXIS2_PLACEMENT_3D('',#539,#540,#541);
#543=PLANE('',#542);
#544=CARTESIAN_POINT('',(-0.3,0.625,1.45));
#545=DIRECTION('',(0.0,-1.0,0.0));
#546=VECTOR('',#545,0.1);
#547=LINE('',#544,#546);
#548=EDGE_CURVE('',#514,#71,#547,.T.);
#549=ORIENTED_EDGE('',*,*,#548,.T.);
#550=ORIENTED_EDGE('',*,*,#100,.F.);
#551=CARTESIAN_POINT('',(-0.3,0.625,1.22));
#552=DIRECTION('',(0.0,-1.0,0.0));
#553=VECTOR('',#552,0.1);
#554=LINE('',#551,#553);
#555=EDGE_CURVE('',#522,#89,#554,.T.);
#556=ORIENTED_EDGE('',*,*,#555,.F.);
#557=ORIENTED_EDGE('',*,*,#527,.T.);
#558=EDGE_LOOP('',(#549,#550,#556,#557));
#559=FACE_OUTER_BOUND('',#558,.T.);
#560=ADVANCED_FACE('',(#559),#543,.T.);
#561=CARTESIAN_POINT('',(1.356215E-016,4.163336E-017,1.45));
#562=DIRECTION('',(0.0,0.0,1.0));
#563=DIRECTION('',(1.0,0.0,0.0));
#564=AXIS2_PLACEMENT_3D('',#561,#562,#563);
#565=PLANE('',#564);
#566=ORIENTED_EDGE('',*,*,#78,.F.);
#567=ORIENTED_EDGE('',*,*,#548,.F.);
#568=ORIENTED_EDGE('',*,*,#519,.F.);
#569=ORIENTED_EDGE('',*,*,#488,.F.);
#570=ORIENTED_EDGE('',*,*,#457,.F.);
#571=ORIENTED_EDGE('',*,*,#426,.F.);
#572=ORIENTED_EDGE('',*,*,#395,.F.);
#573=ORIENTED_EDGE('',*,*,#364,.F.);
#574=ORIENTED_EDGE('',*,*,#333,.F.);
#575=ORIENTED_EDGE('',*,*,#302,.F.);
#576=ORIENTED_EDGE('',*,*,#271,.F.);
#577=ORIENTED_EDGE('',*,*,#240,.F.);
#578=ORIENTED_EDGE('',*,*,#209,.F.);
#579=ORIENTED_EDGE('',*,*,#178,.F.);
#580=ORIENTED_EDGE('',*,*,#147,.F.);
#581=ORIENTED_EDGE('',*,*,#116,.F.);
#582=EDGE_LOOP('',(#566,#567,#568,#569,#570,#571,#572,#573,#574,#575,#576,#577,#578,#579,#580,#581));
#583=FACE_OUTER_BOUND('',#582,.T.);
#584=ADVANCED_FACE('',(#583),#565,.T.);
#585=CARTESIAN_POINT('',(1.110223E-016,5.551115E-017,1.219999999999999));
#586=DIRECTION('',(0.0,0.0,1.0));
#587=DIRECTION('',(1.0,0.0,0.0));
#588=AXIS2_PLACEMENT_3D('',#585,#586,#587);
#589=PLANE('',#588);
#590=ORIENTED_EDGE('',*,*,#555,.T.);
#591=ORIENTED_EDGE('',*,*,#94,.T.);
#592=ORIENTED_EDGE('',*,*,#130,.T.);
#593=ORIENTED_EDGE('',*,*,#161,.T.);
#594=ORIENTED_EDGE('',*,*,#192,.T.);
#595=ORIENTED_EDGE('',*,*,#223,.T.);
#596=ORIENTED_EDGE('',*,*,#254,.T.);
#597=ORIENTED_EDGE('',*,*,#285,.T.);
#598=ORIENTED_EDGE('',*,*,#316,.T.);
#599=ORIENTED_EDGE('',*,*,#347,.T.);
#600=ORIENTED_EDGE('',*,*,#378,.T.);
#601=ORIENTED_EDGE('',*,*,#409,.T.);
#602=ORIENTED_EDGE('',*,*,#440,.T.);
#603=ORIENTED_EDGE('',*,*,#471,.T.);
#604=ORIENTED_EDGE('',*,*,#502,.T.);
#605=ORIENTED_EDGE('',*,*,#533,.T.);
#606=EDGE_LOOP('',(#590,#591,#592,#593,#594,#595,#596,#597,#598,#599,#600,#601,#602,#603,#604,#605));
#607=FACE_OUTER_BOUND('',#606,.T.);
#608=ADVANCED_FACE('',(#607),#589,.F.);
#609=CLOSED_SHELL('',(#104,#135,#166,#197,#228,#259,#290,#321,#352,#383,#414,#445,#476,#507,#538,#560,#584,#608));
#610=MANIFOLD_SOLID_BREP('2B44',#609);
#611=COLOUR_RGB('254',0.866,0.866,0.866);
#612=SURFACE_STYLE_USAGE(.BOTH.,#613);
#613=SURFACE_SIDE_STYLE('NONE',(#614));
#614=SURFACE_STYLE_FILL_AREA(#615);
#615=FILL_AREA_STYLE('NONE',(#616));
#616=FILL_AREA_STYLE_COLOUR('NONE',#611);
#617=PRESENTATION_STYLE_ASSIGNMENT((#612));
#618=STYLED_ITEM('NONE',(#617),#610);
#619=MECHANICAL_DESIGN_GEOMETRIC_PRESENTATION_REPRESENTATION('NONE',(#618,#1579),#28);
#620=PRESENTATION_LAYER_ASSIGNMENT('3D','None',(#610,#1578));
#621=CARTESIAN_POINT('',(-0.01,0.245857864376269,0.23));
#622=DIRECTION('',(-0.707106781186548,-0.707106781186547,0.0));
#623=DIRECTION('',(0.0,0.0,1.0));
#624=AXIS2_PLACEMENT_3D('',#621,#622,#623);
#625=PLANE('',#624);
#626=CARTESIAN_POINT('',(-0.01,0.245857864376269,0.0));
#627=VERTEX_POINT('',#626);
#628=CARTESIAN_POINT('',(0.09,0.145857864376269,0.0));
#629=VERTEX_POINT('',#628);
#630=CARTESIAN_POINT('',(-0.01,0.245857864376269,0.0));
#631=DIRECTION('',(0.707106781186547,-0.707106781186548,0.0));
#632=VECTOR('',#631,0.14142135623731);
#633=LINE('',#630,#632);
#634=EDGE_CURVE('',#627,#629,#633,.T.);
#635=ORIENTED_EDGE('',*,*,#634,.F.);
#636=CARTESIAN_POINT('',(-0.01,0.245857864376269,0.23));
#637=VERTEX_POINT('',#636);
#638=CARTESIAN_POINT('',(-0.01,0.245857864376269,0.23));
#639=DIRECTION('',(0.0,0.0,-1.0));
#640=VECTOR('',#639,0.23);
#641=LINE('',#638,#640);
#642=EDGE_CURVE('',#637,#627,#641,.T.);
#643=ORIENTED_EDGE('',*,*,#642,.F.);
#644=CARTESIAN_POINT('',(0.09,0.145857864376269,0.23));
#645=VERTEX_POINT('',#644);
#646=CARTESIAN_POINT('',(0.09,0.145857864376269,0.23));
#647=DIRECTION('',(-0.707106781186547,0.707106781186548,0.0));
#648=VECTOR('',#647,0.14142135623731);
#649=LINE('',#646,#648);
#650=EDGE_CURVE('',#645,#637,#649,.T.);
#651=ORIENTED_EDGE('',*,*,#650,.F.);
#652=CARTESIAN_POINT('',(0.09,0.145857864376269,0.23));
#653=DIRECTION('',(0.0,0.0,-1.0));
#654=VECTOR('',#653,0.23);
#655=LINE('',#652,#654);
#656=EDGE_CURVE('',#645,#629,#655,.T.);
#657=ORIENTED_EDGE('',*,*,#656,.T.);
#658=EDGE_LOOP('',(#635,#643,#651,#657));
#659=FACE_OUTER_BOUND('',#658,.T.);
#660=ADVANCED_FACE('',(#659),#625,.F.);
#661=CARTESIAN_POINT('',(0.09,0.145857864376269,0.23));
#662=DIRECTION('',(-1.0,0.0,0.0));
#663=DIRECTION('',(0.0,0.0,1.0));
#664=AXIS2_PLACEMENT_3D('',#661,#662,#663);
#665=PLANE('',#664);
#666=CARTESIAN_POINT('',(0.09,-0.145857864376269,0.0));
#667=VERTEX_POINT('',#666);
#668=CARTESIAN_POINT('',(0.09,0.145857864376269,0.0));
#669=DIRECTION('',(0.0,-1.0,0.0));
#670=VECTOR('',#669,0.291715728752538);
#671=LINE('',#668,#670);
#672=EDGE_CURVE('',#629,#667,#671,.T.);
#673=ORIENTED_EDGE('',*,*,#672,.F.);
#674=ORIENTED_EDGE('',*,*,#656,.F.);
#675=CARTESIAN_POINT('',(0.09,-0.145857864376269,0.23));
#676=VERTEX_POINT('',#675);
#677=CARTESIAN_POINT('',(0.09,-0.145857864376269,0.23));
#678=DIRECTION('',(0.0,1.0,0.0));
#679=VECTOR('',#678,0.291715728752538);
#680=LINE('',#677,#679);
#681=EDGE_CURVE('',#676,#645,#680,.T.);
#682=ORIENTED_EDGE('',*,*,#681,.F.);
#683=CARTESIAN_POINT('',(0.09,-0.145857864376269,0.23));
#684=DIRECTION('',(0.0,0.0,-1.0));
#685=VECTOR('',#684,0.23);
#686=LINE('',#683,#685);
#687=EDGE_CURVE('',#676,#667,#686,.T.);
#688=ORIENTED_EDGE('',*,*,#687,.T.);
#689=EDGE_LOOP('',(#673,#674,#682,#688));
#690=FACE_OUTER_BOUND('',#689,.T.);
#691=ADVANCED_FACE('',(#690),#665,.F.);
#692=CARTESIAN_POINT('',(0.09,-0.145857864376269,0.23));
#693=DIRECTION('',(-0.707106781186547,0.707106781186548,0.0));
#694=DIRECTION('',(0.0,0.0,1.0));
#695=AXIS2_PLACEMENT_3D('',#692,#693,#694);
#696=PLANE('',#695);
#697=CARTESIAN_POINT('',(-0.01,-0.245857864376269,0.0));
#698=VERTEX_POINT('',#697);
#699=CARTESIAN_POINT('',(0.09,-0.145857864376269,-1.387779E-017));
#700=DIRECTION('',(-0.707106781186548,-0.707106781186547,0.0));
#701=VECTOR('',#700,0.141421356237309);
#702=LINE('',#699,#701);
#703=EDGE_CURVE('',#667,#698,#702,.T.);
#704=ORIENTED_EDGE('',*,*,#703,.F.);
#705=ORIENTED_EDGE('',*,*,#687,.F.);
#706=CARTESIAN_POINT('',(-0.01,-0.245857864376269,0.23));
#707=VERTEX_POINT('',#706);
#708=CARTESIAN_POINT('',(-0.01,-0.245857864376269,0.23));
#709=DIRECTION('',(0.707106781186548,0.707106781186547,0.0));
#710=VECTOR('',#709,0.141421356237309);
#711=LINE('',#708,#710);
#712=EDGE_CURVE('',#707,#676,#711,.T.);
#713=ORIENTED_EDGE('',*,*,#712,.F.);
#714=CARTESIAN_POINT('',(-0.01,-0.245857864376269,0.23));
#715=DIRECTION('',(0.0,0.0,-1.0));
#716=VECTOR('',#715,0.23);
#717=LINE('',#714,#716);
#718=EDGE_CURVE('',#707,#698,#717,.T.);
#719=ORIENTED_EDGE('',*,*,#718,.T.);
#720=EDGE_LOOP('',(#704,#705,#713,#719));
#721=FACE_OUTER_BOUND('',#720,.T.);
#722=ADVANCED_FACE('',(#721),#696,.F.);
#723=CARTESIAN_POINT('',(-0.01,-0.245857864376269,0.23));
#724=DIRECTION('',(-1.0,0.0,0.0));
#725=DIRECTION('',(0.0,0.0,1.0));
#726=AXIS2_PLACEMENT_3D('',#723,#724,#725);
#727=PLANE('',#726);
#728=CARTESIAN_POINT('',(-0.01,-0.625,0.0));
#729=VERTEX_POINT('',#728);
#730=CARTESIAN_POINT('',(-0.01,-0.245857864376269,0.0));
#731=DIRECTION('',(0.0,-1.0,0.0));
#732=VECTOR('',#731,0.379142135623731);
#733=LINE('',#730,#732);
#734=EDGE_CURVE('',#698,#729,#733,.T.);
#735=ORIENTED_EDGE('',*,*,#734,.F.);
#736=ORIENTED_EDGE('',*,*,#718,.F.);
#737=CARTESIAN_POINT('',(-0.01,-0.625,0.23));
#738=VERTEX_POINT('',#737);
#739=CARTESIAN_POINT('',(-0.01,-0.625,0.23));
#740=DIRECTION('',(0.0,1.0,0.0));
#741=VECTOR('',#740,0.379142135623731);
#742=LINE('',#739,#741);
#743=EDGE_CURVE('',#738,#707,#742,.T.);
#744=ORIENTED_EDGE('',*,*,#743,.F.);
#745=CARTESIAN_POINT('',(-0.01,-0.625,0.0));
#746=DIRECTION('',(0.0,0.0,1.0));
#747=VECTOR('',#746,0.23);
#748=LINE('',#745,#747);
#749=EDGE_CURVE('',#729,#738,#748,.T.);
#750=ORIENTED_EDGE('',*,*,#749,.F.);
#751=EDGE_LOOP('',(#735,#736,#744,#750));
#752=FACE_OUTER_BOUND('',#751,.T.);
#753=ADVANCED_FACE('',(#752),#727,.F.);
#754=CARTESIAN_POINT('',(0.01,-0.625,0.23));
#755=DIRECTION('',(1.0,0.0,0.0));
#756=DIRECTION('',(0.0,0.0,-1.0));
#757=AXIS2_PLACEMENT_3D('',#754,#755,#756);
#758=PLANE('',#757);
#759=CARTESIAN_POINT('',(0.01,-0.625,0.0));
#760=VERTEX_POINT('',#759);
#761=CARTESIAN_POINT('',(0.01,-0.254142135623731,0.0));
#762=VERTEX_POINT('',#761);
#763=CARTESIAN_POINT('',(0.01,-0.625,0.0));
#764=DIRECTION('',(0.0,1.0,0.0));
#765=VECTOR('',#764,0.370857864376269);
#766=LINE('',#763,#765);
#767=EDGE_CURVE('',#760,#762,#766,.T.);
#768=ORIENTED_EDGE('',*,*,#767,.F.);
#769=CARTESIAN_POINT('',(0.01,-0.625,0.23));
#770=VERTEX_POINT('',#769);
#771=CARTESIAN_POINT('',(0.01,-0.625,0.23));
#772=DIRECTION('',(0.0,0.0,-1.0));
#773=VECTOR('',#772,0.23);
#774=LINE('',#771,#773);
#775=EDGE_CURVE('',#770,#760,#774,.T.);
#776=ORIENTED_EDGE('',*,*,#775,.F.);
#777=CARTESIAN_POINT('',(0.01,-0.254142135623731,0.23));
#778=VERTEX_POINT('',#777);
#779=CARTESIAN_POINT('',(0.01,-0.254142135623731,0.23));
#780=DIRECTION('',(0.0,-1.0,0.0));
#781=VECTOR('',#780,0.370857864376269);
#782=LINE('',#779,#781);
#783=EDGE_CURVE('',#778,#770,#782,.T.);
#784=ORIENTED_EDGE('',*,*,#783,.F.);
#785=CARTESIAN_POINT('',(0.01,-0.254142135623731,0.23));
#786=DIRECTION('',(0.0,0.0,-1.0));
#787=VECTOR('',#786,0.23);
#788=LINE('',#785,#787);
#789=EDGE_CURVE('',#778,#762,#788,.T.);
#790=ORIENTED_EDGE('',*,*,#789,.T.);
#791=EDGE_LOOP('',(#768,#776,#784,#790));
#792=FACE_OUTER_BOUND('',#791,.T.);
#793=ADVANCED_FACE('',(#792),#758,.F.);
#794=CARTESIAN_POINT('',(0.01,-0.254142135623731,0.23));
#795=DIRECTION('',(0.707106781186548,-0.707106781186548,0.0));
#796=DIRECTION('',(0.0,0.0,-1.0));
#797=AXIS2_PLACEMENT_3D('',#794,#795,#796);
#798=PLANE('',#797);
#799=CARTESIAN_POINT('',(0.11,-0.154142135623731,0.0));
#800=VERTEX_POINT('',#799);
#801=CARTESIAN_POINT('',(0.01,-0.254142135623731,1.387779E-017));
#802=DIRECTION('',(0.707106781186547,0.707106781186547,0.0));
#803=VECTOR('',#802,0.141421356237309);
#804=LINE('',#801,#803);
#805=EDGE_CURVE('',#762,#800,#804,.T.);
#806=ORIENTED_EDGE('',*,*,#805,.F.);
#807=ORIENTED_EDGE('',*,*,#789,.F.);
#808=CARTESIAN_POINT('',(0.11,-0.154142135623731,0.23));
#809=VERTEX_POINT('',#808);
#810=CARTESIAN_POINT('',(0.11,-0.154142135623731,0.23));
#811=DIRECTION('',(-0.707106781186547,-0.707106781186547,-1.962616E-016));
#812=VECTOR('',#811,0.141421356237309);
#813=LINE('',#810,#812);
#814=EDGE_CURVE('',#809,#778,#813,.T.);
#815=ORIENTED_EDGE('',*,*,#814,.F.);
#816=CARTESIAN_POINT('',(0.11,-0.154142135623731,0.23));
#817=DIRECTION('',(0.0,0.0,-1.0));
#818=VECTOR('',#817,0.23);
#819=LINE('',#816,#818);
#820=EDGE_CURVE('',#809,#800,#819,.T.);
#821=ORIENTED_EDGE('',*,*,#820,.T.);
#822=EDGE_LOOP('',(#806,#807,#815,#821));
#823=FACE_OUTER_BOUND('',#822,.T.);
#824=ADVANCED_FACE('',(#823),#798,.F.);
#825=CARTESIAN_POINT('',(0.11,-0.154142135623731,0.23));
#826=DIRECTION('',(1.0,0.0,0.0));
#827=DIRECTION('',(0.0,0.0,-1.0));
#828=AXIS2_PLACEMENT_3D('',#825,#826,#827);
#829=PLANE('',#828);
#830=CARTESIAN_POINT('',(0.11,0.154142135623731,0.0));
#831=VERTEX_POINT('',#830);
#832=CARTESIAN_POINT('',(0.11,-0.154142135623731,0.0));
#833=DIRECTION('',(0.0,1.0,0.0));
#834=VECTOR('',#833,0.308284271247462);
#835=LINE('',#832,#834);
#836=EDGE_CURVE('',#800,#831,#835,.T.);
#837=ORIENTED_EDGE('',*,*,#836,.F.);
#838=ORIENTED_EDGE('',*,*,#820,.F.);
#839=CARTESIAN_POINT('',(0.11,0.154142135623731,0.23));
#840=VERTEX_POINT('',#839);
#841=CARTESIAN_POINT('',(0.11,0.154142135623731,0.23));
#842=DIRECTION('',(0.0,-1.0,0.0));
#843=VECTOR('',#842,0.308284271247462);
#844=LINE('',#841,#843);
#845=EDGE_CURVE('',#840,#809,#844,.T.);
#846=ORIENTED_EDGE('',*,*,#845,.F.);
#847=CARTESIAN_POINT('',(0.11,0.154142135623731,0.23));
#848=DIRECTION('',(0.0,0.0,-1.0));
#849=VECTOR('',#848,0.23);
#850=LINE('',#847,#849);
#851=EDGE_CURVE('',#840,#831,#850,.T.);
#852=ORIENTED_EDGE('',*,*,#851,.T.);
#853=EDGE_LOOP('',(#837,#838,#846,#852));
#854=FACE_OUTER_BOUND('',#853,.T.);
#855=ADVANCED_FACE('',(#854),#829,.F.);
#856=CARTESIAN_POINT('',(0.11,0.154142135623731,0.23));
#857=DIRECTION('',(0.707106781186549,0.707106781186546,0.0));
#858=DIRECTION('',(0.0,0.0,-1.0));
#859=AXIS2_PLACEMENT_3D('',#856,#857,#858);
#860=PLANE('',#859);
#861=CARTESIAN_POINT('',(0.01,0.254142135623731,0.0));
#862=VERTEX_POINT('',#861);
#863=CARTESIAN_POINT('',(0.11,0.154142135623731,1.387779E-017));
#864=DIRECTION('',(-0.707106781186546,0.707106781186549,0.0));
#865=VECTOR('',#864,0.14142135623731);
#866=LINE('',#863,#865);
#867=EDGE_CURVE('',#831,#862,#866,.T.);
#868=ORIENTED_EDGE('',*,*,#867,.F.);
#869=ORIENTED_EDGE('',*,*,#851,.F.);
#870=CARTESIAN_POINT('',(0.01,0.254142135623731,0.23));
#871=VERTEX_POINT('',#870);
#872=CARTESIAN_POINT('',(0.01,0.254142135623731,0.23));
#873=DIRECTION('',(0.707106781186546,-0.707106781186549,0.0));
#874=VECTOR('',#873,0.14142135623731);
#875=LINE('',#872,#874);
#876=EDGE_CURVE('',#871,#840,#875,.T.);
#877=ORIENTED_EDGE('',*,*,#876,.F.);
#878=CARTESIAN_POINT('',(0.01,0.254142135623731,0.23));
#879=DIRECTION('',(0.0,0.0,-1.0));
#880=VECTOR('',#879,0.23);
#881=LINE('',#878,#880);
#882=EDGE_CURVE('',#871,#862,#881,.T.);
#883=ORIENTED_EDGE('',*,*,#882,.T.);
#884=EDGE_LOOP('',(#868,#869,#877,#883));
#885=FACE_OUTER_BOUND('',#884,.T.);
#886=ADVANCED_FACE('',(#885),#860,.F.);
#887=CARTESIAN_POINT('',(0.01,0.254142135623731,0.23));
#888=DIRECTION('',(1.0,0.0,0.0));
#889=DIRECTION('',(0.0,0.0,-1.0));
#890=AXIS2_PLACEMENT_3D('',#887,#888,#889);
#891=PLANE('',#890);
#892=CARTESIAN_POINT('',(0.01,0.625,0.0));
#893=VERTEX_POINT('',#892);
#894=CARTESIAN_POINT('',(0.01,0.254142135623731,0.0));
#895=DIRECTION('',(0.0,1.0,0.0));
#896=VECTOR('',#895,0.370857864376269);
#897=LINE('',#894,#896);
#898=EDGE_CURVE('',#862,#893,#897,.T.);
#899=ORIENTED_EDGE('',*,*,#898,.F.);
#900=ORIENTED_EDGE('',*,*,#882,.F.);
#901=CARTESIAN_POINT('',(0.01,0.625,0.23));
#902=VERTEX_POINT('',#901);
#903=CARTESIAN_POINT('',(0.01,0.625,0.23));
#904=DIRECTION('',(0.0,-1.0,0.0));
#905=VECTOR('',#904,0.370857864376269);
#906=LINE('',#903,#905);
#907=EDGE_CURVE('',#902,#871,#906,.T.);
#908=ORIENTED_EDGE('',*,*,#907,.F.);
#909=CARTESIAN_POINT('',(0.01,0.625,0.0));
#910=DIRECTION('',(0.0,0.0,1.0));
#911=VECTOR('',#910,0.23);
#912=LINE('',#909,#911);
#913=EDGE_CURVE('',#893,#902,#912,.T.);
#914=ORIENTED_EDGE('',*,*,#913,.F.);
#915=EDGE_LOOP('',(#899,#900,#908,#914));
#916=FACE_OUTER_BOUND('',#915,.T.);
#917=ADVANCED_FACE('',(#916),#891,.F.);
#918=CARTESIAN_POINT('',(-0.01,0.625,0.23));
#919=DIRECTION('',(-1.0,0.0,0.0));
#920=DIRECTION('',(0.0,0.0,1.0));
#921=AXIS2_PLACEMENT_3D('',#918,#919,#920);
#922=PLANE('',#921);
#923=CARTESIAN_POINT('',(-0.01,0.625,0.0));
#924=VERTEX_POINT('',#923);
#925=CARTESIAN_POINT('',(-0.01,0.625,0.0));
#926=DIRECTION('',(0.0,-1.0,0.0));
#927=VECTOR('',#926,0.379142135623731);
#928=LINE('',#925,#927);
#929=EDGE_CURVE('',#924,#627,#928,.T.);
#930=ORIENTED_EDGE('',*,*,#929,.F.);
#931=CARTESIAN_POINT('',(-0.01,0.625,0.23));
#932=VERTEX_POINT('',#931);
#933=CARTESIAN_POINT('',(-0.01,0.625,0.23));
#934=DIRECTION('',(0.0,0.0,-1.0));
#935=VECTOR('',#934,0.23);
#936=LINE('',#933,#935);
#937=EDGE_CURVE('',#932,#924,#936,.T.);
#938=ORIENTED_EDGE('',*,*,#937,.F.);
#939=CARTESIAN_POINT('',(-0.01,0.245857864376269,0.23));
#940=DIRECTION('',(0.0,1.0,0.0));
#941=VECTOR('',#940,0.379142135623731);
#942=LINE('',#939,#941);
#943=EDGE_CURVE('',#637,#932,#942,.T.);
#944=ORIENTED_EDGE('',*,*,#943,.F.);
#945=ORIENTED_EDGE('',*,*,#642,.T.);
#946=EDGE_LOOP('',(#930,#938,#944,#945));
#947=FACE_OUTER_BOUND('',#946,.T.);
#948=ADVANCED_FACE('',(#947),#922,.F.);
#949=CARTESIAN_POINT('',(8.326673E-017,-0.625,0.61));
#950=DIRECTION('',(0.0,1.0,0.0));
#951=DIRECTION('',(0.0,0.0,1.0));
#952=AXIS2_PLACEMENT_3D('',#949,#950,#951);
#953=PLANE('',#952);
#954=ORIENTED_EDGE('',*,*,#775,.T.);
#955=CARTESIAN_POINT('',(0.7,-0.625,0.0));
#956=VERTEX_POINT('',#955);
#957=CARTESIAN_POINT('',(0.7,-0.625,0.0));
#958=DIRECTION('',(-1.0,0.0,0.0));
#959=VECTOR('',#958,0.69);
#960=LINE('',#957,#959);
#961=EDGE_CURVE('',#956,#760,#960,.T.);
#962=ORIENTED_EDGE('',*,*,#961,.F.);
#963=CARTESIAN_POINT('',(1.0,-0.625,0.3));
#964=VERTEX_POINT('',#963);
#965=CARTESIAN_POINT('',(0.7,-0.625,0.3));
#966=DIRECTION('',(0.0,1.0,0.0));
#967=DIRECTION('',(0.707106781186548,0.0,-0.707106781186547));
#968=AXIS2_PLACEMENT_3D('',#965,#966,#967);
#969=CIRCLE('',#968,0.3);
#970=EDGE_CURVE('',#964,#956,#969,.T.);
#971=ORIENTED_EDGE('',*,*,#970,.F.);
#972=CARTESIAN_POINT('',(1.0,-0.625,0.92));
#973=VERTEX_POINT('',#972);
#974=CARTESIAN_POINT('',(1.0,-0.625,0.92));
#975=DIRECTION('',(0.0,0.0,-1.0));
#976=VECTOR('',#975,0.62);
#977=LINE('',#974,#976);
#978=EDGE_CURVE('',#973,#964,#977,.T.);
#979=ORIENTED_EDGE('',*,*,#978,.F.);
#980=CARTESIAN_POINT('',(0.7,-0.625,1.22));
#981=VERTEX_POINT('',#980);
#982=CARTESIAN_POINT('',(0.7,-0.625,0.92));
#983=DIRECTION('',(0.0,1.0,0.0));
#984=DIRECTION('',(0.707106781186548,0.0,0.707106781186547));
#985=AXIS2_PLACEMENT_3D('',#982,#983,#984);
#986=CIRCLE('',#985,0.3);
#987=EDGE_CURVE('',#981,#973,#986,.T.);
#988=ORIENTED_EDGE('',*,*,#987,.F.);
#989=CARTESIAN_POINT('',(-0.7,-0.625,1.22));
#990=VERTEX_POINT('',#989);
#991=CARTESIAN_POINT('',(-0.7,-0.625,1.22));
#992=DIRECTION('',(1.0,0.0,0.0));
#993=VECTOR('',#992,1.4);
#994=LINE('',#991,#993);
#995=EDGE_CURVE('',#990,#981,#994,.T.);
#996=ORIENTED_EDGE('',*,*,#995,.F.);
#997=CARTESIAN_POINT('',(-1.0,-0.625,0.919999999999999));
#998=VERTEX_POINT('',#997);
#999=CARTESIAN_POINT('',(-0.7,-0.625,0.92));
#1000=DIRECTION('',(0.0,1.0,0.0));
#1001=DIRECTION('',(-0.707106781186548,0.0,0.707106781186547));
#1002=AXIS2_PLACEMENT_3D('',#999,#1000,#1001);
#1003=CIRCLE('',#1002,0.3);
#1004=EDGE_CURVE('',#998,#990,#1003,.T.);
#1005=ORIENTED_EDGE('',*,*,#1004,.F.);
#1006=CARTESIAN_POINT('',(-1.0,-0.625,0.3));
#1007=VERTEX_POINT('',#1006);
#1008=CARTESIAN_POINT('',(-1.0,-0.625,0.3));
#1009=DIRECTION('',(0.0,0.0,1.0));
#1010=VECTOR('',#1009,0.619999999999999);
#1011=LINE('',#1008,#1010);
#1012=EDGE_CURVE('',#1007,#998,#1011,.T.);
#1013=ORIENTED_EDGE('',*,*,#1012,.F.);
#1014=CARTESIAN_POINT('',(-0.7,-0.625,0.0));
#1015=VERTEX_POINT('',#1014);
#1016=CARTESIAN_POINT('',(-0.7,-0.625,0.3));
#1017=DIRECTION('',(0.0,1.0,0.0));
#1018=DIRECTION('',(-0.707106781186547,0.0,-0.707106781186548));
#1019=AXIS2_PLACEMENT_3D('',#1016,#1017,#1018);
#1020=CIRCLE('',#1019,0.3);
#1021=EDGE_CURVE('',#1015,#1007,#1020,.T.);
#1022=ORIENTED_EDGE('',*,*,#1021,.F.);
#1023=CARTESIAN_POINT('',(-0.01,-0.625,0.0));
#1024=DIRECTION('',(-1.0,0.0,0.0));
#1025=VECTOR('',#1024,0.69);
#1026=LINE('',#1023,#1025);
#1027=EDGE_CURVE('',#729,#1015,#1026,.T.);
#1028=ORIENTED_EDGE('',*,*,#1027,.F.);
#1029=ORIENTED_EDGE('',*,*,#749,.T.);
#1030=CARTESIAN_POINT('',(-0.7,-0.625,0.23));
#1031=VERTEX_POINT('',#1030);
#1032=CARTESIAN_POINT('',(-0.01,-0.625,0.23));
#1033=DIRECTION('',(-1.0,0.0,0.0));
#1034=VECTOR('',#1033,0.69);
#1035=LINE('',#1032,#1034);
#1036=EDGE_CURVE('',#738,#1031,#1035,.T.);
#1037=ORIENTED_EDGE('',*,*,#1036,.T.);
#1038=CARTESIAN_POINT('',(-0.77,-0.625,0.3));
#1039=VERTEX_POINT('',#1038);
#1040=CARTESIAN_POINT('',(-0.7,-0.625,0.3));
#1041=DIRECTION('',(0.0,1.0,0.0));
#1042=DIRECTION('',(-0.707106781186547,0.0,-0.707106781186548));
#1043=AXIS2_PLACEMENT_3D('',#1040,#1041,#1042);
#1044=CIRCLE('',#1043,0.07);
#1045=EDGE_CURVE('',#1031,#1039,#1044,.T.);
#1046=ORIENTED_EDGE('',*,*,#1045,.T.);
#1047=CARTESIAN_POINT('',(-0.77,-0.625,0.919999999999999));
#1048=VERTEX_POINT('',#1047);
#1049=CARTESIAN_POINT('',(-0.77,-0.625,0.3));
#1050=DIRECTION('',(0.0,0.0,1.0));
#1051=VECTOR('',#1050,0.619999999999999);
#1052=LINE('',#1049,#1051);
#1053=EDGE_CURVE('',#1039,#1048,#1052,.T.);
#1054=ORIENTED_EDGE('',*,*,#1053,.T.);
#1055=CARTESIAN_POINT('',(-0.7,-0.625,0.99));
#1056=VERTEX_POINT('',#1055);
#1057=CARTESIAN_POINT('',(-0.7,-0.625,0.92));
#1058=DIRECTION('',(0.0,1.0,0.0));
#1059=DIRECTION('',(-0.707106781186548,0.0,0.707106781186547));
#1060=AXIS2_PLACEMENT_3D('',#1057,#1058,#1059);
#1061=CIRCLE('',#1060,0.07);
#1062=EDGE_CURVE('',#1048,#1056,#1061,.T.);
#1063=ORIENTED_EDGE('',*,*,#1062,.T.);
#1064=CARTESIAN_POINT('',(0.7,-0.625,0.99));
#1065=VERTEX_POINT('',#1064);
#1066=CARTESIAN_POINT('',(-0.7,-0.625,0.99));
#1067=DIRECTION('',(1.0,0.0,0.0));
#1068=VECTOR('',#1067,1.4);
#1069=LINE('',#1066,#1068);
#1070=EDGE_CURVE('',#1056,#1065,#1069,.T.);
#1071=ORIENTED_EDGE('',*,*,#1070,.T.);
#1072=CARTESIAN_POINT('',(0.77,-0.625,0.92));
#1073=VERTEX_POINT('',#1072);
#1074=CARTESIAN_POINT('',(0.7,-0.625,0.92));
#1075=DIRECTION('',(0.0,1.0,0.0));
#1076=DIRECTION('',(0.707106781186548,0.0,0.707106781186547));
#1077=AXIS2_PLACEMENT_3D('',#1074,#1075,#1076);
#1078=CIRCLE('',#1077,0.07);
#1079=EDGE_CURVE('',#1065,#1073,#1078,.T.);
#1080=ORIENTED_EDGE('',*,*,#1079,.T.);
#1081=CARTESIAN_POINT('',(0.77,-0.625,0.3));
#1082=VERTEX_POINT('',#1081);
#1083=CARTESIAN_POINT('',(0.77,-0.625,0.92));
#1084=DIRECTION('',(0.0,0.0,-1.0));
#1085=VECTOR('',#1084,0.62);
#1086=LINE('',#1083,#1085);
#1087=EDGE_CURVE('',#1073,#1082,#1086,.T.);
#1088=ORIENTED_EDGE('',*,*,#1087,.T.);
#1089=CARTESIAN_POINT('',(0.7,-0.625,0.23));
#1090=VERTEX_POINT('',#1089);
#1091=CARTESIAN_POINT('',(0.7,-0.625,0.3));
#1092=DIRECTION('',(0.0,1.0,0.0));
#1093=DIRECTION('',(0.707106781186548,0.0,-0.707106781186547));
#1094=AXIS2_PLACEMENT_3D('',#1091,#1092,#1093);
#1095=CIRCLE('',#1094,0.07);
#1096=EDGE_CURVE('',#1082,#1090,#1095,.T.);
#1097=ORIENTED_EDGE('',*,*,#1096,.T.);
#1098=CARTESIAN_POINT('',(0.7,-0.625,0.23));
#1099=DIRECTION('',(-1.0,0.0,0.0));
#1100=VECTOR('',#1099,0.69);
#1101=LINE('',#1098,#1100);
#1102=EDGE_CURVE('',#1090,#770,#1101,.T.);
#1103=ORIENTED_EDGE('',*,*,#1102,.T.);
#1104=EDGE_LOOP('',(#954,#962,#971,#979,#988,#996,#1005,#1013,#1022,#1028,#1029,#1037,#1046,#1054,#1063,#1071,#1080,#1088,#1097,#1103));
#1105=FACE_OUTER_BOUND('',#1104,.T.);
#1106=ADVANCED_FACE('',(#1105),#953,.F.);
#1107=CARTESIAN_POINT('',(-0.7,-0.625,0.23));
#1108=DIRECTION('',(0.0,0.0,-1.0));
#1109=DIRECTION('',(-1.0,0.0,0.0));
#1110=AXIS2_PLACEMENT_3D('',#1107,#1108,#1109);
#1111=PLANE('',#1110);
#1112=ORIENTED_EDGE('',*,*,#743,.T.);
#1113=ORIENTED_EDGE('',*,*,#712,.T.);
#1114=ORIENTED_EDGE('',*,*,#681,.T.);
#1115=ORIENTED_EDGE('',*,*,#650,.T.);
#1116=ORIENTED_EDGE('',*,*,#943,.T.);
#1117=CARTESIAN_POINT('',(-0.7,0.625,0.23));
#1118=VERTEX_POINT('',#1117);
#1119=CARTESIAN_POINT('',(-0.7,0.625,0.23));
#1120=DIRECTION('',(1.0,0.0,0.0));
#1121=VECTOR('',#1120,0.69);
#1122=LINE('',#1119,#1121);
#1123=EDGE_CURVE('',#1118,#932,#1122,.T.);
#1124=ORIENTED_EDGE('',*,*,#1123,.F.);
#1125=CARTESIAN_POINT('',(-0.7,-0.625,0.23));
#1126=DIRECTION('',(0.0,1.0,0.0));
#1127=VECTOR('',#1126,1.25);
#1128=LINE('',#1125,#1127);
#1129=EDGE_CURVE('',#1031,#1118,#1128,.T.);
#1130=ORIENTED_EDGE('',*,*,#1129,.F.);
#1131=ORIENTED_EDGE('',*,*,#1036,.F.);
#1132=EDGE_LOOP('',(#1112,#1113,#1114,#1115,#1116,#1124,#1130,#1131));
#1133=FACE_OUTER_BOUND('',#1132,.T.);
#1134=ADVANCED_FACE('',(#1133),#1111,.F.);
#1135=CARTESIAN_POINT('',(-0.7,-0.625,0.0));
#1136=DIRECTION('',(0.0,0.0,-1.0));
#1137=DIRECTION('',(-1.0,0.0,0.0));
#1138=AXIS2_PLACEMENT_3D('',#1135,#1136,#1137);
#1139=PLANE('',#1138);
#1140=ORIENTED_EDGE('',*,*,#734,.T.);
#1141=ORIENTED_EDGE('',*,*,#1027,.T.);
#1142=CARTESIAN_POINT('',(-0.7,0.625,0.0));
#1143=VERTEX_POINT('',#1142);
#1144=CARTESIAN_POINT('',(-0.7,-0.625,0.0));
#1145=DIRECTION('',(0.0,1.0,0.0));
#1146=VECTOR('',#1145,1.25);
#1147=LINE('',#1144,#1146);
#1148=EDGE_CURVE('',#1015,#1143,#1147,.T.);
#1149=ORIENTED_EDGE('',*,*,#1148,.T.);
#1150=CARTESIAN_POINT('',(-0.7,0.625,0.0));
#1151=DIRECTION('',(1.0,0.0,0.0));
#1152=VECTOR('',#1151,0.69);
#1153=LINE('',#1150,#1152);
#1154=EDGE_CURVE('',#1143,#924,#1153,.T.);
#1155=ORIENTED_EDGE('',*,*,#1154,.T.);
#1156=ORIENTED_EDGE('',*,*,#929,.T.);
#1157=ORIENTED_EDGE('',*,*,#634,.T.);
#1158=ORIENTED_EDGE('',*,*,#672,.T.);
#1159=ORIENTED_EDGE('',*,*,#703,.T.);
#1160=EDGE_LOOP('',(#1140,#1141,#1149,#1155,#1156,#1157,#1158,#1159));
#1161=FACE_OUTER_BOUND('',#1160,.T.);
#1162=ADVANCED_FACE('',(#1161),#1139,.T.);
#1163=CARTESIAN_POINT('',(-0.7,-0.625,0.0));
#1164=DIRECTION('',(0.0,0.0,-1.0));
#1165=DIRECTION('',(-1.0,0.0,0.0));
#1166=AXIS2_PLACEMENT_3D('',#1163,#1164,#1165);
#1167=PLANE('',#1166);
#1168=ORIENTED_EDGE('',*,*,#767,.T.);
#1169=ORIENTED_EDGE('',*,*,#805,.T.);
#1170=ORIENTED_EDGE('',*,*,#836,.T.);
#1171=ORIENTED_EDGE('',*,*,#867,.T.);
#1172=ORIENTED_EDGE('',*,*,#898,.T.);
#1173=CARTESIAN_POINT('',(0.7,0.625,0.0));
#1174=VERTEX_POINT('',#1173);
#1175=CARTESIAN_POINT('',(0.01,0.625,0.0));
#1176=DIRECTION('',(1.0,0.0,0.0));
#1177=VECTOR('',#1176,0.69);
#1178=LINE('',#1175,#1177);
#1179=EDGE_CURVE('',#893,#1174,#1178,.T.);
#1180=ORIENTED_EDGE('',*,*,#1179,.T.);
#1181=CARTESIAN_POINT('',(0.7,-0.625,0.0));
#1182=DIRECTION('',(0.0,1.0,0.0));
#1183=VECTOR('',#1182,1.25);
#1184=LINE('',#1181,#1183);
#1185=EDGE_CURVE('',#956,#1174,#1184,.T.);
#1186=ORIENTED_EDGE('',*,*,#1185,.F.);
#1187=ORIENTED_EDGE('',*,*,#961,.T.);
#1188=EDGE_LOOP('',(#1168,#1169,#1170,#1171,#1172,#1180,#1186,#1187));
#1189=FACE_OUTER_BOUND('',#1188,.T.);
#1190=ADVANCED_FACE('',(#1189),#1167,.T.);
#1191=CARTESIAN_POINT('',(-0.7,-0.625,0.92));
#1192=DIRECTION('',(0.0,1.0,0.0));
#1193=DIRECTION('',(-0.707106781186548,0.0,0.707106781186547));
#1194=AXIS2_PLACEMENT_3D('',#1191,#1192,#1193);
#1195=CYLINDRICAL_SURFACE('',#1194,0.07);
#1196=CARTESIAN_POINT('',(-0.7,0.625,0.99));
#1197=VERTEX_POINT('',#1196);
#1198=CARTESIAN_POINT('',(-0.77,0.625,0.919999999999999));
#1199=VERTEX_POINT('',#1198);
#1200=CARTESIAN_POINT('',(-0.7,0.625,0.92));
#1201=DIRECTION('',(0.0,-1.0,0.0));
#1202=DIRECTION('',(-0.707106781186548,0.0,0.707106781186547));
#1203=AXIS2_PLACEMENT_3D('',#1200,#1201,#1202);
#1204=CIRCLE('',#1203,0.07);
#1205=EDGE_CURVE('',#1197,#1199,#1204,.T.);
#1206=ORIENTED_EDGE('',*,*,#1205,.F.);
#1207=CARTESIAN_POINT('',(-0.7,-0.625,0.99));
#1208=DIRECTION('',(0.0,1.0,0.0));
#1209=VECTOR('',#1208,1.25);
#1210=LINE('',#1207,#1209);
#1211=EDGE_CURVE('',#1056,#1197,#1210,.T.);
#1212=ORIENTED_EDGE('',*,*,#1211,.F.);
#1213=ORIENTED_EDGE('',*,*,#1062,.F.);
#1214=CARTESIAN_POINT('',(-0.77,-0.625,0.919999999999999));
#1215=DIRECTION('',(0.0,1.0,0.0));
#1216=VECTOR('',#1215,1.25);
#1217=LINE('',#1214,#1216);
#1218=EDGE_CURVE('',#1048,#1199,#1217,.T.);
#1219=ORIENTED_EDGE('',*,*,#1218,.T.);
#1220=EDGE_LOOP('',(#1206,#1212,#1213,#1219));
#1221=FACE_OUTER_BOUND('',#1220,.T.);
#1222=ADVANCED_FACE('',(#1221),#1195,.F.);
#1223=CARTESIAN_POINT('',(-0.77,-0.625,0.919999999999999));
#1224=DIRECTION('',(-1.0,0.0,0.0));
#1225=DIRECTION('',(0.0,0.0,1.0));
#1226=AXIS2_PLACEMENT_3D('',#1223,#1224,#1225);
#1227=PLANE('',#1226);
#1228=CARTESIAN_POINT('',(-0.77,0.625,0.3));
#1229=VERTEX_POINT('',#1228);
#1230=CARTESIAN_POINT('',(-0.77,0.625,0.919999999999999));
#1231=DIRECTION('',(0.0,0.0,-1.0));
#1232=VECTOR('',#1231,0.619999999999999);
#1233=LINE('',#1230,#1232);
#1234=EDGE_CURVE('',#1199,#1229,#1233,.T.);
#1235=ORIENTED_EDGE('',*,*,#1234,.F.);
#1236=ORIENTED_EDGE('',*,*,#1218,.F.);
#1237=ORIENTED_EDGE('',*,*,#1053,.F.);
#1238=CARTESIAN_POINT('',(-0.77,-0.625,0.3));
#1239=DIRECTION('',(0.0,1.0,0.0));
#1240=VECTOR('',#1239,1.25);
#1241=LINE('',#1238,#1240);
#1242=EDGE_CURVE('',#1039,#1229,#1241,.T.);
#1243=ORIENTED_EDGE('',*,*,#1242,.T.);
#1244=EDGE_LOOP('',(#1235,#1236,#1237,#1243));
#1245=FACE_OUTER_BOUND('',#1244,.T.);
#1246=ADVANCED_FACE('',(#1245),#1227,.F.);
#1247=CARTESIAN_POINT('',(-0.7,-0.625,0.3));
#1248=DIRECTION('',(0.0,1.0,0.0));
#1249=DIRECTION('',(-0.707106781186547,0.0,-0.707106781186548));
#1250=AXIS2_PLACEMENT_3D('',#1247,#1248,#1249);
#1251=CYLINDRICAL_SURFACE('',#1250,0.07);
#1252=CARTESIAN_POINT('',(-0.7,0.625,0.3));
#1253=DIRECTION('',(0.0,-1.0,0.0));
#1254=DIRECTION('',(-0.707106781186547,0.0,-0.707106781186548));
#1255=AXIS2_PLACEMENT_3D('',#1252,#1253,#1254);
#1256=CIRCLE('',#1255,0.07);
#1257=EDGE_CURVE('',#1229,#1118,#1256,.T.);
#1258=ORIENTED_EDGE('',*,*,#1257,.F.);
#1259=ORIENTED_EDGE('',*,*,#1242,.F.);
#1260=ORIENTED_EDGE('',*,*,#1045,.F.);
#1261=ORIENTED_EDGE('',*,*,#1129,.T.);
#1262=EDGE_LOOP('',(#1258,#1259,#1260,#1261));
#1263=FACE_OUTER_BOUND('',#1262,.T.);
#1264=ADVANCED_FACE('',(#1263),#1251,.F.);
#1265=CARTESIAN_POINT('',(-0.7,-0.625,0.23));
#1266=DIRECTION('',(0.0,0.0,-1.0));
#1267=DIRECTION('',(-1.0,0.0,0.0));
#1268=AXIS2_PLACEMENT_3D('',#1265,#1266,#1267);
#1269=PLANE('',#1268);
#1270=ORIENTED_EDGE('',*,*,#783,.T.);
#1271=ORIENTED_EDGE('',*,*,#1102,.F.);
#1272=CARTESIAN_POINT('',(0.7,0.625,0.23));
#1273=VERTEX_POINT('',#1272);
#1274=CARTESIAN_POINT('',(0.7,-0.625,0.23));
#1275=DIRECTION('',(0.0,1.0,0.0));
#1276=VECTOR('',#1275,1.25);
#1277=LINE('',#1274,#1276);
#1278=EDGE_CURVE('',#1090,#1273,#1277,.T.);
#1279=ORIENTED_EDGE('',*,*,#1278,.T.);
#1280=CARTESIAN_POINT('',(0.01,0.625,0.23));
#1281=DIRECTION('',(1.0,0.0,0.0));
#1282=VECTOR('',#1281,0.69);
#1283=LINE('',#1280,#1282);
#1284=EDGE_CURVE('',#902,#1273,#1283,.T.);
#1285=ORIENTED_EDGE('',*,*,#1284,.F.);
#1286=ORIENTED_EDGE('',*,*,#907,.T.);
#1287=ORIENTED_EDGE('',*,*,#876,.T.);
#1288=ORIENTED_EDGE('',*,*,#845,.T.);
#1289=ORIENTED_EDGE('',*,*,#814,.T.);
#1290=EDGE_LOOP('',(#1270,#1271,#1279,#1285,#1286,#1287,#1288,#1289));
#1291=FACE_OUTER_BOUND('',#1290,.T.);
#1292=ADVANCED_FACE('',(#1291),#1269,.F.);
#1293=CARTESIAN_POINT('',(0.7,-0.625,0.3));
#1294=DIRECTION('',(0.0,1.0,0.0));
#1295=DIRECTION('',(0.707106781186548,0.0,-0.707106781186547));
#1296=AXIS2_PLACEMENT_3D('',#1293,#1294,#1295);
#1297=CYLINDRICAL_SURFACE('',#1296,0.07);
#1298=CARTESIAN_POINT('',(0.77,0.625,0.3));
#1299=VERTEX_POINT('',#1298);
#1300=CARTESIAN_POINT('',(0.7,0.625,0.3));
#1301=DIRECTION('',(0.0,-1.0,0.0));
#1302=DIRECTION('',(0.707106781186548,0.0,-0.707106781186547));
#1303=AXIS2_PLACEMENT_3D('',#1300,#1301,#1302);
#1304=CIRCLE('',#1303,0.07);
#1305=EDGE_CURVE('',#1273,#1299,#1304,.T.);
#1306=ORIENTED_EDGE('',*,*,#1305,.F.);
#1307=ORIENTED_EDGE('',*,*,#1278,.F.);
#1308=ORIENTED_EDGE('',*,*,#1096,.F.);
#1309=CARTESIAN_POINT('',(0.77,-0.625,0.3));
#1310=DIRECTION('',(0.0,1.0,0.0));
#1311=VECTOR('',#1310,1.25);
#1312=LINE('',#1309,#1311);
#1313=EDGE_CURVE('',#1082,#1299,#1312,.T.);
#1314=ORIENTED_EDGE('',*,*,#1313,.T.);
#1315=EDGE_LOOP('',(#1306,#1307,#1308,#1314));
#1316=FACE_OUTER_BOUND('',#1315,.T.);
#1317=ADVANCED_FACE('',(#1316),#1297,.F.);
#1318=CARTESIAN_POINT('',(0.77,-0.625,0.3));
#1319=DIRECTION('',(1.0,0.0,0.0));
#1320=DIRECTION('',(0.0,0.0,-1.0));
#1321=AXIS2_PLACEMENT_3D('',#1318,#1319,#1320);
#1322=PLANE('',#1321);
#1323=CARTESIAN_POINT('',(0.77,0.625,0.92));
#1324=VERTEX_POINT('',#1323);
#1325=CARTESIAN_POINT('',(0.77,0.625,0.3));
#1326=DIRECTION('',(0.0,0.0,1.0));
#1327=VECTOR('',#1326,0.62);
#1328=LINE('',#1325,#1327);
#1329=EDGE_CURVE('',#1299,#1324,#1328,.T.);
#1330=ORIENTED_EDGE('',*,*,#1329,.F.);
#1331=ORIENTED_EDGE('',*,*,#1313,.F.);
#1332=ORIENTED_EDGE('',*,*,#1087,.F.);
#1333=CARTESIAN_POINT('',(0.77,-0.625,0.92));
#1334=DIRECTION('',(0.0,1.0,0.0));
#1335=VECTOR('',#1334,1.25);
#1336=LINE('',#1333,#1335);
#1337=EDGE_CURVE('',#1073,#1324,#1336,.T.);
#1338=ORIENTED_EDGE('',*,*,#1337,.T.);
#1339=EDGE_LOOP('',(#1330,#1331,#1332,#1338));
#1340=FACE_OUTER_BOUND('',#1339,.T.);
#1341=ADVANCED_FACE('',(#1340),#1322,.F.);
#1342=CARTESIAN_POINT('',(0.7,-0.625,0.92));
#1343=DIRECTION('',(0.0,1.0,0.0));
#1344=DIRECTION('',(0.707106781186548,0.0,0.707106781186547));
#1345=AXIS2_PLACEMENT_3D('',#1342,#1343,#1344);
#1346=CYLINDRICAL_SURFACE('',#1345,0.07);
#1347=CARTESIAN_POINT('',(0.7,0.625,0.99));
#1348=VERTEX_POINT('',#1347);
#1349=CARTESIAN_POINT('',(0.7,0.625,0.92));
#1350=DIRECTION('',(0.0,-1.0,0.0));
#1351=DIRECTION('',(0.707106781186548,0.0,0.707106781186547));
#1352=AXIS2_PLACEMENT_3D('',#1349,#1350,#1351);
#1353=CIRCLE('',#1352,0.07);
#1354=EDGE_CURVE('',#1324,#1348,#1353,.T.);
#1355=ORIENTED_EDGE('',*,*,#1354,.F.);
#1356=ORIENTED_EDGE('',*,*,#1337,.F.);
#1357=ORIENTED_EDGE('',*,*,#1079,.F.);
#1358=CARTESIAN_POINT('',(0.7,-0.625,0.99));
#1359=DIRECTION('',(0.0,1.0,0.0));
#1360=VECTOR('',#1359,1.25);
#1361=LINE('',#1358,#1360);
#1362=EDGE_CURVE('',#1065,#1348,#1361,.T.);
#1363=ORIENTED_EDGE('',*,*,#1362,.T.);
#1364=EDGE_LOOP('',(#1355,#1356,#1357,#1363));
#1365=FACE_OUTER_BOUND('',#1364,.T.);
#1366=ADVANCED_FACE('',(#1365),#1346,.F.);
#1367=CARTESIAN_POINT('',(0.7,-0.625,0.99));
#1368=DIRECTION('',(0.0,0.0,1.0));
#1369=DIRECTION('',(1.0,0.0,0.0));
#1370=AXIS2_PLACEMENT_3D('',#1367,#1368,#1369);
#1371=PLANE('',#1370);
#1372=CARTESIAN_POINT('',(0.7,0.625,0.99));
#1373=DIRECTION('',(-1.0,0.0,0.0));
#1374=VECTOR('',#1373,1.4);
#1375=LINE('',#1372,#1374);
#1376=EDGE_CURVE('',#1348,#1197,#1375,.T.);
#1377=ORIENTED_EDGE('',*,*,#1376,.F.);
#1378=ORIENTED_EDGE('',*,*,#1362,.F.);
#1379=ORIENTED_EDGE('',*,*,#1070,.F.);
#1380=ORIENTED_EDGE('',*,*,#1211,.T.);
#1381=EDGE_LOOP('',(#1377,#1378,#1379,#1380));
#1382=FACE_OUTER_BOUND('',#1381,.T.);
#1383=ADVANCED_FACE('',(#1382),#1371,.F.);
#1384=CARTESIAN_POINT('',(-0.7,-0.625,0.92));
#1385=DIRECTION('',(0.0,1.0,0.0));
#1386=DIRECTION('',(-0.707106781186548,0.0,0.707106781186547));
#1387=AXIS2_PLACEMENT_3D('',#1384,#1385,#1386);
#1388=CYLINDRICAL_SURFACE('',#1387,0.3);
#1389=CARTESIAN_POINT('',(-0.7,0.625,1.22));
#1390=VERTEX_POINT('',#1389);
#1391=CARTESIAN_POINT('',(-1.0,0.625,0.919999999999999));
#1392=VERTEX_POINT('',#1391);
#1393=CARTESIAN_POINT('',(-0.7,0.625,0.92));
#1394=DIRECTION('',(0.0,-1.0,0.0));
#1395=DIRECTION('',(-0.707106781186548,0.0,0.707106781186547));
#1396=AXIS2_PLACEMENT_3D('',#1393,#1394,#1395);
#1397=CIRCLE('',#1396,0.3);
#1398=EDGE_CURVE('',#1390,#1392,#1397,.T.);
#1399=ORIENTED_EDGE('',*,*,#1398,.T.);
#1400=CARTESIAN_POINT('',(-1.0,-0.625,0.919999999999999));
#1401=DIRECTION('',(0.0,1.0,0.0));
#1402=VECTOR('',#1401,1.25);
#1403=LINE('',#1400,#1402);
#1404=EDGE_CURVE('',#998,#1392,#1403,.T.);
#1405=ORIENTED_EDGE('',*,*,#1404,.F.);
#1406=ORIENTED_EDGE('',*,*,#1004,.T.);
#1407=CARTESIAN_POINT('',(-0.7,-0.625,1.22));
#1408=DIRECTION('',(0.0,1.0,0.0));
#1409=VECTOR('',#1408,1.25);
#1410=LINE('',#1407,#1409);
#1411=EDGE_CURVE('',#990,#1390,#1410,.T.);
#1412=ORIENTED_EDGE('',*,*,#1411,.T.);
#1413=EDGE_LOOP('',(#1399,#1405,#1406,#1412));
#1414=FACE_OUTER_BOUND('',#1413,.T.);
#1415=ADVANCED_FACE('',(#1414),#1388,.T.);
#1416=CARTESIAN_POINT('',(-1.0,-0.625,0.919999999999999));
#1417=DIRECTION('',(-1.0,0.0,0.0));
#1418=DIRECTION('',(0.0,0.0,1.0));
#1419=AXIS2_PLACEMENT_3D('',#1416,#1417,#1418);
#1420=PLANE('',#1419);
#1421=CARTESIAN_POINT('',(-1.0,0.625,0.3));
#1422=VERTEX_POINT('',#1421);
#1423=CARTESIAN_POINT('',(-1.0,0.625,0.919999999999999));
#1424=DIRECTION('',(0.0,0.0,-1.0));
#1425=VECTOR('',#1424,0.619999999999999);
#1426=LINE('',#1423,#1425);
#1427=EDGE_CURVE('',#1392,#1422,#1426,.T.);
#1428=ORIENTED_EDGE('',*,*,#1427,.T.);
#1429=CARTESIAN_POINT('',(-1.0,-0.625,0.3));
#1430=DIRECTION('',(0.0,1.0,0.0));
#1431=VECTOR('',#1430,1.25);
#1432=LINE('',#1429,#1431);
#1433=EDGE_CURVE('',#1007,#1422,#1432,.T.);
#1434=ORIENTED_EDGE('',*,*,#1433,.F.);
#1435=ORIENTED_EDGE('',*,*,#1012,.T.);
#1436=ORIENTED_EDGE('',*,*,#1404,.T.);
#1437=EDGE_LOOP('',(#1428,#1434,#1435,#1436));
#1438=FACE_OUTER_BOUND('',#1437,.T.);
#1439=ADVANCED_FACE('',(#1438),#1420,.T.);
#1440=CARTESIAN_POINT('',(-0.7,-0.625,0.3));
#1441=DIRECTION('',(0.0,1.0,0.0));
#1442=DIRECTION('',(-0.707106781186547,0.0,-0.707106781186548));
#1443=AXIS2_PLACEMENT_3D('',#1440,#1441,#1442);
#1444=CYLINDRICAL_SURFACE('',#1443,0.3);
#1445=CARTESIAN_POINT('',(-0.7,0.625,0.3));
#1446=DIRECTION('',(0.0,-1.0,0.0));
#1447=DIRECTION('',(-0.707106781186547,0.0,-0.707106781186548));
#1448=AXIS2_PLACEMENT_3D('',#1445,#1446,#1447);
#1449=CIRCLE('',#1448,0.3);
#1450=EDGE_CURVE('',#1422,#1143,#1449,.T.);
#1451=ORIENTED_EDGE('',*,*,#1450,.T.);
#1452=ORIENTED_EDGE('',*,*,#1148,.F.);
#1453=ORIENTED_EDGE('',*,*,#1021,.T.);
#1454=ORIENTED_EDGE('',*,*,#1433,.T.);
#1455=EDGE_LOOP('',(#1451,#1452,#1453,#1454));
#1456=FACE_OUTER_BOUND('',#1455,.T.);
#1457=ADVANCED_FACE('',(#1456),#1444,.T.);
#1458=CARTESIAN_POINT('',(0.7,-0.625,0.3));
#1459=DIRECTION('',(0.0,1.0,0.0));
#1460=DIRECTION('',(0.707106781186548,0.0,-0.707106781186547));
#1461=AXIS2_PLACEMENT_3D('',#1458,#1459,#1460);
#1462=CYLINDRICAL_SURFACE('',#1461,0.3);
#1463=CARTESIAN_POINT('',(1.0,0.625,0.3));
#1464=VERTEX_POINT('',#1463);
#1465=CARTESIAN_POINT('',(0.7,0.625,0.3));
#1466=DIRECTION('',(0.0,-1.0,0.0));
#1467=DIRECTION('',(0.707106781186548,0.0,-0.707106781186547));
#1468=AXIS2_PLACEMENT_3D('',#1465,#1466,#1467);
#1469=CIRCLE('',#1468,0.3);
#1470=EDGE_CURVE('',#1174,#1464,#1469,.T.);
#1471=ORIENTED_EDGE('',*,*,#1470,.T.);
#1472=CARTESIAN_POINT('',(1.0,-0.625,0.3));
#1473=DIRECTION('',(0.0,1.0,0.0));
#1474=VECTOR('',#1473,1.25);
#1475=LINE('',#1472,#1474);
#1476=EDGE_CURVE('',#964,#1464,#1475,.T.);
#1477=ORIENTED_EDGE('',*,*,#1476,.F.);
#1478=ORIENTED_EDGE('',*,*,#970,.T.);
#1479=ORIENTED_EDGE('',*,*,#1185,.T.);
#1480=EDGE_LOOP('',(#1471,#1477,#1478,#1479));
#1481=FACE_OUTER_BOUND('',#1480,.T.);
#1482=ADVANCED_FACE('',(#1481),#1462,.T.);
#1483=CARTESIAN_POINT('',(1.0,-0.625,0.3));
#1484=DIRECTION('',(1.0,0.0,0.0));
#1485=DIRECTION('',(0.0,0.0,-1.0));
#1486=AXIS2_PLACEMENT_3D('',#1483,#1484,#1485);
#1487=PLANE('',#1486);
#1488=CARTESIAN_POINT('',(1.0,0.625,0.92));
#1489=VERTEX_POINT('',#1488);
#1490=CARTESIAN_POINT('',(1.0,0.625,0.3));
#1491=DIRECTION('',(0.0,0.0,1.0));
#1492=VECTOR('',#1491,0.62);
#1493=LINE('',#1490,#1492);
#1494=EDGE_CURVE('',#1464,#1489,#1493,.T.);
#1495=ORIENTED_EDGE('',*,*,#1494,.T.);
#1496=CARTESIAN_POINT('',(1.0,-0.625,0.92));
#1497=DIRECTION('',(0.0,1.0,0.0));
#1498=VECTOR('',#1497,1.25);
#1499=LINE('',#1496,#1498);
#1500=EDGE_CURVE('',#973,#1489,#1499,.T.);
#1501=ORIENTED_EDGE('',*,*,#1500,.F.);
#1502=ORIENTED_EDGE('',*,*,#978,.T.);
#1503=ORIENTED_EDGE('',*,*,#1476,.T.);
#1504=EDGE_LOOP('',(#1495,#1501,#1502,#1503));
#1505=FACE_OUTER_BOUND('',#1504,.T.);
#1506=ADVANCED_FACE('',(#1505),#1487,.T.);
#1507=CARTESIAN_POINT('',(0.7,-0.625,0.92));
#1508=DIRECTION('',(0.0,1.0,0.0));
#1509=DIRECTION('',(0.707106781186548,0.0,0.707106781186547));
#1510=AXIS2_PLACEMENT_3D('',#1507,#1508,#1509);
#1511=CYLINDRICAL_SURFACE('',#1510,0.3);
#1512=CARTESIAN_POINT('',(0.7,0.625,1.22));
#1513=VERTEX_POINT('',#1512);
#1514=CARTESIAN_POINT('',(0.7,0.625,0.92));
#1515=DIRECTION('',(0.0,-1.0,0.0));
#1516=DIRECTION('',(0.707106781186548,0.0,0.707106781186547));
#1517=AXIS2_PLACEMENT_3D('',#1514,#1515,#1516);
#1518=CIRCLE('',#1517,0.3);
#1519=EDGE_CURVE('',#1489,#1513,#1518,.T.);
#1520=ORIENTED_EDGE('',*,*,#1519,.T.);
#1521=CARTESIAN_POINT('',(0.7,-0.625,1.22));
#1522=DIRECTION('',(0.0,1.0,0.0));
#1523=VECTOR('',#1522,1.25);
#1524=LINE('',#1521,#1523);
#1525=EDGE_CURVE('',#981,#1513,#1524,.T.);
#1526=ORIENTED_EDGE('',*,*,#1525,.F.);
#1527=ORIENTED_EDGE('',*,*,#987,.T.);
#1528=ORIENTED_EDGE('',*,*,#1500,.T.);
#1529=EDGE_LOOP('',(#1520,#1526,#1527,#1528));
#1530=FACE_OUTER_BOUND('',#1529,.T.);
#1531=ADVANCED_FACE('',(#1530),#1511,.T.);
#1532=CARTESIAN_POINT('',(0.7,-0.625,1.22));
#1533=DIRECTION('',(0.0,0.0,1.0));
#1534=DIRECTION('',(1.0,0.0,0.0));
#1535=AXIS2_PLACEMENT_3D('',#1532,#1533,#1534);
#1536=PLANE('',#1535);
#1537=CARTESIAN_POINT('',(0.7,0.625,1.22));
#1538=DIRECTION('',(-1.0,0.0,0.0));
#1539=VECTOR('',#1538,1.4);
#1540=LINE('',#1537,#1539);
#1541=EDGE_CURVE('',#1513,#1390,#1540,.T.);
#1542=ORIENTED_EDGE('',*,*,#1541,.T.);
#1543=ORIENTED_EDGE('',*,*,#1411,.F.);
#1544=ORIENTED_EDGE('',*,*,#995,.T.);
#1545=ORIENTED_EDGE('',*,*,#1525,.T.);
#1546=EDGE_LOOP('',(#1542,#1543,#1544,#1545));
#1547=FACE_OUTER_BOUND('',#1546,.T.);
#1548=ADVANCED_FACE('',(#1547),#1536,.T.);
#1549=CARTESIAN_POINT('',(9.714451E-017,0.625,0.61));
#1550=DIRECTION('',(0.0,1.0,0.0));
#1551=DIRECTION('',(0.0,0.0,1.0));
#1552=AXIS2_PLACEMENT_3D('',#1549,#1550,#1551);
#1553=PLANE('',#1552);
#1554=ORIENTED_EDGE('',*,*,#913,.T.);
#1555=ORIENTED_EDGE('',*,*,#1284,.T.);
#1556=ORIENTED_EDGE('',*,*,#1305,.T.);
#1557=ORIENTED_EDGE('',*,*,#1329,.T.);
#1558=ORIENTED_EDGE('',*,*,#1354,.T.);
#1559=ORIENTED_EDGE('',*,*,#1376,.T.);
#1560=ORIENTED_EDGE('',*,*,#1205,.T.);
#1561=ORIENTED_EDGE('',*,*,#1234,.T.);
#1562=ORIENTED_EDGE('',*,*,#1257,.T.);
#1563=ORIENTED_EDGE('',*,*,#1123,.T.);
#1564=ORIENTED_EDGE('',*,*,#937,.T.);
#1565=ORIENTED_EDGE('',*,*,#1154,.F.);
#1566=ORIENTED_EDGE('',*,*,#1450,.F.);
#1567=ORIENTED_EDGE('',*,*,#1427,.F.);
#1568=ORIENTED_EDGE('',*,*,#1398,.F.);
#1569=ORIENTED_EDGE('',*,*,#1541,.F.);
#1570=ORIENTED_EDGE('',*,*,#1519,.F.);
#1571=ORIENTED_EDGE('',*,*,#1494,.F.);
#1572=ORIENTED_EDGE('',*,*,#1470,.F.);
#1573=ORIENTED_EDGE('',*,*,#1179,.F.);
#1574=EDGE_LOOP('',(#1554,#1555,#1556,#1557,#1558,#1559,#1560,#1561,#1562,#1563,#1564,#1565,#1566,#1567,#1568,#1569,#1570,#1571,#1572,#1573));
#1575=FACE_OUTER_BOUND('',#1574,.T.);
#1576=ADVANCED_FACE('',(#1575),#1553,.T.);
#1577=CLOSED_SHELL('',(#660,#691,#722,#753,#793,#824,#855,#886,#917,#948,#1106,#1134,#1162,#1190,#1222,#1246,#1264,#1292,#1317,#1341,#1366,#1383,#1415,#1439,#1457,#1482,#1506,#1531,#1548,#1576));
#1578=MANIFOLD_SOLID_BREP('2B03',#1577);
#1579=STYLED_ITEM('NONE',(#617),#1578);
#1580=ADVANCED_BREP_SHAPE_REPRESENTATION('ABSR1',(#610,#1578),#28);
#1581=SHAPE_REPRESENTATION_RELATIONSHIP('SRRPL1','',#1580,#62);
ENDSEC;
END-ISO-10303-21;
