ISO-10303-21;
HEADER;
/****************************************************************
 * Generated by software with PDE/Lib inside                    *
 * PDElib Version v51a, created Mon 11/23/2009                  *
 * ITI Transcendata (http://www.transcendata.com/)              *
 ****************************************************************/
FILE_DESCRIPTION((''),'2;1');
FILE_NAME('TYCO_826629-2.stp','2011-08-23T10:29:56',(''),(''),'Mechanical Desktop 2011','Mechanical Desktop 2011',', , ');
FILE_SCHEMA(('AUTOMOTIVE_DESIGN { 1 2 10303 214 1 1 1 1 }'));
ENDSEC;
DATA;
#10=(NAMED_UNIT(*)PLANE_ANGLE_UNIT()SI_UNIT($,.RADIAN.));
#11=DIMENSIONAL_EXPONENTS(0.0,0.0,0.0,0.0,0.0,0.0,0.0);
#12=PLANE_ANGLE_MEASURE_WITH_UNIT(PLANE_ANGLE_MEASURE(0.017453292500000),#10);
#16=(CONVERSION_BASED_UNIT('DEGREE',#12)NAMED_UNIT(#11)PLANE_ANGLE_UNIT());
#20=(NAMED_UNIT(*)SI_UNIT($,.STERADIAN.)SOLID_ANGLE_UNIT());
#24=(LENGTH_UNIT()NAMED_UNIT(*)SI_UNIT(.MILLI.,.METRE.));
#26=UNCERTAINTY_MEASURE_WITH_UNIT(LENGTH_MEASURE(0.000001000000000),#24,'DISTANCE_ACCURACY_VALUE','');
#28=(GEOMETRIC_REPRESENTATION_CONTEXT(3)GLOBAL_UNCERTAINTY_ASSIGNED_CONTEXT((#26))GLOBAL_UNIT_ASSIGNED_CONTEXT((#16,#20,#24))REPRESENTATION_CONTEXT('','3D'));
#29=APPLICATION_CONTEXT('automotive design');
#30=APPLICATION_PROTOCOL_DEFINITION('INTERNATIONAL_STANDARD','automotive_design',1998,#29);
#31=PRODUCT_CONTEXT('3D Mechanical Parts',#29,'mechanical');
#32=PRODUCT('Product','Product','',(#31));
#33=PRODUCT_RELATED_PRODUCT_CATEGORY('part',$,(#32));
#34=PRODUCT_CATEGORY('part',$);
#35=PERSON('1','Design','Joe',$,$,$);
#36=ORGANIZATION($,'None','None');
#37=PERSON_AND_ORGANIZATION(#35,#36);
#38=PERSON_AND_ORGANIZATION_ROLE('design_owner');
#39=APPLIED_PERSON_AND_ORGANIZATION_ASSIGNMENT(#37,#38,(#32));
#40=PRODUCT_DEFINITION_FORMATION_WITH_SPECIFIED_SOURCE('None','',#32,.BOUGHT.);
#41=PERSON('2','Creator','Joe',$,$,$);
#42=ORGANIZATION($,'None','None');
#43=PERSON_AND_ORGANIZATION(#41,#42);
#44=PERSON_AND_ORGANIZATION_ROLE('creator');
#45=APPLIED_PERSON_AND_ORGANIZATION_ASSIGNMENT(#43,#44,(#40));
#46=PERSON('3','Supplier','Joe',$,$,$);
#47=ORGANIZATION($,'None','None');
#48=PERSON_AND_ORGANIZATION(#46,#47);
#49=PERSON_AND_ORGANIZATION_ROLE('design_supplier');
#50=APPLIED_PERSON_AND_ORGANIZATION_ASSIGNMENT(#48,#49,(#40));
#51=PRODUCT_DEFINITION_CONTEXT('part definition',#29,'design');
#52=PRODUCT_DEFINITION('None','',#40,#51);
#53=PERSON('4','Creator','Joe',$,$,$);
#54=ORGANIZATION($,'None','None');
#55=PERSON_AND_ORGANIZATION(#53,#54);
#56=PERSON_AND_ORGANIZATION_ROLE('creator');
#57=APPLIED_PERSON_AND_ORGANIZATION_ASSIGNMENT(#55,#56,(#52));
#58=CARTESIAN_POINT('NONE',(0.0,0.0,0.0));
#59=DIRECTION('NONE',(0.0,0.0,1.0));
#60=DIRECTION('NONE',(1.0,0.0,0.0));
#61=AXIS2_PLACEMENT_3D('NONE',#58,#59,#60);
#62=SHAPE_REPRESENTATION('SR1',(#61),#28);
#63=PRODUCT_DEFINITION_SHAPE('PDS1','Test Part',#52);
#64=SHAPE_DEFINITION_REPRESENTATION(#63,#62);
#65=CARTESIAN_POINT('',(3.860000000000000,-1.050000000000000,2.600000000000000));
#66=DIRECTION('',(-1.0,0.0,-2.622574E-016));
#67=DIRECTION('',(-1.854440E-016,-0.707106781186548,0.707106781186547));
#68=AXIS2_PLACEMENT_3D('',#65,#66,#67);
#69=CYLINDRICAL_SURFACE('',#68,0.200000000000000);
#70=CARTESIAN_POINT('',(-1.220000000000000,-1.050000000000000,2.799999999999999));
#71=VERTEX_POINT('',#70);
#72=CARTESIAN_POINT('',(-1.220000000000000,-1.250000000000000,2.599999999999998));
#73=VERTEX_POINT('',#72);
#74=CARTESIAN_POINT('',(-1.220000000000001,-1.050000000000000,2.599999999999998));
#75=DIRECTION('',(1.0,-1.110223E-016,1.110223E-016));
#76=DIRECTION('',(-1.570092E-016,-0.707106781186548,0.707106781186547));
#77=AXIS2_PLACEMENT_3D('',#74,#75,#76);
#78=CIRCLE('',#77,0.200000000000000);
#79=EDGE_CURVE('',#71,#73,#78,.T.);
#80=ORIENTED_EDGE('',*,*,#79,.T.);
#81=CARTESIAN_POINT('',(3.860000000000000,-1.250000000000000,2.600000000000000));
#82=VERTEX_POINT('',#81);
#83=CARTESIAN_POINT('',(3.860000000000000,-1.250000000000000,2.600000000000000));
#84=DIRECTION('',(-1.0,0.0,0.0));
#85=VECTOR('',#84,5.080000000000000);
#86=LINE('',#83,#85);
#87=EDGE_CURVE('',#82,#73,#86,.T.);
#88=ORIENTED_EDGE('',*,*,#87,.F.);
#89=CARTESIAN_POINT('',(3.860000000000000,-1.050000000000000,2.800000000000000));
#90=VERTEX_POINT('',#89);
#91=CARTESIAN_POINT('',(3.860000000000000,-1.050000000000000,2.600000000000000));
#92=DIRECTION('',(1.0,-1.110223E-016,1.110223E-016));
#93=DIRECTION('',(-1.570092E-016,-0.707106781186548,0.707106781186547));
#94=AXIS2_PLACEMENT_3D('',#91,#92,#93);
#95=CIRCLE('',#94,0.200000000000000);
#96=EDGE_CURVE('',#90,#82,#95,.T.);
#97=ORIENTED_EDGE('',*,*,#96,.F.);
#98=CARTESIAN_POINT('',(3.860000000000000,-1.050000000000000,2.800000000000000));
#99=DIRECTION('',(-1.0,0.0,0.0));
#100=VECTOR('',#99,5.080000000000000);
#101=LINE('',#98,#100);
#102=EDGE_CURVE('',#90,#71,#101,.T.);
#103=ORIENTED_EDGE('',*,*,#102,.T.);
#104=EDGE_LOOP('',(#80,#88,#97,#103));
#105=FACE_OUTER_BOUND('',#104,.T.);
#106=ADVANCED_FACE('',(#105),#69,.T.);
#107=CARTESIAN_POINT('',(3.860000000000000,-1.250000000000000,2.600000000000000));
#108=DIRECTION('',(0.0,-1.0,0.0));
#109=DIRECTION('',(0.0,0.0,-1.0));
#110=AXIS2_PLACEMENT_3D('',#107,#108,#109);
#111=PLANE('',#110);
#112=CARTESIAN_POINT('',(-1.220000000000001,-1.250000000000000,-1.363354E-015));
#113=VERTEX_POINT('',#112);
#114=CARTESIAN_POINT('',(-1.220000000000001,-1.250000000000000,2.599999999999998));
#115=DIRECTION('',(0.0,0.0,-1.0));
#116=VECTOR('',#115,2.600000000000000);
#117=LINE('',#114,#116);
#118=EDGE_CURVE('',#73,#113,#117,.T.);
#119=ORIENTED_EDGE('',*,*,#118,.T.);
#120=CARTESIAN_POINT('',(3.860000000000000,-1.250000000000000,-3.108624E-017));
#121=VERTEX_POINT('',#120);
#122=CARTESIAN_POINT('',(3.860000000000000,-1.250000000000000,-3.108624E-017));
#123=DIRECTION('',(-1.0,0.0,0.0));
#124=VECTOR('',#123,5.080000000000001);
#125=LINE('',#122,#124);
#126=EDGE_CURVE('',#121,#113,#125,.T.);
#127=ORIENTED_EDGE('',*,*,#126,.F.);
#128=CARTESIAN_POINT('',(3.860000000000000,-1.250000000000000,2.600000000000000));
#129=DIRECTION('',(0.0,0.0,-1.0));
#130=VECTOR('',#129,2.600000000000000);
#131=LINE('',#128,#130);
#132=EDGE_CURVE('',#82,#121,#131,.T.);
#133=ORIENTED_EDGE('',*,*,#132,.F.);
#134=ORIENTED_EDGE('',*,*,#87,.T.);
#135=EDGE_LOOP('',(#119,#127,#133,#134));
#136=FACE_OUTER_BOUND('',#135,.T.);
#137=ADVANCED_FACE('',(#136),#111,.T.);
#138=CARTESIAN_POINT('',(3.860000000000000,-1.250000000000000,-3.108624E-017));
#139=DIRECTION('',(0.0,0.0,-1.0));
#140=DIRECTION('',(-1.0,0.0,0.0));
#141=AXIS2_PLACEMENT_3D('',#138,#139,#140);
#142=PLANE('',#141);
#143=CARTESIAN_POINT('',(-1.220000000000001,-0.750000000000000,-1.363354E-015));
#144=VERTEX_POINT('',#143);
#145=CARTESIAN_POINT('',(-1.220000000000001,-1.250000000000000,-1.363354E-015));
#146=DIRECTION('',(0.0,1.0,0.0));
#147=VECTOR('',#146,0.500000000000000);
#148=LINE('',#145,#147);
#149=EDGE_CURVE('',#113,#144,#148,.T.);
#150=ORIENTED_EDGE('',*,*,#149,.T.);
#151=CARTESIAN_POINT('',(3.860000000000000,-0.750000000000000,-3.108624E-017));
#152=VERTEX_POINT('',#151);
#153=CARTESIAN_POINT('',(3.860000000000000,-0.750000000000000,-3.108624E-017));
#154=DIRECTION('',(-1.0,0.0,0.0));
#155=VECTOR('',#154,5.080000000000001);
#156=LINE('',#153,#155);
#157=EDGE_CURVE('',#152,#144,#156,.T.);
#158=ORIENTED_EDGE('',*,*,#157,.F.);
#159=CARTESIAN_POINT('',(3.860000000000000,-1.250000000000000,-3.108624E-017));
#160=DIRECTION('',(0.0,1.0,0.0));
#161=VECTOR('',#160,0.500000000000000);
#162=LINE('',#159,#161);
#163=EDGE_CURVE('',#121,#152,#162,.T.);
#164=ORIENTED_EDGE('',*,*,#163,.F.);
#165=ORIENTED_EDGE('',*,*,#126,.T.);
#166=EDGE_LOOP('',(#150,#158,#164,#165));
#167=FACE_OUTER_BOUND('',#166,.T.);
#168=ADVANCED_FACE('',(#167),#142,.T.);
#169=CARTESIAN_POINT('',(3.860000000000000,-0.750000000000000,-3.108624E-017));
#170=DIRECTION('',(0.0,1.0,0.0));
#171=DIRECTION('',(0.0,0.0,1.0));
#172=AXIS2_PLACEMENT_3D('',#169,#170,#171);
#173=PLANE('',#172);
#174=CARTESIAN_POINT('',(-1.220000000000001,-0.750000000000000,0.299999999999998));
#175=VERTEX_POINT('',#174);
#176=CARTESIAN_POINT('',(-1.220000000000001,-0.750000000000000,-1.363354E-015));
#177=DIRECTION('',(0.0,0.0,1.0));
#178=VECTOR('',#177,0.300000000000000);
#179=LINE('',#176,#178);
#180=EDGE_CURVE('',#144,#175,#179,.T.);
#181=ORIENTED_EDGE('',*,*,#180,.T.);
#182=CARTESIAN_POINT('',(3.860000000000000,-0.750000000000000,0.300000000000000));
#183=VERTEX_POINT('',#182);
#184=CARTESIAN_POINT('',(3.860000000000000,-0.750000000000000,0.300000000000000));
#185=DIRECTION('',(-1.0,0.0,0.0));
#186=VECTOR('',#185,5.080000000000001);
#187=LINE('',#184,#186);
#188=EDGE_CURVE('',#183,#175,#187,.T.);
#189=ORIENTED_EDGE('',*,*,#188,.F.);
#190=CARTESIAN_POINT('',(3.860000000000000,-0.750000000000000,-3.108624E-017));
#191=DIRECTION('',(0.0,0.0,1.0));
#192=VECTOR('',#191,0.300000000000000);
#193=LINE('',#190,#192);
#194=EDGE_CURVE('',#152,#183,#193,.T.);
#195=ORIENTED_EDGE('',*,*,#194,.F.);
#196=ORIENTED_EDGE('',*,*,#157,.T.);
#197=EDGE_LOOP('',(#181,#189,#195,#196));
#198=FACE_OUTER_BOUND('',#197,.T.);
#199=ADVANCED_FACE('',(#198),#173,.T.);
#200=CARTESIAN_POINT('',(3.860000000000000,-0.750000000000000,0.300000000000000));
#201=DIRECTION('',(0.0,0.0,-1.0));
#202=DIRECTION('',(-1.0,0.0,0.0));
#203=AXIS2_PLACEMENT_3D('',#200,#201,#202);
#204=PLANE('',#203);
#205=CARTESIAN_POINT('',(-1.220000000000001,0.750000000000000,0.299999999999998));
#206=VERTEX_POINT('',#205);
#207=CARTESIAN_POINT('',(-1.220000000000001,-0.750000000000000,0.299999999999998));
#208=DIRECTION('',(0.0,1.0,0.0));
#209=VECTOR('',#208,1.500000000000000);
#210=LINE('',#207,#209);
#211=EDGE_CURVE('',#175,#206,#210,.T.);
#212=ORIENTED_EDGE('',*,*,#211,.T.);
#213=CARTESIAN_POINT('',(3.860000000000000,0.750000000000000,0.300000000000000));
#214=VERTEX_POINT('',#213);
#215=CARTESIAN_POINT('',(3.860000000000000,0.750000000000000,0.300000000000000));
#216=DIRECTION('',(-1.0,0.0,0.0));
#217=VECTOR('',#216,5.080000000000001);
#218=LINE('',#215,#217);
#219=EDGE_CURVE('',#214,#206,#218,.T.);
#220=ORIENTED_EDGE('',*,*,#219,.F.);
#221=CARTESIAN_POINT('',(3.860000000000000,-0.750000000000000,0.300000000000000));
#222=DIRECTION('',(0.0,1.0,0.0));
#223=VECTOR('',#222,1.500000000000000);
#224=LINE('',#221,#223);
#225=EDGE_CURVE('',#183,#214,#224,.T.);
#226=ORIENTED_EDGE('',*,*,#225,.F.);
#227=ORIENTED_EDGE('',*,*,#188,.T.);
#228=EDGE_LOOP('',(#212,#220,#226,#227));
#229=FACE_OUTER_BOUND('',#228,.T.);
#230=ADVANCED_FACE('',(#229),#204,.T.);
#231=CARTESIAN_POINT('',(3.860000000000000,0.750000000000000,0.300000000000000));
#232=DIRECTION('',(0.0,-1.0,0.0));
#233=DIRECTION('',(0.0,0.0,-1.0));
#234=AXIS2_PLACEMENT_3D('',#231,#232,#233);
#235=PLANE('',#234);
#236=CARTESIAN_POINT('',(-1.220000000000001,0.750000000000000,-1.363354E-015));
#237=VERTEX_POINT('',#236);
#238=CARTESIAN_POINT('',(-1.220000000000001,0.750000000000000,0.299999999999998));
#239=DIRECTION('',(0.0,0.0,-1.0));
#240=VECTOR('',#239,0.300000000000000);
#241=LINE('',#238,#240);
#242=EDGE_CURVE('',#206,#237,#241,.T.);
#243=ORIENTED_EDGE('',*,*,#242,.T.);
#244=CARTESIAN_POINT('',(3.860000000000000,0.750000000000000,-3.108624E-017));
#245=VERTEX_POINT('',#244);
#246=CARTESIAN_POINT('',(3.860000000000000,0.750000000000000,-3.108624E-017));
#247=DIRECTION('',(-1.0,0.0,0.0));
#248=VECTOR('',#247,5.080000000000001);
#249=LINE('',#246,#248);
#250=EDGE_CURVE('',#245,#237,#249,.T.);
#251=ORIENTED_EDGE('',*,*,#250,.F.);
#252=CARTESIAN_POINT('',(3.860000000000000,0.750000000000000,0.300000000000000));
#253=DIRECTION('',(0.0,0.0,-1.0));
#254=VECTOR('',#253,0.300000000000000);
#255=LINE('',#252,#254);
#256=EDGE_CURVE('',#214,#245,#255,.T.);
#257=ORIENTED_EDGE('',*,*,#256,.F.);
#258=ORIENTED_EDGE('',*,*,#219,.T.);
#259=EDGE_LOOP('',(#243,#251,#257,#258));
#260=FACE_OUTER_BOUND('',#259,.T.);
#261=ADVANCED_FACE('',(#260),#235,.T.);
#262=CARTESIAN_POINT('',(3.860000000000000,0.750000000000000,-3.108624E-017));
#263=DIRECTION('',(0.0,0.0,-1.0));
#264=DIRECTION('',(-1.0,0.0,0.0));
#265=AXIS2_PLACEMENT_3D('',#262,#263,#264);
#266=PLANE('',#265);
#267=CARTESIAN_POINT('',(-1.220000000000001,1.250000000000000,-1.363354E-015));
#268=VERTEX_POINT('',#267);
#269=CARTESIAN_POINT('',(-1.220000000000001,0.750000000000000,-1.363354E-015));
#270=DIRECTION('',(0.0,1.0,0.0));
#271=VECTOR('',#270,0.500000000000000);
#272=LINE('',#269,#271);
#273=EDGE_CURVE('',#237,#268,#272,.T.);
#274=ORIENTED_EDGE('',*,*,#273,.T.);
#275=CARTESIAN_POINT('',(3.860000000000000,1.250000000000000,-3.108624E-017));
#276=VERTEX_POINT('',#275);
#277=CARTESIAN_POINT('',(3.860000000000000,1.250000000000000,-3.108624E-017));
#278=DIRECTION('',(-1.0,0.0,0.0));
#279=VECTOR('',#278,5.080000000000001);
#280=LINE('',#277,#279);
#281=EDGE_CURVE('',#276,#268,#280,.T.);
#282=ORIENTED_EDGE('',*,*,#281,.F.);
#283=CARTESIAN_POINT('',(3.860000000000000,0.750000000000000,-3.108624E-017));
#284=DIRECTION('',(0.0,1.0,0.0));
#285=VECTOR('',#284,0.500000000000000);
#286=LINE('',#283,#285);
#287=EDGE_CURVE('',#245,#276,#286,.T.);
#288=ORIENTED_EDGE('',*,*,#287,.F.);
#289=ORIENTED_EDGE('',*,*,#250,.T.);
#290=EDGE_LOOP('',(#274,#282,#288,#289));
#291=FACE_OUTER_BOUND('',#290,.T.);
#292=ADVANCED_FACE('',(#291),#266,.T.);
#293=CARTESIAN_POINT('',(3.860000000000000,1.250000000000000,-3.108624E-017));
#294=DIRECTION('',(0.0,1.0,0.0));
#295=DIRECTION('',(0.0,0.0,1.0));
#296=AXIS2_PLACEMENT_3D('',#293,#294,#295);
#297=PLANE('',#296);
#298=CARTESIAN_POINT('',(-1.220000000000000,1.250000000000000,2.599999999999998));
#299=VERTEX_POINT('',#298);
#300=CARTESIAN_POINT('',(-1.220000000000001,1.250000000000000,-1.363354E-015));
#301=DIRECTION('',(0.0,0.0,1.0));
#302=VECTOR('',#301,2.600000000000000);
#303=LINE('',#300,#302);
#304=EDGE_CURVE('',#268,#299,#303,.T.);
#305=ORIENTED_EDGE('',*,*,#304,.T.);
#306=CARTESIAN_POINT('',(3.860000000000000,1.250000000000000,2.600000000000000));
#307=VERTEX_POINT('',#306);
#308=CARTESIAN_POINT('',(3.860000000000000,1.250000000000000,2.600000000000000));
#309=DIRECTION('',(-1.0,0.0,0.0));
#310=VECTOR('',#309,5.080000000000000);
#311=LINE('',#308,#310);
#312=EDGE_CURVE('',#307,#299,#311,.T.);
#313=ORIENTED_EDGE('',*,*,#312,.F.);
#314=CARTESIAN_POINT('',(3.860000000000000,1.250000000000000,-3.108624E-017));
#315=DIRECTION('',(0.0,0.0,1.0));
#316=VECTOR('',#315,2.600000000000000);
#317=LINE('',#314,#316);
#318=EDGE_CURVE('',#276,#307,#317,.T.);
#319=ORIENTED_EDGE('',*,*,#318,.F.);
#320=ORIENTED_EDGE('',*,*,#281,.T.);
#321=EDGE_LOOP('',(#305,#313,#319,#320));
#322=FACE_OUTER_BOUND('',#321,.T.);
#323=ADVANCED_FACE('',(#322),#297,.T.);
#324=CARTESIAN_POINT('',(3.860000000000000,1.050000000000000,2.600000000000000));
#325=DIRECTION('',(-1.0,0.0,-2.622574E-016));
#326=DIRECTION('',(-1.854440E-016,0.707106781186548,0.707106781186547));
#327=AXIS2_PLACEMENT_3D('',#324,#325,#326);
#328=CYLINDRICAL_SURFACE('',#327,0.200000000000000);
#329=CARTESIAN_POINT('',(-1.220000000000000,1.050000000000000,2.799999999999999));
#330=VERTEX_POINT('',#329);
#331=CARTESIAN_POINT('',(-1.220000000000001,1.050000000000000,2.599999999999998));
#332=DIRECTION('',(1.000000000000000,1.110223E-016,1.110223E-016));
#333=DIRECTION('',(-1.570092E-016,0.707106781186548,0.707106781186547));
#334=AXIS2_PLACEMENT_3D('',#331,#332,#333);
#335=CIRCLE('',#334,0.200000000000000);
#336=EDGE_CURVE('',#299,#330,#335,.T.);
#337=ORIENTED_EDGE('',*,*,#336,.T.);
#338=CARTESIAN_POINT('',(3.860000000000000,1.050000000000000,2.800000000000000));
#339=VERTEX_POINT('',#338);
#340=CARTESIAN_POINT('',(3.860000000000000,1.050000000000000,2.800000000000000));
#341=DIRECTION('',(-1.0,0.0,0.0));
#342=VECTOR('',#341,5.080000000000000);
#343=LINE('',#340,#342);
#344=EDGE_CURVE('',#339,#330,#343,.T.);
#345=ORIENTED_EDGE('',*,*,#344,.F.);
#346=CARTESIAN_POINT('',(3.860000000000000,1.050000000000000,2.600000000000000));
#347=DIRECTION('',(1.000000000000000,1.110223E-016,1.110223E-016));
#348=DIRECTION('',(-1.570092E-016,0.707106781186548,0.707106781186547));
#349=AXIS2_PLACEMENT_3D('',#346,#347,#348);
#350=CIRCLE('',#349,0.200000000000000);
#351=EDGE_CURVE('',#307,#339,#350,.T.);
#352=ORIENTED_EDGE('',*,*,#351,.F.);
#353=ORIENTED_EDGE('',*,*,#312,.T.);
#354=EDGE_LOOP('',(#337,#345,#352,#353));
#355=FACE_OUTER_BOUND('',#354,.T.);
#356=ADVANCED_FACE('',(#355),#328,.T.);
#357=CARTESIAN_POINT('',(3.860000000000000,1.050000000000000,2.800000000000000));
#358=DIRECTION('',(0.0,0.0,1.0));
#359=DIRECTION('',(1.0,0.0,0.0));
#360=AXIS2_PLACEMENT_3D('',#357,#358,#359);
#361=PLANE('',#360);
#362=CARTESIAN_POINT('',(-1.220000000000001,1.050000000000000,2.799999999999999));
#363=DIRECTION('',(0.0,-1.0,0.0));
#364=VECTOR('',#363,2.100000000000000);
#365=LINE('',#362,#364);
#366=EDGE_CURVE('',#330,#71,#365,.T.);
#367=ORIENTED_EDGE('',*,*,#366,.T.);
#368=ORIENTED_EDGE('',*,*,#102,.F.);
#369=CARTESIAN_POINT('',(3.860000000000000,1.050000000000000,2.800000000000000));
#370=DIRECTION('',(0.0,-1.0,0.0));
#371=VECTOR('',#370,2.100000000000000);
#372=LINE('',#369,#371);
#373=EDGE_CURVE('',#339,#90,#372,.T.);
#374=ORIENTED_EDGE('',*,*,#373,.F.);
#375=ORIENTED_EDGE('',*,*,#344,.T.);
#376=EDGE_LOOP('',(#367,#368,#374,#375));
#377=FACE_OUTER_BOUND('',#376,.T.);
#378=ADVANCED_FACE('',(#377),#361,.T.);
#379=CARTESIAN_POINT('',(-1.220000000000001,1.387779E-017,1.350334395652874));
#380=DIRECTION('',(1.0,0.0,0.0));
#381=DIRECTION('',(0.0,0.0,-1.0));
#382=AXIS2_PLACEMENT_3D('',#379,#380,#381);
#383=PLANE('',#382);
#384=ORIENTED_EDGE('',*,*,#79,.F.);
#385=ORIENTED_EDGE('',*,*,#366,.F.);
#386=ORIENTED_EDGE('',*,*,#336,.F.);
#387=ORIENTED_EDGE('',*,*,#304,.F.);
#388=ORIENTED_EDGE('',*,*,#273,.F.);
#389=ORIENTED_EDGE('',*,*,#242,.F.);
#390=ORIENTED_EDGE('',*,*,#211,.F.);
#391=ORIENTED_EDGE('',*,*,#180,.F.);
#392=ORIENTED_EDGE('',*,*,#149,.F.);
#393=ORIENTED_EDGE('',*,*,#118,.F.);
#394=EDGE_LOOP('',(#384,#385,#386,#387,#388,#389,#390,#391,#392,#393));
#395=FACE_OUTER_BOUND('',#394,.T.);
#396=ADVANCED_FACE('',(#395),#383,.F.);
#397=CARTESIAN_POINT('',(3.860000000000000,0.0,1.350334395652876));
#398=DIRECTION('',(1.0,0.0,0.0));
#399=DIRECTION('',(0.0,0.0,-1.0));
#400=AXIS2_PLACEMENT_3D('',#397,#398,#399);
#401=PLANE('',#400);
#402=ORIENTED_EDGE('',*,*,#373,.T.);
#403=ORIENTED_EDGE('',*,*,#96,.T.);
#404=ORIENTED_EDGE('',*,*,#132,.T.);
#405=ORIENTED_EDGE('',*,*,#163,.T.);
#406=ORIENTED_EDGE('',*,*,#194,.T.);
#407=ORIENTED_EDGE('',*,*,#225,.T.);
#408=ORIENTED_EDGE('',*,*,#256,.T.);
#409=ORIENTED_EDGE('',*,*,#287,.T.);
#410=ORIENTED_EDGE('',*,*,#318,.T.);
#411=ORIENTED_EDGE('',*,*,#351,.T.);
#412=EDGE_LOOP('',(#402,#403,#404,#405,#406,#407,#408,#409,#410,#411));
#413=FACE_OUTER_BOUND('',#412,.T.);
#414=ADVANCED_FACE('',(#413),#401,.T.);
#415=CLOSED_SHELL('',(#106,#137,#168,#199,#230,#261,#292,#323,#356,#378,#396,#414));
#416=MANIFOLD_SOLID_BREP('52F',#415);
#417=COLOUR_RGB('250',0.330000000000000,0.330000000000000,0.330000000000000);
#418=SURFACE_STYLE_USAGE(.BOTH.,#419);
#419=SURFACE_SIDE_STYLE('NONE',(#420));
#420=SURFACE_STYLE_FILL_AREA(#421);
#421=FILL_AREA_STYLE('NONE',(#422));
#422=FILL_AREA_STYLE_COLOUR('NONE',#417);
#423=PRESENTATION_STYLE_ASSIGNMENT((#418));
#424=STYLED_ITEM('NONE',(#423),#416);
#425=MECHANICAL_DESIGN_GEOMETRIC_PRESENTATION_REPRESENTATION('NONE',(#424,#584,#735,#893,#1044),#28);
#426=PRESENTATION_LAYER_ASSIGNMENT('3D','None',(#416,#576,#734,#885,#1043));
#427=CARTESIAN_POINT('',(0.0,0.0,-3.200000000000000));
#428=DIRECTION('',(0.0,0.0,-1.0));
#429=DIRECTION('',(-1.0,0.0,0.0));
#430=AXIS2_PLACEMENT_3D('',#427,#428,#429);
#431=PLANE('',#430);
#432=CARTESIAN_POINT('',(-0.315000000000000,-0.315000000000000,-3.200000000000000));
#433=VERTEX_POINT('',#432);
#434=CARTESIAN_POINT('',(-0.315000000000000,0.315000000000000,-3.200000000000000));
#435=VERTEX_POINT('',#434);
#436=CARTESIAN_POINT('',(-0.315000000000000,-0.315000000000000,-3.200000000000000));
#437=DIRECTION('',(0.0,1.0,0.0));
#438=VECTOR('',#437,0.630000000000000);
#439=LINE('',#436,#438);
#440=EDGE_CURVE('',#433,#435,#439,.T.);
#441=ORIENTED_EDGE('',*,*,#440,.T.);
#442=CARTESIAN_POINT('',(0.315000000000000,0.315000000000000,-3.200000000000000));
#443=VERTEX_POINT('',#442);
#444=CARTESIAN_POINT('',(-0.315000000000000,0.315000000000000,-3.200000000000000));
#445=DIRECTION('',(1.0,0.0,0.0));
#446=VECTOR('',#445,0.630000000000000);
#447=LINE('',#444,#446);
#448=EDGE_CURVE('',#435,#443,#447,.T.);
#449=ORIENTED_EDGE('',*,*,#448,.T.);
#450=CARTESIAN_POINT('',(0.315000000000000,-0.315000000000000,-3.200000000000000));
#451=VERTEX_POINT('',#450);
#452=CARTESIAN_POINT('',(0.315000000000000,0.315000000000000,-3.200000000000000));
#453=DIRECTION('',(0.0,-1.0,0.0));
#454=VECTOR('',#453,0.630000000000000);
#455=LINE('',#452,#454);
#456=EDGE_CURVE('',#443,#451,#455,.T.);
#457=ORIENTED_EDGE('',*,*,#456,.T.);
#458=CARTESIAN_POINT('',(0.315000000000000,-0.315000000000000,-3.200000000000000));
#459=DIRECTION('',(-1.0,0.0,0.0));
#460=VECTOR('',#459,0.630000000000000);
#461=LINE('',#458,#460);
#462=EDGE_CURVE('',#451,#433,#461,.T.);
#463=ORIENTED_EDGE('',*,*,#462,.T.);
#464=EDGE_LOOP('',(#441,#449,#457,#463));
#465=FACE_OUTER_BOUND('',#464,.T.);
#466=ADVANCED_FACE('',(#465),#431,.T.);
#467=CARTESIAN_POINT('',(0.0,0.0,0.300000000000000));
#468=DIRECTION('',(0.0,0.0,-1.0));
#469=DIRECTION('',(-1.0,0.0,0.0));
#470=AXIS2_PLACEMENT_3D('',#467,#468,#469);
#471=PLANE('',#470);
#472=CARTESIAN_POINT('',(-0.315000000000000,0.315000000000000,0.300000000000000));
#473=VERTEX_POINT('',#472);
#474=CARTESIAN_POINT('',(-0.315000000000000,-0.315000000000000,0.300000000000000));
#475=VERTEX_POINT('',#474);
#476=CARTESIAN_POINT('',(-0.315000000000000,0.315000000000000,0.300000000000000));
#477=DIRECTION('',(0.0,-1.0,0.0));
#478=VECTOR('',#477,0.630000000000000);
#479=LINE('',#476,#478);
#480=EDGE_CURVE('',#473,#475,#479,.T.);
#481=ORIENTED_EDGE('',*,*,#480,.T.);
#482=CARTESIAN_POINT('',(0.315000000000000,-0.315000000000000,0.300000000000000));
#483=VERTEX_POINT('',#482);
#484=CARTESIAN_POINT('',(-0.315000000000000,-0.315000000000000,0.300000000000000));
#485=DIRECTION('',(1.0,0.0,0.0));
#486=VECTOR('',#485,0.630000000000000);
#487=LINE('',#484,#486);
#488=EDGE_CURVE('',#475,#483,#487,.T.);
#489=ORIENTED_EDGE('',*,*,#488,.T.);
#490=CARTESIAN_POINT('',(0.315000000000000,0.315000000000000,0.300000000000000));
#491=VERTEX_POINT('',#490);
#492=CARTESIAN_POINT('',(0.315000000000000,-0.315000000000000,0.300000000000000));
#493=DIRECTION('',(0.0,1.0,0.0));
#494=VECTOR('',#493,0.630000000000000);
#495=LINE('',#492,#494);
#496=EDGE_CURVE('',#483,#491,#495,.T.);
#497=ORIENTED_EDGE('',*,*,#496,.T.);
#498=CARTESIAN_POINT('',(0.315000000000000,0.315000000000000,0.300000000000000));
#499=DIRECTION('',(-1.0,0.0,0.0));
#500=VECTOR('',#499,0.630000000000000);
#501=LINE('',#498,#500);
#502=EDGE_CURVE('',#491,#473,#501,.T.);
#503=ORIENTED_EDGE('',*,*,#502,.T.);
#504=EDGE_LOOP('',(#481,#489,#497,#503));
#505=FACE_OUTER_BOUND('',#504,.T.);
#506=ADVANCED_FACE('',(#505),#471,.F.);
#507=CARTESIAN_POINT('',(0.0,-0.315000000000000,-1.450000000000000));
#508=DIRECTION('',(0.0,1.0,0.0));
#509=DIRECTION('',(0.0,0.0,-1.0));
#510=AXIS2_PLACEMENT_3D('',#507,#508,#509);
#511=PLANE('',#510);
#512=CARTESIAN_POINT('',(0.315000000000000,-0.315000000000000,-3.200000000000000));
#513=DIRECTION('',(0.0,0.0,1.0));
#514=VECTOR('',#513,3.500000000000000);
#515=LINE('',#512,#514);
#516=EDGE_CURVE('',#451,#483,#515,.T.);
#517=ORIENTED_EDGE('',*,*,#516,.T.);
#518=ORIENTED_EDGE('',*,*,#488,.F.);
#519=CARTESIAN_POINT('',(-0.315000000000000,-0.315000000000000,-3.200000000000000));
#520=DIRECTION('',(0.0,0.0,1.0));
#521=VECTOR('',#520,3.500000000000000);
#522=LINE('',#519,#521);
#523=EDGE_CURVE('',#433,#475,#522,.T.);
#524=ORIENTED_EDGE('',*,*,#523,.F.);
#525=ORIENTED_EDGE('',*,*,#462,.F.);
#526=EDGE_LOOP('',(#517,#518,#524,#525));
#527=FACE_OUTER_BOUND('',#526,.T.);
#528=ADVANCED_FACE('',(#527),#511,.F.);
#529=CARTESIAN_POINT('',(0.315000000000000,0.0,-1.450000000000000));
#530=DIRECTION('',(-1.0,0.0,0.0));
#531=DIRECTION('',(0.0,0.0,1.0));
#532=AXIS2_PLACEMENT_3D('',#529,#530,#531);
#533=PLANE('',#532);
#534=CARTESIAN_POINT('',(0.315000000000000,0.315000000000000,-3.200000000000000));
#535=DIRECTION('',(0.0,0.0,1.0));
#536=VECTOR('',#535,3.500000000000000);
#537=LINE('',#534,#536);
#538=EDGE_CURVE('',#443,#491,#537,.T.);
#539=ORIENTED_EDGE('',*,*,#538,.T.);
#540=ORIENTED_EDGE('',*,*,#496,.F.);
#541=ORIENTED_EDGE('',*,*,#516,.F.);
#542=ORIENTED_EDGE('',*,*,#456,.F.);
#543=EDGE_LOOP('',(#539,#540,#541,#542));
#544=FACE_OUTER_BOUND('',#543,.T.);
#545=ADVANCED_FACE('',(#544),#533,.F.);
#546=CARTESIAN_POINT('',(0.0,0.315000000000000,-1.450000000000000));
#547=DIRECTION('',(0.0,-1.0,0.0));
#548=DIRECTION('',(0.0,0.0,1.0));
#549=AXIS2_PLACEMENT_3D('',#546,#547,#548);
#550=PLANE('',#549);
#551=CARTESIAN_POINT('',(-0.315000000000000,0.315000000000000,-3.200000000000000));
#552=DIRECTION('',(0.0,0.0,1.0));
#553=VECTOR('',#552,3.500000000000000);
#554=LINE('',#551,#553);
#555=EDGE_CURVE('',#435,#473,#554,.T.);
#556=ORIENTED_EDGE('',*,*,#555,.T.);
#557=ORIENTED_EDGE('',*,*,#502,.F.);
#558=ORIENTED_EDGE('',*,*,#538,.F.);
#559=ORIENTED_EDGE('',*,*,#448,.F.);
#560=EDGE_LOOP('',(#556,#557,#558,#559));
#561=FACE_OUTER_BOUND('',#560,.T.);
#562=ADVANCED_FACE('',(#561),#550,.F.);
#563=CARTESIAN_POINT('',(-0.315000000000000,0.0,-1.450000000000000));
#564=DIRECTION('',(1.0,0.0,0.0));
#565=DIRECTION('',(0.0,0.0,-1.0));
#566=AXIS2_PLACEMENT_3D('',#563,#564,#565);
#567=PLANE('',#566);
#568=ORIENTED_EDGE('',*,*,#523,.T.);
#569=ORIENTED_EDGE('',*,*,#480,.F.);
#570=ORIENTED_EDGE('',*,*,#555,.F.);
#571=ORIENTED_EDGE('',*,*,#440,.F.);
#572=EDGE_LOOP('',(#568,#569,#570,#571));
#573=FACE_OUTER_BOUND('',#572,.T.);
#574=ADVANCED_FACE('',(#573),#567,.F.);
#575=CLOSED_SHELL('',(#466,#506,#528,#545,#562,#574));
#576=MANIFOLD_SOLID_BREP('524',#575);
#577=COLOUR_RGB('254',0.866000000000000,0.866000000000000,0.866000000000000);
#578=SURFACE_STYLE_USAGE(.BOTH.,#579);
#579=SURFACE_SIDE_STYLE('NONE',(#580));
#580=SURFACE_STYLE_FILL_AREA(#581);
#581=FILL_AREA_STYLE('NONE',(#582));
#582=FILL_AREA_STYLE_COLOUR('NONE',#577);
#583=PRESENTATION_STYLE_ASSIGNMENT((#578));
#584=STYLED_ITEM('NONE',(#583),#576);
#585=CARTESIAN_POINT('',(2.540000000000000,0.0,-3.200000000000000));
#586=DIRECTION('',(0.0,0.0,-1.0));
#587=DIRECTION('',(-1.0,0.0,0.0));
#588=AXIS2_PLACEMENT_3D('',#585,#586,#587);
#589=PLANE('',#588);
#590=CARTESIAN_POINT('',(2.225000000000000,-0.315000000000000,-3.200000000000000));
#591=VERTEX_POINT('',#590);
#592=CARTESIAN_POINT('',(2.225000000000000,0.315000000000000,-3.200000000000000));
#593=VERTEX_POINT('',#592);
#594=CARTESIAN_POINT('',(2.225000000000000,-0.315000000000000,-3.200000000000000));
#595=DIRECTION('',(0.0,1.0,0.0));
#596=VECTOR('',#595,0.630000000000000);
#597=LINE('',#594,#596);
#598=EDGE_CURVE('',#591,#593,#597,.T.);
#599=ORIENTED_EDGE('',*,*,#598,.T.);
#600=CARTESIAN_POINT('',(2.855000000000000,0.315000000000000,-3.200000000000000));
#601=VERTEX_POINT('',#600);
#602=CARTESIAN_POINT('',(2.225000000000000,0.315000000000000,-3.200000000000000));
#603=DIRECTION('',(1.0,0.0,0.0));
#604=VECTOR('',#603,0.630000000000000);
#605=LINE('',#602,#604);
#606=EDGE_CURVE('',#593,#601,#605,.T.);
#607=ORIENTED_EDGE('',*,*,#606,.T.);
#608=CARTESIAN_POINT('',(2.855000000000000,-0.315000000000000,-3.200000000000000));
#609=VERTEX_POINT('',#608);
#610=CARTESIAN_POINT('',(2.855000000000000,0.315000000000000,-3.200000000000000));
#611=DIRECTION('',(0.0,-1.0,0.0));
#612=VECTOR('',#611,0.630000000000000);
#613=LINE('',#610,#612);
#614=EDGE_CURVE('',#601,#609,#613,.T.);
#615=ORIENTED_EDGE('',*,*,#614,.T.);
#616=CARTESIAN_POINT('',(2.855000000000000,-0.315000000000000,-3.200000000000000));
#617=DIRECTION('',(-1.0,0.0,0.0));
#618=VECTOR('',#617,0.630000000000000);
#619=LINE('',#616,#618);
#620=EDGE_CURVE('',#609,#591,#619,.T.);
#621=ORIENTED_EDGE('',*,*,#620,.T.);
#622=EDGE_LOOP('',(#599,#607,#615,#621));
#623=FACE_OUTER_BOUND('',#622,.T.);
#624=ADVANCED_FACE('',(#623),#589,.T.);
#625=CARTESIAN_POINT('',(2.540000000000000,0.0,0.300000000000000));
#626=DIRECTION('',(0.0,0.0,-1.0));
#627=DIRECTION('',(-1.0,0.0,0.0));
#628=AXIS2_PLACEMENT_3D('',#625,#626,#627);
#629=PLANE('',#628);
#630=CARTESIAN_POINT('',(2.225000000000000,0.315000000000000,0.300000000000000));
#631=VERTEX_POINT('',#630);
#632=CARTESIAN_POINT('',(2.225000000000000,-0.315000000000000,0.300000000000000));
#633=VERTEX_POINT('',#632);
#634=CARTESIAN_POINT('',(2.225000000000000,0.315000000000000,0.300000000000000));
#635=DIRECTION('',(0.0,-1.0,0.0));
#636=VECTOR('',#635,0.630000000000000);
#637=LINE('',#634,#636);
#638=EDGE_CURVE('',#631,#633,#637,.T.);
#639=ORIENTED_EDGE('',*,*,#638,.T.);
#640=CARTESIAN_POINT('',(2.855000000000000,-0.315000000000000,0.300000000000000));
#641=VERTEX_POINT('',#640);
#642=CARTESIAN_POINT('',(2.225000000000000,-0.315000000000000,0.300000000000000));
#643=DIRECTION('',(1.0,0.0,0.0));
#644=VECTOR('',#643,0.630000000000000);
#645=LINE('',#642,#644);
#646=EDGE_CURVE('',#633,#641,#645,.T.);
#647=ORIENTED_EDGE('',*,*,#646,.T.);
#648=CARTESIAN_POINT('',(2.855000000000000,0.315000000000000,0.300000000000000));
#649=VERTEX_POINT('',#648);
#650=CARTESIAN_POINT('',(2.855000000000000,-0.315000000000000,0.300000000000000));
#651=DIRECTION('',(0.0,1.0,0.0));
#652=VECTOR('',#651,0.630000000000000);
#653=LINE('',#650,#652);
#654=EDGE_CURVE('',#641,#649,#653,.T.);
#655=ORIENTED_EDGE('',*,*,#654,.T.);
#656=CARTESIAN_POINT('',(2.855000000000000,0.315000000000000,0.300000000000000));
#657=DIRECTION('',(-1.0,0.0,0.0));
#658=VECTOR('',#657,0.630000000000000);
#659=LINE('',#656,#658);
#660=EDGE_CURVE('',#649,#631,#659,.T.);
#661=ORIENTED_EDGE('',*,*,#660,.T.);
#662=EDGE_LOOP('',(#639,#647,#655,#661));
#663=FACE_OUTER_BOUND('',#662,.T.);
#664=ADVANCED_FACE('',(#663),#629,.F.);
#665=CARTESIAN_POINT('',(2.540000000000000,-0.315000000000000,-1.450000000000000));
#666=DIRECTION('',(0.0,1.0,0.0));
#667=DIRECTION('',(0.0,0.0,-1.0));
#668=AXIS2_PLACEMENT_3D('',#665,#666,#667);
#669=PLANE('',#668);
#670=CARTESIAN_POINT('',(2.855000000000000,-0.315000000000000,-3.200000000000000));
#671=DIRECTION('',(0.0,0.0,1.0));
#672=VECTOR('',#671,3.500000000000000);
#673=LINE('',#670,#672);
#674=EDGE_CURVE('',#609,#641,#673,.T.);
#675=ORIENTED_EDGE('',*,*,#674,.T.);
#676=ORIENTED_EDGE('',*,*,#646,.F.);
#677=CARTESIAN_POINT('',(2.225000000000000,-0.315000000000000,-3.200000000000000));
#678=DIRECTION('',(0.0,0.0,1.0));
#679=VECTOR('',#678,3.500000000000000);
#680=LINE('',#677,#679);
#681=EDGE_CURVE('',#591,#633,#680,.T.);
#682=ORIENTED_EDGE('',*,*,#681,.F.);
#683=ORIENTED_EDGE('',*,*,#620,.F.);
#684=EDGE_LOOP('',(#675,#676,#682,#683));
#685=FACE_OUTER_BOUND('',#684,.T.);
#686=ADVANCED_FACE('',(#685),#669,.F.);
#687=CARTESIAN_POINT('',(2.855000000000000,0.0,-1.450000000000000));
#688=DIRECTION('',(-1.0,0.0,0.0));
#689=DIRECTION('',(0.0,0.0,1.0));
#690=AXIS2_PLACEMENT_3D('',#687,#688,#689);
#691=PLANE('',#690);
#692=CARTESIAN_POINT('',(2.855000000000000,0.315000000000000,-3.200000000000000));
#693=DIRECTION('',(0.0,0.0,1.0));
#694=VECTOR('',#693,3.500000000000000);
#695=LINE('',#692,#694);
#696=EDGE_CURVE('',#601,#649,#695,.T.);
#697=ORIENTED_EDGE('',*,*,#696,.T.);
#698=ORIENTED_EDGE('',*,*,#654,.F.);
#699=ORIENTED_EDGE('',*,*,#674,.F.);
#700=ORIENTED_EDGE('',*,*,#614,.F.);
#701=EDGE_LOOP('',(#697,#698,#699,#700));
#702=FACE_OUTER_BOUND('',#701,.T.);
#703=ADVANCED_FACE('',(#702),#691,.F.);
#704=CARTESIAN_POINT('',(2.540000000000000,0.315000000000000,-1.450000000000000));
#705=DIRECTION('',(0.0,-1.0,0.0));
#706=DIRECTION('',(0.0,0.0,1.0));
#707=AXIS2_PLACEMENT_3D('',#704,#705,#706);
#708=PLANE('',#707);
#709=CARTESIAN_POINT('',(2.225000000000000,0.315000000000000,-3.200000000000000));
#710=DIRECTION('',(0.0,0.0,1.0));
#711=VECTOR('',#710,3.500000000000000);
#712=LINE('',#709,#711);
#713=EDGE_CURVE('',#593,#631,#712,.T.);
#714=ORIENTED_EDGE('',*,*,#713,.T.);
#715=ORIENTED_EDGE('',*,*,#660,.F.);
#716=ORIENTED_EDGE('',*,*,#696,.F.);
#717=ORIENTED_EDGE('',*,*,#606,.F.);
#718=EDGE_LOOP('',(#714,#715,#716,#717));
#719=FACE_OUTER_BOUND('',#718,.T.);
#720=ADVANCED_FACE('',(#719),#708,.F.);
#721=CARTESIAN_POINT('',(2.225000000000000,0.0,-1.450000000000000));
#722=DIRECTION('',(1.0,0.0,0.0));
#723=DIRECTION('',(0.0,0.0,-1.0));
#724=AXIS2_PLACEMENT_3D('',#721,#722,#723);
#725=PLANE('',#724);
#726=ORIENTED_EDGE('',*,*,#681,.T.);
#727=ORIENTED_EDGE('',*,*,#638,.F.);
#728=ORIENTED_EDGE('',*,*,#713,.F.);
#729=ORIENTED_EDGE('',*,*,#598,.F.);
#730=EDGE_LOOP('',(#726,#727,#728,#729));
#731=FACE_OUTER_BOUND('',#730,.T.);
#732=ADVANCED_FACE('',(#731),#725,.F.);
#733=CLOSED_SHELL('',(#624,#664,#686,#703,#720,#732));
#734=MANIFOLD_SOLID_BREP('520',#733);
#735=STYLED_ITEM('NONE',(#583),#734);
#736=CARTESIAN_POINT('',(0.315000000000000,0.315000000000000,2.800000000000000));
#737=CARTESIAN_POINT('',(-0.315000000000000,0.315000000000000,2.800000000000000));
#738=CARTESIAN_POINT('',(0.315000000000000,0.315000000000000,9.500000000000000));
#739=CARTESIAN_POINT('',(-0.315000000000000,0.315000000000000,9.500000000000000));
#740=B_SPLINE_SURFACE_WITH_KNOTS('',1,1,((#736,#738),(#737,#739)),.UNSPECIFIED.,.F.,.F.,.U.,(2,2),(2,2),(0.0,0.630000000000000),(0.0,6.699999999999999),.UNSPECIFIED.);
#741=CARTESIAN_POINT('',(-0.315000000000000,0.315000000000000,9.500000000000000));
#742=VERTEX_POINT('',#741);
#743=CARTESIAN_POINT('',(-0.315000000000000,0.315000000000000,2.800000000000000));
#744=VERTEX_POINT('',#743);
#745=CARTESIAN_POINT('',(-0.315000000000000,0.315000000000000,9.500000000000000));
#746=DIRECTION('',(0.0,0.0,-1.0));
#747=VECTOR('',#746,6.699999999999999);
#748=LINE('',#745,#747);
#749=EDGE_CURVE('',#742,#744,#748,.T.);
#750=ORIENTED_EDGE('',*,*,#749,.F.);
#751=CARTESIAN_POINT('',(0.315000000000000,0.315000000000000,9.500000000000000));
#752=VERTEX_POINT('',#751);
#753=CARTESIAN_POINT('',(0.315000000000000,0.315000000000000,9.500000000000000));
#754=DIRECTION('',(-1.0,0.0,0.0));
#755=VECTOR('',#754,0.630000000000000);
#756=LINE('',#753,#755);
#757=EDGE_CURVE('',#752,#742,#756,.T.);
#758=ORIENTED_EDGE('',*,*,#757,.F.);
#759=CARTESIAN_POINT('',(0.315000000000000,0.315000000000000,2.800000000000000));
#760=VERTEX_POINT('',#759);
#761=CARTESIAN_POINT('',(0.315000000000000,0.315000000000000,2.800000000000000));
#762=DIRECTION('',(0.0,0.0,1.0));
#763=VECTOR('',#762,6.699999999999999);
#764=LINE('',#761,#763);
#765=EDGE_CURVE('',#760,#752,#764,.T.);
#766=ORIENTED_EDGE('',*,*,#765,.F.);
#767=CARTESIAN_POINT('',(-0.315000000000000,0.315000000000000,2.800000000000000));
#768=DIRECTION('',(1.0,0.0,0.0));
#769=VECTOR('',#768,0.630000000000000);
#770=LINE('',#767,#769);
#771=EDGE_CURVE('',#744,#760,#770,.T.);
#772=ORIENTED_EDGE('',*,*,#771,.F.);
#773=EDGE_LOOP('',(#750,#758,#766,#772));
#774=FACE_OUTER_BOUND('',#773,.T.);
#775=ADVANCED_FACE('',(#774),#740,.T.);
#776=CARTESIAN_POINT('',(0.315000000000000,-0.315000000000000,2.800000000000000));
#777=CARTESIAN_POINT('',(-0.315000000000000,-0.315000000000000,2.800000000000000));
#778=CARTESIAN_POINT('',(0.315000000000000,-0.315000000000000,9.500000000000000));
#779=CARTESIAN_POINT('',(-0.315000000000000,-0.315000000000000,9.500000000000000));
#780=B_SPLINE_SURFACE_WITH_KNOTS('',1,1,((#776,#778),(#777,#779)),.UNSPECIFIED.,.F.,.F.,.U.,(2,2),(2,2),(0.0,0.630000000000000),(0.0,6.699999999999999),.UNSPECIFIED.);
#781=CARTESIAN_POINT('',(-0.315000000000000,-0.315000000000000,2.800000000000000));
#782=VERTEX_POINT('',#781);
#783=CARTESIAN_POINT('',(-0.315000000000000,-0.315000000000000,9.500000000000000));
#784=VERTEX_POINT('',#783);
#785=CARTESIAN_POINT('',(-0.315000000000000,-0.315000000000000,2.800000000000000));
#786=DIRECTION('',(0.0,0.0,1.0));
#787=VECTOR('',#786,6.699999999999999);
#788=LINE('',#785,#787);
#789=EDGE_CURVE('',#782,#784,#788,.T.);
#790=ORIENTED_EDGE('',*,*,#789,.F.);
#791=CARTESIAN_POINT('',(0.315000000000000,-0.315000000000000,2.800000000000000));
#792=VERTEX_POINT('',#791);
#793=CARTESIAN_POINT('',(0.315000000000000,-0.315000000000000,2.800000000000000));
#794=DIRECTION('',(-1.0,0.0,0.0));
#795=VECTOR('',#794,0.630000000000000);
#796=LINE('',#793,#795);
#797=EDGE_CURVE('',#792,#782,#796,.T.);
#798=ORIENTED_EDGE('',*,*,#797,.F.);
#799=CARTESIAN_POINT('',(0.315000000000000,-0.315000000000000,9.500000000000000));
#800=VERTEX_POINT('',#799);
#801=CARTESIAN_POINT('',(0.315000000000000,-0.315000000000000,9.500000000000000));
#802=DIRECTION('',(0.0,0.0,-1.0));
#803=VECTOR('',#802,6.699999999999999);
#804=LINE('',#801,#803);
#805=EDGE_CURVE('',#800,#792,#804,.T.);
#806=ORIENTED_EDGE('',*,*,#805,.F.);
#807=CARTESIAN_POINT('',(-0.315000000000000,-0.315000000000000,9.500000000000000));
#808=DIRECTION('',(1.0,0.0,0.0));
#809=VECTOR('',#808,0.630000000000000);
#810=LINE('',#807,#809);
#811=EDGE_CURVE('',#784,#800,#810,.T.);
#812=ORIENTED_EDGE('',*,*,#811,.F.);
#813=EDGE_LOOP('',(#790,#798,#806,#812));
#814=FACE_OUTER_BOUND('',#813,.T.);
#815=ADVANCED_FACE('',(#814),#780,.F.);
#816=CARTESIAN_POINT('',(-0.315000000000000,-0.315000000000000,9.500000000000000));
#817=CARTESIAN_POINT('',(-0.315000000000000,0.315000000000000,9.500000000000000));
#818=CARTESIAN_POINT('',(0.315000000000000,-0.315000000000000,9.500000000000000));
#819=CARTESIAN_POINT('',(0.315000000000000,0.315000000000000,9.500000000000000));
#820=B_SPLINE_SURFACE_WITH_KNOTS('',1,1,((#816,#818),(#817,#819)),.UNSPECIFIED.,.F.,.F.,.U.,(2,2),(2,2),(0.0,0.630000000000000),(0.0,0.630000000000000),.UNSPECIFIED.);
#821=CARTESIAN_POINT('',(0.315000000000000,0.315000000000000,9.500000000000000));
#822=DIRECTION('',(0.0,-1.0,0.0));
#823=VECTOR('',#822,0.630000000000000);
#824=LINE('',#821,#823);
#825=EDGE_CURVE('',#752,#800,#824,.T.);
#826=ORIENTED_EDGE('',*,*,#825,.F.);
#827=ORIENTED_EDGE('',*,*,#757,.T.);
#828=CARTESIAN_POINT('',(-0.315000000000000,0.315000000000000,9.500000000000000));
#829=DIRECTION('',(0.0,-1.0,0.0));
#830=VECTOR('',#829,0.630000000000000);
#831=LINE('',#828,#830);
#832=EDGE_CURVE('',#742,#784,#831,.T.);
#833=ORIENTED_EDGE('',*,*,#832,.T.);
#834=ORIENTED_EDGE('',*,*,#811,.T.);
#835=EDGE_LOOP('',(#826,#827,#833,#834));
#836=FACE_OUTER_BOUND('',#835,.T.);
#837=ADVANCED_FACE('',(#836),#820,.F.);
#838=CARTESIAN_POINT('',(0.315000000000000,0.315000000000000,2.800000000000000));
#839=CARTESIAN_POINT('',(0.315000000000000,-0.315000000000000,2.800000000000000));
#840=CARTESIAN_POINT('',(0.315000000000000,0.315000000000000,9.500000000000000));
#841=CARTESIAN_POINT('',(0.315000000000000,-0.315000000000000,9.500000000000000));
#842=B_SPLINE_SURFACE_WITH_KNOTS('',1,1,((#838,#840),(#839,#841)),.UNSPECIFIED.,.F.,.F.,.U.,(2,2),(2,2),(0.0,0.630000000000000),(0.0,6.699999999999999),.UNSPECIFIED.);
#843=CARTESIAN_POINT('',(0.315000000000000,0.315000000000000,2.800000000000000));
#844=DIRECTION('',(0.0,-1.0,0.0));
#845=VECTOR('',#844,0.630000000000000);
#846=LINE('',#843,#845);
#847=EDGE_CURVE('',#760,#792,#846,.T.);
#848=ORIENTED_EDGE('',*,*,#847,.F.);
#849=ORIENTED_EDGE('',*,*,#765,.T.);
#850=ORIENTED_EDGE('',*,*,#825,.T.);
#851=ORIENTED_EDGE('',*,*,#805,.T.);
#852=EDGE_LOOP('',(#848,#849,#850,#851));
#853=FACE_OUTER_BOUND('',#852,.T.);
#854=ADVANCED_FACE('',(#853),#842,.F.);
#855=CARTESIAN_POINT('',(-0.315000000000000,0.315000000000000,2.800000000000000));
#856=CARTESIAN_POINT('',(-0.315000000000000,-0.315000000000000,2.800000000000000));
#857=CARTESIAN_POINT('',(0.315000000000000,0.315000000000000,2.800000000000000));
#858=CARTESIAN_POINT('',(0.315000000000000,-0.315000000000000,2.800000000000000));
#859=B_SPLINE_SURFACE_WITH_KNOTS('',1,1,((#855,#857),(#856,#858)),.UNSPECIFIED.,.F.,.F.,.U.,(2,2),(2,2),(0.0,0.630000000000000),(0.0,0.630000000000000),.UNSPECIFIED.);
#860=CARTESIAN_POINT('',(-0.315000000000000,0.315000000000000,2.800000000000000));
#861=DIRECTION('',(0.0,-1.0,0.0));
#862=VECTOR('',#861,0.630000000000000);
#863=LINE('',#860,#862);
#864=EDGE_CURVE('',#744,#782,#863,.T.);
#865=ORIENTED_EDGE('',*,*,#864,.F.);
#866=ORIENTED_EDGE('',*,*,#771,.T.);
#867=ORIENTED_EDGE('',*,*,#847,.T.);
#868=ORIENTED_EDGE('',*,*,#797,.T.);
#869=EDGE_LOOP('',(#865,#866,#867,#868));
#870=FACE_OUTER_BOUND('',#869,.T.);
#871=ADVANCED_FACE('',(#870),#859,.F.);
#872=CARTESIAN_POINT('',(-0.315000000000000,-0.315000000000000,2.800000000000000));
#873=CARTESIAN_POINT('',(-0.315000000000000,0.315000000000000,2.800000000000000));
#874=CARTESIAN_POINT('',(-0.315000000000000,-0.315000000000000,9.500000000000000));
#875=CARTESIAN_POINT('',(-0.315000000000000,0.315000000000000,9.500000000000000));
#876=B_SPLINE_SURFACE_WITH_KNOTS('',1,1,((#872,#874),(#873,#875)),.UNSPECIFIED.,.F.,.F.,.U.,(2,2),(2,2),(0.0,0.630000000000000),(0.0,6.699999999999999),.UNSPECIFIED.);
#877=ORIENTED_EDGE('',*,*,#832,.F.);
#878=ORIENTED_EDGE('',*,*,#749,.T.);
#879=ORIENTED_EDGE('',*,*,#864,.T.);
#880=ORIENTED_EDGE('',*,*,#789,.T.);
#881=EDGE_LOOP('',(#877,#878,#879,#880));
#882=FACE_OUTER_BOUND('',#881,.T.);
#883=ADVANCED_FACE('',(#882),#876,.F.);
#884=CLOSED_SHELL('',(#775,#815,#837,#854,#871,#883));
#885=MANIFOLD_SOLID_BREP('516',#884);
#886=COLOUR_RGB('40',1.0,0.750000000000000,0.0);
#887=SURFACE_STYLE_USAGE(.BOTH.,#888);
#888=SURFACE_SIDE_STYLE('NONE',(#889));
#889=SURFACE_STYLE_FILL_AREA(#890);
#890=FILL_AREA_STYLE('NONE',(#891));
#891=FILL_AREA_STYLE_COLOUR('NONE',#886);
#892=PRESENTATION_STYLE_ASSIGNMENT((#887));
#893=STYLED_ITEM('NONE',(#892),#885);
#894=CARTESIAN_POINT('',(2.855000000000000,0.315000000000000,2.800000000000000));
#895=CARTESIAN_POINT('',(2.225000000000000,0.315000000000000,2.800000000000000));
#896=CARTESIAN_POINT('',(2.855000000000000,0.315000000000000,9.500000000000000));
#897=CARTESIAN_POINT('',(2.225000000000000,0.315000000000000,9.500000000000000));
#898=B_SPLINE_SURFACE_WITH_KNOTS('',1,1,((#894,#896),(#895,#897)),.UNSPECIFIED.,.F.,.F.,.U.,(2,2),(2,2),(0.0,0.630000000000000),(0.0,6.699999999999999),.UNSPECIFIED.);
#899=CARTESIAN_POINT('',(2.225000000000000,0.315000000000000,9.500000000000000));
#900=VERTEX_POINT('',#899);
#901=CARTESIAN_POINT('',(2.225000000000000,0.315000000000000,2.800000000000000));
#902=VERTEX_POINT('',#901);
#903=CARTESIAN_POINT('',(2.225000000000000,0.315000000000000,9.500000000000000));
#904=DIRECTION('',(0.0,0.0,-1.0));
#905=VECTOR('',#904,6.699999999999999);
#906=LINE('',#903,#905);
#907=EDGE_CURVE('',#900,#902,#906,.T.);
#908=ORIENTED_EDGE('',*,*,#907,.F.);
#909=CARTESIAN_POINT('',(2.855000000000000,0.315000000000000,9.500000000000000));
#910=VERTEX_POINT('',#909);
#911=CARTESIAN_POINT('',(2.855000000000000,0.315000000000000,9.500000000000000));
#912=DIRECTION('',(-1.0,0.0,0.0));
#913=VECTOR('',#912,0.630000000000000);
#914=LINE('',#911,#913);
#915=EDGE_CURVE('',#910,#900,#914,.T.);
#916=ORIENTED_EDGE('',*,*,#915,.F.);
#917=CARTESIAN_POINT('',(2.855000000000000,0.315000000000000,2.800000000000000));
#918=VERTEX_POINT('',#917);
#919=CARTESIAN_POINT('',(2.855000000000000,0.315000000000000,2.800000000000000));
#920=DIRECTION('',(0.0,0.0,1.0));
#921=VECTOR('',#920,6.699999999999999);
#922=LINE('',#919,#921);
#923=EDGE_CURVE('',#918,#910,#922,.T.);
#924=ORIENTED_EDGE('',*,*,#923,.F.);
#925=CARTESIAN_POINT('',(2.225000000000000,0.315000000000000,2.800000000000000));
#926=DIRECTION('',(1.0,0.0,0.0));
#927=VECTOR('',#926,0.630000000000000);
#928=LINE('',#925,#927);
#929=EDGE_CURVE('',#902,#918,#928,.T.);
#930=ORIENTED_EDGE('',*,*,#929,.F.);
#931=EDGE_LOOP('',(#908,#916,#924,#930));
#932=FACE_OUTER_BOUND('',#931,.T.);
#933=ADVANCED_FACE('',(#932),#898,.T.);
#934=CARTESIAN_POINT('',(2.855000000000000,-0.315000000000000,2.800000000000000));
#935=CARTESIAN_POINT('',(2.225000000000000,-0.315000000000000,2.800000000000000));
#936=CARTESIAN_POINT('',(2.855000000000000,-0.315000000000000,9.500000000000000));
#937=CARTESIAN_POINT('',(2.225000000000000,-0.315000000000000,9.500000000000000));
#938=B_SPLINE_SURFACE_WITH_KNOTS('',1,1,((#934,#936),(#935,#937)),.UNSPECIFIED.,.F.,.F.,.U.,(2,2),(2,2),(0.0,0.630000000000000),(0.0,6.699999999999999),.UNSPECIFIED.);
#939=CARTESIAN_POINT('',(2.225000000000000,-0.315000000000000,2.800000000000000));
#940=VERTEX_POINT('',#939);
#941=CARTESIAN_POINT('',(2.225000000000000,-0.315000000000000,9.500000000000000));
#942=VERTEX_POINT('',#941);
#943=CARTESIAN_POINT('',(2.225000000000000,-0.315000000000000,2.800000000000000));
#944=DIRECTION('',(0.0,0.0,1.0));
#945=VECTOR('',#944,6.699999999999999);
#946=LINE('',#943,#945);
#947=EDGE_CURVE('',#940,#942,#946,.T.);
#948=ORIENTED_EDGE('',*,*,#947,.F.);
#949=CARTESIAN_POINT('',(2.855000000000000,-0.315000000000000,2.800000000000000));
#950=VERTEX_POINT('',#949);
#951=CARTESIAN_POINT('',(2.855000000000000,-0.315000000000000,2.800000000000000));
#952=DIRECTION('',(-1.0,0.0,0.0));
#953=VECTOR('',#952,0.630000000000000);
#954=LINE('',#951,#953);
#955=EDGE_CURVE('',#950,#940,#954,.T.);
#956=ORIENTED_EDGE('',*,*,#955,.F.);
#957=CARTESIAN_POINT('',(2.855000000000000,-0.315000000000000,9.500000000000000));
#958=VERTEX_POINT('',#957);
#959=CARTESIAN_POINT('',(2.855000000000000,-0.315000000000000,9.500000000000000));
#960=DIRECTION('',(0.0,0.0,-1.0));
#961=VECTOR('',#960,6.699999999999999);
#962=LINE('',#959,#961);
#963=EDGE_CURVE('',#958,#950,#962,.T.);
#964=ORIENTED_EDGE('',*,*,#963,.F.);
#965=CARTESIAN_POINT('',(2.225000000000000,-0.315000000000000,9.500000000000000));
#966=DIRECTION('',(1.0,0.0,0.0));
#967=VECTOR('',#966,0.630000000000000);
#968=LINE('',#965,#967);
#969=EDGE_CURVE('',#942,#958,#968,.T.);
#970=ORIENTED_EDGE('',*,*,#969,.F.);
#971=EDGE_LOOP('',(#948,#956,#964,#970));
#972=FACE_OUTER_BOUND('',#971,.T.);
#973=ADVANCED_FACE('',(#972),#938,.F.);
#974=CARTESIAN_POINT('',(2.225000000000000,-0.315000000000000,9.500000000000000));
#975=CARTESIAN_POINT('',(2.225000000000000,0.315000000000000,9.500000000000000));
#976=CARTESIAN_POINT('',(2.855000000000000,-0.315000000000000,9.500000000000000));
#977=CARTESIAN_POINT('',(2.855000000000000,0.315000000000000,9.500000000000000));
#978=B_SPLINE_SURFACE_WITH_KNOTS('',1,1,((#974,#976),(#975,#977)),.UNSPECIFIED.,.F.,.F.,.U.,(2,2),(2,2),(0.0,0.630000000000000),(0.0,0.630000000000000),.UNSPECIFIED.);
#979=CARTESIAN_POINT('',(2.855000000000000,0.315000000000000,9.500000000000000));
#980=DIRECTION('',(0.0,-1.0,0.0));
#981=VECTOR('',#980,0.630000000000000);
#982=LINE('',#979,#981);
#983=EDGE_CURVE('',#910,#958,#982,.T.);
#984=ORIENTED_EDGE('',*,*,#983,.F.);
#985=ORIENTED_EDGE('',*,*,#915,.T.);
#986=CARTESIAN_POINT('',(2.225000000000000,0.315000000000000,9.500000000000000));
#987=DIRECTION('',(0.0,-1.0,0.0));
#988=VECTOR('',#987,0.630000000000000);
#989=LINE('',#986,#988);
#990=EDGE_CURVE('',#900,#942,#989,.T.);
#991=ORIENTED_EDGE('',*,*,#990,.T.);
#992=ORIENTED_EDGE('',*,*,#969,.T.);
#993=EDGE_LOOP('',(#984,#985,#991,#992));
#994=FACE_OUTER_BOUND('',#993,.T.);
#995=ADVANCED_FACE('',(#994),#978,.F.);
#996=CARTESIAN_POINT('',(2.855000000000000,0.315000000000000,2.800000000000000));
#997=CARTESIAN_POINT('',(2.855000000000000,-0.315000000000000,2.800000000000000));
#998=CARTESIAN_POINT('',(2.855000000000000,0.315000000000000,9.500000000000000));
#999=CARTESIAN_POINT('',(2.855000000000000,-0.315000000000000,9.500000000000000));
#1000=B_SPLINE_SURFACE_WITH_KNOTS('',1,1,((#996,#998),(#997,#999)),.UNSPECIFIED.,.F.,.F.,.U.,(2,2),(2,2),(0.0,0.630000000000000),(0.0,6.699999999999999),.UNSPECIFIED.);
#1001=CARTESIAN_POINT('',(2.855000000000000,0.315000000000000,2.800000000000000));
#1002=DIRECTION('',(0.0,-1.0,0.0));
#1003=VECTOR('',#1002,0.630000000000000);
#1004=LINE('',#1001,#1003);
#1005=EDGE_CURVE('',#918,#950,#1004,.T.);
#1006=ORIENTED_EDGE('',*,*,#1005,.F.);
#1007=ORIENTED_EDGE('',*,*,#923,.T.);
#1008=ORIENTED_EDGE('',*,*,#983,.T.);
#1009=ORIENTED_EDGE('',*,*,#963,.T.);
#1010=EDGE_LOOP('',(#1006,#1007,#1008,#1009));
#1011=FACE_OUTER_BOUND('',#1010,.T.);
#1012=ADVANCED_FACE('',(#1011),#1000,.F.);
#1013=CARTESIAN_POINT('',(2.225000000000000,0.315000000000000,2.800000000000000));
#1014=CARTESIAN_POINT('',(2.225000000000000,-0.315000000000000,2.800000000000000));
#1015=CARTESIAN_POINT('',(2.855000000000000,0.315000000000000,2.800000000000000));
#1016=CARTESIAN_POINT('',(2.855000000000000,-0.315000000000000,2.800000000000000));
#1017=B_SPLINE_SURFACE_WITH_KNOTS('',1,1,((#1013,#1015),(#1014,#1016)),.UNSPECIFIED.,.F.,.F.,.U.,(2,2),(2,2),(0.0,0.630000000000000),(0.0,0.630000000000000),.UNSPECIFIED.);
#1018=CARTESIAN_POINT('',(2.225000000000000,0.315000000000000,2.800000000000000));
#1019=DIRECTION('',(0.0,-1.0,0.0));
#1020=VECTOR('',#1019,0.630000000000000);
#1021=LINE('',#1018,#1020);
#1022=EDGE_CURVE('',#902,#940,#1021,.T.);
#1023=ORIENTED_EDGE('',*,*,#1022,.F.);
#1024=ORIENTED_EDGE('',*,*,#929,.T.);
#1025=ORIENTED_EDGE('',*,*,#1005,.T.);
#1026=ORIENTED_EDGE('',*,*,#955,.T.);
#1027=EDGE_LOOP('',(#1023,#1024,#1025,#1026));
#1028=FACE_OUTER_BOUND('',#1027,.T.);
#1029=ADVANCED_FACE('',(#1028),#1017,.F.);
#1030=CARTESIAN_POINT('',(2.225000000000000,-0.315000000000000,2.800000000000000));
#1031=CARTESIAN_POINT('',(2.225000000000000,0.315000000000000,2.800000000000000));
#1032=CARTESIAN_POINT('',(2.225000000000000,-0.315000000000000,9.500000000000000));
#1033=CARTESIAN_POINT('',(2.225000000000000,0.315000000000000,9.500000000000000));
#1034=B_SPLINE_SURFACE_WITH_KNOTS('',1,1,((#1030,#1032),(#1031,#1033)),.UNSPECIFIED.,.F.,.F.,.U.,(2,2),(2,2),(0.0,0.630000000000000),(0.0,6.699999999999999),.UNSPECIFIED.);
#1035=ORIENTED_EDGE('',*,*,#990,.F.);
#1036=ORIENTED_EDGE('',*,*,#907,.T.);
#1037=ORIENTED_EDGE('',*,*,#1022,.T.);
#1038=ORIENTED_EDGE('',*,*,#947,.T.);
#1039=EDGE_LOOP('',(#1035,#1036,#1037,#1038));
#1040=FACE_OUTER_BOUND('',#1039,.T.);
#1041=ADVANCED_FACE('',(#1040),#1034,.F.);
#1042=CLOSED_SHELL('',(#933,#973,#995,#1012,#1029,#1041));
#1043=MANIFOLD_SOLID_BREP('512',#1042);
#1044=STYLED_ITEM('NONE',(#892),#1043);
#1045=ADVANCED_BREP_SHAPE_REPRESENTATION('ABSR1',(#416,#576,#734,#885,#1043),#28);
#1046=SHAPE_REPRESENTATION_RELATIONSHIP('SRRPL1','',#1045,#62);
ENDSEC;
END-ISO-10303-21;
