ISO-10303-21;
HEADER;
/****************************************************************
 * Generated by software with PDElib inside                    *
 * PDElib Version v51a, created Fri 09/10/2010                  *
 * ITI Transcendata (http://www.transcendata.com/)              *
 ****************************************************************/
FILE_DESCRIPTION((''),'2;1');
FILE_NAME('VAR_LITTELFUSE_V8ZA1P.stp','2015-10-15T11:55:43',(''),(''),'Mechanical Desktop 2011','Mechanical Desktop 2011',', , ');
FILE_SCHEMA(('AUTOMOTIVE_DESIGN { 1 2 10303 214 1 1 1 1 }'));
ENDSEC;
DATA;
#10=(NAMED_UNIT(*)PLANE_ANGLE_UNIT()SI_UNIT($,.RADIAN.));
#11=DIMENSIONAL_EXPONENTS(0.0,0.0,0.0,0.0,0.0,0.0,0.0);
#12=PLANE_ANGLE_MEASURE_WITH_UNIT(PLANE_ANGLE_MEASURE(0.0174532925),#10);
#16=(CONVERSION_BASED_UNIT('DEGREE',#12)NAMED_UNIT(#11)PLANE_ANGLE_UNIT());
#20=(NAMED_UNIT(*)SI_UNIT($,.STERADIAN.)SOLID_ANGLE_UNIT());
#24=(LENGTH_UNIT()NAMED_UNIT(*)SI_UNIT(.MILLI.,.METRE.));
#26=UNCERTAINTY_MEASURE_WITH_UNIT(LENGTH_MEASURE(0.000001),#24,'DISTANCE_ACCURACY_VALUE','');
#28=(GEOMETRIC_REPRESENTATION_CONTEXT(3)GLOBAL_UNCERTAINTY_ASSIGNED_CONTEXT((#26))GLOBAL_UNIT_ASSIGNED_CONTEXT((#16,#20,#24))REPRESENTATION_CONTEXT('','3D'));
#29=APPLICATION_CONTEXT('automotive design');
#30=APPLICATION_PROTOCOL_DEFINITION('INTERNATIONAL_STANDARD','automotive_design',1998,#29);
#31=PRODUCT_CONTEXT('3D Mechanical Parts',#29,'mechanical');
#32=PRODUCT('Product','Product','',(#31));
#33=PRODUCT_RELATED_PRODUCT_CATEGORY('part',$,(#32));
#34=PRODUCT_CATEGORY('part',$);
#35=PERSON('1','Design','Joe',$,$,$);
#36=ORGANIZATION($,'None','None');
#37=PERSON_AND_ORGANIZATION(#35,#36);
#38=PERSON_AND_ORGANIZATION_ROLE('design_owner');
#39=APPLIED_PERSON_AND_ORGANIZATION_ASSIGNMENT(#37,#38,(#32));
#40=PRODUCT_DEFINITION_FORMATION_WITH_SPECIFIED_SOURCE('None','',#32,.BOUGHT.);
#41=PERSON('2','Creator','Joe',$,$,$);
#42=ORGANIZATION($,'None','None');
#43=PERSON_AND_ORGANIZATION(#41,#42);
#44=PERSON_AND_ORGANIZATION_ROLE('creator');
#45=APPLIED_PERSON_AND_ORGANIZATION_ASSIGNMENT(#43,#44,(#40));
#46=PERSON('3','Supplier','Joe',$,$,$);
#47=ORGANIZATION($,'None','None');
#48=PERSON_AND_ORGANIZATION(#46,#47);
#49=PERSON_AND_ORGANIZATION_ROLE('design_supplier');
#50=APPLIED_PERSON_AND_ORGANIZATION_ASSIGNMENT(#48,#49,(#40));
#51=PRODUCT_DEFINITION_CONTEXT('part definition',#29,'design');
#52=PRODUCT_DEFINITION('None','',#40,#51);
#53=PERSON('4','Creator','Joe',$,$,$);
#54=ORGANIZATION($,'None','None');
#55=PERSON_AND_ORGANIZATION(#53,#54);
#56=PERSON_AND_ORGANIZATION_ROLE('creator');
#57=APPLIED_PERSON_AND_ORGANIZATION_ASSIGNMENT(#55,#56,(#52));
#58=CARTESIAN_POINT('NONE',(0.0,0.0,0.0));
#59=DIRECTION('NONE',(0.0,0.0,1.0));
#60=DIRECTION('NONE',(1.0,0.0,0.0));
#61=AXIS2_PLACEMENT_3D('NONE',#58,#59,#60);
#62=SHAPE_REPRESENTATION('SR1',(#61),#28);
#63=PRODUCT_DEFINITION_SHAPE('PDS1','Test Part',#52);
#64=SHAPE_DEFINITION_REPRESENTATION(#63,#62);
#65=CARTESIAN_POINT('',(2.5,-1.0,0.5));
#66=DIRECTION('',(0.0,0.0,-1.0));
#67=DIRECTION('',(-1.0,0.0,0.0));
#68=AXIS2_PLACEMENT_3D('',#65,#66,#67);
#69=CYLINDRICAL_SURFACE('',#68,0.3425);
#70=CARTESIAN_POINT('',(2.1575,-1.0,-3.5));
#71=VERTEX_POINT('',#70);
#72=CARTESIAN_POINT('',(2.1575,-1.0,0.5));
#73=VERTEX_POINT('',#72);
#74=CARTESIAN_POINT('',(2.1575,-1.0,-3.5));
#75=DIRECTION('',(0.0,0.0,1.0));
#76=VECTOR('',#75,4.0);
#77=LINE('',#74,#76);
#78=EDGE_CURVE('',#71,#73,#77,.T.);
#79=ORIENTED_EDGE('',*,*,#78,.F.);
#80=CARTESIAN_POINT('',(2.8425,-1.0,-3.5));
#81=VERTEX_POINT('',#80);
#82=CARTESIAN_POINT('',(2.5,-1.0,-3.5));
#83=DIRECTION('',(0.0,0.0,-1.0));
#84=DIRECTION('',(-1.0,0.0,0.0));
#85=AXIS2_PLACEMENT_3D('',#82,#83,#84);
#86=CIRCLE('',#85,0.3425);
#87=EDGE_CURVE('',#81,#71,#86,.T.);
#88=ORIENTED_EDGE('',*,*,#87,.F.);
#89=CARTESIAN_POINT('',(2.8425,-1.0,0.5));
#90=VERTEX_POINT('',#89);
#91=CARTESIAN_POINT('',(2.8425,-1.0,-3.5));
#92=DIRECTION('',(0.0,0.0,1.0));
#93=VECTOR('',#92,4.0);
#94=LINE('',#91,#93);
#95=EDGE_CURVE('',#81,#90,#94,.T.);
#96=ORIENTED_EDGE('',*,*,#95,.T.);
#97=CARTESIAN_POINT('',(2.5,-1.0,0.5));
#98=DIRECTION('',(0.0,0.0,1.0));
#99=DIRECTION('',(-1.0,0.0,0.0));
#100=AXIS2_PLACEMENT_3D('',#97,#98,#99);
#101=CIRCLE('',#100,0.3425);
#102=EDGE_CURVE('',#73,#90,#101,.T.);
#103=ORIENTED_EDGE('',*,*,#102,.F.);
#104=EDGE_LOOP('',(#79,#88,#96,#103));
#105=FACE_OUTER_BOUND('',#104,.T.);
#106=ADVANCED_FACE('',(#105),#69,.T.);
#107=CARTESIAN_POINT('',(2.5,-1.0,-3.5));
#108=DIRECTION('',(0.0,0.0,1.0));
#109=DIRECTION('',(1.0,0.0,0.0));
#110=AXIS2_PLACEMENT_3D('',#107,#108,#109);
#111=PLANE('',#110);
#112=ORIENTED_EDGE('',*,*,#87,.T.);
#113=CARTESIAN_POINT('',(2.5,-1.0,-3.5));
#114=DIRECTION('',(0.0,0.0,-1.0));
#115=DIRECTION('',(-1.0,0.0,0.0));
#116=AXIS2_PLACEMENT_3D('',#113,#114,#115);
#117=CIRCLE('',#116,0.3425);
#118=EDGE_CURVE('',#71,#81,#117,.T.);
#119=ORIENTED_EDGE('',*,*,#118,.T.);
#120=EDGE_LOOP('',(#112,#119));
#121=FACE_OUTER_BOUND('',#120,.T.);
#122=ADVANCED_FACE('',(#121),#111,.F.);
#123=CARTESIAN_POINT('',(2.5,-1.0,0.5));
#124=DIRECTION('',(0.0,0.0,-1.0));
#125=DIRECTION('',(-1.0,0.0,0.0));
#126=AXIS2_PLACEMENT_3D('',#123,#124,#125);
#127=CYLINDRICAL_SURFACE('',#126,0.3425);
#128=ORIENTED_EDGE('',*,*,#78,.T.);
#129=CARTESIAN_POINT('',(2.5,-1.0,0.5));
#130=DIRECTION('',(0.0,0.0,1.0));
#131=DIRECTION('',(-1.0,0.0,0.0));
#132=AXIS2_PLACEMENT_3D('',#129,#130,#131);
#133=CIRCLE('',#132,0.3425);
#134=EDGE_CURVE('',#90,#73,#133,.T.);
#135=ORIENTED_EDGE('',*,*,#134,.F.);
#136=ORIENTED_EDGE('',*,*,#95,.F.);
#137=ORIENTED_EDGE('',*,*,#118,.F.);
#138=EDGE_LOOP('',(#128,#135,#136,#137));
#139=FACE_OUTER_BOUND('',#138,.T.);
#140=ADVANCED_FACE('',(#139),#127,.T.);
#141=CARTESIAN_POINT('',(2.5,-1.0,0.5));
#142=DIRECTION('',(0.0,0.0,1.0));
#143=DIRECTION('',(1.0,0.0,0.0));
#144=AXIS2_PLACEMENT_3D('',#141,#142,#143);
#145=PLANE('',#144);
#146=ORIENTED_EDGE('',*,*,#134,.T.);
#147=ORIENTED_EDGE('',*,*,#102,.T.);
#148=EDGE_LOOP('',(#146,#147));
#149=FACE_OUTER_BOUND('',#148,.T.);
#150=ADVANCED_FACE('',(#149),#145,.T.);
#151=CLOSED_SHELL('',(#106,#122,#140,#150));
#152=MANIFOLD_SOLID_BREP('3DE',#151);
#153=DRAUGHTING_PRE_DEFINED_COLOUR('white');
#154=SURFACE_STYLE_USAGE(.BOTH.,#155);
#155=SURFACE_SIDE_STYLE('NONE',(#156));
#156=SURFACE_STYLE_FILL_AREA(#157);
#157=FILL_AREA_STYLE('NONE',(#158));
#158=FILL_AREA_STYLE_COLOUR('NONE',#153);
#159=PRESENTATION_STYLE_ASSIGNMENT((#154));
#160=STYLED_ITEM('NONE',(#159),#152);
#161=MECHANICAL_DESIGN_GEOMETRIC_PRESENTATION_REPRESENTATION('NONE',(#160,#251,#889),#28);
#162=PRESENTATION_LAYER_ASSIGNMENT('3D','None',(#152,#250,#881));
#163=CARTESIAN_POINT('',(-2.5,1.0,0.5));
#164=DIRECTION('',(0.0,0.0,-1.0));
#165=DIRECTION('',(-1.0,0.0,0.0));
#166=AXIS2_PLACEMENT_3D('',#163,#164,#165);
#167=CYLINDRICAL_SURFACE('',#166,0.3425);
#168=CARTESIAN_POINT('',(-2.8425,1.0,-3.5));
#169=VERTEX_POINT('',#168);
#170=CARTESIAN_POINT('',(-2.8425,1.0,0.5));
#171=VERTEX_POINT('',#170);
#172=CARTESIAN_POINT('',(-2.8425,1.0,-3.5));
#173=DIRECTION('',(0.0,0.0,1.0));
#174=VECTOR('',#173,4.0);
#175=LINE('',#172,#174);
#176=EDGE_CURVE('',#169,#171,#175,.T.);
#177=ORIENTED_EDGE('',*,*,#176,.F.);
#178=CARTESIAN_POINT('',(-2.1575,1.0,-3.5));
#179=VERTEX_POINT('',#178);
#180=CARTESIAN_POINT('',(-2.5,1.0,-3.5));
#181=DIRECTION('',(0.0,0.0,-1.0));
#182=DIRECTION('',(-1.0,0.0,0.0));
#183=AXIS2_PLACEMENT_3D('',#180,#181,#182);
#184=CIRCLE('',#183,0.3425);
#185=EDGE_CURVE('',#179,#169,#184,.T.);
#186=ORIENTED_EDGE('',*,*,#185,.F.);
#187=CARTESIAN_POINT('',(-2.1575,1.0,0.5));
#188=VERTEX_POINT('',#187);
#189=CARTESIAN_POINT('',(-2.1575,1.0,-3.5));
#190=DIRECTION('',(0.0,0.0,1.0));
#191=VECTOR('',#190,4.0);
#192=LINE('',#189,#191);
#193=EDGE_CURVE('',#179,#188,#192,.T.);
#194=ORIENTED_EDGE('',*,*,#193,.T.);
#195=CARTESIAN_POINT('',(-2.5,1.0,0.5));
#196=DIRECTION('',(0.0,0.0,1.0));
#197=DIRECTION('',(-1.0,0.0,0.0));
#198=AXIS2_PLACEMENT_3D('',#195,#196,#197);
#199=CIRCLE('',#198,0.3425);
#200=EDGE_CURVE('',#171,#188,#199,.T.);
#201=ORIENTED_EDGE('',*,*,#200,.F.);
#202=EDGE_LOOP('',(#177,#186,#194,#201));
#203=FACE_OUTER_BOUND('',#202,.T.);
#204=ADVANCED_FACE('',(#203),#167,.T.);
#205=CARTESIAN_POINT('',(-2.5,1.0,-3.5));
#206=DIRECTION('',(0.0,0.0,1.0));
#207=DIRECTION('',(1.0,0.0,0.0));
#208=AXIS2_PLACEMENT_3D('',#205,#206,#207);
#209=PLANE('',#208);
#210=ORIENTED_EDGE('',*,*,#185,.T.);
#211=CARTESIAN_POINT('',(-2.5,1.0,-3.5));
#212=DIRECTION('',(0.0,0.0,-1.0));
#213=DIRECTION('',(-1.0,0.0,0.0));
#214=AXIS2_PLACEMENT_3D('',#211,#212,#213);
#215=CIRCLE('',#214,0.3425);
#216=EDGE_CURVE('',#169,#179,#215,.T.);
#217=ORIENTED_EDGE('',*,*,#216,.T.);
#218=EDGE_LOOP('',(#210,#217));
#219=FACE_OUTER_BOUND('',#218,.T.);
#220=ADVANCED_FACE('',(#219),#209,.F.);
#221=CARTESIAN_POINT('',(-2.5,1.0,0.5));
#222=DIRECTION('',(0.0,0.0,-1.0));
#223=DIRECTION('',(-1.0,0.0,0.0));
#224=AXIS2_PLACEMENT_3D('',#221,#222,#223);
#225=CYLINDRICAL_SURFACE('',#224,0.3425);
#226=ORIENTED_EDGE('',*,*,#176,.T.);
#227=CARTESIAN_POINT('',(-2.5,1.0,0.5));
#228=DIRECTION('',(0.0,0.0,1.0));
#229=DIRECTION('',(-1.0,0.0,0.0));
#230=AXIS2_PLACEMENT_3D('',#227,#228,#229);
#231=CIRCLE('',#230,0.3425);
#232=EDGE_CURVE('',#188,#171,#231,.T.);
#233=ORIENTED_EDGE('',*,*,#232,.F.);
#234=ORIENTED_EDGE('',*,*,#193,.F.);
#235=ORIENTED_EDGE('',*,*,#216,.F.);
#236=EDGE_LOOP('',(#226,#233,#234,#235));
#237=FACE_OUTER_BOUND('',#236,.T.);
#238=ADVANCED_FACE('',(#237),#225,.T.);
#239=CARTESIAN_POINT('',(-2.5,1.0,0.5));
#240=DIRECTION('',(0.0,0.0,1.0));
#241=DIRECTION('',(1.0,0.0,0.0));
#242=AXIS2_PLACEMENT_3D('',#239,#240,#241);
#243=PLANE('',#242);
#244=ORIENTED_EDGE('',*,*,#232,.T.);
#245=ORIENTED_EDGE('',*,*,#200,.T.);
#246=EDGE_LOOP('',(#244,#245));
#247=FACE_OUTER_BOUND('',#246,.T.);
#248=ADVANCED_FACE('',(#247),#243,.T.);
#249=CLOSED_SHELL('',(#204,#220,#238,#248));
#250=MANIFOLD_SOLID_BREP('3DA',#249);
#251=STYLED_ITEM('NONE',(#159),#250);
#252=CARTESIAN_POINT('',(-8.881784E-016,-1.499999999999999,7.499999999999998));
#253=CARTESIAN_POINT('',(-7.557771E-016,-2.941518440112252,6.418861169915809));
#254=CARTESIAN_POINT('',(-5.464322E-016,-2.371708245126285,4.709430584957906));
#255=CARTESIAN_POINT('',(-3.370874E-016,-1.801898050140318,3.0));
#256=CARTESIAN_POINT('',(-3.370874E-016,-9.992007E-016,2.999999999999999));
#257=CARTESIAN_POINT('',(-3.370874E-016,1.801898050140316,2.999999999999998));
#258=CARTESIAN_POINT('',(-5.464322E-016,2.371708245126284,4.709430584957905));
#259=CARTESIAN_POINT('',(-7.557771E-016,2.941518440112251,6.418861169915809));
#260=CARTESIAN_POINT('',(-8.881784E-016,1.499999999999999,7.499999999999998));
#261=CARTESIAN_POINT('',(-1.972152E-031,-1.499999999999999,7.499999999999998));
#262=CARTESIAN_POINT('',(1.08113883008419,-2.941518440112252,6.418861169915809));
#263=CARTESIAN_POINT('',(2.790569415042094,-2.371708245126285,4.709430584957906));
#264=CARTESIAN_POINT('',(4.499999999999998,-1.801898050140318,3.000000000000002));
#265=CARTESIAN_POINT('',(4.499999999999999,-9.992007E-016,3.000000000000001));
#266=CARTESIAN_POINT('',(4.5,1.801898050140315,3.0));
#267=CARTESIAN_POINT('',(2.790569415042093,2.371708245126284,4.709430584957906));
#268=CARTESIAN_POINT('',(1.081138830084188,2.941518440112252,6.418861169915809));
#269=CARTESIAN_POINT('',(-1.972152E-031,1.499999999999999,7.499999999999998));
#270=CARTESIAN_POINT('',(0.0,-1.499999999999999,7.499999999999999));
#271=CARTESIAN_POINT('',(1.08113883008419,-2.941518440112252,7.5));
#272=CARTESIAN_POINT('',(2.790569415042094,-2.371708245126284,7.5));
#273=CARTESIAN_POINT('',(4.499999999999998,-1.801898050140316,7.5));
#274=CARTESIAN_POINT('',(4.499999999999999,1.223668E-031,7.5));
#275=CARTESIAN_POINT('',(4.5,1.801898050140317,7.5));
#276=CARTESIAN_POINT('',(2.790569415042093,2.371708245126284,7.499999999999998));
#277=CARTESIAN_POINT('',(1.081138830084188,2.941518440112252,7.499999999999998));
#278=CARTESIAN_POINT('',(0.0,1.499999999999999,7.499999999999999));
#279=CARTESIAN_POINT('',(-1.972152E-031,-1.499999999999999,7.5));
#280=CARTESIAN_POINT('',(1.08113883008419,-2.941518440112251,8.581138830084191));
#281=CARTESIAN_POINT('',(2.790569415042093,-2.371708245126284,10.290569415042095));
#282=CARTESIAN_POINT('',(4.499999999999996,-1.801898050140316,11.999999999999998));
#283=CARTESIAN_POINT('',(4.499999999999997,9.992007E-016,12.0));
#284=CARTESIAN_POINT('',(4.499999999999998,1.801898050140318,12.0));
#285=CARTESIAN_POINT('',(2.790569415042092,2.371708245126285,10.290569415042091));
#286=CARTESIAN_POINT('',(1.081138830084188,2.941518440112253,8.581138830084187));
#287=CARTESIAN_POINT('',(-1.972152E-031,1.499999999999999,7.5));
#288=CARTESIAN_POINT('',(-8.881784E-016,-1.499999999999999,7.5));
#289=CARTESIAN_POINT('',(-1.020580E-015,-2.941518440112251,8.581138830084191));
#290=CARTESIAN_POINT('',(-1.229925E-015,-2.371708245126284,10.290569415042095));
#291=CARTESIAN_POINT('',(-1.439269E-015,-1.801898050140316,11.999999999999996));
#292=CARTESIAN_POINT('',(-1.439269E-015,9.992007E-016,12.0));
#293=CARTESIAN_POINT('',(-1.439269E-015,1.801898050140318,11.999999999999998));
#294=CARTESIAN_POINT('',(-1.229925E-015,2.371708245126285,10.290569415042093));
#295=CARTESIAN_POINT('',(-1.020580E-015,2.941518440112253,8.581138830084187));
#296=CARTESIAN_POINT('',(-8.881784E-016,1.499999999999999,7.5));
#297=CARTESIAN_POINT('',(-1.776357E-015,-1.499999999999999,7.5));
#298=CARTESIAN_POINT('',(-1.081138830084192,-2.941518440112251,8.581138830084191));
#299=CARTESIAN_POINT('',(-2.790569415042095,-2.371708245126284,10.290569415042095));
#300=CARTESIAN_POINT('',(-4.5,-1.801898050140316,11.999999999999996));
#301=CARTESIAN_POINT('',(-4.500000000000001,9.992007E-016,11.999999999999996));
#302=CARTESIAN_POINT('',(-4.500000000000002,1.801898050140318,11.999999999999998));
#303=CARTESIAN_POINT('',(-2.790569415042095,2.371708245126285,10.290569415042091));
#304=CARTESIAN_POINT('',(-1.08113883008419,2.941518440112253,8.581138830084187));
#305=CARTESIAN_POINT('',(-1.776357E-015,1.499999999999999,7.5));
#306=CARTESIAN_POINT('',(-1.776357E-015,-1.499999999999999,7.499999999999999));
#307=CARTESIAN_POINT('',(-1.081138830084192,-2.941518440112252,7.5));
#308=CARTESIAN_POINT('',(-2.790569415042095,-2.371708245126284,7.5));
#309=CARTESIAN_POINT('',(-4.5,-1.801898050140316,7.499999999999998));
#310=CARTESIAN_POINT('',(-4.500000000000001,-1.223668E-031,7.499999999999998));
#311=CARTESIAN_POINT('',(-4.500000000000002,1.801898050140317,7.499999999999999));
#312=CARTESIAN_POINT('',(-2.790569415042095,2.371708245126284,7.499999999999998));
#313=CARTESIAN_POINT('',(-1.08113883008419,2.941518440112252,7.499999999999998));
#314=CARTESIAN_POINT('',(-1.776357E-015,1.499999999999999,7.499999999999999));
#315=CARTESIAN_POINT('',(-1.776357E-015,-1.499999999999999,7.499999999999998));
#316=CARTESIAN_POINT('',(-1.081138830084191,-2.941518440112252,6.418861169915809));
#317=CARTESIAN_POINT('',(-2.790569415042095,-2.371708245126285,4.709430584957906));
#318=CARTESIAN_POINT('',(-4.499999999999998,-1.801898050140318,3.0));
#319=CARTESIAN_POINT('',(-4.499999999999999,-9.992007E-016,2.999999999999999));
#320=CARTESIAN_POINT('',(-4.5,1.801898050140315,2.999999999999998));
#321=CARTESIAN_POINT('',(-2.790569415042094,2.371708245126284,4.709430584957906));
#322=CARTESIAN_POINT('',(-1.08113883008419,2.941518440112252,6.418861169915809));
#323=CARTESIAN_POINT('',(-1.776357E-015,1.499999999999999,7.499999999999998));
#324=CARTESIAN_POINT('',(-8.881784E-016,-1.499999999999999,7.499999999999998));
#325=CARTESIAN_POINT('',(-7.557771E-016,-2.941518440112252,6.418861169915809));
#326=CARTESIAN_POINT('',(-5.464322E-016,-2.371708245126285,4.709430584957906));
#327=CARTESIAN_POINT('',(-3.370874E-016,-1.801898050140318,3.0));
#328=CARTESIAN_POINT('',(-3.370874E-016,-9.992007E-016,2.999999999999999));
#329=CARTESIAN_POINT('',(-3.370874E-016,1.801898050140316,2.999999999999998));
#330=CARTESIAN_POINT('',(-5.464322E-016,2.371708245126284,4.709430584957905));
#331=CARTESIAN_POINT('',(-7.557771E-016,2.941518440112251,6.418861169915809));
#332=CARTESIAN_POINT('',(-8.881784E-016,1.499999999999999,7.499999999999998));
#340=(BOUNDED_SURFACE()B_SPLINE_SURFACE(2,2,((#252,#261,#270,#279,#288,#297,#306,#315,#324),(#253,#262,#271,#280,#289,#298,#307,#316,#325),(#254,#263,#272,#281,#290,#299,#308,#317,#326),(#255,#264,#273,#282,#291,#300,#309,#318,#327),(#256,#265,#274,#283,#292,#301,#310,#319,#328),(#257,#266,#275,#284,#293,#302,#311,#320,#329),(#258,#267,#276,#285,#294,#303,#312,#321,#330),(#259,#268,#277,#286,#295,#304,#313,#322,#331),(#260,#269,#278,#287,#296,#305,#314,#323,#332)),.UNSPECIFIED.,.F.,.T.,.U.)B_SPLINE_SURFACE_WITH_KNOTS((3,2,2,2,3),(3,2,2,2,3),(-2.498091544796509,-1.249045772398255,0.0,1.249045772398255,2.498091544796509),(0.0,1.570796326794897,3.141592653589793,4.71238898038469,6.283185307179586),.UNSPECIFIED.)GEOMETRIC_REPRESENTATION_ITEM()RATIONAL_B_SPLINE_SURFACE(((1.0,0.707106781186548,1.0,0.707106781186548,1.0,0.707106781186548,1.0,0.707106781186548,1.0),(0.811242185175562,0.573634850322232,0.811242185175562,0.573634850322232,0.811242185175562,0.573634850322232,0.811242185175562,0.573634850322232,0.811242185175562),(1.0,0.707106781186548,1.0,0.707106781186548,1.0,0.707106781186548,1.0,0.707106781186548,1.0),(0.811242185175561,0.573634850322232,0.811242185175561,0.573634850322232,0.811242185175561,0.573634850322232,0.811242185175561,0.573634850322232,0.811242185175561),(1.0,0.707106781186548,1.0,0.707106781186548,1.0,0.707106781186548,1.0,0.707106781186548,1.0),(0.81124218517556,0.573634850322231,0.81124218517556,0.573634850322231,0.81124218517556,0.573634850322231,0.81124218517556,0.573634850322231,0.81124218517556),(1.0,0.707106781186548,1.0,0.707106781186548,1.0,0.707106781186548,1.0,0.707106781186548,1.0),(0.811242185175559,0.573634850322231,0.811242185175559,0.573634850322231,0.811242185175559,0.573634850322231,0.811242185175559,0.573634850322231,0.811242185175559),(1.0,0.707106781186548,1.0,0.707106781186548,1.0,0.707106781186548,1.0,0.707106781186548,1.0)))REPRESENTATION_ITEM('')SURFACE());
#341=CARTESIAN_POINT('',(-8.881784E-016,2.5,9.5));
#342=VERTEX_POINT('',#341);
#343=CARTESIAN_POINT('',(-8.881784E-016,-2.5,9.5));
#344=VERTEX_POINT('',#343);
#345=CARTESIAN_POINT('',(-8.881784E-016,4.440892E-016,9.5));
#346=DIRECTION('',(1.0,0.0,0.0));
#347=DIRECTION('',(0.0,0.0,1.0));
#348=AXIS2_PLACEMENT_3D('',#345,#346,#347);
#349=CIRCLE('',#348,2.5);
#350=EDGE_CURVE('',#342,#344,#349,.T.);
#351=ORIENTED_EDGE('',*,*,#350,.F.);
#352=CARTESIAN_POINT('',(-2.000000000000001,2.5,7.5));
#353=VERTEX_POINT('',#352);
#354=CARTESIAN_POINT('',(-8.881784E-016,2.5,7.499999999999999));
#355=DIRECTION('',(0.0,1.0,0.0));
#356=DIRECTION('',(1.0,0.0,0.0));
#357=AXIS2_PLACEMENT_3D('',#354,#355,#356);
#358=CIRCLE('',#357,2.0);
#359=EDGE_CURVE('',#353,#342,#358,.T.);
#360=ORIENTED_EDGE('',*,*,#359,.F.);
#361=CARTESIAN_POINT('',(-1.133108E-015,2.5,5.499999999999998));
#362=VERTEX_POINT('',#361);
#363=CARTESIAN_POINT('',(-8.881784E-016,2.5,7.499999999999999));
#364=DIRECTION('',(0.0,1.0,0.0));
#365=DIRECTION('',(1.0,0.0,0.0));
#366=AXIS2_PLACEMENT_3D('',#363,#364,#365);
#367=CIRCLE('',#366,2.0);
#368=EDGE_CURVE('',#362,#353,#367,.T.);
#369=ORIENTED_EDGE('',*,*,#368,.F.);
#370=CARTESIAN_POINT('',(-1.133108E-015,-2.5,5.499999999999999));
#371=VERTEX_POINT('',#370);
#372=CARTESIAN_POINT('',(-1.133108E-015,-4.440892E-016,5.499999999999998));
#373=DIRECTION('',(-1.0,0.0,0.0));
#374=DIRECTION('',(0.0,0.0,-1.0));
#375=AXIS2_PLACEMENT_3D('',#372,#373,#374);
#376=CIRCLE('',#375,2.5);
#377=EDGE_CURVE('',#362,#371,#376,.T.);
#378=ORIENTED_EDGE('',*,*,#377,.T.);
#379=CARTESIAN_POINT('',(-2.000000000000002,-2.5,7.5));
#380=VERTEX_POINT('',#379);
#381=CARTESIAN_POINT('',(-8.881784E-016,-2.5,7.5));
#382=DIRECTION('',(0.0,1.0,0.0));
#383=DIRECTION('',(1.0,0.0,0.0));
#384=AXIS2_PLACEMENT_3D('',#381,#382,#383);
#385=CIRCLE('',#384,2.000000000000001);
#386=EDGE_CURVE('',#371,#380,#385,.T.);
#387=ORIENTED_EDGE('',*,*,#386,.T.);
#388=CARTESIAN_POINT('',(-8.881784E-016,-2.5,7.5));
#389=DIRECTION('',(0.0,1.0,0.0));
#390=DIRECTION('',(1.0,0.0,0.0));
#391=AXIS2_PLACEMENT_3D('',#388,#389,#390);
#392=CIRCLE('',#391,2.000000000000001);
#393=EDGE_CURVE('',#380,#344,#392,.T.);
#394=ORIENTED_EDGE('',*,*,#393,.T.);
#395=EDGE_LOOP('',(#351,#360,#369,#378,#387,#394));
#396=FACE_OUTER_BOUND('',#395,.T.);
#397=CARTESIAN_POINT('',(-2.500000000000001,0.5,3.819244782502819));
#398=VERTEX_POINT('',#397);
#399=CARTESIAN_POINT('',(-2.0,1.0,3.703270961747244));
#400=VERTEX_POINT('',#399);
#401=CARTESIAN_POINT('',(-2.500000000000001,0.5,3.81924478250282));
#402=CARTESIAN_POINT('',(-2.479226975794736,0.5,3.805135569190755));
#403=CARTESIAN_POINT('',(-2.458180010890256,0.501294629568569,3.791416470201411));
#404=CARTESIAN_POINT('',(-2.404997748457564,0.508049751910431,3.758255063585764));
#405=CARTESIAN_POINT('',(-2.373013636345994,0.515262750310672,3.739670018523751));
#406=CARTESIAN_POINT('',(-2.296860285483642,0.540695336899926,3.698896003680624));
#407=CARTESIAN_POINT('',(-2.253295175382934,0.562303938732839,3.678531556336934));
#408=CARTESIAN_POINT('',(-2.16998017577188,0.6207521078756,3.646886879326595));
#409=CARTESIAN_POINT('',(-2.131559861921217,0.657774162749394,3.636584851357497));
#410=CARTESIAN_POINT('',(-2.068892074838168,0.741618908977038,3.630412655651992));
#411=CARTESIAN_POINT('',(-2.045333213183256,0.78622323165046,3.634041764246987));
#412=CARTESIAN_POINT('',(-2.010000277128071,0.885667663418985,3.655140801334014));
#413=CARTESIAN_POINT('',(-2.00115969871014,0.938771750103871,3.674025089861766));
#414=CARTESIAN_POINT('',(-2.000035570238333,0.993109202076378,3.699901260190239));
#415=CARTESIAN_POINT('',(-2.0,0.996556590853132,3.701572377782235));
#416=CARTESIAN_POINT('',(-2.0,1.0,3.703270961747244));
#417=B_SPLINE_CURVE_WITH_KNOTS('',3,(#401,#402,#403,#404,#405,#406,#407,#408,#409,#410,#411,#412,#413,#414,#415,#416),.UNSPECIFIED.,.F.,.U.,(4,2,2,2,2,2,2,4),(-3.780888466373841,-3.705553906480913,-3.591752523410223,-3.429531460209202,-3.257601772501705,-3.093397408515044,-2.905507987566302,-2.892765981284965),.UNSPECIFIED.);
#418=EDGE_CURVE('',#398,#400,#417,.T.);
#419=ORIENTED_EDGE('',*,*,#418,.T.);
#420=CARTESIAN_POINT('',(-2.143136454116566,1.350211949566976,4.0));
#421=VERTEX_POINT('',#420);
#422=CARTESIAN_POINT('',(-2.0,1.0,3.703270961747244));
#423=CARTESIAN_POINT('',(-2.0,1.061804679374224,3.733758316827635));
#424=CARTESIAN_POINT('',(-2.011399257348096,1.122331322316213,3.77308597136774));
#425=CARTESIAN_POINT('',(-2.058286419198076,1.244550311241401,3.87367201516217));
#426=CARTESIAN_POINT('',(-2.096175412822399,1.302358974431954,3.935236362787848));
#427=CARTESIAN_POINT('',(-2.143136454116555,1.350211949566965,3.999999999999983));
#428=B_SPLINE_CURVE_WITH_KNOTS('',3,(#422,#423,#424,#425,#426,#427),.UNSPECIFIED.,.F.,.U.,(4,2,4),(-2.892765981284965,-2.664063675165229,-2.400296728095265),.UNSPECIFIED.);
#429=EDGE_CURVE('',#400,#421,#428,.T.);
#430=ORIENTED_EDGE('',*,*,#429,.T.);
#431=CARTESIAN_POINT('',(-3.0,0.99999999999988,4.43158813228853));
#432=VERTEX_POINT('',#431);
#433=CARTESIAN_POINT('',(-2.143136454116555,1.350211949566965,3.999999999999983));
#434=CARTESIAN_POINT('',(-2.150890559718508,1.358113329356232,4.010693631748135));
#435=CARTESIAN_POINT('',(-2.158893634672589,1.365743497604846,4.021473145325482));
#436=CARTESIAN_POINT('',(-2.216545558999378,1.417179939519563,4.097367866810681));
#437=CARTESIAN_POINT('',(-2.273794519146772,1.450649182610331,4.164025304471243));
#438=CARTESIAN_POINT('',(-2.370375660013078,1.484325609173126,4.263083700864159));
#439=CARTESIAN_POINT('',(-2.407140301277908,1.492774932301266,4.29820840202565));
#440=CARTESIAN_POINT('',(-2.472562319679435,1.500016791643631,4.355528246131105));
#441=CARTESIAN_POINT('',(-2.500856702932996,1.500822645585707,4.378769529025815));
#442=CARTESIAN_POINT('',(-2.556551365539857,1.497529467016847,4.421037290949041));
#443=CARTESIAN_POINT('',(-2.584052841351696,1.493695512168838,4.440332622989923));
#444=CARTESIAN_POINT('',(-2.645294615053982,1.479669197030933,4.479223863131439));
#445=CARTESIAN_POINT('',(-2.679203829479223,1.468227364022496,4.498020869371231));
#446=CARTESIAN_POINT('',(-2.755010944748341,1.432640166525928,4.532544948276421));
#447=CARTESIAN_POINT('',(-2.795596257177789,1.406280016221022,4.545532951365172));
#448=CARTESIAN_POINT('',(-2.867521282592064,1.342239445174705,4.556235627425803));
#449=CARTESIAN_POINT('',(-2.897465366085356,1.306754937784639,4.554453257604354));
#450=CARTESIAN_POINT('',(-2.951127654923587,1.22236530303071,4.537659837198065));
#451=CARTESIAN_POINT('',(-2.971343777723206,1.174059924926461,4.520584159056222));
#452=CARTESIAN_POINT('',(-2.994615703544871,1.08472596751588,4.480169330718229));
#453=CARTESIAN_POINT('',(-3.00000000000002,1.042382132892573,4.45745698393208));
#454=CARTESIAN_POINT('',(-3.0,0.999999999999759,4.431588132288529));
#455=B_SPLINE_CURVE_WITH_KNOTS('',3,(#433,#434,#435,#436,#437,#438,#439,#440,#441,#442,#443,#444,#445,#446,#447,#448,#449,#450,#451,#452,#453,#454),.UNSPECIFIED.,.F.,.U.,(4,2,2,2,2,2,2,2,2,2,4),(-2.400296728095265,-2.356744100097216,-2.09546956167981,-1.946987239753919,-1.838814008448668,-1.736748461284781,-1.612116822220599,-1.452775155637595,-1.301500580487679,-1.120848171927744,-0.965383635287577),.UNSPECIFIED.);
#456=EDGE_CURVE('',#421,#432,#455,.T.);
#457=ORIENTED_EDGE('',*,*,#456,.T.);
#458=CARTESIAN_POINT('',(-2.728067351002464,0.555044627623491,4.0));
#459=VERTEX_POINT('',#458);
#460=CARTESIAN_POINT('',(-3.0,0.999999999999759,4.431588132288529));
#461=CARTESIAN_POINT('',(-2.999999999999989,0.977013980323383,4.417558117933477));
#462=CARTESIAN_POINT('',(-2.998414793676225,0.954018470200631,4.402596723987299));
#463=CARTESIAN_POINT('',(-2.984650883023657,0.854968989476394,4.334188512789215));
#464=CARTESIAN_POINT('',(-2.956611624863247,0.782235366270037,4.273835977014293));
#465=CARTESIAN_POINT('',(-2.865831494818167,0.648867761237486,4.13998305590232));
#466=CARTESIAN_POINT('',(-2.801885613941924,0.592881086579364,4.068460825777464));
#467=CARTESIAN_POINT('',(-2.728067351001537,0.555044627623015,3.99999999999914));
#468=B_SPLINE_CURVE_WITH_KNOTS('',3,(#460,#461,#462,#463,#464,#465,#466,#467),.UNSPECIFIED.,.F.,.U.,(4,2,2,4),(-0.965383635287577,-0.881067187429063,-0.599686117014992,-0.290845678972171),.UNSPECIFIED.);
#469=EDGE_CURVE('',#432,#459,#468,.T.);
#470=ORIENTED_EDGE('',*,*,#469,.T.);
#471=CARTESIAN_POINT('',(-2.728067351001537,0.555044627623015,3.99999999999914));
#472=CARTESIAN_POINT('',(-2.725474417584171,0.553715587695567,3.997595251419721));
#473=CARTESIAN_POINT('',(-2.72286932580267,0.552408935568753,3.995194259435731));
#474=CARTESIAN_POINT('',(-2.679992894528017,0.531370489730175,3.95592098714228));
#475=CARTESIAN_POINT('',(-2.636988748589944,0.516992588604854,3.920036814904711));
#476=CARTESIAN_POINT('',(-2.562114072840696,0.502919541117745,3.86273153622518));
#477=CARTESIAN_POINT('',(-2.531188389985301,0.5,3.84042820013206));
#478=CARTESIAN_POINT('',(-2.500000000000001,0.5,3.81924478250282));
#479=B_SPLINE_CURVE_WITH_KNOTS('',3,(#471,#472,#473,#474,#475,#476,#477,#478),.UNSPECIFIED.,.F.,.U.,(4,2,2,4),(-0.290845678972171,-0.279997378557923,-0.113106479350077,0.0),.UNSPECIFIED.);
#480=EDGE_CURVE('',#459,#398,#479,.T.);
#481=ORIENTED_EDGE('',*,*,#480,.T.);
#482=EDGE_LOOP('',(#419,#430,#457,#470,#481));
#483=FACE_BOUND('',#482,.T.);
#484=ADVANCED_FACE('',(#396,#483),#340,.T.);
#485=CARTESIAN_POINT('',(-2.5,1.0,3.5));
#486=DIRECTION('',(0.0,0.0,1.0));
#487=DIRECTION('',(1.0,0.0,0.0));
#488=AXIS2_PLACEMENT_3D('',#485,#486,#487);
#489=CYLINDRICAL_SURFACE('',#488,0.5);
#490=CARTESIAN_POINT('',(-2.0,1.0,0.5));
#491=VERTEX_POINT('',#490);
#492=CARTESIAN_POINT('',(-2.0,1.0,3.703270961747244));
#493=DIRECTION('',(0.0,0.0,-1.0));
#494=VECTOR('',#493,3.203270961747244);
#495=LINE('',#492,#494);
#496=EDGE_CURVE('',#400,#491,#495,.T.);
#497=ORIENTED_EDGE('',*,*,#496,.F.);
#498=ORIENTED_EDGE('',*,*,#418,.F.);
#499=ORIENTED_EDGE('',*,*,#480,.F.);
#500=ORIENTED_EDGE('',*,*,#469,.F.);
#501=CARTESIAN_POINT('',(-3.0,1.0,0.5));
#502=VERTEX_POINT('',#501);
#503=CARTESIAN_POINT('',(-3.0,1.0,4.43158813228853));
#504=DIRECTION('',(0.0,0.0,-1.0));
#505=VECTOR('',#504,3.93158813228853);
#506=LINE('',#503,#505);
#507=EDGE_CURVE('',#432,#502,#506,.T.);
#508=ORIENTED_EDGE('',*,*,#507,.T.);
#509=CARTESIAN_POINT('',(-2.5,1.0,0.5));
#510=DIRECTION('',(0.0,0.0,-1.0));
#511=DIRECTION('',(1.0,0.0,0.0));
#512=AXIS2_PLACEMENT_3D('',#509,#510,#511);
#513=CIRCLE('',#512,0.5);
#514=EDGE_CURVE('',#491,#502,#513,.T.);
#515=ORIENTED_EDGE('',*,*,#514,.F.);
#516=EDGE_LOOP('',(#497,#498,#499,#500,#508,#515));
#517=FACE_OUTER_BOUND('',#516,.T.);
#518=ADVANCED_FACE('',(#517),#489,.T.);
#519=CARTESIAN_POINT('',(-2.5,1.0,0.5));
#520=DIRECTION('',(0.0,0.0,1.0));
#521=DIRECTION('',(1.0,0.0,0.0));
#522=AXIS2_PLACEMENT_3D('',#519,#520,#521);
#523=SPHERICAL_SURFACE('',#522,0.5);
#524=CARTESIAN_POINT('',(-2.5,1.0,0.0));
#525=VERTEX_POINT('',#524);
#526=CARTESIAN_POINT('',(-2.5,1.0,0.5));
#527=DIRECTION('',(0.0,1.0,0.0));
#528=DIRECTION('',(1.0,0.0,0.0));
#529=AXIS2_PLACEMENT_3D('',#526,#527,#528);
#530=CIRCLE('',#529,0.5);
#531=EDGE_CURVE('',#491,#525,#530,.T.);
#532=ORIENTED_EDGE('',*,*,#531,.F.);
#533=ORIENTED_EDGE('',*,*,#514,.T.);
#534=CARTESIAN_POINT('',(-2.5,1.0,0.5));
#535=DIRECTION('',(0.0,-1.0,0.0));
#536=DIRECTION('',(-1.0,0.0,0.0));
#537=AXIS2_PLACEMENT_3D('',#534,#535,#536);
#538=CIRCLE('',#537,0.5);
#539=EDGE_CURVE('',#502,#525,#538,.T.);
#540=ORIENTED_EDGE('',*,*,#539,.T.);
#541=EDGE_LOOP('',(#532,#533,#540));
#542=FACE_OUTER_BOUND('',#541,.T.);
#543=ADVANCED_FACE('',(#542),#523,.T.);
#544=CARTESIAN_POINT('',(2.5,-1.0,3.5));
#545=DIRECTION('',(0.0,0.0,1.0));
#546=DIRECTION('',(1.0,0.0,0.0));
#547=AXIS2_PLACEMENT_3D('',#544,#545,#546);
#548=CYLINDRICAL_SURFACE('',#547,0.5);
#549=CARTESIAN_POINT('',(3.0,-0.999999999999867,4.431588132288516));
#550=VERTEX_POINT('',#549);
#551=CARTESIAN_POINT('',(3.0,-1.0,0.5));
#552=VERTEX_POINT('',#551);
#553=CARTESIAN_POINT('',(3.0,-1.0,4.431588132288516));
#554=DIRECTION('',(0.0,0.0,-1.0));
#555=VECTOR('',#554,3.931588132288516);
#556=LINE('',#553,#555);
#557=EDGE_CURVE('',#550,#552,#556,.T.);
#558=ORIENTED_EDGE('',*,*,#557,.F.);
#559=CARTESIAN_POINT('',(2.500000000000437,-1.500000000000004,4.37750100080115));
#560=VERTEX_POINT('',#559);
#561=CARTESIAN_POINT('',(2.500000000000437,-1.5,4.37750100080115));
#562=CARTESIAN_POINT('',(2.518327586373484,-1.499999999999982,4.392174813649236));
#563=CARTESIAN_POINT('',(2.537027296676301,-1.498992328395293,4.406443124390712));
#564=CARTESIAN_POINT('',(2.584156705908566,-1.49368084055585,4.440395895104241));
#565=CARTESIAN_POINT('',(2.612856891206242,-1.4880199300773,4.459311381957553));
#566=CARTESIAN_POINT('',(2.678441546340051,-1.468649011910799,4.497721899403956));
#567=CARTESIAN_POINT('',(2.715331007366018,-1.453146705737691,4.515867225472192));
#568=CARTESIAN_POINT('',(2.790817088075403,-1.409312148844261,4.54400548454872));
#569=CARTESIAN_POINT('',(2.827861773786539,-1.380491129855624,4.552382955674995));
#570=CARTESIAN_POINT('',(2.894109798226788,-1.311431752072373,4.555201289271134));
#571=CARTESIAN_POINT('',(2.921536595516746,-1.272832550856293,4.549455613051029));
#572=CARTESIAN_POINT('',(2.969761823002322,-1.180734042688513,4.523847991083647));
#573=CARTESIAN_POINT('',(2.986268860568079,-1.127654589991199,4.501340906558829));
#574=CARTESIAN_POINT('',(2.998074013523497,-1.050674774166737,4.461394367156761));
#575=CARTESIAN_POINT('',(3.000000000000013,-1.025341535693034,4.44705588680025));
#576=CARTESIAN_POINT('',(3.0,-0.999999999999734,4.431588132288516));
#577=B_SPLINE_CURVE_WITH_KNOTS('',3,(#561,#562,#563,#564,#565,#566,#567,#568,#569,#570,#571,#572,#573,#574,#575,#576),.UNSPECIFIED.,.F.,.U.,(4,2,2,2,2,2,2,4),(-3.759809621507091,-3.68937531983625,-3.584805261928729,-3.451023277075816,-3.302353079998646,-3.152200625467172,-2.964179349706221,-2.873125866953108),.UNSPECIFIED.);
#578=EDGE_CURVE('',#560,#550,#577,.T.);
#579=ORIENTED_EDGE('',*,*,#578,.F.);
#580=CARTESIAN_POINT('',(2.143136454116565,-1.350211949566976,4.0));
#581=VERTEX_POINT('',#580);
#582=CARTESIAN_POINT('',(2.143136454116564,-1.350211949566976,4.0));
#583=CARTESIAN_POINT('',(2.184117033836776,-1.391970875866882,4.05651602529676));
#584=CARTESIAN_POINT('',(2.231485413504855,-1.425583898744083,4.11469327405426));
#585=CARTESIAN_POINT('',(2.322269312745619,-1.469417032509615,4.214793269135742));
#586=CARTESIAN_POINT('',(2.364900244234566,-1.483531481958284,4.258207070102692));
#587=CARTESIAN_POINT('',(2.438724883121015,-1.497121358884701,4.326432402544481));
#588=CARTESIAN_POINT('',(2.469029969177502,-1.500000000000028,4.352705131506353));
#589=CARTESIAN_POINT('',(2.500000000000437,-1.5,4.37750100080115));
#590=B_SPLINE_CURVE_WITH_KNOTS('',3,(#582,#583,#584,#585,#586,#587,#588,#589),.UNSPECIFIED.,.F.,.U.,(4,2,2,4),(-0.534205602403159,-0.300443033152617,-0.119020172615082,0.0),.UNSPECIFIED.);
#591=EDGE_CURVE('',#581,#560,#590,.T.);
#592=ORIENTED_EDGE('',*,*,#591,.F.);
#593=CARTESIAN_POINT('',(2.0,-0.999999999999992,3.703270961747238));
#594=VERTEX_POINT('',#593);
#595=CARTESIAN_POINT('',(2.0,-0.999999999999984,3.703270961747237));
#596=CARTESIAN_POINT('',(2.0,-1.029259540664864,3.717704270272924));
#597=CARTESIAN_POINT('',(2.002567511146728,-1.05765193979547,3.733837554215663));
#598=CARTESIAN_POINT('',(2.020063927424532,-1.159233327125961,3.79870620540818));
#599=CARTESIAN_POINT('',(2.049215566938588,-1.228529842760167,3.857867143322614));
#600=CARTESIAN_POINT('',(2.107411856188256,-1.31081828591493,3.949267551663937));
#601=CARTESIAN_POINT('',(2.124621304299477,-1.331345140411951,3.974465888902013));
#602=CARTESIAN_POINT('',(2.143136454116564,-1.350211949566976,4.0));
#603=B_SPLINE_CURVE_WITH_KNOTS('',3,(#595,#596,#597,#598,#599,#600,#601,#602),.UNSPECIFIED.,.F.,.U.,(4,2,2,4),(-1.032460060947795,-0.927252990736124,-0.63982023794152,-0.534205602403159),.UNSPECIFIED.);
#604=EDGE_CURVE('',#594,#581,#603,.T.);
#605=ORIENTED_EDGE('',*,*,#604,.F.);
#606=CARTESIAN_POINT('',(2.0,-1.0,0.5));
#607=VERTEX_POINT('',#606);
#608=CARTESIAN_POINT('',(2.0,-1.0,3.703270961747238));
#609=DIRECTION('',(0.0,0.0,-1.0));
#610=VECTOR('',#609,3.203270961747238);
#611=LINE('',#608,#610);
#612=EDGE_CURVE('',#594,#607,#611,.T.);
#613=ORIENTED_EDGE('',*,*,#612,.T.);
#614=CARTESIAN_POINT('',(2.5,-1.0,0.5));
#615=DIRECTION('',(0.0,0.0,1.0));
#616=DIRECTION('',(1.0,0.0,0.0));
#617=AXIS2_PLACEMENT_3D('',#614,#615,#616);
#618=CIRCLE('',#617,0.5);
#619=EDGE_CURVE('',#607,#552,#618,.T.);
#620=ORIENTED_EDGE('',*,*,#619,.T.);
#621=EDGE_LOOP('',(#558,#579,#592,#605,#613,#620));
#622=FACE_OUTER_BOUND('',#621,.T.);
#623=ADVANCED_FACE('',(#622),#548,.T.);
#624=CARTESIAN_POINT('',(2.5,-1.0,0.5));
#625=DIRECTION('',(0.0,0.0,1.0));
#626=DIRECTION('',(1.0,0.0,0.0));
#627=AXIS2_PLACEMENT_3D('',#624,#625,#626);
#628=SPHERICAL_SURFACE('',#627,0.5);
#629=CARTESIAN_POINT('',(2.5,-1.0,0.0));
#630=VERTEX_POINT('',#629);
#631=CARTESIAN_POINT('',(2.5,-1.0,0.5));
#632=DIRECTION('',(0.0,1.0,0.0));
#633=DIRECTION('',(1.0,0.0,0.0));
#634=AXIS2_PLACEMENT_3D('',#631,#632,#633);
#635=CIRCLE('',#634,0.5);
#636=EDGE_CURVE('',#552,#630,#635,.T.);
#637=ORIENTED_EDGE('',*,*,#636,.F.);
#638=ORIENTED_EDGE('',*,*,#619,.F.);
#639=CARTESIAN_POINT('',(2.5,-1.0,0.5));
#640=DIRECTION('',(0.0,-1.0,0.0));
#641=DIRECTION('',(-1.0,0.0,0.0));
#642=AXIS2_PLACEMENT_3D('',#639,#640,#641);
#643=CIRCLE('',#642,0.5);
#644=EDGE_CURVE('',#607,#630,#643,.T.);
#645=ORIENTED_EDGE('',*,*,#644,.T.);
#646=EDGE_LOOP('',(#637,#638,#645));
#647=FACE_OUTER_BOUND('',#646,.T.);
#648=ADVANCED_FACE('',(#647),#628,.T.);
#649=CARTESIAN_POINT('',(2.5,-1.0,0.5));
#650=DIRECTION('',(0.0,0.0,1.0));
#651=DIRECTION('',(1.0,0.0,0.0));
#652=AXIS2_PLACEMENT_3D('',#649,#650,#651);
#653=SPHERICAL_SURFACE('',#652,0.5);
#654=ORIENTED_EDGE('',*,*,#636,.T.);
#655=ORIENTED_EDGE('',*,*,#644,.F.);
#656=CARTESIAN_POINT('',(2.5,-1.0,0.5));
#657=DIRECTION('',(0.0,0.0,1.0));
#658=DIRECTION('',(1.0,0.0,0.0));
#659=AXIS2_PLACEMENT_3D('',#656,#657,#658);
#660=CIRCLE('',#659,0.5);
#661=EDGE_CURVE('',#552,#607,#660,.T.);
#662=ORIENTED_EDGE('',*,*,#661,.F.);
#663=EDGE_LOOP('',(#654,#655,#662));
#664=FACE_OUTER_BOUND('',#663,.T.);
#665=ADVANCED_FACE('',(#664),#653,.T.);
#666=CARTESIAN_POINT('',(2.5,-1.0,3.5));
#667=DIRECTION('',(0.0,0.0,1.0));
#668=DIRECTION('',(1.0,0.0,0.0));
#669=AXIS2_PLACEMENT_3D('',#666,#667,#668);
#670=CYLINDRICAL_SURFACE('',#669,0.5);
#671=ORIENTED_EDGE('',*,*,#557,.T.);
#672=ORIENTED_EDGE('',*,*,#661,.T.);
#673=ORIENTED_EDGE('',*,*,#612,.F.);
#674=CARTESIAN_POINT('',(2.728067351002462,-0.555044627623488,4.0));
#675=VERTEX_POINT('',#674);
#676=CARTESIAN_POINT('',(2.728067351002462,-0.555044627623488,4.0));
#677=CARTESIAN_POINT('',(2.71472190807467,-0.548204256643722,3.987623116464372));
#678=CARTESIAN_POINT('',(2.701041532279937,-0.541950291432919,3.975333787012668));
#679=CARTESIAN_POINT('',(2.650000006357863,-0.521359071683253,3.930875983597328));
#680=CARTESIAN_POINT('',(2.610859939127955,-0.510737795669048,3.899409651817019));
#681=CARTESIAN_POINT('',(2.541301402143492,-0.500840686252143,3.847662684290423));
#682=CARTESIAN_POINT('',(2.511519855308861,-0.499228226646743,3.82672748641162));
#683=CARTESIAN_POINT('',(2.452487868998289,-0.501419103848299,3.787603119048439));
#684=CARTESIAN_POINT('',(2.423241648722244,-0.50502898442204,3.769331232044163));
#685=CARTESIAN_POINT('',(2.357156823153828,-0.519348442878819,3.730665381221648));
#686=CARTESIAN_POINT('',(2.320349141707996,-0.531719541531043,3.710995745087898));
#687=CARTESIAN_POINT('',(2.23523034495804,-0.572331667015209,3.67055610707137));
#688=CARTESIAN_POINT('',(2.188503901730423,-0.604632680571477,3.65254369802624));
#689=CARTESIAN_POINT('',(2.111496064172302,-0.681189342528821,3.63309030662476));
#690=CARTESIAN_POINT('',(2.081138288126381,-0.722273915084369,3.630219511300172));
#691=CARTESIAN_POINT('',(2.032935490759393,-0.813895581114142,3.63803111052599));
#692=CARTESIAN_POINT('',(2.016691523597908,-0.862649610625869,3.649068743554017));
#693=CARTESIAN_POINT('',(2.00248027154963,-0.941566072211753,3.676502128863636));
#694=CARTESIAN_POINT('',(2.0,-0.971201975335325,3.689065312394229));
#695=CARTESIAN_POINT('',(2.0,-0.999999999999984,3.703270961747237));
#696=B_SPLINE_CURVE_WITH_KNOTS('',3,(#676,#677,#678,#679,#680,#681,#682,#683,#684,#685,#686,#687,#688,#689,#690,#691,#692,#693,#694,#695),.UNSPECIFIED.,.F.,.U.,(4,2,2,2,2,2,2,2,2,4),(-2.198467111592232,-2.14188083763736,-1.991861686400193,-1.883758573343926,-1.779594944601815,-1.647418268424081,-1.46408513007638,-1.303217563459794,-1.136007681108793,-1.032460060947795),.UNSPECIFIED.);
#697=EDGE_CURVE('',#675,#594,#696,.T.);
#698=ORIENTED_EDGE('',*,*,#697,.F.);
#699=CARTESIAN_POINT('',(3.0,-0.999999999999734,4.431588132288516));
#700=CARTESIAN_POINT('',(2.999999999999976,-0.955131828663911,4.404201873301991));
#701=CARTESIAN_POINT('',(2.993960284948283,-0.910232449611489,4.373284068860984));
#702=CARTESIAN_POINT('',(2.960950485129466,-0.791045094788657,4.281585470687112));
#703=CARTESIAN_POINT('',(2.923322881196034,-0.723855027672819,4.219150992339811));
#704=CARTESIAN_POINT('',(2.83306442912835,-0.621917973208589,4.104242250146314));
#705=CARTESIAN_POINT('',(2.783451753466041,-0.583432584575796,4.051364821886465));
#706=CARTESIAN_POINT('',(2.728067351002462,-0.555044627623488,4.0));
#707=B_SPLINE_CURVE_WITH_KNOTS('',3,(#699,#700,#701,#702,#703,#704,#705,#706),.UNSPECIFIED.,.F.,.U.,(4,2,2,4),(-2.873125866953108,-2.711912145956303,-2.433303601290473,-2.198467111592232),.UNSPECIFIED.);
#708=EDGE_CURVE('',#550,#675,#707,.T.);
#709=ORIENTED_EDGE('',*,*,#708,.F.);
#710=EDGE_LOOP('',(#671,#672,#673,#698,#709));
#711=FACE_OUTER_BOUND('',#710,.T.);
#712=ADVANCED_FACE('',(#711),#670,.T.);
#713=CARTESIAN_POINT('',(-2.5,1.0,0.5));
#714=DIRECTION('',(0.0,0.0,1.0));
#715=DIRECTION('',(1.0,0.0,0.0));
#716=AXIS2_PLACEMENT_3D('',#713,#714,#715);
#717=SPHERICAL_SURFACE('',#716,0.5);
#718=ORIENTED_EDGE('',*,*,#531,.T.);
#719=ORIENTED_EDGE('',*,*,#539,.F.);
#720=CARTESIAN_POINT('',(-2.5,1.0,0.5));
#721=DIRECTION('',(0.0,0.0,-1.0));
#722=DIRECTION('',(1.0,0.0,0.0));
#723=AXIS2_PLACEMENT_3D('',#720,#721,#722);
#724=CIRCLE('',#723,0.5);
#725=EDGE_CURVE('',#502,#491,#724,.T.);
#726=ORIENTED_EDGE('',*,*,#725,.T.);
#727=EDGE_LOOP('',(#718,#719,#726));
#728=FACE_OUTER_BOUND('',#727,.T.);
#729=ADVANCED_FACE('',(#728),#717,.T.);
#730=CARTESIAN_POINT('',(-2.5,1.0,3.5));
#731=DIRECTION('',(0.0,0.0,1.0));
#732=DIRECTION('',(1.0,0.0,0.0));
#733=AXIS2_PLACEMENT_3D('',#730,#731,#732);
#734=CYLINDRICAL_SURFACE('',#733,0.5);
#735=ORIENTED_EDGE('',*,*,#496,.T.);
#736=ORIENTED_EDGE('',*,*,#725,.F.);
#737=ORIENTED_EDGE('',*,*,#507,.F.);
#738=ORIENTED_EDGE('',*,*,#456,.F.);
#739=ORIENTED_EDGE('',*,*,#429,.F.);
#740=EDGE_LOOP('',(#735,#736,#737,#738,#739));
#741=FACE_OUTER_BOUND('',#740,.T.);
#742=ADVANCED_FACE('',(#741),#734,.T.);
#743=CARTESIAN_POINT('',(-8.881784E-016,2.5,7.5));
#744=DIRECTION('',(0.0,1.0,0.0));
#745=DIRECTION('',(0.0,0.0,1.0));
#746=AXIS2_PLACEMENT_3D('',#743,#744,#745);
#747=PLANE('',#746);
#748=ORIENTED_EDGE('',*,*,#359,.T.);
#749=CARTESIAN_POINT('',(-8.881784E-016,2.5,7.499999999999999));
#750=DIRECTION('',(0.0,1.0,0.0));
#751=DIRECTION('',(1.0,0.0,0.0));
#752=AXIS2_PLACEMENT_3D('',#749,#750,#751);
#753=CIRCLE('',#752,2.0);
#754=EDGE_CURVE('',#342,#362,#753,.T.);
#755=ORIENTED_EDGE('',*,*,#754,.T.);
#756=ORIENTED_EDGE('',*,*,#368,.T.);
#757=EDGE_LOOP('',(#748,#755,#756));
#758=FACE_OUTER_BOUND('',#757,.T.);
#759=ADVANCED_FACE('',(#758),#747,.T.);
#760=CARTESIAN_POINT('',(-2.000000000000001,-2.5,7.5));
#761=DIRECTION('',(0.0,-1.0,0.0));
#762=DIRECTION('',(0.0,0.0,-1.0));
#763=AXIS2_PLACEMENT_3D('',#760,#761,#762);
#764=PLANE('',#763);
#765=ORIENTED_EDGE('',*,*,#393,.F.);
#766=ORIENTED_EDGE('',*,*,#386,.F.);
#767=CARTESIAN_POINT('',(-8.881784E-016,-2.5,7.5));
#768=DIRECTION('',(0.0,1.0,0.0));
#769=DIRECTION('',(1.0,0.0,0.0));
#770=AXIS2_PLACEMENT_3D('',#767,#768,#769);
#771=CIRCLE('',#770,2.000000000000001);
#772=EDGE_CURVE('',#344,#371,#771,.T.);
#773=ORIENTED_EDGE('',*,*,#772,.F.);
#774=EDGE_LOOP('',(#765,#766,#773));
#775=FACE_OUTER_BOUND('',#774,.T.);
#776=ADVANCED_FACE('',(#775),#764,.T.);
#777=CARTESIAN_POINT('',(-8.881784E-016,-1.499999999999999,7.499999999999998));
#778=CARTESIAN_POINT('',(-7.557771E-016,-2.941518440112252,6.418861169915809));
#779=CARTESIAN_POINT('',(-5.464322E-016,-2.371708245126285,4.709430584957906));
#780=CARTESIAN_POINT('',(-3.370874E-016,-1.801898050140318,3.0));
#781=CARTESIAN_POINT('',(-3.370874E-016,-9.992007E-016,2.999999999999999));
#782=CARTESIAN_POINT('',(-3.370874E-016,1.801898050140316,2.999999999999998));
#783=CARTESIAN_POINT('',(-5.464322E-016,2.371708245126284,4.709430584957905));
#784=CARTESIAN_POINT('',(-7.557771E-016,2.941518440112251,6.418861169915809));
#785=CARTESIAN_POINT('',(-8.881784E-016,1.499999999999999,7.499999999999998));
#786=CARTESIAN_POINT('',(-1.972152E-031,-1.499999999999999,7.499999999999998));
#787=CARTESIAN_POINT('',(1.08113883008419,-2.941518440112252,6.418861169915809));
#788=CARTESIAN_POINT('',(2.790569415042094,-2.371708245126285,4.709430584957906));
#789=CARTESIAN_POINT('',(4.499999999999998,-1.801898050140318,3.000000000000002));
#790=CARTESIAN_POINT('',(4.499999999999999,-9.992007E-016,3.000000000000001));
#791=CARTESIAN_POINT('',(4.5,1.801898050140315,3.0));
#792=CARTESIAN_POINT('',(2.790569415042093,2.371708245126284,4.709430584957906));
#793=CARTESIAN_POINT('',(1.081138830084188,2.941518440112252,6.418861169915809));
#794=CARTESIAN_POINT('',(-1.972152E-031,1.499999999999999,7.499999999999998));
#795=CARTESIAN_POINT('',(0.0,-1.499999999999999,7.499999999999999));
#796=CARTESIAN_POINT('',(1.08113883008419,-2.941518440112252,7.5));
#797=CARTESIAN_POINT('',(2.790569415042094,-2.371708245126284,7.5));
#798=CARTESIAN_POINT('',(4.499999999999998,-1.801898050140316,7.5));
#799=CARTESIAN_POINT('',(4.499999999999999,1.223668E-031,7.5));
#800=CARTESIAN_POINT('',(4.5,1.801898050140317,7.5));
#801=CARTESIAN_POINT('',(2.790569415042093,2.371708245126284,7.499999999999998));
#802=CARTESIAN_POINT('',(1.081138830084188,2.941518440112252,7.499999999999998));
#803=CARTESIAN_POINT('',(0.0,1.499999999999999,7.499999999999999));
#804=CARTESIAN_POINT('',(-1.972152E-031,-1.499999999999999,7.5));
#805=CARTESIAN_POINT('',(1.08113883008419,-2.941518440112251,8.581138830084191));
#806=CARTESIAN_POINT('',(2.790569415042093,-2.371708245126284,10.290569415042095));
#807=CARTESIAN_POINT('',(4.499999999999996,-1.801898050140316,11.999999999999998));
#808=CARTESIAN_POINT('',(4.499999999999997,9.992007E-016,12.0));
#809=CARTESIAN_POINT('',(4.499999999999998,1.801898050140318,12.0));
#810=CARTESIAN_POINT('',(2.790569415042092,2.371708245126285,10.290569415042091));
#811=CARTESIAN_POINT('',(1.081138830084188,2.941518440112253,8.581138830084187));
#812=CARTESIAN_POINT('',(-1.972152E-031,1.499999999999999,7.5));
#813=CARTESIAN_POINT('',(-8.881784E-016,-1.499999999999999,7.5));
#814=CARTESIAN_POINT('',(-1.020580E-015,-2.941518440112251,8.581138830084191));
#815=CARTESIAN_POINT('',(-1.229925E-015,-2.371708245126284,10.290569415042095));
#816=CARTESIAN_POINT('',(-1.439269E-015,-1.801898050140316,11.999999999999996));
#817=CARTESIAN_POINT('',(-1.439269E-015,9.992007E-016,12.0));
#818=CARTESIAN_POINT('',(-1.439269E-015,1.801898050140318,11.999999999999998));
#819=CARTESIAN_POINT('',(-1.229925E-015,2.371708245126285,10.290569415042093));
#820=CARTESIAN_POINT('',(-1.020580E-015,2.941518440112253,8.581138830084187));
#821=CARTESIAN_POINT('',(-8.881784E-016,1.499999999999999,7.5));
#822=CARTESIAN_POINT('',(-1.776357E-015,-1.499999999999999,7.5));
#823=CARTESIAN_POINT('',(-1.081138830084192,-2.941518440112251,8.581138830084191));
#824=CARTESIAN_POINT('',(-2.790569415042095,-2.371708245126284,10.290569415042095));
#825=CARTESIAN_POINT('',(-4.5,-1.801898050140316,11.999999999999996));
#826=CARTESIAN_POINT('',(-4.500000000000001,9.992007E-016,11.999999999999996));
#827=CARTESIAN_POINT('',(-4.500000000000002,1.801898050140318,11.999999999999998));
#828=CARTESIAN_POINT('',(-2.790569415042095,2.371708245126285,10.290569415042091));
#829=CARTESIAN_POINT('',(-1.08113883008419,2.941518440112253,8.581138830084187));
#830=CARTESIAN_POINT('',(-1.776357E-015,1.499999999999999,7.5));
#831=CARTESIAN_POINT('',(-1.776357E-015,-1.499999999999999,7.499999999999999));
#832=CARTESIAN_POINT('',(-1.081138830084192,-2.941518440112252,7.5));
#833=CARTESIAN_POINT('',(-2.790569415042095,-2.371708245126284,7.5));
#834=CARTESIAN_POINT('',(-4.5,-1.801898050140316,7.499999999999998));
#835=CARTESIAN_POINT('',(-4.500000000000001,-1.223668E-031,7.499999999999998));
#836=CARTESIAN_POINT('',(-4.500000000000002,1.801898050140317,7.499999999999999));
#837=CARTESIAN_POINT('',(-2.790569415042095,2.371708245126284,7.499999999999998));
#838=CARTESIAN_POINT('',(-1.08113883008419,2.941518440112252,7.499999999999998));
#839=CARTESIAN_POINT('',(-1.776357E-015,1.499999999999999,7.499999999999999));
#840=CARTESIAN_POINT('',(-1.776357E-015,-1.499999999999999,7.499999999999998));
#841=CARTESIAN_POINT('',(-1.081138830084191,-2.941518440112252,6.418861169915809));
#842=CARTESIAN_POINT('',(-2.790569415042095,-2.371708245126285,4.709430584957906));
#843=CARTESIAN_POINT('',(-4.499999999999998,-1.801898050140318,3.0));
#844=CARTESIAN_POINT('',(-4.499999999999999,-9.992007E-016,2.999999999999999));
#845=CARTESIAN_POINT('',(-4.5,1.801898050140315,2.999999999999998));
#846=CARTESIAN_POINT('',(-2.790569415042094,2.371708245126284,4.709430584957906));
#847=CARTESIAN_POINT('',(-1.08113883008419,2.941518440112252,6.418861169915809));
#848=CARTESIAN_POINT('',(-1.776357E-015,1.499999999999999,7.499999999999998));
#849=CARTESIAN_POINT('',(-8.881784E-016,-1.499999999999999,7.499999999999998));
#850=CARTESIAN_POINT('',(-7.557771E-016,-2.941518440112252,6.418861169915809));
#851=CARTESIAN_POINT('',(-5.464322E-016,-2.371708245126285,4.709430584957906));
#852=CARTESIAN_POINT('',(-3.370874E-016,-1.801898050140318,3.0));
#853=CARTESIAN_POINT('',(-3.370874E-016,-9.992007E-016,2.999999999999999));
#854=CARTESIAN_POINT('',(-3.370874E-016,1.801898050140316,2.999999999999998));
#855=CARTESIAN_POINT('',(-5.464322E-016,2.371708245126284,4.709430584957905));
#856=CARTESIAN_POINT('',(-7.557771E-016,2.941518440112251,6.418861169915809));
#857=CARTESIAN_POINT('',(-8.881784E-016,1.499999999999999,7.499999999999998));
#865=(BOUNDED_SURFACE()B_SPLINE_SURFACE(2,2,((#777,#786,#795,#804,#813,#822,#831,#840,#849),(#778,#787,#796,#805,#814,#823,#832,#841,#850),(#779,#788,#797,#806,#815,#824,#833,#842,#851),(#780,#789,#798,#807,#816,#825,#834,#843,#852),(#781,#790,#799,#808,#817,#826,#835,#844,#853),(#782,#791,#800,#809,#818,#827,#836,#845,#854),(#783,#792,#801,#810,#819,#828,#837,#846,#855),(#784,#793,#802,#811,#820,#829,#838,#847,#856),(#785,#794,#803,#812,#821,#830,#839,#848,#857)),.UNSPECIFIED.,.F.,.T.,.U.)B_SPLINE_SURFACE_WITH_KNOTS((3,2,2,2,3),(3,2,2,2,3),(-2.498091544796509,-1.249045772398255,0.0,1.249045772398255,2.498091544796509),(0.0,1.570796326794897,3.141592653589793,4.71238898038469,6.283185307179586),.UNSPECIFIED.)GEOMETRIC_REPRESENTATION_ITEM()RATIONAL_B_SPLINE_SURFACE(((1.0,0.707106781186548,1.0,0.707106781186548,1.0,0.707106781186548,1.0,0.707106781186548,1.0),(0.811242185175562,0.573634850322232,0.811242185175562,0.573634850322232,0.811242185175562,0.573634850322232,0.811242185175562,0.573634850322232,0.811242185175562),(1.0,0.707106781186548,1.0,0.707106781186548,1.0,0.707106781186548,1.0,0.707106781186548,1.0),(0.811242185175561,0.573634850322232,0.811242185175561,0.573634850322232,0.811242185175561,0.573634850322232,0.811242185175561,0.573634850322232,0.811242185175561),(1.0,0.707106781186548,1.0,0.707106781186548,1.0,0.707106781186548,1.0,0.707106781186548,1.0),(0.81124218517556,0.573634850322231,0.81124218517556,0.573634850322231,0.81124218517556,0.573634850322231,0.81124218517556,0.573634850322231,0.81124218517556),(1.0,0.707106781186548,1.0,0.707106781186548,1.0,0.707106781186548,1.0,0.707106781186548,1.0),(0.811242185175559,0.573634850322231,0.811242185175559,0.573634850322231,0.811242185175559,0.573634850322231,0.811242185175559,0.573634850322231,0.811242185175559),(1.0,0.707106781186548,1.0,0.707106781186548,1.0,0.707106781186548,1.0,0.707106781186548,1.0)))REPRESENTATION_ITEM('')SURFACE());
#866=ORIENTED_EDGE('',*,*,#350,.T.);
#867=ORIENTED_EDGE('',*,*,#772,.T.);
#868=ORIENTED_EDGE('',*,*,#377,.F.);
#869=ORIENTED_EDGE('',*,*,#754,.F.);
#870=EDGE_LOOP('',(#866,#867,#868,#869));
#871=FACE_OUTER_BOUND('',#870,.T.);
#872=ORIENTED_EDGE('',*,*,#578,.T.);
#873=ORIENTED_EDGE('',*,*,#708,.T.);
#874=ORIENTED_EDGE('',*,*,#697,.T.);
#875=ORIENTED_EDGE('',*,*,#604,.T.);
#876=ORIENTED_EDGE('',*,*,#591,.T.);
#877=EDGE_LOOP('',(#872,#873,#874,#875,#876));
#878=FACE_BOUND('',#877,.T.);
#879=ADVANCED_FACE('',(#871,#878),#865,.T.);
#880=CLOSED_SHELL('',(#484,#518,#543,#623,#648,#665,#712,#729,#742,#759,#776,#879));
#881=MANIFOLD_SOLID_BREP('3B8',#880);
#882=DRAUGHTING_PRE_DEFINED_COLOUR('red');
#883=SURFACE_STYLE_USAGE(.BOTH.,#884);
#884=SURFACE_SIDE_STYLE('NONE',(#885));
#885=SURFACE_STYLE_FILL_AREA(#886);
#886=FILL_AREA_STYLE('NONE',(#887));
#887=FILL_AREA_STYLE_COLOUR('NONE',#882);
#888=PRESENTATION_STYLE_ASSIGNMENT((#883));
#889=STYLED_ITEM('NONE',(#888),#881);
#890=ADVANCED_BREP_SHAPE_REPRESENTATION('ABSR1',(#152,#250,#881),#28);
#891=SHAPE_REPRESENTATION_RELATIONSHIP('SRRPL1','',#890,#62);
ENDSEC;
END-ISO-10303-21;
