ISO-10303-21;
HEADER;
/****************************************************************
 * Generated by software with PDElib inside                    *
 * PDElib Version v51a, created Wed 11/30/2011                  *
 * ITI Transcendata (http://www.transcendata.com/)              *
 ****************************************************************/
FILE_DESCRIPTION((''),'2;1');
FILE_NAME('VISHAY_KBPM.stp','2014-11-05T09:30:23',(''),(''),'Mechanical Desktop 2011','Mechanical Desktop 2011',', , ');
FILE_SCHEMA(('AUTOMOTIVE_DESIGN { 1 2 10303 214 1 1 1 1 }'));
ENDSEC;
DATA;
#10=(NAMED_UNIT(*)PLANE_ANGLE_UNIT()SI_UNIT($,.RADIAN.));
#11=DIMENSIONAL_EXPONENTS(0.0,0.0,0.0,0.0,0.0,0.0,0.0);
#12=PLANE_ANGLE_MEASURE_WITH_UNIT(PLANE_ANGLE_MEASURE(0.0174532925),#10);
#16=(CONVERSION_BASED_UNIT('DEGREE',#12)NAMED_UNIT(#11)PLANE_ANGLE_UNIT());
#20=(NAMED_UNIT(*)SI_UNIT($,.STERADIAN.)SOLID_ANGLE_UNIT());
#24=(LENGTH_UNIT()NAMED_UNIT(*)SI_UNIT(.MILLI.,.METRE.));
#26=UNCERTAINTY_MEASURE_WITH_UNIT(LENGTH_MEASURE(0.000001),#24,'DISTANCE_ACCURACY_VALUE','');
#28=(GEOMETRIC_REPRESENTATION_CONTEXT(3)GLOBAL_UNCERTAINTY_ASSIGNED_CONTEXT((#26))GLOBAL_UNIT_ASSIGNED_CONTEXT((#16,#20,#24))REPRESENTATION_CONTEXT('','3D'));
#29=APPLICATION_CONTEXT('automotive design');
#30=APPLICATION_PROTOCOL_DEFINITION('INTERNATIONAL_STANDARD','automotive_design',1998,#29);
#31=PRODUCT_CONTEXT('3D Mechanical Parts',#29,'mechanical');
#32=PRODUCT('Product','Product','',(#31));
#33=PRODUCT_RELATED_PRODUCT_CATEGORY('part',$,(#32));
#34=PRODUCT_CATEGORY('part',$);
#35=PERSON('1','Design','Joe',$,$,$);
#36=ORGANIZATION($,'None','None');
#37=PERSON_AND_ORGANIZATION(#35,#36);
#38=PERSON_AND_ORGANIZATION_ROLE('design_owner');
#39=APPLIED_PERSON_AND_ORGANIZATION_ASSIGNMENT(#37,#38,(#32));
#40=PRODUCT_DEFINITION_FORMATION_WITH_SPECIFIED_SOURCE('None','',#32,.BOUGHT.);
#41=PERSON('2','Creator','Joe',$,$,$);
#42=ORGANIZATION($,'None','None');
#43=PERSON_AND_ORGANIZATION(#41,#42);
#44=PERSON_AND_ORGANIZATION_ROLE('creator');
#45=APPLIED_PERSON_AND_ORGANIZATION_ASSIGNMENT(#43,#44,(#40));
#46=PERSON('3','Supplier','Joe',$,$,$);
#47=ORGANIZATION($,'None','None');
#48=PERSON_AND_ORGANIZATION(#46,#47);
#49=PERSON_AND_ORGANIZATION_ROLE('design_supplier');
#50=APPLIED_PERSON_AND_ORGANIZATION_ASSIGNMENT(#48,#49,(#40));
#51=PRODUCT_DEFINITION_CONTEXT('part definition',#29,'design');
#52=PRODUCT_DEFINITION('None','',#40,#51);
#53=PERSON('4','Creator','Joe',$,$,$);
#54=ORGANIZATION($,'None','None');
#55=PERSON_AND_ORGANIZATION(#53,#54);
#56=PERSON_AND_ORGANIZATION_ROLE('creator');
#57=APPLIED_PERSON_AND_ORGANIZATION_ASSIGNMENT(#55,#56,(#52));
#58=CARTESIAN_POINT('NONE',(0.0,0.0,0.0));
#59=DIRECTION('NONE',(0.0,0.0,1.0));
#60=DIRECTION('NONE',(1.0,0.0,0.0));
#61=AXIS2_PLACEMENT_3D('NONE',#58,#59,#60);
#62=SHAPE_REPRESENTATION('SR1',(#61),#28);
#63=PRODUCT_DEFINITION_SHAPE('PDS1','Test Part',#52);
#64=SHAPE_DEFINITION_REPRESENTATION(#63,#62);
#65=CARTESIAN_POINT('',(-1.904999999999999,0.0,-1.28));
#66=DIRECTION('',(0.0,-1.224647E-016,-1.0));
#67=DIRECTION('',(1.0,0.0,0.0));
#68=AXIS2_PLACEMENT_3D('',#65,#66,#67);
#69=CYLINDRICAL_SURFACE('',#68,0.43);
#70=CARTESIAN_POINT('',(-1.475,-2.816688E-016,-3.579999999999999));
#71=VERTEX_POINT('',#70);
#72=CARTESIAN_POINT('',(-1.475,2.816688E-016,1.02));
#73=VERTEX_POINT('',#72);
#74=CARTESIAN_POINT('',(-1.474999999999999,-2.816688E-016,-3.579999999999999));
#75=DIRECTION('',(0.0,0.0,1.0));
#76=VECTOR('',#75,4.6);
#77=LINE('',#74,#76);
#78=EDGE_CURVE('',#71,#73,#77,.T.);
#79=ORIENTED_EDGE('',*,*,#78,.F.);
#80=CARTESIAN_POINT('',(-2.335,-2.290090E-016,-3.579999999999999));
#81=VERTEX_POINT('',#80);
#82=CARTESIAN_POINT('',(-1.904999999999999,-2.816688E-016,-3.579999999999999));
#83=DIRECTION('',(0.0,0.0,-1.0));
#84=DIRECTION('',(1.0,0.0,0.0));
#85=AXIS2_PLACEMENT_3D('',#82,#83,#84);
#86=CIRCLE('',#85,0.43);
#87=EDGE_CURVE('',#81,#71,#86,.T.);
#88=ORIENTED_EDGE('',*,*,#87,.F.);
#89=CARTESIAN_POINT('',(-2.335,3.343286E-016,1.02));
#90=VERTEX_POINT('',#89);
#91=CARTESIAN_POINT('',(-2.335,-2.290090E-016,-3.579999999999999));
#92=DIRECTION('',(0.0,0.0,1.0));
#93=VECTOR('',#92,4.6);
#94=LINE('',#91,#93);
#95=EDGE_CURVE('',#81,#90,#94,.T.);
#96=ORIENTED_EDGE('',*,*,#95,.T.);
#97=CARTESIAN_POINT('',(-1.904999999999999,2.816688E-016,1.02));
#98=DIRECTION('',(0.0,0.0,1.0));
#99=DIRECTION('',(1.0,0.0,0.0));
#100=AXIS2_PLACEMENT_3D('',#97,#98,#99);
#101=CIRCLE('',#100,0.43);
#102=EDGE_CURVE('',#73,#90,#101,.T.);
#103=ORIENTED_EDGE('',*,*,#102,.F.);
#104=EDGE_LOOP('',(#79,#88,#96,#103));
#105=FACE_OUTER_BOUND('',#104,.T.);
#106=ADVANCED_FACE('',(#105),#69,.T.);
#107=CARTESIAN_POINT('',(-1.904999999999999,0.0,-1.28));
#108=DIRECTION('',(0.0,-1.224647E-016,-1.0));
#109=DIRECTION('',(1.0,0.0,0.0));
#110=AXIS2_PLACEMENT_3D('',#107,#108,#109);
#111=CYLINDRICAL_SURFACE('',#110,0.43);
#112=ORIENTED_EDGE('',*,*,#78,.T.);
#113=CARTESIAN_POINT('',(-1.904999999999999,2.816688E-016,1.02));
#114=DIRECTION('',(0.0,0.0,1.0));
#115=DIRECTION('',(1.0,0.0,0.0));
#116=AXIS2_PLACEMENT_3D('',#113,#114,#115);
#117=CIRCLE('',#116,0.43);
#118=EDGE_CURVE('',#90,#73,#117,.T.);
#119=ORIENTED_EDGE('',*,*,#118,.F.);
#120=ORIENTED_EDGE('',*,*,#95,.F.);
#121=CARTESIAN_POINT('',(-1.904999999999999,-2.816688E-016,-3.579999999999999));
#122=DIRECTION('',(0.0,0.0,-1.0));
#123=DIRECTION('',(1.0,0.0,0.0));
#124=AXIS2_PLACEMENT_3D('',#121,#122,#123);
#125=CIRCLE('',#124,0.43);
#126=EDGE_CURVE('',#71,#81,#125,.T.);
#127=ORIENTED_EDGE('',*,*,#126,.F.);
#128=EDGE_LOOP('',(#112,#119,#120,#127));
#129=FACE_OUTER_BOUND('',#128,.T.);
#130=ADVANCED_FACE('',(#129),#111,.T.);
#131=CARTESIAN_POINT('',(-1.904999999999999,2.816688E-016,1.02));
#132=DIRECTION('',(0.0,0.0,1.0));
#133=DIRECTION('',(-1.0,0.0,0.0));
#134=AXIS2_PLACEMENT_3D('',#131,#132,#133);
#135=PLANE('',#134);
#136=ORIENTED_EDGE('',*,*,#102,.T.);
#137=ORIENTED_EDGE('',*,*,#118,.T.);
#138=EDGE_LOOP('',(#136,#137));
#139=FACE_OUTER_BOUND('',#138,.T.);
#140=ADVANCED_FACE('',(#139),#135,.T.);
#141=CARTESIAN_POINT('',(-1.904999999999999,-2.816688E-016,-3.579999999999999));
#142=DIRECTION('',(0.0,0.0,-1.0));
#143=DIRECTION('',(1.0,0.0,0.0));
#144=AXIS2_PLACEMENT_3D('',#141,#142,#143);
#145=PLANE('',#144);
#146=ORIENTED_EDGE('',*,*,#126,.T.);
#147=ORIENTED_EDGE('',*,*,#87,.T.);
#148=EDGE_LOOP('',(#146,#147));
#149=FACE_OUTER_BOUND('',#148,.T.);
#150=ADVANCED_FACE('',(#149),#145,.T.);
#151=CLOSED_SHELL('',(#106,#130,#140,#150));
#152=MANIFOLD_SOLID_BREP('2EA3',#151);
#153=COLOUR_RGB('254',0.866,0.866,0.866);
#154=SURFACE_STYLE_USAGE(.BOTH.,#155);
#155=SURFACE_SIDE_STYLE('NONE',(#156));
#156=SURFACE_STYLE_FILL_AREA(#157);
#157=FILL_AREA_STYLE('NONE',(#158));
#158=FILL_AREA_STYLE_COLOUR('NONE',#153);
#159=PRESENTATION_STYLE_ASSIGNMENT((#154));
#160=STYLED_ITEM('NONE',(#159),#152);
#161=MECHANICAL_DESIGN_GEOMETRIC_PRESENTATION_REPRESENTATION('NONE',(#160,#251,#340,#429,#795,#948,#1101),#28);
#162=PRESENTATION_LAYER_ASSIGNMENT('3D','None',(#152,#250,#339,#428,#787,#947,#1100));
#163=CARTESIAN_POINT('',(5.715000000000001,0.0,-1.28));
#164=DIRECTION('',(0.0,-1.224647E-016,-1.0));
#165=DIRECTION('',(1.0,0.0,0.0));
#166=AXIS2_PLACEMENT_3D('',#163,#164,#165);
#167=CYLINDRICAL_SURFACE('',#166,0.43);
#168=CARTESIAN_POINT('',(6.145000000000001,-2.816688E-016,-3.579999999999999));
#169=VERTEX_POINT('',#168);
#170=CARTESIAN_POINT('',(6.145000000000001,2.816688E-016,1.02));
#171=VERTEX_POINT('',#170);
#172=CARTESIAN_POINT('',(6.145000000000001,-2.816688E-016,-3.579999999999999));
#173=DIRECTION('',(0.0,0.0,1.0));
#174=VECTOR('',#173,4.6);
#175=LINE('',#172,#174);
#176=EDGE_CURVE('',#169,#171,#175,.T.);
#177=ORIENTED_EDGE('',*,*,#176,.F.);
#178=CARTESIAN_POINT('',(5.285000000000001,-2.290090E-016,-3.579999999999999));
#179=VERTEX_POINT('',#178);
#180=CARTESIAN_POINT('',(5.715000000000001,-2.816688E-016,-3.579999999999999));
#181=DIRECTION('',(0.0,0.0,-1.0));
#182=DIRECTION('',(1.0,0.0,0.0));
#183=AXIS2_PLACEMENT_3D('',#180,#181,#182);
#184=CIRCLE('',#183,0.43);
#185=EDGE_CURVE('',#179,#169,#184,.T.);
#186=ORIENTED_EDGE('',*,*,#185,.F.);
#187=CARTESIAN_POINT('',(5.285000000000001,3.343286E-016,1.02));
#188=VERTEX_POINT('',#187);
#189=CARTESIAN_POINT('',(5.285000000000001,-2.290090E-016,-3.579999999999999));
#190=DIRECTION('',(0.0,0.0,1.0));
#191=VECTOR('',#190,4.6);
#192=LINE('',#189,#191);
#193=EDGE_CURVE('',#179,#188,#192,.T.);
#194=ORIENTED_EDGE('',*,*,#193,.T.);
#195=CARTESIAN_POINT('',(5.715000000000001,2.816688E-016,1.02));
#196=DIRECTION('',(0.0,0.0,1.0));
#197=DIRECTION('',(1.0,0.0,0.0));
#198=AXIS2_PLACEMENT_3D('',#195,#196,#197);
#199=CIRCLE('',#198,0.43);
#200=EDGE_CURVE('',#171,#188,#199,.T.);
#201=ORIENTED_EDGE('',*,*,#200,.F.);
#202=EDGE_LOOP('',(#177,#186,#194,#201));
#203=FACE_OUTER_BOUND('',#202,.T.);
#204=ADVANCED_FACE('',(#203),#167,.T.);
#205=CARTESIAN_POINT('',(5.715000000000001,0.0,-1.28));
#206=DIRECTION('',(0.0,-1.224647E-016,-1.0));
#207=DIRECTION('',(1.0,0.0,0.0));
#208=AXIS2_PLACEMENT_3D('',#205,#206,#207);
#209=CYLINDRICAL_SURFACE('',#208,0.43);
#210=ORIENTED_EDGE('',*,*,#176,.T.);
#211=CARTESIAN_POINT('',(5.715000000000001,2.816688E-016,1.02));
#212=DIRECTION('',(0.0,0.0,1.0));
#213=DIRECTION('',(1.0,0.0,0.0));
#214=AXIS2_PLACEMENT_3D('',#211,#212,#213);
#215=CIRCLE('',#214,0.43);
#216=EDGE_CURVE('',#188,#171,#215,.T.);
#217=ORIENTED_EDGE('',*,*,#216,.F.);
#218=ORIENTED_EDGE('',*,*,#193,.F.);
#219=CARTESIAN_POINT('',(5.715000000000001,-2.816688E-016,-3.579999999999999));
#220=DIRECTION('',(0.0,0.0,-1.0));
#221=DIRECTION('',(1.0,0.0,0.0));
#222=AXIS2_PLACEMENT_3D('',#219,#220,#221);
#223=CIRCLE('',#222,0.43);
#224=EDGE_CURVE('',#169,#179,#223,.T.);
#225=ORIENTED_EDGE('',*,*,#224,.F.);
#226=EDGE_LOOP('',(#210,#217,#218,#225));
#227=FACE_OUTER_BOUND('',#226,.T.);
#228=ADVANCED_FACE('',(#227),#209,.T.);
#229=CARTESIAN_POINT('',(5.715000000000001,2.816688E-016,1.02));
#230=DIRECTION('',(0.0,0.0,1.0));
#231=DIRECTION('',(-1.0,0.0,0.0));
#232=AXIS2_PLACEMENT_3D('',#229,#230,#231);
#233=PLANE('',#232);
#234=ORIENTED_EDGE('',*,*,#200,.T.);
#235=ORIENTED_EDGE('',*,*,#216,.T.);
#236=EDGE_LOOP('',(#234,#235));
#237=FACE_OUTER_BOUND('',#236,.T.);
#238=ADVANCED_FACE('',(#237),#233,.T.);
#239=CARTESIAN_POINT('',(5.715000000000001,-2.816688E-016,-3.579999999999999));
#240=DIRECTION('',(0.0,0.0,-1.0));
#241=DIRECTION('',(1.0,0.0,0.0));
#242=AXIS2_PLACEMENT_3D('',#239,#240,#241);
#243=PLANE('',#242);
#244=ORIENTED_EDGE('',*,*,#224,.T.);
#245=ORIENTED_EDGE('',*,*,#185,.T.);
#246=EDGE_LOOP('',(#244,#245));
#247=FACE_OUTER_BOUND('',#246,.T.);
#248=ADVANCED_FACE('',(#247),#243,.T.);
#249=CLOSED_SHELL('',(#204,#228,#238,#248));
#250=MANIFOLD_SOLID_BREP('2C0B',#249);
#251=STYLED_ITEM('NONE',(#159),#250);
#252=CARTESIAN_POINT('',(1.905000000000001,0.0,-1.28));
#253=DIRECTION('',(0.0,-1.224647E-016,-1.0));
#254=DIRECTION('',(1.0,0.0,0.0));
#255=AXIS2_PLACEMENT_3D('',#252,#253,#254);
#256=CYLINDRICAL_SURFACE('',#255,0.43);
#257=CARTESIAN_POINT('',(2.335000000000001,-2.816688E-016,-3.579999999999999));
#258=VERTEX_POINT('',#257);
#259=CARTESIAN_POINT('',(2.335000000000001,2.816688E-016,1.02));
#260=VERTEX_POINT('',#259);
#261=CARTESIAN_POINT('',(2.335000000000001,-2.816688E-016,-3.579999999999999));
#262=DIRECTION('',(0.0,0.0,1.0));
#263=VECTOR('',#262,4.6);
#264=LINE('',#261,#263);
#265=EDGE_CURVE('',#258,#260,#264,.T.);
#266=ORIENTED_EDGE('',*,*,#265,.F.);
#267=CARTESIAN_POINT('',(1.475000000000001,-2.290090E-016,-3.579999999999999));
#268=VERTEX_POINT('',#267);
#269=CARTESIAN_POINT('',(1.905000000000001,-2.816688E-016,-3.579999999999999));
#270=DIRECTION('',(0.0,0.0,-1.0));
#271=DIRECTION('',(1.0,0.0,0.0));
#272=AXIS2_PLACEMENT_3D('',#269,#270,#271);
#273=CIRCLE('',#272,0.43);
#274=EDGE_CURVE('',#268,#258,#273,.T.);
#275=ORIENTED_EDGE('',*,*,#274,.F.);
#276=CARTESIAN_POINT('',(1.475000000000001,3.343286E-016,1.02));
#277=VERTEX_POINT('',#276);
#278=CARTESIAN_POINT('',(1.475000000000001,-2.290090E-016,-3.579999999999999));
#279=DIRECTION('',(0.0,0.0,1.0));
#280=VECTOR('',#279,4.6);
#281=LINE('',#278,#280);
#282=EDGE_CURVE('',#268,#277,#281,.T.);
#283=ORIENTED_EDGE('',*,*,#282,.T.);
#284=CARTESIAN_POINT('',(1.905000000000001,2.816688E-016,1.02));
#285=DIRECTION('',(0.0,0.0,1.0));
#286=DIRECTION('',(1.0,0.0,0.0));
#287=AXIS2_PLACEMENT_3D('',#284,#285,#286);
#288=CIRCLE('',#287,0.43);
#289=EDGE_CURVE('',#260,#277,#288,.T.);
#290=ORIENTED_EDGE('',*,*,#289,.F.);
#291=EDGE_LOOP('',(#266,#275,#283,#290));
#292=FACE_OUTER_BOUND('',#291,.T.);
#293=ADVANCED_FACE('',(#292),#256,.T.);
#294=CARTESIAN_POINT('',(1.905000000000001,0.0,-1.28));
#295=DIRECTION('',(0.0,-1.224647E-016,-1.0));
#296=DIRECTION('',(1.0,0.0,0.0));
#297=AXIS2_PLACEMENT_3D('',#294,#295,#296);
#298=CYLINDRICAL_SURFACE('',#297,0.43);
#299=ORIENTED_EDGE('',*,*,#265,.T.);
#300=CARTESIAN_POINT('',(1.905000000000001,2.816688E-016,1.02));
#301=DIRECTION('',(0.0,0.0,1.0));
#302=DIRECTION('',(1.0,0.0,0.0));
#303=AXIS2_PLACEMENT_3D('',#300,#301,#302);
#304=CIRCLE('',#303,0.43);
#305=EDGE_CURVE('',#277,#260,#304,.T.);
#306=ORIENTED_EDGE('',*,*,#305,.F.);
#307=ORIENTED_EDGE('',*,*,#282,.F.);
#308=CARTESIAN_POINT('',(1.905000000000001,-2.816688E-016,-3.579999999999999));
#309=DIRECTION('',(0.0,0.0,-1.0));
#310=DIRECTION('',(1.0,0.0,0.0));
#311=AXIS2_PLACEMENT_3D('',#308,#309,#310);
#312=CIRCLE('',#311,0.43);
#313=EDGE_CURVE('',#258,#268,#312,.T.);
#314=ORIENTED_EDGE('',*,*,#313,.F.);
#315=EDGE_LOOP('',(#299,#306,#307,#314));
#316=FACE_OUTER_BOUND('',#315,.T.);
#317=ADVANCED_FACE('',(#316),#298,.T.);
#318=CARTESIAN_POINT('',(1.905000000000001,2.816688E-016,1.02));
#319=DIRECTION('',(0.0,0.0,1.0));
#320=DIRECTION('',(-1.0,0.0,0.0));
#321=AXIS2_PLACEMENT_3D('',#318,#319,#320);
#322=PLANE('',#321);
#323=ORIENTED_EDGE('',*,*,#289,.T.);
#324=ORIENTED_EDGE('',*,*,#305,.T.);
#325=EDGE_LOOP('',(#323,#324));
#326=FACE_OUTER_BOUND('',#325,.T.);
#327=ADVANCED_FACE('',(#326),#322,.T.);
#328=CARTESIAN_POINT('',(1.905000000000001,-2.816688E-016,-3.579999999999999));
#329=DIRECTION('',(0.0,0.0,-1.0));
#330=DIRECTION('',(1.0,0.0,0.0));
#331=AXIS2_PLACEMENT_3D('',#328,#329,#330);
#332=PLANE('',#331);
#333=ORIENTED_EDGE('',*,*,#313,.T.);
#334=ORIENTED_EDGE('',*,*,#274,.T.);
#335=EDGE_LOOP('',(#333,#334));
#336=FACE_OUTER_BOUND('',#335,.T.);
#337=ADVANCED_FACE('',(#336),#332,.T.);
#338=CLOSED_SHELL('',(#293,#317,#327,#337));
#339=MANIFOLD_SOLID_BREP('2C07',#338);
#340=STYLED_ITEM('NONE',(#159),#339);
#341=CARTESIAN_POINT('',(-5.714999999999999,0.0,-1.28));
#342=DIRECTION('',(0.0,-1.224647E-016,-1.0));
#343=DIRECTION('',(1.0,0.0,0.0));
#344=AXIS2_PLACEMENT_3D('',#341,#342,#343);
#345=CYLINDRICAL_SURFACE('',#344,0.43);
#346=CARTESIAN_POINT('',(-5.284999999999999,-2.816688E-016,-3.579999999999999));
#347=VERTEX_POINT('',#346);
#348=CARTESIAN_POINT('',(-5.284999999999999,2.816688E-016,1.02));
#349=VERTEX_POINT('',#348);
#350=CARTESIAN_POINT('',(-5.284999999999999,-2.816688E-016,-3.579999999999999));
#351=DIRECTION('',(0.0,0.0,1.0));
#352=VECTOR('',#351,4.6);
#353=LINE('',#350,#352);
#354=EDGE_CURVE('',#347,#349,#353,.T.);
#355=ORIENTED_EDGE('',*,*,#354,.F.);
#356=CARTESIAN_POINT('',(-6.144999999999999,-2.290090E-016,-3.579999999999999));
#357=VERTEX_POINT('',#356);
#358=CARTESIAN_POINT('',(-5.714999999999999,-2.816688E-016,-3.579999999999999));
#359=DIRECTION('',(0.0,0.0,-1.0));
#360=DIRECTION('',(1.0,0.0,0.0));
#361=AXIS2_PLACEMENT_3D('',#358,#359,#360);
#362=CIRCLE('',#361,0.43);
#363=EDGE_CURVE('',#357,#347,#362,.T.);
#364=ORIENTED_EDGE('',*,*,#363,.F.);
#365=CARTESIAN_POINT('',(-6.144999999999999,3.343286E-016,1.02));
#366=VERTEX_POINT('',#365);
#367=CARTESIAN_POINT('',(-6.144999999999999,-2.290090E-016,-3.579999999999999));
#368=DIRECTION('',(0.0,0.0,1.0));
#369=VECTOR('',#368,4.6);
#370=LINE('',#367,#369);
#371=EDGE_CURVE('',#357,#366,#370,.T.);
#372=ORIENTED_EDGE('',*,*,#371,.T.);
#373=CARTESIAN_POINT('',(-5.714999999999999,2.816688E-016,1.02));
#374=DIRECTION('',(0.0,0.0,1.0));
#375=DIRECTION('',(1.0,0.0,0.0));
#376=AXIS2_PLACEMENT_3D('',#373,#374,#375);
#377=CIRCLE('',#376,0.43);
#378=EDGE_CURVE('',#349,#366,#377,.T.);
#379=ORIENTED_EDGE('',*,*,#378,.F.);
#380=EDGE_LOOP('',(#355,#364,#372,#379));
#381=FACE_OUTER_BOUND('',#380,.T.);
#382=ADVANCED_FACE('',(#381),#345,.T.);
#383=CARTESIAN_POINT('',(-5.714999999999999,0.0,-1.28));
#384=DIRECTION('',(0.0,-1.224647E-016,-1.0));
#385=DIRECTION('',(1.0,0.0,0.0));
#386=AXIS2_PLACEMENT_3D('',#383,#384,#385);
#387=CYLINDRICAL_SURFACE('',#386,0.43);
#388=ORIENTED_EDGE('',*,*,#354,.T.);
#389=CARTESIAN_POINT('',(-5.714999999999999,2.816688E-016,1.02));
#390=DIRECTION('',(0.0,0.0,1.0));
#391=DIRECTION('',(1.0,0.0,0.0));
#392=AXIS2_PLACEMENT_3D('',#389,#390,#391);
#393=CIRCLE('',#392,0.43);
#394=EDGE_CURVE('',#366,#349,#393,.T.);
#395=ORIENTED_EDGE('',*,*,#394,.F.);
#396=ORIENTED_EDGE('',*,*,#371,.F.);
#397=CARTESIAN_POINT('',(-5.714999999999999,-2.816688E-016,-3.579999999999999));
#398=DIRECTION('',(0.0,0.0,-1.0));
#399=DIRECTION('',(1.0,0.0,0.0));
#400=AXIS2_PLACEMENT_3D('',#397,#398,#399);
#401=CIRCLE('',#400,0.43);
#402=EDGE_CURVE('',#347,#357,#401,.T.);
#403=ORIENTED_EDGE('',*,*,#402,.F.);
#404=EDGE_LOOP('',(#388,#395,#396,#403));
#405=FACE_OUTER_BOUND('',#404,.T.);
#406=ADVANCED_FACE('',(#405),#387,.T.);
#407=CARTESIAN_POINT('',(-5.714999999999999,2.816688E-016,1.02));
#408=DIRECTION('',(0.0,0.0,1.0));
#409=DIRECTION('',(-1.0,0.0,0.0));
#410=AXIS2_PLACEMENT_3D('',#407,#408,#409);
#411=PLANE('',#410);
#412=ORIENTED_EDGE('',*,*,#378,.T.);
#413=ORIENTED_EDGE('',*,*,#394,.T.);
#414=EDGE_LOOP('',(#412,#413));
#415=FACE_OUTER_BOUND('',#414,.T.);
#416=ADVANCED_FACE('',(#415),#411,.T.);
#417=CARTESIAN_POINT('',(-5.714999999999999,-2.816688E-016,-3.579999999999999));
#418=DIRECTION('',(0.0,0.0,-1.0));
#419=DIRECTION('',(1.0,0.0,0.0));
#420=AXIS2_PLACEMENT_3D('',#417,#418,#419);
#421=PLANE('',#420);
#422=ORIENTED_EDGE('',*,*,#402,.T.);
#423=ORIENTED_EDGE('',*,*,#363,.T.);
#424=EDGE_LOOP('',(#422,#423));
#425=FACE_OUTER_BOUND('',#424,.T.);
#426=ADVANCED_FACE('',(#425),#421,.T.);
#427=CLOSED_SHELL('',(#382,#406,#416,#426));
#428=MANIFOLD_SOLID_BREP('2BFB',#427);
#429=STYLED_ITEM('NONE',(#159),#428);
#430=CARTESIAN_POINT('',(-7.119999999999999,-1.269999999999999,1.52));
#431=DIRECTION('',(3.496765E-016,1.0,3.287698E-049));
#432=DIRECTION('',(-0.707106781186548,0.0,-0.707106781186548));
#433=AXIS2_PLACEMENT_3D('',#430,#431,#432);
#434=CYLINDRICAL_SURFACE('',#433,0.5);
#435=CARTESIAN_POINT('',(-7.619999999999998,2.54,1.52));
#436=VERTEX_POINT('',#435);
#437=CARTESIAN_POINT('',(-7.119999999999997,2.54,1.02));
#438=VERTEX_POINT('',#437);
#439=CARTESIAN_POINT('',(-7.119999999999998,2.54,1.52));
#440=DIRECTION('',(0.0,-1.0,0.0));
#441=DIRECTION('',(-0.707106781186548,0.0,-0.707106781186548));
#442=AXIS2_PLACEMENT_3D('',#439,#440,#441);
#443=CIRCLE('',#442,0.5);
#444=EDGE_CURVE('',#436,#438,#443,.T.);
#445=ORIENTED_EDGE('',*,*,#444,.T.);
#446=CARTESIAN_POINT('',(-7.119999999999998,-2.54,1.02));
#447=VERTEX_POINT('',#446);
#448=CARTESIAN_POINT('',(-7.119999999999998,2.54,1.02));
#449=DIRECTION('',(0.0,-1.0,0.0));
#450=VECTOR('',#449,5.08);
#451=LINE('',#448,#450);
#452=EDGE_CURVE('',#438,#447,#451,.T.);
#453=ORIENTED_EDGE('',*,*,#452,.T.);
#454=CARTESIAN_POINT('',(-7.62,-2.54,1.52));
#455=VERTEX_POINT('',#454);
#456=CARTESIAN_POINT('',(-7.119999999999999,-2.539999999999995,1.52));
#457=DIRECTION('',(0.0,1.0,0.0));
#458=DIRECTION('',(-0.707106781186548,0.0,-0.707106781186548));
#459=AXIS2_PLACEMENT_3D('',#456,#457,#458);
#460=CIRCLE('',#459,0.5);
#461=EDGE_CURVE('',#447,#455,#460,.T.);
#462=ORIENTED_EDGE('',*,*,#461,.T.);
#463=CARTESIAN_POINT('',(-7.62,-2.54,1.52));
#464=DIRECTION('',(0.0,1.0,0.0));
#465=VECTOR('',#464,5.08);
#466=LINE('',#463,#465);
#467=EDGE_CURVE('',#455,#436,#466,.T.);
#468=ORIENTED_EDGE('',*,*,#467,.T.);
#469=EDGE_LOOP('',(#445,#453,#462,#468));
#470=FACE_OUTER_BOUND('',#469,.T.);
#471=ADVANCED_FACE('',(#470),#434,.T.);
#472=CARTESIAN_POINT('',(7.62,-2.54,1.02));
#473=DIRECTION('',(0.0,-1.0,0.0));
#474=DIRECTION('',(0.0,0.0,-1.0));
#475=AXIS2_PLACEMENT_3D('',#472,#473,#474);
#476=PLANE('',#475);
#477=ORIENTED_EDGE('',*,*,#461,.F.);
#478=CARTESIAN_POINT('',(7.12,-2.54,1.02));
#479=VERTEX_POINT('',#478);
#480=CARTESIAN_POINT('',(7.12,-2.54,1.02));
#481=DIRECTION('',(-1.0,0.0,0.0));
#482=VECTOR('',#481,14.239999999999998);
#483=LINE('',#480,#482);
#484=EDGE_CURVE('',#479,#447,#483,.T.);
#485=ORIENTED_EDGE('',*,*,#484,.F.);
#486=CARTESIAN_POINT('',(7.62,-2.54,1.52));
#487=VERTEX_POINT('',#486);
#488=CARTESIAN_POINT('',(7.12,-2.54,1.52));
#489=DIRECTION('',(0.0,1.0,0.0));
#490=DIRECTION('',(0.707106781186548,0.0,-0.707106781186548));
#491=AXIS2_PLACEMENT_3D('',#488,#489,#490);
#492=CIRCLE('',#491,0.5);
#493=EDGE_CURVE('',#487,#479,#492,.T.);
#494=ORIENTED_EDGE('',*,*,#493,.F.);
#495=CARTESIAN_POINT('',(7.62,-2.54,12.199999999999999));
#496=VERTEX_POINT('',#495);
#497=CARTESIAN_POINT('',(7.62,-2.54,1.52));
#498=DIRECTION('',(0.0,0.0,1.0));
#499=VECTOR('',#498,10.68);
#500=LINE('',#497,#499);
#501=EDGE_CURVE('',#487,#496,#500,.T.);
#502=ORIENTED_EDGE('',*,*,#501,.T.);
#503=CARTESIAN_POINT('',(7.12,-2.54,12.699999999999999));
#504=VERTEX_POINT('',#503);
#505=CARTESIAN_POINT('',(7.12,-2.54,12.199999999999999));
#506=DIRECTION('',(0.0,1.0,0.0));
#507=DIRECTION('',(0.707106781186548,0.0,0.707106781186548));
#508=AXIS2_PLACEMENT_3D('',#505,#506,#507);
#509=CIRCLE('',#508,0.5);
#510=EDGE_CURVE('',#504,#496,#509,.T.);
#511=ORIENTED_EDGE('',*,*,#510,.F.);
#512=CARTESIAN_POINT('',(-4.212893218813453,-2.54,12.699999999999999));
#513=VERTEX_POINT('',#512);
#514=CARTESIAN_POINT('',(7.12,-2.54,12.699999999999999));
#515=DIRECTION('',(-1.0,0.0,0.0));
#516=VECTOR('',#515,11.332893218813453);
#517=LINE('',#514,#516);
#518=EDGE_CURVE('',#504,#513,#517,.T.);
#519=ORIENTED_EDGE('',*,*,#518,.T.);
#520=CARTESIAN_POINT('',(-4.566446609406726,-2.54,12.553553390593271));
#521=VERTEX_POINT('',#520);
#522=CARTESIAN_POINT('',(-4.212893218813455,-2.539999999999996,12.199999999999999));
#523=DIRECTION('',(0.0,1.0,0.0));
#524=DIRECTION('',(-0.382683432365089,0.0,0.923879532511287));
#525=AXIS2_PLACEMENT_3D('',#522,#523,#524);
#526=CIRCLE('',#525,0.5);
#527=EDGE_CURVE('',#521,#513,#526,.T.);
#528=ORIENTED_EDGE('',*,*,#527,.F.);
#529=CARTESIAN_POINT('',(-7.473553390593273,-2.54,9.646446609406723));
#530=VERTEX_POINT('',#529);
#531=CARTESIAN_POINT('',(-7.473553390593274,-2.54,9.646446609406723));
#532=DIRECTION('',(0.707106781186548,0.0,0.707106781186547));
#533=VECTOR('',#532,4.111269837220809);
#534=LINE('',#531,#533);
#535=EDGE_CURVE('',#530,#521,#534,.T.);
#536=ORIENTED_EDGE('',*,*,#535,.F.);
#537=CARTESIAN_POINT('',(-7.62,-2.54,9.29289321881345));
#538=VERTEX_POINT('',#537);
#539=CARTESIAN_POINT('',(-7.12,-2.539999999999995,9.29289321881345));
#540=DIRECTION('',(4.440892E-016,1.0,-1.839478E-016));
#541=DIRECTION('',(-0.923879532511286,4.806787E-016,0.382683432365092));
#542=AXIS2_PLACEMENT_3D('',#539,#540,#541);
#543=CIRCLE('',#542,0.5);
#544=EDGE_CURVE('',#538,#530,#543,.T.);
#545=ORIENTED_EDGE('',*,*,#544,.F.);
#546=CARTESIAN_POINT('',(-7.62,-2.54,1.52));
#547=DIRECTION('',(0.0,0.0,1.0));
#548=VECTOR('',#547,7.772893218813451);
#549=LINE('',#546,#548);
#550=EDGE_CURVE('',#455,#538,#549,.T.);
#551=ORIENTED_EDGE('',*,*,#550,.F.);
#552=EDGE_LOOP('',(#477,#485,#494,#502,#511,#519,#528,#536,#545,#551));
#553=FACE_OUTER_BOUND('',#552,.T.);
#554=ADVANCED_FACE('',(#553),#476,.T.);
#555=CARTESIAN_POINT('',(5.551115E-016,-2.220446E-016,1.02));
#556=DIRECTION('',(0.0,0.0,1.0));
#557=DIRECTION('',(1.0,0.0,0.0));
#558=AXIS2_PLACEMENT_3D('',#555,#556,#557);
#559=PLANE('',#558);
#560=ORIENTED_EDGE('',*,*,#452,.F.);
#561=CARTESIAN_POINT('',(7.12,2.54,1.02));
#562=VERTEX_POINT('',#561);
#563=CARTESIAN_POINT('',(-7.119999999999997,2.54,1.02));
#564=DIRECTION('',(1.0,0.0,0.0));
#565=VECTOR('',#564,14.239999999999998);
#566=LINE('',#563,#565);
#567=EDGE_CURVE('',#438,#562,#566,.T.);
#568=ORIENTED_EDGE('',*,*,#567,.T.);
#569=CARTESIAN_POINT('',(7.12,-2.54,1.02));
#570=DIRECTION('',(0.0,1.0,0.0));
#571=VECTOR('',#570,5.08);
#572=LINE('',#569,#571);
#573=EDGE_CURVE('',#479,#562,#572,.T.);
#574=ORIENTED_EDGE('',*,*,#573,.F.);
#575=ORIENTED_EDGE('',*,*,#484,.T.);
#576=EDGE_LOOP('',(#560,#568,#574,#575));
#577=FACE_OUTER_BOUND('',#576,.T.);
#578=ADVANCED_FACE('',(#577),#559,.F.);
#579=CARTESIAN_POINT('',(7.12,1.27,1.52));
#580=DIRECTION('',(0.0,-1.0,2.916565E-049));
#581=DIRECTION('',(0.707106781186548,0.0,-0.707106781186548));
#582=AXIS2_PLACEMENT_3D('',#579,#580,#581);
#583=CYLINDRICAL_SURFACE('',#582,0.5);
#584=ORIENTED_EDGE('',*,*,#493,.T.);
#585=ORIENTED_EDGE('',*,*,#573,.T.);
#586=CARTESIAN_POINT('',(7.62,2.54,1.52));
#587=VERTEX_POINT('',#586);
#588=CARTESIAN_POINT('',(7.12,2.54,1.52));
#589=DIRECTION('',(0.0,-1.0,0.0));
#590=DIRECTION('',(0.707106781186548,0.0,-0.707106781186548));
#591=AXIS2_PLACEMENT_3D('',#588,#589,#590);
#592=CIRCLE('',#591,0.5);
#593=EDGE_CURVE('',#562,#587,#592,.T.);
#594=ORIENTED_EDGE('',*,*,#593,.T.);
#595=CARTESIAN_POINT('',(7.62,2.54,1.52));
#596=DIRECTION('',(0.0,-1.0,0.0));
#597=VECTOR('',#596,5.08);
#598=LINE('',#595,#597);
#599=EDGE_CURVE('',#587,#487,#598,.T.);
#600=ORIENTED_EDGE('',*,*,#599,.T.);
#601=EDGE_LOOP('',(#584,#585,#594,#600));
#602=FACE_OUTER_BOUND('',#601,.T.);
#603=ADVANCED_FACE('',(#602),#583,.T.);
#604=CARTESIAN_POINT('',(7.12,1.27,12.199999999999999));
#605=DIRECTION('',(0.0,-1.0,-1.822853E-049));
#606=DIRECTION('',(0.707106781186548,0.0,0.707106781186548));
#607=AXIS2_PLACEMENT_3D('',#604,#605,#606);
#608=CYLINDRICAL_SURFACE('',#607,0.5);
#609=ORIENTED_EDGE('',*,*,#510,.T.);
#610=CARTESIAN_POINT('',(7.62,2.54,12.199999999999999));
#611=VERTEX_POINT('',#610);
#612=CARTESIAN_POINT('',(7.62,-2.54,12.199999999999999));
#613=DIRECTION('',(0.0,1.0,0.0));
#614=VECTOR('',#613,5.08);
#615=LINE('',#612,#614);
#616=EDGE_CURVE('',#496,#611,#615,.T.);
#617=ORIENTED_EDGE('',*,*,#616,.T.);
#618=CARTESIAN_POINT('',(7.12,2.54,12.699999999999999));
#619=VERTEX_POINT('',#618);
#620=CARTESIAN_POINT('',(7.12,2.54,12.199999999999999));
#621=DIRECTION('',(0.0,-1.0,0.0));
#622=DIRECTION('',(0.707106781186548,0.0,0.707106781186548));
#623=AXIS2_PLACEMENT_3D('',#620,#621,#622);
#624=CIRCLE('',#623,0.5);
#625=EDGE_CURVE('',#611,#619,#624,.T.);
#626=ORIENTED_EDGE('',*,*,#625,.T.);
#627=CARTESIAN_POINT('',(7.12,2.54,12.699999999999999));
#628=DIRECTION('',(0.0,-1.0,0.0));
#629=VECTOR('',#628,5.08);
#630=LINE('',#627,#629);
#631=EDGE_CURVE('',#619,#504,#630,.T.);
#632=ORIENTED_EDGE('',*,*,#631,.T.);
#633=EDGE_LOOP('',(#609,#617,#626,#632));
#634=FACE_OUTER_BOUND('',#633,.T.);
#635=ADVANCED_FACE('',(#634),#608,.T.);
#636=CARTESIAN_POINT('',(5.551115E-016,-2.220446E-016,12.699999999999999));
#637=DIRECTION('',(0.0,0.0,1.0));
#638=DIRECTION('',(1.0,0.0,0.0));
#639=AXIS2_PLACEMENT_3D('',#636,#637,#638);
#640=PLANE('',#639);
#641=ORIENTED_EDGE('',*,*,#631,.F.);
#642=CARTESIAN_POINT('',(-4.212893218813453,2.54,12.699999999999999));
#643=VERTEX_POINT('',#642);
#644=CARTESIAN_POINT('',(-4.212893218813453,2.54,12.699999999999999));
#645=DIRECTION('',(1.0,0.0,0.0));
#646=VECTOR('',#645,11.332893218813453);
#647=LINE('',#644,#646);
#648=EDGE_CURVE('',#643,#619,#647,.T.);
#649=ORIENTED_EDGE('',*,*,#648,.F.);
#650=CARTESIAN_POINT('',(-4.212893218813455,-2.54,12.699999999999999));
#651=DIRECTION('',(0.0,1.0,0.0));
#652=VECTOR('',#651,5.08);
#653=LINE('',#650,#652);
#654=EDGE_CURVE('',#513,#643,#653,.T.);
#655=ORIENTED_EDGE('',*,*,#654,.F.);
#656=ORIENTED_EDGE('',*,*,#518,.F.);
#657=EDGE_LOOP('',(#641,#649,#655,#656));
#658=FACE_OUTER_BOUND('',#657,.T.);
#659=ADVANCED_FACE('',(#658),#640,.T.);
#660=CARTESIAN_POINT('',(-7.619999999999998,2.54,1.02));
#661=DIRECTION('',(0.0,1.0,0.0));
#662=DIRECTION('',(0.0,0.0,1.0));
#663=AXIS2_PLACEMENT_3D('',#660,#661,#662);
#664=PLANE('',#663);
#665=ORIENTED_EDGE('',*,*,#444,.F.);
#666=CARTESIAN_POINT('',(-7.619999999999998,2.54,9.29289321881345));
#667=VERTEX_POINT('',#666);
#668=CARTESIAN_POINT('',(-7.619999999999998,2.54,1.52));
#669=DIRECTION('',(0.0,0.0,1.0));
#670=VECTOR('',#669,7.772893218813451);
#671=LINE('',#668,#670);
#672=EDGE_CURVE('',#436,#667,#671,.T.);
#673=ORIENTED_EDGE('',*,*,#672,.T.);
#674=CARTESIAN_POINT('',(-7.473553390593272,2.54,9.646446609406725));
#675=VERTEX_POINT('',#674);
#676=CARTESIAN_POINT('',(-7.119999999999998,2.54,9.29289321881345));
#677=DIRECTION('',(-4.440892E-016,-1.0,1.839478E-016));
#678=DIRECTION('',(-0.923879532511286,4.806787E-016,0.382683432365092));
#679=AXIS2_PLACEMENT_3D('',#676,#677,#678);
#680=CIRCLE('',#679,0.5);
#681=EDGE_CURVE('',#675,#667,#680,.T.);
#682=ORIENTED_EDGE('',*,*,#681,.F.);
#683=CARTESIAN_POINT('',(-4.566446609406726,2.54,12.553553390593272));
#684=VERTEX_POINT('',#683);
#685=CARTESIAN_POINT('',(-4.566446609406724,2.54,12.553553390593272));
#686=DIRECTION('',(-0.707106781186548,0.0,-0.707106781186547));
#687=VECTOR('',#686,4.111269837220809);
#688=LINE('',#685,#687);
#689=EDGE_CURVE('',#684,#675,#688,.T.);
#690=ORIENTED_EDGE('',*,*,#689,.F.);
#691=CARTESIAN_POINT('',(-4.212893218813453,2.539999999999999,12.199999999999999));
#692=DIRECTION('',(0.0,-1.0,0.0));
#693=DIRECTION('',(-0.382683432365089,0.0,0.923879532511287));
#694=AXIS2_PLACEMENT_3D('',#691,#692,#693);
#695=CIRCLE('',#694,0.5);
#696=EDGE_CURVE('',#643,#684,#695,.T.);
#697=ORIENTED_EDGE('',*,*,#696,.F.);
#698=ORIENTED_EDGE('',*,*,#648,.T.);
#699=ORIENTED_EDGE('',*,*,#625,.F.);
#700=CARTESIAN_POINT('',(7.62,2.54,1.52));
#701=DIRECTION('',(0.0,0.0,1.0));
#702=VECTOR('',#701,10.68);
#703=LINE('',#700,#702);
#704=EDGE_CURVE('',#587,#611,#703,.T.);
#705=ORIENTED_EDGE('',*,*,#704,.F.);
#706=ORIENTED_EDGE('',*,*,#593,.F.);
#707=ORIENTED_EDGE('',*,*,#567,.F.);
#708=EDGE_LOOP('',(#665,#673,#682,#690,#697,#698,#699,#705,#706,#707));
#709=FACE_OUTER_BOUND('',#708,.T.);
#710=ADVANCED_FACE('',(#709),#664,.T.);
#711=CARTESIAN_POINT('',(-4.212893218813454,-0.635,12.199999999999999));
#712=DIRECTION('',(3.496765E-016,1.0,-2.608764E-049));
#713=DIRECTION('',(-0.382683432365089,0.0,0.923879532511287));
#714=AXIS2_PLACEMENT_3D('',#711,#712,#713);
#715=CYLINDRICAL_SURFACE('',#714,0.5);
#716=ORIENTED_EDGE('',*,*,#696,.T.);
#717=CARTESIAN_POINT('',(-4.566446609406726,2.54,12.553553390593272));
#718=DIRECTION('',(0.0,-1.0,0.0));
#719=VECTOR('',#718,5.08);
#720=LINE('',#717,#719);
#721=EDGE_CURVE('',#684,#521,#720,.T.);
#722=ORIENTED_EDGE('',*,*,#721,.T.);
#723=ORIENTED_EDGE('',*,*,#527,.T.);
#724=ORIENTED_EDGE('',*,*,#654,.T.);
#725=EDGE_LOOP('',(#716,#722,#723,#724));
#726=FACE_OUTER_BOUND('',#725,.T.);
#727=ADVANCED_FACE('',(#726),#715,.T.);
#728=CARTESIAN_POINT('',(-6.02,-1.27,11.1));
#729=DIRECTION('',(-0.707106781186548,2.472587E-016,0.707106781186548));
#730=DIRECTION('',(0.707106781186548,0.0,0.707106781186548));
#731=AXIS2_PLACEMENT_3D('',#728,#729,#730);
#732=PLANE('',#731);
#733=ORIENTED_EDGE('',*,*,#721,.F.);
#734=ORIENTED_EDGE('',*,*,#689,.T.);
#735=CARTESIAN_POINT('',(-7.473553390593274,-2.54,9.646446609406725));
#736=DIRECTION('',(0.0,1.0,0.0));
#737=VECTOR('',#736,5.08);
#738=LINE('',#735,#737);
#739=EDGE_CURVE('',#530,#675,#738,.T.);
#740=ORIENTED_EDGE('',*,*,#739,.F.);
#741=ORIENTED_EDGE('',*,*,#535,.T.);
#742=EDGE_LOOP('',(#733,#734,#740,#741));
#743=FACE_OUTER_BOUND('',#742,.T.);
#744=ADVANCED_FACE('',(#743),#732,.T.);
#745=CARTESIAN_POINT('',(-7.12,-1.905,9.29289321881345));
#746=DIRECTION('',(-3.496765E-016,-1.0,0.0));
#747=DIRECTION('',(-0.923879532511286,4.806787E-016,0.382683432365092));
#748=AXIS2_PLACEMENT_3D('',#745,#746,#747);
#749=CYLINDRICAL_SURFACE('',#748,0.5);
#750=ORIENTED_EDGE('',*,*,#544,.T.);
#751=ORIENTED_EDGE('',*,*,#739,.T.);
#752=ORIENTED_EDGE('',*,*,#681,.T.);
#753=CARTESIAN_POINT('',(-7.619999999999998,2.54,9.29289321881345));
#754=DIRECTION('',(0.0,-1.0,0.0));
#755=VECTOR('',#754,5.08);
#756=LINE('',#753,#755);
#757=EDGE_CURVE('',#667,#538,#756,.T.);
#758=ORIENTED_EDGE('',*,*,#757,.T.);
#759=EDGE_LOOP('',(#750,#751,#752,#758));
#760=FACE_OUTER_BOUND('',#759,.T.);
#761=ADVANCED_FACE('',(#760),#749,.T.);
#762=CARTESIAN_POINT('',(7.62,2.54,1.02));
#763=DIRECTION('',(1.0,0.0,0.0));
#764=DIRECTION('',(0.0,0.0,-1.0));
#765=AXIS2_PLACEMENT_3D('',#762,#763,#764);
#766=PLANE('',#765);
#767=ORIENTED_EDGE('',*,*,#599,.F.);
#768=ORIENTED_EDGE('',*,*,#704,.T.);
#769=ORIENTED_EDGE('',*,*,#616,.F.);
#770=ORIENTED_EDGE('',*,*,#501,.F.);
#771=EDGE_LOOP('',(#767,#768,#769,#770));
#772=FACE_OUTER_BOUND('',#771,.T.);
#773=ADVANCED_FACE('',(#772),#766,.T.);
#774=CARTESIAN_POINT('',(-7.62,-2.54,1.02));
#775=DIRECTION('',(-1.0,0.0,0.0));
#776=DIRECTION('',(0.0,0.0,1.0));
#777=AXIS2_PLACEMENT_3D('',#774,#775,#776);
#778=PLANE('',#777);
#779=ORIENTED_EDGE('',*,*,#467,.F.);
#780=ORIENTED_EDGE('',*,*,#550,.T.);
#781=ORIENTED_EDGE('',*,*,#757,.F.);
#782=ORIENTED_EDGE('',*,*,#672,.F.);
#783=EDGE_LOOP('',(#779,#780,#781,#782));
#784=FACE_OUTER_BOUND('',#783,.T.);
#785=ADVANCED_FACE('',(#784),#778,.T.);
#786=CLOSED_SHELL('',(#471,#554,#578,#603,#635,#659,#710,#727,#744,#761,#773,#785));
#787=MANIFOLD_SOLID_BREP('2BF4',#786);
#788=COLOUR_RGB('250',0.33,0.33,0.33);
#789=SURFACE_STYLE_USAGE(.BOTH.,#790);
#790=SURFACE_SIDE_STYLE('NONE',(#791));
#791=SURFACE_STYLE_FILL_AREA(#792);
#792=FILL_AREA_STYLE('NONE',(#793));
#793=FILL_AREA_STYLE_COLOUR('NONE',#788);
#794=PRESENTATION_STYLE_ASSIGNMENT((#789));
#795=STYLED_ITEM('NONE',(#794),#787);
#796=CARTESIAN_POINT('',(4.57,-2.540000000000001,1.02));
#797=DIRECTION('',(0.0,0.0,1.0));
#798=DIRECTION('',(1.0,0.0,0.0));
#799=AXIS2_PLACEMENT_3D('',#796,#797,#798);
#800=PLANE('',#799);
#801=CARTESIAN_POINT('',(4.57,2.54,1.02));
#802=VERTEX_POINT('',#801);
#803=CARTESIAN_POINT('',(3.050000000000001,2.54,1.02));
#804=VERTEX_POINT('',#803);
#805=CARTESIAN_POINT('',(4.57,2.54,1.02));
#806=DIRECTION('',(-1.0,0.0,0.0));
#807=VECTOR('',#806,1.52);
#808=LINE('',#805,#807);
#809=EDGE_CURVE('',#802,#804,#808,.T.);
#810=ORIENTED_EDGE('',*,*,#809,.T.);
#811=CARTESIAN_POINT('',(3.050000000000001,-2.540000000000001,1.02));
#812=VERTEX_POINT('',#811);
#813=CARTESIAN_POINT('',(3.050000000000001,-2.540000000000001,1.02));
#814=DIRECTION('',(0.0,1.0,0.0));
#815=VECTOR('',#814,5.08);
#816=LINE('',#813,#815);
#817=EDGE_CURVE('',#812,#804,#816,.T.);
#818=ORIENTED_EDGE('',*,*,#817,.F.);
#819=CARTESIAN_POINT('',(4.57,-2.540000000000001,1.02));
#820=VERTEX_POINT('',#819);
#821=CARTESIAN_POINT('',(3.050000000000001,-2.540000000000001,1.02));
#822=DIRECTION('',(1.0,0.0,0.0));
#823=VECTOR('',#822,1.52);
#824=LINE('',#821,#823);
#825=EDGE_CURVE('',#812,#820,#824,.T.);
#826=ORIENTED_EDGE('',*,*,#825,.T.);
#827=CARTESIAN_POINT('',(4.57,-2.540000000000001,1.02));
#828=DIRECTION('',(0.0,1.0,0.0));
#829=VECTOR('',#828,5.08);
#830=LINE('',#827,#829);
#831=EDGE_CURVE('',#820,#802,#830,.T.);
#832=ORIENTED_EDGE('',*,*,#831,.T.);
#833=EDGE_LOOP('',(#810,#818,#826,#832));
#834=FACE_OUTER_BOUND('',#833,.T.);
#835=ADVANCED_FACE('',(#834),#800,.T.);
#836=CARTESIAN_POINT('',(3.050000000000001,-2.540000000000001,1.02));
#837=DIRECTION('',(-0.866931052700671,0.0,-0.498428078927449));
#838=DIRECTION('',(-0.498428078927449,0.0,0.866931052700671));
#839=AXIS2_PLACEMENT_3D('',#836,#837,#838);
#840=PLANE('',#839);
#841=CARTESIAN_POINT('',(3.550224427391736,2.54,0.149944504012522));
#842=VERTEX_POINT('',#841);
#843=CARTESIAN_POINT('',(3.050000000000001,2.539999999999999,1.02));
#844=DIRECTION('',(0.498428078927449,0.0,-0.866931052700671));
#845=VECTOR('',#844,1.003604027421875);
#846=LINE('',#843,#845);
#847=EDGE_CURVE('',#804,#842,#846,.T.);
#848=ORIENTED_EDGE('',*,*,#847,.T.);
#849=CARTESIAN_POINT('',(3.550224427391736,-2.540000000000001,0.149944504012522));
#850=VERTEX_POINT('',#849);
#851=CARTESIAN_POINT('',(3.550224427391736,-2.540000000000001,0.149944504012522));
#852=DIRECTION('',(0.0,1.0,0.0));
#853=VECTOR('',#852,5.080000000000001);
#854=LINE('',#851,#853);
#855=EDGE_CURVE('',#850,#842,#854,.T.);
#856=ORIENTED_EDGE('',*,*,#855,.F.);
#857=CARTESIAN_POINT('',(3.550224427391736,-2.540000000000001,0.149944504012522));
#858=DIRECTION('',(-0.498428078927449,0.0,0.866931052700671));
#859=VECTOR('',#858,1.003604027421874);
#860=LINE('',#857,#859);
#861=EDGE_CURVE('',#850,#812,#860,.T.);
#862=ORIENTED_EDGE('',*,*,#861,.T.);
#863=ORIENTED_EDGE('',*,*,#817,.T.);
#864=EDGE_LOOP('',(#848,#856,#862,#863));
#865=FACE_OUTER_BOUND('',#864,.T.);
#866=ADVANCED_FACE('',(#865),#840,.T.);
#867=CARTESIAN_POINT('',(3.810000000000001,-2.540000000000001,0.300000000000001));
#868=DIRECTION('',(0.0,1.0,0.0));
#869=DIRECTION('',(0.0,0.0,-1.0));
#870=AXIS2_PLACEMENT_3D('',#867,#868,#869);
#871=CYLINDRICAL_SURFACE('',#870,0.3);
#872=CARTESIAN_POINT('',(4.069775572608265,2.54,0.149944504012522));
#873=VERTEX_POINT('',#872);
#874=CARTESIAN_POINT('',(3.810000000000001,2.539999999999999,0.300000000000001));
#875=DIRECTION('',(0.0,-1.0,0.0));
#876=DIRECTION('',(0.0,0.0,-1.0));
#877=AXIS2_PLACEMENT_3D('',#874,#875,#876);
#878=CIRCLE('',#877,0.3);
#879=EDGE_CURVE('',#842,#873,#878,.T.);
#880=ORIENTED_EDGE('',*,*,#879,.T.);
#881=CARTESIAN_POINT('',(4.069775572608265,-2.540000000000001,0.149944504012522));
#882=VERTEX_POINT('',#881);
#883=CARTESIAN_POINT('',(4.069775572608265,-2.540000000000001,0.149944504012522));
#884=DIRECTION('',(0.0,1.0,0.0));
#885=VECTOR('',#884,5.080000000000001);
#886=LINE('',#883,#885);
#887=EDGE_CURVE('',#882,#873,#886,.T.);
#888=ORIENTED_EDGE('',*,*,#887,.F.);
#889=CARTESIAN_POINT('',(3.810000000000001,-2.540000000000001,0.300000000000001));
#890=DIRECTION('',(0.0,1.0,0.0));
#891=DIRECTION('',(0.0,0.0,-1.0));
#892=AXIS2_PLACEMENT_3D('',#889,#890,#891);
#893=CIRCLE('',#892,0.3);
#894=EDGE_CURVE('',#882,#850,#893,.T.);
#895=ORIENTED_EDGE('',*,*,#894,.T.);
#896=ORIENTED_EDGE('',*,*,#855,.T.);
#897=EDGE_LOOP('',(#880,#888,#895,#896));
#898=FACE_OUTER_BOUND('',#897,.T.);
#899=ADVANCED_FACE('',(#898),#871,.T.);
#900=CARTESIAN_POINT('',(4.069775572608265,-2.540000000000001,0.149944504012522));
#901=DIRECTION('',(0.866931052700671,0.0,-0.498428078927449));
#902=DIRECTION('',(-0.498428078927449,0.0,-0.866931052700671));
#903=AXIS2_PLACEMENT_3D('',#900,#901,#902);
#904=PLANE('',#903);
#905=CARTESIAN_POINT('',(4.069775572608265,2.54,0.149944504012522));
#906=DIRECTION('',(0.498428078927449,0.0,0.866931052700671));
#907=VECTOR('',#906,1.003604027421875);
#908=LINE('',#905,#907);
#909=EDGE_CURVE('',#873,#802,#908,.T.);
#910=ORIENTED_EDGE('',*,*,#909,.T.);
#911=ORIENTED_EDGE('',*,*,#831,.F.);
#912=CARTESIAN_POINT('',(4.57,-2.540000000000001,1.02));
#913=DIRECTION('',(-0.498428078927449,0.0,-0.866931052700671));
#914=VECTOR('',#913,1.003604027421874);
#915=LINE('',#912,#914);
#916=EDGE_CURVE('',#820,#882,#915,.T.);
#917=ORIENTED_EDGE('',*,*,#916,.T.);
#918=ORIENTED_EDGE('',*,*,#887,.T.);
#919=EDGE_LOOP('',(#910,#911,#917,#918));
#920=FACE_OUTER_BOUND('',#919,.T.);
#921=ADVANCED_FACE('',(#920),#904,.T.);
#922=CARTESIAN_POINT('',(3.81,-2.54,0.664983427150369));
#923=DIRECTION('',(0.0,1.0,0.0));
#924=DIRECTION('',(0.0,0.0,1.0));
#925=AXIS2_PLACEMENT_3D('',#922,#923,#924);
#926=PLANE('',#925);
#927=ORIENTED_EDGE('',*,*,#916,.F.);
#928=ORIENTED_EDGE('',*,*,#825,.F.);
#929=ORIENTED_EDGE('',*,*,#861,.F.);
#930=ORIENTED_EDGE('',*,*,#894,.F.);
#931=EDGE_LOOP('',(#927,#928,#929,#930));
#932=FACE_OUTER_BOUND('',#931,.T.);
#933=ADVANCED_FACE('',(#932),#926,.F.);
#934=CARTESIAN_POINT('',(3.81,2.54,0.664983427150369));
#935=DIRECTION('',(0.0,1.0,0.0));
#936=DIRECTION('',(0.0,0.0,1.0));
#937=AXIS2_PLACEMENT_3D('',#934,#935,#936);
#938=PLANE('',#937);
#939=ORIENTED_EDGE('',*,*,#809,.F.);
#940=ORIENTED_EDGE('',*,*,#909,.F.);
#941=ORIENTED_EDGE('',*,*,#879,.F.);
#942=ORIENTED_EDGE('',*,*,#847,.F.);
#943=EDGE_LOOP('',(#939,#940,#941,#942));
#944=FACE_OUTER_BOUND('',#943,.T.);
#945=ADVANCED_FACE('',(#944),#938,.T.);
#946=CLOSED_SHELL('',(#835,#866,#899,#921,#933,#945));
#947=MANIFOLD_SOLID_BREP('2BEF',#946);
#948=STYLED_ITEM('NONE',(#794),#947);
#949=CARTESIAN_POINT('',(-3.05,-2.540000000000001,1.02));
#950=DIRECTION('',(0.0,0.0,1.0));
#951=DIRECTION('',(1.0,0.0,0.0));
#952=AXIS2_PLACEMENT_3D('',#949,#950,#951);
#953=PLANE('',#952);
#954=CARTESIAN_POINT('',(-3.05,2.54,1.02));
#955=VERTEX_POINT('',#954);
#956=CARTESIAN_POINT('',(-4.569999999999999,2.54,1.02));
#957=VERTEX_POINT('',#956);
#958=CARTESIAN_POINT('',(-3.05,2.54,1.02));
#959=DIRECTION('',(-1.0,0.0,0.0));
#960=VECTOR('',#959,1.52);
#961=LINE('',#958,#960);
#962=EDGE_CURVE('',#955,#957,#961,.T.);
#963=ORIENTED_EDGE('',*,*,#962,.T.);
#964=CARTESIAN_POINT('',(-4.569999999999999,-2.540000000000001,1.02));
#965=VERTEX_POINT('',#964);
#966=CARTESIAN_POINT('',(-4.569999999999999,-2.540000000000001,1.02));
#967=DIRECTION('',(0.0,1.0,0.0));
#968=VECTOR('',#967,5.08);
#969=LINE('',#966,#968);
#970=EDGE_CURVE('',#965,#957,#969,.T.);
#971=ORIENTED_EDGE('',*,*,#970,.F.);
#972=CARTESIAN_POINT('',(-3.05,-2.540000000000001,1.02));
#973=VERTEX_POINT('',#972);
#974=CARTESIAN_POINT('',(-4.569999999999999,-2.540000000000001,1.02));
#975=DIRECTION('',(1.0,0.0,0.0));
#976=VECTOR('',#975,1.52);
#977=LINE('',#974,#976);
#978=EDGE_CURVE('',#965,#973,#977,.T.);
#979=ORIENTED_EDGE('',*,*,#978,.T.);
#980=CARTESIAN_POINT('',(-3.05,-2.540000000000001,1.02));
#981=DIRECTION('',(0.0,1.0,0.0));
#982=VECTOR('',#981,5.08);
#983=LINE('',#980,#982);
#984=EDGE_CURVE('',#973,#955,#983,.T.);
#985=ORIENTED_EDGE('',*,*,#984,.T.);
#986=EDGE_LOOP('',(#963,#971,#979,#985));
#987=FACE_OUTER_BOUND('',#986,.T.);
#988=ADVANCED_FACE('',(#987),#953,.T.);
#989=CARTESIAN_POINT('',(-4.569999999999999,-2.540000000000001,1.02));
#990=DIRECTION('',(-0.866931052700671,0.0,-0.498428078927449));
#991=DIRECTION('',(-0.498428078927449,0.0,0.866931052700671));
#992=AXIS2_PLACEMENT_3D('',#989,#990,#991);
#993=PLANE('',#992);
#994=CARTESIAN_POINT('',(-4.069775572608264,2.539999999999999,0.149944504012522));
#995=VERTEX_POINT('',#994);
#996=CARTESIAN_POINT('',(-4.569999999999999,2.539999999999999,1.02));
#997=DIRECTION('',(0.498428078927449,0.0,-0.866931052700671));
#998=VECTOR('',#997,1.003604027421875);
#999=LINE('',#996,#998);
#1000=EDGE_CURVE('',#957,#995,#999,.T.);
#1001=ORIENTED_EDGE('',*,*,#1000,.T.);
#1002=CARTESIAN_POINT('',(-4.069775572608264,-2.540000000000001,0.149944504012522));
#1003=VERTEX_POINT('',#1002);
#1004=CARTESIAN_POINT('',(-4.069775572608264,-2.540000000000001,0.149944504012522));
#1005=DIRECTION('',(0.0,1.0,0.0));
#1006=VECTOR('',#1005,5.08);
#1007=LINE('',#1004,#1006);
#1008=EDGE_CURVE('',#1003,#995,#1007,.T.);
#1009=ORIENTED_EDGE('',*,*,#1008,.F.);
#1010=CARTESIAN_POINT('',(-4.069775572608264,-2.540000000000001,0.149944504012522));
#1011=DIRECTION('',(-0.498428078927449,0.0,0.866931052700671));
#1012=VECTOR('',#1011,1.003604027421874);
#1013=LINE('',#1010,#1012);
#1014=EDGE_CURVE('',#1003,#965,#1013,.T.);
#1015=ORIENTED_EDGE('',*,*,#1014,.T.);
#1016=ORIENTED_EDGE('',*,*,#970,.T.);
#1017=EDGE_LOOP('',(#1001,#1009,#1015,#1016));
#1018=FACE_OUTER_BOUND('',#1017,.T.);
#1019=ADVANCED_FACE('',(#1018),#993,.T.);
#1020=CARTESIAN_POINT('',(-3.81,-2.540000000000001,0.300000000000001));
#1021=DIRECTION('',(0.0,1.0,0.0));
#1022=DIRECTION('',(0.0,0.0,-1.0));
#1023=AXIS2_PLACEMENT_3D('',#1020,#1021,#1022);
#1024=CYLINDRICAL_SURFACE('',#1023,0.3);
#1025=CARTESIAN_POINT('',(-3.550224427391735,2.539999999999999,0.149944504012522));
#1026=VERTEX_POINT('',#1025);
#1027=CARTESIAN_POINT('',(-3.81,2.539999999999999,0.300000000000001));
#1028=DIRECTION('',(0.0,-1.0,0.0));
#1029=DIRECTION('',(0.0,0.0,-1.0));
#1030=AXIS2_PLACEMENT_3D('',#1027,#1028,#1029);
#1031=CIRCLE('',#1030,0.3);
#1032=EDGE_CURVE('',#995,#1026,#1031,.T.);
#1033=ORIENTED_EDGE('',*,*,#1032,.T.);
#1034=CARTESIAN_POINT('',(-3.550224427391735,-2.540000000000001,0.149944504012522));
#1035=VERTEX_POINT('',#1034);
#1036=CARTESIAN_POINT('',(-3.550224427391735,-2.540000000000001,0.149944504012522));
#1037=DIRECTION('',(0.0,1.0,0.0));
#1038=VECTOR('',#1037,5.08);
#1039=LINE('',#1036,#1038);
#1040=EDGE_CURVE('',#1035,#1026,#1039,.T.);
#1041=ORIENTED_EDGE('',*,*,#1040,.F.);
#1042=CARTESIAN_POINT('',(-3.81,-2.540000000000001,0.300000000000001));
#1043=DIRECTION('',(0.0,1.0,0.0));
#1044=DIRECTION('',(0.0,0.0,-1.0));
#1045=AXIS2_PLACEMENT_3D('',#1042,#1043,#1044);
#1046=CIRCLE('',#1045,0.3);
#1047=EDGE_CURVE('',#1035,#1003,#1046,.T.);
#1048=ORIENTED_EDGE('',*,*,#1047,.T.);
#1049=ORIENTED_EDGE('',*,*,#1008,.T.);
#1050=EDGE_LOOP('',(#1033,#1041,#1048,#1049));
#1051=FACE_OUTER_BOUND('',#1050,.T.);
#1052=ADVANCED_FACE('',(#1051),#1024,.T.);
#1053=CARTESIAN_POINT('',(-3.550224427391735,-2.540000000000001,0.149944504012522));
#1054=DIRECTION('',(0.866931052700671,0.0,-0.498428078927449));
#1055=DIRECTION('',(-0.498428078927449,0.0,-0.866931052700671));
#1056=AXIS2_PLACEMENT_3D('',#1053,#1054,#1055);
#1057=PLANE('',#1056);
#1058=CARTESIAN_POINT('',(-3.550224427391735,2.54,0.149944504012522));
#1059=DIRECTION('',(0.498428078927449,0.0,0.866931052700671));
#1060=VECTOR('',#1059,1.003604027421874);
#1061=LINE('',#1058,#1060);
#1062=EDGE_CURVE('',#1026,#955,#1061,.T.);
#1063=ORIENTED_EDGE('',*,*,#1062,.T.);
#1064=ORIENTED_EDGE('',*,*,#984,.F.);
#1065=CARTESIAN_POINT('',(-3.05,-2.540000000000001,1.02));
#1066=DIRECTION('',(-0.498428078927449,0.0,-0.866931052700671));
#1067=VECTOR('',#1066,1.003604027421874);
#1068=LINE('',#1065,#1067);
#1069=EDGE_CURVE('',#973,#1035,#1068,.T.);
#1070=ORIENTED_EDGE('',*,*,#1069,.T.);
#1071=ORIENTED_EDGE('',*,*,#1040,.T.);
#1072=EDGE_LOOP('',(#1063,#1064,#1070,#1071));
#1073=FACE_OUTER_BOUND('',#1072,.T.);
#1074=ADVANCED_FACE('',(#1073),#1057,.T.);
#1075=CARTESIAN_POINT('',(-3.81,-2.540000000000001,0.664983427150369));
#1076=DIRECTION('',(0.0,1.0,0.0));
#1077=DIRECTION('',(0.0,0.0,1.0));
#1078=AXIS2_PLACEMENT_3D('',#1075,#1076,#1077);
#1079=PLANE('',#1078);
#1080=ORIENTED_EDGE('',*,*,#1069,.F.);
#1081=ORIENTED_EDGE('',*,*,#978,.F.);
#1082=ORIENTED_EDGE('',*,*,#1014,.F.);
#1083=ORIENTED_EDGE('',*,*,#1047,.F.);
#1084=EDGE_LOOP('',(#1080,#1081,#1082,#1083));
#1085=FACE_OUTER_BOUND('',#1084,.T.);
#1086=ADVANCED_FACE('',(#1085),#1079,.F.);
#1087=CARTESIAN_POINT('',(-3.81,2.54,0.664983427150369));
#1088=DIRECTION('',(0.0,1.0,0.0));
#1089=DIRECTION('',(0.0,0.0,1.0));
#1090=AXIS2_PLACEMENT_3D('',#1087,#1088,#1089);
#1091=PLANE('',#1090);
#1092=ORIENTED_EDGE('',*,*,#962,.F.);
#1093=ORIENTED_EDGE('',*,*,#1062,.F.);
#1094=ORIENTED_EDGE('',*,*,#1032,.F.);
#1095=ORIENTED_EDGE('',*,*,#1000,.F.);
#1096=EDGE_LOOP('',(#1092,#1093,#1094,#1095));
#1097=FACE_OUTER_BOUND('',#1096,.T.);
#1098=ADVANCED_FACE('',(#1097),#1091,.T.);
#1099=CLOSED_SHELL('',(#988,#1019,#1052,#1074,#1086,#1098));
#1100=MANIFOLD_SOLID_BREP('2BEB',#1099);
#1101=STYLED_ITEM('NONE',(#794),#1100);
#1102=ADVANCED_BREP_SHAPE_REPRESENTATION('ABSR1',(#152,#250,#339,#428,#787,#947,#1100),#28);
#1103=SHAPE_REPRESENTATION_RELATIONSHIP('SRRPL1','',#1102,#62);
ENDSEC;
END-ISO-10303-21;
