ISO-10303-21;
HEADER;
/* Generated by software containing ST-Developer
 * from STEP Tools, Inc. (www.steptools.com) 
 */

FILE_DESCRIPTION(
/* description */ (''),
/* implementation_level */ '2;1');

FILE_NAME(
/* name */ 'G:\\Applications\\Altium\\CernLib\\StepLib\\VISHAY_GSIB-5S.
stp',
/* time_stamp */ '2017-03-20T16:00:24+01:00',
/* author */ ('riccim'),
/* organization */ (''),
/* preprocessor_version */ 'ST-DEVELOPER v16.1',
/* originating_system */ 'AutoCAD Mechanical',
/* authorisation */ '');

FILE_SCHEMA (('AUTOMOTIVE_DESIGN { 1 0 10303 214 3 1 1 }'));
ENDSEC;

DATA;
#10=MECHANICAL_DESIGN_GEOMETRIC_PRESENTATION_REPRESENTATION('',(#17,#19,
#18,#21,#22,#20),#2005);
#11=DIMENSIONAL_EXPONENTS(0.,0.,0.,0.,0.,0.,0.);
#12=(
CONVERSION_BASED_UNIT('degree',#13)
NAMED_UNIT(#11)
PLANE_ANGLE_UNIT()
);
#13=PLANE_ANGLE_MEASURE_WITH_UNIT(PLANE_ANGLE_MEASURE(0.01745329252),#2008);
#14=PRESENTATION_LAYER_ASSIGNMENT('1','3D',(#23,#24,#25,#26,#27,#28));
#15=SHAPE_REPRESENTATION_RELATIONSHIP('SRR','None',#2011,#16);
#16=ADVANCED_BREP_SHAPE_REPRESENTATION('',(#23,#24,#25,#26,#27,#28),#2004);
#17=STYLED_ITEM('',(#2021),#23);
#18=STYLED_ITEM('',(#2022),#24);
#19=STYLED_ITEM('',(#2022),#25);
#20=STYLED_ITEM('',(#2022),#26);
#21=STYLED_ITEM('',(#2022),#27);
#22=STYLED_ITEM('',(#2022),#28);
#23=MANIFOLD_SOLID_BREP('84A',#1258);
#24=MANIFOLD_SOLID_BREP('87D',#1259);
#25=MANIFOLD_SOLID_BREP('884',#1260);
#26=MANIFOLD_SOLID_BREP('888',#1261);
#27=MANIFOLD_SOLID_BREP('88C',#1262);
#28=MANIFOLD_SOLID_BREP('8BB',#1263);
#29=CYLINDRICAL_SURFACE('',#1270,2.72);
#30=CYLINDRICAL_SURFACE('',#1282,1.85);
#31=CYLINDRICAL_SURFACE('',#1329,2.72);
#32=FACE_BOUND('',#119,.T.);
#33=FACE_BOUND('',#123,.T.);
#34=FACE_BOUND('',#132,.T.);
#35=FACE_BOUND('',#134,.T.);
#36=FACE_BOUND('',#136,.T.);
#37=FACE_BOUND('',#142,.T.);
#38=FACE_BOUND('',#184,.T.);
#39=FACE_BOUND('',#193,.T.);
#40=FACE_BOUND('',#195,.T.);
#41=CIRCLE('',#1267,1.85);
#42=CIRCLE('',#1271,2.72);
#43=CIRCLE('',#1272,2.72);
#44=CIRCLE('',#1283,1.85);
#45=CIRCLE('',#1330,2.72);
#46=CIRCLE('',#1331,2.72);
#47=FACE_OUTER_BOUND('',#117,.T.);
#48=FACE_OUTER_BOUND('',#118,.T.);
#49=FACE_OUTER_BOUND('',#120,.T.);
#50=FACE_OUTER_BOUND('',#121,.T.);
#51=FACE_OUTER_BOUND('',#122,.T.);
#52=FACE_OUTER_BOUND('',#124,.T.);
#53=FACE_OUTER_BOUND('',#125,.T.);
#54=FACE_OUTER_BOUND('',#126,.T.);
#55=FACE_OUTER_BOUND('',#127,.T.);
#56=FACE_OUTER_BOUND('',#128,.T.);
#57=FACE_OUTER_BOUND('',#129,.T.);
#58=FACE_OUTER_BOUND('',#130,.T.);
#59=FACE_OUTER_BOUND('',#131,.T.);
#60=FACE_OUTER_BOUND('',#133,.T.);
#61=FACE_OUTER_BOUND('',#135,.T.);
#62=FACE_OUTER_BOUND('',#137,.T.);
#63=FACE_OUTER_BOUND('',#138,.T.);
#64=FACE_OUTER_BOUND('',#139,.T.);
#65=FACE_OUTER_BOUND('',#140,.T.);
#66=FACE_OUTER_BOUND('',#141,.T.);
#67=FACE_OUTER_BOUND('',#143,.T.);
#68=FACE_OUTER_BOUND('',#144,.T.);
#69=FACE_OUTER_BOUND('',#145,.T.);
#70=FACE_OUTER_BOUND('',#146,.T.);
#71=FACE_OUTER_BOUND('',#147,.T.);
#72=FACE_OUTER_BOUND('',#148,.T.);
#73=FACE_OUTER_BOUND('',#149,.T.);
#74=FACE_OUTER_BOUND('',#150,.T.);
#75=FACE_OUTER_BOUND('',#151,.T.);
#76=FACE_OUTER_BOUND('',#152,.T.);
#77=FACE_OUTER_BOUND('',#153,.T.);
#78=FACE_OUTER_BOUND('',#154,.T.);
#79=FACE_OUTER_BOUND('',#155,.T.);
#80=FACE_OUTER_BOUND('',#156,.T.);
#81=FACE_OUTER_BOUND('',#157,.T.);
#82=FACE_OUTER_BOUND('',#158,.T.);
#83=FACE_OUTER_BOUND('',#159,.T.);
#84=FACE_OUTER_BOUND('',#160,.T.);
#85=FACE_OUTER_BOUND('',#161,.T.);
#86=FACE_OUTER_BOUND('',#162,.T.);
#87=FACE_OUTER_BOUND('',#163,.T.);
#88=FACE_OUTER_BOUND('',#164,.T.);
#89=FACE_OUTER_BOUND('',#165,.T.);
#90=FACE_OUTER_BOUND('',#166,.T.);
#91=FACE_OUTER_BOUND('',#167,.T.);
#92=FACE_OUTER_BOUND('',#168,.T.);
#93=FACE_OUTER_BOUND('',#169,.T.);
#94=FACE_OUTER_BOUND('',#170,.T.);
#95=FACE_OUTER_BOUND('',#171,.T.);
#96=FACE_OUTER_BOUND('',#172,.T.);
#97=FACE_OUTER_BOUND('',#173,.T.);
#98=FACE_OUTER_BOUND('',#174,.T.);
#99=FACE_OUTER_BOUND('',#175,.T.);
#100=FACE_OUTER_BOUND('',#176,.T.);
#101=FACE_OUTER_BOUND('',#177,.T.);
#102=FACE_OUTER_BOUND('',#178,.T.);
#103=FACE_OUTER_BOUND('',#179,.T.);
#104=FACE_OUTER_BOUND('',#180,.T.);
#105=FACE_OUTER_BOUND('',#181,.T.);
#106=FACE_OUTER_BOUND('',#182,.T.);
#107=FACE_OUTER_BOUND('',#183,.T.);
#108=FACE_OUTER_BOUND('',#185,.T.);
#109=FACE_OUTER_BOUND('',#186,.T.);
#110=FACE_OUTER_BOUND('',#187,.T.);
#111=FACE_OUTER_BOUND('',#188,.T.);
#112=FACE_OUTER_BOUND('',#189,.T.);
#113=FACE_OUTER_BOUND('',#190,.T.);
#114=FACE_OUTER_BOUND('',#191,.T.);
#115=FACE_OUTER_BOUND('',#192,.T.);
#116=FACE_OUTER_BOUND('',#194,.T.);
#117=EDGE_LOOP('',(#791,#792,#793,#794));
#118=EDGE_LOOP('',(#795,#796,#797,#798,#799));
#119=EDGE_LOOP('',(#800));
#120=EDGE_LOOP('',(#801,#802,#803,#804,#805,#806));
#121=EDGE_LOOP('',(#807,#808,#809,#810));
#122=EDGE_LOOP('',(#811));
#123=EDGE_LOOP('',(#812));
#124=EDGE_LOOP('',(#813,#814,#815,#816));
#125=EDGE_LOOP('',(#817,#818,#819,#820));
#126=EDGE_LOOP('',(#821,#822,#823,#824));
#127=EDGE_LOOP('',(#825,#826,#827,#828));
#128=EDGE_LOOP('',(#829,#830,#831,#832));
#129=EDGE_LOOP('',(#833,#834,#835,#836));
#130=EDGE_LOOP('',(#837,#838,#839,#840));
#131=EDGE_LOOP('',(#841,#842,#843,#844,#845,#846,#847));
#132=EDGE_LOOP('',(#848));
#133=EDGE_LOOP('',(#849,#850,#851,#852,#853));
#134=EDGE_LOOP('',(#854,#855,#856,#857,#858,#859,#860));
#135=EDGE_LOOP('',(#861));
#136=EDGE_LOOP('',(#862));
#137=EDGE_LOOP('',(#863,#864,#865,#866));
#138=EDGE_LOOP('',(#867,#868,#869,#870));
#139=EDGE_LOOP('',(#871,#872,#873,#874,#875,#876));
#140=EDGE_LOOP('',(#877,#878,#879,#880));
#141=EDGE_LOOP('',(#881));
#142=EDGE_LOOP('',(#882));
#143=EDGE_LOOP('',(#883,#884,#885,#886));
#144=EDGE_LOOP('',(#887,#888,#889,#890));
#145=EDGE_LOOP('',(#891,#892,#893,#894));
#146=EDGE_LOOP('',(#895,#896,#897,#898));
#147=EDGE_LOOP('',(#899,#900,#901,#902));
#148=EDGE_LOOP('',(#903,#904,#905,#906));
#149=EDGE_LOOP('',(#907,#908,#909,#910));
#150=EDGE_LOOP('',(#911,#912,#913,#914));
#151=EDGE_LOOP('',(#915,#916,#917,#918,#919,#920,#921,#922));
#152=EDGE_LOOP('',(#923,#924,#925,#926,#927,#928,#929,#930));
#153=EDGE_LOOP('',(#931,#932,#933,#934));
#154=EDGE_LOOP('',(#935,#936,#937,#938));
#155=EDGE_LOOP('',(#939,#940,#941,#942));
#156=EDGE_LOOP('',(#943,#944,#945,#946));
#157=EDGE_LOOP('',(#947,#948,#949,#950));
#158=EDGE_LOOP('',(#951,#952,#953,#954));
#159=EDGE_LOOP('',(#955,#956,#957,#958));
#160=EDGE_LOOP('',(#959,#960,#961,#962));
#161=EDGE_LOOP('',(#963,#964,#965,#966,#967,#968,#969,#970));
#162=EDGE_LOOP('',(#971,#972,#973,#974,#975,#976,#977,#978));
#163=EDGE_LOOP('',(#979,#980,#981,#982));
#164=EDGE_LOOP('',(#983,#984,#985,#986));
#165=EDGE_LOOP('',(#987,#988,#989,#990));
#166=EDGE_LOOP('',(#991,#992,#993,#994));
#167=EDGE_LOOP('',(#995,#996,#997,#998));
#168=EDGE_LOOP('',(#999,#1000,#1001,#1002));
#169=EDGE_LOOP('',(#1003,#1004,#1005,#1006));
#170=EDGE_LOOP('',(#1007,#1008,#1009,#1010));
#171=EDGE_LOOP('',(#1011,#1012,#1013,#1014,#1015,#1016,#1017,#1018));
#172=EDGE_LOOP('',(#1019,#1020,#1021,#1022,#1023,#1024,#1025,#1026));
#173=EDGE_LOOP('',(#1027,#1028,#1029,#1030));
#174=EDGE_LOOP('',(#1031,#1032,#1033,#1034));
#175=EDGE_LOOP('',(#1035,#1036,#1037,#1038));
#176=EDGE_LOOP('',(#1039,#1040,#1041,#1042));
#177=EDGE_LOOP('',(#1043,#1044,#1045,#1046));
#178=EDGE_LOOP('',(#1047,#1048,#1049,#1050));
#179=EDGE_LOOP('',(#1051,#1052,#1053,#1054));
#180=EDGE_LOOP('',(#1055,#1056,#1057,#1058));
#181=EDGE_LOOP('',(#1059,#1060,#1061,#1062,#1063,#1064,#1065,#1066));
#182=EDGE_LOOP('',(#1067,#1068,#1069,#1070,#1071,#1072,#1073,#1074));
#183=EDGE_LOOP('',(#1075));
#184=EDGE_LOOP('',(#1076));
#185=EDGE_LOOP('',(#1077,#1078,#1079,#1080));
#186=EDGE_LOOP('',(#1081,#1082,#1083,#1084));
#187=EDGE_LOOP('',(#1085,#1086,#1087,#1088));
#188=EDGE_LOOP('',(#1089,#1090,#1091,#1092));
#189=EDGE_LOOP('',(#1093,#1094,#1095,#1096));
#190=EDGE_LOOP('',(#1097,#1098,#1099,#1100));
#191=EDGE_LOOP('',(#1101,#1102,#1103,#1104));
#192=EDGE_LOOP('',(#1105,#1106,#1107,#1108,#1109,#1110,#1111));
#193=EDGE_LOOP('',(#1112));
#194=EDGE_LOOP('',(#1113,#1114,#1115,#1116,#1117,#1118,#1119));
#195=EDGE_LOOP('',(#1120));
#196=LINE('',#1658,#355);
#197=LINE('',#1660,#356);
#198=LINE('',#1662,#357);
#199=LINE('',#1663,#358);
#200=LINE('',#1667,#359);
#201=LINE('',#1668,#360);
#202=LINE('',#1670,#361);
#203=LINE('',#1671,#362);
#204=LINE('',#1676,#363);
#205=LINE('',#1678,#364);
#206=LINE('',#1680,#365);
#207=LINE('',#1681,#366);
#208=LINE('',#1684,#367);
#209=LINE('',#1685,#368);
#210=LINE('',#1694,#369);
#211=LINE('',#1696,#370);
#212=LINE('',#1698,#371);
#213=LINE('',#1699,#372);
#214=LINE('',#1702,#373);
#215=LINE('',#1704,#374);
#216=LINE('',#1705,#375);
#217=LINE('',#1708,#376);
#218=LINE('',#1710,#377);
#219=LINE('',#1711,#378);
#220=LINE('',#1714,#379);
#221=LINE('',#1716,#380);
#222=LINE('',#1717,#381);
#223=LINE('',#1720,#382);
#224=LINE('',#1722,#383);
#225=LINE('',#1723,#384);
#226=LINE('',#1726,#385);
#227=LINE('',#1728,#386);
#228=LINE('',#1729,#387);
#229=LINE('',#1731,#388);
#230=LINE('',#1732,#389);
#231=LINE('',#1736,#390);
#232=LINE('',#1738,#391);
#233=LINE('',#1740,#392);
#234=LINE('',#1741,#393);
#235=LINE('',#1746,#394);
#236=LINE('',#1748,#395);
#237=LINE('',#1750,#396);
#238=LINE('',#1756,#397);
#239=LINE('',#1758,#398);
#240=LINE('',#1760,#399);
#241=LINE('',#1761,#400);
#242=LINE('',#1764,#401);
#243=LINE('',#1766,#402);
#244=LINE('',#1767,#403);
#245=LINE('',#1770,#404);
#246=LINE('',#1772,#405);
#247=LINE('',#1773,#406);
#248=LINE('',#1776,#407);
#249=LINE('',#1778,#408);
#250=LINE('',#1779,#409);
#251=LINE('',#1782,#410);
#252=LINE('',#1784,#411);
#253=LINE('',#1785,#412);
#254=LINE('',#1788,#413);
#255=LINE('',#1790,#414);
#256=LINE('',#1791,#415);
#257=LINE('',#1794,#416);
#258=LINE('',#1796,#417);
#259=LINE('',#1797,#418);
#260=LINE('',#1799,#419);
#261=LINE('',#1800,#420);
#262=LINE('',#1806,#421);
#263=LINE('',#1808,#422);
#264=LINE('',#1810,#423);
#265=LINE('',#1811,#424);
#266=LINE('',#1814,#425);
#267=LINE('',#1816,#426);
#268=LINE('',#1817,#427);
#269=LINE('',#1820,#428);
#270=LINE('',#1822,#429);
#271=LINE('',#1823,#430);
#272=LINE('',#1826,#431);
#273=LINE('',#1828,#432);
#274=LINE('',#1829,#433);
#275=LINE('',#1832,#434);
#276=LINE('',#1834,#435);
#277=LINE('',#1835,#436);
#278=LINE('',#1838,#437);
#279=LINE('',#1840,#438);
#280=LINE('',#1841,#439);
#281=LINE('',#1844,#440);
#282=LINE('',#1846,#441);
#283=LINE('',#1847,#442);
#284=LINE('',#1849,#443);
#285=LINE('',#1850,#444);
#286=LINE('',#1856,#445);
#287=LINE('',#1858,#446);
#288=LINE('',#1860,#447);
#289=LINE('',#1861,#448);
#290=LINE('',#1864,#449);
#291=LINE('',#1866,#450);
#292=LINE('',#1867,#451);
#293=LINE('',#1870,#452);
#294=LINE('',#1872,#453);
#295=LINE('',#1873,#454);
#296=LINE('',#1876,#455);
#297=LINE('',#1878,#456);
#298=LINE('',#1879,#457);
#299=LINE('',#1882,#458);
#300=LINE('',#1884,#459);
#301=LINE('',#1885,#460);
#302=LINE('',#1888,#461);
#303=LINE('',#1890,#462);
#304=LINE('',#1891,#463);
#305=LINE('',#1894,#464);
#306=LINE('',#1896,#465);
#307=LINE('',#1897,#466);
#308=LINE('',#1899,#467);
#309=LINE('',#1900,#468);
#310=LINE('',#1906,#469);
#311=LINE('',#1908,#470);
#312=LINE('',#1910,#471);
#313=LINE('',#1911,#472);
#314=LINE('',#1914,#473);
#315=LINE('',#1916,#474);
#316=LINE('',#1917,#475);
#317=LINE('',#1920,#476);
#318=LINE('',#1922,#477);
#319=LINE('',#1923,#478);
#320=LINE('',#1926,#479);
#321=LINE('',#1928,#480);
#322=LINE('',#1929,#481);
#323=LINE('',#1932,#482);
#324=LINE('',#1934,#483);
#325=LINE('',#1935,#484);
#326=LINE('',#1938,#485);
#327=LINE('',#1940,#486);
#328=LINE('',#1941,#487);
#329=LINE('',#1944,#488);
#330=LINE('',#1946,#489);
#331=LINE('',#1947,#490);
#332=LINE('',#1949,#491);
#333=LINE('',#1950,#492);
#334=LINE('',#1961,#493);
#335=LINE('',#1963,#494);
#336=LINE('',#1965,#495);
#337=LINE('',#1966,#496);
#338=LINE('',#1969,#497);
#339=LINE('',#1971,#498);
#340=LINE('',#1972,#499);
#341=LINE('',#1975,#500);
#342=LINE('',#1977,#501);
#343=LINE('',#1978,#502);
#344=LINE('',#1981,#503);
#345=LINE('',#1983,#504);
#346=LINE('',#1984,#505);
#347=LINE('',#1987,#506);
#348=LINE('',#1989,#507);
#349=LINE('',#1990,#508);
#350=LINE('',#1993,#509);
#351=LINE('',#1995,#510);
#352=LINE('',#1996,#511);
#353=LINE('',#1998,#512);
#354=LINE('',#1999,#513);
#355=VECTOR('',#1345,1.99999999999998);
#356=VECTOR('',#1346,30.3);
#357=VECTOR('',#1347,1.99999999999998);
#358=VECTOR('',#1348,30.3);
#359=VECTOR('',#1351,4.24264068711928);
#360=VECTOR('',#1352,10.5679491901605);
#361=VECTOR('',#1353,13.5679491901605);
#362=VECTOR('',#1354,27.3);
#363=VECTOR('',#1359,5.00000000227067);
#364=VECTOR('',#1360,4.8);
#365=VECTOR('',#1361,20.3);
#366=VECTOR('',#1362,3.80000000000001);
#367=VECTOR('',#1365,5.00000000227067);
#368=VECTOR('',#1366,30.3);
#369=VECTOR('',#1375,21.6599999999999);
#370=VECTOR('',#1376,1.);
#371=VECTOR('',#1377,21.6599999999999);
#372=VECTOR('',#1378,1.);
#373=VECTOR('',#1381,3.37997041407174);
#374=VECTOR('',#1382,3.37997041407174);
#375=VECTOR('',#1383,1.);
#376=VECTOR('',#1386,12.31);
#377=VECTOR('',#1387,12.31);
#378=VECTOR('',#1388,1.);
#379=VECTOR('',#1391,2.3758787847868);
#380=VECTOR('',#1392,2.3758787847868);
#381=VECTOR('',#1393,1.);
#382=VECTOR('',#1396,24.76);
#383=VECTOR('',#1397,24.76);
#384=VECTOR('',#1398,1.);
#385=VECTOR('',#1401,13.99);
#386=VECTOR('',#1402,13.99);
#387=VECTOR('',#1403,1.);
#388=VECTOR('',#1406,3.37997041407174);
#389=VECTOR('',#1407,3.37997041407174);
#390=VECTOR('',#1412,30.3);
#391=VECTOR('',#1413,17.3);
#392=VECTOR('',#1414,4.24264068711928);
#393=VECTOR('',#1415,27.3);
#394=VECTOR('',#1422,3.80000000000001);
#395=VECTOR('',#1425,3.80000000000001);
#396=VECTOR('',#1428,4.8);
#397=VECTOR('',#1435,0.449999999999999);
#398=VECTOR('',#1436,0.7);
#399=VECTOR('',#1437,0.449999999999999);
#400=VECTOR('',#1438,0.7);
#401=VECTOR('',#1441,4.);
#402=VECTOR('',#1442,4.);
#403=VECTOR('',#1443,0.7);
#404=VECTOR('',#1446,2.);
#405=VECTOR('',#1447,2.);
#406=VECTOR('',#1448,0.7);
#407=VECTOR('',#1451,4.);
#408=VECTOR('',#1452,4.);
#409=VECTOR('',#1453,0.7);
#410=VECTOR('',#1456,0.449999999999999);
#411=VECTOR('',#1457,0.449999999999999);
#412=VECTOR('',#1458,0.7);
#413=VECTOR('',#1461,3.6);
#414=VECTOR('',#1462,3.6);
#415=VECTOR('',#1463,0.7);
#416=VECTOR('',#1466,1.1);
#417=VECTOR('',#1467,1.1);
#418=VECTOR('',#1468,0.7);
#419=VECTOR('',#1471,3.6);
#420=VECTOR('',#1472,3.6);
#421=VECTOR('',#1479,0.449999999999999);
#422=VECTOR('',#1480,0.7);
#423=VECTOR('',#1481,0.449999999999999);
#424=VECTOR('',#1482,0.7);
#425=VECTOR('',#1485,4.);
#426=VECTOR('',#1486,4.);
#427=VECTOR('',#1487,0.7);
#428=VECTOR('',#1490,2.);
#429=VECTOR('',#1491,2.);
#430=VECTOR('',#1492,0.7);
#431=VECTOR('',#1495,4.);
#432=VECTOR('',#1496,4.);
#433=VECTOR('',#1497,0.7);
#434=VECTOR('',#1500,0.449999999999999);
#435=VECTOR('',#1501,0.449999999999999);
#436=VECTOR('',#1502,0.7);
#437=VECTOR('',#1505,3.6);
#438=VECTOR('',#1506,3.6);
#439=VECTOR('',#1507,0.7);
#440=VECTOR('',#1510,1.1);
#441=VECTOR('',#1511,1.1);
#442=VECTOR('',#1512,0.7);
#443=VECTOR('',#1515,3.6);
#444=VECTOR('',#1516,3.6);
#445=VECTOR('',#1523,0.450000000000003);
#446=VECTOR('',#1524,0.7);
#447=VECTOR('',#1525,0.450000000000003);
#448=VECTOR('',#1526,0.7);
#449=VECTOR('',#1529,4.);
#450=VECTOR('',#1530,4.);
#451=VECTOR('',#1531,0.7);
#452=VECTOR('',#1534,2.);
#453=VECTOR('',#1535,2.);
#454=VECTOR('',#1536,0.7);
#455=VECTOR('',#1539,4.);
#456=VECTOR('',#1540,4.);
#457=VECTOR('',#1541,0.7);
#458=VECTOR('',#1544,0.450000000000003);
#459=VECTOR('',#1545,0.450000000000003);
#460=VECTOR('',#1546,0.7);
#461=VECTOR('',#1549,3.6);
#462=VECTOR('',#1550,3.6);
#463=VECTOR('',#1551,0.7);
#464=VECTOR('',#1554,1.09999999999999);
#465=VECTOR('',#1555,1.09999999999999);
#466=VECTOR('',#1556,0.7);
#467=VECTOR('',#1559,3.6);
#468=VECTOR('',#1560,3.6);
#469=VECTOR('',#1567,0.450000000000003);
#470=VECTOR('',#1568,0.7);
#471=VECTOR('',#1569,0.450000000000003);
#472=VECTOR('',#1570,0.7);
#473=VECTOR('',#1573,4.);
#474=VECTOR('',#1574,4.);
#475=VECTOR('',#1575,0.7);
#476=VECTOR('',#1578,2.);
#477=VECTOR('',#1579,2.);
#478=VECTOR('',#1580,0.7);
#479=VECTOR('',#1583,4.);
#480=VECTOR('',#1584,4.);
#481=VECTOR('',#1585,0.7);
#482=VECTOR('',#1588,0.450000000000003);
#483=VECTOR('',#1589,0.450000000000003);
#484=VECTOR('',#1590,0.7);
#485=VECTOR('',#1593,3.6);
#486=VECTOR('',#1594,3.6);
#487=VECTOR('',#1595,0.7);
#488=VECTOR('',#1598,1.09999999999999);
#489=VECTOR('',#1599,1.09999999999999);
#490=VECTOR('',#1600,0.7);
#491=VECTOR('',#1603,3.6);
#492=VECTOR('',#1604,3.6);
#493=VECTOR('',#1617,21.6599999999999);
#494=VECTOR('',#1618,1.);
#495=VECTOR('',#1619,21.6599999999999);
#496=VECTOR('',#1620,1.);
#497=VECTOR('',#1623,3.37997041407174);
#498=VECTOR('',#1624,1.);
#499=VECTOR('',#1625,3.37997041407174);
#500=VECTOR('',#1628,12.31);
#501=VECTOR('',#1629,1.);
#502=VECTOR('',#1630,12.31);
#503=VECTOR('',#1633,2.3758787847868);
#504=VECTOR('',#1634,1.);
#505=VECTOR('',#1635,2.3758787847868);
#506=VECTOR('',#1638,24.76);
#507=VECTOR('',#1639,1.);
#508=VECTOR('',#1640,24.76);
#509=VECTOR('',#1643,13.99);
#510=VECTOR('',#1644,1.);
#511=VECTOR('',#1645,13.99);
#512=VECTOR('',#1648,3.37997041407174);
#513=VECTOR('',#1649,3.37997041407174);
#514=VERTEX_POINT('',#1656);
#515=VERTEX_POINT('',#1657);
#516=VERTEX_POINT('',#1659);
#517=VERTEX_POINT('',#1661);
#518=VERTEX_POINT('',#1665);
#519=VERTEX_POINT('',#1666);
#520=VERTEX_POINT('',#1669);
#521=VERTEX_POINT('',#1672);
#522=VERTEX_POINT('',#1675);
#523=VERTEX_POINT('',#1677);
#524=VERTEX_POINT('',#1679);
#525=VERTEX_POINT('',#1683);
#526=VERTEX_POINT('',#1687);
#527=VERTEX_POINT('',#1689);
#528=VERTEX_POINT('',#1692);
#529=VERTEX_POINT('',#1693);
#530=VERTEX_POINT('',#1695);
#531=VERTEX_POINT('',#1697);
#532=VERTEX_POINT('',#1701);
#533=VERTEX_POINT('',#1703);
#534=VERTEX_POINT('',#1707);
#535=VERTEX_POINT('',#1709);
#536=VERTEX_POINT('',#1713);
#537=VERTEX_POINT('',#1715);
#538=VERTEX_POINT('',#1719);
#539=VERTEX_POINT('',#1721);
#540=VERTEX_POINT('',#1725);
#541=VERTEX_POINT('',#1727);
#542=VERTEX_POINT('',#1735);
#543=VERTEX_POINT('',#1737);
#544=VERTEX_POINT('',#1739);
#545=VERTEX_POINT('',#1743);
#546=VERTEX_POINT('',#1754);
#547=VERTEX_POINT('',#1755);
#548=VERTEX_POINT('',#1757);
#549=VERTEX_POINT('',#1759);
#550=VERTEX_POINT('',#1763);
#551=VERTEX_POINT('',#1765);
#552=VERTEX_POINT('',#1769);
#553=VERTEX_POINT('',#1771);
#554=VERTEX_POINT('',#1775);
#555=VERTEX_POINT('',#1777);
#556=VERTEX_POINT('',#1781);
#557=VERTEX_POINT('',#1783);
#558=VERTEX_POINT('',#1787);
#559=VERTEX_POINT('',#1789);
#560=VERTEX_POINT('',#1793);
#561=VERTEX_POINT('',#1795);
#562=VERTEX_POINT('',#1804);
#563=VERTEX_POINT('',#1805);
#564=VERTEX_POINT('',#1807);
#565=VERTEX_POINT('',#1809);
#566=VERTEX_POINT('',#1813);
#567=VERTEX_POINT('',#1815);
#568=VERTEX_POINT('',#1819);
#569=VERTEX_POINT('',#1821);
#570=VERTEX_POINT('',#1825);
#571=VERTEX_POINT('',#1827);
#572=VERTEX_POINT('',#1831);
#573=VERTEX_POINT('',#1833);
#574=VERTEX_POINT('',#1837);
#575=VERTEX_POINT('',#1839);
#576=VERTEX_POINT('',#1843);
#577=VERTEX_POINT('',#1845);
#578=VERTEX_POINT('',#1854);
#579=VERTEX_POINT('',#1855);
#580=VERTEX_POINT('',#1857);
#581=VERTEX_POINT('',#1859);
#582=VERTEX_POINT('',#1863);
#583=VERTEX_POINT('',#1865);
#584=VERTEX_POINT('',#1869);
#585=VERTEX_POINT('',#1871);
#586=VERTEX_POINT('',#1875);
#587=VERTEX_POINT('',#1877);
#588=VERTEX_POINT('',#1881);
#589=VERTEX_POINT('',#1883);
#590=VERTEX_POINT('',#1887);
#591=VERTEX_POINT('',#1889);
#592=VERTEX_POINT('',#1893);
#593=VERTEX_POINT('',#1895);
#594=VERTEX_POINT('',#1904);
#595=VERTEX_POINT('',#1905);
#596=VERTEX_POINT('',#1907);
#597=VERTEX_POINT('',#1909);
#598=VERTEX_POINT('',#1913);
#599=VERTEX_POINT('',#1915);
#600=VERTEX_POINT('',#1919);
#601=VERTEX_POINT('',#1921);
#602=VERTEX_POINT('',#1925);
#603=VERTEX_POINT('',#1927);
#604=VERTEX_POINT('',#1931);
#605=VERTEX_POINT('',#1933);
#606=VERTEX_POINT('',#1937);
#607=VERTEX_POINT('',#1939);
#608=VERTEX_POINT('',#1943);
#609=VERTEX_POINT('',#1945);
#610=VERTEX_POINT('',#1954);
#611=VERTEX_POINT('',#1956);
#612=VERTEX_POINT('',#1959);
#613=VERTEX_POINT('',#1960);
#614=VERTEX_POINT('',#1962);
#615=VERTEX_POINT('',#1964);
#616=VERTEX_POINT('',#1968);
#617=VERTEX_POINT('',#1970);
#618=VERTEX_POINT('',#1974);
#619=VERTEX_POINT('',#1976);
#620=VERTEX_POINT('',#1980);
#621=VERTEX_POINT('',#1982);
#622=VERTEX_POINT('',#1986);
#623=VERTEX_POINT('',#1988);
#624=VERTEX_POINT('',#1992);
#625=VERTEX_POINT('',#1994);
#626=EDGE_CURVE('',#514,#515,#196,.T.);
#627=EDGE_CURVE('',#516,#514,#197,.T.);
#628=EDGE_CURVE('',#517,#516,#198,.T.);
#629=EDGE_CURVE('',#517,#515,#199,.T.);
#630=EDGE_CURVE('',#518,#519,#200,.T.);
#631=EDGE_CURVE('',#515,#518,#201,.T.);
#632=EDGE_CURVE('',#520,#517,#202,.T.);
#633=EDGE_CURVE('',#519,#520,#203,.T.);
#634=EDGE_CURVE('',#521,#521,#41,.T.);
#635=EDGE_CURVE('',#522,#516,#204,.T.);
#636=EDGE_CURVE('',#522,#523,#205,.T.);
#637=EDGE_CURVE('',#523,#524,#206,.T.);
#638=EDGE_CURVE('',#520,#524,#207,.T.);
#639=EDGE_CURVE('',#514,#525,#208,.T.);
#640=EDGE_CURVE('',#525,#522,#209,.T.);
#641=EDGE_CURVE('',#526,#526,#42,.T.);
#642=EDGE_CURVE('',#527,#527,#43,.T.);
#643=EDGE_CURVE('',#528,#529,#210,.T.);
#644=EDGE_CURVE('',#530,#528,#211,.T.);
#645=EDGE_CURVE('',#531,#530,#212,.T.);
#646=EDGE_CURVE('',#531,#529,#213,.T.);
#647=EDGE_CURVE('',#529,#532,#214,.T.);
#648=EDGE_CURVE('',#533,#531,#215,.T.);
#649=EDGE_CURVE('',#533,#532,#216,.T.);
#650=EDGE_CURVE('',#532,#534,#217,.T.);
#651=EDGE_CURVE('',#535,#533,#218,.T.);
#652=EDGE_CURVE('',#535,#534,#219,.T.);
#653=EDGE_CURVE('',#534,#536,#220,.T.);
#654=EDGE_CURVE('',#537,#535,#221,.T.);
#655=EDGE_CURVE('',#537,#536,#222,.T.);
#656=EDGE_CURVE('',#536,#538,#223,.T.);
#657=EDGE_CURVE('',#539,#537,#224,.T.);
#658=EDGE_CURVE('',#539,#538,#225,.T.);
#659=EDGE_CURVE('',#538,#540,#226,.T.);
#660=EDGE_CURVE('',#541,#539,#227,.T.);
#661=EDGE_CURVE('',#541,#540,#228,.T.);
#662=EDGE_CURVE('',#540,#528,#229,.T.);
#663=EDGE_CURVE('',#530,#541,#230,.T.);
#664=EDGE_CURVE('',#542,#523,#231,.T.);
#665=EDGE_CURVE('',#543,#542,#232,.T.);
#666=EDGE_CURVE('',#544,#543,#233,.T.);
#667=EDGE_CURVE('',#524,#544,#234,.T.);
#668=EDGE_CURVE('',#545,#545,#44,.T.);
#669=EDGE_CURVE('',#519,#544,#235,.T.);
#670=EDGE_CURVE('',#518,#543,#236,.T.);
#671=EDGE_CURVE('',#525,#542,#237,.T.);
#672=EDGE_CURVE('',#546,#547,#238,.T.);
#673=EDGE_CURVE('',#546,#548,#239,.T.);
#674=EDGE_CURVE('',#549,#548,#240,.T.);
#675=EDGE_CURVE('',#547,#549,#241,.T.);
#676=EDGE_CURVE('',#547,#550,#242,.T.);
#677=EDGE_CURVE('',#551,#549,#243,.T.);
#678=EDGE_CURVE('',#550,#551,#244,.T.);
#679=EDGE_CURVE('',#550,#552,#245,.T.);
#680=EDGE_CURVE('',#553,#551,#246,.T.);
#681=EDGE_CURVE('',#552,#553,#247,.T.);
#682=EDGE_CURVE('',#552,#554,#248,.T.);
#683=EDGE_CURVE('',#555,#553,#249,.T.);
#684=EDGE_CURVE('',#554,#555,#250,.T.);
#685=EDGE_CURVE('',#554,#556,#251,.T.);
#686=EDGE_CURVE('',#557,#555,#252,.T.);
#687=EDGE_CURVE('',#556,#557,#253,.T.);
#688=EDGE_CURVE('',#556,#558,#254,.T.);
#689=EDGE_CURVE('',#559,#557,#255,.T.);
#690=EDGE_CURVE('',#558,#559,#256,.T.);
#691=EDGE_CURVE('',#558,#560,#257,.T.);
#692=EDGE_CURVE('',#561,#559,#258,.T.);
#693=EDGE_CURVE('',#560,#561,#259,.T.);
#694=EDGE_CURVE('',#560,#546,#260,.T.);
#695=EDGE_CURVE('',#548,#561,#261,.T.);
#696=EDGE_CURVE('',#562,#563,#262,.T.);
#697=EDGE_CURVE('',#562,#564,#263,.T.);
#698=EDGE_CURVE('',#565,#564,#264,.T.);
#699=EDGE_CURVE('',#563,#565,#265,.T.);
#700=EDGE_CURVE('',#563,#566,#266,.T.);
#701=EDGE_CURVE('',#567,#565,#267,.T.);
#702=EDGE_CURVE('',#566,#567,#268,.T.);
#703=EDGE_CURVE('',#566,#568,#269,.T.);
#704=EDGE_CURVE('',#569,#567,#270,.T.);
#705=EDGE_CURVE('',#568,#569,#271,.T.);
#706=EDGE_CURVE('',#568,#570,#272,.T.);
#707=EDGE_CURVE('',#571,#569,#273,.T.);
#708=EDGE_CURVE('',#570,#571,#274,.T.);
#709=EDGE_CURVE('',#570,#572,#275,.T.);
#710=EDGE_CURVE('',#573,#571,#276,.T.);
#711=EDGE_CURVE('',#572,#573,#277,.T.);
#712=EDGE_CURVE('',#572,#574,#278,.T.);
#713=EDGE_CURVE('',#575,#573,#279,.T.);
#714=EDGE_CURVE('',#574,#575,#280,.T.);
#715=EDGE_CURVE('',#574,#576,#281,.T.);
#716=EDGE_CURVE('',#577,#575,#282,.T.);
#717=EDGE_CURVE('',#576,#577,#283,.T.);
#718=EDGE_CURVE('',#576,#562,#284,.T.);
#719=EDGE_CURVE('',#564,#577,#285,.T.);
#720=EDGE_CURVE('',#578,#579,#286,.T.);
#721=EDGE_CURVE('',#578,#580,#287,.T.);
#722=EDGE_CURVE('',#581,#580,#288,.T.);
#723=EDGE_CURVE('',#579,#581,#289,.T.);
#724=EDGE_CURVE('',#579,#582,#290,.T.);
#725=EDGE_CURVE('',#583,#581,#291,.T.);
#726=EDGE_CURVE('',#582,#583,#292,.T.);
#727=EDGE_CURVE('',#582,#584,#293,.T.);
#728=EDGE_CURVE('',#585,#583,#294,.T.);
#729=EDGE_CURVE('',#584,#585,#295,.T.);
#730=EDGE_CURVE('',#584,#586,#296,.T.);
#731=EDGE_CURVE('',#587,#585,#297,.T.);
#732=EDGE_CURVE('',#586,#587,#298,.T.);
#733=EDGE_CURVE('',#586,#588,#299,.T.);
#734=EDGE_CURVE('',#589,#587,#300,.T.);
#735=EDGE_CURVE('',#588,#589,#301,.T.);
#736=EDGE_CURVE('',#588,#590,#302,.T.);
#737=EDGE_CURVE('',#591,#589,#303,.T.);
#738=EDGE_CURVE('',#590,#591,#304,.T.);
#739=EDGE_CURVE('',#590,#592,#305,.T.);
#740=EDGE_CURVE('',#593,#591,#306,.T.);
#741=EDGE_CURVE('',#592,#593,#307,.T.);
#742=EDGE_CURVE('',#592,#578,#308,.T.);
#743=EDGE_CURVE('',#580,#593,#309,.T.);
#744=EDGE_CURVE('',#594,#595,#310,.T.);
#745=EDGE_CURVE('',#594,#596,#311,.T.);
#746=EDGE_CURVE('',#597,#596,#312,.T.);
#747=EDGE_CURVE('',#595,#597,#313,.T.);
#748=EDGE_CURVE('',#595,#598,#314,.T.);
#749=EDGE_CURVE('',#599,#597,#315,.T.);
#750=EDGE_CURVE('',#598,#599,#316,.T.);
#751=EDGE_CURVE('',#598,#600,#317,.T.);
#752=EDGE_CURVE('',#601,#599,#318,.T.);
#753=EDGE_CURVE('',#600,#601,#319,.T.);
#754=EDGE_CURVE('',#600,#602,#320,.T.);
#755=EDGE_CURVE('',#603,#601,#321,.T.);
#756=EDGE_CURVE('',#602,#603,#322,.T.);
#757=EDGE_CURVE('',#602,#604,#323,.T.);
#758=EDGE_CURVE('',#605,#603,#324,.T.);
#759=EDGE_CURVE('',#604,#605,#325,.T.);
#760=EDGE_CURVE('',#604,#606,#326,.T.);
#761=EDGE_CURVE('',#607,#605,#327,.T.);
#762=EDGE_CURVE('',#606,#607,#328,.T.);
#763=EDGE_CURVE('',#606,#608,#329,.T.);
#764=EDGE_CURVE('',#609,#607,#330,.T.);
#765=EDGE_CURVE('',#608,#609,#331,.T.);
#766=EDGE_CURVE('',#608,#594,#332,.T.);
#767=EDGE_CURVE('',#596,#609,#333,.T.);
#768=EDGE_CURVE('',#610,#610,#45,.T.);
#769=EDGE_CURVE('',#611,#611,#46,.T.);
#770=EDGE_CURVE('',#612,#613,#334,.T.);
#771=EDGE_CURVE('',#614,#613,#335,.T.);
#772=EDGE_CURVE('',#615,#614,#336,.T.);
#773=EDGE_CURVE('',#615,#612,#337,.T.);
#774=EDGE_CURVE('',#613,#616,#338,.T.);
#775=EDGE_CURVE('',#617,#616,#339,.T.);
#776=EDGE_CURVE('',#614,#617,#340,.T.);
#777=EDGE_CURVE('',#616,#618,#341,.T.);
#778=EDGE_CURVE('',#619,#618,#342,.T.);
#779=EDGE_CURVE('',#617,#619,#343,.T.);
#780=EDGE_CURVE('',#618,#620,#344,.T.);
#781=EDGE_CURVE('',#621,#620,#345,.T.);
#782=EDGE_CURVE('',#619,#621,#346,.T.);
#783=EDGE_CURVE('',#620,#622,#347,.T.);
#784=EDGE_CURVE('',#623,#622,#348,.T.);
#785=EDGE_CURVE('',#621,#623,#349,.T.);
#786=EDGE_CURVE('',#622,#624,#350,.T.);
#787=EDGE_CURVE('',#625,#624,#351,.T.);
#788=EDGE_CURVE('',#623,#625,#352,.T.);
#789=EDGE_CURVE('',#624,#612,#353,.T.);
#790=EDGE_CURVE('',#625,#615,#354,.T.);
#791=ORIENTED_EDGE('',*,*,#626,.F.);
#792=ORIENTED_EDGE('',*,*,#627,.F.);
#793=ORIENTED_EDGE('',*,*,#628,.F.);
#794=ORIENTED_EDGE('',*,*,#629,.T.);
#795=ORIENTED_EDGE('',*,*,#630,.F.);
#796=ORIENTED_EDGE('',*,*,#631,.F.);
#797=ORIENTED_EDGE('',*,*,#629,.F.);
#798=ORIENTED_EDGE('',*,*,#632,.F.);
#799=ORIENTED_EDGE('',*,*,#633,.F.);
#800=ORIENTED_EDGE('',*,*,#634,.F.);
#801=ORIENTED_EDGE('',*,*,#632,.T.);
#802=ORIENTED_EDGE('',*,*,#628,.T.);
#803=ORIENTED_EDGE('',*,*,#635,.F.);
#804=ORIENTED_EDGE('',*,*,#636,.T.);
#805=ORIENTED_EDGE('',*,*,#637,.T.);
#806=ORIENTED_EDGE('',*,*,#638,.F.);
#807=ORIENTED_EDGE('',*,*,#627,.T.);
#808=ORIENTED_EDGE('',*,*,#639,.T.);
#809=ORIENTED_EDGE('',*,*,#640,.T.);
#810=ORIENTED_EDGE('',*,*,#635,.T.);
#811=ORIENTED_EDGE('',*,*,#641,.T.);
#812=ORIENTED_EDGE('',*,*,#642,.F.);
#813=ORIENTED_EDGE('',*,*,#643,.F.);
#814=ORIENTED_EDGE('',*,*,#644,.F.);
#815=ORIENTED_EDGE('',*,*,#645,.F.);
#816=ORIENTED_EDGE('',*,*,#646,.T.);
#817=ORIENTED_EDGE('',*,*,#647,.F.);
#818=ORIENTED_EDGE('',*,*,#646,.F.);
#819=ORIENTED_EDGE('',*,*,#648,.F.);
#820=ORIENTED_EDGE('',*,*,#649,.T.);
#821=ORIENTED_EDGE('',*,*,#650,.F.);
#822=ORIENTED_EDGE('',*,*,#649,.F.);
#823=ORIENTED_EDGE('',*,*,#651,.F.);
#824=ORIENTED_EDGE('',*,*,#652,.T.);
#825=ORIENTED_EDGE('',*,*,#653,.F.);
#826=ORIENTED_EDGE('',*,*,#652,.F.);
#827=ORIENTED_EDGE('',*,*,#654,.F.);
#828=ORIENTED_EDGE('',*,*,#655,.T.);
#829=ORIENTED_EDGE('',*,*,#656,.F.);
#830=ORIENTED_EDGE('',*,*,#655,.F.);
#831=ORIENTED_EDGE('',*,*,#657,.F.);
#832=ORIENTED_EDGE('',*,*,#658,.T.);
#833=ORIENTED_EDGE('',*,*,#659,.F.);
#834=ORIENTED_EDGE('',*,*,#658,.F.);
#835=ORIENTED_EDGE('',*,*,#660,.F.);
#836=ORIENTED_EDGE('',*,*,#661,.T.);
#837=ORIENTED_EDGE('',*,*,#662,.F.);
#838=ORIENTED_EDGE('',*,*,#661,.F.);
#839=ORIENTED_EDGE('',*,*,#663,.F.);
#840=ORIENTED_EDGE('',*,*,#644,.T.);
#841=ORIENTED_EDGE('',*,*,#643,.T.);
#842=ORIENTED_EDGE('',*,*,#647,.T.);
#843=ORIENTED_EDGE('',*,*,#650,.T.);
#844=ORIENTED_EDGE('',*,*,#653,.T.);
#845=ORIENTED_EDGE('',*,*,#656,.T.);
#846=ORIENTED_EDGE('',*,*,#659,.T.);
#847=ORIENTED_EDGE('',*,*,#662,.T.);
#848=ORIENTED_EDGE('',*,*,#641,.F.);
#849=ORIENTED_EDGE('',*,*,#637,.F.);
#850=ORIENTED_EDGE('',*,*,#664,.F.);
#851=ORIENTED_EDGE('',*,*,#665,.F.);
#852=ORIENTED_EDGE('',*,*,#666,.F.);
#853=ORIENTED_EDGE('',*,*,#667,.F.);
#854=ORIENTED_EDGE('',*,*,#645,.T.);
#855=ORIENTED_EDGE('',*,*,#663,.T.);
#856=ORIENTED_EDGE('',*,*,#660,.T.);
#857=ORIENTED_EDGE('',*,*,#657,.T.);
#858=ORIENTED_EDGE('',*,*,#654,.T.);
#859=ORIENTED_EDGE('',*,*,#651,.T.);
#860=ORIENTED_EDGE('',*,*,#648,.T.);
#861=ORIENTED_EDGE('',*,*,#634,.T.);
#862=ORIENTED_EDGE('',*,*,#668,.F.);
#863=ORIENTED_EDGE('',*,*,#633,.T.);
#864=ORIENTED_EDGE('',*,*,#638,.T.);
#865=ORIENTED_EDGE('',*,*,#667,.T.);
#866=ORIENTED_EDGE('',*,*,#669,.F.);
#867=ORIENTED_EDGE('',*,*,#630,.T.);
#868=ORIENTED_EDGE('',*,*,#669,.T.);
#869=ORIENTED_EDGE('',*,*,#666,.T.);
#870=ORIENTED_EDGE('',*,*,#670,.F.);
#871=ORIENTED_EDGE('',*,*,#631,.T.);
#872=ORIENTED_EDGE('',*,*,#670,.T.);
#873=ORIENTED_EDGE('',*,*,#665,.T.);
#874=ORIENTED_EDGE('',*,*,#671,.F.);
#875=ORIENTED_EDGE('',*,*,#639,.F.);
#876=ORIENTED_EDGE('',*,*,#626,.T.);
#877=ORIENTED_EDGE('',*,*,#664,.T.);
#878=ORIENTED_EDGE('',*,*,#636,.F.);
#879=ORIENTED_EDGE('',*,*,#640,.F.);
#880=ORIENTED_EDGE('',*,*,#671,.T.);
#881=ORIENTED_EDGE('',*,*,#642,.T.);
#882=ORIENTED_EDGE('',*,*,#668,.T.);
#883=ORIENTED_EDGE('',*,*,#672,.F.);
#884=ORIENTED_EDGE('',*,*,#673,.T.);
#885=ORIENTED_EDGE('',*,*,#674,.F.);
#886=ORIENTED_EDGE('',*,*,#675,.F.);
#887=ORIENTED_EDGE('',*,*,#676,.F.);
#888=ORIENTED_EDGE('',*,*,#675,.T.);
#889=ORIENTED_EDGE('',*,*,#677,.F.);
#890=ORIENTED_EDGE('',*,*,#678,.F.);
#891=ORIENTED_EDGE('',*,*,#679,.F.);
#892=ORIENTED_EDGE('',*,*,#678,.T.);
#893=ORIENTED_EDGE('',*,*,#680,.F.);
#894=ORIENTED_EDGE('',*,*,#681,.F.);
#895=ORIENTED_EDGE('',*,*,#682,.F.);
#896=ORIENTED_EDGE('',*,*,#681,.T.);
#897=ORIENTED_EDGE('',*,*,#683,.F.);
#898=ORIENTED_EDGE('',*,*,#684,.F.);
#899=ORIENTED_EDGE('',*,*,#685,.F.);
#900=ORIENTED_EDGE('',*,*,#684,.T.);
#901=ORIENTED_EDGE('',*,*,#686,.F.);
#902=ORIENTED_EDGE('',*,*,#687,.F.);
#903=ORIENTED_EDGE('',*,*,#688,.F.);
#904=ORIENTED_EDGE('',*,*,#687,.T.);
#905=ORIENTED_EDGE('',*,*,#689,.F.);
#906=ORIENTED_EDGE('',*,*,#690,.F.);
#907=ORIENTED_EDGE('',*,*,#691,.F.);
#908=ORIENTED_EDGE('',*,*,#690,.T.);
#909=ORIENTED_EDGE('',*,*,#692,.F.);
#910=ORIENTED_EDGE('',*,*,#693,.F.);
#911=ORIENTED_EDGE('',*,*,#694,.F.);
#912=ORIENTED_EDGE('',*,*,#693,.T.);
#913=ORIENTED_EDGE('',*,*,#695,.F.);
#914=ORIENTED_EDGE('',*,*,#673,.F.);
#915=ORIENTED_EDGE('',*,*,#694,.T.);
#916=ORIENTED_EDGE('',*,*,#672,.T.);
#917=ORIENTED_EDGE('',*,*,#676,.T.);
#918=ORIENTED_EDGE('',*,*,#679,.T.);
#919=ORIENTED_EDGE('',*,*,#682,.T.);
#920=ORIENTED_EDGE('',*,*,#685,.T.);
#921=ORIENTED_EDGE('',*,*,#688,.T.);
#922=ORIENTED_EDGE('',*,*,#691,.T.);
#923=ORIENTED_EDGE('',*,*,#695,.T.);
#924=ORIENTED_EDGE('',*,*,#692,.T.);
#925=ORIENTED_EDGE('',*,*,#689,.T.);
#926=ORIENTED_EDGE('',*,*,#686,.T.);
#927=ORIENTED_EDGE('',*,*,#683,.T.);
#928=ORIENTED_EDGE('',*,*,#680,.T.);
#929=ORIENTED_EDGE('',*,*,#677,.T.);
#930=ORIENTED_EDGE('',*,*,#674,.T.);
#931=ORIENTED_EDGE('',*,*,#696,.F.);
#932=ORIENTED_EDGE('',*,*,#697,.T.);
#933=ORIENTED_EDGE('',*,*,#698,.F.);
#934=ORIENTED_EDGE('',*,*,#699,.F.);
#935=ORIENTED_EDGE('',*,*,#700,.F.);
#936=ORIENTED_EDGE('',*,*,#699,.T.);
#937=ORIENTED_EDGE('',*,*,#701,.F.);
#938=ORIENTED_EDGE('',*,*,#702,.F.);
#939=ORIENTED_EDGE('',*,*,#703,.F.);
#940=ORIENTED_EDGE('',*,*,#702,.T.);
#941=ORIENTED_EDGE('',*,*,#704,.F.);
#942=ORIENTED_EDGE('',*,*,#705,.F.);
#943=ORIENTED_EDGE('',*,*,#706,.F.);
#944=ORIENTED_EDGE('',*,*,#705,.T.);
#945=ORIENTED_EDGE('',*,*,#707,.F.);
#946=ORIENTED_EDGE('',*,*,#708,.F.);
#947=ORIENTED_EDGE('',*,*,#709,.F.);
#948=ORIENTED_EDGE('',*,*,#708,.T.);
#949=ORIENTED_EDGE('',*,*,#710,.F.);
#950=ORIENTED_EDGE('',*,*,#711,.F.);
#951=ORIENTED_EDGE('',*,*,#712,.F.);
#952=ORIENTED_EDGE('',*,*,#711,.T.);
#953=ORIENTED_EDGE('',*,*,#713,.F.);
#954=ORIENTED_EDGE('',*,*,#714,.F.);
#955=ORIENTED_EDGE('',*,*,#715,.F.);
#956=ORIENTED_EDGE('',*,*,#714,.T.);
#957=ORIENTED_EDGE('',*,*,#716,.F.);
#958=ORIENTED_EDGE('',*,*,#717,.F.);
#959=ORIENTED_EDGE('',*,*,#718,.F.);
#960=ORIENTED_EDGE('',*,*,#717,.T.);
#961=ORIENTED_EDGE('',*,*,#719,.F.);
#962=ORIENTED_EDGE('',*,*,#697,.F.);
#963=ORIENTED_EDGE('',*,*,#718,.T.);
#964=ORIENTED_EDGE('',*,*,#696,.T.);
#965=ORIENTED_EDGE('',*,*,#700,.T.);
#966=ORIENTED_EDGE('',*,*,#703,.T.);
#967=ORIENTED_EDGE('',*,*,#706,.T.);
#968=ORIENTED_EDGE('',*,*,#709,.T.);
#969=ORIENTED_EDGE('',*,*,#712,.T.);
#970=ORIENTED_EDGE('',*,*,#715,.T.);
#971=ORIENTED_EDGE('',*,*,#719,.T.);
#972=ORIENTED_EDGE('',*,*,#716,.T.);
#973=ORIENTED_EDGE('',*,*,#713,.T.);
#974=ORIENTED_EDGE('',*,*,#710,.T.);
#975=ORIENTED_EDGE('',*,*,#707,.T.);
#976=ORIENTED_EDGE('',*,*,#704,.T.);
#977=ORIENTED_EDGE('',*,*,#701,.T.);
#978=ORIENTED_EDGE('',*,*,#698,.T.);
#979=ORIENTED_EDGE('',*,*,#720,.F.);
#980=ORIENTED_EDGE('',*,*,#721,.T.);
#981=ORIENTED_EDGE('',*,*,#722,.F.);
#982=ORIENTED_EDGE('',*,*,#723,.F.);
#983=ORIENTED_EDGE('',*,*,#724,.F.);
#984=ORIENTED_EDGE('',*,*,#723,.T.);
#985=ORIENTED_EDGE('',*,*,#725,.F.);
#986=ORIENTED_EDGE('',*,*,#726,.F.);
#987=ORIENTED_EDGE('',*,*,#727,.F.);
#988=ORIENTED_EDGE('',*,*,#726,.T.);
#989=ORIENTED_EDGE('',*,*,#728,.F.);
#990=ORIENTED_EDGE('',*,*,#729,.F.);
#991=ORIENTED_EDGE('',*,*,#730,.F.);
#992=ORIENTED_EDGE('',*,*,#729,.T.);
#993=ORIENTED_EDGE('',*,*,#731,.F.);
#994=ORIENTED_EDGE('',*,*,#732,.F.);
#995=ORIENTED_EDGE('',*,*,#733,.F.);
#996=ORIENTED_EDGE('',*,*,#732,.T.);
#997=ORIENTED_EDGE('',*,*,#734,.F.);
#998=ORIENTED_EDGE('',*,*,#735,.F.);
#999=ORIENTED_EDGE('',*,*,#736,.F.);
#1000=ORIENTED_EDGE('',*,*,#735,.T.);
#1001=ORIENTED_EDGE('',*,*,#737,.F.);
#1002=ORIENTED_EDGE('',*,*,#738,.F.);
#1003=ORIENTED_EDGE('',*,*,#739,.F.);
#1004=ORIENTED_EDGE('',*,*,#738,.T.);
#1005=ORIENTED_EDGE('',*,*,#740,.F.);
#1006=ORIENTED_EDGE('',*,*,#741,.F.);
#1007=ORIENTED_EDGE('',*,*,#742,.F.);
#1008=ORIENTED_EDGE('',*,*,#741,.T.);
#1009=ORIENTED_EDGE('',*,*,#743,.F.);
#1010=ORIENTED_EDGE('',*,*,#721,.F.);
#1011=ORIENTED_EDGE('',*,*,#742,.T.);
#1012=ORIENTED_EDGE('',*,*,#720,.T.);
#1013=ORIENTED_EDGE('',*,*,#724,.T.);
#1014=ORIENTED_EDGE('',*,*,#727,.T.);
#1015=ORIENTED_EDGE('',*,*,#730,.T.);
#1016=ORIENTED_EDGE('',*,*,#733,.T.);
#1017=ORIENTED_EDGE('',*,*,#736,.T.);
#1018=ORIENTED_EDGE('',*,*,#739,.T.);
#1019=ORIENTED_EDGE('',*,*,#743,.T.);
#1020=ORIENTED_EDGE('',*,*,#740,.T.);
#1021=ORIENTED_EDGE('',*,*,#737,.T.);
#1022=ORIENTED_EDGE('',*,*,#734,.T.);
#1023=ORIENTED_EDGE('',*,*,#731,.T.);
#1024=ORIENTED_EDGE('',*,*,#728,.T.);
#1025=ORIENTED_EDGE('',*,*,#725,.T.);
#1026=ORIENTED_EDGE('',*,*,#722,.T.);
#1027=ORIENTED_EDGE('',*,*,#744,.F.);
#1028=ORIENTED_EDGE('',*,*,#745,.T.);
#1029=ORIENTED_EDGE('',*,*,#746,.F.);
#1030=ORIENTED_EDGE('',*,*,#747,.F.);
#1031=ORIENTED_EDGE('',*,*,#748,.F.);
#1032=ORIENTED_EDGE('',*,*,#747,.T.);
#1033=ORIENTED_EDGE('',*,*,#749,.F.);
#1034=ORIENTED_EDGE('',*,*,#750,.F.);
#1035=ORIENTED_EDGE('',*,*,#751,.F.);
#1036=ORIENTED_EDGE('',*,*,#750,.T.);
#1037=ORIENTED_EDGE('',*,*,#752,.F.);
#1038=ORIENTED_EDGE('',*,*,#753,.F.);
#1039=ORIENTED_EDGE('',*,*,#754,.F.);
#1040=ORIENTED_EDGE('',*,*,#753,.T.);
#1041=ORIENTED_EDGE('',*,*,#755,.F.);
#1042=ORIENTED_EDGE('',*,*,#756,.F.);
#1043=ORIENTED_EDGE('',*,*,#757,.F.);
#1044=ORIENTED_EDGE('',*,*,#756,.T.);
#1045=ORIENTED_EDGE('',*,*,#758,.F.);
#1046=ORIENTED_EDGE('',*,*,#759,.F.);
#1047=ORIENTED_EDGE('',*,*,#760,.F.);
#1048=ORIENTED_EDGE('',*,*,#759,.T.);
#1049=ORIENTED_EDGE('',*,*,#761,.F.);
#1050=ORIENTED_EDGE('',*,*,#762,.F.);
#1051=ORIENTED_EDGE('',*,*,#763,.F.);
#1052=ORIENTED_EDGE('',*,*,#762,.T.);
#1053=ORIENTED_EDGE('',*,*,#764,.F.);
#1054=ORIENTED_EDGE('',*,*,#765,.F.);
#1055=ORIENTED_EDGE('',*,*,#766,.F.);
#1056=ORIENTED_EDGE('',*,*,#765,.T.);
#1057=ORIENTED_EDGE('',*,*,#767,.F.);
#1058=ORIENTED_EDGE('',*,*,#745,.F.);
#1059=ORIENTED_EDGE('',*,*,#766,.T.);
#1060=ORIENTED_EDGE('',*,*,#744,.T.);
#1061=ORIENTED_EDGE('',*,*,#748,.T.);
#1062=ORIENTED_EDGE('',*,*,#751,.T.);
#1063=ORIENTED_EDGE('',*,*,#754,.T.);
#1064=ORIENTED_EDGE('',*,*,#757,.T.);
#1065=ORIENTED_EDGE('',*,*,#760,.T.);
#1066=ORIENTED_EDGE('',*,*,#763,.T.);
#1067=ORIENTED_EDGE('',*,*,#767,.T.);
#1068=ORIENTED_EDGE('',*,*,#764,.T.);
#1069=ORIENTED_EDGE('',*,*,#761,.T.);
#1070=ORIENTED_EDGE('',*,*,#758,.T.);
#1071=ORIENTED_EDGE('',*,*,#755,.T.);
#1072=ORIENTED_EDGE('',*,*,#752,.T.);
#1073=ORIENTED_EDGE('',*,*,#749,.T.);
#1074=ORIENTED_EDGE('',*,*,#746,.T.);
#1075=ORIENTED_EDGE('',*,*,#768,.F.);
#1076=ORIENTED_EDGE('',*,*,#769,.F.);
#1077=ORIENTED_EDGE('',*,*,#770,.T.);
#1078=ORIENTED_EDGE('',*,*,#771,.F.);
#1079=ORIENTED_EDGE('',*,*,#772,.F.);
#1080=ORIENTED_EDGE('',*,*,#773,.T.);
#1081=ORIENTED_EDGE('',*,*,#774,.T.);
#1082=ORIENTED_EDGE('',*,*,#775,.F.);
#1083=ORIENTED_EDGE('',*,*,#776,.F.);
#1084=ORIENTED_EDGE('',*,*,#771,.T.);
#1085=ORIENTED_EDGE('',*,*,#777,.T.);
#1086=ORIENTED_EDGE('',*,*,#778,.F.);
#1087=ORIENTED_EDGE('',*,*,#779,.F.);
#1088=ORIENTED_EDGE('',*,*,#775,.T.);
#1089=ORIENTED_EDGE('',*,*,#780,.T.);
#1090=ORIENTED_EDGE('',*,*,#781,.F.);
#1091=ORIENTED_EDGE('',*,*,#782,.F.);
#1092=ORIENTED_EDGE('',*,*,#778,.T.);
#1093=ORIENTED_EDGE('',*,*,#783,.T.);
#1094=ORIENTED_EDGE('',*,*,#784,.F.);
#1095=ORIENTED_EDGE('',*,*,#785,.F.);
#1096=ORIENTED_EDGE('',*,*,#781,.T.);
#1097=ORIENTED_EDGE('',*,*,#786,.T.);
#1098=ORIENTED_EDGE('',*,*,#787,.F.);
#1099=ORIENTED_EDGE('',*,*,#788,.F.);
#1100=ORIENTED_EDGE('',*,*,#784,.T.);
#1101=ORIENTED_EDGE('',*,*,#789,.T.);
#1102=ORIENTED_EDGE('',*,*,#773,.F.);
#1103=ORIENTED_EDGE('',*,*,#790,.F.);
#1104=ORIENTED_EDGE('',*,*,#787,.T.);
#1105=ORIENTED_EDGE('',*,*,#770,.F.);
#1106=ORIENTED_EDGE('',*,*,#789,.F.);
#1107=ORIENTED_EDGE('',*,*,#786,.F.);
#1108=ORIENTED_EDGE('',*,*,#783,.F.);
#1109=ORIENTED_EDGE('',*,*,#780,.F.);
#1110=ORIENTED_EDGE('',*,*,#777,.F.);
#1111=ORIENTED_EDGE('',*,*,#774,.F.);
#1112=ORIENTED_EDGE('',*,*,#768,.T.);
#1113=ORIENTED_EDGE('',*,*,#790,.T.);
#1114=ORIENTED_EDGE('',*,*,#772,.T.);
#1115=ORIENTED_EDGE('',*,*,#776,.T.);
#1116=ORIENTED_EDGE('',*,*,#779,.T.);
#1117=ORIENTED_EDGE('',*,*,#782,.T.);
#1118=ORIENTED_EDGE('',*,*,#785,.T.);
#1119=ORIENTED_EDGE('',*,*,#788,.T.);
#1120=ORIENTED_EDGE('',*,*,#769,.T.);
#1121=PLANE('',#1265);
#1122=PLANE('',#1266);
#1123=PLANE('',#1268);
#1124=PLANE('',#1269);
#1125=PLANE('',#1273);
#1126=PLANE('',#1274);
#1127=PLANE('',#1275);
#1128=PLANE('',#1276);
#1129=PLANE('',#1277);
#1130=PLANE('',#1278);
#1131=PLANE('',#1279);
#1132=PLANE('',#1280);
#1133=PLANE('',#1281);
#1134=PLANE('',#1284);
#1135=PLANE('',#1285);
#1136=PLANE('',#1286);
#1137=PLANE('',#1287);
#1138=PLANE('',#1288);
#1139=PLANE('',#1289);
#1140=PLANE('',#1290);
#1141=PLANE('',#1291);
#1142=PLANE('',#1292);
#1143=PLANE('',#1293);
#1144=PLANE('',#1294);
#1145=PLANE('',#1295);
#1146=PLANE('',#1296);
#1147=PLANE('',#1297);
#1148=PLANE('',#1298);
#1149=PLANE('',#1299);
#1150=PLANE('',#1300);
#1151=PLANE('',#1301);
#1152=PLANE('',#1302);
#1153=PLANE('',#1303);
#1154=PLANE('',#1304);
#1155=PLANE('',#1305);
#1156=PLANE('',#1306);
#1157=PLANE('',#1307);
#1158=PLANE('',#1308);
#1159=PLANE('',#1309);
#1160=PLANE('',#1310);
#1161=PLANE('',#1311);
#1162=PLANE('',#1312);
#1163=PLANE('',#1313);
#1164=PLANE('',#1314);
#1165=PLANE('',#1315);
#1166=PLANE('',#1316);
#1167=PLANE('',#1317);
#1168=PLANE('',#1318);
#1169=PLANE('',#1319);
#1170=PLANE('',#1320);
#1171=PLANE('',#1321);
#1172=PLANE('',#1322);
#1173=PLANE('',#1323);
#1174=PLANE('',#1324);
#1175=PLANE('',#1325);
#1176=PLANE('',#1326);
#1177=PLANE('',#1327);
#1178=PLANE('',#1328);
#1179=PLANE('',#1332);
#1180=PLANE('',#1333);
#1181=PLANE('',#1334);
#1182=PLANE('',#1335);
#1183=PLANE('',#1336);
#1184=PLANE('',#1337);
#1185=PLANE('',#1338);
#1186=PLANE('',#1339);
#1187=PLANE('',#1340);
#1188=ADVANCED_FACE('',(#47),#1121,.F.);
#1189=ADVANCED_FACE('',(#48,#32),#1122,.F.);
#1190=ADVANCED_FACE('',(#49),#1123,.T.);
#1191=ADVANCED_FACE('',(#50),#1124,.F.);
#1192=ADVANCED_FACE('',(#51,#33),#29,.T.);
#1193=ADVANCED_FACE('',(#52),#1125,.F.);
#1194=ADVANCED_FACE('',(#53),#1126,.F.);
#1195=ADVANCED_FACE('',(#54),#1127,.F.);
#1196=ADVANCED_FACE('',(#55),#1128,.F.);
#1197=ADVANCED_FACE('',(#56),#1129,.F.);
#1198=ADVANCED_FACE('',(#57),#1130,.F.);
#1199=ADVANCED_FACE('',(#58),#1131,.F.);
#1200=ADVANCED_FACE('',(#59,#34),#1132,.T.);
#1201=ADVANCED_FACE('',(#60,#35),#1133,.T.);
#1202=ADVANCED_FACE('',(#61,#36),#30,.F.);
#1203=ADVANCED_FACE('',(#62),#1134,.T.);
#1204=ADVANCED_FACE('',(#63),#1135,.T.);
#1205=ADVANCED_FACE('',(#64),#1136,.T.);
#1206=ADVANCED_FACE('',(#65),#1137,.T.);
#1207=ADVANCED_FACE('',(#66,#37),#1138,.T.);
#1208=ADVANCED_FACE('',(#67),#1139,.T.);
#1209=ADVANCED_FACE('',(#68),#1140,.T.);
#1210=ADVANCED_FACE('',(#69),#1141,.T.);
#1211=ADVANCED_FACE('',(#70),#1142,.T.);
#1212=ADVANCED_FACE('',(#71),#1143,.T.);
#1213=ADVANCED_FACE('',(#72),#1144,.T.);
#1214=ADVANCED_FACE('',(#73),#1145,.T.);
#1215=ADVANCED_FACE('',(#74),#1146,.T.);
#1216=ADVANCED_FACE('',(#75),#1147,.T.);
#1217=ADVANCED_FACE('',(#76),#1148,.T.);
#1218=ADVANCED_FACE('',(#77),#1149,.T.);
#1219=ADVANCED_FACE('',(#78),#1150,.T.);
#1220=ADVANCED_FACE('',(#79),#1151,.T.);
#1221=ADVANCED_FACE('',(#80),#1152,.T.);
#1222=ADVANCED_FACE('',(#81),#1153,.T.);
#1223=ADVANCED_FACE('',(#82),#1154,.T.);
#1224=ADVANCED_FACE('',(#83),#1155,.T.);
#1225=ADVANCED_FACE('',(#84),#1156,.T.);
#1226=ADVANCED_FACE('',(#85),#1157,.T.);
#1227=ADVANCED_FACE('',(#86),#1158,.T.);
#1228=ADVANCED_FACE('',(#87),#1159,.T.);
#1229=ADVANCED_FACE('',(#88),#1160,.T.);
#1230=ADVANCED_FACE('',(#89),#1161,.T.);
#1231=ADVANCED_FACE('',(#90),#1162,.T.);
#1232=ADVANCED_FACE('',(#91),#1163,.T.);
#1233=ADVANCED_FACE('',(#92),#1164,.T.);
#1234=ADVANCED_FACE('',(#93),#1165,.T.);
#1235=ADVANCED_FACE('',(#94),#1166,.T.);
#1236=ADVANCED_FACE('',(#95),#1167,.T.);
#1237=ADVANCED_FACE('',(#96),#1168,.T.);
#1238=ADVANCED_FACE('',(#97),#1169,.T.);
#1239=ADVANCED_FACE('',(#98),#1170,.T.);
#1240=ADVANCED_FACE('',(#99),#1171,.T.);
#1241=ADVANCED_FACE('',(#100),#1172,.T.);
#1242=ADVANCED_FACE('',(#101),#1173,.T.);
#1243=ADVANCED_FACE('',(#102),#1174,.T.);
#1244=ADVANCED_FACE('',(#103),#1175,.T.);
#1245=ADVANCED_FACE('',(#104),#1176,.T.);
#1246=ADVANCED_FACE('',(#105),#1177,.T.);
#1247=ADVANCED_FACE('',(#106),#1178,.T.);
#1248=ADVANCED_FACE('',(#107,#38),#31,.F.);
#1249=ADVANCED_FACE('',(#108),#1179,.T.);
#1250=ADVANCED_FACE('',(#109),#1180,.T.);
#1251=ADVANCED_FACE('',(#110),#1181,.T.);
#1252=ADVANCED_FACE('',(#111),#1182,.T.);
#1253=ADVANCED_FACE('',(#112),#1183,.T.);
#1254=ADVANCED_FACE('',(#113),#1184,.T.);
#1255=ADVANCED_FACE('',(#114),#1185,.T.);
#1256=ADVANCED_FACE('',(#115,#39),#1186,.F.);
#1257=ADVANCED_FACE('',(#116,#40),#1187,.T.);
#1258=CLOSED_SHELL('',(#1188,#1189,#1190,#1191,#1192,#1193,#1194,#1195,
#1196,#1197,#1198,#1199,#1200,#1201,#1202,#1203,#1204,#1205,#1206,#1207));
#1259=CLOSED_SHELL('',(#1208,#1209,#1210,#1211,#1212,#1213,#1214,#1215,
#1216,#1217));
#1260=CLOSED_SHELL('',(#1218,#1219,#1220,#1221,#1222,#1223,#1224,#1225,
#1226,#1227));
#1261=CLOSED_SHELL('',(#1228,#1229,#1230,#1231,#1232,#1233,#1234,#1235,
#1236,#1237));
#1262=CLOSED_SHELL('',(#1238,#1239,#1240,#1241,#1242,#1243,#1244,#1245,
#1246,#1247));
#1263=CLOSED_SHELL('',(#1248,#1249,#1250,#1251,#1252,#1253,#1254,#1255,
#1256,#1257));
#1264=AXIS2_PLACEMENT_3D('placement',#1654,#1341,#1342);
#1265=AXIS2_PLACEMENT_3D('',#1655,#1343,#1344);
#1266=AXIS2_PLACEMENT_3D('',#1664,#1349,#1350);
#1267=AXIS2_PLACEMENT_3D('',#1673,#1355,#1356);
#1268=AXIS2_PLACEMENT_3D('',#1674,#1357,#1358);
#1269=AXIS2_PLACEMENT_3D('',#1682,#1363,#1364);
#1270=AXIS2_PLACEMENT_3D('',#1686,#1367,#1368);
#1271=AXIS2_PLACEMENT_3D('',#1688,#1369,#1370);
#1272=AXIS2_PLACEMENT_3D('',#1690,#1371,#1372);
#1273=AXIS2_PLACEMENT_3D('',#1691,#1373,#1374);
#1274=AXIS2_PLACEMENT_3D('',#1700,#1379,#1380);
#1275=AXIS2_PLACEMENT_3D('',#1706,#1384,#1385);
#1276=AXIS2_PLACEMENT_3D('',#1712,#1389,#1390);
#1277=AXIS2_PLACEMENT_3D('',#1718,#1394,#1395);
#1278=AXIS2_PLACEMENT_3D('',#1724,#1399,#1400);
#1279=AXIS2_PLACEMENT_3D('',#1730,#1404,#1405);
#1280=AXIS2_PLACEMENT_3D('',#1733,#1408,#1409);
#1281=AXIS2_PLACEMENT_3D('',#1734,#1410,#1411);
#1282=AXIS2_PLACEMENT_3D('',#1742,#1416,#1417);
#1283=AXIS2_PLACEMENT_3D('',#1744,#1418,#1419);
#1284=AXIS2_PLACEMENT_3D('',#1745,#1420,#1421);
#1285=AXIS2_PLACEMENT_3D('',#1747,#1423,#1424);
#1286=AXIS2_PLACEMENT_3D('',#1749,#1426,#1427);
#1287=AXIS2_PLACEMENT_3D('',#1751,#1429,#1430);
#1288=AXIS2_PLACEMENT_3D('',#1752,#1431,#1432);
#1289=AXIS2_PLACEMENT_3D('',#1753,#1433,#1434);
#1290=AXIS2_PLACEMENT_3D('',#1762,#1439,#1440);
#1291=AXIS2_PLACEMENT_3D('',#1768,#1444,#1445);
#1292=AXIS2_PLACEMENT_3D('',#1774,#1449,#1450);
#1293=AXIS2_PLACEMENT_3D('',#1780,#1454,#1455);
#1294=AXIS2_PLACEMENT_3D('',#1786,#1459,#1460);
#1295=AXIS2_PLACEMENT_3D('',#1792,#1464,#1465);
#1296=AXIS2_PLACEMENT_3D('',#1798,#1469,#1470);
#1297=AXIS2_PLACEMENT_3D('',#1801,#1473,#1474);
#1298=AXIS2_PLACEMENT_3D('',#1802,#1475,#1476);
#1299=AXIS2_PLACEMENT_3D('',#1803,#1477,#1478);
#1300=AXIS2_PLACEMENT_3D('',#1812,#1483,#1484);
#1301=AXIS2_PLACEMENT_3D('',#1818,#1488,#1489);
#1302=AXIS2_PLACEMENT_3D('',#1824,#1493,#1494);
#1303=AXIS2_PLACEMENT_3D('',#1830,#1498,#1499);
#1304=AXIS2_PLACEMENT_3D('',#1836,#1503,#1504);
#1305=AXIS2_PLACEMENT_3D('',#1842,#1508,#1509);
#1306=AXIS2_PLACEMENT_3D('',#1848,#1513,#1514);
#1307=AXIS2_PLACEMENT_3D('',#1851,#1517,#1518);
#1308=AXIS2_PLACEMENT_3D('',#1852,#1519,#1520);
#1309=AXIS2_PLACEMENT_3D('',#1853,#1521,#1522);
#1310=AXIS2_PLACEMENT_3D('',#1862,#1527,#1528);
#1311=AXIS2_PLACEMENT_3D('',#1868,#1532,#1533);
#1312=AXIS2_PLACEMENT_3D('',#1874,#1537,#1538);
#1313=AXIS2_PLACEMENT_3D('',#1880,#1542,#1543);
#1314=AXIS2_PLACEMENT_3D('',#1886,#1547,#1548);
#1315=AXIS2_PLACEMENT_3D('',#1892,#1552,#1553);
#1316=AXIS2_PLACEMENT_3D('',#1898,#1557,#1558);
#1317=AXIS2_PLACEMENT_3D('',#1901,#1561,#1562);
#1318=AXIS2_PLACEMENT_3D('',#1902,#1563,#1564);
#1319=AXIS2_PLACEMENT_3D('',#1903,#1565,#1566);
#1320=AXIS2_PLACEMENT_3D('',#1912,#1571,#1572);
#1321=AXIS2_PLACEMENT_3D('',#1918,#1576,#1577);
#1322=AXIS2_PLACEMENT_3D('',#1924,#1581,#1582);
#1323=AXIS2_PLACEMENT_3D('',#1930,#1586,#1587);
#1324=AXIS2_PLACEMENT_3D('',#1936,#1591,#1592);
#1325=AXIS2_PLACEMENT_3D('',#1942,#1596,#1597);
#1326=AXIS2_PLACEMENT_3D('',#1948,#1601,#1602);
#1327=AXIS2_PLACEMENT_3D('',#1951,#1605,#1606);
#1328=AXIS2_PLACEMENT_3D('',#1952,#1607,#1608);
#1329=AXIS2_PLACEMENT_3D('',#1953,#1609,#1610);
#1330=AXIS2_PLACEMENT_3D('',#1955,#1611,#1612);
#1331=AXIS2_PLACEMENT_3D('',#1957,#1613,#1614);
#1332=AXIS2_PLACEMENT_3D('',#1958,#1615,#1616);
#1333=AXIS2_PLACEMENT_3D('',#1967,#1621,#1622);
#1334=AXIS2_PLACEMENT_3D('',#1973,#1626,#1627);
#1335=AXIS2_PLACEMENT_3D('',#1979,#1631,#1632);
#1336=AXIS2_PLACEMENT_3D('',#1985,#1636,#1637);
#1337=AXIS2_PLACEMENT_3D('',#1991,#1641,#1642);
#1338=AXIS2_PLACEMENT_3D('',#1997,#1646,#1647);
#1339=AXIS2_PLACEMENT_3D('',#2000,#1650,#1651);
#1340=AXIS2_PLACEMENT_3D('',#2001,#1652,#1653);
#1341=DIRECTION('axis',(0.,0.,1.));
#1342=DIRECTION('refdir',(1.,0.,0.));
#1343=DIRECTION('center_axis',(0.,0.866025403784438,-0.500000000000002));
#1344=DIRECTION('ref_axis',(-1.,0.,0.));
#1345=DIRECTION('',(3.55692520024705E-16,0.500000000000002,0.866025403784438));
#1346=DIRECTION('',(-1.,0.,0.));
#1347=DIRECTION('',(0.,-0.500000000000002,-0.866025403784438));
#1348=DIRECTION('',(-1.,0.,0.));
#1349=DIRECTION('center_axis',(0.,1.,0.));
#1350=DIRECTION('ref_axis',(0.,0.,1.));
#1351=DIRECTION('',(0.707106781186547,0.,0.707106781186548));
#1352=DIRECTION('',(4.1071834437E-16,0.,1.));
#1353=DIRECTION('',(0.,0.,-1.));
#1354=DIRECTION('',(1.,0.,0.));
#1355=DIRECTION('center_axis',(0.,-1.,0.));
#1356=DIRECTION('ref_axis',(1.,0.,0.));
#1357=DIRECTION('center_axis',(1.,0.,0.));
#1358=DIRECTION('ref_axis',(0.,0.,-1.));
#1359=DIRECTION('',(0.,0.,1.));
#1360=DIRECTION('',(0.,1.,0.));
#1361=DIRECTION('',(0.,0.,1.));
#1362=DIRECTION('',(0.,1.,0.));
#1363=DIRECTION('center_axis',(0.,1.,0.));
#1364=DIRECTION('ref_axis',(0.,0.,1.));
#1365=DIRECTION('',(-4.1071834437E-16,0.,-1.));
#1366=DIRECTION('',(1.,0.,0.));
#1367=DIRECTION('center_axis',(0.,-1.,0.));
#1368=DIRECTION('ref_axis',(-1.,0.,0.));
#1369=DIRECTION('center_axis',(7.61365155141421E-32,1.,1.60053982139865E-31));
#1370=DIRECTION('ref_axis',(-1.,0.,0.));
#1371=DIRECTION('center_axis',(0.,1.,0.));
#1372=DIRECTION('ref_axis',(-1.,0.,0.));
#1373=DIRECTION('center_axis',(0.,0.,1.));
#1374=DIRECTION('ref_axis',(1.,0.,0.));
#1375=DIRECTION('',(1.,0.,0.));
#1376=DIRECTION('',(0.,-1.,0.));
#1377=DIRECTION('',(-1.,0.,0.));
#1378=DIRECTION('',(0.,-1.,0.));
#1379=DIRECTION('center_axis',(0.707106781186549,0.,0.707106781186546));
#1380=DIRECTION('ref_axis',(0.707106781186546,0.,-0.707106781186549));
#1381=DIRECTION('',(0.707106781186546,0.,-0.707106781186549));
#1382=DIRECTION('',(-0.707106781186546,0.,0.707106781186549));
#1383=DIRECTION('',(0.,-1.,0.));
#1384=DIRECTION('center_axis',(1.,0.,5.77207746352642E-16));
#1385=DIRECTION('ref_axis',(0.,0.,-1.));
#1386=DIRECTION('',(5.77207746352642E-16,0.,-1.));
#1387=DIRECTION('',(-5.77207746352642E-16,0.,1.));
#1388=DIRECTION('',(0.,-1.,0.));
#1389=DIRECTION('center_axis',(0.707106781186548,0.,-0.707106781186548));
#1390=DIRECTION('ref_axis',(-0.707106781186548,0.,-0.707106781186548));
#1391=DIRECTION('',(-0.707106781186548,0.,-0.707106781186548));
#1392=DIRECTION('',(0.707106781186548,0.,0.707106781186548));
#1393=DIRECTION('',(0.,-1.,0.));
#1394=DIRECTION('center_axis',(-1.43486012875626E-16,0.,-1.));
#1395=DIRECTION('ref_axis',(-1.,0.,0.));
#1396=DIRECTION('',(-1.,0.,1.43486012875626E-16));
#1397=DIRECTION('',(1.,0.,-1.43486012875626E-16));
#1398=DIRECTION('',(0.,-1.,0.));
#1399=DIRECTION('center_axis',(-1.,0.,-2.53946653238063E-16));
#1400=DIRECTION('ref_axis',(0.,0.,1.));
#1401=DIRECTION('',(-2.53946653238063E-16,0.,1.));
#1402=DIRECTION('',(2.53946653238063E-16,0.,-1.));
#1403=DIRECTION('',(0.,-1.,0.));
#1404=DIRECTION('center_axis',(-0.707106781186548,0.,0.707106781186547));
#1405=DIRECTION('ref_axis',(0.707106781186547,0.,0.707106781186548));
#1406=DIRECTION('',(0.707106781186547,0.,0.707106781186548));
#1407=DIRECTION('',(-0.707106781186547,0.,-0.707106781186548));
#1408=DIRECTION('center_axis',(7.61365155141421E-32,1.,1.60053982139865E-31));
#1409=DIRECTION('ref_axis',(0.,0.,1.));
#1410=DIRECTION('center_axis',(0.,1.,0.));
#1411=DIRECTION('ref_axis',(0.,0.,1.));
#1412=DIRECTION('',(1.,0.,0.));
#1413=DIRECTION('',(-4.1071834437E-16,0.,-1.));
#1414=DIRECTION('',(-0.707106781186547,0.,-0.707106781186548));
#1415=DIRECTION('',(-1.,0.,0.));
#1416=DIRECTION('center_axis',(0.,1.,0.));
#1417=DIRECTION('ref_axis',(1.,0.,0.));
#1418=DIRECTION('center_axis',(0.,-1.,0.));
#1419=DIRECTION('ref_axis',(1.,0.,0.));
#1420=DIRECTION('center_axis',(0.,0.,1.));
#1421=DIRECTION('ref_axis',(1.,0.,0.));
#1422=DIRECTION('',(0.,1.,0.));
#1423=DIRECTION('center_axis',(-0.707106781186548,0.,0.707106781186547));
#1424=DIRECTION('ref_axis',(0.707106781186546,0.,0.707106781186549));
#1425=DIRECTION('',(0.,1.,0.));
#1426=DIRECTION('center_axis',(-1.,0.,4.1071834437E-16));
#1427=DIRECTION('ref_axis',(0.,0.,1.));
#1428=DIRECTION('',(0.,1.,0.));
#1429=DIRECTION('center_axis',(0.,0.,-1.));
#1430=DIRECTION('ref_axis',(-1.,0.,0.));
#1431=DIRECTION('center_axis',(0.,1.,0.));
#1432=DIRECTION('ref_axis',(0.,0.,1.));
#1433=DIRECTION('center_axis',(0.,0.,-1.));
#1434=DIRECTION('ref_axis',(1.,0.,0.));
#1435=DIRECTION('',(-1.,0.,0.));
#1436=DIRECTION('',(0.,-1.,0.));
#1437=DIRECTION('',(1.,0.,0.));
#1438=DIRECTION('',(0.,-1.,0.));
#1439=DIRECTION('center_axis',(-1.,0.,0.));
#1440=DIRECTION('ref_axis',(0.,0.,-1.));
#1441=DIRECTION('',(0.,0.,1.));
#1442=DIRECTION('',(0.,0.,-1.));
#1443=DIRECTION('',(0.,-1.,0.));
#1444=DIRECTION('center_axis',(0.,0.,1.));
#1445=DIRECTION('ref_axis',(-1.,0.,0.));
#1446=DIRECTION('',(1.,0.,0.));
#1447=DIRECTION('',(-1.,0.,0.));
#1448=DIRECTION('',(0.,-1.,0.));
#1449=DIRECTION('center_axis',(1.,0.,0.));
#1450=DIRECTION('ref_axis',(0.,0.,1.));
#1451=DIRECTION('',(0.,0.,-1.));
#1452=DIRECTION('',(0.,0.,1.));
#1453=DIRECTION('',(0.,-1.,0.));
#1454=DIRECTION('center_axis',(0.,0.,-1.));
#1455=DIRECTION('ref_axis',(1.,0.,0.));
#1456=DIRECTION('',(-1.,0.,0.));
#1457=DIRECTION('',(1.,0.,0.));
#1458=DIRECTION('',(0.,-1.,0.));
#1459=DIRECTION('center_axis',(1.,0.,0.));
#1460=DIRECTION('ref_axis',(0.,0.,1.));
#1461=DIRECTION('',(0.,0.,-1.));
#1462=DIRECTION('',(0.,0.,1.));
#1463=DIRECTION('',(0.,-1.,0.));
#1464=DIRECTION('center_axis',(0.,0.,-1.));
#1465=DIRECTION('ref_axis',(1.,0.,0.));
#1466=DIRECTION('',(-1.,0.,0.));
#1467=DIRECTION('',(1.,0.,0.));
#1468=DIRECTION('',(0.,-1.,0.));
#1469=DIRECTION('center_axis',(-1.,0.,0.));
#1470=DIRECTION('ref_axis',(0.,0.,-1.));
#1471=DIRECTION('',(0.,0.,1.));
#1472=DIRECTION('',(0.,0.,-1.));
#1473=DIRECTION('center_axis',(0.,1.,0.));
#1474=DIRECTION('ref_axis',(0.,0.,1.));
#1475=DIRECTION('center_axis',(0.,-1.,0.));
#1476=DIRECTION('ref_axis',(0.,0.,-1.));
#1477=DIRECTION('center_axis',(0.,0.,-1.));
#1478=DIRECTION('ref_axis',(1.,0.,0.));
#1479=DIRECTION('',(-1.,0.,0.));
#1480=DIRECTION('',(0.,-1.,0.));
#1481=DIRECTION('',(1.,0.,0.));
#1482=DIRECTION('',(0.,-1.,0.));
#1483=DIRECTION('center_axis',(-1.,0.,0.));
#1484=DIRECTION('ref_axis',(0.,0.,-1.));
#1485=DIRECTION('',(0.,0.,1.));
#1486=DIRECTION('',(0.,0.,-1.));
#1487=DIRECTION('',(0.,-1.,0.));
#1488=DIRECTION('center_axis',(0.,0.,1.));
#1489=DIRECTION('ref_axis',(-1.,0.,0.));
#1490=DIRECTION('',(1.,0.,0.));
#1491=DIRECTION('',(-1.,0.,0.));
#1492=DIRECTION('',(0.,-1.,0.));
#1493=DIRECTION('center_axis',(1.,0.,0.));
#1494=DIRECTION('ref_axis',(0.,0.,1.));
#1495=DIRECTION('',(0.,0.,-1.));
#1496=DIRECTION('',(0.,0.,1.));
#1497=DIRECTION('',(0.,-1.,0.));
#1498=DIRECTION('center_axis',(0.,0.,-1.));
#1499=DIRECTION('ref_axis',(1.,0.,0.));
#1500=DIRECTION('',(-1.,0.,0.));
#1501=DIRECTION('',(1.,0.,0.));
#1502=DIRECTION('',(0.,-1.,0.));
#1503=DIRECTION('center_axis',(1.,0.,0.));
#1504=DIRECTION('ref_axis',(0.,0.,1.));
#1505=DIRECTION('',(0.,0.,-1.));
#1506=DIRECTION('',(0.,0.,1.));
#1507=DIRECTION('',(0.,-1.,0.));
#1508=DIRECTION('center_axis',(0.,0.,-1.));
#1509=DIRECTION('ref_axis',(1.,0.,0.));
#1510=DIRECTION('',(-1.,0.,0.));
#1511=DIRECTION('',(1.,0.,0.));
#1512=DIRECTION('',(0.,-1.,0.));
#1513=DIRECTION('center_axis',(-1.,0.,0.));
#1514=DIRECTION('ref_axis',(0.,0.,-1.));
#1515=DIRECTION('',(0.,0.,1.));
#1516=DIRECTION('',(0.,0.,-1.));
#1517=DIRECTION('center_axis',(0.,1.,0.));
#1518=DIRECTION('ref_axis',(0.,0.,1.));
#1519=DIRECTION('center_axis',(0.,-1.,0.));
#1520=DIRECTION('ref_axis',(0.,0.,-1.));
#1521=DIRECTION('center_axis',(0.,0.,-1.));
#1522=DIRECTION('ref_axis',(1.,0.,0.));
#1523=DIRECTION('',(-1.,0.,0.));
#1524=DIRECTION('',(0.,-1.,0.));
#1525=DIRECTION('',(1.,0.,0.));
#1526=DIRECTION('',(0.,-1.,0.));
#1527=DIRECTION('center_axis',(-1.,0.,0.));
#1528=DIRECTION('ref_axis',(0.,0.,-1.));
#1529=DIRECTION('',(0.,0.,1.));
#1530=DIRECTION('',(0.,0.,-1.));
#1531=DIRECTION('',(0.,-1.,0.));
#1532=DIRECTION('center_axis',(0.,0.,1.));
#1533=DIRECTION('ref_axis',(-1.,0.,0.));
#1534=DIRECTION('',(1.,0.,0.));
#1535=DIRECTION('',(-1.,0.,0.));
#1536=DIRECTION('',(0.,-1.,0.));
#1537=DIRECTION('center_axis',(1.,0.,0.));
#1538=DIRECTION('ref_axis',(0.,0.,1.));
#1539=DIRECTION('',(0.,0.,-1.));
#1540=DIRECTION('',(0.,0.,1.));
#1541=DIRECTION('',(0.,-1.,0.));
#1542=DIRECTION('center_axis',(0.,0.,-1.));
#1543=DIRECTION('ref_axis',(1.,0.,0.));
#1544=DIRECTION('',(-1.,0.,0.));
#1545=DIRECTION('',(1.,0.,0.));
#1546=DIRECTION('',(0.,-1.,0.));
#1547=DIRECTION('center_axis',(1.,0.,0.));
#1548=DIRECTION('ref_axis',(0.,0.,1.));
#1549=DIRECTION('',(0.,0.,-1.));
#1550=DIRECTION('',(0.,0.,1.));
#1551=DIRECTION('',(0.,-1.,0.));
#1552=DIRECTION('center_axis',(0.,0.,-1.));
#1553=DIRECTION('ref_axis',(1.,0.,0.));
#1554=DIRECTION('',(-1.,0.,0.));
#1555=DIRECTION('',(1.,0.,0.));
#1556=DIRECTION('',(0.,-1.,0.));
#1557=DIRECTION('center_axis',(-1.,0.,0.));
#1558=DIRECTION('ref_axis',(0.,0.,-1.));
#1559=DIRECTION('',(0.,0.,1.));
#1560=DIRECTION('',(0.,0.,-1.));
#1561=DIRECTION('center_axis',(0.,1.,0.));
#1562=DIRECTION('ref_axis',(0.,0.,1.));
#1563=DIRECTION('center_axis',(0.,-1.,0.));
#1564=DIRECTION('ref_axis',(0.,0.,-1.));
#1565=DIRECTION('center_axis',(0.,0.,-1.));
#1566=DIRECTION('ref_axis',(1.,0.,0.));
#1567=DIRECTION('',(-1.,0.,0.));
#1568=DIRECTION('',(0.,-1.,0.));
#1569=DIRECTION('',(1.,0.,0.));
#1570=DIRECTION('',(0.,-1.,0.));
#1571=DIRECTION('center_axis',(-1.,0.,0.));
#1572=DIRECTION('ref_axis',(0.,0.,-1.));
#1573=DIRECTION('',(0.,0.,1.));
#1574=DIRECTION('',(0.,0.,-1.));
#1575=DIRECTION('',(0.,-1.,0.));
#1576=DIRECTION('center_axis',(0.,0.,1.));
#1577=DIRECTION('ref_axis',(-1.,0.,0.));
#1578=DIRECTION('',(1.,0.,0.));
#1579=DIRECTION('',(-1.,0.,0.));
#1580=DIRECTION('',(0.,-1.,0.));
#1581=DIRECTION('center_axis',(1.,0.,0.));
#1582=DIRECTION('ref_axis',(0.,0.,1.));
#1583=DIRECTION('',(0.,0.,-1.));
#1584=DIRECTION('',(0.,0.,1.));
#1585=DIRECTION('',(0.,-1.,0.));
#1586=DIRECTION('center_axis',(0.,0.,-1.));
#1587=DIRECTION('ref_axis',(1.,0.,0.));
#1588=DIRECTION('',(-1.,0.,0.));
#1589=DIRECTION('',(1.,0.,0.));
#1590=DIRECTION('',(0.,-1.,0.));
#1591=DIRECTION('center_axis',(1.,0.,0.));
#1592=DIRECTION('ref_axis',(0.,0.,1.));
#1593=DIRECTION('',(0.,0.,-1.));
#1594=DIRECTION('',(0.,0.,1.));
#1595=DIRECTION('',(0.,-1.,0.));
#1596=DIRECTION('center_axis',(0.,0.,-1.));
#1597=DIRECTION('ref_axis',(1.,0.,0.));
#1598=DIRECTION('',(-1.,0.,0.));
#1599=DIRECTION('',(1.,0.,0.));
#1600=DIRECTION('',(0.,-1.,0.));
#1601=DIRECTION('center_axis',(-1.,0.,0.));
#1602=DIRECTION('ref_axis',(0.,0.,-1.));
#1603=DIRECTION('',(0.,0.,1.));
#1604=DIRECTION('',(0.,0.,-1.));
#1605=DIRECTION('center_axis',(0.,1.,0.));
#1606=DIRECTION('ref_axis',(0.,0.,1.));
#1607=DIRECTION('center_axis',(0.,-1.,0.));
#1608=DIRECTION('ref_axis',(0.,0.,-1.));
#1609=DIRECTION('center_axis',(0.,-1.,0.));
#1610=DIRECTION('ref_axis',(-1.,0.,0.));
#1611=DIRECTION('center_axis',(7.61365155141421E-32,1.,1.60053982139865E-31));
#1612=DIRECTION('ref_axis',(-1.,0.,0.));
#1613=DIRECTION('center_axis',(-6.36472137001004E-31,-1.,-1.42122913835468E-31));
#1614=DIRECTION('ref_axis',(-1.,0.,0.));
#1615=DIRECTION('center_axis',(0.,0.,1.));
#1616=DIRECTION('ref_axis',(1.,0.,0.));
#1617=DIRECTION('',(1.,0.,0.));
#1618=DIRECTION('',(0.,-1.,0.));
#1619=DIRECTION('',(1.,0.,0.));
#1620=DIRECTION('',(0.,-1.,0.));
#1621=DIRECTION('center_axis',(0.707106781186549,0.,0.707106781186546));
#1622=DIRECTION('ref_axis',(0.707106781186546,0.,-0.707106781186549));
#1623=DIRECTION('',(0.707106781186546,0.,-0.707106781186549));
#1624=DIRECTION('',(0.,-1.,0.));
#1625=DIRECTION('',(0.707106781186546,0.,-0.707106781186549));
#1626=DIRECTION('center_axis',(1.,0.,5.77207746352642E-16));
#1627=DIRECTION('ref_axis',(0.,0.,-1.));
#1628=DIRECTION('',(5.77207746352642E-16,0.,-1.));
#1629=DIRECTION('',(0.,-1.,0.));
#1630=DIRECTION('',(5.77207746352642E-16,0.,-1.));
#1631=DIRECTION('center_axis',(0.707106781186548,0.,-0.707106781186548));
#1632=DIRECTION('ref_axis',(-0.707106781186548,0.,-0.707106781186548));
#1633=DIRECTION('',(-0.707106781186548,0.,-0.707106781186548));
#1634=DIRECTION('',(0.,-1.,0.));
#1635=DIRECTION('',(-0.707106781186548,0.,-0.707106781186548));
#1636=DIRECTION('center_axis',(-1.43486012875626E-16,0.,-1.));
#1637=DIRECTION('ref_axis',(-1.,0.,0.));
#1638=DIRECTION('',(-1.,0.,1.43486012875626E-16));
#1639=DIRECTION('',(0.,-1.,0.));
#1640=DIRECTION('',(-1.,0.,1.43486012875626E-16));
#1641=DIRECTION('center_axis',(-1.,0.,-2.53946653238063E-16));
#1642=DIRECTION('ref_axis',(0.,0.,1.));
#1643=DIRECTION('',(-2.53946653238063E-16,0.,1.));
#1644=DIRECTION('',(0.,-1.,0.));
#1645=DIRECTION('',(-2.53946653238063E-16,0.,1.));
#1646=DIRECTION('center_axis',(-0.707106781186548,0.,0.707106781186547));
#1647=DIRECTION('ref_axis',(0.707106781186547,0.,0.707106781186548));
#1648=DIRECTION('',(0.707106781186547,0.,0.707106781186548));
#1649=DIRECTION('',(0.707106781186547,0.,0.707106781186548));
#1650=DIRECTION('center_axis',(7.61365155141421E-32,1.,1.60053982139865E-31));
#1651=DIRECTION('ref_axis',(0.,0.,1.));
#1652=DIRECTION('center_axis',(6.36472137001004E-31,1.,1.42122913835468E-31));
#1653=DIRECTION('ref_axis',(0.,0.,1.));
#1654=CARTESIAN_POINT('',(0.,0.,0.));
#1655=CARTESIAN_POINT('Origin',(15.15,-1.85,8.48038476));
#1656=CARTESIAN_POINT('',(-15.15,-1.55,9.00000000227067));
#1657=CARTESIAN_POINT('',(-15.15,-0.550000000000004,10.7320508098395));
#1658=CARTESIAN_POINT('',(-15.15,0.813028116637157,13.09288476));
#1659=CARTESIAN_POINT('',(15.15,-1.55,9.00000000227067));
#1660=CARTESIAN_POINT('',(7.71823812412854,-1.55,9.00000000227067));
#1661=CARTESIAN_POINT('',(15.15,-0.550000000000004,10.7320508098395));
#1662=CARTESIAN_POINT('',(15.15,-2.93253175473055,6.60538476));
#1663=CARTESIAN_POINT('',(15.15,-0.550000000000004,10.7320508098395));
#1664=CARTESIAN_POINT('Origin',(15.15,-0.550000000000004,11.2516660498395));
#1665=CARTESIAN_POINT('',(-15.15,-0.550000000000004,21.3));
#1666=CARTESIAN_POINT('',(-12.15,-0.550000000000004,24.3));
#1667=CARTESIAN_POINT('',(-8.58708348754014,-0.550000000000004,27.8629165124599));
#1668=CARTESIAN_POINT('',(-15.15,-0.550000000000004,16.2758330249198));
#1669=CARTESIAN_POINT('',(15.15,-0.550000000000004,24.3));
#1670=CARTESIAN_POINT('',(15.15,-0.550000000000004,7.62583302491976));
#1671=CARTESIAN_POINT('',(15.15,-0.550000000000004,24.3));
#1672=CARTESIAN_POINT('',(-1.85,-0.550000000000004,15.));
#1673=CARTESIAN_POINT('Origin',(0.,-0.550000000000004,15.));
#1674=CARTESIAN_POINT('Origin',(15.15,-1.85,4.));
#1675=CARTESIAN_POINT('',(15.15,-1.55,4.));
#1676=CARTESIAN_POINT('',(15.15,-1.55,4.));
#1677=CARTESIAN_POINT('',(15.15,3.25,4.));
#1678=CARTESIAN_POINT('',(15.15,-1.85,4.));
#1679=CARTESIAN_POINT('',(15.15,3.25,24.3));
#1680=CARTESIAN_POINT('',(15.15,3.25,4.));
#1681=CARTESIAN_POINT('',(15.15,-1.85,24.3));
#1682=CARTESIAN_POINT('Origin',(0.286476248257067,-1.55,13.9518842025887));
#1683=CARTESIAN_POINT('',(-15.15,-1.55,4.));
#1684=CARTESIAN_POINT('',(-15.15,-1.55,21.3));
#1685=CARTESIAN_POINT('',(-15.15,-1.55,4.));
#1686=CARTESIAN_POINT('Origin',(0.,3.25,15.));
#1687=CARTESIAN_POINT('',(-2.72,2.25,15.));
#1688=CARTESIAN_POINT('Origin',(0.,2.25,15.));
#1689=CARTESIAN_POINT('',(-2.72,3.25,15.));
#1690=CARTESIAN_POINT('Origin',(0.,3.25,15.));
#1691=CARTESIAN_POINT('Origin',(-10.83,3.25,22.06));
#1692=CARTESIAN_POINT('',(-10.83,2.25,22.06));
#1693=CARTESIAN_POINT('',(10.8299999999999,2.25,22.06));
#1694=CARTESIAN_POINT('',(-10.83,2.25,22.06));
#1695=CARTESIAN_POINT('',(-10.83,3.25,22.06));
#1696=CARTESIAN_POINT('',(-10.83,3.25,22.06));
#1697=CARTESIAN_POINT('',(10.8299999999999,3.25,22.06));
#1698=CARTESIAN_POINT('',(-5.27176187587147,3.25,22.06));
#1699=CARTESIAN_POINT('',(10.8299999999999,3.25,22.06));
#1700=CARTESIAN_POINT('Origin',(10.8299999999999,3.25,22.06));
#1701=CARTESIAN_POINT('',(13.22,2.25,19.67));
#1702=CARTESIAN_POINT('',(10.8299999999999,2.25,22.06));
#1703=CARTESIAN_POINT('',(13.22,3.25,19.67));
#1704=CARTESIAN_POINT('',(10.2211480114171,3.25,22.6688519885829));
#1705=CARTESIAN_POINT('',(13.22,3.25,19.67));
#1706=CARTESIAN_POINT('Origin',(13.22,3.25,19.67));
#1707=CARTESIAN_POINT('',(13.22,2.25,7.36));
#1708=CARTESIAN_POINT('',(13.22,2.25,19.67));
#1709=CARTESIAN_POINT('',(13.22,3.25,7.36));
#1710=CARTESIAN_POINT('',(13.22,3.25,16.8109421012943));
#1711=CARTESIAN_POINT('',(13.22,3.25,7.36));
#1712=CARTESIAN_POINT('Origin',(13.22,3.25,7.36));
#1713=CARTESIAN_POINT('',(11.54,2.25,5.68));
#1714=CARTESIAN_POINT('',(13.22,2.25,7.36));
#1715=CARTESIAN_POINT('',(11.54,3.25,5.68));
#1716=CARTESIAN_POINT('',(11.6345901127114,3.25,5.77459011271144));
#1717=CARTESIAN_POINT('',(11.54,3.25,5.68));
#1718=CARTESIAN_POINT('Origin',(11.54,3.25,5.68));
#1719=CARTESIAN_POINT('',(-13.22,2.25,5.68));
#1720=CARTESIAN_POINT('',(11.54,2.25,5.68));
#1721=CARTESIAN_POINT('',(-13.22,3.25,5.68));
#1722=CARTESIAN_POINT('',(5.91323812412852,3.25,5.68));
#1723=CARTESIAN_POINT('',(-13.22,3.25,5.68));
#1724=CARTESIAN_POINT('Origin',(-13.22,3.25,5.68));
#1725=CARTESIAN_POINT('',(-13.22,2.25,19.67));
#1726=CARTESIAN_POINT('',(-13.22,2.25,5.68));
#1727=CARTESIAN_POINT('',(-13.22,3.25,19.67));
#1728=CARTESIAN_POINT('',(-13.22,3.25,9.81594210129433));
#1729=CARTESIAN_POINT('',(-13.22,3.25,19.67));
#1730=CARTESIAN_POINT('Origin',(-13.22,3.25,19.67));
#1731=CARTESIAN_POINT('',(-13.22,2.25,19.67));
#1732=CARTESIAN_POINT('',(-11.2729098872886,3.25,21.6170901127114));
#1733=CARTESIAN_POINT('Origin',(-0.166080074802579,2.25,13.6665444234256));
#1734=CARTESIAN_POINT('Origin',(0.286476248257067,3.25,13.9518842025887));
#1735=CARTESIAN_POINT('',(-15.15,3.25,4.));
#1736=CARTESIAN_POINT('',(-15.15,3.25,4.));
#1737=CARTESIAN_POINT('',(-15.15,3.25,21.3));
#1738=CARTESIAN_POINT('',(-15.15,3.25,21.3));
#1739=CARTESIAN_POINT('',(-12.15,3.25,24.3));
#1740=CARTESIAN_POINT('',(-12.15,3.25,24.3));
#1741=CARTESIAN_POINT('',(15.15,3.25,24.3));
#1742=CARTESIAN_POINT('Origin',(0.,-1.85,15.));
#1743=CARTESIAN_POINT('',(1.85,3.25,15.));
#1744=CARTESIAN_POINT('Origin',(0.,3.25,15.));
#1745=CARTESIAN_POINT('Origin',(15.15,-1.85,24.3));
#1746=CARTESIAN_POINT('',(-12.15,-1.85,24.3));
#1747=CARTESIAN_POINT('Origin',(-12.15,-1.85,24.3));
#1748=CARTESIAN_POINT('',(-15.15,-1.85,21.3));
#1749=CARTESIAN_POINT('Origin',(-15.15,-1.85,21.3));
#1750=CARTESIAN_POINT('',(-15.15,-1.85,4.));
#1751=CARTESIAN_POINT('Origin',(-15.15,-1.85,4.));
#1752=CARTESIAN_POINT('Origin',(0.286476248257067,3.25,13.9518842025887));
#1753=CARTESIAN_POINT('Origin',(-13.5,0.350000000000002,0.));
#1754=CARTESIAN_POINT('',(-13.05,0.350000000000002,0.));
#1755=CARTESIAN_POINT('',(-13.5,0.350000000000002,0.));
#1756=CARTESIAN_POINT('',(-13.05,0.350000000000002,0.));
#1757=CARTESIAN_POINT('',(-13.05,-0.349999999999998,0.));
#1758=CARTESIAN_POINT('',(-13.05,0.350000000000002,0.));
#1759=CARTESIAN_POINT('',(-13.5,-0.349999999999998,0.));
#1760=CARTESIAN_POINT('',(-13.05,-0.349999999999998,0.));
#1761=CARTESIAN_POINT('',(-13.5,0.350000000000002,0.));
#1762=CARTESIAN_POINT('Origin',(-13.5,0.350000000000002,4.));
#1763=CARTESIAN_POINT('',(-13.5,0.350000000000002,4.));
#1764=CARTESIAN_POINT('',(-13.5,0.350000000000002,0.));
#1765=CARTESIAN_POINT('',(-13.5,-0.349999999999998,4.));
#1766=CARTESIAN_POINT('',(-13.5,-0.349999999999998,0.));
#1767=CARTESIAN_POINT('',(-13.5,0.350000000000002,4.));
#1768=CARTESIAN_POINT('Origin',(-11.5,0.350000000000002,4.));
#1769=CARTESIAN_POINT('',(-11.5,0.350000000000002,4.));
#1770=CARTESIAN_POINT('',(-13.5,0.350000000000002,4.));
#1771=CARTESIAN_POINT('',(-11.5,-0.349999999999998,4.));
#1772=CARTESIAN_POINT('',(-13.5,-0.349999999999998,4.));
#1773=CARTESIAN_POINT('',(-11.5,0.350000000000002,4.));
#1774=CARTESIAN_POINT('Origin',(-11.5,0.350000000000002,0.));
#1775=CARTESIAN_POINT('',(-11.5,0.350000000000002,0.));
#1776=CARTESIAN_POINT('',(-11.5,0.350000000000002,4.));
#1777=CARTESIAN_POINT('',(-11.5,-0.349999999999998,0.));
#1778=CARTESIAN_POINT('',(-11.5,-0.349999999999998,4.));
#1779=CARTESIAN_POINT('',(-11.5,0.350000000000002,0.));
#1780=CARTESIAN_POINT('Origin',(-11.95,0.350000000000002,0.));
#1781=CARTESIAN_POINT('',(-11.95,0.350000000000002,0.));
#1782=CARTESIAN_POINT('',(-11.5,0.350000000000002,0.));
#1783=CARTESIAN_POINT('',(-11.95,-0.349999999999998,0.));
#1784=CARTESIAN_POINT('',(-11.5,-0.349999999999998,0.));
#1785=CARTESIAN_POINT('',(-11.95,0.350000000000002,0.));
#1786=CARTESIAN_POINT('Origin',(-11.95,0.350000000000002,-9.));
#1787=CARTESIAN_POINT('',(-11.95,0.350000000000002,-3.6));
#1788=CARTESIAN_POINT('',(-11.95,0.350000000000002,0.));
#1789=CARTESIAN_POINT('',(-11.95,-0.349999999999998,-3.6));
#1790=CARTESIAN_POINT('',(-11.95,-0.349999999999998,0.));
#1791=CARTESIAN_POINT('',(-11.95,0.350000000000002,-3.6));
#1792=CARTESIAN_POINT('Origin',(-13.05,0.350000000000002,-3.6));
#1793=CARTESIAN_POINT('',(-13.05,0.350000000000002,-3.6));
#1794=CARTESIAN_POINT('',(-11.95,0.350000000000002,-3.6));
#1795=CARTESIAN_POINT('',(-13.05,-0.349999999999998,-3.6));
#1796=CARTESIAN_POINT('',(-11.95,-0.349999999999998,-3.6));
#1797=CARTESIAN_POINT('',(-13.05,0.350000000000002,-3.6));
#1798=CARTESIAN_POINT('Origin',(-13.05,0.350000000000002,0.));
#1799=CARTESIAN_POINT('',(-13.05,0.350000000000002,-9.));
#1800=CARTESIAN_POINT('',(-13.05,-0.349999999999998,-9.));
#1801=CARTESIAN_POINT('Origin',(-12.5,0.350000000000002,-2.23));
#1802=CARTESIAN_POINT('Origin',(-12.5,-0.349999999999998,-2.23));
#1803=CARTESIAN_POINT('Origin',(-3.49999999999999,0.350000000000002,0.));
#1804=CARTESIAN_POINT('',(-3.04999999999999,0.350000000000002,0.));
#1805=CARTESIAN_POINT('',(-3.49999999999999,0.350000000000002,0.));
#1806=CARTESIAN_POINT('',(-3.04999999999999,0.350000000000002,0.));
#1807=CARTESIAN_POINT('',(-3.04999999999999,-0.349999999999998,0.));
#1808=CARTESIAN_POINT('',(-3.04999999999999,0.350000000000002,0.));
#1809=CARTESIAN_POINT('',(-3.49999999999999,-0.349999999999998,0.));
#1810=CARTESIAN_POINT('',(-3.04999999999999,-0.349999999999998,0.));
#1811=CARTESIAN_POINT('',(-3.49999999999999,0.350000000000002,0.));
#1812=CARTESIAN_POINT('Origin',(-3.49999999999999,0.350000000000002,4.));
#1813=CARTESIAN_POINT('',(-3.49999999999999,0.350000000000002,4.));
#1814=CARTESIAN_POINT('',(-3.49999999999999,0.350000000000002,5.4));
#1815=CARTESIAN_POINT('',(-3.49999999999999,-0.349999999999998,4.));
#1816=CARTESIAN_POINT('',(-3.49999999999999,-0.349999999999998,0.));
#1817=CARTESIAN_POINT('',(-3.49999999999999,0.350000000000002,4.));
#1818=CARTESIAN_POINT('Origin',(-1.49999999999999,0.350000000000002,4.));
#1819=CARTESIAN_POINT('',(-1.49999999999999,0.350000000000002,4.));
#1820=CARTESIAN_POINT('',(-3.49999999999999,0.350000000000002,4.));
#1821=CARTESIAN_POINT('',(-1.49999999999999,-0.349999999999998,4.));
#1822=CARTESIAN_POINT('',(-3.49999999999999,-0.349999999999998,4.));
#1823=CARTESIAN_POINT('',(-1.49999999999999,0.350000000000002,4.));
#1824=CARTESIAN_POINT('Origin',(-1.49999999999999,0.350000000000002,0.));
#1825=CARTESIAN_POINT('',(-1.49999999999999,0.350000000000002,0.));
#1826=CARTESIAN_POINT('',(-1.49999999999999,0.350000000000002,9.4));
#1827=CARTESIAN_POINT('',(-1.49999999999999,-0.349999999999998,0.));
#1828=CARTESIAN_POINT('',(-1.49999999999999,-0.349999999999998,4.));
#1829=CARTESIAN_POINT('',(-1.49999999999999,0.350000000000002,0.));
#1830=CARTESIAN_POINT('Origin',(-1.94999999999999,0.350000000000002,0.));
#1831=CARTESIAN_POINT('',(-1.94999999999999,0.350000000000002,0.));
#1832=CARTESIAN_POINT('',(-1.49999999999999,0.350000000000002,0.));
#1833=CARTESIAN_POINT('',(-1.94999999999999,-0.349999999999998,0.));
#1834=CARTESIAN_POINT('',(-1.49999999999999,-0.349999999999998,0.));
#1835=CARTESIAN_POINT('',(-1.94999999999999,0.350000000000002,0.));
#1836=CARTESIAN_POINT('Origin',(-1.94999999999999,0.350000000000002,-9.));
#1837=CARTESIAN_POINT('',(-1.94999999999999,0.350000000000002,-3.6));
#1838=CARTESIAN_POINT('',(-1.94999999999999,0.350000000000002,5.4));
#1839=CARTESIAN_POINT('',(-1.94999999999999,-0.349999999999998,-3.6));
#1840=CARTESIAN_POINT('',(-1.94999999999999,-0.349999999999998,0.));
#1841=CARTESIAN_POINT('',(-1.94999999999999,0.350000000000002,-3.6));
#1842=CARTESIAN_POINT('Origin',(-3.04999999999999,0.350000000000002,-3.6));
#1843=CARTESIAN_POINT('',(-3.04999999999999,0.350000000000002,-3.6));
#1844=CARTESIAN_POINT('',(-1.94999999999999,0.350000000000002,-3.6));
#1845=CARTESIAN_POINT('',(-3.04999999999999,-0.349999999999998,-3.6));
#1846=CARTESIAN_POINT('',(-1.94999999999999,-0.349999999999998,-3.6));
#1847=CARTESIAN_POINT('',(-3.04999999999999,0.350000000000002,-3.6));
#1848=CARTESIAN_POINT('Origin',(-3.04999999999999,0.350000000000002,0.));
#1849=CARTESIAN_POINT('',(-3.04999999999999,0.350000000000002,-3.6));
#1850=CARTESIAN_POINT('',(-3.04999999999999,-0.349999999999998,-9.));
#1851=CARTESIAN_POINT('Origin',(-2.49999999999999,0.350000000000002,3.16999999999999));
#1852=CARTESIAN_POINT('Origin',(-2.49999999999999,-0.349999999999998,-2.23));
#1853=CARTESIAN_POINT('Origin',(4.,0.350000000000002,0.));
#1854=CARTESIAN_POINT('',(4.45,0.350000000000002,0.));
#1855=CARTESIAN_POINT('',(4.,0.350000000000002,0.));
#1856=CARTESIAN_POINT('',(4.45,0.350000000000002,0.));
#1857=CARTESIAN_POINT('',(4.45,-0.349999999999998,0.));
#1858=CARTESIAN_POINT('',(4.45,0.350000000000002,0.));
#1859=CARTESIAN_POINT('',(4.,-0.349999999999998,0.));
#1860=CARTESIAN_POINT('',(4.45,-0.349999999999998,0.));
#1861=CARTESIAN_POINT('',(4.,0.350000000000002,0.));
#1862=CARTESIAN_POINT('Origin',(4.,0.350000000000002,4.));
#1863=CARTESIAN_POINT('',(4.,0.350000000000002,4.));
#1864=CARTESIAN_POINT('',(4.,0.350000000000002,0.));
#1865=CARTESIAN_POINT('',(4.,-0.349999999999998,4.));
#1866=CARTESIAN_POINT('',(4.,-0.349999999999998,0.));
#1867=CARTESIAN_POINT('',(4.,0.350000000000002,4.));
#1868=CARTESIAN_POINT('Origin',(6.,0.350000000000002,4.));
#1869=CARTESIAN_POINT('',(6.,0.350000000000002,4.));
#1870=CARTESIAN_POINT('',(4.,0.350000000000002,4.));
#1871=CARTESIAN_POINT('',(6.,-0.349999999999998,4.));
#1872=CARTESIAN_POINT('',(4.,-0.349999999999998,4.));
#1873=CARTESIAN_POINT('',(6.,0.350000000000002,4.));
#1874=CARTESIAN_POINT('Origin',(6.,0.350000000000002,0.));
#1875=CARTESIAN_POINT('',(6.,0.350000000000002,0.));
#1876=CARTESIAN_POINT('',(6.,0.350000000000002,4.));
#1877=CARTESIAN_POINT('',(6.,-0.349999999999998,0.));
#1878=CARTESIAN_POINT('',(6.,-0.349999999999998,4.));
#1879=CARTESIAN_POINT('',(6.,0.350000000000002,0.));
#1880=CARTESIAN_POINT('Origin',(5.55,0.350000000000002,0.));
#1881=CARTESIAN_POINT('',(5.55,0.350000000000002,0.));
#1882=CARTESIAN_POINT('',(6.,0.350000000000002,0.));
#1883=CARTESIAN_POINT('',(5.55,-0.349999999999998,0.));
#1884=CARTESIAN_POINT('',(6.,-0.349999999999998,0.));
#1885=CARTESIAN_POINT('',(5.55,0.350000000000002,0.));
#1886=CARTESIAN_POINT('Origin',(5.55,0.350000000000002,-9.));
#1887=CARTESIAN_POINT('',(5.55,0.350000000000002,-3.6));
#1888=CARTESIAN_POINT('',(5.55,0.350000000000002,0.));
#1889=CARTESIAN_POINT('',(5.55,-0.349999999999998,-3.6));
#1890=CARTESIAN_POINT('',(5.55,-0.349999999999998,0.));
#1891=CARTESIAN_POINT('',(5.55,0.350000000000002,-3.6));
#1892=CARTESIAN_POINT('Origin',(4.45,0.350000000000002,-3.6));
#1893=CARTESIAN_POINT('',(4.45,0.350000000000002,-3.6));
#1894=CARTESIAN_POINT('',(5.55,0.350000000000002,-3.6));
#1895=CARTESIAN_POINT('',(4.45,-0.349999999999998,-3.6));
#1896=CARTESIAN_POINT('',(5.55,-0.349999999999998,-3.6));
#1897=CARTESIAN_POINT('',(4.45,0.350000000000002,-3.6));
#1898=CARTESIAN_POINT('Origin',(4.45,0.350000000000002,0.));
#1899=CARTESIAN_POINT('',(4.45,0.350000000000002,-9.));
#1900=CARTESIAN_POINT('',(4.45,-0.349999999999998,-9.));
#1901=CARTESIAN_POINT('Origin',(5.,0.350000000000002,-2.22999999999999));
#1902=CARTESIAN_POINT('Origin',(5.,-0.349999999999998,-2.22999999999999));
#1903=CARTESIAN_POINT('Origin',(11.5,0.350000000000002,0.));
#1904=CARTESIAN_POINT('',(11.95,0.350000000000002,0.));
#1905=CARTESIAN_POINT('',(11.5,0.350000000000002,0.));
#1906=CARTESIAN_POINT('',(11.95,0.350000000000002,0.));
#1907=CARTESIAN_POINT('',(11.95,-0.349999999999998,0.));
#1908=CARTESIAN_POINT('',(11.95,0.350000000000002,0.));
#1909=CARTESIAN_POINT('',(11.5,-0.349999999999998,0.));
#1910=CARTESIAN_POINT('',(11.95,-0.349999999999998,0.));
#1911=CARTESIAN_POINT('',(11.5,0.350000000000002,0.));
#1912=CARTESIAN_POINT('Origin',(11.5,0.350000000000002,4.));
#1913=CARTESIAN_POINT('',(11.5,0.350000000000002,4.));
#1914=CARTESIAN_POINT('',(11.5,0.350000000000002,0.));
#1915=CARTESIAN_POINT('',(11.5,-0.349999999999998,4.));
#1916=CARTESIAN_POINT('',(11.5,-0.349999999999998,0.));
#1917=CARTESIAN_POINT('',(11.5,0.350000000000002,4.));
#1918=CARTESIAN_POINT('Origin',(13.5,0.350000000000002,4.));
#1919=CARTESIAN_POINT('',(13.5,0.350000000000002,4.));
#1920=CARTESIAN_POINT('',(11.5,0.350000000000002,4.));
#1921=CARTESIAN_POINT('',(13.5,-0.349999999999998,4.));
#1922=CARTESIAN_POINT('',(11.5,-0.349999999999998,4.));
#1923=CARTESIAN_POINT('',(13.5,0.350000000000002,4.));
#1924=CARTESIAN_POINT('Origin',(13.5,0.350000000000002,0.));
#1925=CARTESIAN_POINT('',(13.5,0.350000000000002,0.));
#1926=CARTESIAN_POINT('',(13.5,0.350000000000002,4.));
#1927=CARTESIAN_POINT('',(13.5,-0.349999999999998,0.));
#1928=CARTESIAN_POINT('',(13.5,-0.349999999999998,4.));
#1929=CARTESIAN_POINT('',(13.5,0.350000000000002,0.));
#1930=CARTESIAN_POINT('Origin',(13.05,0.350000000000002,0.));
#1931=CARTESIAN_POINT('',(13.05,0.350000000000002,0.));
#1932=CARTESIAN_POINT('',(13.5,0.350000000000002,0.));
#1933=CARTESIAN_POINT('',(13.05,-0.349999999999998,0.));
#1934=CARTESIAN_POINT('',(13.5,-0.349999999999998,0.));
#1935=CARTESIAN_POINT('',(13.05,0.350000000000002,0.));
#1936=CARTESIAN_POINT('Origin',(13.05,0.350000000000002,-9.));
#1937=CARTESIAN_POINT('',(13.05,0.350000000000002,-3.6));
#1938=CARTESIAN_POINT('',(13.05,0.350000000000002,0.));
#1939=CARTESIAN_POINT('',(13.05,-0.349999999999998,-3.6));
#1940=CARTESIAN_POINT('',(13.05,-0.349999999999998,0.));
#1941=CARTESIAN_POINT('',(13.05,0.350000000000002,-3.6));
#1942=CARTESIAN_POINT('Origin',(11.95,0.350000000000002,-3.6));
#1943=CARTESIAN_POINT('',(11.95,0.350000000000002,-3.6));
#1944=CARTESIAN_POINT('',(13.05,0.350000000000002,-3.6));
#1945=CARTESIAN_POINT('',(11.95,-0.349999999999998,-3.6));
#1946=CARTESIAN_POINT('',(13.05,-0.349999999999998,-3.6));
#1947=CARTESIAN_POINT('',(11.95,0.350000000000002,-3.6));
#1948=CARTESIAN_POINT('Origin',(11.95,0.350000000000002,0.));
#1949=CARTESIAN_POINT('',(11.95,0.350000000000002,-9.));
#1950=CARTESIAN_POINT('',(11.95,-0.349999999999998,-9.));
#1951=CARTESIAN_POINT('Origin',(12.5,0.350000000000002,-2.22999999999999));
#1952=CARTESIAN_POINT('Origin',(12.5,-0.349999999999998,-2.22999999999999));
#1953=CARTESIAN_POINT('Origin',(0.,3.25,15.));
#1954=CARTESIAN_POINT('',(-2.72,2.25,15.));
#1955=CARTESIAN_POINT('Origin',(0.,2.25,15.));
#1956=CARTESIAN_POINT('',(-2.72,3.25,15.));
#1957=CARTESIAN_POINT('Origin',(0.,3.25,15.));
#1958=CARTESIAN_POINT('Origin',(-10.83,3.25,22.06));
#1959=CARTESIAN_POINT('',(-10.83,2.25,22.06));
#1960=CARTESIAN_POINT('',(10.8299999999999,2.25,22.06));
#1961=CARTESIAN_POINT('',(-10.83,2.25,22.06));
#1962=CARTESIAN_POINT('',(10.8299999999999,3.25,22.06));
#1963=CARTESIAN_POINT('',(10.8299999999999,3.25,22.06));
#1964=CARTESIAN_POINT('',(-10.83,3.25,22.06));
#1965=CARTESIAN_POINT('',(-10.83,3.25,22.06));
#1966=CARTESIAN_POINT('',(-10.83,3.25,22.06));
#1967=CARTESIAN_POINT('Origin',(10.8299999999999,3.25,22.06));
#1968=CARTESIAN_POINT('',(13.22,2.25,19.67));
#1969=CARTESIAN_POINT('',(10.8299999999999,2.25,22.06));
#1970=CARTESIAN_POINT('',(13.22,3.25,19.67));
#1971=CARTESIAN_POINT('',(13.22,3.25,19.67));
#1972=CARTESIAN_POINT('',(10.8299999999999,3.25,22.06));
#1973=CARTESIAN_POINT('Origin',(13.22,3.25,19.67));
#1974=CARTESIAN_POINT('',(13.22,2.25,7.36));
#1975=CARTESIAN_POINT('',(13.22,2.25,19.67));
#1976=CARTESIAN_POINT('',(13.22,3.25,7.36));
#1977=CARTESIAN_POINT('',(13.22,3.25,7.36));
#1978=CARTESIAN_POINT('',(13.22,3.25,19.67));
#1979=CARTESIAN_POINT('Origin',(13.22,3.25,7.36));
#1980=CARTESIAN_POINT('',(11.54,2.25,5.68));
#1981=CARTESIAN_POINT('',(13.22,2.25,7.36));
#1982=CARTESIAN_POINT('',(11.54,3.25,5.68));
#1983=CARTESIAN_POINT('',(11.54,3.25,5.68));
#1984=CARTESIAN_POINT('',(13.22,3.25,7.36));
#1985=CARTESIAN_POINT('Origin',(11.54,3.25,5.68));
#1986=CARTESIAN_POINT('',(-13.22,2.25,5.68));
#1987=CARTESIAN_POINT('',(11.54,2.25,5.68));
#1988=CARTESIAN_POINT('',(-13.22,3.25,5.68));
#1989=CARTESIAN_POINT('',(-13.22,3.25,5.68));
#1990=CARTESIAN_POINT('',(11.54,3.25,5.68));
#1991=CARTESIAN_POINT('Origin',(-13.22,3.25,5.68));
#1992=CARTESIAN_POINT('',(-13.22,2.25,19.67));
#1993=CARTESIAN_POINT('',(-13.22,2.25,5.68));
#1994=CARTESIAN_POINT('',(-13.22,3.25,19.67));
#1995=CARTESIAN_POINT('',(-13.22,3.25,19.67));
#1996=CARTESIAN_POINT('',(-13.22,3.25,5.68));
#1997=CARTESIAN_POINT('Origin',(-13.22,3.25,19.67));
#1998=CARTESIAN_POINT('',(-13.22,2.25,19.67));
#1999=CARTESIAN_POINT('',(-13.22,3.25,19.67));
#2000=CARTESIAN_POINT('Origin',(-0.166080074802579,2.25,13.6665444234256));
#2001=CARTESIAN_POINT('Origin',(-0.166080074802572,3.25,13.6665444234256));
#2002=UNCERTAINTY_MEASURE_WITH_UNIT(LENGTH_MEASURE(0.01),#2006,
'DISTANCE_ACCURACY_VALUE',
'Maximum model space distance between geometric entities at asserted c
onnectivities');
#2003=UNCERTAINTY_MEASURE_WITH_UNIT(LENGTH_MEASURE(1.E-6),#2006,
'DISTANCE_ACCURACY_VALUE',
'Maximum model space distance between geometric entities at asserted c
onnectivities');
#2004=(
GEOMETRIC_REPRESENTATION_CONTEXT(3)
GLOBAL_UNCERTAINTY_ASSIGNED_CONTEXT((#2002))
GLOBAL_UNIT_ASSIGNED_CONTEXT((#2006,#2008,#2007))
REPRESENTATION_CONTEXT('','3D')
);
#2005=(
GEOMETRIC_REPRESENTATION_CONTEXT(3)
GLOBAL_UNCERTAINTY_ASSIGNED_CONTEXT((#2003))
GLOBAL_UNIT_ASSIGNED_CONTEXT((#2006,#12,#2007))
REPRESENTATION_CONTEXT('','3D')
);
#2006=(
LENGTH_UNIT()
NAMED_UNIT(*)
SI_UNIT(.MILLI.,.METRE.)
);
#2007=(
NAMED_UNIT(*)
SI_UNIT($,.STERADIAN.)
SOLID_ANGLE_UNIT()
);
#2008=(
NAMED_UNIT(*)
PLANE_ANGLE_UNIT()
SI_UNIT($,.RADIAN.)
);
#2009=SHAPE_DEFINITION_REPRESENTATION(#2010,#2011);
#2010=PRODUCT_DEFINITION_SHAPE('',$,#2013);
#2011=SHAPE_REPRESENTATION('',(#1264),#2004);
#2012=PRODUCT_DEFINITION_CONTEXT('part definition',#2017,'design');
#2013=PRODUCT_DEFINITION('Product','Product',#2014,#2012);
#2014=PRODUCT_DEFINITION_FORMATION('',$,#2019);
#2015=PRODUCT_RELATED_PRODUCT_CATEGORY('Product','Product',(#2019));
#2016=APPLICATION_PROTOCOL_DEFINITION('international standard',
'automotive_design',2009,#2017);
#2017=APPLICATION_CONTEXT(
'Core Data for Automotive Mechanical Design Process');
#2018=PRODUCT_CONTEXT('part definition',#2017,'mechanical');
#2019=PRODUCT('Product','Product',$,(#2018));
#2020=PRESENTATION_STYLE_ASSIGNMENT((#2023));
#2021=PRESENTATION_STYLE_ASSIGNMENT((#2024));
#2022=PRESENTATION_STYLE_ASSIGNMENT((#2025));
#2023=SURFACE_STYLE_USAGE(.BOTH.,#2026);
#2024=SURFACE_STYLE_USAGE(.BOTH.,#2027);
#2025=SURFACE_STYLE_USAGE(.BOTH.,#2028);
#2026=SURFACE_SIDE_STYLE('',(#2029));
#2027=SURFACE_SIDE_STYLE('',(#2030));
#2028=SURFACE_SIDE_STYLE('',(#2031));
#2029=SURFACE_STYLE_FILL_AREA(#2032);
#2030=SURFACE_STYLE_FILL_AREA(#2033);
#2031=SURFACE_STYLE_FILL_AREA(#2034);
#2032=FILL_AREA_STYLE('',(#2035));
#2033=FILL_AREA_STYLE('',(#2036));
#2034=FILL_AREA_STYLE('',(#2037));
#2035=FILL_AREA_STYLE_COLOUR('',#2038);
#2036=FILL_AREA_STYLE_COLOUR('',#2039);
#2037=FILL_AREA_STYLE_COLOUR('',#2040);
#2038=COLOUR_RGB('',1.,1.,1.);
#2039=COLOUR_RGB('',0.329411764705882,0.329411764705882,0.329411764705882);
#2040=COLOUR_RGB('',0.749019607843137,0.749019607843137,0.749019607843137);
ENDSEC;
END-ISO-10303-21;
