ISO-10303-21;
HEADER;
/* Generated by software containing ST-Developer
 * from STEP Tools, Inc. (www.steptools.com) 
 */

FILE_DESCRIPTION(
/* description */ (''),
/* implementation_level */ '2;1');

FILE_NAME(
/* name */ 
'G:\\Applications\\Altium\\CernLib\\StepLib\\XFMR_ALSTOM_FIELDTR.stp',
/* time_stamp */ '2017-04-28T13:09:54+02:00',
/* author */ ('riccim'),
/* organization */ (''),
/* preprocessor_version */ 'ST-DEVELOPER v16.5',
/* originating_system */ 'AutoCAD Mechanical',
/* authorisation */ '');

FILE_SCHEMA (('AUTOMOTIVE_DESIGN { 1 0 10303 214 3 1 1 }'));
ENDSEC;

DATA;
#10=MECHANICAL_DESIGN_GEOMETRIC_PRESENTATION_REPRESENTATION('',(#436,#438,
#434,#435,#437,#439,#440,#441,#442,#443,#444),#871);
#11=DIMENSIONAL_EXPONENTS(0.,0.,0.,0.,0.,0.,0.);
#12=(
CONVERSION_BASED_UNIT('degree',#13)
NAMED_UNIT(#11)
PLANE_ANGLE_UNIT()
);
#13=PLANE_ANGLE_MEASURE_WITH_UNIT(PLANE_ANGLE_MEASURE(0.01745329252),#874);
#14=PRESENTATION_LAYER_ASSIGNMENT('0','0',(#445,#20,#21,#22,#23,#24,#25,
#26,#27,#28,#29));
#15=ADVANCED_BREP_SHAPE_REPRESENTATION('',(#20,#21,#22,#23,#24,#25,#26,
#27,#28,#29),#870);
#16=SHAPE_REPRESENTATION_RELATIONSHIP('SRR','None',#877,#18);
#17=SHAPE_REPRESENTATION_RELATIONSHIP('SRR','None',#877,#15);
#18=GEOMETRICALLY_BOUNDED_SURFACE_SHAPE_REPRESENTATION('',(#19),#870);
#19=GEOMETRIC_SET('GEOSET',(#445));
#20=MANIFOLD_SOLID_BREP('1ED',#424);
#21=MANIFOLD_SOLID_BREP('1F0',#425);
#22=MANIFOLD_SOLID_BREP('1F1',#426);
#23=MANIFOLD_SOLID_BREP('1F2',#427);
#24=MANIFOLD_SOLID_BREP('1F3',#428);
#25=MANIFOLD_SOLID_BREP('1F4',#429);
#26=MANIFOLD_SOLID_BREP('1F6',#430);
#27=MANIFOLD_SOLID_BREP('203',#431);
#28=MANIFOLD_SOLID_BREP('206',#432);
#29=MANIFOLD_SOLID_BREP('35C',#433);
#30=PLANE('',#524);
#31=PLANE('',#525);
#32=PLANE('',#529);
#33=PLANE('',#530);
#34=PLANE('',#534);
#35=PLANE('',#535);
#36=PLANE('',#539);
#37=PLANE('',#540);
#38=PLANE('',#544);
#39=PLANE('',#545);
#40=PLANE('',#549);
#41=PLANE('',#550);
#42=PLANE('',#554);
#43=PLANE('',#555);
#44=PLANE('',#556);
#45=PLANE('',#557);
#46=PLANE('',#558);
#47=PLANE('',#559);
#48=PLANE('',#560);
#49=PLANE('',#561);
#50=PLANE('',#562);
#51=PLANE('',#563);
#52=PLANE('',#564);
#53=PLANE('',#565);
#54=PLANE('',#566);
#55=PLANE('',#567);
#56=PLANE('',#568);
#57=PLANE('',#569);
#58=PLANE('',#570);
#59=PLANE('',#571);
#60=PLANE('',#572);
#61=PLANE('',#576);
#62=PLANE('',#577);
#63=FACE_BOUND('',#114,.T.);
#64=FACE_BOUND('',#118,.T.);
#65=FACE_BOUND('',#122,.T.);
#66=FACE_BOUND('',#126,.T.);
#67=FACE_BOUND('',#130,.T.);
#68=FACE_BOUND('',#134,.T.);
#69=FACE_BOUND('',#138,.T.);
#70=FACE_BOUND('',#145,.T.);
#71=FACE_BOUND('',#160,.T.);
#72=FACE_OUTER_BOUND('',#113,.T.);
#73=FACE_OUTER_BOUND('',#115,.T.);
#74=FACE_OUTER_BOUND('',#116,.T.);
#75=FACE_OUTER_BOUND('',#117,.T.);
#76=FACE_OUTER_BOUND('',#119,.T.);
#77=FACE_OUTER_BOUND('',#120,.T.);
#78=FACE_OUTER_BOUND('',#121,.T.);
#79=FACE_OUTER_BOUND('',#123,.T.);
#80=FACE_OUTER_BOUND('',#124,.T.);
#81=FACE_OUTER_BOUND('',#125,.T.);
#82=FACE_OUTER_BOUND('',#127,.T.);
#83=FACE_OUTER_BOUND('',#128,.T.);
#84=FACE_OUTER_BOUND('',#129,.T.);
#85=FACE_OUTER_BOUND('',#131,.T.);
#86=FACE_OUTER_BOUND('',#132,.T.);
#87=FACE_OUTER_BOUND('',#133,.T.);
#88=FACE_OUTER_BOUND('',#135,.T.);
#89=FACE_OUTER_BOUND('',#136,.T.);
#90=FACE_OUTER_BOUND('',#137,.T.);
#91=FACE_OUTER_BOUND('',#139,.T.);
#92=FACE_OUTER_BOUND('',#140,.T.);
#93=FACE_OUTER_BOUND('',#141,.T.);
#94=FACE_OUTER_BOUND('',#142,.T.);
#95=FACE_OUTER_BOUND('',#143,.T.);
#96=FACE_OUTER_BOUND('',#144,.T.);
#97=FACE_OUTER_BOUND('',#146,.T.);
#98=FACE_OUTER_BOUND('',#147,.T.);
#99=FACE_OUTER_BOUND('',#148,.T.);
#100=FACE_OUTER_BOUND('',#149,.T.);
#101=FACE_OUTER_BOUND('',#150,.T.);
#102=FACE_OUTER_BOUND('',#151,.T.);
#103=FACE_OUTER_BOUND('',#152,.T.);
#104=FACE_OUTER_BOUND('',#153,.T.);
#105=FACE_OUTER_BOUND('',#154,.T.);
#106=FACE_OUTER_BOUND('',#155,.T.);
#107=FACE_OUTER_BOUND('',#156,.T.);
#108=FACE_OUTER_BOUND('',#157,.T.);
#109=FACE_OUTER_BOUND('',#158,.T.);
#110=FACE_OUTER_BOUND('',#159,.T.);
#111=FACE_OUTER_BOUND('',#161,.T.);
#112=FACE_OUTER_BOUND('',#162,.T.);
#113=EDGE_LOOP('',(#271));
#114=EDGE_LOOP('',(#272));
#115=EDGE_LOOP('',(#273));
#116=EDGE_LOOP('',(#274));
#117=EDGE_LOOP('',(#275));
#118=EDGE_LOOP('',(#276));
#119=EDGE_LOOP('',(#277));
#120=EDGE_LOOP('',(#278));
#121=EDGE_LOOP('',(#279));
#122=EDGE_LOOP('',(#280));
#123=EDGE_LOOP('',(#281));
#124=EDGE_LOOP('',(#282));
#125=EDGE_LOOP('',(#283));
#126=EDGE_LOOP('',(#284));
#127=EDGE_LOOP('',(#285));
#128=EDGE_LOOP('',(#286));
#129=EDGE_LOOP('',(#287));
#130=EDGE_LOOP('',(#288));
#131=EDGE_LOOP('',(#289));
#132=EDGE_LOOP('',(#290));
#133=EDGE_LOOP('',(#291));
#134=EDGE_LOOP('',(#292));
#135=EDGE_LOOP('',(#293));
#136=EDGE_LOOP('',(#294));
#137=EDGE_LOOP('',(#295));
#138=EDGE_LOOP('',(#296));
#139=EDGE_LOOP('',(#297));
#140=EDGE_LOOP('',(#298,#299,#300,#301));
#141=EDGE_LOOP('',(#302,#303,#304,#305));
#142=EDGE_LOOP('',(#306,#307,#308,#309));
#143=EDGE_LOOP('',(#310,#311,#312,#313));
#144=EDGE_LOOP('',(#314,#315,#316,#317));
#145=EDGE_LOOP('',(#318));
#146=EDGE_LOOP('',(#319,#320,#321,#322));
#147=EDGE_LOOP('',(#323,#324,#325,#326));
#148=EDGE_LOOP('',(#327,#328,#329,#330));
#149=EDGE_LOOP('',(#331,#332,#333,#334));
#150=EDGE_LOOP('',(#335,#336,#337,#338));
#151=EDGE_LOOP('',(#339,#340,#341,#342));
#152=EDGE_LOOP('',(#343,#344,#345,#346));
#153=EDGE_LOOP('',(#347,#348,#349,#350));
#154=EDGE_LOOP('',(#351,#352,#353,#354));
#155=EDGE_LOOP('',(#355,#356,#357,#358));
#156=EDGE_LOOP('',(#359,#360,#361,#362));
#157=EDGE_LOOP('',(#363,#364,#365,#366));
#158=EDGE_LOOP('',(#367,#368,#369,#370));
#159=EDGE_LOOP('',(#371));
#160=EDGE_LOOP('',(#372));
#161=EDGE_LOOP('',(#373));
#162=EDGE_LOOP('',(#374));
#163=CIRCLE('',#522,0.5);
#164=CIRCLE('',#523,0.5);
#165=CIRCLE('',#527,0.5);
#166=CIRCLE('',#528,0.5);
#167=CIRCLE('',#532,0.5);
#168=CIRCLE('',#533,0.5);
#169=CIRCLE('',#537,0.5);
#170=CIRCLE('',#538,0.5);
#171=CIRCLE('',#542,0.5);
#172=CIRCLE('',#543,0.5);
#173=CIRCLE('',#547,0.5);
#174=CIRCLE('',#548,0.5);
#175=CIRCLE('',#552,0.75);
#176=CIRCLE('',#553,0.75);
#177=CIRCLE('',#574,0.75);
#178=CIRCLE('',#575,0.75);
#179=VERTEX_POINT('',#736);
#180=VERTEX_POINT('',#738);
#181=VERTEX_POINT('',#743);
#182=VERTEX_POINT('',#745);
#183=VERTEX_POINT('',#750);
#184=VERTEX_POINT('',#752);
#185=VERTEX_POINT('',#757);
#186=VERTEX_POINT('',#759);
#187=VERTEX_POINT('',#764);
#188=VERTEX_POINT('',#766);
#189=VERTEX_POINT('',#771);
#190=VERTEX_POINT('',#773);
#191=VERTEX_POINT('',#778);
#192=VERTEX_POINT('',#780);
#193=VERTEX_POINT('',#784);
#194=VERTEX_POINT('',#785);
#195=VERTEX_POINT('',#787);
#196=VERTEX_POINT('',#789);
#197=VERTEX_POINT('',#793);
#198=VERTEX_POINT('',#795);
#199=VERTEX_POINT('',#799);
#200=VERTEX_POINT('',#801);
#201=VERTEX_POINT('',#810);
#202=VERTEX_POINT('',#811);
#203=VERTEX_POINT('',#813);
#204=VERTEX_POINT('',#815);
#205=VERTEX_POINT('',#819);
#206=VERTEX_POINT('',#821);
#207=VERTEX_POINT('',#825);
#208=VERTEX_POINT('',#827);
#209=VERTEX_POINT('',#836);
#210=VERTEX_POINT('',#837);
#211=VERTEX_POINT('',#839);
#212=VERTEX_POINT('',#841);
#213=VERTEX_POINT('',#845);
#214=VERTEX_POINT('',#847);
#215=VERTEX_POINT('',#851);
#216=VERTEX_POINT('',#853);
#217=VERTEX_POINT('',#862);
#218=VERTEX_POINT('',#864);
#219=EDGE_CURVE('',#179,#179,#163,.T.);
#220=EDGE_CURVE('',#180,#180,#164,.T.);
#221=EDGE_CURVE('',#181,#181,#165,.T.);
#222=EDGE_CURVE('',#182,#182,#166,.T.);
#223=EDGE_CURVE('',#183,#183,#167,.T.);
#224=EDGE_CURVE('',#184,#184,#168,.T.);
#225=EDGE_CURVE('',#185,#185,#169,.T.);
#226=EDGE_CURVE('',#186,#186,#170,.T.);
#227=EDGE_CURVE('',#187,#187,#171,.T.);
#228=EDGE_CURVE('',#188,#188,#172,.T.);
#229=EDGE_CURVE('',#189,#189,#173,.T.);
#230=EDGE_CURVE('',#190,#190,#174,.T.);
#231=EDGE_CURVE('',#191,#191,#175,.T.);
#232=EDGE_CURVE('',#192,#192,#176,.T.);
#233=EDGE_CURVE('',#193,#194,#447,.T.);
#234=EDGE_CURVE('',#195,#194,#448,.T.);
#235=EDGE_CURVE('',#196,#195,#449,.T.);
#236=EDGE_CURVE('',#196,#193,#450,.T.);
#237=EDGE_CURVE('',#197,#193,#451,.T.);
#238=EDGE_CURVE('',#198,#196,#452,.T.);
#239=EDGE_CURVE('',#198,#197,#453,.T.);
#240=EDGE_CURVE('',#199,#197,#454,.T.);
#241=EDGE_CURVE('',#200,#198,#455,.T.);
#242=EDGE_CURVE('',#200,#199,#456,.T.);
#243=EDGE_CURVE('',#194,#199,#457,.T.);
#244=EDGE_CURVE('',#195,#200,#458,.T.);
#245=EDGE_CURVE('',#201,#202,#459,.T.);
#246=EDGE_CURVE('',#203,#202,#460,.T.);
#247=EDGE_CURVE('',#203,#204,#461,.T.);
#248=EDGE_CURVE('',#204,#201,#462,.T.);
#249=EDGE_CURVE('',#202,#205,#463,.T.);
#250=EDGE_CURVE('',#206,#205,#464,.T.);
#251=EDGE_CURVE('',#206,#203,#465,.T.);
#252=EDGE_CURVE('',#205,#207,#466,.T.);
#253=EDGE_CURVE('',#208,#207,#467,.T.);
#254=EDGE_CURVE('',#208,#206,#468,.T.);
#255=EDGE_CURVE('',#207,#201,#469,.T.);
#256=EDGE_CURVE('',#204,#208,#470,.T.);
#257=EDGE_CURVE('',#209,#210,#471,.T.);
#258=EDGE_CURVE('',#211,#210,#472,.T.);
#259=EDGE_CURVE('',#211,#212,#473,.T.);
#260=EDGE_CURVE('',#212,#209,#474,.T.);
#261=EDGE_CURVE('',#210,#213,#475,.T.);
#262=EDGE_CURVE('',#214,#213,#476,.T.);
#263=EDGE_CURVE('',#214,#211,#477,.T.);
#264=EDGE_CURVE('',#213,#215,#478,.T.);
#265=EDGE_CURVE('',#216,#215,#479,.T.);
#266=EDGE_CURVE('',#216,#214,#480,.T.);
#267=EDGE_CURVE('',#215,#209,#481,.T.);
#268=EDGE_CURVE('',#212,#216,#482,.T.);
#269=EDGE_CURVE('',#217,#217,#177,.T.);
#270=EDGE_CURVE('',#218,#218,#178,.T.);
#271=ORIENTED_EDGE('',*,*,#219,.T.);
#272=ORIENTED_EDGE('',*,*,#220,.F.);
#273=ORIENTED_EDGE('',*,*,#219,.F.);
#274=ORIENTED_EDGE('',*,*,#220,.T.);
#275=ORIENTED_EDGE('',*,*,#221,.T.);
#276=ORIENTED_EDGE('',*,*,#222,.F.);
#277=ORIENTED_EDGE('',*,*,#221,.F.);
#278=ORIENTED_EDGE('',*,*,#222,.T.);
#279=ORIENTED_EDGE('',*,*,#223,.T.);
#280=ORIENTED_EDGE('',*,*,#224,.F.);
#281=ORIENTED_EDGE('',*,*,#223,.F.);
#282=ORIENTED_EDGE('',*,*,#224,.T.);
#283=ORIENTED_EDGE('',*,*,#225,.T.);
#284=ORIENTED_EDGE('',*,*,#226,.F.);
#285=ORIENTED_EDGE('',*,*,#225,.F.);
#286=ORIENTED_EDGE('',*,*,#226,.T.);
#287=ORIENTED_EDGE('',*,*,#227,.T.);
#288=ORIENTED_EDGE('',*,*,#228,.F.);
#289=ORIENTED_EDGE('',*,*,#227,.F.);
#290=ORIENTED_EDGE('',*,*,#228,.T.);
#291=ORIENTED_EDGE('',*,*,#229,.T.);
#292=ORIENTED_EDGE('',*,*,#230,.F.);
#293=ORIENTED_EDGE('',*,*,#229,.F.);
#294=ORIENTED_EDGE('',*,*,#230,.T.);
#295=ORIENTED_EDGE('',*,*,#231,.F.);
#296=ORIENTED_EDGE('',*,*,#232,.F.);
#297=ORIENTED_EDGE('',*,*,#232,.T.);
#298=ORIENTED_EDGE('',*,*,#233,.T.);
#299=ORIENTED_EDGE('',*,*,#234,.F.);
#300=ORIENTED_EDGE('',*,*,#235,.F.);
#301=ORIENTED_EDGE('',*,*,#236,.T.);
#302=ORIENTED_EDGE('',*,*,#237,.T.);
#303=ORIENTED_EDGE('',*,*,#236,.F.);
#304=ORIENTED_EDGE('',*,*,#238,.F.);
#305=ORIENTED_EDGE('',*,*,#239,.T.);
#306=ORIENTED_EDGE('',*,*,#240,.T.);
#307=ORIENTED_EDGE('',*,*,#239,.F.);
#308=ORIENTED_EDGE('',*,*,#241,.F.);
#309=ORIENTED_EDGE('',*,*,#242,.T.);
#310=ORIENTED_EDGE('',*,*,#243,.T.);
#311=ORIENTED_EDGE('',*,*,#242,.F.);
#312=ORIENTED_EDGE('',*,*,#244,.F.);
#313=ORIENTED_EDGE('',*,*,#234,.T.);
#314=ORIENTED_EDGE('',*,*,#240,.F.);
#315=ORIENTED_EDGE('',*,*,#243,.F.);
#316=ORIENTED_EDGE('',*,*,#233,.F.);
#317=ORIENTED_EDGE('',*,*,#237,.F.);
#318=ORIENTED_EDGE('',*,*,#231,.T.);
#319=ORIENTED_EDGE('',*,*,#244,.T.);
#320=ORIENTED_EDGE('',*,*,#241,.T.);
#321=ORIENTED_EDGE('',*,*,#238,.T.);
#322=ORIENTED_EDGE('',*,*,#235,.T.);
#323=ORIENTED_EDGE('',*,*,#245,.T.);
#324=ORIENTED_EDGE('',*,*,#246,.F.);
#325=ORIENTED_EDGE('',*,*,#247,.T.);
#326=ORIENTED_EDGE('',*,*,#248,.T.);
#327=ORIENTED_EDGE('',*,*,#249,.T.);
#328=ORIENTED_EDGE('',*,*,#250,.F.);
#329=ORIENTED_EDGE('',*,*,#251,.T.);
#330=ORIENTED_EDGE('',*,*,#246,.T.);
#331=ORIENTED_EDGE('',*,*,#252,.T.);
#332=ORIENTED_EDGE('',*,*,#253,.F.);
#333=ORIENTED_EDGE('',*,*,#254,.T.);
#334=ORIENTED_EDGE('',*,*,#250,.T.);
#335=ORIENTED_EDGE('',*,*,#255,.T.);
#336=ORIENTED_EDGE('',*,*,#248,.F.);
#337=ORIENTED_EDGE('',*,*,#256,.T.);
#338=ORIENTED_EDGE('',*,*,#253,.T.);
#339=ORIENTED_EDGE('',*,*,#245,.F.);
#340=ORIENTED_EDGE('',*,*,#255,.F.);
#341=ORIENTED_EDGE('',*,*,#252,.F.);
#342=ORIENTED_EDGE('',*,*,#249,.F.);
#343=ORIENTED_EDGE('',*,*,#256,.F.);
#344=ORIENTED_EDGE('',*,*,#247,.F.);
#345=ORIENTED_EDGE('',*,*,#251,.F.);
#346=ORIENTED_EDGE('',*,*,#254,.F.);
#347=ORIENTED_EDGE('',*,*,#257,.T.);
#348=ORIENTED_EDGE('',*,*,#258,.F.);
#349=ORIENTED_EDGE('',*,*,#259,.T.);
#350=ORIENTED_EDGE('',*,*,#260,.T.);
#351=ORIENTED_EDGE('',*,*,#261,.T.);
#352=ORIENTED_EDGE('',*,*,#262,.F.);
#353=ORIENTED_EDGE('',*,*,#263,.T.);
#354=ORIENTED_EDGE('',*,*,#258,.T.);
#355=ORIENTED_EDGE('',*,*,#264,.T.);
#356=ORIENTED_EDGE('',*,*,#265,.F.);
#357=ORIENTED_EDGE('',*,*,#266,.T.);
#358=ORIENTED_EDGE('',*,*,#262,.T.);
#359=ORIENTED_EDGE('',*,*,#267,.T.);
#360=ORIENTED_EDGE('',*,*,#260,.F.);
#361=ORIENTED_EDGE('',*,*,#268,.T.);
#362=ORIENTED_EDGE('',*,*,#265,.T.);
#363=ORIENTED_EDGE('',*,*,#257,.F.);
#364=ORIENTED_EDGE('',*,*,#267,.F.);
#365=ORIENTED_EDGE('',*,*,#264,.F.);
#366=ORIENTED_EDGE('',*,*,#261,.F.);
#367=ORIENTED_EDGE('',*,*,#268,.F.);
#368=ORIENTED_EDGE('',*,*,#259,.F.);
#369=ORIENTED_EDGE('',*,*,#263,.F.);
#370=ORIENTED_EDGE('',*,*,#266,.F.);
#371=ORIENTED_EDGE('',*,*,#269,.T.);
#372=ORIENTED_EDGE('',*,*,#270,.T.);
#373=ORIENTED_EDGE('',*,*,#269,.F.);
#374=ORIENTED_EDGE('',*,*,#270,.F.);
#375=CYLINDRICAL_SURFACE('',#521,0.5);
#376=CYLINDRICAL_SURFACE('',#526,0.5);
#377=CYLINDRICAL_SURFACE('',#531,0.5);
#378=CYLINDRICAL_SURFACE('',#536,0.5);
#379=CYLINDRICAL_SURFACE('',#541,0.5);
#380=CYLINDRICAL_SURFACE('',#546,0.5);
#381=CYLINDRICAL_SURFACE('',#551,0.75);
#382=CYLINDRICAL_SURFACE('',#573,0.75);
#383=ADVANCED_FACE('',(#72,#63),#375,.T.);
#384=ADVANCED_FACE('',(#73),#30,.F.);
#385=ADVANCED_FACE('',(#74),#31,.T.);
#386=ADVANCED_FACE('',(#75,#64),#376,.T.);
#387=ADVANCED_FACE('',(#76),#32,.F.);
#388=ADVANCED_FACE('',(#77),#33,.T.);
#389=ADVANCED_FACE('',(#78,#65),#377,.T.);
#390=ADVANCED_FACE('',(#79),#34,.F.);
#391=ADVANCED_FACE('',(#80),#35,.T.);
#392=ADVANCED_FACE('',(#81,#66),#378,.T.);
#393=ADVANCED_FACE('',(#82),#36,.F.);
#394=ADVANCED_FACE('',(#83),#37,.T.);
#395=ADVANCED_FACE('',(#84,#67),#379,.T.);
#396=ADVANCED_FACE('',(#85),#38,.F.);
#397=ADVANCED_FACE('',(#86),#39,.T.);
#398=ADVANCED_FACE('',(#87,#68),#380,.T.);
#399=ADVANCED_FACE('',(#88),#40,.F.);
#400=ADVANCED_FACE('',(#89),#41,.T.);
#401=ADVANCED_FACE('',(#90,#69),#381,.F.);
#402=ADVANCED_FACE('',(#91),#42,.T.);
#403=ADVANCED_FACE('',(#92),#43,.T.);
#404=ADVANCED_FACE('',(#93),#44,.T.);
#405=ADVANCED_FACE('',(#94),#45,.T.);
#406=ADVANCED_FACE('',(#95),#46,.T.);
#407=ADVANCED_FACE('',(#96,#70),#47,.T.);
#408=ADVANCED_FACE('',(#97),#48,.F.);
#409=ADVANCED_FACE('',(#98),#49,.T.);
#410=ADVANCED_FACE('',(#99),#50,.T.);
#411=ADVANCED_FACE('',(#100),#51,.T.);
#412=ADVANCED_FACE('',(#101),#52,.T.);
#413=ADVANCED_FACE('',(#102),#53,.T.);
#414=ADVANCED_FACE('',(#103),#54,.F.);
#415=ADVANCED_FACE('',(#104),#55,.T.);
#416=ADVANCED_FACE('',(#105),#56,.T.);
#417=ADVANCED_FACE('',(#106),#57,.T.);
#418=ADVANCED_FACE('',(#107),#58,.T.);
#419=ADVANCED_FACE('',(#108),#59,.T.);
#420=ADVANCED_FACE('',(#109),#60,.F.);
#421=ADVANCED_FACE('',(#110,#71),#382,.T.);
#422=ADVANCED_FACE('',(#111),#61,.T.);
#423=ADVANCED_FACE('',(#112),#62,.F.);
#424=CLOSED_SHELL('',(#383,#384,#385));
#425=CLOSED_SHELL('',(#386,#387,#388));
#426=CLOSED_SHELL('',(#389,#390,#391));
#427=CLOSED_SHELL('',(#392,#393,#394));
#428=CLOSED_SHELL('',(#395,#396,#397));
#429=CLOSED_SHELL('',(#398,#399,#400));
#430=CLOSED_SHELL('',(#401,#402,#403,#404,#405,#406,#407,#408));
#431=CLOSED_SHELL('',(#409,#410,#411,#412,#413,#414));
#432=CLOSED_SHELL('',(#415,#416,#417,#418,#419,#420));
#433=CLOSED_SHELL('',(#421,#422,#423));
#434=STYLED_ITEM('',(#886),#445);
#435=STYLED_ITEM('',(#887),#20);
#436=STYLED_ITEM('',(#887),#21);
#437=STYLED_ITEM('',(#887),#22);
#438=STYLED_ITEM('',(#887),#23);
#439=STYLED_ITEM('',(#887),#24);
#440=STYLED_ITEM('',(#887),#25);
#441=STYLED_ITEM('',(#888),#26);
#442=STYLED_ITEM('',(#888),#27);
#443=STYLED_ITEM('',(#888),#28);
#444=STYLED_ITEM('',(#889),#29);
#445=TRIMMED_CURVE('1B7',#446,(#733,PARAMETER_VALUE(0.)),(#734,
PARAMETER_VALUE(1.)),.T.,.PARAMETER.);
#446=LINE('',#732,#483);
#447=LINE('',#786,#484);
#448=LINE('',#788,#485);
#449=LINE('',#790,#486);
#450=LINE('',#791,#487);
#451=LINE('',#794,#488);
#452=LINE('',#796,#489);
#453=LINE('',#797,#490);
#454=LINE('',#800,#491);
#455=LINE('',#802,#492);
#456=LINE('',#803,#493);
#457=LINE('',#805,#494);
#458=LINE('',#806,#495);
#459=LINE('',#812,#496);
#460=LINE('',#814,#497);
#461=LINE('',#816,#498);
#462=LINE('',#817,#499);
#463=LINE('',#820,#500);
#464=LINE('',#822,#501);
#465=LINE('',#823,#502);
#466=LINE('',#826,#503);
#467=LINE('',#828,#504);
#468=LINE('',#829,#505);
#469=LINE('',#831,#506);
#470=LINE('',#832,#507);
#471=LINE('',#838,#508);
#472=LINE('',#840,#509);
#473=LINE('',#842,#510);
#474=LINE('',#843,#511);
#475=LINE('',#846,#512);
#476=LINE('',#848,#513);
#477=LINE('',#849,#514);
#478=LINE('',#852,#515);
#479=LINE('',#854,#516);
#480=LINE('',#855,#517);
#481=LINE('',#857,#518);
#482=LINE('',#858,#519);
#483=VECTOR('',#580,24.0416305603426);
#484=VECTOR('',#651,1.);
#485=VECTOR('',#652,1.);
#486=VECTOR('',#653,1.);
#487=VECTOR('',#654,1.);
#488=VECTOR('',#657,1.);
#489=VECTOR('',#658,1.);
#490=VECTOR('',#659,1.);
#491=VECTOR('',#662,1.);
#492=VECTOR('',#663,1.);
#493=VECTOR('',#664,1.);
#494=VECTOR('',#667,1.);
#495=VECTOR('',#668,1.);
#496=VECTOR('',#675,1.);
#497=VECTOR('',#676,1.);
#498=VECTOR('',#677,1.);
#499=VECTOR('',#678,1.);
#500=VECTOR('',#681,1.);
#501=VECTOR('',#682,1.);
#502=VECTOR('',#683,1.);
#503=VECTOR('',#686,1.);
#504=VECTOR('',#687,1.);
#505=VECTOR('',#688,1.);
#506=VECTOR('',#691,1.);
#507=VECTOR('',#692,1.);
#508=VECTOR('',#699,1.);
#509=VECTOR('',#700,1.);
#510=VECTOR('',#701,1.);
#511=VECTOR('',#702,1.);
#512=VECTOR('',#705,1.);
#513=VECTOR('',#706,1.);
#514=VECTOR('',#707,1.);
#515=VECTOR('',#710,1.);
#516=VECTOR('',#711,1.);
#517=VECTOR('',#712,1.);
#518=VECTOR('',#715,1.);
#519=VECTOR('',#716,1.);
#520=AXIS2_PLACEMENT_3D('placement',#731,#578,#579);
#521=AXIS2_PLACEMENT_3D('',#735,#581,#582);
#522=AXIS2_PLACEMENT_3D('',#737,#583,#584);
#523=AXIS2_PLACEMENT_3D('',#739,#585,#586);
#524=AXIS2_PLACEMENT_3D('',#740,#587,#588);
#525=AXIS2_PLACEMENT_3D('',#741,#589,#590);
#526=AXIS2_PLACEMENT_3D('',#742,#591,#592);
#527=AXIS2_PLACEMENT_3D('',#744,#593,#594);
#528=AXIS2_PLACEMENT_3D('',#746,#595,#596);
#529=AXIS2_PLACEMENT_3D('',#747,#597,#598);
#530=AXIS2_PLACEMENT_3D('',#748,#599,#600);
#531=AXIS2_PLACEMENT_3D('',#749,#601,#602);
#532=AXIS2_PLACEMENT_3D('',#751,#603,#604);
#533=AXIS2_PLACEMENT_3D('',#753,#605,#606);
#534=AXIS2_PLACEMENT_3D('',#754,#607,#608);
#535=AXIS2_PLACEMENT_3D('',#755,#609,#610);
#536=AXIS2_PLACEMENT_3D('',#756,#611,#612);
#537=AXIS2_PLACEMENT_3D('',#758,#613,#614);
#538=AXIS2_PLACEMENT_3D('',#760,#615,#616);
#539=AXIS2_PLACEMENT_3D('',#761,#617,#618);
#540=AXIS2_PLACEMENT_3D('',#762,#619,#620);
#541=AXIS2_PLACEMENT_3D('',#763,#621,#622);
#542=AXIS2_PLACEMENT_3D('',#765,#623,#624);
#543=AXIS2_PLACEMENT_3D('',#767,#625,#626);
#544=AXIS2_PLACEMENT_3D('',#768,#627,#628);
#545=AXIS2_PLACEMENT_3D('',#769,#629,#630);
#546=AXIS2_PLACEMENT_3D('',#770,#631,#632);
#547=AXIS2_PLACEMENT_3D('',#772,#633,#634);
#548=AXIS2_PLACEMENT_3D('',#774,#635,#636);
#549=AXIS2_PLACEMENT_3D('',#775,#637,#638);
#550=AXIS2_PLACEMENT_3D('',#776,#639,#640);
#551=AXIS2_PLACEMENT_3D('',#777,#641,#642);
#552=AXIS2_PLACEMENT_3D('',#779,#643,#644);
#553=AXIS2_PLACEMENT_3D('',#781,#645,#646);
#554=AXIS2_PLACEMENT_3D('',#782,#647,#648);
#555=AXIS2_PLACEMENT_3D('',#783,#649,#650);
#556=AXIS2_PLACEMENT_3D('',#792,#655,#656);
#557=AXIS2_PLACEMENT_3D('',#798,#660,#661);
#558=AXIS2_PLACEMENT_3D('',#804,#665,#666);
#559=AXIS2_PLACEMENT_3D('',#807,#669,#670);
#560=AXIS2_PLACEMENT_3D('',#808,#671,#672);
#561=AXIS2_PLACEMENT_3D('',#809,#673,#674);
#562=AXIS2_PLACEMENT_3D('',#818,#679,#680);
#563=AXIS2_PLACEMENT_3D('',#824,#684,#685);
#564=AXIS2_PLACEMENT_3D('',#830,#689,#690);
#565=AXIS2_PLACEMENT_3D('',#833,#693,#694);
#566=AXIS2_PLACEMENT_3D('',#834,#695,#696);
#567=AXIS2_PLACEMENT_3D('',#835,#697,#698);
#568=AXIS2_PLACEMENT_3D('',#844,#703,#704);
#569=AXIS2_PLACEMENT_3D('',#850,#708,#709);
#570=AXIS2_PLACEMENT_3D('',#856,#713,#714);
#571=AXIS2_PLACEMENT_3D('',#859,#717,#718);
#572=AXIS2_PLACEMENT_3D('',#860,#719,#720);
#573=AXIS2_PLACEMENT_3D('',#861,#721,#722);
#574=AXIS2_PLACEMENT_3D('',#863,#723,#724);
#575=AXIS2_PLACEMENT_3D('',#865,#725,#726);
#576=AXIS2_PLACEMENT_3D('',#866,#727,#728);
#577=AXIS2_PLACEMENT_3D('',#867,#729,#730);
#578=DIRECTION('axis',(0.,0.,1.));
#579=DIRECTION('refdir',(1.,0.,0.));
#580=DIRECTION('',(0.707106781186548,0.707106781186548,0.));
#581=DIRECTION('center_axis',(0.,0.,-1.));
#582=DIRECTION('ref_axis',(1.,0.,0.));
#583=DIRECTION('center_axis',(0.,0.,1.));
#584=DIRECTION('ref_axis',(1.,0.,0.));
#585=DIRECTION('center_axis',(0.,0.,1.));
#586=DIRECTION('ref_axis',(1.,0.,0.));
#587=DIRECTION('center_axis',(0.,0.,1.));
#588=DIRECTION('ref_axis',(1.,0.,0.));
#589=DIRECTION('center_axis',(0.,0.,1.));
#590=DIRECTION('ref_axis',(1.,0.,0.));
#591=DIRECTION('center_axis',(0.,0.,-1.));
#592=DIRECTION('ref_axis',(1.,0.,0.));
#593=DIRECTION('center_axis',(0.,0.,1.));
#594=DIRECTION('ref_axis',(1.,0.,0.));
#595=DIRECTION('center_axis',(0.,0.,1.));
#596=DIRECTION('ref_axis',(1.,0.,0.));
#597=DIRECTION('center_axis',(0.,0.,1.));
#598=DIRECTION('ref_axis',(1.,0.,0.));
#599=DIRECTION('center_axis',(0.,0.,1.));
#600=DIRECTION('ref_axis',(1.,0.,0.));
#601=DIRECTION('center_axis',(0.,0.,-1.));
#602=DIRECTION('ref_axis',(1.,0.,0.));
#603=DIRECTION('center_axis',(0.,0.,1.));
#604=DIRECTION('ref_axis',(1.,0.,0.));
#605=DIRECTION('center_axis',(0.,0.,1.));
#606=DIRECTION('ref_axis',(1.,0.,0.));
#607=DIRECTION('center_axis',(0.,0.,1.));
#608=DIRECTION('ref_axis',(1.,0.,0.));
#609=DIRECTION('center_axis',(0.,0.,1.));
#610=DIRECTION('ref_axis',(1.,0.,0.));
#611=DIRECTION('center_axis',(0.,0.,-1.));
#612=DIRECTION('ref_axis',(1.,0.,0.));
#613=DIRECTION('center_axis',(0.,0.,1.));
#614=DIRECTION('ref_axis',(1.,0.,0.));
#615=DIRECTION('center_axis',(0.,0.,1.));
#616=DIRECTION('ref_axis',(1.,0.,0.));
#617=DIRECTION('center_axis',(0.,0.,1.));
#618=DIRECTION('ref_axis',(1.,0.,0.));
#619=DIRECTION('center_axis',(0.,0.,1.));
#620=DIRECTION('ref_axis',(1.,0.,0.));
#621=DIRECTION('center_axis',(0.,0.,-1.));
#622=DIRECTION('ref_axis',(1.,0.,0.));
#623=DIRECTION('center_axis',(0.,0.,1.));
#624=DIRECTION('ref_axis',(1.,0.,0.));
#625=DIRECTION('center_axis',(0.,0.,1.));
#626=DIRECTION('ref_axis',(1.,0.,0.));
#627=DIRECTION('center_axis',(0.,0.,1.));
#628=DIRECTION('ref_axis',(1.,0.,0.));
#629=DIRECTION('center_axis',(0.,0.,1.));
#630=DIRECTION('ref_axis',(1.,0.,0.));
#631=DIRECTION('center_axis',(0.,0.,-1.));
#632=DIRECTION('ref_axis',(1.,0.,0.));
#633=DIRECTION('center_axis',(0.,0.,1.));
#634=DIRECTION('ref_axis',(1.,0.,0.));
#635=DIRECTION('center_axis',(0.,0.,1.));
#636=DIRECTION('ref_axis',(1.,0.,0.));
#637=DIRECTION('center_axis',(0.,0.,1.));
#638=DIRECTION('ref_axis',(1.,0.,0.));
#639=DIRECTION('center_axis',(0.,0.,1.));
#640=DIRECTION('ref_axis',(1.,0.,0.));
#641=DIRECTION('center_axis',(0.,0.,1.));
#642=DIRECTION('ref_axis',(1.,0.,0.));
#643=DIRECTION('center_axis',(0.,0.,-1.));
#644=DIRECTION('ref_axis',(1.,0.,0.));
#645=DIRECTION('center_axis',(0.,0.,1.));
#646=DIRECTION('ref_axis',(1.,0.,0.));
#647=DIRECTION('center_axis',(0.,0.,1.));
#648=DIRECTION('ref_axis',(1.,0.,0.));
#649=DIRECTION('center_axis',(1.,0.,0.));
#650=DIRECTION('ref_axis',(0.,0.,-1.));
#651=DIRECTION('',(0.,-1.,0.));
#652=DIRECTION('',(0.,0.,1.));
#653=DIRECTION('',(0.,-1.,0.));
#654=DIRECTION('',(0.,0.,1.));
#655=DIRECTION('center_axis',(0.,1.,0.));
#656=DIRECTION('ref_axis',(0.,0.,1.));
#657=DIRECTION('',(1.,0.,0.));
#658=DIRECTION('',(1.,0.,0.));
#659=DIRECTION('',(0.,0.,1.));
#660=DIRECTION('center_axis',(-1.,0.,0.));
#661=DIRECTION('ref_axis',(0.,0.,1.));
#662=DIRECTION('',(0.,1.,0.));
#663=DIRECTION('',(0.,1.,0.));
#664=DIRECTION('',(0.,0.,1.));
#665=DIRECTION('center_axis',(0.,-1.,0.));
#666=DIRECTION('ref_axis',(0.,0.,-1.));
#667=DIRECTION('',(-1.,0.,0.));
#668=DIRECTION('',(-1.,0.,0.));
#669=DIRECTION('center_axis',(0.,0.,1.));
#670=DIRECTION('ref_axis',(1.,0.,0.));
#671=DIRECTION('center_axis',(0.,0.,1.));
#672=DIRECTION('ref_axis',(1.,0.,0.));
#673=DIRECTION('center_axis',(-1.,0.,0.));
#674=DIRECTION('ref_axis',(0.,0.,1.));
#675=DIRECTION('',(0.,1.,0.));
#676=DIRECTION('',(0.,0.,1.));
#677=DIRECTION('',(0.,-1.,0.));
#678=DIRECTION('',(0.,0.,1.));
#679=DIRECTION('center_axis',(0.,1.,0.));
#680=DIRECTION('ref_axis',(0.,0.,1.));
#681=DIRECTION('',(1.,0.,0.));
#682=DIRECTION('',(0.,0.,1.));
#683=DIRECTION('',(-1.,0.,0.));
#684=DIRECTION('center_axis',(1.,0.,0.));
#685=DIRECTION('ref_axis',(0.,0.,-1.));
#686=DIRECTION('',(0.,-1.,0.));
#687=DIRECTION('',(0.,0.,1.));
#688=DIRECTION('',(0.,1.,0.));
#689=DIRECTION('center_axis',(0.,-1.,0.));
#690=DIRECTION('ref_axis',(0.,0.,-1.));
#691=DIRECTION('',(-1.,0.,0.));
#692=DIRECTION('',(1.,0.,0.));
#693=DIRECTION('center_axis',(0.,0.,1.));
#694=DIRECTION('ref_axis',(1.,0.,0.));
#695=DIRECTION('center_axis',(0.,0.,1.));
#696=DIRECTION('ref_axis',(1.,0.,0.));
#697=DIRECTION('center_axis',(-1.,0.,0.));
#698=DIRECTION('ref_axis',(0.,0.,1.));
#699=DIRECTION('',(0.,1.,0.));
#700=DIRECTION('',(0.,0.,1.));
#701=DIRECTION('',(0.,-1.,0.));
#702=DIRECTION('',(0.,0.,1.));
#703=DIRECTION('center_axis',(0.,1.,0.));
#704=DIRECTION('ref_axis',(0.,0.,1.));
#705=DIRECTION('',(1.,0.,0.));
#706=DIRECTION('',(0.,0.,1.));
#707=DIRECTION('',(-1.,0.,0.));
#708=DIRECTION('center_axis',(1.,0.,0.));
#709=DIRECTION('ref_axis',(0.,0.,-1.));
#710=DIRECTION('',(0.,-1.,0.));
#711=DIRECTION('',(0.,0.,1.));
#712=DIRECTION('',(0.,1.,0.));
#713=DIRECTION('center_axis',(0.,-1.,0.));
#714=DIRECTION('ref_axis',(0.,0.,-1.));
#715=DIRECTION('',(-1.,0.,0.));
#716=DIRECTION('',(1.,0.,0.));
#717=DIRECTION('center_axis',(0.,0.,1.));
#718=DIRECTION('ref_axis',(1.,0.,0.));
#719=DIRECTION('center_axis',(0.,0.,1.));
#720=DIRECTION('ref_axis',(1.,0.,0.));
#721=DIRECTION('center_axis',(0.,0.,1.));
#722=DIRECTION('ref_axis',(1.,0.,0.));
#723=DIRECTION('center_axis',(0.,0.,-1.));
#724=DIRECTION('ref_axis',(1.,0.,0.));
#725=DIRECTION('center_axis',(0.,0.,1.));
#726=DIRECTION('ref_axis',(1.,0.,0.));
#727=DIRECTION('center_axis',(0.,0.,1.));
#728=DIRECTION('ref_axis',(1.,0.,0.));
#729=DIRECTION('center_axis',(0.,0.,1.));
#730=DIRECTION('ref_axis',(1.,0.,0.));
#731=CARTESIAN_POINT('',(0.,0.,0.));
#732=CARTESIAN_POINT('',(-8.5,-8.5,0.));
#733=CARTESIAN_POINT('',(-8.5,-8.5,0.));
#734=CARTESIAN_POINT('',(8.5,8.5,0.));
#735=CARTESIAN_POINT('Origin',(-3.81,6.35,0.));
#736=CARTESIAN_POINT('',(-3.31,6.35,-3.2));
#737=CARTESIAN_POINT('Origin',(-3.81,6.35,-3.2));
#738=CARTESIAN_POINT('',(-3.31,6.35,0.5));
#739=CARTESIAN_POINT('Origin',(-3.81,6.35,0.5));
#740=CARTESIAN_POINT('Origin',(-3.81,6.35,-3.2));
#741=CARTESIAN_POINT('Origin',(-3.81,6.35,0.5));
#742=CARTESIAN_POINT('Origin',(-6.35,3.81,0.));
#743=CARTESIAN_POINT('',(-5.85,3.81,-3.2));
#744=CARTESIAN_POINT('Origin',(-6.35,3.81,-3.2));
#745=CARTESIAN_POINT('',(-5.85,3.81,0.5));
#746=CARTESIAN_POINT('Origin',(-6.35,3.81,0.5));
#747=CARTESIAN_POINT('Origin',(-6.35,3.81,-3.2));
#748=CARTESIAN_POINT('Origin',(-6.35,3.81,0.5));
#749=CARTESIAN_POINT('Origin',(-6.35,-6.35,0.));
#750=CARTESIAN_POINT('',(-5.85,-6.35,-3.2));
#751=CARTESIAN_POINT('Origin',(-6.35,-6.35,-3.2));
#752=CARTESIAN_POINT('',(-5.85,-6.35,0.5));
#753=CARTESIAN_POINT('Origin',(-6.35,-6.35,0.5));
#754=CARTESIAN_POINT('Origin',(-6.35,-6.35,-3.2));
#755=CARTESIAN_POINT('Origin',(-6.35,-6.35,0.5));
#756=CARTESIAN_POINT('Origin',(6.35,6.35,0.));
#757=CARTESIAN_POINT('',(6.85,6.35,-3.2));
#758=CARTESIAN_POINT('Origin',(6.35,6.35,-3.2));
#759=CARTESIAN_POINT('',(6.85,6.35,0.5));
#760=CARTESIAN_POINT('Origin',(6.35,6.35,0.5));
#761=CARTESIAN_POINT('Origin',(6.35,6.35,-3.2));
#762=CARTESIAN_POINT('Origin',(6.35,6.35,0.5));
#763=CARTESIAN_POINT('Origin',(6.35,-3.81,0.));
#764=CARTESIAN_POINT('',(6.85,-3.81,-3.2));
#765=CARTESIAN_POINT('Origin',(6.35,-3.81,-3.2));
#766=CARTESIAN_POINT('',(6.85,-3.81,0.5));
#767=CARTESIAN_POINT('Origin',(6.35,-3.81,0.5));
#768=CARTESIAN_POINT('Origin',(6.35,-3.81,-3.2));
#769=CARTESIAN_POINT('Origin',(6.35,-3.81,0.5));
#770=CARTESIAN_POINT('Origin',(3.81,-6.35,0.));
#771=CARTESIAN_POINT('',(4.31,-6.35,-3.2));
#772=CARTESIAN_POINT('Origin',(3.81,-6.35,-3.2));
#773=CARTESIAN_POINT('',(4.31,-6.35,0.5));
#774=CARTESIAN_POINT('Origin',(3.81,-6.35,0.5));
#775=CARTESIAN_POINT('Origin',(3.81,-6.35,-3.2));
#776=CARTESIAN_POINT('Origin',(3.81,-6.35,0.5));
#777=CARTESIAN_POINT('Origin',(-6.5,6.5,9.5));
#778=CARTESIAN_POINT('',(-5.75,6.5,10.));
#779=CARTESIAN_POINT('Origin',(-6.5,6.5,10.));
#780=CARTESIAN_POINT('',(-5.75,6.5,9.5));
#781=CARTESIAN_POINT('Origin',(-6.5,6.5,9.5));
#782=CARTESIAN_POINT('Origin',(-6.5,6.5,9.5));
#783=CARTESIAN_POINT('Origin',(8.5,8.5,0.));
#784=CARTESIAN_POINT('',(8.5,8.5,10.));
#785=CARTESIAN_POINT('',(8.5,-8.5,10.));
#786=CARTESIAN_POINT('',(8.5,8.5,10.));
#787=CARTESIAN_POINT('',(8.5,-8.5,0.5));
#788=CARTESIAN_POINT('',(8.5,-8.5,0.));
#789=CARTESIAN_POINT('',(8.5,8.5,0.5));
#790=CARTESIAN_POINT('',(8.5,8.5,0.5));
#791=CARTESIAN_POINT('',(8.5,8.5,0.));
#792=CARTESIAN_POINT('Origin',(-8.5,8.5,0.));
#793=CARTESIAN_POINT('',(-8.5,8.5,10.));
#794=CARTESIAN_POINT('',(-8.5,8.5,10.));
#795=CARTESIAN_POINT('',(-8.5,8.5,0.5));
#796=CARTESIAN_POINT('',(-8.5,8.5,0.5));
#797=CARTESIAN_POINT('',(-8.5,8.5,0.));
#798=CARTESIAN_POINT('Origin',(-8.5,-8.5,0.));
#799=CARTESIAN_POINT('',(-8.5,-8.5,10.));
#800=CARTESIAN_POINT('',(-8.5,-8.5,10.));
#801=CARTESIAN_POINT('',(-8.5,-8.5,0.5));
#802=CARTESIAN_POINT('',(-8.5,-8.5,0.5));
#803=CARTESIAN_POINT('',(-8.5,-8.5,0.));
#804=CARTESIAN_POINT('Origin',(8.5,-8.5,0.));
#805=CARTESIAN_POINT('',(8.5,-8.5,10.));
#806=CARTESIAN_POINT('',(8.5,-8.5,0.5));
#807=CARTESIAN_POINT('Origin',(0.,0.,10.));
#808=CARTESIAN_POINT('Origin',(0.,1.11022302462516E-16,0.5));
#809=CARTESIAN_POINT('Origin',(-8.5,-8.5,-5.55111512312578E-17));
#810=CARTESIAN_POINT('',(-8.5,-8.5,0.5));
#811=CARTESIAN_POINT('',(-8.5,-8.,0.5));
#812=CARTESIAN_POINT('',(-8.5,-8.,0.5));
#813=CARTESIAN_POINT('',(-8.5,-8.,-5.55111512312578E-17));
#814=CARTESIAN_POINT('',(-8.5,-8.,-5.55111512312578E-17));
#815=CARTESIAN_POINT('',(-8.5,-8.5,-5.55111512312578E-17));
#816=CARTESIAN_POINT('',(-8.5,-8.,-5.55111512312578E-17));
#817=CARTESIAN_POINT('',(-8.5,-8.5,-5.55111512312578E-17));
#818=CARTESIAN_POINT('Origin',(-8.5,-8.,-5.55111512312578E-17));
#819=CARTESIAN_POINT('',(8.5,-8.,0.5));
#820=CARTESIAN_POINT('',(8.5,-8.,0.5));
#821=CARTESIAN_POINT('',(8.5,-8.,-5.55111512312578E-17));
#822=CARTESIAN_POINT('',(8.5,-8.,-5.55111512312578E-17));
#823=CARTESIAN_POINT('',(8.5,-8.,-5.55111512312578E-17));
#824=CARTESIAN_POINT('Origin',(8.5,-8.,-5.55111512312578E-17));
#825=CARTESIAN_POINT('',(8.5,-8.5,0.5));
#826=CARTESIAN_POINT('',(8.5,-8.5,0.5));
#827=CARTESIAN_POINT('',(8.5,-8.5,-5.55111512312578E-17));
#828=CARTESIAN_POINT('',(8.5,-8.5,-5.55111512312578E-17));
#829=CARTESIAN_POINT('',(8.5,-8.5,-5.55111512312578E-17));
#830=CARTESIAN_POINT('Origin',(8.5,-8.5,-5.55111512312578E-17));
#831=CARTESIAN_POINT('',(-8.5,-8.5,0.5));
#832=CARTESIAN_POINT('',(-8.5,-8.5,-5.55111512312578E-17));
#833=CARTESIAN_POINT('Origin',(0.,-8.25,0.5));
#834=CARTESIAN_POINT('Origin',(0.,-8.25,-5.55111512312578E-17));
#835=CARTESIAN_POINT('Origin',(-8.5,8.,-5.55111512312578E-17));
#836=CARTESIAN_POINT('',(-8.5,8.,0.5));
#837=CARTESIAN_POINT('',(-8.5,8.5,0.5));
#838=CARTESIAN_POINT('',(-8.5,8.5,0.5));
#839=CARTESIAN_POINT('',(-8.5,8.5,-5.55111512312578E-17));
#840=CARTESIAN_POINT('',(-8.5,8.5,-5.55111512312578E-17));
#841=CARTESIAN_POINT('',(-8.5,8.,-5.55111512312578E-17));
#842=CARTESIAN_POINT('',(-8.5,8.5,-5.55111512312578E-17));
#843=CARTESIAN_POINT('',(-8.5,8.,-5.55111512312578E-17));
#844=CARTESIAN_POINT('Origin',(-8.5,8.5,-5.55111512312578E-17));
#845=CARTESIAN_POINT('',(8.5,8.5,0.5));
#846=CARTESIAN_POINT('',(8.5,8.5,0.5));
#847=CARTESIAN_POINT('',(8.5,8.5,-5.55111512312578E-17));
#848=CARTESIAN_POINT('',(8.5,8.5,-5.55111512312578E-17));
#849=CARTESIAN_POINT('',(8.5,8.5,-5.55111512312578E-17));
#850=CARTESIAN_POINT('Origin',(8.5,8.5,-5.55111512312578E-17));
#851=CARTESIAN_POINT('',(8.5,8.,0.5));
#852=CARTESIAN_POINT('',(8.5,8.,0.5));
#853=CARTESIAN_POINT('',(8.5,8.,-5.55111512312578E-17));
#854=CARTESIAN_POINT('',(8.5,8.,-5.55111512312578E-17));
#855=CARTESIAN_POINT('',(8.5,8.,-5.55111512312578E-17));
#856=CARTESIAN_POINT('Origin',(8.5,8.,-5.55111512312578E-17));
#857=CARTESIAN_POINT('',(-8.5,8.,0.5));
#858=CARTESIAN_POINT('',(-8.5,8.,-5.55111512312578E-17));
#859=CARTESIAN_POINT('Origin',(0.,8.25,0.5));
#860=CARTESIAN_POINT('Origin',(0.,8.25,-5.55111512312578E-17));
#861=CARTESIAN_POINT('Origin',(-6.5,6.5,9.5));
#862=CARTESIAN_POINT('',(-5.75,6.5,10.));
#863=CARTESIAN_POINT('Origin',(-6.5,6.5,10.));
#864=CARTESIAN_POINT('',(-5.75,6.5,9.5));
#865=CARTESIAN_POINT('Origin',(-6.5,6.5,9.5));
#866=CARTESIAN_POINT('Origin',(-6.5,6.5,10.));
#867=CARTESIAN_POINT('Origin',(-6.5,6.5,9.5));
#868=UNCERTAINTY_MEASURE_WITH_UNIT(LENGTH_MEASURE(0.01),#872,
'DISTANCE_ACCURACY_VALUE',
'Maximum model space distance between geometric entities at asserted c
onnectivities');
#869=UNCERTAINTY_MEASURE_WITH_UNIT(LENGTH_MEASURE(1.E-6),#872,
'DISTANCE_ACCURACY_VALUE',
'Maximum model space distance between geometric entities at asserted c
onnectivities');
#870=(
GEOMETRIC_REPRESENTATION_CONTEXT(3)
GLOBAL_UNCERTAINTY_ASSIGNED_CONTEXT((#868))
GLOBAL_UNIT_ASSIGNED_CONTEXT((#872,#874,#873))
REPRESENTATION_CONTEXT('','3D')
);
#871=(
GEOMETRIC_REPRESENTATION_CONTEXT(3)
GLOBAL_UNCERTAINTY_ASSIGNED_CONTEXT((#869))
GLOBAL_UNIT_ASSIGNED_CONTEXT((#872,#12,#873))
REPRESENTATION_CONTEXT('','3D')
);
#872=(
LENGTH_UNIT()
NAMED_UNIT(*)
SI_UNIT(.MILLI.,.METRE.)
);
#873=(
NAMED_UNIT(*)
SI_UNIT($,.STERADIAN.)
SOLID_ANGLE_UNIT()
);
#874=(
NAMED_UNIT(*)
PLANE_ANGLE_UNIT()
SI_UNIT($,.RADIAN.)
);
#875=SHAPE_DEFINITION_REPRESENTATION(#876,#877);
#876=PRODUCT_DEFINITION_SHAPE('',$,#879);
#877=SHAPE_REPRESENTATION('',(#520),#870);
#878=PRODUCT_DEFINITION_CONTEXT('part definition',#883,'design');
#879=PRODUCT_DEFINITION('Product','Product',#880,#878);
#880=PRODUCT_DEFINITION_FORMATION('',$,#885);
#881=PRODUCT_RELATED_PRODUCT_CATEGORY('Product','Product',(#885));
#882=APPLICATION_PROTOCOL_DEFINITION('international standard',
'automotive_design',2009,#883);
#883=APPLICATION_CONTEXT(
'Core Data for Automotive Mechanical Design Process');
#884=PRODUCT_CONTEXT('part definition',#883,'mechanical');
#885=PRODUCT('Product','Product',$,(#884));
#886=PRESENTATION_STYLE_ASSIGNMENT((#890));
#887=PRESENTATION_STYLE_ASSIGNMENT((#891));
#888=PRESENTATION_STYLE_ASSIGNMENT((#892));
#889=PRESENTATION_STYLE_ASSIGNMENT((#893));
#890=SURFACE_STYLE_USAGE(.BOTH.,#894);
#891=SURFACE_STYLE_USAGE(.BOTH.,#895);
#892=SURFACE_STYLE_USAGE(.BOTH.,#896);
#893=SURFACE_STYLE_USAGE(.BOTH.,#897);
#894=SURFACE_SIDE_STYLE('',(#898));
#895=SURFACE_SIDE_STYLE('',(#899));
#896=SURFACE_SIDE_STYLE('',(#900));
#897=SURFACE_SIDE_STYLE('',(#901));
#898=SURFACE_STYLE_FILL_AREA(#902);
#899=SURFACE_STYLE_FILL_AREA(#903);
#900=SURFACE_STYLE_FILL_AREA(#904);
#901=SURFACE_STYLE_FILL_AREA(#905);
#902=FILL_AREA_STYLE('',(#906));
#903=FILL_AREA_STYLE('',(#907));
#904=FILL_AREA_STYLE('',(#908));
#905=FILL_AREA_STYLE('',(#909));
#906=FILL_AREA_STYLE_COLOUR('',#910);
#907=FILL_AREA_STYLE_COLOUR('',#911);
#908=FILL_AREA_STYLE_COLOUR('',#912);
#909=FILL_AREA_STYLE_COLOUR('',#913);
#910=COLOUR_RGB('',1.,1.,1.);
#911=COLOUR_RGB('',0.733333333333333,0.733333333333333,0.733333333333333);
#912=COLOUR_RGB('',0.501960784313725,0.376470588235294,0.250980392156863);
#913=COLOUR_RGB('',1.,0.874509803921569,0.501960784313725);
ENDSEC;
END-ISO-10303-21;
