ISO-10303-21;
HEADER;
/****************************************************************
 * Generated by software with PDElib inside                    *
 * PDElib Version v51a, created Fri 09/10/2010                  *
 * ITI Transcendata (http://www.transcendata.com/)              *
 ****************************************************************/
FILE_DESCRIPTION((''),'2;1');
FILE_NAME('XFMR_TALEMA_AC1025.stp','2012-06-14T10:31:44',(''),(''),'Mechanical Desktop 2011','Mechanical Desktop 2011',', , ');
FILE_SCHEMA(('AUTOMOTIVE_DESIGN { 1 2 10303 214 1 1 1 1 }'));
ENDSEC;
DATA;
#10=(NAMED_UNIT(*)PLANE_ANGLE_UNIT()SI_UNIT($,.RADIAN.));
#11=DIMENSIONAL_EXPONENTS(0.0,0.0,0.0,0.0,0.0,0.0,0.0);
#12=PLANE_ANGLE_MEASURE_WITH_UNIT(PLANE_ANGLE_MEASURE(0.0174532925),#10);
#16=(CONVERSION_BASED_UNIT('DEGREE',#12)NAMED_UNIT(#11)PLANE_ANGLE_UNIT());
#20=(NAMED_UNIT(*)SI_UNIT($,.STERADIAN.)SOLID_ANGLE_UNIT());
#24=(LENGTH_UNIT()NAMED_UNIT(*)SI_UNIT(.MILLI.,.METRE.));
#26=UNCERTAINTY_MEASURE_WITH_UNIT(LENGTH_MEASURE(0.000001),#24,'DISTANCE_ACCURACY_VALUE','');
#28=(GEOMETRIC_REPRESENTATION_CONTEXT(3)GLOBAL_UNCERTAINTY_ASSIGNED_CONTEXT((#26))GLOBAL_UNIT_ASSIGNED_CONTEXT((#16,#20,#24))REPRESENTATION_CONTEXT('','3D'));
#29=APPLICATION_CONTEXT('automotive design');
#30=APPLICATION_PROTOCOL_DEFINITION('INTERNATIONAL_STANDARD','automotive_design',1998,#29);
#31=PRODUCT_CONTEXT('3D Mechanical Parts',#29,'mechanical');
#32=PRODUCT('Product','Product','',(#31));
#33=PRODUCT_RELATED_PRODUCT_CATEGORY('part',$,(#32));
#34=PRODUCT_CATEGORY('part',$);
#35=PERSON('1','Design','Joe',$,$,$);
#36=ORGANIZATION($,'None','None');
#37=PERSON_AND_ORGANIZATION(#35,#36);
#38=PERSON_AND_ORGANIZATION_ROLE('design_owner');
#39=APPLIED_PERSON_AND_ORGANIZATION_ASSIGNMENT(#37,#38,(#32));
#40=PRODUCT_DEFINITION_FORMATION_WITH_SPECIFIED_SOURCE('None','',#32,.BOUGHT.);
#41=PERSON('2','Creator','Joe',$,$,$);
#42=ORGANIZATION($,'None','None');
#43=PERSON_AND_ORGANIZATION(#41,#42);
#44=PERSON_AND_ORGANIZATION_ROLE('creator');
#45=APPLIED_PERSON_AND_ORGANIZATION_ASSIGNMENT(#43,#44,(#40));
#46=PERSON('3','Supplier','Joe',$,$,$);
#47=ORGANIZATION($,'None','None');
#48=PERSON_AND_ORGANIZATION(#46,#47);
#49=PERSON_AND_ORGANIZATION_ROLE('design_supplier');
#50=APPLIED_PERSON_AND_ORGANIZATION_ASSIGNMENT(#48,#49,(#40));
#51=PRODUCT_DEFINITION_CONTEXT('part definition',#29,'design');
#52=PRODUCT_DEFINITION('None','',#40,#51);
#53=PERSON('4','Creator','Joe',$,$,$);
#54=ORGANIZATION($,'None','None');
#55=PERSON_AND_ORGANIZATION(#53,#54);
#56=PERSON_AND_ORGANIZATION_ROLE('creator');
#57=APPLIED_PERSON_AND_ORGANIZATION_ASSIGNMENT(#55,#56,(#52));
#58=CARTESIAN_POINT('NONE',(0.0,0.0,0.0));
#59=DIRECTION('NONE',(0.0,0.0,1.0));
#60=DIRECTION('NONE',(1.0,0.0,0.0));
#61=AXIS2_PLACEMENT_3D('NONE',#58,#59,#60);
#62=SHAPE_REPRESENTATION('SR1',(#61),#28);
#63=PRODUCT_DEFINITION_SHAPE('PDS1','Test Part',#52);
#64=SHAPE_DEFINITION_REPRESENTATION(#63,#62);
#65=CARTESIAN_POINT('',(10.16,5.069999999999999,0.299999999999999));
#66=DIRECTION('',(0.0,0.0,-1.0));
#67=DIRECTION('',(1.0,0.0,0.0));
#68=AXIS2_PLACEMENT_3D('',#65,#66,#67);
#69=CYLINDRICAL_SURFACE('',#68,0.508);
#70=CARTESIAN_POINT('',(10.667999999999999,5.069999999999999,-3.8));
#71=VERTEX_POINT('',#70);
#72=CARTESIAN_POINT('',(10.667999999999999,5.069999999999999,0.5));
#73=VERTEX_POINT('',#72);
#74=CARTESIAN_POINT('',(10.667999999999999,5.069999999999999,-3.8));
#75=DIRECTION('',(0.0,0.0,1.0));
#76=VECTOR('',#75,4.3);
#77=LINE('',#74,#76);
#78=EDGE_CURVE('',#71,#73,#77,.T.);
#79=ORIENTED_EDGE('',*,*,#78,.F.);
#80=CARTESIAN_POINT('',(9.652000000000001,5.069999999999999,-3.8));
#81=VERTEX_POINT('',#80);
#82=CARTESIAN_POINT('',(10.16,5.069999999999999,-3.8));
#83=DIRECTION('',(0.0,0.0,1.0));
#84=DIRECTION('',(1.0,0.0,0.0));
#85=AXIS2_PLACEMENT_3D('',#82,#83,#84);
#86=CIRCLE('',#85,0.508);
#87=EDGE_CURVE('',#71,#81,#86,.T.);
#88=ORIENTED_EDGE('',*,*,#87,.T.);
#89=CARTESIAN_POINT('',(9.652000000000001,5.069999999999999,0.5));
#90=VERTEX_POINT('',#89);
#91=CARTESIAN_POINT('',(9.652000000000001,5.069999999999999,-3.8));
#92=DIRECTION('',(0.0,0.0,1.0));
#93=VECTOR('',#92,4.3);
#94=LINE('',#91,#93);
#95=EDGE_CURVE('',#81,#90,#94,.T.);
#96=ORIENTED_EDGE('',*,*,#95,.T.);
#97=CARTESIAN_POINT('',(10.16,5.069999999999999,0.5));
#98=DIRECTION('',(0.0,0.0,-1.0));
#99=DIRECTION('',(1.0,0.0,0.0));
#100=AXIS2_PLACEMENT_3D('',#97,#98,#99);
#101=CIRCLE('',#100,0.508);
#102=EDGE_CURVE('',#73,#90,#101,.F.);
#103=ORIENTED_EDGE('',*,*,#102,.F.);
#104=EDGE_LOOP('',(#79,#88,#96,#103));
#105=FACE_OUTER_BOUND('',#104,.T.);
#106=ADVANCED_FACE('',(#105),#69,.T.);
#107=CARTESIAN_POINT('',(10.16,5.069999999999999,0.299999999999999));
#108=DIRECTION('',(0.0,0.0,-1.0));
#109=DIRECTION('',(1.0,0.0,0.0));
#110=AXIS2_PLACEMENT_3D('',#107,#108,#109);
#111=CYLINDRICAL_SURFACE('',#110,0.508);
#112=ORIENTED_EDGE('',*,*,#78,.T.);
#113=CARTESIAN_POINT('',(10.16,5.069999999999999,0.5));
#114=DIRECTION('',(0.0,0.0,-1.0));
#115=DIRECTION('',(1.0,0.0,0.0));
#116=AXIS2_PLACEMENT_3D('',#113,#114,#115);
#117=CIRCLE('',#116,0.508);
#118=EDGE_CURVE('',#90,#73,#117,.F.);
#119=ORIENTED_EDGE('',*,*,#118,.F.);
#120=ORIENTED_EDGE('',*,*,#95,.F.);
#121=CARTESIAN_POINT('',(10.16,5.069999999999999,-3.8));
#122=DIRECTION('',(0.0,0.0,1.0));
#123=DIRECTION('',(1.0,0.0,0.0));
#124=AXIS2_PLACEMENT_3D('',#121,#122,#123);
#125=CIRCLE('',#124,0.508);
#126=EDGE_CURVE('',#81,#71,#125,.T.);
#127=ORIENTED_EDGE('',*,*,#126,.T.);
#128=EDGE_LOOP('',(#112,#119,#120,#127));
#129=FACE_OUTER_BOUND('',#128,.T.);
#130=ADVANCED_FACE('',(#129),#111,.T.);
#131=CARTESIAN_POINT('',(10.16,5.069999999999999,-3.8));
#132=DIRECTION('',(0.0,0.0,1.0));
#133=DIRECTION('',(1.0,0.0,0.0));
#134=AXIS2_PLACEMENT_3D('',#131,#132,#133);
#135=PLANE('',#134);
#136=ORIENTED_EDGE('',*,*,#87,.F.);
#137=ORIENTED_EDGE('',*,*,#126,.F.);
#138=EDGE_LOOP('',(#136,#137));
#139=FACE_OUTER_BOUND('',#138,.T.);
#140=ADVANCED_FACE('',(#139),#135,.F.);
#141=CARTESIAN_POINT('',(10.16,5.069999999999999,0.5));
#142=DIRECTION('',(0.0,0.0,1.0));
#143=DIRECTION('',(1.0,0.0,0.0));
#144=AXIS2_PLACEMENT_3D('',#141,#142,#143);
#145=PLANE('',#144);
#146=ORIENTED_EDGE('',*,*,#118,.T.);
#147=ORIENTED_EDGE('',*,*,#102,.T.);
#148=EDGE_LOOP('',(#146,#147));
#149=FACE_OUTER_BOUND('',#148,.T.);
#150=ADVANCED_FACE('',(#149),#145,.T.);
#151=CLOSED_SHELL('',(#106,#130,#140,#150));
#152=MANIFOLD_SOLID_BREP('14FA',#151);
#153=COLOUR_RGB('254',0.866,0.866,0.866);
#154=SURFACE_STYLE_USAGE(.BOTH.,#155);
#155=SURFACE_SIDE_STYLE('NONE',(#156));
#156=SURFACE_STYLE_FILL_AREA(#157);
#157=FILL_AREA_STYLE('NONE',(#158));
#158=FILL_AREA_STYLE_COLOUR('NONE',#153);
#159=PRESENTATION_STYLE_ASSIGNMENT((#154));
#160=STYLED_ITEM('NONE',(#159),#152);
#161=MECHANICAL_DESIGN_GEOMETRIC_PRESENTATION_REPRESENTATION('NONE',(#160,#251,#340,#436,#530,#617,#924),#28);
#162=PRESENTATION_LAYER_ASSIGNMENT('3D','None',(#152,#250,#339,#428,#522,#616,#923));
#163=CARTESIAN_POINT('',(0.0,-5.089999999999999,0.299999999999998));
#164=DIRECTION('',(0.0,0.0,-1.0));
#165=DIRECTION('',(1.0,0.0,0.0));
#166=AXIS2_PLACEMENT_3D('',#163,#164,#165);
#167=CYLINDRICAL_SURFACE('',#166,0.508);
#168=CARTESIAN_POINT('',(0.507999999999999,-5.089999999999999,-3.800000000000002));
#169=VERTEX_POINT('',#168);
#170=CARTESIAN_POINT('',(0.508,-5.089999999999999,0.499999999999998));
#171=VERTEX_POINT('',#170);
#172=CARTESIAN_POINT('',(0.508,-5.089999999999999,-3.800000000000002));
#173=DIRECTION('',(0.0,0.0,1.0));
#174=VECTOR('',#173,4.3);
#175=LINE('',#172,#174);
#176=EDGE_CURVE('',#169,#171,#175,.T.);
#177=ORIENTED_EDGE('',*,*,#176,.F.);
#178=CARTESIAN_POINT('',(-0.508,-5.089999999999999,-3.800000000000002));
#179=VERTEX_POINT('',#178);
#180=CARTESIAN_POINT('',(0.0,-5.089999999999999,-3.800000000000002));
#181=DIRECTION('',(0.0,0.0,1.0));
#182=DIRECTION('',(1.0,0.0,0.0));
#183=AXIS2_PLACEMENT_3D('',#180,#181,#182);
#184=CIRCLE('',#183,0.508);
#185=EDGE_CURVE('',#169,#179,#184,.T.);
#186=ORIENTED_EDGE('',*,*,#185,.T.);
#187=CARTESIAN_POINT('',(-0.507999999999999,-5.089999999999999,0.499999999999998));
#188=VERTEX_POINT('',#187);
#189=CARTESIAN_POINT('',(-0.508,-5.089999999999999,-3.800000000000002));
#190=DIRECTION('',(0.0,0.0,1.0));
#191=VECTOR('',#190,4.3);
#192=LINE('',#189,#191);
#193=EDGE_CURVE('',#179,#188,#192,.T.);
#194=ORIENTED_EDGE('',*,*,#193,.T.);
#195=CARTESIAN_POINT('',(0.0,-5.089999999999999,0.499999999999998));
#196=DIRECTION('',(0.0,0.0,-1.0));
#197=DIRECTION('',(1.0,0.0,0.0));
#198=AXIS2_PLACEMENT_3D('',#195,#196,#197);
#199=CIRCLE('',#198,0.508);
#200=EDGE_CURVE('',#171,#188,#199,.F.);
#201=ORIENTED_EDGE('',*,*,#200,.F.);
#202=EDGE_LOOP('',(#177,#186,#194,#201));
#203=FACE_OUTER_BOUND('',#202,.T.);
#204=ADVANCED_FACE('',(#203),#167,.T.);
#205=CARTESIAN_POINT('',(0.0,-5.089999999999999,0.299999999999998));
#206=DIRECTION('',(0.0,0.0,-1.0));
#207=DIRECTION('',(1.0,0.0,0.0));
#208=AXIS2_PLACEMENT_3D('',#205,#206,#207);
#209=CYLINDRICAL_SURFACE('',#208,0.508);
#210=ORIENTED_EDGE('',*,*,#176,.T.);
#211=CARTESIAN_POINT('',(0.0,-5.089999999999999,0.499999999999998));
#212=DIRECTION('',(0.0,0.0,-1.0));
#213=DIRECTION('',(1.0,0.0,0.0));
#214=AXIS2_PLACEMENT_3D('',#211,#212,#213);
#215=CIRCLE('',#214,0.508);
#216=EDGE_CURVE('',#188,#171,#215,.F.);
#217=ORIENTED_EDGE('',*,*,#216,.F.);
#218=ORIENTED_EDGE('',*,*,#193,.F.);
#219=CARTESIAN_POINT('',(0.0,-5.089999999999999,-3.800000000000002));
#220=DIRECTION('',(0.0,0.0,1.0));
#221=DIRECTION('',(1.0,0.0,0.0));
#222=AXIS2_PLACEMENT_3D('',#219,#220,#221);
#223=CIRCLE('',#222,0.508);
#224=EDGE_CURVE('',#179,#169,#223,.T.);
#225=ORIENTED_EDGE('',*,*,#224,.T.);
#226=EDGE_LOOP('',(#210,#217,#218,#225));
#227=FACE_OUTER_BOUND('',#226,.T.);
#228=ADVANCED_FACE('',(#227),#209,.T.);
#229=CARTESIAN_POINT('',(0.0,-5.089999999999999,-3.800000000000002));
#230=DIRECTION('',(0.0,0.0,1.0));
#231=DIRECTION('',(1.0,0.0,0.0));
#232=AXIS2_PLACEMENT_3D('',#229,#230,#231);
#233=PLANE('',#232);
#234=ORIENTED_EDGE('',*,*,#185,.F.);
#235=ORIENTED_EDGE('',*,*,#224,.F.);
#236=EDGE_LOOP('',(#234,#235));
#237=FACE_OUTER_BOUND('',#236,.T.);
#238=ADVANCED_FACE('',(#237),#233,.F.);
#239=CARTESIAN_POINT('',(0.0,-5.089999999999999,0.499999999999998));
#240=DIRECTION('',(0.0,0.0,1.0));
#241=DIRECTION('',(1.0,0.0,0.0));
#242=AXIS2_PLACEMENT_3D('',#239,#240,#241);
#243=PLANE('',#242);
#244=ORIENTED_EDGE('',*,*,#216,.T.);
#245=ORIENTED_EDGE('',*,*,#200,.T.);
#246=EDGE_LOOP('',(#244,#245));
#247=FACE_OUTER_BOUND('',#246,.T.);
#248=ADVANCED_FACE('',(#247),#243,.T.);
#249=CLOSED_SHELL('',(#204,#228,#238,#248));
#250=MANIFOLD_SOLID_BREP('14F7',#249);
#251=STYLED_ITEM('NONE',(#159),#250);
#252=CARTESIAN_POINT('',(-10.16,5.070000000000001,0.299999999999999));
#253=DIRECTION('',(0.0,0.0,-1.0));
#254=DIRECTION('',(1.0,0.0,0.0));
#255=AXIS2_PLACEMENT_3D('',#252,#253,#254);
#256=CYLINDRICAL_SURFACE('',#255,0.508);
#257=CARTESIAN_POINT('',(-9.652000000000001,5.070000000000001,-3.8));
#258=VERTEX_POINT('',#257);
#259=CARTESIAN_POINT('',(-9.652000000000001,5.070000000000001,0.5));
#260=VERTEX_POINT('',#259);
#261=CARTESIAN_POINT('',(-9.652000000000001,5.070000000000001,-3.8));
#262=DIRECTION('',(0.0,0.0,1.0));
#263=VECTOR('',#262,4.3);
#264=LINE('',#261,#263);
#265=EDGE_CURVE('',#258,#260,#264,.T.);
#266=ORIENTED_EDGE('',*,*,#265,.F.);
#267=CARTESIAN_POINT('',(-10.667999999999999,5.070000000000001,-3.8));
#268=VERTEX_POINT('',#267);
#269=CARTESIAN_POINT('',(-10.16,5.070000000000001,-3.8));
#270=DIRECTION('',(0.0,0.0,1.0));
#271=DIRECTION('',(1.0,0.0,0.0));
#272=AXIS2_PLACEMENT_3D('',#269,#270,#271);
#273=CIRCLE('',#272,0.508);
#274=EDGE_CURVE('',#258,#268,#273,.T.);
#275=ORIENTED_EDGE('',*,*,#274,.T.);
#276=CARTESIAN_POINT('',(-10.667999999999999,5.070000000000001,0.5));
#277=VERTEX_POINT('',#276);
#278=CARTESIAN_POINT('',(-10.667999999999999,5.070000000000001,-3.8));
#279=DIRECTION('',(0.0,0.0,1.0));
#280=VECTOR('',#279,4.3);
#281=LINE('',#278,#280);
#282=EDGE_CURVE('',#268,#277,#281,.T.);
#283=ORIENTED_EDGE('',*,*,#282,.T.);
#284=CARTESIAN_POINT('',(-10.16,5.070000000000001,0.5));
#285=DIRECTION('',(0.0,0.0,-1.0));
#286=DIRECTION('',(1.0,0.0,0.0));
#287=AXIS2_PLACEMENT_3D('',#284,#285,#286);
#288=CIRCLE('',#287,0.508);
#289=EDGE_CURVE('',#260,#277,#288,.F.);
#290=ORIENTED_EDGE('',*,*,#289,.F.);
#291=EDGE_LOOP('',(#266,#275,#283,#290));
#292=FACE_OUTER_BOUND('',#291,.T.);
#293=ADVANCED_FACE('',(#292),#256,.T.);
#294=CARTESIAN_POINT('',(-10.16,5.070000000000001,0.299999999999999));
#295=DIRECTION('',(0.0,0.0,-1.0));
#296=DIRECTION('',(1.0,0.0,0.0));
#297=AXIS2_PLACEMENT_3D('',#294,#295,#296);
#298=CYLINDRICAL_SURFACE('',#297,0.508);
#299=ORIENTED_EDGE('',*,*,#265,.T.);
#300=CARTESIAN_POINT('',(-10.16,5.070000000000001,0.5));
#301=DIRECTION('',(0.0,0.0,-1.0));
#302=DIRECTION('',(1.0,0.0,0.0));
#303=AXIS2_PLACEMENT_3D('',#300,#301,#302);
#304=CIRCLE('',#303,0.508);
#305=EDGE_CURVE('',#277,#260,#304,.F.);
#306=ORIENTED_EDGE('',*,*,#305,.F.);
#307=ORIENTED_EDGE('',*,*,#282,.F.);
#308=CARTESIAN_POINT('',(-10.16,5.070000000000001,-3.8));
#309=DIRECTION('',(0.0,0.0,1.0));
#310=DIRECTION('',(1.0,0.0,0.0));
#311=AXIS2_PLACEMENT_3D('',#308,#309,#310);
#312=CIRCLE('',#311,0.508);
#313=EDGE_CURVE('',#268,#258,#312,.T.);
#314=ORIENTED_EDGE('',*,*,#313,.T.);
#315=EDGE_LOOP('',(#299,#306,#307,#314));
#316=FACE_OUTER_BOUND('',#315,.T.);
#317=ADVANCED_FACE('',(#316),#298,.T.);
#318=CARTESIAN_POINT('',(-10.16,5.070000000000001,-3.8));
#319=DIRECTION('',(0.0,0.0,1.0));
#320=DIRECTION('',(1.0,0.0,0.0));
#321=AXIS2_PLACEMENT_3D('',#318,#319,#320);
#322=PLANE('',#321);
#323=ORIENTED_EDGE('',*,*,#274,.F.);
#324=ORIENTED_EDGE('',*,*,#313,.F.);
#325=EDGE_LOOP('',(#323,#324));
#326=FACE_OUTER_BOUND('',#325,.T.);
#327=ADVANCED_FACE('',(#326),#322,.F.);
#328=CARTESIAN_POINT('',(-10.16,5.070000000000001,0.5));
#329=DIRECTION('',(0.0,0.0,1.0));
#330=DIRECTION('',(1.0,0.0,0.0));
#331=AXIS2_PLACEMENT_3D('',#328,#329,#330);
#332=PLANE('',#331);
#333=ORIENTED_EDGE('',*,*,#305,.T.);
#334=ORIENTED_EDGE('',*,*,#289,.T.);
#335=EDGE_LOOP('',(#333,#334));
#336=FACE_OUTER_BOUND('',#335,.T.);
#337=ADVANCED_FACE('',(#336),#332,.T.);
#338=CLOSED_SHELL('',(#293,#317,#327,#337));
#339=MANIFOLD_SOLID_BREP('14F2',#338);
#340=STYLED_ITEM('NONE',(#159),#339);
#341=CARTESIAN_POINT('',(-14.099999999999998,-7.149999999999999,1.499999999999996));
#342=DIRECTION('',(0.0,1.0,0.0));
#343=DIRECTION('',(1.0,0.0,0.0));
#344=AXIS2_PLACEMENT_3D('',#341,#342,#343);
#345=CYLINDRICAL_SURFACE('',#344,0.5);
#346=CARTESIAN_POINT('',(-13.599999999999998,-7.049999999999999,1.499999999999996));
#347=VERTEX_POINT('',#346);
#348=CARTESIAN_POINT('',(-13.599999999999998,-7.149999999999999,1.499999999999996));
#349=VERTEX_POINT('',#348);
#350=CARTESIAN_POINT('',(-13.599999999999998,-7.049999999999999,1.499999999999996));
#351=DIRECTION('',(0.0,-1.0,0.0));
#352=VECTOR('',#351,0.1);
#353=LINE('',#350,#352);
#354=EDGE_CURVE('',#347,#349,#353,.T.);
#355=ORIENTED_EDGE('',*,*,#354,.F.);
#356=CARTESIAN_POINT('',(-14.599999999999998,-7.049999999999999,1.499999999999996));
#357=VERTEX_POINT('',#356);
#358=CARTESIAN_POINT('',(-14.099999999999998,-7.049999999999999,1.499999999999996));
#359=DIRECTION('',(0.0,-1.0,0.0));
#360=DIRECTION('',(1.0,0.0,0.0));
#361=AXIS2_PLACEMENT_3D('',#358,#359,#360);
#362=CIRCLE('',#361,0.5);
#363=EDGE_CURVE('',#347,#357,#362,.T.);
#364=ORIENTED_EDGE('',*,*,#363,.T.);
#365=CARTESIAN_POINT('',(-14.599999999999998,-7.149999999999999,1.499999999999996));
#366=VERTEX_POINT('',#365);
#367=CARTESIAN_POINT('',(-14.599999999999998,-7.049999999999999,1.499999999999996));
#368=DIRECTION('',(0.0,-1.0,0.0));
#369=VECTOR('',#368,0.1);
#370=LINE('',#367,#369);
#371=EDGE_CURVE('',#357,#366,#370,.T.);
#372=ORIENTED_EDGE('',*,*,#371,.T.);
#373=CARTESIAN_POINT('',(-14.099999999999998,-7.149999999999999,1.499999999999996));
#374=DIRECTION('',(0.0,-1.0,0.0));
#375=DIRECTION('',(1.0,0.0,0.0));
#376=AXIS2_PLACEMENT_3D('',#373,#374,#375);
#377=CIRCLE('',#376,0.5);
#378=EDGE_CURVE('',#349,#366,#377,.T.);
#379=ORIENTED_EDGE('',*,*,#378,.F.);
#380=EDGE_LOOP('',(#355,#364,#372,#379));
#381=FACE_OUTER_BOUND('',#380,.T.);
#382=ADVANCED_FACE('',(#381),#345,.T.);
#383=CARTESIAN_POINT('',(-14.099999999999998,-7.149999999999999,1.499999999999996));
#384=DIRECTION('',(0.0,1.0,0.0));
#385=DIRECTION('',(1.0,0.0,0.0));
#386=AXIS2_PLACEMENT_3D('',#383,#384,#385);
#387=CYLINDRICAL_SURFACE('',#386,0.5);
#388=ORIENTED_EDGE('',*,*,#354,.T.);
#389=CARTESIAN_POINT('',(-14.099999999999998,-7.149999999999999,1.499999999999996));
#390=DIRECTION('',(0.0,-1.0,0.0));
#391=DIRECTION('',(1.0,0.0,0.0));
#392=AXIS2_PLACEMENT_3D('',#389,#390,#391);
#393=CIRCLE('',#392,0.5);
#394=EDGE_CURVE('',#366,#349,#393,.T.);
#395=ORIENTED_EDGE('',*,*,#394,.F.);
#396=ORIENTED_EDGE('',*,*,#371,.F.);
#397=CARTESIAN_POINT('',(-14.099999999999998,-7.049999999999999,1.499999999999996));
#398=DIRECTION('',(0.0,-1.0,0.0));
#399=DIRECTION('',(1.0,0.0,0.0));
#400=AXIS2_PLACEMENT_3D('',#397,#398,#399);
#401=CIRCLE('',#400,0.5);
#402=EDGE_CURVE('',#357,#347,#401,.T.);
#403=ORIENTED_EDGE('',*,*,#402,.T.);
#404=EDGE_LOOP('',(#388,#395,#396,#403));
#405=FACE_OUTER_BOUND('',#404,.T.);
#406=ADVANCED_FACE('',(#405),#387,.T.);
#407=CARTESIAN_POINT('',(-14.099999999999998,-7.049999999999999,1.499999999999996));
#408=DIRECTION('',(0.0,-1.0,0.0));
#409=DIRECTION('',(0.0,0.0,-1.0));
#410=AXIS2_PLACEMENT_3D('',#407,#408,#409);
#411=PLANE('',#410);
#412=ORIENTED_EDGE('',*,*,#363,.F.);
#413=ORIENTED_EDGE('',*,*,#402,.F.);
#414=EDGE_LOOP('',(#412,#413));
#415=FACE_OUTER_BOUND('',#414,.T.);
#416=ADVANCED_FACE('',(#415),#411,.F.);
#417=CARTESIAN_POINT('',(-14.099999999999998,-7.149999999999999,1.499999999999996));
#418=DIRECTION('',(0.0,-1.0,0.0));
#419=DIRECTION('',(0.0,0.0,-1.0));
#420=AXIS2_PLACEMENT_3D('',#417,#418,#419);
#421=PLANE('',#420);
#422=ORIENTED_EDGE('',*,*,#378,.T.);
#423=ORIENTED_EDGE('',*,*,#394,.T.);
#424=EDGE_LOOP('',(#422,#423));
#425=FACE_OUTER_BOUND('',#424,.T.);
#426=ADVANCED_FACE('',(#425),#421,.T.);
#427=CLOSED_SHELL('',(#382,#406,#416,#426));
#428=MANIFOLD_SOLID_BREP('14E7',#427);
#429=COLOUR_RGB('54',0.5,0.5,0.0);
#430=SURFACE_STYLE_USAGE(.BOTH.,#431);
#431=SURFACE_SIDE_STYLE('NONE',(#432));
#432=SURFACE_STYLE_FILL_AREA(#433);
#433=FILL_AREA_STYLE('NONE',(#434));
#434=FILL_AREA_STYLE_COLOUR('NONE',#429);
#435=PRESENTATION_STYLE_ASSIGNMENT((#430));
#436=STYLED_ITEM('NONE',(#435),#428);
#437=CARTESIAN_POINT('',(-9.16,7.150000000000001,0.5));
#438=DIRECTION('',(-1.224647E-016,-1.0,-2.212682E-016));
#439=DIRECTION('',(0.0,0.0,-1.0));
#440=AXIS2_PLACEMENT_3D('',#437,#438,#439);
#441=CYLINDRICAL_SURFACE('',#440,0.5);
#442=CARTESIAN_POINT('',(-8.66,-7.150000000000003,0.499999999999997));
#443=VERTEX_POINT('',#442);
#444=CARTESIAN_POINT('',(-9.66,-7.150000000000003,0.499999999999997));
#445=VERTEX_POINT('',#444);
#446=CARTESIAN_POINT('',(-9.16,-7.150000000000003,0.499999999999997));
#447=DIRECTION('',(0.0,1.0,0.0));
#448=DIRECTION('',(0.0,0.0,-1.0));
#449=AXIS2_PLACEMENT_3D('',#446,#447,#448);
#450=CIRCLE('',#449,0.5);
#451=EDGE_CURVE('',#443,#445,#450,.T.);
#452=ORIENTED_EDGE('',*,*,#451,.T.);
#453=CARTESIAN_POINT('',(-9.66,7.150000000000001,0.5));
#454=VERTEX_POINT('',#453);
#455=CARTESIAN_POINT('',(-9.66,7.150000000000001,0.5));
#456=DIRECTION('',(0.0,-1.0,0.0));
#457=VECTOR('',#456,14.300000000000004);
#458=LINE('',#455,#457);
#459=EDGE_CURVE('',#454,#445,#458,.T.);
#460=ORIENTED_EDGE('',*,*,#459,.F.);
#461=CARTESIAN_POINT('',(-8.66,7.150000000000001,0.5));
#462=VERTEX_POINT('',#461);
#463=CARTESIAN_POINT('',(-9.16,7.150000000000001,0.5));
#464=DIRECTION('',(0.0,-1.0,0.0));
#465=DIRECTION('',(0.0,0.0,-1.0));
#466=AXIS2_PLACEMENT_3D('',#463,#464,#465);
#467=CIRCLE('',#466,0.5);
#468=EDGE_CURVE('',#454,#462,#467,.T.);
#469=ORIENTED_EDGE('',*,*,#468,.T.);
#470=CARTESIAN_POINT('',(-8.66,7.150000000000001,0.5));
#471=DIRECTION('',(0.0,-1.0,0.0));
#472=VECTOR('',#471,14.300000000000004);
#473=LINE('',#470,#472);
#474=EDGE_CURVE('',#462,#443,#473,.T.);
#475=ORIENTED_EDGE('',*,*,#474,.T.);
#476=EDGE_LOOP('',(#452,#460,#469,#475));
#477=FACE_OUTER_BOUND('',#476,.T.);
#478=ADVANCED_FACE('',(#477),#441,.T.);
#479=CARTESIAN_POINT('',(-9.66,7.150000000000001,0.5));
#480=DIRECTION('',(0.0,0.0,1.0));
#481=DIRECTION('',(-1.0,0.0,0.0));
#482=AXIS2_PLACEMENT_3D('',#479,#480,#481);
#483=PLANE('',#482);
#484=CARTESIAN_POINT('',(-9.66,-7.150000000000003,0.499999999999997));
#485=DIRECTION('',(1.0,0.0,0.0));
#486=VECTOR('',#485,1.0);
#487=LINE('',#484,#486);
#488=EDGE_CURVE('',#445,#443,#487,.T.);
#489=ORIENTED_EDGE('',*,*,#488,.T.);
#490=ORIENTED_EDGE('',*,*,#474,.F.);
#491=CARTESIAN_POINT('',(-8.66,7.150000000000001,0.5));
#492=DIRECTION('',(-1.0,0.0,0.0));
#493=VECTOR('',#492,1.0);
#494=LINE('',#491,#493);
#495=EDGE_CURVE('',#462,#454,#494,.T.);
#496=ORIENTED_EDGE('',*,*,#495,.T.);
#497=ORIENTED_EDGE('',*,*,#459,.T.);
#498=EDGE_LOOP('',(#489,#490,#496,#497));
#499=FACE_OUTER_BOUND('',#498,.T.);
#500=ADVANCED_FACE('',(#499),#483,.T.);
#501=CARTESIAN_POINT('',(-9.16,7.150000000000001,0.32464546129897));
#502=DIRECTION('',(0.0,-1.0,0.0));
#503=DIRECTION('',(0.0,0.0,1.0));
#504=AXIS2_PLACEMENT_3D('',#501,#502,#503);
#505=PLANE('',#504);
#506=ORIENTED_EDGE('',*,*,#495,.F.);
#507=ORIENTED_EDGE('',*,*,#468,.F.);
#508=EDGE_LOOP('',(#506,#507));
#509=FACE_OUTER_BOUND('',#508,.T.);
#510=ADVANCED_FACE('',(#509),#505,.F.);
#511=CARTESIAN_POINT('',(-9.16,-7.150000000000003,0.324645461298967));
#512=DIRECTION('',(0.0,-1.0,0.0));
#513=DIRECTION('',(0.0,0.0,1.0));
#514=AXIS2_PLACEMENT_3D('',#511,#512,#513);
#515=PLANE('',#514);
#516=ORIENTED_EDGE('',*,*,#451,.F.);
#517=ORIENTED_EDGE('',*,*,#488,.F.);
#518=EDGE_LOOP('',(#516,#517));
#519=FACE_OUTER_BOUND('',#518,.T.);
#520=ADVANCED_FACE('',(#519),#515,.T.);
#521=CLOSED_SHELL('',(#478,#500,#510,#520));
#522=MANIFOLD_SOLID_BREP('14E2',#521);
#523=COLOUR_RGB('250',0.33,0.33,0.33);
#524=SURFACE_STYLE_USAGE(.BOTH.,#525);
#525=SURFACE_SIDE_STYLE('NONE',(#526));
#526=SURFACE_STYLE_FILL_AREA(#527);
#527=FILL_AREA_STYLE('NONE',(#528));
#528=FILL_AREA_STYLE_COLOUR('NONE',#523);
#529=PRESENTATION_STYLE_ASSIGNMENT((#524));
#530=STYLED_ITEM('NONE',(#529),#522);
#531=CARTESIAN_POINT('',(9.16,7.15,0.5));
#532=DIRECTION('',(-1.224647E-016,-1.0,-2.212682E-016));
#533=DIRECTION('',(0.0,0.0,-1.0));
#534=AXIS2_PLACEMENT_3D('',#531,#532,#533);
#535=CYLINDRICAL_SURFACE('',#534,0.5);
#536=CARTESIAN_POINT('',(9.66,-7.150000000000005,0.499999999999997));
#537=VERTEX_POINT('',#536);
#538=CARTESIAN_POINT('',(8.66,-7.150000000000005,0.499999999999997));
#539=VERTEX_POINT('',#538);
#540=CARTESIAN_POINT('',(9.16,-7.150000000000005,0.499999999999997));
#541=DIRECTION('',(0.0,1.0,0.0));
#542=DIRECTION('',(0.0,0.0,-1.0));
#543=AXIS2_PLACEMENT_3D('',#540,#541,#542);
#544=CIRCLE('',#543,0.5);
#545=EDGE_CURVE('',#537,#539,#544,.T.);
#546=ORIENTED_EDGE('',*,*,#545,.T.);
#547=CARTESIAN_POINT('',(8.66,7.15,0.5));
#548=VERTEX_POINT('',#547);
#549=CARTESIAN_POINT('',(8.66,7.15,0.5));
#550=DIRECTION('',(0.0,-1.0,0.0));
#551=VECTOR('',#550,14.300000000000004);
#552=LINE('',#549,#551);
#553=EDGE_CURVE('',#548,#539,#552,.T.);
#554=ORIENTED_EDGE('',*,*,#553,.F.);
#555=CARTESIAN_POINT('',(9.66,7.15,0.5));
#556=VERTEX_POINT('',#555);
#557=CARTESIAN_POINT('',(9.16,7.15,0.5));
#558=DIRECTION('',(0.0,-1.0,0.0));
#559=DIRECTION('',(0.0,0.0,-1.0));
#560=AXIS2_PLACEMENT_3D('',#557,#558,#559);
#561=CIRCLE('',#560,0.5);
#562=EDGE_CURVE('',#548,#556,#561,.T.);
#563=ORIENTED_EDGE('',*,*,#562,.T.);
#564=CARTESIAN_POINT('',(9.66,7.15,0.5));
#565=DIRECTION('',(0.0,-1.0,0.0));
#566=VECTOR('',#565,14.300000000000004);
#567=LINE('',#564,#566);
#568=EDGE_CURVE('',#556,#537,#567,.T.);
#569=ORIENTED_EDGE('',*,*,#568,.T.);
#570=EDGE_LOOP('',(#546,#554,#563,#569));
#571=FACE_OUTER_BOUND('',#570,.T.);
#572=ADVANCED_FACE('',(#571),#535,.T.);
#573=CARTESIAN_POINT('',(8.66,7.15,0.5));
#574=DIRECTION('',(0.0,0.0,1.0));
#575=DIRECTION('',(-1.0,0.0,0.0));
#576=AXIS2_PLACEMENT_3D('',#573,#574,#575);
#577=PLANE('',#576);
#578=CARTESIAN_POINT('',(8.66,-7.150000000000005,0.499999999999997));
#579=DIRECTION('',(1.0,0.0,0.0));
#580=VECTOR('',#579,1.0);
#581=LINE('',#578,#580);
#582=EDGE_CURVE('',#539,#537,#581,.T.);
#583=ORIENTED_EDGE('',*,*,#582,.T.);
#584=ORIENTED_EDGE('',*,*,#568,.F.);
#585=CARTESIAN_POINT('',(9.66,7.15,0.5));
#586=DIRECTION('',(-1.0,0.0,0.0));
#587=VECTOR('',#586,1.0);
#588=LINE('',#585,#587);
#589=EDGE_CURVE('',#556,#548,#588,.T.);
#590=ORIENTED_EDGE('',*,*,#589,.T.);
#591=ORIENTED_EDGE('',*,*,#553,.T.);
#592=EDGE_LOOP('',(#583,#584,#590,#591));
#593=FACE_OUTER_BOUND('',#592,.T.);
#594=ADVANCED_FACE('',(#593),#577,.T.);
#595=CARTESIAN_POINT('',(9.16,7.15,0.32464546129897));
#596=DIRECTION('',(0.0,-1.0,0.0));
#597=DIRECTION('',(0.0,0.0,1.0));
#598=AXIS2_PLACEMENT_3D('',#595,#596,#597);
#599=PLANE('',#598);
#600=ORIENTED_EDGE('',*,*,#589,.F.);
#601=ORIENTED_EDGE('',*,*,#562,.F.);
#602=EDGE_LOOP('',(#600,#601));
#603=FACE_OUTER_BOUND('',#602,.T.);
#604=ADVANCED_FACE('',(#603),#599,.F.);
#605=CARTESIAN_POINT('',(9.16,-7.150000000000005,0.324645461298967));
#606=DIRECTION('',(0.0,-1.0,0.0));
#607=DIRECTION('',(0.0,0.0,1.0));
#608=AXIS2_PLACEMENT_3D('',#605,#606,#607);
#609=PLANE('',#608);
#610=ORIENTED_EDGE('',*,*,#545,.F.);
#611=ORIENTED_EDGE('',*,*,#582,.F.);
#612=EDGE_LOOP('',(#610,#611));
#613=FACE_OUTER_BOUND('',#612,.T.);
#614=ADVANCED_FACE('',(#613),#609,.T.);
#615=CLOSED_SHELL('',(#572,#594,#604,#614));
#616=MANIFOLD_SOLID_BREP('14DE',#615);
#617=STYLED_ITEM('NONE',(#529),#616);
#618=CARTESIAN_POINT('',(1.800231E-015,7.150000000000003,15.100000000000001));
#619=DIRECTION('',(-1.224647E-016,-1.0,-2.484415E-016));
#620=DIRECTION('',(-1.0,0.0,0.0));
#621=AXIS2_PLACEMENT_3D('',#618,#619,#620);
#622=CYLINDRICAL_SURFACE('',#621,5.7);
#623=CARTESIAN_POINT('',(-5.699999999999998,7.149999999999999,15.100000000000001));
#624=VERTEX_POINT('',#623);
#625=CARTESIAN_POINT('',(-5.7,-7.150000000000004,15.099999999999998));
#626=VERTEX_POINT('',#625);
#627=CARTESIAN_POINT('',(-5.699999999999998,7.149999999999999,15.100000000000001));
#628=DIRECTION('',(0.0,-1.0,0.0));
#629=VECTOR('',#628,14.300000000000002);
#630=LINE('',#627,#629);
#631=EDGE_CURVE('',#624,#626,#630,.T.);
#632=ORIENTED_EDGE('',*,*,#631,.F.);
#633=CARTESIAN_POINT('',(5.700000000000002,7.149999999999997,15.100000000000001));
#634=VERTEX_POINT('',#633);
#635=CARTESIAN_POINT('',(1.800231E-015,7.149999999999998,15.100000000000001));
#636=DIRECTION('',(0.0,-1.0,0.0));
#637=DIRECTION('',(-1.0,0.0,0.0));
#638=AXIS2_PLACEMENT_3D('',#635,#636,#637);
#639=CIRCLE('',#638,5.7);
#640=EDGE_CURVE('',#634,#624,#639,.T.);
#641=ORIENTED_EDGE('',*,*,#640,.F.);
#642=CARTESIAN_POINT('',(5.7,-7.150000000000006,15.099999999999998));
#643=VERTEX_POINT('',#642);
#644=CARTESIAN_POINT('',(5.700000000000002,7.149999999999997,15.100000000000001));
#645=DIRECTION('',(0.0,-1.0,0.0));
#646=VECTOR('',#645,14.300000000000002);
#647=LINE('',#644,#646);
#648=EDGE_CURVE('',#634,#643,#647,.T.);
#649=ORIENTED_EDGE('',*,*,#648,.T.);
#650=CARTESIAN_POINT('',(4.898587E-017,-7.150000000000005,15.099999999999998));
#651=DIRECTION('',(0.0,1.0,0.0));
#652=DIRECTION('',(-1.0,0.0,0.0));
#653=AXIS2_PLACEMENT_3D('',#650,#651,#652);
#654=CIRCLE('',#653,5.7);
#655=EDGE_CURVE('',#626,#643,#654,.T.);
#656=ORIENTED_EDGE('',*,*,#655,.F.);
#657=EDGE_LOOP('',(#632,#641,#649,#656));
#658=FACE_OUTER_BOUND('',#657,.T.);
#659=ADVANCED_FACE('',(#658),#622,.F.);
#660=CARTESIAN_POINT('',(-14.1,-7.149999999999999,1.499999999999996));
#661=DIRECTION('',(0.0,1.0,0.0));
#662=DIRECTION('',(1.0,0.0,0.0));
#663=AXIS2_PLACEMENT_3D('',#660,#661,#662);
#664=CYLINDRICAL_SURFACE('',#663,0.5);
#665=CARTESIAN_POINT('',(-13.6,-7.149999999999999,1.499999999999996));
#666=VERTEX_POINT('',#665);
#667=CARTESIAN_POINT('',(-13.6,-7.049999999999999,1.499999999999996));
#668=VERTEX_POINT('',#667);
#669=CARTESIAN_POINT('',(-13.6,-7.149999999999999,1.499999999999996));
#670=DIRECTION('',(0.0,1.0,0.0));
#671=VECTOR('',#670,0.1);
#672=LINE('',#669,#671);
#673=EDGE_CURVE('',#666,#668,#672,.T.);
#674=ORIENTED_EDGE('',*,*,#673,.F.);
#675=CARTESIAN_POINT('',(-14.6,-7.150000000000004,1.499999999999996));
#676=VERTEX_POINT('',#675);
#677=CARTESIAN_POINT('',(-14.1,-7.150000000000004,1.499999999999996));
#678=DIRECTION('',(0.0,1.0,0.0));
#679=DIRECTION('',(1.0,0.0,0.0));
#680=AXIS2_PLACEMENT_3D('',#677,#678,#679);
#681=CIRCLE('',#680,0.5);
#682=EDGE_CURVE('',#676,#666,#681,.T.);
#683=ORIENTED_EDGE('',*,*,#682,.F.);
#684=CARTESIAN_POINT('',(-14.6,-7.049999999999999,1.499999999999996));
#685=VERTEX_POINT('',#684);
#686=CARTESIAN_POINT('',(-14.6,-7.150000000000004,1.499999999999996));
#687=DIRECTION('',(0.0,1.0,0.0));
#688=VECTOR('',#687,0.100000000000005);
#689=LINE('',#686,#688);
#690=EDGE_CURVE('',#676,#685,#689,.T.);
#691=ORIENTED_EDGE('',*,*,#690,.T.);
#692=CARTESIAN_POINT('',(-14.1,-7.049999999999999,1.499999999999996));
#693=DIRECTION('',(0.0,-1.0,0.0));
#694=DIRECTION('',(1.0,0.0,0.0));
#695=AXIS2_PLACEMENT_3D('',#692,#693,#694);
#696=CIRCLE('',#695,0.5);
#697=EDGE_CURVE('',#668,#685,#696,.T.);
#698=ORIENTED_EDGE('',*,*,#697,.F.);
#699=EDGE_LOOP('',(#674,#683,#691,#698));
#700=FACE_OUTER_BOUND('',#699,.T.);
#701=ADVANCED_FACE('',(#700),#664,.F.);
#702=CARTESIAN_POINT('',(-14.1,-7.149999999999999,1.499999999999996));
#703=DIRECTION('',(0.0,1.0,0.0));
#704=DIRECTION('',(1.0,0.0,0.0));
#705=AXIS2_PLACEMENT_3D('',#702,#703,#704);
#706=CYLINDRICAL_SURFACE('',#705,0.5);
#707=ORIENTED_EDGE('',*,*,#673,.T.);
#708=CARTESIAN_POINT('',(-14.1,-7.049999999999999,1.499999999999996));
#709=DIRECTION('',(0.0,-1.0,0.0));
#710=DIRECTION('',(1.0,0.0,0.0));
#711=AXIS2_PLACEMENT_3D('',#708,#709,#710);
#712=CIRCLE('',#711,0.5);
#713=EDGE_CURVE('',#685,#668,#712,.T.);
#714=ORIENTED_EDGE('',*,*,#713,.F.);
#715=ORIENTED_EDGE('',*,*,#690,.F.);
#716=CARTESIAN_POINT('',(-14.1,-7.150000000000004,1.499999999999996));
#717=DIRECTION('',(0.0,1.0,0.0));
#718=DIRECTION('',(1.0,0.0,0.0));
#719=AXIS2_PLACEMENT_3D('',#716,#717,#718);
#720=CIRCLE('',#719,0.5);
#721=EDGE_CURVE('',#666,#676,#720,.T.);
#722=ORIENTED_EDGE('',*,*,#721,.F.);
#723=EDGE_LOOP('',(#707,#714,#715,#722));
#724=FACE_OUTER_BOUND('',#723,.T.);
#725=ADVANCED_FACE('',(#724),#706,.F.);
#726=CARTESIAN_POINT('',(-14.1,-7.049999999999999,1.499999999999996));
#727=DIRECTION('',(0.0,-1.0,0.0));
#728=DIRECTION('',(0.0,0.0,-1.0));
#729=AXIS2_PLACEMENT_3D('',#726,#727,#728);
#730=PLANE('',#729);
#731=ORIENTED_EDGE('',*,*,#697,.T.);
#732=ORIENTED_EDGE('',*,*,#713,.T.);
#733=EDGE_LOOP('',(#731,#732));
#734=FACE_OUTER_BOUND('',#733,.T.);
#735=ADVANCED_FACE('',(#734),#730,.T.);
#736=CARTESIAN_POINT('',(1.800231E-015,7.150000000000003,15.100000000000001));
#737=DIRECTION('',(-1.224647E-016,-1.0,-2.484415E-016));
#738=DIRECTION('',(-1.0,0.0,0.0));
#739=AXIS2_PLACEMENT_3D('',#736,#737,#738);
#740=CYLINDRICAL_SURFACE('',#739,5.7);
#741=ORIENTED_EDGE('',*,*,#631,.T.);
#742=CARTESIAN_POINT('',(4.898587E-017,-7.150000000000005,15.099999999999998));
#743=DIRECTION('',(0.0,1.0,0.0));
#744=DIRECTION('',(-1.0,0.0,0.0));
#745=AXIS2_PLACEMENT_3D('',#742,#743,#744);
#746=CIRCLE('',#745,5.7);
#747=EDGE_CURVE('',#643,#626,#746,.T.);
#748=ORIENTED_EDGE('',*,*,#747,.F.);
#749=ORIENTED_EDGE('',*,*,#648,.F.);
#750=CARTESIAN_POINT('',(1.800231E-015,7.149999999999998,15.100000000000001));
#751=DIRECTION('',(0.0,-1.0,0.0));
#752=DIRECTION('',(-1.0,0.0,0.0));
#753=AXIS2_PLACEMENT_3D('',#750,#751,#752);
#754=CIRCLE('',#753,5.7);
#755=EDGE_CURVE('',#624,#634,#754,.T.);
#756=ORIENTED_EDGE('',*,*,#755,.F.);
#757=EDGE_LOOP('',(#741,#748,#749,#756));
#758=FACE_OUTER_BOUND('',#757,.T.);
#759=ADVANCED_FACE('',(#758),#740,.F.);
#760=CARTESIAN_POINT('',(2.651979E-015,7.149999999999997,15.1));
#761=DIRECTION('',(-1.224647E-016,-1.0,-2.484415E-016));
#762=DIRECTION('',(0.0,0.0,1.0));
#763=AXIS2_PLACEMENT_3D('',#760,#761,#762);
#764=CYLINDRICAL_SURFACE('',#763,15.099999999999998);
#765=CARTESIAN_POINT('',(-15.099999999999996,-7.150000000000002,15.099999999999998));
#766=VERTEX_POINT('',#765);
#767=CARTESIAN_POINT('',(15.1,-7.150000000000006,15.099999999999998));
#768=VERTEX_POINT('',#767);
#769=CARTESIAN_POINT('',(9.007344E-016,-7.150000000000004,15.099999999999996));
#770=DIRECTION('',(0.0,1.0,0.0));
#771=DIRECTION('',(0.0,0.0,1.0));
#772=AXIS2_PLACEMENT_3D('',#769,#770,#771);
#773=CIRCLE('',#772,15.099999999999998);
#774=EDGE_CURVE('',#766,#768,#773,.T.);
#775=ORIENTED_EDGE('',*,*,#774,.T.);
#776=CARTESIAN_POINT('',(15.1,7.149999999999997,15.100000000000001));
#777=VERTEX_POINT('',#776);
#778=CARTESIAN_POINT('',(15.1,7.149999999999997,15.100000000000001));
#779=DIRECTION('',(0.0,-1.0,0.0));
#780=VECTOR('',#779,14.300000000000002);
#781=LINE('',#778,#780);
#782=EDGE_CURVE('',#777,#768,#781,.T.);
#783=ORIENTED_EDGE('',*,*,#782,.F.);
#784=CARTESIAN_POINT('',(-15.099999999999996,7.15,15.100000000000001));
#785=VERTEX_POINT('',#784);
#786=CARTESIAN_POINT('',(2.651979E-015,7.149999999999998,15.1));
#787=DIRECTION('',(0.0,-1.0,0.0));
#788=DIRECTION('',(0.0,0.0,1.0));
#789=AXIS2_PLACEMENT_3D('',#786,#787,#788);
#790=CIRCLE('',#789,15.099999999999998);
#791=EDGE_CURVE('',#777,#785,#790,.T.);
#792=ORIENTED_EDGE('',*,*,#791,.T.);
#793=CARTESIAN_POINT('',(-15.099999999999996,7.15,15.100000000000001));
#794=DIRECTION('',(0.0,-1.0,0.0));
#795=VECTOR('',#794,14.300000000000001);
#796=LINE('',#793,#795);
#797=EDGE_CURVE('',#785,#766,#796,.T.);
#798=ORIENTED_EDGE('',*,*,#797,.T.);
#799=EDGE_LOOP('',(#775,#783,#792,#798));
#800=FACE_OUTER_BOUND('',#799,.T.);
#801=ADVANCED_FACE('',(#800),#764,.T.);
#802=CARTESIAN_POINT('',(15.1,7.149999999999995,15.100000000000001));
#803=DIRECTION('',(1.0,0.0,0.0));
#804=DIRECTION('',(0.0,0.0,1.0));
#805=AXIS2_PLACEMENT_3D('',#802,#803,#804);
#806=PLANE('',#805);
#807=CARTESIAN_POINT('',(15.099999999999998,-7.150000000000002,0.499999999999996));
#808=VERTEX_POINT('',#807);
#809=CARTESIAN_POINT('',(15.1,-7.150000000000006,15.099999999999998));
#810=DIRECTION('',(0.0,0.0,-1.0));
#811=VECTOR('',#810,14.600000000000001);
#812=LINE('',#809,#811);
#813=EDGE_CURVE('',#768,#808,#812,.T.);
#814=ORIENTED_EDGE('',*,*,#813,.T.);
#815=CARTESIAN_POINT('',(15.099999999999998,7.149999999999999,0.5));
#816=VERTEX_POINT('',#815);
#817=CARTESIAN_POINT('',(15.099999999999998,7.149999999999999,0.5));
#818=DIRECTION('',(0.0,-1.0,0.0));
#819=VECTOR('',#818,14.300000000000001);
#820=LINE('',#817,#819);
#821=EDGE_CURVE('',#816,#808,#820,.T.);
#822=ORIENTED_EDGE('',*,*,#821,.F.);
#823=CARTESIAN_POINT('',(15.099999999999998,7.149999999999999,0.5));
#824=DIRECTION('',(0.0,0.0,1.0));
#825=VECTOR('',#824,14.599999999999998);
#826=LINE('',#823,#825);
#827=EDGE_CURVE('',#816,#777,#826,.T.);
#828=ORIENTED_EDGE('',*,*,#827,.T.);
#829=ORIENTED_EDGE('',*,*,#782,.T.);
#830=EDGE_LOOP('',(#814,#822,#828,#829));
#831=FACE_OUTER_BOUND('',#830,.T.);
#832=ADVANCED_FACE('',(#831),#806,.T.);
#833=CARTESIAN_POINT('',(15.099999999999998,7.149999999999999,0.5));
#834=DIRECTION('',(0.0,0.0,-1.0));
#835=DIRECTION('',(1.0,0.0,0.0));
#836=AXIS2_PLACEMENT_3D('',#833,#834,#835);
#837=PLANE('',#836);
#838=CARTESIAN_POINT('',(-15.099999999999998,-7.149999999999999,0.499999999999996));
#839=VERTEX_POINT('',#838);
#840=CARTESIAN_POINT('',(15.099999999999998,-7.150000000000002,0.499999999999996));
#841=DIRECTION('',(-1.0,0.0,0.0));
#842=VECTOR('',#841,30.199999999999996);
#843=LINE('',#840,#842);
#844=EDGE_CURVE('',#808,#839,#843,.T.);
#845=ORIENTED_EDGE('',*,*,#844,.T.);
#846=CARTESIAN_POINT('',(-15.099999999999998,7.150000000000002,0.5));
#847=VERTEX_POINT('',#846);
#848=CARTESIAN_POINT('',(-15.099999999999998,7.150000000000002,0.5));
#849=DIRECTION('',(0.0,-1.0,0.0));
#850=VECTOR('',#849,14.300000000000001);
#851=LINE('',#848,#850);
#852=EDGE_CURVE('',#847,#839,#851,.T.);
#853=ORIENTED_EDGE('',*,*,#852,.F.);
#854=CARTESIAN_POINT('',(-15.099999999999998,7.150000000000002,0.5));
#855=DIRECTION('',(1.0,0.0,0.0));
#856=VECTOR('',#855,30.199999999999996);
#857=LINE('',#854,#856);
#858=EDGE_CURVE('',#847,#816,#857,.T.);
#859=ORIENTED_EDGE('',*,*,#858,.T.);
#860=ORIENTED_EDGE('',*,*,#821,.T.);
#861=EDGE_LOOP('',(#845,#853,#859,#860));
#862=FACE_OUTER_BOUND('',#861,.T.);
#863=ADVANCED_FACE('',(#862),#837,.T.);
#864=CARTESIAN_POINT('',(-15.099999999999998,7.150000000000002,0.0));
#865=DIRECTION('',(-1.0,0.0,0.0));
#866=DIRECTION('',(0.0,0.0,-1.0));
#867=AXIS2_PLACEMENT_3D('',#864,#865,#866);
#868=PLANE('',#867);
#869=CARTESIAN_POINT('',(-15.099999999999998,-7.149999999999999,0.499999999999996));
#870=DIRECTION('',(0.0,0.0,1.0));
#871=VECTOR('',#870,14.600000000000001);
#872=LINE('',#869,#871);
#873=EDGE_CURVE('',#839,#766,#872,.T.);
#874=ORIENTED_EDGE('',*,*,#873,.T.);
#875=ORIENTED_EDGE('',*,*,#797,.F.);
#876=CARTESIAN_POINT('',(-15.099999999999996,7.149999999999999,15.100000000000001));
#877=DIRECTION('',(0.0,0.0,-1.0));
#878=VECTOR('',#877,14.600000000000001);
#879=LINE('',#876,#878);
#880=EDGE_CURVE('',#785,#847,#879,.T.);
#881=ORIENTED_EDGE('',*,*,#880,.T.);
#882=ORIENTED_EDGE('',*,*,#852,.T.);
#883=EDGE_LOOP('',(#874,#875,#881,#882));
#884=FACE_OUTER_BOUND('',#883,.T.);
#885=ADVANCED_FACE('',(#884),#868,.T.);
#886=CARTESIAN_POINT('',(1.582903E-015,7.149999999999999,13.069523632020783));
#887=DIRECTION('',(0.0,-1.0,0.0));
#888=DIRECTION('',(0.0,0.0,1.0));
#889=AXIS2_PLACEMENT_3D('',#886,#887,#888);
#890=PLANE('',#889);
#891=ORIENTED_EDGE('',*,*,#880,.F.);
#892=ORIENTED_EDGE('',*,*,#791,.F.);
#893=ORIENTED_EDGE('',*,*,#827,.F.);
#894=ORIENTED_EDGE('',*,*,#858,.F.);
#895=EDGE_LOOP('',(#891,#892,#893,#894));
#896=FACE_OUTER_BOUND('',#895,.T.);
#897=ORIENTED_EDGE('',*,*,#640,.T.);
#898=ORIENTED_EDGE('',*,*,#755,.T.);
#899=EDGE_LOOP('',(#897,#898));
#900=FACE_BOUND('',#899,.T.);
#901=ADVANCED_FACE('',(#896,#900),#890,.F.);
#902=CARTESIAN_POINT('',(4.787494E-017,-7.150000000000004,12.569523632020781));
#903=DIRECTION('',(0.0,-1.0,0.0));
#904=DIRECTION('',(0.0,0.0,1.0));
#905=AXIS2_PLACEMENT_3D('',#902,#903,#904);
#906=PLANE('',#905);
#907=ORIENTED_EDGE('',*,*,#774,.F.);
#908=ORIENTED_EDGE('',*,*,#873,.F.);
#909=ORIENTED_EDGE('',*,*,#844,.F.);
#910=ORIENTED_EDGE('',*,*,#813,.F.);
#911=EDGE_LOOP('',(#907,#908,#909,#910));
#912=FACE_OUTER_BOUND('',#911,.T.);
#913=ORIENTED_EDGE('',*,*,#721,.T.);
#914=ORIENTED_EDGE('',*,*,#682,.T.);
#915=EDGE_LOOP('',(#913,#914));
#916=FACE_BOUND('',#915,.T.);
#917=ORIENTED_EDGE('',*,*,#655,.T.);
#918=ORIENTED_EDGE('',*,*,#747,.T.);
#919=EDGE_LOOP('',(#917,#918));
#920=FACE_BOUND('',#919,.T.);
#921=ADVANCED_FACE('',(#912,#916,#920),#906,.T.);
#922=CLOSED_SHELL('',(#659,#701,#725,#735,#759,#801,#832,#863,#885,#901,#921));
#923=MANIFOLD_SOLID_BREP('149E',#922);
#924=STYLED_ITEM('NONE',(#529),#923);
#925=ADVANCED_BREP_SHAPE_REPRESENTATION('ABSR1',(#152,#250,#339,#428,#522,#616,#923),#28);
#926=SHAPE_REPRESENTATION_RELATIONSHIP('SRRPL1','',#925,#62);
ENDSEC;
END-ISO-10303-21;
