ISO-10303-21;
HEADER;
/****************************************************************
 * Generated by software with PDElib inside                    *
 * PDElib Version v51a, created Fri 09/10/2010                  *
 * ITI Transcendata (http://www.transcendata.com/)              *
 ****************************************************************/
FILE_DESCRIPTION((''),'2;1');
FILE_NAME('XFMR_BLOCK_VB 0.5-1-9.stp','2012-09-04T13:48:35',(''),(''),'Mechanical Desktop 2011','Mechanical Desktop 2011',', , ');
FILE_SCHEMA(('AUTOMOTIVE_DESIGN { 1 2 10303 214 1 1 1 1 }'));
ENDSEC;
DATA;
#10=(NAMED_UNIT(*)PLANE_ANGLE_UNIT()SI_UNIT($,.RADIAN.));
#11=DIMENSIONAL_EXPONENTS(0.0,0.0,0.0,0.0,0.0,0.0,0.0);
#12=PLANE_ANGLE_MEASURE_WITH_UNIT(PLANE_ANGLE_MEASURE(0.0174532925),#10);
#16=(CONVERSION_BASED_UNIT('DEGREE',#12)NAMED_UNIT(#11)PLANE_ANGLE_UNIT());
#20=(NAMED_UNIT(*)SI_UNIT($,.STERADIAN.)SOLID_ANGLE_UNIT());
#24=(LENGTH_UNIT()NAMED_UNIT(*)SI_UNIT(.MILLI.,.METRE.));
#26=UNCERTAINTY_MEASURE_WITH_UNIT(LENGTH_MEASURE(0.000001),#24,'DISTANCE_ACCURACY_VALUE','');
#28=(GEOMETRIC_REPRESENTATION_CONTEXT(3)GLOBAL_UNCERTAINTY_ASSIGNED_CONTEXT((#26))GLOBAL_UNIT_ASSIGNED_CONTEXT((#16,#20,#24))REPRESENTATION_CONTEXT('','3D'));
#29=APPLICATION_CONTEXT('automotive design');
#30=APPLICATION_PROTOCOL_DEFINITION('INTERNATIONAL_STANDARD','automotive_design',1998,#29);
#31=PRODUCT_CONTEXT('3D Mechanical Parts',#29,'mechanical');
#32=PRODUCT('Product','Product','',(#31));
#33=PRODUCT_RELATED_PRODUCT_CATEGORY('part',$,(#32));
#34=PRODUCT_CATEGORY('part',$);
#35=PERSON('1','Design','Joe',$,$,$);
#36=ORGANIZATION($,'None','None');
#37=PERSON_AND_ORGANIZATION(#35,#36);
#38=PERSON_AND_ORGANIZATION_ROLE('design_owner');
#39=APPLIED_PERSON_AND_ORGANIZATION_ASSIGNMENT(#37,#38,(#32));
#40=PRODUCT_DEFINITION_FORMATION_WITH_SPECIFIED_SOURCE('None','',#32,.BOUGHT.);
#41=PERSON('2','Creator','Joe',$,$,$);
#42=ORGANIZATION($,'None','None');
#43=PERSON_AND_ORGANIZATION(#41,#42);
#44=PERSON_AND_ORGANIZATION_ROLE('creator');
#45=APPLIED_PERSON_AND_ORGANIZATION_ASSIGNMENT(#43,#44,(#40));
#46=PERSON('3','Supplier','Joe',$,$,$);
#47=ORGANIZATION($,'None','None');
#48=PERSON_AND_ORGANIZATION(#46,#47);
#49=PERSON_AND_ORGANIZATION_ROLE('design_supplier');
#50=APPLIED_PERSON_AND_ORGANIZATION_ASSIGNMENT(#48,#49,(#40));
#51=PRODUCT_DEFINITION_CONTEXT('part definition',#29,'design');
#52=PRODUCT_DEFINITION('None','',#40,#51);
#53=PERSON('4','Creator','Joe',$,$,$);
#54=ORGANIZATION($,'None','None');
#55=PERSON_AND_ORGANIZATION(#53,#54);
#56=PERSON_AND_ORGANIZATION_ROLE('creator');
#57=APPLIED_PERSON_AND_ORGANIZATION_ASSIGNMENT(#55,#56,(#52));
#58=CARTESIAN_POINT('NONE',(0.0,0.0,0.0));
#59=DIRECTION('NONE',(0.0,0.0,1.0));
#60=DIRECTION('NONE',(1.0,0.0,0.0));
#61=AXIS2_PLACEMENT_3D('NONE',#58,#59,#60);
#62=SHAPE_REPRESENTATION('SR1',(#61),#28);
#63=PRODUCT_DEFINITION_SHAPE('PDS1','Test Part',#52);
#64=SHAPE_DEFINITION_REPRESENTATION(#63,#62);
#65=CARTESIAN_POINT('',(7.5,2.5,-1.1));
#66=DIRECTION('',(0.0,-1.224647E-016,-1.0));
#67=DIRECTION('',(1.0,0.0,0.0));
#68=AXIS2_PLACEMENT_3D('',#65,#66,#67);
#69=CYLINDRICAL_SURFACE('',#68,0.3);
#70=CARTESIAN_POINT('',(7.8,2.5,-3.6));
#71=VERTEX_POINT('',#70);
#72=CARTESIAN_POINT('',(7.8,2.5,0.0));
#73=VERTEX_POINT('',#72);
#74=CARTESIAN_POINT('',(7.8,2.5,-3.6));
#75=DIRECTION('',(0.0,0.0,1.0));
#76=VECTOR('',#75,3.6);
#77=LINE('',#74,#76);
#78=EDGE_CURVE('',#71,#73,#77,.T.);
#79=ORIENTED_EDGE('',*,*,#78,.F.);
#80=CARTESIAN_POINT('',(7.2,2.5,-3.6));
#81=VERTEX_POINT('',#80);
#82=CARTESIAN_POINT('',(7.5,2.5,-3.6));
#83=DIRECTION('',(0.0,0.0,-1.0));
#84=DIRECTION('',(1.0,0.0,0.0));
#85=AXIS2_PLACEMENT_3D('',#82,#83,#84);
#86=CIRCLE('',#85,0.3);
#87=EDGE_CURVE('',#81,#71,#86,.T.);
#88=ORIENTED_EDGE('',*,*,#87,.F.);
#89=CARTESIAN_POINT('',(7.2,2.5,-4.499279E-033));
#90=VERTEX_POINT('',#89);
#91=CARTESIAN_POINT('',(7.2,2.5,-3.6));
#92=DIRECTION('',(0.0,0.0,1.0));
#93=VECTOR('',#92,3.6);
#94=LINE('',#91,#93);
#95=EDGE_CURVE('',#81,#90,#94,.T.);
#96=ORIENTED_EDGE('',*,*,#95,.T.);
#97=CARTESIAN_POINT('',(7.5,2.5,0.0));
#98=DIRECTION('',(0.0,0.0,-1.0));
#99=DIRECTION('',(1.0,0.0,0.0));
#100=AXIS2_PLACEMENT_3D('',#97,#98,#99);
#101=CIRCLE('',#100,0.3);
#102=EDGE_CURVE('',#73,#90,#101,.F.);
#103=ORIENTED_EDGE('',*,*,#102,.F.);
#104=EDGE_LOOP('',(#79,#88,#96,#103));
#105=FACE_OUTER_BOUND('',#104,.T.);
#106=ADVANCED_FACE('',(#105),#69,.T.);
#107=CARTESIAN_POINT('',(7.5,2.5,-1.1));
#108=DIRECTION('',(0.0,-1.224647E-016,-1.0));
#109=DIRECTION('',(1.0,0.0,0.0));
#110=AXIS2_PLACEMENT_3D('',#107,#108,#109);
#111=CYLINDRICAL_SURFACE('',#110,0.3);
#112=ORIENTED_EDGE('',*,*,#78,.T.);
#113=CARTESIAN_POINT('',(7.5,2.5,0.0));
#114=DIRECTION('',(0.0,0.0,-1.0));
#115=DIRECTION('',(1.0,0.0,0.0));
#116=AXIS2_PLACEMENT_3D('',#113,#114,#115);
#117=CIRCLE('',#116,0.3);
#118=EDGE_CURVE('',#90,#73,#117,.F.);
#119=ORIENTED_EDGE('',*,*,#118,.F.);
#120=ORIENTED_EDGE('',*,*,#95,.F.);
#121=CARTESIAN_POINT('',(7.5,2.5,-3.6));
#122=DIRECTION('',(0.0,0.0,-1.0));
#123=DIRECTION('',(1.0,0.0,0.0));
#124=AXIS2_PLACEMENT_3D('',#121,#122,#123);
#125=CIRCLE('',#124,0.3);
#126=EDGE_CURVE('',#71,#81,#125,.T.);
#127=ORIENTED_EDGE('',*,*,#126,.F.);
#128=EDGE_LOOP('',(#112,#119,#120,#127));
#129=FACE_OUTER_BOUND('',#128,.T.);
#130=ADVANCED_FACE('',(#129),#111,.T.);
#131=CARTESIAN_POINT('',(7.5,2.5,0.0));
#132=DIRECTION('',(0.0,0.0,1.0));
#133=DIRECTION('',(-1.0,0.0,0.0));
#134=AXIS2_PLACEMENT_3D('',#131,#132,#133);
#135=PLANE('',#134);
#136=ORIENTED_EDGE('',*,*,#118,.T.);
#137=ORIENTED_EDGE('',*,*,#102,.T.);
#138=EDGE_LOOP('',(#136,#137));
#139=FACE_OUTER_BOUND('',#138,.T.);
#140=ADVANCED_FACE('',(#139),#135,.T.);
#141=CARTESIAN_POINT('',(7.5,2.5,-3.6));
#142=DIRECTION('',(0.0,0.0,-1.0));
#143=DIRECTION('',(1.0,0.0,0.0));
#144=AXIS2_PLACEMENT_3D('',#141,#142,#143);
#145=PLANE('',#144);
#146=ORIENTED_EDGE('',*,*,#126,.T.);
#147=ORIENTED_EDGE('',*,*,#87,.T.);
#148=EDGE_LOOP('',(#146,#147));
#149=FACE_OUTER_BOUND('',#148,.T.);
#150=ADVANCED_FACE('',(#149),#145,.T.);
#151=CLOSED_SHELL('',(#106,#130,#140,#150));
#152=MANIFOLD_SOLID_BREP('1B67',#151);
#153=COLOUR_RGB('254',0.866,0.866,0.866);
#154=SURFACE_STYLE_USAGE(.BOTH.,#155);
#155=SURFACE_SIDE_STYLE('NONE',(#156));
#156=SURFACE_STYLE_FILL_AREA(#157);
#157=FILL_AREA_STYLE('NONE',(#158));
#158=FILL_AREA_STYLE_COLOUR('NONE',#153);
#159=PRESENTATION_STYLE_ASSIGNMENT((#154));
#160=STYLED_ITEM('NONE',(#159),#152);
#161=MECHANICAL_DESIGN_GEOMETRIC_PRESENTATION_REPRESENTATION('NONE',(#160,#251,#340,#429,#1733),#28);
#162=PRESENTATION_LAYER_ASSIGNMENT('3D','None',(#152,#250,#339,#428,#1725));
#163=CARTESIAN_POINT('',(7.5,-2.5,-1.1));
#164=DIRECTION('',(0.0,-1.224647E-016,-1.0));
#165=DIRECTION('',(1.0,0.0,0.0));
#166=AXIS2_PLACEMENT_3D('',#163,#164,#165);
#167=CYLINDRICAL_SURFACE('',#166,0.3);
#168=CARTESIAN_POINT('',(7.8,-2.5,-3.6));
#169=VERTEX_POINT('',#168);
#170=CARTESIAN_POINT('',(7.8,-2.5,0.0));
#171=VERTEX_POINT('',#170);
#172=CARTESIAN_POINT('',(7.8,-2.5,-3.6));
#173=DIRECTION('',(0.0,0.0,1.0));
#174=VECTOR('',#173,3.6);
#175=LINE('',#172,#174);
#176=EDGE_CURVE('',#169,#171,#175,.T.);
#177=ORIENTED_EDGE('',*,*,#176,.F.);
#178=CARTESIAN_POINT('',(7.2,-2.5,-3.6));
#179=VERTEX_POINT('',#178);
#180=CARTESIAN_POINT('',(7.5,-2.5,-3.6));
#181=DIRECTION('',(0.0,0.0,-1.0));
#182=DIRECTION('',(1.0,0.0,0.0));
#183=AXIS2_PLACEMENT_3D('',#180,#181,#182);
#184=CIRCLE('',#183,0.3);
#185=EDGE_CURVE('',#179,#169,#184,.T.);
#186=ORIENTED_EDGE('',*,*,#185,.F.);
#187=CARTESIAN_POINT('',(7.2,-2.5,-4.499279E-033));
#188=VERTEX_POINT('',#187);
#189=CARTESIAN_POINT('',(7.2,-2.5,-3.6));
#190=DIRECTION('',(0.0,0.0,1.0));
#191=VECTOR('',#190,3.6);
#192=LINE('',#189,#191);
#193=EDGE_CURVE('',#179,#188,#192,.T.);
#194=ORIENTED_EDGE('',*,*,#193,.T.);
#195=CARTESIAN_POINT('',(7.5,-2.5,0.0));
#196=DIRECTION('',(0.0,0.0,-1.0));
#197=DIRECTION('',(1.0,0.0,0.0));
#198=AXIS2_PLACEMENT_3D('',#195,#196,#197);
#199=CIRCLE('',#198,0.3);
#200=EDGE_CURVE('',#171,#188,#199,.F.);
#201=ORIENTED_EDGE('',*,*,#200,.F.);
#202=EDGE_LOOP('',(#177,#186,#194,#201));
#203=FACE_OUTER_BOUND('',#202,.T.);
#204=ADVANCED_FACE('',(#203),#167,.T.);
#205=CARTESIAN_POINT('',(7.5,-2.5,-1.1));
#206=DIRECTION('',(0.0,-1.224647E-016,-1.0));
#207=DIRECTION('',(1.0,0.0,0.0));
#208=AXIS2_PLACEMENT_3D('',#205,#206,#207);
#209=CYLINDRICAL_SURFACE('',#208,0.3);
#210=ORIENTED_EDGE('',*,*,#176,.T.);
#211=CARTESIAN_POINT('',(7.5,-2.5,0.0));
#212=DIRECTION('',(0.0,0.0,-1.0));
#213=DIRECTION('',(1.0,0.0,0.0));
#214=AXIS2_PLACEMENT_3D('',#211,#212,#213);
#215=CIRCLE('',#214,0.3);
#216=EDGE_CURVE('',#188,#171,#215,.F.);
#217=ORIENTED_EDGE('',*,*,#216,.F.);
#218=ORIENTED_EDGE('',*,*,#193,.F.);
#219=CARTESIAN_POINT('',(7.5,-2.5,-3.6));
#220=DIRECTION('',(0.0,0.0,-1.0));
#221=DIRECTION('',(1.0,0.0,0.0));
#222=AXIS2_PLACEMENT_3D('',#219,#220,#221);
#223=CIRCLE('',#222,0.3);
#224=EDGE_CURVE('',#169,#179,#223,.T.);
#225=ORIENTED_EDGE('',*,*,#224,.F.);
#226=EDGE_LOOP('',(#210,#217,#218,#225));
#227=FACE_OUTER_BOUND('',#226,.T.);
#228=ADVANCED_FACE('',(#227),#209,.T.);
#229=CARTESIAN_POINT('',(7.5,-2.5,0.0));
#230=DIRECTION('',(0.0,0.0,1.0));
#231=DIRECTION('',(-1.0,0.0,0.0));
#232=AXIS2_PLACEMENT_3D('',#229,#230,#231);
#233=PLANE('',#232);
#234=ORIENTED_EDGE('',*,*,#216,.T.);
#235=ORIENTED_EDGE('',*,*,#200,.T.);
#236=EDGE_LOOP('',(#234,#235));
#237=FACE_OUTER_BOUND('',#236,.T.);
#238=ADVANCED_FACE('',(#237),#233,.T.);
#239=CARTESIAN_POINT('',(7.5,-2.5,-3.6));
#240=DIRECTION('',(0.0,0.0,-1.0));
#241=DIRECTION('',(1.0,0.0,0.0));
#242=AXIS2_PLACEMENT_3D('',#239,#240,#241);
#243=PLANE('',#242);
#244=ORIENTED_EDGE('',*,*,#224,.T.);
#245=ORIENTED_EDGE('',*,*,#185,.T.);
#246=EDGE_LOOP('',(#244,#245));
#247=FACE_OUTER_BOUND('',#246,.T.);
#248=ADVANCED_FACE('',(#247),#243,.T.);
#249=CLOSED_SHELL('',(#204,#228,#238,#248));
#250=MANIFOLD_SOLID_BREP('1B64',#249);
#251=STYLED_ITEM('NONE',(#159),#250);
#252=CARTESIAN_POINT('',(-7.5,-7.5,-1.1));
#253=DIRECTION('',(0.0,-1.224647E-016,-1.0));
#254=DIRECTION('',(1.0,0.0,0.0));
#255=AXIS2_PLACEMENT_3D('',#252,#253,#254);
#256=CYLINDRICAL_SURFACE('',#255,0.3);
#257=CARTESIAN_POINT('',(-7.2,-7.5,-3.6));
#258=VERTEX_POINT('',#257);
#259=CARTESIAN_POINT('',(-7.2,-7.5,0.0));
#260=VERTEX_POINT('',#259);
#261=CARTESIAN_POINT('',(-7.2,-7.5,-3.6));
#262=DIRECTION('',(0.0,0.0,1.0));
#263=VECTOR('',#262,3.6);
#264=LINE('',#261,#263);
#265=EDGE_CURVE('',#258,#260,#264,.T.);
#266=ORIENTED_EDGE('',*,*,#265,.F.);
#267=CARTESIAN_POINT('',(-7.8,-7.5,-3.6));
#268=VERTEX_POINT('',#267);
#269=CARTESIAN_POINT('',(-7.5,-7.5,-3.6));
#270=DIRECTION('',(0.0,0.0,-1.0));
#271=DIRECTION('',(1.0,0.0,0.0));
#272=AXIS2_PLACEMENT_3D('',#269,#270,#271);
#273=CIRCLE('',#272,0.3);
#274=EDGE_CURVE('',#268,#258,#273,.T.);
#275=ORIENTED_EDGE('',*,*,#274,.F.);
#276=CARTESIAN_POINT('',(-7.8,-7.5,-4.499279E-033));
#277=VERTEX_POINT('',#276);
#278=CARTESIAN_POINT('',(-7.8,-7.5,-3.6));
#279=DIRECTION('',(0.0,0.0,1.0));
#280=VECTOR('',#279,3.6);
#281=LINE('',#278,#280);
#282=EDGE_CURVE('',#268,#277,#281,.T.);
#283=ORIENTED_EDGE('',*,*,#282,.T.);
#284=CARTESIAN_POINT('',(-7.5,-7.5,0.0));
#285=DIRECTION('',(0.0,0.0,-1.0));
#286=DIRECTION('',(1.0,0.0,0.0));
#287=AXIS2_PLACEMENT_3D('',#284,#285,#286);
#288=CIRCLE('',#287,0.3);
#289=EDGE_CURVE('',#260,#277,#288,.F.);
#290=ORIENTED_EDGE('',*,*,#289,.F.);
#291=EDGE_LOOP('',(#266,#275,#283,#290));
#292=FACE_OUTER_BOUND('',#291,.T.);
#293=ADVANCED_FACE('',(#292),#256,.T.);
#294=CARTESIAN_POINT('',(-7.5,-7.5,-1.1));
#295=DIRECTION('',(0.0,-1.224647E-016,-1.0));
#296=DIRECTION('',(1.0,0.0,0.0));
#297=AXIS2_PLACEMENT_3D('',#294,#295,#296);
#298=CYLINDRICAL_SURFACE('',#297,0.3);
#299=ORIENTED_EDGE('',*,*,#265,.T.);
#300=CARTESIAN_POINT('',(-7.5,-7.5,0.0));
#301=DIRECTION('',(0.0,0.0,-1.0));
#302=DIRECTION('',(1.0,0.0,0.0));
#303=AXIS2_PLACEMENT_3D('',#300,#301,#302);
#304=CIRCLE('',#303,0.3);
#305=EDGE_CURVE('',#277,#260,#304,.F.);
#306=ORIENTED_EDGE('',*,*,#305,.F.);
#307=ORIENTED_EDGE('',*,*,#282,.F.);
#308=CARTESIAN_POINT('',(-7.5,-7.5,-3.6));
#309=DIRECTION('',(0.0,0.0,-1.0));
#310=DIRECTION('',(1.0,0.0,0.0));
#311=AXIS2_PLACEMENT_3D('',#308,#309,#310);
#312=CIRCLE('',#311,0.3);
#313=EDGE_CURVE('',#258,#268,#312,.T.);
#314=ORIENTED_EDGE('',*,*,#313,.F.);
#315=EDGE_LOOP('',(#299,#306,#307,#314));
#316=FACE_OUTER_BOUND('',#315,.T.);
#317=ADVANCED_FACE('',(#316),#298,.T.);
#318=CARTESIAN_POINT('',(-7.5,-7.5,0.0));
#319=DIRECTION('',(0.0,0.0,1.0));
#320=DIRECTION('',(-1.0,0.0,0.0));
#321=AXIS2_PLACEMENT_3D('',#318,#319,#320);
#322=PLANE('',#321);
#323=ORIENTED_EDGE('',*,*,#305,.T.);
#324=ORIENTED_EDGE('',*,*,#289,.T.);
#325=EDGE_LOOP('',(#323,#324));
#326=FACE_OUTER_BOUND('',#325,.T.);
#327=ADVANCED_FACE('',(#326),#322,.T.);
#328=CARTESIAN_POINT('',(-7.5,-7.5,-3.6));
#329=DIRECTION('',(0.0,0.0,-1.0));
#330=DIRECTION('',(1.0,0.0,0.0));
#331=AXIS2_PLACEMENT_3D('',#328,#329,#330);
#332=PLANE('',#331);
#333=ORIENTED_EDGE('',*,*,#313,.T.);
#334=ORIENTED_EDGE('',*,*,#274,.T.);
#335=EDGE_LOOP('',(#333,#334));
#336=FACE_OUTER_BOUND('',#335,.T.);
#337=ADVANCED_FACE('',(#336),#332,.T.);
#338=CLOSED_SHELL('',(#293,#317,#327,#337));
#339=MANIFOLD_SOLID_BREP('1B61',#338);
#340=STYLED_ITEM('NONE',(#159),#339);
#341=CARTESIAN_POINT('',(-7.5,7.5,-1.1));
#342=DIRECTION('',(0.0,-1.224647E-016,-1.0));
#343=DIRECTION('',(1.0,0.0,0.0));
#344=AXIS2_PLACEMENT_3D('',#341,#342,#343);
#345=CYLINDRICAL_SURFACE('',#344,0.3);
#346=CARTESIAN_POINT('',(-7.2,7.5,-3.6));
#347=VERTEX_POINT('',#346);
#348=CARTESIAN_POINT('',(-7.2,7.5,0.0));
#349=VERTEX_POINT('',#348);
#350=CARTESIAN_POINT('',(-7.2,7.5,-3.6));
#351=DIRECTION('',(0.0,0.0,1.0));
#352=VECTOR('',#351,3.6);
#353=LINE('',#350,#352);
#354=EDGE_CURVE('',#347,#349,#353,.T.);
#355=ORIENTED_EDGE('',*,*,#354,.F.);
#356=CARTESIAN_POINT('',(-7.8,7.5,-3.6));
#357=VERTEX_POINT('',#356);
#358=CARTESIAN_POINT('',(-7.5,7.5,-3.6));
#359=DIRECTION('',(0.0,0.0,-1.0));
#360=DIRECTION('',(1.0,0.0,0.0));
#361=AXIS2_PLACEMENT_3D('',#358,#359,#360);
#362=CIRCLE('',#361,0.3);
#363=EDGE_CURVE('',#357,#347,#362,.T.);
#364=ORIENTED_EDGE('',*,*,#363,.F.);
#365=CARTESIAN_POINT('',(-7.8,7.5,-4.499279E-033));
#366=VERTEX_POINT('',#365);
#367=CARTESIAN_POINT('',(-7.8,7.5,-3.6));
#368=DIRECTION('',(0.0,0.0,1.0));
#369=VECTOR('',#368,3.6);
#370=LINE('',#367,#369);
#371=EDGE_CURVE('',#357,#366,#370,.T.);
#372=ORIENTED_EDGE('',*,*,#371,.T.);
#373=CARTESIAN_POINT('',(-7.5,7.5,0.0));
#374=DIRECTION('',(0.0,0.0,-1.0));
#375=DIRECTION('',(1.0,0.0,0.0));
#376=AXIS2_PLACEMENT_3D('',#373,#374,#375);
#377=CIRCLE('',#376,0.3);
#378=EDGE_CURVE('',#349,#366,#377,.F.);
#379=ORIENTED_EDGE('',*,*,#378,.F.);
#380=EDGE_LOOP('',(#355,#364,#372,#379));
#381=FACE_OUTER_BOUND('',#380,.T.);
#382=ADVANCED_FACE('',(#381),#345,.T.);
#383=CARTESIAN_POINT('',(-7.5,7.5,-1.1));
#384=DIRECTION('',(0.0,-1.224647E-016,-1.0));
#385=DIRECTION('',(1.0,0.0,0.0));
#386=AXIS2_PLACEMENT_3D('',#383,#384,#385);
#387=CYLINDRICAL_SURFACE('',#386,0.3);
#388=ORIENTED_EDGE('',*,*,#354,.T.);
#389=CARTESIAN_POINT('',(-7.5,7.5,0.0));
#390=DIRECTION('',(0.0,0.0,-1.0));
#391=DIRECTION('',(1.0,0.0,0.0));
#392=AXIS2_PLACEMENT_3D('',#389,#390,#391);
#393=CIRCLE('',#392,0.3);
#394=EDGE_CURVE('',#366,#349,#393,.F.);
#395=ORIENTED_EDGE('',*,*,#394,.F.);
#396=ORIENTED_EDGE('',*,*,#371,.F.);
#397=CARTESIAN_POINT('',(-7.5,7.5,-3.6));
#398=DIRECTION('',(0.0,0.0,-1.0));
#399=DIRECTION('',(1.0,0.0,0.0));
#400=AXIS2_PLACEMENT_3D('',#397,#398,#399);
#401=CIRCLE('',#400,0.3);
#402=EDGE_CURVE('',#347,#357,#401,.T.);
#403=ORIENTED_EDGE('',*,*,#402,.F.);
#404=EDGE_LOOP('',(#388,#395,#396,#403));
#405=FACE_OUTER_BOUND('',#404,.T.);
#406=ADVANCED_FACE('',(#405),#387,.T.);
#407=CARTESIAN_POINT('',(-7.5,7.5,0.0));
#408=DIRECTION('',(0.0,0.0,1.0));
#409=DIRECTION('',(-1.0,0.0,0.0));
#410=AXIS2_PLACEMENT_3D('',#407,#408,#409);
#411=PLANE('',#410);
#412=ORIENTED_EDGE('',*,*,#394,.T.);
#413=ORIENTED_EDGE('',*,*,#378,.T.);
#414=EDGE_LOOP('',(#412,#413));
#415=FACE_OUTER_BOUND('',#414,.T.);
#416=ADVANCED_FACE('',(#415),#411,.T.);
#417=CARTESIAN_POINT('',(-7.5,7.5,-3.6));
#418=DIRECTION('',(0.0,0.0,-1.0));
#419=DIRECTION('',(1.0,0.0,0.0));
#420=AXIS2_PLACEMENT_3D('',#417,#418,#419);
#421=PLANE('',#420);
#422=ORIENTED_EDGE('',*,*,#402,.T.);
#423=ORIENTED_EDGE('',*,*,#363,.T.);
#424=EDGE_LOOP('',(#422,#423));
#425=FACE_OUTER_BOUND('',#424,.T.);
#426=ADVANCED_FACE('',(#425),#421,.T.);
#427=CLOSED_SHELL('',(#382,#406,#416,#426));
#428=MANIFOLD_SOLID_BREP('1B5D',#427);
#429=STYLED_ITEM('NONE',(#159),#428);
#430=CARTESIAN_POINT('',(8.400000000000009,-6.85,15.4));
#431=CARTESIAN_POINT('',(8.400000000000009,-6.85,15.0));
#432=CARTESIAN_POINT('',(8.000000000000009,-6.85,15.0));
#433=CARTESIAN_POINT('',(7.600000000000009,-6.85,15.0));
#434=CARTESIAN_POINT('',(7.600000000000009,-6.85,15.4));
#435=CARTESIAN_POINT('',(8.400000000000009,-8.050000000000001,15.4));
#436=CARTESIAN_POINT('',(8.400000000000009,-8.050000000000001,15.0));
#437=CARTESIAN_POINT('',(8.000000000000009,-7.65,15.0));
#438=CARTESIAN_POINT('',(7.600000000000009,-7.25,15.0));
#439=CARTESIAN_POINT('',(7.600000000000009,-7.25,15.4));
#440=CARTESIAN_POINT('',(7.200000000000008,-8.050000000000001,15.4));
#441=CARTESIAN_POINT('',(7.200000000000008,-8.050000000000001,15.0));
#442=CARTESIAN_POINT('',(7.200000000000008,-7.65,15.0));
#443=CARTESIAN_POINT('',(7.200000000000008,-7.249999999999999,15.0));
#444=CARTESIAN_POINT('',(7.200000000000008,-7.25,15.4));
#445=CARTESIAN_POINT('',(6.000000000000006,-8.050000000000001,15.4));
#446=CARTESIAN_POINT('',(6.000000000000007,-8.050000000000001,15.0));
#447=CARTESIAN_POINT('',(6.400000000000008,-7.65,15.0));
#448=CARTESIAN_POINT('',(6.800000000000008,-7.25,15.0));
#449=CARTESIAN_POINT('',(6.800000000000008,-7.25,15.4));
#450=CARTESIAN_POINT('',(6.000000000000007,-6.85,15.4));
#451=CARTESIAN_POINT('',(6.000000000000007,-6.85,15.0));
#452=CARTESIAN_POINT('',(6.400000000000008,-6.85,15.0));
#453=CARTESIAN_POINT('',(6.800000000000009,-6.85,15.0));
#454=CARTESIAN_POINT('',(6.800000000000008,-6.85,15.4));
#455=CARTESIAN_POINT('',(6.000000000000006,-5.649999999999999,15.4));
#456=CARTESIAN_POINT('',(6.000000000000007,-5.649999999999999,15.0));
#457=CARTESIAN_POINT('',(6.400000000000008,-6.049999999999999,15.0));
#458=CARTESIAN_POINT('',(6.800000000000008,-6.449999999999999,15.0));
#459=CARTESIAN_POINT('',(6.800000000000008,-6.449999999999999,15.4));
#460=CARTESIAN_POINT('',(7.200000000000008,-5.649999999999999,15.4));
#461=CARTESIAN_POINT('',(7.200000000000008,-5.649999999999999,15.0));
#462=CARTESIAN_POINT('',(7.200000000000008,-6.049999999999999,15.0));
#463=CARTESIAN_POINT('',(7.200000000000008,-6.449999999999998,15.0));
#464=CARTESIAN_POINT('',(7.200000000000008,-6.449999999999999,15.4));
#465=CARTESIAN_POINT('',(8.400000000000009,-5.649999999999999,15.4));
#466=CARTESIAN_POINT('',(8.400000000000009,-5.649999999999999,15.0));
#467=CARTESIAN_POINT('',(8.000000000000009,-6.049999999999999,15.0));
#468=CARTESIAN_POINT('',(7.600000000000009,-6.449999999999999,15.0));
#469=CARTESIAN_POINT('',(7.600000000000009,-6.449999999999999,15.4));
#470=CARTESIAN_POINT('',(8.400000000000009,-6.85,15.4));
#471=CARTESIAN_POINT('',(8.400000000000009,-6.85,15.0));
#472=CARTESIAN_POINT('',(8.000000000000009,-6.85,15.0));
#473=CARTESIAN_POINT('',(7.600000000000009,-6.85,15.0));
#474=CARTESIAN_POINT('',(7.600000000000009,-6.85,15.4));
#482=(BOUNDED_SURFACE()B_SPLINE_SURFACE(2,2,((#430,#435,#440,#445,#450,#455,#460,#465,#470),(#431,#436,#441,#446,#451,#456,#461,#466,#471),(#432,#437,#442,#447,#452,#457,#462,#467,#472),(#433,#438,#443,#448,#453,#458,#463,#468,#473),(#434,#439,#444,#449,#454,#459,#464,#469,#474)),.UNSPECIFIED.,.F.,.T.,.U.)B_SPLINE_SURFACE_WITH_KNOTS((3,2,3),(3,2,2,2,3),(0.0,1.570796326794897,3.141592653589793),(0.0,1.570796326794897,3.141592653589793,4.71238898038469,6.283185307179586),.UNSPECIFIED.)GEOMETRIC_REPRESENTATION_ITEM()RATIONAL_B_SPLINE_SURFACE(((1.0,0.707106781186548,1.0,0.707106781186548,1.0,0.707106781186548,1.0,0.707106781186548,1.0),(0.707106781186536,0.499999999999992,0.707106781186536,0.499999999999992,0.707106781186536,0.499999999999992,0.707106781186536,0.499999999999992,0.707106781186536),(1.0,0.707106781186548,1.0,0.707106781186548,1.0,0.707106781186548,1.0,0.707106781186548,1.0),(0.707106781186542,0.499999999999996,0.707106781186542,0.499999999999996,0.707106781186542,0.499999999999996,0.707106781186542,0.499999999999996,0.707106781186542),(1.0,0.707106781186548,1.0,0.707106781186548,1.0,0.707106781186548,1.0,0.707106781186548,1.0)))REPRESENTATION_ITEM('')SURFACE());
#483=CARTESIAN_POINT('',(7.200000000000008,-7.25,15.4));
#484=VERTEX_POINT('',#483);
#485=CARTESIAN_POINT('',(7.600000000000009,-6.85,15.4));
#486=VERTEX_POINT('',#485);
#487=CARTESIAN_POINT('',(7.200000000000008,-6.85,15.4));
#488=DIRECTION('',(0.0,0.0,-1.0));
#489=DIRECTION('',(0.0,-1.0,0.0));
#490=AXIS2_PLACEMENT_3D('',#487,#488,#489);
#491=CIRCLE('',#490,0.4);
#492=EDGE_CURVE('',#484,#486,#491,.F.);
#493=ORIENTED_EDGE('',*,*,#492,.F.);
#494=CARTESIAN_POINT('',(7.200000000000008,-7.65,15.0));
#495=VERTEX_POINT('',#494);
#496=CARTESIAN_POINT('',(7.200000000000008,-7.65,15.4));
#497=DIRECTION('',(1.0,0.0,0.0));
#498=DIRECTION('',(0.0,0.0,-1.0));
#499=AXIS2_PLACEMENT_3D('',#496,#497,#498);
#500=CIRCLE('',#499,0.4);
#501=EDGE_CURVE('',#495,#484,#500,.T.);
#502=ORIENTED_EDGE('',*,*,#501,.F.);
#503=CARTESIAN_POINT('',(8.000000000000009,-6.85,15.0));
#504=VERTEX_POINT('',#503);
#505=CARTESIAN_POINT('',(7.200000000000008,-6.85,15.0));
#506=DIRECTION('',(0.0,0.0,1.0));
#507=DIRECTION('',(0.707106781186548,-0.707106781186548,0.0));
#508=AXIS2_PLACEMENT_3D('',#505,#506,#507);
#509=CIRCLE('',#508,0.800000000000001);
#510=EDGE_CURVE('',#495,#504,#509,.T.);
#511=ORIENTED_EDGE('',*,*,#510,.T.);
#512=CARTESIAN_POINT('',(8.000000000000009,-6.85,15.4));
#513=DIRECTION('',(0.0,-1.0,0.0));
#514=DIRECTION('',(-1.0,0.0,0.0));
#515=AXIS2_PLACEMENT_3D('',#512,#513,#514);
#516=CIRCLE('',#515,0.4);
#517=EDGE_CURVE('',#486,#504,#516,.T.);
#518=ORIENTED_EDGE('',*,*,#517,.F.);
#519=EDGE_LOOP('',(#493,#502,#511,#518));
#520=FACE_OUTER_BOUND('',#519,.T.);
#521=ADVANCED_FACE('',(#520),#482,.T.);
#522=CARTESIAN_POINT('',(-5.999999999999998,-6.85,15.4));
#523=CARTESIAN_POINT('',(-5.999999999999999,-6.85,15.0));
#524=CARTESIAN_POINT('',(-6.399999999999999,-6.85,15.0));
#525=CARTESIAN_POINT('',(-6.8,-6.85,15.0));
#526=CARTESIAN_POINT('',(-6.799999999999999,-6.85,15.4));
#527=CARTESIAN_POINT('',(-5.999999999999998,-8.050000000000001,15.4));
#528=CARTESIAN_POINT('',(-5.999999999999998,-8.050000000000001,15.0));
#529=CARTESIAN_POINT('',(-6.399999999999999,-7.65,15.0));
#530=CARTESIAN_POINT('',(-6.799999999999999,-7.25,15.0));
#531=CARTESIAN_POINT('',(-6.799999999999999,-7.25,15.4));
#532=CARTESIAN_POINT('',(-7.199999999999999,-8.050000000000001,15.4));
#533=CARTESIAN_POINT('',(-7.199999999999999,-8.050000000000001,15.0));
#534=CARTESIAN_POINT('',(-7.199999999999999,-7.65,15.0));
#535=CARTESIAN_POINT('',(-7.199999999999999,-7.249999999999999,15.0));
#536=CARTESIAN_POINT('',(-7.199999999999999,-7.25,15.4));
#537=CARTESIAN_POINT('',(-8.4,-8.050000000000001,15.4));
#538=CARTESIAN_POINT('',(-8.4,-8.050000000000001,15.0));
#539=CARTESIAN_POINT('',(-8.0,-7.65,15.0));
#540=CARTESIAN_POINT('',(-7.6,-7.25,15.0));
#541=CARTESIAN_POINT('',(-7.6,-7.25,15.4));
#542=CARTESIAN_POINT('',(-8.4,-6.85,15.4));
#543=CARTESIAN_POINT('',(-8.4,-6.85,15.0));
#544=CARTESIAN_POINT('',(-8.0,-6.85,15.0));
#545=CARTESIAN_POINT('',(-7.600000000000001,-6.85,15.0));
#546=CARTESIAN_POINT('',(-7.6,-6.85,15.4));
#547=CARTESIAN_POINT('',(-8.4,-5.649999999999999,15.4));
#548=CARTESIAN_POINT('',(-8.4,-5.649999999999999,15.0));
#549=CARTESIAN_POINT('',(-8.0,-6.049999999999999,15.0));
#550=CARTESIAN_POINT('',(-7.6,-6.449999999999999,15.0));
#551=CARTESIAN_POINT('',(-7.6,-6.449999999999999,15.4));
#552=CARTESIAN_POINT('',(-7.199999999999999,-5.649999999999999,15.4));
#553=CARTESIAN_POINT('',(-7.199999999999999,-5.649999999999999,15.0));
#554=CARTESIAN_POINT('',(-7.199999999999999,-6.049999999999999,15.0));
#555=CARTESIAN_POINT('',(-7.199999999999999,-6.449999999999998,15.0));
#556=CARTESIAN_POINT('',(-7.199999999999999,-6.449999999999999,15.4));
#557=CARTESIAN_POINT('',(-5.999999999999998,-5.649999999999999,15.4));
#558=CARTESIAN_POINT('',(-5.999999999999998,-5.649999999999999,15.0));
#559=CARTESIAN_POINT('',(-6.399999999999999,-6.049999999999999,15.0));
#560=CARTESIAN_POINT('',(-6.799999999999999,-6.449999999999999,15.0));
#561=CARTESIAN_POINT('',(-6.799999999999999,-6.449999999999999,15.4));
#562=CARTESIAN_POINT('',(-5.999999999999998,-6.85,15.4));
#563=CARTESIAN_POINT('',(-5.999999999999999,-6.85,15.0));
#564=CARTESIAN_POINT('',(-6.399999999999999,-6.85,15.0));
#565=CARTESIAN_POINT('',(-6.8,-6.85,15.0));
#566=CARTESIAN_POINT('',(-6.799999999999999,-6.85,15.4));
#574=(BOUNDED_SURFACE()B_SPLINE_SURFACE(2,2,((#522,#527,#532,#537,#542,#547,#552,#557,#562),(#523,#528,#533,#538,#543,#548,#553,#558,#563),(#524,#529,#534,#539,#544,#549,#554,#559,#564),(#525,#530,#535,#540,#545,#550,#555,#560,#565),(#526,#531,#536,#541,#546,#551,#556,#561,#566)),.UNSPECIFIED.,.F.,.T.,.U.)B_SPLINE_SURFACE_WITH_KNOTS((3,2,3),(3,2,2,2,3),(0.0,1.570796326794897,3.141592653589793),(0.0,1.570796326794897,3.141592653589793,4.71238898038469,6.283185307179586),.UNSPECIFIED.)GEOMETRIC_REPRESENTATION_ITEM()RATIONAL_B_SPLINE_SURFACE(((1.0,0.707106781186548,1.0,0.707106781186548,1.0,0.707106781186548,1.0,0.707106781186548,1.0),(0.707106781186542,0.499999999999996,0.707106781186542,0.499999999999996,0.707106781186542,0.499999999999996,0.707106781186542,0.499999999999996,0.707106781186542),(1.0,0.707106781186548,1.0,0.707106781186548,1.0,0.707106781186548,1.0,0.707106781186548,1.0),(0.707106781186542,0.499999999999996,0.707106781186542,0.499999999999996,0.707106781186542,0.499999999999996,0.707106781186542,0.499999999999996,0.707106781186542),(1.0,0.707106781186548,1.0,0.707106781186548,1.0,0.707106781186548,1.0,0.707106781186548,1.0)))REPRESENTATION_ITEM('')SURFACE());
#575=CARTESIAN_POINT('',(-7.6,-6.85,15.4));
#576=VERTEX_POINT('',#575);
#577=CARTESIAN_POINT('',(-7.199999999999999,-7.25,15.4));
#578=VERTEX_POINT('',#577);
#579=CARTESIAN_POINT('',(-7.199999999999999,-6.85,15.4));
#580=DIRECTION('',(0.0,0.0,-1.0));
#581=DIRECTION('',(-1.0,0.0,0.0));
#582=AXIS2_PLACEMENT_3D('',#579,#580,#581);
#583=CIRCLE('',#582,0.4);
#584=EDGE_CURVE('',#576,#578,#583,.F.);
#585=ORIENTED_EDGE('',*,*,#584,.F.);
#586=CARTESIAN_POINT('',(-8.0,-6.85,15.0));
#587=VERTEX_POINT('',#586);
#588=CARTESIAN_POINT('',(-8.0,-6.85,15.4));
#589=DIRECTION('',(0.0,-1.0,0.0));
#590=DIRECTION('',(0.0,0.0,-1.0));
#591=AXIS2_PLACEMENT_3D('',#588,#589,#590);
#592=CIRCLE('',#591,0.4);
#593=EDGE_CURVE('',#587,#576,#592,.T.);
#594=ORIENTED_EDGE('',*,*,#593,.F.);
#595=CARTESIAN_POINT('',(-7.199999999999999,-7.65,15.0));
#596=VERTEX_POINT('',#595);
#597=CARTESIAN_POINT('',(-7.199999999999999,-6.85,15.0));
#598=DIRECTION('',(0.0,0.0,1.0));
#599=DIRECTION('',(-0.707106781186548,-0.707106781186548,0.0));
#600=AXIS2_PLACEMENT_3D('',#597,#598,#599);
#601=CIRCLE('',#600,0.800000000000001);
#602=EDGE_CURVE('',#587,#596,#601,.T.);
#603=ORIENTED_EDGE('',*,*,#602,.T.);
#604=CARTESIAN_POINT('',(-7.199999999999999,-7.65,15.4));
#605=DIRECTION('',(-1.0,0.0,0.0));
#606=DIRECTION('',(0.0,1.0,0.0));
#607=AXIS2_PLACEMENT_3D('',#604,#605,#606);
#608=CIRCLE('',#607,0.4);
#609=EDGE_CURVE('',#578,#596,#608,.T.);
#610=ORIENTED_EDGE('',*,*,#609,.F.);
#611=EDGE_LOOP('',(#585,#594,#603,#610));
#612=FACE_OUTER_BOUND('',#611,.T.);
#613=ADVANCED_FACE('',(#612),#574,.T.);
#614=CARTESIAN_POINT('',(8.400000000000002,6.85,15.4));
#615=CARTESIAN_POINT('',(8.400000000000002,6.85,14.999999999999998));
#616=CARTESIAN_POINT('',(8.0,6.85,14.999999999999998));
#617=CARTESIAN_POINT('',(7.599999999999999,6.85,14.999999999999998));
#618=CARTESIAN_POINT('',(7.599999999999998,6.85,15.4));
#619=CARTESIAN_POINT('',(8.400000000000002,5.649999999999998,15.4));
#620=CARTESIAN_POINT('',(8.400000000000002,5.649999999999998,14.999999999999998));
#621=CARTESIAN_POINT('',(8.0,6.05,14.999999999999996));
#622=CARTESIAN_POINT('',(7.599999999999998,6.450000000000002,14.999999999999998));
#623=CARTESIAN_POINT('',(7.599999999999998,6.450000000000002,15.4));
#624=CARTESIAN_POINT('',(7.2,5.649999999999998,15.4));
#625=CARTESIAN_POINT('',(7.200000000000001,5.649999999999998,14.999999999999998));
#626=CARTESIAN_POINT('',(7.2,6.05,14.999999999999998));
#627=CARTESIAN_POINT('',(7.200000000000001,6.450000000000002,14.999999999999998));
#628=CARTESIAN_POINT('',(7.2,6.450000000000002,15.4));
#629=CARTESIAN_POINT('',(5.999999999999998,5.649999999999998,15.4));
#630=CARTESIAN_POINT('',(5.999999999999998,5.649999999999998,14.999999999999998));
#631=CARTESIAN_POINT('',(6.4,6.05,14.999999999999996));
#632=CARTESIAN_POINT('',(6.800000000000003,6.450000000000002,14.999999999999998));
#633=CARTESIAN_POINT('',(6.800000000000003,6.450000000000002,15.4));
#634=CARTESIAN_POINT('',(5.999999999999998,6.85,15.4));
#635=CARTESIAN_POINT('',(5.999999999999999,6.85,14.999999999999998));
#636=CARTESIAN_POINT('',(6.4,6.85,14.999999999999998));
#637=CARTESIAN_POINT('',(6.800000000000003,6.85,14.999999999999998));
#638=CARTESIAN_POINT('',(6.800000000000003,6.85,15.4));
#639=CARTESIAN_POINT('',(5.999999999999998,8.050000000000001,15.4));
#640=CARTESIAN_POINT('',(5.999999999999998,8.050000000000001,14.999999999999998));
#641=CARTESIAN_POINT('',(6.4,7.65,14.999999999999996));
#642=CARTESIAN_POINT('',(6.800000000000003,7.249999999999997,14.999999999999998));
#643=CARTESIAN_POINT('',(6.800000000000003,7.249999999999997,15.4));
#644=CARTESIAN_POINT('',(7.2,8.050000000000001,15.4));
#645=CARTESIAN_POINT('',(7.200000000000001,8.050000000000001,14.999999999999998));
#646=CARTESIAN_POINT('',(7.2,7.65,14.999999999999998));
#647=CARTESIAN_POINT('',(7.200000000000001,7.249999999999997,14.999999999999998));
#648=CARTESIAN_POINT('',(7.2,7.249999999999997,15.4));
#649=CARTESIAN_POINT('',(8.400000000000002,8.050000000000001,15.4));
#650=CARTESIAN_POINT('',(8.400000000000002,8.050000000000001,14.999999999999998));
#651=CARTESIAN_POINT('',(8.0,7.65,14.999999999999996));
#652=CARTESIAN_POINT('',(7.599999999999998,7.249999999999997,14.999999999999998));
#653=CARTESIAN_POINT('',(7.599999999999998,7.249999999999997,15.4));
#654=CARTESIAN_POINT('',(8.400000000000002,6.85,15.4));
#655=CARTESIAN_POINT('',(8.400000000000002,6.85,14.999999999999998));
#656=CARTESIAN_POINT('',(8.0,6.85,14.999999999999998));
#657=CARTESIAN_POINT('',(7.599999999999999,6.85,14.999999999999998));
#658=CARTESIAN_POINT('',(7.599999999999998,6.85,15.4));
#666=(BOUNDED_SURFACE()B_SPLINE_SURFACE(2,2,((#614,#619,#624,#629,#634,#639,#644,#649,#654),(#615,#620,#625,#630,#635,#640,#645,#650,#655),(#616,#621,#626,#631,#636,#641,#646,#651,#656),(#617,#622,#627,#632,#637,#642,#647,#652,#657),(#618,#623,#628,#633,#638,#643,#648,#653,#658)),.UNSPECIFIED.,.F.,.T.,.U.)B_SPLINE_SURFACE_WITH_KNOTS((3,2,3),(3,2,2,2,3),(0.0,1.570796326794897,3.141592653589793),(0.0,1.570796326794897,3.141592653589793,4.71238898038469,6.283185307179586),.UNSPECIFIED.)GEOMETRIC_REPRESENTATION_ITEM()RATIONAL_B_SPLINE_SURFACE(((1.0,0.707106781186548,1.0,0.707106781186548,1.0,0.707106781186548,1.0,0.707106781186548,1.0),(0.707106781186543,0.499999999999997,0.707106781186543,0.499999999999997,0.707106781186543,0.499999999999997,0.707106781186543,0.499999999999997,0.707106781186543),(1.0,0.707106781186548,1.0,0.707106781186548,1.0,0.707106781186548,1.0,0.707106781186548,1.0),(0.707106781186543,0.499999999999997,0.707106781186543,0.499999999999997,0.707106781186543,0.499999999999997,0.707106781186543,0.499999999999997,0.707106781186543),(1.0,0.707106781186548,1.0,0.707106781186548,1.0,0.707106781186548,1.0,0.707106781186548,1.0)))REPRESENTATION_ITEM('')SURFACE());
#667=CARTESIAN_POINT('',(7.600000000000001,6.85,15.4));
#668=VERTEX_POINT('',#667);
#669=CARTESIAN_POINT('',(7.200000000000001,7.25,15.4));
#670=VERTEX_POINT('',#669);
#671=CARTESIAN_POINT('',(7.200000000000001,6.85,15.4));
#672=DIRECTION('',(0.0,0.0,-1.0));
#673=DIRECTION('',(1.0,0.0,0.0));
#674=AXIS2_PLACEMENT_3D('',#671,#672,#673);
#675=CIRCLE('',#674,0.4);
#676=EDGE_CURVE('',#668,#670,#675,.F.);
#677=ORIENTED_EDGE('',*,*,#676,.F.);
#678=CARTESIAN_POINT('',(8.000000000000002,6.85,15.0));
#679=VERTEX_POINT('',#678);
#680=CARTESIAN_POINT('',(8.000000000000002,6.85,15.4));
#681=DIRECTION('',(0.0,1.0,0.0));
#682=DIRECTION('',(0.0,0.0,-1.0));
#683=AXIS2_PLACEMENT_3D('',#680,#681,#682);
#684=CIRCLE('',#683,0.4);
#685=EDGE_CURVE('',#679,#668,#684,.T.);
#686=ORIENTED_EDGE('',*,*,#685,.F.);
#687=CARTESIAN_POINT('',(7.2,7.65,15.0));
#688=VERTEX_POINT('',#687);
#689=CARTESIAN_POINT('',(7.2,6.85,15.0));
#690=DIRECTION('',(0.0,0.0,1.0));
#691=DIRECTION('',(0.707106781186548,0.707106781186547,0.0));
#692=AXIS2_PLACEMENT_3D('',#689,#690,#691);
#693=CIRCLE('',#692,0.800000000000002);
#694=EDGE_CURVE('',#679,#688,#693,.T.);
#695=ORIENTED_EDGE('',*,*,#694,.T.);
#696=CARTESIAN_POINT('',(7.2,7.65,15.4));
#697=DIRECTION('',(1.0,0.0,0.0));
#698=DIRECTION('',(0.0,-1.0,0.0));
#699=AXIS2_PLACEMENT_3D('',#696,#697,#698);
#700=CIRCLE('',#699,0.4);
#701=EDGE_CURVE('',#670,#688,#700,.T.);
#702=ORIENTED_EDGE('',*,*,#701,.F.);
#703=EDGE_LOOP('',(#677,#686,#695,#702));
#704=FACE_OUTER_BOUND('',#703,.T.);
#705=ADVANCED_FACE('',(#704),#666,.T.);
#706=CARTESIAN_POINT('',(8.000000000000004,3.625000000000002,15.4));
#707=DIRECTION('',(-4.900295E-016,1.0,0.0));
#708=DIRECTION('',(-0.707106781186546,0.0,-0.707106781186549));
#709=AXIS2_PLACEMENT_3D('',#706,#707,#708);
#710=CYLINDRICAL_SURFACE('',#709,0.4);
#711=ORIENTED_EDGE('',*,*,#685,.T.);
#712=CARTESIAN_POINT('',(7.600000000000001,6.85,15.4));
#713=DIRECTION('',(0.0,-1.0,0.0));
#714=VECTOR('',#713,13.699999999999999);
#715=LINE('',#712,#714);
#716=EDGE_CURVE('',#668,#486,#715,.T.);
#717=ORIENTED_EDGE('',*,*,#716,.T.);
#718=ORIENTED_EDGE('',*,*,#517,.T.);
#719=CARTESIAN_POINT('',(8.000000000000009,-6.85,15.0));
#720=DIRECTION('',(0.0,1.0,0.0));
#721=VECTOR('',#720,13.699999999999999);
#722=LINE('',#719,#721);
#723=EDGE_CURVE('',#504,#679,#722,.T.);
#724=ORIENTED_EDGE('',*,*,#723,.T.);
#725=EDGE_LOOP('',(#711,#717,#718,#724));
#726=FACE_OUTER_BOUND('',#725,.T.);
#727=ADVANCED_FACE('',(#726),#710,.F.);
#728=CARTESIAN_POINT('',(-7.6,6.85,15.4));
#729=CARTESIAN_POINT('',(-7.600000000000001,6.85,15.0));
#730=CARTESIAN_POINT('',(-8.0,6.85,15.0));
#731=CARTESIAN_POINT('',(-8.4,6.85,15.0));
#732=CARTESIAN_POINT('',(-8.4,6.85,15.4));
#733=CARTESIAN_POINT('',(-7.6,6.449999999999999,15.4));
#734=CARTESIAN_POINT('',(-7.6,6.449999999999999,15.0));
#735=CARTESIAN_POINT('',(-8.0,6.049999999999999,15.0));
#736=CARTESIAN_POINT('',(-8.4,5.649999999999999,15.0));
#737=CARTESIAN_POINT('',(-8.4,5.649999999999999,15.4));
#738=CARTESIAN_POINT('',(-7.199999999999999,6.449999999999999,15.4));
#739=CARTESIAN_POINT('',(-7.199999999999999,6.449999999999998,15.0));
#740=CARTESIAN_POINT('',(-7.199999999999999,6.049999999999999,15.0));
#741=CARTESIAN_POINT('',(-7.199999999999999,5.649999999999999,15.0));
#742=CARTESIAN_POINT('',(-7.199999999999999,5.649999999999999,15.4));
#743=CARTESIAN_POINT('',(-6.799999999999999,6.449999999999999,15.4));
#744=CARTESIAN_POINT('',(-6.799999999999999,6.449999999999999,15.0));
#745=CARTESIAN_POINT('',(-6.399999999999999,6.049999999999999,15.0));
#746=CARTESIAN_POINT('',(-5.999999999999998,5.649999999999999,15.0));
#747=CARTESIAN_POINT('',(-5.999999999999998,5.649999999999999,15.4));
#748=CARTESIAN_POINT('',(-6.799999999999999,6.85,15.4));
#749=CARTESIAN_POINT('',(-6.8,6.85,15.0));
#750=CARTESIAN_POINT('',(-6.399999999999999,6.85,15.0));
#751=CARTESIAN_POINT('',(-5.999999999999998,6.85,15.0));
#752=CARTESIAN_POINT('',(-5.999999999999998,6.85,15.4));
#753=CARTESIAN_POINT('',(-6.799999999999999,7.25,15.4));
#754=CARTESIAN_POINT('',(-6.799999999999999,7.25,15.0));
#755=CARTESIAN_POINT('',(-6.399999999999999,7.65,15.0));
#756=CARTESIAN_POINT('',(-5.999999999999998,8.050000000000001,15.0));
#757=CARTESIAN_POINT('',(-5.999999999999998,8.050000000000001,15.4));
#758=CARTESIAN_POINT('',(-7.199999999999999,7.25,15.4));
#759=CARTESIAN_POINT('',(-7.199999999999999,7.249999999999999,15.0));
#760=CARTESIAN_POINT('',(-7.199999999999999,7.65,15.0));
#761=CARTESIAN_POINT('',(-7.199999999999999,8.050000000000001,15.0));
#762=CARTESIAN_POINT('',(-7.199999999999999,8.050000000000001,15.4));
#763=CARTESIAN_POINT('',(-7.6,7.25,15.4));
#764=CARTESIAN_POINT('',(-7.6,7.25,15.0));
#765=CARTESIAN_POINT('',(-8.0,7.65,15.0));
#766=CARTESIAN_POINT('',(-8.4,8.050000000000001,15.0));
#767=CARTESIAN_POINT('',(-8.4,8.050000000000001,15.4));
#768=CARTESIAN_POINT('',(-7.6,6.85,15.4));
#769=CARTESIAN_POINT('',(-7.600000000000001,6.85,15.0));
#770=CARTESIAN_POINT('',(-8.0,6.85,15.0));
#771=CARTESIAN_POINT('',(-8.4,6.85,15.0));
#772=CARTESIAN_POINT('',(-8.4,6.85,15.4));
#780=(BOUNDED_SURFACE()B_SPLINE_SURFACE(2,2,((#728,#733,#738,#743,#748,#753,#758,#763,#768),(#729,#734,#739,#744,#749,#754,#759,#764,#769),(#730,#735,#740,#745,#750,#755,#760,#765,#770),(#731,#736,#741,#746,#751,#756,#761,#766,#771),(#732,#737,#742,#747,#752,#757,#762,#767,#772)),.UNSPECIFIED.,.F.,.T.,.U.)B_SPLINE_SURFACE_WITH_KNOTS((3,2,3),(3,2,2,2,3),(-3.141592653589793,-1.570796326794897,0.0),(0.0,1.570796326794897,3.141592653589793,4.71238898038469,6.283185307179586),.UNSPECIFIED.)GEOMETRIC_REPRESENTATION_ITEM()RATIONAL_B_SPLINE_SURFACE(((1.0,0.707106781186548,1.0,0.707106781186548,1.0,0.707106781186548,1.0,0.707106781186548,1.0),(0.707106781186542,0.499999999999996,0.707106781186542,0.499999999999996,0.707106781186542,0.499999999999996,0.707106781186542,0.499999999999996,0.707106781186542),(1.0,0.707106781186548,1.0,0.707106781186548,1.0,0.707106781186548,1.0,0.707106781186548,1.0),(0.707106781186536,0.499999999999992,0.707106781186536,0.499999999999992,0.707106781186536,0.499999999999992,0.707106781186536,0.499999999999992,0.707106781186536),(1.0,0.707106781186548,1.0,0.707106781186548,1.0,0.707106781186548,1.0,0.707106781186548,1.0)))REPRESENTATION_ITEM('')SURFACE());
#781=CARTESIAN_POINT('',(-7.199999999999999,7.65,15.0));
#782=VERTEX_POINT('',#781);
#783=CARTESIAN_POINT('',(-8.0,6.85,15.0));
#784=VERTEX_POINT('',#783);
#785=CARTESIAN_POINT('',(-7.199999999999999,6.85,15.0));
#786=DIRECTION('',(0.0,0.0,1.0));
#787=DIRECTION('',(-0.707106781186548,0.707106781186548,0.0));
#788=AXIS2_PLACEMENT_3D('',#785,#786,#787);
#789=CIRCLE('',#788,0.800000000000001);
#790=EDGE_CURVE('',#782,#784,#789,.T.);
#791=ORIENTED_EDGE('',*,*,#790,.T.);
#792=CARTESIAN_POINT('',(-7.6,6.85,15.4));
#793=VERTEX_POINT('',#792);
#794=CARTESIAN_POINT('',(-8.0,6.85,15.4));
#795=DIRECTION('',(0.0,1.0,0.0));
#796=DIRECTION('',(1.0,0.0,0.0));
#797=AXIS2_PLACEMENT_3D('',#794,#795,#796);
#798=CIRCLE('',#797,0.4);
#799=EDGE_CURVE('',#793,#784,#798,.T.);
#800=ORIENTED_EDGE('',*,*,#799,.F.);
#801=CARTESIAN_POINT('',(-7.199999999999999,7.25,15.4));
#802=VERTEX_POINT('',#801);
#803=CARTESIAN_POINT('',(-7.199999999999999,6.85,15.4));
#804=DIRECTION('',(0.0,0.0,-1.0));
#805=DIRECTION('',(0.0,1.0,0.0));
#806=AXIS2_PLACEMENT_3D('',#803,#804,#805);
#807=CIRCLE('',#806,0.4);
#808=EDGE_CURVE('',#802,#793,#807,.F.);
#809=ORIENTED_EDGE('',*,*,#808,.F.);
#810=CARTESIAN_POINT('',(-7.199999999999999,7.65,15.4));
#811=DIRECTION('',(-1.0,0.0,0.0));
#812=DIRECTION('',(0.0,0.0,-1.0));
#813=AXIS2_PLACEMENT_3D('',#810,#811,#812);
#814=CIRCLE('',#813,0.4);
#815=EDGE_CURVE('',#782,#802,#814,.T.);
#816=ORIENTED_EDGE('',*,*,#815,.F.);
#817=EDGE_LOOP('',(#791,#800,#809,#816));
#818=FACE_OUTER_BOUND('',#817,.T.);
#819=ADVANCED_FACE('',(#818),#780,.T.);
#820=CARTESIAN_POINT('',(-8.0,-3.625,15.4));
#821=DIRECTION('',(0.0,-1.0,0.0));
#822=DIRECTION('',(0.707106781186546,0.0,-0.707106781186549));
#823=AXIS2_PLACEMENT_3D('',#820,#821,#822);
#824=CYLINDRICAL_SURFACE('',#823,0.4);
#825=ORIENTED_EDGE('',*,*,#593,.T.);
#826=CARTESIAN_POINT('',(-7.6,-6.85,15.4));
#827=DIRECTION('',(0.0,1.0,0.0));
#828=VECTOR('',#827,13.699999999999999);
#829=LINE('',#826,#828);
#830=EDGE_CURVE('',#576,#793,#829,.T.);
#831=ORIENTED_EDGE('',*,*,#830,.T.);
#832=ORIENTED_EDGE('',*,*,#799,.T.);
#833=CARTESIAN_POINT('',(-8.0,6.85,15.0));
#834=DIRECTION('',(0.0,-1.0,0.0));
#835=VECTOR('',#834,13.699999999999999);
#836=LINE('',#833,#835);
#837=EDGE_CURVE('',#784,#587,#836,.T.);
#838=ORIENTED_EDGE('',*,*,#837,.T.);
#839=EDGE_LOOP('',(#825,#831,#832,#838));
#840=FACE_OUTER_BOUND('',#839,.T.);
#841=ADVANCED_FACE('',(#840),#824,.F.);
#842=CARTESIAN_POINT('',(7.200000000000008,-6.85,18.600000000000001));
#843=DIRECTION('',(0.0,0.0,1.0));
#844=DIRECTION('',(1.0,0.0,0.0));
#845=AXIS2_PLACEMENT_3D('',#842,#843,#844);
#846=SPHERICAL_SURFACE('',#845,0.4);
#847=CARTESIAN_POINT('',(7.200000000000008,-7.25,18.600000000000001));
#848=VERTEX_POINT('',#847);
#849=CARTESIAN_POINT('',(7.600000000000009,-6.85,18.600000000000001));
#850=VERTEX_POINT('',#849);
#851=CARTESIAN_POINT('',(7.200000000000008,-6.85,18.600000000000001));
#852=DIRECTION('',(0.0,0.0,1.0));
#853=DIRECTION('',(0.707106781186547,-0.707106781186547,0.0));
#854=AXIS2_PLACEMENT_3D('',#851,#852,#853);
#855=CIRCLE('',#854,0.4);
#856=EDGE_CURVE('',#848,#850,#855,.T.);
#857=ORIENTED_EDGE('',*,*,#856,.T.);
#858=CARTESIAN_POINT('',(7.200000000000008,-6.85,19.0));
#859=VERTEX_POINT('',#858);
#860=CARTESIAN_POINT('',(7.200000000000008,-6.85,18.600000000000001));
#861=DIRECTION('',(0.0,-1.0,0.0));
#862=DIRECTION('',(0.0,0.0,1.0));
#863=AXIS2_PLACEMENT_3D('',#860,#861,#862);
#864=CIRCLE('',#863,0.399999999999999);
#865=EDGE_CURVE('',#859,#850,#864,.F.);
#866=ORIENTED_EDGE('',*,*,#865,.F.);
#867=CARTESIAN_POINT('',(7.200000000000008,-6.85,18.600000000000001));
#868=DIRECTION('',(1.0,0.0,0.0));
#869=DIRECTION('',(0.0,-0.707106781186549,0.707106781186546));
#870=AXIS2_PLACEMENT_3D('',#867,#868,#869);
#871=CIRCLE('',#870,0.4);
#872=EDGE_CURVE('',#859,#848,#871,.T.);
#873=ORIENTED_EDGE('',*,*,#872,.T.);
#874=EDGE_LOOP('',(#857,#866,#873));
#875=FACE_OUTER_BOUND('',#874,.T.);
#876=ADVANCED_FACE('',(#875),#846,.T.);
#877=CARTESIAN_POINT('',(-7.199999999999999,-6.85,18.600000000000001));
#878=DIRECTION('',(0.0,0.0,1.0));
#879=DIRECTION('',(1.0,0.0,0.0));
#880=AXIS2_PLACEMENT_3D('',#877,#878,#879);
#881=SPHERICAL_SURFACE('',#880,0.4);
#882=CARTESIAN_POINT('',(-7.199999999999999,-7.25,18.600000000000001));
#883=VERTEX_POINT('',#882);
#884=CARTESIAN_POINT('',(-7.199999999999999,-6.85,19.0));
#885=VERTEX_POINT('',#884);
#886=CARTESIAN_POINT('',(-7.199999999999999,-6.85,18.600000000000001));
#887=DIRECTION('',(-1.0,0.0,0.0));
#888=DIRECTION('',(0.0,-0.707106781186549,0.707106781186546));
#889=AXIS2_PLACEMENT_3D('',#886,#887,#888);
#890=CIRCLE('',#889,0.4);
#891=EDGE_CURVE('',#883,#885,#890,.T.);
#892=ORIENTED_EDGE('',*,*,#891,.T.);
#893=CARTESIAN_POINT('',(-7.6,-6.85,18.600000000000001));
#894=VERTEX_POINT('',#893);
#895=CARTESIAN_POINT('',(-7.199999999999999,-6.85,18.600000000000001));
#896=DIRECTION('',(0.0,-1.0,0.0));
#897=DIRECTION('',(-1.0,0.0,0.0));
#898=AXIS2_PLACEMENT_3D('',#895,#896,#897);
#899=CIRCLE('',#898,0.4);
#900=EDGE_CURVE('',#894,#885,#899,.F.);
#901=ORIENTED_EDGE('',*,*,#900,.F.);
#902=CARTESIAN_POINT('',(-7.199999999999999,-6.85,18.600000000000001));
#903=DIRECTION('',(0.0,0.0,1.0));
#904=DIRECTION('',(-0.707106781186547,-0.707106781186547,0.0));
#905=AXIS2_PLACEMENT_3D('',#902,#903,#904);
#906=CIRCLE('',#905,0.4);
#907=EDGE_CURVE('',#894,#883,#906,.T.);
#908=ORIENTED_EDGE('',*,*,#907,.T.);
#909=EDGE_LOOP('',(#892,#901,#908));
#910=FACE_OUTER_BOUND('',#909,.T.);
#911=ADVANCED_FACE('',(#910),#881,.T.);
#912=CARTESIAN_POINT('',(7.200000000000001,6.85,18.600000000000001));
#913=DIRECTION('',(0.0,0.0,1.0));
#914=DIRECTION('',(1.0,0.0,0.0));
#915=AXIS2_PLACEMENT_3D('',#912,#913,#914);
#916=SPHERICAL_SURFACE('',#915,0.4);
#917=CARTESIAN_POINT('',(7.600000000000001,6.85,18.600000000000001));
#918=VERTEX_POINT('',#917);
#919=CARTESIAN_POINT('',(7.2,7.25,18.600000000000001));
#920=VERTEX_POINT('',#919);
#921=CARTESIAN_POINT('',(7.200000000000001,6.85,18.600000000000001));
#922=DIRECTION('',(0.0,0.0,1.0));
#923=DIRECTION('',(0.707106781186547,0.707106781186547,0.0));
#924=AXIS2_PLACEMENT_3D('',#921,#922,#923);
#925=CIRCLE('',#924,0.4);
#926=EDGE_CURVE('',#918,#920,#925,.T.);
#927=ORIENTED_EDGE('',*,*,#926,.T.);
#928=CARTESIAN_POINT('',(7.200000000000002,6.85,19.0));
#929=VERTEX_POINT('',#928);
#930=CARTESIAN_POINT('',(7.200000000000002,6.85,18.600000000000001));
#931=DIRECTION('',(1.0,0.0,0.0));
#932=DIRECTION('',(0.0,0.0,1.0));
#933=AXIS2_PLACEMENT_3D('',#930,#931,#932);
#934=CIRCLE('',#933,0.399999999999999);
#935=EDGE_CURVE('',#929,#920,#934,.F.);
#936=ORIENTED_EDGE('',*,*,#935,.F.);
#937=CARTESIAN_POINT('',(7.200000000000001,6.85,18.600000000000001));
#938=DIRECTION('',(0.0,1.0,0.0));
#939=DIRECTION('',(0.707106781186551,0.0,0.707106781186544));
#940=AXIS2_PLACEMENT_3D('',#937,#938,#939);
#941=CIRCLE('',#940,0.4);
#942=EDGE_CURVE('',#929,#918,#941,.T.);
#943=ORIENTED_EDGE('',*,*,#942,.T.);
#944=EDGE_LOOP('',(#927,#936,#943));
#945=FACE_OUTER_BOUND('',#944,.T.);
#946=ADVANCED_FACE('',(#945),#916,.T.);
#947=CARTESIAN_POINT('',(-7.199999999999999,6.85,18.600000000000001));
#948=DIRECTION('',(0.0,0.0,1.0));
#949=DIRECTION('',(1.0,0.0,0.0));
#950=AXIS2_PLACEMENT_3D('',#947,#948,#949);
#951=SPHERICAL_SURFACE('',#950,0.4);
#952=CARTESIAN_POINT('',(-7.6,6.85,18.600000000000001));
#953=VERTEX_POINT('',#952);
#954=CARTESIAN_POINT('',(-7.199999999999999,6.85,19.0));
#955=VERTEX_POINT('',#954);
#956=CARTESIAN_POINT('',(-7.199999999999999,6.85,18.600000000000001));
#957=DIRECTION('',(0.0,1.0,0.0));
#958=DIRECTION('',(-0.707106781186549,0.0,0.707106781186546));
#959=AXIS2_PLACEMENT_3D('',#956,#957,#958);
#960=CIRCLE('',#959,0.4);
#961=EDGE_CURVE('',#953,#955,#960,.T.);
#962=ORIENTED_EDGE('',*,*,#961,.T.);
#963=CARTESIAN_POINT('',(-7.199999999999999,7.25,18.600000000000001));
#964=VERTEX_POINT('',#963);
#965=CARTESIAN_POINT('',(-7.199999999999999,6.85,18.600000000000001));
#966=DIRECTION('',(-1.0,0.0,0.0));
#967=DIRECTION('',(0.0,1.0,0.0));
#968=AXIS2_PLACEMENT_3D('',#965,#966,#967);
#969=CIRCLE('',#968,0.4);
#970=EDGE_CURVE('',#964,#955,#969,.F.);
#971=ORIENTED_EDGE('',*,*,#970,.F.);
#972=CARTESIAN_POINT('',(-7.199999999999999,6.85,18.600000000000001));
#973=DIRECTION('',(0.0,0.0,1.0));
#974=DIRECTION('',(-0.707106781186547,0.707106781186547,0.0));
#975=AXIS2_PLACEMENT_3D('',#972,#973,#974);
#976=CIRCLE('',#975,0.4);
#977=EDGE_CURVE('',#964,#953,#976,.T.);
#978=ORIENTED_EDGE('',*,*,#977,.T.);
#979=EDGE_LOOP('',(#962,#971,#978));
#980=FACE_OUTER_BOUND('',#979,.T.);
#981=ADVANCED_FACE('',(#980),#951,.T.);
#982=CARTESIAN_POINT('',(-3.8,6.85,18.600000000000001));
#983=DIRECTION('',(1.0,0.0,0.0));
#984=DIRECTION('',(0.0,0.707106781186549,0.707106781186546));
#985=AXIS2_PLACEMENT_3D('',#982,#983,#984);
#986=CYLINDRICAL_SURFACE('',#985,0.4);
#987=ORIENTED_EDGE('',*,*,#935,.T.);
#988=CARTESIAN_POINT('',(7.2,7.25,18.600000000000001));
#989=DIRECTION('',(-1.0,0.0,0.0));
#990=VECTOR('',#989,14.399999999999999);
#991=LINE('',#988,#990);
#992=EDGE_CURVE('',#920,#964,#991,.T.);
#993=ORIENTED_EDGE('',*,*,#992,.T.);
#994=ORIENTED_EDGE('',*,*,#970,.T.);
#995=CARTESIAN_POINT('',(-7.199999999999999,6.85,19.0));
#996=DIRECTION('',(1.0,0.0,0.0));
#997=VECTOR('',#996,14.400000000000002);
#998=LINE('',#995,#997);
#999=EDGE_CURVE('',#955,#929,#998,.T.);
#1000=ORIENTED_EDGE('',*,*,#999,.T.);
#1001=EDGE_LOOP('',(#987,#993,#994,#1000));
#1002=FACE_OUTER_BOUND('',#1001,.T.);
#1003=ADVANCED_FACE('',(#1002),#986,.T.);
#1004=CARTESIAN_POINT('',(-7.199999999999999,6.85,15.0));
#1005=DIRECTION('',(0.0,0.0,1.0));
#1006=DIRECTION('',(-0.707106781186547,0.707106781186547,0.0));
#1007=AXIS2_PLACEMENT_3D('',#1004,#1005,#1006);
#1008=CYLINDRICAL_SURFACE('',#1007,0.4);
#1009=ORIENTED_EDGE('',*,*,#977,.F.);
#1010=CARTESIAN_POINT('',(-7.199999999999999,7.25,18.600000000000001));
#1011=DIRECTION('',(0.0,0.0,-1.0));
#1012=VECTOR('',#1011,3.200000000000001);
#1013=LINE('',#1010,#1012);
#1014=EDGE_CURVE('',#964,#802,#1013,.T.);
#1015=ORIENTED_EDGE('',*,*,#1014,.T.);
#1016=ORIENTED_EDGE('',*,*,#808,.T.);
#1017=CARTESIAN_POINT('',(-7.6,6.85,15.4));
#1018=DIRECTION('',(0.0,0.0,1.0));
#1019=VECTOR('',#1018,3.200000000000001);
#1020=LINE('',#1017,#1019);
#1021=EDGE_CURVE('',#793,#953,#1020,.T.);
#1022=ORIENTED_EDGE('',*,*,#1021,.T.);
#1023=EDGE_LOOP('',(#1009,#1015,#1016,#1022));
#1024=FACE_OUTER_BOUND('',#1023,.T.);
#1025=ADVANCED_FACE('',(#1024),#1008,.T.);
#1026=CARTESIAN_POINT('',(-7.199999999999999,-3.625000000000002,18.600000000000001));
#1027=DIRECTION('',(0.0,1.0,0.0));
#1028=DIRECTION('',(-0.707106781186549,0.0,0.707106781186546));
#1029=AXIS2_PLACEMENT_3D('',#1026,#1027,#1028);
#1030=CYLINDRICAL_SURFACE('',#1029,0.4);
#1031=ORIENTED_EDGE('',*,*,#961,.F.);
#1032=CARTESIAN_POINT('',(-7.6,6.85,18.600000000000001));
#1033=DIRECTION('',(0.0,-1.0,0.0));
#1034=VECTOR('',#1033,13.699999999999999);
#1035=LINE('',#1032,#1034);
#1036=EDGE_CURVE('',#953,#894,#1035,.T.);
#1037=ORIENTED_EDGE('',*,*,#1036,.T.);
#1038=ORIENTED_EDGE('',*,*,#900,.T.);
#1039=CARTESIAN_POINT('',(-7.199999999999999,-6.85,19.0));
#1040=DIRECTION('',(0.0,1.0,0.0));
#1041=VECTOR('',#1040,13.699999999999999);
#1042=LINE('',#1039,#1041);
#1043=EDGE_CURVE('',#885,#955,#1042,.T.);
#1044=ORIENTED_EDGE('',*,*,#1043,.T.);
#1045=EDGE_LOOP('',(#1031,#1037,#1038,#1044));
#1046=FACE_OUTER_BOUND('',#1045,.T.);
#1047=ADVANCED_FACE('',(#1046),#1030,.T.);
#1048=CARTESIAN_POINT('',(7.200000000000001,6.85,15.0));
#1049=DIRECTION('',(0.0,0.0,1.0));
#1050=DIRECTION('',(0.707106781186547,0.707106781186547,0.0));
#1051=AXIS2_PLACEMENT_3D('',#1048,#1049,#1050);
#1052=CYLINDRICAL_SURFACE('',#1051,0.4);
#1053=ORIENTED_EDGE('',*,*,#926,.F.);
#1054=CARTESIAN_POINT('',(7.600000000000001,6.85,18.600000000000001));
#1055=DIRECTION('',(0.0,0.0,-1.0));
#1056=VECTOR('',#1055,3.200000000000001);
#1057=LINE('',#1054,#1056);
#1058=EDGE_CURVE('',#918,#668,#1057,.T.);
#1059=ORIENTED_EDGE('',*,*,#1058,.T.);
#1060=ORIENTED_EDGE('',*,*,#676,.T.);
#1061=CARTESIAN_POINT('',(7.200000000000001,7.25,15.4));
#1062=DIRECTION('',(0.0,0.0,1.0));
#1063=VECTOR('',#1062,3.200000000000001);
#1064=LINE('',#1061,#1063);
#1065=EDGE_CURVE('',#670,#920,#1064,.T.);
#1066=ORIENTED_EDGE('',*,*,#1065,.T.);
#1067=EDGE_LOOP('',(#1053,#1059,#1060,#1066));
#1068=FACE_OUTER_BOUND('',#1067,.T.);
#1069=ADVANCED_FACE('',(#1068),#1052,.T.);
#1070=CARTESIAN_POINT('',(7.200000000000003,3.625,18.600000000000001));
#1071=DIRECTION('',(4.900295E-016,-1.0,0.0));
#1072=DIRECTION('',(0.707106781186549,0.0,0.707106781186546));
#1073=AXIS2_PLACEMENT_3D('',#1070,#1071,#1072);
#1074=CYLINDRICAL_SURFACE('',#1073,0.4);
#1075=ORIENTED_EDGE('',*,*,#865,.T.);
#1076=CARTESIAN_POINT('',(7.600000000000009,-6.85,18.600000000000001));
#1077=DIRECTION('',(0.0,1.0,0.0));
#1078=VECTOR('',#1077,13.699999999999999);
#1079=LINE('',#1076,#1078);
#1080=EDGE_CURVE('',#850,#918,#1079,.T.);
#1081=ORIENTED_EDGE('',*,*,#1080,.T.);
#1082=ORIENTED_EDGE('',*,*,#942,.F.);
#1083=CARTESIAN_POINT('',(7.200000000000001,6.85,19.0));
#1084=DIRECTION('',(0.0,-1.0,0.0));
#1085=VECTOR('',#1084,13.699999999999999);
#1086=LINE('',#1083,#1085);
#1087=EDGE_CURVE('',#929,#859,#1086,.T.);
#1088=ORIENTED_EDGE('',*,*,#1087,.T.);
#1089=EDGE_LOOP('',(#1075,#1081,#1082,#1088));
#1090=FACE_OUTER_BOUND('',#1089,.T.);
#1091=ADVANCED_FACE('',(#1090),#1074,.T.);
#1092=CARTESIAN_POINT('',(-7.199999999999999,-6.85,15.0));
#1093=DIRECTION('',(0.0,0.0,1.0));
#1094=DIRECTION('',(-0.707106781186547,-0.707106781186547,0.0));
#1095=AXIS2_PLACEMENT_3D('',#1092,#1093,#1094);
#1096=CYLINDRICAL_SURFACE('',#1095,0.4);
#1097=ORIENTED_EDGE('',*,*,#907,.F.);
#1098=CARTESIAN_POINT('',(-7.6,-6.85,18.600000000000001));
#1099=DIRECTION('',(0.0,0.0,-1.0));
#1100=VECTOR('',#1099,3.200000000000001);
#1101=LINE('',#1098,#1100);
#1102=EDGE_CURVE('',#894,#576,#1101,.T.);
#1103=ORIENTED_EDGE('',*,*,#1102,.T.);
#1104=ORIENTED_EDGE('',*,*,#584,.T.);
#1105=CARTESIAN_POINT('',(-7.199999999999999,-7.25,15.4));
#1106=DIRECTION('',(0.0,0.0,1.0));
#1107=VECTOR('',#1106,3.200000000000001);
#1108=LINE('',#1105,#1107);
#1109=EDGE_CURVE('',#578,#883,#1108,.T.);
#1110=ORIENTED_EDGE('',*,*,#1109,.T.);
#1111=EDGE_LOOP('',(#1097,#1103,#1104,#1110));
#1112=FACE_OUTER_BOUND('',#1111,.T.);
#1113=ADVANCED_FACE('',(#1112),#1096,.T.);
#1114=CARTESIAN_POINT('',(3.800000000000004,-6.85,18.600000000000001));
#1115=DIRECTION('',(-1.0,0.0,0.0));
#1116=DIRECTION('',(0.0,-0.707106781186549,0.707106781186546));
#1117=AXIS2_PLACEMENT_3D('',#1114,#1115,#1116);
#1118=CYLINDRICAL_SURFACE('',#1117,0.4);
#1119=ORIENTED_EDGE('',*,*,#891,.F.);
#1120=CARTESIAN_POINT('',(-7.199999999999999,-7.25,18.600000000000001));
#1121=DIRECTION('',(1.0,0.0,0.0));
#1122=VECTOR('',#1121,14.400000000000007);
#1123=LINE('',#1120,#1122);
#1124=EDGE_CURVE('',#883,#848,#1123,.T.);
#1125=ORIENTED_EDGE('',*,*,#1124,.T.);
#1126=ORIENTED_EDGE('',*,*,#872,.F.);
#1127=CARTESIAN_POINT('',(7.200000000000008,-6.85,19.0));
#1128=DIRECTION('',(-1.0,0.0,0.0));
#1129=VECTOR('',#1128,14.400000000000007);
#1130=LINE('',#1127,#1129);
#1131=EDGE_CURVE('',#859,#885,#1130,.T.);
#1132=ORIENTED_EDGE('',*,*,#1131,.T.);
#1133=EDGE_LOOP('',(#1119,#1125,#1126,#1132));
#1134=FACE_OUTER_BOUND('',#1133,.T.);
#1135=ADVANCED_FACE('',(#1134),#1118,.T.);
#1136=CARTESIAN_POINT('',(7.200000000000008,-6.85,15.0));
#1137=DIRECTION('',(0.0,0.0,1.0));
#1138=DIRECTION('',(0.707106781186547,-0.707106781186547,0.0));
#1139=AXIS2_PLACEMENT_3D('',#1136,#1137,#1138);
#1140=CYLINDRICAL_SURFACE('',#1139,0.4);
#1141=ORIENTED_EDGE('',*,*,#856,.F.);
#1142=CARTESIAN_POINT('',(7.200000000000008,-7.25,18.600000000000001));
#1143=DIRECTION('',(0.0,0.0,-1.0));
#1144=VECTOR('',#1143,3.200000000000001);
#1145=LINE('',#1142,#1144);
#1146=EDGE_CURVE('',#848,#484,#1145,.T.);
#1147=ORIENTED_EDGE('',*,*,#1146,.T.);
#1148=ORIENTED_EDGE('',*,*,#492,.T.);
#1149=CARTESIAN_POINT('',(7.600000000000009,-6.85,15.4));
#1150=DIRECTION('',(0.0,0.0,1.0));
#1151=VECTOR('',#1150,3.200000000000001);
#1152=LINE('',#1149,#1151);
#1153=EDGE_CURVE('',#486,#850,#1152,.T.);
#1154=ORIENTED_EDGE('',*,*,#1153,.T.);
#1155=EDGE_LOOP('',(#1141,#1147,#1148,#1154));
#1156=FACE_OUTER_BOUND('',#1155,.T.);
#1157=ADVANCED_FACE('',(#1156),#1140,.T.);
#1158=CARTESIAN_POINT('',(-3.8,7.65,15.4));
#1159=DIRECTION('',(-1.0,0.0,0.0));
#1160=DIRECTION('',(0.0,-0.707106781186546,-0.707106781186549));
#1161=AXIS2_PLACEMENT_3D('',#1158,#1159,#1160);
#1162=CYLINDRICAL_SURFACE('',#1161,0.4);
#1163=ORIENTED_EDGE('',*,*,#815,.T.);
#1164=CARTESIAN_POINT('',(-7.199999999999999,7.25,15.4));
#1165=DIRECTION('',(1.0,0.0,0.0));
#1166=VECTOR('',#1165,14.399999999999999);
#1167=LINE('',#1164,#1166);
#1168=EDGE_CURVE('',#802,#670,#1167,.T.);
#1169=ORIENTED_EDGE('',*,*,#1168,.T.);
#1170=ORIENTED_EDGE('',*,*,#701,.T.);
#1171=CARTESIAN_POINT('',(7.2,7.65,15.0));
#1172=DIRECTION('',(-1.0,0.0,0.0));
#1173=VECTOR('',#1172,14.399999999999999);
#1174=LINE('',#1171,#1173);
#1175=EDGE_CURVE('',#688,#782,#1174,.T.);
#1176=ORIENTED_EDGE('',*,*,#1175,.T.);
#1177=EDGE_LOOP('',(#1163,#1169,#1170,#1176));
#1178=FACE_OUTER_BOUND('',#1177,.T.);
#1179=ADVANCED_FACE('',(#1178),#1162,.F.);
#1180=CARTESIAN_POINT('',(3.800000000000004,-7.65,15.4));
#1181=DIRECTION('',(1.0,0.0,0.0));
#1182=DIRECTION('',(0.0,0.707106781186546,-0.707106781186549));
#1183=AXIS2_PLACEMENT_3D('',#1180,#1181,#1182);
#1184=CYLINDRICAL_SURFACE('',#1183,0.4);
#1185=ORIENTED_EDGE('',*,*,#501,.T.);
#1186=CARTESIAN_POINT('',(7.200000000000008,-7.25,15.4));
#1187=DIRECTION('',(-1.0,0.0,0.0));
#1188=VECTOR('',#1187,14.400000000000007);
#1189=LINE('',#1186,#1188);
#1190=EDGE_CURVE('',#484,#578,#1189,.T.);
#1191=ORIENTED_EDGE('',*,*,#1190,.T.);
#1192=ORIENTED_EDGE('',*,*,#609,.T.);
#1193=CARTESIAN_POINT('',(-7.199999999999999,-7.65,15.0));
#1194=DIRECTION('',(1.0,0.0,0.0));
#1195=VECTOR('',#1194,14.400000000000007);
#1196=LINE('',#1193,#1195);
#1197=EDGE_CURVE('',#596,#495,#1196,.T.);
#1198=ORIENTED_EDGE('',*,*,#1197,.T.);
#1199=EDGE_LOOP('',(#1185,#1191,#1192,#1198));
#1200=FACE_OUTER_BOUND('',#1199,.T.);
#1201=ADVANCED_FACE('',(#1200),#1184,.F.);
#1202=CARTESIAN_POINT('',(7.600000000000001,7.25,15.0));
#1203=DIRECTION('',(1.0,0.0,0.0));
#1204=DIRECTION('',(0.0,0.0,-1.0));
#1205=AXIS2_PLACEMENT_3D('',#1202,#1203,#1204);
#1206=PLANE('',#1205);
#1207=ORIENTED_EDGE('',*,*,#716,.F.);
#1208=ORIENTED_EDGE('',*,*,#1058,.F.);
#1209=ORIENTED_EDGE('',*,*,#1080,.F.);
#1210=ORIENTED_EDGE('',*,*,#1153,.F.);
#1211=EDGE_LOOP('',(#1207,#1208,#1209,#1210));
#1212=FACE_OUTER_BOUND('',#1211,.T.);
#1213=ADVANCED_FACE('',(#1212),#1206,.T.);
#1214=CARTESIAN_POINT('',(0.0,0.0,15.0));
#1215=DIRECTION('',(0.0,0.0,1.0));
#1216=DIRECTION('',(1.0,0.0,0.0));
#1217=AXIS2_PLACEMENT_3D('',#1214,#1215,#1216);
#1218=PLANE('',#1217);
#1219=CARTESIAN_POINT('',(-10.949999999999999,-10.6,15.0));
#1220=VERTEX_POINT('',#1219);
#1221=CARTESIAN_POINT('',(-10.949999999999999,10.600000000000001,15.0));
#1222=VERTEX_POINT('',#1221);
#1223=CARTESIAN_POINT('',(-10.949999999999999,-10.6,15.0));
#1224=DIRECTION('',(0.0,1.0,0.0));
#1225=VECTOR('',#1224,21.200000000000003);
#1226=LINE('',#1223,#1225);
#1227=EDGE_CURVE('',#1220,#1222,#1226,.T.);
#1228=ORIENTED_EDGE('',*,*,#1227,.F.);
#1229=CARTESIAN_POINT('',(10.950000000000001,-10.6,15.0));
#1230=VERTEX_POINT('',#1229);
#1231=CARTESIAN_POINT('',(10.950000000000001,-10.6,15.0));
#1232=DIRECTION('',(-1.0,0.0,0.0));
#1233=VECTOR('',#1232,21.899999999999999);
#1234=LINE('',#1231,#1233);
#1235=EDGE_CURVE('',#1230,#1220,#1234,.T.);
#1236=ORIENTED_EDGE('',*,*,#1235,.F.);
#1237=CARTESIAN_POINT('',(10.949999999999999,10.6,15.0));
#1238=VERTEX_POINT('',#1237);
#1239=CARTESIAN_POINT('',(10.950000000000001,10.6,15.0));
#1240=DIRECTION('',(0.0,-1.0,0.0));
#1241=VECTOR('',#1240,21.200000000000003);
#1242=LINE('',#1239,#1241);
#1243=EDGE_CURVE('',#1238,#1230,#1242,.T.);
#1244=ORIENTED_EDGE('',*,*,#1243,.F.);
#1245=CARTESIAN_POINT('',(-10.949999999999999,10.6,15.0));
#1246=DIRECTION('',(1.0,0.0,0.0));
#1247=VECTOR('',#1246,21.899999999999999);
#1248=LINE('',#1245,#1247);
#1249=EDGE_CURVE('',#1222,#1238,#1248,.T.);
#1250=ORIENTED_EDGE('',*,*,#1249,.F.);
#1251=EDGE_LOOP('',(#1228,#1236,#1244,#1250));
#1252=FACE_OUTER_BOUND('',#1251,.T.);
#1253=ORIENTED_EDGE('',*,*,#790,.F.);
#1254=ORIENTED_EDGE('',*,*,#1175,.F.);
#1255=ORIENTED_EDGE('',*,*,#694,.F.);
#1256=ORIENTED_EDGE('',*,*,#723,.F.);
#1257=ORIENTED_EDGE('',*,*,#510,.F.);
#1258=ORIENTED_EDGE('',*,*,#1197,.F.);
#1259=ORIENTED_EDGE('',*,*,#602,.F.);
#1260=ORIENTED_EDGE('',*,*,#837,.F.);
#1261=EDGE_LOOP('',(#1253,#1254,#1255,#1256,#1257,#1258,#1259,#1260));
#1262=FACE_BOUND('',#1261,.T.);
#1263=ADVANCED_FACE('',(#1252,#1262),#1218,.T.);
#1264=CARTESIAN_POINT('',(-7.6,-7.25,15.0));
#1265=DIRECTION('',(-1.0,0.0,0.0));
#1266=DIRECTION('',(0.0,0.0,1.0));
#1267=AXIS2_PLACEMENT_3D('',#1264,#1265,#1266);
#1268=PLANE('',#1267);
#1269=ORIENTED_EDGE('',*,*,#830,.F.);
#1270=ORIENTED_EDGE('',*,*,#1102,.F.);
#1271=ORIENTED_EDGE('',*,*,#1036,.F.);
#1272=ORIENTED_EDGE('',*,*,#1021,.F.);
#1273=EDGE_LOOP('',(#1269,#1270,#1271,#1272));
#1274=FACE_OUTER_BOUND('',#1273,.T.);
#1275=ADVANCED_FACE('',(#1274),#1268,.T.);
#1276=CARTESIAN_POINT('',(-7.6,7.25,15.0));
#1277=DIRECTION('',(0.0,1.0,0.0));
#1278=DIRECTION('',(0.0,0.0,1.0));
#1279=AXIS2_PLACEMENT_3D('',#1276,#1277,#1278);
#1280=PLANE('',#1279);
#1281=ORIENTED_EDGE('',*,*,#992,.F.);
#1282=ORIENTED_EDGE('',*,*,#1065,.F.);
#1283=ORIENTED_EDGE('',*,*,#1168,.F.);
#1284=ORIENTED_EDGE('',*,*,#1014,.F.);
#1285=EDGE_LOOP('',(#1281,#1282,#1283,#1284));
#1286=FACE_OUTER_BOUND('',#1285,.T.);
#1287=ADVANCED_FACE('',(#1286),#1280,.T.);
#1288=CARTESIAN_POINT('',(0.0,-3.552714E-015,19.0));
#1289=DIRECTION('',(0.0,0.0,1.0));
#1290=DIRECTION('',(1.0,0.0,0.0));
#1291=AXIS2_PLACEMENT_3D('',#1288,#1289,#1290);
#1292=PLANE('',#1291);
#1293=ORIENTED_EDGE('',*,*,#999,.F.);
#1294=ORIENTED_EDGE('',*,*,#1043,.F.);
#1295=ORIENTED_EDGE('',*,*,#1131,.F.);
#1296=ORIENTED_EDGE('',*,*,#1087,.F.);
#1297=EDGE_LOOP('',(#1293,#1294,#1295,#1296));
#1298=FACE_OUTER_BOUND('',#1297,.T.);
#1299=ADVANCED_FACE('',(#1298),#1292,.T.);
#1300=CARTESIAN_POINT('',(7.600000000000009,-7.25,15.0));
#1301=DIRECTION('',(0.0,-1.0,0.0));
#1302=DIRECTION('',(0.0,0.0,-1.0));
#1303=AXIS2_PLACEMENT_3D('',#1300,#1301,#1302);
#1304=PLANE('',#1303);
#1305=ORIENTED_EDGE('',*,*,#1109,.F.);
#1306=ORIENTED_EDGE('',*,*,#1190,.F.);
#1307=ORIENTED_EDGE('',*,*,#1146,.F.);
#1308=ORIENTED_EDGE('',*,*,#1124,.F.);
#1309=EDGE_LOOP('',(#1305,#1306,#1307,#1308));
#1310=FACE_OUTER_BOUND('',#1309,.T.);
#1311=ADVANCED_FACE('',(#1310),#1304,.T.);
#1312=CARTESIAN_POINT('',(10.950000000000001,10.6,14.6));
#1313=DIRECTION('',(0.0,0.0,1.0));
#1314=DIRECTION('',(1.0,0.0,0.0));
#1315=AXIS2_PLACEMENT_3D('',#1312,#1313,#1314);
#1316=SPHERICAL_SURFACE('',#1315,0.4);
#1317=CARTESIAN_POINT('',(11.350000000000001,10.6,14.6));
#1318=VERTEX_POINT('',#1317);
#1319=CARTESIAN_POINT('',(10.949999999999999,11.0,14.6));
#1320=VERTEX_POINT('',#1319);
#1321=CARTESIAN_POINT('',(10.950000000000001,10.6,14.6));
#1322=DIRECTION('',(0.0,0.0,1.0));
#1323=DIRECTION('',(0.707106781186548,0.707106781186548,0.0));
#1324=AXIS2_PLACEMENT_3D('',#1321,#1322,#1323);
#1325=CIRCLE('',#1324,0.4);
#1326=EDGE_CURVE('',#1318,#1320,#1325,.T.);
#1327=ORIENTED_EDGE('',*,*,#1326,.T.);
#1328=CARTESIAN_POINT('',(10.949999999999999,10.6,14.6));
#1329=DIRECTION('',(1.0,0.0,0.0));
#1330=DIRECTION('',(0.0,0.0,1.0));
#1331=AXIS2_PLACEMENT_3D('',#1328,#1329,#1330);
#1332=CIRCLE('',#1331,0.4);
#1333=EDGE_CURVE('',#1238,#1320,#1332,.F.);
#1334=ORIENTED_EDGE('',*,*,#1333,.F.);
#1335=CARTESIAN_POINT('',(10.950000000000001,10.6,14.6));
#1336=DIRECTION('',(0.0,1.0,0.0));
#1337=DIRECTION('',(0.707106781186544,0.0,0.707106781186551));
#1338=AXIS2_PLACEMENT_3D('',#1335,#1336,#1337);
#1339=CIRCLE('',#1338,0.4);
#1340=EDGE_CURVE('',#1238,#1318,#1339,.T.);
#1341=ORIENTED_EDGE('',*,*,#1340,.T.);
#1342=EDGE_LOOP('',(#1327,#1334,#1341));
#1343=FACE_OUTER_BOUND('',#1342,.T.);
#1344=ADVANCED_FACE('',(#1343),#1316,.T.);
#1345=CARTESIAN_POINT('',(10.950000000000001,-10.600000000000001,14.6));
#1346=DIRECTION('',(0.0,0.0,1.0));
#1347=DIRECTION('',(1.0,0.0,0.0));
#1348=AXIS2_PLACEMENT_3D('',#1345,#1346,#1347);
#1349=SPHERICAL_SURFACE('',#1348,0.4);
#1350=CARTESIAN_POINT('',(11.350000000000001,-10.600000000000001,14.6));
#1351=VERTEX_POINT('',#1350);
#1352=CARTESIAN_POINT('',(10.950000000000001,-10.600000000000001,14.6));
#1353=DIRECTION('',(0.0,-1.0,0.0));
#1354=DIRECTION('',(0.707106781186548,0.0,0.707106781186548));
#1355=AXIS2_PLACEMENT_3D('',#1352,#1353,#1354);
#1356=CIRCLE('',#1355,0.4);
#1357=EDGE_CURVE('',#1351,#1230,#1356,.T.);
#1358=ORIENTED_EDGE('',*,*,#1357,.T.);
#1359=CARTESIAN_POINT('',(10.950000000000001,-11.0,14.6));
#1360=VERTEX_POINT('',#1359);
#1361=CARTESIAN_POINT('',(10.950000000000001,-10.6,14.6));
#1362=DIRECTION('',(1.0,0.0,0.0));
#1363=DIRECTION('',(0.0,-1.0,0.0));
#1364=AXIS2_PLACEMENT_3D('',#1361,#1362,#1363);
#1365=CIRCLE('',#1364,0.4);
#1366=EDGE_CURVE('',#1360,#1230,#1365,.F.);
#1367=ORIENTED_EDGE('',*,*,#1366,.F.);
#1368=CARTESIAN_POINT('',(10.950000000000001,-10.600000000000001,14.6));
#1369=DIRECTION('',(0.0,0.0,1.0));
#1370=DIRECTION('',(0.707106781186551,-0.707106781186544,0.0));
#1371=AXIS2_PLACEMENT_3D('',#1368,#1369,#1370);
#1372=CIRCLE('',#1371,0.4);
#1373=EDGE_CURVE('',#1360,#1351,#1372,.T.);
#1374=ORIENTED_EDGE('',*,*,#1373,.T.);
#1375=EDGE_LOOP('',(#1358,#1367,#1374));
#1376=FACE_OUTER_BOUND('',#1375,.T.);
#1377=ADVANCED_FACE('',(#1376),#1349,.T.);
#1378=CARTESIAN_POINT('',(-10.949999999999999,10.600000000000001,14.6));
#1379=DIRECTION('',(0.0,0.0,1.0));
#1380=DIRECTION('',(1.0,0.0,0.0));
#1381=AXIS2_PLACEMENT_3D('',#1378,#1379,#1380);
#1382=SPHERICAL_SURFACE('',#1381,0.4);
#1383=CARTESIAN_POINT('',(-10.949999999999999,11.0,14.6));
#1384=VERTEX_POINT('',#1383);
#1385=CARTESIAN_POINT('',(-11.35,10.600000000000001,14.6));
#1386=VERTEX_POINT('',#1385);
#1387=CARTESIAN_POINT('',(-10.949999999999999,10.600000000000001,14.6));
#1388=DIRECTION('',(0.0,0.0,1.0));
#1389=DIRECTION('',(-0.707106781186548,0.707106781186548,0.0));
#1390=AXIS2_PLACEMENT_3D('',#1387,#1388,#1389);
#1391=CIRCLE('',#1390,0.4);
#1392=EDGE_CURVE('',#1384,#1386,#1391,.T.);
#1393=ORIENTED_EDGE('',*,*,#1392,.T.);
#1394=CARTESIAN_POINT('',(-10.949999999999999,10.600000000000001,14.6));
#1395=DIRECTION('',(0.0,1.0,0.0));
#1396=DIRECTION('',(0.0,0.0,1.0));
#1397=AXIS2_PLACEMENT_3D('',#1394,#1395,#1396);
#1398=CIRCLE('',#1397,0.4);
#1399=EDGE_CURVE('',#1222,#1386,#1398,.F.);
#1400=ORIENTED_EDGE('',*,*,#1399,.F.);
#1401=CARTESIAN_POINT('',(-10.949999999999999,10.6,14.6));
#1402=DIRECTION('',(-1.0,0.0,0.0));
#1403=DIRECTION('',(0.0,0.707106781186548,0.707106781186548));
#1404=AXIS2_PLACEMENT_3D('',#1401,#1402,#1403);
#1405=CIRCLE('',#1404,0.4);
#1406=EDGE_CURVE('',#1222,#1384,#1405,.T.);
#1407=ORIENTED_EDGE('',*,*,#1406,.T.);
#1408=EDGE_LOOP('',(#1393,#1400,#1407));
#1409=FACE_OUTER_BOUND('',#1408,.T.);
#1410=ADVANCED_FACE('',(#1409),#1382,.T.);
#1411=CARTESIAN_POINT('',(-10.949999999999999,-10.6,14.6));
#1412=DIRECTION('',(0.0,0.0,1.0));
#1413=DIRECTION('',(1.0,0.0,0.0));
#1414=AXIS2_PLACEMENT_3D('',#1411,#1412,#1413);
#1415=SPHERICAL_SURFACE('',#1414,0.4);
#1416=CARTESIAN_POINT('',(-10.949999999999999,-11.0,14.6));
#1417=VERTEX_POINT('',#1416);
#1418=CARTESIAN_POINT('',(-10.949999999999999,-10.6,14.6));
#1419=DIRECTION('',(-1.0,0.0,0.0));
#1420=DIRECTION('',(0.0,-0.707106781186548,0.707106781186548));
#1421=AXIS2_PLACEMENT_3D('',#1418,#1419,#1420);
#1422=CIRCLE('',#1421,0.4);
#1423=EDGE_CURVE('',#1417,#1220,#1422,.T.);
#1424=ORIENTED_EDGE('',*,*,#1423,.T.);
#1425=CARTESIAN_POINT('',(-11.35,-10.6,14.6));
#1426=VERTEX_POINT('',#1425);
#1427=CARTESIAN_POINT('',(-10.949999999999999,-10.6,14.6));
#1428=DIRECTION('',(0.0,-1.0,0.0));
#1429=DIRECTION('',(-1.0,0.0,0.0));
#1430=AXIS2_PLACEMENT_3D('',#1427,#1428,#1429);
#1431=CIRCLE('',#1430,0.4);
#1432=EDGE_CURVE('',#1426,#1220,#1431,.F.);
#1433=ORIENTED_EDGE('',*,*,#1432,.F.);
#1434=CARTESIAN_POINT('',(-10.949999999999999,-10.6,14.6));
#1435=DIRECTION('',(0.0,0.0,1.0));
#1436=DIRECTION('',(-0.707106781186544,-0.707106781186551,0.0));
#1437=AXIS2_PLACEMENT_3D('',#1434,#1435,#1436);
#1438=CIRCLE('',#1437,0.4);
#1439=EDGE_CURVE('',#1426,#1417,#1438,.T.);
#1440=ORIENTED_EDGE('',*,*,#1439,.T.);
#1441=EDGE_LOOP('',(#1424,#1433,#1440));
#1442=FACE_OUTER_BOUND('',#1441,.T.);
#1443=ADVANCED_FACE('',(#1442),#1415,.T.);
#1444=CARTESIAN_POINT('',(-10.949999999999999,-5.5,14.6));
#1445=DIRECTION('',(0.0,1.0,0.0));
#1446=DIRECTION('',(-0.707106781186544,0.0,0.707106781186551));
#1447=AXIS2_PLACEMENT_3D('',#1444,#1445,#1446);
#1448=CYLINDRICAL_SURFACE('',#1447,0.4);
#1449=ORIENTED_EDGE('',*,*,#1399,.T.);
#1450=CARTESIAN_POINT('',(-11.35,10.600000000000001,14.6));
#1451=DIRECTION('',(0.0,-1.0,0.0));
#1452=VECTOR('',#1451,21.200000000000003);
#1453=LINE('',#1450,#1452);
#1454=EDGE_CURVE('',#1386,#1426,#1453,.T.);
#1455=ORIENTED_EDGE('',*,*,#1454,.T.);
#1456=ORIENTED_EDGE('',*,*,#1432,.T.);
#1457=ORIENTED_EDGE('',*,*,#1227,.T.);
#1458=EDGE_LOOP('',(#1449,#1455,#1456,#1457));
#1459=FACE_OUTER_BOUND('',#1458,.T.);
#1460=ADVANCED_FACE('',(#1459),#1448,.T.);
#1461=CARTESIAN_POINT('',(-10.949999999999999,-10.6,0.0));
#1462=DIRECTION('',(0.0,0.0,1.0));
#1463=DIRECTION('',(-0.707106781186544,-0.707106781186551,0.0));
#1464=AXIS2_PLACEMENT_3D('',#1461,#1462,#1463);
#1465=CYLINDRICAL_SURFACE('',#1464,0.4);
#1466=CARTESIAN_POINT('',(-11.35,-10.600000000000001,0.0));
#1467=VERTEX_POINT('',#1466);
#1468=CARTESIAN_POINT('',(-10.949999999999999,-11.0,0.0));
#1469=VERTEX_POINT('',#1468);
#1470=CARTESIAN_POINT('',(-10.949999999999999,-10.6,0.0));
#1471=DIRECTION('',(0.0,0.0,1.0));
#1472=DIRECTION('',(-0.707106781186544,-0.707106781186551,0.0));
#1473=AXIS2_PLACEMENT_3D('',#1470,#1471,#1472);
#1474=CIRCLE('',#1473,0.4);
#1475=EDGE_CURVE('',#1467,#1469,#1474,.T.);
#1476=ORIENTED_EDGE('',*,*,#1475,.T.);
#1477=CARTESIAN_POINT('',(-10.949999999999999,-11.0,0.0));
#1478=DIRECTION('',(0.0,0.0,1.0));
#1479=VECTOR('',#1478,14.6);
#1480=LINE('',#1477,#1479);
#1481=EDGE_CURVE('',#1469,#1417,#1480,.T.);
#1482=ORIENTED_EDGE('',*,*,#1481,.T.);
#1483=ORIENTED_EDGE('',*,*,#1439,.F.);
#1484=CARTESIAN_POINT('',(-11.35,-10.6,14.6));
#1485=DIRECTION('',(0.0,0.0,-1.0));
#1486=VECTOR('',#1485,14.6);
#1487=LINE('',#1484,#1486);
#1488=EDGE_CURVE('',#1426,#1467,#1487,.T.);
#1489=ORIENTED_EDGE('',*,*,#1488,.T.);
#1490=EDGE_LOOP('',(#1476,#1482,#1483,#1489));
#1491=FACE_OUTER_BOUND('',#1490,.T.);
#1492=ADVANCED_FACE('',(#1491),#1465,.T.);
#1493=CARTESIAN_POINT('',(5.675000000000001,-10.6,14.6));
#1494=DIRECTION('',(-1.0,0.0,0.0));
#1495=DIRECTION('',(0.0,-0.707106781186548,0.707106781186548));
#1496=AXIS2_PLACEMENT_3D('',#1493,#1494,#1495);
#1497=CYLINDRICAL_SURFACE('',#1496,0.4);
#1498=ORIENTED_EDGE('',*,*,#1423,.F.);
#1499=CARTESIAN_POINT('',(-10.949999999999999,-11.0,14.6));
#1500=DIRECTION('',(1.0,0.0,0.0));
#1501=VECTOR('',#1500,21.899999999999999);
#1502=LINE('',#1499,#1501);
#1503=EDGE_CURVE('',#1417,#1360,#1502,.T.);
#1504=ORIENTED_EDGE('',*,*,#1503,.T.);
#1505=ORIENTED_EDGE('',*,*,#1366,.T.);
#1506=ORIENTED_EDGE('',*,*,#1235,.T.);
#1507=EDGE_LOOP('',(#1498,#1504,#1505,#1506));
#1508=FACE_OUTER_BOUND('',#1507,.T.);
#1509=ADVANCED_FACE('',(#1508),#1497,.T.);
#1510=CARTESIAN_POINT('',(-10.949999999999999,10.600000000000001,0.0));
#1511=DIRECTION('',(0.0,0.0,1.0));
#1512=DIRECTION('',(-0.707106781186548,0.707106781186548,0.0));
#1513=AXIS2_PLACEMENT_3D('',#1510,#1511,#1512);
#1514=CYLINDRICAL_SURFACE('',#1513,0.4);
#1515=CARTESIAN_POINT('',(-10.949999999999999,11.0,0.0));
#1516=VERTEX_POINT('',#1515);
#1517=CARTESIAN_POINT('',(-11.35,10.600000000000001,0.0));
#1518=VERTEX_POINT('',#1517);
#1519=CARTESIAN_POINT('',(-10.949999999999999,10.600000000000001,0.0));
#1520=DIRECTION('',(0.0,0.0,1.0));
#1521=DIRECTION('',(-0.707106781186548,0.707106781186548,0.0));
#1522=AXIS2_PLACEMENT_3D('',#1519,#1520,#1521);
#1523=CIRCLE('',#1522,0.4);
#1524=EDGE_CURVE('',#1516,#1518,#1523,.T.);
#1525=ORIENTED_EDGE('',*,*,#1524,.T.);
#1526=CARTESIAN_POINT('',(-11.35,10.600000000000001,0.0));
#1527=DIRECTION('',(0.0,0.0,1.0));
#1528=VECTOR('',#1527,14.6);
#1529=LINE('',#1526,#1528);
#1530=EDGE_CURVE('',#1518,#1386,#1529,.T.);
#1531=ORIENTED_EDGE('',*,*,#1530,.T.);
#1532=ORIENTED_EDGE('',*,*,#1392,.F.);
#1533=CARTESIAN_POINT('',(-10.949999999999999,11.0,14.6));
#1534=DIRECTION('',(0.0,0.0,-1.0));
#1535=VECTOR('',#1534,14.6);
#1536=LINE('',#1533,#1535);
#1537=EDGE_CURVE('',#1384,#1516,#1536,.T.);
#1538=ORIENTED_EDGE('',*,*,#1537,.T.);
#1539=EDGE_LOOP('',(#1525,#1531,#1532,#1538));
#1540=FACE_OUTER_BOUND('',#1539,.T.);
#1541=ADVANCED_FACE('',(#1540),#1514,.T.);
#1542=CARTESIAN_POINT('',(-5.675,10.6,14.6));
#1543=DIRECTION('',(1.0,0.0,0.0));
#1544=DIRECTION('',(0.0,0.707106781186548,0.707106781186548));
#1545=AXIS2_PLACEMENT_3D('',#1542,#1543,#1544);
#1546=CYLINDRICAL_SURFACE('',#1545,0.4);
#1547=ORIENTED_EDGE('',*,*,#1333,.T.);
#1548=CARTESIAN_POINT('',(10.949999999999999,11.0,14.6));
#1549=DIRECTION('',(-1.0,0.0,0.0));
#1550=VECTOR('',#1549,21.899999999999999);
#1551=LINE('',#1548,#1550);
#1552=EDGE_CURVE('',#1320,#1384,#1551,.T.);
#1553=ORIENTED_EDGE('',*,*,#1552,.T.);
#1554=ORIENTED_EDGE('',*,*,#1406,.F.);
#1555=ORIENTED_EDGE('',*,*,#1249,.T.);
#1556=EDGE_LOOP('',(#1547,#1553,#1554,#1555));
#1557=FACE_OUTER_BOUND('',#1556,.T.);
#1558=ADVANCED_FACE('',(#1557),#1546,.T.);
#1559=CARTESIAN_POINT('',(10.950000000000001,-10.600000000000001,0.0));
#1560=DIRECTION('',(0.0,0.0,1.0));
#1561=DIRECTION('',(0.707106781186551,-0.707106781186544,0.0));
#1562=AXIS2_PLACEMENT_3D('',#1559,#1560,#1561);
#1563=CYLINDRICAL_SURFACE('',#1562,0.4);
#1564=CARTESIAN_POINT('',(10.950000000000001,-11.0,0.0));
#1565=VERTEX_POINT('',#1564);
#1566=CARTESIAN_POINT('',(11.350000000000001,-10.600000000000001,0.0));
#1567=VERTEX_POINT('',#1566);
#1568=CARTESIAN_POINT('',(10.950000000000001,-10.600000000000001,0.0));
#1569=DIRECTION('',(0.0,0.0,1.0));
#1570=DIRECTION('',(0.707106781186551,-0.707106781186544,0.0));
#1571=AXIS2_PLACEMENT_3D('',#1568,#1569,#1570);
#1572=CIRCLE('',#1571,0.4);
#1573=EDGE_CURVE('',#1565,#1567,#1572,.T.);
#1574=ORIENTED_EDGE('',*,*,#1573,.T.);
#1575=CARTESIAN_POINT('',(11.350000000000001,-10.600000000000001,0.0));
#1576=DIRECTION('',(0.0,0.0,1.0));
#1577=VECTOR('',#1576,14.6);
#1578=LINE('',#1575,#1577);
#1579=EDGE_CURVE('',#1567,#1351,#1578,.T.);
#1580=ORIENTED_EDGE('',*,*,#1579,.T.);
#1581=ORIENTED_EDGE('',*,*,#1373,.F.);
#1582=CARTESIAN_POINT('',(10.950000000000001,-11.0,14.6));
#1583=DIRECTION('',(0.0,0.0,-1.0));
#1584=VECTOR('',#1583,14.6);
#1585=LINE('',#1582,#1584);
#1586=EDGE_CURVE('',#1360,#1565,#1585,.T.);
#1587=ORIENTED_EDGE('',*,*,#1586,.T.);
#1588=EDGE_LOOP('',(#1574,#1580,#1581,#1587));
#1589=FACE_OUTER_BOUND('',#1588,.T.);
#1590=ADVANCED_FACE('',(#1589),#1563,.T.);
#1591=CARTESIAN_POINT('',(10.950000000000001,5.5,14.6));
#1592=DIRECTION('',(0.0,-1.0,0.0));
#1593=DIRECTION('',(0.707106781186548,0.0,0.707106781186548));
#1594=AXIS2_PLACEMENT_3D('',#1591,#1592,#1593);
#1595=CYLINDRICAL_SURFACE('',#1594,0.4);
#1596=ORIENTED_EDGE('',*,*,#1357,.F.);
#1597=CARTESIAN_POINT('',(11.350000000000001,-10.600000000000001,14.6));
#1598=DIRECTION('',(0.0,1.0,0.0));
#1599=VECTOR('',#1598,21.200000000000003);
#1600=LINE('',#1597,#1599);
#1601=EDGE_CURVE('',#1351,#1318,#1600,.T.);
#1602=ORIENTED_EDGE('',*,*,#1601,.T.);
#1603=ORIENTED_EDGE('',*,*,#1340,.F.);
#1604=ORIENTED_EDGE('',*,*,#1243,.T.);
#1605=EDGE_LOOP('',(#1596,#1602,#1603,#1604));
#1606=FACE_OUTER_BOUND('',#1605,.T.);
#1607=ADVANCED_FACE('',(#1606),#1595,.T.);
#1608=CARTESIAN_POINT('',(10.950000000000001,10.6,0.0));
#1609=DIRECTION('',(0.0,0.0,1.0));
#1610=DIRECTION('',(0.707106781186548,0.707106781186548,0.0));
#1611=AXIS2_PLACEMENT_3D('',#1608,#1609,#1610);
#1612=CYLINDRICAL_SURFACE('',#1611,0.4);
#1613=CARTESIAN_POINT('',(11.350000000000001,10.600000000000001,0.0));
#1614=VERTEX_POINT('',#1613);
#1615=CARTESIAN_POINT('',(10.950000000000001,11.0,0.0));
#1616=VERTEX_POINT('',#1615);
#1617=CARTESIAN_POINT('',(10.950000000000001,10.6,0.0));
#1618=DIRECTION('',(0.0,0.0,1.0));
#1619=DIRECTION('',(0.707106781186548,0.707106781186548,0.0));
#1620=AXIS2_PLACEMENT_3D('',#1617,#1618,#1619);
#1621=CIRCLE('',#1620,0.4);
#1622=EDGE_CURVE('',#1614,#1616,#1621,.T.);
#1623=ORIENTED_EDGE('',*,*,#1622,.T.);
#1624=CARTESIAN_POINT('',(10.950000000000001,11.0,0.0));
#1625=DIRECTION('',(0.0,0.0,1.0));
#1626=VECTOR('',#1625,14.6);
#1627=LINE('',#1624,#1626);
#1628=EDGE_CURVE('',#1616,#1320,#1627,.T.);
#1629=ORIENTED_EDGE('',*,*,#1628,.T.);
#1630=ORIENTED_EDGE('',*,*,#1326,.F.);
#1631=CARTESIAN_POINT('',(11.350000000000001,10.6,14.6));
#1632=DIRECTION('',(0.0,0.0,-1.0));
#1633=VECTOR('',#1632,14.6);
#1634=LINE('',#1631,#1633);
#1635=EDGE_CURVE('',#1318,#1614,#1634,.T.);
#1636=ORIENTED_EDGE('',*,*,#1635,.T.);
#1637=EDGE_LOOP('',(#1623,#1629,#1630,#1636));
#1638=FACE_OUTER_BOUND('',#1637,.T.);
#1639=ADVANCED_FACE('',(#1638),#1612,.T.);
#1640=CARTESIAN_POINT('',(-11.35,11.0,0.0));
#1641=DIRECTION('',(0.0,1.0,0.0));
#1642=DIRECTION('',(0.0,0.0,1.0));
#1643=AXIS2_PLACEMENT_3D('',#1640,#1641,#1642);
#1644=PLANE('',#1643);
#1645=ORIENTED_EDGE('',*,*,#1537,.F.);
#1646=ORIENTED_EDGE('',*,*,#1552,.F.);
#1647=ORIENTED_EDGE('',*,*,#1628,.F.);
#1648=CARTESIAN_POINT('',(10.950000000000001,11.0,0.0));
#1649=DIRECTION('',(-1.0,0.0,0.0));
#1650=VECTOR('',#1649,21.899999999999999);
#1651=LINE('',#1648,#1650);
#1652=EDGE_CURVE('',#1616,#1516,#1651,.T.);
#1653=ORIENTED_EDGE('',*,*,#1652,.T.);
#1654=EDGE_LOOP('',(#1645,#1646,#1647,#1653));
#1655=FACE_OUTER_BOUND('',#1654,.T.);
#1656=ADVANCED_FACE('',(#1655),#1644,.T.);
#1657=CARTESIAN_POINT('',(11.350000000000001,11.0,0.0));
#1658=DIRECTION('',(1.0,0.0,0.0));
#1659=DIRECTION('',(0.0,0.0,-1.0));
#1660=AXIS2_PLACEMENT_3D('',#1657,#1658,#1659);
#1661=PLANE('',#1660);
#1662=ORIENTED_EDGE('',*,*,#1635,.F.);
#1663=ORIENTED_EDGE('',*,*,#1601,.F.);
#1664=ORIENTED_EDGE('',*,*,#1579,.F.);
#1665=CARTESIAN_POINT('',(11.350000000000001,-10.600000000000001,0.0));
#1666=DIRECTION('',(0.0,1.0,0.0));
#1667=VECTOR('',#1666,21.200000000000003);
#1668=LINE('',#1665,#1667);
#1669=EDGE_CURVE('',#1567,#1614,#1668,.T.);
#1670=ORIENTED_EDGE('',*,*,#1669,.T.);
#1671=EDGE_LOOP('',(#1662,#1663,#1664,#1670));
#1672=FACE_OUTER_BOUND('',#1671,.T.);
#1673=ADVANCED_FACE('',(#1672),#1661,.T.);
#1674=CARTESIAN_POINT('',(0.0,0.0,0.0));
#1675=DIRECTION('',(0.0,0.0,1.0));
#1676=DIRECTION('',(1.0,0.0,0.0));
#1677=AXIS2_PLACEMENT_3D('',#1674,#1675,#1676);
#1678=PLANE('',#1677);
#1679=ORIENTED_EDGE('',*,*,#1524,.F.);
#1680=ORIENTED_EDGE('',*,*,#1652,.F.);
#1681=ORIENTED_EDGE('',*,*,#1622,.F.);
#1682=ORIENTED_EDGE('',*,*,#1669,.F.);
#1683=ORIENTED_EDGE('',*,*,#1573,.F.);
#1684=CARTESIAN_POINT('',(-10.949999999999999,-11.0,0.0));
#1685=DIRECTION('',(1.0,0.0,0.0));
#1686=VECTOR('',#1685,21.899999999999999);
#1687=LINE('',#1684,#1686);
#1688=EDGE_CURVE('',#1469,#1565,#1687,.T.);
#1689=ORIENTED_EDGE('',*,*,#1688,.F.);
#1690=ORIENTED_EDGE('',*,*,#1475,.F.);
#1691=CARTESIAN_POINT('',(-11.35,10.600000000000001,0.0));
#1692=DIRECTION('',(0.0,-1.0,0.0));
#1693=VECTOR('',#1692,21.200000000000003);
#1694=LINE('',#1691,#1693);
#1695=EDGE_CURVE('',#1518,#1467,#1694,.T.);
#1696=ORIENTED_EDGE('',*,*,#1695,.F.);
#1697=EDGE_LOOP('',(#1679,#1680,#1681,#1682,#1683,#1689,#1690,#1696));
#1698=FACE_OUTER_BOUND('',#1697,.T.);
#1699=ADVANCED_FACE('',(#1698),#1678,.F.);
#1700=CARTESIAN_POINT('',(11.350000000000001,-11.0,0.0));
#1701=DIRECTION('',(0.0,-1.0,0.0));
#1702=DIRECTION('',(0.0,0.0,-1.0));
#1703=AXIS2_PLACEMENT_3D('',#1700,#1701,#1702);
#1704=PLANE('',#1703);
#1705=ORIENTED_EDGE('',*,*,#1481,.F.);
#1706=ORIENTED_EDGE('',*,*,#1688,.T.);
#1707=ORIENTED_EDGE('',*,*,#1586,.F.);
#1708=ORIENTED_EDGE('',*,*,#1503,.F.);
#1709=EDGE_LOOP('',(#1705,#1706,#1707,#1708));
#1710=FACE_OUTER_BOUND('',#1709,.T.);
#1711=ADVANCED_FACE('',(#1710),#1704,.T.);
#1712=CARTESIAN_POINT('',(-11.35,-11.0,0.0));
#1713=DIRECTION('',(-1.0,0.0,0.0));
#1714=DIRECTION('',(0.0,0.0,1.0));
#1715=AXIS2_PLACEMENT_3D('',#1712,#1713,#1714);
#1716=PLANE('',#1715);
#1717=ORIENTED_EDGE('',*,*,#1530,.F.);
#1718=ORIENTED_EDGE('',*,*,#1695,.T.);
#1719=ORIENTED_EDGE('',*,*,#1488,.F.);
#1720=ORIENTED_EDGE('',*,*,#1454,.F.);
#1721=EDGE_LOOP('',(#1717,#1718,#1719,#1720));
#1722=FACE_OUTER_BOUND('',#1721,.T.);
#1723=ADVANCED_FACE('',(#1722),#1716,.T.);
#1724=CLOSED_SHELL('',(#521,#613,#705,#727,#819,#841,#876,#911,#946,#981,#1003,#1025,#1047,#1069,#1091,#1113,#1135,#1157,#1179,#1201,#1213,#1263,#1275,#1287,#1299,#1311,#1344,#1377,#1410,#1443,#1460,#1492,#1509,#1541,#1558,#1590,#1607,#1639,#1656,#1673,#1699,#1711,#1723));
#1725=MANIFOLD_SOLID_BREP('1B44',#1724);
#1726=DRAUGHTING_PRE_DEFINED_COLOUR('blue');
#1727=SURFACE_STYLE_USAGE(.BOTH.,#1728);
#1728=SURFACE_SIDE_STYLE('NONE',(#1729));
#1729=SURFACE_STYLE_FILL_AREA(#1730);
#1730=FILL_AREA_STYLE('NONE',(#1731));
#1731=FILL_AREA_STYLE_COLOUR('NONE',#1726);
#1732=PRESENTATION_STYLE_ASSIGNMENT((#1727));
#1733=STYLED_ITEM('NONE',(#1732),#1725);
#1734=ADVANCED_BREP_SHAPE_REPRESENTATION('ABSR1',(#152,#250,#339,#428,#1725),#28);
#1735=SHAPE_REPRESENTATION_RELATIONSHIP('SRRPL1','',#1734,#62);
ENDSEC;
END-ISO-10303-21;
